ʃ	ʃ
ɪ	ɪ
<prompt>	<prompt>
<click>	<click>
ʈ	ʈ
ʊ	ʊ
ʐ	ʐ
ʒ	ʒ
<laugh>	<laugh>
<hes>	<hes>
ʝ	ʝ
ʂ	ʂ
<overlap>	<overlap>
<female-to-male>	<female-to-male>
<foreign>	<foreign>
ʤ	ʤ
ʧ	ʧ
ʦ	ʦ
<lipsmack>	<lipsmack>
<breath>	<breath>
<male-to-female>	<male-to-female>
<sta>	<sta>
Ɂ	Ɂ
<no-speech>	<no-speech>
ŋ	ŋ
<cough>	<cough>
ʣ	ʣ
ɑ	ɑ
<int>	<int>
<ring>	<ring>
ɖ	ɖ
ə	ə
a	a
ɣ	ɣ
b	b
e	e
d	d
g	g
f	f
h	h
k	k
j	j
m	m
l	l
o	o
n	n
q	q
p	p
s	s
ɲ	ɲ
t	t
w	w
<dtmf>	<dtmf>
x	x
z	z
ɽ	ɽ
ɾ	ɾ
