[0.000]
<no-speech>
[5.035]
hoy manoy Dan
[6.075]
<no-speech>
[8.555]
hello Dan
[9.245]
<no-speech>
[10.475]
aw asa ka karon
[11.645]
<no-speech>
[13.685]
hello asa ka karon
[15.395]
<no-speech>
[17.975]
ti naa ra ko' diri (())
[19.285]
<no-speech>
[20.265]
naa ra ko' diri sa <foreign> sa karsada
[22.055]
<no-speech>
[23.835]
sa karsada oy dili' intawon ko' kalusot
[25.735]
<no-speech>
[27.145]
tambay-tambay lang
[28.435]
<no-speech>
[30.415]
nag-standby
[31.355]
<no-speech>
[33.695]
ay mao lang gihapon oy lain diay ato' nga ba lain diay ato' nga nagtrabaho na diay ka karon
[38.485]
<no-speech>
[40.575]
nagtrabaho na diay ka- karon <int> aha man ka dapit nagtrabaho
[43.865]
<no-speech>
[44.835]
ha
[45.305]
<no-speech>
[47.735]
<hes> sila nagtrabaho na daw nagtrabaho na daw ka <sta> paminaw ba nagtrabaho na daw ka sa Dunkin' Donuts
[53.235]
<no-speech>
[56.325]
<int> nagtrabaho na daw ka sa Dunkin' Donuts
[58.905]
<no-speech>
[60.175]
nagtrabaho na daw ka sa Dunkin' Donuts
[62.095]
<no-speech>
[63.925]
uniya' unsa ang pila ang imo nga suwildo didto
[66.145]
<no-speech>
[68.115]
pila imo nga suwildo
[69.085]
<no-speech>
[72.315]
<hes> <no-speech> <foreign> dako' na kaayo na oy no
[74.915]
<no-speech>
[78.355]
dako' na kaayo na nga suwilduha no
[79.855]
<no-speech>
[81.805]
<sta> unsa-unsa
[82.965]
<no-speech>
[85.995]
<hes> oy unsa ang paminaw ana' nga nagtrabaho sa Dunkin' Donuts <int>
[90.055]
<no-speech>
[91.685]
<int> unsa
[92.925]
<no-speech>
[94.475]
unsa ang paminaw ba nga nagtrabaho sa Dunkin' Donuts
[97.265]
<no-speech>
[99.525]
<int> unsa imo nga giingon
[100.855]
<no-speech>
[102.425]
dili' ba unsa ang paminaw <int> trabaho ka sa Dunkin' Donuts
[105.135]
<no-speech>
[107.415]
dili' ka kadungog
[108.335]
<no-speech>
[111.665]
unsa ang paminaw nga nagtrabaho ka sa Dunkin' Donuts
[114.385]
<no-speech>
[120.455]
<hes> uniya' kumusta man ang dun- imo nga trabaho karon <no-speech> kumusta man imo nga trabaho
[125.415]
<no-speech>
[134.485]
wala' nagkuan nag nag-nurse <int> nag-private nurse
[138.415]
<no-speech>
[140.565]
<no-speech>
[141.035]
<no-speech>
[145.485]
diri lang sa amua nga dapit nakakita' ko' og pasiyinti diri nga bantayanan
[150.315]
<no-speech>
[153.345]
<no-speech>
[153.695]
<no-speech>
[156.855]
unsa-unsa
[157.735]
<no-speech>
[160.565]
unsa imo nga giingon
[161.445]
<no-speech>
[163.575]
sa uspital na (())
[165.705]
<no-speech>
[166.545]
wala' pa wala' pa manawag pa man to sa akua manawag pa to sila
[170.515]
<no-speech>
[171.625]
manawag pa sila sa ako' <int> uo
[174.075]
<no-speech>
[176.075]
(())
[177.095]
<no-speech>
[177.995]
kasab-an nimo sa mga bata' sa pedia
[180.145]
<no-speech>
[182.205]
ha mao ra man to
[184.115]
<no-speech>
[185.225]
<laugh> Davao ay
[186.725]
<no-speech>
[187.915]
aw dili' <prompt> sudlon diri diri lang o didto na lang ko' sa amo' sa Agusan <sta>
[194.505]
<no-speech>
[196.765]
oy
[197.335]
<no-speech>
[198.665]
didto lang ko' sa Agusan kay <sta> uo hello didto lang ko' sa Agusan kay hello
[204.025]
<no-speech>
[205.575]
didto lang ko' sa Agusan kay dagko' og suwildo
[208.025]
<no-speech>
[209.875]
<int> didto lang ko' sa Agusan kay dagko' og suwildo
[212.575]
<no-speech>
[214.555]
<int> ha
[215.095]
<no-speech>
[218.145]
unsa imo nga giingon <laugh>
[220.215]
<no-speech>
[221.355]
<laugh> uo naunsa man kana' nga speaker nimo
[224.885]
<no-speech>
[227.615]
<int> oy Dan
[228.775]
<no-speech>
[231.275]
ha
[231.815]
<no-speech>
[233.905]
kanus-a ko' muuli' naa pa man ko' diri sa Davao
[236.335]
<no-speech>
[238.015]
naa pa man ko' diri sa Davao <int>
[239.665]
<no-speech>
[240.815]
<sta> <laugh> naa pa ko' sa Davao wala' pa ko' sa Agusan
[244.095]
<no-speech>
[247.405]
hoy
[247.965]
<no-speech>
[249.265]
uo naa pa ko' diri sa Davao oy
[251.295]
<no-speech>
[253.275]
unsa
[253.875]
<no-speech>
[257.105]
diri lang
[257.875]
<no-speech>
[258.805]
diri lang laag-laag lang ko' diri nagkuan lagi ko' nag-private nurse nag-private nurse lagi ko'
[263.765]
<no-speech>
[264.975]
samtang wala' pa ko' sa uspital <int>
[266.575]
<no-speech>
[270.175]
mmm
[270.725]
<no-speech>
[276.275]
<sta> kinsa mama nimo <laugh> ngano nga mag (()) si auntie Myrna
[280.935]
<no-speech>
[282.075]
<laugh> si auntie si aun- uo si auntie
[285.405]
<no-speech>
[286.465]
mama nimo uniya' mama nako' o mama nimo <laugh> dili' mama nako' naa ra sa amo' (()) naa sa balay asa man ang mama nimo
[295.355]
<no-speech>
[297.845]
<laugh> mao gani' ang mama nako' naa ra sa balay si mama nimo si auntie asa man si auntie ron
[303.025]
<no-speech>
[308.915]
<hes> nag naa ra mo sa balay imuha nga mama
[311.655]
<no-speech>
[314.805]
<no-speech>
[315.285]
<no-speech>
[316.345]
unsa ang unsa ang trabaho sa imuha nga mama karon <laugh>
[319.175]
<no-speech>
[322.025]
<int> <no-speech> unsa ang trabaho sa imuha nga mama karon
[324.785]
<no-speech>
[326.815]
<laugh> nangampa og asawa didto kay iliksiyon na man diay karon no
[330.275]
<no-speech>
[332.795]
uniya' kinsa ang kinsa ang manok sa iniyuha karon
[335.235]
<no-speech>
[339.105]
hoy
[339.625]
<no-speech>
[340.905]
<hes> si Avilla <laugh>
[342.615]
<no-speech>
[345.025]
<no-speech>
[345.385]
<no-speech>
[346.195]
<hes> kinsa <dtmf>
[347.075]
<no-speech>
[348.755]
<sta> kinsa man <hes> kinsa man kalaban ni Avilla karon
[353.215]
<no-speech>
[355.355]
kinsa ing kalaban ni Avilla
[356.735]
<no-speech>
[358.475]
kinsa ing kalaban ni Avilla <int> kinsa ing kalaban ni Avilla
[363.235]
<no-speech>
[366.395]
ha
[366.875]
<no-speech>
[368.165]
<hes> si Duterte kinsa nga Duterte kadto nga asawa
[371.235]
<no-speech>
[373.725]
kinsa nga Duterte kadto nga asawa <hes> si January <no-speech> uniya' kusog daw si January kinsa ing kusog sa ilaha nga duha
[381.005]
<no-speech>
[381.935]
<sta> uniya' kinsa ing kusog sa ilaha nga duha si Duterte o si Avilla <no-speech> hoy
[390.545]
<no-speech>
[391.775]
<sta> <no-speech> ha
[392.935]
<no-speech>
[395.725]
<no-speech>
[396.485]
<no-speech>
[397.295]
<sta> si Avilla diay ang manok ni mama nimo diay
[400.175]
<no-speech>
[403.465]
<hes>
[404.385]
<no-speech>
[408.835]
<hes> si mama <foreign> man kadto mura og naa ra sa balay <sta> <hes> wala' biya' to ing trabaho si mama
[414.915]
<no-speech>
[417.715]
<int> wala' to ing trabaho si mama
[420.195]
<no-speech>
[421.855]
ha
[422.405]
<no-speech>
[424.325]
<no-speech>
[424.675]
<no-speech>
[426.595]
ay si papa <foreign> nag-drive og mot- nag-drive ra man kadto og motor
[431.405]
<no-speech>
[434.025]
nag-drive ra man ko' ron kapuwa' oy ako' nga papa <breath>
[436.355]
<no-speech>
[438.055]
<breath> hoy
[439.145]
<no-speech>
[440.935]
si mama diay og si papa naa ra sa balay nag-drive daw og motor kapuwa' baya' kadto
[445.205]
<no-speech>
[447.565]
<breath> si uncle diay aha asa diay si uncle ron
[450.375]
<no-speech>
[454.145]
hoy
[454.705]
<no-speech>
[455.575]
asa diay si uncle
[456.605]
<no-speech>
[457.455]
oy choppy choppy gayod kaayo ka
[459.195]
<no-speech>
[460.865]
<hes> naa ra sa uban
[462.065]
<no-speech>
[464.485]
<hes> <no-speech> oy unsaon pagpang-apply dira' sa imo nga gitrabahuan
[468.515]
<no-speech>
[470.785]
<breath> unsa
[471.725]
<no-speech>
[472.835]
unsa ing un- unsaon pagpang-apply dira' sa imuha nga gitrabahuan
[476.345]
<no-speech>
[483.855]
<hes> biodata ra ing kinahanglan <int>
[486.755]
<no-speech>
[487.705]
o biodata ra ing kinahanglan
[489.425]
<no-speech>
[490.825]
<sta> <hes> uniya'
[498.235]
<no-speech>
[499.155]
sayon lang sayon lang <no-speech> mang-apply dira'
[501.525]
<no-speech>
[502.895]
uo sayon lang mag-apply dira'
[504.395]
<no-speech>
[506.095]
sayon lang mag-apply
[507.345]
<no-speech>
[511.045]
pil- pila pod ka adlaw pila pod ka adlaw ang training
[513.735]
<no-speech>
[514.875]
pila ka adlaw ang training
[516.145]
<no-speech>
[518.115]
pila ka adlaw ang training
[519.655]
<no-speech>
[522.375]
<int> <no-speech> pila upat
[523.655]
<no-speech>
[530.815]
mmm uniya' naa kay <foreign> miana' naana' mo ing bayad miana'
[534.885]
<no-speech>
[538.875]
oy naana' mo ing bayad miana'
[540.235]
<no-speech>
[541.325]
(()) <sta> <hes> allowance
[544.605]
<no-speech>
[546.775]
unsa-unsa
[547.545]
<no-speech>
[550.325]
unsa
[550.935]
<no-speech>
[552.615]
<hes> <sta> <no-speech> <hes>
[557.655]
<no-speech>
[558.985]
<sta> <no-speech> uo
[560.605]
<no-speech>
[562.055]
choppy gayod kaayo ka ay <int>
[565.095]
<no-speech>
[567.075]
hello Dan
[567.855]
<no-speech>
[570.835]
<hes> choppy kaayo kapangita' ra gayod og signal dira'
[574.095]
<no-speech>
[575.225]
choppy kaayo ka ba
[576.195]
<no-speech>
[581.295]
<hes> <no-speech> uniya' pauli' na diay ka ron
[583.675]
<no-speech>
[584.585]
pauli' na ka ron
[585.585]
<no-speech>
[588.645]
pauli' na ka ron
[589.705]
<no-speech>
[594.925]
dira' gihapon ka sa <foreign> sa Catalunan Grande nagpuyo'
[597.615]
<no-speech>
[598.620]
