[0.000]
kadungog mao
[1.295]
<no-speech>
[2.555]
<int> pislita ni og usab nuon nga
[5.135]
<no-speech>
[6.615]
pangayo'
[7.175]
<no-speech>
[8.005]
oh
[8.575]
<no-speech>
[9.585]
<no-speech>
[9.995]
<no-speech>
[11.955]
hello
[12.625]
<no-speech>
[14.455]
ay oh kumusta
[16.405]
<no-speech>
[18.655]
hello <int> hello
[21.365]
<no-speech>
[23.895]
oh kay (()) giataki huh
[28.155]
<no-speech>
[29.195]
<int> oh
[30.565]
<no-speech>
[32.485]
oy kumusta man ang kuan kadto nga panghitabo'
[36.185]
<no-speech>
[37.335]
<sta> oh okay lang piro kadto nga kuan lagi <foreign> lagi diri nga hitabua <foreign> nag <foreign> didto ba uniya' luoy kaayo didto kay kuan daghan kaayo og nanga-damage
[47.025]
<no-speech>
[49.525]
ay kuan didto mga karaan kaayo og mga (())
[52.695]
<no-speech>
[54.705]
oh luoy kaayo
[56.025]
<no-speech>
[56.855]
makita' nimo sa kuan ba nga <hes> grabi
[59.575]
<no-speech>
[61.335]
grabi gayod ing kuan ba
[62.735]
<no-speech>
[63.705]
oh grabi didto luoy kaayo nga mga balay mga kuan nga mga
[68.365]
<no-speech>
[69.475]
nangahugmak daghan kaayo og mga nangamatay
[72.165]
<no-speech>
[73.155]
<int> grabi nga kuan atong linog <hes>
[75.655]
<no-speech>
[77.615]
<sta> ambot ngano nga kana' didto nga makadali' sila nga makakuan (()) recover <int> <hes> uo makit-an man gayod nimo nga daghan kaayo og mga nanga-damage mga kuan
[89.545]
<no-speech>
[89.695]
<no-speech>
[91.085]
oh (()) nangumusta ko' nila didto aw okay lang man gihapon ang kuan didto piro ang
[95.785]
<no-speech>
[96.765]
huh <sta> (()) aw ang mga kuan didto ba kadto nga pariyinti ni
[103.445]
<no-speech>
[104.485]
oh uniya' okay ra man daw okay ra man daw piro kuan lagi daghan kaayo og nanga-damage kadto nga mga duol namo' nga kuan
[110.425]
<no-speech>
[112.085]
sa igkanto nga seven point two man to nga kuan
[114.985]
<no-speech>
[117.275]
oh luoy lagi kaayo nga mga tao didto karon (()) namo' wala' pa gayod ka-recover ang uban
[121.845]
<no-speech>
[124.785]
<int> lagi uniya' grabi pa kadto nga mga kuan didto karon kay uban wala' pa gikaon wala' pa pampalit og kuan
[132.715]
<no-speech>
[133.615]
<sta> mao kana' nga pirti gayod ing luuya nila didto
[136.345]
<no-speech>
[138.225]
sa <no-speech> imo nga mga kuan dinha' kumusta man
[140.875]
<no-speech>
[144.885]
oh <int> wala' lagi ing mga tubig didto uniya' <sta>
[153.655]
<no-speech>
[155.075]
<no-speech>
[156.125]
<no-speech>
[158.395]
kuan
[159.015]
<no-speech>
[165.435]
oh lisod kaayo nga mga pagkaon didto mga
[168.035]
<no-speech>
[169.385]
oh uniya' mao man gihapon naa pa mga kuan daghan pa wala' pa maagii ang mga kalsada naa pa naa didto wala' pa mangaayo daw mao gani' gi prublimahan sigi lang kuan ba uniya' magsigi pa man daw didto og <int>
[183.655]
<no-speech>
[184.755]
magsigi pa man daw og lihok gihapon ang yuta'
[187.735]
<no-speech>
[189.285]
<no-speech>
[192.835]
<no-speech>
[194.835]
<no-speech>
[195.185]
<no-speech>
[200.735]
<hes> <int>
[203.075]
<no-speech>
[204.165]
<int> aw wala' pa ko' ka kuan pod lagi kaayo didto kay dili' man gayod usahay (()) ang cellphone gayod kay magsigi og putol-putol mura og kulang pa
[215.615]
signal ba
[216.465]
<no-speech>
[224.775]
<no-speech>
[225.135]
<no-speech>
[226.025]
oh uniya' <int>
[227.425]
<no-speech>
[231.695]
<int> (())
[233.125]
<no-speech>
[238.585]
<hes> uniya' unsa man ay ato' nga pa lutsan na diay padulong <sta> didto maayo ka ing ma kuan (()) mularga na lang ka karon pa-Manila naa pod
[250.515]
<int> mularga naa pod sila didto imo nga mga kuan pa-Manila
[254.315]
<no-speech>
[258.845]
uniya' (())
[260.015]
<no-speech>
[262.185]
dili' ba baha'-baha' man sa baha' man sa Manila kay naa man pod mga bagiyo-bagiyo pod didto
[267.545]
<no-speech>
[268.755]
<no-speech>
[269.175]
<no-speech>
[270.185]
mura kuan sila didto pod <int>
[272.855]
<no-speech>
[283.905]
ay
[284.835]
<no-speech>
[288.465]
<hes> grabi bitaw karon nga mga kalaminad nga nahitabo' diri sa atua karon oy
[292.465]
<no-speech>
[293.485]
mura og kuan na kaayo diri sa atua pod diri sa Davao naa ing mga baha'
[298.095]
<no-speech>
[299.495]
naa ing kuan <int> grabi gayod ba <sta> ngita' na lang gayod kita' ani og kuan magkuan na lang kita' ani unsa ang pagbuot sa Ginuo unsa ang kuan ani <sta>
[310.605]
<int> <hes> uniya' kana' nga unsa man mga gikuan didto (()) kana' nga mga kuan naa ing mga gipangkaon didto
[317.705]
<no-speech>
[318.635]
amua didto nga wala' man mga kuan lisod daw sila pamalit og sud-an kay wala' pod daw namaligiya' wala' pa
[325.305]
<no-speech>
[327.205]
huh <sta>
[330.635]
<no-speech>
[338.145]
<no-speech>
[345.655]
<sta> mao lagi maayo unta' og maabot kana' nga tabang didto kay lisod na kaayo
[350.985]
<no-speech>
[352.345]
grabi kana' nga kuan didto nga dapita oy (())
[355.085]
<no-speech>
[356.345]
uniya'
[356.855]
<no-speech>
[358.955]
<no-speech>
[359.445]
<no-speech>
[360.675]
ma <no-speech> kuan man pod kita' gayod kay mabalaka pod tag maayo didto ba kay unsaon nila pagkuan
[368.245]
<no-speech>
[369.765]
grabi <int> kuan karon nga panahuna oy
[372.625]
<no-speech>
[374.905]
ay Manila pod grabi og baha' grabi og kuan
[378.945]
<no-speech>
[380.945]
<int> uniya' diri pod sa atua
[382.955]
<no-speech>
[384.225]
diri pod sa Davao <hes>
[385.865]
<no-speech>
[387.425]
kay dili' nato' masabtan ang climate karon nga panahuna ba kay dili' na mahibaluan ko' nga nga naa ing mga kalamidad nga muabot dayon
[394.045]
<no-speech>
[394.995]
<int> dili' na dili' ta dili' kapangandam <int>
[399.525]
<no-speech>
[401.465]
<int> aw wala' na gayod ta
[404.295]
<no-speech>
[406.975]
<no-speech>
[408.095]
<no-speech>
[410.135]
aw kana' lang gayod ato' nga nga ikuan ang ilikay kita' sa mga katalagman nga kuan
[414.935]
<no-speech>
[416.855]
<no-speech>
[417.315]
<no-speech>
[418.935]
ang kuan gani' didto makita' nimo unsa (()) chocolate (()) nangaguba' ang Chocolate Hills sa Bohol kadto nga mga guwapo nga talan-awon didto wala' na mga simbahan
[429.625]
<int> hurot tulay
[433.195]
<no-speech>
[433.995]
mga balay daghan kaayo og mga nangatumba
[436.645]
<no-speech>
[440.365]
lagi (()) dagko' kaayo nga mga bukid nangabuak nangliki' man uniya'
[444.695]
<no-speech>
[447.265]
uniya' ang kuyaw ana' ba og naa ing mu-bar down ba <foreign> ang mga tao sa ubos
[451.745]
<no-speech>
[453.555]
kay pinakaluoy gayod <int>
[455.625]
<no-speech>
[457.365]
dapat ila gayod na nga ikuan
[459.135]
<no-speech>
[461.035]
(())
[461.515]
<no-speech>
[470.085]
<int> <hes> mao lagi
[472.305]
<no-speech>
[479.585]
uniya' <no-speech> wala' kay plano nga mubakasiyon
[484.315]
<no-speech>
[486.145]
<hes> puhon-puhon ko' nga naa ing makakuwarta kay pait pod kaayo diri pod kay
[490.405]
<no-speech>
[492.735]
<int> pait na pod kaayo ron diri kay lisod na pod
[497.285]
<no-speech>
[499.695]
<int> aw oh og
[502.475]
<no-speech>
[506.695]
aw puhon og unsa ang kuan magtigom-tigom kita' ani og (()) dako' pod gasto
[510.895]
<no-speech>
[513.515]
<int> dinha' gayod
[515.355]
<no-speech>
[521.605]
oh makakuan kita' puhon lugar-lugar kita' gamay og naa ingon unta' ingon pamasahi magkuan kita' ngadto
[528.305]
<no-speech>
[530.175]
dili' <hes> manglakaw kay pilipita nako' diri pod kay <no-speech> usahay wala' ing kuwarta
[536.105]
<no-speech>
[537.355]
naa ing trabaho usahay wala'
[538.995]
<no-speech>
[539.925]
<no-speech>
[542.545]
<no-speech>
[545.345]
pirti nga lisu- lisura
[546.455]
<no-speech>
[549.275]
uniya' kumusta na man kuan didto sa <int>
[553.595]
<no-speech>
[555.365]
<no-speech>
[556.275]
<no-speech>
[557.425]
<no-speech>
[557.795]
<no-speech>
[558.635]
<int> kumusta man sila didto sa ila nga kuan didto sa iniyuha nga lugar <int> okay lang sila didto wala' man ing mga kuan <int>
[568.445]
<no-speech>
[571.705]
unsa man ing
[572.565]
<no-speech>
[577.985]
<int> mura og piro didto sa amua nga lisod man kaayo naglisod pa kaayo magkuha' og sud-an ka ing wala' pa mo abot didto ang isda' ka ing
[585.945]
<no-speech>
[586.865]
(()) naa ing muabot piro piti pod nga mahala kay kabalo gayod biya' ka <int> nga mga tulay didto nangaguba' man og maayo gayod uniya' ang uban didto nga <int> kuan
[599.405]
<no-speech>
[599.920]
