[0.000]
<no-speech>
[1.265]
<no-speech>
[1.615]
<no-speech>
[13.175]
<no-speech>
[13.535]
<no-speech>
[14.335]
hello
[15.675]
<no-speech>
[16.725]
hello Dong
[18.345]
<no-speech>
[22.555]
o dong J_R asa ka karon
[24.975]
<no-speech>
[26.455]
asa ka ron
[27.405]
<no-speech>
[29.425]
<hes> o <hes> kumusta na man si mama nimo
[33.325]
<no-speech>
[37.045]
kumusta na si mama nimo
[38.725]
<no-speech>
[40.485]
mama nimo ba kumusta na man siya
[42.535]
<no-speech>
[43.685]
aw unsa man ni ako' nga nabalitaan nga miundang na man daw ka og iskuwila
[48.325]
<no-speech>
[51.775]
(()) ha <no-speech> ayaw gayod pag-ana' dong J_R ayaw gayod pag-undang-undang og iskuwila kay kabalo ka imo nga ati naningkamot gayod baya' pag-ayo nga makahuman mo tanan og iskuwila
[63.345]
<no-speech>
[73.835]
nasabtan ba ko' nimo
[75.235]
<no-speech>
[78.545]
mao gayod dapat gayod ka muapas
[81.255]
<no-speech>
[82.415]
(()) uniya' ra gayod na nga uyab-uyab oy asa ra kana'
[85.705]
<no-speech>
[86.605]
mmm gisayangan ka no kay imo nga mga ka-batch wala' na
[90.835]
<no-speech>
[92.515]
o
[93.145]
<no-speech>
[94.685]
biyaan gayod ka
[95.965]
<no-speech>
[97.575]
gisayangan nimo ang tuig
[99.355]
<no-speech>
[100.435]
maapasan pa ka ana' sa imo nga manghod
[102.265]
<no-speech>
[103.775]
o karon unsa ing may plano nimo
[106.705]
<no-speech>
[109.205]
ha
[109.845]
<no-speech>
[113.665]
lisod gayod baya' wala' ing ma kuan wala' ing mahuman labon na para sa iniyo nga lalaki dapat gayod naa ing mahuman
[122.485]
<no-speech>
[123.735]
mao
[124.425]
<no-speech>
[125.625]
ako' gani' ani oh migahot ko' og trabaho kay lisod kaayo <no-speech> pait kaayo ang kinabuhi' ron so dapat maningkamot gayod mo kay <foreign> naa pa ing kaya ipagpaiskuwila sa iniyo iskuwila gayod
[137.425]
<no-speech>
[138.925]
<no-speech>
[140.175]
mmm uniya' ra na nga kiat-kiat oy
[142.005]
<no-speech>
[143.895]
mmm
[144.605]
<no-speech>
[149.625]
naa diri lagi nanggahot og trabaho trabaho diri trabaho didto
[153.815]
<no-speech>
[155.155]
para mu-survive kay pait kaayo
[158.035]
<no-speech>
[160.955]
o para dubli ang income mao ra man gihapon kulang ra
[165.865]
<no-speech>
[168.855]
uniya' unsa may plano nimo sa imo nga kinabuhi' ron
[172.615]
<no-speech>
[177.795]
ha
[178.445]
<no-speech>
[180.985]
<no-speech>
[181.345]
<no-speech>
[183.585]
uniya' ganahan ka ana'
[184.945]
<no-speech>
[186.645]
<no-speech>
[187.025]
<no-speech>
[188.135]
si ati nimo dili' ba naa man sa Japan
[190.625]
<no-speech>
[192.955]
mmm
[193.675]
<no-speech>
[197.345]
o
[198.125]
<no-speech>
[199.615]
mao gani' paningkamot gayod mo kay iniyo nga magulang wala' mo kabalo unsa nay iya nga giagian didto nga kalisod
[208.245]
<no-speech>
[209.165]
pila pa gayod mo paiskuwilahunon tulo
[213.395]
<no-speech>
[214.545]
uniya' si mama nimo wala' pod ing trabaho kay
[217.335]
<no-speech>
[218.375]
mmm dapat gayod sunod tuig maningkamot na gayod ka ayaw gayod og undang-undang oy
[223.535]
<no-speech>
[224.475]
magmahay gayod ka dong J_R
[226.495]
<no-speech>
[228.515]
lisod kaayo tan-awa lang na nga iniyo nga mga silingan gayod dinha' o
[233.225]
<no-speech>
[234.465]
naa ginagukod na pirmi og kuan
[236.665]
<no-speech>
[237.635]
<no-speech>
[238.015]
<no-speech>
[238.935]
o
[239.805]
<no-speech>
[240.995]
dapat gayod
[241.995]
<no-speech>
[243.065]
uniya' si mama nimo unsa may nigusiyo niya ron
[246.115]
<no-speech>
[251.015]
hello mama nimo ba unsa ing nigusiyo niya karon
[254.625]
<no-speech>
[258.155]
<hes>
[258.805]
<no-speech>
[264.615]
<hes>
[265.595]
<no-speech>
[268.125]
mag-gimmick-gimmick piro ang iya nga nigusiyo naa gihapon siya ing nigusiyo wala' na
[272.635]
<no-speech>
[276.455]
si mama nimo naa pa ing business imo nga mama o wala' na
[279.495]
<no-speech>
[284.475]
mmm anak mikuan to nga kuya nimo
[288.705]
<no-speech>
[290.265]
asa man diay si kuya nimo nagtrabaho
[292.505]
<no-speech>
[294.815]
ha <no-speech> si kuya nimo asa diay nagtrabaho
[298.605]
<no-speech>
[300.935]
kuya nimo ba asa nagtrabaho diay karon
[303.495]
<no-speech>
[307.685]
<hes> sa kuan no trucking
[309.915]
<no-speech>
[311.315]
so imo nga mama nagabantay ron sa iya nga anak
[314.655]
<no-speech>
[315.765]
mmm
[316.575]
<no-speech>
[319.265]
<foreign> diay tirada ni mommy Isar karon
[321.905]
<no-speech>
[322.915]
ang asawa diay sa imo nga kuya asa pod
[326.005]
<no-speech>
[327.475]
ha
[328.195]
<no-speech>
[329.665]
asawa sa imo nga kuya asa diay
[331.605]
<no-speech>
[333.995]
<no-speech>
[334.345]
<no-speech>
[335.275]
<hes> o asawa sa imo nga kuya ba asa diay nagtrabaho pod siya <no-speech> asawa ni kuya nimo
[342.375]
<no-speech>
[344.565]
ha
[345.265]
<no-speech>
[346.555]
<no-speech>
[346.905]
<no-speech>
[349.015]
Abreeza <hes> maayo
[351.205]
<no-speech>
[352.265]
mas maayo oy kay duha sila nagtrabaho mmm wala' ing pait mahitabo' <no-speech> tapos si kinsa gani' to ing pangalan sa iniyo nga <foreign>
[364.155]
imo nga bun- iniyo nga <foreign> ba <foreign> niniyo unsa gani' pangalan <no-speech> to nga kinamanghuran niniyo ba unsa gani' to ing pangalan niya
[376.065]
<hes> si Jackie o asa man siya nag-iskuwila karon o asa man siya nag-iskuwila
[386.115]
<no-speech>
[387.205]
asa siya nag-iskuwila o asa nag-iskuwila si Jackie
[390.475]
<no-speech>
[393.845]
mmm Kapitan Tomas grade six o maapasan ka ana' sigi ka og undang-undang <no-speech> lagi unsa man ka ron grade eight
[405.485]
maapasan ka ana' sigi ka og undang-undang
[407.825]
<no-speech>
[408.655]
o ganahan ka <no-speech> gani' ganahan ka nga maapasan ka niya
[413.515]
<no-speech>
[415.285]
mmm mao gayod paningkamot oy
[418.755]
<no-speech>
[420.185]
oy dong J_R i-regards ko' sa imo nga mama ha naa imo nga mama dinha' ron
[425.135]
<no-speech>
[426.635]
o i-regards lang ko' ha
[428.655]
<no-speech>
[429.655]
ninang baya' nako' kana' <laugh> December na baya' ron <no-speech> ingna' naa ing nangayo' og kuan naa ing nangayo' og pinaskuhan
[439.135]
<no-speech>
[440.055]
lagi
[441.995]
<no-speech>
[442.955]
o nag-chat man mi usahay sa imo nga ati panagsa ra pod lagi <no-speech> imo nga ati naga-chat man mi panagsa ra pod
[451.505]
<no-speech>
[452.985]
kay tagsa ra man pod gayod ko' maka-open sa ako' nga kuan account
[456.945]
<no-speech>
[459.065]
bibo gihapon mo dinha' sa iniyuha
[461.985]
<no-speech>
[465.515]
bibo gihapon mo dinha' sa iniyuha nga lugar
[467.605]
<no-speech>
[469.495]
iniyo nga lugar karon ba mao ba gihapon bibo gihapon <no-speech> ha
[473.505]
<no-speech>
[474.425]
mmm
[476.455]
<no-speech>
[477.855]
mmm <no-speech> <hes> ako'-ako' nga mga anak ako' nga bana mao ing gabantay ron oy
[482.235]
<no-speech>
[483.945]
wala' may wala' man siya ing trabaho ron kay next week pa iyaha nga trabaho <no-speech> o one six three siya ron kay next week pa man mag-resume iya nga trabaho <no-speech> mao naako' sa ron ing
[495.855]
kuan (())
[497.215]
<no-speech>
[498.205]
<hes> next week pa lagi daw magsugod ang project nila ambot as- asa o
[501.835]
<no-speech>
[503.375]
humana man gayod kana' nga dinha' kana' nga dinha' nga site humana ambot kay ingon muuban musabay man daw na siya sa Surallah
[511.535]
<no-speech>
[512.625]
Surallah naapod daw ilaha nga next project <no-speech> piro ingon gani' ko' sa iyaha mas maayo ko' nga si kuan gani' <no-speech> si kuya Toto nimo ba
[523.815]
pauliay na man daw sila gikan og Cagayan <no-speech> ingon gani' ko' sa iyaha suggest ko' sa iya nga sa sa ila Toto na lang siya musabay kay naa man daw sila ing project diri lang sa Davao
[534.145]
<no-speech>
[536.565]
mas nindot man gayod na nga naa ra diri sa duol
[538.965]
<no-speech>
[540.495]
mmm hapit na lagi daw muuli'
[543.845]
<no-speech>
[545.125]
ingon gani' ko' sa iyaha sabay lang siya sa project nila Toto diri kay mura og layo' man kaayo to nga Surallah oy <no-speech> uniya'
[552.055]
<no-speech>
[552.985]
mangita' baya' na iya nga anak sa iyaha mmm giingnan nako' try gani' basin diay og kuan pariho lang og rate basin og pariho lang og rate ba
[564.665]
muadto siya og Surallah layo' man to
[566.675]
<no-speech>
[568.655]
maayo man na nga diri lang sa Davao kay anytime mmm
[572.385]
<no-speech>
[573.335]
layo' gayod <no-speech> kuan pod kana' nga amo' nga <foreign> kay attached kaayo na sa iyaha oy pirminti mangita' sa iya nga papa
[582.965]
<no-speech>
[585.365]
papa-papahon amo' nga kuan kana' nga <foreign> namo' si Jasmine <no-speech> sigi lang og lihok-lihok asa si papa ma so dili' gayod puwidi ha
[594.245]
<no-speech>
[595.765]
karon nga Pasko magpa-party man daw si ati Let
[598.875]
<no-speech>
[599.755]
magpa-party man daw si ati Let
[601.775]
<no-speech>
[603.205]
didto ra pod sa atubangan ra pod sa amua
[605.615]
<no-speech>
[606.875]
mmm magbuntagay daw ambot lang mmm <int>
[613.375]
<no-speech>
[613.439]
