[0.000]
<no-speech>
[7.605]
<no-speech>
[8.065]
<no-speech>
[10.575]
<no-speech>
[11.005]
<no-speech>
[15.765]
<no-speech>
[16.125]
<no-speech>
[17.255]
<no-speech>
[17.635]
<no-speech>
[18.835]
<no-speech>
[19.635]
<no-speech>
[22.195]
hello
[23.065]
<no-speech>
[26.205]
<no-speech>
[26.635]
<no-speech>
[31.415]
o
[32.395]
<no-speech>
[38.975]
<no-speech>
[45.555]
(())
[46.605]
<no-speech>
[49.785]
<no-speech>
[50.335]
<no-speech>
[51.465]
Santa Anna
[53.525]
<no-speech>
[58.115]
o Santa Anna
[59.265]
<no-speech>
[64.285]
<foreign> daghan basta unsa basta uniya' nga naa ing Uyanguren nakabutang sa unsa niya
[71.025]
<no-speech>
[73.885]
<no-speech>
[74.245]
<no-speech>
[76.225]
unsa wala' nako' nadungog
[78.765]
<no-speech>
[79.745]
<no-speech>
[81.595]
<no-speech>
[82.575]
sixteen mag-seventeen na karon nga February twenty five
[86.395]
<no-speech>
[90.915]
<laugh> dili' pa pod kaayo oy grabi pod kana'
[94.545]
<no-speech>
[96.055]
<no-speech>
[96.435]
<no-speech>
[100.665]
dili' ko' invited selected lang daw
[103.825]
<no-speech>
[105.105]
<no-speech>
[105.905]
<no-speech>
[108.105]
daghan og bisita ato' Yan
[112.415]
<no-speech>
[116.045]
piro <foreign> kaayo
[117.435]
<no-speech>
[122.765]
<no-speech>
[124.075]
<no-speech>
[125.735]
uniya' kumusta kadto iniyo nga sayaw-sayaw kadto nga K Pop K Pop Yam
[128.605]
<no-speech>
[132.515]
(())
[133.175]
<no-speech>
[134.695]
<no-speech>
[135.585]
<no-speech>
[136.805]
piro enjoy ang debut ni Jean Yan
[139.295]
<no-speech>
[142.765]
ngi ngano man
[144.865]
<no-speech>
[147.435]
o graduating ay dili' pa oy mag fourth year pa gani' ko' next year pa
[153.535]
<no-speech>
[154.695]
o mag fourth year pa
[157.025]
<no-speech>
[162.125]
tulo lang baya' mi piro lahi' ko' og lahi' ko' og unsa papa
[165.675]
<no-speech>
[172.745]
five tapos ang pinakamagulangan kay two
[176.105]
<no-speech>
[180.715]
<no-speech>
[181.075]
<no-speech>
[186.405]
sunod pa sunod year pa siguro kay bata' pa man dili' pa puwidi sa preschool
[191.645]
<no-speech>
[193.105]
<no-speech>
[193.545]
<no-speech>
[195.495]
<no-speech>
[195.855]
<no-speech>
[197.175]
siguro ko' nga paiskuwilahon siya ni mama
[199.725]
<no-speech>
[201.975]
<no-speech>
[202.485]
<no-speech>
[206.875]
o ganahan pod piro bata' pa man pod sayang ang kuwarta oy ko' nga ko' nga maahat
[213.035]
<no-speech>
[217.565]
unsa wala' nako' nadunggan
[219.765]
<no-speech>
[223.455]
dili' oy dili' pa baya' ko' pasudlon sa mga gimmick-an <foreign> <foreign> idad pa daw sixteen <foreign> <foreign> idad <laugh> luoy kaayo
[232.325]
<no-speech>
[233.895]
mmm piro kana' ang unsa kana' ang kana' ang dili' gayod kaayo siya ingon nga kana' ang gimmick-an gayod
[239.835]
<no-speech>
[241.375]
<no-speech>
[242.965]
<no-speech>
[245.835]
<no-speech>
[246.215]
<no-speech>
[247.735]
<no-speech>
[248.855]
<no-speech>
[252.915]
o
[253.565]
<no-speech>
[255.315]
<no-speech>
[255.665]
<no-speech>
[265.755]
<no-speech>
[266.195]
<no-speech>
[267.125]
o
[270.225]
<no-speech>
[271.055]
<no-speech>
[272.525]
<no-speech>
[274.055]
putol-putol imo nga tingog Yan
[276.615]
<no-speech>
[280.185]
hinay kusugi gamay
[283.685]
<no-speech>
[289.805]
uniya' pagkahuman ani muuli' sa balay mamainit
[294.585]
<no-speech>
[300.125]
gutom kaayo pag-uli' ani oy
[301.855]
<no-speech>
[303.465]
<no-speech>
[304.565]
<no-speech>
[306.535]
asa dili' asa diay ka muadto Yan
[310.535]
<no-speech>
[314.775]
wow <foreign> party <no-speech> dato' gayod diay ka Yan
[320.685]
<no-speech>
[322.585]
<no-speech>
[323.915]
<no-speech>
[325.765]
<foreign> gayod ka Yan ba
[328.115]
<no-speech>
[329.035]
<no-speech>
[329.685]
<no-speech>
[332.915]
asa nag <foreign> iskuwila karon Yan
[334.755]
<no-speech>
[338.065]
dili' ba nag dili' ba nag <foreign> man ka women's man ka ato'
[341.195]
<no-speech>
[349.345]
(()) nag-U_M ka karon
[351.125]
<no-speech>
[361.995]
<no-speech>
[362.375]
<no-speech>
[364.865]
<hes> mao diay
[366.245]
<no-speech>
[370.325]
ngi dili' pa gani' sure makapasa ko' course agad
[373.645]
<no-speech>
[379.235]
kinsa kato nga naga-drive og taxi
[382.645]
<no-speech>
[385.265]
ngi
[385.955]
<no-speech>
[387.095]
<no-speech>
[388.075]
<no-speech>
[389.165]
uniya' close mo Yan
[392.445]
<no-speech>
[397.015]
<no-speech>
[397.745]
<no-speech>
[400.045]
<laugh> guwapa asa dapit
[402.385]
<no-speech>
[403.445]
<no-speech>
[404.665]
<no-speech>
[411.935]
unsa diay ka uras mulakaw Yan
[413.645]
<no-speech>
[417.495]
ha
[417.995]
<no-speech>
[422.975]
ngi ay taxi diay iniyo nga gisakiyan ato'
[426.525]
<no-speech>
[432.195]
unsa
[432.945]
<no-speech>
[436.515]
choppy gamay
[437.625]
<no-speech>
[440.885]
mmm ang last dili' kaayo madungog ang last
[443.935]
<no-speech>
[446.095]
<no-speech>
[446.525]
<no-speech>
[448.095]
<no-speech>
[448.455]
<no-speech>
[450.065]
ha
[451.035]
<no-speech>
[452.185]
<no-speech>
[453.265]
<no-speech>
[455.665]
ay dili' ba Yan dili' man mo close ni Honey Yan okay na mo karon
[461.025]
<no-speech>
[462.955]
<no-speech>
[463.935]
<no-speech>
[465.485]
piro kadto sa una ba mura og mortal enemy kaayo mo dili' gayod mo magkasinabtanay
[470.765]
<no-speech>
[472.725]
dili' gayod kaayo mo magkasinabtanay sa una ba
[478.325]
<no-speech>
[479.325]
<no-speech>
[481.805]
<no-speech>
[484.115]
babayi man gayod si Honey pod ba
[485.975]
<no-speech>
[486.885]
<no-speech>
[487.255]
<no-speech>
[488.265]
<no-speech>
[488.625]
<no-speech>
[489.875]
ngi piro dawat na kana' sa imo papa imo nga pagkabayot Yan
[494.935]
<no-speech>
[498.465]
<no-speech>
[499.145]
<no-speech>
[501.945]
<no-speech>
[502.305]
<no-speech>
[503.675]
<no-speech>
[504.145]
<no-speech>
[510.895]
tagaasa imo nga adtuan karon Yan
[512.665]
<no-speech>
[513.905]
o
[514.425]
<no-speech>
[515.845]
tagaasa imo nga adtuan karon na party
[519.595]
<no-speech>
[520.935]
<no-speech>
[521.395]
<no-speech>
[522.825]
sa Ma-a *asa* dapit sa Ma-a sa Sunny Point
[526.825]
<no-speech>
[529.415]
mag-taxi diay ka padulong didtua
[531.505]
<no-speech>
[533.715]
<no-speech>
[534.075]
<no-speech>
[537.415]
ay piro nagahulat ka sa text lang nila ko' nga asa dapit
[541.205]
<no-speech>
[542.015]
<no-speech>
[542.425]
<no-speech>
[545.685]
hello Yan <no-speech> unsa
[550.795]
<no-speech>
[553.385]
sa unsa oy sa G Mall sa unsa ba rainbow nag-unsa man gayod sila nag-promo sila
[560.005]
<no-speech>
[562.765]
unsa-unsa
[565.465]
<no-speech>
[567.095]
tag-three hundred lang oy piro dili'
[568.965]
<no-speech>
[570.175]
three hundred piro dili' siya unsa dili' siya dili' siya one year
[574.295]
<no-speech>
[576.035]
<foreign> lang three months lang siya tag-three hundred siya piro dili' siya one year dili' ba kasagaran contact lens kay tag-one year man gayod basta dali' ay kani siya kay three months
[587.875]
lang tag-three hundred lang man piro <no-speech> dili' pa man gayod siya sakit suuton usa kay sayang ang three hundred <breath>
[596.955]
<no-speech>
[599.305]
<no-speech>
[599.655]
<no-speech>
[600.865]
o libri na siya solution piro gamay siya na solution og unsa
[605.085]
<no-speech>
[605.260]
