[0.000]
<no-speech>
[2.445]
<no-speech>
[3.405]
<no-speech>
[10.955]
<no-speech>
[11.355]
<no-speech>
[12.765]
<no-speech>
[13.215]
<no-speech>
[15.425]
hello
[17.785]
<no-speech>
[19.835]
hello (())
[21.875]
<no-speech>
[23.485]
<sta> uo pali- ay <foreign> ugma' palihog ko' kay <foreign> kay Nica og kay <foreign> ha Briggs sa ilaha nga <foreign> sa ila nga pag-iskuwila ang carpool tapos <foreign> kana' nga (()) uo palihog pod ko' og kana' nga palihog pod ko' og <foreign> na ba sa iya nga pagbayad nako'
[46.425]
sa kana' nga ila nga carpool basi og mga katapusan na lang
[49.775]
<no-speech>
[50.935]
uniya' basi og wala' ing klasi si oy basi og
[53.945]
<no-speech>
[55.085]
<hes> <hes> basi og wala' ing klasi sila Nica mga alas-tris sundua na lang pagka alas-dusi sa udto
[62.095]
<no-speech>
[63.685]
uniya' Hen uniya' Hen palihog pod ko' kay kay Sally ugma' paadtuon siya sa balay ni <foreign> ni mama Pipay kay naa daw ihatag si (()) sa iyaha
[74.955]
<no-speech>
[75.915]
pakisulti na lang pod
[77.515]
<no-speech>
[79.115]
<hes>
[83.455]
<no-speech>
[85.835]
<hes>
[86.595]
<no-speech>
[87.495]
<hes> uniya'
[89.175]
<no-speech>
[92.085]
<hes> mura og na- <hes> mura og naa to ing klasi karon ay ugma' sila Briggs og basi og ko' nga half day lang pakisundo' na lang pod og apil iapil siya kay Nene
[100.455]
<no-speech>
[101.755]
uniya' Ems <foreign> pod
[103.915]
<no-speech>
[105.495]
<hes> uniya' kay wala' na ra ba si Ron-ron mag <hes> mag mubalik na siya og kana' nga duty sa kana' nga kana' nga collector dili' na makasundo' pagkahapon ikaw na lang
[117.275]
<no-speech>
[118.305]
uniya' si
[119.365]
<no-speech>
[121.995]
<hes>
[122.735]
<no-speech>
[124.175]
uniya' si <hes> naa ing klasi sila <hes> si <foreign> si Lang-lang pod iapil na lang pod kay basin ibilin ni Nani kay naa sila ing lakuwon ni Judith
[134.715]
<no-speech>
[135.645]
ugma' puhon
[136.895]
<no-speech>
[141.755]
<hes> si Lang-lang <hes> iapil siya kay Mimi
[145.635]
<no-speech>
[147.275]
<hes>
[147.935]
<no-speech>
[150.315]
<hes> iapil <hes>
[152.205]
<no-speech>
[153.705]
Nica og si Briggs apila <hes> pakiapil kay Mimi
[157.965]
<no-speech>
[159.415]
<hes> uniya' Hen ko' nga ma- ko' nga makit-an nimo si Mai-mai palihog ang palihog lang ingna' daw kadto ang kato nga order nako' sa Avon kay basi og naabot na kadto ko' nga okay na kadto
[170.945]
<no-speech>
[171.745]
palihog ko' iunsa ko' nga na
[174.155]
<no-speech>
[175.455]
<hes> ko' nga naabot na kadto ang order nako' sa iyaha kay muhatag na lang pod ko' sa iyaha og down
[179.965]
<no-speech>
[181.255]
<hes> kato ang gi-order nako' sa iyaha og lipstick og <hes> lipstick og perfume kay mag down na lang pod ko' sa iya
[189.035]
<no-speech>
[190.235]
<hes> og kato nga lipstick
[191.765]
<no-speech>
[193.435]
<hes> kay mag down na lang pod ko' sa iyaha og kuwarta ugma'
[196.585]
<no-speech>
[197.825]
<hes> ko' nga sakali' magkita' mo <hes>
[201.625]
<no-speech>
[203.945]
uniya' si
[205.535]
<no-speech>
[206.525]
<hes> <no-speech> <hes>
[209.045]
<no-speech>
[212.065]
<hes> pakiingon lang sa iyaha <hes> palihog pod ko' og ingon sa iyaha
[216.005]
<no-speech>
[217.585]
uniya' si ngano nga si Yaray kumusta na <no-speech> birthday man daw niya karon sa balay
[222.825]
<no-speech>
[223.765]
naghanda' siya kaganina
[225.395]
<no-speech>
[232.965]
uniya' ni
[233.795]
<no-speech>
[236.565]
<hes> uniya'
[237.995]
<no-speech>
[240.915]
uniya' miilog dayon si <foreign>
[242.645]
<no-speech>
[245.995]
<hes> mao gani' miuli' dayon og si iya nga mama Lolit <no-speech> midayon og uli'
[250.775]
<no-speech>
[257.905]
<hes>
[258.885]
<no-speech>
[260.915]
ay basin pod
[262.105]
<no-speech>
[268.295]
mmm
[269.105]
<no-speech>
[273.655]
<hes> mao gayod
[274.675]
<no-speech>
[279.215]
<hes> mao gayod kay basi pod <foreign> kadto siya sa uras pod kay sa Panabo para ba kadto muuli'
[284.415]
<no-speech>
[285.985]
<no-speech>
[286.425]
<no-speech>
[288.505]
uniya' ang kato iya nga kuya madayon pa kadto og uli'
[291.445]
<no-speech>
[292.605]
ma- madayon pa kadto iya nga kuya og (())
[294.615]
<no-speech>
[296.155]
ay wala' ing kuwarta
[297.635]
<no-speech>
[298.855]
kulang ang pamasahi <int> <no-speech> magtigom pa siguro pod
[304.995]
<no-speech>
[306.235]
<hes> mao gayod
[308.575]
<no-speech>
[309.575]
<no-speech>
[310.535]
<no-speech>
[311.665]
<no-speech>
[312.275]
<no-speech>
[315.665]
<cough> makauli' dinhi <cough> mas maayo siguro ko' nga makauli' kay para magtapok pod sila mag-igsuon
[323.295]
<no-speech>
[324.885]
magtapok-tapok sila nga mag-igsuon
[326.935]
<no-speech>
[328.925]
<hes>
[329.665]
<no-speech>
[330.565]
tapos <foreign> sila muuli' sa sila sa Pangi
[333.855]
<no-speech>
[335.715]
<hes>
[336.475]
<no-speech>
[342.355]
<hes> mao gayod ingon miana' gayod <hes>
[346.055]
<no-speech>
[346.895]
uniya' makakaon sa matag-adlaw mao gayod ang impurtanti
[349.855]
<no-speech>
[353.845]
uniya' si
[354.745]
<no-speech>
[356.075]
si yuyo si yuyo naa man to ing duty ugma' no <hes> si yuyo naa man to ing duty ugma' no
[362.325]
<no-speech>
[363.785]
si yuyo ugma' no kay
[365.315]
<no-speech>
[366.295]
ako' diay ingnon nga magsabay mi ugma' og kana' nga out <hes> mag <foreign> mag mag-adto sa <foreign>
[372.695]
<no-speech>
[374.335]
ako' diay ingnon
[375.545]
<no-speech>
[377.295]
uniya'
[377.945]
<no-speech>
[380.335]
<hes> magsabay mi og gawas <no-speech> <hes> magdungan mi duty
[384.655]
<no-speech>
[388.305]
<hes>
[389.285]
<no-speech>
[390.335]
<hes> ako' nga ingnon
[391.525]
<no-speech>
[400.315]
<hes> miana'
[401.135]
<no-speech>
[402.125]
<hes>
[402.865]
<no-speech>
[405.045]
<hes> <hes> <hes> palihog ko' og sundo' kay wala' na biya' si Ron-ron
[409.385]
<no-speech>
[410.195]
mubalik na siya og kana' nga siya sa collector <hes> pagkahapon <hes> ko' nga mularga si gani' sila mga udto sundua na lang og apil
[418.345]
<no-speech>
[420.005]
kay basi og maisa na lang nako' ila nga carpool pagbayad
[423.795]
<no-speech>
[424.785]
ang pagiyad nila sa carpool basi og mga katapusan na lang maisa nako'
[428.475]
<no-speech>
[430.185]
uniya' si <foreign> pod
[431.565]
<no-speech>
[433.265]
<hes>
[434.015]
<no-speech>
[436.395]
<hes> uniya' si <foreign>
[438.325]
<no-speech>
[441.335]
si Lang-lang pakiapil na lang pod siya basi og matingala iya nga mama nga wala' giapil og sundo' <no-speech> iapil iapil na lang pod og sundo'
[449.055]
<no-speech>
[450.385]
<hes> iapil nimo siya og sundo'
[452.255]
<no-speech>
[453.805]
uniya' pangutan-a
[454.985]
<no-speech>
[456.225]
uniya' pangutan-a gayod sila ko' nga nakapaniudto ba sila sa ila nga mga baon ha kato kana' ako' nga ginaandam tagabuntag
[461.895]
<no-speech>
[462.965]
basi og dili' nila unsa uniya' ang ilaha nga akua nga ginahatag nga baon basi og i-Internet lang
[468.455]
<no-speech>
[472.845]
<hes> gani' pakibantay pod
[474.995]
<no-speech>
[476.845]
uniya' kasab-i ko' nga wala'
[478.445]
<no-speech>
[483.965]
gani' wala' gasigi na sila og Internet nasuko' na ilaha nga papa <no-speech> nga sigi na lang og Internet nga wala' nay napuslani sa baon
[490.975]
<no-speech>
[493.125]
prublima pod ko' kay
[494.695]
<no-speech>
[497.015]
gani' prublima gani' ko' kay ang
[498.935]
<no-speech>
[500.325]
ang ila nga i- isulod sa ila nga exam kay Internet na
[504.145]
<no-speech>
[504.975]
katawa gayod ko' lagot kaayo
[507.305]
<no-speech>
[509.225]
gani'
[511.065]
<no-speech>
[512.785]
<hes>
[513.475]
<no-speech>
[519.215]
<hes> sultii na lang pod og badlunga
[521.715]
<no-speech>
[525.135]
<hes>
[526.015]
<no-speech>
[528.055]
sulti-sultian lang nimo nga
[529.995]
<no-speech>
[532.465]
<hes> mao gani'
[533.665]
<no-speech>
[535.945]
<hes>
[536.665]
<no-speech>
[540.045]
<hes> <no-speech> uniya' palihog <no-speech> palihog pod ko' kay <no-speech> Hen palihog pod ko' kay ati Nica nga <foreign> ugma' iya nga unsa pakiandam sa iya nga mga uniform ugma'
[551.345]
ko' nga maka- ko' nga makauli' siya og sayo palabhan niya iya nga isa ka blouse
[555.155]
<no-speech>
[556.185]
kay wala' pa biya' ko' nakapanghayihay kaganina
[558.535]
<no-speech>
[560.825]
kay basi og (())
[561.755]
<no-speech>
[562.585]
<hes> ati Nica si Nica
[565.185]
<no-speech>
[566.175]
isa ka uniform niya nga puti' ko' nga sayo siya makauli' ugma' sa udto palabhan niya ang iya nga isa ka uniform kay ang duha basa pa man gayod giladlad pa pod <hes>
[577.065]
<no-speech>
[581.505]
<hes>
[582.205]
<no-speech>
[584.375]
<hes>
[585.085]
<no-speech>
[586.755]
tapos pagkahuman si
[588.575]
<no-speech>
[589.735]
mao
[590.405]
<no-speech>
[591.295]
uniya' si Briggs (())
[592.745]
<no-speech>
[594.205]
<hes>
[594.935]
<no-speech>
[595.975]
uniya' si Briggs pod paki
[597.805]
<no-speech>
[598.765]
<hes>
[599.205]
<no-speech>
[599.660]
