[0.000]
<no-speech>
[2.805]
<no-speech>
[3.905]
<no-speech>
[4.545]
<no-speech>
[6.875]
<no-speech>
[18.515]
(())
[19.765]
<no-speech>
[24.055]
hello inday
[31.415]
<no-speech>
[33.415]
inday
[34.135]
<no-speech>
[35.115]
hello
[35.795]
<no-speech>
[38.265]
o
[38.885]
<no-speech>
[41.615]
ha dili' lagi niniyo madungog ako' nga tingog
[53.415]
dili' pod ko' kadungog sa imo nga tingog
[55.775]
<no-speech>
[57.795]
ha
[58.465]
<no-speech>
[63.195]
ha
[63.735]
<no-speech>
[66.445]
kusuga imo nga tingog imo nga tingog inday dili' ko' kadungog
[69.025]
<no-speech>
[73.895]
unsa inday
[74.545]
<no-speech>
[77.355]
uo
[78.025]
<no-speech>
[79.555]
klaro na
[80.375]
<no-speech>
[86.055]
unsa inday unsa inday
[88.595]
<no-speech>
[92.525]
(())
[93.225]
<no-speech>
[96.465]
hello inday
[97.315]
<no-speech>
[99.585]
hello inday
[100.375]
<no-speech>
[101.735]
nag-unsa ka inday
[102.745]
<no-speech>
[103.695]
nag-unsa ka
[106.465]
<no-speech>
[107.485]
ha
[108.135]
<no-speech>
[112.795]
kanus-a to muuli' imo mama
[114.335]
<no-speech>
[116.035]
ha wala' na man wala' na man wala' man ing ulan
[120.555]
<no-speech>
[121.435]
wala' na man ulan
[122.505]
<no-speech>
[124.505]
<no-speech>
[124.875]
<no-speech>
[132.515]
kusuga daw imo nga tingog inday dili' ko' kadungog sa imo nga tingog inday
[135.615]
<no-speech>
[136.605]
<no-speech>
[136.965]
<no-speech>
[138.605]
<no-speech>
[139.665]
<no-speech>
[141.435]
dili' pod nako' madungog imo nga tingog
[147.355]
<no-speech>
[148.775]
kusuga ra gayod imo nga tingog inday
[150.485]
<no-speech>
[153.155]
<no-speech>
[153.515]
<no-speech>
[155.715]
wala' ko' kadungog sa imo nga tingog ha
[158.595]
<no-speech>
[161.255]
<no-speech>
[161.615]
<no-speech>
[164.655]
ha
[166.045]
<no-speech>
[168.275]
o
[168.915]
<no-speech>
[171.145]
inday kanus-a to muuli' imo nga mama inday
[173.045]
<no-speech>
[175.945]
inday kanus-a to mag-uli' imo nga mama kanus-a to mag-uli' imo nga mama
[180.665]
<no-speech>
[185.325]
kanus-a to mag-uli' imo nga mama imo nga mama ba kanus-a to mag-uli'
[189.935]
<no-speech>
[193.925]
dili' nimo madungog ako' nga tingog ha dili' ka kadungog
[198.095]
<no-speech>
[200.955]
ha
[201.505]
<no-speech>
[204.195]
nagsigi nakita' (()) ani
[205.665]
<no-speech>
[210.975]
dili' nimo madunggan ako' nga isturiya dili' klaro
[214.105]
<no-speech>
[218.205]
Day
[218.745]
<no-speech>
[220.215]
Day
[220.735]
<no-speech>
[226.125]
ha
[226.605]
<no-speech>
[231.485]
naako' sa kuan
[232.465]
<no-speech>
[233.425]
nag-duty ko'
[234.455]
<no-speech>
[238.245]
Day nag-duty ko' ikaw
[241.365]
<no-speech>
[244.415]
Day asa gani' to nag-adto imo nga mama
[246.235]
<no-speech>
[253.235]
asa to nag-adto imo nga mama
[256.285]
<no-speech>
[261.685]
gani' asa gani' nangadto
[264.145]
<no-speech>
[265.685]
ha
[266.165]
<no-speech>
[268.365]
<no-speech>
[268.885]
<no-speech>
[272.275]
<int> dili' gayod nako' maklaro imo nga (()) Day
[277.735]
<no-speech>
[280.355]
<int> (()) lang ang gidala
[283.415]
<no-speech>
[285.165]
<no-speech>
[286.065]
<no-speech>
[287.355]
ha
[287.855]
<no-speech>
[291.675]
<no-speech>
[293.785]
<no-speech>
[297.145]
<hes> ako' madunggan man nako' imo nga tingog kaso dili' kaayo klaro
[301.015]
<no-speech>
[302.535]
<no-speech>
[303.135]
<no-speech>
[304.675]
dili' kaayo klaro imo nga tingog
[306.445]
<no-speech>
[307.555]
<no-speech>
[308.965]
<no-speech>
[310.115]
<no-speech>
[310.525]
<no-speech>
[313.955]
<no-speech>
[314.315]
<no-speech>
[315.395]
(())
[316.275]
<no-speech>
[320.565]
Day
[321.375]
<no-speech>
[323.475]
Day
[324.055]
<no-speech>
[325.375]
Day
[325.975]
<no-speech>
[327.865]
ha
[328.365]
<no-speech>
[331.335]
aw nag-unsa to si May dinha' ganina <int> nag-unsa to si May dinha' ganina
[337.505]
<no-speech>
[339.525]
May ba nag-unsa to dinha' ganina
[341.595]
<no-speech>
[344.545]
unsa iya nga ingon Day
[346.835]
<no-speech>
[349.115]
unsa iya nga ingon Day wala' siya natingala Day
[350.945]
<no-speech>
[356.505]
(())
[357.685]
<no-speech>
[358.515]
wala' siya ing wala' siya ing wala' siya ing kuan wala' siya ing pangutana
[360.845]
<no-speech>
[367.830]
<no-speech>
[374.815]
<no-speech>
[376.635]
<no-speech>
[378.825]
<hes>
[379.745]
<no-speech>
[381.365]
<int> uniya' tinuod kadto nga isturiya sa ilaha nga dako'-dako' Day
[384.855]
<no-speech>
[385.925]
<int> mmm wala' na siya ing daghan isturiya Day <int> (()) man siya kaganina <int> ha
[397.815]
<no-speech>
[397.965]
<no-speech>
[401.775]
<hes>
[402.685]
<no-speech>
[405.245]
<no-speech>
[405.625]
<no-speech>
[408.105]
(())
[408.515]
<no-speech>
[409.615]
mao pod
[410.345]
<no-speech>
[412.785]
pila gani' kadto ka adlaw imo nga ma imo nga mama didto Day
[415.175]
<no-speech>
[419.955]
ha
[420.445]
<no-speech>
[421.445]
pila kadto ka adlaw imo nga mama didto
[423.695]
<no-speech>
[424.565]
oh
[425.115]
<no-speech>
[427.215]
pila ka adlaw ba <dtmf>
[428.295]
<no-speech>
[430.345]
<no-speech>
[430.695]
<no-speech>
[432.965]
<no-speech>
[434.575]
<no-speech>
[435.425]
<int> mga tulo ka adlaw <hes> so ugma'
[438.225]
<no-speech>
[439.345]
ugma' mag-uli' na kadto sila
[441.155]
<no-speech>
[442.765]
ugma' mag-uli' na kadto siya ugma' <int> <hes> karon pa lang
[447.925]
<no-speech>
[453.275]
ay
[454.745]
<no-speech>
[457.465]
(())
[458.125]
<no-speech>
[464.525]
asa diay sila duha ka lugar ila nga naadtuan
[466.535]
<no-speech>
[470.275]
<int> unsa kadto nga isturiya sa imo nga mama nga duha daw unsa kadto duha daw ka kuan ila nga adtuan
[477.885]
<no-speech>
[478.775]
duha ka kuan lubong Day
[484.585]
<no-speech>
[485.445]
duha ka lubong ila nga giadtuan
[487.225]
<no-speech>
[488.745]
<no-speech>
[490.065]
<no-speech>
[492.955]
kinsa ila sabay Day <int> kinsa ila sabay
[497.945]
<no-speech>
[498.925]
kinsa ila sabay
[500.585]
<no-speech>
[503.595]
o
[504.885]
<no-speech>
[507.135]
<no-speech>
[508.125]
<no-speech>
[512.505]
(())
[514.905]
<no-speech>
[517.825]
<hes> <hes> basta
[519.065]
<no-speech>
[520.545]
on the stop
[521.335]
<no-speech>
[525.685]
<no-speech>
[526.055]
<no-speech>
[527.585]
tapos
[530.255]
<no-speech>
[532.885]
<no-speech>
[533.285]
<no-speech>
[536.795]
<no-speech>
[539.055]
<no-speech>
[541.995]
<no-speech>
[542.365]
<no-speech>
[546.105]
in memory siguro kadto
[547.685]
<no-speech>
[548.865]
<int> uniya' kana' ang nakabangga' Day dakpan
[554.725]
<no-speech>
[558.135]
<no-speech>
[559.165]
<no-speech>
[560.485]
ang nakabangga' nadakpan
[563.865]
<no-speech>
[567.575]
ha wala'
[568.465]
<no-speech>
[574.255]
<no-speech>
[574.735]
<no-speech>
[577.925]
<hes>
[578.775]
<no-speech>
[580.115]
<no-speech>
[580.495]
<no-speech>
[591.755]
<int> pila ing nagasto
[597.185]
<no-speech>
[599.760]
