[0.000]
<no-speech>
[2.915]
hello
[3.575]
<no-speech>
[7.005]
<no-speech>
[8.535]
<no-speech>
[14.005]
hello
[14.785]
<no-speech>
[19.105]
<no-speech>
[19.905]
<no-speech>
[21.155]
<no-speech>
[22.755]
<no-speech>
[24.515]
hello
[25.105]
<no-speech>
[27.185]
o
[27.815]
<no-speech>
[31.735]
hello
[32.385]
<no-speech>
[34.805]
(())
[35.625]
<no-speech>
[36.535]
<no-speech>
[38.575]
<no-speech>
[40.325]
ha
[41.015]
<no-speech>
[46.535]
dili' dili' dili' ko' ka <foreign> kadungog
[50.145]
<no-speech>
[52.015]
<no-speech>
[53.805]
<no-speech>
[55.165]
hello
[55.945]
<no-speech>
[59.065]
dili' siya madungog
[60.465]
<no-speech>
[61.755]
<no-speech>
[63.035]
<no-speech>
[64.275]
hello
[66.085]
<no-speech>
[69.435]
o hello
[71.685]
<no-speech>
[74.905]
okay na <int>
[77.845]
<no-speech>
[82.295]
<no-speech>
[83.435]
<no-speech>
[86.595]
<int> hello
[88.435]
<no-speech>
[96.825]
<sta> si kinsa
[98.465]
<no-speech>
[103.005]
lagi mi
[104.485]
<no-speech>
[108.695]
<no-speech>
[110.375]
<no-speech>
[111.645]
uo
[112.235]
<no-speech>
[117.315]
(()) <int>
[119.225]
<no-speech>
[122.805]
(()) <no-speech> nanglakaw na sila
[126.355]
<no-speech>
[128.385]
<int> uo
[129.715]
<no-speech>
[133.145]
<int> wala' pa
[134.885]
<no-speech>
[136.205]
taod-taod na man to sila milakaw
[137.895]
<no-speech>
[140.505]
ha
[141.125]
<no-speech>
[143.175]
(()) <int>
[146.225]
<no-speech>
[148.545]
(())
[149.445]
<no-speech>
[152.755]
<hes> <no-speech> <int> ha
[156.095]
<no-speech>
[158.655]
(())
[159.265]
<no-speech>
[161.315]
<no-speech>
[163.175]
<no-speech>
[169.695]
o hello
[170.645]
<no-speech>
[174.375]
<no-speech>
[175.535]
<no-speech>
[177.425]
wala' ko' kabalo unsa uras to sila mubalik siguro <no-speech> dali' ra man to sila kay igo' ra man (())
[184.675]
<no-speech>
[189.535]
(()) <int>
[192.435]
<no-speech>
[193.575]
dili' man gayod kuanon sa pari'
[195.665]
<no-speech>
[197.495]
o kami lang
[198.655]
<no-speech>
[199.865]
ha
[201.605]
<no-speech>
[206.055]
naa ing
[206.785]
<no-speech>
[211.955]
(()) ako'
[213.305]
<no-speech>
[214.995]
<no-speech>
[216.755]
<no-speech>
[217.745]
(())
[219.345]
<no-speech>
[220.605]
dili' ka (())
[222.735]
<no-speech>
[223.565]
(())
[224.045]
<no-speech>
[227.645]
<int> (())
[229.905]
<no-speech>
[232.265]
<no-speech>
[233.065]
<no-speech>
[235.705]
<int> (()) ang iya nga tingog ba dili' kaayo maklaro
[242.295]
<no-speech>
[243.795]
dili' kaayo maklaro imo nga tingog <int>
[248.945]
<no-speech>
[254.785]
o hello
[255.765]
<no-speech>
[259.565]
hello
[260.115]
<no-speech>
[264.735]
unsa ing ingon nimo
[265.775]
<no-speech>
[266.615]
<int> hello
[269.165]
<no-speech>
[269.985]
unsa ing ingon nimo
[270.885]
<no-speech>
[274.775]
unsa ing ingon nimo
[278.005]
<no-speech>
[280.835]
dili' si auntie si auntie milakaw na karon nga taod-taod na sila milakaw (()) uban sila ni Krystal kami na lang dinhi ni (())
[292.205]
<no-speech>
[296.535]
<int> sa Sandawa daw kay magsukod daw to si- si- <foreign> si Krystal og kuan og sanina' para sa kasal <int>
[307.165]
<no-speech>
[314.185]
<sta> ang
[315.995]
<no-speech>
[319.465]
dili' kuan siguro na oy si Erwin (()) o si Erwin lagi
[325.335]
<no-speech>
[326.615]
ha
[327.265]
<no-speech>
[329.405]
rinta lang <no-speech> ambot <no-speech> ambot rinta ba to o magpatahi' sila
[334.545]
<no-speech>
[336.695]
ha
[337.415]
<no-speech>
[339.045]
wala' ko' kabalo ko' nga patahi' ba to o magrinta lang sila
[343.675]
<no-speech>
[344.885]
sukudan man daw basin rinta lang to siguro <no-speech> <int> kay December six December six pa baya' kasal uniya' basi rinta lang to
[354.705]
<no-speech>
[356.395]
<sta> ha
[358.135]
<no-speech>
[359.645]
sa may
[361.305]
<no-speech>
[362.345]
asa dapit sila nangadto karon
[364.295]
<no-speech>
[366.595]
<no-speech>
[366.955]
<no-speech>
[368.585]
wala' ko' kabalo asa
[370.205]
<no-speech>
[375.825]
naa pod siguro kay kuan man si Krystal man ang flower girl
[380.155]
<no-speech>
[386.065]
dili' <foreign> sila manguli'
[387.675]
<no-speech>
[390.035]
ha
[390.685]
<no-speech>
[392.565]
dili' sila makauli'
[394.095]
<no-speech>
[395.735]
sa kuan pa to sila manguli' siguro sa eighteen siguro sa December sa ilaha nga party sa (())
[401.135]
<no-speech>
[406.475]
(())
[406.855]
<no-speech>
[408.005]
o
[408.665]
<no-speech>
[411.115]
(()) ang
[412.285]
<no-speech>
[417.745]
sa eighteen man diay ila nga party sa (())
[420.325]
<no-speech>
[421.905]
<no-speech>
[423.245]
<no-speech>
[427.645]
<sta> (()) ha
[430.535]
<no-speech>
[432.475]
unsa
[432.955]
<no-speech>
[435.665]
uo
[436.285]
<no-speech>
[437.895]
o sa eighteen
[441.565]
<no-speech>
[444.615]
<no-speech>
[445.565]
<no-speech>
[447.475]
(())
[448.155]
<no-speech>
[452.035]
<no-speech>
[453.555]
<no-speech>
[454.955]
ha <int>
[458.755]
<no-speech>
[460.175]
mura og
[460.925]
<no-speech>
[462.815]
siguro
[464.595]
<no-speech>
[467.035]
(())
[467.455]
<no-speech>
[468.885]
ha <no-speech> mmm
[471.705]
<no-speech>
[475.455]
ha
[477.655]
<no-speech>
[480.375]
(())
[480.995]
<no-speech>
[482.985]
aw unsa
[484.125]
<no-speech>
[486.305]
mmm
[486.925]
<no-speech>
[488.595]
<no-speech>
[490.135]
<no-speech>
[490.975]
o
[491.645]
<no-speech>
[495.365]
diria
[496.205]
<no-speech>
[499.335]
<int> sa Mati
[501.145]
<no-speech>
[507.025]
uo <int>
[508.895]
<no-speech>
[510.065]
<no-speech>
[510.435]
<no-speech>
[511.605]
ha ha
[513.755]
<no-speech>
[517.685]
ambot kay Jong-jong ko' nga asa oy kay ingon niya siguro basi piro ko' nga sa Pasko diri man siguro
[525.415]
<no-speech>
[527.085]
(()) sa Mati ambot niya wala' ko' kabalo <no-speech> ko' nga diri ba o didto sa ilaha
[533.165]
<no-speech>
[542.405]
o <no-speech> apply ta apply ta ha
[545.855]
<no-speech>
[547.345]
magbalik man ko' magbalik <int>
[551.355]
<no-speech>
[552.625]
balik <no-speech> ha
[554.435]
<no-speech>
[556.565]
<no-speech>
[557.475]
<no-speech>
[559.305]
kay (())
[561.545]
<no-speech>
[563.165]
<no-speech>
[564.535]
<no-speech>
[565.385]
tawag <no-speech> o tawagan tawagan lang daw ko'
[570.725]
<no-speech>
[576.475]
<hes>
[577.635]
<no-speech>
[579.675]
ha
[580.295]
<no-speech>
[583.415]
<no-speech>
[584.775]
<no-speech>
[585.665]
unsa-unsa unsa
[586.585]
<no-speech>
[589.405]
<foreign> si <foreign> ambot
[591.655]
<no-speech>
[592.865]
ambot wala' ko' kabalo kay ingon (()) ingon man (()) ingon (()) kay Dexter kay hapitan lang daw siya ko' nga mangbalik na sila sa Davao diri sa Davao
[603.875]
<no-speech>
[605.440]
