[0.000]
<no-speech>
[2.805]
<int> hello
[3.795]
<no-speech>
[8.145]
<int> uo
[9.685]
<no-speech>
[10.605]
(()) gabii
[12.715]
<no-speech>
[14.675]
gabii
[15.405]
<no-speech>
[17.085]
o
[17.615]
<no-speech>
[20.165]
<sta> <foreign> ang <foreign> mo <foreign> <sta> ay nag-unsa man ka dinha' Diding
[26.565]
<no-speech>
[28.905]
ay uniya' <no-speech> musta man to nga <foreign> iliksiyon
[33.165]
<no-speech>
[34.575]
(())
[36.775]
<no-speech>
[40.445]
uniya' daog na si kuan January
[42.625]
<no-speech>
[44.725]
kapoy na ka
[45.355]
<no-speech>
[51.165]
<breath> <hes> uniya' imo nga kandidato didto sa Tagum musta na man to
[55.445]
<no-speech>
[56.265]
ay <hes> mitawag ko' og (())
[58.275]
<no-speech>
[63.775]
ay
[65.125]
<no-speech>
[66.305]
uniya'-uniya' karon nag-unsa man ka dinha'
[69.185]
<no-speech>
[79.065]
<hes> naghulat ka diri (())
[81.065]
<no-speech>
[86.975]
mmhm
[87.895]
<no-speech>
[89.265]
dili' diri sa kuan ba sa <no-speech> kuan
[92.685]
<no-speech>
[93.875]
naako' diri sa kuan sa may diri <hes> sa ato' nga silingan
[98.875]
<no-speech>
[99.855]
<no-speech>
[100.575]
<no-speech>
[101.385]
nagkuan lang nagpahangin
[104.435]
<no-speech>
[107.615]
naa lang ko' diri naglingkod <hes> naa ra diri naglingkod-lingkod
[111.325]
<no-speech>
[112.435]
<no-speech>
[112.785]
<no-speech>
[115.275]
ha
[115.855]
<no-speech>
[127.025]
wala' man piro naka-hearing man ko' nga mura og si January na man mudaog
[131.665]
<no-speech>
[136.785]
o layo' man daw
[137.805]
<no-speech>
[139.105]
o layo' daw kaayo og biya'
[140.575]
<no-speech>
[147.265]
ay kuan wala' pa dili' man (()) dili' pa sigurado
[151.175]
<no-speech>
[154.765]
piro kuan man
[156.175]
<no-speech>
[159.865]
uniya' kuan ba kuan sa Miyirkulis ha
[163.945]
<no-speech>
[167.995]
hoy <no-speech> <hes> mag pa enroll
[170.725]
<no-speech>
[176.335]
karon nga Miyirkulis
[177.365]
<no-speech>
[181.745]
<hes> mmhm
[182.475]
<no-speech>
[188.905]
<hes> bag-o lang magpa-enroll
[190.885]
<no-speech>
[192.935]
<hes> mulakaw sayo kaayo ko' mulakaw miana' kay sayo ko' mulakaw inig taas naa pod kaayo ang pila
[199.525]
<no-speech>
[208.665]
kuan sa November four
[210.835]
<no-speech>
[212.605]
klasi na
[213.395]
<no-speech>
[217.745]
Lunis
[218.445]
<no-speech>
[219.415]
<no-speech>
[220.285]
<no-speech>
[222.685]
Lunis <no-speech> o Lunis Lunis lagi o November four
[227.035]
<no-speech>
[228.915]
(())
[229.945]
<no-speech>
[231.275]
uniya' kuan na okay ra man magbag-o naa pod daghan naa pod paliton
[235.515]
<no-speech>
[241.685]
<hes> <hes> libro
[242.685]
<no-speech>
[247.355]
o (()) o palit na pod daghan kaayo pito
[251.245]
<no-speech>
[256.255]
<hes> <hes> pito
[257.165]
<no-speech>
[259.565]
madaghan kaayo oy kay bag-o man <hes> bag-o man ang mga subjects
[264.295]
<no-speech>
[270.495]
<hes> ang
[272.345]
<no-speech>
[273.335]
ang kuan daan ang accounting tag four hundred plus
[278.835]
<no-speech>
[283.225]
uniya' ang uban kay muabot man gayod na og three hundred na
[286.995]
<no-speech>
[287.955]
oh tag-two fifty naa pod ing mahal kaayo nga mask tag-six hundred
[292.985]
<no-speech>
[296.945]
(())
[297.855]
<no-speech>
[300.765]
<hes> kay uniya' kuan pa gayod sa school ba kay ipa-donate daw mi og mga kuan used clothes
[308.055]
(())
[314.315]
<foreign> mga <foreign> <foreign> mga sanina' ba uo <foreign> kay kadto nga sa <foreign> sa Bohol
[320.875]
<no-speech>
[321.805]
(())
[322.535]
<no-speech>
[326.895]
o tabang <foreign> kadto nga <foreign> sa Bohol ba
[329.925]
<no-speech>
[332.575]
<no-speech>
[332.975]
<no-speech>
[336.055]
o to nga linog
[337.215]
<no-speech>
[340.975]
<hes> naa daghan man ko' og mga gisi'-gisi' dira' na mga sanina'
[343.735]
<no-speech>
[350.725]
mmhm
[351.375]
<no-speech>
[352.375]
<hes> mga kuan pod mga
[354.295]
<no-speech>
[355.815]
<hes> mga dila- mga dilata mga
[359.445]
<no-speech>
[361.635]
mga noodles kana' mao ing ipadala
[364.305]
<no-speech>
[365.465]
oh
[366.105]
<no-speech>
[367.075]
<hes> mga ingon miana' nga banig habol kay
[369.365]
<no-speech>
[371.155]
<hes> <hes> kay U_I_C baya' gayod hilig baya' na silag tabang-tabang kay
[375.095]
<no-speech>
[375.935]
diyusnon baya' kaayo na nga iskuwilahan
[377.655]
<no-speech>
[383.575]
uniya'
[384.245]
<no-speech>
[388.175]
o unsa man
[389.035]
<no-speech>
[391.585]
o
[392.185]
<no-speech>
[395.845]
<hes> <hes> <no-speech> ay okay man ako' nga sapatos ganahan man ko' magsuot dili' man siya kuan
[400.205]
<no-speech>
[401.995]
guwapo man pagkakuan
[403.445]
<no-speech>
[410.065]
uo
[410.815]
<no-speech>
[411.925]
o na
[412.845]
<no-speech>
[413.835]
o maayo ra pod mi schedule bag-o
[415.595]
<no-speech>
[419.665]
(())
[420.495]
<no-speech>
[422.885]
o
[423.385]
<no-speech>
[426.415]
uo gadiritso man ko' pagkahuman gayod pagwala' na ni nga mga kuan buhatunon
[430.395]
<no-speech>
[431.195]
<int> mmm kay second sem na baya' hapit na Mac Board mag review hapit naa pod Mac Board mag review naako' daan
[439.145]
<no-speech>
[440.925]
sugod-sugod na mi og review
[442.535]
<no-speech>
[445.735]
<hes> kay magsugod na mi og review
[447.415]
<no-speech>
[449.705]
<hes> <sta> naana' man ko' ing reviewer sa
[453.105]
<no-speech>
[455.855]
<hes> naana' man kadto daghan na man kaayo kadto mga papil-papil naana' man mga answer daan
[461.115]
<no-speech>
[466.055]
(())
[467.025]
<no-speech>
[469.025]
<hes> mag mag mag
[470.455]
<no-speech>
[473.925]
<hes> naa na- naa gayod gihapon gayod naa lay mabag-o gamay
[477.215]
<no-speech>
[479.455]
<no-speech>
[479.995]
<no-speech>
[482.775]
mmm
[483.345]
<no-speech>
[488.435]
lagi
[489.075]
<no-speech>
[491.045]
o lagi ambot
[492.155]
<no-speech>
[499.675]
ay ambot (()) sagdi na lang na daddy
[502.255]
<no-speech>
[509.955]
o (())
[511.605]
<no-speech>
[512.635]
lagi o lagi
[513.985]
<no-speech>
[514.825]
<hes> <hes> kana' nga ginahatag nila nga kuan
[517.315]
(())
[519.715]
uo kay kuan ba sayang sayang pod
[522.895]
<no-speech>
[526.325]
<sta> piro <no-speech> sigi lang kaya lagi na
[529.525]
<no-speech>
[530.685]
<no-speech>
[531.045]
<no-speech>
[532.275]
<int> uniya'
[533.385]
<no-speech>
[537.955]
uniya' naa nay risulta
[539.345]
<no-speech>
[545.275]
o kaya lagi na
[546.435]
<no-speech>
[548.605]
unsa ing nag-text
[549.485]
<no-speech>
[555.975]
(())
[556.545]
<no-speech>
[557.435]
daog na si
[558.365]
<no-speech>
[563.245]
<hes> <hes> maayo oy congratio- ko' nga kuan
[566.875]
<no-speech>
[568.775]
maayo kay daog siya
[570.305]
<no-speech>
[573.775]
<hes> naghinaot unta' ko' nga mapalambo' niya ila nga barangay
[579.025]
<no-speech>
[581.965]
<no-speech>
[583.605]
<no-speech>
[584.875]
uniya' sa mga kagawad kinsa may midaog
[586.955]
<no-speech>
[589.585]
sa mga kagawad
[591.285]
<no-speech>
[594.135]
<hes> Moratilla <no-speech> mmhm
[597.305]
<no-speech>
[599.960]
