[0.000]
<no-speech>
[0.895]
<no-speech>
[1.485]
<no-speech>
[2.465]
<no-speech>
[5.575]
<no-speech>
[8.295]
<no-speech>
[8.665]
<no-speech>
[12.515]
hello o hello kumusta
[17.475]
<no-speech>
[18.555]
<no-speech>
[18.905]
<no-speech>
[22.605]
unsa diay
[23.465]
<no-speech>
[24.955]
Annalyn
[25.905]
<no-speech>
[29.285]
Annalyn
[30.155]
<no-speech>
[32.635]
<hes> o naga-breeding ikaw
[40.025]
<no-speech>
[41.815]
ha
[42.725]
<no-speech>
[43.645]
<no-speech>
[44.025]
<no-speech>
[46.865]
ha
[47.515]
<no-speech>
[52.155]
o
[52.915]
<no-speech>
[55.505]
ikaw
[56.395]
<no-speech>
[58.805]
ha
[59.515]
<no-speech>
[63.355]
ikaw nagtrabaho nagtrabaho ka
[65.535]
<no-speech>
[70.935]
wala'
[71.615]
<no-speech>
[76.825]
ha
[77.585]
<no-speech>
[82.165]
<no-speech>
[82.525]
<no-speech>
[85.285]
naa diri
[86.575]
<no-speech>
[90.885]
ha
[91.465]
<no-speech>
[102.245]
naa diri naglaag-laag
[103.725]
<no-speech>
[104.855]
ikaw tagaasa diay ka
[107.235]
<no-speech>
[112.185]
<hes>
[113.875]
<no-speech>
[115.405]
<hes> naana' ka ing anak
[117.565]
<no-speech>
[120.485]
naana' ka ing anak
[121.445]
<no-speech>
[122.825]
<hes> pila diay imo nga idad pila diay imo nga idad
[127.265]
<no-speech>
[128.405]
<no-speech>
[128.765]
<no-speech>
[131.615]
ha
[135.125]
<no-speech>
[136.865]
<hes>
[138.195]
<no-speech>
[139.055]
<no-speech>
[140.525]
<no-speech>
[141.755]
naa ka ing asawa
[143.745]
<no-speech>
[147.685]
wala'-wala' pa <hes>
[152.565]
<no-speech>
[153.845]
piro naa ka ing naga naga-work naga-work ka karon
[158.425]
<no-speech>
[160.245]
<no-speech>
[160.605]
<no-speech>
[162.625]
nagatrabaho ka karon
[163.895]
<no-speech>
[168.785]
<hes> unsa diay imo nga trabaho
[170.395]
<no-speech>
[171.205]
<no-speech>
[174.415]
<no-speech>
[176.705]
<hes> (()) piro naa pa naa pa kadto imuha nga ginikanan
[182.435]
<no-speech>
[187.275]
naa pa imuha nga mga ginikanan
[188.725]
<no-speech>
[195.005]
naa pa imo nga mga ginikanan
[196.345]
<no-speech>
[201.205]
naa pa
[202.005]
<no-speech>
[204.335]
ha
[204.985]
<no-speech>
[206.875]
<hes>
[208.305]
<no-speech>
[210.465]
<hes> ako' naa pa ko' ing mga ginikanan
[213.385]
<no-speech>
[214.215]
pila-pila mo nga mag-igsuon
[215.835]
<no-speech>
[218.005]
ha
[218.735]
<no-speech>
[223.245]
pila-pila mo nga mag-igsuon
[226.025]
<no-speech>
[230.225]
<hes> pila kabuok lalaki
[232.345]
<no-speech>
[234.195]
ha
[234.795]
<no-speech>
[237.855]
duha tulo
[239.845]
<no-speech>
[242.855]
tulo kalalaki
[243.965]
<no-speech>
[245.115]
<hes> upat kalalaki wala' ing babayi
[247.065]
<no-speech>
[248.085]
wala' ing babayi
[249.035]
<no-speech>
[250.745]
<hes> kami seven mi mag-igsuon
[254.905]
<no-speech>
[260.735]
ha
[261.485]
<no-speech>
[265.885]
seven
[267.045]
<no-speech>
[272.425]
<hes> tulo ka babayi og
[274.235]
<no-speech>
[275.415]
upat kalalaki
[277.125]
<no-speech>
[281.915]
o
[282.645]
<no-speech>
[284.155]
ha ha
[285.665]
<no-speech>
[287.295]
<no-speech>
[287.655]
<no-speech>
[289.405]
(())
[293.765]
<no-speech>
[294.965]
<hes> naa pa ko' ing magulang isa
[301.805]
<no-speech>
[304.785]
ha
[306.245]
<no-speech>
[307.815]
<no-speech>
[308.185]
<no-speech>
[309.545]
ika-duha ko'
[313.125]
<no-speech>
[317.325]
ha
[318.295]
<no-speech>
[322.135]
<hes>
[323.395]
<no-speech>
[324.365]
sixteen
[327.235]
<no-speech>
[330.735]
sixteen
[333.715]
<no-speech>
[336.505]
<no-speech>
[336.855]
<no-speech>
[338.765]
o
[339.405]
<no-speech>
[340.245]
<no-speech>
[340.685]
<no-speech>
[343.095]
asa asa dapit na Davao iniyo
[345.245]
<no-speech>
[347.325]
<no-speech>
[348.555]
<no-speech>
[351.665]
<hes> Matina
[354.535]
<no-speech>
[355.645]
ha
[359.895]
<no-speech>
[361.085]
<no-speech>
[364.295]
<no-speech>
[365.305]
<no-speech>
[365.705]
<no-speech>
[367.795]
unsa
[368.885]
<no-speech>
[372.395]
<hes> naa dapit sa Ecoland
[377.345]
<no-speech>
[381.425]
Ecoland
[382.445]
<no-speech>
[386.485]
<no-speech>
[386.865]
<no-speech>
[391.085]
aw wala' pa
[395.535]
<no-speech>
[397.165]
o mangitaay pa gani'
[398.905]
<no-speech>
[401.655]
ikaw
[402.305]
<no-speech>
[404.815]
ha
[405.365]
<no-speech>
[407.555]
unsa
[408.345]
<no-speech>
[410.535]
<hes>
[411.255]
<no-speech>
[414.955]
unsa
[415.905]
<no-speech>
[416.705]
<no-speech>
[417.315]
<no-speech>
[419.965]
uo nangita'
[421.005]
<no-speech>
[428.715]
uo
[432.665]
<no-speech>
[435.285]
wala' man ko' ing wala' man ko' ing mga kuan diri wala' man ko' ing mga ballpen
[442.815]
<no-speech>
[445.665]
wala' ko' ing mga kuan diri
[447.415]
<no-speech>
[449.105]
o wala'
[451.765]
<no-speech>
[453.085]
<no-speech>
[453.445]
<no-speech>
[454.395]
ikaw mangitaay pod ka
[456.935]
<no-speech>
[458.615]
<no-speech>
[458.975]
<no-speech>
[460.425]
mangitaay pod ka
[461.585]
<no-speech>
[462.825]
<no-speech>
[463.835]
<no-speech>
[466.245]
<hes> hatagan tika
[469.455]
<no-speech>
[472.165]
<no-speech>
[472.525]
<no-speech>
[474.045]
<no-speech>
[476.255]
<no-speech>
[478.885]
ha
[480.175]
<no-speech>
[484.885]
unsa
[486.845]
<no-speech>
[488.445]
<no-speech>
[489.245]
<no-speech>
[492.255]
wala'
[495.265]
<no-speech>
[497.115]
gusto ka hatagan tika ha
[501.375]
<no-speech>
[502.415]
<no-speech>
[502.775]
<no-speech>
[504.695]
o ako' ra
[505.565]
<no-speech>
[507.465]
asa diay ka karon
[508.835]
<no-speech>
[512.155]
ha
[512.765]
<no-speech>
[514.705]
<no-speech>
[515.055]
<no-speech>
[516.545]
oh
[520.905]
<no-speech>
[522.435]
<no-speech>
[522.815]
<no-speech>
[527.725]
<hes> naa diri nag
[529.065]
<no-speech>
[531.495]
<no-speech>
[531.845]
<no-speech>
[533.805]
<no-speech>
[535.225]
<no-speech>
[536.565]
<no-speech>
[538.475]
<no-speech>
[540.325]
<no-speech>
[542.255]
<no-speech>
[545.435]
<no-speech>
[548.735]
<no-speech>
[549.605]
o
[553.185]
<no-speech>
[554.315]
<no-speech>
[554.725]
<no-speech>
[557.385]
<no-speech>
[560.315]
<no-speech>
[561.245]
hello
[562.035]
<no-speech>
[563.055]
diri naglingkod-lingkod
[566.095]
<no-speech>
[566.905]
<no-speech>
[568.795]
<no-speech>
[570.885]
hala
[571.865]
<no-speech>
[573.385]
<no-speech>
[574.385]
<no-speech>
[575.235]
<no-speech>
[575.585]
<no-speech>
[576.715]
<no-speech>
[577.835]
<no-speech>
[579.765]
<no-speech>
[582.655]
<no-speech>
[584.425]
o
[585.075]
<no-speech>
[585.975]
<no-speech>
[586.455]
<no-speech>
[588.065]
<no-speech>
[589.435]
<no-speech>
[590.995]
(())
[596.825]
<no-speech>
[598.625]
<no-speech>
[600.055]
<no-speech>
[601.325]
<no-speech>
[602.805]
<no-speech>
[605.280]
