[0.000]
<no-speech>
[9.075]
<no-speech>
[9.425]
<no-speech>
[16.065]
<no-speech>
[16.415]
<no-speech>
[17.825]
<no-speech>
[18.335]
<no-speech>
[21.305]
hello
[21.905]
<no-speech>
[29.245]
o <no-speech> oy
[30.965]
<no-speech>
[33.485]
ay kusuga imo nga tingog
[35.595]
<no-speech>
[39.555]
hoy kumusta na man kadugay na man kita' wala' nagkita'
[42.035]
<no-speech>
[43.905]
(())
[44.525]
<no-speech>
[45.705]
Beng
[46.365]
<no-speech>
[52.865]
ay daghan ko' og nigusiyo oy
[54.465]
<no-speech>
[56.865]
ikaw unsa ing nigusiyo nimo dinha'
[58.475]
<no-speech>
[63.735]
maayo man ka kay dato' na man ka
[65.325]
<no-speech>
[67.985]
<no-speech>
[68.335]
<no-speech>
[70.215]
dili' kaayo nako' maklaro imo nga tingog oy
[71.965]
<no-speech>
[73.705]
sigi
[74.375]
<no-speech>
[79.065]
suroy-suroy pod diri pod dugay na man ka wala' anhi-anhi diri oy
[82.195]
<no-speech>
[84.025]
suroy-suroy diri ba dad-a imo nga mga anak <no-speech> diri kita' mag-Pasko og New Year ha
[89.905]
<no-speech>
[92.005]
(()) ba (()) daghana nangamatay sa kuan no sa kana' nga
[96.355]
<no-speech>
[99.395]
sa Leyte
[100.285]
<no-speech>
[101.345]
no luoy kaayo ba nangabaho' na gayod daw
[104.165]
<no-speech>
[106.855]
(()) wala' pa daw makuha' four hundred pa daw nalubong grabi
[111.305]
<no-speech>
[112.905]
simbako lang sa atua diri ayaw lang intawon <no-speech> no
[116.225]
<no-speech>
[122.155]
uniya' oy Ging unsa man to nga kuan nga naa ing namatay sa (()) nga kuan
[126.245]
<no-speech>
[128.455]
unsa man to <no-speech> baha' to
[130.565]
<no-speech>
[132.045]
ha
[132.615]
<no-speech>
[134.455]
mingda- mingdako' mingdako' ang tubig no
[136.125]
<no-speech>
[138.725]
pirti nga panglutaw
[139.885]
<no-speech>
[140.905]
uniya' bayaran na sila Ging
[142.305]
<no-speech>
[146.795]
<hes> maayo kay bayaran <no-speech> kay alangan og dili' bayaran impusibli nga namatay man
[152.365]
<no-speech>
[153.595]
duha gayod ka tawo
[154.875]
<no-speech>
[156.365]
no
[156.935]
<no-speech>
[157.995]
uniya'
[158.655]
<no-speech>
[160.255]
uniya' mudayon ka og anhi
[161.485]
<no-speech>
[163.565]
(()) ka dato' na kaayo ka karon dili' gayod ka muanhi ngari <laugh>
[167.885]
<no-speech>
[169.655]
<int> diri ta mag-New Year <no-speech> uniya' mag-party-party ta diri
[174.175]
<no-speech>
[175.605]
ha
[176.175]
<no-speech>
[177.935]
dad-a na imo nga mga anak kamo nga
[179.915]
<no-speech>
[181.545]
diri diri karon nga New Year
[183.295]
<no-speech>
[184.305]
(()) salig kay dato' ka dili' na lang ka muanhi diri ba <no-speech> (()) kaayo ka ba
[188.565]
<no-speech>
[191.645]
pagdala pod og kuan pod paglitson pod dad-a diri sa balay
[195.155]
<no-speech>
[197.795]
dili' lagi ko' kay (()) <laugh>
[199.535]
<no-speech>
[200.915]
ka ikaw man tubig-tubigan karon
[202.725]
<no-speech>
[205.365]
dad-a imo nga mga anak ha
[206.925]
<no-speech>
[208.075]
<hes> imo nga bana ibilin lang na ayaw sigi og dala-dala sa imo nga bana pangita' na lang og lain nga bana <laugh>
[213.875]
<no-speech>
[215.075]
<no-speech>
[215.565]
<no-speech>
[217.355]
(()) <laugh>
[218.755]
<no-speech>
[221.695]
uniya'
[222.385]
<no-speech>
[224.305]
pananghid pod si ka nga Jimmy nga muari ta diri
[226.805]
<no-speech>
[228.765]
alang-alang og dili' ka mananghid <no-speech> magbuot-buot ka og anhi diri
[231.935]
<no-speech>
[234.715]
uniya' kanus-a man to muuli' imo nga bana
[236.585]
<no-speech>
[237.795]
ha <int> kanus-a man to muuli' imo nga bana
[240.375]
<no-speech>
[241.265]
uniya'
[241.945]
<no-speech>
[244.065]
magdala ko' og litson manok
[245.415]
<no-speech>
[247.475]
ha
[248.025]
<no-speech>
[249.165]
ha <no-speech> aw uniya'
[251.905]
<no-speech>
[252.955]
tagai ko' og litson manok
[254.195]
<no-speech>
[255.515]
ikaw ba dili' gayod ka <no-speech> <hes> ikaw ba dili' gayod ka muhatag og sud-an ba puwirti nimo nga dalua ba
[261.435]
<no-speech>
[263.185]
panghatag pod
[264.215]
<no-speech>
[266.935]
<hes> baldi baya' dalhon <laugh>
[268.745]
<no-speech>
[269.825]
<no-speech>
[271.025]
<no-speech>
[274.355]
(()) karon naligo' na ka
[276.165]
<no-speech>
[277.025]
o o (()) <laugh>
[279.025]
<no-speech>
[279.905]
<laugh> ikaw ba <breath>
[281.645]
<no-speech>
[282.785]
uniya'
[283.485]
<no-speech>
[288.715]
asa miliwat
[289.585]
<no-speech>
[295.025]
<no-speech>
[296.595]
<no-speech>
[298.595]
oy (()) <no-speech> oy paminaw
[300.845]
<no-speech>
[302.085]
gani' <laugh>
[303.575]
<no-speech>
[305.405]
dili' wala' klasi si Jek-jek
[306.715]
<no-speech>
[308.125]
(())
[308.715]
<no-speech>
[309.915]
ngano nga (())
[310.965]
<no-speech>
[313.425]
wala' na sila klasi
[314.685]
<no-speech>
[315.735]
sila Jek-jek
[316.595]
<no-speech>
[317.985]
wala' na sila klasi no
[319.145]
<no-speech>
[320.745]
diay no <int> kanus-a diay sila mubalik
[323.185]
<no-speech>
[327.965]
(())
[328.475]
<no-speech>
[329.445]
Jing
[329.985]
<no-speech>
[332.315]
(())
[332.795]
<no-speech>
[334.445]
(())
[336.635]
<no-speech>
[339.905]
(()) gani' daw
[341.105]
<no-speech>
[343.115]
kanus-a gani' daw ang dawat sa (()) <no-speech>
[345.075]
<no-speech>
[346.085]
kadawat na ka
[347.055]
<no-speech>
[348.065]
ha
[348.635]
<no-speech>
[349.875]
nakadawat na ka <no-speech> pila man
[352.125]
<no-speech>
[354.385]
(())
[354.845]
<no-speech>
[355.655]
(())
[356.355]
<no-speech>
[357.345]
<hes> maayo pa ka ako' one six
[358.845]
<no-speech>
[360.675]
one six na oy usa ka bata' na siya katulo na katulo na kabisis
[364.575]
<no-speech>
[365.425]
one six
[366.175]
<no-speech>
[367.745]
anha' nimo madawat
[368.865]
<no-speech>
[370.135]
wala' pa gani' na i-follow up <no-speech> kay ngano nga one six ra ako' nga
[373.345]
<no-speech>
[377.655]
ugma'
[378.365]
<no-speech>
[379.385]
Duminggo man ugma'
[380.555]
<no-speech>
[383.575]
(())
[384.135]
<no-speech>
[386.635]
gani'
[387.305]
<no-speech>
[389.565]
last two gabii Jeng
[390.705]
<no-speech>
[391.805]
Jeng unsa ang last two gabii
[393.335]
<no-speech>
[395.585]
ha
[396.135]
<no-speech>
[399.995]
unsa ang last two gani'
[401.085]
<no-speech>
[403.395]
ha
[403.975]
<no-speech>
[407.565]
unsa ang last two
[408.245]
<no-speech>
[409.885]
dili' oy
[410.505]
<no-speech>
[412.015]
last two ba
[413.125]
<no-speech>
[415.285]
wala' ka kabalo
[416.285]
<no-speech>
[417.305]
<hes> <no-speech> abi nako' og kaba- abi ko' og kabalo ka ba ko' nga sa (()) twenty eight
[422.165]
<no-speech>
[423.805]
ha
[424.295]
<no-speech>
[426.205]
Jing
[426.715]
<no-speech>
[429.035]
<hes> nakadungog gani' ka
[430.335]
<no-speech>
[431.165]
unsa gani' last two gabii nakadungog man diay ka
[433.515]
<no-speech>
[434.865]
wala' ka kabalo
[435.975]
<no-speech>
[440.345]
<hes> ana' isturiya
[441.905]
<no-speech>
[443.275]
gani'
[443.975]
<no-speech>
[446.365]
uniya'
[446.835]
<no-speech>
[450.505]
naa ka bugas dinha' <foreign> ko' og bugas bi wala' ko' bugas ba
[453.405]
<no-speech>
[455.475]
bugas
[456.055]
<no-speech>
[458.015]
<foreign> ko' og bugas <laugh> uniya' ba (())
[461.115]
<no-speech>
[462.915]
<laugh> wala' ko' bugas wala' ko' kaunon mapasmo naako' nga anak
[467.065]
<no-speech>
[469.875]
(()) karon
[471.055]
<no-speech>
[472.445]
<int> ikaw muhatag
[473.465]
<no-speech>
[475.935]
aw uniya' nga gabii <hes> pasmo na pasmo na mi kay gabii pa man muuli'
[480.185]
<no-speech>
[481.205]
pasmo na mi
[482.145]
<no-speech>
[483.725]
gani'
[484.355]
<no-speech>
[486.265]
(())
[486.765]
<no-speech>
[487.855]
ugma' pa gani' uniya' pa gani' ko' gabii magluto'
[489.695]
<no-speech>
[491.435]
(())
[492.805]
<no-speech>
[494.015]
alas-siyiti pa to muuli' ba <no-speech> no
[496.305]
<no-speech>
[497.425]
(())
[498.465]
<no-speech>
[502.265]
gani' <int>
[503.765]
<no-speech>
[505.355]
mmhm
[506.375]
<no-speech>
[507.725]
gani'
[508.445]
<no-speech>
[513.705]
wala' na pasmo na gani'
[515.205]
<no-speech>
[518.755]
o o <laugh> <breath>
[521.165]
<no-speech>
[527.805]
uniya'
[528.425]
<no-speech>
[530.475]
adto sa dagat ugma'
[531.895]
<no-speech>
[533.345]
human na og kaon tanan
[534.575]
<no-speech>
[536.045]
da' uroy wala' ko' kuwarta oy
[537.535]
<no-speech>
[538.415]
dako' kaayo mi og utang sa imo nga amo' oy
[540.275]
<no-speech>
[543.725]
<no-speech>
[544.285]
<no-speech>
[551.030]
<no-speech>
[557.775]
Jing
[558.355]
<no-speech>
[562.015]
ha
[562.585]
<no-speech>
[565.145]
aw <no-speech> naa pa diay ka dinha'
[567.165]
<no-speech>
[568.185]
<hes> unsa man ka uras muadto didto (())
[570.575]
<no-speech>
[572.505]
<int> ha
[574.075]
<no-speech>
[576.535]
unsa ta uras muadto sa dagat ba
[578.315]
<no-speech>
[583.165]
ugma'
[583.875]
<no-speech>
[585.035]
pagdala og pagdala og kuan ha pagdala og saging
[587.975]
<no-speech>
[589.355]
ha
[589.965]
<no-speech>
[591.225]
ikaw ra ang maglung-ag og saging
[592.595]
<no-speech>
[596.855]
dili' diay ko' puwidi ana' nga saging oy kay bag-o man diay (())
[599.700]
