[0.000]
<no-speech>
[1.535]
mmhm
[2.085]
<no-speech>
[5.435]
hello
[6.025]
<no-speech>
[9.395]
o kumusta na dinha'
[10.585]
<no-speech>
[13.345]
<no-speech>
[13.815]
<no-speech>
[14.775]
(())
[16.345]
<no-speech>
[19.195]
kumusta na dinha' <hes>
[20.215]
<no-speech>
[21.085]
o
[21.585]
<no-speech>
[22.955]
hala unsa to
[23.715]
(())
[26.745]
<hes> suroy-suroy mi aha man ka ron
[28.775]
<no-speech>
[33.585]
<hes> layua na niniyo diay
[34.895]
<no-speech>
[38.785]
<hes> adto mo og mall <hes>
[40.005]
<no-speech>
[40.915]
(())
[43.645]
<no-speech>
[46.025]
<hes> tagai mi diri ha
[47.575]
<no-speech>
[49.345]
o tagai ko' hatdi ko' <laugh>
[53.125]
<no-speech>
[54.705]
tarunga (()) <laugh> maka hundred <laugh>
[57.285]
<no-speech>
[60.785]
kinsa imo nga kauban gani' dinha'
[61.815]
<no-speech>
[64.235]
kinsa imo nga kauban dinha'
[65.765]
<cough> (())
[69.055]
oh
[69.635]
<no-speech>
[73.625]
<hes>
[74.245]
<no-speech>
[75.555]
(())
[76.545]
<no-speech>
[77.425]
mamasol ta
[78.265]
<no-speech>
[81.435]
sabay ta ha
[82.285]
<no-speech>
[84.865]
mmm unsa to ing mitingog ganiha ha
[87.235]
<no-speech>
[90.645]
oy
[91.225]
<no-speech>
[92.435]
unsa to mitingog ganiha
[93.545]
<no-speech>
[98.115]
unsa ing plano diay asa man ka ron
[100.685]
<no-speech>
[106.805]
<hes> Davao light (())
[108.765]
<no-speech>
[115.815]
mangadto mo og mall karon (())
[118.865]
<no-speech>
[120.015]
ha uniya' duha ra
[122.055]
<no-speech>
[123.525]
duha ra mo dinha' karon
[125.525]
paminaw
[127.005]
o mmm hayahay diay ang taxi diay dinha'
[129.835]
<no-speech>
[131.795]
(())
[132.795]
<no-speech>
[134.675]
dako' kana' nakuan <laugh> (())
[136.615]
<no-speech>
[141.485]
(())
[141.835]
<no-speech>
[143.785]
hello
[144.385]
<no-speech>
[146.195]
hello
[146.765]
<no-speech>
[149.685]
(())
[155.275]
<no-speech>
[159.265]
o unsa prublima gani'
[161.105]
<no-speech>
[163.355]
(())
[164.365]
<no-speech>
[170.325]
human tuyok pa mo
[171.435]
<no-speech>
[173.225]
tuyok-tuyok lang diay mo no tuyok-tuyok lang diay mo
[175.515]
<no-speech>
[180.385]
tuyok-tuyok lang diay mo daghan kaayo og tawo diri ba
[182.725]
<no-speech>
[183.585]
daghan kaayo og tawo diri <laugh>
[184.905]
<no-speech>
[190.395]
pila mo kabuok dinha' sa taxi
[192.335]
<no-speech>
[198.105]
lima o
[199.525]
<no-speech>
[201.385]
pag- paghuman nato' ana' munaog na ka paghuman
[203.735]
<no-speech>
[205.155]
ihatod ka dili'
[207.395]
<no-speech>
[208.655]
<hes>
[209.105]
<no-speech>
[210.345]
ihatod siguro no
[211.205]
<no-speech>
[213.295]
ay kapoy kaayo sigi og ikaw <laugh> tagai ko' <no-speech> one hundred ba pamasahi lang (()) mabawasan sayang kaayo <laugh>
[222.165]
<no-speech>
[224.455]
ayaw og katawa kay para
[225.595]
<no-speech>
[226.705]
para guwapo ba ang
[228.235]
<no-speech>
[229.205]
og human sa <laugh>
[230.985]
<no-speech>
[233.995]
hello
[234.575]
<no-speech>
[235.525]
madungog nimo ang tingog nako' dinha'
[236.795]
<no-speech>
[239.815]
uniya' asa pa diay asa pa diay mo muadto layo' iniyo nga giadto karon
[242.825]
<no-speech>
[249.445]
ha ikaw
[250.825]
<no-speech>
[251.715]
ikaw
[252.265]
<no-speech>
[254.635]
ako'
[255.235]
<no-speech>
[257.075]
aw wala'-wala' na man ta kuan ani
[259.545]
<no-speech>
[260.705]
unsa man diay (()) <laugh>
[264.965]
<no-speech>
[266.865]
<hes>
[267.445]
<no-speech>
[271.105]
o nangita' gani' ko' gani'
[272.405]
<no-speech>
[275.085]
mmhm
[275.585]
<no-speech>
[276.545]
para naa ta ing kuan sa Valentines karon na karon na baya' o sos sayang sayang kaayo
[281.215]
<no-speech>
[283.915]
<no-speech>
[284.275]
<no-speech>
[285.075]
wala' naa ra ko' diri wala' oy kay saba'-saba' kaayo sila didto kay
[289.615]
<no-speech>
[292.385]
madunggan nako' ang tingog <hes>
[294.445]
<no-speech>
[297.815]
naa diri
[298.525]
<no-speech>
[299.905]
naako' ila mama
[300.895]
<no-speech>
[302.095]
(()) nagtan-aw sala' ko' ba
[304.425]
<no-speech>
[306.135]
aha si Andy
[306.995]
<no-speech>
[308.785]
<hes>
[309.395]
<no-speech>
[311.485]
si Andy ay gibilin si Andy diri
[314.905]
<no-speech>
[317.375]
nagdula'-dula' mo sa gawas no
[318.915]
<no-speech>
[324.215]
<hes>
[324.785]
<no-speech>
[329.495]
bulak o maninda ka og bulak
[331.735]
<no-speech>
[333.025]
nangibot ra mi sa silingan ani <laugh>
[334.675]
<no-speech>
[341.395]
o palit ka o <no-speech> tagaan ka og kuwarta ani palit ka og bulak
[344.885]
<no-speech>
[349.535]
tagaan ka og kuwarta ani palit ta og bulak
[351.045]
<no-speech>
[351.965]
<no-speech>
[352.465]
<no-speech>
[356.475]
asa namo' karon
[357.355]
<no-speech>
[364.505]
iniyuha <no-speech> basin og ihatod ka dinha' sa iniyuha <laugh>
[367.975]
<no-speech>
[370.335]
basin ihatod ka sa iniyuha kay Dacudao man iniyuha siguro
[372.635]
<no-speech>
[377.805]
tagaan tika og one hundred o dalha sa iniyuha si ati iuli' na sa iniyuha <breath> puwidi pod no
[383.045]
<no-speech>
[386.985]
<hes>
[387.585]
<no-speech>
[391.365]
oh
[391.925]
<no-speech>
[394.205]
palit og bulak singkuwinta uniya' kuan o nice kaayo no
[399.885]
<no-speech>
[404.145]
hello
[404.725]
<no-speech>
[405.575]
pila na ka minutes dinha' pila na ka minutes dinha'
[408.515]
<no-speech>
[413.835]
ay gi-re- gi-record ang kuan
[415.605]
<no-speech>
[416.535]
(())
[417.245]
<no-speech>
[422.185]
hello
[422.785]
<no-speech>
[423.985]
adto ta og dagat uniya' ha suroy ta ba kay sugod ta og
[427.995]
<no-speech>
[429.075]
asa ka ron
[429.775]
<no-speech>
[433.505]
o kilawon nato' ikaw bahala' sa lamas ha
[435.685]
<no-speech>
[438.285]
mmhm kay palit ko' og (()) uniya' ko' nga dili' manugo' ra ko' og pakalot sa mga bata'
[445.185]
<no-speech>
[446.575]
sabay ka muadto uniya'
[447.725]
<no-speech>
[449.365]
o lami' kaayo na sud-anon na lami' kaayo sud-anon ang salmuniti og kilawon ba
[454.085]
<no-speech>
[456.225]
sabay ka mamasol uniya' ha
[457.325]
<no-speech>
[460.385]
<hes>
[460.865]
<no-speech>
[464.255]
hello
[464.815]
<no-speech>
[465.775]
asa namo' ron
[466.525]
<no-speech>
[470.755]
(())
[471.515]
<no-speech>
[472.495]
mmm mutuyok pa mo ba mo <no-speech> diritso namo' diri mutuyok mo o diritso mo diri
[477.095]
<no-speech>
[479.255]
diritso mo diri o
[480.435]
<no-speech>
[481.805]
sayo-sayo pa mo
[482.645]
<no-speech>
[487.365]
<hes>
[487.955]
<no-speech>
[489.115]
dali' atong isuroy nato' ni basin og ma two hundred diay
[491.635]
<no-speech>
[497.995]
<hes>
[498.485]
<no-speech>
[499.845]
<hes> asa diay imo nga kuan ganina
[501.195]
<no-speech>
[502.615]
asa
[503.305]
<no-speech>
[506.475]
siriyuso (())
[509.105]
<no-speech>
[510.515]
gianad nimo
[511.305]
<no-speech>
[513.475]
kaon clover
[514.465]
<no-speech>
[521.785]
hello
[522.345]
<no-speech>
[524.435]
hello o hapit nay nine minutes na nag- naglingkod
[529.085]
<no-speech>
[533.595]
lingkod diri
[534.525]
<no-speech>
[535.475]
(())
[536.175]
<no-speech>
[537.575]
nag-unsa mo dinha' ha
[539.785]
hello
[542.675]
ay sorry
[543.455]
<no-speech>
[545.145]
mmhm hapit namo' maabot
[547.285]
<no-speech>
[549.945]
(())
[552.435]
<no-speech>
[554.405]
tan-aw sa kilid-kilid basin og naa ing malingaw
[557.205]
<no-speech>
[561.525]
hello singot kaayo cellphone ba kay init kaayo diri
[564.835]
<no-speech>
[568.505]
dinha' bug- dinha' hayahay lang mo dinha' kay bugnaw man kaayo
[571.525]
<no-speech>
[572.705]
gusto ka og bugnaw bugnaw kaayo
[574.295]
<no-speech>
[575.415]
<hes> init gihapon
[576.335]
<no-speech>
[580.815]
uniya' hapit na gayod nine minutes na kapin
[582.955]
<no-speech>
[587.545]
hello
[588.165]
<no-speech>
[589.555]
muadto ka diri uniya'
[590.635]
<no-speech>
[593.065]
mua'- muadto ka diri uniya'
[594.635]
<no-speech>
[598.265]
adto diri uniya' kay mamasol ta kay
[599.925]
<no-speech>
[600.745]
maayo to si ta ing Roming kay hawod kaayo to mamasol
[603.085]
<no-speech>
[604.185]
o (())
[605.295]
<no-speech>
[605.300]
