[0.000]
<no-speech> hello <breath>
[11.325]
o hello <no-speech> musta <no-speech> musta <no-speech> ha
[23.315]
o maayo man <no-speech> maayo man <no-speech> <breath> asa na man ka karon <no-speech> trabaho ka karon <no-speech> <breath> <hes> wala' diay
[34.425]
<no-speech>
[35.535]
wala' diay ka nang-apply <no-speech> wala' diay ka nang-apply <no-speech> o bag-o ra piro naghul- naghulat pa ko' sa ako' nga tawag pod
[46.395]
<hes> uban nga kumpaniya nga ako' nga gi- gi-apply-an
[51.865]
<int> pila na ka <no-speech> <hes> pila na diay ka katuig diay <no-speech> sa imuha nga pagtrabaho
[62.685]
<no-speech> nagminiyo' na ka <no-speech> nagminiyo' na ka <no-speech> nagminiyo' na ka
[74.535]
<no-speech> nagminiyo' na ka
[82.155]
<no-speech>
[83.245]
<no-speech> maayo pa ka uyab-uyab <no-speech> naana' lagi bantog gani' nangita' ko' og trabaho
[93.695]
isa'-isa' pa <no-speech> <hes>
[105.085]
isa pa gani' <no-speech> o <foreign> pa
[112.685]
<no-speech>
[114.135]
dili' pod oy <no-speech> Net kanus-a diay ka mang-apply diay
[126.005]
kanus-a diay ka mang-apply og usab
[128.695]
<no-speech>
[129.555]
<no-speech>
[135.335]
wala' diay ka nang-apply sa uban <no-speech> wala' diay ka nang-ap- nang-apply sa uban nga kumpaniya
[145.885]
<no-speech>
[147.785]
<no-speech>
[149.155]
<no-speech>
[151.525]
<no-speech>
[152.645]
<no-speech>
[156.625]
<int> <no-speech> mao lagi paabot pod ko' sa tawag piro dili' ko' mupasalig pod nangita' pod ko' og lain nga ka-apply-an pod sa kumpaniya
[167.705]
<no-speech>
[168.595]
<no-speech>
[171.075]
<no-speech>
[172.275]
<no-speech>
[174.405]
<no-speech>
[175.245]
maayo lagi unta' oy
[181.975]
maayo lang unta' og kaluy-an kita' ani <no-speech> o maayo unta' og kaluy-an kita' ani
[191.585]
<no-speech>
[192.725]
wala' diay kay <foreign> na mu-abroad <no-speech> o o ba wala' ing prublima na <no-speech> basta ikaw kusog kaayo ka
[204.555]
sa akua <no-speech> sa atua nga mga ka-batch diay wala' kay kaila nga naa na trabaho
[216.205]
<no-speech>
[226.385]
mao ani maningkamot na lang ta ani <no-speech> maningkamot na lang ta ani
[237.515]
maningkamot na lang ta ani <no-speech> Net <no-speech> maningkamot na lang ta ani
[249.235]
<no-speech>
[250.085]
mmm maayo gani' ka kay wala' wala'
[261.825]
pa ka nagminiyo' <no-speech> o
[271.955]
<no-speech>
[274.305]
<no-speech>
[275.525]
pait gani' kaayo <no-speech> <breath>
[287.485]
<breath> ay dako'-dako' na man pod okay ra man <breath>
[296.725]
<no-speech>
[297.675]
<hes> o mag-duha katuig nasunod bulan <no-speech> mag-duha katuig na <no-speech> mag-duha katuig sunod bulan
[308.995]
<no-speech>
[311.485]
<no-speech>
[312.635]
Net uo <no-speech> <hes> pariho mi kami nga duha mao naako' nang-apply pod ko'
[324.045]
trabaho <no-speech> pariho mi nga duha <no-speech> mang-apply pa
[330.275]
<no-speech>
[331.685]
<no-speech>
[334.825]
<no-speech>
[335.875]
<no-speech> (())
[341.015]
<no-speech>
[342.495]
ha <no-speech> o
[350.325]
<no-speech>
[351.335]
didto gihapon iniyuha Nit
[355.035]
<no-speech>
[356.575]
<no-speech>
[368.415]
mao <no-speech> wala' diay ka nagnigusiyo karon
[374.845]
<no-speech>
[375.675]
wala' ka nagnigusiyo
[377.245]
<no-speech>
[378.215]
wala' ka nagnigusiyo
[389.195]
<breath> asa *gani'* dapit iniyuha
[397.165]
<no-speech>
[398.255]
o <no-speech> o bitaw ngano man
[401.645]
<no-speech>
[402.595]
<no-speech>
[404.245]
<no-speech>
[405.255]
<no-speech> <breath> aw o tama' bitaw no i-try nako' na siyag contact
[415.815]
<no-speech>
[419.165]
<no-speech>
[420.235]
<no-speech> i-try nako' na siyag contact
[428.795]
<no-speech>
[429.655]
<no-speech> pila na diay siya katuig didto <no-speech> sa iya nga pagpanarbaho
[441.465]
ha <no-speech> ay <no-speech> ay hayahay na man kadto
[452.855]
<no-speech>
[454.055]
<no-speech> maski pa og dili' kadto manarbaho kadto
[464.825]
hayahay na man kadto <no-speech> naana' man kadto ing nigusiyo kadto
[476.635]
<int> isa pa supurtado pa gayod siya sa iyaha nga mga (())
[480.925]
<no-speech>
[481.795]
supurtado pa gayod siya sa iyaha nga mga ginikanan
[485.635]
<no-speech>
[486.655]
<no-speech>
[488.035]
<no-speech>
[489.145]
<no-speech> (()) wala' ing prublima na <no-speech> o
[498.495]
basta i-contact lang nako'
[501.785]
<no-speech>
[503.095]
<no-speech> o sabay mi og pagpang-apply o mga pila na kadto katuig wala' pa siya katrabaho mas nauna pa gani' siya og graduate gani'
[514.475]
<no-speech>
[518.335]
<no-speech>
[519.655]
<no-speech>
[521.855]
<no-speech>
[522.845]
<no-speech> imo nga papa diay wala' diay ka nagpatabang <no-speech> sa imo nga papa Nit <breath>
[534.375]
<no-speech> dili' ba na- dili' ba nagtrabaho man to sa <no-speech> o
[545.305]
sa imo nga papa wala' diay ka na na <no-speech> nagpatabang <no-speech> nga mangita' og trabaho kay
[551.885]
<no-speech>
[553.105]
<no-speech>
[564.675]
<no-speech>
[574.085]
<no-speech>
[583.655]
<no-speech> mao pod <no-speech> maayo gani' <no-speech> uyab-uyab ra ka
[593.715]
Nit <no-speech> ka-remember ka ato' nga ni
[598.395]
ka-remember ka ni James <no-speech> Nit <no-speech> o
[605.500]
