[0.000]
<no-speech>
[4.795]
hello
[5.275]
<no-speech>
[11.685]
hello
[12.345]
<no-speech>
[16.835]
ati kumusta man mo dinha'
[18.955]
<no-speech>
[20.145]
kumusta na man mo dinha'
[21.215]
<no-speech>
[22.205]
okay lang man ko' dinhi ikaw sila si kuan si tiyo' kumusta man hasta ang mga bata'
[26.685]
<no-speech>
[30.385]
<no-speech>
[30.775]
<no-speech>
[32.165]
okay lang man mi uniya' nag-iskuwila ang mga bata'
[34.765]
<no-speech>
[39.055]
<hes> nag-iskuwila si dudong palihog uniya' ko' ingon mikuan ti ni Missy nga ipadala ipakuha' lang si Dodong
[44.835]
<no-speech>
[47.535]
(())
[48.105]
<no-speech>
[49.545]
naako' dinhi sa kuan naa sa balay nagbantay ko' dinhi ni dudong okay lang man
[54.465]
<no-speech>
[55.565]
si tiyo' mitrabaho
[56.585]
<no-speech>
[57.535]
ha
[58.155]
<no-speech>
[59.365]
<hes> dili' man palihog lang ko' og pakuha' niya ha
[63.505]
<no-speech>
[66.125]
(()) ha
[67.855]
<no-speech>
[70.155]
<hes>
[70.785]
<no-speech>
[71.655]
si tiyo' mitrabaho
[72.705]
<no-speech>
[75.795]
uniya' kumusta man mo
[76.675]
<no-speech>
[77.585]
<hes> trabaho sad
[79.145]
<no-speech>
[80.745]
uniya' kumusta man ang naa mo ing kuan dinha' wala' mo manuroy pagkuan pag-Sinulog nanuroy mo
[87.605]
<no-speech>
[88.675]
ha
[89.225]
<no-speech>
[90.885]
nanuroy mo pag-Sinulog
[92.145]
<no-speech>
[96.125]
ngano man nanglakaw (())
[97.625]
<no-speech>
[98.535]
<hes> wala' ti oy
[99.495]
<no-speech>
[100.615]
wala' sad dinhi lang balay
[103.075]
<no-speech>
[104.415]
<hes>
[104.975]
<no-speech>
[106.275]
<hes>
[106.895]
<no-speech>
[109.325]
<no-speech>
[109.705]
<no-speech>
[112.305]
<laugh> pariha diay ta diay
[113.725]
<no-speech>
[115.075]
si kuan kumusta man si Cathy
[118.295]
<no-speech>
[122.265]
iya nga mga anak
[123.125]
<no-speech>
[128.565]
nanglaba siya
[129.445]
<no-speech>
[130.635]
(())
[131.085]
<no-speech>
[131.925]
kana' si kuan si Missy miiskuwila
[135.495]
<no-speech>
[139.155]
ha
[139.745]
<no-speech>
[141.895]
iskuwila siya kagahapon
[142.905]
<no-speech>
[146.595]
uniya' dayon si kuan si Milky asa man
[150.395]
<no-speech>
[153.365]
natrabaho
[154.105]
<no-speech>
[157.355]
ha
[157.965]
<no-speech>
[160.155]
bag-o diay siya nanganak
[161.165]
<no-speech>
[162.155]
uniya' ang kuan kinsa nagkuan nagtrabaho siya o ang iya nga bana
[166.865]
<no-speech>
[168.135]
<hes> nag-undang na siya <hes>
[170.725]
<no-speech>
[172.785]
naninda diay iya nga bana og isda'
[174.215]
<no-speech>
[175.495]
isa' ra ang nagkuan wala' na diay siya mitrabaho diay
[178.125]
<no-speech>
[180.275]
wala' na siya mitrabaho <hes> bag-o man siya nanganak diay no
[183.325]
<no-speech>
[185.525]
<hes>
[186.075]
<no-speech>
[188.175]
ha
[188.785]
<no-speech>
[192.215]
dayon si kuan kumusta na man to nga si imo nga kuan amiga
[196.815]
<no-speech>
[197.985]
<no-speech>
[198.335]
<no-speech>
[199.835]
si Ann-ann <laugh> ha
[203.545]
<no-speech>
[205.565]
wala' na misuroy sa iniyuha
[206.945]
<no-speech>
[210.615]
unsa man ang kuan niya iya nga anak
[214.095]
<no-speech>
[217.305]
iskuwila
[218.435]
<no-speech>
[220.635]
huh
[221.135]
<no-speech>
[223.285]
dayon
[223.985]
<no-speech>
[225.865]
wala' diay siya ing kuan dinha' sa iniyuha diay wala' diay siya misuroy diay
[229.285]
<no-speech>
[232.165]
kay ngano man
[232.945]
<no-speech>
[237.725]
wala' pa ganahi
[238.555]
<no-speech>
[243.205]
huh
[243.785]
<no-speech>
[245.025]
(())
[245.575]
<no-speech>
[246.635]
kumusta man to si kuan day si tiyo' maayo na si tiyo'
[249.265]
<no-speech>
[252.865]
si kuan ba Timoy miingon man to nauspital man kuno
[256.565]
<no-speech>
[258.225]
uniya' unsa may kuan niya
[259.525]
<no-speech>
[263.125]
gikuhaa na nila ni tiyo' <hes> ni tiya' Ninin
[265.905]
<no-speech>
[269.265]
uniya' maayo na
[271.025]
<no-speech>
[273.845]
kinsa ang tigkuan sa iya nga tigkuan sa tambal
[276.075]
<no-speech>
[278.425]
kinsa tig- tigkuan niya sa tambal ni tiyo'
[280.695]
<no-speech>
[282.105]
uniya' si tiya'
[283.015]
<no-speech>
[288.545]
(()) na okay ra
[289.605]
<no-speech>
[294.675]
(())
[295.295]
<no-speech>
[296.115]
ha
[296.735]
<no-speech>
[299.915]
si tiyo' unsa may kuan ni tiyo' pakuan ni (())
[303.215]
<no-speech>
[304.885]
miunsa man si tiyo'
[305.845]
<no-speech>
[309.415]
<hes> mikuyog siya didto sa uspital
[310.825]
<no-speech>
[314.215]
aw
[314.875]
<no-speech>
[316.125]
uniya' ang sila si kuan ang anak ni tiya' miiskuwila sila si Popol
[321.025]
<no-speech>
[324.825]
si- si- Gayang
[326.065]
<no-speech>
[331.695]
<hes> naa man kaha sad <hes> mitabang man kaha si ati Gina
[334.785]
<no-speech>
[337.845]
uniya' mag-anhaan si ati Gina sa ilaha ni tiya'
[339.895]
<no-speech>
[342.975]
<hes> dinha' si tiya' <hes> si ati Gina
[345.795]
<no-speech>
[346.695]
dayon unsa may kuan mikuan
[348.175]
<no-speech>
[349.035]
maay- maayo na si tiyo'
[350.745]
<no-speech>
[353.105]
kumusta na man si tiyo'
[354.245]
<no-speech>
[356.345]
ha
[356.945]
<no-speech>
[357.935]
unsa may kuan sa kuan diay duktor diay
[359.745]
<no-speech>
[361.125]
<no-speech>
[361.495]
<no-speech>
[363.265]
ha
[363.865]
<no-speech>
[364.865]
unsa ing kuan sa duktor
[365.865]
<no-speech>
[367.265]
unsa diay kuan sa duktor diay
[368.655]
<no-speech>
[370.335]
dili' ba gi-admit man kadto
[371.445]
<no-speech>
[378.455]
piro gikuanan nila og tambal
[379.875]
<no-speech>
[383.285]
<hes>
[383.935]
<no-speech>
[386.745]
diabetes
[387.615]
<no-speech>
[389.405]
uniya' maayo-maayo na ang lawas ni tiyo'
[390.975]
<no-speech>
[393.585]
aw
[394.185]
<no-speech>
[395.755]
huh naa nagbantay ko' ni dudong nagbantay ni dudong
[400.765]
<no-speech>
[402.115]
nagbantay ni dudong naa sa balay
[404.215]
<no-speech>
[405.885]
wala' oy wala'
[407.755]
<no-speech>
[409.165]
wala' pa man gayod miabot si dudong usa nag-iskuwila pa man si dudong
[411.885]
<no-speech>
[414.755]
ipalihog uniya' ko' ingon mikuan ti ni Missy ipakuha' lang si dudong ha ipadala lang ba
[419.685]
<no-speech>
[420.645]
muadto man kaha sila sa iskuwilahan muapas
[422.405]
<no-speech>
[423.925]
<hes> ako' lang huwat- <hes> hulaton lang nako' dinhi sa balay
[426.855]
<no-speech>
[429.185]
ha
[429.775]
<no-speech>
[434.305]
midayon
[435.155]
<no-speech>
[436.085]
naunsa man kadto imo nga kuan
[438.355]
<no-speech>
[440.435]
miga didto
[441.345]
<no-speech>
[444.965]
<hes> musuroy ka sa amua
[446.155]
<no-speech>
[448.285]
sigi lang hulaton lang ta ka
[449.535]
<no-speech>
[451.385]
dalha lang mga bata'
[452.645]
<no-speech>
[454.025]
miiskuwila man kaha si kuan
[455.305]
<no-speech>
[459.645]
<hes> pakuyog na lang mikuan
[461.685]
<no-speech>
[463.125]
nakauli' ba
[463.915]
<no-speech>
[465.365]
Jade
[466.015]
<no-speech>
[470.605]
ha
[471.145]
<no-speech>
[477.435]
mmm
[478.005]
<no-speech>
[479.115]
wala' oy kumusta man ha imo nga kuan
[483.495]
<no-speech>
[484.565]
si ti si kuan ba imo nga amiga
[486.475]
<no-speech>
[487.595]
kumusta na man kadto
[489.335]
<no-speech>
[490.875]
kumusta na man kadto siya
[492.845]
<no-speech>
[495.125]
<hes>
[495.705]
<no-speech>
[498.245]
wala' nay kuan
[499.135]
<no-speech>
[501.295]
wala' nay yawuyaw
[502.185]
<no-speech>
[504.855]
na
[505.435]
<no-speech>
[509.075]
sakay-sakayi lang na siya oy <laugh>
[512.075]
<no-speech>
[514.455]
lagi miana' gayod na siya
[515.725]
<no-speech>
[517.225]
imo lang na nga kuanon kay lain man siya utok <int> (())
[522.595]
<no-speech>
[524.285]
ha
[524.885]
<no-speech>
[528.725]
<sta> sigi
[533.805]
<no-speech>
[542.785]
<no-speech>
[551.765]
mmhm
[552.185]
<no-speech>
[555.065]
ha
[555.565]
<no-speech>
[559.475]
unsa man
[560.025]
<no-speech>
[562.105]
<hes> mmm
[563.735]
<no-speech>
[564.975]
naunsa na man kadto siya
[566.015]
<no-speech>
[570.185]
wala' oy
[570.875]
<no-speech>
[573.135]
mikuan man (()) man sigi
[575.945]
<no-speech>
[578.245]
imo nga kuan ba miga
[579.745]
<no-speech>
[582.385]
kumusta na kadto siya <laugh> kumusta na kadto siya
[586.975]
<no-speech>
[591.905]
ha Dilbi (()) lang kadto siya oy
[594.735]
<no-speech>
[596.265]
pasagdahi lang kadto siya
[597.895]
<no-speech>
[600.040]
