[0.000]
<no-speech>
[2.975]
a Elias
[4.955]
<no-speech>
[6.105]
yu stap a gutnait gutnait
[9.365]
<no-speech>
[11.395]
na yupela mekim wanem i stap
[13.845]
<no-speech>
[17.525]
ye
[18.325]
<no-speech>
[20.845]
a na Bernard ol
[23.395]
<no-speech>
[27.405]
ye
[28.095]
<no-speech>
[31.275]
oke na na yu yu yu save stap we
[35.835]
<no-speech>
[38.745]
long <int> ye
[40.215]
<no-speech>
[43.465]
yu mas tok yu mas toktok <no-speech> a
[45.975]
<no-speech>
[49.325]
narapela sait
[50.335]
<no-speech>
[52.865]
yupela stap long narapela sait
[54.665]
<no-speech>
[55.925]
o yupela o nau yu stap long Four Mile
[58.585]
<no-speech>
[59.475]
o oke
[61.045]
<no-speech>
[62.275]
na Luna ol
[64.245]
<no-speech>
[69.015]
na Cecilia
[70.555]
<no-speech>
[75.995]
a na yu stap long Four Mile
[78.785]
<no-speech>
[81.605]
na yu save na yu save slip long Four Mile
[84.315]
<no-speech>
[90.315]
yu save slip yu save slip long Four Mile
[92.635]
<no-speech>
[96.635]
a oke na
[99.785]
<no-speech>
[101.075]
yu yupela bilong Manus a o Morobe
[105.035]
<no-speech>
[109.155]
a oke
[110.715]
<no-speech>
[112.035]
mipela em mipela bilong Tolai ya
[114.685]
<no-speech>
[116.765]
na ye
[119.445]
<no-speech>
[120.805]
ye na yu yupela wantaim husat i stap
[124.035]
<no-speech>
[128.065]
yupela wan- yupela wantaim husat i stap
[131.375]
<no-speech>
[136.375]
husat ol mangi
[137.625]
<no-speech>
[143.325]
o oke
[144.875]
<no-speech>
[146.595]
na yu no lukim Bernard a Abraham a Abraham i stap a
[150.525]
<no-speech>
[155.915]
na ol mekim wanem antap
[157.535]
<no-speech>
[167.675]
o
[168.795]
<no-speech>
[170.375]
na yu stap long haus bilong husat
[172.775]
<no-speech>
[175.305]
Gabby ye
[177.435]
<no-speech>
[183.615]
Gabby
[184.435]
<no-speech>
[187.415]
o oke
[190.095]
<no-speech>
[194.645]
na Luna ol i stap long haus a
[196.875]
<no-speech>
[200.575]
oke na husat husat asde i wok long krosim yu long ananit ya mi harim Luna o mami bilong yu
[207.385]
<no-speech>
[213.235]
o mi harim ya em wok long singautim yu na em kros ya
[216.925]
<no-speech>
[219.745]
em mami bilong yu a
[221.195]
<no-speech>
[226.545]
oke na
[228.735]
<no-speech>
[230.645]
David yu lukim long hap o nogat <no-speech> David
[233.835]
<no-speech>
[237.505]
David i stap
[238.705]
<no-speech>
[243.845]
na em i no go lotu a
[245.585]
<no-speech>
[253.575]
haus bilong husat
[254.545]
<no-speech>
[259.515]
a <no-speech> mi ting em go long lotu ya
[262.935]
<no-speech>
[266.905]
o <no-speech> ating Priscilla tasol na Vanessa ol go ya a
[272.055]
<no-speech>
[279.415]
o o ating
[282.155]
<no-speech>
[283.465]
ol kam bek
[284.395]
<no-speech>
[287.705]
oke
[289.075]
<no-speech>
[291.425]
ol kam bek pinis <no-speech> na husat ya
[296.625]
<no-speech>
[299.065]
Enoka i stap
[300.445]
<no-speech>
[301.365]
Enoka
[302.955]
<no-speech>
[305.295]
Enoka
[306.425]
<no-speech>
[309.295]
tokim a tokim em gutnait long mi
[312.285]
<no-speech>
[313.365]
tokim em gutnait bilong mi long <no-speech> Enoka
[316.385]
<no-speech>
[318.875]
yutupela wokabaut i go we
[320.665]
<no-speech>
[325.535]
o long bilong go bungim Bernard ol
[328.705]
<no-speech>
[335.895]
o na Abraham a na sapos yu bungim Abraham
[341.355]
<no-speech>
[342.255]
ye yu tokim em olsem em bai kam hariap long haus long wanem em wanem ya
[347.995]
<no-speech>
[349.425]
hat bilong em wok long pen ya na em giamanim mipela na mipela kisim em i go long hausik ya long nau ya
[356.115]
<no-speech>
[357.935]
na yu tokim em olsem
[359.345]
<no-speech>
[361.665]
ye tokim em olsem mami bilong yu tok bai yu go yu go long haus
[365.785]
<no-speech>
[366.735]
em tok hat bilong yu i wok long pen tokim em olsem
[369.475]
<no-speech>
[372.765]
a Elias
[377.445]
<no-speech>
[379.065]
no ken engesim fon no ken opim fon bai mitupela stori yet inap fon i em yet bai kat op bikos ol lain long Australia
[390.555]
ol i wok long harim mitupela i wok long toktok
[392.475]
<no-speech>
[394.705]
so olgeta lain long Australia ol harim yumitupela
[397.675]
<no-speech>
[398.925]
yu save tu o nogat
[400.395]
<no-speech>
[402.115]
yu mas toktok gut yu save tu <no-speech> a
[404.965]
<no-speech>
[406.875]
ol lain long Australia wok long harim mi tok ol lain long Australia ol i wok long harim yumitupela toktok
[412.975]
<no-speech>
[415.035]
em yu stap laiv ya long fon
[417.615]
<no-speech>
[422.815]
na nau yu stap we wantaim Bernard
[424.885]
<no-speech>
[429.155]
nau yu stap we
[430.415]
<no-speech>
[436.825]
o yupela stap yet long Four Mile na yupela mekim wanem long hap
[442.005]
<no-speech>
[445.205]
na wanem taim bai yupela kam long Gerehu <no-speech> a
[448.125]
<no-speech>
[453.115]
Elias
[453.855]
<no-speech>
[456.895]
wanem taim bai yupela kam bek long Gerehu
[459.165]
<no-speech>
[461.385]
nain o'klok
[462.415]
<no-speech>
[464.325]
oke na nau yupela stap yet na yupela wok long wetim kar
[468.655]
<no-speech>
[474.095]
wi na nogut na yupela wokabaut i go long Gerehu
[478.485]
<no-speech>
[481.495]
em long we a <no-speech> a wanem
[485.145]
<no-speech>
[489.035]
aiya sori nogat kar nau a
[491.205]
<no-speech>
[495.515]
ol bas i stap stap raning nau a
[498.305]
<no-speech>
[502.205]
mi tok ol bus i stap i stap long ran nau a
[505.325]
<no-speech>
[510.105]
he na wanem kar nau bai yupela kisim ya
[512.805]
<no-speech>
[516.555]
<no-speech>
[516.905]
<no-speech>
[518.685]
ol save lain a <no-speech> yupela lukluk gut long ol save lain na
[524.895]
<no-speech>
[527.155]
yupela mas lukluk gut long ol save lain na kalap long en nogut sampela kar bai ranawe long yupela ya
[532.775]
<no-speech>
[538.755]
na yupela kaikai pinis long Four Mile
[541.715]
<no-speech>
[546.065]
yupela kaikai pinis long Big Rooster
[548.345]
<no-speech>
[554.255]
ye yu mas pulap pinis ya a
[556.315]
<no-speech>
[560.955]
aiya plis
[562.615]
<no-speech>
[564.005]
em gutpela bai yu go tasol long haus na slip
[566.825]
<no-speech>
[572.375]
na gutnait tru long yu a bikos belo em ring nau
[576.485]
<no-speech>
[578.835]
sapos em i op em op nau oke no ken no ken opim yet mi tok gutnait long yu
[584.995]
<no-speech>
[590.915]
na yu bai yu go bek long haus na olsem sapos kar dropim yupela oke yu go bek long haus a
[598.555]
<no-speech>
[600.040]
