[0.000]
<no-speech>
[3.115]
<no-speech>
[5.205]
Andy
[5.765]
<no-speech>
[7.775]
Andy <sta>
[9.595]
<no-speech>
[10.835]
Teddy
[11.395]
<no-speech>
[13.775]
oi
[14.295]
<no-speech>
[15.885]
Andy mi ya Stone
[17.095]
<no-speech>
[18.535]
mi ya olsem wanem yupela stap orait
[20.405]
<no-speech>
[23.055]
ol haus lain stap a
[24.955]
<no-speech>
[28.165]
na yu stap orait o
[29.645]
<no-speech>
[31.275]
mi tok yu stap orait o
[32.455]
<no-speech>
[34.225]
a oke <no-speech> nau yu wokim wanem
[36.795]
<no-speech>
[39.795]
a- yu wokim wanem stap
[41.145]
<no-speech>
[48.225]
a kisim planti em mas ten kina tasol daka mi nabaut o mi giaman mi nogat wanem ya buai ya
[55.545]
<no-speech>
[58.875]
a
[59.325]
<no-speech>
[61.765]
holim gut lus tingting no ken pundaun long diwai ya
[64.595]
<no-speech>
[66.075]
<no-speech>
[66.455]
<no-speech>
[67.715]
ai las- a mi tok yu holim gut diwai ya nogut yumi stori na yu pundaun ya
[73.195]
<no-speech>
[75.005]
ai mi harim lastaim ya ol bois wok long raun long katim banis ya tru o
[78.525]
<no-speech>
[82.425]
a Andy <sta>
[84.035]
<no-speech>
[85.405]
<sta> mi tok mi harim sampela
[88.635]
<no-speech>
[90.055]
mi harim sampela tok win ya ol mangi katim banis stap long kona bilong yupela ya tru o
[94.715]
<no-speech>
[101.005]
a o
[102.705]
<no-speech>
[103.705]
<no-speech>
[104.145]
<no-speech>
[106.275]
o oke mipela tu em daunbilo ya ol katim banis bilong ol man stap ya
[111.195]
<no-speech>
[118.025]
ye
[118.925]
<no-speech>
[120.395]
giaman putim was long ol stap na ol kam yumi holim wanpela o
[124.155]
<no-speech>
[126.445]
na yumi stori stori tasol ten minits tasol na mi (())
[129.595]
<no-speech>
[130.445]
bai mipela go long <no-speech> sampela hap gen
[133.035]
<no-speech>
[135.545]
na Rugsy em stap o
[137.375]
<no-speech>
[139.435]
a em stap a
[140.425]
<no-speech>
[145.655]
<no-speech>
[146.565]
<no-speech>
[147.975]
yu giaman ya em ya mada ya kam (())
[150.085]
<no-speech>
[151.205]
mi les long tokim em ya larim yupela toksave pinis mi tok long mada ya ten sita ya waitpela kar ya kam ya
[158.605]
<no-speech>
[161.405]
mi laik toksave long em tasol mi tok maski yupela toksave pinis ya
[165.385]
<no-speech>
[167.765]
olsem na mi lusim olsem
[169.705]
<no-speech>
[171.315]
yu yet oke yumi
[172.775]
<no-speech>
[174.295]
em Tesde o Fraide oke yumi bai go daun
[177.195]
<no-speech>
[181.115]
<sta> lukim yu y- ye bai yumi go daun na sekim fada ya
[184.465]
<no-speech>
[187.455]
na dispela
[188.395]
<no-speech>
[190.205]
sapos man ya givim koins bai orait ya
[192.265]
<no-speech>
[194.895]
em tu em mas pret o a mada ya mas tok em mas pret o
[199.495]
<no-speech>
[202.585]
hu dit wan olsem na mi <int> (())
[205.405]
<no-speech>
[207.735]
a tu wiks nau
[209.045]
<no-speech>
[213.735]
lukim em tu wiks nau em em man ya i no soim pes ya
[216.575]
<no-speech>
[227.855]
ye em ya (())
[228.765]
<no-speech>
[230.735]
ye mi sanap long rot stap ya em kam ya ol jes tok moning tasol em ol pas bai
[236.775]
<no-speech>
[242.415]
na moning ol kam go daun tu
[244.005]
<no-speech>
[244.885]
ye narapela man ya Kairuku o Hula o em em draivim kar ya
[249.615]
<no-speech>
[251.535]
ol kam go daun na mipela jes tok moning tasol
[254.175]
<no-speech>
[256.875]
em tu em bel oke mada em tok stap long han bilong yu
[259.515]
<no-speech>
[261.135]
tokim em go slip ya san hat ya
[263.045]
<no-speech>
[270.935]
ye ye ye
[271.985]
<no-speech>
[275.375]
Adoni bikpela taim
[276.535]
<no-speech>
[278.995]
ye <int> no ken presim ya em tu ya i no em wokim em brata bilong em wokim
[285.635]
<no-speech>
[288.095]
jes stori giaman stori wantaim yu
[290.355]
<no-speech>
[293.215]
wanem
[293.815]
<no-speech>
[297.425]
ye ye
[298.215]
<no-speech>
[301.795]
<no-speech>
[302.195]
<no-speech>
[303.835]
<sta> lukim yu-
[305.575]
<no-speech>
[309.245]
ye em ol katim long antap go daun ya
[311.335]
<no-speech>
[314.765]
long wanem banis banis yu kam long banis
[317.125]
<no-speech>
[321.375]
em lastaim Paulo pasim pinis
[323.485]
<no-speech>
[327.715]
ye
[328.365]
<no-speech>
[332.595]
em mipela
[333.495]
<no-speech>
[335.445]
<hes> em lastaim em i no save slip em save putim was tasol
[340.465]
<no-speech>
[341.605]
lastaim Jonty harim olsem nait ya em ol (())
[344.235]
<no-speech>
[345.825]
yu laik go kisim wanpela wok
[347.915]
<no-speech>
[348.765]
na lastaim Jonty tok ol go wanem ya ol kam long beksait ya
[352.725]
<no-speech>
[353.565]
em harim nois bilong ol ya
[354.945]
<no-speech>
[360.545]
<no-speech>
[360.945]
<no-speech>
[362.495]
mekim na Ruthie ya moning san mekim na Ruthie save holim bus naip long san na moning
[367.665]
<no-speech>
[369.045]
nait em save slip ya
[370.195]
<no-speech>
[378.445]
a a na mi tok ya nait em bai slip na san em holim bus naip raunraun
[383.135]
<no-speech>
[384.235]
<no-speech>
[388.015]
<no-speech>
[392.825]
wanem
[393.375]
<no-speech>
[400.815]
<no-speech>
[401.565]
<no-speech>
[407.115]
ye yu tok
[407.985]
<no-speech>
[411.465]
a yu t-
[412.145]
<no-speech>
[414.455]
wanem
[415.145]
<no-speech>
[419.445]
yu tok long wanem maket o wanem
[421.485]
<no-speech>
[425.685]
orait ya tasol sampela daka stap a
[427.765]
<no-speech>
[430.485]
anti
[431.045]
<no-speech>
[433.005]
a
[433.605]
<no-speech>
[435.515]
wanem bilong yu
[437.845]
<no-speech>
[439.525]
apinun o nau yet
[440.775]
<no-speech>
[442.975]
a (())
[444.225]
<no-speech>
[446.275]
a oke na nau yu stap we
[447.835]
<no-speech>
[450.685]
<no-speech>
[451.235]
<no-speech>
[452.905]
o oke bai yu go daun a
[454.485]
<no-speech>
[459.045]
sait long
[459.855]
<no-speech>
[461.205]
mi go daun long hap na kar stap ya
[462.815]
<no-speech>
[466.345]
ye
[466.985]
<no-speech>
[469.625]
olsem na
[470.395]
<no-speech>
[471.625]
<no-speech>
[472.025]
<no-speech>
[473.165]
mipela giaman stori em ya kam bek stap long haus ya
[476.305]
<no-speech>
[481.995]
stap long Waigani na mipela laik kam long haus
[484.085]
<no-speech>
[485.675]
ye ol stap orait
[486.975]
<no-speech>
[488.185]
ol sin- ol sindaun na lukautim buai tebol stap
[491.225]
<no-speech>
[497.760]
<no-speech>
[504.295]
na wanem <int>
[505.405]
<no-speech>
[510.115]
wanem ya
[510.835]
<no-speech>
[511.775]
mi tok lastaim wanem yu tok long wanem
[513.815]
<no-speech>
[515.235]
halo
[515.845]
<no-speech>
[520.635]
o ye
[521.645]
<no-speech>
[523.285]
o em mas wan man nau ol raun ya wan mun ye
[526.355]
<no-speech>
[533.105]
ol mangi save putim was tasol nogat wanpela ol kam ya em ya lastaim ya wanpela ol holim em long daunbilo ya Soweto ol paitim ya
[539.265]
<no-speech>
[545.965]
ye ye ye
[546.975]
<no-speech>
[547.905]
<sta> em dispela taim yupela mas lukim ol ya <no-speech> wanpela paul raun go na ol holim em na paitim em
[553.755]
<no-speech>
[558.415]
ye
[559.135]
<no-speech>
[559.995]
yupela lukim em planti man stret a
[562.205]
<no-speech>
[563.285]
o skel namba
[564.435]
<no-speech>
[572.425]
ye
[573.045]
<no-speech>
[574.145]
em dispela kona ya ol laik kisim planti samting ya
[577.645]
<no-speech>
[579.555]
wanem lastaim mipela tok ya setelmen ya beksait tasol ya
[582.605]
<no-speech>
[584.155]
nau em ol laik kisim ol samting long (())
[586.645]
<no-speech>
[592.915]
<hes>
[593.585]
<no-speech>
[599.135]
ye
[599.675]
<no-speech>
[600.080]
