[0.000]
<no-speech>
[0.525]
a mi no harim ya
[4.435]
<no-speech>
[9.155]
halo
[9.835]
<no-speech>
[11.285]
<no-speech>
[11.645]
<no-speech>
[15.235]
<no-speech>
[15.625]
<no-speech>
[16.855]
a
[18.625]
<no-speech>
[22.605]
nogat
[23.435]
<no-speech>
[27.655]
ye na yu mekim wanem long hap stap
[30.765]
<no-speech>
[33.005]
<no-speech>
[33.755]
<no-speech>
[36.375]
a
[37.035]
<no-speech>
[43.205]
mi no harim
[44.355]
<no-speech>
[46.605]
<no-speech>
[47.125]
<no-speech>
[48.355]
<no-speech>
[48.715]
<no-speech>
[50.995]
Barry
[55.185]
<no-speech>
[58.745]
ye em ringim mi na tokim mi
[60.595]
<no-speech>
[71.395]
a
[72.055]
<no-speech>
[73.285]
em ye em ringim mi
[75.765]
<no-speech>
[77.275]
a
[77.885]
<no-speech>
[80.135]
ye mi ges tasol
[81.565]
<no-speech>
[82.715]
em tokim mi olsem
[84.085]
<no-speech>
[85.655]
em tok olsem long mi a
[89.075]
<no-speech>
[90.325]
yu tok wanem
[91.515]
<no-speech>
[93.045]
em tok olsem long mi
[94.535]
<no-speech>
[96.395]
em tok dispela dispela fit ya em no save
[99.025]
<no-speech>
[100.145]
ye ye em tokim mi bai mi go pas mi les ya
[103.615]
<no-speech>
[104.925]
mi em em tokim na mi tok oke bai mi kam
[107.725]
<no-speech>
[111.295]
<no-speech>
[111.665]
<no-speech>
[117.845]
mi les long go ya
[119.215]
<no-speech>
[121.035]
<no-speech>
[122.665]
<no-speech>
[123.845]
<no-speech>
[124.595]
<no-speech>
[130.585]
<no-speech>
[132.705]
<no-speech>
[134.805]
pis
[135.355]
<no-speech>
[136.245]
a
[136.795]
<no-speech>
[137.945]
em bin kam kam kaikai pis na yu tok
[140.815]
<no-speech>
[141.655]
ye em tok kam kaikai pis na yu tok
[144.455]
<no-speech>
[147.075]
mi tok ya
[147.955]
<no-speech>
[151.255]
a
[151.845]
<no-speech>
[153.915]
yu tok wanem yu tok wanem
[156.795]
<no-speech>
[161.705]
a
[162.435]
<no-speech>
[169.985]
<no-speech>
[171.485]
<no-speech>
[175.685]
salim tokim em long salim long sip ya
[177.965]
<no-speech>
[179.365]
<no-speech>
[181.285]
<no-speech>
[182.335]
salim long <int>
[184.235]
<no-speech>
[185.155]
<no-speech>
[185.505]
<no-speech>
[190.245]
bai yu toksave a
[191.545]
<no-speech>
[193.055]
a
[193.695]
<no-speech>
[202.505]
saksak ye
[205.305]
<no-speech>
[206.495]
na em tokim mi mi mi lap na em tokim mi olsem yu no ken giaman
[212.905]
<no-speech>
[216.665]
em tokim mi yu tok tru a
[219.535]
<no-speech>
[221.535]
mi mi tok olsem oke mi em tokim mi trutru bai yu kam o yu mekim pani stap o mi tok tru bai mi kam
[230.595]
<no-speech>
[235.525]
yu tu ya yu tok wanem long ol
[237.515]
<no-speech>
[238.495]
yu tok wanem long ol yu tu
[240.285]
<no-speech>
[252.095]
yu mas tokim ol ya yu
[253.845]
<no-speech>
[257.125]
<no-speech>
[257.695]
<no-speech>
[267.145]
<no-speech>
[267.515]
<no-speech>
[269.475]
<no-speech>
[270.205]
<no-speech>
[271.345]
<no-speech>
[271.955]
<no-speech>
[275.455]
a
[276.065]
<no-speech>
[285.345]
ye em tok apinun yupela sindaun na yupela toktok na yupela bai mi ring kam na pain aut
[292.355]
<no-speech>
[293.425]
aiyo plis em mas yu tokim ol ya
[296.155]
<no-speech>
[298.365]
a
[299.035]
<no-speech>
[300.935]
yu mas tokim ol olsem yu mas tokim ol olsem yupela yet ring na pain aut yupela yet ring na tokim em
[307.975]
<no-speech>
[309.005]
olsem na ol ring kam
[310.465]
<no-speech>
[313.285]
<no-speech>
[313.665]
<no-speech>
[316.265]
mi les long mi yet tu go ya
[318.175]
<no-speech>
[321.595]
<no-speech>
[321.955]
<no-speech>
[328.515]
a
[329.045]
<no-speech>
[330.905]
a
[331.585]
<no-speech>
[339.475]
ye ol laik salim mi yet go
[342.565]
<no-speech>
[344.605]
yu mas anasten a a a
[351.535]
<no-speech>
[353.745]
yu mas anasten
[355.445]
<no-speech>
[356.645]
yu yu mas anasten olsem mi no save go long dispela ples bilong yu na hau laik salim mi yet go
[364.995]
<no-speech>
[367.745]
<no-speech>
[368.095]
<no-speech>
[375.375]
oke
[376.585]
<no-speech>
[377.535]
<no-speech>
[378.185]
<no-speech>
[378.995]
a
[379.595]
<no-speech>
[382.705]
a
[383.855]
<no-speech>
[386.495]
a a
[387.175]
<no-speech>
[388.145]
a
[389.875]
<no-speech>
[391.275]
aiyo plis
[392.385]
<no-speech>
[395.295]
ye mi praim pinis mi laik karim go antap na mi laik mi laik karim mi praim ol pinis na mi laik waswas na mi laik go antap
[403.035]
<no-speech>
[404.195]
na yu ring kam olsem na mi wet ken
[406.635]
<no-speech>
[412.235]
<no-speech>
[413.195]
<no-speech>
[414.225]
buai ya buai em pinis ya
[416.385]
<no-speech>
[418.705]
a
[419.305]
<no-speech>
[420.565]
buai em nogat mani bilong em ya
[422.585]
<no-speech>
[424.025]
buai nogat ya
[425.345]
<no-speech>
[426.845]
buai pinis ya em liklik tasol
[429.115]
<no-speech>
[430.325]
yes
[431.085]
<no-speech>
[435.505]
ye buai na smok ya
[437.335]
<no-speech>
[438.525]
ye mani bilong buai na smok ya mi go baim sosis
[441.515]
<no-speech>
[443.095]
mi go baim sosis na kam ya
[444.875]
<no-speech>
[447.555]
wanem taim bai yupela kam
[448.945]
<no-speech>
[451.485]
wanem taim bai yupela pinis a foa a
[456.895]
<no-speech>
[457.915]
<no-speech>
[458.385]
<no-speech>
[460.765]
oke
[461.695]
<no-speech>
[463.935]
<no-speech>
[464.305]
<no-speech>
[467.715]
a
[468.265]
<no-speech>
[472.275]
gem ol mangi statim eli ol meri em nau tasol ol statim
[476.775]
<no-speech>
[479.325]
olgeta lain stap long fil
[480.925]
<no-speech>
[482.765]
he
[484.415]
<no-speech>
[485.495]
wanpela wanpela
[486.935]
<no-speech>
[489.145]
a
[489.715]
<no-speech>
[491.055]
haus lain haus lain ol stap ol stap
[495.195]
<no-speech>
[496.255]
tupela marit ya go antap
[497.945]
<no-speech>
[500.315]
karim maket samting buai bilong ol na
[502.745]
<no-speech>
[507.845]
mami mas go ausait kisim Tommy ol ya
[510.275]
<no-speech>
[514.665]
mami <int>
[515.985]
<no-speech>
[518.905]
<no-speech>
[519.335]
<no-speech>
[526.315]
halo <no-speech> halo <no-speech> a
[535.845]
<no-speech>
[538.365]
<no-speech>
[542.135]
<no-speech>
[544.315]
pilai
[546.155]
<no-speech>
[547.215]
mm
[547.715]
<no-speech>
[548.885]
ye
[549.515]
<no-speech>
[551.955]
mm ol tim bilong mipela pilai stap ya Bradley
[557.335]
<no-speech>
[558.805]
Bradley
[559.655]
<no-speech>
[561.335]
ol ol (()) doks long hia man gem ya
[565.755]
<no-speech>
[571.575]
a
[572.165]
<no-speech>
[576.595]
ye
[578.005]
<no-speech>
[579.235]
<no-speech>
[581.545]
<no-speech>
[583.035]
a
[583.625]
<no-speech>
[593.005]
mi no harim ya
[594.255]
<no-speech>
[599.215]
oke
[600.095]
<no-speech>
[600.100]
