[0.000]
<no-speech>
[0.605]
<no-speech>
[4.645]
<no-speech>
[5.045]
<no-speech>
[6.335]
halo
[7.125]
<no-speech>
[9.645]
he halo sista
[13.895]
<no-speech>
[14.735]
em husat
[16.365]
<no-speech>
[18.145]
em husat ring ya yu <no-speech> yo mi stap long Paga na yu stap we nau
[23.655]
<no-speech>
[25.935]
yu stap we nau
[27.055]
<no-speech>
[28.925]
aiyo sori
[30.565]
<no-speech>
[31.765]
orait yu mekim wanem stap
[33.595]
<no-speech>
[35.475]
yu mekim wanem
[36.655]
<no-speech>
[39.095]
yo
[40.105]
<no-speech>
[40.935]
Paga ya yu save win bilong Paga ya strong tumas
[44.035]
<no-speech>
[44.915]
na mipela pinis kol na ol laik draim mipela yet long san stap
[48.165]
<no-speech>
[50.495]
na yu
[51.255]
<no-speech>
[53.605]
mi no harim
[54.575]
<no-speech>
[57.715]
ye
[58.355]
<no-speech>
[60.115]
sapos yu tingting long kam em orait yu ken kam gutpela gutpela san ya bat win bilong em em strong tumas
[67.035]
<no-speech>
[69.155]
na ol liklik bilong yu we
[70.975]
<no-speech>
[73.545]
aiyo na nau tasol ya mi lukim em kam kaikai wanpela buai na em mas go antap long haus ken o kain olsem
[81.445]
<no-speech>
[82.695]
na husat ya Julie Julie na Arthur na ol dispela ya ol liklik bilong yu
[87.635]
<no-speech>
[92.835]
na ol skul tu Julie <no-speech> a
[96.005]
<no-speech>
[101.705]
o na husat ya liklik boi ya ples mangi ya husat Arthur ya Arthur stap we nau
[107.785]
<no-speech>
[112.135]
he em mas gret wanem nau ya
[114.025]
<no-speech>
[115.625]
o yu salim em go long ples
[117.525]
<no-speech>
[119.245]
he sit em gret ten
[121.005]
<no-speech>
[122.455]
man bikpela mangi em stap wantaim husat ol lain bilong yu o bilong man
[125.895]
<no-speech>
[128.555]
dadi bilong em
[129.325]
<no-speech>
[131.295]
o oke oke
[132.995]
<no-speech>
[135.905]
o tarangu man bikpela mangi liklik yet
[138.545]
<no-speech>
[140.975]
na yu ting wanem bai yu salim em kam daun o nogat
[143.525]
<no-speech>
[152.470]
<no-speech>
[161.415]
o bai wokim gret wanem
[163.235]
<no-speech>
[165.605]
gret ileven o
[166.485]
<no-speech>
[167.745]
o yes em gutpela tu ya sori em stap antap em stap antap wan man i no gutpela larim em kam stap wantaim yu tarangu
[176.225]
<no-speech>
[179.495]
na husat ya
[181.175]
<no-speech>
[183.185]
mm
[183.885]
<no-speech>
[188.925]
o mm
[191.355]
<no-speech>
[192.715]
no waris bai mi toksave long em long dispela
[195.625]
<no-speech>
[197.645]
mi no save em save
[198.835]
<no-speech>
[199.855]
na husat ya Dodo na husat Soro
[202.775]
<no-speech>
[204.185]
ol stap yet
[205.155]
<no-speech>
[209.125]
na Dodo wok tu
[210.525]
<no-speech>
[211.785]
Dodo wok tu
[213.005]
<no-speech>
[223.325]
o
[224.525]
<no-speech>
[227.015]
tarangu mi ting em wok yet ya mi tu tingting long kam wok wantaim em na wok long wokim stap
[233.605]
<no-speech>
[238.085]
na ol tok olsem Dodo lokim Soro long sel ya tru a
[241.735]
<no-speech>
[246.415]
olsem wanem na em lokim em
[248.025]
<no-speech>
[253.085]
mm
[254.265]
<no-speech>
[258.245]
aiyo na man em paitim em ya em karim blut tu o pes bruk o
[262.315]
<no-speech>
[268.365]
ya
[269.225]
<no-speech>
[272.145]
mm
[272.715]
<no-speech>
[274.905]
aiyo sori so hamas ol bin sajim em
[278.545]
<no-speech>
[280.685]
ol go lokim long we
[281.935]
<no-speech>
[284.055]
ol go lokim em long we sori sori
[288.225]
<no-speech>
[289.025]
oke
[289.565]
<no-speech>
[290.565]
hau long em bin stap
[291.815]
<no-speech>
[298.005]
<no-speech>
[304.195]
a oke man ol kisim tri handet kina a
[307.015]
<no-speech>
[308.675]
tarangu
[309.805]
<no-speech>
[311.945]
so bikpela kontribiusen we ol man wokim ya bai ol kisim rifan o em bai nogat
[316.805]
<no-speech>
[320.105]
<no-speech>
[320.575]
<no-speech>
[328.555]
a bat stil tupela wok long go long kot ya a
[331.335]
<no-speech>
[335.045]
a oke oke
[336.475]
<no-speech>
[339.835]
sori long em
[341.235]
<no-speech>
[342.535]
na husat ya Joshua Joshua
[346.265]
<no-speech>
[348.365]
ol tok em marit ya
[349.725]
<no-speech>
[357.595]
o oke mi ting em marit pinis
[359.645]
<no-speech>
[361.315]
dispela Popondetta
[362.905]
<no-speech>
[364.355]
meri bilong we Popondetta o Samarai <no-speech> meri long we
[368.655]
<no-speech>
[374.815]
ya mi save ting olsem meri Popondetta ya
[378.265]
<no-speech>
[386.885]
o mi mas konfius ya mi ting meri save stap long ats ya
[390.305]
<no-speech>
[392.555]
i mas diferen wan ya
[394.045]
<no-speech>
[398.095]
man em mas
[398.775]
<no-speech>
[402.365]
man em mas gat planti meri stret ya a
[404.795]
<no-speech>
[407.395]
na
[407.975]
<no-speech>
[409.345]
yu klik <no-speech> na yu na yu wok tu o yu stap olsem wanem yu stori liklik
[414.645]
<no-speech>
[416.345]
yu wok nabaut tu
[418.185]
<no-speech>
[419.845]
aiyo kain bilong yumi mak- maket nabaut na yumi stap
[423.665]
<no-speech>
[427.655]
yu klia <no-speech> na ol kakaruk lek nabaut yu save kukim nabaut tu o
[432.335]
<no-speech>
[433.945]
kakaruk fit ya
[435.205]
<no-speech>
[436.015]
ol fit lek fit ya ol fit
[438.595]
<no-speech>
[442.635]
ol lek bilong kakaruk ya
[444.925]
<no-speech>
[446.855]
o man dispela taim yu bin
[448.625]
<no-speech>
[450.345]
dispela taim yu bin kukim na kam ya man swit stret na mipela olgeta laik pinisim ya
[455.105]
<no-speech>
[457.225]
yu mas go kisim
[458.285]
<no-speech>
[460.235]
harim
[461.065]
<no-speech>
[461.995]
yu mas
[462.575]
<no-speech>
[465.335]
yu mas kukim planti na kam ol haus lain ya ol pilai kats nabaut stap so yu kukim na karim kam ol hangre nabaut na stap ya
[473.255]
<no-speech>
[479.355]
mm
[479.925]
<no-speech>
[482.695]
ye yu kisim kam bai ol pinisim nating tru ya
[485.445]
<no-speech>
[487.325]
husat ya Anna
[488.815]
<no-speech>
[491.425]
husat ya
[492.365]
<no-speech>
[493.885]
husat
[494.495]
<no-speech>
[497.145]
o bebi bebi blu a bebi blu mas moning ya em kam go long maket na mitupela stori sindaun nabaut em tok em laik go long Gordons na
[505.955]
<no-speech>
[507.225]
painim ol kaukau na ol kumu bilong kuk bilong salim ya na mipela stap go go na bihain em kam bek ken na em karim ol kuk kaikai kam na em kam sindaun stap na em wok long stretim long kuk long apinun
[519.195]
salim
[519.795]
<no-speech>
[525.765]
aiyo Peter na Anna ya man tupela laik pait na wokim sta na mipela wok long stretim tupela stap ya em mas Peter mas
[533.055]
<no-speech>
[533.925]
Peter mas kisim sampela mani bilong Anna nabaut ya ol maket mani ya na Anna laik go long maket ya nogat Peter kisim dispela mani so hat long em go long maket ya tupela pait na stap
[545.015]
<no-speech>
[546.465]
kain bilong Peter ya painim mani na laik pilai kats
[549.815]
<no-speech>
[551.985]
<no-speech>
[553.095]
<no-speech>
[555.525]
tru ya man mipela olgeta haus lain ya wok long krosim em ya samting meri ya save hatwok na kisim mani kam ya man ya save laik stilim ol mani tumas
[564.955]
<no-speech>
[566.045]
mipela save les long dispela man ya man bilong stil olsem na
[568.715]
<no-speech>
[569.665]
Juks stap em mas
[572.055]
<no-speech>
[573.115]
em mas wokabaut go long taun na go lukim bik sis na em kam bek ken
[579.275]
<no-speech>
[580.465]
em tait nogut tru yu save san hat ya wokim na em tait nogut tru na sindaun stap
[588.475]
<no-speech>
[590.335]
husat gen
[593.515]
<no-speech>
[596.485]
yu mas kam ol
[599.615]
<no-speech>
[599.980]
