[0.000]
<no-speech>
[0.855]
<no-speech>
[1.215]
<no-speech>
[2.295]
<sta> halo
[3.875]
<no-speech>
[5.095]
halo
[5.735]
<no-speech>
[8.205]
halo
[8.995]
<no-speech>
[13.195]
halo
[13.785]
<no-speech>
[15.385]
<no-speech>
[15.755]
<no-speech>
[17.805]
halo
[18.575]
<no-speech>
[28.435]
halo
[29.005]
<no-speech>
[32.475]
halo
[33.615]
<no-speech>
[37.375]
<int> oi yu tok
[39.305]
<no-speech>
[44.575]
a yu mas <laugh> a yu tok
[48.045]
<no-speech>
[50.905]
na a yu kam long we
[52.615]
<no-speech>
[54.915]
mi
[55.565]
<no-speech>
[61.535]
<hes>
[62.925]
<no-speech>
[65.745]
wet wet <no-speech> mi (()) Facebook na Whatsapp wantaim famili bilong mi stap
[73.015]
<no-speech>
[75.145]
na yu hus Whatsapping on mai famili
[78.085]
<no-speech>
[79.755]
mi wok long jes Whatsapp wantaim ol famili bilong mi stap ye
[82.545]
<no-speech>
[84.045]
na yu
[84.985]
<no-speech>
[85.785]
<no-speech>
[86.185]
<no-speech>
[87.055]
na yu
[88.125]
<no-speech>
[90.445]
<no-speech>
[91.415]
<no-speech>
[92.235]
<sta> ye ai gat dem
[95.665]
<no-speech>
[96.565]
yupela mekim samting
[98.015]
<no-speech>
[99.865]
kam olsem
[100.695]
<no-speech>
[102.445]
<lipsmack> Trisy
[103.985]
<no-speech>
[105.615]
long G_C
[106.715]
<no-speech>
[108.395]
<sta> ol tok wanem ol tok wanem
[111.415]
<no-speech>
[112.575]
<sta> ol tok wanem <no-speech> ringim ol (())
[119.145]
<no-speech>
[121.675]
ringim ol man
[123.565]
<no-speech>
[126.735]
bilong
[127.395]
<no-speech>
[128.695]
<sta> bilong wanem <breath> bilong wanem
[131.815]
<no-speech>
[132.815]
o oke pani
[134.875]
<no-speech>
[137.405]
yes
[138.315]
<no-speech>
[139.525]
<no-speech>
[139.895]
<no-speech>
[141.025]
so hau long du yu hav tu tok
[142.635]
<no-speech>
[144.995]
<no-speech>
[145.345]
<no-speech>
[147.575]
ten minits
[148.365]
<no-speech>
[153.215]
no ken Inglis
[154.525]
<no-speech>
[155.785]
<breath> oke oke bai mi no inap
[157.745]
<no-speech>
[159.015]
na bai yu katim kam long hia
[161.295]
<no-speech>
[164.485]
no ken giaman
[165.475]
<no-speech>
[169.565]
no ken giaman
[170.595]
<no-speech>
[172.265]
<no-speech>
[172.665]
<no-speech>
[174.025]
<sta> oke laiks bilong yu
[176.335]
<no-speech>
[177.595]
<no-speech>
[178.005]
<no-speech>
[179.975]
olsem na mi tok laiks bilong yu
[181.825]
<no-speech>
[182.665]
<no-speech>
[183.025]
<no-speech>
[185.615]
oi
[186.225]
<no-speech>
[188.725]
husat mi
[189.455]
<no-speech>
[190.975]
sampela kain laki
[192.075]
<no-speech>
[192.935]
mi no mi wok long ringim Vesulam na man wok long ansarim
[195.335]
<no-speech>
[197.405]
na sampela koins stap a
[198.675]
<no-speech>
[202.525]
<no-speech>
[203.495]
<no-speech>
[204.955]
<lipsmack> a wanem ya em
[206.445]
<no-speech>
[207.275]
yu tok <laugh> wanem wis wan mi paul
[210.165]
<no-speech>
[215.385]
strit emti ya mi sem long go insait long hap ya mi les long go long hap ya
[219.775]
<no-speech>
[222.225]
mi bungim Desmond tu ya long <no-speech> mi bungim Desmond long lans taim ya
[226.635]
<no-speech>
[229.375]
a
[230.375]
<no-speech>
[231.435]
ye mi bungim em na em tok em katim kari- wanem
[235.095]
<no-speech>
[237.695]
em tokim yu olsem
[239.125]
<no-speech>
[242.145]
a em tokim yu olsem em bungim mi
[244.815]
<no-speech>
[249.975]
<no-speech>
[250.385]
<no-speech>
[252.655]
a oke em skel
[255.185]
<no-speech>
[257.935]
yu tok hau
[260.395]
<no-speech>
[261.795]
<sta> go go painim sampela koins na katim kam na kisim sampela koins long baim fon
[268.095]
<no-speech>
[268.955]
lans taim
[269.855]
<no-speech>
[270.665]
lans
[271.485]
<no-speech>
[276.765]
mi tok ya go painim koins na kam
[278.625]
<no-speech>
[280.065]
harim a
[280.875]
<no-speech>
[282.375]
painim koins na kam yu
[284.155]
<no-speech>
[285.945]
wanpela twenti stap go painim koins na kam
[288.085]
<no-speech>
[290.125]
yu jes painim wanpela koins yu jes painim wanpela koins wanpela twenti stap
[293.895]
<no-speech>
[295.335]
harim a
[296.135]
<no-speech>
[298.675]
painim plis no ken trai no ken trai mi holim wanpela twenti stap
[302.725]
<no-speech>
[307.355]
teti kina
[308.255]
<no-speech>
[311.665]
<breath> painim koins na katim kam yu yumi tok long yu hariap
[316.395]
<no-speech>
[318.515]
a yu bai salim a <no-speech> a
[320.955]
<no-speech>
[321.905]
yu tasol a laiks bilong yu
[323.545]
<no-speech>
[325.845]
a em olsem mi provaidim koins ya
[327.605]
<no-speech>
[328.645]
bai yu tra-
[329.505]
<no-speech>
[330.555]
a kam on fofetim ol de em no gutpela ya
[334.095]
<no-speech>
[336.445]
<no-speech>
[337.135]
<no-speech>
[339.435]
ye yu mas katim kam <no-speech> yu mas katim kam
[342.025]
<no-speech>
[343.415]
<no-speech>
[343.765]
<no-speech>
[347.555]
<int> sting yu
[349.505]
<no-speech>
[351.525]
hau long is it gona go is dis pat ov de proses ov wanem ya ten minits en hau meni minits is dis minits
[360.815]
<no-speech>
[363.825]
so we ar yu gais at
[365.045]
<no-speech>
[366.755]
yupela stap long we
[367.705]
<no-speech>
[370.215]
yupela stap long we
[371.435]
<no-speech>
[373.185]
stap long V_C a
[374.225]
<no-speech>
[375.585]
ye
[377.915]
<no-speech>
[378.945]
<sta> a gutnes oke yes ya
[384.665]
<no-speech>
[386.295]
mi em mi mi em mi ne- nit long dring nau nait ones mi nit long dring tude ones mi nit ye nau
[393.405]
<no-speech>
[394.425]
ye
[394.985]
<no-speech>
[396.375]
bikpela nit ya <no-speech> ye mi laik rausim wari sampela samting kamap na mi laik rausim wari bilong mi
[401.775]
<no-speech>
[406.635]
ye
[407.485]
<no-speech>
[409.455]
<lipsmack> na bai mi tokim yu nabaut ya <sta> bihain bihain
[414.395]
<no-speech>
[417.755]
ye bihain
[418.895]
<no-speech>
[422.635]
em sapos yu katim kam long hia bai mi tokim yu sapos yu no stap
[425.955]
<no-speech>
[427.895]
mipela bai katim go bek gen long tumora
[430.555]
<no-speech>
[431.485]
Sande
[432.145]
<no-speech>
[433.525]
tumora o Sande
[434.635]
<no-speech>
[436.265]
ye
[436.855]
<no-speech>
[441.145]
wai
[441.815]
<no-speech>
[443.515]
olsem na mi tok painim koins bilong nau
[445.895]
<no-speech>
[449.445]
olsem na mi tok painim koins bilong nau
[451.205]
<no-speech>
[452.555]
<sta> yu mas painim koins long nau
[456.055]
<no-speech>
[461.525]
yu mas laki na katim kam long hia na kisim dispela twenti long mi na yupela go skoa na kam
[466.195]
<no-speech>
[467.875]
wet brats wet wet
[469.375]
<no-speech>
[470.185]
wet <no-speech> em ya baim grin long hia
[474.095]
<no-speech>
[475.275]
grin long we
[476.225]
<no-speech>
[477.945]
grin
[478.795]
<no-speech>
[479.925]
long we
[481.515]
<no-speech>
[483.045]
long we
[483.985]
<no-speech>
[486.915]
a
[487.695]
<no-speech>
[493.635]
<sta> a oke dats not gret
[499.715]
<no-speech>
[501.995]
<sta> a
[503.755]
<no-speech>
[508.305]
aim tinging abaut tude en dis is laik ai don no wot tu du
[511.445]
<no-speech>
[513.535]
mi no Garden Hills meri ya
[516.325]
<no-speech>
[517.960]
