[0.000]
<no-speech>
[1.635]
<no-speech>
[4.405]
<no-speech>
[5.545]
halo <sta>
[7.725]
<no-speech>
[18.075]
<no-speech>
[18.695]
<no-speech>
[20.405]
<no-speech>
[21.995]
<no-speech>
[22.825]
ye
[23.605]
<no-speech>
[26.225]
ye mi orait <sta> <no-speech> oke nau tasol mi sindaun na mi wok long raitim ripot bilong mi long asde mi wok ya
[35.995]
<no-speech>
[37.185]
<no-speech>
[37.535]
<no-speech>
[38.985]
<sta> asde mi wok long Pari
[41.705]
<no-speech>
[45.005]
<sta> mi wok long Pari na mi go lukim sampela <no-speech> ye halo asde mi mi go wok long Pari na Pari em stap hamaspela
[56.785]
faiv faivpela kilomita ausait long Port Moresby
[60.345]
<no-speech>
[61.735]
<hes> mi go wok mi go wok long hap na mi go lukim sampela klaiens bilong mi long hap
[69.915]
<no-speech>
[71.185]
<sta> nau mi bai raitim ripot putim long kompiuta taipim long kompiuta na printim kam ausait em tasol
[79.605]
<no-speech>
[82.115]
<no-speech>
[82.535]
<no-speech>
[84.185]
<no-speech>
[84.875]
<no-speech>
[86.485]
aha <sta> <no-speech> a
[89.935]
<no-speech>
[91.255]
buai <no-speech> <sta> oke yu mas karim sampela ye yu mas karim sampela buai kam na smok tu
[98.995]
<no-speech>
[101.725]
<no-speech>
[102.145]
<no-speech>
[104.795]
<no-speech>
[105.185]
<no-speech>
[106.685]
<sta> aha
[111.535]
<no-speech>
[113.785]
<sta> aha <no-speech> oke em orait wanbel stap <no-speech> i ran samting
[125.475]
ting <sta>
[126.925]
<no-speech>
[133.805]
<sta> aha
[135.645]
<no-speech>
[138.095]
mhm
[139.205]
<no-speech>
[140.185]
<no-speech>
[140.645]
<no-speech>
[141.485]
<no-speech>
[141.865]
<no-speech>
[143.635]
oke
[144.785]
<no-speech>
[145.585]
na na nau tasol yu wok yu mekim wanem stap <no-speech> <sta> na nau tasol yu mekim <no-speech> aha
[153.755]
<no-speech>
[158.095]
<no-speech>
[158.455]
<no-speech>
[159.625]
aha <int>
[161.795]
<no-speech>
[164.605]
<no-speech>
[164.965]
<no-speech>
[166.165]
<sta> a
[168.515]
<no-speech>
[170.035]
<no-speech>
[172.105]
<no-speech>
[174.395]
oke
[175.595]
<no-speech>
[177.045]
em gutpela
[178.125]
<no-speech>
[182.335]
na dispela konvesesen bai las ha- ham- ham- hamaspela minit
[187.275]
<no-speech>
[192.935]
<no-speech>
[193.335]
<no-speech>
[194.365]
<no-speech>
[195.325]
<no-speech>
[196.725]
oke
[197.565]
<no-speech>
[200.215]
<no-speech>
[202.225]
<no-speech>
[206.135]
<sta> a oke em orait <no-speech> tasol
[211.795]
<no-speech>
[212.825]
<no-speech>
[214.245]
<no-speech>
[216.425]
aha <sta>
[219.105]
<no-speech>
[220.085]
<sta> oke <no-speech> ye salim sampela kredits bilong mi mi kam ya <no-speech> yu gat planti kredits ya sa- salim sampela
[231.245]
kam ya
[233.315]
<no-speech>
[236.325]
<hes>
[237.435]
<no-speech>
[242.895]
<no-speech>
[244.265]
<no-speech>
[245.745]
<sta> oke <no-speech> em wanbel
[249.525]
<no-speech>
[250.745]
<no-speech>
[251.305]
<no-speech>
[254.365]
<no-speech>
[254.745]
<no-speech>
[259.405]
a tenks <laugh> oke
[261.295]
<no-speech>
[262.975]
em tasol a o bai yumi stori yet a
[266.555]
<no-speech>
[277.305]
a oke oke em orait <no-speech> oke yu stori sampela moa stori ken bikos mi nogat wanpela stori stap long main bilong mi
[288.985]
<no-speech>
[294.105]
tru ya planti samting wok
[296.245]
<no-speech>
[297.525]
<hes>
[298.405]
<no-speech>
[299.775]
<no-speech>
[300.135]
<no-speech>
[307.465]
a
[308.355]
<no-speech>
[309.965]
oke
[311.075]
<no-speech>
[312.825]
<sta> aha
[316.005]
<no-speech>
[317.505]
<sta> gutpela
[318.795]
<no-speech>
[319.855]
gutpela raun bilong yupela ya bat mi laikim sampela buai na em yu tok yu tok long baim smok ya jes repim long wanpela pepa na karim kam
[331.005]
<no-speech>
[332.415]
<no-speech>
[337.625]
<no-speech>
[338.965]
<no-speech>
[340.235]
<no-speech>
[342.535]
<no-speech>
[345.145]
<hes>
[346.115]
<no-speech>
[348.275]
<sta> <laugh> a em brata bilong mi ya <laugh> Tok Pisin winim yu stret ya
[359.095]
<no-speech>
[362.645]
<no-speech>
[363.035]
<no-speech>
[364.775]
aha
[366.365]
<no-speech>
[367.555]
<no-speech>
[367.955]
<no-speech>
[373.735]
<no-speech>
[374.225]
<no-speech>
[375.455]
<no-speech>
[380.395]
<no-speech>
[382.405]
<sta> aha
[384.005]
<no-speech>
[385.345]
<hes>
[387.635]
<no-speech>
[388.785]
<no-speech>
[392.565]
<no-speech>
[395.985]
aha <no-speech> mi harim pinis mi save na mi stap
[400.145]
<no-speech>
[402.505]
mi givim long Jason na Jason tu bai
[404.885]
<no-speech>
[406.305]
aha mi givim long Jason na Jason tu bai toktok long yu tu a
[411.135]
<no-speech>
[411.965]
<no-speech>
[412.315]
<no-speech>
[413.605]
<no-speech>
[414.035]
<no-speech>
[417.485]
mi save mi save wanem samting tasol
[421.005]
<no-speech>
[425.015]
<no-speech>
[425.475]
<no-speech>
[426.405]
em
[427.015]
<no-speech>
[428.015]
em tok Tok Pisin <no-speech> em Tok Pisin em mi tromoim tasol ya
[433.375]
<no-speech>
[434.835]
<no-speech>
[435.345]
<no-speech>
[438.895]
<sta> mi tok mi givim long mi givim long Jason o Sharon long toktok tasol a em em we bilong sistem olsem
[450.705]
olsem na
[451.555]
<no-speech>
[452.525]
mi mi yet mi toktok long yu
[457.825]
<no-speech>
[460.935]
aha
[462.035]
<no-speech>
[465.795]
<no-speech>
[466.145]
<no-speech>
[467.235]
<no-speech>
[467.595]
<no-speech>
[468.535]
<no-speech>
[469.405]
<no-speech>
[470.255]
a oke
[474.285]
<no-speech>
[476.525]
ones Tok Pisin winim yu na Tok Pisin <sta> <no-speech> mhm <no-speech> ye
[486.085]
<no-speech>
[487.895]
<no-speech>
[488.275]
<no-speech>
[494.820]
<no-speech>
[501.365]
ye
[502.225]
<no-speech>
[503.495]
oke em orait wanbel stap
[506.665]
na yu
[518.080]
