[0.000]
<no-speech>
[0.235]
<no-speech>
[1.165]
<no-speech>
[2.785]
<sta> halo
[4.585]
<no-speech>
[7.065]
Janet
[7.995]
<no-speech>
[9.865]
<hes> mams em stap a
[12.005]
<no-speech>
[13.945]
mams Kathy lain stap a
[15.335]
<no-speech>
[17.565]
na
[18.345]
<no-speech>
[19.525]
Derek <hes> fada Walter stap o Walter
[22.395]
<no-speech>
[25.985]
fada Walter <no-speech>
[27.465]
na
[28.565]
<no-speech>
[31.905]
na Maggie Maggie
[33.385]
<no-speech>
[36.105]
Maggie tu a
[37.055]
<no-speech>
[39.215]
oke harim a
[40.725]
<no-speech>
[41.915]
apinun bai yumi go long Ela Beach o
[43.625]
<no-speech>
[45.075]
tokim ol prens bilong yumi ya tokim Peter Kundipa na Anna na ol lain long redi stap
[49.165]
<no-speech>
[51.685]
bai yumi go daun long basketbal kot
[53.235]
<no-speech>
[55.025]
ye
[55.625]
<no-speech>
[57.775]
so
[58.475]
<no-speech>
[59.645]
na Lucy stap long haus a
[61.045]
<no-speech>
[67.165]
na yu tok yupela mekim wanem yupela kuk o yupela mekim wanem stap
[69.895]
<no-speech>
[75.475]
a oke
[77.505]
<no-speech>
[78.525]
na anti Maggie mekim wanem
[81.225]
<no-speech>
[87.415]
o kirapim em pastaim
[89.625]
<no-speech>
[95.265]
<breath> Walter stap o givim fon long Walter pastaim
[98.255]
<no-speech>
[100.415]
<no-speech>
[100.805]
<no-speech>
[105.875]
<int> a
[107.165]
<no-speech>
[108.675]
oke na Mary
[111.095]
<no-speech>
[120.045]
na yupela wok long mekim wanem
[121.405]
<no-speech>
[128.295]
oke kisim bal olgeta samting na redi stap
[131.845]
<no-speech>
[132.645]
bai mi kisim wanpela faiv dua na kam pik ap <laugh>
[135.825]
<no-speech>
[140.615]
<laugh> yupela laik kalap faiv dua o yupela laik kalap long yu- yupela laik kalap long ret Kijang
[145.825]
<no-speech>
[151.065]
<laugh> oke na yu lukim Kundipa o nogat Kundipa Kundipa
[156.435]
<no-speech>
[161.715]
<int> em stap klostu o stap longwe
[164.055]
<no-speech>
[172.635]
na liklik Kathy
[174.185]
<no-speech>
[181.205]
a
[181.905]
<no-speech>
[182.785]
<int> Fidelyn
[183.955]
<no-speech>
[188.305]
<hes> mipela stil stap antap ya mi no go long Vision City yet
[191.635]
<no-speech>
[193.545]
so luk olsem papa bilong kar em bai kam tu <int>
[196.865]
<no-speech>
[205.445]
ye brata tokim yu tokim yu brata bai mi (()) bai mi baim wanpela ten sita na karim i kam <laugh>
[212.935]
<no-speech>
[214.505]
<no-speech>
[214.865]
<no-speech>
[217.065]
<breath> papa bilong Kensin o Kathy na karim i kam sekim <laugh>
[221.145]
<no-speech>
[225.575]
<no-speech>
[225.945]
<no-speech>
[226.815]
ye
[227.785]
<no-speech>
[228.885]
na yu lukim yu lukim kande Alan kam go a
[231.215]
<no-speech>
[236.465]
na Brenda
[237.455]
<no-speech>
[239.445]
<no-speech>
[239.815]
<no-speech>
[244.105]
mi no lukim em mi lukim Naomi tasol ya Naomi
[246.165]
<no-speech>
[247.875]
<no-speech>
[248.255]
<no-speech>
[251.275]
ye
[251.955]
<no-speech>
[254.755]
na yu lukim husat ya
[256.565]
<no-speech>
[259.465]
yu lukim <hes>
[260.505]
<no-speech>
[263.165]
yu lukim dispela yelo set mada salim fon ya em salim stap o nogat
[265.915]
<no-speech>
[270.425]
<no-speech>
[270.795]
<no-speech>
[273.575]
na Joshua Wagi Sodi na olgeta mangi yupela ol orait
[276.775]
<no-speech>
[280.845]
halo
[281.305]
<no-speech>
[282.495]
<hes> oke oke
[283.895]
<no-speech>
[285.005]
tokim ol <hes> tokim ol Alex bai stap
[287.505]
<no-speech>
[288.905]
kisim wara a
[289.975]
<no-speech>
[292.115]
<no-speech>
[293.325]
<no-speech>
[296.045]
oke tokim Kundipa meri bilong em painim em na mipela kisim em raunraun stap
[299.025]
<no-speech>
[303.425]
tokim Kundipa yu lukim Kundipa tokim em meri bilong em mipela kisim em raunraun stap
[306.885]
<no-speech>
[309.005]
tokim em Nancy Nancy Nancy
[310.545]
<no-speech>
[318.265]
<no-speech>
[320.855]
<no-speech>
[323.335]
<hes> Bala set Kundipa was dea Kundipa laikim em long kam bai mi kisim em kam pren bilong Kundipa ya
[329.335]
<no-speech>
[332.685]
oke harim a
[333.735]
<no-speech>
[335.295]
yu go long haus na stap antap long fris ya tupela kakaruk tupela kakaruk stap ya kukim bilong ol mangi ol mangi bai stap long haus <laugh>
[344.915]
<no-speech>
[347.065]
<no-speech>
[349.145]
<no-speech>
[350.695]
kukim na husat husat man stap klostu ya kukim na givim wanpela long oke brata wanem samting ol mangi stap
[356.155]
<no-speech>
[357.075]
<no-speech>
[357.425]
<no-speech>
[359.365]
harim a
[360.805]
<no-speech>
[362.215]
mi kauntim pastaim wan tu tri foa faiv sikis seven sevenpela ya sevenpela
[366.545]
<no-speech>
[368.105]
go long stua bilong Nelson na dinau tupela katen
[370.265]
<no-speech>
[371.315]
go long stua bilong Nelson na dinau tupela katen tu na wetim mi stap
[373.965]
<no-speech>
[376.305]
<no-speech>
[377.025]
<no-speech>
[379.455]
ye <int>
[381.145]
<no-speech>
[382.165]
<no-speech>
[382.545]
<no-speech>
[384.325]
<no-speech>
[384.995]
<no-speech>
[387.405]
<no-speech>
[389.035]
<no-speech>
[390.845]
ye
[391.405]
<no-speech>
[393.885]
oke a
[394.775]
<no-speech>
[395.875]
na yu lukim Tigilai tu o nogat sigi Tigilai
[399.745]
<no-speech>
[402.265]
<no-speech>
[402.625]
<no-speech>
[406.095]
oke na yu yu wanem (()) ya
[409.085]
<no-speech>
[411.025]
bai mi go na meri em sanap stap nem bilong em Naomi
[413.675]
<no-speech>
[415.295]
em orait yu go daun long kats ples ya bai yu lukim wanpela meri nem bilong em Naomi em sanap stap go na kisim foti kina dinau bilong em bilong mi long em na
[421.725]
<no-speech>
[422.975]
go tap ap na baim kaikai <laugh>
[426.475]
<no-speech>
[428.395]
<no-speech>
[428.825]
<no-speech>
[432.095]
ye em holim stap
[433.175]
<no-speech>
[436.515]
oke harim a pasim halo bilong mi na las luk long Kundipa
[440.595]
<no-speech>
[441.495]
<no-speech>
[442.985]
<no-speech>
[445.375]
tokim em draipela wan pundaun long beli baten bilong yupela
[447.875]
<no-speech>
[455.105]
<no-speech>
[455.465]
<no-speech>
[457.345]
bikpela wan bikpela bikpela bikpela ful smail wantaim
[460.565]
<no-speech>
[465.255]
long Kundipa Kundipa
[466.685]
<no-speech>
[470.765]
<no-speech>
[471.215]
<no-speech>
[472.185]
narapela mangi ya em em laik baim su bilong em na mipela raunraun stap
[475.485]
<no-speech>
[477.515]
tumora gem ya
[478.565]
<no-speech>
[479.465]
<no-speech>
[479.965]
<no-speech>
[481.075]
em nau em em ya Louie ya Louie Louie <int> tumora bai go pilai ya
[487.515]
<no-speech>
[488.335]
em bai pilai long DataNet ya namba faiv long DataNet ya
[491.085]
<no-speech>
[493.035]
<no-speech>
[493.415]
<no-speech>
[495.985]
ye
[496.565]
<no-speech>
[498.455]
so
[499.155]
<no-speech>
[500.705]
<no-speech>
[501.215]
<no-speech>
[502.065]
ye na Susan kam tu o nogat em sapos long lukim fon namba tu
[505.445]
<no-speech>
[508.795]
<no-speech>
[509.745]
<no-speech>
[512.165]
ye
[512.855]
<no-speech>
[516.085]
givim em givim em fon long em
[517.315]
<no-speech>
[518.705]
ye
[519.355]
<no-speech>
[527.485]
<no-speech>
[528.005]
<no-speech>
[529.905]
halo is dat Kundipa Wambi
[531.305]
<no-speech>
[534.075]
halo Kundipa Wambi
[536.305]
<no-speech>
[537.555]
a
[538.575]
<no-speech>
[540.525]
ken yu ken yu go faiv mitas awe
[543.155]
<no-speech>
[544.975]
inap yu wokabaut faiv mitas awe long wanem hap yu sanap ya win ya mi hat long harim yu ye
[549.495]
<no-speech>
[552.125]
halo
[552.705]
<no-speech>
[553.955]
<hes> go sanap long wanpela klia hap nabaut
[556.135]
<no-speech>
[558.525]
<hes> yu stap long wanem lokesen nau
[559.995]
<no-speech>
[561.705]
oke <hes> inap yu kam daun long taun pastaim
[563.745]
<no-speech>
[564.635]
<no-speech>
[565.265]
<no-speech>
[567.645]
halo
[568.195]
<no-speech>
[569.495]
nau yu go daun long taun a <no-speech> nogat
[572.615]
<no-speech>
[575.105]
bai yu kamap long taun a
[576.205]
<no-speech>
[581.805]
ye
[582.365]
<no-speech>
[583.615]
Neti ya Neti
[584.725]
<no-speech>
[586.255]
Neti painim yu ya
[587.295]
<no-speech>
[588.535]
oi
[589.085]
<no-speech>
[592.655]
Neti painim yu ya
[593.735]
<no-speech>
[597.035]
yu tok yu misim Nathan yu yu misim Nathan o (())
[599.905]
<no-speech>
[600.040]
