[0.000]
<no-speech>
[5.115]
halo
[5.725]
<no-speech>
[7.575]
halo
[8.075]
<no-speech>
[9.125]
yes <int> <no-speech> <breath> yes halo <no-speech> <breath> apinun
[15.385]
<no-speech>
[16.805]
ye halo mi (()) gut
[18.555]
<no-speech>
[19.935]
<breath> mi (()) ye <no-speech> <breath> yu mekim wanem <breath>
[25.915]
<no-speech>
[28.155]
<hes> (())
[29.375]
<no-speech>
[30.755]
(())
[31.555]
<no-speech>
[33.535]
<hes> oke asde mipela laik kam
[36.295]
asde mipela laik kam long skul tasol prablem olsem na mipela i no kam
[39.825]
<no-speech>
[41.595]
halo
[42.245]
<no-speech>
[43.345]
(())
[43.975]
<no-speech>
[45.015]
<no-speech>
[45.595]
<no-speech>
[46.505]
save <laugh> (()) yu save <no-speech> <laugh> <breath> ye
[52.925]
<no-speech>
[53.895]
<no-speech>
[54.245]
<no-speech>
[56.605]
ol stap long haus em stap long haus
[58.935]
<no-speech>
[60.225]
<int> ye em stap long haus
[61.895]
<no-speech>
[63.665]
wantaim ol haus lain bilo- wantaim ol haus lain bilong mi <int>
[67.995]
<no-speech>
[69.425]
<no-speech>
[70.495]
<no-speech>
[75.525]
Debbie ye Debbie em orait <int> halo ye
[79.415]
<no-speech>
[81.705]
orait em kis- (()) nau em eli mon-
[84.845]
<no-speech>
[86.245]
nogat <no-speech> nau eli moning em kirap em swipim graun
[90.455]
<no-speech>
[92.005]
na kukim kaikai na wasim ol plets
[95.425]
<no-speech>
[97.215]
<breath> ye <laugh>
[99.425]
<no-speech>
[100.755]
(()) nogat nau orait
[103.005]
<no-speech>
[105.175]
nogat marasin em dispela taim Wensde mi kisim em kam long lotu na <no-speech> long hap mipela
[110.355]
<no-speech>
[112.555]
<hes>
[113.825]
<no-speech>
[115.905]
ye
[116.865]
<no-speech>
[120.355]
<sta> mhm <no-speech> yes
[123.605]
<no-speech>
[126.245]
ye
[127.065]
<no-speech>
[128.285]
aha ye
[129.855]
<no-speech>
[133.535]
ye nau mi tingting
[134.735]
<no-speech>
[137.625]
a so-
[139.075]
<no-speech>
[142.525]
(()) bai nogat skul
[143.875]
<no-speech>
[145.405]
ye halo
[146.305]
<no-speech>
[148.255]
ye
[148.935]
<no-speech>
[150.395]
nogat skul
[151.355]
<no-speech>
[154.545]
ye (())
[156.045]
<no-speech>
[159.145]
oke mi tok em stap yet long (()) ye halo
[163.365]
<no-speech>
[166.395]
ye halo
[168.515]
<no-speech>
[170.415]
ye halo
[171.505]
<no-speech>
[172.745]
halo halo
[173.705]
<no-speech>
[175.445]
nau yu ken harim mi
[176.715]
<no-speech>
[178.335]
oke <breath>
[179.385]
<no-speech>
[180.325]
na bik tisa go long Cairns no kam bek yet
[182.655]
<no-speech>
[184.785]
mi tok tisa go long Cairns em no kam bek yet
[187.135]
<no-speech>
[192.485]
dispela tisa go long Cairns em i no kam bek yet
[194.745]
<no-speech>
[196.615]
halo (()) oke <int>
[200.225]
<no-speech>
[201.195]
a so tumora bai nogat skul a
[203.925]
<no-speech>
[206.265]
a-
[206.715]
<no-speech>
[212.485]
(())
[213.225]
<no-speech>
[216.565]
oke <int>
[217.575]
<no-speech>
[220.175]
(())
[220.795]
<no-speech>
[222.965]
<no-speech>
[223.675]
<no-speech>
[228.005]
oke ye
[229.325]
<no-speech>
[230.225]
oke
[231.075]
<no-speech>
[234.595]
nogat mi lusim <breath>
[236.175]
<no-speech>
[237.735]
ye halo
[238.705]
<no-speech>
[241.825]
<sta> ye mi wo- mi wok tasol liklik mangi tu save em krai na painim mi so mi jes lusim
[248.915]
<no-speech>
[254.025]
ye
[254.855]
<no-speech>
[257.495]
<no-speech>
[258.295]
<no-speech>
[263.775]
a
[264.515]
<no-speech>
[267.245]
<sta> oke <no-speech> ye halo
[270.835]
<no-speech>
[274.235]
yes halo nau yu ken harim mi <no-speech> ye halo
[278.115]
<no-speech>
[279.575]
halo
[280.195]
<no-speech>
[281.325]
ye (())
[282.145]
<no-speech>
[283.295]
oke nau mi stap long Morata mi skin dai na mi laik wokabaut (()) halo
[288.825]
<no-speech>
[290.645]
halo <no-speech> yu ken harim mi nau
[293.085]
<no-speech>
[296.465]
ye mi stap long hap tasol nau em
[298.645]
<no-speech>
[300.475]
em ya Debbie ya <no-speech> yes halo
[303.655]
<no-speech>
[304.835]
<breath> yes <no-speech> mi stap long Morata go mi skin dai na mi laik go antap olsem long Ensisi em mi bungim ol dispela lain ya
[311.565]
<no-speech>
[314.305]
halo
[315.075]
<no-speech>
[316.185]
ye
[316.975]
<no-speech>
[322.325]
<no-speech>
[322.845]
<no-speech>
[325.355]
<hes> bihain bikos mi tu em nau tasol mi kam insait so toksave gut halo
[330.545]
<no-speech>
[332.125]
halo
[332.745]
<no-speech>
[336.365]
a
[336.955]
<no-speech>
[338.875]
yes halo
[339.895]
<no-speech>
[344.695]
<hes>
[345.415]
<no-speech>
[347.275]
a
[347.885]
<no-speech>
[348.815]
yu ye mi wok long hia (())
[350.215]
<no-speech>
[351.355]
yu wok halo
[352.635]
<no-speech>
[356.235]
ye mi wok long hia
[357.655]
<no-speech>
[359.395]
ye halo <no-speech> tisa meri yu (())
[362.085]
<no-speech>
[366.365]
<hes> oke yu ken harim mi gut nau
[368.485]
<no-speech>
[369.355]
(())
[370.265]
<no-speech>
[371.205]
pilai ap
[371.805]
<no-speech>
[373.495]
<hes> ol (()) prablem
[375.955]
<no-speech>
[378.365]
(()) a
[379.445]
<no-speech>
[383.715]
(())
[384.555]
<no-speech>
[387.375]
(()) oke nogat olsem na
[390.555]
<no-speech>
[392.715]
(()) ken harim
[393.895]
<no-speech>
[396.685]
Aroma orait o
[398.105]
<no-speech>
[400.455]
halo
[401.045]
<no-speech>
[411.115]
yu lukluk go daun yu lukim solwara tasol
[413.175]
<no-speech>
[416.765]
a
[417.495]
<no-speech>
[418.585]
bat win ya yu tok maunten
[420.455]
<no-speech>
[423.535]
<no-speech>
[423.985]
<no-speech>
[425.045]
(()) bikpela win ya
[426.645]
<no-speech>
[428.625]
halo
[429.325]
<no-speech>
[431.845]
ye
[432.475]
<no-speech>
[433.825]
mi ken harim long bekgraun ya
[435.755]
<no-speech>
[437.065]
<sta> fon bilong mi klia na <no-speech> ye mi tok fon bilong mi em klia na de em wok long pilai ap
[442.455]
<no-speech>
[447.255]
a
[447.765]
<no-speech>
[454.905]
ye em wanem ya Taurama ya em long bus stret
[458.395]
<no-speech>
[460.305]
em olsem na fon bilong yu wok long pilai ap ya <int>
[462.285]
<no-speech>
[463.785]
<no-speech>
[464.135]
<no-speech>
[468.955]
aiyo wai
[470.625]
<no-speech>
[476.065]
<laugh> na tumora wanem (()) a
[479.005]
<no-speech>
[481.565]
halo tumora Wensde em felosip
[484.295]
<no-speech>
[486.525]
ye halo tisa meri
[488.095]
<no-speech>
[489.825]
nogat felosip
[490.925]
<no-speech>
[492.275]
a <no-speech> aiyo <no-speech> laki na mi tingim na mi askim (())
[497.095]
<no-speech>
[498.775]
a oke
[499.895]
<no-speech>
[500.995]
<hes> bai yu go (()) o
[502.325]
<no-speech>
[508.235]
<sta> mi tok em bai yu go klostu so bai nogat ya
[510.715]
<no-speech>
[513.215]
na bik tisa tu em
[514.465]
<no-speech>
[516.945]
a
[517.595]
<no-speech>
[524.865]
a
[525.605]
<no-speech>
[533.445]
<hes>
[534.185]
<no-speech>
[536.095]
a
[536.655]
<no-speech>
[539.555]
a
[540.235]
<no-speech>
[543.925]
na dispela wik na dispela wik bai nogat (()) a
[547.215]
<no-speech>
[552.195]
<no-speech>
[552.555]
<no-speech>
[553.705]
dispela wik bai nogat skul
[555.235]
<no-speech>
[557.805]
halo
[558.365]
<no-speech>
[562.855]
oke tu wiks a
[564.125]
<no-speech>
[567.925]
oke tu wiks oke
[569.465]
<no-speech>
[574.905]
ye mi harim yu
[575.925]
<no-speech>
[579.965]
(())
[580.455]
<no-speech>
[582.665]
nogat <laugh>
[583.805]
<no-speech>
[587.225]
ye
[587.845]
<no-speech>
[589.245]
(())
[589.695]
<no-speech>
[594.065]
em bilong Tubusereia em stap long Tubusereia
[596.585]
<no-speech>
[598.365]
na liklik gel em s- <hes> liklik
[599.965]
<no-speech>
[600.020]
