[0.000]
<no-speech>
[2.405]
<no-speech>
[4.035]
<no-speech>
[4.655]
<no-speech>
[6.405]
ye
[7.815]
<no-speech>
[8.685]
<no-speech>
[9.035]
<no-speech>
[12.065]
<sta> ye
[13.905]
<no-speech>
[15.525]
ye ye <int>
[19.445]
<no-speech>
[20.645]
aha
[22.105]
<no-speech>
[22.915]
<no-speech>
[25.515]
<no-speech>
[27.645]
ye yu tok tarangu
[29.015]
<no-speech>
[33.925]
mi orait mi orait <int>
[34.965]
<no-speech>
[36.775]
<no-speech>
[37.935]
<no-speech>
[40.105]
<no-speech>
[44.105]
<no-speech>
[45.865]
<sta> yu stap long we <no-speech> maket bilong Thomas a
[53.095]
<no-speech>
[54.165]
<sta> aha (())
[56.815]
<no-speech>
[57.775]
<sta> so yu tok wanem papa bai i no inap alau
[61.615]
<no-speech>
[62.425]
<sta> mi mi kam olsem long taun stap nau mi sta- mi kam long Koki nau <no-speech> ye
[74.005]
<sta> so dispela yu wet mi tok olsem na wanem yu to-
[78.060]
