[0.000]
<no-speech>
[5.885]
ye halo <int>
[10.615]
<no-speech>
[11.915]
<int> halo
[13.895]
<no-speech>
[16.045]
oke yu tok
[17.525]
<no-speech>
[20.635]
ye
[21.665]
<no-speech>
[22.895]
<no-speech>
[23.535]
<no-speech>
[25.385]
<int> Blues
[29.075]
<no-speech>
[30.995]
ye mi save
[32.585]
<no-speech>
[33.555]
oke <int> <no-speech> olsem wanem
[37.675]
<no-speech>
[39.645]
<int> hm
[41.655]
<no-speech>
[42.695]
ye
[43.355]
<no-speech>
[44.325]
<no-speech>
[44.895]
<no-speech>
[46.645]
ye
[47.295]
<no-speech>
[50.225]
Bertha
[51.185]
<no-speech>
[54.475]
planti <int>
[58.095]
<no-speech>
[58.995]
ye
[59.715]
<no-speech>
[62.575]
ye a oke
[64.345]
<no-speech>
[69.325]
stap long ples
[70.835]
<no-speech>
[72.325]
<no-speech>
[72.735]
<no-speech>
[74.655]
<no-speech>
[75.005]
<no-speech>
[78.195]
<no-speech>
[79.165]
<no-speech>
[81.095]
<no-speech>
[81.455]
<no-speech>
[82.455]
bihain oke yumi go
[83.795]
<no-speech>
[85.245]
<no-speech>
[85.855]
<no-speech>
[88.185]
enitaim
[89.195]
<no-speech>
[90.025]
<no-speech>
[90.465]
<no-speech>
[92.785]
hm
[93.465]
<no-speech>
[95.425]
<no-speech>
[95.805]
<no-speech>
[98.395]
mi kuk stap
[99.505]
<no-speech>
[103.125]
<int> kukim banana nating
[106.085]
<no-speech>
[107.715]
<no-speech>
[108.275]
<no-speech>
[110.555]
<no-speech>
[110.945]
<no-speech>
[114.895]
<int> bai mi putim olsem kain yu bai kam
[117.365]
<no-speech>
[118.215]
<no-speech>
[120.185]
<no-speech>
[121.635]
<no-speech>
[122.105]
<no-speech>
[124.675]
<no-speech>
[125.935]
<no-speech>
[128.415]
<no-speech>
[128.935]
<no-speech>
[130.325]
namba
[131.135]
<no-speech>
[134.175]
namba bilong wanem
[136.285]
<no-speech>
[140.745]
<int> o Jessie
[143.755]
<no-speech>
[144.565]
tetin
[145.405]
<no-speech>
[147.935]
<no-speech>
[148.705]
<no-speech>
[149.995]
<no-speech>
[150.355]
<no-speech>
[153.865]
<no-speech>
[156.865]
<no-speech>
[157.765]
hm
[159.095]
<no-speech>
[163.165]
ten a oke
[165.995]
<no-speech>
[167.485]
<no-speech>
[167.855]
<no-speech>
[171.705]
hm
[174.425]
<no-speech>
[177.195]
oke
[178.055]
<no-speech>
[180.175]
<no-speech>
[180.545]
<no-speech>
[182.385]
<sta> se it
[185.275]
<no-speech>
[186.255]
<no-speech>
[186.635]
<no-speech>
[187.915]
mi no laik toktok <int>
[193.895]
<no-speech>
[194.725]
<no-speech>
[196.975]
<no-speech>
[198.705]
<no-speech>
[199.075]
<no-speech>
[201.105]
ye
[201.825]
<no-speech>
[205.755]
<no-speech>
[206.105]
<no-speech>
[207.835]
em mas Maroons ya tasol mi sapotim Blues
[211.635]
<no-speech>
[212.745]
ye
[213.365]
<no-speech>
[214.825]
<no-speech>
[217.175]
<no-speech>
[218.605]
<no-speech>
[219.245]
<no-speech>
[220.385]
sapos yupela tok wanem oke yumi bet
[223.545]
<no-speech>
[225.635]
<no-speech>
[226.285]
<no-speech>
[231.415]
wai na yupela yusim dispela namba
[234.225]
<no-speech>
[237.165]
wai na yupela kisim namba bilong mi
[239.025]
<no-speech>
[241.235]
<no-speech>
[241.585]
<no-speech>
[247.185]
<no-speech>
[248.325]
<no-speech>
[249.995]
<no-speech>
[250.415]
<no-speech>
[253.735]
hm oke
[256.445]
<no-speech>
[259.435]
<no-speech>
[259.785]
<no-speech>
[262.355]
hm <no-speech> yes em orait keta for it in seken tes a
[266.105]
<no-speech>
[267.775]
<int> hm
[270.855]
<no-speech>
[272.135]
<no-speech>
[272.515]
<no-speech>
[274.275]
<no-speech>
[274.825]
<no-speech>
[276.695]
<no-speech>
[277.055]
<no-speech>
[281.755]
<no-speech>
[282.315]
<no-speech>
[283.195]
o oke ya
[284.645]
<no-speech>
[286.295]
<no-speech>
[287.165]
<no-speech>
[290.345]
nogat toktok ya toktok pinis ya
[293.045]
<no-speech>
[295.815]
mi nogat toktok
[297.265]
<no-speech>
[298.645]
<no-speech>
[300.085]
<no-speech>
[300.925]
<no-speech>
[301.675]
<no-speech>
[304.035]
<int> hm
[306.995]
<no-speech>
[308.695]
<no-speech>
[309.075]
<no-speech>
[310.595]
<no-speech>
[310.945]
<no-speech>
[312.185]
ye
[312.895]
<no-speech>
[319.125]
<no-speech>
[320.465]
<no-speech>
[321.735]
<no-speech>
[322.115]
<no-speech>
[323.015]
tisa
[324.635]
<no-speech>
[326.475]
<int> a
[329.375]
<no-speech>
[330.225]
a
[331.095]
<no-speech>
[336.425]
ye <no-speech> <int> tumora a
[340.625]
<no-speech>
[344.255]
ye
[344.965]
<no-speech>
[346.455]
o yutupela bai kisim sampela kam
[348.585]
<no-speech>
[350.445]
yutupela save pinis
[352.005]
<no-speech>
[355.855]
sapos tumora yupela bai kam antap a
[357.805]
<no-speech>
[359.785]
<no-speech>
[360.145]
<no-speech>
[364.685]
<no-speech>
[366.025]
<no-speech>
[367.185]
a
[367.835]
<no-speech>
[371.635]
a <no-speech> oke
[374.725]
<no-speech>
[376.145]
<no-speech>
[376.495]
<no-speech>
[378.885]
<int> Fraide
[381.115]
<no-speech>
[382.055]
<no-speech>
[382.455]
<no-speech>
[383.985]
ye
[384.645]
<no-speech>
[388.515]
i no tumora tumora em State of a
[392.375]
<no-speech>
[394.825]
ye tumora em State of Origin so Fraide oke
[398.925]
<no-speech>
[401.775]
<sta> yu lap mm
[406.895]
<no-speech>
[408.015]
<no-speech>
[408.385]
<no-speech>
[409.585]
ye
[411.075]
<no-speech>
[417.745]
oke <int>
[419.185]
<no-speech>
[422.085]
oke
[422.925]
<no-speech>
[424.185]
Blues win oke <no-speech> oke
[428.585]
<no-speech>
[432.865]
oke
[433.715]
<no-speech>
[437.865]
hm
[439.595]
<no-speech>
[440.515]
<no-speech>
[442.005]
<no-speech>
[444.255]
ye
[445.045]
<no-speech>
[445.875]
<no-speech>
[449.555]
<no-speech>
[451.275]
hm
[451.945]
<no-speech>
[455.425]
<no-speech>
[458.065]
<no-speech>
[459.575]
<no-speech>
[460.005]
<no-speech>
[461.495]
<no-speech>
[462.975]
<no-speech>
[464.255]
<no-speech>
[468.085]
<no-speech>
[468.955]
<no-speech>
[469.345]
<no-speech>
[470.415]
<no-speech>
[470.835]
<no-speech>
[474.325]
<no-speech>
[474.675]
<no-speech>
[476.005]
<int> hm <no-speech> a
[483.785]
<no-speech>
[484.825]
<no-speech>
[486.445]
<no-speech>
[489.215]
a
[489.985]
<no-speech>
[491.215]
Cindy inap ov yu kam hia
[494.025]
<no-speech>
[496.155]
na olsem wanem
[498.855]
<no-speech>
[499.995]
<no-speech>
[502.265]
<no-speech>
[504.825]
<no-speech>
[506.405]
<no-speech>
[508.455]
<int> a
[510.055]
<no-speech>
[512.335]
<no-speech>
[512.795]
<no-speech>
[517.155]
<no-speech>
[517.525]
<no-speech>
[519.495]
ye oke
[524.435]
<no-speech>
[526.435]
<no-speech>
[526.815]
<no-speech>
[530.225]
<no-speech>
[532.295]
<no-speech>
[533.305]
<int> hm
[540.775]
<no-speech>
[542.825]
<no-speech>
[543.185]
<no-speech>
[545.305]
<int> oke
[548.995]
<no-speech>
[551.025]
<no-speech>
[552.795]
<no-speech>
[555.345]
<no-speech>
[558.065]
<no-speech>
[559.785]
<int> a
[562.685]
<no-speech>
[565.075]
ol ples ya trening ya netbal <no-speech> hm
[574.065]
<no-speech>
[575.025]
<no-speech>
[575.375]
<no-speech>
[578.775]
a neks man
[581.005]
<no-speech>
[581.825]
Julai nain
[583.005]
<no-speech>
[584.615]
hm
[585.295]
<no-speech>
[586.455]
<int> et en nain <no-speech> Julai neks man hm
[594.945]
<no-speech>
[595.835]
liklik junia hm
[597.965]
<no-speech>
[600.100]
