[0.000]
<no-speech>
[1.385]
<no-speech>
[1.825]
<no-speech>
[3.845]
<no-speech>
[4.195]
<no-speech>
[9.355]
<no-speech>
[10.355]
<no-speech>
[13.285]
halo
[13.975]
<no-speech>
[15.865]
<sta> Tama <no-speech> ye ye o ye longtaim yu tok
[23.415]
<no-speech>
[24.335]
<no-speech>
[25.055]
<no-speech>
[26.325]
<no-speech>
[27.065]
<no-speech>
[27.905]
<sta> mi stap long Five Mile Five Mile na yu stap long we na ring kam <no-speech> ye
[36.285]
<no-speech>
[38.325]
<no-speech>
[38.675]
<no-speech>
[39.675]
a aiyo mi ting yu stap long Australia
[42.525]
<no-speech>
[45.135]
mi ting yu stap long Australia mi lukim namba he wanpela taim mi go long South Ville na mi bin ring kam ya dispela namba bin on ya
[52.495]
<no-speech>
[54.095]
<no-speech>
[55.595]
<no-speech>
[57.635]
<no-speech>
[59.105]
<no-speech>
[60.895]
ye mi go bat wanem ya <int> flait kensel neks wik <int>
[65.435]
<no-speech>
[67.735]
<no-speech>
[68.165]
<no-speech>
[69.855]
ye <no-speech> ye
[72.685]
<no-speech>
[73.865]
<no-speech>
[74.255]
<no-speech>
[77.335]
mi stap long Five Mile mipela wok long mipela kilim pik nabaut na <no-speech> ol Hagen tu ol kilim dok <no-speech> ol em em ya husat
[88.615]
husat lain ya <no-speech> Mario lain
[92.055]
<no-speech>
[92.995]
<sta> ye papa bilong Wesley ye
[99.715]
<no-speech>
[100.915]
<no-speech>
[101.935]
<no-speech>
[103.165]
<sta> na
[106.405]
<no-speech>
[107.725]
em mi na Nana wantaim
[109.575]
<no-speech>
[112.365]
<no-speech>
[112.765]
<no-speech>
[115.525]
Taylor em yu save em stap long haus
[118.065]
<no-speech>
[120.145]
mipela mi (())
[121.595]
<no-speech>
[123.785]
mipela bai kam na mipela bai kam bek apinun nabaut
[127.285]
<no-speech>
[128.215]
<no-speech>
[128.755]
<no-speech>
[130.025]
<no-speech>
[130.395]
<no-speech>
[132.235]
<hes> mipela bai kam long apinun o nait ye bai mipela kam long niupela letes V_X bilong Mario
[138.225]
<no-speech>
[141.335]
<no-speech>
[141.725]
<no-speech>
[142.965]
a
[143.625]
<no-speech>
[147.265]
Helen tu Helen em yu save foreva op-sait
[150.265]
<no-speech>
[152.325]
<no-speech>
[154.995]
<no-speech>
[156.335]
<no-speech>
[157.285]
<no-speech>
[158.445]
ye Helen em mi tok ya <no-speech> a <int>
[163.845]
<no-speech>
[164.665]
<no-speech>
[166.215]
<no-speech>
[167.845]
nogat ya em husat ya Eunice ya em Eunice wok long kaikai bun bilong pik ya na em wok long kransim long <int> tit bilong em stap
[175.405]
<no-speech>
[177.075]
<no-speech>
[178.665]
<no-speech>
[180.495]
a
[181.115]
<no-speech>
[182.415]
<sta> ye
[184.065]
<no-speech>
[185.345]
mipela stap long haus bilong Mario <int> papa bilong Wesley Mario
[189.485]
<no-speech>
[191.995]
<no-speech>
[192.435]
<no-speech>
[194.335]
ye
[195.205]
<no-speech>
[196.075]
<no-speech>
[196.435]
<no-speech>
[197.795]
ye pati bilong Wesley betde bilong em
[200.125]
<no-speech>
[203.135]
<no-speech>
[203.525]
<no-speech>
[205.055]
ye na betde man ya baim tasol
[207.125]
<no-speech>
[208.545]
aiyo sista mipela mas (()) na kolim fon bilong yu ya fon bilong yu op nau yu ring long niupela namba na plis mi sok na seprais ya
[216.065]
<no-speech>
[217.455]
<no-speech>
[219.115]
<no-speech>
[221.335]
<int> a oke <no-speech>
[226.035]
<sta> <hes> ye bai mi sevim ones
[230.665]
<no-speech>
[232.495]
mi bai sevim long kompiuta long fon ya
[236.685]
<no-speech>
[238.545]
<no-speech>
[240.555]
<no-speech>
[242.985]
<no-speech>
[243.335]
<no-speech>
[246.955]
em long dispela Gordons a
[250.145]
<no-speech>
[252.685]
<no-speech>
[253.165]
<no-speech>
[255.435]
o oke em yu kam long Gordons International School ya na rot go olsem long kindagaden ya go antap olsem long Five Mile
[263.615]
<no-speech>
[264.525]
<no-speech>
[265.135]
<no-speech>
[267.035]
ol save tok Gordons ol no save tok Five Mile bat ol save tok Gordena Five fes ten long Boroko Foodworld
[272.715]
<no-speech>
[275.385]
<no-speech>
[275.775]
<no-speech>
[276.915]
<sta> ye
[279.665]
<no-speech>
[282.645]
na oke yu em ya tu foa maket <int> long Five Mile ya bipo tu foa maket ya
[287.435]
<no-speech>
[288.265]
<no-speech>
[288.685]
<no-speech>
[290.125]
<no-speech>
[291.585]
<no-speech>
[292.635]
kam antap <int>
[293.725]
<no-speech>
[296.035]
o ye ye oke <int> ye mi bai kam sanap long get <int>
[300.045]
<no-speech>
[303.235]
ye bai mi kam sanap long get
[305.045]
<no-speech>
[305.985]
<no-speech>
[306.385]
<no-speech>
[308.555]
<int> nau yet mi bai ran kam daun na bai yu lukim mi long hap ya <int>
[312.705]
<no-speech>
[313.815]
em bat mi les ya nogut bai yu (())
[316.075]
<no-speech>
[317.475]
ye planti lain <no-speech> planti lain <int>
[321.925]
<no-speech>
[323.675]
<sta> olgeta Goroka pulap ol Erave nogat ya <int> ye
[328.465]
<no-speech>
[334.195]
tru ya na ol baim niupela V_X bilong Wesley tu betde presen bilong em
[339.105]
<no-speech>
[340.635]
<no-speech>
[341.085]
<no-speech>
[342.205]
<no-speech>
[343.055]
<no-speech>
[343.955]
ye <int>
[346.605]
<no-speech>
[347.765]
<no-speech>
[348.155]
<no-speech>
[349.605]
tru
[350.555]
<no-speech>
[351.355]
<no-speech>
[351.765]
<no-speech>
[353.375]
a
[354.045]
<no-speech>
[354.945]
<no-speech>
[355.405]
<no-speech>
[358.425]
<hes> em mas foa
[360.175]
<no-speech>
[361.125]
em tri en de hap nau em bai ten foa klostu <no-speech> ye
[365.315]
<no-speech>
[366.115]
<no-speech>
[367.195]
<no-speech>
[368.515]
ye <no-speech> ye <int>
[373.345]
<no-speech>
[377.845]
<no-speech>
[381.465]
<no-speech>
[382.475]
ye nau mi kam sanap long get nau yu kam <laugh> <sta>
[389.515]
<no-speech>
[391.015]
<sta> olsem mi sindaun long get stap na wet mi tok mi sindaun long get na wetim yu stap
[401.415]
<no-speech>
[404.205]
<no-speech>
[404.895]
<no-speech>
[407.755]
ones trutru bai mi kam ones nek drai ya kaikai pik gris go go na
[413.215]
<no-speech>
[415.095]
mipela nit long kisim sampela wara <int>
[417.035]
<no-speech>
[420.305]
<int> <hes> oke oke bai mi salim husat ya Joel na
[425.785]
<no-speech>
[426.935]
bubu (())
[428.625]
<no-speech>
[429.945]
Samson bai mi salim Noel na Samson kam
[432.595]
<no-speech>
[435.145]
<no-speech>
[435.565]
<no-speech>
[438.415]
ye em dispela rot ya tu i no gutpela rot
[441.495]
<no-speech>
[443.595]
dispela rot ya tu i no gutpela
[445.215]
<no-speech>
[446.795]
ye <sta>
[448.585]
<no-speech>
[451.215]
<hes> ye ye nogat kisim kep long faiv <no-speech> nogat kisim wanpela faiv kina kep em long
[459.675]
<no-speech>
[462.455]
<no-speech>
[463.205]
<no-speech>
[464.495]
ye em em (())
[466.235]
<no-speech>
[468.045]
<int> no mipela no dring (())
[470.815]
<no-speech>
[472.915]
em ol Goroka yet ol em ol Goroka yet ol dring ya mipela nogat
[477.295]
<no-speech>
[478.825]
<no-speech>
[480.275]
<no-speech>
[481.665]
<sta> a
[485.565]
<no-speech>
[488.815]
<sta> Helen em no (())
[493.145]
<no-speech>
[493.945]
nogat mi no harim yu klia
[497.085]
<no-speech>
[498.005]
<no-speech>
[498.375]
<no-speech>
[500.865]
<no-speech>
[502.605]
<no-speech>
[503.595]
ones yu mas kam yu nit ya <no-speech> yu nit yu mas kam <int>
[509.395]
<no-speech>
[512.245]
ones ol
[514.035]
<no-speech>
[515.555]
<sta> ones yu mas kam namel long kela bilong em stret ya yu tingim long em ya long het bilong em ya nogat gras bin gro long em long namel ya putim (())
[526.845]
<no-speech>
[534.345]
<no-speech>
[538.195]
ones
[538.865]
<no-speech>
[541.815]
<int> trutru <no-speech> yu mas (()) a <no-speech> yu tok
[551.475]
<no-speech>
[556.375]
ol Goroka yet mekim stail bilong ol long kuk ya na mipela tingting tu ya olsem ova ova ova kuk wan ya hat long hat long testim tu <int> hat long kaikai tu
[567.805]
<no-speech>
[570.705]
<sta> na em olsem olsem yu olsem gris nabaut ya yu bai pilim traut bilong em na yu tingim a wanpela kain
[582.085]
<no-speech>
[583.145]
<no-speech>
[583.955]
mi jes hat long wanem <sta>
[587.025]
<no-speech>
[588.165]
mi jes hat long wanem tok wanem diskraibim long Tok Pisin ol save tok wanem mi paul
[593.075]
<no-speech>
[593.995]
<no-speech>
[595.805]
<no-speech>
[597.065]
<sta> klostu mi
[599.995]
<no-speech>
[600.100]
