[0.000]
<no-speech>
[0.225]
<no-speech>
[0.605]
<no-speech>
[1.755]
<sta> yu tok <no-speech> mi harim yu stap
[13.655]
yu tok
[14.185]
<no-speech>
[15.235]
a <no-speech> ai laik it
[18.055]
<no-speech>
[20.825]
mipela stap long hausik <sta>
[23.995]
<no-speech>
[25.305]
Gerehu klinik
[26.375]
<no-speech>
[28.305]
<hes> Naiko sik Naiko Naiko sik <sta>
[33.965]
<no-speech>
[35.295]
<no-speech>
[35.705]
<no-speech>
[36.655]
ye reses ya mi no save reses em mi kam bek (()) <sta>
[47.985]
<sta> yu harim a <no-speech> mi tok i no fiva
[59.575]
<sta> nau ya <no-speech> nau tasol em kam <no-speech> so yu stap we
[71.205]
<sta> yu stap long we
[77.615]
<no-speech>
[80.205]
mi tok yu stap we yu
[82.025]
<no-speech>
[83.905]
<sta> Hayden yu stap we
[91.555]
<no-speech>
[92.405]
<sta> stap long we
[96.895]
<no-speech>
[97.935]
<no-speech>
[98.425]
<no-speech>
[99.695]
<no-speech>
[100.065]
<no-speech>
[101.095]
<no-speech>
[103.745]
<no-speech>
[105.155]
<sta> ye ye mipela stap long hap
[113.855]
<no-speech>
[115.205]
<sta> ye na mi tokim yu sekim na opim
[118.215]
<no-speech>
[120.155]
mi tokim yu sekim na opim yu sekim tu
[124.795]
<no-speech>
[125.845]
<no-speech>
[126.515]
<no-speech>
[130.985]
a <sta>
[134.185]
<no-speech>
[137.915]
<sta> a <no-speech> Stanley a
[143.955]
<no-speech>
[145.935]
<sta> yu stap long we
[148.445]
<no-speech>
[149.585]
<no-speech>
[151.025]
<no-speech>
[152.545]
<sta> mi tu trai ya spak liklik
[157.625]
<no-speech>
[159.775]
ye (())
[161.545]
<no-speech>
[164.555]
<no-speech>
[164.905]
<no-speech>
[166.595]
<sta> he yu kusai kilim yu <no-speech> yu go dai
[171.375]
<no-speech>
[172.785]
<sta> yu hambak ya <no-speech> mi tok yu hambak ya
[179.105]
<no-speech>
[179.955]
<int> yu <int>
[181.135]
<no-speech>
[183.425]
<no-speech>
[184.435]
<no-speech>
[186.355]
<no-speech>
[189.405]
<no-speech>
[190.325]
<no-speech>
[191.765]
<no-speech>
[192.595]
<no-speech>
[195.385]
<no-speech>
[196.285]
<no-speech>
[201.895]
<no-speech>
[204.855]
<sta> a oke mipela stap yet long hausik ya <no-speech> mipela stap yet long hausik
[216.275]
<no-speech>
[217.525]
<no-speech>
[218.015]
<no-speech>
[219.465]
<no-speech>
[219.875]
<no-speech>
[221.185]
<sta> husat
[223.785]
<no-speech>
[224.955]
nogat ya mi <no-speech> nogat mipela kalap long bas na kam <no-speech> papa em spak raun long kar i stap
[236.415]
<no-speech>
[238.405]
<no-speech>
[239.305]
<no-speech>
[240.675]
<no-speech>
[242.105]
<sta> Fraide o Wensde kaming Fraide o Wensde rilaks
[249.165]
<no-speech>
[252.875]
<no-speech>
[256.025]
<no-speech>
[257.825]
<sta> husat yu o <no-speech> yu bai go a <no-speech> aiya
[266.365]
<no-speech>
[267.545]
<sta> a
[274.865]
<no-speech>
[276.025]
<no-speech>
[283.825]
<no-speech>
[285.795]
a <no-speech> ye em go na mi lukautim dispela ya wantaim <sta>
[297.105]
<no-speech>
[298.045]
<no-speech>
[300.195]
<no-speech>
[302.965]
<no-speech>
[303.845]
bebi bilong Jane tu
[305.845]
<no-speech>
[307.485]
<no-speech>
[310.925]
<no-speech>
[312.015]
<sta> em stil eli
[320.345]
<no-speech>
[321.175]
a
[321.925]
<no-speech>
[322.765]
ye
[323.625]
<no-speech>
[324.705]
a
[326.395]
<no-speech>
[328.115]
<int> a
[329.395]
<no-speech>
[332.665]
<sta> ye
[333.665]
<no-speech>
[337.575]
<no-speech>
[338.815]
<no-speech>
[339.855]
<no-speech>
[347.195]
<no-speech>
[348.135]
<int> na yu mekim wanem <int>
[349.865]
<no-speech>
[351.485]
nau tasol ya foa o'klok mi foa o'klok <sta>
[356.365]
<no-speech>
[357.535]
<sta> a
[362.275]
<no-speech>
[363.795]
<sta> na mi tokim long raun kam ya yu no laik raun kam
[370.805]
<no-speech>
[371.915]
<no-speech>
[377.475]
<no-speech>
[379.165]
<sta> ol pikinini pulap ya
[388.565]
<no-speech>
[389.885]
<sta> hm tingim (()) bilong mipela
[394.865]
<no-speech>
[395.785]
<sta> hm
[401.855]
<no-speech>
[403.625]
ye <no-speech> hm <no-speech> a
[415.305]
<sta> tok wanem
[418.745]
<no-speech>
[420.165]
husat
[421.745]
<no-speech>
[423.375]
<sta> long
[424.495]
<no-speech>
[425.935]
komplen husat <int>
[428.365]
<no-speech>
[429.795]
a
[430.305]
<no-speech>
[432.375]
<no-speech>
[438.025]
<no-speech>
[439.595]
<sta> Lillian yu toktok long husat Lillian mekim wanem
[447.245]
<no-speech>
[448.195]
<no-speech>
[448.655]
<no-speech>
[449.595]
<sta> na Lillian mekim wanem
[461.505]
<sta> a
[464.945]
<no-speech>
[466.025]
<no-speech>
[469.395]
<no-speech>
[470.395]
a
[471.195]
<no-speech>
[474.535]
<no-speech>
[474.925]
<no-speech>
[476.085]
<no-speech>
[476.445]
<no-speech>
[478.275]
<no-speech>
[480.185]
<no-speech>
[481.065]
<no-speech>
[481.445]
<no-speech>
[482.255]
<no-speech>
[487.435]
<no-speech>
[489.225]
<no-speech>
[489.665]
<no-speech>
[492.825]
<no-speech>
[493.225]
<no-speech>
[494.025]
<no-speech>
[496.215]
<no-speech>
[497.285]
<no-speech>
[498.135]
<no-speech>
[499.475]
<no-speech>
[500.775]
<no-speech>
[501.665]
<sta> e <no-speech> meri ya mas longlong pinis ya <no-speech> na
[513.535]
ol save yu go we <no-speech> a
[517.045]
<no-speech>
[517.875]
ol save yu go we mi tok ol save yu go long wanem hap a <int>
[525.845]
<no-speech>
[526.885]
<sta> o yu tokim ol a
[529.435]
<no-speech>
[531.275]
<sta> a
[533.735]
<no-speech>
[534.775]
<no-speech>
[537.445]
<no-speech>
[538.935]
<no-speech>
[540.145]
<no-speech>
[543.015]
<no-speech>
[545.025]
<no-speech>
[546.605]
<no-speech>
[552.895]
<no-speech>
[553.755]
<no-speech>
[559.385]
<no-speech>
[560.845]
<sta> a
[564.655]
<no-speech>
[566.605]
<no-speech>
[569.615]
<no-speech>
[571.605]
<no-speech>
[572.455]
<no-speech>
[573.275]
<no-speech>
[575.945]
<no-speech>
[576.865]
<sta> na mi (())
[584.995]
<no-speech>
[585.985]
<no-speech>
[591.135]
<no-speech>
[593.005]
<sta> em mas paul meri ya
[599.365]
<no-speech>
[600.200]
