[0.000]
<no-speech>
[0.735]
<no-speech>
[1.985]
<no-speech>
[11.065]
<no-speech>
[11.975]
<sta> yes <no-speech> ye <no-speech> yu tok
[17.985]
<no-speech>
[19.865]
a
[21.295]
<no-speech>
[23.145]
<no-speech>
[23.815]
<no-speech>
[24.695]
<sta> Julie
[25.685]
<no-speech>
[26.615]
<no-speech>
[27.055]
<no-speech>
[29.955]
<no-speech>
[30.495]
<no-speech>
[32.065]
<no-speech>
[32.415]
<no-speech>
[33.835]
<int> Selvi <no-speech> mi no inap harim yu
[38.745]
<no-speech>
[39.665]
<sta> a <no-speech> ye yu yu tok gen <no-speech> ye
[47.475]
<no-speech>
[48.485]
yu tok wanem
[49.325]
<no-speech>
[50.945]
oke nau mi ken harim yu tok
[52.665]
<no-speech>
[59.015]
nogat win tasol strongpela win
[61.275]
<no-speech>
[62.765]
strongpela win
[63.865]
<no-speech>
[64.715]
o ye oke
[68.045]
<no-speech>
[69.985]
ye long hia tu kain olsem saiklon o mi no save
[75.835]
<no-speech>
[79.505]
ye em skul bat nau ol- ye em skul bat nau ol brek so em mas sindaun wantaim ol prens bilong em antap
[87.635]
<no-speech>
[89.575]
em skul
[90.345]
<no-speech>
[94.845]
<sta> husat kredit
[96.635]
<no-speech>
[97.815]
o
[98.645]
<no-speech>
[99.665]
<sta> no nogat nogat nogat nogat nogat <no-speech> ol go long ples
[106.485]
<no-speech>
[107.535]
<sta> ol go long ples ol gat dai long famili <no-speech> dai long famili
[115.635]
<no-speech>
[116.465]
<no-speech>
[116.815]
<no-speech>
[124.495]
<sta> em orait mi wok long mekim ol liklik sait wok nabaut
[128.355]
<no-speech>
[129.895]
ye
[130.415]
<no-speech>
[133.625]
<no-speech>
[133.975]
<no-speech>
[138.645]
a
[139.325]
<no-speech>
[140.845]
<sta> husat
[143.455]
<no-speech>
[145.205]
<sta> ye em go las wik Fraide na no- mi no save
[148.085]
<no-speech>
[149.275]
ye em go mi no save wanem taim bai em kam bek
[151.265]
<no-speech>
[152.745]
<no-speech>
[153.115]
<no-speech>
[156.135]
<no-speech>
[159.865]
<no-speech>
[161.505]
<no-speech>
[163.125]
<no-speech>
[164.055]
<no-speech>
[166.365]
<no-speech>
[170.205]
<no-speech>
[172.685]
<no-speech>
[174.375]
mipela stap tasol <sta> ye em tu stap
[178.485]
<no-speech>
[179.305]
<no-speech>
[179.675]
<no-speech>
[185.355]
<no-speech>
[187.335]
<no-speech>
[188.455]
<no-speech>
[190.975]
<no-speech>
[192.015]
<no-speech>
[192.625]
<no-speech>
[193.300]
