[0.000]
<no-speech>
[6.965]
<no-speech>
[7.395]
<no-speech>
[10.065]
halo
[10.745]
<no-speech>
[14.955]
halo Kay mi ya Priscilla <int>
[18.945]
<no-speech>
[21.235]
Kay
[21.845]
<no-speech>
[23.745]
<int> ye na yu ringim ples lain na harim sampela stori o
[31.025]
<no-speech>
[34.665]
<hes> long kanu res ya
[36.835]
<no-speech>
[41.385]
Kay yu harim mi gut o
[42.995]
<no-speech>
[44.755]
a
[45.375]
<no-speech>
[50.115]
wanem
[50.905]
<no-speech>
[52.285]
<no-speech>
[52.645]
<no-speech>
[54.385]
nogat
[56.355]
<no-speech>
[58.795]
mi mi tok long wanem ya kanu res ya long Balimo olsem wanem
[64.185]
<no-speech>
[66.365]
<no-speech>
[66.735]
<no-speech>
[70.795]
a
[71.375]
<no-speech>
[76.045]
ye
[76.645]
<no-speech>
[79.665]
na ol spots tu o
[81.435]
<no-speech>
[82.255]
<no-speech>
[82.945]
<no-speech>
[86.805]
yu tok
[87.535]
<no-speech>
[90.835]
nogat mi tok (())
[92.775]
<no-speech>
[94.125]
stori
[94.765]
<no-speech>
[97.785]
wanem kanu bilong wanem lain ol kam pas ya pas ya win ya yu tok
[104.785]
<no-speech>
[105.635]
(()) ya
[107.035]
<no-speech>
[108.885]
na yu no harim mi gut a
[111.105]
<no-speech>
[120.185]
wanem
[121.025]
<no-speech>
[124.565]
oke yu harim mi gut nau a
[126.565]
<no-speech>
[128.625]
nogat a
[129.525]
<no-speech>
[131.945]
na yu stap long wanem hap (()) oke ye oke yu stori
[136.805]
<no-speech>
[137.785]
yu tok mi askim yu long ples ya wantaim ol kanu res ya kanu i save ran ya <int> ol ring kam o wanem kanu em kam pa- wanem ya win ya
[149.315]
<no-speech>
[150.545]
kanu bilong wanem lain na wanem viles lain
[153.215]
<no-speech>
[158.105]
a na man bilong yu go we
[160.875]
<no-speech>
[163.645]
em go wok a
[164.775]
<no-speech>
[167.265]
aha
[168.185]
<no-speech>
[169.855]
a
[170.695]
<no-speech>
[173.715]
<int> nau yet yu stap long haus a
[175.865]
<no-speech>
[178.505]
(()) oke
[179.745]
<no-speech>
[180.915]
na no ken ringim narapela pren ya
[183.295]
<no-speech>
[187.115]
<no-speech>
[188.525]
<no-speech>
[189.475]
a na Samarai ring a
[191.985]
<no-speech>
[194.535]
a na husat yupela (()) na yupela kros ya <no-speech> stori long mi
[200.185]
<no-speech>
[205.215]
na yu tok
[206.275]
<no-speech>
[209.215]
em painim gut na man bilong yu kros a
[211.925]
<no-speech>
[217.965]
<no-speech>
[219.145]
<no-speech>
[225.475]
yu go pinis a
[226.685]
<no-speech>
[229.865]
<no-speech>
[230.465]
<no-speech>
[241.135]
yu tokim em a
[242.225]
<no-speech>
[245.125]
yu tok <sta>
[245.985]
<no-speech>
[254.755]
<sta> anti <no-speech> sista bilong yu anti bilong yu go na tokim mi <no-speech> ya so mi kam daun yu kam daun lukim mipela nogat em mipela slip pinis
[266.335]
ye <no-speech> mi kam singautim yu David wantaim
[270.275]
<no-speech>
[281.775]
<no-speech>
[282.535]
<no-speech>
[285.155]
na Kopsy Kopsy harim na em tok a mi em tambu bilong mi so mi go na halvim em em bai baim bia bilong mi em tok olsem <laugh>
[293.925]
<no-speech>
[297.755]
Kopsy ya sista bilong yu
[299.795]
<no-speech>
[309.935]
<no-speech>
[310.835]
<no-speech>
[315.535]
ye em bai paitim yu ya (())
[318.905]
<no-speech>
[320.745]
na nau tasol yu go aut a
[322.495]
<no-speech>
[323.535]
ye mi stap long haus
[324.695]
<no-speech>
[330.265]
mi ting olsem yu go long wanpela hap ya
[332.775]
<no-speech>
[333.845]
na wanem taim bai yu go wok ya
[335.755]
<no-speech>
[337.625]
a
[338.125]
<no-speech>
[343.315]
<no-speech>
[344.165]
<no-speech>
[346.495]
nogat em (()) bilong mi rili lo olsem na mi tokim yu
[349.925]
<no-speech>
[354.505]
(()) bilong yu tu a
[356.025]
<no-speech>
[358.815]
em ring na askim askim long yu stap
[362.335]
<no-speech>
[364.425]
em long nait ya apinun nabaut ya na mi tokim em o asde em kam long taun na tokim mi olsem yu teksim em long kam long wok
[374.115]
<no-speech>
[375.405]
bai mi go na toksave
[377.355]
<no-speech>
[379.935]
mi tokim em
[381.125]
<no-speech>
[385.785]
<no-speech>
[386.725]
<no-speech>
[390.535]
mi <lipsmack> mi tokim Maisy olsem kam hia
[393.855]
<no-speech>
[395.595]
hm
[396.225]
<no-speech>
[398.345]
mi tokim Maisy olsem em no
[400.825]
<no-speech>
[404.835]
yu tok wanem
[405.795]
<no-speech>
[408.095]
yu tok wanem mi tok
[409.365]
<no-speech>
[411.125]
hm nogat mi tokim Naia olsem tokim K_T em sit ya
[415.715]
<no-speech>
[417.665]
nogut em bai kam na mekim (()) mi tokim em olsem
[420.605]
<no-speech>
[425.725]
em tokim mi em askim mi long go bek long wok na mi tok nogat ya
[430.125]
<no-speech>
[431.375]
em lukim risain wanem bilong mi
[433.455]
<no-speech>
[438.075]
mi pilim risain fom ya
[439.795]
<no-speech>
[443.235]
tumora bai yu go <no-speech> olsem bai yu teksim em apinun
[447.175]
<no-speech>
[448.255]
(())
[449.255]
<no-speech>
[454.805]
hm oke
[456.075]
<no-speech>
[460.495]
wok <foreign>
[462.415]
<no-speech>
[465.115]
mi <no-speech>
[469.135]
oke
[470.185]
<no-speech>
[472.745]
em orait
[473.735]
<no-speech>
[477.695]
hm
[478.605]
<no-speech>
[484.885]
oke Kay o
[486.405]
<no-speech>
[488.155]
bai yu go antap na spai David tu long haus ya
[492.095]
<no-speech>
[495.695]
ye mi lusim em wantaim Cassie na kam
[498.805]
<no-speech>
[503.285]
em krai na mi giamanim em em ya Naia Kay bai kam na lukim yu
[507.955]
<no-speech>
[511.235]
em go antap na las wan ya (())
[514.255]
<no-speech>
[515.655]
a
[516.175]
<no-speech>
[516.975]
yu baim liklik plaua na karim go antap na givim em
[520.995]
<no-speech>
[525.235]
hm
[526.105]
<no-speech>
[536.135]
<no-speech>
[536.955]
<no-speech>
[537.825]
na man ya go we
[539.355]
<no-speech>
[544.995]
em ya Ben ya
[546.355]
<no-speech>
[552.395]
em go long we
[553.785]
<no-speech>
[555.685]
na bai yupela go long Sogeri wanem taim yupela bai kam
[558.755]
<no-speech>
[563.985]
mi tok yu tok <int> wanem ya
[565.765]
<no-speech>
[566.755]
bai yupela go long Sogeri long wanem taim
[569.145]
<no-speech>
[575.585]
a
[576.085]
<no-speech>
[577.805]
Sande oke o Tesde Tesde
[581.375]
<no-speech>
[583.905]
em wan de spin o yupela bai slip long hap
[586.895]
<no-speech>
[589.565]
<no-speech>
[589.975]
<no-speech>
[592.425]
a
[593.195]
<no-speech>
[599.005]
oke
[600.020]
