[0.000]
<no-speech>
[1.345]
<no-speech>
[2.125]
<no-speech>
[10.265]
halo mi harim yu
[14.595]
<no-speech>
[16.255]
<no-speech>
[16.685]
<no-speech>
[18.315]
<sta> na hariap bai mitupela go ya yu bai toktok
[22.665]
<no-speech>
[23.535]
<no-speech>
[24.175]
<no-speech>
[26.625]
<no-speech>
[26.975]
<no-speech>
[28.005]
<sta> mi sanap long toilet olsem wanpela longlong man na mi lukluk long mira na toktok stap
[38.075]
<no-speech>
[41.545]
<sta> no ken lap
[44.135]
<no-speech>
[49.795]
plis a mi no save
[54.515]
<no-speech>
[57.665]
olsem wanem yu tok
[59.245]
<no-speech>
[60.075]
<no-speech>
[61.235]
<no-speech>
[63.995]
<sta> mi no harim yu
[65.875]
<no-speech>
[68.725]
bara mi toktok insait long hia mi toktok bikpela stret na eko bilong mi ya
[72.885]
<no-speech>
[74.025]
<no-speech>
[74.395]
<no-speech>
[75.845]
bikpela stret na mi no save olsem mi
[77.805]
<no-speech>
[78.945]
ami <int>
[79.955]
<no-speech>
[84.645]
<sta> oke hamas tok taim mi toktok no ken <no-speech> <hes> putim wanpela Inglis insait harim
[92.465]
<no-speech>
[94.045]
toktok no ken putim wanpela Inglis insait mi Tok Pisin orijinel Pisin
[98.295]
<no-speech>
[101.105]
<no-speech>
[102.335]
<no-speech>
[103.245]
<no-speech>
[105.335]
<no-speech>
[108.505]
<sta> wanem taim bai yumi go long hausik yumi go o nogat
[112.155]
<no-speech>
[120.025]
a na hau bai yu go long wok tumora (())
[123.455]
<no-speech>
[124.455]
a
[125.235]
<no-speech>
[127.055]
Richard Richard em go long apinun
[129.135]
<no-speech>
[135.165]
<no-speech>
[136.105]
<no-speech>
[138.285]
wanem apinun a
[139.715]
<no-speech>
[142.125]
a
[142.875]
<no-speech>
[144.585]
a
[145.655]
<no-speech>
[150.505]
Gerehu
[152.065]
<no-speech>
[157.315]
<sta> brata mi hangre nau
[160.035]
<no-speech>
[165.085]
tupela lain long haus ya em tupela mas wokim bikpela wok nau
[168.225]
<no-speech>
[170.895]
ol no pik ap em nau bai yumi go bek kisim ol harim
[173.555]
<no-speech>
[175.415]
<no-speech>
[175.955]
<no-speech>
[178.275]
a
[179.345]
<no-speech>
[185.185]
<no-speech>
[187.265]
<no-speech>
[192.675]
em ten minits pinis
[194.285]
<no-speech>
[199.475]
<sta> longpela taim stret ya
[201.255]
<no-speech>
[206.415]
yu toktok
[207.585]
<no-speech>
[208.525]
a
[209.805]
<no-speech>
[215.655]
<sta> ye ye ye ol tok long mi go <no-speech> sapos em i kisim dispela
[222.425]
<no-speech>
[224.315]
<hes> kat bilong em ya ol Air Niugini bai wokim
[227.495]
<no-speech>
[229.305]
he man mi toktok yet stap na yu go toktok gen
[231.895]
<no-speech>
[238.525]
ye bai mi kam bek
[240.225]
<no-speech>
[246.885]
<sta> no mi jes tok ta- e
[250.175]
<no-speech>
[252.205]
mi tok tasol
[253.665]
<no-speech>
[259.825]
man yumi stap long haus na yumi toktok na yumi wokabaut kam olsem a
[263.735]
<no-speech>
[268.945]
wi no ken fosim mi long toktok yu jes toktok yu
[271.555]
<no-speech>
[274.145]
<sta> husat
[279.815]
<no-speech>
[281.575]
husat
[283.625]
<no-speech>
[284.695]
John
[285.435]
<no-speech>
[286.555]
<sta> yu go we nau
[287.925]
<no-speech>
[288.785]
em mekim wanem i tok wanem
[290.175]
<no-speech>
[292.345]
mas haijak stap o
[294.025]
<no-speech>
[294.845]
a
[295.515]
<no-speech>
[299.935]
<no-speech>
[301.685]
<no-speech>
[303.385]
mi no save yu tokim long mekim wanem
[305.655]
<no-speech>
[307.115]
<no-speech>
[309.685]
<no-speech>
[311.615]
ol man pairap long dua ya mi no save wanem kain d- <int>
[315.965]
<no-speech>
[317.685]
<sta> a
[329.585]
<no-speech>
[331.895]
<sta> bara mi stap long toilet ya
[335.085]
<no-speech>
[336.475]
<no-speech>
[340.175]
<no-speech>
[342.795]
<sta> na wanem gen
[345.435]
<no-speech>
[347.485]
i no wanem gen wanem ken
[349.145]
<no-speech>
[355.095]
hai man wanem taim mi go long Vision City <int>
[358.335]
<no-speech>
[362.705]
<no-speech>
[363.125]
<no-speech>
[365.525]
oke no ken fosim mi long giaman yu tumas giaman tu
[369.005]
<no-speech>
[370.685]
ye mipela go long Vision City
[372.335]
<no-speech>
[374.125]
a
[375.125]
<no-speech>
[376.265]
<no-speech>
[377.925]
<no-speech>
[379.175]
mipela wok long we a
[381.855]
<no-speech>
[387.585]
<sta> em wanem
[388.935]
<no-speech>
[391.125]
nogat man ya ye senisim senisim
[393.105]
<no-speech>
[394.365]
senisim dispela topik ya gutpela long ol narapela samting mi save les long toktok long Vision City ya
[398.825]
<no-speech>
[404.225]
<no-speech>
[404.585]
<no-speech>
[406.455]
oke yu tok tok <int>
[409.815]
<no-speech>
[412.945]
traim giaman mi hat long giaman ya oke yu traim giaman
[417.145]
<no-speech>
[421.785]
yu laik endim kol <laugh>
[424.145]
<no-speech>
[431.655]
oke yu tok nau
[433.205]
<no-speech>
[435.285]
yu tok hariap a
[438.045]
<no-speech>
[441.655]
yu mekim wanem stap yu mekim wanem
[444.095]
<no-speech>
[445.895]
a
[447.185]
<no-speech>
[450.425]
<sta> a
[452.065]
<no-speech>
[453.795]
<sta> no ken mis
[455.655]
<no-speech>
[457.815]
a
[459.385]
<no-speech>
[465.775]
<sta> sapos yumi go bek
[468.355]
<no-speech>
[470.905]
no ken toksave long em harim
[472.905]
<no-speech>
[474.355]
bai yumi go kirap nogut wan tasol bai yumi go harim a na bai yumi go lukim ol dispela lapun man ya em stap long haus
[482.005]
<no-speech>
[483.005]
<sta> a
[485.595]
<no-speech>
[487.495]
a
[488.385]
<no-speech>
[490.325]
<no-speech>
[491.545]
<no-speech>
[493.575]
mi tok
[494.635]
<no-speech>
[499.095]
<no-speech>
[500.835]
<no-speech>
[503.655]
<sta> em tok wanem
[508.575]
<no-speech>
[513.345]
(())
[518.055]
<no-speech>
[518.875]
<sta> yu tok em teksim yu
[520.375]
<no-speech>
[523.145]
<no-speech>
[527.415]
<no-speech>
[528.505]
<sta> a <no-speech> oke <int>
[539.375]
<sta> a
[543.075]
<no-speech>
[544.505]
<no-speech>
[544.855]
<no-speech>
[546.645]
<no-speech>
[547.215]
<no-speech>
[549.625]
<cough> ye
[551.045]
<no-speech>
[559.045]
<sta> oke wanem gen <laugh>
[561.345]
<no-speech>
[562.725]
<no-speech>
[563.075]
<no-speech>
[572.885]
<no-speech>
[574.105]
<no-speech>
[575.475]
Janueri
[577.895]
<no-speech>
[581.935]
<no-speech>
[582.295]
<no-speech>
[584.805]
<sta> no mi laik kam bek ken long Janueri
[588.315]
<no-speech>
[590.535]
<sta> bat ol bai putim mi stap go Febueri na bai mi kam bek gen a
[594.565]
<no-speech>
[598.785]
<no-speech>
[599.945]
<no-speech>
[600.120]
