[0.000]
<no-speech>
[0.375]
<int> nogat em orait mi laik tok a em i orait mi amamas long dispela lain ye <lipsmack> tenkyu
[10.615]
<no-speech>
[12.495]
yes yes
[14.455]
<no-speech>
[15.765]
yu tok
[16.425]
<no-speech>
[18.895]
oke yu tok ankol
[20.375]
<no-speech>
[26.985]
a a
[28.805]
<no-speech>
[31.125]
yes mi harim yu
[32.615]
<no-speech>
[39.505]
<int> aha
[41.215]
<no-speech>
[42.135]
<no-speech>
[42.815]
<no-speech>
[47.775]
<no-speech>
[49.315]
<no-speech>
[50.575]
<sta> oke
[53.105]
<no-speech>
[58.665]
yes em ya Daniel ya em wok long yusim <no-speech> a <sta>
[64.795]
<no-speech>
[65.915]
aha
[66.725]
<no-speech>
[68.525]
<sta> Dale na <hes> Rolands a ol i save pam long em na mipela olgeta
[77.795]
<no-speech>
[79.165]
na mipela tu ol bikman na meri hm mipela save yusim na Daniel
[86.105]
<no-speech>
[87.135]
Daniel ya i laik harim yu bai yu toktok long em
[90.395]
<no-speech>
[91.685]
em i laik na em i kam ap- em pulim fon <no-speech> oke oke orait <no-speech> oke mi save ye mi harim
[100.505]
<no-speech>
[102.885]
yu tok
[103.585]
<no-speech>
[107.195]
<no-speech>
[107.555]
<no-speech>
[111.675]
gut
[112.255]
<no-speech>
[113.535]
aha
[114.255]
<no-speech>
[116.255]
<no-speech>
[116.975]
<no-speech>
[118.525]
<sta> a
[119.395]
<no-speech>
[123.205]
<sta> a yes a
[127.625]
<no-speech>
[129.025]
<no-speech>
[129.995]
<no-speech>
[135.895]
<no-speech>
[137.225]
<no-speech>
[148.745]
<no-speech>
[149.535]
<no-speech>
[150.335]
yes a
[152.115]
<no-speech>
[153.265]
ye mi harim
[154.565]
<no-speech>
[155.415]
a
[156.075]
<no-speech>
[156.895]
<no-speech>
[157.605]
<no-speech>
[159.815]
<sta> a yu tok
[163.345]
<no-speech>
[166.475]
<sta> haus <hes> kapa ya i wok long renim mipela na yu painim wok na yu wok na salim sampela mani kam yu na Glen na Benny
[178.405]
yutripela salim nau kapa <no-speech> nau bai mi <no-speech> rausim ol dispela a kapa ya <hes> dispela brukbruk kapa na putim sampela niupela kapa i go antap
[189.755]
na yumi no ken rausim haus haus i orait bat yumi rausim dispela ol kapa pastaim
[196.375]
<no-speech>
[197.355]
a
[197.925]
<no-speech>
[198.935]
na ol mami laik
[200.785]
<no-speech>
[202.175]
yes
[202.685]
<no-speech>
[204.035]
yu tok yu tok
[205.495]
<no-speech>
[211.935]
<no-speech>
[212.315]
<no-speech>
[219.895]
<no-speech>
[227.475]
a
[228.275]
<no-speech>
[229.505]
<no-speech>
[229.855]
<no-speech>
[233.265]
<no-speech>
[233.645]
<no-speech>
[242.855]
a yes
[244.945]
<no-speech>
[249.595]
a
[251.485]
<no-speech>
[253.925]
<no-speech>
[255.375]
<no-speech>
[260.575]
<no-speech>
[261.155]
<no-speech>
[263.675]
a
[264.385]
<no-speech>
[266.135]
Valigi
[266.875]
<no-speech>
[269.645]
oke
[270.475]
<no-speech>
[276.935]
oke
[277.755]
<no-speech>
[280.965]
oke
[281.695]
<no-speech>
[290.795]
oke
[291.545]
<no-speech>
[303.035]
oke
[303.815]
<no-speech>
[307.435]
oke
[308.275]
<no-speech>
[310.555]
hm
[311.255]
<no-speech>
[317.795]
hm
[318.445]
<no-speech>
[325.835]
<no-speech>
[326.185]
<no-speech>
[330.635]
em karim
[331.615]
<no-speech>
[332.895]
na em karim wanpela matmat i go pinis nau las nait
[336.125]
<no-speech>
[337.575]
long moning
[338.425]
<no-speech>
[339.825]
hm na i go pinis
[341.345]
<no-speech>
[345.185]
<sta> mm em save go em save go kam go kam
[348.085]
<no-speech>
[354.555]
<no-speech>
[361.025]
hm
[361.765]
<no-speech>
[365.545]
<sta> hm ye
[369.505]
<no-speech>
[372.795]
<click> <dtmf> <laugh> a ol save siftim ol kam na ol kam salim na ol go bek na raba na
[384.725]
<no-speech>
[385.045]
<no-speech>
[385.905]
na dispela kain
[386.955]
<no-speech>
[388.185]
<sta> a
[393.735]
<no-speech>
[395.225]
<no-speech>
[395.675]
<no-speech>
[399.885]
<no-speech>
[400.235]
<no-speech>
[402.115]
<no-speech>
[402.835]
<no-speech>
[407.955]
<no-speech>
[409.425]
<no-speech>
[413.475]
<no-speech>
[413.935]
<no-speech>
[416.255]
<no-speech>
[416.915]
<no-speech>
[421.505]
<no-speech>
[422.095]
<no-speech>
[428.545]
<no-speech>
[428.905]
<no-speech>
[430.585]
<no-speech>
[430.975]
<no-speech>
[432.685]
na yumi em kaukau bilong yumi bus pinis e husat bai husat bai wok klinim
[437.735]
<no-speech>
[438.935]
(())
[439.675]
<no-speech>
[440.985]
lain kaukau bilong yumi bus <no-speech> yumi no save husat mi no save husat long yupela bai wok klinim
[447.055]
<no-speech>
[448.075]
<int> bikos yu stap long Moresby na
[450.725]
<no-speech>
[451.845]
olsem <click> <no-speech> mi laik bai yupela i mas go klinim
[455.975]
<no-speech>
[460.675]
mi tok
[461.435]
<no-speech>
[470.100]
<no-speech>
[478.765]
<no-speech>
[482.185]
<no-speech>
[486.975]
<no-speech>
[488.885]
<no-speech>
[489.875]
<no-speech>
[490.465]
<no-speech>
[495.385]
<no-speech>
[495.995]
<no-speech>
[496.865]
<no-speech>
[497.235]
<no-speech>
[499.225]
<no-speech>
[499.625]
<no-speech>
[500.785]
a bat yumi em
[503.145]
<no-speech>
[507.155]
<no-speech>
[508.675]
<no-speech>
[510.375]
<no-speech>
[511.545]
<no-speech>
[512.465]
<no-speech>
[513.025]
<no-speech>
[517.315]
<sta> i
[518.755]
<no-speech>
[521.165]
<no-speech>
[521.575]
<no-speech>
[524.585]
<sta> a
[526.165]
<no-speech>
[527.255]
em nau olgeta samting i orait pinis na man tasol na bai wokim neseri na planim kaukau na klinim kaukau yumi em <int>
[538.415]
kaukau bilong yu i bus pinis
[541.075]
<no-speech>
[542.015]
na yumi no save husat bai go klinim nau ol i tok mi mas go nau <no-speech> yu lain na yumi mas go na klinim nau
[549.705]
<no-speech>
[550.655]
haus i bus <int> sapos i gat sampela mani long Glen <no-speech> hm
[558.275]
<no-speech>
[559.555]
yu tok sapos i gat sampela mani long yutupel-
[562.755]
<no-speech>
[564.735]
<sta> bai mi Tok Pisin tasol hm sapos i gat sampela mani yupela i holim bai yupela salim i kam na bai mi arenjim ol wok man na
[576.645]
sampela wok man na bai ol i katim bus long hap
[580.535]
<no-speech>
[582.765]
sampela i kisim long kaukau bilong yumi
[585.135]
<no-speech>
[587.785]
so em nau mipela i no ken sindaun na tok
[591.405]
<no-speech>
[593.065]
tok wok tasol na
[594.845]
<no-speech>
[595.695]
<int> i spenim mani long yupela yet tingim ol tu
[599.585]
(())
[600.080]
