[0.000]
<no-speech>
[5.905]
<no-speech>
[6.315]
<no-speech>
[7.325]
halo halo
[8.085]
<no-speech>
[9.035]
halo
[9.605]
<no-speech>
[11.535]
(())
[12.085]
<no-speech>
[14.315]
a <no-speech> oke <no-speech> aha
[19.885]
<no-speech>
[22.675]
ye mi (())
[24.485]
<no-speech>
[27.075]
(())
[27.955]
<no-speech>
[29.925]
yes
[31.265]
<no-speech>
[32.415]
<sta> a ol famili em ol orait ye
[36.115]
<no-speech>
[39.395]
ye olgeta ol famili ol stap orait stap
[41.675]
<no-speech>
[42.715]
ye
[43.195]
<sta> (()) <int>
[45.885]
a em stap
[46.955]
<no-speech>
[48.255]
<sta> em stap wantaim mi nau
[49.785]
<no-speech>
[51.135]
yes
[52.665]
<no-speech>
[53.865]
ye
[54.455]
<no-speech>
[59.265]
mipela stap orait
[60.335]
<no-speech>
[62.965]
<sta> yes yes
[63.975]
<no-speech>
[66.825]
<hes> nogat
[67.745]
<no-speech>
[69.295]
<sta> nogat
[70.225]
<no-speech>
[71.335]
<sta> nogat nogat
[72.395]
<no-speech>
[73.985]
yes
[74.525]
<no-speech>
[79.105]
<no-speech>
[79.945]
<no-speech>
[80.905]
aha
[81.615]
<no-speech>
[90.685]
yes
[91.305]
<no-speech>
[92.725]
<no-speech>
[94.105]
<no-speech>
[96.285]
<no-speech>
[96.735]
<no-speech>
[98.345]
(())
[98.775]
<no-speech>
[100.515]
em olgeta lain i mas stap orait
[102.565]
<no-speech>
[103.695]
<no-speech>
[104.525]
<no-speech>
[107.805]
husat ya
[108.645]
<no-speech>
[111.495]
yes
[112.325]
<no-speech>
[114.025]
<sta> yes yes
[115.305]
<no-speech>
[116.215]
<no-speech>
[116.645]
<no-speech>
[117.545]
<sta> em (())
[119.465]
<no-speech>
[121.115]
<no-speech>
[122.385]
<no-speech>
[123.465]
yes
[124.085]
<no-speech>
[127.915]
<sta> <hes> <int>
[130.435]
<no-speech>
[131.285]
<no-speech>
[133.515]
<no-speech>
[134.485]
<no-speech>
[134.925]
<no-speech>
[137.855]
a em stap wantaim mi nau <no-speech> ye <int>
[146.405]
<no-speech>
[149.465]
<hes> ol stap long ol yet <int>
[152.195]
<no-speech>
[153.475]
<no-speech>
[154.805]
<no-speech>
[156.095]
<no-speech>
[158.075]
<no-speech>
[158.975]
<sta> <hes> <int>
[160.775]
<no-speech>
[161.635]
<no-speech>
[163.225]
<no-speech>
[164.435]
yes
[165.265]
<no-speech>
[170.955]
ye mi <no-speech> mi yet mi (())
[174.145]
<no-speech>
[176.235]
em ol stap long Wagi <int>
[178.365]
<no-speech>
[179.905]
ye ol stap orait ol stap long Wagi yet
[183.245]
<no-speech>
[190.905]
<no-speech>
[192.165]
<no-speech>
[193.155]
<sta> a
[194.805]
<no-speech>
[196.055]
<sta> em olgeta ol stap orait
[197.695]
<no-speech>
[198.655]
<no-speech>
[199.235]
<no-speech>
[200.265]
<no-speech>
[200.655]
<no-speech>
[202.955]
plis stori mi tok stori kol kam long Wagi
[206.015]
<no-speech>
[207.995]
<no-speech>
[208.375]
<no-speech>
[209.235]
a
[209.825]
<no-speech>
[211.715]
<no-speech>
[212.075]
<no-speech>
[214.245]
<no-speech>
[214.595]
<no-speech>
[216.065]
<no-speech>
[217.295]
<no-speech>
[219.195]
<hes>
[219.865]
<no-speech>
[220.665]
<sta> (()) yes <int>
[223.555]
<no-speech>
[224.935]
<sta> a
[230.015]
<no-speech>
[235.735]
<hes> em <hes> las wik Satade nabaut mipela go daun long Manu
[240.855]
<no-speech>
[242.045]
na mipela <no-speech> <int> go pilai <no-speech> aiye mipela go pilai na
[250.115]
<no-speech>
[251.385]
<sta> C em dro wantaim B ol lain daunbilo D na E ol pilai go namel stret bilong em ya kirap pait nabaut na mipela stapim gem
[263.135]
<sta> mipela (()) na mipela i go long (()) bung wantaim na go antap long haus lain bilong ol na <no-speech> ol i kilim wanpela (()) <no-speech> na wanpela pik na mipela
[274.885]
<sta> skelim (()) pinis nau mipela slip na moning taim mipela kam bek ken
[279.975]
<no-speech>
[284.645]
<no-speech>
[285.135]
<no-speech>
[291.635]
a
[292.165]
<no-speech>
[294.675]
wanem
[295.285]
<no-speech>
[296.175]
<no-speech>
[297.535]
<no-speech>
[301.425]
<no-speech>
[302.165]
<no-speech>
[304.965]
<no-speech>
[307.075]
<no-speech>
[308.155]
<sta> (())
[310.855]
<no-speech>
[312.805]
toktok yu toktok ya mi no kisim gut ya
[314.595]
<no-speech>
[315.445]
<no-speech>
[315.815]
<sta> (()) <int>
[320.165]
(())
[320.805]
<no-speech>
[329.035]
<hes> em mipela i pilai go na i brek <hes> em foa dro
[334.715]
<no-speech>
[336.165]
na B gret ol <no-speech> ol i gat foa nil
[342.285]
<no-speech>
[343.505]
na A gret kam
[345.295]
<no-speech>
[346.425]
foa long mipela na sikis long hap na namel long dispela em ol
[350.105]
<no-speech>
[351.715]
pait ya kirap pait na mipela stapim gem bek <int>
[354.815]
<no-speech>
[357.015]
<no-speech>
[357.365]
<no-speech>
[363.245]
<sta> a
[365.015]
<no-speech>
[366.465]
<no-speech>
[366.825]
<no-speech>
[370.035]
<hes> B gret em ol i win <sta>
[372.295]
<no-speech>
[375.595]
olsem wanem ya
[376.395]
<sta> (()) <int>
[381.025]
foa nil foa nil
[382.145]
<no-speech>
[385.685]
yes
[386.215]
<no-speech>
[390.895]
<no-speech>
[391.485]
<no-speech>
[394.755]
<no-speech>
[395.205]
<no-speech>
[396.305]
<no-speech>
[396.945]
<no-speech>
[402.495]
<sta> em <hes> teti olmos foti nabaut
[406.955]
<no-speech>
[412.695]
yes
[413.565]
<no-speech>
[414.595]
<no-speech>
[414.965]
<no-speech>
[418.125]
em i mipela yet
[419.845]
<no-speech>
[420.905]
<no-speech>
[421.265]
<no-speech>
[426.645]
<no-speech>
[426.995]
<no-speech>
[430.605]
<no-speech>
[431.015]
<no-speech>
[433.325]
<no-speech>
[434.215]
<no-speech>
[436.365]
a
[437.675]
<no-speech>
[443.635]
<hes> em long (()) sampela hap tu
[446.055]
<no-speech>
[449.755]
ye planti hap
[450.655]
<no-speech>
[459.055]
<sta> yes (())
[460.365]
<no-speech>
[462.675]
<sta> Yawai tu go olsem long (()) sait <no-speech> go daun long (()) sait tu
[467.665]
<no-speech>
[471.395]
em mipela save go
[472.485]
<no-speech>
[481.515]
em em strongpela tim ya
[483.055]
<no-speech>
[484.595]
yes ya no pilai ap
[485.835]
<no-speech>
[486.865]
<no-speech>
[487.225]
<no-speech>
[492.695]
<no-speech>
[494.895]
<no-speech>
[495.725]
<no-speech>
[496.115]
<no-speech>
[498.605]
<sta> a
[499.535]
<no-speech>
[501.995]
ye
[502.755]
<no-speech>
[506.605]
<no-speech>
[506.965]
<no-speech>
[508.705]
<no-speech>
[509.455]
<no-speech>
[512.585]
aha
[513.285]
<no-speech>
[524.925]
<no-speech>
[525.725]
<no-speech>
[527.545]
<no-speech>
[528.075]
<no-speech>
[529.305]
<no-speech>
[529.695]
<no-speech>
[533.145]
hamas bai yu tok ye
[534.235]
<no-speech>
[542.025]
(())
[542.555]
<no-speech>
[545.665]
ye
[546.265]
<no-speech>
[548.585]
aha
[549.235]
<no-speech>
[556.325]
<no-speech>
[556.715]
<no-speech>
[557.585]
aha
[558.135]
<no-speech>
[564.035]
<no-speech>
[564.945]
wanem ya <int>
[571.135]
oke
[571.965]
<no-speech>
[580.365]
<sta> aha
[581.035]
<no-speech>
[586.455]
aha
[587.115]
<no-speech>
[592.795]
<hes>
[593.815]
<no-speech>
[597.995]
<no-speech>
[598.205]
<int> <hes> (()) ~
[600.080]
