[0.000]
<no-speech>
[1.585]
<no-speech>
[2.075]
<int> halo
[5.755]
halo Mary
[7.425]
<no-speech>
[12.085]
nois yu sekim wanem i skin dai na mi ring ya
[16.425]
<no-speech>
[18.495]
<no-speech>
[19.015]
<no-speech>
[24.235]
<no-speech>
[24.765]
<no-speech>
[29.005]
o tarangu papa bilong em olsem wanem
[31.645]
<no-speech>
[33.695]
em i stap long haus tasol
[35.365]
<no-speech>
[44.375]
<no-speech>
[45.785]
<no-speech>
[47.655]
<laugh> o tarangu na husat ya <int>
[55.375]
<no-speech>
[56.385]
<no-speech>
[56.765]
yu harim
[58.145]
em tasol ya
[59.475]
<no-speech>
[61.325]
em sindaun wantaim yupela <no-speech>
[65.045]
<int> (())
[66.225]
<int> (())
[67.745]
narapela Palopa ya sindaun wantaim mipela i stap stori stori i go
[72.395]
<no-speech>
[76.565]
<int> (())
[77.435]
<no-speech>
[80.515]
<laugh> (()) tarangu Palopa skwot bilong mipela tu em save wok long hap tarangu em i dai
[87.935]
<no-speech>
[94.555]
<no-speech>
[95.475]
<no-speech>
[101.750]
<no-speech>
[108.025]
<int> pin
[109.565]
<no-speech>
[110.915]
<no-speech>
[111.375]
<no-speech>
[112.845]
a
[113.405]
<no-speech>
[114.805]
ye
[115.315]
<no-speech>
[116.225]
Yasaten <no-speech>
[121.225]
Kuman
[122.195]
<no-speech>
[123.845]
sori
[125.195]
<no-speech>
[127.165]
o (()) Tanisila mi harim ol pinis em i go skul long wanem ya long sampela haiskul
[135.705]
<no-speech>
[139.385]
<no-speech>
[139.795]
<no-speech>
[142.465]
<no-speech>
[142.865]
<no-speech>
[146.205]
<laugh> o tarangu ol em i no kisim wanpela stesen na em i go sikiuriti ya <int>
[156.365]
<no-speech>
[157.855]
<no-speech>
[160.245]
<no-speech>
[161.365]
<int> aiyo sori madi em
[166.845]
<int> (())
[175.015]
<no-speech>
[175.775]
<no-speech>
[176.615]
<laugh> o em save bodigat long ol a praivet bodigat
[181.475]
<no-speech>
[184.885]
<no-speech>
[185.915]
<no-speech>
[187.165]
<laugh> aiyo plis
[191.435]
<no-speech>
[194.945]
<no-speech>
[195.305]
<no-speech>
[198.915]
<laugh> o oke em i gat gutpela ekspiriens long dispela tarangu
[203.465]
<no-speech>
[207.725]
<laugh> em ya ya husat ya
[214.675]
<no-speech>
[215.865]
a
[216.885]
<no-speech>
[218.955]
<no-speech>
[219.425]
<no-speech>
[224.665]
<cough> o tarangu
[226.975]
<no-speech>
[227.795]
em gutpela
[229.355]
<no-speech>
[234.385]
<no-speech>
[235.265]
<no-speech>
[238.275]
<no-speech>
[239.595]
<no-speech>
[246.505]
ye ye
[247.295]
<int> (()) <cough>
[255.335]
o madi
[257.315]
<no-speech>
[263.855]
husat
[264.825]
<no-speech>
[269.965]
<int> mami longlong mi ye <no-speech>
[274.155]
<no-speech>
[274.545]
<int> Lelek wok <int> <lipsmack>
[279.465]
o husat ya Jacinta
[283.475]
<no-speech>
[288.875]
<no-speech>
[290.875]
<no-speech>
[291.695]
<laugh> a Austian Austian bin i go long wanem ya New Zealand ya
[302.855]
<no-speech>
[303.885]
<no-speech>
[308.285]
o tarangu
[309.815]
<no-speech>
[319.435]
ye
[320.635]
<no-speech>
[323.305]
<int> yes ya em kamap na yupela i stap klostu ya yupela lukim tu a
[328.925]
<no-speech>
[333.435]
a sori <no-speech>
[337.255]
o tarangu na mipela i laik kam raun long dispela <no-speech>
[342.855]
mista wanem ya
[344.585]
<no-speech>
[346.895]
<no-speech>
[347.365]
<no-speech>
[349.505]
<int> Moresby em ren
[351.575]
<no-speech>
[353.525]
mi save laik kam raun long hap Moresby P_N_G boring so
[357.685]
<no-speech>
[366.720]
<no-speech>
[375.755]
o tarangu na <no-speech>
[380.345]
na sem skon a
[382.115]
<no-speech>
[383.595]
France orait o em kol o em ais o wanem
[387.635]
<no-speech>
[394.515]
<sta> hm em mas wanpela kain paul weda nau ya plis (())
[403.405]
<no-speech>
[406.045]
<laugh> narapela sista ya Waka ya Waka
[413.575]
<no-speech>
[415.395]
<no-speech>
[415.765]
<no-speech>
[419.115]
<cough> <laugh> yu tu ya sens o
[425.335]
<no-speech>
[426.315]
<laugh> (()) <laugh>
[430.015]
<no-speech>
[431.045]
<no-speech>
[440.055]
<no-speech>
[441.385]
<no-speech>
[442.465]
<no-speech>
[446.765]
<laugh> nogat o bai mi i stap wanpela hap
[450.975]
<no-speech>
[455.095]
<no-speech>
[455.485]
<no-speech>
[458.385]
<no-speech>
[459.215]
<no-speech>
[460.935]
<laugh> e sekim ai bilong em nogut em i <laugh> krai <laugh> nogut em krai yu wanem stap <laugh>
[472.755]
<no-speech>
[476.125]
<no-speech>
[477.865]
<no-speech>
[479.015]
<no-speech>
[480.685]
<no-speech>
[481.945]
<no-speech>
[483.735]
<laugh> aiyo
[487.565]
<no-speech>
[491.595]
hm <no-speech> o tarangu dispela ol kar ya a ol wok long mekim planti nois i stap
[502.475]
<no-speech>
[504.125]
<no-speech>
[506.965]
<laugh> nogat em em ol draipela buldosa ya
[514.635]
<no-speech>
[516.285]
<sta> hm
[517.295]
<no-speech>
[519.085]
<no-speech>
[519.455]
<no-speech>
[523.385]
<no-speech>
[525.315]
<no-speech>
[529.215]
<laugh> mm meri bilong em lusim em tarangu
[533.315]
<no-speech>
[534.625]
<sta> na em save bebisita long ol pikinini bilong em
[538.845]
<int> (())
[541.675]
a nau em save i go wok
[544.245]
<no-speech>
[545.445]
em save i go wok na tumora em (()) on
[548.505]
<no-speech>
[550.525]
no em amamas na i kam wok
[552.665]
<no-speech>
[559.105]
<laugh> tarangu bai mi i go toksave long em olsem yu tingim em i stap
[564.865]
<no-speech>
[572.495]
em tru
[573.715]
<no-speech>
[578.215]
tru ya
[579.495]
<no-speech>
[585.075]
ye em
[586.195]
<no-speech>
[587.785]
pilo
[588.825]
<no-speech>
[590.445]
sam sik bel i kam o
[592.405]
<no-speech>
[593.455]
<no-speech>
[593.825]
<no-speech>
[597.905]
<no-speech>
[598.255]
<int> (())
[600.020]
