[0.000]
<no-speech>
[6.287]
<no-speech>
[12.575]
halo
[13.055]
<no-speech>
[23.485]
Marie
[24.055]
<no-speech>
[25.685]
Anne Marie
[26.305]
<no-speech>
[28.585]
halo yu stap long we
[29.545]
<no-speech>
[31.985]
a
[32.485]
<no-speech>
[33.365]
yu stap long we
[34.195]
<no-speech>
[37.165]
mi tok yu stap long we
[38.235]
<no-speech>
[39.105]
Waigani a
[39.935]
<no-speech>
[44.575]
sori mi no harim yu yu toktok gut
[45.985]
<no-speech>
[51.125]
Marie
[51.675]
<no-speech>
[54.085]
a oke na bai yu givim mi olsem wanem em orait a
[57.375]
<no-speech>
[60.165]
ol lain pilai bingo kats nabaut tu o
[62.245]
<no-speech>
[67.915]
a
[68.585]
<no-speech>
[70.055]
<hes> mi stap long wanem ya Hohola ya
[73.355]
<no-speech>
[76.125]
ol tok wanem ya buai maket ya bagarap na
[78.565]
<no-speech>
[81.015]
a
[81.535]
<no-speech>
[84.245]
ye mipela sanap Hohola maket ya na lukim ol lain Wabag ya wok long salim buai i go kam na ol kros wantaim ol polis i go i kam i stap
[90.775]
<no-speech>
[93.765]
na Waigani olsem wanem
[94.915]
<no-speech>
[95.895]
a
[96.405]
<no-speech>
[97.945]
wanem
[98.545]
<no-speech>
[101.305]
a
[101.945]
<no-speech>
[104.965]
o oke em ating olgeta hap em ol bai wankain olsem ya ol wok long stat pasim ol buai maket <hes> ye buai maket na daka nabaut ya ol pasim stap ating fran long haus
[116.895]
eria nabaut bai ol mekim olsem tu o
[118.695]
<no-speech>
[123.165]
mhm
[123.875]
<no-speech>
[125.015]
ye ol stap olgeta em mama
[127.705]
<no-speech>
[128.925]
ye em asde tasol mama kam daun na
[131.405]
<no-speech>
[132.295]
stap long haus ya em sik liklik ya ni bilong em ya bagarap liklik na em stap
[136.175]
<no-speech>
[138.695]
nau tasol Lucy lain go antap long maket ya baim ol kaikai nabaut na ol kam kuk stap ya na mi kam daun nogat lain long toktok wantaim olsem na mi ringim yu long olsem stori wantaim
[149.155]
<no-speech>
[155.165]
a em go wok em go wok
[156.415]
<no-speech>
[161.675]
hm na Flyn
[163.365]
<no-speech>
[164.365]
ye bai mipela tu i go
[165.435]
<no-speech>
[167.215]
em i go em tu go wok ya
[168.645]
<no-speech>
[169.685]
na Steven olsem wanem
[170.835]
<no-speech>
[173.505]
T_K Steven masta bilong yu
[176.975]
<no-speech>
[179.375]
a
[180.055]
<no-speech>
[181.525]
oke tokim em olsem <hes> pe-de nabaut bai mi kam
[185.465]
<no-speech>
[188.545]
harim a
[189.205]
<no-speech>
[190.845]
a
[191.465]
<no-speech>
[195.165]
em olsem nogat
[196.185]
<no-speech>
[198.505]
ye em bai neks wik nabaut bai mi kam
[200.385]
<no-speech>
[202.875]
neks wik Fraide nabaut bai mi kam
[204.415]
<no-speech>
[205.735]
ye
[206.335]
<no-speech>
[211.085]
a na husat ya Mary ol Mary Amboi ol
[214.005]
<no-speech>
[215.345]
a
[215.905]
<no-speech>
[219.455]
o plis ting ol lusim dispela bingo nabaut ya nogat ol pilai yet
[222.645]
<no-speech>
[224.235]
ples ya plis traim singsing nabaut
[227.245]
<no-speech>
[230.515]
na Benny
[231.305]
<no-speech>
[233.865]
a
[234.535]
<no-speech>
[237.135]
o
[237.975]
<no-speech>
[239.165]
so olgeta mangi tu stap Michael Kapua kam long hia tu o
[241.555]
<no-speech>
[243.945]
Michael Kapua kam long hia tu a
[245.505]
<no-speech>
[247.225]
a tokim ol Fraide bai mi kam lukim em
[250.185]
<no-speech>
[253.085]
a
[253.745]
<no-speech>
[258.175]
oke yu lukim em salim halo bilong mi long em a
[261.075]
<no-speech>
[263.345]
mhm
[263.985]
<no-speech>
[265.725]
ye <no-speech> na
[267.865]
<no-speech>
[270.735]
Amboi kam daun tu a
[271.965]
<no-speech>
[276.595]
a em stil stap yet long antap
[279.175]
<no-speech>
[284.105]
Harry a
[284.825]
<no-speech>
[289.385]
neks wik a
[290.255]
<no-speech>
[295.145]
o oke mipela em kirap long buai maket long wanem ya Hohola na wok long lukluk long ol
[300.265]
<no-speech>
[301.385]
ye lain ya hau ol kros i go i kam i go i kam stap
[303.855]
<no-speech>
[305.375]
ol straik i go i kam stap
[306.655]
<no-speech>
[308.445]
mhm na Waigani yupela stap orait a
[311.795]
<no-speech>
[322.305]
a oke mi ting ol lusim bingo nabaut bat bingo ya plis
[326.005]
<no-speech>
[327.815]
bingo ya ol putim wanem long wil bot ya o (())
[331.145]
<no-speech>
[332.445]
a
[333.025]
<no-speech>
[336.035]
a
[336.835]
<no-speech>
[343.325]
aiye plis
[344.215]
<no-speech>
[346.295]
nait tu wantaim ol save pilai a
[347.715]
<no-speech>
[350.685]
nait tu ol save pilai kats a
[352.135]
<no-speech>
[354.995]
mi tok nait tu ol save pilai kat a
[356.535]
<no-speech>
[362.215]
mi tok nait ya ol save pilai kats tu a
[364.115]
<no-speech>
[368.395]
a
[369.125]
<no-speech>
[376.195]
o
[377.205]
<no-speech>
[380.905]
tok toksave long Michael <hes> Fraide nabaut bai mi kam daun
[384.265]
<no-speech>
[387.065]
bai mipela ran long hia
[388.285]
<no-speech>
[389.175]
ye
[389.795]
<no-speech>
[392.695]
a
[393.315]
<no-speech>
[396.855]
ye olsem mi
[398.435]
<no-speech>
[400.975]
nogat man long toktok wantaim olsem na mi ring jes ringim yu na laik yumi stori nabaut
[406.655]
<no-speech>
[408.765]
em yumi stori liklik nabaut oke
[411.035]
<no-speech>
[414.245]
o Waigani em save stap olsem yet
[415.945]
<no-speech>
[420.215]
long hia nabaut ya olsem wanem ren kam daun tu o nogat
[423.335]
<no-speech>
[425.655]
Waigani
[426.385]
<no-speech>
[428.595]
o plis mipela tu long hap ya em wankain ya nogat ren na drai na
[432.455]
<no-speech>
[435.325]
a
[435.965]
<no-speech>
[443.675]
ye Sande ol Wabag nabaut ya ol painim hat long maket na ol kam ol laik kam i go insait long dispela maket na salim buai ya na Wabag wok long kros wantaim ol i go i kam ol Kerema na Wabag nabaut long hap
[454.905]
<no-speech>
[455.935]
em tok yupela ol lain long Waigani yupela go maket long on maket bilong yupela yet na stap long hap
[460.435]
<no-speech>
[461.635]
olsem na ol wok long kros i go i kam na mipela sanap na wok long was i stap
[465.025]
<no-speech>
[471.865]
na Waigani olsem wanem em
[473.415]
<no-speech>
[474.945]
em wanwan salim buai nabaut long ausait nabaut o nogat
[477.315]
<no-speech>
[484.515]
a
[485.235]
<no-speech>
[487.555]
hap bilong Steward mas nogat ya
[489.405]
<no-speech>
[492.635]
a
[493.155]
<no-speech>
[497.955]
a ol
[498.755]
<no-speech>
[499.605]
mi ting taim yu go long ples ya
[501.105]
<no-speech>
[504.155]
mi ting taim yu go long ples ya
[505.555]
<no-speech>
[507.155]
asde a
[507.955]
<no-speech>
[510.355]
o em na misis bilong em
[512.725]
<no-speech>
[517.155]
em na misis bilong em a
[518.305]
<no-speech>
[520.875]
a
[521.575]
<no-speech>
[525.545]
na Mikindi go o nogat
[527.025]
<no-speech>
[531.125]
Mikindi
[531.895]
<no-speech>
[536.115]
a
[536.765]
<no-speech>
[538.065]
<no-speech>
[538.415]
<no-speech>
[540.825]
oke
[541.625]
<no-speech>
[548.035]
na Kathy olsem wanem Kathy stap o em go long ples
[551.055]
<no-speech>
[556.765]
kain bilong em ya em i mas kukim popkon o
[558.675]
<no-speech>
[560.935]
a
[561.605]
<no-speech>
[565.195]
o plis
[566.165]
<no-speech>
[572.215]
Danny boi
[573.125]
<no-speech>
[576.945]
long asde mi lukim Danny boi long wanem ya Bisini ya
[579.565]
<no-speech>
[585.345]
yes yes ye em tasol wantaim Christopher ya
[589.345]
<no-speech>
[597.345]
kain bilong ol ya ol i mas spak wantaim na go ya
[599.215]
<no-speech>
[600.060]
