[0.000]
<no-speech>
[4.675]
<no-speech>
[5.335]
<no-speech>
[8.205]
<no-speech>
[8.565]
<no-speech>
[10.795]
halo
[11.565]
<no-speech>
[12.725]
a Beverlyn mi Joyce ya
[14.625]
<no-speech>
[17.315]
<no-speech>
[17.845]
<no-speech>
[19.725]
halo
[20.465]
<no-speech>
[21.555]
Beverlyn
[22.355]
<no-speech>
[23.555]
<no-speech>
[23.925]
<no-speech>
[25.485]
am
[26.425]
<no-speech>
[28.475]
ye nau mi harim yu ya yu ye mi harim yu ya fon bilong yu mekim wanem ya
[34.245]
<no-speech>
[36.435]
o oke yu mas em yu putim long iapis olsem na em no wok ya
[40.615]
<no-speech>
[41.875]
na yupela husat husat stap long haus yupela husat stap long haus
[46.215]
<no-speech>
[50.485]
<no-speech>
[50.995]
<no-speech>
[51.825]
tupela pikinini na yu a na Mary na Albert go wok a
[55.995]
<no-speech>
[57.525]
a
[58.265]
<no-speech>
[59.445]
na yupela no go kukim sosis a
[61.415]
<no-speech>
[63.755]
na na yupela yupela no go kukim sosis nabaut a
[67.215]
<no-speech>
[68.295]
<no-speech>
[68.645]
<no-speech>
[72.305]
o na yupela lusim a <no-speech> yupela kukim yet o yupela lusim
[78.265]
<no-speech>
[86.425]
a oke na lastaim yu teks kam na tok ol lain wok long toktok ya yu tok
[92.515]
<no-speech>
[93.545]
husat husat ol wok long askim
[95.425]
<no-speech>
[97.315]
<no-speech>
[98.055]
<no-speech>
[100.505]
olgeta lain a a
[103.165]
<no-speech>
[105.655]
Peter na husat
[106.755]
<no-speech>
[111.305]
na Mary
[112.995]
<no-speech>
[114.765]
<no-speech>
[115.125]
<no-speech>
[119.085]
em tu a
[119.965]
<no-speech>
[121.195]
na Sarere bai mitupela kam bai
[124.165]
<no-speech>
[125.925]
o mi tok Sarere mitupela Kalila tingting long kam ya
[131.585]
<no-speech>
[132.665]
kam na yumi stori na stap Mary em bai trevel go em bai flai aut o nogat
[138.705]
<no-speech>
[143.535]
o em no go long wanpela ap nau a
[146.905]
<no-speech>
[148.335]
na ol lain ya ol pilai kats long haus ol pilai kats long haus bilong ma- papa ol lain ya ol pilai yet stap a
[158.985]
<no-speech>
[159.895]
na nau ol save mekim bikpela maket insait long hap a
[164.825]
<no-speech>
[171.895]
ye mi ting ol save go baim long Waikele na kam maket ya
[175.665]
<no-speech>
[181.305]
na insait long banis em orait ol ken putim long
[185.795]
<no-speech>
[189.345]
ye mi tok long mi tok insait long haus ya ol save mi ting ol save putim long tebol nabaut na maket ya nogat a
[197.155]
<no-speech>
[200.805]
<no-speech>
[201.265]
<no-speech>
[203.145]
<no-speech>
[204.885]
<no-speech>
[207.635]
a na junia em wok o nogat
[210.475]
<no-speech>
[213.145]
na junia wok o nogat
[214.715]
<no-speech>
[216.835]
na bus em karim raun ya mekim wanem
[219.965]
<no-speech>
[221.405]
<no-speech>
[221.925]
<no-speech>
[225.355]
na Rexen
[227.265]
<no-speech>
[228.505]
<no-speech>
[230.105]
<no-speech>
[231.115]
teksi bilong husat
[233.595]
<no-speech>
[234.445]
<no-speech>
[234.795]
<no-speech>
[237.355]
<no-speech>
[237.735]
<no-speech>
[239.435]
<no-speech>
[240.075]
<no-speech>
[241.735]
na Peter go wok o em stap long haus
[246.535]
<no-speech>
[249.355]
ye
[250.565]
<no-speech>
[252.025]
<no-speech>
[252.395]
<no-speech>
[253.325]
o nau em wok de a
[258.805]
<no-speech>
[260.855]
na Sola na Debra ol save maket long banis bilong ol tu o nogat
[264.015]
<no-speech>
[264.845]
<no-speech>
[265.245]
<no-speech>
[266.095]
Sola na Debra ol maket long banis bilong ol
[268.745]
<no-speech>
[270.855]
beksait get ya
[272.795]
<no-speech>
[278.225]
o
[280.475]
<no-speech>
[281.825]
na sampela niupela ol lain visitas nabaut ol kam long haus o nogat
[285.155]
<no-speech>
[289.885]
<no-speech>
[290.695]
<no-speech>
[294.035]
<no-speech>
[294.385]
<no-speech>
[299.045]
a
[299.945]
<no-speech>
[301.055]
o Isaac wantaim papa bilong em ya ol go pinis long ples
[306.075]
<no-speech>
[307.495]
<no-speech>
[307.845]
<no-speech>
[310.125]
he long taim ya wanem taim ya
[313.275]
<no-speech>
[314.405]
<no-speech>
[314.765]
<no-speech>
[318.615]
<no-speech>
[319.475]
<no-speech>
[320.885]
oke oke
[322.565]
<no-speech>
[326.835]
oke mi ting ol stap yet ya mi no ting olsem ol go pinis long ples
[332.405]
<no-speech>
[334.995]
mi ting olsem ol go stap wantaim paias o dispela kain ya
[338.555]
<no-speech>
[339.645]
<no-speech>
[340.005]
<no-speech>
[342.815]
na mipela <no-speech> a
[347.565]
<no-speech>
[351.905]
ye mitupela mitupela Kalila bai kam long Satade bat yu no ken tokim Mary
[357.365]
<no-speech>
[358.805]
mipela bai kam nau he sapos nogut mipela no kam
[362.425]
<no-speech>
[364.045]
nogut mipela no kam ya olsem
[368.025]
<no-speech>
[369.025]
ye em olsem na mi wetim ol lain ya long ring pastaim ol tok wanem nau bai mipela kam toksave long
[377.315]
<no-speech>
[378.135]
ol lain ya so
[379.485]
<no-speech>
[380.285]
a
[380.895]
<no-speech>
[382.515]
yu tok
[383.195]
<no-speech>
[386.965]
ye
[387.665]
<no-speech>
[389.925]
<no-speech>
[391.045]
<no-speech>
[396.805]
<no-speech>
[397.205]
<no-speech>
[400.055]
<no-speech>
[400.435]
<no-speech>
[401.335]
<no-speech>
[401.985]
<no-speech>
[406.375]
<no-speech>
[406.785]
<no-speech>
[417.105]
ye ye oke oke longlong ol lain ya
[421.105]
<no-speech>
[422.955]
nogat tingting bilong ol ya bai mipela kam na sekim
[426.165]
<no-speech>
[435.655]
na yutupela no laik go tokim junia na bai kam krosim tupela a
[440.485]
<no-speech>
[444.065]
<no-speech>
[445.215]
<no-speech>
[446.465]
<no-speech>
[446.935]
<no-speech>
[455.080]
<no-speech>
[463.225]
<no-speech>
[464.535]
<no-speech>
[468.055]
a nau ya nau em kam ya o asde
[470.875]
<no-speech>
[475.795]
he em wanem em haus bilong em o em bladi painim rabis raunraun na em kam na laik kisim ol samting
[482.565]
<no-speech>
[484.635]
olsem kain yupela mas lukluk long ol samting
[487.225]
<no-speech>
[489.645]
em askim long ren mani a
[491.855]
<no-speech>
[493.965]
em askim long ren mani a
[495.665]
<no-speech>
[496.975]
na em wanem em papa bilong haus a
[499.665]
<no-speech>
[504.955]
<no-speech>
[505.335]
<no-speech>
[506.185]
<no-speech>
[506.555]
<no-speech>
[508.915]
wanpela man wantaim em
[512.045]
<no-speech>
[516.225]
ye em giaman ya em yet mas pilim gilti long dispela wanem bilong em ya em laik stil na kam long wen yupela mas katsim em ya yupela mas go putim
[526.505]
<no-speech>
[529.615]
a
[530.235]
<no-speech>
[540.885]
wanem kain longpela ain
[543.295]
<no-speech>
[544.945]
nogut em ain bilong mipela ya
[546.795]
<no-speech>
[548.775]
o
[549.555]
<no-speech>
[550.645]
em kain bilong ol Tari ya ol save painim rabis na raunraun long haus bilong ol man ya ol kolektim rabis stap ya
[556.605]
<no-speech>
[557.585]
<no-speech>
[557.935]
<no-speech>
[562.085]
na sampela moa samting o sampela moa ol mangi pait ya yu harim tu
[568.415]
<no-speech>
[570.405]
bikpela pait long hap ol tok ya
[572.235]
<no-speech>
[573.415]
wanem ya ol Wabag na ol Souths a
[577.475]
<no-speech>
[578.805]
asde o ap asde o wanem ol go stap long stesen ya dispela wait miks res ya tingim
[583.775]
<no-speech>
[584.865]
save stap wantaim Michael lain ya
[586.705]
<no-speech>
[588.255]
<no-speech>
[590.395]
<no-speech>
[590.72]
