[0.000]
<no-speech> 
[8.235]
h a l o 
[8.795]
<no-speech> 
[13.515]
h a l o 
[14.005]
<no-speech> 
[17.935]
aː n g u ɹ t u p a ʈ ʈ i n æ g u ɹ t u p a ʈ ʈ i n aː l æ 
[19.545]
<no-speech> 
[21.775]
t͡ʃ e p p u 
[22.425]
<no-speech> 
[25.355]
aː n <no-speech> 
[27.245]
<no-speech> 
[29.295]
<int> eː n t͡ʃ eː s t aː l æː n u ɹ a p a n ɖ u k u n ʈ u n n a i p p u ɖ e <no-speech> 
[32.315]
<no-speech> 
[35.785]
<no-speech> aː n 
[37.275]
<no-speech> 
[41.295]
<no-speech> p a n ɖ u k u n ʈ a u n ʈ aː l æː n u ɹ a i p p u ɖ e p a n ɖ u k u n ʈ u n n a t͡ʃ e p p u eː n d i <no-speech> 
[45.435]
<no-speech> 
[49.645]
a ɹ æː j <no-speech> m a ʈ a ɹ t͡ʃ e p p a ɹ a 
[52.085]
<no-speech> 
[56.875]
t͡ʃ e p p u æː n ʈ i d i 
[57.955]
<no-speech> 
[62.955]
aː n 
[63.835]
<no-speech> 
[66.535]

[67.055]
<no-speech> 
[68.895]
aː n eː n k aː ʋ aː l i ɹ a b aː j 
[70.605]
<no-speech> 
[72.055]
eː n t͡ʃ æː j a l æ eː m æː m i a j i n aː j i eː m æː m i a j i n aː j i 
[74.785]
<no-speech> 
[79.305]
eː n ʈ i 
[80.115]
<no-speech> 
[82.765]
aː n 
[83.425]
<no-speech> 
[87.025]
aː n 
[87.935]
<no-speech> 
[88.865]
æː n ʈ i d i a n ɖ 
[89.825]
<no-speech> 
[94.815]
aː n a j i t e i p p u ɖ æː n d a n ʈ a ʋ aː ɖ i b aː d a 
[97.065]
<no-speech> 
[101.015]
aː n <int> <laugh> e n d u k u ɹ a k aː n i i ŋ k æː n d i 
[104.635]
<no-speech> 
[109.505]
aː n æː m oː ɹ a b aː j <int> t͡ʃ uː ɖ aː l a 
[111.735]
<no-speech> 
[117.065]
a d e <hes> i p p u ɖ u a ʋ ʋ a l æː d u ɹ æ i ŋ k a n j u i j a ɹ k u t iː s u k u n d aː m u a n u k u n ʈ u n n a 
[120.265]
<no-speech> 
[122.645]
n j u i j a ɹ n j u i j a ɹ 
[123.875]
<no-speech> 
[128.485]
k aː n i ɖ i l e a j i n d i ɹ æ 
[129.795]
<no-speech> 
[135.815]
s aː j a n t ɹ a m a 
[136.855]
<no-speech> 
[139.375]
æː ɖ a k i 
[140.145]
<no-speech> 
[143.215]
d uː l p æː ʈ a k a 
[144.325]
<no-speech> 
[147.005]
d æː n i k i ɹ a 
[147.935]
<no-speech> 
[157.125]
aː n 
[157.925]
<no-speech> 
[161.605]
aː n 
[162.395]
<no-speech> 
[167.005]
uː n 
[167.885]
<no-speech> 
[170.155]
<no-speech> 
[170.505]
<no-speech> 
[171.965]

[172.795]
<no-speech> 
[174.085]
b i z iː a j i p oː j i n ɖ æ 
[175.385]
<no-speech> 
[179.275]
uː n 
[180.055]
<no-speech> 
[180.995]
eː n t͡ʃ æː s t u n n aː ʋ u <int> t i n n aː ʋ a 
[182.225]
<no-speech> 
[183.835]
aː n 
[184.325]
<no-speech> 
[185.195]
t i n n aː ʋ a 
[185.935]
<no-speech> 
[187.715]
k o n ʈ u n n aː ʋ a 
[188.705]
<no-speech> 
[191.305]
m aː ɹ t͡ʃ i l oː n a 
[192.475]
<no-speech> 
[194.115]
uː n <no-speech> i ŋ k a 
[195.565]
<no-speech> 
[199.065]
l e k t͡ʃ a ɹ e ɹ s a 
[200.275]
<no-speech> 
[202.635]
aː n 
[203.425]
<no-speech> 
[204.565]
i ŋ k a 
[205.235]
<no-speech> 
[207.015]
e p p u ɖ u s k uː l <no-speech> 
[209.325]
<no-speech> 
[212.755]
aː n 
[213.115]
<no-speech> 
[215.835]
æː m oː ɹ a m aː ɹ eː d͡ʒ u n d i ʈ ʋ a n ʈ iː s e ʋ e n t k i <int> m a a n n a d i 
[218.915]
<no-speech> 
[221.885]
aː n 
[222.495]
<no-speech> 
[225.035]
<no-speech> 
[225.435]
<no-speech> 
[227.515]
aː j a n k aː d u ɹ a ʋ aː ɖ u n a eː d͡ʒ ʋ aː ɖ e <int> p e d d a n n a ɹ a 
[232.725]
<no-speech> 
[234.065]
m a ɖ a ɖ i ʋ aː ɭ ɭ a a n n a k o ɖ u k u d i ɹ a 
[235.895]
<no-speech> 
[240.025]
i k k a ɖ a k aː d u ɹ a m aː ɹ eː d͡ʒ 
[241.645]
<no-speech> 
[243.895]
uː ɹ i l o 
[244.725]
<no-speech> 
[248.665]
uː ɹ i l oː ɹ a <int> iː ɖ a d͡ʒ a g i t j aː l a d a g g a ɹ a 
[251.955]
<no-speech> 
[255.345]
<no-speech> k aː d u ɹ a i k k a ɖ a k aː d u uː ɹ i l o m aː ɹ eː d͡ʒ 
[258.675]
<no-speech> 
[262.035]
n u ʋ ʋ e t͡ʃ e p p aː l a 
[263.105]
<no-speech> 
[266.415]
aː n 
[267.245]
<no-speech> 
[268.895]

[269.875]
<no-speech> 
[271.415]
e k k a ɖ u n n aː ʋ u i p p u ɖ u n u ʋ ʋ u <int> 
[272.515]
<no-speech> 
[273.535]
e k k a ɖ u n n aː ʋ u i p p u ɖ u 
[274.545]
<no-speech> 
[278.285]
e e m s i d a g g a ɹ a n a 
[279.615]
<no-speech> 
[282.355]
uː n s a ɹ e s a ɹ e 
[284.185]
<no-speech> 
[285.185]
p a n ɖ u g a a j i d u k u 
[285.945]
<no-speech> 
[290.145]
p o d d u n <int> m aː ɹ n i ŋ g s i k s o k l aː k u t͡ʃ a ɹ t͡ʃ i k i ʋ e ɭ ɭ aː l a 
[293.095]
<no-speech> 
[296.625]
ɹ æː p u m aː ɹ n i ŋ g s i k s o k l aː k u t͡ʃ a ɹ t͡ʃ i k i ʋ e ɭ ɭ aː l i ɹ a <no-speech> 
[299.645]
<no-speech> 
[302.105]
aː n 
[302.715]
<no-speech> 
[306.815]
<no-speech> 
[307.215]
<no-speech> 
[315.320]
<no-speech> 
[323.425]
aː n <int> t͡ʃ e p p a ɹ a 
[324.235]
<no-speech> 
[329.445]
<no-speech> æː n ʈ i d i 
[330.755]
<no-speech> 
[335.085]
aː n t͡ʃ e p p u 
[335.985]
<no-speech> 
[340.605]
aː n 
[341.465]
<no-speech> 
[345.365]
<int> aː n 
[346.195]
<no-speech> 
[349.835]
uː n e ʈ l a ʋ e ɭ ɭ i n aː ʋ b a n ɖ i <int> m iː d a n a 
[352.755]
<no-speech> 
[354.015]
aː n 
[354.645]
<no-speech> 
[355.805]
b a n ɖ i m iː d a n a 
[356.895]
<no-speech> 
[358.185]
aː n 
[358.745]
<no-speech> 
[360.195]
b a n ɖ i b a n ɖ i m iː d a n a b a s l oː n aː <int> 
[362.935]
<no-speech> 
[365.845]
aː n 
[366.575]
<no-speech> 
[371.305]
æː m ai n d i ɹ a 
[372.285]
<no-speech> 
[376.085]
aː n 
[376.835]
<no-speech> 
[380.745]
uː n 
[381.525]
<no-speech> 
[384.965]
aː n 
[385.555]
<no-speech> 
[389.115]
n u ʋ ʋ a 
[389.935]
<no-speech> 
[391.955]
æː m oː ɹ a 
[392.905]
<no-speech> 
[395.975]
aː n 
[396.615]
<no-speech> 
[399.515]
k uː k a ʈ p a l l i n a e e m s i s i a n n aː ʋ u i p p u ɖ e 
[401.735]
<no-speech> 
[404.895]
n i t͡ʃ aː l u ɹ a 
[406.265]
<no-speech> 
[411.865]
<hes> eː n d i ɹ a n u ʋ ʋ u eː n t͡ʃ e p p aː l a n u k u n ʈ u n n aː ʋ u a d i t͡ʃ e p p u 
[414.745]
<no-speech> 
[417.275]
n u ʋ ʋ u eː d i t͡ʃ e p p aː l a n u k u n ʈ u n n aː ʋ u a d i t͡ʃ e p p a ɹ a 
[419.265]
<no-speech> 
[423.075]
aː n 
[423.715]
<no-speech> 
[426.385]
a ɹ e p o d d u n m aː ʈ l aː ɖ u t aː ɹ a n aː k u n i d ɹ a ʋ a s t u n d i 
[428.945]
<no-speech> 
[432.935]
uː n t͡ʃ e p p u 
[434.035]
<no-speech> 
[441.565]
aː n t͡ʃ e p p a ɹ a 
[442.405]
<no-speech> 
[444.295]

[444.765]
<no-speech> 
[446.675]
a ɹ d a ŋ k aː l e 
[447.495]
<no-speech> 
[449.505]
<no-speech> 
[449.865]
<no-speech> 
[451.325]
e n t a s æː p u m aː ʈ l aː ɖ i ʈ oː ʈ a l d aː n ʈ l o 
[453.135]
<no-speech> 
[457.715]
aː n m aː ʈ l aː ɖ i t e æː m ai t aː d i i p p u ɖ u 
[459.415]
<no-speech> 
[464.995]
k o t t a f oː n k o n n aː ʋ æ <int> 
[466.695]
<no-speech> 
[472.925]
<no-speech> k aː d u eː n b i d͡ʒ i n e s ɹ aː <no-speech> 
[475.765]
<no-speech> 
[481.325]
aː n 
[482.105]
<no-speech> 
[485.505]
a s a ɹ l e <int> i ŋ k æː m t͡ʃ æː s t aː m u 
[487.325]
<no-speech> 
[490.435]
æː n ʈ i d i 
[491.195]
<no-speech> 
[493.855]
aː n 
[494.455]
<no-speech> 
[498.365]
o t͡ʃ uː d d aː m u l æ i p p u ɖ u a n t a l æː d u ɹ a 
[501.185]
<no-speech> 
[505.065]
<no-speech> e a ʈ l aː n i k aː d u l e k aː n i aː l ɹ e ɖ i o k a ʈ i u n n aː d i i n ʈ l o 
[508.505]
<no-speech> 
[514.775]
<int> aː n s a ɹ l e a n d a ɹ i i l l a l l o 
[518.005]
<no-speech> 
[519.505]
a n d a ɹ i i l l a l l o u n n aː j i ɹ æ l aː p ʈ aː p s 
[521.395]
<no-speech> 
[522.385]
<no-speech> <sta> a n d a ɹ i i l l a l l o u n n aː j i ɹ æ l aː p ʈ aː p s e ʋ a ɹ a d i ʋ aː ɭ ɭ a k i 
[526.595]
<no-speech> 
[530.885]
aː n <no-speech> 
[532.815]
<no-speech> 
[536.285]
aː n 
[537.035]
<no-speech> 
[541.225]
eː n t e l u s u 
[542.205]
<no-speech> 
[548.275]
aː n 
[548.745]
<no-speech> 
[549.835]

[550.895]
<no-speech> 
[553.035]
p aː l a s iː j aː 
[553.985]
<no-speech> 
[557.245]
eː n l æː d u ɹ a <no-speech> 
[559.385]
<no-speech> 
[561.335]
l æː ʋ u ɹ a k aː s t a ɹ i p æː ɹ u l æ a d i <int> 
[563.455]
<no-speech> 
[568.975]
g eː m ʃ o l æː ʋ u ɹ a o k a ʈ u n ɖ e d͡ʒ i ʈ i e u n ɖ e 
[574.615]
<no-speech> 
[580.345]
s a ɹ l e t͡ʃ uː s t a <int> 
[581.475]
<no-speech> 
[584.765]
eː n l æː d u ɹ a k aː ɭ iː g a k uː ɹ t͡ʃ u n n a 
[586.795]
<no-speech> 
[590.565]
aː n 
[591.185]
<no-speech> 
[594.755]
e p p a ʈ i n u n t͡ʃ i eː n d i ɹ a 
[595.805]
<no-speech> 
[600.260]
