[0.000]
<no-speech> 
[1.025]
<no-speech> 
[3.925]
a a t t a ɹ a 
[5.455]
<no-speech> 
[7.645]
a t t a ɹ a i k a <int> n u ʋ ʋ u t͡ʃ e p p i n a d e ʈ l u n ʈ aː d i 
[9.705]
<no-speech> 
[11.415]
k aː d u ɹ a p oː j i æː m i ɹ a t͡ʃ æː d d aː n 
[13.085]
<no-speech> 
[15.705]
<int> eː n ʈ i 
[18.095]
<no-speech> 
[19.985]
n a ʋ ʋ a k u ɹ a m a ɭ ɭ a t͡ʃ e p p u 
[21.205]
<no-speech> 
[22.565]
<no-speech> 
[22.945]
<no-speech> 
[25.065]
n iː k e t͡ʃ æː j i t o n d a ɹ a t͡ʃ æː j i 
[26.565]
<no-speech> 
[29.055]
e k k a ɖ u n d a n i k a d a ɹ a 
[30.155]
<no-speech> 
[31.995]
<no-speech> <sta> a s a ɹ e t͡ʃ æː j i m a ɹ i e n n i s aː ɹ l a a ɖ u g u t aː ʋ u 
[35.645]
<no-speech> 
[38.215]
k aː d u ɹ a <sta> m a n ɹ uː n l o l æː p ʈ aː m p d a g g a ɹ a k i ʋ e ɭ ɭ a ʋ aː ɖ u i k a t o n d a ɹ a a j i t aː j i i k a 
[42.355]
<no-speech> 
[44.875]
a u n n a l æː k a p oː j i n a i ŋ k o m i f ɹ e n ɖ n a ɹ s i ŋ u n n aː ɖ u g æ n a ɹ s i ŋ a n n a p æː ɹ u eː n p æː ɹ u 
[48.435]
<no-speech> 
[52.525]
l æː ɖ a 
[53.315]
<no-speech> 
[58.605]
aː n <int> 
[59.415]
<no-speech> 
[63.955]
aː h a 
[64.735]
<no-speech> 
[66.345]
<sta> uː n m a ɹ i eː n t͡ʃ æː d d aː n m a ɹ i i ŋ k a e n n i g a n ʈ a l a k i ʋ e ɭ t aː ɹ a n ʈ aː ʋ æ 
[70.365]
<no-speech> 
[74.785]
m a ɹ i e ʈ l a m a ɹ i t͡ʃ uː d d aː n a n i e ʈ l a a n n aː ʋ u <int> 
[76.525]
<no-speech> 
[79.875]
h a l o 
[80.345]
<no-speech> 
[81.285]
a <int> 
[81.665]
<no-speech> 
[84.825]
aː n m a ɹ i m a ɹ i i ŋ k o ʋ æː ɹ e s i m t iː s u k u n ʈ aː ʋ a m a ɹ i eː m ai n a 
[87.315]
<no-speech> 
[88.255]
<no-speech> e j i ɹ ʈ e l e j i ɹ ʈ e l s i m t iː s u k u n ʈ aː ʋ a 
[90.725]
<no-speech> 
[91.615]
<no-speech> 
[92.065]
<no-speech> 
[93.995]
ɹ æː p u ɹ a ɹ æː p u t iː s u k u n i e k k a ɖ a i k k a ɖ a e j i ɹ ʈ e l <int> n e ʈ f aː s ʈ u n ʈ aː d i <int> 
[98.285]
<no-speech> 
[99.605]
<sta> aː n <no-speech> 
[102.065]
<no-speech> 
[104.265]
a k a ɹ ɹ iː t iː s u k u p o d aː n aː ɹ æː j 
[106.055]
<no-speech> 
[107.465]
h a l o n i ʋ e n a k aː l a <sta> o k a p oː ɹ i ʋ a s t u n d i t͡ʃ uː ɖ u b l aː k k a l a ɹ ɖ ɹ e s 
[110.685]
<no-speech> 
[112.105]
<no-speech> <sta> aː n i p p u ɖ u ʋ a s t aː d i t͡ʃ uː ɖ u aː m e k aː ɖ i k i p oː ɖ aː n i k i m a ɭ ɭ i i n d u k æ 
[116.295]
<no-speech> 
[117.525]
a a a d e n i e n a k aː j e ʋ a s t aː j a t͡ʃ t͡ʃ a n u k o n n æ 
[119.915]
<no-speech> 
[122.605]
n i k aː ɹ k aː ɖ a o k a p oː ɹ i u n n aː d i t͡ʃ uː ɖ u k aː ɹ p a k k a k u 
[124.975]
<no-speech> 
[127.335]
<sta> a ʈ u a ʋ a t a l a s ai ɖ u u n n aː ɹ u t͡ʃ uː ɖ u i d d a ɹ u <no-speech> 
[130.255]
<no-speech> 
[131.385]
a a ʈ u a ʋ a t a l a s ai ɖ u 
[132.525]
<no-speech> 
[134.475]
<sta> a d e b a j a ʈ e t͡ʃ uː s t a u n n aː n u ɹ æ s uː p a ɹ u n n aː ɹ u <laugh> m u s u k u k a p p u k u n n aː d i t͡ʃ uː ɖ u 
[145.885]
<no-speech> 
[148.885]
a ʋ u n u i ŋ k oː ʈ i <int> 
[151.005]
<no-speech> 
[151.805]
a ɹ æː j 
[152.335]
<no-speech> 
[153.755]
<no-speech> <sta> a n ɖ m u n d u o k a a m m aː j i u n d i t͡ʃ uː s i n aː ʋ æ i i p p u ɖ u m a n a k u n aː m b a ɹ k a l i p i t͡ʃ t͡ʃ i n æ m a ɭ ɭ a aː m e e ʈ l u n ɖ æː ɹ a <no-speech> aː m e e ʈ l u n n aː d i 
[163.535]
<no-speech> 
[164.615]
<no-speech> 
[165.005]
<no-speech> 
[165.835]
<sta> k a l a ɹ a <no-speech> a p a n i a j i p oː j i n d i a n ʈ aː ʋ a e n n oː s aː ɹ l u <no-speech> aː n 
[174.765]
<no-speech> 
[176.925]
<sta> a n t e a n ʈ aː ʋ a a d i ʋ aː ɭ ɭ u k aː n i t͡ʃ uː s t e a ɹ d a m ai t aː d i <no-speech> 
[181.215]
<no-speech> 
[182.325]
d aː n i a ʋ a t aː ɹ a n t͡ʃ uː s t aː n æ a ɹ d a m ai n a d i ɹ æ 
[184.785]
<no-speech> 
[188.415]
aː n n u ʋ ʋ u k aː d u a k k a ɖ a <int> eː n t͡ʃ æː s t u n n aː ʋ u m a ɹ i n u ʋ ʋ u a ʈ u p oː j i <int> 
[192.935]
<no-speech> 
[196.205]
aː h a a ʈ u p oː j i t͡ʃ uː s t u n n aː ʋ u <int> p oː ɹ a g aː l l u eː m ai n a k a n i p i s t u n n aː ɹ a 
[198.435]
<no-speech> 
[200.585]
m a ɹ i 
[201.125]
<no-speech> 
[203.335]
m a ɹ i eː n t͡ʃ æː s t u n n aː ʋ u ɹ a a n ɖ d uː ɹ a n p oː j i 
[204.755]
<no-speech> 
[208.265]
<no-speech> <sta> ʋ aː j i s b ɹ eː k a ʋ u t u n d a <no-speech> p oː j i n aː ʋ u a n d u k a n e 
[214.165]
<no-speech> 
[215.885]
<no-speech> f oː n t͡ʃ e j j o d d a m a ɹ i n æː n u eː n t͡ʃ æː d d aː n m a ɹ i 
[219.415]
<no-speech> 
[220.395]
<no-speech> <sta> f oː n t͡ʃ æː s t e eː n t͡ʃ æː s t aː ʋ u ɹ a m a ɹ i k a ʈ t͡ʃ æː j 
[223.955]
<no-speech> 
[226.325]
<no-speech> aː n t͡ʃ uː s i n aː n e ʈ l a u n n aː ɹ u ɹ æ 
[229.185]
<no-speech> 
[230.405]
aː n <no-speech> <sta> aː n h a s a ɹ e s a ɹ e n i d a g g a ɹ a k i ʋ a s t u n n aː ɹ a <no-speech> n a d a g g a ɹ a k i i d d a ɹ u ʋ a s t u n n aː ɹ u <no-speech> s a ɹ e ʋ a s t u n n aː ɹ a t͡ʃ uː d d aː n ɹ a ɹ e ɖ ɖ ɹ a s a m m aː j i a j i t e oː k eː 
[242.085]
<no-speech> 
[243.645]
aː n k o n t͡ʃ e n a k k a ɖ a u n n a a m m aː j i k o n t͡ʃ e n <foreign> <int> 
[246.725]
<no-speech> 
[249.075]
<sta> a a 
[250.425]
<no-speech> 
[252.275]
<sta> aː n k a l u p u k o l ai n l o u n ʈ e m a ɹ i e ʈ l a ɹ a <no-speech> aː n s a ɹ e <no-speech> 
[262.055]
<no-speech> 
[264.845]
<sta> k aː l æː d u ɹ æ f oː ɹ m i n i ʈ s a j i p o j i n d i a n t e <no-speech> 
[268.195]
<no-speech> 
[269.475]
aː n n a <int> d aː n ʈ l o ai t e f oː ɹ m i n i ʈ s a j i p oː j i n d i ɹ a <int> f ai ʋ f ai ʋ m i n i ʈ s k ʋ aː ʈ a ɹ ʈ u f ai ʋ m i n i ʈ s <int> 
[273.465]
<no-speech> 
[276.115]
aː n 
[276.545]
<no-speech> 
[277.635]
<sta> i ŋ k a f ai ʋ m i n i ʈ s eː m ai n a m aː ʈ l aː ɖ u i k a 
[280.015]
<no-speech> 
[284.555]
m o n n a n u ʋ ʋ u ɹ a m m a n ʈ e ɹ aː l æː d e e n d u k u t i j i ɹ a <int> i ʋ aː ɭ a k uː ɖ a ɹ a m m a n n æ n æː n u p oː d aː n p a d a ɹ a a n ʈ e 
[289.895]
<no-speech> 
[295.515]
uː n m a ɹ i eː n d i ɹ a m a ɹ i ʋ e ɭ d aː n ɹ æ m a ɹ i 
[297.345]
<no-speech> 
[301.975]
<sta> aː n s a ɹ e m a ɹ i n u ʋ ʋ u s oː m a ʋ aː ɹ a m k aː l æː d͡ʒ iː k i ʋ e ɭ t aː ʋ a 
[305.085]
<no-speech> 
[306.705]
<sta> a d e u n n a d i k a d a ɹ a p ɹ oː g ɹ aː m u n i j a b b a a j i d u g a n ʈ a l a k e a d i e n i m i d i g a n ʈ a l a k e k aː l eː d͡ʒ iː l oː k i p oː ʋ aː l i <no-speech> 
[312.745]
<no-speech> 
[315.845]
eː m o t͡ʃ e p p a l æː m u t o m m i d i n n a ɹ a ʋ a ɹ a k u ʋ e ɭ ɭ i p oː t u n n aː ɹ u k aː l æː d͡ʒ i m a ɭ ɭ a 
[319.065]
<no-speech> 
[319.985]
<no-speech> 
[320.405]
<no-speech> 
[324.135]
<sta> a n t æː n a 
[325.465]
<no-speech> 
[331.685]
<no-speech> 
[332.285]
<no-speech> 
[333.805]
<no-speech> 
[335.375]
<no-speech> 
[336.275]

[337.855]
<no-speech> 
[338.795]
<no-speech> 
[340.275]
<no-speech> 
[342.075]
<no-speech> <sta> s a ɹ e ai t e m a ɭ ɭ a k aː l æː d͡ʒ i a n ɖ a j i p oː j i n aː k a m a ɭ ɭ a a ɖ u g u t aː ɹ a a n i a ʈ l a 
[351.065]
<no-speech> 
[357.945]
<sta> a n t æː n aː ɹ a p oː d aː n ai t e 
[360.795]
<no-speech> 
[364.205]
a <int> 
[365.315]
<no-speech> 
[370.285]
n aː l u g u 
[371.055]
<no-speech> 
[372.745]
<no-speech> a d e aː k a l i eː n l æː d u 
[374.755]
<no-speech> 
[378.605]
<no-speech> <sta> a ɹ æː j m a ɹ i a l a s i p oː l æː d aː ɹ a ʋ aː ɭ ɭ u t i ɹ u g u t u n ʈ e l oː p a l a <no-speech> a l a s i p oː l æː d a m a ɹ i 
[384.335]
<no-speech> 
[386.595]
<no-speech> a n t e a n ʈ aː ʋ a e n d͡ʒ aː j t͡ʃ æː s u k u n ʈ a <laugh> 
[390.655]
<no-speech> 
[394.285]
aː h a 
[395.065]
<no-speech> 
[397.375]
aː n ʋ aː ɖ u i k k a ɖ a n e u n n aː ɖ u k aː n i ai t e ɹ æː p u e n n i g a n ʈ a l a k i p oː d aː n <int> 
[403.135]
<no-speech> 
[407.425]
p a d i k e ɭ ɭ i p a d i n n a ɹ a k i ʋ e ɭ ɭ i ʋ e ɭ d aː m 
[409.765]
<no-speech> 
[412.615]
<sta> m a ɹ i eː n t͡ʃ æː d d aː n p oː j i p oː d aː m a <no-speech> s p iː k a ɹ aː <no-speech> 
[418.705]
<no-speech> 
[422.065]
<no-speech> a n t e a n ʈ aː ʋ u p oː d aː n a n ʈ aː ʋ u m ai s uː ɹ u 
[424.635]
<no-speech> 
[425.785]
<no-speech> 
[426.595]
<no-speech> 
[428.985]
<sta> a s a ɹ e s a ɹ e 
[431.395]
<no-speech> 
[432.385]
<no-speech> 
[432.735]
<no-speech> 
[433.785]
k aː l æː d u i ŋ k a <no-speech> <sta> 
[439.395]
<no-speech> 
[440.365]
m oː ɹ ʈ u m i n i ʈ s i ŋ k a 
[441.535]
<no-speech> 
[443.385]
<no-speech> k aː l e a n t e 
[446.075]
<no-speech> 
[448.485]
p oː l æː d u n u ʋ ʋ u i k k a ɖ a n e u n ɖ u <no-speech> <sta> a d i n iː k oː s a m e ʋ e j i ʈ i ŋ g n aː k u t e l u s u 
[454.205]
<no-speech> 
[455.815]
<sta> a i ŋ k o a t a n u ʋ a t͡ʃ t͡ʃ æː ɖ u a a n n a k i k uː ɖ a k a n a k ʈ t͡ʃ æː j o t͡ʃ t͡ʃ u k aː l t͡ʃ æː j o t͡ʃ t͡ʃ u <no-speech> aː n 
[462.625]
<no-speech> 
[466.585]

[467.005]
<no-speech> 
[470.985]
<no-speech> <sta> e k k a ɖ a ɹ a a k a l a ɹ d͡ʒ i ɹ aː k s 
[473.355]
<no-speech> 
[478.325]
a a d͡ʒ æː n ɖ aː g aː n a 
[479.635]
<no-speech> 
[482.435]
h a l o <int> 
[483.315]
<no-speech> 
[483.440]
