[0.000]
<no-speech> 
[0.545]
h a l o 
[1.195]
<no-speech> 
[3.125]
a t͡ʃ e p p a m 
[4.245]
<no-speech> 
[6.315]
<breath> eː n t͡ʃ æː j aː l a a n i aː l oː t͡ʃ i s t u n n aː n æ <int> 
[9.445]
<no-speech> 
[10.605]
<no-speech> <sta> a f iː ʋ a ɹ ʋ a n n aː ʈ f oː ɹ p ɹ a s t u t aː n i k i t a g g u t u n d æː m o a n i ʋ e j i ʈ t͡ʃ æː s t u n n a uː n ʋ a n n aː ʈ f oː ɹ ʋ aː ɖ u ʈ u n aː ʈ f oː ɹ a s a l u <int> e ʋ a ɹ i k i ɹ aː d u ʋ a s t e i ŋ k a a d i g i n n iː s b u k a f ɹ i k aː ɹ ɖ s eː <no-speech> uː n eː n t͡ʃ æː s t u n n aː ʋ u t i n n aː ʋ a m a ɹ i 
[30.435]
<no-speech> 
[34.605]
<sta> e f b i a n ʈ e b oː ɹ k o ʈ ʈ æː s i n d a b b a eː n aː ɖ a t aː n t͡ʃ e p p u 
[39.465]
<no-speech> 
[42.785]
a d i n aː k u k aː n ʈ aː k ʈ l o k uː ɖ a l æː d e b aː b u <no-speech> 
[45.875]
<no-speech> 
[51.095]
<no-speech> 
[51.465]
<no-speech> 
[53.375]
a d i m o n n a g u ɖ m aː ɹ n i ŋ g <int> a n i p e ʈ ʈ i n d i n aː k k uː ɖ a k aː k a p oː t e aː n 
[59.365]
<no-speech> 
[60.835]
uː n e p p u ɖ u t͡ʃ uː s i n æ b i z iː b i z iː <sta> 
[63.625]
<no-speech> 
[66.345]
<sta> eː d ai n a k uː ɖ a m a ɹ i ɹ e g j u l a ɹ g a e g z aː m s eː n p e ʈ ʈ a ɹ u ʋ iː ɭ ɭ u <no-speech> s a ɹ l æː ʋ æ 
[73.485]
<no-speech> 
[75.705]
<sta> æː n ʈ a m m a 
[77.125]
<no-speech> 
[79.535]
a a j i n d i <sta> a j i p oː j i n d e 
[84.275]
<no-speech> 
[85.605]
<no-speech> <sta> a n a ɹ a k a n k a n i p i s t u n d i i k k a ɖ a t e l u s a n iː k u t͡ʃ uː p i n t͡ʃ a n a d a g g a ɹ a n u n t͡ʃ i 
[91.655]
<no-speech> 
[93.585]
<sta> e ʋ a ɹ u <hes> ʋ a ɹ a l a k ʂ m a ʋ a ɹ a f oː n t͡ʃ æː s i n d i n aː ɹ m a l g a m aː ʈ l aː ɖ i n d i k j aː d͡ʒ u ʋ a l g a t͡ʃ aː l a ɖ eː s a j i n d eː k a l u d d aː m a n i t͡ʃ e p p i <no-speech> 
[102.525]
<no-speech> 
[103.875]
<sta> <hes> a n ɖ l aː ʋ a ɳ j a k uː ɖ a f oː n t͡ʃ æː s i n d i <oov> p aː p a p u ʈ ʈ i n d a n i t e l u s u g a 
[108.065]
<no-speech> 
[110.895]
<sta> s æː m ɖ ai ʈ s æː m ɖ ai l aː g eː b aː b u m iː ɹ a n d a ɹ u a n u k oː n i ɖ ai l aː g k o ɖ a t aː ɹ u n aː k u a ɹ d a n k aː d u ʋ a ɹ a k uː ɖ a a d e ɖ ai l aː g eː n d i t e l u s a n a n n u a s a l u g u ɹ t u t͡ʃ æː s u k u n ʈ u n n aː ɹ a m iː ɹ u a n i a n ɖ 
[120.795]
<no-speech> 
[124.105]
<no-speech> 
[124.735]
<no-speech> 
[133.245]
uː n 
[134.045]
<no-speech> 
[135.505]
<no-speech> 
[136.085]
<no-speech> 
[137.185]
t͡ʃ e p p aː l i n u ʋ ʋ e i ŋ k æː m u n n aː j i <int> <oov> l a n t͡ʃ eː n ʈ i 
[143.115]
<no-speech> 
[146.775]
<sta> aː n <no-speech> 
[150.135]
<no-speech> 
[152.055]
aː n e ʋ e ɹ i t i ŋ iː z f ai n a n ɖ g u ɖ <foreign> m i 
[156.015]
<no-speech> 
[157.645]
i ŋ k a 
[158.025]
<no-speech> 
[162.785]
<no-speech> <sta> eː n ʈ e 
[165.915]
<no-speech> 
[170.195]
a d e <foreign> <no-speech> 
[172.865]
<no-speech> 
[176.585]
<no-speech> <sta> t͡ʃ e p p aː l a n æ n u ʋ ʋ e i ŋ k æː m u n n aː j i 
[180.625]
<no-speech> 
[186.385]
aː n 
[186.915]
<no-speech> 
[188.605]
e ʋ a ɹ a d i <cough> 
[189.975]
<no-speech> 
[190.825]
a ʋ u n u t a n a d i ʋ aː ɭ ɭ a k k a d i <sta> m aː ɹ eː d͡ʒ a j i p oː j i n d a 
[194.585]
<no-speech> 
[196.295]
ʋ aː ɭ ɭ a a k k a d i ʋ aː ɳ i ʋ aː ɭ ɭ a a k k a d i m aː ɹ eː d͡ʒ a j i p oː j i n d a 
[198.665]
<no-speech> 
[202.685]
uː n oː k eː 
[204.035]
<no-speech> 
[210.615]
oː h o 
[211.285]
<no-speech> 
[222.215]
aː h a i d æː d o b aː g u n n a ʈ ʈ u n d i b a m p a ɹ aː f a ɹ m a ɹ a d a l u k i 
[225.495]
<no-speech> 
[227.545]
d aː ɹ u ɳ a ŋ g a 
[230.165]
<no-speech> 
[231.605]
<no-speech> <sta> n aː k u k uː ɖ a l æː d a m m a n i <no-speech> a n d u k a n e o k k a ɹ u u n ɖ o d d æ a k k a u n ɖ aː l i <no-speech> 
[242.305]
<no-speech> 
[243.445]
a k k a k u n ʈ æ p aː ɖ u 
[244.475]
<no-speech> 
[245.625]
<no-speech> 
[247.165]
<no-speech> 
[252.625]
<no-speech> <sta> n æː n a n t e n aː k u t͡ʃ e l l e ɭ ɭ u k uː ɖ a l æː ɹ u i ŋ k a a n d u l o <no-speech> uː n <no-speech> æː m u n n aː j i <sta> t͡ʃ e p p aː l i n u ʋ ʋ e d͡ʒ a l u b u d͡ʒ ʋ a ɹ a n p i t͡ʃ t͡ʃ i l æː s t u n d i n aː k u 
[267.525]
<no-speech> 
[269.285]
<no-speech> 
[270.835]
<no-speech> 
[272.565]
<sta> n i n n ai ʈ s ʈ aː ɹ ʈ a j i n d i a d i t a g g a ʈ l a a n t e <no-speech> 
[278.495]
<no-speech> 
[279.455]
<sta> uː n i ŋ k a 
[281.385]
<no-speech> 
[282.275]
<sta> d͡ʒ a l u b u o k a ʈ u ɖ eː s n u n t͡ʃ i ʋ u n d i f iː ʋ a ɹ n i n <foreign> a j i n d i <no-speech> æː n ʈ o 
[289.545]
<no-speech> 
[292.075]
æː n ʈ a d i eː n t͡ʃ uː ɖ aː l i 
[293.705]
<no-speech> 
[295.375]
<breath> a aː l ɹ e ɖ i t e t͡ʃ t͡ʃ æː s a n a m 
[297.345]
<no-speech> 
[301.295]
<int> aː n 
[302.395]
<no-speech> 
[307.835]
uː n h u <no-speech> k aː n i <no-speech> m i m a m m iː eː m o n aː d i a j i p oː j i n t a ɹ ʋ aː t a n iː k u t͡ʃ æː s t aː d a n ʈ a n iː k u 
[316.065]
<no-speech> 
[317.535]
<sta> aː n m i m a m m iː n a n aː k u t͡ʃ æː s i n iː k u t͡ʃ æː s t aː d a n ʈ a <no-speech> 
[322.185]
<no-speech> 
[324.545]
<no-speech> <sta> e n d u k e n iː k u a n ɖ k a ŋ g aː ɹ u g a ʋ u n d a <no-speech> 
[329.865]
<no-speech> 
[331.095]
<breath> t͡ʃ i <laugh> t a p p u 
[332.835]
<no-speech> 
[334.015]
<laugh> uː n 
[336.465]
<no-speech> 
[337.455]
<no-speech> <sta> uː n h u i ŋ k æː n ʈ æ ɖ a ɖ i e l a ʋ u n n aː ɹ u <no-speech> uː n h u ɖ a ɖ i eː n t͡ʃ æː s t u n n aː ɹ u ɖ a ɖ i e k k a ɖ u n n aː ɹ u i p p u ɖ u <no-speech> 
[349.345]
<no-speech> <sta> aː f iː s k e ɭ ɭ a l æː d a <no-speech> 
[355.575]
<no-speech> 
[360.335]
<sta> oː h o oː k eː 
[363.365]
<no-speech> 
[366.745]
<sta> uː n 
[368.665]
<no-speech> 
[372.785]
<no-speech> 
[373.245]
<no-speech> 
[376.015]
uː n 
[376.605]
<no-speech> 
[378.575]
<sta> uː n <cough> 
[381.185]
<no-speech> 
[382.055]
k aː n i ʋ ʋ a n ɖ i t o n d a ɹ a t o n d a ɹ a g a <sta> 
[384.825]
<no-speech> 
[386.725]
<sta> t o n d a ɹ a t o n d a ɹ a g a k aː n i ʋ ʋ a n ɖ æ a j i p oː t uː n æ 
[390.245]
<no-speech> 
[400.845]
aː h a 
[401.535]
<no-speech> 
[403.205]
<no-speech> 
[403.595]
<no-speech> 
[407.705]
<sta> <foreign> <no-speech> 
[409.755]
<no-speech> 
[412.505]
<no-speech> 
[414.085]
<no-speech> 
[415.095]
p oː l e <int> 
[415.585]
<no-speech> 
[419.475]
<sta> m iː ɹ u t͡ʃ æː s t aː ɹ a <oov> <foreign> <no-speech> 
[422.745]
<no-speech> 
[430.085]
<no-speech> 
[430.465]
<no-speech> 
[431.435]
<sta> oː k eː oː k eː e m e a j i p oː j i n d a 
[434.015]
<no-speech> 
[438.565]
oː k eː oː k eː 
[439.555]
<no-speech> 
[448.595]
eː n t͡ʃ æː s aː ʋ æː n d i 
[449.695]
<no-speech> 
[460.485]
n aː ɹ m a l g aː n e 
[461.735]
<no-speech> 
[470.065]
uː n h u 
[470.785]
<no-speech> 
[471.605]
ʋ aː ɳ i ʋ aː ɭ ɭ a a k k a m j aː ɹ eː d͡ʒ k aː 
[473.275]
<no-speech> 
[478.565]
<no-speech> 
[479.155]
<no-speech> 
[483.945]
<int> aː h a 
[485.395]
<no-speech> 
[489.615]
<no-speech> 
[490.015]
<no-speech> 
[493.765]
<sta> a d e h ai d a ɹ aː b aː d s i m b a l f a ɹ ʈ ɹ aː f i k a n ɖ p o l j uː ʂ a n 
[500.705]
<no-speech> 
[503.645]
<no-speech> 
[504.295]
<no-speech> 
[508.995]
uː n 
[509.675]
<no-speech> 
[515.195]
<no-speech> 
[515.735]
<no-speech> 
[517.465]
a b b o 
[518.175]
<no-speech> 
[527.695]
<no-speech> 
[528.625]
<no-speech> 
[532.275]
<no-speech> 
[534.265]
<no-speech> 
[541.295]

[542.005]
<no-speech> 
[547.495]
<no-speech> 
[548.035]
<no-speech> 
[553.965]
uː n 
[554.465]
<no-speech> 
[557.815]

[563.395]
<no-speech> 
[566.375]
aː h a 
[567.125]
<no-speech> 
[573.785]
<sta> u n ʈ aː d u n ʈ aː d i 
[576.935]
<no-speech> 
[579.795]
uː n 
[580.295]
<no-speech> 
[588.385]
aː h a 
[589.175]
<no-speech> 
[591.855]
i ŋ k æː m u n d æ t͡ʃ e p p aː l i n u ʋ ʋ e eː m ai n d i <laugh> 
[599.885]
<no-speech> 
[600.480]
