[0.000]
<no-speech> h a l o 
[11.955]
æː ɖ u n n aː ʋ u m a m m iː <no-speech> eː n t͡ʃ æː s t u n n aː ʋ u <no-speech> ʋ a n ɖ i n a ʋ æ <no-speech> 
[23.925]
uː n <no-speech> s a ɹ e i ŋ k a 
[28.625]
<oov> n æː n u m aː ɹ n i ŋ g i ʋ aː ɭ a k aː l eː d͡ʒ p oː j i n a k aː n i m aː k u e g z aː m o t͡ʃ t͡ʃ i p oː s ʈ p oː n a j i n d a n n a m aː ʈ a <int> f i f ʈ iː n t k u e g z aː m u n ɖ æː k a d a a d i p oː s ʈ p oː n a j i n d i 
[40.085]
<no-speech> a ʋ u n a <int> aː n ʈ ʋ a n ʈ iː s e ʋ e n t k a n ʈ a ʈ ʋ a n ʈ iː s e ʋ e n t k a n ʈ a <no-speech> 
[51.355]
a uː n t͡ʃ e p p u <no-speech> a a n d a ɹ a k i k aː n s i l a j i n d i 
[61.845]
n aː k o k k a d aː n i k e k aː d u f i f ʈ iː n t k a d a m o h a ɹ a n ɹ æː p u t͡ʃ i l ɖ ɹ a n s ɖ eː k a d a e l l u n ɖ i m o h a ɹ a n <no-speech> a m m a ʋ aː ɭ ɭ a i n ʈ i k i p o m m a n n aː ʋ u aː n 
[73.715]
<no-speech> uː n l æː d a m m a eː n s e l a b ɹ eː ʃ a n s l æː ʋ u eː n s e l a b ɹ eː ʃ a n s l æː ʋ u k aː l æː d͡ʒ l o m eː m æː m a n n aː i ŋ k a t͡ʃ i n n oː ɭ ɭ a m a <no-speech> 
[85.305]
<no-speech> i ŋ k a <no-speech> <no-speech> eː m i ʋ a n ɖ i n aː ʋ u eː m i ʋ a n ɖ i n aː ʋ u <no-speech> 
[96.045]
eː n ʋ a n ɖ i n aː ʋ u a n ʈ u n n a uː n <no-speech> n u ʋ ʋ u eː n ʋ a n ɖ i n aː ʋ u 
[104.125]
<no-speech> 
[105.065]
eː n ʋ a n ɖ i n aː ʋ u a n ʈ u n n a <no-speech> aː h a s a ɹ e i ŋ k a <no-speech> 
[115.285]
l æː d u i ŋ k a t i n a l e i p p u ɖ u i n ʈ i k oː t͡ʃ t͡ʃ æː s t a o k a h aː f a n a ʋ a ɹ l o n æː n u uː n <no-speech> 
[126.895]
s a ɹ e uː n <no-speech> eː n ʋ a n ɖ i n aː ʋ u k uː ɹ a <no-speech> 
[138.385]
eː m i k uː ɹ a ʋ a n ɖ i n aː ʋ u <no-speech> a b b a e p p u ɖ u p a p p u t͡ʃ aː ɹ æː n a s a ɹ e i ŋ k a <no-speech> 
[148.815]
a d e i p p u ɖ u n u ʋ ʋ u t ɹ i a j i t e ʋ a d d u a n n aː ʋ u k a d a <no-speech> 
[158.535]
<no-speech> <hes> iː ɖ a k i ʋ e ɭ ɭ i b a s a s d o ɹ a k a ʋ u m a ɹ i n aː k u <no-speech> uː n s a ɹ e <no-speech> s a ɹ e 
[170.465]
uː n m aː m f oː n t͡ʃ æː s i n ɖ æ n iː k æː m a n n a ɖ a ɖ iː k i m a ɭ ɭ i <no-speech> 
[182.215]
<no-speech> uː n t i n n aː ɹ a m iː ɹ u <no-speech> 
[194.025]
eː n t i n n aː ɹ u <no-speech> 
[205.795]
a d e ɖ j aː ɖ æː n t͡ʃ æː s t u n ɖ u <no-speech> b a n ɖ i b aː g a t͡ʃ æː s t u n ɖ a m a ɭ ɭ i æː m a j i n d i <no-speech> uː n 
[217.345]
<no-speech> <sta> a d i n a b a ʈ ʈ a l u u t a k a m a n i t͡ʃ e p p i n aː n u k a d a <laugh> u t i k aː ʋ æ <no-speech> 
[229.195]
aː n <no-speech> <sta> i d i g o n æː n u m a f ɹ e n ɖ s t oː n i i p p u ɖ u k u d i ɹ i t e b a j a ʈ a k u p oː t a aː n l æː ʈ a j i t e l æː ʈ a j i t aː d i <no-speech> 
[241.155]
<no-speech> aː n <no-speech> <sta> e ʋ a ɹ a n n a f oː n t͡ʃ æː s i n ɖ ɹ æ ɖ a ɖ i f oː n k i m a f ɹ e n ɖ s <no-speech> 
[252.975]
<no-speech> n a n d u f oː n u a <no-speech> u h u <no-speech> 
[264.765]
u h u a n t æː n a i ŋ k e ʋ a ɹ u t͡ʃ e j j a l æː d æ <no-speech> u h u <no-speech> u h u 
[276.665]
<no-speech> a n æː n u p oː t e i p p u ɖ u m uː ʋ i k e ɭ t aː n u m a <no-speech> 
[288.345]
s a ɹ e a d i uː n uː n <no-speech> 
[297.655]
f ɹ e n ɖ s a n d a ɹ a m p oː t u n n aː m a m m a f ɹ e n ɖ s a n d a ɹ a m p oː t u n n aː m u <no-speech> ɹ æː p u k o t t a p i k t͡ʃ a ɹ a m 
[308.505]
k o t t a p i k t͡ʃ a ɹ u m a m m iː uː n <no-speech> n u ʋ ʋ u eː n t͡ʃ uː s t u n n aː ʋ u i p p u ɖ u ʈ i ʋ i l o <no-speech> 
[318.185]
n i <oov> n u ʋ ʋ u e ʈ l u n n a i p p u ɖ u i n ʈ l o s iː ɹ i j a l l u t͡ʃ uː s u k u n ʈ a k uː ɹ t͡ʃ u n ʈ aː ʋ u eː n t͡ʃ e j j aː l a t o n d a ɹ a g a i n ʈ i k o t͡ʃ t͡ʃ i t͡ʃ e p p u <no-speech> 
[329.925]
t͡ʃ e p p i n aː n u k a d a i p p u ɖ e e g z aː m p oː s ʈ p oː n a j i n d i <int> n aː k u <no-speech> 
[340.615]
<no-speech> 
[341.625]
u h u m a n oː ʋ i k a ʋ aː ɭ ɭ e p p u ɖ o s t a ɹ u <no-speech> m a n oː ʋ i k a ʋ aː ɭ ɭ e p p u ɖ o s t a ɹ u a n ʈ u n n a <no-speech> 
[352.905]
s aː j a n t ɹ a m a <no-speech> 
[358.295]
<no-speech> 
[360.325]
<no-speech> a m m a s a ɹ e uː n 
[370.785]
a d æː m a n ʈ a m a m a n a t͡ʃ t͡ʃ u i ŋ k a <oov> m a n oː ʋ i k a m aː ɹ n i ŋ g e ɖ ɹ a s ʋ æː s u k u p oː j aː ɹ u <no-speech> uː n 
[381.365]
a t͡ʃ t͡ʃ u m a n oː ʋ i k a m aː ɹ n i ŋ g e ɖ ɹ a s ʋ æː s u k o n i p o j j i n ɹ u a n ʈ u n n aː a t͡ʃ t͡ʃ u n a d͡ʒ a ɹ k i n ʋ æː s u k o n i p oː j i n ɖ æ a d e m o n n a t iː s u k o t͡ʃ t͡ʃ i n æ k a d a d͡ʒ a ɹ k i n a d͡ʒ a ɹ k i n ʋ æː s u k o n e ɭ ɭ i n ɖ æ 
[393.115]
ɖ a ɖ ʋ æː s u k u n ɖ a <no-speech> uː n m a ɹ i m a n oː ʋ i k a <no-speech> 
[400.015]
<no-speech> 
[400.915]
<no-speech> 
[402.165]
<no-speech> 
[403.295]
uː n <no-speech> uː n <no-speech> uː n <no-speech> s k aː ɹ f t iː s u k u n d æ 
[412.225]
<no-speech> 
[413.525]
<no-speech> eː d i e k aː ɹ p a t iː s u k u n n aː ʋ u 
[418.675]
<no-speech> 
[419.475]
<no-speech> 
[419.825]
<no-speech> 
[420.935]
a b ɹ au n k a l a ɹ d a <no-speech> aː h a <no-speech> 
[430.305]
<no-speech> 
[431.235]
<no-speech> 
[431.835]
<no-speech> 
[432.635]
<no-speech> uː n <breath> <hes> k ɹ iː m d i t iː s u k o n i p oː ʋ a t͡ʃ t͡ʃ u a n i n æː n u a d i u t i k æ p e ʈ ʈ u k u n n a <no-speech> 
[441.295]
<no-speech> 
[442.705]
<no-speech> 
[443.145]
<no-speech> 
[444.045]
<no-speech> n æː n u aː ɖ a <no-speech> 
[456.035]
b e l ʈ b e l ʈ æː ɖ a b e ʈ ʈ i n d i m a ɹ i <no-speech> b e l ʈ eː ɖ a p e ʈ ʈ i n d i a n ʈ u n n a <no-speech> 
[467.445]
p e ʈ ʈ u k o n i p o j j i n d æ <no-speech> 
[475.265]
<no-speech> 
[476.455]
<no-speech> aː n <no-speech> a ʋ u n u p o d d u n n e j i l p aː l i s u t iː s u k o n i p oː t aː n u a n n a d i k a d a p oː j i n d æ a d i 
[488.095]
<no-speech> 
[490.365]
<no-speech> 
[491.325]
<no-speech> uː n <no-speech> 
[499.805]
a n ʈ e a d i t͡ʃ e p p i n d i k a d a n e j i l p aː l i s u n e j i l p aː l i s u ʋ æː s u k o n i <laugh> p oː t a a n i t͡ʃ e p p i n d i k aː d a m m a uː n <no-speech> 
[511.005]
<no-speech> eː d o p ɹ a s t u t aː n i k i m aː ʈ l aː ɖ a m m a n aː k u m aː ʈ l aː ɖ u <no-speech> 
[522.915]
i ŋ k a <no-speech> uː n t iː s u k o n i p oː t a a n n a d i n e j i l ʂ aː ɹ p n a ɹ u n d a i n ʈ l oː n e p e ʈ ʈ i p o j j i n d æ t iː s u k o n i p o j j i n d æ 
[534.635]
<no-speech> t iː s k a p oː l æː d æ <no-speech> 
[545.005]
<no-speech> 
[546.005]
<no-speech> a <no-speech> 
[548.145]
<no-speech> 
[549.085]
n æː n u aː n aː ɖ a n e <hes> f ɹ e n ɖ ʋ aː ɭ ɭ i n ʈ i k e ʋ a t͡ʃ t͡ʃ i n aː n u n a n d u ʋ aː ɭ ɭ i n ʈ i k i <no-speech> 
[558.135]
<int> n a n d u ʋ aː ɭ ɭ i n ʈ i k i ʋ a t͡ʃ t͡ʃ i n aː k a aː n n æː n u n a n d u n æː n u n æː n u s a n t oː ʂ ɹ a ʋ iː n d ɹ a 
[569.055]
<no-speech> a n d a ɹ a m u n ɖ i k uː ɹ t͡ʃ u n i t͡ʃ a d u ʋ u t u n n aː m u aː n ʈ i ʋ a t͡ʃ t͡ʃ i n d a n a m aː ʈ a <hes> o k a a aː n n a n d u ʋ aː ɭ ɭ a i n ʈ i m u n d a ɹ a aː n ʈ i u n ʈ aː d i k a d a <no-speech> 
[579.955]
aː n aː n ʈ i ʋ a t͡ʃ t͡ʃ i t͡ʃ e p p i n d i <no-speech> <sta> uː n <no-speech> a n ʈ e <no-speech> 
[591.435]
a n d u k e i ŋ k a ʋ a t͡ʃ t͡ʃ i n aː n iː ɖ i k i a n t e <no-speech> 
[597.915]
<no-speech> 
[598.875]
n i n a t͡ʃ t͡ʃ u g aː ɖ u e ʈ ai m k o t͡ʃ t͡ʃ i n ɖ u <no-speech> uː n <no-speech> 
[610.125]
<no-speech> 
[611.275]
<no-speech> 
[611.655]
<no-speech> 
[612.585]
<no-speech> 
[616.265]
<no-speech> 
[616.339]
