[0.000]
<no-speech> 
[3.205]
<no-speech> 
[3.705]
<no-speech> 
[5.655]
h a l o 
[6.275]
<no-speech> 
[8.935]
h a l o <no-speech> aː n 
[10.485]
<no-speech> 
[13.405]
<no-speech> aː n <no-speech> 
[17.465]
<no-speech> 
[18.825]
<no-speech> h a l o <no-speech> 
[20.615]
<no-speech> 
[22.495]
s a ɹ i g g a ʋ i n a p a ɖ a ʈ l æː d u 
[24.145]
<no-speech> 
[28.075]

[28.575]
<no-speech> 
[31.035]
h a l o 
[31.605]
<no-speech> 
[35.795]
m aː ʋ aː ɖ u ʋ a t͡ʃ t͡ʃ u n ɖ e t͡ʃ e p p aː l i n iː k u aː n t͡ʃ e p p u ʋ i n a p a ɖ u t u n d i 
[39.595]
<no-speech> 
[43.175]
h a l o <no-speech> 
[44.905]
<no-speech> 
[45.865]
h a l o <no-speech> 
[48.905]
<no-speech> 
[50.075]
<sta> i n ʈ i k aː ɖ a i n ʈ i k aː ɖ a <no-speech> 
[52.215]
<no-speech> 
[54.105]
aː n 
[54.705]
<no-speech> 
[58.425]
p a t t i l oː ɖ u l æː d u eː n l æː d u eː n p a n i l æː d u p aː ʈ u l æː d u a n a ʋ a s a ɹ a ŋ g a 
[64.165]
<no-speech> 
[68.055]
g i ɹ aː k i k uː ɖ a d o ɹ u k u t a l æː ɹ u a d i a ʈ ʈ a n e u n n aː j i i n ʈ i k aː ɖ a n e eː n l æː d u 
[71.965]
<no-speech> 
[78.135]
aː n 
[78.885]
<no-speech> 
[82.935]
m aː m uː l u g a ɹ aː l æː d u k aː n i d aː n i k i ʈ ai n a j i p oː j i n d a n ʈ a a d i a d i u t t i i n ʈ i k aː ɖ a n e p e ʈ ʈ æː d i a n n æ g a ʈ ʈ i g aː n æ u n n aː d i a n ʈ u n n aː ɖ u 
[91.795]
<no-speech> 
[97.445]
<no-speech> n æː n u i n ʈ i k i i ŋ k a ɹ e n ɖ u m uː ɖ u ɹ oː d͡ʒ u l u a j i t aː d i 
[100.135]
<no-speech> 
[105.125]
aː n 
[105.875]
<no-speech> 
[109.295]
n æː n u s ʋ aː m i b aː b u 
[112.295]
<no-speech> 
[120.195]
æː j n a d a g g a ɹ a k aː ʋ u n æː n e t͡ʃ aː ʋ u t͡ʃ a s t u n n aː n a d æ p a ɹ i s t i t i n aː d e m a n t͡ʃ i g a l æː d u ɹ æː ʈ l u k aː ʋ aː l a k aː n i n æː n e a ɹ a ʋ ai ʋ æː l u k a ʈ ʈ i n æː n e i p p u ɖ u n aː t oː n u a j i t e k aː ʋ u n æː n e t͡ʃ aː ʋ u t͡ʃ a s t a p ai s a l u a ɖ u g u t a l æː ɖ u g a 
[132.825]
<no-speech> 
[137.945]
n aː t oː n u k aː d u p a d i ʋ æː l u k aː d u o k k a ɹ uː p aː j i k uː ɖ a k aː d u 
[140.635]
<no-speech> 
[146.825]
n u ʋ ʋ u a ɖ i g i n a p p u ɖ u e p p u ɖ ai n a i t͡ʃ t͡ʃ i n aː ʋ æ a n ʈ e n a d a g g a ɹ a u n ʈ e i j j o d d a l æː n i d æ e k k a ɖ a n u n t͡ʃ i t e t͡ʃ t͡ʃ i i ʋ ʋ a m a n ʈ aː ʋ u n æː n e a p p u l u p aː l u a j i p oː j i t͡ʃ aː ʋ t͡ʃ a s t a 
[154.635]
<no-speech> 
[160.575]
<oov> ɖ aː n a j i t e a ʈ l aː n e u n ʈ aː g a ɖ aː n a j i t e i ʈ l e n d u k u u n n a <no-speech> 
[164.535]
<no-speech> 
[167.325]
<no-speech> a d a n n i eː m i l æː d u 
[169.285]
<no-speech> 
[172.695]
aː n t͡ʃ e p p u 
[173.565]
<no-speech> 
[178.175]

[183.185]
<no-speech> 
[188.045]
n æː n u e k k a ɖ a m aː ʈ l aː ɖ a l æː d u m aː ʋ aː ɖ u a ʈ ʈ a n e m aː ʈ l aː ɖ i n aː ɖ u m aː ʋ aː ɖ u a ʈ ʈ e u n n aː ɖ u i ŋ k a ɹ aː l æː d u eː n l æː d u <int> 
[193.925]
<no-speech> 
[194.895]
<no-speech> 
[195.595]
<no-speech> 
[198.655]
<no-speech> <sta> eː m o b a j a ʈ a ʈ aː k a j i t e ai d u ʋ æː l u ai d u ʋ æː l u a n i ʋ i n a p a ɖ u t u n d i <no-speech> 
[205.035]
<no-speech> 
[209.225]
<no-speech> <sta> f aː ɹ ʈ i f ai ʋ ɖ eː s <no-speech> 
[212.425]
<no-speech> 
[215.945]
aː n 
[216.625]
<no-speech> 
[223.875]
æː j ʋ aː ɖ u t͡ʃ e p p æː d i a ʈ l a i ŋ k a m a n a n p oː t e k aː n i m a ɭ ɭ a m aː ʋ aː ɖ u a ʈ ʈ a n e u n n aː ɖ u m aː ʋ aː ɖ u p oː j i a ʈ ʈ a n e u n n aː ɖ u m aː ʋ aː ɖ u ʋ aː ɖ i k i ʈ e n ʃ a n u u n ʈ aː d i a n i t͡ʃ a p p u ɖ u t͡ʃ æː j a k u n n aː ɖ u 
[231.855]
<no-speech> 
[237.915]
<int> aː n s a ɹ e 
[238.775]
<no-speech> 
[239.575]
n u ʋ ʋ u n u ʋ ʋ u p oː j i n a p a n i a j i n d a <int> 
[240.975]
<no-speech> 
[243.765]
n u ʋ ʋ u p oː j i n a p a n i a j i p oː j i n d a 
[245.105]
<no-speech> 
[249.875]
<no-speech> 
[250.255]
<no-speech> 
[253.455]
<no-speech> 
[253.815]
<no-speech> 
[255.165]
<int> ɹ æː p u p o d d u n 
[256.125]
<no-speech> 
[260.125]
a n ʈ e i p p u ɖ u k a l a ʋ a ɖ a n ʈ a n a a s a l e 
[262.125]
<no-speech> 
[271.555]
aː n 
[272.125]
<no-speech> 
[277.805]
uː n 
[278.365]
<no-speech> 
[282.495]
g a ɖ a k æː s a ɹ i g a ɖ a k æː s a ɹ i ʋ e ɭ ɭ i p oː j i m iː ɹ u e k k a ɖ a u n n aː ɹ u i p p u ɖ u p ɹ a d͡ʒ e n ʈ 
[285.735]
<no-speech> 
[289.925]
e k k a ɖ a 
[290.645]
<no-speech> 
[294.295]

[295.515]
<no-speech> 
[298.675]
a d e a d e u p p a l s ai ɖ k a d a a d i t e l u s u i ŋ k a a ʈ u g a ɖ a k æː s a ɹ i k u 
[302.995]
<no-speech> 
[309.065]
aː n t i ɹ u p a t i g aː ɖ i k a 
[310.335]
<no-speech> 
[314.225]
e t i ɹ u p a t i g aː n i k i 
[315.395]
<no-speech> 
[318.435]
e t i ɹ u p a t i g aː n i k i ɹ a 
[319.625]
<no-speech> 
[324.065]
ʋ aː ɖ u ʋ aː ɖ u e l b i n a g a ɹ l o u n ɖ e 
[325.805]
<no-speech> 
[330.135]
aː n 
[330.785]
<no-speech> 
[336.275]
aː n h a <no-speech> n u ʋ ʋ u ʋ aː ɖ i ɹ uː m u l oː n e u n n aː ʋ æ 
[339.325]
<no-speech> 
[345.095]
aː n h a 
[345.795]
<no-speech> 
[347.095]
eː m i a n ʈ u n n aː ɖ u m a ɹ i 
[348.175]
<no-speech> 
[354.095]
a n ʈ e d æː n i d ʋ aː ɹ a a d i d æː n i k i a s a l u m iː ɹ u p oː j i n d i eː n p a n i k i eː n k a t a a d i <int> 
[358.765]
<no-speech> 
[367.065]
a ʈ u ʋ i ʂ a j a n eː m i t͡ʃ e p p a k u n ɖ a t e l u s u k oː k u n ɖ a 
[370.035]
<no-speech> 
[374.415]
aː n 
[374.955]
<no-speech> 
[381.755]
aː n h a 
[382.335]
<no-speech> 
[386.945]
aː n 
[387.435]
<no-speech> 
[391.085]
<no-speech> 
[391.455]
<no-speech> 
[393.245]
<no-speech> 
[393.885]
<no-speech> 
[395.235]
aː n 
[395.755]
<no-speech> 
[399.895]
<no-speech> 
[402.225]
<no-speech> 
[405.175]
aː n <no-speech> 
[407.125]
<no-speech> 
[410.055]

[411.775]
<no-speech> 
[415.835]
<int> n a t t oː ɖ u 
[416.615]
<no-speech> 
[419.795]
aː n <no-speech> 
[420.675]
<no-speech> 
[427.135]
eː n a n i a ɖ a g aː l i ɹ a m a ɹ i 
[428.415]
<no-speech> 
[431.895]
aː n <int> n u ʋ ʋ u <int> n aː k ai n a t͡ʃ e p p a l æː d u 
[434.935]
<no-speech> 
[439.595]
n aː t oː n u <int> k aː d u p ai s a l a t oː n i a j i t e ɹ aː k u a n i t͡ʃ e p p i n a 
[441.985]
<no-speech> 
[447.525]
<no-speech> s a ɹ e s a ɹ e 
[450.135]
<no-speech> 
[453.955]
<no-speech> i ŋ k æː m i u n n aː d i eː n l æː d u a n t a t͡ʃ aː ʋ u t͡ʃ a t͡ʃ t͡ʃ u ɖ u a j i n d i iː ɖ a i ŋ k a eː n t͡ʃ e p p i n a l aː b a n l æː d u t iː j i 
[461.465]
<no-speech> 
[462.665]
<no-speech> ʋ aː g u l æː d u a n t a n iː ɭ ɭ a t oː n æ s ʈ oː ɹ eː d͡ʒ u n d i ʋ aː ʈ a ɹ 
[467.025]
<no-speech> 
[468.435]
<no-speech> 
[469.215]
<no-speech> 
[470.405]
<no-speech> eː n l æː d u eː n l æː d u f u l ʈ ai ʈ a j i p oː t æː n æ ʋ a s t aː ʋ u <no-speech> 
[476.525]
<no-speech> 
[478.055]
h a l o 
[478.705]
<no-speech> 
[481.795]
aː n 
[482.325]
<no-speech> 
[484.215]
aː n t͡ʃ e p p u <no-speech> 
[486.335]
<no-speech> 
[487.645]
<no-speech> n aː t oː n u k aː d u b aː b u <int> n aː t oː n u k aː d u p ai s a l u ʋ i ʂ a j a n a j i t e n aː k u 
[491.695]
<no-speech> 
[495.065]
<no-speech> b a ŋ k u l o 
[496.985]
<no-speech> 
[498.755]
<no-speech> <sta> i p p u ɖ u b j aː ŋ k l o l oː n t iː j a ɖ a n e ʈ l a n i n a b j aː ŋ k l o <hes> eː n l oː n l æː ʋ u eː n p e ʈ ʈ i u n n a b uː m i p eː p a ɹ l u p e ʈ ʈ i n a b a n ɖ i t iː s t e b a n ɖ i 
[510.645]
<no-speech> <sta> eː m i b a n ɖ i <no-speech> 
[519.875]
<no-speech> 
[521.235]
<no-speech> 
[522.095]
<no-speech> 
[523.505]
aː f a ɹ u n n aː d o l æː d o t e l a ʋ a d u 
[527.155]
<no-speech> 
[533.635]
<no-speech> k a ʈ ʈ u k o b j aː ŋ k l o u n ʈ e t i p e ʈ ʈ u e ʋ a ɹ u ʋ a d d u a n n aː ɹ u p ai n p e ʈ ʈ a ɖ aː n i k i d aː n i k i p e ʈ ʈ u a n n a <no-speech> e k k a ɖ a k i p oː j i n a l a n d͡ʒ a k o ɖ u k u l u l a n t͡ʃ a n a ɖ i g i t͡ʃ aː ʋ d e ŋ g u t u n n aː ɹ u eː n p a n i a j i t aː d i 
[544.815]
<no-speech> 
[546.135]
<no-speech> 
[546.505]
<no-speech> 
[549.565]
<int> aː n 
[550.585]
<no-speech> 
[554.775]
l a n d͡ʒ a k o ɖ u k u l u ɖ j uː ʈ i t͡ʃ æː j a ɖ aː n i k i l æː d u ʋ aː ɭ ɭ a k i d e ŋ g a ɖ aː n i k i k aː s t a g a ʋ a ɹ n a m e n ʈ i t͡ʃ t͡ʃ æː d i s a ɹ i p oː t a l æː d u 
[564.965]
<no-speech> 
[569.965]
i ŋ k a a ʈ ʈ a n e u n n aː d i g æ ɹ æː p u 
[571.725]
<no-speech> 
[576.515]
h a l o 
[577.095]
<no-speech> 
[580.955]
eː n a p a n i t͡ʃ æː s t e m a n t͡ʃ i d e 
[583.085]
<no-speech> 
[587.395]
<no-speech> a d e a d e a n d a ɹ i a ʈ l a t a l a k aː j p a ʈ ʈ i n a ɹ u k k o s t æː n æ m a n t͡ʃ i g a u n ʈ aː d i <no-speech> 
[592.445]
<no-speech> 
[596.305]
<no-speech> s a ɹ e 
[597.045]
<no-speech> 
[600.380]
