[0.000]
<no-speech> 
[5.895]
h a l o 
[6.575]
<no-speech> 
[7.435]
<no-speech> aː n eː m i m iː ɹ æː m i t͡ʃ æː s t u n n aː ɹ e s aː j i ʋ a t͡ʃ t͡ʃ aː ɖ æ 
[11.825]
<no-speech> 
[12.685]
<no-speech> e n n i g a n ʈ a l a k i ʋ a t͡ʃ t͡ʃ aː ɖ u 
[16.155]
<no-speech> 
[17.095]
<no-speech> aː n h a b aː g aː n e ʋ a t͡ʃ t͡ʃ aː ɖ u g æ <no-speech> aː n a d e a k k a ɖ e d i g u t a a n n aː ɖ u 
[29.075]
<no-speech> aː n <int> i ŋ k æː n ʈ i <no-speech> p a n i a j i n d a aː n b aː g aː n e u n d i 
[34.595]
<no-speech> 
[35.815]
<no-speech> uː n i n ʈ l o u n n aː ʋ æ a j i t æː n u <no-speech> eː m o m o n n a m a ɭ ɭ i t iː s u k u ʋ e ɭ ɭ i t͡ʃ æː j i n t͡ʃ aː ɖ u m a ɹ i a d æː m o k a n n u n a l i p æː s u k u n n aː ɖ a n ʈ a ɖ aː k ʈ a ɹ eː m oː b aː g a t i ʈ ʈ i n d a n ʈ a s aː j i n i p a ʈ ʈ u k u n i t͡ʃ aː l a m iː ɹ u d a g g a ɹ u n ɖ i t͡ʃ uː ɖ o d d a n ɖ i t͡ʃ a n ʈ i p i l l aː ɖ u a k k a t͡ʃ æː t u l u p a ʈ ʈ u k u n i t͡ʃ uː ɖ a n u 
[56.535]
<no-speech> 
[57.455]
<no-speech> <no-speech> m a ɭ ɭ i aː p a ɹ eː ʃ a n t͡ʃ æː s t aː d i <no-speech> aː n <no-speech> aː n <no-speech> 
[69.065]
<no-speech> eː m o n a l i p æː ʃ aː ɖ a n ʈ a m a ɹ i e p p u ɖ u n a l i p æː ʃ aː ɖ o a m aː ʈ a a n n aː n u a n i ʋ aː ɖ i k i a n ɖ p o ɖ a ʋ u k oː p a n ʋ a t͡ʃ t͡ʃ i n d i 
[75.265]
<no-speech> 
[76.275]
<no-speech> uː n <no-speech> 
[80.175]
<no-speech> 
[81.745]
uː n <no-speech> aː n eː n t͡ʃ æː s t u n n aː ɹ o a d e e l a u n n aː ɹ o a n i i ŋ k æː n ʈ i 
[86.735]
<no-speech> 
[87.645]
<sta> t͡ʃ i n n i eː n t͡ʃ æː s t u n n aː ɖ u ʋ e ɭ t u n n aː ɖ a 
[89.635]
<no-speech> 
[90.875]
<no-speech> uː n <no-speech> uː n ʋ aː ɖ u e k k a ɖ i k i ʋ e ɭ ɭ aː ɖ u ʋ e ɭ ɭ aː ɖ æ k aː l eː d͡ʒ k i ʋ e ɭ ɭ aː ɖ æ m a ɹ i <no-speech> 
[102.805]
<no-speech> s oː m a ʋ aː ɹ a m ʋ e ɭ t aː ɖ a iː ɹ oː d͡ʒ u <int> i ŋ k a ɖ a b b u l u k a ʈ ʈ i ɹ aː ʋ aː l i a n n aː ɖ u m a ɹ i k aː l æː d͡ʒ l o <no-speech> s i n i m aː k i ʋ e ɭ ɭ aː ɖ æ 
[114.625]

[114.995]
<no-speech> 
[116.155]
<no-speech> aː n p a d i n ʈ i k æ n æː n u f oː n t͡ʃ æː s e s a ɹ i k e s i n i m aː h aː l l o u n n aː m u a n i t͡ʃ e p p aː ɖ u ʋ aː ɭ ɭ a f ɹ e n ɖ <no-speech> aː n 
[126.575]
<no-speech> 
[128.265]
<no-speech> aː n k aː d u <sta> e n d u k u e n d u k u ʋ a t͡ʃ t͡ʃ aː ɖ u t͡ʃ a d u ʋ u k oː ɖ aː n i k æː g a ʋ aː ɖ u ʋ a t͡ʃ t͡ʃ i n d i m a ɭ ɭ i s i n i m aː l a k i ʋ e ɭ ɭ a n iː k i 
[134.495]
<no-speech> 
[135.365]
<no-speech> aː n s aː ɹ l æː k a p oː t e i n ʈ i k i ʋ a t͡ʃ t͡ʃ æː j a ʈ a m a p a ɖ u k oː ʋ a ʈ a m a l æː k a p oː t e i ŋ k o k k a p a n i t͡ʃ uː s u k oː ʋ a ʈ a m a m aː n æː s i 
[147.035]
<no-speech> 
[148.445]
<no-speech> uː n <no-speech> 
[150.695]
<no-speech> 
[151.575]
<no-speech> m i a t t a g aː ɹ u ʋ aː ɭ ɭ u e l aː g u n n aː ɹ u 
[154.425]
<no-speech> 
[155.775]
<no-speech> e ʋ a ɹ u k i 
[160.065]
<no-speech> 
[160.955]
<no-speech> eː n k a t t i p iː ʈ a p a ɖ i n d æ a j j o <no-speech> a j j o m a ɹ i t a n a k i t iː s u k u ʋ e ɭ ɭ aː ɹ æ <no-speech> 
[172.745]
<no-speech> <sta> a j j a j j o p a n ɖ u g a p uː ʈ a <no-speech> 
[180.285]
<no-speech> 
[181.315]
<no-speech> a n a l æː d u m æː m u e l a u n n aː ɹ a n ʈ e b aː g aː n e u n n aː ɹ u a n i a n n aː ɖ u a n t e k aː n i a ʋ a n n i t͡ʃ e p p a l æː d u 
[187.605]
<no-speech> 
[189.305]
<no-speech> uː n i ŋ k æː n ʈ i 
[192.265]
<no-speech> 
[193.575]
<no-speech> uː n m i s uː ɹ i b aː b u f oː n t͡ʃ æː ʃ aː ɖ u d i g i n æ ɹ oː d͡ʒ u n e f oː n t͡ʃ æː ʃ aː ɖ u s aː j i k i ʋ aː ɖ u t͡ʃ e p p a k u n ɖ a ʋ a t͡ʃ t͡ʃ aː ɖ æ 
[200.375]
<no-speech> 
[201.725]
<no-speech> s uː ɹ i b aː b u k i 
[203.425]
<no-speech> 
[204.515]
t͡ʃ e p p a l æː d æ m a ɹ i ʋ a s t u n n a ʈ ʈ u 
[206.065]
<no-speech> 
[207.715]
<no-speech> <sta> aː n e k k a ɖ a u n n aː ʋ u ɹ æ p a n i k i ʋ e ɭ ɭ aː l i ɹ a m m a n i f oː n t͡ʃ æː s t e n æː n u h ai d a ɹ aː b aː d l o u n n aː n u a n ʈ e e n d u k u ʋ e ɭ ɭ aː ʋ u h ai d a ɹ aː b aː d a n n aː ɖ u l æː d u m a k a n n u aː p a ɹ eː ʃ a n k a n n u k a ɭ l u k a n i p i s t aː l æː d a n ʈ a aː p a ɹ eː ʃ a n t͡ʃ æː j i n t͡ʃ a ʈ aː n i k i t iː s u k u ʋ e ɭ ɭ aː m u a n i t͡ʃ e p p aː ɖ u <int> a n i t͡ʃ e p t e eː n eː m ai n d i k a ɭ ɭ a k i eː m ai n d i a n n aː ɖ u a n ʈ e k a ɭ l u a s a l u k a n i p i s t aː l æː d u <sta> m a a m m a m o k k a ɹ t e ʋ e ɭ ɭ a l æː n u ɹ a t oː ɖ u ɹ a m m a n d a n i ʋ e ɭ ɭ aː n u m a ɭ ɭ i aː p a ɹ eː ʃ a n t͡ʃ æː j i n t͡ʃ aː k a ʋ a t͡ʃ t͡ʃ æː s t aː n u a n i t͡ʃ e p p aː ɖ u m a ɹ i i ŋ k æː m i a n n aː ɖ o m a ɹ i 
[239.565]
<no-speech> 
[241.175]
uː n 
[241.955]
<no-speech> 
[243.465]
<no-speech> eː m o m æː m u a ɹ oː d͡ʒ u ʋ a t͡ʃ t͡ʃ aː m a n a ʈ aː n i k i e ʋ a ɹ u m aː ʈ a l æː d u m a n t i l æː d u m i ʋ aː ɭ ɭ u a j i t e n aː k u m a ɭ ɭ i ɹ aː b u d d i k uː ɖ a k aː l æː d u 
[249.705]
<no-speech> 
[251.375]
<no-speech> k uː ɖ a aː n s uː ɹ i b aː b u m aː ʈ l aː ɖ a l æː d u aː m e eː d o t͡ʃ i n a k k a o k k a ɹ t e m aː ʈ l aː ɖ i n d i <int> eː m i t͡ʃ æː s t u n n aː ɹ u a n i s uː ɹ i b aː b u a j i t e <int> m u k j a n a n t a m aː ɖ t͡ʃ u k u n i p ɹ a t͡ʃ a a n n aː ɖ u a n t e 
[264.905]
<no-speech> 
[266.295]
<no-speech> 
[268.055]
<no-speech> 
[269.615]
uː n m i a t t a g aː ɹ u k uː ɖ a s a ɹ i g g a m aː ʈ l aː ɖ a l æː d u n aː k ai t e t͡ʃ i ɹ aː k u ʋ a t͡ʃ t͡ʃ i n d i <sta> e n d u k u ʋ a t͡ʃ t͡ʃ aː m æ a n i p i n t͡ʃ i n d i a s a l u <no-speech> aː n <no-speech> 
[281.105]
<no-speech> 
[284.485]
<no-speech> 
[285.985]
<no-speech> uː n t͡ʃ i k k u ɖ u k aː j a l u b aː g a k aː s t u n n aː j a m iː k u 
[290.425]
<no-speech> 
[291.685]
<no-speech> ʋ aː ɖ u e g z aː m s a j i p oː j aː k a m a ɭ ɭ i ʋ a t͡ʃ t͡ʃ æː ʈ a p p u ɖ u p a m p iː j j u 
[296.115]
<no-speech> 
[297.385]
<no-speech> eː m o ʋ a s t aː n u a n n aː ɖ u m a ɹ i ʋ aː ɖ i i ʂ ʈ a n t͡ʃ uː s u k u n i <sta> ɹ a m m a n i t͡ʃ e p p aː m u m a ɹ i ʋ a s t aː n u a n ʈ e <oov> ʋ a t͡ʃ t͡ʃ æː j a m a n i t͡ʃ e p p aː n 
[308.305]
<no-speech> 
[309.115]
<sta> ʋ a t͡ʃ t͡ʃ e n e l a f a s ʈ ʋ a ɹ a k u u n n aː j a n ʈ a g æ e g z aː m s f a s ʈ ʋ a ɹ a k u u n n aː j a n n aː ɖ u m a ɹ i m a ɭ ɭ i e p p u ɖ u u n ʈ aː j o k a n u k k u n i ʋ a s t æː ɹ a a n i t͡ʃ e p p aː n s a ɹ e a n n aː ɖ u <no-speech> 
[321.045]
<no-speech> e p p u ɖ u 
[323.475]
<no-speech> 
[325.125]
<no-speech> m aː ɹ t͡ʃ l oː n a p e ɭ ɭ i 
[329.925]
<no-speech> 
[331.815]
m aː ɹ t͡ʃ l o a j i t aː d i p e ɭ ɭ i 
[333.465]
<no-speech> 
[334.325]
<no-speech> 
[334.715]
<no-speech> 
[335.605]
m aː ɹ t͡ʃ m uː ɖ u k o <int> n aː l u g u k u m uː ɖ o t aː ɹ iː k u a n u k u n ʈ a ʋ a t͡ʃ t͡ʃ i n d i a j i t e 
[338.825]
<no-speech> 
[339.745]
<no-speech> <sta> uː n h u uː n p e ɭ ɭ i k u d i ɹ i p oː j i n d æː n ʈ i eː n t͡ʃ æː s t aː ɖ u a p i l l oː ɖ u 
[345.655]
<no-speech> 
[346.505]
<no-speech> uː n h u <no-speech> uː n h u <no-speech> uː n 
[355.215]
<no-speech> 
[356.895]
<no-speech> uː n h u 
[359.775]
<no-speech> 
[362.925]
<no-speech> aː n h a 
[365.655]
<no-speech> 
[366.955]
ɹ a a j i t e <sta> i ŋ k a ʋ a s t aː n i k i k u d u ɹ u t aː d o k u d a ɹ a d u i l oː p a l a t a ɹ ʋ aː t a eː m o m a ɹ i ʋ a s t aː n u a n ʈ e m e l l i g a ɹ a m m a n i t͡ʃ e p p u ʋ iː ɖ æː m i t͡ʃ æː s t u n n aː ɖ u ʋ i n a j g aː ɖ u 
[374.755]
<no-speech> 
[375.845]
<no-speech> aː n <no-speech> 
[387.595]
<sta> uː n h u eː m o m a ɭ ɭ i p aː p a n d aː n i k i a s a l u b aː g oː l æː d u m a n i ʂ i b aː g a p aː ɖ a j i p oː j i n d i n a ɖ a ʋ a l æː k a p oː t u n d i <oov> ɹ e n ɖ u a ɖ u g u l u ʋ æː s æ s a ɹ i k e aː j aː s a n ʋ a t͡ʃ t͡ʃ æː s t u n d i a ʈ l a t͡ʃ i n n aː n n a g aː ɹ i k i k aː ɭ ɭ u ʋ i ɹ i g i n d a n ʈ a 
[399.355]
<no-speech> 
[399.955]
<no-speech> 
[402.565]
<no-speech> aː n h a d͡ʒ a j a t͡ʃ i n n a m ʋ aː ɭ ɭ a i n ʈ i k e 
[405.535]
<no-speech> 
[406.345]
<no-speech> aː n h a m o n n a n e ʋ e ɭ ɭ aː n p a n ɖ u g a ɹ oː d͡ʒ u n ɹ oː d͡ʒ u n ʋ e ɭ ɭ aː n <no-speech> m o n n a <int> 
[417.635]
<no-speech> e ʋ a ɹ u k i 
[425.545]
<no-speech> 
[426.405]
<no-speech> <sta> aː n ɹ aː n u a n i t͡ʃ e p p i n d a n ʈ a m æː m u ʋ e ɭ ɭ aː m u t͡ʃ i n n aː n n a k i k aː ɭ ɭ u ʋ i ɹ i g i n d a n ʈ a ʋ e ɭ ɭ i t͡ʃ uː s i ɹ a n ɖ i a n i a n ʈ æː n u i ŋ k a ɹ oː d͡ʒ u ʋ e ɭ ɭ aː n 
[436.805]
<no-speech> ʋ e ɭ ɭ i aː n ʋ e ɭ t e a s a l u b aː g aː l æː d u p aː p a n d aː n i k i t͡ʃ i n n a u n d i 
[441.315]
<no-speech> 
[442.155]
aː n t͡ʃ i n n a k uː ɖ a i d d a ɹ u p i l l a l a t oː n i d aː n i k i k u d u ɹ u t a l æː d u p aː p a n t͡ʃ æː s u k o l æː k a p oː t u n d i p a n i 
[446.145]
<no-speech> 
[448.615]
<no-speech> e ʋ a ɹ u ʋ aː ɭ ɭ a ʋ aː ɭ ɭ a a k k a t͡ʃ e l l e l u t͡ʃ a n i p oː t æ i ŋ k a a k k a ɖ e u n d a n ʈ a aː ʋ i ɖ a ɹ aː l æː d u b iː m a ʋ a ɹ a n l oː n æ u n d a n ʈ a <no-speech> 
[458.015]
<no-speech> 
[458.965]
uː n <no-speech> aː n p a n i m a n i ʂ i k uː ɖ a l æː d a n ʈ a t͡ʃ æː s u k oː l æː k a p oː t u n d i a s a l u p a n i a n t a <no-speech> 
[470.865]
<no-speech> uː n <no-speech> uː n <no-speech> 
[482.725]
<no-speech> n aː n i d a g g a ɹ a k i ʋ e ɭ t aː n u a n d i m a ɭ ɭ iː n u m a ɹ i aː n ʋ aː ɭ ɭ a a b b aː j i d a g g a ɹ a k i 
[493.135]
<no-speech> 
[494.375]
<no-speech> aː n ʋ aː ɭ ɭ a p i l l a l u ʋ aː ɭ ɭ u t͡ʃ uː ɖ aː l i ɹ a m m a n ʈ u n n aː ɹ u ɹ a a k k a ɖ a k i ʋ e ɭ t aː m u a n n aː ɹ u t͡ʃ i n n aː n n a g aː ɹ u 
[503.305]
<no-speech> 
[504.375]
<no-speech> j aː k s i ɖ e n ʈ <cough> a k k a ɖ e k aː ɭ ɭ u ʋ i ɹ i g i n d a n ʈ a b iː m a ʋ a ɹ a m u n æ 
[510.145]
<no-speech> 
[510.965]
<no-speech> uː n 
[513.175]
<no-speech> 
[514.435]
<int> eː m o p a n ɖ u g a k i a k k a ɖ a k i ɹ a m m a n d a n ʈ a k aː n i t͡ʃ i n n a aː n a n ɖ d uː ɹ a n m a ɭ ɭ i k aː ɭ ɭ u n a ɖ i s t æ t͡ʃ i n n aː n n a g aː ɹ i k i ʋ aː t͡ʃ i p oː t u n d a n i i ŋ k a n æː n e ʋ a t͡ʃ t͡ʃ aː n u a k k a ʋ iː ɭ ɭ u i d d a ɹ u eː m i t i ɹ u g u t aː ɹ u aː ʈ oː l oː n u 
[525.635]
<no-speech> ɹ oː ɖ ʋ a ɹ a k u ʋ a t͡ʃ t͡ʃ i aː ʈ oː e k k aː l i k aː ɭ ɭ æː m o n a ɖ i s t æ ʋ aː t͡ʃ i p oː t u n d i n aː n n a g aː ɹ i k i a n d u k a n i m æː m e ʋ a t͡ʃ t͡ʃ aː m u i ŋ k a a n i a n d i 
[532.825]
<no-speech> 
[534.585]
uː n a d i u n d i ʃ a n i ʋ aː ɹ a m u ʋ e ɭ ɭ i p oː t aː m u a n d i 
[538.875]
<no-speech> 
[540.225]
<int> uː n 
[541.335]
<no-speech> 
[542.595]
<no-speech> uː n <no-speech> uː n <no-speech> a d e b aː g a l æː d u p aː p a n b aː g a <no-speech> 
[555.565]
<no-speech> 
[557.515]
uː n i ŋ k æː n ʈ i 
[558.765]
<no-speech> 
[560.245]
<no-speech> 
[561.635]
<no-speech> 
[563.985]
<no-speech> 
[564.345]
<no-speech> uː n 
[566.205]
i ŋ k a <no-speech> <sta> aː n <no-speech> 
[571.995]
<no-speech> 
[573.005]
ʋ aː j i s æː n ʈ o k a ʈ a j i p oː t u n d i eː m i ʋ i n i p i n t͡ʃ a ʈ l æː d u <no-speech> m aː ʈ l aː ɖ u <int> m aː ʈ l aː ɖ u uː n <no-speech> 
[584.625]
<no-speech> 
[586.685]
<no-speech> 
[587.525]
<int> aː n t͡ʃ e p p u n i ʋ aː j i s b ɹ eː k a j i p oː t u n d i <no-speech> s i g n a l s s i g n a l l æː n a ʈ ʈ u n d i k a ʈ a j i b ɹ eː k a ʋ u t u n d i ʋ aː j i s <no-speech> aː n 
[599.265]
<no-speech> 
[600.040]
