[0.000]
<no-speech> 
[6.045]
h a l o 
[6.595]
<no-speech> 
[9.605]
m a l l æː ʃ a m a 
[10.445]
<no-speech> 
[13.245]
n a m a s t e a n n a 
[14.065]
<no-speech> 
[17.175]
n u ʋ ʋ u eː m i t͡ʃ æː s t u n n aː ʋ u a n n a f oː n l æː d u eː m i l æː d u eː n d i i d i a ʋ a s a ɹ aː l a k oː s a n l ai n l o u n ɖ u a n ʈ u n n aː ʋ u 
[21.365]
<no-speech> 
[25.745]
eː m o m aː k æː m i t e l u s u a n n a p e d d a ʋ aː ɭ ɭ u m iː ɹ u m a ɹ i eː m æː m i ʋ a n ʈ a l u 
[30.125]
<no-speech> 
[34.445]
aː n 
[34.875]
<no-speech> 
[36.475]
a d͡ʒ a j a n n æ 
[37.175]
<no-speech> 
[40.545]
a d͡ʒ a j k aː n i eː n d i a s a l u aː f a ɹ eː n d i eː n k a t a 
[42.875]
<no-speech> 
[46.605]
i p p u ɖ u m aː ʈ l aː ɖ u t u n n aː ʋ u g a m aː ʈ l aː ɖ u t͡ʃ e p p a ɹ aː d u <no-speech> uː n 
[49.685]
<no-speech> 
[53.705]
n æː n u m o n n a ʈ oː ɹ n a m e n ʈ l oː <no-speech> 
[58.225]
ʈ oː ɹ n a m e n ʈ l oː t iː s u k u ʋ a t͡ʃ t͡ʃ i n ɖ aː ɹ æ e b i s i ʈ oː ɹ n a m e n ʈ k i t iː s u k u ʋ a t͡ʃ t͡ʃ i n ɖ u 
[61.035]
<no-speech> 
[62.385]
ʈ oː ɹ n a m e n ʈ ɹ aː ʈ oː ɹ n iː 
[63.665]
<no-speech> 
[69.205]
eː n d i b oː j i l o p e ʈ ʈ i n ɖ ɹ u 
[71.425]
<no-speech> 
[73.065]

[73.595]
<no-speech> 
[84.485]
t iː s u k u ʋ a s t a t iː s u k u ʋ a s t a ʋ a s t a o k a ɹ e n ɖ u 
[86.895]
<no-speech> 
[88.825]
ɹ e n ɖ u ɹ oː d͡ʒ u l l o ʋ a t͡ʃ t͡ʃ i b a g i s t aː l e <int> a n n a i n d aː k e k a d a ʋ aː ɖ u b a g t e t͡ʃ t͡ʃ i 
[92.815]
<no-speech> 
[95.075]

[96.405]
<no-speech> 
[100.655]
n æː n u iː ɖ a n e u n n a <int> h ai d a ɹ aː b aː d l o i ŋ k æː ɖ a u n ʈ a 
[102.285]
<no-speech> 
[106.895]
æː m oː ɹ a a ʈ l a m aː ʈ l aː ɖ u t u n n aː ʋ u eː n d i ɹ a <laugh> 
[108.805]
<no-speech> 
[116.775]
aː ɖ a n a b a g u n d i k a d a n a b a g a j i t e u n d i k a d a a n ʈ u n n a 
[119.305]
<no-speech> 
[122.965]
aː n a n d u l o o k a ʈ i u n ʈ aː d i t͡ʃ uː ɖ u b a g 
[124.885]
<no-speech> 
[127.005]
aː ɖ a u n ʈ aː d i b e n a b a g eː n d i a n ʈ aː ʋ u 
[129.195]
<no-speech> 
[134.595]
aː n 
[135.125]
<no-speech> 
[138.275]
l ai ʈ g a t͡ʃ i n i g i p oː j i e n d u k u u n ʈ aː d i l ai ʈ g a a ʋ i 
[141.245]
<no-speech> 
[146.305]
aː n t iː s u k o e p p u ɖ u t iː s u k u ɹ aː ʋ aː l i 
[147.785]
<no-speech> 
[151.125]
aː n 
[151.625]
<no-speech> 
[153.175]

[153.615]
<no-speech> 
[155.305]
uː n n u ʋ ʋ u iː ɖ a m o t t a n p a n i t͡ʃ æː s t aː l æː ʋ a n ʈ a a ʈ u p oː t u n n aː ʋ a n ʈ a 
[160.505]
<no-speech> 
[164.125]
a ʈ u i ʈ u p oː t u n n aː ʋ a n ʈ a d aː ʋ a t i ʋ ʋ a ʋ a 
[166.195]
<no-speech> 
[169.915]
p oː t u n n aː ʋ a n ʈ a k a d a 
[170.855]
<no-speech> 
[175.355]
a n ʈ u n n aː ʋ a e n d u k u e n d u k u a n ʈ u n n aː ʋ u 
[177.445]
<no-speech> 
[180.055]
ɹ uː m l o e n d u k u p a n ɖ u k u n ʈ u n n aː ʋ u 
[181.135]
<no-speech> 
[185.315]
ɹ a m a ɹ i iː ɖ i k i ɹ a <int> i ŋ k a <foreign> t͡ʃ æː s u k u n d aː n 
[187.605]
<no-speech> 
[190.225]
ɹ aː ɹ a n i j a m m a p aː ɹ ʈ iː j a m m a p aː ɹ ʈ iː i ʋ ʋ aː l a n n aː ɹ a 
[193.415]
<no-speech> 
[199.865]
<no-speech> n i j a m m a n æː n u ʋ a s t e n æː n u <int> aː ɖ a k i ʋ a s t e n u ʋ ʋ u p aː ɹ ʈ iː i ʋ ʋ aː l a <int> iː ɖ a k i ʋ a s t e n æː n u i s t a 
[205.165]
<no-speech> 
[207.175]
n æː n u aː ɖ a k i ʋ a t͡ʃ t͡ʃ i n aː k a n u ʋ ʋ u p aː ɹ ʈ iː i ʋ ʋ aː l s i ʋ a s t aː d i a d e n æː n u n u ʋ ʋ e iː ɖ a k i ʋ a t͡ʃ t͡ʃ i n aː ʋ u a n u k o n æː n u 
[211.985]
<no-speech> 
[215.715]

[216.435]
<no-speech> 
[219.845]
s a ɹ e s a ɹ e ʋ a s t a i ʋ aː ɭ a e ʈ l a u n n aː ɹ u aː n ʈ i ʋ aː ɭ ɭ u 
[222.005]
<no-speech> 
[225.385]
<no-speech> 
[225.775]
<no-speech> 
[227.795]
u n d a <no-speech> 
[229.355]
<no-speech> 
[234.705]

[235.855]
<no-speech> 
[240.405]
uː n ɹ aː n i i d d a ɹ u 
[242.165]
<no-speech> 
[244.755]
d͡ʒ aː b ʋ a s t e n æː n u t͡ʃ e p p i n aː ɹ a 
[246.925]
<no-speech> 
[250.825]
j aː ɖ a n ai n ʈ i ɹ j aː ŋ k ʋ a t͡ʃ t͡ʃ i n d i n iː k u t e l iː d a t e l u s u k a d a ɹ a n ai n ʈ i ɹ j aː ŋ k ʋ a t͡ʃ t͡ʃ i n d i a n i 
[254.155]
<no-speech> 
[261.765]
uː n eː m i t͡ʃ æː d d aː n g ɹ a h a t͡ʃ aː ɹ a n a ʈ l a u n d i i ŋ k a 
[264.565]
<no-speech> 
[267.415]

[269.125]
<no-speech> 
[270.765]

[271.305]
<no-speech> 
[274.535]
eː n d i ɹ a <int> 
[275.195]
<no-speech> 
[276.595]
g a ʈ ʈ i g a m aː ʈ l aː ɖ u ɹ a 
[277.705]
<no-speech> 
[281.695]
æː m u n ʈ aː d i eː n d i 
[283.965]
<no-speech> 
[286.395]

[289.885]
<no-speech> 
[293.375]
aː n 
[293.945]
<no-speech> 
[296.755]
eː m i e n d͡ʒ aː j t͡ʃ æː s t u n n a i d i g o i p p a ʈ i d aː k a k aː l æː d͡ʒ l o s e l e k ʃ a n s u n n aː j i i ŋ k a f a s ʈ i j a ɹ p oː ɹ i l u ʋ a t͡ʃ t͡ʃ i n ɖ ɹ u k a d a b i ʈ e k ʋ aː ɭ ɭ u i e m s i æ ʋ aː ɭ ɭ u 
[304.225]
<no-speech> 
[306.645]
ʋ aː ɭ ɭ a n u s e l e k ʈ t͡ʃ æː j s e l e k ʈ t͡ʃ æː j aː l a n n a m aː ʈ a ʈ iː n u ɹ e n ɖ u ɹ oː d͡ʒ u l a n u n t͡ʃ i d a m d a m a ʋ u t u n d i ʋ aː ɭ ɭ a n i s e l e k ʈ t͡ʃ æː j a n iː k i 
[311.915]
<no-speech> 
[314.245]
m o t t aː n n i n æː n e n æː n e s e l e k ʈ t͡ʃ eː s æː d i a k aː l eː d͡ʒ m o t t aː n n i 
[317.575]
<no-speech> 
[320.685]
s u b b u g aː ɖ a e p p u ɖ o ʋ a t͡ʃ t͡ʃ i n ɖ u f oː ɹ o k l aː k u 
[324.665]
<no-speech> 
[325.775]
f oː ɹ o k l aː k e b a j a l u d æː ɹ i n ɖ u ɹ a k aː m p a s n u n t͡ʃ i 
[327.905]
<no-speech> 
[330.045]
uː n 
[330.465]
<no-speech> 
[336.915]
uː n h u eː m i l æː d u f oː n l æː d u eː m i ʋ a s t aː m u a n n a i ŋ k a p e d d a ʋ aː ɭ ɭ u a j i p oː j i n aː ɹ u k a d a 
[340.955]
<no-speech> 
[346.625]
a j j a a j j a a j j a <laugh> aː n 
[349.015]
<no-speech> 
[350.725]
<no-speech> 
[351.085]
<no-speech> 
[352.495]
<int> ʋ a d d u ɹ a a ɹ æː j a ɹ æː j t͡ʃ e p p a k u n u ʋ ʋ u e ʈ u f oː n m aː ʈ l aː ɖ u t aː l æ b a l e n s u n ʈ aː d i l e 
[355.745]
<no-speech> 
[359.545]
<no-speech> uː n t͡ʃ e p p a ɹ a t͡ʃ e p p u 
[361.155]
<no-speech> 
[366.375]
<no-speech> aː n 
[367.955]
<no-speech> 
[373.325]
s a n ɖ eː ɹ aː n u k aː n i s a n m a n ɖ eː n u n t͡ʃ i e g z aː m s u n n aː j i a ɹ æː j s aː ʈ a ɹ ɖ e ɹ aː ɹ a f ɹ e ʃ a ɹ s p aː ɹ ʈ iː u n d i m a ɭ ɭ i 
[377.785]
<no-speech> 
[380.665]
æː j n i j a m m a n æː n u u n n aː g aː ɹ a n iː k u e n d u k u s u b b u g aː ɖ u ʋ iː ɭ ɭ u a n d a ɹ u u n ʈ aː ɹ u ɹ a t iː s u k u n i ɹ a 
[385.385]
<no-speech> 
[387.245]
a ɹ æː j n i j a m m a m a n a m æː ɹ a n iː k u e n d u k u <int> a n ɖ m a n a ʋ aː ɭ ɭ æː ɹ a n u ʋ ʋ u e n d u k u 
[390.835]
<no-speech> 
[393.745]
aː n s aː ʈ a ɹ ɖ e u n ʈ aː d i <oov> s a n t u g aː ɖ u n u ʋ ʋ u ɹ aː n ɖ ɹ i 
[396.195]
<no-speech> 
[399.045]
aː n m a n a d æ m o ɖ ɖ a l u ɹ a 
[400.695]
<no-speech> 
[404.175]
<no-speech> 
[404.565]
<no-speech> 
[407.535]
n iː k u e n d u k u ɹ a n æː n u u n n a k a d a ɹ a n i j a m m a 
[409.565]
<no-speech> 
[411.565]
m a n a d æː ɹ a <foreign> n u ʋ ʋ u <int> ɹ a 
[413.155]
<no-speech> 
[414.215]
<no-speech> 
[414.615]
<no-speech> 
[417.925]
eː n d i <no-speech> 
[419.525]
<no-speech> 
[422.005]
e p p u ɖ u t͡ʃ e p t aː ʋ u 
[422.965]
<no-speech> 
[426.875]
<no-speech> 
[428.215]
<no-speech> 
[429.265]
<int> eː n d i i ŋ k a 
[430.515]
<no-speech> 
[431.335]

[432.265]
<no-speech> 
[433.215]
n e m b a ɹ eː n d i i d æː n d i 
[434.495]
<no-speech> 
[437.215]
n e m b a ɹ eː n d i f oː n eː n d i 
[438.575]
<no-speech> 
[445.975]
e k k a ɖ a 
[446.615]
<no-speech> 
[448.555]
<no-speech> e k k a ɖ a f ɹ iː p a ɹ s 
[450.475]
<no-speech> 
[451.385]
<no-speech> 
[451.785]
<no-speech> 
[458.155]
<int> m a ɹ i n a n e m b a ɹ i t͡ʃ t͡ʃ i n aː ʋ u 
[459.455]
<no-speech> 
[470.485]
p e d d a ʋ aː ɭ ɭ u a j i p oː j i n aː ɹ u a n n æ 
[471.915]
<no-speech> 
[474.305]
p e d d a ʋ aː ɭ ɭ u a j i p oː j i n aː ɹ u eː m ai n a t͡ʃ e p t aː ɹ u k a t a l u 
[476.095]
<no-speech> 
[479.885]
uː n 
[480.495]
<no-speech> 
[484.865]

[485.605]
<no-speech> 
[489.725]
t͡ʃ uː s i n aː ʋ æ m iː ɹ u t aː g u t u n n aː ɹ u m aː k u i k k a ɖ a n iː ɭ ɭ u t aː g a n iː k i n iː ɭ ɭ u l æː ʋ u <no-speech> 
[493.645]
<no-speech> 
[494.525]
m iː ɹ u b iː ɹ u t aː g u t u n n aː ɹ u 
[496.115]
<no-speech> 
[497.185]

[498.475]
<no-speech> 
[503.335]
ʋ a t͡ʃ t͡ʃ æː ʈ a p p u ɖ u ɖ a b b u l u l æː ʋ u ɹ a i p p u ɖ u n i j a m m a ʋ aː ɖ i k i t͡ʃ e p t e ɖ a b b u l e l æː ʋ u 
[509.535]
<no-speech> 
[512.215]
uː n i ŋ k a p oː ɹ i l u e ʋ a ɹ a n i a ɖ a g a ʈ l æː d u 
[514.035]
<no-speech> 
[517.475]
n i d͡ʒ a ŋ g a a ɖ a g a ʈ l æː d u p oː ɹ iː l a n u <no-speech> 
[519.635]
<no-speech> 
[522.985]

[524.565]
<no-speech> 
[526.475]
aː n 
[527.055]
<no-speech> 
[530.715]

[533.515]
<no-speech> 
[536.825]
uː n 
[537.175]
<no-speech> 
[540.405]
ɹ æː p u ʋ e ɭ t a 
[541.105]
<no-speech> 
[542.885]
aː n 
[543.385]
<no-speech> 
[546.005]
aː n 
[546.505]
<no-speech> 
[549.825]
k a ɹ a k ʈ u ʈ e n m i n i ʈ s m aː ʈ l aː ɖ aː l a i d i 
[551.395]
<no-speech> 
[556.155]
a d e k a ʈ a ʋ u t aː d a 
[557.155]
<no-speech> 
[559.355]
eː m u n d i <no-speech> aː n 
[561.425]
<no-speech> 
[565.725]
m a n ɖ eː n u n t͡ʃ i e g d͡ʒ aː m s ɹ aː 
[567.205]
<no-speech> 
[571.815]
<no-speech> 
[572.185]
<no-speech> 
[573.205]
m a ɹ i ʃ u k ɹ a ʋ aː ɹ a m k aː l t͡ʃ æː s i 
[575.745]
<no-speech> 
[581.655]
eː m o e p p u ɖ u u n n aː j o eː m o m a n ɖ eː n u n t͡ʃ i e p p u ɖ u a ʋ u t aː j o e n n i ɹ oː d͡ʒ u l u a ʋ u t aː j o 
[586.465]
<no-speech> 
[589.985]
<no-speech> n aː k u k uː ɖ a 
[592.275]
<no-speech> 
[593.355]
n aː k u k uː ɖ a a d e a n i p i s t u n d i m a n a m a n d a ɹ a n o k a s aː ɹ i k uː ɹ t͡ʃ u n d aː m a n i 
[595.995]
<no-speech> 
[599.315]
uː n 
[599.615]
<no-speech> 
[600.340]
