[0.000]
<no-speech> <sta> h a l o aː n t͡ʃ e p p u <no-speech> 
[6.835]
<no-speech> 
[7.735]
eː n t͡ʃ æː s t u n n aː ʋ u <no-speech> 
[9.275]
<no-speech> 
[11.865]
k aː l k a ʈ a j i n d i k a d a i n d aː k a l a a n d u k a n i k aː l m a ɭ ɭ i t͡ʃ æː s i n a <no-speech> aː n <no-speech> eː n ʈ i 
[22.325]
<no-speech> 
[24.805]
<no-speech> aː n 
[26.205]
<no-speech> 
[27.565]
a ʋ u n a i ŋ k æː n ʈ i eː n t͡ʃ æː s t u n n aː ʋ u t i n n aː ʋ a l æː d a 
[30.435]
<no-speech> 
[32.805]
h a l o t i n n aː ʋ a l æː d a <no-speech> 
[35.525]
<no-speech> 
[36.385]
h a l o 
[36.905]
<no-speech> 
[37.725]
aː n 
[38.385]
<no-speech> 
[39.725]
n æː n u n æː n u k uː ɖ a b a j a ʈ a k u p oː t u n n a <int> b a j a ʈ a k u p oː d aː m a n i b a j a l u d æː ɹ i n æ k aː l t͡ʃ æː s i m aː ʈ l aː ɖ u d aː n ʋ a s t aː ʋ o ɹ aː ʋ o a n æː s i a ɖ u g u d aː n a n i k aː l t͡ʃ æː s i n a ʋ a s t aː n a n ʈ æː ɹ a p oː d aː n <no-speech> ʋ a s t aː ʋ a <no-speech> 
[58.495]
<no-speech> 
[61.905]
aː n h a <int> e n d u k u e ʋ a ɹ u l æː ɹ a i n ʈ l o 
[65.045]
<no-speech> 
[66.565]

[67.415]
<no-speech> 
[69.015]

[69.575]
<no-speech> 
[71.835]
a ʋ u n a <hes> ɖ j uː ʈ iː k i ʋ e ɭ t aː l e m i p i l l a 
[77.235]
<no-speech> 
[80.105]
e n d u k u <int> a ʋ u n a 
[82.235]
<no-speech> aː n h a <no-speech> 
[87.395]
aː n <int> i ŋ k æː n ʈ i t͡ʃ e p p u 
[89.055]
<no-speech> 
[95.285]
aː n b a ʈ ʈ a l u k o n d aː m u a n æː s i p oː t u n n a 
[97.475]
<no-speech> 
[99.985]
<no-speech> 
[100.345]
<no-speech> 
[102.775]
b a j a ʈ a k u ʋ e ɭ d aː m u a n æː s i <int> b a j a ʈ a k u ʋ e ɭ d aː m u a n æː s i d u b aː j p oː d aː m u 
[107.465]
<no-speech> 
[108.385]
<no-speech> d u b aː j p oː n iː k i k o n t͡ʃ e n m a n t͡ʃ i g a u n ɖ aː l i k a d a b a ʈ ʈ a l u 
[111.425]
<no-speech> 
[112.435]
d͡ʒ aː b k oː s a n ʋ e ɭ t e <no-speech> 
[114.855]
<no-speech> 
[116.095]
<no-speech> 
[116.465]
<no-speech> 
[118.185]
a d e b a j a ʈ a k u ʋ e ɭ t u n n a <int> k a d a ɖ a b b u k o n t͡ʃ e n ɖ a b b u l u ɖ a b b u l u e k k u ʋ a ʋ a s t aː j i k a d a <no-speech> 
[124.525]
<no-speech> 
[125.465]
a n d u k a n i <sta> i p p u ɖ e k o n u k k u n i p oː t u n n a b a ʈ ʈ a l u a k k a ɖ a u n ɖ a n iː k i b a ʈ ʈ a l u u n ɖ aː l i k a d a b a ʈ ʈ a l u l æː k u n ɖ a e ʈ l a p oː t aː n 
[131.305]
<no-speech> 
[139.345]
eː n k a ʈ n a n i ʋ ʋ aː l i k a ʈ n a n eː n i ʋ ʋ a n 
[141.525]
<no-speech> 
[142.435]
k a ʈ n a n l æ 
[143.585]
<no-speech> 
[145.365]
a ʋ a ʈ l aː n e t͡ʃ æː s u k u n ʈ aː ɹ u <int> i ŋ k e ʈ l a t͡ʃ æː s u k u n ʈ aː ɹ u e n d u k u t͡ʃ æː s u k oː ɹ u 
[150.165]
<no-speech> 
[153.355]
g oː l ɖ t͡ʃ æː j i n t͡ʃ u k oː l æː d u u n n aː ʋ e ʋ i ɖ i p i n t͡ʃ u k oː l æː d u g oː l ɖ 
[156.215]
<no-speech> 
[158.535]
a n n i p e ʈ ʈ u n n aː j i g oː l ɖ 
[161.705]
<no-speech> 
[162.505]
<no-speech> i ŋ k æː n d i p e ʈ ʈ æː d i u n d i aː ɖ a p e ʈ ʈ æː d i l æː d u t͡ʃ a t͡ʃ t͡ʃ æː d i l æː d u g oː l ɖ m o t t a n ʋ a ɖ ɖ iː k i p e ʈ ʈ æː s u n d i aː ɖ a a d e ʋ i ɖ i p i n t͡ʃ u k u n ʈ æ t͡ʃ aː l u i ŋ k a j aː ɖ a k o n æː ʈ a ʈ ʈ u n n a 
[174.365]
ɖ j uː ʈ iː k i p oː t æː n æː m o 
[179.115]
<no-speech> 
[181.895]
ʋ i ɖ i p i n t͡ʃ u k u n ʈ a <int> k aː n i ʈ ai n p a ɖ a t aː d i 
[184.805]
<no-speech> 
[186.405]
aː n 
[187.255]
<no-speech> 
[192.155]

[193.285]
<no-speech> 
[195.015]
<no-speech> p e ʈ ʈ i n aː k a a n ʈ e p e ʈ ʈ i n aː k a a n n i t iː j a n iː k i ɖ a b b u l u k aː ʋ aː l i k a d a <int> m u p p a j i ʋ æː l u k aː ʋ aː l i n a l a b ai ʋ æː l u k aː ʋ aː l i æː ɖ a k i ʋ e ɭ ɭ i t æː ʋ aː l i 
[204.495]
<no-speech> 
[206.295]

[206.705]
<no-speech> 
[209.385]
eː m i ʋ a d d u l e a ʋ i a n t a <int> n u ʋ ʋ e n d u k u ʋ i ɖ i p iː j a ɖ a n n æː n e ʋ i ɖ i p i n t͡ʃ u k u n ʈ a 
[213.875]
<no-speech> 
[215.045]

[215.895]
<no-speech> 
[216.835]
aː n 
[218.735]
<no-speech> 
[219.985]

[221.005]
<no-speech> 
[223.425]
aː n ɖ j uː ʈ i t͡ʃ æː j a ʈ l æː d u k aː n i ɖ j uː ʈ i ɖ a b b u l u ʋ a s t aː j i k a d a t͡ʃ æː s i n a ɹ oː d͡ʒ u l a ʋ i <breath> a ʋ i k o n n i u n n aː j i 
[229.385]
<no-speech> 
[238.785]

[240.515]
<no-speech> 
[241.325]

[241.865]
<no-speech> 
[243.495]
aː n ʋ a t͡ʃ t͡ʃ i n a p p u ɖ æ t iː s u k u n ʈ a i ŋ k æː m i t͡ʃ eː s æː d i u n d i i p p u ɖ u ʋ a ɖ ɖ i k a ʈ ʈ aː l i k a d a ʋ a ɖ ɖ i ɖ a b b u l u ʋ a s t e t͡ʃ aː l u m u n d u ʋ a ɖ ɖ i <int> k a ʈ ʈ a n iː k æ ɖ a b b u l u l æː ʋ u i p p u ɖ u i ŋ k a ʋ a ɖ ɖ i ɖ a b b u l u k a ʈ ʈ u k o n i o k a aː ɹ u n e l l u m uː ɖ u n e l l u k a ʈ ʈ u k u n ʈ æ a ʋ i ʋ a t͡ʃ t͡ʃ i n aː k a ɖ a b b u l u ʋ i ɖ i p i n t͡ʃ u k u n ʈ a i ŋ k a eː m i t͡ʃ eː s æː d i u n d i <no-speech> 
[258.725]
<no-speech> 
[260.725]

[261.465]
<no-speech> 
[266.525]

[267.335]
<no-speech> 
[274.005]
<no-speech> 
[274.725]
<no-speech> 
[279.185]
p a n u l u k aː ʋ u k a d a 
[284.385]
<no-speech> 
[285.515]
p a n u l u e ʈ l a a ʋ u t aː j i 
[287.265]
<no-speech> 
[293.295]
<sta> e n d u k u o k a ɹ oː d͡ʒ u t͡ʃ æː j aː l i o k a ɹ oː d͡ʒ u t͡ʃ æː j a k a p o 
[296.020]
