[0.000]
<no-speech> 
[0.815]
<no-speech> 
[3.995]
<no-speech> 
[6.545]
h a l o 
[7.145]
<no-speech> 
[9.135]
<no-speech> aː n <no-speech> 
[11.815]
<no-speech> 
[15.715]
i k k a ɖ a h ai d a ɹ aː b aː d l o u n n a 
[17.035]
<no-speech> 
[22.875]
eː m i 
[23.875]
<no-speech> 
[24.715]
<no-speech> 
[25.415]
<no-speech> 
[28.205]
<no-speech> <sta> aː n t i n n æ <no-speech> 
[33.795]
<no-speech> 
[35.375]
<no-speech> <sta> aː n t͡ʃ uː s u k u n ʈ aː n u a n n æ 
[39.765]
<no-speech> 
[44.505]
m aː ʈ l aː ɖ u d aː m u a n n a k aː n i a k aː l a j i p oː j i n d a n ʈ a 
[46.985]
<no-speech> 
[48.605]
a ʈ l aː n e 
[49.185]
<no-speech> 
[52.525]
<no-speech> aː n h ai d a ɹ aː b aː d l o u n n aː n u 
[54.895]
<no-speech> 
[59.365]
aː n <no-speech> 
[61.265]
<no-speech> 
[65.885]
t͡ʃ æː s i n ɖ u <no-speech> 
[68.015]
<no-speech> 
[71.715]
eː m a n n aː ɖ u b a s l o u n n a f oː n <int> f oː n l i f ʈ t͡ʃ æː j a l æː d u 
[75.905]
<no-speech> 
[78.065]
<no-speech> 
[78.435]
<no-speech> 
[81.095]
<no-speech> aː n <no-speech> 
[85.155]
<no-speech> 
[86.625]
t͡ʃ æː j a l e n a d aː n ʈ l o b a l e n s l æː d u t͡ʃ æː j a l æː d u <no-speech> 
[89.835]
<no-speech> 
[93.315]
<no-speech> aː n 
[95.185]
<no-speech> 
[98.775]
aː n t͡ʃ æː s i n ɖ u 
[100.195]
<no-speech> 
[103.925]
m ai k ɹ oː m j aː k s 
[104.815]
<no-speech> 
[110.645]
eː d i t͡ʃ eː j a l æː d u g æ <int> 
[112.005]
<no-speech> 
[116.085]
t͡ʃ æː s i n ɖ u <no-speech> 
[118.395]
<no-speech> 
[120.435]
<sta> i n ʈ i d a g g a ɹ a u n n aː ɖ a n ʈ a <no-speech> a j i t e f oː n t͡ʃ æː s t u n ɖ u ʋ aː ɖ u æː m a n i a n ʈ e i k k a ɖ a ɹ a m a i n ʈ i k i ɹ a a n n a a n ʈ e 
[130.445]
<no-speech> ɹ aː n u t a m m u ɖ u a n ʈ aː n u <int> n u ʋ ʋ æː ɹ a a n ɖ 
[133.655]
<no-speech> 
[137.205]
o k k a ɖ e u n n aː ɖ a n ʈ a <no-speech> 
[140.255]
<no-speech> 
[141.065]
<no-speech> ʋ aː ɭ ɭ a a m m a n aː n n a u n n aː ɹ u <no-speech> 
[145.045]
<no-speech> 
[148.985]
a n ʈ e i ʋ aː ɭ a h aː l i ɖ eː k a d a 
[150.415]
<no-speech> 
[151.385]
<no-speech> 
[151.995]
<no-speech> 
[154.575]
aː n <no-speech> 
[157.355]
<no-speech> 
[158.365]
<no-speech> 
[158.715]
<no-speech> 
[161.075]
<no-speech> 
[161.435]
<no-speech> 
[165.495]
eː m i l æː d u <no-speech> p a n i g u ɹ i n t͡ʃ e t i ɹ u g u t u n n a 
[170.955]
<no-speech> 
[171.955]
aː n h a <no-speech> 
[173.605]
<no-speech> 
[181.405]
aː n h a 
[182.105]
<no-speech> 
[192.255]
<no-speech> 
[192.845]
<no-speech> 
[194.075]
<no-speech> <sta> aː l oː t͡ʃ i n t͡ʃ a l æ i n ʈ l o a ɖ i g i t e æː m a n ʈ aː ɹ o t͡ʃ uː ɖ u i n ʈ l o a ɖ i g i t e <hes> eː n t͡ʃ e p t aː ɹ o t͡ʃ uː d d aː n a n i t͡ʃ e p p i aː l oː t͡ʃ i n t͡ʃ a l æː d u 
[202.695]
<no-speech> 
[207.205]
<no-speech> 
[207.605]
<no-speech> 
[218.055]
<no-speech> 
[228.505]
uː n 
[229.205]
<no-speech> 
[236.395]
i n ʈ l o t i n a l æː d u 
[237.615]
<no-speech> 
[238.785]
aː n <int> 
[240.005]
<no-speech> 
[243.225]
aː n h a b a j a ʈ a n e p o d d u n ʈ i f i n t͡ʃ æː s i n a 
[245.255]
<no-speech> 
[250.325]
n i n a k k a ɖ a ɖ j uː ʈ i g u ɹ i n t͡ʃ e m aː ʈ l aː ɖ a ʈ aː n i k i ʋ e ɭ ɭ u n ɖ æ 
[253.205]
<no-speech> 
[255.925]
a j i t e a s aː ɹ k a l a ʋ a l æː d u k a l a ʋ a k a p oː t e ɹ æː p u p o d d u n n a ɹ a b aː b u a n e 
[259.085]
<no-speech> 
[259.945]
ɹ æː p u p o d d u n a n ʈ æ <int> a ʈ u n u n t͡ʃ i a ʈ ʈ e <int> ʋ e ɭ ɭ u n ɖ æ 
[263.185]
<no-speech> 
[266.405]
<no-speech> <oov> a ʈ l aː n e k o d d i g a l ai s e n s p a n u n ʈ e 
[269.635]
<no-speech> 
[273.145]
o ɹ i d͡ʒ i n a l l æː d u g a n aː d i 
[274.475]
<no-speech> 
[279.645]
aː n m a ɭ ɭ a i s t aː n u a n n aː ɖ u i ŋ k a p oː ʋ aː l i 
[282.495]
<no-speech> 
[286.165]
aː n h a 
[287.155]
<no-speech> 
[291.835]
a ɹ d a ŋ k aː l æ 
[292.615]
<no-speech> 
[299.835]
i d i i p p u ɖ u ɖ uː p l iː k eː ʈ u n d i g æ n aː k aː ɖ a 
[301.945]
<no-speech> 
[304.115]
a ɖ uː p l iː k eː ʈ n e m b a ɹ u n ʈ aː d i k a d a 
[306.015]
<no-speech> 
[308.525]
d aː n i g u ɹ i n t͡ʃ i t a d aː n n i t͡ʃ uː s i i s t aː ɖ u m a ɭ ɭ a k o t t a d i <no-speech> 
[313.565]
<no-speech> 
[314.995]
<no-speech> 
[315.385]
<no-speech> 
[318.345]
<no-speech> 
[320.305]
<no-speech> 
[324.955]
eː m o t e l i j a d u aː n ɖ a b b u l u i ʋ ʋ aː l i n aː k u d a m d a m <int> a ʋ u t u n d i 
[330.825]
<no-speech> 
[334.795]
<int> i s t aː n u a n n aː ɖ u k aː n i eː m o m a ɭ ɭ a 
[338.395]
<no-speech> 
[342.665]
<no-speech> 
[343.025]
<no-speech> 
[345.385]
i ʋ ʋ a k a p oː t æ i ŋ k a a ɖ a g a n u 
[347.035]
<no-speech> 
[351.415]
e k k u ʋ a eː n k aː d u 
[354.685]
<no-speech> 
[360.950]
<no-speech> 
[367.215]
l æː ʋ u 
[367.825]
<no-speech> 
[370.625]
aː n 
[371.205]
<no-speech> 
[374.095]
aː n aː n 
[374.795]
<no-speech> 
[377.425]
aː n <int> i n ʈ l oː n e u n n aː ɖ u 
[379.085]
<no-speech> 
[386.925]
<no-speech> <sta> p ɹ a s t u t aː n i k i i k k a ɖ a m a i n ʈ i g a l l iː l o u n n a 
[391.045]
<no-speech> 
[393.335]
<no-speech> 
[394.455]
<no-speech> 
[397.635]
<no-speech> 
[398.025]
<no-speech> 
[402.935]
<no-speech> uː n <no-speech> 
[408.625]
<no-speech> 
[410.115]
aː n <int> a p p u ɖ e aː ɹ u t e l l a ʋ aː ɹ u a j i n d i i ŋ k a e k k a ɖ a <no-speech> 
[416.175]
<no-speech> 
[417.175]
<no-speech> <no-speech> 
[421.395]
<no-speech> 
[424.435]
<no-speech> 
[425.255]
<no-speech> 
[426.585]
<no-speech> 
[427.305]
<no-speech> 
[430.555]
aː n 
[431.195]
<no-speech> 
[435.245]
a ʈ ʈ a n e ʋ aː s a n ʋ a s t u n d i ʋ aː s a n ʋ a s t u n d i a ʈ ʈ a n e u n n aː d i 
[437.765]
<no-speech> 
[440.275]
uː n 
[441.045]
<no-speech> 
[443.945]
<no-speech> 
[444.325]
<no-speech> 
[445.685]
<no-speech> 
[446.855]
<no-speech> 
[451.555]
<no-speech> <sta> t͡ʃ e p p aː l i i ŋ k a 
[454.415]
<no-speech> 
[458.435]
aː n <no-speech> 
[459.375]
<no-speech> 
[461.765]
aː n h a <no-speech> 
[463.185]
<no-speech> 
[466.455]
p a ɖ ɖ aː j i <no-speech> 
[467.925]
<no-speech> 
[472.635]
s uː p a ɹ h i ʈ b a m p a ɹ h i ʈ a n ʈ u n n aː ɹ u g a b aː g u n d a n ʈ a g a 
[475.855]
<no-speech> 
[480.005]
aː n h a ɖ a b b i ŋ g 
[481.685]
<no-speech> 
[486.605]
s a n d͡ʒ a j s a n d͡ʒ a j d a t 
[488.605]
<no-speech> 
[489.725]
ʋ e ŋ k a ʈ æː ʃ <no-speech> uː n <no-speech> 
[494.445]
<no-speech> 
[495.415]
<no-speech> 
[496.905]
<no-speech> 
[498.245]
<no-speech> 
[499.895]
<no-speech> 
[504.535]
aː n t͡ʃ uː ɖ aː l i <hes> n iː t oː n e m aː ʈ l aː ɖ a ʋ a t͡ʃ t͡ʃ a <int> 
[509.395]
<no-speech> 
[514.635]
ʋ eː ɹ æː ʋ i æː ʋ ai n a u n ʈ e <no-speech> 
[516.785]
<no-speech> 
[519.955]
s a ɹ e 
[520.455]
<no-speech> 
[524.855]
aː n h a <no-speech> 
[525.915]
<no-speech> 
[530.705]
<no-speech> 
[532.105]
<no-speech> 
[533.345]
t͡ʃ æː j a l æ 
[534.225]
<no-speech> 
[535.575]
t͡ʃ eː j a l æː d u g æ 
[536.425]
<no-speech> 
[539.785]
t͡ʃ uː ɖ a l æː d u m aː k u ʋ a s t aː l æː d u <no-speech> 
[542.495]
<no-speech> 
[551.095]
<no-speech> <sta> t͡ʃ e p p a n ɖ i <no-speech> 
[554.855]
<no-speech> 
[556.115]
aː n <int> t͡ʃ e p p a n ɖ i s aː ɹ 
[557.325]
<no-speech> 
[562.025]
aː n 
[562.515]
<no-speech> 
[566.365]
t͡ʃ e p p aː l i m iː ɹ e 
[568.265]
<no-speech> 
[574.715]
<no-speech> 
[581.165]
p oː ɹ a 
[581.885]
<no-speech> 
[589.565]
<no-speech> aː n e n d u k u <no-speech> 
[592.115]
<no-speech> 
[598.085]
<no-speech> aː n 
[599.325]
<no-speech> 
[600.400]
