[0.000]
<no-speech> 
[0.145]
<no-speech> 
[1.695]
<no-speech> 
[3.175]
<no-speech> 
[3.735]
<no-speech> 
[9.155]
<no-speech> k o n t͡ʃ e n ɖ a ɖ iː k i i ʋ ʋ a m m a ʃ ɹ iː n u 
[11.755]
<no-speech> 
[17.375]
<sta> s i d d u 
[18.305]
<no-speech> 
[20.075]

[21.395]
<no-speech> 
[23.725]
s u b b aː ɹ aː ʋ u g aː ɹ u n a m a s t e 
[25.425]
<no-speech> 
[27.875]
<int> i n ʈ l o u n n aː ɹ æ 
[29.345]
<no-speech> 
[31.995]

[33.355]
<no-speech> 
[35.405]

[37.445]
<no-speech> 
[41.455]
<int> n iː k u <no-speech> 
[43.235]
<no-speech> 
[48.075]
<sta> a t͡ʃ t͡ʃ aː t͡ʃ t͡ʃ a m o n n a ʋ e ɭ ɭ aː ʋ æ f a ŋ k ʃ a n k i ʋ e ɭ ɭ aː ʋ æ 
[50.355]
<no-speech> 
[54.065]
<sta> a 
[54.825]
<no-speech> 
[58.895]
k aː n i ʋ e ɭ ɭ a l æː d u n aː k u k o n t͡ʃ e n i k k a ɖ a n e aː k t͡ʃ u ʋ a l l iː p uː d͡ʒ a t͡ʃ æː s t u n d i m a k a d͡ʒ i n a k k a ɖ e t͡ʃ aː l a l æː ʈ a j i p oː j i n d i iː ʋ i n i ŋ g s i k s ʈ a ɹ ʈ iː a j i n d i a k k a ɖ e s i k s ʈ a ɹ ʈ iː t a ɹ ʋ aː t a n æː n u p e ɭ ɭ i k i ɹ aː ʋ aː l i n aː l u g u g a n ʈ a l a k u 
[68.825]
<no-speech> 
[70.055]
<hes> n aː l u g u g a n ʈ a l a t a ɹ ʋ aː t a eː n t͡ʃ æː d d aː n a n i ʋ e ɭ ɭ a l æː d u 
[72.155]
<no-speech> 
[80.445]
<sta> i ŋ k æː m i ɹ a 
[81.675]
<no-speech> 
[83.665]
<sta> e k k a ɖ i k i ʋ e ɭ ɭ i n aː ʋ 
[85.605]
<no-speech> 
[88.105]
<sta> s a ɹ e a ʋ i ɖ i e k k a ɖ a k e ɭ ɭ i n d i a n ʈ e ʋ aː ʈ i k i a ʋ i ɖ i ɹ aː l æː d æ 
[92.235]
<no-speech> 
[94.385]
<sta> s a ɹ i t e k a l i s i ʋ e ɭ ɭ æː ɹ æ 
[95.965]
<no-speech> 
[97.225]
<no-speech> 
[98.105]
<no-speech> 
[99.055]
<int> 
[102.845]
<no-speech> 
[105.125]
<sta> 
[106.395]
<no-speech> 
[108.775]
<sta> aː h a ʃ ai n i eː m i t͡ʃ æː s t aː d i i p p u ɖ u <no-speech> 
[112.205]
<no-speech> 
[115.085]
<sta> a n ʈ e b i k aː m f a s ʈ i j a ɹ t͡ʃ æː s t u n d a 
[116.825]
<no-speech> 
[118.085]
oː k eː l aː n t͡ʃ k u ʋ e ɭ ɭ aː ɹ aː d u 
[119.645]
<no-speech> 
[122.035]
l a l i t a g aː ɹ u i l aː n n aː ɹ u 
[123.225]
<no-speech> 
[125.845]
<foreign> <breath> n aː k u ʋ i ʃ e s t͡ʃ e p p a n ɖ i 
[128.225]
<no-speech> 
[130.995]
<no-speech> m i a n n a j e l a u n n aː ɹ u ɖ a ɖ i 
[133.815]
<no-speech> 
[136.795]
<foreign> e k k a ɖ a u n n aː ɹ u a j i t e a n n a i p p u ɖ u <hes> a d e m a l k aː d͡ʒ g i ɹ i l oː n a l æː k a p oː t e <int> 
[142.795]
<no-speech> 
[144.955]
<sta> k uː k a ʈ p a l l i l o u n n aː ɹ æ 
[146.465]
<no-speech> 
[150.735]
aː n k a ɹ a k ʈ e 
[152.425]
<no-speech> 
[156.875]
<hes> oː k eː oː k eː <no-speech> s a ɹ e 
[159.195]
<no-speech> 
[166.035]
<int> ai ʈ i p i e l k aː l a n iː j a 
[167.555]
<no-speech> 
[170.325]
<int> a k k a ɖ a e ʋ a ɹ u l æː ɹ e 
[171.625]
<no-speech> 
[176.985]
<no-speech> 
[177.535]
<no-speech> 
[185.005]
<hes> t͡ʃ e p p u ai ʈ i p i e l k aː l a n iː k i m o n n a ʋ e ɭ ɭ aː n u n æː n u 
[189.005]
<no-speech> 
[190.715]

[191.205]
<no-speech> 
[192.935]
<sta> e ʋ a ɹ u 
[193.735]
<no-speech> 
[201.105]
<int> l æː d u ai ɖ i p i e l k aː l a n i a n ʈ e ai ɖ i p i e l ʋ aː ɭ ɭ a oː n ɖ oː n ɖ b ai ɖ e m k a d a ʋ aː ɭ ɭ e oː n a ɹ s u k a d a <no-speech> ai ɖ i p i e l ʋ aː ɭ ɭ u 
[208.215]
<no-speech> 
[212.745]
aː n <int> 
[213.375]
<no-speech> 
[219.695]

[220.505]
<no-speech> 
[223.925]
<sta> aː n a l aː g a 
[225.145]
<no-speech> 
[228.345]
<sta> u h u u h u 
[230.255]
<no-speech> 
[231.855]
<int> i ŋ k æː n ʈ i ʋ i ʂ a j aː l u 
[233.055]
<no-speech> 
[235.545]
<no-speech> a n d a ɹ u b aː g u n n aː ɹ u m a n oː ɭ ɭ u b aː g u n n aː ɹ u <no-speech> 
[247.195]
<no-speech> 
[248.925]
aː n <no-speech> ɹ e n ɖ oː ʋ aː ɖ u h aː s ʈ a l l o u n n aː ɖ u 
[251.625]
<no-speech> 
[253.035]
<hes> ʋ aː ɖ u aː k t͡ʃ u ʋ a l l iː eː d o b i z i n e s t͡ʃ æː s t u n n aː ɖ u <no-speech> b i z i n e s a n ʈ e p e ʈ ɹ oː l b a ŋ k t iː s u k u n n aː ɖ u l iː d͡ʒ k i t iː s u k u n n aː ɖ u 
[261.805]
<no-speech> 
[265.565]
<int> 
[266.125]
<no-speech> 
[267.165]
<int> p e ʈ ɹ oː l b a ŋ k t iː s u k u n n aː ɖ u <no-speech> 
[271.865]
<no-speech> 
[273.075]
p e ʈ ɹ oː l p a m p u t iː s u k u n n aː ɹ u <no-speech> 
[276.475]
<no-speech> 
[277.305]
<int> a p e ʈ ɹ oː l b a ŋ k a n ʈ e p aː ɹ ʈ a n a ɹ u ʃ i p l o i ŋ k a i d d a ɹ u f ɹ e n ɖ s t oː k a l i s i t iː s u k u n n aː ɖ u <int> 
[282.115]
<no-speech> 
[282.925]
aː n <no-speech> p e ʈ ɹ oː l ɹ e n ɖ u k a l i p i t iː s u k u n n aː ɖ u 
[290.635]
<no-speech> 
[292.385]
<int> p a n i t͡ʃ æː s i n d i a k k a ɖ e <no-speech> p a n i t͡ʃ æː s i n d i 
[297.295]
<no-speech> 
[299.105]
<sta> o k k a p i l l aː ɖ u b aː l e ʋ aː ɭ a n d a ɹ u b aː g aː n e u n n aː ɹ u 
[302.585]
<no-speech> 
[304.975]
i ŋ k æː m a n n a k a l i s æː ʋ æ l æː ʋ a p aː t a f ɹ e n ɖ s n i <int> 
[308.305]
<no-speech> 
[312.575]
<laugh> t͡ʃ e p p aː l i <laugh> aː n 
[314.595]
<no-speech> 
[316.735]

[317.695]
<no-speech> 
[321.565]
aː n n aː k u <foreign> u n d i aː k t͡ʃ u ʋ a l g a ʋ aː ɭ ɭ i d d a ɹ u ɹ aː l æː d u m a ɹ i p i l i t͡ʃ aː n u a n i t͡ʃ e p p i n d i <no-speech> a n d a ɹ i n i p i l i t͡ʃ aː n u a n i t͡ʃ e p p i n d i k aː n i m a ɹ i e ʋ a ɹ u a n i t e l a ʋ a d u m a ɹ i 
[332.835]
<no-speech> 
[334.345]
<sta> ʃ a ɹ m a ʋ a s t aː ɖ u a n u k oː l æː d u aː k t͡ʃ u ʋ a l l iː 
[336.025]
<no-speech> 
[337.365]

[339.915]
<no-speech> 
[342.865]
aː n 
[343.505]
<no-speech> 
[348.385]
<no-speech> 
[348.985]
<no-speech> 
[350.805]
<int> a t͡ʃ t͡ʃ aː t͡ʃ t͡ʃ a k k a 
[351.945]
<no-speech> 
[356.885]
<no-speech> 
[357.305]
<no-speech> 
[359.465]
<no-speech> 
[359.845]
<no-speech> 
[361.185]
<laugh> s a ɹ e s a ɹ e <no-speech> i ŋ k a 
[365.105]
<no-speech> 
[374.045]
<no-speech> 
[374.895]
<no-speech> 
[377.715]
ʋ a t͡ʃ t͡ʃ æː ʋ aː ɖ u <foreign> m aː m uː l u g a ʋ a s t aː ɖ u 
[379.885]
<no-speech> 
[381.355]
<no-speech> 
[383.425]

[386.525]
<no-speech> 
[393.055]
<no-speech> 
[394.355]
<no-speech> 
[395.785]
<sta> m i p i l l o ɭ ɭ u k o n t͡ʃ e n m a ɹ t͡ʃ i p oː t aː ɹ u l e <no-speech> m a ɹ t͡ʃ i p oː t aː n a d i m aː m uː l u a n d a ɹ a k i <no-speech> e n d u k a n ʈ e i m a d i 
[404.675]
<no-speech> 
[407.445]
<int> n æː n i m a d i k a l a ʋ a l æː d u ɹ aː d͡ʒ u e ʋ a ɹ n i 
[409.345]
<no-speech> 
[411.275]
aː n k uː ɖ a k a l a ʋ a l æː d u i ŋ k a n t e <oov> a m a d i oː s aː ɹ i f oː n t͡ʃ æː ʃ æ l æː p i n d i e ʈ l a u n n aː ɖ a m m a a n ʈ e b aː g aː n e u n n aː ɖ a n i t͡ʃ e p p i n d i 
[417.645]
<no-speech> 
[419.315]
aː n d aː n i t a ɹ u ʋ aː t a m a ɹ o k k a s aː ɹ i f oː n t͡ʃ æː j a m a n i t͡ʃ e p p a n ʈ æː n u <int> f oː n t͡ʃ æː j a l æː d u b a h u ʃ a b a j a ʈ a k u ʋ e ɭ ɭ i u n ʈ aː ɹ æː m o t e l a ʋ a d u <no-speech> n æː n u k uː ɖ a p e d d a g a ʈ a t͡ʃ æ t͡ʃ æː j a l æː d u m a ɭ ɭ a 
[429.475]
<no-speech> 
[434.585]
<sta> ʃ oː b a n g u ɹ i n t͡ʃ i ɹ aː d͡ʒ æː n d ɹ a g u ɹ i n t͡ʃ i 
[437.695]
<no-speech> 
[439.005]
<sta> f oː n t͡ʃ æː ʃ aː n u <no-speech> f oː n t͡ʃ æː s t e i n ʈ l o l æː ɖ u a n n a d i ʋ a t͡ʃ t͡ʃ i n t a ɹ ʋ aː t a f oː n t͡ʃ æː j a m a n i t͡ʃ e p p aː n u <no-speech> t͡ʃ æː j a l æː d u 
[448.165]
<no-speech> 
[453.145]
aː n 
[453.725]
<no-speech> 
[456.845]
<laugh> 
[458.315]
<no-speech> 
[463.585]
<no-speech> 
[464.185]
<no-speech> 
[466.135]
<int> a ʋ u n u 
[466.905]
<no-speech> 
[476.465]
<no-speech> 
[478.605]
<no-speech> 
[482.145]
aː n e e d a ʋ ai n a g u ɹ t u p e ʈ ʈ u k oː ʋ aː l i k aː d a m a ɹ t͡ʃ i p oː l æː d u <laugh> <int> 
[486.365]
<no-speech> 
[488.465]
i ŋ k a i a m m aː j i e ʈ l a u n d i m a n <hes> ɹ uː p a a a m m aː j i k i eː d o s a m s k i n p ɹ aː b l a n eː d o u n d a n i t͡ʃ e p p i n d i t͡ʃ a ɹ m a ʋ j aː d o <no-speech> 
[497.565]
aː n ɹ uː p aː ɹ aː ɳ i 
[498.335]
<no-speech> 
[501.895]
<sta> aː n k a ɹ a k ʈ u k a ɹ a k ʈ u ʋ a t͡ʃ t͡ʃ i n d i n æː n a k o n t͡ʃ e n b i z iː u n n aː n u l e a p p u ɖ u 
[508.065]
<no-speech> 
[510.605]
<no-speech> 
[510.965]
<no-speech> 
[517.465]
<no-speech> 
[518.015]
<no-speech> 
[519.755]

[520.385]
<no-speech> 
[521.545]
b a ʈ n aː ʈ f a ɹ l aː ŋ ʈ ai m e n d u k a n ʈ e <oov> <no-speech> <sta> t͡ʃ a n ʈ oː ɖ i n i t͡ʃ uː s u k u n ʈ a k uː ɹ t͡ʃ u n ɖ i a k k a ɖ a i ŋ k a a k k a ɖ a 
[528.195]
<no-speech> 
[531.115]
<no-speech> 
[531.515]
<no-speech> 
[533.955]

[534.775]
<no-speech> 
[535.685]
<int> t i ɹ u m a l a s aː j i ʋ a t͡ʃ t͡ʃ æː ɹ u k a d a 
[537.285]
<no-speech> 
[540.415]
s aː m aː n u l u t͡ʃ uː s u k u n ʈ u a k k a ɖ a b a g s u p e ʈ ʈ i p oː j aː ɹ u g æ p ai g a p ai g a t i n ʈ aː n i k i ʋ e ɭ ɭ aː ɹ u k a d a 
[545.665]
<no-speech> 
[547.615]
<sta> a k k a ɖ i k i ʋ e ɭ ɭ i ʋ a t͡ʃ t͡ʃ aː n u 
[549.785]
<no-speech> 
[556.335]
<no-speech> 
[559.135]
<no-speech> 
[563.125]
a d e n u ʋ ʋ u ʋ e ɭ ɭ i p oː j i n t a ɹ u ʋ aː t a k uː ɖ a n æː n u t͡ʃ aː l a s æː p u ʋ e j i ʈ t͡ʃ æː ʃ aː n u <no-speech> a n ʈ e t͡ʃ a n d ɹ a g aː ɖ u <int> ʋ a t͡ʃ t͡ʃ e ʋ a t͡ʃ t͡ʃ e t a ɹ u ʋ aː t a d aː k a u n ɖ i aː n <int> a m m aː j i ʋ a t͡ʃ t͡ʃ i n d i k a d a 
[574.435]
<no-speech> 
[575.755]
<no-speech> 
[577.205]
<int> a j i t e a a m m aː j i ʋ a t͡ʃ t͡ʃ æː d aː k a <int> ʋ aː ɭ ɭ u a k k a ɖ e u n n aː ɹ u <no-speech> a n d a ɹ o t͡ʃ t͡ʃ aː ɹ u b a l a ɹ aː m g aː ɹ u a n d a ɹ u ʋ a t͡ʃ t͡ʃ aː ɹ u 
[586.175]
<no-speech> 
[587.445]
<sta> ʋ aː ɭ ɭ u ʋ a t͡ʃ t͡ʃ i n aː k a p a d i n i m aː ʂ a l u k uː ɹ t͡ʃ u n i 
[589.825]
<no-speech> 
[590.875]
d aː n i t a ɹ ʋ aː t a n æː n u ʋ e ɭ t aː n a m a n i t͡ʃ e p p æː s i s aː ɹ i t͡ʃ aː l a l æː ʈ k u ɹ t͡ʃ oː p e ʈ ʈ aː n a n n aː ɹ u aː n <int> p a ɹ ʋ a l æː d a m k uː ɹ t͡ʃ u n ʈ e k uː ɹ t͡ʃ o a n i t͡ʃ e p p e n u 
[598.745]
<no-speech> 
[599.640]
