[0.000]
<no-speech> 
[10.195]
<no-speech> 
[10.615]
<no-speech> 
[20.285]

[21.595]
<no-speech> 
[24.065]

[25.315]
<no-speech> 
[27.675]
<no-speech> h a l o 
[28.755]
<no-speech> 
[33.585]
h a l o 
[34.355]
<no-speech> 
[35.295]
<no-speech> 
[36.115]
<no-speech> 
[37.715]
h a l o eː n t͡ʃ æː s t u n n aː ʋ u <no-speech> 
[40.035]
<no-speech> 
[43.465]
a 
[44.125]
<no-speech> 
[45.085]
<no-speech> 
[45.455]
<no-speech> 
[47.185]
eː n ʋ a n ʈ a j i n d æ <no-speech> 
[48.535]
<no-speech> 
[49.845]
<no-speech> h a l o a k k a 
[52.365]
<no-speech> 
[53.905]
h a l o <no-speech> a eː n t͡ʃ æː s t u n n aː ʋ u 
[57.435]
<no-speech> 
[58.515]
<no-speech> h a l o 
[60.665]
<no-speech> 
[62.265]
a 
[63.125]
<no-speech> 
[66.015]
p i l l a l u p o j j i ɹ æ s k uː l k i 
[67.765]
<no-speech> 
[71.065]
p i l l a l u p o j j i ɹ æ 
[72.275]
<no-speech> 
[76.505]
a ʋ u n u m a ɹ t͡ʃ i p oː j i n æ t i n n aː ɹ a p i l l a l u eː n t͡ʃ æː s t u n ɖ ɹ u 
[79.585]
<no-speech> 
[83.835]
æː m e m a h æː ʂ ʋ a t͡ʃ t͡ʃ i n ɖ æ aː ɖ n e u n n aː ɖ æ 
[86.015]
<no-speech> 
[88.335]
m a h æː ʂ ʋ a t͡ʃ t͡ʃ i n ɖ æ aː ɖ n e u n n aː ɖ æ 
[89.945]
<no-speech> 
[92.555]
ʋ a s t aː n u g a iː ɹ oː d͡ʒ u i k k a ɖ a k i 
[94.895]
<no-speech> 
[98.715]
a 
[99.495]
<no-speech> 
[100.705]
<sta> iː ɹ oː d͡ʒ u ʋ a t͡ʃ t͡ʃ i eː m o a ɖ u g u t a a n n aː ɖ u p o d d u n aː j a n ʋ a t͡ʃ t͡ʃ u n ɖ e m a l l a j ʋ a t͡ʃ t͡ʃ u n u n ɖ e i k k a ɖ a k i 
[105.495]
<no-speech> 
[108.515]
aː n ʋ a t͡ʃ t͡ʃ i n d i m a i n ʈ i d a g g a ɹ a k i ʋ a t͡ʃ t͡ʃ i t͡ʃ aː l a s æː p u m aː ʈ l aː ɖ i n d i iː m e t oː ʈ i 
[112.045]
<no-speech> 
[115.125]
æː m a n a l e ʋ aː ɖ o t͡ʃ t͡ʃ i m aː ʈ l aː ɖ u t u n ɖ u ʋ aː ɭ ɭ a t oː n i ʋ iː ɭ ɭ a t oː n i m aː ʈ l aː ɖ u t u n ɖ u a j i t e ʃ æː k a ɹ n i p i l i p i t͡ʃ t͡ʃ i ɹ a n a m aː ʈ a 
[121.715]
<no-speech> 
[123.925]
m aː t o m aː t oː g aː n i t͡ʃ e p t u n n aː ɖ u ʃ æː k a ɹ k uː ɖ a ʋ a t͡ʃ t͡ʃ i n ɖ a n ʈ e ʃ æː k a ɹ p o j j i m aː ʈ l aː ɖ i n ɖ a n a m aː ʈ a 
[129.125]
<no-speech> 
[131.385]
m aː ʈ l aː ɖ i t e æː m a j i n d i ʃ æː k a ɹ <int> aː ɹ oː d͡ʒ u a n t a m a n d i e n d u k o t͡ʃ t͡ʃ i n ɹ u a n i a ɖ i g i n ɹ a n a m aː ʈ a 
[137.275]
<no-speech> 
[139.105]
aː n ɹ oː d͡ʒ u a ɖ u g u t u n ʈ e aː n m a ɹ i n u ʋ ʋ u e s a ŋ g a t i t͡ʃ e p p a l e k a d a a n d u k e ʋ a t͡ʃ t͡ʃ i n ɖ ɹ u a n i iː j a n a n n aː ɖ a n n a m aː ʈ a 
[148.695]
<no-speech> 
[149.715]
<no-speech> b aː ʋ a p o j j i n ɖ aː k k a ɖ j uː ʈ iː k i 
[152.185]
<no-speech> 
[155.485]
n æː n u ʋ a n ʈ eː n t͡ʃ æː s i n aː ʋ u 
[157.075]
<no-speech> 
[158.935]
<no-speech> 
[159.315]
<no-speech> 
[161.735]
<no-speech> ʋ a n ʈ 
[162.855]
<no-speech> 
[164.455]
a eː n t͡ʃ æː s t a m a n 
[166.005]
<no-speech> 
[169.635]
a m aː d i k uː ɖ a t͡ʃ i k e n e 
[171.295]
<no-speech> 
[175.195]
a a j i t e p o d d u n a ʈ l a a j i n d a n n a m aː ʈ a 
[178.505]
<no-speech> 
[180.005]
<no-speech> 
[180.375]
<no-speech> 
[181.815]
a 
[182.555]
<no-speech> 
[184.475]
e ʋ a ɹ u ʋ aː ɭ ɭ i n ʈ i k aː ɖ u n n aː ɹ u p i l l a l u n æː n u i iː ɖ a k i ʋ a t͡ʃ t͡ʃ i n a 
[188.085]
<no-speech> 
[189.395]
<no-speech> 
[189.755]
<no-speech> 
[193.695]
aː n aː n a d e d aː n i g u ɹ i n t͡ʃ e m aː ʈ l aː ɖ i n ɖ u t͡ʃ aː l a s æː p u p o d d u n m aː ʈ l aː ɖ u t u n ʈ e i ŋ k a i ŋ k a a d o k k a ʈ i i d o k a ʈ i a n ʈ u n ɖ e i ŋ k a a n n a l a n ɖ g u ɹ i n t͡ʃ i a ɖ u g u t u n ɖ u d͡ʒ aː b g u ɹ i n t͡ʃ i <int> 
[203.935]
<no-speech> 
[205.675]
d͡ʒ aː b g u ɹ i n t͡ʃ i p o d d u n ʃ æː k a ɹ ʋ æː ɹ æː ʈ oː ɭ ɭ a k i f oː n t͡ʃ æː s i n ɖ a n n a m aː ʈ a i ʈ l a t a l l i p æː ɹ u m iː d a u n d i m a ɭ ɭ a ʋ aː ɭ ɭ a k i ʋ a s t aː d a ɹ aː d a <int> a n a n ʈ e iː j a n a d i a n u m a t i k aː ʋ aː l a n ʈ a ʋ a ɹ a l a k ʂ m i a n u m a t i a j i t æː n u ʋ aː ɭ ɭ i d d a ɹ i p æː ɹ u m iː d a n e ʋ a s t aː d a n ʈ a 
[220.715]
<no-speech> 
[221.895]
p i l l a l a p æː ɹ u p i l l a l a p æː ɹ u m iː d a a p p u ɖ u t͡ʃ æː j i n t͡ʃ u k oː ʋ a t͡ʃ t͡ʃ u a n n a ʈ ʈ u 
[224.915]
<no-speech> 
[227.615]
a ʈ l a a n i m aː ʈ l aː ɖ u t u n ʈ e m a l l a j f oː n t͡ʃ e j j a ʋ a f oː n t͡ʃ e j j a ʋ a a n i a n ʈ e m a n a l a n æː m o ʋ aː ɭ ɭ a a t t a æː m a n ʈ aː d i a n u k u n n aː ʋ u 
[234.125]
<no-speech> 
[235.355]
<sta> n aː k u d͡ʒ aː b g u ɹ i n t͡ʃ i a ʋ a s a ɹ a m l æː d u e ʋ a ɹ i g u ɹ i n t͡ʃ i a ʋ a s a ɹ a m l æː d a n ʈ e iː j a n a k u e n d u k u a n ɖ p a ʈ ʈ i m p u d͡ʒ aː b e ʋ a ɹ a d i a n i aː m e a n ʈ u n d a n n a m aː ʈ a 
[244.375]
<no-speech> 
[245.225]
d͡ʒ aː b ʋ aː ɭ ɭ a k i k a d a m a n a k i e ʈ l a i s t aː ɹ u m a n p i l l a l a p æː ɹ u m iː d a <int> m a k o ɖ u k u k e l æː d u e n d u k u m aː k u i ʋ a n n i a ʋ a s a ɹ a m a 
[250.975]
<no-speech> 
[252.005]
a n i a n ʈ u n ɖ a n a m aː ʈ a 
[253.415]
<no-speech> 
[255.775]
uː n a ʈ l a j i n d i e p i l l a l æː n t͡ʃ e s t u n ɹ u b a j a ʈ a aː ɖ u k u n ʈ u n ɹ a 
[261.165]
<no-speech> 
[265.795]
aː n i k a a n d a ɹ u u n n aː ɹ u g æ i n ʈ i k aː ɖ a i ʋ aː ɭ a i ʋ aː ɭ a a n d a ɹ u n n aː ɹ u <int> a m a a t t a k uː ɖ a u n n aː d i i k a a n d a ɹ u n n aː ɹ a m aː ʈ a a k k a ɖ a n e 
[272.545]
<no-speech> 
[273.615]
f oː n f oː n t͡ʃ æ m a n d͡ʒ u f oː n t͡ʃ æː s i n d æ a k k a 
[276.105]
<no-speech> 
[279.475]
t͡ʃ e j j a l e 
[280.245]
<no-speech> 
[282.245]
ʋ e ŋ k a ʈ <no-speech> ʋ e ŋ k a ʈ æː ʃ ʋ a ɹ a f oː n t͡ʃ eː s t aː l æː ɖ u 
[285.115]
<no-speech> 
[289.725]
aː n a d i ɹ aː d͡ʒ u ʋ aː ɭ ɭ o t͡ʃ t͡ʃ i ɹ aː d͡ʒ u m a ɭ ɭ a t e l l aː ɹ e ɹ uː p a n u ʋ a d i l i p e ʈ ʈ i p oː j i n aː ɖ a n ʈ a k a d a 
[294.725]
<no-speech> 
[301.555]
a d e <hes> ɹ uː p a n i n f oː n t͡ʃ æː s i m aː ʈ l aː ɖ u t u n ɖ æ aː m e ɹ uː p a 
[305.635]
<no-speech> 
[308.715]
aː n p e d d a m a n ʈ a l æː d u e eː d i e ʈ l a a n a m a n ʈ e a ʈ l a n ʈ u n d a n a m aː ʈ a a j i t e t a m m u ɖ u æː ɖ i k o p oː j i n ɖ a n ʈ æ k a d a 
[314.745]
<no-speech> 
[318.045]
t a m m u ɖ u æː ɖ i k o p oː j i n ɖ a n ʈ æ k a d a t i ɹ u p a t i k o æː ɖ i k o p oː j i n ɖ a n ʈ æ ɹ aː d͡ʒ u a n ʈ u n ɖ u e k k a ɖ a p o j j i n ɖ u m i t a m m u ɖ u m aː ɹ eː d͡ʒ t͡ʃ æː s u k oː n iː k i ʋ e ɭ ɭ i n ɖ a n ʈ a k a d a a n i a n n a ɖ a n ʈ a ʋ iː ɭ ɭ a t oː ʈ i 
[327.005]
<no-speech> 
[330.445]
n aː j a n a k u m a a m m a ʋ aː ɭ ɭ a k u f oː n t͡ʃ æː s i t͡ʃ e p p i n ɖ a n ʈ a a n i l i ʈ l a e ʋ a ɹ i n o t iː s u k o n i ʋ e ɭ ɭ i n ɖ u t i ɹ u p a t i k i m iː k u t͡ʃ e p p a l æː d æ a n i a n n a ɖ a n ʈ a 
[338.525]
<no-speech> 
[340.075]
a 
[340.775]
<no-speech> 
[342.605]
<no-speech> 
[343.045]
<no-speech> 
[345.415]
eː ɖ a a m u s aː p æː ʈ a l o u n n a d a n ʈ a n æ 
[347.825]
<no-speech> 
[348.785]
<no-speech> 
[349.385]
<no-speech> 
[352.385]
a 
[353.065]
<no-speech> 
[356.185]
a a 
[357.405]
<no-speech> 
[361.585]
s u ɹ æː ʂ a 
[362.475]
<no-speech> 
[368.945]
eː m o t e l a ʋ a d u 
[370.835]
<no-speech> 
[375.965]
a a a p i l l a g aː ɖ u ʋ iː ɭ ɭ i d d a ɹ u k a l i s i ʋ e ɭ ɭ i n ɹ a n ʈ a n a <no-speech> 
[380.665]
<no-speech> 
[383.175]
a <no-speech> h a l o a k k a 
[385.165]
<no-speech> 
[386.725]
aː n eː n t͡ʃ æː s i n aː ʋ u a ʋ a n n i m o n n a <no-speech> 
[392.285]
<no-speech> 
[393.155]
eː m æː m i t͡ʃ æː s i n aː ʋ a n ʈ u n n a <no-speech> 
[395.405]
<no-speech> 
[396.305]
<no-speech> 
[397.475]
<no-speech> 
[400.115]
<no-speech> eː n t͡ʃ e j j a l æː d u <no-speech> 
[403.065]
<no-speech> 
[407.115]
<no-speech> 
[407.465]
<no-speech> 
[409.025]
a j j o t æː l e s aː m aː n i ŋ k a 
[411.165]
<no-speech> 
[413.585]
<no-speech> uː n a d e t͡ʃ e p t u n n aː ʋ u a n ɖ a j i t e m a h æː ʂ a k k a ɖ a n e u n ʈ aː ɖ a ɹ aː ɖ a i ŋ k a i k k a ɖ a k i <no-speech> eː n a n ʈ u n ɖ u m a ɭ ɭ a b u d a ʋ aː ɹ a n a n ʈ u n ɖ ɹ a æː m a n ʈ u ɹ ɹ u aː ɹ oː d͡ʒ e 
[427.895]
<no-speech> 
[429.885]
<no-speech> 
[430.275]
<no-speech> 
[432.135]
<no-speech> a d e <no-speech> uː n 
[436.095]
<no-speech> 
[438.265]
a u n ɖ a k a p oː t e eː n t͡ʃ æː s t a ɹ u i k a <laugh> b aː g aː n e u n n aː ɹ a n n a m aː ʈ a 
[444.495]
<no-speech> 
[445.415]
p ai s a l i t͡ʃ t͡ʃ æː s o t͡ʃ t͡ʃ i n æ i d d a ɹ u p i l l a l a k i <no-speech> a <no-speech> 
[452.055]
<no-speech> 
[453.455]
<sta> e iː ɹ oː d͡ʒ u o k k a ɹ oː d͡ʒ u iː ɹ oː d͡ʒ u ɹ æː p u i k a ɹ æː p a ʈ n u n t͡ʃ i i k k a ɖ a aː j a n a k u t͡ʃ e p t aː l i e k k a ɖ a e k k a ɖ a ʋ e ɭ ɭ aː l i i ŋ k a t a ɹ u ʋ aː t a n iː k u f oː n l o t͡ʃ e p t aː l e i p p u ɖ u m aː ʈ l aː ɖ aː l i a n t e a a j i t e b aː ʋ aː f iː s u p oː j i n ɖ æ 
[465.625]
<no-speech> 
[466.445]
<no-speech> 
[467.025]
<no-speech> 
[468.095]
p o j i n ɖ aː n e aː f iː s u k i 
[469.445]
<no-speech> 
[474.325]
a ʋ i a j i t e i d i g o h a l o a k k a <no-speech> a j i t e a d i m a ɭ ɭ a m a ɭ ɭ a m iː ɹ u aː ɹ oː d͡ʒ u e n t a m a n d o s t a a ɹ oː d͡ʒ u i d d a ɹ u m u g g u ɹ e ɹ a n ɖ i a ʋ a s a ɹ a m a j i n ʋ aː ɭ ɭ u e ʈ l ai n a s a n t a k a n p e ɖ a t aː n n a ɹ u k a d a 
[487.285]
<no-speech> 
[488.405]
<no-speech> a a ɹ oː d͡ʒ u iː ɹ oː d͡ʒ u e n d u k u ʋ a t͡ʃ t͡ʃ i n ɖ ɹ u a ɹ oː d͡ʒ u i n t a m a n d i e n d u k o t͡ʃ t͡ʃ aː ɹ u a n i a ʈ u n d a n n a m aː ʈ a 
[497.865]
<no-speech> 
[500.485]
<hes> a n ɖ a n t a m a n d i ʋ a s t e m aː t ɹ a n a j a n æː m a n n a p e ʈ ʈ i n ɖ a m a ɭ ɭ a iː m e b a s s u l o k uː ɖ a e ʈ l a m aː ʈ l aː ɖ u t u n d i a n u k u n n aː ʋ u a d i m aː ʈ a l u 
[508.315]
<no-speech> 
[510.375]
uː n a d e m aː ʈ l aː ɖ u t u n d i iː m e k u k uː ɖ a t͡ʃ iː ɹ a l u t iː s u k u n d aː m u a n u k u n ʈ u n n a ʂ aː p i ŋ g t͡ʃ e j j aː l a n u k u n ʈ u n n a e p p u ɖ u a j i t aː d o eː m o <int> 
[518.245]
<no-speech> 
[519.365]
<no-speech> 
[520.445]
<no-speech> 
[521.605]
aː n t iː s u k u n d aː m a n u k u n ʋ iː l ai t aː l æː d u <no-speech> eː m o e p p u ɖ u k u d u ɹ u t aː d o eː m o k o t t a t͡ʃ iː ɹ a l u eː m ai n a ʋ a t͡ʃ t͡ʃ i n aː j a n ʈ a n æ a k k a a k k a ɖ a <no-speech> 
[532.575]
<no-speech> 
[534.435]
t iː s u k u n n aː ʋ a eː m a n n a <int> a 
[541.915]
<no-speech> 
[542.755]
<no-speech> 
[543.215]
<no-speech> 
[544.845]
<no-speech> uː n 
[545.885]
<no-speech> 
[546.815]
a j i t e j i ŋ k a i ŋ k æː m t͡ʃ æː s t u n n aː ʋ u 
[548.735]
<no-speech> 
[550.985]
<no-speech> 
[552.825]
<no-speech> 
[554.045]
aː n <no-speech> i ŋ k a ʋ a ɹ a l a k ʂ m i g u ɹ i n t͡ʃ e m a ɭ ɭ a ʋ a ɹ a l a k ʂ m i p oː t e m aː k u a ɹ oː d͡ʒ u a j i t e 
[562.525]
<no-speech> 
[564.105]
n ai ʈ i ʈ l a n i d ɹ o s t aː l æː d u a d i i d i a n i t͡ʃ e p t u n d a n n a m aː ʈ a 
[568.925]
<no-speech> 
[574.825]
a a n d a ɹ u n n a ɹ u g aː n i h a l o a k k a 
[577.255]
<no-speech> 
[578.675]
h a l o 
[579.255]
<no-speech> 
[580.765]
aː n p a k k i n ʈ i aː m e ɖ j uː ʈ iː k i p oː t u n d i t͡ʃ a d u ʋ u k u n ʈ a 
[584.085]
<no-speech> 
[586.235]
<no-speech> 
[586.595]
<no-speech> 
[588.235]
p oː t u n d a i n ʈ i k aː ɖ u n ʈ u n d a 
[589.875]
<no-speech> 
[592.585]
p o j j i n d æ <no-speech> 
[594.235]
<no-speech> 
[595.135]
<no-speech> 
[595.975]
aː n a d e m a ɭ ɭ a eː m a n n a m aː ʈ l aː ɖ u t u n ɖ ɹ u d aː n i g u ɹ i n t͡ʃ e 
[599.700]
