[0.000]
<no-speech> 
[0.785]
<sta> h a l o 
[4.615]
<no-speech> 
[5.525]
<no-speech> 
[5.945]
<no-speech> 
[6.835]
aː n æː m m a b aː g u n n aː ʋ a 
[8.875]
<no-speech> 
[9.775]
<sta> aː n b aː g u n n aː ʋ a 
[12.775]
<no-speech> 
[13.615]
aː n 
[15.975]
<no-speech> 
[17.805]
ʋ a s t aː n u i p p u ɖ e a n n aː ʋ u p e d d a m a n i ʂ i k a d a n u ʋ ʋ u ɹ aː n e l æː d u eː n m a ɹ a t͡ʃ i p oː j i n aː ʋ æ 
[22.675]
<no-speech> 
[24.565]
aː n 
[25.195]
<no-speech> 
[27.945]
<no-speech> aː n 
[29.915]
<no-speech> 
[34.455]
aː n 
[35.555]
<no-speech> 
[41.925]
aː n ʋ aː ɭ ɭ u ʋ e ɭ ɭ o s t a a n ʈ u n n aː ɹ u 
[44.605]
<no-speech> 
[46.225]
aː n 
[48.465]
<no-speech> 
[49.825]

[50.475]
<no-speech> 
[51.975]
aː n 
[52.695]
<no-speech> 
[53.885]

[54.705]
<no-speech> 
[59.745]
aː n 
[60.445]
<no-speech> 
[61.255]
p a n i aː j a n a p oː n i 
[62.415]
<no-speech> 
[63.905]
s a ɹ e p a n i a j i n d a p oː j i n a p oː j i n a p a n i a j i n d a 
[66.445]
<no-speech> 
[69.305]
eː m i 
[70.175]
<no-speech> 
[76.055]
aː n 
[76.745]
<no-speech> 
[82.835]
aː n 
[83.435]
<no-speech> 
[84.835]
a d i a l ai s e n s aː n ɖ ɹ ai ʋ i ŋ l ai s e n s 
[87.925]
<no-speech> 
[90.405]
aː n <no-speech> a ʋ u n u 
[93.255]
<no-speech> 
[94.775]
n æː n u eː n t͡ʃ æː s i n aː n o t e l u s u n æ n i n <no-speech> aː n 
[98.645]
<no-speech> 
[100.285]
<no-speech> a a d e ʋ e j j i ɹ uː p aː j a l u ʋ æː s i n a k a d a a ɖ a b b u t o ʋ e j j i ɹ uː p aː j a l u ʋ æː s i b aː ɖ u g a k a ʈ ʈ æː s t aː n u ʋ aː ɖ i k i 
[108.785]
<no-speech> 
[110.845]
aː n i ŋ k a a d e i ŋ k a aː l oː t͡ʃ i s t a e i ŋ k a n i p a n i aː ɖ a 
[115.155]
<no-speech> 
[116.105]
m a ɭ ɭ a iː ɹ oː d͡ʒ u ɹ eː n i n ʋ a s t aː n a n ʈ i ʋ i ɹ aː n e ɹ aː l æː d u aː n m a ɭ ɭ a m a ɹ u s a ʈ i ɹ oː d͡ʒ a n n a ʋ a s t aː n a n ʈ i ʋ i k a d a <no-speech> 
[123.115]
<no-speech> 
[124.005]
aː n h a i n ʈ i k aː ɖ i k i ʋ a s t aː n a n ʈ i ʋ i k a d a ɹ aː l æː d e a n i a ɖ i g i n a n æː n u 
[128.955]
<no-speech> 
[131.065]
aː n ʋ iː ʈ i k i a m m a ʋ aː ɭ ɭ i n ʈ i k i 
[133.265]
<no-speech> 
[136.565]
ɹ æː p u l i ɹ æː p u l iː ʋ a n ɖ p i l l a l a k i s k uː l <no-speech> aː n aː n 
[143.185]
<no-speech> 
[145.445]
n æː n u <hes> d iː n i k i p oː t u n ɖ u <int> 
[149.545]
<no-speech> 
[150.525]
a d e ɹ æː p u s i e m s i k i p oː t u n ɖ u n æː n u a d æː n ʈ o n aː k u l a k g a l iː ʋ 
[154.235]
<no-speech> 
[155.775]
aː n e n n i g a n ʈ a l a k u ʋ a s t aː n ɖ aː ʋ u 
[157.275]
<no-speech> 
[159.955]
aː ɹ u g a n ʈ a l a k u p oː j i 
[161.095]
<no-speech> 
[164.765]
<int> e eː d i d i n ʈ l o 
[167.745]
<no-speech> 
[169.815]

[170.255]
<no-speech> 
[171.595]
d͡ʒ iː n a 
[173.775]
<no-speech> 
[177.815]
a o p i ʋ e n u k a k o t t a k o t t a b i l ɖ i ŋ g 
[180.345]
<no-speech> 
[183.725]
aː n aː n m u n d a ɹ a k i n d a aː n aː n aː n e n t a s æː p u u n ʈ aː ʋ u 
[189.515]
<no-speech> 
[191.095]
n æː n u e n i m i d i n n a ɹ a k u b a j a l u d æː ɹ u t a 
[193.095]
<no-speech> 
[194.685]
aː n a j i t e s a ɹ e aː ɖ a k a l u d d aː n k aː n i n i n a m b a ɹ u k u n æː n u f oː n t͡ʃ æː s t a aː ɖ i k o t͡ʃ t͡ʃ i 
[198.365]
<no-speech> 
[199.605]
n æː n u e n i m i d i n n a ɹ a k u b a j a l u d æː ɹ u t a i n ʈ l o 
[201.455]
<no-speech> 
[203.065]
aː n e n i m i d i n n a ɹ a k u b a j a l u d æː ɹ i ɹ eː ɹ æː p u aː ɖ a e ʋ a ɹ i k i o ɭ ɭ u b aː g a l æː d a b b a 
[207.825]
<no-speech> 
[209.525]
aː n 
[210.055]
<no-speech> 
[211.235]
<int> 
[212.025]
<no-speech> 
[213.115]
aː n h a a p p u ɖ u aː n i ŋ k æː m ʋ a n ʈ t͡ʃ æː s t i ʋ i iː ɹ oː d͡ʒ u 
[219.245]
<no-speech> 
[220.425]
m aː ʈ l aː ɖ u m aː ʈ l aː ɖ u eː d o o k a m aː ʈ a 
[222.805]
<no-speech> 
[224.145]
n æː n u m aː ʈ l aː ɖ æː d aː k a m aː ʈ l aː ɖ u t a u n ɖ u n u ʋ ʋ u <no-speech> aː n 
[227.855]
<no-speech> 
[228.675]
<laugh> eː n k uː ɹ a t͡ʃ æː s t i ʋ i 
[231.215]
<no-speech> 
[233.525]
aː n 
[234.955]
<no-speech> 
[235.885]

[236.385]
<no-speech> 
[238.625]
<int> aː n 
[239.105]
<no-speech> 
[240.605]

[240.955]
<no-speech> 
[242.505]
aː n aː n aː n aː n 
[244.225]
<no-speech> 
[245.585]

[245.935]
<no-speech> 
[249.715]
t͡ʃ æː s i n aː ɹ u a ʋ u n u 
[251.015]
<no-speech> 
[253.665]
aː n 
[254.305]
<no-speech> 
[257.245]
aː n m a ɭ ɭ a o k a s aː ɹ i t͡ʃ e k a p t iː j i n t͡ʃ æː d i <no-speech> 
[260.255]
<no-speech> 
[261.835]
<no-speech> 
[262.305]
<no-speech> 
[263.785]
a j j a j j o iː ɖ e k a d a t͡ʃ æː j i n t͡ʃ i n d i iː ɖ e <no-speech> 
[272.305]
aː n 
[272.875]
<no-speech> 
[274.765]
aː n 
[276.235]
<no-speech> 
[278.405]
m i t a m m u ɖ u <no-speech> 
[281.415]
<no-speech> 
[282.565]
<sta> e p p u ɖ u <no-speech> 
[285.145]
<no-speech> 
[293.695]
aː n 
[294.365]
<no-speech> 
[298.885]
a b b a iː ɖ a u n n a t i a n i o k a h aː s p i ʈ a l u n d i a b b a iː ɖ a b e ŋ g u ɭ uː ɹ u l o n aː ɹ aː j a ɳ a <oov> a n i s uː p a ɹ g a t͡ʃ æː s t aː ɹ u iː ɖ a m a i n ʈ oː n i ʋ aː ɭ ɭ a f ɹ e n ɖ a j i t e ʂ u g a ɹ p eː ʂ e n ʈ b i p i p eː ʂ e n ʈ aː j a n p a d i ɹ oː d͡ʒ u l u h aː s p i ʈ a l l o u n n aː ɖ u n iː ʈ i g a g aː j a n t o k uː ɖ a m aː j a m ai p oː j i i n ʈ i k o t͡ʃ t͡ʃ i n aː ɖ a b b æ aː p a ɹ eː ʃ a n t͡ʃ æː s u k o n i g u n ɖ e aː p a ɹ eː ʃ a n t͡ʃ æː s u k o n i 
[320.565]
<no-speech> 
[321.535]
aː n <no-speech> aː n 
[323.275]
<no-speech> 
[324.625]
aː n p ɹ a ʋ iː ɳ ɹ e ɖ ɖ i h aː s p i ʈ a l a n ʈ e ɹ e n ɖ u ɹ e n ɖ u u n n aː j i l e eː m o t e l iː j a l æː d u n i n p oː j o t͡ʃ t͡ʃ i n aː ɖ u l æː ʈ a j i p oː j i n d i ʋ a t͡ʃ t͡ʃ æː ʈ a p p a ʈ i k i t e l l a ʋ aː ɹ i <no-speech> 
[334.095]
a ɖ u g u t aː n u a ɖ u g u t aː n u n i n n e p oː j o t͡ʃ t͡ʃ i ɹ aː t ɹ i t o m m i d i n n a ɹ a p a d i a j i p oː j i n d i iː j a n i n ʈ i k o t͡ʃ t͡ʃ æː ʈ a p p a ʈ i k i m a d j aː n a n p oː j i n aː ɖ u s aː ɹ i p p u ɖ u ʋ a t͡ʃ t͡ʃ i n aː ɖ u s aː ɹ 
[341.565]
<no-speech> 
[343.395]
aː n a n ʈ e aː j a n a k i b ai p aː s aː p a ɹ eː ʃ a n t͡ʃ æː j aː l a m u n d u g a t͡ʃ e p p æː s i n aː ɹ a n ʈ a l æ 
[348.185]
<no-speech> 
[351.005]
aː n aː j a n a k i k uː ɖ a h oː l s eː a n ʈ e p u ʈ ʈ u k a t o n e p p i u n ɖ i n d a n ʈ a 
[354.735]
<no-speech> 
[355.775]
<int> aː j a n a k u b a j a p a ɖ i t e p u ʈ ʈ u k a n u n t͡ʃ i u n n i n d a n ʈ a a d i i p p a ʈ i k i aː j a n ʋ a l l a i p p a ʈ i d aː k a n e ʈ ʈ u k oː n i ʋ a t͡ʃ t͡ʃ i n aː ɖ u b aː ɖ iː i p p a ʈ i k i aː j a n ʋ a l l a k aː l æː d u 
[363.515]
<no-speech> 
[368.975]
aː n e n d u k a n ʈ e 
[370.285]
<no-speech> 
[372.615]
aː n a d i h aː ɹ ʈ d eː <no-speech> 
[376.455]
<no-speech> 
[378.575]
<int> aː n s a ɹ e a j i t e iː ɹ oː d͡ʒ u aː j a n n i k a n u k k o n i ɹ æː p u m a n a n aː ɖ a m aː ʈ l aː ɖ a d aː n 
[383.285]
<no-speech> 
[384.625]
<no-speech> aː n aː n s a ɹ e 
[387.705]
<no-speech> 
[388.665]
i ŋ k æː m i b aː g u n d a 
[391.225]
<no-speech> 
[393.865]
aː n 
[394.465]
<no-speech> 
[396.475]
<no-speech> 
[396.835]
<no-speech> 
[398.015]
aː n 
[398.575]
<no-speech> 
[407.215]
<no-speech> 
[407.885]
<no-speech> 
[409.745]
aː n 
[410.275]
<no-speech> 
[411.975]

[412.435]
<no-speech> 
[414.665]
<no-speech> 
[417.055]
<no-speech> 
[418.515]
a ʋ u n u k o n t͡ʃ e n d ai ɹ j a n t͡ʃ e p p e ʋ aː ɭ ɭ u n ʈ æ k o n t͡ʃ e n h aː j i g a u n ʈ u n d i 
[423.255]
<no-speech> 
[426.345]
eː n k aː d u l e k aː n i a b b a eː n k aː d u k aː n i eː m i aː j i l g iː j i l eː m a n n a t i n ʈ aː ɖ a b aː g a aː j a n <no-speech> 
[432.185]
<no-speech> 
[435.055]

[435.525]
<no-speech> 
[436.925]
a ʋ i u n ɖ a ʋ u l æː b b a aː j i l t͡ʃ a l i k aː l a n k a d a eː m a n n a 
[441.625]
<no-speech> 
[443.415]
aː n 
[444.465]
<no-speech> 
[450.485]
aː n 
[451.055]
<no-speech> 
[451.855]
aː n aː n 
[452.615]
<no-speech> 
[457.335]

[458.045]
<no-speech> 
[459.445]
uː n 
[460.305]
<no-speech> 
[463.995]
a ʋ u n u m aː ʈ l aː ɖ æː ʋ aː ɖ u 
[467.405]
<no-speech> 
[468.805]
m aː ʈ l aː ɖ a k uː ɖ a d u a ʋ u n u i ŋ k æː m i 
[471.515]
<no-speech> 
[473.015]
eː n l æː d a b b a eː d o b aː d a l u ʋ a t͡ʃ t͡ʃ æː s i n aː j i aː n 
[478.615]
<no-speech> 
[479.795]
k a d a 
[480.365]
<no-speech> 
[481.225]

[481.805]
<no-speech> 
[483.565]
n e p p i ʋ a s t u n d i a m aː d i ɹ i u n ʈ e k a d a a ʋ i t͡ʃ i n n oː ɖ u a j i p oː j i n a p p u ɖ u k a ɖ u p u l o p æː g u l u 
[490.975]
<no-speech> 
[492.945]
k a d a m a n a k a n n a t͡ʃ i n n oː ɭ ɭ a k u eː m a n n a a j i t e b aː d æː s t u n d i a n t e 
[496.685]
<no-speech> 
[497.815]
aː n 
[498.495]
<no-speech> 
[499.935]
p e d d a ʋ aː ɭ l a k a n n a eː m i a n i p i n t͡ʃ a d u k aː n i k o n t͡ʃ e n t͡ʃ i n n oː ɭ ɭ a k i eː m a n n a a ʈ l a a j i n d a n ʈ e a b b a p e d d oː ɭ ɭ a k i eː m a n n a a j i n a k o n t͡ʃ e n m a n a k i eː m i a n i p i n t͡ʃ a d u m a n a k a n n a t͡ʃ i n n oː ɭ ɭ a k i eː m a n n a a j i n d a n ʈ e b a l æː g a b aː d a a j i p oː t u n d i k a d a 
[511.185]
<no-speech> 
[512.515]
uː n i ŋ k æː m i a b b a aː n 
[519.005]
<no-speech> 
[520.455]
p a n i m iː d e p oː j i n aː ɹ æ a n ʈ aː n a a n ʈ i n i <no-speech> 
[525.065]
<no-speech> 
[526.275]
t æː d͡ʒ a ʋ aː ɭ ɭ a n d a ɹ u <oov> 
[527.965]
<no-speech> 
[529.055]
aː n <no-speech> i ŋ k æː m i 
[533.255]
<no-speech> 
[534.975]
e n d u k u 
[535.855]
<no-speech> 
[540.975]
<no-speech> 
[541.715]
<no-speech> 
[542.835]
aː n 
[543.535]
<no-speech> 
[549.705]
<int> 
[550.825]
<no-speech> 
[555.815]
aː n 
[556.525]
<no-speech> 
[560.515]
a ʋ u n u <no-speech> n i d aː n a ŋ g a t͡ʃ e p p æː d i aː m e k i <no-speech> 
[566.425]
<no-speech> 
[571.065]

[571.805]
<no-speech> 
[573.415]

[574.135]
<no-speech> 
[576.725]

[577.255]
<no-speech> 
[578.475]

[579.485]
<no-speech> 
[580.885]
aː n e ʋ a ɹ u t͡ʃ e p p æː s i n aː ɹ u 
[582.535]
<no-speech> 
[584.365]
aː n 
[584.945]
<no-speech> 
[588.515]
aː n e ʋ a ɹ u t͡ʃ e p p u n ʈ aː ɹ u t͡ʃ e p p u m a n i n ʈ l oː ʋ aː ɭ ɭ e e ʋ a ɹ o 
[592.955]
<no-speech> 
[593.955]
<no-speech> a n ɖ ʈ ai m aː n 
[598.685]
<no-speech> 
[599.120]
