[0.000]
<no-speech> 
[4.165]
<no-speech> h a l o 
[6.495]
<no-speech> 
[8.375]
<no-speech> eː m i k a ʈ ʈ a j i p oː j i n d æː n d i 
[11.055]
<no-speech> 
[16.835]
s i g n a l i ʈ l a l eː d æː m o d aː n i g u ɹ i n t͡ʃ i k a ʈ a j i t u n d i a n u k u n ʈ u n n a n æː n u <no-speech> 
[21.685]
<no-speech> 
[26.815]
<int> ɹ oː ɖ m iː d i k o t͡ʃ t͡ʃ i n aː ʋ æ i p p u ɖ u <no-speech> 
[30.355]
<no-speech> 
[31.185]
<no-speech> 
[31.705]
<no-speech> 
[34.905]
a a a 
[35.735]
<no-speech> 
[37.335]
i p p u ɖ u b i j j a n a ʈ l aː n e aː n ʋ i n ʈ u n n a <no-speech> 
[42.565]
<no-speech> 
[44.875]
<no-speech> 
[45.305]
<no-speech> 
[47.205]
<no-speech> 
[47.635]
<no-speech> 
[49.915]
<sta> a t͡ʃ t͡ʃ aː t͡ʃ t͡ʃ a i p p u ɖ u ʋ aː ɖ u b i j j a n ʋ æː s t u n ɖ a i p p u ɖ u m a n a k u p uː ɹ t i g a 
[55.225]
<no-speech> 
[57.095]
b i j j a n <int> b i j j a n <no-speech> 
[59.165]
<no-speech> 
[65.605]
a s a ɹ e s a ɹ e 
[66.495]
<no-speech> 
[68.675]
<no-speech> 
[69.545]
<no-speech> 
[70.845]
<no-speech> 
[73.895]
<no-speech> 
[74.985]
<no-speech> <sta> a d i i p p u ɖ u p a k k a k u aː j a n u n n aː ɖ u t͡ʃ uː ɖ u m uː ɹ t i a n i eː n p æː ɹ u aː j a n a d i 
[78.925]
<no-speech> 
[81.145]
<no-speech> a d e b i j j a n æː s t a ɖ u t͡ʃ uː ɖ aː j a n 
[84.575]
<no-speech> 
[86.615]
a e ʈ l æː s t a ɖ æː m i eː n p æː ɹ u 
[89.505]
<no-speech> 
[92.495]
uː n <no-speech> e ʈ l a e ʈ l a ʋ æː s i n ɖ u p oː j i n a s aː ɹ i <no-speech> 
[97.045]
<no-speech> 
[99.055]
<int> a d e b i j j a n æː s t u n ɖ a n i i p p u ɖ iː s aː ɹ i 
[101.615]
<no-speech> 
[102.825]
<no-speech> 
[103.195]
<no-speech> 
[106.265]
<no-speech> e ʈ l æː s i n ɖ a p p u ɖ u eː n p e ʈ ʈ æː s i n ɖ a p p u ɖ u <no-speech> 
[111.295]
<no-speech> 
[115.815]
<no-speech> 
[116.175]
<no-speech> 
[121.155]
<no-speech> 
[121.535]
<no-speech> 
[127.315]
<no-speech> 
[127.695]
<no-speech> 
[130.085]
<no-speech> aː ɭ l i l l a k a 
[132.025]
<no-speech> 
[138.045]
i p p u ɖ æː s t u n ɖ a m a ɭ l iː s aː ɹ i <no-speech> 
[141.535]
<no-speech> 
[143.735]
<no-speech> 
[144.095]
<no-speech> 
[154.935]
<no-speech> i p p u ɖ u a d e ɹ eː ʈ ʋ æː s t aː ɖ a t a k k u ʋ ɹ æː ʈ s m a ɭ ɭ a 
[158.485]
<no-speech> 
[159.555]
<no-speech> 
[159.905]
<no-speech> 
[166.525]
<no-speech> 
[166.975]
<no-speech> 
[170.585]
<sta> ʋ aː n i o n o n p aː ʈ a n a l æː k a b a j a ʈ a k u k o n i i ʈ l a t e t͡ʃ t͡ʃ i a m m u t aː ɖ a 
[174.645]
<no-speech> 
[181.505]
<int> a t͡ʃ t͡ʃ aː t͡ʃ t͡ʃ a e uː ɹ u <no-speech> 
[185.675]
<no-speech> 
[188.935]
<sta> a <no-speech> 
[191.255]
<no-speech> 
[198.825]
<sta> a a 
[200.745]
<no-speech> 
[209.605]
<sta> a 
[211.085]
<no-speech> 
[213.645]
s a ɹ e a ɖ u g u o k a s aː ɹ i a ɖ i g i m a ɹ i e n t a k u i s t aː ɖ o o k a s aː ɹ i ʋ æː ɹ e ʋ aː ɭ ɭ a k i a ɖ i g i n ɖ ɹ u <no-speech> 
[217.485]
<no-speech> 
[218.395]
<no-speech> o p aː j i <no-speech> 
[221.335]
<no-speech> 
[223.845]
s æː m n aː l u g o a j i d o t iː s u k u n ʈ aː ɖ u 
[225.565]
<no-speech> 
[226.845]
<no-speech> 
[227.665]
<no-speech> 
[235.945]
<no-speech> 
[244.225]
<no-speech> 
[244.605]
<no-speech> 
[245.505]
<no-speech> 
[245.855]
<no-speech> 
[246.975]
n a s i m aː ɖ e t iː s u k u n ʈ i k a d a p a k k a <no-speech> 
[250.965]
<no-speech> 
[253.035]
<no-speech> 
[253.675]
<no-speech> 
[256.935]
<no-speech> 
[257.385]
<no-speech> 
[260.745]
<no-speech> 
[263.895]
<no-speech> 
[268.900]
