[0.000]
<no-speech> 
[5.145]
<no-speech> 
[5.515]
<no-speech> 
[6.585]

[9.685]
<no-speech> 
[12.465]
<no-speech> <sta> h a l o 
[14.935]
<no-speech> 
[17.955]

[18.735]
<no-speech> 
[21.375]
ɹ uː n l o u n n a 
[22.545]
<no-speech> 
[24.975]
aː n 
[25.465]
<no-speech> 
[28.225]
f oː n 
[29.885]
<no-speech> 
[34.605]
oː h o n i n n a ʈ i d a 
[35.875]
<no-speech> 
[40.025]
oː k eː oː k eː 
[41.865]
<no-speech> 
[44.085]
aː n i ŋ k o 
[47.285]
<no-speech> 
[48.095]
<no-speech> <sta> 
[50.055]
<no-speech> 
[52.605]
i ʈ l e p oː d aː n ʋ iː ɭ ɭ u k uː ɖ a ʋ a s t aː ɹ a n ʈ a 
[54.205]
<no-speech> 
[56.005]
ʋ iː ɭ ɭ u k uː ɖ a ʋ a s t aː ɹ a n ʈ a 
[57.775]
<no-speech> 
[61.765]
<sta> p a ʋ a n ʋ a s t a a n n aː ɖ æ 
[62.775]
<no-speech> 
[65.935]
<no-speech> 
[68.875]
<no-speech> 
[70.895]
i p p u ɖ u n æː n u <no-speech> 
[74.985]
<no-speech> 
[77.665]
aː n 
[78.245]
<no-speech> 
[79.295]
aː n <int> 
[80.335]
<no-speech> 
[81.275]
t͡ʃ e p p aː l i i k a 
[82.675]
<no-speech> 
[85.035]
n u ʋ ʋ u t i n n aː ʋ a 
[87.645]
<no-speech> 
[90.275]
a n n a n ʋ a n ɖ i n aː ʋ æ m a ɹ i 
[91.585]
<no-speech> 
[92.545]

[94.055]
<no-speech> 
[99.635]
aː n h a 
[101.115]
<no-speech> 
[103.045]
ʃ ɹ iː n u 
[104.295]
<no-speech> 
[112.125]
t͡ʃ uː s t aː n u ɹ a 
[112.955]
<no-speech> 
[115.765]
uː n h u 
[116.465]
<no-speech> 
[118.525]
m a ɹ i a ʈ u p oː t a a n n aː ʋ u k a d a <int> 
[120.095]
<no-speech> 
[121.585]

[122.305]
<no-speech> 
[124.835]
æː ʈ o p oː j i ʋ a s t a a n ʈ i ʋ i k a d a 
[126.135]
<no-speech> 
[131.095]
u n n aː ʋ æ 
[132.245]
<no-speech> 
[141.470]
<no-speech> 
[150.695]
<int> s a ɹ e s a ɹ e 
[151.575]
<no-speech> 
[155.555]
aː n s a ɹ e a ʈ ʈ a n e t͡ʃ i k k a ɖ a p a l l i p oː j i ʋ a d d aː m 
[157.485]
<no-speech> 
[159.775]
aː n 
[160.375]
<no-speech> 
[162.735]
t͡ʃ uː s u k u n i ʋ a s t a a j i p oː t aː d i k a d a 
[164.565]
<no-speech> 
[168.115]
<sta> <no-speech> s a ɹ oː d͡ʒ i n i n aː j u ɖ u 
[172.695]
<no-speech> 
[177.245]
<sta> 
[181.225]
<no-speech> 
[184.095]
s a ɹ oː d͡ʒ i n i n aː j u ɖ u ɖ i g ɹ iː a n ɖ p i d͡ʒ i k aː l eː d͡ʒ u m e n s <no-speech> 
[189.385]
<no-speech> 
[192.235]
<sta> t͡ʃ i k k a ɖ a p a l l i l o u n d i s ʈ ɹ iː ʈ n e m b a ɹ s i k s eː d o s e ʋ e n <int> 
[196.025]
<no-speech> 
[200.325]
a ʈ n e k oː ʈ i p oː ʋ aː l i 
[201.615]
<no-speech> 
[204.965]
<laugh> e n d u k a n ʈ e a d i b u k k o n o d d a t͡ʃ a d a ʋ a ʈ aː n i k i <no-speech> 
[208.525]
<no-speech> 
[210.315]
aː n 
[210.965]
<no-speech> 
[214.175]

[215.765]
<no-speech> 
[216.825]
<no-speech> <sta> p a d i n i m i ʂ aː l u a n d u k e m aː ʈ l aː ɖ u 
[222.885]
<no-speech> 
[225.365]
aː n t͡ʃ e p p u 
[226.255]
<no-speech> 
[229.035]

[229.635]
<no-speech> 
[231.635]
aː n aː n 
[232.425]
<no-speech> 
[233.995]

[235.165]
<no-speech> 
[237.735]
<sta> t͡ʃ e p p u <no-speech> 
[241.985]
<no-speech> 
[244.935]
aː n i ŋ k a eː n ʈ i s a ŋ g a t u l u <int> 
[246.495]
<no-speech> 
[247.565]
i k a m aː ʈ l aː ɖ u 
[248.985]
<no-speech> 
[252.185]
n æː n e m aː ʈ l aː ɖ aː l a n a 
[253.285]
<no-speech> 
[254.345]
<int> aː n t͡ʃ e p p u 
[256.035]
<no-speech> 
[261.775]
aː n 
[262.395]
<no-speech> 
[266.755]
s k oː ɹ u eː n a j i n d i t͡ʃ uː ɖ a l e ʋ a t͡ʃ t͡ʃ i i ŋ k a <int> 
[268.715]
<no-speech> 
[269.725]
<no-speech> 
[270.105]
<no-speech> 
[272.365]
e g s e g s 
[274.445]
<no-speech> 
[275.415]

[276.285]
<no-speech> 
[277.145]
<no-speech> 
[278.165]
<no-speech> 
[279.985]
<no-speech> <sta> e g s e g s 
[281.375]
<no-speech> 
[284.105]
<sta> aː n 
[285.325]
<no-speech> 
[287.555]
ʋ e ŋ k a ʈ ɹ e ɖ ɖ i u n n aː ɖ u 
[288.565]
<no-speech> 
[292.975]
<sta> p oː t aː ɖ u ɖ j uː ʈ i eː ɖ u g a n ʈ a l a k i k a d a 
[295.935]
<no-speech> 
[297.005]
<sta> eː ɖ u g a n ʈ a l a k u i p p u ɖ u e k k a ɖ a 
[298.805]
<no-speech> 
[301.035]
<no-speech> <sta> uː n <no-speech> 
[303.525]
<no-speech> 
[305.005]
<sta> t͡ʃ e p p aː l i <no-speech> eː n l æː d u i k a p a ɖ u k u n e p a n e i p p u ɖ u p a ɖ u k u n 
[312.895]
<no-speech> 
[315.575]
aː n 
[316.195]
<no-speech> 
[318.055]
uː n 
[318.675]
<no-speech> 
[323.665]
ɹ uː ŋ k i 
[325.105]
<no-speech> 
[327.945]
uː n 
[328.615]
<no-speech> 
[330.645]
aː n <int> 
[331.935]
<no-speech> 
[335.215]
g o ɖ a ʋ ai d a n ʈ a <int> 
[337.325]
<no-speech> 
[338.645]
g o ɖ a ʋ ai n d i ʋ aː ɭ ɭ i n d a ɹ i k i 
[339.895]
<no-speech> 
[342.755]
uː n 
[343.445]
<no-speech> 
[346.125]
eː m o <hes> g o ɖ a ʋ a n o g o ɖ a ʋ ai n d i a n i t͡ʃ e p p i n ɖ u ʋ aː ɖ u 
[348.825]
<no-speech> 
[351.845]
n aː k u n aː k u k uː ɖ a t e l a ʋ a d u 
[353.475]
<no-speech> 
[355.535]
<sta> aː n 
[356.345]
<no-speech> 
[359.965]
aː n k aː ʋ a t͡ʃ t͡ʃ u <int> 
[361.495]
<no-speech> 
[365.525]
aː n 
[366.085]
<no-speech> 
[371.335]
uː n uː n <int> a n t e a n t e 
[374.925]
<no-speech> 
[376.455]
uː n 
[377.165]
<no-speech> 
[381.515]
n u ʋ ʋ u f oː n t͡ʃ æː s i n a p p u ɖ u 
[382.705]
<no-speech> 
[384.855]

[385.765]
<no-speech> 
[388.745]
uː n 
[389.345]
<no-speech> 
[390.935]
aː n 
[391.575]
<no-speech> 
[393.925]
aː n e p p u ɖ u a n ʈ e a p p u ɖ u 
[396.035]
<no-speech> 
[400.645]
aː n 
[401.285]
<no-speech> 
[402.915]
aː n 
[403.535]
<no-speech> 
[405.765]
aː n aː n 
[406.785]
<no-speech> 
[412.495]
t͡ʃ e p p aː l i n u ʋ ʋ e 
[413.375]
<no-speech> 
[418.135]
ʋ e ŋ k a ʈ ɹ e ɖ ɖ i b u k s u t͡ʃ a d u ʋ u t u n ɖ u <int> 
[422.015]
<no-speech> 
[424.135]
uː n e uː t t i n æ a ʈ l a b u k p a ʈ ʈ i n ɖ u a ʈ l a 
[426.555]
<no-speech> 
[430.815]
aː n 
[432.055]
<no-speech> 
[436.925]
t͡ʃ æː s i n a 
[437.635]
<no-speech> 
[440.395]
uː n 
[441.035]
<no-speech> 
[443.715]
e ʋ a ɹ u t͡ʃ e j j aː l e 
[444.565]
<no-speech> 
[448.965]
p a k k a n e u n n aː j i k aː n i ʋ i a ɹ o <no-speech> 
[452.745]
<no-speech> 
[455.455]
s e ʋ e n ʈ iː eː n k aː d u <int> 
[456.385]
<no-speech> 
[459.395]
i ʋ aː ɭ a a d i a n d u k e t͡ʃ æː s i n aː n 
[460.675]
<no-speech> 
[462.745]
aː n n æː n u k uː ɖ a t͡ʃ æː s i n a 
[464.475]
<no-speech> 
[466.725]
uː n 
[467.325]
<no-speech> 
[469.255]

[470.245]
<no-speech> 
[472.425]
aː n 
[472.965]
<no-speech> 
[477.555]
i n ʈ i k i <hes> ʈ ʋ a n ʈ iː 
[479.665]
<no-speech> 
[480.565]
<no-speech> 
[480.915]
<no-speech> 
[481.875]
n e k s ʈ m a n t ʈ ʋ a n ʈ iː 
[482.945]
<no-speech> 
[486.275]
s a m ʈ ai n p aː s <no-speech> 
[488.195]
<no-speech> 
[491.085]
uː n 
[491.645]
<no-speech> 
[493.155]

[493.995]
<no-speech> 
[497.425]
ʋ a s t aː n ʋ a s t aː n a n i t͡ʃ e p p i <int> 
[500.485]
<no-speech> 
[502.665]
eː m o e p p u ɖ u d o ɹ u k u t aː d o a p p u ɖ u 
[504.025]
<no-speech> 
[507.505]
k a l u d d aː n 
[508.165]
<no-speech> 
[515.615]
a d e k oː ʈ i n aː ɹ aː j a ɳ a g uː ɖ a t i ɹ i g i n æ t a ɹ u ʋ aː t a ʈ ai n u n ʈ e m i ɹ uː ŋ k i ʋ a s t a l æː k a p oː t e ɹ aː n u 
[520.605]
<no-speech> 
[523.655]
aː n 
[524.725]
<no-speech> 
[527.445]
aː n 
[528.105]
<no-speech> 
[531.075]
ɹ aː m u m i ɹ uː ŋ k i ɹ aː m u 
[532.175]
<no-speech> 
[535.035]
a n t e m a ɹ i m i ɹ uː ŋ k i e n d u k u ʋ a s t aː n 
[539.655]
<no-speech> 
[548.675]
eː n a p l ai t͡ʃ æː s t u n n aː ɖ a n ʈ a 
[549.705]
<no-speech> 
[552.325]
aː h a 
[552.945]
<no-speech> 
[554.305]
a d i a d i t iː s u k oː s t aː ɖ u a n ʈ aː n a 
[555.835]
<no-speech> 
[558.155]
aː n 
[558.765]
<no-speech> 
[564.085]

[564.475]
<no-speech> 
[569.955]
aː h a 
[570.645]
<no-speech> 
[577.735]
<sta> aː n <no-speech> 
[580.025]
<no-speech> 
[581.155]
<no-speech> <sta> 
[583.125]
<no-speech> 
[585.235]
aː n i ŋ k a 
[586.145]
<no-speech> 
[587.645]

[588.165]
<no-speech> 
[589.575]
<no-speech> <sta> b a j a l u d æː ɹ u t aː n t ɹ i a j i n d i g æ <oov> f oː ɹ k u b a j a l u d æː ɹ u t aː n 
[596.715]
<no-speech> 
[600.440]
