[0.000]
<no-speech> 
[3.155]
<no-speech> 
[3.625]
<no-speech> 
[5.905]
h a l o 
[6.645]
<no-speech> 
[8.765]
a ʋ i n a p a ɖ u t u n d i eː n t͡ʃ æː s t u n n aː ʋ u i ŋ k a e k k a ɖ a i p p u ɖ u 
[12.315]
<no-speech> 
[13.765]
e k k a ɖ u n n aː ʋ u ɹ a 
[14.935]
<no-speech> 
[17.865]
i p p u ɖ u d aː k a <sta> eː n d i eː n t͡ʃ æː s t aː ʋ i n ʈ i k i p oː j i i p p u ɖ u 
[21.095]
<no-speech> 
[22.665]
i p p u ɖ u t a ɹ u ʋ aː t a d aː n n i eː n t͡ʃ æː s t aː ʋ u ɹ a 
[24.605]
<no-speech> 
[28.225]
k o ʈ ʈ u k u n ʈ aː ʋ a 
[30.375]
<no-speech> 
[32.115]
a 
[32.765]
<no-speech> 
[34.165]
a 
[34.735]
<no-speech> 
[35.955]
e k k a ɖ i k i j æː l t aː ʋ 
[36.855]
<no-speech> 
[39.335]
a d i k aː d u ɹ a aː n j u b i e l ʈ eː b u l u <int> a n t a m a n a n ɹ i p eː ɹ t͡ʃ æː j i n t͡ʃ aː l i k a d a 
[43.405]
<no-speech> 
[44.755]
<int> iː ʋ e n i ŋ ʋ a t͡ʃ t͡ʃ æː d a <int> l æː k a p oː t e n æː n u s n aː n a n t͡ʃ æː s i ɹ e ɖ iː a j j æː s i ʋ a t͡ʃ t͡ʃ æː d a 
[48.215]
<no-speech> 
[51.605]

[52.795]
<no-speech> 
[53.995]
a ʋ a s t aː n u k aː n i 
[56.435]
<no-speech> 
[57.665]
a d i k aː d u e k k a ɖ i k i ʋ e ɭ d aː m e k k a ɖ i k i ʋ e ɭ ɭ i ɹ i p eː ɹ t͡ʃ æː j i n t͡ʃ u t aː n d aː n n i 
[60.685]
<no-speech> 
[63.375]
s aː j i b aː b a g u ɖ i d a g g a ɹ a e ʋ a ɹ ai n a p i l l a l u t e l i s i n ʋ aː ɭ ɭ u u n n aː ɹ æ n iː k u <int> 
[66.595]
<no-speech> 
[68.585]
a n ʈ e a a l j uː m i n i j a n ʋ e l ɖ i ŋ t͡ʃ æː s e ʋ aː ɭ ɭ u e ʋ a ɹ ai n a t e l i s i n ʋ aː ɭ ɭ u ai t e k aː ʋ aː l i m a n a k i <int> u n ʈ aː ɹ a 
[76.225]
<no-speech> 
[80.385]
a 
[80.755]
<no-speech> 
[81.735]
i d d a ɹ u u n n aː ɹ æ 
[82.855]
<no-speech> 
[84.205]
a <int> 
[84.755]
<no-speech> m aː m uː l u i n u m u s aː m aː n l u k aː d u ɹ a a l j uː m i n i j a n ʋ e l ɖ i ŋ t͡ʃ æː j aː l i a n ʈ e a l j uː m i n i j a n p l eː ʈ k uː ɖ a ʋ aː ɭ ɭ u k oː j i n t͡ʃ aː l i f a s ʈ k oː j i n t͡ʃ i m a n a k i <foreign> t͡ʃ æː j aː l i d aː n n i <no-speech> 
[96.145]
<no-speech> 
[98.375]
<int> s a ɹ e i ŋ k æː n ʈ i ɹ a <no-speech> 
[102.035]
<no-speech> 
[103.925]
<no-speech> 
[104.465]
<no-speech> 
[105.795]
<no-speech> 
[106.155]
<no-speech> 
[108.605]
eː n d i n aː l u g u ɹ oː d͡ʒ u l u 
[109.985]
<no-speech> 
[111.255]
iː ɹ oː d͡ʒ u ɹ e s ʈ t iː s u k u n æː d a k a m p l iː ʈ u g aː n æː n u ɹ e s ʈ t iː s u k u n ʈ aː n u l e ɹ æː p u k aː ʋ aː l a n ʈ e ʋ a s t a aː n 
[116.225]
<no-speech> 
[118.775]
a <int> 
[119.735]
<no-speech> 
[121.085]
m aː ʈ a l aː ɖ æː ʋ aː ɭ ɭ u 
[127.805]
<no-speech> 
[129.005]
a 
[129.685]
<no-speech> 
[136.665]
aː n ʋ e ɭ ɭ aː l i ɹ a b aː b u a n ʈ e n aː k u b u k k aː ʋ aː l i <int> 
[142.575]
<no-speech> 
[145.325]
a i n ʈ l o b u k 
[147.655]
<no-speech> 
[149.005]
a 
[149.705]
<no-speech> 
[154.775]
a d e a d e a d e p a k k a 
[159.345]
<no-speech> 
[162.735]
a 
[163.525]
<no-speech> 
[165.045]
u m 
[165.615]
<no-speech> 
[168.325]
a 
[168.695]
<no-speech> 
[169.805]
u m 
[170.395]
<no-speech> 
[174.495]
u m 
[175.135]
<no-speech> 
[177.135]
p a d i h æː n u t a ɹ u ʋ aː t a k aː n i m a n a n n a n d j aː l a k i ʋ e ɭ t u n ɖ æː d i p a d i h æː n u l oː p a l a ʋ aː ɖ u i n s ʈ i ʈ j uː ʈ k i ʋ e ɭ ɭ æː s i aː n ʋ aː ɖ u t͡ʃ e p p aː ɖ u i d i ʋ a ɹ a k æ s ʈ uː ɖ e n ʈ s k i o k a s aː ɹ i ɖ e m o i s t aː m a n æː s i s oː o k a ɖ e m o i p p i n t͡ʃ a ɖ aː n i k i p l aː n t͡ʃ æː d d aː m u eː n ʋ aː ɖ i t͡ʃ æː t i l o d aː d aː p u g a ɹ e n ɖ u ʋ a n d a l a m a n d i u n n aː ɹ u t͡ʃ uː d d aː n e n t a m a n d i d͡ʒ aː j i n a j i t e a n ɖ m a n t͡ʃ i d e k a d a m a n a k u o k a o k a o k a e m au n ʈ ʋ a s t e d aː n i p a ʈ ʈ u k u n i <no-speech> 
[207.135]
u m i ŋ k a 
[208.135]
<no-speech> 
[210.295]
a t͡ʃ e p p a ɹ a <int> 
[211.285]
<no-speech> 
[214.205]
n aː k u eː m i n i d ɹ a ɹ aː ʋ a ɖ a n l æː d u ɹ a b aː b u k aː n i ʈ ai ɖ g aː u n d i s oː i ŋ k a s n aː n a n t͡ʃ æː s u k o n i t i n æː s i k aː s æː p u n i d ɹ a p oː d aː n a n i a n u k u n ʈ u n n a 
[221.185]
<no-speech> 
[226.265]
u m <no-speech> 
[227.675]
<no-speech> 
[230.885]
oː k eː oː k eː f ai n p l aː n t͡ʃ æː j aː l i m a ŋ g a ɭ a b u d a g u ɹ u ʃ u k ɹ a m uː ɖ u n aː l u g u ɹ oː d͡ʒ u l u u n n aː j i a n t æː k a d a 
[236.725]
<no-speech> 
[239.015]
<sta> aː n i f oː ɹ ɖ eː s b a j a k a ɹ a ŋ g a s p iː ɖ t͡ʃ æː j aː l i s p iː ɖ t͡ʃ æː s t e k aː n i k u d a ɹ a d u k u d a ɹ a k a p oː t e k aː n i <no-speech> 
[251.525]
<no-speech> 
[252.555]
<no-speech> aː n iː ɹ oː d͡ʒ u k o n n i p eː p a ɹ s u t iː s u k o t͡ʃ t͡ʃ i i s t aː ɹ ɹ a e ʋ a ɹ i k i k æː ʃ a ʋ a ɹ d a n g aː ɹ i k i i t͡ʃ t͡ʃ æː s t aː n u k a ɹ a k ʈ u 
[261.875]
<no-speech> 
[262.955]
u m aː j a n f iː ɖ t͡ʃ æː j i n t͡ʃ i 
[264.555]
<no-speech> 
[268.695]
e ʋ a ɹ u u n n aː ɹ u ɹ æ b aː b u e ʋ a ɹ u ʋ a s t aː ɹ u m a ɳ i k i m a n a t o t͡ʃ æː j i n t͡ʃ a ɖ aː n i k i e ʋ a ɹ u ɹ aː ɹ u 
[273.975]
<no-speech> 
[278.865]
e ʋ a ɹ ɹ a m a n a m u i p p u ɖ u ɖ a b b u l u i t͡ʃ t͡ʃ u k u n æ s t i t i l o l æː m u m a n p a ɹ i s t i t i n iː k u t e l i s i n d e k a d a e ʋ a ɹ ai n a t͡ʃ æː s i p e ɖ a t e t iː s u k u n d aː n m a ɭ ɭ a k aː ʋ aː l a n ʈ e o k k a s aː ɹ i a d i k aː d u ɹ a o k k a s aː ɹ i f ɹ iː t͡ʃ æː s t e a l aː g e u n ʈ u n d i p eː p a ɹ m a n a m u e ʋ a ɹ i k ai n a aː f a ɹ t͡ʃ æː s u k oː ʋ a t͡ʃ t͡ʃ u a p p u ɖ u ɖ a b b u l u ʋ a s t e k aː ʋ aː l a n ʈ e ʋ aː ɭ ɭ a k i i t͡ʃ t͡ʃ æː j oː t͡ʃ t͡ʃ u ʋ aː ɭ ɭ a p ɹ a t i p a l aː n i k i g au ɹ a ʋ a m i t͡ʃ t͡ʃ i i t͡ʃ t͡ʃ æː j oː t͡ʃ t͡ʃ u i p p u ɖ u i m i ɖ i j a ʈ g aː a n ʈ e m a n ʋ a l l a m a n d͡ʒ æː b u l oː n t͡ʃ i eː n p e ʈ ʈ u k oː g a l u g u t aː n 
[300.645]
eː n l æː ʋ u u m 
[302.075]
<no-speech> 
[303.365]
a d i o k a ʈ i i b b a n d i 
[304.735]
<no-speech> 
[305.835]
a d e k aː n i b u k o k a ʈ i eː n b u k k aː ʋ aː l i t͡ʃ uː s t u n n aː n u s oː m a n t͡ʃ i b u k o k a ʈ i t iː s u k u n i f iː ɖ t͡ʃ æː s u k oː ʋ aː l i 
[313.945]
<no-speech> 
[314.985]
u m p oː n i a 
[320.645]
<no-speech> 
[326.445]
aː n <int> a d i k aː d u ɹ a æː n ʈ i ɹ a aː k a l i ʋ e j j a ʈ l æː d a i ŋ k a n iː k u 
[329.565]
<no-speech> 
[331.115]
a <int> 
[331.655]
<no-speech> 
[334.385]
a 
[336.155]
<no-speech> 
[337.765]
uː n 
[338.275]
<no-speech> 
[340.955]
<int> u m 
[341.915]
<no-speech> 
[345.425]
u m s a ɹ e m a n t͡ʃ i d i i ŋ k a 
[347.695]
<no-speech> 
[348.905]
i ŋ k æː n ʈ i ɹ a s a ŋ g a t u l u 
[350.425]
<no-speech> 
[351.845]
ai t e i ŋ k a p a d i n i m i ʂ aː l u <int> 
[355.465]
<no-speech> 
[359.045]
u m 
[359.675]
<no-speech> 
[363.105]
t iː s u k o n æː d aː n i k i k aː ʋ a l i s i n ɖ a b b u l u t iː s u k u ʋ a t͡ʃ t͡ʃ æː j aː l i ɹ a a d i ɹ a m a n p l aː n a d i e l a t iː s u k u ɹ aː ʋ aː l a a n i a d i k aː d u 
[374.735]
i p p u ɖ u ɹ aː k u n ɖ a o k a ɹ e n ɖ u m uː ɖ u ɹ oː d͡ʒ u l u a ʈ l aː g e u n ɖ i u n ʈ e i ŋ k a ɹ oː d͡ʒ u k u k a n iː s a n o k a i n i n s iː m o d a ʈ a ɹ oː d͡ʒ u ai d u p e ɹ i g i n d i n i n p a d i p e ɹ i g i n d i iː ɹ oː d͡ʒ u iː ɹ oː d͡ʒ u i ɹ a ʋ ai p e ɹ i g e a n u k o s k oː p u n ʈ u n d i k a d a 
[384.375]
<no-speech> 
[386.675]
a 
[387.255]
<no-speech> 
[392.745]
e ʋ a ɹ ɹ a 
[393.585]
<no-speech> 
[395.765]
a 
[396.375]
<no-speech> 
[401.195]
u m t͡ʃ e p t a 
[402.455]
<no-speech> 
[404.615]
æː m i ɹ a <int> p aː m p l e ʈ l oː u n ɖ e n a m b a ɹ aː n u ʋ ʋ u t͡ʃ e p t u n ɖ æː d i 
[407.095]
<no-speech> 
[409.795]
e j i ʈ s i k s e j i ʈ s i k s t ɹ i s i k s a d i n iː l i m a d i <int> n æː n u t iː s u k u n n aː n u <no-speech> 
[414.125]
<no-speech> 
[415.065]
a 
[415.665]
<no-speech> 
[419.905]
n æː n e k a d a ʋ aː ɖ u t u n d i <no-speech> n æː n e k a d a ʋ aː ɖ u t u n d i a n e m b a ɹ i p p u ɖ u 
[425.385]
<no-speech> 
[428.275]
n æː n e j uː z t͡ʃ æː s t u n n a a a m m aː j i d æ s i m b a ʈ n æː n u t iː s æː s u k u n i n æː n u j uː z t͡ʃ æː s t u n n a <int> 
[432.865]
<no-speech> 
[436.055]
u m 
[436.825]
<no-speech> 
[442.915]
uː n a ʋ u n u ɹ æː j <sta> a n d u b aː ʈ u l o n i n m a n k oː s a n k aː s u k u n i u n n aː ɖ u o k a a b b aː j i k aː n i ʋ aː ɖ e l aː s ʈ l o s ai n t͡ʃ æː s i 
[454.385]
s ai n au ʈ t͡ʃ æː s i n d i m iː t o <oov> <laugh> <breath> t o m m i d i m a n d i ʋ a t͡ʃ t͡ʃ i p oː j aː ɹ u m u n d a ɹ a s oː a j i t e a d i k aː d u ɹ a o k a ʈ i ɹ e n ɖ u s a ɹ ʋ iː s l æː k a p oː j e iː ɹ oː d͡ʒ u ai t i ŋ k ʋ a s t u n d i a n i uː n k a d a o k a ʈ i ɹ e n ɖ u <foreign> a j i n a 
[470.125]
<no-speech> 
[471.355]
<no-speech> u m 
[473.345]
<no-speech> 
[475.795]
a d æː ɹ a ʋ e ɭ ɭ æː s i i ŋ k a <oov> i ŋ k a b aː g a <foreign> i ŋ k a e k k u ʋ a ɹ iː t͡ʃ t͡ʃ æː s æː d aː n i k i ʈ ɹ ai t͡ʃ æː j aː l a <breath> ɹ oː d͡ʒ u k i p a d i e n ʈ i ɹ a ɹ oː d͡ʒ u k i i ɹ a ʋ ai m u p p a j i a m m a g a l a g aː l i 
[486.525]
<no-speech> 
[488.385]
i ɹ a ʋ ai m u p p a j i a m m a g a l i g i t æ d e n i ʈ s g u ɖ 
[491.545]
<no-speech> 
[492.555]
u m i ŋ k a 
[493.545]
<no-speech> 
[497.245]
<no-speech> 
[497.595]
<no-speech> 
[501.095]
u m 
[501.955]
<no-speech> 
[504.165]
a d e a d e a d e a i s a ɹ i a l a t͡ʃ æː d d aː m u l e s a ɹ æː n a <breath> i s a ɹ i e n ʈ i l æː d u l æː ɹ a i d i ai d u i t͡ʃ i n e l s i ɖ i m aː n i ʈ a ɹ s a ŋ k a l o p e ʈ ʈ u k u n i d iː n i k i k aː ʋ a l i s i n <no-speech> eː d i b aː ʈ a ɹ iː o k a ʈ i k aː ʋ a l i s i n a p p u ɖ u b aː ʈ a ɹ iː o k a ʈ i p e ʈ ʈ u k u n ʈ e 
[519.625]
<no-speech> 
[520.795]
n e k s ʈ ʈ ai n ʋ e ɭ ɭ i p oː ʋ a t͡ʃ t͡ʃ u 
[521.855]
<no-speech> 
[522.775]
l æː k a p oː t e e l s i d i m aː n i ʈ a ɹ l æː k a p oː t e <int> p iː ɖ a p oː j i n d i e l s i ɖ i m aː n i ʈ a ɹ u n ɖ i a p l a s s u a ʈ eː b u l u l æː k a p oː t e t͡ʃ uː s æː ʋ a p oː ɹ ʈ a b u l p oː ɹ ʈ a b u l ʈ eː b u l u l a n ɖ o k a ʈ i t iː s u k oː ʋ aː l i <lipsmack> a ʈ l a m a ɖ i t͡ʃ i p e ʈ ʈ e m a ɖ i t͡ʃ i b aː g l oː p e ʈ ʈ æː s i ʈ ai p k a l i g æ k a l i g i n a ʈ ʈ u u n ɖ aː l i u n ʈ e m o t t a n m a ɖ i t͡ʃ i b aː g l oː p e ʈ ʈ æː j a k a l a g aː l i <int> aː n a l a u n ʈ e s a ɹ i p oː t u n d i 
[542.845]
<no-speech> 
[546.415]
uː n iː ɹ oː d͡ʒ u ʋ a t͡ʃ t͡ʃ æː d a ɹ æː p u m aː ɹ n i ŋ g k a l i s æː d a m i i n ʈ l o 
[553.475]
<no-speech> 
[556.535]
aː n 
[557.145]
<no-speech> 
[562.245]
ʋ a t͡ʃ t͡ʃ e 
[563.425]
<no-speech> 
[568.355]
e ʋ a ɹ a d i n i d i s ai n au ʈ 
[570.375]
<no-speech> 
[572.245]
s ai n au ʈ t͡ʃ æː s t aː l e n e m b a ɹ ʋ a t͡ʃ t͡ʃ æː s i n d æ n iː k u 
[575.115]
<no-speech> 
[576.715]
aː n d iː n i k i s a m b a n d i n t͡ʃ i n n e m b a ɹ ʋ a t͡ʃ t͡ʃ i n d æː ɹ æ 
[579.005]
<no-speech> 
[579.815]
<no-speech> 
[580.195]
<no-speech> 
[582.115]
a 
[582.555]
<no-speech> 
[583.805]
oː k eː u m 
[585.795]
<no-speech> 
[594.455]
u m 
[594.915]
<no-speech> 
[600.020]
