[0.000]
<no-speech> 
[1.595]
<no-speech> 
[2.055]
<no-speech> 
[5.235]
<int> h a l o 
[6.205]
<no-speech> 
[7.585]
<no-speech> e l aː ʋ u n n aː ʋ u 
[10.765]
<no-speech> 
[13.945]
i d i g o i n ʈ i d a g g a ɹ a <int> 
[15.775]
<no-speech> 
[20.615]
uː n a k k a ɖ æː ɹ a a d e i ŋ k e k k a ɖ a ʋ u n ʈ u n d i m a n a d i 
[24.295]
<no-speech> 
[25.835]
<int> uː n 
[27.345]
<no-speech> 
[28.145]
i ŋ k a e l a ʋ u n n aː ʋ u ɹ æ 
[29.925]
<no-speech> 
[32.585]
uː n 
[33.425]
<no-speech> 
[34.275]
i ŋ k a p i l l a l u e ʈ l a ʋ u n n aː ɹ u 
[35.595]
<no-speech> 
[38.275]
<int> uː n 
[39.695]
<no-speech> 
[41.555]
i ŋ k a e k k a ɖ a a k k a ɖ e t͡ʃ æː s t u n n aː ʋ a i ŋ k a <int> 
[43.895]
<no-speech> 
[45.815]
<no-speech> 
[46.715]
<no-speech> 
[47.865]
uː n i ŋ k a t͡ʃ aː l a ɹ oː d͡ʒ u l a t a ɹ u ʋ aː t a ɹ a 
[51.115]
<no-speech> 
[55.535]

[56.135]
<no-speech> 
[57.515]
i ŋ k a e ʋ a ɹ a n n a k a l u s t u n n aː ɹ a 
[59.235]
<no-speech> 
[64.685]
uː n 
[65.535]
<no-speech> 
[67.365]
e l a ʋ u n n aː ɖ u 
[68.215]
<no-speech> 
[70.415]
<no-speech> 
[70.795]
<no-speech> 
[71.725]
uː n ɹ aː h u l g aː ɖ u m o n n a ʋ a t͡ʃ t͡ʃ i n a ʈ ʈ u a n i t͡ʃ e p p æː s i ʋ i n n aː n u 
[75.435]
<no-speech> 
[76.235]
<no-speech> 
[76.895]
<no-speech> 
[78.845]
<no-speech> 
[79.205]
<no-speech> 
[82.715]
uː n h u h u 
[83.535]
<no-speech> 
[85.205]
<no-speech> 
[86.005]
<no-speech> 
[86.905]
i ŋ k aː ɹ a ʋ iː ɖ u i p p u ɖ u t͡ʃ i n n aː g aː ɖ u eː m i t͡ʃ æː s t u n n aː ɖ u 
[89.355]
<no-speech> 
[94.325]
uː n a d i ʋ a t͡ʃ t͡ʃ i n d æ 
[96.455]
<no-speech> 
[101.755]
<no-speech> 
[103.145]
<no-speech> 
[105.835]
<no-speech> 
[106.605]
<no-speech> 
[109.335]
uː n 
[110.015]
<no-speech> 
[111.255]
<no-speech> e k k a ɖ i k i ʋ e ɭ t aː n ɹ æ i p p u ɖ u 
[113.585]
<no-speech> 
[114.935]
<int> ʋ e ɭ ɭ aː l a k o d d i g a <int> t͡ʃ i n p a n i ʋ u n d i i k a s aː j a n t ɹ a m ʋ e l d aː m a n i aː g i n a 
[119.035]
<no-speech> 
[121.555]
<no-speech> 
[122.725]
<no-speech> 
[125.945]
aː n 
[126.545]
<no-speech> 
[129.865]
n aː d i e j i ɹ ʈ e l 
[131.375]
<no-speech> 
[136.315]
<int> uː n 
[137.005]
<no-speech> 
[140.225]
uː n h u 
[140.835]
<no-speech> 
[142.925]
<no-speech> 
[143.425]
<no-speech> 
[144.245]
i ŋ k a ʋ iː ɖ u b aː l a g aː ɖ u e k k a ɖ a t͡ʃ æː s t u n n aː ɖ u d aː n ʈ l oː n e t͡ʃ æː s t u n n aː ɖ a 
[148.085]
<no-speech> 
[151.715]
<no-speech> 
[153.685]
<no-speech> 
[154.555]
<no-speech> 
[155.015]
<no-speech> 
[156.565]
<sta> uː n t͡ʃ aː l a ɹ oː d͡ʒ u l u a j i n d i ɹ æ o k a s aː ɹ i k a l i s t e a n d a ɹ u b aː g u n ʈ aː d i <no-speech> uː n <no-speech> uː n <no-speech> 
[168.495]
<no-speech> ʋ iː ɖ u b aː s k a ɹ g aː ɖ u e k k a ɖ a ʋ u n n aː ɖ u 
[171.135]
<no-speech> 
[175.665]
uː n 
[176.475]
<no-speech> 
[179.635]
<no-speech> 
[181.065]
<no-speech> 
[182.645]
<int> 
[183.795]
<no-speech> 
[184.955]
<no-speech> e p aː p a i n d͡ʒ i n iː ɹ i ŋ f ai n a l i j a ɹ ʋ u n d i <sta> ʋ iː ɖ æː m o ɖ i g ɹ iː s e k a n ɖ i j a ɹ t͡ʃ æː s t u n n aː ɖ u <no-speech> 
[196.695]
<no-speech> 
[198.135]
<no-speech> 
[200.365]
aː n p a ɹ l æː d u ɹ a <no-speech> i d i g o i s a n ʋ a t s a ɹ a n a j i p oː t e a m m aː j i m aː ɹ eː d͡ʒ t͡ʃ æː j i d d aː n a n i a n u k u n ʈ u n n aː n u <int> 
[206.155]
<no-speech> 
[207.575]
<no-speech> 
[208.955]
<no-speech> 
[210.285]

[210.745]
<no-speech> 
[212.515]
aː n 
[213.375]
<no-speech> 
[216.715]
<sta> aː f iː s u l oː n a ʋ u n d i a d e d͡ʒ i ɖ a b l j u e m <foreign> ʋ u n n aː n u i s t aː ɹ u l e i ŋ k a t e l i s i n d e k a d a 
[225.225]
<no-speech> 
[226.165]
eː d ai n a m e l l a g a ʋ a s t aː d i 
[227.505]
<no-speech> 
[229.365]
t o n d a ɹ æː m u n d i 
[230.305]
<no-speech> 
[232.265]
<no-speech> 
[232.885]
<no-speech> 
[234.705]
i ŋ k a n iː d i e l a n a ɖ u s t u n d i ɹ a 
[236.155]
<no-speech> 
[238.855]
<int> uː n m a m m iː ɖ a ɖ i b aː g u n n aː ɹ æ 
[241.535]
<no-speech> 
[242.705]
<no-speech> 
[244.255]
<no-speech> 
[246.305]
<int> i ŋ k aː ɹ a <foreign> ʋ iː ɖ u m a n ɹ aː m u i n s uː ɹ e n s l oː n eː t͡ʃ æː s t u n n aː ɖ u k a d a i ŋ k a <int> 
[255.145]
<no-speech> 
[257.015]
<no-speech> 
[257.965]
<no-speech> 
[259.975]
æː n ʈ i d i ʋ aː ɖ u i p p u ɖ u 
[261.425]
<no-speech> 
[264.545]
<no-speech> 
[265.895]
<no-speech> 
[268.085]
<no-speech> <foreign> o n s a ɹ ʋ e s ʈ aː ɹ ʈ t͡ʃ æː s i n ɖ æ <no-speech> uː n 
[277.465]
<no-speech> 
[280.765]
<no-speech> uː n h u h u 
[283.535]
<no-speech> 
[284.555]
<no-speech> 
[285.445]
<no-speech> 
[288.305]
uː n ʋ aː ɖ i k i e n t a m a n d i p i l l a l a n ʈ a <no-speech> 
[291.495]
<no-speech> 
[293.035]
<no-speech> aː n h a æː m oː ɹ a t͡ʃ aː l a ɹ oː d͡ʒ u l u a j i n d i k a l i s i o k a s aː ɹ i k a l a ʋ aː l i a n d a ɹ u 
[298.185]
<no-speech> 
[299.015]
<no-speech> e ʋ a ɖ e ʋ a ɖ o e k k a ɖ e k k a ɖ o u n n aː ɹ u <no-speech> uː n 
[306.225]
<no-speech> 
[307.415]
<no-speech> 
[309.945]
<no-speech> 
[310.955]
uː n ʋ aː ɖ i d i eː n d i a p p a ʈ i n u n ɖ i o n b i d͡ʒ i n e s s eː n aː i ŋ k a <no-speech> uː n h u 
[317.795]
<no-speech> 
[319.595]
<no-speech> aː n 
[322.665]
<no-speech> 
[324.515]
<no-speech> uː n <no-speech> uː n <no-speech> 
[333.425]
<no-speech> 
[335.745]
uː n 
[336.525]
<no-speech> 
[338.035]
<no-speech> 
[340.225]
<no-speech> 
[341.615]
i ŋ k aː ɹ a t͡ʃ e p p aː l i t͡ʃ aː l a ɹ oː d͡ʒ u l a t a ɹ ʋ aː t a t͡ʃ æː s aː ʋ u 
[345.465]
<no-speech> 
[347.455]
<int> uː n <int> 
[349.295]
<no-speech> 
[350.605]
i k a <int> p i l l a l u eː n t͡ʃ æː s t u n n aː ɹ u a n n aː ʋ u <no-speech> h a l o 
[358.155]
<no-speech> 
[359.825]
<no-speech> e ʋ a ɖ u aː n ʋ aː ɖ u m eː n eː d͡ʒ a ɹ m o n n a n e a j i n ɖ a n ʈ a 
[365.485]
<no-speech> 
[367.135]
uː n m o t t a m u m e j i n ʈ e n e n s i p p u ɖ u m o t t a m u ʋ aː ɖ e t͡ʃ uː s u k u n ʈ u n n aː ɖ u <no-speech> 
[371.845]
<no-speech> 
[373.805]
uː n 
[374.575]
<no-speech> 
[375.375]
p a ɹ l æː d u l e b aː g aː n e s a m p aː d i s t u n n aː ɖ u ɹ e n ɖ u t͡ʃ æː t u l a 
[377.865]
<no-speech> 
[379.715]
<no-speech> 
[380.135]
<no-speech> 
[383.205]
i ŋ k a ʋ iː ɖ u ɹ aː g a ʋ æː n d ɹ a ʋ aː ɭ ɭ u a ɹ d͡ʒ u n ʋ aː ɭ ɭ u eː m ai n a ʈ a t͡ʃ l o ʋ u n n aː ɹ ɹ æ n iː k u <no-speech> 
[389.235]
<no-speech> 
[393.755]
<no-speech> 
[394.125]
<no-speech> 
[395.365]
uː n 
[396.165]
<no-speech> 
[399.445]
m o n n a e p p u ɖ o t͡ʃ a n d u g aː ɖ æː m o f oː n t͡ʃ æː s aː ɖ u 
[401.965]
<no-speech> 
[403.525]
<no-speech> 
[403.875]
<no-speech> 
[405.115]
aː n t͡ʃ a n d ɹ a ʃ æː k a ɹ g aː ɖ u 
[406.955]
<no-speech> 
[408.605]
<no-speech> eː n l æː d u k o d d i g a <foreign> ʈ ai ʈ ʋ u n d i a n i a n n aː ɖ u <no-speech> æː d a n n a d͡ʒ aː b ʋ u n ʈ e t͡ʃ uː ɖ a m a n i a p p a ʈ i n u n ɖ i a ʈ l aː n e ʋ u n n aː ɖ u 
[417.215]
<no-speech> 
[419.285]
<no-speech> n iː k u eː m a n n a t͡ʃ æː ʃ aː ɖ æ 
[422.115]
<no-speech> 
[428.415]
uː n 
[429.275]
<no-speech> 
[432.345]

[432.785]
<no-speech> 
[436.615]
i ŋ k a <no-speech> 
[438.685]
<no-speech> 
[440.815]
i k k a ɖ a m a n g aː d͡ʒ u l a ɹ aː m aː ɹ a n d a g g a ɹ a 
[444.655]
<no-speech> 
[447.195]
<no-speech> 
[447.805]
<no-speech> 
[448.945]
aː n aː n a d e i l l u ɹ a <no-speech> uː n h u <no-speech> t͡ʃ e p p aː l a ʋ iː ɖ u ɹ aː m a k ɹ u ʂ ɳ a g aː ɖ u <hes> e k k a ɖ a u n ʈ u n n aː ɖ u 
[459.255]
<no-speech> 
[463.815]
ɖ i l l iː l o p oː s ʈ i ŋ g 
[465.815]
<no-speech> 
[467.905]
<no-speech> 
[468.645]
<no-speech> 
[469.915]
e e n n i ɹ oː d͡ʒ u l u ʋ e ɭ ɭ i 
[471.675]
<no-speech> 
[480.235]
<no-speech> 
[480.855]
<no-speech> 
[482.795]
<int> ʋ iː ɖ u k a ɹ u ɳ aː k a ɹ g aː ɖ u d aː n ʈ l oː n e ʋ u n n aː ɖ æ s a t j a n l o 
[486.295]
<no-speech> 
[487.975]
<no-speech> 
[488.335]
<no-speech> 
[489.715]
<no-speech> 
[490.315]
<no-speech> 
[492.915]
<no-speech> uː n 
[494.585]
<no-speech> 
[495.625]
<int> p e d d a ʋ aː ɭ ɭ u a j i p oː j aː ɹ u ʋ aː ɭ ɭ u <int> 
[500.325]
<no-speech> 
[501.345]
<no-speech> 
[502.325]
<no-speech> 
[503.145]
a n t e i ŋ k a <int> 
[504.775]
<no-speech> 
[505.985]
<no-speech> <sta> uː n <no-speech> eː n l æː d u ɹ a t a g g i p oː j i n d i i n t a k u m u n d u l a e k k a ɖ a i n ʈ l o p i l l a l a t oː n æ s a ɹ i p oː t u n d i <no-speech> 
[517.615]
<no-speech> 
[519.075]
<no-speech> 
[519.875]
<no-speech> i ŋ k a <no-speech> 
[523.705]
<no-speech> 
[525.465]
<no-speech> 
[525.995]
<no-speech> 
[531.835]
<no-speech> 
[532.525]
<no-speech> 
[533.325]
<no-speech> 
[533.705]
<no-speech> 
[535.735]
h a l o ʋ i n a p a ɖ a ʈ l æː d u ɹ a k l i j a ɹ u g a 
[537.835]
<no-speech> 
[541.085]
<no-speech> 
[541.435]
<no-speech> 
[542.525]
<int> h a l o 
[543.665]
<no-speech> 
[544.765]
aː n t͡ʃ e p p u 
[545.905]
<no-speech> 
[547.155]
<no-speech> e ʋ a ɖ i k i m a ʋ aː ɖ i k a <no-speech> eː m o g a ʋ a ɹ n a m e n ʈ d͡ʒ aː b l u a n ʈ e k o d d i g a i n ʈ ɹ e s ʈ t͡ʃ uː p i n t͡ʃ a ʈ l æː d u ʋ aː ɖ u s aː f ʈ ʋ eː ɹ ai ʈ i a n ʈ u n n aː ɖ u <int> 
[559.035]
<no-speech> 
[559.185]
<no-speech> 
[562.395]
<sta> n æː n u a d e a n n aː n u eː d o n a f oː ɹ s u m iː d a eː d o a p l ai t͡ʃ æː s t u n n aː ɖ u a d o k k a ʈ i i d o k a ʈ i a n i 
[568.355]
<no-speech> 
[573.935]
uː n 
[574.735]
<no-speech> 
[577.035]
p a ɹ l æː d u eː d o m a n a l aː g a g aː k u n ɖ a eː d o o k a ʈ i s e ʈ a j i p oː t aː ɖ u a n i aː l oː t͡ʃ i s t æ ʋ iː ɖ u eː m o ʋ i n i t͡ʃ aː ʋ a ʈ l æː d u 
[583.275]
<no-speech> 
[586.235]
uː n h u <no-speech> æː m oː ɹ a 
[591.195]
<no-speech> 
[592.745]
e ʋ a ɖ i d i ʋ aː ɖ u a n n a ʈ ʈ u 
[594.695]
<no-speech> 
[596.185]
i k a m a i n ʈ l oː d i t e l i s i n d æː g a 
[598.135]
<no-speech> 
[598.975]
<no-speech> 
[599.245]
<no-speech> 
[600.300]
