[0.0]
<no-speech> 
[3.255]
a s s a l ɑ m a l a j k ʊ m 
[4.135]
<no-speech> 
[7.705]
<no-speech> x a j ɾ x a j ɾ d a j ʦ a ŋ g a j a j t ɑ s o 
[10.035]
<no-speech> 
[13.055]
h o w a x t a ɾ ɑ ɣ l a j j a m a x k a t a m a ʤ ɑ l d ʊ j s a ɾ a n ɑ s t a w ə m b j ɑ h a ɣ ʊ j n ə p o h e ʐ ə m ʈ e l e f ʊ n j e n ə ʤ a j g a w ə l o 
[18.485]
<no-speech> 
[21.325]
m ɑ j a ʤ ɑ n s a ɾ a 
[22.385]
<no-speech> 
[25.245]
h o ʦ a ŋ g a j e ʤ a g ɽ a x ə j e 
[26.785]
<no-speech> 
[29.955]
d ə l t ə d ɪ l ɑ 
[30.995]
<no-speech> 
[33.555]
d ə l t ə d ɪ d ə l t ə d ɪ 
[34.835]
<no-speech> 
[38.695]
<no-speech> 
[39.405]
<no-speech> 
[40.975]
m ɑ ʤ ɑ n d ʊ j w a j ə l w ɑ j ɪ m ʊ ʐ w ɑ j ɪ ʧ e m ʊ ɾ s a l h a ɾ w a x t j ɑ d a w ə l e ʧ e o s b ə h a n ɪ f a w ʃ a b ɑ n a ɾ ɑ z ɪ a w o s b ə h a n ɪ f a w ʃ a b ɑ n a ɾ ɑ z ɪ m ɑ w a j ə l h a ɣ ə n ə ɾ ɑ t l o m ɑ w a j ə l ɖ e ɾ e n t e z ɑ ɾ m e w a ɾ t ə w ə k ə ɽ x o m ɑ w a j ə l ɾ ɑ x k ɑ ɾ a n ə ʃ ʊ z ə ɾ ɑ ɣ l ə m t ɾ e <breath> x a n d ə l j e 
[52.935]
<laugh> ʦ a ŋ g a j e ʤ a g ɽ a x p ə l a d ɪ x ə j e 
[57.225]
<no-speech> 
[59.225]
t ɑ s o z a ŋ g k a w ə l o b a s 
[60.575]
<no-speech> 
[61.675]
<no-speech> 
[62.365]
<no-speech> 
[63.985]
n ə n ə 
[64.764875]
<no-speech> 
[66.285]
b a s z ə b a s 
[68.555]
<no-speech> 
[70.845]
b ɑ ʤ ɪ s a ɾ a l ɑ ɽ ə m b a s h a ɣ ə b a h a ɾ ɾ e k ʃ a k x e n ɑ s t a w ə z ə k o ɾ t ə ɾ ɑ d ə n ə n a ʃ w a m a w h a ɣ ə ɾ e k ʃ a k x e w ɑ p a s l ɑ ɽ a 
[75.895]
<no-speech> 
[78.765]
n ʊ w ɑ j ɪ b j ɑ ɾ ɑ b ɑ n d e m ɑ x ɑ m k e ʐ ɪ b j ɑ <no-speech> m ɑ s a ɾ a w l ɑ ɽ a ɾ a ʃ k e n ə w ɑ p a s ʃ w a <breath> h ɑ ɾ ʊ n w ə l ɪ d ə l o b a j k ʊ n a m a j k ʊ n a m ʊ t ɾ e ɾ ɑ k x a t a k ɽ ə l b ɑ ʤ ɪ ɖ a l e w ɑ p a s w l ɑ ɽ ə l b j ɑ ɾ ɑ b ɑ n d e m ɑ x ɑ m k e ʐ ɪ 
[89.425]
<no-speech> 
[92.805]
<no-speech> 
[93.285]
<no-speech> 
[94.825]
<no-speech> 
[95.325]
<no-speech> 
[96.575]
h o d ɑ d ə o s ɾ ɑ ɣ l a k o ʈ e t ə 
[98.625]
<no-speech> 
[100.685]
<hes> ɾ ɑ t ə w ɑ j ɪ w ɑ j ɪ k ɑ k ɑ d e ɾ ɑ n a w a s t ə l o m ɑ w a j ə l n ə k ɑ b ə l k x e d a j k ɑ k ɑ m ɑ w a j ə l b j ɑ ɾ ɑ z ɪ <int> h o x ɑ n d ɪ ɑ w ɑ z j e a w ɾ e 
[108.905]
<no-speech> 
[111.545]
a b ʊ b a k ɾ j ɑ d a w ɪ w ɑ j ɪ w ɑ j ɪ d ɑ x a n d e ʐ e n ə ɾ ɑ d e x w ɑ ʃ a j x w ɾ e 
[114.645]
<no-speech> 
[115.755]
n ə m ɑ ʤ ɑ n d ʊ j w a j ə l w ɑ j ɪ a b ʊ b a k ɾ x a ɾ ɑ b ʃ w a j l a j l a j w ɑ j ɪ ʧ e x ə ʃ w a j d a j n ʊ p a t a n ə ʃ t a ʧ e x a ɾ ɑ b ʃ w a j a w k ə x ə ʃ w a j m ɑ t ə x o x ə ʃ w a j x k ɑ ɾ ɪ 
[125.125]
<no-speech> 
[133.105]
x ə <no-speech> ʦ ʊ m ɾ a m j ɑ ʃ t k a m d ɪ a t ə s a w a 
[138.175]
<no-speech> 
[141.275]
x ə 
[141.805]
<no-speech> 
[142.775]
x ə s a h ɪ h d ə <no-speech> x ə s a h ɪ h d ə w a ɾ t ə b ə w ə w ɑ j ə m 
[146.115]
<no-speech> 
[157.445]
x ə s a h ɪ h d ə ʤ ɪ 
[158.625]
<no-speech> 
[161.605]
x ə s a h ɪ h d ə <laugh> m ɑ w a j ə l k ə l ə ɾ ɑ z ɪ d ə x a j ɾ a s a ɾ a p a t a d ə ɾ t ə l a g e ʐ ɪ 
[165.805]
<no-speech> 
[166.975]
<no-speech> 
[167.405]
<no-speech> 
[168.835]
<no-speech> 
[169.335]
<no-speech> 
[172.075]
x ə <no-speech> x ə s a h ɪ h d ə ʤ a g ɽ a <breath> ʧ e b a n d ʃ ʊ b j ɑ d ə x ʊ d ɑ j p ə a m ɑ n 
[177.055]
<no-speech> 
[179.895]
ʦ a ŋ g a 
[180.595]
<no-speech> 
[185.885]
<no-speech> 
[187.115]
<no-speech> 
[188.075]
<no-speech> s ə l ɖ ɑ l a ɾ a ʦ ʊ m ɾ a ɾ ɑ z ɪ 
[190.395]
<no-speech> 
[192.505]
h o <no-speech> h o 
[194.225]
<no-speech> 
[196.395]
d w a z ə ɾ a 
[197.135]
<no-speech> 
[198.855]
d w a z ə ɾ a d w a z ə ɾ a 
[200.615]
<no-speech> 
[204.245]
p ə j s o k x e 
[205.175]
<no-speech> 
[206.915]
z a ɾ ɾ ʊ p ə j 
[207.715]
<no-speech> 
[209.315]
<no-speech> 
[210.115]
<no-speech> 
[211.035]
h o <no-speech> h o 
[214.615]
<no-speech> 
[218.035]
<breath> n ʊ o s m e p a j s e w a ɾ k ɽ ɪ d ɪ h ɑ ɾ ʊ n t ə <hes> m ɑ w a j ə l s a w d ɑ h a m ɾ ɑ w ɑ ɽ a h a ɣ e n ə b a ɣ a j ɾ z a ɾ ɾ ʊ p ə j ɾ ɑ s a ɾ a p ɑ t ɪ ʃ w e 
[224.825]
<no-speech> 
[225.665]
a b ʊ b a k ɾ t ə m e j ʊ ʤ o ɽ k ɑ l ɪ a x e s t ə l ɪ h a ɣ ə ʃ a m ʃ a t ʊ t ə ʧ e t l ə l o 
[228.915]
<no-speech> 
[229.805]
<no-speech> 
[230.175]
<no-speech> 
[234.275]
<no-speech> h o s a h ɪ h d ə ʧ e ɾ ɑ ʃ e b j ɑ b ə g o ɾ o k ə n ə 
[239.225]
<no-speech> 
[240.655]
<no-speech> 
[241.055]
<no-speech> 
[241.895]
<cough> x ə s a h ɪ h d ə <int> n ə j a x n ə d a j <breath> x ə s a h ɪ h d ə b e ɾ t a ɾ ɑ z ə m x ə d ə w a ɾ p o ɾ e x ɑ n d ɪ ɾ ɑ x ɑ n d ɪ d ɑ s e h a j ɾ ɑ n ʃ w a j d a j ʧ e o s m e l ə ʐ s ɑ a t w ɑ ʧ a w ə l o ɣ e ʐ e n ə m e k a x 
[253.775]
ʃ ʊ k ə ɾ d a j h a ɣ ə h a m w ɑ j ə m m ɑ ʧ ə s p ə s e g ə ɾ z e d ə l ə m e m ɾ ɑ n h a m ʧ ɪ ɣ e w a h a l e ʧ e w a l e d e w ɑ ʧ a w ə l ə m p ə z m ə k a b ɑ n d e 
[258.294875]
<no-speech> 
[262.435]
<hes> b a s b a d m e d ə ɾ t ə a m ʊ x t a k ɽ e j e t ə b ə p ə k o ɾ k x e n ɑ s t j e <laugh> a b ʊ b a k ɾ b ə ɣ l a j k ɽ e z ə b ə k ɑ ɾ k a w ə m k ə d ə k o ɾ a w ə w a t ə l e z ə x o k ɑ ɾ n ə k a w ə m m ɑ s a ɾ a a b ʊ b a k ɾ m ɑ p ə s e z ɑ ɽ ɪ 
[272.685]
<no-speech> 
[274.535]
<no-speech> 
[275.385]
<no-speech> 
[277.805]
<no-speech> 
[278.175]
<no-speech> 
[279.155]
x ə s a h ɪ h d ə ʤ e g a ɾ a 
[280.515]
<no-speech> 
[281.405]
x p ə l a k o ʈ a m ʊ d ɑ s e j ɑ d e d ə 
[283.225]
<no-speech> 
[286.325]
ʦ a ŋ g a 
[286.985]
<no-speech> 
[290.685]
n ə n ə ʧ e ɾ ɑ ɣ l ə m a w ə l m e h a ɣ ə w ə k a t ə l 
[293.015]
<no-speech> 
[294.245]
<no-speech> x ə s a h ɪ h d ə ʤ e g a ɾ a x ə d ə z ɑ n x j ɑ l s ɑ t a k ə b a n d ʃ ʊ x ə b j ɑ d ə ɾ t ə z ə b j ɑ b ə z a ŋ g w ə w a h ə m 
[300.865]
<no-speech> 
[306.995]
<hes> s a h ɪ h d ə m ɑ d ə ɾ b ɑ n d e ʤ a j g n ə k ɽ o m ɑ w a j ə l z ə b j ɑ b ə ʃ ɪ 
[309.955]
<no-speech> 
[311.595]
s a h ɪ h d ə ʤ a g ɽ a z ə d ə x ʊ d ɑ j p ə a m ɑ n 
[313.355]
<no-speech> 
[317.795]
x ə s a h ɪ h d ə b j ɑ b ə l z a l d ə ɾ t ə b j ɑ z a ŋ g w a h ə m 
[320.905]
<no-speech> 
[324.365]
b j ɑ t ə m ɪ s k ɑ l ɾ ɑ k ə k ə h a ɾ ʈ ɑ j m w o k ə n ə n w o k ə s a b ɑ w o 
[327.585]
<no-speech> 
[329.845]
s a h ɪ h d ə x ʊ d ɑ j p ə a m ɑ n 
[330.925]
<no-speech> 
[332.455]
<no-speech> 
[333.025]
<no-speech> 
[334.44]
