[0.0]
<no-speech> 
[11.215]
a s s a l ɑ m a l a j k ʊ m 
[12.235]
<no-speech> 
[17.125]
<sta> a l h a m d ʊ l e l l a h t ɑ s o x ə j a j 
[19.335]
<no-speech> 
[23.815]
h a ɣ ʊ j k o ɾ k x e n ʊ ɾ x ə d ɪ x a j ɾ j a t d a j 
[26.215]
<no-speech> 
[30.115]
l ɑ l ɑ t ə d e z a ŋ g w a h a l a j w o x ə w o 
[33.015]
<no-speech> 
[36.155]
h o o s j e z a ŋ g w a h a l a j w o x ə w o a s s a l ɑ m ʊ n a j e w a j ə l s t ɑ s o ʈ ʊ l o p ʊ x t ə n a j e w ə k ɽ a 
[40.035]
<no-speech> 
[51.805]
h o h o 
[52.855]
<no-speech> 
[53.875]
ʧ e ɾ t a j e h o h o 
[56.285]
<no-speech> 
[57.405]
z a d ɑ s e x a b ə ɾ e h a m <hes> 
[60.505]
<no-speech> 
[63.215]
t ɑ ʦ ə ʃ a j w ə w a j ə l z ə s a m p o h n ə ʃ w a m 
[65.745]
<no-speech> 
[71.945]
z a w ɾ ə k ʃ ə b e ʃ a ɾ a f a d ɑ s e x a b ə ɾ e m ə k a w a 
[75.095]
<no-speech> 
[80.265]
<laugh> t ə ɾ o s a x o n ə d a j b a d a l ʃ w a j <no-speech> t ə ɾ o s a b a d a l ʃ w a j n ə d a j 
[86.915]
<no-speech> 
[87.805]
z a x ə d ə x ə d ə <no-speech> z a x ə d ə n ə b ə ɾ ɑ b a d l e ʐ ɪ 
[93.845]
<no-speech> 
[95.245]
z m ɑ j ʊ <no-speech> j ʊ m e l m ɑ n a d ɪ ɾ ɑ s a ɾ a j ʊ m e l e w a ɾ l ʊ ɾ d ə a w j ʊ m e a m a d ə 
[102.805]
<no-speech> 
[103.825]
<no-speech> 
[106.755]
<no-speech> 
[108.255]
h o ɣ o n ɖ d e p e z a n ɪ s a ɾ a <no-speech> t ɑ s o t ə a s s a l ɑ m ʊ n a w ɑ j ɪ 
[112.545]
<no-speech> 
[114.485]
<no-speech> ʦ a ŋ g a 
[115.715]
<no-speech> 
[121.955]
h o p e z a n ɪ d e p e z a n ɪ d e s t ɑ s o a s s a l ɑ m ʊ n a m e w a ɾ t ə t a q d ɪ m d ɪ n t a q d ɪ m k ɽ ə l 
[127.825]
<no-speech> 
[130.815]
<no-speech> 
[131.205]
<no-speech> 
[133.365]
ʦ ə ʃ a j 
[134.185]
<no-speech> 
[136.485]
<no-speech> 
[136.845]
<no-speech> 
[137.725]
z ə <click> 
[139.545]
<no-speech> 
[142.945]
w ɑ l l a p ə m o b ɑ j l x o m e z j ɑ t a t ɑ s a ɾ a ɾ ɑ b e t a k e ʐ ɪ k o ɾ k x e ʧ ɑ s a ɾ a d ʊ m ɾ a w a x t n ə l a ɾ ə m ʧ e k x e n ə m j ɑ x a b ə ɾ e w ə k ɽ ə m 
[149.525]
<no-speech> 
[153.375]
<no-speech> 
[153.755]
<no-speech> 
[155.065]
h o h o h a ɣ ə x o d ə b o ɾ e ɣ o n d e d ə b o ɾ e ɣ o n d e s p ɪ n n ə d a j d ə g o ɽ e ɣ o n d e t o ɾ d a j x o b j ɑ d ə g o ɽ e ɣ o n d e ʃ ɪ ɾ ɪ n h a m d a j 
[162.005]
<no-speech> 
[163.205]
<no-speech> 
[163.585]
<no-speech> 
[166.435]
d ə g o ɽ e ɣ o n d e 
[167.685]
<no-speech> 
[172.125]
n ə g o ɽ a <laugh> n ə x ɑ j ə m <no-speech> z m ʊ ʐ k o ɾ k x e ʦ ə x p ə l w ɑ n d ɪ z m ʊ ʐ s a ɾ a e m t e h ɑ n ʊ n a j e d ɪ 
[180.335]
<no-speech> 
[189.4]
<no-speech> 
[198.465]
<no-speech> 
[207.53]
<no-speech> 
[216.595]
<no-speech> 
[221.035]
<no-speech> 
[222.925]
<no-speech> 
[223.975]
<no-speech> 
[225.245]
h o x a j ɾ x p ə l o d a ɾ s ʊ n ʊ k x e d e s a ɾ a k o x ə x k a w a <sta> a w d ɑ d a f t a ɾ k ɑ ɾ ʊ n o k x e d e h a m f e k ə ɾ d e w ə n ɪ s a ʧ e ɣ a l a t ɪ d ə ɾ ʦ ə x a w ə n a ʃ ɪ 
[235.055]
<no-speech> 
[239.815]
h o w ɑ d ə k a w e 
[241.445]
<no-speech> 
[243.835]
b e ʃ a k b e ʃ a k <no-speech> b e ʃ a k b e ʃ a k 
[248.515]
<no-speech> 
[254.495]
n ə b e x ɪ d a ɣ a ʦ ɪ z ʊ n a h a m m ə k a w a h a l ə k t ə n ə w ɪ p ə k ɑ ɾ ʧ e d ʊ m ɾ a z ə ɾ w ɑ d ə 
[259.225]
<no-speech> 
[266.365]
h o h o x ə n ə w ɪ p ə k ɑ ɾ 
[270.255]
<no-speech> 
[275.635]
<no-speech> 
[276.055]
<no-speech> 
[279.495]
<no-speech> l ə ʐ x a b ə ɾ a p ə w ə ʧ a t a b ɑ n d e k ɽ a ɑ w ɑ z d e b a d l e ʐ ɪ d ə ɾ n ə 
[284.005]
<no-speech> 
[286.465]
<breath> h o h o 
[288.225]
<no-speech> 
[291.555]
<no-speech> 
[291.905]
<no-speech> 
[294.005]
<sta> z m ʊ ʐ d ə x a l k o x o z j ɑ t h a m d a ɣ a s e x a b ə ɾ e w ɪ t a q ɾ ɪ b a n z m ɑ w a ɾ s a ɾ a k o ɾ k x e l ə ʐ ʦ ə <foreign> ʃ w a j d ə 
[301.805]
<no-speech> 
[304.255]
<no-speech> 
[306.065]
<no-speech> 
[307.185]
z m ɑ j ʊ d ə l e w a ɾ x ə z a d ə z j ɑ t a ɾ h a m d ɑ s e x a b ə ɾ e k a w ɪ 
[310.575]
<no-speech> 
[314.595]
h o h o 
[315.595]
<no-speech> 
[316.915]
<breath> z a z a 
[318.515]
<no-speech> 
[320.625]
<no-speech> 
[321.255]
<no-speech> 
[325.545]
n ə h e ʦ k ɑ ɾ n ə l a ɾ ə m 
[327.035]
<no-speech> 
[329.325]
s e ɾ f w ɑ j ə m ʧ e e m t e h ɑ n ʊ n a d ɪ d ʊ j d a ɾ s ʊ n ʊ s a ɾ a k o x ə x k a w a 
[332.605]
<no-speech> 
[334.015]
<no-speech> 
[335.235]
<no-speech> 
[336.485]
<no-speech> <hes> 
[339.005]
<no-speech> 
[340.255]
ʦ a ŋ g a <no-speech> h o j a x n ɪ ɖ e ɾ a z j ɑ t a j a x n ɪ d ə l ɑ m b ə l ɖ e ɾ m ʊ ʃ k e l ʃ ə w ɪ d ɪ 
[347.585]
<no-speech> 
[349.365]
<no-speech> <laugh> 
[351.565]
<no-speech> 
[358.545]
<sta> n ə d ɑ k ə d w a d ɾ e m j ɑ ʃ t e w ə ʃ w e ʧ e t ə ɾ o s a m e n ə d a j m ɪ n z ə l a j d ə ʦ a l w e ʂ t ə j n ə m e ʧ e m ɪ n z ə l a j b j ɑ m e n ə d a j m ɪ n z ə l a j o s n ə ʃ ə m m ɪ n z ə l a j d ə ɖ e ɾ j a x n ə 
[369.615]
<no-speech> 
[370.565]
<no-speech> 
[371.005]
<no-speech> 
[373.435]
<sta> h o h o m ɑ ʃ ʊ m ɑ n d ə d ɑ s e x o n ə m a ɾ ɪ z ɑ n k e ʐ ɪ 
[377.905]
<no-speech> 
[386.785]
h o ɖ e ɾ d ə m ɑ ʃ ʊ m ɑ n o s ɑ t ə n a x o ɖ e ɾ a s a x t a x a b ə ɾ a d ə 
[390.645]
<no-speech> 
[392.585]
<no-speech> 
[392.945]
<no-speech> 
[394.745]
<int> x p ə l a x o p o h e ʐ e h a ɣ ʊ m ɾ a h o x j ɑ ɾ j e 
[397.235]
<no-speech> 
[402.695]
a ʤ ɪ b a w a x t ʊ n a n ə w e 
[404.325]
<no-speech> 
[406.585]
<no-speech> 
[406.935]
<no-speech> 
[408.525]
x ə ʧ e ɾ e d ə z ɑ j d e ʧ e ɾ e d ə <int> 
[412.005]
<no-speech> 
[415.475]
<no-speech> 
[415.955]
<no-speech> 
[417.845]
x ə b j ɑ d a f t a ɾ k x e d ɑ s t ɑ ɣ a ʐ a w ɾ e d ə l k e ʐ ɪ b e ɾ t a 
[421.585]
<no-speech> 
[423.825]
d a f t a ɾ k x e d ɑ s t ɑ ɣ a ʐ b e ɾ t a a w ɾ e d ə l k e ʐ ɪ 
[426.735]
<no-speech> 
[431.305]
w ɑ j ə m s t ɑ d ɑ ɑ w ɑ z b ə b e ɾ t a p ə d a f t a ɾ k x e a w ɾ e d ə l k e ʐ ɪ 
[434.825]
<no-speech> 
[443.025]
h o h o 
[443.975]
<no-speech> 
[446.015]
<no-speech> 
[446.635]
<no-speech> 
[447.985]
h o x ə f e k ə ɾ d e w ə n ɪ s a g e ɾ p ə k x e n ə ʃ e 
[451.975]
<no-speech> 
[454.625]
o s a p o ɾ e x o m e ʦ ə e ɾ ɑ d a n ə ʃ t a d a j j a x n ɪ h a m ɖ e ɾ a d ə x p ə l a k o ʈ a ɖ e ɾ a g a ɾ m a w ə m h a l ə k ɾ ɑ s a ɾ a w a ɽ o k a j d a j n ɑ ʤ o ɽ a n ə ʃ ɪ 
[463.005]
<no-speech> 
[464.355]
<no-speech> 
[465.125]
<no-speech> 
[468.845]
z ə h o h a l t a t l ə l e w ə m h a l ə k m e x ə w o p ə ʈ k ɽ a j w o ʈ o l b ə x w a l e x w a l e w o ɾ ɑ s a ɾ a 
[473.895]
<no-speech> 
[480.905]
n ə h a w ɑ t ə m e n ə d a j p ɾ e x a j o s h a m k o ʈ a n ə b ɑ n d e j e n ə w ə b ɑ s ə m 
[484.605]
<no-speech> 
[486.875]
<int> h o <int> 
[489.175]
<no-speech> 
[500.815]
h o 
[501.405]
<no-speech> 
[504.255]
t ɑ x o x ɑ m a x ɑ p ə k x e h e ɾ a w ə m m ɑ w a j ə l k ə d ɑ s e ɾ ɑ t ə w ɑ j e 
[507.125]
<no-speech> 
[508.395]
<no-speech> 
[509.125]
<no-speech> 
[511.505]
<sta> n ə n ə p ɑ m k a w a d ɑ s e k ɑ ɾ ʊ n a k ɽ e z ə b ə t a j ɑ ɾ a d ə ɾ ʃ ə m h a m d ɑ s e ʧ e ɾ ɑ z ʊ b j ɑ b ə h a ɣ e t a ɾ a f n ə j ʊ z ɑ j ɾ ɑ ʃ ʊ 
[518.215]
<no-speech> 
[519.185]
<no-speech> 
[519.584875]
<no-speech> 
[528.705]
x ə x ə 
[529.495]
<no-speech> 
[533.445]
h o k ə l ə ʧ e d e ɾ ʊ x s a t j ɑ n e ʃ w e b j ɑ ʤ a l ɑ l ɑ b ɑ d t a ɾ a f t ə h a m j ʊ z ɑ j ʧ a k a ɾ w ə h ʊ s a ɾ a 
[538.595]
<no-speech> 
[543.245]
x ə 
[543.885]
<no-speech> 
[545.025]
k ɑ b ə l <hes> t ə b ə n ə t l ə l e 
[546.635]
<no-speech> 
[551.575]
k ə z m ɑ m a n e k ɑ b ə l t ə m ə z a l ɑ ɾ e x a ɾ ɑ b e d ɪ x a ɾ ɑ b b ə d e k ɽ ɪ 
[556.155]
<no-speech> 
[558.165]
<no-speech> 
[562.005]
<no-speech> 
[564.165]
h o h o 
[565.295]
<no-speech> 
[572.535]
<no-speech> 
[579.775]
x ə s t ɑ w a x t t a q ɾ ɪ b a n p ɑ j t ə ɾ a s e ʐ ɪ d ə x ʊ d ɑ j p ə a m ɑ n 
[583.255]
<no-speech> 
[589.28]
<no-speech> 
[595.305]
m e h ɾ a b ɑ n ɪ m e h ɾ a b ɑ n ɪ ɖ e ɾ x o ʃ h ɑ l a ʃ w a m s t ɑ p ə z a ŋ g b ɑ n d e 
[598.415]
<no-speech> 
[600.24]
