[0.0]
<no-speech> 
[1.495]
<no-speech> 
[1.845]
<no-speech> 
[3.265]
b a l e 
[4.045]
<no-speech> 
[4.975]
<hes> 
[6.175]
<no-speech> 
[10.675]
x a j ɾ j e 
[11.605]
<no-speech> 
[15.225]
h o 
[16.005]
<no-speech> 
[21.445]
z ə 
[22.105]
<no-speech> 
[24.815]
k o ɾ k x e 
[25.745]
<no-speech> 
[30.165]
k o ɾ k x e 
[30.955]
<no-speech> 
[33.925]
t ɑ s a ɾ a x a b a ɾ a j k a w ə m 
[35.305]
<no-speech> 
[41.505]
m ɑ n ə 
[42.445]
<no-speech> 
[46.475]
n ə 
[47.095]
<no-speech> 
[51.265]
h o h o 
[52.275]
<no-speech> 
[56.865]
t ə j e ʦ ə k a w ə j 
[57.835]
<no-speech> 
[62.995]
a s k e ɾ ɪ m j e ʤ o ɽ k ɽ a j d a j 
[64.255]
<no-speech> 
[68.965]
<laugh> h a ɣ ə d e z ɑ n t ə ʤ o ɽ k ɽ a 
[72.315]
<no-speech> 
[78.335]
h a ɣ ə z m ɑ p ə k ɑ ɾ n ə d ə 
[79.945]
<no-speech> 
[86.365]
m ə j e a x l a 
[87.465]
<no-speech> 
[90.665]
x ə 
[91.355]
<no-speech> 
[95.015]
<hes> 
[95.635]
<no-speech> 
[99.585]
n ə 
[100.375]
<no-speech> 
[104.985]
<laugh> n ə w ɑ d ə t ə 
[108.895]
<no-speech> 
[111.495]
<no-speech> 
[111.955]
<no-speech> 
[114.225]
w ɑ d ə t ə j ʊ l a s k ɑ l ə <hes> w a x t p ɑ t e d a j 
[116.885]
<no-speech> 
[121.675]
<no-speech> 
[124.415]
<no-speech> 
[127.705]
p ə p x o x o ʃ e j e 
[128.685]
<no-speech> 
[130.174875]
p ə <hes> 
[131.245]
<no-speech> 
[132.145]
<laugh> p ə p x o x o ʃ e j e 
[134.295]
<no-speech> 
[135.415]
p ə p x o x o ʃ e j e 
[136.535]
<no-speech> 
[137.655]
j ɑ p ə b ɑ j s e k ə l 
[138.775]
<no-speech> 
[140.305]
p ə p x o 
[141.155]
<no-speech> 
[143.775]
<no-speech> 
[147.285]
<no-speech> 
[152.695]
w ə j e l a ɾ ə m 
[153.645]
<no-speech> 
[159.235]
t ə p ɑ n ʧ a n ə l a ɾ e 
[161.375]
<no-speech> 
[163.725]
t t ə p ɑ n ʧ a n ə l a ɾ e 
[165.615]
<no-speech> 
[171.525]
w a l e 
[172.305]
<no-speech> 
[174.065]
<no-speech> 
[174.415]
<no-speech> 
[179.905]
ʦ o d a q o k x e 
[180.845]
<no-speech> 
[185.785]
a w ɾ ə m j e a w ɾ ə m a w ɾ ə m w a l e p ə q a h a ɾ k e ʐ a j <foreign> 
[189.305]
<no-speech> 
[192.025]
<laugh> j ɑ d ə d ɪ n m ʊ h a m a d x a b ə ɾ a d ə ɾ t ə w ə k ɽ ə m 
[197.715]
<no-speech> 
[198.915]
<no-speech> 
[200.095]
<no-speech> 
[201.025]
m ɑ w a j ə l d ə d ɪ n m ʊ h a m a d <oov> 
[203.015]
<no-speech> 
[204.115]
x ə d ə d ɪ n m ʊ h a m a d x a b ə ɾ a d ə ɾ w ə k ɽ ə m 
[206.325]
<no-speech> 
[207.325]
x ə d ə d ɪ n m ʊ h a m a d x a b ə ɾ a d ə ɾ t ə w ə k ɽ ə m <no-speech> n ʊ w ɾ o ɾ m e k a m p j ʊ ʈ ə ɾ ɾ ɑ w ɽ ə l <hes> 
[212.565]
<no-speech> 
[214.125]
<hes> w ɑ j ɪ w ɾ o ɾ m e k a m p w ɑ j ɪ w ɾ o ɾ m e k a m p j ʊ ʈ ə ɾ a x e s t ə l a j f l a ʃ h a m x w ɾ ɪ w ɑ j ɪ 
[218.405]
<no-speech> 
[221.245]
<laugh> d ɪ n m ʊ h a m a d w ɑ j ɪ <int> d ɪ n m ʊ h a m a d 
[230.975]
<no-speech> 
[234.225]
<sta> w ɑ j ɪ f l a ʃ h a m x w ɾ ɪ w ɾ o ɾ m e k a m p j ʊ ʈ ə ɾ a x e s t ə l a j 
[240.545]
<no-speech> 
[241.435]
<no-speech> 
[242.075]
<no-speech> 
[243.455]
l ə ʐ z ə ɾ a x a ɾ ɑ b a d ə x a ɾ ɑ b a d ə l ə ʐ 
[246.145]
<no-speech> 
[247.915]
<no-speech> 
[248.475]
<no-speech> 
[249.685]
x a ɾ ɑ b a 
[250.495]
<no-speech> 
[251.935]
ʃ ə f ɾ k x e 
[252.885]
<no-speech> 
[254.115]
ʦ ə ɾ a q a m ɪ ʃ ə f ɾ k x e w a j ə l n ə ʃ a 
[255.915]
<no-speech> 
[259.285]
<laugh> x ə 
[262.185]
<no-speech> 
[264.055]
a w ɾ a j <no-speech> a w ɾ a j 
[265.905]
<no-speech> 
[268.195]
m a k t a b 
[268.795]
<no-speech> 
[270.495]
k ə l ə h a ɣ ə ɾ ɑ z ɪ k ə l ə z ə z ə m 
[272.005]
<no-speech> 
[274.405]
<hes> x ə ɣ w a ʐ w ə n ɪ s a p e k <no-speech> p a k a j e t ə ɣ w a ʐ w ə n ɪ s a 
[278.265]
<no-speech> 
[280.965]
j ʊ w ʊ ɾ d a g e w o h a ɣ ə w o <no-speech> b a w ɑ s ɪ ɾ p e z a n e 
[284.315]
<no-speech> 
[288.575]
a w ɾ a j b a w ɑ s ɪ ɾ p e z a n e 
[290.205]
<no-speech> 
[291.695]
x ə b a w ɑ s ɪ ɾ <oov> b a w ɑ s ɪ ɾ p e z a n e 
[294.075]
<no-speech> 
[297.395]
w ɑ j ɪ h a ɣ ə j e d ə ɾ l o d ə l a j w ɑ j ɪ k a n d h ɑ ɾ ɪ k o ɾ t ə t l ə l e w o 
[300.015]
<no-speech> 
[302.695]
j a x w o x ə d ə z ə m ɪ ʃ p e w ɪ w ɑ j ɪ d e <hes> d e w a ɾ w a ɾ d a g ɪ ʧ e d a j w ɑ j ɪ ʧ e d a ɾ d p ɾ e ɾ ɑ ɣ l e w o k ə n ə 
[310.255]
<no-speech> 
[312.405]
p o h ʃ w a j h a l t a w ɑ j e w ɑ w ɾ a h a m w a ɾ e d ə 
[315.105]
<no-speech> 
[316.655]
w ɑ j ɪ w ɑ w ɾ a h a m w a ɾ e d ə w ɑ j ɪ w ɑ w ɾ a h a m w a ɾ e d ə d e w a ɾ d a g ɪ w a ɾ d a g ɪ w ɑ j ɪ p ɾ e z ɑ n h a m d ɑ s e s o l w a w ɑ j ɪ d ə l ɑ n d e n a j ʃ a j 
[324.895]
<no-speech> 
[326.545]
p o h ʃ w a j d ɑ k a n d h ɑ ɾ ɪ k a n d a h ɑ ɾ a j ʧ e d e <oov> k a n d a h ɑ ɾ a j ʧ e d e w ɪ d a ʃ w a j d a j 
[332.005]
<no-speech> 
[333.305]
p o h ʃ w a j 
[334.045]
<no-speech> 
[335.155]
d ɑ s a h ɑ ɾ t ə ʧ e p ɑ ʦ e d ə l a j d ə s a h ɑ ɾ t ə ʧ e p ɑ ʦ e d ə l a j ʧ ɑ p ʊ n a j e l ɪ d ə l ɪ d ɪ l ɑ n d e h a ɣ ə w ɑ w ɾ a k x e 
[340.245]
<no-speech> 
[341.785]
p o h ʃ w a j 
[342.515]
<no-speech> 
[343.485]
ɑ w ɑ z d e ʤ a ɽ ʃ ʊ 
[345.175]
<no-speech> 
[347.065]
<no-speech> 
[347.665]
<no-speech> 
[348.785]
a w ɾ e 
[349.555]
<no-speech> 
[351.145]
d e l ɑ n d e w ɑ ɾ a k x e ʧ ɑ p ʊ n a l ɪ d ə l ɪ d ɪ k a n d h ɑ ɾ ɪ ʦ ə ʃ a j w a j ə l 
[354.865]
<no-speech> 
[356.265]
o j ɪ ʧ e ʦ ə x ʊ d ɑ j w a h a l a j w ə m z ə ʧ e <hes> 
[359.455]
<no-speech> 
[360.325]
ʦ ə ɾ a q a m d ə ɾ t ə w ə w ɑ j ə m n ʊ ɾ 
[362.365]
<no-speech> 
[363.645]
<int> p o h ʃ w a j 
[366.155]
<no-speech> 
[368.465]
w ɑ j ɪ h a ɣ ə w a ɾ e d ə p ɑ s n ə <laugh> p o h ʃ w a j o s 
[374.165]
<no-speech> 
[374.965]
<no-speech> 
[375.795]
<no-speech> 
[377.255]
<no-speech> 
[378.795]
<no-speech> 
[384.245]
k a w ə m j ʊ 
[384.855]
<no-speech> 
[393.54]
