[0.0]
<no-speech> 
[1.765]
<no-speech> 
[2.115]
<no-speech> 
[7.515]
a s s a l ɑ m a l a j k ʊ m 
[8.285]
<no-speech> 
[11.275]
ʦ a ŋ g a j e x ə j a m a t ə ʦ a ŋ g a j e 
[13.335]
<no-speech> 
[17.005]
x ə d e a l h a m d ʊ l e l l a h ʈ o l x ə d ɪ t ɑ s o ʦ a ŋ g a j e 
[19.185]
<no-speech> 
[23.515]
x ə d e a l h a m d ʊ l e l l a h x o s t ɑ s o m ɑ ʃ ʊ m ɑ n ʦ a ŋ g a d ɪ 
[26.165]
<no-speech> 
[29.085]
h o w a l e <int> s t ɑ m o ɾ ʦ a ŋ g a d ə x w e n d o d e ʦ a ŋ g a d ɪ 
[32.434875]
<no-speech> 
[37.955]
x ə 
[38.475]
<no-speech> 
[42.145]
<int> a l h a m d ʊ l e l l a h ʈ o l x ə d ɪ s t ɑ s o ʦ a ŋ g a ʦ ə h ɑ l d e 
[45.705]
<no-speech> 
[48.445]
x ə d ə j a x n ɪ x o ʃ t a l ə ʐ a l ə ʐ a b ɑ d l a g e ʐ ɪ j a x 
[52.165]
<no-speech> 
[54.305]
<no-speech> 
[54.915]
<no-speech> 
[56.285]
h o l ə ʐ a j a x n ɪ w a h a l ɪ j ə m <breath> t ə ʦ a ŋ g a j e ʧ e ɾ t a ɾ ɑ ɣ l e 
[60.005]
<no-speech> 
[63.085]
x ə 
[65.145]
<no-speech> 
[71.155]
x ə x ə k ɑ ɾ d e w ə k ɽ o <laugh> <breath> ʧ e p ɑ t e ʃ w e 
[74.175]
<no-speech> 
[77.765]
x ə s ɑ a t b ə d e t e ɾ w ɪ 
[79.745]
<no-speech> 
[82.645]
a w s k ʊ l t ə b ə x o n ə n 
[83.945]
<no-speech> 
[90.345]
<no-speech> 
[90.775]
<no-speech> 
[101.935]
x ə 
[102.575]
<no-speech> 
[103.475]
<no-speech> 
[104.035]
<no-speech> 
[108.795]
x ə 
[109.285]
<no-speech> 
[119.425]
x ə 
[119.975]
<no-speech> 
[127.395]
x ə n ʊ x ə d a j n ʊ s ɑ a t j e 
[129.045]
<no-speech> 
[140.975]
<hes> <cough> <sta> 
[142.745]
<no-speech> 
[149.405]
<no-speech> h o 
[150.795]
<no-speech> 
[151.935]
h o ɖ e ɾ k ə n ə ɖ e ɾ s a x t d ə <sta> 
[153.465]
<no-speech> 
[154.835]
x ə d a j ʧ e s ɑ a t m ʊ t e ɾ d a j 
[156.265]
<no-speech> 
[157.285]
<breath> m ʊ ʐ a ʊ s t ɑ d ɪ k a w ʊ z ə o s m a d ɾ a s e n ə ɾ ɑ ɣ l ə m <sta> 
[161.875]
<no-speech> 
[164.905]
b a s h o m j ɑ ʃ t k x e ɾ ɑ k a w ɪ j ʊ a t ə z ə ɾ a n ə h ə z ə ɾ a <sta> 
[170.175]
<no-speech> 
[171.755]
h o b a s 
[173.195]
<no-speech> 
[174.055]

[175.045]
<no-speech> 
[177.395]
<no-speech> 
[177.755]
<no-speech> 
[180.005]
h o w a l e n ə d w a g a ʈ e <breath> d ə t a ɾ ʤ ʊ m e s a b a q x a j ɪ m 
[183.345]
<no-speech> 
[188.275]
x ə 
[188.695]
<no-speech> 
[197.855]
h o h o h a m d ə d e d ɪ n k ɑ ɾ k x e ɖ e ɾ x w a n d d e 
[200.785]
<no-speech> 
[203.915]
<no-speech> 
[204.295]
<no-speech> 
[208.295]
h o n ʊ z m ɑ m ɑ ʃ ʊ m ɑ n 
[210.175]
<no-speech> 
[211.075]
z m ʊ ʐ m a d ɾ a s a k x e o s j a w a n ʤ ə l ə j w ɾ e z e w ɪ s t ə l <breath> n ʊ z ə w a ɾ p ə s e ɖ e ɾ a ɣ ʊ s a ʃ w a m d ə ɖ e ɾ ɣ ʊ s e d ə w a ʤ e s a l ɑ m j e h a m ɾ ɑ b ɑ n d e w ɑ n ə a ʧ a w a h a m d ɑ s e l a ɽ a ɖ e ɾ a z j ɑ t a ɣ ʊ s a ʃ w a h o h a m d ɑ s e d a w ɑ w e 
[221.345]
<no-speech> 
[225.195]
h o 
[225.705]
<no-speech> 
[227.675]
m ɑ w a ɾ t ə w ə w a j ə l e b a s t ə ʧ e k ɑ ɾ k a w ɪ b ɪ x e m a d ɾ a s e l ə m ə ɾ ɑ z a <breath> n ʤ ə l ə j d ɑ s e n ə b a s s a l ɑ m j e h o s a l ɑ m j e ɾ ɑ t ə w ɑ n ə a ʧ a w a 
[234.775]
<no-speech> 
[238.665]
h o 
[239.165]
<no-speech> 
[240.665]
h o m ɑ w a ɾ t ə w ə w a j ə l e k ə n ə t ɑ s o s a b a q l a k a ʧ e z ɑ n x o d ə l o d ə p ɑ ɾ a w ɑ j e a m a l p ɾ e n ə k a w ə j 
[245.075]
<no-speech> 
[249.865]
h o m ɑ w a ɾ t ə 
[251.985]
<no-speech> 
[254.775]
h o h o h o d ə d e d ə w a ʤ e n ə z ə k a <breath> d ə h a ɣ e k o z d a n a h a m s a b ɑ d ə k ə b ə l ə w ɾ ə z n ʊ t a j ɑ ɾ ə j w a ɾ t ə k ɽ e w o x ə s a f ɑ k ɽ e w o o s n ə 
[261.345]
<no-speech> 
[267.845]
h o m ɑ w a ɾ t ə ɖ e ɾ e x a b ə ɾ e w ə k ɽ e ɖ e ɾ a ɣ ʊ s a ʃ w a m h a m d ɑ s e l a ɽ a ɾ ɑ n ə <no-speech> b j ɑ z ə m ɑ 
[272.685]
<no-speech> 
[274.415]
h o w ə m e w a j ə l a w a ɾ t ə m ɑ w a j ə l o s b ə w ə g o ɾ ʊ d ɑ m a d ɾ a s a d ə 
[277.495]
<no-speech> 
[278.555]
h o j ʊ z a l x a t ə m j e k ɽ e b ə l z ɑ j k x e p ɾ ɑ t ə w o ʧ ɑ b j ɑ n e w a ɾ t ə j e w e l ɾ ɑ ʃ a h o j ʊ z ə l e 
[283.315]
<no-speech> 
[284.685]
h o h o n ɑ z e ɾ e j e s a ɾ a x a t ə m k ɽ e n ʊ m ʊ ʐ b ə w a ɾ t ə ɖ e ɾ z e d x a b ə ɾ e k a w ʊ k ə n ə <breath> n ʊ ɾ o t ə t a ɾ ʤ ʊ m a k a w ə m a w d e w a ɾ t ə w a w ɑ j ɪ ʧ e b j ɑ t a f s ɪ l w a ɾ t ə k a w ə m x o b j ɑ h a m p ɾ e a m a l n ə k a w ɪ <no-speech> h o 
[294.905]
<no-speech> 
[299.505]
h o d ɑ s e b a d p ɾ e l a g e ʧ e ʦ ə w a ɾ t ə w ɑ j ɪ s a m s w a z e ʝ ɪ ɖ e ɾ z j ɑ t p ɾ e b a d l a g e ʐ ɪ 
[303.805]
<no-speech> 
[308.515]
h o ɖ e ɾ z j ɑ t d ɑ s e ʤ ɑ h e l ɑ n x a l k d ɪ d e z ɑ j ʊ n o k x e b e x ɪ 
[312.375]
<no-speech> 
[313.885]
ɑ m ɪ n w a l e 
[314.875]
<no-speech> 
[323.095]
<hes> 
[323.505]
<no-speech> 
[330.955]
<no-speech> 
[338.405]
h o k ə n ə f e ʃ a n d ə p ɑ ɾ a x o n ə z ɪ s a b a q d ə p ɑ ɾ a z ɪ x o d ʊ j b ə l ʃ ɑ n d ɪ d ə d ʊ j ʈ o l x ɑ n a d ɑ n d ɑ s e d a j 
[344.205]
<no-speech> 
[348.225]
h o a s a ɾ p ɾ e n ə k a w ɪ ʧ e ʦ ə w ɑ j e b a s b a d p ɾ e l a g e ʐ ɪ h a ɾ ʦ ə ʧ e w a ɾ t ə w ɑ j e <cough> 
[352.655]
<no-speech> 
[357.815]
h o 
[358.315]
<no-speech> 
[360.205]
<no-speech> 
[360.645]
<no-speech> 
[365.155]
h o 
[365.625]
<no-speech> 
[367.445]
n ə j a w a b ə l ə n ʤ ə l ə j w ə d ə ʈ ɪ w ɪ p ə d ə ʈ ɪ w ɪ p ə b ɑ ɾ a k x e m e w a ɾ t ə x a b ə ɾ e w ə k ɽ e n ʊ h a ɣ ə w ɑ j ɪ z ə k ə ʈ ɪ w ɪ x a ɾ ʦ a k ɽ ə m n ʊ z m ɑ m o ɾ a w p l ɑ ɾ ɾ ɑ p ə s e ɣ ʊ s a w ɪ ʧ e t ə d ɑ s e a w d ɑ s e j e d ɑ ʈ ɪ w ɪ ɾ ɑ b ɑ n d e b a n d a w e d ɑ ɣ a j b a t ʧ e 
[378.875]
ʧ e d ɑ n ʊ ɾ g ʊ n ɑ h ʊ n a ʧ e k a w ɪ d ɑ s e ɾ ɑ p ə s e ɣ ʊ s a w ɪ w ɑ j ɪ s a m m e z a ɽ a b j ɑ d ɑ s e x a f a ʃ ɪ w ɑ j ɪ z ə n ə ʃ ə m x a ɾ ʦ a w ə l ɑ j o s ʈ ɪ w ɪ n ʊ 
[385.055]
<no-speech> 
[390.095]
h o h o <no-speech> h o <laugh> h a m d ɑ s e m e w a ɾ t ə w ə w a j ə l e m ɑ w a j ə l h a ɣ ə ʧ e e d a t ʃ ɪ p ə j ʊ k ɑ ɾ b ɑ n d e b j ɑ n ə n ə p ɾ e ʝ d ɪ 
[395.455]
<no-speech> 
[399.615]
h o k ə n ə w ɑ j ɪ d ə l t ə k a w ə m k a w ə m ʃ ɑ g ə ɾ d ɑ n w ɑ j ɪ s t ɑ s o ɾ ɑ k x e ʦ ə k ɑ ɾ d e w ɑ j ɪ z m ʊ ʐ x o x p ə l x a b a ɾ d e ɖ e ɾ ɖ e ɾ x a b ə ɾ e k a w ɪ d ɑ s e b ə l ʃ ɑ n d ɪ 
[407.805]
<no-speech> 
[409.275]
n ə n ʧ e m e h a ɣ ə n ʤ ə l ə j w ə k a t ə l a z a ɽ a m e b ə l ʃ ɑ n ʃ ʊ s a m z a ɽ a m e d ɑ s e ɣ ʊ s a ʃ w a ʧ e 
[414.095]
<no-speech> 
[419.685]
<no-speech> 
[420.355]
<no-speech> 
[421.975]
h o ɖ e ɾ e x a b ə ɾ e m e w a ɾ t ə w ə k ɽ e x o b ə l ɣ ʊ s e d ə w a ʤ e n ə b a s x w a l a m e h a m b a n d a ʃ w a d ɑ s e x a b ə ɾ e m e w ə k ɽ e w a ɾ t ə x o b j ɑ h a m d ɑ s e x a f a ʃ w a n ʤ ə l ə j h a m d ɑ s e l a ɽ a 
[429.005]
<no-speech> 
[430.405]
<no-speech> 
[430.805]
<no-speech> 
[432.225]
<hes> w ə m e w a j ə l a 
[433.725]
<no-speech> 
[434.935]
h o m ɑ w a ɾ t ə w ə w a j ə l ʧ e a m a l p ɾ e n ə k a w ə j h a s e b e f ɑ j d a ɾ ɑ z e z e d e n ə ʦ ə f ɑ j d a <cough> 
[439.535]
<no-speech> 
[444.305]
h o h o 
[444.875]
<no-speech> 
[448.225]
h o b e x ɪ d ɑ s e b a d e x k ɑ ɾ a k e d a ʧ e h a ɣ ə m ə x k e m e n ʊ m ə x k e h ɑ l k x e l ə ʐ x ə w ə o s j e ʧ e w ɾ e z e w ɪ s t ə l e w e o s b a d e x k ɑ ɾ a k e d a 
[454.875]
<no-speech> 
[463.065]
h o h o o s h a ɾ ʦ o k a w ɑ m ʈ o l <breath> g a ɖ w a ɖ ʃ ə w ɪ d ɪ n ə x ɑ ɾ j ɑ n p e z a n d ə l k e ʐ ɪ a w n ə k l ɪ w ɑ l a a w n ə k ɑ b ə l j ɑ n n ə m a h ɑ ʤ e ɾ ʈ o l j ʊ ʃ ɑ n ʃ ə w ɪ d ɪ 
[472.235]
<no-speech> 
[475.155]
h o h o b a s d ɪ n p ə k x e n a ʃ t a ʧ e d ɪ n h a m d ɑ s e d ɑ d ʊ n j ɑ d ə p ɑ ɾ a w ɑ j ɪ z ɑ n x o d ə l o d ə p ɑ ɾ a a m a l x o p ɾ e n ə k a w ɪ 
[481.125]
<no-speech> 
[487.155]
h o h o 
[487.745]
<no-speech> 
[488.905]
h o h o ɖ e ɾ a a z ɑ b ʊ n a ɾ ɑ ɣ ə l ɪ d ɪ x o b j ɑ h a m t ɾ e n a e b ɾ a t n ə a x l ɪ x a l k ɖ e ɾ b ə l ʃ ɑ n 
[493.675]
<no-speech> 
[498.135]
h o h o d ɑ s e b e d ɪ n ɪ x o ɾ a d ʊ n j ɑ k x e ʧ e b ə l ʃ ɑ n 
[501.005]
<no-speech> 
[503.385]
<no-speech> 
[504.555]
<no-speech> 
[507.345]
h o h o 
[508.075]
<no-speech> 
[509.625]
<no-speech> 
[509.975]
<no-speech> 
[512.625]
h o h o d ɑ s e g a ɖ w a ɖ ɪ d ə ʧ e p ə d ʊ n j ɑ k x e <no-speech> x o b j ɑ h a m ɑ l l a h s a b a ɾ n ɑ k d a j b a x x ʊ n k a j ɾ a h ə m k a w ʊ ŋ k a j d a j 
[519.125]
<no-speech> 
[525.355]
<no-speech> 
[525.805]
<no-speech> 
[527.085]
<no-speech> 
[527.435]
<no-speech> 
[528.685]
h o h o 
[529.315]
<no-speech> 
[532.945]
h o <hes> j ʊ ʤ e n ə j w ɑ j ɪ k ə n ə w ɑ j ɪ d ɑ m ə x k e ʦ ʊ m ɾ a a z ɑ b ʊ n a ɾ ɑ t l ə l w ɑ j ɪ d ɑ ʧ e w ɑ w ɾ ə m z a ɽ a m e d ɑ s e x a f a ʃ ɪ w ɑ j ɪ b j ɑ ʧ e k o ɾ t ə l a ɽ ə m w ɑ j ɪ b j ɑ m e g ʊ n ɑ h ʊ n o t ə z a ɽ a w ə ʃ ɪ w ɑ j ɪ b e x ɪ m e n ə w ɪ z a ɽ a m e d a ɣ a d ə t a ɾ a f 
[544.595]
n ə a w ɽ ɪ w ɑ j e d ɪ n t a ɾ a f t ə b j ɑ m ɑ w a ɾ t ə j a w a d ʊ ɑ w ə l ɪ k ə l a ʧ e h a ɣ ə ɖ e ɾ a ɖ e ɾ a w ɑ j a <foreign> b j ɑ h a ɣ ə j e h a m w a j ə l a w ɑ j e 
[552.045]
<no-speech> 
[553.015]
b j ɑ d ɑ s e n ʊ ɾ e d ʊ ɑ g ɑ n e 
[554.595]
<no-speech> 
[555.605]
<no-speech> 
[556.035]
<no-speech> 
[559.635]
<no-speech> 
[560.035]
<no-speech> 
[562.315]
h o b j ɑ n ʊ ɾ e d ʊ ɑ g ɑ n e m e h a m w a ɾ t ə w ə l ɪ k ə l e d ə x o b b ɑ ɾ a k x e d ə w e ɾ e d ə p ɑ ɾ a <breath> d ɑ s e n ʊ ɾ d ʊ ɑ g ɑ n e m e h a m w ə l ɪ k ə l e 
[567.655]
<no-speech> 
[572.255]
h o x o d ə l ɪ m e d ɪ p ɑ ɲ a k x e m e l ɪ k ə l ɪ w a ɾ t ə w a ɾ t ə w ɑ j ə m ʧ e d ɑ j ɑ d z d a k ɽ ə j z ə k a ʧ e p ə ɑ s ɑ n ə j d ə d e z d a k e ʐ ɪ d ɑ s e k l a k k l a k m ɑ ɣ z ə d ɪ <no-speech> h o d ʊ ɑ g ɑ n e 
[581.135]
<no-speech> 
[587.33]
<no-speech> 
[593.525]
h o <hes> m ə x k e x o w ɾ ə z e l a n ɖ e w e ɖ e ɾ o w a j ə l ʧ e m ʊ ʐ t ə d a ɣ a w ə x ɑ j a d ʊ ɑ g ɑ n e m ɑ w a j ə l o s x o n ə k e ʐ ɪ ɪ l a s a b a q k e ʐ ɪ n ʊ b j ɑ 
[599.735]
p ɑ ɲ o k x e 
[600.14]
