[0.0]
<no-speech> 
[4.085]
h a l o 
[4.695]
<no-speech> 
[7.595]
w ɑ l a j k ʊ m a s s a l ɑ m ʦ a ŋ g a j e w ɾ o ɾ a ʤ o ɽ j e ʈ ɪ k ʈ ɑ k 
[10.605]
<no-speech> 
[13.475]
x a j ɾ a w x a j ɾ j a t d a j 
[14.835]
<no-speech> 
[17.545]
ʤ o ɽ j e ʧ e ɾ e t ə j e n ə n s a b ɑ w ɾ o ɾ a 
[19.515]
<no-speech> 
[23.175]
p a t a d e n ə l a g e ʐ ɪ ɣ a j b ɣ a j b j e ʦ ə ʃ a j k a w e ʦ ə m a s ɾ ʊ f j ɑ t d e d ɪ 
[26.875]
<no-speech> 
[32.265]
<hes> m a s ɾ ʊ f j a t d e ʦ ə ʃ a j d ɪ k ɑ ɾ ɾ o z g ɑ ɾ ʦ ə ʃ a j k a w e n ə k a w e d a ɾ s ʊ n ʊ s a ɾ a ʦ a ŋ g a j e d a ɾ s t ə z e k ə n ə 
[37.385]
<no-speech> 
[43.745]
x ə x ə ɖ e ɾ x ə k ɑ ɾ w a ɾ s a ɾ a k a m p o z ɪ ŋ g k ɑ ɾ k a w e 
[46.425]
<no-speech> 
[50.035]
<hes> x ə x ə <no-speech> <breath> n ʊ ɾ ʦ ə m a ʃ ɣ ʊ l t j ɑ n ʊ ɾ x o ʦ ə k ɑ ɾ m ɑ ɾ n ə k a w e 
[54.575]
<no-speech> 
[65.935]
x ə ɖ e ɾ a x ə a w ʦ a ŋ g a ʧ a l d a j n j ʊ z m j ʊ z x a b ɾ ʊ n a m a b ɾ ʊ n a g o ɾ e k ə n ə g o ɾ e 
[70.485]
<no-speech> 
[79.725]
x ə x ə ɖ e ɾ a x ə d ə ɖ e ɾ a x ə d ə n ʊ ɾ ʦ a ŋ g a d o s t ɑ n a n ɖ ɪ w ɑ l ɑ n d e ʦ a ŋ g a d ɪ m a l g ə ɾ ɪ d e ʃ t a d a j x ə x ə m a l g ə ɾ ɪ ʦ o k 
[85.725]
<no-speech> 
[91.475]
<no-speech> 
[92.155]
<no-speech> 
[93.555]
x ə <no-speech> x ə ɖ e ɾ a x ə d ə ʦ ə ʃ a j k a w ɪ d a ɾ s ʊ n a w ɑ j ɪ h a ɣ ʊ j k ɑ ɾ ʊ n a k a w ɪ ʦ ə ʃ a j k a w ɪ h a ɣ ʊ j 
[98.275]
<no-speech> 
[105.735]
x ə x ə <hes> ɖ e ɾ a x ə d ə a w ʦ a ŋ g a j e f e l m ʊ n a m e l m ʊ n a ʈ ɪ w ɪ ɖ ɾ ɑ m e ʦ ə ʃ a j z j ɑ t g o ɾ e <no-speech> ʃ o g ɑ n e ɖ e ɾ e g o ɾ e ɖ ɾ ɑ m e g o ɾ e f ɪ l m ʊ n a g o ɾ e ʦ ə ʃ a j g o ɾ e z j ɑ t 
[114.715]
<no-speech> 
[122.025]
<hes> a w m a l g ə ɾ o s a ɾ a x ə t ɑ l ʊ q s ɑ t e k ə n ə ʤ a ŋ g ʤ a g ɽ e x o w a ɾ s a ɾ a n ə k a w e 
[125.735]
<no-speech> 
[134.765]
<no-speech> 
[135.145]
<no-speech> 
[136.525]
x ə ɖ e ɾ a x ə d ə a w ʦ a ŋ g a d a j h ʊ k ʊ m a t ʦ a ŋ g a d a j d ə p ɑ k e s t ɑ n h ʊ k ʊ m a t ʦ a ŋ g a d a j x o ʃ h ɑ l a j e t ɾ e n a n ə j e t ɾ e n a x o ʃ h ɑ l a 
[142.375]
<no-speech> 
[147.195]
<no-speech> 
[147.665]
<no-speech> 
[151.435]
<no-speech> 
[151.805]
<no-speech> 
[153.005]
n ə x o d ɑ <no-speech> d ɑ x o g o ɾ a x ə d ə k ə n ə d ɑ x o p a x t ʊ n x w ɑ d ə d ə l t ə x o o s d ə p a x t a n o h ʊ k ʊ m a t d a j p ə k ɑ ɾ d a j p a x t ɑ n a t ɾ e n a ɖ e ɾ a z j ɑ t x o ʃ h ɑ l a w ɪ n ʊ t ə w a l e t ɾ e n a d ɑ s e x a f a j e 
[161.915]
<no-speech> 
[173.315]
<no-speech> 
[184.715]
<hes> n ʊ t ə b ə t ɾ e n a l a k a ʦ a ŋ g a x o ʃ h ɑ l a ʃ e ʧ e t ɑ l ə p ɑ ɾ a h ʊ k ʊ m a t ʦ ə w ə k ɽ ɪ t ə b ə t ɾ e n a x o ʃ h ɑ l a ʃ e 
[189.245]
<no-speech> 
[199.955]
x ə x ə b j ɑ ɖ e ɾ a x ə d ə x ə ʦ a ŋ g a j e a w n ʊ ɾ ɾ ʊ x s a t j ɑ n e m ʊ x s a t j ɑ n e d e ʃ t a d e m a k t a b k ə n ə 
[205.815]
<no-speech> 
[212.235]
<no-speech> 
[218.655]
<no-speech> 
[219.185]
<no-speech> 
[221.375]
<hes> n ʊ ʦ ə d e x j ɑ l d a j ʧ ʊ ʈ j ɑ n o k x e d e ʦ ə x j ɑ l d a j ʧ a k a ɾ m a k a ɾ b ə w a h e d a ɾ s b ə w ɑ j e k ə n ə ʦ ə ʃ a j b ə k a w e 
[226.875]
<no-speech> 
[233.355]
<no-speech> 
[239.835]
<hes> x ə ɖ e ɾ a x ə d ə n ʊ ɾ ʦ a ŋ g a j e s e h a t d e ʦ a ŋ g a d a j m a ɾ ɪ z ɾ ɑ m a ɾ ɪ z x o n ə j e ʦ ə t a k l ɪ f x o d ə ɾ t ə n ə ʃ t a 
[245.215]
<no-speech> 
[251.835]
<hes> x ə ɖ e ɾ a x ə d ə ɖ e ɾ ʦ ə t a k l ɪ f m a k l ɪ f ʦ ə m a ɾ a z ʦ ə d ɑ s e m ʊ ʃ k e l ɑ t h e ʦ h a m d ɑ s e n ə ʃ t a d a j 
[257.315]
<no-speech> 
[262.905]
<hes> z a m a j e n a a w ʦ a ŋ g a d a j m o s a m ʦ a ŋ g a d a j h a w ɑ j a x n ɪ d ə g a ɾ m ɪ d ə ʦ a ŋ g a m o s a m d a j 
[267.865]
<no-speech> 
[276.188333]
<no-speech> 
[284.511667]
<no-speech> 
[292.835]
<hes> a w <sta> k a w ə m m o s a m d e x o x e g ɪ g a ɾ m ɪ d e x o x e g ɪ k ə j a x n ɪ d e x o x e g ɪ 
[296.785]
<no-speech> 
[308.555]
x ə x ə ɖ e ɾ a x ə d ə ɖ e ɾ a x ə d ə <no-speech> n ʊ ɾ w ɑ j a k ə n ə ʦ ə h ɑ l ɑ t ʦ ə w ɑ q ɪ j ɑ t d ɪ 
[314.715]
<no-speech> 
[326.425]
<int> n ʊ d ə x ə z e n d a g ə j l ə p ɑ ɾ a x ə d a ɾ s ʊ n a w ə w ɑ j a x ə m e h n a t w ə k ɽ a k o x ə x w ə k ɽ a k o ɾ s ʊ n a w ə w ɑ j a x p ə l d a ɾ s ʊ n a w ə w ɑ j a <no-speech> l m ʊ n z a w d a s k a w a x p ə l t e l ɑ w a t 
[334.995]
k a w a 
[335.3]
