[0.0]
<no-speech> 
[1.164875]
<no-speech> 
[3.985]
<click> <no-speech> h a l o ʦ a ŋ g a ʧ a l d a j 
[6.405]
<no-speech> 
[9.655]
h a l o <no-speech> h a l o <no-speech> a w ɾ ə m h o ʦ ə h ɑ l d a j <sta> 
[16.985]
<no-speech> 
[18.305]
a w ɾ ə m k ə n ə 
[19.345]
<no-speech> 
[20.445]
h o k o ɾ k x e j ə m <sta> 
[22.905]
<no-speech> 
[24.565]
<no-speech> 
[25.195]
<no-speech> 
[26.275]
<sta> h o h o w ə d ə n ə j ə m b a s h a s e p ɾ o t j ə m n ʊ ʦ ə b ə w ə k ɽ ə m b ɽ a s t ə n k x e w ə m n ʊ ʧ e ɾ t a j e t ə 
[31.965]
<no-speech> 
[33.575]
<no-speech> 
[34.055]
<no-speech> 
[35.655]
w a l e n ə j e t l ə l a j d a ɣ a t ə m a n ɖ ɪ j ɪ t ə <sta> 
[38.935]
<no-speech> 
[39.905]
<no-speech> 
[41.195]
<no-speech> 
[42.785]
<sta> p ɾ o <no-speech> d ɑ x o ʃ h ɑ l ə j k x e m a z e m ʊ w ə k ɽ e z ɑ l e m p o h a n t ʊ n m ʊ d a j s e ɾ f 
[49.065]
<no-speech> 
[50.685]
<no-speech> 
[53.055]
<no-speech> 
[59.125]
h o d ɑ x o m a z e d ɪ n ʊ j ʊ w ɾ ə z ʦ ə ʃ a j w ɪ ʧ ʊ ʈ ɪ w ɪ a w n ʊ ɾ n ʊ ɾ l ɑ ɽ ʃ ɪ ʧ a k a ɾ t ə z ɪ d ɾ e w ɾ ə z e b a s ʃ ɑ m k x e 
[66.265]
<no-speech> 
[67.525]
h o <sta> 
[68.985]
<no-speech> 
[70.305]
<no-speech> 
[70.855]
<no-speech> 
[77.81]
<no-speech> 
[84.765]
n ə h a l ə k ɑ n n a ʃ t a m ɽ a h a l ə k ɑ n d a ɾ a k n a ʃ t a d a j w ɾ ə k d ɪ 
[88.755]
<no-speech> 
[92.115]
h a l ə k ɑ n j ʊ w ɑ l l a k x e t ɾ e x a b a ɾ j ə m z ə j ʊ s a ɾ a h a m n ə g a ɽ e n ə ɣ a ʐ e ʐ ə m n ə g ə ɾ z ə m k a ɾ ɑ ɾ e d ə l t ə b a s k o ɾ k x e n ɑ s t j ə m <sta> 
[98.325]
<no-speech> 
[103.355]
n ʊ w a l e <hes> ʦ a ŋ g a m a t l a b d e ʦ ə d a j 
[106.665]
<no-speech> 
[116.665]
<no-speech> 
[117.035]
<no-speech> 
[118.365]
ʦ ə ʃ a j b ə k a w ʊ 
[119.485]
<no-speech> 
[125.565]
n ə ɾ ɑ ʃ a j h e ʦ x a b ə ɾ a h a m n a ʃ t a d a j x o m a t l a b j ʊ z ɑ j t ə x o h a l ə k ɑ n n ə ʃ ɪ ɾ ɑ ʈ o l e d e w a ɾ b ə ʃ ʊ j ʊ m ʊ d ɪ ɾ b ɑ ʧ ɑ z ɑ j t ə b ə w a ɾ ʃ ʊ a w 
[133.835]
<no-speech> 
[136.385]
p ə 
[136.755]
<no-speech> 
[140.265]
<sta> <breath> ɑ f ɾ ɪ d ɪ z ɑ j ɖ e ɾ l a ɾ e d a j h ɑ ɾ ʊ n p ə k o ɾ d a j h ɑ ɾ ʊ n d e z ɑ j t ə b ə l ɑ ɽ ʃ ʊ 
[145.285]
<no-speech> 
[152.405]
a w ʧ a l a w ɪ j e ʦ o k 
[154.965]
<no-speech> 
[159.335]
n ʊ h a ɣ e d ə k a w ə m z ɑ j k ɽ a j <laugh> 
[162.425]
<no-speech> 
[168.6]
<no-speech> 
[174.775]
ʧ e ɾ t a d a j o s 
[176.275]
<no-speech> 
[182.085]
a w ʦ ə w a x t ɾ ɑ z ə j k ɑ m e t ə 
[184.755]
<no-speech> 
[193.695]
<no-speech> 
[202.635]
k ə l ə ɾ ɑ z ə j 
[203.265]
<no-speech> 
[211.585]
<no-speech> 
[212.065]
<no-speech> 
[215.315]
<no-speech> 
[215.705]
<no-speech> 
[220.765]
ɾ a z ɑ k ɑ ɾ d a j ʦ ʊ m ɾ a m a ɑ ʃ w ɾ a k a w ɪ h a ɣ e t ə 
[223.655]
<no-speech> 
[232.305]
w ə d ə x a ɾ a z o j a 
[234.345]
<no-speech> 
[236.885]
a w ɾ e 
[237.645]
<no-speech> 
[240.095]
<sta> ʃ p ɑ ɽ ə s ɖ ɑ l a ɾ x o d ə x ʊ d ɑ j ʃ a j d a j k ə n ə d ɑ m a z e j e w ə k ɽ e 
[245.145]
<no-speech> 
[251.425]
<no-speech> 
[251.935]
<no-speech> 
[258.105]
<no-speech> 
[264.275]
b a s j ɑ ɾ a x o d ʊ m ɾ a m a s ɾ a f n ə d a j n ʊ <sta> 
[268.265]
<no-speech> 
[270.225]
o s 
[270.645]
<no-speech> 
[273.315]
<no-speech> 
[274.865]
<no-speech> 
[281.695]
<no-speech> 
[288.525]
<no-speech> 
[288.975]
<no-speech> 
[293.525]
<no-speech> 
[293.895]
<no-speech> 
[298.085]
<no-speech> 
[298.525]
<no-speech> 
[301.715]
h o k ə n ə 
[303.075]
<no-speech> 
[305.105]

[306.025]
<no-speech> 
[309.055]
n ə m ɽ a m ɑ <no-speech> h a s e p ɾ e 
[311.195]
<no-speech> 
[314.095]
h o m a z e d e w ə k ɽ e x ə <sta> 
[316.745]
<no-speech> 
[320.285]
h o x p ə l w ɑ n m e m ɑ l d ɑ ɾ ʃ ʊ 
[322.405]
<no-speech> 
[324.555]
<no-speech> 
[324.925]
<no-speech> 
[333.885]
<no-speech> k e f ɑ j a t d ʊ j d a j <no-speech> 
[337.455]
<no-speech> 
[341.865]
j ɑ ɾ a n ə m e d a j l ɪ d ə l a j ʦ ə d ə ɾ o ɣ b ə d ə ɾ t ə w ɑ j ə m <sta> 
[344.385]
<no-speech> 
[349.955]
n ə n ə <sta> 
[351.045]
<no-speech> 
[358.205]
<sta> m a s ɾ ʊ f d a j n ʊ t ə ʦ ə ʃ ɪ t ə d a ɣ a k a w e b a s j a w e x w ɑ n ə m ɑ a w t ɑ ɣ o n d e x o n ə d a j 
[363.085]
<no-speech> 
[372.055]
h o 
[372.585]
<no-speech> 
[378.975]
<no-speech> 
[379.445]
<no-speech> 
[388.448333]
<no-speech> 
[397.451667]
<no-speech> 
[406.455]
<no-speech> 
[407.085]
<no-speech> 
[411.785]
h o k ə n ə p ə h a ɣ e x o n ə m ɑ l ʊ m e ʐ ɪ h a ɣ ə ʦ ə w a j ə l <sta> 
[415.755]
<no-speech> 
[418.165]
z ə w ɑ j ə m k ɑ n k o ɾ d e ʦ a ŋ g a w o d a ɣ a d a j w a j ə l k ɑ n k o ɾ w ɑ l l a x ə w o m ɽ a d ə s ʊ l ɪ m ɑ n d e k o ɾ w a d ɑ n w ɪ s a x t k o m a k j e ɾ ɑ s a ɾ a w ə k ɽ ə l o d ə t ɑ ɾ ɪ x a w ʤ ʊ ɣ ɾ ɑ f j a ʈ o l s a w ɑ l ʊ n a j e ɾ ɑ t ə h a l k ɽ a 
[427.755]
<no-speech> 
[433.615]
n ʊ ɾ w ɑ ʧ a w ʊ 
[435.065]
<no-speech> 
[436.025]
<hes> d ɑ w a j ə l ʦ ə w ɑ j ɪ a w d ə e m ɾ ɑ n ʊ s t ɑ d d e k o ɾ w a d ɑ n w ɪ p ə x ʊ d ɑ j m ɽ a ɾ j ɑ z ɪ s a w ɑ l ʊ n a m e w a ɾ t ə w a j ə l a w ɖ ɑ j ɾ e k ʈ j e ʤ a w ɑ b ɾ ɑ k a w ʊ w a j ə l a w ɖ ɑ j ɾ e k ʈ j e ʤ a w ɑ b ɾ ɑ k a w ʊ <sta> 
[444.225]
<no-speech> 
[449.435]
<no-speech> 
[449.815]
<no-speech> 
[450.655]
o s j e m ʊ ʐ 
[451.635]
<no-speech> 
[454.525]
<sta> h o h a ɣ ə w ɑ j ɪ w a j ə l m ʊ ʐ s a ɾ a m ʊ t a x a s e s d a j w a j ə l k ɪ m j ɑ s a w ɑ l ʊ n a ʈ o l ɾ ɑ t ə h a ɣ e h a l k ɽ ə l k ə n ə t a ʃ n ɑ b k x e n ɑ s t w o w a j ə l b e ʧ ɑ ɾ a t a ʃ n ɑ b n ə j e k a w ə l d a ɣ a 
[462.105]
<no-speech> 
[464.085]
<no-speech> 
[464.635]
<no-speech> 
[473.765]
p ɑ s ʃ w a j 
[474.595]
<no-speech> 
[475.605]
<no-speech> d ə x a ɾ a z o j a z ə ʧ ɑ p o ɾ e n ə x ɑ n d ə m b j ɑ k ɑ n k o ɾ k x e n ɑ k ɑ m a k e ʐ ə m 
[480.535]
<no-speech> 
[487.565]
z a h a m d ɑ s e x ə d a j m ɑ t ə h a m m e s e ʤ ɾ ɑ ɣ l a j ʧ e ʧ ɑ w ə k ɽ o k a w ə m e ʤ ɑ z o s ɾ ɑ t ə m e s e ʤ w ə k ɽ o t ə w ə d ə ɾ e ʐ a w ə j e g o ɾ ə m <hes> b a s d ə x a j ɾ a 
[499.345]
n j ɑ z o j d a j 
[501.565]
<no-speech> 
[507.975]
<hes> w a j ə l p e n z ə s a w a n ə d a ɣ a n ə b a s g ɑ ɖ ə j m e n ʊ h a ɣ e ɾ ɑ ɖ e w n ə m e s e ʤ ɾ ɑ ɣ l a j d ə w a j ə l n ɪ w ɪ k ɑ l p ə d a ɾ ʃ ə l k x e p ə k ɑ b ə l m a z ɑ ɾ l o j a l ɑ ɾ a m n j a t ɪ t a d ɑ b ɪ ɾ s a x t k ɽ a j ʃ ʊ w ɪ l o j e <sta> 
[519.475]
s a x t k ɽ a j ʃ ə w ɪ d ɪ <sta> 
[523.055]
<no-speech> 
[525.955]
<hes> j ʊ w ɾ ə z m e w ə l ɪ d ə l o <no-speech> s a m j ʊ d w a d ɾ e j e k a ʃ k ɽ o p l ɑ ɾ t ɾ e ʤ o ɽ ʃ w a j d ə w ɑ ɾ a b a s b a d a l d ə ɾ n ə a x l ɪ d ə w ɑ ɾ a <sta> 
[533.625]
<no-speech> 
[536.625]
<hes> h a ɣ ə s a ɽ a j d a j o s 
[538.495]
<no-speech> 
[542.665]
<no-speech> 
[543.455]
<no-speech> 
[544.365]
<sta> z a x ə w o w ɑ l l a o s d ə h a ɣ e s a ɾ a ʦ ə t ɑ l ʊ q ʧ ɑ s a ɾ a n ə s ɑ t ɪ h o <no-speech> m ɽ a ɾ e x t j ɑ x a b ə ɾ a z ə ɖ e ɾ ʧ ɑ s a ɾ a <hes> 
[555.115]
<no-speech> 
[555.975]
<no-speech> 
[557.245]
<no-speech> 
[561.245]
<sta> p ʊ ɾ a ʃ ʊ k ə n ə 
[562.655]
<no-speech> 
[571.415]
s a h ɪ h d ə x o <sta> 
[572.285]
<no-speech> 
[573.095]
ʧ e ɾ ɑ t l ə l e b j ɑ m ɑ t ə j ʊ z a ŋ g w ə w a h a h ʊ ʤ ɾ a k x e t o ʃ a k e ɪ x ɪ t o ʃ a k e w ɑ ʧ a w ʊ <sta> 
[577.425]
<no-speech> 
[580.745]
<no-speech> 
[582.185]
<no-speech> 
[583.605]
s a h ɪ h d ə 
[584.175]
<no-speech> 
[586.855]
h o j ʊ d ɾ e d ɑ n e d ə p a m a n z ɑ m ə n ʃ t a 
[589.945]
<no-speech> 
[595.705]
<no-speech> 
[596.115]
<no-speech> 
[600.14]
