[0.0]
<no-speech> 
[4.715]
w ɑ l a j k ʊ m a s s a l ɑ m a w a w p ə x a j ɾ ɾ ɑ ɣ l e j e a f ɣ ɑ n e s t ɑ n n ə <sta> <breath> 
[8.715]
<no-speech> 
[11.215]
a w x ə j ə m a l h a m d ʊ l e l l a h t ɑ s o ʦ a ŋ g a j e n ʊ ɾ m ɑ ʃ ʊ m ɑ n h a l t a x ə w o 
[14.375]
<no-speech> 
[18.365]
a w x ə d ɪ a l h a m d ʊ l e l l a h a f ɣ ɑ n e s t ɑ n k x e h a ɣ ə a d e d ɪ ʦ a ŋ g a w ə k ɑ k ɑ g ɑ n n ʊ ɾ ʈ o l x ə w o ʈ o l 
[24.605]
<no-speech> 
[29.925]
<int> a w a l h a m d ʊ l e l l a h x ə j ə m l ɑ ɾ a k x e p ə x a j ɾ ɾ ɑ ɣ l e p ə t a k l ɪ f x o n ə ʃ ə w ɪ 
[34.925]
<no-speech> 
[42.305]
<no-speech> 
[42.815]
<no-speech> 
[44.095]
x ə x w a x <int> ʃ ə w ɪ j e 
[45.015]
<no-speech> 
[49.815]
<no-speech> 
[50.345]
<no-speech> 
[53.705]
x ə 
[54.295]
<no-speech> 
[55.545]
x ə z a x ə w o ʧ e ʦ o k x w a x ʃ ə w ɪ n ə w o 
[57.945]
<no-speech> 
[60.625]
x ə <int> 
[61.485]
<no-speech> 
[66.605]
x ə 
[67.195]
<no-speech> 
[71.805]
x ə <int> 
[72.565]
<no-speech> 
[75.605]
x ə 
[76.225]
<no-speech> 
[81.055]
<int> z a b j ɑ h a m ʦ o k m ɽ a n ə w o z a x m j ɑ n x o b ə x ə ʃ ɪ 
[83.935]
<no-speech> 
[88.495]
x ə l ɑ ɾ a h a ɣ ə z ɑ j n ə b ə h a s p a t ɑ l h a m l a ɾ ɪ w ɪ b j ɑ k ə n ə 
[90.935]
<no-speech> 
[99.885]
a w k ə n ə b j ɑ <int> ʧ e h a s p a t ɑ l t ə ɾ a s a w ɪ ɾ a s a w ɪ n ʊ 
[102.125]
<no-speech> 
[106.675]
x ə <sta> b j ɑ x o w ɑ j a ʧ e h a s p a t ɑ l l a ɾ ɪ d ɪ 
[108.665]
<no-speech> 
[112.925]
x ə 
[113.605]
<no-speech> 
[115.545]
x ə h a ɣ ə ɣ a ɾ ɪ b ɑ n ɑ n <sta> x o 
[117.065]
<no-speech> 
[118.415]
<no-speech> 
[118.765]
<no-speech> 
[124.775]
x ə h ɑ d ə s a t o ɾ x a m n ə m ə x k e ʃ ə w ɪ d ə t o ɾ x a m n ə m ə x k e h a ɣ a l t a ʃ ə w ɪ d ə 
[128.564875]
<no-speech> 
[132.845]
h a l t a x o d ɑ s e x ə l ɑ ɾ d ə s a f ɑ l ɑ ɾ d a ɣ a h a m n ə ʃ t a d ɑ s e k e ʐ ɪ w ə ʐ a j l ɑ ɾ e h a m n ə d ɪ s ɪ d a l ɑ ɾ d ə h a l t a ʦ a ŋ g a h ɑ d ə s e k ɪ ʐ ɪ b e ɾ o b ɑ ɾ ɖ e ɾ w ɪ 
[139.595]
<no-speech> 
[141.365]
<no-speech> 
[141.895]
<no-speech> 
[146.895]
x ə 
[147.605]
<no-speech> 
[153.415]
a w k ə n ə 
[154.405]
<no-speech> 
[156.125]
d ɪ w ɑ ɾ x a t ɑ j ɪ 
[157.235]
<no-speech> 
[160.455]
h o k ə n ə d ɑ s e n ə g o ɾ e ʧ e ʦ ʊ m ɾ a x ɑ j s t a s a ɾ a k d a j ʧ e e n s ɑ n p ə x p ə l l ɑ s b ɑ n d e ɾ a w ɑ n w ɪ b j ɑ x o w ɑ j ə m h a l t a h ɑ d ə s e b e x ɪ d a ɣ a n ə ʃ t a x ə s a ɾ a k d a j 
[167.025]
<no-speech> 
[169.005]
s a ɾ a k x o d ɪ x w ɑ t ə x a ɾ ɑ b d ɪ d e p ɑ k e s t ɑ n t a ɾ a f t ə 
[171.435]
<no-speech> 
[174.655]
<int> p j ɑ d a <int> <foreign> h a m 
[175.765]
<no-speech> 
[176.785]
p j ɑ d a <foreign> m ʊ x p ə l a w ə k ɽ a 
[178.075]
<no-speech> 
[182.935]
x ə 
[183.655]
<no-speech> 
[187.365]
x ə d ɪ <int> d ə p ɑ ɾ a m ɑ ʃ ʊ m ɑ n m ʊ k x e n a w ə l 
[189.735]
<no-speech> 
[197.555]
h o k ə n ə <int> a w k ə n ə b j ɑ x p ə l a h a m d a ɣ a p j ɑ d a <foreign> ɖ e ɾ a h a m d ə k ə n ə n ɪ m s ɑ a t x o b ə w ɪ 
[202.545]
<no-speech> 
[209.165]
h o k ə n ə b j ɑ ʧ e t o ɾ x a m d a ɾ w ɑ z e t ə w ə ɾ a s e ʐ e b j ɑ d e t a ɾ a f t ə b ə l g ɑ ɖ ɪ b ə n ɪ s e k ə n ə h a m h a ɣ ə <hes> h a m h a ɣ ə b ə m ʊ ɾ ɑ w a l e d e x w ɑ t ə d a ɣ a d ɑ <hes> p j ɑ d a <foreign> k x e 
[217.335]
<no-speech> 
[222.845]
n ə w ɑ j ə m h a ɣ ə d a ɾ w ɑ z e t ə ʧ e w ə ɾ a s e ʐ ɪ d ə t o ɾ x a m d a ɾ w ɑ z e t ə d ɑ ʧ e k a w ə m g ɑ ɖ ɪ k x e t ɑ s o m ɑ ʃ ʊ m ɑ n k x e n a w ə l e w o h a m h a ɣ ə g ɑ ɖ ɪ d ə p ɑ k e s t ɑ n x ɑ w ɾ ɪ t ə h a m ɾ ɑ z e 
[230.165]
<no-speech> 
[233.725]
x ə b j ɑ <sta> x ə d ə 
[234.835]
<no-speech> 
[235.645]
x ə x ə 
[236.465]
<no-speech> 
[239.935]
x ə <breath> 
[240.635]
<no-speech> 
[248.065]
a w k ə n ə 
[248.975]
<no-speech> 
[249.905]
d ɑ ɣ a ʈ g ɑ ɖ ɪ h a m d ɑ ɖ e ɾ d a ɣ a k a w ɪ l ɑ ɾ a k x e m ʊ z ɑ h e m a t k a w ɪ 
[253.125]
<no-speech> 
[259.205]
a w 
[259.825]
<no-speech> 
[261.124875]
a w s a ɾ a k ʊ n a j e h a m b a n d k ɽ ɪ w ɪ 
[262.535]
<no-speech> 
[266.945]
a w 
[267.585]
<no-speech> 
[269.725]
a w k ə n ə a f ɣ ɑ n e s t ɑ n p ə d a ɣ a k x e b j ɑ d ɑ ɣ a ʈ g ɑ ɖ ɪ d ʊ m ɾ a ɖ e ɾ n ə x k ɑ ɾ ɪ d ɪ t a ɾ a f t ə ɖ e ɾ w ɪ k ə n ə h a l t a h a ɣ ə s a ɾ a k l o j d ɪ <dtmf> 
[275.445]
<no-speech> 
[280.535]
x ə <breath> 
[281.275]
<no-speech> 
[284.415]
h a ɣ ə w ɾ o w ɾ o h a m z e k ə n ə 
[285.665]
<no-speech> 
[286.685]
ɣ a ʈ g ɑ ɖ ɪ a w h a ɣ ə j e ɖ e ɾ ɖ a k k ɽ ɪ w ɪ <breath> ɖ a k k ɽ ɪ j e ɖ e ɾ w ɪ <no-speech> a w b j ɑ d ɪ t a ɾ a f t ə b j ɑ <int> 
[294.395]
<no-speech> 
[296.645]
d ɪ t a ɾ a f t ə b j ɑ l ɑ ɾ a x ə w ə <int> 
[298.115]
<no-speech> 
[305.105]
x ə <dtmf> 
[305.905]
<no-speech> 
[310.825]
<lipsmack> x ə 
[311.555]
<no-speech> 
[319.815]
x ə 
[320.485]
<no-speech> 
[326.695]
w ɑ j ɪ d ɑ ɣ a ʈ g ɑ ɖ ɪ ʧ e d a ɣ a ʃ ə w ɪ w o n ʊ l ɑ ɾ a x o j e b a n d a k ɽ ɪ n ə w ə 
[329.585]
<no-speech> 
[338.355]
x ə b j ɑ s a ɾ a k ʊ n a x l ɑ s ʃ ʊ <sta> x ə 
[341.345]
<no-speech> 
[346.165]
a w k ə n ə b j ɑ d ɪ k x e ʦ a ŋ g a x a l k o z a ɽ a t a ŋ g e ʐ ɪ 
[348.455]
<no-speech> 
[355.185]
a w k ə n ə 
[356.115]
<no-speech> 
[361.575]
a w d ə p ɑ k e s t ɑ n l ɑ ɾ a x o b j ɑ ɖ e ɾ a x a ɾ ɑ b a d ə ɣ ɾ ʊ n o k x e d ə k ə n ə 
[364.735]
<no-speech> 
[367.945]
x ə x a ɾ ɑ b a ʃ ə w ɪ <hes> d ə b ɪ ɾ o b ɑ ɾ p ə ɖ e ɾ d ɪ 
[371.365]
<no-speech> 
[372.635]
<no-speech> 
[373.125]
<no-speech> 
[377.365]
<hes> l ɑ n d e k a n d e d ɪ k ə n ə 
[378.755]
<no-speech> 
[385.855]
a w k ə h a ɣ ə ɖ e ɾ a n ə d ə ɾ ɑ ɣ l e <breath> 
[388.535]
<no-speech> 
[394.475]
a w k ə n ə b j ɑ d ə k ɑ b ə l l ɑ ɾ e d ɪ n ə ʃ ɪ d ɪ ʦ ə 
[396.685]
<no-speech> 
[401.025]
x ə 
[401.645]
<no-speech> 
[403.285]
x ə 
[403.865]
<no-speech> 
[406.125]
x ə 
[406.695]
<no-speech> 
[410.285]
a w k ə n ə <dtmf> 
[411.165]
<no-speech> 
[412.635]
<no-speech> 
[413.305]
<no-speech> 
[415.205]
a w <sta> h a l t a x o s a ɾ a k x o t a ŋ g n ə d ɪ h a l t a k ə n ə t a ŋ g d ɪ h a l t a h a m 
[418.965]
<no-speech> 
[425.955]
x ə h a ɣ e d ə w a ʤ e b ɪ ɾ o b ɑ ɾ ɖ e ɾ w ɪ h a l t a x o k a n d e n ə ʃ t a k ə n ə l ɑ ɾ a k x e p ɑ k e s t ɑ n ɣ o n d e 
[430.975]
<no-speech> 
[438.605]
x ə x ə d ə h a ɣ ə d a ɾ j ɑ d ə w a ʤ e x a l k b e ɾ e ʐ ɪ k ə n ə ʧ e g ɑ ɖ ɪ d a ɾ j ɑ t ə w ə n a ɣ o ɾ z e 
[442.205]
<no-speech> 
[444.725]
h a l t a h a m ɣ ɾ ʊ n o k x e d ɪ l ɑ ɾ e 
[446.155]
<no-speech> 
[449.745]
x ə h a l t a x o b ə ɣ a ʈ g ɑ ɖ ɪ n ə w ɪ k ə n ə 
[451.345]
<no-speech> 
[459.035]
n ʊ h a l t a x o h a ɣ ə b ə l ə l ɑ ɾ ʧ e d ə k a w ə m a l ɑ ɾ w a ɾ t ə w ɑ j ɪ m ɑ h ɪ p a ɾ l ɑ ɾ a w ɑ j ɪ k ə h a ɣ ə b ə l ə h a ɣ ə b ə l ə ʦ ə n ʊ m e ʐ ɪ h a ɣ ə b ə l ə l ɑ ɾ 
[463.575]
<no-speech> 
[467.875]
<no-speech> p ə h a ɣ e 
[468.525]
<no-speech> 
[469.815]
x ə z ə w ɑ j ə m ʧ e ɣ a ʈ g ɑ ɖ ɪ p ə h a ɣ ə l ɑ ɾ a z e <breath> 
[472.535]
<no-speech> 
[481.235]
a w x ə d ɑ ɣ a ʈ g ɑ ɖ ɪ d ə ʃ p e z e 
[483.645]
<no-speech> 
[492.625]
h a ɣ ə x o d ɪ n ə z j ɑ t h a m d ə k ə n ə d ɪ p ɑ k e s t ɑ n n ə z j ɑ t a h a m d ə 
[495.215]
<no-speech> 
[498.395]
<hes> p ɑ k e s t ɑ n n ə <int> x o b ə z j ɑ t a w ɪ z ə k a d ɑ x o l a n ɖ d ɪ d a ɣ a n ə ʤ a l ɑ l ɑ b ɑ d n ə p ɪ x a w ə ɾ x o l a n ɖ d ɪ k ɑ b ə l b ə t ɾ e l a ɾ ɪ w ɪ <int> 
[505.595]
<no-speech> 
[510.105]
x ə 
[510.715]
<no-speech> 
[517.685]
h o d ɑ x o x a ɾ ɑ b d ɪ k ə n ə 
[519.105]
<no-speech> 
[520.005]
a w <int> 
[520.485]
<no-speech> 
[521.514875]
a w d ə l t ə ʦ o k ʤ o ɽ a w ɪ h a m n ə 
[523.175]
<no-speech> 
[524.045]
x ə h a l t a b j ɑ 
[525.215]
<no-speech> 
[526.285]
a w a w k ə n ə d a ɣ a 
[527.995]
<no-speech> 
[529.005]
<no-speech> 
[529.445]
<no-speech> 
[531.355]
x ə h a l t a h a m d ɑ d a ɣ a m o ʈ a ɾ w ɑ n ɑ n o b e e h t j ɑ t ɪ b ə w ɪ ʧ e h ɑ d ə s e k ɪ ʐ ɪ k ɑ b ə l k x e k ə n ə n ʊ ɾ e l ɑ ɾ e x o s a h ɪ h d e 
[536.525]
<no-speech> 
[543.705]
x ə 
[544.375]
<no-speech> 
[550.785]
<sta> x ə 
[551.345]
<no-speech> 
[552.435]
x ə <sta> 
[553.145]
<no-speech> 
[557.355]
x ə 
[557.995]
<no-speech> 
[561.005]
<sta> x ə 
[561.715]
<no-speech> 
[565.865]
<sta> x ə 
[566.535]
<no-speech> 
[572.345]
x ə 
[572.885]
<no-speech> 
[575.165]
x ə 
[575.855]
<no-speech> 
[578.865]
w ɑ j x a l k h a m ɣ o ɾ z e d ə l e w o 
[580.635]
<no-speech> 
[581.655]
x ə 
[582.465]
<no-speech> 
[585.045]
x ə <sta> 
[585.985]
<no-speech> 
[590.585]
x ə <sta> n ʊ b j ɑ ʦ ə w ə ʃ o 
[591.915]
<no-speech> 
[594.095]
w ɑ j h a ɣ ə <sta> 
[595.225]
<no-speech> 
[596.885]
<sta> x ə <hes> x ə d ɪ ʧ e m ə ɽ e ɾ ɑ ʤ a g k ɽ ə l ʊ b o n ə 
[599.155]
<no-speech> 
[600.02]
