[0.0]
<no-speech> 
[3.515]
h a l o 
[4.204875]
<no-speech> 
[6.715]
h a l o 
[7.375]
<no-speech> 
[9.585]
a s s a l ɑ m a l a j k ʊ m 
[10.475]
<no-speech> 
[13.405]
x ə ʦ a ŋ g a j e ʦ a ŋ g a j e t ɑ s o 
[14.875]
<no-speech> 
[18.065]
ʦ a ŋ g a j e t ɑ s o 
[19.155]
<no-speech> 
[22.035]
x a j ɾ d a j h o w ɾ ə z d e p ə x a j ɾ t e ɾ a ʃ w a 
[24.855]
<no-speech> 
[28.555]
m ɑ x ɑ m ɑ z ɑ n ʊ n o n ə m ə x k e 
[30.345]
<no-speech> 
[33.235]
t ɑ ʧ e k a w ə m w a x t k x e m ɪ s k ɑ l ɾ ɑ k ɽ o h a ɣ ə ʈ ɑ j m <breath> t ɑ m ɪ s k ɑ l ɾ ɑ k ɽ o l ə ʐ m ə x k e 
[37.405]
<no-speech> 
[39.835]
t ɑ l ə ʐ m ə x k e m ɪ s k ɑ l ɾ ɑ k ɽ o m ɑ x ɑ m ɑ z ɑ n ʊ n o n ə m ə x k e k ə n ə 
[42.575]
<no-speech> 
[46.425]
h o <no-speech> h o h a ɣ ə w a x t k x e b j ɑ d a ɣ a <hes> k ɽ o m ʊ ʐ ɾ ɑ m d ɑ s t ə n e ʝ d e w o t a q ɾ ɪ b a n 
[51.885]
<no-speech> 
[55.605]
b ɑ ʤ ɪ k a ɾ a 
[56.505]
<no-speech> 
[58.055]
m a ɾ ʤ ɑ n d ʊ j h a m ɾ ɑ ɣ ə l ɪ w o 
[59.455]
<no-speech> 
[61.255]
<no-speech> 
[62.475]
<no-speech> 
[63.945]
ʤ ɑ w ɪ d s a ɾ a m a ʤ ɾ ɑ n a w m ʊ ɾ s a l a w s a ɪ d a w ə 
[66.695]
<no-speech> 
[67.615]
h o ʤ ɑ w ɪ d 
[68.485]
<no-speech> 
[69.755]
h o z ə a w m o ɾ m e b a b o <breath> a w m a ɾ ʤ ɑ n a w s a ɪ d a m ʊ ɾ s a l ʈ o l w l ɑ ɽ o b j ɑ h a ɣ ə n ʤ ə l ə j s a ɾ a g ʊ ŋ g a j w ə b e ʧ ɑ ɾ a x o ɖ e ɾ a x ɑ j s t a w ə 
[77.715]
<no-speech> 
[79.945]
n ʊ x a j ɑ t w ə <no-speech> h o x a j ɑ t w ə m o ɾ j e w a j ə l ʈ o l k o ɾ m e p ə d e ʈ o l d a j 
[84.775]
<no-speech> 
[87.165]
h o x o b j ɑ w a j ə l w ɑ j ɪ <no-speech> h o m o ɾ p l ɑ ɾ j e w o x o h a ɣ ə w a j ə l w ɑ j ɪ m ə j e w ɾ a k a w a w a ɾ t ə w ɑ j ɪ d a ɣ a d ə <breath> w ɑ j ɪ ʧ e h a l ə k h a m g ʊ ŋ g a j ʃ ɪ a w n ʤ ə l ə j h a m g ʊ ŋ g a j ʃ ɪ n ʊ w ɑ j ɪ b j ɑ b ə l a k a d ə d ʊ j m ɑ ʃ ʊ m ɑ n w ə ʃ ɪ 
[98.075]
n ʊ b j ɑ b ə d ə h a ɣ ə d ə z a ɽ ɑ ɑ w ɑ z j ʊ h a m n ə a w ɾ ɪ 
[100.705]
<no-speech> 
[102.945]
m ɑ ʃ o m b ə <breath> m ɑ ʃ o m b ə j e z ɑ ɽ ɪ d a ɣ a <laugh> 
[107.795]
<no-speech> 
[108.835]
<laugh> w ɑ j ɪ d w ɑ ɽ a b ə g ʊ ŋ g j ɑ n j ʊ <laugh> <hes> w ɑ l l a k ə p o h e ʐ ə m w ɑ j ɪ g ʊ ŋ g ɪ t ə j e n ə w a ɾ 
[116.155]
<no-speech> 
[117.585]
w ɑ l l a z ə x ə j ə m t ɑ s o x ə j e 
[119.225]
<no-speech> 
[122.065]
ɾ ɑ z ɪ x o n ə ʦ ə b a s z ɑ ɽ a p ə z ɑ ɽ a d ə ʦ a ŋ g a ʧ e m ə x k e w ə m <int> 
[127.185]
<no-speech> 
[128.815]
h o 
[129.465]
<no-speech> 
[132.145]
b a s s a b ɑ w ɾ ə z m ʊ t e ɾ a ʃ ɪ n ʊ 
[133.825]
<no-speech> 
[136.245]
<no-speech> s a h ɪ h d ə s a h ɪ h d ə w ɑ l l a x ə n ə n m ʊ ʐ h a l t a m e d ɑ s e d ə m ə n ɖ o l o b a l a g a w ə l a j w ə 
[141.155]
<no-speech> 
[143.165]
s a ɪ d e s a ɾ a m e m ə n ɖ o l o b e k a w ə l e 
[145.275]
<no-speech> 
[148.295]
m ɑ w a j ə l ʧ e ʧ e ɾ t a x ʊ d ɑ j x a j ɾ k ɽ o 
[149.865]
<no-speech> 
[151.265]
m ɑ z ɪ g a ɾ 
[152.205]
<no-speech> 
[153.815]
<hes> d ɑ x o b a s x ə w ə m t ə n ə w e t ɑ t ə m ʊ k a w ə l t ɑ x o x ʊ d ɑ j m ə m a ɾ ɪ z k a w a 
[160.115]
<no-speech> 
[162.835]
ʦ a ŋ g a 
[163.535]
<no-speech> 
[167.725]
ʦ ə h o h a ɣ ə x o w ə h a ɣ ə n ə s a m a b o s ɑ ɽ a ʤ o ɽ a ʃ w a j w ə 
[172.335]
<no-speech> 
[174.485]
<laugh> d w a b a ʧ j ɑ n w o t ɾ e n a ʈ o l z o ɾ e s t ə l a j w o m ɑ t ə w ɑ j ɪ t ə n ə j e b a d a l a ʃ w a j b e l k ʊ l 
[179.445]
<no-speech> 
[182.295]
h o h a ɣ ʊ j n ə b a s <hes> 
[184.935]
<no-speech> 
[188.075]
z ə x o x ə j ə m k ə n ə b a s ʧ e t ə n ə m a n e ʧ e x ə ʤ a n ə j n ə j ə m d ɑ s e w ɑ j a ʧ e x ə ʤ a n ə j n ə j e 
[192.245]
<no-speech> 
[195.585]
d ɑ s e m ɑ t ə w ɑ j ɪ t ə x ə n ə j e k ə n ə b a s t ə w ɑ j ɪ ʧ e b ə l w ɑ d ə k a w ə m 
[198.565]
<no-speech> 
[201.795]
<laugh> m o ɾ m e h a m d ʊ j d ə l t ə d ɪ d e n ə b a s b ə z ɪ <no-speech> <hes> 
[210.125]
<no-speech> 
[212.285]
h o x a j ɾ w a s e x ə d ɪ x ə d ɪ ʃ ʊ k ə ɾ d a j ʈ o l x ə d ɪ 
[216.635]
<no-speech> 
[219.725]
n ə n ə s a h a ɾ w l ɑ ɽ o b j ɑ <hes> m ɑ z ɪ g a ɾ ɑ z ɑ n ʊ n o s a ɾ a t a q ɾ ɪ b a n b j ɑ ɾ a w ɑ n ʃ w o m ɑ x ɑ m ɑ z ɑ n ʊ n o n ə m ə x k e ɾ ɑ w a ɾ ɾ a s e d o ʈ a k s ɪ m ʊ n ɪ w ə l a j w ə 
[229.145]
<no-speech> 
[230.035]
<no-speech> 
[231.335]
<no-speech> 
[232.585]
<no-speech> 
[243.955]
ʦ a ŋ g a m ɑ w a j ə l ɾ ɑ b a ɾ a k e ʐ a j m ɑ w a j ə l d a ɣ a l t a t ə b ə d ə ɾ t ə q ɑ j d ɑ z a m w l ɑ ɽ w ɪ 
[246.865]
<no-speech> 
[249.565]
b j ɑ q ɑ j d ɑ z a m t l ə l a j w o b j ɑ d w ɑ ɽ o x ə s ɑ a t t e ɾ w o <no-speech> 
[254.265]
<no-speech> 
[255.335]
<no-speech> 
[255.865]
<no-speech> 
[257.624875]
d w ɑ ɽ a d ɑ k o ɾ m ə x e t ə j e k a ʈ a ʧ a w ə l a j w o <no-speech> d ə ɣ a ɾ m e ɖ o ɖ ə j j e h a m h a l t a w ə w ɪ s t ə l a w ə x w a ɽ ə l a ʧ ɑ j h a m w a ɾ t ə w ə w ɪ s t ə l o h a ɣ ə h a m h a l t a n ɑ s t w o w a ɾ m ə x e t ə 
[265.615]
<no-speech> 
[267.615]
q ɑ j d ɑ z a m a w ʤ ɑ w ɪ d n ɑ s t w o 
[269.655]
<no-speech> 
[272.995]
h o k o ʈ a j x o d w a d ɪ x o d w ɑ ɽ o k x e p ɾ ɑ t ə w o 
[276.155]
<no-speech> 
[278.275]
x o k o ʈ a j x o d w a d ɪ k ə n ə 
[280.105]
<no-speech> 
[281.775]
d w ɑ ɽ o k x e m e l m ɑ n a w o b a s b j ɑ d ə k o ɾ m ə x e t ə n ɑ s t w o ʤ ɑ w ɪ d x o a w ə l ɾ ɑ t l ə l o h a m n ə ʧ e ɾ t a g ɑ ɖ a j j e w ə w ɪ s t ə l o l ɑ ɽ o w ɑ j ɪ n ə b j ɑ w ɾ ʊ s t a ɾ ɑ ɣ a j <hes> d a ɣ a q ɑ j d ɑ z a m w a ɾ s a ɾ a n ɑ s t w o b a s h a m a l t a b a ɣ a j ɾ w ɑ j ɪ d ə l t ə x ə j a w o ɑ z ɑ d 
[293.535]
w ɑ j ɪ d ɑ x ə ɾ ɑ b ɑ n d e l a g e ʐ ɪ 
[294.845]
<no-speech> 
[297.365]
ɣ a ɾ m e ɖ o ɖ ə j m ʊ h a m h a m a l t a w ə x w a ɽ ə l a a w w ɾ ʊ s t a ʧ ɑ j m ɑ j w ə ʦ e ʂ ə l m ɑ z ɪ g a ɾ t ə b ɪ ɾ t a ɾ ɑ ɣ l ə m 
[303.175]
<no-speech> 
[304.565]
m ɑ t ə w a j ə l t ə n ə w ɑ j ɪ p a t a n ə l a g e ʐ ɪ ʈ e l e f ʊ n n a m b a ɾ w a ɾ t ə d ə h a ɣ ə x ə z a w a ɾ k ɽ ə l o <breath> n ʊ b j ɑ b ə m ʊ ʐ t ɑ s o t ə x a b a ɾ d ə ɾ k ɽ o w a j ə l p l ɑ ɾ j e x p ə l a p o h e ʐ ɪ k ə n ə ʧ e ʦ ə x ə d ɪ 
[316.215]
k ə n ə k ə p l ɑ ɾ j e z a ɽ a t ə w ə ɣ ʊ ɾ z e d o s a h ɪ h d ə k ə p l ɑ ɾ j e z a ɽ a t ə w ə n a ɣ o ɾ z e d o n ʊ w ɑ j ɪ b j ɑ <breath> m ʊ ʃ k e l a d ə x o w ɑ j e d ʊ m ɾ a d ə ʧ e l a k a b j ɑ d ʊ j t ə ɖ e ɾ m ʊ ʃ k e l ɑ t p a j d ɑ k e ʐ ɪ ʧ e d w ɑ ɽ a g ʊ ŋ g j ɑ n w ɪ j ʊ k a s x o s a m w ɪ 
[326.375]
<no-speech> 
[329.025]
<hes> n ʊ b a s h a ɣ ə o s p a t a n ə l a g e ʐ ɪ 
[331.285]
<no-speech> 
[333.565]
n ə <hes> h a ɣ ə g ʊ ŋ g a j <laugh> b e x ɪ x a b ə ɾ a d e d ə x w a l e n ə n ə ɾ ɑ w ə z ɪ <laugh> 
[343.425]
<no-speech> 
[345.355]
<no-speech> 
[345.845]
<no-speech> 
[348.355]
ʦ a ŋ g a 
[349.085]
<no-speech> 
[352.225]
<hes> n ə h e ʦ n ə w a j ə l 
[353.595]
<no-speech> 
[354.985]
x ʊ d ɑ j d e m ə ʈ ɪ ʈ a k a w a d ɑ s e x ə j e k ə n ə ʦ a ŋ g a ʧ e j e 
[357.765]
<no-speech> 
[360.545]
<laugh> s a h ɪ h d ə 
[361.775]
<no-speech> 
[363.265]
<no-speech> 
[363.825]
<no-speech> 
[364.735]
n ə 
[365.375]
<no-speech> 
[366.665]
n ə n ə 
[367.305]
<no-speech> 
[369.195]
n ə p a t a m e n ə l a g e ʐ ɪ 
[370.665]
<no-speech> 
[375.595]
n ə n 
[376.505]
<no-speech> 
[379.385]
<hes> w ɑ l l a k ə z ə o s w l ɑ ɽ ʃ ə m 
[381.235]
<no-speech> 
[383.215]
<breath> k ə l ə w l ɑ ɽ ʃ ə m z ə t ə ɾ ɑ t ə w ə w ɑ j a 
[385.555]
<no-speech> 
[388.115]
<no-speech> 
[389.385]
<no-speech> 
[390.845]
<no-speech> w a l e 
[391.865]
<no-speech> 
[395.455]
x ə w l ɑ ɽ a ʃ ə m 
[396.435]
<no-speech> 
[401.595]
x ə s a h ɪ h d ə k ə l ə w l ɑ ɽ a ʃ ə m m ɑ w a j ə l 
[404.575]
<no-speech> 
[407.515]
n ʊ d ɑ w a l e d ɑ s e d e w ə w a j ə l ʧ e o s w l ɑ ɽ a ʃ ə 
[409.625]
<no-speech> 
[410.925]
<no-speech> w a l e d e d ɑ s e w a j ə l ʧ e o s w l ɑ ɽ a ʃ ə 
[413.665]
<no-speech> 
[418.955]
x ə z a s a h ɪ h d ə k ə w ɑ j ɪ z ə m a <breath> k ə ɾ ɪ x t j ɑ w ɑ j ɪ 
[421.835]
<no-speech> 
[427.105]
n ə n 
[427.835]
<no-speech> 
[430.925]
<no-speech> 
[431.525]
<no-speech> 
[435.285]
n ə n d a j e t w ɑ ɾ 
[436.335]
<no-speech> 
[445.045]
k ə h a ɣ ə k ɑ ɾ ʧ e w a ɾ s a ɾ a m ʊ ʐ k ɑ w o h a ɣ ə k a s j ɑ d a w e <no-speech> 
[447.895]
<no-speech> 
[452.005]
<laugh> p a t a n ə ʃ t a z ə q ɑ j d ɑ z a m s a ɾ a b j ɑ z ə m a <laugh> 
[458.105]
<no-speech> 
[459.485]
h o q ɑ j d ɑ z a m w ɾ ə z d ə n ə n 
[461.175]
<no-speech> 
[462.285]
<no-speech> 
[465.175]
<no-speech> 
[467.315]
h o g o ɾ a f a j z ɑ n h a ɣ ə m ʊ ʐ k ɑ ɾ k a w ʊ f a j z ɑ n s a ɾ a h a ɣ ə n ə b ə z ə k ɑ ɾ m ɑ ɾ w ɑ x l ə m k ə n ə n ʊ h a ɣ ə n ə n ʧ ʊ ʈ ɪ w ə m ʊ ʐ n ə n w o n ə b j ɑ b ə d a ɣ a k a w ʊ b j ɑ b ə q ɑ j d ɑ z a m s a ɾ a w l ɑ ɽ a ʃ ə m h a ɣ ə b ə l ə w ɾ ə z 
[479.175]
<no-speech> 
[484.005]
b a s h a ɣ ʊ j h a m ɾ ɑ t ə w ə w a j ə l z ə w l ɑ n a ɽ ə m ʤ ɑ m e g ɑ n e m e h a m ʈ ʊ l e z ɑ n s a ɾ a n ə w o w ɽ ə l a j d ə l t ə d ə m ɑ ʃ ʊ m ɑ n o k a p ɽ e h a m p ɑ t e w e x p ə l e m e h a m p ɑ t e w e 
[490.735]
<no-speech> 
[491.755]
ʃ a j ʊ n a m e n ə w o ɾ ɑ ʈ o l k ɽ ɪ 
[493.405]
<no-speech> 
[494.855]
a w b ə l ʧ e a b ʊ b a k ɾ m ɑ s a ɾ a w ɑ l l a d ʊ m ɾ a x ə x k ɑ ɾ e d o 
[497.985]
<no-speech> 
[500.085]
n e w a j ʃ a ʈ m e w a ɾ t ə a x e s t ə l a j d a j t o ɾ a w s ʊ ɾ ɖ e ɾ z j ɑ t x ɑ j s t a x k ɑ ɾ e d ə l o <no-speech> ʈ ʊ l o ɣ e ʐ k x e k l a k n ɪ w ə l a j w o 
[506.395]
<no-speech> 
[509.815]
<hes> m a ɾ ʤ ɑ n d e h a m h a l t a <oov> m ʊ ɾ s a l t ə j e ɖ e ɾ p ə ɣ e ʐ j e ɾ ɑ n ə x k a t a k a w ə l o w a j ə l d ɑ ʦ a ŋ g a x ə ʃ w a j d a j d ɑ ʦ a ŋ g a x ə x k ɑ ɾ ɪ <no-speech> b j ɑ o s t ɾ e n a k a p ɽ e w a k ɑ ʒ ə m k ə l ə t ɑ s o ɾ ɑ z ə j b j ɑ w a ɾ t ə a ɣ ʊ n d ə m 
[520.275]
<no-speech> 
[526.695]
x ə s a h ɪ h d ə m ə k a w a <breath> a w d a ɣ a d ə 
[529.345]
<no-speech> 
[530.355]
x ə s a h ɪ h d ə z ə d ə ɾ t ə k a w ə m k ə n ə a w b ə l ə d ɑ <hes> w a j ə l m e d a ɣ a d ə s t ɑ k ɑ ɾ t ə ʦ ə p a t a w ə n a l a g e d o <no-speech> 
[536.705]
<no-speech> 
[543.835]
x ə 
[544.465]
<no-speech> 
[551.825]
x ə s a h ɪ h d ə a w d a ɣ a d ɑ <hes> w ɾ ʊ s t a k ɑ l w ə k ɽ ə m k ə n ə b j ɑ w ɪ d a k e ʐ a j 
[556.115]
<no-speech> 
[559.235]
<no-speech> 
[559.845]
<no-speech> 
[560.995]
b a s t ə w ə w ɑ j a n ʊ <breath> 
[562.395]
<no-speech> 
[565.785]
x ə z a s a h ɪ h d ə <no-speech> n ə n w ɑ j ə m z ɑ n s a ɾ a 
[568.605]
<no-speech> 
[572.255]
x ə s a h ɪ h d ə n ə n w ɑ j ə m z ə k a w ə l o d ə ɾ t ə x o b a s b j ɑ m a w q e m ɪ l ɑ w ʊ n ə ʃ w o d w o l a s b a ʤ o ʈ ɑ j m k x e m ʊ ʐ h a l t a w o h a ɣ ə <hes> ɾ e ʃ t e p ə s e t l ə l o <no-speech> b a s b j ɑ w ə n a ʃ w ə l o 
[582.585]
<no-speech> 
[585.425]
<hes> b j ɑ p ɑ t e ʃ w o 
[586.685]
<no-speech> 
[588.945]
x ə s a h ɪ h d ə z ɑ n x j ɑ l s ɑ t a <no-speech> x ʊ d ɑ j p ə a m ɑ n z ɑ n x j ɑ l s ɑ t a p ɾ e ʃ ɑ n a k e ʐ ə m ə 
[595.115]
<no-speech> 
[596.535]
x ə s a h ɪ h d ə d ə k a w ə m k a w ə m b ə d e x j ɑ l s ɑ t ə m 
[599.275]
<no-speech> 
[600.02]
