[0.0]
<no-speech> 
[1.695]
<no-speech> 
[2.045]
<no-speech> 
[3.915]
<foreign> <int> <foreign> s a l ɑ m a l a j k ʊ m 
[7.065]
<no-speech> 
[7.924875]
<no-speech> 
[8.475]
<no-speech> 
[9.955]
x a j ɾ d a j t ə ʦ a ŋ g a j e 
[11.485]
<no-speech> 
[13.785]
x a j ɾ d a j s t ɑ s e h a t x ə d a j 
[15.745]
<no-speech> 
[20.105]
<no-speech> 
[20.475]
<no-speech> 
[23.515]
w ɑ j a 
[24.375]
<no-speech> 
[30.385]
h o 
[31.265]
<no-speech> 
[36.575]
<no-speech> l a s o 
[38.055]
<no-speech> 
[40.955]
<no-speech> 
[41.305]
<no-speech> 
[42.565]
<no-speech> 
[45.265]
<no-speech> 
[52.105]
<no-speech> 
[58.945]
<no-speech> 
[59.315]
<no-speech> 
[60.125]
ʧ e p ɑ k a w ɪ j e <sta> 
[63.105]
<no-speech> 
[64.385]
p ɑ k a w ɪ j e p ɑ k p ɑ k j e s ɑ t ɪ ɣ w a ɽ a w ɪ j e m ɪ n z ɪ j e ɾ ɑ w ɪ n z ɪ j e p ə w a x t j e k x e n a w ɪ p ɑ ʦ a w ɪ 
[71.055]
<no-speech> 
[73.665]
h o 
[74.495]
<no-speech> 
[76.755]
<no-speech> 
[77.215]
<no-speech> 
[78.895]
<no-speech> 
[79.325]
<no-speech> 
[84.185]
n ʤ ə l ə j 
[85.175]
<no-speech> 
[88.875]
ɖ e ɾ e 
[89.705]
<no-speech> 
[93.605]
b a s ʧ e ʦ ʊ m ɾ a ɖ e ɾ e w ɑ j e 
[95.355]
<no-speech> 
[98.375]
n ə 
[99.125]
<no-speech> 
[101.625]
h o 
[102.275]
<no-speech> 
[108.105]
n ə x ə d ɪ n ə t a ŋ g a w ə l n ə k a w ɪ 
[110.685]
<no-speech> 
[115.765]
<no-speech> 
[117.545]
<no-speech> 
[120.125]
h o 
[121.815]
<no-speech> 
[129.045]
<no-speech> 
[129.465]
<no-speech> 
[134.455]
<int> ʧ e d ə d w a k ɑ l o ʃ ɪ 
[137.535]
<no-speech> 
[141.825]
h o ʈ o l p ə x e d m a t j e p ə m o ɾ w ɪ t a ŋ g a w ə l k a w ɪ 
[144.675]
<no-speech> 
[150.675]
x o ɾ ɑ k b e s k e ʈ w ɪ p ʊ l a w ɪ 
[152.825]
<no-speech> 
[154.485]
ɖ o ɖ ə j w ɪ t a ɾ k ɑ ɾ ɪ w ɪ <hes> 
[157.215]
<no-speech> 
[161.245]
x ə x o ɾ ɑ k ɖ o ɖ ə j d ə 
[162.885]
<no-speech> 
[167.315]
d ə ɣ a n ə m o 
[168.305]
<no-speech> 
[173.955]
ʦ a ŋ g a 
[174.585]
<no-speech> 
[179.555]
d ə ɣ a n ə m o ɖ o ɖ ə j a w ɽ a 
[181.605]
<no-speech> 
[184.915]
a w ɽ a d ə ɣ a n ə m o n ə ʤ o ɽ e ʐ ɪ 
[186.775]
<no-speech> 
[190.465]
h o m ɑ ʃ ɪ n ʊ n a p ɑ k j e k ɽ ɪ m ɑ ʃ ɪ n t ə j e j o s ɪ a w ɽ a j e k ɽ ɪ 
[194.075]
<no-speech> 
[199.065]
<no-speech> 
[199.425]
<no-speech> 
[200.905]
m ɑ ʃ ɪ n ʦ a ŋ g a m ɑ ʃ ɪ n d a j m ɑ <hes> 
[203.345]
<no-speech> 
[207.135]
d ə a w ɽ ʊ b e l d ə a w ɽ ʊ x p ə l m ɑ ʃ ɪ n w ɪ 
[209.535]
<no-speech> 
[213.175]
h o 
[213.875]
<no-speech> 
[217.065]
l ɪ d ə l a j m e d a j 
[218.285]
<no-speech> 
[221.935]
<no-speech> 
[222.305]
<no-speech> 
[223.555]
n ə ɣ a ʈ w ɪ a w n ə w a ɽ o k a j w ɪ 
[225.145]
<no-speech> 
[229.795]
n ə j e s a ɾ ɣ a ʈ w ɪ n ə j e p x e ɣ a ʈ e w ɪ b a ɾ ɑ b a ɾ ɣ a ʈ a w b a s <hes> ɣ a n ə m w a ɾ a ʧ a w ɪ h a ɣ ə a w ɽ a k ɽ ɪ a w b j ɑ j e ɾ ɑ w ɽ ɪ b j ɑ j e w ɑ ɣ ʐ ɪ p ɑ x ə j e p e ɽ a j e k ɽ ɪ d a m a ʃ ɪ <sta> b j ɑ j e 
[241.645]
p a x e k ɽ ɪ b j ɑ j e m ɑ ʃ ʊ m ɑ n o t ə w ɾ a k a w ɪ x ə x ə x ə x o ɾ ɑ k h a ɣ ə d a j 
[245.535]
<no-speech> 
[246.455]
<no-speech> 
[247.395]
<no-speech> 
[252.935]
n ə 
[253.845]
<no-speech> 
[255.735]
<sta> n ə w a l e b ə k x e ʧ ɪ n ʤ ɪ k e ʐ ɪ <breath> ʦ ə ʈ o l ʊ m a ɾ x o n ə w ɪ p ɾ ɑ t ə j ʊ d w a g e n ʈ e j a w a g e n ʈ a p ɾ ɑ t ə w ɪ 
[264.715]
<no-speech> 
[267.815]
<no-speech> 
[268.395]
<no-speech> 
[271.925]
n ə n ə x ə b a ɾ ɑ b a ɾ w ɪ x ə x w ɑ ʐ ə w ɪ 
[274.135]
<no-speech> 
[281.845]
d ə ɣ a n ə m o x ʊ ʐ a w ɪ 
[283.195]
<no-speech> 
[286.575]
<sta> n ə m ɽ a 
[288.455]
<no-speech> 
[292.915]
n ə 
[293.705]
<no-speech> 
[300.305]
n ə d e k ɪ s e n ə n ə j ə m x a b ə ɾ a h a ɣ ʊ j m e n ə d ɪ l ɪ d ə l ɪ 
[303.355]
<no-speech> 
[306.225]
<no-speech> 
[306.595]
<no-speech> 
[308.795]
n ɪ k a a w n j ɑ d w ɑ ɽ a m ɽ a d ɪ 
[310.735]
<no-speech> 
[316.535]
a f ɣ ɑ n e s t ɑ n k x e 
[317.835]
<no-speech> 
[321.365]
h o 
[322.045]
<no-speech> 
[325.515]
h o 
[326.155]
<no-speech> 
[331.195]
<no-speech> 
[331.715]
<no-speech> 
[340.315]
k l ɪ m e d a j k l ɪ 
[341.695]
<no-speech> 
[348.935]
d ə d e z a w ɑ b ɾ ɑ s a ɾ a n ə ʃ t a 
[350.705]
<no-speech> 
[355.755]
h a m d ɑ s e 
[357.365]
<no-speech> 
[360.225]
h o 
[360.875]
<no-speech> 
[365.355]
g ʊ z ɑ ɾ a k a w ɪ 
[366.525]
<no-speech> 
[373.35]
<no-speech> 
[380.175]
k ə l ə m ʊ s ɑ f e ɾ w ɪ k ə l ə k o ɾ k x e w ɪ 
[382.075]
<no-speech> 
[386.645]
ʧ e k o ɾ k x e w ɪ 
[387.825]
<no-speech> 
[390.785]
<no-speech> 
[391.245]
<no-speech> 
[394.595]
<no-speech> 
[395.145]
<no-speech> 
[399.365]
n ə w a l e d ə ʧ ɑ ʧ e m e ɽ ʊ n a w ɪ b j ɑ d ə x a l k o x w a x w ɪ 
[401.995]
<no-speech> 
[412.505]
d ɑ k ɪ s e n ə ʃ t a d ə l t ə 
[414.155]
<no-speech> 
[419.045]
<int> t ɾ ə z ʊ j 
[420.785]
<no-speech> 
[423.715]
h o 
[424.365]
<no-speech> 
[425.885]
<no-speech> 
[426.245]
<no-speech> 
[428.925]
p e x a w ə ɾ 
[429.795]
<no-speech> 
[435.815]
n ə 
[436.505]
<no-speech> 
[440.365]
j ʊ d a ɾ a j z ə l a l ɪ d ə l a j w o 
[442.015]
<no-speech> 
[446.275]
h o 
[446.955]
<no-speech> 
[452.985]
<no-speech> 
[453.505]
<no-speech> 
[454.395]
ʦ a ŋ g a 
[455.385]
<no-speech> 
[459.005]
<no-speech> 
[459.555]
<no-speech> 
[466.975]
d ə b ə l ʧ ɑ h a m w o d w ɑ ɽ o 
[469.015]
<no-speech> 
[473.005]
h a ɣ ə b ə l m e h a m d ə t ɾ ə z ʊ j w o 
[474.565]
<no-speech> 
[477.455]
h o 
[478.155]
<no-speech> 
[481.055]
d ə h a ɣ ə ʦ a l o ɾ 
[482.235]
<no-speech> 
[485.455]
z m ɑ d w a 
[486.435]
<no-speech> 
[491.055]
d ɑ d ə ɑ l l a h k ɑ ɾ d a j 
[492.485]
<no-speech> 
[495.895]
h o 
[496.505]
<no-speech> 
[497.555]
<no-speech> 
[498.125]
<no-speech> 
[500.955]
x ə 
[501.795]
<no-speech> 
[505.275]
h o 
[505.915]
<no-speech> 
[511.035]
n ə w a l e 
[512.135]
<no-speech> 
[513.644875]
<no-speech> 
[514.064875]
<no-speech> 
[517.445]
<no-speech> 
[518.115]
<no-speech> 
[519.774875]
<sta> n ə 
[521.525]
<no-speech> 
[524.895]
h o w a x t x ə t e ɾ e ʐ ɪ 
[526.855]
<no-speech> 
[529.095]
<no-speech> 
[529.465]
<no-speech> 
[530.385]
n ə 
[531.135]
<no-speech> 
[537.755]
h o 
[538.425]
<no-speech> 
[543.535]
h o 
[544.155]
<no-speech> 
[547.455]
n ə h e ʦ g e l a m ʊ n ə ʃ t a x ə x o ʃ h ɑ l a j ʊ 
[549.745]
<no-speech> 
[552.085]
<no-speech> 
[552.755]
<no-speech> 
[555.875]
x ə ɖ e ɾ a 
[557.005]
<no-speech> 
[561.645]
z ə d ə a n d ɑ z e n ə b a ɾ x o ʃ h ɑ l a j ə m 
[563.805]
<no-speech> 
[569.765]
ʧ e ɣ a ʈ ʃ ɪ w a l e j e n ə l e ʐ ə m 
[571.395]
<no-speech> 
[575.135]
w a l e n ə 
[576.035]
<no-speech> 
[580.285]
<breath> z ə m n ə x o z a ɽ a m e ɣ w ɑ ɽ ɪ 
[582.865]
<no-speech> 
[587.685]
w a l e x ə ʃ a j n ə d a j 
[588.985]
<no-speech> 
[593.105]
<int> <hes> ʈ o l m a x l ʊ q ɾ a w ɑ n n ə d a j 
[596.225]
<no-speech> 
[599.225]
d e h ɑ t l ə 
[600.055]
<no-speech> 
[600.06]
