[0.0]
<no-speech> 
[4.105]
h a l o 
[4.855]
<no-speech> 
[6.855]
<int> <hes> d ɑ w a l e k a ʈ ʃ ʊ <int> 
[8.314875]
<no-speech> 
[11.385]
<no-speech> 
[11.775]
<no-speech> 
[13.345]
x ə w ɑ j a k ə n ə l a s m e n e ʈ ʊ n a x a b ə ɾ ɪ d ɪ 
[16.205]
<no-speech> 
[17.375]
<no-speech> <hes> o s k a w ə m z ɑ j k x e j e 
[22.105]
<no-speech> 
[23.305]
b a ʧ j ɑ n d ɪ x ə d ɪ x ə d ɪ ʈ ɪ k ʈ ɑ k 
[25.185]
<no-speech> 
[29.245]
<no-speech> 
[29.815]
<no-speech> 
[30.815]
ʦ ə w a x t 
[31.325]
<no-speech> 
[35.455]
h o h o h a m d a ɣ a s e ʧ a l w a ɾ s a ɾ a k a w a j 
[37.395]
<no-speech> 
[38.395]
<no-speech> 
[39.005]
<no-speech> 
[40.475]
m ɑ w a j ə l k ə l ə b ə ɾ ɑ z ə j 
[41.675]
<no-speech> 
[43.175]
ɾ ɑ z e b ə k ə l ə 
[44.185]
<no-speech> 
[45.785]
<no-speech> 
[46.245]
<no-speech> 
[48.205]
a w d a ɣ a w ə k ɽ a ɖ ɑ j ɾ e k ʈ k l ɪ t ə ɾ ɑ ʃ ə h a s e n ə ʧ e x ɑ ɾ t ə l ɑ ɽ ʃ ɪ 
[50.925]
<no-speech> 
[54.195]
h o k l ɪ t ə ɾ ɑ z a h a l t a m ə z a a w h a ɣ ə h ɑ s ʈ a l ʦ ə p ɾ o g ɾ ɑ m d a j h ɑ s ʈ a l w ɑ j a x e s t ə l a j d a j 
[59.345]
<no-speech> 
[63.885]
<no-speech> 
[64.475]
<no-speech> 
[67.185]
<no-speech> x ə 
[67.755]
<no-speech> 
[68.555]
<no-speech> 
[68.985]
<no-speech> 
[71.705]
<no-speech> 
[72.085]
<no-speech> 
[76.645]
<hes> n ʊ d ɑ z ə m ɪ k x e h a m x a l k w ɪ p ə k x e k ə n ə w ɽ ɪ k x e 
[80.065]
<no-speech> 
[87.395]
a w k a m ɾ a p ə ʦ o a x l ɪ 
[88.765]
<no-speech> 
[95.605]
<breath> n ʊ ʃ p a ʐ z ə ɾ a ɾ ʊ p ə j ʃ ə w ɪ 
[97.365]
<no-speech> 
[99.075]
<int> a w ʧ ɑ j ɾ ʊ ʈ ə j 
[100.955]
<no-speech> 
[106.305]
<no-speech> 
[106.915]
<no-speech> 
[108.135]
<int> n ʊ d ɑ h a l ə k ɑ n p ə x p ə l a l ə <hes> p a x a w ɪ z ɑ n t ə 
[111.855]
<no-speech> 
[120.505]
h o ʈ a l h a m d e h ɑ s ʈ a l s a ɾ a d a j k ə n ə b ɪ l d a j 
[122.685]
<no-speech> 
[127.655]
<hes> n ʊ d e k x e z ɑ j n ə ʃ t a d a j d ə h o ʈ a l z ɑ j p ə k x e n ə ʃ t a 
[130.375]
<no-speech> 
[131.885]
<no-speech> 
[132.265]
<no-speech> 
[139.175]
<no-speech> 
[139.525]
<no-speech> 
[141.035]
<no-speech> 
[141.685]
<no-speech> 
[144.505]
<no-speech> 
[144.985]
<no-speech> 
[147.645]
a w h ɑ s ʈ a l ʦ o k ɪ d ɑ ɾ m o k ɪ d ɑ ɾ ʦ o k ʦ o k ʃ t a 
[150.355]
<no-speech> 
[159.395]
t a n x w ɑ w ɾ a k a w ɪ 
[160.365]
<no-speech> 
[171.525]
n ʊ <hes> n ə n x o z ə m 
[173.595]
<no-speech> 
[175.165]
h a ɣ ə x o b e m o ɾ a b e p l ɑ ɾ a d a j ʤ o ɽ 
[178.085]
<no-speech> 
[180.035]
<no-speech> 
[181.605]
<no-speech> 
[182.805]
x ə 
[183.445]
<no-speech> 
[190.305]
a w d a ɣ a e s ɾ ɑ ɾ ɖ j ʊ ʈ ə j t ə z ɪ 
[192.515]
<no-speech> 
[196.685]
<sta> l a n ɖ d a j k ə l a ɾ e d a j t ɾ e 
[198.865]
<no-speech> 
[203.065]
<no-speech> 
[203.585]
<no-speech> 
[205.265]
<no-speech> 
[205.645]
<no-speech> 
[206.495]
<no-speech> 
[207.115]
<no-speech> 
[210.835]
<no-speech> 
[211.465]
<no-speech> 
[215.235]
<no-speech> x ə <int> 
[215.995]
<no-speech> 
[217.425]
a w t ɾ ə x o m e n ə d a j d a ɾ a ɣ a l a j h a ɣ ə x o w a j ə l z ə w a ɾ z ə m 
[219.935]
<no-speech> 
[222.735]
p a ɾ ʊ n ʧ e t a n k ɪ t ə ɾ ɑ ɣ l a j w o 
[224.215]
<no-speech> 
[225.785]
<hes> m ʊ ʐ t ə j e w a j ə l z a j ʧ e z ʊ w ɑ j ə m m ʊ ʐ b j ɑ s a h ɑ ɾ z ʊ 
[229.235]
<no-speech> 
[230.925]
<no-speech> 
[231.825]
<no-speech> 
[232.875]
a w ʦ o g e n ʈ o m a z a l d a j 
[234.325]
<no-speech> 
[243.19]
<no-speech> 
[252.055]
<hes> t ɑ s o d ə d e z ɑ j n ə d e t a n k ɪ n ə p ɪ x a w ə ɾ n ə k a w ə m <hes> z ɑ j t ə l ɑ ɽ ə j a w ə l 
[256.955]
<no-speech> 
[258.684875]
<no-speech> 
[259.185]
<no-speech> 
[261.645]
n ə m o ʈ a ɾ w ɪ k x e t l ə l ɪ w ɪ k ə n ə 
[263.475]
<no-speech> 
[266.865]
<no-speech> 
[267.495]
<no-speech> 
[275.575]
p ə m o ʈ a ɾ w ɪ x o b j ɑ l ə ʐ l ɑ ɾ j e 
[277.435]
<no-speech> 
[285.565]
x ə 
[286.145]
<no-speech> 
[296.865]
d ɑ t ɑ s o <hes> k a w ə m z ɑ j s a ɾ a b j ɑ t ɑ w ʃ ə w ə j p ə ʤ ɪ ʈ ɪ ɾ o ɖ b ɑ n d e 
[301.385]
<no-speech> 
[302.545]
<no-speech> 
[302.915]
<no-speech> 
[306.625]
<hes> t ʊ ɾ b ɪ l ɪ s a ɾ a k ə n ə s a n a b d ɑ l s a ɾ a ʧ e ɾ t a l ɑ ɾ d ə 
[309.785]
<no-speech> 
[311.705]
<hes> s a n a b d ɑ l n ə b j ɑ ʦ ʊ m ɾ a l ɑ ɾ d ə ɖ e ɾ a l ɑ ɾ d ə h ɑ ɣ a x w ɑ 
[315.015]
<no-speech> 
[321.125]
<no-speech> 
[321.735]
<no-speech> 
[322.785]
a w k a ɾ ɑ j a j e ʦ ʊ m ɾ a w ə 
[323.825]
<no-speech> 
[334.02]
