[0.0]
<no-speech> 
[2.655]
<sta> a s s a l ɑ m a l a j k ʊ m 
[6.155]
<no-speech> 
[8.195]
a s s a l ɑ m 
[8.765]
<no-speech> 
[11.395]
ʦ a ŋ g a j e x ə j e ʤ o ɽ j e <sta> x ə <hes> 
[18.115]
<no-speech> 
[19.195]
<no-speech> 
[19.565]
<no-speech> 
[20.535]
<oov> x a b ə ɾ e s e h a t d e ʦ a ŋ g a d a j 
[23.205]
<no-speech> 
[27.515]
<hes> h a l ə k <hes> t ɑ t ə w ɑ j ə m t ə ʦ a ŋ g a j e ʧ e ɾ t a w ɾ ə k w ɾ ə k j e <breath> 
[31.495]
<no-speech> 
[35.315]
<laugh> ʧ e ɾ t a d ʊ ɾ b ɪ n k x e d e h a m d a ɾ a k n ə l a ʐ e ʐ ɪ <breath> 
[41.145]
<no-speech> 
[43.335]
x e d ɪ h o ʧ e ɾ t a p ə ʈ ʃ w e ɾ ɑ n ə <laugh> ʧ e ɾ t a p ə ʈ ʃ w a j j e 
[48.525]
<no-speech> 
[49.325]
<no-speech> h a l o 
[51.065]
<no-speech> 
[56.065]
x ə <breath> <hes> 
[58.115]
<no-speech> 
[60.495]
x ə b a s z ə ʤ ʊ m ɑ t p ə t a ɾ a f ɾ a w ɑ n j ə m t ə h a m ɾ ɑ z a 
[63.435]
<no-speech> 
[67.385]
n ə h a l ə k a z ə x o t ɑ n ə w ɪ n ə m 
[70.235]
<no-speech> 
[72.245]
n ə 
[72.915]
<no-speech> 
[76.055]
x ə b a s z ə b ə l ə ʐ <hes> ʦ a ŋ g a ʧ a l d a j k o ɾ s s a ɾ a 
[78.915]
<no-speech> 
[83.635]
b a s z ə h a m x ə j ə m l a g j ɑ j ʊ ʦ ə x p ə l t ɑ l ɪ m k a w ʊ <hes> 
[86.405]
<no-speech> 
[89.545]
k a w ə m j ʊ d ɑ d a ɣ a <breath> d ə ʃ e x a m ɪ n ʊ l l a m a d ɾ a s e n ə j ʊ h a l ə k d a j n a m ɪ ɾ ʊ l l a j e n ʊ m d a j 
[95.075]
<no-speech> 
[97.065]
n a m ɪ ɾ 
[98.155]
<no-speech> 
[100.305]
n ə n a m ɪ ɾ 
[101.665]
<no-speech> 
[107.135]
n ə h a l ə k a ʤ ʊ m ɑ t k x e ʦ ə k a w ə m o s 
[108.875]
<no-speech> 
[112.015]
w a l e 
[112.765]
<no-speech> 
[117.205]
s ʈ ʊ ɾ ɪ w a l e n ə 
[118.315]
<no-speech> 
[119.875]
w a l e n ə 
[120.645]
<no-speech> 
[123.145]
<no-speech> 
[123.745]
<no-speech> 
[126.315]
n ə n s ʈ ʊ ɾ ɪ k x e <hes> z m ɑ p ə x j ɑ l k ə n ə <click> 
[130.534875]
<no-speech> 
[131.355]
t ə w ə d ə ɾ e ʐ a <foreign> w ə k ɽ ə m ʦ ə ʃ a j m e w ə w a j ə l <hes> 
[134.265]
<no-speech> 
[135.255]
n ə n m ʊ 
[136.345]
<no-speech> 
[140.945]
x ə w a l e d ɑ d a ɣ a <breath> d ɑ k a m a q ə l d ə ɾ t ə z ə x k ɑ ɾ ə m ʧ e b e ʈ ɑ j m ʤ ʊ m ɑ t ʊ n a t ə ɾ a w ɑ n j ə m 
[145.585]
<no-speech> 
[151.005]
m ɽ a ɑ l l a h d ɑ ʧ a k d a ɾ a w ɑ l d e h a m ɑ l l a t a ɑ l ɑ w ə b a x x ɪ 
[153.945]
<no-speech> 
[157.585]
b a s ʃ p e w ɾ ə z e x e d ɪ s t ɑ ʦ a ŋ g a d ɪ 
[159.525]
<no-speech> 
[164.265]
<breath> n ə m ɽ a d ə k o ɾ ɖ e ɾ w a x t k e ʐ ɪ ʦ ə h ɑ l a h w ɑ l n ə ɾ ɑ z ɪ 
[167.375]
<no-speech> 
[169.425]
d ɑ z ə k a ʧ e j ʊ z ə h a m d a ɣ a s e <cough> ɣ l a j j ə m a w <breath> a w b ə l ə n a m ɑ ʦ o k j ɑ d a w ɪ a w n ə z ə ʦ o k j ɑ d a w ə m 
[176.705]
<no-speech> 
[179.425]
<breath> d ɑ x o z m ɑ ɣ a l a t ɪ d ə x o z ə x a j ɾ 
[181.955]
<no-speech> 
[183.125]
<no-speech> 
[183.485]
<no-speech> 
[186.395]
n ə e s l ɑ b ə j e k ɽ ə m x o b j ɑ h a m <hes> ʦ ə <cough> e q t e s ɑ d ɪ m ʊ ʃ k e l ɑ t o d ə w a ʤ e n ə j ɑ n ʊ ɾ ʦ ə d ɑ s e <breath> <foreign> m ə x t ə ɾ ɑ z ɪ <no-speech> ʧ e <oov> 
[196.955]
<no-speech> 
[202.475]
d ɑ 
[202.955]
<no-speech> 
[204.645]
d ɑ x o j ʊ <foreign> k ə n ə ʧ e j ʊ q e s ə m l ə ʦ a ŋ g a x k ʊ l ɑ w a ɾ k a w e n ʊ 
[209.055]
<no-speech> 
[209.905]
k a w a ʧ e ʦ ə ʧ a l <laugh> h a l o 
[212.965]
<no-speech> 
[215.635]
w ɑ j ə m d ɑ x o j ʊ <foreign> d a j k ə n ə ʦ a ŋ g a ʧ e x k ʊ l ɑ w a ɾ k a w e k ə <cough> b ɑ n d e j e w a ɾ k a w e a w k ə <breath> p ə d e ʃ ɪ w a ɾ k a w e ʧ e h a ɾ ʦ ə k a w e b a s k a w a j e j ʊ <click> j ʊ 
[224.765]
<no-speech> 
[228.035]
ɾ ɑ w ə ɣ ʊ ɾ z e ʝ ə m 
[229.205]
<no-speech> 
[232.085]
x ə d ɑ d a j l ə ʐ n ə ɖ e ɾ b ə w ə x o z e ʝ ə m ɾ ɑ w ə x o z e ʝ ə m <breath> d w a d ɾ e q a d a m a m ə x k e ʃ ə m d ɾ e q a d a m a b e ɾ t a b ə ʃ ɑ t ə ʃ ə m a w d a ɣ a d a j d ə g a ɽ e n ə j ʊ ʧ e k h a m w ə w a h ə m w a ɾ t ə <breath> a w z ə h a j ɑ t 
[242.305]
<no-speech> 
[243.245]
<click> g o ɽ e n ə z ə ʧ e k w a h ə m k ə n ə 
[245.645]
<no-speech> 
[246.905]
a w ʃ ɪ n ʧ ɑ j e t ə w ə ʦ ə k a x ə 
[248.545]
<no-speech> 
[250.065]
<no-speech> 
[250.495]
<no-speech> 
[252.035]
w a l e 
[252.745]
<no-speech> 
[259.775]
ʧ ɪ n ɪ n ə g o ɽ a x ə d ə g o ɽ a w ə x w ɾ a ɪ l a t ɑ q a t d ə ɾ p ə k x e p a j d ɑ ʃ ɪ 
[263.575]
<no-speech> 
[268.505]
<no-speech> 
[269.235]
<no-speech> 
[273.015]
s a b ɑ d ə a f ɣ ɑ n e s t ɑ n a w p ɑ k e s t ɑ n m e ʧ d a j e n ʃ a l l a a z ɪ z d ʊ j k a ɾ a b ə j e g o ɾ o j ʊ z ɑ j ʦ a l o ɾ n ɪ m e b a ʤ e ʃ ʊ ɾ o k e ʐ ɪ k ə n ə 
[278.625]
<no-speech> 
[282.415]
x ə b ɑ j a d ʧ e d e t ə j ʊ q e s ə m z ɑ n l ə ʐ t a j ɑ ɾ k ɽ o ʧ e d ɑ m e ʧ ʦ a ŋ g a w ə g o ɾ ʊ 
[287.005]
<no-speech> 
[288.135]
<no-speech> 
[288.675]
<no-speech> 
[292.325]
s a b ɑ ʤ a m e w ɾ ə z d ə l ɑ ɽ b ə ʃ ʊ m ɽ a d e <hes> ʈ o ɑ w ɖ ɪ ɾ ɑ s a ɾ a d a j s ɪ ʈ ɪ ʈ ɑ w n p o ɾ e b ə l ɑ ɽ ʃ ʊ w ə b a g ə ɾ z ʊ ɾ ɑ w ə b a g ə ɾ z ʊ ʤ ʊ s b ə w ə ʦ e ʂ o b e ɾ t a b ə ɾ ɑ ʃ ʊ d ɑ n ʊ ɾ b ə ʦ ə w ə k ɽ o b a s b e ɾ t a d a j z a a w ɾ ɑ z a b a s ʧ e m ɑ s p a x ɪ n ʃ ʊ n ʊ b a s 
[303.785]
l ɑ ɽ b ə ʃ ʊ 
[304.555]
<no-speech> 
[305.355]
ɖ o ɖ ə j m ʊ ʧ e w ə x w a ɽ ə l a l ɑ ɽ b ə ʃ ʊ a z ɪ z d ʊ j k a ɾ a b ə h a ɾ a k a t w ə k ɽ o b a s l ɑ ɽ b ə ʃ ʊ 
[308.935]
<no-speech> 
[310.715]
<no-speech> 
[311.225]
<no-speech> 
[318.335]
z a m ɽ a m ɑ w a j ə l 
[319.495]
<no-speech> 
[320.575]
x ə 
[320.955]
<no-speech> 
[322.015]
m ɑ w a j ə l k ə m ɑ t ə l a g j ɑ j e t ə b ə l ʧ ɑ t ə l a g j ɑ j e <cough> <breath> 
[324.695]
<no-speech> 
[328.825]
x ə h a l o 
[329.935]
<no-speech> 
[336.825]
h a l o h a l o 
[338.365]
<no-speech> 
[344.315]
m ɑ t ə w ɑ j e 
[345.215]
<no-speech> 
[347.915]
x ə 
[348.415]
<no-speech> 
[350.775]
<hes> h a j ɑ t 
[352.485]
<no-speech> 
[353.295]
h a j ɑ t 
[354.225]
<no-speech> 
[355.085]
<hes> k a n z ə l e ʤ ɑ j e z d ɪ k a n z ə l e ʤ ɑ j e z d ɪ 
[358.425]
<no-speech> 
[363.155]
<breath> x ə b a s n ʊ ɾ ʦ a ŋ g a <oov> x a b a ɾ j e 
[366.495]
<no-speech> 
[367.955]
b a h ɑ ɾ x o ɾ ɑ ɾ a w ɑ n d a j k ə n ə <cough> b a h ɑ ɾ x o ɾ ɑ ɾ a w ɑ n d a j b a h ɑ ɾ 
[373.775]
<no-speech> 
[380.695]
z ɑ n s e f a t n ə k a w ə m <hes> z m ɑ d ə p ə m ɑ n a w j a t ɖ a w l z ə t ɑ s o b ɑ n d e ɾ ɑ z ə m o s e n ʃ a l l a <hes> <breath> l ə ʐ w a x t b ɑ d b ə d ɑ x p ə l d ɑ b a h ɑ ɾ b ə e z h ɑ ɾ w ə k ɽ ə m b a s d ə g ʊ l ʊ n ʊ b a s 
[392.125]
k ɽ ə m a w d ɑ <hes> b ə ʃ n a w ɪ a w d ɑ h a l ə k ɑ n b ə w ɪ a w k a m ɾ e b ə w ɪ a w l a g j ɑ b ə w ɪ t a s w ɪ ɾ ɑ n b ə w ə b ɑ s ɪ a w x j ɑ l x o d e d a j k ə n ə 
[398.815]
<no-speech> 
[401.175]
<no-speech> 
[402.175]
<no-speech> 
[406.775]
n ʊ b a h a ɾ ɾ ɑ w ə w ə z a k ə n ə 
[408.055]
<no-speech> 
[413.345]
<hes> h a l ə k ʧ ɑ j e x a t ə m n ə k ɽ e m ə ɽ b ə j ə m g o ɾ a 
[415.325]
<no-speech> 
[425.985]
h a j ɑ t 
[426.865]
<no-speech> 
[431.335]
x ə n ʊ 
[431.975]
<no-speech> 
[434.545]
z ə w ɑ j e k ɽ a ɾ ɑ t ə z ə b ə j e h a m d ə ɾ t ə b j ɑ w ə k ɽ ə m <cough> 
[436.845]
<no-speech> 
[440.105]
ʦ o k <cough> ʦ o k <cough> 
[444.805]
<no-speech> 
[447.305]
ʦ a ŋ g a 
[447.865]
<no-speech> 
[450.635]
h a l o x ə w ɑ j a 
[452.895]
<no-speech> 
[460.255]
<foreign> 
[461.265]
<no-speech> 
[463.945]
b a s d a ɣ a d a j d a ɾ a ɣ l ə m ʃ ɪ n ʧ ɑ j e ɾ ɑ t ə t a j ɑ ɾ k ɽ a g o ɾ a x ə l ɑ ʧ ɪ d ɑ ɾ ʧ ɑ j e d ə ɾ z ə m a w d w a d ɾ e d w a d ɾ e p j ɑ l e w ə ʦ e ʂ ə m b a s <breath> h a ɣ ə d a j ʧ ɑ j n a k j e ɾ ɑ ɾ a w ɑ n k ɽ a j d a j x o x ə j e ʧ e ɖ a k a j e 
[472.865]
<no-speech> 
[479.295]
b a s g ə ɾ z ə m ɾ ɑ g ə ɾ z ə m x o b a h a ɾ ɾ ɑ w ə w ə z a k ə n ə d ə n ə n a d e ʦ ə n ɪ w ə l ɪ d ɪ d e k a m ɾ a k x e ɾ ɑ w ə w ə z a b a h a ɾ 
[483.455]
<no-speech> 
[489.525]
<no-speech> 
[489.885]
<no-speech> 
[493.915]
<sta> h a j ɑ t 
[495.355]
<no-speech> 
[496.315]
<hes> <oov> <breath> d ɑ ʈ ɑ j m ɖ e ɾ x w a n d n ə k a w ɪ ʧ e d ɑ <cough> j ʊ p ə s a ɾ l a j h a m ɾ ɑ ʃ ɪ k ə n ə 
[501.695]
<no-speech> 
[503.145]
d ɑ g ʊ l ɑ n h a m s a ɾ a s a ɾ a a w d ɑ ʃ n a ʃ n a ʧ a m a n ʊ n a a w b a l k e <hes> 
[507.035]
<no-speech> 
[509.495]
w ə d ə ɾ e ʐ a z ə x a b ə ɾ a x a t ə m k ɽ ə m k ə n ə 
[511.435]
<no-speech> 
[513.575]
d ə s a h ɑ ɾ m ɑ j n a ʧ e ɾ ɑ w ə w ə z ɪ a w p ə z a ɽ a d e d ə e ʃ q m a ɾ a z p ɾ o t w ɪ a w <hes> d ɑ <breath> h a ɣ ə ʈ ɑ j m k x e d ɑ h a w ɑ g ɑ n e a w d ɑ s a h ɑ ɾ m ɑ j n a n ə w ɪ h a w ɑ g ɑ n e a w ʧ a m a n ʊ n a a w 
[524.735]
d ɑ ʊ b ə d ə w a l a w ʊ b ə d ɑ <breath> d ɑ d ə b ʊ l b a l ʊ ɑ w ɑ z ʊ n a a w d ɑ ɖ e ɾ x w a n d k a w ɪ k ə n ə 
[531.935]
<no-speech> 
[533.655]
<no-speech> 
[534.015]
<no-speech> 
[535.815]
h o w ɑ j a 
[536.865]
<no-speech> 
[539.035]
ʦ ə ʃ e w ɑ j a 
[540.015]
<no-speech> 
[545.265]
x ə h o w ɑ j a 
[546.865]
<no-speech> 
[548.805]
h o w ɑ j a 
[549.795]
<no-speech> 
[556.225]
x ə w ɑ j a 
[556.935]
<no-speech> 
[559.125]
m ɑ t ə w ɑ j e 
[559.975]
<no-speech> 
[564.505]
x ə w ɑ j a 
[565.285]
<no-speech> 
[568.155]
z ɑ n t ə q a h a ɾ m ə w a ɾ w ə l a 
[569.615]
<no-speech> 
[575.435]
x a b ə ɾ a d ə ɾ t ə w ə k ɽ ə m <breath> x a b ə ɾ a d ə ɾ t ə w ə k ɽ ə m ʧ e s a ɽ a j ʧ e d a j k ə n ə h a ɾ ʦ ʊ m ɾ a z ɑ n x ɑ j s t a k ɽ ɪ x ə s a h ɪ h ʤ ɑ m e w ɑ ɣ o n d e p ɑ k e ʤ ɑ m e z ɑ n x ə <oov> s m ɑ ɾ ʈ k ɽ e w e x t ɑ n w ɑ ɽ a w e n ʊ ɾ x ə b o ʈ b ʊ ʈ ɑ n z ɑ n a k ʃ a n k x e b a ɾ ɑ b a ɾ k ɽ ɪ n ʊ ʧ e ʧ e z a ɽ a j e x a f a w ɪ n ʊ p ə h a ɣ e h a ɣ e n ə b j ɑ ʦ ə m a t l a b z m ɑ ʧ e x a j ɾ d a j k ə h a ɾ ʦ ʊ m ɾ a ʧ e n ʊ ɾ g a ɖ w a ɖ j ə m ʧ e z a ɽ a m e x o ʃ h ɑ l a w ɪ <breath> b a h ɑ ɾ h a m ɾ ɑ b ɑ n d e k a m d a j h a ɣ e n ə b a ɾ a b ə l ʃ a j n ə ʃ t a ʧ e h a ɣ ə z ɑ n e n t ɪ x ɑ b k ɽ ə m 
[599.195]
<no-speech> 
[600.3]
