[0.0]
<no-speech> 
[6.5725]
<no-speech> 
[13.145]
<no-speech> h a l o 
[16.765]
<no-speech> 
[19.395]
<no-speech> ʦ ə h ɑ l d ə ʤ o ɽ j e 
[21.995]
<no-speech> 
[26.885]
ʧ e t ə j e ʦ ə k a w e p ə d e s e s ʈ ə m ʊ n o b ɑ n d e s a ɾ m ə x l ɑ s a w a d ɑ q ʊ d ɾ a t k ɑ ɾ ʊ n a d ɪ g ʊ t e m ə p ə k x e w a h a 
[31.815]
<no-speech> 
[38.955]
s t ɑ b e x ɪ s a ɾ n ə d a j p ɾ e x l ɑ s d ɑ x o l ə ʐ t a ɾ a q ɪ ɣ o n d e s e s t ə m d a j t ɑ s o a n p a ɽ a x a l k j ɑ s t ə j d a ɣ o b ɑ n d e m ʊ s a ɾ n ə x l ɑ s e ʐ ɪ m e ʧ ʦ a ŋ g a w o n ə n x o d ɑ s e x a ɾ a p b ɑ n d e m e ʧ w o w a d e k a t ə l o 
[50.745]
k ə d e n ə w ə k a t ə l o 
[51.685]
<no-speech> 
[57.155]
ɾ ʊ p ə j n ə x w ɾ ɪ j ɑ ɾ a k ə j e w ə x w a ɽ ə l e b j ɑ m ɑ t ə b j ɑ m ɑ t ə w ə w ɑ j a 
[60.805]
<no-speech> 
[64.744875]
n ə j e x o ɾ 
[65.525]
<no-speech> 
[67.305]
ɾ ʊ p ə j n ə x w ɾ e m ɑ t ə p a t a ʃ t a m ɑ x o d a ɣ a b ɑ n d e d ə ɾ k ɽ a j w ɑ j ə m ɾ ʊ p ə j n ə x w ɾ e k ə k ə x a ɾ ʦ a k e d ə l o h a m m ɑ b ɑ n d e ɾ ɑ z ɪ t ɑ b ɑ n d e x a ɾ ʦ a n ə ɾ ɑ z ɪ 
[75.705]
<no-speech> 
[79.695]
d ʊ ɾ w ɑ ɣ n ə w ɑ j ə m m e s e ʤ m e d ə ɾ k ɽ a j d a j d ə ɾ k ɽ a j d a j d ə l t ə m o b ɑ j l k x e h a m n e w a j s e s ʈ ə m f a ɑ l a k ɽ a j d ə s a ɽ a j k ə n ə w ə ʧ a l e d o d w o l a s m e ʧ ʊ n a d ɪ k ə ʦ ʊ m ɾ a ʈ ɑ j m w a x t w ɾ a k a w ɪ s a ɽ a j h a ɣ ə 
[91.685]
k ə ʧ e ɾ e k ɑ m j ɑ b w o x o ʧ a l a w ʊ b ə j e k ə n ʊ k ɑ m j ɑ b h a s e b ə j e p ɾ e ʝ d ʊ 
[95.625]
<no-speech> 
[96.995]
<no-speech> 
[97.385]
<no-speech> 
[99.265]
o s <no-speech> w ɑ j ə m o s j e m ə g o ɾ a ʧ e h a ɾ w a x t b j ɑ p ə x p ə l a k a ʈ ʃ w o h a ɣ ə w ɾ ʊ s t a j e b j ɑ w ə g o ɾ a 
[105.195]
<no-speech> 
[108.975]
o s j e m ə g o ɾ a k ɑ ɾ d ə ɾ s a ɾ a x a ɾ ɑ b a w ɪ b j ɑ 
[112.065]
<no-speech> 
[113.695]
h a l o 
[114.825]
<no-speech> 
[116.925]
o s 
[117.265]
<no-speech> ʦ a ŋ g a 
[117.6]
