[0.0]
<no-speech> 
[0.645]
ʈ ɪ k n ə w o j ɑ ɾ <no-speech> ʈ ɪ k n ə w o j ɑ ɾ j ɑ n e 
[4.135]
<no-speech> 
[7.205]
h a l o <hes> j ɑ s ɪ n z e k ɾ j ɑ ʦ a ŋ g a d a j z e k ɾ j ɑ 
[13.015]
<no-speech> 
[14.055]
h o k ɑ l e ʤ t ə t l ə l a j d a j 
[16.535]
<no-speech> 
[18.735]
<no-speech> 
[19.135]
<no-speech> 
[20.025]
x ə x ə n ʊ ɾ h a ɣ ə e m ɑ m ʦ a ŋ g a d a j e m ɑ m 
[26.095]
<no-speech> 
[29.045]
x a b ə ɾ e k a w a b a s b e g ɑ d e x a b a ɾ ʊ n a 
[33.095]
<no-speech> 
[34.265]
b e g ɑ d e x a b a ɾ ʊ n a k a t ə l ɪ w o k ə n ə 
[37.285]
<no-speech> 
[38.375]
<no-speech> 
[38.725]
<no-speech> 
[39.645]
<cough> m ɽ a x a b a ɾ ʊ n a g o ɾ a <foreign> g o ɾ e k ə n ə 
[44.775]
<no-speech> 
[48.405]
<foreign> 
[52.275]
<no-speech> 
[54.105]
x ə x ə 
[55.005]
<no-speech> 
[56.135]
a w ʦ a ŋ g a ʧ a l d a j t ɑ s o h a ɣ ə m e ʧ w ə b ɑ j l ə l o h a ɣ ə f ɑ j n a l k ə w ə m o g a ʈ ʊ 
[60.475]
<no-speech> 
[62.835]
x ə n ʊ d ɑ d ə ʧ ɑ n ə m ʊ w ə g a ʈ ə l o d ə ʧ ɑ n ə m ʊ w ə g a ʈ ə l o d ɑ f ɑ j n a l 
[68.695]
<no-speech> 
[69.525]
x ə x ə x ə d ə p ɑ k e s t ɑ n m e ʧ k ə l ə d e l a k a 
[74.225]
<no-speech> 
[76.975]
<hes> x ə x ə a w h a l ə k a d ə k ɑ l e ʤ ʧ ʊ ʈ j ɑ n e ʃ t a k ə n ə 
[80.095]
<no-speech> 
[83.235]
<no-speech> 
[83.665]
<no-speech> 
[84.845]
n ə ʧ e ɾ t a t o ɾ l ə m ʊ n ə b o z o ʦ ə 
[87.965]
<no-speech> 
[91.655]
<hes> x ə 
[92.855]
<no-speech> 
[95.545]
<hes> a w ʧ ʊ ʈ j ɑ n e b ə k ə l ə d ə ɾ k a w ɪ d ə j a x n ɪ 
[98.955]
<no-speech> 
[101.305]
<no-speech> 
[101.665]
<no-speech> 
[103.075]
x ə x ə a w d a ɣ a 
[105.735]
<no-speech> 
[106.765]
a w t ə k a w ə m k ɑ l e ʤ k x e j e 
[109.345]
<no-speech> 
[112.005]
<hes> x ə x ə ʊ s t ɑ d ɑ n j e ʦ a ŋ g a d ɪ n ʊ ɾ 
[116.685]
<no-speech> 
[119.355]
k ɑ ɾ k a w ɪ 
[120.135]
<no-speech> 
[122.465]
x ə a w e s ʈ o ɖ e n t ɑ n ʦ a ŋ g a d e s ʈ ʊ ɖ e n ʈ ɑ n k ɑ ɾ k a w ɪ k ə n ə 
[127.995]
<no-speech> 
[131.695]
x ə x ə <hes> 
[133.895]
<no-speech> 
[134.975]
x ə x ə h a l ə k a ʈ ɪ w ɪ g o ɾ ɪ k ə n ə ʈ ɪ w ɪ 
[141.035]
<no-speech> 
[144.365]
x ə x ə a w p ə k a m p j ʊ ʈ ə ɾ f ɪ l m ʊ n a g o ɾ e k ə n ə 
[147.135]
<no-speech> 
[149.035]
k a m p j ʊ ʈ ə ɾ k x e k a w ə m p ɾ o g ɾ ɑ m ʊ n a d ə ɾ z ɪ h a l ə k a 
[152.025]
<no-speech> 
[154.145]
k a m p j ʊ ʈ ə ɾ k x e k a w ə m p ɾ o g ɾ ɑ m ʊ n a d ə ɾ z ɪ 
[156.045]
<no-speech> 
[165.125]
a w t ɑ s o o s k ɑ ɾ ʦ ə k a w ə j h a l ə k a 
[170.695]
<no-speech> 
[172.455]
<no-speech> 
[173.975]
<no-speech> 
[174.995]
<no-speech> 
[175.425]
<no-speech> 
[177.365]
<hes> a w f ɪ l m g o ɾ ɪ k ə n ə 
[180.535]
<no-speech> 
[183.135]
x ə d ɑ m ʊ ʈ ʊ l e k a t ə l ɪ d ɪ 
[185.385]
<no-speech> 
[186.325]
<foreign> 
[187.115]
<no-speech> 
[187.935]
x ə <hes> 
[189.435]
<no-speech> 
[190.535]
a w p ə <foreign> 
[193.155]
<no-speech> 
[195.855]
<no-speech> 
[196.685]
<no-speech> 
[199.385]
<hes> 
[199.945]
<no-speech> 
[203.515]
x ə x ə n ʊ m ʊ n a w ɑ j a n ʊ m ʊ n a w ɑ j a 
[205.265]
<no-speech> 
[208.585]
k a w ə m h a ɣ ə 
[210.755]
<no-speech> 
[212.035]
<lipsmack> h a ʦ e t l ə l a j w o 
[214.795]
<no-speech> 
[217.715]
x ə x ə a w d a ɣ a <hes> <foreign> x ə x ə n ʊ ɾ h a l ə k a t ə p ə k a w ə m s k ʊ l k x e w ɪ p ə k a w ə m s k ʊ l k x e n ə w ɪ 
[228.265]
<no-speech> 
[230.465]
<hes> x ə x ə 
[232.045]
<no-speech> 
[233.195]
a w h a ɣ ə s t ɑ h a ɣ ə m a l g ə ɾ a j ʧ e h a ɣ ə ʃ w a j w o k ə n ə h a ɣ ə m e ʧ ʧ e j e g a ʈ ə l a j w o k ə n ə 
[238.195]
<no-speech> 
[239.785]
h a ɣ ə k a p j e ʧ e g a ʈ ə l a j w o 
[241.555]
<no-speech> 
[244.055]
a w a w d ə h a ɣ ə ʃ ɑ n a w ɑ z n ʊ m j e d a j 
[247.765]
<no-speech> 
[249.765]
x ə x ə h a ɣ ə ʦ ə k ɑ ɾ k a w ɪ 
[251.845]
<no-speech> 
[253.745]
a w 
[254.325]
<no-speech> 
[255.295]
x ə 
[255.805]
<no-speech> 
[256.725]
x ə x ə a w ʦ ə k ɾ e k ə ʈ m ɾ e k ə t w a ɾ l ə x ə w a ɾ z ɪ 
[259.294875]
<no-speech> 
[260.135]
<no-speech> 
[260.725]
<no-speech> 
[261.554875]
x ə x ə z e k ɾ j ɑ b ə b ə k ə l ə ɾ ɑ z ɪ n ə n b ə j e ʃ p a j e k ə p ɑ t e k e ʐ ɪ b ə 
[268.155]
<no-speech> 
[271.175]
x ə x ə n ʊ s t ɑ s o h a ɣ ə p l ɑ ɾ m ʊ ʦ ə k ɑ ɾ k a w ɪ p l ɑ ɾ m ʊ 
[276.285]
<no-speech> 
[279.505]
x ə x ə 
[280.245]
<no-speech> 
[281.065]
x ə x ə 
[282.005]
<no-speech> 
[283.055]
<hes> 
[283.865]
<no-speech> 
[287.535]
a w d ə e ŋ g l ɪ ʃ f ɪ l m ʊ n a g o ɾ ə j k ə n ə 
[290.295]
<no-speech> 
[291.965]
<int> 
[292.495]
<no-speech> 
[293.615]
x ə x ə 
[294.615]
<no-speech> 
[297.125]
d ɑ l a s m e n ɪ ʈ a x a b ə ɾ e b a ɾ ɑ b a ɾ a w ə l d ɪ x ə 
[299.605]
<no-speech> 
[301.545]
<lipsmack> x ə j ɑ h a l ə k a ʈ ɾ ɑ f ɪ k ʦ a ŋ g a d a j k ə ɾ j ɑ n e z j ɑ t e d ɪ k ə n ə 
[308.445]
<no-speech> 
[311.985]
<sta> x ə x ə <sta> x ə x ə 
[316.155]
<no-speech> 
[317.245]
<hes> n ʊ t ɑ s o ʦ ə d a ɣ a 
[319.885]
<no-speech> 
[321.145]
ɾ o ɖ m ʊ b a n d k ɽ a j w o 
[323.685]
<no-speech> 
[325.745]
x ə x ə <no-speech> n ʊ ʦ ə g ɑ ɖ o m ɑ ɖ o t ə m ʊ n ʊ q s ɑ n x o n ə w o ɾ a s a w ə l a j 
[330.655]
<no-speech> 
[331.735]
<int> 
[333.905]
<no-speech> 
[338.435]
<hes> a w ʦ a ŋ g k ə ɾ j ɑ n e j e k a m e k ɽ e k ə k ə n ə 
[340.855]
<no-speech> 
[345.835]
<hes> 
[346.385]
<no-speech> 
[347.625]
d ɑ f o ɾ s f ɪ l m f o ɾ s f ɪ l m ʧ e h a ɣ ə b ɑ ɖ ɪ h a ɣ ə ʤ ɑ n e b ɾ ɑ h ɪ m 
[352.865]
<no-speech> 
[354.805]
ɖ e ɾ z a b a ɾ d a s t d a j h a ɣ ə j e ɖ e ɾ z a b a ɾ d a s t d a j 
[357.455]
<no-speech> 
[360.945]
h o 
[361.745]
<no-speech> 
[362.785]
d ɑ j e d ɑ ɖ e ɾ ʈ ɑ p f ɪ l m d a j j ɑ ɾ a m ɑ b e g ɑ w ə k a t ə l o d ɑ ɖ e ɾ d ə ʈ ɑ p f ɪ l m d a j 
[369.385]
<no-speech> 
[372.135]
n ʊ <foreign> ʃ w a j d a j d ɑ s e k ɑ ɾ n ə w ɪ h a ɣ ə p ə ɖ e ɾ ɣ a l a t w a x t k x e j e ɾ ɑ w ɪ s t ə l a j d a j ʧ ɑ d ə b ɑ ɖ ɪ g ɑ ɾ ɖ d a w ɾ w o a w <foreign> d a w ɾ w o s e ɾ f d a ɣ a w a x t x o d e n ə ʃ ʊ 
[380.535]
<no-speech> 
[382.245]
d ɑ j e ɣ a l a t w a x t k x e d a ɣ a k ɽ a j k ə n ə 
[384.325]
<no-speech> 
[385.945]
a w s ʈ ʊ ɾ ɪ j e ɖ e ɾ a z a b a ɾ d a s t a d ə 
[388.665]
<no-speech> 
[392.575]
<sta> <hes> x ə x ə 
[396.725]
<no-speech> 
[397.785]
<hes> a w b ɑ ɖ ɪ g ɑ ɖ b ɑ ɖ ɪ g ɑ ɖ ʦ a ŋ g a f ɪ l m d a j x ə f ɪ l m d a j 
[400.825]
<no-speech> 
[402.715]
<int> 
[403.385]
<no-speech> 
[404.655]
g a p d a j a w <foreign> 
[408.005]
<no-speech> 
[409.005]
<no-speech> 
[409.435]
<no-speech> 
[410.885]
<hes> a w h a l ə k a s p o ɾ ʈ z a w a x b ɑ ɾ g o ɾ e k ə n ə 
[415.345]
<no-speech> 
[417.125]
<no-speech> 
[417.605]
<no-speech> 
[418.775]
a w f e w a ɾ e ʈ k e l ɑ ɽ ɪ j e ʦ a ŋ g a d ɪ k a ɾ e k ʈ k x e 
[421.305]
<no-speech> 
[426.745]
a w b ɑ l e ŋ g k x e 
[428.045]
<no-speech> 
[430.115]
a w 
[430.995]
<no-speech> 
[435.835]
ʦ o k ɑ s e f x ə x ə a m ɪ ɾ 
[439.995]
<no-speech> 
[441.125]
n ʊ ɾ <int> 
[443.265]
<no-speech> 
[444.995]
x a b ə ɾ e k a w a t ə h a m s a w ɑ l ʊ n a ɾ ɑ n ə k a w a k ə n ə z ɑ l e m a 
[448.265]
<no-speech> 
[449.935]
s a w ɑ l ʊ n a ɾ ɑ n ə k a w a x a b ə ɾ e ɾ ɑ s a ɾ a k a w a m ɑ t ɑ t ə ʦ a ŋ g a x a b ə ɾ e k a w ə l e d ɑ s e t a p o s ʊ n a t a p o s ʊ n a ɾ ɑ n ə k a w a d ə k a ɾ e k ʈ b ɑ ɾ a k x e d ə s p o ɾ ʈ z b ɑ ɾ a k x e k a ɾ e n ʈ n j ʊ z b ɑ ɾ a k x e 
[458.135]
<no-speech> 
[459.845]
a w a w w ɑ j a w ɑ j a 
[461.935]
<no-speech> 
[463.075]
<sta> n ə <foreign> t ə b ə d w a b a ʤ e z ʊ 
[466.115]
<no-speech> 
[468.015]
<no-speech> 
[468.725]
<no-speech> 
[472.605]
<no-speech> 
[473.055]
<no-speech> 
[474.185]
<lipsmack> n ə n ə l ɑ n ə m ʊ d e k ɽ ɪ k a w ʊ b ə o s l ə ʐ s ɑ a t p a s 
[478.225]
<no-speech> 
[479.395]
<no-speech> 
[479.785]
<no-speech> 
[481.025]
ʧ e ɾ t a 
[483.155]
<no-speech> 
[484.995]
x ə h a ɣ ə n ʊ b a s k e d ə l a j ʃ ɪ n ə n ʧ ʊ ʈ ɪ w a ɾ t ə w ə k ɽ o 
[488.685]
<no-speech> 
[489.665]
x ə 
[490.435]
<no-speech> 
[491.265]
<no-speech> 
[491.665]
<no-speech> 
[492.805]
a w a w d a ɣ a d a j a w h a l ə k a e ŋ g l ə n ɖ t ə ʧ e t o ɾ d a j ʦ a ŋ g a ʧ a l d a j ʦ o k b ə m e ʧ ʊ n a g a ʈ ɪ k a w ə m <foreign> x ə ʃ ɑ n p ɑ k e s t ɑ n a j d ə ɾ t ə x ə x k ɑ ɾ ɪ 
[500.075]
<no-speech> 
[500.885]
<no-speech> 
[501.415]
<no-speech> 
[502.645]
a w 
[503.225]
<no-speech> 
[507.365]
<hes> 
[507.855]
<no-speech> 
[508.865]
x ə x ə w a l e ʊ m a ɾ a k m a l 
[510.295]
<no-speech> 
[513.305]
n ə x ə x ə a w ʈ e s ʈ m e ʧ ʊ n o k x e d a j a f ɾ ɪ d a j k ə n ə 
[515.715]
<no-speech> 
[517.415]
ʈ e s ʈ ʊ n o k x e ʃ t a x ə x ə 
[519.885]
<no-speech> 
[521.835]
a w e m ɾ ɑ n n a z ɪ ɾ 
[523.025]
<no-speech> 
[526.295]
h o n ə <foreign> 
[527.765]
<no-speech> 
[529.195]
h a ɣ ə j e p ɾ e 
[529.805]
<no-speech> 
[530.845]
x ə s t ɑ a w e m ɾ ɑ n n a z ɪ ɾ d e <foreign> n ə d a j ʦ ə 
[533.485]
<no-speech> 
[537.515]
x ə 
[538.155]
<no-speech> 
[540.035]
<int> 
[540.475]
<no-speech> 
[543.175]
x ə a f t ɑ b p ɑ ɾ k k x e n ɑ s t d a j m ɽ a d ɑ <cough> 
[547.175]
<no-speech> 
[548.835]
t ə k a w ə m z ɑ j k x e j e 
[550.915]
<no-speech> 
[553.625]
k a w ə m m ɑ ɾ k e ʈ s a ɾ a 
[555.415]
<no-speech> 
[559.415]
x ə x ə 
[560.415]
<no-speech> 
[561.525]
h a l ə k a h a ɣ ə d a ɣ a d a j ʧ e h a ɣ ə m o b ɑ j l j ʊ k e b a l w ɑ x l ʊ j ɑ ɾ 
[566.225]
<no-speech> 
[567.555]
b a s z m ɑ h a ɣ ə ʦ ə d a j m ɑ w a j ə l ʧ e h a ɣ ə <foreign> l ə j ʊ k e b a l w ɑ x l ʊ 
[570.575]
<no-speech> 
[571.945]
p ɪ s ɪ s ɪ ʈ ʊ p ɪ s ɪ ʈ ʊ w a ɾ t ə s ɪ ʈ k a w ʊ h a ɣ ə k a m p j ʊ ʈ ə ɾ t ə 
[575.815]
<no-speech> 
[577.135]
d ɑ b ə k ə l ə w ɑ x l ʊ 
[579.155]
<no-speech> 
[580.495]
<no-speech> 
[580.855]
<no-speech> 
[586.935]
x ə b l ʊ t ʊ t p ə ʦ o k e ʐ ɪ h a l ə k a 
[588.495]
<no-speech> 
[590.505]
p ə ʦ o k e ʐ ɪ b l ʊ t ʊ t 
[591.705]
<no-speech> 
[595.505]
x ə x ə 
[596.335]
<no-speech> 
[598.335]
<hes> 
[598.745]
<no-speech> 
[599.94]
