[0.0]
<no-speech> 
[0.365]
<no-speech> 
[3.595]
h a l o <no-speech> h a l o a s s a l ɑ m a l a j k ʊ m 
[5.925]
<no-speech> 
[6.815]
w ɑ l a j k ʊ m a s s a l ɑ m ʦ a ŋ g a j e z w ɑ n a 
[9.005]
<no-speech> 
[11.345]
ɑ l l a h f a z ə l d a j t ɑ s o ʦ a ŋ g a j e x ə j e <no-speech> t ɑ s o d ʊ ɑ g ɑ n e d a j x ə d a j ʈ o l x ə d e h a ɣ ə m a ɾ ɪ z ʦ a ŋ g a d a j 
[19.195]
<no-speech> 
[22.145]
<no-speech> 
[22.765]
<no-speech> 
[23.705]
<no-speech> 
[25.555]
<no-speech> 
[28.675]
x ə 
[29.405]
<no-speech> 
[30.935]
<no-speech> 
[31.345]
<no-speech> 
[32.384875]
<no-speech> 
[32.845]
<no-speech> 
[34.385]
d ə ʦ o <hes> 
[36.165]
<no-speech> 
[37.015]
<no-speech> 
[40.485]
<no-speech> 
[43.245]
<no-speech> 
[45.565]
<no-speech> 
[49.515]
p ə t ɑ s o b ɑ n d e 
[50.495]
<no-speech> 
[51.625]
w a l e 
[52.255]
<no-speech> 
[54.695]
x ə x ə 
[57.405]
<no-speech> 
[61.715]
x ə x ə 
[64.005]
<no-speech> 
[67.055]
h a ɣ ə b ə ɖ e ɾ b e s ʊ ɾ a w ɪ k ə n ə 
[70.105]
<no-speech> 
[74.245]
x ə m ə x k e n ə x ə d a j 
[75.705]
<no-speech> 
[81.955]
<laugh> w a ɾ t ə w ə w ɑ j e ʧ e p ə n ə ʃ a k x e g ə ɾ z a b a ʧ ɪ j a ʈ o l a d ʊ n j ɑ p ə d ɑ s e m ə z o k x e t e ɾ a w ə p o h ʃ ə w ɪ 
[90.565]
<no-speech> 
[91.785]
<no-speech> 
[92.365]
<no-speech> 
[93.675]
<no-speech> 
[94.625]
<no-speech> 
[95.695]
<no-speech> 
[97.165]
<no-speech> 
[103.795]
s a h ɪ h d ə s a h ɪ h d ə x ə n ʊ ɾ t ɑ s o ʦ a ŋ g a j e x ə w a t a n m ʊ n ə j ɑ d e ʐ ɪ 
[107.365]
<no-speech> 
[111.555]
<laugh> x a j ɾ d a j x p ə l a k o x ə x w ə k ɽ a x p ə l k o x ə x ʧ e w ə k ɽ e j ɑ ɾ x ɑ m a x ɑ ɾ a s e ʐ e l ə ʐ <laugh> l ə ʐ w ɑ l l a 
[121.385]
<no-speech> 
[122.725]
<no-speech> 
[124.955]
<no-speech> 
[126.575]
h o w ɑ j a h o w ɑ j a 
[128.395]
<no-speech> 
[132.275]
w ə j e n ɪ s ə m d ɑ d a j w ɑ l l a w l ɑ ɽ d a j ʈ o l a s s a l ɑ m ʊ n a k a w a j ʈ o l t ɑ l e b ɑ n d ə n ə n a n ɑ s t d ɪ 
[135.965]
<no-speech> 
[136.875]
h a ɣ ə ʦ a ŋ g a d ɪ h a ɣ ə b ə l <hes> <oov> h a ɣ ə ʧ ɑ ʧ e s a ɾ m ɑ t ʃ ɪ <hes> h o 
[142.395]
<no-speech> 
[144.245]
h a ɣ ə m ə x ɑ m ə x ʧ e s t ɑ m ə x ɑ m ə x h a l ə k w l ɑ ɽ h a ɣ ə ʦ a ŋ g a d a j s ɑ h e b 
[147.535]
<no-speech> 
[150.255]
h a ɣ ə s t ɑ m ə x ɑ m ə x ʧ e s t ɑ h a ɣ ə z m ʊ ʐ m a ɾ ɪ z k a ʈ n ə x ɑ w a n d b ə l m a ɾ ɪ z w o k ə n ə k a ʈ ʧ e s a ɾ ʧ e m ɑ t ʃ w e w o 
[155.835]
<no-speech> 
[157.765]
h a ɣ ə ʦ a ŋ g a d a j 
[158.715]
<no-speech> 
[164.525]
<no-speech> 
[164.895]
<no-speech> 
[167.445]
w a ɾ t ə w ɑ j a ʧ e d ɑ d ə ʦ ə n ʊ m e ʐ e d ɑ <oov> <hes> <cough> m ʊ f t a ɾ ʊ ʈ ə j d ə x ə s e l s a ɾ a x o ɾ a w a ɾ t ə w ɑ j a d ɑ ʈ ɑ j m d ɑ d ɪ p o h ʃ ə w ɪ 
[176.245]
<no-speech> 
[178.295]
<no-speech> 
[179.535]
<no-speech> 
[180.815]
o s j e h a m 
[181.475]
<no-speech> 
[182.875]
x ə h a s e h a m s a ɾ k ɑ ɾ a j d ɪ b a s x o ɾ ə j b a ʧ ɪ j a d ɑ s e 
[185.745]
<no-speech> 
[190.785]
<laugh> z m ɑ p ə z ɑ j t ɑ s o w ə x w ɾ ə j x ə d a j 
[193.835]
<no-speech> 
[194.845]
<no-speech> 
[196.715]
<no-speech> 
[197.995]
<no-speech> 
[198.565]
<no-speech> 
[200.005]
<no-speech> 
[200.445]
<no-speech> 
[202.645]
<no-speech> 
[203.235]
<no-speech> 
[204.965]
<no-speech> 
[205.325]
<no-speech> 
[209.295]
x ə 
[209.735]
<no-speech> 
[211.985]
<no-speech> 
[213.125]
<no-speech> 
[214.845]
h a l o <no-speech> <hes> 
[216.965]
<no-speech> 
[217.865]
<hes> w ɑ j a w ɑ j a <no-speech> n ə m ɽ a z a ɽ a ʦ a ŋ g a z a ɽ a 
[221.165]
<no-speech> 
[222.145]
w ɑ j a z a ɽ a ʦ a ŋ g a t a ŋ g e ʐ e t ɑ s a ɾ a ʧ e x a b ə ɾ e w ə k ɽ ə m ʧ e z a ɽ a m e t a ŋ g e ʐ ɪ t ɑ s a ɾ a ʧ e x a b ə ɾ e w ə k ɽ ə m z a ɽ a b a s x o ʃ h ɑ l a ʃ e 
[227.595]
<no-speech> 
[228.535]
<no-speech> 
[229.405]
<no-speech> 
[232.825]
<laugh> k ə z a ɽ a t a ŋ g w ɪ m ɽ a b j ɑ ʦ ə w ə k ɽ o h a s e h a m n ɑ s t j ʊ m a d ɾ a s a k x e 
[238.625]
<no-speech> 
[242.135]
z a e n ʃ a l l a b a s ɑ l l a h b ɑ n d e t a w a k a l k ɽ a j p o h ʃ w e b a s ʧ e k ə l ə z ə d ɑ a ɾ m ɑ n p ʊ ɾ a ʃ e 
[247.375]
<no-speech> 
[248.475]
<no-speech> 
[249.085]
<no-speech> 
[253.615]
m ɑ t ə w ɑ j e 
[254.555]
<no-speech> 
[256.804875]
n ə e n ʃ a l l a z a b a s <no-speech> n ə x ə ɾ ɑ z ɪ ʧ e z ʊ x ɑ m a x ɑ k o ɾ t ə d ə ɾ z ə m n ʊ b e g ɑ m e x o b h a m l ɪ d o d w ɑ ɽ a k o ɾ a p ə ʈ ɑ n g e k x e g ə ɾ z e d o p o h ʃ w e <laugh> b a s w ɑ l l a 
[267.615]
<no-speech> 
[273.845]
<hes> o s x o b a s d ə w ɑ w ɾ ɪ m o s a m d a j w ɑ w ɾ ɪ b ə x w ɾ ɪ n ʊ ɾ ʃ ɪ n ə x w ɾ ɪ j a x ʃ a j d a j 
[278.755]
<no-speech> 
[288.235]
<laugh> x ə w a t a n n ə x o ʈ e l e f ʊ n n ə w o k ɽ a j ʧ ɑ k l ɪ n ə 
[292.115]
<no-speech> 
[297.855]
x ə s t ɑ x o d ə ʈ e l e f ʊ n n ə d a j k ɽ a j t ɑ t ə 
[300.505]
<no-speech> 
[303.415]
<no-speech> 
[303.765]
<no-speech> 
[305.185]
x ə h a ɣ ə <hes> h a ɣ ə j e x j ɑ l k a w ɪ d ɑ s e h a ɣ ə j e b ə d ɑ s e x j ɑ l k a w e <hes> ʧ e t ə j ʊ w ɑ ɾ w ə w ə z a t a p o s h a m n ə p ə k x e ʃ t a 
[313.195]
<no-speech> 
[314.165]
<no-speech> 
[314.575]
<no-speech> 
[320.015]
p ɾ e ʝ d a m ɽ a x a j ɾ d a j k ə t ɑ s t ɑ <hes> k ə ɖ e ɾ k ə ɖ e ɾ t a ŋ g ʃ w e b j ɑ b ə t ə k o ɾ t ə w l ɑ ɽ ʃ ɪ z ə b ə p ɑ t e ʃ ə m d ɑ s e ʃ w a z a ɣ a m m ə k a w a 
[327.055]
<no-speech> 
[333.485]
k ə d ə ɾ s o n ɑ ʧ ʊ ʈ ɪ ʃ ɪ h a ɣ ə w a x t k x e a x l ə m k ə n ə k ə l ə ʧ e d ə ɾ s o n ɑ ʧ ʊ ʈ ɪ ʃ ɪ b a s t ə b ə k ə t a ŋ g ʃ w e w ɪ t ə b ə k o ɾ t ə w l ɑ ɽ ʃ e a w l a s w ɾ ə z e b ə z ə p ɑ t e ʃ ə m 
[340.825]
<no-speech> 
[342.195]
<no-speech> 
[342.755]
<no-speech> 
[348.085]
ʧ ʊ ʈ ə j j ɑ n ə z m ʊ ŋ g a ɑ x e ɾ e ʧ ʊ ʈ ə j d ɾ e m j ɑ ʃ t e w ɪ j ɑ d w a m j ɑ ʃ t e d ɑ s e ʧ ʊ ʈ ə j j e 
[351.825]
<no-speech> 
[352.665]
<no-speech> 
[355.325]
<no-speech> 
[356.525]
<hes> h o j a w ɑ z e j ə m 
[358.695]
<no-speech> 
[359.715]
<hes> j a w ɑ z e j ə m w ɑ l l a j a w ɑ z e j ə m ʦ o k h a m n ə ʃ t a z m ɑ x w ɑ k x e ʈ o l d ə n ə n a n ɑ s t d a j z ə b a h a ɾ j ə m 
[364.375]
<no-speech> 
[365.705]
<no-speech> 
[366.065]
<no-speech> 
[368.405]
d ɑ z m ɑ d ɪ m e d ɪ x p ə l d a ɣ a k ɽ a m ɽ a t ə w ə n ɪ s a w ɑ l l a z m ɑ x w ɑ k x e <no-speech> <hes> 
[376.795]
<no-speech> 
[379.485]
m ɑ t ə w a h m ɪ s a ɽ a j j e z m ɑ p ə <hes> p ə x a b ə ɾ a t ə e t e b ɑ ɾ n ə k a w ɪ <oov> m ɽ a j ɑ ɾ t ə ʦ a ŋ g a m ʊ s a l m ɑ n j e 
[384.765]
<no-speech> 
[389.285]
<laugh> t ɑ x o b e x ɪ z m ɑ p ə x w a l a e t e b ɑ ɾ n ə k a w a j <laugh> 
[394.365]
<no-speech> 
[395.265]
<no-speech> 
[395.955]
<no-speech> 
[400.615]
<laugh> <cough> x ə k o ɾ k x e b ə ʦ ə ʃ ɪ j ɑ d e ʐ ɪ p l ɑ ɾ d e h a m h a s ɪ w ɑ d ə k ɽ e w ɾ o ɾ a b a s p ə z a ɽ a ɖ ɑ ɖ a j e b a s g o z ɑ ɾ a b ə b ə l h a ɣ ə d w a d ɾ e k ɑ l ə b ə <oov> <hes> h o 
[411.205]
<no-speech> 
[412.245]
<no-speech> 
[412.815]
<no-speech> 
[414.735]
<no-speech> 
[415.105]
<no-speech> 
[416.545]
<no-speech> 
[417.225]
<no-speech> 
[418.285]
<no-speech> 
[418.885]
<no-speech> 
[423.995]
<laugh> ɑ l l a h ɑ l l a h d e h a ɣ ə ɣ a ɾ q k ɽ ɪ h a ɣ ə d ə k a w ə m z ɑ j d a j 
[429.395]
<no-speech> 
[431.345]
<no-speech> 
[431.705]
<no-speech> 
[433.625]
<laugh> x ə b a ʧ ɪ j a <hes> z ə t ɑ t ə b e e t e b ɑ ɾ a x k ɑ ɾ ə m ʧ e d ɑ s e x k ɑ ɾ ə m m ɑ t ə 
[437.695]
<no-speech> 
[440.425]
<no-speech> 
[440.815]
<no-speech> 
[442.255]
x ə k ə k ə l ə d ə ɾ t l ə l ə m s a b ɑ e n ʃ a l l a b ə l s a b ɑ b ə d ə ɾ z ə m b a s h a ɾ ʈ ɑ j m ʧ e k e ʐ ɪ s a b ɑ n ə b ə l s a b ɑ <hes> 
[447.535]
<no-speech> 
[448.795]
w ɑ j a w ɑ j a 
[449.535]
<no-speech> 
[453.415]
l e ɾ e d ə 
[454.325]
<no-speech> 
[455.495]
d ʊ m ɾ a l ə 
[456.485]
<no-speech> 
[459.535]
d ʊ m ɾ a l e ɾ e b ə n ə w ɪ m ɑ <hes> l o j k l ɪ m ʊ l ə j n ə b ə h a ɾ a k a t a x l e a w ʦ ə n ʊ m e ʐ ɪ <hes> a b d ʊ l s a l a m n ə ɑ x w ɑ b ə n ə w ɪ a w ʦ ə n ʊ m e ʐ ɪ q ɑ j d ɑ z a m n ə ɑ x w ɑ b ə n ə w ɪ <laugh> d ɑ d w a d ɾ e ʦ a l o ɾ k l ɪ d ɪ n ʊ b a s <laugh> 
[471.435]
<no-speech> 
[474.155]
d ɑ d ʊ j m a n z k x e b ə w ɪ n ʊ 
[475.715]
<no-speech> 
[478.515]
l e ɾ ɪ d ʊ m ɾ a l e ɾ ɪ 
[480.205]
<no-speech> 
[481.075]
p ə d a j n ʊ 
[482.225]
<no-speech> 
[485.015]
n ə 
[485.725]
<no-speech> 
[486.715]
l o j k l ɪ m a l e k <no-speech> l o j k l ɪ m a l e k p e z a n e 
[489.835]
<no-speech> 
[492.825]
m a l e k n ə p e z a n e 
[494.235]
<no-speech> 
[495.845]
<int> a w ʦ ə n ʊ m e ʐ ɪ a b d ʊ l s a l a m n ə ɑ x w ɑ b ə n ə w ɪ a w ʦ ə n ʊ m e ʐ ɪ d a ɣ a <hes> 
[506.945]
<no-speech> 
[507.935]
<no-speech> 
[509.905]
<no-speech> 
[512.675]
<int> <laugh> ʦ ə h a ɾ ɑ m ə j j e t ə x ə m ɽ a x a j ɾ d ɪ t ə ɾ ɑ ʃ ə z ə b j ɑ b ə l s a b ɑ s a h ɑ ɾ ʧ e d ə ɾ ʃ ə m b j ɑ n ʊ s a h ɑ ɾ x a b ə ɾ a w ə k ɽ ə m m ɑ t ə w ə w ɑ j e p o h ʃ w e 
[524.365]
<no-speech> 
[530.285]
<no-speech> 
[531.645]
<hes> w ɑ j a 
[532.335]
<no-speech> 
[533.205]
<cough> ʦ a ŋ g a w ɾ ɑ n j e m ɽ a ɣ a m m ə k a w a w ɾ ɑ n e ʐ ɪ n ə h a ɣ ə b ə ʤ o ɽ ʃ ɪ 
[538.495]
<no-speech> 
[539.545]
<no-speech> p o h ʃ w e 
[540.635]
<no-speech> 
[542.905]
z a e n ʃ a l l a d w ɑ ɽ a k o x ə x w ə k ɽ o t ə h a m d w a z ə h a m d w a k a w ə m ɑ l l a t a ɑ l ɑ b ə ʦ ə ʤ o ɽ k ɽ e 
[547.875]
<no-speech> 
[552.165]
<int> z a ɽ a d ə e x l ɑ s n ə j e n ə w ɪ k ɽ ɪ w ɑ j e ɾ ɑ ʃ a j d a ɣ a b ə k a w e n ʊ <no-speech> p o h ʃ w e 
[557.465]
<no-speech> 
[559.965]
<no-speech> 
[561.565]
<no-speech> 
[563.545]
<breath> m ɽ a k ɪ s e k a w a n ʊ h a s e h a m p e n z ə l a s l a s m e n e ʈ a h a s e h a m f ɾ ɪ d e p o h ʃ w e 
[568.505]
<no-speech> 
[573.245]
<no-speech> 
[573.595]
<no-speech> 
[582.355]
x ə m ɽ a d ɑ b ɑ m ə x k e m ɑ b ɑ n d e h a m ɾ ɑ ɣ l a j w o d ɑ h ɑ l a t p o h ʃ w e d ɑ s e h a ɾ ʧ ɑ b ɑ n d e ɾ ɑ z ɪ d ɑ h ɑ l a t p o h ʃ w e k ə l ə t ə ʧ e k ə l ə m ʊ s ɑ f e ɾ ɪ n ə d ə k ɽ e d ʊ m ɾ a k ə n ə b a l k e x p ə l w a t a n n ə <breath> z ə k a d ɑ w a t a n j ɑ d e ʐ ɪ ɑ x w ɑ d e x w ɑ d ɑ <breath> k ə ɖ e ɾ m ʊ s ɑ f e ɾ ɪ w ə k ɽ ɪ s a ɽ a j d ə h a ɾ m o ɾ a w p l ɑ ɾ h a m h e ɾ ʃ ɪ h a ɣ ə k a w ə m d a ɣ a w ɪ <hes> 
[597.955]
<no-speech> 
[600.04]
