[0.0]
<no-speech> 
[7.565]
<no-speech> 
[8.155]
<no-speech> 
[12.585]
w ɑ l a j k ʊ m a s s a l ɑ m ʦ a ŋ g a j e x o ɾ ʤ ɑ n ɪ x ə j e 
[14.895]
<no-speech> 
[17.855]
x ə j ə m ʃ ʊ k ə ɾ d a j k o ɾ k x e x a j ɾ j a t ɪ d ə 
[20.205]
<no-speech> 
[21.665]
<breath> x ə 
[23.295]
<no-speech> 
[26.645]
o s s a h ɪ h ʃ ʊ 
[27.585]
<no-speech> 
[30.915]
ʃ ʊ k ə ɾ t ɑ s o x ə j ɑ s t a j <int> f ɑ m ɪ l ʈ o l x ə d ɪ 
[33.515]
<no-speech> 
[37.045]
x ə j ə m b ə x ə n ə w ɪ 
[38.745]
<no-speech> 
[42.145]
ʃ ʊ k ə ɾ t ɑ s o x ə j ɑ s t a j 
[43.825]
<no-speech> 
[45.165]
m o ɾ d e x ə d ə 
[46.205]
<no-speech> 
[48.045]
x ə m o ɾ d e ʦ a ŋ g a d ə x w e n d e d e x ə d ɪ 
[51.165]
<no-speech> 
[54.355]
x ə j ə m ʃ ʊ k ə ɾ d a j <no-speech> ʦ a ŋ g a k o ɾ k x e d e z a ɽ a n ə d a j 
[57.735]
<no-speech> 
[59.235]
j a x n ɪ x ə d ə t e ɾ e ʐ ɪ 
[61.335]
<no-speech> 
[63.225]
h o <no-speech> ʦ a ŋ g a k o ɾ k x e d e z a ɽ a n ə d a j 
[65.645]
<no-speech> 
[66.465]
n ə ɖ e ɾ x o n ə d ə x o <no-speech> ʦ ə m a s ɾ ʊ f j ɑ t n ə l a ɾ o b e k ɑ ɾ a j a w o k o ɾ k x e 
[71.765]
<no-speech> 
[72.905]
h o p a ɾ o s a ʐ k ɑ l e w ə 
[74.745]
<no-speech> 
[76.355]
s k ʊ l t ə n ə z ʊ o s p a ɾ o s a ʐ k ɑ l t l ə l o d w o l a s ə m <hes> ʧ e x l ɑ s ʃ ʊ n ʊ b j ɑ o s b j ɑ k o ɾ k x e j a w o <breath> h o d ʊ m ɾ a m ʊ z a ɽ a t a ŋ g w ɪ k o ɾ k x e z m ɑ a w d ə h a n ɪ f e 
[86.025]
<no-speech> 
[88.655]
h o p a ɾ o s a ʐ k ɑ l b ə ʧ e d w o l a s ə m 
[90.225]
<no-speech> 
[91.245]
x ə j e ʃ ʊ k ə ɾ m ɑ l e m e n ə k a w ʊ d a ɣ a j ʊ s k ʊ l k x e ɾ ɑ t ə m ɑ l e m e p a j d ɑ ʃ w a x ə h a ɣ e t a n x w ɑ k a m a w ə b j ɑ w l ɑ n a ɽ ə m 
[99.225]
<no-speech> 
[100.155]
h o m ʊ ʃ k e l h a m d ə a w t a n x w ɑ ʧ e j e k a m a w ɪ b j ɑ n ə d ʊ m ɾ a z a h m a t j e ɖ e ɾ 
[104.795]
<no-speech> 
[106.045]
h o <no-speech> b j ɑ o s k o ɾ k x e j ə m j ʊ h a f t a m ə x k e t l ə l e w ə m k ɑ k ɑ k a ɾ a m e h a ɣ ə z o j ʃ w e w o 
[111.805]
<no-speech> 
[113.135]
ʧ ɑ ɾ s a d a t ə <no-speech> a w ʧ ɑ ɾ s a d a t ə t l ə l e w ə m <no-speech> n ʊ ʧ e ɾ ɑ t l ə l o h a ɣ ə k x e k ɑ k ɑ m e ɾ ɑ t ə w ə w a j ə l d ə d ʊ j k o ɾ w ə g o ɾ a p l ɑ ɾ d e w l ɑ ɽ w o d a ɣ a k x e d ʊ k ɑ n k x e 
[124.155]
<no-speech> 
[125.065]
m ɑ t ə w a j ə l x k a t a k e ʐ e m ɑ w a j ə l n ə n ɑ w a x t a w o m ɑ w a j ə l k o ɾ t ə b ə w ə ɾ a s e ʐ ʊ h a ɣ ʊ j z o j h a m w o w ɑ k s ɪ n w ɑ l ɑ w ɑ k s ɪ n j e n ə w o k ɽ a j w a ɾ t ə <breath> b j ɑ n ʊ x ə z e w a ɾ t ə w ə w a j ə l w a j ə l d ɑ w ə ɾ a s a w a d w o l a s b a ʤ e w e h a l t a w ə ɾ a s e d o d w o l a s n ɪ m e h a ɣ ʊ j w a x t 
[136.925]
w ɑ k s ɪ n ʊ n a b j ɑ n ə k e d ə l <breath> b j ɑ w a j ə l z a z a k o ɾ t ə z ə m ɖ o ɖ ə j h a m w ə n a x w a ɽ o ɖ o ɖ ə j a w z ə ɾ w l ɑ ɽ o m ʊ n z j e k o ɾ t ə ɾ a s a w ə m ʧ e h a ɣ ə z o j j e w ɑ k s ɪ n t ə w ɽ ə l o 
[145.645]
<no-speech> 
[146.555]
d ʊ m ɾ a m e z a ɽ a t a ŋ g w o 
[147.915]
<no-speech> 
[149.015]
n ə w ə n a ʃ w o n ʊ <breath> h a ɣ ə t l ə l o k ə n ə ɾ ɑ t l ə m x o w a j ə l k x e n ʊ j ʊ l ə ʐ ʦ o d a q e n ʊ h a ɣ e z o j w ɑ k s ɪ n t ə w ɽ ə l o x ə z e w a ɾ t ə w a j ə l n ɑ w a x t a ʃ ʊ m ʊ ʐ s a h a ɾ w ə x a t ə l e ɾ a w ɑ n e d ə l o x o 
[160.805]
k ɑ m e l t ə h a ɣ ə t ə t l ə l e w o m a d ɾ a s e t ə <breath> m a d ɾ a s a k x e m a d ɾ a s a d a j n ʊ d a ɾ s j e w ɾ a k a w ə l ʧ e ɾ ɑ ɣ l o n ɑ w a x t a w o <breath> t ə ɾ ʦ o ʧ e x ə z a j e x o m a ɾ ɪ z a d ə b a ʧ e j e h a m w ɑ ɽ a w ɑ ɽ a d ɪ <breath> m ʊ ʐ k o ɾ p ɑ k k ɽ o 
[172.335]
h a ɣ e b e ʧ ɑ ɾ a h a m l a g j ɑ w o <no-speech> h a ɣ e k o ɾ ɾ ɑ s a ɾ a ʈ o l k ɽ o w ɑ j k o ɾ b ə s a h ɪ h ʤ ɑ ɾ ʊ k ɽ o ʧ e d ə d e w ɾ ə z e b j ɑ <breath> w ɑ j x ə z a j e b e ɣ a m a w ɪ h a ɣ ə x o n ə ʃ ɪ k a w ə l a j m a ɾ ɪ z a h a m d ə <breath> b j ɑ m ʊ k o ɾ ʤ ɑ ɾ ʊ k ɽ o ʈ o l 
[183.905]
k o ɾ m ʊ t ə ɾ ʦ o ʈ ʊ l o n ʊ j a w o l a s b a ʤ e w o k ə l a s j a w o l a s b a ʤ e w o ʧ e ɾ a w ɑ n ʃ w o b j ɑ t ə ɾ ʦ o ʧ e k o ɾ t ə ɾ a s e d ə l o <breath> n ʊ n ɑ w a x t a w o k ə n ə ɾ ɑ t l ə l o l ɑ ɾ a k x e ʃ ɪ ɾ ʤ a ŋ g e d ʊ w ə l ɪ d o w a j ə l d ə l t ə m ɑ m ɑ 
[195.565]
k o ɾ d e d a j <breath> m ɑ t ə w ɑ j ɪ w ɑ j ʈ o k e k a w ə l w ɑ j ʦ ə j e h a m w a ɾ n ə k ɽ o t ɑ b ɑ n d e x p ə l a n ɑ w a x t a d a j m ɑ w a j ə l z a x k a t a k e d ə l o n ɑ g ʊ m ɑ n k x e w a x t a x k a t a ʃ w e w o 
[203.015]
<no-speech> 
[204.845]
d ʊ m ɾ a m e z a ɽ a t a ŋ g <no-speech> <breath> n ʊ w ə n a ʃ w o n ʊ d ʊ m ɾ a m e z a ɽ a t a ŋ g ʃ w e w o w ɑ ɽ a w ɑ ɽ a m ɑ ʃ ʊ m ɑ n j e l ʊ ɾ g ɑ n e h a m w ɑ ɽ a d ɪ <breath> a w n ʊ x ə z a j e h a m ʧ e d ə h a ɣ ə <hes> m a ɾ ɪ z a w ɪ a w h a ɣ ə d w a w ɾ o ɲ a j e 
[216.815]
ʧ e m ɽ a ʃ w a h a ɣ e ɣ a m ʊ n o w ə w a h ə l a d ɑ s e b ə w ə ʈ o l a ʃ p a w ɾ ə z b ə j e z a ɽ ə l z o j j e d ʊ m ɾ a n ɑ ɾ ɑ m w o ʈ o l a ʃ p a b ə j e z a ɽ ə l b e x ɪ b ə m ʊ x o b n ə ʃ w o k a w ə l a j 
[224.945]
<no-speech> 
[226.075]
b j ɑ m e w a j ə l z a w l ɑ ɽ ʃ w o h a l t a <no-speech> <hes> 
[228.665]
<no-speech> 
[231.845]
ɖ e ɾ n ɑ ɾ ɑ m w o ʈ o l a ʃ p a w ɾ ə z b ə j e z a ɽ ə l x o b b ə j e n ə k a w ə l <breath> m o ɾ h a m ʧ e w ə h a ɣ e b ɑ n d e <no-speech> h a ɣ ə d ə ʃ p e b ə ɣ a ɾ ɪ b a x o b b ə j e d ə h a ɣ e d ə l ɑ s a n ə ʃ w o k a w ə l a j a w n ʊ ɾ x p ə l w ɾ o ɲ a b ə h a m w a ɾ t ə j ɑ d e d ə l n ʊ 
[243.195]
t ɾ ə w ɾ o ɲ a w o w a j ə l h a ɣ ə d e t ə ɖ e ɾ x o ʃ h ɑ l e d ə n ʊ d ə h a ɣ e d ə x ɑ t e ɾ a h a m ɖ e ɾ z a ɽ ə l ɑ x e ɾ ɪ ʃ p a b ɑ n d e x o d ɑ s e w ə l a ɽ z a p ɾ e ɾ ɑ ɣ l a d ʊ m ɾ a z ɑ ɾ ə j j e k a w ə l w a j ə l p ɑ t e ʃ a j j ʊ ʤ ʊ m a n ʊ ɾ h a m m ɑ s a ɾ a 
[255.125]
ʧ e z a ɽ a t a ŋ g ʃ w a j d a j h a m s ɑ j a g ɑ n ʧ ɑ ɾ s a d a w ɑ l d ɪ n ʊ ʧ e ɾ ɑ h a m ʃ ɪ <breath> j ʊ k l ɪ x ə z e b ə ʈ o l j ʊ z ɑ j b ə ɾ ɑ ɣ l ə l ʧ ɑ j b ə ʧ e w ə ʦ e ʂ ə l b e ɾ t a b ə x p ə l k o ɾ ʊ n o t ə w l ɑ ɽ ə l d ɑ s e k ɪ s e d ɑ x a b ə ɾ e p ə h a ɣ e x ə z e 
[266.975]
h a s e b ə w a j ə l z ɑ ɽ ɪ n ʊ h a ɣ e s a ɾ a b ə ʧ ɑ ɾ s a d a <breath> a w n ʊ ɾ h a m s ɑ j a g ɑ n k ə l ə h a ɣ ʊ j k ɑ k ɑ m e ɖ e ɾ t ʊ n d d a j m ʊ ʐ t ə j e w a j ə l m ə z ə j z ə x o x p ə l a h a m n ə t l ə l ə m m ɑ w a j ə l ʦ ə n ə p e z a n ʊ n ʊ ʦ a ŋ g a w a ɾ k a ɾ a w l ɑ ɽ ʃ w o 
[277.685]
<breath> b j ɑ m e d ʊ m ɾ a m e z a ɽ a t a ŋ g ʃ w a j w o w a x t a n ə m e w a ɾ t ə w a j ə l m ɑ w a j ə l z ə k o ɾ t ə z ə m j ɑ m e d ʊ j k a ɾ a j o s a j ɑ m e k o ɾ t ə j o s a w a j ə l n ə ʧ e w ɽ ə m a x o d e <foreign> k o ɾ t ə w ɽ ə m d ʊ j k a ɾ a k ə w l ɑ ɽ ʃ e b j ɑ b ə p ə s e ʦ o k p ə a z ɑ b e ʐ ɪ 
[289.565]
t ɑ p ə s e b ə ɾ ɑ z ɪ b e ɾ t a b ə d e w ɽ ɪ <breath> m ɑ w a j ə l x o z ə d ə l t ə ʧ e ɾ t a w l ɑ ɽ ə m m ɑ w a j ə l k o ɾ t ə b ə l ə ʐ n e ʝ d e j ə m m ɑ w a j ə l j ʊ n a f a ɾ b ə ɾ ɑ p ə s e j ʊ m ʊ h a m a d d ʊ k ɑ n n ə ɾ ɑ ʃ ɪ <breath> w a j ə l 
[299.405]
<no-speech> 
[300.765]
z j ɑ t n ə k e ʐ ɪ w a j ə l w a j ə l ɑ s ɑ n d a j k o ɾ t ə w ɽ ə m <no-speech> b j ɑ n ʊ ɖ e ɾ w ə ʃ w o m ɑ ʃ ʊ m ɑ n d ʊ m ɾ a ʃ o x h a m d ɪ d ʊ m ɾ a m e z a ɽ a t a ŋ g ʃ w a j w o <breath> n ʊ h a ɣ e b ə ʧ e s k ʊ l t ə w l ɑ ɽ ə l s a h a ɾ b ə b e x ɪ z ɑ n t ə w ə m 
[312.755]
b j ɑ b ə m e b e x ɪ z a ɽ a t a ŋ g w o x o x ə d a j m o b ɑ j l w o ɾ ɑ s a ɾ a 
[316.185]
<no-speech> 
[317.005]
h o m o b ɑ j l b ə ɾ ɑ s a ɾ a w o n ʊ k ə l ə b ə h a ɣ e k x e ʧ ɑ ɾ ʧ n ə w o b a ɾ q ʊ n a b ə n ə w o b e x ɪ b a ɾ q ʊ n a b ə n ə w o <breath> h a ɣ ə b ə m ʊ t ə ɾ ʦ o ʧ e s a h a ɾ n ə b ə b ə b a ɾ q p ə p ə t a m a b ə w ə m h a ɣ ə j a w o l a s 
[328.505]
d ɾ e b a ʤ e j a w o l a s b a ʤ e b ə b a ɾ q w l ɑ ɽ o <breath> ʦ a l o ɾ b a ʤ e m ɑ z d ɪ g a ɾ b ə b a ɾ q ɾ ɑ t l ə l o b j ɑ b ə m ʊ t ə ɾ ʦ o m o b ɑ j l ʧ ɑ ɾ ʧ k a w ə l o h a m ɑ ɣ ə l t a t ə ɾ m ɑ x ɑ m p o ɾ e b ə l ə ʐ ʧ ɑ ɾ ʧ j e w ɑ x e s t o b e ɾ t a b ə b a ɾ q t l ə l o <breath> b j ɑ x ə w o 
[340.355]
k o ɾ t ə m e s ɑ a t m e t e ɾ w o ʧ e m o b ɑ j l n ə w ɪ x o b e x ɪ j ʊ w ɾ ə z h a m n ə ʃ w a m ʈ ɪ ŋ g e d ə l a j <breath> b j ɑ <no-speech> h o b j ɑ x o x ə w o d e h a m z a n g ʊ n a w a h ə l 
[350.535]
<no-speech> 
[351.975]
h a ɣ ə x o b a s h a j ɑ t ɑ b ɑ d t ə t l ə l a j w o h a ɣ ə x ɑ l a k a ɾ a h a l t a m ʊ d ʊ m ɾ a s ɑ a t t e ɾ ʃ w o 
[356.795]
<no-speech> 
[358.125]
m o ɾ d e 
[359.395]
<no-speech> 
[360.525]
j a k ʃ a m b a p ə w ɾ ə z t l ə l e w o s a h a ɾ n ɑ s t s a h a ɾ m ʊ n ʐ a t l ə l o b j ɑ m e t ɾ ə m e ɾ ɑ ɣ l o l ɑ h o ɾ t ə t l ə l a j w o <breath> h a ɣ ə z ɑ j n ə ʧ e ɾ ɑ ɣ l o n ʊ b j ɑ h a ɣ ə d w a b a ʤ e b e ɾ t a x p ə l k o ɾ t ə w l ɑ ɽ o n ɑ w a x t a w o b j ɑ d w a n ɪ m b a ʤ e w l ɑ ɽ o 
[372.195]
l a s b a ʤ e d ə ʃ p e ɾ ɑ ɣ l o <no-speech> d ʊ m ɾ a m ʊ s ɑ a t t e ɾ ʃ w o h a l t a <breath> k o ɾ j e t a ŋ g d a j x o b j ɑ x ə d a j h a ɣ ə z m ɑ m a l g ə ɾ a j d ə h a ɣ e s a ɾ a m ʊ s ɑ a t t e ɾ w ɪ h a ɣ ə x ə k ɪ s e k a w ɪ 
[382.475]
<no-speech> 
[384.715]
n ʊ b j ɑ l a s b a ʤ e d ə ʃ p e k o ɾ t ə ɾ ɑ ɣ l o 
[387.115]
<no-speech> 
[388.045]
h a ɣ e ɖ e ɾ ʃ ə l a ʃ w o w a j ə l ʃ p a w ə k ɽ a x o p a ɾ o s a ʐ k ɑ l t l ə l a j w ə m j a w a ʃ p a m e k ɽ a j w ə h a ɣ ə k a ɾ a b j ɑ m ʊ p l ɑ ɾ w a ɾ t ə w ə w a j ə l z a w a j ə l b ə l h a f t a k x e k ə w ə ʃ w o ɾ ɑ z ʊ w a j ə l b j ɑ b ə ʃ p a w ə k ɽ ɪ 
[400.035]
s ɑ a t t e ɾ w ɪ <no-speech> d ɑ n ə w ə z e d ʊ j w a ɾ k a ɾ a z a ɽ a t a ŋ g e ʐ ɪ k o ɾ j e ʧ e d a j w a ɽ o k ə j d a j x o x ə d a j d ɑ z m ɑ z a ɽ a n ə w ɪ n ə t a ŋ g e ʐ ɪ z m ɑ w a ɾ s a ɾ a s ɑ a t t e ɾ w ɪ n ʊ ɾ t a l w ɪ z j ʊ n h a m l a ɾ ɪ k o ɾ 
[411.625]
h a ɣ e k x e <breath> k e b a l h a m l a ɾ ɪ n ʊ x a l k o ʧ e z a ɽ a t a ŋ g ʃ ɪ t a l w ɪ z j ʊ n t ə z ɪ k x e n ɪ x p ə l a s ɑ a t j e t e ɾ e ʐ ɪ 
[418.235]
<no-speech> 
[420.245]
j ʊ k a m p j ʊ ʈ ə ɾ h a m j ʊ x ə m a s ɾ ʊ f j a t d a j k a m p j ʊ ʈ ə ɾ h a m d a j m ʊ ʐ t ə w a j ə l h a ɣ ə <hes> d a ɣ a w o d a ɣ e k a ɾ a j ʊ h a l ə k w ɑ d ə w o l a n d a n n ə ɾ ɑ ɣ l e w o n ʊ d ə h a ɣ e f ɪ l m j e w a j ə l t ɑ s o t ə m ʊ ʐ ʃ ɪ ɾ ɪ n ɪ x w ɾ ɪ k x e t l ə l ɪ w o 
[431.885]
<breath> ʃ ɪ ɾ ɪ n ɪ x w ɾ ɪ k x e d w a k ɑ l ə m ə x k e m ʊ n ʐ a t l ə l e w o h a ɣ ə h o ʈ a l k x e w o n ʊ w ɑ d ə k x e m ʊ ʐ t ə ɖ e ɾ w ə w a j ə l ʧ e ɾ ɑ ʃ a j x o b j ɑ m ʊ n ʐ a w l ɑ n a ɽ o m ɑ w a j ə l z a k ɑ b ə l p o ɾ e ʦ o k z ɪ 
[441.145]
<no-speech> 
[442.055]
b j ɑ h e ʦ w l ɑ n a ɽ o b j ɑ w a j ə l w a j ə l f ɪ l m j e d ə ɾ t ə a ʧ a w ə m f ɪ l m j e w ə g o ɾ ə j x o b a ɾ q ʊ n a b ə n ə w o 
[447.355]
<no-speech> 
[449.655]
n ʊ b j ɑ d ʊ m ɾ a m ʊ ʐ w a ɾ t ə x ə w o w a j ə l p ə t a m a w o ʧ e w ə g o ɾ ʊ n ɑ w a x t a l a s b a ʤ o p o ɾ e k x e n ɑ s t o h a ɣ ə b a ɾ q ʊ n a j e ɾ ɑ n a ɣ l ə l <breath> ʧ e ɾ ɑ b ə b e ɾ t a b ə w l ɑ ɽ a f ɪ l m x o ʊ ʐ d w ɪ m ʊ ʐ w a j ə l z a d e n ə h a ɣ a s e x o m a z a n ə k a w ɪ 
[461.365]
ʧ e l ə ʐ l ə ʐ j e w ə g o ɾ ʊ n ɪ m n ɪ m ʧ e g o ɾ o ʈ o l b ə w ə g o ɾ ʊ m ɑ w a j ə l z ə b ə l ə w ɾ ə z x ɑ s d ə h a m d ɪ d ə x ɑ t e ɾ a ɾ ɑ ʃ ə m b j ɑ b ə j e f ɪ l m h a m w ə g o ɾ ʊ <int> 
[468.945]
<no-speech> 
[470.125]
w ɑ d ə j e ɖ e ɾ x ɑ j s t a w ɑ d ə j e w ə k ɽ o x o b j ɑ j ʊ h a f t a b ɑ d j e n ɑ w e d a ɣ a t ə l a n d a n t ə j e w e w ɽ ə l a o s d ʊ m ɾ a x a f a d ə ɾ o z ɑ n a h a ɣ ə z ɑ j n ə ʈ e l e f ʊ n k a w ɪ ɖ e ɾ a x a f a ʃ w a j d ə <no-speech> d e d ə l t ə n ɑ s t 
[482.105]
w o m o ɾ a w p l ɑ ɾ j e h a m d ə l t a d ɪ 
[484.355]
<no-speech> 
[485.255]
k ɑ b ə l n ə d ə l t ə n ə d ɪ k ɑ b ə l k x e d ɪ h a ɣ ə m o ɾ a w p l ɑ ɾ j e <no-speech> h o d ʊ m ɾ a l o j h a m n ə w ə ʤ e l ə j w ɑ ɽ a w ə h a l ə k ʧ e w o h a ɣ ə d e ɾ ʃ k a l ə n w o ʤ ɪ n ə j ʃ ə l k a l a n a w ə 
[496.025]
<no-speech> 
[497.145]
h a l ə k h a l ə k ɖ e ɾ t ɾ e n a m ə ʃ ə ɾ w o n ʊ ɾ o z ɑ n a d e t ə z a n g ʊ n a w a h e a w d ɑ s e d ɾ e z a l ʦ a l o ɾ z a l w ɑ j ɪ z m ɑ d ʊ m ɾ a z a ɽ a t a ŋ g ʃ w a j l a n d a n k x e x a f a ʃ w a j d ə 
[508.095]
<no-speech> h a l t a n ɪ w ɪ ʧ e ʦ o k w l ɑ ɽ ʃ ɪ x o a m ʊ x t a n ə w ɪ k ə n ə m ʊ ʃ k e l w ɪ w a ɾ t ə 
[513.064875]
<no-speech> 
[514.284875]
n ʊ w ɑ j ɪ d a ɣ a d a j w a j ə l ʃ p a ʐ m j ɑ ʃ t e w ɑ d ə l ə z ə m d e w a ɾ t ə w a j ə l h a ɣ ə o s x o k ɑ ɾ ʊ n a w ɪ j e n ə k e ʐ e <no-speech> m o ɾ h a m w a ɾ t ə w ɑ j ɪ z a l ə ʐ j ʊ k ɑ l x o t e ɾ a k ɽ a j ʊ k ɑ l b ɑ d b j ɑ ʧ e k ɑ ɾ ʊ n a w ə ʃ w o b j ɑ ɾ ɑ ʃ ə 
[525.985]
<no-speech> m a ɾ ɪ z h a m d ə <no-speech> w a j ə l n ə z a w a j ə l w a j ə l z m ɑ k ɑ ɾ ʊ n a d e ʤ o ɽ k ɽ ɪ z ə ɾ ɑ z ə m b j ɑ d e b ə d ʊ m ɾ a x a n d ə l w a j ə l n ə b ə t l ə l e k ə n ə <no-speech> h a ɣ e ʃ a ɾ ɪ k a k o ɾ j e n ə x o x e d o o s z ɑ n t ə ʃ ʊ b e x ɪ 
[537.895]
x a f a ʃ w a j d ə 
[539.065]
<no-speech> 
[544.895]
n ʊ ɾ t ɑ s o x ə j ɑ s t a j s a ɽ ə j z o l ə t l ə l a j w ɪ 
[547.165]
<no-speech> 
[550.875]
<hes> t l ə l a j w e 
[552.225]
<no-speech> 
[553.785]
n ə m o ɾ m e w a j ə l w a j ə l z ʊ x o o s a p o ɾ e n ə d ə b e k ɑ ɾ a ʃ w a j ʧ e w l ɑ ɽ a ʃ ɪ <no-speech> m ɑ t ə j e w a j ə l m ə x k e d e d e n ʊ ɾ ʧ e t l ə l e w o b j ɑ d a ɣ a w o ʦ o ʃ p e j e w ə k ɽ ə l <hes> m o ɾ m e m ɑ t ə w ə w a j ə l z a 
[565.275]
t ə h a m w l ɑ ɽ a ʃ ə m ɑ w a j ə l z m ɑ h a l t a z a ɽ a t a ŋ g e ʐ ɪ z ə w l ɑ n a ɽ ə m <breath> o s m o ɾ m e w a j ə l k ə w ə ʃ o z ə m a d ɑ e m t e h ɑ n ʊ n a x l ɑ s ʃ ɪ d ə d e <breath> m ɑ ʃ ʊ m ɑ n o w a j ə l b j ɑ b ə 
[577.235]
b ə w l ɑ ɽ ʃ ʊ 
[577.975]
<no-speech> 
[579.485]
<int> h o 
[580.605]
<no-speech> 
[583.235]
w a l e 
[584.155]
<no-speech> 
[585.565]
<laugh> x a f a ʃ w a j w e <int> 
[589.115]
<no-speech> 
[590.405]
x ə 
[590.935]
<no-speech> 
[593.235]
x ə h a ɣ e s a ɾ a b ə m ʊ s ɑ a t t e ɾ w o 
[595.485]
<no-speech> 
[599.695]
<no-speech> 
[600.02]
