[0.0]
<no-speech> 
[6.165]
h a l o 
[6.785]
<no-speech> 
[10.955]
ʦ a ŋ g a j e 
[12.285]
<no-speech> 
[14.965]
t ə ʦ a ŋ g a j e 
[15.755]
<no-speech> 
[18.645]
x ə j ə m s a ɾ a ʦ a ŋ g a j e 
[21.155]
<no-speech> 
[24.835]
x ə <hes> t ə ʧ e ɾ t a j e 
[26.975]
<no-speech> 
[32.315]
<no-speech> 
[32.905]
<no-speech> 
[35.165]
h o 
[35.825]
<no-speech> 
[40.825]
h a ɣ ʊ j ʈ o l x ə d ɪ 
[41.975]
<no-speech> 
[45.225]

[46.275]
<no-speech> 
[50.545]
h o <hes> p l ɑ ɾ 
[52.325]
<no-speech> 
[54.855]
z ə <hes> 
[55.735]
<no-speech> 
[59.385]
<no-speech> 
[60.035]
<no-speech> 
[62.725]
h o 
[63.365]
<no-speech> 
[66.485]
<no-speech> 
[67.105]
<no-speech> 
[69.385]
h o 
[70.025]
<no-speech> 
[76.955]
h a ɣ ʊ j d e ʈ o l x ə d ɪ <no-speech> t ə ʦ a ŋ g a j e 
[79.885]
<no-speech> 
[82.655]
ʦ a ŋ g a d e 
[83.955]
<no-speech> 
[90.865]
ʈ o l 
[93.585]
<no-speech> 
[96.705]
z ə h a s e n ɑ s t j ə m 
[97.955]
<no-speech> 
[107.865]
k a w ə m j ʊ 
[108.425]
<no-speech> 
[111.845]
h o <no-speech> t ə ɣ a m ʊ n a m ə k a w a 
[115.225]
<no-speech> 
[117.845]
<no-speech> 
[118.535]
<no-speech> 
[121.845]
ʦ ə ʃ a j w ɑ j e t ə 
[122.715]
<no-speech> 
[126.525]
h o <no-speech> s o ʧ ʊ n a m ə k a w a x p ə l s a b a q j ɑ d w a 
[129.855]
<no-speech> 
[135.095]
<no-speech> 
[135.745]
<no-speech> 
[138.365]

[140.315]
<no-speech> 
[142.365]
h o 
[143.005]
<no-speech> 
[148.775]
ʈ o l b a h a ɾ k a ɾ e k ʈ k a w ɪ 
[150.195]
<no-speech> 
[157.635]
<no-speech> 
[165.075]
h o <no-speech> ʦ ə ʃ a j d a j 
[167.055]
<no-speech> 
[169.705]
h o <hes> 
[171.385]
<no-speech> 
[176.875]
n ə k ɑ ɲ e j e p ɾ e k ɑ ɲ e <hes> ʊ ʐ d k ɽ a j d a j w ɾ o ɾ a a w s a h ɪ h j e 
[184.125]
<no-speech> 
[187.015]
h o 
[188.055]
<no-speech> 
[192.155]
<no-speech> 
[192.785]
<no-speech> 
[197.635]
ʦ ə ʃ a j 
[198.265]
<no-speech> 
[203.365]
b e g ɑ b a l e m a d ɾ a s e t ə 
[204.935]
<no-speech> 
[208.755]
<no-speech> 
[209.705]
<no-speech> 
[213.675]
<no-speech> 
[214.145]
<no-speech> 
[217.515]
ʦ ə ʃ e 
[218.255]
<no-speech> 
[222.575]
h o 
[223.215]
<no-speech> 
[228.435]
w a l e n ə k a w ə m 
[229.415]
<no-speech> 
[232.455]
ʦ ə <no-speech> z ə x o 
[234.715]
<no-speech> 
[236.045]
z ə b ə x w a d 
[236.865]
<no-speech> 
[247.865]
n ə 
[248.615]
<no-speech> 
[250.165]
<no-speech> 
[250.845]
<no-speech> 
[252.085]
b ɑ ɾ ɑ n m ə x k e l ə ʐ l ə ʐ ʦ ɑ ʦ k ɪ w o o s n ə ʃ t a 
[254.995]
<no-speech> 
[257.595]
h o s a h ɪ h d ə w ɾ j a z d ə 
[259.804875]
<no-speech> 
[265.725]
<breath> h a ɣ ə d ʊ k ɑ n t ə t l ə l a j 
[267.475]
<no-speech> 
[270.175]
<no-speech> 
[270.775]
<no-speech> 
[275.565]
h a ɣ e k x e w a ɾ t ə <hes> z m ɑ p ə x j ɑ l 
[279.805]
<no-speech> 
[284.015]
<hes> j ʊ n ɪ m z a ɾ k ə ʦ o a x l e 
[286.695]
<no-speech> 
[295.895]
h a ɣ ʊ j ʈ o l x ə d ɪ ʈ o l x ə d ɪ a w h a l t a d a ɣ a d a j k o ɾ w ɑ l ɑ ʦ a ŋ g a x ə d ɪ ʃ a f ɑ d e 
[302.835]
<no-speech> 
[312.145]
<no-speech> 
[312.515]
<no-speech> 
[317.835]
t ə ʧ e ɾ t a j e t ə 
[318.915]
<no-speech> 
[322.605]
t ə k a w ə m z ɑ j k x e 
[323.595]
<no-speech> 
[327.305]
n ə t ə ʧ e ɾ t a o s n ɑ s t j e ʧ e ɾ t a n ɑ s t j e 
[330.375]
<no-speech> 
[334.915]
h a ɣ ə w ə n e s a ɾ a <hes> 
[336.785]
<no-speech> 
[338.035]
h a ɣ ə 
[338.575]
<no-speech> 
[341.305]
<no-speech> 
[341.915]
<no-speech> 
[344.065]
d ɑ s e k o ɾ n ə ɾ ɑ w a t ə l a j d ʊ k ɑ n x w ɑ t ə n ɑ s t d a j 
[346.715]
<no-speech> 
[353.85]
<no-speech> 
[360.985]
<no-speech> 
[361.525]
<no-speech> 
[368.065]
z m ɑ p e n z ə l a s k ə ʊ w ə l ə s ʦ o 
[370.585]
<no-speech> 
[374.965]
d ə m a n z ə n ə j n ə ɾ ɑ ɣ l e 
[377.305]
<no-speech> 
[381.795]
n ɑ k ɑ m x o n ə j ə m p ə k x e 
[383.435]
<no-speech> 
[384.325]
n ɑ k ɑ m n ə j ə m n ɑ k ɑ m x o p ə k x e n ə j ə m 
[387.475]
<no-speech> 
[389.705]
h o z ɑ h e d 
[390.635]
<no-speech> 
[395.075]
<foreign> ɾ ɑ ɣ l e z m ɑ p ə x j ɑ l 
[396.805]
<no-speech> 
[401.245]
k a m ɑ l d a j 
[402.545]
<no-speech> 
[404.455]
k ʊ m ɑ ɾ e n ə x a b a ɾ n ə j ə m 
[406.065]
<no-speech> 
[409.755]
<no-speech> 
[410.405]
<no-speech> 
[414.795]
<hes> 
[415.985]
<no-speech> 
[419.225]
<no-speech> h o 
[420.365]
<no-speech> 
[424.785]
h o t ə ʦ a ŋ g a j e 
[426.615]
<no-speech> 
[432.955]
<hes> s t ɑ d ɑ ʊ w ə w ɾ ə z e k e ʐ ɪ z ə k a z e h e n n ə d e t l ə l a j 
[436.815]
<no-speech> 
[446.085]
t ə s o ʧ ʊ n a k a w e s o ʧ ʊ n a 
[447.885]
<no-speech> 
[451.515]
d ɑ d ʊ m ɾ a h a l ə k ɑ n d a ɾ a ɣ a l ɪ d ɑ 
[454.405]
<no-speech> 
[463.845]
n ʊ s a b a q <hes> s a b a q ʧ e w ɑ j e k ə n ə m ʊ s ɑ f e ɾ ɪ b ə k a w e 
[467.155]
<no-speech> 
[475.385]

[476.075]
<no-speech> 
[480.985]
h a ɣ ə d ə d e s ɑ j ʈ t ə n ə d e p a ʈ o t a ɾ a f t ə 
[483.325]
<no-speech> 
[484.135]

[487.045]
<no-speech> 
[488.435]
w ɑ l l a d ɑ b ə l s ɑ j ʈ h a m t ɾ e w ə ʧ a t a w ɪ 
[490.475]
<no-speech> 
[493.935]
h o h a ɣ ə z m ɑ p ə x j ɑ l 
[495.195]
<no-speech> 
[502.225]
n ə b a ɾ ɑ b a ɾ a w ɪ b ə j e o s 
[504.105]
<no-speech> 
[508.365]
<no-speech> 
[508.775]
<no-speech> 
[512.185]
<no-speech> 
[512.675]
<no-speech> 
[514.125]
<no-speech> 
[514.745]
<no-speech> 
[519.625]
ʈ o l x ə d ɪ <no-speech> m o ɾ m ʊ h a m x ə d ə 
[522.555]
<no-speech> 
[524.845]
t a ʤ a l a h a m x ə d ə 
[526.385]
<no-speech> 
[528.585]
h ʊ m ɑ j e m a h a m x ə d ə 
[529.705]
<no-speech> 
[536.655]
<breath> k ɑ ɾ e z b a h a ɾ h a l t a d a j 
[538.895]
<no-speech> 
[540.925]
h o z ə b a h a ɾ w l ɑ ɽ w ə m h a l t a m ɑ t ə j e ɣ a ʐ w ə k ɽ o w a j ə l ɾ ɑ ʃ ə 
[545.305]
<no-speech> 
[546.285]
<no-speech> 
[547.495]
<no-speech> 
[552.735]
h o k ə n ə 
[553.635]
<no-speech> 
[558.135]
h o 
[558.805]
<no-speech> 
[564.195]
ʈ o l x ə d ɪ 
[565.055]
<no-speech> 
[566.065]
<no-speech> 
[566.435]
<no-speech> 
[569.945]
h o 
[570.635]
<no-speech> 
[580.335]
<hes> a w n ə n x o m ʊ ʐ s a ɾ a <hes> p a ɾ ʊ n x o m ʊ ʐ s a ɾ a d a ɣ a p ɾ o t w o <no-speech> n ə n m ʊ ʐ s a ɾ a <hes> p a ɾ ʊ n m ʊ ʐ s a ɾ a d ɑ d ɑ p ɾ o t w o 
[589.695]
<no-speech> 
[596.725]
h o s ɾ e 
[597.885]
<no-speech> 
[599.025]
h a ɣ ə s ɾ e 
[599.605]
<no-speech> 
[600.22]
