[0.0]
<no-speech> 
[3.095]
a s s a l ɑ m a l a j k ʊ m ɾ a h m a t ʊ l l a 
[4.715]
<no-speech> 
[6.755]
h a l o a s s a l ɑ m a l a j k ʊ m ʦ a ŋ g a j e w ɾ o ɾ a x ə j e 
[8.675]
<no-speech> 
[12.555]
a l h a m d ʊ l e l l a h m ʊ h t a ɾ a m 
[16.195]
<no-speech> 
[19.355]
h a l o 
[19.995]
<no-speech> 
[22.265]
a l h a m d ʊ l e l l a h s t ɑ s o w ɾ o ɾ a s t ɑ s o x a j ɾ ɣ w ɑ ɽ o h a s e ɾ ɑ ɣ l a j j ə m m ɑ w a j ə l ʧ e t ɑ s a ɾ a ɾ ɑ b e t a w ə n ɪ s ə m x a b ə ɾ e d ə ɾ s a ɾ a w ə k ɽ ə m 
[28.885]
<no-speech> 
[29.885]
k x e x o d ə l t ə 
[31.965]
<no-speech> 
[35.335]
a l h a m d ʊ l e l l a h d ə l t ə b a s l ɑ l ɑ s a ɾ a m a s ɾ ʊ f j ʊ a w h a l t a b j ɑ ʤ a m ɑ l z ɑ j t ə w l ɑ ɽ o g a n e m ɑ n ə n ɣ o x t ə l ʧ e s a h ɑ ɾ n ə t ɑ s a ɾ a z a ɾ ʊ ɾ z ə m ɪ l o ʃ ə m 
[43.095]
<no-speech> 
[54.205]
<no-speech> 
[54.755]
<no-speech> 
[60.675]
x ə 
[61.165]
<no-speech> 
[68.845]
x ə <int> 
[70.485]
<no-speech> 
[72.375]
s a h ɪ h d ə b a s w ɾ o ɾ a ɖ e ɾ a z j ɑ t a m e h ɾ a b ɑ n ɪ w ɑ l l a t ə n ə n ɖ e ɾ z j ɑ t p ə t a k l ɪ f ʃ w a j j e w ɑ l l a z ə ɖ e ɾ x a f a ʃ w a m d ə ɾ b ɑ n d e <int> 
[77.075]
<no-speech> 
[85.915]
ʈ o l x ə d ɪ w ɾ o ɾ a x a j ɾ a w x a j ɾ j a t d a j s t ɑ s o x a j ɾ ɣ w ɑ ɽ o w ɾ o ɾ a s t ɑ s o k ɑ ɾ m ɑ ɾ ʦ a ŋ g a d a j 
[89.785]
<no-speech> 
[95.125]
n ə n s t ɑ s o ʧ ʊ ʈ ɪ w ə d ə m a w l ʊ d ʃ a ɾ ɪ f 
[97.165]
<no-speech> 
[102.935]
x ə 
[103.435]
<no-speech> 
[107.615]
x ə 
[108.115]
<no-speech> 
[110.065]
h o 
[110.665]
<no-speech> 
[112.965]
x ə 
[113.595]
<no-speech> 
[115.025]
x ə b a s s a b ɑ ʦ o b a ʤ e t ə d a ɣ a t ə z e d a f t a ɾ t ə 
[118.445]
<no-speech> 
[122.595]
ʊ w ə b a ʤ e a w ɾ ɑ z e p ə ʦ o 
[123.985]
<no-speech> 
[129.114875]
h a l o 
[129.784875]
<no-speech> 
[132.225]
a w ɾ ɑ z e p ə ʦ o b a ʤ e 
[133.465]
<no-speech> 
[137.385]
w ɑ l l a ɖ e ɾ <no-speech> ɖ e ɾ n ɑ w a x t ɾ ɑ z e d a f t a ɾ d e k a w ə m z ɑ j k x e d a j 
[140.995]
<no-speech> 
[144.885]
<no-speech> 
[145.325]
<no-speech> 
[146.255]
<no-speech> 
[146.695]
<no-speech> 
[148.895]
n ʊ x o s a b ɑ t ə z ə x o n ə n m ɑ z d ɪ g a ɾ t l ə l ə m k ə n ə ɪ s ɑ ɾ ʃ w a m n ʊ m a t l a b m ɑ w a j ə l ʧ e s a h ɑ ɾ b ə w l ɑ ɽ ʃ ə m w a x t ɪ x o b j ɑ ʧ e o s x a b a ɾ ʃ w a m ʧ e h a m ɾ ɑ z s ɑ h e b ɾ ɑ ɣ l a j d a j k ə n ə n ʊ 
[160.845]
n ʊ m ɑ w a j ə l ʧ e z a m ɑ m ɑ ʤ ɪ t ə m e w ə w a j ə l ʧ e s a h ɑ ɾ b ɑ j a d m ʊ ʐ w l ɑ ɽ ʃ ʊ z ə k a p ə d e k x e b ə m ʊ x a j ɾ d a j b a s z ə b ə m ɑ s p a x ɪ n b j ɑ ɾ a w ɑ n ʃ ə m <int> 
[167.735]
<no-speech> 
[176.255]
b ə l ə w ɾ ə z s a h ɑ ɾ z m ʊ ʐ d a w ɑ m k ɑ ɾ ʃ ʊ ɾ o k e ʐ ɪ k ə n ə 
[179.535]
<no-speech> 
[184.315]
ʦ a ŋ g a 
[184.945]
<no-speech> 
[190.145]
n ʊ b ə l s a b ɑ k ə b j ɑ w a x t ɪ h a m h a ɾ a k a t w ə k ɽ ə m k ɑ ɾ t ə x o n ə ʃ ə m ɾ a s e d ə l a j 
[193.325]
<no-speech> 
[197.425]
k ɑ ɾ m ʊ s a b ɑ n ə ʃ ʊ ɾ o k e ʐ ɪ b ə l s a b ɑ ʃ ʊ ɾ o k e ʐ ɪ 
[199.955]
<no-speech> 
[209.225]
x ə 
[209.785]
<no-speech> 
[213.665]
h a l o 
[214.355]
<no-speech> 
[215.935]
<int> h a l o 
[219.535]
<no-speech> 
[222.875]
h a l o 
[223.475]
<no-speech> 
[225.975]
<hes> ɑ w ɑ z n ə ɾ ɑ z ɪ w ɾ o ɾ a 
[228.105]
<no-speech> 
[231.235]
q a t a k e ʐ ɪ z m ɑ ɑ w ɑ z s a h ɪ h d ə ɾ z ɪ 
[234.955]
<no-speech> 
[237.815]
h o ɑ w ɑ z d e o s s a h ɪ h ʃ ʊ h o x ə t ɑ ʦ ə w a j ə l z ə b ə q ɑ ɾ ɪ s ɑ h e b t ə z a ŋ g w ə w a h ə m 
[241.885]
<no-speech> 
[247.455]
h a l o 
[248.135]
<no-speech> 
[251.665]
h o o s ɾ ɑ z ɪ d ɑ s e l ə ʐ l ə ʐ ɾ ɑ z ɪ b j ɑ q a t a k e ʐ ɪ z m ɑ ɑ w ɑ z s a h ɪ h d ə ɾ z ɪ 
[255.835]
<no-speech> 
[257.365]
x ə <int> n ʊ t ɑ ʦ ə w a j ə l ʧ e z ə b ə q ɑ ɾ ɪ q ɑ ɾ ɪ s ɑ h e b t ə z a ŋ g w ə w a h ə m 
[260.425]
<no-speech> 
[271.565]
b ɑ ɾ o b ɑ ɾ w ə g o ɾ a k ə n ə m a t l a b b a h a ɾ j ɑ d ə k ɑ ɾ z ɑ j t ə d ə ɾ z ə m j ʊ n a z a ɾ b ə d e w ə g o ɾ ə m z ə b ə d ə ɾ n ə b j ɑ z ə m x p ə l k ɑ ɾ p ə t a ɾ a f b ɑ n d e 
[277.675]
<no-speech> 
[284.075]
<no-speech> 
[290.475]
d ɑ z m ɑ ɑ w ɑ z h a m d ɑ s e b a n d b a n d d ə ɾ z ɪ k ə n ə s t ɑ s o ɑ w ɑ z j a w ɑ z e ɾ ɑ z ɪ s t ɑ s o ɑ w ɑ z m ɑ t ə ɖ e ɾ b a n d b a n d ɾ ɑ z ɪ 
[295.175]
<no-speech> 
[298.265]
<int> z m ɑ ɑ w ɑ z s a f ɑ d ə ɾ z ɪ 
[300.835]
<no-speech> 
[302.905]
s t ɑ s o ɑ w ɑ z l ə ʐ b a n d b a n d ɾ ɑ z ɪ n ə p o h e ʐ ə m <int> d ɑ d ɑ s ɑ h a d ɑ s e d ə k ə ʦ a ŋ g a 
[306.905]
<no-speech> 
[309.715]
ʦ a ŋ g a 
[310.275]
<no-speech> 
[315.035]
ʦ ə ʃ a j d ɪ 
[316.055]
<no-speech> 
[320.085]
x ə d ə p ɑ k e s t ɑ n n a m b a ɾ d ə ɾ z ɪ 
[321.765]
<no-speech> 
[326.405]
h o d ɑ z m ɑ p ə x j ɑ l <foreign> z m ʊ ʐ h a l t a d a j k ə n ə 
[329.485]
<no-speech> 
[331.695]
h o d ɑ <foreign> h a l t a d a j b a s d ɑ x ə w ɪ m ʊ ʐ m a w q e n ə e s t e f ɑ d e s a ɾ a <hes> m a l g ə ɾ o p ʊ x t ə n a a w d e k x e ʦ ə k ɑ ɾ m ɑ ɾ w ɪ k ə n ə b a s h a ɣ ə k a w a j ʃ ʊ 
[338.865]
<no-speech> 
[342.435]
h o 
[343.085]
<no-speech> 
[344.765]
b a s e n ʃ a l l ɑ g o ɾ o k ə n ə k o x ə x x o k a w ə m ʧ e a w ə l z ə t ɑ s a ɾ a w a x t ɪ ʈ ɑ j m k x e m ɪ l o ʃ ə m <hes> d ə k ɑ ɾ w a x t k x e k ə n ə 
[350.885]
<no-speech> 
[353.375]
z ə d ə ɾ n ə b j ɑ m a t l a b ɣ a ɾ m e ʈ ɑ j m k x e w l ɑ ɽ ʃ ə m x p ə l k o ɾ t ə 
[356.115]
<no-speech> 
[361.425]
<no-speech> 
[362.085]
<no-speech> 
[363.975]
x ə 
[364.705]
<no-speech> 
[366.255]
n ʊ h a ɣ e n ə m ə x k e b ə m ʊ ʐ t ɑ s o ʧ e ɾ t a w ə g o ɾ ʊ 
[368.715]
<no-speech> 
[373.195]
x ə s a h ɪ h d ə e n ʃ a l l ɑ b a s s a h ɑ ɾ b ə p ɾ e b j ɑ x a b ə ɾ a w ə k ɽ o n ʊ ɾ ʦ a ŋ g a w ɾ o ɾ a w a x t ʦ a ŋ g a t e ɾ e ʐ ɪ w ɑ l e d s ɑ h e b <sta> <no-speech> m ɑ w a j ə l ʧ e n ʊ ɾ w ɾ o ɲ a d e ʦ a ŋ g a d ɪ 
[384.315]
<no-speech> 
[387.115]
<sta> x ə m ɑ w a j ə l ʦ a ŋ g a j a x n ɪ s a ɾ a ʦ a ŋ g a j e 
[390.465]
<no-speech> 
[393.925]
<sta> d ɑ w ɑ w ɾ a p ə a w ə l z a l w ə l ɪ d ə k ə n ə 
[399.295]
<no-speech> 
[401.705]
w ɑ l l a ɖ e ɾ a <no-speech> h o <int> 
[404.665]
<no-speech> 
[406.885]
<sta> h o n ʊ w ɑ l l a x e z ʊ n a m e z ʊ n a m ʊ p ə k x e w ə w a h ə l ɖ e ɾ x w a n d j e w ə k ə ɽ 
[412.865]
<no-speech> 
[416.235]
m ɑ w a j ə l h a k l a k a w ə m m a l g ə ɾ ɪ t ə f o n w ə k ɽ a ʧ e d ɑ s e x ə ɣ o n d e k a m ɾ a p a j d ɑ k ɽ ɪ m ɑ z ɑ n s a ɾ a h a ɣ ə z ɑ j n ə ɖ ɪ ʤ ɪ ʈ ə l ɾ ɑ w a ɽ a x o b j ɑ ɾ ɑ n ə p ɑ t e ʃ w a <sta> 
[428.215]
t a s w ɪ ɾ ɑ n m a s w ɪ ɾ ɑ n p ɾ e w ə b ɑ s ʊ 
[429.575]
<no-speech> 
[433.215]

[433.945]
<no-speech> 
[439.435]
<no-speech> 
[440.325]
<no-speech> 
[443.815]

[446.205]
<no-speech> 
[447.875]
w ɑ l l a h a ɣ ə ɣ a ɾ ɪ b b ɑ n d e t a k l ɪ f ʊ n a z j ɑ t d ɪ k ə l ə 
[452.995]
<no-speech> 
[461.435]
<laugh> 
[465.005]
<no-speech> 
[466.795]
x ə <laugh> s ɑ a t m ʊ w a ɾ s a ɾ a t e ɾ d a j <no-speech> d ə l t ə b j ɑ h a m x ə d ɪ m a l g ə ɾ ɪ m a l g ə ɾ ɪ ʃ t a p e x a w ə ɾ t a ɾ a f w ɑ l l a j a q ɪ n w ə k ɽ a j a w ɑ z e j ə m h a l t a j ɑ ɾ 
[475.725]
<no-speech> 
[476.945]
<sta> n ʊ b a s k ə l ə n ɑ k ə l ə ʧ a k a ɾ ɾ ɑ w ə w a h ə m b e x ɪ m ɽ a w ɾ ə z ɖ e ɾ a x ɑ j s t a t e ɾ e ʐ ɪ s t ɑ x a b ə ɾ a p ɾ e p o h h a m n ə ʃ e 
[484.385]
<no-speech> 
[493.365]
w ɑ l l a w ɾ o ɾ a m ɑ x o ɾ ʊ x s a t n ə w o ɾ ɑ a x e s t a j x o d ɑ s e w o ʧ e d ə ʤ ʊ m a a w d ə x ɑ l ɪ z m ʊ ʐ x p ə l a ʧ ʊ ʈ ɪ w ɪ 
[498.365]
<no-speech> 
[501.765]
a w d ə j a k ʃ a m b e p ə w ɾ ə z f e b ə ɾ w a ɾ ɪ w ɑ j ɪ k ə n ə n ʊ h a ɣ ə d ə p ɑ k e s t ɑ n d ə d a w l a t j a w a n ʊ m ɑ w a j ə l ɾ ɑ ʃ ə d ɑ h a m w ə g o ɾ a a w b a s 
[513.695]
x a b ə ɾ e m a b ə ɾ e w ə k ɽ a m a l g ə ɾ ɪ w ə g o ɾ a e n ʃ a l l ɑ n ʊ b a s d ɑ k o x ə x k a w ə m k ə n ə <sta> 
[518.655]
<no-speech> 
[520.345]
k o x ə x k a w ə m ʧ e m a t l a b e n ʃ a l l ɑ s a b ɑ a t ə ʦ ə n ʊ ɾ m a l g ə ɾ ɪ d ɪ h a ɣ ʊ j b ə h a m w ə g o ɾ ə m e n ʃ a l l ɑ <sta> 
[525.315]
<no-speech> 
[526.425]
l ə ʐ n ɑ w a x t ʈ ɑ j m k x e b ə ɾ a w ɑ n ʃ ə m 
[528.145]
<no-speech> 
[535.025]
<no-speech> 
[541.905]
x ə k a w ə m z ɑ j t ə d ʊ k ɑ n <hes> d a f t a ɾ t ə 
[544.265]
<no-speech> 
[547.045]
x ə n ʊ q ɑ ɾ ɪ s ɑ h e b x o n ə p o h e ʐ ə m <oov> 
[548.835]
<no-speech> 
[550.145]
x ə h a ɣ ə d ə <oov> p o h a n t ʊ n p ə l ɑ ɾ a b ɑ n d e k ə d ə k o ɾ p ə l ɑ ɾ a b ɑ n d e j e 
[554.215]
<no-speech> 
[557.005]
<no-speech> 
[557.395]
<no-speech> 
[558.455]
x ə x o g o ɾ ə m z ə h a ɣ ə s a ɾ a m a ʃ w a ɾ a k a w ə m k ə n ə h a m ɑ ɣ ə s e b ə w ə k ɽ o s a h ɪ h d ə f a ɾ h ɑ d ʦ a ŋ g a d a j <sta> 
[567.235]
<no-speech> 
[571.725]
w ɾ o ɾ a f a ɾ h ɑ d ʦ a ŋ g a d a j 
[573.045]
<no-speech> 
[576.055]
f a ɾ h ɑ d ʦ a ŋ g a d a j f a ɾ h ɑ d 
[577.595]
<no-speech> 
[583.375]
w ɾ o ɾ a z m ʊ ʐ s a l ɑ m p ɾ e k a w a <no-speech> m ə x k e x o b ə x ə w o h a ɣ ə h a ɣ ə ʤ ʊ m ɑ t h a ɣ ə ʤ ʊ m ɑ t k x e b ə k x e n ɑ s t ə l o n ʊ w a ɾ z a f a ɾ h ɑ d b ə m ʊ w ə k a t ə l o m a l g ə ɾ ɪ b ə m ʊ ɑ x w ɑ d e x w ɑ w ə k a t ə l 
[594.095]
<hes> 
[600.02]
