[0.0]
<no-speech> 
[1.265]
<no-speech> 
[1.625]
<no-speech> 
[10.845]
a s s a l ɑ m a l a j k ʊ m <no-speech> 
[11.955]
<no-speech> 
[14.285]
ʦ a ŋ g a j e 
[15.535]
<no-speech> 
[16.905]
m o ɾ d e ʦ a ŋ g a d ə 
[18.785]
<no-speech> 
[19.665]
<no-speech> 
[20.035]
<no-speech> 
[20.955]
ʦ a ŋ g a d ə <no-speech> <lipsmack> g ʊ l n ɑ z ʦ a ŋ g a d ə 
[23.675]
<no-speech> 
[25.495]
<no-speech> t ə p ə x p ə l a x ə j e <no-speech> <breath> 
[27.925]
<no-speech> 
[29.765]
e s k ʊ l t ə z e <no-speech> 
[32.155]
<no-speech> 
[33.115]
<no-speech> 
[33.605]
<no-speech> 
[34.895]
<no-speech> s p o ɾ ʈ k a w ə j 
[36.165]
<no-speech> 
[38.275]
s t ɑ s o p ɪ ʈ ɪ ʊ s t ɑ d ʦ o k d ə 
[39.955]
<no-speech> 
[42.675]
ʊ s t ɑ d f ɑ t e m a <breath> p a ɾ ʊ n m ʊ s p o ɾ ʈ w a ɾ k ɽ o p a ɾ ʊ n m ʊ s p o ɾ ʈ w ə k ɽ o 
[48.705]
<no-speech> 
[49.585]
p a ɾ ʊ n m ʊ <no-speech> ʧ e ʃ a j m ʊ w ə k ɽ a p ə k x e 
[51.935]
<no-speech> 
[53.155]
<no-speech> 
[55.505]
<no-speech> 
[56.355]
<no-speech> a w n ʊ ɾ <breath> 
[57.535]
<no-speech> 
[62.315]
ʈ e n s ʧ ɑ ʧ ɑ w ə k ɽ o <no-speech> <breath> 
[64.975]
<no-speech> 
[67.795]
t ɑ s ɑ d j a w ə k ɽ o 
[69.095]
<no-speech> 
[70.785]
a w n ʊ ɾ ʧ ɑ w ə n a k ɽ o <no-speech> 
[73.495]
<no-speech> 
[76.575]
<breath> <no-speech> x ə a w s a m ɪ n e w ə k ɽ o 
[79.225]
<no-speech> 
[81.925]
s a m ɪ n e w a l e w ə n a k ɽ o 
[83.235]
<no-speech> 
[87.895]
a w t ə w ɑ j ə m p ə d e k ə ʦ ə x w a n d w ə ʦ ə m a z a x o p ə k x e n ə w ɪ <breath> z ə m x w a n d k a w ɪ <breath> x ə n a f ɪ s e 
[92.875]
<no-speech> 
[94.515]
<no-speech> k a ɾ e k ʈ d e h a ɣ ə b ə l ə w ɾ ə z w ə k a t ə l o <breath> 
[96.475]
<no-speech> 
[99.825]
<breath> <no-speech> n ə h a l t a d e w ə k a t ə l o k o ɾ k x e 
[103.005]
<no-speech> 
[106.285]
<breath> x o ʧ ɑ 
[107.135]
<no-speech> 
[108.165]
ʧ ɑ w ə g a ʈ ə l o 
[109.145]
<no-speech> 
[112.405]
d ʊ ɾ w ɑ ɣ w a l e w ɑ j e <no-speech> <breath> x a l k w ɑ j ɪ 
[115.265]
<no-speech> 
[116.615]
x a l k x o w ɑ j e <no-speech> x a l k x o w ɑ j ə j e ŋ g l a j n ɖ w ə g a ʈ ə l o 
[119.205]
<no-speech> 
[121.995]
<no-speech> 
[123.365]
<no-speech> 
[124.265]
<breath> e ŋ g l a j n ɖ e ŋ g l a j n ɖ 
[126.275]
<no-speech> 
[128.545]
e ŋ g l a j n ɖ w ə g a ʈ ə l o 
[129.664875]
<no-speech> 
[132.855]
x ə ʦ a ŋ g a j e 
[134.315]
<no-speech> 
[136.575]
b e g ɑ ɖ ɾ ɑ m a w ə k a t ə l 
[138.185]
<no-speech> 
[140.215]
w a l e <no-speech> 
[141.035]
<no-speech> 
[144.845]
b e g ɑ h a m k a ɾ e k ʈ w o 
[146.195]
<no-speech> 
[147.725]
d ə ʧ ɑ a w ʧ ɑ 
[148.795]
<no-speech> 
[152.615]
p ɑ k e s t ɑ n a w e ŋ g l a j n ɖ b j ɑ ʧ ɑ w ə g a ʈ ə l o 
[155.185]
<no-speech> 
[158.105]
t ɑ x o w ə w a j ə l ʧ e e ŋ g l a j n ɖ w ə g a ʈ ə l o k ə l ə w ɑ j ə j ʧ e p ɑ k e s t ɑ n w ə g a ʈ ə l o 
[161.105]
<no-speech> 
[163.705]
<breath> x ə <no-speech> n a f ɪ s e 
[167.905]
<no-speech> 
[169.265]
w ɑ n a f ɪ s e 
[170.145]
<no-speech> 
[171.985]
n a f ɪ s e 
[172.845]
<no-speech> 
[174.645]
<no-speech> n a f ɪ s e 
[176.095]
<no-speech> 
[178.615]
d ɑ g ʊ l ʃ ʊ 
[179.565]
<no-speech> 
[181.345]
<no-speech> 
[184.035]
<no-speech> 
[189.2]
