[0.0]
<no-speech> 
[1.385]
<no-speech> 
[5.905]
<no-speech> 
[8.135]
w ɑ l a j k ʊ m a s s a l ɑ m 
[9.345]
<no-speech> 
[11.995]
x a j ɾ x a j ɾ j a t d a j 
[13.175]
<no-speech> 
[15.205]
ʃ ʊ k ə ɾ a l h a m d ʊ l e l l a h 
[16.565]
<no-speech> 
[20.345]
<no-speech> 
[20.695]
<no-speech> 
[22.745]
k ɑ ɾ ɾ o z g ɑ ɾ d e n ə ʃ t a w ɑ l l a z m ɑ h a m k ɑ ɾ ɾ o z g ɑ ɾ n ə ʃ t a 
[26.045]
<no-speech> 
[27.055]
<no-speech> h o 
[29.005]
<no-speech> 
[34.305]
w ɑ l l a z m ɑ h a m d ɑ s e d a j b a s k o ɾ k x e ɾ ɑ t ə w ɑ j ɪ ʧ e k ɑ ɾ w ə k ɽ a ɾ o z g ɑ ɾ w ə k ɽ a ɖ e ɾ k ɑ ɾ p ə s e w ə g ə ɾ z e d ə m ɾ o z g ɑ ɾ p ə s e w ə g ə ɾ z e d ə m x o o s x ʊ d ɑ j b ə x a j ɾ k ɽ ɪ k ə l ə b ə m ɪ l o ʃ ɪ 
[42.865]
<no-speech> 
[51.435]
h o x ʊ d ɑ j x o l o j d a j a w k o ɾ k x e h a m b a s ɾ ɑ t ə w ɑ j ɪ ʧ e k ɑ ɾ w ə k ɽ a a w b a s z ə h a m ɣ w ɑ ɽ ə m ʧ e k ɑ ɾ w ə k ɽ ə m b a s x o k ɑ ɾ ʊ n a n ə ʃ t a m a k t a b t ə ɾ ɑ ʃ ʊ m a k t a b n ə w l ɑ ɽ ʃ ʊ b j ɑ k ɑ ɾ w ə k ɽ o k ɑ ɾ l ə ʐ w ɪ b a s k ɑ ɾ b j ɑ n ə w ɪ 
[63.065]
<no-speech> 
[64.335]
<no-speech> 
[64.895]
<no-speech> 
[70.305]
x ə 
[70.935]
<no-speech> 
[76.265]
z ə m ɽ a x ə d a j b a s s t ɑ x o k ɑ ɾ ʃ t a z m ʊ ʐ x o k ɑ ɾ o b ɑ ɾ h a m n ə ʃ t a p l ɑ ɾ s a ɾ a d ʊ k ɑ n k x e k ɑ ɾ k a w ʊ z ə w ɑ j ə m ʧ e t ə ɾ ʦ o p o ɾ e b ə k ɑ ɾ k a w ʊ x a j ɾ x p ə l l ɑ s w ə g a ʈ ʊ x p ə l l ɑ s n ə ɾ ɑ w a ɽ o 
[85.975]
<no-speech> 
[87.445]
<no-speech> 
[87.885]
<no-speech> 
[93.345]
z ə x ʊ d ɑ j b ə x a j ɾ k ɽ ɪ x ʊ d ɑ j x o ɖ e ɾ z j ɑ t z ə w ɑ j ə m ʧ e z ə w ɑ j ə m ʧ e w l ɑ ɽ ʃ ə m a f ɣ ɑ n e s t ɑ n t ə h a l t a k x e ʧ e ɾ t a ɾ ɑ t ə k ɑ ɾ m ɪ l o ʃ ɪ 
[99.885]
<no-speech> 
[105.735]
x ə d ɑ x a b ə ɾ a x o d ə m a k t a b h a m n ə ʃ e p ɾ e x o d ə l a j k ɑ ɾ h a m n ə ʃ e k a w ə l a j ɣ a ɾ ɪ b ɪ d ə n ə ʃ e k a w ə l a j k ɑ ɾ 
[112.165]
<no-speech> 
[116.945]
h o k ə n ə d ɑ d ɑ x a b ə ɾ a d ə b j ɑ b ə m ʊ ɑ j n d a x a ɾ ɑ b a w ɪ b j ɑ b ə x a l k w ɑ j ɪ ʧ e m a k t a b j e n ə d a j w e l a j x o ʃ e l o f a ɾ d a j a w ʧ e k ɑ ɾ ʊ n a k ɽ e n ʊ k o ɾ k x e m a s a l e w ɪ d ə l t ə d ɑ 
[127.975]
k o ɾ ʊ n o b e l ʊ n a ɾ ɑ z ɪ k ə ɾ ɑ j ɑ n e ɖ e ɾ e d ɪ d ɑ b ə ʦ ə k e ʐ ɪ 
[131.745]
<no-speech> 
[143.435]
d ə x a j ɾ a h o d ə x a j ɾ a o s x o j a x n ɪ d ə o s x o n ə k e ʐ ɪ x o b j ɑ b ə g o ɾ o 
[147.695]
<no-speech> 
[149.335]
h a l t a m e h a m 
[150.155]
<no-speech> 
[151.785]
h a l t a m e t ɾ ə z o j d a j h a ɣ ə t ə m e w ɪ l ɪ d e ʧ e k ɑ ɾ ɾ ɑ t ə p a j d ɑ k ɽ a x o t ə ɾ o s a p o ɾ e h a ɣ ə m ɑ t ə a h w ɑ l n ə d a j ɾ ɑ k ɽ a j <no-speech> 
[158.245]
<no-speech> 
[159.155]
<no-speech> h o 
[160.575]
<no-speech> 
[169.325]
h o b a s d e k x e ʧ e ʧ e ʧ e d e ʧ e d e l a s w ɾ ə z o k x e ʧ ʊ ʈ j ɑ n o k x e b a s k ɑ ɾ w ə k ɽ o 
[173.955]
<no-speech> 
[179.105]
<hes> 
[180.215]
<no-speech> 
[182.165]
h o b a s n ʊ ʦ ə w ə k ɽ o b a s h a m d a ɣ a h a m d a ɣ a h ɑ l ɑ t d ɪ b a s ʧ e n ə j e k a w e x a l k x a b ə ɾ e k a w ɪ a w ʧ e k ɑ ɾ ʧ e k ɑ ɾ k a w e n ʊ <hes> m a k t a b n ə b ə p ɑ t e j e a w ʧ e n ə j e k a w e n ʊ x a l k x a b ə ɾ e k a w ɪ x p ə l x p ə l w ɑ n 
[193.675]
ʧ e d ɑ w ə g o ɾ a ɣ a ʈ s a ɽ a j d a j k ɑ ɾ n ə k a w ɪ a w d ɑ s e d a j a w h a ɣ a s e 
[196.915]
<no-speech> 
[202.715]
<no-speech> 
[204.155]
<no-speech> 
[205.365]
h o ʧ ʊ ʈ j ɑ n e d ɪ b a s d ɑ e m t e h ɑ n ʊ n a x l ɑ s d ɪ b a s d ə x a j ɾ a x l ɑ s b ə w ɪ ʧ ʊ ʈ j ɑ n e b ə w ɪ a w ʦ a ŋ g a s k ʊ l s k ʊ l ʦ ə h e s ɑ b d a j n ə n d e p a ɾ ʧ a x ə w ə k ɽ a k ə n ə 
[213.935]
<no-speech> 
[216.065]
<no-speech> 
[218.035]
<no-speech> 
[219.885]
<hes> x ə n ʊ ɾ <no-speech> 
[223.155]
<no-speech> 
[228.425]
h o k ə n ə ʧ a k a ɾ t ə x o b ə w l ɑ ɽ ʃ ʊ x o 
[230.695]
<no-speech> 
[231.735]
<no-speech> 
[233.165]
<no-speech> 
[236.845]
<no-speech> 
[237.215]
<no-speech> 
[239.625]
<no-speech> 
[241.095]
<no-speech> 
[241.945]
h o h o h o b a s d ɑ x o d ə 
[243.975]
<no-speech> 
[244.845]
h o b a s w l ɑ ɽ b ə ʃ ʊ 
[246.325]
<no-speech> 
[248.645]
h o d ɑ z a ɽ a b ə m ʊ d ɑ z a ɽ a b ə m ʊ l ə ʐ x ə ʃ ɪ 
[251.815]
<no-speech> 
[255.635]
<no-speech> 
[256.005]
<no-speech> 
[259.184875]
<no-speech> 
[260.265]
<no-speech> 
[266.715]
ʧ a k a ɾ t ə b ə ʧ e ɾ t a w l ɑ ɽ ʃ ʊ 
[269.315]
<no-speech> 
[274.185]
a f ɣ ɑ n e s t ɑ n t ə b ə w l ɑ ɽ ʃ ʊ a f ɣ ɑ n e s t ɑ n k x e x o w ɑ w ɾ e ʃ ə w ɪ d ɪ ɖ e ɾ a j a x n ɪ d ə a w w ə s ɑ j ə l h a m n ə ʃ t a g e s w ə s ɑ j ə l h a m n ə ʃ t a ʦ ə h a m n ə ʃ t a h a l t a ʧ e w l ɑ ɽ e ʃ e h a ɣ ə x p ə l a ɣ a ɾ ɪ b ɑ n d ɪ l a ɾ g ɪ j e ɾ ɑ ɣ o n ɖ k ɽ ɪ b a s h a ɣ e 
[285.555]
ʧ e z ɑ n t ə 
[286.545]
<no-speech> 
[294.275]
h a ɣ ə b ə 
[295.015]
<no-speech> 
[297.245]
x ə d ɑ x o d ə n ʊ t ə x o d e t ə x o ʃ h ɑ l a j e b a s n ʊ ɾ d ɑ ɣ a m n ə j e w a ɽ a j 
[301.725]
<no-speech> 
[303.005]
<no-speech> 
[304.345]
<no-speech> 
[306.475]
w ɑ w ɾ a m ʊ x w a x a d ə x o j a x n ɪ w ɪ k ə n ə ʧ e p ə b ə l k o ɾ ʧ e p ə b ə l k o ɾ p ɾ o t j e w ɑ j ɪ b j ɑ ɾ ɑ ɣ l o d ɑ x a b ə ɾ e d ɪ b a s n ə n s a b ɑ x o m ʊ s a l m ɑ n ɪ n ə ʃ t a ɣ o n ɖ e h a m d ɑ x a b ə ɾ e d ɪ 
[318.425]
<no-speech> 
[320.535]
<no-speech> 
[323.825]
<no-speech> 
[324.215]
<no-speech> 
[332.185]
<no-speech> 
[334.265]
<no-speech> 
[335.815]
b a s z ʊ b ə d ə x a j ɾ a h o z ʊ ʧ ʊ ʈ j ɑ n e ʃ ɪ h o z ʊ b ə d ə x a j ɾ a 
[339.895]
<no-speech> 
[345.345]
h o p l ɑ ɾ d ə p l ɑ ɾ d e k ɑ ɾ ɾ o z g ɑ ɾ ʦ a ŋ g a d a j <no-speech> 
[350.205]
<no-speech> 
[357.105]
x ə <no-speech> 
[359.535]
<no-speech> 
[360.355]
<no-speech> b a s z ə b ə h a m w a ɾ s a ɾ a w l ɑ ɽ ʃ ə m <no-speech> h o 
[368.025]
<no-speech> 
[369.315]
h o d w ɑ ɽ a b ə j ʊ z ɑ j w l ɑ ɽ ʃ ʊ d ə x a j ɾ a e m t e h ɑ n ʊ n a x l ɑ s ʃ ɪ <no-speech> 
[373.695]
<no-speech> 
[376.065]
<no-speech> 
[376.415]
<no-speech> 
[378.025]
b a s ʧ ʊ ʈ j ɑ n o ʧ ʊ ʈ j ɑ n o k x e d ɑ p ɾ o g ɾ ɑ m d a j b a s ʧ e ʧ e ɾ t a w l ɑ ɽ o h a l t a b ə w l ɑ ɽ o 
[383.255]
<no-speech> 
[384.735]
x ə 
[385.355]
<no-speech> 
[386.985]
x ə <no-speech> 
[388.385]
<no-speech> 
[391.485]
<no-speech> x ə 
[392.545]
<no-speech> 
[395.045]
s w ɑ t k x e j a x n ɪ d ə h o w ɑ l l a k ɑ ɾ b a s k ɑ ɾ b ɑ ɾ a k x e ʧ e x a l k o t ə g o ɾ o w ɑ l l a x a l k k ɑ ɾ ʊ n a k a w ɪ a w b a s m ʊ ʐ t ə z ɑ n h a m b a d x k ɑ ɾ ɪ ʃ ʊ k ə ɾ a l h a m d ʊ l e l l a h o s x o z w ɑ n ɑ n j ʊ z ɑ n ɾ ɑ t ə b a d x k ɑ ɾ ɪ a w 
[406.745]
ɖ e ɾ a b a d a d ə ʧ e k ɑ ɾ n ə k a w ʊ a w b a s k o ɾ k x e n ɑ s t j ʊ a w p ə t a j ɑ ɾ a j e x w ɾ ʊ 
[410.575]
<no-speech> 
[415.615]
h o ʧ e <oov> ʧ e <oov> ʧ e h a l t a 
[419.115]
<no-speech> 
[420.065]
h o ʧ e h a l t a h a m ʧ ɑ s a ɾ a k ɑ ɾ k a w ɪ b a s a ŋ g ɾ e z ɑ n ʊ s a ɾ a ʧ e h a ɣ ə k ɑ ɾ k a w ɪ n ʊ t ɑ l e b ɑ n d e n ə p ɾ e ʝ d ɪ x a l k d e w ə z n ɪ 
[426.955]
<no-speech> 
[433.005]
<no-speech> 
[439.055]
x ə x ə d ə x a j ɾ a <no-speech> 
[443.365]
<no-speech> 
[446.055]
h o b a s p o h ʃ w a m 
[447.485]
<no-speech> 
[448.305]
<no-speech> 
[448.715]
<no-speech> 
[451.225]
b a s g o ɾ o b ə k ə n ə k ɑ ɾ ʧ e ɾ t a p a j d ɑ j e h a l t a b ə b a s w l ɑ ɽ ʃ ʊ a w ʧ e k ɑ ɾ n ə w ɪ n ʊ b a s k o ɾ k x e b ə j ʊ n ʊ b a s n ʊ ɾ ʦ ə w ə k ɽ o 
[459.205]
<no-speech> 
[460.575]
<no-speech> 
[460.935]
<no-speech> 
[464.015]
ʧ a k a ɾ t ə b ə w l ɑ ɽ ʃ ʊ k ə n ə 
[465.535]
<no-speech> 
[467.565]
h o <no-speech> 
[469.305]
<no-speech> 
[475.565]
h o h o b a s s t ɑ ʧ e ʧ e ɾ t a z a ɽ a j e b a s z m ʊ ʐ h a m z a ɽ a d a j <no-speech> 
[479.875]
<no-speech> 
[482.575]
h o 
[483.255]
<no-speech> 
[484.385]
h o d ə x a j ɾ a 
[485.525]
<no-speech> 
[486.725]
<no-speech> 
[487.225]
<no-speech> 
[489.535]
<no-speech> x ə 
[491.025]
<no-speech> 
[492.235]
<no-speech> h o ʧ ʊ ʈ j ɑ n e b ə b j ɑ ʧ e s ɑ l ɑ n a e m t e h ɑ n ʊ n a t e ɾ ʃ ɪ b j ɑ b ə ʧ ʊ ʈ j ɑ n o k x e ʧ e ɾ t a w l ɑ ɽ ʃ ʊ <no-speech> 
[499.165]
<no-speech> 
[501.285]
b a s b j ɑ k ɑ ɾ w ə k ɽ o a w b a s l ə ʐ p ə k x e a f ɣ ɑ n e s t ɑ n t ə w l ɑ ɽ ʃ ʊ x p ə l w a t a n b ə w ə g o ɾ ʊ ʧ e ʦ ə h e s ɑ b d a j <no-speech> h o 
[510.585]
<no-speech> 
[511.435]
<int> h o k ə n ə a f ɣ ɑ n e s t ɑ n t ə b ə w l ɑ ɽ ʃ ʊ ʧ a k a ɾ b ə w ə w a h o ɖ e ɾ w a x t w ə ʃ o k l ɪ t ə h a m n ə j ʊ t a l ɪ h a l t a b ə ʧ a k a ɾ w ə w a h o 
[519.105]
<no-speech> 
[525.445]
h o h o <no-speech> 
[527.385]
<no-speech> 
[528.255]
h o <no-speech> z m ʊ ʐ x p ə l x p ə l w ɑ n d ɪ w ɑ j ɪ ɾ ɑ ʃ a j 
[532.375]
<no-speech> 
[535.275]
<hes> 
[536.925]
<no-speech> 
[538.655]
z m ɑ w ɾ o ɾ <no-speech> z m ɑ w ɾ o ɾ m e h a l t a t ʊ ɾ ʊ ɾ z o j s a ɾ a k ɑ ɾ k a w ɪ ʧ a p a ɽ o d ʊ k ɑ n k x e 
[545.305]
<no-speech> 
[547.155]
h o h o b a s x ə d a j g o z ɑ ɾ a <no-speech> h o b a s g o z ɑ ɾ a k a w ɪ b a s 
[552.655]
<no-speech> 
[553.565]
<no-speech> 
[553.935]
<no-speech> 
[555.335]
b a s ʦ ə t a n x w ɑ d ə j ɑ b ə a t ə z ə ɾ a w ɪ a w j ɑ b ə l a s z ə ɾ a w ɪ <no-speech> 
[558.935]
<no-speech> 
[561.715]
n ə k ə n ə b a s z ə h a m z ɑ n t ə k ɑ ɾ g o ɾ ə m <no-speech> 
[565.135]
<no-speech> 
[568.715]
<no-speech> d w a w ɾ o ɲ a 
[570.345]
<no-speech> 
[572.805]
h o 
[573.445]
<no-speech> 
[574.295]
p l ɑ ɾ m e h a m h o d ʊ k ɑ n k a w ɪ b a s m ʊ ʐ h a m w a ɾ s a ɾ a j ʊ <no-speech> 
[578.515]
<no-speech> 
[580.015]
<no-speech> x o ɾ ɑ k a f ʊ ɾ o ʃ ɪ 
[582.055]
<no-speech> 
[582.855]
<no-speech> 
[584.225]
<no-speech> 
[586.385]
<int> b a s j ʊ d w a w ɾ ə z e b ɑ d b ə m e l ɑ w e ʐ ɪ d ə x a j ɾ a d w a d ɾ e e m t e h ɑ n ʊ n a p ɑ t e d ɪ b a s b j ɑ b ə m e l ɑ w e ʐ ɪ 
[592.765]
<no-speech> 
[597.565]
<no-speech> b a s m ɑ 
[599.94]
