[0.0]
<no-speech> 
[0.295]
<no-speech> 
[3.435]
<no-speech> 
[4.915]
h a l o a s s a l ɑ m a l a j k ʊ m 
[5.825]
<no-speech> 
[8.225]
b e l k ʊ l d ə ɑ l l a h f a z ə l d a j ʦ a ŋ g a ʧ a l d a j p l ɑ ɾ d e ʦ a ŋ g a d a j <int> 
[10.685]
<no-speech> 
[11.685]
<no-speech> 
[12.055]
<no-speech> 
[14.115]
b e l k ʊ l d ə ɑ l l a h f a z ə l d a j <sta> n ʊ ɾ ʦ a ŋ g a ʧ a l d a j w ɾ o ɲ a w ɾ o ɲ a d e ʦ a ŋ g a d ɪ 
[20.035]
<no-speech> 
[22.185]
a w k o ɾ k x e ʦ a ŋ g a d a j p l ɑ ɾ d e ʤ a ŋ g ʤ a g ɽ e k a w ɪ k ə n ə 
[24.995]
<no-speech> 
[26.905]
a w 
[27.895]
<no-speech> 
[29.415]
a w w ɑ j x a b a ɾ ʃ w a j j ə m e s ɾ ɑ f g ʊ l k a ɾ ɑ ʧ ə j t ə t l ə l a j d a j h a ɣ ə t ɾ ə d e 
[32.775]
<no-speech> 
[35.305]
n ə n ə n ə h a ɣ ə t ɾ ə d e e s ɾ ɑ f g ʊ l 
[37.055]
<no-speech> 
[38.895]
x ə k a ɾ ɑ ʧ ə j k x e k ɑ ɾ o b ɑ ɾ j e x ə d a j 
[40.715]
<no-speech> 
[44.335]
x ə ʦ ʊ m ɾ a w a x t j e t e ɾ k ɽ o w a x t j e ʦ ʊ m ɾ a t e ɾ k ɽ o 
[47.825]
<no-speech> 
[51.475]
a w j ʊ k ɑ ɾ w ə k ɽ a k ə n ə j ɑ ɾ j ʊ k a s d a j ʧ e h a ɣ ə h a m w a ɾ w ə l e ʐ ʊ k ə ʦ ə k ɑ ɾ o b ɑ ɾ x ə j e a w ɖ e ɾ ɣ a ɾ ɪ b d a j l a k a ʧ e p l ɑ ɾ j e h a m b o ɖ ɑ d a j p l ɑ ɾ j e b o ɖ ɑ d a j a w m ɑ ʃ ʊ m ɑ n <hes> 
[60.195]
<no-speech> 
[61.365]
p l ɑ ɾ j e b o ɖ ɑ 
[62.195]
<no-speech> 
[63.145]
x ə 
[63.715]
<no-speech> 
[69.945]
x ə ɖ e ɾ a m e h ɾ a b ɑ n ɪ b ə d e j e <breath> a w ʧ e d ɑ k ɑ ɾ w a ɾ t ə w ə k ɽ ɪ k ə n ə ɣ a ɾ ɪ b ɑ n d ɪ a w b ə l ə <hes> a w b ə l ə x a b ə ɾ a d ɑ d ə ʧ e t ə h a m k ɑ ɾ o b ɑ ɾ t ə z a k ə n ə ʧ e ɣ a ɾ ɪ b ɪ d ə ɖ e ɾ a ɣ a ɾ ɪ b ɪ d ə a w 
[80.245]
<no-speech> 
[84.535]
a w g o ɾ o d ə f e l m ʊ n o m e l m ʊ n o n ə ʦ ə ʤ o ɽ e ʐ ɪ n ə g o ɾ a d ɑ h ʊ ʤ ɾ o a w b e ʈ e ŋ g ʊ n o g o ɾ a d ɑ h ʊ ʤ ɾ o a w b e ʈ e ŋ g ʊ n o n ə ʦ ə ʤ o ɽ e ʐ ɪ n ə x p ə l k ɑ ɾ o b ɑ ɾ t ə z a ɣ a ɾ ɪ b ɪ d ə 
[92.535]
<no-speech> 
[96.265]
a w o s t ə ʦ ə k ɑ ɾ o b ɑ ɾ k a w ə j 
[98.165]
<no-speech> 
[103.345]
x ə b a s ʈ ɪ k ʃ w a k ə n ə t ə h a m d ɑ s e k ɑ ɾ w ə k ɽ a ʧ e h a ɣ ə t ɾ ə p ə s e k a ɾ ɑ ʧ ə j t ə l ɑ ɽ ʃ ə a w k ə s a x t k ɑ ɾ o b ɑ ɾ j e t ə h a m h a l t a k ɑ ɾ o b ɑ ɾ ʧ ɑ l ʊ k ɽ a a w d j ɑ ɽ ɪ d ə ʧ ɑ x a b ə ɾ a k ə l ə j e a w k ə l ə n ə j e k ə n ə w ə z g ɑ ɾ g ə ɾ z e d o d ɑ x ə d ə h o h o z ɑ n t ə ʦ ə ɑ l o g ɑ n 
[115.045]
<no-speech> 
[122.555]
x ə d ɑ s e k ɑ ɾ w ə k ɽ a 
[124.555]
<no-speech> 
[125.435]
d ɑ s e k ɑ ɾ w ə k ɽ a ʦ ə k ɑ l a j m ɑ l a j d e j e h a ɣ ə x a ɾ ʦ k ɽ a a w g ɑ ɖ a j z ɑ n w ɑ x l a p ɾ e ɖ ɾ e w a ɾ 
[129.455]
<no-speech> 
[130.755]
ɖ ɾ e w a ɾ 
[131.395]
<no-speech> 
[136.885]
n ʊ ɾ m ɽ a x a j ɾ x o p ɑ k e s t ɑ n h a m d ə ʧ ɑ x a b ə ɾ a ɖ e ɾ x ə d a j x ə k ɑ ɾ o b ɑ ɾ d e h a ɾ z ɑ j k x e ɾ a w ɑ n j e x o ʧ e k ɑ ɾ k a w ɪ a w ʧ e k ɑ ɾ n ə k a w ɪ k ə n ə n ʊ k ə e n ɖ j ɑ t ə h a m l ɑ ɽ ʃ ɪ l a n d a n t ə h a m l ɑ ɽ ʃ ɪ n ʊ m a z d ʊ ɾ ɪ n ə k a w ɪ n ʊ ʦ ə p ɾ e h o h o 
[146.735]
<no-speech> 
[149.975]
b e l k ʊ l h o h o ʦ a ŋ g a ʧ a l d a j h a ɣ ə n ʊ ɾ d o s t ɑ n m o s t ɑ n d e ʦ a ŋ g a d ɪ 
[153.245]
<no-speech> 
[156.065]
b e l k ʊ l b e l k ʊ l ʈ ɪ k ʈ ɑ k d a j n ʊ ɾ b a s a s s a l ɑ m ʊ n a w a ɾ t ə w ɑ j a 
[160.235]
<no-speech> 
[163.795]
x ə b a s t ɑ ʈ ʊ l o m a l g ə ɾ o t ə z m ɑ a s s a l ɑ m ʊ n a d ɪ 
[166.305]
<no-speech> 
[168.955]
<sta> a w a w w a a w w a s ɪ m w ɪ n ɪ w a s ɪ m ʦ ə k ɑ ɾ o b ɑ ɾ k a w ɪ 
[172.995]
<no-speech> 
[174.685]
<hes> w a s ɪ m h o h o w a s ɪ m w a s ɪ m 
[177.865]
<no-speech> 
[182.055]
g ɑ ɖ a j ʧ a l a w ɪ x ə x ə x ə w a ɾ t ə m e d ʊ ɑ a s s a l ɑ m ʊ n a w ɑ j a j ɑ ɾ ɖ e ɾ w a x t w ə ʃ o n ə m e d a j l ɪ d ə l a j 
[186.035]
<no-speech> 
[190.855]
x ə a w a s ɪ m ʦ ə k a w ɪ a s ɪ m h a ɣ ə h a m n ə x k ɑ ɾ ɪ j ɑ ɾ w ɑ l l a b e l k ʊ l z w a n d a j ʤ a ɽ ɣ a j b d a j <int> 
[195.505]
<no-speech> 
[198.495]
x ə x ə k a w ə m z ɑ j k x e 
[199.745]
<no-speech> 
[203.395]
x ə w ɑ j ə m <hes> ɑ l l a h x ɑ n s a j b h a m w ɑ j e z ə w a ɾ p ə s e ɖ e ɾ w ə g ə ɾ z e d ə m w ɑ j e n a m b a ɾ j e n ə m ɪ l ɑ w e ʐ ɪ 
[207.645]
<no-speech> 
[218.895]
<dtmf> x ə <hes> h a l o 
[220.395]
<no-speech> 
[221.355]
<sta> h a ɣ ə b ɑ b ɑ t ə ʧ e t l ə l ɪ w o k ə d e x j ɑ l k ɽ a j j e h a ɣ ə ʧ ə ɾ g a d e ʧ e ɾ ɑ p a ʈ a k ɽ ɪ w ə <laugh> <hes> a w m a l g ə ɾ ɪ 
[228.555]
<no-speech> 
[229.415]
<laugh> a w h a ɣ ə m a l g ə ɾ ɪ d e ʈ o l n ɑ s t w o ɣ w a x a m ʊ a t ə ɾ ɑ w ɽ ɪ w ə j ɑ ɾ ʦ ə ɖ e ɾ x k ʊ l ɪ x w a n d 
[234.975]
<no-speech> 
[236.925]
<no-speech> 
[237.305]
<no-speech> 
[238.825]
n ə a w h a ɣ ə q a m a ɾ g ʊ l t ɾ ə b ə d e o s k a w ə m z ɑ j j e j ɑ ɾ w ɑ l l a ʧ e h a ɣ ə x o ɖ e ɾ w a x t w ə ʃ o x k ɑ ɾ ɪ n ə h a ɣ ə h a m w ɑ l l a p a t a n ə l a g e ʐ ɪ k ɑ ɾ t ə t l ə l a j <oov> 
[245.325]
<no-speech> 
[251.325]
n ə n ə h a ɣ ə x o d ə h a ɣ ʊ j n ə h a m w o d ɑ x a b ə ɾ a d e m a n ə m x o l a k a t ɑ n ə p a x l ɪ k x e b j ɑ x ə p o h e d o j ɑ ɾ p a x l ɪ t ə t a k ɽ a w o h a ɣ ə ɣ w a x a j e 
[259.114875]
<no-speech> 
[260.485]
h o h a ɣ ə ɣ w a x a ʧ e j e p o x k ɽ ɪ w ə t ə w ɑ j e ʧ e p ə h o ʈ a l k x e p o x k ɽ ɪ w ə m ɑ x o w ə x w a ɽ a <hes> z ə p ɾ e m a ɽ e d ə m n ə h a q ɪ q a t d ə ɾ t ə w ɑ j ə m 
[265.365]
<no-speech> 
[274.575]
b j ɑ x o w ɑ l l a ʧ e z j ɑ t a j k ɽ a j d a j j ɑ ɾ a w n ʊ ɾ b a ʧ ɪ j e ʦ ə ɣ a ʈ d ɪ k ə n ə b a ʧ ɪ j e ʦ a ŋ g a d ɪ ɣ a ʈ d ɪ w ɑ b a ʧ ɪ j e ɣ a ʈ d ɪ k ə w ɑ ɽ a d ɪ j ɑ ɾ <sta> 
[283.425]
<no-speech> 
[288.665]
b a s g o z ɑ ɾ a w a ɾ s a ɾ a k a w a j ɑ ɾ ɣ a ɾ ɪ b ɪ d ə g o ɾ a n ə m ʊ ʐ t ə g o ɾ a n ə o s m ʊ ɑ z ɑ ɾ x a l k m ʊ ʐ h a m ɣ a ɾ ɪ b ɑ n j ʊ s t ɑ s o ɣ o n d e a w b ə l z m ʊ ʐ d ə l t ə k ɑ ɾ o b ɑ ɾ d ɑ s e d a j ʧ e b e l k ʊ l k ɑ ɾ o b ɑ ɾ z m ʊ ʐ d ɑ s e x a ɾ ɑ b d a j p ɑ k e s t ɑ n k x e n ʊ o s w ɑ l l a 
[300.345]
<no-speech> 
[300.835]
<no-speech> 
[310.695]
a w x a b a ɾ ʃ w a j j ə m j ɑ ɾ w ɑ j h a ɣ ə a s ɣ a ɾ x ɑ n d e p ə k a ɾ e k ʈ k x e ʤ a g ɽ a k ɽ ɪ w ə h a ɣ ə m a l g ə ɾ a j d e 
[314.685]
<no-speech> 
[320.945]
x ə x ə n ʊ b j ɑ ʦ ə ʧ a l w ə ʃ o 
[322.255]
<no-speech> 
[328.475]
x ə x ə x ə 
[329.205]
<no-speech> 
[333.735]
x ə x ə 
[334.265]
<no-speech> 
[335.745]
x ə x ə x ə x ə n ʊ b a s n ʊ ɾ x a j ɾ ʃ ʊ k ə n ə 
[340.035]
<no-speech> 
[340.975]
ɾ o ɣ 
[341.465]
<no-speech> 
[342.575]
ɾ o ɣ a m ʊ w a ɾ s a ɾ a w ə k ɽ a 
[343.655]
<no-speech> 
[347.305]
x ə x ə x ə g o ɾ e j ʊ k ɑ ɾ w a j ʊ k ɑ ɾ w ə k ɽ ɪ l ə ʐ j e w a ɾ t ə p o h a k ɽ a x a j ɾ s t ɑ x o h a m a n ɖ ɪ w ɑ l d a j j ɑ ɾ d o s t d e d a j w ɾ o ɾ d e d a j g o ɾ a d ɑ k a ɾ e k ʈ n ə ʦ ə ʤ o ɽ e ʐ ɪ n ə d ə d e n ə ʦ ʊ m ɾ a b a d j ɑ n ɪ ʤ o ɽ e ʐ ɪ t ɑ s o k a ɾ e k ʈ k a w a j 
[358.245]
<no-speech> 
[363.485]
n ə n ə b a s ʈ ɪ k ʃ w a k ə n ə g o ɾ a p l ɑ ɾ b ə m ʊ b o ɖ ɑ j e g o ɾ a h a ɣ ə ɣ a ɾ ɪ b b ə d ɑ p a j s e k a w ə m z ɑ j n ə ɾ ɑ w ɽ ɪ j e ʧ e t ɑ s o d ɑ k a ɾ e k ʈ k a w a j d e n ə ʦ ə ʤ o ɽ e ʐ ɪ n ə n ʊ g o ɾ a j ʊ x a b ə ɾ a d ə ɾ t ə k a w ə m ʧ e d ə d ɪ n k ɑ ɾ k a w a j ʦ ʊ m ɾ a x ə d a j p ə t a b l ɪ ɣ l ɑ ɽ ʃ a j g o ɾ a a w 
[374.715]
p e n z ə w ɑ ɽ a w a x t a l m ʊ n z k a w ə j g o ɾ a m o ɾ a w p l ɑ ɾ t ə d ʊ ɑ k a w ə j n ʊ ɑ l l a h b ə h a m d ə ɾ n ə x o ʃ h ɑ l a a w ʧ e t ɑ s o d ɑ k ɾ e k a ʈ ɪ m ɾ e k a ʈ ɪ k a w ə j k ə n ə a w d ɪ n k ɑ ɾ d ə ɾ n ə p ɑ t e ʃ ɪ d ɑ k ɑ ɾ b ə ʦ o k k a w ɪ d e t ə b ə a ŋ g ɾ e z ɑ n ɾ ɑ z e k ɑ f e ɾ ɑ n b ə d e d ɪ n k ɑ ɾ 
[384.595]
<no-speech> 
[386.775]
b ə l 
[387.135]
<no-speech> 
[389.825]
x ə g o ɾ a k ə ʤ ʊ m ɑ t m ʊ k o ɾ s a ɾ a l a n ɖ d a j ʤ ʊ m ɑ t t ə p e n z ə w ɑ ɽ a w a x t a w a ɾ z ə j a w s a w ɑ b x o g o ɾ a n ɪ k k ɑ ɾ ʊ n o k x e n ɪ k k ɑ ɾ ʊ n o k x e d a j 
[396.905]
<no-speech> 
[398.665]
x ə n ʊ ɾ t ɑ s o x o x ə j e k ə n ə 
[400.445]
<no-speech> 
[403.205]
x ə h o x ə a w d a ɣ a j ɑ ɾ a w ɑ j h ɑ ɣ a d a ɣ a d ə ɾ n ə <oov> x a f a ʃ w a j d a j f a j ɑ z 
[408.515]
<no-speech> 
[413.745]
x ə d ɑ p ə ʦ ə x a f a d a j j ɑ ɾ 
[416.105]
<no-speech> 
[422.515]
<hes> d ɑ o s w ə g o ɾ a <hes> t ɑ t ə m ɑ x a b ə ɾ a w ə k ɽ a w ə x a t ə l e d ɑ k a ɾ e k ʈ g o ɾ e d ɑ ɖ e ɾ 
[426.365]
<no-speech> 
[428.115]
k a ɾ e k ʈ d ɑ ɖ e ɾ 
[428.965]
<no-speech> 
[435.235]
x ə a w n ʊ ɾ x ɑ n s a j b ʦ a ŋ g a d a j x ɑ n s a j b b e l k ʊ l z w a n d a j ʤ ɑ ɽ ɣ a j b d a j <no-speech> k a w ə m 
[440.025]
<no-speech> 
[448.905]
w ɑ d ə j e l ɑ o s a p o ɾ e n ə d a j k ɽ a j 
[450.535]
<no-speech> 
[454.745]
x ə x ə x ə l a k a m ə x k e b ə p ə z j ɑ ɾ a t ʊ n o k x e ɣ a ɾ ɪ b p ɾ o t w o m ɑ t ə h a m p a t a w ə ɖ e ɾ ɣ a ɾ ɪ b w o x o ʧ e d ɑ o s j e ʦ ə k ɪ s a d ə <hes> 
[460.805]
<no-speech> 
[465.565]
d ɑ o s w ə g o ɾ a <hes> <hes> d ə d ɑ ʧ e k ɑ ɾ o b ɑ ɾ k a w ə l o z a ʦ ə k ɑ ɾ x o b ə j e ɾ a w ɑ n w o w ɑ d ə b ə j e k ɽ a j w o s a b ɑ k ə ʦ o k b ə d a ɣ a k a w ɪ x e d m a t b ə j e k a w ɪ 
[472.915]
<no-speech> 
[474.405]
a w n ʊ x a j ɾ k ə d e w ə l ɪ d ə t ə h a m w a ɾ t ə w ɑ j a x o z m ɑ d ə a ɽ x a w a ɾ t ə d ʊ ɑ s a l ɑ m w ɑ j a z ə k a ʧ e p ə m ɑ h a m g ɾ ɑ n w o a w ɾ e 
[480.145]
<no-speech> 
[481.265]
h o 
[481.715]
<no-speech> 
[482.745]
<hes> b a s t ə o s d ɑ s e k ɑ ɾ w ə k ɽ a k ə k ə l ə d a ɣ a ʃ ə w ɪ k ə n ə g ʊ l s e b t ə w a ɾ ʃ ə g ʊ l s e b t ə a w h a ɣ ə t ə h a ɣ ə t ə w ɑ j a j ɑ ɾ ʦ a ŋ g a ʧ a l d a j ʈ ɪ ŋ g a d ɑ ɾ ʦ a ŋ g a d a j ʈ ɪ ŋ g a d ɑ ɾ s a ɾ a k ɑ ɾ o b ɑ ɾ ʦ a ŋ g a d a j a w ɾ e 
[494.505]
<no-speech> 
[496.635]
h o <int> x ə b a s d ə ɑ l l a h f a z ə l d a j n ʊ a w k ɑ ɾ o b ɑ ɾ x o o s t ɑ s o ʦ a ŋ g a ʧ ɑ l ʊ d a j k ə n ə k ə b a n d ʃ ʊ 
[503.335]
<no-speech> 
[504.345]
<no-speech> 
[504.695]
<no-speech> 
[510.395]
<no-speech> 
[510.835]
<no-speech> 
[517.795]
h a f t a k x e 
[518.555]
<no-speech> 
[523.985]
d ɑ w a ʤ a h a ɣ ə x o w ɑ l l a ʧ e ɖ e ɾ s a x t n ʊ q s ɑ n g o ɾ a ʧ e h a f t a k x e 
[526.925]
<no-speech> 
[528.335]
h a f t a k x e d e j ʊ w ɾ ə z ʧ ʊ ʈ ɪ k ɽ a k ə n ə ɣ a ɾ ɪ b s a ɽ ɪ t ə ɖ e ɾ s a x t z o ɾ w ɾ a k a w ɪ d ɑ j ʊ w ɾ ə z g o ɾ e x ə 
[531.915]
<no-speech> 
[533.415]
a w a n ɖ ɪ w ɑ l ɑ n d e ʦ a ŋ g a d ɪ m a ʤ ɪ d d ʊ j d ə ɾ s a ɾ a d ɪ k ə n ə d ɪ 
[535.965]
<no-speech> 
[544.195]
a w m a ʤ ɪ d h a ɣ ə p l ɑ ɾ m a ʤ ɪ d p l ɑ ɾ s e g ɾ e ʈ m e g ɾ e ʈ k a w ɪ k ə n ə m a ʤ ɪ d p l ɑ ɾ s e g ɾ e ʈ m e g ɾ e ʈ ʦ ə k a w ɪ k ə n ə a w k ə h a m d ɑ ʃ ɑ n g ə ɾ z ɪ ɾ ɑ g ə ɾ z ɪ k ɑ ɾ o b ɑ ɾ x o h a ɣ ə h a s e h a m n ə k a w ɪ 
[551.465]
<no-speech> 
[557.755]
d ɑ o s w ə g o ɾ a h a ɣ ə m a ʤ ɪ d t ə w ə g o ɾ a m ɑ ʃ o m d a j <hes> ɣ a ɾ ɪ b h a ɣ ə p ə x p ə l a k ɑ ɾ o b ɑ ɾ k a w ɪ a w p l ɑ ɾ t ə j e w ə g o ɾ a s e g ɾ e ʈ o t ə j e z o ɾ a w ə ɾ 
[563.045]
<no-speech> 
[572.195]
n ʊ d ɑ w ə g o ɾ a n ɪ k a m a l z o j a w l ɑ d d a ɣ a s e x ə j e k ə n ə g o ɾ a x p ə l w ɾ o ɲ a 
[576.565]
<no-speech> 
[586.715]
<no-speech> 
[587.485]
<no-speech> 
[588.445]
d ɑ d ə p l ɑ ɾ x o ʃ q e s m a t ɪ d ə g o ɾ a ʧ e d ɑ s e z o j x ʊ d ɑ j w a ɾ k ɽ a j d ə k ə n ə <hes> 
[594.165]
<no-speech> 
[595.195]
<no-speech> 
[595.715]
<no-speech> 
[598.885]
a w m a ʤ ɪ d t ə w ɑ j a j ʊ z ə l e b j ɑ 
[600.02]
