[0.0]
<no-speech> 
[0.645]
<no-speech> h a l o a s s a l ɑ m a l a j k ʊ m 
[9.535]
<no-speech> 
[10.445]
<no-speech> w ɑ l a j k ʊ m a s s a l ɑ m ʦ a ŋ g a ʧ a l d a j 
[13.325]
<no-speech> 
[16.085]
x a j ɾ d a j b e l k ʊ l a m a n d a j w ɑ j a k ə n ə 
[18.015]
<no-speech> 
[19.535]
<no-speech> 
[20.015]
<no-speech> 
[21.805]
<no-speech> 
[23.065]
<no-speech> 
[24.485]
x ə 
[24.955]
<no-speech> 
[27.215]
<no-speech> 
[28.235]
<no-speech> 
[29.235]
<no-speech> s t ɑ ɖ e ɾ a ɖ e ɾ a m e h ɾ a b ɑ n ɪ <breath> n ʊ ɾ t ɑ s o ʦ a ŋ g a j e 
[33.465]
<no-speech> 
[36.865]
ɣ w a x a m e t ɾ e ɾ a q ɪ b 
[37.925]
<no-speech> 
[39.545]
a w n ə n s a b ɑ x o b a s z ə 
[41.035]
<no-speech> 
[42.165]
<sta> z ə x o h a m d e k ɑ l e ʤ k x e j ə m <no-speech> p o h ʃ w e a w <hes> k ɑ l e ʤ k x e w a x t ʧ e k a w ə m d a j b a s x ə t e ɾ e ʐ ɪ <hes> 
[54.045]
<no-speech> 
[54.195]
<no-speech> 
[56.085]
<no-speech> h o k ɑ l e ʤ t ə x o z ə m a b a s n ə n x o ʧ ʊ ʈ ɪ d ə w a l e t ɑ t ə p a t a n ə d ə ʦ ə <sta> <hes> <int> 
[68.055]
<no-speech> b a s n ʊ ɾ x o k ɑ l e ʤ t ə z ʊ x ə x ə m ə z a j d ɪ p ə k x e <hes> <no-speech> <hes> 
[79.755]
<no-speech> k ɑ l e ʤ n ə ʧ e f ɑ ɾ e ɣ a ʃ w a m b a s b j ɑ ʧ e k a w ə m d a j l ə ʐ s ʈ a ɖ ɪ k a w ʊ ʧ e ɾ t a l ə ʐ g e m m e m w ə k ɽ o <int> b a s b j ɑ b a s n ʊ ɾ d ə ɑ s j e x ɑ s m a s ɾ ʊ f j a t n a ʃ t a 
[91.165]
<no-speech> b a s l ə ʐ ɖ e ɾ x ə w ə m a <no-speech> <hes> <int> 
[100.405]
<no-speech> 
[103.355]
<no-speech> 
[105.005]
<no-speech> 
[107.675]
<no-speech> 
[108.675]
<no-speech> 
[109.595]
<no-speech> h o <no-speech> h o b e l k ʊ l b e l k ʊ l b a s p a ʈ o k x e x o b a s x ə ʃ ɪ n k e ʐ ɪ n ʊ 
[117.655]
<no-speech> 
[118.695]
<no-speech> 
[119.295]
<no-speech> 
[120.695]
<no-speech> 
[121.225]
<no-speech> 
[122.945]
f a s ə l k x e x o b ə z ɑ n 
[124.215]
<no-speech> 
[125.045]
x o d ə l t ə x o ʧ e k a w ə m d ɪ g a n ɪ h a m p ə k x e w ə l ə ɽ d ɪ a w d ɑ d ə ɣ a n ə m o d ɑ h a ɣ ə d ɪ <no-speech> p o h ʃ w e n ʊ b a s d ɑ s e l ə ʐ l ə ʐ ɾ ɑ ʈ o k e d ə l ɪ t ʊ x a m j e ʧ e k a w ə m d a j ɾ ɑ ʈ o k e d ə l ɪ d ɪ <hes> 
[135.065]
<no-speech> 
[137.365]
<no-speech> 
[137.715]
<no-speech> 
[138.805]
x ə 
[139.425]
<no-speech> 
[142.065]
h o b a s d ə l t ə h a m ʃ ʊ ɾ o ʃ ə w ɪ d ɪ <breath> d a j w a ɽ o s a ɾ a ʧ e k a w ə m d ɪ b a s d ɑ p a t a n g ɑ n m a t a n g ɑ n d ɪ a l w ə z ə j j e n ʊ <no-speech> <hes> 
[151.465]
<no-speech> 
[158.115]
b e ʤ l ɪ x o ʧ e k a w ə m d a j b a s d ə l t ə ʧ e ɾ t a ʧ o b ɪ s g e n ʈ o k x e ʧ e ɾ t a d a ɣ a p ɑ n ʧ ʧ e g a n ʈ e j e b e g ɑ ʧ e k a w ə m d a j d a ɣ a m e ʧ w o h a ɣ e d a w ɾ ɑ n k x e ʧ e k a w ə m d a j b e ʤ l ɪ n ə w ə j ʊ j ʊ m e ʧ m ʊ w ə k a t e 
[169.655]
b a s b j ɑ ʧ e k a w ə m d a j <breath> b e ʤ l ɪ p ə k x e n ə w ə <cough> 
[175.205]
<no-speech> 
[178.345]
ɖ e ɾ ɖ e ɾ 
[180.905]
<no-speech> 
[182.665]
<no-speech> 
[185.895]
<no-speech> 
[187.625]
<no-speech> 
[189.905]
<no-speech> 
[190.845]
<no-speech> 
[192.315]
<no-speech> 
[194.235]
<no-speech> h o h o d ɑ x o d ə 
[201.505]
<no-speech> 
[203.135]
<no-speech> 
[204.035]
<no-speech> 
[205.165]
<no-speech> 
[210.385]
<no-speech> 
[212.005]
<no-speech> 
[214.475]
<no-speech> 
[215.415]
<no-speech> n ʊ b a s e n ʃ a l l a b j ɑ b ə ʦ ə m ɑ ɾ ʧ k x e w ə k ɽ o k ə ʦ a ŋ g a <int> 
[224.235]
<no-speech> 
[225.345]
<no-speech> ʤ ɑ b l ə p ɑ ɾ a x o k o x ə x k a w ʊ 
[229.565]
<no-speech> 
[230.375]
<no-speech> 
[231.125]
<no-speech> 
[232.065]
<no-speech> 
[232.545]
<no-speech> 
[234.025]
h o <no-speech> 
[235.815]
<no-speech> 
[236.755]
<no-speech> 
[237.555]
<no-speech> 
[238.735]
<no-speech> 
[239.615]
<no-speech> 
[248.465]
<no-speech> 
[249.205]
<no-speech> 
[250.615]
d ɑ x a b ə ɾ a x o d ə b e l k ʊ l 
[252.175]
<no-speech> 
[253.765]
s a h ɪ h p o h n ə ʃ w a m 
[254.735]
<no-speech> 
[258.715]
s a h ɪ h 
[259.174875]
<no-speech> 
[262.055]
<no-speech> 
[262.715]
<no-speech> 
[266.235]
s e h ɪ d ə 
[267.135]
<no-speech> 
[270.095]
<no-speech> 
[270.445]
<no-speech> 
[271.265]
<no-speech> 
[271.615]
<no-speech> 
[273.805]
h o h o w ɾ ə z 
[274.735]
<no-speech> 
[277.925]
<no-speech> 
[278.275]
<no-speech> 
[279.645]
<no-speech> 
[280.055]
<no-speech> 
[282.295]
d ɑ x a b ə ɾ a x o 
[283.245]
<no-speech> 
[286.375]
k e t ɑ b ʊ n a b ə x o d ɑ s e d ɑ p ʊ l ʈ ɾ ɪ w ɑ l ɑ k a w ʊ <breath> d ɑ ʧ e k a w ə m d ɪ d ɑ <hes> ɖ ɑ j ʤ e s ʈ m ʊ ɖ e ɾ ʃ a w q n a ʃ t a d a j b ɑ z e k a w ə m d a j d ə ʃ ɑ e ɾ ə j k e t ɑ b ʊ n a ʧ e k a w ə m d a j <breath> g o ɾ ə m a w b a s 
[297.935]
n ʊ d ɑ n ɑ w ə l e ʃ w e a f s ɑ n e b a s d ɑ ʦ ɪ z ʊ n a g o ɾ o <no-speech> <hes> 
[302.705]
<no-speech> 
[304.425]
<no-speech> 
[313.055]
<no-speech> 
[316.805]
<no-speech> h o h o <no-speech> n ə z ə x o <foreign> g o ɾ ə m k ə n ə <no-speech> x ə <foreign> ʃ ʊ a f s ɑ n e ʃ w e 
[328.325]
d ɑ x o g o ɾ o k ə n ə <no-speech> h o 
[330.865]
<no-speech> 
[333.875]
<no-speech> 
[334.845]
<no-speech> 
[337.185]
d a ɣ a x o <int> h o h o h a w ɑ h a m x ə <hes> h a w ɑ x o h a m x ə z a b a ɾ d a s t a l a g e ʐ ɪ 
[348.895]
<hes> <no-speech> ɖ e ɾ z a b a ɾ d a s t ʃ w a j d a j 
[354.775]
<no-speech> 
[355.935]
h o k ə n ə 
[357.085]
<no-speech> 
[359.665]
h o d a ɣ a d a ɣ a l t a m a t l a b ʦ a ŋ g a d ɪ 
[363.505]
<no-speech> 
[364.925]
<no-speech> 
[365.385]
<no-speech> 
[366.595]
x ə <no-speech> x ə 
[368.715]
<no-speech> 
[372.915]
<no-speech> 
[374.015]
<no-speech> 
[379.405]
<no-speech> 
[381.005]
<no-speech> 
[382.485]
<no-speech> h o <no-speech> s a h ɪ h d ə 
[385.695]
<no-speech> 
[388.945]
<no-speech> 
[390.075]
<no-speech> 
[391.425]
<no-speech> 
[391.795]
<no-speech> 
[392.945]
<no-speech> 
[393.325]
<no-speech> 
[394.605]
<no-speech> 
[396.085]
<no-speech> 
[401.475]
h o h o d ɑ x o d ə 
[403.405]
<no-speech> 
[404.975]
<no-speech> 
[405.445]
<no-speech> 
[406.945]
<no-speech> 
[407.405]
<no-speech> 
[410.515]
h o d ɑ x a b ə ɾ a x o 
[411.695]
<no-speech> 
[412.835]
<no-speech> 
[413.985]
<no-speech> 
[416.905]
<no-speech> 
[420.625]
<no-speech> 
[421.685]
d a ɣ a x a b ə ɾ a x o d ə ɖ e ɾ 
[423.295]
<no-speech> 
[424.345]
<hes> d e k x e x o s ʈ a ɖ ɪ d e m o s a m k x e x o s ʈ a ɖ ɪ x ə z a b a ɾ d a s t a k e ʐ ɪ <sta> 
[429.435]
<no-speech> 
[431.175]
<no-speech> 
[432.295]
<no-speech> 
[434.915]
<no-speech> h o h o h o 
[439.235]
<no-speech> 
[440.355]
x ə b e l k ʊ l 
[441.085]
<no-speech> 
[448.03]
<no-speech> 
[454.975]
n ə n ə k ɑ ɾ n ə z ə x o t a q ɾ ɪ b a n ʧ e ɾ ɑ z ə m l ə k ɑ l e ʤ n ə b a s d a ɣ a e k b a ʤ e b a s ʧ ʊ ʈ ɪ ʃ ɪ b j ɑ ʧ e k a w ə m d a j k l ɑ s ʊ n a x a t ə m ʃ ɪ k ə n ə b j ɑ ʧ e k a w ə m d a j l m ʊ n z l m ʊ n z k a w ʊ d ɑ w ɾ ə z e x o d ʊ m ɾ a ʊ ʝ d e ʃ w e n ə d ɪ k ə n ə ʧ e x a l k p ə k x e k a w ə m d a j ʧ e ɾ t a 
[466.845]
x o b w ə k ɽ ɪ ʦ ə ɑ ɾ ɑ m p ə k x e w ə k ɽ ɪ p o h ʃ w e n ʊ ʧ e b j ɑ l m ʊ n z l m ʊ n z k a w ɪ s a ɽ a j ʧ e k a w ə m d a j ɾ ʊ ʈ ə j m ʊ ʈ ə j w ə x w ɾ ɪ b j ɑ d a ɣ a d ə m ɑ z ɪ g a ɾ ʈ ɑ j m w ɪ a w ʧ e d ə m ɑ z ɪ g a ɾ l m ʊ n z ʧ e k a w e k a w e n ʊ h a ɣ e k x e d ə m ɑ x ɑ m w ə ɾ a ɣ l a j w ɪ p o h ʃ w e n ʊ b a s 
[478.775]
d a ɣ a w ɾ ə z e d ɪ a w d ɑ h o 
[481.525]
<no-speech> 
[482.665]

[484.435]
<no-speech> 
[487.325]
<no-speech> 
[488.535]
<no-speech> 
[495.125]
<no-speech> 
[501.715]
<no-speech> h o b e l k ʊ l b e l k ʊ l b e l k ʊ l d ɑ s a m p ə s e w a ɾ ɖ ʊ b ʃ ə w ɪ d ɪ 
[506.735]
<no-speech> 
[507.965]
<no-speech> 
[508.965]
<no-speech> 
[509.995]
<no-speech> 
[510.515]
<no-speech> 
[521.985]
<no-speech> 
[522.425]
<no-speech> 
[524.335]
<no-speech> 
[525.435]
<no-speech> 
[528.585]
<no-speech> 
[529.045]
<no-speech> 
[531.845]
<no-speech> 
[532.745]
<no-speech> 
[535.005]
h o h o <no-speech> h o h o h o <no-speech> b e l k ʊ l 
[545.335]
<no-speech> 
[546.565]
s a h ɪ h ʃ ʊ 
[547.875]
<no-speech> 
[549.595]
<no-speech> 
[550.085]
<no-speech> 
[551.635]
<no-speech> h o <int> s e h ɪ d ə <int> h o h o 
[563.045]
<no-speech> 
[563.915]
<no-speech> h o b e l k ʊ l n ʊ ɾ d a ɣ a d a j d ɑ s e k ɑ ɾ w o d a j <hes> ɾ ɑ ɾ a w ɑ n d a ɣ a l ə ʧ e k a w ə m d a j <hes> k ɑ l e ʤ k x e k a w ə m ʧ e d a j p ɾ o g ɾ ɑ m d a j ɾ ɑ ɾ a w ɑ n j a k a m t ɑ ɾ ɪ x l ə h o 
[575.425]
<no-speech> 
[578.485]
<no-speech> m ʊ ʐ x o ʧ e k a w ə m d a j t a j ɑ ɾ j ɑ n e 
[581.905]
<no-speech> 
[582.705]
ʧ e l ə ʐ ɖ e ɾ x o m ʊ ʃ ʊ ɾ o k ɽ ɪ w a ɾ t ə <no-speech> h o <no-speech> h o 
[587.205]
<no-speech> 
[589.455]
<sta> t ə w a ɾ t ə z ə n ə a x l ə m 
[592.975]
<no-speech> 
[593.795]
z ə p ə k x e h e s a h o h o z ə p ə k x e h e s a n ə a x l ə m <no-speech> ʦ a ŋ g a 
[600.135]
<no-speech> 
[600.16]
