[0.0]
<no-speech> 
[0.565]
<no-speech> 
[3.575]
a s s a l ɑ m a l a j k ʊ m 
[4.425]
<no-speech> 
[9.025]
x ə j ʊ ʃ ʊ k ə ɾ t ɑ s o ʦ a ŋ g a j e <sta> 
[11.155]
<no-speech> 
[12.225]
<no-speech> 
[13.745]
<no-speech> 
[14.825]
<no-speech> ʦ a ŋ g a j e 
[17.775]
<no-speech> 
[20.835]
<no-speech> 
[21.235]
<no-speech> 
[22.155]
<no-speech> 
[22.695]
<no-speech> 
[24.385]
<no-speech> m o ɾ k a ɾ a j ə m 
[25.405]
<no-speech> 
[26.955]
l ə ʐ m ə x k e ɾ ɑ ɣ l ə l o d ə l t ə 
[28.275]
<no-speech> 
[29.365]
n ə d ɑ d a j h a l t a d a j o s m e w ə k ʊ t 
[31.155]
<no-speech> 
[33.925]
n ə d ɑ d ə l t ə d a j ɪ l a x o p a ɾ ʊ n ɾ ɑ ɣ l e w o 
[36.785]
<no-speech> 
[41.085]
ʦ a ŋ g a 
[41.795]
<no-speech> 
[44.645]
<no-speech> h o 
[45.345]
<no-speech> 
[48.135]
<no-speech> ʦ a ŋ g a d ə 
[48.925]
<no-speech> 
[50.395]
ʦ a ŋ g a 
[51.085]
<no-speech> 
[53.925]
h o o s j ʊ z ɑ j ɾ ɑ ɣ l o l ə ʐ m ə x k e 
[56.255]
<no-speech> 
[60.775]
h o d ɑ ɑ ɾ z o b j ɑ m a k t a b t ə t l ə l k ə n ə n ʊ p a ɾ ʊ n ɑ b ɑ d ɾ ɑ ɣ a j n ə n m ʊ ʐ ɾ ɑ ɣ l o 
[65.294875]
<no-speech> 
[66.795]
t ɑ s a ɾ a d ə k a m a d ɑ s e s ə l w a ɾ z ɪ x a b ə ɾ e n ə w ɪ k ɽ e p a ɾ ʊ n m e x a b ə ɾ e n ə w ɪ k ɽ e 
[70.265]
<no-speech> 
[73.795]
x ə j ə m ʃ ʊ k ə ɾ t ɑ s o ʦ a ŋ g a j a j 
[75.355]
<no-speech> 
[79.585]
b a s z m ɑ h a m j ɑ d e ʐ ɪ k ə n ə <no-speech> 
[82.245]
<no-speech> 
[83.765]
<no-speech> b a s t ə d ə ʧ ɑ p ʊ x t ə n a n ə k a w ɪ k ə n ə <breath> x ə d a j 
[87.105]
<no-speech> 
[92.065]
<breath> w a l e n ə o s a p o ɾ e ɣ e ʐ k x e w o 
[94.075]
<no-speech> 
[95.265]
w ɑ j ɪ m ɑ ʃ ɑ l l a w ɑ j ɪ l m a s ɪ m e w ɑ j ɪ ʈ o l x ɑ j s t a d ɪ 
[98.395]
<no-speech> 
[99.525]
<no-speech> 
[102.075]
<no-speech> 
[103.345]
x ə <laugh> h a ɾ ʧ ɑ t ə x p ə l w a t a n k a ʃ m ɪ ɾ d a j <laugh> 
[107.765]
<no-speech> 
[109.055]
b a s t ɑ p ə s e x a f a ʃ w e w ə m k ə n ə 
[111.025]
<no-speech> 
[113.725]
b a s t ɑ p ə s e x a f a ʃ w e w ə m k ə n ə 
[115.865]
<no-speech> 
[119.785]
n ʊ k ɑ ɾ ɖ ʊ n a n a ʃ t a k ə n ə b e l ə n s n a ʃ t a k ə n ə q ɑ j d ɑ z a m w ə w a j ə l x ə d a j x ə d a j k ə x a j ɾ d a j 
[127.915]
<no-speech> 
[131.185]
n ʊ x ə s a h ɪ h d ə 
[132.545]
<no-speech> 
[135.215]
n ə s a h ɪ h d ə n ə x a f a k e ʐ ə m o s d ə q ɑ j d ɑ z a m j ʊ d w a d ɑ n e k ɑ ʈ ʊ n a ɾ ɑ w ɽ ə l d ə m ɑ m ɑ d ʊ j n ə m e h a ɣ e k x e h a m j ʊ s a h ɪ h w ə x a t ə l o j ʊ n ə h a ɣ e t ə d ɑ s e x o ʃ h ɑ l a ʃ ʊ l a k a ʤ a n a t z ɪ ɾ e ʧ e ɾ ɑ b ɑ n d e ʃ w e w ɪ 
[145.905]
<no-speech> 
[150.745]
<no-speech> 
[151.115]
<no-speech> 
[153.415]
x ə 
[153.955]
<no-speech> 
[155.865]
l a s ə m t ə 
[156.795]
<no-speech> 
[165.475]
<no-speech> 
[166.275]
<no-speech> 
[170.925]
x ə n ə n q a n d ɪ g ʊ l z a ŋ g w a h a l a j w o w ɑ j ɪ b j ɑ t ɑ s o j e j ɑ d a w ə l ə j w ɑ j ɪ d ə t ə w ə w ɑ j a ʧ e d a ɣ a m ɑ t ə z ɑ n s a ɾ a l ə ʐ q ʊ ɾ t ɾ ɑ w ɽ ɪ m ɑ w a ɾ t ə w ə w a j ə l m ɑ w a j ə l ʤ a l ɑ l ɑ b ɑ d k x e x o w ɑ l l a k ə s a m q ʊ ɾ t b ə w ɪ k ə n ə w ɪ <hes> h a ɣ ə b j ɑ 
[182.755]
k ə ʧ e ɾ t a s a m a n g ɑ n o t a ɾ a f t ə w l ɑ ɽ ə l o m ɑ w a j ə l b j ɑ b ə j e d ə ɾ t ə h a ɣ e z ɑ j n ə ɾ ɑ w ɽ ɪ m ɑ w a j ə l z ə b ə w a ɾ t ə w ə w ɑ j ə m 
[188.115]
<no-speech> 
[190.115]
<no-speech> d ɑ s a h ɪ h 
[191.015]
<no-speech> 
[193.015]
h o s a h ɪ h d ə d a ɣ a l t a j ə m k ə d a ɣ a l t a j e b j ɑ w a ɾ t ə ɾ ɑ w a ɽ a h a ɣ e b j ɑ w ə m a n ə l w ɑ j ɪ s a h ɪ h d ə m ʊ m ɑ w a j ə l z a x w a x a m e d ə d e b ə z ə w ə w ɑ j ə m s t ɑ t a ɾ a f n ə 
[201.215]
<no-speech> 
[204.495]
n ə ʧ e x ə j e w a ɾ t ə ɾ ɑ w a ɽ a ʧ e x ə n ə w ɪ b j ɑ w a ɾ t ə m ə ɾ ɑ w a ɽ a 
[207.185]
<no-speech> 
[209.675]
z a s a h ɪ h d ə n ʊ x p ə l a d e x ə j e 
[211.295]
<no-speech> 
[214.905]
<no-speech> 
[215.285]
<no-speech> 
[220.335]
x ə s a h ɪ h d ə 
[221.555]
<no-speech> 
[222.375]
x ə s a h ɪ h d ə z ɑ n x j ɑ l d e s ɑ t a b j ɑ ʧ e k ə l ə 
[225.345]
<no-speech> 
[231.955]
w a l e ʧ e z ə x o k ɑ b ə l k x e s a b ɑ ɾ ɑ z ɪ z ə ɾ 
[234.175]
<no-speech> 
[244.875]
a w k ə b j ɑ d a ɣ a ʃ ʊ d ɑ k ə z ə k ɑ b ə l k x e w ə m 
[247.295]
<no-speech> 
[250.245]
k ə z ə k ɑ b ə l k x e w ə m 
[251.345]
<no-speech> 
[258.814875]
n ə w ɑ j ɪ d e t a ɾ a f t ə d a j 
[260.455]
<no-speech> 
[262.735]
ʦ ə m a t l a b h o a w ə l m <oov> d ə d e t a ɾ a f n ə z ɪ a w ə l s a m a n g ɑ n ɾ ɑ z ɪ b j ɑ m a z ɑ ɾ ɾ ɑ z ɪ 
[267.655]
<no-speech> 
[274.025]
w ɑ l l a k ə p o h e ʐ ə m ʦ ə x a b a ɾ j ə m m ɑ x o n ə d a j l ɪ d ə l a j x o b ɑ ʤ e w ə w a j ə l ʧ e d a ɣ a <hes> a w ə l b ə m ɑ d ə d e t a ɾ a f a ʧ e z ɪ n ʊ a w ə l s a m a n g ɑ n ɾ ɑ z ɪ m ə x e t ə b j ɑ m a z ɑ ɾ ɾ ɑ z ɪ 
[284.185]
<no-speech> 
[289.225]
x ə k e d ɑ j ʃ e z ə s a b ɑ e n ʃ a l l ɑ k o ɾ w l ɑ ɽ a ʃ ə m b ɪ ɾ t a 
[291.965]
<no-speech> 
[294.365]
n ʊ b a s <no-speech> n ʊ b a s k ə q ɑ j d ɑ z a m s a ɾ a w l ɑ ɽ ə m a w k ə a n w a ɾ s a ɾ a b j ɑ w l ɑ ɽ ə m n ə n s ɑ ʤ e d a z a ŋ g w a h a l a j w o 
[301.965]
<no-speech> 
[303.145]
n ə l ɑ n ə m e d e a x ɪ s t e 
[304.695]
<no-speech> 
[308.185]
h o w a ɾ t ə m ʊ w ɪ l ɪ d ɪ m ɑ w a j ə l ʧ e k ə l ə z ə m d ə l t ə x o m e n ə p ə k ɑ ɾ k e ʐ ɪ m ɑ w a j ə l ʧ e b j ɑ z ə m b j ɑ b ə j e d ə ɾ n ə w ɑ x l ə m w ɑ j ɪ s a h ɪ h d ə 
[313.025]
<no-speech> 
[317.645]
x ə z a g o ɾ ə m d ɑ z m ɑ k ɑ ɾ d a j b j ɑ 
[319.395]
<no-speech> 
[320.395]
k ə ɖ e ɾ e m e b j ɑ w ɑ x e s t ə l o 
[321.735]
<no-speech> 
[322.745]
<laugh> x o h a ɣ ə z m ɑ k ɑ ɾ d a j k ə ɖ e ɾ e m e t ɾ e w ɑ x e s t ə l o k ə l a ʐ e <laugh> ʦ a ŋ g a 
[334.575]
<no-speech> 
[334.975]
<no-speech> 
[336.275]
<no-speech> 
[336.855]
<no-speech> 
[340.195]
<laugh> n ə ɖ e ɾ e t ɾ e n a a x l ə m k a m e t ɾ e n a a x l ə m 
[343.185]
<no-speech> 
[344.725]
d w a z ə ɾ a h a m t ɾ e n a a x l a 
[345.905]
<no-speech> 
[352.45]
<no-speech> 
[358.995]
x ə z a s a h ɪ h d ə 
[360.245]
<no-speech> 
[366.965]
x ə s a h ɪ h d ə w ɑ b ə x l ə m 
[368.315]
<no-speech> 
[369.725]
x ə n ʊ ɾ t ɾ ʊ n a d e x ə d ɪ 
[371.085]
<no-speech> 
[372.615]
x ə z a s a h ɪ h d ə n ə n ʊ b j ɑ s ɑ ʤ e d a z a ŋ g w a h a l a j w o m ɑ w a ɾ t ə m e s e ʤ w ə k ɽ o m ɑ w a j ə l b e g ɑ m e x o b l e d ə l o ʧ e n a s ɪ ɾ ɾ ɑ ɣ l a j w ɪ b j ɑ h a ɣ e h a m z a ŋ g w a h a l o ʧ e m ɑ h a m x o b w ə l ɪ d e ʧ e n a s ɪ ɾ ɾ ɑ ɣ l a j w ɪ <breath> w ɑ j ɪ d ɑ ɾ ɑ z ɪ 
[383.935]
b ə n ʊ b j ɑ ɖ e ɖ e ɾ a x o ʃ h ɑ l a w ə w ɑ j ɪ t ə k ə l ə z ɪ k o ɾ t ə m ɑ w a j ə l z ə b ə s a b ɑ j ɑ b ə l ə w ɾ ə z ɾ ɑ ʃ ə m <breath> w ɑ j ɪ x ə z a s a h ɪ h d ə w ɑ j ɪ b j ɑ b ə j ʊ z ɑ j x a b ə ɾ e k a w ɪ ʧ e ʦ a ŋ g a j ʊ z ɑ j ɾ ɑ ɣ l a j w ɑ j ɪ z ə b ə n ə n w l ɑ ɽ a ʃ ə m t ə s a b ɑ ɾ ɑ ʃ ə m ɑ w a j ə l s a h ɪ h d ə <laugh> 
[395.825]
n ʊ w ɑ j ɪ k ə t ə n ə t l ə l e w ɑ j ɪ b j ɑ z ə h a m n ə z ə m <laugh> w ɑ j ɪ k ə t ə n ə t l ə l e z ə h a m n ə z ə m w ɑ j ɪ k ə t ə b j ɑ z ɪ b j ɑ m ɑ t ə w ə w ɑ j a ʧ e z ə w l ɑ ɽ a ʃ ə m w ɑ j ɪ k ə t ə s a b ɑ n ə ɾ ɑ z ɪ b j ɑ m ɑ t ə w ə w ɑ j a b j ɑ z ə h a m j ʊ ʦ o w a ɾ z ɪ m ɑ t ə l k e ʐ ə m m ɑ w a j ə l n ə z ə s a b ɑ z ə m w ɑ j ɪ x ə 
[407.325]
z a z ə b ə n ə n w l ɑ ɽ a ʃ ə m w ɑ j ɪ m a n s ʊ ɾ h a m ɾ ɑ ɣ l a j 
[409.665]
<no-speech> 
[412.495]
m a n s ʊ ɾ h a m w ɑ j ɪ ɾ ɑ ɣ l a j d a j 
[414.085]
<no-speech> 
[416.875]
<hes> ʤ ɑ w ɪ d h a m k o ɾ k x e d a j m a n s ʊ ɾ h a m ɾ ɑ ɣ l a j 
[419.915]
<no-speech> 
[424.645]
x ə z a s a h ɪ h x ə z a b a s ʧ e k ə l ə m ɑ s a ɾ a k ɑ ʈ a w ɪ b j ɑ z ə d ə ɾ t ə z a ŋ g h a m ʧ e k ə l ə n ə w o b a s b j ɑ m ɪ s k ɑ l d ə ɾ k a w ə m 
[430.705]
<no-speech> 
[433.145]
<no-speech> 
[433.545]
<no-speech> 
[439.585]
<no-speech> 
[440.175]
<no-speech> 
[447.225]
<no-speech> 
[447.735]
<no-speech> 
[453.245]
x ə 
[453.895]
<no-speech> 
[461.605]
n ʊ t ɑ t ə ʦ a ŋ g a x k ɑ ɾ e ʧ e x ə p ɾ e w ə z ɪ k ə g ɾ ɑ n 
[464.225]
<no-speech> 
[472.105]
<no-speech> 
[479.985]
x ə s a h ɪ h d ə 
[481.005]
<no-speech> 
[483.475]
x ə s a h ɪ h d ə b j ɑ ɾ ɑ w a ɽ a k ə d ə ɾ 
[484.955]
<no-speech> 
[489.255]
x ə s a h ɪ h d ə a w k ə p ə l ɑ ɾ a d ə ɾ t ə t a k l ɪ f n ə w ɪ 
[491.825]
<no-speech> 
[492.835]
<laugh> x ə x p ə l a d e d ə l ɑ s a k ɑ ɾ n ə k e ʐ ɪ b j ɑ m ɑ t ə w ɑ j ɪ ʧ e s t ɑ d ə l ɑ s a n ə k e ʐ ɪ 
[500.125]
<no-speech> 
[501.165]
<no-speech> 
[501.525]
<no-speech> 
[503.345]
<breath> x ə s a h ɪ h d ə t ɑ s o ʧ e p ə x a j ɾ ɾ ɑ ʃ a j b a s d a j k ə n ə 
[506.235]
<no-speech> 
[507.205]
<no-speech> 
[507.645]
<no-speech> 
[509.645]
<laugh> n ə ʧ e t ə ɾ ɑ ʃ ɪ k ə l ə d e ɾ ɑ t ə k ə l ə ʦ ə n ə d ɪ w ɪ l ɪ t ɑ m ɑ t ə k ə l ə w ɪ l ɪ d ɪ ʦ ə 
[515.405]
<no-speech> 
[518.925]
h a ɾ w a x t d e ɾ ɑ t ə h e ʦ n ə d ɪ w ɪ l ɪ z m ɑ ʦ ə h a m n ə d ɪ j ɑ d b a ɣ a j ɾ s t ɑ d ə m ɪ n e n ə 
[522.425]
<no-speech> 
[523.245]
<no-speech> 
[523.725]
<no-speech> 
[527.925]
h o j ʊ ʦ a l o ɾ p e n z ə ʃ p e b ə w ɪ m ʊ ʐ w a ɾ s a ɾ a ɑ b ɑ d s a ɾ a m e l ɑ s a m e x a b ə ɾ e o s a p o ɾ e n ə d ɪ k ɽ e ʧ e ɾ ɑ ɣ l e j ə m b e ʤ l ɪ n a ʃ t a t a j ɑ ɾ a t a j ɑ ɾ a d ə h e ʦ m e l ɪ d ə l a j s a m n ə d a j 
[537.035]
<no-speech> 
[540.355]
b a s o s ɾ ɑ ʃ ɪ n ʊ 
[541.615]
<no-speech> 
[544.805]
x ə s a h ɪ h d ə z a k ə t ə p ə x a j ɾ k o ɾ a p o ɾ e ɾ ɑ ɣ ə l ɪ ʧ e z ə ɾ ɑ ɣ l ə m s a h ɪ h d ə b a n d e ʐ ɪ b j ɑ d ə x ʊ d ɑ j p ə a m ɑ n 
[551.195]
<no-speech> 
[554.375]
<no-speech> 
[554.965]
<no-speech> 
[556.625]
z ə ɾ z ə ɾ w ɑ j a 
[557.405]
<no-speech> 
[561.435]
h o s e h ɪ s a h ɪ h d ə h o 
[563.895]
<no-speech> 
[565.195]
z ə b ə t ɑ t ə w ɑ x l ə m 
[566.425]
<no-speech> 
[567.735]
<no-speech> h o 
[568.375]
<no-speech> 
[571.145]
<no-speech> 
[572.065]
<no-speech> 
[573.965]
x ə s a h ɪ h d ə s a h ɑ ɾ k x e ɾ ɑ w ə x a t ə l n ə n ə j e ʧ ɪ t a w ɪ z a z ə x o j ə m k ə n ə 
[578.835]
<no-speech> 
[580.735]
ʧ e k o ɾ t ə w l ɑ ɽ a ʃ ə m b j ɑ n ə m ɑ ʃ ɑ l l a x ə d a j 
[584.405]
<no-speech> 
[585.775]
x ə ʃ w a j d a j 
[586.765]
<no-speech> 
[588.395]
m ɑ t ə x o ɣ a z a l a x k ɑ ɾ ɪ 
[590.125]
<no-speech> 
[593.015]
n ə j a x h a m ɖ e ɾ n ə d a j o s k a m ʃ w a j d a j ɖ e ɾ j a x m ə x k e n ə 
[596.245]
<no-speech> 
[599.86]
