[0.0]
<no-speech> 
[0.765]
<no-speech> 
[1.125]
<no-speech> 
[3.305]
<no-speech> a s s a l ɑ m a l a j k ʊ m 
[5.085]
<no-speech> 
[8.785]
ʦ a ŋ g a j e 
[9.355]
<no-speech> 
[11.935]
a s s a l ɑ m a l a j k ʊ m a s s a l ɑ m a l a j k ʊ m 
[13.555]
<no-speech> 
[16.375]
x ə j ʊ t ɑ s o ʦ a ŋ g a j a j x ə j a j 
[18.005]
<no-speech> 
[22.595]
x ə d a j a l h a m d ʊ l e l l a h t ɑ s o ʦ a ŋ g a j a j x ɑ l a ʦ a ŋ g a d ə x ə d ə 
[25.745]
<no-speech> 
[28.375]
n ʊ ɾ m ɑ ʃ ʊ m ɑ n ʦ a ŋ g a 
[29.245]
<no-speech> 
[30.795]

[31.215]
<no-speech> 
[32.765]
s t ɑ s o d e m ʊ b ɑ ɾ a k w ɪ x a j ɾ m ʊ b ɑ ɾ a k 
[35.055]
<no-speech> 
[38.075]
b a s n ʊ m b ə t ɑ s o ɾ ɑ l ə p a j d ɑ k ɽ ə j <laugh> 
[41.325]
<no-speech> 
[42.935]
h o 
[43.505]
<no-speech> 
[46.785]
h e s n ə n ʊ h e s n ə x o j ʊ d ə <laugh> e d ɾ ɪ s x o ɾ d ə 
[51.915]
<no-speech> 
[54.715]
h o k ə n ə 
[55.645]
<no-speech> 
[59.005]
ʦ ə ʃ a j 
[59.575]
<no-speech> 
[62.175]
<hes> ʦ ə x a b a ɾ w ə b a j e g o ɾ ʊ n ʊ <breath> 
[65.005]
<no-speech> 
[66.115]
<no-speech> 
[66.845]
<no-speech> 
[68.915]
n ə l ɑ n ʊ m ʊ n o m ʊ ʦ ə m ʊ n ə d ɪ w ɪ l ɪ l ɑ x o a w ə l ə w ɾ ə z d ə <laugh> 
[73.145]
<no-speech> 
[78.695]
n ə m ʊ ʐ t ə ʦ ə p a t a w ə <laugh> 
[80.545]
<no-speech> 
[82.325]
n ə k ə n ə <laugh> ʧ e x a b a ɾ w o n ʊ b j ɑ b ə m ʊ k a t ə l <laugh> 
[86.415]
<no-speech> 
[87.325]
<no-speech> 
[87.675]
<no-speech> 
[90.365]
x ə n ə ʧ e m ʊ ʐ x a b a ɾ w o b j ɑ t ɑ s o h a m x a b ɾ e d ə j 
[92.985]
<no-speech> 
[95.305]
<no-speech> 
[95.965]
<no-speech> 
[100.475]
h o <laugh> n ʊ d a ɣ a w a j ə l k ə n ə x ɑ l a m o ɾ t ə m e m o ɾ m e w a j ə l m ʊ ʐ h a l ə k a w ʤ ɪ n ə j p ə s e n ə j ʊ b a s s e ɾ f z ɑ n k a w ʊ <laugh> 
[109.825]
<no-speech> 
[116.595]
b a s <oov> 
[117.275]
<no-speech> 
[118.275]
ʦ a ŋ g a 
[118.815]
<no-speech> 
[122.725]
z m ʊ ʐ d ə ʤ a w e ɾ j ɑ t a j ɑ ɾ ɪ w ə h o <laugh> n ʊ ɾ m ʊ ʦ ə n ə w o k ɽ ɪ h o <laugh> 
[129.355]
<no-speech> 
[130.695]
<no-speech> 
[131.185]
<no-speech> 
[133.105]
<no-speech> 
[133.885]
<no-speech> 
[135.125]
h o k ə n ə <laugh> 
[136.115]
<no-speech> 
[137.255]
<no-speech> x ə <no-speech> n ʊ ɾ <laugh> 
[140.785]
<no-speech> 
[143.105]
n ə m ɪ l m ɑ n a m ʊ ʦ o k n ə d ɪ ɾ ɑ ɣ ə l ɪ l ɑ 
[145.275]
<no-speech> 
[148.565]
<no-speech> 
[149.115]
<no-speech> 
[150.875]
h o <laugh> x a ʈ e x a ʈ e ʦ o k b ə n ə ɾ ɑ z ɪ w a l e ʧ e w ə n a ɣ o ɾ z e ʝ ɪ <laugh> 
[158.145]
<no-speech> 
[159.345]
m ʊ b ɑ ɾ a k ə j k x e d ə ʧ ɑ p x a m ɑ t ə n ə ʃ ɪ <laugh> 
[164.215]
<no-speech> 
[167.745]
x ə x ə x t e h a m d ʊ m ɾ a ɖ e ɾ e n ə ʃ t a ʤ a ɣ a l h a m n ə ʃ t a <laugh> 
[171.345]
<no-speech> 
[172.455]
<no-speech> 
[172.805]
<no-speech> 
[175.615]
h o k ə n ə x ə d ə ʧ e d ɑ x a ʈ e m a ʈ e w ə ʧ e ʃ ɪ n ʊ b j ɑ d e ɾ ɑ z ɪ 
[179.585]
<no-speech> 
[180.465]
<no-speech> 
[181.685]
<no-speech> 
[183.485]
ʦ a ŋ g a 
[184.035]
<no-speech> 
[187.555]
z a ɽ e 
[188.395]
<no-speech> 
[191.625]
n ə z a ɽ e ʐ ɪ x a j ɾ d a j <laugh> w ɪ d e 
[194.265]
<no-speech> 
[195.275]
<no-speech> 
[196.125]
<no-speech> 
[197.215]
<no-speech> 
[197.575]
<no-speech> 
[200.025]
x ə ɖ e ɾ g a ɾ m ɪ d ə <no-speech> a w t ɑ s o b ə k ə l ə ɾ ɑ z e <laugh> 
[204.955]
<no-speech> 
[210.045]
ʧ e ɾ t a k o z d ə n d ə b j ɑ 
[211.355]
<no-speech> 
[216.585]
x ə <no-speech> n ʊ k ə l ə b ə z ə j h a l t a 
[219.615]
<no-speech> 
[220.985]
<no-speech> 
[221.365]
<no-speech> 
[222.225]
x ə e t w ɑ ɾ p ə w ɾ ə z k o z d ə n d ə a w n ʊ s a b ɑ l ə x o s a m d e s t ɪ d ə l t ə h a m n ə ʃ a j ɾ ɑ t l ɑ j 
[227.365]
<no-speech> 
[228.235]
<no-speech> 
[229.005]
<no-speech> 
[231.175]
h o 
[231.705]
<no-speech> 
[232.735]
h o k ə n ə j ʊ ʦ o ʃ p e x o b ə k a w ɪ <laugh> 
[235.895]
<no-speech> 
[240.545]
<no-speech> ʦ a ŋ g a 
[242.385]
<no-speech> 
[245.785]
x ə b a s z ɑ n f ɑ ɾ e ɣ k ɽ a n ʊ z ɑ n f ɑ ɾ e ɣ k ɽ a <laugh> ʧ ʊ ʈ j ɑ n e 
[252.915]
<no-speech> 
[255.895]
b a s ʧ ʊ ʈ j ɑ n e ʧ e n ʊ b j ɑ z ɑ n ɾ ɑ w ə b ɑ s a <laugh> 
[258.804875]
<no-speech> 
[260.535]
<no-speech> 
[260.945]
<no-speech> 
[264.095]
h o ʧ ʊ ʈ j ɑ n e x o d e ɖ e ɾ e t e ɾ e ʃ w e x o p a t a m ʊ n ə l a g e ʐ ɪ p a t a n ə l a g e ʐ ɪ ʧ e ʦ ə w a ʤ a d ə <laugh> 
[268.685]
<no-speech> 
[269.505]
<no-speech> 
[269.995]
<no-speech> 
[272.525]
h o k ə n ə k ə s t ɑ s o ʧ ʊ ʈ j ɑ n e h a m w ɪ n ʊ d ə ɾ ɑ t a g w ɑ l ɑ ʧ ʊ ʈ j ɑ n e n ə w ɪ <laugh> 
[277.095]
<no-speech> 
[279.535]
<laugh> h o 
[282.775]
<no-speech> 
[284.185]
<no-speech> 
[284.715]
<no-speech> 
[286.935]
ʦ a ŋ g a 
[287.715]
<no-speech> 
[290.715]
h o k ə n ə <laugh> ʧ e ɾ t a b ə w l ɑ ɽ ʃ a j n ʊ q ɑ z ɪ k ɑ k ɑ d a j h a l t a b ə z ə j n ʊ 
[295.085]
<no-speech> 
[296.025]
<no-speech> 
[296.455]
<no-speech> 
[297.825]
q ɑ z ɪ k ɑ k ɑ d ʊ j k a ɾ a <laugh> 
[299.975]
<no-speech> 
[303.465]
h o h o w a l e o s ʧ e m ʊ n e ʝ d e x p ə l w ɑ n ʃ ʊ n ə z ə j <breath> 
[306.615]
<no-speech> 
[311.185]
<no-speech> x ə h o k ə n ə s t ɑ s o m ɪ l m ɑ n a d ɪ 
[314.265]
<no-speech> 
[319.705]
h o k ə n ə k ɑ ɾ p ə k x e d ʊ m ɾ a n ə k e ʐ ɪ x ə d a j o s x o l ɑ w ɾ ə z e l a ʐ e ɣ a ʈ e ʃ w e 
[324.445]
<no-speech> 
[326.465]
m ə x k e b ə ɖ e ɾ e w ə j 
[327.625]
<no-speech> 
[328.585]
a w ʃ p e l a n ɖ e ʃ w e m ʊ ʐ b ə ʧ e m a d ɾ a s a ʧ ʊ ʈ ɪ k ɽ a ʧ ʊ ʈ ɪ ʃ w e b ə l ɑ n ə w ə ʧ e m ɑ z d ɪ g a ɾ ɑ z ɑ n b ə j e w ɪ l o 
[333.615]
<no-speech> 
[337.045]
h o m ɑ z d ɪ g a ɾ ɑ z ɑ n n ə m ə x k e ʧ ʊ ʈ ɪ k a w ʊ 
[339.085]
<no-speech> 
[344.275]
h o k ə n ə s t ɑ s o d ɪ 
[345.525]
<no-speech> 
[346.555]
<no-speech> 
[347.085]
<no-speech> 
[352.305]
h o o s d ə l t ə l a s ə m m e n ɪ ʈ a k a m ʦ a l o ɾ b a ʤ e ɑ z ɑ n w ə ʃ o ʦ a l o ɾ b a ʤ e 
[356.855]
<no-speech> 
[360.425]
h o d ə l t ə n ɑ w a x t a k e ʐ ɪ 
[362.345]
<no-speech> 
[365.965]
b a s x ə d a j h o h a ɣ ə h a m b a h a ɾ t l ə l a j d a j z m ɑ x j ɑ l ʤ ʊ m ɑ t ʤ ʊ m ɑ t n ə b ə ɾ ɑ ɣ l a j w ɪ b a h a ɾ b ə w ɪ 
[370.085]
<no-speech> 
[372.455]
<no-speech> 
[373.125]
<no-speech> 
[374.485]
h o 
[375.035]
<no-speech> 
[375.835]
n ə n ʧ ʊ ʈ ɪ w ə k ə n ə 
[377.285]
<no-speech> 
[378.605]
<no-speech> 
[379.035]
<no-speech> 
[381.155]
n ə a t ə m k x e d a j 
[382.395]
<no-speech> 
[385.935]
<hes> b a ʈ a j ɾ o ɖ k x e ʧ e d a j h a ɣ ə s k ʊ l 
[388.045]
<no-speech> 
[391.195]
h o d ɑ b a s l ɑ j ə q d ə <breath> 
[394.115]
<no-speech> 
[396.235]
x ə <laugh> b ɑ ʤ ɪ m e n ə ʃ t a 
[398.665]
<no-speech> 
[399.575]
<no-speech> 
[400.725]
<no-speech> 
[402.555]
x ə ʧ e m ʊ ʐ n ə d ɪ k ɽ e h a ɣ ə d e h a m n ə k a w ɪ <laugh> 
[405.475]
<no-speech> 
[406.325]
<no-speech> 
[407.045]
<no-speech> 
[408.475]
ɖ e ɾ a <laugh> 
[409.535]
<no-speech> 
[410.785]
<breath> h o k ə n ə ʧ e h a ɣ e d ɑ h a m w ɪ l ɪ w o ʧ e d ə l t ə j e l ɑ s a w p x o n ə x l ɑ s k ɽ ɪ w o 
[414.295]
<no-speech> 
[415.735]
<no-speech> 
[418.135]
<no-speech> 
[421.335]
<no-speech> 
[421.895]
<no-speech> 
[425.485]
ɑ w ɑ z d e k a m ɾ ɑ z ɪ 
[427.055]
<no-speech> 
[429.575]
n ə a w a b d ʊ l h a q n ə z ɪ n ʊ ɾ z ɪ 
[432.425]
<no-speech> 
[433.915]
s ɑ b e ɾ a a w m ɑ ɾ j a a w z a j n a b 
[435.675]
<no-speech> 
[436.655]
<no-speech> 
[437.115]
<no-speech> 
[439.185]
<hes> n ə n ə ʃ ɪ w e l a j s a b a q d ə l t ə x o ʃ p a ʐ k ɑ l o ʧ e ʃ ɪ b j ɑ j e d ɑ x e l a w ɪ 
[444.515]
<no-speech> 
[449.375]
n ə d ə l t ə n ə d ɑ x e l a w ɪ k ə n ə 
[451.695]
<no-speech> 
[453.105]
h o 
[453.705]
<no-speech> 
[457.005]
x ə 
[457.625]
<no-speech> 
[459.015]
x ə d ə l t ə j e n ə a x l ɪ p a t a j e n ə l a g e ʐ ɪ ʦ ə w a ʤ a d ə a w h a l ə k ɑ n d ə e n ʤ ə l a j o s k ʊ l k x e n ə d ɑ x e l a w ɪ a w d ə h a l ə k ɑ n o s k ʊ l s a ɽ ə k n ə ɑ x w ɑ ɣ ɑ ɽ a d a j b j ɑ 
[468.405]
<no-speech> 
[470.355]
<no-speech> 
[471.025]
<no-speech> 
[472.475]
e n ʤ ə l a j o s k ʊ l k x e 
[473.615]
<no-speech> 
[474.525]
<no-speech> 
[474.995]
<no-speech> 
[478.575]
x ə <breath> n ʊ d ə l t ə o s n ə p ɾ e ʝ d ɪ k ə n ə 
[481.325]
<no-speech> 
[482.175]
d ə l t ə o s s k ʊ l ʊ n o n ə ʈ o l h a l ə k ɑ n w ə w ɪ s t ə l e n ʤ ə l a j o s k ʊ l ʊ n o n ə 
[487.815]
<no-speech> 
[489.885]
h o k ə n ə o s d ə h a l ə k ɑ n o s k ʊ l ʊ n a n e ʝ d e n ə ʃ t a 
[493.435]
<no-speech> 
[497.245]
h o ɖ e ɾ ɣ a ʈ s a ɽ ə k d a j a w d ɑ s a ɽ ə k x o d ɑ s e ʃ w a j d a j ʧ e p ə d e k ɑ l k x e j e d ʊ m ɾ a ɖ e ɾ x a l k j e w ə w a h ə l 
[503.225]
<no-speech> 
[507.385]
p a t a j e n ə l a g e ʐ ɪ m ɑ ʃ ʊ m ɑ n ɾ a ʃ h a m d ʊ m ɾ a ɖ e ɾ n ə w ɪ x o b a s 
[511.185]
<no-speech> 
[512.335]

[514.345]
<no-speech> 
[517.715]
h o k ə n ə b a s m ɑ ʃ ʊ m ɑ n o s a ɾ a s k ʊ l t ə ɾ ɑ z ɪ s k ʊ l n ə k o ɾ t ə z ɪ d ʊ j w a h ɪ d a s a d d ʊ j p ə s e ɾ ɑ w ə t ɪ w o 
[523.655]
<no-speech> 
[525.665]
<no-speech> 
[526.085]
<no-speech> 
[527.285]
ʦ a ŋ g a 
[527.835]
<no-speech> 
[531.055]
n ə n ə ʦ o k h a m n ə d ɪ ɾ ɑ ɣ ə l ɪ 
[532.695]
<no-speech> 
[534.725]
n ə <laugh> n ə n m ʊ ʐ n ə j ʊ t a l ɪ o z g ɑ ɾ e ʐ ʊ n ə 
[538.085]
<no-speech> 
[539.385]
<no-speech> 
[540.385]
<no-speech> 
[541.745]
h a ɣ e s a ɾ a x ɑ l a m e t l ə l e w ə <no-speech> k ə n ə d ɑ m o ɾ m e <laugh> 
[550.405]
<no-speech> 
[551.995]
<hes> ʦ ə x a b a ɾ j ə m 
[554.505]
<no-speech> 
[555.525]
<int> k l ɪ k x e j a w o l a s ʃ p e j e w ə k ɽ e 
[558.045]
<no-speech> 
[560.595]
h o d e z ɑ j n ə w l ɑ ɽ a k ə n ə d a ɣ a t ə <hes> d ə ʦ ə w a ɾ t ə w ɑ j ɪ <laugh> e d ɾ ɪ s x o ɾ m ʊ b ɑ ɾ a k ə j l ə 
[567.295]
<no-speech> 
[568.675]
h o b j ɑ b e ɾ t a t l a k ə n ə <hes> b j ɑ ʧ e d e z ɑ j n ə w l ɑ ɽ a j ʊ d w a ʃ p e j e k ɽ e w e k ə d ɾ e j e k ɽ e w e b j ɑ d a ɣ a w ə ʃ o a t ɑ w l l a z o j w ə ʃ o b j ɑ p ɑ t e w ə d e k x e 
[577.275]
<no-speech> 
[578.505]
<no-speech> 
[578.975]
<no-speech> 
[580.085]
d ə h a ɣ e n ʊ m z ɑ b e t <no-speech> z ɑ b e t 
[583.725]
<no-speech> 
[585.455]
h o x ɑ j s t a d a j <laugh> ʦ o k h a l ə k 
[587.795]
<no-speech> 
[589.615]
m ɑ x o n ə d a j l ɪ d ə l a j z ə n ə w ə m t l ə l e 
[591.965]
<no-speech> 
[594.645]
ʦ ə x a b a ɾ w ɑ j ɪ b a s b j ɑ n ʊ d ə h a m z a p ə ʃ ɑ n j e j ɑ d w a k ə d ə ʧ ɑ p ə ʃ ɑ n j e j ɑ d w a h a ɣ e p ə ʃ ɑ n t a d a j 
[599.995]
<no-speech> 
[600.3]
