[0.0]
<no-speech> 
[1.835]
<no-speech> 
[3.615]
h a l o 
[5.455]
<no-speech> 
[7.195]
h a l o e s l ɑ m a l a j k ʊ m 
[8.765]
<no-speech> 
[10.185]
<hes> x ə ʦ a ŋ g a j e ʦ a ŋ g a j e <breath> 
[16.275]
<no-speech> 
[17.215]
ʈ ɪ k ʈ ɑ k n ʊ ɾ k o ɾ k x e x a j ɾ d a j <breath> m ɑ ʃ ʊ m ɑ n l o j w ɑ ɽ a 
[24.205]
<no-speech> 
[25.005]
<no-speech> 
[25.445]
<no-speech> 
[26.825]
x ə x ə w a l e w ɾ o ɾ ʈ o l <int> ɾ ɑ ɣ ə l ɪ d ɪ ʦ ə 
[34.075]
<no-speech> 
[35.715]
<no-speech> t ɑ s o ʤ o ɽ a w ə j ʦ ə 
[39.575]
<no-speech> 
[41.175]
n ə w ɑ j ə m ʦ ə ʤ o ɽ a w e 
[42.895]
<no-speech> 
[44.725]
x ə x ə m ʊ ʐ x o d ə a w ɽ ʊ w ɑ l ɑ ʤ o ɽ a k ɽ a 
[47.455]
<no-speech> 
[50.895]
a w ɽ ʊ w ɑ l ɑ n ə w ɪ h a ɣ ə ɾ ʊ ʈ ə j n ə ʧ e ʤ o ɽ e ʐ ɪ 
[53.045]
<no-speech> 
[58.865]
ʤ ʊ s a ɾ k x e <foreign> k a w ə j <sta> x ə x ə n ʊ ɾ x a j ɾ d a j k o ɾ k x e x a j ɾ d a j 
[62.955]
<no-speech> 
[63.885]
w ɑ j ə m k o ɾ k x e x a j ɾ d a j 
[66.465]
<no-speech> 
[68.285]
n ʊ ɾ s e h a t m e h a t ʈ o l <breath> 
[71.535]
<no-speech> 
[73.715]
b a s <hes> d ɑ x o m ə w ɑ j a n ʊ ɾ x a j ɾ d a j 
[77.995]
<no-speech> 
[78.955]
b a s k a n a n ʊ h o b a s k a n a h o <breath> h o x ɑ m a x ɑ b a s o s z ə m ɖ ɑ k t a ɾ l ə <hes> 
[89.735]
d w a d a ɾ a j w ɾ ə z e l ɑ ɽ ə m a 
[91.625]
<no-speech> 
[92.495]
n ə h a ɣ ə b ə l ə w ɾ ə z ɖ a b g a ɾ ə j t ə h a ɣ a l t a ɖ a b g a ɾ ə j t ə h a ɣ ə b ə l ə w ɾ ə z d w a d a ɾ a j <breath> ɖ ɑ k t a ɾ ɑ n o l ə n ʊ b a s j ʊ ɖ ɑ k t a ɾ x o m ɪ l ɑ w n ə ʃ ʊ h a ɣ ə w a j ə l d ə h a f t e p ə w ɾ ə z b ə d a ɣ a k e ʐ ɪ k ə n ə 
[103.555]
a w <hes> j ʊ ʧ e d a j n ʊ t l ə l a j w o e m a ɾ ʤ e n s ɪ k x e ʦ ə m a ɽ a j w ə ʃ o d ə ʧ ɑ ʧ e n a m b a ɾ m ʊ n ʐ a a x e s t ə l a j w o n ʊ b a s h a ɣ ə <hes> l ɑ ɽ o h a ɣ ə w a j ə l ʧ e b a s b j ɑ b ə x a j ɾ d a j d w a d ɾ e w ɾ ə z e p a s ɾ ɑ ʃ e <breath> 
[115.415]
n ʊ h a ɣ e n ə m ə x k e h a m d ə l t a ɖ ɑ k t a ɾ l ə t l ə m h a ɣ ə ɾ ɑ t ə w a j ə l ɣ ɑ x w ə b ɑ s a n ʊ m ɑ w a ɾ t ə w a j ə l ɣ ɑ x x o z ə x k ʊ l o p ə h a q k x e n ə j ə m <breath> n ʊ <hes> b a s b j ɑ j e w a j ə l z a x a j ɾ d a j j ɑ ɾ d ɑ s e 
[126.085]
ʧ a l w o h a ɣ ə w a j ə l ʧ e z a t ə e k s ɾ a w ə b ɑ s a b e l k ʊ l <foreign> w ɑ l ɑ ɣ ɑ x d a j n ʊ h a ɣ ə w a j ə l z a t ə d ɑ s e k ɑ ɾ w ə k ɽ a e k s ɾ a w ə b ɑ s a n ʊ m ɑ w a j ə l ʧ e z ə e k s ɾ a n ə w ə b ɑ s ə m <hes> g o ɾ o b ə k ə n ə 
[137.035]
n ʊ h a ɣ ə b a s m ə ɽ e d ʊ m ɾ a ɖ e ɾ m e ɖ ɪ s a n m e w ə x w a ɽ ə l a w h a ɣ ə k x e h a m ʧ e d a j n ʊ <hes> ɣ ɑ x m e n ə x ə k e d ə l o ʦ ə j ʊ h a f t a x o j e w ə ʃ w a ʧ e m e ɖ ɪ s a n x o ɾ ə m x o ɾ ə m x o ɾ ə m 
[147.265]
n ʊ b a s b j ɑ h a ɣ ə b ə l ə w ɾ ə z ɖ ɑ k t a ɾ l ə l ɑ ɽ ə m e k s ɾ a m e b ʊ ɾ ɖ h a s p a t ɑ l t ə n ʊ e k s ɾ a m e ʊ x k ə n ʊ <breath> h a ɣ ə d o n a x a n d ə l e k s ɾ e w ɑ l ɑ w ɑ j ɪ d ɑ x o b e l k ʊ l p a ʈ l ə j n ə k ʊ z ʃ w a j d a j d ɑ ɣ ɑ x n ʊ <hes> 
[158.945]
h a ɣ ə d ɑ s e d a j ʧ e <hes> ɣ ɑ x ʊ n o <foreign> x o b a ɾ a w ɪ k ə n ə <breath> a w d ɑ ʧ e d a j n ʊ d ɑ k o ʐ b e l k ʊ l d ə ɣ ɑ x ʊ n o <foreign> t ə ɾ ɑ ɾ a w ɑ n d a j 
[168.135]
<no-speech> 
[169.255]
l ɑ n d e a q ə l ɣ ɑ x d a j h o n ʊ b a s h a ɣ e d ɑ s e b ə l h a ɣ ə d w a h a m ʧ e d a j h a ɣ e k x e <foreign> ʤ o ɽ a ʃ w e n ʊ d ə d ə h a ɣ e <foreign> n ə k e ʐ ɪ w ɑ j ɪ t ə ɾ ʦ o p o ɾ e t ɑ d ɑ <hes> <breath> 
[180.725]
a q ə l d ɑ n ə w ɪ <breath> n ʊ b a s b j ɑ m e h a l t a b ə l ɖ ɑ k t a ɾ t ə h o w ə x o h a ɣ ə h a m ɾ ɑ t ə d ɑ w ə w a j ə l e ʧ e n ə d ɑ b ə w ə b ɑ s e 
[187.405]
<no-speech> 
[188.695]
<breath> n ʊ m ɑ w a j ə l ʧ e b a s <hes> ʧ e e l ɑ ʤ h a m d a ɣ a d a j d w a d a ɾ a j w ɾ ə z e m e w a ɾ k x e b j ɑ h a m t e ɾ e k ɽ e w ɑ j ə m k ə x ə ʃ ʊ x o x ə d ə n ə j e w ə b ɑ s ə m h a ɣ ə d ʊ m ɾ a p o x d a j z ə w ɑ j ə m ʧ e d ɑ b ə w ə z ɪ ʦ a ŋ g a <breath> n ʊ b a s 
[200.635]
<hes> o s x o b j ɑ n ə n j e <foreign> k x e h a m b j ɑ ɖ e ɾ a z j ɑ t a t a ŋ g a w ə m n ʊ b a s o s m e w a j ə l ʧ e x a j ɾ d a j 
[208.495]
<no-speech> 
[209.905]
n ʊ j ɑ ɾ n ʊ b a s ʦ ə w ə k ɽ ə m a w h a f t e ʧ ʊ ʈ ɪ h a m n ə ʃ t a d a j 
[213.555]
<no-speech> 
[214.385]
ɾ ɪ z a l ʈ ɾ ɪ z a l ʈ d a j k ə n ə h o d a j <breath> n ʊ m ɑ w a j ə l ʧ e z a b a s d ə s k ʊ l d ə s k ʊ l k x e <breath> n ʊ m ɑ w a j ə l ʧ e z a b a s n ə n b ə j e w ə b ɑ s ə m z a x a j ɾ d a j 
[225.235]
n ə n ə f ɑ j n a l n ə <foreign> w ɪ k ə n ə <breath> h a ɣ ə x o m ɑ ɾ ʧ a p ɾ e l k x e w ɪ n ʊ ɾ s t ɑ d ə a m ɪ t a b j a t ʦ a ŋ g a d a j <breath> 
[236.865]
<no-speech> 
[237.915]
w ɑ j ə m a m ɪ d e ʦ a ŋ g a d ə 
[239.645]
<no-speech> 
[243.255]
x ə x ə <breath> t a b j a t j e x ə d a j <no-speech> z m ɑ x o d ə a m ɪ m e h a m d ʊ m ɾ a <foreign> x o x e g ɪ ɖ e ɾ e z j ɑ t e <foreign> t a k l ɪ f w a ɾ t ə ʃ ʊ ɾ o ʃ w a j d a j <breath> 
[254.185]
<hes> h o <foreign> h a ɣ ə x o l ə ʐ g ʊ z ɑ ɾ a w ə k ɽ a n ʊ o s d ə z ɑ m ʊ t a k l ɪ f w a ɾ t ə b j ɑ ʃ ʊ ɾ o ʃ w a j d a j k ə n ə <breath> h a ɣ e b ə z ɑ m e x o ʐ e d e ʈ ʊ l e <breath> 
[263.495]
n ʊ b a s h a ɣ e d ə p ɑ ɾ a h a m d ʊ m ɾ a p ɾ e ʃ ɑ n j ʊ ʧ e d ɑ o s <hes> x ə ʃ ɪ x a j ɾ x a j ɾ j a t s a ɾ a ʈ ɪ k ʃ ɪ <hes> 
[272.435]
<no-speech> 
[274.165]
ʈ o l w ə k ɽ o <no-speech> h o n ʊ b a s d e k x e m ɑ t ə b j ɑ ʧ e d a j n ʊ m ə ɽ e m ɑ w a j ə l b a s d ʊ m ɾ a a ʤ ɪ b a a ʤ ɪ b a x a b ə ɾ e p ə k x e ɾ ɑ ɣ l e ʧ e <breath> <hes> z m ɑ <foreign> p ɾ e x o d o p o ɾ e ɾ ɑ ɣ l e ʧ e b a s 
[283.765]
ʦ ə d ɑ d a ɣ a k ɽ a m ə ɽ e b a s ɖ e ɾ e x a b ə ɾ e d ɪ b j ɑ k ə l ə m ɪ l ɑ w ʃ ʊ n ʊ <laugh> w ɑ j ə m d ə ɾ t ə <hes> n ʊ ɖ e ɾ w a x t w ə ʃ o ʧ e <hes> m ɪ l ɑ w ʃ ə w ɪ h a m n ə j ʊ a w 
[293.315]
<no-speech> 
[294.235]
<no-speech> 
[294.785]
<no-speech> 
[296.275]
<no-speech> 
[298.605]
<no-speech> 
[299.925]
x ə n ə h a ɣ e t ə m ɑ n ə n h a m <foreign> w ə k ɽ o <breath> n ʊ h a ɣ e m ɑ t ə w a j ə l ʧ e p a ɾ ʊ n j e h a m ɾ ɑ t ə w a j ə l m ə ɾ ɑ z a w ɑ j ɪ <foreign> l ə t a l ɪ p a ɾ ʊ n n ə n j e h a m ɾ ɑ t ə w ə w a j ə l ʧ e m ə ɾ ɑ z a n ə ʃ t a d a j ʦ o k h a m <breath> n ʊ b a s 
[311.415]
ʧ e z ə k ə l ə d ə t l ə l o p ə <foreign> k x e j ə m n ʊ h a ɣ ə m ɑ t ə d ɑ s e w ə w ɑ j ɪ <breath> ʧ e m ə ɾ ɑ z a h o n ʊ b a s w ɑ j ɪ m ə ɾ ɑ z a n ʊ z ə h a m w ɑ j ə m ʧ e z a b a s ʧ e n ə ʃ t a n ʊ <breath> n ə b ə z ə m n ʊ 
[323.035]
<no-speech> 
[326.805]
<int> n ʊ o s b ə l <foreign> t ɑ ʧ e w a j ə l d ə s a ɾ s a ɾ d ɑ ɾ k ə n ə b a s z m ɑ x o <breath> d ɑ j ʊ h a f t a ʧ e d a j n ʊ d ə ɣ ɑ x ɖ e ɾ z j ɑ t t a k l ɪ f ɾ ɑ b ɑ n d e t e ɾ ʃ ʊ 
[336.075]
n ʊ <hes> h a ɣ e t ə m ɑ w a j ə l w ɑ j ə m z ə x o <hes> n ə ʃ ə m ɾ ɑ t l ə l a j h a ɣ ə z m ʊ ʐ d a ɣ a n ə w o ʧ ʊ ʈ j ɑ n e ʧ e w e h a ɣ e k x e s ɪ m ɪ n ɑ ɾ w o k ə n ə n ʊ b a s h a ɣ e k x e h a ɣ ə m ʊ <foreign> k ɽ ə l d ɾ e ʦ a l o ɾ w ɾ ə z e m ʊ h a ɣ ə <foreign> k ɽ ə l d ə d ɾ e j o d ɾ e j o g e n ʈ o g e ʈ o w o k ə n ə <breath> n ʊ <hes> o s ʧ e d a j n ʊ h a ɣ e n ə p a s b j ɑ n ə j ə m t l ə l e n ʊ h a ɣ ʊ j w a j ə l <foreign> s a ɾ d ɑ ɾ <foreign> k x e x a l k n ə <foreign> k a w ɪ k ə n ə n ʊ m ɑ w a ɾ t ə w a j ə l d ɑ ʦ ə x a b ə ɾ a ʃ w a x a l k n ə <foreign> 
[359.555]
k a w ɪ w ɑ j ɪ w a j ə l ʧ e x a l k x a l k <foreign> n ə <foreign> k a w ɪ n ʊ w ɑ j ɪ h a ɣ e w a j ə l ʧ e b a s z ə <no-speech> p a n ʤ ɑ b ɪ <foreign> b ə a x l ə m z ə b j ɑ p e p a ɾ e n ə ʃ ə m <foreign> k a w ə l ɑ j 
[368.575]
<no-speech> 
[370.515]
<breath> h o n ʊ m ɑ t ə j e j ɑ ɾ w ɑ j ə m n ʊ m ɑ h a ɣ e t ə w ə w a j ə l <hes> w ɑ j ə m d ɑ x o ʦ ə x a b ə ɾ a n ə d ə ʧ e k a m a z k a m z a k ə d ə e m e s w ɑ l ɑ t ə n ə a x l ɪ e m f e l w ɑ l ɑ t ə x o d e w ɑ x l ɪ k ə n ə <hes> n ʊ 
[382.005]
<no-speech> 
[382.955]
n ʊ b a s h a ɣ ə w a j ə l ʧ e w ɑ j ɪ h a ɣ ə w a j ə l ʧ e b a s p a n d ɾ a b ɪ s ʧ e h a ɾ ʦ o k ʧ e a w ə l ɾ ɑ ɣ l ə l h a ɣ ʊ j b ə a x l ə m a b a s 
[388.245]
<no-speech> 
[390.145]
<hes> ʦ ə w a j ə l ʧ ɑ d ə ɾ t ə w ɪ l ɪ 
[394.155]
<no-speech> 
[395.665]
h o n ʊ b j ɑ 
[396.845]
<no-speech> 
[401.505]
<hes> n ʊ m a t l a b l ɑ e ɾ ɑ d e d e n ʊ ɾ e h a m ʊ ʝ d e ʃ w e <sta> 
[405.905]
<no-speech> 
[410.025]
<no-speech> 
[412.445]
<no-speech> 
[413.815]
<no-speech> 
[415.995]
<no-speech> 
[416.935]
<no-speech> 
[419.315]
<no-speech> 
[420.495]
x ə 
[426.745]
<no-speech> 
[428.015]
<no-speech> 
[428.375]
<no-speech> 
[431.445]
<no-speech> 
[433.645]
<no-speech> 
[434.685]
<no-speech> 
[435.825]
<no-speech> 
[436.745]
n ʊ b a s <hes> 
[439.995]
<no-speech> 
[441.625]
x ə 
[442.405]
<no-speech> 
[450.36]
<no-speech> 
[458.315]
<hes> <breath> z a b a s m ɽ a t ɑ x o h a s e h a m ɖ e ɾ <foreign> t e ɾ k ɽ o ɖ e ɾ z j ɑ t <foreign> d e t e ɾ k ɽ o b a l k e o s p o ɾ e x o o s p o ɾ e x o b ə s t ɑ h a ɾ ʦ ə <foreign> ʃ ə w ɪ w o 
[469.305]
<no-speech> 
[476.505]
<hes> s t ɑ <foreign> ʃ ʊ 
[477.925]
<no-speech> 
[480.915]
<hes> z a b a s x ə d ə z a m ə ɽ e m ʊ ʐ s a ɾ a b ə w ə k ɽ e j ʊ z ɑ j 
[483.855]
<no-speech> 
[484.705]
<no-speech> 
[485.665]
<no-speech> 
[489.205]
x ə 
[489.965]
<no-speech> 
[495.325]
x ə x ə 
[496.225]
<no-speech> 
[498.295]
n ʊ h a ɣ ə b ə t ə ʦ ə k a w e n ʊ 
[499.675]
<no-speech> 
[501.045]
<no-speech> 
[503.745]
<no-speech> 
[507.065]
<no-speech> 
[507.715]
<no-speech> 
[509.915]
<no-speech> 
[510.285]
<no-speech> 
[511.835]
<laugh> s a h ɪ h x a b ə ɾ a d ə ɾ t ə k a w ɪ g o ɾ a t ə x o k a m a z k a m d e d a ɣ a t ə x o k a w a x p ə l ɖ ə p ɑ ɾ ʈ m e n ʈ k x e ʧ e ʦ ə ɾ ɑ ʃ ɪ j ɑ 
[522.725]
<no-speech> 
[526.715]
h o h o 
[527.915]
<no-speech> 
[528.765]
<no-speech> 
[529.825]
<no-speech> 
[531.805]
a w o s ʧ e 
[533.975]
<no-speech> 
[536.125]
o s ʧ e e j p ɪ e j k x e ɾ ɑ ɣ l a j d a j e j p ɪ e j k x e n ʊ h a ɣ e k x e w ə k ɽ a k ə n ə a p l ɑ j 
[540.455]
<no-speech> 
[542.705]
e j p ɪ e j k x e p o s t ɾ ɑ ɣ ə l ɪ d ɪ k ə n ə <foreign> w ɪ <foreign> 
[546.465]
<no-speech> 
[548.955]
h o a w m ɑ x o t ɑ t ə <no-speech> n ə n ə z ə w a ɾ t ə n ə k a w ə m <foreign> d ɑ d ə ʧ e t ə w a ɾ t ə w ə k ɽ a 
[554.705]
<no-speech> 
[557.455]
h o h a ɣ e b ə ʦ ə d w a d a ɾ a j w ɾ ə z e b ə p ɑ t e w ɪ x ə g o ɾ a d ə h a ɣ e w a l e ʧ e m ɑ ʦ ə t a q ɾ ɪ b a n h a f t a m ə x k e w ɪ l ɪ w o <foreign> w o p ə k x e <breath> n ʊ m ɑ x p ə l a <foreign> w ɪ l ɪ w o b j ɑ ɾ ɑ t ə n ɪ l a m h a m w ə w a j ə l 
[568.655]
n ʊ t ə x ɑ m a x ɑ h a ɣ e t ə <foreign> w ə k ɽ a ʦ o w ɾ ə z e b ə p ə k x e p ɑ t e w ɪ 
[573.175]
<no-speech> 
[574.175]
ʦ ə p a t a w a l e d ɑ d o n a x a l k p ə k x e k e ʐ ɪ n ʊ 
[576.565]
<no-speech> 
[577.925]
<no-speech> 
[578.895]
<no-speech> 
[581.915]
h a ɣ ə b ə t ɑ t ə w ɑ j ɪ d a ɣ a n ə m ɪ l ɑ w ʃ ɪ t ə d ɑ s e k ɑ ɾ w ə k ɽ a ʧ e d ə h a ɣ ʊ j <foreign> t ə l ɑ ɽ a ʃ ə h a ɣ a l t a b ə t ɑ t ə ʈ o l <foreign> h a m ʈ o l h a ɾ ʦ ə b ə d ə ɾ t ə m ɪ l ɑ w ʃ ɪ <foreign> w ə ɣ ə j ɾ a 
[590.255]
<no-speech> 
[591.075]
<no-speech> 
[591.425]
<no-speech> 
[594.655]
n ʊ b a s ʧ e d ɑ k ɑ ɾ n ə k a w e n ʊ b a s b j ɑ b ə n ɑ s t a j e n ʊ 
[597.215]
<no-speech> 
[600.04]
