[0.0]
<no-speech> 
[6.7225]
<no-speech> 
[13.445]
h a l o 
[14.075]
<no-speech> 
[18.365]
h a l o 
[18.915]
<no-speech> 
[20.325]
ʦ a ŋ g a e n z e m ɑ m 
[21.375]
<no-speech> 
[23.875]
b e l k ʊ l x a j ɾ a w x a j ɾ j a t d a j j ɑ ɾ ʈ o l n ʊ ɾ ʦ a ŋ g a ʧ a l d a j 
[26.805]
<no-speech> 
[28.095]
x a j ɾ a w x a j ɾ j a t d a j <cough> m o ɾ a w p l ɑ ɾ d e ʦ a ŋ g a d ɪ 
[31.295]
<no-speech> 
[33.805]
x ə <no-speech> a w <oov> e z ɑ z ʦ a ŋ g a ʧ a l d a j e z ɑ z ʦ a ŋ g a d a j 
[38.185]
<no-speech> 
[40.445]
<foreign> t ə z e k ə n ə 
[41.785]
<no-speech> 
[44.395]
x ə x ə a w n ʊ ɾ d ʊ k ɑ n ʦ a ŋ g a ʧ a l ɪ 
[46.875]
<no-speech> 
[51.575]
x ə x ə h o h a l ə k a d ə s ɑ ʤ e d h a ɣ ə w ɑ d ə ʧ e d a j 
[54.845]
<no-speech> 
[56.055]
h a ɣ e <no-speech> h a ɣ e l ə b ə ɾ ɑ z ɪ k ə n ə 
[58.195]
<no-speech> 
[61.805]
h o k ə n ə x ɑ m a x ɑ ɾ ɑ ʃ a h a d t ʊ ɾ ʊ ɾ k o ɾ m ʊ d a j 
[65.205]
<no-speech> 
[68.085]
<no-speech> 
[68.615]
<no-speech> 
[69.725]
x ə x ə <breath> h o d a ɣ a m ɽ a j ɑ ɾ a f ɾ ɪ q ɑ ʦ a ŋ g a ʧ a l k a w ɪ j ɑ ɾ <cough> d ɑ x o j e s e ɾ ɪ l ɑ ŋ k ɑ n ə x o j e ʈ o l <hes> d a ɣ a w ə g a ʈ ə l o <foreign> w ə g a ʈ ə l o 
[79.625]
<no-speech> 
[87.845]
<no-speech> 
[88.445]
<no-speech> 
[93.305]
h o j ɑ ɾ d a ɣ a <foreign> x a b ə ɾ a x o p ə k x e ʃ t a 
[95.815]
<no-speech> 
[98.235]
<no-speech> 
[98.945]
<no-speech> 
[100.005]
b e l k ʊ l h o d w a e k b ɑ n d e j e t ɾ e w ə g a ʈ ə l o <breath> d e x w ɑ x o j ɑ ɾ p ə d a ɣ a b ɑ n d e s a m x o ʃ h ɑ l ʃ w a m <breath> ɑ s ʈ a ɾ ɑ l j ɑ ʧ e d a ɣ a s a ɾ a <cough> e n ɖ j ɑ n ə j ɑ ɾ d w ɑ ɽ a <foreign> w ə g a ʈ ə l 
[108.865]
<no-speech> 
[115.155]
<hes> <cough> m ɽ a b ə l ə x a b ə ɾ a d ɑ d ə a x b ɑ ɾ k x e l ɪ k ə l e w o w ɑ j ɪ <breath> <foreign> s e ɾ f p ə x p ə l <foreign> g a ʈ ə l e d ɪ d ʊ j 
[122.465]
<no-speech> 
[128.424875]
b e l k ʊ l ɖ e ɾ z j ɑ t x ə <foreign> d a j 
[130.235]
<no-speech> 
[131.585]
h o ɾ ɪ k ɪ p ɑ n ʈ e ŋ g h a m w o a w k l a ɾ k w ɑ p a s j ɑ ɾ <foreign> k x e ɾ ɑ ɣ l e d ɪ ɖ e ɾ z j ɑ t x ɑ j s t a <foreign> k a w ɪ 
[136.705]
<no-speech> 
[140.715]
h o <foreign> b ɑ n d e w l ɑ ɽ w o ʧ e <foreign> j e k ɽ o 
[144.775]
<no-speech> 
[148.825]
<hes> d a ɣ a <cough> p ɑ k e s t ɑ n a w e ŋ g l ə n ɖ d a ɣ a h a m ɾ ɑ ɾ a w ɑ n d a j k ə n ə <foreign> <breath> <cough> d ʊ b ə j k x e b ə w ɪ 
[156.595]
<no-speech> 
[159.585]
<no-speech> 
[159.945]
<no-speech> 
[164.805]
b e l k ʊ l h o m ʊ ʐ t ə b ə d ə m e s b ɑ ʊ l h a q h a m p a t a w a l a g e ʧ e ʦ a ŋ g a x ə k ɪ p ʈ ɑ n d a j k ə n ə d ɑ s e ɾ f h a ɣ ə ʈ ɪ m ʊ n a k a m z o ɾ ɪ w o 
[171.115]
<no-speech> 
[174.065]
m ɽ a j ɑ ɾ x o j ʊ m a s a l a p ə k x e d ə 
[176.795]
<no-speech> 
[178.935]
h a ɣ ə d ɑ j ɑ ɾ ʧ e h a ɣ ə z m ʊ ʐ d ə p e p a ɾ p ə ʈ ɑ j m k x e d ɪ a w z m ʊ ʐ s ʈ a ɖ ɪ j ɑ ɾ o s s ʈ a ɖ ɪ k a w ə l p ə k ɑ ɾ d ɪ h a ɣ ə b ə x o m ʊ ʐ k a ɾ e k ʈ t a j ɑ ɾ d a ɣ a k ɽ ɪ x a ɾ ɑ b b ə m ʊ k ɽ ɪ 
[188.975]
<no-speech> 
[189.855]
<no-speech> 
[191.575]
<no-speech> 
[194.505]
x ə 
[195.215]
<no-speech> 
[197.285]
<no-speech> 
[198.115]
<no-speech> 
[200.575]
b e l k ʊ l d ɑ b j ɑ m ʊ ʐ k a t ə l a j ʃ ʊ d ɑ x o ɾ ɪ k ɑ ɾ ɖ ʊ n a p ɾ ɑ t ə w ɪ s ʈ a ɖ ɪ s t ɑ ʦ a ŋ g a ɾ a w ɑ n d ə 
[205.815]
<no-speech> 
[211.035]
ʦ a ŋ g a d ə d ə ʦ ə ʦ ə t ə d e ʈ j ʊ ʃ a n e n ɪ w ə l e d ɪ 
[213.325]
<no-speech> 
[217.685]
x ə ʤ ɪ 
[218.435]
<no-speech> 
[222.805]
<no-speech> 
[223.645]
<no-speech> 
[224.565]
x ə x ə a w n ʊ ɾ <foreign> x o d e p ʊ ɾ a h ɑ s e l d a j k ə n ə 
[227.395]
<no-speech> 
[230.625]
<no-speech> 
[231.105]
<no-speech> 
[232.155]
<hes> <no-speech> m ɑ x o z ə x o <foreign> k a w ə m p ə <foreign> x o p o h e ʐ ə m j ɑ ɾ <foreign> ɾ ɑ t ə ɑ s ɑ n ʃ ɑ n x k ɑ ɾ ɪ x o j ɑ ɾ h a ɣ ə n ə g a n e g ɾ ɑ n a d ə 
[239.065]
<no-speech> 
[242.525]
a w e ŋ g l ɪ ʃ k x e j ɑ ɾ h a ɣ ə n ɑ w ə l <foreign> h a ɣ ə h a m s a m ʊ ʐ d d a j a w j ɑ ɾ ɖ e ɾ z j ɑ t e m p o ɾ ʈ ə n ʈ d a j 
[247.625]
<no-speech> 
[254.145]
m ɑ s a ɾ a x o <no-speech> n e ʈ ʃ t a n e ʈ ɾ ɑ s a ɾ a ʃ t a j ʊ ʈ j ʊ b b ɑ n d e ʃ t a w ə b a j e g o ɾ ə m 
[258.135]
<no-speech> 
[259.445]
x ə 
[260.075]
<no-speech> 
[261.335]
z a b ə h a ɣ ə j ʊ d w a z ə l e h a ɣ ə ɖ ɑ w n l o ɖ k ɽ ə m t ɑ l ə b ə h a m j ʊ e s b ɪ k x e d a ɾ a w ə l ə m 
[264.645]
<no-speech> 
[267.035]
<breath> a w j ɑ ɾ m ɽ a d ɑ d a ɣ a ʦ ə k a w ɪ j ɑ ɾ d ɑ t e l a w d ɑ s ɪ e n ʤ ɪ a w d ɑ g ɾ ɑ n ɪ a w d ɑ w a ɽ a <no-speech> d ɑ ʦ ə l o b a ʃ ʊ ɾ o k ɽ ɪ d ə 
[274.985]
<no-speech> 
[276.485]
<no-speech> 
[277.075]
<no-speech> 
[282.195]
<no-speech> 
[282.845]
<no-speech> 
[289.305]
d a ɣ a x a b ə ɾ a d ə k ə n ə 
[290.785]
<no-speech> 
[291.665]
b e l k ʊ l h a ɣ ə e n ʤ e n j a ɾ ɑ n ʈ o l b a h a ɾ t l ə l e d ɪ m ʊ ʐ j e p ə p ə j s o ɾ ɑ ɣ w ɑ ɽ o n ʊ z m ʊ ʐ d a ɣ a ʃ ɑ n x a ɾ ʦ a h a m z j ɑ t k e ʐ ɪ <breath> h a ɣ ə w ɾ ə z s ɪ e n ʤ ɪ w ɑ l ɑ <foreign> k ɽ a j w o <breath> s ɪ e n ʤ ɪ w ɑ l ɑ <foreign> k ɽ a j w o a w ɑ m w ɑ j ɪ ʧ e d ɑ z m ʊ ʐ 
[303.405]
f ɑ j d a d ə p ɑ ɾ a ʤ o ɽ ɪ d ʊ j <foreign> k ɽ a j d a j h a ɣ ə d ʊ j s ɪ e n ʤ ɪ w ɑ l ɑ <foreign> d ə d e w e ɾ e k ɽ a j w o ʧ e d ɑ x o p e ʈ ɾ o l o t ə z m ʊ ʐ q ɪ m a t ʊ n a w ə ɾ a s e d ə l b j ɑ x o ʦ o k s ɪ e n ʤ ɪ n ə a x l e b j ɑ x o p e ʈ ɾ o l a x l e 
[312.135]
<no-speech> 
[314.095]
<cough> <no-speech> h o d ɑ ʈ ɾ ɑ f ɪ k m ɽ a d ɑ ɾ a ʃ w o n ə n x o d e x p ə l k l ɪ k x e d e b e ʤ l ə j t ə x j ɑ l d a j ʦ ə ɾ a q a m t l ə l a j d ə n ə n d w o l a s b a ʤ e t l ə l a j w ə a w o s ɾ ɑ ɣ l a 
[324.055]
<no-speech> 
[326.445]
b e l k ʊ l d a ɣ a x o j ʊ s ɑ a t l ə k a m p j ʊ ʈ ə ɾ w ə l a g a w ʊ p ɽ a q b e ʤ ə l e p ɾ e w l ɑ ɽ ʃ ɪ <foreign> ʃ ɪ <foreign> l a g e d a j w ɪ d a ɣ a ʃ ɑ n t e b e ʤ ə l e z ɪ a w ɾ ɑ z ɪ <breath> g e s g e s h a m k a m d a j n ʊ o s g e s h a m k a m d a j d e s a ɾ a ʦ ə k a w e 
[338.415]
k a w e 
[338.755]
<no-speech> 
[342.915]
<hes> <breath> <lipsmack> a w d a ɣ a ɖ ɑ n ʈ o d e w ə k a t ə l o k ə n ə 
[346.445]
<no-speech> 
[348.945]
<int> j ɑ ɾ a ɖ e ɾ z a b a ɾ d a s t m ʊ w ɪ d ə j ɑ ɾ h a ɣ ə ɖ ɑ n n ə x o ɖ e ɾ z j ɑ t x ɑ j s t a d a j 
[354.055]
<no-speech> 
[355.505]
<no-speech> 
[356.065]
<no-speech> 
[357.415]
<no-speech> 
[357.765]
<no-speech> 
[359.225]
h o k ə n ə <foreign> ɖ e ɾ z j ɑ t z a b a ɾ d a s t d ɪ d ə d e n ə m ə x k e h a ɣ ə f ɪ l m j e ɾ ɑ ɣ l o n ʊ ʦ ʊ m ɾ a z a b a ɾ d a s t w o j ɑ ɾ ʃ ɑ ɾ ʊ x x ɑ n ɖ e ɾ p ə t a ɾ a q ɪ ɾ a w ɑ n d a j 
[367.615]
<no-speech> 
[370.495]
<no-speech> 
[370.895]
<no-speech> 
[375.605]
<breath> h o k ə n ə j ɑ ɾ d a ɣ a x a b ə ɾ a x o d ə x o h a ʦ e ɖ ɑ n ʈ o k x e h a ɣ ə s a ɾ k x e <foreign> ɖ e ɾ z a b a ɾ d a s t d a j h a ɣ ə <foreign> k x e ʧ e ɾ ɑ ɾ a w ɑ n w ɪ <breath> h a ɣ ə ʃ ɑ t ə ʧ e w ɪ x t a t a ɽ ə l a j w ɪ a w ʃ ɪ o s l ə ʐ ɣ a ʈ ʃ ə w ɪ d a j 
[384.765]
<no-speech> 
[389.685]
<no-speech> 
[390.335]
<no-speech> 
[394.715]
b e l k ʊ l h o <breath> <cough> h o p ɑ k e s t ɑ n f ɪ l m d ə ʃ ɑ n w ɑ ɾ h a ɣ ə h a m ɾ ɑ ɾ a w ɑ n d a j j ɑ ɾ x ə ʊ m ɪ d ʊ n a t ɾ e ɖ e ɾ d ɪ b o l ʦ ʊ m ɾ a h e ʈ ʃ ʊ ɖ e ɾ a m ʊ d a p a s ʧ e ɾ t a p ɑ k e s t ɑ n d ɑ s e f ɪ l m ɾ ɑ w a ɽ ə l o 
[406.635]
<no-speech> b e l k ʊ l 
[408.895]
<no-speech> 
[410.535]
n ʊ ɾ a w o s 
[411.975]
<no-speech> 
[413.735]
k a w ə m j ʊ 
[414.525]
<no-speech> 
[416.355]
h o j ɑ ɾ a h a ɣ ə <breath> 
[417.825]
<no-speech> 
[420.185]
h a ɣ ə h a m ɖ e ɾ z j ɑ t x ɑ j s t a f ɪ l m w o a w d a ɣ a ʧ e d a j ʧ e o s ɖ ɑ n t ɾ e ɾ ɑ ɾ a w ɑ n d a j 
[424.695]
<no-speech> 
[429.675]
ɖ ɑ n t ɾ e k x e x o m ɽ a ɑ m ə ɾ x ɑ n w ɪ ɑ m ə ɾ x ɑ n ɖ e ɾ m ʊ d a w ə ʃ w a ʧ e f ɪ l m j e n ə d a j ɾ ɑ ɣ l e <breath> ʧ e d ɑ f ɪ l m j e w ə g o ɾ ʊ k ə n ə m ɽ a d ɑ ʧ e ʃ ɑ ɾ ʊ x x ɑ n h a m x ə <foreign> k e ʐ ɪ x o d ə ɑ m ə ɾ x ɑ n d ɑ p a ɾ l a p a s e b ə ʦ a l o ɾ ə m p e n z ə m f ɪ l m ʃ ɪ ʧ e b a s 
[441.565]
<breath> d ɑ b ə m ʊ s a l s a l w ɪ ɾ ɑ z ɪ d ɑ b ə h e ʈ k e ʐ ɪ j ɑ ɾ <breath> g a ʤ n ɪ t ə w ə g o ɾ a t ɑ ɾ e z a m ɪ n p ə ɾ w ə g o ɾ a t ɾ ɪ ɪ ɖ ɪ ʈ s w ə g o ɾ a 
[449.205]
<no-speech> 
[452.575]
h a ɣ ə w ɾ ə z x o g a ʤ n ɪ j ʊ z ɑ j w ə k a t ə l o k ə n ə 
[454.775]
<no-speech> 
[458.175]
h o <cough> 
[459.115]
<no-speech> 
[463.065]
<hes> <no-speech> b e l k ʊ l x ɑ n n ə <foreign> 
[467.105]
<no-speech> 
[469.125]
<breath> j ɑ ɾ ɖ e ɾ z a b a ɾ d a s t f ɪ l m w o j ɑ ɾ m ɽ a ɑ m ə ɾ x ɑ n ɖ e ɾ k a m k a m f ɪ l m ʊ n a ɾ ɑ z e d ɑ w a l e 
[474.835]
<no-speech> 
[478.765]
e k t ɑ ʈ ɑ j g a ɾ d ə s a l m ɑ n x ɑ n d ə h a ɣ ə b ə h a m ɾ ɑ ʃ ɪ <cough> 
[483.425]
<no-speech> 
[485.995]
<breath> k a m j ʊ k a m <foreign> t ə b ə <foreign> k e ʐ ɪ 
[488.945]
<no-speech> 
[490.525]
b a s ʧ e z a 
[492.585]
<no-speech> 
[495.395]
x ə n ʊ ɾ j ɑ ɾ j ɑ ɾ ɑ n d o s t ɑ n d e ʦ a ŋ g a d ɪ f a ɾ h ɑ n ʦ ə m ə z o k x e d a j 
[500.225]
<no-speech> 
[503.265]
f a ɾ h ɑ n k a w ə m z ɑ j d a j j ɑ ɾ h ɑ s ʈ a l k x e d a j k ə ɾ ɑ ɣ l e d a j 
[505.695]
<no-speech> 
[507.995]
<cough> a w d ə ɑ w ɪ s d ə t ɾ ə h a ɣ ə w ɑ d ə w ɑ j ɪ b j ɑ ɪ s ɑ ɾ ʃ ʊ 
[510.645]
<no-speech> 
[513.365]
d ɑ ʦ ə ʧ a l w o 
[514.285]
<no-speech> 
[517.195]
n j ɑ j e w ə f ɑ t ʃ ə w ɪ w ə 
[518.574875]
<no-speech> 
[519.825]
x ə a w t a w f ɪ q ʦ ə m ə z o k x e d a j 
[522.055]
<no-speech> 
[526.285]
x ə x ə <int> a w d ə t a w f ɪ q d ə t ʊ ɾ ʊ ɾ d ə z o j w ɑ d ə w o x ə <breath> z a j d x o j ɑ ɾ m ɑ w a j ə l m ɑ a ɖ m e ʃ a n n ə d a j k ɽ a j d ɑ b ə ɾ e x t j ɑ w ɑ j ɪ k ə d ʊ ɾ w ɑ ɣ b ə w ɑ j ɪ 
[534.885]
<no-speech> 
[538.215]
<breath> h a ɣ ə w ɑ j ɪ z m ɑ m ɑ ɾ k s k a m ɾ ɑ ɣ l ə l a w b a s z ə b j ɑ d a ɣ a n ə k a w ə m 
[541.875]
<no-speech> 
[543.155]
b j ɑ a ɖ m e ʃ a n w ɑ j ɪ n ə k a w ə m 
[544.545]
<no-speech> 
[547.115]
a w n ʊ ɾ ɾ ɑ b a s x a j ɾ a w x a j ɾ j a t d a j d a ɣ a d ə <hes> d ɑ ɑ w ɪ s x o h a m d a ɣ a ʃ ɑ n ʧ a l d a j k ə n ə a l ɪ a l ɪ ʦ a ŋ g a ʧ a l d a j b j ɑ d ə ɾ s a ɾ a g a p l a g a w ə l a j d a j k ə n ə 
[556.335]
<no-speech> 
[561.435]
x ə a w e z ɑ z x o d ə ɾ t ə b j ɑ ʦ ə w ə n a w a j ə l k o ɾ k x e 
[564.055]
<no-speech> 
[567.665]
x ə a w a l ɪ d ə ɾ t ə m e s e ʤ ʊ n a k a w ɪ 
[570.295]
<no-speech> 
[572.995]
n ʊ x p ə l t ɑ l ʊ q m ə x a ɾ ɑ b a w ə k ə n ə m ɽ a d ə <foreign> d ɑ w ɽ e w ɽ e ʤ a g ɽ e d e x a j ɾ d a j <breath> d ɑ d ə <breath> m e s ɑ l x o k o ɾ p ə ʃ ɑ n d a j k ə n ə <breath> <hes> b a s p ə d e k x e b ə d ə j ʊ b ə l ə n a b e x ɪ n ə x a f a k e ʐ ɪ 
[582.665]
<no-speech> 
[586.055]
w ɑ j ɪ h a l ə k a l ə ʐ s a b ə ɾ w ə k ɽ a 
[587.635]
<no-speech> 
[589.235]
<no-speech> 
[589.885]
<no-speech> 
[592.675]
j ɑ ɾ d a ɣ a <foreign> j ɑ ɾ ɖ e ɾ z j ɑ t d a ɣ a ʃ ə w ɪ d a j j ɑ ɾ h a ɾ q e s ə m m ɑ l ʊ m ɑ t m ʊ ʐ t ə ɾ ɑ k a w ɪ 
[597.645]
<no-speech> 
[600.04]
