[0.000]
babo ka ka kêm kê kêm bike em biaxivin
[1.965]
<no-speech>
[4.795]
<no-speech>
[5.645]
<no-speech>
[6.665]
<int> elo <int>
[9.955]
<no-speech>
[11.425]
Ercan hevalê Ercan çawa yî tu baş î
[14.555]
<no-speech>
[18.225]
<int> baş im Xwedê ji te razî bi ka tu çawa yî tu baş î
[22.655]
<no-speech>
[28.775]
<no-speech>
[29.155]
<no-speech>
[30.355]
weleh saxiya te Xwedê ji te razî bi
[33.115]
<no-speech>
[36.185]
<no-speech>
[38.125]
<no-speech>
[41.045]
Ercan
[41.905]
<no-speech>
[45.205]
ê ka tu çawa dikî baş î <int>
[47.875]
<no-speech>
[53.145]
<int> weleh saxiya te
[55.475]
<no-speech>
[56.515]
<int> ka (()) aqilê te (()) <laugh>
[62.235]
<no-speech>
[63.935]
<no-speech>
[64.285]
<no-speech>
[68.085]
<no-speech>
[68.605]
<no-speech>
[70.435]
<no-speech>
[71.105]
<no-speech>
[72.205]
<no-speech>
[72.625]
<no-speech>
[73.695]
hevalê Ercan <laugh>
[76.155]
<no-speech>
[77.385]
<no-speech>
[77.735]
<no-speech>
[79.705]
min got
[80.655]
<no-speech>
[82.025]
<no-speech>
[82.375]
<no-speech>
[83.465]
<no-speech>
[83.985]
<no-speech>
[85.505]
ka dirûma <laugh>
[86.625]
<no-speech>
[87.595]
<int> ê ka tu çawa yî <int> Kenan
[90.525]
<no-speech>
[91.985]
(()) bes e oxlum (()) gerek e (()) xeber nede Ercan
[97.275]
<no-speech>
[99.425]
Ercan dengê min tête ta
[101.215]
<no-speech>
[104.095]
<no-speech>
[104.455]
<no-speech>
[106.335]
ê de ka çi heye çendîn e tu li ku derê yî
[108.895]
<no-speech>
[119.195]
Qadir nayê malê bi ker e
[121.075]
<no-speech>
[124.485]
<no-speech>
[124.835]
<no-speech>
[126.345]
<no-speech>
[127.015]
<no-speech>
[128.945]
<int> baş im Xwedê ji te razî bi
[131.005]
<no-speech>
[138.005]
Edûl çi kir
[139.125]
<no-speech>
[140.855]
kafeyê kafeyê
[142.045]
<no-speech>
[143.785]
kafe were kafe
[144.985]
<no-speech>
[149.455]
min ji wî fehm nekir
[150.505]
<no-speech>
[152.705]
<no-speech>
[153.105]
<no-speech>
[155.825]
weleh ez fehm nakim (()) ez bêjim
[157.865]
<no-speech>
[162.335]
<int> na <int>
[164.625]
<no-speech>
[169.975]
deng neke <int> ê ka tu çawa dikî baş î
[172.835]
<no-speech>
[174.115]
<no-speech>
[176.625]
<no-speech>
[179.585]
weleh ez jî baş im Ercan kêf kêf kêfa min e çayê vedixwim
[183.625]
<no-speech>
[189.125]
<no-speech>
[190.065]
<no-speech>
[192.105]
hevalê baran jî silavan li te dike <hes> hevalê Selam û hevalê Bekir û hevalê Mehsûm
[197.695]
<no-speech>
[198.585]
wa ye silavên wan li te heye
[200.145]
<no-speech>
[202.935]
eleykum selam ser çawan
[205.595]
<no-speech>
[210.355]
baş in ew jî silavan li te dikin
[212.655]
<no-speech>
[221.285]
ê tu çûyî mektebê
[222.905]
<no-speech>
[227.775]
ara te û mekteba te çawa ye t- baş e
[230.985]
<no-speech>
[235.045]
ê de Xwedê bike <int>
[238.115]
<no-speech>
[239.125]
<no-speech>
[239.725]
<no-speech>
[242.205]
<no-speech>
[242.555]
<no-speech>
[244.445]
<no-speech>
[245.225]
<no-speech>
[246.455]
<no-speech>
[246.805]
<no-speech>
[251.875]
<no-speech>
[252.295]
<no-speech>
[253.405]
Ercan
[254.245]
<no-speech>
[258.755]
<no-speech>
[259.735]
<no-speech>
[260.595]
te maça Galatasarayê dît
[262.045]
<no-speech>
[265.145]
<sta> maça Galatasarayê
[267.755]
<no-speech>
[269.515]
<no-speech>
[269.885]
<no-speech>
[270.745]
<int> erê nizanim çawan bikim ûç îkî son
[273.785]
<no-speech>
[274.585]
<no-speech>
[275.505]
<no-speech>
[277.265]
uçê û didu qezenc kir Galatê ha
[279.895]
<no-speech>
[281.245]
<no-speech>
[282.485]
<no-speech>
[283.485]
weleh qezenc kir Galatasaray
[285.635]
<no-speech>
[291.535]
golên wê hevdu re Drogba Sneîjder
[295.745]
<no-speech>
[297.635]
tu hêdî biaxive (()) min
[299.885]
<no-speech>
[300.725]
<int> Eboue Drogba Sneîjder
[302.635]
<no-speech>
[305.245]
<no-speech>
[307.035]
<no-speech>
[311.775]
erê Zekî silavan li te dike (())
[314.505]
<no-speech>
[315.855]
<no-speech>
[316.355]
<no-speech>
[319.115]
<no-speech>
[319.485]
<no-speech>
[320.625]
<no-speech>
[322.925]
<no-speech>
[324.515]
<int> Erco ye (()) kete min
[327.455]
<no-speech>
[328.595]
hevalê Bekir ez ê Memê <int> temam deqekî deqekî
[333.395]
<no-speech>
[334.625]
<no-speech>
[335.045]
<no-speech>
[336.275]
ê <int>
[336.925]
<no-speech>
[338.405]
loma ma ma Galatasaray çi maç stend te dît
[341.455]
<no-speech>
[343.785]
<int> Galatasaray min got çi maç stend te nedît loma
[348.575]
<no-speech>
[352.965]
<int> ax xwezî te sêrê kiriba yaho çi maç bû çi maç <int>
[357.935]
<no-speech>
[360.275]
<no-speech>
[360.655]
<no-speech>
[362.125]
<no-speech>
[362.485]
<no-speech>
[364.735]
na (()) xilas
[367.685]
<no-speech>
[372.265]
dengê min nahere te Ercan <int>
[374.645]
<no-speech>
[375.895]
<no-speech>
[378.025]
<no-speech>
[379.345]
<int> min got Galatasaray behsa Galatasarayê min dikir lo
[382.265]
<no-speech>
[386.805]
<int> xwezî te maça wê sêrê kiriba <int>
[388.765]
<no-speech>
[395.735]
<no-speech>
[402.705]
min sêrê kir
[404.025]
<no-speech>
[410.055]
<hes>
[410.695]
<no-speech>
[414.805]
na
[415.525]
<no-speech>
[423.065]
<no-speech>
[423.615]
<no-speech>
[426.435]
baş e weleh ma em ê çawa bikin <int>
[430.025]
<no-speech>
[431.595]
<no-speech>
[431.945]
<no-speech>
[434.375]
<no-speech>
[434.745]
<no-speech>
[436.985]
<no-speech>
[439.055]
<no-speech>
[440.655]
<no-speech>
[441.005]
<no-speech>
[443.465]
<sta> ê
[445.155]
<no-speech>
[448.245]
<no-speech>
[448.625]
<no-speech>
[454.575]
<sta> weleh ma gerek çi be
[457.325]
<no-speech>
[465.535]
<int> baş e <int>
[467.005]
<no-speech>
[468.155]
<no-speech>
[468.505]
<no-speech>
[473.395]
<no-speech>
[473.805]
<no-speech>
[477.795]
<int> Ercan
[479.345]
<no-speech>
[483.805]
<int> mektebayê da (()) hebe ez diçûm mektebê
[486.045]
<no-speech>
[487.635]
<no-speech>
[488.045]
<no-speech>
[491.495]
ê he heta mekteb e ye ku
[493.235]
<no-speech>
[498.505]
mekteba te
[499.615]
<no-speech>
[504.745]
min got dersên te çawan e dersên te <int>
[507.665]
<no-speech>
[509.525]
<no-speech>
[510.005]
<no-speech>
[516.235]
ê wekî dîn tu çi îşê dikî
[518.215]
<no-speech>
[520.225]
<no-speech>
[521.515]
<no-speech>
[523.695]
<no-speech>
[524.045]
<no-speech>
[526.145]
<int> (()) ku anî
[533.835]
<no-speech>
[535.865]
<no-speech>
[536.845]
<no-speech>
[538.435]
ê te bi wan re ew diziyê xwe çawa dikin yaho
[540.715]
<no-speech>
[544.405]
<sta> <int> Ercan
[552.405]
<no-speech>
[554.545]
<int> min got em te bibin wan hûn diziyê me diyar kin
[556.745]
<no-speech>
[559.145]
<int> min got tu çi dikî tu baş î ka emele diya te û bavê t-
[562.925]
<no-speech>
[565.215]
<no-speech>
[568.465]
<no-speech>
[569.405]
emele diya te û bavê te ye min got <laugh>
[573.325]
<no-speech>
[576.635]
<no-speech>
[577.605]
<no-speech>
[578.955]
<laugh> baş e baş e ne welê Erco <laugh>
[584.765]
<no-speech>
[589.115]
(()) <int> Ercan
[593.365]
<no-speech>
[595.305]
min got miemeleyên diya te û bavê te û (()) we baş in
[599.655]
<no-speech>
[600.040]
