[0.000]
<no-speech>
[2.965]
<no-speech>
[4.745]
<no-speech>
[5.715]
elo <int>
[7.635]
<no-speech>
[9.725]
he he dengê min tête vêga <int> <hes> elo çawan î çi dikî çawan î çawan î çawa diçe
[18.805]
<no-speech>
[20.325]
<click> yaw <hes> dev jê berde hinekî kêm bike lo
[23.835]
<no-speech>
[25.605]
numara hevalekî ye tu çi dikî çi-
[27.285]
<no-speech>
[30.185]
<sta> çawa diçe mekteb çawan e deng ji te nayê mal nekeve meriv zana qerê tu navêjî çika em bigerin
[36.495]
<no-speech>
[43.335]
<hes> tu kengî geriyayî
[44.775]
<no-speech>
[46.895]
dengê min tê tê dengê min xeber
[49.025]
<no-speech>
[51.585]
ey ey vekirî bû telefon
[53.055]
<no-speech>
[53.905]
Zerê me xeber da
[55.075]
<no-speech>
[59.985]
weleh na weleh ne hay jê bin
[62.185]
<no-speech>
[65.125]
he he he temam temam biborin <laugh> (())
[68.105]
<no-speech>
[69.395]
erê ez zanim dengê te hinekî ara ara tê da tiştekê nabe erê erê tiştekê nabe kengê ewk bû ez ê bêjim
[75.415]
<no-speech>
[76.285]
îcar tu çi dibêjî <int> çawa diçe mekteb çawan e
[79.235]
<no-speech>
[80.105]
weleh normal e lo dikanê çi ma diçim mekteb e têm em şevê sêr dikin lo çîrokê jê ra digot şeva (())
[88.515]
<no-speech>
[90.915]
wir e em serê xebat em di serî dişixulin vê derê em herin hevalkî me got ka çika hinekî (()) binihêrin
[96.295]
<no-speech>
[100.715]
ê weleh baş îcar tu çi dikî çawan î <int> weleh ez neçûme da sibe xeber didim dilê min heye ez herim
[107.975]
<no-speech>
[115.255]
wa êdî serma ye
[116.815]
<no-speech>
[118.515]
hê jî serma wa heye tu dibe vir biharê vê dera biharê hat milet êdî tîşortan xwe dike
[123.485]
<no-speech>
[128.715]
wa weleh me vê dera milet tenê milet tişt e çênekiriye
[131.675]
<no-speech>
[140.895]
erê weleh ê berdin çawa diçe duh bû pêr bû duh bû min Husêra min Husêra jî xeber da min got çend hev herin em tavla yê bileyizin
[149.065]
<no-speech>
[151.555]
<sta> û me me çû leyîst weleh min wî mehf kir dîsa
[155.065]
<no-speech>
[156.495]
<sta> û û îro jî tu <laugh> îro jî ka were em herine Farqînê min got ka em herine Farqînê çi bikin vê dera dinyayekê îşê me heye ketine ser hev
[167.155]
<no-speech>
[171.885]
weleh min jî fehm kir
[172.975]
<no-speech>
[174.615]
erê
[175.155]
<no-speech>
[177.975]
erê
[178.385]
<no-speech>
[189.875]
neyse dibe de ew jî ewkê berdayê Tetwan jî (()) bela dibe ew jî ne çêdibe sala diçe maça
[198.205]
<no-speech>
[199.515]
weleh mînakî min dev jê berda ye gerçî îro me xeber da min got ez belkî şiklê vî hefteyê ra bileyzim
[205.695]
<no-speech>
[207.365]
beredayî lo em çi qas yek dinyayekê dixwin û rezîl dibin dev jê berdidin <int>
[218.355]
<no-speech>
[219.555]
hê tiştekê nabe lo me ra dixine xêra wî biçûkî erê weleh qene xêra wî rojî wisa
[225.905]
<no-speech>
[226.805]
qet ne xêrtêk pê ra êdî bes e pê ra weleh zehmet e
[229.505]
<no-speech>
[230.405]
<sta> (()) ew jî jê ra ma
[235.055]
<no-speech>
[236.765]
<sta> lê geriya doh bû lê geriyam doh bû
[241.405]
<no-speech>
[243.425]
duh min lê geriya
[244.895]
<no-speech>
[245.905]
weleh ez dibêm saet çi saet duwazdeh bûye got par mektebê derketin em dihatin malê telefon kir got ez ji me ra lazim e (()) Remezan hat jî min got
[257.895]
ez ê bibim ez ê taştê dixim (())
[260.775]
<no-speech>
[264.365]
<sta> weleh min jiyanê bir (()) tune nizanim
[268.505]
<no-speech>
[269.745]
elo
[270.485]
<no-speech>
[272.015]
<no-speech>
[272.825]
<no-speech>
[274.645]
erê deng tê min lo
[275.955]
<no-speech>
[277.425]
<sta> deng tê tê xeber de
[279.085]
<no-speech>
[282.335]
na zarokê dîn aliyî negere yaw telefona min e din ê deng jê der nayê zanî
[287.235]
<no-speech>
[289.215]
<sta> deng jê der nayê ji wê ez naxwazim xeber dem jî
[291.625]
<no-speech>
[293.625]
ne razan kiriye
[295.045]
<no-speech>
[296.615]
<no-speech>
[297.005]
<no-speech>
[300.645]
(()) yê selama te ra bikire
[303.645]
<no-speech>
[304.705]
<no-speech>
[305.055]
<no-speech>
[306.385]
<no-speech>
[306.735]
<no-speech>
[309.465]
(()) ez ez virê dibe erê zanim te çi ma telefona xwe dereng vekir
[314.965]
<no-speech>
[317.895]
elo erê
[319.625]
<no-speech>
[320.705]
<no-speech>
[321.325]
<no-speech>
[322.415]
min gote çi ma telefona xwe dereng erê erê
[324.675]
<no-speech>
[327.975]
<no-speech>
[328.335]
<no-speech>
[330.765]
ê te telefonî yekê kir yan na
[333.305]
<no-speech>
[335.655]
<sta> hate pir spî kir
[338.165]
<no-speech>
[341.755]
te fehm yekê kir yekê
[343.185]
<no-speech>
[344.365]
te ez bêm yekê tune bi Xwedê min got derî lê vekir te yek yek dît
[347.595]
<no-speech>
[351.585]
te fehm kir yan na televîzyonê bilind kir
[353.795]
<no-speech>
[355.305]
ew tiştekê nakin te da wîna
[357.245]
<no-speech>
[359.515]
neyse çi kî nakim dengê te tê min de dengê min yên nayê te dixwest- dixwestim min telefon kir îcar te pêl yekê kir yan na
[365.965]
<no-speech>
[369.155]
<int> ê temam va yên dîn (()) min guhdar bike (()) wexta ku me îcar telefon kir
[374.795]
<no-speech>
[375.645]
te pêlî yekê kir yan na
[377.025]
<no-speech>
[379.995]
elo
[380.615]
<no-speech>
[382.285]
kuro wexta min telefon kir te dît min <hes> te vekir pêl yekê kir te pêl kir yan na
[386.735]
<no-speech>
[390.715]
ê temam çawa baş e tiştekê nakim ê te-
[393.455]
<no-speech>
[398.865]
<int> tu wir de ba
[400.415]
<no-speech>
[401.275]
<laugh> xwe ez tiştekê nakim min got te mala te dirûma malê çawan e mal çawan e
[405.505]
<no-speech>
[408.485]
elo
[409.105]
<no-speech>
[411.075]
<int> nizanim kî
[412.635]
<no-speech>
[413.595]
ê baş e bavo weleh
[415.135]
<no-speech>
[416.325]
ê baş e hûn nayên vê hêla
[417.865]
<no-speech>
[420.755]
wa dayê tu tişt ma haya min jî gelekî ma
[423.035]
<no-speech>
[427.595]
hûn çi ma heyanî vê saetê man
[429.415]
<no-speech>
[430.745]
wa
[431.425]
<no-speech>
[438.535]
<no-speech>
[439.575]
<no-speech>
[443.215]
<int> wa min nehişt weleh tu nan jî bixwî
[445.795]
<no-speech>
[447.925]
weleh tu nan jî dixwî û
[449.485]
<no-speech>
[451.395]
weleh nizanim cem <hes> na na xeber na na xeber de çika xwe
[455.225]
<no-speech>
[457.395]
<no-speech>
[457.745]
<no-speech>
[460.095]
ê <laugh> bise bise hindik ma çika min bo te aniye ma hûn (()) goşt çêkiriye
[467.345]
<no-speech>
[469.535]
erê min got şîva we çi ye
[471.155]
<no-speech>
[476.345]
he ê baş e weleh şîva we xweş e
[478.115]
<no-speech>
[480.275]
<no-speech>
[481.115]
<no-speech>
[484.045]
<no-speech>
[484.415]
<no-speech>
[486.245]
<no-speech>
[486.595]
<no-speech>
[488.865]
wa <laugh> tu ê malê xeber didî
[491.645]
<no-speech>
[494.055]
neyse min got tu li ba wan î xeber didî
[497.265]
<no-speech>
[500.095]
ê neyse de baş e baş e ez ji te ra tiştekê bêjim
[506.095]
<no-speech>
[508.345]
dengê min tête vêga
[509.685]
<no-speech>
[511.175]
<sta> de ka dest pê kir he he yaw ez <laugh> çêbû
[520.765]
<no-speech>
[521.875]
<int> kuro ez (()) memleketê (())
[526.045]
<no-speech>
[527.685]
dengê te min tête
[529.035]
<no-speech>
[531.575]
kuro <hes> dengê min tête vêga
[533.945]
<no-speech>
[537.815]
<hes> kuro Mistê wê rojê hat qaporta me
[540.875]
<no-speech>
[543.565]
saet min kantînê hinekî rûniştim
[546.315]
<no-speech>
[548.495]
midur digot digot min lê da (()) falan filan tişt dikir digot digot weleh binihêrê bişînin falan filan
[555.765]
<no-speech>
[557.345]
<no-speech>
[557.695]
<no-speech>
[558.515]
<laugh> yaw min pir gotin digot baş e zêde fakulteyê nîne digot ez ê dera bim min ê he roj rojan da
[565.915]
<no-speech>
[569.585]
erê weleh <laugh> we dîsa
[571.765]
<no-speech>
[574.065]
erê lo tu beredayî <laugh> em ji zû ve kuro li kantînê rûniştin mase qarşî yê
[580.535]
<no-speech>
[583.765]
we qeyd kir
[584.820]
