[0.000]
(())
[0.995]
<no-speech>
[2.205]
<int> (()) <int>
[3.965]
<no-speech>
[5.025]
<int> elo
[10.705]
<no-speech>
[12.085]
<sta> Leyla
[15.455]
<no-speech>
[16.475]
<no-speech>
[16.875]
<no-speech>
[18.335]
<sta> deng tê <breath>
[24.395]
<no-speech>
[25.565]
erê <laugh> <breath> <int> <laugh> biştexile ma çi bû
[33.315]
<no-speech>
[35.085]
<sta> he
[40.665]
<no-speech>
[42.555]
<no-speech>
[43.195]
<no-speech>
[44.855]
dengê te nayê hijdîn biştexil
[47.775]
<no-speech>
[53.395]
kî hatiye
[54.495]
<no-speech>
[57.175]
<int> ne ji bîr <int>
[60.745]
<no-speech>
[62.225]
<no-speech>
[62.575]
<no-speech>
[63.655]
<sta> ê Têkoşîn hatiye ku
[68.225]
<no-speech>
[70.845]
<sta> ne li vir e ne li vir e
[75.015]
<no-speech>
[75.915]
<sta> (()) ma weleh dengê te dengê te nayê
[82.535]
<no-speech>
[84.935]
<int> <laugh> (()) min li mal e
[91.055]
<no-speech>
[92.185]
<laugh> <sta> temam biştexile heta ku telefon
[104.115]
tu tiştina bêje <sta>
[106.545]
<no-speech>
[107.475]
<int> kî <int> erê erebe <int> he
[118.315]
<no-speech>
[119.315]
<int> he
[120.865]
<no-speech>
[122.475]
<int> he
[124.115]
mm_hm
[126.525]
<sta> eger babê min biştexilin lê <int> heya bi xwe bê girtin biştexil
[135.755]
<no-speech>
[138.685]
temam ev dera dengê te nayê min
[140.585]
<no-speech>
[146.005]
<int> dengê wê nayê <laugh> te got çi
[150.545]
<no-speech>
[155.115]
<int> Nûrê li vir ev a ye Nûrê <int>
[159.225]
<no-speech>
[160.225]
<no-speech>
[160.675]
<no-speech>
[161.785]
<no-speech>
[162.845]
<no-speech>
[164.225]
<no-speech>
[165.065]
<no-speech>
[166.445]
<int> te <int>
[167.695]
<no-speech>
[169.455]
çi bû çi bû
[170.505]
<no-speech>
[171.805]
<int> Nûrê e
[173.455]
<no-speech>
[174.425]
tije ye <int> vir
[175.585]
<no-speech>
[176.975]
<sta> Tucen ji wey li vir e
[181.045]
<no-speech>
[182.045]
<sta> Viyanê ye (()) hemû li vir in Ayselê ye silavan li te dikin <laugh>
[191.455]
<no-speech>
[192.515]
<int> lê biştexile biştexile heya bi ber xweha te girtin <laugh> <int> çi <int>
[202.755]
<no-speech>
[204.035]
<foreign> lê
[204.975]
<no-speech>
[206.855]
<no-speech>
[207.245]
<no-speech>
[209.905]
<laugh> <sta> dengê te nayê <int> (()) nakî nakî
[221.595]
<int> heya bi xwe bê hat girtin negire
[227.225]
<no-speech>
[229.525]
<no-speech>
[240.735]
di ezmûna were <int> (()) naştexile bigirim ez ê bêm <int> he
[252.665]
<int> çi bû
[256.115]
<no-speech>
[257.115]
<no-speech>
[257.755]
<no-speech>
[258.855]
<no-speech>
[264.545]
<no-speech>
[265.365]
<int> ez ê bîstek- <int> bêm lê
[277.185]
<no-speech>
[278.515]
<no-speech>
[280.045]
(())
[280.425]
<no-speech>
[282.215]
<int> Nûriye
[283.605]
<no-speech>
[284.835]
<int> Nûrê ne li wê ye here malê
[289.995]
<no-speech>
[291.855]
<no-speech>
[300.525]
<no-speech>
[301.595]
negire heya bi xwe bê girtin tê çi bikin
[304.555]
<no-speech>
[307.615]
<int> (()) ez ê biştexil
[310.585]
<no-speech>
[311.625]
dibê tu biştexile <laugh> (()) biştexile <laugh>
[316.055]
<no-speech>
[318.135]
ez bêm çi <laugh> <int> biştexile min got <int>
[329.595]
<no-speech>
[330.685]
<no-speech>
[342.545]
tu tenê li malê yî <laugh> <int> çi
[348.795]
<no-speech>
[350.105]
<no-speech>
[350.475]
<no-speech>
[352.205]
<no-speech>
[352.585]
<no-speech>
[353.595]
<int> belê belê ez ê bêm <int>
[356.035]
<no-speech>
[359.675]
<no-speech>
[360.815]
<no-speech>
[361.655]
<int> Nûrê dibê ez nayêm
[363.995]
<no-speech>
[368.495]
<no-speech>
[368.855]
<no-speech>
[370.275]
çi <no-speech>
[372.815]
<no-speech>
[374.075]
Nûrê (()) Kînemê
[377.415]
<no-speech>
[382.135]
<int> temam temam <int> erê <int> çi bû <int>
[394.055]
<no-speech>
[394.205]
<no-speech>
[397.705]
he
[398.455]
<no-speech>
[400.195]
paste
[401.055]
<no-speech>
[403.635]
<int> temam biştexile bila dengê wê derekê
[406.745]
<no-speech>
[407.765]
<sta> <laugh> de Zeyno were (()) <laugh>
[413.315]
<no-speech>
[415.345]
<int> Nûrê dibê ez nayêm ha
[420.165]
<no-speech>
[421.465]
Nûrê Nûrê Nûrê Nûrê <int> Kînemê li wir e
[432.405]
temam ez ê jêr bêjim ku hatin wir va ye li vir e dibê ez nayêm <int>
[437.065]
<no-speech>
[438.045]
<sta> <laugh> dibê bera Nûrê were cem me <int> <no-speech> he dibê Kînemê li cem me ye dibê bila hela were nizanim
[449.655]
em ê werin pastayê xwe ra û tişt mişta (()) dengê wê nayê min e wilo dibêje <int> bise ez bi Nûrê re biştexilim
[461.445]
dibê ez nayêm dibe ku ez sibê bêm
[464.235]
<no-speech>
[465.505]
<no-speech>
[466.065]
<no-speech>
[467.225]
<int> (()) dixwazî paste çêkim qey
[473.415]
<no-speech>
[475.315]
(())
[476.105]
<no-speech>
[476.985]
dibê ez îro nikarim werim dibê *me* xwarinan nikarin çêkin nizanim <sta> dibê ez li vê derê me ez îro nikarim
[488.845]
<sta> <laugh> Ayşegul li wir zaten deng nayê min lê
[500.645]
(())
[501.475]
<no-speech>
[503.335]
<no-speech>
[504.775]
<no-speech>
[506.915]
(())
[507.725]
<no-speech>
[510.435]
<no-speech>
[512.135]
<no-speech>
[513.655]
<sta> çi te dixwest <int> çi <int> îro di erebê de digerin <int>
[525.625]
<int> em <hes> li ku ne em li (()) ne
[531.955]
<no-speech>
[536.875]
em vedigerin malê <int> <breath>
[544.475]
<no-speech>
[545.525]
<breath> çi <int> <breath> (())
[551.595]
<no-speech>
[555.215]
li cem min e dibê bigire <sta> <laugh> dibê na dibê bigire bira bi ber xwe bê girtin <laugh> dibê bira negire heya bi ber xwe bê girtin
[565.585]
<no-speech>
[567.895]
<sta> <laugh> bira (()) Nûrê <laugh> bira dayne erdê (()) <laugh>
[579.845]
<no-speech>
[587.815]
<no-speech>
[589.025]
<int> deng tête <laugh> Nûrê dibê bira
[599.940]
