[0.000]
<no-speech>
[8.765]
roj baş he
[10.235]
<no-speech>
[11.645]
ha roj baş he
[13.415]
<no-speech>
[15.705]
erê erê
[16.805]
<no-speech>
[19.325]
sax bin baş in hûn çawan in
[21.605]
<no-speech>
[23.295]
em baş in hûn çawan im hûn çi dikin
[25.715]
<no-speech>
[27.985]
hûn sax bin ser (()) mala vir
[30.395]
<no-speech>
[32.785]
ew ji silava we dike
[34.655]
<no-speech>
[38.635]
ha ê li ser çavan hati li ser çavan silavê me lê bikin
[42.625]
<no-speech>
[46.865]
wa ê baş in
[48.795]
<no-speech>
[50.235]
tu nav vê derê
[51.365]
<no-speech>
[54.295]
(()) zarokê we çawan in
[58.245]
<no-speech>
[59.225]
baş in hemû baş in silav dikin hûn çawan in
[62.355]
<no-speech>
[66.005]
ê li ser çavan ê ser seran li ser çavan ew ji silav dikin zarok çawan in kalok pîrê (()) xwe çawa kirîn
[74.315]
<no-speech>
[83.725]
<hes>
[84.715]
<no-speech>
[87.715]
ê baş e
[88.685]
<no-speech>
[93.265]
<hes> Fatma ji tê
[95.585]
<no-speech>
[97.045]
he ê
[97.805]
<no-speech>
[103.195]
<hes>
[103.855]
<no-speech>
[107.745]
he
[108.255]
<no-speech>
[110.435]
<hes> weleh (()) birî (())
[113.545]
<no-speech>
[114.395]
ew lawo lawo lawo
[116.665]
<no-speech>
[117.865]
ew sala wî çû
[119.315]
<no-speech>
[120.405]
erê Y_G_S boş îsal çû vala belkî aşmîş bi (()) aşmîş bi (()) dîsa
[126.845]
<no-speech>
[129.885]
erê hatibû gund
[131.345]
<no-speech>
[136.205]
<hes> ê baş e
[138.785]
<no-speech>
[139.625]
îcar tu yê yanî êvara hati yê serê sibê heftan de herî
[143.785]
<no-speech>
[146.335]
ha
[146.885]
<no-speech>
[150.325]
he he temam
[153.065]
<no-speech>
[156.575]
<hes> <hes> <hes> ê baş e
[162.235]
<no-speech>
[164.485]
wî
[165.235]
<no-speech>
[167.945]
weleh wa ye ew ji şîvê çêdikin bi Xwedê (()) bikelînin û nizanim de tişt miştan diqelînin wa ye li metbex dişixulin ew (())
[178.325]
<no-speech>
[181.345]
(()) <hes> weleh em ne (()) wan in heta (()) diqelînin û nizanim tişt miştê diqelînin nizanim bê çi ye ji xwe ra <laugh> xwarinekê çêdikin ji bo şîva êvarê
[192.475]
erê weleh çi çêdikin hûn
[196.295]
<no-speech>
[197.665]
gundiya wa (())
[199.705]
<no-speech>
[201.295]
dibêje em (()) çêdikin
[202.975]
<no-speech>
[205.115]
<no-speech>
[205.725]
<no-speech>
[210.185]
weleh me telefon şevê dîn me vekir mala xalê xwe ra (()) çûbû Bornova mala wan şevê dîn mala wan bûn (()) gerek niha hîç
[221.385]
(()) ya min mala Ûsif wan
[223.885]
<no-speech>
[225.065]
<hes>
[225.825]
<no-speech>
[227.805]
yaw ev- ev tu diştexilî wilo ev- ev hemû ev ku derê ye ev dere
[232.505]
<no-speech>
[234.765]
ê
[235.405]
<no-speech>
[241.035]
<no-speech>
[242.335]
<no-speech>
[244.765]
<no-speech>
[245.905]
<no-speech>
[247.135]
weleh axaftin pir (()) tirkî wilo ez bêjim ha
[251.685]
<no-speech>
[252.835]
he (()) zanî konturê wê pir (()) tirkî
[258.105]
<no-speech>
[264.565]
rê de heta <int> têlê te got te got (()) eleqe me yekê li têlê kiriye deng nehat weleh em (()) wan (())
[275.785]
<no-speech>
[279.795]
ê min elo- min elo elo kir- elo elo kir deng nehat min
[284.945]
<no-speech>
[286.415]
min elo elo kir deng tune bû wa
[290.035]
<no-speech>
[292.155]
weleh
[293.005]
<no-speech>
[294.735]
kevir dibû ji
[296.085]
<no-speech>
[297.085]
he (()) tê virê (())
[300.635]
<no-speech>
[302.505]
ha Zîlan
[304.255]
<no-speech>
[306.545]
tu îcar (()) dikî
[308.035]
<no-speech>
[308.865]
doh ketibûyê digot baş derbas bûye nizanim <int> (()) baş derbas bûye (()) <int> min got mesaj nayê nizanim ez (())
[319.405]
berê dişandin (()) mesaj nehat heya neha-
[324.565]
<no-speech>
[326.605]
<no-speech>
[328.235]
<no-speech>
[337.835]
mesaj he weleh mesaj baş bû nizanim yaw nizanim de weleh (()) dibû (())
[346.385]
<no-speech>
[349.485]
<no-speech>
[350.035]
<no-speech>
[350.985]
pare ji wexta tu herî taksîtan bidî mirov dikarî yanî ba wê <hes> mamoste wan
[358.035]
<no-speech>
[358.985]
<hes> ez bêjim (()) meriv dikare yanî (()) ka (()) wan çawa derbas dibin
[366.275]
<no-speech>
[368.395]
(()) heya kengî wilo (()) biaxivin
[372.155]
<no-speech>
[374.725]
ê te yî bibin
[375.725]
<no-speech>
[380.485]
<no-speech> heya deh deqe tu biaxive heya got ji ber
[384.095]
<no-speech>
[386.345]
<no-speech>
[386.775]
<no-speech>
[388.565]
ez çûm ofîsê min tûrek avêt <int> (()) şûn ba heya ba wan dersxana wilo min tûrek avêt (()) min tûrek avêt û vegeriyam hatim malê
[399.825]
<no-speech>
[401.795]
<no-speech>
[402.205]
<no-speech>
[403.315]
erê çima qey hîna (())
[406.795]
<no-speech>
[409.915]
ha
[410.355]
<no-speech>
[411.535]
na
[412.115]
<no-speech>
[416.505]
(())
[417.135]
<no-speech>
[423.485]
wa
[424.215]
<no-speech>
[429.475]
ji giranî
[430.415]
<no-speech>
[432.725]
<hes>
[433.615]
<no-speech>
[434.505]
ê baş in ê baş in
[438.465]
<no-speech>
[440.205]
ê
[440.975]
<no-speech>
[444.535]
niha Emrah malê ye nizanim sêşemê here serê sibê yê here mezeta wî heye du roja du roja çar saeta îcar here Iz-
[455.915]
(()) <hes> digot (()) <hes> çend roj rojekê zêde wê li malê bimîne ez ê roja sêşemê gerek derkeve here nobeta wî (()) wê rojê heye <int>
[467.425]
<hes> nizanim derketiye dêmek kî ew çûye digere kêfa xwe dinihêre
[472.065]
<no-speech>
[479.265]
Mehemed (()) kirîne nakişîne (()) nakişîne
[485.845]
<no-speech>
[487.545]
(()) bişîne
[490.105]
<no-speech>
[490.985]
(()) pir (()) dikişîne û ew sivik dikişîne ha
[495.275]
<no-speech>
[498.825]
weleh nakişîne
[500.465]
<no-speech>
[503.325]
ya ê lê çi heye çi tune ye zar çi dikin
[509.565]
<no-speech>
[511.315]
erê
[512.225]
<no-speech>
[513.915]
(()) ji neaxivîn na
[517.845]
<no-speech>
[519.205]
tu dizanî ew şîvê çêdikin dîsa
[521.355]
<no-speech>
[526.805]
(())
[529.065]
<no-speech>
[530.095]
li ser çavan
[531.115]
<no-speech>
[534.695]
vê derê hewa wir xweş wilo (()) çû (()) here (()) û wan re şînahî (()) şînahî (()) darê me şîn bûne (()) vekirine
[545.565]
(()) hundir hinekî aciz bûye derve germ e hundir sar e (())
[554.895]
<no-speech>
[557.445]
ê welehî ez welehî ez (()) xanî tune mal tune nan tune ne (()) xaniyê me hebaya (()) Stenbolê (())
[569.325]
<no-speech>
[570.615]
(()) hema xaniyekê me heba (()) xanî (()) em ê herine mala kê em herin ber deriyê kê (()) wê çaxê mêvandariyê mêvandariyê
[582.285]
(())
[582.965]
<no-speech>
[584.505]
<no-speech>
[584.955]
<no-speech>
[588.735]
tu rind dibê van (())
[590.505]
<no-speech>
[591.755]
(())
[592.165]
<no-speech>
[595.455]
meriv (())
[596.395]
<no-speech>
[598.795]
me rojekê dît
[599.675]
(())
[600.220]
