[0.000]
<no-speech>
[1.655]
elo
[2.875]
<no-speech>
[3.855]
Ezgî merheba
[4.985]
<no-speech>
[5.885]
merheba Ezgo
[6.755]
<no-speech>
[7.645]
baş im tu sax bê tu çawa ye
[9.245]
<no-speech>
[10.765]
baş im tu sax bê
[12.405]
<no-speech>
[13.865]
welehî na ez li akademiyê me
[16.025]
<no-speech>
[16.935]
mektebê me ez tu çi dike
[18.715]
<no-speech>
[20.865]
mektebê me ez mektebê got welehî Serhad (()) ders hebûn (())
[25.325]
<no-speech>
[27.485]
erê lê dersa min heye tu çi dike
[29.315]
<no-speech>
[31.485]
elo Ebrû he tu jî li wê derê ye
[35.285]
<no-speech>
[36.515]
he dersa we hebû îro
[38.005]
<no-speech>
[40.095]
he qediya
[40.925]
<no-speech>
[42.105]
he he ê baş e ya ez ez çûme Edenê diya min nexweş bû hefteyekî ez hatim niha he sax bî
[54.015]
spas dikim ew bernameya me hebûya
[56.125]
<no-speech>
[58.415]
ya weleh hinek ew ser <hes> çît
[61.755]
<no-speech>
[62.635]
erê lê ew ji bo seyranê
[64.525]
<no-speech>
[67.905]
ez herim uh_uh îcar ji ber ez çûm me diger- çawa
[72.405]
<no-speech>
[77.165]
ê weleh nizanim ciya min got em bikin em xwarin mirinê çêkin
[82.015]
<no-speech>
[83.765]
nabe qey
[84.565]
<no-speech>
[85.665]
<hes> ez nas dikim tu zana
[88.235]
<no-speech>
[89.115]
<hes> yan tu dibe yan jî heger baran nebare em derve jî em dikarin yanî ne wisa
[97.855]
<no-speech>
[99.945]
he weleh yanî derve eslinde xweştir e <cough>
[103.135]
<no-speech>
[105.945]
çû
[106.485]
<no-speech>
[109.005]
he he min got baran nebarî he cem we baran nebarî derve xweştir e yanî
[113.835]
<no-speech>
[116.045]
tune bû jî em mala te yan jî mala te jî em dikarin <hes>
[122.555]
<no-speech>
[123.605]
lê av e wek lê ye
[124.845]
<no-speech>
[126.995]
<hes> ew çû Gezî parkê çi (()) li vir ew çû parkê ser riya zanîngehê <hes>
[135.505]
<no-speech>
[137.615]
yê got yê got ku <hes> daristan he yê got daristan mm_hm
[143.005]
<no-speech>
[147.745]
he he he em wisa bikin ê baş dibe yanî mm_hm
[152.535]
<no-speech>
[153.635]
<no-speech>
[154.765]
<no-speech>
[155.895]
erê erê ez <hes> ez û Mîne em ê zû werin ji bo ku he yaw weleh ew roj <hes> yanî ewek hebû kîtleyek hebû ser
[167.755]
sira wê
[168.345]
<no-speech>
[169.405]
<hes> ewk kirîn (()) girtin yanî niha baş e lê moralê wê xira bûbû yanî tirs ew bû tirs cem tune bû ez çûm cem <hes>
[181.145]
wisa yanî niha baştir e niha baştir e yanî ew ku derket <int> yanî ê ez û ez ê bi hevala re bipeyivim wê çaxê yek bi yek
[189.495]
<no-speech>
[190.525]
baş im sax bî spas dikim ez ê hevala re bipeyivim ji bo bernameyê
[194.445]
<no-speech>
[197.175]
ji bo bernama Seyranê
[198.965]
<no-speech>
[202.225]
yek tê çûçikê wan
[203.985]
<no-speech>
[204.815]
erê erê hevalê me yê yê ku bi Omer werin yanî
[208.625]
<no-speech>
[210.295]
he ez ê ba bijmêrim yek bi yek
[213.835]
<no-speech>
[214.955]
<sta> tu fehm dibe
[216.715]
<no-speech>
[218.385]
ya ew ê ku dixwazin bira werin yê ku naxwazin ji xwe
[221.555]
<no-speech>
[222.665]
ev bi kêf xwe ne êdî (())
[224.185]
<no-speech>
[226.365]
erê <laugh> erê em ê wisa bikin ê wekî din ê kêfa te çi heye <int> konsert
[232.705]
<no-speech>
[235.075]
min got kêfa te çawa ye
[236.755]
<no-speech>
[238.365]
<no-speech>
[239.005]
<no-speech>
[246.265]
betilîn he şevekê te neguherî
[248.545]
<no-speech>
[251.005]
şev te negot here yê mektebê yê mektebê <int>
[255.075]
<no-speech>
[257.845]
negot here lê mm_hm ê ji bo konsera
[261.985]
<no-speech>
[266.125]
ha
[266.655]
<no-speech>
[270.255]
he he he
[272.385]
<no-speech>
[274.205]
ê em (()) moza çêtir e <laugh> ha ê sobe falan tune ye
[282.325]
<no-speech>
[284.695]
ba min şebekeya baş nakişîne min got tu <hes> ew ê teniyê şahmaran dide di bernameyê de
[293.345]
<no-speech>
[303.795]
<no-speech>
[304.295]
<no-speech>
[308.565]
he he
[311.245]
<no-speech>
[312.775]
pepûk he he pep- xalê wê heye qe
[316.135]
<no-speech>
[317.215]
kî <int>
[318.965]
<no-speech>
[320.625]
he çi gotiye
[322.095]
<no-speech>
[324.285]
ew a nizanim qe
[325.455]
<no-speech>
[328.695]
ha dibe dibe hûn zanin min guhdar nekiriye
[331.885]
<no-speech>
[333.405]
he hema dibe ku yanî hezeyan <breath>
[336.425]
<no-speech>
[337.305]
hela mm_hm ê weleh baştir be yanî şevek ewk be yê baştir tê dixuyayê yanî uh_uh ez bawer im şahmaran e nîvsaet wan didome yanî
[348.345]
<no-speech>
[352.535]
he min got şahmaran nîvsaet didome
[354.945]
<no-speech>
[356.595]
neh
[357.085]
<no-speech>
[358.375]
<no-speech>
[358.845]
<no-speech>
[359.665]
he
[360.365]
<no-speech>
[361.585]
mm_hm mm_hm ê ê baş e yaw
[364.865]
<no-speech>
[369.105]
<no-speech>
[369.455]
<no-speech>
[373.145]
beşa wê jinê
[374.375]
<no-speech>
[375.315]
beşa wê jinê
[376.335]
<no-speech>
[383.845]
<no-speech>
[384.205]
<no-speech>
[385.815]
<no-speech>
[386.185]
<no-speech>
[387.155]
he ê baş be he tiştê ku min got (()) be
[390.835]
<no-speech>
[392.085]
he
[392.595]
<no-speech>
[393.435]
ha
[393.895]
<no-speech>
[395.335]
<laugh> tu yê bixwîne <laugh> ba me yasaxlî min got haya <laugh> weleh çi bêjim serkeftin <laugh>
[407.325]
<hes> pir baş pir baş hev (())
[409.655]
<no-speech>
[413.165]
<no-speech>
[413.605]
<no-speech>
[414.845]
<laugh> mm_hm tu tu yê bixwînê he (()) he
[426.585]
<no-speech>
[427.555]
he
[428.595]
<no-speech>
[430.425]
he ev baş e weleh kêfxweş bûm yan pêşketinê ez hefteyek tune em ê van dema pêşketinek <laugh> lê Salih çilo dikin Salih
[441.235]
<int> <cough> mm_hm
[443.335]
<no-speech>
[444.235]
he
[444.855]
<no-speech>
[446.075]
<cough> dengê ne baş tê min mamoste <laugh> (()) te ye he erê weleh
[455.695]
<no-speech>
[457.905]
he <int>
[460.415]
<no-speech>
[461.375]
ew û Xwedê <laugh> tu tu tu nav- kurdan de bi herî baştir î yan na
[467.765]
<no-speech>
[471.635]
<laugh> he ê ev baş e weleh ez kêfxweş bûme <laugh> he înşelah ev baş e ye em hev bibînin yaw weleh
[481.225]
<no-speech>
[487.495]
hê jî beriya salê
[488.545]
<no-speech>
[491.545]
ê weleh ez û <hes> yanî ji ber ku mamosteyê me tiştek negotiye lê herhalde bawer im înşelah ewk nake yanî <hes> îsal bi me dixwendin
[503.285]
ez bawer im <breath> ez ê yê kûpona ne
[506.185]
<no-speech>
[508.205]
sala yekê em bixwîne de tu zana mamoste pir me aciz bûye <laugh> ji ber wî ez ez şola (()) du xwendinê <laugh> he û tişt
[519.325]
tişt e nayê yaw me yanî ji xwe ew hîç ne pirsgirêk
[522.095]
<no-speech>
[528.515]
<hes> min got mamoste bawer im îsal îsal bi me nadê xwendinê yanî
[533.225]
<no-speech>
[535.365]
ne wisa <laugh> he he weleh wisa xuyan dike yanî
[540.295]
<no-speech>
[543.575]
he ew jî naxwînin
[544.815]
<no-speech>
[546.435]
he
[546.955]
<no-speech>
[550.115]
he he
[550.795]
<no-speech>
[552.385]
<int> he em a ew sala çûne xweş bû ha yanî bernama sala çûne
[557.885]
<no-speech>
[558.855]
he hevalê te çêdikir he he mm_hm <hes> min got konsera sala çûne baş bû
[566.805]
<no-speech>
[571.555]
mm_hm
[572.205]
<no-speech>
[573.815]
erê yaw ew wir berbat <laugh> ya qeyd qeyda min ez qeyda ez qeyda guhdar dikim
[580.385]
<no-speech>
[582.815]
he <laugh> <hes> deng tenê tenê wêne ne baş e dengê koroyê hîç nayê Ebrû dengê solîst hinek baş e
[592.145]
<no-speech>
[593.495]
hele solîst jî detone <laugh> ew jî detone dicivîne hele ama tişt
[600.000]
