[0.000]
<no-speech>
[7.635]
<hes>
[8.245]
<no-speech>
[10.395]
elo
[11.065]
<no-speech>
[12.025]
hê erê tê tê
[13.185]
<no-speech>
[14.985]
he
[15.645]
<no-speech>
[16.935]
weleh tiştekî nakim sax kuro ev numara çi ye
[19.285]
<no-speech>
[24.815]
he ê ka bise
[27.065]
<no-speech>
[28.135]
he
[28.775]
<no-speech>
[33.885]
weleh
[35.085]
<no-speech>
[37.755]
ê ka ji ku te nagerim (()) îca wê rojê li te negeriyam
[41.805]
<no-speech>
[44.235]
dengê min tête
[45.385]
<no-speech>
[46.785]
weleh we wa rojane carekê geriyam
[50.015]
<no-speech>
[54.875]
wele
[55.515]
<no-speech>
[56.935]
ê ê me xeber da çi zû te bira kir
[59.525]
<no-speech>
[60.715]
min ji te re got ya min ya te aniye vir
[62.715]
<no-speech>
[65.175]
dengê te tê dirandine
[67.305]
<no-speech>
[68.855]
<int> dengê te baş nayê min ha
[70.935]
<no-speech>
[73.215]
<hes>
[73.945]
<no-speech>
[76.235]
<hes> îro çi dikî çawan î
[78.075]
<no-speech>
[83.975]
<no-speech>
[84.355]
<no-speech>
[89.505]
<hes>
[90.435]
<no-speech>
[95.095]
<no-speech>
[95.725]
<no-speech>
[97.175]
<hes> baş
[98.585]
<no-speech>
[100.435]
tu qet çima lê de
[101.595]
<no-speech>
[104.845]
<no-speech>
[105.325]
<no-speech>
[108.095]
<hes> ê weleh baş weleh yê me jî e we derve sar e û em diçine mektebê ji mektebê têne malê e we
[116.255]
<no-speech>
[117.865]
<hes>
[118.485]
<no-speech>
[121.215]
serma <hes>
[122.115]
<no-speech>
[123.185]
serma duh duh te dît ya berf çilo çawa berf dibariya
[126.715]
<no-speech>
[129.845]
weleh duh berf ha wisa bariyan lê erdê negirt ha hema ewk bû bariya hebû birûskê li ya hebû abê jî xwe heland
[136.885]
<no-speech>
[140.985]
he he
[141.725]
<no-speech>
[148.515]
hê
[149.315]
<no-speech>
[154.455]
hê <laugh>
[155.475]
<no-speech>
[162.925]
hê
[163.885]
<no-speech>
[167.095]
<int> <hes> <int> weleh rojekê telefonî min kir wan rojên hanê bû <hes> du roj berê bû mij tune sê <breath> ez erebeyê de bûm tu dizanî
[176.285]
<no-speech>
[177.125]
min got m- me hinekî xeber da got tune musaîd î ez ê êvarê li te bigerim min got temam û bû êvar êdî negeriya
[186.185]
<no-speech>
[188.595]
êdî wisa ma
[189.555]
<no-speech>
[194.765]
dev jê berdayî
[195.785]
<no-speech>
[198.435]
<hes>
[198.925]
<no-speech>
[205.315]
hê
[206.255]
<no-speech>
[211.975]
<int> <hes> ê weleh hîn zor e hinekî dizanî <int>
[215.465]
<no-speech>
[218.265]
pêşvebûna wî tune
[219.775]
<no-speech>
[223.165]
hê
[223.915]
<no-speech>
[225.405]
<hes> erê baş e
[226.815]
<no-speech>
[228.945]
hê weleh wisan e ê Mahşo çi dikin heyat e jê tune
[233.275]
<no-speech>
[235.565]
<hes>
[236.195]
<no-speech>
[240.495]
wa îca behsa çi dikin
[241.995]
<no-speech>
[252.595]
<hes>
[254.355]
<no-speech>
[260.415]
he
[261.285]
<no-speech>
[266.405]
weleh haya min jê tune m- ez ê telefon bikimê êdî îro sozde ve- kengî ve- dengê min tête
[271.675]
<no-speech>
[273.325]
elo
[274.765]
<no-speech>
[276.305]
min got ez ê lê bigerim êdî nizanim îro be sibehê ez ê lê bigerim
[279.545]
<no-speech>
[287.745]
<hes> va
[290.095]
<no-speech>
[291.935]
hê va
[294.075]
<no-speech>
[295.515]
ew telefona te daha xweş deng derdiket lo <int>
[298.285]
<no-speech>
[301.785]
<no-speech>
[302.155]
<no-speech>
[303.475]
dengê dengê va diçê tê diçê tê hema ez te seh dikim
[306.675]
<no-speech>
[311.455]
hê
[312.275]
<no-speech>
[315.165]
min
[316.485]
<no-speech>
[317.365]
<no-speech>
[317.735]
<no-speech>
[318.615]
he hingivê ye
[320.925]
<no-speech>
[325.055]
<int> kuro min lê nihêrîn (()) va numara te çawa ye ji ku derê li min digerin
[328.975]
<no-speech>
[331.835]
na <hes>
[333.915]
<no-speech>
[337.135]
<hes>
[338.865]
<no-speech>
[339.755]
dengê te baş nayê min
[340.995]
<no-speech>
[347.565]
hê
[348.525]
<no-speech>
[350.935]
ê hûn çi dikin îca va
[352.625]
<no-speech>
[353.625]
kuro dengê te nayê min weleh ez tiştekî ji te fehm nakim
[356.745]
<no-speech>
[359.155]
te got çawa
[360.135]
<no-speech>
[363.095]
he deng- dengê te ara ara tê min îşte seh dikim lê ara ara diçê
[366.915]
<no-speech>
[367.755]
(()) nake ber
[368.785]
<no-speech>
[378.355]
çawa min fehm nekir
[379.405]
<no-speech>
[380.585]
<hes>
[381.215]
<no-speech>
[386.795]
erê min fehm kir
[387.875]
<no-speech>
[389.765]
ev got tiştekî derket li vir û <hes> ji kerema xwe ra <hes> ev kir yekê bike ev tiştê wisa bike yekê kir derket
[398.915]
<no-speech>
[400.695]
<hes>
[401.435]
<no-speech>
[402.595]
he ê
[403.405]
<no-speech>
[405.735]
mal weleh baş îdareyê dibe lo ka çawa be <hes>
[409.735]
<no-speech>
[411.375]
min got baş îdareyê ye îdareyê
[413.735]
<no-speech>
[415.475]
a me jî tezê xwarina xwe çêkir <hes>
[418.745]
<no-speech>
[419.955]
na weleh em êdî nayên heta havînê
[423.175]
<no-speech>
[426.275]
min got em heta havînê nayên
[427.775]
<no-speech>
[430.595]
weleh me me ji xwe avêt firinê de firne zû çênekir êdî ji birçîna mirin
[435.535]
<no-speech>
[437.615]
van her du hevalên me ketine serê (()) wan (()) milên xwe werdane <int> <laugh>
[443.755]
<no-speech>
[446.005]
a ê berf nîne
[448.445]
<no-speech>
[449.805]
min got berf nîne
[450.955]
<no-speech>
[455.355]
<hes> ê bû sefer ez pê re nan bixwim
[457.265]
<no-speech>
[458.995]
<laugh> hê
[464.785]
<no-speech>
[467.955]
weleh nizanim goşt goşt e kartolan îsota pîvaz frengî tev avêt nav- hevdu
[474.585]
<no-speech>
[476.915]
me
[477.555]
<no-speech>
[479.455]
a û niza- hevalê me savar jî çêkiriye ya bûye fişa fişa wan devê xwe dişiyan dikin toz moz jî tijî ye tu zanî
[488.785]
<no-speech>
[489.765]
pekî <laugh> (()) dikeve
[492.195]
<no-speech>
[493.045]
<hes>
[494.035]
<no-speech>
[498.605]
<hes>
[499.375]
<no-speech>
[505.835]
a
[506.335]
<no-speech>
[509.845]
elo a tê
[511.785]
<no-speech>
[515.825]
ka bêje
[516.695]
<no-speech>
[520.735]
kuro bibêje lo ez nabêjim lo ez dizanim tu dibêjî ez hinekî hîn bûme xeberdanê <laugh>
[524.725]
<no-speech>
[526.345]
dengê min tête
[528.495]
<no-speech>
[530.075]
<hes>
[530.755]
<no-speech>
[540.425]
erê tê tê xeber da
[541.755]
<no-speech>
[547.845]
ê
[548.525]
<no-speech>
[553.325]
ê
[554.095]
<no-speech>
[562.045]
digot çi tam olaraq
[563.245]
<no-speech>
[571.535]
wa
[572.345]
<no-speech>
[573.925]
îcar ka m- Mistoyê çavbirçî çavê wî tijî nabe yaho
[577.255]
<no-speech>
[586.255]
<hes>
[586.775]
<no-speech>
[589.000]
