[0.000]
<no-speech>
[1.945]
<no-speech>
[2.295]
<no-speech>
[3.435]
elo
[4.075]
<no-speech>
[8.135]
dadê tu çawan î
[10.365]
<no-speech>
[11.745]
<int> dadê tu çawan î
[14.985]
<no-speech>
[17.295]
dadê <int> dengê min nizanim wisa hev tê hûn çi dikin çawa niha ez im ez
[26.455]
<no-speech>
[29.265]
dadê <int>
[31.515]
<no-speech>
[32.855]
dadê
[33.565]
<no-speech>
[35.175]
dadê <int> hûn ca dikin min got hûn ca dikin zarok çawan e zarok
[46.965]
çawan e
[47.525]
<no-speech>
[48.335]
min got zarok çawan e Omer Cemal Omer Cemal çawan e
[53.655]
<no-speech>
[54.745]
he şe- weleh nizanim biçûkî sorin heye herhalde
[62.025]
<no-speech>
[64.255]
şev de cilê Kemal hatin
[67.605]
<no-speech>
[68.895]
telefona ji ji (()) ca nehatine
[73.075]
<no-speech>
[75.725]
neanîne wa ca nehatin (()) em şandin
[82.765]
<no-speech>
[86.595]
Omer çawan in çi ye wî heye
[91.715]
<no-speech>
[93.275]
<no-speech>
[94.655]
<no-speech>
[96.035]
wa çi ye wî hebû qe ha
[103.165]
<no-speech>
[104.365]
temam
[105.695]
<no-speech>
[106.515]
<no-speech>
[108.925]
<no-speech>
[109.905]
kesîn ji tansiyonê bûye dîsa he ê baş e baş e
[117.065]
<no-speech>
[118.025]
ê bila ew jî jê re biçûya qe nebûye
[119.735]
<no-speech>
[120.775]
ez weleh ez tiştekî nakim îro ketime sinavê îşte dadê
[127.605]
<no-speech>
[129.355]
îro ez ketime sinavê îşte mane sê hebe dîsa
[132.785]
<no-speech>
[136.775]
dadê
[137.935]
<no-speech>
[138.905]
min got Omer çawan in Omer Omer çawan in
[142.355]
<no-speech>
[144.335]
dîsa digirî
[147.845]
<no-speech>
[149.395]
ha
[151.895]
<no-speech>
[153.025]
Cemal
[153.865]
<no-speech>
[155.715]
he ez ketimê îro ketimê hebekê hêja mane dadê
[161.775]
<no-speech>
[162.645]
min got ez ketimê îro hebek ketime hebekê sê hev mane
[166.735]
<no-speech>
[169.995]
dadê he
[172.865]
<no-speech>
[173.845]
min got Cemal çawan in
[176.215]
<no-speech>
[177.865]
Cemal çawan in Cemal Cemal
[181.505]
<no-speech>
[183.755]
he baş e haya we wî hebin dîsa nexweş nekeve
[191.035]
<no-speech>
[192.005]
ê baş e baş e <laugh>
[197.655]
<no-speech>
[199.315]
<lipsmack> ê hay jê wê jê hebin dîsa nexweş nekin ha
[202.515]
<no-speech>
[203.645]
he zarok çûne mektebê <laugh> <lipsmack>
[215.055]
<no-speech>
[216.045]
<sta> ê tu yê weleh ez jî nizanim tişt e nebir kena tu xeber de
[223.985]
<no-speech>
[225.905]
he dengê te xweş tê
[229.255]
<no-speech>
[230.205]
min got dengê te xweş tê yê min yê min weleh nizanim çira wisa ye
[240.995]
ê dadê min şevê din gote wan na bûm ez boş bûm ne tiştek
[246.125]
<no-speech>
[248.775]
min got min doh got te hevalê xwe wan re <hes> dibêje min e dibêje min neçe <int>
[254.565]
<no-speech>
[256.155]
dadê têyî min got ez ê şevê din min got ez ê bêm ya min şevê din gote te ez ê bêm ya
[265.755]
êdî wan gote min got neçe got <hes> orta Şubatê de here çêtir e
[270.005]
<no-speech>
[270.835]
ha tu çi dibêjî tu çi dibêjî he tu çi dibêjî ez werim neyêm tu çi dibêjî
[282.775]
ê ew a min got yanî vêga neçe bila hinekî tê de biçe îcar here du sê heft- du sê hefteyê tê de biçe îcar here
[289.985]
he wisa got en nizanim tu çi dibêjî
[301.825]
he ê baş e
[303.115]
<no-speech>
[304.215]
ê team erê ê başqa dadê
[315.675]
hevalê min weleh îro hebek diçê ez em dimîne du hev malê hema ne dû hev ew jî sali
[327.465]
<no-speech>
[328.375]
ez tu min bişîne yûrdê heta ew ê din ha dadê
[332.125]
<no-speech>
[333.425]
min got tu min bişîne yûrdê heta ew ê din bên tu min bişîne yûrdê yûrdê he
[340.805]
<no-speech>
[342.805]
he tu min bişîne yûrdê ez tenê nikarim bimînime xanî he ez diçime yûrdê ez tenê nikarim bimînime xanî de
[353.995]
na weleh min telefonê bavê xwe nekiriye
[356.505]
<no-speech>
[357.705]
<no-speech>
[358.275]
<no-speech>
[359.735]
dadê ka temam ka bise ez jê re bêjim ji xwe piştê wî re telefonê bikim dadê
[368.375]
<no-speech>
[370.015]
min got ji xwe ez ê piştî telefonê wî bikim ez ê jê re bêjim
[376.705]
<no-speech>
[377.985]
<no-speech>
[378.845]
<no-speech>
[379.685]
he temamê yê din çawan in pîrika min çawan in de dadê
[386.675]
<no-speech>
[388.115]
min got pîrika min çawan in pîrê pîrê çawan in
[392.135]
<no-speech>
[393.645]
baş e baş e <breath> baş e Stenbol (()) diçî
[405.545]
<no-speech>
[406.555]
ha
[408.085]
<no-speech>
[409.015]
wa <laugh> (()) Cemal Cemal
[420.455]
<no-speech>
[422.065]
Cemal
[424.605]
<no-speech>
[426.075]
Cemal
[427.945]
<no-speech>
[430.655]
Cemal
[432.805]
<no-speech>
[434.035]
dadê dadê
[437.745]
<no-speech>
[438.575]
dadê tu xeber de tu xeber de nede wî temam tu xeber de
[448.625]
min got tu xeber de nede wî xeber nade ji xwe dadê dadê
[457.015]
<no-speech>
[458.305]
dadê nedê nedê
[461.945]
<no-speech>
[463.065]
dadê
[465.145]
<no-speech>
[466.895]
<no-speech>
[467.695]
<no-speech>
[468.665]
dadê
[469.485]
<no-speech>
[470.525]
<no-speech>
[471.065]
<no-speech>
[472.235]
dadê
[473.655]
<no-speech>
[475.195]
ha da dadê dadê
[482.025]
<no-speech>
[483.005]
<no-speech>
[483.935]
<no-speech>
[486.055]
ha da
[486.845]
<no-speech>
[490.205]
dadê
[491.425]
<no-speech>
[493.115]
dadê
[493.915]
<no-speech>
[496.695]
<no-speech>
[497.215]
<no-speech>
[498.405]
<no-speech>
[498.895]
<no-speech>
[505.605]
dadê
[507.965]
<no-speech>
[509.525]
da
[510.285]
<no-speech>
[514.985]
dadê
[515.795]
<no-speech>
[518.575]
dadê
[519.385]
<no-speech>
[522.765]
dadê
[523.615]
<no-speech>
[527.685]
ha dadê
[528.455]
<no-speech>
[532.465]
dadê
[533.645]
<no-speech>
[539.975]
<no-speech>
[540.725]
<no-speech>
[545.025]
dadê
[545.875]
<no-speech>
[549.495]
ha dadê
[550.225]
<no-speech>
[552.355]
<int> dadê
[555.395]
<no-speech>
[556.665]
dadê çire dengê te nayê
[558.055]
<no-speech>
[564.475]
ha dadê
[565.265]
<no-speech>
[569.205]
dadê xeber de ca dengê te nayê
[571.085]
<no-speech>
[573.075]
tiştek bike xeber de
[574.615]
<no-speech>
[578.425]
dadê
[579.975]
<no-speech>
[582.035]
tiştek bi te telefona te xirab e
[584.385]
<no-speech>
[588.395]
dadê
[589.235]
<no-speech>
[591.555]
ha dadê
[593.825]
<no-speech>
[595.784]
