[0.000]
<no-speech>
[4.275]
<no-speech>
[4.625]
<no-speech>
[7.325]
elo
[8.595]
<no-speech>
[16.705]
<no-speech>
[17.065]
<no-speech>
[18.745]
<no-speech>
[19.135]
<no-speech>
[22.835]
elo
[23.635]
<no-speech>
[26.405]
Rûşen tu çir dikî
[28.555]
<no-speech>
[33.165]
baş e saxiya canê te tu çir dikî
[36.105]
<no-speech>
[37.285]
<no-speech>
[38.075]
<no-speech>
[41.145]
dengê min hêdî tê
[42.705]
<no-speech>
[43.845]
mm_hm çawa dihere kî mala we ye <int>
[48.605]
<no-speech>
[52.365]
he <int>
[53.525]
<no-speech>
[56.495]
mm_hm wekî dîn hûn çi dikin we xwarinê we çi bû we çi xwar
[62.815]
<no-speech>
[65.815]
<no-speech>
[66.185]
<no-speech>
[73.755]
we birinc xwar ay çi xweş
[76.575]
<no-speech>
[77.495]
<laugh> na na tişt pê nayê <no-speech> hûn îro kêfxweş bû
[88.895]
min got hûn îro kêfxweş bû <no-speech> min got hûn îro kêfxweş bû <no-speech> he weleh ez a niha wir betilîme
[99.615]
he silavê min jî wan ke
[103.275]
<no-speech>
[104.775]
mm_hm çawa bû xweş bû
[108.165]
<no-speech>
[109.705]
<int> reb-
[111.335]
<no-speech>
[114.765]
mm_hm wekî dîn hûn çi dik
[117.775]
<no-speech>
[120.245]
em ê em ê çarşemê saet çend e werin em ê çarşemê saet çend e werin da we
[128.145]
<no-speech>
[130.215]
<no-speech>
[130.565]
<no-speech>
[135.715]
temam em ê dora em ê pênc heb wan werin mm_hm pênc
[146.445]
he ez Diyar Gulîstan Bêrîvan Pelda hûn me qebûl dikin
[152.605]
<no-speech>
[154.505]
ser çav neêşin <int> <no-speech> yanî mecbûrî ne wer e <int>
[165.135]
hema ne hewcî hûn ne hewcî ne hewcî hûn ji mêr tiştekê wan çêkî em ê hew wir bigerin parkê wan
[173.475]
<no-speech>
[174.435]
ne wer e
[176.695]
<no-speech>
[179.785]
mm_hm em ê dora em ê saet duwazdeh weri- dora pêncan vegerî dibe <int>
[191.595]
<no-speech>
[193.465]
<no-speech>
[194.745]
mm_hm
[196.475]
<no-speech>
[197.355]
<no-speech>
[197.925]
<no-speech>
[199.155]
ez he sibe jî werim mala we ez dibe qey <int> <no-speech> ez ê ew tişta na bikirim <no-speech> ez ê ew tişta bikirim werim min îro lê nenihêrî ez ê sibe bêm
[211.145]
<int> ez ê sibe hûn ê çi çêkin sibe dîsa goşt û birinc
[215.865]
<no-speech>
[217.635]
<sta> <no-speech> he de baş e ne goşt û birinc e we milet
[229.045]
we milet goşt û birincê kuşt <laugh> <no-speech> ne wer e <int>
[236.175]
<no-speech>
[239.845]
he <sta> ê de baş e efiyeta canê we bi
[251.815]
<sta> weleh ez ê jî werim ez ê werim bixwim <no-speech> ez sirf birçî me tu zanî
[262.265]
<no-speech>
[263.335]
na welehî min hîn ne xwariyî hîn wext negihaye tu zanî
[266.405]
<no-speech>
[268.315]
negiha ez hatim malê kilît tune bû ez hatim malê kilît tune bû ez hat ber derî Gokhan geriya ez dîsa daketim jêr pênc *deqe* <int> wî re peyivî dawiyê
[279.435]
ez hat çû malê da we ma nehat wir
[282.655]
<no-speech>
[283.745]
<no-speech>
[284.195]
<no-speech>
[285.635]
<no-speech>
[286.085]
<no-speech>
[287.175]
na weleh min min goşt da ser min got Pelda tu lê binihêrî heta em werin
[294.445]
<no-speech>
[295.515]
keçê min şey min û Diyar xwar me çû derekê xwar hinek tişt
[301.905]
<no-speech>
[305.705]
sax bi
[307.365]
<no-speech>
[308.545]
he metika min çi dikî
[311.475]
<no-speech>
[314.725]
<no-speech>
[316.495]
<no-speech>
[318.025]
neçû xestê
[319.965]
<no-speech>
[322.275]
<no-speech>
[322.655]
<no-speech>
[323.715]
<no-speech>
[324.065]
<no-speech>
[325.065]
hewe herî kîjan xestê
[328.025]
<no-speech>
[329.035]
wê her kîjan xestê
[330.965]
<no-speech>
[331.855]
fakulte wê herî
[333.525]
<no-speech>
[334.475]
de baş e derbasî b-
[336.795]
<no-speech>
[338.165]
hûn îşev jî diherin meşê hûn îşev herin meşê hûn çûn
[343.395]
<no-speech>
[344.895]
<no-speech>
[345.945]
<no-speech>
[347.665]
g- hûn îro zaten pir meşiyan ne hewcî
[352.255]
<no-speech>
[353.195]
<no-speech>
[353.575]
<no-speech>
[354.945]
<no-speech>
[357.715]
<no-speech>
[363.235]
<no-speech>
[363.595]
<no-speech>
[365.145]
<lipsmack> de baş e
[368.735]
<no-speech>
[369.655]
<no-speech>
[370.545]
<no-speech>
[372.295]
he hûn dîsa dama dilîzin <laugh> <int>
[378.025]
<no-speech>
[379.355]
<sta> weleh zaten Berişen Berişen nelîze ew sirf bera me re dide
[390.975]
<no-speech>
[391.835]
<no-speech>
[392.185]
<no-speech>
[393.665]
<sta> tu berî wê dide ê wê berî min da
[398.735]
<no-speech>
[400.075]
<no-speech>
[400.805]
<no-speech>
[403.025]
wî <int>
[404.525]
<no-speech>
[405.385]
<sta> erê wekî dîn hûn çir dikî çawa dihere
[410.825]
<no-speech>
[411.635]
<no-speech>
[412.025]
<no-speech>
[414.365]
<no-speech>
[416.105]
<no-speech>
[418.145]
dirûma te çawa ye
[420.185]
<no-speech>
[421.125]
<no-speech>
[421.475]
<no-speech>
[422.545]
<no-speech>
[422.905]
<no-speech>
[424.595]
<sta> îdare <no-speech> ne pir baş e de bila baş bi lê wê derbas bibe erê weleh
[435.675]
<no-speech>
[437.845]
Lamîha çir dikî <cough>
[444.775]
<no-speech>
[445.595]
<sta> na weleh haya min jê tune pir ne min digerîne jî wa nagerim <no-speech> na ez ez jî wa nagerim me ji hev qutkirî
[457.425]
<laugh> ew ne bavê min ez ne qîza wê <laugh> <no-speech> hew heta perê min tune bi
[466.585]
<int> hew perê min tune bi ez lê digerim <laugh>
[471.685]
<no-speech>
[472.535]
<no-speech>
[474.295]
<no-speech>
[476.245]
<int> wêne ê
[479.405]
<no-speech>
[480.205]
<sta> zaten perê min du sala hindik ma tew nizanim ez pera çir dikim
[485.915]
<no-speech>
[487.405]
<sta> hene em îro derket çarşiyê navê sibe me çûme vê sibe penêr kirî zeytûn kirî
[497.825]
hinek tişt miştê dîn kirî dîsa dibe yadê pere çû <laugh> <int>
[501.565]
<no-speech>
[503.105]
çir bû
[504.255]
<no-speech>
[505.225]
<no-speech>
[505.855]
<no-speech>
[507.685]
hûn wexta ji vir <no-speech> tişt pê nayê wexta em ji hev qetiya hûn çûn malê yoqsa hûn hinekî geriyan
[517.345]
<no-speech>
[518.895]
<no-speech>
[519.255]
<no-speech>
[520.235]
<int> ma Hesretê weri- wechê wê yî tirş
[528.035]
<no-speech>
[529.305]
<sta> erê weleh <no-speech> hîn gidiyeke jî erê weleh
[535.285]
<no-speech>
[536.465]
<no-speech>
[537.355]
<no-speech>
[538.225]
<no-speech>
[541.505]
<no-speech>
[542.325]
ma em rûdinişt digot çi ma em rûdinî <int>
[545.585]
<no-speech>
[547.285]
em rûdinişt <int> he em dimeşiya dibe ez betilî <laugh>
[551.695]
<no-speech>
[552.725]
hevala min got çend salî yî ez dibe şazdeh <int> <no-speech> dibe min gotiye belkî bîst û çar bîst û pênc hevala min digot min got qey bîst û çar bîst û pênc i
[562.375]
<no-speech>
[565.315]
<no-speech>
[566.915]
<no-speech>
[568.025]
<sta> yanî <no-speech> (()) law hûn çûn çikê lûnaparkê
[580.015]
<sta> yanî însan min îro tiştê cihê xweş min we gerand
[590.055]
hûn çûn ser bedewê <sta> <no-speech> min we bir kilîsa <no-speech> hîna xêra min ne werê
[599.805]
<no-speech>
[600.795]
ji ter jî <no-speech> <sta> <laugh> Xwedê te çêkî <no-speech> weleh ez betilîm <laugh>
[612.675]
<no-speech>
[614.885]
<no-speech>
[616.085]
erê weleh rast em a ne sûcê we bû kî <int> cem min jî tune bû cem we jî tune bû <int> <no-speech>
[624.195]
<no-speech>
[624.765]
