[0.000]
<no-speech>
[7.812]
<no-speech>
[15.625]
<no-speech>
[16.255]
<no-speech>
[17.545]
<no-speech>
[17.895]
<no-speech>
[19.295]
<lipsmack> elo
[20.765]
<no-speech>
[23.585]
<no-speech>
[25.135]
<no-speech>
[26.045]
elo
[26.785]
<no-speech>
[30.885]
elo
[31.615]
<no-speech>
[33.805]
<hes> kekê min merheba ji te ra
[36.145]
<no-speech>
[38.425]
<int> sax bi <foreign> dikim weleh çoq şukur tu çawa yî tu baş î
[43.225]
<no-speech>
[53.325]
<breath> yaw dev jê berde tu xeber bide ji xwe ra tu çilo yî tu baş î
[57.415]
<no-speech>
[58.415]
erê erê dengê te tê
[60.055]
<no-speech>
[66.145]
<no-speech>
[72.235]
yaw
[72.985]
<no-speech>
[74.045]
yaw heyrana te heyrana te te kurmancî bipeyive qise bike li wirê yaw
[78.635]
<no-speech>
[86.655]
erê erê da
[88.005]
<no-speech>
[92.235]
min got tu çawa yî tu çi dikî
[93.995]
<no-speech>
[98.305]
kuro lawo tiştekî nabe tu xeber bide (()) tu çawa yî tu baş î
[101.765]
<no-speech>
[111.955]
<hes> tu li li ku derê yî
[113.905]
<no-speech>
[116.275]
ha
[117.015]
<no-speech>
[123.715]
<int> <hes> li bajarî
[126.265]
<no-speech>
[128.385]
ha
[129.105]
<no-speech>
[133.765]
min got tu li li ku yî tu li li ku yî
[135.535]
<no-speech>
[141.655]
kekê
[142.465]
<no-speech>
[146.135]
elo
[146.925]
<no-speech>
[149.315]
kuro lawo dengê min nayî
[150.835]
<no-speech>
[154.295]
yaw çawa dengê min nayî yaw
[156.185]
<no-speech>
[158.505]
<no-speech>
[159.215]
<no-speech>
[160.395]
<hes> tê yan nayî
[161.615]
<no-speech>
[171.455]
kuro lawo ev a tu dibê du sê du sê doktorê min e
[175.455]
<no-speech>
[181.815]
<int> min got arakî were mal
[184.295]
<no-speech>
[185.745]
<no-speech>
[186.115]
<no-speech>
[187.055]
<laugh> tu fehm nakî
[190.365]
<no-speech>
[192.065]
<hes> weleh ez a niha mala hevalekî me hevalekî me
[196.845]
<no-speech>
[203.475]
ha
[204.175]
<no-speech>
[212.575]
<laugh> sibê sibê
[214.865]
<no-speech>
[217.165]
yaw ez a niha mala hevalekî xwe me (())
[221.415]
<no-speech>
[228.765]
<laugh> <hes> lawo <hes> lawo min got tu sibê çi dikî sibê
[234.745]
<no-speech>
[239.135]
elo
[239.835]
<no-speech>
[242.545]
a niha dengê te dengê min nayê te
[245.565]
<no-speech>
[246.845]
dengê min nayî te a niha
[248.155]
<no-speech>
[255.625]
<no-speech>
[256.145]
<no-speech>
[257.165]
yaw a niha dengê te xweş tê min yê min tête yan na
[260.965]
<no-speech>
[262.195]
<hes>
[263.005]
<no-speech>
[273.955]
xanima min çi îş dike
[275.155]
<no-speech>
[276.995]
min got tu sibê çi dikî sibê
[278.755]
<no-speech>
[281.145]
sibê tu çi dikî sibê
[282.785]
<no-speech>
[286.665]
ha
[287.495]
<no-speech>
[294.095]
çi
[294.695]
<no-speech>
[300.755]
ha
[302.065]
<no-speech>
[303.435]
min got arakî were mala me
[305.295]
<no-speech>
[309.975]
erê erê tê dengê te xweş tê lo
[312.595]
<no-speech>
[317.015]
weleh hema
[319.165]
<no-speech>
[322.615]
ez sibê sibê în em in got em herin nimêjê
[326.915]
<no-speech>
[328.065]
min got em sibê herin nimêjê
[330.145]
<no-speech>
[337.230]
<no-speech>
[344.315]
erê erê em ê bi hev re herin Ûlû camiyê
[348.025]
<no-speech>
[350.885]
dibe yan na
[351.935]
<no-speech>
[357.145]
<int> erê erê eyda eyda wisa ye
[359.725]
<no-speech>
[363.455]
kuro lawo min got eyda wisa ye em herin
[366.325]
<no-speech>
[371.575]
<no-speech>
[372.775]
<no-speech>
[374.085]
keko te negot zaro- mar çawan e
[377.165]
<no-speech>
[378.845]
<no-speech>
[379.205]
<no-speech>
[381.585]
<hes>
[382.245]
<no-speech>
[392.275]
<no-speech>
[402.305]
weleh min te ra tiştekê
[404.665]
<no-speech>
[407.045]
yê kî
[407.975]
<no-speech>
[410.565]
yê kî
[411.565]
<no-speech>
[416.015]
<hes>
[417.155]
<no-speech>
[419.335]
yê dibê çi
[420.785]
<no-speech>
[425.205]
çi nebe
[426.165]
<no-speech>
[433.275]
<laugh> te got <int> te got çawa ye çi dike efendim
[438.565]
<no-speech>
[449.285]
ya gir
[450.335]
<no-speech>
[452.925]
<laugh> erê dibe em ê sibê
[455.935]
<no-speech>
[457.385]
em ê sibê tiştekê çi bikin
[459.145]
<no-speech>
[463.555]
<hes> <hes>
[465.055]
<no-speech>
[466.865]
ha
[467.555]
<no-speech>
[471.205]
weleh sibê
[472.445]
<no-speech>
[473.995]
sibê
[474.885]
<no-speech>
[476.075]
de ka tiştek tune ez ji mal im min got ez û tu em bi hev re herin nimêjê
[480.915]
<no-speech>
[491.325]
hinek ji
[492.075]
<no-speech>
[495.335]
<no-speech>
[495.685]
<no-speech>
[497.325]
erê em ê em ê wisa bikin
[498.815]
<no-speech>
[502.625]
<hes> yê
[504.315]
<no-speech>
[508.995]
bi ku de
[509.755]
<no-speech>
[510.725]
te got çi
[511.655]
<no-speech>
[518.175]
ê weleh Ûlû camiyî gelek xweş e
[521.645]
<no-speech>
[523.485]
min got Ûlû camiyî gelek xweş e
[525.965]
<no-speech>
[530.665]
em ê em ê sibê
[533.455]
<no-speech>
[534.775]
<no-speech>
[535.125]
<no-speech>
[536.635]
<hes>
[538.595]
<no-speech>
[540.875]
<no-speech>
[541.235]
<no-speech>
[543.335]
ha
[544.945]
<no-speech>
[552.235]
yaw tu <laugh> dev jê berde tu a niha sibê te got tu tê yan na
[556.825]
<no-speech>
[561.165]
yaw dengê te tê tê yê min tê yan na
[564.125]
<no-speech>
[570.635]
<no-speech>
[571.065]
<no-speech>
[572.475]
ha ha hema hema yê te xweş tê
[575.025]
<no-speech>
[581.465]
wextê sibê <breath> sibê êvarê
[584.785]
<no-speech>
[586.435]
sibê êvarê tu yî werî mala me
[588.335]
<no-speech>
[594.420]
