[0.000]
<no-speech>
[7.355]
elo
[8.085]
<no-speech>
[10.145]
tu sax bi
[11.125]
<no-speech>
[14.775]
tu sax bi sax bi tu çawan î
[16.565]
<no-speech>
[18.065]
elo
[18.765]
<no-speech>
[20.845]
dirûma me baş e dirûma te çi ye
[23.015]
<no-speech>
[24.505]
baş im baş im
[25.665]
<no-speech>
[28.255]
ka piçûk çawan in
[29.465]
<no-speech>
[30.885]
sax bi sax bi ez <no-speech>
[31.975]
<no-speech>
[34.025]
a weleh canê te sax be
[35.505]
<no-speech>
[40.125]
dengê min
[41.315]
<no-speech>
[42.925]
dengê min gerek e bê
[44.585]
<no-speech>
[46.285]
elo
[47.055]
<no-speech>
[48.815]
(())
[49.225]
<no-speech>
[50.035]
welehî tu sax bi tu çawan î
[51.835]
<no-speech>
[54.945]
elo
[55.725]
<no-speech>
[59.635]
weleh baş im canê te sax be
[61.525]
<no-speech>
[66.485]
dê çi hebe canê te sax be ha
[69.485]
<no-speech>
[72.515]
he weleh baş im canê te sax bi
[74.705]
<no-speech>
[78.725]
he weleh baş in canê te sax bidê e çi hebe
[81.135]
<no-speech>
[82.055]
cansaxiya te
[83.255]
<no-speech>
[88.195]
baş in hemî jî baş in
[89.905]
<no-speech>
[92.985]
he
[93.455]
<no-speech>
[94.495]
Xwedê ji te razî be
[95.765]
<no-speech>
[98.055]
êdî canê te sax be
[99.555]
<no-speech>
[101.615]
ez ê em
[102.855]
<no-speech>
[103.925]
bazartesiyê bêm bazartesiyê
[106.395]
<no-speech>
[108.255]
na
[109.095]
<no-speech>
[111.625]
elo
[112.435]
<no-speech>
[114.795]
ez ê bazartesiyê bê me çarşiyê elo
[118.075]
<no-speech>
[120.845]
erê
[121.715]
<no-speech>
[125.575]
na
[126.415]
<no-speech>
[129.515]
weleh canê te sax be
[131.315]
<no-speech>
[134.715]
bila bila çayekê na du çayan
[137.205]
<no-speech>
[138.305]
elo
[139.065]
<no-speech>
[144.025]
erê erê
[145.125]
<no-speech>
[152.625]
ê bila bila wexta Şemdîn bê
[154.865]
<no-speech>
[155.795]
elo
[156.535]
<no-speech>
[161.565]
temam yaw
[162.475]
<no-speech>
[164.615]
elo
[165.435]
<no-speech>
[168.115]
elo
[168.855]
<no-speech>
[170.365]
min got Pazartesiyê ez ê bê me çarşiyê
[172.915]
<no-speech>
[179.755]
ê bila bila şemiyê ez ê bê me çarşiyê <laugh> temam ev ê şemiyê
[185.835]
<no-speech>
[187.955]
ê bila bila
[189.095]
<no-speech>
[190.895]
bila şemî bê
[192.315]
<no-speech>
[195.545]
na <laugh> ê çi hebin hema canê te sax be
[200.235]
<no-speech>
[205.065]
weleh yê te jî
[207.115]
<no-speech>
[210.725]
hema dê çi hebin me zû dame hevdu nedîtiye
[213.995]
<no-speech>
[221.555]
nadê hebin hema <no-speech>
[223.745]
<no-speech>
[226.285]
elo
[227.065]
<no-speech>
[229.485]
efendim
[230.645]
<no-speech>
[235.155]
bila bila
[236.165]
<no-speech>
[241.885]
ê temam bila em ê çayek na du çayan em ê vexwin
[245.025]
<no-speech>
[250.855]
erê erê bila <laugh>
[252.295]
<no-speech>
[258.655]
nabêje nabêje em nabêje were yêmekekê bidime te ez ê
[262.965]
<no-speech>
[267.665]
erê
[268.595]
<no-speech>
[271.225]
tu jî nabêjî were çarşiyê em yêmekekî bixwin dê jî çay
[275.555]
<no-speech>
[280.145]
<no-speech>
[280.875]
<no-speech>
[282.455]
e bila bila
[283.675]
<no-speech>
[289.225]
<laugh> na Xwedê neke Xwedê neke
[291.715]
<no-speech>
[293.385]
elo
[294.105]
<no-speech>
[297.405]
elo
[298.225]
<no-speech>
[299.785]
e
[300.495]
<no-speech>
[302.325]
erê erê
[303.445]
<no-speech>
[306.505]
guhê min li te ye
[307.735]
<no-speech>
[310.325]
e ez di bodromê de me loma lê
[312.405]
<no-speech>
[313.955]
<int> elo
[315.815]
<no-speech>
[317.925]
ê weleh ez vê êvarê naçime ca- ez vê gavê naçime gund heta çend rojî ez ê piçûka <no-speech> ez ê piçûka sibe rêkim gundê
[325.985]
<no-speech>
[326.885]
e
[327.545]
<no-speech>
[332.475]
ê bila
[333.505]
<no-speech>
[336.935]
<hes>
[337.695]
<no-speech>
[340.605]
elo
[341.435]
<no-speech>
[344.265]
ê temam bila
[345.675]
<no-speech>
[347.975]
bila dibe dibe
[349.365]
<no-speech>
[351.825]
mesela te a mirîşkan e yoxsa goştê sor e
[355.335]
<no-speech>
[365.505]
ê tê tajî serjê kî tê çi serjê kî
[368.285]
<no-speech>
[371.345]
ê bila
[372.315]
<no-speech>
[374.375]
çêdibe çêdibe
[375.785]
<no-speech>
[381.665]
bila
[382.485]
<no-speech>
[384.295]
pezekî serjê kê pezekî
[386.675]
<no-speech>
[388.855]
pezekî serjê kê <no-speech>
[390.735]
<no-speech>
[401.985]
erê weleh min têt
[403.545]
<no-speech>
[406.375]
erê erê çêdibe çêdibe
[408.225]
<no-speech>
[412.865]
erê erê Xwedê heşt bike dê çêbe
[414.835]
<no-speech>
[422.735]
he
[423.555]
<no-speech>
[426.165]
ha
[426.925]
<no-speech>
[429.475]
elo
[430.305]
<no-speech>
[433.105]
o nêçîrê ma demê nêçîrê ye
[435.335]
<no-speech>
[436.895]
elo
[437.685]
<no-speech>
[442.335]
ev demê nêçîrê ye
[443.915]
<no-speech>
[445.755]
he
[446.535]
<no-speech>
[450.245]
<laugh> ma ev demê nêçîrê ye
[453.705]
<no-speech>
[458.345]
<laugh> dengê min tê dengê min tê
[460.415]
<no-speech>
[463.005]
he
[463.695]
<no-speech>
[465.615]
elo
[466.415]
<no-speech>
[468.835]
ez nexweş im nexweş
[470.815]
<no-speech>
[478.065]
erê xwarin vexwarin çendîn e
[480.095]
<no-speech>
[484.365]
xwarin vexwarin çendîn e ez nexweş im nexweş
[487.645]
<no-speech>
[492.005]
şekiran min heye şekiran min
[494.255]
<no-speech>
[498.645]
tansiyona min heye tansiyona min şekiran min heye
[502.145]
<no-speech>
[504.375]
ê he ez nexweş im teze nexweş bûm şekiran min heye şekiran min
[508.235]
<no-speech>
[514.305]
qulêran
[515.075]
<no-speech>
[516.355]
ê baş e baş e
[517.665]
<no-speech>
[519.485]
<laugh> temam temam
[522.785]
<no-speech>
[526.045]
ê bila
[527.125]
<no-speech>
[532.345]
erê erê Xwedê heşt bike
[534.015]
<no-speech>
[536.045]
oh dê teze ev bîber min baş ket
[539.205]
<no-speech>
[540.905]
bîber dê min baş ket
[542.455]
<no-speech>
[545.745]
erê erê bila bila
[547.255]
<no-speech>
[552.405]
<no-speech>
[552.995]
<no-speech>
[553.815]
ha enîşte
[554.745]
<no-speech>
[557.405]
elo
[558.145]
<no-speech>
[560.865]
dengê min nayê der ez nexweş im nexweş
[563.895]
<no-speech>
[569.255]
<laugh> na
[571.605]
<no-speech>
[576.495]
temam meriv hebe meriv bîberan jî bi xwe
[578.565]
<no-speech>
[586.285]
<hes> Emîne min terka min kiriye Emîne terka min kiriye Xwedê zana çûye kîjan kolana
[593.255]
<no-speech>
[595.205]
<no-speech>
[595.405]
<no-speech>
[597.960]
