[0.000]
<no-speech>
[0.855]
<no-speech>
[2.355]
<no-speech>
[8.395]
Îdrîs
[9.255]
<no-speech>
[11.185]
elo
[11.945]
<no-speech>
[13.105]
Îdrîs tu çawa ye
[16.315]
<no-speech>
[18.565]
elo
[19.195]
<no-speech>
[20.675]
baş im sax be ka tu çawa yî îca
[25.195]
<no-speech>
[27.965]
<int> de tu çawa yî
[30.465]
<no-speech>
[31.965]
<int> ez û bihar ev ê derekê ne em digerin
[34.895]
<no-speech>
[37.625]
ez li (()) de me ez digerim
[39.505]
<no-speech>
[40.385]
<hes>
[40.915]
<no-speech>
[46.555]
çi
[49.165]
<no-speech>
[50.975]
elo
[51.705]
<no-speech>
[52.895]
ez niha ba mala xaltîka min ba mala Gulê wa dera digerin
[57.815]
<no-speech>
[58.935]
<no-speech>
[64.425]
<no-speech>
[66.265]
hê hê mixalêtî
[69.995]
<no-speech>
[71.925]
<sta> na <laugh>
[76.255]
<no-speech>
[77.085]
<int> <hes>
[82.235]
<no-speech>
[85.235]
<int> dengê te nayê piçûk î xwe rake dengê we nayê <int> ha çima
[94.025]
<no-speech>
[97.765]
<sta> erê baş e <int> îcar Kemal ew çi dikin
[100.855]
<no-speech>
[105.765]
<int> te qey (())
[110.015]
<no-speech>
[111.655]
<sta> xaltîka Fatê <int> baş in <int> erê erê <int> elo baş in sax bi
[123.565]
<no-speech>
[127.555]
<no-speech>
[130.535]
<hes> hê mixalêtî
[136.235]
<no-speech>
[137.105]
ha <sta> erê erê dengê te gel kê nayê
[146.255]
<no-speech>
[148.975]
elo
[149.705]
<no-speech>
[151.295]
<int> xaltîka min Fat- e hemî Gulê ye <int> Zîwero ye <int> Meduha ye wa ye hemî wa ye em <no-speech> va ye dora parkê diherin û tên
[161.735]
<no-speech>
[162.535]
<no-speech>
[162.995]
<no-speech>
[166.045]
ê
[166.565]
<no-speech>
[168.195]
<hes>
[168.635]
<no-speech>
[169.495]
ê mixalêtî
[171.075]
<no-speech>
[173.105]
<sta> na (())
[176.345]
<no-speech>
[181.285]
êdî herin
[182.285]
<no-speech>
[183.565]
mekteba min baş e tu sax be mixalêtî a (()) hê mixalêtî
[191.145]
<no-speech>
[193.755]
(()) <laugh> bêje mixalêtî
[201.965]
<no-speech>
[204.245]
<sta> erê erê <int> erê erê <cough>
[209.625]
<no-speech>
[210.715]
<int> erê <int> wa ye xaltîka min Fatê û <int> temam e me <int> erê <int> elo <int> ê mixalêtî
[222.585]
<no-speech>
[223.225]
<no-speech>
[225.205]
ya min ji nabêjin
[227.355]
<no-speech>
[229.215]
hê mixalêtî
[230.075]
<no-speech>
[234.605]
<hes> <int> tê ji herî Qibrisê mixalêtî
[237.645]
<no-speech>
[242.235]
dengê te nayê
[243.535]
<no-speech>
[246.905]
(())
[247.515]
<no-speech>
[249.505]
erê dibê xwe dû bi tiştên (()) negirtiye (()) erê <int>
[254.575]
<no-speech>
[255.455]
zêde ne qut dibin
[256.495]
<no-speech>
[258.875]
<hes>
[259.445]
<no-speech>
[262.265]
a <laugh>
[263.935]
<no-speech>
[264.815]
<hes>
[265.585]
<no-speech>
[267.945]
<hes>
[268.705]
<no-speech>
[272.515]
erê (()) zaten va dibê nîn- va ye dora deveran diherin û tên
[277.275]
<no-speech>
[279.705]
erê
[280.275]
<no-speech>
[283.155]
te got çi mixalêtî
[284.125]
<no-speech>
[288.245]
ê he
[289.585]
<no-speech>
[291.555]
deng qut dibe carek tê dengê tişt fehm nakim <int> erê <int> nizanim bi Quran ew dengek qut dibû çîk dibû ji bo wilo
[300.005]
<no-speech>
[303.015]
<no-speech>
[303.715]
<no-speech>
[307.615]
dengê min xweş tê de deng tê
[309.465]
<no-speech>
[311.425]
erê wa ye ew hatin <hes> çîka wan xilas bû (()) xaltîka Fatê ştexilîn got xilas bû ew hatin erê
[317.435]
<no-speech>
[319.955]
<no-speech>
[320.315]
<no-speech>
[322.735]
<hes>
[323.365]
<no-speech>
[325.675]
erê erê
[326.565]
<no-speech>
[328.635]
erê wan îşê xwe xilas kir wa hatin mala me ma nehatin
[331.825]
<no-speech>
[337.695]
erê
[338.195]
<no-speech>
[339.365]
de ka
[340.375]
<no-speech>
[341.955]
<hes>
[342.465]
<no-speech>
[347.305]
law
[348.435]
<no-speech>
[350.185]
taştê xwar û me taştê xwe ji xwar
[353.195]
<no-speech>
[354.705]
me <hes> me taştê xwar me <hes> me
[357.095]
<no-speech>
[358.175]
me (()) erê erê <cough> dengê te nayê keçê
[364.435]
<no-speech>
[367.255]
erê we çi xwar
[368.935]
<no-speech>
[373.705]
min got wa çi xwar
[374.695]
<no-speech>
[380.055]
min got wa çi xwar
[381.045]
<no-speech>
[384.015]
deng nayê qey
[384.995]
<no-speech>
[389.165]
erê erê
[389.905]
<no-speech>
[391.295]
ka tu yê te ji heye Qibris mixalêtî
[393.055]
<no-speech>
[402.395]
niza- di bavê min (()) bê werin em ê herin
[404.925]
<no-speech>
[406.035]
tatîlê em belkî em herin de bê bê bê werin em ê herin
[408.875]
<no-speech>
[412.555]
deng nayê
[413.505]
<no-speech>
[415.835]
erê qut dibe deng ji bo wilo
[418.135]
<no-speech>
[421.205]
te got çi mixalêtî
[422.285]
<no-speech>
[424.305]
<int> (()) ew çi dikin
[427.145]
<no-speech>
[431.375]
deqekî
[432.145]
<no-speech>
[434.495]
erê erê de ka mixalêtî em hev re neçin
[437.065]
<no-speech>
[439.765]
(()) <int>
[440.555]
<no-speech>
[441.955]
Kemalo
[442.615]
<no-speech>
[444.225]
hê mixalêtî
[445.525]
<no-speech>
[450.735]
topê dilîzim
[452.225]
<no-speech>
[453.885]
bila xwişkî jê rake
[455.115]
<no-speech>
[457.085]
(())
[459.335]
<no-speech>
[460.205]
<no-speech>
[460.625]
<no-speech>
[462.515]
<sta> te go çi te go çi xaltî migayetî
[465.965]
<no-speech>
[471.925]
<no-speech>
[472.365]
<no-speech>
[473.765]
erê erê deng nayê yaw deng nayê deng dengê xwe piçûk î rak-
[478.395]
<no-speech>
[483.395]
îcar Kemalo çi dike
[484.575]
<no-speech>
[489.205]
îcar Kemalo çi dike Kemalo <int>
[490.915]
<no-speech>
[497.695]
erê erê
[498.465]
<no-speech>
[501.425]
Zana çi dike Zana odeva xwe çêkir
[503.375]
<no-speech>
[507.755]
Zana odeva xwe çêkir
[509.205]
<no-speech>
[513.605]
Zana Zana <int> odeva xwe
[516.475]
<no-speech>
[519.865]
(())
[520.895]
<no-speech>
[522.245]
erê
[522.825]
<no-speech>
[523.925]
<int> Derya anî dike
[526.905]
<no-speech>
[530.535]
(()) hey mixalêtî
[533.375]
<no-speech>
[537.645]
<no-speech>
[538.125]
<no-speech>
[538.925]
niha ez dewsa Haqi wan deran me
[540.705]
<no-speech>
[544.095]
em ber parkê wan deran in ber mala xalê min Îsmaîl wir
[547.985]
<no-speech>
[552.025]
erê
[552.535]
<no-speech>
[554.915]
<no-speech>
[555.275]
<no-speech>
[557.135]
dengê te nayê piçûk î dengê xwe rake
[559.055]
<no-speech>
[562.535]
<no-speech>
[564.195]
<no-speech>
[565.325]
erê erê deng nayê ya
[567.545]
<no-speech>
[572.705]
<int> te got mekteba min (()) em wiha herin mektebê
[575.075]
<no-speech>
[579.045]
ser çawa tu jî tu (())
[580.935]
<no-speech>
[582.605]
tu ji silava lê
[585.065]
<no-speech>
[588.125]
ê de ê Cizîrê (()) here
[590.265]
<no-speech>
[591.835]
erê
[592.495]
<no-speech>
[593.815]
<int> ê baş e tatîlê herin Kurdistan
[596.425]
<no-speech>
[600.040]
