[0.000]
<no-speech>
[0.115]
<sta> Mûrad Mesûd
[7.595]
<no-speech>
[8.395]
<sta> baş im sax bê tu çawan î
[10.625]
<no-speech>
[12.665]
baş e elhemdûlîlah <sta> hema tu baş bê ez ê cem mektebê
[17.595]
<no-speech>
[19.635]
<no-speech>
[20.015]
<no-speech>
[21.535]
<sta> na mudur vê derê nîne em jî (()) ne xwarê kêfa xwe xweş dikim
[27.825]
<no-speech>
[29.715]
<sta> be
[31.065]
<no-speech>
[31.995]
çi nexweşê te nînin
[33.315]
<no-speech>
[34.275]
<no-speech>
[36.835]
<no-speech>
[38.185]
<no-speech>
[39.385]
<no-speech>
[41.655]
<no-speech>
[43.705]
<no-speech>
[46.735]
<sta> welehî tu rast dibêjî mudur jî wir gote me yaw
[53.105]
<no-speech>
[54.875]
he ez ê Zekî jî vê gavê li mektebê got hew dihêt min Mesûd bîrê kir çû pansiyonê <hes> bête ve
[61.845]
<no-speech>
[63.045]
<hes> min jî gotê hoca ew çûye çi min jî gotê çûye çi ewêdî şûlê xirab nîne got na hema min oylesine bîrê kiriye
[72.595]
<no-speech>
[74.245]
<sta> erê
[75.905]
<no-speech>
[78.025]
<sta> dibêje êdî dur- na ez îro xestexanê yaw
[81.765]
<no-speech>
[82.765]
çûye xestê
[83.835]
<no-speech>
[85.355]
he jineke wî nesax e jineke min nesax e biriye xestê yaw
[89.535]
<no-speech>
[90.965]
<sta> he
[94.165]
<no-speech>
[95.465]
<sta> Rebê min ji te razî bê tu
[98.195]
<no-speech>
[99.025]
he
[99.715]
<no-speech>
[100.995]
tu kut- nayê jêr
[102.025]
<no-speech>
[104.585]
<sta> tê cem min
[105.785]
<no-speech>
[106.985]
<sta> pekî tu law mêjiyane
[111.525]
<no-speech>
[115.765]
<no-speech>
[116.775]
<no-speech>
[117.935]
<sta> te tu êdî <no-speech> he Mes- Mesûd
[129.915]
<no-speech>
[130.765]
<int> Mesûd delal biaxive wisa (()) hîn seslî neaxive îcar tu kes ewadî nebe in yaw
[136.915]
<no-speech>
[138.615]
şer mede eyb e yaw he
[141.595]
<no-speech>
[142.425]
<no-speech>
[142.775]
<no-speech>
[143.825]
Bahan hatê tu Bah- Bahan hate cem me Bahan ê dêlik
[148.705]
<no-speech>
[153.775]
<sta> Mesûd Mesûd te çi kî çi bi xwe neçû bike te çi kî çi bi xwe ne biçûk e keçik
[162.725]
<no-speech>
[167.885]
<no-speech>
[168.255]
<no-speech>
[169.155]
<sta> kuro dawet dawetê zêde (()) êdî neavêtin tu bi xwe keçikekê eyar bike (()) min bi xwe yê durust kim erê îcar
[181.145]
têla min çû
[182.015]
<no-speech>
[184.105]
ew ê keçikê îcar ez hêlam çû mala bavê xwe
[188.795]
<no-speech>
[190.765]
îcar ma ez ku lê bikim na ew ê ez hêlam înşelah xwişkê xwişkê tê nemîne
[195.425]
<no-speech>
[196.295]
<sta> na
[198.795]
<no-speech>
[199.755]
<sta> înşelah bê çêbe de ka çêbe baş bîn (()) min jî belê îcar xwişkê tê nahêlin yaw <no-speech> be
[209.225]
<no-speech>
[211.275]
<sta> xwişkê tê nahêlin dibêje tu gel çi kesî dernakevin nizanim çi bê falan filan nahêlin yanî telefonê jî
[220.595]
<no-speech>
[221.885]
<sta> he belê îcar dibêjinê tu dibêjinê tu telefonê qulanmîş neke
[226.015]
<no-speech>
[229.755]
<sta> (()) îcar em gel wî temam em gel wî ayrilmîş bûn yek e dî (()) na na yanî ew e êdî êdî ez çûm
[241.675]
<no-speech>
[241.825]
<no-speech>
[242.715]
erê yaw (())
[246.995]
<no-speech>
[248.305]
(()) me lê bû nizanim kî (())
[252.645]
<no-speech>
[253.865]
<sta> Tehsîm navê wê keçel e nîne
[264.985]
<no-speech>
[265.925]
<sta> <laugh> nebê
[268.625]
<no-speech>
[271.945]
<sta> ez ê (()) belê ez yê doro ew dikim
[275.565]
<no-speech>
[279.615]
<sta> ez maş ê rast digirim
[281.675]
<no-speech>
[283.025]
elo
[283.705]
<no-speech>
[286.315]
<hes>
[287.125]
<no-speech>
[290.015]
<sta> ê baş e ez ew a çûm
[291.905]
<no-speech>
[292.945]
ez ê çûm heta devê ew a dî ceza evi me
[295.455]
<no-speech>
[297.535]
<no-speech>
[297.945]
<no-speech>
[299.695]
<sta> aha ez ev a çûm ez ê çûme dihê ewadî
[302.785]
<no-speech>
[304.025]
ez ê çûme vê hewşa (()) ez ê çûme hewşê (())
[307.725]
<no-speech>
[309.705]
<sta> hewşê hewşê hefs na
[317.205]
<no-speech>
[318.315]
ew hewşa vê heye hewş hefsê na hefsê na hewşê
[322.815]
<no-speech>
[325.245]
te zanî
[326.215]
<no-speech>
[328.585]
<sta> erê erê <cough>
[332.835]
<no-speech>
[333.825]
tu hewşê zanî çi tişt e
[335.625]
<no-speech>
[337.305]
<sta> tu baş zanî welehî tu derewa
[343.135]
dike
[345.625]
na na Baho zaten nayê vê gavê elhem- elhemdûlîlah vê gavê Baho çi nayê te
[350.285]
<no-speech>
[351.305]
<sta> lebê
[354.815]
<no-speech>
[359.355]
<sta> erê Xwedê ez hê li mektebê he
[362.625]
<no-speech>
[367.125]
<laugh> (())
[370.145]
<no-speech>
[372.495]
<no-speech>
[372.865]
<no-speech>
[374.865]
<sta> he he tu çawa
[376.505]
<no-speech>
[377.505]
<sta> hêna em gelê neaxivîn telef- telefonê qulanmîş nake xwişkê te nahêle
[382.885]
<no-speech>
[384.815]
<sta> tu dema hat na weleh heger (()) he ew jî hadê telefona temam temam Ze-
[395.985]
kî ji hadê heger neaxivim ez gel neaxivim ez jê sîl im
[398.945]
<no-speech>
[402.325]
be
[403.045]
<no-speech>
[404.255]
<no-speech>
[404.625]
<no-speech>
[406.935]
<sta> ha
[408.655]
<no-speech>
[412.875]
<sta> Mesûd
[416.135]
<no-speech>
[416.945]
<sta> Mesûd adî te birincî donem te birincî donem ê çikê stend bû
[424.565]
<no-speech>
[426.335]
<sta> ha birincî donem ê te çi ew qas te (()) te <laugh> te birincî donem ê takdir yan teşekur anîbû
[435.325]
<no-speech>
[438.715]
<sta> ha
[439.955]
<no-speech>
[440.895]
<no-speech>
[441.255]
<no-speech>
[443.625]
<sta> min jî na min jî teşekur hildabû onûr belgesî
[449.435]
<no-speech>
[450.285]
<sta> de
[451.035]
<no-speech>
[452.505]
<sta> hêna ez ê mektebê bûm kuro çi tu yê xilas bi
[459.715]
<no-speech>
[461.665]
<sta> Mesûd
[466.195]
<no-speech>
[467.545]
<sta> kuro ew sê sed û bîst û pênc milyon e
[474.395]
<no-speech>
[475.765]
<sta> sê sed û bîst û pêncî
[477.345]
<no-speech>
[478.265]
<no-speech>
[480.065]
<no-speech>
[480.905]
<sta> (()) çimkî çimkî bo firavînê em birçî nînin
[492.835]
<sta> çimkî em bo (()) çê nîne
[496.075]
<no-speech>
[497.765]
<sta> tu yê we
[499.955]
<no-speech>
[500.995]
<sta> belê weleh em diçine mal (()) bi xwe bînin ha ku yaw were a dî yêmek ê çêk-
[512.695]
<sta> em ê çi yêmek ê xwe (())
[516.815]
<no-speech>
[518.325]
<sta> kuro ew ê jinekê çi ma jinik çi tişt tu da (())
[524.315]
<no-speech>
[525.215]
<no-speech>
[525.645]
<no-speech>
[527.095]
<no-speech>
[529.185]
<no-speech>
[530.675]
kuro de ka were yaw boş ver bike wî
[532.895]
<no-speech>
[534.155]
tu kî ye
[534.905]
<no-speech>
[536.735]
he erê weleh bo mesaj yaz he he
[542.285]
<no-speech>
[545.295]
<sta> (()) kesildî yalniz sê çar telefonê dest min de
[551.205]
<no-speech>
[554.305]
(())
[555.185]
<no-speech>
[557.635]
<sta> (()) naveke îcar tobe
[561.725]
<no-speech>
[564.195]
be
[564.855]
<no-speech>
[567.455]
we
[568.205]
<no-speech>
[573.195]
mm_hm min erê
[574.505]
<no-speech>
[576.125]
tu heyî (()) piştê <no-speech> çav silav piştê (()) çav silav ez ê çavê min ê kur be tu kesa nabînim
[586.185]
<no-speech>
[592.115]
<sta> ê ma ez ku lê bikim keçê min kir ez dîn kirim
[597.555]
<no-speech>
[600.280]
