[0.000]
<no-speech>
[0.815]
<no-speech>
[2.665]
<no-speech>
[4.965]
<sta> çawan dihêlî
[8.535]
<no-speech>
[9.525]
<hes> he bêje
[11.085]
<no-speech>
[11.895]
<hes> (()) ew ew te gotibû tiştekê din bêje ka hema tu çi îşê dikî tiştekî din bêje çi ye ew jêr (()) tiştekê nakim ha <laugh>
[21.715]
<no-speech>
[25.115]
erê bi Quran ez ji ji sibeyê ez li mal im ez malê (()) <int>
[31.325]
<no-speech>
[33.095]
kuro got çi
[33.945]
<no-speech>
[38.465]
<hes> hûn li ba mala Diyar in yan tu li bayî
[41.045]
<no-speech>
[42.325]
ha
[42.945]
<no-speech>
[44.775]
(()) min got
[46.375]
<no-speech>
[50.405]
ew cem we anîna em in ew çi dikin
[51.905]
<no-speech>
[55.895]
min got
[56.525]
<no-speech>
[57.415]
he
[58.085]
<no-speech>
[61.535]
<int> mm_hm
[62.695]
<no-speech>
[65.105]
<int> qet <no-speech> erê
[67.495]
<no-speech>
[70.005]
kutilka çik kutilka zanim çi ye
[72.785]
<no-speech>
[77.425]
erê ma nizanî kutilk çi ye xwelîser
[79.635]
<no-speech>
[81.260]
