[0.000]
<no-speech>
[5.305]
<no-speech>
[5.665]
<no-speech>
[7.975]
<no-speech>
[8.685]
<no-speech>
[9.625]
<no-speech>
[10.985]
<no-speech>
[16.225]
elo
[17.385]
<no-speech>
[21.345]
têyze tu çawa yî
[22.935]
<no-speech>
[24.235]
elo têyze dengê min nayê
[28.195]
<no-speech>
[30.095]
weleh em tiştekî nakin
[31.445]
<no-speech>
[32.945]
yê te ji tê hindik hinekî çi bikin têyze
[38.265]
<no-speech>
[39.315]
elo
[40.305]
<no-speech>
[42.555]
e dengê te tê min ê min nayê <no-speech> ê te tê tê <no-speech> he <int> ê te jî tê
[52.065]
<no-speech>
[54.045]
weleh em tiştekî nakin rûdinin tu çi dikî <no-speech> weleh ez ba hevala me
[60.585]
<no-speech>
[61.945]
tu çi dikî
[64.465]
<no-speech>
[65.685]
çi dengê te nayê
[68.745]
<no-speech>
[69.985]
he hûn kî kî ne
[72.615]
<no-speech>
[74.425]
he Eyşê nedan
[76.015]
<no-speech>
[78.715]
Nîşana Eyşê çi wextê ye
[80.705]
<no-speech>
[88.765]
he nîşan van rojan nabe yanî
[91.395]
<no-speech>
[93.835]
<no-speech>
[94.625]
<no-speech>
[100.165]
he ê baş e baş e çavê Eyşê ronî be <laugh>
[104.085]
<no-speech>
[105.165]
ha
[106.225]
<no-speech>
[109.845]
çi têyze dengê te nehat
[111.575]
<no-speech>
[113.345]
he îcar em wan e li malê ne weleh ez ji <no-speech> tê dengê te hinekî dereng tê min guhdarî bike dawiyê ez (()) ha
[123.075]
<no-speech>
[126.845]
çi dengê te nehat
[128.605]
<no-speech>
[130.085]
<int> ha têyze
[131.605]
<no-speech>
[135.365]
<hes> <laugh> têyze dengê te hinekî dereng tê hinekî bisekine dengê min hinekî dereng tê
[143.365]
<no-speech>
[148.535]
he hene ji telefonê ye ji telefona wan e
[153.595]
<no-speech>
[158.045]
<hes>
[158.895]
<no-speech>
[160.315]
min hevalê min em vê derê ne em gotine
[164.785]
<no-speech>
[165.695]
hevalê min ez vê derê ne
[168.125]
<no-speech>
[170.615]
<hes> me ne-
[171.645]
<no-speech>
[172.595]
kî
[174.505]
<no-speech>
[176.565]
kî hatibû
[177.905]
<no-speech>
[178.935]
Sînan doh telefonê min kir
[181.415]
<no-speech>
[182.925]
he doh telefonê min kir got tu çi wextê tê wan <no-speech> he ji min ra got tu ji werî min got mekteba min heye nikarim
[193.165]
<no-speech>
[194.425]
werê
[195.235]
<no-speech>
[200.145]
erê min ji got hefteyekê şûnve belkî em ê Cûmartesî Pazarê wan ez ê bêm <no-speech> roja dîn mekteb heye <no-speech> he werê îşte
[210.855]
<no-speech>
[213.235]
na ne ji boyî Medo ji boyî we ez ê bêm go Loqman tê ji eskeriyê
[218.145]
<no-speech>
[220.065]
mm_hm got îşte ez <int>
[222.965]
<no-speech>
[224.875]
<hes> (()) zaten Loqman ew ê bê ez ê herim nizanîbûn îro bihata
[230.825]
<no-speech>
[237.495]
he erê erê
[239.465]
<no-speech>
[241.115]
he doxrû ye <no-speech> qala Meto kir (()) ez Kenan mirim <laugh>
[248.035]
<no-speech>
[248.995]
weleh na- weleh ez <hes> neçûm Newrozê ez çûm xestê <no-speech>
[256.275]
diya min wan giş çûn yê me giş çûn ez tenê neçûm
[259.925]
<no-speech>
[261.045]
ez çûm xestê çi bikim hebû ji bo diran çûm
[265.225]
<no-speech>
[268.445]
erê
[269.585]
<no-speech>
[270.765]
e ew wilo baş çûme
[273.545]
<no-speech>
[275.015]
hûn mewlûdê çêkin ya bavo mewlûda bavo çêkin
[279.445]
<no-speech>
[286.515]
<hes>
[287.505]
<no-speech>
[289.115]
<no-speech>
[289.705]
<no-speech>
[290.595]
bavê min ji bo
[293.585]
<no-speech>
[294.925]
bavê min ji got ez ê (()) erê
[298.605]
<no-speech>
[299.685]
ê o zeman kêf kirîn
[301.905]
<no-speech>
[305.785]
mm_hm ê çêkin o zeman çend *ro* ma
[308.975]
<no-speech>
[309.785]
<no-speech>
[310.135]
<no-speech>
[313.325]
perşembeyê ye
[315.065]
<no-speech>
[317.385]
perşembeyê ye mewlûd
[319.435]
<no-speech>
[320.995]
he dersê min heye hema
[323.105]
<no-speech>
[326.505]
he dersê min heye hema ez ê belkî dîsa bêm nizanim weleh gerek ez çikê mielim bipirsim
[333.295]
<no-speech>
[335.615]
<no-speech>
[336.005]
<no-speech>
[339.645]
hîç têyze
[341.145]
<no-speech>
[344.385]
te be
[344.975]
<no-speech>
[347.265]
he îşte ez ê bipirsim îzin neda ez nikarim bêm
[351.495]
<no-speech>
[352.385]
<no-speech>
[352.745]
<no-speech>
[356.115]
he ez ê bipirsim îzin dada neda neda
[360.625]
<no-speech>
[363.405]
heyat wan çêdikin
[365.215]
<no-speech>
[368.085]
Dûygû
[369.825]
<no-speech>
[370.735]
ha ew ê got çi
[373.665]
<no-speech>
[378.565]
got çi
[380.085]
<no-speech>
[381.465]
ha têyze got çi
[383.725]
<no-speech>
[386.175]
he
[386.875]
<no-speech>
[391.525]
he
[392.465]
<no-speech>
[396.895]
he dîsa bibe têyze ez fehm nekirim
[399.845]
<no-speech>
[408.915]
he
[410.285]
<no-speech>
[413.955]
he
[416.725]
<no-speech>
[417.665]
ê baş e <breath>
[420.365]
<no-speech>
[421.595]
hûn nayne wan derana
[423.315]
<no-speech>
[425.275]
sinava me ka a niha tune <int> <hes> mehekê mane sinava me dest pê bikin
[431.415]
<no-speech>
[433.185]
<hes> mehekê mane sinavê me dest pê bikin a niha sinav tune
[437.935]
<no-speech>
[442.385]
<hes>
[443.585]
<no-speech>
[446.625]
yê me ji dest pê nekiriye
[449.535]
<no-speech>
[452.095]
<hes> têyze
[453.485]
<no-speech>
[455.775]
erê tê tê hinekî dereng tê hema tê dengê te hinekî tê yanî tê hema dereng tê
[462.325]
<no-speech>
[464.865]
he he ê zaten werê <laugh> ne ji telefona te ye <laugh> îcar hûn û têyze çir dikin
[473.875]
<no-speech>
[475.945]
<no-speech>
[477.295]
<no-speech>
[480.395]
Huseyin çi dike
[481.955]
<no-speech>
[486.205]
Sewîm çi dike Sewîm
[488.315]
<no-speech>
[492.205]
<no-speech>
[492.565]
<no-speech>
[495.955]
he
[496.955]
<no-speech>
[501.075]
erê kêf kêfa Eyşê <laugh>
[503.685]
<no-speech>
[505.685]
he ê baş em in got kêf kêfa Eyşê
[509.705]
<no-speech>
[515.285]
yanî <laugh>
[517.525]
<no-speech>
[519.345]
<no-speech>
[520.755]
<no-speech>
[522.015]
ê weleh kêf kêfa wê ye xwezî ez veke wê bûma <laugh>
[528.715]
<no-speech>
[538.025]
<hes> Necla bê ez ji werim
[540.885]
<no-speech>
[541.845]
çi wextê ye
[544.185]
<no-speech>
[545.415]
çi wextê ye çi diherî <hes>
[547.885]
<no-speech>
[548.905]
têyze min got Nîşana wê çi wextê ye
[551.805]
<no-speech>
[559.385]
<hes> vî- nîsana
[562.355]
<no-speech>
[563.375]
vî- nîsana vî- nîsanê hebekê şûnda
[567.825]
<no-speech>
[569.535]
<hes> <no-speech>
[570.845]
<no-speech>
[573.905]
<hes> fehm kirim baş e baş e
[578.385]
<no-speech>
[582.855]
<hes> ê ew ji baş e
[584.945]
<no-speech>
[587.555]
ew ji baş e ew ji baş e
[590.365]
<no-speech>
[593.015]
<no-speech>
[594.395]
<no-speech>
[595.195]
hindik ma têyze <laugh>
[597.595]
<no-speech>
[599.495]
<no-speech>
[599.915]
<no-speech>
[600.040]
