[0.000]
<no-speech>
[5.215]
merha- merheba metikê
[7.395]
<no-speech>
[8.655]
çawa yî metikê
[9.665]
<no-speech>
[12.595]
<no-speech>
[12.955]
<no-speech>
[15.035]
sax bi met- <hes> baş im sax bi metikê ka zarok çi dikin
[20.305]
<no-speech>
[22.695]
(()) tik tu çawa (()) te çilo derbas dibe
[26.335]
<no-speech>
[36.335]
çi ma
[37.195]
<no-speech>
[38.355]
yatax yataxê kî kirî binî dane
[40.905]
<no-speech>
[43.855]
ya ez bêjimê tu lewma dimînî
[45.715]
<no-speech>
[47.735]
bêje ya te bêje
[48.835]
<no-speech>
[52.745]
ê
[53.345]
<no-speech>
[55.885]
weleh rihet in metikê destê te maçî dikin
[58.365]
<no-speech>
[61.765]
Welat kê
[62.935]
<no-speech>
[64.035]
îcar min got tu çi dik-
[65.295]
<no-speech>
[70.395]
<no-speech>
[70.745]
<no-speech>
[77.525]
ma tu çi ma dengê te hindik têne tê
[79.765]
<no-speech>
[82.605]
<int> min got dengê te hindik tê ev zor deng tê ha
[86.205]
<no-speech>
[91.055]
weleh nizanim kêm tê (()) tê da ez fehm dikim (()) dike
[95.665]
<no-speech>
[100.895]
<no-speech>
[101.295]
<no-speech>
[102.175]
(())
[102.565]
<no-speech>
[105.075]
<no-speech>
[105.505]
<no-speech>
[113.295]
<no-speech>
[114.325]
<no-speech>
[116.175]
<sta> erê erê yaw
[119.955]
<no-speech>
[121.795]
weleh tê
[122.635]
<no-speech>
[125.345]
<int> he weleh weleh ew jî baş in metikê silavên wan li te hene
[128.925]
<no-speech>
[129.755]
sax bi metikê
[130.945]
<no-speech>
[135.675]
weleh ew îşê min îro xilas bû <int> he erê weleh îşê min xilas bû- <int> tê Xwedê mezinê <no-speech>
[147.555]
ne wilo ê tu min re berxekî serjê kî
[150.145]
<no-speech>
[152.375]
ez ê bêm ez ê (()) dike
[154.745]
<no-speech>
[157.295]
min got me dihê te bir berx pêncşemê kê
[159.565]
<no-speech>
[162.735]
ê
[163.385]
<no-speech>
[165.125]
emeliyatekê
[166.325]
<no-speech>
[167.135]
min got me dihê tu berxekî serjê kî
[169.265]
<no-speech>
[170.385]
ha
[171.125]
<no-speech>
[174.775]
ê temam ez ê bibim Zana
[176.485]
<no-speech>
[180.245]
he
[180.955]
<no-speech>
[183.975]
erê ê çi ma ê me nekir me (()) ser giriyaye
[188.625]
<no-speech>
[189.455]
em hingî temam bûne xweş ketibû normal bû
[192.685]
<no-speech>
[197.705]
(()) niha xwe ra xwe ra xilas bûme tême bo na wilo bimana <int>
[205.635]
<no-speech>
[209.625]
erê
[210.295]
<no-speech>
[211.555]
<no-speech>
[212.875]
<no-speech>
[214.305]
ê ez fakulteyê
[215.665]
<no-speech>
[217.165]
<no-speech>
[217.595]
<no-speech>
[218.405]
<sta> ê ma me tê em hemû me feqîrî me dîtî me kî feqîrî nedîtî te jî feqîrî dîtî tu jî perîşan bû bûye ma qey tune bû jî ma tu jî ne feqîr bûye me tê
[227.645]
<no-speech>
[229.235]
ha weleh
[231.275]
<no-speech>
[234.815]
ê wilo ye
[235.715]
<no-speech>
[241.735]
<sta> he (()) wextê roja ew kalikê min çû rehmetê tune bû eynî wê sibê min (()) dîtim ha
[248.475]
<no-speech>
[249.295]
<sta> min ji te ra gotin
[250.355]
<no-speech>
[252.875]
he weleh ez eyne wê sibe min xwe ra dît eyne roja got çû ew çû rehmetê ez sibe ez ez wilo vecîniqîbûm xewê de wê derê yanî ez wilo şev ji xew hişyar bûm
[264.195]
<sta> min ewko kalikê min e kalikê min Ferhan û pîrika min Hewê
[269.165]
<no-speech>
[270.115]
û em em hevdu diştexilîn min hema kalikê min Hesen got ji bo ew a yê min got kaliko hema kalikê min Hesen got nebê biştexilî min got kaliko ew jî eynî (())
[282.025]
ev a herduyan min got tenê siwar bû min got ma kaliko ê kalikê min Hesenkê ba we çi dikî em zanî ga çi rehmetiyê (()) kalikê min zanî bû yanî çû rehmetê
[293.145]
min xewna min ez ê we dibînim min got kaliko ew kalikê min Hesen tu hati bi ew a çi gotê ma ew jî hûn jî cînarê me ew jî hat ba me ez wilo mam şaş (()) ez rabûm min got
[304.435]
<no-speech>
[306.355]
he saet pêncan bû ez veciniqîm ez hişyar bûm bû sibe ez çûm îş hatim <lipsmack> (()) min wirê bavê min telefon vekir got weleh got kalikê te Huseyno çû rehmetê
[317.775]
wa ez ê herim
[319.275]
<no-speech>
[320.205]
ê min got em ê jî bên got lawo lawo Rêdûr e nebin filan weleh kir nekir got nehişt em bên <breath> got va ye ez tenê herim bes e
[327.215]
<no-speech>
[328.515]
he îcar min hat malê min got
[330.935]
<no-speech>
[332.335]
he
[333.065]
<no-speech>
[334.205]
he îcar weleh <sta> he îj- îcar wextê çûbûye ba kalikê min Ferhan binihêre
[342.165]
<no-speech>
[343.305]
ji wî îro baş e çûn kalikê min Ferhan ne (()) ez du cara wî dibînim her cara jî ne cihê wî he digot tu çûyî ba wan dêmek kî ew jî ne tê da ye
[355.195]
<sta> temam (()) tu kafeyê (()) bise tune (()) hêviya telefonê bise me tê
[361.535]
<no-speech>
[362.345]
na ez hê vir im (()) heya pênc deqeyê din jî sê çar deqeyê din jî <int>
[367.185]
<no-speech>
[370.085]
wa ê weleh mêvan hebûn yaw (()) ê ma pênc deh deqe me çênebû
[376.865]
<no-speech>
[378.245]
ha
[378.975]
<no-speech>
[381.905]
he ê
[383.505]
<no-speech>
[388.045]
<sta> he he havînê ez ê bêm bêm <no-speech> ê binêrin metê <no-speech> ku ez werim tu yê heqê mazota min bidî min ha
[394.195]
<no-speech>
[395.385]
min got mecbûr e tu heqê mazotê bidî min
[397.575]
<no-speech>
[399.565]
(())
[400.055]
<no-speech>
[401.735]
ne wilo
[402.635]
<no-speech>
[403.585]
Memo jî Qiziltepe (()) <hes> her derê Qiziltepe jê (()) bê temam
[412.305]
<no-speech>
[413.665]
ma hûn heqê Emrulah neda heqê dolmîş a we
[416.425]
<no-speech>
[418.065]
erê weleh min (()) min îro ker kî
[421.075]
<no-speech>
[422.965]
me tê
[423.795]
<no-speech>
[424.965]
na hema ez şevînê nakim
[426.795]
<no-speech>
[428.645]
weleh (()) îro neyse
[431.065]
<no-speech>
[433.275]
he temam me tê
[435.535]
<no-speech>
[437.325]
<no-speech>
[437.885]
<no-speech>
[440.645]
weleh berî niha pênc şeş meha carekî telefon vekir ez pê ra ştexilîm
[445.145]
<no-speech>
[446.095]
he min ew min ew firça mirçe jî avêtinê
[449.735]
<no-speech>
[451.425]
<hes> min got min heya tu birçî (()) xwe
[454.245]
<no-speech>
[456.805]
kî
[457.455]
<no-speech>
[459.695]
min got min min got min lawê te min carekê pêr ştexilî
[463.075]
<no-speech>
[468.955]
kî
[469.425]
<no-speech>
[474.235]
erê
[475.025]
<no-speech>
[477.145]
<no-speech>
[477.545]
<no-speech>
[479.185]
me tê tişt e ştexiliya te nema
[481.625]
<no-speech>
[483.415]
elo
[484.115]
<no-speech>
[486.225]
me tê
[486.955]
<no-speech>
[489.145]
me tê
[489.975]
<no-speech>
[493.905]
çi ma dengê te çû bê ez ban dikim deng nayê te
[496.635]
<no-speech>
[497.575]
<no-speech>
[498.055]
<no-speech>
[498.955]
<sta> erê
[500.605]
<no-speech>
[501.745]
me tê
[502.575]
<no-speech>
[504.755]
he min got qey tu naştexilî yoqsa dengê te qut dibe
[508.765]
<no-speech>
[511.615]
elo
[512.415]
<no-speech>
[515.075]
he tu deyn nakê tu rihetsiz î qey tu nizane biştexilî
[519.825]
<no-speech>
[522.095]
he tu çi biçim kurmancî metê tu nizanî kurmancî biştexilî jî <int> hey maşelah
[528.205]
<no-speech>
[529.365]
<laugh> we
[530.855]
<no-speech>
[532.415]
he
[533.285]
<no-speech>
[537.895]
ê <int>
[538.985]
<no-speech>
[542.885]
bisene
[543.485]
<no-speech>
[546.125]
<laugh> erê me tê
[548.725]
<no-speech>
[549.645]
îcar xalê Cemîl çi dike ka dişixule
[552.435]
<no-speech>
[559.285]
ew a ew a Umran dibin îş
[561.525]
<no-speech>
[562.905]
ew a Umran in
[564.035]
<no-speech>
[565.465]
ew a Umran dibe îş
[566.805]
<no-speech>
[568.975]
<sta> ê baş e baş e (()) Xwedê bikê
[573.445]
<no-speech>
[576.685]
<sta> he temam
[579.015]
<no-speech>
[580.675]
<no-speech>
[584.385]
<no-speech>
[585.555]
<sta> (()) erê me tê
[588.605]
<no-speech>
[590.425]
ha
[590.985]
<no-speech>
[591.835]
<no-speech>
[592.385]
<no-speech>
[594.835]
<no-speech>
[595.145]
<no-speech>
[595.660]
