[0.000]
<no-speech>
[0.505]
<no-speech>
[2.415]
<no-speech>
[3.295]
<no-speech>
[3.645]
<no-speech>
[5.075]
<sta> elo baş im tu çi dike
[8.225]
<no-speech>
[11.305]
<laugh> Xwedê ez ê sûkê me
[15.155]
<no-speech>
[18.135]
<int> ê tu ku derê yê
[19.545]
<no-speech>
[21.795]
<no-speech>
[22.165]
<no-speech>
[24.965]
<sta> ku derê
[26.385]
<no-speech>
[29.585]
<sta> hate kutikê dike
[32.295]
<no-speech>
[36.125]
<int> kî em
[37.035]
<no-speech>
[40.665]
Xwedê nizanim tu zanî
[42.035]
<no-speech>
[44.455]
<no-speech>
[45.265]
<no-speech>
[47.125]
<laugh> weleh cem me biaxive <int> <breath> Wedat te hevalê xwe dît hevalê te dît
[56.835]
<no-speech>
[58.835]
ha he he te dît
[61.835]
<no-speech>
[63.145]
<sta> hevalê te yê dersanê
[65.975]
<no-speech>
[69.505]
<sta> yê dersanê
[72.305]
<no-speech>
[74.295]
<no-speech>
[74.805]
<no-speech>
[77.325]
<sta> te dît çi digot
[80.505]
<no-speech>
[81.895]
ha
[82.455]
<no-speech>
[84.285]
<sta> na he hêşîn e hêşîn e kir
[91.575]
<no-speech>
[93.065]
ha
[94.035]
<no-speech>
[95.675]
he
[96.385]
<no-speech>
[97.885]
<sta> he
[99.695]
<no-speech>
[100.925]
<int> ma ne xilas mekteba wê
[104.445]
<no-speech>
[106.115]
<sta> ha
[107.965]
<no-speech>
[110.915]
<sta> de min got tu vê sala şîr ketin
[113.005]
<no-speech>
[114.645]
erê ne şûl kin <int>
[116.655]
<no-speech>
[117.945]
<no-speech>
[118.315]
<no-speech>
[120.165]
<sta> <laugh> ez ê gel (()) çêkim
[123.095]
<no-speech>
[124.235]
<no-speech>
[128.325]
<no-speech>
[129.145]
<sta> çi
[131.785]
<no-speech>
[132.895]
te çi got
[133.945]
<no-speech>
[135.265]
<sta> ez Sevgulê nabim
[137.835]
<no-speech>
[138.715]
<sta> he he pişta wê <laugh>
[140.945]
<no-speech>
[141.785]
<breath> <sta> erê Xwedê çi dengê te xweş nayê tê dengê te xweş nayê tê min
[151.885]
<no-speech>
[152.705]
<sta> erê Xwedê tu çi bê ez xeta serî me
[158.655]
<no-speech>
[159.835]
<sta> de derkeve erê erê gelê (())
[169.135]
<no-speech>
[170.285]
<sta> ê ev a çi deh deqe ye hê ha <laugh>
[181.945]
<no-speech>
[183.685]
<sta> <laugh> (()) heger heger ez neaxivim
[190.675]
<no-speech>
[192.345]
<sta> ez baş im ê em ê kengî tên (())
[197.655]
<no-speech>
[199.465]
<sta> cem dayika xwe ye cem dayika xwe ye
[203.645]
<no-speech>
[205.525]
<no-speech>
[205.875]
<no-speech>
[207.305]
he <sta>
[209.075]
<no-speech>
[210.385]
<sta> ê de baş e
[212.275]
<no-speech>
[215.865]
<sta> Xwedê dersê min dayikê nîne <no-speech> min qe nedaye (()) Xwedê nizanim heta ez (()) ez ê bisekinim
[226.945]
<no-speech>
[227.815]
<sta> ê me nedîtiye kalorîferlî
[230.695]
<no-speech>
[232.705]
<no-speech>
[233.825]
<no-speech>
[235.905]
<sta> min got tu niha heta ku derê çûye
[242.285]
<no-speech>
[244.715]
<sta> ê tu kengî çûye wê derê
[252.415]
<no-speech>
[254.755]
<sta> ez dixin herime cilan ez dixim herime cilan vê derê
[260.075]
<no-speech>
[261.735]
<no-speech>
[263.195]
<no-speech>
[264.145]
çi
[265.115]
<no-speech>
[267.425]
<sta> hine- hinekî
[271.315]
<no-speech>
[272.695]
<sta> weleh ez bi te weleh ez bi te re (()) bikirim na min ew nekiriye (()) jê bikim
[279.295]
<no-speech>
[283.785]
we digotê ez çi dikim
[285.335]
<no-speech>
[286.855]
Xwedê min bi (()) kim
[289.325]
<no-speech>
[290.515]
Xwedê kuro carina xweş dibin
[292.485]
<no-speech>
[293.365]
erê weleh
[294.115]
<no-speech>
[294.945]
çi erê yê zilaman
[296.645]
<no-speech>
[297.935]
<int> gomlekê zavayê me xweş in wê derê
[299.895]
<no-speech>
[301.295]
em gelekî (()) <int>
[303.525]
<no-speech>
[304.975]
çi
[305.635]
<no-speech>
[309.755]
he cindî ne
[310.935]
<no-speech>
[316.885]
îşte tiştek were neaniye erê
[318.325]
<no-speech>
[321.885]
kuro min tîşortekê (()) gelê ev bi xweş be
[324.695]
<no-speech>
[325.765]
ha
[326.335]
<no-speech>
[328.535]
te çi got
[329.355]
<no-speech>
[332.045]
saet çi ye
[332.805]
<no-speech>
[336.095]
yanî me na wê çi
[337.305]
<no-speech>
[338.905]
elo
[339.585]
<no-speech>
[342.045]
hê dengê te piçûk tê
[343.585]
<no-speech>
[345.155]
dengê te piçûk tê
[346.445]
<no-speech>
[350.145]
ka ez (()) <int>
[351.225]
<no-speech>
[354.985]
elo
[355.595]
<no-speech>
[357.475]
elo
[358.165]
<no-speech>
[359.985]
he he
[360.725]
<no-speech>
[362.245]
elo
[362.845]
<no-speech>
[364.565]
erê têm (()) min têm
[367.145]
<no-speech>
[368.805]
hê tim jî bi me te yaw
[370.425]
<no-speech>
[371.385]
têt têt dengê te têt
[372.895]
<no-speech>
[375.195]
temam bûk bimire ma tu yê ku bisekinî
[377.035]
<no-speech>
[379.145]
ha
[379.695]
<no-speech>
[382.345]
na dengê te têt vê dibêjime te ay
[386.415]
<no-speech>
[390.005]
hê dengê te tê tu bêje
[391.495]
<no-speech>
[396.385]
<no-speech>
[398.485]
<no-speech>
[399.305]
<laugh> bête zivire zivire were
[401.205]
<no-speech>
[403.385]
heye heye bizivire we
[405.205]
<no-speech>
[407.325]
elo
[408.025]
<no-speech>
[409.495]
dibêjime te bizivire we
[410.905]
<no-speech>
[413.225]
<laugh> îcar tu nezivire ez zanim (())
[418.855]
<no-speech>
[419.785]
<no-speech>
[420.175]
<no-speech>
[422.945]
<no-speech>
[423.305]
<no-speech>
[425.705]
ha tu rast dibêjî
[427.535]
<no-speech>
[429.535]
elo
[430.335]
<no-speech>
[431.375]
dengê te tê tu nexe- qêrîn
[433.465]
<no-speech>
[438.675]
<int> min got dengê min nayê te te te xwe te got elo dengê min nayê te te
[443.515]
<no-speech>
[446.675]
weleh dengê min nayê te tu hema îkîde bir dibêjî elo elo tu dibêjî elo elo
[451.235]
<no-speech>
[457.495]
<laugh> (()) nekiriye na Xwedê tu bêbextiyan dike
[463.265]
<no-speech>
[464.765]
tu bêbextiyan dike
[466.295]
<no-speech>
[471.295]
çi
[471.925]
<no-speech>
[474.685]
ez dihêm ez ku nahêm
[476.065]
<no-speech>
[478.145]
ez dihêm ez ku nahêm
[479.625]
<no-speech>
[480.565]
be
[481.245]
<no-speech>
[484.505]
heme heme ew dê heye
[486.625]
<no-speech>
[488.945]
min got bi xwe etekek gelê law dît ha
[491.185]
<no-speech>
[492.185]
kuro min etekek dît bi xwe
[493.765]
<no-speech>
[495.415]
etek etek min got min kirî etekek min ê kirîbû min kirî
[499.615]
<no-speech>
[500.495]
<no-speech>
[500.845]
<no-speech>
[503.955]
lê min perê min (()) nîne
[505.515]
<no-speech>
[506.545]
ez ê reben im ma perê min heye
[508.395]
<no-speech>
[510.395]
bo min dikire ma nekire <int>
[513.535]
<no-speech>
[514.835]
ha
[515.365]
<no-speech>
[518.515]
<no-speech>
[519.465]
<no-speech>
[521.135]
<no-speech>
[521.545]
<no-speech>
[522.935]
<int> navê bo min kirîne
[525.335]
<no-speech>
[527.345]
<sta> elo
[528.115]
<no-speech>
[530.275]
ez dibêjim (()) min dayika te (()) sesin gelmiyor
[535.465]
<no-speech>
[538.275]
tu ku derê yê bizivire were bizivire were
[540.045]
<no-speech>
[541.065]
(()) bizivire were min (())
[542.995]
<no-speech>
[544.285]
(())
[546.275]
<no-speech>
[547.365]
çaxê dû ra ser me tijî bûn
[548.965]
<no-speech>
[555.885]
ê de baş e bê hema ser çavê we ser çavê we
[559.165]
<no-speech>
[562.025]
(())
[562.785]
<no-speech>
[564.175]
çi
[564.845]
<no-speech>
[566.685]
(()) dibêjim
[567.695]
<no-speech>
[570.295]
Xwedê min tu negerî
[571.435]
<no-speech>
[574.065]
he min (()) <laugh> kuro ez ker im min gotê nebûya Xwedê
[579.125]
<no-speech>
[583.085]
<laugh> Xwedê ker im ez ku diya te newêrim
[587.625]
<no-speech>
[592.785]
hûn bê herine dawetê
[594.225]
<no-speech>
[599.455]
(())
[599.965]
<no-speech>
[600.020]
