[0.000]
zarok (())
[1.075]
<no-speech>
[2.385]
<int> elo
[5.655]
<no-speech>
[6.665]
te çi dan
[7.455]
<no-speech>
[9.415]
he hûn çawan in
[10.525]
<no-speech>
[12.765]
elo <int> Dîlan tu yî
[15.415]
<no-speech>
[17.165]
çawan in rihet in lawo
[18.365]
<no-speech>
[21.165]
he (()) wan elo
[23.775]
<no-speech>
[25.645]
ka bide (()) ka bide ca xwe bide ca xwe ka bide bavê xwe
[30.615]
<no-speech>
[31.655]
ka bide Şakir abê ka
[33.245]
<no-speech>
[39.385]
<int> Reşîda
[41.755]
<no-speech>
[43.505]
ha Qeşîda <sta> çawan in <click> qesîda
[49.675]
<no-speech>
[50.655]
elo
[51.435]
<no-speech>
[53.995]
Şakir tu çawan î
[55.115]
<no-speech>
[57.535]
Şakir
[58.225]
<no-speech>
[59.045]
te Arif ê me
[60.115]
<no-speech>
[61.615]
ye Arif
[62.355]
<no-speech>
[63.465]
he hûn çawan in rihet in
[64.915]
<no-speech>
[67.585]
baş in tu sax bi hema min got wê ye xwe ra bigerin em te çima telefona xwe da Îlhan hemû
[72.055]
<no-speech>
[75.525]
weleh em ê bi te re biştexile ya na xweştir biştexil ka dirûma we çawa ye hûn baş in rihet in
[79.625]
<no-speech>
[84.035]
hûn çi dikin deqe dengê te nexweş tê
[86.005]
<no-speech>
[87.695]
ha
[88.265]
<no-speech>
[91.085]
<hes>
[91.895]
<no-speech>
[93.165]
ê biştexile wekî gund çi heye çi tune ye
[95.495]
<no-speech>
[97.215]
ha dengê telefonê hebekê kêm bû niha çêbû
[99.855]
<no-speech>
[101.125]
<no-speech>
[102.945]
<no-speech>
[104.745]
he Şakir he
[106.155]
<no-speech>
[109.085]
Şakir
[109.815]
<no-speech>
[113.305]
îcar fîlm çi heye çi tune
[115.045]
<no-speech>
[115.895]
hê
[116.605]
<no-speech>
[118.855]
elo
[119.675]
<no-speech>
[121.555]
dengê te tê he
[122.655]
<no-speech>
[130.145]
ha baş im sax be zarokên te hemû rihet in ha
[133.925]
<no-speech>
[139.425]
he
[140.155]
<no-speech>
[143.175]
îş mîş ba we heye tune ye ez têm wir îş heye tune ye
[146.605]
<no-speech>
[150.145]
<hes> elo
[151.345]
<no-speech>
[155.705]
he
[156.445]
<no-speech>
[162.255]
me qaşo ji te ra negot ma em herin lê bigerin ma ji te ra negot ma
[165.985]
<no-speech>
[169.225]
min got bela deng niha xweşik de diştexilin min got we bigerin deh deqe hev re biştexilin
[173.605]
<no-speech>
[175.985]
<no-speech>
[177.185]
<no-speech>
[180.745]
ê ê biştexile başqa çi heye çi tune ye zarokê te Evdilwehab hat cem we
[185.205]
<no-speech>
[189.365]
yê xezûrê te
[190.635]
<no-speech>
[193.605]
ew hat Antalya bûn em herin wê derê bişixulin
[196.315]
<no-speech>
[197.385]
<no-speech>
[198.955]
<no-speech>
[200.055]
wa Evdilah digot ez ê mala xwe bibime Antalya ez digot îş çi be belkî wirê ez xwe ra bişixulim
[204.665]
<no-speech>
[208.335]
Evdirahimê qefîlê te we ne ew bû <int>
[211.555]
<no-speech>
[215.705]
ew îşê wî çawan bû baş e xwe ra dişixulin
[217.935]
<no-speech>
[225.045]
he derê înşatê ya
[226.855]
<no-speech>
[235.235]
mm_hm
[236.145]
<no-speech>
[237.175]
Hemze dişixule Hemze derdikeve îş mîş
[239.445]
<no-speech>
[247.000]
<no-speech>
[254.555]
ha
[255.155]
<no-speech>
[261.745]
he
[262.555]
<no-speech>
[271.835]
he min ew ewil lêr- telefona min telefon da ewil ew niha reş tê
[275.955]
<no-speech>
[277.135]
<no-speech>
[278.795]
<no-speech>
[279.865]
elo
[280.565]
<no-speech>
[282.195]
he
[282.945]
<no-speech>
[287.685]
<no-speech>
[288.695]
<no-speech>
[289.825]
û başqa çi heye çi tune ye
[291.485]
<no-speech>
[295.215]
ha
[295.875]
<no-speech>
[298.505]
<no-speech>
[299.785]
<no-speech>
[300.655]
mm_hm Xwedê wir ji em betal in îş tune ye
[305.455]
<no-speech>
[315.935]
<no-speech>
[316.675]
<no-speech>
[317.555]
he Weysî Osman ew çi dikin ew çi îş dikin diçin înşata ya diherin <hes>
[323.235]
<no-speech>
[328.405]
he
[329.525]
<no-speech>
[333.105]
ha
[333.685]
<no-speech>
[342.295]
he Xwedê nizanim
[343.755]
<no-speech>
[345.885]
başqa zarokê te hemû rihet in Xwedê îş tune ye nizanim em çilo bikin
[351.645]
<no-speech>
[353.995]
dinya hebekê xweş biba îş mîşê çênabe ji xwe ra memleketê xwe bişixuliyana ka
[359.275]
<no-speech>
[364.085]
ha
[364.735]
<no-speech>
[366.625]
he pars e çi heye çi tune
[368.935]
<no-speech>
[370.525]
ha
[371.135]
<no-speech>
[372.515]
min got başqa çi heye çi tune
[374.105]
<no-speech>
[379.495]
he
[380.325]
<no-speech>
[386.615]
he
[387.345]
<no-speech>
[391.655]
erê
[393.515]
<no-speech>
[401.305]
he
[402.015]
<no-speech>
[407.995]
keçika te çawa ye mezin nebûye hebekê
[410.305]
<no-speech>
[413.305]
ha
[413.935]
<no-speech>
[423.975]
<no-speech>
[424.385]
<no-speech>
[427.325]
<click> ciwan
[428.465]
<no-speech>
[432.985]
bavê min çilo ye dirûma wî
[434.615]
<no-speech>
[436.375]
ha elo
[438.105]
<no-speech>
[439.005]
min got bavê min çêkir ma ew dane nexweşê
[442.025]
<no-speech>
[449.995]
he Hesen heye ew îşê dişixule ji xwe ra
[452.595]
<no-speech>
[453.925]
<no-speech>
[454.315]
<no-speech>
[460.725]
<no-speech>
[461.185]
<no-speech>
[465.005]
na qala hatina xwe nakin nayêne gund
[468.575]
<no-speech>
[477.475]
<int> he
[478.945]
<no-speech>
[482.745]
başqa bêje tiştekê dibêjî zarok
[485.955]
<no-speech>
[487.795]
<no-speech>
[488.145]
<no-speech>
[490.045]
ha
[490.655]
<no-speech>
[495.925]
bêje heya kontur hebû telefon bi xwe bê girtin zaten bi xwe bê girtin
[499.845]
<no-speech>
[501.555]
min got heya telefon bi xwe qapat bû niha bê girtin xwe ra deh deqa wê xilas
[506.815]
<no-speech>
[509.595]
<no-speech>
[509.945]
<no-speech>
[512.925]
min got wê telefon bi xwe tê girtin heya deh deqe em ê xeber bidin lo
[516.115]
<no-speech>
[520.855]
ha
[521.505]
<no-speech>
[530.735]
he de hûn çawa rihet in
[533.455]
<no-speech>
[534.975]
<int> ha he
[540.075]
<no-speech>
[542.115]
baş in tu sax bi hemû baş in rihet in ê
[544.615]
<no-speech>
[551.645]
dengê min hebekê kêm kêm tê deng dengê me ji hev seh nabî
[554.965]
<no-speech>
[562.125]
weleh min ji te ra got em ser bigerin he
[565.265]
<no-speech>
[566.285]
temam (()) ez ê jê ra telefonê vekim bêm (())
[569.185]
<no-speech>
[570.865]
hemû baş in sax bi rihet in
[572.705]
<no-speech>
[574.815]
min got zarokê we çilo ni- îcar
[576.735]
<no-speech>
[577.995]
he
[578.885]
<no-speech>
[580.165]
he
[581.015]
<no-speech>
[582.635]
he ez mal im he
[583.985]
<no-speech>
[586.295]
min got ez li li malê me li li malê me
[588.025]
<no-speech>
[589.255]
ê
[589.985]
<no-speech>
[598.315]
baş im tu sax bi Xwedê ji te
[599.920]
