[0.000]
<no-speech>
[10.429]
<no-speech>
[20.858]
<no-speech>
[31.287]
<no-speech>
[41.716]
<no-speech>
[52.145]
elo
[52.845]
<no-speech>
[57.185]
merheba ser çawa
[58.735]
<no-speech>
[62.895]
sax bi gelek sax bi tu çawan î baş î
[65.305]
<no-speech>
[73.915]
weleh baş e elhemdûlîlah hema tu baş bi selamet bi rewşa te çawa ye
[78.675]
<no-speech>
[86.735]
na tu pirsgirêk çi nînin baş ev ê gavê hema qetîn in
[91.485]
<no-speech>
[92.495]
<hes> dirûma te çawa ye
[94.685]
<no-speech>
[105.765]
yaw ez herdem te digerim min got ez te gelê rihetsiz nekim min got belkî tu rihetsiz dibî ew a dibe tu ji bo yê çandê min got ez te gelek <hes>
[116.225]
ne aciz kim
[118.895]
<no-speech>
[120.525]
yoqsa herdem herdem tu aqilê min de yî
[124.425]
<no-speech>
[130.580]
<no-speech>
[136.735]
Xwedê jiyana min baş ev ê gavê hema ji bo yê herdem çawa be wa çi (()) me çênebûn ne îş
[147.355]
<no-speech>
[149.515]
he weleh
[150.435]
<no-speech>
[153.405]
<hes> bi Xwedê carina vala diçin
[155.805]
<no-speech>
[156.725]
heke ez aciz bim canê min aciz bû ez diçim (()) naverokê
[162.295]
<no-speech>
[165.495]
erê weleh tu
[166.595]
<no-speech>
[168.085]
na weleh Meletî dewam e hêj
[170.115]
<no-speech>
[177.285]
<click> digot malbat baş e hev ê gavê çi pirsgirêk nînin (()) belê diaxivin xeber didin
[184.645]
<no-speech>
[185.885]
qe dirûma bavê te çawa ye
[187.805]
<no-speech>
[193.920]
<no-speech>
[200.035]
ê baş e baş e Xwedê Teala herdem selametiyê bide te
[203.395]
<no-speech>
[205.225]
Xwedê bavo vê gavê baş e tedawiya wî dewam dikevê gavê baş e hema bêjî înşelah bê îzina Xwedê
[213.305]
<no-speech>
[214.615]
ka bê çawa bêtin Xwedê zanibî <int>
[217.435]
<no-speech>
[220.035]
he
[220.595]
<no-speech>
[221.555]
amîn ji bo yê hemû misilmanan
[223.595]
<no-speech>
[231.355]
erê weleh ew heyvekê mehekê ma li ber min piştê dîn çû <hes> Colemêrgê
[239.285]
<no-speech>
[240.225]
Colemêrgê de kete vê sinavê
[243.075]
<no-speech>
[245.065]
erê Xwedê
[246.055]
<no-speech>
[248.395]
ba weleh ne borî çil û şeş çêkirin
[253.295]
<no-speech>
[254.205]
he
[254.945]
<no-speech>
[258.855]
he salek gelekan zehmet bû yanî bê hesab zehmet bû
[263.015]
<no-speech>
[266.585]
erê Xwedê
[267.635]
<no-speech>
[272.625]
Xwedê belkî ez vê heftê dibe ez vê heftê biçime Colemêrgê deh rojeka di bimînim he nizanim Xwedê kut- belê vê gavê wext be îcar nizanim
[283.095]
<no-speech>
[288.155]
erê Xwe-
[288.715]
<no-speech>
[291.115]
<hes> xilas bûye maye vîze
[294.465]
<no-speech>
[299.935]
he he dibe xilas bûn
[301.745]
<no-speech>
[303.935]
erê weleh
[304.945]
<no-speech>
[313.775]
erê weleh
[314.815]
<no-speech>
[318.345]
<no-speech>
[318.705]
<no-speech>
[320.725]
di Xwedê hewa wan qet nedaye (()) min nexweş bû yanî <hes> (()) ew a (()) hema min got bila (())
[332.625]
çi tişt bîne ez ê buyuk ihtimal vê derê du sê dersa min bimîne tê de çunkî min hêland min qet <hes> (()) ketin yanî <hes>
[344.315]
hema min jî Xwedê hêla hema ket bila we de bê
[347.835]
<no-speech>
[350.725]
erê Xwedê
[351.515]
<no-speech>
[359.635]
<no-speech>
[363.275]
<no-speech>
[364.315]
he
[364.865]
<no-speech>
[368.125]
Lezgîn
[368.895]
<no-speech>
[376.435]
abê ez <hes> <int>
[378.625]
<no-speech>
[380.555]
<int> yanî ez ev a çik ders na çi tişt aqilê min (()) min hema hemû tiştê bîr bîne yaw
[387.095]
<no-speech>
[390.025]
erê weleh
[390.745]
<no-speech>
[393.195]
yaw hema ew di kêf kêfa xwe bîne (()) ew a min çendîn e ne (()) dikene heşt (()) heyatê me hemû tişt tê dane yaw
[403.825]
<no-speech>
[405.445]
he
[405.945]
<no-speech>
[411.185]
na na hez ji gorevê jî nakim na weleh hez ji ez hez ji gorevê jî nakim
[416.445]
<no-speech>
[418.055]
bê me te hema heyata boşvêrmîş kir bê hêla we
[420.895]
<no-speech>
[421.855]
he erê
[423.475]
<no-speech>
[428.035]
ha
[428.645]
<no-speech>
[430.365]
he
[431.005]
<no-speech>
[432.675]
he he têt
[433.635]
<no-speech>
[443.375]
dengê te nehat vê gavê
[444.965]
<no-speech>
[447.785]
elo
[448.545]
<no-speech>
[449.475]
aha vê gavê têt he
[451.055]
<no-speech>
[452.395]
he
[452.945]
<no-speech>
[454.495]
he he têt vê gavê
[455.805]
<no-speech>
[457.825]
erê weleh îşte erê Xwedê lê mekteba te çawa derbas bû
[461.965]
<no-speech>
[470.848]
<no-speech>
[479.732]
<no-speech>
[488.615]
heyat e ya te xweş e ya min hefteyekê berê sinava bişixulin
[494.195]
<no-speech>
[495.705]
he
[496.125]
<no-speech>
[503.245]
erê ew ya me ya me ez nizanim son kez ê tîpê dixwîne son kez ê îlahiyatê dixwînin (()) yaw
[511.705]
<no-speech>
[519.275]
he em jî nav- îlahiyatê de
[520.995]
<no-speech>
[529.415]
ha
[530.015]
<no-speech>
[532.295]
çi tişt
[532.875]
<no-speech>
[539.175]
he
[539.805]
<no-speech>
[541.185]
he
[541.735]
<no-speech>
[549.325]
heya dêmek kî mehê nehatiye normalde boluma we ew tiştê eyb e bolum boluma me tenê çi negot min jî sual kir vê heye ma got boluma hertişt çû nîne vê gavê nizanim
[561.205]
temam (()) te
[561.975]
<no-speech>
[564.165]
erê Xwedê
[565.025]
<no-speech>
[571.090]
<no-speech>
[577.155]
<hes> Xwedê heke ba we hatibî bo me jî bê yaw yê itibar
[583.595]
<no-speech>
[586.425]
he
[586.905]
<no-speech>
[587.400]
