[0.000]
<no-speech>
[6.685]
elo <no-speech> min got
[8.645]
<no-speech>
[9.685]
em çûn <no-speech> em çûn serê vê em dîsa hatin em çûn (()) me sûretê tişt xwar û em hatin dara em çûn du me fatîhe xwend <no-speech> me
[20.775]
me behîv mehîn ji xwe ra çandin va em hatin em di erebê dane em tên <no-speech> serê vê weleh xweş bû <no-speech> me me sûret girtin me ava wir vexwar milet hebûn
[31.545]
me li wir çayê em rûniştin me çayê ji vexwar
[34.985]
<no-speech>
[36.125]
wa em li hatine ser cadê tekerê <no-speech> tekerê erebê (()) em dadigrin
[41.775]
<no-speech>
[43.485]
he
[44.125]
<no-speech>
[45.345]
ha he
[46.685]
<no-speech>
[48.155]
tiştekê nakim tu çawa yî
[49.565]
<no-speech>
[51.005]
baş im
[51.805]
<no-speech>
[53.995]
hûn li kî ne ne <no-speech> ew kî li wir e
[56.285]
<no-speech>
[57.145]
he <no-speech> ew kî li wir e
[59.485]
<no-speech>
[61.795]
he
[62.425]
<no-speech>
[64.655]
hûn çi dikin
[65.595]
<no-speech>
[67.115]
min got em çûn serê vê serê vê
[69.395]
<no-speech>
[71.625]
em çûn serê vê em çûn serê vê
[74.505]
<no-speech>
[75.675]
xweş bû erê erê me sûret girtin erê em rûniştin me çay vexwar ez va erê em hatin ev cil ser me datîne me fatîhe xwend me ji xwe ra bahîvên
[87.185]
çinîn vexwarin
[88.345]
<no-speech>
[90.575]
behîvê wan xweş bûn <no-speech> erê
[92.695]
<no-speech>
[94.035]
va weleh va em nû ketin erebê de em tên em li ser cadê ne
[98.545]
<no-speech>
[100.255]
ah
[100.905]
<no-speech>
[103.815]
ê temam
[104.635]
<no-speech>
[105.545]
ha
[106.135]
<no-speech>
[108.745]
temam wextê (()) kengê çû
[110.795]
<no-speech>
[112.635]
ha
[113.225]
<no-speech>
[117.305]
ma çima me wî nedît
[118.655]
<no-speech>
[120.515]
çima me tu wî nedît me wîna nedît
[122.655]
<no-speech>
[124.875]
ha
[125.395]
<no-speech>
[129.005]
<int> ma hûn li ku ne
[131.095]
<no-speech>
[132.105]
he
[132.775]
<no-speech>
[136.565]
hûn halê ne
[137.605]
<no-speech>
[139.455]
ê va (()) tûrê bavên
[141.725]
<no-speech>
[143.665]
ê va em ji va em ji hindik man ku em bisekinin
[146.575]
<no-speech>
[148.525]
va wexta em ji werin
[149.855]
<no-speech>
[151.615]
erê nan bi cehin
[153.035]
<no-speech>
[155.155]
ha
[155.865]
<no-speech>
[156.765]
<breath> diya min çawan e
[158.375]
<no-speech>
[160.855]
ê
[161.605]
<no-speech>
[165.755]
erê weleh xweş bû milet hebû
[167.585]
<no-speech>
[169.075]
me ava wê vexwar wê cemidî he hebû
[172.585]
<no-speech>
[174.455]
me ava wê vexwar wek qeşê bû erê <no-speech> erê lehdê wan ney em girtî ne
[179.395]
<no-speech>
[181.765]
em navê- <no-speech> em navên girtî ne ez û Birhan niha me me çi kir me erebe şûşt û em çûn
[188.825]
<no-speech>
[190.275]
<int> he <no-speech> ma hûn nayên nayên serê vê
[194.035]
<no-speech>
[196.865]
ha
[197.385]
<no-speech>
[198.805]
min got hûn niha nayên serê vê hûn
[200.745]
<no-speech>
[203.045]
ê
[203.855]
<no-speech>
[206.045]
weleh hineke dinê tên
[207.205]
<no-speech>
[208.525]
min got bila hinekî dinê dinya xweş bibe em ji nû herin <no-speech> ji bû ku meriv têkeve vê de
[214.355]
<no-speech>
[216.825]
erê
[217.535]
<no-speech>
[220.745]
ma xilas nebû
[222.035]
<no-speech>
[224.175]
<int> (())
[226.205]
<no-speech>
[228.785]
ha
[229.355]
<no-speech>
[230.735]
ez vê te re nim-
[231.805]
<no-speech>
[233.715]
va ye va ye em ketin erebê da em ê werin
[236.115]
<no-speech>
[238.915]
ha
[239.355]
<no-speech>
[240.675]
em ji erebê de ne va ye em tên
[242.495]
<no-speech>
[244.545]
erê
[245.275]
<no-speech>
[247.585]
ha
[248.265]
<no-speech>
[252.775]
na milet hebû weleh
[254.725]
<no-speech>
[256.285]
e xel- diketin vê
[258.355]
<no-speech>
[259.975]
ha
[260.625]
<no-speech>
[263.225]
na na
[264.205]
<no-speech>
[266.395]
<no-speech>
[268.355]
<no-speech>
[270.345]
<no-speech>
[270.715]
<no-speech>
[272.505]
na na ez (()) niha ne zemanê min e
[275.405]
<no-speech>
[277.915]
ma (())
[278.895]
<no-speech>
[280.435]
masî
[281.315]
<no-speech>
[283.365]
ha
[283.975]
<no-speech>
[285.485]
va va em ji nav wir derketin lawo <no-speech> min got em ji nav wir derketin
[290.125]
<no-speech>
[291.345]
erê va va hatin em biçine Nisêbînê
[293.765]
<no-speech>
[295.685]
<breath> me ji xwe ra neanî
[297.345]
<no-speech>
[300.355]
ha
[300.995]
<no-speech>
[303.165]
ka Ferîd çi dike
[304.445]
<no-speech>
[307.365]
elo
[308.085]
<no-speech>
[310.745]
camêr me te he
[312.415]
<no-speech>
[314.795]
ha
[315.455]
<no-speech>
[317.765]
(())
[319.095]
<no-speech>
[320.725]
normal here têkeve otobusê
[322.755]
<no-speech>
[324.565]
(())
[325.725]
<no-speech>
[328.185]
baş be
[329.005]
<no-speech>
[331.695]
va ez ji xwe ra bigerim
[333.075]
<no-speech>
[335.115]
hûn ca (()) ku niha
[336.415]
<no-speech>
[338.225]
min got hûn diherine ku hûn ca herine ku
[341.135]
<no-speech>
[342.395]
<no-speech>
[342.745]
<no-speech>
[347.155]
he hûn çûne heta wir
[348.745]
<no-speech>
[351.105]
baş e baş
[351.985]
<no-speech>
[355.465]
erê baş e <int> ma
[357.345]
<no-speech>
[358.245]
baş e
[359.295]
<no-speech>
[360.585]
baş e baş
[361.515]
<no-speech>
[363.475]
ha
[364.115]
<no-speech>
[368.565]
saxtir be <no-speech> ha
[370.845]
<no-speech>
[375.685]
ez ji ku zanim
[376.635]
<no-speech>
[377.645]
ha
[378.285]
<no-speech>
[383.315]
ma ma ez ji ku zanim tu li ku bûyî ma
[385.245]
<no-speech>
[386.675]
ha
[387.245]
<no-speech>
[392.985]
<no-speech>
[393.715]
<no-speech>
[394.855]
tu hatibana tu çima nehat
[396.505]
<no-speech>
[399.745]
tu hatiba te got <no-speech> te got (()) wir te em ê te bigerînin
[404.035]
<no-speech>
[405.965]
negot çi
[406.925]
<no-speech>
[408.285]
ma apê min Şêrîn te ne dibir
[409.785]
<no-speech>
[411.005]
ha
[411.655]
<no-speech>
[414.045]
te bir <no-speech> hûn çûn ku
[416.125]
<no-speech>
[418.195]
hûn çûn ku
[419.285]
<no-speech>
[421.735]
na na hûn û apê min Şêrîn wextê hûn geriyan hûn çûn ku
[424.445]
<no-speech>
[426.725]
ê
[427.335]
<no-speech>
[431.595]
min got wextê hûn û apê min Şêrîn geriyan hûn çûn ku der
[434.265]
<no-speech>
[436.535]
ha
[437.155]
<no-speech>
[440.105]
<int> dengê min nayê te
[441.985]
<no-speech>
[444.215]
elo <no-speech> he
[446.185]
<no-speech>
[449.295]
ez diştexilim
[450.445]
<no-speech>
[452.135]
he
[452.845]
<no-speech>
[458.455]
çilo
[459.225]
<no-speech>
[461.255]
ma ji bû çi hûn diştexilin nakin
[463.455]
<no-speech>
[465.395]
ha
[465.995]
<no-speech>
[469.975]
te got em diçine ku
[471.275]
<no-speech>
[475.565]
va em em li ser cadê ne a mezin
[477.885]
<no-speech>
[479.885]
<breath> em li ser cade mezin in
[481.625]
<no-speech>
[483.825]
ha
[484.425]
<no-speech>
[486.885]
çima di vê çi
[488.015]
<no-speech>
[494.025]
ma te her (()) di
[495.545]
<no-speech>
[498.075]
te bêriya wî kiriye te bêriya apê min Şêrîn kiriye
[501.245]
<no-speech>
[503.555]
ma te çi zû bêriyê kir ma ma doh doh na pêr ma te çi zû bêriyê kir
[507.275]
<no-speech>
[507.800]
