[0.0]
<no-speech> 嗯 <no-speech>
[5.99]
啱 啦 咁 就 得 啦 <no-speech> 而家 我 要 倾 攞 就 录 攞 音 㗎 啦
[10.35]
你 而家 睇 攞 第 几 台 <no-speech> 啱 啦 啱 啦 你 而家 照 倾计 得 㗎 啦 <no-speech>
[18.86]
系 啊 <no-speech> 你 而家 睇 第四 台 果 只 果 只 嘅 咩野 咩野 片 啊 <no-speech>
[24.93]
吓 <no-speech> 珠江 频道 二十九 台 啊 <no-speech>
[31.61]
廿- <no-speech> 廿九 台 <no-speech> 珠江 台 系 廿九 台 咩 我 呢 几 日 唔 睇 廿九 台 <no-speech>
[39.85]
五十九 <no-speech> 你 录 五十九 咩 冇- 家里 有 个 (()) <no-speech> 你 睇 咁 多 啲 婚外情 <click> <no-speech>
[50.86]
<laugh> 系 啦 你 睇 咁 多 婚外情 <no-speech> 而家 有 啊 好 搞笑 啊 唔 系 婚外情 果啲 咩
[59.86]
阿强 冇 落嚟 陪 你 睇 啊 <no-speech>
[63.73]
吓 阿强 冇 落 你- 咩- <no-speech>
[67.71]
系 咩 <no-speech> 系 咩 <no-speech>
[74.42]
(()) <no-speech>
[80.48]
落嚟 啊 <no-speech>
[88.83]
畀 几多 集 啊 果 只 野 啊 <no-speech> 你 等 等 (()) <no-speech>
[95.85]
哦 佢 讲 啲 乜 廿九 集 啊 而家 <no-speech> 哦 我 记得 啦 果 条 女 好 奸 果 只
[103.57]
佢 临尾 <no-speech> 临尾 临尾 好 凄凉 嘅
[107.74]
几 只 几 啊 <no-speech>
[115.28]
有 老师 家访 你 都 烦 <no-speech> 你 细路仔 <no-speech>
[121.92]
咁 爽 咁 你 啱先 咪 <no-speech> 你 去 <no-speech>
[125.53]
<hes> 咩野 你 个 老师 睇 呢 个 电视 咪 好 闷 老师 啊 <no-speech>
[133.08]
系 有- 你- <no-speech> 咩 当时候 我 几时 话 过 我 呢 个 家访 都 冇 嚟到 <no-speech>
[139.14]
佢 嚟 话 话 嚟 我 呢度 家访 冇 左 家访 做 吓 就 唔 知 我 果 日 等 攞 九 点钟 等 唔 到
[147.51]
正常 㗎 啦 <no-speech> 话知 佢 啦 明年 都 读书 㗎 啦 你 细路仔 理得 咁 多 <no-speech>
[155.18]
<no-speech>
[160.45]
<no-speech> 系 <no-speech> 呢 个 傻妹 <no-speech>
[167.74]
呢 个 傻妹 <no-speech> <laugh> 临尾 好似 升- <no-speech>
[172.88]
系 啊 好似 临尾 啊 临尾 临尾 佢 <no-speech> 就 返 <no-speech> 啊
[178.37]
<no-speech>
[184.68]
你 <no-speech> 你- 你 你 睇 过 全部 啦 咩 呢 集 啊 <no-speech>
[189.27]
<no-speech>
[193.98]
屌 呢 个 傻妹 哼 都 其实 都 傻 唔 嗮 嘅 <no-speech> 系 咩 呢 个 傻妹 傻 唔 嗮 嘅 <no-speech>
[202.25]
佢 都 唔 知 几 醒目 啊 有时候 啊 <no-speech> 知道 知道 临尾 好似 发现 到 果 只 即系 女人 奸 奸情 <no-speech>
[211.25]
不过 好似 最后 都 好似 <no-speech>
[215.05]
系 啊 <no-speech> 好似 最后 好似 都 个 个 女仔 去死 左 系 嘛 肚痛 果 只 啊
[220.92]
冇 死 到 左 啊 唔 记得 左 啦 果阵时候 睇 左 <no-speech> 咪 系 咯 <no-speech> 即系 而家 得势-
[229.14]
得 <no-speech> 就 系 得势 之后 就 先 至 咁 快 有 㗎 <no-speech> 啊
[234.75]
我 唔 知 啊 好似 系 香港 演员 嚟 㗎 嘛 <no-speech>
[238.25]
香港 演员 过去 拍 㗎 系 嘛 <no-speech>
[245.14]
<int> 你 可以 申请 喺 边度 边度 㗎 嘛 果啲 就 <no-speech> 系 咪 先
[250.37]
你 申请 去 学校 学校 都- <no-speech> 你 睇 你 自己 申请-
[257.44]
你 填 个 表 果度 申请 边度 边度 咯 <no-speech> 哦 <no-speech> 系 啊
[263.75]
而家 仲有 冇 去 睇 啊 <no-speech> 阿强 啊 <no-speech> 而家 咁- 而家 开始 唱歌 啦 喔 <no-speech> 仲 仲有 冇 第二 集 㗎 啦 <no-speech>
[273.67]
咁 快 (()) 嘅 啦 <no-speech> 咁 几时 放 大结局 啊 <no-speech>
[279.8]
你 咪 话 几时 要 大结局 啊 <no-speech> 差唔多 大结局
[285.52]
廿九 <no-speech>
[289.38]
畀 佢 星期六 <no-speech>
[293.25]
佢 星期六 日 要 放 㗎 咩 <no-speech> (())
[299.82]
几多 点 开始 放 㗎 呢 个 <no-speech>
[304.42]
七 点 几 开始 放 㗎 <no-speech> 吓 <no-speech>
[309.0]
七 点 几 开始 放 <no-speech> 哦 <no-speech> 放 两 个 钟 <no-speech>
[317.62]
第 二 日 好 (()) <no-speech> 喺 屋企 啊 唔 喺 屋企 做 咩 啊 睇 电视 唔 喺 屋企 啊
[325.21]
系 啊 <no-speech>
[329.67]
哦 (()) <no-speech> (())
[336.2]
仲有 咩 片 <no-speech> 爱情连连看 <no-speech>
[342.09]
你 睇 <no-speech> 回家的诱惑 同埋 果 只 咩 咩 咩
[346.06]
咩 咩 仲有 一 只 啊 <no-speech> 仲有 只 咩野 仲 仲 过瘾 啦 有 只 啊 叫做 咩 啊 个 女人 勾心斗角 有啲
[353.35]
有 只 啊 佢 三奶 四奶 果 只 呢 <no-speech>
[361.97]
<no-speech>
[365.71]
果 只 唔 系 温柔的背后 咩 <no-speech>
[369.64]
咪 果 只 温柔的背后 仲 好睇 咩 温柔的背后 啊 <no-speech> 系 咩 <no-speech>
[377.42]
温柔的背后 我 唔 记得 噜 <no-speech>
[380.42]
我 睇 啲 冇 睇 啲 嘅 <no-speech> 所以 好 难 讲 啊
[384.01]
<no-speech>
[389.01]
<no-speech>
[396.47]
睇 睇 下 啊 就 干脆 到 网 果度 睇
[399.84]
我 网上 睇 够 够 方便 你 电视 睇 就 睇唔到 <no-speech>
[407.69]
<no-speech>
[411.58]
咁 快 <no-speech>
[419.24]
深圳卫视台 一样 搞笑 啫 佢 啊 <no-speech>
[424.65]
哎呀 我 而家 睇 睇 下 钟意 睇 新闻 多 过 睇 啲 电视剧 啊 追 得 好 辛苦 啊
[430.4]
<no-speech>
[434.17]
(()) 一 次 过 一 唔 系 睇 果啲 电影 (()) <no-speech>
[440.44]
咩 啊 <no-speech>
[448.89]
下 个 月 睇 咩 <no-speech> 吓 <no-speech>
[456.48]
女成凤 <no-speech> 咩 女成凤
[460.66]
系 咩 又 系 战斗 片 嚟 㗎 <no-speech>
[467.3]
你 睇 咁 多 啲 爱情片 咩 意思 <no-speech> 系 啊
[474.12]
睇 啲 睇 啲 呢啲 武打 片 啊
[477.37]
好 啊 <no-speech> 速战速决 啊 <no-speech>
[481.64]
噓 而家 都 冇 啲 功夫少林 啊 之类 果啲 啊
[485.0]
睇 番 功夫少林 好 啊 <no-speech> 呢边 有 啊 有 啊
[490.62]
好似 冇 得 出去 诱惑 啊 <no-speech> 好似 冇 得 出去 滚 <no-speech>
[497.83]
我 系 睇 得 多 啲 爱情片 <no-speech> 系 咩 <no-speech>
[506.54]
系 <no-speech>
[513.39]
(()) <no-speech> (())
[518.96]
佢 又 唔 识 电视 讲 果啲 野 佢 讲 有 咩 用 啫 等 佢 大 啲 又 唔 同 系 咪 先 <no-speech>
[525.41]
咪 系 咯 <no-speech> 见识 个 电视 <int> 果啲 剧情 先 得 㗎 嘛 <no-speech>
[532.07]
唔 系 <no-speech>
[539.52]
(()) <no-speech> 啊 <no-speech>
[546.37]
就 湖南 卫视 竞争 <no-speech>
[551.88]
<no-speech>
[556.71]
深圳 卫视 啲 野 都 好睇 啊 温柔的背后 你 都 唔 睇 呢 只 温柔背后
[562.41]
<no-speech>
[565.91]
深圳 卫视 台 啊 第十六 集 啊 <no-speech>
[572.33]
青春 乜野 啊 唔 系唔系 温柔背后 青春
[575.57]
更年期 啊 <no-speech> <laugh> 青春 更年期
[579.77]
唔 系 温柔背后 系 啊 <no-speech> 即系-
[586.18]
飞越 青春 更年期 <no-speech> 系 啊
[589.49]
呢只 一样 搞笑 啦 <no-speech>
[593.18]
系 咪 啊 <no-speech>
[600.12]
