[0.0]
<no-speech>
[6.19]
<foreign> <no-speech> <foreign> <no-speech>
[14.59]
喂 <no-speech> 听 到 吧 <no-speech>
[20.75]
<foreign> <foreign> <foreign>
[23.76]
<foreign> <no-speech> 吓 听到 吧 你 做 乜 讲 咁 多 次 啫
[32.75]
吓 <no-speech> (())
[41.68]
<no-speech> (())
[47.29]
吓 <no-speech>
[51.23]
(()) <no-speech> (())
[58.58]
<foreign> (()) <no-speech>
[67.53]
(()) <no-speech> (()) <no-speech>
[75.54]
(()) <no-speech> (()) <no-speech>
[82.95]
吓 <no-speech>
[86.62]
(()) 你 真系 好 笑 啊 你 <no-speech>
[92.74]
<laugh> (()) <no-speech>
[95.84]
吓 <no-speech> 乜 你 咁 细声 嘅 你 听 我 唔 系 咁 细声 㗎 <no-speech>
[104.36]
喂 <no-speech> 喂 <no-speech> 嗯 <no-speech>
[111.34]
听到 <no-speech> (()) 好似 上次 咁 又 是
[119.99]
(()) <no-speech>
[124.88]
唔 系 寻晚 果 批 (()) 喔 <no-speech>
[129.63]
冇 拆 机 㗎 喔 <no-speech>
[137.87]
哦 上次 都 唔 系 咁 㗎 上次 都 系 跌 左 后 即刻 冇 事 唔 会 即刻 表现 出来 架 呢啲 问题
[146.21]
<no-speech>
[152.3]
<no-speech>
[157.42]
吓 <no-speech>
[164.68]
吓 <no-speech>
[172.27]
唔 系 啊 <no-speech> 唔 系 啊 <no-speech> 听到 啊 听到 啊
[181.0]
吓 <no-speech> 吓 <no-speech>
[188.89]
<foreign> <no-speech> <foreign> <no-speech>
[193.56]
<foreign> <no-speech>
[201.62]
喂 <no-speech>
[209.43]
<no-speech>
[218.4]
<no-speech>
[227.4]
喂 <no-speech>
[231.91]
听到 吧 我 喂 你 又 唔 出声 无 唔 出声
[240.74]
我 唔 系 听唔到 啊 <no-speech>
[245.53]
唔 知 做 乜 听唔到 啊 (()) <no-speech>
[252.04]
我 <no-speech> 梗系 睇 猛料 啦 <no-speech>
[257.75]
都 话 睇 猛料 咯
[261.67]
<laugh> 你 讲 我 知 啊 <no-speech>
[269.08]
睇 嗮 <no-speech>
[273.21]
睇 嗮 啦 吧 <no-speech>
[278.75]
两 柜 咁 大把 咋 边 有 最 大
[283.02]
<no-speech>
[288.3]
只 柜 得 六十 㗎 大佬 <no-speech>
[295.44]
<no-speech>
[302.18]
好 <no-speech>
[308.99]
嗯 唔 知 啊 <no-speech>
[317.23]
嗯 <no-speech>
[322.27]
(()) <no-speech>
[331.08]
稳 啊 有 喔 <no-speech>
[339.39]
(()) 本身 有 个 大佬 <no-speech>
[346.53]
普通 人 啊 <no-speech> 普通 城市人 啊 好唔好 <no-speech>
[354.22]
咁 去 偷 就 有 㗎 啦 <no-speech> (()) <no-speech>
[361.58]
(()) <no-speech>
[369.81]
唉 好 多 真系 冇 事 啊 你 点 样 跌 啊 你 砰 一 声 落 啊 地
[377.62]
<no-speech>
[382.95]
<no-speech>
[389.9]
喂 <no-speech> 唔 知 喔 <no-speech>
[394.46]
系 咯 应该 系 咯 <no-speech> 唔 系 咁 点 啊 <no-speech>
[399.9]
你 你 你 个 面 落地 定系 个底 落地 啊 <no-speech>
[404.9]
要 系 个 面 落地 啊 个 底 落地 啊 <no-speech>
[411.72]
唉 你 讲 畀 我 知 啦 <no-speech>
[415.16]
好 关心 嘅 喔 <no-speech> 唉 <no-speech>
[424.16]
唔 系 自己 嘅 始终 都 关心 啲 嘅
[427.53]
唉 冇 轻轻 地 系 (()) <no-speech>
[431.52]
<no-speech>
[438.71]
okay okay <no-speech> 即系 (()) <no-speech>
[445.47]
唔 系 话 唔 得 啦 嗯
[449.41]
咩
[457.89]
<no-speech>
[462.0]
唉 咁 系 上面 几时 有 两 次 㗎 <no-speech> 嗯
[478.59]
(()) <breath>
[484.2]
整 烂 无 架 哇
[490.52]
<hes> 哎呀 烂 左 你 都 唔 知 啦 沊 落地 好似 佢地 话斋
[497.14]
(()) <no-speech> 用用下 用唔到 咪 赖 而家 买 过 部 几 耐 啊 <no-speech>
[504.13]
吓 形容 下 去 (()) <no-speech>
[510.72]
有 內伤 㗎 大佬 <no-speech>
[518.8]
哎呀 (())
[524.64]
<no-speech>
[530.0]
<no-speech>
[536.08]
嗯 我 部 电话 打唔到 就 癫 <no-speech> 电话 打唔到 就 癫 咯 真系
[543.48]
嗯 <no-speech> 嗯 我 电话 神 左 你 仲 (()) 转圈 喔
[551.58]
吓 我 用 野 就 (()) 啦 吓 <laugh> <laugh>
[556.59]
系 啊 换 啦 咁 你
[563.3]
<no-speech>
[570.38]
(())
[575.72]
又 话 我 啊 实 话 我 架
[582.23]
唉 唔 制 <no-speech>
[589.33]
(()) <no-speech>
[597.22]
<no-speech>
[600.38]
