[0.0]
<no-speech>
[8.55]
<no-speech> 喂 <no-speech>
[16.36]
点 啊 <no-speech> 哎呀 做 咩野 啊 训觉 啊 <no-speech>
[21.52]
<cough> <no-speech> 听唔听到 <no-speech>
[26.36]
吓 <no-speech> 听唔听 <no-speech> 听到 啊 <no-speech>
[31.96]
信号 好 差 啊 <no-speech> 嗯 <no-speech>
[37.31]
系 啊 <no-speech>
[41.07]
训觉 啊 眼训 到 閪 咁 啊 <no-speech> 训觉
[48.36]
嗯 <no-speech>
[54.93]
未 啊 <no-speech> 隔篱 果 只 未
[58.36]
好 少 撞到 佢 嘅 <no-speech> 佢 搬走 佢 搬 到 果边 金沙洲 去 住 啦 <no-speech>
[66.4]
吓 <no-speech> 吓 <no-speech>
[72.06]
唔 识 <no-speech> 我 唔 同 佢 好 冇 讲 过 话 呢 <no-speech>
[79.45]
吓 <no-speech> 吓 <no-speech>
[85.33]
咩野 啊 <no-speech>
[91.83]
咩野 啊 <no-speech>
[99.45]
哦 <no-speech>
[102.61]
佢 好 少 返嚟 啊 屌 都 唔 撞到 <no-speech> 嗯 <no-speech>
[108.84]
喂 <no-speech>
[116.65]
几 <no-speech> 几时 <no-speech> 几时 <no-speech>
[123.52]
系 啊 <no-speech> 系 啊 系 啊 <no-speech>
[128.78]
冇 住 一 晚 <no-speech> 嗯 <no-speech>
[134.32]
唔 好 玩 嘅 放假 好 閪 多 人 点 样 玩 啫 <no-speech>
[139.41]
都 唔 好 <no-speech> 去 都 冇 去 到 好 多 人 啊 果时 <no-speech>
[146.11]
(()) <no-speech> 嗯 <no-speech>
[152.64]
咩野 啊 <no-speech> 你 <no-speech>
[157.6]
自 自由行 啊 <no-speech> 自己 行 嘅 自 自由行 <no-speech> 唔 跟 团 <no-speech>
[166.45]
跟 团 就 系 <no-speech> 唔 跟 团 跟 团 自己 (()) 死 嘅 <no-speech>
[175.25]
听 唔 好 清楚 啊 边 (()) 唔 系 好 清楚 <no-speech> 唔 系 好 清楚 反正 <no-speech>
[183.62]
吓 <no-speech> 你 听唔听到 我 听 唔 清楚 啊 <no-speech>
[192.23]
我 反应 有 啲 回音 咁 <no-speech> 嗯 <no-speech>
[195.59]
嗯 <no-speech> 又 要 开车
[201.47]
又 有 车上 啊 <no-speech>
[206.08]
<no-speech>
[213.32]
<no-speech> 哦 <no-speech>
[217.82]
<cough> <no-speech> 咁 唔 过嚟 <no-speech>
[226.55]
<breath> (()) <no-speech>
[231.45]
好 多 野 搞 咩 <no-speech>
[235.15]
嗯 <no-speech>
[240.01]
嗯 <no-speech> 几多 野 搞 你 好 忙 啊 几多 野 <no-speech> (())
[248.7]
吓 <no-speech>
[252.94]
冇 啊 都 喺 广州 啊 出差 个 鬼 么 星期六 星期五 <no-speech>
[256.58]
星期五 喺 东莞 住 <no-speech>
[263.71]
吓 <no-speech> 咩野 啊 <no-speech>
[268.65]
花都 <no-speech>
[271.65]
你 唔 好 野 要 嚟 有 (()) 用 咩 <no-speech>
[276.64]
佢 车费 喺 里面 㗎 车费 <no-speech>
[283.49]
即系 换成 <no-speech>
[287.19]
佢 就 以前 就 喺 度 住 啦 而家 就 唔 好 少 去 嘅 <no-speech>
[292.37]
好 少 去 <no-speech>
[300.13]
(()) 叫 左 两 个 靓女 睇 咯 <no-speech>
[308.2]
吓 <no-speech>
[315.99]
从化 温泉 咯 <no-speech>
[323.55]
几时 啊 几 点 开始 啊 <no-speech>
[328.5]
七 点 几 钟 十一 月份 啊 嘛 <no-speech>
[333.26]
吓 <no-speech> 几时 开始 <no-speech>
[340.8]
(()) <no-speech>
[343.85]
<no-speech>
[351.27]
(()) <no-speech> (())
[356.02]
啊 单反 喺 度 㗎 <no-speech>
[359.12]
影 啲 <foreign> 咯 真系 想 咯 <no-speech> 系 嘛 <no-speech>
[366.86]
同 你 <no-speech> 同 你 一齐 去 到 时候 啊 <no-speech>
[371.71]
买 买 两 张 票 一齐 去 咯 <no-speech>
[375.91]
嗯 <no-speech> 揾 两 张 票 一齐 去 嗯 嗯 <no-speech>
[383.93]
<no-speech>
[389.69]
(()) <no-speech> 要 识 得 先 得 㗎 你 又 唔 识 得 <no-speech>
[397.64]
远 就 唔 远 <cough> <no-speech>
[402.66]
远 就 唔 远 嘅 <no-speech>
[407.77]
我 三 点钟 就 过 天河北 <no-speech>
[414.18]
三 点钟 过 天河 <no-speech>
[417.35]
三 点钟 过 过 天河 果边 <no-speech>
[424.37]
时代广场 嘛 屌 <no-speech>
[431.37]
时间广场 知道 㗎 吧 <no-speech> 嗯 <no-speech>
[439.33]
咩野 啊 <no-speech> (()) <no-speech>
[445.04]
(()) 又 冇 节目 <no-speech>
[450.8]
有 冇 节目 啊 <no-speech>
[454.73]
<cough> <no-speech> (()) <no-speech>
[462.37]
吓 <no-speech>
[469.74]
冇 计 啊 冇 人 帮 我 凑 啊 <no-speech> 我 唔 凑 边个 帮 我 凑 啊 屌 <no-speech>
[478.35]
佢 喺 度 啊 <no-speech> 喺 度 <no-speech>
[486.53]
七 十七 岁 咯 喔 <no-speech>
[491.98]
七 十 岁 啦 <no-speech>
[496.32]
点 知 啊 <no-speech>
[505.18]
<no-speech> 唉 <no-speech>
[511.02]
讲 都 难 讲 呢啲 野 <no-speech>
[516.79]
嗯 <no-speech> 嗯 <no-speech>
[525.7]
七 十七 啊 睇一睇 五 十 零 岁 六十 岁 咁样 样 啫 <no-speech> 系 嘛
[532.24]
<no-speech>
[535.6]
都 唔 做 咁 嘅 野 嘅 身体 就 好 咯 <no-speech>
[538.81]
<no-speech>
[546.5]
(()) 我地 下面 果度 果度 有 个 篮球场 我 都 好 少 玩 <no-speech>
[553.23]
<no-speech>
[560.24]
哎呀 无所事事 边度 有 啲 咁 嘅 场 场所 啊 <no-speech>
[564.13]
唔 钟意 打 <cough> <no-speech>
[568.88]
嗯 <no-speech>
[577.73]
都 有 打 嘅 <no-speech>
[581.78]
即系 好 少 打 啫 <no-speech>
[590.23]
可以 㗎 <no-speech> 我 底下 果度 有 个 篮球场 可以 打 㗎 添 <no-speech>
[599.23]
嗯 <no-speech>
[600.2]
