[0.0]
系 嘛 喂 喂
[4.8]
哦 哦 哦 哦 讲野 哈 喂
[8.91]
哦 继续 讲野
[12.76]
讲野 喔 啊 喔 跟住 呢 请 你 食饭 啦 哈
[21.14]
哦 哦 *介绍* 你 买 份 保险 啦 <no-speech>
[26.42]
*介绍* 你 买 份 保险 啦 好 冇 <no-speech>
[30.9]
嗯 <laugh> 跟住 你 买 份 分红 保险 啦 哈 <no-speech>
[38.88]
喂 咪 二三十万 咯
[44.88]
喂 你- 你- 你 个 农民工 已 交 钱 啦 喂
[52.74]
可能 真系 交 啊 交 啦
[56.46]
哦 咁 咪 好 咯 又 有 新屋 住
[61.99]
哦 执到 筹 你 而家 都 未 定 边间 啊
[69.54]
即- 即系 而家 都 未 定 边间 嘅
[73.85]
哦
[81.09]
哦 哦 哦 咁 多 啊
[87.02]
哦 <no-speech> 咁 多 咁 (()) 反正 都 系 有
[96.02]
反正 都 系 有 系 咁 咯 反正 都 有
[101.61]
<no-speech>
[109.16]
系 哇
[115.95]
哦 哦 我- 我- 我 寻晚 签 左 十一 张 单 喔
[124.5]
喂 听到 未 我 寻晚 签 左 十一 张 单
[131.72]
而家 写到 我 手 都 软 埋
[138.53]
系 啊 系 啊 即系 意外 保险
[143.63]
哈 果 个 咩
[147.46]
果 个 咩
[154.39]
<laugh> 一 份 都 系 二十 蚊
[160.75]
哈 哈
[169.26]
哦 好- 好 少 啫 四 咯 <no-speech> 四 啊
[177.47]
系 啊 四 啊 <sta> 哦
[184.66]
哦
[187.78]
哈 哎哟 电话 留 低 嘅 真系 唔 好 听
[193.15]
呢 个 同 我 调 大声 啲 先 得 <no-speech> 非常 之 唔 好 听
[200.68]
哈
[204.44]
你 而家 讲 大声 啲 就 好 好 听 嘅 了
[212.38]
咁 我 而家 有 冇 着 左 声 啊 有 冇 着 左 声 啊
[219.62]
真系 诈 诈 声 啊 <no-speech> 真系 啊
[223.12]
我 听 你 就 唔 会 喔 我 听 你 个 手机 同 固话 都 好 好 声 喔
[229.43]
<no-speech>
[232.89]
<sta> 哦 都 系
[240.42]
都 系 我 我 听 你 呢 就 固话 同 埋
[244.15]
同埋 尼 个 手机 都 系 好 靓 声音
[250.94]
就 系 你 就 听 过 核突 嘅 声 总之 可能 我 啲 手机 就 冇 咁 靓 啦 <no-speech>
[256.5]
系 啊
[263.53]
系 哦
[269.71]
系 嘛 <no-speech> 几 好 啊 嘛 <no-speech> 听唔听到 我 讲 乜野
[278.56]
反正 你 唔 知 我 讲 物 野 都 咿咿哦哦
[281.76]
哦 落去
[287.97]
哦 <no-speech> 哦 <no-speech>
[295.19]
哦 哦
[301.33]
哦
[305.93]
哦 喂
[313.58]
喂 喂 喂 哈
[319.37]
啊 听到 我 听到 我 系 咪 啊 最 紧要
[326.07]
我 寻晚 啊 头赤 到 鬼 咁 仲 要 寻晚 有 野 做 喔
[335.05]
唉 可以 讲 系 带 病 工作 啊 <no-speech>
[341.32]
我 寻晚 在 街 食饭 咋
[345.51]
哈 我 寻晚 都 系 在 街 上 食饭
[350.64]
哈
[356.55]
哈
[361.69]
寻晚 啊 寻晚 训 就 唔 系 好 野 训
[368.58]
啊
[373.8]
我 去 揾 佢 <no-speech> 嗯
[379.61]
我 系 我 系 寻晚 头赤 咩 头赤 到 不得了 咁 呃
[388.61]
又 要 去 海口 做 野 跟住 返嚟 呢 好 塞 我 嗱嗱声 训 左 觉 十一 点 几
[396.48]
起身 冲凉 系 啊 我 啊 喂
[404.85]
喺 度 听 紧 嘅 系 嘛 喂 喂
[410.55]
哦 哦 <no-speech> 冇 野 啊 就 讲 寻晚 啫 <no-speech>
[417.04]
哈 系
[422.9]
其实 你 度 你 觉得 唔 够 大声 啫 你 讲 好 大声 啊
[431.34]
哦 咁 我 听到 喔 而家 就 系 咪 啊
[436.66]
而家 我 听到 喔 而家 我 听到 喔 而家 依 <prompt>
[445.64]
而家 我 啊 听到 你 讲 物 喔
[451.57]
好 好 听 窝
[455.88]
四 六
[459.62]
哎 <no-speech> 果 个 啊 <no-speech> <cough>
[466.54]
中午 请 我 食饭 呢 喂
[472.79]
喂 中午 请 我 食饭 啊
[478.31]
食 贵 夹 唔 饱 果啲 啊 <no-speech>
[483.57]
话 时 话 几 时 去 食 猪腰 啊
[491.85]
几 时 去 食 猪腰 嘅
[496.77]
吓 礼拜六 啊 <no-speech> 好 <no-speech>
[501.36]
礼拜六 就 礼拜六 咯
[506.41]
礼拜六 都 好 㗎 礼拜六 啊
[514.44]
礼拜六 去 食 猪腰 啊 呵 <no-speech>
[517.83]
哈 喂 唔 知 喔 到 礼拜六 先 知 喔
[526.32]
系 咪 啊 都 要 到 左 礼拜六 先 知 㗎
[530.9]
哈
[534.01]
系 嘛 <sta>
[538.26]
哦 冇 问题 啊 <sta>
[545.25]
就 礼拜六 咯 <no-speech>
[550.75]
礼拜六 嘅 时候 <no-speech>
[554.71]
礼拜六 去 食 猪腰 <no-speech>
[560.68]
礼拜日 去- 去- 去 顺德
[568.66]
系 咪 啊 喂 哦
[573.42]
哦 听到 听 住 喔 唔 好 收线 喔
[577.75]
<laugh> <no-speech> 好 (()) 好 焗 啊
[585.77]
即 佢 可以 买 (()) 可以 买 口服液 买 其他 都 可以 嘅 系 咪 啊
[592.15]
哦 <no-speech> 系 咪 啊 <no-speech> 梗系 啦 (())
[600.12]
