[0.0]
<no-speech> <sta> 哦 哦
[8.8]
做 咩 (()) 喂 系 咯 阿 炳 你 去 左 美国 啊 <no-speech>
[13.6]
啊 你 去 左 美国 啊 系 嘛 <no-speech>
[20.16]
哦 咁样 系 嘛 哦 又 又 办 护照 <click> <no-speech> 哦
[26.02]
真系 㗎 <no-speech> 系咪 啊
[30.27]
哦 <no-speech> 哦 <no-speech>
[36.96]
哦 <no-speech> 哦 <no-speech> 哇 <no-speech> 哇 咁 犀利 啊
[43.04]
咁 我 有 兴趣 我 要 点 样 办理 啊 <no-speech>
[46.17]
啊 <no-speech>
[49.44]
<no-speech>
[57.79]
哦 <no-speech>
[65.29]
<no-speech>
[70.09]
哦 咁样 系 嘛 <int> 哦 <int>
[74.69]
(()) <no-speech> <sta> 我 听日 我 听日 都 唔 返 <no-speech>
[82.18]
阿 肥波 上 个 星期 搂 我 上 上 个 星期 搂 我 睇 睇 车展
[86.4]
我 话 佢 系咪 佢 问 我 系咪 有 车展 我 话 好似 系 啩 去 边度 睇 啊 我 好似 好似 喺 琶洲 系唔系 喺 琶洲 啊
[92.97]
<no-speech>
[99.49]
<no-speech>
[104.15]
嗯 我 都 好 想 去 睇下 (()) 讲 <sta> (()) <sta>
[113.12]
吓 <int> 系 咯 啊 <no-speech>
[119.96]
点解 冇 佢 打电话 畀 我 咯 啊 <no-speech>
[128.96]
<no-speech>
[135.1]
哦 <no-speech>
[140.8]
嗯 <no-speech> 哦 <no-speech>
[148.73]
唏 佢 又 星期 咩 啊 星期 星期五 喔 搞到 我 又 要 请假 <no-speech>
[157.36]
你 啊 <int> 喂 <no-speech>
[163.61]
参观 去 参观 咩 啊 <int> <no-speech>
[169.56]
你 你 走 㗎 啦 咩 咁 快 <sta> <no-speech> <int> 咁 快
[178.35]
唔 系 啊 嘛 (()) <no-speech>
[181.63]
<sta> 哦 咁样 哦 又 要 话 要 参观下 先 咁 啊 <no-speech>
[190.0]
哦 <int> <no-speech> 哦 <int> 咁
[196.72]
喂 点解 要 用 呢 个 呢 个 电话 打 咁 咁 咁 奇怪 嘅 <int> 唔 使 钱 㗎 <sta>
[204.02]
吓 <no-speech>
[212.4]
<int> <no-speech> (()) <no-speech>
[216.69]
啊 <no-speech> 啊 <no-speech>
[221.25]
<hes> 系 啊 不过 有时 可能 你 你 果边 接收 慢 啲 啩 可能 <no-speech>
[229.12]
(()) 你 而家 应 我 就 知 啊 嗯
[233.31]
哇 可以 走到 过嚟 呢 头 漫游 咁 犀利 啊 <no-speech> <int> 啊
[240.86]
哦 <sta> <no-speech>
[245.13]
冇 我 问 佢 上次 喺 个 Q 度 问 佢 (()) 佢 佢 条 女 喺 度 答 我 啊 佢 话 我 不 是 啊 边个 啊 我 唔 系 佢 话
[253.12]
我 老公 出 左 差 啊 咁 讲 <hes> 我 系 (())
[258.94]
(()) <no-speech> (()) <no-speech>
[264.46]
<hes> (()) 有 冇 有 冇 了解 过 阿 龙 有 冇 提 有 冇 提早 畀 啊 畀 左 人情 畀 佢 先 啊
[271.0]
大石 有 冇 畀 人情 佢 先 啦 <no-speech> 屌 我 以为 佢 啲 人 (())
[276.19]
冇 提前 畀 人情 佢 冚家铲 唔 理 我 喔 我 上次 啊 好 耐 之前 我 话
[280.68]
我 话 阿 风 <hes> 几时 几时 喺 广州 摆 啊
[284.76]
又 唔 睬 我 跟住 过 一 段 时间 过 左 几 日 之后 又 见到 佢 上网 又 发 多 条
[289.88]
跟住 啊 <int> 佢 条 女 又 喺 度 答 我 我 老公 出 左 去 啊 乜 乜 乜 未 返 啊 佢 话 <sta> 咁 几时 摆 啊 佢 话 唔 知 啊 要 等 佢 返嚟 先 (()) <no-speech>
[298.8]
<sta> 唔 知 啦 (()) 唉 真系 <int> <no-speech>
[305.02]
(()) <no-speech>
[309.41]
(()) 舅父 唔 系 嬲 左 我 冇 封 人情 畀 佢 啊 嘛 <int> 个 个 都 叫 带 去 冇 我 冇 带 去 咁 <no-speech>
[316.99]
系 啊 如果 系 咁 我 摙 死 佢 啊 我 以后 唔 (()) 㗎 <no-speech>
[325.96]
唉 又 系 呢 样 野 啊 真系 <no-speech>
[334.38]
<hes> 系 啦 唉 (()) <int> 嗯
[339.99]
喂 咁 你 几时 过 澳洲 啊 <no-speech>
[346.62]
咩 啊 <no-speech> 过去 过 一 段 时间 就 返嚟 咁 啦 喔 <int> 啊 <no-speech>
[355.05]
嗯 <no-speech> 即系 去 揾 番 咁 上下 (())
[359.34]
(()) <no-speech>
[367.86]
啊 <int> <no-speech> 哇 (()) 攞要 㗎 喔 <int> <no-speech>
[375.99]
(()) 贵唔贵 啊 <no-speech> 啊 <int> <no-speech>
[384.77]
佢 话 你 你 你 你 你 人地 批唔批 你 出去 啊 <int> 你 公务员 嚟 㗎 喔
[392.36]
(()) <no-speech>
[395.68]
<no-speech>
[402.94]
<no-speech> 哦 <no-speech>
[411.36]
<laugh> <sta> 唔 知 啦 咁 就 麻烦 啦 要 问 清楚 <sta> 嗯 <int>
[419.78]
<no-speech> 啊 <sta> <no-speech>
[424.88]
<sta> 哦 <sta> 哦
[429.62]
系 喔 <no-speech> <sta> 哦 咁 呢 个 我 唔 知 喔 <int>
[438.59]
<sta> 系 咯 咁 閪 麻烦 㗎 冚家铲 过去 香港 都 要 有 人 批 咁 閪 烦 㗎 咩 <no-speech>
[444.83]
<sta> 未 啊 <hes> 我 家下 就 唔 使 啦 家下 我 (()) 唉 冇 办法 <sta>
[451.78]
就 算 人地 果啲 咩 啊 <no-speech>
[455.1]
吓 <no-speech> 咩 你 话 咩 啊 <no-speech> 系 啊 唔 使 㗎
[461.28]
(()) 转 左 证 都 唔 使 啦 <no-speech>
[467.0]
讲 咩 啊 <no-speech> 我 唔 知 喔
[474.0]
我 而家 又 喺 度 等 签 一 签 咋 喔 <no-speech>
[480.93]
果阵时 签 佢 冇 佢 果 个 期 又 未 签 番 而家 <no-speech>
[489.14]
啊 系 咯 <no-speech>
[492.95]
<no-speech>
[498.46]
系 啊 系 啊 <no-speech>
[505.64]
(()) <no-speech> <int> 咁 閪 爽 <no-speech>
[514.4]
你 你 (()) 你 去 喺 澳洲 有 你 喺 澳洲 有 咩 人 识 得 㗎 你 <no-speech>
[521.15]
(()) <no-speech>
[529.83]
啊 <no-speech> 嗯
[535.72]
你 <no-speech> 啊 <int> <no-speech>
[542.32]
系 啊 系 啊 系 啊 你 喺 喺 亚洲 呢 头 果啲 <int> 果啲 细 细 个 果啲 国家 仔 都 系 啦 都 唔 使 㗎 <int>
[549.82]
<int> 去 到 先 签 㗎 咋 <no-speech> <sta> 又 过 越南 <no-speech>
[558.63]
系 啊 (()) <no-speech>
[565.59]
系 啊 妖 你 使到 你 真系 使到 你 话 要 走 都 得 啦 <no-speech>
[572.97]
<no-speech>
[577.16]
嗯 <sta> 系 啊 <int> (())
[581.53]
<int> <no-speech> <laugh> <no-speech>
[589.62]
<int> (()) <no-speech>
[596.24]
啊 <int> <no-speech>
[600.16]
