[0.0]
<no-speech>
[6.37]
喂 <int> <no-speech> 系 听到 听到 <no-speech>
[13.15]
哦 <no-speech> 哦 <no-speech> 几 号 啊 <no-speech>
[20.94]
有 有 有 嗯 (()) 果度 咯
[24.25]
吓 <no-speech> 系 啊 都 系 咁 㗎 啦 佢 果度
[30.61]
系 果度 起码 又便又正 系咪 啊 啦 <no-speech>
[34.81]
系 啊 我 要 都 系 去 果度 都 好 便 㗎 果度 广州市 啊 即系 有 名 啦 果度 酒吧街 系唔系 啊 啦
[42.36]
系咪 嗯 <no-speech> 点 啊 <no-speech>
[47.78]
吓 五月花 系 啊 <no-speech>
[51.17]
系 啊 系 啊 <no-speech> 五月花广场 啊 嘛 系 啊 果度 几 好 㗎 果度 啊 环境 <no-speech>
[56.81]
又 有 啲 粤菜 嘅 特色 系唔系 啊 啦 <hes> <hes> 又 价钱- 嗯 <no-speech>
[63.61]
系 食野 适中 啊 <no-speech> 哦
[71.47]
系 啊 系 啊 <no-speech> 系 啊 几 好 㗎 果度 都 有 果度 都 <no-speech>
[78.13]
果 环境 几 好 㗎 又 冇 冇 果 个 压逼感 系唔系 啊 啦
[82.99]
又 够 好 喔 系唔系 啊 啦 个 楼层 又 (())
[86.36]
系 啊 环境 几 好 又 有 啲 风光明媚 够 光 系 天气 天气 暗暗地 咁 啊 有 啲 情调 咯 系唔系 啊 啦
[93.11]
吓 差 好 远 㗎 果啲 (()) 系唔系 啊 啦
[98.07]
<laugh> 唉 (()) 食饭 都 系 咁 嘅 啦 系唔系 啊 啦 <no-speech> 吓
[105.42]
大个 可能 啊 咩 啦 <hes> 过年 啊 春节 前后 啦 即系 (()) 过年 啦
[112.52]
吓 <no-speech> 一味 行下 啦 <no-speech> 玩 多 两 手 咯 系 嘛 <no-speech> 吓
[119.01]
哇 好彩 好唔好彩 咯 系唔系 啊 啦 <no-speech> 吓 <no-speech>
[125.42]
系 啊 去 搜寻 啦 <no-speech>
[128.99]
<no-speech>
[136.01]
系 啊 果啲 自由行 我 钟意 点 行 点 行 啊 嘛 系咪 啊 系唔系 啊 啦 <hes> 而家 跟团 哩 佢 又 要 带埋 果啲 地方 都 唔 知 啱唔啱 系 嘛
[144.4]
你 知 啦 系咪 佢 冇 果啲 地方 行 啊 唉 自由行 嘅 差 好 远 嘅 行 嘅 地方 我 钟意 点 行 就 点 行 打横打直 都 得
[152.12]
吓 (()) <no-speech> 吓 <no-speech>
[160.06]
哦 果度 果度 系 啊 啲 <no-speech> 系 啊 <no-speech> 系 啊
[164.58]
佢 诶 <hes> (()) 果啲 中心 啊 果啲 地方 果啲 地方 <no-speech>
[168.99]
吓 <no-speech> 啲 中心 果啲 地方 咯 系唔系 啊 啦 差 好 远 <no-speech>
[174.59]
系 啊 系 果 几 日 咯 <no-speech>
[178.64]
好 啊 好 啊 好 啊 好 啊 <no-speech> 系 啊 一系 啊 年底 一系 就 <no-speech> <laugh>
[187.01]
一系 就 年初 啦 系唔系 啊 啦 (()) 系 啊 喺 (()) 咁 啊 嗯 <no-speech>
[196.01]
啊 所以 啊 要 避开 果 个 高峰期 咯 <no-speech> 系咪 啊 啦
[200.41]
尽量 唔 好 选 一头一尾 果度 咯 跟住 拣 去 诶 中间 果度 咯 <no-speech>
[206.45]
系 啊 不过 就 果 个 (()) <no-speech>
[214.25]
系 啊 系 啊 <no-speech> 啊 一 至 五 果时 去 攞 咪 啱 咯 (()) <no-speech>
[220.4]
休 到 <no-speech> 一 至 五 啊 抽 到 一 两 日 得 嘅 <no-speech>
[227.6]
系 啊 <laugh> (()) <no-speech> 系 啊 <no-speech> 系 啊 系 啊 系 啊
[235.7]
过 一 晚 就 <no-speech> 系 啊 系 啊 系 啊
[241.57]
之后 个 时间 好 (()) 咯 <no-speech> 系 啊
[246.69]
时间 逼 返 咯 而家 一 唔 系 就 系咪 啊 啦 两 日 啊 松动 好 多 咯 <no-speech> 行 得 多 啲 咯 地方 又 系咪 啊 啦
[254.29]
吓 <no-speech> 系 啊 松动 啲 咯
[257.91]
果啲 地方 系咪 啊 啦 <no-speech>
[264.27]
<no-speech> 靠 旺角 果边 咯
[270.08]
系 啊 果边 <no-speech> 果边 果啲 多 <hes> 果啲 果啲 地方 旺 啲 嘛
[274.76]
系 啊 购物 啊 或者 乜野 系唔系 啊 啦 相差 好 远 嘅 嘛 系 嘛
[278.57]
果啲 咁 嘅 地方 诶 佢 因为 佢 近郊 近郊 地方 果啲 差啲 冇 咁 好
[284.69]
系 嘛 <laugh> (()) 唉呀 <click> <no-speech>
[293.52]
即系 好似 你 广州 咁 啊 城郊 果啲 咁 嘅 地方 系 嘛 <no-speech> 吓 <no-speech>
[299.51]
啊 <no-speech>
[305.77]
系 啊 所以 <hes> 果 个 渔港 果度 咯 <no-speech> 嗯 (()) 渔港 果度 果度 <hes> 果度 又 贵 啲 㗎 喔
[312.75]
系 嘛 食 海鲜 贵 啲 㗎 喔 <no-speech> 去 果 个 避风塘 果度 便 啲 喔 <no-speech> 避风塘 又 可以 喔 便 啲 喔 听讲 话
[321.65]
吓 <no-speech> 唉 啊 <no-speech> 一系 去 到 果度- 去 到 香港 攞 部 车 开 <no-speech>
[330.06]
系 啊 <no-speech>
[334.62]
系 啊 即系- 即系 好似 啊 蔡兰 又 话 我地 啲 粤菜 啊 点 样 点样 <no-speech>
[338.78]
嗯 <laugh> (()) 又 话 我地 啲 粤菜 <no-speech>
[346.61]
吓 读 <no-speech> 读 果 个 咩 咯 <hes> 高中 咯 <no-speech>
[352.15]
系 啊 <no-speech> 啊 <no-speech>
[356.09]
系 啊 系 啊 系 啊 系 啊 都 系 咁 㗎 啦 <no-speech>
[362.11]
仲有 佢 而家 啊 高- 高一 啊 嘛 仲有 三 年 啦 <no-speech> 三 年 啦
[368.13]
两 年 后 啦 即系 三 年 咯 系 啊 就 毕业 咯 <no-speech>
[372.54]
<no-speech>
[378.14]
有- 有- 有- 有- 有 梗系 要 啦
[381.28]
呢啲 啊 人生 第一 阶段 嚟 嘅 嘛 要 冲刺 嘅 哩 嘛 系 嘛 考验 啊 你 如果 唔 咩野 哩
[388.03]
<sta> 如果 唔 报读 落去 系 啊 <no-speech> 系 啊 如果 唔 报读 落去 唔 得 㗎 你 都 要 加 啲 兴趣班-
[396.63]
系 啊 <laugh> 屌 佢 果啲 冇 计 㗎 啦 畀 钱 人地
[401.73]
吓 畀 人地 赚 嘅 啦 梗系 要 系唔系 啊 啦 <no-speech>
[406.24]
自己 (()) 又 有 限 <laugh> 系 啊
[410.5]
<laugh> <no-speech>
[418.89]
吓 <no-speech> 有 咁 嘛 有啲 啊 填下 果啲 申请 经验 果啲 哩 系 啊 屌 都 要 嘅 啦 都 要 做 边 做 边 读 咯 系 嘛 <no-speech> 系 又 可以 赚下 啲 外快 系 嘛
[431.7]
(()) <no-speech> 系 啊
[435.18]
佢 如果 果啲 <hes> 做下 暑假工 果啲 啊 佢 自己 手- 手机 充值 又 唔 使 我地 出 系唔系 啊 啦 佢 自己 出埋 几 好 呵 得闲 又 锻炼下 佢
[444.07]
壮下胆 啦 等 佢 系唔系 啊 啦 <no-speech>
[451.61]
<no-speech>
[456.65]
系 啊 系 啊 佢 要- 等 佢 学下 野 啫 佢 唔 同 果啲 正式 果啲 合资厂 果啲 (()) 果啲 工
[464.27]
系 嘛 果啲 就 可能 啊 拖欠 公司 走路 添 系 啊 赖帐 果啲 老赖 啊 果啲
[469.74]
呢啲 就 唔 同 啊 呢啲 啊 佢 大 果啲 佢 佢 果啲 大 果啲
[473.97]
果啲 企业 啊 商场 啊 果啲 果 啲 应该 啊 走 唔 甩 鸡 啦 成 个 商场 喺 度 系唔系 啊 啦 你 走 去 边度 啊
[480.95]
吓 <no-speech> 屌 你 啲 锻炼下 都 好 嘅 (()) 系 嘛 <no-speech>
[485.31]
系 啊 你 如果 去 果啲 私人 老细 果啲 啊 屌 哩 走左佬 都 未 知
[489.43]
(()) 果啲 都 唔 啱 佢 做 果啲 佢 都 唔 钟意 嘅 嘛 系咪 呀 啦 <laugh>
[494.95]
<laugh> <no-speech> 果啲 咁 嘅 <no-speech> 私人 老细 果啲 就 唔 同 咯 <no-speech>
[502.56]
<no-speech>
[507.54]
系 啊 <no-speech> 系 啊 咪 等 佢 咪 可以 又 学到 经验 学到野 又 可以 日日 有 钱 又 有 满足感 啦 系唔系 啊 啦 <no-speech> 佢 啊
[519.25]
佢 自信心 等 佢 唉 等 佢 可以 买 嚟 啊 可以 <hes> 自己 可以 用 啦 又 唔 使 我地 系咪 啊 嗱
[526.74]
佢 又 可以 啊 锻炼下 系 嘛 <no-speech> 主要 唔 好 嗯 <no-speech>
[534.82]
啊 都 一般般 啦 中上 度 啦 唉 都 咁 上下 啦 比上不足 比下有余 咯 系咪 呀 啦
[541.99]
系 嘛 <no-speech> 你 你 唔 同 果啲 果啲
[545.63]
(()) 做 到底 果啲 啦 我地 又 唔 系 果啲 垄断 行业 系 嘛 垄断 行业 好 犀利 㗎 系咪
[551.47]
唉 我地 呢啲 一般 啦 过得去 咁 就 系 嘅 啦 吓 <laugh> 唉 啲
[558.49]
即系 而家 咁 啊 啲 物价 又 升 系唔系 啊 啦 <no-speech>
[562.13]
唉 啲 物价 升 样 样 要 样 样 都 要 咩野 嘅 啦 嘛 果啲 公司 又 (()) 有 啲 吓 系咪 我地 呢 啲 啊 唉 到时
[570.42]
(()) 系 嘛 到时 揾 定 <no-speech> 吓 <no-speech> 唉
[576.25]
点 啊 你 果度 点 啊 <no-speech>
[579.66]
吓 <no-speech> 啦 我 啲 (()) 咩 啊 <laugh> <no-speech>
[584.21]
有 呢啲 实 买 啫 啱啱 四嫂 啊 三婶 果啲 呀 买 硬 嘅 (())
[589.84]
唔 买 唔 得 㗎 嘛 果啲 <laugh> <no-speech>
[593.86]
唔 揾 佢 我 咯 吓 (()) 吓 (()) 呢啲 系咪 有 名 果啲 (())
[600.48]
