[0.0]
<hes> <int> <no-speech>
[5.47]
喂 <sta> 你- 你 系 边个 啊 哦 唉 听到 你 声 啦 哦 咁-
[12.28]
你 今晚 谂 住 几多 点 (())
[15.52]
去- 去 听 音乐 啊 今晚 <no-speech>
[22.76]
<sta> 系 啊 七 点 半 咁 你- 你 大概 几多 点 出 门口 啊 <no-speech>
[28.73]
哦 <no-speech>
[32.16]
七 点 半 六- 六 点- 六 点 零 你 就 好 去 哦 唔 系 一阵间 <no-speech> 迟到 啊 知唔知 啊
[40.21]
咁 你 谂 住 坐 咩 车 去 哩 <no-speech> <hes> <no-speech>
[44.81]
六 点 半 汶 唔 汶 啊 <sta> <no-speech>
[51.6]
六 点 你 就 好 落 楼 啦 仲 要 落嚟 哩 <no-speech>
[55.22]
哦 你 行 过去 都 系 十 分钟 都 可以 喔 <no-speech>
[59.43]
啱啱 系 落班 时间 啊 你 话 几多 人 啊 <no-speech>
[63.79]
又 要 转车 <no-speech> <int> 到时 你- 你 出 门口 哩 你 就 畀 电话 我 啦 <no-speech>
[70.87]
我 就 好 准备 行 过去 <hes> 二沙岛 睇下 喺 边度 集合 咯
[77.59]
喺 边度 等 咯 <no-speech> 嗯 <no-speech>
[84.18]
系 啊 <no-speech> 嗯 <no-speech> 咁 我 到时 你- 你- 你 到时 畀 电话 啦
[91.28]
啊 咁 啊 睇下 边度 等 到时 <sta>
[98.04]
听唔听到 啊 <no-speech> 哦 <no-speech>
[102.48]
咁 二沙岛 你 唔 系 <hes> 十二 号 车 总站 啫 咩 仲 要 行 嘅
[109.39]
<no-speech>
[112.39]
<sta> 哦 <no-speech>
[119.32]
<no-speech> B 廿一 啊 哦 <no-speech>
[125.0]
哦 即系 唔 系 去 到 果 个 音乐厅 嘅 <no-speech>
[133.83]
<no-speech>
[139.25]
哦 <no-speech> <sta>
[143.87]
我 行 就 唔 知 点 行 去 哩 <no-speech>
[147.96]
转 <no-speech>
[153.79]
啫 <hes> 即系 睇 住 果 个 B_廿一 果 条 线 啊 B 几多 号 廿 几 号
[162.68]
<no-speech> 廿 几 号 啊 B <no-speech> 系 啊
[165.93]
廿一 啊 B 廿一 啊 我- 我 就 唔 好 听 一阵间 听错 左 <laugh> 咩 廿一 号 车 嘅 又 有 咁
[172.41]
哦 原来 B 廿一 哦 <no-speech>
[180.66]
哦 <no-speech> 嗯 <no-speech>
[184.73]
啫 <int> <no-speech> 啊 <no-speech>
[190.6]
哦 到时 唔 识 我 又 要 问 下 人 <laugh> 唔 系-
[194.73]
嗯 <no-speech>
[202.69]
<int> <no-speech> 哦 <no-speech>
[206.08]
有 凳 坐 嘅 系 嘛 <no-speech> 唔 知 佢 哦 有 凳 嘅 唔 系 话 企 嘅 我 就 话
[213.48]
哇 企 几 时- 企到 咁 即系 大概 几多 点 咩 野 啊
[217.38]
赚- 赚 (()) 啊 <no-speech>
[223.5]
起码 两 个 钟 啊 <int> 唉 <no-speech>
[230.82]
哦 <no-speech> 大概 两 个 钟 <no-speech>
[234.99]
<laugh> 梗系 唔 好 食野 啦 <laugh>
[238.42]
<laugh> 梗系 唔 好食 啦 你 专心 啲 <laugh>
[243.19]
哦 <hes> 咁 你- 你 寻晚 有 冇 睇 到 电视 哩 睇 到 果度-
[247.83]
<hes> 超市 啊 黄石路 超市 啊 新 开张 啊 <no-speech>
[252.81]
你 冇 睇到 啊 <no-speech> 哦 <no-speech> <breath>
[258.79]
我 见 电视 影 话 黄石路 咋 系 咪 嘉禾 我 唔 知 啊
[262.61]
哦 咁 我 就 唔 清楚 啦 <laugh> 我 睇到 蒙蒙查查 咁 <laugh>
[268.54]
咁 你- 你- 你 寻日 去- 去 边度 哩 去 顺德 玩 好 冇 玩 啊 <no-speech>
[274.46]
吓 好 冇 玩 啊 <int> 又 拜佛 啊 <no-speech>
[279.38]
哦 <no-speech> 嗯 <no-speech>
[283.93]
哦 <no-speech>
[289.13]
嗯 返到来 几多 点 啊 <no-speech> 哦 <no-speech>
[293.56]
(()) 你 返到来 几多 点 啊 <hes> 寻晚 返到来 几 点 啊 <no-speech> 嗯
[301.23]
哦 咁 早 嘅 <no-speech> 所以 我 一直 都 唔 够 胆 畀 电话 你 <laugh>
[307.83]
<laugh> 六 点 几 哦 我 话 啫 话 寻日 你 返去 六 点 几 所以 我 都 冇 畀 电话 你 咁 谂 住 你 夜 嘅
[316.55]
<int> 咁 啊 系 <no-speech> 系 啊 <no-speech>
[323.77]
<no-speech>
[332.23]
<no-speech> 果度 啊 <no-speech> 哦 靓唔靓 啊
[336.15]
手工 得唔得 啊 果啲 家私 <no-speech>
[342.63]
好 咩 啫 <laugh> 你 都 睇 唔 到 啲 家私 靓唔靓 <laugh>
[349.87]
<sta> 即系 顺德 果度 啊 <sta> 哦 我- 我-
[358.76]
我 冇 <sta> 去 过 第- 第 日 我 要 啊 嗌 肥妹 去- 去 睇下 先 <hes>
[365.7]
第日 嗌 肥妹 去 睇下 <laugh> <sta> 去 睇下- 睇下 靓唔靓 到时 喺 果度 买 啲 啊 咁
[373.49]
佢 话 到时 嗌 我 珍姐 帮 佢 做 喔 咁 喔 我 话 到时 睇 下 珍姐 得唔得闲 先 啦 咁 <no-speech>
[381.03]
即系话 买 又 唔 知 啱唔啱 <no-speech> 咁 啊 又 要 度 住 你 啲 地方 啊 咁 咯
[388.42]
我 话 到时 先 算 啦 <hes> <no-speech> 冇 冇 攞到 锁匙 <no-speech>
[394.31]
冇 攞- 摞 到 锁匙 我 又 嗌 埋 你 去 睇 <laugh> 吓 <laugh>
[401.43]
<hes> 嗌 埋 你 去 睇- 睇- 睇 屋 啊 <no-speech>
[405.31]
睇 下 人地 啲 新- 新- 新屋 啊 <no-speech> <hes> 可能 大概 可能-
[412.51]
下 个 月 (()) 吧 <no-speech> <hes> 冇 啊 啫- 啫 赶唔及 装修 吓 <no-speech>
[420.33]
赶唔及 过年 先 喔 可能 (()) <no-speech>
[423.96]
有 咩 啊 <no-speech> <int> <breath> 冇-
[431.86]
去 河南 附近 睇 啊 <laugh> 我 就 话 去 河南 附近 睇 啊 <no-speech>
[439.21]
哦 即系 留意 下 啲 楼盘 啊 第日 去 果度 睇 下 <no-speech>
[442.64]
我- 我- 我- 我 大佬 都 想 话 <hes> 谂- 谂 翻 间 喔 <laugh> 不过 而家 好 贵 哩 贵 到 咩 野 咁
[451.42]
学 你 话 扎 住 百 几 万 都 啲 屋 都 好 残 啊 <no-speech> 咁 咯 <no-speech> 嗯
[459.4]
即系话 而家 <lipsmack> 系 啊 二手 楼 咋 仲 要 二手楼 添 喔 <no-speech>
[465.87]
咁 你 而家 最 低 限度 起码 都 要 百- 百 五万 先 得 啊 <no-speech>
[470.42]
即系话 买 得 几 十 六十 平方 到 啊 你 起码 都 最 低 系 嘛 <no-speech>
[476.55]
嗯 <no-speech> <sta>
[480.15]
六十 啊 你 最 少- 细 都 要 六 七十 哩 <no-speech>
[484.39]
系 嘛 <int> 七十 平方 都 唔 系 好 大 咋 <no-speech> 系 啊
[490.1]
七十 平方 即系 等于 我- 我- 我 屋企 咁 咁 起- 起码 唔 要 百 几 万 啊
[496.28]
新- 新 唔 得 添 喔 <no-speech>
[499.51]
新楼 你 起码 都 唔 止 系 嘛 <sta> <no-speech>
[506.62]
哦 系 啊 <sta> 五十万 都 唔 使 啊 我 算 佢 <hes> 五 七 三十 五
[514.03]
<hes> <no-speech> <int> 系 啊 <no-speech> 嗯
[518.35]
系 啊 所以 <sta> 你- 你- 你- 你 都 执 输 左 <no-speech> 系 啊
[523.72]
三十 零 万 <int> 赶 唔 到 过年 都 冇 所谓 啦 呵 快脆 啲
[528.23]
咩 野 哦 佢- 佢 而家 佢 老公 啊 <hes> 去- 去- 去 果度 附近 做 野 <no-speech>
[533.88]
都 去 左 啦 <no-speech> 嗯 <no-speech>
[537.33]
去 附近 果度 系- 系 (()) 果度 做 咯 <no-speech>
[541.59]
<no-speech>
[547.37]
系 啊 佢 好- 佢 好彩 咯 <no-speech>
[550.46]
嗯 <sta> <no-speech>
[558.88]
系 咯 <sta> 唔 使- 唔 使 嘅 <no-speech> <sta> 佢
[567.37]
<int> <no-speech> 系 咯 系 咯 房改 啫 <sta> 系 咯 佢 单位 分 果啲 咯
[573.37]
唔 <sta> 唔 收 野 佢- 佢 三代 同堂 啊 嘛 点 会 收 啫
[577.99]
嗯 <sta> 佢 又 系 果 头 做 野 咁 啊 仲- 仲 啱 啦 <no-speech>
[586.55]
我- 我 笑 佢 话 啊 第 一 你 摞 到 锁匙 就 嗌 我 <no-speech>
[590.89]
边个 上班 啊 佢 <no-speech> 佢 上 梗 班 啦 而家 <no-speech> 佢-
[598.37]
<hes> 都 系 坐 转 车 ~
[600.0]
