[0.0]
<no-speech>
[5.3]
<no-speech>
[10.43]
喂 <no-speech>
[14.08]
诶 听到 听到 啊 听唔听到 <no-speech>
[18.89]
听到 啦 <no-speech> 哦 未 起身 啊 <no-speech>
[25.16]
喂 <no-speech> 哦 寻晚 好 夜 训 啊 嘛 <no-speech>
[32.88]
<no-speech>
[36.14]
系 啊 喺 人地 公司 <no-speech> (())
[40.65]
(()) 有 单 野 <no-speech>
[44.73]
冇 踩单车 啊 搭车 出嚟 <no-speech>
[49.97]
冇 啊 冇 啊 行路 过去 (()) 阿 边个
[54.52]
阿 洪哥 跟 手 兜 番 我 过去 吴春路 搭 (()) <no-speech> 系 啊 <no-speech>
[63.19]
(()) <no-speech> 哦 系 啊 佢 一阵间 返嚟 㗎 话 我 嗌 佢 打 我 手机 如果 我 未 返到 去 㗎 话 就 嗌 佢 打 你 手机 你 到时
[72.19]
我 柜桶 果度 有 条 (()) 匙 㗎 你 开 车房 嗌 佢 泊 番 部 车 入去 系 啊
[78.69]
不过 应该 我 估 我 应该 早 过 佢 嘅 <no-speech> 系 啊 <no-speech> 我 应该 快 过 佢 边 过 番禺 㗎 起码 都
[87.21]
即系 台 机 返嚟 <no-speech> 即系- 唔 系 车 去 我地 仓- <hes> 车库 先 喔 仓库 先 喔
[94.67]
系 啊 佢 果度 过 两 <sta> (()) 七十 零 七十几 七十 几 公分 (())
[103.02]
一 米 都 一 方 都 唔 够 <int> 摆 喺 我 车 后边 (()) <no-speech>
[109.16]
系 啊 佢 过 两 日 <no-speech> (())
[112.72]
都 话 个 车尾箱 果度 佢 都 放 得 落 咯 我地- 我 部 车 个 车尾箱 都 放 得 落 咁 有 几 大 部 啫 <no-speech>
[120.33]
系 啊 <no-speech> 冇 七十几 㗎 系 好似 系 廿几 㗎 我 车位 七十 几 阔 度 啊 嘛
[128.7]
好 细 部 咋 嘛 发动机 制冷器 嗱埋 一 嚿 果啲 咁 㗎 野 咋 嘛
[135.62]
哦 可能 我地 果 个 咩 柜 咁 大 果 个
[140.21]
咩 啊 老 老妈子 用嚟 装 野 果 个 咩 消毒碗柜 咁 大 <no-speech>
[145.61]
果 嚿 野 咁 大 咋 嘛 (()) 咋 嘛 <no-speech>
[151.04]
系 啊 里边 <hes> 唔 知 点 样 传动 里边 有 一个 制冷器 咁样 传动 少 啲 冰粒 出嚟 咁 咋 嘛
[158.7]
一路 制冷 咁 啊 接 条 水管 落去 驳 落去 一路 咁 跳 出嚟 咁 啊 打 啲 冰粒 出嚟 咋 嘛 (())
[167.53]
比 我 <foreign> 大 部 啲 咁 多 啦 系 啊 <no-speech> <int> 系 啊 <no-speech>
[173.65]
(()) 阿 <hes> 阿英 听 日 先 返 啊 <no-speech>
[181.79]
哦 如果 系 就 带 佢 过去 睇 睇 啲 (()) 睇下 有 冇 得 谂 咯 如果 系 我 帮 佢 车 几 袋 上去 试下
[189.95]
<no-speech> 嗯 去 市场 (()) 车 车 (())
[194.99]
车 返 屋企 果度 得 啦 喺 铺头 (()) 冇 埞 放 <no-speech>
[203.28]
<no-speech> 咁 问题 系 你 冇 必要 啱啱 开始 就 咁 车 上去 啊 何况 又 唔 系 好 多 人
[212.11]
阿妈 而家 又 买 得 <hes> 几 (()) 个 都 几 好 㗎 <no-speech>
[218.4]
(()) <no-speech> (()) 系 啊 咁 咪
[225.69]
整- 整 几 袋 上去 试下 嘞 得 㗎 话 呢边 揾到 铺头 咁 咪 返 过嚟 搞 系 啦 我 如果 真系 三 四千 蚊
[234.2]
喺 江南 果度 揾到 个 档口 我 (()) 留 佢 夹 份 做 系 嘞
[239.23]
(()) 卖 <hes> 几 十万 斤 卖 一 个 两 个 季度 买 到 过年 前 或者 明年 嘅 八月 十五
[247.36]
做- 做 大半 年 到 买 到 几 十万 斤 <sta> 赚 六 毫纸 一 斤 搞 掂 <no-speech>
[254.46]
一人 分 翻 几 <hes> 几 万 (())
[258.62]
你 车 落嚟 㗎 话 一 毫 子 一 斤 (()) 费 啊 嘛 <no-speech> 咁 咪 咯 咁 咪 <no-speech>
[267.33]
唔 使 畀 钱 寻 日 仲 经过 一 (())
[273.01]
一半 系 老 母 种 㗎 一半 系 舅父 种 㗎
[276.37]
哦 唔 系 一半 系 大佬 种 㗎 舅父 果啲 都 未 去 收 <no-speech>
[280.92]
咁 啊 如果 收埋 舅父 果啲 嘅 话 啊 仲有 再 仲有 啲 亲戚 朋友 果啲 都 未 收
[288.31]
大把 几 (()) 万 斤 <no-speech>
[291.91]
(()) <no-speech> 咁 (()) 菜园 大把 反正 最 攞要 搞 得 掂 钱 又 唔 使 畀 住 就 系 得 了 过年 前 (())
[299.21]
过年 果 阵时 攞货 就 可能 要 畀 返 畀 住 几 千 蚊 人地 过年 啊 冇 理由 一 分 钱 都 唔 畀 过年
[306.5]
系 啊 你 而家 就 好 闲 家 就
[309.93]
而家 就 好 闲 㗎 (()) 而家 (()) 住 落嚟 㗎 (()) 就
[313.17]
即 过年 你 起码 (()) 如果 你 话 整 两车 落嚟 咁 你 起码 畀 几 千 蚊 人地 过年 啊 冇 理由 一 分 钱 唔 畀
[320.18]
(()) 过年 <no-speech> 系 啊 咁 咪
[323.92]
几 好 㗎 <no-speech> 系 啊 搞 得 掂 㗎 话 <no-speech>
[329.92]
<no-speech> <sta> 唔 知 啊 哎呀 果啲 冇 (()) 理 佢 啦
[336.74]
佢 话 落 左 话 冇 落 左 你 都 唔 知 啦 最 攞要 有 okay 过 得 去 系 啦
[342.06]
我 头先 过去 经过 <hes> (()) 果度 买 三 个 几 一 斤
[347.42]
他 攞货 咪 个零 银钱 咋 嘛 我 寻 晚 同 佢 倾 过
[350.64]
系 啊 (()) 你 (())
[354.0]
减 返 成 有- 有 一 蚊 到 啦 (()) 啲 人
[359.2]
一 蚊 到 如果 买 得 贵 (()) 去 㗎 话 赚 五 毫 一 斤 (())
[365.14]
啊 四 毫 几 <no-speech> 咁 啊 一人 分 四 毫 啊 <no-speech>
[370.88]
<no-speech>
[378.35]
啊 你 比 零售 啊 赚 一 蚊 你 减 返 落嚟 咁 咪 即系 两 个 几 攞 货 两 个 几 (()) 过 几 日 先 收 返嚟
[385.22]
搞掂 搞掂 嘞 <no-speech> 系 啊
[389.92]
好 啦 (()) 呢 两 日 车 货 去 洪仔 果度 <hes> 顺便 兜 兜 江南 果度 睇下 揾 唔 揾到 刘超 老豆 (()) 揾返 啲 档口
[398.75]
<no-speech> 系 啊 (()) 一齐 过去 䀫 䀫 咯 <no-speech>
[404.7]
啊 星期一 唔 得闲 哦 我 星期一 都 话 要 同 佢 地 去 (()) 咯 <no-speech>
[409.95]
<no-speech> 去一去 南海 <no-speech> 哦 系 喔
[417.06]
星期一 定 星期二 去 收 啊 <no-speech>
[421.4]
星期二 啊 嘛 廿二号 系 星期二 啊 系唔系 啊 (())
[425.55]
好 <no-speech> 嗯
[433.37]
好 啊 好 啊 好 啊 好 啊 好 啊 <no-speech> (()) <no-speech>
[442.04]
去 边 度 啊 <no-speech> (())
[449.73]
(()) 唔 系 嘞 如果 去 江南 市场 睇 档口 㗎 话 顺便 车埋 过去 畀 佢 (())
[458.73]
你 兜 兜 兜 果度 就 经过 嘉禾 了 直 头 喺 我 果度 <no-speech>
[463.9]
(()) 到时 比 电话 佢 啦 (()) 反正 我 过 (()) 又 经过 (()) 庄
[468.32]
(()) 睇 下 佢 边 度 方便 咯 到时 反正 上 左 十 箱 货 放 喺 车尾 就 系 了 <no-speech> 嗯 系 啊
[476.37]
(()) 到时 畀 电话 <no-speech> 啊 过 两 日 又 要 跑 转
[484.88]
翠园 呢 翠园 果度 我 睇 呢 下 星期 要 捉 佢 入 返 (()) 收返 千 几 蚊
[490.74]
(()) 果度 有啲 <hes> 有啲 野 畀 我地 <no-speech>
[495.65]
阿 佳佳 话 好似 有啲 乜 礼品 乜 净系 啊 之前 做 果啲 野 话 有啲 乜 礼品 乜 剩 㗎 啲 野 要 我 车
[502.99]
车 返 过嚟 呢边 成 个 荔湾区 啲 人 派 派 返 畀
[507.46]
派 返 畀 佢 地 喔 唉 仲 有啲 喺 (()) 远 过头 㗎 又 要 去 兜 一 转 <no-speech>
[516.04]
(()) <no-speech>
[519.98]
好 耐 我 都 唔 记得 左 㗎 啦 好 耐 㗎 啦 唉 而家 先 落 左 嚟 (())
[526.1]
<no-speech> 嗯 系 啊 我 我 都 唔 知 系 乜 来 㗎
[534.87]
(()) 反正 有 得 (()) 你地 果啲 乜 小礼品 (()) 果啲 咁 野
[540.78]
<no-speech>
[545.51]
应该 系 喔 唔 知 纸巾 定 毛巾 哎 都 系 来来去去 都 系 呢 两 三 样 <no-speech>
[553.55]
系 <no-speech>
[561.28]
哦 系 啊 仲有 个 保险 果度 你 睇下 谂唔谂
[564.84]
如果 系 㗎 话 我 呢度 <hes> 下 个 月 搞 税 果 阵 (()) 帮 你 申请 买 住 一 年 先 (())
[571.25]
果度 有 个 补贴 啊 嘛 <no-speech>
[574.72]
但 如果 买 左 㗎 话 你 就 收 左 㗎 失业证 喔 果 个
[578.25]
有 个 失业 手册 你 就 可能 (()) 左 了 喔 到时候 要 重新 办 过 了 喔 <int> (()) 当 你 就业 㗎 了 喔
[587.25]
就业 㗎 嘞 系 啊 所以 <no-speech>
[590.58]
所以 你 搞掂 唔 搞 还是 啊 留 返 你 个 证 到时 你 过去 果边 睇 下 有 冇 档口 还是 点 样 你 要 提前 谂 谂
[600.04]
