[0.0]
<click> <no-speech>
[5.06]
喂 喂 你 啊 你好 点 嘛
[13.42]
<hes> 而家 喺 屋企 <no-speech> 喺 屋企 系 咪 啊 <no-speech>
[20.89]
喂 系 喺 屋企 啊 咁 咪 好 摞 个 仔 啊 读书 啦 可
[27.96]
喂 <no-speech> 个 仔 读书 㗎 咯 读 几 年级 啊 <no-speech> 哦 读书
[35.43]
读 初中 啦 系 嘛 哦 你 啊 好 啊 食 左 饭 啦
[40.34]
冇 出去 打下 麻将 咩 <no-speech>
[47.73]
有 阵时 有 有 阵时 今日 冇 去 啊 唉 你 就 好 啦 即系 又 可以 得闲 打下 麻将
[55.85]
点 啊 个 仔 读 几 年级 啊 <no-speech>
[60.34]
唔 系 啊 佢 读 <no-speech> 初三 啊 几 好 啦 睇下 几 时 得闲 就 出去 旅游 啦 同 你
[68.19]
出去 玩 下 啦 睇 下 几 几 时 啊
[74.85]
呢排 都 系 咁 啦 <no-speech> 都 想 啊 又 冇 啲 咩 搞 咁 咪 好似 你 话 斎 打 下 麻将 啊 咁 嘛
[83.62]
去 饮 下 茶 啊 咁 摞 <hes> 系 啊
[92.04]
你- 你 而 家 又 冇 咩 做 冇 咩 搞 哦 睇 下 咪 出嚟 睇下 几 时 得闲 啦 哈
[100.76]
有 冇 去 白云山 啊 <no-speech>
[104.44]
哦 我 话 你 有 冇 去- 有 冇 去 白云山 啊 冇 去 白云山 啊 点 解 又 唔 去 嘅
[111.02]
去 下 嘛 锻炼 下 身体 嘛
[115.87]
锻炼 下 身体 <no-speech>
[122.38]
系 啊 系唔系 有 有 冇 去 玩 <hes> 咩 啊 <hes> 去
[129.69]
跳舞 啊 喂
[137.26]
倾 下 计 先 啦 你 想 去 边 哦 你 想 咩 啫 唔 系 咁 快 收线 止 倾 下 计 先
[149.21]
睇下 几 时 得闲 啊 去 喂 夜晚黑 我 而家 都 有 去 跳下 街舞 喔 你 唔 去 跳 <no-speech>
[157.35]
去 跳下 街舞 咁 啊 去 玩下 啊 嘛 <no-speech>
[161.18]
有 阵 时 去 <no-speech>
[167.81]
哦 去 睇 下 <hes> 应该 减 下 肥 啊 哦
[172.24]
咁 啊 睇下 煲 多 啲 汤 饮下 屋企 得闲 休息 <no-speech>
[177.1]
唔 好 成 日 挂 住 又 去 下 街 咁 啊 嗯 煲 多 啲 汤
[181.57]
咁 咪 又 去 玩 下 街舞 咁 啊 去 白云山 睇 下 几 时 有 啲 一日游 啊
[189.31]
一日游 又 去 旅游 玩 下 <no-speech>
[196.52]
哦 有 有 我 就
[200.46]
咩 而家 呢 就 话 有 一 个 去 清远 嘅 <breath> 清远 呢 就 话 有 九十 蚊 呢 又 有 手机 送 <no-speech>
[209.4]
咁 都 系 啊 九十 蚊 啊
[216.17]
畀 部 唔 知 啊 果 日 个 女 话 <breath> <hes> 妈妈 我 同学 话 去 清远 九十 蚊 喔 <breath> <hes> 一日游
[223.81]
<hes> 有 部 手机 送 添 咁样 <no-speech>
[232.21]
<breath> 咁 你 可以 打 得 到 啊 得 㗎 啦 嘛 <no-speech>
[237.12]
打 得 到 又 接 得 到 人地 啊 <no-speech> 唔 知 啊 人地 又 包 你 一 餐 食 <no-speech>
[245.32]
佢 冇 讲 佢 咁 话 清远 <no-speech> 嗯 睇下 有 咩 做 介绍 我 女 啊 <no-speech>
[253.78]
哇 你 部 机 好 窒 喔
[256.93]
睇 下 有 咩 做 介绍 我 女 去 做 啊 睇 下 我 话 你 部 手机 好 窒
[263.27]
要 换 下 手机 啦
[267.42]
系 啊 要 换 下 手机 啦
[270.99]
揾 到 钱 啦 未 退休 嘅 你 都 <no-speech>
[276.64]
哦 咁 咪 咯 喺 屋企 啊 咩 <hes> 未 退休 啊 又 冇 野 做 哇
[284.97]
打 下 啲 临 工 摞 去
[288.34]
都 系 咁 㗎 啦 <no-speech> 系 嘛 咁 就 反正 都 <hes> 求其 有 两 餐 就 算 咯 <no-speech>
[297.34]
<no-speech> 系 嘛 要- 要 有 两 单 咁 咪 出嚟
[303.62]
咪 <hes> 睇 下 几 时 得 闲 就 去 一日游 就 系 啦 喂 有 冇 去 澳门 啊
[311.97]
可以 去 澳门 㗎 嘛 系 啊 去 澳门 玩 下 啊 嘛
[318.81]
去 快 啲 搞 <dtmf> <no-speech>
[322.76]
我 就 话 嗌 你 去 得闲 去 搞 啦 我 个 都 过- 好似 我 个 都 过期 啦
[331.01]
我 都 要 都 都 去 㗎
[338.35]
系 啊 咪 去 赤岗 果度 搞 摞
[342.58]
系 啊 去 到 <no-speech> 哦 系 喔 要 影相 啊 咁 咪 由 佢 啦 反正 而家 都 唔 想 去
[350.83]
要 重新 影- 系 啊 要 重新 影 过 啊 要 重新 影 过
[356.98]
又 要 去 排队 好 多 人 啊
[361.93]
多 人 多 到 咩 样 咁 <no-speech>
[365.72]
而家 好 少 人 搞 啊 唔 知 啊 我 个 都 准备 到期 <no-speech>
[372.4]
<no-speech>
[377.93]
咁 但 如果 我地 都 要 去 排队 㗎 嘛
[382.13]
系 啊 系 啊 系 啊 <no-speech>
[385.51]
好 耐 冇 去 过 啦 <hes> 咁 咪 唔 好 去 澳门 啦 睇 下 去 啲 自己 广东省 内 果啲 算 啦
[394.25]
九寨沟 啦 一 系 系 一 系 九寨沟 不过 而 家 唔 知 封山 未 呢
[403.17]
封山 未 啊 而家 而家 封山 未 啊 <no-speech>
[409.04]
即 佢 落雪 啦 嘛 九寨沟 四川 果度 但 唔 知 佢 啊 落雪 未 <no-speech>
[417.01]
哦 咁 咪 系 <hes>
[420.28]
最 好 啊 睇 几 时 啊
[423.72]
而家 唔 知 几 钱 呢
[429.48]
系 啊 我 今日 听 见 唔 知 边- 边个 讲 话 啊 去 边 度 玩 话 一千 四百 几 啊 咁样
[438.48]
唔 知 边 鬼 度 啊 应该 系 出国 㗎 系 嘛 佢地 话 啊 佢 你地 啊 如果 佢 话 如果 你地 想 去 一日游 果啲 平 啊 朝 朝 一 早 呢 就 去 果 个 市 一 公 啊 系 嘛 假日 酒店 果度 啊
[454.79]
佢 话 喺- 喺 果度 呢 就 <hes> <hes> <hes> 有 啲 便 即 有 啲 车 坐 唔
[460.44]
唔 满 人 呢 你 就 去 去 到 即 就 佢 平 嘅 你 就 上车 咁 啊 如果 去 到 冇 呢 冇 咪 返 转 头 系 过 度 饮茶 摞 饮 完 茶 返 屋企 就 系 啦 咁样
[474.02]
咁 都 (()) <no-speech>
[477.56]
哦 佢 佢 系 话 咁 执死鸡 㗎 喔 嗯
[481.42]
即 话 <hes> 唔 好 哦 唔 使 买 票 果啲 乜 上 <no-speech>
[491.16]
系 佢 有 冇 去 <no-speech>
[499.7]
哦 佢 佢 有 冇 去 过 讷 佢 唔 知 系 咩
[505.32]
哇 等 我地 <no-speech> 哦
[510.74]
果 日 <no-speech> 果 日 呢 我 又 畀 左 电话 阿倾 啊 呵
[516.54]
阿 倾 又 话 佢 腰骨 痛 啊 下 嘛
[521.0]
阿 卫凤青 又 话 腰骨 痛 啊 哦 佢 话 <hes> 腰骨 痛 啊 佢 话 <hes> 哦
[527.46]
两 日 都 冇 见 佢 啦 <no-speech> 边个 阿青 <hes> <no-speech>
[533.88]
佢 话 咩 哦
[536.88]
佢 话 <hes> 腰骨 好 痛 啊 而 家 煲 药 食 一日 要 食 两 剂 <hes> 六 蚊 剂 咁
[544.26]
<sta> <no-speech> 喂
[553.0]
哦 佢 唔 知 喺 边度 睇 啊 <no-speech> 我 冇 啊 我 听 见 佢 话 条 腰骨 痛 走 落去 果 个 煲
[559.13]
药 食 啊 不如 你 同 我 煲 啦 咁样
[562.22]
唉 六 蚊 咁 话 我 话 吓 我 话 六 蚊 一 剂 啊 佢 话 唔 唔 系 三 蚊 一 次 咁样 煲 完 之后 呢 第二 次 呢 又 返 煲 又 收 我 三 蚊 咁样
[574.54]
我 问 佢 几 时 得闲 啊 嘛 <no-speech> 哦 番 煲 佢 话 腰骨 痛 啊 唔 唔
[582.41]
佢 而家 有 冇 上班 啦 <no-speech> <breath>
[586.18]
喂 有 冇 睇 睇 咩 电- 你 而 家 有 冇 追 电视剧 啫
[592.15]
有 冇 追 果 出 <hes> 飞虎神鹰 啊 <no-speech> 好 好
[600.1]
