[0.0]
<no-speech>
[5.39]
<int> 喂 <no-speech>
[9.79]
喂 <no-speech> 食饭 未 吓
[16.9]
你 食 左 饭 未 <no-speech> 喺 度 做 咩 话 <no-speech> 吓 <no-speech>
[25.66]
炒 攞 餸 啊 <no-speech> 炒 番薯 啊
[30.49]
吓 <no-speech> 番- 番薯 炒蛋 啊 <no-speech> 冇 野 做 啊 点 冇 野 做 啊 <int>
[38.52]
有 两 个 <foreign> 听下 信 (()) <foreign> <no-speech>
[42.64]
吓 <no-speech>
[46.3]
唔 系 我 边度 去 睇 佢 冇 人 喺 度 阵- 阵间 唔 知 会唔会 落 <foreign> <no-speech>
[53.16]
屌 信号 咁 差 嘅 吓 <no-speech>
[58.09]
你 嘅 信号 咁 差 嘅 <no-speech> 吓 <no-speech>
[65.03]
喺 窗口 都 咁 差 啊 系 嘛 <no-speech>
[68.35]
你 炒 咩 餸 <no-speech> 哦 仲未 炒 添
[75.29]
林鹏 去- 吓 <no-speech> 未 两 个 都 未 返
[81.37]
就 两 个 都 未 到 <no-speech>
[85.04]
就 麦村- 麦村 度 果 个 牛 咯 阿 俊 啱先 落到去- 啱先 我 落去 睇 冇 人 <no-speech>
[92.26]
<no-speech> 唔 知- 有 人 落单 入- 入边 有 灯 喔
[101.05]
唔 咪 佢 夜晚 系 落 <foreign> 嘅 <no-speech>
[104.98]
佢 落 <foreign> 㗎 喔 <no-speech> 落 <foreign> 嘅 <no-speech>
[113.14]
佢 今 次 唔 打 番 畀 你 你 有 咩 办法 <no-speech> (())
[122.1]
我 一阵间 落去 又 会 落 <foreign> 啊 <no-speech> 可能 系 去 左 仓库 啊 我 啱先 揿 门钟 (())
[128.86]
啱先 落 揿 门钟 都 冇 人 灯 有 灯 着 <no-speech>
[136.3]
可能 系 啊 <no-speech>
[140.32]
佢 用 固话 我 打 电话 有 咩 用 佢 用 固话 嘅
[144.45]
我 点 知 佢 电话 我 又 唔 知 佢 电话 <no-speech>
[151.09]
我 一阵间- 阵间 落去 睇下 <no-speech>
[156.08]
系 啊 (()) 走 左 佢 又 落 <foreign> 唉 <no-speech> 嗯
[164.58]
<hes> (())
[170.05]
几 点钟 开始 啊 <no-speech>
[173.74]
吓 <no-speech> 系 啊
[180.43]
系 啊 我 (()) <no-speech>
[186.62]
收到 啦 <no-speech> 收到 啦 <no-speech>
[192.61]
佢 个 地址 <hes> 唔 识 讲 啫 (()) <no-speech>
[198.07]
啱啱 走 左 (()) 嗯 <no-speech> 唉
[205.92]
佢 有排 佢- 有- 而家 打 攞 第二 场 第 下半场 (()) <no-speech>
[212.72]
第 几 次 啊 <no-speech>
[216.72]
早 返 左 嚟 啦 冇 人 要 啊 喺 美国 冇 人 要 啊 <no-speech>
[223.31]
返嚟 好 耐 啦 <no-speech> 嗯 <no-speech>
[230.53]
(()) 今 今日 (()) <int>
[235.7]
今日 第一 场 啊 <no-speech>
[240.88]
而家 打 第 几 节 啊 <no-speech> (())
[246.78]
其他 球队 唔 系 好 多 人 㗎 <no-speech>
[252.37]
<no-speech>
[258.53]
N_B_A 球星 啊 <no-speech>
[263.42]
N_B_A 大把 球星 (()) <no-speech>
[270.45]
N_B_A 大把 停牌 啊 嘛 系 <no-speech>
[276.69]
我 话 N_B_A 停牌 即系 大把 球星- <no-speech>
[281.52]
果边 信号 唔 好 咩 <no-speech> 而家 啊 得 啦 而家 啊 好 啦
[289.28]
而家 啊 好 <no-speech> 嗯 <no-speech> 你 煮攞饭 啊
[296.8]
你 煮攞饭 啊 <no-speech> 哦 <no-speech>
[303.3]
未 煮餸 啊 <no-speech> 我 未 食 㗎
[307.95]
嗯 <no-speech> 食 净 嘅 野 唔 使 啦
[313.21]
喂 啊 我 要 返 铺头 等 你 截 车 啊 <no-speech>
[321.97]
<laugh> <no-speech>
[329.78]
你 出去 食 㗎 有 钱 人 啊 <no-speech>
[335.27]
有 钱 人 就 出去 食 㗎 <no-speech>
[340.89]
(()) <no-speech>
[347.02]
(()) 何 主任 你 啊 出- <no-speech>
[351.39]
<no-speech>
[356.68]
<no-speech>
[364.52]
大把 㗎 啦 你 啊 <no-speech>
[369.55]
啊 未 入 到 <no-speech>
[378.06]
<no-speech>
[384.94]
今日 啊 <no-speech> 今日 咪 廿几 个 <int> <foreign> <no-speech> (()) 上昼 都 十四 个 啦 系 啊 哎呀 死 啦 我 手机 冇- <no-speech> 都 唔 知 点 复
[400.38]
唉 我 今朝 都 冇 电 充 (()) <no-speech>
[406.43]
我 终端 冇 电 喔 <no-speech>
[409.54]
<no-speech>
[417.06]
唉 唔 好 讲 啲 不 文明 嘅 语言 唔 好 讲 啲 不 文明 嘅 语言 啊
[422.46]
系 啊 <no-speech>
[426.24]
你 睇下 司机 咩 情况 先 打 左 第 几 次 啦 我 (()) 有 冇 睇 啊 <no-speech>
[434.31]
而家 第 几 节 啊 <no-speech>
[439.77]
第二 节 啊 <no-speech>
[445.06]
第二 节 先 啱 开始 啊 <no-speech> 哦 你 输 左 几 个 球 啊
[451.66]
领- 领先 几多 啊 <no-speech>
[457.64]
赢 住 三 比 三 <no-speech>
[462.87]
唉 我 都 (()) 仲有 咁 多 (()) 都 未 搞 呢 <no-speech> (()) 都 未 <int> 搞 呢
[470.61]
光电 唔 系 好 多 啫 四 五十 <no-speech> 嗯
[475.13]
光电 四 <int> 五十 <no-speech> 嗯 五 点钟 返到 应该
[480.79]
返到 去 (()) <no-speech>
[483.88]
你 唔 知 (()) <no-speech>
[490.14]
(()) <no-speech>
[493.5]
咁 嘅 咩 <no-speech> 唔 系 佢- <no-speech>
[501.93]
双倍 嘅 <no-speech> 咁样 嘅 咩 <no-speech>
[510.88]
哦 <no-speech> 哦 <no-speech>
[518.32]
训觉觉 十 点 啊 九 点 啊
[522.13]
<no-speech>
[529.12]
<no-speech>
[533.28]
<no-speech>
[539.55]
仲要 三 个 人 点 啫 点 搞错 啊 我 全部 都 入 好 嘅 <no-speech>
[547.09]
唔- 唔 知 喔 <no-speech> 应该 唔 同
[551.38]
<no-speech>
[559.63]
系 刻录 嘅 但系 可能 佢 有 啲 内容 唔 同 啊 嘛 价钱 唔 同 内容 唔 同 啊 嘛
[564.74]
<no-speech>
[569.39]
<no-speech>
[574.77]
边度 使 成本 啊 佢 啲 <no-speech>
[579.7]
(()) 呢 个 野 玩 唔 玩 得 掂 啊 连 通电 都 唔 记得 装 喔
[584.98]
热 都 鬼 咁 啊 <no-speech>
[591.97]
唉 果度 啲 靓女 上 左 三月 就 越来越 少 啊 <no-speech> 唉 佢 (()) 六月份 ~
[600.04]
