[0.0]
<no-speech>
[5.56]
喂 <no-speech> 喂 森仔 <no-speech>
[11.7]
喂 听到 冇 系 <no-speech>
[15.0]
有 冇 听 哦 听 到 啊 哦 咁 就
[19.68]
阻 住 你 十 分钟 时间 <laugh> <no-speech> 我 佢 有 几- 几 个 咩 野 嘅 我- 我 减 左 工作 (()) 倾下
[27.66]
咪 倾下 工作 上 㗎 野 咯 果啲 唔 系 而家
[35.68]
而家 李锦潮 喺 果度 做 乜野 啊 喺 果度
[44.02]
<no-speech>
[49.44]
哦 即系 话 办 紧 工厂 果啲 事 系 咪 哦 咁
[56.58]
果 件 事 <laugh>
[60.8]
你- 你 果 个 电话 点解 咁 细声 嘅 好似 <no-speech>
[66.1]
<no-speech>
[71.91]
嗯 哦 果 个 <hes> 咁 啊 咁 啊 而家
[76.99]
衫多唔多 啊
[83.0]
哦 <no-speech> 哦 <no-speech>
[88.5]
佢 而家 果度 果啲 库存 啊 <no-speech> 果
[92.19]
果啲 库存 果啲 而家 有 冇 有 冇 有 冇 有 冇 销 嗮 啊 果啲 库存 <no-speech>
[101.18]
到- 到 而家 仲 未 销 嗮 啊 <no-speech>
[109.39]
哦
[114.08]
<no-speech>
[120.62]
咁 <no-speech> 我 知道 啊 但系 而家 两 个 月 咯 喔 两 个 月 有 咩 理由 到 而家
[126.89]
未 销 嗮 嘅 <no-speech> 成本 都 要 时间 啊 <no-speech>
[132.94]
未 销 嗮 咁 而家 佢 <no-speech> 佢 仲- 仲 有 得 做 咩 <no-speech>
[137.94]
咁 咪 越 做 越多 <no-speech>
[142.59]
吓
[147.79]
哦 用 果 个
[153.41]
下 个 月 会 带 啲 人 啊 <no-speech>
[161.04]
哦 咁样 <no-speech> 咁 而家
[168.58]
东莞 果度 <no-speech>
[172.93]
东莞 果度 生产 仲 正常 吗 哦
[181.64]
哦 <no-speech> 一 日 出 你 谂下 一 日 出 几 万 都 出 几 万
[188.6]
都 算 少 嘅 咯 呵 <no-speech>
[191.6]
佢 一 日 最 衰 系 佢 果度 全部 都 系 果啲 临时工 啊 麻鬼烦
[197.98]
<no-speech>
[203.38]
临时工 <no-speech> 工资 又 高 系 咪 啊 临 工资 又 高 跟住
[209.47]
跟住 <no-speech> 跟住 又 果啲 人 呢 又- 又系- 佢 又 唔 好 起 唔 到 粮 嘅 佢 就 同 你 喺 度 磨 时间
[218.36]
都 系 唔 难唔难 管理 㗎 啦 <no-speech>
[224.03]
哎 啊 果 就 话 就 话 最 衰 果 果度 呢 又 偏 过头 <no-speech>
[229.26]
即系 招工 又 系 难 鬼 <no-speech>
[233.77]
难 鬼 招 啊 <no-speech> 哦 <no-speech>
[239.76]
就 话 <no-speech>
[246.15]
老地方 玩 啦 <no-speech> 咁 咁 鬼 偏
[251.37]
大巴 又 唔 通 系 咪 <no-speech> 嗯 <no-speech>
[258.0]
有 一 趟 大巴 去 到 工厂 果 个 工业区 果度 咩 <no-speech>
[267.0]
哦 麻 鬼 烦 <no-speech> 咁
[271.55]
咁 <no-speech> 哦
[277.15]
个 园 个 仓库 有 冇 改革 啊 而家 <no-speech> 即系 话 而家 系 系
[283.66]
即系话 而家 啲 货 我地 系 咁 远 出货 喺 顺丰 直接 去 工厂 拉 货 系 咪
[292.24]
<no-speech> 哦 即系 话 啲 货 呢 就 唔 摞 返 总部 㗎 啦 <no-speech>
[301.05]
仲 要 摞
[304.46]
咁 而家 顺丰 佢 肯唔肯 话 去- 去
[307.98]
去 个 园 果度 拉 先 <no-speech>
[314.79]
嗌 其他 公司 去 最 好 就 话 最 好 <no-speech>
[321.17]
最 好 就 去返 工厂 拉 啦 系 嘛 你 果啲 高档 住宅区
[326.48]
高档 住宅区 果度 老实 讲 啊 如果 系
[329.48]
摆埋 果啲 货 啊 果啲 影响 到 周边 果啲 环境 唔 协调 嘅 话 人地 就 唔
[336.53]
讲 好 嘅 话 人地 系 唔 钟意 㗎 哦 <no-speech>
[340.31]
又 影- 影响 到 周边 啲 环境 啊
[347.98]
唉 系 啊
[352.33]
因为 而家 系 喺 光明 果度 又 揾 唔 到 果啲
[358.75]
大型 嘅 物流 公司 又 会 顺丰 喺 光明 果边 冇 点 㗎 <no-speech>
[364.87]
下 个 除左 果啲 物流 公司 除左 顺丰
[369.78]
仲- 仲- 仲 有 仲 有 咩 公司 呢 呵 <no-speech>
[375.39]
即系 话 顺丰 便 啲 咯 我 估计 啊 <no-speech> 其它 果啲 你 话 好似 电视 电视 系 啊 电视 广告 果啲
[383.37]
果啲 咩 鬼 物流 啊 果啲 又 好 贵 嘅 嘛
[387.05]
你 话 如果 系 啊 唉
[395.93]
公司 而家 人事 冇 咩 变动 㗎 啦 话 <no-speech>
[404.93]
李东村 有 乱党 <no-speech> 又 搞 边科 啊 <no-speech> 又 揾 到 好 地方 系 嘛 <no-speech>
[413.41]
返屋企 哦
[419.13]
啊 奇怪 啊 做 美的 果啲 人 都 系 搞 唔 耐 (())
[424.18]
死 鬼 烦 <no-speech> 唉 <no-speech> 做 完 先 啦 <no-speech>
[431.76]
有 师 傅 喺 度 叠住 啊 唉 <no-speech> 爬 唔 到 头
[438.34]
做 靓 做 几 年 <no-speech> 做 靓 做 几 年 <no-speech> 老实 讲 啊 有时 人地
[444.57]
都 要 发展 嘅 呵
[448.19]
两 年 两 年 几 啦 系 哦 唉
[456.47]
都 话 喺 你地 果度 可以 认识 下 人 第二 我 系 话
[461.56]
系 美的 出嚟 抑或 跑跑埋 呢条线 如果 出嚟 就 唔 做 呢 老实 讲 真系
[468.08]
嘥 真系 好 嘥 嘅 我 觉得 <no-speech> 如果 系
[472.49]
出 左 嚟 去 做 番 唔 系 阿敏 啊 果啲 野
[475.9]
都 可以 啊 都- 都- 都 应该 都- 都 冇 咩野
[480.58]
都 冇 乜野 嘅 呵 <no-speech>
[487.84]
哦 <no-speech> 又 系 <no-speech> 我 而家 系 今年
[493.01]
今年 果啲 环境 真系 好 差 <no-speech> 今年 睇到 真系 环境 差 唔 系 话 <no-speech> 整体 环境 差 唔 系 话
[500.78]
如果 系 美的 生意 好 㗎 我 相信 神驹 问题 都 唔 大 我 估计 都 系 我地 果啲 上游 出 左
[509.78]
系 啊 佢 无 无 咩 生意
[513.05]
冇 咩 生意 一路 落嚟 嘅 话 你 (())
[516.71]
就 咁 系 咪 啊 你 睇下 温州 走路 都 走 左 唔 少 人 啦 <int> 系 咁 走 系 咁 走
[525.27]
系 啊 叫 你 都 系 睇 住 啊 睇下 唔 好 认 左 佢 有 冇 问题 啊 老邢 果度
[531.92]
果 间 工厂 <no-speech>
[536.57]
系 啊 如果 系 (()) 果度 出- <no-speech>
[541.29]
就 系 而家 资金 问题 啊
[545.57]
诶 好似 听到 嘟 一 声 响 喔 系 咪 够 左 时间 呢 呵 <no-speech>
[552.68]
唔 知 系 咪 够 好似 啊 不过 呢 佢
[557.57]
不过 最 好 倾 多 两 分钟 先 我- 我- 我 因 为 我 而家 睇 钟 都- 都 应该 仲 差
[564.38]
仲 差 两 三 分钟 㗎 咁 佢
[567.45]
嘟 完 之后 佢 应该 畀 一 个 确认 号码 嘅 但系 哩 而家 未 听到 确认 号码 我 问 一下 阿蓉 先 <no-speech>
[575.82]
<no-speech> <hes> <hes> 我 稳下 阿蓉 <no-speech>
[580.47]
阿蓉 哦 哦 哦
[584.04]
哦 哦 系 倾 完 佢 会 自动 断线 嘅 <no-speech>
[588.8]
哦 咁 我 而家 未 到 十 分钟 <no-speech>
[592.54]
<breath> 咁样 唉 几 时 都 系 返嚟 坐下 啊 过 高明 嚟 坐下 啊 不过 而家
[600.14]
