[0.0]
<no-speech>
[5.41]
喂 <no-speech> 喂 <no-speech> 喂- 喂 喂
[13.2]
通 啦 系 咪 啊 听到 啦 嘛 冇 <no-speech> 果 日 你 系 咪 见到 啊 林升 咩 啊
[19.6]
话 去 <hes> <hes> 自助餐 啊 <no-speech>
[23.82]
吓 <no-speech> 哦 有 冇 话 规定 几 时 㗎
[31.48]
睇下 先 有 冇 话 规定 几 时 <no-speech> 有 冇 话 至到 几 时 啊 <no-speech> 未 定 啊
[38.67]
冇 佢 果 日 <hes> 哦 佢 话 畀 我 听 呢 我 啱啱 我 啊 十五 号
[44.12]
咁 我 呢 就 推 左 佢 我 话 到时 好 返 先 在 <no-speech> 哦 得 啦 得 啦
[50.11]
哦 哦 哦 <no-speech> 未 定 咁 啊 第 日 先 咯 <no-speech>
[56.34]
而家 仲 有 啲 啊 嘛 仲 有 啲 <no-speech> 未 啊
[63.59]
喂 我 今 朝 去 个 老 野 度 啊 <hes> 得 啦 我 今 朝 去 个 老 野 度 啊
[68.94]
买野 畀 佢 食 啊 你 呢 两 日 唔 使 去 都 得 㗎 啦 <no-speech> 吓
[74.15]
喂 <no-speech> 乜野 啊 <no-speech>
[83.14]
<hes> <no-speech> <hes> <no-speech>
[91.37]
哦 <no-speech> <hes>
[99.36]
哦 <no-speech> <hes> <no-speech> 系 啊 系- 系- 系- 系
[107.54]
哦 好 啊 好 啊 <no-speech> 哦 好 啊 好 啊 好
[114.91]
系 <no-speech> <hes> <no-speech> 哦- 哦- 哦- 哦- 哦
[121.61]
<hes> <no-speech> 听到 咁 啊 第 日 落实 左 再 吓
[128.91]
第 日 落实 左 再 话 畀 我 听 啦 <no-speech>
[134.45]
哦- 哦- 哦 哦 <no-speech> 哦 好 啊 好 啊 喂 喂
[141.2]
喂 唔 系 啊 要 倾到 <hes> 十 分钟 㗎 够钟 佢 自己 自动 关 啊 咁样 呢 就 <hes> <hes> 乜野 啊
[150.06]
吓 <no-speech> 喂
[153.55]
喂 <no-speech> 吓 <no-speech>
[157.0]
听到 即系 向 <no-speech> 我 咁 我 咪 听到 咯 吓 冇 啊 我 话 呢 轮 啊- 啊 边个 有 冇 畀 电话 你 啊
[165.95]
<no-speech> 吓 啊 边个 啊
[172.39]
冇 啊 <no-speech> 冇 啊 佢 可能 畀 啊 阿蛋
[177.45]
佢 冇 畀 我 啊 啊 (()) 上次 我 话 过 之后 佢 啊 冇 畀 我 啊 <no-speech> 冇 啊
[184.58]
系 啊 <no-speech> 唔 好 理 佢 啦 佢 第 日 咩 就 会 话 畀 你 听
[190.17]
好 啦 你 讲 啊 哦 点 啊 冇 出去 啊 喂 今日 冇 出去 咩 你 <no-speech> 吓
[197.14]
我 话 你 今日 冇 行 出去 咩 冇 行 出 市场 啊
[200.82]
冇 去 市场 咩 你 <no-speech> 点解 嘅
[208.0]
咁 晏 先 去 嘅 <no-speech> 哦 等 啊
[214.37]
哦 喂 上次 果 部 电视机 买 左 啦 系 咪 啊 <no-speech> 吓
[220.85]
装 左 啦 <no-speech> O唔O_K 啊 <no-speech>
[229.45]
冇- <no-speech> 系 喺 屋企 等 啊 <no-speech>
[238.36]
系 咪 喺 屋企 等 啊 <no-speech> 哦 咁样 啊 哦 我
[245.08]
吓 <no-speech> 我 而家 出 左 嚟 啊 嘛
[250.57]
大沙头 啊 <no-speech> 系 啊 同 啊小河
[254.21]
同 啊小河 啊 <no-speech> 同 啊小河 出 左 嚟 办 啲 事 啊 嘛 吓 <no-speech>
[262.4]
同 阿小- <no-speech> 听唔听到 啊 <no-speech> 听唔听到 <hes> <no-speech>
[270.79]
而家 喺 车上 啊 <laugh> <no-speech>
[274.68]
吓 <no-speech> 咩 啊 <no-speech>
[279.92]
<laugh> 系 咯 <laugh> 冇 果 日 倾计 咁 顺 系 咪 啊
[285.94]
<laugh> 冇 果 日 倾计 咁 顺 啊 <no-speech> 吓
[292.86]
啊 你 又 叻 喔 听得 出 嘅 我 话 你 啊 叻 听得 出 <no-speech>
[298.65]
<hes> <laugh> <no-speech>
[303.96]
<laugh> 系 咪 你 讲到 陶姐 训觉 啊 <no-speech>
[310.07]
吓 <no-speech>
[313.56]
系 啊 系 啊 <no-speech> 啊 <no-speech> 系 啊 系 啊 系 啊 <no-speech>
[322.25]
吓 <no-speech> 喂 <no-speech>
[326.81]
系 啊 <no-speech> <hes> 点解 咁 细声 嘅 一时 细声 一时 大声 嘅
[332.68]
吓 <no-speech> 哦
[337.33]
哦 <laugh> 唔 怪得 你 老婆 话 你 啦 <laugh> 你 老婆 话 你 听得 好 辛苦 <laugh>
[344.46]
<laugh> 唉 <laugh>
[348.67]
<laugh> 今晚 返嚟 话 畀 啊 湛明 听 啦 你 <no-speech>
[353.92]
下 话 啊 我 话 啊 你 听得 咁 辛苦 今晚 返嚟 话 畀 个 女 听 啊 <no-speech>
[360.0]
喂 <no-speech> 冇 你 话 听得 辛苦 啊 嘛
[364.32]
吓 <no-speech> 喂 <no-speech>
[370.45]
我 应该 系 挂 我 都 唔 识 佢 咩 机 啊 我 又 唔 识 英文 嘅
[375.47]
<laugh> 系 啊 梗系 啦 你 讲 啦 <laugh>
[380.88]
吓 <no-speech> 乜野 啊 <no-speech>
[385.4]
系 啊 系 啊 系 啊 <no-speech> 固话 捆绑 啊
[391.8]
唔- 唔 知 啊 我 <no-speech> 吓 <no-speech>
[395.57]
好 辛苦 啊 讲- <laugh> 吓 唔 系 好 多 啫 <no-speech>
[401.3]
<hes> 唔 系 好 多 钱 啫 <no-speech> 即系 窒下 窒下 咁 咯 喔 <no-speech>
[409.86]
哦 咁 冇 办法 啦 唔 买 都 买 左 咯 <laugh> 唉
[417.42]
吓 <no-speech> 系 咯 <hes> 一时一阵 啊 嘛 下 话 啊
[426.22]
吓 <no-speech> 唔 使 啦
[430.9]
唔 使 好 耐 啦 边 系 莎可 啫 欧装 咋 嘛 欧装 咋 嘛
[437.87]
唔 使 莎可- 吓 <no-speech> 咩 啊 <no-speech> 唔 使 啊
[446.06]
系 啊 <no-speech>
[450.49]
好 啊 好 啊 好 啊 <no-speech> 你 有 时间 再 约 我 咯
[457.84]
吓 <no-speech> 我 话 你 有 时间 约 我 啊
[463.08]
吓 <no-speech> <hes> 我 同 啊小河 出 左 嚟 啊 嘛 吓
[467.13]
咩 啊 <no-speech>
[472.6]
仲 有 <laugh> 倾 多 阵 添 啦 <no-speech>
[477.65]
<laugh> 你 <laugh> <hes>
[482.78]
差唔多 㗎 啦 <no-speech> 咁 你 喂 你 旧 果 部 电视 <no-speech>
[491.35]
吓 <no-speech> 咩 啊 <no-speech> 唔 系 啊
[497.5]
我 话 你 旧 果 部 电视机 卖 左 未 <no-speech>
[502.49]
系 咪 以旧换新 <no-speech> 卖 左 啦 咁 咪 好 咯 以旧换新 啊 嘛 <no-speech>
[511.31]
系 啊 <no-speech> 哦
[515.9]
系 咩 <no-speech>
[519.19]
哦 <no-speech> 哦 <no-speech>
[524.6]
<hes> 咁 啊 早 啲 买 好 过 迟 啲 买 啦 <no-speech> 哦
[529.65]
即系 我 话 啊 早 啲 换 好 过 电器 嘅 野 好 难 讲 啊 系 咪 啊 <no-speech>
[537.96]
话 唔 卖 其实 你 果 部 机 都 唔 系 话 买 左 好 耐 啊
[542.25]
系 咪 啊 冇 声 <no-speech> 五 年 啦 买 左 <no-speech> 哦 咁 啊
[549.78]
到 睇下 六 年 啦 咁 啊 转下 新款 咯
[553.36]
系 咪 啊 <no-speech> 咁 啊 系 果 日 啊 林升 佢 话 啊
[561.59]
果 日 林升 话 畀 我 听 啊 佢 话 阿- 阿六 有 一 部 旧 电视机 啊 佢 话 第二 日 摞 左 佢 返嚟 咁 啊 佢 话 啊
[569.34]
<no-speech> 佢 话 第 日 摞 左 佢 返嚟
[573.87]
吓 咁 我 冇 出声 咁 我 冇 同 你 倾 过 啊 嘛 <no-speech>
[581.76]
唔 系 费事 佢 成日 喺 佢 口唇 边 <no-speech> 哦- 哦- 哦 啱 啊 啱 啊 啱 啊 下 话 啊 <no-speech>
[590.41]
哦- 哦- 哦 <no-speech> 系 啊 系 啊 系 啊 <no-speech>
[599.41]
<no-speech>
[599.74]
