[0.0]
<no-speech>
[6.51]
<no-speech>
[10.48]
<no-speech> 唉 细声 到 <no-speech>
[18.73]
吓 <no-speech> 听唔到 语音 啊 好 细声 我 揿 左 一 都 听唔到 啊 <no-speech>
[26.87]
吓 我 听唔到 啊 乜野 <no-speech>
[30.94]
吓 <no-speech> 而家 都 听唔到 野 嘅 <no-speech> <int> 喂 <no-speech>
[39.47]
我 听到 你 讲 野 啊 但系 听唔到 语音 嘅 吓 <no-speech>
[47.61]
吓 <sta> <no-speech> 我 听到 你 讲 野 啊
[52.55]
但系 听 唔 到 佢 <sta> 佢 对方 讲 野 哩 <no-speech>
[59.89]
<no-speech> 嗯 细声 到 听 都 听唔 <no-speech>
[66.99]
唔 够 啊 冇 声 <no-speech> 冇 声 <no-speech>
[72.09]
冇 啊 冇 啊 冇 听到 你 讲 野 啊 <no-speech> <sta> 冇 啊 <no-speech>
[78.38]
冇 声 啊 乜野 声 都 冇 只系 听到 你 讲 野 咋 <no-speech>
[84.55]
只系 听到 你 讲 野 乜野 声 都 冇 <no-speech> 我 边度 听到 你 讲 咩 啫
[91.43]
听 都 听唔到 <no-speech>
[94.77]
乜野 都 听唔到 收唔到 冇 办法 <no-speech>
[103.35]
喂 喂 <no-speech>
[106.8]
喂 <no-speech> 喂 <no-speech>
[110.04]
嗯 <no-speech>
[118.6]
<int> <no-speech> 边个 <no-speech> 六 点 咯 <no-speech> 六 点 啊 <no-speech>
[127.03]
吓 <no-speech> 听唔到 啊 <no-speech>
[131.64]
吓 <no-speech> 听唔到 啊 <no-speech>
[136.86]
吓 <no-speech> 咩野 啊 <no-speech>
[142.82]
吓 <no-speech> 喂 <no-speech>
[148.74]
喂 <no-speech> 你 讲 咩野 啊 <no-speech>
[156.63]
寻晚 返到去 几多 点 啊 <no-speech> 点 零 钟 咯 <sta> <no-speech>
[161.52]
寻晚 返到去 点 零 钟 咯 <no-speech> 寻 <no-speech>
[167.69]
我 都 听唔到 你 讲 乜野 而家 都 <no-speech>
[172.8]
听唔到 啊 <no-speech> 嗯 <no-speech>
[178.06]
喂 <no-speech>
[183.09]
点解 咁 细声 嘅 <no-speech>
[187.47]
平时 都 唔 系 咁 细声 㗎 <no-speech>
[193.23]
吓 <no-speech> 可能 系 啲 线路 啩 <no-speech>
[201.27]
我 家下 喺 马路边 嚟 㗎 喔 大哥 <no-speech>
[209.92]
果边 马路边 嚟 㗎 喔 差唔多 企到 马路边 㗎 啦 喔 <no-speech>
[216.75]
马路边 嚟 喔 吓 <no-speech> 听 都 听唔到 喔 大哥 真系 <no-speech>
[224.3]
冇 办法 喔 <no-speech> 点 办 啊 <no-speech>
[230.83]
吓 <int> <no-speech> 吓 <int> <no-speech>
[236.54]
点 啊 <int> 吓 <no-speech>
[243.52]
听唔到 <no-speech> 听唔到 <no-speech>
[249.67]
喺 龙津路 咯 <no-speech> 龙津中路 咯 <no-speech>
[256.44]
龙津中路 啊 <no-speech> 吓 <no-speech>
[264.58]
龙津中路 啊 <no-speech>
[269.88]
差唔多 到 龙津路 龙津路 果边 啊 龙 <no-speech>
[274.19]
嗯 <int> <no-speech> 我 听唔到 <no-speech>
[282.73]
系 啊 <no-speech> 荔湾区 果边 啊 <no-speech>
[286.45]
长寿路 果边 啊 <no-speech> 知唔知 啊 <sta> 中山七路 啊 <no-speech>
[293.8]
中山七路 果边 啊 <no-speech> 喺 中山七路 果边 呢 <no-speech>
[300.8]
听唔听到 啊 <no-speech>
[304.14]
吓 <no-speech>
[308.43]
我 听唔到 啊 <no-speech>
[315.07]
一啲 都 听唔到 啊 阴功 <no-speech>
[319.93]
喂 <no-speech>
[322.93]
唔 知 系 我 部 机 定 你 部 机 定 乜野 机 <no-speech>
[331.77]
吓 <no-speech>
[337.79]
<no-speech>
[342.54]
嗯 唔 知 啊 <no-speech>
[345.62]
<sta> <no-speech> 我 点 知 啫 啊 有时 啲 野 <int> <no-speech>
[352.57]
系 唔 知 系 呢度 啲 线路 忙 啊 线路 多 啊 电 电线 啊 光缆 多 啊 定系 乜野 哩 <no-speech> <int> 所以 我
[361.41]
我 家下 行到 马路 中间 啊 <no-speech> 行 过 马路 中间 啦
[367.33]
都 冇 冇 冇 <no-speech> 冇 冇
[371.32]
冇 声音 嘅 <no-speech>
[374.87]
行 到 马路边 边头 都 冇 声音 啊 啊 细声 到 啊 <no-speech>
[380.85]
听 啊 听 唔 到 <no-speech> 吓 <no-speech>
[386.2]
吓 <no-speech> 喂 <no-speech>
[393.53]
吓 <no-speech> 我 听唔到 啊 好 嘈 啊 <no-speech>
[402.17]
又 嘈 呢 <no-speech>
[405.25]
吓 <no-speech>
[412.63]
乜野 啊 <no-speech>
[418.72]
两 点 咯 <no-speech> 两 点钟 开工 咯 <sta> <no-speech>
[427.16]
我 都 唔 知 <no-speech> 反正 系 吓 <no-speech>
[434.92]
听唔到 啊 <no-speech> 而家 咁 快 点 半 㗎 啦 <no-speech>
[441.07]
吓 <sta> <no-speech> 咁 快 点 半 㗎 啦 <no-speech>
[444.98]
吓 <int> <no-speech> 哇 吓 <no-speech>
[451.18]
就 <no-speech> 吓 <int> <no-speech>
[459.45]
咁 点 啊 <no-speech> <sta>
[464.85]
听唔到 你 讲野 听唔到 啊 <no-speech>
[468.15]
细 声 到 蚊子 咁 细 声 <sta> <no-speech> 嗯 <no-speech>
[476.53]
<sta> 今晚 啊 <no-speech>
[479.65]
吓 <no-speech> 嗯 <no-speech>
[485.65]
好 啊 <no-speech>
[491.63]
收左工 过嚟 你 度 食饭 啊 <no-speech> <sta> 吓 <no-speech> 哦 <no-speech>
[498.88]
哦 <no-speech> 咁 <no-speech>
[506.24]
哦 <no-speech>
[512.5]
哦 <int> <no-speech>
[517.36]
<sta> <no-speech> 咁 啊 <no-speech>
[523.19]
咁 今晚 出嚟 坐 咯 喔 <no-speech> 吓
[528.8]
今晚 你 到时 你 今晚 先 畀 电话 我 咯 喔 <no-speech>
[532.27]
吓 <no-speech>
[537.95]
哦 得 啦 你 到时 睇 到时 先 啦 <no-speech>
[543.61]
吓 <no-speech> 吓
[546.82]
<sta> <no-speech> 咩 啊 <no-speech>
[553.19]
吓 <no-speech> <int> 哦
[559.19]
冇所谓 啊 <no-speech> 倾 到 几 耐 都 冇所谓 㗎 <no-speech>
[563.69]
倾 半 个 钟 一 个 钟 都 冇 咩 问题 㗎 <no-speech> 有 咩 问题 喔 <no-speech>
[569.49]
反正 大把 时间 <no-speech>
[573.15]
嗯 <no-speech> 有 乜 所谓 啫
[577.91]
嗯 <no-speech> <int> 吓 <no-speech>
[586.52]
点 样 <no-speech> <int> 嗯 <no-speech>
[593.64]
好 啊 <no-speech> 我 呢度 好 细 声 啊 我 ~
[600.34]
