[0.0]
<no-speech>
[3.29]
<no-speech>
[6.29]
<no-speech>
[9.29]
<no-speech>
[12.29]
<no-speech>
[15.29]
<no-speech>
[18.29]
<no-speech>
[21.29]
<no-speech>
[24.29]
<no-speech>
[27.29]
<no-speech>
[30.29]
<no-speech>
[33.29]
<no-speech>
[36.29]
<no-speech>
[42.81]
喂 <no-speech> 小云 啊 <no-speech>
[45.87]
喂 啊 听唔听得 清 啊 <no-speech>
[49.25]
系 咯 咁 耐 咁 耐 嘅 奇怪 嘅 我 以为 咁 耐 嘅 话 以为- 以为 部 机 有 问题 添
[55.25]
<laugh> <breath> 冇 啊 我 我 今日 去 左 香港 啊 <no-speech> 我 今日 去 左 香港 啊
[62.35]
系 啊 <no-speech>
[67.51]
系 咩 唔 早 问 我 今日 六 点 几 (()) <laugh> 唔 系 六 点 几 起身 好 攰 啊 <breath>
[73.71]
七 <hes> 七 点 几 走 <no-speech> 冇 位 停车 啊 嘛 晏 去 <no-speech> 去 元朗 咯
[81.45]
哇 而家 而家 iPhone 好 多 货 啊 吓 <no-speech>
[86.4]
喂 嗯 <no-speech> 系 啊 好 多 货 啊 礼拜六 会 有 卖 啦
[93.63]
我 我 听 唔 清 喔 <no-speech> 嗯 你 听唔听到 我 讲野 㗎 <no-speech> 断断续续 咁 咯
[101.03]
系 咯 <no-speech> 果 个- 个 接收 唔 系 咁 好 咯 <no-speech>
[104.98]
系 咯 我 今日 哩 去 左 <hes> 见到 好 多 货 就 唔 使 咁 麻烦 啦 <no-speech> 听唔听到 啊
[113.13]
吓 一样 <no-speech> 四千 二百 八十八 <no-speech>
[117.71]
系 <no-speech> 八 G 嗯 八 G 卡 <no-speech> 八 G 嘅 卡
[125.12]
哦 <no-speech>
[129.49]
啊 系 啊 <no-speech> 或者 系 人民币 三千 五 咯 <no-speech>
[136.99]
哦 我 话 畀 你 知 唔 会 便 㗎 啦 <no-speech> 哦 索爱 啊
[144.65]
索爱 果 只 啊 千 几 蚊 咋 好似 <no-speech> 系 啊 果 只
[149.74]
系 啊 果 只 好 便 啊 一千 三百 几 咋 我 见到 <no-speech> 系 咩 咁 啊 佢 钟意 就 得 啦
[156.44]
便 啊 <no-speech> 嗯
[161.99]
果 套 电视 成日 睇 㗎 啦 成日 睇 果 个 哩 徐子珊 用 㗎 啦 <no-speech>
[168.78]
系咪 啊 <no-speech> 唔 系 果 只 款 索爱 果 只 嘛 <no-speech>
[174.87]
系咪 啊 <no-speech> 系 果 只 款 咯 <laugh> <no-speech>
[181.74]
哦 应该 系- <no-speech> 系 啊 系 啊 我 觉得 你 应该 系 买 果 只 款 啦 我 见到 千 几 蚊 咋 嘛
[190.35]
妖 其实 果 只 款 系 可以 喔 <no-speech> 系 啊
[195.93]
唔 系 啊 好似 我 见到 香港 而家 千 几 蚊 咋 喔 <no-speech>
[201.01]
系 咩 <no-speech> 哦
[208.66]
大 部 果 种 啊 <no-speech> 哦
[212.8]
哦 我 见到 果 部 好 迷你 嘅 我 觉得 <foreign> 即系 果 个 徐子珊 用 果 部 啊 果 款 可以
[218.31]
我 记得 系 上次 我 想 买 果 部 啊 嘛 同 <int> 你 一齐 行街 果时 哩 <no-speech> 系 咩
[224.38]
哦 咁 嘅 <laugh> 咁 <foreign> 嘅 <int>
[227.75]
你 而家 喺 香港 买 定 喺 深圳 买 啊 <no-speech>
[232.52]
唔 唔 算 大 啊 我 觉得 <foreign> 咯 <no-speech> 哦
[240.66]
就 唔 系 啊 你 上次 睇 中 果 只 款 唔- <no-speech>
[245.1]
哦 我 唔 系 我 觉得 你 上次 睇 中 左 果 只 款 系 <breath> 有啲 粉粉地 嘅 哩 你 嘅 同事 用 攞 㗎 嘛
[252.96]
咁 果 只 哩 而家 便 左 好 多 啊 嘛 <no-speech>
[256.69]
系 啊 <no-speech> 系 啊 系 啊 我 觉得 果 只 款 好 靓 啊
[264.51]
不过 我 唔 知 啊 反正 而家 <no-speech> 唉 个 个 买 iPhone 我 跟住 去 跟住 风 啊 嘛
[270.48]
<laugh> 其实 我 都 唔 识 用 咩 功能 嘅 <no-speech>
[275.02]
我 一啲 都 唔 识 用 <foreign> 啊 <no-speech>
[279.86]
哦 其实 其实 香港 围 起 嚟 打 八 折 即系 便 左 成 <breath> 八百 几 蚊 㗎 咯 <no-speech>
[288.66]
系 啊 围 起 嚟 深圳 嘅 三千 五 咯 <no-speech>
[297.24]
系 啊 我 知 啊 而家 都 系 啦 而家 冇 得 买 噜 <no-speech>
[301.76]
佢 佢 香 (()) <no-speech> 系 啊 冇 折 啊 一 只 都 唔 折 啊 <breath> 佢 香港 而家 十六_G 唔 卖 啦
[310.69]
全部 卖 十- 八 G 啊 <no-speech> 嗯 佢 十六_G 系 冇 (()) 跌过价 都 系 四千
[316.6]
四千 九百 八 啊 <no-speech> 嗯 所以 我 都 系 拣 (())
[322.32]
哦 靓 系 好 靓 嘅 真系 的确 好 靓 嘅
[325.93]
但系 我 唔 识 用 好 嘥 哩 <no-speech> 唉 我 都 唔
[330.55]
其实 我 唔 系 好 想 要 㗎 咋 <laugh> <breath> 我 又 觉得 我 即系 哩
[336.32]
唔 系 啊 佢- 都- 老实 讲 而- 而家 哩 即系话 老 老实 讲 攞 呢啲 手机 出街 又 危险 喔 <no-speech> 加上 年尾 哩 咪 系 咯 买 嚟 又 好似 冇 乜 用 咁 唉 谂下 谂
[350.61]
我 老公 啊 好似 觉得 人 有 我 要 有 咁 啊 <laugh> 佢 系咪 先
[357.05]
吓 <no-speech>
[362.5]
咁 啊 系 但系- 就 算 唔- 止 诶 <no-speech> 我 套 左 啊
[370.42]
我 都 有 套 喔 <no-speech> 我 买 左 (()) 野 啊 今日 全部 野 买 齐 啊
[374.77]
唉 攰 到 死 啊 今日 跟住 去 完 又 去 贸易 喔 <laugh> <breath> 去 贸易 换 被 噢
[382.05]
上次 买 左 套 被 啊 返嚟 哩 甩 嗮- 上次 买 左 个 被套 甩 嗮 毛 嘅 返嚟 啊 <breath>
[387.57]
跟住 哩 佢 话 我 洗 左 啊 嘛 成 堆 毛 喔 次次 都 系 喔 咁 啊 畀 佢 睇 喔
[392.07]
跟住 佢 就 重新 换 套 新 嘅 第二 个 款 畀 我 咯 <no-speech>
[399.01]
仲 系 最 贵 果 只 添 <no-speech>
[404.21]
系 啊 今次 佢 好 好 人 喔 <breath> 佢 肯 同 我 换 套 新 嘅 畀 我 喔 <laugh>
[409.44]
<breath> 任 拣 噢 <no-speech>
[413.6]
得 <no-speech> 系 打 二 二 点 五 折 嘛 <no-speech> 本身 一千 三百 八 㗎 后尾 打 二 点 五 折 啊 围 起 嚟 都 三百 几 咯 其实 就 唔 贵 咯 但系 后尾 咁样 我 退货
[428.35]
我 鼻 唔 得 啊 嘛 好 多 毛 啊 好 多 果啲 <no-speech> 棉毛 哩 就 <hes> <hes> 总之 好 夸张 咯
[435.69]
好 严重 果 只 啊 跟住 我- 一 攞 起 嚟 个- 个- 个 鼻 就 不停 咁 打乞嗤 嘞
[442.31]
咁 啊 佢 好 好 人 咯 一 去到 讲 句 哩 佢 就 同 我 换 咯 <no-speech>
[447.47]
哇 几 好 喔 真系 洗 左 咁 多 次 都 (()) <no-speech>
[452.81]
系 啊 跟 住- 跟住 去 多 样 屋 哩 又 买 左 个 砧板 喔 跟住 又 唔 知 做乜鬼 啊 买 左 超 靓 果 只 哩 成 三百 蚊 喔 打 五 折 都 要 百 五 蚊 啦 系咪 啊
[461.6]
我 老公 我 老公 剁 猪肉 煲 粥 喔 剁 多 两 下 啊 裂 左 喔 <laugh>
[466.89]
<breath> 痴线 㗎 攞 去 换 咯 又 攞 去 同 佢 讲 咯 佢 话 佢 话 攞 去 公司 总理 <hes> 检测 检查 喔 咁 啊 痴线 嘅
[475.89]
我 (()) 佢 点 噢 <laugh> <no-speech> 好 有 问题 啦
[481.61]
咪 系 又 咁 鬼 贵 哩 三百 几 啊 <no-speech> 唉 真系 畀 佢 激死 我 谂 住 喺 香港 买 㗎 跟住 搞 活动
[490.05]
我 谂 住 搞 活动 啊 嘛 贪 佢 啊 搞 活动- <no-speech>
[494.21]
我 同- 我 同 你 讲 搞- 打 五 折 等 同 香港 一样 价 咋 <no-speech> 你 话 系咪 啊
[500.22]
系 啊 我 谂 住 啊- 我 今日 香港 买 左 块 返嚟 咯 <no-speech>
[505.21]
特登 香港 买 多 又- 又 买 多 个 砧板 返嚟 咯 <no-speech>
[511.93]
有 啊 新 开 㗎 <laugh> <no-speech>
[516.68]
就 喺 个 千色广场 你 识唔识 啊 <no-speech> 千色广场 你 识唔识
[523.55]
吓 <no-speech> 嗯
[529.45]
哦 许留山 你 识唔识 <no-speech>
[533.03]
许留山 许留山 <no-speech>
[539.8]
啊 麦当劳 好 多 间 麦当劳 㗎 喔 <no-speech>
[542.98]
隔篱 咪 就 系 许留山 咯 <breath> 啊 再 隔篱 咪 就 系 个 咩 粥 话 <breath> 海皇粥 识唔识 啊
[550.48]
跟住 再 隔篱 系 惠康 啊 <no-speech> 识唔识 啊 <no-speech>
[557.97]
百佳 系 地下室 嚟 㗎 喔 <no-speech>
[561.24]
百佳 系 地下室 嚟 㗎 喔 <no-speech> 唔 系- 你 系咪 百佳 地下室 㗎
[567.61]
系咪 啊 <no-speech>
[574.22]
小巴 附近 <no-speech>
[578.13]
几多 楼 啊 <no-speech>
[582.02]
几多 楼 啊 <no-speech>
[588.18]
一 楼 啊 <no-speech> 哦 我 真系 唔 识 去 你 果 间 百佳 喔 <no-speech> 我 从 未 见 过 有 街铺 果啲 百佳 㗎 喔
[596.97]
一 系 就 四 楼 一 系 就 地下室 喔
[599.98]
