[0.000]
<no-speech>
[1.685]
<int> (())
[3.755]
<no-speech>
[5.765]
<no-speech>
[6.145]
<no-speech>
[7.595]
ອາໂຫຼ
[8.185]
<no-speech>
[10.065]
ອື ອ້າຍ ໂຍ ຫວາ
[11.105]
<no-speech>
[12.235]
ອາໂຫຼ
[12.745]
<no-speech>
[13.795]
ເອີ ເອີ ເອີ ອັນ ດຽວນີ້ ກຳລັງ <hes> ບັນທຶກ ອັນ ນັ້ນ ຢູ່ ອັນ ຢູ່ ທາງ ພຸ້ນ ຝົນ ຕົກ (()) ບ່ອນ ເຈົ້າ ຢູ່ ຝົນ ຕົກ ບໍ່ <int>
[20.935]
<no-speech>
[22.715]
ຮຶ
[23.215]
<no-speech>
[25.895]
ຫວາ ຝົນ ຝົນ ຕົກ ບໍ່ ຢູ່ ທາງ ບ້ານ <hes> ຊຽງຂວາງ ພຸ້ນ ນ່າ
[28.895]
<no-speech>
[31.465]
<no-speech>
[31.905]
<no-speech>
[33.785]
<no-speech>
[34.275]
<no-speech>
[36.845]
ໂອ <hes> ໄດ້ ຍິນ ບໍ່ ຂ້ອຍ ເວົ້າ ນີ້ ນະ
[39.085]
<no-speech>
[40.355]
ອາໂຫຼ <no-speech> ອາໂຫຼ <no-speech> ເອີ ໄດ້ ຍິນ ແລ້ວ ບໍ່ ບາດ ນີ້ ນະ ຮວ້າຍ ເບິ່ງ ແດ່ ໃດ ໄປ ພຸ້ນ ຫຼາຍ ມື້ ແທ້ ຫວາ ຊິ ມາ ນີ້ ນະ
[49.425]
<no-speech>
[50.725]
<no-speech>
[51.165]
<no-speech>
[52.015]
(()) ແນວ ຕິດ ຕີນ ຕິດ ມື ມາ ແດ່ ເດີ
[55.695]
<no-speech>
[56.725]
<laugh> ໄປ ໃຫ້ ມັນ ເຫັນ ຊຽງຂວາງ ເດີ ໄປ ເດີ (()) ເບາະ ໂຍ ໄປ ໃຫ້ ມັນ ເຫັນ ຊຽງຂວາງ ແດ່ ເດີ
[63.565]
<no-speech>
[64.415]
ຊອກ <hes> <laugh> ຊອກ ແຈ່ວ ເບາະ ຊອກ ອັນ ນັ້ນ ມາ ແກ້ມ ເຫຼົ້າ ແດ່ ບາດ ຊິ ຂາ ກັບ ຫັ້ນ ນະ <hes>
[72.615]
<no-speech>
[76.385]
ໂອ ມີ ແຕ່ວ່າ ຄັນ
[80.035]
<no-speech>
[81.245]
ໂອ ເຈົ້າ ເຈົ້າ ເຈົ້າ ໄປ ເຮັດ ວຽກ ນຳ ພວກ ຫວຽດ ຫວາ
[84.555]
<no-speech>
[85.725]
ຮາໂຫຼ
[86.305]
<no-speech>
[87.395]
ໂອ
[88.145]
<no-speech>
[90.925]
ເຮັດ ອັນ ແປ ແປ ພາສາ ຄື ເກົ່າ ຫັ້ນ ລະ (())
[94.385]
<no-speech>
[95.825]
(()) ໂອ ໂອ ແປວ່າ <hes> ກຳນົດ ເດືອນໜຶ່ງ ວ່າ ຊັ້ນ ສາ ຈຶ່ງ ຊິ ໄດ້ ລົງ ມາ ເນາະ
[103.325]
<no-speech>
[105.745]
ອື ອື ເດືອນໜຶ່ງ ມາ ເທື່ອ ໜຶ່ງ ໄດ້ ຫຼາຍ ປານ ໃດ ມູນຄ່າ ເຂົາເຈົ້າ ໃຫ້ ຫັ້ນ ຮຶ
[110.435]
<no-speech>
[111.695]
ພໍ ພໍໄດ້
[112.465]
<no-speech>
[113.265]
ຫວາ
[113.745]
<no-speech>
[114.835]
<no-speech>
[115.345]
<no-speech>
[118.685]
<no-speech>
[119.505]
<no-speech>
[122.195]
<no-speech> (())
[124.985]
<no-speech>
[126.385]
(()) ເອີ ເອີ ເອີ ແປວ່າ ເລື່ອງ ກິນ ເລື່ອງ ຢູ່ ບໍ່ ມີ ບັນຫາ ເນາະ ຄັນ ຊິ ເວົ້າ ລະ ເນາະ <no-speech>
[134.335]
<no-speech>
[135.585]
ບໍ່ ອື ອື ແປວ່າ ເລື່ອງ ກິນ ເລື່ອງ ຫຍັງ ຫັ້ນ ບໍ່ ມີ ປັນຫາ ວ່າ ຊັ້ນ ສາ
[139.645]
<no-speech>
[142.385]
ເອີ ເງິນ ຫັ້ນ ເງິນ ຫັ້ນ ເຂົາ ໃຫ້ <hes> ເປັນ ຈັ່ງໃດ ເປັນ ເດືອນ ຫວາ ຫຼື ເຂົາ ໄລ່ ເປັນ ເໝົາ
[147.525]
<no-speech>
[154.525]
ເອີ ໄດ້ ກິນ ເງິນ ເດືອນ ເນາະ
[156.015]
<no-speech>
[161.695]
<no-speech>
[162.205]
<no-speech>
[167.295]
ອຶ
[167.705]
<no-speech>
[169.555]
ອື ອື ອື ດີ ລະ ດີ ລະ ໂອ້ ມີ ວຽກ ເຮັດ ດີ ລະ ໂຍ ເອີຍ ດີໃຈ ນຳ ອຶ ມັນ ບໍ່ ມີ ວຽກ ມັນ ບໍ່ ມີ ເງິນ ຈ່າຍ
[176.705]
<no-speech>
[180.105]
ຫວາ <hes> ຊິ ຊິ ໄປ ນອກ ຫວາ
[184.105]
<no-speech>
[184.985]
ຫວາ ຊິ ຊິ ຊິ ໄປ ວຽກ ຫວາ ເອີ ອັນ ຈັກໜ້ອຍ (()) ມັນ ຊິ ຕັດ ລະ (()) ໂອ້ຍ ອ້າຍ ໂຍ ຈັກໜ້ອຍ ມັນ ຕັດ ຈັກໜ້ອຍ ຈຶ່ງ ຄ່ອຍ <hes> ບຶດດຽວ ຍັງ ຍັງ ຍັງ ລົມ ອັນ ນີ້ ຢູ່ ອັນ ເຂົາເຈົ້າ ບອກ ຫັ້ນ ນະ
[196.305]
<no-speech>
[197.105]
ເອີ ຈັກໜ້ອຍ ເດີ ຂໍ ເວລາ ໜ້ອຍໜຶ່ງ ເອີ ຍັງ ບັນທຶກ ຢູ່ ມີ ແຕ່ວ່າ ແນວ ໃດ ກະ ເຮັດ ໃຫ້ ມັນ ໄດ້ ຫັ້ນ ລະ ອ້າຍ ເອີຍ ແຕ່ວ່າ ຊິ ຊິ ຊິ ຊິ ສ້າງ ຄວາມ <hes> (()) ພວກເຮົາ ນີ້ ເນາະ
[209.055]
ໄລຍະ ນີ້ <laugh> ເອີ ຫວາ ເອີ ເອົ໊າ ເອົ້າ
[214.335]
<no-speech>
[216.495]
ເອີ ເອີ ເອີ ເອົ໊າ ເອົ້າ ເອົ້າ ເອີ ບໍ່ ເປັນ ຫຍັງ ດອກ ເອົ້າ ເອົ້າ ມີ ແຕ່ວ່າ ແນວ ໃດ ກະ ຊິ ຂໍ ແຕ່ ໃຫ້ ມັນ ໄດ້ <hes> ຮັບ ໝາກ ຮັບ ຜົນ ຫັ້ນ ແຫຼະ ເນາະ (()) ແຫຼະ ເນາະ
[226.035]
<no-speech>
[227.245]
ສ່ວນ ເຮົາ ຈະ ຄວ້າ ກັນ ໃໝ່
[228.585]
<no-speech>
[229.945]
ມື້ ມື້ ນັ້ນ ຫັ້ນ ເຈົ້າ ໂທ ຫາ
[231.685]
<no-speech>
[233.825]
ອຶ ມື້ ນັ້ນ ຂ້ອຍ ເຈົ້າ ໂທ ຂ້ອຍ ໂທ ຫາ ເຈົ້າ ມື້ ນັ້ນ ວ່າ ຊິ ມາ ແວ່ ເຈົ້າ ຫັ້ນ ມັນ ພັດ ຂ້ອຍ ໄປ ພັດ ເມົາ ແດ່ ຢູ່ ເຮືອນ ໝູ່ ແດ່ ເຂົາ ພັດ ອັນ ນັ້ນ ແດ່ ໂອ້ຍ ມັນ ເດິກ ແຫຼະ ອອກມາ ແລ້ວ ຂ້ອຍ ກະ ເມື່ອ ເລີຍ ມັນ ເດິກ ອື
[245.305]
ຮວ້າຍ ໝົດ ເຫຼົ້າ ຕັ້ງ ວ່າ ເປັນ ແກ້ວ ເວີຍ ມາ ອັດ ເບຍ ອີກ ໝົດ ເຄິ່ງ ລັງ ບາດ ນີ້ ໄປ ເຈິ ອ້າຍ ຮັກ ແນ່ (()) ອື
[253.315]
<no-speech>
[254.765]
ອື ອື <hes> ໂຍ ອ້າຍ ໂຍ ບາດ ມາ ແວ່ ມາ ມາ ຝາກ ແດ່ ເດີ ຊອກ ເຫຼົ້າ ຄັກ ຄັກ ມາ ແດ່ ເຫຼົ້າ ຊຽງຂວາງ ຫັ້ນ ນະ ເຫຼົ້າ ໝໍ້ ນ້ອຍ ຫັ້ນ ນະ
[264.545]
<no-speech>
[265.975]
(()) ຊອກ ຢາດີ ບໍ່ ຮະ
[268.935]
<no-speech>
[270.265]
ເອີ ຊອກ ຢາດີ ມາ ນຳ ແດ່
[272.765]
<no-speech>
[275.025]
ເອີ
[275.575]
<no-speech>
[277.565]
ອື ອື ອື ດີ ດີ ດີ
[279.325]
<no-speech>
[280.515]
ເອີ
[280.935]
<no-speech>
[283.905]
ເອີ
[284.435]
<no-speech>
[285.655]
ເອີ
[286.165]
<no-speech>
[290.125]
ໄຄ ແຕ່ວ່າ ໄຄ ແຕ່ວ່າ ເຈົ້າ ໄດ້ ພາສາ ເນາະ
[292.615]
<no-speech>
[297.485]
ອື
[298.925]
<no-speech>
[300.135]
(())
[300.535]
<no-speech>
[303.625]
<no-speech>
[304.175]
<no-speech>
[305.315]
<laugh> ເອີ ເອີ ເອົ໊າ ແນວ ໃດ ກະ ຄ່ອຍ ເປັນ ຄ່ອຍ ໄປ ຫັ້ນ ລະ ໂຍ ເອີຍ ໜ້າທີ່ວຽກງານ ເຮັດ ແນວ ໃດ ມັນ ຈຳເປັນ ເນາະ ເຮັດ ໄປ ຫັ້ນ ລະ ເພື່ອ ຄວາມ ຢູ່ ລອດ ຈັ່ງໃດ ຊັ້ນ ອາ ໃສ
[316.905]
ຢູ່ ລ້າ ລ້າ ມັນ ບໍ່ ໄດ້ ເງິນ ໃດ (())
[320.005]
<no-speech>
[323.055]
<no-speech>
[323.635]
<no-speech>
[327.905]
(())
[328.485]
<no-speech>
[330.785]
ອື ອື ດີ ດີ ຊົມເຊີຍ ຊົມເຊີຍ ຊົມເຊີຍ ຊົມເຊີຍ ຊົມເຊີຍ ເອີ ຄັນ ຖ້າວ່າ ໂອ້ (())
[336.955]
<no-speech>
[337.895]
ອື ກະ ລົມ ເຈົ້າ ເທົ່ານີ້ ແລ້ວ ເພາະວ່າ (()) ເຂົາເຈົ້າ ອັດ ອັນ ນັ້ນ ຢູ່ ນີ້ ເດ (())
[342.825]
<no-speech>
[343.675]
<no-speech>
[344.355]
<no-speech>
[347.355]
ຫວາ (()) ຈັ່ງວ່າ ບໍ່ ບໍ່ ທັນ ຕັດ ເທື່ອ ໃດ ລະ ເພິ່ນ ວ່າ ເປັນ ຈັ່ງໃດ ຮອດ ເວລາ ລະ ເຂົາເຈົ້າ ຊິ ຕັດ ດອກ ຊັ້ນ ເດ ເຂົາເຈົ້າ ວ່າ ຊັ້ນ ເດ <laugh> ເອີ ເຂົາເຈົ້າ ເຂົາເຈົ້າ ວ່າ
[359.285]
ເຂົາເຈົ້າ ກະ ມາ ຂໍ (()) ເນາະ
[361.125]
<no-speech>
[364.605]
ເອີ (())
[366.125]
<no-speech>
[367.755]
ບໍ່ ບໍ່ ທັນ ເວົ້າ ເຂົາເຈົ້າ ອັດ ເອງ ນະ ມັນ ບໍ່ ທັນ ອັນ ນັ້ນ ເທື່ອ ເຂົາເຈົ້າ ຍັງ ອັດ ຢູ່
[371.595]
<no-speech>
[372.425]
(())
[372.825]
<no-speech>
[374.755]
ເອີ ຄືຊິ ໄດ້ ຫັ້ນ ລະ ເພາະວ່າ ມັນ ບໍ່ ທັນ ອັນ ນັ້ນ ເດ ເຂົາເຈົ້າ ຫາກ ຊິ ຕັດ ບາດ ຮອດ ເວລາ ແລ້ວ ເຂົາເຈົ້າ ຫາກ ຊິ ຕັດ ເດ
[380.565]
<no-speech>
[381.555]
ບໍ່ ບໍ່ ທັນ ຮອດ ເວລາ ລະ ເຂົາເຈົ້າ ກະ ບໍ່ ຕັດ ເທື່ອ ຍັງ ລົມ (())
[385.575]
<no-speech>
[386.775]
(()) ເອີ ເອີ ເອີ ແຕ່ວ່າ ເຮົາ ກະ ລົມ ກັນ ຈັກໜ້ອຍ ເນາະ ບໍ່ ອັນ ນັ້ນ ຕີ໊ ບໍ່ ຟ້າວ ຫຍັງ ຕິ ຮຶ
[394.575]
<no-speech>
[401.375]
ເອີ ເອີ ເອີ ຈີນ ກະ ຈີນ ຕົວະ ບຶດດຽວ ບໍ່ ທັນ
[404.585]
<no-speech>
[405.805]
(())
[407.335]
<no-speech>
[408.865]
(())
[409.345]
<no-speech>
[410.665]
ເອີ ອື ອື ອື
[412.315]
<no-speech>
[413.945]
ໂອ້
[414.825]
<no-speech>
[416.795]
(())
[417.345]
<no-speech>
[418.365]
<no-speech>
[419.185]
<no-speech>
[425.365]
ເອີ ເອີ
[426.105]
<no-speech>
[427.895]
ເອີ ດີ ດີ ດີ ທຳ ອັນ ເອື້ອຍ ບໍ່ ໄດ້ ໄປ ນຳ ຕິ ໄປ ແຕ່ ຜູ້ດຽວ ຕິ
[433.555]
<no-speech>
[443.905]
ໂອ ໂອ ແປວ່າ ແປວ່າ (())
[448.365]
<no-speech>
[449.865]
(())
[450.215]
<no-speech>
[452.705]
ອຶ
[453.335]
<no-speech>
[458.605]
(())
[458.975]
<no-speech>
[461.175]
(())
[461.565]
<no-speech>
[464.545]
(())
[465.055]
<no-speech>
[466.335]
ໜາວ ຫວາ ຢູ່ ພຸ້ນ ເນາະ
[467.425]
<no-speech>
[477.135]
ຢູ່ ວຽງ ນີ້ <hes> ກຳລັງ ຄຶ້ມ ຢູ່ ໄດ້ ດຽວນີ້ ນະ ຟ້າ ຄຶ້ມ ຄຶ້ມ ຄຶ້ມ ຫຼາຍ ຢູ່ ພຸ້ນ ພຸ້ນ ແຈ້ງ ດີ ຢູ່ ຫວາ ຟ້າ ແຈ້ງ ດີ ບໍ່
[485.765]
<no-speech>
[489.905]
ໂອ ປອດ ໂປ່ງ ຢູ່ ເນາະ ອາກາດ ດີ ໄດ້ ເນາະ ກາງຄືນ ເນາະ
[493.085]
<no-speech>
[493.905]
ຮວ້າຍ ຕອນ ແລງ
[495.785]
<no-speech>
[496.825]
ຕອນ ແລງ ກະ ໄດ້ ອັນ ນັ້ນ ກະ ເຮັດ ຢູ່ ຕິ ຍົກ ຈອກ ຍົກ ຫຍັງ ຢູ່ ຕິ ຢູ່ ພຸ້ນ
[499.905]
<no-speech>
[501.845]
<laugh> ເອີ ເອີ ເອີ <laugh>
[507.125]
<no-speech>
[510.755]
<laugh> ແຕ່ວ່າ ຍັງ ຍັງ ຍັງ <hes> ຍັງ ອັນ ນັ້ນ <laugh> ເອີ ເອີ ແຕ່ວ່າ ຍັງ (())
[518.135]
<no-speech>
[520.265]
<no-speech>
[520.645]
<no-speech>
[523.865]
ໂອ ຫາກໍ່ ໄປ ໃໝ່ ເນາະ ຊັ້ນ ເນາະ
[526.825]
<no-speech>
[527.675]
ໄປ ດົນ (())
[528.925]
<no-speech>
[538.745]
<no-speech>
[539.205]
<no-speech>
[540.585]
ເອີ
[541.205]
<no-speech>
[544.255]
ເອົາ ຊັ້ນ ເດີ ອ້າຍ ໂຍ ເນາະ ອ້າຍ ໂຍ ເນາະ ອ້າຍ ໂຍ (()) <hes> ເອີ ເອົາ ເປັນ ຈັ່ງໃດ
[552.535]
<no-speech>
[554.565]
ເອີ ອື ອື ອື <int> ເອີ ມີ ແຕ່ວ່າ <no-speech> ອື ອື
[559.095]
<no-speech>
[562.635]
ເຈົ້າ ເຈົ້າ ເຈົ້າ ເອົ້າ ຂອບໃຈ ເດີ ອ້າຍ ໂຍ ເດີ ຂອບໃຈ ຫຼາຍ ຫຼາຍ ເດີ
[565.395]
<no-speech>
[566.205]
ໃຈ ເດີ (())
[568.165]
<no-speech>
[568.960]
