[0.000]
<no-speech>
[4.955]
ອາໂຫຼ ສະບາຍດີ ອ້າຍ ເບາະ ນີ້
[7.405]
<no-speech>
[9.865]
ໂອ ເອີ ເປັນ ຈັ່ງໃດ ໜໍ່ ບໍ່ ໄດ້ ໄປ ການ ບໍ່
[14.155]
<no-speech>
[15.535]
<no-speech>
[15.905]
<no-speech>
[17.565]
ໂອ ພັກຜ່ອນ ບໍ່ ຊັນ
[18.825]
<no-speech>
[21.655]
ໂອ ເປັນ ຈັ່ງໃດ ຜັກ ຜ່ອນ ບໍ່ ມາ ຫາ ອ້າຍ ແດ່ ມາ ຫຼິ້ນ ນຳ ກັນ ແນ່ ແມ
[25.815]
<no-speech>
[30.295]
ຫາ
[30.945]
<no-speech>
[33.225]
ໂອ <no-speech> ຮະ ບໍ່ ໄດ້ ເມືອ ບ້ານ ເບາະ
[36.635]
<no-speech>
[39.915]
ຫວາ
[40.555]
<no-speech>
[42.085]
ໂອ
[43.485]
<no-speech>
[44.675]
ຫັກ ກ່ອນໜ້ານີ້ ເມືອ ຢູ່ ຕີ໊
[46.715]
<no-speech>
[47.815]
<no-speech>
[48.215]
<no-speech>
[49.825]
ອື
[50.935]
<no-speech>
[51.885]
ເອີ ຊ່ວງ ເມືອ ຫັນ ຢູ່ ທາງ ບ້ານ ຝົນ ບໍ່ ໄດ້ ຕົກ ເບາະ
[55.055]
<no-speech>
[58.375]
ເອີ ບໍ່ ໄດ້ ໄປ ກ້ານ ອື່ງ ຫວາ
[61.495]
<no-speech>
[65.365]
<laugh> ມື້ອື່ນ ໄປ ການ ໄດ້ ເນາະ
[68.685]
<no-speech>
[72.055]
ເອີ ເປັນ ຈັ່ງໃດ ເກາະ <hes> ໄກ່ ໂຕ ເອົາ ເມືອ ນຳ ທ້າວ ບຸນ ນະ
[77.825]
<no-speech>
[79.665]
ຍັງ ລ້ຽງ ຢູ່ ຕີ໊
[80.695]
<no-speech>
[82.355]
ເອີ ຍັງ ລ້ຽງ ຢູ່ ຕີ໊
[84.015]
<no-speech>
[86.055]
ເອີ ອື ອື ອື ອື ອື <breath> ຈັ່ງໃດ ວຽກງານ ນະ ກະ ກໍ່ ໄປ ສະດວກ ຢູ່ ຕີ໊
[93.475]
<no-speech>
[95.365]
ເອີ ພະຍາຍາມ ໄປ ຫັ້ນ ແຫຼະ ຈັກໜ້ອຍ ກະ ເປັນ ພະນັກງານ ດີເດັ່ນ ນຳ ເຂົາ ດອກ <laugh>
[102.815]
<no-speech>
[103.845]
ຈັ່ງໃດ ການຢູ່ ການກິນ ເດ່ ອຸດົມສົມບູນ ຢູ່ ຕີ໊
[107.705]
<no-speech>
[111.815]
ເອີ
[112.955]
<no-speech>
[115.145]
ເພິ່ນ ຂຶ້ນ ເງິນ ເດືອນ ແລ້ວ ຕີ໊ ເບາະ
[116.525]
<no-speech>
[119.985]
ເອີ ເພິ່ນ ຂຶ້ນ ໃຫ້ ລະ ຕີ໊
[121.195]
<no-speech>
[123.515]
ເອີ
[124.515]
<no-speech>
[125.535]
ອື ອື ອື ຄ່ອຍ ໄປ ຫັ້ນ ແຫຼະ ຄ່ອຍ ສ້າງ ຜົນງານ ໄປ
[130.015]
<no-speech>
[131.265]
ເປັນ ຈັ່ງໃດ ໝໍ ຍາ ນະ ບໍ່ ໄດ້ ໄປ ຫາ ກັນ ຕີ໊
[133.815]
<no-speech>
[139.605]
ຫວາ
[140.325]
<no-speech>
[141.665]
ເອົາ ຊ່ວງ ນີ້ ບໍ່ ໄດ້ <hes> ຊຸມແຊວ ຕີ໊
[144.575]
<no-speech>
[146.435]
ກັບ ຍາ ນະ
[147.515]
<no-speech>
[149.685]
ເອີ ຫວ່າງ ຫວ່າງ ມາ ເຫຼັ້ນ ນຳ ກັນ ແນ່ ແມ ເຮີຍ
[153.305]
<no-speech>
[157.555]
<no-speech>
[158.315]
<no-speech>
[160.575]
ເອີ <hes> ປານ ໃດ ວ່າ ຊິ ຊື້ ລົດ ໃໝ່ ຫັນ
[165.815]
<no-speech>
[171.185]
ໂອະ ເພິ່ນ ໃຫ້ ໃຊ້ ລະ ຫວາ
[172.725]
<no-speech>
[176.685]
ເອີ ດີ ລະ ດີ ລະ ແຕ່ ເພິ່ນ ໃຫ້ ຄ່ອຍ ໃຫ້ ຈ່າຍ ຜ່ອນ ຕີ໊
[180.845]
<no-speech>
[188.045]
ເອີ ລົດ ຄັນ
[189.135]
<no-speech>
[191.425]
ເອີ ລົດ ຄັນ ເກົ່າ ມັນ
[193.135]
<no-speech>
[194.575]
ຂີ່ ບໍ່ ໄດ້ ຫວາ ໃຊ້ ບໍ່ ໄດ້ ຫວາ
[195.985]
<no-speech>
[201.045]
ໂອ້
[202.645]
<no-speech>
[203.565]
ເອີ ໂຕ ພັກ ຢູ່ ໃສ ເກາະ
[206.025]
<no-speech>
[208.305]
ຫາ
[210.035]
<no-speech>
[211.245]
ຜັກ ນຳ ຕູ້ ພໍ່ ຫັ້ນ ຫວາ
[214.115]
<no-speech>
[216.705]
ກະດຽວວ່າ ຄືວ່າ ຊິ ໄປ ເຊົ່າ ບ້ານ ພັກ ຢູ່ <hes> ດົງ ນາ ສົກ ປ່າ ຫຼວງ
[222.645]
<no-speech>
[231.845]
ເອີ ກະ ຢູ່ ນຳ ເພິ່ນ ຫັ້ນ ແຫຼະ ເພິ່ນ ຢູ່ ຜູ້ດຽວ ເນາະ
[234.075]
<no-speech>
[235.365]
ໂອ ຮູ້ ລະວ່າ ກະ ໄດ້ ໜຶ້ງ ເຂົ້າ ໜຶ້ງ ນ້ຳ ຊ່ອຍ ເພິ່ນ
[238.935]
<no-speech>
[240.755]
ຮາໂຫຼ ລາວ ບໍ່ ໄດ້ ເມືອ ບ້ານ ຫວາ
[242.975]
<no-speech>
[243.905]
<no-speech>
[244.325]
<no-speech>
[246.885]
ເອີ ເອີ
[248.055]
<no-speech>
[248.965]
ເອີ <hes> ເປັນ ຈັ່ງໃດ ເກາະ ແບ້ ເຂົາ ວ່າ ຊິ ຂາຍ ຫັນ
[252.905]
<no-speech>
[254.095]
ວ່າ ໂລ ທໍ່ໃດ ໂລ ຊາວພັນ ແມ່ນ ແທ້ ຫວາ
[257.085]
<no-speech>
[264.275]
ຫວາ
[264.875]
<no-speech>
[266.145]
ເອີ
[266.915]
<no-speech>
[271.735]
ອື <no-speech> ເອົາ ມື້ກີ້ ຍັງ ເຫັນ ບັກ ມືດ ຂີ່ ລົດ ກາຍ ຂຶ້ນ ມາ ຢູ່ ຊັ້ນ
[276.195]
<no-speech>
[282.165]
ຂຶ້ນ ມາ ບ້ານ ເຮົາ ພີ້ ແລະ
[283.265]
<no-speech>
[284.125]
ເອີ <no-speech> ເຊື່ອ ວ່າ ໂຕ ຢູ່ ນຳ ບັກ
[288.115]
<no-speech>
[289.755]
ຮະ
[290.385]
<no-speech>
[293.325]
ເລ້ ໃດ
[294.315]
<no-speech>
[298.535]
ໂອ້ ອ້າຍ ບໍ່ ຮູ້ ແຫຼະ ເນາະ
[301.245]
<no-speech>
[304.105]
<no-speech>
[305.445]
<no-speech>
[308.315]
ໂອ້ ຕ່າງ ແຂວງ
[310.145]
<no-speech>
[313.865]
ອື ຍາ ບໍ່ ໄດ້ ຢູ່ ຫັ້ນ ຫວາ ຊັ້ນ
[317.175]
<no-speech>
[321.305]
ເອີ
[322.895]
<no-speech>
[323.795]
ອຶ ຢູ່ ບ້ານ ແຫຼະ ເນາະ ພັກຜ່ອນ ເນາະ ວັນ ທິດ ພໍ່ແມ່ ເນາະ
[326.155]
<no-speech>
[327.535]
<no-speech>
[330.055]
<no-speech>
[331.215]
<hes> ຄື ບໍ່ ມາ ຫາ ອ້າຍ ໂຕ ແດ່
[334.125]
<no-speech>
[335.215]
ອ້າຍ ບຸນ ໂຕ ນະ ຮູ້ ຂ່າວ ລະ ຫວາ
[336.875]
<no-speech>
[338.055]
ເອີ້
[338.795]
<no-speech>
[340.065]
ຮະ ເອົ໊າ ກ່ອນ ປີ ໃໝ່ ຫັນ <hes> ຂີ່ ລົດ <hes> ໄປ ຕົກ ຄອງເໝືອງ ເດ່
[345.535]
<no-speech>
[346.525]
ໄສ້ ແຕກ ເດ້ ແບບ ວ່າ <hes>
[348.205]
<no-speech>
[349.225]
ໜັກ ຕົວະ
[349.895]
<no-speech>
[352.875]
ໂອ້ ອ້າຍ ວ່າ ຄັນ ຕົກ ຄອງເໝືອງ ກາ ຄືຊິ ແມ່ນ <laugh> ນອນ ຢູ່ ຕະ ແຄງ ຄືຊິ ແມ່ນ ເມົາ ລະ
[358.495]
<no-speech>
[360.465]
ພັດ ຫ້ວຍ ບໍ່ ແມ່ນ ຍາວ ເປັນ ຄືບ ພຸ້ນ ຫວາ
[363.695]
<no-speech>
[365.615]
ວ່າ ລະ ກາ ຫຍິບ ບ່ອນ ໄສ້ ຫັ້ນ ນະ ໄສ້ ແຕກ ນະ ແຫຼະ
[369.625]
<no-speech>
[373.305]
ໃຜ ຮະ
[374.815]
<no-speech>
[375.685]
ເອີ ກາ ໄປ ໄດ້ ມາ ໄດ້ ດີ ຫວ່າງ ຫວ່າງ ກະ
[377.685]
<no-speech>
[378.945]
ເອີ ເອີ ກາ ໄຄ ແດ່ ແລ້ວ
[381.135]
<no-speech>
[383.105]
ຫວ່າງ ຫວ່າງ ກາ ມາ ຫຼິ້ນ ນຳ ແນ່
[384.825]
<no-speech>
[386.935]
ຢູ່ ບ່ອນ
[387.555]
<no-speech>
[388.585]
ອື
[389.435]
<no-speech>
[390.415]
ຫວາ
[391.135]
<no-speech>
[392.115]
<no-speech>
[392.525]
<no-speech>
[396.155]
ໂອ້ ຄັນ ຊ່ວງ ນີ້ ເຂົາເຈົ້າ ເອົາ ລົດ ເຂົ້າ ແມ່ນ ບໍ່ <no-speech> ເອົາ ລົດ ເຂົ້າ ຫຼາຍ ຫວະ
[401.225]
<no-speech>
[404.815]
ເອີ ເອີ
[406.055]
<no-speech>
[409.575]
ອື
[410.735]
<no-speech>
[412.015]
ເອີ ຊ່ວງ ນີ້ ວຽກ ກະ ບໍ່ ຄ່ອຍ ຂາດ ເນາະ
[414.455]
<no-speech>
[417.715]
ເອີ້
[418.905]
<no-speech>
[420.305]
ເອີ ໂຕ ກັບ ບັກ ຍາ ກະ ໄດ້ <hes> ຮ່ວມ ວຽກ ນຳ ກັນ ຢູ່ ບ່ອນ ດຽວ ກັນ ຫັນ ຕີ໊
[425.035]
<no-speech>
[429.635]
ເອີ້ <no-speech> ຈັ່ງໃດ ກິນ ເຂົ້າ ກິນ ນ້ຳ ກະ ກິນ ນຳ ກັນ ຢູ່ ຕີ໊ ຍາມ ມື້ສວາຍ ຍາມ ນັ້ນ
[433.815]
<no-speech>
[435.525]
<no-speech>
[436.115]
<no-speech>
[440.215]
ໂອ້ ກະ ໄດ້ ໄປ ຊຸມແຊວ ນຳ ກັນ ຢູ່ ຕີ໊
[443.695]
<no-speech>
[449.535]
ເອີ້ ມີ ບ່ອນ ດີ ດີ ເຮັດ ກະ ໂທ ຫາ ອ້າຍ ແດ່ ແມ <no-speech> ພໍ ສີ ໄດ້ ມີ ບ່ອນ ໄປ ງົມ ນຳ <laugh>
[456.885]
<no-speech>
[460.235]
ຮຶ ຮວ້າຍ ຄໍ ຕົກ ຢູ່ ຫວາ
[462.745]
<no-speech>
[464.965]
ຮຶ
[466.055]
<no-speech>
[467.685]
ເອີ (()) ເລີກ ເດີກ
[470.595]
<no-speech>
[473.045]
ເອີ ເອີ ເອີ ເອີ ເອີ ເອີ ລຳຄານ ອ້າຍ ກະ ເລີກ ວຽກ ເດີກ ອ້າຍ ກະ ຄັນວ່າ ຊິ ມາ ເຫຼັ້ນ ນຳ ກະ
[479.185]
<no-speech>
[480.255]
ຄືວ່າ ຫັ້ນ ແຫຼະ ວັນເສົາ ວັນ ທິດ ເຮົາ ກະ ບໍ່ ວ່າງ ຫັ້ນ ນ່າ ກະ ວ່າ ຊິ ມາ ເຫັນ ນຳ ຢູ່
[486.105]
<no-speech>
[486.925]
ຖ້າ ໂອກາດ ໜ້າ ພຸ້ນ ລະ ອ້າຍ ຈັ່ງ ຊິ ໄປ ເຫຼັ້ນ ນຳ
[489.235]
<no-speech>
[490.185]
ລະ ກາ ຄົບ ທີມ ເຮົາ ຄື ເກົ່າ ຫັນ ລະ
[492.375]
<no-speech>
[493.975]
ແຕ່ວ່າ ອ້າຍ ກະ ຊ່ວງ ນີ້ ຫັນ ບໍ່ ເຫັນ <hes> ໝໍ ມືດ ກັບ ໝໍ ຍາ ມາ ເຫຼັ້ນ ນຳ ອ້າຍ ກະ
[499.455]
<no-speech>
[500.445]
<no-speech>
[501.275]
<no-speech>
[502.375]
ອື ຈັກ ລະ ຈັ່ງໃດ ມິດ ໄປ ເລີຍ
[504.815]
<no-speech>
[507.465]
ແຕ່ ກີ້ ຄືວ່າ ມາ ດີ ແທະ ຊ່ວງ ນີ້ ອ້າຍ
[510.165]
<no-speech>
[516.335]
ໃຜ
[516.975]
<no-speech>
[520.935]
ໂອ <laugh> ໂລກ ລໍ ຊໍ <laugh> ຄື ໂລກ ມ_ຊ <laugh> ຮະ
[528.335]
<no-speech>
[532.625]
ໂອ້ ພະຍາດ ຕັບ ໂຕ ເກົ່າ ໄດ້ ຫັນ ເນາະ
[537.495]
<no-speech>
[538.745]
<no-speech>
[540.375]
<no-speech>
[541.375]
<no-speech>
[542.035]
<no-speech>
[543.435]
ພະຍາດ ຕັບ ໂຕ ເກົ່າ ແມ່ນ ບໍ່
[545.055]
<no-speech>
[546.555]
<no-speech>
[547.085]
<no-speech>
[548.275]
ອື ອື
[549.225]
<no-speech>
[551.205]
ອື ອື ອື ອື ອື ອື
[552.975]
<no-speech>
[553.995]
ຫວະ ບໍ່ ແຕະ ຈັກໜ້ອຍ ແມ່ນ ບໍ່
[557.825]
<no-speech>
[558.975]
ສົມພໍ ແລະ ບໍ່ ເຫັນ ມາ ຫາ ອ້າຍ ຊັ້ນ ດອກ
[561.705]
<no-speech>
[564.165]
ເອີ ແຕ່ ກີ້ ຜ່ານມາ ຄືວ່າ ມາ ດີ ຊັ້ນ ນະ ວັນເສົາ ວັນ ທິດ ທິດ ລົງ ມາ ໂລດ
[568.825]
<no-speech>
[570.645]
ລະ ດຽວນີ້ ຫັນ ມິດ ບໍ່ ເຫັນ ມາ ລະ
[572.495]
<no-speech>
[574.735]
<no-speech>
[575.485]
<no-speech>
[577.045]
<no-speech>
[577.395]
<no-speech>
[578.225]
ອັນ ໃດ ຄືວ່າ ແຊວ ແທະ ເຮີຍ ຫັນ
[579.805]
<no-speech>
[583.635]
ຮຶ
[584.215]
<no-speech>
[585.665]
ໂອ້ ຫ້ວຍ ກະດຽວວ່າ ລູກ ໂຕ <laugh> ລະ ເຂົາເຈົ້າ ແມ່ນ ບໍ່ <laugh> ເດັກນ້ອຍ ຫຼາຍ ຫວະ
[595.905]
<no-speech>
[597.515]
(())
[598.395]
<no-speech>
[600.020]
