[0.000]
<no-speech>
[0.485]
<no-speech>
[1.145]
<no-speech>
[2.705]
<no-speech>
[5.885]
<no-speech>
[7.655]
<int> ແມ່ນແລ້ວ
[9.215]
<no-speech>
[15.325]
ບໍ່ ບໍ່ ໄດ້ ໄປ ມື້ ນີ້
[16.645]
<no-speech>
[19.875]
ເອີ ພັກຜ່ອນ
[20.855]
<no-speech>
[27.795]
ໂອ້ຍ ຄາ ວຽກ ເນາະ ເວົ້າ ນະ
[29.405]
<no-speech>
[30.605]
ຊັກ ເຄື່ອງ ຊັກ ຂອງ ຢູ່ ເຮືອນຢູ່ ຊານ ນີ້ ແຫຼະ
[32.795]
<no-speech>
[38.005]
ບໍ່ ບໍ່ <laugh> ບໍ່ ໄດ້ ເມືອ ບ້ານ ບໍ່ ຮູ້ ຊິ ເຂົ້າ ສອງ ທິດ ແລ້ວ ຫວາ
[41.155]
<no-speech>
[42.205]
ສອງ ທິດ ລະ ເດ ບໍ່ ໄດ້ ເມືອ ບ້ານ
[43.765]
<no-speech>
[44.825]
<no-speech>
[46.165]
<no-speech>
[48.105]
ອື
[51.245]
<no-speech>
[53.105]
<no-speech>
[53.515]
<no-speech>
[56.785]
ຝົນ ຫວາ ຕົກ ຢູ່
[58.425]
<no-speech>
[59.835]
ແຕ່ ກະ ບໍ່ ແຮງ
[60.785]
<no-speech>
[63.305]
ບໍ່
[65.205]
<no-speech>
[66.935]
ອື ອື
[70.885]
<no-speech>
[72.065]
<no-speech>
[73.555]
<no-speech>
[75.675]
<no-speech>
[76.785]
<no-speech>
[79.065]
ຢູ່ ບ້ານ ພຸ້ນ ແຫຼະ ຢູ່ ເມືອງ ສັງທອງ
[81.075]
<no-speech>
[82.525]
ອື ກະ ລ້ຽງ ໄວ້ ທຳມະດາ ແຫຼະ ລ້ຽງ ອືມ ລ້ຽງ ຢູ່
[86.255]
<no-speech>
[90.695]
<no-speech>
[91.125]
<no-speech>
[92.735]
ເອີ ກະ ກ້າວໜ້າ ຢູ່ <no-speech> ເອີ ກະ ສະດວກ ຢູ່ <no-speech> ອື ອື <no-speech> ກ້າວໜ້າ <laugh>
[103.205]
<no-speech>
[106.205]
<no-speech>
[107.265]
ການຢູ່ ການກິນ ກະ <hes> ກະ ບໍ່ປານໃດ ດອກ <laugh> ການຢູ່ ການກິນ ກະ ສົມມາພາຄວນ ຢູ່
[114.805]
<no-speech>
[116.185]
ເງິນ ເດືອນ ຫວາ
[119.065]
<no-speech>
[120.555]
ຂຶ້ນ ແລ້ວກະ ບໍ່ ຂຶ້ນ ຫຼາຍ ນະ <no-speech> ຂຶ້ນຢູ່ ແຕ່ ບໍ່ ຂຶ້ນ ຫຼາຍ <no-speech> <sta> ອື ອື ແມ່ນ ຫວາ
[132.535]
<no-speech>
[133.865]
ເອີ ກໍ່ ໄປ ຢູ່ ມື້ວານ ນີ້ ກໍ່ ໄປ ວຽກ ນອກ ນຳ ກັນ ມື້ວານ ກະດາຍ
[138.445]
<no-speech>
[139.445]
ຫົວໜ້າ ສົ່ງ ໄປ ມື້ວານ ນີ້ <hes>
[142.015]
<no-speech>
[145.785]
ບໍ່ ບໍ່ ຊູ່ມື້ ນີ້ <no-speech> ບໍ່ ຄ່ອຍ ໄດ້ ຊຸມແຊວ ປານ ໃດ ບໍ່ <no-speech> <sta> ອື ອື ມື້ ໜ້າ ກ່ອນ ແມ ເພາະວ່າ ຊ່ວງ ນີ້ ເພິ່ນ ກະ ຫາ
[157.525]
ແຕ່ ເອົາ ລົດ ເພ ທຽວ ການ (())
[159.495]
<no-speech>
[162.865]
<hes> ຢາກ ສັບສົນ ລົດ ແຫຼະ ຖືກ ຫົວໜ້າ ທັງ
[165.805]
<no-speech>
[166.915]
ບໍ່ ໂຕ ນີ້ ເພິ່ນ ລົດ ນີ້ ບໍລິສັດ ເພິ່ນ ໃຫ້ ຂີ່ ຕິ ລົດ <no-speech> ແຕ່ ຍັງ ບໍ່ ຮອດ ເປັນ ພະນັກງານ ເຕັມໂຕ ຜ່ອນ ດາວ ບໍ່ ໄດ້ ໃຫ້ ໃຊ້ ແລ້ວ
[174.825]
<no-speech>
[176.745]
<no-speech>
[178.245]
<no-speech>
[179.775]
ອືມ
[180.235]
<no-speech>
[182.285]
ບໍ່ ບໍ່ ໄດ້ ຜ່ອນ ບໍ່ ໄດ້ ຫຍັງ ມີ ລົດ ບໍລິສັດ ລົດ ຮັບ ໃຫ້ ຊື່ ນາ ເພິ່ນ ເອົາມາ ໃຫ້ ຂີ່ ເອົາມາ ໃຫ້ ຫຍັງ
[186.475]
<no-speech>
[187.465]
ໃຫ້ ຂີ່ ທຽວ ການ ເພາະວ່າ ມັນ ຍາກ <hes>
[189.485]
<no-speech>
[195.285]
ອ້າຍ ພໍດີ ບໍ່ ຄັນ ຄັນ ເກົ່າ ອ້າຍ ເອົາໄປ ທຽວ ການ ອ້າຍ ໄດ້ ການ ລະ <no-speech> ເຮັດ ວຽກ ລະ ເພິ່ນ ກະ ທຽວ
[201.515]
<no-speech>
[206.395]
ຢູ່ ໜອງ ໜຽວ ພຸ້ນ
[207.395]
<no-speech>
[210.615]
ຢູ່ ໜອງ ໜຽວ
[211.565]
<no-speech>
[213.155]
<no-speech>
[213.505]
<no-speech>
[214.795]
ເອີ້
[215.535]
<no-speech>
[222.655]
ວ່າ ຊິ ວ່າ ຊິ ໄປ ຫັ້ນ ແຫຼະ ທີ່ ແລກ ວ່າ ບາດ ນີ້ ເພິ່ນ ມາ ວ່າ ພໍດີ ມາ ຮອດ ເຮືອນ ຕູ້ ພໍ່ ເພິ່ນ ລົມ ວ່າ ບໍ່ ຢາກ ໄປ ເພິ່ນ ຢາກ ໃຫ້ ຢູ່ ນຳ ເພິ່ນ ຫັ້ນ
[230.715]
<no-speech>
[232.795]
ອື
[241.145]
<no-speech>
[243.435]
<sta> ດົນ ດົນ ລາວ ກະ ເມືອ ເທື່ອ ໜຶ່ງ
[245.695]
<no-speech>
[247.315]
<no-speech>
[248.485]
<no-speech>
[249.775]
<sta> ຢາກ ໄດ້ ຫວາ <no-speech> ຈັກ ຂ້ອຍ ກະ ບໍ່ ໄດ້ ຕິດຕໍ່ ຫາກະ ບໍ່ ໄດ້ ຕິດຕໍ່ ຫາ ເຂົາເຈົ້າ ເລີຍ ນະ ເພາະວ່າ ມັນ
[261.365]
<sta> ແຕ່ ຄ່າ ນັ້ນ ມາ ກະ ບໍ່ ໄດ້ ຕິດຕໍ່ ເລີຍ <no-speech> ໂຕ ໂທ ໂທ ໄປ ຖາມ ເຂົາເຈົ້າ ກະ ຊິ ຮູ້ ຢູ່ ວ່າ ຍັງ ກິໂລ ຊາວພັນ ຄື ເກົ່າ ເບ໊າະ ຫຼືວ່າ ຈັ່ງໃດ
[271.365]
<no-speech>
[273.235]
<no-speech>
[274.725]
<no-speech>
[276.315]
<no-speech>
[277.555]
<no-speech>
[278.625]
ກາຍ ຂຶ້ນ ມາ ພີ້ ຫວາ
[280.865]
<no-speech>
[282.075]
ມາ ບ້ານ ພີ້ ຕວ່າ
[283.135]
<no-speech>
[284.465]
ອື
[285.285]
<no-speech>
[286.235]
ຂ້ອຍ ກະ ມາ ນຳ ລາວ ຂ້ອຍ ກະ ເຮັດ ວຽກ ຢູ່ ພຸ້ນ ໝົດ
[288.465]
<no-speech>
[290.265]
ບໍ່ ແຕ່ ເຮືອນ ອ່ານ ເລ້
[291.825]
<no-speech>
[294.545]
ເອົາ ເລ້ ຢູ່ ຫັ້ນ ເດ ປາກປ່າສັກ
[297.995]
<no-speech>
[302.205]
ອື ອື <no-speech> ເປັນ ເຮັດ ແອ ຫັ້ນ ນ່າ <no-speech> ເຮັດ ແອ <hes>
[307.325]
<no-speech>
[311.395]
ອືມ ສັ່ງ ແອ ນາ
[312.695]
<no-speech>
[316.725]
ບໍ່ ບໍ່
[319.805]
<no-speech>
[321.755]
<no-speech>
[322.475]
<no-speech>
[326.065]
ອື
[327.585]
<no-speech>
[330.395]
<no-speech>
[330.755]
<no-speech>
[335.885]
ແມ່ນ ຜູ້ໃດ ແດ່ ອ້າຍ ບຸນ ຫວາ
[337.105]
<no-speech>
[338.105]
ຈັກ ແລ້ວ ບໍ່ ຮູ້ ໃດ ເປັນ ຈັ່ງໃດ
[340.495]
<no-speech>
[342.175]
ເປັນ ຈັ່ງໃດ
[342.935]
<no-speech>
[346.755]
ຮວ້າຍ
[347.385]
<no-speech>
[348.955]
ໂຕ ເມົາ ເມົາ ແຮງ ບໍ່ ໄປ ຕົກ ຄອງ ຄອງເໝືອງ ນີ້ <laugh>
[353.585]
<no-speech>
[357.005]
<no-speech>
[358.065]
<no-speech>
[360.085]
ອື
[360.845]
<no-speech>
[365.285]
ຫວາ
[365.955]
<no-speech>
[367.375]
ອື
[371.285]
<no-speech>
[372.185]
ດຽວນີ້ ເຊົາ ແລ້ວ ຕີ໊ ດຽວນີ້
[373.565]
<no-speech>
[375.255]
ດຽວນີ້ ລາວ ເຊົາ ແລ້ວ ຕີ໊ ເບາະ ດຽວນີ້ <hes>
[378.865]
<no-speech>
[382.395]
ອື
[383.985]
<no-speech>
[385.925]
ເອີ ວ່າງ ວ່າງ ກະ ຊິ ໄປ ຢູ່ ດອກ ເພາະວ່າ ຊ່ວງ ນີ້ ມັນ ຫຍຸ້ງ ວຽກ ຫຼາຍ <no-speech> ຫາ ເງິນ ໃຊ້ ທຽວ ລົດ <no-speech> ທຽວ ວຽກ ທຽວ ງານ ກ່ອນ <laugh>
[396.105]
<no-speech>
[397.595]
<no-speech>
[398.175]
<no-speech>
[399.115]
<no-speech>
[399.965]
<no-speech>
[400.805]
ລົດ ຢູ່ ບໍລິສັດ ຫວາ <no-speech> ອື ອື
[408.315]
<no-speech>
[410.445]
<no-speech>
[411.335]
<no-speech>
[413.505]
<no-speech>
[414.055]
<no-speech>
[414.895]
ບໍ່ ຄ່ອຍ ຂາດ ແຫຼະ
[417.645]
<no-speech>
[419.365]
ວຽກ ມີ ຕະຫຼອດ
[424.145]
<no-speech>
[425.415]
ກະ ຮ່ວມ ຢູ່ ບ່ອນ ດຽວ ກັນ
[427.625]
<no-speech>
[428.685]
<no-speech>
[429.605]
<no-speech>
[431.995]
<no-speech>
[432.355]
<no-speech>
[433.745]
ເອີ ເອີ ກິນ ລາງເທື່ອ ກະ ຖືກ ລາວ <no-speech> ຖືກ ເວນຍາມ ອັນ ຫຍັງ ລາວ ກະ ບໍ່ ໄດ້ ກິນ ພ້ອມກັນ ໃດ ລາງເທື່ອ ກະ
[439.895]
<no-speech>
[442.125]
ກິນ ເຂົ້າ ຢູ່ ດອກ ບໍ່ ຊິ ໄປ <sta> ອື ກະ ຊຸມແຊວ ຢູ່ ດົນ ດົນ ກະ ລາງເທື່ອ ກະ ຂ້ອຍ ກະ ມີ ວຽກ ໄດ້ ອອກ ໄປ ນອກ ຊີ້ ນະ
[450.595]
<no-speech>
[453.365]
ເອີ <laugh> ໃຫ້ ໃຫ້ ມັນ ອັນ ນັ້ນ ກ່ອນ ໃຫ້ ເງີຍ ຄໍ ໄດ້ ກ່ອນ ວິດ ສາມ ເດືອນ ກ່ອນ <laugh> ໃຫ້ ວິດ ສາມ ເດືອນ ກ່ອນ ຊັ້ນ ດອກ ມັນ
[464.855]
ຊ່ວງ ນີ້ ມັນ ຫຍຸ້ງຍາກ ຫຼາຍ ຊ່ວງ ນີ້ ນະ
[466.965]
<no-speech>
[468.895]
ບໍ່ <hes> ເຮັດ ວຽກ ນາ ໃຫ້ ມັນ ວິດ ສາມ ເດືອນ ກ່ອນ ຊັ້ນ ດອກ
[474.655]
<no-speech>
[475.565]
<no-speech>
[477.465]
<no-speech>
[478.985]
ອື
[479.685]
<no-speech>
[482.275]
ອື
[484.265]
<no-speech>
[485.475]
ໂອ
[486.235]
<no-speech>
[489.665]
ອຶ <no-speech> ອື ອື
[491.435]
<no-speech>
[493.435]
ອື
[494.445]
<no-speech>
[496.355]
<sta> ຫວາ <sta>
[505.425]
<no-speech>
[506.255]
<sta> ຄືວ່າ ຟັງ ວ່າ ເຫຼົ້າ ເບຍ ກະ ບໍ່ ກິນ ຊ່ວງ ນີ້ <no-speech> ກິນ ຢາ ວ່າ ຊັ້ນ ຕົ້ມ ຢາ ວ່າ ຊັ້ນ ກິນ ຢາ ຈັກ (())
[517.915]
<sta> ຢາ ຫຍັງ ເພິ່ນ ເປັນ ໂລກ ອີ່ຫຍັງ ບຸ ອ້າຍ ຍາ ນີ້
[521.575]
<no-speech>
[523.215]
<no-speech>
[523.925]
<no-speech>
[524.955]
<sta> <laugh> ຈັກ ແຫຼະ <no-speech> ເຫັນ ຕົ້ມ ຢອກ ຕົ້ມ ຢາ ໄປ ກິນ ຄືວ່າ ຢາ ຕັບ ປົວ ຕອກ ປົວ ຕັບ ວ່າ ຊັ້ນ ເດ <laugh>
[531.895]
<no-speech>
[533.675]
<sta> (())
[545.365]
<sta> ຄືຊິ ແມ່ນ ແຫຼະ ເຫັນ ຕົ້ມ ຢອກ ຕົ້ມ ຢາ ຢູ່ ຫັ້ນ ເດ <laugh> ຖາມ ວ່າ ເປັນ ຫຍັງ ໂອ ເປັນພະຍາດ ວ່າ ຊັ້ນ ເດ
[554.385]
<no-speech>
[555.245]
<no-speech>
[556.685]
<no-speech>
[558.995]
ເອີ້
[559.785]
<no-speech>
[561.455]
<no-speech>
[573.275]
<sta> ໂອ້ຍ ແຊວ ສຽງ ເດັກນ້ອຍ ໃຫ້ລູກ ເຂົາເຈົ້າ ໄຫ້
[585.135]
ລູກ ເຂົາເຈົ້າ ໄຫ້ ຊັ້ນ ດອກ <sta>
[589.325]
<no-speech>
[590.145]
<laugh> ລູກ ນີ້ ນະ <laugh> ເອີ້
[595.175]
<no-speech>
[596.935]
ກະ ບໍ່ ຫຼາຍ ຜູ້ດຽວ
[599.495]
<no-speech>
[600.220]
