[0.000]
<no-speech>
[11.665]
<no-speech>
[12.085]
<no-speech>
[14.455]
<no-speech>
[15.245]
<no-speech>
[19.515]
<no-speech>
[20.015]
<no-speech>
[22.215]
<no-speech>
[22.975]
<no-speech>
[29.435]
<no-speech>
[29.975]
<no-speech>
[32.615]
<no-speech>
[32.985]
<no-speech>
[35.105]
ຮາໂຫຼ
[37.265]
<no-speech>
[38.305]
ຮາໂຫຼ <no-speech> ມຶງ ຢູ່ ໃສ
[39.915]
<no-speech>
[41.135]
ມຶງ ຢູ່ ໃສ ລະ <int> ເບາະ <no-speech> ຫຼັກ ຫ້າ <no-speech> ໂອ ມຶງ ໄປ ເຮັດ ຫຍັງ
[50.545]
<no-speech>
[53.835]
ມຶງ ໄດ້ ເຮັດ ລະ
[54.695]
<no-speech>
[57.125]
ໂອ <no-speech> ເອີ ມຶງ ໄປ ແວ່ ຮ້ານ <hes> ແມ່ຮ້າງ ຫັ້ນ ຊັ້ນ ດອກ
[61.355]
<no-speech>
[62.925]
ບໍ່ ໄດ້ ໄປ ແວ່ <no-speech> ເອົາ ອີ່ ແມ່ຮ້າງ ມຶງ ຫັ້ນ ນະ
[66.165]
<no-speech>
[67.775]
ຜູ້ສາວ ມຶງ ຫັ້ນ ນະ
[69.185]
<no-speech>
[70.175]
ຫື <no-speech> ບໍ່ ຮູ້ ເບີ ໂທ
[75.745]
<no-speech>
[76.695]
ໂອ
[77.595]
<no-speech>
[79.015]
ເອີ ມຶງ ມຶງ ກະ ຮູ້ ເຮືອນ ມັນ
[80.775]
<no-speech>
[82.825]
ເຮັດ ຫຍັງ ຮູ້ ແທ້ ຮຶ ມຶງ ເຮັດ ຫຍັງ ຢູ່ ຫັ້ນ ມຶງ ເຮັດ ຫຍັງ ກັບ ບັກ ແຫຼ້ ຢູ່ ຫັ້ນ
[87.395]
<no-speech>
[89.295]
<no-speech>
[89.655]
<no-speech>
[91.075]
ເລາະ <no-speech> ເອີ <no-speech> ເອີ ເຂົາ ບໍ່ ໄດ້ ມີ ໄຟ ມີ ຫຍັງ ຫວາ
[95.395]
<no-speech>
[97.855]
<no-speech>
[98.225]
<no-speech>
[99.065]
ເອີ ເອີ ເອີ <no-speech> <hes> ໄຜ່ <no-speech> ກົກ ກົກ ໄຜ່ ຫວາ <hes> ກົກ ຂາມ ຫວາ
[107.295]
<no-speech>
[108.295]
ເບາະ
[108.895]
<no-speech>
[109.725]
ຫື
[110.585]
ເບາະ
[113.255]
ມຶງ ຊິ ໄປ ບໍ່ <no-speech> ຫື <no-speech> ໄປ ບໍ່ ລະ
[117.645]
<no-speech>
[119.995]
<hes> ໂອ້ຍ ເມືອ ເມຍ ຫຍັງ
[125.115]
<no-speech>
[126.845]
ຖ້າ ມຶງ ເມືອ ກະ ໄດ້
[128.225]
<no-speech>
[130.265]
ຊິ <no-speech> ຮະ
[132.435]
<no-speech>
[134.415]
ແມ່ນ ຫຍັງ
[135.135]
<no-speech>
[135.975]
ເອີ
[138.995]
<no-speech>
[139.825]
ເອີ <no-speech> ມຶງ ຮູ້ ເຮືອນ ມັນ ຢູ່
[142.635]
<no-speech>
[144.695]
ເອີ
[145.995]
<no-speech>
[147.515]
ຖ້າ ຢູ່ ແຖວ ໃດ
[149.445]
<no-speech>
[150.625]
ຫື
[151.255]
<no-speech>
[152.415]
ອື <no-speech> ຫວາຍ ກິນ ເບຍ ຖ້າ ມັນ ກະ ເມົາ ແຫຼະ ເນາະ <no-speech> ເອີ ບັກ ຈ່ອຍ ບໍ່ ໄດ້ ໄປ ກັບ ມຶງ ຫວາ <no-speech> ຫື ບັກ ຈ່ອຍ ບໍ່ ໄດ້ ໄປ ກັບ ມຶງ ຫວາ
[164.275]
<no-speech>
[164.965]
<no-speech>
[166.395]
ບັກ ຈ່ອຍ ບັກ ຈ່ອຍ
[167.745]
<no-speech>
[170.175]
ເອີ <no-speech> ເພາະວ່າ ຊິ ໄດ້ ໂທ ຫາ ມັນ ຢູ່ ນີ້ ຖາມ ມັນ ບອກ ມັນ ມາ ເອົາ ເງິນ <hes> ມັນ ຢູ່ ນີ້
[177.565]
<no-speech>
[180.725]
ຮະ
[181.385]
<no-speech>
[182.745]
<no-speech>
[183.125]
<no-speech>
[186.445]
ເອີ
[187.255]
<no-speech>
[189.705]
<laugh> ເອີ ລ້ຽງ ກະ <hes> ກິນ ຢູ່ ຫັ້ນ ແຫຼະ ນຳ ກັນ ແລະ ເບີ ໂທ ມັນ ກະ ຮູ້ ຢູ່ ຕີ
[197.505]
<no-speech>
[199.945]
ເອີ <no-speech> ແລ້ວ ກໍ ບາດ ນັ້ນ ກະ <no-speech> ອື ພາ ອອກ ໄປ <hes> ພາ ອອກ ໄປ ຫາ ໝູ່ ກູ ເລີຍ
[208.465]
<no-speech>
[209.415]
ເອີ ມີ ແຫຼະ ເນາະ
[211.705]
<no-speech>
[212.525]
ບັກ ນັ້ນ ກໍ່ ໄປ ຄືກັນ <no-speech> ເອີ ໄປ ໃສ ກະ ໄດ້ ໜາ ມີ ບ່ອນ ໄປ
[218.085]
<no-speech>
[218.905]
ເຂົາ ຊິ ຖ້າ ຢູ່ ຫັ້ນ
[220.195]
<no-speech>
[221.485]
ມຶງ ເລີກ ຄ່ຳ ພຸ້ນ ຕີ
[223.375]
<no-speech>
[224.545]
ເບາະ
[225.095]
<no-speech>
[225.905]
ເອີ
[226.845]
<no-speech>
[227.675]
ໂອ້ຍ ອ້າຍ ແອ <no-speech> ອ້າຍ ແອ ກະ ລາວ ກະ ບໍ່ ໄດ້ ຢູ່ ເຮືອນ ແນ່ ຫວາ
[231.465]
<no-speech>
[234.515]
ຮະ
[235.205]
<no-speech>
[237.365]
ໂຮ ຊວນ ໄປ ເຮັດ ຫຍັງ ອ້າຍ ແອ <no-speech> ຊວນ ໃຫ້ <no-speech> ລາວ ໄປ ຈົ່ມ ຫັ້ນ ຫວາ <hes>
[243.425]
<no-speech>
[244.565]
ອື <no-speech> ບໍ່
[246.785]
<no-speech>
[248.195]
<laugh> ຮູ້ <no-speech> ເຮັດ ບໍ່ ຮູ້ ຍິນ ຕວ່າ <laugh> ບໍ່ ໄປ ພຸ້ນ <no-speech> ບໍ່ ບໍ່ ໄປ ໄປ ແຖວ ນັ້ນ ພຸ້ນ ໜາ <no-speech> ແຖວ <hes> ພຸ້ນ
[259.525]
ບໍ່ ຮູ້ ຫວາ <hes> ຮ້ານ ຫຼ້າ ນ້ອຍ
[262.235]
<no-speech>
[264.325]
ເບາະ <no-speech> ເອົາ ບັກ ນີ້ ບໍ່ ຮູ້ ຮ້ານ ຫຼ້າ ນ້ອຍ
[267.565]
<no-speech>
[268.555]
ຫຼ້າ ນ້ອຍ ກະ ດອນກອຍ ຫັ້ນ ຕວ່າ <breath> ກາຍ ບ່ອນ ກູ ຢູ່ ແຕ່ ກີ້ ໄປ ຫັ້ນ ນ່າ
[273.925]
<no-speech>
[275.065]
ດົງສະຫວາດ ນະ
[276.155]
<no-speech>
[277.005]
ຮອດ ດົງສະຫວາດ ຮອດ ດອນກອຍ ຫັ້ນ ແຫຼະ
[278.945]
<no-speech>
[280.285]
ຮູ້ ຫວາ
[280.995]
<no-speech>
[282.095]
<no-speech>
[282.505]
<no-speech>
[283.905]
<no-speech>
[284.915]
<no-speech>
[286.075]
ເອີ ມຶງ ບໍ່ ຮູ້ ຮ້ານ <hes> ຫວາ <no-speech> ຫຼ້າ ນ້ອຍ ຫວາ
[292.985]
<no-speech>
[296.195]
ໂໜ
[297.285]
<no-speech>
[298.645]
ກາຍ ວັດ ທົ່ງ ບໍ່ ຮູ້ ວັດ ທົ່ງ ຕ້ອນ ຫວາ
[300.445]
<no-speech>
[302.515]
ຫື
[303.095]
<no-speech>
[304.735]
(())
[305.315]
<no-speech>
[306.635]
<hes> ປາດໂທ້ <no-speech> ຜູ້ສາວ ຫຼາຍ ກວ່າ <hes> ອີກ ຮ້ານ <hes> ຕົ້ນ ຂາມ ຫັ້ນ ພັນ ເທື່ອ ພຸ້ນ ຕວ່າ ຫັ້ນ ນະ ງາມ ອີກ ອື
[315.995]
<no-speech>
[316.895]
ລະເລີຍ ກະ ທໍ່ກັນ ຫັ້ນ ແຫຼະ <no-speech> ເພາະວ່າ ໄປ ໄປ ທາງ ພຸ້ນ ເລີຍ <no-speech> ຫື
[324.955]
<no-speech>
[325.825]
ຊິ ລ້ຽງ ໜາ ຄັນ ກູ ຊິ ບອກ ໄປ ກະ ລ້ຽງ ຕວ່າ ເບາະ
[328.535]
<no-speech>
[331.285]
ເອີ (())
[335.215]
<no-speech>
[336.255]
ກິນ ຫຼາຍ ກະ ຕິດ ໜີ້ ເອົາ <no-speech> ບໍ່ ມຶງ ໄປ ນີ້ ມຶງ ເຂົ້າ <hes> ຕວ່າ ເບາະ <no-speech> ມາ ກັບ ບັກ ແຫຼ້ ຍັງ ຂີ່ ລົດ ມາ ຫວາ
[344.555]
<no-speech>
[347.215]
ສູ່ ຂີ່ ລົດ ຢູ່ ຫວາ ນີ້
[348.425]
<no-speech>
[351.165]
ເອີ ເອີ
[352.475]
<no-speech>
[353.455]
ອໍ ບາດ ຮອດ <hes> ລະ ຄ່ອຍ (()) ມຶງ ຍັງ ຢູ່ ໃສ ລະ <no-speech> ຢູ່ ພຸ້ນ ແມ່ນ ບໍ່
[360.465]
<no-speech>
[362.455]
ຮ້ານ ຫຼ້າ ນ້ອຍ ມຶງ ຂີ່ ໄປ ຊື່
[364.425]
<no-speech>
[365.365]
ມຶງ ມຶງ ຂີ່ <no-speech> ເອີ ຂີ່ ໄປ ຊື່ ຊື່ <no-speech> ແລ້ວກະ ອ້ຽວ ຂວາ
[371.735]
<no-speech>
[372.625]
ຄັນ ບໍ່ ເຫັນ ຢູ່ ຫັ້ນ ແຫຼະ ແມ່ນ ຢູ່ <hes> ມຶງ ຮູ້ ທາງ <hes> ບໍ່ ທາງເຂົ້າ ໄປ ຊອດ ບ່ອນ ກູ ຢູ່ ແຕ່ ກີ້ ບໍ່ <no-speech> ມັນ ມີ ອີກ ບ່ອນ ໜຶ່ງ ຫັ້ນ ນະ
[381.025]
<no-speech>
[383.485]
ຂີ່ ເຂົ້າ ໄປ ແຖວ ນັ້ນ ພຸ້ນ
[384.975]
<no-speech>
[386.035]
ບໍ່ <no-speech> ບໍ່ ບໍ່ <no-speech> ກາຍ ຂີ່ ໄປ ນຳ ຄອງ ນ້ຳ ຄອງ ນ້ຳ ຫັ້ນ ນ່າ
[393.865]
<no-speech>
[394.795]
ອື
[395.425]
<no-speech>
[396.965]
ເຂົ້າ ໄປ ໃນ ໃນ ພຸ້ນ <no-speech> ເອີ ເຂົ້າ ໄປ ໃນ ໃນ ຈົນ ຊິ ຮອດ <hes> ພຸ້ນ ແຫຼະ <no-speech> ຮອດ <hes> ແຖວ ບ່ອນ ກູ ຢູ່ ພຸ້ນ ແລ້ວກະ ໂທ
[408.805]
ເບາະ <no-speech> ມຶງ ບໍ່ ໄດ້ ອອກມາ ບາດ ມາ ແຫຼະ ມຶງ ມາ ແວ່ <hes> ບອກ <hes> ໃຫ້ ເຂົາ ແນ່ <hes> ບັກ <hes> ຈ່ອຍ ຫັ້ນ ນະ
[415.295]
<no-speech>
[416.325]
ແລ້ວກະ ບອກ ອ້າຍ ແອ <hes> ແນ່ ບໍ່ ມີ ວຽກ <hes> ອ້າຍ ແອ ວ່າ ມື້ <hes> ເອົາ <hes> ໂມ້ ເບັດ ໄປ ໃຫ້ ເຂົາ ຫັ້ນ ນະ <no-speech> ໃຫ້ ບັກ ໂຕ້ ຫັ້ນ ນະ
[425.875]
<no-speech>
[426.885]
ເອີ
[430.115]
<no-speech>
[431.205]
ໄປ ໃຫ້ ກູ ກໍ່ ໄປ ບໍ່ ໄດ້ ແຫຼະ ເນາະ
[433.025]
<no-speech>
[434.005]
ມື້ <no-speech> ມື້ອື່ນ (())
[437.245]
<no-speech>
[439.025]
<no-speech>
[439.545]
<no-speech>
[440.645]
ທາງ ມັນ ຍາກ ໂພດ ເວີຍ ບໍ່ ຢາກ ໄປ ແຫຼະ ເນາະ
[442.945]
<no-speech>
[444.015]
ຫາ ຫາ ກັນຊາ ງ່າຍ ກະ ໄຄ ແນ່
[445.815]
<no-speech>
[449.305]
ຫື
[449.965]
<no-speech>
[452.965]
ບໍ່ ມັນ ບອກ ເອົາ ເງິນ ໄປ ໃຫ້ ມັນ ແຕ່ວ່າ ກູ ຍັງ ຊິ
[455.385]
<no-speech>
[456.195]
ແຕ່ວ່າ ໃຫ້ ບັກ ໂຕ້ ໄດ້ ໃຫ້ ມັນ ຟີ ຫັ້ນ ແຫຼະ <no-speech> ມັນ ບອກ ເອົາ ເງິນ ໄປ ຈ່າຍ ໃຫ້ ມັນ ຢູ່ ຫັ້ນ <no-speech> ສອງ ອັນ <no-speech> ຈັກ ມັນ ບໍ່ ແພງ ດອກ ໝ້ອງ ສີ່ ຫ້າສິບ
[467.295]
ແສນໜຶ່ງ ນີ້ ແຫຼະ
[468.525]
<no-speech>
[469.335]
ທໍ່ ນີ້ ແຫຼະ ເອີ ໄປ ກະ ຕ້ອງ ໄດ້ ພາ ອ້າຍ ແອ ໄປ ນຳ ໄປ ພຸ້ນ ໄປ ທ່ານາແລ້ງ ທ່ານາແລ້ງ ພຸ້ນ ແຫຼະ ທ່ານາແລ້ງ
[479.175]
<no-speech>
[480.955]
ລະ ຄ່ອຍ <no-speech> ອື
[482.475]
<no-speech>
[483.555]
<sta> ດົງ ເອົາ ມັນ ມຶງ ຢູ່ ພຸ້ນ ເນາະ
[485.945]
<no-speech>
[487.575]
ມັນ <no-speech> ມັນ ຢູ່ ທ່ານາແລ້ງ ພຸ້ນ ໜາ <no-speech> ເອີ
[492.005]
<no-speech>
[492.915]
ມັນ ຢູ່ <no-speech> ມັນ ຢູ່ ທ່ານາແລ້ງ ພຸ້ນ ນ່າ
[496.035]
<no-speech>
[497.215]
ມຶງ <no-speech> ຕ້ອງ ໄດ້ ໄປ ຫາ ມັນ ຢູ່ ຮອດ <hes> ພຸ້ນ <no-speech> ຫື
[502.445]
<no-speech>
[506.195]
ມື້ອື່ນ
[507.275]
<no-speech>
[509.045]
ມື້ອື່ນ ພຸ້ນ ໜາ <no-speech> ອື
[511.435]
<no-speech>
[514.515]
ຕອນ ເຊົ້າ ນີ້ ແຫຼະ
[516.425]
<no-speech>
[519.375]
ມື້ ນີ້ <no-speech> ມື້ ນີ້ ມຶງ ກໍ່ ໄປ ຊອກ ຫາ ກູ ແລະ
[522.915]
<no-speech>
[523.765]
ແລ້ວ ກໍ ໂທ ຫາ ກູ
[525.905]
<no-speech>
[527.225]
ຫວາ <no-speech> ມື້ ນີ້ ເບາະ <no-speech> ມື້ອື່ນ
[530.975]
<no-speech>
[537.425]
ເອົາ ວ່າ ຊິ ແລ້ວ ມື້ ນີ້
[538.865]
<no-speech>
[540.255]
ຫື
[540.825]
<no-speech>
[541.765]
ຄືວ່າ ແລ້ວ ມື້ ນີ້
[542.895]
<no-speech>
[544.695]
<no-speech>
[546.755]
<no-speech>
[548.095]
ຫຼາຍ ແທ້ ຫວາ
[549.145]
<no-speech>
[550.445]
ຫື
[551.005]
<no-speech>
[553.625]
ບໍ່ ເຈາະ ຈັກ ອັນ <no-speech> ເຈາະ ຈັກ ບ່ອນ
[555.915]
<no-speech>
[557.825]
ຈັກ ບ່ອນ ສູ ຊິ ເຈາະ
[559.305]
<no-speech>
[561.725]
ສາມ ບ່ອນ <no-speech> ທໍ່ໃດ ສາມ ບ່ອນ
[563.355]
<no-speech>
[567.795]
ສູ ຊິ <hes> ຂາຍ ສອງແສນ ກະ ເອົາ
[571.145]
<no-speech>
[574.495]
ຫື
[575.095]
<no-speech>
[576.855]
ໂອ
[577.435]
<no-speech>
[579.465]
ບອກ ມັນ ແລະ
[581.425]
<no-speech>
[582.355]
ເຂົາ ໃຫ້ ສອງແສນ ນະ ກະ ເອົາ
[583.905]
<no-speech>
[586.375]
ໂອ ກູ ຢ້ານ ໄດ້ ແຕ້ມ ເອົາ ຢູ່ <laugh> <no-speech> ຢ້ານ ຢ້ານ ຊິ ໄດ້ ແຕ້ມ ເອົາ ດອກ ບອກ ມັນ ແນ່
[592.545]
<no-speech>
[595.945]
ອື <no-speech> ອື <no-speech> ອື
[599.345]
<no-speech>
[603.235]
<no-speech>
[604.645]
<no-speech>
[605.705]
<no-speech>
[606.905]
<no-speech>
[607.725]
<no-speech>
[610.695]
<no-speech>
[610.963]
