[0.000]
<no-speech>
[0.905]
<no-speech>
[4.585]
<no-speech>
[6.195]
ເອີ <sta>
[8.375]
<no-speech>
[9.665]
ມຶງ ເຮັດ ຫຍັງ <no-speech> ຢູ່ ເຮືອນ
[15.545]
<no-speech>
[17.255]
ບໍ່ ມຶງ ຊິ ໄປ ຫວາ
[18.545]
<no-speech>
[20.475]
<no-speech>
[21.865]
<no-speech>
[22.885]
ບໍ່ ໄປ ມາ ແລ້ວ <sta>
[25.575]
<no-speech>
[26.435]
ມຶງ (())
[27.935]
<no-speech>
[29.595]
ຫຼິ້ນ ໄພ້ ບໍ່ <laugh>
[31.845]
<no-speech>
[32.665]
<no-speech>
[33.025]
<no-speech>
[34.135]
ຫຼິ້ນ ຢູ່ ເຮືອນ
[36.075]
<no-speech>
[38.005]
<no-speech>
[38.495]
<no-speech>
[39.465]
ອີ່ ເຜິ້ງ ແລ້ວກະ ລິນ ດາ <no-speech> ປ້າ ນາງ ມາ ແມະ
[43.615]
<no-speech>
[44.495]
ເອີ <no-speech> ຮະ
[47.305]
<no-speech>
[50.265]
ຫຼິ້ນ ໄພ້ ຫຍັງ ກະ ຫຼິ້ນ ຕວ່າ
[54.615]
<no-speech>
[55.765]
<no-speech>
[56.535]
<no-speech>
[57.805]
ອື ອີ່ ເຜິ້ງ ລິນ ດາ ແລ້ວກະ ກູ <sta>
[64.925]
<no-speech>
[67.075]
ບໍ່ ມຶງ ຢູ່ ໃສ ຫັ້ນ
[68.715]
<no-speech>
[70.035]
<no-speech>
[70.425]
<no-speech>
[74.065]
ເອີ ມຶງ ໄປ ຫຍັງ ພຸ້ນ <no-speech> <sta> ມື້ ກິ ນີ້ ເຫັນ ບັກ ພິກ ໃດ ຫັ້ນ
[81.005]
<no-speech>
[82.945]
ອີ່ຫຍັງ ເກາະ
[83.785]
<no-speech>
[85.625]
ບັກ ເຟີ່ຍ ກັບ ອີ່ ນ້ອງ <no-speech> ບັກ ເຟີ່ຍ
[89.595]
<no-speech>
[90.425]
ມັນ ມາ ຫາ ມຶງ <sta> ເຫັນ ມັນ ຜ່ານ ທາງຊື່ ຊື່ ກູ ກະ ເລີຍ ວ່າ ຢອກ
[97.995]
<no-speech>
[100.295]
ເອີ ມາ ມາ ຊື້ ໃຫ້ ກູ ກິນ ແມະ ກູ ຊິ ກິນ <laugh>
[103.055]
<no-speech>
[103.925]
<no-speech>
[106.005]
<no-speech>
[107.365]
ມາ ຊື້ ໃຫ້ ກູ ກິນ ແມະ ກູ ຊິ ກິນ
[110.545]
<no-speech>
[111.385]
<no-speech>
[111.995]
<no-speech>
[113.515]
ເມືອ ແລະ ຕີ <sta>
[117.775]
<no-speech>
[119.055]
ເອີ ມາ ສອງ ຄົນ <sta>
[123.115]
<no-speech>
[125.185]
<sta> ແມ່ນ ຊັ້ນ ເບາະ ເຫັນ ແທ້ ຫວາ <sta> ເອີ ມັນ ໄປ ຫາ ມຶງ ຢູ່ ເຮືອນ ບ່າວ ດອນ ຕີ໊ ເບ໊າະ
[136.155]
<no-speech>
[140.885]
<sta> ເອົາ ກູ ຊິ ຮູ້ <sta> ມັນ ບໍ່ ໄດ້ ຖາມ ມັນ ຂີ່ ກາຍ <no-speech> ເຫັນ ຊັ້ນ ດອກ ມື້ ເຂົ້າ ນີ້ ມຶງ ໄປ ໃສ ເປົ່າ
[149.755]
<no-speech>
[151.605]
ຮະ
[152.245]
<no-speech>
[154.005]
ແມ່ ມຶງ
[155.295]
<no-speech>
[156.325]
ແມ່ ມຶງ ທ້ວງ ແມ່ ລິນ ດາ ໃດ ຫັ້ນ
[158.495]
<no-speech>
[162.845]
ເຫັນ ລູກເຂີຍ ບໍ່ <laugh>
[165.095]
<no-speech>
[166.035]
<no-speech>
[167.415]
<no-speech>
[168.405]
<sta> ເຫັນ ລູກ
[170.035]
<no-speech>
[171.435]
<sta> ເອີ <hes> ອື ແມ່ ລິນ ດາ ມາ ແຕ່ ຕະຫຼາດ <no-speech> ຂີ່ ຜ່ານ ແລະ ຖາມ ແມ່ ລິນ ດາ ວ່າ ເຫັນ ລູກເຂີຍ ບໍ່ ຊັ້ນ ມາ ເວົ້າ ແລະ ພາກັນ ຫົວ <laugh>
[182.415]
<no-speech>
[184.845]
ຕົ້ນ ມັນ ຢູ່ ໃສ
[185.895]
<no-speech>
[187.225]
ຮະ <no-speech> ບັກ ຕົ້ນ ມັນ ໄປ ໃສ
[190.355]
<no-speech>
[191.995]
ເອີ <no-speech> ເອີ <no-speech> <sta> ມຶງ ບໍ່ ໄດ້ ໄປ ໃສ ເອີ ມຶງ ບໍ່ ໄດ້ ໄປ ໃສ ຫວາ ເອີ ມັນ ຢູ່ ບ້ານ ໝູ່ ມັນ
[198.065]
<no-speech>
[200.115]
<no-speech>
[202.255]
<no-speech>
[204.075]
ດົນ ເບາະ ມຶງ ຊິ ມາ <sta>
[206.985]
<no-speech>
[211.375]
ສອງ ຊົ່ວໂມງ ມື້ອື່ນ ຫວາ <laugh> <sta> ແມ່ ແມ່ ມຶງ ຊອກ ຫາ ມາ ຖາມ ແມ່ ເຖົ້າ
[222.195]
ເຫັນ ລູກເຂີຍ ບໍ່ ວ່າ ຊັ້ນ <laugh>
[227.055]
<no-speech>
[227.965]
ຮະ <sta>
[229.215]
<no-speech>
[231.465]
ຢູ່ <sta> ເຮັດ ຫຍັງ <no-speech> ຊິ ລົມ
[238.945]
<no-speech>
[240.875]
ເອົາ ເຜິ້ງ
[241.715]
<no-speech>
[243.195]
ຮາໂຫຼ <sta>
[245.595]
<no-speech>
[247.965]
ມີ ຫຍັງ <sta> ຄິດ ຮອດ ກູ
[252.395]
<no-speech>
[253.335]
<laugh> ບໍ່ ບໍ່ ໄດ້ ໄປ
[255.475]
<no-speech>
[260.845]
ທີ ຊາວ ແປດ ຊາວ ເກົ້າ <sta> ເອີ
[266.545]
<no-speech>
[268.075]
ຮະ
[268.875]
<no-speech>
[270.015]
ເວົ້າ ໃໝ່ ດຸ
[270.895]
<no-speech>
[272.605]
ຮຽນ ຄູ <sta>
[276.815]
<no-speech>
[278.335]
ເສັ້ນ ທ່າງ່ອນ <sta>
[281.715]
<no-speech>
[283.205]
<sta> (()) ເອີ <laugh>
[290.755]
<no-speech>
[292.225]
<laugh> ກູ ນີ້ ແຫຼະ ເຜິ້ງ
[294.135]
<no-speech>
[295.905]
ອີ່ ຕ້າ ຢູ່ ນີ້ ແຫຼະ ຊິ ລົມ ມັນ ຫວາ <sta> ເອົາ ຕ້າ ມາ ເອົາ ຕ້າ ມາ ເອົາ ໄວ <int>
[307.655]
<sta> <laugh> <sta> ມຶງ ເຊີນ ເຮັດ ຫຍັງ <no-speech> ຮາໂຫຼ
[316.695]
<no-speech>
[317.555]
ຮະ
[318.185]
<no-speech>
[321.195]
ບໍ່ ບັກ ເກີ້ ມັນ ລົງ ໄປ ລຸ່ມ ຕີ໊ ເບ໊າະ <sta>
[328.185]
<no-speech>
[329.135]
<sta> ບໍ່ ຮູ້ ແຫຼະ
[333.595]
<no-speech>
[334.435]
<no-speech>
[336.015]
<no-speech>
[337.075]
ໂອ້ຍ ແມ່ ລິນ ດາ ແລ້ວກະ ລິນ ດາ ນ້ອງ ມັນ ອີ່ ເຜິ້ງ ກູ <sta> ເອີ ວ່າ ຊິ ຫຼິ້ນ ຢູ່ ຊິ ຫຼິ້ນ ສາ ເບາະ
[349.025]
ມາ ລະ ແມ <sta>
[352.995]
<no-speech>
[354.325]
<sta> ອື <sta> ອີ່ ເຜິ້ງ ຖາມ ວ່າ ຄິດ ຮອດ ມັນ ຫວາ <laugh>
[364.075]
<no-speech>
[365.415]
<sta> ຕົ້ນ ໝູ່ ໃຜ
[367.725]
<no-speech>
[369.395]
<no-speech>
[370.795]
<no-speech>
[373.685]
ເອີ <sta> ບາດ ບາດ ເຂົາ ມາ ແຫຼະ ອ້າຍ ເຂົາ ໃດ ຫັນ
[381.705]
<no-speech>
[383.005]
ເອີ <no-speech> ເອີ ມຶງ ຫັ້ນ ກູ ເຊື່ອ ຢູ່ ດອກ
[385.735]
<no-speech>
[387.145]
<no-speech>
[390.375]
<no-speech>
[392.315]
<no-speech>
[392.705]
<no-speech>
[393.505]
ຫຼິ້ນ <no-speech> ມຶງ ຢູ່ ກັບ ໃຜ ຫັ້ນ
[395.645]
<no-speech>
[397.095]
<no-speech>
[398.715]
<no-speech>
[400.845]
ຜູ້ໃດ ລະ <sta>
[406.025]
<no-speech>
[407.185]
ເອີ <sta> ເອີ້ນ ໝູ່ ມຶງ ມາ ລົມ ດຸ
[410.595]
<no-speech>
[412.235]
ບໍ່
[413.625]
<no-speech>
[414.845]
ບໍ່ <laugh> <sta>
[426.135]
<no-speech>
[428.465]
ຢູ່ ຊິ ລົມ ກັບ ແກ້ວ ຫວາ <laugh> <sta>
[435.165]
<no-speech>
[437.565]
<no-speech>
[440.075]
<no-speech>
[441.055]
<sta> ອ້າຍ ເປົ້າ ເວົ້າ ເບິ່ງ <no-speech> ຮະ <sta>
[452.285]
<no-speech>
[454.695]
ແມ່ນ ໃຜ
[455.385]
<no-speech>
[459.825]
ຜູ້ໃດ ຫວາ ມາ ເຮືອນ ກູ <sta>
[467.405]
<no-speech>
[468.645]
ບໍ່ ມັນ ຊວນ ອີ່ ເຜິ້ງ ໄປ ໄອເຕັກ ວ່າ ຊັ້ນ
[470.925]
<no-speech>
[472.035]
<no-speech>
[473.545]
<no-speech>
[474.825]
ບໍ່ <sta> ບໍ່ ມີ ເງິນ ເອົາ ເງິນ ມາ ຢືມ ແນ່ ແມະ ແສນໜຶ່ງ ມາ ເລີຍ ເອີ ບໍ່ ແມ່ນ <laugh> ແສນໜຶ່ງ ວ່າ ຊັ້ນ <laugh>
[485.645]
ຊິ ມາ ຢືມ ຢືມ ຫຼິ້ນ ໄພ້ ນີ້ ນະ <laugh> ບໍ່ ໃຊ້ ດອກ
[492.165]
<no-speech>
[493.015]
<no-speech>
[493.375]
<no-speech>
[494.755]
ປາດໂທ້ ມຶງ ຄື ໄປ ໃກ້ ແທ້ <laugh> <sta>
[499.675]
<no-speech>
[501.095]
ໂອ ຫວາ ຫວາ <sta> ເອີ ລະ ຊິ ໄປ ຫຼິ້ນ ນຳ
[506.105]
<no-speech>
[508.065]
ມີ ຫຍັງ ເກ໊າະ
[508.805]
<no-speech>
[509.855]
ເອີ <sta> ໂອ ແລ້ວ ແລ້ວ ວຽກ ກ່ອນ
[516.425]
<no-speech>
[517.645]
<no-speech>
[518.495]
<no-speech>
[519.465]
ຮະ <sta> ຫຼິ້ນ ໄພ້
[521.695]
<no-speech>
[523.315]
ເຮັດ ວຽກ ຫຼິ້ນ ໄພ້ ກະຍັງວ່າ
[524.885]
<no-speech>
[526.675]
<no-speech>
[527.035]
<no-speech>
[529.885]
ທີສອງ ເດ ທີສອງ ສູ ເອົາ ສູ ໄປ ເສັງ ເດ <no-speech> ສູ ເຂົ້າ ເດືອນ ໃດ ກູ ກະ ບໍ່ ຮູ້ ແຫຼະ ເດືອນ ສິບ ຕີ໊ ເບ໊າະ ສູ ເຂົ້າ ນະ
[537.815]
<no-speech>
[539.625]
<no-speech>
[541.755]
<no-speech>
[543.025]
ເອີ
[543.875]
<no-speech>
[548.085]
ທີສອງ
[549.105]
<no-speech>
[550.355]
<no-speech>
[550.785]
<no-speech>
[553.825]
(())
[554.525]
<no-speech>
[558.485]
ບໍ່ ຊິ ໄປ ເບິ່ງ ປະຕິທິນ ໃໝ່ ໄປ ເປົ່າ ເອີຍ
[561.955]
<no-speech>
[563.825]
<no-speech>
[570.995]
<no-speech>
[572.785]
ວ່າ ຢູ່ ວ່າ <no-speech> ບໍ່ ມີ ບ່ອນ ໄປ ຊັ້ນ ດອກ
[575.825]
<no-speech>
[577.105]
<sta> ມຶງ ຊິ ໄປ ໃສ <no-speech> ມຶງ ຊິ ໄປ ໃສ ຕໍ່ ນີ້
[581.195]
<no-speech>
[583.805]
<no-speech>
[584.175]
<no-speech>
[586.875]
<sta> ໄປ ຂາຍ ໂທລະສັບ ຫວາ ຫຼືວ່າ ໄປ ຈຳ <laugh> ມື ຊິ ຈຳ ຮອດ <sta>
[598.825]
<no-speech>
[599.945]
<no-speech>
[600.220]
