[0.000]
<no-speech>
[5.225]
ຮາໂຫຼ
[6.015]
<no-speech>
[7.555]
ຮາໂຫຼ <no-speech> ແສງ ສະໄໝ ບໍ່
[9.285]
<no-speech>
[10.645]
ຮາໂຫຼ <no-speech> ສະບາຍດີ <no-speech> ຮອດ ໃສ ແລ້ວ <no-speech> ໄປ ສວນ ນີ້ ນ່າ
[15.285]
<no-speech>
[17.825]
ຫຍັງ
[18.385]
<no-speech>
[20.405]
ໂອ ຂ້ອຍ ກຳລັງ ຂີ່ ລົດ ເລາະ ຕົວະ ຂ້ອຍ <hes> ເອີ ຂ້ອຍ ກຳລັງ ຂີ່ ລົດ ເລາະ ສີ ສຳພາດ ບ້ານ ນີ້ ແຫຼະ <hes> ໄປ ນຳ ກັນ ຫຼາຍ ຄົນ ຢູ່ ຫວາ ໄປ ສວນ ນີ້ ນ່າ
[29.945]
<no-speech>
[31.525]
ຮະ
[32.085]
<no-speech>
[36.185]
ເອີ ເອີ ເຕັມ ລົດ <no-speech> ກິນ ເຂົ້າ ກັບ ຫຍັງ ຫັ້ນ ນະ
[40.395]
<no-speech>
[41.355]
ເຮັດ ຫຍັງ ກິນ
[42.635]
<no-speech>
[44.135]
ເອາະ ມັນ ຄືວ່າ ເປັນ ຈັ່ງຊັ້ນ
[45.525]
<no-speech>
[48.185]
ເອີ <laugh> ເອີ ເຫຼົ້າ ເບຍ ອີ່ຫຍັງ ກະ ມີ ບໍ່ <no-speech> ຮະ
[52.245]
<no-speech>
[53.155]
ບໍ່ (())
[56.545]
<no-speech>
[57.985]
ບໍ່ ບໍ່ ບໍ່ <no-speech> ບໍ່ ໄດ້ ອອກ ໄປ ເອົາ <no-speech> ເພາະວ່າ ມີ ນາຍ ຢູ່ ຫັ້ນ ເຂົາເຈົ້າ ບໍ່ ໄປ <no-speech> ລະ ມື້ ໜ້າ ກ່ອນ <no-speech> ຢ້ານ ນາຍ ເຂົາ ວ່າ ໃຫ້
[65.075]
<no-speech>
[66.205]
ໂອ້ຍ
[66.655]
<no-speech>
[67.815]
ບໍ່ <no-speech> ບໍ່ ໄດ້ ໄປ <no-speech> ບໍ່ <no-speech> ບໍ່ ໄດ້ ໄປ ຂາຍ ຈັກ ຄົນ <no-speech> ມັນ ໜ້ອຍ <no-speech> ຄົນ ມີ ແຕ່ ສາມ ສີ່ສິບ ຄົນ ໜຶ່ງ ນະ
[73.485]
<no-speech>
[76.385]
ຫວາ
[77.045]
<no-speech>
[81.015]
ເອີ (())
[88.025]
<no-speech>
[89.385]
(()) ມັນ ນ້ອຍ ແລ້ວກະ ສີ ໄປ ວຽກ ກັບ ແຟນ ເພິ່ນ ແດ່ ຫັ້ນ ນ່າ ບໍ່ ຂ້ອຍ ກຳລັງ ຂີ່ ລົດ ເລາະ ໄປ ນຳ ເຂົາເຈົ້າ ດຽວ ລະ ສີ ເວົ້າໃຫ້ຟັງ ດອກ ເອີ ຂີ່ ລົດ ເລາະ ວຽງຈັນ ນີ້ ແຫຼະ ສຳພາດ ນ້ອງ ຫັ້ນ ນະ
[101.165]
<sta> ດຽວ ລະ ມື້ອື່ນ ອອກ ໄປ ຮ້ານ ແລ້ວ ລະ ຈະ ລົມ ໃຫ້ ຟັງ ດອກ
[104.635]
<no-speech>
[105.985]
ເອີ <hes> ເປັນ ຈັ່ງໃດ ໄປ ເມືອງຫຼວງ ຫັ້ນ ນະ <no-speech> ແມ່ຕູ້ <hes> ຮື
[110.035]
<no-speech>
[110.985]
ໄໝ
[112.755]
<no-speech>
[115.455]
ເອີ
[116.455]
<no-speech>
[117.355]
ອອກ ໄປ ນຳ ກັນ ເໝິດ ລະ ໄປ ລະ ເອີ ເອີ ເອີ <no-speech> ເອີ ລະ ນາງ ນ້ຳຝົນ ເດ ນ້ຳຝົນ ກະ ໄຄ ແດ່ ລະ ຫວາ <int> ເອີ
[125.455]
<no-speech>
[126.765]
ເອີ ເອີ <no-speech> ລາວ ບໍ່ ໄດ້ ຂີ້ <hes> ລາວ ບໍ່ ໄດ້ ຖອກທ້ອງ <no-speech> ຫຼາຍ ຕີ໊ ບໍ່
[131.005]
<no-speech>
[132.645]
ຮະ
[133.105]
<no-speech>
[135.615]
ເອີ
[136.235]
<no-speech>
[139.895]
ເອີ ເອີ <no-speech> ລະ ບໍ່ ໄດ້ ເອົາໄປ ໂຮງໝໍ ຕີ໊ ບໍ່ <no-speech> ເອີ ເອີ ເອີ <no-speech> ເປັນ ນຳ ຫຼາຍ ຄົນ ເປັນ ເນາະ
[146.545]
<no-speech>
[149.115]
<no-speech>
[149.635]
<no-speech>
[151.435]
ອື ສູ່ ຄື ຈະ ລວຍ ເນາະ ມີ ແຕ່ ຄົນ ເຈັບ ຄົນ ເປັນ ເນາະ (())
[157.335]
<no-speech>
[160.245]
ເອີ
[161.225]
<no-speech>
[162.265]
ເອີ ກິນ ເພື່ອ ໄວ ແດ່ ເດີ ຫາ ໜໍ່ ມາ ແດ່ ເດີ ໄປ ຫາ ໜໍ່ໄມ້ ມາ ແກງ ແດ່ ເດີ ມື້ອື່ນ ເດີ
[167.355]
<no-speech>
[168.485]
ຍິນ ບໍ່
[169.175]
<no-speech>
[171.285]
<sta> ເອີ ກຳລັງ ສີ ອອກ ໄປ ນີ້ ແຫຼະ ກຳລັງ ສີ ຮອດ
[173.815]
<no-speech>
[175.165]
ຢູ່ ໃສ ລະ (())
[177.255]
<no-speech>
[179.925]
ຮະ
[180.415]
<no-speech>
[181.545]
ໂອ້ຍ ຫຼາຍ ຄົນ ຢູ່ ກຳລັງ ຄາ ເອົາ ລົດ ໄປ ຂີ່ <no-speech> ໄປ ຫາ ອ້າຍ ເຈົ້າ ແດ່ <no-speech> ຈັກ ເຂົາເຈົ້າ ສະພາ ອ້ຽວ ໄປ ທາງ ໄດ໋ ດຸ ນີ້
[187.725]
<no-speech>
[188.925]
ເອີ <no-speech> ອື
[191.025]
<no-speech>
[191.965]
ໄປ ນຳ ກັນ ໝົດ ທັງສອງ ຄົນ ກຳລັງ ຂີ່ ລົດ ອ້ອມ ວຽງຈັນ <sta> ດຽວນີ້ ຮອດ ໄຟແດງ
[197.025]
<no-speech>
[200.145]
ເອີ ເອີ ເອີ <no-speech> ເອີ <hes>
[202.845]
<no-speech>
[204.035]
ເອີ <no-speech> ກຳລັງ ຈອດ ໄຟແດງ ລົມ ນີ້ ແຫຼະ ເຂົາເຈົ້າ ຢາກ <hes> ຄືວ່າ ອັນນ່າ ມັນ ແມ່ນ ສັດ ປີກ ບໍ່ ເຮົາ ໄວ້ ຢູ່ ລົດ ຫັ້ນ ນະ <no-speech> ມັນ ແຈ້ງ ບໍ່ ແມ່ນ ຫຍັງ ຫັ້ນ ນ່າ
[214.875]
<no-speech>
[215.705]
ແລ້ວ ກໍ ອື <breath> ລະ ເຮົາ ລົມ ກັນ <sta> ມີ ເລື່ອງ ຫຍັງ ເຮົາ ກະ ລົມ ກັນ ເນາະ ເອື້ອຍ ນ້ອງ ເຮົາ ເນາະ
[221.875]
<no-speech>
[223.195]
ດຽວ ຄື ມິດ ຫວະ
[224.115]
<no-speech>
[225.975]
ເອີ ກຳລັງ ໄປ ນີ້ ແຫຼະ ກຳລັງ ຂີ່ ລົດ (()) ຢູ່ ນີ້ <int> ເອີ
[230.515]
<no-speech>
[236.765]
ເອີ ຍັງ ວ່າ ເປັນ ນັກທ່ອງທ່ຽວ ລະ ມື້ອື່ນ ຊິ ລົມ ໃຫ້ ຟັງ ເດີ <int>
[241.145]
<no-speech>
[242.635]
(())
[243.365]
<no-speech>
[247.185]
ອ້າວ ເຈົ້າ ຊິ ລົມ ຫຍັງ ກັບ ຂ້ອຍ ເຈົ້າ ກະ ລົມ ມາ ທະແມ ໃຫ້ ມັນ ໝົດ ນາທີ ເຂົາເຈົ້າ ນີ້
[251.465]
<no-speech>
[257.075]
ກັບ ແລ້ວ ກຳລັງ ອ້ຽວ ລົດ ກັບ ເອີ <no-speech> ຮະ
[260.195]
<no-speech>
[262.125]
ແມ່ນ ຫຍັງ ເກ໊າະ
[262.795]
<no-speech>
[264.915]
ວິນຫົວ <laugh> ກິນ ຍາ ອີ່ຫຍັງ ເກາະ <breath> ກະຍັງວ່າ ອ້ຽວ ຄືນບ້ານ ກັບ ບ້ານ ແລ້ວ ດຽວນີ້ ຮອດ ຕະຫຼາດ ແລງ ແລ້ວ ເຈົ້າ ສີ ລົມ ຫຍັງ ກັບ ເຂົາເຈົ້າ ກະ ລົມ ມາ ລະ ແມ
[274.185]
<no-speech>
[277.175]
<hes> ອ້າຍ ເຈົ້າ ເດ ອ້າຍ ເຈົ້າ ນະ ເພິ່ນ ໃຫ້ ລະ ຫວາ
[280.895]
<no-speech>
[282.665]
ຍັງ ບໍ່ ນັບ ເຈົ້າ ນະ
[283.875]
<no-speech>
[285.795]
ອາວ ໃຫ້ ມື້ ໃດ ໃຫ້ ວານນີ້ ມັນ ຖືກ ເລກ ຊັ້ນ ບໍ່
[288.625]
<no-speech>
[290.075]
ເອີ ເນາະ ເນາະ ເພິ່ນ ກະ ຮ້າຍ ຊັ້ນ ຫວະ ລະ
[291.985]
<no-speech>
[293.675]
ອື
[294.295]
<no-speech>
[297.015]
ເອີ
[297.645]
<no-speech>
[300.665]
(())
[301.175]
<no-speech>
[304.195]
<no-speech>
[304.555]
<no-speech>
[305.935]
ຮຶ
[306.325]
<no-speech>
[308.595]
ອື
[309.225]
<no-speech>
[314.605]
<no-speech>
[314.975]
<no-speech>
[317.045]
ລູກ ກະ ບໍ່ ສະບາຍ ເນາະ <no-speech> ອື ອື
[319.695]
<no-speech>
[325.265]
ອື
[325.805]
<no-speech>
[328.695]
(())
[329.355]
<no-speech>
[331.075]
ອື <no-speech> ເອີ ລາວ ຖືກ ເລກ ຊື່ ຊື່ ໃດ ຫັ້ນ ເນາະ
[333.815]
<no-speech>
[336.125]
<no-speech>
[336.665]
<no-speech>
[339.425]
ອຶ
[339.955]
<no-speech>
[343.005]
ຫວາ ຄືວ່າ ສອງ ງວດ ພຸ້ນ ໄດ໋
[344.975]
<no-speech>
[346.185]
ສອງ ງວດ ພຸ້ນ ນ່າ
[347.315]
<no-speech>
[349.115]
ອື
[349.685]
<no-speech>
[351.815]
ເອີ ເອີ <no-speech> ໃຫ້ ລາວ ຖືກ ຫຼາຍ ຫຼາຍ ແດ່ ເອີ
[354.285]
<no-speech>
[357.175]
ອື
[357.675]
<no-speech>
[360.105]
ຫວາ
[360.585]
<no-speech>
[361.895]
ບໍ່
[362.575]
<no-speech>
[369.495]
ເອີ ຄັນ ເຈົ້າ ບໍ່ ຈົ່ມ (()) ບໍ່ ມີ ເງິນ ແຫຼະ ເນາະ
[371.965]
<no-speech>
[374.295]
ອື
[374.815]
<no-speech>
[379.945]
ເອີ <no-speech> ເອີ ເພາະວ່າ ເຈົ້າ ກະ ບໍ່ ຢູ່ ເດ ເນາະ ຍາມ ເຂົາເຈົ້າ ບອກ ເງິນ ນະ
[384.505]
<no-speech>
[386.075]
ຮື
[386.565]
<no-speech>
[391.265]
ຫວາ
[391.715]
<no-speech>
[394.425]
ລະ ເຂົາເຈົ້າ ຂ້າ ຍຸງ ແລ້ວ ບໍ່ ຫັ້ນ
[395.995]
<no-speech>
[399.765]
ແລ້ວ ຂ້າ ຍຸງ ໝົດ ເລີຍ ຫວາ
[401.235]
<no-speech>
[402.665]
<no-speech>
[403.035]
<no-speech>
[405.365]
<no-speech>
[405.865]
<no-speech>
[408.705]
<no-speech>
[409.205]
<no-speech>
[412.615]
(())
[413.875]
<no-speech>
[414.865]
ລະ ໄດ້ ເງິນ ເດືອນ ຫຼາຍ ບໍ່ ຫັ້ນ ງວດ ນີ້ ນະ ຄືວ່າ ມີ ແຕ່ ຂາດ ກັບ ຂາດ ໄດ້ ຈັກ ລ້ານ
[419.045]
<no-speech>
[420.945]
<no-speech>
[421.295]
<no-speech>
[422.625]
ຮະ <no-speech> ເອີ
[423.925]
<no-speech>
[425.085]
ແລ້ວ ຫຼາຍ ບໍ່
[426.135]
<no-speech>
[427.805]
ເອີ ເຂົາ ກະ ຟັງ ລະ ເນາະ ແນວ ເຈົ້າ ເປັນ ຫົວໜ້າ (()) ເຈົ້າ ຫຼາຍ ເຈົ້າ ກະ ອັນ ນັ້ນ ເນາະ
[431.595]
<no-speech>
[432.615]
ຮື
[433.075]
<no-speech>
[436.215]
ເອີ ເຈົ້າ ກໍ່ ໄປ ຊອກ ວຽກ ໃໝ່ ແຫຼະ ແນວ ເຈົ້າ (()) ເຂົາ ເດ ແນວ ເຈົ້າ ເປັນ ຫົວໜ້າ ສ່ຳ ນາຍ ເຂົາ ເນາະ
[441.425]
<no-speech>
[442.545]
ເອີ ເຂົາ ບໍ່ ກ້າ ຈັບ ດອກ (())
[444.585]
<no-speech>
[446.765]
ແມ່ນແລ້ວ ເຈົ້າ ມີ ເຫດຜົນ ເນາະ (())
[449.095]
<no-speech>
[450.585]
ເອີ ເອີ ເອີ <no-speech> ລະ ເຈົ້າ ປະ ມີ ເຫດຜົນ ເນາະ ເຈົ້າ ກະ
[453.985]
<no-speech>
[455.035]
<no-speech>
[455.385]
<no-speech>
[456.275]
<no-speech>
[456.635]
<no-speech>
[460.045]
(())
[460.635]
<no-speech>
[461.815]
ອື
[462.405]
<no-speech>
[466.935]
ອື ອື (())
[469.325]
<no-speech>
[471.005]
<no-speech>
[471.695]
<no-speech>
[472.985]
ຮະ
[473.535]
<no-speech>
[474.365]
ເຂົ້າ ມາ ລະ ແມ ທັນ ຢູ່ <no-speech> ຢູ່ ດອກ ເປັນ ຫຍັງ
[477.045]
<no-speech>
[479.955]
ອື
[480.565]
<no-speech>
[485.105]
<no-speech>
[485.655]
<no-speech>
[488.625]
ເອີ ລາວ ກະ ນະໂຍບາຍ ແຕ່ ດົນ ລາວ ບໍ່ ຕັດ ເຈົ້າ
[491.805]
<no-speech>
[496.645]
ອື ອື
[497.355]
<no-speech>
[504.685]
ຮື ເອີ ເອີ ອຶ <breath> <int>
[507.835]
<no-speech>
[508.675]
ສອງ ສີ່ ໜຶ່ງ ຫວາ
[509.925]
<no-speech>
[512.665]
ຮະ
[513.195]
<no-speech>
[514.575]
ອື ອື
[515.425]
<no-speech>
[520.945]
ບໍ່ ບໍ່ ໄດ້ ຂາຍ ດອກ ເພາະວ່າ (()) ເອີ ເພິ່ນ ບໍ່ ເຮັດ ເພິ່ນ ວ່າ ນະ ເລີກ ຫ້າ ໂມງ ລະ ເຂົາ ບໍ່ ຄ່ອຍ ມັກ ຊື້ <no-speech> ມັນ ບໍ່ ໄດ້ ຂາຍ ດີ ຄັນ ເລິກ ເຈັດ ໂມງ ລະ ຊິ ຂາຍ ເອີ ລະ ຕັ້ງ ບໍ່ ເຮັດ
[532.545]
ຍາມ ນີ້ ນະ ປິດ ຮ້ານ ມາ ແຕ່ ເວັນ
[534.485]
<no-speech>
[535.555]
ເພິ່ນ ວ່າ ເພິ່ນ ບໍ່ ໄດ້ ຖາມ ພວກເຈົ້າ ວ່າ ພວກເຈົ້າ ສີ ເອົາ ບໍ່ ຫຼືວ່າ ບໍ່ ເອົາ ຫັ້ນ ນ່າ ລະ ບໍ່ ຖາມ <breath> ລະ ເພິ່ນ ລະ ເມື່ອຍ ແດ່ ແລ້ວ ກໍ ເລີຍ ຢ່າ ສະ ເພິ່ນ ຫັ້ນ ນະ ຄັນວ່າ ເຈັດ ໂມງ ລາວ ຈະ ເຮັດ ຢູ່ ລາວ ວ່າ
[545.275]
<no-speech>
[547.385]
ເອີ (())
[549.615]
<no-speech>
[550.435]
ເອີ ເຂົາ ຊິ ໄປ ກິນ ເຫຼົ້າ ກິນ ເບຍ (()) ມັນ ບໍ່ ໄດ້ ຂາຍ ດີ ອື ແນວ ເຂົາ ໄປ ກິນ ເບຍ ໝົດ ເພິ່ນ ວ່າ ນະ
[556.435]
<no-speech>
[561.155]
ດຽວນີ້ ກຳລັງ ມາ ຮອດ ໜອງແຕ່ງ ບ່າວ ຄຳ ເອີ ລົມ ກັບ ເຈົ້າ ນີ້ ລະ ໃຫ້ ມັນ ຮອດ ນາທີ ເຂົາເຈົ້າ ໃຫ້ ມັນ ຮອດ ສິບ ນາທີ ຮາ
[569.285]
<no-speech>
[572.265]
ເອີ
[572.845]
<no-speech>
[574.695]
ເປັນ ນຳ ບໍ່ ໝົດ ເວລາ ມັນ ບໍ່ ຕັດ ເຈົ້າ ກະ ລົມ ມາ ໃຫ້ ມັນ ຕັດ ທະແມ ລົມ ມາ ລົມ ມາ ເລື່ອງ ຫຍັງ ເຈົ້າ ຊິ ລົມ ກັບ ເອື້ອຍ ເຈົ້າ ກະ ລົມ
[581.195]
<no-speech>
[588.545]
ຫ້າ ຄົນ
[589.625]
<no-speech>
[591.155]
ຫ້າ ຄົນ
[592.085]
<no-speech>
[596.495]
ບໍ່ <laugh> ບໍ່ ໄດ້ ໄປ ການ ຂີ່ ລົດ ເລາະ ຫຼິ້ນ ຢູ່
[599.875]
<no-speech>
[600.020]
