[0.000]
<no-speech>
[5.665]
ຮາໂຫຼ <hes>
[7.725]
<no-speech>
[10.555]
<no-speech>
[11.075]
<no-speech>
[14.405]
ໂອເຄ
[14.995]
<no-speech>
[16.385]
<no-speech>
[16.995]
<no-speech>
[20.435]
ຍັງ ບໍ່ ດີ ປານ ໃດ ເທື່ອ <no-speech> ແຂກ
[22.685]
<no-speech>
[23.995]
ຍັງ ບໍ່ ໄດ້ ເປັນ ອັນ ໃດ
[25.045]
<no-speech>
[29.535]
<no-speech>
[30.925]
<no-speech>
[34.225]
<no-speech>
[35.305]
<no-speech>
[42.455]
<no-speech>
[49.605]
ຈັ່ງແມ່ນ ພາກັນ ມີ ຄວາມສຸກ ເນາະ
[51.185]
<no-speech>
[58.635]
<no-speech>
[66.085]
ຮ້ານ ແນວ ໃດ
[66.965]
<no-speech>
[71.315]
ຊິ ຂາຍ ຄຳ ສະ ຫວາ
[73.645]
<no-speech>
[81.355]
ຊິ ໄຫວ ບໍ່ ໂຕເອງ ຍັງບໍ່ທັນ ມີ ປະສົບ ການ ເລື່ອງ ນີ້
[84.245]
<no-speech>
[85.755]
ຊື້ຂາຍ ຍັງບໍ່ທັນ ເປັນ ຄື ບໍ່ ໄປ ນັ່ງ ແລກ ເງິນ ແລກ ຫຍັງ ທຳມະດາ ນີ້ ກ່ອນ ແລກ ເງິນ ປ່ຽນ ເງິນ ຫຼືວ່າ ໃຫ້ ລາວ ຢືມ ເງິນ ຊື້ ຄຳ ໄປ ແຕ່ລະ ມື້ ຊິ
[96.355]
<no-speech>
[97.355]
ໃຫ້ ລາວ ຢືມ ຊື້ ຄຳ ໄປ ແຕ່ລະ ມື້ ຊິ ໝູນ ໄປ ໝູນ ມາ ມີ ທຶນ ຊ່ວຍ ກັນ ຊື້ ຄຳ ຄຳ ລົງ ລະ ຊິ ນີ້ ເອົາ ຮຽນ ປະສົບ ການ ໄປ ກ່ອນ
[105.095]
<no-speech>
[106.705]
ເຂົາ ຍັງບໍ່ທັນ ຢາກ ໃຫ້ ພວກເຈົ້າ ຕັ້ງ ເທື່ອ
[108.615]
<no-speech>
[111.505]
ລອງ ເຮັດ ຈັກ ເຮັດ ຫົກ ເດືອນ ລະ ປີ ໜຶ່ງ ກ່ອນ ລະ ຄ່ອຍ ຄຶດ ເລື່ອງ ຕັ້ງ
[114.715]
<no-speech>
[116.175]
ໄປ ນັ່ງ ແບບ ວ່າ
[117.645]
<no-speech>
[119.775]
ເປັນ ຈັ່ງຊັ້ນ ແຫຼະ
[120.695]
<no-speech>
[122.605]
ເອີ <foreign> ເວ ເລາະ ຫັ້ນ ເລາະ ນີ້ ພໍໄດ້ ຈັບ ຫັ້ນ ໃສ່ ນີ້ ຈັບ ນີ້ ໃສ່ ຫັ້ນ ເຮັດ ແບບ ຄື ໄປ ລັດ ຄຳ ນີ້ ກ່ອນ ນາ
[128.455]
<no-speech>
[131.165]
ເອີ້ ເຮັດ ແບບ ນັ້ນ ກ່ອນ
[132.475]
<no-speech>
[134.495]
ເອີ້ ຮຽນ ຊື້ ຮຽນ ຂາຍ ຮຽນ ໄລ່ ເບາະ ຮຽນ ຕີ ລາຄາ ຄຳ ໃຫ້ ມັນ ເປັນ ກ່ອນ ລະ ຈັ່ງ ຄ່ອຍ ຮຽນ ແຍກກັນ
[140.275]
<no-speech>
[142.415]
ເຈົ້າ ກາຍ ມາ ແລ້ວ
[143.435]
<no-speech>
[149.115]
<no-speech>
[151.505]
<no-speech>
[152.775]
ລາວ ກະ ບໍ່ ໄດ້ ເປັນ ຫຍັງ ອີ່ແມ່ ກະດາຍ ລາວ ກະ ສະບາຍດີ ລາວ ກະ ແຂງແຮງ ລະ ຕັ້ງແຕ່ ເຮັດ ວຽກ ໃຫ້ ລາວ ມາ ມີ ແຕ່ ກູ ບໍ່ ສະບາຍ
[159.455]
<no-speech>
[165.285]
<no-speech>
[165.945]
<no-speech>
[173.725]
<hes> ເຮັດ ມັນ ຄັກ ຄັກ ແລ້ວ ກໍ ຄ່ອຍ ເມືອ
[175.985]
<no-speech>
[178.205]
ເຮັດມັນດີ ເຮັດມັນດີ ໄປ ໃສ ກະ ໃນ ລົດ ອັນ ໜຶ່ງ ໃຫ້ ມີ ກັບໄຟ ມີ ທຽນໄຂ ເຫຼັ້ມ ໃຫຍ່ ມີ ມີດ ມີ ພ້າ ມີ ອາຫານແຫ້ງ ມີ ນ້ຳ ມີ ນົມ ຫັ້ນ ໃຫ້ໄດ້ ປະເພດ ນີ້ ສົມມຸດວ່າ
[189.325]
ລົດ ເຮົາ ມັນ ເປັນ ຫຍັງ ມັນ ກະ ໃຫ້ ມີ ອັນ <hes>
[192.265]
<no-speech>
[193.075]
ໃຫ້ ມີ ຄົບ ຫັ້ນ ແຫຼະ ດີ ທີ່ສຸດ ສ່ຳ ເຮືອນ ຫຼັງ ໜຶ່ງ ພຸ້ນ ແຫຼະ ຄັນ ຊິ ເດີນທາງ ນະ
[197.845]
<no-speech>
[200.465]
<hes> ແສດ ໂພດ ເອົາ ສີ ຊ້ຳ ເຈົ້າ ມາ ໃສ່ ດຸ
[202.915]
<no-speech>
[204.045]
<hes> ມັນ ແສດ ໂພດ
[206.175]
<no-speech>
[210.375]
ເອົາ ສີ ຊ້ຳ ມາ ໃສ່ ເອີ້
[212.025]
<no-speech>
[219.035]
<no-speech>
[219.525]
<no-speech>
[222.705]
ຕ້ອງ ມີ ປະເພດ ຂອງ ແຫ້ງ ຊີ້ນ ແຫ້ງ ທອດ ບໍ່ ອີ່ຫຍັງ ແບບ ນີ້ ເຂົ້າ ກະ ຕ້ອງ ໃຫ້ ມີ ຕິດ ລົດ ນະ <no-speech> ບາງ ເທື່ອ ລົດ ໄປ ຕາຍ ກາງ ທາງ ລະ ລົດ ຢູ່ ເທິງ ພູ ເດ່ ເຈົ້າ ຊິ ໄປ ກິນ ຫຍັງ
[234.125]
ຊິ ເວົ້າ ໄດ້ ຊັ້ນ ເບາະ ຊົ່ວຊິ ຫາ ຄົນ ມາ ຊ່ອຍ ເຮົາ ລະ ໃນ ລົດ ກະ ຕ້ອງ ໃຫ້ ມີ ເຊືອກ ກາບ ເບາະ ຕີນ ສະກົ້ວ ຫຼືວ່າ ທຸກ ຢ່າງ ຫັ້ນ ແຫຼະ ຈັ່ງ ຊິ ໄປ ໃດ
[244.755]
<no-speech>
[245.925]
ເຊືອກ ກາບ ເບາະ ສົມມຸດ ຫວາ ລົດ ຕ້ອງ ໄດ້ແກ່ ຫຍັງ ເຮົາ ຕ້ອງ ໄດ້ ເວົ້າ ເຜື່ອໄວ້ ໝົດ ລົດ ເຮົາ ມັນ ເກົາ ແມ່ນ ຫຍັງ ດອກ ບໍ່ ແມ່ນ ລົດ ໃໝ່ ຄື ເຂົາ <no-speech> ຕ້ອງ ມີ ເຊືອກ ມີ ຫຍັງ ບາງ ເທື່ອ ມັນ ເປັນ ຫຍັງ ມາ ເດ່ ໝໍ້ໄຟ
[257.275]
ໝໍ້ ນ້ຳ ຮ້ອນ ໝໍ້ ຍັງ ມັນ ຊິ ເວົ້າ ໄດ້ ຊັ້ນ ເບາະ ເຮົາ ບໍ່ ຕາ ບໍ່ ເຫັນ ຮຸ່ງ ຊິ ຈີນ ເຮືອນ ກະ ຄອບ ເຈົ້າຖິ່ນເຈົ້າຖານ ໃຫ້ ເພິ່ນ ປົກປັກຮັກສາ ແນ່
[263.865]
<no-speech>
[266.135]
ຕ້ອງ ມີ ໝົດ ຢ່າ ສູ ປະໝາດ ເດີນທາງ ນະ ເຈົ້າ ເຄີຍ ອັນກິນ ເຂົ້າ ລີງ ຫວາ
[270.335]
<no-speech>
[272.245]
ແມ່ນ ບໍ່ <hes> ຊິ ເດີນທາງ ຊິ ເອົາ ລົດ ໄປ ເອງ ນີ້ ຕ້ອງ ມີ ໜຶ່ງ ຢາງ ສະກົ້ວ ເຮົາ ຕ້ອງ ຮັບປະກັນ ສອງ ເຊືອກ ກາບ ຂໍ້
[283.875]
ຕໍ່ ຟືນ ຕໍ່ ໄຟ ອີ່ຫຍັງ ກະ ຕ້ອງ ມີ ຫັ້ນ ແຫຼະ ອຸປະກອນ ແປງ ລົດ ກະຈອກ ກະແຈ
[288.325]
<no-speech>
[289.265]
ຫົວ ຖອກ ຫົວ ທຽນ ຢາງ ໜ້ອຍ ເຈົ້າ ກະ ຕ້ອງ ຊື້ ໄປ ຈັກ ຫົວ ສອງ ຫົວ
[293.015]
<no-speech>
[297.865]
ເອີ ຢາງ ສະກົ້ວ ຫັ້ນ ເດ
[299.455]
<no-speech>
[300.475]
ແລ້ວ ກໍ ຍັງ ພາກັນ ໄດ້ ກິນ ເຂົ້າ ລີງ ຫັ້ນ ເດ ຊັ້ນ
[302.355]
<no-speech>
[305.205]
ເດີນທາງ ມັນ ຊິ ເວົ້າ ໄດ້ ຫວາ ຢູ່ ບໍ່ ຢູ່ ໄດ້ ກິນ ເຂົ້າ ລີງ ທັງ ຜົວ ທັງ ເມຍ
[308.435]
<no-speech>
[313.455]
ຢ່າ ສູ່ ວ່າ ແຕ່ ລົດ ຂ້ອຍ ຮັບປະກັນ ອຶ ບໍ່ ເຊື່ອ ຫຍັງ ທັງນັ້ນ ມີ ໄວ້ ດີ ມີ ໄວ້ ແຫຼະ ດີ
[320.225]
<no-speech>
[322.295]
ບໍ່ ນ່າ ລາວ ຢູ່ ເມືອງຮົ່ມ ຊີ້ ກະ ຍັງ ໄຄ ແນ່
[325.875]
<no-speech>
[327.465]
<no-speech>
[327.825]
<no-speech>
[328.815]
ໂຕ ນີ້ ມັນ ບາງ ນະ ໂຕ ນີ້ ບໍ່ ງາມ
[330.625]
<no-speech>
[331.435]
(())
[334.865]
<no-speech>
[336.585]
ບໍ່
[337.725]
<no-speech>
[338.545]
ບໍ່ ເມືອງຮົ່ມ ກະ ຂຶ້ນ ກັບ ເມືອງຮົ່ມ ເມືອງລອງຊານ
[341.475]
<no-speech>
[343.355]
ກູ ໄປ ຫຼາຍ ເທື່ອ ແລ້ວ ກູ ເອົາ ລົດ ໄປ ເອງ ຂັບ ລົດ ຂຶ້ນ ພູ ລົງ ພູ ເອງ <no-speech> ເອີ້ ຂຶ້ນ ກັບ ແຂວງ ວຽງຈັນ ມັນ ຢູ່ ເໜືອ ເຂື່ອນ ນີ້ ນະ ແຖວ ເໜືອ ເຂື່ອນ ແຖວ ນີ້ ນີ້ ນ່າ ແຖວ ສັນປ່າຕອງ ແຖວ ນີ້ ນີ້ ນ່າ
[355.985]
<no-speech>
[357.315]
ເອີ້ ເອີ້ ເໜືອ ເຂື່ອນ ງື່ມ ນີ້ ນະ
[360.405]
<no-speech>
[361.365]
(())
[363.085]
<no-speech>
[368.665]
ນັ່ງ ຕັດ ນີ້ວ
[371.125]
<no-speech>
[373.355]
ທານ ເລັບ
[374.085]
<no-speech>
[375.765]
ກຳລັງ ທານ ເລັບ
[376.715]
<no-speech>
[378.385]
<no-speech>
[378.935]
<no-speech>
[380.215]
ໄດ້ ບໍ່ (())
[381.855]
<no-speech>
[386.555]
ຕາຍ ບາດ ນີ້
[387.765]
<no-speech>
[390.745]
<no-speech>
[391.115]
<no-speech>
[392.135]
ມຶງ ຢູ່ ໃສ ນີ້ ຢູ່ ເຮືອນ ຫວາ
[394.045]
<no-speech>
[399.545]
ສຽງ ນີ້ ຊິ ອັດ ໄປ ໃສ ໄປ ຂາຍ ຫວາ ຄັນ ຂາຍ ກະ ໃຫ້ໄດ້ ເງິນ ໄດ້ ຄຳ ແນ່ ເດີ
[404.105]
<no-speech>
[406.235]
<no-speech>
[406.735]
<no-speech>
[410.035]
ອື ເອົາ ຊື່ ໂລດ ແຫຼະ
[411.505]
<no-speech>
[415.365]
<no-speech>
[415.715]
<no-speech>
[417.105]
<no-speech>
[417.525]
<no-speech>
[421.485]
<no-speech>
[422.985]
<no-speech>
[428.135]
<no-speech>
[428.775]
<no-speech>
[432.285]
<no-speech>
[432.635]
<no-speech>
[434.255]
<no-speech>
[435.225]
<no-speech>
[436.055]
<no-speech>
[436.435]
<no-speech>
[437.315]
<no-speech>
[440.065]
<no-speech>
[446.465]
<no-speech>
[447.155]
<no-speech>
[449.475]
<no-speech>
[449.975]
<no-speech>
[451.455]
(()) ມັນ ກະ ເລີຍ ຢາກ ມີ ຄື້ນ ແນ່ ແມ່ນ ບໍ່
[457.045]
<no-speech>
[458.045]
<no-speech>
[460.925]
<no-speech>
[461.995]
<no-speech>
[462.895]
<no-speech>
[465.335]
<no-speech>
[465.915]
<no-speech>
[466.895]
<no-speech>
[467.825]
<no-speech>
[469.375]
<no-speech>
[469.725]
<no-speech>
[475.035]
(())
[476.655]
<no-speech>
[477.455]
(())
[478.745]
<no-speech>
[479.855]
<no-speech>
[481.105]
<no-speech>
[483.455]
(())
[486.745]
<no-speech>
[488.405]
ຂາຍ ເຄື່ອງ ຢູ່ ຮ້ານ ນີ້ ແຫຼະ <no-speech> ຈຸ ມ່ວນ ຊິ ໄປ ໃສ ບໍ່ ຮູ້ <no-speech> ບາງ ເທື່ອ ລາວ ຊິ ເໝົາ ເຝີ ກູ ໄປ ເຮັດ ຢູ່ ໜ້າ ຮ້ານ ລາວ ຕີ໊ (())
[499.705]
<no-speech>
[500.875]
ບອກ ເຂົາເຈົ້າ ຈີນ ເງິນ ກັນ ເຮັດ ເຝີ ຢູ່
[503.005]
<no-speech>
[508.065]
ຈັ່ງວ່າ ບອກ ເຂົາ ເໝົາ ເຝີ ກູ ນີ້ ນະ ຈັກ ສອງລ້ອຍ ຖ້ວຍ ໜຶ່ງ ກູ ວ່າ
[511.565]
<no-speech>
[512.895]
ກູ ຕັ້ງ ຜູ້ໃດ ຢາກ ລະ ກິນ ໂລດ
[514.935]
<no-speech>
[522.335]
ເຂົາ ປັ້ນ ແນວ ໃດ
[523.775]
<no-speech>
[529.965]
ຮອດ ແຖວ ວັດ ສີ ບຸນ ເຮືອງ ແຖວ ວັດ ເມືອງວາ ເບາະ ອີ່ຫຍັງ ແຫຼະ ຖາມ <hes> ແມ່ຕູ້ ເຂົ້າ ປີ້ງ ຫົວ ງອກ ຫັ້ນ ຫວາ ຊີ້
[536.115]
<no-speech>
[538.925]
ເຂົາ ຮູ້ ໝົດ ແຫຼະ ແຖວ ນັ້ນ ແຖວ ວັດ ເມືອງວາ ແມ່ຕູ້ ປີ້ງ ເຂົ້າ ຫົວ ງອກ ງອກ ຫັ້ນ ນະ
[544.195]
<no-speech>
[545.285]
<no-speech>
[545.985]
<no-speech>
[546.845]
<no-speech>
[547.425]
<no-speech>
[549.565]
<hes> ເຮັດ ນຳ ເດີ ຄາ ວຽກ ລະ ເດີ
[551.365]
<no-speech>
[552.455]
<no-speech>
[553.155]
<no-speech>
[556.795]
ຍັງ ບໍ່ ຮອດ ສິບ ນາທີ ປານ ນີ້ ຫວາ ກູ ເມື່ອຍ ເວົ້າ ລະ ໄດ໋ ນີ້ <laugh>
[560.305]
<no-speech>
[565.265]
ຢາກ ຍ່າງ ຍ່າງ
[566.495]
<no-speech>
[567.385]
ນ້ຳດື່ມ ຂວດ ນ້ອຍ ສອງ ແພັກ
[570.335]
<no-speech>
[576.595]
ອັນ ນີ້ ເອົາ ລະ ຫວາ
[579.025]
<no-speech>
[583.045]
ອື ທໍ່ນັ້ນ ລະ
[584.225]
<no-speech>
[588.425]
<no-speech>
[588.775]
<no-speech>
[590.655]
ບໍ່ ຮູ້ ບໍ່ ຈື່ ແລ້ວ ແມ່ຕູ້ ຫຍັງ ວ່າ ຮູ້ ແຕ່ວ່າ ແມ່ຕູ້ ປີ້ງ ເຂົ້າ ລາວ ປີ້ງ ເຂົ້າ ແຊບ ແຊບ ແມ່ຕູ້ ຫົວ ງອກ ຫັ້ນ ນ່າ ວ່າ ຊິ ເຂົາ ຫາ ຮູ້ ດອກ ກູ ກະ ບໍ່ ຮູ້ ຄືກັນ
[600.205]
<no-speech>
[600.240]
