[0.000]
<no-speech>
[8.752]
<no-speech>
[17.505]
ຮາໂຫຼ
[18.445]
<no-speech>
[21.255]
ຮາໂຫຼ ຮາໂຫຼ ເຈົ້າ ສະບາຍດີ
[23.925]
<no-speech>
[25.555]
ຮາໂຫຼ ເຈົ້າ ອ້າຍ ກີ້ ບໍ
[27.615]
<no-speech>
[30.145]
ໂດຍ ຂໍໂທດ ນໍ້ ໂດຍ ເຮັດ ຫຍັງ ຢູ່ ນໍ້
[35.185]
<no-speech>
[39.255]
<no-speech>
[40.265]
<no-speech>
[41.065]
(()) ຂໍ ລົບກວນ ຈັກ ສິບ ນາທີ ແດ່ ເດີ
[43.975]
<no-speech>
[48.395]
ໂດຍ
[49.275]
<no-speech>
[50.865]
<int> <hes> ປະຊຸມ ແລ້ວ ລະ ແມ່ນ ບໍ່
[53.825]
<no-speech>
[55.675]
ເມື່ອຍ ຢູ່ ບໍ່ ປະຊຸມ
[57.225]
<no-speech>
[61.845]
ບໍ່ປານໃດ ອື ກິນ ເຂົ້າ ແລ້ວ ລະ ຫວາ ຊັ້ນ
[66.345]
<no-speech>
[68.455]
ອໍ ນັ່ງ ລົມ ນຳ ເຈົ້າ ຢູ່ ນີ້ ແຫຼະ
[70.445]
<no-speech>
[73.145]
<no-speech>
[73.865]
<no-speech>
[76.265]
ອໍ ແຕ່ ກະ ຄ່ອຍ ຄ່ອຍ ລົມ ກັນ ໄປ ແຫຼະ ເພາະວ່າ ມັນ ໃຊ້ ລະບົບ ລະ ມັນ ຈະ ສະທ້ອນ ກັບ ຄືນ ມາ <hes> ສຽງ ເຈົ້າ ກັບ ສຽງ ຂ້ອຍ ຫັ້ນ ນະ ເອີ
[87.085]
ຫັ້ນ ແຫຼະ
[88.425]
<no-speech>
[91.315]
(()) ມື້ກີ້ ຮ່ວມ ໂມງ ເສັງ ຈັ່ງ ເວົ້າ ເນາະ
[93.805]
<no-speech>
[95.365]
ອຶຮຶ (()) ໄດ້ ຍິນ ແລ້ວ
[99.245]
<no-speech>
[100.395]
ຊິ ໄປ ໃສ ນີ້ ມື້ແລງ
[101.785]
<no-speech>
[102.715]
ໂດຍ
[103.545]
<no-speech>
[104.385]
ມື້ແລງ ຊິ ໄປ ໃສ
[105.805]
<no-speech>
[107.135]
<no-speech>
[107.485]
<no-speech>
[109.775]
ອ້າວ ເປັນ ຫຍັງ
[110.835]
<no-speech>
[113.275]
ກະດຽວວ່າ ເວົ້າຂວັນ ເພິ່ນ ມາ <breath> <hes> ມີ ໂປຣແກຣມ ຫວາ ເອົາ ກະດຽວວ່າ ເປັນ ຄົນ ມັກ <foreign> ທຸກ ມື້ ກິນ ເຫຼົ້າ ກິນ ເບຍ ຕະຫຼອດ
[121.965]
<no-speech>
[123.055]
<laugh> ໂດຍ ແມ່ນແລ້ວ
[127.005]
<no-speech>
[132.365]
ຮາ ເປັນ ຫຍັງ ອອກ ໄປ ດຸ ແມ່ນ ບໍ່ ນີ້
[135.105]
<no-speech>
[138.695]
ຊັ້ນ ເບາະ ຮື ຄື ມາ ເວົ້າ ຄື ແທ້
[142.615]
<no-speech>
[144.715]
<no-speech>
[146.815]
<no-speech>
[149.285]
ມື້ແລງ
[150.155]
<no-speech>
[151.775]
ອື ກະ ຕອນ ແລງ ຫັ້ນ ແຫຼະ ເລີ່ມ ນະ
[153.835]
<no-speech>
[156.905]
ເຈົ້າ
[157.745]
<no-speech>
[160.385]
ອື ກະ ຕອນ ເຈົ້າ ເລີກ ວຽກ ກະ ຫົກ ໂມງ ກະ ໄດ້ ຂ້ອຍ ໄປ ໂຮງຮຽນ ຕອນ ນັ້ນ ແຫຼະ
[165.605]
<no-speech>
[168.735]
ພໍດີ ເຈົ້າ ເລີກ ວຽກ ແມ່ນ ບໍ່ <int> <breath> ເຈົ້າ ຫວ່າງ ບໍ່ ລະ ຕອນ ນັ້ນ ທີ່ວ່າ ເຈົ້າ ເລີກ ວຽກ ລະ ຂ້ອຍ ຂີ່ ໄປ ຫາ
[175.825]
<no-speech>
[177.545]
ລະ ເຈົ້າ ຊິ ເຮັດ ຈັ່ງໃດ ເອົາໄປ ສົ່ງ ຢູ່ ບ້ານ ເບາະ
[179.785]
<no-speech>
[181.375]
ຢູ່ ໃນ ໃຈ ຕິ ເບາະ
[182.395]
<no-speech>
[183.335]
<no-speech>
[184.295]
<no-speech>
[186.095]
<no-speech>
[186.645]
<no-speech>
[188.375]
<breath> ເອີ <hes> ເຈົ້າ ຫວ່າງ ຕອນ ຈັກ ໂມງ ຂ້ອຍ ໄປ ໂຮງຮຽນ ຕອນ ຫົກ ໂມງ
[193.455]
<no-speech>
[196.485]
ໂດຍ (())
[198.335]
<no-speech>
[199.905]
ຂ້ອຍ ເຂົ້າ ໂຮງຮຽນ ໜຶ່ງ ມື້
[201.555]
<no-speech>
[203.935]
ເຊື່ອ ເຈົ້າ ອອກມາ ຂ້ອຍ ກະ ເຂົ້າ ໄປ (())
[205.475]
<no-speech>
[206.605]
ອື ກະ ປະມານ ຫ້າ ໂມງ ເຄິ່ງ ຫົກ ໂມງ ຍັງ ນີ້ ແຫຼະ
[209.185]
<no-speech>
[212.035]
ແມ່ນແລ້ວ
[212.955]
<no-speech>
[217.295]
ເລີກ ເບາະ ກະ ແປດ ໂມງ ເນາະ ເລີກ
[219.775]
<no-speech>
[223.705]
ແມ່ນແລ້ວ
[224.765]
<no-speech>
[228.095]
ເປັນ ຫຍັງ
[229.225]
<no-speech>
[231.165]
ກະ ຕອບ ແລ້ວ ໂອ້ຍ ມັນ ກະ ເປັນ ນຳ ລະບົບ ທີ່ ເຂົາເຈົ້າ ສົ່ງ ສຽງ ໄປ ຫາ ນໍ້ ຂ້ອຍ ກະ ຖ້າ ເຈົ້າ ເວົ້າ ຢູ່ ວ່າ ເຈົ້າ ຊິ ຕອບ ຂ້ອຍ ຊີ້ ນ່າ
[239.865]
<no-speech>
[240.675]
ບໍ່ ແລ້ວກະ ບໍ່ ໄດ້ ຟຣີ ແລະ ເສຍ ເງິນ <no-speech> ອຶ ລະບົບ ເສຍ ເງິນ <no-speech> ແຕ່ ເປັນ ເບີ ຕ່າງ ປະເທດ ອຶຮຶ
[247.735]
<no-speech>
[252.975]
ແມ່ນ ຊັ້ນ ເບ໊າະ ບໍ່ ໄດ້ ຕີ໊ ແບບ ນີ້ <laugh> ວ່າ ຈັ່ງໃດ ນີ້ ມື້ແລງ <no-speech> ຊິ ອອກມາ ເອົາ ນຳ ຂ້ອຍ ບໍ່
[260.335]
<no-speech>
[265.745]
ອື ບໍ່ ທັນ ໄດ້ ໄວ້ ຫຼືວ່າ
[268.155]
<no-speech>
[269.435]
ເອົາ ກະ ຢູ່ ໂຮງຮຽນ ຮ້ານ ເກົ່າ ເບາະ ໄປ ກິນ ຕຳ ໝີ່
[272.745]
<no-speech>
[274.275]
ຫຶ
[274.775]
<no-speech>
[276.415]
<foreign>
[277.075]
<no-speech>
[281.035]
ກິນ <hes> ລູກຊີ້ນ ແມ່ນແລ້ວ ໄປ ຮ້ານ ນັ້ນ ກະ ໄດ້
[285.425]
<no-speech>
[286.475]
ຮາ
[287.125]
<no-speech>
[289.065]
ອື
[289.925]
<no-speech>
[293.945]
ໂອເຄ ແຕ່ກ່ອນ ນີ້ ກະ ລົມ ລົມ ໄປ ກ່ອນ ເນາະ ຈົນ ກວ່າ ສິບ ນາທີ ເນາະ <laugh>
[300.185]
<no-speech>
[301.935]
ແມ່ນ
[302.895]
<no-speech>
[305.115]
ແມ່ນແລ້ວ
[306.065]
<no-speech>
[307.875]
ເປັນ ຫຍັງ
[308.715]
<no-speech>
[314.445]
ຄື ຕອນ ນີ້ ມັນ ຕ້ອງ ໃຫ້ ເຮັດ ຕາມ ກຳນົດ ຫັ້ນ ນະ
[318.415]
<no-speech>
[319.245]
ແມ່ນແລ້ວ ຮອດ ສິບ ແລ້ວ ມັນ ຈະ
[321.125]
<no-speech>
[323.025]
ບໍ່ ບໍ່ ບໍ່ ແຕ່ ບໍ່ ໄດ້ ສະທ້ອນ ກັບ ຄືນ ມາ
[325.365]
<no-speech>
[326.495]
ແຕ່ ເຈົ້າ ຟັງ ຫັນ ມັນ ມີ ສຽງ ສະທ້ອນ ເບາະ
[328.445]
<no-speech>
[336.715]
ອຶຮຶ <breath> ເພາະວ່າ <no-speech> ສຽງ ມັນ ຈະ ຄ່ອຍ ຄ່ອຍ <hes> ຄ່ອຍ ສົ່ງ ໄປ ເວລາ ຂ້ອຍ ເວົ້າ ເນາະ ເອີ ມັນ ກະ (()) ຂ້ອຍ ຈະ ຮູ້ ຍິນ ເອງ ຊີ້ ນະ ເອີ ຊົ່ວ ເຈົ້າ ຊິ ໄດ້ ຍິນ ຂ້ອຍ ມັນ ກະ ເອີ ສົ່ງ
[348.625]
ສົ່ງ ໄປ ເອີ ຄື ເຈົ້າ ເວົ້າ ມາ ມັນ ກະ ບໍ່ ໄດ້ ສະທ້ອນ ໃດ ມັນ ກະ ເປັນ ສຽງ ປົກກະຕິ
[352.965]
<no-speech>
[353.835]
ອຶຮຶ
[354.545]
<no-speech>
[359.925]
ອຶ
[360.805]
<no-speech>
[362.505]
ເອີ ເພາະວ່າ <hes> ເວລາ ເວົ້າ ເນາະ
[365.565]
<no-speech>
[366.695]
ຈັ່ງໃດ ຄື ເຈົ້າ ບໍ່ ຄ່ອຍ ໄດ້ ຍິນ ຂ້ອຍ ເບ໊າະ ຫຼືວ່າ ມັນ ເປັນ ຈັ່ງໃດ
[371.175]
<no-speech>
[374.815]
ອື
[375.675]
<no-speech>
[378.945]
ເອີ ເຂົ້າໃຈ ຄື ມັນ ຈະ ຄ່ອຍ ຄ່ອຍ ສົ່ງ ໄປ ເນາະ ມັນ ຈະ ຊ້າ ອີ່ຫຼີ ຍອມ ຮັບ
[383.665]
<no-speech>
[384.855]
ແຕ່ ກະ ເອີ ລົມ ລົມ ໄປ ເລື້ອຍ ເລື້ອຍ ຈົນ ຈົບ ເລື່ອງ ເນື້ອເລື່ອງ ເນາະ
[389.165]
<no-speech>
[392.765]
ອື ກະ ຫຼາຍ ຄົນ
[395.155]
<no-speech>
[396.295]
ມື້ແລງ ໄປ ກິນ ເບຍ ບໍ່
[397.625]
<no-speech>
[399.005]
ເອີ ແຕ່ລະ ຄົນ ກຽມ ກັນ ເນາະ
[402.665]
<no-speech>
[404.275]
ໂດຍ ມື້ແລງ ໄປ ກິນ ເບຍ ບໍ່ ຫຼື ໄປ ຮ້ອງ ເພງ ເບາະ ມື້ແລງ ໄປ ກິນ ເບຍ ບໍ່ ຫຼື ໄປ ຮ້ອງ ເພງ <laugh>
[411.415]
<no-speech>
[415.015]
ບໍ່ ໄດ້ ເວົ້າ ໃຫຍ່ ໃດ ເວົ້າ ສ່ຳ ໂຕ
[417.395]
<no-speech>
[421.625]
<laugh> ເວົ້າ ບໍ່ ມ່ວນ ຂາ ເຂົາເຈົ້າ ບໍ່ ໄດ້ ໃຫຍ່ ມັນ ທໍ່ ໂຕະ ສະນຸກເກີ ຊື່ ຊື່ <laugh>
[430.645]
<no-speech>
[434.955]
ຊັ້ນ ເບາະ ອື ຊິ ເອີ ຄັນ ເລີກ ໄວ ກະ ຊິ ພາ ໄປ ຮ້ອງ ເພງ ເນາະ ໄປ ຈານ ຄຳ ບໍ່
[443.185]
<no-speech>
[445.185]
<laugh> <breath> ໄປ ບໍ່
[449.115]
<no-speech>
[450.005]
ຂ້ອຍ ຊິ ລ້ຽງ ຂ້ອຍ ຊິ ລ້ຽງ ເຈົ້າ ເຈົ້າ ຈົກ ລະ ຂ້ອຍ ຊິ ຈ່າຍ
[454.345]
<no-speech>
[456.825]
<no-speech>
[458.745]
<no-speech>
[459.805]
ໂອເຄ ບໍ່ <laugh>
[461.705]
<no-speech>
[466.855]
ແມ່ນແລ້ວ ຕອນ ແລງ ບຸນ ໃຜ ພາ ເຮັດ ຕອນສວາຍ ຕອນ ແລງ ເຂົາເຈົ້າ ກະ ມາ ເພາະ
[471.535]
<no-speech>
[474.815]
ໄປ ກໍ່ ໄປ ແຫຼະ ເນາະ <no-speech> ສະແດງ ວ່າ ເຈົ້າ ບໍ່ ເຄີຍ ເຮັດ ບຸນ ແມ່ນ ບໍ່ ນີ້ ຄົນ ບາບ ຫວາ
[480.495]
<no-speech>
[482.115]
<laugh> ໂອ ແນວ ຖາມ ໜ້າ ຖາມ ຫຼັງ ຍັງ ວ່າ ບໍ່ ຮູ້ຈັກ <hes> ເຮັດ ບຸນ ມາ ເພາະ ຈັກ ໂມງ ເຂົາ ເຮັດ ຫຍັງ ຈັກ ໂມງ
[492.845]
<no-speech>
[496.135]
ຢູ່ ໃສ
[497.155]
<no-speech>
[499.735]
ເບິ່ງ
[500.515]
<no-speech>
[501.345]
ໂອ ໃກ້ ບ້ານ ຂ້ອຍ
[503.435]
<no-speech>
[505.135]
ພຸ້ນ ຕວ່າ ໂອ ໂຫ ຢູ່ ໄຜ່ໜາມ ໃກ້ ໃກ້ ບ້ານ ຂ້ອຍ ນີ້ ດອງ ໃຜ ລະ
[510.685]
<no-speech>
[512.635]
ດອງ ໃຜ
[513.715]
<no-speech>
[515.055]
ຫຶ
[515.675]
<no-speech>
[517.315]
ໂອ ໃຜ ຊິ ກ້າ ເນາະ
[519.225]
<no-speech>
[520.785]
ເອີ ຫັ້ນ ແຫຼະ ລະ ຂ້ອຍ ຊິ ກ້າ ໄປ ເນາະ
[522.595]
<no-speech>
[524.215]
ຈັກ
[524.965]
<no-speech>
[525.915]
ຕາ ຢ້ານ <laugh> ຢ້ານ ຂ້ອຍ ຊິ ງາມ ກວ່າ ເຈົ້າສາວ ຂ້ອຍ ເລີຍ ບໍ່ ຢາກ ໄປ <laugh>
[533.895]
<no-speech>
[535.425]
<no-speech>
[537.105]
<no-speech>
[541.415]
ໂອ <hes>
[542.545]
<no-speech>
[544.155]
ບໍ່ ຮູ້ ບ່ອນ ຮອດ ມື້ກ່ອນ ຄ່ອຍ ວ່າ ກັນ ເພາະວ່າ ວັນ ທິດ ມັນ ກະ ເປັນ ມື້ ໃສ່ ບາດ ມັນ ກະ ຕ້ອງ ມີ ໄດ້ ມາ ພັກຜ່ອນ ຫັ້ນ ນະ ແຕ່ ກະ ບໍ່ ຮູ້ວ່າ
[552.925]
<no-speech>
[554.035]
ແມ່ນແລ້ວ
[555.315]
<no-speech>
[557.565]
ອື ກະ ແລ້ວແຕ່ ເນາະ
[559.355]
<no-speech>
[560.725]
ຊິ ໄປ ຫວະ ລະ ຊິ ພາ ຂ້ອຍ ໄປ ເບາະ
[562.785]
<no-speech>
[563.865]
ອື
[564.905]
<no-speech>
[565.885]
ຊິ ໄປ ໃສ
[567.115]
<no-speech>
[568.005]
<no-speech>
[568.795]
<no-speech>
[571.645]
ໂອ
[572.495]
<no-speech>
[573.485]
ໂດຍ ແລ້ວ ບຸນ ກະ ປະມານ ຕອນສວາຍ ເນາະ ກະ ໄດ້ ອອກມາ ຈາກ ບ້ານ ນ້າສາວ ກະ <hes> ກະ ກັບ ເມືອ ບ້ານ ພັກຜ່ອນ
[582.515]
<no-speech>
[583.515]
ໂດຍ ແມ່ນແລ້ວ
[585.265]
<no-speech>
[586.755]
<no-speech>
[588.115]
<no-speech>
[588.995]
ຮາ
[589.695]
<no-speech>
[593.665]
ພຸ້ນ ຕວ່າ <laugh>
[594.995]
<no-speech>
[596.365]
<hes> ວັນທິ-
[600.020]
