[0.000]
<no-speech>
[0.125]
(())
[0.535]
<no-speech>
[1.665]
ຍິນ ແລ້ວ ເຮີຍ ກູ ສົນໃຈ ລົດ ລຸ້ນ ໜຶ່ງ ນະ ກູ ສົນໃຈ ລົດ ລຸ້ນ ໜຶ່ງ ນະ
[7.785]
<no-speech>
[10.295]
ອືມ ລຸ້ນ ຈີນ <foreign> ນີ້ ແຫຼະ
[15.545]
<no-speech>
[16.395]
(()) ລະເລີຍ ເທົ່າໃດ ລະ ລະເລີຍ ເທົ່າໃດ
[22.145]
<no-speech>
[24.865]
ໂອ ໜ້າຈະ ແພງ ເນາະ ໂຕ <foreign> ນີ້ ນະ
[27.865]
<no-speech>
[29.305]
<foreign> ເດ
[30.225]
<no-speech>
[32.305]
(())
[32.655]
<no-speech>
[34.355]
<int> ໂອ້ຍ (())
[35.755]
<no-speech>
[37.235]
ວ່າ ຊິ ຂາຍ ວ່າ ຊິ ບອກ ພໍ່ ຂາຍ ນາ ໄປ ຊື້ ຈັກ ສອງ ຄັນ ນີ້ ນະ
[41.735]
<no-speech>
[44.935]
<no-speech>
[45.305]
<no-speech>
[46.105]
<int> ໂອ (()) ລົດ ອານ ດຳ (())
[54.305]
<no-speech>
[57.215]
ອືມ ເອີ ເບິ່ງ ກ່ອນ ເບິ່ງ ກ່ອນ ປຶກສາ ພໍ່ ກ່ອນ ຍົວະ ພໍ່ ຂາຍ ດິນ ກ່ອນ ຄັນ ໄດ້ ຊິ ບອກ <sta>
[64.965]
<no-speech>
[66.925]
<no-speech>
[67.275]
<no-speech>
[70.485]
ລົດຖີບ ລຸ້ນ ອັນ ນັ້ນ ລຸ້ນ ແປດພັນ ຫວາ ລຸ້ນ ຫຍັງ ເກ໊າະ ລົດຖີບ ລຸ້ນ ຫຍັງ ເກ໊າະ
[75.485]
<no-speech>
[78.465]
ໂອ ແອວ ມັນ ເພ ໄວ ໂພດ ຕີ໊
[80.555]
<no-speech>
[83.385]
ເບາະ
[83.875]
<no-speech>
[87.075]
(())
[88.345]
<no-speech>
[91.005]
ໂຕ ຂີ່ ສີ ແຈດ ແຈດ ໝູ່ ຫັ້ນ ນ່າ ລະເລີຍ ແປດພັນ ຫຼືວ່າ ໝື່ນ ໜຶ່ງ ນີ້ ນະ
[95.465]
<no-speech>
[97.925]
ອືມ <click>
[98.995]
<no-speech>
[101.675]
ໂອ້ (())
[102.455]
<no-speech>
[103.845]
ກຳລັງ ທ້ອນ ເງິນ ຊື້ ຢູ່ ນີ້
[105.505]
<no-speech>
[106.475]
<no-speech>
[106.875]
<no-speech>
[108.525]
ອືມ
[109.965]
<no-speech>
[112.155]
ຫາກໍ່ ທ້ອນ ໄດ້ ຮ້ອຍ ໜຶ່ງ ວ່າ ຊັ້ນ ເຫຼືອ ອີກ ປະມານ ເຈັດພັນ ເກົ້າຮ້ອຍ ພຸ້ນ
[115.765]
<no-speech>
[116.835]
<no-speech>
[117.395]
<no-speech>
[119.715]
ອືມ
[120.525]
<no-speech>
[123.365]
ໂອ້ ລະ ພະຍາຍາມ ທ້ອນ ຢູ່ ນີ້
[124.925]
<no-speech>
[126.695]
ເຮັດ ຈັ່ງໃດ ຫວາ ຈິ່ງ ຊິ ໄດ້ ນີ້
[128.125]
<no-speech>
[130.645]
<sta> ອືມ ວ່າ ຈັ່ງຊັ້ນ ລະ
[131.985]
<no-speech>
[133.415]
ໄດ້ ຍິນ ຂ່າວ ອ້າຍ ໂຕ້ ຫຼິ້ນ ກີຕ້າ ເກັ່ງ ເກັ່ງ ຕວ່າ ມື້ ໜ້າ ສອນ ແດ່ ແມ
[137.705]
<no-speech>
[140.225]
(())
[140.825]
<no-speech>
[141.725]
ອູ່ ບໍ່ ມື້ ໜ້າ ສອນ ໃຫ້ ແດ່ ເດີ ເອີ ເອີ ບໍ່ ແມ່ນ ບອກສອນ ສອນ ໄດ
[150.755]
<no-speech>
[153.315]
<no-speech>
[153.815]
<no-speech>
[155.455]
ຫາ
[155.985]
<no-speech>
[157.315]
(())
[157.725]
<no-speech>
[159.155]
ເອົາ <foreign> ຮອດ <foreign> ກະ ພໍ ລະ <laugh> ຍັງ ວ່າ ມື້ ນີ້ ຟັງ <foreign> ບີ <foreign> ດີ ຫັ້ນ ນ່າ
[164.835]
<no-speech>
[167.025]
ເອີ
[168.335]
<no-speech>
[172.295]
ເຮົາ ເອົາ ເພງ ງ່າຍ ງ່າຍ ກ່ອນ ເນາະ ແຕ່ ຈັບ ຂອດ ຍັງ ຂອດ ແຕ່ ຈັບ ຂອດ ຍັງ ຂອດ ຍັງ ຈັບ ບໍ່ ເປັນ ລະ ຈັບ ຂອດ ກີຕ້າ ນີ້ ນະ
[180.245]
<no-speech>
[183.985]
ອືມ (()) ຂຶ້ນ ໄປ ຫາ ເດີ ມື້ອື່ນ ເດີ
[187.575]
<no-speech> (())
[188.925]
<int> ເອີ
[190.605]
<no-speech>
[191.955]
ປະມານ ຫ້າ ໂມງ ເຊົ້າ ນີ້ ແຫຼະ ໄປ ຫາ ຂຶ້ນ ໄປ ຫາ ຢູ່ ຫ້ອງ
[194.945]
<no-speech>
[195.885]
ເອີ
[196.505]
<no-speech>
[197.355]
<no-speech>
[197.765]
<no-speech>
[199.025]
ໂອ ຊິ ໄປ ຫາ ສິບ ໂມງ ເດີ ຊັ້ນ
[201.745]
<no-speech>
[203.205]
ຊິ ໄປ ຫາ ສິບ ໂມງ ເດີ
[204.405]
<no-speech>
[207.025]
ອືມ
[207.575]
<no-speech>
[209.205]
ຊິ ຕື່ນ ທັນ ບໍ່ ລະ
[210.335]
<no-speech>
[211.285]
<no-speech>
[211.875]
<no-speech>
[214.495]
ໂອ <sta>
[216.885]
<no-speech>
[218.065]
ຄື ຕື່ນ ເຊົ້າ ແທ້
[219.995]
<no-speech>
[223.665]
<sta> ກູ ວ່າ ຊິ ໄປ ຫາ ສາວ ເນາະ ມື້ ນີ້ ບໍ່ ໄປ ນຳ ເບາະ
[226.325]
<no-speech>
[227.175]
<no-speech>
[227.545]
<no-speech>
[228.615]
<sta> ໂອ ນະ
[229.675]
<no-speech>
[231.245]
ໂອ ເອົາ ຈັກ ຄົນລະ
[232.355]
<no-speech>
[234.095]
(())
[234.485]
<no-speech>
[236.105]
ເອົ້າ ເຂົາ ໄປ ນຳ ແຟນ ເຂົາ ຕວ່າ ຫັ້ນ ອຶ ແຟນ ຂ້ອຍ ຕວ່າ ນະ <sta>
[240.195]
<no-speech>
[241.795]
ອ້າວ ເອົາ ຄົນ ໃດ ລະ ຊິ ເອົາ ເບີ ຂໍ ເບີ ໃຜ ນີ້ <sta> ເບາະ ເອົາ ຄົນ ໃດ ລະ
[250.155]
<no-speech>
[253.785]
ໂອ້ ອັນ ນີ້ ອັນ ນີ້ ໃຫ້ ບໍ່ ໄດ້ ອັນ ນີ້ ໃຫ້ ບໍ່ ໄດ້
[255.965]
<no-speech>
[256.835]
<click> ອັນ ນີ້ ຈອງ ແລ້ວ ອໍ ແຟນ ເຂົາ ອັນ ນີ້ ແຟນ ຂ້າພະເຈົ້າ ເນາະ ໃຫ້ ຜູ້ອື່ນ ບໍ່ ໄດ້
[264.875]
<no-speech>
[268.075]
<int> ໂອ ເອີ ຄັນ ໃຫ້ ເອີ ຕຸລາ ບໍ່ ນົກ ບໍ່ ໄໝຄຳ ບໍ່ ເອີ ໜ້າຈະ ໄດ້ ຢູ່
[274.475]
<no-speech>
[277.725]
ບໍ່ ໃຫ້ ນະ (()) ເອີ ເອົາ ຜູ້ໃດ ລະ ເອົາ ຜູ້ ໃຊ້ ໄອໂຟນ ເບາະ
[286.765]
<no-speech>
[287.595]
<no-speech>
[287.955]
<no-speech>
[289.655]
ເອີ ເອົາ ໜ້າ ຕາ ຈັ່ງໃດ
[291.835]
<no-speech>
[292.885]
<no-speech>
[293.255]
<no-speech>
[295.505]
(())
[295.915]
<no-speech>
[296.845]
<breath> ປານກາງ ບໍ່ ມີ ນະ ມີ ແຕ່ ສວຍ ເລີດ <foreign> ຫັ້ນ ແຫຼະ
[300.355]
<no-speech>
[303.595]
<int> ເອີ <int> ມື້ອື່ນ ບໍ່ ໄປ ນຳ ມື້ແລງ ບໍ່ ໄປ ນຳ ຫວາ ມື້ແລງ ນີ້ ມື້ແລງ ບໍ່ ໄປ ນຳ ຫວາ
[312.205]
<no-speech>
[313.045]
ໂອ້ຍ ຫາ ສາວ ຕວ່າ ເນາະ ດາວຄຳ ພຸ້ນ ນ່າ
[316.055]
<no-speech>
[316.905]
ບໍ່ ໄປ ຫວາ ດາວຄຳ <sta> ເອີ ເອົາ ກະ ບ້ານນາ ຄຳ ພຸ້ນ <no-speech> ເອີ
[325.545]
<no-speech>
[327.195]
ອຸ໋ຍ ຊິ ອອກ ໄປ ຮັບ
[329.035]
<no-speech>
[330.695]
ໂທ ບອກ ສາວ ອີແລນຕ້າ ເບາະ ໂທ ບອກ ສາວ ອີແລນຕ້າ ມາ ຮັບ ລະ ເດ
[335.075]
<no-speech>
[337.515]
ດຽວ ເຈັດ ແປດ ໂມງ ເຂົາເຈົ້າ ກະ ມາ ອອກມາ
[339.575]
<no-speech>
[340.665]
ເອົາມາ ສອງ ຄົນ (()) ເອີ
[343.915]
<no-speech>
[345.055]
(()) ເຈົ້າ ເຫັນ ບໍ່ ເຂົາເຈົ້າ ອອກມາ ຮັບ ສາວ ສອງ ຄົນ ອອກມາ ເລີຍ ອູ່ ສຸດ ຍອດ ເລີຍ
[350.185]
<no-speech>
[352.705]
ເອີ ກະ ແຫຼມ ເລີຍ
[354.175]
<no-speech>
[355.205]
ຕ່າງ ແຕ່ ເຂົາເຈົ້າ ຕ່າງ ແຕ່ ເຂົາເຈົ້າ ມີ ແຟນ ແລ້ວ
[358.765]
<no-speech>
[361.085]
ເອົາ ເອົາ ເຮົາ ລົມ ເຂົາເຈົ້າ ເນາະ ບໍ່ ໄດ້ ລົມ ເອີ ບໍ່ ແມ່ນ ເຮົາ ລົມ ເຂົາເຈົ້າ ເນາະ ບໍ່ ໄດ້ ລົມ ແຟນ ເຂົາເຈົ້າ ນີ້
[368.355]
<no-speech>
[371.235]
<no-speech>
[371.585]
<no-speech>
[374.025]
ເອົາ ເຮົາ ລົມ ແຟນ ເຮົາ ລົມ ເຂົາເຈົ້າ ເນາະ ບໍ່ ໄດ້ ລົມ ເຂົາເຈົ້າ
[377.035]
<no-speech>
[381.245]
ເອົາ ຕີ ກະ ຕີ ຄືນ ຕວ່າ ຢ້ານ ຫຍັງ
[383.935]
<no-speech>
[386.995]
<sta> ໂອ້ຍ ຊິ ຢ້ານ ຫຍັງ ງ້າວ ຜູ້ ລະ ດວງ ກະ ພໍ ລະ
[391.365]
<no-speech>
[394.495]
ຍາກ ຫຍັງ ເກີດເປັນ ລູກ ຜູ້ຊາຍ ຄົນລະ
[397.385]
<no-speech>
[401.005]
ໂອ ບໍ່ ວ່າ ໃຜ ລະ <sta>
[406.635]
<no-speech>
[407.635]
ເອີ
[409.465]
<no-speech>
[412.835]
ອາບ ນ້ຳ ອາບ ອາບ ອາບ ນ້ຳ ໄວ້ ເດີ ອາບ ນ້ຳ ໄວ້ ເດີ
[417.165]
<no-speech>
[419.245]
ເອີ ຫ້າມ ນຸ່ງ <foreign> ໄປ ໄດ
[421.135]
<no-speech>
[423.835]
ເກີບ ອີ່ ແຕະ ດາວ ເອີ ດາວຄຳ ນີ້ ເຂົາເຈົ້າ ບໍ່ ໃຫ້ ໃສ່ ເກີບ ອີ່ ແຕະ ໄປ ຜ້າ ໃບ ໄປ ໄດ ເຂົາ ໃສ່ ແຕ່ ເກີບ ໃນ ກີ້ ອາ ດີ ດາດ
[433.095]
<no-speech>
[434.915]
<no-speech>
[435.325]
<no-speech>
[436.195]
ເອີ
[436.955]
<no-speech>
[438.415]
ກາ ມ້າ
[439.595]
<no-speech>
[441.275]
ໃສ ກາ ມ້າ ໄປ
[443.395]
<no-speech>
[445.365]
(())
[446.135]
<no-speech>
[447.205]
ໂອ ກາ ມ້າ ເອົາໄວ້ ຢູ່ ເຮືອນ ໄວ ຢ້ານ ເຂົາເຈົ້າ ລັດ ຕີ ມ້ຽນ ຢູ່ ເຮືອນ ໄວ
[450.575]
<no-speech>
[453.355]
ໂອ ໄປ ສອງ ເທື່ອ ເກືອບ ເຂົາເຈົ້າ ຕີ ຫົວ ພຸ້ນ ຕວ່າ
[456.465]
<no-speech>
[457.295]
<no-speech>
[457.705]
<no-speech>
[461.805]
ໂອ ມື້ແລງ ກະ ມາ ເຮືອນ ບໍ່ ຮອດ (())
[467.495]
<no-speech>
[468.295]
ນ້ຳມັນ ເບິດ ກະ ມາ ບໍ່ ຮອດ
[470.695]
<no-speech>
[473.645]
ມັນ ບໍ່ ມີ ປ້ຳ ປ້ຳ ປິດ ແຖວ ນັ້ນ ນະ (()) ສາມ ໂມງ ລະ ກັບ
[478.095]
<no-speech>
[479.085]
ອືມ ເກືອບ ມາ ບໍ່ ຮອດ ບໍ່ ແມ່ນ ເຂົາເຈົ້າ ລັດ ຕີ ໄດ ນ້ຳມັນ ໝົດ
[483.325]
<no-speech>
[486.975]
ປ້ອມ ບໍ່ ປ້ຳ ປ້ຳ ຕີ໊ ບໍ່ ແມ່ນ ປ້ອມ ປະມານ ສິບ ໂມງ ເອີ ປ້ຳ ບໍ່ ແມ່ນ ປ້ອມ
[493.615]
<no-speech>
[495.795]
<no-speech>
[497.975]
<no-speech>
[498.825]
<no-speech>
[500.315]
<no-speech>
[504.095]
ເອີຍ ເລື່ອງ ຫຍັງ ເລື່ອງ ຜູ້ສາວ ຫວາ ຄື ເລື່ອງ ບົດຮຽນ
[506.325]
<no-speech>
[508.895]
ໂອ້ຍ ເອົາ ອັນ ນັ້ນ ແຫຼະ ປ່ອຍໃຫ້ ບັກ <breath> ອັນ ນັ້ນ ຊະ ເອົາ ປ່ອຍ ໄປ ຫຼາຍ ນະ ເປັນ ຈັ່ງໃດ ເຈັບ ບໍ່ <sta>
[519.195]
<no-speech>
[521.615]
ນ່ານ
[522.565]
<no-speech>
[525.405]
ເສຍ ສະ ແລະ ເສຍ ບ່າວ ຕົ້ນ ເສຍ ຄາລົມ ບ່າວ ຕົ້ນ ສະ
[529.685]
<no-speech>
[531.845]
<sta> ແມ່ນແລ້ວ
[534.065]
<no-speech>
[534.925]
ມີ ໂອກາດ ບໍ່ ຄວ້າ ມ້ຽນ ນະ
[537.545]
<no-speech>
[542.135]
ອືມ (()) ເນາະ ບໍ່ ໄດ້ ມີ ຄົນ ດຽວ ໃນ ໂຮງຮຽນ
[546.095]
<no-speech>
[550.315]
ບໍ່ ແມ່ນ ເຂົາເຈົ້າ ຂີ້ຄຸຍ
[552.915]
<no-speech>
[554.395]
<int> ອືມ
[556.195]
<no-speech>
[559.115]
ຫຼິ້ນ ໂຕ ຫັ້ນ ຕິ ເບິ່ງ ຜູ້ຍິງ ຫ້ອງ ເຮົາ ວ່າ ຊັ້ນ ໜ້າ ບັກ ຂາວ ຂາວ ເບິ່ງ ໜ້າ ວ່າ ຊັ້ນ ເບິ່ງ ໃກ້ ໃກ້ ຊຸມເຂົ້າ ຊຸມເຂົ້າ ວ່າ ຊັ້ນ ມີ ແຕ່ ແປ້ງ ວ່າ ຊັ້ນ
[569.105]
<no-speech>
[571.745]
ອືມ <sta> ມີ ແຕ່ ແປ້ງ
[574.925]
<no-speech>
[575.885]
ເບິ່ງ ຄັກ ຄັກ ຫັ້ນ ນ່າ ເນາະ ບໍ່ ຮູ້ວ່າ ແມ່ນ ຫຍັງ ເວີຍ ຄົນ ທີ່ ບໍ່ ທາ ແປ້ງ ຫັ້ນ ມີ ໜ້ອຍ
[581.055]
<no-speech>
[584.135]
ຮໍ ລີ ບູດ ດາລາ ຮໍ ລີ ບູດ ມາ ແລ້ວ
[586.635]
<no-speech>
[588.415]
ອຸ່ນ ຖ້າ ກ່ອນຊິ ກິນ ນະ ຕ້ອງ ເອົາ ເຂົ້າ ໄມ <foreign> ເວບ ກ່ອນ ຈິ່ງ ມີ ຈິ່ງ ຊິ ກິນ ໄດ້
[594.445]
<no-speech>
[596.565]
(()) ນີ້ ເຈັບ ທ້ອງ ໄດ ເນາະ
[599.785]
(())
[600.180]
