[0.000]
<no-speech>
[1.115]
<no-speech>
[3.125]
ຮາໂຫຼ
[4.995]
<no-speech>
[5.795]
ຮາໂຫຼ
[6.865]
<no-speech>
[7.715]
ເດີກ ຫວະ
[8.505]
<no-speech>
[9.515]
ເອີ ເຂົາ ເຮັດ ຫຍັງ ຫັ້ນ ນ່າ ມຶງ ເຮັດ ຫຍັງ ຫັ້ນ ນ່າ
[13.875]
<no-speech>
[14.985]
ຊະ ຫົວ ເອີ ຊະ ແລ້ວ ມາ ກິນ ເຂົ້າ ເດີ ແມ່ ຊື້ ຂອງກິນ ມາ ໄວ້ ຖ້າ ກ່ອນ ກິນ ເຂົ້າ
[20.295]
<no-speech>
[21.805]
ບໍ່ ໄດ້ ໄປ (()) ມື້ ນີ້ ນ່າ
[23.335]
<no-speech>
[24.945]
ມັນ ບໍ່ ໄດ້ ໄປ ໃສ <no-speech> ມື້ ນີ້ ບໍ່ ໄດ້ ໄປ ທ່ຽວ ຊັ້ນ ບໍ່
[29.985]
<no-speech>
[30.825]
ເອີ ບໍ່ ໄປ ໃສ ຂາຍ ເຂົ້າ ກັບ ແມ່ ບໍ່ ຕ້ອງ ໄປ ໃສ ຫຼາຍ ມື້ ນີ້ ນ່າ <no-speech> ແມ່ ໄດ້ ເງິນ ແມ່ ຊິ ພາ ໄປ ທ່ຽວ ເມືອງ ໄທ ພຸ້ນ ໄປ ທ່ອງທ່ຽວ ຫຼິ້ນ ເມືອງ ໄທ ແລ່ນ ປັດ ສະ ປໍ ຜ່ານ ແດນ ໃຫ້
[42.725]
<no-speech>
[43.965]
<no-speech>
[45.165]
<no-speech>
[47.765]
ຢູ່ ຂາຍ ເຂົ້າ ນີ້ ແຫຼະ ກັບ ເອື້ອຍ ເຕ້ຍ ກັບ ບັກ ອ້າຍ ຫຼາຍ ຄົນ ຫັ້ນ ແຫຼະ ຢູ່ ໃນ ເຮືອນ ແລ້ວ ກັບ ເອື້ອຍ ໝີ ອື
[54.165]
<no-speech>
[55.935]
ແລ້ວ ຫວາ ຊະ ຫົວ ບໍ່ ທັນ ແລ້ວ ຫວາ
[58.015]
<no-speech>
[59.725]
ຮ່າ
[60.275]
<no-speech>
[62.105]
ອ້າຍ ຍັງ ກຳລັງ ຢູ່ ຮ້ານ ສັ່ງ ຕຳ ໝາກຫຸ່ງ ສັ່ງ ໝູ ມາ ກິນ <no-speech> ມື້ແລງ ເດີ ບໍ່ ມີ ວຽກ ໄປ ບໍ່
[72.195]
<no-speech>
[75.185]
<no-speech>
[75.705]
<no-speech>
[77.045]
ມື້ອື່ນ ເດີ ວັນ ທິດ ເດີ ບໍ່ ໄດ້ ໄປ ໃສ ຫວະ
[80.505]
<no-speech>
[83.955]
ບໍ່ ຮູ້ ເທື່ອ <hes>
[87.185]
<no-speech>
[90.375]
(())
[92.985]
<no-speech>
[94.745]
<no-speech>
[95.735]
<no-speech>
[98.715]
ເຈັດ ເປັນ ແປດ
[99.645]
<no-speech>
[100.955]
ແລ້ວ ໄປ ຮຽນ ໃສ ຕໍ່ ຮ່າ ບໍ່ ໄດ້ ໄປ ຮຽນ ໃສ ຕໍ່ ຫວະ
[104.545]
<no-speech>
[107.865]
ບໍ່ ຮູ້ ເທື່ອ
[109.185]
<no-speech>
[111.225]
ເອີ
[111.955]
<no-speech>
[113.345]
ບັກ ກຽນ ລະ ກຽມ ໄປ ຮຽນ ຕໍ່ ໃສ ລະ
[117.585]
<no-speech>
[120.225]
ຮຽນ ທະນະ ຄານ <no-speech> ມັນ ເສັງ ບໍ່ ໄດ້ ເດ ລະ <laugh>
[124.305]
<no-speech>
[128.595]
ອີ່ ບໍ່ ໄດ້ ກໍ່ ບໍ່ ຕ້ອງ ເຮັດການ
[131.145]
<no-speech>
[135.075]
ໄດ້ ຍິນ ບໍ່ ແມ່ ເວົ້າ
[139.075]
<no-speech>
[139.955]
ເງິນ ບໍ່ ໄດ້ ແລ້ວກໍ່ ມາ ຊອກ ເຮັດການ ຫາ ເງິນ ຊື້ ລົດຈັກ ຂີ່
[149.285]
<no-speech>
[150.495]
ເອີ ຊື້ ລົດຈັກ ແລ້ວກະ ຊື້ ລົດໃຫຍ່ ຂີ່ ແລ້ວ ຄັນ ມີ ເງິນ
[154.285]
<no-speech>
[155.275]
ບັກ ຄາງ ໄປ ທ່ຽວຫຼິ້ນ ຢູ່ ເອື້ອຍ ໃຫຍ່
[157.415]
<no-speech>
[159.885]
ຊອກ ເອົາ ແຟນ ລວຍ ລວຍ <laugh>
[163.755]
<no-speech>
[166.015]
ຕ້ອງ ເອົາ ແຟນ ລວຍ ລວຍ ຄົນ ມີ ຄວາມຮູ້ ຮຽນ ໜັງສື ເກັ່ງ ເກັ່ງ
[173.435]
<no-speech>
[175.755]
<no-speech>
[176.235]
<no-speech>
[177.455]
ມີ (()) ຮ່າ
[179.855]
<no-speech>
[180.705]
<prompt> ຮ່າ
[181.955]
<no-speech>
[182.815]
ຍັງ ລາວ ບໍ່ ເມືອ ງ່າຍ ດອກ ອາ ລີ ບັກ ອ້າຍ ກໍ່ ຢູ່ ນີ້
[186.355]
<no-speech>
[187.555]
ເບຍ ກໍ່ ຢູ່ໜີ້ ມາ ກິນ ເຂົ້າ ຈັກໜ້ອຍ ຊິ ສັ່ງ ຕຳ ໝາກຫຸ່ງ ສັ່ງ ຫຍັງ ມາ ກິນ ເຂົ້າ ສະ ຫົວ ແລ້ວ ລະ ມາ ກິນ ເຂົ້າ
[194.315]
<no-speech>
[198.545]
ແມ່ ໄດ້ ເງິນ ແລ້ວ ແມ່ ຊິ ພາ ໄປ ທ່ຽວ <no-speech> ຫຼາຍ ຫຼາຍ ບ່ອນ <prompt> ອີ່ ໄປ ທ່ຽວ ເມືອງ ໄທ ຮອດ ກຸງເທບ ພຸ້ນ ແຫຼະ ແລ່ນ ປັດ ສະ ປໍ ໃຫ້ ຊິ ພາ ໄປ ທ່ຽວ
[209.795]
<no-speech>
[210.935]
ແມ່ ເຈົ້າ ແດ່ ນຳ ກັນ ສາມ ປີ້ ຈຶ່ງ ເຂົ້າ ໄປ
[213.615]
<no-speech>
[214.615]
ພໍດີ ເຈົ້າ ພັກ ໂຮງຮຽນ ຫຼາຍ ເຕີບ ຫັ້ນ ແຫຼະ ເງິນ ຕັ້ງ ສີ່ ຫ້າພັນ ໂດລາ ພຸ້ນ ແຫຼະ
[221.005]
<no-speech>
[221.845]
ຖ້າ ແຕ່ ເຂົາ ເຮັດ ໜັງສື ແລ້ວກໍ່ ໄດ້ ແລ້ວ ເງິນ
[224.165]
<no-speech>
[227.445]
ຊິ ປັບ ເມືອ <prompt> ແລ້ວ ກ່ອນ ປີ ໃໝ່ ຮ່າ
[231.945]
<no-speech>
[233.985]
ເອົາ ທ້ອນ ມື້ ເລັກ ກ່ອນ ປີ ໃໝ່ ໃຫ້ໄດ້ ກ່ອນ ປີ ໃໝ່ ຊ້ຳ ອາທິດ ຊິ ມາ ຂຶ້ນ ເປີເຊັນ ແມ່ ກໍ່ ໄດ້ ຫ້າພັນ ໂດລາ
[241.375]
<no-speech>
[243.305]
<prompt> ຮ່າ
[247.545]
<no-speech>
[250.125]
ຫ້າພັນ ຫຼຽນ ພຸ້ນ ແຫຼະ ເງິນ ຕົກ ເປັນ ແສນ ກວ່າ ບາດ ພຸ້ນ ແຫຼະ
[253.235]
<no-speech>
[254.285]
ຊິ ຊື້ ລົດ ແປກ ແປກ ໃໝ່ ແລ
[256.215]
<no-speech>
[257.265]
ຂຶ້ນ ລົດ ໃນ ສ່ຽວ ສ່ຽວ ກັນ ໄປ ເຮັດການ ເດີ
[260.155]
<no-speech>
[262.625]
ຊື້ ລົດຈັກ ໄທ ຄັນ ໜຶ່ງ ແມ່ ສ່ຽວ ຊິ ໄປ ເຮັດການ ບັກ ອ້າຍ ກັບ ແມ່ຕູ້ ມາ ເບິ່ງ ນຳ ກັນ ຫັ້ນ ແຫຼະ ຄັກ ແລ້ວກະ ຈຶ່ງ ເມືອ
[271.495]
<no-speech>
[277.325]
ຮ່າ
[278.945]
<no-speech>
[279.785]
<no-speech>
[280.755]
<no-speech>
[281.845]
ບາງ ມື້ ແລ້ວ ເຮົາ ຊື້ ເຂົ້າ (())
[285.755]
<no-speech>
[286.695]
ໄປ ທຳມະດາ ກໍ່ ໄປ ແຕ່ ເຊົ້າ ບັກ ອ້າຍ ໄປ ນາ
[289.015]
<no-speech>
[289.875]
ເຂົາເຈົ້າ ໄປ ແລ້ວ ພໍ່ແມ່ ກໍ່ ຍາກ ແດ່ ຕື່ນ ມາ ໜຶ້ງ ເຂົ້າ ບໍ່ ມີ ໃຜ ຢູ່ ເດ
[293.755]
<no-speech>
[295.355]
ໄປ ຂາຍ ເຄື່ອງ ແມ່ນ ໃຜ ກະ ບັກ ອ້າຍ ເຂົາເຈົ້າ ໄປ ຝາກ ຫັ້ນ ແຫຼະ
[298.415]
<no-speech>
[301.955]
<no-speech>
[303.555]
<no-speech>
[304.355]
<prompt> ອີ່ ຄ່ຳ ແລ້ວກໍ່ ເລີກ ການ ແລ້ວກໍ່ ໄປ ເອົາ
[309.835]
<no-speech>
[312.335]
ແຕ່ ບໍ່ ມີ ເວລາ ເດ ຄ້າ ຂາຍ ເຄື່ອງ ໜຶ້ງ ເຂົ້າ ໜີ້ງ ນ້ຳ ໄປ ຕະຫຼາດ ອີກ
[317.335]
<no-speech>
[327.915]
ເອີ
[328.695]
<no-speech>
[329.525]
ຄືຊິ ໄດ້ ເຮັດ ຈັ່ງຊັ້ນ ແລ ຫາ ເອື້ອຍ ເຕ້ຍ ໄປ ການ ກ່ອນ (()) ຊອກ ບ່ອນ ເຮັດ ໄດ້ ກ່ອນ
[335.675]
<no-speech>
[339.005]
ເອື້ອຍ ກວນ ໄກ້ ລາວ ກໍ່ ເຮັດ ເດ ຢູ່ ຮ້ານ ເນັດ ລາວ ກໍ່ ວຽກ ຫຼາຍ ເຮັດ ບໍ່ ເຮັດ ຈັ່ງຊັ້ນ
[344.015]
<no-speech>
[344.825]
ແມ່ນແລ້ວ ຫວາ ຫັ້ນ ເຮັດ ຢູ່ ຮ້ານ ເນັດ (()) ໜ້າ ບ້ານ ນີ້ ໃກ້ ໃກ້ ທຽວ ມາ ເບິ່ງ ລູກ ມັນ ກໍ່ ໄດ້
[349.905]
<no-speech>
[352.055]
ເຮືອນ ມໍ່ ວຽກ ຫຼາຍ ວ່າ ຊັ້ນ ໄປ ເຮັດ ບ່ອນ ໃໝ່
[355.295]
<no-speech>
[357.835]
<no-speech>
[358.925]
<no-speech>
[361.285]
ຮ່າ
[361.745]
<no-speech>
[364.895]
ອື ຄັນ ຢູ່ ໜ້າ ບ້ານ ບໍ່ ໄດ້ ທຽວ ບໍ່ ໄດ້ ຍາກ ຊິ ໄດ້ ເອົາ ລູກ ມາ ກະ ທຽວ ມາ ເບິ່ງ ລູກ ຢູ່ ນີ້ ຫາກ ບໍ່ ເຮັດ ວ່າ ມັນ ວຽກ ຫຼາຍ ວ່າ ຊັ້ນ
[373.965]
<no-speech>
[376.805]
<no-speech>
[377.165]
<no-speech>
[378.325]
<no-speech>
[378.685]
<no-speech>
[379.835]
ໄປ ຖາມ ເຂົາ ເບິ່ງ ກ່ອນ ແມ ຫາກໍ່ ປະກາດ ເອົາ ຄົນ ປະກາດ ເອົາ ຄົນ ເຮັດ ບັນຊີ ໄປ ຖາມ ລາຍ ລະອຽດ ກ່ອນ ເຂົາ ຊິ ເອົາ ບໍ່
[387.855]
<no-speech>
[389.375]
ບໍ່ ເພິ່ນ ເພິ່ນ ຂາດ ບັນຊີ ເດ
[391.225]
<no-speech>
[392.355]
<no-speech>
[392.955]
<no-speech>
[394.025]
ດຽວ ເອື້ອຍ ສິມ ມາ ເຮັດ (()) ເອື້ອຍ ສິມ ກະ ຂັບ ລົດ ກໍ່ ໄດ້ ແປັກມີ້ ກະ ໄດ້ ມາ ລະ ເດ
[398.655]
<no-speech>
[400.235]
ຢູ່ ບ່ອນ ຍັງ ໄປ ເຮັດ ບ່ອນ ທ້າວ ຂຽບ ນີ້ ແຫຼະ
[404.275]
<no-speech>
[406.475]
ເຮົາ ຢາກ ໄປ ເຮັດ ນຳ ຢູ່ ເຮົາ ບໍ່ ໄປ ເທື່ອ ເຕັດ ໝີ ລາວ ຫາກໍ່ ໄດ້ ມາ ໃບ ທະບຽນ ຂັບ ລົດ
[411.615]
<no-speech>
[417.325]
ເອີ ເວົ້າ ໂລດ ແມ່ ຟັງ ຢູ່ <prompt> ເວົ້າ ໂລດ
[423.595]
<no-speech>
[427.855]
ຂັບ ລົດ ຫັ້ນ ແຫຼະ ແມ່ ກໍ່ ຮຽນ ຂັບ ລົດ ມາ ເດ
[430.445]
<no-speech>
[434.035]
ຮຽນ ແລ້ວ ໄດ້ ເຕັດ ໝີ ມາ ແລ້ວ ຖ້າ ແຕ່ ໄປ ເຮັດ ວຽກ
[437.045]
<no-speech>
[438.085]
<no-speech>
[438.435]
<no-speech>
[440.075]
ລູກ ເດ ບໍ່ ເຮັດ ບໍ່
[443.375]
<no-speech>
[444.805]
ຮຽນ ວັນພັກ ໂຮງຮຽນ ນີ້ ນ່າ ພັກ ແລ້ງ ນີ້ ນ່າ ບໍ່ ເຮັດ ຫວະ ຫາ ເງິນ ໄວ້ ເຂົ້າ ໂຮງຮຽນ ປີ ໜ້າ ປີ ສຸດທ້າຍ
[450.985]
<no-speech>
[455.275]
ເດືອນເຈັດ
[455.995]
<no-speech>
[460.595]
ອື
[461.315]
<no-speech>
[464.655]
ເອີ <no-speech> ຄັນ ບໍ່ ໄດ້ ແລ້ວ ແລ້ວ
[468.175]
<no-speech>
[469.965]
ເອີ ແລ້ວ ໄດ້ ຮຽນ ຕໍ່ ເລີຍ
[471.875]
<no-speech>
[478.245]
<no-speech>
[478.815]
<no-speech>
[483.425]
ອື
[484.075]
<no-speech>
[490.655]
ອື
[491.125]
<no-speech>
[496.655]
ອື
[497.775]
<no-speech>
[500.455]
ຢ່າ ໄດ້ ບໍ່ ໄດ້ ກໍ່ ຢ່າ ຜູ້ຍິງ ຮຽນ ຫຼາຍ ກະ ບໍ່ ນັ້ນ ດອກ ພວກເຈົ້າ ເຮັດ ຫຼ້າ ເຮັດການ
[505.445]
<no-speech>
[506.785]
ອື <no-speech> ພໍໄດ້ ເງິນ ທ້ອນ ໄດ້ ຊື້ ລົດ ຂີ່
[511.895]
<no-speech>
[516.125]
<no-speech>
[516.475]
<no-speech>
[517.445]
ມີ ແຟນ ແລ້ວ ຫວາ ຊັ້ນ ຮ່າ ເສີດ
[520.915]
<no-speech>
[522.325]
ມີ ແຟນ ຊັ້ນ ຫວະ ຍັງ ບໍ່ ມີ ແຟນ ເທື່ອ
[525.445]
<no-speech>
[526.795]
<no-speech>
[527.265]
<no-speech>
[532.425]
ເສາະ ກໍ່ ເອົາ ຄົນ ເອົາ ຄົນ ຈົບ ຄົນ ດີ ແດ່ ມີ ແຟນ ເປັນ ເສດ ເປັນ ສາວ ນາ
[539.515]
<no-speech>
[546.175]
<no-speech>
[546.775]
<no-speech>
[547.785]
ມື້ ນີ້ ບໍ່ ໄດ້ ເມືອ ງ່າຍ ເທື່ອ ຫວະ
[549.395]
<no-speech>
[550.345]
ຮ່າ ເຈົ້າ ບໍ່ ໄດ້ ໄປ ທ່ຽວ ໃສ ຕວ່າ ມື້ ນີ້ ເບິ່ງ ຂາຍ ເຂົ້າ ຊ່ວຍ ແມ່ ນີ້ ແຫຼະ ອີ່
[557.125]
<no-speech>
[558.535]
<no-speech>
[559.575]
<no-speech>
[562.165]
ນາງ ເດ ບໍ່ ໄດ້ ຊາ ຫວະ ນາງ ໝູ່ ເຈົ້າ ກໍ່ ຊາ ຫວະ
[565.915]
<no-speech>
[567.315]
<no-speech>
[567.875]
<no-speech>
[569.175]
ອື ລ້າງ ໜ້າ ຢູ່ ຫວາ
[570.905]
<no-speech>
[576.315]
<no-speech>
[577.215]
<no-speech>
[578.985]
ມື້ແລງ ຫັ້ນ ເມືອ ມື້ແລງ ເຮັດ ຂອງຢູ່ຂອງກິນ ແລ້ວ ຊຸມ ກັນ ແລ້ວ ຈຶ່ງ ເມືອ ມື້ແລງ ນາ
[583.485]
<no-speech>
[587.235]
ຮ່າ
[587.795]
<no-speech>
[589.665]
<no-speech>
[590.065]
<no-speech>
[591.545]
ເອີ ເວົ້າ ແຮງ ແຮງ ໂລດ ຄັນ ເວົ້າ ຄ່ອຍ ຫຼາຍ ບໍ່ ໄດ້ ຍິນ ໄດ໋ ເວົ້າ ແຮງ ແຮງ
[595.565]
<no-speech>
[599.940]
