[0.000]
<no-speech>
[0.765]
<no-speech>
[1.145]
<no-speech>
[6.445]
<sta> ອືມ ອີ່ຫຍັງ <int> ຍິນ ແລ້ວ <int> ອືມ
[13.465]
<no-speech>
[14.645]
ມຶງ ຢ້ານ ນາ
[16.505]
<no-speech>
[19.145]
(())
[19.765]
<no-speech>
[20.795]
ຫາ
[21.455]
<no-speech>
[25.015]
ໄກ່ນ້ອຍ (())
[26.105]
<no-speech>
[28.695]
ກິນ ຫຍັງ <hes> ເອ ນ້ອຍ ມາ ຫຼິ້ນ
[32.155]
<no-speech>
[36.125]
ນັ່ງ ແນວ ນີ້ ແຫຼະ ຢູ່ ນຳ ແອ ນ້ອຍ ເບິ່ງ ແອ ນ້ອຍ ດີ ດີ ເຂົາ ກິນ ໝົດ ແລ້ວ
[41.995]
<no-speech>
[42.955]
ກິນ ແລ້ວ ຕົນ ຢູ່ ໃສ ນີ້ ເຈົ້າ ຢູ່ ໃສ ນີ້
[47.215]
<no-speech>
[49.485]
<no-speech>
[49.975]
<no-speech>
[51.355]
(()) ມຶງ ວ່າ ຫຍັງ
[57.045]
<no-speech>
[58.275]
(()) ອື ຢູ່ ເຮືອນ ວ່າ ຊິ ຕົ້ນ ແກງ (()) ຕົ້ນ ແກງ ກິນ
[64.185]
<no-speech>
[65.335]
<no-speech>
[67.605]
<no-speech>
[70.365]
ບໍ່ ບໍ່ ໄດ້ ໄປ <hes> ໂຄດ ຢູ່ ບ້ານ ບໍ່ ໄດ້ ໄປ ໃສ
[76.425]
<no-speech>
[78.345]
ອີ່ພໍ່ ແດ່ ຢູ່ ໃສ ອີ່ພໍ່
[79.655]
<no-speech>
[82.095]
(())
[83.675]
<no-speech>
[84.965]
ຈັກ ໂມງ ລາວ ຊິ ມາ <int>
[88.955]
<no-speech>
[90.875]
<no-speech>
[92.055]
<no-speech>
[93.055]
<no-speech>
[96.055]
<no-speech>
[96.885]
<no-speech>
[98.165]
<no-speech>
[98.975]
<no-speech>
[99.325]
<no-speech>
[101.725]
<hes> ເງິນ ຫຼາຍ ໂທ ມາ ເງິນ ຫຼາຍ ນໍ້
[105.865]
<no-speech>
[106.875]
ເງິນ ກູ ຫຼາຍ ກໍ່ເລີຍ ໂທ ມາ
[108.905]
<no-speech>
[111.255]
<no-speech>
[111.635]
<no-speech>
[113.505]
(())
[116.725]
<no-speech>
[117.705]
(())
[119.865]
<no-speech>
[121.295]
(())
[121.835]
<no-speech>
[125.525]
<no-speech> ອືມ
[127.755]
<no-speech>
[129.905]
<no-speech>
[130.535]
<no-speech>
[132.225]
<no-speech>
[132.635]
<no-speech>
[134.645]
<hes> ລົມ ເຈົ້າ ແລະ ເຮົາ ຖາມ ອີ່ພໍ່ ອີ່ພໍ່ ຊິ ມາ ຈັກ ໂມງ ມື້ແລງ ນາ
[139.025]
<no-speech>
[140.085]
<no-speech>
[140.445]
<no-speech>
[141.445]
ເຮົາ ບໍ່ ຮູ້ວ່າ ອີ່ພໍ່ ຊິ ໄປ ຈັກ ໂມງ <int>
[144.975]
<no-speech>
[146.075]
ໄກ່ ຫຍັງ ໄກ່ ຍັງ ຕົນ ໜຶ່ງ ເຂົ້າ ຢູ່ ດອກ ວາ
[150.075]
<no-speech>
[151.665]
<no-speech>
[153.145]
<no-speech>
[154.305]
ຍ້າຍ ລະ ເດ ເຮືອນ ເຮົາ ນ້ຳ ຂຶ້ນ ແລ້ວ
[156.225]
<no-speech>
[157.955]
<no-speech>
[161.385]
<no-speech>
[163.395]
ມຶງ ພັກ ບັກ ຕັກ ບອກ ໄປ ມຶງ ບໍ່ ທັນ ໄປ ເບາະ ມຶງ ນະ
[166.035]
<no-speech>
[167.445]
ນຳ ລົດ ໄປ
[169.265]
<no-speech>
[170.495]
ຖາມ ວ່າ ມັນ ເຈັບ ຄໍ ມັນ ບໍ່ ໄປ
[172.125]
<no-speech>
[175.605]
<hes> ແມ່ນແລ້ວ ແມ່ນແລ້ວ
[180.635]
<no-speech>
[181.515]
ມື້ແລງ ເດ່ ພໍ່ ເດ່ ພໍ່ ຊິ ມາ ຈັກ ໂມງ <int> ອີ່ພໍ່ ຊິ ມາ ຈັກ ໂມງ ມື້ແລງ ນະ ໂທລະສັບ ລູກ ບໍ່ ໄດ້ ເອົາໄປ
[187.305]
<no-speech>
[189.865]
(())
[190.345]
<no-speech>
[191.455]
<no-speech>
[191.835]
<no-speech>
[193.355]
ອືມ <int> (())
[195.905]
<no-speech>
[196.995]
<no-speech>
[197.655]
<no-speech>
[199.785]
ຫາ
[200.385]
<no-speech>
[201.675]
(())
[203.595]
<no-speech>
[206.525]
<no-speech>
[207.235]
<no-speech>
[208.115]
<no-speech>
[209.105]
<no-speech>
[210.545]
(())
[213.765]
<no-speech>
[214.625]
<no-speech>
[217.355]
<no-speech>
[219.115]
ວາ
[219.595]
<no-speech>
[221.985]
ເຈົ້າ ເຈົ້າ ບໍ່ ລົມ ໄປ ເລີຍ ວາ
[224.155]
<no-speech>
[226.105]
ເຈົ້າ ບໍ່ ລົມ ບັກ ເພັດ ແດ່ ວາ <hes>
[228.815]
<no-speech>
[229.745]
<no-speech>
[230.505]
<no-speech>
[231.635]
<no-speech>
[232.115]
<no-speech>
[233.135]
<no-speech>
[233.635]
<no-speech>
[235.345]
(())
[245.555]
<no-speech>
[247.475]
ເຂົ້າໃຈ ແມ່ນ ຫຍັງ ນໍ້
[250.975]
<no-speech>
[252.765]
<no-speech>
[253.595]
<no-speech>
[254.795]
ເຮົາ ເວົ້າ ມ່ວນ ນໍ້
[256.835]
<no-speech>
[257.805]
ອາລົມ ຄົນ ບໍ່ <hes>
[261.255]
<no-speech>
[262.475]
<no-speech>
[262.845]
<no-speech>
[263.715]
ອ້າຍ ປືນ ລະວ່າ ຢ້ານ ບໍ່ ໄດ້ ກິນ ເຂົ້າ ປຽກ ຊັ້ນ ນ່າ
[265.405]
<no-speech>
[266.405]
ອ້າຍ ປືນ ລາວ ຢ້ານ ບໍ່ ໄດ້ ກິນ ເຂົ້າ ປຽກ
[267.825]
<no-speech>
[268.655]
<no-speech>
[269.005]
<no-speech>
[269.905]
ຫັ້ນ ແຫຼະ ບ່ອນ ລົມ ເຈົ້າ ຍັງ ຕ່ຳ (()) <int>
[274.545]
<no-speech>
[279.385]
<int> ອັນ ໃດ ຮຶ
[281.915]
<no-speech>
[283.445]
ເຫັນ ແລ້ວ ຫາ ເຫັນ ແລ້ວ ແດ່ ໝາກນັດ ຊິ ມາ ຮອດ
[287.755]
<no-speech>
[290.135]
<no-speech>
[290.885]
<no-speech>
[292.355]
<no-speech>
[292.855]
<no-speech>
[294.215]
<hes> ບອກ ແດ່ ເດີ ບອກ ແລ້ວ ມື້ ກີ ນີ້ ແດ່ <hes>
[299.215]
<no-speech>
[300.295]
ນະ <hes> ເຈົ້າ ຊິ ຮອດ ເຮືອນ ບໍ່ ນີ້
[303.495]
<no-speech>
[306.385]
ໄດ້ ເຂົ້າ ມາ ເຮືອນ ບໍ່ ນີ້
[307.755]
<no-speech>
[309.885]
ໄດ້ ເຂົ້າ ມາ ເຮືອນ ບໍ່ ນີ້ ໄດ້ ເຂົ້າ ມາ ເຮືອນຢູ່ ວາ
[315.415]
<no-speech>
[316.775]
<no-speech>
[317.865]
<no-speech>
[318.945]
<no-speech>
[323.805]
<no-speech>
[326.045]
<no-speech>
[327.565]
<no-speech>
[329.595]
<no-speech>
[329.965]
<no-speech>
[331.145]
<hes> (())
[333.285]
<no-speech>
[335.405]
ນະ
[336.355]
<no-speech>
[337.685]
<hes> (()) ລົມ ເອື້ອຍ ນ້ອຍ ຫັ້ນ ຫວາ
[340.825]
<no-speech>
[343.345]
(())
[345.325]
<no-speech>
[346.235]
<no-speech>
[349.375]
<no-speech>
[350.965]
<no-speech>
[351.325]
<no-speech>
[352.995]
<no-speech>
[353.365]
<no-speech>
[354.615]
ມື້ ນີ້ ວັນ ສິນ ດັບ <hes>
[359.245]
<no-speech>
[360.485]
ພັກຜ່ອນ ມື້ ນີ້
[361.515]
<no-speech>
[363.435]
<sta> ອືມ ລະ ອີ່ພໍ່ ເຮັດ ວຽກ (())
[368.205]
<no-speech>
[369.365]
<no-speech>
[369.725]
<no-speech>
[370.895]
<no-speech>
[371.915]
<no-speech>
[377.305]
<no-speech>
[377.695]
<no-speech>
[378.945]
<no-speech>
[379.465]
<no-speech>
[381.995]
<no-speech>
[382.435]
<no-speech>
[385.075]
<no-speech> ໂອ
[388.315]
<no-speech>
[391.195]
ນັ້ນ ເດ (()) ຮ້ານ ເອື້ອຍ ວັດ ນີ້ ນະ ຮ້ານ ເອື້ອຍ ວັດ
[395.345]
<no-speech>
[396.815]
ເຮືອນ ອ້າຍ ວັດ ແດ່
[398.535]
<no-speech>
[399.535]
ບໍ່ ເຮັດ ເຮືອນ ອ້າຍ ວັດ ເດ ລະ ອືມ
[402.415]
<no-speech>
[404.585]
<no-speech>
[405.785]
<no-speech>
[407.045]
(())
[409.515]
<no-speech>
[412.355]
<no-speech>
[412.725]
<no-speech>
[414.125]
<no-speech>
[414.505]
<no-speech>
[415.535]
<no-speech>
[415.885]
<no-speech>
[417.415]
(())
[419.145]
<no-speech>
[421.095]
ຂັ້ນໄດ ນະ ລາວ ວ່າ ເຮັດ ຂັ້ນໄດ ລາວ ວ່າ ເຮັດ ຂັ້ນໄດ ຫັ້ນ ນະ
[424.675]
<no-speech>
[425.985]
<overlap> ຂັ້ນໄດ ຫວາ ອືມ <sta>
[431.655]
<no-speech>
[434.305]
ເອີ ອີ່ ນັ້ນ
[435.855]
<no-speech>
[436.665]
(())
[438.445]
<no-speech>
[439.805]
(())
[442.335]
<no-speech>
[443.795]
<no-speech>
[444.865]
<no-speech>
[446.755]
ຖາມ ບໍ່ ເຮັດ ວຽກ ນຳ ລາວ ໄດ້ ດົນ ນະ
[450.345]
<no-speech>
[452.615]
ມັນ ວ່າ ເຮັດ ວຽກ ໃຫ້ ລາວ ອີກ ດົນ ແມ່ນ ບໍ່
[455.395]
<no-speech>
[456.315]
ຄຽດ ໃຫ້ ລູ ລີ ນະ <int>
[457.425]
<no-speech>
[458.785]
ເຮັດ ວຽກ ໃຫ້ ແມ່ ລູ ອີກ ດົນ ບໍ່ ລາ
[460.785]
<no-speech>
[463.645]
ເຮັດ ວຽກ ໃຫ້ ອຸຍ ລຸຍ ນາ <hes>
[466.805]
<no-speech>
[468.245]
<no-speech>
[469.865]
<no-speech>
[471.055]
(())
[480.255]
<no-speech>
[482.305]
ໂອ ຕົນ ຢູ່ ວ່າງ ຢູ່ ໃນ ຫ້ອງນ້ຳ ມອງ ອັນ ສະ ໂຄກ
[488.905]
<no-speech>
[491.205]
(()) ຫວາ <int> ອຶຮຶ <int> (())
[497.575]
<no-speech>
[498.525]
ອືມ
[499.045]
<no-speech>
[500.625]
(())
[501.685]
<no-speech>
[503.125]
ລະ ອັນ ນັ້ນ ແດ່
[504.845]
<no-speech>
[506.545]
<no-speech>
[506.915]
<no-speech>
[508.295]
ລະ ບົວ ແດ່
[510.235]
<no-speech>
[511.345]
ເກັກ ບົວ ແດ່ ລະ
[512.375]
<no-speech>
[513.195]
<sta> ອືມ <sta>
[516.065]
<no-speech>
[517.565]
<no-speech>
[517.965]
<no-speech>
[518.925]
ແປງ ແລ້ວ ລະ
[519.625]
<no-speech>
[521.075]
<no-speech>
[521.485]
<no-speech>
[522.515]
(())
[523.295]
<no-speech>
[524.555]
<no-speech>
[524.905]
<no-speech>
[527.765]
<no-speech>
[528.145]
<no-speech>
[528.945]
(())
[529.555]
<no-speech>
[530.355]
<no-speech>
[530.725]
<no-speech>
[532.765]
<no-speech>
[533.125]
<no-speech>
[535.545]
<hes> ຢາກ ໄປ ຫາ ຢູ່ ບ່ອນ ມີ
[540.595]
<no-speech>
[541.445]
ວຽກ ນີ້ ແຫຼະ ເຮົາ ບໍ່ ທັນ ມີ ນະ
[542.935]
<no-speech>
[545.865]
ຫຍັງ (()) ລະ
[546.705]
<no-speech>
[547.525]
<no-speech>
[549.265]
<no-speech>
[550.885]
<no-speech>
[552.695]
<no-speech>
[553.655]
<no-speech>
[554.205]
<no-speech>
[555.335]
<no-speech>
[556.845]
<no-speech>
[558.385]
ໄປ ເອົາ ສັນ ຕວ່າ ໄປ ເອົາ ນຳ ຕວ່າ ມື້ອື່ນ ໄປ ກໍ່ ຄ້ານ ແລ້ວ ແດ່
[564.465]
<no-speech>
[565.695]
ຊິ ໄດ້ ຄ້ານ ແລ້ວ ເອີ ອີ່ ຊັງ
[568.685]
<no-speech>
[569.825]
ຢາກ ເຊົາ ລະ ຄ່ອຍ ເອົາ ເອົາ ແລ້ວ ເລີຍ
[572.265]
<no-speech>
[574.475]
(())
[575.285]
<no-speech>
[577.825]
ຄີບ ຍ້ອນ ຍ້ອນ ລາວ ຫຼາຍ ແມ່ນ ບໍ່ ລາ
[579.845]
<no-speech>
[580.705]
ແຟນ ຢູ່ ຫັ້ນ ວາ
[581.505]
<no-speech>
[582.995]
<no-speech>
[583.425]
<no-speech>
[584.895]
<no-speech>
[588.695]
<no-speech>
[590.555]
(())
[593.925]
<no-speech>
[596.605]
<no-speech>
[596.985]
<no-speech>
[598.805]
<no-speech>
[599.955]
<no-speech>
[600.060]
