[0.000]
<no-speech>
[11.735]
<no-speech>
[23.575]
<no-speech>
[35.105]
<no-speech>
[47.085]
ຮາໂຫຼ <no-speech> ຮາໂຫຼ <hes> ແມ່ນ ເບີ ແມ່ ຈັນທະ ຈອນ ບໍ່
[59.015]
ຮາໂຫຼ <hes> ແມ່ນ ແມ່ນ ແມ່ ຈັນທະ ຈອນ ບໍ່
[69.045]
<hes> ແມ່ນ ໄລ ອ່ອນ ນະ ແມ່ <no-speech> ໄລ ອ່ອນ ນະ ແມ່ <no-speech> ໂດຍ <no-speech> ໂດຍ
[80.715]
ເຮົາ ຢູ່ ບ້ານ ແມ່ ໄດ້ ຂາຍ ເຄື່ອງ ບໍ່ <no-speech> ບໍ່ <hes> ໂຮງຮຽນ ເຮົາ ພັກ ນະ ແມ່ ເຮົາ ບໍ່ ໄດ້ ໄປ <no-speech> ບໍ່ ໄດ້ ໄປ ແມ່
[92.405]
ແມ່ ໄດ້ ຂາຍ ເຄື່ອງ ບໍ່ <no-speech> ບໍ່ ໄດ້ ໄປ ມື້ ນີ້ ວັນເສົາ ແມ່ <no-speech> ໂດຍ <no-speech> ແມ່ ໄດ້ ຂາຍ ເຄື່ອງ ບໍ່ <no-speech> ແມ່ນ ບໍ່
[104.015]
ໂດຍ <no-speech> ແມ່ <no-speech> ໂດຍ ກິນ ແລ້ວ <no-speech> ກິນ ແລ້ວ ແມ່ ແມ່ ກິນ ແລ້ວ ຫວາ
[115.425]
ຢູ່ <no-speech> ບ້ານ ແມ່ <no-speech> ເອົາ ແມ່ ບໍ່ ໄດ້
[127.175]
ບໍ່ ເຮົາ ບໍ່ ໄດ້ ໄປ ແມ່ ຄາ ແມ່ <no-speech> ໂດຍ ເຮົາ ຄາ ຊ່ອຍ ປ້າ ຢູ່ ແມ່
[139.055]
ນ້ອງ ໂອມິ ເປັນ ຈັ່ງໃດ ແມ່ <no-speech> ຍັງ ມື້ ວັນຈັນ ພຸ້ນ ແຫຼະ ແມ່
[150.755]
ໄປ ແມ່ ວັນຈັນ ເຮົາ ຈິ່ງ ໄປ ແມ່
[161.465]
ໂດຍ <no-speech> ນ້ອງ <no-speech> ຍັງ ນະ
[173.195]
ຖ້າ ເຂົ້າ ຊາວ ຫ້າ ຊາວ ຫົກ ກ່ອນ ແມ່ <no-speech> ນ້ອງ ໂອ ມີ
[185.145]
ສອງ ເດືອນ ແມ່ <no-speech> ແກ້ວປັນຍາ ແມ່
[196.095]
ແກ້ວປັນຍາ ແມ່ <no-speech> ຍັງ ເຮົາ ວ່າ ມ_ສີ່ ກ່ອນ <no-speech> ໂອ້ຍ ບໍ່ ແມ່ນ ເຮົາ ວ່າ ມ_ຫົກ ກ່ອນ
[207.875]
<hes> ບໍ່ ມ_ຫົກ ເຮົາ ຈັ່ງ ໄປ ໂດຍ <no-speech> ຍັງ ຖ້າ ໝູ່ ແມ່
[219.595]
<hes> ບໍ່ ເຮົາ ວ່າ ຖ້າ ໄປ ເສັງ ພ້ອມກັນ ຊີ້ ນະ ແມ່ <no-speech> ໂດຍ
[231.105]
ຍັງ ແມ່ <no-speech> ເຮົາ ວັນ ທິດ ເຮົາ ຈິ່ງ ຊັກ
[243.035]
ແມ່ ຢູ່ ໃສ ດຽວນີ້
[254.535]
ໂດຍ <no-speech> ເອົາ ນ້ອງ ໂອມິ ເປັນ ຈັ່ງໃດ <no-speech> ນ້ອງ ໂອມິ ນະ
[266.445]
ເອົາ ມັນ ໄປ ໃສ <no-speech> ນ້ອງ ເຮົາ ໄປ ໃສ ແມ່
[278.175]
ບໍ່ ຢູ່ ວ່າງ ແມ່
[288.005]
ໂອ ຢູ່ ນຳ
[299.615]
ດຽວນີ້ ຢູ່ ນຳ ໝູ່ ຢູ່ ແມ່ <no-speech> ເຮົາ ວ່າ ເຮົາ ວ່າງ ຊິ ໄປ ເອົາ <no-speech> ເຮົາ ວ່າ ມື້ ນີ້ ແຫຼະ ເຮົາ ວ່າ ມື້ ນີ້ ແຫຼະ ແມ່
[311.505]
ໂດຍ ແມ່ນແລ້ວ
[323.385]
ໄປ ແມ່ <no-speech> ໂດຍ <no-speech> ເອົາ ວັນເສົາ ແມ່
[335.005]
ບໍ່ <no-speech> ສາມ <no-speech> ໂດຍ <no-speech> ບໍ່ ໄດ້ ປານ ໃດ ແມ່
[346.045]
ບໍ່ ໄດ້ ປານ ໃດ ແມ່ <no-speech> ເອົາ ແມ່ ຢູ່ ນຳ ໃຜ
[357.855]
ໄປ ແມ່ <no-speech> ໂດຍ
[369.535]
ເອົາ <no-speech> ແມ່ ຢູ່ ນຳ ໃຜ ແມ່
[380.995]
ໂດຍ <no-speech> ແມ່ນ ຫວາ ແມ່
[392.325]
ແມ່ ເປັນ ໄຂ້ ສະ ຫວາ ລະ <no-speech> ກິນ ຢາ ລະ ຫວາ ແມ່
[404.255]
ໂດຍ <no-speech> ເອົາ
[413.145]
ໝູ່ ແມ່ ຫວາ ນັ່ງ ທາງຂ້າງ ຄື ສຽງ ຄື ເອື້ອຍ <hes> ນະ ແມ່ <no-speech> ໂດຍ ແມ່ ເຮົາ ວ່າ
[423.395]
ທິດ ໜ້າ ວ່າ ຊິ ໄປ ຫຼິ້ນ ນຳ ແມ່ ເດີ <no-speech> ທິດ ໜ້າ ເຮົາ ວ່າ ຊິ ໄປ ຫຼິ້ນ ນຳ ແມ່ <no-speech> ໂດຍ ໂດຍ <no-speech> ໂດຍ
[434.315]
ເອົາ ວັນ ທິດ ແມ່ ບໍ່ ໄດ້ ຂາຍ ເຄື່ອງ ຫວາ <no-speech> ວັນ ທິດ ແມ່ ຂາຍ ເຄື່ອງ ຫວາ <no-speech> ໂດຍ <no-speech> ບໍ່ ເຮົາ ວ່າ ວັນ ທິດ
[445.055]
ວັນ ທິດ ອີ່ແມ່ ຂາຍ ເຄື່ອງ ບໍ່
[456.745]
ໂດຍ ໂດຍ <no-speech> ໂດຍ
[468.715]
ບໍ່ ຮູ້ ແມ່ <no-speech> ຢູ່ ບ້ານ <no-speech> ຢູ່ ບ້ານ ຕິ ແມ່ <no-speech> ຂາຍ ເຄື່ອງ ໃຫ້ ແມ່ ມັນ ຕີ
[480.115]
ໂດຍ ກະ ໄດ້ ຫຼິ້ນ ຢູ່ <no-speech> ໂມງ ໜຶ່ງ <no-speech> ໂມງ ໜຶ່ງ ລູກ ບໍ່ ໄດ້ ຫຼິ້ນ ປານ ໃດ ຫຼິ້ນ ໂລແຈັກ ສ່ວນ ຫຼາຍ
[491.955]
ເພຍ ວັດ <no-speech> ເພຍ ວັດ <no-speech> ເພຍ ວັດ ແມ່
[503.865]
ໂດຍ <no-speech> ໂດຍ ໂດຍ <no-speech> ໂດຍ
[515.435]
ໂທ ແລ້ວ <no-speech> ລາວ ເຮັດ ວຽກ ແມ່ <no-speech> ເຮັດ ວຽກ
[527.375]
ແມ່ນ ໃຜ ແມ່ <no-speech> ພໍ່ ໂຕ້ ບໍ່
[539.065]
ໂດຍ ມື້ ໃດ ແມ່ <no-speech> ໂດຍ ໂດຍ <no-speech> ມື້ ໃດ ແມ່ ມື້ ໃດ <no-speech> ລາວ ໂທ ບອກ ແມ່ ຫວາ
[550.775]
ໂດຍ ໂດຍ <no-speech> ເຮົາ ໄປ ແຕ່ ເສົາ ທິດ <no-speech> ໄປ ເສົາ ທິດ
[561.585]
ໂດຍ ໄປ ເສົາ ທິດ ແມ່ <no-speech> ໂດຍ <no-speech> ໂດຍ <no-speech> ໂດຍ
[573.175]
ກໍ່ ໄປ ເຕະ ແຖວ ເຮືອນ ພໍ່ຕູ້ ຫັ້ນ ແຫຼະ ແມ່ <no-speech> ໂດຍ ເຕະ ແຖວ ເຮືອນ ພໍ່ຕູ້ ຫັ້ນ ເດ <no-speech> ໂດຍ <no-speech> ບໍ່ ເຮົາ
[584.695]
ມື້ອື່ນ ລູກ ໄປ ລອຍ <no-speech> ໄປ ກັບ ໝູ່ <no-speech> ໄປ ກັບ ໝູ່ <no-speech> ໂດຍ
[595.665]
ກະ ຝົນ ຕົກ ລູກ ກະ ບໍ່ ໄດ້ ໄປ <no-speech> ກະ ວ່າ ຝົນ ຕົກ ລູກ ກະ ບໍ່ ໄດ້ ໄປ ແມ່ <no-speech> ເຄື່ອງ ບໍ່ <no-speech> ເຄື່ອງ ຫວາ ແມ່
[607.605]
ລູກ ມີ ດົນ ແລ້ວ <no-speech> ບໍ່ ໃສ່ ພໍດີ ຕີນ ແມ່
[619.105]
ບໍ່ ໄດ້ ແລ້ວ ລູກ ມີ ແລ້ວ <no-speech> ໂດຍ
[630.765]
ບໍ່ ໄດ້ ແລ້ວ ດຽວນີ້ ລູກ <no-speech> ດຽວນີ້ ລູກ ກະ ຍັງ ລູກ ກະ ຢູ່ ກັບ ປ້າ ແລງ ຢູ່ <no-speech> ໂດຍ ໂດຍ
[641.245]
ວັນ ທິດ <hes> ວັນ ທິດ ໜ້າ ລູກ ໄປ
[644.265]
<no-speech>
[645.960]
