[0.000]
<no-speech>
[11.775]
<no-speech>
[23.515]
<no-speech>
[35.455]
ຮາໂຫຼ <no-speech> ເຮັດ ຫຍັງ
[47.375]
<sta> ເຮັດ ຫຍັງ <int> ໄປ ກັບ ໃຜ <sta>
[59.175]
ຢູ່ ບ່ອນ ເຮັດ ວຽກ ບ່ອນ ເຂົາ ມາ ນີ້ ແຫຼະ <no-speech> ຍັງ ເທື່ອ ແລ້ວ ກັບ ບ້ານ ຈັ່ງ ຊິ ກິນ
[71.125]
ໄປ ຈັກ ຄົນ ຫັນ
[82.875]
ອືມ <no-speech> ແລ້ວ ຊິ ກັບ ຈັກ ໂມງ <no-speech> ເອົາ <no-speech> ເອີ ເອີ ເອີ
[94.695]
ກະ ຢູ່ <no-speech> ສາມ ສີ່ ຄົນ <no-speech> ກະ ບໍ່ ແມ່ນ ໝູ່
[106.415]
ກະ ບ່ອນ ທີ່ ເຂົາ ມາ ອັນ ນັ້ນ ຫັ້ນ ແຫຼະ <no-speech> ຢ່າ ສໍ້ <no-speech> ຢ່າ ສໍ້ <no-speech>
[118.255]
ຕັດ ຜົມ ລະ <no-speech> ໄດ້ ບໍ່ <no-speech> ໄດ້ ບໍ່
[130.205]
ເປັນ ຫຍັງ <no-speech> ເອົາ <no-speech> ຄື ບໍ່ ຖ້າ
[140.675]
ຄື ບໍ່ ຖ້າ ໄປ ຕັດ ຮ້ານ ນັ້ນ <no-speech> ຄື ບໍ່ ຖ້າ ໄປ ຕັດ ຮ້ານ ນັ້ນ <no-speech> ເອີ
[152.635]
ຢ່າ ເທື່ອ ໜ້າ ຈັ່ງ ຕັດ <no-speech> ເອົາ ກະ ເທື່ອ ໜ້າ ມັນ ຊິ ບໍ່ ຍາວ ສາ ເບາະ
[164.545]
ອືມ <no-speech> ກິນ ຕຳ ລະ <no-speech> ເປັນ ຫຍັງ
[176.395]
<hes> <no-speech> ມີ ແຕ່ ອ້າຍ ກິນ ຮະ
[188.025]
ແປວ່າ ມື້ ນີ້ ຊິ ບໍ່ ນອນ ເລີຍ ຫວາ
[198.475]
ລະ ແປດ ໂມງ ໄປ ວຽກ <no-speech> <hes>
[210.225]
ບໍ່ ມີ ແຕ່ <no-speech> ບໍ່ ມີ ແຕ່ ກັບ ເມືອ ບ້ານ ລະ ຊິ ໄປ ຫໍ່ ເຂົ້າ ຕົ້ມ ຊ່ວຍ ນ້າສາວ ລະ ມື້ແລງ ໝູ່ ຊວນ ໄປ ຊື້ ເຄື່ອງ
[221.755]
ປະມານ ຫົກ ໂມງ ແປດ ໂມງ ກະ ກັບ <no-speech> ຮູ້ ແລ້ວ
[233.515]
ອືມ ມື້ ໃດ ຊິ ລົງ ມາ ວຽງ <no-speech> ເອີ ຂຶ້ນ ມາ
[245.415]
ເດືອນແປດ <no-speech> ວຽກ ຫຼາຍ <no-speech> ວຽກ ຫຼາຍ ຫວາ <no-speech> ພະນັກງານ ເດ
[257.195]
ພະນັກງານ ເດ <no-speech> ເຂົາເຈົ້າ ໄປ ໃສ ໝົດ
[269.035]
ອືມ ບໍ່ ແມ່ນ ມີ ແຕ່ ເພິ່ນ ກັບ ອ້າຍ ເພິ່ນ ຫວາ <no-speech> ເອີ
[280.885]
ຫຶ <no-speech> ເວົ້າ ມາ ໂລດ <no-speech> ບັກເຟດ ຫວາ ກະ ໜ້າ ເຫຼິ້ນ ຫັ້ນ ແຫຼະ ຖືກ ກັດ
[292.325]
ສາມ ສີ່ ເທື່ອ ລະ <no-speech> ກະ ເລີຍ ເອົາ ມັນ ເຂົ້າ ໄປ ໄວ້ ບ້ານ ແມ່ ປ້າ <no-speech> ຢ່າ ແຫຼະ <no-speech> ບໍ່ ຕາຍ ດອກ
[304.105]
ກິນ ເຂົ້າ ບັກ ຫຼາຍ ຫຼາຍ
[305.535]
<no-speech>
[306.505]
ຫວາ <no-speech> ກະ ແມ່ນ
[318.145]
<no-speech> ແຕ່ ມັນ ບໍ່ ຕາຍ ດອກ <no-speech> ຕາຍ (())
[329.035]
ກະ ຊື່ ຊື່ ມັນ ບໍ່ ໄດ້ ຖືກ ຂ້າ <no-speech> ຢ່າ ສູ່ ກັບ
[340.935]
ສວາຍ ຫຼາຍ ກັບ ໄວ ແດ່
[351.795]
ເປີດ ມື້ ນີ້ ແຫຼະ ປິດ ນະ
[357.595]
<no-speech>
[358.635]
ຢູ່ ພຸ້ນ ເດ <no-speech> ຄື ບໍ່ ໄປ
[369.895]
ບໍ່ ມີ ເງິນ ກະ ວ່າ ແດ່ <no-speech> ເອົາ ເພິ່ນ ເວົ້າ
[381.825]
<laugh> <no-speech> ເວົ້າ ມາ
[393.365]
ຫຼາຍ ຫຼາຍ ໂລດ <no-speech> ເອີ <no-speech> ເອີ ມື້ ວັນສຸກ ເຂົາ ໄປ ວັງວຽງ ເດີ
[405.085]
ມື້ ນີ້ ວັນ ທິດ <no-speech> ໄປ ວັນສຸກ
[417.015]
ວັນ ທິດ ກັບ <no-speech> ກັບ ພວກ ໝູ່ ໝູ່ <no-speech> ເຈັດ ແປດ ຄົນ ນີ້ ແຫຼະ <no-speech> ອື
[428.505]
ມື້ ວັນ ທິດ ກະ
[440.475]
ກັບ ບໍ່ ຊັ້ນ ກະ ວັນຈັນ <no-speech> ເປັນ ຫຍັງ
[451.485]
ກະ ແລ້ວ <no-speech> ເອົາ ລົດຈັກ ໄປ ຫວາ
[463.415]
ເອົາ ລົດຈັກ ໄປ ຫວາ ໄປ ກິນ ຕຳ ຫັ້ນ ນະ <no-speech> ຫວາ
[474.255]
ຄື ບໍ່ ຊື້ ຊັ້ນ <no-speech> ອ້າຍ ຫັ້ນ ເດ
[486.215]
ເອີ ຄືວ່າ ນ້າສາວ ຊິ ມາ <no-speech> ຄືວ່າ ນ້າສາວ ຊິ ມາ
[498.125]
ເອົາ ນ້າສາວ ລາວ ຊິ ມາ ຕົ້ນ ເດືອນເຈັດ ເດ ຈົນ ອັນ ນີ້ ຈົນ ຊິ ທ້າຍ ເດືອນ ລະ
[509.905]
ກະດຽວວ່າ ປຶ້ມ ແລ້ວ ລະ <no-speech> ກະດຽວວ່າ ປຶ້ມ ແລ້ວ ແລ້ວ
[521.735]
<no-speech> ເອີ <no-speech> ໂອ້ ຊົ່ວ ລາວ ຊິ ມາ ເວົ້າ ຈັ່ງ ຊິ <no-speech>
[532.895]
ຢ່າ ຫົວ <no-speech> ລາວ ບໍ່ ຢາກ ເອົາ ໂທລະສັບ ມາ ເຮັດ ເພິ່ນ ຕີ໊ ເບ໊າະ <laugh> ແມ່ນ ບໍ່
[544.845]
ຮະ <no-speech> ຫວາ
[556.835]
ຮະ
[567.855]
<int> ໂອ້ຍ ແປັບ ດຽວ <no-speech> ມີ ໜ້າ ທີ່ ລົມ ລະ ລົມ
[579.665]
<no-speech> <lipsmack> ເອີ <hes> ມື້ອື່ນ ບໍ່ ໄດ້ ໄປ ໃສ ຫວາ ເຂົ້າ ພັນສາ <no-speech>
[591.635]
ຮະ ໄປ ໃສ່ ບາດ ແດ່ ກະ ດີ ໃດ <no-speech> ຕາຍ ຕາ ຢ້ານ ເນາະ
[603.415]
ເຂົາ ຊິ ໄປ ໃສ່ ບາດ ກັບ ພວກ ໝູ່ ແລ້ວ ກໍ ບາງທີ ກໍ່ ໄປ ຫຼິ້ນ ນ້ຳ
[615.325]
ຄັນ ໄດ້ ໄປ <no-speech> ຄັນ ຝົນ ມັນ ບໍ່ ຕົກ
[627.205]
ສາທຸ ຫຍັງ <no-speech> ໂອ <no-speech> ຕົກ ກະ ຫ້າມ ບໍ່ ໄດ້ ດອກ ຄັນ ຢາກ ໄປ
[639.035]
<no-speech>
[639.225]
<no-speech>
[640.147]
