[0.000]
<no-speech>
[3.975]
ອາໂຫຼ
[4.625]
<no-speech>
[7.685]
ສະບາຍດີ
[8.715]
<no-speech>
[14.435]
ບໍ່ ໄດ້ ເຮັດ ຫຍັງ
[15.525]
<no-speech>
[19.075]
ບໍ່
[21.565]
<no-speech>
[23.805]
ບໍ່
[25.535]
<no-speech>
[29.395]
ເຈົ້າ ເຮັດ ຫຍັງ ຢູ່
[30.565]
<no-speech>
[36.815]
ນັ່ງ ຫຼິ້ນ ກັບ ໃຜ
[37.835]
<no-speech>
[39.115]
<no-speech>
[40.675]
<no-speech>
[41.595]
(())
[42.475]
<no-speech>
[48.545]
(())
[49.125]
(())
[51.285]
ໂດຍ ເຈົ້າ ຢູ່ ໃສ
[52.215]
<no-speech>
[53.435]
<no-speech>
[53.905]
<no-speech>
[55.815]
ເຈົ້າ ຢູ່ ໃສ ດຽວນີ້
[56.745]
<no-speech>
[60.985]
ເຈົ້າ ຢູ່ ໃສ ດຽວນີ້
[62.225]
<no-speech>
[65.635]
ແມ່ນ ຫວາ ມີ ຫຼາຍ ຄົນ ແທ້ ຫວາ
[67.485]
<no-speech>
[71.165]
ບ້ານ
[71.905]
<no-speech>
[75.275]
ສວນມອນ ບໍ່ ຕ້ອງ ໄປ
[77.225]
<no-speech>
[78.545]
<no-speech>
[79.155]
<no-speech>
[81.945]
ຢູ່ ສວນມອນ
[83.155]
<no-speech>
[84.905]
ໂດຍ
[85.645]
<no-speech>
[91.655]
ບໍ່ ດຽວນີ້ ກຳລັງ ພວກຂ້ອຍ ກຳລັງ ຊິ ນອນ ຫັ້ນ ແຫຼະ ເລີຍ ບໍ່ ມີ ຫຍັງ ເຮັດ
[96.305]
<no-speech>
[100.515]
(())
[101.075]
<no-speech>
[105.375]
ໂດຍ
[106.045]
<no-speech>
[111.845]
ບໍ່ ໄດ້ ຮຽນ ແລ້ວ ດຽວນີ້ ເຮັດ ວຽກ ຢູ່
[113.895]
<no-speech>
[117.595]
ເປັນ ພະນັກງານ ທຳມະດາ
[119.105]
<no-speech>
[120.795]
ໂດຍ
[121.485]
<no-speech>
[123.825]
<no-speech>
[124.185]
<no-speech>
[125.105]
ເຈົ້າ ເດ ຊັ້ນ
[126.045]
<no-speech>
[127.895]
ໂດຍ
[128.505]
<no-speech>
[129.815]
ຮຽນ ຢູ່ ໃສ ນໍ້
[131.195]
<no-speech>
[134.665]
ແມ່ນ ຫວາ
[135.535]
<no-speech>
[139.925]
<no-speech>
[141.515]
<no-speech>
[143.185]
ໂດຍ
[144.095]
<no-speech>
[148.695]
ຖາມ ເລື່ອງ ໃດ ຫວະ
[149.765]
<no-speech>
[153.485]
ໂດຍ
[154.355]
<no-speech>
[155.165]
ໂດຍ ເຈົ້າ ຮຽນ ຢູ່ ໃສ ຊັ້ນ
[157.155]
<no-speech>
[162.435]
ໂດຍ ຮຽນ ຫຍັງ ຮຽນ ຫຍັງ
[163.975]
<no-speech>
[166.155]
<no-speech>
[166.535]
<no-speech>
[169.705]
ເຈົ້າ ຈັກ ປີ ລະ ຊັ້ນ
[171.285]
<no-speech>
[175.175]
ແມ່ນ
[177.715]
<no-speech>
[179.655]
ເຈົ້າ ຢູ່ ຫ້ອງ <no-speech> ເຈົ້າ ຢູ່ ກັບ ໃຜ ດຽວນີ້ <no-speech> ເຈົ້າ ຢູ່ ໃສ
[182.485]
<no-speech>
[185.305]
ໂດຍ
[185.855]
<no-speech>
[190.405]
<no-speech>
[191.145]
<no-speech>
[192.075]
ມີ ຄົນ ຢູ່ ນຳ ແລ້ວ ຫວາ
[194.035]
<no-speech>
[197.655]
ແມ່ນ ຫວາ
[198.325]
<no-speech>
[208.985]
<hes> ໄດ້ ຍິນ ຢູ່
[210.635]
<no-speech>
[213.525]
ເຈົ້າ ຕິດ ຮຽນ ຊັ້ນ ເບາະ
[214.725]
<no-speech>
[219.685]
ຮະ
[220.295]
<no-speech>
[223.265]
ຍິນ ແລ້ວ
[224.075]
<no-speech>
[227.165]
(())
[228.425]
<no-speech>
[233.465]
ບໍ່
[234.345]
<no-speech>
[236.115]
ໂດຍ
[236.765]
<no-speech>
[239.335]
ແທ້
[240.005]
<no-speech>
[242.285]
ບໍ່ ເຄີຍ ຕົວະ
[243.385]
<no-speech>
[246.275]
ຕົວະ ຄົນ ບໍ່ ເປັນ
[247.405]
<no-speech>
[250.695]
ຕົວະ ຜູ້ໃດ ເນາະ
[251.815]
<no-speech>
[254.565]
ອຸ໋ຍ ຕົວະ ເຈົ້າ ບໍ່ ໄດ້ ຕີ ຢ້ານ ເຈົ້າ ຫັ້ນ ແຫຼະ ຕົວະ ນະ
[258.985]
<no-speech>
[262.525]
ໂດຍ
[263.845]
<no-speech>
[265.715]
ເອົາ ມື້ ນີ້ ບໍ່ ໄດ້ ໄປ ຮຽນ ຫວາ ຊັ້ນ
[267.115]
<no-speech>
[270.935]
ບໍ່ ໄດ້ ໄປ ຮຽນ ຫວາ
[273.095]
<no-speech>
[276.005]
ໂດຍ
[276.785]
<no-speech>
[279.625]
<no-speech>
[280.065]
<no-speech>
[283.785]
ບໍ່ ຮູ້ ເທື່ອ
[285.135]
<no-speech>
[286.965]
ໂດຍ
[287.665]
<no-speech>
[290.025]
ຢູ່ ບ້ານ ກັບ ນ້ອງ
[291.135]
<no-speech>
[294.145]
ຮະ
[294.805]
<no-speech>
[297.765]
ຢູ່ ຄົນ ດຽວ
[298.805]
<no-speech>
[300.425]
ໂດຍ
[301.155]
<no-speech>
[307.205]
ມີ ປະມານ ຫ້າ ຄົນ ນີ້ ແຫຼະ
[309.235]
<no-speech>
[311.705]
ໂດຍ
[312.475]
<no-speech>
[313.965]
ເຈົ້າ ໄປ (())
[315.045]
<no-speech>
[318.055]
(())
[318.445]
<no-speech>
[319.565]
ເຈົ້າ ເປັນ ຄົນ ມາ ແຕ່ ໃສ
[321.135]
<no-speech>
[325.445]
ໄດ້ ຍິນ ເບາະ
[326.215]
<no-speech>
[329.435]
ເຈົ້າ ເປັນ ຄົນ ມາ ແຕ່ ແຂວງ ໃດ
[330.975]
<no-speech>
[333.935]
ແມ່ນ ຫວາ
[334.625]
<no-speech>
[341.925]
ຄົນ ແຂວງ ວຽງຈັນ ນີ້ ເຈົ້າ ຊູ້ ເນາະ
[343.865]
<no-speech>
[350.470]
<no-speech>
[357.075]
ຮະ
[357.665]
<no-speech>
[364.985]
ກະ ບໍ່ ໄດ໋ ລະ
[366.085]
<no-speech>
[370.555]
ເປັນ ພະນັກງານ ເສີບ ທຳມະດາ
[372.265]
<no-speech>
[377.425]
(()) ໄດ້ ປີ ໜຶ່ງ ແລ້ວ
[379.025]
<no-speech>
[381.445]
(())
[381.985]
<no-speech>
[385.755]
ໂດຍ
[386.415]
<no-speech>
[391.175]
<no-speech>
[392.845]
<no-speech>
[397.185]
ບໍ່ ໄດ້ ເຮັດ ຫຍັງ
[398.165]
<no-speech>
[400.345]
ໂດຍ
[401.035]
<no-speech>
[402.185]
<no-speech>
[402.565]
<no-speech>
[408.015]
<no-speech>
[408.405]
<no-speech>
[415.085]
(())
[415.715]
<no-speech>
[421.535]
ໂດຍ
[422.275]
<no-speech>
[427.715]
ເອົາ ບໍ່ ໄດ້ ໄປ ຫຼິ້ນ ນຳ ໝູ່ ຫວາ ຊັ້ນ
[429.295]
<no-speech>
[433.265]
ເປັນ ຫຍັງ
[433.875]
<no-speech>
[439.195]
ໄປ ຫຼິ້ນ ໃສ
[440.045]
<no-speech>
[441.445]
<no-speech>
[441.985]
<no-speech>
[444.275]
ເບາະ ເປັນ ຫຍັງ ຄື ບໍ່ ໄປ (())
[447.765]
<no-speech>
[453.455]
ຮະ
[453.955]
<no-speech>
[460.745]
ເຂົາ ຖາມ ເພິ່ນ ບໍ່ ໄປ ຫຼິ້ນ ກັບ ໝູ່ ຫວາ
[464.415]
<no-speech>
[469.165]
ໄປ
[469.695]
<no-speech>
[471.985]
ໄປ
[472.585]
<no-speech>
[474.275]
ມີ
[475.015]
<no-speech>
[477.255]
(())
[478.035]
<no-speech>
[479.385]
ຮະ
[480.005]
<no-speech>
[485.275]
<breath> ໄປ ໃສ ກໍ່ ໄປ
[486.985]
<no-speech>
[489.175]
(())
[489.585]
<no-speech>
[492.425]
ແມ່ນແລ້ວ ໄປ ບ່ອນ ນັ້ນ ແຫຼະ ຮ້ານ ເບຍ ແລະ
[495.595]
<no-speech>
[496.865]
(())
[497.365]
<no-speech>
[501.725]
(())
[502.585]
<no-speech>
[505.785]
(())
[506.695]
<no-speech>
[514.735]
(())
[515.715]
<no-speech>
[517.985]
ຝົນ
[518.415]
<no-speech>
[521.465]
ແລ້ວ
[521.985]
<no-speech>
[523.795]
<sta> ເຈົ້າ ເດ ເຈົ້າ ເດ ບໍ່ ໄດ້ ໄປ ໃສ ຫວາ
[526.055]
<no-speech>
[529.775]
ເບາະ
[530.235]
<no-speech>
[538.775]
ໄດ້ ຍິນ ຫວາ
[539.575]
<no-speech>
[545.895]
ບໍ່ ໄດ້
[546.625]
<no-speech>
[549.085]
ໂດຍ
[549.775]
<no-speech>
[556.805]
ແມ່ນ ຫວາ ເຮັດ ຫຍັງ ຢູ່ ໃສ
[559.165]
<no-speech>
[563.015]
ເຮັດ ຫຍັງ ຢູ່
[565.055]
<no-speech>
[566.825]
ໂດຍ
[567.465]
<no-speech>
[568.645]
ແມ່ນ ຫວາ
[569.355]
<no-speech>
[570.565]
<no-speech>
[570.985]
<no-speech>
[576.985]
ລົມ ລົມ ໂທລະສັບ ຢູ່ ໃສ ດຽວນີ້
[578.715]
<no-speech>
[580.845]
ເພິ່ນ ລົມ ໂທລະສັບ ຢູ່ ໃສ
[582.475]
<no-speech>
[585.185]
ໂດຍ
[585.785]
<no-speech>
[592.115]
ກະ ດີ
[592.995]
<no-speech>
[594.765]
ບໍ່ ມີ
[595.455]
<no-speech>
[600.180]
