[0.000]
<no-speech>
[4.355]
ຮາໂຫຼ
[8.865]
<no-speech>
[11.595]
ຮາໂຫຼ
[12.235]
<no-speech>
[14.675]
ເອີ
[15.475]
<no-speech>
[17.085]
ເອີ
[17.805]
<no-speech>
[18.745]
ມຶງ ຢູ່ ໃສ
[21.555]
<no-speech>
[23.565]
<no-speech>
[24.905]
<no-speech>
[26.955]
ບ້ານ ອ້າຍ ລ້າງ ວາ
[28.125]
<no-speech>
[29.045]
<no-speech>
[29.455]
<no-speech>
[30.795]
ຂີ່ ລົດ
[32.225]
<no-speech>
[33.225]
<no-speech>
[33.695]
<no-speech>
[34.715]
ເອີ
[36.915]
<no-speech>
[42.055]
ຮາ
[42.695]
<no-speech>
[45.555]
ແມ່ນ ຫຍັງ
[46.205]
<no-speech>
[50.465]
ຮາໂຫຼ
[51.125]
<no-speech>
[54.645]
ຕັ໊ອບ
[55.155]
<no-speech>
[58.115]
ຕັ໊ອບ
[60.125]
<no-speech>
[64.175]
ຕັ໊ອບ
[64.715]
<no-speech>
[66.485]
ແມ່ນ ຫຍັງ
[67.055]
<no-speech>
[75.575]
<no-speech>
[78.465]
<no-speech>
[79.405]
ອາໂຫຼ ຕັ໊ອບ
[80.805]
<no-speech>
[82.835]
<no-speech> (())
[85.535]
<no-speech>
[92.540]
