[0.000]
<no-speech>
[7.265]
ໂຫຼ
[7.865]
<no-speech>
[9.335]
ໂຫຼ
[9.865]
<no-speech>
[12.235]
ຢູ່ ເຮືອນ ມຶງ ເວົ້າ ຫຍັງ
[13.665]
<no-speech>
[14.525]
ຢູ່ ເຮືອນ ມຶງ ເດ່
[15.485]
<no-speech>
[18.065]
ເບິ່ງ ທໍ່ ທັດ ມຶງ ຢູ່ ໃສ
[19.395]
<no-speech>
[21.745]
ຮະ
[22.215]
<no-speech>
[27.835]
<hes> ຈັກ ໂມງ
[29.325]
<no-speech>
[30.975]
ຈັກ ໂມງ
[31.655]
<no-speech>
[36.095]
ມຶງ ເຮັດ ຫຍັງ ເກ໊າະ ມຶງ ຄື ເອົາ ເບີ ນີ້ ໂທ ມາ
[37.935]
<no-speech>
[39.345]
ເບາະ
[39.795]
<no-speech>
[42.035]
ເບາະ
[42.505]
<no-speech>
[44.495]
ມຶງ ເຮັດ (())
[45.335]
(())
[46.545]
<no-speech>
[47.005]
(())
[48.305]
ໃດ
[48.795]
<no-speech>
[50.985]
ເບິ່ງ ທໍລະທັດ
[51.955]
<no-speech>
[54.325]
ເບິ່ງ ທໍລະທັດ
[55.285]
<no-speech>
[57.245]
ຄົນ ດຽວນີ້ ແຫຼະ
[58.035]
<no-speech>
[59.875]
ຄົນ ດຽວ
[60.745]
<no-speech>
[66.205]
ຮະ
[66.725]
<no-speech>
[67.565]
ອັນ ໃດ
[68.165]
<no-speech>
[70.735]
ມຶງ ຫັ້ນ ບໍ່ ໄດ້ ຍິນ ກູ ນະ
[71.965]
<no-speech>
[72.965]
ເວົ້າ ແຮງ ແຮງ ດຸ
[73.765]
<no-speech>
[75.835]
ເວົ້າ ແຮງ ແຮງ ແດ່
[76.855]
<no-speech>
[78.935]
ຍິນ
[79.705]
<no-speech>
[82.935]
<no-speech>
[83.515]
<no-speech>
[84.515]
ຍັງ ຢູ່ ບ້ານ ນີ້
[85.415]
<no-speech>
[87.445]
ລາວ ກະ ຢູ່ ນີ້ ແຫຼະ ພໍ່ ກູ ໄປ ວຽກ ຍັງ ແຕ່ ແມ່ ກູ
[91.125]
<no-speech>
[93.905]
ແຕ່ ແມ່ ກູ ຢູ່ ເຮືອນ
[95.115]
<no-speech>
[97.855]
(())
[99.535]
<no-speech>
[100.435]
ລາວ ກະ ນອນ ຕວ່າ <hes>
[103.595]
<no-speech>
[109.455]
ມຶງ ຫັ້ນ ນະ ກູ ເວົ້າ ໄປ ມັກ ບໍ່ ໄດ້ ຍິນ
[112.165]
<no-speech>
[114.475]
ມຶງ ເຮັດ ແນວ ໃດ ໂທ ມາ ນີ້
[115.805]
<no-speech>
[117.315]
ຮະ
[117.835]
<no-speech>
[119.575]
ເບາະ
[120.035]
<no-speech>
[123.055]
ເຮັດ ແນວ ໃດ ເບີ ມັນ ຄື ເປັນ ຈັ່ງຊີ້
[124.505]
<no-speech>
[126.245]
ເອົາ ເບີ ຕ່າງ ປະເທດ ໂທ <hes>
[128.715]
<no-speech>
[131.325]
ຫຍັງ ເກ໊າະ
[131.995]
<no-speech>
[133.605]
ເອີ້ ຮ່າ ມຶງ ຫວາ
[134.545]
<no-speech>
[136.125]
ໄປ
[136.755]
<no-speech>
[138.645]
ໄປ ໄປ ໄປ
[140.455]
<no-speech>
[142.595]
<no-speech>
[143.075]
<no-speech>
[144.435]
ສີ່ ໂມງ ພຸ້ນ ແຫຼະ ສີ່ ສີ່
[146.815]
<no-speech>
[149.245]
ສີ່ ໂມງ
[150.635]
<no-speech>
[152.865]
<no-speech>
[153.385]
<no-speech>
[154.635]
ອີ່ຫຍັງ ເກາະ
[155.285]
<no-speech>
[158.785]
ຍັງບໍ່ທັນ ຊື້ ເທື່ອ
[159.985]
<no-speech>
[161.825]
ບໍ່
[162.465]
<no-speech>
[166.945]
<no-speech>
[167.395]
<no-speech>
[169.365]
ອັນ ໃດ
[169.925]
<no-speech>
[173.165]
ກູ ເຂົ້າ ໂຮງຮຽນ ແລ້ວ ກູ ຊິ ຊື້ ນະ
[174.865]
<no-speech>
[177.665]
ເດືອນເກົ້າ ພຸ້ນ ແຫຼະ ກູ ຊິ ຊື້
[179.005]
<no-speech>
[180.505]
ເອົາ ກູ ຊິ ເຂົ້າ ໂຮງຮຽນ ເນາະ
[181.895]
<no-speech>
[184.785]
ລັດຕະນະ
[185.915]
<no-speech>
[188.135]
ລັດຕະນະ
[188.905]
<no-speech>
[194.915]
ຮຽນ ການເງິນ
[195.815]
<no-speech>
[196.645]
ການເງິນ ບັກ ນີ້ ກະ ອຸ໋ຍ
[199.725]
<no-speech>
[201.345]
ມຶງ ເອົາ ເບີ ຫຍັງ ໂທ ມາ ນີ້
[202.645]
<no-speech>
[203.895]
ຈັກ ຈັກ ລົດຈັກ
[205.115]
<no-speech>
[207.685]
<no-speech>
[208.195]
<no-speech>
[210.555]
ອັນ ໃດ ເກ໊າະ
[211.195]
<no-speech>
[214.165]
ບໍ່
[214.835]
<no-speech>
[217.115]
ບໍ່ ກູ ບໍ່ ມັກ
[218.065]
<no-speech>
[222.825]
ມຶງ ເອົາ ເບີ ໃດ ໂທ ມາ
[224.135]
<no-speech>
[225.195]
<no-speech>
[225.735]
<no-speech>
[228.015]
(())
[228.705]
<no-speech>
[229.705]
ມຶງ ເອົາ ເບີ ໃດ ໂທ ມາ ເກາະ ນີ້
[231.005]
<no-speech>
[234.245]
<no-speech>
[234.795]
<no-speech>
[236.485]
ເບາະ
[236.935]
<no-speech>
[239.325]
ແລ້ວ
[239.895]
<no-speech>
[242.095]
ກິນ ແລ້ວ ອູ້
[243.185]
<no-speech>
[246.655]
ກິນ ແລ້ວ ບັກ ຫາ ນີ້ ມຶງ ເອົາ ເບີ ໃດ ໂທ ມາ ນີ້
[249.535]
<no-speech>
[253.245]
ເວົ້າ ປານ ກູ ມີ ປັນຍາ ຈ່າຍ <laugh>
[254.665]
<no-speech>
[256.415]
ເອົາ ລະ ເບີ ຫຍັງ ລະ <hes>
[258.125]
<no-speech>
[259.795]
<no-speech>
[260.535]
<no-speech>
[262.315]
<no-speech>
[262.995]
<no-speech>
[265.865]
<no-speech>
[266.395]
<no-speech>
[275.305]
<no-speech>
[275.995]
<no-speech>
[278.115]
<hes> <int> ຮະ
[283.215]
<no-speech>
[284.265]
ອີ່ຫຍັງ ເກາະ <hes>
[286.665]
<no-speech>
[290.105]
<no-speech>
[290.935]
<no-speech>
[292.645]
<no-speech>
[294.185]
<no-speech>
[296.035]
<no-speech>
[297.225]
<no-speech>
[298.365]
ແມ່ນ ຫຍັງ ເກ໊າະ
[299.665]
<no-speech>
[300.835]
ເວົ້າ ແຮງ ດຸ
[303.355]
<no-speech>
[304.575]
ຍັງ
[306.275]
<no-speech>
[308.645]
ຍັງ
[309.265]
<no-speech>
[310.855]
<no-speech>
[311.245]
<no-speech>
[313.815]
<int> ມຶງ ນະ ບໍ່ ໄດ້ ຍິນ ສາ ເບາະ <hes>
[316.875]
<no-speech>
[324.725]
ມຶງ ນະ ບໍ່ ໄດ້ ຍິນ ກູ ເວົ້າ <no-speech> ໄດ້ ຍິນ
[327.455]
<no-speech>
[329.435]
ມຶງ ເອົາ ຄອມ ໂທ ມາ ເບາະ
[330.675]
<no-speech>
[332.745]
<no-speech>
[333.215]
<no-speech>
[335.265]
ມຶງ ເອົາ ຫຍັງ ໂທ ມາ
[336.465]
<no-speech>
[338.615]
ໂອ້ຍ ກູ ຢາກ ຮູ້ ນະ ບັກ ນີ້ ກະ
[340.005]
<no-speech>
[341.145]
ມຶງ ເອົາ ຫຍັງ ໂທ ມາ ເປັນ ຈັ່ງຊີ້
[342.595]
<no-speech>
[346.275]
(())
[347.095]
<no-speech>
[348.265]
<no-speech>
[348.975]
<no-speech>
[352.395]
ຍັງ ຢູ່ ບ້ານ ບັກ ຕົ້ນ ຫວາ ດຽວນີ້
[353.715]
<no-speech>
[356.145]
ເບາະ
[356.625]
<no-speech>
[359.185]
(())
[362.835]
<no-speech>
[363.875]
<no-speech>
[364.395]
<no-speech>
[369.555]
<hes> ເຈັບ ຫົວ ຍ້ອນ ມຶງ ນີ້ ລະ
[371.485]
<no-speech>
[372.665]
<no-speech>
[373.205]
<no-speech>
[378.025]
ກູ ຖາມ ຫຍັງ ກະ ບໍ່ ບອກ ທໍ່ ນີ້ ແຫຼະ
[379.655]
<no-speech>
[382.105]
ຮຽນ ອີ່ຫຍັງ ກູ ຈົນ ຊິ ຈົບ ລະ
[383.975]
<no-speech>
[386.255]
ຮຽນ ຫຍັງ <no-speech> ບໍ່
[387.585]
<no-speech>
[392.065]
<no-speech>
[392.915]
<no-speech>
[395.375]
<no-speech>
[395.845]
<no-speech>
[401.335]
ບ້າ ແລ້ວ ກໍ ຮຽນ ແລະ ຕວ່າ ເນາະ
[403.325]
<no-speech>
[408.975]
ເປັນ ບ້າ ຮຽນ ຄູ່ ວຽງ
[410.145]
<no-speech>
[411.075]
ບ້າ ຫວາ ຊິ ຮຽນ ຄູ່ ວຽງ
[412.275]
<no-speech>
[416.935]
(())
[418.005]
<no-speech>
[421.375]
ກະ ຕັ້ງໃຈ ຮຽນ (())
[422.505]
<no-speech>
[423.675]
<no-speech>
[424.185]
<no-speech>
[426.765]
ອັນ ໃດ
[427.355]
<no-speech>
[430.685]
ເປັນ ບ້າ ມັນ ກະ ຮຽນ ຢູ່ ໂຮງຮຽນ ມັນ ເບາະ
[432.355]
<no-speech>
[438.165]
ເອີ້ ຍັງ ໄຄ ແບບ ທາງ ດຽວ ກັນ ຊິ <hes>
[441.015]
<no-speech>
[447.085]
ມຶງ ຢູ່ ນຳ ໃຜ ນີ້ ຫຶ
[448.215]
<no-speech>
[449.645]
<no-speech>
[450.145]
<no-speech>
[455.725]
ໂອ້
[456.145]
<no-speech>
[457.775]
<no-speech>
[458.145]
<no-speech>
[459.865]
ລິດ
[460.375]
<no-speech>
[462.405]
(()) ກິ ເລັດ ຮາ
[464.105]
<no-speech>
[465.315]
ລິດ
[465.865]
<no-speech>
[468.595]
ບໍ່ ສຸສຸກິ ເລັດ <no-speech> ສຸສຸກິ ເລັດ
[471.455]
<no-speech>
[481.025]
<no-speech>
[481.585]
<no-speech>
[483.265]
ມັກ ມັກ
[483.945]
<no-speech>
[490.245]
(())
[491.345]
<no-speech>
[494.205]
ວັນ ເຂົ້າ ໂຮງຮຽນ ນະ ເດືອນແປດ ເດືອນເກົ້າ ພຸ້ນ ແຫຼະ
[497.095]
<no-speech>
[504.905]
<hes> ປານ ເວົ້າ ຊິ ຊື້ ເນາະ
[506.275]
<no-speech>
[508.775]
<no-speech>
[509.265]
<no-speech>
[513.715]
ບໍ່ ລາວ ເຝົ້າ ນີ້ ນະ <no-speech> ເຝົ້າ ເຮືອນ ລາວ ເຝົ້າ ເຮືອນ ລາວ ບໍ່ ໄດ້ ເຮັດ (())
[518.205]
<no-speech>
[523.995]
ໃກ້ຊິ ແລ້ວ ລະ ແຫຼະ
[525.045]
<no-speech>
[526.745]
ຈັກ ບໍ່ ຮູ້ ນຳ ເຂົາເຈົ້າ ເດ່
[527.925]
<no-speech>
[528.955]
ຈັກໜ້ອຍ ແລະ ໃກ້ຊິ ແລ້ວ ພຸ້ນ ແຫຼະ
[530.375]
<no-speech>
[534.445]
ດຽວນີ້ ຍັງ ເຫຼືອ ໜ້ອຍດຽວ ໜຶ່ງ
[535.805]
<no-speech>
[538.145]
<no-speech>
[538.625]
<no-speech>
[542.605]
ແມ່ນ ຫຍັງ ເກ໊າະ
[543.225]
<no-speech>
[546.065]
ອັນ ໃດ
[546.645]
<no-speech>
[547.935]
<hes> ກະ ໂລ
[549.255]
<no-speech>
[552.315]
ກະ ໂລ ປູ ພື້ນ ນີ້ ແຫຼະ <no-speech> ປູ ຕາ ກະ ໂລ
[555.295]
<no-speech>
[563.645]
<hes> ແລ້ວ ໝົດ ລະ
[564.895]
<no-speech>
[570.955]
ຮວ້າຍ
[571.765]
<no-speech>
[575.935]
ຈັກ (())
[578.555]
<no-speech>
[580.365]
ເທື່ອ ກະ ນ້າບ່າວ ກູ (())
[581.775]
<no-speech>
[583.315]
<no-speech>
[583.855]
<no-speech>
[585.765]
ນ້ອງ ກູ ຫັ້ນ ເດ
[587.065]
<no-speech>
[593.945]
<no-speech>
[594.415]
<no-speech>
[595.265]
ອັນ ໃດ ເກ໊າະ
[595.905]
<no-speech>
[597.915]
ອັນ ໃດ
[598.395]
<no-speech>
[600.220]
