[0.000]
<no-speech>
[7.005]
ແມ່ນ ຫຍັງ ແມ່ນ ຫຍັງ
[8.315]
<no-speech>
[11.125]
ຮາໂຫຼ ຢູ່ ໃສ ແມ່ຕູ້
[13.385]
<no-speech>
[16.005]
ເຈົ້າ ເຈົ້າ ຢູ່ ໃສ
[17.345]
<no-speech>
[20.865]
<prompt> (())
[21.395]
<no-speech>
[22.675]
ໄຂ ຫັ້ນ ໄຂ ເອົາ ຢູ່ ໃນ ຖົງ ຢູ່ ຖົງ <hes> *ເຈົ້າ* *ນຸ່ງ* *ເສື້ອ* *ບໍ່* *ດຽວນີ້* *ນະ* *ດຽວນີ້* *ເຈົ້າ* *ນຸ່ງ* *ເສື້ອ* *ເບາະ*
[28.755]
<no-speech>
[31.265]
ອະ ອະ ແຫຼະ ເຂົາ ຢູ່ ຖົງ ເສື້ອ ຂ້າງ ຊ້າຍ ຊ້າຍ ເຈົ້າ ຫັ້ນ ແຫຼະ
[35.025]
<no-speech>
[38.805]
ເອີ ເອີ ເອົາ ໄອ ເອີຍ ອັນ ນັ້ນ ຕີ
[42.015]
<no-speech>
[43.635]
<hes> ເພິ່ນ ເຂົາ ໃຫ້ ເພິ່ນ ເລືອກ ເປັນ <foreign> ນະ ເພິ່ນ ຊິ ເປັນ ອີ່ຫຍັງ ເປັນ <foreign> ບໍ່
[48.605]
<no-speech>
[52.175]
ເອົາ ມັນ ຄ່ອຍ ມີ ເຍື້ອ ໄຍ ເນາະ
[54.065]
<no-speech>
[57.725]
<laugh> ຫຍັງ
[59.985]
<no-speech>
[61.845]
ຮາໂຫຼ
[62.545]
<no-speech>
[63.515]
ກໍ່ ໄປ ຢຸດ ຢູ່ ໂຮງຮຽນ ນີ້ ແຫຼະ ໂອ້ຍ <no-speech> ຮະ
[66.995]
<no-speech>
[67.885]
ເຈົ້າ ກະ ເວົ້າ ແຮງ ແຮງ ແນ່ ດຸ ເຈົ້າ
[69.455]
<no-speech>
[70.625]
ບໍ່ ໄດ້ ກິນ ເຂົ້າເຊົ້າ ຫວາ ເຈົ້າ ຄື ເວົ້າ ຄ່ອຍ ແທ້ ເກາະ
[73.005]
<no-speech>
[76.585]
ແມ່ນ ຫວາ ເອິ ກະ ເວົ້າ ແຮງ ແຮງ ຈັ່ງຊີ້ ແນ່ ດຸ
[79.805]
<no-speech>
[84.115]
ອ້າວ ໂຮງຮຽນ ຂ້ອຍ ໂຮງຮຽນ ສ່ວນໂຕ ເນາະ ເອົ້າ ໂຮງຮຽນ ສ່ວນໂຕ ເນາະ ອາຄານ ບໍ່ ຂຶ້ນ ຂ້ອຍ ກະ ເຕັມ ທີ່ ໂລດ ແຫຼະ
[91.755]
<no-speech>
[94.385]
ເອີ ຈັ່ງໃດ ຢູ່ ບ້ານ ເພິ່ນ
[96.585]
<no-speech>
[98.835]
ບໍ່ ກິນ ເຫຼົ້າຂາວ ສອງ ຕຸກ ມື້ວານ ນີ້ ນະ
[101.105]
<no-speech>
[102.515]
ເອິ ກິນ ເຫຼົ້າຂາວ ສອງ ຕຸກ <no-speech> ອື ຈັ່ງໃດ ຢູ່ ບ້ານ ຢູ່ ບ້ານ ກັບ ໃຜ ນີ້
[106.855]
<no-speech>
[108.045]
ບໍ່ ບໍ່ ໄດ້ ກົງ ຢູ່ ບ້ານ ກັບ ໃຜ
[109.455]
<no-speech>
[110.775]
ປະ
[111.265]
<no-speech>
[112.755]
ແມ່ຕູ້ ເດ່ ຍັງ ມາ ລະ ຫວາ
[114.285]
<no-speech>
[118.305]
ອາ ຮະ
[119.275]
<no-speech>
[120.475]
ເຮີຍ <no-speech> ຈັ່ງໃດ ແຜນການ
[123.075]
<no-speech>
[124.405]
ເຮັດ ຫຍັງ ມື້ ນິ
[125.235]
<no-speech>
[126.585]
ຈັ່ງໃດ ແຜນການ ບໍ່ ໄດ້ ໄປ ໃສ ຫວາ ມື້ ນີ້ ນະ
[128.585]
<no-speech>
[130.245]
ຫຶ
[130.725]
<no-speech>
[132.715]
ຊິ ຊວນ ໃຜ
[133.465]
<no-speech>
[134.995]
ບໍ່ ຂ້ອຍ ບໍ່ ວ່າງ ຂ້ອຍ ເວົ້າ ກັບ ເຈົ້າ ແລ້ວ ມື້ວານ ນີ້ ເຈົ້າ ລົມ ໃຜ ເຈົ້າ ກໍ່ ໄປ ຫາ ຜູ້ ນັ້ນ
[139.685]
<no-speech>
[143.455]
ຂ້ອຍ <no-speech> ຂ້ອຍ ເວົ້າ ກັບ ເຈົ້າ ແລ້ວ ເຈົ້າ ເມືອ ແຕ່ ມື້ວານ ນີ້ ຂ້ອຍ ກະ ແລະ ເຈົ້າ ກະ ບໍ່ ຕ້ອງ ມາ ຫາ ຂ້ອຍ
[148.235]
<no-speech>
[151.775]
ອັນ ໃດ ດີ ແລ້ວ ອື ຄື ເພິ່ນ ເວົ້າ ມື້ຄືນນີ້ ແຫຼະ ດີ ແລ້ວ <no-speech> ຂ້ອຍ ບໍ່ ໄດ້ ເມົາ ຫຼາຍ ໄດ໋ ມື້ຄືນນີ້ ນະ
[157.345]
<no-speech>
[158.495]
ອາ ຮະ
[159.165]
<no-speech>
[161.135]
ອຶຮຶ ເອົາ ສອງ ຕຸກ ເນາະ ບໍ່ ເມົາ ຫຼາຍ ໄດ້ ຈັ່ງໃດ ຈົນ ເລືອ
[164.305]
<no-speech>
[165.975]
ຈົນ ເລືອ
[166.725]
<no-speech>
[169.285]
ບໍ່ ຊິ ຊວນ ເຈົ້າ ເຮັດ ຫຍັງ <no-speech> ເປັນ ອີ່ຫຍັງ ນັກຮຽນ ຈັ່ງໃດ ຊິ ມາ ຊວນ ຜູ້ບ່າວ ກິນ ເບຍ ບໍ່ ໄດ້ ເດີ ເຈົ້າ ນີ້ ເດີ
[175.895]
<no-speech>
[177.095]
ໃຫ້ ຜູ້ບ່າວ ເດ ຊວນ ໃຫ້
[178.505]
<no-speech>
[179.505]
ເປັນ ໜັກ ຮຽນ ເປັນ ຜູ້ສາວ ຈັ່ງໃດ ຊວນ ຜູ້ບ່າວ ກິນ ເບຍ
[182.365]
<no-speech>
[186.395]
ເອ ເຈົ້າ ນີ້ ບໍ່ ໄດ້ ເດີ ເຈົ້າ ນີ້ ຮຽນ ເປັນ ຄົນ ແຕກ ກອບ ເດີ
[190.845]
<no-speech>
[195.425]
<breath> ແມ່ນ ຫວາ <breath>
[196.815]
<no-speech>
[197.685]
ຈັ່ງໃດ ໂຮງຮຽນ
[198.705]
<no-speech>
[200.735]
ເບາະ ຈັ່ງໃດ ໂຮງຮຽນ ແນະ ຮາ
[203.645]
<no-speech>
[204.745]
ເສັງ ແລ້ວ ລະ ຫວາ ເສັງ ແລ້ວ ລະ
[206.805]
<no-speech>
[210.415]
ເພິ່ນ ເວົ້າ ຈັ່ງໃດ ເກາະ ເພິ່ນ ເວົ້າ ຄື ຄ່ອງ ຄ່ອງ ຄາ ຄາ ນີ້ ເຕະ ກ້ານ ຄໍ ຊັ້ນ ແຫຼະ
[214.495]
<no-speech>
[219.415]
(()) ດຽວນີ້ ເຈົ້າ ຢູ່ ໃນ ລົດ ຊັ້ນ ເບາະ
[221.125]
<no-speech>
[224.225]
ລົດ ໃຜ
[224.885]
<no-speech>
[230.385]
ດຽວນີ້ ເຈົ້າ ຢູ່ ໃນ ລົດ ຫຼື ຢູ່ ໃນ ບ້ານ ນີ້
[232.665]
<no-speech>
[237.005]
ເອົ້າ ເຈົ້າ ໄປ ເຮັດ ອີ່ຫຍັງ ຢູ່ ລົດ
[238.565]
<no-speech>
[244.255]
ແມ່ນ ຫວາ
[245.265]
<no-speech>
[246.455]
ໂອ້ ລະວັງ ເດີ ລະວັງ ຜົວ ຢູ່ ບ້ານ ລະວັງ ຜົວ ຢູ່ ບ້ານ ນຳ ຂ້າ ເດີ
[250.975]
<no-speech>
[255.595]
ຫວາ ບໍ່ ຢ້ານ ຜົວ ຢູ່ ບ້ານ ນຳ ຂ້າ ຫວາ ລູກ ລູກ ຢູ່ ບ້ານ ນະ ໄຫ້ ກິນ ນົມ ຢູ່ ກະ ເມືອ ເອົາ ນົມ ໃຫ້ລູກ ກິນ ລະ ແມ
[261.535]
<no-speech>
[263.445]
ໂອ້ຍ ເຈົ້າ ນີ້ ບໍ່ ໄດ້ ເດີ
[265.205]
<no-speech>
[266.475]
ເອົ້າ <prompt>
[266.875]
<no-speech>
[268.765]
ລູກ ຢູ່ ບ້ານ ໄຫ້ ກິນ ນົມ ຢູ່ ກະ ເອົາ ນົມ ໃຫ້ລູກ ກິນ ຢູ່ ບ້ານ ກ່ອນຊິ ໄປ ຫຼິ້ນ ກະດາຍ
[273.795]
<no-speech>
[277.045]
ແມ່ນ ຫວາ
[277.915]
<no-speech>
[278.825]
ອື ກະ ໃຫ້ ຄົນ ຂັບ ລົດ ຫັ້ນ ເດ ເອົາໃຫ້ ນະ ໃຫ້ ເຂົາເຈົ້າ ເສກ ເດັກນ້ອຍ ເຂົ້າ ທ້ອງ ໃຫ້
[283.505]
<no-speech>
[287.315]
<cough> ຂ້ອຍ ເວົ້າ ເປັນ ແຕ່ ດົນ ຂ້ອຍ ເວົ້າ ເປັນ ປະມານ ໄດ້ ສາມ ປີ ນີ້ ແຫຼະ
[292.455]
<no-speech>
[294.915]
ອື ນັ້ນ ແຫຼະ <no-speech> ຮະ
[297.485]
<no-speech>
[302.005]
ຜູ້ໃດ ຊິ ເອົາ ຂ້ອຍ
[302.985]
<no-speech>
[304.535]
ສ່ຽວ ຮັກ ສ່ຽວ ແພງ ຫຼືວ່າ ສ່ຽວ ຕາຍ ສ່ຽວ ກິນ ສ່ຽວ ຫຼິ້ນ
[308.725]
<no-speech>
[309.605]
ສ່ຽວ ໃດ ລະ
[310.325]
<no-speech>
[312.245]
ຖ້ຽວ ໃດ ເຈົ້າ ຊິ ເອົາ ຖ້ຽວ ໃດ
[313.855]
<no-speech>
[314.675]
ສ່ຽວ ຄຳ ບາງ ຫວະ ສ່ຽວ ຄຳ ບາງ ເອົ້າ ລາວ ກະ ຢູ່ ຫ້ອງ ແຫຼະ ເນາະ
[318.565]
<no-speech>
[323.345]
ເອົ້າ ຢູ່ ຄົນລະ ຫ້ອງ ເຂົາ ກັບ ລາວ ຢູ່ ຄົນລະ ຫ້ອງ
[325.795]
<no-speech>
[329.475]
ອື
[330.695]
<no-speech>
[332.395]
ອ້າວ
[332.855]
<no-speech>
[334.005]
ຂ້ອຍ ນີ້ ນະ ຫ້ອງ ຂ້ອຍ ມັນ ຢູ່ <hes> ຂ້າງ ຂ້າງ ຕຶກ ຂ້ອຍ ນີ້ ນະ ມັນ ມີ ຫ້ອງ ວ່າງ ຫ້ອງ ໜຶ່ງ ບໍ່ ມີ ໃຜ ຂ້ອຍ ເລີຍ ເຂົ້າ ມາ ລົມ ໂທລະສັບ ຢູ່ ນີ້
[342.825]
<no-speech>
[345.255]
ເຈົ້າ ມີ ບັນຫາ ບໍ <int>
[346.605]
<no-speech>
[351.295]
ຫວາ <click> ຈັ່ງໃດ ແຜນການ ເອົາ ຜົວ ມື້ ໃດ ເຈົ້າ ນະ
[355.075]
<no-speech>
[356.695]
ເບາະ
[357.165]
<no-speech>
[361.485]
ຖ້າ ເອົາ ໃຜ ເອົາ ຂ້ອຍ
[362.645]
<no-speech>
[364.085]
ໂອ້ຍ ຂ້ອຍ ເອົາ ຂ້ອຍ ບໍ່ ໄດ້ ໄດ໋ ຂ້ອຍ ຍັງ ສ້າງ ເນື້ອ ສ້າງ ໂຕ ຢູ່
[367.865]
<no-speech>
[372.055]
ຂ້ອຍ ຍັງ ສ້າງ ເນື້ອ ສ້າງ ໂຕ ຢູ່ ດຽວນີ້ ນ່າ
[374.695]
<no-speech>
[377.945]
ອາ ຮາ
[378.735]
<no-speech>
[380.665]
ຫ້ວຍ ເກີດ ມາ ເປັນ ຄົນ ເນາະ ແມ່ ລ້ຽງ ມາ ຈົນວ່າ ໃຫຍ່ ຊິ ບໍ່ ຮູ້ຈັກ ຄວາມ ໄດ້ ຈັ່ງໃດ
[385.245]
<no-speech>
[387.315]
ຈັ່ງໃດ ຢູ່ ບ້ານ ຫາ ເຂົ້າຫາ ນ້ຳ ໃຫ້ ແມ່ ກິນ ແດ່ ເຈົ້າ
[389.935]
<no-speech>
[391.005]
ຮະ <prompt>
[391.475]
<no-speech>
[394.455]
ແມ່ນ ເຈົ້າ ເວົ້າ ຈັ່ງໃດ ເກາະ ດຽວນີ້ ເຈົ້າ ເວົ້າ ຄື ເຈົ້າ ຢູ່ ຫຼາຍ ຄົນ ນີ້ ແຫຼະ
[397.915]
<no-speech>
[401.005]
ເບາະ ຕິ
[401.735]
<no-speech>
[403.495]
ເອີ ເພິ່ນ ເວົ້າ ຄື ຢູ່ ຫຼາຍ ຄົນ ນີ້ ແຫຼະ
[405.475]
<no-speech>
[406.465]
ຫຶ <prompt>
[406.885]
<no-speech>
[409.795]
ຫວາ
[410.275]
<no-speech>
[411.175]
ເປັນ ອີ່ຫຍັງ ເຂົາເຈົ້າ <no-speech> ເອີ ໄດ້ ຍິນ ເຂົາເຈົ້າ ໂທ ມາ ຫາ ເຈົ້າ ອີ່ຫຍັງ ເລື່ອງ ອີ່ຫຍັງ ກັນ
[415.135]
<no-speech>
[420.405]
ແມ່ນ ຫວາ <no-speech> ລະ ອ້າວ ກະ ເວົ້າ ດຽວນີ້ ເລີຍ ກະ ຊິ ເປັນ ຫຍັງ
[423.955]
<no-speech>
[430.075]
ຊິ ອະທິບາຍ ເຂົາເຈົ້າ ໂທ ມາ ຫາ ເພິ່ນ ຫຼື ເຂົາເຈົ້າ ມາ ຫາ ເພິ່ນ ຢູ່ ບ້ານ
[433.575]
<no-speech>
[437.745]
ຫຶ <prompt>
[438.255]
<no-speech>
[440.165]
ເຂົາເຈົ້າ ມາ ຫາ ເພິ່ນ ຢູ່ ບ້ານ
[441.465]
<no-speech>
[443.265]
ແມ່ນ ຫວະ
[444.005]
<no-speech>
[444.925]
ຫຼາຍ ຄົນ ນະ
[445.795]
<no-speech>
[447.195]
ເອີ ເອີ ກະ
[448.815]
<no-speech>
[449.965]
ຫວະ ປົກ <hes> ປົກກະຕິ ນີ້ ຄັນ ສົມ <hes> ສົມມຸດວ່າ ເຈົ້າ ລົມ ກັບ ຂ້ອຍ ນີ້ ເຈົ້າ ໄດ້ ເງິນ ລະ ເຈົ້າ ເຈົ້າ ຫວາ ເປັນ ຄົນ ໄດ້ ເງິນ ໂທ ຟຣີ ຫຼືວ່າ ຂ້ອຍ ນຳ ຫຼືວ່າ ໄດ້ ທັງສອງ ຄົນ
[458.425]
<no-speech>
[463.135]
ເອີ ດຽວນີ້ ເຂົາເຈົ້າ ໃຫ້ ເຮົາ ໂທ ຫາ ກັນ ຟີ ແລະ ເຮົາ ບໍ່ ໄດ້ ໄດ໋ ຫຍັງ ເລີຍ ລະ
[466.645]
<no-speech>
[468.335]
<hes> ສົມມຸດວ່າ ຄໍ ຂ້ອຍ ແຫ້ງ ຂ້ອຍ ຢາກ ສົມມຸດວ່າ ຄໍ ຫັ້ນ ແຫຼະ ສົມມຸດວ່າ ຄໍ ຂ້ອຍ ແຫ້ງ ຂ້ອຍ ຢາກ ນ້ຳ ເດ ຊັ້ນ ຕ້ອງ ມີ ເງິນ ໄປ ຊື້ ນ້ຳ ສີ່ພັນ ນີ້ ຂ້ອຍ ຊິ ເອົາ ຢູ່ ໃສ
[476.435]
<no-speech>
[480.235]
ຮວ້າຍ ເຈົ້າ ຕ້ອງ ຄິດ ຫາ ແນວ ນີ້ ວາງແຜນ ໃນ ຫົວ ເຈົ້າ ຕ້ອງ ມີ ທຸລະກິດ ຢູ່ ໃນ ຫົວ
[485.995]
<no-speech>
[489.355]
ແມ່ນ ຫວາ
[490.075]
<no-speech>
[491.765]
ໂອ້ ສະແດງ ວ່າ ເຈົ້າ ນີ້ ມີ ມູນ ມີ ການ ໄດ້ ເງິນ ແມ່ນ ບໍ່ ນີ້
[495.885]
<no-speech>
[498.915]
ຂ້ອຍ ບໍ່ ມັກ ໄດ້ ປານ ນັ້ນ ຂ້ອຍ ຮູ້ ຂ້ອຍ ເລີ່ມ ຂ້ອຍ ເລີ່ມ ຄິດອອກ ແລ້ວ ວ່າ ເຈົ້າ ວາງແຜນ ອີ່ຫຍັງ ຢູ່ ດຽວນີ້ ນ່າ
[504.975]
<no-speech>
[508.095]
ຈັກ ແຫຼະ ຈັ່ງໃດ ເຈົ້າ ຮຽນ ຈົບ ລະ ຊິ ໄປ ຮຽນ ຫຍັງ ຕໍ່ ເຮັດ ວຽກ ຢູ່ ໃສ
[513.395]
<no-speech>
[515.125]
ວາງແຜນ ໄວ້ ລະ ຫວາ
[516.185]
<no-speech>
[519.145]
ກະ ວາງແຜນ ໄວ້ ນະ ແມ ຈັກ ປີ ໜຶ່ງ ສອງ ປີ
[522.065]
<no-speech>
[524.475]
ອີ່ຫຍັງ <prompt>
[524.975]
<no-speech>
[532.765]
ອ້າວ ຂ້ອຍ ກະດາຍ ໄດ້ ເງິນ ເດືອນ ເດືອນ ນີ້ ຂ້ອຍ ກະ ເລີ່ມ ຊິ ໄປ ຮຽນ ຂ້ອຍ ກະ ແປງ ລົດ ມາ ແລ້ວ ຂ້ອຍ ກະ ເລີ່ມ ຊິ ຮຽນ ກະ ເລີ່ມ ຮຽນ ພາສາ ອັງກິດ ກ່ອນ ຕໍ່ມາ <hes> ຮາ
[543.505]
<no-speech>
[544.835]
ແປງ ລົດ ເພິ່ນ ຫວາ
[545.785]
<no-speech>
[548.205]
ເອີ ເອີ້ ເຂົາ ກະ
[550.825]
<no-speech>
[552.925]
ເງິນ ກະ ຍັງ ໄດ້ ໜ້ອຍດຽວ ໜຶ່ງ ດອກ ເຂົາ ກະ ຮຽນ ມໍ່ ປ້າຍ ເນາະ ກະ ຫາ ເງິນ ຍັງ ບໍ່ ໄດ້ ຫຼາຍ ເທື່ອ
[558.915]
<no-speech>
[560.885]
(()) ເວົ້າ (())
[563.005]
<no-speech>
[564.295]
ບໍ່ ມີ ເງິນ
[565.705]
<no-speech>
[567.175]
ແມ ເງິນ ເດືອນ ກະ ເດືອນ ລະ ລ້ານ ປ້າຍ ມັນ ຊິ ເອົາ ເງິນ ມາ ແຕ່ ໃສ ເກາະ ມາ ໃຫ້ ເຈົ້າ
[570.725]
<no-speech>
[577.535]
ເອົາ ແນວ ຂ້ອຍ ຊິ ໄດ້ ຂີ່ ເນາະ ຂ້ອຍ ກະ ແປງ ເນາະ ແນວ ຂ້ອຍ ຊິ ໄດ້ ໄປ ຮຽນ ພາສາ ຂ້ອຍ ໄດ້ ພາສາ ອັງກິດ ມາ ຂ້ອຍ ກະ
[582.945]
<no-speech>
[585.955]
ຂ້ອຍ ນີ້ ນ່າ ຂ້ອຍ ໄດ້
[587.575]
<no-speech>
[588.495]
ກະ ໄດ້ ຂີ່ ແຕ່ ດຽວນີ້ ກະ ຄືຊິ ບໍ່ ໄດ້ ຂີ່ ລະ ແຫຼະ ຕໍ່ໄປ ກະ ຊິ ບໍ່ ໄດ້ ຂີ່ ຕໍ່ໄປ
[593.235]
<no-speech>
[598.385]
ອ້າວ <cough>
[600.185]
<no-speech>
[600.200]
