[0.000]
<no-speech>
[0.655]
<int> ອາໂຫຼ ມີ ຫຍັງ
[5.985]
<no-speech>
[7.755]
ມາ ກໍ້ ມາ ວຽກ ອີກ ແຫຼະ
[9.935]
<no-speech>
[11.315]
ເອີ
[12.095]
<no-speech>
[14.465]
ເປັນ ຫຍັງ <sta>
[16.465]
<no-speech>
[17.485]
ວັນ ທິດ ເດີ ພັກ <no-speech> ເປັນ ຫຍັງ
[21.305]
<no-speech>
[27.925]
ອື <breath> <int> ເຮັດ ຫຍັງ ຢູ່ ໃສ
[32.575]
<no-speech>
[34.895]
ເຮັດ ຫຍັງ ຢູ່ ຫັ້ນ <int> ໂອ້ ວັນ ທິດ ຂ້ອຍ ພັກ ວ່າ ຊິ ອອກ ໄປ ກິນ ເບຍ ນຳ ບັກ ເບ່ວ <no-speech> ອ່າວ ວັນ ທິດ ເພິ່ນ ພັກ ເດ <no-speech>
[45.735]
<no-speech>
[46.615]
ເອີ <int> <no-speech> ວັນ ທິດ ມື້ ນີ້ ກະ ວັນ ພະຫັດ ທີ ສີ່ ທີ ຫ້າ ທີ ຫົກ ທີ ເຈັດ
[58.475]
<no-speech>
[59.355]
<no-speech>
[60.215]
ອື
[60.815]
<no-speech>
[61.695]
<no-speech>
[62.335]
<no-speech>
[63.775]
ສັ້ນ ກໍ່ ໄປ ວຽກ ແຫຼະ ເຂົາ ຊິ ກິນລ້ຽງ ຢູ່ ບໍລິສັດ ລະ ເດ <int>
[67.695]
<no-speech>
[70.785]
<int> ຫວາ <no-speech> ເປັນ ຕອນ ແລງ
[74.985]
<no-speech>
[77.315]
ແລ້ວ ກໍ ພັກ ຫວາ
[78.325]
<no-speech>
[79.635]
<no-speech>
[80.095]
<no-speech>
[80.935]
<int> ຫວາ
[83.115]
<no-speech>
[84.165]
ຜູ້ສາວ ງາມ ມາ ຫຼາຍ ບໍ່ <sta>
[86.455]
<no-speech>
[89.015]
<int> ພະນັກງານ ບໍ່ <no-speech> ມີ ຄົນ ງາມ ບໍ່ ຢູ່ ຫັ້ນ ຄ່າ ໂຕ ເທົ່າໃດ
[96.185]
<no-speech>
[97.315]
<lipsmack> ຄ່າ ໂຕ ມີ ແພງ ບໍ່
[99.635]
<no-speech>
[102.495]
<int> ມີ ຄົນ ງາມ ຢູ່ ຫວາ ເອາະ ເອາະ <no-speech> ສິບ ເຈັດສິບ ແປດ ມີ ຢູ່ ຫວາ
[108.495]
<no-speech>
[112.085]
<no-speech>
[112.445]
<no-speech>
[114.775]
ຫາ ມາ ໃຫ້ລູກ ພີ້ ກູ ນີ້ ນະ <int>
[117.065]
<no-speech>
[118.955]
ສາວ ບຸນ ນີ້ <int>
[121.665]
<no-speech>
[122.645]
<no-speech>
[123.045]
<no-speech>
[124.185]
<int> ຫວາ
[124.905]
<no-speech>
[128.325]
ຫວາ
[128.885]
<no-speech>
[135.275]
ອື <int>
[136.275]
<no-speech>
[137.335]
<breath> <int> (())
[141.155]
<no-speech>
[143.135]
<sta> ໂອ້ ແປດແສນ ແພງ ເຕີບ <no-speech> ມຶງ ຢູ່ ບ້ານ (()) ຫວາ ຫັ້ນ
[154.955]
<no-speech>
[157.035]
ລະ ເປັນ ຫຍັງ <sta> <no-speech> ເຮັດ ອີ່ຫຍັງ
[164.125]
<no-speech>
[166.035]
<sta> ອື <sta>
[169.785]
<no-speech>
[171.835]
<sta> ມື້ແລງ ຮະ ມື້ແລງ ໄປ ວຽກ ຫວາ ມື້ແລງ
[176.445]
<no-speech>
[177.825]
ໂອ້ ຄັນ ບໍ່ ໄປ ຊິ ຊວນ ໄປ ເຕະ ບານ ຊັ້ນ ດອກ
[179.645]
<no-speech>
[181.465]
ເຕະ ເດີ່ນ ໂອ ທູ ເດີນ ດອນກອຍ ເຕະ ກັບ ຕຳຫຼວດ
[184.195]
<no-speech>
[189.205]
ບໍ່ ເດີ່ນ ໂອ ທູ ໃດ ເດີ່ນ ຄັກ ໃດ ເດີ່ນ ຂອງ ເຂົາ ເດີນ ໂອ ທູ ຢູ່ ໜ້າ ໂຮງແຮມ ຈຳປາ ຫັ້ນ ນະ <no-speech>
[197.565]
<no-speech>
[198.455]
ເລີກ ວຽກ ແລ້ວກະ ໄປ ເຕະ ບານ <int>
[201.655]
<no-speech>
[202.875]
<sta> ອ້າວ ບໍ່ ໄດ້ ໄປ ຫາ ບັນດິດ ຫວາ ຊັ້ນ ເຕະ ກັບ ພວກ ຕຳຫຼວດ ໝວດ ພາສີ ຕຳຫຼວດ ຢູ່ ນີ້ ນະ
[209.535]
<no-speech>
[211.195]
<no-speech>
[212.135]
<no-speech>
[212.965]
<sta> ຮະ <no-speech> ເອີ <no-speech> ມື້ ນັ້ນ ກູ ໄປ ຕີ ບຸນ ຮະ
[222.395]
<no-speech>
[224.255]
<sta> ເອົ້າ ກູ ໄປ ມື້ ນັ້ນ ກູ ໄປ ຕີ ມື້ ນັ້ນ ເດ ພົບ ກັບ ບັກ ຂາວ ບັກ ຂາວ ກັບ ປາ ບຸນ ທຳອິດ ບັກ ຂາວ ກັບ ບັກ ນັນ ກູ ໄວ ບໍ່ (())
[234.795]
<sta> ບັກ ໄຄ ທອງ ບໍ່ ແມ່ນ ອ້າຍ ທອງ ອ້າຍ ອ້າຍ ໂຍ ຫັ້ນ ໄດ໋ <no-speech> ເອີ ເອີ ທອງ ແວ່ນ ຕີ ສາມ ຖືກ ສາມ ຈອດ ອີກ ບັກ ຂາວ ໂອ້ ແໝ້ນ ແທ້ ບັກ ນັນ ເປີດ
[246.705]
<no-speech>
[246.855]
<no-speech>
[247.665]
<sta> ມັນ ເປີດ ປະ ພັດ ເຖົ້າ ຕາ ບຸນ ຕາ ບຸນ ເຂົ້າ ມາ <no-speech> ຕາ ບຸນ ເຂົ້າ ມາ ສະເໝີ ກັນ <no-speech> ເສຍ ເກມ ໜຶ່ງ ເຂົາ
[257.545]
<sta> ກູ ເມື່ອຍ ຕີ ແປດ ເກົ້າ ເກມ ລະ <no-speech>
[261.955]
<no-speech>
[263.085]
ເກມ ຊາວພັນ ກູ ບອກ ຫຼິ້ນ ສອງ ຄົນ ຫ້າສິບພັນ ເຂົາ ບໍ່ ຫຼິ້ນ <sta>
[267.945]
<no-speech>
[271.235]
<sta> ບໍ່ ໄລຍະ ຫົກ ແມັດ ຫົກ ແມັດ ຫົກ ແມັດ ຫົກ ແມັດ ເຈັດ ແມັດ ໃຫ້ ມັນ ຕີ ອັນ ຖືກ ກະລ້າ ບໍ່ ຈອດ ຈອດ ກະ ຈອດ ຖ້ອຍຫຼັງ ມາ <sta> ບໍ່ ຢ້ານ ແນວ ນັ້ນ ນະ ອີ່ ຕາ ເທບ ເດ້
[282.355]
ຕູ້ ເທບ ນະ ເຫັນ ບໍ່ ຕູ້ ເອບ ຫັ້ນ ນະ ວົງ ນອກ <sta> ວົງ ນອກ ທີມ ຂາວ ຮວ້າຍ ກູກະຫຼິ້ນ ໂລດ ແລ້ວ ໂວຍ ຊິ ໄປ ຢ້ານ
[291.255]
<no-speech>
[292.935]
<sta> ໂອ້ຍ ບັກ ນັນ ເຫັນ ກູ ເຂົ້າ ໄປ ຕີ ກິນ ສອງ ເກມ ເປີດ ອາດຫຼາດ ເປີດ ປະ ກູ ແລ້ວ ຕາ ບຸນ ເຂົ້າ ມາ ຕາ ບຸນ ເຂົ້າ ມາ ທຳອິດ ເກມ ແລກ ກູ ກິນ
[304.005]
ເກມ ສອງ ຈຸ ກູ ກິນ ເກມ ທີ່ ສາມ ເຂົາ ມາ ໄດ້ ສີ່ ແຕ້ມ ສາມ ເທື່ອ ກູ ຕີ ໝູ ຈີນ ສາມ ເທື່ອ ກິນ ບໍ່ ໄດ້ ມຶງ ນະ ຈຸ ກູ ນຳ ເຂົາ ມາ ສາມ ສີ ຄັນ ໄດ້ ຄັນ ອ້າຍມອງ ເຂົ້າ ບີບ ລູກ ນັ້ນ ໄດ້ ແມ່ນ ຈຸ ກູ ກິນ
[315.575]
<sta> ເຂົາ ຊິ ເຊົາ ປະ ລະ ນະ
[320.305]
<no-speech>
[322.925]
<no-speech>
[324.595]
<no-speech>
[329.675]
<no-speech>
[330.025]
<no-speech>
[332.105]
<no-speech>
[332.585]
<no-speech>
[338.325]
<sta> ເອີ
[340.395]
<no-speech>
[342.795]
<no-speech>
[343.595]
<no-speech>
[347.075]
<no-speech>
[348.565]
<no-speech>
[349.965]
<sta> ອື
[350.705]
<no-speech>
[351.515]
<no-speech>
[351.885]
<no-speech>
[354.135]
<sta> ເດີ່ນ ນັ້ນ ເຂົາ ເຮັດ ເຂົາ ມຸ່ງ ໃສ່ ແລ້ວ ຕວ່າ ເຂົາ ມຸ່ງ ຕູບ ມຸ່ງ ຕູບ ໃສ່ ແລ້ວ ຕວ່າ ເດີ່ນ ຮ່ອມ ແກ້ວ ຫັ້ນ ນະ ເດີ່ນ ປາກ ຮ່ອງ ຫັ້ນ ນະ
[365.885]
ຟາກ ເດີ່ນ (())
[368.515]
<no-speech>
[370.835]
ມື້ ນັ້ນ ກູ ໄປ ກັບ ບັກ ນຳ ໄດ້ ເງິນ ກັບ ບັກ ນຳ ຄົນລະ ສອງແສນ
[373.635]
<no-speech>
[374.555]
ຕີ ຄົນລະ ຫ້າສິບ <sta> <no-speech> ອື
[377.265]
<no-speech>
[378.065]
<sta> ເອີ
[378.835]
<no-speech>
[380.965]
ໂອ້ຍ ບາງ ລູກ ເຫຼີ ກະ ເຫຼີ ກູ ໃຫ້ ມັນ ສອງ ຕີ ໜຶ່ງ ທຸກ ຕາ ທຸກ ຕາ ບັກ ນຳ ເຫຼີ <sta> <no-speech> ໄດ້ ເງິນ ຄົນ ສອງແສນ ລະ ກູ ກະ ເຊົາ ກັບ ບັກ ນຳ ຄົນລະ ສອງແສນ
[392.465]
<no-speech>
[393.385]
ຕີ ຕໍ່ໄປ ກູ ກະ ໄດ້ ເງິນ ລະ ກູ ຫາກ ເມື່ອຍ ນະ ຄ້ານ ຫຼິ້ນ
[397.105]
<no-speech>
[398.145]
<sta> ໂອ້ຍ ກະ ຕີ ນຳ ເຂົາ ໝວດ ເຂົາ ຢູ່ ຫັ້ນ ແລ້ວ ບັກ ເອັນ ກະ (()) ກູ ຊິ ປາດ ຄໍ ເພິ່ນ ຢູ່ ນີ້ ນະ ມື້ ນັ້ນ ເພິ່ນ ໄປ ຕີ ຢູ່ ເດີ່ນ ປ່າພ້າວ ເສຍ ເງິນ ສາມ ສີ່ແສນ
[409.895]
<no-speech>
[411.715]
<sta> ອ່າວ ປ່າພ້າວ ຢູ່ ຫັ້ນ ເດ ຢູ່ (()) ຢູ່ ສີໃຄ ຫັ້ນ ເດ
[417.055]
<no-speech>
[418.985]
ໂອ້ ເຂົາ ຕີ ຢູ່ ຫັ້ນ ບັກ ຫຼາຍ ຫຼາຍ
[420.375]
<no-speech>
[422.435]
<sta> ເອີ
[423.245]
<no-speech>
[425.675]
ຮະ
[426.955]
<no-speech>
[432.835]
<sta> ບໍ່ ແມ່ນ ຢູ່ ຟາກ ທົ່ງ ຫັ້ນ ນະ ຟາກ ເດີ່ນບິນ ພີ້ ນະ ເອີ ເຮືອນ ອ້າຍ ປຸ້ຍ ສັງວຽນ ໄກ່ ຫັ້ນ ນະ
[438.555]
<no-speech>
[439.365]
ເຂົາ ຕີ ເຂົາ ຍັງ ຕີ ຫຼາຍ ເດ ຊັ້ນ ນະ <no-speech> <sta> ບັກ ເອັນ ໄປ ຕີ ຢູ່ ຫັ້ນ ຕະຫຼອດ
[443.545]
<no-speech>
[445.185]
ເອີ ບັກ ເອັນ ໄປ ກິນ ເງິນ ບັກ ໂລ້ ພະຍາ ນາກ ບັກ ເຈ້ຍ ບັກ ຫຍັງ ຕະຫຼອດ
[449.045]
<no-speech>
[451.135]
ຢູ່ ບັກ ເຈ້ຍ ຢູ່ ຫັ້ນ ຕະຫຼອດ ມັນ ໄປ ຫັ້ນ ຕະຫຼອດ <sta>
[454.375]
<no-speech>
[455.775]
ບໍ່ ເຂົາ ບໍ່ ໄປ ແລ້ວ (()) ເຂົາ ມາ ແຕ່ ຫັ້ນ ແລ້ວ
[458.025]
<no-speech>
[460.485]
<sta> ເອີ ເຂົາ ກະ ມາ ບາງ ເທື່ອ (())
[462.735]
<no-speech>
[463.975]
ໄປ ເຂົາ ກະ ຢູ່ ເດີ່ນ ພຸ້ນ ລະ
[465.525]
<no-speech>
[470.395]
<sta> ອື
[472.485]
<no-speech>
[473.475]
ບໍ່ ໄດ້ ເດີນ ພັນ ໃດ ຢູ່ ພຸ້ນ ນ່າ
[474.815]
<no-speech>
[477.885]
ເອີ ເດີ່ນ ດຽວ ເດີ່ນ ໜ້າ ບ້ານ ອ້າຍ ບຸ້ຍ ຫັ້ນ ລະ ໜ້າ ບ້ານ ອ້າຍ ບຸ້ຍ ເຂົາ ເຮັດ ເປັນ ອັນ ໂຕະ ສະ ນຸກ ເກິ ແລ້ວ
[483.865]
<no-speech>
[484.775]
<no-speech>
[485.125]
<no-speech>
[486.525]
ເອີ
[487.235]
<no-speech>
[492.345]
<sta> ໝົດ ແລ້ວ
[494.105]
<no-speech>
[496.275]
ພຸ້ນ ແລ້ວ ພັກ ວັນ ທິດ ພຸ້ນ ແລ້ວ ບັກ ເດ່ວ ກະ ພັກ ວັນ ທິດ
[498.255]
<no-speech>
[499.915]
ມື້ອື່ນ ກິນ ເບຍ
[500.945]
<no-speech>
[501.905]
<no-speech>
[503.095]
<no-speech>
[504.405]
ອື
[505.015]
<no-speech>
[507.355]
<no-speech>
[507.885]
<no-speech>
[511.375]
<no-speech>
[511.735]
<no-speech>
[513.255]
ເອີ (())
[514.205]
<no-speech>
[515.285]
ໂອ້ຍ ບັກ ເປິ້ນ ວ່າ ມັນ ຊິ ຕາຍ ລະ ຂາ ບວມ
[518.095]
<no-speech>
[520.575]
<sta> ເອີ <sta>
[523.735]
<no-speech>
[526.035]
<int> ອ້າຍ ມັນ ບໍ່ ເຫັນ ຫວາ ອ້າຍ ມັນ ລົງ ໄປ ເໜືອ ໄປ ໃຕ້ ຕະຫຼອດ ອ້າຍ ມັນ ບໍ່ ຢູ່ <int>
[530.815]
<no-speech>
[534.845]
ແມ່ນ ຕິ
[535.565]
<no-speech>
[537.375]
ອື
[537.925]
<no-speech>
[539.615]
ອື
[540.395]
<no-speech>
[543.515]
<sta> ອື
[546.715]
<no-speech>
[548.585]
<int> ອື
[550.555]
<no-speech>
[552.745]
<no-speech>
[553.215]
<no-speech>
[554.405]
<no-speech>
[554.955]
<no-speech>
[557.775]
<no-speech>
[558.135]
<no-speech>
[560.755]
<sta> ກູ ໄປ ຫັ້ນ ເລີກ ວຽກ ມີ ແຕ່ ກູ ພັກ ວັນ ທິດ ກູ ຄ່ອຍ ໄປ ເລາະ ເຕະ ບານ ໄປ ເຮັດ ຫຍັງ
[565.445]
<no-speech>
[566.465]
<no-speech>
[567.485]
<no-speech>
[568.755]
<sta> ເມື່ອຍ
[573.165]
<no-speech>
[574.185]
<no-speech>
[575.915]
<no-speech>
[576.825]
<sta> ເອີ ໄປ ເລາະ ຫຼິ້ນ ເຕະ ບອກ ເຕະ ບານ ແລ້ວ ອອກກຳລັງກາຍ ຮວ້າຍ ກູ ກະ ຈີນ ວຽກ ແຫຼະ ຮະ <no-speech> ການບິນລາວ ພໍ່ ກູ ຫັ້ນ ເດ
[588.785]
(()) <int>
[591.135]
<no-speech>
[592.365]
ເອີ ກະ ຄ່ອຍ ມີ ເວລາ ພັກ ແດ່ ຢູ່ ນີ້ ບໍ່ ມີ ເວລາ ເວີຍ <sta> ເອີ ຢູ່ ພຸ້ນ ເອີ
[600.085]
<no-speech>
[600.240]
