[0.000]
<no-speech>
[3.445]
ຮາໂຫຼ <int> ນ້ອຍ ໄດ້ ຍິນ ຢູ່ ຫວາ <no-speech> <hes> ລູກ <hes> <no-speech> ບັກ ກັອບ ໄປ ໂຮງຮຽນ ບໍ ລູກ
[11.375]
<no-speech>
[13.205]
ຮາ
[13.815]
<no-speech>
[14.885]
<no-speech> <hes> <no-speech> <hes> ອີ່ແມ່ ຢູ່ ຫ້ອງການ <hes> ຫົວ ເລກ ຫັ້ນ ເຂົາ ມາ ເອົາ ໝົດ ແລ້ວ ຫວາ <no-speech> <no-speech> ນ້ອຍ
[26.475]
<no-speech> ຍັງ ຈັກ ຫົວ ຢູ່ ຫັ້ນ ນ່າ <no-speech> ຍັງ ຜູ້ໜຶ່ງ <no-speech> ແມ່ນ ໃຜ
[31.565]
<no-speech>
[32.735]
<prompt> ໂອ ເອີ້ ອີ່ ຕ່ອມ <no-speech> ອີ່ ຕ່ອມ ຫັ້ນ ເດ ອີ່ ຕ່ອມ <hes> ມັນ ເລີກ ໂຮງຮຽນ ມັນ ພຸ້ນ ນ່າ ອັນ ນັ້ນ ນ້ອຍ <hes> ພວກ <hes>
[43.785]
ເອີ້ ກິນ ແລ້ວ ກິນ ແລ້ວ ໄປ ກິນ ນຳ ອີ່ພໍ່ ມາ <no-speech>
[48.505]
<no-speech>
[49.345]
<hes> ແລ້ວ ລູກ <hes> ນັ້ນ ຫວາ ພວກ <hes> <no-speech> ເລກ ວິ່ງ ຫັ້ນ ນ່າ ເຂົາເຈົ້າ ບໍ່ ມາ ຫາ ອີ່ແມ່ ຫວາ
[57.025]
<no-speech>
[58.035]
<prompt> ທຳມະດາ <hes> ເຂົາ ເອົາ ໃບຢັ້ງຢືນ ທີ່ ຢູ່ ຂອງ ອີ່ແມ່ ໄປ ມື້ ນີ້ ຫັ້ນ ນ່າ ເຂົາ ວ່າ ມື້ ນີ້ ເຂົາ ຊິ ຈີນ ເປັນທາງການ <hes> ພວກ ເລກ ວິ່ງ ຫັ້ນ ເດ
[69.425]
ພວກ ຫວຍ ອ່ອນ ໄລ ຫັ້ນ ນ່າ
[71.205]
<no-speech>
[72.425]
ເອີ້ ເຂົາ ເອົາມາ ໃຫ້ ຂາຍ ນາ ເພິ່ນ ວ່າ ວັນທີ ຊາວ ຫົກ ເດ <no-speech> ບໍ່ ເຫັນ ໃຜ ມາ ແມ່ນ ບໍ
[76.925]
<no-speech>
[78.715]
(())
[79.335]
<no-speech>
[80.325]
ເຂົາ ວ່າ ເຂົາ ຊິ ມາ ຕັ້ງ ໂຕະ ໃຫ້ ເຮົາ ເດ <no-speech> <int> ເອີ້ ໄປ ເຊັນ ແລ້ວ <no-speech> ໄປ ເຊັນ ແລ້ວ <hes> ລາວ ມາ ເອົາ ຂອງ ອີ່ແມ່ ມື້ວານ ນີ້ ເດ
[90.655]
ເອົາ ໃບຢັ້ງຢືນ ທີ່ ຢູ່ ກັບ <hes> ໃບຮັບ ປະກັນ ໃບ ຫຍັງ ລະ <no-speech> ລາວ ວ່າ ລາວ ຊິ ໄປ ເຊັນ ບ້ານ ເອງ ເດ ກັບ ແມ່ ອັດ ສຳມະໂນ ໃຫ້ ແລ້ວ
[99.205]
<no-speech>
[105.995]
ເອີ້ ກະ ແມ່ນ ຫັ້ນ ແຫຼະ ເພິ່ນ ວ່າ ເພິ່ນ ຊິ ມາ ຕັ້ງ ໂຕະ ໃຫ້ ແລ້ວກະ ອັນ ຕິດ ອັນ ໃສ່ ພ້ອມ ວ່າ ຂາຍ ເລກ ເດັ່ນ ຫັ້ນ ນ່າ
[114.805]
<no-speech>
[116.035]
<no-speech>
[116.905]
<no-speech>
[118.625]
ບໍ່ ໄດ້ ໂທ ແຫຼະ ແມ່ ກໍ່ ໃຫ້ ເບີ ໂທ ຢູ່ ຫັ້ນ ແຫຼະ ທັງ ໃບຮັບ ປະກັນ ທັງ ໃບ <hes> ນັ້ນ ຫັ້ນ ນ່າ ຢູ່ ຫັ້ນ ແຫຼະ
[124.305]
<no-speech>
[125.435]
ແດງ ມາ ກິນ ເຂົ້າ ເຮືອນ ຫວາ
[127.285]
<no-speech>
[128.975]
<no-speech>
[129.635]
<no-speech>
[131.315]
ແມ່ນ ແຫຼະ ແມ່ນ ແຫຼະ ແມ່ນ ແຫຼະ <no-speech> ເຂົາ ມາ ຕິດຕັ້ງ ໃຫ້ ເຮົາ ພ້ອມ <no-speech> ເພິ່ນ- ລາວ ວ່າ ຊິ ເອົາລົງ ຫ້າ ໜ່ວຍ ເດ <sta>
[139.685]
<no-speech>
[141.185]
<hes> ຢູ່ ບ່ອນ ເຮົາ ສອງ ໜ່ວຍ ແລ້ວ ຢູ່ ສວນ ຫັ້ນ ໜຶ່ງ ໜ່ວຍ ແລະ <hes> ຢູ່ ໜອງ ສັ່ງ ທໍ່ ຫັ້ນ ອີກ
[146.605]
<no-speech>
[147.755]
<no-speech> ແມ່ນ ແຫຼະ <no-speech> ເຂົາເຈົ້າ ນັດ ອີ່ແມ່ ມື້ ນີ້ ເດ ຫັ້ນ ບໍ່ ເຫັນ ແລ້ວກໍ່ ຢ່າ ແລ້ວກໍ່ ຊິ ແມ່ນ ງວດ ໜ້າ ພຸ້ນ
[159.605]
(()) ແດງ ມາ ແຕ່ ມາ ເຮືອນ ຫວາ <breath> <no-speech> ລາວ ໄປ ການ ລະ ລາວ ໄປ ການ ລະ <breath> ເອີ
[171.045]
ເອີ ພວກລູກ ກິນ ເຂົ້າ ກັບ ຫຍັງ ຢູ່ ເຮືອນ ນາ
[173.105]
<no-speech>
[174.095]
<no-speech>
[175.285]
<no-speech>
[176.295]
<no-speech>
[177.025]
<no-speech>
[179.065]
ຫວາ ເອີ <laugh> ດີ ເນາະ <no-speech> ຫວາ
[185.085]
<no-speech>
[186.015]
ເລກ ອີ່ຫຍັງ <hes> ເຂົາເຈົ້າ ຊື້ ເລກ ຫຍັງ ຫຼາຍ ມື້ ນີ້
[188.725]
<no-speech>
[193.985]
ບໍ່ ໄດ້ ຂາຍ ຫວາ
[195.035]
<no-speech>
[196.555]
ຫວາ
[197.215]
<no-speech>
[198.835]
ໂອ <no-speech> ບັນຫາ <hes> ເຂົາເຈົ້າ ເອົາມາ ຂາຍ ແຫຼະ
[203.565]
<no-speech>
[207.345]
ສາວ ແອ ໃດ
[208.365]
<no-speech>
[214.365]
ເອີ ເອີ ລາວ ບໍ່ ໄດ້ ໄປ ໂຮງຮຽນ ຫວາ
[217.115]
<no-speech>
[219.495]
<no-speech>
[220.275]
<no-speech>
[226.595]
ຫວາ <laugh>
[227.425]
<no-speech>
[230.345]
ຫວາ <no-speech> ສາວ ນ້ອຍ ເດ ຊັ້ນ ນ່າ
[232.405]
<no-speech>
[239.635]
ເອີ້
[240.915]
<no-speech>
[243.235]
ເອີ້
[244.145]
<no-speech>
[245.665]
ເອີ້ ມື້ອື່ນ
[246.555]
<no-speech>
[247.985]
ໂອ ມື້ອື່ນ ກະ ມາ ລະ
[249.975]
<no-speech>
[252.945]
ເອີ້ ໂອ້ຍ
[254.115]
<no-speech>
[257.945]
ແມ່ນ ແຫຼະ <no-speech> ມັນ ມີ ຊາວ ຫົກ ຫ້າ ກັບ ຊາວ ຫົກ ສອງ <no-speech> ຊາວ ຫົກ <hes>
[264.525]
<no-speech>
[265.685]
ຊາວ ຫົກສິບ ຫັ້ນ ແດງ ເອົາໄປ ບໍ
[267.775]
<no-speech>
[273.785]
ລູກ ຂາ- ລູກ ຂາຍ ສິບ ກັບ ສາມ
[275.635]
<no-speech>
[277.905]
ເອີ້ ຊາວ ຫົກ ສອງ ແດງ ເອົາໄປ
[279.865]
<no-speech>
[281.205]
<no-speech>
[281.595]
<no-speech>
[288.465]
ແມ່ ແຫຼະ ມັນ ບໍ່ ມາ ເອົາ ຕິ ອີ່ ຮ້ານ ເສີມສວຍ
[290.905]
<no-speech>
[293.015]
ແມ່ນແລ້ວ
[293.695]
<no-speech>
[295.065]
ແມ່ນແລ້ວ
[295.795]
<no-speech>
[300.155]
ມັນ ບໍ່ ຂາຍ ຕິ ຄັນ ມັນ ບໍ່ ມາ ເອົາ ລະ
[302.185]
<no-speech>
[303.295]
ງວດ ແລ້ວ ມັນ ກໍ່ ບໍ່ ໄດ້ ຂາຍ ເດ ມັນ ວ່າ ມັນ ຄາ ວຽກ <no-speech> ອືມ ອືມ ອືມ
[307.035]
<no-speech>
[309.425]
ບັກ <foreign> ບໍ່ ຄັດ ຕິ ໄປ <foreign> ຫັ້ນ <foreign>
[311.645]
<no-speech>
[317.775]
<no-speech>
[323.905]
ຫວາ
[324.575]
<no-speech>
[327.945]
<laugh> ກັອບ ຍ່າງ ໄປ ຊັ້ນ ຫວາ
[329.835]
<no-speech>
[331.945]
ຫວາ ຍ່າງ ໄປ ພາກັນ ຍ່າງ ໄປ
[334.045]
<no-speech>
[338.965]
ເອີ <laugh> ເອີ ເຂົາ ບັກ ດີ້ນ ບັກ ໂຕ່ຍ ເດ ຢູ່ ເຮືອນ ຫວາ
[342.985]
<no-speech>
[347.555]
<no-speech>
[348.205]
<no-speech>
[349.795]
ອາວ <foreign> ລາວ ບໍ່ ໄດ້ ເຮັດ ຢູ່ ຮ້ານ ຂອບຮູບ ຫັ້ນ ຫວາ
[353.035]
<no-speech>
[360.535]
ເອີ້ ທ້າວ ຫັດ ເຮັດ ຜູ້ດຽວ
[362.225]
<no-speech>
[365.655]
ເອີ້ ກະ ເຮັດ ຫັ້ນ ແລ້ວກະ ເຮັດ ວຽກ ຢູ່ ເນາະ ກະ ລົມ ກັບ ລູກ ນີ້ ເດ ຊັ້ນ <breath>
[370.615]
<no-speech>
[372.865]
ຈັກໜ້ອຍ ແມ່ ກໍ່ ມີ ວຽກ <hes>
[375.265]
<no-speech>
[377.345]
ມື້ສວາຍ ນີ້ ມີ ມື້ສວາຍ ນີ້ ອີ່ພໍ່ ໃຈດີ ເພິ່ນ ໂທ ຫາ ອີ່ແມ່ ວ່າ ຊິ ໄປ ລ້ຽງ ເຂົ້າ ກະ ເລີຍ ໄປ ກິນ ເຂົ້າ ນຳ ລາວ
[385.525]
<no-speech>
[387.725]
<no-speech>
[388.075]
<no-speech>
[389.995]
ລາວ ບໍ່ ໂອນ <laugh>
[391.425]
<no-speech>
[393.975]
ລາວ ຊິ ໂອນ ເງິນ ໃຫ້ ເຈົ້າ ຫັ້ນ ນ່າ
[396.445]
<no-speech>
[397.765]
ເງິນ ຢູ່ ໃນ ສັບ <hes> ເງິນ ຢູ່ ໃນ ໂທລະສັບ ຫັ້ນ ເດ <no-speech> ລາວ ມີ ເງິນ ລ້ານ ປາຍ ລາວ ວ່າ ຊິ ໂອນ ໃຫ້ ເຈົ້າ ນາ
[403.705]
<no-speech>
[404.985]
ລາວ ກະ <hes> ບອກ ບອກ ອີ່ແມ່ ຢູ່ ວ່າ <breath> ຄ່າ ໂທລະສັບ ເທົ່າໃດ ຂອງ ອີ່ແມ່ ອີ່ແມ່ ວ່າ ເດືອນ ນີ້ ຫ້າສິບ ຫ້າພັນ ເອີ້ ອີ່ພໍ່ ຊິ ຊຳລະ ໃຫ້ ວ່າ ຊັ້ນ <laugh> ຍັງ ບໍ່ ເຫັນ ລາວ ໂອນ ມາ ເທື່ອ <breath>
[416.775]
<no-speech>
[420.175]
ເອີ້ <laugh> ລາວ ສະສົມ ໄວ້ ເດ
[422.235]
<no-speech>
[428.805]
ລາວ ໃຫ້ ເທົ່າໃດ ຮາ
[430.015]
<no-speech>
[430.925]
ລາວ ໃຫ້ລູກ ເທົ່າໃດ
[432.235]
<no-speech>
[434.145]
ເອີ ເອີ້ ລາວ ຍັງ ຊິ ເອົາໃຫ້ <no-speech> ອີ່ແມ່ ຖາມ ວ່າ <hes> ເງິນ ໂທລະສັບ ເຈົ້າ ໄດ້ ເທົ່າໃດ ເດືອນ ນີ້ <no-speech> ຮວ້າຍ ກະ ແຮງ ໂທ ໄດ້ ລ້ານ ໄປ ພຸ້ນ <no-speech> ລາວ ວ່າ ແນວ ນີ້
[444.005]
<no-speech>
[446.385]
ເອີ້
[447.105]
<no-speech>
[448.715]
ບໍ່ ແມ່ນ ນາ ເຂົາ ອໍ- ໝົດ ເດືອນ ແລ້ວ ເຂົາ ໂອນ ໃຫ້ໝົດ ເດືອນ ແລ້ວ ເຂົາ ໂອນ ໃຫ້ ເດ
[452.625]
<no-speech>
[456.625]
<int> ເອີ້ ບໍ່ ຮູ້ ນຳ ລາວ ແຫຼະ
[460.165]
<no-speech>
[461.525]
<no-speech>
[462.075]
<no-speech>
[467.755]
<no-speech>
[468.105]
<no-speech>
[469.345]
ແມ່ ບໍ່ ໄດ້ ເອົາ ແຫຼະ ມີ ບັນຫາ ບໍ ກັອບ ໄວ້ ໃຫ້ ແດ່
[472.175]
<no-speech>
[478.355]
ຫັ້ນ ແຫຼະ
[479.405]
<no-speech>
[481.085]
<int> ຊື້ ຂ້ອຍ ຍັງ ຊິ ຊື້ ແຕ່ວ່າ ແມ່ ແມ່ ບໍ່ ໄດ້ ເອົາມາ ຂາຍ <no-speech> ແບບ ເພາະວ່າ ມີ ຜູ້ຂາຍ ຢູ່ ຫ້ອງການ ແລ້ວ
[488.015]
<no-speech>
[493.495]
ເອີ້ ເລີກເມືອ <no-speech> ເອີ້ ເລີກເມືອ ແມ່ ຊິ ຈົດ ໃຫ້ ດອກ <no-speech> ມີ ຢູ່ ຄົນ ຊື້ ຫັ້ນ ນ່າ
[500.355]
<no-speech>
[501.525]
<no-speech>
[502.345]
<no-speech>
[506.225]
ແມ່ນ ໃຜ ຢູ່ ນຳ ລູກ ດຽວນີ້ ຊັ້ນ
[507.915]
<no-speech>
[509.745]
ຮາ
[510.385]
<no-speech>
[512.985]
ສາ
[513.555]
<no-speech>
[516.195]
ອີ່ ຢອງ ເດ ເອົາ <no-speech> ເອົາໄປ ໝົດ <no-speech> ເອົາໄປ ແລ້ວ ຫວາ ຫົວ <hes> ຫົວຂວັນ ຂອງ ອີ່ ຢອງ ຫັ້ນ
[520.185]
<no-speech>
[524.095]
ອີ່ ຢອງ ຊາວ ຫົກ ຊາວ ຫົກ ທັບ ເກົ້າ ໃດ
[526.725]
<no-speech>
[529.775]
<no-speech>
[530.135]
<no-speech>
[532.215]
ແໜ ກວດ ເບິ່ງ ດີ ດີ ໃດ ຈັກໜ້ອຍ ມັນ <no-speech> ຫຼົງ ກໍ່ ມີ ໃດ
[535.935]
<no-speech>
[543.025]
ຮາ ອີ່ຫຍັງ ບໍ່ ເຫັນ
[544.265]
<no-speech>
[552.685]
ເອີ້ ເອີ້ ເອີ້ ເອີ້ ກວດກາ ເບິ່ງ ດີ ດີ ລະ
[557.155]
<no-speech>
[563.655]
ໄດ້ ຂາຍ <hes> ເລກ ອີ່ຫຍັງ ແດ່ ມື້ ນີ້ ຍັງ ບໍ່ ໄດ້ ຂາຍ ຈັກ ກີບ
[567.085]
<no-speech>
[571.415]
ເລ-
[571.905]
<no-speech>
[573.195]
ໂອ ເລກ ໝາ ກັບ ເລກ ມ້າ
[575.285]
<no-speech>
[576.145]
<no-speech>
[577.355]
<no-speech>
[578.465]
<no-speech> ຫວາ <no-speech> ຫວາ <laugh> <no-speech> ເພິ່ນ ຝັນ ອີ່ຫຍັງ ຫັ້ນ ນ່າ
[588.075]
<no-speech>
[588.885]
<no-speech>
[589.465]
<no-speech>
[590.715]
<no-speech>
[591.085]
<no-speech>
[591.945]
<no-speech>
[592.295]
<no-speech>
[593.195]
ເອີ
[594.265]
<no-speech>
[595.245]
<no-speech>
[595.755]
<no-speech>
[596.585]
<no-speech>
[597.765]
<no-speech>
[598.765]
<no-speech>
[599.415]
<no-speech>
[600.000]
