[0.0]
<no-speech>
[11.288333]
<no-speech>
[22.576667]
<no-speech>
[33.865]
<no-speech>
[41.175]
<no-speech>
[42.055]
<sta> gel yanıma
[42.655]
<no-speech>
[49.945]
alo
[50.635]
<no-speech>
[52.495]
alo
[53.995]
<no-speech>
[55.095]
alo
[55.775]
<no-speech>
[57.955]
alo sesimi duyuyor musun
[59.195]
<no-speech>
[60.775]
sesimi <click> duyuyor musun ya <int>
[62.735]
<no-speech>
[64.275]
<hes> efendim benim <click>
[65.325]
<no-speech>
[67.025]
evet <laugh> (())
[68.855]
<no-speech>
[69.765]
<laugh> vallahi <click> ne yapalım <no-speech> he uğraşıyorum işte çalışıyorum
[73.535]
<no-speech>
[75.805]
<sta> he nasıl gidiyor
[77.175]
<no-speech>
[78.755]
nasıl <click> gidiyor
[79.485]
<no-speech>
[81.585]
he
[82.135]
<no-speech>
[83.455]
<click> ne ettin lan kaç zamandır görüşemiyoruz ya
[85.785]
<no-speech>
[87.395]
he
[87.925]
<no-speech>
[94.845]
<breath> ya vallahi (()) Ali ya
[97.145]
<no-speech>
[98.595]
yedin
[99.185]
<no-speech>
[99.985]
<click> şey yaptım he bir tane hattımı hat- hattımı <int> hattımın sim kartı <click> şey oldu <hes> <no-speech> yani sim kartı bozuldu
[109.405]
<no-speech>
[110.375]
yani o <click> şey yeni geçici bir hat aldım ha- diğerini de halen yaptıramadım yani
[114.895]
<no-speech>
[116.875]
yaptırdığım gibi arayacağım seni
[118.545]
<no-speech>
[121.115]
ya <no-speech> bırak bırak kardeşim ne ettin <no-speech> Ankara Ankara ne durumda Ankara
[126.095]
<no-speech>
[127.755]
he
[129.284875]
<no-speech>
[131.085]
tam şimdi şeyde ya hareketli zamanları ulan geçen sene tam
[134.505]
<no-speech>
[135.775]
he
[136.315]
<no-speech>
[138.795]
efendim
[139.425]
<no-speech>
[140.635]
tam tam bu <click> zamanlarda oradaydık ya şim- <no-speech> he tam bu zamanlarda oradaydık (()) <no-speech> vallahi şimdi <no-speech> he şimdi çok güzeldir abi tam bir mayıs öncesi şeyde <hes> Sakarya'da hareketlidir değil mi
[155.035]
<no-speech>
[155.895]
<no-speech>
[156.505]
<no-speech>
[157.655]
<no-speech>
[158.465]
<no-speech>
[160.575]
<sta> neyi <no-speech> <laugh>
[164.575]
<no-speech>
[165.585]
<laugh> lan bu sene <no-speech> bu sene ne <click> olmuş orada
[168.795]
<no-speech>
[170.605]
ne <click> olmuş <click> orada bu sene <int>
[172.935]
<no-speech>
[174.175]
Allah Allah <no-speech> sen Türk İş'inkine gidiyormuşsun <no-speech> öyle dedin
[177.625]
<no-speech>
[180.235]
<sta> he
[181.325]
<no-speech>
[182.605]
vallahi Türk İş'inkine girdin diye duydum ben
[184.665]
<no-speech>
[185.965]
bu sene bu sene peki gene bir kortej <int> şeyi <click> yaşayacak mısınız <laugh> kortej bunalımı <laugh> <sta>
[193.425]
<no-speech>
[197.585]
<laugh> tabi tabi geçen sene de öyleydi <laugh>
[200.495]
<no-speech>
[201.965]
<laugh> <click> ne
[202.985]
<no-speech>
[207.735]
he <no-speech> eh başka ne ediyorsun çalışıyor musun (())
[210.315]
<no-speech>
[211.575]
(())
[212.865]
<no-speech>
[214.565]
Koçtaş'ta <int> <click> valla
[216.095]
<no-speech>
[217.955]
özel dersi ne ettin
[219.125]
<no-speech>
[220.935]
özel derse devam ediyor musun <no-speech> özel derse devam ediyor musun
[224.535]
<no-speech>
[227.675]
he <no-speech> uzun süredir gitmiyorsun <no-speech> niye lan
[231.035]
<no-speech>
[233.525]
niçin gitmiyorsun <click> diyorum ben de niye niye
[235.765]
<no-speech>
[238.205]
(())
[238.905]
<no-speech>
[240.065]
valla mı <breath> demek memnun değiller lan senden <no-speech> <int> demek senden memnun değiller yani
[245.675]
<no-speech>
[251.635]
eh
[252.295]
<no-speech>
[254.735]
<no-speech>
[257.734875]
<no-speech>
[258.795]
<hes> Diyarbakır'a gelecek misin <no-speech> ben Diyarbakır'dayım lan <no-speech> İstanbul'daydım döndüm
[263.365]
<no-speech>
[264.735]
<click> İstanbul'daydım döndüm şimdi Diyarbakır'dayım <no-speech> he he <no-speech> he
[269.445]
<no-speech>
[271.635]
(()) <no-speech> bir bir buçuk haf- lan gidemedim halen Antep'e ya
[275.025]
<no-speech>
[276.805]
<click> of of gidemeyeceğim (()) bakalım
[279.005]
<no-speech>
[280.725]
sen ne ettin sen <no-speech> <hes>
[283.055]
<no-speech>
[284.125]
kim <click> geldi
[284.925]
<no-speech>
[287.345]
kim geldi
[288.125]
<no-speech>
[291.045]
ne yap- ne yapmışlar <no-speech> ne yapmışlar
[293.095]
<no-speech>
[295.415]
sağ ol <click> İlhan İlhan geldi <click> oraya
[297.465]
<no-speech>
[301.695]
<hes> sınava geldi
[303.605]
<no-speech>
[305.475]
he eh peki şey
[306.775]
<no-speech>
[307.685]
sen <hes> şeylesin hala <int> Fatma'ylasın değil mi
[311.655]
<no-speech>
[316.435]
çıkın gelin lan bir gün Diyarbakır'a tam bak Diyarbakır'ın da en güzel zamanları he
[320.115]
<no-speech>
[325.545]
lan he <no-speech> gerçi bugünlerde merkezi bir şey de olmaz da he
[329.635]
<no-speech>
[332.625]
<click> bir mayıs Ankara'da merkezi kutlansaydı ne güzel olurdu <no-speech> he
[336.545]
<no-speech>
[342.675]
(())
[343.465]
<no-speech>
[347.085]
he <int> <laugh> yok lan <click> şeyde bu sene
[350.835]
<no-speech>
[351.875]
(()) sosyoloji vardı da ben başvurmadım Ali ya
[354.615]
<no-speech>
[355.985]
ben hiç kaçırdım zaten yani başvuruyu <click> kaçırdım <no-speech> unuttum <hes> hiç ak- böyle o <click> çalışmadan falan filan unuttum <no-speech> yani sunum başvurusu yapmadım he onun da zamanı geçti yani
[366.215]
<no-speech>
[371.115]
vallahi kötü oldu <click> yoksa büyük ağırlıkla bu sene sosyoloji (()) hatta bugünlerde yedi mayısta mı <click> ne başlıyor yani <int>
[376.725]
<no-speech>
[379.705]
<breath> sen git
[381.315]
<no-speech>
[382.745]
he he sen git <no-speech> sen git dinle güzel olur
[384.875]
<no-speech>
[386.135]
eh başka ne var ne yok Ali Antep'e sen gittin mi hiç
[388.695]
<no-speech>
[390.845]
he
[391.285]
<no-speech>
[392.475]
Antep'e gittin <click> mi hiç
[393.685]
<no-speech>
[395.325]
Antep'e diyorum Antep'e hiç gittin mi
[397.235]
<no-speech>
[400.065]
kaç aydır gitmiyor
[401.145]
<no-speech>
[402.275]
kaç aydır gitmiyor
[403.425]
<no-speech>
[407.935]
lan ben de <int> dört beş aydır gitmiyorum ya <no-speech> lan var ya
[411.335]
<no-speech>
[413.025]
hı <no-speech> eh
[414.695]
<no-speech>
[418.175]
<no-speech>
[418.705]
<no-speech>
[420.195]
he
[420.805]
<no-speech>
[428.485]
yok lan ben aylardır <no-speech> aylardır hiç para mara göndermiyorlar bana Ali <no-speech> kim demişse yalan demiş yani beş altı aydır ben hiç para mara hiç hiç gelmiyor bana <int>
[437.915]
<no-speech>
[439.915]
hiç gelmiyor üstelik yani
[441.495]
<no-speech>
[445.265]
lan yok be annemle de benim öyle bir muhabbetim olmaz yani
[448.435]
<no-speech>
[453.565]
vallahi bilmiyorum artık <no-speech> o <no-speech> kazıklamış seni
[457.155]
<no-speech>
[459.475]
ya da başka bakkala <click> gitmiş <laugh>
[461.295]
<no-speech>
[462.585]
<no-speech>
[463.235]
<no-speech>
[464.115]
eh başka <no-speech> ne var ne yok
[466.415]
<no-speech>
[468.025]
he
[468.535]
<no-speech>
[473.875]
lan oğlum <no-speech> çıkın gelin Diyarbakır'a ya
[476.285]
<no-speech>
[477.715]
he
[478.235]
<no-speech>
[482.125]
<breath> ya gelin kardeşim ya <no-speech> ne olacak ya
[485.405]
<no-speech>
[489.165]
şeyi sen
[490.035]
<no-speech>
[491.155]
<click> vallahi ya bizim de bizim de birikmiş <hes> ne olmuş <int> borç yiğidin kamçısı yani
[496.505]
<no-speech>
[499.835]
nereye taşınıyor o
[500.925]
<no-speech>
[503.875]
anlamadım
[504.695]
<no-speech>
[505.985]
son <click> dediğini anlamadım
[507.165]
<no-speech>
[510.435]
<laugh> oy kira kiranın kendisi bir borç değil mi zaten
[514.095]
<no-speech>
[517.764875]
ben de ondan bahsediyordum neyse sen nereye taşınıyorsun
[520.215]
<no-speech>
[522.445]
he
[523.005]
<no-speech>
[525.255]
nereye
[525.965]
<no-speech>
[527.165]
Tuzluçayır nerede oluyor
[528.515]
<no-speech>
[530.415]
Tuzluçayır nerede <click> oluyor mevki olarak
[532.655]
<no-speech>
[536.025]
<click> alo <no-speech> <click> he <no-speech> Mamak'ta oha oğlum Mamak <no-speech> Mamak Sakarya'ya <no-speech> kaç dakikaydı lan
[543.085]
<no-speech>
[544.165]
<no-speech>
[547.075]
<no-speech>
[553.045]
tamam da kaç dakikaydı Sakarya'ya <no-speech> metroyla <no-speech> metroyla gidiliyor mu daha doğrusu
[558.125]
<no-speech>
[565.695]
ciddi misin
[566.585]
<no-speech>
[568.585]
mhm yakın o zaman <int> iyi iyi
[570.865]
<no-speech>
[571.805]
iyiymiş
[572.455]
<no-speech>
[576.875]
<sta> tamam da <no-speech> gelirim ya inşallah <laugh> bu sosyoloji öğrencileri kongresini kaçırmasaydım kesin geliyorduk da
[583.125]
<no-speech>
[583.955]
kaçırdık yani <no-speech> gerçi bilmiyorum yani dinleyici <click> olarak gelme olanağımız da vardır belki <no-speech> he <int>
[589.385]
<no-speech>
[591.445]
anlamadım Ali
[592.315]
<no-speech>
[593.925]
he eğer şey <click> olmazsa da biz gelemezsek de <no-speech> ya tamam da ben tam zamanlı çalışıyorum Ali ya (())
[600.02]
