[0.0]
<no-speech>
[0.085]
<no-speech>
[2.145]
<no-speech>
[3.595]
alo
[4.325]
<no-speech>
[6.365]
alo Nagihan
[8.595]
<no-speech>
[9.875]
alo
[10.525]
<no-speech>
[11.325]
ne yapıyorsun
[12.895]
<no-speech>
[14.595]
duyuyorum sen beni duyuyor musun
[16.305]
<no-speech>
[17.325]
duyuyor musun beni
[18.915]
<no-speech>
[20.475]
<breath> sesim çok mu az geliyor <breath> tamam geldiği kadar konuşalım şu anda sesimi alabiliyor musun sen
[27.465]
<no-speech>
[29.705]
ne yapıyorsun neredesin ne var ne yok hava sıcak mı
[32.385]
<no-speech>
[34.035]
<no-speech>
[35.565]
<no-speech>
[38.965]
nerede Çengelköy'de mi
[40.425]
<no-speech>
[45.175]
ha (()) <no-speech>
[47.225]
bende (())
[49.695]
<no-speech>
[51.325]
tamam bu ya başka bir tele- başka bir telefon hattı onun için <hes> numara farklı gelebilir ben seni arayayım sesini duyayım diye aradım seni ben şey diyeceğim <hes>
[63.265]
<no-speech>
[64.245]
<no-speech>
[65.255]
anladım boğuk geliyor tamam boğuk geliyorsa geliyor
[67.955]
<no-speech>
[71.685]
Haktan nerede akşam anahtarını alacak mısın eve gelirken
[77.905]
<no-speech>
[78.725]
alo
[79.375]
<no-speech>
[82.775]
<breath> benim şimdi akşamki aksiyonum nedir bilmiyorum da yarın yine ben evde olmayacağım nasıl yapacağız onu
[88.545]
<no-speech>
[92.485]
<no-speech>
[93.005]
<no-speech>
[93.885]
ama yarın senin işin kalmayacak gibi gözüküyor <no-speech> <breath> yarın senin işin kalmayacak gibi gözüküyor yarına işin kalıyor mu senin
[105.595]
<no-speech>
[106.545]
<no-speech>
[111.705]
bitecek mi bugün işlerin
[113.115]
<no-speech>
[115.425]
ha iyi yani iyi mi gidiyor işlerin şu anda problem yok değil mi
[122.195]
<no-speech>
[131.315]
hı
[131.895]
<no-speech>
[139.525]
<no-speech>
[141.045]
<no-speech>
[144.985]
anladım <breath> şey diyeceğim annem doktora gitti annemle görüştün mü
[150.905]
<no-speech>
[154.445]
ya telefonum kapanmış benim ilginç bir şekilde bende işlerimle uğraşıyordum <no-speech> (())
[161.975]
<no-speech>
[163.645]
<no-speech>
[166.855]
<no-speech>
[171.895]
ha
[173.785]
<no-speech>
[178.575]
ha
[179.055]
<no-speech>
[180.565]
anjiyo mu yapacaklar tekrar
[183.455]
<no-speech>
[184.445]
<no-speech>
[185.195]
<no-speech>
[186.845]
of nedir bu kadının çektiği ya
[191.225]
<no-speech>
[192.805]
<no-speech>
[193.155]
<no-speech>
[194.565]
<no-speech>
[195.125]
<no-speech>
[198.945]
<no-speech>
[199.985]
<no-speech>
[202.075]
ne zaman anjiyo yapacaklar
[205.705]
<no-speech>
[207.365]
olabilir olabilir
[210.985]
<no-speech>
[221.045]
olabilir içmiş olabilir niye soruyum ki cevabı belli yani niye soruyum anladım sen şimdi neredesin arabada mısın dışarıda mısın
[232.895]
<no-speech>
[233.575]
<no-speech>
[238.725]
<no-speech>
[239.545]
<no-speech>
[242.675]
anladım
[243.485]
<no-speech>
[245.525]
anladım <hes> abinler ne zaman gidiyorlar Trabzon'a
[250.255]
<no-speech>
[252.445]
<no-speech>
[253.745]
<no-speech>
[261.195]
sen gidecek misin ne düşünüyorsun
[263.275]
<no-speech>
[264.685]
ya gitme çünkü başka yerden işler gelecek işler yoğunlaşacak Ümitlerin oradan gelecek işler var bugünkü işlerin bitmesine göre iki üç tane daha iş gelecek
[275.985]
<no-speech>
[277.765]
<no-speech>
[278.125]
<no-speech>
[278.935]
Uğurların oradan gelme ihtimali de var yoğun olacağız yani
[282.385]
<no-speech>
[286.055]
alo
[286.655]
<no-speech>
[289.175]
<no-speech>
[289.545]
<no-speech>
[296.495]
anladım senin kredi kartın gelecekti geldi mi kredi kartın gelecekti geldi mi
[302.185]
<no-speech>
[303.145]
kredi kartın gelecekti geldi mi diyorum
[305.775]
<no-speech>
[307.225]
kredi kredi kartı
[308.495]
<no-speech>
[311.435]
ofiste değil mi sin
[312.515]
<no-speech>
[314.105]
peki (())
[315.565]
<no-speech>
[321.145]
tamam sesim (()) <no-speech>
[324.725]
ya sen boş ver sen muhabbet edelim seninle şey ama kredi kartı falan gelirse Pınar'a kredi kartını vermezler
[333.525]
<no-speech>
[339.995]
<no-speech>
[340.345]
<no-speech>
[341.195]
anladım
[342.225]
<no-speech>
[344.855]
anladım beni aradı şimdi de seninle konuştuğum için cevap veremedim
[348.835]
<no-speech>
[349.705]
böyle işte <hes>
[354.855]
<no-speech>
[355.945]
hayır
[356.755]
<no-speech>
[359.385]
hayır ben şu anda (()) <no-speech>
[362.865]
hı <no-speech> seni dinliyorum
[366.615]
<no-speech>
[367.675]
alo
[368.665]
<no-speech>
[374.725]
yok yok şarjım full
[376.175]
<no-speech>
[377.125]
sabaha kadar şarjdaydı şey <hes> ne diyeceğim
[381.375]
<no-speech>
[383.725]
hı
[384.295]
<no-speech>
[386.835]
<sta> beğendim <no-speech> ben o motora dokuz milyar vermem ki bu dokuz milyara Honda <foreign> var niye vereyim o motora o parayı <no-speech> tabi abim peşin alamadığı için
[398.205]
<no-speech>
[399.385]
lan bizim motorun çeyreği kadar motoru var onun (())
[402.265]
<no-speech>
[403.725]
tamam da bizim motorun dörtte biri kadar gücü var onun
[406.875]
<no-speech>
[408.265]
(())
[409.785]
<no-speech>
[411.015]
olur mu lan benimki altı yüz C_C idi
[413.575]
<no-speech>
[414.675]
yok ben öyle motor almam ben hatun tavlayabileceğim motor alacağım
[419.615]
<no-speech>
[421.735]
hı onu kendi taktırdı ekstra
[423.765]
<no-speech>
[424.585]
şey diyeceğim
[427.035]
<no-speech>
[428.365]
tamam onlar rahat bir şeyler ayarlıyor şimdi annenler annen Trabzon'dan ne zaman gelecek
[437.365]
<no-speech>
[441.075]
hı
[444.455]
<no-speech>
[446.005]
hı ama abinlerle de
[448.975]
<no-speech>
[451.475]
alırsın herhalde <no-speech> alırsın diye tahmin ediyorum <breath> onu <hes> Mehmet Mehmet abiyi arar sorarsın ona ne diyeceğim ben annen abingile dönmeyecek mi
[465.905]
<no-speech>
[474.75]
<no-speech>
[483.595]
<int> anladım <no-speech> iyi iyi iyi sen ara ara araba
[493.105]
<no-speech>
[494.335]
araba sende mi ofisin önünde mi
[498.415]
<no-speech>
[500.995]
(())
[501.535]
<no-speech>
[503.915]
<no-speech>
[507.495]
<no-speech>
[510.655]
anladım
[512.834875]
<no-speech>
[515.565]
kaçar tane verdin arkadaşlarının eline yapması gereken şeylerden <no-speech> arkadaşlarına dörder bölüm mü verdin
[527.435]
<no-speech>
[538.895]
bugün bu çalışmadan <hes> o o o ürünlerden alo
[543.925]
<no-speech>
[544.835]
alo hı <breath> o ürünlerden beş tane kalsın yarına beş tane <no-speech> <hes> öyle söylediler beş tane
[556.665]
kalsın belki bugün ürün bugünkü ürünlerde geri gelenler olursa iptal satışlar olursa <breath> ona göre sayı belirleyecekler onun için beş tane kalsın
[565.415]
<no-speech>
[568.165]
<no-speech>
[568.725]
<no-speech>
[571.135]
evet Pınar'la konuşmadınız mı bu konuyu
[573.235]
<no-speech>
[577.225]
öyle mi hı öyle diyorsa vardır bir bildiği
[581.285]
<no-speech>
[585.905]
anladım
[589.425]
<no-speech>
[591.105]
onunla bir konuş ben <hes> bir seninle konuşurken aradı beni cevap veremedim ona seninle konuştuğum için <hes> şey yapalım <hes>
[600.020]
