[0.0]
<no-speech>
[5.995]
alo
[6.615]
<no-speech>
[8.045]
alo
[8.715]
<no-speech>
[9.795]
alo
[10.445]
<no-speech>
[12.195]
kanka ne yapıyorsun
[13.285]
<no-speech>
[14.565]
kanka ne yapıyorsun
[15.705]
<no-speech>
[17.875]
ben de oturuyorum ne yapıyorsun evde misin
[22.245]
<no-speech>
[27.015]
<hes> çıkacağım ben de birazdan kanka ben de kanka ben sana ne an dur aklıma gelmişken o
[33.165]
<no-speech>
[34.495]
bana dün (()) bana dün face'den (())
[37.975]
<no-speech>
[40.875]
bana dün face'den Uğur yazdı şu an geliyor mu
[44.645]
<no-speech>
[46.565]
Uğur
[47.225]
<no-speech>
[50.145]
kanka Uğur işte yazmış hani ben geçen gün ona yazmıştım o bana en son yazmıştı ya işte ben öyle düşünmedim falan filan diye ben de dedim ki biliyorum artık Uğur falan yazdım bugün
[61.815]
ondan sonra bana kanka lafı (()) tamam mı bu şimdi devamlı böyle laf atıyor işte diyor senle diyor aynı kaderdeniz hiç alakası yok dedim ben o yolları çoktan
[73.625]
atlattım dedim sana da tavsiye ederim falan dedim
[76.605]
<no-speech>
[77.585]
ondan sonra işte kanka böyle konuşuyor tamam mı işte ben iş sana lafı getiriyor ben de kapatıyorum tamam mı hiç (()) sen çalışmıyor musun dedim yok dedi sanki boş gezenin boş kalfasısın yani <laugh> öyle oldu biraz falan yaptı kanka beni ekledi
[94.525]
<no-speech>
[95.685]
kabul ettim öyle haberin olsun istiyorsan gir bak
[98.865]
<no-speech>
[101.125]
öyle oldu
[101.825]
<no-speech>
[105.465]
nasıl sana kime söyleyeyim Allah aşkına
[108.025]
<no-speech>
[109.515]
bugün de Emine me
[110.495]
<no-speech>
[112.365]
evet
[112.925]
<no-speech>
[114.885]
evet
[115.545]
<no-speech>
[120.755]
kanka sonra işte bugün de Emine
[122.825]
<no-speech>
[124.085]
şey yaptı mesaj attı bana
[126.185]
<no-speech>
[127.015]
dedi ki <hes> barıştılar mı onlar dedi
[130.905]
<no-speech>
[132.525]
ne alaka bilmiyorum Emine ya senle Uğur'a
[136.145]
<no-speech>
[137.195]
dedi ki Serap'la Uğur barıştı mı
[138.985]
<no-speech>
[140.555]
ben de dedim ya ne alakası var dedim benim haberim yok
[143.275]
<no-speech>
[145.095]
kanka siz o gün nişanda ne yaptınız lan sözde
[147.475]
<no-speech>
[149.565]
alo sözde ne yaptınız o akşam nereye gittiniz
[152.915]
<no-speech>
[153.875]
sözde ne yaptınız o akşam nereye gittiniz diyorum
[156.365]
<no-speech>
[158.485]
nereye
[159.165]
<no-speech>
[160.885]
ha
[161.545]
<no-speech>
[162.815]
tamam
[163.395]
<no-speech>
[167.635]
o akşam sen neredeydin
[169.245]
<no-speech>
[172.025]
o akşam (()) neredeydin
[174.235]
<no-speech>
[177.015]
(()) dedin ya face'te
[179.685]
<no-speech>
[181.415]
beni face'te etiketlediğin akşam
[183.365]
<no-speech>
[184.515]
<no-speech>
[185.015]
<no-speech>
[187.505]
kimle oh maşallah
[189.865]
<no-speech>
[191.965]
enişten mi götürdü
[193.305]
<no-speech>
[197.025]
hadi diyorum arada beni de götürsen
[199.275]
<no-speech>
[205.485]
bence de bir düşün
[207.005]
<no-speech>
[212.465]
oydu bilmiyorum ben de
[213.945]
<no-speech>
[215.105]
bilmiyorum ben de
[216.315]
<no-speech>
[219.545]
ben de (()) dur onu boş ver de sen şeyi anlat bana
[222.495]
<no-speech>
[223.305]
sen (()) zaman ben bugün sabah seni aradım
[226.105]
<no-speech>
[230.515]
neredeydin
[231.445]
<no-speech>
[234.455]
diyorum ki ben bugün sabah seni aradım sen neredeydin
[237.335]
<no-speech>
[240.615]
niye açmadın
[241.745]
<no-speech>
[245.325]
hayır ya ne uyuması dışarıdan sesler geliyordu
[248.735]
<no-speech>
[249.715]
bir açtım kapandı telefon
[252.085]
<no-speech>
[253.555]
ben de
[254.125]
<no-speech>
[255.755]
ne ne bileyim öğlen miydi işte
[257.794875]
<no-speech>
[262.255]
(()) diyorum ki (())
[263.835]
<no-speech>
[266.125]
hı ha
[266.715]
<no-speech>
[268.765]
evet
[269.335]
<no-speech>
[273.045]
hı ben de dedim herhalde müsait değil bu telefonu falan kapatınca
[276.775]
<no-speech>
[278.165]
kayıt oldun mu sen açık öğretime
[280.255]
<no-speech>
[282.455]
açık öğretime kayıt oldun mu
[283.875]
<no-speech>
[285.085]
o daha olamadın mı
[286.455]
<no-speech>
[288.965]
ha
[289.455]
<no-speech>
[290.745]
aferin kanka hangi okuldan kayıt yaptırdın
[293.855]
<no-speech>
[297.335]
İbni Sina'dan mı kanka İbni Sina ikinci gelmiş
[301.075]
<no-speech>
[301.905]
vay be dedim
[303.335]
<no-speech>
[305.605]
Suna yazmış
[306.575]
<no-speech>
[308.755]
(()) işte
[309.555]
<no-speech>
[310.785]
öyle Gülşah abla nerede kız
[313.115]
<no-speech>
[317.475]
özledim onu da valla geleceğim geleceğim bir gelemedim
[320.245]
<no-speech>
[323.925]
kanka gelemiyorum ki fırsat olmuyor
[326.055]
<no-speech>
[327.135]
bu hafta sonu gelirim belki
[328.625]
<no-speech>
[330.445]
tabi bu hafta sonu gelirim
[331.715]
<no-speech>
[332.865]
sen niye gelmiyorsun sen çalışmıyorsun hatta daha sen var ya ben (()) bir dakika bir dakika yok iyi aklıma geldin sus be sen dün niye gitmedin
[341.825]
<no-speech>
[343.725]
dün niye gelmedin nereye
[346.205]
<no-speech>
[347.105]
nereye Serap
[348.255]
<no-speech>
[350.565]
sus ya var ya dün sen benim yanımda olsaydın seni gırtlaklardım
[354.385]
<no-speech>
[361.035]
evet
[361.595]
<no-speech>
[363.425]
tamam
[364.055]
<no-speech>
[375.395]
sen <hes> hı hastaneye gittin sonra tamam tamam
[379.365]
<no-speech>
[382.715]
ben de çok sıkıldım ya yarın gel
[384.655]
<no-speech>
[387.485]
yarın gelir misin
[388.625]
<no-speech>
[394.575]
bir şey diyeceğim ama neyse demeyeyim
[396.645]
<no-speech>
[398.035]
mesajlaşırız yine
[399.425]
<no-speech>
[400.925]
ha
[401.405]
<no-speech>
[406.215]
yaptın mı yaptın bana niye mesaj atmadın
[409.805]
<no-speech>
[412.995]
hayır
[413.915]
<no-speech>
[416.315]
yok yok kanka vallahi gelmedi
[419.605]
<no-speech>
[422.685]
yok kan vallahi gelmedi
[425.015]
<no-speech>
[427.365]
gelmedi bebeğim gelse atmaz mıyım ben sana cevap
[430.285]
<no-speech>
[431.295]
mhm gelmemiş
[432.585]
<no-speech>
[435.065]
bilmiyorum ben ne bileyim hiç aklıma gelm- gelmedi benim telefon kapalıydı bir ara o ara atmışsındır
[441.415]
<no-speech>
[444.835]
neyse Burçin abla ne yapıyor havalarda mı mutlu mu
[448.445]
<no-speech>
[452.395]
kız o hiç heyecan yapmıyor ya
[454.685]
<no-speech>
[457.365]
an
[457.855]
<no-speech>
[458.695]
Burçin
[459.485]
<no-speech>
[461.085]
ha
[461.725]
<no-speech>
[468.145]
ha
[468.785]
<no-speech>
[474.255]
tamam önce o şey yaptı ya
[476.005]
<no-speech>
[477.325]
alo
[477.985]
<no-speech>
[478.865]
benle konuşuyorsun daha ne istiyorsun
[480.815]
<no-speech>
[481.975]
kanka daha benle konuşuyorsun daha ne istiyorsun
[484.315]
<no-speech>
[485.225]
<no-speech>
[486.805]
<no-speech>
[488.165]
konuş bir sesim gelmiyor mu benim sana
[490.325]
<no-speech>
[492.025]
alo sesim gelmiyor mu benim sana
[494.875]
<no-speech>
[496.205]
kanka
[496.935]
<no-speech>
[499.645]
kanka sen yarın Bakırköy'e gel ben sana derdimi öyle anlatayım
[503.305]
<no-speech>
[505.805]
alo
[506.495]
<no-speech>
[510.725]
şu an geliyor mu sesim alo
[513.365]
<no-speech>
[516.305]
senin sesin gayet rahat geliyor bana alo
[519.725]
<no-speech>
[521.915]
e o zaman
[523.125]
<no-speech>
[523.955]
dur ben sana bir şey anlatacağım
[525.505]
<no-speech>
[527.515]
kanka ben salı pazartesi günü gel dedim ya sana hani alışveriş için
[531.265]
<no-speech>
[534.385]
keşke gelseydin
[535.885]
<no-speech>
[537.445]
var ya o kadar eğlendim ki anlatamam sabahın birinde bir çıktık bir bile değildi
[543.715]
<no-speech>
[545.175]
alo
[545.845]
<no-speech>
[547.035]
<no-speech>
[547.395]
<no-speech>
[550.625]
sabah bir de bir çıktık
[552.225]
<no-speech>
[553.145]
alo
[553.805]
<no-speech>
[555.525]
birde bir çıktık kanka akşam dokuza kadar
[558.375]
<no-speech>
[562.045]
dokuza kadar gezdik böyle bir sürü bir şeyler
[566.525]
<no-speech>
[568.845]
<hes> ben Melika Melek Melika'nın annesi ama halam böyle kafa dengi tam bizim böyle yaş şeyinde
[575.835]
<no-speech>
[577.855]
çok eğlendi
[578.755]
<no-speech>
[580.445]
saçmalama <no-speech> <breath> pazartesi günü saçmalama Serap gel dedim sen bana hayır bak kız döverim seni sen bana dedin ki ben yarın okula falan gideceğim kanka oradan da mı gireceğim miydi neydi arkadaşının adı
[592.805]
<no-speech>
[593.695]
ona gideceğim dedin
[595.305]
<no-speech>
[596.675]
ya
[597.685]
<no-speech>
[598.735]
ben seni ben seni her yere
[599.98]
