[0.0]
<click>
[3.565]
<click> alo
[4.615]
<no-speech>
[6.725]
alo ne yapıyorsun
[8.875]
<no-speech>
[11.005]
sesimi duymuyor musun
[12.245]
<no-speech>
[15.375]
<hes> konuşsana oğlum o zaman
[17.035]
<no-speech>
[20.825]
<hes> dur bir dakika ben sana bir şey söyleyeyim sen dün Gül'e ne anlattın
[24.365]
<no-speech>
[27.835]
<no-speech>
[28.205]
<no-speech>
[38.895]
eh
[39.485]
<no-speech>
[46.905]
eh
[47.485]
<no-speech>
[49.955]
ayrılık zamanı geldi
[51.445]
<no-speech>
[53.435]
<hes> ya orada ama bak mesajda şöyle yap- yazmışsın ayrılık zamanınız geldi zaten
[58.805]
<no-speech>
[65.965]
<hes> aynen öyle bir (()) <lipsmack> neyse de
[70.915]
<no-speech>
[75.345]
<hes> ben ben Gül'e yazdığını bilseydim bende bir şeyler dokundururdum da neyse dedim boş ver
[80.105]
<no-speech>
[81.995]
lan bir harbi lan
[83.455]
<no-speech>
[85.145]
ne
[85.705]
<no-speech>
[89.755]
ben zaten Gül'ün <hes> şey yapmadım Gül'ün yazdığını anlamadım ona göre zaten şey dedim ya <breath> iyi öyle diyorsan öyle ben bir şey demiyorum
[96.155]
<no-speech>
[101.275]
ne gülüyorsun lan
[102.105]
<no-speech>
[104.075]
<hes> (()) ne yapsın ya
[105.665]
<no-speech>
[108.365]
dün
[109.015]
<no-speech>
[110.175]
ben ne yapayım çalışıyorum iş güç <breath> doğrudur biraz hastayım ondandır
[116.255]
<no-speech>
[119.025]
<hes>
[119.735]
<no-speech>
[120.735]
nasıl gidiyor
[121.525]
<no-speech>
[123.575]
ya öyle gidiyor işte
[125.015]
<no-speech>
[130.745]
yazıhaneyi buldum lan
[131.855]
<no-speech>
[137.225]
yazıhaneyi buluyorum ha
[138.505]
<no-speech>
[140.435]
duydun mu beni
[141.345]
<no-speech>
[142.715]
duyuyor musun beni
[143.735]
<no-speech>
[149.825]
dur bir dakika dur bir dakika dur
[152.065]
<no-speech>
[159.075]
şey <hes> yazıhane arıyorum ha haberin olsun
[162.925]
<no-speech>
[165.545]
<breath> ofis için yer arıyorum
[167.655]
<no-speech>
[171.965]
<hes> Mecidiyeköy'de
[173.775]
<no-speech>
[175.715]
ya ararım ya ara ara bakıyorum
[177.865]
<no-speech>
[178.955]
<hes>
[179.535]
<no-speech>
[182.155]
yok yok
[182.975]
<no-speech>
[186.725]
tamam tamam sekiz yüz dokuz yüzü
[189.175]
<no-speech>
[196.655]
<no-speech>
[204.135]
ne taraflara
[205.065]
<no-speech>
[210.665]
ya bakarız <hes> bakarız ayarlarım ben <int>
[213.605]
<no-speech>
[215.045]
Mu- Murat da zaten şeyden <breath> ayrılmış <hes> Star'dan
[219.775]
<no-speech>
[220.625]
adam şey diyordu birlikte bir iş yapalım film çevirelim
[223.105]
<no-speech>
[227.085]
<hes> <breath> Türkiye'de en ucuz film korku filmi
[231.445]
<no-speech>
[232.485]
<hes>
[233.015]
<no-speech>
[238.155]
he- hemen hemen bana at zaten
[240.245]
<no-speech>
[241.575]
ben sana dedim oğlum işim var diye
[243.315]
<no-speech>
[244.805]
<hes>
[245.385]
<no-speech>
[254.465]
Emrah Emrah yaşıyor mu öldü mü onu bile bilmiyorum valla
[258.044875]
<no-speech>
[263.585]
<hes> Emrah bir acayip Emrah Emrah geçen işte <foreign> şey yapmış <no-speech> ilişkisi var dün de değiştirmiş ilişkisi yok <breath> o da ne yapıyor karışık kuruşluk takılıyor <cough>
[276.815]
<no-speech>
[278.515]
valla
[279.235]
<no-speech>
[282.825]
ne var oğlum ben daha dün dün akşam gördüm ya
[285.175]
<no-speech>
[286.315]
<no-speech>
[286.875]
<no-speech>
[288.085]
<hes> dün akşam gördüm dün akşam
[290.825]
<no-speech>
[300.095]
tır mı <hes> ya Emrah Emrah kolpacıdır ya ondan ondan hiçbir şey hiçbir cacık olmaz
[306.495]
<no-speech>
[309.215]
Emrah kolpacının teki ondan hiçbir cacık olmaz
[311.965]
<no-speech>
[313.635]
tamam hallederiz der ya Emrah hallederiz der o gün geldiği zaman ya işte babam peder izin vermiyor falan filan ayağına yatar
[320.915]
<no-speech>
[322.335]
dedi ya ehliyet alayım arabayla gezeriz ehliyet aldı araba aldı ya vallaha peder izin vermiyor ya
[329.745]
<no-speech>
[331.455]
bizimkisi öyle
[332.455]
<no-speech>
[336.835]
ben param yok
[338.295]
<no-speech>
[341.755]
<hes>
[342.355]
<no-speech>
[346.075]
<breath> ne yapalım oğlum şey ben ben gömüyorum ki benden sonra gelen nesiller bulunca değeri yüksek olsun antika değeri olsun
[353.525]
<no-speech>
[360.505]
<hes>
[360.985]
<no-speech>
[365.305]
baba- babaannen yaşıyor mu lan
[367.065]
<no-speech>
[368.715]
babaannen yaşıyor mu
[369.855]
<no-speech>
[376.035]
oğlum ben dede- dedeni mi sordum ben ben babaanneni soruyorum he babaannem yaşıyor dedim yaşamıyor dedin
[381.025]
<no-speech>
[388.005]
<no-speech>
[388.945]
<no-speech>
[398.175]
bir ara ya <hes> şaka maka- bir yana da şey alalım <hes> şu hani altın bulan makineler neydi lan teleskop neydi
[405.965]
<no-speech>
[406.955]
<hes> dedektör teleskop diyorum ya var mı böyle bir şey <laugh> <hes> hacı dedektörü alalım <breath> yalnız gideceğimiz yerler belli <hes> sahil kenarları
[416.395]
<no-speech>
[418.695]
hani böyle fazla bulmaya gerek yok hacı biz gideceğiz hani millet yazın gidecek işte denize girecek şuraya (()) çıkarken düşecek müşecek onları bulsak yeter bize
[427.535]
<no-speech>
[430.955]
duydun mu
[431.655]
<no-speech>
[433.135]
yani gideriz böyle sahil kenarı Antalya gezeriz Antalya Marmaris Bodrum falan sahil kenarı kışın gider gezeriz
[441.355]
<no-speech>
[443.295]
<breath> zaten kumsalı kazmak da kolay
[445.445]
<no-speech>
[447.595]
ne <breath> ya çıkar
[451.075]
<no-speech>
[452.975]
çıkartırız ya nereye çıkartmıyoruz
[455.045]
<no-speech>
[456.315]
<no-speech>
[456.775]
<no-speech>
[462.445]
bakarız ya
[463.315]
<no-speech>
[465.995]
ya şimdi bak dün Zafer'e de söyledim <breath> dedim bak şimdi film çevireceğiz senaryo belli <breath> hayat <hes> şey film içinde film çekeceğiz <breath> kardeş böyle şey olur ya <hes> mesela hani bir ara Çığlık Çığlık'taydı galiba
[479.795]
<no-speech>
[481.205]
Çığlık mıydı lan herhalde Çığlık'taydı böyle adam <hes> korku filmi izliyorlar filmin içinde bir film biri daha filmi izliyor filmin içinde biri daha filmi izliyor ondan sonra hepsi tek tek öyle öyle geliyor en son bir tane adamla kadına telefon çalıyor <int>
[492.915]
Zafer bana bir soru sordu bende sana bir soru soruyum <breath> şimdi <hes> çocuğun bir tanesi korku filmi izliyor akşam saat <hes> tam saat on ikide elektrikler gidiyor
[504.195]
<hes> ve şey <breath> annesi aşağıdan çocuğu çağırıyor çocuk aşağıya iniyor annesi vampir olmuş çocuğu ısırıyor <breath> ve tam o sırada saat on iki saat ötüyor elektrikler gidiyor ve seni annen aşağıdan çağırıyor gider misin
[519.694875]
<no-speech>
[524.345]
ben ben ben giderim (()) <hes> hiç hiç düşünmem çünkü ben onlara inanmıyorum ama deseler ki <click> film şöyle cinli minli olsaydı
[532.625]
<no-speech>
[533.445]
hayatta gitmezdim hatta düşünürdüm gitsem mi gitmesem mi diye korkardım <breath> hani vampirlere inanmadığımız için sıkıntı yok
[539.785]
<no-speech>
[540.865]
(())
[541.605]
<no-speech>
[544.765]
ne
[545.405]
<no-speech>
[551.135]
ya Allah <laugh> vampir ısırdığı zaman ölümsüz oluyor yalnız vampir <laugh> ısırmıyor işte ısırdığı zaman kanı emip bitiriyor
[558.565]
<no-speech>
[561.245]
ya hacı sen onu boş ver de <no-speech>
[564.595]
şey <hes> <breath> geçen <hes> şeyde youtube'da gördüm bir tane <hes> kurt köpeği davarın içine girmiş
[571.695]
<no-speech>
[573.095]
iki yüz tane koyunluk bir davarın içine <hes> ya kurt kurt normal bildiğin şu dağdaki kurtlar var ya <breath> bir tane sürünün içine giriyor üç yüz koyunluk yüz tane koyunu ısıra ısıra gebertiyor
[584.985]
<no-speech>
[585.135]
<no-speech>
[586.315]
<breath> ondan sonra bu <hes> kurdu yakalıyorlar cafe'se koyuyorlar bir dişi parmak büyüklüğünde
[591.085]
<no-speech>
[595.645]
ya hayvan yabani ya
[597.145]
<no-speech>
[599.725]
<hes>
[600.14]
