[0.0]
<no-speech>
[5.975]
alo
[6.685]
<no-speech>
[11.165]
alo Deniz
[13.775]
<no-speech>
[17.085]
mhm duyuyor musun beni nasılsın <breath> hı <cough> tamam iyi ne yapıyorsun nasılsın
[24.105]
<no-speech>
[27.905]
<no-speech>
[28.265]
<no-speech>
[29.335]
<laugh> (())
[32.784875]
<no-speech>
[34.715]
<breath> iyiyim ben de ya işteyim işte çalışıyorum <breath> şey diyecektim ya hani ben ben bu hafta sonu İzmir'e gitmeyi düşünüyorum ya
[43.865]
<no-speech>
[46.275]
<breath> işte şey <hes> sanırım gidemeyebilirim havaya baksana oğlum resmen tipi fırtına falan var burada
[53.465]
<no-speech>
[57.475]
hadi ya o- erimiş miydi kar peki
[60.535]
<no-speech>
[62.755]
<hes> şey oluyor şimdi sesimiz kaydoluyor ya ondan <laugh>
[68.205]
<no-speech>
[69.005]
yani gecikmeli gelmesi <laugh> normal hı
[72.885]
<no-speech>
[74.965]
tamam canım
[75.995]
<no-speech>
[76.875]
mhm
[77.465]
<no-speech>
[78.585]
tamam tamam <breath> <hes> şey ne diyecektim e senden ne haber ne yapıyorsun
[84.035]
<no-speech>
[86.055]
nasıl geçiyor günlerin
[87.305]
<no-speech>
[89.155]
mhm
[89.805]
<no-speech>
[93.615]
hı iyi
[94.525]
<no-speech>
[96.205]
mhm
[96.905]
<no-speech>
[100.545]
tamam <breath> ne oldu dün kimlerle konuştun
[103.825]
<no-speech>
[109.965]
ne
[110.815]
<no-speech>
[113.825]
mhm
[114.295]
<no-speech>
[116.325]
hı tamam <click>
[117.995]
<no-speech>
[119.485]
valla hı merak ettim şimdi mhm
[123.395]
<no-speech>
[124.205]
mhm anladım
[125.495]
<no-speech>
[127.025]
mhm
[127.595]
<no-speech>
[128.415]
mhm
[129.075]
<no-speech>
[134.455]
mhm
[135.095]
<no-speech>
[136.355]
ya iyi yapmışsın ya ben de işte <hes> normal her şey bende işte geçen hafta hiç işe gelmemiştim <hes> bu hafta artık
[146.175]
geleyim dedim şimdi İzmir'e gitme olayım falan da var ya harç març olayı dedim çalışayım ondan sonra işte şey <hes> ne diyecektim <breath> Pembe de İngilize kursuna yazılmış tamam mı <laugh>
[158.045]
<laugh> yani ona İngilizce çalıştırmak gerçekten deveye hendek atlatmaktan daha zor
[163.665]
<no-speech>
[167.795]
<laugh> öyle işte ya onla ders çalıştık
[172.625]
<no-speech>
[174.625]
evet bence de
[175.925]
<no-speech>
[180.695]
<laugh> korkma bir şey yok iyiyim merak etme <laugh>
[186.175]
<no-speech>
[191.305]
<laugh> öyle olması gerek <laugh>
[195.265]
<no-speech>
[199.395]
mhm
[200.125]
<no-speech>
[201.005]
<laugh> tamam ben buradan gidince seni bir daha arayacağım anlatırım
[205.665]
<no-speech>
[207.905]
mhm hı konuşalım olur anlat anlat anlat
[213.015]
<no-speech>
[214.555]
hı yani anlat (())
[217.175]
<no-speech>
[223.655]
<no-speech>
[224.005]
<no-speech>
[226.595]
ne zaman
[227.505]
<no-speech>
[229.295]
yirmi beş yirmi altı şubat mhm <breath> ya ben ne için gidiyorum biliyor musun şimdi benim hani kayıt haftam falan ya bir sorun çıkarsa eklesin haftası diyorum
[238.305]
<no-speech>
[239.265]
işte elden halledeyim bire bir halledeyim
[241.805]
<no-speech>
[244.005]
ne
[244.535]
<no-speech>
[249.015]
yok şimdi cumart- cuma cumartesi pazar bu hafta şey bu hafta sonu yani kayıt haftası yani kayıt oluyorsun internetten <hes> ondan sonra pazartesi okul başlıyor diye biliyorum
[262.335]
<no-speech>
[266.105]
evet öyleymiş çünkü aradım
[268.085]
<no-speech>
[269.225]
ya işte havalar çok kötü ya ondan tedirginim yani yoksa çok istiyorum gitmeyi de <breath> (())
[276.385]
<no-speech>
[279.785]
inşallah bir aksilik çıkmaz diyorum
[282.185]
<no-speech>
[287.805]
mhm
[288.405]
<no-speech>
[289.965]
mhm
[290.575]
<no-speech>
[293.725]
mhm
[294.255]
<no-speech>
[298.835]
evet
[299.355]
<no-speech>
[307.705]
oha evet
[309.205]
<no-speech>
[310.835]
evet ya bir de
[312.345]
<no-speech>
[313.865]
hı bir de ne diyecektim ya bu Doğubeyazıt'ta falan böyle bir savcı mı hakim mi ne böyle silahlı bir şey olmuş ya yani a- ablan iyi mi onu arayıp soracaktım
[323.585]
<no-speech>
[327.395]
hı hı
[328.085]
<no-speech>
[330.405]
mhm
[331.365]
<no-speech>
[335.565]
hı anladım
[336.895]
<no-speech>
[338.245]
mhm benim de aklıma şey geldi ya Çanakkale'deydi ablası herhalde bir şey olmamıştır falan diye düşündüm öyle unuttum sonra yani
[345.015]
<no-speech>
[346.045]
mhm
[346.565]
<no-speech>
[347.735]
mhm iyi bakalım başka ne var ne yok
[350.265]
<no-speech>
[353.685]
mhm <laugh>
[354.515]
<no-speech>
[356.745]
mhm selam söyle
[358.035]
<no-speech>
[359.515]
ay ben (()) <laugh> ay deli kız niye durup dururken gözümden öptün
[368.605]
<no-speech>
[369.645]
kız niye durup dururken gözümden öptün diyorum
[373.245]
<no-speech>
[377.945]
bence de yok çaktırma
[380.485]
<no-speech>
[381.715]
<no-speech>
[385.295]
<no-speech>
[388.155]
ay o çok özledim Deniz seni ya
[390.465]
<no-speech>
[396.535]
<breath> bir düzelse bir düzelse
[399.095]
<no-speech>
[400.055]
kiminle
[400.965]
<no-speech>
[401.865]
kiminle birlikte geleceksin
[403.205]
<no-speech>
[407.045]
mhm hı iyi gelin buyrun valla
[409.765]
<no-speech>
[416.325]
hı hı
[416.965]
<no-speech>
[420.265]
mhm
[420.855]
<no-speech>
[422.345]
kesinlikle ben ben öyle diyecektim şimdi şu an sana ya da işte final dönemini (()) final dönemi
[428.815]
<no-speech>
[430.315]
hı hı
[431.045]
<no-speech>
[431.875]
sabahlayalım oğlum Alsancak
[433.615]
<no-speech>
[435.035]
hı hı
[435.655]
<no-speech>
[437.215]
<no-speech>
[438.825]
<no-speech>
[439.665]
<cough> geleceğim ne zamandı mayıstaydı değil mi
[442.305]
<no-speech>
[446.285]
(()) tamam gelirim niye gelmiyormuşum Allah Allah Çanakkale'de olacak değil mi
[451.625]
<no-speech>
[454.265]
Çanakkale'de mhm tamam gelirim ay ne güzel orada da görüşeceğiz
[458.305]
<no-speech>
[463.715]
ben geleceğim
[464.605]
<no-speech>
[465.435]
mhm hı niye
[466.725]
<no-speech>
[469.325]
ay
[470.385]
<no-speech>
[471.265]
çok sinir bozucu ya böyle şeyler
[473.345]
<no-speech>
[476.515]
<no-speech>
[477.215]
<no-speech>
[479.215]
evet yani Onur nasıl
[481.065]
<no-speech>
[486.075]
barıştınız mı iyi tamam
[487.635]
<no-speech>
[493.025]
mhm
[493.745]
<no-speech>
[496.605]
mhm
[497.215]
<no-speech>
[500.945]
alo <click>
[502.755]
<no-speech>
[504.835]
mhm
[505.435]
<no-speech>
[508.155]
mhm iyi canım ya
[510.105]
<no-speech>
[511.505]
tamam şekerim <breath> yine konuşuruz ben arayacağım seni tamam mı bugün
[515.275]
<no-speech>
[518.435]
tamam
[519.155]
<no-speech>
[523.514875]
<laugh> ben de (()) ilk- ilklerimi seninle yaşıyorum <laugh>
[529.285]
<no-speech>
[530.135]
<breath> ilklerimi seninle yaşıyorum diyorum
[532.365]
<no-speech>
[536.585]
tamam canım
[537.585]
<no-speech>
[539.395]
ben de öpüyorum tamam ara beni hadi <foreign>
[542.135]
<no-speech>
[548.865]
alo
[549.565]
<no-speech>
[550.775]
<no-speech>
[550.995]
<no-speech>
[551.2]
