[0.0]
<no-speech>
[2.505]
alo
[3.085]
<no-speech>
[4.485]
alo
[5.125]
<no-speech>
[6.595]
ne yapıyorsun kardeş
[7.515]
<no-speech>
[9.145]
ben Uğur
[9.935]
<no-speech>
[11.325]
ne yapayım ya bildiğin gibi
[13.215]
<no-speech>
[14.265]
bildiğin gibi ne yapayım diyorum aynı
[16.154875]
<no-speech>
[17.055]
efendim
[18.425]
<no-speech>
[19.385]
alo beni duyuyor musun
[21.425]
<no-speech>
[24.065]
nasıl boğuk geliyor
[25.295]
<no-speech>
[26.905]
ya idare et bir şey olmaz telefonum bozuk
[29.935]
<no-speech>
[35.165]
tamam kapanmaz ya
[36.545]
<no-speech>
[37.935]
tamam
[38.515]
<no-speech>
[41.385]
sen ne yapıyorsun neredesin
[42.705]
<no-speech>
[45.075]
ne
[45.595]
<no-speech>
[47.385]
ne diyorsun oğlum
[48.355]
<no-speech>
[49.715]
ya işte iki saate falan gelirim iki saate gelirim diyorum iki saate
[54.505]
<no-speech>
[56.135]
ne
[56.665]
<no-speech>
[58.655]
ya işte bizim ya lan iş yerindeyim ya
[61.885]
<no-speech>
[65.995]
sen ne yapıyorsun
[66.715]
<no-speech>
[70.565]
(())
[71.355]
<no-speech>
[74.635]
stajda ne yaptın bugün
[75.795]
<no-speech>
[77.885]
mhm
[78.485]
<no-speech>
[80.085]
Mete
[80.755]
<no-speech>
[81.555]
<int> Mete
[84.065]
<no-speech>
[85.025]
beni duyuyor musun
[85.935]
<no-speech>
[88.245]
beni duyuyor musun
[89.135]
<no-speech>
[90.715]
duyuyorum
[91.415]
<no-speech>
[93.905]
bende duyuyorum
[94.915]
<no-speech>
[97.445]
Mete oğlum havalardan telefon çekmiyor ya boğuk ya bir de benim telefon da biraz bozuk ya
[101.925]
<no-speech>
[104.225]
alo telefon da bozuk ya ondan sesim böyle sesim boğuk geliyor ne
[109.395]
<no-speech>
[111.135]
alo
[112.865]
<no-speech>
[115.175]
Mete
[115.895]
<no-speech>
[118.005]
Mete
[118.745]
<no-speech>
[119.895]
oğlum
[120.445]
<no-speech>
[124.485]
spora gidelim mi lan birlikte
[126.135]
<no-speech>
[127.605]
bodye gidelim mi bodye
[128.765]
<no-speech>
[129.805]
badiye body
[130.795]
<no-speech>
[133.435]
<foreign> gidelim mi <no-speech> şizofren <int>
[136.165]
<no-speech>
[138.875]
oğlum vücudumuzu geliştireceğiz ya
[140.725]
<no-speech>
[143.115]
Mete <no-speech> bodye gidelim diyorum vücudumuzu geliştiririz <int> gidelim
[149.195]
<no-speech>
[150.545]
niye
[151.195]
<no-speech>
[153.515]
oğlum vücudumuzu
[154.385]
<no-speech>
[157.835]
<no-speech>
[158.185]
<no-speech>
[159.045]
Mete
[159.785]
<no-speech>
[163.435]
Çağatay şeye verdi mi ya arabayı Çağatay arabayı arabayı şeye verdi mi neydi o adamın adı Çağataylar arabayı diyorum şeye verdiler mi <hes> neydi adamın adı yaptırmaya
[175.165]
<no-speech>
[178.015]
alo niye vermediler
[180.125]
<no-speech>
[185.125]
hı şeye neydi
[187.275]
<no-speech>
[188.415]
akşam kim kim çıkacağız Çağatay falan gelecek mi
[191.145]
<no-speech>
[193.395]
alo
[194.085]
<no-speech>
[196.765]
hangi akşam
[197.705]
<no-speech>
[199.075]
Metehan dün beş dakika dedin on dakika oldu la
[202.145]
<no-speech>
[204.185]
bende beklemedim abi Metehan zaten iki dakika sonra eve çıkıyorum dedin alo
[211.475]
<no-speech>
[215.555]
sen niye yalan söyledin (()) abinin annesi tek başına diye
[218.455]
<no-speech>
[225.245]
Fatih
[225.875]
<no-speech>
[226.705]
sen ne soracaktın Fatih bekleseydi
[229.515]
<no-speech>
[231.455]
Fatih bekleseydi diyorum Fatih <int>
[234.975]
<no-speech>
[236.775]
alo
[237.405]
<no-speech>
[239.475]
ya ne Metehan ona ne ya senin bekleyip beklememenden aşağı inseydin birlikte geri dönerdik hacı
[244.455]
<no-speech>
[247.445]
alo
[248.065]
<no-speech>
[249.925]
aşağı inseydin birlikte geri dönseydik diyorum ya
[253.245]
<no-speech>
[254.365]
niye bekletiyorsun yani
[255.735]
<no-speech>
[256.605]
yorgun argın akşam oraya çıkmışım beni bekletiyorsun
[259.725]
<no-speech>
[263.325]
<hes> <prompt>
[264.555]
<no-speech>
[269.555]
ne
[270.165]
<no-speech>
[272.255]
dün ne yapacaktın
[273.215]
<no-speech>
[278.135]
<hes> ya ya ben ne bileyim oğlum çocuğa ayıp olurdu zaten niye çağırmadınız ki insan bir teklif eder lan zaten çıkmayacaktı
[286.615]
<no-speech>
[288.335]
zaten çıkmayacaktı (())
[291.435]
<no-speech>
[295.475]
alo
[296.045]
<no-speech>
[297.215]
ne
[297.735]
<no-speech>
[298.865]
Mete sus oğlum ya sus oğlum ya
[302.815]
<no-speech>
[304.345]
on dakikaya oradayım on dakikaya
[306.145]
<no-speech>
[307.335]
on dakikaya geleceğim ya
[308.895]
<no-speech>
[311.185]
Mete
[311.825]
<no-speech>
[312.765]
sen ne yapıyorsun
[313.615]
<no-speech>
[319.235]
oğlum iş yerinde arkadaşlarınla <no-speech>
[327.445]
arabayla bir yere iş görüşmesine gidiyorum ne
[330.625]
<no-speech>
[333.355]
ne var lan
[334.125]
<no-speech>
[336.435]
Mete
[337.145]
<no-speech>
[339.075]
Mete
[339.815]
<no-speech>
[341.565]
arabayla bir yere iş görüşmesine gidiyoruz ondan sonra geleceğim zaten
[344.985]
<no-speech>
[346.185]
akşam buluşuruz
[347.265]
<no-speech>
[349.775]
sen ne yapıyorsun başka
[350.925]
<no-speech>
[352.695]
alo
[353.335]
<no-speech>
[355.975]
(()) akşam çıkacak mı satıcı
[357.875]
<no-speech>
[360.175]
Mete
[360.825]
<no-speech>
[361.725]
<hes>
[362.235]
<no-speech>
[363.795]
efendim
[365.015]
<no-speech>
[368.045]
bir dur ya Mete
[369.755]
<no-speech>
[370.985]
cumartesi Kenan'ın asker kınası var gelecek misin
[374.375]
<no-speech>
[376.755]
alo bu cumartesi ya
[379.205]
<no-speech>
[384.295]
valla gidelim ya
[385.555]
<no-speech>
[389.555]
akşam yedi yedi buçuk gibi başlayacak işte de ben erkenden orada olacağım
[394.355]
<no-speech>
[398.845]
ben saat iki iki buçuk üç gibi orada olacağım hacı
[402.245]
<no-speech>
[403.385]
sizde altı gibi gelirsiniz
[404.825]
<no-speech>
[408.315]
tamam mı
[408.985]
<no-speech>
[411.385]
<no-speech>
[411.765]
<no-speech>
[412.585]
ne
[413.345]
<no-speech>
[419.465]
tamam siz saat sekiz gibi gelin
[421.215]
<no-speech>
[423.535]
<int> tamam
[425.315]
<no-speech>
[428.685]
oğlum bir dur ya
[429.865]
<no-speech>
[430.715]
sen <hes> babandan arabayı alabilir misin
[433.345]
<no-speech>
[435.565]
alo
[436.185]
<no-speech>
[437.705]
oğlum bir dene ya cumartesi günü konvoy konvoy yaparız
[441.225]
<no-speech>
[442.435]
tamam mı
[443.355]
<no-speech>
[445.005]
Çağatay'a da ne
[446.255]
<no-speech>
[448.095]
anlamadım ki
[448.965]
<no-speech>
[450.515]
o daha yirmi beşinde binecek lan şimdi sadece kına gecesi yapıyoruz
[453.635]
<no-speech>
[456.935]
<hes> daha <cough> özür dilerim yirmi yirmi beşinde binecek
[461.965]
<no-speech>
[464.265]
anladın mı
[465.025]
<no-speech>
[467.165]
alo
[467.835]
<no-speech>
[469.435]
şeye
[470.025]
<no-speech>
[473.335]
Çağatay Çağatay arabayı alabilir mi ya
[476.085]
<no-speech>
[481.155]
ya sen neyi biliyorsun ki Mete
[483.005]
<no-speech>
[485.495]
alo
[486.135]
<no-speech>
[489.965]
stajda bugün ne yaptınız
[491.165]
<no-speech>
[493.605]
alo stajda ne yaptınız bugün <int>
[497.095]
<no-speech>
[498.855]
stajda bugün ne yaptınız Mete
[500.425]
<no-speech>
[501.715]
ne yaptın lan çalıştın mı
[503.365]
<no-speech>
[505.145]
ne iş yaptınız
[506.515]
<no-speech>
[507.435]
ne iş yaptınız diyorum ya
[509.005]
<no-speech>
[511.345]
mobilya
[512.115]
<no-speech>
[514.855]
mobilya mobilya
[516.105]
<no-speech>
[519.264875]
alo
[519.944875]
<no-speech>
[520.825]
(())
[521.495]
<no-speech>
[524.475]
Mete
[525.205]
<no-speech>
[527.305]
lan biz şu anda parkeyi yaptıracağız ya
[530.335]
<no-speech>
[531.575]
evet
[532.175]
<no-speech>
[533.575]
babandan bir net fiyatını öğrensene ya
[535.635]
<no-speech>
[539.215]
babandan net fiyatını öğren net
[541.435]
<no-speech>
[544.375]
net fiyatını babandan diyorum parkeyi ne kadar yaptığının net fiyatını öğren diyorum
[549.585]
<no-speech>
[552.175]
duydun mu
[552.885]
<no-speech>
[554.295]
tamam mı
[554.945]
<no-speech>
[556.465]
bir de ne kadar yani nasıl metre karesini kaça yapıyorlar falan
[559.915]
<no-speech>
[562.005]
(())
[562.835]
<no-speech>
[564.355]
ne zaman gideriz
[565.305]
<no-speech>
[568.685]
pazar günü gidelim mi
[569.925]
<no-speech>
[572.825]
pazar günü
[573.655]
<no-speech>
[576.425]
o
[576.995]
<no-speech>
[580.225]
Mete
[580.935]
<no-speech>
[583.585]
pazar direkt bilmiyorum ki hacı kaçta gidelim
[586.375]
<no-speech>
[593.605]
şeye
[594.155]
<no-speech>
[595.205]
öğleden sonra gidelim ya bir tek pazar günleri yatıyorum
[598.575]
<no-speech>
[599.515]
bir de
[599.925]
<no-speech>
[600.04]
