[0.0]
<no-speech>
[0.695]
<no-speech>
[1.435]
<no-speech>
[4.585]
<no-speech>
[5.205]
<no-speech>
[8.435]
alo
[9.075]
<no-speech>
[10.595]
alo
[12.125]
<no-speech>
[14.335]
ne yapıyorsun Sultan
[15.455]
<no-speech>
[18.215]
<no-speech>
[19.545]
<no-speech>
[22.725]
ne yapayım ben de ya uğraşıyorum işte ya okula falan gidiyorum da sen neredesin şimdi
[27.135]
<no-speech>
[36.305]
(()) geçtin mi
[37.635]
<no-speech>
[38.655]
<no-speech>
[39.455]
<no-speech>
[40.325]
<no-speech>
[41.125]
<no-speech>
[43.905]
ha peki ne zamana okulda olursun
[46.435]
<no-speech>
[50.225]
<no-speech>
[50.585]
<no-speech>
[52.625]
<no-speech>
[53.125]
<no-speech>
[64.865]
ha biz zaten <laugh> on biz de on on beş saatte ancak Tandoğan'da oluruz
[71.375]
<no-speech>
[73.725]
<no-speech>
[74.105]
<no-speech>
[77.395]
ha şey sen yemek yedin mi
[79.335]
<no-speech>
[81.545]
<no-speech>
[82.625]
<no-speech>
[84.545]
iyi ya yemek yedin yemekte ne varmış ki
[86.605]
<no-speech>
[91.845]
yemekte ne varmış ki ya
[94.845]
<no-speech>
[104.405]
(()) şey mi (())
[107.775]
<no-speech>
[108.835]
<no-speech>
[109.685]
<no-speech>
[116.455]
(())
[116.955]
<no-speech>
[118.295]
ha anladım
[119.415]
<no-speech>
[120.565]
ha (()) ne yaptın
[122.345]
<no-speech>
[123.535]
<no-speech>
[124.225]
<no-speech>
[125.075]
<no-speech>
[126.025]
<no-speech>
[128.785]
anlamadım tekrar söylesene
[130.694875]
<no-speech>
[132.065]
<no-speech>
[132.865]
<no-speech>
[136.745]
yani şey de mi gitti
[138.175]
<no-speech>
[144.215]
<no-speech>
[146.085]
<no-speech>
[147.275]
<int> ha aslında biz de mi gelsek ya şehire
[154.605]
<no-speech>
[158.675]
biz de mi gelsek aslında Eskişehir'e ya
[160.745]
<no-speech>
[163.585]
<no-speech>
[165.135]
<no-speech>
[167.195]
<int> yarın on iki falan mı ki
[173.655]
<no-speech>
[175.095]
<no-speech>
[175.475]
<no-speech>
[178.445]
<no-speech>
[179.905]
<no-speech>
[181.595]
(())
[182.835]
<no-speech>
[184.335]
<no-speech>
[185.285]
<no-speech>
[186.675]
olur mu (()) sınavımız var (())
[188.575]
<no-speech>
[191.325]
<no-speech>
[192.455]
<no-speech>
[194.205]
organik sınavınız var ya sizin
[196.065]
<no-speech>
[202.285]
ha sen kaç aldın ki (())
[206.185]
<no-speech>
[211.855]
niye ya işte adam kurtarma yazılısı yapıyor ne güzel
[214.825]
<no-speech>
[219.175]
adam ne güzel kurtarma sınavı yapıyor
[221.325]
<no-speech>
[223.435]
<no-speech>
[224.355]
<no-speech>
[228.965]
<no-speech>
[229.425]
<no-speech>
[231.485]
<no-speech>
[232.015]
<no-speech>
[233.215]
ha
[234.415]
<no-speech>
[236.445]
ne kadar duyabilirsiniz
[238.495]
<no-speech>
[240.545]
<no-speech>
[242.315]
<no-speech>
[243.615]
bilet ne kadar dedin fiyatına
[245.975]
<no-speech>
[247.445]
<no-speech>
[249.625]
<no-speech>
[250.715]
<no-speech>
[251.365]
<no-speech>
[253.645]
evet saat kaçta gideceksin ve bi- biletin fiyatı ne
[256.935]
<no-speech>
[258.765]
<no-speech>
[259.174875]
<no-speech>
[260.554875]
<no-speech>
[261.185]
<no-speech>
[264.605]
diyorum ki biletin fiyatı ne bir de ne zaman gideceksin saat kaçta
[270.055]
<no-speech>
[270.945]
<no-speech>
[271.705]
<no-speech>
[273.305]
<no-speech>
[273.895]
<no-speech>
[278.045]
yirmi gidiş geliş mi
[280.195]
<no-speech>
[286.41]
<no-speech>
[292.625]
oh yani bize gelip de elli liraya değmez ya ben sana söyleyeyim <laugh>
[298.255]
<no-speech>
[299.965]
<no-speech>
[300.355]
<no-speech>
[303.875]
mantıklı aslında da işte bu (()) ile bugün konuşmak lazım bugün dersi yok mu saat yedi buçukta var
[311.115]
<no-speech>
[319.725]
<int> a- ben bak ne güzel soru çözecek <hes> cevabı ile ilgili bir dolu söz söyleyecek yani bence bizim için yararlı olacağını düşünüyorum
[329.495]
<no-speech>
[330.535]
<no-speech>
[330.895]
<no-speech>
[333.765]
<no-speech>
[334.635]
<no-speech>
[341.625]
ha peki Gökhan'la ne konuşacaksın
[343.925]
<no-speech>
[351.755]
<no-speech>
[359.585]
(())
[360.215]
<no-speech>
[362.225]
<int> e o zaman biz (())
[365.775]
<no-speech>
[366.755]
<no-speech>
[367.105]
<no-speech>
[373.69]
<no-speech>
[380.275]
(()) ya gelsin Ayçalar bizde gideriz hep beraber Ayçaları biz evlere bırakırız işte
[385.805]
<no-speech>
[391.085]
<no-speech>
[391.555]
<no-speech>
[395.885]
ha anladım peki (()) geleceksin bir de
[398.605]
<no-speech>
[405.225]
<no-speech>
[406.715]
<no-speech>
[408.635]
<no-speech>
[409.885]
<no-speech>
[417.685]
ha yarın dershane yoktu değil mi Semih
[419.485]
<no-speech>
[424.325]
(())
[426.145]
<no-speech>
[431.485]
ha cumartesi pazar mı vardı senin dershanen
[434.135]
<no-speech>
[443.455]
bir daha alayım anlamadım vallaha
[445.365]
<no-speech>
[447.445]
<no-speech>
[447.925]
<no-speech>
[456.495]
<no-speech>
[456.845]
<no-speech>
[459.805]
bizim (())
[460.905]
<no-speech>
[471.265]
<no-speech>
[471.655]
<no-speech>
[475.015]
<no-speech>
[475.365]
<no-speech>
[485.085]
e Duygu gelecek mi Duygu'nun derste şeyi vardı <hes> (()) mı ne gideceğim diyordu
[490.525]
<no-speech>
[491.635]
on dokuz mayısı kutlama (()) çıkacağım diyordu
[494.295]
<no-speech>
[502.965]
<no-speech>
[504.325]
<no-speech>
[505.805]
ne anlamadım
[506.745]
<no-speech>
[515.375]
<no-speech>
[516.365]
<no-speech>
[519.865]
ha Duygu gelmeyecek sen gelmeyeceksin biz senin arkadaşlarınla mı takılacağız yani
[526.855]
<no-speech>
[528.425]
<no-speech>
[529.155]
<no-speech>
[534.785]
Duygu İstanbul'a gitmezse ya hayatı bitiyor ya
[537.365]
<no-speech>
[539.475]
<no-speech>
[540.025]
<no-speech>
[541.055]
<no-speech>
[541.535]
<no-speech>
[544.685]
<no-speech>
[545.085]
<no-speech>
[547.815]
nereye gidelim diyor Uludağ'a mı gidelim
[550.985]
<no-speech>
[553.555]
<no-speech>
[553.945]
<no-speech>
[554.785]
nereye gidelim diyor artık (()) peki
[557.005]
<no-speech>
[558.735]
gelsinler (()) parkında yapalım
[560.535]
<no-speech>
[562.465]
<no-speech>
[562.935]
<no-speech>
[568.305]
<no-speech>
[568.715]
<no-speech>
[570.255]
pardon ya Tümcan'la mı olacaksın sen
[572.675]
<no-speech>
[577.875]
Tümcan da mı olacak peki
[579.455]
<no-speech>
[580.675]
<no-speech>
[581.355]
<no-speech>
[582.805]
<no-speech>
[583.175]
<no-speech>
[585.675]
e ben konuşmadım (()) olacağını ne ile gidileceğini
[588.855]
<no-speech>
[589.695]
<no-speech>
[590.245]
<no-speech>
[596.005]
kaç kişi gidileceğini
[599.705]
<no-speech>
[599.92]
