[0.0]
<no-speech>
[2.575]
taksitlerini yatıracağım
[3.585]
<no-speech>
[8.645]
alo
[9.285]
<no-speech>
[10.665]
alo
[11.325]
<no-speech>
[12.565]
alo
[13.315]
<no-speech>
[14.365]
Meher abla
[15.265]
<no-speech>
[16.104875]
ne yapıyorsun
[17.055]
<no-speech>
[19.475]
alo
[20.205]
<no-speech>
[23.855]
geliyor geliyor sen beni duyabiliyor musun
[26.075]
<no-speech>
[27.025]
alo
[27.735]
<no-speech>
[29.185]
hı ne yapıyorsun
[30.085]
<no-speech>
[38.395]
<hes>
[39.455]
<no-speech>
[42.415]
<hes> <hes>
[44.965]
<no-speech>
[46.905]
ben de ne yapayım yılbaşında ne yaptın
[49.235]
<no-speech>
[54.255]
ilk defa şehir dışında mı istiyorsun
[56.145]
<no-speech>
[59.425]
<no-speech>
[59.775]
<no-speech>
[61.175]
(())
[62.925]
<no-speech>
[64.005]
<no-speech>
[64.425]
<no-speech>
[67.065]
<hes>
[67.905]
<no-speech>
[70.535]
<no-speech>
[70.945]
<no-speech>
[71.965]
<hes> sen de kursa gittin o kadar konuşsaydın
[74.825]
<no-speech>
[76.855]
sen de diyorum o kadar sen de o kadar kursa gittin
[81.805]
<no-speech>
[85.605]
etkisi olmuştur ama
[87.485]
<no-speech>
[89.385]
<hes>
[89.915]
<no-speech>
[95.465]
değil mi yani bire bir olunca daha farklı oluyor
[97.775]
<no-speech>
[103.375]
aynen hiç silinmeden
[104.855]
<no-speech>
[110.165]
<hes> erken geldin ama
[112.085]
<no-speech>
[114.625]
Meher abla
[115.595]
<no-speech>
[119.095]
valla en son bir iki ay önce gittik ya efendim
[122.805]
<no-speech>
[123.825]
geliyor mu sesim
[124.975]
<no-speech>
[126.845]
alo
[127.515]
<no-speech>
[128.424875]
<hes> geliyor mu tamam
[129.895]
<no-speech>
[130.985]
<hes> bu aralar pek gitmedik hiç ya Meher abla
[133.615]
<no-speech>
[136.505]
<hes> bu aralar hiç gitmedik ya yazın çok gidiyorduk
[139.675]
<no-speech>
[140.795]
çalışma şartları da yoğun ya
[143.235]
<no-speech>
[145.185]
valla son çıkanları ben de hiç bilmiyorum efendim
[148.905]
<no-speech>
[150.785]
<no-speech>
[151.355]
<no-speech>
[152.805]
<hes> telefondandır ya
[154.615]
<no-speech>
[157.915]
<hes> eniştem ne yapıyor
[160.015]
<no-speech>
[162.445]
valla hiç bilmiyorum ki Meher abla
[164.725]
<no-speech>
[166.995]
<no-speech>
[169.055]
<no-speech>
[171.115]
<hes>
[171.995]
<no-speech>
[178.055]
<hes>
[178.875]
<no-speech>
[182.405]
eniştem (())
[184.785]
<no-speech>
[186.435]
eniştem o yürüme bandında yürüme bandında eniştem yürüyebiliyor mu
[192.105]
<no-speech>
[193.175]
<hes>
[193.995]
<no-speech>
[198.945]
<hes> Seda (()) seçilmişti ya
[203.315]
<no-speech>
[204.835]
Seda (()) seçilmişti ya zor yürüdü oralarda
[207.945]
<no-speech>
[212.015]
evet
[212.765]
<no-speech>
[220.235]
<hes>
[221.065]
<no-speech>
[221.905]
aslında ilerle (())
[224.035]
<no-speech>
[226.175]
siz işleri evet
[227.665]
<no-speech>
[231.315]
yok ya ihtiyacım yok şu an için inşallah hiç olmaz
[234.495]
<no-speech>
[237.805]
tabi o da var
[238.855]
<no-speech>
[240.595]
<hes>
[241.475]
<no-speech>
[243.205]
doğru söylüyorsun
[244.575]
<no-speech>
[245.615]
(())
[245.985]
<no-speech>
[254.515]
<hes> ben de işte bu yeni (()) başladığımda çok zorlanıyordum
[259.665]
<no-speech>
[260.754875]
yeni iş yerine başladım ya orada çok zorlanıyordum sabah gidip gelirken Mecidiyeköy'de <hes>
[265.905]
<no-speech>
[268.015]
yürüme yolu var ya alışmıştım sabah servise kapıdan bin kapıda in
[272.095]
<no-speech>
[274.755]
hamlamıştı vücudum ayaklarım ağrıyordu ilk günler yürümekten
[278.795]
<no-speech>
[285.935]
valla öyle
[287.195]
<no-speech>
[289.565]
<no-speech>
[289.925]
<no-speech>
[291.765]
doğru
[292.315]
<no-speech>
[294.045]
değil mi <laugh>
[295.185]
<no-speech>
[296.395]
evet
[297.055]
<no-speech>
[298.315]
(())
[298.985]
<no-speech>
[302.415]
<laugh> hadi ya
[303.965]
<no-speech>
[305.205]
<no-speech>
[305.555]
<no-speech>
[310.805]
<hes>
[311.415]
<no-speech>
[313.325]
<no-speech>
[313.755]
<no-speech>
[316.345]
<hes> yapsın da gelip yiyelim şu an yapacak mısınız
[321.195]
<no-speech>
[329.195]
<hes> bugün yapacak mısınız haberimiz olsun da belki yeriz <hes>
[334.185]
<no-speech>
[335.905]
<no-speech>
[337.705]
<no-speech>
[340.505]
<hes>
[341.355]
<no-speech>
[347.895]
<hes> yaparım yaparım
[349.795]
<no-speech>
[350.735]
o da olur halam o eli için fizik tedaviye gidiyor mu
[354.775]
<no-speech>
[361.725]
<hes> bitti mi o
[362.905]
<no-speech>
[364.935]
yok halam için (()) halam eli için gidiyordu ya
[368.455]
<no-speech>
[369.495]
halam eli için gidiyordu ya
[371.365]
<no-speech>
[373.865]
<hes>
[374.745]
<no-speech>
[376.695]
iyileşti mi peki ağrısı iyi geldi mi
[378.865]
<no-speech>
[382.245]
<hes> iyi bari (())
[383.595]
<no-speech>
[386.495]
<hes> ben bir kere gördüm ya ikisi birden gitmişti <hes>
[391.145]
<no-speech>
[392.915]
<hes> gördüm gördüm <laugh>
[394.675]
<no-speech>
[400.165]
başta alacaksın önlemini
[401.605]
<no-speech>
[408.315]
o bizim mi hiç bilmiyorum ya
[411.155]
<no-speech>
[413.165]
Ümraniye değil mi yok valla bilmiyorum
[415.555]
<no-speech>
[416.675]
tabi tabi ikiden fazla mhm <prompt> ikimize de tabi
[421.695]
<no-speech>
[423.235]
çok pahalı salonlarda
[424.925]
<no-speech>
[425.825]
her şeyi işte gelin başı içinde araba süslemesi içinde bir de <no-speech> o kadar kuaförle <no-speech> <hes> oda kuaföre oraya aitmiş salona ait
[437.065]
<no-speech>
[438.335]
<hes> fiyatın içinde evet
[440.885]
<no-speech>
[441.995]
araba süslemesini de onlar yapacak
[443.635]
<no-speech>
[445.375]
<hes> araba süslemesi de onların
[447.595]
<no-speech>
[448.765]
<hes> kuaför o salona yakın bir yerde
[451.075]
<no-speech>
[458.255]
o fiyata zaten dahil olmuştur ona göre fiyat koymuşlar
[461.905]
<no-speech>
[465.515]
bakalım üç ay kaldı ona da
[467.185]
<no-speech>
[468.755]
yatak odalarına bakıyorlar şimdi de <hes>
[471.845]
<no-speech>
[474.215]
üç ay kaldı
[475.535]
<no-speech>
[477.225]
geçen Ümitle baktık yatak odaları takımlarına baktık bir tane beğenmiştim İstikbalde içleri kullanışlı değil dolapların içi çekmece yok içlerinde sadece askılık
[489.175]
bir de raf var valla yatağı falan hepsi içinde üçü buluyor üç buçuk milyon üç buçuk milyar üç buçuk
[497.125]
<no-speech>
[498.625]
ama hepsi içinde başlığı yatağı bazası yatağı ile beraber
[502.725]
<no-speech>
[506.435]
<hes> şey de almayı düşünüyoruz da zaten T_V ünitesi de alınacak salona
[510.955]
<no-speech>
[511.795]
T_V ünitesi salon için büyük şimdi onu da oradan alırsak eğer beş milyarı buluyor beş milyarlık alışverişe de televizyon hediye ediyorlarmış elli altı ekran L_C_D
[521.975]
<no-speech>
[524.345]
<hes> taksitle
[525.535]
<no-speech>
[527.445]
<hes> (()) taksitle aydan aya ödeyeceğim artık
[530.105]
<no-speech>
[532.685]
yani ne zaman biterse
[534.825]
<no-speech>
[537.395]
mecbur öyle olacak yani zaten üç ay kaldı üç ay içinde peşin ödeme yapamayız
[542.315]
<no-speech>
[549.415]
<hes>
[550.185]
<no-speech>
[551.445]
(()) havalar nasıl
[556.865]
<no-speech>
[561.085]
değil mi sokaklarda durmaktan
[563.145]
<no-speech>
[565.515]
<hes> bu kaçıncı gidişin senin oraya
[568.555]
<no-speech>
[576.845]
<hes>
[577.405]
<no-speech>
[579.765]
otelde kaldınız değil mi
[581.375]
<no-speech>
[588.485]
kaç gün kaldın orada sen
[590.445]
<no-speech>
[594.435]
<hes> vardır tabi
[595.845]
<no-speech>
[597.515]
kaç gün (())
[598.985]
<no-speech>
[599.98]
