[0.0]
<no-speech>
[1.035]
<no-speech>
[3.885]
<no-speech>
[4.715]
<sta> oh Mesut abi ne yapıyorsun
[9.305]
<no-speech>
[10.975]
alo
[11.645]
<no-speech>
[12.925]
iyi şükür abi ya ne yapalım işte dük- <no-speech> dükkandayım çalışıyorum işte ya sen ne yapıyorsun iyi misin
[18.815]
<no-speech>
[24.175]
he arayacağım abi
[26.475]
<no-speech>
[27.985]
<sta> ne yapıyorsun (()) <sta> kapatıyım mı abi
[33.175]
<no-speech>
[37.635]
yok abi bir şey söylemedi ya
[39.655]
<no-speech>
[42.425]
alo
[43.195]
<no-speech>
[45.035]
hı aynen aynen geçili (())
[46.965]
<no-speech>
[48.075]
komple temizledim hallettim abi ya sıkıntı olmaz ya
[51.215]
<no-speech>
[52.415]
sen ne yaptın evdeki otları kendine geldin mi
[54.835]
<no-speech>
[60.385]
<int> ha şey abi Mehtap ta- şeyi söyled iya
[64.205]
<no-speech>
[65.905]
<hes> şey Fatma şimdi Fat- Fadime Dilan'ı bekliyor ya hani
[70.635]
<no-speech>
[74.415]
ı- ı- dedi ki işte dedi şey Fadime'yi şi- (()) de dedi Dilan'la ortak arkadaş ya dedi prim yaptığımızı sağla falan filan dedi aramızı yapmaya falan çalışmayız dedi
[83.635]
<no-speech>
[88.605]
abi o dedi ki <no-speech> Dilan (()) Mesut abiye söyleyin şeyi silsin Fadime'yi silsin dedi çünkü dedi şeyle Dilan'la ikili olduğu için ortak arkadaş
[98.905]
ortak arkadaş gözüküyor ya bu sefer zanneder ki Mehtap la- Dilan dedi işte onlara o söyledi belki falan filan gibisinden muhabbetler çıkar kesin dedi
[107.175]
<no-speech>
[110.005]
aynı abi
[110.885]
<no-speech>
[112.415]
mhm aynen yok yok bende Şener dedim
[115.365]
<no-speech>
[119.855]
hı hı
[120.495]
<no-speech>
[123.105]
ya abi <no-speech> cadde caddeye gelirim orada izleriz beraber abi olmaz mı
[127.985]
<no-speech>
[131.035]
he
[131.605]
<no-speech>
[138.105]
tamam abi geliriz ya beraber (()) belki bir iki bir şey içeriz ya canım sıkılıyor zaten
[143.235]
<no-speech>
[144.225]
<sta> seksen
[146.205]
<no-speech>
[148.275]
seks te- şey var abi ya
[150.045]
<no-speech>
[152.555]
he şey diyeceğim face'te e şey var kurbağa muhabbeti felan filan var ona mutlaka katılman lazım ya
[159.825]
<no-speech>
[160.635]
<sta> cici ku- <no-speech> cici kurbağaların falan muhabbetleri
[164.705]
<no-speech>
[169.745]
tamam abi
[170.755]
<no-speech>
[174.215]
tamam
[174.885]
<no-speech>
[176.665]
tamam oldu abi
[177.795]
<no-speech>
[180.495]
he anladım abi
[181.875]
<no-speech>
[184.455]
anladım abi
[185.395]
<no-speech>
[190.855]
yani abi <int> güzel olur bayağıdır oturmuyorduk zaten
[194.905]
<no-speech>
[196.515]
he
[197.235]
<no-speech>
[199.205]
<no-speech>
[199.635]
<no-speech>
[202.675]
aynen aynen abi
[203.885]
<no-speech>
[205.265]
tamam abi
[206.205]
<no-speech>
[210.785]
<breath> ya şey şimdi sen hani Dilan'ı istedin ya
[213.615]
<no-speech>
[215.615]
şey sen Dilan'la ortak arkadaş ya sen ya şimdi Fadime Dilan'la da ekli ya abi
[220.405]
<no-speech>
[223.125]
Fadime Fadime Dilan'da ekli olduğu için
[225.585]
<no-speech>
[226.485]
<breath> o şey sence şey (()) ekli o (()) gözüküyorsunuz ya abi
[232.235]
<no-speech>
[233.275]
Mehtap ta- diyor ki Fatma Fadime'de zanneder ki bizim yaptırdığımızı falan zanneder diyor
[238.345]
<no-speech>
[240.895]
o muhabbet yani
[242.075]
<no-speech>
[243.395]
aynen abi
[244.445]
<no-speech>
[248.505]
<hes> abi ya simdik Mehtap'la biz bu sefer zanneder bizden sanar falan filan sandı öyle şey yapar biraz cinsmiş ya ben de tamam dedim söylerim dedim
[257.304875]
<no-speech>
[263.485]
tamam <laugh> iyi tamam oldu abi <no-speech> ney
[267.245]
<no-speech>
[268.155]
he
[268.895]
<no-speech>
[270.655]
he traşa geldi ya aynen aynen traşa geldi abi
[274.565]
<no-speech>
[278.285]
otuz sekize olmuş abi
[280.005]
<no-speech>
[281.785]
ot- otuz sekiz milyon para vermiş aynen abi <int>
[285.625]
<no-speech>
[286.705]
bir milyar <hes> he <no-speech> her ay bin bin ödeyecekmiş ya senin daha güzel bir araba alırsın da Megane varmış bu kısa şey var ya Gökhan abinin arabasından
[295.115]
<no-speech>
[297.345]
alamamış onu <no-speech> Gökhan abinin arabasından alacakmış onda da adamla anlaşamamış o yüzden sıkıntı oldu abi <no-speech> öyle yani
[306.305]
<no-speech>
[309.035]
ney
[309.835]
<no-speech>
[314.145]
<breath> yok işte aylık bin bin ödeyecekmiş abi
[318.235]
<no-speech>
[319.395]
kredi çekmiş herhalde bilmiyorum ki <no-speech> kredi çektiler herhalde
[322.545]
<no-speech>
[323.785]
<breath> yani kredi çekmiştir büyük ihtimal
[325.895]
<no-speech>
[327.585]
<breath> hı demek ki
[329.135]
<no-speech>
[330.605]
yani zaten Cemil'de o işin içinde
[333.025]
<no-speech>
[334.915]
<no-speech>
[336.845]
<no-speech>
[338.115]
ya çok vermiş abi otuz sekiz milyar ne demek bir ev alırsın ya <no-speech> ama tamirden sıkıldım diyor (())
[346.255]
araba geliyor diyor götürüyorum şantiyeye araba geliyor götürüyorum şantiye diyor yani anladın mı abi
[351.535]
<no-speech>
[354.025]
öyle yani
[354.805]
<no-speech>
[356.355]
efendim
[357.265]
<no-speech>
[362.885]
şey değil mi yani
[364.175]
<no-speech>
[370.205]
ya abi işte <no-speech> seksen yüz lira bir şey yazıyor
[373.365]
<no-speech>
[375.945]
öyle yani
[376.775]
<no-speech>
[381.925]
yani tabi öyle de
[383.405]
<no-speech>
[386.785]
ney abi
[387.755]
<no-speech>
[389.025]
<click>
[389.385]
<breath> <lipsmack>
[394.595]
yani abi
[395.605]
<no-speech>
[398.225]
yani abi aynı
[399.495]
<no-speech>
[402.295]
ya
[402.925]
<no-speech>
[403.805]
evet tamircide yaptırdım (())
[406.285]
<no-speech>
[407.585]
ne zaman müşteriden gelse diyor tamire götürüyorum diyor arabayı şöyle böyle diyor
[411.565]
<no-speech>
[418.075]
yani
[418.965]
<no-speech>
[423.015]
aynen abi aynen aynen
[424.465]
<no-speech>
[425.605]
aynen
[426.305]
<no-speech>
[428.505]
aynen abi
[429.605]
<no-speech>
[431.175]
iyi ne yapsın o da abi aynı dükkanda çalışıyor dükkanda işte çalışıyor bildiğin gibi
[436.145]
<no-speech>
[438.255]
Murat abi ne yaptı
[439.515]
<no-speech>
[440.655]
yok yok bir şey demedi yani iyiydik şey diyeceğim Murat abi Murat abi ne yapacak on bini verecekmi
[446.005]
<no-speech>
[448.245]
<no-speech>
[448.685]
<no-speech>
[449.945]
Murat abi diyorum on bini verebilecekmi peki arabayı değiştirecek mi
[453.175]
<lipsmack> <breath>
[454.905]
Murat abi arabayı değiştirecek mi <no-speech> e- hı anladım abi
[460.495]
<no-speech>
[461.295]
<no-speech>
[462.265]
<breath> <lipsmack>
[468.315]
he hı
[469.285]
<no-speech>
[472.125]
anladım abi
[473.185]
<no-speech>
[474.225]
anladım abi
[475.265]
<no-speech>
[477.205]
iyi ya hayırlısı ya <no-speech> o ya <no-speech> ney
[481.565]
<no-speech>
[483.935]
ney abi
[484.795]
<no-speech>
[487.375]
kimi aramış
[488.375]
<no-speech>
[491.075]
hangisi abi
[492.295]
<no-speech>
[494.965]
bilmiyorum ki abi
[496.175]
<no-speech>
[499.575]
valla hiç bilmiyorum ki abi
[502.225]
<no-speech>
[503.835]
he
[504.365]
<breath> <lipsmack>
[506.685]
<click> hı
[508.355]
<no-speech>
[511.215]
anladım abi <click>
[513.715]
<no-speech>
[516.505]
ney abi
[517.525]
<no-speech>
[518.715]
he abi
[519.655]
<no-speech>
[525.425]
tamam abi oldu
[526.735]
<no-speech>
[530.565]
<sta> tamam oldu abi
[532.125]
<no-speech>
[541.545]
<sta> maç kaçta abi
[543.125]
<no-speech>
[551.735]
<hes> bakıyım müşteri olamazsa çıkar gelirim abi
[556.115]
<no-speech>
[556.965]
<breath> <lipsmack> <hes> dükkan kalabalık olmazsa çıkar gelirim ama dükkan kalabalık olursa gelemem
[562.985]
<no-speech>
[565.215]
aynen
[565.875]
<no-speech>
[567.14]
