[0.0]
<no-speech>
[5.645]
alo
[6.375]
<no-speech>
[8.975]
alo
[9.805]
<no-speech>
[10.855]
ne yapıyorsun ya bir sorun var da bir sorun var onunla ilgileniyorum
[15.585]
<no-speech>
[17.785]
alo
[18.625]
<no-speech>
[20.305]
ya sorun <laugh> benim <int> benim çocuklarla ilgili birbirine girmişler herhalde <sta> <no-speech> onunla i- <no-speech> nasıl
[30.555]
<no-speech>
[32.955]
alo duyuyor musun beni
[34.425]
<no-speech>
[35.815]
ya şey <hes> Doğan'la Umut Doğan'la Umut birbirine girmişler tartışıyorlar da
[41.415]
<no-speech>
[43.925]
aralarında ne var bilmiyorum kafalarına vuracağım biraz
[48.335]
<no-speech>
[52.005]
sen nerdesin
[53.125]
<no-speech>
[57.885]
araba işi bende sen rahat ol en fazla bir milyar zararım olur o da sana dokunmaz yani
[65.594875]
<no-speech>
[67.675]
bir insanı etkileyecek hali yok bu kadar paranın bir akşam fazla çalışırsın
[72.415]
<no-speech>
[79.075]
bundan sonra da olmaz olmaz <laugh> sen rahat ol yılların altı yılın şoförü var burada <no-speech> tabi altı yıldır kullanmıyoruz ama neyse <breath>
[87.955]
<no-speech>
[89.425]
o bakalım gidebilecek
[91.085]
<no-speech>
[92.015]
ney
[92.615]
<no-speech>
[93.445]
<click>
[93.915]
<no-speech>
[95.105]
ben mi <hes>
[96.465]
<no-speech>
[97.465]
ne zamandır iki aydır kullanmıyorum işte
[100.455]
<no-speech>
[102.825]
çok olmadı çok olmadı <laugh> (()) çok olmadı yani
[109.055]
<no-speech>
[114.295]
kampanyadan ya kampanyadan satın almış o
[118.275]
<no-speech>
[120.615]
nasıl
[121.365]
<no-speech>
[125.955]
(()) uzun sürmedi ki şimdiye satın almış kampanyayı hani bu zamana benim doğum günümdü ya geçen gün hani ona karşılık bir (()) şey yapmak için satın almış
[138.155]
<no-speech>
[139.835]
ondan dolayı şimdi gitti
[141.655]
<no-speech>
[144.095]
(()) mhm yarın yoğun bir çalışma var söylediler bana ama bilmiyorum nasıl olacak nasıl gideceğiz
[151.645]
<no-speech>
[156.415]
yeni bir çalışma varmış herhalde
[159.155]
<no-speech>
[160.695]
onu (())
[162.055]
<no-speech>
[163.645]
nasıl
[164.305]
<no-speech>
[166.295]
söylemiştim ben hani <no-speech> nasıl
[169.495]
<no-speech>
[171.865]
alo
[172.565]
<no-speech>
[173.865]
ya dedim ben ona hani
[176.065]
<no-speech>
[177.405]
tamam ben dedim zaten hani şey diye <hes> bir on beş tane falan yapılacakmış (()) öğlene kadar yapıp <breath> bitirecektin şimdi diyor ki
[187.835]
kesin değil ama diyor başka bir şey daha yapabiliriz diyor ondan sonra onu olursa diye haber vereceğim sana
[196.535]
<no-speech>
[200.925]
nasıl
[201.615]
<no-speech>
[207.415]
anlamadım dediğini
[208.725]
<no-speech>
[214.365]
hı ben dedim ki konuşuruz yani şey yap da ben hani konuşmuştur seninle dedim ona
[219.455]
<no-speech>
[220.935]
bakalım arayacak işte daha belli değil
[223.525]
<no-speech>
[224.345]
(()) <int> sen neredesin şeyde misin Gaziosmanpaşa'da mısın
[230.045]
<no-speech>
[231.585]
kim var (())
[232.835]
<no-speech>
[238.725]
hacı (())
[242.615]
<no-speech>
[247.295]
hı tamam
[249.025]
<no-speech>
[252.125]
<no-speech>
[252.665]
<no-speech>
[253.735]
tabi ki şu an öyle
[255.155]
<no-speech>
[264.855]
<sta> (()) sıkıntı olmaz onda ya geçmişimizde var öyle alıp verdiğimiz alıp sattığımız falan
[273.715]
<no-speech>
[279.725]
<no-speech>
[280.245]
<no-speech>
[281.805]
bir şey olmaz ya alırız en fazla bir iki çiziği olur o kadar
[288.125]
<no-speech>
[289.155]
şeyin garantisi var bende bir şey olmaz da biri falan bir şey yapar mı onu bilmiyorum
[294.605]
<no-speech>
[298.255]
yok yok şaka diyorum hani sana iptal edeceğine arabayı yolda kaldı
[302.575]
<no-speech>
[308.735]
<no-speech>
[314.895]
tamam ben bakıyorum ya zaten renkli karton almadın (())
[319.925]
<no-speech>
[322.005]
herhalde adamın kişisel arabasıysa öyle kırık dökük değildir arabası yani <ring>
[327.935]
<ring>
[333.085]
<no-speech>
[334.005]
<no-speech>
[335.545]
hı dayı (()) sayılırız zaten senin sayende
[339.155]
<no-speech>
[348.055]
<no-speech>
[348.425]
<no-speech>
[352.675]
he tamam ben de şey diyeyim mi yarın o zaman ben Adem Çakır
[356.545]
<no-speech>
[357.805]
<no-speech>
[358.175]
<no-speech>
[359.305]
<no-speech>
[359.685]
<no-speech>
[363.045]
<no-speech>
[365.395]
<no-speech>
[366.845]
<no-speech>
[367.195]
<no-speech>
[370.375]
ne olacaktık
[371.565]
<no-speech>
[382.155]
hı ben almış gibi davranayım yok ben şey diyeceğim Recep istiyor Recep'e (()) bir şey olursa olur da diyecek şimdi arabayı ben sana vermiştim
[389.965]
<no-speech>
[391.855]
ben oradan direk olayı senin üstüne yıkayayım yani hazırlayayım kılıfını olayın
[396.065]
<no-speech>
[400.685]
<no-speech>
[401.545]
<no-speech>
[403.125]
nereyi <int>
[405.135]
<no-speech>
[409.195]
hı gideriz herhalde ya
[411.275]
<no-speech>
[412.655]
tam bilmiyorum Şile üzerinden gidiliyormuş herhalde
[415.655]
<no-speech>
[418.145]
şeyde int- (()) internette o o şekilde yazıyor ik- <hes> ikinci köprüden <breath> girdikten sonra Şile yolunu takip edin diyor <int>
[428.835]
<no-speech>
[429.675]
doğru
[430.695]
<no-speech>
[435.935]
<no-speech>
[436.455]
<no-speech>
[438.415]
Allah Allah
[439.365]
<no-speech>
[441.145]
o derece kötü bir yer mi yani
[443.125]
<no-speech>
[449.525]
<no-speech>
[450.025]
<no-speech>
[452.065]
<no-speech>
[452.435]
<no-speech>
[453.945]
hı bilmiyorum dikkat ederiz ona ya
[457.915]
<no-speech>
[465.935]
yok
[467.715]
<no-speech>
[469.365]
biz biz zaten şeye gideceğiz ya gündüz erkenden gideceğimiz için sorun olacağını zannetmiyorum
[475.915]
<no-speech>
[476.765]
hani gidip de öyle planlıyoruz yani akşama kalmasın <no-speech> nasıl ya bilmiyorum ki hiçbir şeyi her şeyi her şeyi Elif ayarlamış bilmiyorum yani
[487.275]
<no-speech>
[492.505]
öyle yani cepten para çıkmayacak diyor ama bakalım
[496.865]
<no-speech>
[502.195]
(()) alırım ondan yani
[505.895]
<no-speech>
[507.285]
ilk etapta ben veririm ama alacağız yani
[510.245]
<no-speech>
[511.815]
ney
[512.434875]
<no-speech>
[516.514875]
ileriyi alacağız zaten paramızı verin artık
[518.885]
<no-speech>
[521.305]
<breath> se- se- <hes> sana da yandan bir oda tutup
[524.735]
<no-speech>
[530.745]
bizim mi
[531.645]
<no-speech>
[532.945]
<no-speech>
[535.545]
<no-speech>
[536.635]
(()) bu kadar maliyetlerle sunulacak (())
[544.585]
<no-speech>
[545.615]
(()) oraya gitmek istiyor Ağva'ya
[550.375]
<no-speech>
[557.99]
<no-speech>
[565.605]
ya öyle ya (())
[570.985]
<no-speech>
[575.785]
o şeyden dolayı ya (()) illa Ağva'ya gidelim muhabbeti (()) ben tamam gidelim gidelim deyip geçiştiriyordum biliyordum öyle masraflı olduğunu o şey dedi sonra tamam ben ayarladım (())
[593.255]
<no-speech>
[600.36]
