[0.0]
<no-speech>
[0.755]
<no-speech>
[3.075]
<no-speech>
[5.525]
alo
[6.315]
<no-speech>
[7.725]
alo
[8.895]
<no-speech>
[9.885]
hı iyi canım doğru yaptım galiba ya alo
[12.335]
<no-speech>
[15.285]
alo
[15.895]
<no-speech>
[17.765]
mhm evet yeni telefon aldı ses- sesim geliyor mu sana <int>
[21.705]
<no-speech>
[23.605]
alo
[24.195]
<no-speech>
[28.975]
hı beni neden (()) neden sürekli arıyor diyorsun <laugh> alo
[33.165]
<no-speech>
[34.265]
<no-speech>
[34.925]
<no-speech>
[36.445]
şu anda geliyor mu sesim
[37.725]
<no-speech>
[39.705]
benim sesim net (()) <no-speech>
[44.615]
telefonu daha yeni aldım ya cumar- cumartesi hafta sonu aldım
[49.075]
<no-speech>
[53.495]
vallahi pahalı biraz ya boş ver fiyatını ne yapacaksın
[56.075]
<no-speech>
[59.105]
pahalı pahalı sesim <no-speech> <hes> bu arada sesim sana ge- geç geliyor farkındasın değil mi bana çok geç cevap veriyorsun
[68.095]
<no-speech>
[71.615]
yani ben sana konuşuyorum sen ben konuştuktan yirmi saniye sonra cevap veriyorsun
[77.215]
<no-speech>
[82.585]
aşkımla konuştum mhm sadece şeyi konuştuk ama mhm tarihi belirledik bu Ağva konusundaki akşam oturduk muhabbet ettik çay içtik
[93.285]
mhm öyle televizyona baktık öyle geçti işte vakit <no-speech> hı
[97.825]
<no-speech>
[101.125]
hı ben eve gittiğimde saat bir buçuktu
[105.005]
<no-speech>
[108.715]
öyle oturdum yok yatmadım kıyafetim filan yoktu orada
[113.155]
<no-speech>
[115.215]
hı
[115.765]
<no-speech>
[119.435]
sen çıktığında oraya gittim ama orada kalmadım
[121.325]
<no-speech>
[122.935]
mhm şey mhm yok orada kalmadım üstüm başım yoktu yoksa kalırdım aslında da
[129.224875]
<no-speech>
[130.545]
üstüm başım yoktu o yüzden kalmadım geri eve çıktım araba da vardı kapıda
[134.285]
<no-speech>
[135.445]
ne dedi
[136.155]
<no-speech>
[138.815]
hı
[139.265]
<no-speech>
[141.215]
hı hı evet evet duydum
[143.225]
<no-speech>
[144.755]
giydim ya <laugh>
[147.515]
<no-speech>
[148.365]
başka bir şey ya
[149.535]
<no-speech>
[152.395]
<laugh> sen çıktığında hiçbir yere ne olacaktı
[156.155]
<no-speech>
[158.595]
Yener'e ba- he Taner'e mi baktın
[160.975]
<no-speech>
[169.495]
<laugh> nerelere baktın peki
[171.975]
<no-speech>
[176.045]
hangi otellere baktım dedin
[177.565]
<no-speech>
[179.225]
(()) güzel olmuyor biliyor musun
[181.425]
<no-speech>
[188.605]
<no-speech>
[195.785]
hı
[196.325]
<no-speech>
[198.145]
hı dene bakalım ya belki bilmiyorum benim bir haftam var da nasıl yapacağız bilmiyorum planını yaparız hafta sonu geldiğimizde (()) Şeyma'yla konuştun mu sen ne diyor senin (())
[209.895]
(())
[210.295]
<no-speech>
[212.575]
hı hı gelir konuşayım da onunla bakıyım hı hı gelir gelir gelecek daha doğrusu hı
[219.195]
<no-speech>
[220.525]
ah onu (())
[222.335]
<no-speech>
[223.435]
ya ben bana kalırsa çağırmıyorum da Taşkın arayalım diyor ikide bir bende ara dedim tamam o zaman bir arayıp da sorsun inşallah gelmez
[231.805]
<no-speech>
[235.425]
ya Taşkın uğrayacak çağıracaksınız değil yani ben hiç istemiyorum
[238.445]
<no-speech>
[244.035]
yani Taşkın mhm ayıp olur diyor daha önce
[246.715]
<no-speech>
[248.445]
mhm Taşkın daha önce Gülçin'e söylediği için mhm çağırmazsam ayıp olur diyor tamam o zaman dedim bende ara bakalım dedim ama yani açıkçası hiç gelmesini istemiyorum
[259.715]
<no-speech>
[260.535]
tadım kaçacak yine orada gelirse
[262.795]
<no-speech>
[266.115]
eh Taşkın'a söyledim ben ama Taşkın ayıp olur diyor illaki arayacak
[269.585]
<no-speech>
[271.575]
mhm
[272.185]
<no-speech>
[275.225]
yok canım ya benim niye kırılıyor ağzını burnunu kırarım olur biter yani
[280.215]
<no-speech>
[284.895]
yok yok canım korumamış ne koruması ya deli misin
[287.595]
<no-speech>
[288.425]
Allah Allah ama ikide bir laf çarpıyor
[291.585]
<no-speech>
[293.745]
olmasın zaten ya
[295.105]
<no-speech>
[301.025]
olmasın olmasın ya (()) aynen
[304.155]
<no-speech>
[306.415]
aynen öyle
[307.415]
<no-speech>
[308.725]
aynen öyle ya kendini ayarlarsan iyi olur ya
[312.455]
<no-speech>
[313.885]
ne zaman belli olacak peki
[316.755]
<no-speech>
[325.205]
hı hı
[326.885]
<no-speech>
[330.755]
<laugh> ya sen evet sen Senalara bir git de <hes>
[334.645]
<no-speech>
[335.915]
ben ben tanışmıyorum da
[337.965]
<no-speech>
[339.435]
senin bilmiyorum anlamadım ne dediğini
[341.725]
<no-speech>
[347.945]
<no-speech>
[354.165]
mhm
[354.805]
<no-speech>
[357.545]
ya canım olur mu canım biz dedik ya size <no-speech> ta- kaç hafta önce <hes> bundan önceki hafta söyledik biz size cumartesi günü yapacağız diye
[365.415]
<no-speech>
[371.995]
mhm bunu biz size daha önce söyledik hiç boşta kalır mıydın yani
[377.705]
<no-speech>
[385.525]
<no-speech>
[393.345]
hı biliyorum biliyorum
[395.325]
<no-speech>
[403.035]
<no-speech>
[403.435]
<no-speech>
[404.855]
hı
[405.635]
<no-speech>
[406.755]
inşallah alır izin ya alamazsa da artık valla en kötü ihtimalle sen ben Taşkın otururuz yani ne olmuş yakarız mangalımızı
[414.375]
<no-speech>
[416.045]
Serhat'ta gelir otururuz dört- dördümüz
[418.535]
<no-speech>
[420.295]
hı
[421.735]
<no-speech>
[425.855]
hı evet (()) aramadı şimdi alırız cuma gününden önce
[431.575]
<no-speech>
[432.635]
hı
[433.115]
<no-speech>
[438.475]
<no-speech>
[439.185]
<no-speech>
[440.235]
aynen öyle ya güzel olur orada senin haberin yok ya bahçesi de var aslında evin
[444.515]
<no-speech>
[449.525]
<no-speech>
[449.905]
<no-speech>
[452.225]
<no-speech>
[454.585]
<no-speech>
[457.475]
<no-speech>
[457.825]
<no-speech>
[459.285]
<laugh> ama telefon (()) yani lise hayatımızda uzun uzun (())
[466.475]
<no-speech>
[468.375]
ben şey mhm lise hayatımızda büyük bir yer kaplar (()) köpeği öldüren cano paramız yok ki paramız bir tek ona yetiyordu cano ne yapalım
[477.915]
<no-speech>
[479.915]
yo yani dört beş kişiye o <hes> şey yapıyorum kefilim yani
[484.895]
<no-speech>
[487.255]
ya
[487.735]
<no-speech>
[490.215]
<laugh> ne kadarmış
[492.275]
<no-speech>
[493.685]
<hes> hangisini beğendin beğendiğiniz bir şey varsa alırız onu
[497.055]
<no-speech>
[500.765]
he yani al- yoksa alacağım
[502.915]
<no-speech>
[504.335]
yok benim değil o
[505.665]
<no-speech>
[507.505]
<no-speech>
[508.335]
<no-speech>
[511.894875]
<no-speech>
[514.495]
<no-speech>
[516.715]
niye
[517.415]
<no-speech>
[518.795]
Allah Allah yoksa Migros'ta biri mi var acaba
[521.795]
<no-speech>
[527.795]
Mig- Migros'ta diyorum biri mi var acaba
[530.435]
<no-speech>
[531.815]
<no-speech>
[532.175]
<no-speech>
[533.115]
Migros'ta diyorum Semra için özel biri mi var
[535.885]
<no-speech>
[538.285]
<no-speech>
[538.635]
<no-speech>
[539.945]
<no-speech>
[541.705]
<no-speech>
[543.655]
(()) Allah'ım ya <hes> şey diyeceğim Semra <hes> pe- peki Semra şarap içecek miymiş
[550.415]
<no-speech>
[554.215]
Semra şarap içecek miymiş cuma akşamı alırsak
[557.575]
<no-speech>
[561.275]
<no-speech>
[582.115]
öyle birer kadeh içeriz ya yani şimdi Taşkın'da içmez Semra da içmezse diyorum sen sen her türlü geleceksin cano
[592.765]
<no-speech>
[593.575]
sen her türlü geleceksin gerisi teferruat
[596.425]
<no-speech>
[600.22]
