[0.0]
<no-speech>
[3.795]
alo
[4.355]
<no-speech>
[6.795]
alo alo <no-speech> hı nasılsın ağabey <no-speech> evet benim benim nasılsın
[12.405]
<no-speech>
[14.045]
iyi ya ne yapalım (())
[15.535]
<no-speech>
[18.285]
hı <hes>
[19.225]
<no-speech>
[20.365]
iyi (()) nasıl gitsin işte ağabey ya
[22.395]
<no-speech>
[23.585]
ne yapalım işte işe geldik şimdi birazdan (()) <no-speech> hı sen ne *yapıyorsun*
[27.915]
<no-speech>
[31.335]
hı gittin mi işe
[32.565]
<no-speech>
[37.665]
hı hı
[38.235]
<no-speech>
[42.165]
hı <no-speech> hı (()) bugün son he
[44.775]
<no-speech>
[46.195]
hı sınav ne zaman
[47.395]
<no-speech>
[50.315]
he
[50.795]
<no-speech>
[53.545]
hı belli değil mi ymiş günü
[54.935]
<no-speech>
[57.005]
hı <no-speech> anladım anladım e iş nasıl gidiyor
[60.785]
<no-speech>
[63.105]
hı valla onu da bilmem ya söylerler ama sana veya sorsana bugün işte ne zaman yapacağını
[67.555]
<no-speech>
[74.335]
hı postaneye yatırmıyorlar mı T_C'nle
[76.785]
<no-speech>
[81.965]
(())
[82.465]
<no-speech>
[85.245]
hı iyiymiş <click> bir sorun yok <no-speech> <cough> iyi iyi güzelmiş ya ne kadar (()) peki
[90.215]
<no-speech>
[95.545]
hı iyi iyi ya yapsın takılırız
[97.455]
<no-speech>
[103.205]
hı *harcayacak* *mısın* o kadar ya günlük
[104.975]
<no-speech>
[106.255]
günlük *harcıyor* *musun* o kadar
[107.615]
<no-speech>
[109.965]
valla iyi benim ya ne yapalım çalışıyoruz ediyoruz işte ya dün öyle iddiayı tutturduk
[113.985]
<no-speech>
[118.135]
hı aynen öyle o kadar alacağım iyi oldu ama ya <cough> hı gece kuponu vardı ya
[122.875]
<no-speech>
[123.795]
gece kuponu sabah (()) M_B_A'lere ikisi gelmişti Fener'le Napoli gelmişti <cough> <no-speech> M_B_A'e baktım <no-speech> <hes> işte bi- iki maç daha gelmiş bir maçta yüz doksan beş sayı lazımdı yüz doksan üç sayı olmuş
[136.595]
<no-speech>
[139.285]
(()) <no-speech> hı iki sayı iki sayı atamamışlar yani ya şans dedik ya ne yapalım
[144.275]
<no-speech>
[145.695]
aldınız (())
[146.875]
<no-speech>
[148.875]
o da veriyordu ya iyiydi
[150.285]
<no-speech>
[156.145]
aynen öyle ya bakalım bugün bakarız
[158.395]
<no-speech>
[162.105]
hı
[162.695]
<no-speech>
[164.185]
hı sen de (()) *diyorsun* he
[165.975]
<no-speech>
[168.765]
yani şans ya öyle tek tek gidiyor hep <no-speech> <cough>
[172.145]
<no-speech>
[172.945]
bakalım ne olacak <int> ya
[174.505]
<no-speech>
[177.705]
aynen öyle ağabey ya
[179.215]
<no-speech>
[180.395]
hı şu an iş yerindeyim birazdan çıkacağım buradan işte <int> şey Güneştepe'ye gideceğim Güngören'e
[185.915]
<no-speech>
[187.895]
hı dün de oradaydım da dün (()) <click> dün de oradaydım da bilerek çıkmadım işe dün <no-speech> kaçtım dün <laugh>
[194.655]
<no-speech>
[195.475]
<no-speech>
[195.955]
<no-speech>
[196.805]
bakalım (())
[198.035]
<no-speech>
[201.395]
öyle ya (()) şimdi <no-speech> aynen kahvaltı falan yaparım anca giderim bir takılırım dört beş yapar gelirim yani
[208.395]
<no-speech>
[209.265]
<cough> <no-speech> ya evrak evrakları da <click> hazırladık <no-speech> şey buranın adresini falan aldım işte şey de yapacağım şimdi bankadan hesap da açacağım Garanti'den <cough> <no-speech> evrakları (())
[220.825]
<no-speech>
[222.385]
şey Yapı Kredi'de vardı Garanti'de yoktu ya
[224.625]
<no-speech>
[226.845]
bir o kaldı işte geri kalan bütün evrakları dün hazırladım işte
[229.895]
<no-speech>
[231.545]
onu vereceğim sabıka kaydını (())
[234.075]
<no-speech>
[234.915]
<hes> sabıka kaydında nasıl millet beklerken ben (())
[238.325]
<no-speech>
[239.875]
millet bekliyordu ben nasıl beklemedim <no-speech> <laugh> <no-speech> yani (())
[245.025]
<no-speech>
[246.585]
<cough> ay sorma ya o kadar tam ucu ucuna gittik
[249.795]
<no-speech>
[250.735]
<laugh> yok yengem hallederdi ya yine sorun olmazdı görmedin mi benim önümdeki adam kaç (())
[256.575]
<no-speech>
[257.845]
<cough> <no-speech> yengem olmasa bin kişiyi <int> bekleyeceğiz
[260.395]
<no-speech>
[261.385]
e yani <no-speech> (())
[263.245]
<no-speech>
[264.185]
he
[264.655]
<no-speech>
[265.935]
hı ya çok kötü ora ya <no-speech> (()) kesin ya o kadar da dönemezdik (()) zaten
[271.155]
<no-speech>
[274.045]
tabi canım beşte kapatıyorlar
[275.635]
<no-speech>
[277.885]
aynen beşte kapatıyorlar yani beşe kadar
[280.345]
<no-speech>
[281.555]
<breath> öyle yırttık
[283.165]
<no-speech>
[284.215]
<hes> şeyi nasıl yırttık sağlık ocağını doktorun (()) ne şanslı bir adamım ben ya <laugh>
[288.645]
<no-speech>
[296.845]
hı
[297.625]
<no-speech>
[299.385]
ya seninkiler de olur ya
[301.045]
<no-speech>
[302.925]
ah niye
[304.175]
<no-speech>
[306.705]
hadi ya
[307.615]
<no-speech>
[309.585]
(())
[310.325]
<no-speech>
[311.235]
aynı konular
[312.055]
<no-speech>
[314.995]
hadi ya aynı konular yani hı yine yine inatçılık
[317.975]
<no-speech>
[321.335]
artık aşamadınız ya dört senedir aynı konuları
[323.865]
<no-speech>
[326.055]
<no-speech>
[326.425]
<no-speech>
[332.035]
ya bakalım ya kader be ağabey <int> <cough> (()) sorun yok <no-speech> <laugh> aynen aynen <no-speech> yok barışırsınız siz
[340.715]
<no-speech>
[342.275]
e başka ne *yapıyorsun*
[343.455]
<no-speech>
[344.585]
(())
[345.225]
<no-speech>
[346.905]
Turkcell'e konuşmaya ne zaman gideceksin görüşmeye
[349.065]
<no-speech>
[356.735]
aynen ya o da çok uzakta ya (()) hı Merter'den (()) sorun yok ya git bir konuş görüşmekte fayda vardır
[364.035]
<no-speech>
[368.725]
aynen aynen ya iyi olur aynen tabi canım ya Turkcell mürkcell iyi olur şimdi çalıştığın yer de iyi ama yine sıkıntılı biraz ya
[376.305]
<no-speech>
[378.565]
yani (())
[379.635]
<no-speech>
[382.385]
oh o
[383.505]
<no-speech>
[384.665]
uf çok be ya nerde o <no-speech> işleri nerde <int>
[388.945]
<no-speech>
[393.015]
o
[393.525]
<no-speech>
[394.475]
hadi ya çok tersmiş o da (()) hiç gerek yok ya
[397.615]
<no-speech>
[399.095]
(())
[400.755]
<no-speech>
[404.005]
<hes> yani hiç gereği yok be ağabey
[405.925]
<no-speech>
[407.935]
hı (()) yok oranın gereği yok diyor
[410.035]
<no-speech>
[414.735]
<breath> (()) yaptıysan problem yok hı yaptıysan problem yok ya kurtul kaç <no-speech> <cough> (())
[423.165]
<no-speech>
[423.965]
<no-speech>
[424.405]
<no-speech>
[425.685]
hocaya söyle (())
[426.645]
<no-speech>
[428.475]
hadi ya
[429.495]
<no-speech>
[431.875]
eh
[432.375]
<no-speech>
[433.185]
iyiymiş
[434.035]
<no-speech>
[436.175]
e iyi sen niye duracaksın o (())
[437.645]
<no-speech>
[439.015]
hadi ya
[439.825]
<no-speech>
[441.645]
(())
[442.485]
<no-speech>
[443.785]
(())
[444.505]
<no-speech>
[445.945]
en iyisi ya
[446.955]
<no-speech>
[451.105]
(())
[452.185]
<no-speech>
[454.185]
oh hiç gerek yok be ağabey zarar orası ya
[457.225]
<no-speech>
[465.205]
hadi ya dediler mi böyle bir şey
[466.725]
<no-speech>
[471.505]
hı (())
[472.785]
<no-speech>
[474.845]
hı
[475.635]
<no-speech>
[477.515]
(())
[479.085]
<no-speech>
[480.995]
<hes> hı iyi iyi (()) <no-speech> bak iş bak ya <no-speech> <int> iş git işte Turkcell'le de konuş
[487.215]
<no-speech>
[492.125]
hı
[493.195]
<no-speech>
[494.895]
ya bir başlasan
[495.985]
<no-speech>
[498.195]
hadi ya
[498.975]
<no-speech>
[502.705]
oh o iyi olmuş
[503.955]
<no-speech>
[509.515]
ah
[510.245]
<no-speech>
[516.735]
<hes> hı bayağı şey yapmış ya <no-speech> bayağı hırslanmış yani
[520.465]
<no-speech>
[521.884875]
<no-speech>
[522.365]
<no-speech>
[523.514875]
iyi
[524.115]
<no-speech>
[526.345]
hı
[527.145]
<no-speech>
[528.945]
anladım
[529.605]
<no-speech>
[533.725]
anladım <no-speech> iyi ya sen de yaparsın be ağabey ne olacak ya bir girsen bir yere
[537.635]
<no-speech>
[538.655]
he
[539.145]
<no-speech>
[543.965]
anladım abla <no-speech> <cough> (()) <no-speech> <hes> ben işte ağabey Kartal'da idmanlara yani şey adam anjiyo olmuş oranın muhasebecisi götürecek beni kulübün muhasebecisi işte dört gün evden çıkmayacakmış dört gün sonra gideceğim işte yani bir dahaki hafta çıkacağım Kartal'da idmanlara
[559.205]
<no-speech>
[560.125]
<no-speech>
[560.605]
<no-speech>
[565.945]
aynen ya yok yarın
[567.425]
<no-speech>
[568.365]
aynen bugün bugün bir idmana çıkacağım çok idmansız kalıyorum bugün bir idman yapayım biraz koşayım da <cough> haftaya da Kartal'da çıkacağız işte bakalım ne olacak ya ikinci lig olursa çok iyi olur aslında ya
[577.465]
<no-speech>
[581.815]
yok gülüyorum yok yok
[583.895]
<no-speech>
[585.075]
yok ya yormam
[586.125]
<no-speech>
[592.185]
aynen öyle ağabey yani (()) elimize gelecek son fırsat bakalım ya ikinci lig yani
[596.865]
<no-speech>
[597.715]
daha ötesi yok yani bakalım
[599.315]
<no-speech>
[599.98]
