[0.0]
<no-speech>
[7.2975]
<no-speech>
[14.595]
<no-speech>
[14.965]
<no-speech>
[17.325]
<no-speech>
[17.715]
<no-speech>
[26.115]
<no-speech>
[26.955]
<no-speech>
[28.545]
alo
[29.895]
<no-speech>
[30.945]
Fatma ne yapıyorsun ne yapıyorsun
[33.645]
<no-speech>
[36.365]
hiç ne yapayım oturuyorum ben de ablam hı sesin şimdi geldi şey pijama takımı mı alacaksın kaynanana
[44.025]
<no-speech>
[46.245]
hı
[46.855]
<no-speech>
[48.395]
hı nerden alacaksın
[49.975]
<no-speech>
[52.305]
niye çekmiyor senin telefonun orada
[54.005]
<no-speech>
[54.845]
hı ondan
[56.695]
<no-speech>
[57.565]
(())
[58.045]
<no-speech>
[59.915]
hı Bihterler geliyorlar
[61.585]
<no-speech>
[62.855]
alo
[63.575]
<no-speech>
[65.655]
telefonuna şey ben de duyuyorum hı Bihterler geliyormuş aradım da şeyi vermişler Nimet de sonuçları alacakmış saat iki buçukta gelirken
[75.935]
<no-speech>
[78.085]
şey geliyor senin telefon
[80.345]
<no-speech>
[81.595]
hı yarısı da gidilecek biliyorsun
[83.935]
<no-speech>
[85.995]
hı işin zor mu
[88.025]
<no-speech>
[90.965]
alo
[91.675]
<no-speech>
[96.245]
mhm şey değil hı işin zor mu diyorum iş çok mu
[100.695]
<no-speech>
[102.735]
alo
[103.435]
<no-speech>
[106.455]
gelen var mı
[107.505]
<no-speech>
[109.985]
mhm şimdi duyuyorum misafir gelen var mı mhm
[114.775]
<no-speech>
[118.205]
ya akşam Canerler geldi mi telefonun çekmiyor Canerler geldi mi akşam gelmediler mi
[124.735]
<no-speech>
[125.705]
mhm şey
[126.885]
<no-speech>
[128.025]
dedi ki kaynanamları alacağım diyordu da
[131.145]
<no-speech>
[132.235]
hani Caner belki almıştır diye düşündüm ama hastaymış
[135.105]
<no-speech>
[136.345]
onun için almamıştır
[137.745]
<no-speech>
[140.445]
hı oksijen falan geçen de oksijen falan diyordu da
[149.115]
<no-speech>
[150.585]
gerçi artık ameliyat işinden sonra
[152.535]
<no-speech>
[154.745]
mhm
[155.465]
<no-speech>
[157.375]
mhm tamam
[158.935]
<no-speech>
[163.085]
(())
[164.185]
<no-speech>
[165.145]
ha
[165.735]
<no-speech>
[169.495]
ya perşembe de gidecem yarın da gidecem gidecem gidecem yarın da niyetim var perşembe de niyetim var aslında bugün de gidecektim Yeter'e ulaşamadım
[178.995]
<no-speech>
[180.095]
onlar da kaynatam geldi gitmişlermiş
[182.515]
<no-speech>
[183.995]
ha
[184.595]
<no-speech>
[195.685]
bence de iyi yapmışlar ya
[197.295]
<no-speech>
[198.235]
iki buçukta vereceklermiş sonuçları hı aradım da yoldayım dedi zaten
[203.715]
<no-speech>
[205.845]
ay sormadım ki sormadım ki
[208.925]
<no-speech>
[210.225]
(())
[210.615]
<no-speech>
[211.805]
(())
[212.295]
<no-speech>
[215.625]
hı birisinin tahlili on dört beş bir tahlil beşinde on ikisini bilmiyorum
[221.095]
<no-speech>
[222.075]
doktor söyleyecek
[225.145]
<no-speech>
[226.475]
(())
[226.915]
<no-speech>
[228.795]
mhm çabuk olmuş oldu (())
[231.235]
<no-speech>
[232.155]
evet zaten Allah yardım etsin kaynatam da diyor ki korkuyor diyor korkar tabi kolay bir şey mi
[239.775]
<no-speech>
[240.815]
aman ne yapacaksın işte mecbur alacak Allah korusun ilerde
[247.665]
<no-speech>
[249.565]
hı ilerlerse daha kötü olur
[251.255]
<no-speech>
[253.115]
ha
[254.595]
<no-speech>
[261.515]
iki ay mı yapma ya ay Allah korusun üç gün demişler ama bilmem bakalım
[267.975]
<no-speech>
[269.845]
hı
[270.605]
<no-speech>
[274.775]
yirmi yedisine varmış dedi onun için hem
[277.355]
<no-speech>
[278.215]
hı hep test istiyorlar onun için işte o tahlili bu tahlili onun için tutuyorlar
[283.175]
<no-speech>
[284.455]
aman inşallah bir şey olmaz Allah büyük ya
[286.705]
<no-speech>
[288.995]
sen ne yapıyorsun
[290.995]
<no-speech>
[293.275]
<no-speech>
[293.635]
<no-speech>
[294.815]
alo alo
[298.765]
<no-speech>
[300.015]
telefonun çekmiyor herhalde tam sesin gelmiyor da hı beni duyuyor musun
[303.935]
<no-speech>
[307.785]
hı duyuyorsun
[309.005]
<no-speech>
[310.275]
sen gelecek misin yarın hı alo sen gelecen mi yarın
[314.515]
<no-speech>
[319.655]
hı perşembe günü anca izin verirler
[321.725]
<no-speech>
[323.055]
hı perşembe gününe izin verirler anca evet dediğin doğru
[326.355]
<no-speech>
[327.775]
e iş ne yapacaksın
[328.995]
<no-speech>
[332.325]
evet ya
[333.115]
<no-speech>
[335.385]
e yani
[336.135]
<no-speech>
[337.835]
mhm perşembe günü kaçta gidilecek biliyor musun
[340.435]
<no-speech>
[342.915]
(())
[344.405]
<no-speech>
[346.285]
mhm tam sesin gelmiyor ki bu senin telefonun sorunlu heralde ya
[349.685]
<no-speech>
[351.715]
alo
[352.515]
<no-speech>
[354.215]
telefonunda sorun mu var diyorum
[355.815]
<no-speech>
[357.275]
senin arada bir sesin gidiyor da
[359.265]
<no-speech>
[361.215]
nerdesin
[362.105]
<no-speech>
[365.135]
hı işyerindesin hı hı ondan denize yakın ya
[369.705]
<no-speech>
[370.645]
perşembe günü kaçta gidilecek biliyor musun
[372.765]
<no-speech>
[374.255]
sabah mı
[375.465]
<no-speech>
[384.015]
hı neyse arabayla falan gideriz o zaman dokuzda nasıl ulaşılacak oraya
[387.665]
<no-speech>
[388.595]
mhm erkenden
[389.795]
<no-speech>
[401.455]
(())
[402.015]
<no-speech>
[404.265]
mhm
[404.925]
<no-speech>
[415.475]
hastaneye mhm hava soğuk ama hastane içi sıcak olur terler
[419.965]
<no-speech>
[420.905]
bilmem ki bir kalınını bir incesini alalım
[423.985]
<no-speech>
[425.135]
hani hastane iyi olur hani hastanenin bakımı hem orası sıcak olur iyi gelince sorarız
[430.575]
<no-speech>
[432.745]
hı şey Bihterlerde mi yatacaz
[434.595]
<no-speech>
[436.915]
hı diyorum Bihterlerde mi yatacaz diyorum
[440.355]
<no-speech>
[441.675]
alo
[442.385]
<no-speech>
[446.565]
(())
[447.355]
<no-speech>
[449.275]
hı gitmez işte onun için yoksa ben şeyde de kalabilirim yani oradan öyle düşündüm de o o tarafı daha şey yapıyor ya
[456.835]
<no-speech>
[458.755]
neyse bir an önce iyileşsin de bir an önce iyileşsin de önemli değil
[463.935]
<no-speech>
[465.255]
ha dün geldim
[466.455]
<no-speech>
[467.935]
mhm bize gelmişti bir çay falan içti zaten ben çay içiyordum
[472.145]
<no-speech>
[473.145]
şey sordu ya ayakkabısı var mı diye sordu botu
[476.695]
<no-speech>
[478.085]
hı onun bir tane botu var o da ayağında
[480.115]
<no-speech>
[481.565]
yoktu ki işte
[482.945]
<no-speech>
[483.805]
ayakkabısı kayıyormuş düz ya altı
[486.145]
<no-speech>
[488.025]
perşembe günü için mi
[489.615]
<no-speech>
[492.525]
hı o da alır o da alır konuşmadık ama söyledim ben ona perşembe günü için yarın akşamdan izin alır herhalde
[498.915]
<no-speech>
[500.145]
yani ameliyata girecek
[502.395]
<no-speech>
[504.685]
tabi ki
[505.435]
<no-speech>
[514.384875]
nasıl
[515.875]
<no-speech>
[518.465]
hı
[519.235]
<no-speech>
[523.884875]
e doğru diyor tabi onun yanında zaten konuşulmaz ki ya zaten korkuyor ya kaynatam diyor diyor ben hiçbir şey diyemiyorum diyor hani bir şey demiyorum diyor çünkü korkuyor
[533.905]
<no-speech>
[535.175]
tabi ki zor bir şey zaten ameliyattan çok korkuyordu aklı gidiyordu biliyorsun
[539.025]
<no-speech>
[541.065]
mhm
[541.705]
<no-speech>
[545.655]
hı
[546.445]
<no-speech>
[547.285]
<no-speech>
[547.945]
<no-speech>
[549.225]
<no-speech>
[549.595]
<no-speech>
[551.125]
(())
[551.515]
<no-speech>
[552.825]
mhm e daha ne yapıyorsun
[556.045]
<no-speech>
[558.215]
sesim gelmiyor mu
[559.625]
<no-speech>
[562.565]
hı geliyor
[565.085]
<no-speech>
[565.905]
iyi iyi
[566.705]
<no-speech>
[569.245]
daha ne lazım olur acaba ne almak lazım
[571.965]
<no-speech>
[573.075]
terlik mi alo
[575.345]
<no-speech>
[578.045]
yok ben de alırım hani terlik falan da lazım olur herhalde değil mi başka çorap o tür şeyler de lazım olur
[585.375]
<no-speech>
[586.245]
havlu havluyu idare ederiz hani de
[589.385]
<no-speech>
[590.775]
gibi
[591.545]
<no-speech>
[592.425]
hı alırız
[593.165]
<no-speech>
[593.995]
<no-speech>
[594.365]
<no-speech>
[595.935]
atlet iç çamaşırlar ha
[597.44]
