[0.0]
<no-speech>
[1.205]
<no-speech>
[4.005]
alo
[6.045]
<no-speech>
[6.995]
iyiyim abla sağ ol sen ne yapıyorsun
[12.185]
<no-speech>
[13.105]
efendim <int>
[17.175]
<no-speech>
[18.575]
<breath> ne yapayım işte öyle uğraşıp duruyoruz sen ne yapıyorsun ne var ne yok
[23.985]
<no-speech>
[28.625]
mhm denememiz vardı işte bugün iki tane biri sabah biri öğleden sonra işte onlara girdim çıktım <lipsmack> öyle işte birazdan da eve gideceğim sen ne yapıyorsun
[38.685]
<no-speech>
[42.095]
<no-speech>
[44.175]
<no-speech>
[46.255]
mhm iyi etmişsin yengemler nasıl <hes> iyi iyi afiyet olsun
[58.025]
benim yerime de için
[59.365]
<no-speech>
[61.645]
<hes> evet kaçta kına
[64.874875]
<no-speech>
[67.855]
kaçta kına <int>
[79.345]
orada mı kalacaksın sen
[83.355]
<no-speech>
[85.325]
<no-speech>
[86.755]
<no-speech>
[88.095]
<sta> hı mhm <no-speech> evet uykusuz kalırsın yorulursun boş ver sen eve gel abla <int>
[103.065]
<no-speech>
[104.205]
<no-speech>
[105.485]
<no-speech>
[106.695]
mhm aynen öyle <no-speech> eh Fatma ne yapıyor <int>
[111.135]
<no-speech>
[111.995]
<no-speech>
[113.305]
<no-speech>
[116.355]
<int> oy canım ya keşke alsaydınız
[127.305]
<no-speech>
[128.245]
<no-speech>
[130.385]
<no-speech>
[131.185]
<hes>
[131.955]
<no-speech>
[132.835]
<no-speech>
[133.855]
<no-speech>
[135.215]
<no-speech>
[135.595]
<no-speech>
[136.455]
yavrum benim ya kıyamam ben ona <cough>
[141.135]
<no-speech>
[142.315]
<breath> <sta> hepsi iyiler işte onlar da işlerinde güçlerinde babam işe gitti annem de işte <cough> evde babamdan piknik iznini kopardım bu sabah <laugh> çok <sta> mutluyum <laugh> mhm gideceğim sabah biraz dizimi astı ondan sonra dedim ki ağzınızı gözünüzü oynatıyorsunuz bir karar veremediniz sizin yüzünüzden geçen de de hani ertelendi <sta> falan <breath> ondan sonra babam da dedi ki tamam falan dedi ondan sonra annem de dedi annene sor annen de dedi ben karışmıyorum birbirlerine attılar sonra ben de biraz artistlik <sta> yapınca mecbur kaldı babacığım izin vermeye <laugh> <cough>
[182.275]
<no-speech>
[183.545]
<no-speech>
[184.115]
<no-speech>
[185.385]
hı evet teşekkür ederim tatlım <lipsmack> e ablamlar geldi mi <int>
[192.655]
<no-speech>
[193.855]
<hes> kaç gibi gelirler <int>
[198.585]
<no-speech>
[199.485]
<int> mhm
[202.195]
<no-speech>
[205.685]
<no-speech>
[206.095]
<no-speech>
[207.915]
hı doğru canım evet dört saat falan mı sürüyor trenle Erzincan arası <sta>
[219.235]
<int> hı evet doğru e eniştem ne yapıyor o da iyi mi
[228.005]
<no-speech>
[230.405]
<hes> <int>
[238.925]
<no-speech>
[241.825]
<int> ben İstanbul'a işte yirmi üçünde şey var sınavım var son <sta> iki sınavım yirmi üçünde <no-speech> ondan sonra yirmi üçünden sonra da diyorum ki bir hafta kalıp ya öyle giderim ya da yirmi üçünden hemen sonra giderim <int> işte bilmiyorum ki sınava bağlı daha bilet falan almadım otobüs <sta> evet otobüs bileti de herhalde o diğer firmalara bakmadım daha uçaklar zaten çok pahalı <breath> babam da dedi ki otobüsle göndermem bende diyorum uçak pahalı <breath> yine orada da <hes> anlaşamadık bakalım artık ne (())
[311.785]
<no-speech>
[313.485]
Tortum Şelale'sinden bindik mi Marmara'dan çıkarız <breath> yani işte diyorum ki belki Tortum'dan geçip Marmara falan olabilir yani neden olmasın
[324.715]
<laugh> <cough> ya o (()) unutma lütfen
[331.945]
<no-speech>
[333.305]
ay canım ya teşekkür ederiz teşekkür ederiz
[337.345]
<no-speech>
[338.915]
<lipsmack> amcam nasıl oldu
[341.465]
<no-speech>
[342.705]
evet <breath> amcam nasıl oldu
[345.715]
<no-speech>
[347.635]
<hes> iyi nereye gittiler
[349.465]
<no-speech>
[351.225]
nereden toplayacaklar
[352.705]
<no-speech>
[354.345]
hı oraya gittiler iyi ya
[356.865]
<no-speech>
[357.835]
iyi yapmışlar
[359.175]
<no-speech>
[361.775]
<no-speech>
[362.865]
<no-speech>
[365.775]
hı
[366.395]
<no-speech>
[367.895]
<breath> o şey
[369.035]
<no-speech>
[371.985]
baloda giyindiğin elbiseyi mi giyineceksin baloda giyineceğin elbiseyi mi giyineceksin
[377.715]
<no-speech>
[379.885]
mhm
[380.585]
<no-speech>
[381.605]
<breath> yani bence gayet güzel olur
[383.815]
<no-speech>
[386.385]
(())
[386.925]
<no-speech>
[389.565]
mhm
[390.275]
<no-speech>
[391.475]
anladım bebeğim neyse biz bizim düğüne yaptırırız hayatım
[395.215]
<no-speech>
[399.715]
<no-speech>
[400.155]
<no-speech>
[402.295]
<no-speech>
[403.065]
<no-speech>
[403.925]
mhm
[404.625]
<no-speech>
[407.445]
evet iyi olur o zaman
[409.195]
<no-speech>
[410.845]
(()) eh başın falan ağrıyor mu şimdi
[416.205]
<no-speech>
[419.935]
mhm
[420.545]
<no-speech>
[422.025]
iyi çok şükür <breath> <cough> kafana bir şey takma stres yapma ani sevinçler falan bunlar sana yasak biliyorsun değil mi
[431.375]
<no-speech>
[441.545]
Allah evet evet anlıyorum bebeğim Allah iyilik versin ablacığım yine de dikkat et
[447.965]
<no-speech>
[449.355]
<no-speech>
[450.805]
<no-speech>
[452.195]
<no-speech>
[452.575]
<no-speech>
[453.945]
arkadaşım da iyiler Gülşah var yanımda Şeyma da şimdi geldi işte <breath> ondan sonra öyle işte birazdan eve çıkıp gideceğiz
[465.825]
öyle onun dışında bir sıkıntı yok <int> <laugh> yok çıkmadım terastayız birazdan çıkacağız <int>
[473.765]
<no-speech>
[474.575]
<no-speech>
[476.095]
<no-speech>
[476.975]
<sta> öyle işte <breath> ya işte öyle hayatım <int> hava da çok güzel bugün değil mi
[484.735]
<no-speech>
[485.665]
<no-speech>
[486.555]
<no-speech>
[489.845]
evet Erzurum'un güneşi evet <cough> <hes> <cough> işte
[501.225]
<cough> <sta> şu hastalıktan da bir kurtulabilseydim daha mutlu olacağım ama <breath> he ya grip oldum boğazım falan çok (()) <breath>
[513.155]
öyle işte hayatım <breath> ay annem de neyse halıcıya gidecekti dedi ki eve gelirken ara beni halıcıya da gidelim
[522.574875]
<no-speech>
[524.195]
öyle işte halıcıya da gideceğiz bakalım artık <hes> halı alacakmış
[533.435]
<no-speech>
[534.465]
mutfağa araya bir de şey <hes> oturma odasına alacak <int>
[546.435]
<sta> öyle işte canım
[566.885]
soru çöz bilmem denemeye gir çık <hes> işte az kaldı ayın on altısında
[574.815]
<no-speech>
[576.465]
ya öyle de ama ne bileyim böyle diyorum ki artık bitsin bir an önce hani beni de bir rahata <hes> rahat rahat uyku uyuyum rahat rahat yemek yiyeyim her şeyi rahat yapmak istiyorum o yüzden bitmesini istiyorum
[588.415]
<int> öyle işte canım
[596.535]
<no-speech>
[597.415]
<int> evet aynen öyle bir bitsin de
[599.94]
