[0.0]
<no-speech>
[0.105]
<no-speech>
[1.105]
<no-speech>
[2.045]
<no-speech>
[2.455]
<no-speech>
[8.955]
<no-speech>
[9.695]
<no-speech>
[10.795]
<no-speech>
[11.215]
<no-speech>
[16.034875]
<no-speech>
[16.485]
<no-speech>
[20.935]
alo Nedim Demir
[23.665]
<no-speech>
[25.995]
iyilik sen ne yapıyorsun
[27.925]
<no-speech>
[29.205]
alo duyuyorum ben sesini
[31.385]
<no-speech>
[33.235]
duyuyorum sesini
[34.455]
<no-speech>
[36.645]
ne ettin
[37.645]
<no-speech>
[38.765]
iyilik pazardayım
[40.225]
<no-speech>
[41.735]
sen ne yapıyorsun
[42.665]
<no-speech>
[45.405]
yok ya işte rüzgar da (()) yok <breath> rüzgar çok burada rüzgar
[55.585]
hı onun da gelir rahatsız o alo duyuyorum ben seni sen beni duymuyor musun <breath>
[62.925]
<no-speech>
[65.595]
hı
[66.155]
<no-speech>
[68.895]
konuşalım Seher
[70.275]
<no-speech>
[71.105]
iyiyiz sizi sormalı
[72.615]
<no-speech>
[74.355]
ne diyorsunuz iyi misiniz siz
[76.055]
<no-speech>
[80.575]
tansiyon nasıl
[81.795]
<no-speech>
[84.185]
tansiyon nasıl oldu
[85.435]
<no-speech>
[86.345]
iyi olmadı mı
[87.325]
<no-speech>
[88.875]
iyi olmadı mı
[89.925]
<no-speech>
[93.035]
<no-speech>
[93.565]
<no-speech>
[94.445]
ağrıyor ya onun kalbi de o günden beri hiç ağrıyor o günden beri
[99.755]
<no-speech>
[101.965]
niye bu ses gelip gidiyor
[103.965]
<no-speech>
[107.305]
telefon <hes> işte öyle oldu ya bir de rüzgar esiyor ya <breath> rüzgar da esiyor ya ondan da oluyor
[123.455]
<hes> Seher'de mi Yurdagüldegil mi
[126.615]
<no-speech>
[128.005]
evde mi ki
[129.045]
<no-speech>
[133.565]
hı iyi iyi onlara da selam söyle iyiler değil mi
[137.375]
<no-speech>
[143.335]
konuş ne dedin
[144.665]
<no-speech>
[145.725]
iyi o da o günden beri görmedim (())
[148.425]
<no-speech>
[150.045]
o günden beri görmedim ben Denizli'ye gittim ertesi gün de ertesi gün Denizli'ye gittim gezmeye hı bir daha görmedim
[159.525]
<no-speech>
[160.515]
Denizli'yi gezdim geldim bir de o gün
[162.655]
<no-speech>
[164.715]
(())
[166.345]
<no-speech>
[167.195]
görmemişler dedi o gün (()) bize geldiler de
[170.185]
<no-speech>
[171.735]
ya gören olmadı bir daha ben onları görmedim <breath> işte Denizli'ye gittik pazartesi günü pazar günü de pazara gidince görmedim dün de pazardaydım bugün de
[181.735]
<no-speech>
[184.425]
mal almaya gittik de <breath> mal almaya gittik bende (()) aldım oradan
[190.495]
<no-speech>
[191.495]
<no-speech>
[209.035]
hı
[209.515]
<no-speech>
[210.755]
şey <hes> masasına örtü aldık
[214.525]
<no-speech>
[216.205]
(())
[218.555]
<no-speech>
[219.705]
iki tane üstüne yazmaya (()) var ya hı onlardan onlardan aldık
[225.595]
<no-speech>
[227.745]
(()) pike takımı aldı
[229.465]
<no-speech>
[230.535]
bir de nevresim takımı aldı
[232.305]
<no-speech>
[233.265]
küçük havlulardan mutfaktan (()) havlular var onlardan aldı
[238.175]
<no-speech>
[241.055]
(()) bir şey lazım değil dedi ama kendi aldı beğendiklerini (())
[249.935]
<no-speech>
[254.415]
şey takım alacaktı bir de banyoya yazılan takımlar var ya
[258.015]
<no-speech>
[259.045]
onlardan alacaktı
[260.465]
<no-speech>
[261.645]
var dedi onlardan dedi
[263.385]
<no-speech>
[265.415]
bana anlatamıyor kendi
[267.335]
<no-speech>
[269.515]
sana anlatmadım diye bana (()) küsüyor almadım diye
[273.765]
<no-speech>
[275.955]
yaprağı alacaktı onlar da (())
[279.575]
<no-speech>
[281.655]
onlar da alacaktı kendi yaprak var dedi bende ondan almadım
[285.745]
<no-speech>
[287.095]
(())
[289.515]
<no-speech>
[291.265]
işte takımı (()) aldı
[293.765]
<no-speech>
[294.565]
öyle dedim bende (()) bende alıyorsun kızım dedim (())
[300.345]
<no-speech>
[301.225]
(())
[302.535]
<no-speech>
[307.645]
öyle oluyor ya öyle ona göre ayar- öyle oluyor sen bir gel ne zaman gidiyorsun
[313.185]
<no-speech>
[316.525]
öyle öyle ya pike takımının günlüğü örtünmeye güzel ya takım ya yastığın var şeysiyle örtüsüyle
[324.645]
<no-speech>
[325.485]
onu alır örtünür
[326.765]
<no-speech>
[329.245]
hı yarın da kendimiz örtünürüz <int> ona göre sen ne sen ne zaman gezmeye gidiyorsun
[337.485]
<no-speech>
[338.905]
<no-speech>
[339.535]
<no-speech>
[342.735]
hı
[343.995]
<no-speech>
[346.395]
hı
[346.915]
<no-speech>
[355.785]
hı Yunus gelmedi mi daha
[357.725]
<no-speech>
[358.895]
<no-speech>
[359.285]
<no-speech>
[363.705]
(())
[366.595]
<no-speech>
[368.395]
senin sesin gelip gidiyor benimki de mi öyle oluyor
[372.575]
<no-speech>
[374.055]
<no-speech>
[374.415]
<no-speech>
[375.855]
<no-speech>
[376.395]
<no-speech>
[377.205]
niye öyle oluyor kız telefondan mı
[379.295]
<no-speech>
[382.965]
<no-speech>
[383.315]
<no-speech>
[385.215]
hı e konuş bakalım (()) anlat
[388.995]
<no-speech>
[389.885]
arıyor akşam aramış ben yatmıştım da babasıyla konuşmuş
[393.675]
<no-speech>
[395.175]
yorgun olunca
[398.075]
<no-speech>
[398.955]
hı öyle
[400.175]
<no-speech>
[402.225]
arazideyim dedi aramış da hı hayırlısı ya ne edelim Allah şey etsin kaza bela vermesin <breath> (())
[413.025]
<no-speech>
[415.435]
(())
[416.185]
<no-speech>
[418.905]
ne zaman
[419.735]
<no-speech>
[420.845]
bu hafta mı bu hafta mı
[422.875]
<no-speech>
[425.665]
hı
[426.085]
<no-speech>
[427.905]
hı
[428.565]
<no-speech>
[434.225]
hı (())
[437.355]
<no-speech>
[438.155]
<int> yani işte ne etsin
[441.055]
<no-speech>
[442.865]
<laugh> öyle oluyor gelmesi kolay oluyor da gitmesi çıkması zor oluyor <laugh> neyse enişte
[450.775]
<no-speech>
[451.995]
öyle oluyor ya ne edeceksin
[453.935]
<no-speech>
[457.775]
öyle olacak da olmuyor işte
[460.255]
<no-speech>
[461.345]
al diyordu işte (()) hiçbir farkı olmuyor ya
[480.965]
(()) akraba da çok olunca hı öyle oluyor yani (()) öyle kurumuş dünya ne yapacaksın
[493.025]
hı
[493.495]
<no-speech>
[495.155]
bilmiyorum ya o gün çok ağrıdı
[497.035]
<no-speech>
[498.035]
bilmiyorum ki kızım o gün çok ağrıdı
[500.325]
<no-speech>
[501.855]
inan ki
[502.665]
<no-speech>
[504.645]
işte gel pazar günü zaten hep ağrıdı kalbi (()) kalbim ağrıyor diye
[509.245]
<no-speech>
[510.835]
ne bileyim öyle o karnım ağrıyor diyor şimdi de
[514.015]
<no-speech>
[515.105]
(())
[518.064875]
<no-speech>
[519.165]
gitmedik ya bir daha
[520.745]
<no-speech>
[522.455]
hı
[523.334875]
<no-speech>
[526.885]
hı mal topluyor şimdi de
[529.225]
<no-speech>
[530.655]
rüzgar oldu mu duramıyor
[532.475]
<no-speech>
[533.765]
çadırları kaldırıyor havaya yağacak galiba da
[536.775]
<no-speech>
[539.095]
işler de yok da
[540.335]
<no-speech>
[541.945]
hı havalar bir iyi oluvermedi düzleşmedi
[545.775]
<no-speech>
[548.405]
<no-speech>
[548.765]
<no-speech>
[553.085]
(())
[553.675]
<no-speech>
[555.565]
hı
[557.745]
<no-speech>
[559.425]
<hes>
[559.925]
<no-speech>
[568.975]
<no-speech>
[569.335]
<no-speech>
[573.155]
o gün (()) alo konuşuyorum ben (())
[577.455]
<no-speech>
[578.685]
işte yani ne bileyim dedim de ben geçenlerde (())
[581.695]
<no-speech>
[591.495]
hı öyle olursa işte (())
[594.385]
<no-speech>
[595.365]
hı ne bileyim işte o gün pazar günü (())
[599.225]
<no-speech>
[600.34]
