[0.0]
<no-speech>
[4.595]
<no-speech>
[4.975]
<no-speech>
[6.615]
alo
[7.325]
<no-speech>
[10.285]
alo
[10.905]
<no-speech>
[11.785]
<no-speech>
[12.145]
<no-speech>
[13.365]
ne yapayım
[14.185]
<no-speech>
[15.195]
alo
[15.875]
<no-speech>
[20.165]
<breath> yo uyumuyordum <no-speech> normal öyle <no-speech> uzanıyordum ya
[24.525]
<no-speech>
[28.845]
<breath> var da sınav dört de
[31.715]
<no-speech>
[33.445]
dört de
[34.815]
<no-speech>
[38.665]
yani demin birine girdim işte
[40.615]
<no-speech>
[41.775]
o iyi geçti bugün de öbürüne gireceğim <no-speech> mimari çizim var
[47.215]
<no-speech>
[48.695]
iyidir <no-speech> sen ne yap- <no-speech> sen ne yapıyorsun
[51.365]
<no-speech>
[55.485]
mhm
[56.185]
<no-speech>
[62.61]
<no-speech>
[69.035]
vay vay vay <no-speech> e pek hoş karşılamaz <no-speech> e
[74.945]
<no-speech>
[78.565]
şim- şey <no-speech> yarın ne yapıyorsun
[82.175]
<no-speech>
[91.065]
mhm
[91.925]
<no-speech>
[94.205]
mhm
[95.575]
<no-speech>
[97.205]
yirmi ikisinde geliyorum işte ya yedi sa- <no-speech> şey sabah yedi sınava
[102.235]
<no-speech>
[103.665]
çok sefil zaman <no-speech> cuma sabah ya
[105.825]
<no-speech>
[108.255]
<breath> cuma sabahı geliyorum senin sesinde öyle hiç canlı değil yani <no-speech> sanki robotla konuşuyoruz
[113.725]
<no-speech>
[119.905]
<breath> bu cuma değil ağabey öbür cuma
[121.855]
<no-speech>
[123.745]
ta- Perşem- <no-speech> hı <no-speech> daha sınavlar yeni başladı yani
[128.135]
<no-speech>
[134.755]
<breath> bakalım şey- <no-speech> var mı
[137.205]
<no-speech>
[140.375]
hı
[140.965]
<no-speech>
[148.825]
<breath> Erdal'ın mı
[150.415]
<no-speech>
[152.605]
<breath> ayın <no-speech> ayın dokuzunda mı
[155.845]
<no-speech>
[159.505]
mhm geleyim ya <no-speech> geliyorum geliyorum <breath> gezeriz
[166.325]
<no-speech>
[168.365]
bu şe- <no-speech> bu anket ne anketi
[170.705]
<no-speech>
[172.835]
ne diyorsun
[173.775]
<no-speech>
[181.555]
derslerim
[182.415]
<no-speech>
[184.865]
nereye gidiyorsun
[185.995]
<no-speech>
[194.185]
e
[194.915]
<no-speech>
[199.535]
mhm
[200.215]
<no-speech>
[209.245]
anladım
[210.125]
<no-speech>
[210.965]
<breath> şey <no-speech> kimler gelip gidiyor
[213.255]
<no-speech>
[214.485]
<breath> Eda'yla iyi aram nasıl olsun onun bugün doğum günü işte
[218.385]
<no-speech>
[221.925]
mhm
[222.585]
<no-speech>
[226.815]
<no-speech>
[229.395]
<no-speech>
[232.605]
<breath> ben direksiyon alacağım işte <no-speech> hoca bilmiyorum altmış milyonamı ne olmuş <no-speech> üç yüz seksen milyon falan öğretecekler
[241.235]
<no-speech>
[247.215]
bilmiyorum <no-speech> hı
[249.095]
<no-speech>
[252.685]
bilmiyorum artık ya ona göre şey yapacağız <no-speech> üç yüz seksen milyon değil dört yüz yirmi milyon
[258.104875]
<no-speech>
[263.985]
tamam sen merak etme
[265.405]
<no-speech>
[273.155]
<breath> yani tabi ki şimdi sen de şeyi bilmiyorsun sen bilmiyorsun ne boyutta olduklarını derslerin
[280.095]
<no-speech>
[283.405]
konuşması rahat yani
[285.335]
<no-speech>
[290.805]
<breath> konuşmamazlık değil <no-speech> gece saat dört de uyudum yani aptal gibiyim
[296.475]
<no-speech>
[297.925]
bir de hastayım ben kaç gündür
[299.695]
<no-speech>
[301.705]
mhm
[302.515]
<no-speech>
[303.595]
bir de hastayım gribim ya <no-speech> sesim zaten görmüyor musun odun gibi <hes>
[307.515]
<no-speech>
[309.035]
<breath> ney
[310.815]
<no-speech>
[314.315]
mhm babaanne- <no-speech> babaannenler ne yapıyor
[317.215]
<no-speech>
[322.955]
hı <no-speech> evde durumlar iyi
[325.855]
<no-speech>
[331.255]
hı iyi artık bu şey sınavı ne yaptın <no-speech> hı
[334.665]
<no-speech>
[341.275]
ağabey yaz okuluna kalmazsam gideceğim bu sefer
[343.695]
<no-speech>
[347.005]
yaz okulu
[347.615]
<no-speech>
[349.625]
yani sı- kalırsak finalden var tabi neyi yok <no-speech> finallerden <no-speech> sınavdan kalırsak var tabi <no-speech> çelik yapılar diye bir ders var o sakat
[358.515]
<no-speech>
[360.665]
<no-speech>
[362.295]
<no-speech>
[366.445]
kalmadı ya salı günü
[368.025]
<no-speech>
[371.325]
yani salı
[372.315]
<no-speech>
[377.025]
üç toplam
[378.245]
<no-speech>
[379.885]
senin için notlar var zaten
[382.175]
<no-speech>
[385.745]
bu yeni durumlar işte çare etmiyor
[388.855]
<no-speech>
[393.245]
yani gayret gösterdim de hiçbir şey yetmiyor orospu çocuğu buradaki
[396.785]
<no-speech>
[398.725]
ne yapalım düzeleyim mi nasıl olsun <no-speech> o olmazsa zaten direk Avşa'ya geçeceğim
[403.575]
<no-speech>
[406.535]
gider çalışırım orada <no-speech> Erdal beni
[408.925]
<no-speech>
[410.035]
he
[410.635]
<no-speech>
[414.045]
ne diyor
[414.925]
<no-speech>
[419.055]
mhm
[419.665]
<no-speech>
[428.555]
mhm senin çekim yerinde bitmiş gibi ya <no-speech> tutuklu tutuklu
[432.615]
<no-speech>
[441.555]
üç- böyle beş saniye gecikmeyle geliyor sanki ondan
[446.435]
<no-speech>
[455.355]
duydun mu
[456.205]
<no-speech>
[460.965]
söyle
[461.655]
<no-speech>
[470.605]
oğlum bu <no-speech> şey ha
[472.755]
<no-speech>
[473.605]
sen konuşuyor musun hala onunla
[475.295]
<no-speech>
[477.015]
tamam sen konuşuyor musun hala
[478.555]
<no-speech>
[480.285]
sen konuşuyor musun o kızla hala
[482.115]
<no-speech>
[484.595]
Bengü'yle
[485.425]
<no-speech>
[491.195]
hı <no-speech> telefonda mı
[492.885]
<no-speech>
[498.085]
hı o <foreign> senin duvarına falan baktım ne tatlı kızlar var arkadaş mı spordan falan mı üniversiteden falan mı
[506.425]
<no-speech>
[511.295]
e
[511.935]
<no-speech>
[523.065]
e git konuş
[524.585]
<no-speech>
[526.185]
gördün mü de bu kızı hiç
[527.635]
<no-speech>
[534.565]
mhm
[535.085]
<no-speech>
[536.895]
e daha ne o zaman
[538.065]
<no-speech>
[539.785]
Erdinç'te bizim sülalenin pezevengi oldu herhalde <laugh>
[543.195]
<no-speech>
[544.825]
artık çünkü o buluyor
[545.975]
<no-speech>
[551.105]
terlik ver
[551.955]
<no-speech>
[553.665]
ta- ne kadar <no-speech> kaç yıl
[555.905]
<no-speech>
[560.865]
yüksek lisans
[561.935]
<no-speech>
[565.735]
ne kadar sürüyor
[566.835]
<no-speech>
[573.435]
mhm
[573.865]
<no-speech>
[576.675]
mhm
[577.265]
<no-speech>
[579.905]
anladım <breath> ben de şey <no-speech> L_Y_S'ye falan gireceğim ya <breath> diyorum açıktan mı devam edeyim
[586.935]
<no-speech>
[588.065]
yoksa dört yıl okuyayım mı tekrar <no-speech> kazanırsam
[591.635]
<no-speech>
[596.185]
L_Y_S
[596.995]
<no-speech>
[600.12]
