[0.0]
<no-speech>
[7.5375]
<no-speech>
[15.075]
alo
[15.695]
<no-speech>
[20.425]
alo
[21.105]
<no-speech>
[24.225]
alo
[24.935]
<no-speech>
[27.135]
alo sen ne yapıyorsun
[28.955]
<no-speech>
[36.175]
hı şimdi nasıl peki
[37.815]
<no-speech>
[42.015]
vallahi iyidir ya ne yapayım gidip gidip geliyoruz ya ablam nasıl
[46.615]
<no-speech>
[47.995]
hı ne (()) neyi varmış ne diyor doktor
[51.625]
<no-speech>
[53.885]
doktor
[54.485]
<no-speech>
[56.285]
hı sorun var mı peki
[58.185]
<no-speech>
[60.175]
her hangi bir sorun var mı
[61.555]
<no-speech>
[65.955]
vallahi iyidir ya gidip geliyoruz akşam (()) gelmişti
[69.565]
<no-speech>
[70.765]
Şafak geldi babannesi geldi Murat Murat
[74.865]
<no-speech>
[75.855]
ha o da geldi uçak diyor şeyde şeye inerken diyor pilot bize haber vermedi diyor indiğimizi anlamıyor bu işten diyor midem bulandı diyor
[87.675]
e bir de gelirken havada sallandı bayağı diyor
[91.435]
<no-speech>
[92.625]
ondan sonra sallandı diyor ben de dedim ki havada tümseğe çarptı eski yoldan gelmiş dedim
[98.835]
<no-speech>
[99.985]
<no-speech>
[100.445]
<no-speech>
[105.095]
sonra <laugh> ben tümseğe çarpmıştır dedim öyle öyle
[109.065]
<no-speech>
[109.915]
güldü (())
[111.725]
<no-speech>
[112.725]
ondan sonra geldi öyle oturdu
[115.125]
<no-speech>
[116.685]
vallahi Şafak geldi işte Şafak o <hes> bavulları yukarı çıkarttık oturttuk babannem de <laugh> şey (()) diyor ki
[128.074875]
<laugh> diyor diyor ki ben çok ağırım beni bırak diyor
[132.785]
<no-speech>
[134.485]
<laugh> aynen aynen onun gibi beş altı kişiyi üste koysan var ya
[139.405]
<no-speech>
[140.365]
an- ancak olur yemin ederim ya geldi bır- bırak diyor bir şey olmaz diyor ben giderim tek başına yürüyeceği seviyor (()) şey yaptı <breath> yanına geldi
[152.285]
ağabey ağabey diye
[153.785]
<no-speech>
[155.095]
sarılıyor birlikte yemek yiyorlar öyle
[157.345]
<no-speech>
[158.405]
o- otur- oturdular ondan sonra bu az kalsın yere düşüyordu
[162.435]
<no-speech>
[163.685]
az kaldı babannemi aşa- aşağı düşürecekti yok gülüyordu öyle bastonsuz arkasından bir çekti sor tuttum ben de elinden
[171.395]
<no-speech>
[172.715]
<laugh> öyle işte oturduk konuştuk (()) sonra (()) geldi
[177.665]
<no-speech>
[179.365]
Feyzi Apo Hasan
[181.175]
<no-speech>
[182.085]
geldiler oturdular bir çay kahve içtiler öyle gidip geliyoruz vallahi akşam maçı seyrettin mi <foreign> maçını
[189.535]
<no-speech>
[193.695]
he ya şeye şifre koymuştu izleyemedik ya hı kaç kaç bitti o biliyor musun
[199.275]
<no-speech>
[204.845]
iki bir değil mi
[205.895]
<no-speech>
[207.965]
Barcelona mı aldı Real mi aldı
[210.615]
<no-speech>
[213.905]
yapma ya valla şansa bak var ya e sen ne yapıyorsun işler nasıl işe gidip geliyor musun
[218.485]
<no-speech>
[225.155]
<no-speech>
[225.795]
<no-speech>
[229.465]
hangi hastane
[231.025]
<no-speech>
[234.165]
hı araştırmaya mı geldin yine
[235.645]
<no-speech>
[236.925]
hı oraya geldiniz e inşallah bir şey yoktur değil mi rutin kontroller değil mi
[241.965]
<no-speech>
[245.495]
yapma
[246.315]
<no-speech>
[249.755]
mhm ha- hayırlı olsun nişan takmışsınız
[252.505]
<no-speech>
[255.155]
<no-speech>
[256.055]
<no-speech>
[257.015]
valla öyle sevindim akşam resimlerini gördüm
[259.665]
<no-speech>
[260.975]
<no-speech>
[261.325]
<no-speech>
[262.305]
akşam resimlerini atmış bilgisayardan
[264.455]
<no-speech>
[267.195]
bilgisayarda resimlerini gördüm öyle <hes> otur- şey baktım damat iyi damat iyi ne iş yapıyor
[273.195]
<no-speech>
[276.855]
(())
[277.525]
<no-speech>
[280.365]
<laugh> gerçekten
[282.875]
<no-speech>
[283.975]
ah iyi ya
[286.885]
<no-speech>
[290.385]
hı e şimdi nişan attı nişan attı dediler değil mi
[294.915]
<no-speech>
[296.555]
nişana geldiler yani
[297.975]
<no-speech>
[299.805]
<no-speech>
[300.185]
<no-speech>
[305.205]
inşallah inşallah hayırlısı
[306.995]
<no-speech>
[309.485]
hayırlısı olur ya nasıl havalar nasıl soğuk mu bari
[313.795]
<no-speech>
[322.145]
<no-speech>
[322.785]
<no-speech>
[325.025]
yapma ya kuru soğuk ha
[326.585]
<no-speech>
[328.265]
valla
[329.185]
<no-speech>
[333.425]
valla iyidir ya işte gidip geliyoruz ben bir oraya gelecektim bir arkadaşlarla sinemaya falan gidecektik
[339.475]
<no-speech>
[340.755]
(()) soyle
[341.535]
<no-speech>
[342.935]
büyük sinemaya gideceğiz bakalım akşama bekleyeceğiz olursa inşallah
[346.865]
<no-speech>
[347.825]
olmazsa öyle daha akşama altı yedi gibi sekiz gibi
[352.105]
<no-speech>
[353.445]
bekleyip duracağız vallahi ya üç aşağı beş yukarı
[357.075]
<no-speech>
[358.325]
vallahi evet sen kaçta gideceksin akşam işe
[361.235]
<no-speech>
[365.995]
gitmeyecek misin
[366.955]
<no-speech>
[371.025]
akşam gitmiyor musun
[372.235]
<no-speech>
[375.205]
akşam gitmiyor musun
[376.405]
<no-speech>
[378.455]
(())
[379.135]
<no-speech>
[381.235]
<no-speech>
[382.045]
<no-speech>
[384.895]
<no-speech>
[385.525]
<no-speech>
[386.815]
(()) gel de
[387.945]
<no-speech>
[390.655]
(()) gelme dedim minibüsle mi yoksa minibüs
[393.965]
<no-speech>
[399.405]
ah iyi yapmışsın bari ya
[401.145]
<no-speech>
[404.255]
vallahi
[405.105]
<no-speech>
[407.225]
vallahi iyi olmuş vallahi çok
[408.865]
<no-speech>
[411.555]
değil mi burada da akşam biraz yağdı
[413.855]
<no-speech>
[415.415]
biraz yağdı ondan sonra tekrardan durdu öyle ya (())
[419.675]
he ya
[421.055]
hı babam da işte gidiyor öyle pazar p- pa- yok biraz güneş yaptık kuru soğuk <breath> var ya kuru soğuk var ya acayip donduruyor adamı valla beni hasta ediyor zaten iki günden beri (()) hastaydım ben griptim
[434.555]
<no-speech>
[436.225]
iki günden beri hapşu- hapşuruyordum ben
[438.235]
<no-speech>
[439.185]
işte akşam eve gidince annem ıhlamur kaynattı
[443.525]
<no-speech>
[444.405]
ıhlamur limon öyle kendime geldim vallahi
[447.865]
<no-speech>
[449.055]
şimdi iyiyim Allah'a şükür ya geçti biraz geçen gün maç ettik işte halı saha maçı
[453.155]
<no-speech>
[453.985]
hı <laugh> halı saha maçı yine
[455.855]
<no-speech>
[457.195]
aramızda yaptık (()) olmayınca zevki çıkmıyor ya
[460.795]
<no-speech>
[465.575]
(())
[466.765]
<no-speech>
[468.225]
bir ta- tadı olmadı ama ama bir tane iki tane gol attım yani güzel gol attım yani <laugh> orta sahadan falan
[475.185]
<no-speech>
[476.375]
oh- orta orta alan nasıl
[480.075]
<no-speech>
[483.555]
yerindeydi zaten ödetmesine olmadığı için kendimizi fazla yormadık yani yormak da istemedik kendimizi
[490.025]
<no-speech>
[491.865]
ne gerek var ödetmesine oynamıyoruz kendimizi yırtmanın anlamı var mı yok
[495.435]
<no-speech>
[496.525]
zaten hem ödetme hem baklava gerek yok zaten ya ne olacak
[501.835]
<no-speech>
[502.815]
kendini yormadan ö- e ama çirkefliğe yatıyorlar hemen
[506.095]
<no-speech>
[507.245]
faul olmayan yerde faul veriyorlar penaltı olmayan yerde penaltı gösteriyorlar
[511.205]
<no-speech>
[513.034875]
ondan sonra şirkette vallahi geçen gün ablamın doğum günü vardı sen ne yaptın <laugh> bir şey aldın mı
[519.625]
<no-speech>
[521.654875]
<laugh> doğum günü vardı ya
[523.934875]
<no-speech>
[524.825]
Allah'ını seviyorsan
[525.955]
<no-speech>
[527.505]
ehliyetini de gön- ehliyetini de göndermedik ama ya
[530.645]
<no-speech>
[532.305]
ehliyetini de eh- gerçi inşallah yazın gelir de bir aksilik olmazsa
[537.365]
<no-speech>
[538.825]
ondan sonra şey Neslihan'ın çocuğu da hastaymış daha ya
[541.545]
<no-speech>
[543.895]
e he ya olsa da inşallah bir iki ay sonraya
[547.325]
<no-speech>
[548.485]
inşallah bir iki ay sonra gelmeyi düşünüyorum zaten
[550.525]
<no-speech>
[554.835]
hı inşallah işte bir
[556.395]
<no-speech>
[557.805]
o benden habersiz geldi ya
[559.555]
<no-speech>
[561.415]
benden haber
[562.205]
<no-speech>
[563.515]
o iki hafta önce söyledi bana ben de ciddi almadım ben
[566.535]
<no-speech>
[567.685]
hiç öylesine bir baktım ki biletini almış gidiyor
[571.975]
<no-speech>
[574.035]
gidince mecbur ne yapayım ben dedim (()) bir de şey çalışıyordum ya
[577.925]
<no-speech>
[579.635]
<hes> gezerdik bir iki gün ne olacak iki gün değil mi zaten
[582.665]
<no-speech>
[584.145]
iki günde gidip gelirdik vallahi
[585.835]
<no-speech>
[587.135]
de- değişiklik olurdu
[588.695]
<no-speech>
[590.365]
onun için
[591.135]
<no-speech>
[592.225]
inşallah olacak ama ya ama gelirim bir ay sonra
[595.445]
<no-speech>
[598.685]
bi- bir iki ay sonra (()) ~
[599.98]
