[0.0]
<no-speech>
[3.425]
(())
[4.164875]
<no-speech>
[6.225]
(())
[6.595]
(())
[9.385]
alo
[10.085]
<no-speech>
[11.565]
<no-speech>
[11.935]
<no-speech>
[13.615]
Çelik ne yapıyorsun
[14.635]
<no-speech>
[17.515]
sesim geliyor mu Cüneyt
[18.685]
<no-speech>
[20.315]
hı iyidir baktın mı ders programına <int>
[22.505]
<no-speech>
[24.585]
<int> he
[25.875]
<no-speech>
[27.475]
nasıl bakmadın mı lan
[28.885]
<no-speech>
[30.145]
<sta> hı benim bugün yarın dersim yok
[33.915]
<no-speech>
[35.745]
<sta> oğlum sesin gelmiyor lan
[37.065]
<no-speech>
[38.015]
bugün yarın dersim yok <int>
[39.575]
<no-speech>
[43.625]
hı oğlum (()) lan
[46.035]
<no-speech>
[48.515]
ıslandım
[48.985]
<no-speech>
[50.195]
hı bugün yarın dersim yok senin var mı bugün
[52.345]
<no-speech>
[53.885]
bugün dersin var mı
[55.025]
<no-speech>
[56.055]
<sta> he
[57.375]
<no-speech>
[59.445]
hangi ders
[60.135]
<no-speech>
[61.195]
arkadaş
[61.795]
(())
[62.825]
hangi ders <sta> çevre ay <no-speech> eziyet eziyet <laugh> yarın var mı
[74.675]
<no-speech>
[76.645]
benim yarın yok oğlum (()) perşembe benim bildiğim
[79.335]
<no-speech>
[80.335]
<no-speech>
[80.705]
<no-speech>
[81.975]
(()) perşembe oğlum <int> benimkisi <int> <no-speech> hı bugün de yok perşembe var işte bizim (()) <int>
[89.205]
<no-speech>
[90.035]
ne
[90.605]
<no-speech>
[93.725]
<no-speech>
[94.075]
<no-speech>
[95.455]
(())
[96.085]
<no-speech>
[98.825]
<sta> oğlum ekonomi var bizim bir de <hes> en- en- ekonomi erken salağım (())
[103.645]
<no-speech>
[105.805]
<sta> hı <no-speech> şim- çarşamba erkenden
[110.005]
<no-speech>
[111.945]
<sta> perşembe erken (()) şimdi işte akşam şey var <no-speech> <hes> ekonomi cuma günü de vergi var
[121.095]
<no-speech>
[124.315]
<no-speech>
[124.785]
<no-speech>
[129.995]
ne <int>
[130.585]
<no-speech>
[136.545]
hadi ya <int>
[137.565]
<no-speech>
[138.535]
<int> hadi iyisin bu hafta gitmiyorsun değil mi kesin <int>
[140.745]
<no-speech>
[146.485]
ne
[147.085]
<no-speech>
[152.485]
<sta> hı niye yurttan arıyoruz oğlum
[155.425]
<no-speech>
[157.295]
<sta> (()) götürürüz yoksa <no-speech> hı
[164.295]
<no-speech>
[168.325]
<sta> oğlum bizim işim var ya uğraş dur
[170.865]
<no-speech>
[171.885]
ne <sta>
[175.255]
<no-speech>
[177.255]
yok lan oğlum var ya sen boku yedin bildiğin lan
[179.705]
<no-speech>
[185.935]
<int> nasıl
[187.395]
<no-speech>
[193.415]
oğlum şşh sigara içemedim hala ya <int>
[195.565]
<no-speech>
[201.505]
hı <cough>
[203.195]
<no-speech>
[204.005]
<int> oğlum yurtta patlaksın lan sen şim- şeyi de bırakmışsın <int>
[207.795]
<no-speech>
[210.345]
Dinçer'e gidiyor musun bu hafta
[211.655]
<no-speech>
[214.445]
hı <no-speech> kravat
[215.965]
<no-speech>
[218.865]
saçın <int>
[219.745]
<no-speech>
[225.285]
ne Burakla kanka olmuşsunuz oğlum artık
[227.125]
<no-speech>
[228.915]
<no-speech>
[230.615]
<no-speech>
[232.045]
<no-speech>
[232.485]
<no-speech>
[238.69]
<no-speech>
[244.895]
vay anasını (()) uğraş dur
[247.405]
<no-speech>
[248.305]
<int> niye yağmur yağıyor (()) <int>
[251.595]
<no-speech>
[259.885]
oğlum okul açık manyak <int>
[261.225]
<no-speech>
[263.135]
<int> (()) çevreye gir yani
[265.335]
<no-speech>
[267.355]
olsun sen gir gene de
[268.565]
<no-speech>
[271.145]
derse gir
[272.045]
<no-speech>
[282.095]
oklava alacaksın bana canım <int>
[284.115]
<no-speech>
[286.015]
hı
[286.825]
<no-speech>
[290.755]
(())
[292.595]
<no-speech>
[294.795]
kimin
[295.415]
<no-speech>
[305.495]
hı
[306.215]
<no-speech>
[310.885]
<sta> çökük
[312.935]
<no-speech>
[315.575]
olamaz <cough>
[317.365]
<no-speech>
[318.825]
<no-speech>
[319.215]
<no-speech>
[320.895]
o tüh <sta> (()) saçmaladık <no-speech> <lipsmack> ben aynen şeye girdim ya güya ihracat <no-speech> (()) dikiş attım ihracatta (())
[330.845]
<no-speech>
[331.805]
<no-speech>
[333.295]
<no-speech>
[334.575]
(())
[335.525]
<no-speech>
[337.385]
(())
[339.405]
<no-speech>
[341.595]
çok (()) <no-speech>
[344.515]
<sta> ne
[345.775]
<no-speech>
[347.385]
<no-speech>
[347.775]
<no-speech>
[349.855]
mhm
[350.515]
<no-speech>
[354.595]
<sta> nasıl
[356.255]
<no-speech>
[361.505]
(()) geç geliyor ben de anlamadım <int>
[364.685]
<no-speech>
[366.165]
(())
[367.985]
(())
[370.625]
<hes> ederim <sta> <no-speech> bir hafta sonu gitmezsen gelirsin bu tarafa
[375.225]
<no-speech>
[377.335]
(())
[379.245]
<no-speech>
[380.255]
<sta> ne
[384.375]
<no-speech>
[386.595]
<int> (()) gidecek mi oğlum hafta sonu <no-speech> <int>
[390.005]
yok yani
[390.895]
hı <sta> <no-speech> gidecek mi Burak da
[393.795]
<no-speech>
[396.285]
ya gideceğim herhalde ama belli değil ya <no-speech> belki öbür hafta giderim <int>
[401.255]
<no-speech>
[404.745]
<sta> bakalım ya (())
[408.495]
<no-speech>
[410.215]
gidemeyebilirim <int>
[412.475]
<no-speech>
[413.305]
<no-speech>
[413.705]
<no-speech>
[416.475]
<no-speech>
[416.845]
<no-speech>
[418.545]
of of <int>
[420.135]
<no-speech>
[421.445]
<sta> öyle yani
[424.475]
<no-speech>
[425.315]
Mete gelir mi sence
[426.515]
<no-speech>
[428.055]
<sta> hı <no-speech> ne
[432.045]
<no-speech>
[434.515]
he <sta> <no-speech> <breath> iyi bak daha var aramana oğlum iş için başlar
[441.465]
<no-speech>
[443.425]
(())
[444.695]
<no-speech>
[446.035]
<sta> oğlum sorma lan o nasıl olay (()) <breath>
[448.905]
<no-speech>
[449.955]
<no-speech>
[450.325]
<no-speech>
[452.125]
<no-speech>
[452.525]
<no-speech>
[456.965]
<sta> farklı mı şu anda
[460.285]
<no-speech>
[464.295]
<sta> savcınınki mi Burak'ınki mi
[466.745]
<no-speech>
[467.655]
<no-speech>
[468.655]
<no-speech>
[469.845]
<int> Tansu mu Burak mı
[471.105]
<no-speech>
[472.695]
<int> Tansu mu Burak mı lan hangisininki <int>
[475.075]
<no-speech>
[477.445]
hı <int>
[478.745]
<no-speech>
[483.045]
of <sta>
[485.785]
<no-speech>
[486.805]
<hes> ne diyorsun <int>
[487.925]
<no-speech>
[489.485]
<no-speech>
[489.845]
<no-speech>
[492.935]
akşam yedide <int> <no-speech> <breath>
[495.295]
<no-speech>
[496.345]
of
[497.155]
<no-speech>
[498.665]
çık çık oğlum okula
[499.965]
<no-speech>
[500.775]
benden söylemesi
[502.015]
<no-speech>
[507.845]
uykum geldi (())
[509.255]
<no-speech>
[510.235]
<no-speech>
[510.615]
<no-speech>
[513.975]
olsun <int> <breath> <int>
[517.084875]
<no-speech>
[519.855]
bilinmiyormuş oğlum baksan ya
[521.305]
<no-speech>
[523.295]
ben hiç iyi değilim oğlum kaç gündür
[524.885]
<no-speech>
[528.035]
<no-speech>
[528.945]
<no-speech>
[532.925]
hı <breath> <int>
[534.835]
<no-speech>
[535.775]
<no-speech>
[536.135]
<no-speech>
[544.335]
söyle <int>
[545.655]
<no-speech>
[546.815]
hiç
[547.625]
<no-speech>
[557.195]
<laugh> vay <no-speech> <breath> güzel <laugh> yalancının
[563.485]
<no-speech>
[574.775]
vay vay vay <int> <breath> oh onları
[578.235]
<no-speech>
[583.905]
tiyatro gibiyiz oğlum ya
[585.455]
<no-speech>
[586.405]
(()) oğlum hala <sta> <no-speech> hı
[590.625]
<no-speech>
[594.845]
(())
[597.535]
<no-speech>
[599.335]
<no-speech>
[599.595]
<no-speech>
[599.98]
