[0.0]
<no-speech>
[3.565]
<sta> (()) alo anne
[8.855]
<no-speech>
[10.565]
ne yapıyorsun
[11.555]
<no-speech>
[13.885]
ne yapıyorsun
[15.085]
<no-speech>
[17.755]
iyi biliyorum duydum anne bağırma
[21.085]
<no-speech>
[23.395]
abla
[24.025]
<no-speech>
[26.885]
ablam gelecek bana
[28.505]
<no-speech>
[31.075]
ne yapayım
[31.875]
<no-speech>
[33.605]
evet
[34.405]
<no-speech>
[39.745]
şey ne diyeceğim Esra'ya para he
[43.265]
<no-speech>
[45.475]
Esra'yı
[46.335]
<no-speech>
[47.195]
ya şimdi biraz sonra gelecek
[49.185]
<no-speech>
[50.015]
ben de hamur aldım işte
[52.355]
<no-speech>
[53.505]
gideceğim hamur kızartacağım bir şeyler hazırlayacağım Esra'yı da kurana bıraktım
[59.615]
<no-speech>
[62.075]
sen ne yapıyorsun
[63.225]
(())
[65.385]
Feyza evde
[66.755]
<no-speech>
[68.135]
ha
[68.805]
<no-speech>
[69.795]
(()) evde hı hı
[72.135]
(())
[75.735]
Uğur ne yapıyor
[76.935]
<no-speech>
[79.145]
ha
[79.565]
<no-speech>
[83.735]
ha
[84.425]
<no-speech>
[87.215]
ha
[87.945]
<no-speech>
[91.235]
(()) <int> ne ol- ne oldu yine
[94.265]
<no-speech>
[101.265]
e arama anne ben sana söyledim güven çocuğa arama sıkıyorsunuz
[106.135]
<no-speech>
[115.365]
<no-speech>
[115.755]
<no-speech>
[116.625]
beğendin mi Uğur'un şeylerini deri montunu saatini
[120.295]
<no-speech>
[127.67]
<no-speech>
[135.045]
<no-speech>
[135.415]
<no-speech>
[137.335]
ne demek
[138.525]
<no-speech>
[139.995]
iyi güle güle giysin
[141.665]
<no-speech>
[146.225]
<hes> geçen hafta ben de ablam- ablamdaydım vallahi ne olsun ablamdaydım Ayfer geldi oraya
[153.585]
<no-speech>
[157.225]
haberin
[157.905]
<no-speech>
[159.385]
aynen öyle yedik içtik o ka- o da anneannemin yanına gitti anneannem misafirin yanındaymış
[166.385]
<no-speech>
[173.855]
nereye söyle bakayım
[175.325]
<no-speech>
[177.325]
kime
[178.065]
<no-speech>
[184.415]
niye öyle demiş
[187.105]
<no-speech>
[193.445]
<no-speech>
[199.785]
hı
[201.985]
<no-speech>
[207.885]
ha
[208.465]
<no-speech>
[212.485]
hı anladım onun için baban çalışıyor mu hala diyor <int>
[217.125]
<no-speech>
[221.735]
anladım
[223.055]
<no-speech>
[226.645]
vallaha ne bileyim bir şey yok çok sıcak İstanbul
[229.235]
<no-speech>
[236.255]
vallaha akşam bir yağmur yağdı işte
[239.105]
<no-speech>
[240.915]
akşam yağmur yağdı gece yağmur yağdı biraz serinledi bugün biraz daha iyi yani
[247.815]
<no-speech>
[249.335]
yoksa hiç dışa- ha
[251.535]
<no-speech>
[254.015]
neymiş
[255.455]
<no-speech>
[260.945]
nereye
[261.815]
<no-speech>
[265.445]
ha benim haberim yok hiç haber falan seyretmedim ha haber seyretmedim ya bilmiyorum
[271.885]
<no-speech>
[273.965]
(())
[275.065]
<no-speech>
[281.425]
hı
[281.975]
<no-speech>
[289.305]
hı
[289.865]
<no-speech>
[292.725]
kaşınıyor musun
[293.985]
<no-speech>
[297.145]
kaşınıyor musun güneşte güneşte kaşınıyor musun
[301.485]
<no-speech>
[302.985]
Esra da öyle Esra da öyle biliyor musun
[306.285]
<no-speech>
[312.715]
<no-speech>
[319.145]
hı
[319.715]
<no-speech>
[323.565]
eh çıkartmıyorum zaten ya bir sürü krem kullanıyor
[327.105]
<no-speech>
[333.905]
hadi ya
[334.865]
<no-speech>
[340.225]
<no-speech>
[340.575]
<no-speech>
[342.055]
<no-speech>
[343.215]
<no-speech>
[345.385]
yani ne yapacaksın demek ki cinsi sana çekti
[350.635]
<no-speech>
[355.595]
<hes> vücudunda bir şey yoktu kollarında vardı bayağı bir yaraları falan vardı işte geçti tabi ki de kortizon ilaçları sürünce geçiyor
[364.385]
<no-speech>
[370.515]
<no-speech>
[376.645]
evet
[377.325]
<no-speech>
[383.47]
<no-speech>
[389.615]
evet
[390.205]
<no-speech>
[393.035]
biliyorum bir sürü doktor şey verdi <hes> krem verdi vücuduna ya biliyorum
[397.415]
<no-speech>
[399.665]
verdi yani
[400.835]
<no-speech>
[405.005]
e bıktı çocuk ta- her gün krem her gün krem krem görünce kaçıyor yani
[409.085]
<no-speech>
[412.365]
öyle (()) <no-speech>
[421.205]
ha
[422.405]
<no-speech>
[423.625]
anladım
[425.705]
<no-speech>
[430.255]
anladım ne yapıyor (()) nerede
[435.325]
<no-speech>
[442.065]
e
[442.915]
<no-speech>
[445.745]
<no-speech>
[446.615]
<no-speech>
[456.145]
hadi be
[457.015]
<no-speech>
[462.815]
<hes> Allah Allah kuzuya kim bakıyor peki şimdi
[467.525]
<no-speech>
[470.475]
kuzuya kim bakıyor
[471.655]
<no-speech>
[474.415]
hadi ya
[475.455]
<no-speech>
[477.975]
al- Allah Allah eh akşamları nerede kalacak
[481.165]
<no-speech>
[486.455]
hadi be
[487.385]
<no-speech>
[492.375]
inanmıyorum ya Allah Allah Allah (()) ne oldu söyle efendim
[504.255]
<no-speech>
[504.405]
<no-speech>
[506.175]
<no-speech>
[506.895]
<no-speech>
[508.715]
Migros'ta ha
[510.855]
<no-speech>
[512.715]
ha
[513.295]
<no-speech>
[521.965]
hı
[522.564875]
<no-speech>
[523.654875]
ha
[524.245]
<no-speech>
[531.07]
<no-speech>
[537.895]
a- a duydum
[541.355]
<no-speech>
[548.445]
<no-speech>
[555.535]
<no-speech>
[556.065]
<no-speech>
[557.535]
<no-speech>
[557.905]
<no-speech>
[560.345]
<no-speech>
[561.425]
<no-speech>
[564.605]
eh geçme anne sen
[566.685]
<no-speech>
[567.735]
<no-speech>
[568.825]
<no-speech>
[572.155]
<no-speech>
[574.515]
<no-speech>
[580.995]
Allah Allah
[583.475]
<no-speech>
[585.775]
<no-speech>
[587.015]
<no-speech>
[589.045]
ha
[589.655]
<no-speech>
[597.165]
evet
[597.955]
<no-speech>
[599.485]
evet
[600.015]
<no-speech>
[600.02]
