[0.0]
<no-speech>
[1.635]
alo
[2.235]
<no-speech>
[3.725]
Selçuk Bey
[4.495]
<no-speech>
[5.565]
alo
[6.315]
<no-speech>
[8.055]
(())
[8.485]
<no-speech>
[9.725]
Selçuk Bey siz misiniz
[11.055]
<no-speech>
[12.705]
alo
[13.485]
<no-speech>
[15.285]
e (()) senin sesin alo <int> alo
[20.445]
<no-speech>
[22.255]
tamam Selçuk nasılsın ben Mehmet
[24.245]
<no-speech>
[28.855]
Selçukçuğum sesim gelmiyor mu
[30.885]
<no-speech>
[32.975]
alo
[33.755]
<no-speech>
[36.405]
ben de duyuyorum seni hep bir şey diyemiyorum sana ya nasılsın iyi misin
[41.405]
<no-speech>
[42.385]
<no-speech>
[42.965]
<no-speech>
[47.675]
<no-speech>
[48.125]
<no-speech>
[51.365]
tamam görüşürüz zaten
[53.205]
<no-speech>
[55.685]
nasılsın ne yapıyorsun nasıl gidiyor iyi misin
[58.875]
<no-speech>
[65.145]
evet evet öyle oluyor doğru
[67.195]
<no-speech>
[68.405]
sesin şu an böyle boğultulu geliyor ama ben seni anlayabiliyorum duyuyorum yani
[74.115]
<no-speech>
[75.565]
ne yapıyorsun ne ediyorsun nasılsın nasıl (()) <no-speech>
[80.535]
nasıl durumlar iyi mi
[82.055]
<no-speech>
[84.035]
afiyet olsun benim için <no-speech>
[88.865]
benim içinde içseydin
[90.275]
<no-speech>
[100.325]
ya boş ver ya Allah Allah olur öyle şeyler
[103.055]
<no-speech>
[104.095]
ya takma kafayı ne yaptın bugün nerelere gittin
[107.955]
<no-speech>
[114.535]
hı
[115.045]
<no-speech>
[117.965]
anladım
[118.825]
<no-speech>
[122.125]
e başka
[123.355]
<no-speech>
[127.565]
valla ben yorgundum işte gittim karşıda Mecidiyeköy falan orada bir işim vardı <hes> öğleden sonra da Özge ile buluştum (())
[137.505]
yedi yüze <int> geldik yedi buçuk galiba
[141.115]
<no-speech>
[143.035]
Özge iyi ya
[144.435]
<no-speech>
[145.765]
yani iyi daha bir seni var işte (())
[150.755]
<no-speech>
[152.675]
durumlar böyle başka ne yapıyorsun
[154.635]
<no-speech>
[157.215]
evet bilmiyorum herhalde öyle galiba
[159.685]
<no-speech>
[160.755]
herhalde öyle
[161.815]
<no-speech>
[169.205]
yok seninki tam net geliyor bana
[171.125]
<no-speech>
[181.985]
hı anladım
[183.175]
<no-speech>
[183.995]
anladım olabilir Selçuk doğru söylüyorsun
[187.045]
<no-speech>
[187.895]
alo
[188.515]
<no-speech>
[190.145]
alo
[190.785]
<no-speech>
[193.065]
hı
[193.705]
<no-speech>
[195.415]
hı kuşları getirdim ya <hes> işte eşekler de erkek dişiyi dövdü ayırdım sarı (())
[203.405]
<no-speech>
[207.065]
erkek olan dişiyi dövdü
[209.335]
<no-speech>
[210.225]
valla yolculuk uyuyamadım ya
[212.435]
<no-speech>
[213.555]
yani şey düz yolculuk sevmiyorum ben zaten
[217.045]
<no-speech>
[217.865]
uyuyamadım <hes> şey
[219.665]
<no-speech>
[220.735]
<hes> yani böyle dokuz on saat böyle yarı uyanır yarı uyur uyur bir şekilde işte geldik
[228.755]
<no-speech>
[231.405]
durumlar böyle başka ne yapıyorsun
[233.555]
<no-speech>
[239.185]
anladım
[239.845]
<no-speech>
[243.925]
iyi ya şeye falan çıkmıyorsun ha sıcakta sıcakta gündüz çok sıcak oldu mu dışarılara çok fazla çıkma
[253.395]
<no-speech>
[260.915]
iyi ya serin (())
[262.234875]
<no-speech>
[263.505]
iyi olur abi
[264.315]
<no-speech>
[266.845]
(())
[270.055]
<no-speech>
[271.365]
yıka diyorum bir altını şey yarın serin serin
[276.575]
<no-speech>
[283.345]
inşallah
[284.145]
<no-speech>
[285.735]
ben herhalde
[286.735]
<no-speech>
[288.055]
hı on beş yirmi gün sonra gelirim herhalde
[291.415]
<no-speech>
[294.295]
başka ne yapıyorsun
[295.455]
<no-speech>
[302.125]
Ali ile görüştün mü hiç
[303.785]
<no-speech>
[306.855]
alo Ali ile Ali ile
[308.825]
<no-speech>
[311.485]
o Ali ile (()) <no-speech>
[313.675]
hı ne yapıyor o
[314.935]
<no-speech>
[321.125]
<no-speech>
[321.475]
<no-speech>
[323.495]
mhm
[324.125]
<no-speech>
[331.545]
ya bugün konuşmadın da sen onu ben randevu alacağım gidicem öyle yapacağım yani
[337.285]
<no-speech>
[338.555]
bu hemen <hes> yani hiç belli olmaz yarın gider şey taparım adamlardaki duruma bağlı ben onu (()) öyle uzun süre değil
[349.465]
<no-speech>
[351.555]
çünkü orada sıkıntı var onu biliyorum ben
[353.755]
<no-speech>
[355.765]
e başka
[357.135]
<no-speech>
[366.675]
hı anladım anladım
[368.245]
<no-speech>
[369.245]
iyi anlat başka şeyler ya
[372.405]
<no-speech>
[374.305]
mhm çok sıcak çok sıcak mıydı bugun
[378.045]
<no-speech>
[385.495]
çok kötü ya sıcak
[386.685]
<no-speech>
[389.515]
mhm
[390.145]
<no-speech>
[394.805]
mhm
[396.245]
<no-speech>
[397.215]
iyi
[399.085]
<no-speech>
[401.695]
(()) yani
[404.015]
<no-speech>
[406.365]
iyi yaptın ya
[407.305]
<no-speech>
[408.305]
mhm
[408.895]
<no-speech>
[411.655]
kafa dengiyse iyi ya boş ver
[413.705]
<no-speech>
[420.185]
hı hı
[420.775]
<no-speech>
[427.435]
<no-speech>
[427.795]
<no-speech>
[431.235]
hı iyi iyi yapmışsın ya
[434.065]
<no-speech>
[435.615]
e başka
[436.435]
<no-speech>
[439.855]
(())
[441.275]
<no-speech>
[444.995]
ben yirmi gün sonra falan gelirim herhalde
[447.315]
<no-speech>
[454.105]
(()) göstermeyi düşünüyorum ama eğer doktor bulabilirsem
[457.725]
<no-speech>
[460.615]
ya dok- doktora bağlı ya hayır romotolog öyle çok olan doktor değil randevuyla gidiyorsun şey o romotizmanın bir dalıymış romotologlar <no-speech> daha doğrusu romatizmal hastalıkların bir dalıymış yani
[475.505]
<no-speech>
[477.215]
onun içi mesela (()) yoktu yani
[481.125]
<no-speech>
[483.265]
yani o <foreign> olarak ya üniversite hastanesine gidecektik ya da eğitim hastanesine zaman da yoktu
[493.165]
<no-speech>
[494.165]
öyle olunca
[495.225]
<no-speech>
[504.435]
yok bilmiyorum ben ya
[506.185]
<no-speech>
[508.625]
onu bilmiyorum
[509.955]
<no-speech>
[513.685]
başka
[514.545]
<no-speech>
[515.815]
Yüksel'i görüyor musun Yüksel'i
[517.515]
<no-speech>
[527.155]
hı
[528.045]
<no-speech>
[529.315]
anladım
[530.005]
<no-speech>
[531.975]
o olmuyor mu emekli daha ya
[533.775]
<no-speech>
[540.465]
değil mi hı anladım
[544.775]
<no-speech>
[545.985]
(())
[546.665]
<no-speech>
[550.965]
doğru söylüyorsun
[552.115]
<no-speech>
[557.705]
<no-speech>
[558.355]
<no-speech>
[560.815]
e söylemedin mi Kemal'e
[562.655]
<no-speech>
[564.815]
böyle böyle diye
[565.885]
<no-speech>
[573.495]
<no-speech>
[573.845]
<no-speech>
[576.285]
<no-speech>
[577.805]
<no-speech>
[581.115]
mhm
[581.825]
<no-speech>
[583.455]
iyi bedava
[584.785]
<no-speech>
[590.305]
(())
[595.485]
<no-speech>
[597.365]
(())
[598.325]
<no-speech>
[599.64]
