[0.0]
<no-speech>
[10.625]
<no-speech>
[13.505]
<no-speech>
[20.255]
alo
[20.985]
<no-speech>
[24.475]
alo
[25.165]
<no-speech>
[25.985]
canım
[26.685]
<no-speech>
[29.595]
iyiyim canım sen ne yapıyorsun
[31.525]
<no-speech>
[37.995]
iyiyim evdeyim ben ders çalışıyorum falan senin derslerin nasıl
[43.125]
<no-speech>
[49.515]
<no-speech>
[50.005]
<no-speech>
[56.765]
sesin gelmiyor
[58.165]
<no-speech>
[59.735]
<no-speech>
[60.265]
<no-speech>
[64.905]
senin de öyle
[67.465]
<no-speech>
[69.215]
ne yapıyorsunuz
[70.345]
<no-speech>
[72.595]
geliyor mu şimdi
[73.725]
<no-speech>
[75.735]
ne yapıyorsunuz
[76.675]
<no-speech>
[80.655]
ay geliyor mu şimdi
[82.605]
<no-speech>
[84.975]
şimdi geliyor mu
[85.565]
<no-speech>
[86.885]
tamam ne yapıyorsunuz ne var ne yok
[88.665]
<no-speech>
[91.105]
tamam duyuyorum ben seni
[92.795]
<no-speech>
[95.005]
duyuyorum ben seni canım
[96.385]
<no-speech>
[97.415]
a- ne yapıyorsunuz siz
[98.905]
<no-speech>
[100.975]
iyiyiz canım (())
[102.705]
<no-speech>
[104.065]
ders çalışıyorsun Mesut
[105.485]
<no-speech>
[107.075]
ne çalışıyorsun okul başladı
[109.215]
<no-speech>
[111.225]
gidiyorsunuz değil mi şimdi
[112.605]
<no-speech>
[115.915]
(())
[116.675]
<no-speech>
[119.525]
<no-speech>
[119.895]
<no-speech>
[121.105]
öyle mi görüyor (())
[124.105]
<no-speech>
[127.795]
dedim ki dersleriniz başladı mı
[129.914875]
<no-speech>
[135.635]
yok dersleriniz başladı mı
[137.765]
<no-speech>
[139.115]
hani hocalar anlatıyor ya (()) boş mu geçiyor yoksa
[143.045]
<no-speech>
[144.035]
ilk günler ya
[145.215]
<no-speech>
[148.915]
(())
[150.055]
<no-speech>
[151.195]
karnen nasıldı
[153.365]
<no-speech>
[154.245]
karnen nasıldı
[155.535]
<no-speech>
[163.105]
karnen nasıldı diyorum
[164.985]
<no-speech>
[173.105]
takdir aldın
[174.165]
<no-speech>
[179.655]
ha kaçırdın bir dörtle <no-speech> artık ikinci dönem düzeltirsin
[184.495]
<no-speech>
[190.445]
bir ikinci dönem düzeltirsin artık
[192.745]
<no-speech>
[195.285]
annengil ne yapıyor
[196.475]
<no-speech>
[204.135]
annengil ne yapıyor
[205.535]
<no-speech>
[211.555]
anlamadım
[212.595]
<no-speech>
[215.205]
<no-speech>
[215.895]
<no-speech>
[217.015]
diyorum anlamadım ben seni annengil ne yapıyor
[220.395]
<no-speech>
[224.965]
mhm <breath>
[226.245]
<no-speech>
[227.555]
tamam tam anlaşılmıyor ya o yüzden dayım
[230.535]
<no-speech>
[238.315]
işte
[239.325]
<no-speech>
[242.125]
dedemlere gidiyor musun
[243.545]
<no-speech>
[246.735]
<no-speech>
[247.155]
<no-speech>
[248.325]
ben mi
[249.215]
<no-speech>
[250.955]
yok işte çalışmıyorum sınava gireceğim de <no-speech> çalışıyorum işte
[255.475]
<no-speech>
[258.545]
üniversite sınavı var ya
[260.215]
<no-speech>
[263.435]
(()) ders çalışıyor <int> bakalım
[266.375]
<no-speech>
[269.745]
ım
[270.395]
<no-speech>
[272.725]
anlamadım canım
[273.865]
<no-speech>
[281.225]
anlamıyorum ben seni ama
[282.755]
<no-speech>
[283.985]
efendim
[285.025]
<no-speech>
[289.595]
bir daha söyle
[290.795]
<no-speech>
[296.955]
alo
[297.725]
<no-speech>
[300.215]
an beni anlıyor musun
[302.575]
<no-speech>
[304.975]
(())
[305.465]
<no-speech>
[308.285]
ben de öyle işte tam anlayamıyorum
[310.545]
<no-speech>
[316.545]
hı ablam hep (()) yapıyor
[319.165]
<no-speech>
[320.465]
<laugh> bakayım on dakika dolmuş mu
[323.755]
<no-speech>
[325.235]
yok daha dolmamış beş dakika var
[327.565]
<no-speech>
[328.505]
<laugh> ablan nerede şimdi
[331.155]
<no-speech>
[333.725]
(())
[334.535]
<no-speech>
[340.745]
<hes>
[341.755]
<no-speech>
[343.555]
hep böyle mi
[344.805]
<no-speech>
[355.635]
(()) iyi dersaneye gidiyor okula gidiyor
[358.495]
<no-speech>
[360.825]
öyle
[361.485]
<no-speech>
[362.505]
okuldu başladı (())
[364.025]
<no-speech>
[369.605]
iyiler hepsi iyiler
[371.585]
<no-speech>
[372.535]
ay <no-speech> <laugh> (()) sohbet et
[382.505]
<no-speech>
[385.045]
diyorum sadece sohbet edeceğiz ben bir şey söylüyor sandım
[389.265]
<no-speech>
[391.135]
ablan dedi ya öyle başka kimi aradınız
[394.095]
<no-speech>
[404.605]
yok ablan mı ay şey yapıyorum dedi ya ben de dedim bir şey herhalde sorulacak dedim ondan
[412.505]
<no-speech>
[420.705]
<hes>
[421.335]
<no-speech>
[423.425]
anladım
[424.205]
<no-speech>
[425.375]
on dakikadan sonra kendi mi kapanacak
[427.585]
<no-speech>
[428.385]
biz mi kapatacağız
[429.545]
<no-speech>
[432.045]
<hes>
[435.515]
<no-speech>
[438.335]
kimi aradı benden önce <laugh> kaç kişiyi arıyor
[443.215]
<no-speech>
[446.785]
diyorum kaç kişiyi aradı
[448.415]
<no-speech>
[452.255]
diyorum başka kimi aradı
[453.675]
<no-speech>
[455.815]
mhm şimdi diyorum başka kimi aradı
[458.035]
<no-speech>
[461.255]
<laugh> diyorum ki benden önce diyorum kimi aradı
[467.555]
<no-speech>
[477.065]
<laugh> Onur'u arasın Onur'u
[480.425]
<no-speech>
[484.185]
(())
[487.925]
<no-speech>
[489.085]
<no-speech>
[489.475]
<no-speech>
[491.085]
o konuştukça konuşur
[492.745]
<no-speech>
[502.845]
benim mi şu an yok ders kitabına işte çalışıyorum
[506.135]
<no-speech>
[507.505]
(()) çalışmam lazım ona çünkü bu sene yeni gireceğim ben
[512.025]
<no-speech>
[514.795]
ancak o olur
[516.454875]
<no-speech>
[518.615]
<hes>
[519.125]
<no-speech>
[520.524875]
ya işte sınava gireceğim sınava
[522.434875]
<no-speech>
[524.145]
evet yeni giriyorum
[526.165]
<no-speech>
[534.775]
diyorum ya yeni gireceğim sınava
[536.455]
<no-speech>
[542.565]
tamam
[543.005]
<no-speech>
[548.255]
e başka ne yapıyorsun <no-speech> şeyler geliyor mu <cough>
[553.795]
<no-speech>
[555.665]
<laugh> Buket (()) Buket geliyor mu
[558.805]
<no-speech>
[563.245]
Buketgil ile diyorum görüşüyor musunuz
[565.785]
<no-speech>
[575.295]
<hes>
[575.835]
<no-speech>
[579.695]
(())
[580.445]
<no-speech>
[583.295]
(())
[584.915]
<no-speech>
[589.045]
<no-speech>
[589.405]
<no-speech>
[593.595]
havalar çok kötü
[595.065]
<no-speech>
[597.025]
havalar çok kar yağıyor değil mi orada ay keşke
[599.92]
