[0.0]
<no-speech>
[5.585]
<no-speech>
[8.485]
<no-speech>
[10.195]
Mustafa <int> geliyor geliyor
[17.795]
<no-speech>
[21.165]
hı
[23.075]
<no-speech>
[28.595]
tamam ben bekliyorum
[29.835]
<no-speech>
[34.275]
valla ne olsun (())
[37.265]
<no-speech>
[38.415]
<no-speech>
[38.765]
<no-speech>
[40.265]
efendim
[40.825]
<no-speech>
[42.415]
valla benim işim <laugh> daha olmadı
[46.835]
<no-speech>
[50.335]
<laugh> (())
[56.215]
<no-speech>
[58.065]
sen ne yapıyorsun ne var ne yok <hes>
[60.445]
<no-speech>
[63.015]
<no-speech>
[63.515]
<no-speech>
[67.335]
<no-speech>
[67.725]
<no-speech>
[69.275]
<no-speech>
[69.815]
<no-speech>
[71.355]
ata- ataması yapılamayan mühendisler <laugh>
[75.425]
<no-speech>
[77.045]
<int> bizim de şey ataması yapılamayan işsizler ataması yapılamayan işsizler
[85.465]
<no-speech>
[87.635]
geçen ben sana mesaj attım cevap vermedin bana <hes>
[90.605]
<no-speech>
[91.735]
geçen de mesaj attım sana cevap vermedin bana <hes> o şeyle ilgili
[95.525]
<no-speech>
[96.895]
Dursungillerle ilgili olan <laugh>
[103.765]
<no-speech>
[104.585]
<no-speech>
[105.185]
<no-speech>
[106.675]
<no-speech>
[108.265]
<no-speech>
[111.965]
zorla zorla
[122.705]
<hes> valla bilmiyorum İso ben şey geçen doktorla görüştüm ben
[127.825]
<no-speech>
[128.625]
diyor ne yap ne et şey yap diyor bedelliden yararlan ben diyorum doktor parayı nereden buluyum
[133.685]
<no-speech>
[136.125]
ya bir de çok şey olmuş İrfan ya çok kolay olmuş <hes> çok şey olmuş ya kolay olmuş İrfan ya aylık bir milyar bir milyar iki yüz elli
[144.055]
<no-speech>
[145.505]
ya önceden altı taksit yapmışlardı ya <hes> sonradan herhalde bir şey <hes> çok başvuru olmayınca biraz taksitlendirmeyi şey yaptılar taksitlendirmeyi şey <hes>
[157.145]
(()) altıdan on ikiye çıkardılar aylık bir milyar iki yüz elli mhm
[162.865]
<no-speech>
[163.905]
işte <hes> on iki ay
[166.315]
<no-speech>
[167.185]
ilk beş (()) otuz milyar ya
[169.615]
<no-speech>
[171.365]
yok <hes> ilk on beşi veriyorsun ondan sonraki on beş on iki ay taksit
[177.625]
<no-speech>
[179.375]
<hes>
[182.035]
<no-speech>
[183.805]
işte
[184.385]
<no-speech>
[188.285]
yok İrfan ben diyorum işte şey olursa elbet bir iki ay içerisinde bir iş bulurum bu devran böyle sürmez
[194.705]
<no-speech>
[196.885]
ya artık şey ya <hes>
[199.135]
<no-speech>
[200.605]
ya
[201.025]
<no-speech>
[202.965]
mhm doktor <hes> ya İrfan (()) ilk on beşi verseydim ben oradan buralardan geçip giderdim ya diğer aynı şekilde ben onu düşünüyorum şunu şu ilk on beşi versem iş tamam
[214.845]
olacak gibi
[216.055]
<no-speech>
[216.965]
<no-speech>
[217.715]
<no-speech>
[218.915]
ilk on beş biraz <no-speech>
[222.565]
vallahi daha hiç kimseye söylemedim İrfan dün birini aradım (()) ben şöyle düşünüyorum diyorum (()) üç dört alayım başka bir arkadaşı yine aradım dedim merhaba benim sana bir şeyim düşmüş
[234.435]
bir hizmetim düşmüş sen yerine getireceksin dedi tamam o zaman ben Kars'tayım ben sana dönerim şerefsiz daha dönmedi
[252.355]
artık seneye paramızı vereceğim <laugh>
[254.695]
<no-speech>
[256.845]
(()) tamam ya
[259.205]
<no-speech>
[260.165]
on beş aydan yapamam İrfan ya vallahi ben (())
[263.925]
<no-speech>
[267.495]
<int> vallahi ben artık bir milyon arkadaşlardan diyeceğim arkadaşa ya galiba beni kırmaz ya
[275.545]
<no-speech>
[276.535]
ben diyeceğim ona bir on milyar çıksa senede çok güzel zaten şey olsa ilk anda kesinlikle buralarda durmadan şey İstanbul'a falan gitsem kesinlikle iş bulurum oralarda ne iş bulsam yaparım ben
[288.135]
<no-speech>
[290.455]
<hes>
[290.975]
<no-speech>
[293.245]
<hes>
[296.005]
<no-speech>
[297.015]
bir bak bir baktın sen K_P_S_S'den sonra bir baktın sende geldin yazın oralarda bu yazın çalışırız
[304.025]
<no-speech>
[304.895]
sen gelmezsin K_P_S_S'den sonra da
[306.625]
<no-speech>
[316.135]
ya (()) te- te- tekstillerde <no-speech> İrfan <no-speech> tekstillerde mekstillerde bir b- <hes> bir buçuk milyar para falan veriyorlar ya
[324.275]
<no-speech>
[326.935]
valla bir buçuk (()) civarı para veriyorlar diyorlar bu tekstillerde falan o şey komple şeylerin toplandığı yer Zeytinburnu'nda (()) çok işçi var
[337.365]
böyle buralardan bizim buralardan giden
[339.655]
<no-speech>
[341.325]
(()) herkes oralarda çalışıyor
[343.315]
<no-speech>
[347.265]
zaten bir insan bir işe başvurmak için diyor bir şey ver belge ver askerlik belgeni ver ben nereden vereceğim dedim vermiyorum
[355.495]
<no-speech>
[364.525]
diyom şey bir bir yere başvuruyorsun diyor belgeni ver (()) en azından (())
[375.995]
bakarız ne bileyim şey yapmaya çalışırım torpil yapmaya öyle olmayınca eh gideceğime askerlik yok ne diyeceğim
[383.365]
<no-speech>
[385.945]
değil mi
[386.605]
<no-speech>
[388.475]
<int> sende daha yapmamıştın
[391.705]
<no-speech>
[399.185]
<hes> İrfan sende bedelliden yararlanıyor muydun uzun dönem olsaydı
[404.095]
<no-speech>
[405.525]
<no-speech>
[405.885]
<no-speech>
[406.735]
<no-speech>
[460.025]
<no-speech>
[463.965]
<no-speech>
[465.345]
valla şimdi biliyorsun (()) su basmasını su basmasını bile (()) yapacağız
[471.255]
<no-speech>
[473.525]
alo bilmiyorum yani bir yaklaşık bir otuz milyarlık masraf yapmışız yine cebimizde biraz para var <laugh>
[481.015]
<no-speech>
[486.435]
valla şu ana kadar sadece bu basmasını doldurmuşuz
[489.165]
<no-speech>
[490.195]
yani ya aslında daha önceden şey almıştık ya (()) almıştık beton beton almıştık
[496.035]
<no-speech>
[497.305]
bizde şu an sadece işçi parasını veriyorsun işçi parasını ayrı ne bileyim (()) veriyorsun yüz veriyorsun öyle ki dönüyor yani çark ya bir şekilde çark dönüyor
[506.925]
<no-speech>
[512.274875]
<hes> valla ya artık bir şey de kalmadı İrfan on iki gün on iki gün <hes> İrfan on iki gün kaldı ya bu bedellinin sona ermesine
[521.934875]
<no-speech>
[523.985]
valla on iki on beşinde on beşinde on beşinde bitiyor
[569.035]
ben dedim valla doktor doğru söylüyorsun <laugh>
[571.135]
<no-speech>
[574.675]
kim kapatacak
[575.805]
<no-speech>
[577.555]
İrfan
[578.175]
<no-speech>
[589.585]
kapatıyoruz
[590.515]
<no-speech>
[593.585]
<no-speech>
[593.985]
<no-speech>
[595.295]
<no-speech>
[595.875]
