[0.0]
<no-speech>
[7.924875]
<no-speech>
[8.975]
<no-speech>
[11.985]
alo <int>
[13.455]
<no-speech>
[14.285]
alo
[14.915]
<no-speech>
[17.375]
<breath> iyiyim canım günaydın sen ne yapıyorsun
[20.115]
<no-speech>
[21.175]
<no-speech>
[21.985]
<no-speech>
[27.135]
<no-speech>
[27.865]
<no-speech>
[28.995]
<breath> evet ofisteydim yeni aşağı indim şimdi <breath> bir şeyler bakacağım öyle sen ne yapıyorsun
[35.025]
<no-speech>
[42.155]
ah neyin var ne oldu
[44.045]
<no-speech>
[50.175]
<no-speech>
[56.305]
gittin mi doktora
[57.745]
<no-speech>
[59.525]
<no-speech>
[59.885]
<no-speech>
[66.685]
anladım dikkat et kendine Ayda ne yapıyor
[70.085]
<no-speech>
[70.985]
<breath> <breath> alo
[77.895]
<no-speech>
[79.215]
<no-speech>
[81.175]
<no-speech>
[82.405]
ayağı nasıl oldu
[87.285]
<no-speech>
[91.195]
anladım ağrısı sızısı var yani
[96.125]
<no-speech>
[96.965]
<no-speech>
[97.555]
<no-speech>
[99.475]
hı anladım
[100.595]
<no-speech>
[102.105]
evde kim var (())
[103.695]
<no-speech>
[106.795]
ben de ne yapayım ya bildiğin gibi <breath>
[109.295]
<no-speech>
[111.675]
<no-speech>
[112.035]
<no-speech>
[112.835]
gidecek mi annen şeygile bugün Cemgile gidecek mi
[117.135]
<no-speech>
[128.595]
e niye niye gitmiyor annen de sürekli evde oturup duruyor
[131.855]
<no-speech>
[136.085]
ha
[136.605]
<no-speech>
[140.595]
hı
[141.205]
<no-speech>
[147.985]
hı anladım
[149.305]
<no-speech>
[150.365]
iyi bakalım sen (()) de
[151.725]
<no-speech>
[154.135]
tamam tamam unutmasınlar sen ne yapacaksın bugün
[156.815]
<no-speech>
[163.145]
hı
[163.805]
<no-speech>
[170.955]
hı çocukları (()) gideceksiniz <laugh>
[174.265]
<no-speech>
[178.135]
<no-speech>
[179.425]
<no-speech>
[182.225]
ya ben bilmiyorum ki bir işte bir işlerim var onları bir halledeyim ondan sonra haberleşiriz yani ben sizi tekrar ararım
[190.485]
<no-speech>
[196.695]
efendim altı buçukta gideceksem bir mantığı yok ben oraya gidene kadar zaten yedi buçuk yarım saat durup da geri gitmenin de bir mantığı yok yani en geç sekiz buçukta sekiz de <int> eve gidiyorum ya
[206.845]
<no-speech>
[212.615]
he
[213.125]
<no-speech>
[219.335]
kim kim (()) <no-speech>
[222.875]
<laugh> siz kim kim (()) <no-speech>
[229.205]
hı
[229.855]
<no-speech>
[232.885]
Tülin
[233.425]
<no-speech>
[238.115]
anladım
[238.885]
<no-speech>
[240.975]
(()) ya zaten böyle pek gidesim de yok bugün
[244.745]
<no-speech>
[248.395]
<no-speech>
[248.905]
<no-speech>
[252.185]
tamam bebeğim teşekkür ederim
[253.805]
<no-speech>
[256.285]
<no-speech>
[257.165]
<no-speech>
[259.615]
(()) ne yapıyorsun (())
[261.645]
<no-speech>
[263.965]
nasıl <int>
[264.835]
<no-speech>
[267.815]
anlamadım
[268.645]
<no-speech>
[275.865]
hı evet bence de olabilir çayını içer gider şimdi
[279.235]
<no-speech>
[282.265]
olmaz mı
[283.185]
<no-speech>
[288.445]
(())
[289.365]
<no-speech>
[291.485]
ne yapacaksın sen annene söyledin mi Haydar'ı ya yani adamlar çok ciddi <hes> (()) düşünüyorlar yani sen ne düşünüyorsun Haydar'la konuştum dedin o annengil Hale'ye böyle böyle söylemiş deseydin
[303.455]
<no-speech>
[312.595]
mhm
[313.325]
<no-speech>
[319.605]
Allah Allah ay çok sevindim çok güzel çok mutlu oldum e sen ne yapacaksın ne yapmayı düşünüyorsun (())
[326.995]
<no-speech>
[329.295]
nasıl
[330.005]
<no-speech>
[332.685]
diyorum ki sen ne yapmayı düşünüyorsun hani (())
[335.365]
<no-speech>
[340.025]
alo
[340.725]
<no-speech>
[345.125]
bilmiyorum birtanem
[346.205]
<no-speech>
[348.815]
dinliyorum sen sendeyim duyuyorum <int>
[351.685]
<no-speech>
[353.335]
mhm
[354.065]
<no-speech>
[362.125]
soracak bir şey yok (()) (()) birbirinizi seviyorsunuz da yani soracak bir şey yok ailesini de gördün artık bence çok çok mutlu olabilirsiniz ikiniz
[373.895]
<no-speech>
[383.075]
ne demiş
[383.765]
<no-speech>
[386.705]
hı
[387.375]
<no-speech>
[389.895]
<laugh> <cough>
[394.305]
<no-speech>
[395.235]
<no-speech>
[395.775]
<no-speech>
[398.445]
<no-speech>
[398.955]
<no-speech>
[403.435]
(()) (()) bence
[405.635]
<no-speech>
[411.645]
mesela ne kadar
[412.905]
<no-speech>
[415.465]
<no-speech>
[416.035]
<no-speech>
[422.165]
<no-speech>
[428.295]
(())
[429.225]
<no-speech>
[430.045]
(()) bir şey yok sen de annene söylemelisin annen de bana yavaş yavaş işlemeli bunu annen yavaş yavaş söylemeli
[437.525]
<no-speech>
[438.605]
yani söyleyebilir misiniz bana (()) tekrar
[440.935]
<no-speech>
[447.035]
(())
[447.465]
<no-speech>
[453.475]
(())
[453.955]
<no-speech>
[464.935]
(()) anladım
[466.525]
<no-speech>
[467.445]
<no-speech>
[467.845]
<no-speech>
[468.985]
iyi iyi bakalım <int> (()) konuşun ben de sizin aranızda bir ara ara varım artık
[473.845]
<no-speech>
[474.645]
zaten olmayacak bir şey yok sen <int> evleniyorsun yavaş yavaş fark ettiğin üzere <laugh>
[481.105]
<no-speech>
[482.515]
Duygu Duygu gelin oluyor sıra bana geliyor <laugh>
[489.015]
<no-speech>
[491.105]
<no-speech>
[492.355]
<no-speech>
[495.615]
zaten ben ayağımı sürükleyerek gideceğim için (()) gerek yok (()) sıkıntı yok o konuda merak etme <laugh>
[502.915]
<no-speech>
[504.925]
he
[505.385]
<no-speech>
[510.565]
öyle sen Haydar'a söyle yüzüğümü alsın benim unutmasın bir Belgin'e bir bana
[515.915]
<no-speech>
[518.925]
yok senin düğün senin düğün kıyafeti (()) nişanında giyeceğim kıyafeti de Haydar alacak bana ona göre
[526.715]
<no-speech>
[531.745]
(()) yok yok olmaz yok sen Haydar alacak bana ben yeniden istiyorum bir tane daha <int> kızım benim hakkımı ödeyemezsiniz bak
[541.125]
<no-speech>
[542.455]
(()) <laugh>
[544.745]
<no-speech>
[549.665]
bence de
[550.585]
<no-speech>
[553.415]
he
[553.915]
<no-speech>
[564.695]
<laugh> yok yok o kadar acımasız davranamam <laugh>
[568.435]
<no-speech>
[572.705]
neyse hayırlısı ya tek olsun da (()) (())
[576.315]
<no-speech>
[578.055]
he
[578.475]
<no-speech>
[586.035]
evet farkındayım
[587.475]
<no-speech>
[589.295]
çok aceleciler evet yani <laugh> ama hani şey onlar da artık İlhan
[594.745]
<no-speech>
[596.955]
<no-speech>
[597.555]
<no-speech>
[600.04]
