[0.0]
<no-speech>
[2.125]
<no-speech>
[2.505]
<no-speech>
[3.475]
alo
[5.785]
<no-speech>
[7.205]
Mehmet ne yapıyorsun
[8.295]
<no-speech>
[10.685]
alo
[11.375]
<no-speech>
[13.055]
alo
[13.745]
<no-speech>
[14.855]
mhm sesim birkaç saniye geç gelebilir sana
[17.475]
<no-speech>
[18.805]
sesimi duyabiliyor musun
[20.085]
<no-speech>
[22.675]
sesimi duyabiliyor musun
[24.015]
<no-speech>
[26.775]
alo
[27.475]
<no-speech>
[36.075]
hı beni duyabiliyorsun ama değil mi
[37.745]
<no-speech>
[40.265]
<no-speech>
[40.745]
<no-speech>
[43.655]
(())
[44.285]
<no-speech>
[48.245]
mhm ne yapıyorsun ne ediyorsun
[50.365]
<no-speech>
[54.295]
efendim
[55.035]
<no-speech>
[59.175]
mhm bu numara mı şirket numarası
[62.025]
<no-speech>
[65.845]
tamam başka numarayı boş ver numrayı boş ver şimdi başka bir şeylerden bahset ne yapıyorsun iyi misin
[71.695]
<no-speech>
[75.495]
e Hüseyin ne yapıyor
[76.825]
<no-speech>
[79.885]
Hüseyin'i dün gördün mü Hüseyin'i
[81.605]
<no-speech>
[87.305]
<no-speech>
[87.705]
<no-speech>
[89.885]
niye göremedin
[90.845]
<no-speech>
[93.305]
niye ki
[94.045]
<no-speech>
[101.215]
<no-speech>
[102.185]
<no-speech>
[103.445]
<breath> akıllı çocuk ya
[105.845]
<no-speech>
[110.235]
valla adama helal olsun ya
[112.415]
<no-speech>
[118.705]
gider tabi adamın bir ayrıcalığının olması lazım yani
[121.375]
<no-speech>
[122.735]
iyi çalışıyorum ne yapayım
[124.165]
<no-speech>
[125.685]
çalışıyorum
[126.515]
<no-speech>
[129.575]
sekiz dakika daha konuşmamız lazım
[131.375]
<no-speech>
[133.865]
sen dakikaya takılma böyle dakikayı dakikayı hatırlatma sürekli tamam mı anladın
[139.275]
<no-speech>
[141.395]
tamam işte saçmala işte onu söylüyorum
[144.235]
<no-speech>
[145.445]
ben de biliyorum normalde
[147.125]
<no-speech>
[148.465]
normalde küfürlü konuşunca zevki çıkmıyor
[151.025]
<no-speech>
[152.825]
tamam kendimi zor tutuyorum şu anda e çocuklar ne yapıyor işi ne yaptılar
[157.395]
<no-speech>
[159.235]
mhm
[159.665]
<no-speech>
[162.825]
nereye gitmiş
[163.755]
<no-speech>
[170.805]
mhm anladım
[172.275]
<no-speech>
[174.125]
Aksaray'a mı gitmişler
[175.385]
<no-speech>
[182.315]
<no-speech>
[189.245]
uhu
[189.875]
<no-speech>
[198.535]
<no-speech>
[207.195]
uhu
[207.735]
<no-speech>
[219.445]
uhu
[220.045]
<no-speech>
[230.935]
<no-speech>
[241.825]
haydi ya
[242.725]
<no-speech>
[252.075]
geçer mi tabi adam haklı
[253.755]
<no-speech>
[255.325]
Ceyda'nın da amma meraklı ha
[257.315]
<no-speech>
[263.925]
<no-speech>
[270.535]
uhu
[271.115]
<no-speech>
[281.355]
ne
[282.525]
<no-speech>
[288.485]
e Hasan
[289.465]
<no-speech>
[292.385]
Hasan ne oldu
[293.365]
<no-speech>
[303.045]
mhm duyduk ya
[304.615]
<no-speech>
[306.105]
iyi olmuş (())
[307.755]
<no-speech>
[313.365]
kendine çağrı merkezi açmış
[315.095]
<no-speech>
[316.635]
oradan başka biri daha çıktı mı herhalde onunla biriyle ortak açmış heralde oradan başka biriyle
[321.395]
<no-speech>
[326.885]
başka biri daha çıktı mı oradan
[328.555]
<no-speech>
[336.53]
<no-speech>
[344.505]
kim kim ne diyorsun kime konuşuyorsun
[346.535]
<no-speech>
[357.17]
<no-speech>
[367.805]
<no-speech>
[378.44]
<no-speech>
[389.075]
tamam üç üç dakika daha var
[390.715]
<no-speech>
[392.815]
benim de konuşmam lazım haydi ya kapataym ben sana açıklayacağım şunu kapatıyım seni cepten arayacağım
[399.535]
<no-speech>
[401.535]
alo
[402.145]
<no-speech>
[404.355]
alo
[405.105]
<no-speech>
[406.895]
he duyuyor musun beni he tamam sen bu ara erken çıkmıyor musun
[411.325]
<no-speech>
[416.555]
<no-speech>
[416.995]
<no-speech>
[421.745]
(())
[422.905]
<no-speech>
[425.955]
niye yoğunlaştı senin işlerin
[427.475]
<no-speech>
[433.905]
Ayşe ne yapıyor
[434.935]
<no-speech>
[437.315]
Ayşe ne yapıyor
[438.225]
<no-speech>
[449.325]
<no-speech>
[460.425]
bilmiyorum ben tam olarak net bilmiyorum da geç şimdi araştırma hakkında konuşma diyorum hala konuşuyorsun şimdi <cough>
[468.135]
<no-speech>
[469.865]
tabi ki şu anda ben sana para kazandırıyorum
[472.045]
<no-speech>
[473.965]
şu anda dakikası dakikası on Euro'ya konuşuyorsun
[477.505]
<no-speech>
[479.925]
<laugh> ya sen ne kadar boş konuşuyorsun ya
[483.525]
<no-speech>
[488.675]
alırsın parayı tabi bedavaya mı çalışıyorsun
[490.575]
<no-speech>
[491.715]
<cough> Monopoly oynamayalım
[494.105]
<no-speech>
[495.285]
mhm sizin (()) sizin gelmeniz lazım sizin Monopoly bizde de var sizin gelmeniz lazım
[503.495]
<no-speech>
[511.835]
ne yapayım bu hafta cuma olmaz da haftaya cuma olur
[516.155]
<no-speech>
[519.825]
bu cuma değil haftaya cuma mhm geldiğinizde kalırsınız
[522.995]
<no-speech>
[524.055]
cumartesi olmaz
[525.215]
<no-speech>
[526.745]
aslında cumartesi de olabilir bakarız konuşuruz cumartesi de olabilir ama geldiğinizde kalmanız lazım
[531.005]
<no-speech>
[532.845]
uhu
[534.135]
<no-speech>
[535.385]
yani zaman geçer gecenin birinde ikisinde kalkıp gidecek misin ikisinde
[539.295]
<no-speech>
[544.125]
mhm
[544.675]
<no-speech>
[549.515]
vay sanki dersin sarayda oturuyorum neyse kibar konuşmak zorundayım da
[555.155]
<no-speech>
[557.075]
tamam sevemiyorum sana Mehmet idare et bu seferlik böyle olsun kapatıyım şunu ben seni ararım zaten
[562.505]
<no-speech>
[566.975]
tamam bilare ben sana bu kadar sakin konuşmamıştım Mehmet
[571.815]
<no-speech>
[576.435]
mhm sen de kibar konuşmaya başladın seni de değiştirdi lan bu telefonda bir şey var herhalde
[580.335]
<no-speech>
[581.845]
tamam Mehmetçiğim
[583.895]
<no-speech>
[585.765]
valla bir dakikamız kalmış Mehmetçiğim ya bir dakika sonra molam bitiyor
[590.655]
<no-speech>
[595.735]
hangi bir dakika hangi eziyet Mehmet şimdi sen benimle konuşuyorsun gayet kibar bir şekilde ve eziyet mi
[599.98]
