[0.0]
<no-speech>
[5.645]
alo
[6.365]
<no-speech>
[11.175]
alo
[11.855]
<no-speech>
[13.935]
merhaba
[14.665]
<no-speech>
[16.135]
hı hı niye böyle bir şeye <laugh> gerek duydun merhaba iyidir senden ne haber
[21.575]
<no-speech>
[23.795]
ben seni ararsın ya
[25.375]
<no-speech>
[34.705]
hı
[35.335]
<no-speech>
[41.295]
hı hı
[41.935]
<no-speech>
[44.085]
<click> hı hı
[45.045]
<no-speech>
[47.365]
hı hı
[48.635]
<no-speech>
[50.675]
ne yapıyor
[51.545]
<no-speech>
[53.615]
ne yapayım <click> (())
[55.325]
<no-speech>
[57.575]
hı büyüdü mü
[58.935]
<no-speech>
[63.195]
ne kadarlık
[64.234875]
<no-speech>
[70.135]
anladım iyiymiş
[71.265]
<no-speech>
[72.505]
bayağı büyümüş
[73.535]
<no-speech>
[80.125]
duydum
[80.895]
<no-speech>
[85.585]
hı hı <laugh>
[87.165]
<no-speech>
[89.385]
<no-speech>
[90.215]
<no-speech>
[91.655]
iyiyim ne yapayım çalışıyorum bir şey yaptığım yok
[95.335]
<no-speech>
[96.205]
işe gidiyorum eve geliyorum
[97.895]
<no-speech>
[98.915]
<no-speech>
[99.285]
<no-speech>
[100.925]
acildeyim yine
[102.175]
<no-speech>
[104.805]
hı
[105.315]
<no-speech>
[106.695]
hı hı
[107.275]
<no-speech>
[110.745]
<hes> yani acildeyim de değişik yerleri var işte (()) bölümü falan enjeksiyon oralarda çalışıyoruz işte çalışıyorum (()) birileri olmadığı zaman onların yerine bakıyorum
[122.635]
<no-speech>
[123.895]
hı hı
[124.525]
<no-speech>
[129.394875]
enjeksiyonda değilim şu an
[131.004875]
<no-speech>
[131.975]
yani günlük değişiyor bir tane arkadaş vardı hasta <hes> kız rapor almıştı iki ay
[138.595]
<no-speech>
[139.735]
onun saatlerinde mesela olmadığı zaman ben bakıyorum ben denk gelirsem
[144.855]
<no-speech>
[145.665]
öyle sen ne yaptın nasılsın
[147.775]
<no-speech>
[155.235]
iyi
[156.015]
<no-speech>
[159.005]
<no-speech>
[159.505]
<no-speech>
[160.505]
niye Eskişehir yani
[162.355]
<no-speech>
[165.175]
Edirne Eskişehir
[166.565]
<no-speech>
[169.775]
ya Ankara'yı isteseydin keşke ben Ankara'ya gitmeyi düşünüyorum
[174.525]
<no-speech>
[178.005]
yok
[178.755]
<no-speech>
[181.075]
<no-speech>
[182.005]
<no-speech>
[186.255]
<no-speech>
[186.615]
<no-speech>
[190.105]
hı hı
[190.765]
<no-speech>
[192.015]
hı hı
[192.635]
<no-speech>
[200.805]
hı
[202.195]
<no-speech>
[207.395]
hı
[207.795]
<no-speech>
[215.165]
hı sapa gibi geliyor bana ne bileyim
[218.775]
<no-speech>
[222.685]
hı
[223.135]
<no-speech>
[225.235]
iyi iyi daha iyi görüşebiliriz daha sık Edirne çok uzak geldi bana ya en son gittiğimde ben pişman oldum bir daha dedim gidemem oralara
[235.205]
<no-speech>
[238.365]
ya İstanbul'a git bir de oradan Edirne'ye git saatlerce
[242.545]
<no-speech>
[244.905]
hı hı
[245.545]
<no-speech>
[247.785]
bir kere mi geldim iki mi iki kez geldim
[251.035]
<no-speech>
[252.625]
bir kış soğukta geldim bir de sıcakta geldim iki kez geldim
[256.935]
<no-speech>
[260.184875]
tabi karda da geldim ben
[261.895]
<no-speech>
[263.525]
çok soğuktu
[264.715]
<no-speech>
[266.825]
sen hep çalışıyordun biz annen <hes> filan geziyorduk
[270.705]
<no-speech>
[271.765]
<hes> babandamı vardı acaba o öncekindemiydi Erdinç falan vardı
[277.715]
<no-speech>
[279.645]
acaba o yazmıydı
[281.085]
<no-speech>
[282.315]
hiç iki kez geldiğimi hatırlıyorum
[284.375]
<no-speech>
[291.305]
sen ne yaptın nasılsın çoktan ben seni arıyıcam
[293.965]
<no-speech>
[294.795]
<hes> diyorum ki bugün arayayım yarın arayayım iyi olunca arayayım biraz psikolojim düzelince arayayım falan filan aylar oldu herhalde aramayalı seni
[303.145]
<no-speech>
[304.755]
diyorum bu kız beni aramıyor nasıl olsa ben arayayım
[307.215]
<no-speech>
[309.305]
hı
[309.805]
<no-speech>
[314.145]
<no-speech>
[315.015]
<no-speech>
[317.895]
hı hı
[318.495]
<no-speech>
[324.135]
hı
[324.545]
<no-speech>
[330.875]
<no-speech>
[337.205]
hı
[337.725]
<no-speech>
[341.685]
hı hı <int> sıkıldın yani iki ay
[345.535]
<no-speech>
[346.435]
değişiklik olur iyi olur aslında tayinin çıkması iyi olur
[350.175]
<no-speech>
[352.525]
<no-speech>
[353.065]
<no-speech>
[354.305]
ama Eskişehir iyi bir <hes> (()) düşünüyorum
[357.905]
<no-speech>
[359.735]
<breath> yani iyi bir seçim (()) düşünüyorum bilmiyorum
[364.475]
<no-speech>
[368.195]
çok da iyi gelmedi bana
[369.415]
<no-speech>
[371.035]
<no-speech>
[371.665]
<no-speech>
[375.355]
bilmiyorum ya İstanbul'a gelemiyormuydun
[377.935]
<no-speech>
[383.275]
hı
[383.895]
<no-speech>
[390.955]
istemiyorsun hı hı
[392.215]
<no-speech>
[397.065]
ama alışıksın yani bence ayak <click> uydurursun
[399.625]
<no-speech>
[406.685]
yaşlandık
[407.575]
<no-speech>
[419.125]
neyse olsun canım birazcık da orada kal bakalım
[422.865]
<no-speech>
[424.385]
nasıl olacak <hes> o adamın söyledi şeyini Hülyalar hadi ya
[428.835]
<no-speech>
[429.755]
Hülya <hes> aradı da yengen Hülya
[434.385]
<no-speech>
[435.495]
ev falan aldı dedi (()) aldın mı
[438.415]
<no-speech>
[442.925]
hı hı
[443.565]
<no-speech>
[447.555]
hı
[448.135]
<no-speech>
[452.175]
hı hı ne kadara mal oldu
[453.915]
<no-speech>
[464.175]
hı hı
[464.745]
<no-speech>
[473.065]
hı hı
[473.665]
<no-speech>
[479.475]
hı hı
[480.095]
<no-speech>
[484.985]
artıyor
[485.805]
<no-speech>
[487.745]
hı hı çok
[488.565]
<no-speech>
[493.415]
hı hı
[494.045]
<no-speech>
[495.345]
peki <breath> şimdi satınca hı hı
[497.535]
<no-speech>
[502.375]
<no-speech>
[502.835]
<no-speech>
[504.125]
nasıl satınca peki o kadara satabilcen mi
[507.005]
<no-speech>
[512.894875]
hı hı
[513.505]
<no-speech>
[518.274875]
<no-speech>
[518.694875]
<no-speech>
[523.095]
hı hı hı hı
[524.535]
<no-speech>
[529.505]
iyi ya
[530.135]
<no-speech>
[531.055]
hı hı orada mı alır (())
[533.505]
<no-speech>
[535.105]
hı hı olsun almışsın iyi yapmışsın <breath> iyi yapmışsın aldığına
[539.915]
<no-speech>
[547.47]
<no-speech>
[555.025]
hı hı
[555.635]
<no-speech>
[558.565]
al
[558.975]
<no-speech>
[560.155]
iyi yapmışsınız
[561.265]
<no-speech>
[567.295]
niye canım yani insan
[568.975]
<no-speech>
[569.855]
(())
[570.535]
<no-speech>
[571.405]
para işi duruyor
[572.715]
<no-speech>
[574.305]
bir şey yapamadım ya
[575.515]
<no-speech>
[577.335]
hı
[577.755]
<no-speech>
[580.335]
gelişme yok adam bana şey yaptı <breath> en son konuşmamda sen işte ev alıcaksın falan diyince söyledim sahibinden (()) ev aldın de sende yıkıldı farzet dedi bana telefonu kapat
[593.935]
<no-speech>
[596.315]
en son konuşmasında
[598.915]
<no-speech>
[600.12]
