[0.0]
<no-speech>
[3.595]
alo
[4.255]
<no-speech>
[6.075]
hı şey dedi o alo
[8.415]
<no-speech>
[10.625]
alo
[11.325]
<no-speech>
[12.755]
ben duyuyorum
[13.785]
<no-speech>
[15.115]
alo
[15.795]
<no-speech>
[19.145]
alo ben duyuyorum sesini
[20.785]
<no-speech>
[22.065]
alo
[22.725]
<no-speech>
[26.415]
alo
[27.085]
<no-speech>
[29.935]
alo
[30.565]
<no-speech>
[32.855]
ya ben duyuyorum da sen duymuyorsun herhalde alo
[35.895]
<no-speech>
[38.005]
(())
[38.665]
<no-speech>
[43.075]
hı saol şey dedi telefon açılınca şey dedi onaylamıyorsanız ka- kapatın dedi onaylıyorsanız hatta bekleyin dedi
[49.765]
<no-speech>
[54.995]
hı tamam sesin ama sanki biraz saol sesin biraz sesin biraz kesik kesik geliyor gibi gibi geliyor bana ama
[63.785]
<no-speech>
[65.495]
benim sesim net geliyor mu sana
[67.185]
<no-speech>
[75.895]
ben de seni duyuyorum
[77.395]
<no-speech>
[79.955]
ne olsun çay demledim balkonda çay içtim
[82.495]
<no-speech>
[84.125]
iyi iyi senin
[85.295]
<no-speech>
[86.775]
(())
[87.315]
<no-speech>
[88.235]
balkonda oturdum içtim içtim çay demledim balkonda oturup ya geçen gün içime dert oldu Mehmet uyudum ya valla içime öyle bir dert oldu ki hala unutamıyorum ya
[98.965]
<no-speech>
[104.015]
<no-speech>
[104.435]
<no-speech>
[105.675]
neyse tamam
[107.415]
<no-speech>
[108.755]
bugün bugün Taner'in yanına gittim işte bekledim para bekledim
[112.795]
<no-speech>
[113.745]
görüştüm gelmeyeceğini söylediler
[115.885]
<no-speech>
[117.665]
<int> önümüzdeki aya kalabilir dediler
[119.825]
<no-speech>
[120.705]
öyle yani
[122.765]
<no-speech>
[123.775]
<int> sen neler yaptın
[125.995]
<no-speech>
[132.06]
<no-speech>
[138.125]
hı
[138.825]
<no-speech>
[140.655]
Özge nasıl iyi mi
[141.895]
<no-speech>
[146.015]
iyi iyi aman iyi olsun (()) <no-speech>
[151.305]
hı şey biz şimdi internet hattından mı konuşuyoruz
[155.945]
<no-speech>
[158.635]
he
[159.125]
<no-speech>
[161.325]
hı ama sesin anladım ama sesin sanki arada sırada kesik kesik geliyor gibime geliyor bana
[167.355]
<no-speech>
[173.095]
ya ben konuştuktan sonra seni duyarken bir arada kopukluklar oluyor sanki yani normal telefon görüşmesi gibi olmuyor yani onu söyleyeyim ben
[180.935]
<no-speech>
[189.965]
alo tamam ben duyuyorum seni ne yaptın kuşlarını ne yaptın
[193.865]
<no-speech>
[199.195]
hı çiftleştirdin mi
[200.845]
<no-speech>
[204.985]
<no-speech>
[206.265]
<no-speech>
[207.305]
yolculuk nasıl geçti
[208.755]
<no-speech>
[218.765]
he
[219.325]
<no-speech>
[225.385]
<no-speech>
[231.445]
valla (()) göndermezse parayı boku yedim ben ne yapayım ya işte evdeyim
[236.995]
<no-speech>
[239.825]
evde balkonda oturuyorum
[242.645]
<no-speech>
[245.955]
çay
[246.425]
<no-speech>
[248.275]
he
[248.785]
<no-speech>
[255.105]
tamam çayımı içtim şimdi artık balkonda yatıp kalkıyorum Mehmet
[259.025]
<no-speech>
[263.885]
hı rahat oluyor güzel oluyor
[265.665]
<no-speech>
[266.575]
yorganı çekiyorum üstüme mis gibi
[268.745]
<no-speech>
[272.035]
güzel oluyor rahat oluyor ya
[273.585]
<no-speech>
[278.075]
hı senin gelişinde de bir dahaki sefere balkonda otururuz
[281.895]
<no-speech>
[285.645]
hem daha temiz olur hem ben de uyumam
[287.755]
<no-speech>
[293.925]
mhm
[294.505]
<no-speech>
[297.235]
napayım ben de on beş yirmi gün sonra Trabzon'a gidip gelmiş olurum zaten
[300.845]
<no-speech>
[305.425]
kim ile
[306.045]
<no-speech>
[309.125]
alo Ali ile görüşüyoruz ya her gün görüşüyoruz
[312.185]
<no-speech>
[316.705]
ne yapsın uğraşıyor matbaa işleriyle uğraşıyor işte
[321.665]
<no-speech>
[325.655]
öyle yani sen şeyi Melike'nin işini ayarlayabildin mi konuşabildin mi bugün
[330.565]
<no-speech>
[335.345]
e
[336.105]
<no-speech>
[338.995]
e
[339.615]
<no-speech>
[344.955]
hı hı
[345.515]
<no-speech>
[352.035]
anladım
[352.685]
<no-speech>
[355.295]
hı hı bak sesin normal sesi- sesin normal telefon görüşmesi gibi değil ben sustuktan sonra senin sesin gelirken bir kopukluklar oluyor haberiniz olsun yani
[365.795]
<no-speech>
[370.335]
yani normal telefon görüşmesi gibi olmuyor
[372.855]
<no-speech>
[374.415]
ne anlatayım dostum ya biliyorsun ben zaten fazla (()) <no-speech>
[379.675]
bugün kaynıyordu burası ya kaynıyordu vallahi
[382.695]
<no-speech>
[384.245]
ben de hastaneden tanıştığım abi var işte onun yanına gidip geliyorum hastaneden tanıştığım bir abi var onun yanına gidip geliyorum ben de işte elli altı yaşında bir abi
[393.385]
<no-speech>
[395.305]
filin orada evi var
[396.815]
<no-speech>
[398.305]
bekar
[399.035]
<no-speech>
[400.615]
e gidip geliyorum işte onun yanına beraber takılıyoruz
[404.085]
<no-speech>
[405.245]
hı elli altı yaşında
[406.815]
<no-speech>
[408.675]
ama kafa dengi biri
[410.035]
<no-speech>
[411.955]
onunla vakit geçiriyoruz bir oğl- hı kafa dengi kafa dengi bir oğlu var işte yirmi sekiz yaşında çalışıyor o da adam yalnız
[420.065]
<no-speech>
[421.545]
öyle gidiyoruz dolaşıyoruz evine gidiyoruz oturuyoruz onun ben de onu çağırdım eve gel dedim çay içeriz dedim o da gelirim dedi iyi anlaşıyoruz yani
[432.345]
<no-speech>
[435.615]
hı hastaneden o da
[437.105]
<no-speech>
[438.335]
<breath> başka sen anlat biraz da ya ne zaman geliyorsun sen şimdi
[442.475]
<no-speech>
[449.025]
hı şeyini orada mı göstereceksin romatizmanı burada mı göstereceksin
[452.635]
<no-speech>
[459.525]
bulursun ya orada bulunmaz mı İstanbul'da doktor bulunmaz mı ya
[462.795]
<no-speech>
[469.92]
<no-speech>
[477.045]
hı
[478.075]
<no-speech>
[483.485]
<no-speech>
[484.445]
<no-speech>
[488.555]
anladım
[489.275]
<no-speech>
[495.255]
hı
[495.915]
<no-speech>
[498.425]
siz internetten (()) anketi yapacaksınız da onun için mi yapıyorsun bu görüşmeyi şimdi
[504.755]
<no-speech>
[506.255]
<no-speech>
[507.135]
<no-speech>
[511.265]
hı anladım
[512.834875]
<no-speech>
[514.965]
başka ne olsun işte
[517.934875]
<no-speech>
[518.965]
Yüksel'i görüyorum ya dün gördüm mesela sabah oradaydı oradan hemen ayrıldım abinin yanına gittim fazla görüşemedik yani
[526.445]
<no-speech>
[527.655]
Yüksel çalışıyor işte
[530.465]
<no-speech>
[531.515]
öyle yani
[533.255]
<no-speech>
[535.895]
onun daha var ya yaşı genç abi onun o bizden genç onun yaşı küçük yani
[540.605]
<no-speech>
[541.615]
<no-speech>
[541.965]
<no-speech>
[543.765]
<no-speech>
[544.165]
<no-speech>
[546.245]
biz yaşlandık herkes bizim gibi değil ki
[549.515]
<no-speech>
[550.345]
<no-speech>
[551.985]
<no-speech>
[554.105]
<int> Kemal de aradı para istiyor işte bakalım onun parasını ayarlayacağım Ankara'ya gidip gelelim
[559.895]
<no-speech>
[564.515]
söyledim de işte istiyor adam
[566.345]
<no-speech>
[567.545]
söyledim istiyor bakalım ya Ankara'ya gidip gelip veririz veririm ya şey bir de
[574.005]
<no-speech>
[575.485]
biraz da Selçuk'a gideceğim birkaç gün de orada kalacağım ucuzmuş zaten günlüğü altı lira
[581.785]
<no-speech>
[584.455]
üç üç üç gün kalsam on sekiz lira
[587.725]
<no-speech>
[591.115]
evden evden ucuz
[593.275]
<no-speech>
[596.905]
altı lira kahvaltı da dahil
[598.925]
<no-speech>
[599.735]
<int> altı liraya zaten kahvaltı yapamazsın ya
[603.235]
(())
[603.96]
