[0.0]
<no-speech>
[8.004875]
<no-speech>
[8.365]
<no-speech>
[11.075]
alo
[12.545]
<no-speech>
[13.915]
alo duymuyor musun beni
[15.655]
<no-speech>
[17.315]
ne diyorsun
[18.345]
<no-speech>
[19.495]
<sta> ha nasılsın
[21.795]
<no-speech>
[23.465]
efendim
[24.585]
<no-speech>
[30.055]
iyiyim iyiyim sesin kötü geliyor <no-speech> ne yapıyorsun <no-speech> mhm
[40.395]
<no-speech>
[41.415]
ne yapıyorsun nerdesin
[43.235]
<no-speech>
[48.835]
ha <no-speech> Ersin ne yapıyor
[51.495]
<no-speech>
[54.475]
eve mi geldin
[55.815]
<no-speech>
[64.115]
hı
[64.895]
<no-speech>
[66.145]
başka ne var ne yok
[67.415]
<no-speech>
[73.215]
Elifler nerde
[75.195]
<no-speech>
[76.655]
(())
[78.575]
<no-speech>
[80.755]
ha
[81.375]
<no-speech>
[82.405]
<cough> annen ne yapıyor
[103.885]
<int> bugün ne yaptın diyorum
[108.295]
<no-speech>
[115.415]
<hes> ne yaptın farklı bir şey yapmadın mı
[119.235]
<no-speech>
[126.015]
<int> bugün karpuz mu topladın çilek mi
[129.784875]
<no-speech>
[135.545]
çilek <no-speech> bitmedi mi çilek hele
[137.275]
<no-speech>
[139.735]
<no-speech>
[140.085]
<no-speech>
[143.315]
hı benim reçelimi pişirdi mi annem <int>
[146.345]
<no-speech>
[148.135]
<no-speech>
[148.535]
<no-speech>
[149.945]
reçelimi pişirdi mi annen
[152.285]
<no-speech>
[153.375]
<no-speech>
[155.475]
<no-speech>
[159.255]
<no-speech>
[159.635]
<no-speech>
[160.455]
diyorum ki reçelimi pişirdi mi annen çilek reçelimi
[164.565]
<no-speech>
[167.845]
ne zaman getiriyorsun
[169.745]
<no-speech>
[174.045]
<int> getirmeyecek misin niye işte o zaman pişirdi
[180.195]
<no-speech>
[182.625]
<no-speech>
[187.405]
<no-speech>
[189.195]
alo duymuyor musun beni
[192.865]
<no-speech>
[193.835]
<no-speech>
[201.295]
<no-speech>
[202.805]
<no-speech>
[203.715]
<no-speech>
[208.165]
<no-speech>
[209.715]
hale gidecen mi hale
[215.275]
<no-speech>
[218.525]
hı <no-speech> akşam internete girmeyi unutma <no-speech> tamam
[222.175]
<no-speech>
[227.395]
diyorum ki akşam internete gir
[229.595]
<no-speech>
[235.255]
İsmail (()) bugün yine her yere çişlemiş batırmış
[237.995]
<no-speech>
[242.305]
ne bileyim erken yatmıştı <hes> geç kalkmış sabah işte (()) olmuş öyle <no-speech> <hes> kahvaltısını da zar *zor* yaptı arada fırçalamak lazım
[253.725]
<no-speech>
[256.825]
hiç yemek yemiyor hiç yemek yemiyor bilmiyorum ne olacak
[260.104875]
<no-speech>
[264.395]
<int> ha <no-speech> ama (()) en azından yemek problemi yok
[268.945]
<no-speech>
[269.915]
<sta> Elifnur'un yemek problemi yok diyorum en azından bizimki hiç çiğnemiyor ki
[278.165]
<no-speech>
[289.145]
işte doktor diyor ki aç tutacaksın <no-speech> öyle alışacak ama ben de kıyamıyorum aç tutmaya yediriyoruz zorla falan yediriyoruz yani
[297.205]
<no-speech>
[299.015]
<sta> dün akşam Kuzey Güney'e baktın mı
[302.225]
<no-speech>
[303.815]
<no-speech>
[304.235]
<no-speech>
[306.805]
sen akşam hangi diziyi seyrettin
[308.745]
<no-speech>
[313.395]
hı
[313.895]
<no-speech>
[319.155]
hı Muhteşem Yüzyıl'a bakmadın yani
[321.485]
<no-speech>
[322.435]
<no-speech>
[322.845]
<no-speech>
[323.675]
baktın gece gece parkta ne işiniz var sizin ya <int> bana bak sağa sola kızlara bakma gelip oraya keserim seni
[334.615]
<no-speech>
[339.175]
hı abinin şey yaptığı gibi <no-speech> değil mi
[342.685]
<no-speech>
[343.915]
<no-speech>
[344.315]
<no-speech>
[345.135]
öyle mi oldu
[346.195]
<no-speech>
[347.645]
kıskançlık kri- bak ben kıskanç değilim kıskançlık krizlerine sokma
[352.555]
<no-speech>
[353.485]
<sta> zaten sana benden başka kim bakacak ki
[356.185]
<no-speech>
[359.495]
değil mi
[360.205]
<no-speech>
[361.385]
<laugh> öyle mi oluyor
[363.995]
<no-speech>
[367.015]
<sta> anlamadım bakar mı yoksa
[369.255]
<no-speech>
[372.375]
benden başka bakan var mı sana
[374.105]
<no-speech>
[377.495]
efendim
[379.395]
<no-speech>
[381.945]
var mı yok mu
[383.075]
<no-speech>
[384.155]
ha tamam o zaman aslanlara söyle gelirim bak (()) yaparım hepsini ha
[387.985]
<no-speech>
[392.285]
tamam <no-speech> başka ne var ne yok
[406.685]
<no-speech>
[407.035]
<no-speech>
[408.345]
altmış lira taksi parası verdim beğenmedik geldik
[413.195]
<no-speech>
[414.235]
<no-speech>
[415.805]
<no-speech>
[419.435]
ha biliyor musun sana ne diyecektim iyi hatırladın <no-speech> ben internetten bulayım o tarafta senin orada sen arabanı al getir buraya
[427.585]
<no-speech>
[428.925]
olur mu öyle <sta>
[432.015]
<no-speech>
[433.675]
küçük araba işte
[435.035]
<no-speech>
[436.005]
efendim
[452.175]
ya Japon olacak ya Alman
[455.695]
<no-speech>
[457.365]
<no-speech>
[482.675]
<no-speech>
[483.765]
<no-speech>
[485.485]
<int> Volkswagen (()) bakarsın işte
[489.645]
<no-speech>
[490.975]
<int> işte full modifiye olmuştu
[495.885]
<no-speech>
[497.475]
öyle yani varsa orada bir tanesi <hes> kaporasını falan verelim ya da hesabına yatıralım parasını sen beğenirsen oradan getir bana
[506.895]
<no-speech>
[510.305]
<no-speech>
[511.595]
<no-speech>
[514.134875]
ama güzel bakman lazım tamirciye götürmen gerekiyor öyle olmaz yani bak dün tamirciye götürdük arabayı full toplamışlar bize hiç hasarsız diye yutturmaya çalışıyor
[526.035]
<no-speech>
[527.695]
<no-speech>
[529.095]
<no-speech>
[529.675]
<no-speech>
[531.395]
<int> Volkswagen neyi
[534.515]
<no-speech>
[537.825]
o ne
[538.585]
<no-speech>
[544.725]
<int> Denizli Ordu Trabzon DOT <no-speech> Volkswagen DOT hiç duymadım bakayım internetten
[555.785]
<no-speech>
[557.445]
nasıl bir araba güzel mi
[571.895]
tamam DOT işte DOT diyorum <no-speech> tamam
[576.065]
<no-speech>
[578.745]
ama öyle bir araba görmedim ki Volkswagen DOT
[581.545]
<no-speech>
[583.425]
ha bayisi
[585.195]
<no-speech>
[586.135]
he tamam tamam
[587.565]
<no-speech>
[589.665]
ya bayini biliyorum DOT <hes> DOT ismini biliyorum
[592.775]
