[0.0]
<no-speech>
[4.365]
<int> efendim
[7.225]
<no-speech>
[9.145]
efendim
[9.895]
<no-speech>
[12.975]
alo iyiyim sen ne yapıyorsun
[14.945]
<no-speech>
[17.705]
<no-speech>
[18.255]
<no-speech>
[20.665]
anlamadım
[21.475]
<no-speech>
[23.075]
evet evet nereden arıyorsun
[24.745]
<no-speech>
[27.185]
evet geliyor mu şimdi
[29.285]
<no-speech>
[30.935]
mhm buyur canım ne yapıyorsun
[33.395]
<no-speech>
[35.575]
iyi sen ne yapıyorsun hacı
[36.825]
<no-speech>
[41.035]
dükkandayım
[41.885]
<no-speech>
[45.945]
mhm
[46.495]
<no-speech>
[49.325]
<hes> <breath> iyi yapmışsın oğlum (())
[53.345]
<no-speech>
[56.895]
sınavların nasıl geçti
[58.295]
<no-speech>
[63.895]
<hes> iyi ne zaman geleceksin
[66.635]
<no-speech>
[69.525]
<no-speech>
[69.875]
<no-speech>
[71.155]
<no-speech>
[71.825]
<no-speech>
[77.055]
<no-speech>
[77.555]
<no-speech>
[79.045]
<no-speech>
[79.705]
<no-speech>
[84.425]
<hes> anladım
[85.825]
<no-speech>
[88.495]
anladım kardeşim
[89.645]
<no-speech>
[95.635]
ne
[96.235]
<no-speech>
[98.395]
alo
[99.075]
<no-speech>
[102.135]
<hes> hacı valla halledemedim ya hallederim bugün onu yarın geçer
[105.965]
<no-speech>
[107.235]
sen bana boş mesaj atıyorsun da abidik kubidik saatlerde atıyorsun dükkandayken atmıyorsun ki <breath> o boş mesajı da atmışsın gecenin bir vakti
[113.505]
<no-speech>
[115.695]
<no-speech>
[116.055]
<no-speech>
[118.975]
oğlum gün içinde bir boş mesaj atsan ben ofiste bilgisayar başındayım ya dükkanda
[123.125]
<no-speech>
[124.785]
neyse onu halledelim de sen sıkıntıya girme
[127.125]
<no-speech>
[130.975]
mhm <no-speech> anladım
[132.475]
<no-speech>
[133.295]
anladım kardeşim
[134.365]
<no-speech>
[135.505]
anladım kardeşim
[136.525]
<no-speech>
[138.105]
iyi hamdolsun herkes iyi be bir yaramazlık yok
[140.615]
<no-speech>
[142.225]
devam valla takılıyoruz
[143.685]
<no-speech>
[145.365]
Bahattin çıktı ya düğün varmış arkadaşının erken çıktı
[148.225]
<no-speech>
[155.765]
doğrudur doğrudur kardeşim sıkıntı değil ya biliyor herkes senin sınavlarının olduğunu
[159.665]
<no-speech>
[162.785]
alo
[163.485]
<no-speech>
[167.595]
<hes> sen ne yapıyorsun be ne var ne yok nasıl gidiyor
[170.315]
<no-speech>
[171.985]
<breath> çocuklar ne yapıyor
[173.985]
<no-speech>
[177.125]
<no-speech>
[177.775]
<no-speech>
[182.165]
<no-speech>
[182.915]
<no-speech>
[188.725]
<no-speech>
[189.555]
<no-speech>
[191.875]
iyi anladım kardeşim Bursa'dakiler ne yapıyor evdekiler ne yapıyor
[195.665]
<no-speech>
[201.545]
<no-speech>
[202.195]
<no-speech>
[204.425]
<hes> ne kadar kaldı
[205.945]
<no-speech>
[208.615]
<no-speech>
[209.235]
<no-speech>
[212.115]
iyi hadi inşallah hayırlısı
[213.975]
<no-speech>
[215.185]
<no-speech>
[216.845]
<no-speech>
[218.065]
iyi hadi hayırlısı bakalım
[219.725]
<no-speech>
[223.675]
<hes> valla kanka Onur ne yapsın bir yandan ailesi mailesi düğün hazırlıkları koşturuyor <breath> Onur çalışıyor ediyor arada işte bir (()) uğruyor akşamları bazen <breath> kağıt oynamaya çıkıyoruz orada buluşuyoruz görüşüyoruz
[236.835]
<no-speech>
[237.865]
(()) tarzı muhabbetler
[239.515]
<no-speech>
[242.315]
<hes> verdim geziyor
[245.885]
<no-speech>
[247.805]
aynen geziyor paşa
[249.065]
<no-speech>
[252.195]
<no-speech>
[252.715]
<no-speech>
[258.554875]
mhm şeyi <no-speech> bebeği mi <breath>
[261.185]
<no-speech>
[262.275]
<hes> bir admin yaptım artı bir admin yaptım falan filan daha geniş bir kitleye ulaşmaya çalışıyorum <laugh>
[270.515]
<no-speech>
[274.925]
senin arkadaş listene yollamıştık değil mi
[277.245]
<no-speech>
[282.185]
yollamadım mı iyi dur ben akşam seni de admin yapayım da sen bir yolla
[285.635]
<no-speech>
[286.505]
ben senin arkadaş listeme yolladık zannediyorum
[288.605]
<no-speech>
[293.635]
<hes> ben senin arkadaş listene yolladık zannediyorum <hes> ben admin yapayım seni de bütün arkadaşlarına bir gönder
[301.185]
<no-speech>
[303.185]
<no-speech>
[303.995]
<no-speech>
[306.665]
tamam ben sana mesaj atarım yönetici yaptım seni diye atar
[310.995]
<no-speech>
[315.185]
tamam tamam olur boş mesajlarla anlaşıyoruz zaten
[319.665]
<no-speech>
[321.165]
<no-speech>
[321.665]
<no-speech>
[323.075]
oluyor be Allah'a şükür fena değil
[325.365]
<no-speech>
[326.215]
ufak tefek yapıyoruz bir şeyler
[327.855]
<no-speech>
[331.345]
(()) iyi (()) iyi
[332.855]
<no-speech>
[334.375]
(())
[335.385]
<no-speech>
[336.605]
<no-speech>
[337.375]
<no-speech>
[341.745]
aynen aynen alabilirim
[343.185]
<no-speech>
[345.065]
(())
[346.625]
<no-speech>
[348.615]
tamam hacı o senlik bu tam senlik <breath> tamam gel sana vereyim onu
[353.315]
<no-speech>
[357.735]
<hes> yok be kardeşim dükkanı kapıyordum öyle lak lak yapıyoruz işte kapatınca dükkanı (())
[363.705]
<no-speech>
[366.275]
(())
[367.605]
<no-speech>
[369.215]
aynen aynen <breath> canım benim
[371.725]
<no-speech>
[373.155]
Aykut yok hacı çıktı o Ertuğ burada
[376.315]
<no-speech>
[379.315]
<no-speech>
[381.205]
<no-speech>
[382.625]
(())
[383.505]
<no-speech>
[386.845]
çıktı çıktı o az önce
[388.355]
<no-speech>
[394.015]
iyi valla kanka belli olmaz iş çıkar yarın da gelirim
[398.805]
<no-speech>
[400.665]
<hes> şey değil belli değil
[402.235]
<no-speech>
[403.945]
geleceğim geleceğim kardeşim özledim seni
[407.075]
<no-speech>
[409.475]
<hes> aynen
[411.355]
<no-speech>
[412.475]
Halime <laugh> (())
[414.575]
<no-speech>
[416.825]
aynı aynen <breath>
[419.755]
<no-speech>
[426.935]
(()) Allah kolaylık versin kardeşim buralardan var mı isteğin
[430.095]
<no-speech>
[433.355]
buralardan var mı isteğin
[435.005]
<no-speech>
[437.215]
tamam
[437.755]
<no-speech>
[439.675]
tamam kardeşim benim
[440.885]
<no-speech>
[444.955]
yok olunca arıyoruz Allah razı olsun sağ ol
[447.355]
<no-speech>
[456.415]
vay kardeşim adamsın adamın dibisin Sülo <laugh>
[460.965]
<no-speech>
[462.595]
<no-speech>
[463.275]
<no-speech>
[465.895]
he
[466.555]
<no-speech>
[471.265]
oğlum sesin kesik geliyor lan senin benim telefonda bir sıkıntı var galiba
[475.225]
<no-speech>
[478.445]
ne sayılırız
[479.415]
<no-speech>
[482.735]
alo hı meslektaş sayılırız tabi canım her türlü oğlum (()) önce
[489.345]
<no-speech>
[490.155]
gel de işinin başına geç oğlum <laugh>
[493.565]
<no-speech>
[494.815]
gel gel de işinin başına geç gel de işinin başına geç diyorum
[498.645]
<no-speech>
[500.325]
gel de işinin başına geç
[501.955]
<no-speech>
[508.275]
tamam kardeşim üçüncü katı sana ayarlayalım serin serin oturursun
[512.105]
<no-speech>
[518.815]
ne
[519.324875]
<no-speech>
[521.925]
ne diyorsun
[522.635]
<no-speech>
[527.655]
tamam sıkıntı yok (()) nasıl istiyorsun
[529.715]
<no-speech>
[531.595]
problem yok yani <breath> kırk yılın başı Süleyman kard- (()) akşam akşam
[538.715]
<no-speech>
[540.165]
şey yaparız herhalde ya çocuklar bir parka gidecekmiş <breath> çocuklar bir parka gidecekmiş oradan bir yere gider miyiz gitmez miyiz bilmiyorum
[547.755]
<no-speech>
[557.495]
(())
[558.385]
<no-speech>
[564.075]
kahvede mi
[564.885]
<no-speech>
[567.405]
mhm
[567.905]
<no-speech>
[573.385]
<no-speech>
[574.115]
<no-speech>
[575.855]
<no-speech>
[577.155]
<no-speech>
[580.425]
tamam oğlum evde biraz vakit geçir sınav stresini at
[583.665]
<no-speech>
[584.875]
çağır çocukları çağır çocukları evde parti ver
[589.495]
<no-speech>
[598.755]
niye
[599.445]
<no-speech>
[601.395]
<no-speech>
[602.215]
<no-speech>
[605.555]
oğlum senin sesin niye geç geliyor ya bana
[607.595]
<no-speech>
[609.66]
