[0.0]
<no-speech>
[9.0025]
<no-speech>
[18.005]
alo
[18.605]
<no-speech>
[21.015]
alo
[21.565]
<no-speech>
[22.835]
duyuyor musun
[23.735]
<no-speech>
[25.485]
*ne* *haber* kanka iyi misin
[26.825]
<no-speech>
[29.065]
ne haber iyi misin
[30.135]
<no-speech>
[31.565]
bende iyiyim işte ne yapıyorsun
[33.575]
<no-speech>
[35.325]
bende iyiyim diyorum ne yapıyorsun
[37.225]
<no-speech>
[42.295]
mhm kim var
[43.395]
<no-speech>
[45.635]
<breath> bende oturuyorum öyle
[47.935]
<no-speech>
[53.735]
iyi işte hani çalışıyoruz aynı
[56.045]
<no-speech>
[57.315]
havalar falan soğuk
[58.605]
<no-speech>
[60.335]
köyde havalar nasıl
[61.505]
<no-speech>
[64.395]
hava kar yağacakmış bugün de onu bekliyoruz
[67.185]
<no-speech>
[68.085]
bu gece kar yağacakmışta onu bekliyoruz
[70.225]
<no-speech>
[71.775]
orada yağıyor mu kar falan
[73.345]
<no-speech>
[78.795]
iyi hayır okulu ne yaptın
[80.515]
<no-speech>
[82.465]
mhm okulu ne yaptın
[83.915]
<no-speech>
[89.895]
iyi iyi gidiyor mu
[91.375]
<no-speech>
[96.985]
iyi benim askerlik işi ne olmuş
[98.725]
<no-speech>
[106.325]
ağustos bir ya mayısta benimki mayısa çıkmış
[109.565]
<no-speech>
[114.125]
mhm internetten ya gideceğim ya bakalım okula yazılamazsam mecbur gideceğim
[119.285]
<no-speech>
[123.495]
aynen
[124.155]
<no-speech>
[126.395]
(())
[128.435]
<no-speech>
[132.585]
abinin yanına falan gittin mi hiç
[134.695]
<no-speech>
[141.215]
mhm iyi
[142.715]
<no-speech>
[143.605]
İlker gelmiş İstanbul'a
[145.225]
<no-speech>
[150.915]
kimin
[151.575]
<no-speech>
[156.115]
hı iyi
[157.735]
<no-speech>
[159.495]
şey
[160.115]
<no-speech>
[161.195]
hı İbo Fethi Emre falan İstanbul'a taşınıyorlarmış
[165.875]
<no-speech>
[170.425]
Emre İbo Fethi İstanbul'a taşınıyormuş
[172.865]
<no-speech>
[177.135]
ney
[177.735]
<no-speech>
[182.555]
Fethi İbo Emre
[184.615]
<no-speech>
[188.765]
bilmiyorum ki İbo gelmiş işte İbo buradaymış ev arıyormuş onlara
[193.385]
<no-speech>
[197.605]
eh
[198.245]
<no-speech>
[201.625]
şey bizim Emre vardı Emre okuyor mu üniversite
[204.235]
<no-speech>
[208.205]
nerede
[208.995]
<no-speech>
[214.125]
Emre Karaca
[215.115]
<no-speech>
[218.655]
(()) kültür bölümünde
[220.695]
<no-speech>
[225.595]
takılıyor musunuz
[226.575]
<no-speech>
[227.895]
hı
[228.465]
<no-speech>
[230.145]
takılıyor musunuz beraber
[231.595]
<no-speech>
[232.595]
beraber takılıyor musunuz
[234.165]
<no-speech>
[238.625]
vay iyi
[240.205]
<no-speech>
[246.145]
e anlat
[247.715]
<no-speech>
[257.045]
kim
[257.685]
<no-speech>
[262.155]
Fethi vardı ki
[263.225]
<no-speech>
[267.965]
geri mi döndü oraya
[269.295]
<no-speech>
[273.995]
(()) ben bilmiyordum geri döndüğünü Yı- Yıldırım'la konuştum da İstanbul'a döneceklermiş de ev ev var mı falan bende dedim hani
[284.415]
ben bilmiyorum hani bakarım gözüme çarparsa söylerim falan demiştim
[288.375]
<no-speech>
[294.585]
o şekil yani
[295.525]
<no-speech>
[297.895]
ellerim dondu
[298.935]
<no-speech>
[302.925]
sen gelmiyor musun İstanbul'a
[304.475]
<no-speech>
[309.175]
hı gerçi Ahmet'in
[310.335]
<no-speech>
[312.095]
hı
[312.715]
<no-speech>
[315.825]
hı anladım kanka
[317.705]
<no-speech>
[321.935]
ger- gerçi (()) ney
[324.635]
<no-speech>
[329.115]
ne zaman
[329.985]
<no-speech>
[333.795]
(())
[334.655]
<no-speech>
[336.195]
o zaman (()) yoktu ki
[338.855]
<no-speech>
[341.225]
ben askerde oluyorum o zaman
[342.895]
<no-speech>
[344.375]
gidicem ya erteletemiyorum ki
[346.695]
<no-speech>
[348.385]
erteletemediğim için gidicem
[350.145]
<no-speech>
[351.735]
ya yok ya iki gün
[353.455]
<no-speech>
[354.355]
askerliğe iki gün kala gideceğim oraya direk gideceğim askerliğe eğlence falan uğraşamam öyle şeylerle
[360.335]
<no-speech>
[364.305]
hı
[364.885]
<no-speech>
[369.125]
ya tabi canım o kadar eğleniriz yani onları yaparız hani de hani toplu çalgılı eğlence sünnet düğünü gibi olmaz
[377.115]
<no-speech>
[381.525]
<click> <hes> Orhan abi geliyor mu
[384.015]
<no-speech>
[389.895]
ne
[390.555]
<no-speech>
[397.625]
Fatih
[398.385]
<no-speech>
[403.145]
Allah Allah
[404.255]
<no-speech>
[406.405]
mhm yaramazlık var mı Orhan abi köyde falan
[409.315]
<no-speech>
[416.385]
mhm iyi kanka aman olmasın da
[419.305]
<no-speech>
[428.175]
<int> e kanka anlatsana ya öyle bir sohbet edelim iki dakika
[432.265]
<no-speech>
[437.695]
ya iş güç aynı işte hani çalışıyoruz falan
[441.735]
<no-speech>
[444.685]
işler tıkırında sayılır
[446.275]
<no-speech>
[448.655]
ney
[449.185]
<no-speech>
[452.005]
İstanbul nasıl mı <breath> ya hep aynı işte ya gereksiz
[459.305]
<no-speech>
[462.755]
ney
[463.335]
<no-speech>
[467.165]
anlamıyorum ki
[468.385]
<no-speech>
[473.105]
hı aynen ne yapalım ki hani biz çalışıp biz yiyoruz yapacak başka bir şey yok
[478.455]
<no-speech>
[487.185]
şey mhm Şule vardı senin Şule Şule ne oldu
[491.625]
<no-speech>
[496.555]
ayrıldınız mı
[497.515]
<no-speech>
[502.915]
vay helal olsun
[504.065]
<no-speech>
[509.035]
helal olsun size
[510.295]
<no-speech>
[520.534875]
gidiyor musun Terma'ya falan
[521.915]
<no-speech>
[527.655]
mhm iyi ne değişiklik var Terma'da
[532.425]
<no-speech>
[537.645]
<breath> iyi hadi bakalım İlkay
[542.005]
<no-speech>
[547.265]
alo
[547.885]
<no-speech>
[549.755]
sesim geliyor mu
[550.695]
<no-speech>
[552.325]
geliyor mu sesim
[553.295]
<no-speech>
[558.725]
İlkay vardı İlkay ne yapıyor
[560.465]
<no-speech>
[565.295]
çalışıyor mu
[566.165]
<no-speech>
[568.115]
köyde mi
[568.915]
<no-speech>
[570.125]
çalışmıyor mu
[570.945]
<no-speech>
[572.805]
vay iyi
[574.685]
<no-speech>
[576.035]
çık Terma'ya çıkmıyor mu
[577.535]
<no-speech>
[583.645]
niye
[584.245]
<no-speech>
[585.825]
ney
[586.435]
<no-speech>
[591.465]
hı iyi ya neyse boş ver
[594.465]
<no-speech>
[599.595]
(())
[599.975]
<no-speech>
[599.98]
