[0.0]
<no-speech>
[3.785]
<int> alo
[4.945]
<no-speech>
[6.095]
alo
[6.755]
<no-speech>
[8.625]
alo ağabey nasılsın <int>
[12.265]
<no-speech>
[13.095]
alo
[13.795]
<no-speech>
[14.695]
konuş konuş ağabey nasılsın nasıl gidiyor ağabey
[17.075]
<no-speech>
[18.125]
sesim geliyor mu
[19.235]
<no-speech>
[21.925]
çok (())
[22.525]
<no-speech>
[23.545]
çok şükür ağabey <hes> valla ne yapalım ağabey i- iş güç işte
[27.185]
<no-speech>
[29.315]
e ağabey İhsan'la aran nasıl
[31.115]
<no-speech>
[32.745]
hı
[33.345]
<no-speech>
[40.195]
Rom- <no-speech> Roma hala aynı mı
[42.755]
<no-speech>
[44.545]
sıfır sıfır mı
[45.585]
<no-speech>
[47.095]
bir bir mi
[47.965]
<no-speech>
[50.625]
hı iyi iyi <no-speech> ya seninki gelsin de
[53.835]
<no-speech>
[55.195]
iyi iyi <no-speech> e nasıl gidiyor ağabey
[57.935]
<no-speech>
[59.975]
daha devam
[61.155]
<no-speech>
[64.525]
tamam ağabey ya vallahi ne yapalım ya <no-speech> arkadaşların yanına gidip geliyorum (())
[69.595]
<no-speech>
[72.225]
sesim geliyor mu ağabey
[73.425]
<no-speech>
[75.715]
hı iyi
[76.425]
<no-speech>
[77.405]
iyi tamam ağabey evde misin sen ağabey
[79.455]
<no-speech>
[83.025]
evdesin maçı izliyorsun hı
[84.665]
<no-speech>
[85.905]
iyi iyi
[86.695]
<no-speech>
[88.315]
Barış abiye onlara selam söyle abi
[90.505]
<no-speech>
[96.335]
iyi iyi <breath> Ahmet abi onlar mı (()) ağabey Ahmet Ahmet abi hiç görüyor musun
[100.795]
<no-speech>
[106.095]
hı iyi yani durum hı
[107.735]
<no-speech>
[112.325]
iyi iyi
[113.005]
<no-speech>
[115.945]
aleykümselam ağabey
[117.375]
<no-speech>
[120.145]
(())
[120.655]
<no-speech>
[122.995]
ağabey ses
[124.145]
<no-speech>
[125.295]
çekmiyordur galiba ondan
[126.875]
<no-speech>
[128.984875]
ben şu anda bir <int> bodrum katındayım (()) <no-speech> hı
[133.175]
<no-speech>
[136.735]
valla Ümit de benim yanımda oturuyor işte <breath> bir çay yaptık valla yanımda <no-speech> ceviz kırıyor cevizle beraber getiriyor
[144.735]
<no-speech>
[146.295]
selamı var
[147.335]
<no-speech>
[149.975]
selamı var ağabey
[150.965]
<no-speech>
[153.575]
aleykümselam ağabey
[154.895]
<no-speech>
[158.075]
şey (()) kaç kaç bitti ağabey
[160.135]
<no-speech>
[164.835]
dört bir mi bitti
[165.945]
<no-speech>
[169.115]
iyi iyi <no-speech> (()) senin bir kupon tamamdır he
[172.655]
<no-speech>
[173.635]
iyi iyi sen daha devam (()) o kupalara
[176.565]
<no-speech>
[180.355]
iyi iyi
[181.175]
<no-speech>
[182.305]
zarar etmez ağabey
[183.635]
<no-speech>
[184.705]
kar az olsa da olsun sen yeter ki zarar etme
[187.495]
<no-speech>
[192.675]
aynı
[193.265]
<no-speech>
[195.185]
vallahi ben de bırakacağım iddiayı
[197.165]
<no-speech>
[199.275]
<hes> ben şey maçını soracaktım Ajax maçı kaç kaç bitti ağabey
[204.075]
<no-speech>
[206.865]
alo (())
[208.025]
<no-speech>
[211.305]
Ajax maçı <foreign> Ajax maçı <no-speech> alo
[214.505]
<no-speech>
[218.145]
dört iki
[219.045]
<no-speech>
[222.135]
<foreign> yendi
[223.845]
<no-speech>
[231.115]
kaç kaç bitti
[232.115]
<no-speech>
[233.855]
ey maşallah Napoli gibi takım hı
[236.195]
<no-speech>
[238.055]
Napoli gibi takım hı
[239.605]
<no-speech>
[242.135]
val- vallahi billahi (()) <no-speech>
[246.205]
<no-speech>
[246.605]
<no-speech>
[249.635]
ya Inter bu sene çok kötü ağabey
[251.755]
<no-speech>
[253.405]
aynen öyle Inter bu sene çok kötü
[255.485]
<no-speech>
[258.545]
o
[259.165]
<no-speech>
[260.035]
(())
[260.585]
<no-speech>
[262.235]
bu bugün (()) <no-speech>
[264.325]
bugün Milan <hes> Milan duman edecek şeyi
[266.995]
<no-speech>
[268.015]
<foreign>
[268.885]
<no-speech>
[270.485]
hı
[271.215]
<no-speech>
[273.605]
çünkü dün Juvent- <no-speech> (())
[275.615]
<no-speech>
[278.015]
dün bir de Juventus yendi ya ağabey
[279.835]
<no-speech>
[281.215]
hı
[281.925]
<no-speech>
[284.185]
dün var o Barselona var ya Barselona ah Barselona üç yüz milyonu mu yaktı üçü kuponum da (())
[289.625]
<no-speech>
[296.475]
ağabey bir ara lig başlamadan dediler ya işte o takımı kimse yenemiyor falan böyle bir ara <no-speech> şey yapıyorlardı o yüzden herhalde
[303.965]
<no-speech>
[305.015]
bu Barselona
[306.135]
<no-speech>
[309.525]
<no-speech>
[309.875]
<no-speech>
[313.345]
aynen öyle birkaç ma- birkaç maçını yenilsin ki (()) çıkarmasın onu şeyden
[318.945]
<no-speech>
[320.115]
ligden çıkarmasınlar yani onu
[321.995]
<no-speech>
[323.135]
bir ara öyle bir söylenti vardı dediler işte Barselona'yı çıkarsınlar
[326.825]
<no-speech>
[329.035]
hatırlıyor musun bir ara kaleci (()) vardı
[331.135]
<no-speech>
[338.695]
Antep mi
[339.535]
<no-speech>
[341.375]
Üsküplü yani
[342.455]
<no-speech>
[343.865]
valla (()) oynamıştım ona (()) <no-speech> ona (()) oynamıştım
[347.435]
<no-speech>
[349.675]
ben Ajax'a (()) oynadım
[351.795]
<no-speech>
[354.075]
Ajax yatırdı beni
[355.295]
<no-speech>
[357.515]
*olsun* ya sağlık olsun
[359.085]
<no-speech>
[363.785]
aynen <no-speech> ya üstü az oran (()) gibi (()) bizim handikap (())
[367.855]
<no-speech>
[369.275]
ne
[369.795]
<no-speech>
[375.385]
sek mi
[376.125]
<no-speech>
[377.615]
ne dedin ki
[378.705]
<no-speech>
[380.955]
(()) <no-speech> kaç
[382.995]
<no-speech>
[387.125]
peki <hes> Roma önde mi şu an
[389.865]
<no-speech>
[393.175]
şu an önde mi Roma
[394.775]
<no-speech>
[397.105]
o atar ya
[398.025]
<no-speech>
[399.965]
o atar <no-speech> <int>
[401.535]
<no-speech>
[403.675]
inşallah
[404.545]
<no-speech>
[406.925]
(())
[408.595]
<no-speech>
[409.685]
sonuncu Navarro'yla oynuyordu değil mi o
[412.185]
<no-speech>
[420.755]
(())
[424.005]
<no-speech>
[429.615]
hı <no-speech> geleceksin yani bugün hı
[432.175]
<no-speech>
[438.145]
e hı
[438.815]
<no-speech>
[439.775]
<hes> yok yok akşam da gelecek misin
[442.075]
<no-speech>
[447.635]
tamam
[448.245]
<no-speech>
[449.265]
tamam ağabey bir bir buçuk saat sonra eğer şey olmazsa akş- <hes> (()) belki ben bir kupa yaparım şu Milan'la şeye Porto'ya
[457.525]
<no-speech>
[461.035]
tamam
[461.595]
<no-speech>
[463.315]
Konya kimle oynuyordu ya
[464.585]
<no-speech>
[466.535]
kimle oynuyordu ki
[467.545]
<no-speech>
[469.465]
Erciyes
[470.355]
<no-speech>
[474.095]
o şey maçı ne oldu ya o dünkü var ya Tavşanlı linyit <no-speech> Bolu adamı duman etti
[480.705]
<no-speech>
[483.015]
yedi iki
[484.035]
<no-speech>
[489.605]
ya öyle bir ağabey ikinci yarı kırk beş dakikada yedi gol nasıl atıyor ya iki sıfır yenik takıma <hes> <no-speech> şey takıma
[496.825]
<no-speech>
[501.815]
hı
[502.385]
<no-speech>
[507.515]
aynen öyle ağabey (())
[509.125]
<no-speech>
[517.005]
zavallı Atalanta deplasmanda yenildi zaten ya
[519.655]
<no-speech>
[522.795]
<no-speech>
[523.204875]
<no-speech>
[534.311583]
<no-speech>
[545.418292]
<no-speech>
[556.525]
hı valla doğru söylüyorsun hı
[558.135]
<no-speech>
[559.665]
aynen öyle Deportivo önde mi ağabey
[562.385]
<no-speech>
[565.435]
(()) Deportivo
[566.905]
<no-speech>
[573.805]
Beşiktaş
[574.415]
<no-speech>
[576.515]
on kişi <no-speech> valla
[578.485]
<no-speech>
[579.375]
hep tehlikeli hı <no-speech> (()) oynamamışsındır inşallah
[582.615]
<no-speech>
[589.04]
<no-speech>
[595.465]
inşallah inşallah (())
[597.475]
<no-speech>
[599.98]
