[0.000]
<no-speech> 
[0.745]
<no-speech> 
[2.025]
<no-speech> 
[5.245]
<sta> h ɛ l l o 
[6.015]
<no-speech> 
[7.565]
<sta> h ɛ l l o <no-speech> ɔ̃ 
[9.975]
<no-speech> 
[11.095]
<sta> ɔ̃ th i k ɛ a s ɛ bh a t s a t ɾ a n dh i l ɛ n a j 
[15.475]
<no-speech> 
[17.655]
<sta> ɔ̃ t i v i s a i a s ʊ ɾ ɔ ɔ̃ m ʊ ɾ ɔ l ɔ p d ɔ x m i n i t m a n p i s ɔ t ɛ z a e a s ɛ k i n i x i z a b d ɛ n o h o l ɛ ɔ̃ a ɾ u ɛ t a k ɔ th a k i z a n ɛ n ɛ h e ɾ i 
[29.615]
t a ɾ m a n ɛ s ʊ w a l i z o n i j ɛ k oi s ɛ k i b a <breath> <sta> h e ɾ i s a ɾ v ɛ k i ɛ n z i ɔ ɛ t a h ã ɛ n z i ɔ ɛ t a k i b a <hes> k ɔ th a t ʊ m a n ɛ k a l i z a oũ t ɛ l a z ɔ t ɛ n ɔ k ɔ l ɛ t ʊ 
[41.515]
<sta> t a h a t ɛ ɛ k i b a ɛ t a s a ɾ v ɛ ɛ n z i ɔ ɾ k i b a ɛ t a s a ɾ v ɛ n ɔ h ɔ j ɛ n z i ɔ ɾ k i b a ɛ t a l i kh i b ɔ l a g ɛ h ã ɛ k m a h ɔ ɾ bh i t ɔ ɾ ɔ t l i kh i j ɛ d i b ɔ l a g ɛ a k ou b i x d i n ɔ t ʊ l i kh i d i b ɔ p a ɾ a l i kh i d i l ɛ p ã s h a z a ɾ t ɔ k a d i b ɔ 
[53.365]
<sta> h ũ t a h a t ɛ a ɾ u a ɾ u t ɔ j p i s ɔ t l i kh a h oũ t ɛ p ã s h a z a ɾ t ɔ k a d i l ɛ a ɾ u t ɔ j a n i b ɔ p a ɾ i b i x e j k a g ɔ z h ã gh ɔ ɾ ɔ t ɛ l i kh i b ɔ p a ɾ i b i x ɛ i t ʊ l oi k ɔ th a n a j t ɔ j gh ɔ ɾ ɔ t l oi 
[63.255]
<no-speech> 
[64.065]
ɛ t a j ɛ h ɛ n d ɔ ɾ a i t i ŋ h o b ɔ l a g i b ɔ h ɛ n d ɔ ɾ a i t i ŋ ɔ t ʊ kh a l i ɛ t a ɾ ɛ b u z i s a k a l i h e ɾ i h ɔ̃ t ɛ h e ɾ i a n t i bh ɔ ɾ a l i a n t i ɾ s ʊ w a l i t ʊ j ɛ x e j k a ɾ ɔ n ɛ a h i s i l k i n t u k ɔ m b u l i x e j t ʊ l a z ɔ t ɛ n ɔ k ɔ l ɛ k i n t u p ʊ n dh ɔ ɾ ɔ x ɔ t ɔ k a b ʊ l ɛ <sta> 
[75.915]
<sta> ʝ ɔ m a d i b ɔ l a g ɛ x ɛ i t ʊ w ɛ ɛ t a d a ŋ ɔ ɾ k ɔ th a p ʊ n dh ɔ ɾ ɔ x ɔ t ɔ k a t ʊ ʝ ɔ m a d i b ɔ l a g ɛ p ʊ n dh ɔ ɾ ɔ x ɔ t ɔ k a t ʊ x e j k a m ɔ t ʊ ɾ a l ʊ s ɔ n a k o ɾ i z o d i k ɔ ɾ ɛ x i k o ɾ i b ɔ p a ɾ ɛ gh ɔ ɾ ɔ t l oi z a b ɔ z o d i i s s a a s ɛ gh ɔ ɾ ɔ t l oi z a b ɔ x i l a h ɛ l a h ɛ x i ɛ k m a h ɔ t l i kh i p ɛ l a j 
[87.675]
<sta> x e x m u th ɔ t ɛ ɛ k m a h ɔ ɾ bh i t ɔ ɾ ɔ t d i b ɔ l a g i b ɔ a ɾ u <no-speech> z ɔ m a <hes> z ɔ m a kh i n i k i m a n ɛ t a b a n d ɔ l ɛ t a d i b ɔ a ɾ u k i b a ɛ t a t a h ã t ɔ ɾ k i m a n ɔ kh ɔ n b a a s ɛ <no-speech> k i b a ɛ t a b a n d ɔ l d i b ɔ x e j t ʊ b a n d ɔ l t ɔ j 
[99.235]
l i kh i p ɛ l a j d i b ɔ l a g i b ɔ 
[100.225]
<no-speech> 
[101.085]
<sta> l i kh i d i b ɔ l a g i b ɔ ɛ n z i ɔ ɾ p ɔ ɾ a d i b ɔ ɛ n z i ɔ ɛ t a ɛ j a h ʊ̃ t ɛ a n i b ɔ p a ɾ i m n ɛ a h ʊ̃ t ɛ a n i b ɔ m ʊ k k oi s ɛ h e ɾ i ɔ̃ t a h ã t ɛ a ɾ u m u k t i j ɛ d ɛ kh ʊ n e n e j ɛ th a k ɛ <breath> x i p ã s ɔ x p ã s ɔ x k a l i j ɛ p a b ɔ 
[112.985]
p ʊ n dh ɔ ɾ ɔ x ɔ z ɔ m a d i b ɔ l a g i b ɔ x e j t ʊ ɛ t a d a ŋ ɔ ɾ k ɔ th a <sta> p ʊ n dh ɔ ɾ ɔ x ɔ t ʊ t ɔ j z o d i z ɔ m a z o d i d i a n ɔ h ɔ j t e t i a t ɔ j z i t ʊ t ɔ j <hes> gh ɔ ɾ ɔ t l i kh i b i t ʊ ɾ ɛ k ʊ d i g d a ɾ n a j b u z i p a j s a 
[123.595]
<no-speech> 
[124.625]
<sta> gh ɔ ɾ ɔ t l i kh i th a k i bh ɔ h ɛ n d ɔ ɾ a i t i ŋ h ɛ n d ɔ ɾ a i t i ŋ ɔ t ʊ ɛ k ɛ b a ɾ ɛ h ɛ n d ɔ ɾ a i t i ŋ ɔ t ʊ x e j t ʊ ɛ t a d i g d a ɾ t ɔ th a p i j ʊ ɛ k ʊ d i g d a ɾ n a j t a t ɛ k o ɾ i b ɔ p a ɾ i b i <no-speech> z o d i k ɔ ɾ a z o d i <no-speech> z a n a ɔ̃ a z i t a j g oi s ɛ t a j 
[136.595]
<sta> t a j ɾ b ɔ n dh u ɾ b a n dh o b i t ʊ ɾ g i ɾ i j ɛ k t ʊ ɾ m a n ɛ h ã b u z i s ɔ t a j t e t i a t a j d a ŋ ɔ ɾ <hes> s ʊ w a l i j ɛ a s ɛ g oi s ɛ x i h ɔ̃ t ɔ ɾ t a t ɛ t ɔ t ʊ k x ʊ dh i b d i s ɛ m ɔ j x u dh i m m ɔ j b ʊ l ʊ x u dh i m d ɛ ã 
[148.505]
<sta> k i j ɔ x ʊ dh i b x e j k a ɾ ɔ n ɛ a n t i x e j k a ɾ ɔ n ɛ x u dh i m ɾ ɔ m ɔ j b ʊ l ʊ e n e j th ɔ k a t k o ɾ i k o ɾ i b ɔ x i h ɔ̃ t ɔ ɾ k ʊ n ʊ b a k ʊ n ʊ b a j ɛ k o ɾ i b ɔ b ʊ l ɛ t a h a t t i n i o bh a j ɛ k bh o n i j ɛ k ɛ k o ɾ i b ɔ b ʊ l ɛ <no-speech> p ʊ n dh ɔ ɾ ɔ x ɔ t ɔ k ɛ t o d i l ɛ o z o d i p ã s h a z a ɾ t ɔ k a t ʊ p a j ɛ k ʊ l ɔ s n a i n <no-speech> n e k i 
[160.435]

[163.895]
<no-speech> 
[166.705]
<sta> ɔ̃ ɔ̃ <no-speech> ɔ̃ n ɔ h ɔ j n ɔ h ɔ j m ɔ j e t i a p a t i a s ʊ k ɔ th a a s ɛ p ɔ t a ɾ k ɔ th a a s ɛ k a ɾ ɔ n k i p a t i m n o h o l ɛ x ɛ i t ʊ k a ɾ ɔ n ɛ n ɔ h ɔ j p ʊ n dh ɔ ɾ ɔ x ɔ t ɔ k a t ʊ t ɔ j z ɔ m a d i l ɛ ɛ k ʊ k ɔ th a n a j 
[178.075]
<no-speech> 
[179.415]
<sta> ɛ k ʊ k ɔ th a n a j p ʊ n dh ɔ ɾ ɔ x ɔ t ɔ k a t ʊ ɔ̃ z ɔ m a d i l ɛ t ʊ <breath> l ɔ s n a j z o d i p ã s h a z a ɾ t ɔ k a t ʊ p a w k i l ɔ s ɛ k ʊ t ʊ l ɔ s n a j p ʊ n dh ɔ ɾ ɔ x ɔ t ɔ k a t ʊ ɛ n ɛ k ɛ h i s a p k o ɾ i m ɔ j d i j a m d ɛ s ʊ n x ɛ i t ʊ l oi k ɔ th a n a j z o d i h ɔ j 
[191.395]
ɔ̃ t ɔ j z o d i k ɔ ɾ z o d i x ɛ i t ʊ f a i n ɛ l ɛ i ɛ k ʊ k ɔ th a n a j n ɔ h ɔ j ɔ n ɛ <no-speech> x e j b i l a k t ɔ j k o ɾ i b ɔ p a ɾ i b i t ɔ j gh ɔ ɾ ɔ t l oi z a b ɔ p a ɾ i b i k oi s ɛ gh ɔ ɾ ɔ t l oi z a b ɔ p a ɾ i b ɔ ɛ k ʊ n a j t ɔ j x i w ɔ x a g ɔ ɾ ɔ t l oi z a b ɔ p a ɾ i b i ɛ k ʊ k ɔ th a n a j kh a l i ɛ k m a h ɔ ɾ a g ɔ t ɛ z ɔ n a b l a g ɛ 
[203.225]
<sta> k i j ɔ ɔ n ʝ ɔ ɛ k ʊ n a j t ɔ j z o d i p ɔ̃ s i s d i n ɔ t ɛ z ɔ m a d i j z ɔ m a d i a k ou b ɛ l ɛ g dh o ɾ i b p a ɾ ɔ b ɛ l ɛ g b a n d ʊ l z o d i l oũ a ɾ u p ʊ n dh ɔ ɾ ɔ x ɔ t ɔ k a z ɔ m a d i t ɔ j b ɛ l ɛ g b a n d ʊ l l ɔ l oi p ɛ l a j a ɾ u x e j p ã s h a z a ɾ t ɔ k a 
[215.175]
k i l ɛ kh a t h e ɾ i <sta> x i h ɔ̃ t ɔ ɾ b ʊ l ɛ k i b a k ɔ m p j u t a ɾ ɔ t n e k i n ɔ h ɔ j m a n ɛ x e j l ɛ kh a t ʊ x e j k a ɾ ɔ n ɛ m a n ɛ s ɔ b h a t e d i t ɾ i x ɔ z ɔ n t ɾ i x ɔ z ɔ n n e k i m a n u h l a g ɛ t ɾ i x ɔ z ɔ n n e k i l a g ɛ x i h ɔ̃ t ɔ ɾ h oi s ɛ 
[226.885]
<sta> d i s ɛ b o h u t ɛ b o h u t ɛ d i l ɛ i m a n x ɔ m ɔ j ɔ t b o h u t ɛ i d i s ɛ oũ e t i a k ɔ ɾ ʊ̃ z o d i t e t i a h o l ɛ ɛ j k o ɾ i b ɔ p a ɾ i m d i a a l ʊ s ɔ n a k o ɾ i b ɔ p a ɾ i m h ɔ j n ɛ 
[237.885]
<sta> p i s ɛ b ɛ j a n ɔ h ɔ j <no-speech> b ɛ j a n ɔ h ɔ j k i n t u e n e j p ʊ n dh ɔ ɾ ɔ x ɔ d i l ɛ p ã s h a z a ɾ <no-speech> p ã s h a z a ɾ h o l ɛ s a ɾ ɛ t i n i <no-speech> s a ɾ ɛ t i n i dh ɔ ɾ l a bh a s ɛ <no-speech> p ʊ n dh ɔ ɾ ɔ x ɔ t ʊ d i l ɛ s a ɾ ɛ t i n i h a z a ɾ l a bh a s ɛ ɛ k ʊ l ɔ s 
[249.865]
k i n a t ɔ k 
[250.565]
<no-speech> 
[254.935]
h ã <int> 
[255.405]
<no-speech> 
[260.465]
x i h ɔ̃ t ɔ k x u dh i m ɾ ɔ x u dh i l ɛ a h i l ɛ h oũ k ɛ h e ɾ i a h ɔ k ɛ <int> 
[264.535]
<no-speech> 
[268.825]
k i m a n k o p i b a x e j t ʊ s a b ɔ l a g i b ɔ a g ɔ t ɛ t a ɾ p ɔ ɾ a a n ɔ k a n i l ɛ k i m a n ɔ m a n k o p i h ɔ j x e j t ʊ s a b ɔ l a g i b ɔ k o p i t ʊ k o p i <sta> ɛ t a z o d i h i s a p ɔ ɾ h ɔ j ɔ̃ ɛ t a ã <sta> h i s a p ɔ ɾ h ɔ j z o d i t e t i a h o l ɛ k ɔ th a n a j x e j k o p i t ʊ ɛ t a h i s a p ɔ ɾ h o l ɛ k o ɾ i b ɔ p a ɾ i b i a g ɔ t ɛ ɛ t a j ɛ a n ɔ k ɔ s ʊ n m i j o x e j t ʊ bh a b i s ʊ a g ɔ t ɛ t a h ã t ɔ ɾ ɛ t a j ɛ a n ɔ k a n i l ɛ t a ɾ m a n ɛ k i m a n h ɔ j g ɔ m p a b i h ɔ j n ɛ 
[292.175]
<sta> k i m a n m a n ɔ ɾ h o b ɔ s a b i x e j x e j h i s a p ɔ t t ɔ j k o ɾ i b ɔ p a ɾ i b i x e j h i s a p ɔ t l ɔ s n a j p ʊ n dh ɔ ɾ ɔ x ɔ t 
[303.905]
<sta> ɔ̃ d i l ɛ x i h ɔ̃ t ɛ a g ɔ t ɛ a n ɔ k d ɛ ɛ t a a n ɔ k t a t t i n i o bh a j ɛ k bh o n i j ɛ k ɛ k o ɾ i b ɔ t ʊ g o t i k ɛ t i n i o bh a j ɛ k bh o n i j ɛ k ɔ ɾ bh i t ɔ ɾ ɔ t ɛ t a m a n ɛ a n ɔ k a n a ɾ p i s ɔ t k i m a n ɔ m a n <foreign> s a i l oũ b u z i p a j s ɔ 
[315.475]
<sta> s a i l oi t a j k a l i j ɛ k o l ɛ h ɔ j m ɔ j b ʊ l ʊ k i j ɔ n ɔ k o l i ɛ j m ʊ ɾ l a z ɛ k ʊ n a bh a b ɛ ɛ k ʊ n a bh a b ɛ k o l ɛ k o l ɛ a ɾ u 
[327.225]
<sta> ɾ i l ɛ k o ɾ i b ɔ n o k o ɾ i l ɛ n a j x e j t ʊ b ɛ l ɛ g k ɔ th a x i t ɛ ʊ̃ ɾ x oi t ɛ a l ʊ s ɔ n a k o ɾ i b ɔ l a g i s i l ɛ z ɛ m a k ɛ ɔ̃ x e j k ɔ th a a l ʊ s ɔ n a k o ɾ i l ɛ h ɔ j ɔ b ɔ x ʝ ɛ 
[339.155]
<sta> s a ʊ̃ d ɛ s ʊ n x e j t ʊ k i h ɔ j h ɔ j n ɛ a ɾ u <hes> h e ɾ i bh ɔ ɾ a l i a n t i k ʊ m ɔ j k oi s ʊ ɛ j g a oũ ɾ k ɔ th a l oi p ɛ l a j p i s a kh i n i h o b ɔ ɾ ɔ b k i b a ɛ t a k o ɾ i b ɔ d i j ɔ k 
[350.885]
a m i ɛ t i j a kh ɔ n l ɔ g b i l a k a s ʊ a ɾ u ɛ n ɛ b ʊ l ɛ h o b ɔ o l ɔ g b i l a k a s ɛ ɾ ɔ b ʝ a n ʊ l ɔ g b i l a k <no-speech> <int> l ɔ g b i l a k th ɔ k a j ɛ t ʊ e t i a h o b ɔ d i j ɔ k ɛ n ɛ k ɛ t a h a t ɔ k z a b ɔ d u j h a z a ɾ t ɔ k a n i d i b ɔ n ɛ a p u n i x ɛ i t ʊ w ɛ t ʊ d a ŋ ɔ ɾ k ɔ th a h oi s ɛ 
[362.455]
<sta> x ɛ i t ʊ w ɛ t ʊ m ɛ i n d a ŋ ɔ ɾ k ɔ th a h oi s ɛ d u j h a z a ɾ t ɔ k a t ʊ k oi s ɛ h o b ɔ d i j ɔ k s o n k i b a k o ɾ i b ɔ l a g i b ɔ d i j ɔ k b ʊ l ʊ ɔ̃ x ɛ i t ʊ w ɛ t ʊ k o ɾ i m d i j ɔ k k i b a ɛ t a a p ʊ n a l ʊ k ɛ h ɛ l p k o ɾ i l ɛ m ʊ ɾ ɛ k ʊ k ɔ th a n a j d a d a i <hes> g u d u i ph ʊ n k o ɾ i s i l <sta> k i 
[374.745]
<no-speech> 
[376.455]
<sta> x e j t ʊ t p a ɾ a n a i n ɔ̃ ph ʊ n k ɔ ɾ a n a j n e k i th i k ɛ a s ɛ d ɛ m ɔ j h e ɾ i ɛ a n a t ʊ n a j t a j ɛ i t ʊ a n a n a j t a k ɛ p a h o ɾ i g ɔ l ʊ a z i o p a h o ɾ i l ʊ 
[388.035]
<sta> ɛ h e ɾ i k i 
[389.915]
<no-speech> 
[390.745]
ɔ̃ <int> 
[391.535]
<no-speech> 
[392.335]
<sta> bh a t ɔ kh i n i h o l ɛ a l u a ɾ u k o n i kh i n i x i d dh d i b i m ɔ j g oi k ɛ n ɛ ɾ a n dh i m b e s i x ɔ m ɔ j n a l a g ɛ d ɛ m a n u h kh u b b e s i d ɔ s t a n i z ɛ n i z ɛ h e ɾ i h oi z a e n ɔ t ʊ k ɔ t ʊ k oi d i s ɛ n ɔ 
[403.025]
<no-speech> 
[404.165]
<sta> ɔ̃ g o t i k ɛ t ɔ j x e j k o ɾ i m ɔ j ɔ l ɔ p x ɔ m ɔ j p i s ɔ t i a t ɛ ɛ b e s i d u ɾ ɔ t n ɔ h ɔ j ɾ ɔ ɛ i kh i n i t ɛ a x th a b u l i k ɔ j t a ɾ ɛ p i s ɔ t ɛ a s ɛ b e s i d u ɾ ɔ t n ɔ h ɔ j b e s i d u ɾ ɔ t a h a n a j d ɛ ɔ̃ 
[416.065]
<no-speech> 
[417.885]
ɔ̃ x ɛ i t ʊ w ɛ k o ɾ i b ɔ l a g i b ɔ z o d i d i j ɛ t e t i a kh a b ɔ l a g i b ɔ a ɾ u u p a i n a j t a t ɛ s i n i p a oũ ɾ ɔ t a h a t ɔ k s i n i p a oũ ɾ ɔ i h ɔ̃ t ɔ k ʝ a ɾ t a t ɛ a h i s ʊ m ɔ j t a h a t ɔ k bh a l k ɛ s i n i p a oũ <sta> 
[429.795]
<no-speech> 
[429.945]
<no-speech> 
[430.985]
<sta> ɔ̃ x e j t ʊ bh a l k ɛ s i n i p a oũ z o d i b a b u g u d u j ɛ z o d i ph ʊ n k ɔ ɾ ɛ t ɔ j h e ɾ i t i n i t a m a n ɔ t k o ɾ i b ɔ k o b i s ʊ n m ʊ k 
[441.875]
<sta> ɔ̃ b a b u k k o ɾ i b ɔ d i s ɛ t i n i t a m a n ɔ t b a b u j ɛ k o ɾ i b ɔ <no-speech> k o ɾ i b ɔ d i s ɛ t i n i t a s a ɾ ɛ t i n i t a ɛ n ɛ h ɛ n ɔ t b a b u j ɛ k oi s ɛ t i n i t a s a ɾ ɛ t i n i t a x ɛ i kh i n i t ɔ̃ b a b u j ɛ k o ɾ i b ɔ l a g i b ɔ 
[452.865]
<sta> b a b u j ɛ x ɛ i t ʊ w ɛ k oi s ɛ t ɔ j h e ɾ i k o ɾ i b i ɔ̃ <no-speech> a n z a kh ɔ n b ɔ h a m ɛ k ʊ n ɔ h ɔ j d ɛ h e ɾ i kh i n i b ɔ h a i d ɛ bh a t a ɾ u e j kh i n i s a k i bh a t o kh i n i a ɾ u h e ɾ i kh i n i b ɔ h a i d ɛ 
[464.355]
<sta> x u n i s a n ɛ a s ɛ a ɾ u ɛ i t ʊ o a s ɛ ɔ l ɔ p h ɛ l p h o b ɔ a m a ɾ ʊ h ɛ l p h o b ɔ ɔ l ɔ p m a n t a k ɛ t ʊ ɔ l ɔ p m a n l ɔ g a j k i n ɛ l ɔ g a j d ɛ 
[476.095]

[476.565]
<no-speech> 
[477.585]
<int> h ɛ l l o 
[478.155]
<no-speech> 
[479.425]
<sta> h ɛ l l o <no-speech> ɔ̃ <no-speech> h ã h ũ k o ɾ i b i h ã h ũ k o ɾ i b i t ɔ j s a t a t ɛ k ɔ th a x u n i a s n ɛ m ɔ j g ɔ m n a p a ʊ̃ k i k ɔ m e n e j d ɛ kh ʊ n p ɔ k p ɔ k a i th a k a a z i d ɛ kh ʊ n k ɔ th a k o b ɔ k ɔ th a j ɛ n ʊ l a i n ɛ t ʊ ɾ ɛ k ʊ <no-speech> h ã t ʊ ɾ k ɔ 
[491.095]
k ɔ th a n a j ɛ k ʊ <sta> ɛ k ʊ k ɔ th a n a j t a ɾ p ɔ ɾ a h e ɾ i 
[495.755]
<no-speech> 
[501.885]
h ɔ j n e k i <laugh> <sta> ɔ̃ t ʊ p ɔ n i l a g i s ɛ n e k i <laugh> 
[512.755]
<sta> ɔ̃ t ʊ p ɔ n i l a g i l ɛ d i g d a ɾ <no-speech> ɔ̃ t ʊ p ɔ n i l a g i l ɛ d i g d a ɾ ɔ̃ <no-speech> t ʊ p ɔ n i l a g i l ɛ d i g d a ɾ 
[523.185]
<no-speech> 
[525.945]
<sta> h ɔ j n e k i h ɔ j n e k i h ɔ j ɔ̃ x ɛ n ɛ h ɛ n n ɔ k o ɾ i b i x ɛ n ɛ n ɔ k o ɾ i b i <no-speech> ɔ̃ t ʊ ɾ k i b a ɔ̃ <no-speech> n ɔ h ɔ j n ɔ h ɔ j <no-speech> ɔ̃ ɔ̃ ɔ̃ <no-speech> n ɔ h ɔ j t ɔ j k ɔ 
[537.785]
k o n i a ɾ u x e j x i d dh d ɛ ɛ k ʊ n ɔ h ɔ j k o n i a ɾ u a l u kh i n i x i d dh d i s ʊ <no-speech> a s s a <no-speech> h ɛ l l o <no-speech> ɔ k ɔ n i a ɾ u a l u x i d dh d ɛ a ɾ u bh a t o kh i n i b ɔ h a i d ɛ <no-speech> bh a t o kh i n i b ɔ h a i d ɛ a ɾ u k o n i a ɾ u a l u x e j kh i n i x i d dh d ɛ 
[549.575]
<no-speech> 
[556.095]
h a t s a m ɔ j h a t dh u l ʊ i a t ɛ h a t dh u j p ɛ l a j z a m d i a <sta> <no-speech> h a t dh u j z a m 
[559.995]
<no-speech> 
[565.095]
<sta> ɔ̃ h ɔ b ɔ d ɛ ɔ̃ h ɔ b ɔ d ɛ h a t s a t dh u j u th i z a m h a t dh u j n a ʝ a oũ d ɛ ɾ a n dh i m d ɛ m ɔ j k i j ɔ n a ɾ a n dh i m k i j ɔ n a ɾ a n dh i m ɾ a n dh i m d ɛ ɛ n ɛ k ɛ ɛ n ɛ k ɛ n ɔ k o b i 
[576.955]
b ɛ j a k ɔ th a t ʊ <sta> ɛ n ɛ k a m k a ɾ ɔ n ɛ h a t s a t dh u j a h i s ɛ a p u n i k i m a n ɔ̃ k i k a n d i k a n d i k a l i a h i s ɛ a z i a h i s ɛ 
[588.785]
<no-speech> 
[590.205]
<no-speech> 
[592.755]
a n a n t i j ʊ h ɔ̃ t s a t dh u j z a b ɔ a n t i j ʊ h a t s a t <laugh> 
[596.085]
<no-speech> 
[598.905]
<no-speech> 
[599.505]
<no-speech> 
[599.560]
