[0.000]
<no-speech> 
[5.235]
h ɛ l l o 
[5.865]
<no-speech> 
[8.665]
ɔ̃ t ɔ p ɔ n x u n i s ʊ k a ɾ ɔ b a ɾ ɔ t ʊ k i 
[10.865]
<no-speech> 
[14.335]
h ã 
[14.865]
<no-speech> 
[18.005]
ɔ̃ d a x 
[18.675]
<no-speech> 
[21.475]
k a ɾ ɔ b a ɾ ɔ t ʊ m a n ɛ k i m ɔ j b u z i b p a ɾ a n a j ɛ k ʊ 
[23.845]
<no-speech> 
[31.905]
<no-speech> 
[32.445]
<no-speech> 
[35.025]
ɔ̃ <laugh> 
[37.475]
<no-speech> 
[39.075]
s ɔ b a s a a s a n ɛ 
[40.835]
<no-speech> 
[44.815]
k i k o ɾ i a s a 
[45.765]
<no-speech> 
[48.945]
k i k o ɾ i s a 
[50.005]
<no-speech> 
[55.295]
h ɔ j n e k i 
[56.205]
<no-speech> 
[59.415]
b a ɾ ɔ t a ɾ i kh ɛ z a e a s ʊ 
[61.645]
<no-speech> 
[64.295]
ɔ̃ 
[64.945]
<no-speech> 
[67.365]
ɔ̃ k ɔ th a b i l a k k ɔ th a b i l a k ɾ ɛ k ɔ ɾ d h o b ɔ n e k i 
[69.855]
<no-speech> 
[73.065]
ɔ̃ ɾ ɛ k ɔ ɾ d h o b ɔ n a 
[75.095]
<no-speech> 
[76.165]
ɔ̃ <int> h ã 
[78.135]
<no-speech> 
[82.745]
<no-speech> 
[86.105]
<no-speech> 
[89.495]
b u i s ʊ b u i s ʊ b u i s ʊ 
[91.195]
<no-speech> 
[94.025]
ɔ̃ 
[94.595]
<no-speech> 
[103.415]
ɔ̃ ɾ oi b u z i s ʊ ʊ p ɔ ɾ ɔ t k ʊ n a s ʊ 
[106.895]
<no-speech> 
[109.475]
h ã 
[110.675]
<no-speech> 
[112.775]
ɔ̃ k ʊ n ʊ b a th a k a th a k a z ɛ n l a g ɛ a ɾ u 
[115.225]
<no-speech> 
[118.085]
<no-speech> 
[118.455]
<no-speech> 
[121.365]
h ã 
[122.065]
<no-speech> 
[125.505]
ɔ̃ ɔ̃ ɔ̃ <no-speech> ɔ̃ ɔ̃ 
[128.665]
<no-speech> 
[131.535]
ɔ̃ 
[132.615]
<no-speech> 
[137.005]
ɔ̃ ɔ̃ 
[137.825]
<no-speech> 
[140.165]
ɔ̃ ɛ k d ɔ m ɾ a j t 
[141.235]
<no-speech> 
[144.435]
m ɔ j b a ɾ ɔ t a ɾ i kh z a m b a ɾ ɔ t a ɾ i kh ɛ g o dh u l i z a m m ɔ j 
[147.445]
<no-speech> 
[148.415]
<sta> t ʊ m a k m ɔ j l ɔ g t ʊ m a k m ɔ j l ɔ g k o ɾ i m s ou dh ʝ t a ɾ i kh ɛ 
[152.325]
<no-speech> 
[156.965]
s ou dh ʝ t a ɾ i kh ɛ l ɔ g k o ɾ i m <no-speech> m ɔ j t ʊ m a k ph ʊ n k o ɾ i d i m a h i z a b a t u m i 
[160.875]
<no-speech> 
[165.795]
m ɔ j x e j t ʊ t ʊ ʝ a m ɛ i t u m i n a a h i p a b a <hes> p a ɾ t i ɛ t a k o ɾ i m 
[170.185]
<no-speech> 
[171.215]
d i s o p u ɾ ɔ t 
[172.165]
<no-speech> 
[174.555]
k i b o s t u 
[177.025]
<no-speech> 
[181.105]
ɛ d i s o p u ɾ ɔ t p a ɾ t i ɛ t a k o ɾ i m 
[182.845]
<no-speech> 
[185.875]
n a k i 
[186.645]
<no-speech> 
[191.355]
t ɔ j gh ɔ ɾ ɔ t n a j n a j z ɛ n l a g ɛ d ɛ 
[193.005]
<no-speech> 
[197.385]
<no-speech> 
[198.605]
<no-speech> 
[199.885]
gh ɔ ɾ ɔ t ɛ a s 
[201.735]
<no-speech> 
[203.315]
k i k o ɾ i a s gh ɔ ɾ ɔ t 
[205.685]
<no-speech> 
[214.345]
h ã 
[214.985]
<no-speech> 
[218.755]
k o t z ʊ w a k ɔ th a a s i l 
[219.885]
<no-speech> 
[223.275]
g ɔ d o s u k 
[224.705]
<no-speech> 
[226.625]
g ɔ̃ d o s u k ɔ t k i a ɾ 
[227.705]
<no-speech> 
[228.995]
<no-speech> 
[229.345]
<no-speech> 
[233.745]
ɔ̃ 
[234.345]
<no-speech> 
[235.325]
<no-speech> 
[235.705]
<no-speech> 
[238.375]
ɔ̃ 
[238.985]
<no-speech> 
[240.635]
ɔ̃ <int> 
[241.195]
<no-speech> 
[243.705]
g a n x u n i a s ɛ 
[245.175]
<no-speech> 
[247.865]
<int> d ʊ k a n s o l i a s ɛ 
[249.055]
<no-speech> 
[257.095]
ɔ̃ j ɛ j ɛ 
[261.675]
<no-speech> 
[263.475]
ɔ̃ <no-speech> h ɔ j h ɔ j 
[268.635]
<no-speech> 
[271.205]
h ã 
[271.835]
<no-speech> 
[275.145]
k i k oi s a 
[277.465]
<no-speech> 
[279.605]
gh ɔ ɾ ɔ ɾ p i n ɛ a s ɛ bh a l n ɛ t ʊ m a ɾ 
[281.225]
<no-speech> 
[286.695]
n i l ɛ a z i b e j a n ɔ h ɔ j b o ɾ o x u n n a b ɔ ɾ o x u n ɔ ɾ b ɔ t ɔ ɾ ɔ t a ɾ u p i s ɔ t s a l i kh ɔ n ʊ n ʊ h ʊ w a h oi g e s i t ũ h ɔ t ʊ z i k a h oi g e s i e t i a b ɔ ɾ t ɔ m a n e j kh i n i t a i m ɔ l oi k i h a z a ɾ h oi s ɛ ɾ ɔ b a 
[298.375]
<no-speech> 
[299.945]
ɛ a z i b ɛ j a n ɔ h ɔ j ɾ o b i b a ɾ n a a z i 
[302.335]
<no-speech> 
[304.285]
ɛ m a z ɔ t <no-speech> m a z ɔ t d u j t i n i d i n x i m a n bh a l n ɔ h ɔ j s ɔ j ɔ x p ã s ɔ x t i n i x ɔ ɛ a p d a u n th a k ɛ n ɛ 
[310.545]
<no-speech> 
[311.785]
e t i a b ɔ ɾ t ɔ m a n a z i h a z a ɾ m a ɾ i s ɛ e t i a l oi k ɛ l e g i ɔ l ɔ p ph u ɾ t i a z i a ɾ u m a n ɛ t ʊ ɛ h a z a ɾ m a ɾ i l ɛ n a a ɾ u ɔ l ɔ p d e ɾ i k ɛ h ɔ j t ʊ 
[320.815]
<no-speech> 
[322.105]
t a ɾ k o ɾ i b ɔ m ʊ k ã 
[324.405]
<no-speech> 
[328.105]
m a ɾ i b 
[329.675]
<no-speech> 
[331.895]
h ã 
[332.505]
<no-speech> 
[336.195]
k i 
[336.715]
<no-speech> 
[340.105]
<sta> ɔ̃ m a ɾ i b m a ɾ i b m a ɾ i b <no-speech> ɛ b o ɾ o x u n p o ɾ i l ɛ n ɔ x t k o ɾ i d i b ɔ ɛ t ɔ h ɔ̃ t ʊ z e k i ʝ a b ɔ n ɛ 
[346.725]
<no-speech> 
[349.505]
b ɔ ɾ o x u n ɔ z a k <no-speech> b o ɾ o x u n e t i a a s ɛ n ɛ n a j x ɛ i kh i n i t 
[353.625]
<no-speech> 
[358.225]
ɔ̃ a m a ɾ p i n ɛ g u t e j ã h e ɾ i k o ɾ i d i s ɛ 
[360.955]
<no-speech> 
[363.365]
<no-speech> 
[363.715]
<no-speech> 
[365.925]
p ʊ ɾ a h e ɾ i k o ɾ i d i s ɛ a m a ɾ i p i n ɛ 
[368.165]
<no-speech> 
[370.495]
ɔ̃ 
[371.175]
<no-speech> 
[374.315]
ã s a n s a s ɛ ph u l s a n s a s ɛ 
[376.295]
<no-speech> 
[380.785]
k i th i k e j a s ɛ 
[381.645]
<no-speech> 
[384.675]
k i th i k e j a s ɛ <int> 
[385.685]
<no-speech> 
[390.215]
ɔ̃ s o ɾ i ph ɔ ɾ kh ɔ b ɔ ɾ k i j ɛ s o ɾ i ph ɛ m ʊ k b ɛ j a p a j s ɛ k i z a n i 
[393.365]
<no-speech> 
[395.575]
k oi s ɛ n ɛ s o ɾ i ph ɛ l a i s ɛ n s ɔ ɾ k ɛ s ɔ t ʊ t b ɛ j a p a j s ɛ m ʊ k k i z a n i 
[398.625]
<no-speech> 
[401.515]
l a i s ɛ n s ɔ ɾ k oi s e ɛ t a l oi s i l ʊ ɛ s o ɾ i ph ɔ ɾ 
[403.685]
<no-speech> 
[407.115]
ɔ̃ n a j <hes> k ʊ w a n a j n e k i ɛ k ʊ 
[409.285]
<no-speech> 
[421.070]
<no-speech> 
[432.855]
m a n ɛ ɛ j t ɛ l ɔ t ʊ h ɛ t ɛ l ɔ t ʊ h o b ɔ n e k i t ɛ l ɔ t ʊ l a g i s i l ɛ n ɔ h ɔ j ɛ z ɔ n l ɔ ɾ a k 
[437.335]
<no-speech> 
[440.005]
h ɛ t ɛ l ɔ t ʊ t ɛ l ɔ t ʊ 
[441.555]
<no-speech> 
[444.345]
ɛ t ɛ l 
[445.275]
<no-speech> 
[446.105]
ɛ k s ɛ l ɔ ɾ k a ɾ ɔ n ɛ 
[447.215]
<no-speech> 
[448.955]
ɛ t ɛ l t ɛ l 
[450.495]
<no-speech> 
[454.215]
ɛ b a ŋ l a d ɛ x g oi s i l i z i 
[455.815]
<no-speech> 
[460.295]
b a ŋ l a d ɛ x ɔ ɾ p ɔ ɾ a t ɔ j a n i l i k i ɔ̃ 
[462.175]
<no-speech> 
[466.735]
ɛ z ɛ b a ŋ l a d ɛ x g e l i z i a n i l i z ɛ m a l ɔ t ʊ t ɛ l ɔ t ʊ 
[469.675]
<no-speech> 
[475.405]
ɔ̃ ɛ i t ʊ 
[476.675]
<no-speech> 
[479.995]
ɔ̃ ɛ l a i n ɔ t ʊ n ɔ h ɔ j ʝ a n ʊ 
[481.725]
<no-speech> 
[484.815]
ɛ l a g ɛ ʝ a n ʊ a ɾ u 
[486.205]
<no-speech> 
[490.395]
ɛ p ɔ th a j d i b ɔ l a g ɔ b n a a s ɛ t ʊ m a ɾ t a t ɛ 
[493.255]
<no-speech> 
[497.805]
h ɔ j n e k i 
[498.635]
<no-speech> 
[501.135]
z a b a l a g ɔ b 
[502.125]
<no-speech> 
[504.605]
ɔ̃ ɛ t a ɾ k a ɾ ɔ n ɛ ɛ z ɔ n l ɔ ɾ a k oi s i l m ʊ k 
[506.935]
<no-speech> 
[509.735]
ɛ k s ɛ l ɔ ɾ ɔ l ɔ p p ɾ ɔ b ɔ l ɛ m h oi s ɛ 
[511.445]
<no-speech> 
[514.135]
x ɔ k t i k o m i s ɛ 
[515.225]
<no-speech> 
[521.240]
<no-speech> 
[527.255]
ɔ̃ 
[527.845]
<no-speech> 
[529.375]
k a ɾ <int> 
[530.095]
<no-speech> 
[530.985]
k a m d i b ɔ n ɛ n a j 
[533.345]
<no-speech> 
[536.255]
h ã 
[536.835]
<no-speech> 
[541.735]
gh ɔ ɾ ɔ t b o h u t m a n u h a s ɛ n e k i h ã 
[543.395]
<no-speech> 
[546.195]
t ɛ <no-speech> t a ɾ ɛ s a u n d d ɛ kh ʊ n b o h u t 
[548.635]
<no-speech> 
[552.715]
<lipsmack> kh a j l oi h oi s ɛ n e k i <int> 
[554.125]
<no-speech> 
[556.485]
ɔ̃ 
[557.255]
<no-speech> 
[558.905]
t u m i x u j a s a n a k i 
[560.125]
<no-speech> 
[562.365]
t u m i x u j a s a 
[563.315]
<no-speech> 
[566.915]
t u m i x u j a s a n a k i h ã 
[568.435]
<no-speech> 
[571.155]
t u m i t u m i 
[572.075]
<no-speech> 
[581.795]
h ã 
[582.345]
<no-speech> 
[585.075]
ɛ m ʊ k ɛ t a n a m b a ɾ ɔ j ɛ d i x t a ɾ b d i s ɛ z ɛ n ɔ m b ɔ ɾ ɔ t ʊ l o b i n e k i 
[587.675]
<no-speech> 
[591.555]
ɛ n ɔ m b ɔ ɾ ɔ t ʊ l oi s t ɔ j 
[592.815]
<no-speech> 
[599.185]
ɔ̃ k i j ɔ 
[599.8]
