[0.000]
<no-speech> 
[0.875]
<sta> h ɛ l l o ɔ̃ k o t a s t ɔ j 
[12.595]
<no-speech> 
[13.545]
<no-speech> 
[14.005]
<no-speech> 
[14.895]
ɔ̃ 
[15.545]
<no-speech> 
[16.715]
a s ɛ ɛ n ɛ a s ʊ ɾ u m ɔ t ɛ a s ʊ d j u t i s o l i a s ɛ <sta> 
[20.355]
<no-speech> 
[23.375]
<sta> kh ɔ b ɔ ɾ bh a l ɛ t ʊ ɾ 
[24.895]
<no-speech> 
[28.125]

[30.425]
<no-speech> 
[31.395]
ɾ u m ɔ ɾ p i n ɛ <sta> 
[34.025]
<no-speech> 
[35.015]
<sta> h ɔ j n e k i h ã 
[38.965]
<no-speech> 
[39.955]
<sta> ɔ l ɔ p d e ɾ i h o b ɔ n e k i ɔ̃ a h i b i a ɾ u a s ʊ ɾ u m ɔ t ɔ k ɔ l ɛ ɔ k ɔ l ɛ 
[46.475]
<no-speech> 
[48.395]
h ɔ j n e k i <sta> ɔ̃ ɔ l ɔ p m a n m a n ɛ e t i a k o ɾ i s ʊ 
[54.545]
<no-speech> 
[57.435]
<sta> u l u b a ɾ i t k i s u x ɔ m ɔ j l a g i b ɔ s a g ɛ 
[61.865]
<no-speech> 
[63.225]
ɛ j g a h o ɾ i <sta> 
[66.485]
<no-speech> 
[68.175]
<sta> d j u t i m a ɾ i a s ʊ ɾ oi ɛ n ɔ z ɔ j h oi a s ɛ 
[72.215]
<no-speech> 
[73.395]
<sta> ɛ n ɔ z ɔ j h oi a s ɛ a h i l ɛ g ɔ m p a l ɛ h ɔ j a ɾ u d e kh i l i h ɔ j n a h i l ɛ k ɛ n ɛ k ɛ d e kh i b i 
[85.185]
<no-speech> 
[86.485]
h ã 
[87.525]
<no-speech> 
[90.475]
ɔ̃ b o ɾ o x u n b o ɾ o x u n d i a n a j t ʊ 
[92.055]
<no-speech> 
[92.965]
b ɛ j a n ɛ d i a s ɛ <sta> b o ɾ o x u n k o t d i s ɛ 
[96.225]
<no-speech> 
[98.655]
ɔ̃ b o ɾ o x u n m ɔ j a ɾ u b a ɾ i t z a b ɔ o l a i s i l o <sta> ɔ̃ ɔ̃ 
[105.165]
<no-speech> 
[106.275]
h ã 
[108.705]
<no-speech> 
[111.125]
ɔ̃ gh ɔ ɾ ɔ ɾ p i n ɛ bh a l ɛ a s ɛ t ɔ j gh ɔ ɾ ɔ t ʝ a b i n ɛ n a ʝ a w 
[114.485]
<no-speech> 
[116.535]
k e t i a z a b i 
[117.285]
<no-speech> 
[119.365]
k e t i a z a b i <int> 
[120.705]
<no-speech> 
[123.785]
ɔ̃ d u j d i n ɔ m a n p i s ɔ t z a b i 
[125.175]
<no-speech> 
[126.525]
n ɛ ɾ ɛ ɾ o kh i a s ɛ n e k i 
[127.695]
<no-speech> 
[130.395]
n e k i 
[131.125]
<no-speech> 
[132.005]
<sta> m a ɾ i b d i a n a j 
[133.715]
<no-speech> 
[136.315]

[137.245]
<no-speech> 
[138.355]
x ɔ d a e d i j ɛ x ɔ d a e d i j ɛ th a n d a b ɔ t ɔ ɾ m a ɾ i a ɾ a m l a g ɛ bh a l l a g ɛ 
[143.325]
<no-speech> 
[144.515]
ɔ̃ m ʊ k ɔ t ʊ d i j ɛ n i z ɛ a ɾ u k i d i b ɔ l a g ɛ <sta> k i 
[152.455]
<no-speech> 
[153.765]
ɛ k i gh ɔ ɾ ɔ t z ʊ w a d u j d i n a g ɔ t ɛ a h i l ʊ h ɔ j x u n d ɔ ɾ ɔ k ɛ d i s ɛ k ʊ n ʊ h e ɾ i j ɛ n a j p ɾ ɔ b l ɛ m ɛ n a j k ʊ n ʊ p ɾ ɔ b ɔ l ɛ m n a j h ã <sta> 
[165.715]
<no-speech> 
[165.865]
<no-speech> 
[168.055]
h ã <sta> 
[169.125]
<no-speech> 
[170.375]
<sta> ɔ̃ b i j a b i j a p a t i m l a h ɛ l a h ɛ d u j d i n ɔ m a n d e ɾ i a s ɛ h ɔ j n ɛ n ɔ h ɔ j 
[176.275]
<no-speech> 
[177.675]
d u j d i n ɔ m a n m a n ɛ ɛ j b ɔ s ɔ ɾ ɔ t ʊ z a b ɔ a ɾ u <sta> ɛ j d i n z ʊ w a ɾ p i s ɔ t k ɛ n s ɛ l h o b ɔ h ɔ j n ɛ n ɔ h ɔ j 
[183.975]
<no-speech> 
[185.785]
k ɔ ɾ 
[186.355]
<no-speech> 
[189.355]
ɛ j h ɔ l ɔ k a n ɔ t ɛ i t ʊ p a t i a s ʊ a h i b ɔ a h i l ɛ h ɛ p a t i b ɔ p a ɾ i m <sta> 
[195.185]
<no-speech> 
[196.685]

[200.235]
<no-speech> 
[202.465]
th a k i p ɛ l a j k ɔ th a p a t i b ɔ l ɔ g a h oi a s ɛ n ɛ 
[204.495]
<no-speech> 
[206.515]
ʝ ɔ n t ɾ ɔ n a h oi s ɛ n e k i ʝ ɔ n t ɾ ɔ n a 
[208.375]
<no-speech> 
[212.475]
k ɛ ɾ ɔ m s ɔ l a n a j s o l i b a ɾ u s o l i b m a n ɛ l ɔ g n a j k ʊ n ʊ k ɛ ɾ ɔ m kh ɛ l ɔ ɾ k a ɾ ɔ n ɛ 
[216.815]
<no-speech> 
[219.975]
<no-speech> 
[220.335]
<no-speech> 
[221.285]
a h i s ɛ d u z ɔ n a h i s ɛ x i h ɔ̃ t ɛ n ɛ kh ɛ l ɛ 
[223.765]
<no-speech> 
[224.725]
<sta> oũ b o ɾ o x u n b ɔ t ɔ ɾ ɔ n ʊ x e j t ʊ 
[230.015]
<no-speech> 
[231.725]
<no-speech> 
[232.245]
<no-speech> 
[233.115]
<sta> t ɔ l ɔ t g oi dh o ɾ i b l a g i b ɔ a g ɔ t 
[236.695]
<no-speech> 
[238.125]
t ɔ l ɔ t g oi t a ɾ o p i s ɔ t ɛ h o b ɔ 
[239.525]
<no-speech> 
[242.615]
<no-speech> 
[243.015]
<no-speech> 
[244.625]
<sta> k a th d a l s ɔ b a s ɛ k i n t u x ɛ i kh i n i t ɛ z b ɔ l a b p ɔ ɾ a b o s t u z u i t ʊ h ɛ n a j 
[251.175]
<no-speech> 
[252.095]
k ɛ n ɛ <int> 
[252.915]
<no-speech> 
[254.445]
<sta> ɛ j k i n ɛ p a l i ɾ k i kh ɔ b ɔ ɾ 
[261.265]
<no-speech> 
[263.665]
<sta> ɔ̃ n ɛ p a l i a h a n a j t a ɾ m a n ɛ a z i k a l i a h i s i l n e k i 
[274.705]
<no-speech> 
[275.545]
<sta> ɛ b ɛ b i ɾ a t b o ɾ i ŋ l a g i s ɛ oi k ɔ l o h ã 
[283.725]
<no-speech> 
[285.015]
<sta> k i k ɔ j k ʊ n ʊ n a j ɔ k ɔ l ɛ a s ʊ k ɔ l o ɔ k ɔ l ɛ ɔ k ɔ l ɛ b o ɾ i ŋ n a l a g ɛ n e k i 
[290.325]
<no-speech> 
[295.035]
ɔ̃ t ʊ ɾ l ɔ g ɔ t k ɔ th a p a t i l ɛ th a k i l ɛ a ɾ u x i h ɔ̃ t ɔ ɾ l ɔ g ɔ t k o t k ɔ th a p a t ʊ <sta> 
[299.905]
<no-speech> 
[302.175]
<sta> h u m p a t i m b a ɾ u a s ɛ x ɛ i t ʊ w ɛ 
[305.475]
<no-speech> 
[306.545]
<sta> t ɔ j k i n ɛ p a l i n a j t a ɾ m a n ɛ a z i <no-speech> n a h ɛ n e k i 
[315.405]
<no-speech> 
[316.655]
ɔ̃ 
[317.395]
<no-speech> 
[319.345]
ɔ̃ m i n i m a m a ɾ u a th m a n ɛ a th t a <sta> 
[323.115]
<no-speech> 
[324.635]
x e j t ʊ m ʊ k l a g i b ɔ 
[325.785]
<no-speech> 
[327.335]
<sta> ɛ j d u j s a ɾ i d i n d e ɾ i k ɛ d u j s a ɾ i d i n d e ɾ i k ɛ z a b ɔ l a g ɛ 
[334.545]
<no-speech> 
[335.645]
<no-speech> 
[336.005]
<no-speech> 
[337.505]
n a j h ʊ w a n a j d ɔ x d ɔ x b a ɾ ɔ t a ɾ i kh ɛ m a n ɛ h ɔ j n e k i <sta> 
[343.115]
<no-speech> 
[345.945]
<sta> oi i m a n n ʊ w a ɾ ʊ d e j i m a n n a th a k ɛ t ɔ j h e ɾ i k ɛ l ɔ d u j d i n d e ɾ i k ɛ l o b i d ɔ x b a ɾ ɔ t a ɾ i kh 
[356.805]
<no-speech> 
[358.145]
k ɔ m ɔ k ɛ l o b i m a n ɛ d e ɾ i m a n ɛ k ɔ m ɔ k ɛ a ɾ u 
[360.415]
<no-speech> 
[364.535]
h ɔ j n e k i t ɔ j <sta> a h i b i s ʊ n b i a ɾ x ɔ m ɔ j ɔ t l oi l o b i a ɾ u e t i a n a l a g ɛ 
[370.575]
<no-speech> 
[373.055]
b i a ɾ x ɔ m ɔ j ɔ t l oi l o b i 
[374.255]
<no-speech> 
[376.015]
<laugh> e t i a a ɾ u k i <sta> 
[379.865]
<no-speech> 
[385.185]
a h i z a p i s ɛ ɾ u m ɔ t l oi z a 
[386.655]
<no-speech> 
[390.315]
ɔ̃ a h i p ɛ l a j l oi z a <sta> 
[393.165]
<no-speech> 
[394.145]
<sta> h ã 
[396.575]
<no-speech> 
[398.455]
ɔ̃ kh a t a ŋ d ɛ kh a t a ŋ d ɛ a h i b i a ɾ u l oi z a b i m ʊ ɾ t a t ɛ k i a p o t t i t ʊ ɾ b o s t u t ʊ ɾ h e ɾ i 
[403.475]
<no-speech> 
[404.885]
<sta> h ã 
[408.515]
<no-speech> 
[410.875]
d i m d ɛ <sta> m i n a t ʊ l oi a h i b i x o ɾ u 
[414.915]
<no-speech> 
[415.995]

[417.465]
<no-speech> 
[420.485]
<sta> k ʊ n ʊ t ʊ d a ŋ ɔ ɾ ɔ t ʊ 
[423.035]
<no-speech> 
[423.965]
<sta> d a ŋ ɔ ɾ ɔ t ʊ l oi a h i b i t ɛ n ɛ h ɔ l ɛ 
[426.875]
<no-speech> 
[428.055]
n a j k i <sta> 
[429.565]
<no-speech> 
[430.595]
a ɾ u t i n i gh ɔ n t a b a k i a s ɛ x a t gh ɔ n t a h ɔ l x a t gh ɔ n t a h ɔ l a ɾ u t i n i gh ɔ n t a b a k i a s ɛ <sta> 
[438.465]
<no-speech> 
[439.715]
ɔ̃ 
[440.345]
<no-speech> 
[441.205]
<sta> x e j t ʊ x e j k a ɾ ɔ n ɛ ɾ o kh i a s ʊ m ɔ j s a i a s ʊ 
[444.005]
<no-speech> 
[444.825]
a h i n ɔ p ɔ ɾ ɛ t ʊ <sta> 
[446.495]
<no-speech> 
[448.265]
h ɔ j n e k i 
[448.925]
<no-speech> 
[451.825]
a ɾ u t a ɾ ɛ t a ɾ ɛ n a ʝ a j ɔ n ɛ a m i ɛ n ɛ k ɛ ɛ n ɛ k ɛ kh ɛ d ʊ s ɛ k ɛ n d ɔ t gh u ɾ i b n a <sta> 
[455.735]
<no-speech> 
[460.345]

[465.235]
<no-speech> 
[467.085]
<sta> t ɔ j d u ɾ ɔ t g oi s ɛ b a s i g oi s a m ɔ j ʊ s ɔ ɾ ɔ t ɛ a s ʊ 
[470.235]
<no-speech> 
[472.725]
oũ 
[473.235]
<no-speech> 
[474.655]
<hes> k ɾ i s n ɔ bh a l n ɛ 
[476.635]
<no-speech> 
[479.835]
dh ɔ ɾ m ɛ n d ɾ ɔ n a j n e k i dh ɔ ɾ m ɛ n d ɾ ɔ b ɔ n a j d i l ʊ h ɔ j 
[483.005]
<no-speech> 
[486.935]
th a k i l ɛ 
[487.775]
<no-speech> 
[490.605]
oi k i b a z i s m ɔ t u b u l i ɛ kh ɔ n a s ɛ n ɛ 
[493.195]
<no-speech> 
[495.595]
<sta> p ʊ x t a ɾ l ɔ g a j n a j d ɛ kh ʊ n kh a l i n a m ɔ t ʊ d i s ɛ 
[501.125]
<no-speech> 
[503.985]
kh u l i a s ɛ m a n ɛ p ʊ x t a ɾ ɛ k ʊ d ɛ kh a n a j d ɛ kh ʊ n 
[506.285]
<no-speech> 
[509.065]
m ɔ j g oi s i l ʊ ɛ n ɛ x i d i n a ɾ a t i s a l ʊ p ʊ x t a ɾ kh ɔ n ɛ d ɛ kh a p a j s ʊ <sta> 
[517.075]
<no-speech> 
[518.585]
<no-speech> 
[518.995]
<no-speech> 
[522.005]
m a n ɛ p ʊ x t a ɾ n a j t a t ɛ kh a l i n a m ɔ t ʊ l i kh i th oi d i s ɛ <sta> 
[525.675]
<no-speech> 
[526.915]
<sta> b a k i ɾ a kh ʊ ɛ n ɛ 
[529.515]
<no-speech> 
[532.535]
<sta> t a k ɛ i t ʊ p a w h u 
[537.565]
<no-speech> 
[539.495]
<sta> a ɾ u b e s i n a j k i s u x ɔ m ɔ j a s ɛ i m a n ʊ s ɔ ɾ ɔ t th a k i bh ɔ n a l a g ɛ d u ɾ ɔ t th a k ɔ l ɔ p 
[551.405]
<no-speech> 
[551.555]
<no-speech> 
[553.565]
<sta> d u ɾ ɔ t z a 
[556.025]
<no-speech> 
[556.935]
b e s i n a j d ɛ a ɾ u k i s u x ɔ m ɔ j ɾ oi <sta> h u 
[560.535]
<no-speech> 
[561.615]
<no-speech> 
[562.215]
<no-speech> 
[563.285]
b a k i <sta> ɾ a t i t ʊ a h i b i j ɛ i m ʊ ɾ l ɔ g ɔ t th a k i bh ɔ ɔ̃ 
[572.595]
<no-speech> 
[575.505]
t a k ɛ i t ʊ 
[576.335]
<no-speech> 
[578.075]
<sta> ɔ̃ h ɔ b ɔ d ɛ a ɾ u b a k i ɾ 
[580.475]
<no-speech> 
[583.685]
<no-speech> 
[584.105]
<no-speech> 
[585.605]
<no-speech> 
[586.145]
<no-speech> 
[593.875]
<no-speech> 
[595.265]
<no-speech> 
[597.365]
th i k a s ɛ 
[597.835]
<no-speech> 
[598.855]

[599.875]
<no-speech> 
[600.100]
