[0.000]
<no-speech> 
[3.345]
<sta> h ɛ l l o 
[7.115]
<no-speech> 
[8.275]
ɔ̃ h ɛ 
[10.465]
<no-speech> 
[12.055]
h ã 
[12.925]
<no-speech> 
[15.545]
ɛ m u n u ɾ l ɔ g ɔ t a s ʊ ɾ ɔ b dh ɛ m a l i k o ɾ i m ʊ ɾ o x u b i dh a <no-speech> ɛ k ʊ k o ɾ i b ɔ n ʊ w a ɾ ʊ 
[20.625]
<no-speech> 
[21.475]
<no-speech> 
[22.095]
<no-speech> 
[25.085]
<sta> ɔ̃ h ɛ l l o z e th i ɔ̃ h ɛ l l o ɔ̃ 
[31.895]
<no-speech> 
[32.955]
<no-speech> 
[33.645]
<no-speech> 
[36.435]
ɔ̃ a s ɛ d i j ɔ k <int> 
[38.415]
<no-speech> 
[41.285]
ɔ̃ ph ʊ n k o ɾ i a s ʊ a m i <no-speech> <int> ɔ̃ a s ɛ d i j ɔ k k a l i ɾ i t a h ɔ̃ t g oi s i l ɔ̃ 
[47.825]
<no-speech> 
[49.135]
k a l i ɾ i t a h ɔ̃ t g oi s i l <no-speech> <hes> a s ɛ d i j ɔ k th i k ɛ 
[51.925]
<no-speech> 
[53.405]
<no-speech> 
[54.865]
<no-speech> 
[56.545]
<int> a p ʊ n a l ʊ k ɛ a s ɛ 
[57.915]
<no-speech> 
[64.215]
ɔ̃ <int> 
[64.755]
<no-speech> 
[71.675]
ɔ̃ <int> 
[72.305]
<no-speech> 
[73.355]
ɔ̃ <int> 
[73.905]
<no-speech> 
[75.405]
<no-speech> 
[76.235]
<no-speech> 
[77.225]
<sta> ɔ̃ b ɛ l kh a j a s ɛ b ɔ ɾ ɔ m a k ɛ b ɛ l kh u w a j a s ɛ 
[80.205]
<no-speech> 
[81.055]
ɔ̃ 
[81.765]
<no-speech> 
[82.645]
<no-speech> 
[83.935]
<no-speech> 
[85.065]
ɔ̃ a s ɛ <no-speech> a s ɛ a s ɛ <int> 
[87.905]
<no-speech> 
[94.415]
e t i a n a j n e k i kh ɔ b ɔ ɾ l o b ɔ l a g i b ɔ <int> 
[96.705]
<no-speech> 
[98.755]
ɔ̃ 
[99.475]
<no-speech> 
[102.525]
<int> h ɔ j n e k i 
[103.325]
<no-speech> 
[107.585]
h ã 
[108.055]
<no-speech> 
[110.045]
<hes> d i j ɔ k s u n t ɛ m ɔ j kh ɔ b ɔ ɾ ɔ t ʊ l ɔ m d i j ɔ k 
[113.135]
<no-speech> 
[115.285]

[115.935]
<no-speech> 
[118.175]
<int> ɔ̃ k e t i a z a b ɔ a ɾ u 
[119.555]
<no-speech> 
[120.515]
<int> a ɾ u k e t i a z a b ɔ <int> 
[121.785]
<no-speech> 
[122.595]
<no-speech> 
[123.265]
<no-speech> 
[126.405]
h ɔ j n e k i 
[127.275]
<no-speech> 
[130.075]

[130.525]
<no-speech> 
[136.865]
ɔ̃ <hes> h e ɾ i b i h u t dh ɔ n ɔ k a h i b ɔ d i b ɔ n o h o l ɛ 
[140.445]
<no-speech> 
[146.295]
<sta> m ɛ p ã s m ɛ ɾ p ã s t a ɾ i kh h o b ɔ 
[149.895]
<no-speech> 
[150.775]
oũ oũ b ɔ h a g ɔ ɾ t ɛ i s t a ɾ i kh 
[152.935]
<no-speech> 
[159.025]
ɔ̃ a m i d u j d i n dh o ɾ i ɾ a t i th a k i l ʊ <int> 
[161.515]
<no-speech> 
[163.525]
<no-speech> 
[163.875]
<no-speech> 
[165.065]
<sta> ɔ̃ s ɔ b z a e a s ɛ n ɛ kh ɔ b ɔ ɾ l o b ɔ 
[167.385]
<no-speech> 
[169.745]
oũ 
[170.295]
<no-speech> 
[173.515]
ɔ̃ <no-speech> ɔ̃ ɔ̃ 
[175.275]
<no-speech> 
[176.915]
<sta> t u m a j ɛ z a b ɔ ɾ ɔ b j ɛ b i h u t ʊ ɾ p i s ɔ t 
[179.865]
<no-speech> 
[181.635]
<sta> m a j ɛ z a b ɔ n e k i b i h u ɾ p i s ɔ t 
[183.495]
<no-speech> 
[190.645]
ɔ̃ ɔ̃ t a k ɛ t ʊ <laugh> 
[192.205]
<no-speech> 
[193.525]
<no-speech> 
[193.955]
<no-speech> 
[195.585]
<no-speech> 
[196.705]
<no-speech> 
[199.825]
<no-speech> 
[200.615]
<no-speech> 
[201.875]
h ɛ l l o 
[202.665]
<no-speech> 
[205.865]
ɛ l ʊ w a n a j d i j ɔ k a k ou k i l o b ɔ 
[209.255]
<no-speech> 
[214.095]
<sta> ɛ t a j ɾ k a ɾ ɔ n ɛ ɛ k ɔ ʝ ʊ ɾ a n i m b u l i bh a b i s ʊ ɛ z ʊ ɾ d i s ɛ k a l i <hes> z ɔ n o t i p u ɾ ɔ ɾ 
[218.895]
<no-speech> 
[224.685]
h ã ɔ̃ 
[225.335]
<no-speech> 
[232.685]
n a j k ã h ɔ t ʊ k o m i s ɛ e t i a <no-speech> k ã h ɔ t ʊ k o m i s ɛ e t i a 
[236.515]
<no-speech> 
[237.485]
ɔ̃ 
[238.135]
<no-speech> 
[240.215]
<sta> n a j d i j ɔ k <no-speech> n a j d i j ɔ k ɛ j b a i b a i ɛ n ɛ k ɛ th a k ɛ e t i a 
[245.555]
<no-speech> 
[248.005]
oũ m 
[248.725]
<no-speech> 
[252.565]
ɔ̃ 
[253.645]
<no-speech> 
[258.095]
<no-speech> 
[259.795]
<no-speech> 
[261.255]
<no-speech> 
[263.675]
<no-speech> 
[265.675]
<sta> bh a ɽ a b e s i n ɔ h ɔ j k i z a n i t ɾ ɛ i n ɔ t n ɔ̃ 
[267.955]
<no-speech> 
[269.895]
t ɾ ɛ i n ɔ t ɔ t o bh a ɽ a b e s i n ɔ h ɔ j s a g ɛ 
[271.755]
<no-speech> 
[274.355]
<no-speech> 
[275.155]
<no-speech> 
[276.175]
<no-speech> 
[276.545]
<no-speech> 
[280.635]
oũ 
[281.155]
<no-speech> 
[284.575]
<hes> t a t ɛ n ɛ p a l i p i s a s ɔ l a j 
[286.595]
<no-speech> 
[289.515]
ɔ̃ <int> 
[290.145]
<no-speech> 
[298.075]
oũ ɔ̃ <int> 
[299.865]
<no-speech> 
[304.415]
<no-speech> 
[304.805]
<no-speech> 
[306.065]
a s ɛ n ɛ b e z i h ɔ̃ t <no-speech> bh a l ɛ 
[307.785]
<no-speech> 
[309.675]
b e z i i a t ɛ a s ɛ bh a l ɛ 
[310.905]
<no-speech> 
[314.755]
ɔ̃ g ɔ m p a j s ʊ ɾ ɔ b <hes> 
[317.385]
<no-speech> 
[318.465]
<no-speech> 
[318.905]
<no-speech> 
[325.305]
<no-speech> 
[326.775]
<no-speech> 
[328.385]
<no-speech> 
[329.155]
<no-speech> 
[330.365]
<sta> ɔ̃ 
[331.165]
<no-speech> 
[336.435]
<no-speech> 
[337.085]
<no-speech> 
[340.545]
<sta> oũ <no-speech> oũ 
[342.925]
<no-speech> 
[345.325]
<no-speech> 
[345.675]
<no-speech> 
[349.265]
ɔ̃ <int> 
[349.745]
<no-speech> 
[352.005]
<no-speech> 
[353.185]
<no-speech> 
[355.475]
<no-speech> 
[359.175]
<no-speech> 
[360.695]
oũ 
[361.175]
<no-speech> 
[363.985]
<no-speech> 
[364.395]
<no-speech> 
[366.285]
<int> ɔ̃ m ɔ j z ɔ n a m d i j ɔ k <no-speech> ɔ̃ 
[368.505]
<no-speech> 
[371.965]
oũ m ɔ j n ʊ w a ɾ ʊ ɾ ɔ b a z i <no-speech> m ɔ j n ʊ w a ɾ ʊ a z i m a j ɛ b ɔ n a j a s ɛ 
[376.015]
<no-speech> 
[377.895]
<sta> ɔ̃ a z i g a dh u i 
[380.145]
<no-speech> 
[381.205]
<cough> ɔ̃ 
[382.935]
<no-speech> 
[385.765]
<laugh> b o n u w a n a j ɾ ɔ <laugh> 
[387.645]
<no-speech> 
[390.035]
<sta> ɔ̃ a s ɛ s a u l ɔ l ɔ p ɔ̃ a s ɛ 
[393.415]
<no-speech> 
[395.075]

[395.565]
<no-speech> 
[397.435]
<sta> n a h ɛ n e k i e j k e j d i n 
[400.895]
<no-speech> 
[401.925]
<hes> b a j d e u n a j n a b ʊ m b a i a s ɛ <int> <hes> <int> 
[413.855]
<int> ɔ̃ t a j ɾ h ã h i u th ɛ n a 
[417.345]
<no-speech> 
[418.575]
h ɛ l l o 
[419.295]
<no-speech> 
[423.905]
<no-speech> 
[424.325]
<no-speech> 
[425.335]
<sta> h ã h ã k i k o ɾ i m m ɔ j 
[428.115]
<no-speech> 
[429.835]

[430.475]
<no-speech> 
[433.655]
<no-speech> 
[434.025]
<no-speech> 
[434.855]
k i b a k o b ɔ <laugh> n ʊ w a ɾ ʊ <laugh> <hes> 
[437.035]
<no-speech> 
[440.355]
<no-speech> 
[440.735]
<no-speech> 
[442.435]
<sta> ɔ̃ h ɔ j n e k i 
[444.405]
<no-speech> 
[445.355]
<hes> p i s ɔ t z ɔ n a w <laugh> 
[447.935]
<no-speech> 
[450.225]
h ã 
[450.905]
<no-speech> 
[454.005]
ɔ̃ k i ɾ ɔ n z i t ɔ t ʊ a h i b ɔ ɾ ɔ b m a h ɔ ɾ d a l i b ɔ n a b n e k i 
[457.655]
<no-speech> 
[458.575]
<no-speech> 
[460.345]
<no-speech> 
[462.585]
<no-speech> 
[463.125]
<no-speech> 
[465.355]
ã <int> 
[465.875]
<no-speech> 
[466.725]
h ɔ j n e k i <no-speech> ɔ̃ 
[468.545]
<no-speech> 
[474.465]
h ɔ j n e k i <int> 
[477.905]
<no-speech> 
[480.795]
j ɛ h ã h i <laugh> 
[483.815]
<no-speech> 
[486.655]
<no-speech> 
[487.575]
<no-speech> 
[490.855]
<no-speech> 
[491.875]
<no-speech> 
[493.435]
<laugh> 
[497.275]
<no-speech> 
[498.505]
ã <int> 
[499.235]
<no-speech> 
[503.355]
k i h oi s i l <int> 
[504.355]
<no-speech> 
[509.195]
ɔ̃ 
[509.855]
<no-speech> 
[511.265]
<no-speech> 
[511.755]
<no-speech> 
[513.565]
a z i bh a l b o x t u d i w a d i b ɔ <no-speech> b i h u 
[515.545]
<no-speech> 
[517.625]
x u n i s a n ɛ 
[518.775]
<no-speech> 
[524.355]
h ɔ j n e k i <laugh> 
[525.815]
<no-speech> 
[527.205]
<sta> <hes> a m a k ʊ bh a g d i w a d i b ɔ 
[530.395]
<no-speech> 
[533.095]
ɔ̃ k i k i b a p a j <laugh> 
[535.225]
<no-speech> 
[536.065]
<no-speech> 
[537.515]
<no-speech> 
[540.525]
<no-speech> 
[541.185]
<no-speech> 
[542.845]
<no-speech> 
[543.485]
<no-speech> 
[546.065]
<hes> k o ɾ i s ɛ d i j ɔ k <int> <hes> h ã 
[552.705]
<no-speech> 
[553.885]
ɔ̃ <int> ɾ o m i l i ɾ ɔ n dh a b ɔ ɽ a k o ɾ i a s ɛ b a k i d u i t a i h e ɾ i k ɔ ɾ ɛ 
[556.875]
<no-speech> 
[558.405]
<sta> ɔ̃ x u n 
[559.045]
<no-speech> 
[559.935]
ɔ̃ 
[560.645]
<no-speech> 
[562.915]
<no-speech> 
[563.495]
<no-speech> 
[567.175]
ɛ ʝ ũ z i a s ɛ ɛ kh ɔ n d u j b a j ɛ k ɔ ɾ l ɔ g ɔ t <int> 
[569.745]
<no-speech> 
[571.185]
<sta> l ɔ g ɔ t 
[572.385]
<no-speech> 
[573.365]
ɔ̃ kh e l i a s ɛ <no-speech> h ã 
[576.425]
<no-speech> 
[578.455]
<no-speech> 
[578.965]
<no-speech> 
[585.015]
ɔ̃ a s ɛ <int> 
[586.065]
<no-speech> 
[588.255]
ɔ̃ a s ɛ d i j ɔ k ɔ̃ ɔ l ɔ p m a n i t a a n i s i l ʊ ɾ ɔ w gh ɔ ɾ ɔ t ʊ ɔ l ɔ p m ɛ ɾ a m o t i k ɔ ɾ a ɾ k a ɾ ɔ n ɛ 
[593.245]
<no-speech> 
[596.075]
ɔ̃ <sta> k o ɾ i b ɔ ɾ ɔ b p ɔ ɾ o h i ɾ p ɔ ɾ a a h i b ɔ m i x t ɾ i 
[599.315]
<no-speech> 
[599.480]
