[0.000]
<no-speech> 
[0.185]
<sta> h ɛ l l o 
[6.365]
<no-speech> 
[7.655]
<sta> h ɛ l l o 
[8.315]
<no-speech> 
[10.495]
<sta> ɔ̃ 
[14.115]
<no-speech> 
[15.775]
<sta> ɔ̃ a s ʊ d i j ɔ k k i b a k ɛ ɔ̃ 
[21.955]
<no-speech> 
[23.095]
<sta> gh ɔ ɾ ɔ ɾ kh ɔ b ɔ ɾ bh a l n ɔ h ɔ j d i j ɔ k a m a ɾ k o t bh a l h o b ɔ h ɛ bh a l n o h o b ɔ z ɛ n p a j s ʊ x ɔ m a dh a s ɔ b bh a l h o b ɔ 
[34.465]
<no-speech> 
[35.335]
<sta> ɔ̃ ɔ̃ a s ɛ a s ɛ a s ɛ x u j a s ɛ d a d a h ɔ̃ t ʊ d a d a k a m ɔ t ʊ l a j g oi s ɛ m ɔ j gh ɔ ɾ ɔ t ɛ a s ʊ 
[47.085]
<sta> ɔ̃ g ã w ɔ t g ɔ l ʊ g ã w ɔ t z a oũ t ɛ d a d a i a ɾ u m ʊ k ph ʊ n k o ɾ i m a t i p ɔ th a l ɛ z ɛ i a t ɛ th a k i bh ɔ l a g ɛ i a t ɛ n a th a k i l ɛ o x u b i dh a g oi p ɛ l a j ɛ k ɾ a t i th a k i a h i l ɛ n ɛ 
[59.035]
<sta> o f i s ɔ t b ʊ ɾ bh a l 
[64.775]
<no-speech> 
[66.505]
<sta> a s ɛ n e k i 
[70.015]
<no-speech> 
[71.075]
<sta> ɔ̃ bh a l ɛ a s ɛ 
[75.215]
<no-speech> 
[81.345]
<no-speech> 
[81.765]
<no-speech> 
[85.055]
<sta> ɔ̃ 
[90.595]
<no-speech> 
[94.415]
<sta> ɔ̃ 
[95.975]
<no-speech> 
[96.795]
<no-speech> 
[98.265]
<no-speech> 
[100.665]
<sta> h e ɾ i ɛ j gh ɔ ɾ ɔ ɾ a s i l n e k i 
[106.575]
<no-speech> 
[107.375]
<sta> h ɛ m ɔ n t b ʊ l ɛ gh ɔ ɾ ɔ t a s ɛ 
[110.715]
<no-speech> 
[112.185]
<sta> ɔ̃ a m a ɾ i a t ɛ ɔ h a n a j b o h u t o d i n ɔ h a n a j th a k i l ɛ t ʊ gh ɔ ɾ ɔ t ɛ a s ɛ 
[119.025]
<no-speech> 
[124.225]
<sta> ɔ̃ z o d i a s ɛ d i p ɔ th a b d i b ɔ 
[130.955]
<no-speech> 
[132.385]
<sta> ɔ̃ 
[135.235]
<no-speech> 
[138.095]
<sta> ɔ̃ 
[139.365]
<no-speech> 
[142.675]
<sta> i a t ɛ b i j a k e t i a 
[145.605]
<no-speech> 
[147.145]
<sta> h ɔ̃ t ɔ ɾ b i j a 
[149.245]
<no-speech> 
[150.155]
<sta> p ɾ ɔ k a x ɔ ɾ b i j a k e t i a 
[152.275]
<no-speech> 
[153.555]
<no-speech> 
[154.355]
<no-speech> 
[157.395]
<sta> b ɔ h a g n e k i b i h u t 
[165.415]
<no-speech> 
[166.735]
<sta> h ɔ j n e k i z a m d i j ɔ k k i n a ʝ a m z a m z a m z a m z a m d i j ɔ k g oi s i l ʊ z ɛ m i n a h ɔ̃ t ɔ ɾ 
[178.505]
<sta> k a l i t ʊ g u s i a h i l ʊ k a l i t ʊ g u s i a h i l ʊ m a i n a h ɔ̃ t z ʊ w a k ɔ th a a s i l a m a ɾ gh ɔ ɾ ɔ t bh i t ɔ ɾ ɔ t 
[184.635]
<no-speech> 
[187.585]
<sta> h ɔ j n e k i 
[190.765]
<no-speech> 
[192.475]
<no-speech> 
[193.335]
<no-speech> 
[194.905]
<no-speech> 
[195.595]
<no-speech> 
[197.305]
<sta> n e k i 
[199.395]
<no-speech> 
[200.635]
<no-speech> 
[200.995]
<no-speech> 
[202.015]
<sta> t ɔ p ɔ n g oi s i l ɛ n e k i <cough> 
[203.755]
<no-speech> 
[206.425]
<sta> ɔ̃ ɔ̃ 
[210.575]
<no-speech> 
[211.895]
<sta> 
[213.565]
<no-speech> 
[214.775]
<sta> h ɛ l l o 
[216.285]
<no-speech> 
[217.595]
<sta> d i a n a j d i a n a j n e k i ã ã 
[228.295]
<no-speech> 
[231.445]
<no-speech> 
[231.905]
<no-speech> 
[232.935]
<sta> h ã 
[234.205]
<no-speech> 
[235.695]
<no-speech> 
[236.105]
<no-speech> 
[239.875]
ɔ̃ 
[240.355]
<no-speech> 
[242.655]
ɔ̃ n ɔ h ɔ j x e j t ʊ p i s ɔ t k ɔ m x e j t ʊ e t i a k o b ɔ n o w a ɾ i t a ɾ m a n ɛ p i s ɔ t k ɔ m d i a m ɔ j ph ʊ n k o ɾ i p ɛ l a j n ɛ p i s ɔ t k ɔ m d i a k o b ɔ m a n a a s ɛ 
[253.635]
<sta> m a j ou x ɔ dh p a t i kh a i s ɛ n ɛ n a j m a j ou x ɔ dh p a t i kh a i s ɛ n ɛ n a j 
[263.805]
<no-speech> 
[264.805]
<no-speech> 
[265.785]
<no-speech> 
[271.435]
<no-speech> 
[271.945]
<no-speech> 
[275.765]
<sta> ɔ̃ a h i b ɔ n e k i m a ɾ t a t ɛ a p ʊ n a l ʊ k ɛ a h i b ɔ n e k i m a ɾ t a t ɛ 
[281.385]
<no-speech> 
[282.485]
ɔ̃ 
[283.085]
<no-speech> 
[287.415]
<sta> ɔ̃ ɔ̃ 
[293.035]
<no-speech> 
[296.265]
<no-speech> 
[296.715]
<no-speech> 
[298.855]
<no-speech> 
[300.185]
<no-speech> 
[302.075]
<sta> oũ 
[304.125]
<no-speech> 
[305.425]
<no-speech> 
[305.795]
<no-speech> 
[306.815]
<no-speech> 
[307.385]
<no-speech> 
[311.315]

[313.395]
<no-speech> 
[314.335]
<sta> b i j a k i l ɔ ɾ a n ɛ s ʊ w a l i ɾ 
[316.935]
<no-speech> 
[319.195]
h ɔ j n e k i k i k i a l o h i h ɔ j 
[321.265]
<no-speech> 
[324.745]
<no-speech> 
[329.425]
<no-speech> 
[332.225]
<sta> oũ 
[333.155]
<no-speech> 
[334.695]

[343.695]
<no-speech> 
[345.695]
h ɛ l l o 
[346.335]
<no-speech> 
[346.760]
