[0.000]
<no-speech> 
[2.665]
<sta> t u n k i k o ɾ i a s a 
[4.735]
<no-speech> 
[5.775]
<sta> h ɔ j n e k i 
[8.465]
<no-speech> 
[9.475]
<int> b a k i ɛ j ph a l ɛ ɛ n ɛ k e j t a m a n b ɔ z a t a h i p ʊ w a t a ɾ ɔ l oi k ɛ 
[12.535]
<no-speech> 
[16.315]
m ʊ ɾ o p ɔ ɾ ɔ t ʊ kh ɔ ŋ s ɔ ŋ u th a n a i n <int> 
[18.315]
<no-speech> 
[20.305]
ɔ̃ n a j z ʊ w a n a j ɛ j z ɛ m ɔ j k i b a e j k e j d i n l ɔ g ʊ k ɔ ɾ a n a j <int> 
[24.005]
<no-speech> 
[25.805]
x e j t ʊ k o l ɛ <int> 
[26.665]
<no-speech> 
[29.725]
<int> t a ɾ m a n ɛ k i k o ɾ i b a e t i a m ɔ j g u w a h a t i kh ɔ n s i l ɔ ŋ h oi g oi s ɛ 
[34.935]
<no-speech> 
[36.335]
h u w ɔ t ɛ d e ɾ i kh a b ɔ i s s a k o ɾ i d e ɾ i k ɛ u th i s ʊ <int> u th i k ɛ n ɛ k a m s a m k o ɾ i k ɛ n ɛ m a n ɛ <int> 
[41.765]
<no-speech> 
[42.845]
<sta> t a ɾ ɔ p ɔ s ɔ t x e j z ɛ t a ɾ m a n ɛ ɛ j u l u b a ɾ i a m a ɾ bh i t ɔ ɾ ph a l ɛ z ɛ z a b ɔ l a g ɛ t a j s i n i n a p a e a ɾ u ɛ k ɛ l ɔ g ɛ l oi k ɛ n ɛ d a ŋ ɔ ɾ l ɔ g ɔ t ɔ l oi a s ʊ t u m i z a b ɔ p a ɾ a n ɛ 
[54.225]
k oi s ɛ n ɔ t ʊ m a k <int> 
[54.995]
<no-speech> 
[56.505]
<no-speech> 
[56.965]
<no-speech> 
[57.995]
<int> th i k a s ɛ t u m i ɔ l ɔ p d e ɾ i th a k i b a b ɛ j a n ʊ p ʊ w a z o d i 
[60.865]
<no-speech> 
[61.865]
<int> x i j ʊ z a e ɛ j u l u b a ɾ i ɾ ph a l ɛ b e s i t a j m n ɔ h ɔ j dh ɔ ɾ a d ɔ x m i n i t ɔ m a n ɔ ɾ b ʊ l ɛ k a m a s ɛ t a ɾ p ɔ ɾ a b a h i ɾ ɛ b a h i ɾ ɛ b a s ɔ t <int> u th i k ɛ n ɛ g u s i z a m 
[70.555]
<no-speech> 
[71.425]
<sta> b e s i t a j m n a l a g ɛ 
[74.235]
<no-speech> 
[75.565]
<int> x i ɔ l ɔ p d e ɾ i h ã <int> 
[77.055]
<no-speech> 
[80.275]
<int> k i k oi s a 
[81.105]
<no-speech> 
[83.725]
<int> ɔ̃ m ɔ j a z i bh a t kh a j a h i s ʊ 
[86.105]
<no-speech> 
[87.735]
<sta> n ɔ k ɔ b a a ɾ u d e u t a j m a n a j ɛ k o ɾ i s ɛ bh a t kh a b ɔ k oi s ɛ t ɔ j bh a t kh a b ɔ n a l a g ɛ 
[91.535]
<no-speech> 
[93.015]
k a l i <int> k i h ɔ l z a n a n ɛ <int> 
[94.295]
<no-speech> 
[95.175]
<int> t ʊ m a l ʊ k ɛ o t o m a t l o k t o k i n t u a h i l a x ʊ n k a l ɛ m i t ʊ ɔ l ɔ p d e ɾ i a s i l ʊ 
[99.645]
<no-speech> 
[100.505]
<cough> <sta> z a oũ t ɛ ɔ l ɔ p x ɔ n dh i j a h oi g o l t a ɾ p i s ɔ t i m a n bh ʊ k l a g i s ɛ bh a t ʊ kh a j ɔ h a n a s i l ʊ ɛ k ɛ l ɔ g ɛ s ɔ b k a m kh i n i k o ɾ i ʊ l a j g oi s ɛ b a ɾ ɛ b a ɾ ɔ a h a z ʊ w a k o ɾ i b ɔ d i g d a ɾ l a g ɛ z ɛ 
[110.895]
<no-speech> 
[112.265]
x i h ɔ̃ t ʝ a i k ɛ n ɛ s ɔ b ɛ b ɛ k a ɾ i kh ɔ n ɔ t kh a l ʊ <int> m ɔ j x e j k a ɾ ɔ n ɛ d u t a p i j o z i d i kh a l ʊ bh a l l a g i l d u t a kh a l ʊ s ɔ j a th t ɔ k a k ɛ m i s a k o l ɛ k i h o b ɔ m ɔ j ɛ t a 
[124.105]
k i a s ɛ z a n a n ɔ h ɔ j kh a j th a k i l ɛ m u kh ɔ ɾ a g ɔ t ɔ l ɔ p m a n kh u z i d i j ɛ m ʊ ɾ ɛ k d ɔ m kh ɔ ŋ u th ɛ a dh a p a k ɛ d i d i s ɛ m ɔ j k oi s ʊ i m a n k i j ɔ d i s a m ɔ j k oi s ʊ kh a o k ɛ k ʊ n ɔ h ɔ j <sta> 
[132.045]
<no-speech> 
[132.885]
<sta> m a n ɛ k i s u m a n kh ɛ t ɾ ɔ t u n e k u w a kh ɔ ŋ u th ɛ n ɔ h ɔ j h ã 
[138.845]
<no-speech> 
[141.565]
<sta> ɛ k ʊ n ʊ w a ɾ ʊ m ɔ j x e j t ʊ k ɔ th a h e ɾ i k o ɾ i s ʊ ɛ k ʊ b o x t u j ɛ n ʊ w a ɾ ʊ kh a b ɔ m a n ɛ kh a l i a z ɛ b a z ɛ l a g ɛ 
[147.325]
<no-speech> 
[149.605]
<sta> oũ ɔ̃ d ɛ kh ʊ n x e j t ʊ b ɔ x t u d i d i l ɛ k i k ɔ ɾ ɛ 
[155.685]
<no-speech> 
[156.785]
<sta> t a ɾ p i s ɔ t k i h ɔ l x e j kh a l ʊ d i n ɔ t ʊ ɾ p ɔ ɾ a bh a t n a j k i gh ɔ ɾ ɔ t a h i l ʊ a h i k ɛ n ɛ t a ɾ m a n ɛ ɔ̃ ɛ k m i n i t k i h ɔ l x e j h i ɾ ɔ n ʝ ɔ 
[167.485]
<no-speech> 
[169.425]
ɔ̃ h i ɾ ɔ n ʝ ɔ ɛ k m i n i t ɾ ɔ b a s ʊ n m ɔ j ɛ t a k ɔ th a k oi a s ʊ m a n u h ɔ ɾ l ɔ g ɔ t ɔ̃ t a ɾ p i s ɔ t k i h ɔ l z a n a gh ɔ ɾ ɔ t a h i l ʊ a m a ɾ gh ɔ ɾ ɔ ɾ x ɔ n m u kh ɔ t z ɛ a s ɛ a g ɔ ph a l ɛ z ɛ 
[179.505]
<no-speech> 
[180.935]
m a k ɛ t a ɾ m a n ɛ d ʊ s a b ɔ n a i s i l ɛ ʝ ʊ ɾ z ɔ b ɔ ɾ d o x t i d e u t a k kh u w a j d i l ɛ x e j ɾ a t i s a ɾ ɛ x a t ɔ t a m a n b ɔ z a t gh ɔ ɾ ɔ t th ɔ k a t ɛ ɾ a t i ɔ l ɔ p m a n bh a t kh a l ʊ a ɾ u 
[192.485]
<sta> u p a j ɔ t ʊ n a j 
[198.525]
<no-speech> 
[200.765]
ɔ̃ <int> 
[201.405]
<no-speech> 
[205.725]
ɔ̃ <int> 
[206.345]
<no-speech> 
[207.865]
t a ɾ p i s ɔ ɾ o kh i n i <int> 
[208.775]
<no-speech> 
[210.755]
ɔ̃ x e j t ʊ <sta> 
[214.215]
<no-speech> 
[215.365]
<sta> h ɔ j n e k i kh a b ɔ g oi s ɛ <no-speech> ɔ̃ t a ɾ p i s ɔ t 
[227.125]
t ɔ j a g ɔ t l ɔ g p a l a n e k i <int> 
[228.435]
<no-speech> 
[230.645]
<sta> ɔ̃ <no-speech> t a ɾ p i s ɔ t h e ɾ i t u m i k o t l ɔ g k o ɾ i l a 
[242.235]
<no-speech> 
[245.185]
<int> oũ 
[245.765]
<no-speech> 
[248.115]
oũ <int> 
[248.695]
<no-speech> 
[249.855]
<no-speech> 
[251.655]
<no-speech> 
[254.815]
k i j ɔ <sta> bh a l ɛ d ɛ s ʊ n 
[257.235]
<no-speech> 
[258.175]
<int> t a ɾ p a s ɔ t <int> 
[258.975]
<no-speech> 
[263.035]
<int> oũ 
[264.085]
<no-speech> 
[265.815]
<int> oũ 
[266.405]
<no-speech> 
[268.065]
t ʊ m a ɾ ɛ d i n x e j k a ɾ ɔ n ɛ d ou ɾ a d ou ɾ i m ʊ k m a t n i d i j a k ɛ g u s i g oi s i l a a m a ɾ b a m ɔ n a l i s a j ɛ m a t ʊ n i d i l ɛ k o ɾ i b ɔ l oi <int> 
[276.445]
<no-speech> 
[277.245]
<no-speech> 
[277.595]
<no-speech> 
[278.525]
ɔ̃ h k ʊ n ʊ t ɔ j k oi s e a ɾ u m ɔ j bh a b i s ʊ <foreign> a s a ɾ u k i k o ɾ i a s ɛ k ʊ n h ɔ j m ɔ j k ɔ l o a ɾ u u n e k u w a n ɔ h ɔ j k ʊ n ʊ u n e k u w a l ɔ g ɔ t ʊ a m a ɾ a g ɔ ɾ 
[290.195]
<sta> e j j a 
[292.775]
<no-speech> 
[294.155]
<sta> ɔ̃ a t u m i t ʊ m ʊ k k a l i k oi a s i l a g o dh u l i k i b a ɛ t a w a th a i kh u w a b ɔ l a g ɛ k i b a k oi a s i l a k i n ʊ 
[299.765]
<no-speech> 
[304.515]
ɔ̃ t u m i a ɾ u k oi a s i l a p a ɾ t i kh u w a b ɔ l a g ɛ m ɔ j b u z i n a p a l ʊ <sta> 
[308.265]
<no-speech> 
[311.835]
<sta> m ɔ j x e j k a ɾ ɔ n ɛ b u z i b p ɔ ɾ a n a j t ʊ x e j k a ɾ ɔ n ɛ gh ɔ ɾ ɔ t bh a b i l ʊ k ɔ th a t ʊ x e j t ʊ k i k ɔ th a k oi a s i l ɛ m ɔ j b u z i j ɛ n a p a l ʊ 
[319.115]
<no-speech> 
[321.135]
<sta> ɛ i t ʊ k ɛ 
[321.975]
<no-speech> 
[322.795]
<sta> ɔ f i s ɔ ɾ k a ɔ f i s ɔ ɾ k ɔ th a t ʊ 
[324.705]
<no-speech> 
[326.435]
<int> ɔ̃ ɛ j ɛ i t ʊ m ɔ j n a z a n ʊ h ɔ j n ɛ n ɔ h ɔ j 
[329.895]
<no-speech> 
[331.325]
<int> a g ɔ t ɛ h o b ɔ x u n i a s ʊ b i s a ɾ ɔ ɾ p ɔ ɾ a 
[333.485]
<no-speech> 
[334.465]
<cough> <int> k a l i ɾ a t i g oi 
[336.035]
<no-speech> 
[336.865]
<int> k i b a k i b i k o ɾ i b ɔ a s i l ɔ l ɔ p m a n 
[338.615]
<no-speech> 
[339.705]
<sta> m ɔ j k ɔ m b a ɾ u p i s ɔ t a ɾ u l ɔ g p a l ɛ ɾ i k x a t z a b a n e k i ɾ i k x a t z a b a ɔ̃ d ɔ x m i n i t ɔ m a n ɔ ɾ ɾ a x t a b e s i d u ɾ n ɔ h ɔ j a h a kh u z k a ɽ i j ɛ i z a oũ 
[351.665]
<no-speech> 
[352.655]
<sta> p ɔ j s a t ʊ p i s a kh ɔ ɾ ɔ s k o ɾ i b ɔ n a l a g ɛ t a ɾ p i s ɔ t h e ɾ i a z i k i kh a j a h i l a gh ɔ ɾ ɔ t 
[357.595]
<no-speech> 
[360.115]
<sta> oũ b a k i h e ɾ i l oi s i l a n ɛ t u m i b ɛ g ɔ ɾ p ɔ ɾ a 
[366.755]
<no-speech> 
[367.845]
<sta> t a k ɛ t ʊ t ʊ m a ɾ dh a n d a k ɔ ɾ ɔ b a t th a k ɛ m ɔ j p o ɾ o h i d i n a t ʊ m a ɾ b o s t u t ʊ m a k k a l i k i m a n m ɔ n ɔ t k o ɾ i d i l ʊ 
[373.845]
<no-speech> 
[377.635]
n a j t ʊ m a ɾ k a m ɔ ɾ p ɾ o t i dh a n d a n ʊ h ʊ w a h oi g ɛ s ɛ a z i k a l i <int> 
[380.955]
<no-speech> 
[382.745]
m ɔ j n i z ɛ m ʊ k k ʊ w a ɾ <int> l ɔ g ɛ l ɔ g ɛ m ʊ ɾ ɛ i m a n kh i n i x e x h ʊ w a ɾ l ɔ g ɛ l ɔ g ɛ b o s t u a n i d i l ʊ t u m i m ʊ k <int> 
[388.105]
<no-speech> 
[392.585]
m ɔ j a n i th oi d i s ʊ a ɾ u t u m i n ɔ l ɔ l a <int> 
[394.935]
<no-speech> 
[397.995]
<sta> k a l i p a ɾ a z o d i t u m i ɾ a t i th ɔ k a k ɛ a h i b a s ʊ n a m a ɾ gh ɔ ɾ ɔ l oi k ɛ 
[401.205]
<no-speech> 
[403.665]
<sta> ɔ̃ a z i b a ɾ u n ɔ k ɔ ʊ̃ t ʊ m a k d i a s ʊ n k a l i j ɛ t u m i t ʊ g ɔ m ɛ i p a j s a 
[408.655]
<no-speech> 
[410.775]
m ʊ ɾ ʊ ɔ l ɔ p m a n x ɔ h a e h o b ɔ b ɛ l ɛ g n a j z o d i k i b a ɛ t a z o d i k ɔ ɾ ʊ̃ a ɾ u n o k o ɾ i l ɛ t ʊ m a k n ɔ k ɔ ʊ̃ b a ɾ u z o d i k i b a ɛ t a k ɔ ɾ ʊ̃ 
[417.945]
<no-speech> 
[421.075]
<sta> n o k o ɾ i l ɛ t ʊ m a k a ɾ u m ɔ j ɛ n ɛ ɛ n ɛ m a t i k i k o ɾ i m t u m i bh a b i s a m a n u h ɛ m ʊ k k i m a n u h ɛ gh ɔ ɾ ɾ a t i m a t i l ɛ m a t i k ɛ n ɛ ɛ k ʊ ɛ t a n u kh u w a l ɛ 
[431.275]
<no-speech> 
[434.825]
<sta> h ɔ l ɛ ʊ d i a s ʊ n m a n ɛ k i a ɾ u b ɛ j a l a g ɛ n a t u m i a h i l ɛ a m a ɾ gh ɔ ɾ ɔ t m i ɾ a m i x ɛ kh a j z ʊ w a n i z ɔ ɾ gh ɔ ɾ ɔ ɾ n i s i n a <breath> t ʊ m a k m a n ɛ k i a ɾ u ɛ k ʊ x p e s i j ɛ l kh u w a b o n ʊ w a ɾ ʊ k e t i a 
[444.425]
<no-speech> 
[449.085]
n a l a g ɛ x p e s i j ɛ l t ʊ m a k n u kh u w a oũ m ɔ j <int> 
[451.515]
<no-speech> 
[454.255]
<sta> h e ɾ i b a k i ɛ j z ɛ x e j a h i s ɛ n e k i k a h i l i p a ɾ a ɾ z ɛ l o ɾ a ɾ n a m k i a s i l ɛ l ɔ ɾ a t ʊ ɾ n e k i 
[461.035]
<no-speech> 
[464.005]
<sta> a h i s ɛ n e k i 
[465.415]
<no-speech> 
[467.415]
<int> ɔ̃ ɔ h a n a j <int> 
[468.315]
<no-speech> 
[470.355]
<int> ɔ̃ 
[471.025]
<no-speech> 
[472.065]
<int> h ã 
[472.635]
<no-speech> 
[475.625]
<int> ɔ̃ 
[476.215]
<no-speech> 
[477.245]
<int> oũ 
[477.835]
<no-speech> 
[481.345]
<sta> oũ 
[482.415]
<no-speech> 
[485.065]
<sta> ɔ̃ a h i p a j s ɛ 
[486.765]
<no-speech> 
[487.615]
<sta> th i k ɛ a s ɛ d i a <no-speech> n a j n a j bh a l ɛ l a g i s ɛ t ʊ m a ɾ l ɔ g ɔ t i m a n d i n ɔ ɾ m u ɾ ɔ t k ɔ th a p a t i s ʊ m a n u h ɔ g ɔ ɾ a k i 
[499.165]
d ɛ kh a o n a j b o h u t o d i n s a b ɔ ɾ ʊ m ɔ n g oi a s ɛ <int> 
[501.555]
<no-speech> 
[502.555]
<int> h e ɾ i b a k i ɛ n ɛ t ʊ m a ɾ m a n u h ɔ z ɔ n bh a l ɛ a s ɛ n ɛ <int> 
[504.755]
<no-speech> 
[506.145]
<int> h ã m a n u h ɔ z ɔ n bh a l ɛ a s ɛ <int> 
[507.905]
<no-speech> 
[510.565]
k i j ɔ <int> 
[511.945]
<no-speech> 
[514.495]
<sta> h ɔ j n e k i k i k o ɾ i b a a ɾ u l a g ɛ m a n u h ɔ ɾ m a z ɔ t u n e k u w a 
[521.735]
<no-speech> 
[522.825]
<sta> h ɔ j l oi s ɛ s a i l o ɔ l ɔ p m a n 
[528.225]
<no-speech> 
[532.335]
<sta> oũ a z i m ʊ ɾ b o h u t b ɔ z a ɾ ʊ k o ɾ i b ɔ a s ɛ z a n a n ɛ 
[536.575]
<no-speech> 
[537.775]
<sta> k i k ɔ ɾ ʊ̃ k i m a n ɛ x ɔ m ɔ x ʝ a h oi g oi s ɛ k i k ɔ ɾ ʊ̃ k i n ɔ k ɔ ɾ o ɔ k ɔ l ɛ ɔ k ɔ l ɛ 
[543.145]
<no-speech> 
[548.645]
<sta> ɛ j ɾ a t i p u w a x ɔ m ɔ j kh i n i m ʊ ɾ ʊ l ʊ w a ɾ p ɾ ɔ b ɔ l ɛ m h oi z a e ɛ b a ɾ d ɔ s t a b ɔ z a ɾ kh a n a ɛ b a ɾ a k ou d u p o ɾ i j a ɾ kh a n a g u t e j kh i n i k o ɾ i n a h i l ɛ ʊ n ɔ h ɔ j 
[557.485]
<no-speech> 
[560.925]
<sta> oũ a z i n ɛ k a l i u th ɛ n e k i 
[564.795]
<no-speech> 
[566.715]
<sta> ɛ d i n ɔ t ɛ a h i p o ɾ o h i k a l i p o ɾ o h i a h i p a w p oi s a k ɛ i t a <no-speech> t ʊ m a ɾ k ã h h oi s ɛ s a g ɛ n ɔ 
[573.115]
<no-speech> 
[575.175]
<sta> ɛ j n a j i m a n th a n d a p o ɾ i s ɛ ɛ k d ɔ m m a n ɛ bh a l n ɔ l ɔ g a h oi g oi s ɛ a ɾ u m ɔ j m a n ɛ k i z a n ɔ n ɛ k a l i bh ɔ n t i k t a k ɛ k oi s ʊ m a n u h m o ɾ i z a b ɔ p a ɾ ɛ g ɔ ɾ ɔ m x ɔ h ʝ ɔ k o ɾ i b ɔ p a ɾ ʊ s ɔ t ɔ ph ɔ t a i th a k i m g ɔ ɾ ɔ m ɔ t 
[586.615]
th a n d a t ʊ x ɔ h ʝ ɔ k o ɾ i b ɔ n ʊ w a ɾ ʊ p a n i m a ɾ i b n ʊ w a ɾ ʊ <sta> m ɔ n n a z a e k ou t u k x u n i b ɔ ɾ m ɔ n n a z a e 
[592.965]
<no-speech> 
[597.375]
<sta> ɛ k d ɔ m i s s a n a z a e a z i ɾ a t i 
[599.985]
k i b a <oov> 
[600.140]
