[0.000]
<no-speech> 
[2.165]
<int> h ɛ l l o 
[3.085]
<no-speech> 
[4.125]
b a b u kh ɔ b ɔ ɾ k ɛ n ɛ 
[5.395]
<no-speech> 
[7.815]
b a k i bh a l bh a t s a t kh a i s <int> 
[11.025]
<no-speech> 
[12.475]
<int> k i h e d i <int> 
[13.535]
<no-speech> 
[15.405]

[16.635]
<no-speech> 
[20.885]
<sta> m ɔ j bh a t kh u w a j n a j ɾ ɔ b a 
[22.915]
<no-speech> 
[25.485]
ɛ j k a m ɔ t d i s ʊ ɾ a x t a t 
[26.675]
<no-speech> 
[29.745]
<int> a b e k a m ɔ ɾ <int> 
[30.875]
<no-speech> 
[33.405]
<int> h ã 
[34.895]
<no-speech> 
[37.095]
<int> t a m a m 
[37.775]
<no-speech> 
[38.765]
<no-speech> 
[39.115]
<no-speech> 
[41.825]
ɔ̃ ɾ a z ɔ gh a t ɔ ɾ p ɔ ɾ a j k ɔ l ɛ z ɔ t a h i a s ʊ ɾ a x t a t 
[44.385]
<no-speech> 
[48.395]
<int> h ã 
[49.415]
<no-speech> 
[53.215]
<int> a z i k ɔ l ɛ ʤ z ʊ w a n a j n e k i 
[54.335]
<no-speech> 
[58.615]

[59.115]
<no-speech> 
[60.875]
<no-speech> 
[61.285]
<no-speech> 
[62.465]
k ɛ i t a t a ɾ ɔ m bh ɔ h oi s ɛ k ɔ l ɛ ʤ <int> 
[65.955]
<no-speech> 
[66.875]
s u t i <int> 
[67.535]
<no-speech> 
[68.655]
<int> ɔ̃ p u z a k o t s a l a 
[69.625]
<no-speech> 
[70.535]
h ã d u ɾ g a p u z a 
[72.255]
<no-speech> 
[73.195]
ɔ̃ <int> d u ɾ g a p u z a d u ɾ g a p u z a <int> 
[75.695]
<no-speech> 
[78.375]
k o t s a l a 
[79.035]
<no-speech> 
[81.895]

[82.775]
<no-speech> 
[85.305]
ɔ k ɔ l z i t ɛ n ɔ ɾ gh ɔ ɾ ɔ t n e k i <int> 
[86.725]
<no-speech> 
[89.185]
ɛ j m ɔ j t a m a m s a j s ʊ <int> 
[90.395]
<no-speech> 
[91.265]
<int> t a m a m s a j s ʊ m ɔ j <int> 
[93.245]
<no-speech> 
[97.225]
h ã <int> 
[97.725]
<no-speech> 
[99.855]
ɔ̃ 
[100.395]
<no-speech> 
[103.385]
<sta> a ɾ u b a k i n a j a ɾ u 
[105.895]
<no-speech> 
[107.695]
<laugh> p u ɾ a ɛ n ʤ ɔ j <laugh> 
[109.885]
<no-speech> 
[110.905]
<no-speech> 
[111.355]
<no-speech> 
[113.395]
<int> ɔ̃ t a m a m 
[114.485]
<no-speech> 
[115.875]
<no-speech> 
[116.235]
<no-speech> 
[117.705]
a m 
[118.255]
<no-speech> 
[119.605]
<int> b a k i bh a l e j ɛ j ɔ l ɔ p b ɛ j a h oi s ɛ t ʊ m a ɾ 
[121.695]
<no-speech> 
[122.845]
<no-speech> 
[123.235]
<no-speech> 
[124.665]
ã 
[125.125]
<no-speech> 
[126.215]
<int> ɔ̃ ɛ j b o h u t b ɛ j a <int> 
[129.705]
<no-speech> 
[131.085]
ɛ j t a m a m b ɛ j a <int> 
[132.365]
<no-speech> 
[134.825]
m a l ɔ t ʊ <foreign> 
[135.745]
<no-speech> 
[141.705]
<sta> oi m ɛ m 
[142.565]
<no-speech> 
[143.765]
<int> i j a ɾ ɛ h ɔ j h ã 
[145.945]
<no-speech> 
[148.755]
<int> k i k i <int> 
[149.345]
<no-speech> 
[152.515]
<int> ɔ̃ <int> 
[153.185]
<no-speech> 
[155.255]
<no-speech> 
[155.625]
<no-speech> 
[157.525]
ɔ̃ 
[158.215]
<no-speech> 
[161.345]
ɛ j <int> i a ɾ l ɔ g ɔ t 
[162.695]
<no-speech> 
[164.185]
<sta> n a j n a j 
[166.585]
<no-speech> 
[170.655]
x i oũ p ɔ th a l i k ɛ u ɾ ɛ n e k i a ɾ u k ɔ ɾ p ɔ ɾ a 
[172.215]
<no-speech> 
[173.975]
<int> ɔ̃ k ɔ <no-speech> h ɛ l l o ɛ j <int> 
[185.245]
<int> h ɛ l l o <int> 
[186.945]
<no-speech> 
[189.185]
bh a t kh a l a <int> 
[190.805]
<no-speech> 
[191.655]
<int> bh a t bh a t 
[192.295]
<no-speech> 
[196.555]
<int> k e t i a kh a b a <int> 
[198.475]
<no-speech> 
[202.375]
<no-speech> 
[202.835]
<no-speech> 
[204.865]
k i k oi s a <int> 
[206.685]
<no-speech> 
[210.375]
ɔ̃ l ɔ k x m i p u z a k ɛ n ɛ g o l <int> 
[211.905]
<no-speech> 
[215.265]

[215.805]
<no-speech> 
[219.005]
<no-speech> 
[219.405]
<no-speech> 
[220.735]
<int> h ɛ l l o 
[221.225]
<no-speech> 
[223.685]

[224.185]
<no-speech> 
[226.955]
ɾ ɔ m ɔ j z a e a s ʊ ɾ ɔ b a <int> 
[228.205]
<no-speech> 
[232.395]
<sta> ɔ k ɔ l ɛ n ɔ h ɔ j kh a b ɔ l a g ɛ 
[235.165]
<no-speech> 
[237.255]
<int> h ã 
[238.235]
<no-speech> 
[241.095]
<int> ɔ̃ gh ɔ ɾ ɔ l oi a h i b a <int> 
[242.525]
<no-speech> 
[244.705]
m o b i l l oi a h i b a <int> 
[246.705]
<no-speech> 
[248.745]

[249.455]
<no-speech> 
[250.445]
h ɛ l l o k u ɾ o k u ɾ ɛ ɔ̃ <int> k u ɾ o k u ɾ ɛ l oi a h d ɔ x p ɛ k ɛ t 
[255.145]
<no-speech> 
[260.045]
<no-speech> 
[260.455]
<no-speech> 
[261.445]

[262.025]
<no-speech> 
[263.475]
<no-speech> 
[263.915]
<no-speech> 
[265.485]
<int> h ɛ l l o 
[267.685]
<no-speech> 
[270.275]
h ɛ l l o <int> k o t a s 
[271.615]
<no-speech> 
[273.095]
t u m i k o t a s a <int> 
[274.055]
<no-speech> 
[276.615]
<int> h ã 
[278.115]
<no-speech> 
[280.005]
k o t <int> 
[280.465]
<no-speech> 
[282.285]
h ɛ l l o <int> 
[282.815]
<no-speech> 
[284.855]
k a ɾ d ʊ k a n ɔ t <int> 
[285.585]
<no-speech> 
[288.415]
k a ɾ d ʊ k a n ɔ t <int> 
[289.255]
<no-speech> 
[291.785]
<no-speech> 
[292.155]
<no-speech> 
[293.805]
<no-speech> 
[294.295]
<no-speech> 
[295.935]
<int> k a ɾ k a ɾ <int> <no-speech> h ɛ l l o 
[301.965]
<no-speech> 
[303.155]
k ɔ th a k ɔ h ɛ l l o z u t u d ɛ w k i k i ɾ ɔ a s a <sta> <no-speech> k i k o ɾ i a s a b ɛ 
[310.085]
<no-speech> 
[312.425]
<sta> ɛ j i l i g ɛ l n ɔ k o ɾ i b i m ɔ j m a ɾ i d i m m ɔ j n ɔ j ɔ n ɛ k oi a s ʊ 
[320.165]
<no-speech> 
[322.255]
<int> <laugh> o l a t ɔ j o l a o l a k o ɾ i s a <int> 
[325.665]
<no-speech> 
[326.885]
k o t g o l i b ɛ <int> k ɔ ɾ p ɔ ɾ a a h i l i t ɔ j k ɔ ɾ p ɔ ɾ a a h i l i <int> 
[331.945]
<no-speech> 
[332.785]
<int> k ɔ ɾ p ɔ ɾ a a h i l i t ɔ j <int> 
[334.935]
<no-speech> 
[339.005]
<int> ɔ̃ d ɛ d ɛ d ɛ ɔ̃ <hes> h e ɾ i p ɔ ɽ a x u n a th i k ɛ s o l i a s ɛ <int> 
[344.055]
<no-speech> 
[347.205]
e t i a z a oũ t ɛ e t i a z a oũ t ɛ k i b a kh u w a b i n ɛ 
[350.125]
<no-speech> 
[351.665]
<int> z a oũ t ɛ k i b a kh u w a b i n ɛ t ɔ j <int> 
[354.285]
<no-speech> 
[355.865]
ɔ̃ <int> t ʊ ɾ t a t ɛ p i s a a s ɛ d ɛ kh ʊ n <int> 
[359.675]
<no-speech> 
[362.645]
<sta> ɔ̃ a s ɛ t ʊ h a t ɔ t ɛ j h a t ɔ t a s ɛ t ʊ h a t ɔ t p i s a n a j t ʊ ɾ <no-speech> k i j ɔ a s ɛ t ʊ t ʊ ɾ 
[374.635]
<sta> <hes> h a t ɔ t p i s a a s ɛ t ʊ ɾ <no-speech> h a t ɔ t p i s a n a j n e k i t ʊ ɾ <no-speech> i k ɔ th a n o h o l ɛ 
[385.085]
ɛ j p i s a n a j p ɔ k ɛ t kh ɔ n k ɔ ɾ a s u n 
[388.345]
<no-speech> 
[389.855]
<hes> ɔ l ɔ p m a n d i b i d e j e j b i l a k 
[392.415]
<no-speech> 
[393.915]
<sta> i x b a h i a k kh a j x e x k o ɾ i d i s ɛ ɛ k ɔ b a ɾ ɔ t ɛ k i t ɔ j i m a n kh a j x e x k o ɾ i n ɔ d i l ɛ n ɛ ɛ k ɛ b a ɾ ɔ t 
[401.855]
<no-speech> 
[406.895]
k i j ɔ g u t e j g u t e j n i ɛ k ɛ l ɔ g ɛ kh a l i h ɛ l l o k u ɾ o k u ɾ i k ɔ j <sta> 
[412.375]
<no-speech> 
[413.355]
<int> h ɛ l l o 
[415.955]
<no-speech> 
[418.925]
<int> b a k i bh a l 
[419.625]
<no-speech> 
[422.175]
<sta> th a k i l ɛ n a m a ɾ i l a 
[423.205]
<no-speech> 
[425.075]
<int> h ã 
[425.585]
<no-speech> 
[427.515]
<sta> ɔ̃ h o b ɔ d i a t a j d ɛ kh ʊ n ʝ ʊ w a i n a j 
[430.265]
<no-speech> 
[431.305]
t a m a m <sta> m ɔ j t a m a m b ɛ l ɛ n s bh ɔ ɾ a i s ʊ a z i h a z a ɾ 
[433.895]
<no-speech> 
[436.695]
<sta> h ã 
[438.575]
<no-speech> 
[441.165]
m ɔ j b ɛ l ɛ n s t a m a m bh ɔ ɾ a i s ʊ m ʊ ɾ p i s a b o h u t h oi g oi s ɛ m a n ɛ <sta> 
[445.185]
<no-speech> 
[446.545]
h ã 
[446.995]
<no-speech> 
[450.315]
ɔ̃ h ɔ 
[450.935]
<no-speech> 
[452.185]
<no-speech> 
[452.825]
<no-speech> 
[454.785]
<no-speech> 
[455.245]
<no-speech> 
[456.325]
<sta> ɾ a x t a t d i m a l a s ɛ d u t a s a ɾ a x t a t d u t a m a l a s ɛ s a 
[462.005]
<no-speech> 
[463.855]
<no-speech> 
[464.235]
<no-speech> 
[465.075]
bh a l l a g i s ɛ n ɛ <sta> 
[466.595]
<no-speech> 
[472.265]
ɔ̃ <int> 
[472.785]
<no-speech> 
[475.825]
<sta> h ɛ l l o 
[477.255]
<no-speech> 
[479.395]
ɔ̃ k ʊ n h ɔ j m a m a n e k i <int> 
[480.855]
<no-speech> 
[485.545]
<sta> ɛ d ɾ ɛ s d i b i g ɛ 
[486.685]
<no-speech> 
[488.575]
ɔ̃ ɔ̃ <sta> 
[493.405]
<no-speech> 
[494.495]
<sta> k i k oi s e 
[496.935]
<no-speech> 
[497.825]
<int> ɔ l ɔ p ɔ l ɔ p 
[499.205]
<no-speech> 
[500.215]
<int> ɔ̃ t u m i t u m i ɔ̃ x i k i l ɔ b a <int> 
[508.285]
<no-speech> 
[509.485]
<sta> ɛ j ɾ a x t a gh a t ɛ g a ɽ i s a ɽ i p a l ɛ u th i l oi l ɔ b a 
[514.495]
<no-speech> 
[515.745]

[516.455]
<no-speech> 
[519.185]
<no-speech> 
[519.655]
<no-speech> 
[522.565]
l ɔ ŋ l ɔ ŋ p ɛ n t h a ph ɔ p ɛ n t <sta> g ɛ n z i 
[525.475]
<no-speech> 
[526.485]
<int> h a ph ɔ p ɛ n t l ɔ ŋ p ɛ n t h a ph ɔ p ɛ n t g ɛ n z i <int> h ã 
[532.385]
<no-speech> 
[534.215]
<sta> ɛ j a ɾ u b o h u t b o s t u t ɔ j s a b i ɾ ɔ ɾ ɛ 
[538.805]
<no-speech> 
[542.825]
<no-speech> 
[544.125]
<no-speech> 
[547.835]
ɔ̃ l oi s oi d u t a <sta> p u ɾ a t a k ʊ d a ŋ ɔ ɾ h oi s ɛ 
[551.655]
<no-speech> 
[554.785]
<sta> h ã 
[555.775]
<no-speech> 
[557.565]
<sta> ɔ̃ s a i z ɔ t ʊ b ɔ d ɔ l a b g oi s i l ʊ x o ɾ u x o ɾ u s a i z ɔ ɾ n a p a j 
[560.695]
<no-speech> 
[562.535]
<sta> h ã 
[563.725]
<no-speech> 
[565.935]
<sta> t u l i s a b ɔ g oi s i l ʊ s ʊ w a l i <laugh> 
[569.645]
<no-speech> 
[573.125]
<int> ɔ̃ <int> 
[573.735]
<no-speech> 
[576.235]
<no-speech> 
[577.115]
<no-speech> 
[578.435]
<int> h ɔ l <int> b a k i bh a l <int> 
[583.285]
<no-speech> 
[584.165]
<no-speech> 
[586.935]
<no-speech> 
[587.785]

[588.495]
<no-speech> 
[589.575]
<int> k i k i 
[590.175]
<no-speech> 
[591.145]
h ã <int> 
[591.645]
<no-speech> 
[593.045]
<sta> n e k i 
[595.585]
<no-speech> 
[597.225]
h oi a s ɛ n e k i 
[598.345]
<no-speech> 
[599.680]
