[0.000]
<no-speech> 
[0.165]
<no-speech> 
[1.685]
<no-speech> 
[3.505]
<sta> h ɛ l l o <no-speech> k i k o ɾ i s i l a 
[9.155]
<no-speech> 
[10.665]
<sta> s a h kh a l a n ɛ 
[12.535]
<no-speech> 
[14.395]
<sta> k ʊ n b a j d e u u th i l t o p o n i ɾ p ɔ ɾ a 
[18.335]
<no-speech> 
[19.385]
<sta> b a j d e u u th i l t o p o n i ɾ p ɔ ɾ a 
[21.775]
<no-speech> 
[28.535]
<sta> b a k i b i l a k k o t g o l 
[30.285]
<no-speech> 
[35.285]
h ã 
[35.875]
<no-speech> 
[39.215]
ɛ i t ʊ k a ɾ ɔ n ɛ <int> 
[41.075]
<no-speech> 
[43.975]
h oũ <int> a ɾ u k ɛ i m i n i t k ɔ th a p a t i th a k i bh ɔ l a g ɛ <int> 
[47.405]
<no-speech> 
[53.015]
b ɛ l ɛ g k i <int> 
[53.915]
<no-speech> 
[58.325]
<sta> t u m i x ʊ dh a m ɔ j k ɔ m <sta> 
[60.535]
<no-speech> 
[62.045]
<sta> m ɔ j ʊ k i x u dh i m f ɔ n k ʊ n ɛ k o ɾ i s ɛ m ɔ j k o ɾ i s o n ɛ t u m i 
[66.775]
<no-speech> 
[68.385]
<no-speech> 
[70.355]
<no-speech> 
[71.555]
<sta> ʝ ɔ ɾ ɛ t ɔ ɾ ɛ f ɔ n n ɔ h ɔ j n ɔ h ɔ j ɛ i t ʊ ɔ f i s ɔ ɾ f ɔ n h ɛ <no-speech> p ɾ ɔ x n ɔ x ʊ dh i b ɔ l oi th a k i 
[76.085]
<no-speech> 
[81.885]
<sta> z i i s s a t a k ɛ k oi a s ʊ 
[84.845]
<no-speech> 
[88.905]
<sta> k oi th a k a 
[92.655]
<no-speech> 
[93.655]
m ɔ n ɛ m ɔ n ɛ k i bh a b i a s a <sta> 
[96.135]
<no-speech> 
[96.995]
<sta> e t i a k i k o ɾ i a s a ph ʊ n ɔ t ʊ k ʊ w a k ʊ w a k o ɾ i k i n ɛ 
[100.765]
<no-speech> 
[103.105]
k ɔ th a p a t i s a n ɛ s a h ɔ p a n i <laugh> kh a i s a 
[106.535]
<no-speech> 
[110.235]
h ɔ j n e k i h ɛ d f ɔ n a s ɛ <sta> 
[112.885]
<no-speech> 
[113.745]
d u n i j a ɾ a ɾ u m ɔ t <sta> n a j t ʊ m a k k ʊ w a n a j 
[118.805]
<no-speech> 
[119.855]
<sta> m a k k oi s ʊ 
[123.285]
<no-speech> 
[125.455]
k ʊ w a <no-speech> m i s b j u t i 
[127.655]
<no-speech> 
[130.165]
<sta> k ʊ w a 
[131.555]
<no-speech> 
[132.775]
k oi d i a <int> 
[133.765]
<no-speech> 
[136.835]
<sta> k o b ɔ n ʊ w a ɾ a e t i a m ɔ n ɛ m ɔ n ɛ th a k a 
[139.265]
<no-speech> 
[143.705]
h ɔ j n e k i k i h oi s ɛ d a t ɔ ɾ b i x h oi s ɛ <no-speech> f ɔ n k o ɾ i l ɛ k ɔ th a ʝ ɛ n ʊ l a j 
[148.075]
<no-speech> 
[149.185]
n ɛ m u kh ɔ t l a d d u x ʊ m ʊ w a i th oi d i s a x e j k a ɾ ɔ n ɛ n ʊ l a i ɔ̃ 
[152.495]
<no-speech> 
[156.285]
a j ɔ̃ ɔ i b a p ɾ e b a p i m a n o b i l a k b ɛ m a ɾ ɛ k ɛ l ɔ g ɛ 
[159.405]
<no-speech> 
[161.065]
n ɔ h ɔ j b ɛ m a ɾ ɔ t ʊ k i l ɛ b e ɾ i j a 
[164.395]
<no-speech> 
[165.225]
<no-speech> 
[166.095]
<no-speech> 
[168.605]
x a ɾ th ɔ p ɔ ɾ l ɔ g o ɾ i j a t u th i k ɛ a s ɛ n a 
[171.625]
<no-speech> 
[172.685]
<no-speech> 
[177.425]
<no-speech> 
[180.465]
b ɛ j a m a n u h p a t i l a bh a l m a n u h n o w a ɾ i l ɛ b ɛ j a p a t i s ɛ 
[186.505]
<no-speech> 
[187.485]
th i k e j a s ɛ b ɛ j a k ɛ 
[189.695]
<no-speech> 
[191.675]
b ɛ j a k ɛ <no-speech> k ʊ n d i n a bh a l h o b ɔ s a ʊ̃ <cough> 
[196.325]
<no-speech> 
[197.865]
ʝ ʊ n o d i n a bh a l h oũ x e j d i n a <sta> k ɔ b a n o h o l ɛ e t i a t ʊ b ɛ j a h oi a s ʊ 
[203.465]
<no-speech> 
[205.155]
<sta> ɔ̃ 
[206.205]
<no-speech> 
[207.905]
<sta> 
[210.665]
<no-speech> 
[213.855]
a ɾ u 
[215.015]
<no-speech> 
[218.365]
<sta> a ɾ u 
[224.105]
<no-speech> 
[225.035]
<sta> k a t i d i s ɛ 
[227.205]
<no-speech> 
[228.555]
x e j k a ɾ ɔ n ɛ <int> k ɔ th a n a p a t ɛ <int> 
[230.045]
<no-speech> 
[232.455]
e t i a m ɔ n ɔ t p ɔ ɾ ɛ ph ʊ n n ɔ k ɔ ɾ ɛ 
[234.805]
<no-speech> 
[235.785]
<sta> a ɾ u 
[238.465]
<no-speech> 
[240.735]
<no-speech> 
[242.655]
<no-speech> 
[243.485]
<no-speech> 
[244.775]
<no-speech> 
[246.675]
<sta> o k e o k e <no-speech> bh a l g u n k i 
[250.735]
<no-speech> 
[253.625]
ʊ s ɔ ɾ ɔ t th a k i l ɛ b o h u t m ɔ ɾ ɔ m k ɔ ɾ ɛ 
[255.555]
<no-speech> 
[258.165]
<no-speech> 
[258.745]
<no-speech> 
[260.845]
ʊ s ɔ ɾ ɔ t th a k i l ɛ b o h u t <int> m ɔ ɾ ɔ m k ɔ ɾ ɛ 
[262.535]
<no-speech> 
[263.835]
<no-speech> 
[264.185]
<no-speech> 
[266.465]
h ɔ j n e k i <no-speech> <int> 
[268.025]
<no-speech> 
[270.185]
d u ɾ ɔ t g o l ɛ m ɔ ɾ ɔ m n ɔ k ɔ ɾ ɛ <no-speech> ʊ s ɔ ɾ ɔ t th a k i l ɛ ɛ k ɛ b a ɾ ɛ m ɔ ɾ ɔ m ɔ ɾ n o d i t ʊ b oi d i j ɛ 
[274.605]
<no-speech> 
[276.215]
n ɔ 
[276.785]
<no-speech> 
[278.145]
<sta> ɾ a j t 
[280.275]
<no-speech> 
[282.065]
t ɛ n ɛ h ɔ l ɛ ʊ s ɔ ɾ ɔ t th ɔ k a ɾ k a ɾ ɔ n ɛ s ɛ s t a k o ɾ i b a d u ɾ ɔ t k i j ɔ z ʊ w a 
[284.995]
<no-speech> 
[286.915]
<no-speech> 
[287.545]
<no-speech> 
[290.065]
<sta> p ã s m i n i t ɔ ɾ k a ɾ ɔ n ɛ t ʊ a h i b ɔ n i d i oũ m ɔ j ɔ x ɔ m bh ɔ b 
[292.745]
<no-speech> 
[294.265]
x e j kh ɔ n <sta> n o d i t ʊ b ɔ n a oũ t ɛ t a j m l a g i b ɔ t ʊ <no-speech> ɛ t ʊ p ɛ t ʊ p p a n i d i k a m n o h o b ɔ ɔ l ɔ p m a n x ɔ m ɔ j l a g i b ɔ t a t ɛ 
[299.675]
<no-speech> 
[302.675]
p u kh u ɾ i n ɔ b ɔ n a o m ɔ j <no-speech> p u kh u ɾ i b ɔ n a b i s s a n a j d a j ɾ ɛ k t n o d i 
[306.505]
<no-speech> 
[307.745]
n ɔ g a w ɔ̃ ɾ h ʊ t ɛ l ɔ t d a j ɾ ɛ k t z i n k o ɾ i d i m <int> 
[309.805]
<no-speech> 
[311.835]
x ɛ i p i n d i b o h i 
[314.125]
<no-speech> 
[320.395]
<no-speech> 
[320.745]
<no-speech> 
[322.955]
k i h ɔ l <sta> 
[326.155]
<no-speech> 
[327.345]
<no-speech> 
[327.745]
<no-speech> 
[328.845]
<sta> h ũ 
[329.705]
<no-speech> 
[333.185]
<sta> d a ŋ ɔ ɾ bh i n ɔ d ɛ u 
[334.015]
<no-speech> 
[335.375]
<sta> z ʊ w a d i a 
[336.435]
<no-speech> 
[337.705]
<no-speech> 
[338.095]
<no-speech> 
[339.825]
<sta> oũ <cough> 
[344.135]
<no-speech> 
[345.955]
<sta> d i l a 
[348.645]
<no-speech> 
[351.725]
<sta> <cough> ɔ̃ kh a l ʊ ɔ l ɔ p 
[358.555]
<no-speech> 
[359.435]
<sta> ɛ j m a t ɾ ɔ kh a l ʊ 
[360.595]
<no-speech> 
[361.405]
<sta> kh a j p i n ɛ kh ʊ w a h oi s ɛ a ɾ u t u m i ph ɔ n ʊ k o ɾ i s a 
[366.245]
<no-speech> 
[369.525]
<sta> k ʊ w a t u m i 
[372.415]
<no-speech> 
[376.325]
<no-speech> 
[376.685]
<no-speech> 
[379.725]
k i h ɔ l 
[380.315]
<no-speech> 
[383.785]
k i k ɔ m 
[384.925]
<no-speech> 
[385.735]
th a n d a b ɔ t ɔ ɾ 
[386.885]
<no-speech> 
[388.285]
<no-speech> 
[388.645]
<no-speech> 
[389.735]
<int> th a n d a b ɔ t ɔ ɾ 
[391.385]
<no-speech> 
[392.575]
ɛ s a h b ɔ n a j s ɛ kh a l ɛ g ɔ ɾ ɔ m l a g i s ɛ <int> 
[394.465]
<no-speech> 
[396.125]
<int> ɾ u m ɔ ɾ b a h i ɾ g o l ɛ s a b a s ʊ n 
[397.705]
<no-speech> 
[400.125]
ɔ̃ t a t ɛ g oi s ɛ <int> 
[401.415]
<no-speech> 
[402.305]
x e e t ʊ a h a n a j gh ɔ ɾ ɔ ɾ t ɔ l ɔ t d u i t a i e t i a ɛ k ɛ l ɔ g ɛ <sta> th a k ɛ t e t i a h ɛ bh a l l a g ɛ 
[407.275]
<no-speech> 
[408.815]
ɛ k d ɔ m g o dh u l i g o dh u l i p ɔ ɾ a t a ɾ m a n ɛ p u ɾ a p ʊ h ɔ ɾ h ʊ w a l oi k ɛ <int> 
[411.585]
<no-speech> 
[413.755]
bh a t s a t b ɔ n a b n a l a g ɛ a ɾ u <sta> 
[415.215]
<no-speech> 
[419.365]
<no-speech> 
[419.825]
<no-speech> 
[420.745]
<sta> ɔ̃ d a d a ɛ j ph ʊ n ɔ t ʊ t z ɛ ɾ ɛ k ɔ ɾ d h ɔ j 
[422.675]
<no-speech> 
[430.775]
ɔ̃ a s s a a s s a <int> <no-speech> x ʊ w a t u m i 
[433.675]
<no-speech> 
[435.035]
<sta> ɔ b h j u m a ɾ 
[436.025]
<no-speech> 
[438.725]
<sta> h ã 
[439.205]
<no-speech> 
[440.515]
<sta> bh ɔ d ɾ ɔ k ɔ th a 
[441.465]
<no-speech> 
[443.555]
<sta> bh ɔ d ɾ ɔ k ɔ th a 
[444.455]
<no-speech> 
[449.075]
<sta> ɔ̃ g o dh u l i ɾ p ɔ ɾ a m a n ɛ k i b l ɛ ŋ k ɛ t ɔ ɾ t ɔ l ɔ t th a k i l ɛ b e s i bh a l l a g ɛ u n e k u w a t a j m ɔ t a ɾ u 
[455.425]
<no-speech> 
[457.175]
<int> h ɔ j t ʊ 
[458.385]
<no-speech> 
[461.935]
<sta> k a ɾ l ɔ g ɔ t 
[463.305]
<no-speech> 
[467.435]
h ɛ l l o <no-speech> ɔ k ɔ l ɛ n a th a k ʊ 
[470.145]
<no-speech> 
[473.485]
<lipsmack> t u m i x a z i b a s ʊ n ɛ t a <no-speech> t ɛ n e k u w a 
[476.835]
<no-speech> 
[477.985]
t u m i a n i d i b a <int> o w a n n a i t s t ɛ n d 
[481.785]
<no-speech> 
[483.205]
<no-speech> 
[483.555]
<no-speech> 
[485.555]
ɔ̃ t u m i t ʊ k oi a s a <no-speech> b ɛ l ɛ g ɔ k <breath> x e j k a ɾ ɔ n ɛ m ɔ j k oi a s ʊ o w a n n a i t s t ɛ n d 
[490.245]
<no-speech> 
[491.515]
<int> ɛ k ɾ a t i ɾ k a ɾ ɔ n ɛ 
[492.475]
<no-speech> 
[493.635]
ɛ j <int> 
[494.205]
<no-speech> 
[495.405]
<sta> k i 
[495.885]
<no-speech> 
[502.755]
<sta> th i k a s ɛ h o b ɔ b a ɾ u 
[505.205]
<no-speech> 
[506.035]
x ʊ n k a l ɛ g oi p a ʊ̃ k o ɾ i b a d e ɾ i h o l ɛ b ɛ j a h o b ɔ k a m <lipsmack> b e s i d e ɾ i h ʊ w a k a ɾ ɔ n ɛ p ɾ ɔ b ɔ l ɛ m a h i b ɔ <int> 
[511.695]
<no-speech> 
[512.595]
<no-speech> 
[512.945]
<no-speech> 
[515.015]
b e s i d e ɾ i h o l ɛ bh a l n a l a g ɛ n ɔ h ɔ j <no-speech> k a m o b i l a k g ɔ ɾ ɔ m ɛ g ɔ ɾ ɔ m ɛ h o l ɛ bh a l l a g ɛ 
[519.315]
<no-speech> 
[520.945]
<no-speech> 
[521.305]
<no-speech> 
[522.475]
n a j th a n d a k o ɾ i b ɔ l ɛ bh a l n a l a g ɛ <no-speech> x ɔ d a e bh a t g ɔ ɾ ɔ m ɛ g ɔ ɾ ɔ m ɛ kh a j bh a l l a g ɛ th a n d a bh a t kh a j bh a l n a l a g ɛ t ʊ 
[528.285]
<no-speech> 
[530.165]
bh a t b u l i n ɔ h ɔ j s ɔ b b o s t u <no-speech> s ɔ b b ɔ x t u w ɛ i m ɔ j k oũ 
[534.755]
<no-speech> 
[536.925]
s ɔ b b ɔ x t u w ɛ i g ɔ ɾ ɔ m ɛ <laugh> g ɔ ɾ ɔ m ɛ kh a j <no-speech> 
[541.255]
th a n d a h o l ɛ p ɛ l a j m a n ɛ k i a ɾ u <int> z i m a n kh a b ɔ l a g ɛ x i m a n n a kh a oũ k ɔ m ɔ k ɛ kh a m x e j t ʊ w e j a ɾ u 
[545.775]
<no-speech> 
[551.675]
<int> h ɔ j n e k i 
[552.725]
<no-speech> 
[554.365]
<int> <cough> n i z ɔ ɾ g a t p a t i n ɔ l ɔ b a k ɔ th a t ʊ h ɔ j t u m i 
[560.765]
<no-speech> 
[561.935]
b ɛ l ɛ g ɔ ɾ k ɔ th a k oi s ɛ t ʊ x e j k a ɾ ɔ n ɛ m ɔ j b ɛ l ɛ g ɔ ɾ k ɔ th a k oi s ʊ <no-speech> t ʊ m a ɾ t u l ɔ n a m ɔ j d i a n a j <int> 
[567.805]
<no-speech> 
[569.655]
oũ 
[570.355]
<no-speech> 
[572.615]
oũ ɔ̃ 
[573.685]
<no-speech> 
[577.855]
t u m i z ɛ b ɛ l ɛ g b u l i k oi s a <no-speech> m ɔ j k oi s ʊ o w a n n a i t t u m i k oi s a h o b ɔ d i a t ʊ m a ɾ ɛ j a x a m ɔ j p u ɾ ɔ n k o ɾ i m o w a n n a i t ɔ ɾ k a ɾ ɔ n ɛ t u m i t ʊ n a h a 
[585.215]
<no-speech> 
[586.285]
b ɛ l ɛ g ɛ p ɔ th a b a n i x s ɔ j m ɔ j b ɛ l ɛ g ɔ ɾ k ɔ th a k oi d i s ʊ <int> 
[589.325]
<no-speech> 
[593.775]
<no-speech> 
[594.345]
<no-speech> 
[596.975]
<no-speech> 
[597.275]
<no-speech> 
[600.240]
