[0.000]
<no-speech> 
[0.125]
<no-speech> 
[2.495]
<no-speech> 
[5.095]
ɔ̃ <sta> h ɛ l l o ɔ̃ ɔ̃ ɔ̃ m ɔ j ɛ j t ʊ m a ɾ x e j d i n a kh ɔ n g a w ɔ̃ t g ɔ l ʊ 
[13.295]
<no-speech> 
[14.095]
a ɾ u b ɔ n d u <sta> ɛ z ɔ n ɔ k l ɔ g p a l ʊ l ɔ g p a j p ɛ l a j z ɛ t ʊ m a l ʊ k ɔ ɾ m a n ɛ h e ɾ i z ɛ ɛ j m ɔ n d i ɾ ɛ t a n a s i l z a n ɔ 
[21.945]
<no-speech> 
[22.875]
<int> ɔ̃ m ʊ ɾ k a x ɔ ɾ ã b a b u l ɔ k bh a l p a j p ɛ l a j h e ɾ i kh ɔ b ɔ ɾ k e n e k u w a x u dh i l ʊ t a ɾ p i s ɔ t bh a l ɛ b u l i k oi s ɛ a ɾ u g o t i k ɛ <int> 
[31.425]
<no-speech> 
[37.445]
<sta> k a l i p u z a t m ɔ j a z i th i ɾ a ŋ k ɔ ɾ a n a j m ɔ j ɾ a t i h ɛ bh a b ʊ t a ɾ m a n ɛ b ɔ x t u b i l a k g o t i k ɛ k a l i 
[43.675]
<no-speech> 
[44.545]
ɔ̃ g o t i k ɛ k a l i p u z a t a m a ɾ <int> i a t ɛ bh a l h ɔ j t ʊ g o t i k ɛ z a m b u l i bh a l l a g ɛ d i a s ʊ n m a z ɛ m a z ɛ s a b ɔ l a g i b ɔ bh a l bh a l <int> 
[50.795]
<no-speech> 
[53.285]
bh a l l a g ɛ bh a l l a g ɛ ɔ̃ b a k i t ʊ m a k k o l ɛ t ʊ m a ɾ kh ɔ b ɔ ɾ b ɔ ɾ bh a l b u l i <sta> a z i k a l i k i b a k a m ɛ t a t x ʊ m a i s a t u m i 
[62.245]
<no-speech> 
[70.025]
<sta> u p a i n a j g o t i k ɛ k a m n a j a z i k a l i b o h i th a k i t ʊ l a bh n a j z i h ɛ d a m b ɔ x t u ɾ a z i k a l i 
[75.945]
<no-speech> 
[77.005]
<no-speech> 
[77.355]
<no-speech> 
[79.635]
<sta> u p a e n a j u p a e n a j p i s ɛ 
[83.475]
<no-speech> 
[86.065]
<sta> ɔ̃ p ɔ ɽ a p a t i k i k o ɾ i l a e t i a b ɔ ɾ t ɔ m a n 
[89.165]
<no-speech> 
[92.955]
<no-speech> 
[93.405]
<no-speech> 
[94.925]
<sta> 
[101.115]
<no-speech> 
[102.485]
<sta> e t i a b i j a b a ɾ u k i b a s i n t a k o ɾ i s a n ɛ n a j t u m i b ɛ j a n a p a b a a ɾ u x u dh a ɾ k a ɾ ɔ n ɛ a z i k a l i 
[112.485]
<no-speech> 
[114.445]
<no-speech> 
[115.075]
<no-speech> 
[119.875]
k i m a n ɔ z ɔ n 
[120.485]
<no-speech> 
[123.555]
<sta> a s s a a s s a e t i a k i k o ɾ i a s ɛ t ɛ kh ɛ t ɛ 
[125.975]
<no-speech> 
[130.175]
ɔ̃ a s s a a s s a ɛ k ɛ l ɔ g ɛ t a ɾ m a n ɛ z ɔ b k o ɾ i a s a th i k ɛ a s ɛ th i k ɛ a s ɛ bh a l ɛ h o b ɔ <int> dh u n i a k ɛ gh ɔ ɾ x ɔ ŋ x a ɾ s o l i b n ɔ h ɔ j z a n ɔ 
[137.325]
<no-speech> 
[138.185]
<no-speech> 
[139.625]
<no-speech> 
[143.475]
<no-speech> 
[143.925]
<no-speech> 
[145.905]
th i k a s ɛ th i k a s ɛ ɛ i t ʊ w ɛ dh ɔ ɾ a t ʊ m a ɾ <sta> z ɔ m a th ɔ l a t ʊ m a ɾ k e j t a p i s a h ɔ j n ɛ n ɔ h ɔ j a z i k e t i a b a k e t i a b a b ɔ z a ɾ k o ɾ i l ʊ b a k i b a k i b i a z i k a l i u n e k u w a s i n t a n o k o ɾ i l ɛ k a m n a j t ʊ z i h ɛ b o s t u 
[155.355]
<no-speech> 
[160.125]
<no-speech> 
[161.635]
<no-speech> 
[163.505]
<no-speech> 
[163.905]
<no-speech> 
[166.245]
t ɛ kh ɛ t ɛ <sta> t ɛ kh ɛ t ɛ n i d i j ɛ n ɛ t ʊ m a ɾ z ʊ w a i s s a n a j h ã h ã 
[172.365]
<no-speech> 
[176.905]
<no-speech> 
[177.265]
<no-speech> 
[178.455]
<sta> th i k ɛ th i k ɛ x ɔ n d ɛ h h o b ɔ n a l a g ɛ m a n u h x ɔ n d ɛ h ɔ t ʊ ɛ t a 
[182.615]
<no-speech> 
[183.475]
<int> ɔ̃ d e u t a ɾ kh ɔ b ɔ ɾ k e n e k u w a t ʊ m a l ʊ k ɔ ɾ <int> 
[188.895]
<no-speech> 
[195.865]
<sta> a s s a a s s a e t i a 
[199.465]
<no-speech> 
[202.775]
ɔ̃ ɛ j d a d a z ɛ t ʊ m a l ʊ k ɔ ɾ a s i l ɛ t ɛ kh ɛ t k e n e k u w a a s ɛ e t i a b ɔ ɾ t ɔ m a n <sta> 
[209.575]
<no-speech> 
[211.735]
k i b a k a m ɔ t x ʊ m a l ɛ n ɛ n a j 
[213.105]
<no-speech> 
[218.815]
a s s a a s s a g ou ɾ ɔ b m a n ɛ g u w a h a t i t ɔ n ɛ gh ɔ ɾ ɔ t ɛ 
[221.695]
<no-speech> 
[225.035]
th i k ɛ th i k ɛ th i k ɛ bh a l bh a l l a g i l 
[228.245]
<no-speech> 
[229.125]

[230.945]
<no-speech> 
[232.345]
<sta> a ɾ u e t i a z i t ʊ b u z a g oi s ɛ a m a ɾ ɔ x ɔ m i a x ʊ p a g o t i k ɛ d e u t a e t i a ɾ i t a j a ɾ h oi s ɛ g o t i k ɛ ɾ i t a j a ɾ h oi p ɛ l a j 
[244.135]
a g ɔ ɾ a m i z a b ɔ n ʊ w a ɾ ʊ h ɔ j n ɛ n ɔ h ɔ j 
[246.715]
<no-speech> 
[247.545]
h ɔ j n ɛ n ɔ h ɔ j m i x t a ɾ 
[249.425]
<no-speech> 
[250.305]
<no-speech> 
[250.715]
<no-speech> 
[253.675]
n i t ɛ n h ɛ <int> 
[254.685]
<no-speech> 
[257.965]
<no-speech> 
[258.375]
<no-speech> 
[260.065]
<sta> bh a ɾ ɔ t b ɔ ɾ x ɔ t t o x ɔ k ɔ l ʊ k ɛ n a g o ɾ i k ɔ k ɛ x b a bh ɔ l o m b i h o l ɛ a ɾ u g u t e j kh i n i s a b ɔ l a g i b ɔ h ɔ j n ɛ n ɔ h ɔ j a m i j ɛ z o d i i t ʊ w ɛ x e j t ʊ k h ɛ l p a ɾ 
[270.325]
n ɔ k ɔ ɾ o k ɛ n ɛ k ɛ h o b ɔ h ɔ j n ɛ n ɔ h ɔ j k ɛ n ɛ k ɛ s o l i b a m a ɾ <int> 
[275.335]
<no-speech> 
[277.215]
<int> a s s a ɛ i t ʊ k i <int> 
[278.695]
<no-speech> 
[279.715]
<no-speech> 
[280.745]
<no-speech> 
[284.535]
<sta> ɔ̃ m ɔ j t a ɾ m a n ɛ z ʊ w a n ɔ h ɔ l ɛ j m ʊ ɾ m a j k i b i l a k k o b ɔ l a g i l ɛ b i ɾ a t d u kh ɔ ɾ k a h i n i m ɔ j m a n ɛ bh a j ɛ z ɔ n ɔ ɾ k i b a ɛ k s i d ɛ n t h ɔ l b a i k ɔ t g oi kh u n d a l a g i l m e d i k ɛ l ɔ t ɛ th a k i l ʊ 
[293.935]
<no-speech> 
[295.365]
gh ɔ ɾ ɔ t p a j s ʊ d ɛ <int> ɔ̃ 
[296.765]
<no-speech> 
[302.015]
ɔ̃ dh ɛ ɾ m a n u h a ɾ u ɛ j p o ɾ o h i x e j h e ɾ i h ɔ l n ɔ h ɔ j a m a ɾ ɛ j ɔ kh i l g o g oi b i ɾ a t p i k o n i k <int> 
[308.555]
<no-speech> 
[317.385]
oũ oũ m a n u h ɔ b ʊ ɾ bh a l e j t ɛ n e k u w a m a n u h z o d i th a k ɛ <int> 
[321.215]
<no-speech> 
[323.905]
b a p ɾ e b a p b i ɾ a t bh a l m a n u h ɔ x ɔ m ɔ ɾ k a ɾ ɔ n ɛ <int> 
[327.175]
<no-speech> 
[331.265]
ɔ̃ m ʊ ɾ l ɔ g ɔ t bh a l ɛ t ɛ kh ɛ t b o h u t ɛ bh a l 
[334.235]
<no-speech> 
[337.665]
ɔ̃ m ʊ ɾ ʊ t ʊ ʝ ɔ th ɛ x t bh a l m ɔ j t e kh e t ɔ ɾ ʊ s ɔ ɾ ɔ t ɛ th a k ʊ 
[340.635]
<no-speech> 
[342.285]
<no-speech> 
[342.635]
<no-speech> 
[345.475]
ɛ j ɛ k d ɔ m b i ɾ a t bh a l b i ɾ a t bh a l ɛ j s a n ɔ m a ɾ i p ɔ l a j ɔ n k o ɾ i s ɛ a g ɔ t ɛ <int> 
[355.785]
<no-speech> 
[358.985]
ph ʊ n ɔ̃ gh ɔ ɾ p i n ɛ bh a l ɛ a s ɛ 
[361.825]
<no-speech> 
[363.655]
<no-speech> 
[364.075]
<no-speech> 
[364.965]
x ɔ k ɔ l ʊ b i l a k bh a l e j a s ɛ n ɔ a ɾ u <int> 
[366.345]
<no-speech> 
[368.725]
ɛ j a z i d u p o ɾ i a bh a t m a n ɛ m ʊ ɾ d ou ɾ a d ou ɾ i h ɔ l i p i n ɛ b ou ɾ ɛ k i b a b ɔ n a oũ t ɛ ɔ l ɔ p kh e l i m e l i k o ɾ i l ɛ m i t ʊ bh a t ɔ t ʊ ɛ j m i s a k o l ɛ k i h o b ɔ i p i n ɛ a l u z i k a t a ɾ p i s ɔ t t ʊ m a ɾ 
[380.435]
k i b a k i b i u n e k u w a ɔ l ɔ p b ɔ n a l ɛ <sta> t a ɾ p i s ɔ t m ɔ j a k ou m ɔ j k u t i d i ũ d e j m ɔ j ɛ j a n z a k u t i b ɔ ɾ bh a l ɔ p a oũ x e j t ʊ t a ɾ p i s ɔ t ɾ ɔ ŋ a l a o a l ʊ ɔ ɾ u m u l a d i a m u l a ɾ ʊ d a m 
[392.105]
t ɾ i s t ɔ k a <sta> t ɔ th a p i t ʊ n i s i l ʊ x e j d i n a a dh a k i l ʊ p ʊ n dh ɔ ɾ ɔ b o h u t bh a l 
[400.285]
<no-speech> 
[403.645]
ɔ̃ a z i bh a b i s ʊ k a l i j ɛ n i s i l ʊ m a s <sta> k i n t u m a s m ɔ j b a s i b l a g ɛ a m a ɾ b ou d ɛ w ɛ m a n ɛ ɛ k d ɔ m b ɛ j a p a j b a s i b 
[413.625]
<no-speech> 
[416.715]
<sta> m ʊ ɾ k e n e k u w a g ɔ m p a j s a n ɛ kh a n a b i l a k m ɔ j b ɔ j ɔ l kh a n a t a ɾ m a n ɛ m ɔ j b ɔ j ɔ l k o ɾ i t a ɾ p i s ɔ t m ɔ j b ɔ n a j l oũ ɔ k ɔ n a m a n z i ɾ a t a ɾ p i s ɔ t p i j a z a d a n ɔ h o ɾ u ɛ i kh i n oi j ɛ m ʊ ɾ kh a n a g o t i k ɛ 
[428.625]
<no-speech> 
[429.035]
<no-speech> 
[436.485]
t a t ɛ i p i n ɛ a ɾ u h oi s ɛ n ɛ a z i k a l i i a t d e ŋ g ʊ n e k i m ɔ h ɛ t a h oi s ɛ <int> 
[441.875]
<no-speech> 
[445.095]
h ɔ j d i o k 
[445.915]
<no-speech> 
[447.455]
<sta> ɛ j b i ɾ a t x a ŋ gh a t i k h ɔ j ʝ a oũ t ʊ b o h u t m a n u h h ɔ j <hes> i p i n ɛ s ɔ j ɔ g ã o 
[455.895]
<no-speech> 
[457.205]
<no-speech> 
[457.645]
<no-speech> 
[465.125]
<int> t a k ɛ t ʊ ɛ j m ɔ h ɔ t ʊ t ɛ n e k u w a a h i l ɛ m a n ɛ b ɔ ɾ b ɛ j a l a g ɛ h ɛ m a n ɛ bh a b i l ɛ m a n ɛ m a n ɛ m ɔ h 
[473.745]
<no-speech> 
[477.205]
x ɔ m ɔ j k o t b ɔ ɽ a j d i j ɛ <sta> ɾ a t i h o l ɛ k ɔ ɾ ɔ b a t s u k ɛ k ʊ n ɛ th a k ɛ n e k i h ɔ j d i a a m i a g ɔ t 
[484.545]
<no-speech> 
[490.255]
a s s a e t i a k i k i b a kh a l a n ɛ t u m i <int> 
[492.475]
<no-speech> 
[499.015]
<no-speech> 
[499.385]
<no-speech> 
[501.845]
a s s a d j u t i t th a k i l ɛ ɛ k ɛ l ɔ g ɛ d u j ʊ z ɔ n ɛ kh ʊ w a n ɛ n ɛ kh ʊ w a <int> 
[506.555]
<no-speech> 
[508.005]
th i k ɛ th i k ɛ x ɛ i t ʊ w ɛ bh a l l a g ɛ z a n ɔ <int> 
[510.655]
<no-speech> 
[513.555]
<sta> k i j ɔ t u m i oũ d i d i b a m a z ɔ t ɛ t u m i oũ d i d i a t e t i a m ɔ ɾ ɔ m k o ɾ i b ɔ n o h o l ɛ t ʊ m a k e t i a kh ʊ w a b u l i k o b ɔ n ɔ h ɔ j 
[523.565]
<no-speech> 
[525.195]
a s s a a s s a <sta> e t i a x e j 
[528.955]
<no-speech> 
[530.505]
<sta> u p a i n a j u p a i n a j z a n ɔ 
[531.875]
<no-speech> 
[534.435]
<no-speech> 
[534.815]
<no-speech> 
[539.765]
<sta> k ɔ th a p a t i l ʊ 
[544.725]
<no-speech> 
[546.080]
