[0.000]
<sta> 
[11.885]

[17.155]
<no-speech> 
[18.285]
<sta> h ã 
[19.825]
<no-speech> 
[21.255]
<sta> ɛ h e ɾ i ɛ z ɔ n ɔ ɾ ɔ f i s ɔ t ɛ k i b a k a m k o ɾ i a s ʊ 
[28.865]
<no-speech> 
[30.255]
<sta> t u m i k o t a s a n ʊ 
[35.365]
<no-speech> 
[36.245]
<sta> k i k i k a ɾ ɔ n ɛ h e ɾ i k o ɾ i s ɛ h ã 
[42.265]
<no-speech> 
[45.115]
<sta> ɔ̃ 
[53.535]
<no-speech> 
[54.435]
<no-speech> 
[59.335]
<no-speech> 
[63.900]
