[0.000]
<no-speech> 
[0.425]
<no-speech> 
[1.825]
h ɛ l ʊ 
[2.455]
<no-speech> 
[5.915]
h ɛ l ʊ 
[6.455]
<no-speech> 
[9.345]
<sta> k i kh ɔ b ɔ ɾ <int> 
[11.375]
<no-speech> 
[13.725]
k i k o ɾ i a s a <int> 
[16.085]
<no-speech> 
[22.725]
h ɔ j n e k i d u x 
[24.965]
<no-speech> 
[25.875]
k a l i ɾ p ɔ ɾ a <no-speech> k a l i ɾ p ɔ ɾ a <foreign> h oi a s ɛ ph ʊ n 
[31.525]
<no-speech> 
[37.335]
h ɔ j 
[37.755]
<no-speech> 
[39.425]
ɔ̃ k a l i <hes> h e ɾ i <foreign> k o ɾ i s a n e k i 
[45.345]
<no-speech> 
[46.655]
<no-speech> 
[47.065]
<no-speech> 
[48.115]
a z i k i <foreign> kh a n a <foreign> k o ɾ i b ɔ p ɔ ɾ a 
[51.065]
<no-speech> 
[54.995]
h ɔ j m ɔ j g a ɽ i t a s ʊ ɾ ɔ b a g ɔ n ɛ s g u ɾ i t g oi a s ʊ ɾ ɔ b a 
[59.075]
<no-speech> 
[60.445]
<int> g ɔ n ɛ x o g u ɾ i l oi g oi a s ʊ <int> 
[62.825]
<no-speech> 
[65.825]
h ã 
[67.695]
<no-speech> 
[68.975]
<int> n a j n a j <int> 
[69.945]
<no-speech> 
[72.015]
k ɔ m d i a s ʊ n m ɔ j <int> 
[73.365]
<no-speech> 
[75.185]
b ɔ m d i a h i s ʊ 
[76.345]
<no-speech> 
[77.785]
h o b ɔ h o b ɔ k ɔ m x e j t ʊ m ɔ j 
[79.435]
<no-speech> 
[80.305]
<sta> h ɛ l l o x e j t ʊ h o b ɔ d i a k ɔ m m ɔ j p i s ɔ t k ɔ m a z i a h i a s ʊ n a k ɔ m p i s ɔ t 
[86.085]
<no-speech> 
[89.035]
p i s ɔ t k ɔ m p i s ɔ t 
[90.325]
<no-speech> 
[92.805]
<no-speech> 
[93.265]
<no-speech> 
[94.435]
<int> a z i bh a t s a t kh a l a n ɛ n a j <int> 
[98.615]
<no-speech> 
[100.085]
k i h ɛ ɾ ɛ 
[100.755]
<no-speech> 
[102.075]
<no-speech> 
[102.735]
<no-speech> 
[108.755]
ɔ̃ <int> 
[109.905]
<no-speech> 
[110.755]
a ɾ u 
[111.355]
<no-speech> 
[115.255]
h ɔ j n e k i ɔ̃ <no-speech> h ɛ l ʊ <hes> ɾ a t i k i h ɛ ɾ ɛ <int> 
[122.795]
<no-speech> 
[125.275]
ɔ̃ <no-speech> ɾ a t i k a l i k i h ɔ ɾ h e ɾ i k o ɾ i l ɛ 
[128.885]
<no-speech> 
[130.835]
<sta> k a l i ɔ f i s ɔ ɾ p ɔ ɾ a k i h ɔ t g ɔ l a 
[132.985]
<no-speech> 
[136.395]
ɔ̃ 
[137.295]
<no-speech> 
[140.385]
k i h ɔ l 
[142.295]
<no-speech> 
[144.425]
<int> h ɔ j n e k i <int> s a i s a <no-speech> 
[150.275]
<sta> k ɛ i t a ɾ 
[151.485]
<no-speech> 
[157.905]
h oi s ɛ 
[158.625]
<no-speech> 
[161.585]
ɛ ɛ s t i s i g oi s ɛ 
[162.605]
<no-speech> 
[163.645]
<no-speech> 
[164.625]
<no-speech> 
[167.655]
k ʊ n ɛ k o l ɛ ɛ i t ʊ <int> 
[168.935]
<no-speech> 
[173.575]
<int> k ɛ i t a m a n ɔ t 
[176.005]
<no-speech> 
[177.225]
<no-speech> 
[178.305]
<no-speech> 
[179.775]
<no-speech> 
[180.515]
<no-speech> 
[182.745]
<no-speech> 
[184.585]
<no-speech> 
[191.845]
<int> s ou dh u ɾ i 
[192.755]
<no-speech> 
[195.175]
<int> s ou dh u ɾ i 
[198.215]
<no-speech> 
[204.055]
ɔ̃ k a l i l ɔ g p ʊ w a n a j n e k i 
[205.325]
<no-speech> 
[210.895]
k i g a ɽ i 
[211.575]
<no-speech> 
[212.435]
<no-speech> 
[213.755]
<no-speech> 
[215.755]
ɔ̃ 
[216.525]
<no-speech> 
[219.275]
th i k e j a s ɛ <int> 
[220.905]
<no-speech> 
[222.185]
a h i p a l ʊ <int> 
[224.355]
<no-speech> 
[228.855]
ã 
[229.495]
<no-speech> 
[230.325]
<int> th i k e j a s ɛ bh a l k ɔ th a 
[232.605]
<no-speech> 
[234.895]
<no-speech> 
[235.295]
<no-speech> 
[236.215]
<no-speech> 
[236.605]
<no-speech> 
[237.445]
ɔ̃ th i k e j a s ɛ bh a l ɛ 
[239.045]
<no-speech> 
[241.305]
k a ɾ h oi s ɛ <int> 
[242.125]
<no-speech> 
[243.915]
<no-speech> 
[244.385]
<no-speech> 
[245.855]
<no-speech> 
[246.345]
<no-speech> 
[247.555]
<int> ã 
[248.955]
<no-speech> 
[251.425]
<sta> k i k oi s ɛ 
[253.205]
<no-speech> 
[255.135]
h ɔ j n e k i 
[255.795]
<no-speech> 
[257.115]
ɔ̃ 
[257.695]
<no-speech> 
[259.805]
b a k i ɔ h a k a l i d j u t i n a j <int> 
[261.525]
<no-speech> 
[263.175]
<no-speech> 
[263.645]
<no-speech> 
[265.725]
ɔ̃ <int> 
[268.975]
<no-speech> 
[272.985]
h ɔ j n e k i <sta> 
[274.075]
<no-speech> 
[276.415]
ɔ̃ x e j t ʊ ɛ t a th i k e j a s ɛ 
[278.255]
<no-speech> 
[279.655]
<no-speech> 
[281.125]
<no-speech> 
[282.205]
h ɛ l ʊ 
[282.765]
<no-speech> 
[284.795]
x e j t ʊ ɛ t a d i g d a ɾ h oi a s ɛ 
[286.265]
<no-speech> 
[288.645]
<sta> h ɛ l l o 
[290.785]
<no-speech> 
[292.865]
ɔ̃ k i k o ɾ i a s a n ɔ 
[295.615]
<no-speech> 
[297.585]
h ɔ j n e k i <no-speech> m u kh ɛ ɾ ɛ m a t n ʊ l a j n e k i 
[300.455]
<no-speech> 
[301.745]
<no-speech> 
[302.155]
<no-speech> 
[303.735]
ɔ̃ <int> k i 
[305.685]
<no-speech> 
[306.935]
<sta> b a k i kh ɔ b ɔ ɾ p a t i 
[311.935]
<no-speech> 
[312.925]
h ɛ l ʊ 
[313.775]
<no-speech> 
[316.615]
h ã <no-speech> <int> kh ɔ b ɔ ɾ k i 
[319.835]
<no-speech> 
[322.485]
<sta> ɛ j kh ɔ b ɔ ɾ k i 
[326.095]
<no-speech> 
[328.085]
ɔ̃ <sta> e t i a k i k o ɾ i a s 
[330.555]
<no-speech> 
[334.795]
<sta> k i j ɔ 
[335.385]
<no-speech> 
[340.305]
<int> h ɔ j n e k i ɔ̃ 
[342.965]
<no-speech> 
[344.115]
th i k e j a s ɛ <int> 
[345.885]
<no-speech> 
[347.195]
b a k i h e ɾ i k o ɾ i s a <int> 
[348.345]
<no-speech> 
[350.085]
<int> k a l i k ɔ th a p a t i l a n e k i o f i s ɔ t <int> 
[355.845]
<no-speech> 
[359.135]
<int> o f i s ɔ t 
[360.495]
<no-speech> 
[361.355]
<no-speech> 
[361.725]
<no-speech> 
[363.355]
<no-speech> 
[364.765]
<no-speech> 
[367.635]
b i s a ɾ ɛ 
[368.355]
<no-speech> 
[371.605]
<no-speech> 
[374.465]
<no-speech> 
[380.475]
k i j ɔ 
[380.995]
<no-speech> 
[382.875]
<no-speech> 
[384.195]
<no-speech> 
[387.385]
<breath> ɔ̃ h ɔ j n e k i t a ɾ p i s ɔ t 
[389.905]
<no-speech> 
[391.595]
<no-speech> 
[392.325]
<no-speech> 
[393.185]
<no-speech> 
[393.595]
<no-speech> 
[394.575]
<int> h ɔ j n e k i <int> 
[395.965]
<no-speech> 
[397.695]
<sta> k ɔ th a p a t k ɔ th a p a t i s a 
[401.105]
<no-speech> 
[402.665]
p a t i s a <sta> h ɛ l l o 
[405.945]
<no-speech> 
[407.685]
<sta> k i k oi s ɛ h ɛ l l o 
[413.295]
<no-speech> 
[418.185]
h ɔ j n e k i <int> 
[419.205]
<no-speech> 
[421.375]
ɔ̃ <no-speech> ɛ j a ɾ u h e ɾ i p a j s a d i l ɛ h e ɾ i k i p i s a d i l ɛ 
[425.105]
<no-speech> 
[428.645]
d i m k oi d i b ɔ b u l i k oi s ɛ ph ʊ n k o ɾ i s i l a 
[430.855]
<no-speech> 
[434.075]
k i j ɔ 
[434.565]
<no-speech> 
[438.595]
h ɔ j n e k i <int> k i j ɔ ph ʊ n k o ɾ i b ɔ l a g ɛ 
[443.545]
<no-speech> 
[444.455]
<no-speech> 
[445.375]
<no-speech> 
[446.815]
k i h oi s ɛ k i n ɔ h oi s ɛ x u dh i l o b ɔ l a g ɛ <int> 
[449.455]
<no-speech> 
[450.395]
<no-speech> 
[451.185]
<no-speech> 
[455.435]
h ɔ j n e k i 
[456.295]
<no-speech> 
[458.695]
ɔ̃ <hes> ph ʊ n k o ɾ i l ɛ <foreign> k o ɾ i l ɛ k ɔ b a h e ɾ i a s ɛ <int> 
[463.785]
<no-speech> 
[466.795]
h ɛ l l o <int> 
[467.345]
<no-speech> 
[468.975]
b u z i s a <int> 
[469.595]
<no-speech> 
[470.535]

[472.295]
<no-speech> 
[474.425]
<sta> m ʊ k z a b ɔ d i a b u l i k ɔ b a 
[475.965]
<no-speech> 
[479.645]
<sta> h o b ɔ <no-speech> h o l ɛ h ɔ l m ʊ ɾ h a t ɔ t d i s ɛ a ɾ u b u z i s a 
[489.005]
<no-speech> 
[490.175]
<sta> h ɛ l l o 
[490.965]
<no-speech> 
[492.735]
<int> h ɛ l ʊ 
[495.155]
<no-speech> 
[496.235]
<no-speech> 
[497.725]
<no-speech> 
[499.575]
h ɛ l ʊ <dtmf> 
[502.725]
<no-speech> 
[504.155]
h ɛ l ʊ 
[505.025]
<no-speech> 
[506.315]
<cough> h ɛ l ʊ <int> 
[510.005]
<no-speech> 
[511.435]
<no-speech> 
[511.835]
<no-speech> 
[513.845]
h ɛ l l o <sta> h ɛ l l o 
[519.155]
<no-speech> 
[521.935]
<sta> h ɛ l l o 
[522.705]
<no-speech> 
[528.005]
<no-speech> 
[528.225]
<no-speech> 
[534.763]
<no-speech> 
[541.300]
