[0.000]
<no-speech> 
[5.305]
h ɛ l l o 
[5.895]
<no-speech> 
[6.865]
h ɛ l l o 
[7.395]
<no-speech> 
[9.615]
ɔ̃ k ɔ k s ʊ n <int> 
[10.535]
<no-speech> 
[13.185]
h ɛ l l o <int> 
[13.895]
<no-speech> 
[15.915]
<int> ɔ̃ k oũ k 
[17.355]
<no-speech> 
[21.985]
h ɛ l l o 
[22.765]
<no-speech> 
[27.295]
h ɛ l l o <int> 
[27.945]
<no-speech> 
[29.825]
h ɛ l l o <int> ɔ̃ k oũ k 
[31.455]
<no-speech> 
[32.955]
<int> k ɔ 
[33.495]
<no-speech> 
[38.265]
h ɛ l l o <no-speech> h ã 
[40.195]
<no-speech> 
[41.755]
ɔ̃ ɔ̃ k oũ k <int> a s ɛ a s ɛ k oũ k 
[44.175]
<no-speech> 
[45.145]
<no-speech> 
[45.515]
<no-speech> 
[46.425]
ɔ̃ <int> 
[47.045]
<no-speech> 
[50.215]
ɔ̃ ɔ̃ <no-speech> a h i s ɛ oũ 
[54.105]
<no-speech> 
[55.515]
<no-speech> 
[56.215]
<no-speech> 
[60.265]
h ã <int> 
[60.915]
<no-speech> 
[63.625]
n a j ɔ h a <sta> 
[65.365]
<no-speech> 
[66.625]

[67.145]
<no-speech> 
[72.515]
<sta> bh a t b ɔ n a l ʊ 
[74.125]
<no-speech> 
[75.865]
<int> h ɛ l l o 
[76.545]
<no-speech> 
[78.995]
<sta> n a j 
[79.865]
<no-speech> 
[83.085]
<sta> ɔ̃ g a dh ʊ̃ w a n a j 
[84.705]
<no-speech> 
[85.565]
n a j n a j <int> 
[86.205]
<no-speech> 
[87.325]
<no-speech> 
[87.725]
<no-speech> 
[91.705]
n a j ɔ h a n a j <sta> 
[92.955]
<no-speech> 
[94.445]
ɔ h a ɔ h a n a j 
[95.865]
<no-speech> 
[98.375]
oũ <int> 
[98.915]
<no-speech> 
[100.545]
<no-speech> 
[101.395]
<no-speech> 
[107.075]
<sta> ɔ̃ a s ɛ 
[108.035]
<no-speech> 
[112.325]
ɔ̃ a s ɛ ɾ ɔ b x u j a s ɛ <sta> 
[114.485]
<no-speech> 
[123.875]
d e ɾ i a s ɛ <int> 
[124.725]
<no-speech> 
[127.115]
<sta> oũ 
[128.445]
<no-speech> 
[132.325]
<sta> n a j k ʊ w a 
[133.775]
<no-speech> 
[140.520]
<no-speech> 
[147.265]
ɔ̃ d u i t a i a s ɛ b a n dh i th ʊ w a a s ɛ <no-speech> a ɾ u d u i t a i b a n dh i th ʊ w a a s ɛ 
[153.375]
<no-speech> 
[159.975]
<no-speech> 
[166.575]
ɔ̃ <int> 
[167.225]
<no-speech> 
[171.205]
h ũ <sta> 
[172.145]
<no-speech> 
[176.515]
bh a t b ɔ n a j a s ɛ kh a l ɛ a l o h i 
[178.925]
<no-speech> 
[181.855]
<no-speech> 
[182.445]
<no-speech> 
[185.165]
ɔ̃ h o b ɔ <int> 
[185.905]
<no-speech> 
[187.285]
h e ɾ i 
[187.995]
<no-speech> 
[193.545]
<no-speech> 
[194.115]
<no-speech> 
[195.185]
n a j ɔ h a <int> 
[195.925]
<no-speech> 
[203.195]
ɔ̃ n a j ɔ h a <int> 
[204.205]
<no-speech> 
[205.655]
<no-speech> 
[206.015]
<no-speech> 
[208.455]
n a j 
[209.095]
<no-speech> 
[210.615]
n a j ɔ h a k ʊ n ʊ ɔ h a n a j <int> 
[211.905]
<no-speech> 
[218.335]
<no-speech> 
[224.765]
ɔ̃ i l a i n ɔ ɾ k a m k o ɾ i a s ɛ <int> 
[226.575]
<no-speech> 
[229.235]
ɔ̃ 
[229.915]
<no-speech> 
[232.815]
<no-speech> 
[234.175]
<no-speech> 
[240.665]
ɔ̃ ɔ̃ <no-speech> a ɾ u 
[243.245]
<no-speech> 
[248.725]
<int> ɔ̃ 
[249.375]
<no-speech> 
[254.855]

[255.275]
<no-speech> 
[258.865]
<no-speech> 
[259.965]
<no-speech> 
[271.715]
<sta> z a b ɔ l a g i b ɔ 
[273.965]
<no-speech> 
[275.225]
a z i z a oũ n e k i <sta> 
[278.035]
<no-speech> 
[281.385]
ɔ̃ <int> 
[281.875]
<no-speech> 
[283.525]
<no-speech> 
[285.755]
<no-speech> 
[287.875]
ɔ̃ <int> 
[288.575]
<no-speech> 
[300.145]
<int> ɔ̃ 
[300.765]
<no-speech> 
[302.225]
ɔ̃ <int> 
[302.745]
<no-speech> 
[305.295]

[305.665]
<no-speech> 
[311.675]
ɔ̃ ɔ̃ <int> ɔ̃ 
[313.085]
<no-speech> 
[323.185]
oũ b ɔ n a l ʊ k a l i ɔ̃ k a l i t ɛ n ɛ h ɔ l ɛ gh ɔ ɾ ɔ t z a m a ɾ u 
[326.095]
<no-speech> 
[329.785]
<sta> ɔ̃ ɔ̃ 
[331.425]
<no-speech> 
[336.425]
<no-speech> 
[337.945]
<no-speech> 
[339.515]
d a l i b ɔ n a m <no-speech> d a l i b ɔ n a m bh a z i b ɔ n a m 
[343.095]
<no-speech> 
[344.705]
a ɾ u <hes> k i b ɔ n a m a ɾ u 
[348.625]
<no-speech> 
[351.915]
kh a s i b ɔ n a m d i a 
[352.755]
<no-speech> 
[359.975]
a ɾ u a ɾ u t ɛ n ɛ h ɔ l ɛ k i kh a b ɔ k ɔ 
[361.795]
<no-speech> 
[369.085]
ɔ̃ <int> 
[369.725]
<no-speech> 
[377.345]

[378.085]
<no-speech> 
[389.095]
<no-speech> 
[389.655]
<no-speech> 
[393.565]

[394.185]
<no-speech> 
[399.205]
<sta> h ã 
[400.845]
<no-speech> 
[405.135]
<sta> h ɛ l l o 
[408.255]
<no-speech> 
[411.235]
oũ b u z i p ʊ w a n a j 
[412.985]
<no-speech> 
[416.085]
ɔ̃ <int> a s ɛ a s ɛ 
[417.455]
<no-speech> 
[419.615]
oũ <sta> 
[421.005]
<no-speech> 
[424.275]
h ɔ l p ʊ n dh ɔ ɾ ɔ <hes> d i n ɔ m a n h ɔ l 
[425.945]
<no-speech> 
[428.545]
oũ 
[429.205]
<no-speech> 
[431.165]
<sta> a ɾ u z a b ɔ p ʊ n dh ɔ ɾ ɔ d i n 
[433.035]
<no-speech> 
[437.075]
<no-speech> 
[437.465]
<no-speech> 
[441.285]
oũ <int> 
[441.875]
<no-speech> 
[443.185]
ɔ̃ <int> 
[443.705]
<no-speech> 
[447.585]
oũ <int> 
[448.075]
<no-speech> 
[453.425]

[454.045]
<no-speech> 
[459.255]
ɔ̃ b i x k u t s i x k u t a n i b ɔ l a g i b ɔ <sta> 
[461.855]
<no-speech> 
[463.555]
<sta> ɔ̃ s e n i k i b a ɛ j s ɔ b g a kh i ɾ ɛ j s ɔ b a n i b ɔ l a g i b ɔ 
[468.165]
<no-speech> 
[471.225]
ɔ̃ <int> 
[471.975]
<no-speech> 
[473.325]
ɾ a t i 
[474.105]
<no-speech> 
[477.055]
<no-speech> 
[477.605]
<no-speech> 
[479.745]
<no-speech> 
[480.155]
<no-speech> 
[481.415]
<no-speech> 
[481.965]
<no-speech> 
[484.835]
<no-speech> 
[485.185]
<no-speech> 
[486.755]
<int> ɔ̃ 
[487.225]
<no-speech> 
[488.755]
oũ <sta> 
[490.575]
<no-speech> 
[493.075]
s e n i a dh a k e z i m a n <sta> 
[494.805]
<no-speech> 
[496.165]
<int> a dh a k e z i ɔ̃ 
[497.635]
<no-speech> 
[502.705]
h o b ɔ h o b ɔ ɛ k p ʊ w a a n i l ɛ o h o b ɔ <sta> 
[505.275]
<no-speech> 
[511.445]
oũ b i x k u t <sta> b i t a n i j a b i x k u t 
[513.725]
<no-speech> 
[515.075]
b i t a n i j a b i x k u t <int> 
[516.155]
<no-speech> 
[525.855]
ɔ̃ a ɾ u bh u z i a n i l i a ɾ u ɛ k p ɛ k ɛ t 
[529.645]
<no-speech> 
[530.725]
oũ <int> 
[531.335]
<no-speech> 
[533.795]
g a kh i ɾ n a j g a kh i ɾ n a j g a kh i ɾ a n i b ɔ l a g i b ɔ <sta> 
[536.805]
<no-speech> 
[538.385]
<no-speech> 
[539.005]
<no-speech> 
[547.995]
ɔ̃ <sta> 
[549.735]
<no-speech> 
[556.085]
x o ɾ u a n i l ɛ o h o b ɔ <int> 
[557.315]
<no-speech> 
[558.305]
<int> ɔ̃ 
[559.025]
<no-speech> 
[560.205]
<int> ɔ̃ 
[560.855]
<no-speech> 
[564.275]
k i a h ʊ̃ t ɛ d e ɾ i h o b ɔ n e k i <sta> 
[566.785]
<no-speech> 
[574.755]
ɔ̃ <int> 
[575.385]
<no-speech> 
[577.155]
ɔ̃ ɾ a t i <int> ɔ l ɔ p k i b a a n i l ɛ h o b ɔ gh ɔ ɾ ɔ ɾ k a ɾ ɔ n ɛ s ɔ b o z i 
[579.865]
<no-speech> 
[580.935]
<no-speech> 
[581.305]
<no-speech> 
[591.475]
<no-speech> 
[591.885]
<no-speech> 
[593.335]
ɔ̃ ɾ a t i k i b a s ɔ b o z i a n i l ɛ h ɔ l b a k i a s ɛ 
[597.725]
<no-speech> 
[599.520]
