[0.000]
<int> m ɔ b a i l ɛ k ɛ <foreign> 
[4.555]
<no-speech> 
[5.565]
h ɛ l ʊ ɔ̃ ɛ j g u w a h o t i t ɛ a s ʊ <int> 
[12.365]
<no-speech> 
[13.205]
k i j ɔ b ʝ ɔ x h ɔ n e k i ɔ̃ ɛ n ɛ k ɛ a h i b ɔ p a ɾ a b ʝ ɔ x th a s a n e k i <int> k a m b ɔ n h ɔ l ɔ n ɛ n a j 
[24.135]
<no-speech> 
[25.775]
<no-speech> 
[26.145]
<no-speech> 
[27.305]
<int> p o ɽ i a s i l a n e k i 
[29.475]
<no-speech> 
[36.725]
h ɔ j n e k i <int> 
[39.315]
<no-speech> 
[41.515]
k i k ɔ th a bh a b i a s a i h ɔ̃ t <int> 
[46.075]
<no-speech> 
[46.925]
<breath> z i b ɔ n ɔ t ʊ <int> 
[50.345]
<no-speech> 
[51.815]
<no-speech> 
[55.485]
<no-speech> 
[57.555]
<no-speech> 
[61.915]
<no-speech> 
[66.475]
x ʊ n k a l ɛ <int> n o h o l ɛ <foreign> h oi z a b ɔ 
[76.485]
<no-speech> 
[77.365]
<no-speech> 
[78.565]
<no-speech> 
[80.585]
<int> p ʊ w a n a j 
[82.605]
<no-speech> 
[86.185]
<int> p i s a b i s a ɾ i p ʊ w a n a j <int> b a j d e u h ã 
[92.345]
<no-speech> 
[95.685]
ɛ k h ɔ l ɛ ʊ m o ɾ i b a 
[97.395]
<no-speech> 
[99.815]
ɔ̃ s ʊ w a ɛ t a l a g ɛ 
[102.835]
<no-speech> 
[107.575]
h ɛ l ʊ 
[108.415]
<no-speech> 
[109.775]
d u p o ɾ i a kh a n a kh a l a n ɛ n a j <int> 
[113.365]
<no-speech> 
[114.485]
k i kh a l a a z i <int> 
[117.925]
<no-speech> 
[119.435]
<no-speech> 
[120.015]
<no-speech> 
[121.435]
<int> a z i k i x ɔ n i b a ɾ n e k i <int> d ɔ x t ɔ k a t ɛ n ɛ h ɔ l ɛ 
[127.405]
<no-speech> 
[131.375]
ɔ̃ 
[132.165]
<no-speech> 
[139.195]
e t i a k o t z ɛ k a m ɔ t ɛ <int> 
[144.555]
<no-speech> 
[146.845]
ɔ̃ <int> 
[149.245]
<no-speech> 
[152.045]
x ɔ k ɔ l ɛ a s a kh ʊ w a k ɛ i z ɔ n a s ɛ n ɔ <int> 
[156.805]
<no-speech> 
[157.735]
<int> ɾ a t i d u b ɔ z a <int> 
[169.265]
h ɛ l ʊ <int> 
[171.355]
<no-speech> 
[173.525]
<sta> h ã 
[174.265]
<no-speech> 
[176.645]
oũ ɛ g u w a h a t i bh ɾ ɔ m ɔ n k o ɾ i a s ʊ k e t i a g oi s i l ʊ <int> 
[183.255]
<no-speech> 
[184.065]
<int> e t i a x o n dh i j a t ʊ g u w a h a t i g u ɾ i a s ʊ 
[188.865]
<no-speech> 
[190.615]
<no-speech> 
[192.175]
<no-speech> 
[193.245]
<int> ɔ̃ ɔ̃ 
[197.405]
<no-speech> 
[199.685]
<int> ɔ̃ 
[201.405]
<no-speech> 
[202.215]
<sta> a z i a z i gh ɔ ɾ ɔ t n ɔ g ɔ l a z ɛ k i j ɔ 
[205.465]
<no-speech> 
[214.815]
<sta> ɔ̃ x ʊ m b a ɾ ɛ m a n ɛ b ɔ n dh ɔ <click> th a k i l ɛ bh a l h ɔ j n ɔ 
[217.865]
<no-speech> 
[223.905]
ɾ a t i p u w a a h i s i l ʊ n ɔ h ɔ j <foreign> h oi z a e <int> 
[228.315]
<no-speech> 
[229.245]
<no-speech> 
[231.685]
<no-speech> 
[235.555]
k e j d i n ɔ m a n l a g ɛ t ʊ m a l ʊ k ɔ ɾ t a ɾ p ɔ ɾ a <int> 
[238.635]
<no-speech> 
[239.705]
<sta> k e j gh ɔ n t a m a n l a g ɛ t ʊ m a l ʊ k ɔ ɾ gh ɔ ɾ ɔ ɾ p ɔ ɾ a 
[243.455]
<no-speech> 
[244.325]
<no-speech> 
[244.685]
<no-speech> 
[246.095]
b a s ɔ t ɛ k d ɔ m m a n ɛ p i s ph a l ɛ ɛ k d ɔ m m a n ɛ gh ɔ ɾ ɔ ɾ p i s ph a l ɛ <int> 
[251.375]
<no-speech> 
[254.455]
ɔ̃ b a j k k ɛ n ɛ l a g ɛ b a s ɔ t b e s i l a g ɛ <int> 
[259.975]
<no-speech> 
[260.825]
<sta> th a k i b o l oi z ʊ w a n ɔ 
[272.685]
b ʊ l ɛ b a j k l oi a h i b a <int> 
[276.405]
<no-speech> 
[277.215]
<int> ɛ bh a l e j h ɔ j <int> a h i b ɔ p a ɾ i l ɛ n i z ɔ ɾ ɛ x u b i dh a h ɔ j x ɛ i t ʊ w ɛ a ɾ u <int> 
[285.845]
<no-speech> 
[286.865]
<no-speech> 
[287.225]
<no-speech> 
[290.335]
ɔ̃ ɔ̃ <int> k i 
[293.565]
<no-speech> 
[295.715]
<int> ɔ̃ <int> ɔ̃ e t i a t ʊ gh ɔ ɾ ɔ t ʝ a b ɔ l o g i j a ɛ k ʊ n a j <int> bh a l l a g ɛ <int> 
[307.605]
<no-speech> 
[307.755]
<no-speech> 
[308.945]
<no-speech> 
[309.715]
<no-speech> 
[310.605]
p i s ɔ ɾ b u dh ɔ b a ɾ ɛ <int> ɛ n ɛ k oi s ɛ x ɔ n i b a ɾ ɛ g oi a ɾ u k i h o b ɔ k a m ɔ t ʊ n a j 
[319.455]
<no-speech> 
[324.415]
k i b a kh ɔ ɾ ɔ s ɛ h ɔ j a ɾ u <sta> 
[326.355]
<no-speech> 
[331.075]
<int> x e j m a h ɔ t z ʊ w a n e k i 
[335.785]
<no-speech> 
[340.655]
<int> m a h ɔ t ɛ b a ɾ z ʊ w a 
[342.755]
<no-speech> 
[343.755]
<no-speech> 
[355.665]
k i h ɔ t 
[356.665]
<no-speech> 
[357.515]
<no-speech> 
[363.865]
<no-speech> 
[364.705]
<no-speech> 
[373.345]
<no-speech> 
[374.725]
<int> k ɔ th a k ɔ b o <int> p i s ɛ gh ɔ ɾ ɔ t 
[380.385]
<no-speech> 
[381.515]
gh ɔ ɾ ɔ ɾ p ɔ ɾ a ɛ k ɔ z ɔ n p ʊ w a n a a t a i <int> ph ʊ n k ɔ ɾ ɛ ɔ̃ t a j k a k ʊ z o d i ph ʊ n k ɔ ɾ ɛ ɔ̃ <int> th i k e j a s ʊ d i a 
[393.465]
<no-speech> 
[394.865]
<no-speech> 
[398.325]
<int> k i k oi s a 
[408.835]
m ʊ ɾ l ɔ g ɔ t <sta> m a n ɛ m ʊ ɾ ɛ <int> 
[412.285]
<no-speech> 
[417.895]
ã ã 
[419.045]
<no-speech> 
[421.295]
<no-speech> 
[421.735]
<no-speech> 
[423.485]
a z i <int> x ɛ i ph a l ɛ t ʊ z a b a d i a 
[426.165]
<no-speech> 
[432.975]
k ʊ n ʊ <foreign> n a j a ɾ u 
[435.475]
<no-speech> 
[439.155]
ɔ̃ <int> 
[443.765]
<no-speech> 
[445.085]
<no-speech> 
[446.345]
<no-speech> 
[450.155]
<no-speech> 
[457.555]
<no-speech> 
[458.465]
k ɛ p ɔ s a ɾ ɔ ɾ x e j ph a l ɛ l oi l ʊ w a kh ɔ b ɔ ɾ 
[460.935]
<no-speech> 
[464.745]
<no-speech> 
[468.255]
<no-speech> 
[469.265]
<no-speech> 
[472.055]
<no-speech> 
[475.585]
<int> <foreign> k o ɾ i th a k ɛ n ɛ ɛ k ɛ b a ɾ ɛ <foreign> k o ɾ i th a k ɛ n ɔ h ɔ j <int> 
[486.435]
<no-speech> 
[488.085]
ɔ̃ <int> x e j k a ɾ ɔ n ɛ b ɛ ŋ k ɔ ɾ k o ɾ i s ɛ e t i a n o t u n k ɛ <int> ɛ i t ʊ n ɛ a g ɔ t ɛ k oi s ʊ t a t ɛ g oi s i l 
[500.065]
<int> t ʊ m a l ʊ k ɔ ɾ e t i a ʝ i k ɛ i t a a g ɔ t ɛ b ɛ l ɛ g <foreign> a s i l ɔ n ɛ 
[507.465]
<no-speech> 
[512.765]
<int> <foreign> k o ɾ i <int> <foreign> k o ɾ i 
[520.145]
<no-speech> 
[521.025]
<int> t a ɾ gh ɔ ɾ ɔ ɾ p ɔ ɾ a t a ɾ p i s ɔ t b i z ɔ j ɔ n ɔ g ɔ ɾ <int> ɔ̃ k o t gh ɔ ɾ t a ɾ <int> 
[532.735]
<no-speech> 
[533.955]
<no-speech> 
[536.305]
ã ã <int> 
[538.125]
<no-speech> 
[541.735]
<int> e t i a gh ɔ ɾ ɔ ɾ ʊ s ɔ ɾ ɔ t ɛ p a j s ɛ <int> 
[549.485]
<int> z o d i a ɾ u <int> t ʊ m a ɾ ʊ s ɔ ɾ ɔ t ɛ d i a 
[558.855]
<no-speech> 
[566.025]
<int> t ʊ m a ɾ <int> 
[574.505]
<int> ã <int> e t i a s ɔ h ɔ ɾ ɔ t k i j ɔ 
[582.985]
b ɛ l ɛ g ɔ t th a k i bh ɔ l ɔ g a h oi s ɛ <int> 
[589.585]
<no-speech> 
[591.265]
ã <int> ã th i k ɛ a s ɛ e t i a l ɔ g ɔ t m a n u h a s ɛ bh a l ɛ l a g ɛ <int> 
[599.04]
