[0.000]
<no-speech> 
[2.195]
h ɛ l l o 
[2.885]
<no-speech> 
[6.235]
oũ 
[6.985]
<no-speech> 
[9.565]
x u j a s i l ʊ 
[10.515]
<no-speech> 
[13.675]
h ɔ j n ɛ 
[14.685]
<no-speech> 
[17.565]
k o t a s a e t i a 
[18.545]
<no-speech> 
[21.685]
<hes> ɔ x ɔ m ɔ t ɛ a s a n ɔ k i <no-speech> ɔ x ɔ m ɔ ɾ k ʊ n th a i t 
[24.175]
<no-speech> 
[28.355]

[30.485]
<no-speech> 
[35.025]
ɔ̃ 
[35.945]
<no-speech> 
[40.215]
h ɔ j n e k i 
[41.005]
<no-speech> 
[43.755]
i a x u n ɔ k 
[45.345]
<no-speech> 
[46.445]
k i k o ɾ i b ɔ 
[47.235]
<no-speech> 
[50.435]
oũ h ɔ j n e k i 
[51.575]
<no-speech> 
[53.405]

[54.085]
<no-speech> 
[58.575]
n a l a g ɛ d i j ɔ k a s ɛ b ɔ ɾ t ɔ m a n 
[62.475]
<no-speech> 
[65.995]
oũ <sta> t ɔ th a p i k i b a k i b i d i b ɔ kh ʊ z d i b ɔ p a ɾ a a ɾ u n i z ɔ ɾ s oi s ɔ t 
[70.745]
<no-speech> 
[72.005]
<sta> n i z ɔ ɾ s oi s ɔ t ɔ k ɛ k i b a bh a l l a g a b o s t u a s ɛ z o d i d i b ɔ p a ɾ a n i z ɛ s oi s k o ɾ i 
[77.405]
<no-speech> 
[79.555]
<hes> x ɛ i t ʊ w ɛ <no-speech> t ʊ m a ɾ p ɔ s ɔ n d m ɔ t ɛ k i b a d i a z a d i a p o t t i n ɔ k ɔ ɾ o a ɾ u 
[83.525]
<no-speech> 
[86.345]
n a j k i j ɔ k o ɾ i m 
[87.645]
<no-speech> 
[90.805]
oũ 
[92.145]
<no-speech> 
[93.265]
<no-speech> 
[93.755]
<no-speech> 
[95.395]
h o b ɔ <no-speech> h oi z a b ɔ ʝ i k ʊ n ʊ 
[96.845]
<no-speech> 
[99.445]
<no-speech> 
[100.215]
<no-speech> 
[102.085]
h ã h ã 
[102.875]
<no-speech> 
[106.455]
<laugh> n a l a g ɛ n a l a g ɛ m ʊ k 
[109.795]
<no-speech> 
[111.555]
<no-speech> 
[112.785]
<no-speech> 
[118.635]
<laugh> n a l a g ɛ m ʊ k ɛ k ʊ n a l a g ɛ <foreign> n a l a g ɛ <foreign> n a l a g ɛ <laugh> m ɔ j 
[124.915]
<no-speech> 
[127.885]
ɔ̃ k e t i a b a <int> k ɛ n ɛ k i 
[129.555]
<no-speech> 
[131.715]
<sta> z u t i k a b a ʊ a s ɛ t a t 
[133.205]
<no-speech> 
[137.065]
<no-speech> 
[138.195]
<no-speech> 
[140.795]
h ã 
[141.335]
<no-speech> 
[142.625]
oũ 
[143.255]
<no-speech> 
[146.195]
<no-speech> 
[146.555]
<no-speech> 
[149.175]
k i m a n d i n h ɔ l 
[150.085]
<no-speech> 
[152.295]
d i a d i a k ʊ w a 
[153.285]
<no-speech> 
[156.955]
p ɛ n ɔ t a l u n ɔ t ɛ j p o ɾ o h i z a m 
[158.985]
<no-speech> 
[161.875]
oũ 
[162.645]
<no-speech> 
[165.485]
a ɾ u a ɾ u a s ɛ w ɛ b s a i d 
[168.705]
<no-speech> 
[171.645]
<no-speech> 
[172.475]
<no-speech> 
[177.265]
ɔ̃ z i ɛ s ɾ ʊ d oũ kh ɾ i x t a n ɔ b ɔ x t i 
[179.865]
<no-speech> 
[182.635]
<no-speech> 
[183.355]
<no-speech> 
[185.835]
b e s i t a j m n ɔ h ɔ j b e s i t a j m n ɔ h ɔ j <foreign> k o ɾ i b ɔ l a g ɛ t a ɾ p i s ɔ t k e j t a m a n <foreign> k o ɾ i b ɔ l a g ɛ dh ɔ ɾ a a dh a gh ɔ n t a a ɾ u 
[196.115]
<no-speech> 
[198.695]
oũ 
[199.275]
<no-speech> 
[205.425]
<hes> p ʊ ɾ ʊ x i z a m a ɾ u k a l i o a s ɛ k a l i <no-speech> m a n ɛ ɛ kh ɔ n ɛ kh ɔ n k o ɾ i b ɔ l a g i b ɔ u w ɛ x t s a i d e d i n a ɾ u p ɛ n t a l u n s e d i n <no-speech> ɛ d i n ɔ t d u i kh ɔ n k o ɾ i b ɔ n o w a ɾ i 
[214.045]
<no-speech> 
[215.465]
ɛ d i n ɔ t ɛ kh ɔ n ɛ <no-speech> <hes> ɛ d i n ɔ t ɛ kh ɔ n ɛ k o ɾ i b ɔ d i s ɛ 
[218.215]
<no-speech> 
[224.915]
k a l i z a m 
[225.745]
<no-speech> 
[232.235]
h ɔ j n e k i 
[233.055]
<no-speech> 
[234.345]
<hes> ph ɔ t ʊ kh i n i t ʊ dh u b ɔ l a g ɛ 
[238.945]
<no-speech> 
[239.955]
n ʊ w a ɾ ʊ h ɔ b ɔ d ɛ <int> 
[241.015]
<no-speech> 
[243.665]
d ɛ k ʊ w a s ʊ n t a t ɛ k i a s ɛ 
[245.415]
<no-speech> 
[252.215]
<hes> a b e l i k o ɾ i ph ʊ n k o ɾ i m t ʊ m a k 
[254.595]
<no-speech> 
[257.275]
<no-speech> 
[257.685]
<no-speech> 
[259.705]
<int> ɔ̃ e n e j t ʊ a m i d u p o ɾ i a t a t z a b ɔ l a g i b ɔ t a ɾ p ɔ ɾ a a h i p ɛ p a ɾ ɔ kh ɔ n h e ɾ i k o ɾ i b ɔ l a g i b ɔ t a ɾ p i s ɔ t 
[265.255]
<no-speech> 
[268.195]
<sta> m ɔ j t ʊ m a k bh a ɛ j bh a b i j ɛ a s i l ʊ ph ɔ t ʊ kh i n i dh u b ɔ l a g ɛ dh u b ɔ l a g ɛ b u l i k ɔ m b u l i e t i a x u j x u j t a k ɛ bh a b i a s i l ʊ 
[275.475]
<no-speech> 
[277.885]
<no-speech> 
[279.755]
<no-speech> 
[281.185]
e t i a m a n ɛ b i a ɾ b i l kh ɔ n ʊ ʊ l ʊ w a n a j a z i m a n ɛ bh a b i s ʊ ph ʊ n k o ɾ i m b a ʝ ʊ n ɛ h e ɾ i k o ɾ i s i l m ɔ j k o b ɔ l a g i b ɔ <int> 
[289.545]
<no-speech> 
[290.685]
ʊ l a j s ɛ ɛ j a z i t i n i s a ɾ i d i n ɔ m a n h ɔ l h ʊ w a b u l i k oi s ɛ x e j k a ɾ ɔ n ɛ m ɔ j b ʊ l ʊ a z i l oi a n i b ɔ k o b ɔ l a g i b ɔ <int> 
[297.445]
<no-speech> 
[298.905]
<sta> ɛ j t i n i m a h ɛ h ɔ l 
[300.795]
<no-speech> 
[303.905]
oũ t i n i m a h h oi g o l p u ɾ a p u ɾ i 
[305.775]
<no-speech> 
[310.655]
ɔ̃ <sta> a ɾ u b a k i b e s i t a j m n a l a g ɛ a m i oũ p a h o ɾ i g oi s i l ʊ x ʊ dh a i n a s i l ʊ 
[317.425]
<no-speech> 
[318.305]
t a ɾ p i s ɔ t a ɾ u ɛ n ɛ k ɛ ɾ oi j ɛ i a s ɛ 
[320.305]
<no-speech> 
[324.095]
p i s a t ʊ t a k ɛ t ʊ ɾ ɔ b t a ɾ m a n ɛ h e ɾ i e n e j d u h a z a ɾ ɔ t f i k s k o ɾ i s i l ʊ t a ɾ p i s ɔ t ɛ d i t i ŋ t ʊ i a t ɛ k ɔ ɾ a k ɔ th a a s i l t a ɾ p i s ɔ t a k ou g u w a h a t i t k o ɾ i a n i b ɔ b u l i k o l ɛ g u w a h a t i t k o ɾ i l ɛ b ʊ l ɛ ɔ k ɔ m a n b e s i k ɛ l o b ɔ x e j k a ɾ ɔ n ɛ e t i a k i m a n b a p ɾ e ɔ k ɔ n m a n b e s i 
[336.065]
x i k o ɾ i b ɔ a ɾ u 
[337.995]
<no-speech> 
[344.480]
<no-speech> 
[350.965]
h ɔ j n e k i ɔ̃ <sta> i a t ɛ a ɾ u a z i z ʊ ɾ ʊ n ɔ ɾ d i n a a s ɛ b a ɾ a t i t ʊ a s ɛ 
[356.805]
<no-speech> 
[363.075]
ɛ g u w a h a t i t e n e u b e s i k ɛ l ɔ j ɛ b ʊ l ɛ <no-speech> a m a ɾ bh i n ɔ d ɛ u h ɔ̃ t ɔ ɾ b ʊ l ɛ s ɔ j ɔ h a z a ɾ l oi s ɛ <no-speech> m ɔ j b u l u x e j h i s a p ɔ t ɔ t ʊ a m a ɾ b ɔ h ʊ t ɛ k ɔ m 
[369.795]
<no-speech> 
[371.825]
ɔ̃ x i h ɔ̃ t ɔ ɾ s ɔ j ɔ h a z a ɾ b ʊ l ɛ <no-speech> x i h ɔ̃ t ɔ ɾ ʊ l a j s ɛ k e t i j a b a t ɛ ʊ l a j s ɛ b ʊ l ɛ 
[375.835]
<no-speech> 
[376.955]
x i h ɔ̃ t ɔ ɾ kh ɔ n s a l ʊ 
[379.825]
<no-speech> 
[381.415]

[382.695]
<no-speech> 
[385.705]
<laugh> h o b ɔ d i a <no-speech> a s ɛ a m a ɾ gh ɔ ɾ ɔ t ɛ a s ɛ 
[389.275]
<no-speech> 
[392.735]
ɔ̃ a s a t ʊ m a l ʊ k ɛ 
[394.245]
<no-speech> 
[397.085]
a s ɛ a s ɛ m a z ɛ m a z ɛ d e kh i s ʊ ɔ l ɔ p s ɔ l ɔ p <no-speech> s ʊ t a l ɔ t b o h i th a k ɛ 
[400.755]
<no-speech> 
[403.765]
ɔ̃ <int> 
[404.505]
<no-speech> 
[405.745]
<no-speech> 
[406.095]
<no-speech> 
[409.275]
t a k ɛ t ʊ s a ʊ̃ ʊ l a l ɛ h ɛ g ɔ m p a m a ɾ u k ɔ t a z o d i k i b a k ɔ t a k i k ɔ t a z a e 
[413.695]
<no-speech> 
[416.965]
oũ 
[417.645]
<no-speech> 
[421.485]
<no-speech> 
[421.855]
<no-speech> 
[422.985]
<no-speech> 
[423.775]
<no-speech> 
[425.655]
<int> gh ɔ ɾ ɔ t a z i m ɔ j d a l i bh a t ɛ kh a l ʊ <int> 
[430.065]
<no-speech> 
[431.705]
ɛ k i b a m a s b ɔ n a i s i l ɛ m ɔ j kh ʊ w a n a j ɛ x ʊ m b a ɾ k a ɾ ɔ n ɛ a z i n i ɾ a m i x kh a l ʊ a ɾ u x e j k a ɾ ɔ n ɛ x ʊ m b a ɾ ɛ x ɔ k ɔ l ʊ w ɛ b ɾ ɔ t ɾ a kh ɛ m ɔ j a ɾ u ɾ a kh a n a j b ɾ ɔ t m ɔ j bh a b i s ʊ n i ɾ a m i x ɛ i kh a oũ a ɾ u 
[442.555]
<no-speech> 
[450.135]
<hes> m ɔ j k i n t u ɛ t a ʊ n a ɾ a kh u b ɾ i h ɔ s p o t i b a ɾ ɛ o kh a oũ x o n i b a ɾ ɛ o kh a oũ x ʊ m ɔ b a ɾ ɛ o kh a oũ <no-speech> ɛ j x a o n ɔ ɾ m a h k a ɾ ɔ n ɛ <no-speech> d u t a x ʊ m b a ɾ kh ʊ w a n a j a ɾ u 
[459.635]
<no-speech> 
[463.985]
bh a t t a t kh a l a n ɛ n a j p i s ɛ 
[465.335]
<no-speech> 
[474.625]
i m a n d u ɾ ɔ t k i j ɔ g oi s a t a t <no-speech> s i n a k i h oi s ɛ k ʊ n ʊ b a 
[477.485]
<no-speech> 
[478.425]
<no-speech> 
[478.795]
<no-speech> 
[484.385]
<no-speech> 
[484.915]
<no-speech> 
[485.955]
<int> ɔ̃ ɛ j ɛ i x ɔ̃ s a <int> 
[487.225]
<no-speech> 
[488.715]
h ã <int> 
[489.185]
<no-speech> 
[493.285]
n ɔ b o z i t <no-speech> ɔ̃ h e ɾ i <hes> n a j m ɔ th gh o ɾ i a 
[496.585]
<no-speech> 
[497.425]
<no-speech> 
[497.785]
<no-speech> 
[498.585]
t a t t a t ɛ k o ɾ i s ɛ 
[499.975]
<no-speech> 
[504.355]
k a j k i m a n d i n <no-speech> k e j t a a s ɛ 
[506.225]
<no-speech> 
[512.595]
<no-speech> 
[513.165]
<no-speech> 
[516.195]
<no-speech> 
[516.935]
<no-speech> 
[517.875]
a ɾ u k e j d i n ɔ m a n h o b ɔ 
[519.125]
<no-speech> 
[524.175]
ɔ̃ 
[526.005]
<no-speech> 
[526.975]
b a k i b ɛ l ɛ g k a m k ɔ ɾ a 
[528.225]
<no-speech> 
[533.695]
k o t 
[534.175]
<no-speech> 
[540.105]
k a ɾ l ɔ g ɔ t g oi s ɛ g ɔ m ɔ p ʊ w a n a j d ɛ 
[542.075]
<no-speech> 
[545.485]
n ɔ g ɔ l ʊ a ɾ u 
[546.395]
<no-speech> 
[548.425]
l ɔ g ɔ ɾ l o ɾ a ɾ l ɔ g ɔ t 
[549.705]
<no-speech> 
[553.515]
z a n u k ʊ n <no-speech> k ʊ w a n a j m ʊ k 
[555.615]
<no-speech> 
[556.475]
k e t i a ph ʊ n k o ɾ i s i l k a l i 
[557.645]
<no-speech> 
[560.475]
ɔ̃ d i n ɔ t 
[561.305]
<no-speech> 
[563.775]
<hes> m ɔ j g o dh u l i j ɛ t a j k ph ʊ n k o ɾ i s i l ʊ 
[566.265]
<no-speech> 
[569.405]
ɔ̃ ɔ̃ 
[570.525]
<no-speech> 
[574.285]
e j b a ɾ <foreign> bh a l k ɛ m ɔ n a i s ʊ 
[576.265]
<no-speech> 
[579.475]
k a l i ɾ a t i p u w a h o l ɛ z a m d ɔ h ɔ t a m a n b ɔ z a t 
[581.565]
<no-speech> 
[590.275]
ɔ̃ h o b ɔ d i a m ɔ j z a e a h i m 
[592.765]
<no-speech> 
[596.365]

[598.115]
<no-speech> 
[600.380]
