[0.000]
<sta> h ɛ l l o 
[6.635]
<no-speech> 
[8.195]
<sta> ɔ̃ k ʊ w a 
[12.875]
<no-speech> 
[13.715]
a s ʊ d i a t ʊ m a ɾ 
[14.775]
<no-speech> 
[18.415]
ɔ̃ m ɔ j t ʊ m a ɾ d i b ɾ u g ɔ d 
[20.695]
<no-speech> 
[22.895]
<sta> h ũ b a k i k ʊ w a h ã h ã a s ʊ a ɾ u a s ʊ a ɾ u t ɛ n ɛ k ɛ bh a l b ɛ j a 
[33.095]
<no-speech> 
[34.935]
k i k oi s a 
[35.545]
<no-speech> 
[36.985]
n a j ɛ j m a t ɾ ɔ o l a i s o h ɛ 
[38.355]
<no-speech> 
[40.875]
<no-speech> k i k oi s a 
[43.285]
<no-speech> 
[44.795]
ɾ u m p ʊ w a n a j p a m a ɾ u m a n ɛ ɔ l ɔ p d e ɾ i h o b ɔ <sta> 
[51.395]
<no-speech> 
[54.745]
m ʊ ɾ ʊ s ɔ ɾ ɔ t ɛ h ɔ j k ɔ m ɔ k oi k ɔ m p ã s m i n i t m a n z a b ɔ l a g ɛ a ɾ u kh ʊ z k a ɽ i ʊ z a b ɔ p a ɾ i a m i g a ɽ i t z a oũ a ɾ u 
[60.195]
<no-speech> 
[61.015]
<no-speech> 
[62.225]
<no-speech> 
[64.335]
h ã m a n ɛ k i kh ʊ z ɔ k a ɽ i n a z a ʊ̃ a ɾ u g a ɽ i t ɛ z a oũ a ɾ u e j kh i n i a ɾ u 
[67.825]
<no-speech> 
[69.385]
<sta> ɛ k ɛ l ɔ g ɛ ɛ k ɛ l ɔ g ɛ x ɔ b ɛ k ɛ l ɔ g ɛ z a oũ 
[72.005]
<no-speech> 
[73.245]
<sta> e t i a ɛ k ɛ l ɔ g ɛ a s ʊ a z i g u t e j k e j t a ph ʊ n k ɔ ɾ a g ɔ m n a p a ʊ̃ <sta> 
[83.245]
<no-speech> 
[85.325]
<sta> n a j n a j n ɔ k ɔ ʊ̃ n ɔ k ɔ ʊ̃ n ɔ k ɔ ʊ̃ 
[89.695]
<no-speech> 
[90.605]
m ɔ j g u w a h a t i t z ʊ w a k ɔ th a a s i l ɛ z a m a ɾ u <sta> ɛ k ɛ b a ɾ ɛ b i h u t h ã h ã 
[97.375]
<no-speech> 
[98.475]
<no-speech> 
[99.755]
<no-speech> 
[101.035]
k i k oi s a 
[101.645]
<no-speech> 
[106.445]
<sta> b u z i p ʊ w a n a j k i k oi s a 
[108.055]
<no-speech> 
[114.885]
ɔ̃ n ɔ h ɔ j n ɔ h ɔ j n ɔ h ɔ j m a n ɛ h oi g ɔ l a ɾ u ʝ i kh i n i k ɔ n ɔ ɾ ph a m h o b ɔ l a g i s i l ɛ h oi g ɔ l a ɾ u m a n ɛ k ɛ s ɔ t ʊ ɔ l ɔ p b ɛ l ɛ g dh ɔ ɾ ɔ n ɔ ɾ a s i l ɛ t a ɾ m a n ɛ k i b a m ʊ ɾ p ɾ ɔ m ʊ s ɔ n h oi s i l p ɾ ɔ m ʊ s ɔ n h ʊ w a ɾ p i s ɔ t ʊ m ɔ j k a m k o ɾ i a s i l ʊ n ɔ 
[126.685]
k a m k a m n ɔ k ɔ ɾ a t ʊ h o b ɔ l a g ɛ <sta> x ɛ i t ʊ w ɛ ɛ t i j a n i z ɛ s a ɾ v ɛ k o ɾ i b ɔ n a l a g ɛ a ɾ u x ɛ i t ʊ k a ɾ ɔ n ɛ e t i a b a d d i j a t ʊ n ɔ h ɔ j a ɾ u s ɔ b th i k ɛ a s ɛ a g ɔ ɾ n i s i n a i a s ɛ 
[135.675]
<no-speech> 
[136.655]
<no-speech> 
[137.285]
<no-speech> 
[141.195]
g u w a h a t i t t ʊ m a ɾ b i h u t z a m ɛ k ɛ b a ɾ ɛ 
[142.695]
<no-speech> 
[146.005]
h ã h ã 
[146.655]
<no-speech> 
[148.205]
m a n ɛ a m i 
[150.945]
<no-speech> 
[151.755]
<no-speech> 
[152.405]
<no-speech> 
[153.455]
t ɛ ɾ ɔ t a ɾ i kh ɛ a m i g a ɽ i t u th i m a m i 
[155.375]
<no-speech> 
[156.895]
s ou dh ʝ t a ɾ i kh g oi p a m 
[158.835]
<no-speech> 
[160.985]
x e j j a j a ɾ u <no-speech> b i h u t a t ɛ s a m b i h u t a t ɛ s a m 
[164.555]
<no-speech> 
[167.435]
b a k i k ʊ w a kh ɔ b ɔ ɾ 
[168.435]
<no-speech> 
[169.765]
t i n i d i n ɔ ɾ p i s ɔ t ɛ a k ou 
[171.965]
<no-speech> 
[174.335]
k i ʝ n o k o ɾ i m 
[178.305]
<no-speech> 
[179.125]
<sta> h ɔ̃ h a 
[181.835]
<no-speech> 
[183.725]

[184.395]
<no-speech> 
[185.595]
<no-speech> 
[186.065]
<no-speech> 
[187.115]
<no-speech> 
[187.465]
<no-speech> 
[188.275]
<sta> n a j n a j t ʊ m a ɾ z a m b u l i t ʊ <hes> m a n ɛ l ɔ g k o ɾ i m b u l i t ʊ b a ɾ ɛ b a ɾ ɛ bh a b i a s i l ʊ n ɛ k i n t u 
[195.145]
<no-speech> 
[196.335]
h ɛ l l o ɔ̃ 
[199.275]
<no-speech> 
[200.555]
m a n ɛ t ʊ m a l ʊ k ɛ t ʊ m a l ʊ k ɛ k oi a h i s i l a n ɛ 
[202.825]
<no-speech> 
[205.185]
<sta> 
[207.505]
<no-speech> 
[209.185]
<no-speech> 
[209.665]
<no-speech> 
[211.305]
k i k oi s a 
[211.955]
<no-speech> 
[215.515]
h ɔ̃ h a 
[217.295]
<no-speech> 
[222.365]
<sta> g ɔ m p a j s ʊ m a n ɛ <hes> ɛ i b a ɾ ɔ t ʊ p u ɾ a s i n ɔ ɾ s i n ɔ ɾ <no-speech> k a ɾ ɔ n x ɛ i d i n a kh ɔ n ɛ x ɛ i d i n a kh ɔ n ɛ m ɔ j m a l i g ã o g oi s i l ʊ k i b a ɛ t a k a ɾ ɔ n ɔ ɾ k a ɾ ɔ n ɛ 
[234.015]
a ɾ u m a l i g ã w ɔ ɾ ɔ p ɔ ɾ a h ã h ã h ã 
[239.415]
<no-speech> 
[241.135]
<sta> ɔ̃ m a n ɛ b ɛ j a l a g ɛ n a m a n ɛ t u m i b ɛ j a n ɔ h ɔ l h ɛ̃ t ɛ n dh ɔ ɾ a 
[248.725]
<no-speech> 
[251.585]
<sta> x e j t ʊ h ɔ j e j b a ɾ s i n ɔ ɾ e j b a ɾ p u ɾ a s i n ɔ ɾ h a n d ɾ ɛ d p a ɾ s ɛ n t s i n ɔ ɾ m a n ɛ t u m i e j b a ɾ z a b a b u l i gh ɔ ɾ ɔ t n ɔ g ɔ l ʊ b a t ʊ m a ɾ k i m a n o d i n ɔ ɾ p ɾ ɔ g ɾ ɛ m a s ɛ a ɾ u x ɔ m ɔ j ʊ x ɔ m ɔ j ʊ n a s i l ɛ i m a n 
[263.145]
<sta> a ɾ u n i x s ɔ j z a m m ɔ j k i k oi s a 
[274.835]
<no-speech> 
[275.745]
<sta> ɔ̃ p a m <sta> ɔ̃ ɔ̃ ɔ̃ z o d i th a k a ɛ k ɛ l ɔ g ɛ s a b ɔ p a ɾ i m 
[286.975]
<no-speech> 
[292.165]
<no-speech> 
[295.045]
<sta> b ʊ l gh ɔ ɾ ɔ l oi 
[297.005]
<no-speech> 
[299.475]
<sta> n i x s ɔ j z a m n i x s ɔ j z a m 
[302.235]
<no-speech> 
[303.855]
<sta> t a t l ɔ g p a m 
[306.035]
<no-speech> 
[309.495]
h ũ h ũ h ũ 
[311.755]
<no-speech> 
[313.655]
n i x s ɔ j l ɔ g p a m e t i a k o t a s a 
[319.675]
<no-speech> 
[320.925]
<sta> e t i a k o t a s a 
[322.065]
<no-speech> 
[323.025]
<sta> k i k oi s ɛ 
[325.615]
<no-speech> 
[327.215]
<int> m a ɾ i a s a 
[329.575]
<no-speech> 
[330.515]
gh ɔ ɾ ɔ t n ʊ z ʊ w a 
[331.395]
<no-speech> 
[333.565]
a s s a k i k a m a s ɛ 
[335.565]
<no-speech> 
[339.655]
ɔ̃ a s s a a s s a 
[340.725]
<no-speech> 
[343.075]
<sta> ɔ̃ a s s a a s s a a s s a 
[345.205]
<no-speech> 
[347.605]
<sta> t a ɾ p i s ɔ t a ɾ u k ɔ 
[351.775]
<no-speech> 
[353.535]
h ã h ã 
[354.285]
<no-speech> 
[358.205]
<laugh> t i ph i n n i j ɔ f i s ɔ l oi 
[363.885]
<no-speech> 
[366.705]
a z i k a l i t i ph i n n i j ɔ f i s ɔ l oi n ɛ 
[368.975]
<no-speech> 
[371.065]
t ɔ j t i ph i n ɔ h ɛ kh a w a ɾ u h ɔ̃ h a 
[373.715]
<no-speech> 
[376.585]
a ɾ u <int> 
[378.315]
<no-speech> 
[379.145]
k ɔ th a p a t i m b o h u t k ɔ th a a s ɛ ɾ ɔ b a 
[381.385]
<no-speech> 
[383.565]
h ɛ l l o 
[384.755]
<no-speech> 
[386.395]
b o h u t k i b a k i b i k ɔ th a a s ɛ 
[387.955]
<no-speech> 
[391.195]
b o h u t k i b a k i b i k ɔ th a a s ɛ m ɔ j k ɔ m b a ɾ u 
[393.525]
<no-speech> 
[395.585]
<sta> <hes> e t i a m a n ɛ m ʊ ɾ ʊ s ɔ ɾ ɔ t b o h u t m a n u h a s ɛ t ʊ 
[399.595]
<no-speech> 
[400.835]
x e j k a ɾ ɔ n ɛ k o b ɔ p ɔ ɾ a n a j a ɾ u a ɾ u b a k i k ʊ w a 
[405.455]
<no-speech> 
[408.355]
<int> h ɛ l l o 
[409.615]
<no-speech> 
[411.455]
<int> ɔ̃ 
[413.935]
<no-speech> 
[414.835]
<sta> <breath> 
[419.715]
<no-speech> 
[420.825]
<sta> ʊ s ɔ ɾ ɔ t m a n u h b o h u t a s ɛ n e k i 
[423.605]
<no-speech> 
[425.125]
<no-speech> 
[425.475]
<no-speech> 
[426.945]
<sta> h e ɾ i h ã h ã 
[431.415]
<no-speech> 
[433.395]
k a ɾ l ɔ g ɔ t k ɔ th a p a t i a s a 
[434.505]
<no-speech> 
[435.405]
<no-speech> 
[435.885]
<no-speech> 
[436.705]
<sta> k a ɾ l ɔ g ɔ t k ɔ th a p a t i a s a i m a n 
[438.685]
<no-speech> 
[441.755]
<breath> h ã h ã 
[443.245]
<no-speech> 
[445.905]
<breath> k a ɾ l ɔ g ɔ t k ɔ th a p a t i a s a i m a n <int> 
[447.605]
<no-speech> 
[450.855]
t u m i <breath> k a ɾ l ɔ g ɔ t k ɔ th a p a t i a s a i m a n 
[452.315]
<no-speech> 
[453.865]
h ã h ã 
[454.705]
<no-speech> 
[456.895]
h ɛ l l o ɔ̃ k ʊ w a <int> n ɛ t w ɔ ɾ k ɔ ɾ p ɾ ɔ b ɔ l ɛ m ɛ k ʊ x u n a p ʊ w a n a j bh a l k ɛ k ʊ w a x p ɔ x t ɔ k oi k ʊ w a 
[464.715]
<no-speech> 
[467.705]
n a j x u n a 
[468.495]
<no-speech> 
[470.915]
k ʊ w a k oi th a k a 
[472.065]
<no-speech> 
[473.635]
<int> k i k oi s a 
[475.225]
<no-speech> 
[476.455]
<no-speech> 
[477.095]
<no-speech> 
[478.925]
<int> e n e j k i b a k i b i k ɔ th a ɾ ɔ kh a i d i j ɔ k ɾ ɔ kh a i d i j ɔ k d a d a 
[483.015]
<no-speech> 
[484.335]
<sta> ɾ ɔ kh a i d i j ɔ k 
[485.815]
<no-speech> 
[488.625]
g a ɽ i b o h u t d u ɾ ɔ t l oi a h i l ɛ ɔ̃ h ɛ l l o 
[492.795]
<no-speech> 
[493.895]
h ɛ l l o <sta> 
[495.895]
<no-speech> 
[496.875]
<sta> d ɛ kh a o k k ʊ w a p u ɾ a x u n i a s ʊ k ʊ w a 
[505.405]
<no-speech> 
[507.425]
<no-speech> 
[511.305]
<no-speech> 
[513.785]
<no-speech> 
[514.195]
<no-speech> 
[516.665]
<no-speech> 
[521.375]
<no-speech> 
[522.235]
<sta> k i k oi s a 
[524.025]
<no-speech> 
[528.325]
<sta> t u m i m ɔ n ɔ t k ɔ ɾ a z a n ɔ <hes> <hes> m i h ɛ m a z ɛ m a z ɛ k e t i a b a k e t i a b a m ɔ j ɛ m ɔ n ɔ t p ɛ l a j d i ũ 
[533.795]
<no-speech> 
[535.575]
<no-speech> 
[536.065]
<no-speech> 
[537.055]
<sta> <laugh> m ɛ s ɛ z k ɔ ɾ a m a z ɔ t ɛ p a h o ɾ i g oi s i l a <hes> m ɛ s ɛ z s ɛ s ɛ z ɛ k ɛ b a ɾ ɛ ɛ k ɛ b a ɾ ɛ k ɔ ɾ a n a s i l a t a ɾ p i s ɔ t m ɔ j ɛ m a z ɔ t ɛ m ɔ n ɔ t p ɛ l a j d i l ʊ n ɛ t a ɾ p i s ɔ t g u w a h a t i z ɛ g oi s i l ʊ m ɔ j k ɔ l o z ɛ 
[548.625]
x u n a x u n a x u n a 
[552.055]
<no-speech> 
[553.385]
<hes> z e t i a m ɔ j g u w a h a t i t g oi s i l ʊ t e t i a t ʊ m a k m ɔ j k oi s i l ʊ z ɛ <hes> t u m i ɛ b a ɾ m ʊ k l ɔ g k o ɾ i b a n ɛ t a ɾ p i s ɔ t t u m i k oi s i l a z ɛ k o ɾ i m b u l i k oi s i l a k i n t u t ʊ m a ɾ x e j d i n a z e t i a g oi s i l ʊ t u m i m ʊ k l ɔ g n ɔ k o ɾ i l a <int> m ɔ j m a s a ʒ k o ɾ i s i l ʊ ɾ i p ɔ l a i n i d i l a z ɛ 
[565.325]
m ɔ j m a l i g ã o p a ɾ ɔ h oi g oi s ʊ bh ɔ ɾ o l u p a ɾ ɔ h oi g oi s ʊ t e t i a t u m i m ɛ s ɛ z ɾ i p l a i k o ɾ i s a z ɛ e t i a l ɔ g k o ɾ i b a n e k i m ɔ j k oi s ʊ z ɛ m ɔ j g u s i j ɛ i a h i l ʊ h oi g o l 
[572.455]
<no-speech> 
[579.840]
<no-speech> 
[587.225]
<no-speech> 
[588.825]
<no-speech> 
[594.375]
ɔ̃ x e j t ʊ h ɔ j z ɛ l ɔ g dh o ɾ i m a ɾ u k i m a n l ɔ g dh o ɾ i m 
[598.285]
<no-speech> 
[599.480]
