[0.000]
<no-speech>
[7.147]
<no-speech>
[14.295]
<no-speech>
[14.755]
<no-speech>
[19.315]
ahha hi uThando
[20.855]
<no-speech>
[23.015]
Thandeka
[23.895]
<no-speech>
[24.835]
<int> kunjani
[25.975]
<no-speech>
[27.625]
hello kunjani sisi
[29.505]
<no-speech>
[30.315]
hello
[31.045]
<no-speech>
[32.195]
kunjani
[33.445]
<no-speech>
[35.055]
ehhe ya angithi manje sesiyacala siyaxoxa mina nawe <int>
[39.665]
<no-speech>
[40.815]
uyangizwa
[41.705]
<no-speech>
[42.545]
uyangizwa
[43.295]
<no-speech>
[44.505]
Thandeka ya mmhm sicoca ngoSisonke mina nawe ehhe ya and theni ke abo mabramusa <laugh> <breath>
[55.825]
ungiphendule ne <no-speech> mara ngalolimi lwethu leli esikhuluma ngalo
[60.645]
<no-speech>
[61.755]
noma ngabe yini nje uphendule
[64.025]
<no-speech>
[65.265]
mmhm abo baba uRamusa ubagcine nini emusebenzini
[69.045]
<no-speech>
[71.245]
phendula
[72.105]
<no-speech>
[74.645]
ugcine nini bo- obaba Ramusa nabo Dan
[77.175]
<no-speech>
[78.965]
emsebenzini <int>
[80.095]
<no-speech>
[81.555]
ehhe ukubabona nje noma nje <int>
[85.645]
<no-speech>
[87.775]
emithingini njengoba bekufanele kube <no-speech> njengoba bekufanele kube nomithingi khona ke why singazange usaba khona njengo kuthi uDana akazange asafona
[97.145]
<no-speech>
[101.035]
uyangizwa
[101.875]
<no-speech>
[103.735]
phendula nje noma yini
[105.475]
<no-speech>
[108.355]
angithi ngikufonela ngenamba yas- yaphesheya mina ehhe
[112.925]
<no-speech>
[116.985]
ngikufonela ngenamba <int> yaphesheya angithi mina ehhe
[121.045]
<no-speech>
[123.965]
uyangizwa
[124.765]
<no-speech>
[125.575]
ya
[126.355]
<no-speech>
[127.235]
so bathini bathi omunye umithingi uzobanini futhi manje
[130.775]
<no-speech>
[134.185]
uyangizwa
[134.915]
<no-speech>
[136.365]
bungakezwa
[137.285]
<no-speech>
[140.185]
ohho <dtmf> ubungakayizwa
[141.805]
<no-speech>
[143.695]
Thandeka and utheni ke njengoba yazi ini i- iphumile futhi enye ithousand randi namuhla
[150.415]
<no-speech>
[155.015]
i-Accounting ehhe
[156.875]
<no-speech>
[159.975]
angithi nemali kuqale kwangena ten ta- two thousand kwaphinde kwangena ten thousand ukuthi bekuna seventy nine randi
[170.955]
<no-speech>
[171.765]
<int> sokwaphinde kwaphuma thousand randi kwaphinde kwaphuma enye ithousand randi nanamuhla kuphume enye ithousand randi sekusele inine thousand phela ami sure
[183.175]
<no-speech>
[184.435]
ohho eight thousand nemali nyana nje because iyacharger angithi
[188.805]
<no-speech>
[192.185]
manje bathini hello
[193.605]
<no-speech>
[196.625]
ye hello
[197.735]
<no-speech>
[200.985]
ehhe ami sure njengoba be
[202.615]
<no-speech>
[205.305]
ahha
[206.145]
<no-speech>
[207.355]
ngiyacabanga ukuthi njengoba besingekho emithingini
[210.395]
<no-speech>
[212.135]
ahha
[213.115]
<no-speech>
[214.075]
a- ngiya
[214.895]
<no-speech>
[217.425]
ehhe
[218.705]
<no-speech>
[219.975]
(())
[220.765]
<no-speech>
[221.565]
<int> kodwa ke wena ukunikile imali njengoba bekufanele uhambe uyekhaya
[226.335]
<no-speech>
[232.335]
akafonanga nokufona
[234.005]
<no-speech>
[236.825]
idile-
[237.915]
<no-speech>
[240.735]
uthi akawaboni <int>
[242.765]
<no-speech>
[243.605]
awukamusendeli imeseji ubuze ngemali
[246.545]
<no-speech>
[249.005]
phela ekhaya bekufanele uyile angithi njeng- njengo kuthi kunomsebenzi manje uzoyenza kanjani
[255.345]
<no-speech>
[260.025]
ye
[260.775]
<no-speech>
[263.025]
manje uzoyenza kanjani ubungekho dis- kuleliviki futhi
[266.455]
<no-speech>
[267.635]
bongekho kuleliviki kanti
[269.535]
<no-speech>
[271.985]
uzoya kuye <no-speech> unina ukuleliviki or ukuleliviki elizayo
[277.025]
<no-speech>
[278.395]
unina umsebenzi ukuleliviki elizayo
[280.495]
<no-speech>
[282.885]
kule-
[283.565]
<no-speech>
[286.245]
ohho ngeholidi <no-speech> hayi kufanele uye kuye fanele akunike angithi wayethe uzokhuluma nobaba Ramusa
[292.755]
yinto abo Zame- abo Zameka abayibalekela le emsebenzini ngokuthi zonke izinto azibi right nje bafuna ukuzenzela zonke izinto bona bodwa <breath> <int> abo Ponki bona bathini
[305.335]
<no-speech>
[307.975]
hey yazini ene ke njengo kuthi kho- Ma
[312.455]
<no-speech>
[314.805]
hello
[315.615]
<no-speech>
[318.015]
hayi ayikho into futhi labo yilabo phela uyabazi ukuthi iduphunga nje <laugh>
[327.305]
<no-speech>
[329.885]
<laugh> iduma njani lezi uPolina yena abo- u- uPolina yena umgcine nini
[337.845]
<no-speech>
[339.915]
bona benza malini kule project yabo kurecycling
[343.895]
<no-speech>
[350.425]
usho ukuthi isazongena
[352.095]
<no-speech>
[354.885]
yo angicabangi <no-speech> kush- njengo kuthi le- le- le- twelve thousand <no-speech> kusho ukuthi le twelve thousand bekungeyabo Dan ke ngoba nale
[364.875]
<int> e- eyakwa cleaning akakangeni nesenti ayikho into ekhona
[369.655]
<no-speech>
[372.345]
manje ke njengo kuthi bayayikh- <sta>
[374.915]
<no-speech>
[379.075]
manje Ma
[380.805]
<no-speech>
[382.665]
hello Nana
[383.585]
<no-speech>
[385.005]
hello
[385.805]
<no-speech>
[387.505]
ehhe uthi kwenzanjani uthini
[390.555]
<no-speech>
[398.005]
uhuh ngibona ngathi ayikho lento kufanele lamanzi achithwe lana ikhona nje mara into enje
[406.285]
<no-speech>
[407.805]
ehhe ikhona kodwa
[409.425]
<no-speech>
[410.885]
khona manje fanele uhambile ayikho imali bavala amaphone manje
[416.385]
<no-speech>
[418.825]
hayi kodwa fanele ufanele uyoyifuna
[422.955]
<no-speech>
[424.945]
yazi fanele uyoyifuna
[427.175]
<no-speech>
[430.385]
iyo
[431.575]
<no-speech>
[432.745]
ma <no-speech>
[434.415]
manje bathi sizoya ngolwesingaki futhi
[437.655]
<no-speech>
[439.795]
bathi siyangolwesingaki awukakezwa ukuthi futhi lo mithingi unina
[444.055]
<no-speech>
[448.425]
u- bathi unina futhi lo mithingi
[451.105]
<no-speech>
[453.095]
emhlanganweni
[454.405]
<no-speech>
[455.805]
umhlangano loyo bathi unina futhi
[458.695]
<no-speech>
[468.795]
ayiyazi angazi nami ngoba nje
[472.655]
<no-speech>
[473.685]
kudala ngagcina futhi ubaba Ramusa ngagcina ukukhuluma naye ngalelanga ngimtshela ukuthi kunini ngifuna i- iprofile azange akhone ukuthi ngiyayithola ehhe
[485.525]
<no-speech>
[493.255]
<int> kodwa wayethe ngize kuye eMeadowlands ngizoyilanda hayi ngizoya ngoba anginamali mina
[500.905]
<no-speech>
[504.885]
mmhm anginamali
[507.525]
<no-speech>
[510.815]
ehhe khona kuyafuneka ukuthi siye siyoyilanda ngoba lo- lo- mfana okwakufanele ngiyinikeze yena usayimele <int> nanamuhla
[518.745]
<no-speech>
[520.365]
<no-speech>
[520.955]
<no-speech>
[532.395]
ngabe wenza njani
[533.665]
<no-speech>
[534.695]
ngabe wenza njani
[535.915]
<no-speech>
[543.245]
ohho
[544.355]
<no-speech>
[547.145]
ohho khona manje
[548.965]
<no-speech>
[550.215]
khona manje
[551.085]
<no-speech>
[560.385]
angisakuzwa manje uthini
[562.205]
<no-speech>
[564.225]
<dtmf> yebo
[565.145]
<no-speech>
[568.655]
ohho ehhe
[569.765]
<no-speech>
[570.815]
ehhe fanele ungifonele ungitshele uma uye kuye ukuthi uthini
[575.295]
<no-speech>
[576.505]
<no-speech>
[579.805]
<no-speech>
[581.365]
kodwa hayi wena kodwa uyadlala yazi ini ngikutshele hayi uyadla hayi uyadlala uyadlala lo umdlalo oku- <breath> ngi kutshelile ngathi uma ufika laphayana mayiphu- mayihambe iyophuma kwanamuhla la
[594.085]
<no-speech>
[596.665]
kwanamuhla la ive- iveni ngidlule li- li- li- li- li- limile lapha ngaphandle mmhm
[604.705]
<no-speech> kumele leveni li- lithathwe wuwe kahle kahle lomsebenzi <laugh>
[611.805]
<no-speech>
[614.645]
<int> ehhe
[616.165]
<no-speech>
[622.355]
<no-speech>
[628.545]
<no-speech>
[629.205]
<no-speech>
[631.453]
