[0.000]
<no-speech>
[1.765]
<no-speech>
[3.255]
<no-speech>
[3.775]
<no-speech>
[5.495]
<no-speech>
[6.925]
<no-speech>
[16.510]
<no-speech>
[26.095]
<no-speech>
[35.680]
<no-speech>
[45.265]
<no-speech>
[45.635]
<no-speech>
[47.195]
<sta> yebo
[49.095]
<no-speech>
[51.215]
<int> Mxolisi
[53.335]
<no-speech>
[54.865]
Mxolisi
[55.635]
<no-speech>
[56.705]
kunjani mfwethu
[57.815]
<no-speech>
[60.405]
yebo kunjani
[61.645]
<no-speech>
[63.195]
uyaphila
[64.105]
<no-speech>
[66.365]
ngiyaphila <no-speech> uThobelani lo okhuluma naye
[68.755]
<no-speech>
[71.845]
uyezwa
[72.645]
<no-speech>
[73.645]
uright lapho ukhona
[75.355]
<no-speech>
[77.015]
uright lapho ukhona
[78.545]
<no-speech>
[80.065]
ohho oright <no-speech> ukhona ubhu- <no-speech> ya ngiright ubhuti wakho wamgcina nini
[86.415]
<no-speech>
[90.855]
ehhe ubhuti wakho
[92.005]
<no-speech>
[94.325]
uyaphila yena
[95.505]
<no-speech>
[96.395]
uyaphila yena
[97.465]
<no-speech>
[99.525]
wo oright a- <no-speech> hayi ngiyakuzwa ngiyakuzwa mfwethu
[105.685]
<no-speech>
[106.845]
uyezwa
[107.925]
<no-speech>
[108.815]
<no-speech> amatoho lapho ungakhona uyawathola <no-speech> amatoho lapho ungakhona uyawathola
[116.235]
<no-speech>
[122.675]
uzama kanjani lapho ukhona
[124.855]
<no-speech>
[128.565]
uzama kanjani lapho ukhona
[130.755]
<no-speech>
[135.495]
ehhe
[137.585]
<no-speech>
[146.605]
hayi nami okwamanje mfwethu kusabheda kodwa ke hayi ngiyathemba ukuthi inkosi izosiza lapha okonakele khona
[152.925]
<no-speech>
[154.235]
<no-speech>
[154.695]
<no-speech>
[155.675]
uyangizwa
[156.575]
<no-speech>
[160.105]
uXolani yena lutho naye akalutho aka- a- akalungelwa yilutho
[164.065]
<no-speech>
[171.205]
manje mawucabanga uzoya nini ngasekhaya
[173.685]
<no-speech>
[176.895]
<no-speech>
[177.245]
<no-speech>
[182.125]
hayi kulungile mfwethu hayi ngiyakuzwa kodwa mina <no-speech> kulenyanga ezoqalwa <no-speech> ngizozama ukuthi <no-speech> ngivakashele ngasekhaya
[190.005]
<no-speech>
[194.025]
uyangizwa
[194.915]
<no-speech>
[203.515]
ya ukuthi kunezinto ekufaneke ngizilungise ngasekhaya
[207.185]
<no-speech>
[208.585]
<no-speech>
[208.945]
<no-speech>
[213.755]
kodwa ngodlula ngakuwena ke mase ngizoya ngasekhaya <no-speech> kunezinto engifuna sizikhulume mina nawe <no-speech> ezibalulekile
[221.175]
<no-speech>
[225.185]
<no-speech>
[225.705]
<no-speech>
[229.615]
he wamgcina nini umzala wakho <no-speech> uCeliwe
[232.555]
<no-speech>
[236.625]
<no-speech>
[236.975]
<no-speech>
[238.655]
<int> kad- hayi kadengifonelizolo <no-speech> saxhumana nje <no-speech> kade ubengibuza impilo
[245.715]
<no-speech>
[251.685]
manje a- awungitshele
[253.425]
<no-speech>
[255.645]
izifundo zakho lezi owawuzilungisa <no-speech> esikoleni zahamba kanjani
[260.095]
<no-speech>
[266.535]
<no-speech>
[272.975]
<no-speech>
[273.355]
<no-speech>
[278.735]
<no-speech>
[279.315]
<no-speech>
[287.245]
ohho hayi kuyazwakala <no-speech> manje bathi izitifiketi zi- azikaphumi zikamatekuletsheni
[294.345]
<no-speech>
[297.265]
<no-speech>
[297.875]
<no-speech>
[301.275]
uthini ubaba wakho <no-speech> uthini ubaba wakho omncane yena uma ekufonela <no-speech> wa- wamgcina nini
[307.115]
<no-speech>
[312.385]
<no-speech>
[312.865]
<no-speech>
[316.345]
<no-speech>
[316.805]
<no-speech>
[320.385]
kodwa <no-speech> kufane ngabe seziphumile kushuthi zisabambezelekile la zibambeleke khona
[325.225]
<no-speech>
[336.310]
<no-speech>
[347.395]
kodwa ke hayi bayayibambezela thina ngoba nathi sifuna ukugcwalisa amanye <no-speech> amaform
[353.135]
<no-speech>
[354.975]
ukuthi sithole izikhala zokufunda ngonyaka ulandelayo uyabo
[358.995]
<no-speech>
[366.905]
hayi kushuthi kodwa hayi zizophuma kungekudala <no-speech> maduzane nje
[371.245]
<no-speech>
[377.815]
hayi mhlampe ngizoke ngifike ngalapho <no-speech> mhlampe mangingakayi ngasekhaya <no-speech> kodwa makuwukuthi angizanga kuzolezizinsuku esikuzo <no-speech> mhlampe sengondlula masengihamba
[388.615]
<no-speech>
[392.855]
uyangizwa
[393.775]
<no-speech>
[396.355]
<no-speech>
[396.965]
<no-speech>
[398.135]
ya <no-speech> kuzokwenzeka kanjalo ke kodwa solokosiqhumana emoyeni
[403.335]
<no-speech>
[408.205]
hayi ubekezele umsebenzi uzowuthola <no-speech> kungekudala <no-speech> kushuthi nje isikhathi sakho asikakafiki
[414.595]
<no-speech>
[419.375]
<no-speech>
[419.725]
<no-speech>
[420.875]
uXolani uthe ulaphi
[422.355]
<no-speech>
[424.905]
kumanje ulaphi
[426.325]
<no-speech>
[427.565]
kumanje wena ulaphi
[429.075]
<no-speech>
[435.415]
ukephi nendawo
[438.675]
<no-speech>
[440.085]
kusekudeni
[441.145]
<no-speech>
[445.385]
kusekudeni
[446.325]
<no-speech>
[448.365]
usekudeni noXolani
[450.285]
<no-speech>
[453.815]
lizophela usuku lwanamhlanje ungambonanga
[459.825]
<no-speech>
[466.635]
hayi usuyokhonza kuyena <no-speech> mawumbona
[470.425]
<no-speech>
[472.765]
<no-speech>
[473.125]
<no-speech>
[474.445]
umutshele ukuthi akaphile
[476.485]
<no-speech>
[477.465]
<no-speech>
[477.815]
<no-speech>
[479.495]
uyezwa <no-speech> mmhm
[481.765]
<no-speech>
[482.985]
le- <no-speech> lento kamzala wakho isiyaziwa nase khaya <no-speech> wakuzwa lokho
[488.465]
<no-speech>
[493.555]
wakuzwa lokho
[494.775]
<no-speech>
[498.055]
wezwa ngoba
[500.295]
<no-speech>
[507.445]
hayi angisakhumbuli kodwa uma ususho sowuye- usuyabuya umqondo ukuthi konje ngakutshela
[512.705]
<no-speech>
[515.765]
babona- babonana <no-speech> uma omncane noma
[520.695]
<no-speech>
[525.895]
baxoxa kodwa uthe akakhombanga inkinga kangako <no-speech> wathi izinto wakuwukuthi nje <no-speech> ziyogcina <no-speech> zilungisekile ngendlela ekufanele ngayo
[535.895]
<no-speech>
[539.645]
hayi akuhluphi kodwa ke <no-speech> uma kuhlangana <no-speech> amandla nje kuphumeleleka hayi zoyolungiseka zona
[547.715]
<no-speech>
[552.325]
<no-speech>
[552.685]
<no-speech>
[555.425]
usisi wakho omdala umgcine nini yena
[559.095]
<no-speech>
[569.205]
wo nixhumana ngawo umakhala ekhukhwini
[571.285]
<no-speech>
[574.355]
<no-speech>
[574.985]
<no-speech>
[578.675]
nami kade ngamgcina <no-speech> noku- <no-speech> mthinta nje emoyeni hayi angisamazi <no-speech> naye kade wagcina ukungithinta emoyeni
[586.965]
<no-speech>
[589.935]
kodwa umoya phela onge- umoya ongekho njengoba phela nje singasebenzi umuntu uyantula
[595.205]
<no-speech>
[599.585]
<no-speech>
[599.965]
<no-speech>
[601.945]
hayi kodwa ke phela izinto mayihlangana hayi
[605.135]
<no-speech>
[606.055]
sokhona ukuthi simuthinte sike simvakashele lapho akhona <no-speech> uyazi angithi
[610.985]
<no-speech>
[615.715]
konje wathi kungakuyo lendawo engikuyona
[618.055]
<no-speech>
[623.975]
hayi kulungile we- weMxolisi kuzolunga <no-speech> kodwa wazi ukuthi phela nami uma unenkinga injobo enhle ithungelwa ebandla
[632.085]
<no-speech>
[641.205]
<no-speech>
[643.805]
<no-speech>
[645.235]
<no-speech>
[647.475]
<no-speech>
[648.435]
