[0.000]
<no-speech>
[2.165]
<no-speech>
[3.395]
<sta> hello
[8.465]
<no-speech>
[9.925]
<sta> hello <no-speech> ehhe ngiyakuzwa
[15.925]
<no-speech>
[17.405]
ngiyakuzwa
[18.475]
<no-speech>
[22.195]
<no-speech> <sta> (())
[27.205]
<no-speech>
[28.055]
<sta> ehhe ngizamile ukuthi nguwuthenge (())
[30.985]
<no-speech>
[32.125]
<no-speech> <sta> uzwe kanjani
[33.865]
<no-speech>
[34.915]
<sta> (())
[35.895]
<no-speech>
[38.145]
<no-speech>
[39.555]
<no-speech>
[40.775]
<no-speech>
[41.245]
<no-speech>
[43.845]
<sta> ehhe
[44.965]
<no-speech>
[45.855]
<no-speech> <int> ngiya sengiyakuzwa ke
[49.385]
<no-speech>
[51.015]
ehhe
[51.625]
<no-speech>
[52.805]
<no-speech>
[53.195]
<no-speech>
[55.075]
(())
[56.345]
<no-speech>
[57.685]
<no-speech> <sta> (())
[58.805]
<no-speech>
[66.390]
<no-speech>
[73.975]
<no-speech>
[74.435]
<no-speech>
[78.455]
ehhe ya
[79.125]
<no-speech>
[80.255]
<sta> (())
[81.205]
<no-speech>
[82.465]
(())
[83.645]
<no-speech>
[84.705]
ngila ehholo
[85.725]
<no-speech>
[87.575]
uyezwa
[88.085]
<no-speech>
[90.845]
uhuh ngiyakuzwa
[91.965]
<no-speech>
[99.955]
hawu sorry buyes- buyesingazwani ngithi ngizamile ukuphesha
[103.175]
<no-speech>
[105.435]
<no-speech> <sta> ehhe kupeshekile laphaya nala ngigcobe u- ukhona umuthi engiwutholile ugco- sisi uyasibuyisa isilonda
[110.525]
<no-speech>
[112.305]
le lekho- uyenze kanjani pho lecall
[115.225]
<no-speech>
[120.805]
ehhe
[121.325]
<no-speech>
[126.065]
hayi ngizombona ngoLwesihlanu
[127.755]
<no-speech>
[129.595]
ehhe ngizombona ngoLwesihlanu
[131.825]
<no-speech>
[132.775]
kuthiwa ubuya late kulezi izinsuku kungcono
[134.695]
<no-speech>
[135.615]
ubuya late kulezinsuku kungcono ngoLwesihlanu ehhe
[138.525]
<no-speech>
[139.895]
<hes> bathi bathi
[141.325]
<no-speech>
[142.155]
<no-speech> bathi kungco- bathi kungcono ngoLwesihlanu
[145.415]
<no-speech>
[146.845]
<no-speech> bathi uyashesha ukubuya ngoLwesihlanu
[150.765]
<no-speech>
[153.095]
yezwa
[153.625]
<no-speech>
[156.415]
(())
[157.095]
<no-speech>
[159.305]
<no-speech> cha ngithi mina uSya kuthiwa ushesha ukubuya ngoLwesihlanu hayi mina
[163.505]
<no-speech>
[170.225]
cha kuthiwa uyashesha ukubuya ngoLwesihlanu hayi ukuthi mina ngithi ngizoza ngoLwesihlanu
[174.545]
<no-speech>
[176.405]
ehhe <sta> u- ukephi pho wena (()) khona
[178.595]
<no-speech>
[179.955]
ukephi wena
[180.765]
<no-speech>
[182.105]
(()) <no-speech> (())
[183.955]
<no-speech>
[185.355]
ohho <no-speech> <sta> hayi okay sikhokha hayi ngifu- (()) nami lecall yakho ehhe
[190.045]
<no-speech>
[195.465]
<no-speech>
[195.865]
<no-speech>
[197.555]
<no-speech> <sta> <breath> ahha phela uzosihl- uzosihlisela yabona bafo
[201.955]
<no-speech>
[205.275]
uhamba noba
[206.355]
<no-speech>
[211.465]
ya okay uhamba noba pho
[213.805]
<no-speech>
[217.115]
unamanga awuhambi wedwa wena
[218.735]
<no-speech>
[222.895]
<no-speech>
[225.145]
<no-speech>
[226.265]
ukuthi
[226.985]
<no-speech>
[232.555]
<no-speech>
[232.955]
<no-speech>
[234.395]
hawu kahle bo mfwethu ngobe ngenzeni ke <laugh>
[238.335]
<no-speech>
[239.935]
<no-speech>
[240.305]
<no-speech>
[243.575]
<no-speech>
[244.055]
<no-speech>
[246.185]
ehhe
[246.715]
<no-speech>
[249.495]
hawu kanti unamehlo asheshayo <laugh> amehlo akho ayagijima <no-speech>
[260.635]
<no-speech>
[263.675]
<no-speech>
[264.985]
ehhe
[265.475]
<no-speech>
[266.945]
okay okay <no-speech> <laugh>
[271.545]
<no-speech>
[273.405]
<no-speech>
[273.905]
<no-speech>
[275.875]
<no-speech> <sta> uno- unothe <no-speech>
[280.605]
<no-speech>
[281.005]
<no-speech>
[282.005]
ehhe
[282.545]
<no-speech>
[285.165]
mmhm
[285.715]
<no-speech>
[286.515]
hawu okay ya ngizomtshela
[288.385]
<no-speech>
[290.135]
<no-speech>
[290.545]
<no-speech>
[294.105]
<sta> uhuh <no-speech>
[300.075]
<no-speech>
[302.235]
ya <no-speech>
[304.165]
<no-speech>
[305.115]
awunginikeze inamba yakho <no-speech> awumunikeze awumni- unayo inamba yakhe
[308.185]
<no-speech>
[311.765]
<sta> a- yabo nje inkinga (()) <no-speech> iphone
[316.665]
<no-speech>
[319.475]
<sta> (())
[320.355]
<no-speech>
[322.235]
okay ayikho ke inkinga yabo
[324.135]
<no-speech>
[325.015]
mangabe nginayo nje
[326.265]
<no-speech>
[327.705]
ehhe mengi- <no-speech> mengi- nayo khululeka
[330.395]
<no-speech>
[331.485]
<no-speech> mengi- naye ngoLwesihlanu ngizokukhulumisa nawe
[337.665]
<no-speech>
[338.685]
<no-speech>
[340.425]
<no-speech>
[343.235]
<no-speech> <sta> hayi okay <no-speech> ehhe <no-speech> mmhm <no-speech> hayi khululeka ubala lolo ngizomutshela ukuthi hayi uthe ufuna ukumbiza
[354.705]
<no-speech>
[356.905]
<no-speech>
[357.935]
ahha uwe- uwena lo
[360.345]
<no-speech>
[362.745]
<sta> uhuh <no-speech> ehhe
[369.465]
<no-speech>
[371.465]
<no-speech> <sta> (())
[372.555]
<no-speech>
[373.395]
<no-speech> <sta> ehhe
[376.605]
<no-speech>
[377.505]
<sta> hawu ubala lolo <no-speech> sure sikhokho
[380.305]
<no-speech>
[381.905]
<no-speech> <sta> ehhe <no-speech> <laugh> <no-speech> hayi okay <no-speech> <laugh> sure <laugh>
[393.495]
<sta> ahha ngeke ngiluvale leli ngingalivala kanjani <laugh> <breath> <no-speech>
[398.505]
<no-speech>
[400.015]
ehhe
[400.585]
<no-speech>
[401.595]
<sta> <no-speech> hayi <no-speech> hayi ngizomtshela mfwethu <no-speech> ehhe <no-speech> <hes>
[413.475]
<sta> <no-speech> hayi ngizomtshena ke ukuthi uthe uthe <no-speech> uthe ufuna ukukhuluma naye ufuna ukuxolisa <no-speech> ngimtshenu uthe ufuna ukuxolisa ufuna ukukhuluma naye <no-speech> ehhe
[424.815]
<sta> <no-speech> hayi (()) <no-speech> hayi okay ngizomtshela ke ukuthi manje akakabuyi ubuya late <no-speech> kodwa <no-speech>
[434.875]
<no-speech>
[440.385]
<no-speech>
[441.435]
<sta> ehhe
[442.065]
<no-speech>
[443.105]
<sta> hayi <no-speech> a- (()) hayi ngizomtshela ke <no-speech> ngizomtshela ukuthi uthe ufuna uk- <no-speech> ehhe
[451.595]
<no-speech>
[452.635]
<sta> <no-speech> awuzwakali mfwethu
[455.445]
<no-speech>
[457.915]
<sta> ukuthi uthe ufuna ukumbona kabi kabi ufuna ukuxoxa naye <no-speech>
[465.135]
<no-speech>
[465.985]
ehhe
[466.835]
<no-speech>
[467.655]
<no-speech>
[468.325]
<no-speech>
[470.495]
(())
[471.525]
<no-speech>
[472.545]
<sta> hawu ngizokwehla naye ngi- <breath> <no-speech> hawu okay
[476.995]
<no-speech>
[480.585]
uh bye bye
[481.645]
<no-speech>
[483.705]
hayi okay sho
[485.175]
<no-speech>
[486.635]
<int> <sta> <no-speech> uMatho
[489.195]
<no-speech>
[490.105]
<no-speech> <sta> ehhe <no-speech> <laugh> ima yazi yini indaba (()) <sta> ufuna ng- ufuna ngimshuthele ingane la ngaphakathi ehholo <no-speech> ngiyashutha la ehholo <no-speech> ehhe uhuh
[511.635]
<sta> (()) <sta> (()) ngingayivali okay
[523.505]
<no-speech> <sta> okay <no-speech> imake (()) hold ke awuliholde kancane ucingo <no-speech>
[531.135]
<no-speech>
[534.475]
<no-speech>
[534.865]
<no-speech>
[536.455]
<no-speech>
[536.825]
<no-speech>
[538.435]
<no-speech>
[538.805]
<no-speech>
[539.615]
<no-speech>
[547.235]
<no-speech>
[554.545]
(())
[555.235]
<no-speech>
[560.215]
<no-speech>
[561.545]
<no-speech>
[565.095]
<no-speech>
[569.455]
<no-speech>
[571.565]
<no-speech>
[573.245]
<no-speech>
[574.415]
<no-speech>
[579.655]
<no-speech>
[581.305]
<no-speech>
[581.705]
<no-speech>
[583.295]
<no-speech>
[584.785]
<no-speech>
[588.225]
<sta> <no-speech> hello <no-speech> hello
[599.845]
<no-speech>
[600.340]
