[0.000]
<no-speech>
[1.475]
<no-speech>
[2.315]
<no-speech>
[3.125]
hello
[3.945]
<no-speech>
[6.805]
kunjani darling
[7.875]
<no-speech>
[11.015]
sikhona we darling kuhamba kanjani emsebenzini
[14.235]
<no-speech>
[15.315]
<no-speech>
[15.695]
<no-speech>
[19.105]
<int> okay uZodwa usebuyile yini
[21.505]
<no-speech>
[22.545]
<breath> uZodwa usebuyile
[23.835]
<no-speech>
[25.005]
mmhm
[25.585]
<no-speech>
[31.725]
ubani ombambelile manje
[33.375]
<no-speech>
[44.755]
hayi phela uJohanna ubebambele mina u- ehhe
[47.355]
<no-speech>
[51.415]
ohho oh
[53.335]
<no-speech>
[61.335]
ehhe oh dali
[62.935]
<no-speech>
[67.995]
unamanga
[68.965]
<no-speech>
[71.165]
ahha unjani kodwa uBheki yena
[73.375]
<no-speech>
[79.475]
ngi julukiswa yini
[80.695]
<no-speech>
[82.315]
ngi julukiswa yini
[83.445]
<no-speech>
[88.535]
unamanga
[89.645]
<no-speech>
[91.035]
ahha
[92.065]
<no-speech>
[95.015]
kunjani ukugqathuka kodwa dali wami
[96.975]
<no-speech>
[99.635]
unamacala
[100.665]
<no-speech>
[104.825]
unamanga oh
[106.245]
<no-speech>
[113.925]
inhliziyo incane phela uyazi uma ugula inhliziyo iba ncane
[116.675]
<no-speech>
[122.820]
<no-speech>
[128.965]
unamanga
[130.275]
<no-speech>
[138.325]
ehhe
[139.155]
<no-speech>
[144.865]
unamanga oh
[146.375]
<no-speech>
[154.295]
yo
[154.755]
<no-speech>
[157.075]
hawu wema hayi yaziwe oh <hes> yaziwe Theza uyazi ukugula kunale medication ayidlayo
[165.365]
<no-speech>
[166.465]
uyazi imedication phela ithatha amehlo iwabeke engqondweni <laugh>
[171.725]
<no-speech>
[174.865]
ehhe
[175.315]
<no-speech>
[177.285]
hawu wema
[178.285]
<no-speech>
[182.395]
<hes> u- u- uyasangana phela fanele nimnikeni mmhm manjena kena uthole iskhathi esingakanani se leave ke yena ke
[188.305]
<no-speech>
[196.740]
<no-speech>
[205.175]
nkosi yami
[206.255]
<no-speech>
[208.895]
uyaphi emsebenzini egula
[211.955]
<no-speech>
[214.795]
unamanga
[215.785]
<no-speech>
[220.445]
ayimulethi ngani wona ngempela ke <no-speech> ayimulethi ngani ngempela oh
[224.885]
<no-speech>
[231.675]
we (())
[233.075]
<no-speech>
[234.955]
ehhe <no-speech> uhambe noba pho dali
[237.875]
<no-speech>
[240.555]
ehhe
[241.175]
<no-speech>
[252.345]
we oh
[253.065]
<no-speech>
[258.005]
uyabo ukuthi uphazakamisekile emqondweni kodwa we we uThabo
[260.645]
<no-speech>
[263.035]
liphi ikhehla elinye ke
[264.475]
<no-speech>
[272.025]
seliyasaba ekhaya phela lizothethiswa ekhaya <laugh>
[276.215]
<no-speech>
[277.085]
<laugh> phela usazothethiswa liphi elinye ikhehla liphi leli elinye ikhehla lona
[283.195]
<no-speech>
[292.715]
iyaya
[293.745]
<no-speech>
[294.795]
ethengela bani
[295.785]
<no-speech>
[298.305]
ngiyothengela bani
[299.285]
<no-speech>
[302.435]
imali laliyithathephi we oh
[304.185]
<no-speech>
[308.365]
ya
[309.085]
<no-speech>
[310.155]
mmhm
[310.655]
<no-speech>
[311.515]
mmhm
[312.205]
<no-speech>
[314.355]
mmhm
[315.085]
<no-speech>
[316.715]
mmhm
[317.505]
<no-speech>
[319.255]
mmhm ya
[321.075]
<no-speech>
[322.655]
mmhm
[323.025]
<no-speech>
[326.275]
mmhm
[326.935]
<no-speech>
[328.325]
<laugh> iya
[337.595]
<no-speech>
[340.405]
ehhe
[341.335]
<no-speech>
[342.805]
mmhm
[343.315]
<no-speech>
[345.885]
<no-speech>
[346.345]
<no-speech>
[351.295]
iya <no-speech> hayi <no-speech> lwaze lwalukhulu uthando lwabo bo
[355.505]
<no-speech>
[366.065]
<no-speech>
[369.385]
<no-speech>
[370.785]
unamanga
[371.945]
<no-speech>
[373.145]
hayi bo
[373.755]
<no-speech>
[380.355]
unamanga bo
[381.905]
<no-speech>
[386.665]
<laugh> kodwa ubungayiboni ngani ukuthi <no-speech>
[400.265]
ehhe
[401.085]
<no-speech>
[410.845]
<no-speech>
[411.735]
<no-speech>
[412.725]
<no-speech>
[414.035]
<no-speech>
[419.485]
<no-speech>
[423.095]
<no-speech>
[427.355]
ehhe <laugh> wajabula wafa
[431.365]
<no-speech>
[432.175]
kodwa wema
[433.095]
<no-speech>
[434.195]
kahle we o ave nginikhumbule uMo kodwa unenzile kodwa uMo we o
[437.765]
<no-speech>
[448.795]
<no-speech>
[449.365]
<no-speech>
[453.215]
we ahha oh eyakhe intombazane ke
[456.715]
<no-speech>
[465.195]
<no-speech>
[473.675]
(())
[474.145]
<no-speech>
[477.545]
fanele kwa- kwa- kwa- kwakufanele ukube nemeeting yawo wonke umuntu phela (()) ugrade R wona ke nawo futhi
[484.065]
<no-speech>
[486.815]
hayi ungayisho leyonto
[488.135]
<no-speech>
[494.335]
<no-speech>
[500.535]
ahha (()) uyabona ukuthi kuwrong yonke lento o
[504.805]
<no-speech>
[509.035]
inini konje ilentuza yakhona inext week
[511.825]
<no-speech>
[520.335]
ahha <no-speech> cha leyo mali iyophumaphi nje we (()) leyo mali iyophumaphi kodwa we o
[527.315]
<no-speech>
[532.155]
uyazi ukuba ukuba banefair bekufanele ubathathe enye ingxenye ubakhokhela bonke othisha uyayibona lonto bese kuthi ende ke
[539.735]
<no-speech>
[548.195]
igoverning body izobe ikhona yini yona
[550.215]
<no-speech>
[558.035]
ahha abayikhokhele bona phela angithi kuvaleliswa uthisha mkhulu wabo
[562.995]
<no-speech>
[569.945]
we
[572.045]
<no-speech>
[574.235]
weh kukhona loyana (()) loyana
[577.955]
<no-speech>
[579.875]
konje ubani ehhe
[582.645]
<no-speech>
[583.615]
we
[584.735]
<no-speech>
[585.665]
wema
[588.925]
<no-speech>
[590.015]
<no-speech>
[590.625]
<no-speech>
[592.905]
<hes> <no-speech> hawu bandla ungene nini dali
[595.945]
<no-speech>
[600.020]
