[0.000]
<no-speech>
[11.445]
<no-speech> <sta> hello
[14.275]
<no-speech>
[16.205]
<sta> hello yebu unjani <no-speech> ya <no-speech> uphumaphi
[25.585]
<no-speech>
[27.385]
<no-speech> <sta> cha nomzimba <no-speech>
[31.205]
<no-speech>
[32.545]
<sta> pho wathe ekhaya
[34.295]
<no-speech>
[35.325]
<no-speech>
[35.965]
<no-speech>
[37.565]
<no-speech> <sta> (()) kini
[38.855]
<no-speech>
[42.205]
<sta> ya kumele u- (()) uma ukini ukini <no-speech> uma usemzini usemzini phela (()) ihlukene <no-speech>
[48.995]
<no-speech>
[49.905]
<sta> ngithi mina uma ukini ukini mosemzini usemzini leyonto ihlukene <no-speech> <int> <int> ngoba lapho
[57.235]
<no-speech>
[58.935]
<sta> ehhe
[61.935]
<no-speech>
[63.905]
<sta> ehhe ngob- ngoba lapho khonu umuntu nje okuzalayo lapho <no-speech> ukhona yini
[73.935]
<no-speech> <sta> (()) <no-speech>
[78.045]
<no-speech>
[78.955]
<sta> <no-speech> <int> ekaba
[82.695]
<no-speech>
[86.335]
<no-speech> <sta> hayi lapho <no-speech> la okwa- okwazi khona (())
[91.675]
<no-speech>
[92.695]
ehhe ngisho wena impela <sta> <int> <int> phela awukwazi ukuba namakhaya awuthousand uwedwa
[97.065]
<no-speech>
[98.335]
<no-speech>
[99.895]
<no-speech>
[101.385]
<sta> awukwazi ukuba namakhaya awuthousand uwedwa
[104.995]
<no-speech>
[108.855]
<no-speech>
[109.445]
<no-speech>
[110.255]
<sta> memabili kusuke <int> sekwenze njani
[113.785]
<no-speech>
[114.945]
<sta> mese mabili amakhaya kusuke sekwenze njani
[118.755]
<no-speech>
[124.655]
<no-speech> <sta> kanti imaphi la okuthiwa ikwami khona
[130.755]
<no-speech>
[136.305]
<no-speech>
[136.705]
<no-speech>
[138.015]
<no-speech> <sta> oh i- oh kuqala ukube isekhaya ukube ise- <no-speech> kuqala ukube isekhaya kuqala mase kubuye ukujika futhi kuthiwa ikwami <no-speech>
[146.945]
<no-speech>
[149.435]
<sta> <hes> kuqale lini ukuthi ikwami
[151.965]
<no-speech>
[153.655]
<no-speech>
[154.135]
<no-speech>
[157.135]
<sta> ohho <sta> <hes> akuqali ngesikhathi unomuzi wakho kuqale ngesikhathi usushadile <sta>
[164.155]
<no-speech>
[165.955]
<sta> <hes> mese uthi ikwami ke angithi
[169.365]
<no-speech>
[174.195]
<sta> <hes> <int> e <no-speech> uzobona umu- umshadile <no-speech> kuthiwa isemzini <no-speech> uhlale khona uhlalu uhlale uhlale khona
[185.565]
<sta> kushu- (()) wakhe umuzi wakho <no-speech> mase wakhe umuzi wakho ke sekuyikwakho ke lapho <no-speech> kwangempela <no-speech> yabo ila ila ila oyofela khona
[195.585]
<no-speech>
[196.965]
<sta> yabo
[198.065]
<no-speech>
[202.515]
<no-speech>
[202.895]
<no-speech>
[207.915]
<no-speech>
[208.265]
<no-speech>
[214.045]
<no-speech> <sta> mesifile indoda kwenziwa njani
[217.635]
<no-speech>
[221.015]
<sta> ingxabano
[223.595]
<no-speech>
[225.765]
<sta> zingasekho
[226.995]
<no-speech>
[229.085]
<no-speech>
[229.485]
<no-speech>
[230.415]
<sta> <no-speech> ohho umuntu wesifazane <hes> akakwazi ukuthi athi <hes> ikwami lana <int>
[239.505]
<no-speech>
[250.055]
<no-speech>
[250.825]
<no-speech>
[255.975]
<sta> ya
[256.825]
<no-speech>
[257.655]
<sta> ehhe ngiyavuma mina ngiya- ngiyavuma wakhu umuzi umuzi othe- othe- umzu owakhile okwababa wakho <no-speech> yabo u- u- lo- (()) <no-speech>
[270.695]
<no-speech>
[271.305]
<no-speech>
[274.785]
<no-speech> <sta> (())
[276.685]
<no-speech>
[278.455]
<sta> imake <no-speech> kanti umuntu wesifazane yena <no-speech> umuntu wesifazane vele ubaluleke ngani ekwakheni ko- ekwakhiweni komuzi no- no- nokuba nomuzi ke nje <no-speech> u- u- u- iliphi icala
[290.205]
<sta> <hes> iliphi iqhaza alibamba- alibambayo lapho
[294.255]
<no-speech>
[295.265]
<no-speech>
[296.105]
<no-speech>
[300.335]
<sta> <no-speech> shuthi umuzi wakhe ke
[303.815]
<no-speech>
[306.515]
<no-speech>
[306.865]
<no-speech>
[309.835]
<no-speech>
[310.225]
<no-speech>
[311.575]
<sta> akubi owesifazane
[312.615]
<no-speech>
[315.275]
<no-speech>
[316.025]
<no-speech>
[318.215]
<sta> uthi ikwami
[319.115]
<no-speech>
[321.845]
<sta> imake shuthi mina nje naye njengoba nawe <hes> uhlala kwa- uhlale emzini nje mawunga suwakhu umuzi wakho <no-speech> usuqedile ukwakha mese kuphuma umamezala athi umamezala ikwami la
[332.125]
<no-speech>
[333.495]
<int> uyakwamukela lokho <sta>
[336.035]
<no-speech>
[337.425]
<no-speech>
[337.815]
<no-speech>
[338.695]
<no-speech> <sta> imake (())
[341.065]
<no-speech>
[342.495]
<sta> ima angithi ubabezala <no-speech> uba- ubabezala (()) umamezala angithi <no-speech>
[348.815]
<no-speech>
[350.365]
<sta> okusho- o- o- o- okhuluma nobabezala <no-speech> <int> okhuluma nomamezala
[355.595]
<no-speech>
[359.075]
<sta> (()) <no-speech> (())
[363.505]
<no-speech>
[366.345]
ima- imake <sta> <hes> mawakho u- umuzi wakho wena lo- lo- othi uyokwakha khona uyokwakha endaweni kababezala angithi
[374.565]
<no-speech>
[378.925]
(()) uhuh hha- hayi yamamezala <no-speech>
[383.245]
<no-speech>
[384.565]
<no-speech>
[384.945]
<no-speech>
[385.885]
hello
[386.445]
<no-speech>
[390.365]
<no-speech>
[390.775]
<no-speech>
[392.235]
<no-speech>
[392.625]
<no-speech>
[393.765]
<sta> okusho umfana angithi
[396.605]
<no-speech>
[398.575]
<sta> u- u- a- ang- <no-speech> angithi uyazi wena (()) ukuthi umuzi kababa lo
[403.385]
<no-speech>
[405.675]
angithi uyazi leyonto usuke eyishiso yini methi <sta> umuzi kababa lo <int>
[408.135]
<no-speech>
[410.935]
uyashiswa yini
[411.895]
<no-speech>
[413.305]
<no-speech>
[414.335]
<no-speech>
[418.045]
ya
[418.785]
<no-speech>
[427.045]
ehhe kofika usuku <sta>
[430.175]
<no-speech>
[434.265]
<no-speech>
[434.675]
<no-speech>
[436.515]
(())
[437.095]
<no-speech>
[441.755]
<sta> ya khuphe hayi nomama kunjalo naye sekuwumuzi wakhe lo kuphela ukuthi khona inte engingakwa- kho- khona izinto angakwazi ukuzenza laphekhaya kumele zenziwe ubaba walapha ekhaya <int> yabo
[453.635]
<sta> <hes> njengokushisa impepho nje (()) kumele ishiswe <hes> ubaba walapha ekhaya yabo <hes> <int> mengasekho kwamele ishiswe indodana yakhe le ezalelwa umama lo
[465.395]
<sta> <hes> othi ikwakhe la <no-speech>
[467.945]
<no-speech>
[469.515]
<sta> kodwa nawe (()) <no-speech>
[473.785]
<no-speech>
[474.275]
<no-speech>
[479.615]
cha <hes> uNelungelo uphethu umuzi wakhe <sta> phela khona inte <hes> <int> angakwazi ukuyilawula eyibheke kumina
[485.075]
<no-speech>
[486.235]
<sta> ehhe <hes> enzelwayo zona <no-speech> <int>
[490.115]
<no-speech>
[491.225]
<sta> (()) <int>
[494.695]
<no-speech>
[496.905]
<no-speech>
[497.255]
<no-speech>
[498.925]
<sta> ohho kodwa kodwa angithi mangabe <hes> esehlala kwakhe endlini yanga- sendle akazazi ukutho- ukuthombelelisa ama- <hes> abantu besilisa kodwa mese- (()) <sta> masese kum- masese kumi indodana yakhe <no-speech> uyithoma zonke iylimu
[514.335]
<no-speech>
[515.445]
<sta> yabo futhi (())
[518.035]
<no-speech>
[518.905]
<sta> ngithi ubuye Sbele uyakwazi abuye asibeke emzini wendodana yakhe <no-speech> kuphela akakwazi ukungene esibayeni emzini welokhuzana <no-speech> emzini lawegane khona
[528.155]
<no-speech>
[529.145]
<sta> (())
[530.255]
<no-speech>
[532.005]
<no-speech>
[532.395]
<no-speech>
[534.275]
<sta> <no-speech> cha phela ngeke kuphele ngoba <no-speech> <hes> isiko isiko kuyophela (()) <int>
[545.375]
<no-speech>
[547.695]
<no-speech>
[549.045]
<no-speech>
[549.915]
<sta> kanjani <no-speech> <int>
[553.975]
<no-speech>
[555.905]
<no-speech>
[557.165]
<no-speech>
[557.995]
<sta> <hes> khona lapho (()) ukuthi awunikwa wonke <int> amalungelo
[562.085]
<no-speech>
[567.025]
ehhe <sta>
[568.455]
<no-speech>
[571.125]
<sta> ehhe kodwa <hes> ngaphandle mangabe ube nenhlanhla uNkulunkulu wakugcina <no-speech> ingane <hes> ethi khulu kuwena
[579.905]
<no-speech>
[580.825]
ethi khulu kuwena yagcina <hes> <sta> yakha umuzi usaphila <int> uyakwazi ke ukuthi khona wenze umathanda ke khona kodwa kuphela awukwazi nakhona (())
[590.565]
<no-speech>
[592.755]
ehhe <sta> awukwazi na- nakhona kuyafana awukwazi ukushisi impepho nakhona uya- uya- kuyoze kuphumile idlwe- ugcine sekuguliwe khona (()) ~
[600.020]
