[0.000]
<no-speech>
[1.825]
<int> ya sengiphrese one
[4.295]
<no-speech>
[6.225]
hayi yonke into usuyangizwa ke manje
[8.855]
<no-speech>
[11.355]
hayi manje yini ngicela (())
[13.145]
<no-speech>
[14.625]
ahha akufani mfwethu hayi mfwethu indlela kade (()) lingigqilazile lingigqilazile (())
[20.385]
<no-speech>
[21.925]
ahha <sta> mfwethu hayi bakhona (()) <int>
[24.665]
<no-speech>
[25.995]
mmhm hawu ehhe mfwethu uWele cabanga kade ethi uzama ukungifonele namhlanje hayi kwasho ukuthi ngiyabhala <no-speech> cabanga ulo u-Aphiya
[32.395]
<no-speech>
[38.015]
mmhm mfwethu nami bangithintile shuthi ngiyacabanga nabo bebefuna ukungitshela leyonto leyo mhlampe angsazi (())
[44.145]
<no-speech>
[48.255]
hayi cabanga uyazi ukuthi uyena muntu mfwethu o- ongilokhuzelayo lona <int> umuntu okufanele ngimfonele cabanga
[54.345]
<no-speech>
[55.645]
(()) <int> hayi mfwethu (())
[62.385]
<no-speech>
[64.685]
<sta> lalela mfwethu (())
[66.485]
<no-speech>
[67.415]
<sta> ulokhu (())
[68.145]
<no-speech>
[69.185]
nangu utwelve rand <sta> wakho ke
[71.255]
<no-speech>
[73.625]
ehhe lo <int> twelve rand wakho (())
[75.905]
<no-speech>
[79.675]
<sta> yazi ukuthini
[81.045]
<no-speech>
[82.115]
(())
[82.725]
<no-speech>
[84.105]
ehhe <sta> umutshele phela lapho mfwethu alokhuze utwo
[87.055]
<no-speech>
[88.065]
uthi <sta> ungena vele (())
[89.955]
<no-speech>
[91.945]
uhuh i- iyo iyona ekhathayo iyona ekhathayo manje mfwethu kunini ngithi (()) kancane iyakhathela
[98.065]
<no-speech>
[99.515]
ehhe kodwa hayi ukukhatha nje kodwa kakhulu inethiwekhi ngiyacabanga yilomoya ola ngaphandle
[104.105]
<no-speech>
[108.245]
ngisho kona ukuthi yiwona lomoya ongaphandle <sta> lo khathisayo iphone
[111.795]
<no-speech>
[113.065]
<sta> <no-speech> hawu lalela tshela u-anti uThandi lapho mfwethu <sta> alokhuze uTho- uThoko ngizomnikeza imali phela ulaka mina
[121.895]
<no-speech>
[125.525]
mmhm <sta> isikhathi sithini lapho sihambe kangakanani isikhathi <no-speech> eyi
[132.145]
<no-speech>
[134.705]
<laugh> (()) ilokhu ngimemeza <laugh> uyagula
[139.625]
<no-speech>
[142.755]
<lipsmack> <laugh> yazi mfwethu hayi wo yazi yini
[147.435]
<no-speech>
[148.585]
eyi <no-speech>
[149.905]
<int> ayikaze ifike laphana nazo ke uyabo manje isiyabreaka ke manje usangizwa (()) <no-speech>
[158.765]
(()) <sta> laphana ngithe mengifika mina ku- kufike itekisi ehambela isiteshi lo mjita lo ohlala ngala opposite ubani uMzi
[165.155]
<no-speech>
[167.565]
<sta> uyamubo uMzi lo odriver amatekisi esiteshi udriver isiteshi angazi noma ubeza kuwena noma beze kuKhanyo ngoba ufike wangenisa nje (()) laphayana
[176.805]
<no-speech>
[179.465]
uyabona <sta> isiyakhatha (()) ehhe
[181.785]
<no-speech>
[184.835]
<sta> iyabreaker ke Mbuso manje
[187.025]
<no-speech>
[189.685]
<sta> iyabreaker ngicabanga ukuthi yilomoya ngoba uzangaphandle
[193.955]
<no-speech>
[194.785]
<no-speech>
[195.165]
<no-speech>
[196.195]
hayi bo yini ubuza
[197.705]
<no-speech>
[201.165]
ahha
[201.655]
<no-speech>
[205.865]
cha uhamba ubehamba ngetaxi lo mjita lona itekisi le yesiteshi mani e- emhlophe <no-speech> itekisi emhlophe yini <int> yini lezi lamataxi obani inyathi noma yini
[214.895]
<no-speech>
[216.055]
(())
[216.655]
<no-speech>
[217.635]
<no-speech>
[218.305]
<no-speech>
[219.295]
mmhm <sta> cha ukuthi ngimbone kuqala u- ushaya isiteshi futhi lo mjita hayi ngize ngaxakeka ukuthi mina
[225.575]
<no-speech>
[226.675]
<no-speech> <sta> <int> (()) eyi mfwethu cabanga ihamba kancane ihamba (()) <sta> ngeke ngize ngiqede la <int>
[240.525]
<no-speech>
[244.365]
hayi mfowethu cabanga wena ufa yi- (())
[246.375]
<no-speech>
[247.345]
hayi kuyoshaya ufive minutes Mlu
[249.555]
<no-speech>
[252.915]
mmhm hayi kodwa kungcono phela bafuna ukubona ukuthi mhlambe (()) vele inethiwekhi angithi
[257.885]
<no-speech>
[261.655]
<sta> awubheke ke ukube mhlawumbe ethi listi ufonele uSandile ngabe ukhulume hayi kodwa naye uSandile ubezomane a try ihookup yo yo <int>
[269.575]
<no-speech>
[273.305]
<sta> <int> ubezomane azenzele
[277.045]
<no-speech>
[280.335]
eyi cabanga ubuzokhuluma nabo <sta> beshintshisane ubatshele bashintshisane ngephone
[284.655]
<no-speech>
[288.385]
ehhe <laugh> (()) <int> nini izolo
[291.575]
<no-speech>
[293.775]
<sta> (()) angithi uthi besithe sizothi (())
[299.185]
<no-speech>
[302.195]
<no-speech> <sta> (())
[304.025]
<no-speech>
[308.495]
(()) <int> <int> umbonile uThami ekuseni
[310.805]
<no-speech>
[312.825]
ubekade esetekisini uThami
[314.545]
<no-speech>
[318.005]
<no-speech>
[318.395]
<no-speech>
[319.225]
<sta> mmhm (())
[321.045]
<no-speech>
[323.805]
<lipsmack> hayi kodwa mfwethu (()) <sta> (()) uyabona namhlanje ngiwabhalile amasimba uyezwa
[332.075]
<no-speech>
[333.755]
<no-speech>
[334.375]
<no-speech>
[335.655]
(()) <sta> <no-speech> (()) eyi ayipheli inyanga (())
[344.895]
<no-speech>
[348.305]
ingabanga kuthiwa wusix minutes nje mfwethu <int> cabanga esihambile
[351.865]
<no-speech>
[352.845]
(())
[353.665]
<no-speech>
[355.035]
<sta> (()) angikuzwa iyakhatha ke ke
[358.435]
<no-speech>
[359.435]
ngithi iyakhatha uyabo umoya futhi <sta>
[362.985]
<no-speech>
[365.075]
mina yazi ngibuye ngingakuzwa balithi (()) <sta> (())
[369.625]
<no-speech>
[371.055]
ingaba isakhuluma <no-speech> mmhm hayi uma kuqhamuka umoya kuphela mekuthula futhi at least iyazwakala
[376.545]
<no-speech>
[378.105]
mina kodwa angi- ukuthi kodwa lento yabo angiyi-understandi <sta> lento abathi bayayipromoter mina mfwethu
[382.505]
<no-speech>
[388.945]
uyabona ke isiyabreaka ke ke (()) ngendlela ibreaker ngayo ngathi izomane ithule <int> <sta>
[395.575]
<no-speech>
[396.675]
<sta> serious angisakuzwa <int>
[401.005]
<no-speech>
[402.735]
bheda wena ke (())
[404.615]
<no-speech>
[408.985]
njengoba ngisho angikuzwa <int> shuthi (()) uyakhuluma nje angizwa fokol
[413.625]
<no-speech>
[414.855]
<int> ngizizwela ibrekhela (()) <sta> ehhe
[418.565]
<no-speech>
[419.525]
<no-speech>
[420.715]
<no-speech>
[421.965]
iyabreaker still
[423.145]
<no-speech>
[424.725]
fokol nje hayi
[426.195]
<no-speech>
[428.105]
<no-speech>
[429.855]
<no-speech>
[431.825]
<sta> ohho hayi kodwa hayi sekungconywana
[435.255]
<no-speech>
[437.445]
<sta> mmhm mmhm
[442.675]
<no-speech>
[443.815]
<no-speech>
[444.195]
<no-speech>
[446.205]
uyabona ke manje ke
[447.335]
<no-speech>
[448.405]
break break <sta> break break
[450.075]
<no-speech>
[451.685]
ehhe (()) <no-speech> ngiyaku- ngibuye ngikuzwe kodwa manje uyabo uma ngikuzwa <no-speech> uyabhawunsa iyabouncer ivele ithi khi khe- khe- ke uyabo
[460.245]
<no-speech>
[461.255]
<sta> uVusi unengane
[462.405]
<no-speech>
[465.175]
<sta> still nje mfwethu kusuka njalo (()) angikuzwa kahle (()) <int>
[468.935]
<no-speech>
[472.405]
<sta> ya nazo ke isingconywana ke mina <int> angazi ukuthi (()) <no-speech>
[477.835]
mmhm ngiyacabanga <int> mhlambe yenziwa umoya mfwethu
[480.305]
<no-speech>
[484.415]
mmhm
[485.045]
<no-speech>
[487.225]
<sta> hello hayi ungaze ufake iloud speaker lezinto omutshele ngani ukuthi ungaze ufake iloud speaker (()) akholwe ukuthi lento mfwethu iyenzeka noma ucabanga ukuthi kuyadlalwa
[496.485]
<no-speech>
[499.255]
ngisho yena lowomuntu mfwethu ungazi umufake kuloud speaker ngempela uze <int> umphruvele ukuthi <sta> iyahamba lento hayi ngoba imile
[505.745]
<no-speech>
[507.885]
ahha
[508.435]
<no-speech>
[511.705]
(())
[512.855]
<no-speech>
[515.075]
ubani u- Joe
[516.935]
<no-speech>
[518.075]
bamujikisile hawu wa- <sta> hayi kodwa bekufana na (())
[523.045]
<no-speech>
[524.325]
mmhm <sta>
[527.125]
<no-speech>
[529.075]
hayi <hes> <sta> ukuthi nawe (()) ukuthi uberongi mfwethu (())
[534.815]
<no-speech>
[537.845]
<no-speech>
[538.715]
<no-speech>
[539.775]
uxa- uxakeleni manje <int> lemoto bafuna ukuyibopha mhlambe
[543.105]
<no-speech>
[545.175]
hayi <int> <sta> mhlambe noma mhlambe iyona le awuthi ayishoyo njalo
[549.115]
<no-speech>
[551.565]
kodwa nginesure mfwethu ukuthi uthe (()) <no-speech>
[554.145]
uthe akaboshwanga nje uqamba amanga mhlambe bathi ba- (()) umuntu bagcina ngokumsabisa nje <sta> bemusabisa ngenkulumo kuthiwa hayi ndoda sokubopha nje straight
[562.485]
<no-speech>
[564.325]
<sta> <no-speech> (()) straight or nginamanga
[570.475]
<no-speech>
[572.205]
namhlanje
[573.005]
<no-speech>
[574.945]
<no-speech>
[575.645]
<no-speech>
[577.455]
ithathwe namhlanje we (()) nanku lo ten minutes <sta> uphela
[580.645]
<no-speech>
[581.655]
uyazi
[582.175]
<no-speech>
[584.185]
ngithi nanku <sta> lo ten minutes mfwethu ushaya usudlulile
[587.745]
<no-speech>
[589.205]
<sta> push up ehhe
[592.225]
<no-speech>
[596.565]
<sta> cha bangitshela ukuthi ugqilile mfwethu kodwa nje mfwethu usuhambile
[599.880]
