[0.000]
<int> hello
[1.475]
<cough> <int> sisi Dudu
[3.735]
<no-speech>
[5.065]
hello <sta> ya sisi Dudu ngiyonika ubaba ucingo ungalivali ke uyezwa uzokhuluma nobaba ke nangu ke okay nangu ke
[14.775]
<no-speech>
[18.385]
<int> hello
[19.105]
<no-speech>
[20.905]
hello <no-speech> ubulivalelani <hes> ucingo <sta> ekuqaleni yebo yebo
[26.115]
<no-speech>
[28.015]
unamanga uwena olivalile hawu
[29.985]
<no-speech>
[34.115]
usuzwile ukuthi yini indaba <sta>
[37.165]
<no-speech>
[38.255]
<sta> ehhe bengifuna ukubuza uhambe kanjani izolo
[43.125]
<no-speech>
[46.395]
wathi why
[47.285]
<no-speech>
[50.145]
<int> ehhe
[50.775]
<no-speech>
[55.375]
o kuyabreaka kushuthi funeka ngiphumele emunyango
[57.995]
<no-speech>
[60.575]
<no-speech>
[61.605]
<no-speech>
[62.765]
<int> usuyangizwa manje
[63.905]
<no-speech>
[67.115]
hello uyangizwa
[68.175]
<no-speech>
[71.285]
ohho okay ngizwa uthi uyabreaka ucingo <no-speech>
[75.055]
<no-speech>
[77.385]
okay wenzani lapha ekhaya <int>
[79.065]
<no-speech>
[82.425]
unamahloni <int> hawu mina ngilambile la wena uyadla
[85.265]
<no-speech>
[89.305]
musa ukungihleka mina angiphekelwe umuntu <no-speech> angizwa
[92.285]
<no-speech>
[95.275]
u- uphu ulo omzukulu <int> uphi umzukulu
[99.015]
<no-speech>
[102.315]
<int> uSli ngimbonile nje izolo la
[104.875]
<no-speech>
[108.995]
hayi bo wamshiya noba
[110.235]
<no-speech>
[114.425]
<breath> hawu he abakubo ke kanti thina sabaka- ba
[117.485]
<no-speech>
[118.655]
<no-speech>
[119.045]
<no-speech>
[120.965]
kanti thina sabaka- ba wena owakaba
[122.885]
<no-speech>
[131.095]
akusho lutho <int> phela nami nami ngizalwa umaMKhize layikhaya ugogo wami umaMkhize
[135.905]
<no-speech>
[139.725]
<sta> awusho niphekeni lapho ekhaya
[143.195]
<no-speech>
[146.905]
<int> ehhe
[147.545]
<no-speech>
[150.715]
ngithi niphekeni lapho ekhaya <int>
[152.315]
<no-speech>
[156.315]
yena niphekeni <int>
[157.925]
<no-speech>
[159.085]
hawu <sta> amazambane
[160.565]
<no-speech>
[161.495]
kuza uKhisimusi
[162.455]
<no-speech>
[166.265]
kuza uKhisimusi hayi nenyama <no-speech>
[168.165]
<no-speech>
[172.305]
wo <int> okay <int> okay uzokuza ngala ezansi namhlanje
[176.875]
<no-speech>
[178.105]
<no-speech>
[178.465]
<no-speech>
[181.215]
<int> uma ucabanga ngayikhathi zini
[182.695]
<no-speech>
[186.535]
<sta> ohho okay okay okay ye okay ye hayi liyanetha ke la
[193.445]
<no-speech>
[198.195]
<int> what
[198.755]
<no-speech>
[200.935]
ehhe <int>
[201.525]
<no-speech>
[202.415]
imvula angikwazanga ukuwasha phela
[204.205]
<no-speech>
[206.375]
kodwa uzokuza uzowasha <int>
[207.605]
<no-speech>
[208.855]
<no-speech>
[209.565]
<no-speech>
[211.135]
<sta> uzokuza uzowasha noma ngi- ngiqale ngiqhubekeka
[214.185]
<no-speech>
[218.565]
ehhe <int>
[219.125]
<no-speech>
[222.595]
ngithi awungizwa nje <int>
[224.125]
<no-speech>
[225.505]
kanti wena uhleli kuphi ngihleli endlini
[227.125]
<no-speech>
[228.055]
<int> ehhe
[228.715]
<no-speech>
[229.555]
<no-speech>
[229.905]
<no-speech>
[233.535]
<sta> a- awukho yini uveranda lapha ekhaya
[236.245]
<no-speech>
[242.225]
<laugh> ayikho leyoyinto <sta> khona balapha ekhaya akukho muntu <int>
[245.635]
<no-speech>
[249.955]
lapho kini akukho muntu
[251.385]
<no-speech>
[255.245]
<sta> ohho okay lezi eyincane
[257.425]
<no-speech>
[261.815]
obani labo (())
[263.065]
<no-speech>
[264.235]
Ntuthuko ukhona <int>
[265.195]
<no-speech>
[267.005]
u- ulele
[268.075]
<no-speech>
[270.185]
intombazane ilala emini
[271.295]
<no-speech>
[272.615]
ulele <int>
[273.455]
<no-speech>
[278.425]
ohho hayi okay ngiyezwa <sta> ohho okay kusasa uzoyaphi
[284.185]
<no-speech>
[288.025]
<hes> <int> uLwesibili phela
[289.675]
<no-speech>
[293.695]
ehhe <int>
[294.275]
<no-speech>
[298.495]
awu okay okay yazi namhlamje idate umhlaka ba-
[302.865]
<no-speech>
[308.105]
ngiyabuza <int>
[308.915]
<no-speech>
[310.505]
kusasa umhlaka ba-
[311.495]
<no-speech>
[313.035]
kusasa <int> umhlaka ba- kusasa umhlaka ba- <int>
[315.825]
<no-speech>
[318.455]
umhlaka ba- eighteen
[319.655]
<no-speech>
[322.485]
<int> ukuzalwa mina uzongiphathelani
[324.105]
<no-speech>
[327.645]
awu
[328.245]
<no-speech>
[329.205]
phela ukuzalwa mina kusasa ibirthday yami <int>
[331.875]
<no-speech>
[335.955]
<laugh> ungaletha into engiyithola njalo
[340.445]
<no-speech>
[343.635]
<no-speech>
[344.015]
<no-speech>
[345.665]
hawu <int> bengithi ngizothola mhlambe into eyisimangaliso <int>
[348.875]
<no-speech>
[351.725]
bengithi ngizothola mhlambe into <int> eyisimangaliso
[353.745]
<no-speech>
[357.725]
bengithi ngizothola mhlambe into eyisimangaliso hawu
[359.845]
<no-speech>
[360.645]
ngoba phela yibirthday yami <no-speech> kusasa
[362.695]
<no-speech>
[366.855]
kodwa uzofika namhlanje uzongibusisa
[368.705]
<no-speech>
[371.645]
uzofika namhlanje uzongibusisa uthi bye bye baba ibirthday yakho
[375.325]
<no-speech>
[379.595]
ehhe ngiyabuza <int>
[381.015]
<no-speech>
[389.585]
<sta> <int> eyakhe
[390.215]
<no-speech>
[392.125]
hello
[392.835]
<no-speech>
[394.085]
ya <sta>
[395.085]
<no-speech>
[396.085]
<int> ngilindele wena phela ukuthi uzongitshela uzoza yini kusasa <int> namhlanje
[399.385]
<no-speech>
[402.895]
okay uzongiphathela ini ngifuna ukwazi
[404.855]
<no-speech>
[409.965]
hawu <int>
[410.455]
<no-speech>
[413.295]
<no-speech>
[414.535]
<no-speech>
[415.815]
<breath> hayi bo hayi ukuthi ngiyakuzwa nje thina leligeja lakho lisebenzile namhlanje
[421.545]
<no-speech>
[424.765]
<int> lisebenzile igeja lakho namhlanje
[426.505]
<no-speech>
[430.285]
cha ngiyabuza <laugh>
[432.395]
<no-speech>
[434.825]
noma ubuzama ukuzobheka ukuthi ngikhona yini
[437.025]
<no-speech>
[442.665]
<int> ehhe ngiyabuza
[444.255]
<no-speech>
[448.795]
ukuthi ubuvele uzozama ukuthi ngibheke ukuthi ngikhona likhona ikhehla
[452.985]
<no-speech>
[458.735]
ehhe njengoba uthuma ingane zizofuna igeja
[460.615]
<no-speech>
[466.485]
ya kodwa phela kungangcono ukuthi nawe wenza iyivande la noBhoma
[469.505]
<no-speech>
[471.095]
ngoba buka nje negeja likhona <int> what
[473.955]
<no-speech>
[476.655]
ehhe <int>
[477.245]
<no-speech>
[481.195]
usangizwa nje noma cha <int>
[482.685]
<no-speech>
[484.605]
hello usangizwa nje noma cha
[487.175]
<no-speech>
[489.755]
<int> wenzani lapho
[490.645]
<no-speech>
[492.175]
yini indaba ngoba kuseduzane njengoba kuseduzane yini indaba
[496.185]
<no-speech>
[500.605]
<no-speech>
[502.205]
<no-speech>
[503.335]
kushuthi amawaves <int>
[505.715]
<no-speech>
[507.005]
<int> akezwakali kahle e amawaves <int> umuntu akezwakali <int> kahle <sta>
[511.235]
<no-speech>
[512.385]
<int> lalela ke sisi <sta> lalela ke ufuna ngiphekeni namhlanje
[515.965]
<no-speech>
[518.375]
<no-speech>
[518.775]
<no-speech>
[519.575]
khona inkomo <no-speech> kukhona inkomo <no-speech> khona amasausage khona inkukhu ufuna ngiphekeni
[524.675]
<no-speech>
[528.315]
ya <int> ngidlulile
[529.835]
<no-speech>
[532.845]
angazi kodwa wena ufuna ngiphekeni <int>
[534.585]
<no-speech>
[535.585]
izolo bengipheke ubhontshisi <sta> yebo <no-speech> ngidlulile <int>
[545.355]
<no-speech>
[546.355]
ngidlulile <int>
[548.255]
<no-speech>
[550.995]
manje angazi kufuna <int>
[552.115]
<no-speech>
[553.075]
<int> amakhekhe
[554.285]
<no-speech>
[556.965]
hayi woza sizokhuluma mawusulana hawu
[559.205]
<no-speech>
[563.495]
<int> yini indaba
[564.495]
<no-speech>
[567.395]
ngiyazi ukuthi kade uyodla kade uyodla amakhekhe la kade ukhona
[570.355]
<no-speech>
[576.535]
<laugh> <sta> hayi la kade uyekhona kade uyodla amakhekhe
[580.645]
<no-speech>
[581.595]
<int> kade uyodla amakhekhe la kade ukhona
[583.745]
<no-speech>
[584.695]
kanti ubungawadlanga amakhekhe
[586.035]
<no-speech>
[587.955]
<sta> ohho <no-speech> hayi okay hambo chama laphe emvake <breath> hayi fika ke wena ke ubone phela ukuthi (()) mawungayitholi ke Bandi ibhadi lakho
[597.565]
<no-speech>
[600.020]
