[0.000]
<no-speech>
[11.445]
<no-speech>
[12.385]
<sta> (())
[15.845]
<no-speech>
[17.825]
<no-speech>
[20.525]
<no-speech>
[21.475]
<no-speech>
[24.285]
<no-speech>
[25.755]
<int> hello
[29.285]
<no-speech>
[31.515]
hello
[32.355]
<no-speech>
[34.705]
<no-speech>
[35.055]
<no-speech>
[36.055]
hawu kwangakhuluma muntu eyitha hayi angikuzwanga phela ulokhuza mmhm ehhe hayi zithini lapho
[47.885]
<no-speech>
[49.045]
ohho ehhe
[52.895]
<no-speech>
[54.725]
ehhe hayi ezinye i- ishandisi nje
[59.905]
<no-speech>
[60.745]
<no-speech> <sta> mmhm <no-speech> imake ngithi lento ilokhuzana i- <no-speech> le- le- le- le- le igenge le yeDrum wakhe wabashuthela umshado wena <no-speech>
[72.175]
<no-speech>
[76.455]
<no-speech>
[77.655]
<no-speech>
[78.585]
Mbokazi
[79.325]
<no-speech>
[83.485]
ehhe ohho awuya- awuyanga le eDarlington
[87.895]
<no-speech>
[94.095]
ehhe <no-speech> ohho but bathi inte <no-speech> ehhe
[100.095]
<no-speech>
[101.775]
mmhm angazi noma ilokhuzane entsha lento abayenzayo lapha
[106.975]
<no-speech>
[108.475]
wathi kunepage lemi- lemi- <hes> kuzoba na- na- <sta> namapage umshado
[113.325]
<no-speech>
[118.105]
yini iSunday Sun
[121.145]
<no-speech>
[125.905]
eya nje ulokhuze kodwa ucapturishe nje like idecor yabo amarings
[136.665]
yabona nje yabo kwi
[139.245]
<no-speech>
[141.295]
ehhe hayi phela ibona abawutholayo
[144.305]
<no-speech>
[147.065]
ehhe wangichazela kanjalo uPluto wathi ayibona bazoyithola and then inational yonke yabo so nje makuthiwa mhlampe e this weekend
[158.925]
kuphuma owaseK_Z_N next weekend waseGoli yabo yonke indawo
[162.435]
<no-speech>
[165.425]
ehhe ini advance mmhm
[168.285]
<no-speech>
[171.945]
hayi baba man hayi inesicefe lento <lipsmack> kodwa phela ya ingakho bengibuza ingakho bengibuza ukuthi wena usuke wakwenza ngoba manje angikasazi istyle sabo yabo abasifunayo yabo
[183.805]
kodwa yena wangichazela nje wathi no it's just normal pictures nje but ke zibe nalokhu nalokhu yabona nje owudecor amareams owu- piece
[193.035]
yabona ivenue e
[198.295]
<no-speech>
[201.315]
uhuh bathena bathe before bebenza abantu abadumile yabo but manje bafuna nje ordinary bazo mix ehhe bayazi bazo mix
[212.075]
<no-speech>
[213.165]
<int> <cough> yabo
[214.885]
<no-speech>
[216.365]
ehhe ba <hes> ehhe bathe basazonginika mmhm khona omunye wase- <no-speech> khona omunye wase eRichmond kade esengitshela ngawo
[226.625]
<no-speech>
[227.495]
ya
[228.675]
<no-speech>
[229.615]
mmhm mmhm <hes> ngathi uyabhala laphana ngathi uyabhala usho ukuthi unomshado yabo and ucele ukuthi bafika bazokukhavela yabo
[237.825]
<no-speech>
[240.115]
(())
[240.845]
<no-speech>
[244.765]
<no-speech>
[245.155]
<no-speech>
[247.535]
<int> hamba uyibonele wena
[250.995]
<no-speech>
[253.475]
ehhe
[254.015]
<no-speech>
[259.125]
<no-speech>
[259.495]
<no-speech>
[261.795]
ahha
[262.465]
<no-speech>
[265.535]
<no-speech>
[265.995]
<no-speech>
[268.145]
<no-speech> lo inkurubexe leya
[271.535]
<no-speech>
[273.425]
ehhe
[275.345]
<no-speech>
[279.025]
<no-speech>
[281.715]
<no-speech>
[282.715]
ohho ehhe
[285.025]
<no-speech>
[286.915]
hawu into yanini leyo <no-speech> ohho yini intombazane
[297.605]
<no-speech>
[301.885]
<no-speech>
[302.245]
<no-speech>
[303.085]
<lipsmack> ahha ohho usho itop billing wena hayi hayi hayi
[306.355]
<no-speech>
[307.285]
<sta> hayi itop billing i- i- i- hayi isitop kakhulu hayi <no-speech> hayi hayi hayi ishaya amahigh class
[315.455]
<no-speech>
[317.315]
<int> awukahle <laugh> (()) ehhe khona hayi ehhe itop billing hayi
[329.055]
<int> mmhm
[331.175]
<no-speech>
[332.265]
hayi <int> awulokhuze phela nawe mfana sihambe siyokukhongela manje hayi
[336.145]
<no-speech>
[337.825]
<laugh> khona ombambile manje waseMlazi
[349.645]
<laugh> abusy abusy naye uthi umfazi wangempela ke lo manje
[357.865]
<no-speech>
[359.465]
<laugh> cha mfwethu uthi uthi akafuni lutho
[368.105]
<no-speech>
[370.365]
<int> ehhe
[371.435]
<no-speech>
[373.565]
<no-speech>
[373.995]
<no-speech>
[374.865]
<no-speech>
[375.225]
<no-speech>
[376.995]
<sta> ehhe <no-speech> <laugh>
[382.075]
<no-speech>
[382.915]
<no-speech>
[385.665]
<no-speech>
[387.165]
<int> hayi yabo <laugh>
[393.155]
<no-speech>
[394.185]
<no-speech>
[394.565]
<no-speech>
[395.485]
hawu ehhe mfwethu (()) <laugh> hayi <hes> uBerry ke manje ngathi sewamuyekisa ngisho utshwala uyabona nje <laugh>
[407.135]
<laugh> hayi ey <int> hayi angiyazi mina phela akangikhombisi intombi zakhe mina
[416.695]
<no-speech>
[417.735]
(()) ngihleli ngimtshela ukuthi awu wena nje last month bekuyi lo suyi lo manje hayi awusangikhombisi manje sengizwa ngendaba <cough> <no-speech> ehhe ngizwa ngendaba ukuthi
[429.435]
yamuvalela lapho eflathini iweekend yonke <laugh> mmhm hayi kodwa hayi eflathini lakhe ehhe
[440.145]
<no-speech>
[441.345]
ehhe iflash iright mmhm
[443.535]
<no-speech>
[445.945]
<no-speech>
[446.315]
<no-speech>
[447.945]
<no-speech>
[449.115]
<no-speech>
[450.155]
ehhe angithi waqala ekuncoma <laugh> waqala kade ekuncoma
[457.455]
<no-speech>
[458.365]
ekuncoma ekuncoma ekuncoma ehhe ethi hayi ufuna umfazi
[462.855]
<no-speech>
[464.945]
<no-speech> <sta> hayi uthole umfazi wangempela mfana <hes> imulethela iglass <hes> yejuice mfana iyaguqa iguqe <laugh> ngedolo <laugh>
[476.875]
<laugh> hayi yazi <laugh> uthi
[482.895]
<no-speech>
[484.385]
uthi ayingibizi <no-speech> uthi ayingibizi ngisho nango baby mfana ingibiza ngo Mhlongo <laugh> baba uMhlongo <laugh>
[495.955]
<no-speech>
[497.505]
<no-speech>
[500.825]
<int> kuphi
[504.415]
<no-speech>
[505.385]
<no-speech>
[505.745]
<no-speech>
[508.795]
ehhe hawu vele phela awungeke hawu ngeke
[512.775]
<no-speech>
[514.335]
<no-speech>
[516.225]
<no-speech>
[518.975]
awu usenkingeni ke hayi ey uhlezi esho ke mfwethu angiyifuni ke lengane <laugh>
[530.905]
(())
[533.325]
<no-speech>
[534.525]
<laugh> hayi ngempela uzoyitholaphi ngempela
[539.305]
<no-speech>
[540.795]
<no-speech>
[541.205]
<no-speech>
[542.685]
<int> ikuphi emaNdaweni
[545.275]
<no-speech>
[546.925]
<no-speech>
[547.565]
<no-speech>
[548.385]
<no-speech>
[549.925]
<no-speech>
[551.895]
<no-speech>
[552.545]
<no-speech>
[553.385]
ohho hawu awuyibambanga emsebenzini
[556.555]
<no-speech>
[558.095]
<int> ohho eMkomazi
[561.515]
<no-speech>
[563.485]
ehhe
[565.295]
<no-speech>
[567.065]
<laugh> kwenze njani
[571.875]
<no-speech>
[573.445]
<no-speech>
[574.005]
<no-speech>
[575.415]
<no-speech>
[576.385]
<no-speech>
[577.575]
<breath> ehhe
[579.735]
<no-speech>
[581.085]
ya uya ya ya
[582.895]
<no-speech>
[585.765]
hayi
[586.405]
<no-speech>
[587.715]
hayi ey hayi ya
[591.125]
<no-speech>
[592.625]
ehhe hayi yenzani
[596.215]
<no-speech>
[598.115]
yenzani
[599.705]
<no-speech>
[600.020]
