[0.000]
<no-speech>
[7.895]
<no-speech>
[8.385]
<no-speech>
[9.825]
yama
[10.545]
<no-speech>
[13.225]
ngiyaphila ma unjani wena
[14.455]
<no-speech>
[17.425]
ngiseflatini <no-speech>
[18.995]
<no-speech>
[23.645]
noba nobani
[25.515]
<no-speech>
[28.635]
ohho hawu sengiphumile emusebenzini <breath> ngithathwe uKenneth ngemoto wazongishiya la eflatini
[34.615]
<no-speech>
[37.805]
hayi baright shame bandla useMerebank bahleli ka- kasihlobo sika- ehhe
[43.805]
<no-speech>
[46.295]
hayi uright naye
[47.705]
<no-speech>
[51.725]
yama
[52.375]
<no-speech>
[56.645]
ehhe
[57.345]
<no-speech>
[59.125]
ehhe
[59.595]
<no-speech>
[60.905]
<no-speech>
[61.275]
<no-speech>
[62.125]
ehhe
[64.085]
<no-speech>
[68.165]
ohho hayi kodwa yena wa- walokhuza wahamba ke wayoya naye la kubhaliswa khonizindlu ngafika nje esengitshela ukuthi hayi uyile wabhalisa
[78.575]
<no-speech>
[80.485]
ehhe ngoba naye engathi <int> useya- u- ehhe useyababona naye <sta> <no-speech> <int>
[86.995]
<no-speech>
[87.855]
kubo kuya ba- e- ehhe useyababona ukuthi hayi bayamu user
[93.025]
<no-speech>
[96.005]
ehhe <no-speech> ehhe ngoba bengibuye nje esevela esephuma khona ehhe
[101.255]
<no-speech>
[102.735]
ukuthi ngibe busy namhlanje ngabe ngikufo- ngabe ngiku- ngikufonele ngakutshela uthi hayi akusafani
[110.035]
<no-speech>
[112.335]
ehhe
[113.485]
<no-speech>
[114.685]
bayamusa nje kakhulu nje futhi hayi nana kancane
[118.165]
<no-speech>
[119.145]
ehhe
[120.035]
<no-speech>
[121.235]
<no-speech>
[121.865]
<no-speech>
[123.915]
<sta> yebo angazi ke noma na *this* week ike- uyalokhuza yini uyaya yini <no-speech> <sta> <int> hayi akasho (()) ngoba uthe ena hayi elokengibuza ukuthi ena ngoKhisimuzi ena sokwenze enjani ngathi mina hayi ehhe fanele sihambe phela khona sizokwazi ukubona umaCele <int> <no-speech>
[143.955]
<no-speech>
[145.285]
ehhe
[146.415]
<no-speech>
[147.705]
ehhe hayi ngokwenzani lapho ngize we size na- ehhe ehhe ngizobona ke kodwa ukuthi uthini ke yena
[157.115]
<no-speech>
[158.925]
ehhe
[160.125]
<no-speech>
[162.345]
oh (())
[163.625]
<no-speech>
[167.805]
awu uyazula ke mama ngicela ukukutshela ave ezula
[170.925]
<no-speech>
[175.325]
ehhe wayevele enabangani ehhe <no-speech> hayi naye usekhulile mude manje
[181.025]
<no-speech>
[183.635]
awu ubhuti omdala
[185.125]
<no-speech>
[186.555]
ehhe uncishile akadli iphela kahle
[188.535]
<no-speech>
[191.355]
akadli <no-speech> akadli kahle ngoba phela osisi la bayamuncintsha o-anti
[196.435]
<no-speech>
[199.075]
ehhe
[200.335]
<no-speech>
[208.665]
ehhe
[210.005]
<no-speech>
[217.685]
ehhe fanele azi ukuthi fanele abuye uyingane hayi indaba (()) uSihle
[223.335]
<no-speech>
[224.305]
mhhm
[225.285]
<no-speech>
[228.115]
mmhm mmhm
[230.765]
<no-speech>
[231.725]
hayi angazi ke noma uya- uy- uzoya yini noma akezukuya <no-speech> ngizozwa ngaye <no-speech> le kwesakhe phela <no-speech> ehhe le ayodayisa <int> ehhe
[243.955]
<no-speech>
[245.195]
ehhe
[246.255]
<no-speech>
[248.625]
ehhe
[250.165]
<no-speech>
[253.085]
ehhe sasebenza
[254.175]
<no-speech>
[255.385]
kodwa kusho uthi phela sosheshe siphume ngo mhlakatwenty four
[258.865]
<no-speech>
[259.725]
ehhe
[260.855]
<no-speech>
[261.815]
<int> ehhe sosheshe siphume
[263.735]
<no-speech>
[264.785]
awu ehhe ehhe kusasa <int> ehhe
[271.495]
<no-speech>
[273.685]
oh <laugh>
[276.455]
<no-speech>
[277.815]
ehhe hayi usadla <sta> <no-speech> muphi yena
[282.165]
<no-speech>
[284.555]
ohho inkunzimalanga <no-speech> inkunzimalanga
[288.285]
<no-speech>
[290.405]
ehhe ohho <int> hayi kungcono kodwa uright mnganami bambelela nje
[296.305]
<no-speech>
[301.085]
ehhe
[302.005]
<no-speech>
[303.755]
mmhm
[305.335]
<no-speech>
[311.025]
ehhe
[312.755]
<no-speech>
[313.645]
okay
[314.835]
<no-speech>
[317.245]
(())
[317.815]
<no-speech>
[319.145]
ehhe <laugh> <int> ehhe <int> ehhe <int> okay
[326.595]
<no-speech>
[328.695]
ehhe
[329.535]
<no-speech>
[330.905]
ish pho uyayishaya yini zala ibreakfast
[333.985]
<no-speech>
[335.975]
<int> ehhe <int>
[340.015]
<no-speech>
[343.915]
<no-speech>
[344.295]
<no-speech>
[346.125]
ehhe
[346.875]
<no-speech>
[350.495]
ehhe
[351.275]
<no-speech>
[353.125]
ehhe <laugh>
[355.885]
<no-speech>
[359.175]
mhhm okay hayi soncenga nje mngani <int> ma
[366.545]
<no-speech>
[372.095]
ohho okay
[374.845]
<no-speech>
[378.725]
ehhe (())
[380.085]
<no-speech>
[381.555]
oh
[383.055]
<no-speech>
[384.275]
mhhm
[385.035]
<no-speech>
[389.025]
<sta> ehhe eyi ukuthi nale leveni le iyabheda lezingane ziyayithatha ziyayimukluza eyi uyayibona nje ukuthi ayisekho esimeni esiright o esa- esi- (()) esifunwa imina engathi ngingayilungisa namasondo futhi ifakelwa amasondo amasha <int>
[407.065]
<no-speech>
[408.215]
mhhm
[409.115]
<no-speech>
[410.275]
ehhe
[411.835]
<no-speech>
[416.925]
hayi bazoyilahla lapha balaxaza lapha
[419.495]
<no-speech>
[420.615]
and ke <hes> uyabo nje le emhlophe isayizi yabola kanje yathathwa yalaxazwa emunyango kodwa lemoto ngangiyakhele amagaraji
[428.695]
<no-speech>
[432.845]
iyahamba <no-speech> iyahamba <no-speech> <int> ehhe <int> ehhe iyahamba angithi phela (()) lo iphoyisa iphoyisa ilona elifake imoto yalo lapha phansi
[443.845]
<no-speech>
[447.265]
awu wakhishwa nje le eyami kwafakwa eyephoyisa
[450.265]
<no-speech>
[453.235]
eya
[453.935]
<no-speech>
[458.495]
mhhm
[459.415]
<no-speech>
[463.155]
wekade kusho umzala wami uNangomso wathi uNangomso yazi akayiboni ukuthi uyaphupha utshwala
[470.145]
<no-speech>
[473.965]
aybo
[474.695]
<no-speech>
[475.645]
akanambhede akanambhede lomuntu kodwa uphuzana nje notshwala
[479.455]
<no-speech>
[480.685]
habe <no-speech> ukhona okaMangqezu nje uzolala kowaMangqezu <no-speech> uzolala kowaMangqezu nje <no-speech> ulala kowaMangqezu
[488.075]
<no-speech>
[491.385]
<sta> hayi eyithengaphi ey- eyithengaphi <hes> umuntu ehlala enga- enge- enge- engenamali eyo- e- imali anayo eyotshwala
[500.155]
<no-speech>
[505.985]
uyajabula dade
[507.285]
<no-speech>
[513.205]
<no-speech>
[513.905]
<no-speech>
[519.525]
we maye kuthiwa khona umuni owamtshela wathi u- wathi wathi nje uma wakhe uyakhala wena awumenzeli lutho
[528.505]
<no-speech>
[531.265]
mmhm
[532.035]
<no-speech>
[534.375]
ayikho ay- ayikho ayikho ngamtshela ng- <int>
[540.715]
<no-speech>
[544.725]
(())
[545.575]
<no-speech>
[548.975]
hayi bo
[550.295]
<no-speech>
[552.455]
akakaze akaze aze enze lutho uyidlela utshwala nje njengoba akwazi ukohamba ayokwenza ilona yotshwala nje kwakuyicompetition benomalume wakhe becompitha no- <breath> nomalume wakhe naye wayenabangani bakhe
[563.605]
<no-speech>
[564.865]
wayenabangani bakhe
[566.205]
<no-speech>
[567.475]
ehhe
[568.045]
<no-speech>
[570.415]
hayi angazi nami ngeke ngize ngikutshele ukuthi <int> (()) *kodwa* nje awu <sta> uyinto nje edla utshwala naye
[577.685]
<no-speech>
[579.795]
<no-speech>
[580.635]
<no-speech>
[582.885]
awu ungenzi- ungenziswa abanye abantu wena ukuthi phuza utshwala kuze kuyovalwa
[587.295]
<no-speech>
[589.565]
mmhm
[590.135]
<no-speech>
[593.265]
<sta> hawu sathi sithi siyayikhuluma le <no-speech> sathi sithi siyayikhuluma leyo wathi hayi mina angifune muntu (())
[600.145]
<no-speech>
[600.260]
