[0.000]
<no-speech>
[6.045]
<no-speech>
[6.715]
<no-speech>
[11.315]
<no-speech>
[16.155]
<no-speech>
[20.615]
<hes> Nokza
[21.795]
<no-speech>
[22.985]
Nokza
[23.995]
<no-speech>
[27.765]
ya uyangizwa
[28.965]
<no-speech>
[30.545]
<hes> sibali <no-speech>
[32.145]
<no-speech>
[33.145]
<hes> ngiyakuzwa kancane nje
[35.395]
<no-speech>
[36.705]
<no-speech> ehhe
[38.545]
<no-speech>
[41.815]
<hes> kuyaphileka mfwethu <no-speech> ayizwakali la kahle
[45.495]
<no-speech>
[49.245]
ohho uyangizwa wena
[50.495]
<no-speech>
[53.185]
asizwani nalo
[54.025]
<no-speech>
[55.295]
awungizwa kahle
[56.565]
<no-speech>
[58.545]
oh
[59.225]
<no-speech>
[60.185]
awuzame ukushifta lapho ubheke <no-speech> ehhe
[63.025]
<no-speech>
[65.095]
Nokza
[65.825]
<no-speech>
[69.885]
ehhe mani kuncengekile mani <no-speech> wena <no-speech> hayi lingiphethe man <no-speech> lingiphethe <no-speech> eya <no-speech> noThabo uthe naye uyalova uzodoja emsebenzini
[81.805]
<no-speech>
[82.845]
<no-speech>
[85.355]
uyangizwa
[86.165]
<no-speech>
[87.725]
ya ungenile emsebenzini mari ungisendele iS_M- <no-speech> ungisendele iS_M_S la ukuthi uzolo- uzodoja
[95.055]
<no-speech>
[97.855]
ahha <no-speech> yebo bhuti
[99.925]
<no-speech>
[101.335]
ehhe kuyancengeka man
[102.875]
<no-speech>
[105.575]
<hes> kuyancengeka
[106.905]
<no-speech>
[109.035]
awu
[109.735]
<no-speech>
[112.445]
ahha ngizoziphatha man
[113.995]
<no-speech>
[116.685]
<no-speech> hayi iyakhatha vele lento le
[119.025]
<no-speech>
[122.125]
uyangizwa
[122.945]
<no-speech>
[123.885]
<hes> yilo le yami angithi yile yangale phesheya kolwandle <no-speech> yangale phesheya kolwandle angithi
[130.705]
<no-speech>
[132.545]
ya hayi noma ikhatha asikhulume kuphela nje
[135.925]
<no-speech>
[138.005]
ehhe kuyaphileka wena kuyancengeka espaza lapho
[140.785]
<no-speech>
[143.355]
ehhe
[144.135]
<no-speech>
[146.175]
ahha ilenetwork yangale phesheya <no-speech> ehhe
[149.305]
<no-speech>
[151.205]
angisakuzwa manje
[152.305]
<no-speech>
[154.485]
iya ukhona
[155.535]
<no-speech>
[157.155]
*yimi* uMelusi u-Eugene
[159.485]
<no-speech>
[162.625]
oh
[163.345]
<no-speech>
[164.175]
ya no-Eugene ya
[165.705]
<no-speech>
[166.535]
so nabo ke nabo basazokuthinta ke
[169.525]
<no-speech>
[170.915]
ungangixoxela ke ngizolibele ngiphendula nje sibali <no-speech> kuze kushaye leten minutes mngani wami
[176.585]
<no-speech>
[177.935]
ya <no-speech> iyiphayiza zihamba kahle lapho
[180.295]
<no-speech>
[181.995]
hayi lingiphethe mngani wami
[183.515]
<no-speech>
[184.625]
<laugh> <no-speech> hayi lingiphethe man
[189.275]
<no-speech>
[190.085]
hayi man
[191.015]
<no-speech>
[193.615]
iyiphayiza zihamba kahle
[195.235]
<no-speech>
[196.475]
ehhe
[197.135]
<no-speech>
[200.235]
ya mngani wami
[201.495]
<no-speech>
[202.625]
oright hayi <no-speech> asixoxe nje wena u- <no-speech> hayi lingiphethe man sbali <no-speech> hayi lingiphethe
[208.945]
<no-speech>
[209.905]
mari akusenani ngoba hayi sengizobuya
[212.365]
<no-speech>
[214.475]
ehhe
[215.135]
<no-speech>
[218.055]
hayi kuyancengek- <no-speech> kuyancengeka
[220.745]
<no-speech>
[223.525]
<no-speech>
[225.235]
<no-speech>
[226.175]
<breath> e-
[227.115]
<no-speech>
[228.795]
ehhe
[229.445]
<no-speech>
[233.365]
<no-speech> ya
[234.135]
<no-speech>
[236.935]
<no-speech> hayi son-
[237.985]
<no-speech>
[239.025]
sonikhumbula
[240.235]
<no-speech>
[242.265]
nakhona awuzwakali nakahle sengiyakhuluma nje kuphelele ten minutes mngani wami
[246.415]
<no-speech>
[248.915]
ahha
[249.605]
<no-speech>
[253.025]
ehhe
[253.515]
<no-speech>
[255.315]
ehhe
[256.005]
<no-speech>
[258.375]
hayi ifuna wena ngesiZulu sakho ke ke
[261.435]
<no-speech>
[262.975]
hhayifuni kufakwe nesilungu kufuneka isiZulu nje straight
[266.845]
<no-speech>
[269.385]
ahha
[270.055]
<no-speech>
[271.535]
<no-speech> ehhe
[272.255]
<no-speech>
[274.755]
<no-speech> ubani
[275.495]
<no-speech>
[278.295]
ukhona <no-speech> ukhona
[280.535]
<no-speech>
[283.155]
<no-speech> nginaye lapha phansi
[284.615]
<no-speech>
[285.605]
ya
[286.375]
<no-speech>
[288.565]
nanawe bewufuneka kahle kahle <no-speech> ehhe
[292.065]
<no-speech>
[298.065]
ya <no-speech> <laugh>
[300.785]
<no-speech>
[303.975]
sikulande eThekwini
[305.285]
<no-speech>
[306.825]
<no-speech> hayi soza sizokulanda mngani
[308.785]
<no-speech>
[309.675]
<no-speech>
[311.115]
<no-speech>
[312.965]
<laugh> ehhe ungangixoxelani ke hayi sengikhathele
[317.375]
<no-speech>
[318.395]
<no-speech> <breath> awungixoxele ke
[320.165]
<no-speech>
[321.545]
<no-speech> seThekwini
[322.695]
<no-speech>
[323.715]
mmhm <no-speech> kwenziwani eThekwini
[325.815]
<no-speech>
[332.285]
ehhe bengihleli kamnandi bengihleli nalezi ntwana zaseDopsenville lezintwana zami hayi bezingiphethe kamnandi
[338.165]
<no-speech>
[339.175]
mari isikole sisheshe saphuma three o'clock mfana besengizwile ngayobhukuda straight
[344.555]
<no-speech>
[345.905]
ngiphaphame ngabo twelve ngizitshela ukuthi hayi kusaseksemini umangithi utwelve ebusuku hayi wena
[351.055]
<no-speech>
[353.795]
mari angikabi nesitress nanamhlanje <no-speech> ehhe
[357.075]
<no-speech>
[358.345]
ehhe
[358.935]
<no-speech>
[362.065]
hayi bebangiphethe kamnandi izolo ileyontwana ilentwana le yeventure le <no-speech> so leventure e blue
[368.585]
<no-speech>
[370.515]
ya bekuyiyo nebhoza yakhe ke induna yakhe hayi asiyidlanga kanje imali yechicken
[376.445]
<no-speech>
[378.135]
hayi bezingiphethe kahle izolo leyntwana <no-speech> namanje ekuseni zingifonele hayi ngazibalekela ngithe angikho ekasi
[384.795]
<no-speech>
[388.005]
ngapha ngicabang- <no-speech> ngapha ngicabanga noThabo naye omunye naye odojayo emsebenzini wathi uyeza eyenye inkinga
[395.485]
<no-speech>
[401.605]
hayi uyasho nje ukuthi usuka laphi mara manje uthe uzodoja yena hayi angeke ayimele yonke lento
[407.315]
<no-speech>
[409.785]
angithi bekaflayile ungifonele izolo <no-speech> ehhe
[413.545]
<no-speech>
[415.075]
<no-speech> uthi
[415.765]
<no-speech>
[418.735]
hayi izolo uyangifonela wathi
[420.725]
<no-speech>
[421.645]
izolo ungifonelile wathu use- uqeda kuyehla eflayini <no-speech> so ukofika la elokishini after one hour thirty minutes
[430.185]
<no-speech>
[431.265]
lapho hayi isikole besesiphumile mara akusasizi nanamhlanje ilanga angithi
[435.715]
<no-speech>
[438.195]
ngoba uyiphethe yonke nje
[440.045]
<no-speech>
[440.895]
<no-speech> ehhe
[441.555]
<no-speech>
[443.805]
<no-speech> oh
[444.495]
<no-speech>
[447.105]
yini leyo
[447.825]
<no-speech>
[449.735]
<no-speech> ehhe
[450.305]
<no-speech>
[452.985]
<no-speech> ngenzeni
[453.775]
<no-speech>
[457.395]
<no-speech>
[458.765]
<no-speech>
[459.665]
<no-speech> uthi yenzani
[461.595]
<no-speech>
[463.585]
<no-speech> ehhe
[464.195]
<no-speech>
[469.075]
<hes> nakimi yenza kanjalo mari akusenani asisale siqhubeka nje ize ishaye iten minutes mngani wami
[475.005]
<no-speech>
[479.315]
<no-speech>
[481.035]
<no-speech>
[482.185]
<no-speech>
[482.825]
<no-speech>
[483.935]
<no-speech> a mele vele mani
[485.855]
<no-speech>
[487.235]
uphi uDabhi uyaphila lapho
[489.145]
<no-speech>
[492.065]
<no-speech> ehhe
[492.705]
<no-speech>
[494.995]
<no-speech> ohho uyaphithiza esitradini
[496.715]
<no-speech>
[498.705]
<no-speech> ehhe
[499.315]
<no-speech>
[502.715]
oh
[503.305]
<no-speech>
[504.635]
ohho wena usendlini okanye ungaphandle
[507.175]
<no-speech>
[513.575]
udla iskobho ekuseni kanje
[515.255]
<no-speech>
[517.095]
<no-speech>
[518.565]
<no-speech>
[520.285]
<laugh> <no-speech> oright
[522.105]
<no-speech>
[523.285]
ziphi lezintwana zakho lezi <no-speech> aboJuba
[526.285]
<no-speech>
[529.005]
mmhm baphi aboJuba
[530.355]
<no-speech>
[537.315]
<no-speech> uSmanga
[538.115]
<no-speech>
[541.695]
<no-speech> ohho
[542.585]
<no-speech>
[543.615]
<no-speech> lezintwana zisemsebenzini
[545.475]
<no-speech>
[547.645]
<no-speech> oh
[548.265]
<no-speech>
[549.815]
<no-speech> hayi mani
[550.615]
<no-speech>
[552.895]
<no-speech> ohho
[553.465]
<no-speech>
[558.345]
ohho
[558.935]
<no-speech>
[561.315]
<no-speech> ya ya bhuti wami
[563.525]
<no-speech>
[566.585]
hayi sengezwa wena ke awuxoxe ke ke
[569.225]
<no-speech>
[571.195]
<no-speech> ehhe
[571.845]
<no-speech>
[575.055]
<no-speech> oh
[575.665]
<no-speech>
[577.025]
ehhe kuyancengeka mani
[578.425]
<no-speech>
[579.575]
kuyancengeka
[580.535]
<no-speech>
[585.475]
hayi kusebenzeka kamnandi la <no-speech> hayi kusebenzeka kamnandi
[589.955]
<no-speech>
[591.095]
<hes> ukukhuluma nje ngocingo nje ukhulume nje ngocingo
[594.505]
<no-speech>
[598.295]
bekumele ngithathe nawe yazi
[600.145]
<no-speech>
[602.125]
eya
[603.025]
<no-speech>
[605.125]
<no-speech> ehhe
[605.735]
<no-speech>
[608.845]
<no-speech> uthi
[609.525]
<no-speech>
[611.575]
<no-speech> ya
[612.215]
<no-speech>
[615.775]
<no-speech> ehhe
[616.425]
<no-speech>
[619.465]
oright sebeyabonga bathi inombolo <no-speech>
[622.825]
<no-speech>
[629.288]
