[0.000]
<no-speech>
[2.215]
nkosazane <sta> <int> yebo unjani
[9.005]
<no-speech>
[10.365]
sekuyimina awu <no-speech> <sta> yazi ungathi ulele
[15.005]
<no-speech>
[16.725]
ukhuluma <sta> noSthe
[19.155]
<no-speech>
[20.055]
hawu ukhuluma noSthe angathi bengikucelile ukuthi sixoxe
[23.445]
<no-speech>
[24.795]
ehhe ukhuluma noSthe <sta> <no-speech> eNtuzuma eThekwini oh <no-speech> angani ngikutshelile nje <no-speech> angani kade ngikhuluma nawe kuWhatsApp
[36.175]
<no-speech>
[37.295]
<sta> awu
[39.255]
<no-speech>
[40.475]
<no-speech>
[40.965]
<no-speech>
[43.975]
ehhe bengikucelile ukuthi ngizokufonela <no-speech> unginike isikhathi nje siyixoxele njengesithandwa sami <sta>
[51.615]
<no-speech>
[52.615]
kodwa yona ke impilo injani
[54.865]
<no-speech>
[58.775]
eNewcastle eMadadeni
[60.555]
<no-speech>
[62.055]
<no-speech>
[63.115]
<no-speech>
[64.005]
<sta> ehhe
[66.335]
<no-speech>
[68.435]
ngisho wena
[69.585]
<no-speech>
[72.725]
hayi ngiyazi ukuthi usaseNewcastle
[74.605]
<no-speech>
[77.985]
ehhe
[78.525]
<no-speech>
[80.255]
awusekho khona
[81.255]
<no-speech>
[83.535]
<no-speech>
[83.905]
<no-speech>
[90.120]
<no-speech>
[96.335]
<no-speech>
[98.305]
<no-speech>
[100.685]
<sta> ohho wase- usasukile eNewcastle usaye- eDundee ukuyobheka umsebenzi
[106.805]
<no-speech>
[107.805]
<sta> ngithi mina usasukile <no-speech> eNewcastle useseDundee uyobheka umsebenzi <sta> oh into enhle leyo umuzama
[117.255]
<no-speech>
[122.285]
<sta> angithi uyazi (())
[124.695]
<no-speech>
[127.275]
<no-speech>
[127.635]
<no-speech>
[131.715]
kuyo- <sta> kuyokusiza kodwa ukuthi ulinde <no-speech> angithi
[137.225]
<no-speech>
[140.045]
umsebenzi
[141.175]
<no-speech>
[143.395]
umsebenzi
[145.385]
<no-speech>
[147.085]
phela
[147.675]
<no-speech>
[151.795]
ehhe phela umu- uma ufuna umsebenzi oright ngeke nje umedane uwuthole ngesikhathi lesi owufuna ngaso kuyo- kuyokusiza ukuthi ulinde
[159.415]
<no-speech>
[163.525]
kodwa <sta> ngiyakukhumbula ke yazi
[165.815]
<no-speech>
[170.365]
angizwa
[170.965]
<no-speech>
[173.565]
<sta> mina
[174.535]
<no-speech>
[175.945]
<no-speech>
[176.355]
<no-speech>
[177.235]
<sta> ngisemaflathini mina
[181.675]
<no-speech>
[182.915]
ngisemaflathini la engihlala khona
[184.755]
<no-speech>
[185.555]
<no-speech>
[187.215]
<no-speech>
[189.135]
<no-speech> <sta> ohho kulentuzana i- i- iWhatsApp
[193.645]
<no-speech>
[194.715]
<sta> hayi uhuh ikhona emaflethi la <no-speech> kwakusekuseni <no-speech> kwakusekuseni siyofikela nje ngisebumnandini <sta>
[205.605]
<no-speech>
[207.165]
<sta> ohho ubona nalo- ubona nalo ongathi ugqoke izinto zamaphoyisa <sta>
[215.615]
<no-speech>
[217.585]
<no-speech> <sta> ehhe vele i- vele indawo eyinjalo nje <no-speech>
[228.815]
<sta> hayi uhuh ngiseNtuzuma <sta> <no-speech> injani ingane wayishiya- ehhe Ma
[240.255]
<sta> ngithi ingane injani wayishiya nobani <no-speech> ingane wayishiya nobani <sta>
[245.935]
<no-speech>
[246.985]
<no-speech>
[248.525]
<no-speech>
[250.375]
abafuni nayo <sta>
[253.705]
<no-speech>
[254.615]
ubani onqabayo nengane <sta>
[257.085]
<no-speech>
[258.805]
ohho ihlala naye <sta>
[261.665]
<no-speech>
[266.035]
<no-speech>
[266.405]
<no-speech>
[269.775]
<no-speech>
[270.125]
<no-speech>
[270.995]
<no-speech>
[271.345]
<no-speech>
[274.705]
<sta> into zakhe ayifuni uku- <no-speech> i- i- i- inki- inkinga ingoba engafuni ukukuxolela noma akafuni ukukhuluma nawe <no-speech>
[284.645]
<no-speech>
[286.205]
<no-speech>
[289.185]
<no-speech>
[292.205]
<no-speech>
[293.175]
<no-speech>
[296.315]
u- umama kodwa usekhona <sta>
[300.945]
<no-speech>
[303.065]
<sta> yazi ngisho minu umama wakho usekhona <no-speech>
[306.375]
<no-speech>
[308.185]
hayi ingakho ke ke
[309.485]
<no-speech>
[310.775]
yabo ukuthi ingakho kuyinkinga
[312.355]
<no-speech>
[313.655]
usathol- usathola
[316.025]
<no-speech>
[316.855]
<sta> usathola umuntu omusha <sta>
[321.415]
<no-speech>
[324.335]
mmhm
[325.755]
<no-speech>
[328.775]
hayi cha uyazi unenhliziyo elukhuni ke ubaba
[331.125]
<no-speech>
[333.345]
engayifaki nkosazana yakhe
[335.125]
<no-speech>
[345.525]
<no-speech>
[346.465]
<no-speech>
[353.865]
hayi ngelinye ilanga mhlampe <sta> nawe inkosi izokuphendulela ube umuntu oright uthole umsebenzi usebenze
[358.805]
<no-speech>
[361.105]
<sta> ehhe
[364.165]
<no-speech>
[365.655]
<sta> sekuzophela unyaka
[369.965]
<no-speech>
[373.975]
<no-speech>
[374.345]
<no-speech>
[376.475]
<no-speech>
[377.085]
<no-speech>
[378.455]
<no-speech>
[378.805]
<no-speech>
[379.875]
<no-speech>
[384.665]
<no-speech>
[386.415]
<no-speech>
[386.765]
<no-speech>
[388.495]
<sta> hayi kodwa phela ngoba usawafuna amatoho amatoho cinga nje kancane <sta> <no-speech> amatoho
[398.145]
<no-speech>
[399.065]
<sta> (()) <no-speech>
[403.105]
<no-speech>
[404.145]
<no-speech>
[407.335]
<no-speech>
[407.885]
<no-speech>
[410.585]
<no-speech>
[411.235]
<no-speech>
[414.695]
<sta> hayi ake- akekho umuntu owadalelwa ukuhlupheka kuyo- <no-speech> kuyokusiza ukuthi ubuye
[419.485]
<no-speech>
[423.685]
<sta> hayi <no-speech> e- e- empilweni <no-speech> e- empilweni
[435.035]
empilweni ku- ku- kuphilwa ngama- ngamaphutha <sta> <no-speech>
[446.795]
angizwa ma <sta>
[449.475]
<no-speech>
[450.305]
<sta> hayi kodwa <no-speech> ukuthi angazi noma ufax kanjani iC_V yakho ngithi ukukubhekela nami ngala <sta>
[461.905]
ngithi ukuthi angazi izinto zakho ngingayithola <sta> kanjani mhlampe ngikubhekela
[472.705]
<no-speech>
[474.245]
u- <sta> phela into eyenza ukuthi vele <no-speech> ukube- ukube ngathi unenkinga kakhulu ingoba awusebenzi
[482.295]
<no-speech>
[483.425]
<sta> hhe- angizwa <no-speech> angikuzwa <sta>
[495.255]
<no-speech>
[495.695]
<no-speech>
[496.515]
<sta> kunomsindo la engikhona
[498.135]
<no-speech>
[498.985]
<no-speech>
[500.575]
<no-speech>
[504.015]
hawu ngeke ungabe usavala ma sesiyaqeda <sta>
[508.525]
<no-speech>
[509.715]
<sta> ngiyakucela nje bandla hawu ungava- angizwa ma <no-speech> okay
[517.605]
<no-speech>
[518.535]
<sta> ungavala kanjani mfwethu ngingakafiki eThekwini <no-speech> angizwa ma
[522.575]
<no-speech>
[523.975]
<sta> singavala kanjani kodwa kusasa <no-speech> siyaphuma
[527.845]
<no-speech>
[529.705]
uphuma uyakuphi
[530.435]
<no-speech>
[531.255]
<sta> ohho hayi hamba ukhuluma sesizophela isikhathi
[535.585]
<no-speech>
[537.235]
u- umiyinqamukela nje ungabi nenkinga <no-speech> ngithi uma izinqamukela ungabi nenkinga
[543.025]
<no-speech>
[545.475]
hello
[547.435]
<no-speech>
[548.945]
yangithi mina ungaphumi
[550.775]
<no-speech>
[552.965]
uyezwa
[553.595]
<no-speech>
[554.825]
ehhe ize inqamukele sengisholo ukuthi <int> u- ungaluvali <no-speech>
[560.015]
<no-speech>
[560.985]
ngoba phela ngeke ngize ngiyithole lento
[562.915]
<no-speech>
[563.975]
lento lento yokuthenga ngeke ngize ngiyithole sthandwa <no-speech> <sta> mina nifuna size sinqamukelane
[571.665]
<no-speech>
[573.945]
angithi uyazi ukuthi <sta> masesinqamukelene so <no-speech>
[578.135]
<no-speech>
[579.235]
<no-speech>
[580.705]
angizwa
[581.825]
<no-speech>
[582.795]
angizwa
[583.685]
<no-speech>
[585.215]
hello
[585.785]
<no-speech>
[587.135]
<no-speech>
[587.525]
<no-speech>
[589.145]
<sta> ngithi mina ungavali ngoba phela umake wavala ngeke ngiyithole le mali
[593.715]
<no-speech>
[596.415]
<sta> hayi <no-speech> ungasifaki iSilungu siyikhulu ~
[600.060]
