[0.000]
<no-speech>
[3.475]
<int> hello
[4.115]
<no-speech>
[5.295]
<int> hello
[6.015]
<no-speech>
[7.465]
<sta> sekunjalo seku- sekunjalo mtanami
[10.855]
<no-speech>
[16.785]
uya- uya- u- u- u- e- <int> awungitshele mtanami uthi ukudla kukhona kodwa lapho
[22.705]
<no-speech>
[26.785]
<int> ukudla kukhona lapho mntanami ukudla kukhona nje kodwa lapho
[30.705]
<no-speech>
[35.105]
hawu mtanami kanti upheka <sta> nini wena lapho ekhaya
[38.645]
<no-speech>
[46.860]
<no-speech>
[55.075]
<int> hawu
[55.705]
<no-speech>
[57.395]
kanti uyiHlolo usey- usehlalaphi na kanti uyiHlolo <no-speech>
[65.755]
<int> usathi- usevele wa- usevele wathutha lapho ekhaya
[70.025]
<no-speech>
[77.345]
<no-speech>
[84.665]
ehhe
[85.445]
<no-speech>
[92.445]
<int> (()) <no-speech>
[94.145]
usuwazala na namntano mtanami usuwazala na namntano mtanami kutheni u <no-speech> ngizwa izinto ezikhalayo apho- ngemuva
[102.415]
<no-speech>
[111.595]
<int> kanti uyishimane yini <hes> ka- kanti uyishimane wena mtanami yini ngangakuqonda nje
[117.505]
<no-speech>
[118.575]
<no-speech>
[118.935]
<no-speech>
[122.065]
<no-speech>
[122.415]
<no-speech>
[124.735]
<no-speech>
[126.535]
<no-speech>
[129.595]
<no-speech> <int> <laugh> uyazi ukuthi uy- uyangihlekisa nje kwayilento oyikhulumayo
[135.005]
<no-speech>
[144.520]
<no-speech>
[154.035]
<int> kahle <no-speech> kahle kahle nje mtanami yini kahle le ekudidayo ke awungitshele njengoba sekuzofika uKhisimusi yini le ekudidayo
[162.105]
<no-speech>
[168.150]
<no-speech>
[174.195]
<no-speech>
[174.675]
<no-speech>
[182.895]
<no-speech>
[183.345]
<no-speech>
[190.815]
<no-speech>
[191.275]
<no-speech>
[198.415]
<int> ehhe ukuthi <no-speech>
[201.205]
<no-speech>
[201.585]
<no-speech>
[205.935]
<int> phela ngangishilo nje khehla lami <click> ukuthi uma ngisithola isikhathi ngizokulethela amashethi enginawo lapha endlini ngiz- ngizokunikeza manje ukuthi isikhathi angisitholi mtanami
[217.755]
<no-speech>
[229.488]
<no-speech>
[241.222]
<no-speech>
[252.955]
ngithanda uqinisile ke ngempela ke <int> lapho
[255.175]
<no-speech>
[256.135]
<sta> uqinisile ngempela o <no-speech> mmhm
[259.055]
<no-speech>
[261.195]
<no-speech>
[261.865]
<no-speech>
[266.645]
<int> mmhm
[267.205]
<no-speech>
[273.365]
<no-speech>
[273.715]
<no-speech>
[278.055]
<int> mmhm
[278.585]
<no-speech>
[281.555]
<int> mmhm mmhm
[282.715]
<no-speech>
[294.260]
<no-speech>
[305.805]
<int> ubaba wakho aka- aka- akakuhambisini ukuyohlola ubaba lo wakho akakubone ukuthi yini inkinga ilaphi- inkinga
[314.655]
<no-speech>
[324.595]
<no-speech>
[334.535]
<no-speech>
[344.475]
<int> mmhm
[345.075]
<no-speech>
[347.975]
<int> mmhm
[348.495]
<no-speech>
[351.075]
<int> mmhm
[351.575]
<no-speech>
[360.445]
<int> uya-
[360.965]
<no-speech>
[368.375]
<no-speech>
[375.785]
uyazazi ukuthi wena wafunde ekha- wafuze ekhaya bonyoko
[379.535]
<no-speech>
[385.295]
ngiyakutshela ukuthi wafuza ku- ku- kubo kaMa wakho
[389.065]
<no-speech>
[391.875]
<breath> bayafu- bahlezi ba- abafuni ukukhuluma bahleli befuna ukungaceli nokuce- bafuna ukuzenzela izinto zabo
[401.475]
<no-speech>
[404.965]
<no-speech>
[405.555]
<no-speech>
[416.375]
<no-speech>
[416.835]
<no-speech>
[425.875]
<no-speech>
[434.915]
<no-speech>
[443.955]
<int> uyaz- uyazi ukuthi yini le ebuhlungu kuyo yonke lento
[448.285]
<no-speech>
[450.685]
ukuthi wena uzimele wedwa <no-speech> awunababa awunababa awunamfowenu uzimele wedwa <click>
[460.295]
<no-speech>
[461.305]
<breath> ukuthi <int> ubaba wakho ubekhona ekusiza eceleni ngokusizayo ngoba uyabona ukuthi vele uyafuna ukwenza ungumuntu othandayo izinto <lipsmack> ngiyakutshela mina mtanami izinto zami uma zihamba kahle (()) <int> (()) ngeke ngikulahle wena mtanami ngiyoloku ngithe nje kancane ngiloku ngikuthe nje kancane ukuthi (()) nje okwamanje isimo sime ngalendlela esime- ngayo kodwa hayi ngiloku <int> phezulu ubhekile angithi
[486.615]
<no-speech>
[490.175]
(()) njalo mmhm
[492.655]
<no-speech>
[493.885]
<no-speech>
[494.275]
<no-speech>
[505.445]
<no-speech>
[516.615]
<no-speech>
[517.575]
<no-speech>
[518.435]
<no-speech>
[519.955]
<no-speech>
[530.308]
<no-speech>
[540.662]
<no-speech>
[551.015]
<int> mmhm
[551.655]
<no-speech>
[558.395]
<int> mmhm
[559.045]
<no-speech>
[560.745]
<int> mmhm
[561.375]
<no-speech>
[562.445]
<no-speech>
[562.805]
<no-speech>
[571.210]
<no-speech>
[579.615]
<no-speech>
[580.075]
<no-speech>
[580.875]
<int> uyabona
[581.635]
<no-speech>
[584.365]
ngithi mina uyabona uma ulokhu ukhuluma kanje uma ukhuluma kanjalo nje <breath> wenza kahle ngoba uma uzozijaha izinto uzogcina sowenza izinto ezingafanele ukuthi uzenze
[595.665]
<no-speech>
[597.345]
<int> ngoba ujahi- ngoba ujahile
[600.020]
