[0.000]
<no-speech>
[7.287]
<no-speech>
[14.575]
<no-speech>
[14.955]
<no-speech>
[15.925]
<no-speech>
[17.025]
<no-speech>
[20.145]
ehhe
[20.585]
<no-speech>
[22.215]
angimuzwa kahle lomuntu uthini <no-speech> ya
[25.035]
<no-speech>
[27.275]
(())
[27.735]
<no-speech>
[29.215]
yini lento oyikhulumayo
[30.985]
<no-speech>
[32.665]
ngiyakuzwa ke manje uthini
[34.895]
<no-speech>
[40.405]
mmhm
[41.225]
<no-speech>
[49.075]
ohho
[49.965]
<no-speech>
[50.995]
ohho ngiyaxakazwa ngixakwa ilento ekhalayo phela lo okhulumayo okokuqala angazi mangabe kunjani ngiyivale bengibuye ngingamuzwa kahle
[61.645]
<no-speech>
[63.585]
girl
[64.225]
<no-speech>
[67.145]
mmhm hayi ngiyezwa ke ehhe ngiyezwa
[71.575]
<no-speech>
[73.905]
mmhm bayaphila o- <no-speech> bayaphila oStha
[77.155]
<no-speech>
[79.125]
ehhe
[79.545]
<no-speech>
[84.215]
<sta> (())
[87.995]
<no-speech>
[89.615]
kushuthi eyami
[90.695]
<no-speech>
[97.435]
ilo
[98.085]
<no-speech>
[98.925]
ini inamba
[99.985]
<no-speech>
[102.195]
<no-speech>
[103.625]
<no-speech>
[105.555]
mmhm umuntu obeyazi
[107.185]
<no-speech>
[109.475]
ngeSonto oCebo bakhona
[111.415]
<no-speech>
[113.035]
baphi oMsizi
[114.035]
<no-speech>
[116.275]
ehhe
[116.855]
<no-speech>
[120.705]
ngiyaphila noNhlanhla usebuyile yini pho
[123.435]
<no-speech>
[126.545]
kahle bo
[127.265]
<no-speech>
[128.105]
<sta> mmhm sewuqedile ukuwasha la
[131.815]
<no-speech>
[137.725]
kaMahlengi
[138.755]
<no-speech>
[141.635]
uyahlanya uma abuyakuthethise futhi
[143.965]
<no-speech>
[146.335]
uyibonile <sta>
[147.945]
<no-speech>
[150.165]
uyibonile leya message engikuse- <no-speech> leya message engikusendele yona
[154.805]
<no-speech>
[155.725]
ngi <hes> ngicabanga u
[157.405]
<no-speech>
[158.405]
eya ngicabanga <hes> ngicabanga ukuthi ukusendela no Ma ngimtshele kanjalo <no-speech> ukuthi angezwa ngawe ukuthi ngitshele yena yena
[167.905]
<no-speech>
[169.125]
uphuma ngasikhathi sini <sta> <no-speech> uzophuma ngasikhathi sini ngothree
[173.605]
<no-speech>
[179.475]
awu ye
[180.655]
<no-speech>
[181.595]
angikuzwa
[182.685]
<no-speech>
[186.665]
ohho uphumufive ohho <laugh> kubuye kungezwa kubuye kunqamuke <no-speech>
[194.145]
sihleli ngihleli
[197.045]
<no-speech>
[198.375]
mmhm
[199.315]
<no-speech>
[201.605]
kade elimele <no-speech> kade elimele
[204.605]
<no-speech>
[206.405]
<laugh> kade ngifonela ulo kade ngifonela umitani
[212.025]
<no-speech>
[215.925]
ohho uthi useClaremont ngiyabuza ukuthi ubuya nini <no-speech> uthi ngoLwesine (())
[221.575]
<no-speech>
[222.615]
mmhm uthi ubuye ngolwesine uzophindela emuva kodwa
[225.865]
<no-speech>
[227.105]
ngo angazi nini
[228.615]
<no-speech>
[229.535]
angazi ke noma ubuyela sekusondele uKhisimusi
[232.495]
<no-speech>
[235.315]
ehhe
[235.795]
<no-speech>
[238.645]
ehhe ngicathi mhlambe uyophindela ngeweekend uba lo okhalayo
[242.265]
<no-speech>
[244.455]
(())
[244.835]
<no-speech>
[247.685]
yo <no-speech> <laugh> (()) uyamona unjani
[254.425]
<no-speech>
[258.025]
engathini
[258.795]
<no-speech>
[261.635]
kuthiwani
[262.255]
<no-speech>
[270.765]
(()) uswidi
[272.465]
<no-speech>
[274.405]
uswidi wodwa
[275.545]
<no-speech>
[277.485]
hayi ayikho lonto wathi umakaThando ayithengwa lonto eya last
[281.195]
<no-speech>
[282.545]
iyolethwa uba-
[283.605]
<no-speech>
[285.415]
<no-speech>
[288.225]
<no-speech>
[289.065]
ohho shuthi ngeke kodwa ngiwuthenge manje <no-speech> ngowuthenga mangabe sengibuya sengiza la <no-speech> ngoba ngeke ngize ngiwu
[298.155]
<no-speech>
[299.465]
ehhe
[300.025]
<no-speech>
[300.885]
<no-speech>
[302.585]
<no-speech>
[304.435]
hayi omkhulu uhuh yazi ngizokwenzenjani
[308.155]
<no-speech>
[309.415]
ehhe mangabe sengibu- <no-speech> (()) noma mangabe sengiza la <no-speech> ngobe sengithenge lowo ubhasikidi sengifake kuwona <breath> ngeke ngize ngithenge ubhasikidi ukuthi uhambe uyohlala laphana
[321.055]
<no-speech>
[323.055]
<no-speech>
[323.425]
<no-speech>
[324.385]
<no-speech>
[325.045]
<no-speech>
[327.765]
mmhm mmhm ngowuthenga sengibuya sengiza ngala hayi ukuthi uhambe uyohlala laphaya
[335.445]
<no-speech>
[337.085]
wayibulalisa
[338.315]
<no-speech>
[340.295]
ya
[340.665]
<no-speech>
[342.255]
<no-speech>
[342.635]
<no-speech>
[343.525]
ohho hayi nawe (()) <laugh>
[350.285]
<no-speech>
[352.785]
hayi bo bangawudla hawu bazowudla yizwa wedali ngikutshele bangawudla hawu bangawudla
[361.885]
<no-speech>
[364.445]
<no-speech>
[364.875]
<no-speech>
[366.355]
(())
[368.375]
<no-speech>
[370.115]
umuntu onetruck
[371.365]
<no-speech>
[373.655]
(()) ngibonile yazi ngabona nani <hes> yini konje yini lena le esiyibonile (())
[382.675]
<no-speech>
[383.675]
(())
[385.705]
<no-speech>
[386.715]
mmhm but lento efana nentwala kodwa engingayazi <no-speech> ehhe (()) eziningini
[392.255]
<no-speech>
[394.945]
ekuseni isikibha isikibha esiluhlaza sisesikibheni lesi esiluhlaza se- serugby
[400.915]
<no-speech>
[403.165]
lesi esi- ehhe leso impela nje ehhe kubiyeliwe lapho kukhona
[411.545]
<no-speech>
[418.185]
(())
[420.385]
<no-speech>
[422.755]
<no-speech>
[423.195]
<no-speech>
[424.295]
u- u- uyakhumbula umsebenzi kwimap
[427.235]
<no-speech>
[429.445]
yebo <no-speech> uMfolozi uMfolozi umfula kule-
[432.925]
<no-speech>
[434.415]
ehhe <sta> ngizivilaphele
[438.295]
<no-speech>
[439.505]
<sta> kanje noThukela noThukela ngifuna sambe siyeBrijini
[444.095]
<no-speech>
[445.285]
<sta> cha uyakhumbula mangikusendela imessage ehhe ngikusendela imessage ngithi ngidlulile uThukela ngangikade ngidlula ebrijini ehhe ngangikade (()) uThukela hayi ba (())
[457.185]
(()) khona elincane ke i-Omo ke nje
[464.405]
<no-speech>
[466.475]
(())
[467.615]
<no-speech>
[468.545]
<no-speech>
[468.905]
<no-speech>
[470.195]
khona nesikole
[471.405]
<no-speech>
[472.495]
khona nesikole isikole ihigh school uMsobomvu
[475.925]
<no-speech>
[480.175]
mmhm uwumnikazi wesikole
[482.805]
<no-speech>
[485.315]
silele
[486.035]
<no-speech>
[488.625]
ngishaye ngopast two
[490.095]
<no-speech>
[492.065]
ngibe ngigibele ngohalf past two ngisuka ekudeni kanje
[496.295]
<no-speech>
[497.555]
(())
[506.145]
<no-speech>
[507.045]
mmhm akhona amatekisi
[508.925]
<no-speech>
[511.385]
eyi <no-speech> mama <laugh> akhona amatekisi <no-speech> njalo angisabhayizile lapha erank akugcwali go engathi kuyavalwa erank kugcwele nezibhamu
[523.285]
hlala lapha ngathi hayi ngeke
[525.625]
<no-speech>
[527.225]
(())
[527.835]
<no-speech>
[528.745]
gadani uKhisimusi izitambu izitambu zobaby <laugh>
[540.565]
<laugh> mmhm inyama ayikho mmhm
[545.555]
<no-speech>
[546.785]
<sta> hayi inkinga ayinkulu kakhulu kodwa nje (())
[554.255]
<no-speech>
[556.055]
(()) uyabo imibuzo eminingi ukube isicefe endaweni uyeke ukuba isicefe endaweni
[563.965]
<no-speech>
[565.275]
<sta> manje indawo yokungabibikho niksi ehhe <no-speech> kuphansi kusesigodini kodwa intaba zikhona ke <cough>
[574.605]
<no-speech>
[575.575]
mmhm kusesgodini kodwa nezintaba zikhona ke
[579.615]
<no-speech>
[583.465]
(())
[585.015]
<no-speech>
[588.575]
owami ubhasikidi ngiyowuthenga masengibuya ngeke ngizengiwuthenge manje
[593.885]
<no-speech>
[595.295]
<no-speech>
[596.005]
<no-speech>
[597.525]
<no-speech>
[598.235]
<sta> kodwa ke beya ~
[600.120]
