[0.000]
<no-speech>
[1.835]
<no-speech>
[2.205]
<no-speech>
[4.025]
<no-speech>
[4.495]
<no-speech>
[6.205]
<int> hayi bo yini manje lento eningidlalela yona <int>
[8.975]
<no-speech>
[10.125]
<no-speech>
[12.155]
<no-speech>
[16.085]
<sta> ehhe
[18.125]
<no-speech>
[21.565]
into efika ikhulume leyo kuqala
[23.525]
<no-speech>
[25.875]
<sta> manje le number ke yona eyakephi ke
[28.525]
<no-speech>
[31.735]
(()) <no-speech> <sta>
[33.045]
<no-speech>
[36.695]
uyazwakala kodwa <sta> uyakhatha uyakhatha (())
[40.425]
<no-speech>
[43.045]
ngiright
[44.145]
<no-speech>
[44.985]
<no-speech>
[45.345]
<no-speech>
[48.605]
<sta> mmhm hayi bowungibambile <no-speech> two days wonke nje angisebenzi
[53.275]
<no-speech>
[54.945]
<no-speech>
[55.315]
<no-speech>
[56.545]
<sta> two days <no-speech> kodwa (()) <no-speech>
[63.125]
mmhm (())
[64.455]
<no-speech>
[66.815]
mmhm <sta> cause kubuhlungu <hes> nomphimbo bekubuhlungu ngisho uma ngigwinya
[72.215]
<no-speech>
[75.815]
<sta> uhuh bengingakh- <no-speech> bengingakhoni ukukhwe- ukukhwehlela kodwa beku- u- umkhuhlane nje kunama finyila <no-speech> ngikhuluma nangamakhala <no-speech>
[87.435]
<sta> mmhm
[89.565]
<no-speech>
[93.375]
<sta> yini kanti kufanele i- i- icishile
[97.115]
<no-speech>
[99.685]
<sta> <laugh> angazi ke
[101.805]
<no-speech>
[102.995]
<sta> ini <no-speech> iyicathulo
[105.495]
<no-speech>
[107.405]
<sta> awu angithi angithi lowo ngathi akazipose wathi akanamali <laugh>
[114.265]
<no-speech>
[117.255]
(()) <sta> mmhm shame bandla <no-speech> angithi siya ephathini kusasa emsebenzini <no-speech> (()) <sta> (()) year end function
[132.955]
<no-speech>
[134.065]
<sta> mmhm <no-speech> like year end function <no-speech> like bahlanganise abasebenzi beDepartment yethu bese babayenzele iphathi
[145.015]
<sta> (()) staff party
[149.345]
<no-speech>
[151.875]
mmhm
[152.365]
<no-speech>
[153.875]
<sta> hayi bo we shame kephi <no-speech> abajabulayo ilaba aba- abapermanent
[162.125]
<no-speech>
[164.245]
<sta> ehhe sebebanikile
[170.155]
<no-speech>
[171.225]
<sta> ngithi sebebabanikile
[174.755]
<no-speech>
[176.885]
mmhm <no-speech> <sta> kodwa ke hayi I hope ukuthi nathi next year siyangena ke lapho
[183.865]
<no-speech>
[184.695]
<no-speech>
[185.245]
<no-speech>
[187.685]
<sta> <no-speech> kungangcono <no-speech>
[192.475]
mmhm
[193.285]
<no-speech>
[194.135]
<no-speech>
[194.805]
<no-speech>
[195.965]
<no-speech>
[196.315]
<no-speech>
[198.715]
<sta> mmhm uright
[200.435]
<no-speech>
[201.645]
<no-speech>
[202.025]
<no-speech>
[204.705]
<sta> (()) ehhe baright kodwa ake ngimfonele kancane
[211.785]
<no-speech>
[217.605]
mmhm ubhuti (()) wabuya kahle
[219.725]
<no-speech>
[224.875]
<no-speech>
[226.845]
<no-speech>
[231.005]
<no-speech>
[231.475]
<no-speech>
[232.275]
mmhm <sta> <no-speech> mmhm kungcono ke <no-speech> mmhm
[238.745]
<no-speech>
[241.425]
mmhm
[242.345]
<no-speech>
[243.675]
kungcono kunjani kuwena nivala nini kambe
[245.915]
<no-speech>
[252.595]
why
[253.285]
<no-speech>
[254.755]
<no-speech>
[256.145]
<no-speech>
[259.975]
<sta> wenzani
[260.695]
<no-speech>
[263.045]
(())
[263.625]
<no-speech>
[266.095]
nizovala kusasa
[267.005]
<no-speech>
[271.025]
ohho kanjani
[272.305]
<no-speech>
[276.225]
<sta> ohho ini inyanga
[280.265]
<no-speech>
[283.015]
<sta> ohho mese ngoJanuary
[286.175]
<no-speech>
[293.825]
wenzeni
[294.595]
<no-speech>
[297.695]
<sta> kubani
[299.205]
<no-speech>
[301.675]
<no-speech> kodwa akashonanga yini futhi <no-speech> imuphi kanti oshonile
[305.315]
<no-speech>
[306.635]
<sta> imuphi kanti oshonile
[308.005]
<no-speech>
[308.955]
<sta> umuphi kanti oshonile ehhe
[312.985]
<no-speech>
[314.815]
<int> (())
[316.955]
<no-speech>
[317.845]
<int> mmhm ohho
[320.615]
<no-speech>
[322.275]
(())
[323.085]
<no-speech>
[324.575]
bengicabanga ukuthi mhlampe ilo ola ilo walapho <sta>
[328.375]
<no-speech>
[331.015]
(()) <int>
[332.475]
<no-speech>
[334.225]
ngicabanga ukuthi ilo <no-speech> bengicabanga ukuthi ilo wala wala lo ombambele manje <no-speech>
[339.445]
<no-speech>
[342.255]
<sta> mmhm <no-speech> uyena oshonile
[344.695]
<no-speech>
[345.020]
