[0.000]
<no-speech>
[1.575]
<no-speech>
[1.925]
<no-speech>
[3.215]
sho
[3.865]
<no-speech>
[6.575]
ehhe
[7.295]
<no-speech>
[10.155]
ya ya uFaro angithi lo
[12.005]
<no-speech>
[16.805]
ya mfwethu zithini nje lapho
[18.975]
<no-speech>
[21.245]
zithini lapho
[22.925]
<no-speech>
[23.735]
<no-speech>
[24.315]
<no-speech>
[25.615]
ngikhuluma noba
[27.095]
<no-speech>
[30.395]
hayi bo <no-speech> ehhe kahle kahle kanti lephone ihlala kuba
[34.255]
<no-speech>
[36.225]
lephone ihlala kuba <sta>
[39.015]
<no-speech>
[42.975]
ohho pho manje kade ilaphi ke ekuqaleni
[45.775]
<no-speech>
[48.785]
wangenza isilima wazibiza ngoZipa
[51.075]
<no-speech>
[57.215]
<hes> hayi bo mfwethu hayi ukhuluma nomunye umuntu walapho eThekwini
[61.985]
<no-speech>
[64.485]
ngithi ukhuluma nomuntu walapho eThekwini
[66.785]
<no-speech>
[69.745]
ya ya ya
[71.025]
<no-speech>
[73.765]
<no-speech>
[74.125]
<no-speech>
[75.685]
uba- odla ugwayi ohlaza
[77.235]
<no-speech>
[79.855]
eyi eyi eyi wendoda ungazongithatha kancane ngizokuminya ngempela
[83.695]
<no-speech>
[86.555]
<no-speech>
[86.955]
<no-speech>
[88.675]
hayi kanti kanti kahle kahle kanti
[90.645]
<no-speech>
[92.795]
inini
[93.775]
<no-speech>
[95.525]
<sta> uba- ophambanise omunye manje
[99.695]
<no-speech>
[101.665]
awukahle wena bo ukuphapha
[103.625]
<no-speech>
[107.495]
hayi bo awukahle bo uzodropa iphone kufone wena yini
[111.535]
<no-speech>
[117.315]
<laugh> awuye- phela bambisa omunye umuntu iphone uma kukhona umuntu osaphezu kwakhe <laugh> ngizokwenzenjani uma kukhona umuntu osaphezu kwakhe
[125.165]
<no-speech>
[128.785]
no uwena noYipa phela ngiyakuzwa uthuka uYipa lapho
[132.195]
<no-speech>
[135.045]
ehhe kusho ukuthi uphezulu kwaYipa
[136.875]
<no-speech>
[144.175]
hayi hayi hayi ndoda ngeke phela
[147.135]
<no-speech>
[152.695]
ekhaya ka- ka- ekhaya kaMsomi hayi awuzwa kanti ukuthi ukhuluma noba
[157.595]
<no-speech>
[161.005]
ukhuluma noMafi nje
[162.605]
<no-speech>
[165.895]
hayi ungazodlala ke ngami manje <hes> weNtwe <int>
[170.125]
<no-speech>
[174.135]
hayi bo
[175.195]
<no-speech>
[176.095]
hayi bafethu <no-speech> musani ukudla ngami kanjena
[179.075]
<no-speech>
[182.125]
yeyi yeyi yeyi
[183.535]
<no-speech>
[186.325]
ya mfwethu hayi iyangixaka nempilo iworst nje
[191.215]
<no-speech>
[198.685]
<hes> ehhe
[200.375]
<no-speech>
[203.575]
hawu mfwethu sengahlala e- sengahlala e-Australia awuyiboni yini inamba kanti
[207.915]
<no-speech>
[211.055]
ngithi awuboni yini inamba yami ukuthi sengihlala e-Australia
[213.755]
<no-speech>
[215.665]
<no-speech> <sta> ehhe ngihlala e-Australia mfwethu
[220.625]
<no-speech>
[223.805]
e-Australia
[225.455]
<no-speech>
[231.375]
<hes> hayi sa- bengingeke phela ngikwenze ngeke ngisafona ke
[237.835]
<no-speech>
[240.465]
uphi uMbombo
[241.535]
<no-speech>
[245.465]
ohho wena awukho kini
[247.135]
<no-speech>
[252.445]
wah ayingekeke akusiyena (()) manje ngihlala e-Australia manje yabo siyafona nje ubutitilizo
[259.765]
<no-speech>
[263.075]
Australia
[264.665]
<no-speech>
[267.905]
ya mfwethu sengathutha la eMzansi
[270.365]
<no-speech>
[273.055]
<no-speech>
[273.415]
<no-speech>
[275.465]
ohho kazi uphezulu kwabani
[277.425]
<no-speech>
[278.475]
<no-speech>
[279.235]
<no-speech>
[280.255]
<laugh> hayi okay okay okay
[284.835]
<no-speech>
[287.795]
ubani
[288.635]
<no-speech>
[292.355]
hayi uTu ngi- ngisendleleni eya estolo mina
[296.225]
<no-speech>
[300.945]
uTu usendleleni eya estolo ngisendlini mina
[304.505]
<no-speech>
[306.495]
<no-speech>
[307.335]
<no-speech>
[309.345]
hawu hawu hawu hawu hawu yini wena wajaha ukuvala kangaka iphone kufone wena yini
[315.325]
<no-speech>
[319.065]
yaphela ukuthi le-airtime yamahhala ngeke ngiphinde ngiyithole
[321.815]
<no-speech>
[324.275]
<no-speech>
[324.655]
<no-speech>
[326.485]
<sta> ohho eyi hayi hayi hayi hayi ndoda
[331.985]
<no-speech>
[332.835]
<no-speech>
[333.205]
<no-speech>
[337.215]
ohho awungizwise yena ke
[339.105]
<no-speech>
[341.745]
mmhm
[342.225]
<no-speech>
[345.245]
mmhm
[345.725]
<no-speech>
[347.265]
hayi bo
[348.315]
<no-speech>
[348.920]
