[0.000]
<no-speech>
[4.195]
<int> yebo yes yebo kunjani
[8.495]
<no-speech>
[10.415]
usaphila yebo watatazela
[13.215]
<no-speech>
[14.735]
hayi nami ngiyaphila
[15.975]
<no-speech>
[22.425]
<int> a- <hes> angizwa <int>
[24.815]
<no-speech>
[29.495]
yebo nami ngiyaphila manje uhambe kanjani njengoba njengoba kade uhamba uye uyobheka o-anti lapha
[37.485]
<no-speech>
[48.985]
<no-speech>
[49.355]
<no-speech>
[51.285]
okay
[53.285]
<no-speech>
[54.585]
okay
[56.185]
<no-speech>
[57.065]
yaso iyafika ke ebusuku
[58.555]
<no-speech>
[64.895]
<no-speech>
[71.235]
okay
[71.955]
<no-speech>
[73.315]
<hes> awusho ke (()) kuthiwani e
[76.715]
<no-speech>
[78.515]
uyithole njani
[79.485]
<no-speech>
[81.785]
uLinda uthi injani
[83.205]
<no-speech>
[87.535]
isebenza kuphi
[88.905]
<no-speech>
[91.935]
usebenza kuphi
[93.295]
<no-speech>
[97.705]
ngiye ngimbone ehamba ngemoto ebomvu nje <int>
[99.845]
<no-speech>
[101.565]
ehhe
[102.075]
<no-speech>
[111.745]
<int> usho kanje
[112.675]
<no-speech>
[115.955]
lalela ke namanje kusenjalo
[117.985]
<no-speech>
[121.435]
okay ngithi mina uLinda usebenzaphi
[124.025]
<no-speech>
[126.235]
<no-speech>
[126.615]
<no-speech>
[128.755]
isebenza kagesi
[129.785]
<no-speech>
[130.715]
<int> manje leya moto ebomvu aye ahambe ngayo e- eyaba
[134.655]
<no-speech>
[139.145]
okay (()) hayi uBayeni
[143.585]
<no-speech>
[146.135]
sengiyasho ukuba uba- uBayeni na umnikazi wayo
[148.285]
<no-speech>
[152.325]
okay ngiyezwakala kahle lapho
[155.295]
<no-speech>
[160.075]
<no-speech>
[160.465]
<no-speech>
[163.705]
<int> o ingakho manje kungezwakali kahle la
[166.155]
<no-speech>
[167.545]
kuneyimoto la e- eyiningi ehhe kuneyimoto la ehhe
[171.385]
<no-speech>
[174.255]
ehhe kunjalo mntanami manje ke nami ngisazosuka manje ngiye le epolice station ngiya epost office khona okusempeleni
[183.475]
<no-speech>
[187.035]
ehhe khona incwadi <int> engisazoyihambisa khona lapha manje
[189.715]
<no-speech>
[191.925]
ehhe
[192.535]
<no-speech>
[196.695]
uma ngisuka la ngiqonda le elentweni epolice station kune- kunepost office eduze kwakhona lapho
[203.375]
<no-speech>
[207.355]
ehhe
[208.575]
<no-speech>
[210.205]
manje awusho kahle nje- njengoba kuzovalwa nje <int> uyaphi wena <int> njengoba kuwuKhisimusi
[215.725]
<no-speech>
[220.425]
maphi amafamu
[221.535]
<no-speech>
[224.985]
siya laphi e- eMthwalume
[227.855]
<no-speech>
[229.455]
o <no-speech> ubuya eMzimkhulu
[231.765]
<no-speech>
[234.685]
okay <no-speech> yazi kuthand- kuthanda ukuba nomsindwana la akuzwakali kahle kodwa ngizwa kancane
[240.955]
<no-speech>
[244.575]
ehhe manje
[245.695]
<no-speech>
[247.975]
yabona uma sekushaya lezikhathi imoto ziba ningi kakhulu
[251.265]
<no-speech>
[254.035]
ya a- mnta- mntakamana uThemba umgcine nini uThemba wa- wakaBhadi
[259.205]
<no-speech>
[265.465]
okay ohho ungikhonzele kuyena benalomfana lo uMasa
[271.005]
<no-speech>
[277.865]
<int> ehhe
[278.465]
<no-speech>
[281.555]
ehhe ba- baba abangani abahlukani
[284.155]
<no-speech>
[289.435]
hayi bathanda kabi ugologo wena bo
[291.805]
<no-speech>
[295.545]
<int> sekuyimphuphelane yotshwala
[297.695]
<no-speech>
[304.105]
(()) bayoganwa nini labantu <no-speech> bebadala nje
[307.815]
<no-speech>
[310.495]
angempela
[311.345]
<no-speech>
[313.945]
<int> kwaze kwathini impela mntaka Ma eyi inkosi ngoba nemali
[319.045]
<no-speech>
[319.895]
<int> nemali (())
[321.335]
<no-speech>
[323.225]
(()) nami akuzwakali kahle hle ehhe
[326.555]
<no-speech>
[327.615]
kuneyimoto eyiningi
[328.885]
<no-speech>
[331.925]
(())
[332.425]
<no-speech>
[335.295]
<int> lalela ke
[336.345]
<no-speech>
[339.425]
mina ke nje- njengoba kuwuDecember nje <int> ngiyahamba nami
[344.915]
<no-speech>
[346.595]
ngiyeMzinto ke <int> mina
[348.085]
<no-speech>
[349.705]
ngiyeMzinto kamalume
[351.225]
<no-speech>
[352.105]
eMzinto
[353.225]
<no-speech>
[355.185]
ehhe ngiyeMzinto ehhe ngogibela iyimoto laphana erankini edrobheni ngogibela eThekwini imoto lezi lapho eBerea ehhe
[364.845]
<no-speech>
[366.045]
ehhe
[366.655]
<no-speech>
[368.495]
(()) kuzoba nomemulo khona umsebenzi ozoba khona ehhe
[373.655]
<no-speech>
[377.035]
yabo lentombazana ekuthiwa uPinky
[379.035]
<no-speech>
[380.655]
ehhe ku- kuzobe (()) uPinky ozobe emula uPinky mmhm
[386.015]
<no-speech>
[387.315]
(()) yebo uyena ozobe emula impela <int>
[391.125]
<no-speech>
[392.865]
<int> ehhe
[393.735]
<no-speech>
[395.955]
useyigomazi impela usekhulile <int>
[398.355]
<no-speech>
[401.575]
(())
[403.255]
<no-speech>
[411.355]
okay
[412.365]
<no-speech>
[415.575]
lalela ke mntaka Ma
[416.955]
<no-speech>
[421.375]
lalela ke mntaka Ma
[422.695]
<no-speech>
[424.375]
uKhisimusi unawo <int> uKhisimusi
[426.145]
<no-speech>
[430.125]
bengithi ngizo <no-speech>
[433.145]
(())
[435.205]
<no-speech>
[438.895]
uthanda ngikuthengeleni
[440.615]
<no-speech>
[444.675]
uthanda ngikuthengeleni
[446.265]
<no-speech>
[451.085]
u- uthanda ngikuthengeleni
[453.095]
<no-speech>
[457.405]
(())
[458.165]
<no-speech>
[462.155]
isikabhu <int>
[463.045]
<no-speech>
[464.845]
okay
[466.085]
<no-speech>
[466.945]
o ngoya lapha kaShare <no-speech> eMega city ehhe
[470.415]
<no-speech>
[473.355]
ngosithenga kwaShare eMe-
[475.255]
<no-speech>
[481.255]
(())
[481.765]
<no-speech>
[483.375]
zwakali kahle
[484.395]
<no-speech>
[487.745]
awuzwakali <int> umsindo la kulendawo
[489.905]
<no-speech>
[496.245]
e-Oxford
[497.265]
<no-speech>
[503.415]
o- okay ingcono khona
[506.505]
<no-speech>
[509.435]
awu
[510.115]
<no-speech>
[512.455]
ngizotshela lo mfana ke uMakhaye ukuthi angithathe ngoba unemoto
[517.605]
<no-speech>
[521.465]
kuba lula ke uma
[522.835]
<no-speech>
[524.515]
hhi
[525.065]
<no-speech>
[529.565]
uNathi phela ngihanjiswa uyena
[531.735]
<no-speech>
[538.535]
vele vele ngoba
[539.825]
<no-speech>
[540.665]
uwumuntu osebenza khona lapha eduze kwa- kwa- <breath> eThekwini lapha
[544.835]
<no-speech>
[550.115]
i- ibona phela abafana abazi iyindawo ehhe
[553.795]
<no-speech>
[561.715]
manje <no-speech> uyizwile indaba ya <no-speech> uMsholozi kuthiwa uthathile uthatha uMsholozi
[567.195]
<no-speech>
[571.045]
banomona abantu
[572.775]
<no-speech>
[580.970]
<no-speech>
[589.165]
hhi
[589.755]
<no-speech>
[594.175]
ya
[594.845]
<no-speech>
[596.705]
uyamubona lo uyabona isekela <int> lakhe leli <int>
[599.895]
<no-speech>
[600.020]
