[0.000]
<no-speech>
[5.905]
hello
[6.585]
<no-speech>
[8.485]
hello
[9.095]
<no-speech>
[10.245]
unjani
[10.945]
<no-speech>
[12.245]
hello hayi ke
[14.255]
<no-speech>
[15.065]
<sta> ya ya
[16.655]
<no-speech>
[18.105]
ya
[18.705]
<no-speech>
[19.605]
uZanele okhulumayo ngikhona unjani
[22.575]
<no-speech>
[23.705]
ngiright ya
[27.135]
<no-speech>
[29.715]
<laugh> omunye usisi khona khona iprojekthi ayenzayo manje lana njengoba ngikhuluma nawe
[36.045]
<no-speech>
[38.005]
njengoba ngikhuluma nawe nje siyaqophwa ke <no-speech> but kephi
[42.455]
<no-speech>
[43.585]
<sta> lalela u- ukhona msebenzi awenzayo umkhulu ugcine enze njani izolo
[49.905]
<no-speech>
[53.555]
o shame uthi ngithe ya
[56.305]
<no-speech>
[57.235]
<laugh> unjani uright
[58.955]
<no-speech>
[60.725]
ehhe
[61.185]
<no-speech>
[64.345]
bamenze njani ilento le umvuvukalo wakhe kunjani sekwehlile kubohlile
[68.775]
<no-speech>
[72.945]
inyawo but sekwehlile
[74.405]
<no-speech>
[75.305]
<no-speech>
[75.655]
<no-speech>
[78.275]
azo- azomenza angithi ilawa okuthiwani azomenza achame kakhulu angithi khona kuzodraineka amanzi
[83.795]
<no-speech>
[85.025]
<no-speech>
[85.695]
<no-speech>
[89.275]
okungcono ke shame beyenziwa yini leyonto kuthiwa yini indaba idalwa yini
[93.325]
<no-speech>
[98.455]
noma it's an old age
[99.895]
<no-speech>
[104.445]
<laugh> okay ke shuthi uzongibona nini wena awuzi la eNtuzuma
[110.585]
<no-speech>
[111.715]
<no-speech>
[112.285]
<no-speech>
[115.725]
awushongo awuzanga ngani ukuzongilanda eNtuzuma nami ngizobona umkhulu
[118.555]
<no-speech>
[125.685]
hawu Siya ngitheni kuwena
[126.975]
<no-speech>
[129.065]
awe
[129.905]
<no-speech>
[132.535]
o <no-speech> hayi kungcono yazi nisheshe naphuma uma kuyilesikhathi awusekho emsebenzini
[137.005]
<no-speech>
[143.865]
ohho
[145.115]
<no-speech>
[145.995]
usisi ukwenza wazombheka umkhulu noma ugcine nini nini kade ngihamba usisi wakho
[152.015]
<no-speech>
[153.515]
uzile u- <hes> ukini
[154.785]
<no-speech>
[158.555]
ohho okay ke uthini umkhulu uhleli kahle lapho
[162.885]
<no-speech>
[163.845]
abamhluphi onurse
[164.955]
<no-speech>
[169.585]
ohho phela babuye beyise
[171.465]
<no-speech>
[175.795]
<no-speech>
[176.165]
<no-speech>
[177.585]
okay <int>
[178.835]
<no-speech>
[181.585]
<laugh> ngihleli layikhaya ngiyapheka
[184.425]
<no-speech>
[186.395]
mmhm
[186.855]
<no-speech>
[188.315]
ehhe angithi uwena nje angani uwena awungilandanga nje nawe awungilandanga nje nawe
[194.105]
<no-speech>
[197.095]
ehhe
[197.615]
<no-speech>
[200.335]
ngithi uwena nje nawe awungilandanga so angisakubalanga emapuleyitini alayikhaya
[204.645]
<no-speech>
[206.505]
<laugh> ya
[213.355]
<no-speech>
[215.015]
lutho <laugh> phela angithi hello
[218.265]
<no-speech>
[219.295]
ngibuye ngingakuzwa nje nami ubuye ubreake
[221.595]
<no-speech>
[224.715]
hello
[225.525]
<no-speech>
[228.265]
hello <sta> hello
[231.955]
<no-speech>
[233.445]
angisakuzwa ngempela ukuthi uthini
[234.915]
<no-speech>
[238.785]
Siya
[239.435]
<no-speech>
[241.095]
Siya
[243.395]
<no-speech>
[244.575]
<no-speech>
[244.955]
<no-speech>
[247.655]
hello
[248.285]
<no-speech>
[249.565]
<no-speech>
[249.935]
<no-speech>
[253.395]
hello
[254.285]
<no-speech>
[262.845]
<sta> hello
[264.555]
<no-speech>
[265.715]
<no-speech>
[265.915]
<no-speech>
[268.300]
