[0.000]
<no-speech>
[0.005]
<no-speech>
[0.405]
<no-speech>
[4.085]
<no-speech>
[4.465]
<no-speech>
[13.645]
<no-speech>
[22.825]
manje kwathula
[23.795]
<no-speech>
[24.615]
<sta> ehhe
[25.845]
<no-speech>
[27.115]
<sta> ehhe <laugh> ubungishiyelani kaDladla
[29.065]
<no-speech>
[30.735]
he- <sta> ya wenzani ngakini
[33.215]
<no-speech>
[34.135]
<sta> okay <no-speech> ya besakhuluma nina ehhe
[42.275]
<no-speech>
[43.075]
<laugh> yini le okhuluma nayo
[46.425]
<no-speech>
[48.525]
kanjani <int>
[49.305]
<no-speech>
[50.625]
<laugh> hayi lutho <sta> <no-speech> kuqala abadle imbamba yini
[55.575]
<no-speech>
[57.805]
hayi shiya leyonto <laugh> yembamba
[60.455]
<no-speech>
[61.805]
<no-speech>
[62.155]
<no-speech>
[63.245]
<laugh> (())
[65.985]
<no-speech>
[68.745]
<laugh> ya eyi kuyashisa madoda
[72.515]
<no-speech>
[74.415]
<sta> hello ehhe
[76.835]
<no-speech>
[79.675]
eyisa- sacishile ilokhuzana amalento amacomputer alapha
[83.805]
<no-speech>
[86.535]
uyezwa
[87.355]
<no-speech>
[89.525]
eyi eyi sheshisa ndoda kufanele ukuthi ubuye ubuye kusasa
[92.595]
<no-speech>
[93.715]
manje shuthi umdlali walapha usuphelile ke nolayini ubala
[96.645]
<no-speech>
[99.625]
ehhe
[100.505]
<no-speech>
[103.145]
ehhe ya
[104.195]
<no-speech>
[107.665]
ehhe
[108.255]
<no-speech>
[111.875]
ya
[112.625]
<no-speech>
[115.255]
ehhe mfwethu
[117.225]
<no-speech>
[119.905]
(())
[120.575]
<no-speech>
[122.725]
ohho
[123.985]
<no-speech>
[125.385]
<sta> okay uphi uskwiza
[127.725]
<no-speech>
[131.135]
ohho ungenile
[132.305]
<no-speech>
[134.275]
okay <sta> nginendoda o- ongayazi la
[138.325]
<no-speech>
[139.485]
<laugh> <sta> bathi wawuhleli nesdudla la
[148.375]
<no-speech>
[150.425]
(()) <laugh> ehhe <sta> bathi wawucashile <laugh>
[159.695]
<no-speech>
[160.895]
bathi uhleli <sta> edepho wena emabhasini
[164.985]
<no-speech>
[166.165]
uyazi nje ukuthi (()) bonke bayichoma
[170.205]
<no-speech>
[171.805]
angithi uyakhumbula la kuthangi kwenzeke izimanga
[174.535]
<no-speech>
[176.655]
ehhe kunjalo kohlala kunjalo ke
[179.155]
<no-speech>
[181.725]
ngikhona la edolopheni
[183.565]
<no-speech>
[186.105]
siye sifune onyoko <sta> <laugh> (()) ahlawule ini
[194.145]
<no-speech>
[197.085]
<laugh> zikhona yini izimbuzi eThekwini <laugh>
[202.315]
<no-speech>
[203.535]
<laugh> <sta> ohlawula ngejuba ngoba iwona amaningi
[209.765]
<no-speech>
[214.095]
ehhe <int>
[214.945]
<no-speech>
[216.035]
<no-speech>
[216.545]
<no-speech>
[218.535]
<laugh> <sta> shuthi uzowafuna awabambe (())
[223.715]
<no-speech>
[225.295]
<sta> <laugh> yabo
[227.805]
<no-speech>
[228.905]
ehhe <laugh> ehhe uKhetha
[237.775]
<no-speech>
[240.105]
no Khesa ehhe <int>
[241.555]
<no-speech>
[243.045]
(())
[243.915]
<no-speech>
[246.985]
uphi <sta> hayi sesila ngaseworkshop
[250.385]
<no-speech>
[253.485]
<sta> uyezwa
[255.585]
<no-speech>
[257.465]
ehhe <sta> <laugh> <breath> u- <breath> <laugh> uze <hes> uza ungabizwa <laugh>
[264.765]
<no-speech>
[265.925]
<no-speech>
[267.745]
<no-speech>
[269.235]
ayikho <sta> shuthi seyobamba indikishi sesi (())
[274.805]
<no-speech>
[276.045]
<no-speech>
[276.395]
<no-speech>
[279.005]
ehhe
[279.595]
<no-speech>
[283.135]
hayi wodla zona iziceke lezi ne- nensipho ezisele <no-speech> mmhm
[288.065]
<no-speech>
[289.545]
<sta> uya- uyasazi isilevu <laugh> uthi uKhe- uthi uKheswa uyobamba isilevu <laugh>
[297.315]
<no-speech>
[301.495]
usuyofanele usuyokhalela kukhona
[303.825]
<no-speech>
[306.135]
hawu noma besikhulume saqeda konyoko <laugh>
[310.305]
<no-speech>
[313.975]
<laugh> <sta> hayi asazi ke mhlambe uyothola sigunguluze sashanela
[324.745]
<no-speech>
[325.915]
songa <int> amathambo
[327.065]
<no-speech>
[330.235]
<laugh> okay hayi uyogonguluza khona ke enyaweni
[337.085]
<no-speech>
[341.175]
ehamba noJune phela <no-speech> wathi ubabambise obaba omncane la
[345.835]
<no-speech>
[352.205]
baye koMakhafu <laugh>
[356.755]
<no-speech>
[359.465]
<laugh> bheka ke usulwa eGoli ziya <sta> nsuku zonke uyabona inyama ayisekho bazogunguluza (()) inkinga
[371.295]
<no-speech>
[371.885]
<no-speech>
[375.015]
<no-speech>
[376.485]
<no-speech>
[377.615]
<sta> (())
[379.805]
<no-speech>
[381.485]
mmhm
[382.155]
<no-speech>
[386.375]
anginazi phela mina ukuthi naniyaphi nina
[388.955]
<no-speech>
[390.845]
<no-speech>
[391.655]
<no-speech>
[393.005]
<laugh> nahlanganaphi kanti nina
[395.415]
<no-speech>
[401.405]
kanti nina nadibanaphi nina <sta>
[403.615]
<no-speech>
[404.835]
<sta> besuthi
[408.545]
<no-speech>
[410.315]
ahha <sta> ahha ahha ulambile wena
[412.845]
<no-speech>
[416.155]
<laugh> angani uthi wawuhleli <laugh> uthi wawuhleli noNqume nje wena
[423.245]
<no-speech>
[425.515]
yena
[426.165]
<no-speech>
[431.385]
<laugh> wena wawupholisha yena esebenza
[434.235]
<no-speech>
[435.435]
<no-speech>
[436.055]
<no-speech>
[437.985]
<laugh> ohho kushuthi ulimi lunomnqantula ke uncenga kushone ilanga phela <int>
[445.275]
<no-speech>
[447.905]
mmhm
[448.525]
<no-speech>
[450.055]
hayi angikayithinti nalendoda yakithi ngisazoyithinta <no-speech> <sta> hayi kodwa ukuthi ubuye ahluphe naye
[457.255]
<no-speech>
[459.065]
<sta> uyiphethe
[460.335]
<no-speech>
[462.325]
ehhe
[462.875]
<no-speech>
[465.315]
hayi
[466.035]
<no-speech>
[467.175]
uvele athi nila hayi awungiphelezele la <no-speech> hayi manje hayi hayi <sta> hayi endi (()) ehhe
[475.615]
<no-speech>
[476.645]
<no-speech>
[477.115]
<no-speech>
[478.165]
<sta> hayi ngiyomthinta usungasekho yabo
[482.285]
<no-speech>
[485.435]
hayi manje ngoba <sta> uzosuke aphazamise izihlwele eziningi
[488.745]
<no-speech>
[491.685]
thina <sta> sesila eGugu Dlamini
[494.645]
<no-speech>
[498.175]
sisabuka bona labobhululu bakho la abalokhuzana la
[502.785]
<no-speech>
[503.665]
(()) <no-speech>
[505.145]
ehhe <no-speech> laba abaphulazana khona <sta> la <no-speech> ehhe
[510.205]
<no-speech>
[511.275]
<sta> singabashayi
[513.075]
<no-speech>
[515.545]
hawu baphulazana la
[517.085]
<no-speech>
[519.465]
<laugh> (()) ngiloke ngiqwashiswa ngamasundu la ehhe
[524.305]
<no-speech>
[528.865]
engani sihamba ngasekhaya
[531.635]
<no-speech>
[532.755]
ehhe
[533.295]
<no-speech>
[534.285]
<sta> hayi ngizobaxebula mina <no-speech> ehhe
[541.925]
<no-speech>
[543.255]
<sta> u- wendoda
[545.675]
<no-speech>
[547.335]
e- ngithi mina ake ubuze phela egengeni ngoba sisakhona ubuze ukuthi le yalokhuzana yayithini
[553.755]
<no-speech>
[556.555]
uyayikhumbula leyanto ilokhu ikeyb- ini <sta> lento yecomputer
[561.685]
<no-speech>
[564.045]
<sta> ubala edolobheni
[566.055]
<no-speech>
[571.295]
ohho kanti wena imake usugezile
[573.745]
<no-speech>
[578.295]
eyi lalela phela <int> lalela khona into ezovela vele ekugcineni
[582.705]
<no-speech>
[585.355]
uyezwa <sta>
[587.695]
<no-speech>
[588.795]
<sta> ngithi mina khona into ezovela phela la ekugcineni
[592.015]
<no-speech>
[594.755]
ini <sta> engizoyithola
[596.275]
<no-speech>
[597.775]
ngale ngale airtime ehhe
[599.515]
<no-speech>
[600.020]
