[0.000]
<no-speech>
[3.355]
hello
[3.905]
<no-speech>
[5.455]
hello
[6.015]
<no-speech>
[7.355]
yebo sawubona <no-speech> heita
[9.745]
<no-speech>
[10.985]
<sta> ehhe sisethekisini la ngiza lapho KwaMashu
[14.625]
<no-speech>
[17.105]
ehhe hello
[20.485]
<no-speech>
[23.915]
hello
[26.185]
<no-speech>
[27.455]
hello ehhe ngiza lapho KwaMashu kukhonani
[31.705]
<no-speech>
[34.005]
hello
[34.565]
<no-speech>
[35.945]
<no-speech>
[37.005]
<no-speech>
[39.315]
ehhe ya <sta> <no-speech> usekhaya
[42.785]
<no-speech>
[44.635]
usekhaya
[46.125]
<no-speech>
[48.545]
ukuphi
[49.435]
<no-speech>
[50.735]
ehhe
[51.205]
<no-speech>
[55.785]
oh ngiza lapho ke niphekeni lapho
[58.355]
<no-speech>
[59.275]
ehhe niphekeni lapho
[64.255]
<no-speech>
[66.095]
niphekeni lapho
[67.555]
<no-speech>
[70.815]
niphekeni ehhe
[75.945]
<no-speech>
[77.115]
ngithi niphekeni
[80.965]
<no-speech>
[83.565]
seniphekile
[84.465]
<no-speech>
[86.755]
ohho
[87.565]
<no-speech>
[88.475]
ubuye nini esikoleni wena
[89.845]
<no-speech>
[91.075]
ubuyile yini esikoleni ehhe
[96.755]
<no-speech>
[99.815]
<int> kunjani
[103.205]
<no-speech>
[104.115]
ehhe
[105.705]
<no-speech>
[107.545]
<int> umsebenzi
[108.925]
<no-speech>
[111.445]
ngithi ubuye nini emsebe- ubuye nini esikoleni
[114.255]
<no-speech>
[116.725]
esikoleni (())
[119.005]
<no-speech>
[122.945]
ubuye nini esikoleni
[124.375]
<no-speech>
[131.185]
oh yabona uma sengifikile ke lapho sizohamba siyojima yezwa siyajima namhlanje
[136.105]
<no-speech>
[142.645]
ehhe
[143.185]
<no-speech>
[145.335]
hayi asihambe mfana siyojima hayi kuyafiwa namhlanje bekumunandi izolo zisha mfana yabona nalengoma ibimunandi kabi bezisho khona izolo
[155.005]
<no-speech>
[156.285]
mmhm
[156.945]
<no-speech>
[160.215]
ohho okay nifundeni namhlanje esikoleni ikhona into emnandi eniyifundile
[165.985]
<no-speech>
[167.455]
nifundeni namhlanje esikoleni
[168.845]
<no-speech>
[170.855]
yini (()) namhlanje
[173.125]
<no-speech>
[177.875]
benifunda ini esikoleni namhlanje
[179.865]
<no-speech>
[183.775]
<no-speech>
[185.305]
<no-speech>
[186.295]
nifunde ini esikoleni
[188.215]
<no-speech>
[190.915]
<no-speech>
[192.685]
<no-speech>
[195.215]
ehhe
[195.735]
<no-speech>
[196.785]
<no-speech>
[197.625]
<no-speech>
[200.255]
nifundeni
[201.055]
<no-speech>
[205.875]
<no-speech> <int> uwinile
[208.335]
<no-speech>
[212.415]
awu ehhe ashawe ubani amagoal
[215.515]
<no-speech>
[220.475]
we kanti awulazi ibhola wa
[223.095]
<no-speech>
[223.985]
<sta> besizohamba siyo- besizohamba siye egroundini ngoMgqibelo
[227.205]
<no-speech>
[229.575]
besizohamba
[230.405]
<no-speech>
[232.405]
ehhe
[232.975]
<no-speech>
[235.285]
<no-speech>
[235.635]
<no-speech>
[238.785]
ohho <no-speech> hayi ke kufanele sihambe siyobuka ibafana ke ngoMgqibelo uyabona sithole amathikithi
[245.275]
<no-speech>
[249.545]
uMajola uyadlala
[250.885]
<no-speech>
[258.895]
<int> aqala kuphi
[260.385]
<no-speech>
[264.685]
<int> ohho azobe kuphi
[266.395]
<no-speech>
[272.235]
ohho nawe kufanele uwangenele ke (()) <laugh>
[277.905]
<no-speech>
[279.775]
<sta> ngithi nawe kufanele uwangenele this year ama-idols
[283.775]
<no-speech>
[289.215]
ehhe uzo uzowangenela nawe
[291.395]
<no-speech>
[295.545]
oh <sta> (())
[299.145]
<no-speech>
[300.015]
<no-speech>
[300.365]
<no-speech>
[301.485]
ehhe <no-speech>
[303.125]
<no-speech>
[306.935]
ohho uhleli nobani pho lapho
[308.985]
<no-speech>
[310.505]
<no-speech>
[312.005]
<no-speech>
[316.125]
ohho nogogo
[317.745]
<no-speech>
[322.025]
ehhe
[322.575]
<no-speech>
[326.805]
(()) ngiseteksini mina
[328.955]
<no-speech>
[330.845]
(())
[333.075]
<no-speech>
[334.625]
ngiqhamuka edrobheni ngiza ngalapho
[336.705]
<no-speech>
[337.615]
<no-speech>
[337.995]
<no-speech>
[338.825]
<no-speech>
[339.355]
<no-speech>
[340.875]
mmhm
[341.615]
<no-speech>
[342.425]
oh kuyezwakala manje
[344.265]
<no-speech>
[346.425]
ngithi sengiyezwakala uyangizwa
[348.895]
<no-speech>
[354.385]
uyangizwa
[355.375]
<no-speech>
[360.375]
ohho okay
[361.535]
<no-speech>
[362.565]
nisafunda esikoleni kwenziwa amalokhuzane ama- amapracticali <int>
[365.015]
<no-speech>
[369.305]
(())
[371.185]
<no-speech>
[376.025]
ngisho eteamini naye uyeza kusasa
[377.915]
<no-speech>
[383.045]
nizobe nenzani
[384.035]
<no-speech>
[389.855]
oh beseniyagijima nijime
[392.595]
<no-speech>
[394.295]
oh nenze yonke into
[396.095]
<no-speech>
[397.845]
(())
[399.085]
<no-speech>
[403.965]
useskoleni uqala nini ukugijima amacompetition
[406.775]
<no-speech>
[414.535]
niqala nini ukugijima anikakaqali
[418.245]
<no-speech>
[423.205]
hawu kude kangaka
[425.155]
<no-speech>
[426.705]
ohho
[427.615]
<no-speech>
[428.665]
ohho idancing yona seniyiqalile
[431.525]
<no-speech>
[435.035]
<int> idancing seniyiqalile
[438.265]
<no-speech>
[444.565]
hayi hayi ngoba ngifuna ukuya kini (())
[449.965]
<no-speech>
[451.565]
uzo (()) kuphi this year
[453.025]
<no-speech>
[454.945]
(())
[456.105]
<no-speech>
[460.815]
uzoyithola itrophy this year
[462.865]
<no-speech>
[467.645]
uzoyithola itrophy this year
[470.075]
<no-speech>
[471.765]
<no-speech>
[472.295]
<no-speech>
[476.975]
itrophy kodwa uyoyithola this year
[479.195]
<no-speech>
[484.375]
<no-speech>
[485.525]
<no-speech>
[486.815]
ohho hayi ngikuphatheleni ke la edrobheni
[491.685]
<no-speech>
[500.365]
enje ngani
[501.265]
<no-speech>
[502.745]
enjenge- Aquelle
[503.715]
<no-speech>
[507.185]
nani
[507.935]
<no-speech>
[510.685]
nani
[512.335]
<no-speech>
[514.105]
nani
[514.965]
<no-speech>
[516.625]
nani
[517.515]
<no-speech>
[518.455]
<no-speech>
[518.825]
<no-speech>
[522.105]
hawu kanti awusayifuni i-I_Pad
[523.625]
<no-speech>
[528.675]
ehhe <laugh>
[529.855]
<no-speech>
[530.935]
<no-speech>
[531.295]
<no-speech>
[533.325]
ehhe
[534.245]
<no-speech>
[538.115]
<no-speech>
[538.645]
<no-speech>
[540.415]
oh nayo angikakaholi phela
[543.235]
<no-speech>
[545.435]
yezwa
[545.975]
<no-speech>
[549.415]
usuyasebenza bengifuna ukuyithola kanti awusayifuni manje
[553.975]
<no-speech>
[555.105]
angikakaholi
[556.695]
<no-speech>
[558.565]
bengifuna ukuthola usayifuna yini
[560.635]
<no-speech>
[566.755]
<no-speech> bengifuna ukubona usayifuna yini
[569.765]
<no-speech>
[571.435]
ehhe
[573.885]
<no-speech>
[575.295]
bengifuna ukuthola usayifuna
[578.205]
<no-speech>
[582.945]
ohho
[583.905]
<no-speech>
[584.765]
hayi ohho ngizobona ke oh <int> oh
[596.725]
<int> oh
[599.905]
<no-speech>
[600.020]
