[0.000]
and <hes> (()) nolusha
[2.505]
<no-speech>
[3.805]
<no-speech>
[4.175]
<no-speech>
[5.185]
<no-speech> <sta> uyabo nje isivalo lakhala balibamba bebangisana lawa <breath> kusebusuku benza emunyango <no-speech> isivalo angangasibona sishonaphi usisi lo owayedlula wasinyathela
[16.865]
<no-speech>
[22.325]
ngobani
[22.935]
<no-speech>
[24.885]
ya <no-speech> mmhm osasho ngani ukuthi hello
[27.575]
<no-speech>
[29.295]
hayi inethiwekhi yakho shuthi iyabheda ke ehhe
[32.025]
<no-speech>
[33.195]
<no-speech>
[33.555]
<no-speech>
[35.635]
mmhm ngithi mina usisi bo ngoba ola ekhaya <no-speech> manje khona <sta> lento hawe manje khona into akayenzayo kufanele ngikufonele amaminute ayishumi ungalivali amaminute ayishumi engakapheli
[47.585]
<sta> soyixoxela nje <no-speech> ubuwenzani ke (())
[52.565]
<no-speech>
[53.905]
<no-speech>
[54.325]
<no-speech>
[62.175]
uhuh ngithe mina mangabe lilokhuza ungalivali
[65.845]
<no-speech>
[67.765]
angithi usuyezwa
[68.805]
<no-speech>
[70.305]
mmhm wenzani ke lapho
[72.125]
<no-speech>
[74.015]
ehhe
[74.625]
<no-speech>
[76.665]
mmhm bayaphila inethiwekhi yakho ibuye ihluphe ekabani inethiwekhi ehluphayo <sta>
[83.535]
<no-speech>
[84.675]
ehhe
[85.305]
<no-speech>
[88.615]
mmhm kodwa ke njalo ungalivali njalo umangabe osangizwa ke ungalivali ngoba kukhona inamba okufanele ngizithole lana <sta> <no-speech> mosuqedile uyezwa
[97.335]
<no-speech>
[100.625]
mmhm kukhona inamba okufuneka ngithole ungaluvali wena ucingo
[104.465]
<no-speech>
[105.645]
ulokhu ukhuluma nje noma ungangizwa ehhe
[108.725]
<no-speech>
[112.185]
mmhm bakhona bayaganga oSpha ngamanzi
[116.075]
<no-speech>
[117.285]
baganga ngamanzi oSpha
[119.165]
<no-speech>
[124.315]
ehhe <no-speech> ehhe usebuyile abuye later nyana nje
[127.915]
<no-speech>
[132.455]
kade ngiqedile sengihlalele sengizovakashela kaMasithi
[135.915]
<no-speech>
[139.335]
mmhm
[140.255]
<no-speech>
[142.365]
<no-speech>
[142.775]
<no-speech>
[145.245]
hayi bo ngizokwenza lutho <laugh>
[148.805]
<no-speech>
[149.825]
ngeke ngenze lutho
[151.465]
<no-speech>
[153.345]
mmhm ngiyibo- mmhm ngiyibonile wenz- <no-speech> ehhe
[158.705]
<no-speech>
[164.465]
mmhm
[165.245]
<no-speech>
[168.835]
ohho okay yike
[170.445]
<no-speech>
[172.345]
mmhm
[173.085]
<no-speech>
[174.475]
uhuh uphuma isihlanu nanamhlanje <int>
[176.665]
<no-speech>
[178.855]
<sta> uyezwa
[179.825]
<no-speech>
[183.165]
uphuma isihlanu nanamhlanje <int>
[185.805]
<no-speech>
[187.775]
<sta> mmhm wenzani lapho <no-speech> ehhe
[194.525]
<no-speech>
[195.955]
<int> uhleli
[196.865]
<no-speech>
[197.825]
ohho <sta> okay yike mmhm <no-speech> hawu ye hheni webantu uwena umuntu uyajabula <no-speech>
[209.755]
<no-speech>
[209.905]
<no-speech>
[210.755]
<sta> wathini loyo udoti <no-speech> useClemont kanti
[222.505]
<sta> uzophindela nini emuva <no-speech> mmhm <no-speech> hamba tshela uNtobe akuphakele iphalishi
[233.965]
<sta> ehhe <int> <no-speech> uzophindela ezinsukwini
[241.785]
<no-speech>
[242.855]
uMsizi ufuna ngimphakele ipharishi nje uyangiphazamisa
[245.885]
<no-speech>
[247.385]
<sta> (())
[251.235]
<no-speech>
[253.245]
mmhm umakaNdu umakaNdu ngimtshelile <no-speech> wena uyabheda <sta> ngoba kuthiwa uyathengwa ubhasikidi <int> <no-speech> kuthiwa uyathengwa ubhasiki <no-speech>
[265.625]
<no-speech>
[266.935]
<sta> uyezwa <no-speech> <int> mmhm kuthiwa uyathengwa ubhasikidi <no-speech> ehhe
[278.525]
<sta> uthe umakaNdu uyathengwa naye umakaThando akazi lutho uzwa ngoMa wakhe <int>
[290.365]
<sta> angazi ke ungathi <no-speech> angazi ke phela kodwa phela bona bebengawazi
[302.265]
<sta> mawa zingilinde (()) kodwa kuthwa khona izinte eziphindele emuva <no-speech> ehhe hayi omkhulu <no-speech> omncane
[310.185]
<no-speech>
[313.735]
<no-speech>
[314.435]
<no-speech>
[316.325]
<no-speech>
[319.405]
<no-speech>
[321.995]
mmhm hayi sengiyezwa ke mengabe usuphinde ubuyela ke shuthi usungawuthenga sengiyakuzwa ke
[328.465]
<no-speech>
[329.785]
mmhm
[330.655]
<no-speech>
[335.155]
<no-speech>
[335.535]
<no-speech>
[336.475]
mmhm hayi <sta> sengiyezwa ke uma usho kanjalo ke hayi kodwa kokuthi nje awukho sidalo
[343.625]
<no-speech>
[349.475]
<sta> yini indaba bazowudla yini
[351.725]
<no-speech>
[353.015]
<sta> ngeke bawudle
[354.335]
<no-speech>
[355.875]
bangawudla
[356.895]
<no-speech>
[358.835]
ehhe
[359.335]
<no-speech>
[360.895]
hawu ngabe bakhona ke bo
[362.595]
<no-speech>
[363.695]
ngabe bakhona ke bo
[365.155]
<no-speech>
[366.335]
mmhm hawu nibonile lapha <no-speech> awubonanga la kudayiswa khona inkomo
[371.275]
<no-speech>
[372.225]
ehhe
[372.755]
<no-speech>
[384.185]
intoni
[384.945]
<no-speech>
[386.655]
mmhm mmhm
[387.915]
<no-speech>
[389.805]
mmhm angithi lo okuse- okusephi konje okusempuphini
[395.155]
<no-speech>
[400.315]
<no-speech>
[400.955]
<no-speech>
[401.815]
ohho mmhm ngiyakubona ke
[404.535]
<no-speech>
[405.445]
kuseduze komgwaqo
[406.785]
<no-speech>
[412.355]
hawe akusikhona la okuthiwa khona ikephi <no-speech> la ehlala khona
[416.445]
<no-speech>
[421.135]
mmhm nibonile ke nenkomo eningi
[423.895]
<no-speech>
[428.165]
ini
[428.715]
<no-speech>
[432.935]
mmhm ngiyakhumbula uMthembu esishayela leyonto
[435.725]
<no-speech>
[439.005]
wawubona
[439.975]
<no-speech>
[444.785]
imfulo emibili
[446.005]
<no-speech>
[450.265]
mmhm ngiyibonile ke
[451.905]
<no-speech>
[460.775]
ubani
[461.475]
<no-speech>
[465.535]
hawe ishi dade
[467.355]
<no-speech>
[468.955]
hayi usazohlupheka ke mfana
[471.085]
<no-speech>
[472.945]
<no-speech>
[473.665]
<no-speech>
[477.025]
thina njengoba sazi imfula nje ekwimap
[479.295]
<no-speech>
[483.985]
hayi isidadu uwena ke umuntu ke osuwazi indawo
[487.295]
<no-speech>
[488.555]
<sta> ngasikhathi sini
[492.435]
<no-speech>
[494.205]
ubungahanquzi kodwa indlala
[496.125]
<no-speech>
[497.485]
ubungasahanquzi kodw-
[498.985]
<no-speech>
[499.995]
nigibeleni senifika ngale
[502.795]
<no-speech>
[503.955]
akhona kodwa amatekisi
[505.385]
<no-speech>
[507.125]
mmhm <sta> ngisho ngale e- emhubheni nigibele amatekisi noma amaveni <no-speech> <laugh>
[515.025]
<no-speech>
[516.775]
<no-speech>
[517.245]
<no-speech>
[524.055]
wi akusizo ingqoshi into eyisile nje
[527.235]
<no-speech>
[531.825]
hawe Ma
[533.055]
<no-speech>
[535.975]
we hayi hayi hayi kuyalinywa lapho
[539.145]
<no-speech>
[541.485]
ehhe
[542.145]
<no-speech>
[543.355]
iyinsimu iyinsimu enkulu nje yaseBergville
[546.215]
<no-speech>
[555.555]
hawu shame ngaze ngaba dabukela
[557.395]
<no-speech>
[558.885]
hayi
[559.455]
<no-speech>
[565.015]
mmhm kunjani kuphezulu noma kuyisigodi
[568.875]
<no-speech>
[571.825]
we kuyisigodi nje
[574.235]
<no-speech>
[575.965]
<no-speech>
[576.975]
<no-speech>
[577.855]
<no-speech>
[578.225]
<no-speech>
[580.275]
<int> mmhm
[581.815]
<no-speech>
[583.865]
kungcono ke hayi usuyobuya usixoxele kahle ke
[587.155]
<no-speech>
[592.865]
mmhm <no-speech> mmhm ngoba uthi bazogimba ke
[596.135]
<no-speech>
[599.835]
<no-speech>
[600.020]
