[0.000]
ɔ m u ɲ e <no-speech> <sta> h ɛ l o 
[3.435]
<no-speech> 
[6.665]
<sta> ɛ ɦ e n a ɠ e <laugh> ɠ u h a m ɓ a ɠ a n ʤ a n i 
[9.465]
<no-speech> 
[11.875]
<sta> n tʼ o m b i f u th i 
[14.075]
<no-speech> 
[17.145]
<sta> ɔ ɦ o 
[18.455]
<no-speech> 
[19.455]
w ɛ z w a 
[19.995]
<no-speech> 
[20.995]
ɔ ɦ o h a m b a o j i ɮ ɛ l a l a ph o ɠ e o j i ɮ ɛ l a kh ɔ n a 
[24.185]
<no-speech> 
[26.025]
ɛ ɦ e n a ɠ e ŋ g i th i m i n a ɠ u h a m ɓ a ɠ a n ʤ a n i ɠ e l a ph o ɠ e b ɛ j ɓ i <breath> a w u ŋ i l a n d i s e ŋ g i th i ɠ u h a m ɓ a ɠ a n ʤ a n i l a ph o <breath> ɠ u h a m ɓ a ɠ a n ʤ a n i l a ph o 
[34.975]
<no-speech> 
[38.025]
<sta> o w u a w u ŋ i ǀh a z ɛ l e n ʤ e ŋ g e z i ŋ g e <no-speech> 
[42.485]
<sta> ŋ g i ǁ ɔ ǁ ɛ l e ŋ g i ǁ ɔ ǁ ɛ l a ŋ g e b i z i n i s i ph ɛ l a 
[45.915]
<no-speech> 
[51.645]
ɛ ɦ e 
[52.485]
<no-speech> 
[53.465]
<no-speech> 
[53.815]
<no-speech> 
[56.915]
ɛ ɦ e <sta> 
[58.015]
<no-speech> 
[60.685]
<laugh> a ph i u m s ɛ ɓ ɛ n z i 
[62.625]
<no-speech> 
[67.465]
<sta> i m pʼ a ɬ a ɓ a j i l ɛ th a ŋ g a ph a n a ŋ a ph a 
[69.865]
<no-speech> 
[76.395]
<int> u n a m a ŋ g a <no-speech> ɠ u ʃ u th i l a ph o ph ɛ l a <sta> ɠ u s ɛ ʧʼ ɛ n z w a u ɓ u s u ɠ u ɓ ɔ n ɠ e 
[79.375]
<no-speech> 
[81.515]
ʃ u th i ph ɛ l a l a ph o ɠ u f u n ɛ ɠ a ɠ u s ɛ ʧʼ ɛ n z w e <int> u ɓ u s u ɠ u ɓ ɔ n ɠ e a h a a h a a h a 
[84.895]
<no-speech> 
[87.445]
j ɛ j e n i w ɛ ɓ a n tʼ u <sta> ɛ n d i ɛ ɲ e i n tʼ o ɛ ɠ a d e ŋ g i j i ǀ a ɓ a ŋ g a u j a ɓ ɔ n a n ʤ ɛ ŋ g ɔ ɓ a ɛ n ɛ n e <hes> m i n a i z u l u a ɓ a n tʼ u a ɓ a kh o n i u ɠ u j i w a ʃ ɛ l a 
[96.975]
<no-speech> 
[99.615]
ɛ ɲ e i n tʼ o <sta> th ɔ l a ɠ u th i ɠ u z ɔ ɓ a n e b i z i ɠ e l a ph o ɠ u ɓ e b i z i ɠ u ɓ e b i z i u ɠ u ɓ e j i n ǃ a ɓ a 
[103.905]
<no-speech> 
[108.615]
<no-speech> 
[109.075]
<no-speech> 
[110.765]
<sta> j a 
[111.985]
<no-speech> 
[118.815]
j ɛ ɓ o j ɛ ɓ o a ɓ a g l u v a j o h a j i a ɓ a n a s o 
[121.685]
<no-speech> 
[127.445]
m h m 
[128.505]
<no-speech> 
[129.735]
<int> u ǃ i n i s i l e 
[130.615]
<no-speech> 
[133.255]
<laugh> i s i kh a th i a s i kh o 
[135.535]
<no-speech> 
[137.055]
<no-speech> 
[137.595]
<no-speech> 
[142.015]
<laugh> n ʤ ɛ ŋ g e b i ɛ n d i ɓ i <laugh> 
[144.415]
<no-speech> 
[148.875]
ɛ ɦ e 
[149.445]
<no-speech> 
[154.055]
<sta> n a m ɬ a n ʤ e 
[154.825]
<no-speech> 
[156.815]
a ʃ o kh ɔ n a n a m ɬ a n ʤ e <no-speech> m h m 
[159.325]
<no-speech> 
[161.025]
j e ɦ e n i w ɛ ɓ a n tʼ u 
[162.745]
<no-speech> 
[163.975]
h a j i 
[164.545]
<no-speech> 
[166.985]
<no-speech> <sta> j a z i ɠ e m i n a s ɛ ŋ g a ɓ ɔ n a ɠ u th i j i n i ɠ a n tʼ i ɛ j e n z i i ɓ e b i z i a ŋ g i th i ŋ g ɛ z w a i s tʼ o l i s a l a ph a ɠ u th i <no-speech> <breath> l a ph o a j i i l o w n d i l i ɔ w u o l u n d i i ɓ i kh ɔ n a v ɛ l e <no-speech> <breath> i n ɠ i ŋ g a ɓ ɛ ɓ ɛ ŋ a w a ʃ e l i kh ɔ n a ɛ ɦ e 
[178.335]
<sta> ɓ ɛ ɓ ɛ w a ʃ ɛ l a l e e f u l a j h e d i <no-speech> ɔ ɠ w ɛ n z a ɠ u th i ɠ e m a n ʤ e i w a ʃ i ŋ g j a kh o u ɬ a l e ɠ e u j i l i n d e w ɛ n a i w a ʃ i ŋ g j a kh o u j i l i n d e <no-speech> h a j i h a j i h a j i w i ʃ i i z l o ŋ i 
[187.045]
<no-speech> 
[189.855]
<no-speech> 
[190.295]
<no-speech> 
[192.045]
ɔ ɦ o <int> 
[193.765]
<no-speech> 
[197.835]
ɛ ɦ e 
[198.655]
<no-speech> 
[202.825]
ɛ ɦ e <no-speech> ɔ kh ɛ j i <int> 
[206.875]
<no-speech> 
[210.005]
ɔ kh ɛ j i 
[210.795]
<no-speech> 
[214.285]
m h m 
[214.835]
<no-speech> 
[217.685]
m h m <int> 
[220.155]
<no-speech> 
[221.255]
<sta> j a 
[221.875]
<no-speech> 
[223.995]
ɛ ɦ e <int> 
[224.735]
<no-speech> 
[227.975]
<sta> j a l i kh u m ɓ u l e u ɠ u j a l e <laugh> 
[230.125]
<no-speech> 
[231.405]
ɛ ɦ e 
[232.225]
<no-speech> 
[237.705]
<no-speech> 
[238.295]
<no-speech> 
[242.295]
ɛ ɦ e 
[243.075]
<no-speech> 
[252.855]
<no-speech> 
[253.205]
<no-speech> 
[261.935]
j a 
[262.605]
<no-speech> 
[264.695]
<sta> j a <no-speech> 
[265.835]
<no-speech> 
[269.985]
m h m 
[270.485]
<no-speech> 
[275.915]
<sta> ɛ j i ŋ g ɛ ɠ e ɔ w u 
[278.675]
<no-speech> 
[279.565]
<no-speech> 
[279.935]
<no-speech> 
[283.105]
ɛ ɦ e <int> <no-speech> a h a 
[285.795]
<no-speech> 
[289.705]
<sta> <laugh> <breath> f a n ɛ l e ŋ g i f i ɠ e ɠ e m ŋ g a n a m i f a n ɛ l e ŋ g i ɓ u j e 
[293.965]
<no-speech> 
[297.985]
m h m <sta> 
[298.865]
<no-speech> 
[300.425]

[301.155]
<no-speech> 
[307.775]
m h m m h m m h m 
[309.665]
<no-speech> 
[310.865]
<sta> ɠ a d e ŋ g i s a 
[312.595]
<no-speech> 
[314.055]
<sta> <oov> i h a m ɓ a ɠ a n ʤ a n i l e b i z i n i s i l e j e n ɠ u kh u 
[316.355]
<no-speech> 
[318.745]
<sta> h ɛ l o 
[319.365]
<no-speech> 
[322.525]
<sta> ɛ ɦ e <no-speech> 
[323.575]
<no-speech> 
[328.945]
<sta> m h m <no-speech> m h m 
[330.655]
<no-speech> 
[332.435]
<no-speech> 
[332.805]
<no-speech> 
[339.285]
<sta> ɛ ɦ e 
[339.905]
<no-speech> 
[343.405]
m h m 
[344.915]
<no-speech> 
[353.065]
<sta> j a 
[356.255]
<no-speech> 
[358.865]
j a 
[359.465]
<no-speech> 
[365.605]
<sta> ɔ kh ɛ j i 
[366.395]
<no-speech> 
[369.075]
<sta> m h m <no-speech> m h m 
[370.595]
<no-speech> 
[376.865]
m h m <no-speech> 
[378.415]
<no-speech> 
[379.805]
<no-speech> 
[380.415]
<no-speech> 
[381.455]
<no-speech> <sta> m h m 
[382.655]
<no-speech> 
[385.295]
<sta> a m i 
[386.515]
<no-speech> 
[390.525]
m h m 
[391.195]
<no-speech> 
[393.705]
<sta> w a th i n i w ɛ n a 
[394.865]
<no-speech> 
[397.035]
j a 
[397.795]
<no-speech> 
[404.405]
<int> j a 
[405.875]
<no-speech> 
[410.945]
<no-speech> 
[411.455]
<no-speech> 
[415.485]
<no-speech> 
[415.885]
<no-speech> 
[416.995]
m h m 
[417.495]
<no-speech> 
[419.235]
<no-speech> 
[419.715]
<no-speech> 
[424.015]
<sta> 
[424.655]
<no-speech> 
[428.955]
<no-speech> 
[429.315]
<no-speech> 
[430.635]
<no-speech> 
[431.105]
<no-speech> 
[436.045]
ɛ ɦ e 
[436.855]
<no-speech> 
[440.745]

[441.335]
<no-speech> 
[442.315]
<sta> u j a j i m i s ɛ l a i m pʼ ɛ l a 
[445.005]
<no-speech> 
[446.115]

[446.565]
<no-speech> 
[447.985]
j a 
[448.595]
<no-speech> 
[451.935]
m h m 
[452.445]
<no-speech> 
[459.185]
<no-speech> <sta> m h m <no-speech> 
[463.065]
<no-speech> 
[466.245]
ɛ ɦ e 
[467.045]
<no-speech> 
[470.175]
j a 
[470.895]
<no-speech> 
[472.685]
<no-speech> 
[473.225]
<no-speech> 
[479.185]
<sta> ɔ kh ɛ j i 
[482.705]
<no-speech> 
[487.015]
<sta> <no-speech> a ɓ a f a ɠ e ɠ ɛ ph i 
[489.705]
<no-speech> 
[491.525]
a ɓ a f a ɠ e ɠ ɛ ph i 
[492.485]
<no-speech> 
[495.685]
ɔ ɦ o <sta> ɔ kh ɛ j i <no-speech> ɛ ɦ e <no-speech> 
[500.445]
<no-speech> 
[512.295]
<no-speech> 
[513.115]
<no-speech> 
[515.985]
j a 
[516.905]
<no-speech> 
[518.515]
m h m 
[521.195]
<no-speech> 
[525.595]
<no-speech> 
[526.125]
<no-speech> 
[527.555]
<no-speech> 
[528.305]
<no-speech> 
[538.685]
<no-speech> 
[539.075]
<no-speech> 
[540.475]
ɛ ɦ e 
[541.115]
<no-speech> 
[542.575]
<no-speech> 
[543.135]
<no-speech> 
[546.745]
ɛ ɦ e 
[547.285]
<no-speech> 
[553.025]
<sta> m h m 
[553.615]
<no-speech> 
[559.185]
ɔ kh ɛ j i 
[559.865]
<no-speech> 
[561.015]
m h m m h m 
[563.025]
<no-speech> 
[565.195]
a h a a h a a h a <int> 
[567.285]
<no-speech> 
[568.375]
<sta> ɛ j i ɠ u ŋ g a ŋ ɡ|ɦ ɔ n o 
[569.655]
<no-speech> 
[574.005]
ɔ ɦ o j ɛ s i j ɛ s i j ɛ s i j ɛ s i 
[576.315]
<no-speech> 
[581.235]
<sta> <breath> j a i s tʼ a f u 
[582.345]
<no-speech> 
[583.385]
ŋ g i j a ɓ u j a ph ɛ l a <no-speech> <laugh> ɛ ɦ e ŋ g i j a ɓ u j a ŋ g i z ɔ ɓ e ŋ i ɓ a <no-speech> 
[591.975]
<laugh> ph ɛ l a 
[595.595]
<no-speech> 
[597.445]
<no-speech> 
[597.975]
<no-speech> 
[599.095]
<no-speech> 
[599.695]
<no-speech> 
[600.020]
