[0.000]
<no-speech> 
[8.242]
<no-speech> 
[16.483]
<no-speech> 
[24.725]
h ɛ l o 
[25.385]
<no-speech> 
[27.575]
h ɛ l o 
[28.335]
<no-speech> 
[30.295]
h ɛ l o 
[30.925]
<no-speech> 
[32.035]
j ɛ ɓ o u n ʤ a n i 
[33.235]
<no-speech> 
[34.885]
j a ŋ g i j a ɠ u z w a u n ʤ a n i 
[36.195]
<no-speech> 
[37.005]
ŋ g i kh ɔ n a <no-speech> h a j i ŋ g i th i l a ph a n a ŋ g a ɠ i th i <no-speech> h a j i m ɛ ɬ o m a d a l a ŋ g i kh ɔ n a j a z i ŋ g i th i l a ph a n a ŋ g a ɠ i th i ɓ a ʃ u th a a j i a j i i v i d i j o n e <no-speech> a s i l a l i e ɓ u s u ɠ u i m ɔ tʼ o a z i ŋ g e n i <breath> j a z i n i ph a n s i ph ɛ z u l u n ʤ e a ŋ g a z i ɠ u th i ɠ w ɛ n z a ɠ a l a n i 
[52.725]
<no-speech> 
[58.685]
ɓ a s i ʧʼ e l i l e m a ʁ a l e v i d i j o l e ɓ a s i ʧʼ ɛ l e ɠ u th i <oov> ɓ a z ɔ th a th a w a n i d ɛ j i m a n ʤ e ɓ a th ɛ th e i s i kh a th i ɛ s i d e <breath> j a z i a s i l a l i j a z i j o <int> i n tʼ o e s i j i ɓ ɔ n a l a ph a n a <no-speech> n a s e m i n i n ʤ e a ɓ a f u n i ɠ u th i s i kh u l u m e a ɓ a f u n i ɠ u th i s i ŋ ɛ n e j a z i i n tʼ o e s i j i ɓ ɔ n a j o l a ph a n a 
[73.085]
<no-speech> 
[83.745]
ɛ n d i ɠ u m ɛ l e ɓ a s i ɓ a th a l e ŋ g ɔ ɓ a l o b u tʼ i l o ɓ ɛ ɠ a ph a 
[85.995]
<no-speech> 
[87.975]
a ɓ a f u n i ɠ u th i u n o ɠ u th i s i kh u l u m e n ʤ e ŋ g i th i l o b u tʼ i l o ɓ ɛ ɠ a f a ɠ a i ɓ a f a i z ɔ l o ɓ a th i a j ɛ ɠ ɛ l e u ɠ u ɠ ɔ ɠ ɔ tʼ a l a ph a n a ŋ g ɔ ɓ a w ɛ n z a u m s i n d o 
[94.635]
<no-speech> 
[96.375]
i n tʼ o ɛ n ʤ a n i m a ʁ a l ɛ n a m a ʁ a ɛ ɦ e 
[98.035]
<no-speech> 
[100.565]
i m i l e l e m i s ɛ ɓ e n z i l ɛ n a 
[102.325]
<no-speech> 
[103.505]
u ɓ u j i l e j ɛ n a j a z i ɛ n d i u th e u m a e ɓ u j a w a ɓ u j a a g u l a 
[106.975]
<no-speech> 
[112.185]
u ph ɛ th w e i f l u a ŋ g i th i u ɓ u j e l e l e <no-speech> i a ŋ g i th i ɓ a h a m ɓ a ɓ a ɮ a l a m a d ɔ d a l a a j a ɮ a n ʤ e ɠ u ph ɛ l a 
[119.765]
<no-speech> 
[120.655]
<hes> <no-speech> m a n ʤ e u th e u m a e ɓ u j a 
[123.685]
<no-speech> 
[126.085]
a a a ɠ a h a m b i n a j e j a z i <no-speech> u ɓ o n i l e n a m ɬ a n ʤ e u pʼ i s tʼ o l i j a s u j ɛ kh ɔ tʼ e 
[130.545]
<no-speech> 
[131.895]
u z w i l e u pʼ i s tʼ o l i j a s u j ɛ kh ɔ tʼ e n a m ɬ a n ʤ e 
[133.805]
<no-speech> 
[144.765]
o w u <no-speech> u j ɛ n z a ɠ a n ʤ a n i l ɛ n tʼ o l ɛ j o <no-speech> m a ʁ a j a z i l ɛ n d ɔ d a l e n a m i ŋ g i z w e ɓ a th i a ɠ a s a ɬ a l i l a ph a n a 
[150.885]
<no-speech> 
[153.025]
ŋ g i z w e ɓ a th i i n d o d a a j i s a ɬ a l i l a ph a n a 
[154.805]
<no-speech> 
[158.925]
j o 
[160.435]
<no-speech> 
[165.685]
m a n ʤ e i g ɛ l f l ɛ n d i ph i m a n ʤ e j ɔ n a 
[167.565]
<no-speech> 
[168.565]
i g ɛ l f l ɛ n d i ph i j ɔ n a 
[169.825]
<no-speech> 
[181.605]
ɛ n d i m a ʁ a ɓ a <no-speech> a z a ŋ g e ɓ a d i v ɔ s e l a ɓ a n tʼ u l a ɓ a a ŋ g i th i 
[185.415]
<no-speech> 
[187.215]
ɓ ɛ ɓ ɛ ŋ g a d i v ɔ s a ŋ g a a ŋ g i th i l a ɓ a n tʼ u l a ɓ a 
[188.855]
<no-speech> 
[192.745]
j o j a ɓ ɔ n a ɠ u m n a n d i u ɠ u ɓ a u m f a z i w ɛ ph ɛ ph a 
[195.025]
<no-speech> 
[198.625]
m a ʁ a u j a ɓ ɔ n a ɠ u m n a n d i u ɠ u ɓ a u m f a z i w ɛ ph ɛ ph a 
[200.595]
<no-speech> 
[211.075]

[211.665]
<no-speech> 
[213.605]
a th u l e j a z i 
[215.035]
<no-speech> 
[218.365]
ɠ w a z i ɓ a n i ɠ u th i u ɓ e f u n a ɠ u th i v ɛ l e a f e n a j e 
[220.595]
<no-speech> 
[223.435]
ɛ ɦ e 
[224.065]
<no-speech> 
[231.305]
j o <no-speech> u ɠ a ɓ o u kh ɔ n a i z ɔ l o u ɓ ɛ ɠ a j e ɛ s a n th i n f o <no-speech> u ɠ a ɓ o ph ɛ l a u f u n a u m s ɛ ɓ ɛ n z i a ŋ g i th i u ɠ a ɓ o u th a n d a i m a l i 
[239.985]
<no-speech> 
[241.175]
u th a n d a i m a l i u ɠ a ɓ ɔ h ɛ l o s o m a ɠ a ɬ e l i ɛ kh a j a i m a l i i ŋ g a ŋ g e n i 
[244.665]
<no-speech> 
[246.565]
ɛ ɦ e 
[247.175]
<no-speech> 
[250.785]
i j o 
[251.635]
<no-speech> 
[252.955]
s o i z ɔ l o u ɓ ɛ ɠ a j e f o i n tʼ e v i j u l e ɛ s a n th i n 
[255.905]
<no-speech> 
[257.375]
ɛ ɦ e 
[257.985]
<no-speech> 
[259.545]
m a ʁ a l a a j a kh ɔ n a a ŋ g i ɠ u th a n d i ŋ g ɔ ɓ a <no-speech> 
[262.855]
j a u ɓ ɛ ɠ a j e ɛ s a n th i n f o i i n tʼ e v i j u m a ʁ a l a a j a kh ɔ n a a ŋ g i ɠ u th a n d i ŋ g ɔ ɓ a a m a <no-speech> a m a s e j i l z i ɓ a j a th e ŋ g i s a <no-speech> ɛ n d i d ɛ n i u ɦ ɔ l a ŋ g ɛ kh o m i ʃ i n i ɠ u th i u th e ŋ g i s e i z i n tʼ o e z i ŋ g a ɠ i u j a a n d a s i tʼ ɛ n d a 
[272.835]
<no-speech> 
[275.285]
j a s o u th i ɓ a th e m a ɠ a th e ŋ i s e ɠ a j i th l i 
[278.105]
<no-speech> 
[280.725]
a a a a m a ʁ a u th i m a ɠ a th e ŋ i s e i z i n tʼ o e z i w u tʼ i l i <no-speech> u z ɔ h ɔ l a tʼ i l i tʼ a w u z ɛ n d i kh a ph u l a u j a a n d a s tʼ ɛ n d a 
[286.885]
<no-speech> 
[288.095]
m a ʁ a m i n a ŋ g i th i ɠ u ŋ ɡ|ɦ ɔ n o ŋ g ɔ ɓ a ɠ u j a m f u n d i s a u kh e w a ɓ ɔ n a 
[291.165]
<no-speech> 
[292.495]
ɛ ɦ e 
[293.105]
<no-speech> 
[298.385]
j a <no-speech> j a <no-speech> ɠ u m f u n d i s i ɠ u th i a ɓ e l i s pʼ o n s i ɓ u l i u j a ɓ ɔ n a 
[301.955]
<no-speech> 
[304.215]
ɛ ɦ e ɛ ɦ e 
[305.765]
<no-speech> 
[308.715]
ɛ ɦ e <no-speech> ɛ ɦ e <no-speech> a h a a h a <no-speech> ɛ n d i i j a m kh i ph a n a s e kh a j a ɠ u th i a ɬ a l e e n ɮ i n i b i kh o s i <no-speech> 
[315.895]
ɛ ɦ e 
[316.505]
<no-speech> 
[318.175]
a ɠ u ɠ u d e <no-speech> u z a j ɛ n z a n ʤ a n i m i n a ŋ g a ŋ g i s ɛ ɓ ɛ n z a e pʼ i tʼ o l i <no-speech> ŋ g a ŋ g i s ɛ ɓ ɛ n z a e pʼ i tʼ o l i u z ɔ ɠ w ɛ n z a n ʤ a n i <no-speech> j i th i e s i m ɔ ʃ a l a ɓ a n tʼ w a n a l a ɓ a ɠ u th i a ŋ g ɛ ɠ e u ɠ u ɓ e ɠ u d e ɠ u m ɛ l e a h a m ɓ e a j e kh ɔ n a ɛ s a n th i n ŋ g a ŋ g i s ɛ ɓ ɛ n z a e pʼ i th u m i n a ŋ g a ŋ g i v u ɠ a ɛ ɠ u s ɛ n i <no-speech> s o ɠ u m ɛ l e a v u ɠ e n a j e 
[333.205]
<no-speech> 
[335.835]
u j e o z i f u n ɛ l e j a ɓ ɔ n a <no-speech> ɛ ɦ e <no-speech> s o u th i ɠ i m i j ɔ m a m a <no-speech> ɠ u m ɛ l e ŋ g i v u ɠ e ɛ ɠ u s ɛ n i ŋ g i th i j ɛ s i 
[342.985]
<no-speech> 
[344.265]
j a ɓ ɔ n a <no-speech> u s i j a j ɛ n a u h a m b a ɠ a n ʤ a n i ɛ s i ɠ ɔ l ɔ n i 
[347.605]
<no-speech> 
[354.125]
ɔ ɦ o ɔ kh ɛ j i 
[356.645]
<no-speech> 
[359.425]
ɔ ɦ o ɔ kh ɛ j i ɔ kh ɛ j i 
[360.915]
<no-speech> 
[362.015]
ɔ kh ɛ j i <no-speech> u m a w ɛ ɓ a th u u n ʤ a n i u m a w e 
[365.645]
<no-speech> 
[366.875]
u m a w e u n ʤ a n i 
[367.815]
<no-speech> 
[373.135]
ɛ ɦ e <no-speech> ɠ ɔ n ʤ e u ŋ g a ɠ a n a n i m a n ʤ e u m n tʼ w a n a 
[376.935]
<no-speech> 
[378.485]
u ŋ g a ɠ a n a n i 
[379.345]
<no-speech> 
[383.185]
o w u ɓ a th u u s ɛ s ɛ m n ǀ a n e m ɔ s l o m n tʼ u w a n a 
[385.755]
<no-speech> 
[386.635]
a h a m u ɬ e u f a n a n a w e 
[389.635]
<no-speech> 
[390.535]
u f a n a n o a n tʼ i s u w a l i n e 
[392.265]
<no-speech> 
[393.305]
a m a d i m pʼ u l i s i <no-speech> a m a d i m pʼ u l i s i 
[395.415]
<no-speech> 
[397.485]
<no-speech> 
[399.135]
<no-speech> 
[401.865]
ɔ ɦ o h a j i h a j i ŋ g i j a ɓ o <no-speech> 
[406.265]
ɔ ɦ o ɔ kh ɛ j i i u s i s a n d a n e 
[408.765]
<no-speech> 
[410.275]
ɔ ɦ o ɔ kh ɛ j i <no-speech> ɠ ɔ n ʤ e n i th e i g a m a l o m n tʼ u w a n a u ɓ a n i 
[413.265]
<no-speech> 
[420.475]
j o 
[421.105]
<no-speech> 
[422.765]
j o <no-speech> j o 
[424.955]
<no-speech> 
[426.535]
u <no-speech> m a ʁ a ɓ a ɡ|ɦ w a l i s ɛ l a w ɛ n a ph ɛ l a a ŋ g i th i u w e ɠ u ph ɛ l a i n tʼ ɔ m b a z a n e ɠ i n i 
[430.205]
<no-speech> 
[431.915]
ɓ a ɡ|ɦ w a l i s ɛ l a w ɛ n a <no-speech> s e n i ŋ g a m a n tʼ ɔ m ɓ a z a n e n i <no-speech> 
[436.685]
<hes> h a j i m a ʁ a a m a n tʼ ɔ m ɓ a z a n e a ɡ|ɦ w ɛ l e m a n ʤ e ph ɛ l a 
[439.185]
<no-speech> 
[440.115]
a a s e n i ɡ|ɦ w ɛ l e m a n ʤ e s e n i ɡ|ɦ w ɛ l e m a n ʤ e ɠ u m ɛ l e ɠ u z e u m f a n a m a n ʤ e ɠ u m ɛ l e u l a n d ɛ l e w ɛ n a w ɛ n z e u m f a n a 
[444.815]
<no-speech> 
[446.475]
w ɛ n z e u m f a n a u m ɓ i z e u ʤ a ɓ u l a n i 
[448.045]
<no-speech> 
[449.145]
<no-speech> 
[451.635]
<no-speech> 
[452.945]
<no-speech> 
[454.495]
<no-speech> 
[455.725]
<laugh> u ʤ a ɓ u u ph i j ɛ n a 
[458.485]
<no-speech> 
[460.355]
u ʤ a ɓ u u ph i 
[461.195]
<no-speech> 
[465.495]
u s a th a n d a u ɠ u ɬ a l a ɛ kh a j a n ʤ ɛ ŋ g a m i 
[467.695]
<no-speech> 
[469.725]
ɛ ɦ e 
[470.315]
<no-speech> 
[474.955]
m i n a ɓ e ŋ g i ŋ g a j a ŋ g a i z ɔ l o <no-speech> ɓ ɛ ŋ g a j a ŋ g a i z ɔ l o n a n a m ɬ a n ʤ e a ŋ i j a ŋ a 
[479.415]
<no-speech> 
[481.055]
h a j i m a ʁ a ɓ a a ŋ g i th i ɓ e ŋ g i g u l a 
[482.565]
<no-speech> 
[484.295]
<hes> u j a ŋ g a z i m ɔ s u j a ŋ g a z i <no-speech> ɛ ɦ e 
[489.535]
<no-speech> 
[494.565]
j i n i i n ɠ i ŋ g a 
[495.385]
<no-speech> 
[497.015]
ɛ z a n i 
[497.705]
<no-speech> 
[502.545]
ɔ ɦ o n ɛ n z a a m a ph i l i ph e d i o n ɛ n z a i n i 
[504.845]
<no-speech> 
[506.135]

[506.805]
<no-speech> 
[510.475]
ɔ ɦ o 
[511.165]
<no-speech> 
[515.415]
ɔ ɦ o <no-speech> ɔ kh ɛ j i 
[517.765]
<no-speech> 
[519.225]
h a j i ɠ u z o l u ŋ a m f a z i <no-speech> f u n a u f u n i s i s e <no-speech> f u n a u f u n i s i s e 
[524.555]
<no-speech> 
[525.715]
ɛ ɦ e j a z i m f a z i s e s i ǃ e d i l e l a ph a n a s e s i z o v u l a 
[529.305]
<no-speech> 
[530.255]
s e s i ǃ e d i l e l a ph a n a <oov> <no-speech> s e s i z o v u l a m a n ʤ e <no-speech> i s e s i z o v u l ɛ l a a ɓ a n tʼ u ɓ a z ɔ ɓ ɔ n a <no-speech> a ɓ a f a n a n a n i 
[537.275]
<no-speech> 
[540.185]
ɛ ɦ e 
[540.765]
<no-speech> 
[542.405]
j a ɛ n d i u s a m u ɠ ɛ l o u j ɛ z a u s a m u ɠ ɛ l o <no-speech> u s a m u ɠ ɛ l o u j ɛ z a <hes> u ɲ a ɠ a m a w u ph ɛ l a 
[549.875]
<no-speech> 
[554.705]
<hes> u j a f i ɠ a u s a m u ɠ ɛ l o ɛ n d i l a ph o ŋ g o <no-speech> 
[558.415]
ɛ ŋ g ɔ l w e s i n e ɓ a j ɛ n z ɛ l a l ɔ w a m tʼ w a n a l ɔ j a n a i b ɛ d d e j i 
[561.245]
<no-speech> 
[565.835]
m h m 
[566.515]
<no-speech> 
[567.795]
<hes> h a j i s i j a ɓ ɔ ŋ g a j a z i 
[569.285]
<no-speech> 
[572.965]
ɛ ŋ g ɔ l w e s i n e l e <no-speech> <oov> ɠ u pʼ a l i s a 
[576.105]
<no-speech> 
[577.315]
h a j i ɓ ɛ n z ɛ l a u m n tʼ w a n a i b ɛ d d e j i 
[579.035]
<no-speech> 
[581.135]
h a j i m i n a a ŋ g a z i m i n a a ɓ a ŋ g i ʧʼ ɛ l a ŋ g a a ŋ g i th i ɓ a ʧʼ ɛ l e u b u tʼ i w a kh ɔ n a 
[584.465]
<no-speech> 
[588.265]
e m i n a <oov> <no-speech> ɛ ɦ e u b u tʼ i w a kh ɔ n a u j a ʃ o ɠ u th i h a j i ɓ a j a m ʧʼ ɛ l a ɠ u th i ɠ u n ɛ ɓ ɛ z d ɛ j <no-speech> s o u b u tʼ i w a kh ɔ n a n a kh ɔ n a a ɠ a ʃ o ɠ u th i i s i z e o s i ŋ g a z i o ɠ a n ʤ a n i b a th i m i n a ŋ g ɛ ɠ e ŋ g i j e e n i w e j i 
[599.825]
<no-speech> 
[604.175]
ɛ ɦ e 
[605.325]
<no-speech> 
[607.455]
u j a ɓ ɔ n a 
[608.155]
<no-speech> 
[610.715]
u j a ɓ ɔ n a <no-speech> j a ɓ ɔ n a 
[612.445]
<no-speech> 
[614.195]
<hes> h a j i <no-speech> h a j i m a ʁ a a ɠ u n a n ɠ i ŋ g a ɠ e <no-speech> a ɠ u n a n ɠ i ŋ g a m f a z i i w a ʃ i ŋ i u j e n z i l e <no-speech> h a j i ŋ g i ʁ a j th i j a z i a a ŋ g ɛ ɠ e ŋ g i kh o m pʼ u l ɛ j n e j a z i ŋ g i ʁ a j th i 
[623.275]
<no-speech> 
[624.175]
<hes> <no-speech> a ŋ g ɛ ɠ e <no-speech> 
[630.275]
<no-speech> 
[630.495]
<no-speech> 
[630.803]
