[0.000]
<no-speech> 
[9.533]
<no-speech> 
[19.065]
h ɛ l o 
[19.505]
<no-speech> 
[20.445]
j ɛ ɓ o 
[20.995]
<no-speech> 
[23.375]
ʃ o ʃ o ʃ o 
[24.395]
<no-speech> 
[25.675]
ɛ ɦ e 
[26.185]
<no-speech> 
[27.475]
ɛ ɦ e 
[27.985]
<no-speech> 
[29.255]
ɔ ɦ o z i th i n i h a j i ŋ g i j a ɠ u z w a 
[32.125]
<no-speech> 
[34.435]
ɛ ɦ e 
[34.935]
<no-speech> 
[36.115]
ɛ ɦ e 
[36.575]
<no-speech> 
[38.065]
u j a ph i l a w ɛ n a u n ʤ a n i w ɛ n a 
[39.525]
<no-speech> 
[43.925]
ŋ g u s ɔ l o m f ɔ w ɛ th u z i th i n i 
[45.955]
<no-speech> 
[47.745]
h ɛ l o 
[48.285]
<no-speech> 
[51.725]
<int> ɛ ɦ e 
[52.235]
<no-speech> 
[56.055]
<int> i n ɛ n d a ɓ a z i th i n i 
[58.235]
<no-speech> 
[61.695]
<int> ɛ ɦ e 
[62.225]
<no-speech> 
[67.695]
a a a ɓ a ŋ g e <int> ɛ s a m ɓ u z a n ʤ e l o ɛ ɦ e 
[70.405]
<no-speech> 
[73.485]
ɛ ɦ e a w u z w a ɠ a l i ɠ a ɬ e m f w ɛ th u u j a kh a th a a a w u ʃ i f tʼ e m f w ɛ th u 
[77.775]
<no-speech> 
[79.405]
<no-speech> 
[79.905]
<no-speech> 
[81.655]
u j a ŋ g i z w a m a n ʤ e 
[82.495]
<no-speech> 
[83.685]
j a <oov> a ɠ a m ɓ u z e a h a ŋ g i j a ɠ u z w a 
[87.605]
<no-speech> 
[92.895]
u ɓ u s a m ɓ u z o n ʤ e l o ɓ e ɓ e z i th i n i 
[97.385]
<no-speech> 
[98.305]
l o s i s i a ɠ a a ɠ a z w a ŋ g a u m ɓ u z o j i n i i n d a ɓ a z i th i n i 
[101.725]
<no-speech> 
[107.465]
ɛ ɦ e 
[107.895]
<no-speech> 
[110.065]
<sta> m a n ʤ e ŋ g ɔ ɓ a n ʤ ɔ ɓ a ɠ a d e ɛ ʃ o ɠ u th i ɛ ɦ e n ʤ ɔ ɓ a ɠ a d e ɛ ʃ o ɛ th i ɛ z ɔ ǃ ɔ ʧʼ w a ɛ ɦ e ph u m l a n i 
[120.835]
<no-speech> 
[122.055]
n ʤ ɔ ɓ a a a z a ŋ g e a z a ŋ g e a ɓ u z e u m ɓ u z o n ʤ e j i n i i n d a ɓ a 
[124.855]
<no-speech> 
[129.805]
ɛ ɦ e 
[130.275]
<no-speech> 
[131.785]
j a z i u j a kh a th a m f ɔ w ɛ th u 
[133.395]
<no-speech> 
[135.495]
ɔ ɦ o u f u n a ɠ u th i s i kh u l u m e n a w e <no-speech> 
[138.975]
ɛ ɦ e 
[139.455]
<no-speech> 
[143.165]
j a z i ph u m l a n i m f w ɛ th u u u j a kh a th a b ʁ a w a m i 
[145.455]
<no-speech> 
[147.235]
w e ph u m l a n i 
[147.955]
<no-speech> 
[151.625]
j a z i u u j a kh a th a b ʁ a w a m i u j a kh a th a ǀ a ɓ a ŋ g a 
[155.455]
<no-speech> 
[160.195]
j a s e ŋ g i j a ɠ u z w a ɠ a ŋ ǀ a n e m a n ʤ e ɠ ɔ d w a n ʤ e <no-speech> j a s e ŋ g i j a ɠ u z w a ɠ u th i a ŋ g a z i n ɔ m a l e l e n e th i w e kh i ɠ u w ɛ n a i l o kh u z a n a a j i i j a kh a th a j i n i z i th i n i m f a n a a ŋ g i s a ɠ w a z i n a w e 
[171.025]
<no-speech> 
[176.005]
u j a ǀ a ʃ a w ɛ n a 
[177.285]
<no-speech> 
[179.335]
w a ɛ j i m f ɔ w ɛ th u m a n ʤ e l a ph a n a l e l e n d a ɓ a j a l a ph o ɛ m l w a n e l a u ɠ u a pʼ u l a j a kh ɔ n a u j ɔ ʃ a j a i tʼ l a d e th e s tʼ i z i th i n i 
[188.215]
<no-speech> 
[191.625]
ɛ ɦ e 
[192.125]
<no-speech> 
[195.255]
a h a <oov> l a ph a ɠ i th i n a 
[196.685]
<no-speech> 
[201.195]
a h a a ŋ g i th i kh ɔ n a m f ɔ w ɛ th u a ɓ a z ɔ ǃ a l a n g ɔ ʤ a n u w a l i w ɛ n a ɓ ɛ s e u f i ɠ e n ʤ e u a pʼ l a j i l e m a n ʤ e m ɬ a m pʼ e u ŋ g a f i ɠ e l a ph a n a u ɓ e i n tʼ w a n a u ɓ e g i l e n d i 
[209.215]
<no-speech> 
[220.155]
a h a i m a ɠ e u <hes> j a ʃ a j ɛ l ɛ l w a u w ɛ n a 
[222.815]
<no-speech> 
[227.725]
n ɔ w u w a n d a i ʃ a j a j i ph i i l o kh u j e j e th i l e d i 
[230.905]
<no-speech> 
[231.865]
<oov> i ʃ a j a j i ph i i tʼ l a d e 
[233.715]
<no-speech> 
[234.815]
<int> ɛ ɦ e 
[235.275]
<no-speech> 
[238.105]
<oov> n ɔ ɠ w a n d a <oov> ɠ u th i <oov> ɛ ɦ e a ŋ i ɓ a z i ɠ u th i ɠ u ɡ|ɦ w ɛ l e l a ph a n a ɓ u ɠ a l a w a j a z i ŋ g a ɓ e <no-speech> w a th a th w a ǀ a ɓ a ŋ g a m f ɔ w ɛ th u 
[244.875]
<no-speech> 
[248.585]
m i n a ŋ g i ɠ a l o kh u z a n a ŋ g i ɠ a pʼ l a m ɓ i ŋ <no-speech> pʼ l a m ɓ i ŋ 
[252.565]
<no-speech> 
[254.305]
ɠ a pʼ l a m ɓ i ŋ g <oov> <hes> a h a 
[256.265]
<no-speech> 
[257.325]
<no-speech> <sta> 
[259.055]
<no-speech> 
[262.625]
a w u m f ɔ w ɛ th u ǀ a ɓ a ŋ g a n o s ɓ u ǀ a ɓ a ŋ g a w a ɠ a w ɔ tʼ a m f ɔ w ɛ th u u s i ɓ u u j a ɓ o ɛ ɦ e 
[269.965]
<no-speech> 
[271.765]
m a n ʤ e z i th i n i u s i ɓ u m f ɔ w ɛ th u w a ɠ a w ɔ tʼ a u m u n tʼ u ɔ ŋ g ɛ kh o n ʤ e m f ɔ w ɛ th u u w ɛ n a n o s i n d i s w a ɔ ɦ o n ɔ w u n ɔ w u a v i w e u s ɛ ǃ a z a u a v i w e u m ʃ e l i u m ʃ ɔ ɠ ɔ ɓ e z i u j a j i ɓ o l ɛ j ɔ n tʼ o 
[283.495]
kh ɔ n a n ɔ th a l ɛ n tʼ e u j a ɓ o n ʤ e n o ph i n d i l e 
[287.235]
<no-speech> 
[288.455]
ɛ ɦ e 
[288.925]
<no-speech> 
[290.505]
a h a m f ɔ w ɛ th u a h a l i kh ɔ n a n ɛ w ɛ l e l a kh o 
[294.365]
<no-speech> 
[295.795]
h a j i m f ɔ w ɛ th u ɓ a kh ɔ n a a m a a w u th u m f ɔ w ɛ th u ɓ a kh ɔ n a m f ɔ w ɛ th u a m a a w u th u m f ɔ w ɛ th u u ɬ a l e <oov> <hes> <int> ɛ ɦ e 
[303.875]
<no-speech> 
[305.375]
a h a <no-speech> 
[307.495]
w a w a th i w ɛ n a u u z ɔ f i ɠ a n ʤ e 
[310.015]
<no-speech> 
[312.065]
<sta> 
[312.645]
<no-speech> 
[314.205]
<no-speech> 
[314.565]
<no-speech> 
[319.655]
a h a 
[320.415]
<no-speech> 
[321.315]
ɔ ɦ o h a j i j i z o ɠ e 
[322.785]
<no-speech> 
[328.365]
w a ɠ ɔ d w a ɠ u ŋ ɡ|ɦ ɔ n o ŋ g ɔ ɓ a n tʼ w a n a u j i i j i i j i ph i i l ɛ m pʼ a ɬ a l e j a m a s e kh u l i th i l a w a a a ɠ a th i l a n s i n e th i 
[333.255]
<no-speech> 
[338.985]
u s ɛ m ŋ g e n i 
[339.765]
<no-speech> 
[341.305]
z i th i n i ɛ m ŋ e n i <sta> z i th i n i ɛ m ŋ e n i z i th i n i ɛ m ŋ e n i 
[346.215]
<no-speech> 
[348.555]
<no-speech> 
[348.945]
<no-speech> 
[354.155]
ɔ ɦ o a h a <sta> w a h a j i ɠ u ŋ ɡ|ɦ ɔ n o ŋ g ɔ ɓ a <no-speech> 
[359.855]
ɠ u ŋ ɡ|ɦ ɔ n o ɠ ɔ d w a m f ɔ w ɛ th u 
[361.005]
<no-speech> 
[362.725]
a a a ŋ g i th i n a j e <no-speech> a a a ŋ g i th i n a j e w a w a j e l e ɠ w ɛ s a kh e u j a ɓ o 
[368.375]
<no-speech> 
[370.915]
m a n ʤ e n ʤ e m f ɔ w ɛ th u ɠ w a ɡ|ɦ i n a n ʤ e ɠ w i l ɛ j ɔ n tʼ o n ʤ e m a n ʤ e n a j e u s ɛ z o a pʼ l a j a ɓ a l i ɓ ɛ l e ɓ ɛ n z a ɠ a ŋ ǀ a n e m f ɔ w ɛ th u 
[376.745]
<no-speech> 
[378.265]
<no-speech> 
[378.775]
<no-speech> 
[382.975]

[383.535]
<no-speech> 
[384.505]
ɛ ɦ e 
[385.045]
<no-speech> 
[386.585]

[387.515]
<no-speech> 
[389.385]
ɛ ɦ e <oov> u j a kh u l a u j a kh u l a u j a kh u l a u j a kh u l a <no-speech> ɛ j i m f w ɛ th u 
[395.855]
<no-speech> 
[397.495]
i ʃ i m d a l a m a n ʤ e <no-speech> 
[401.575]
u s e j i n tʼ o m ɓ i n ʤ e m f ɔ w ɛ th u u s e j i n tʼ o m ɓ i j a u ǃ ɛ ɠ ɛ th a n i u f a n a n ɔ m a w a kh e u j a ǃ ɛ ɠ ɛ th a 
[406.915]
<no-speech> 
[408.375]
u j a kh u l u m a <sta> ɛ j i a ɠ a ǃ ɛ ɠ e th i ɠ a n ʤ e 
[411.645]
<no-speech> 
[412.975]
<laugh> ǀ a ɓ a ŋ g a m f ɔ w ɛ th u n a n a m ɬ a n ʤ e n a m ɬ a n ʤ e ɛ s ɛ s s i j ɔ ɠ ɔ s a n ɔ w u n ɔ n d o kh ɔ n a l ɛ b a d u ɛ j o ɛ j o ǃh u m a ɠ ɔ l o kh u z a n a <oov> ɠ ɔ m a kh u th a ǀ a ɓ a ŋ g a 
[424.775]
<sta> kh ɔ n a ŋ g i ʃ o n ɔ w u n o n d u l a ph a n a ɛ ɦ e m f w ɛ th u ɛ ɦ e b ʁ a w a m i u w ɛ n a u w ɛ n a u m u n tʼ u ɔ s ɛ l e <no-speech> 
[430.185]
<no-speech> 
[435.765]
s i v a l a ŋ g ɔ m ɬ a ɠ a tʼ ɛ tʼ i n i ǀ a ɓ a ŋ g a 
[437.655]
<no-speech> 
[439.935]
a h a <sta> 
[441.205]
<no-speech> 
[442.755]
a h a ŋ g ɔ m ɬ a ɠ a tʼ ɛ tʼ i n i ŋ g ɔ ɓ a n ʤ e n a m ɬ a n ʤ e <no-speech> 
[453.635]
<sta> j a v ɛ l e m a n ʤ e a ŋ g i th i m a n ʤ e ɠ u kh ɔ n a i b a d i i i e s i j o j i ʃ a j a ǀ a ɓ a ŋ g a m a n ʤ e <no-speech> <breath> a ɓ e <hes> ɓ e ɠ u j i n tʼ o j a m a o w u tʼ i a a s e s i g ɛ l e u j a ɓ o e w u tʼ w o kh u l u u j a ɓ o 
[464.265]
<no-speech> 
[465.245]
ɠ u th i ɠ u th i ɠ u ɬ a ŋ a n e m f ɔ w ɛ th u ʤ a s tʼ i f o ɠ u th i n ʤ e m f ɔ w ɛ th u n ʤ e a ŋ g i th i u j a ɓ ɔ n a 
[470.395]
<no-speech> 
[471.985]
n a m i n ʤ e n a m i n ʤ e m f ɔ w ɛ th u <no-speech> 
[474.465]
n a m i ŋ g i ʃ a j w e <sta> ŋ g ɛ ɓ ɛ k’ d o b ʁ a w a m i ɛ j i ɠ u n ʧʼ w e m pʼ u i z i m a l i a z i kh o m f a n a ɛ j i 
[479.555]
<no-speech> 
[481.395]
<int> u j a z i n a w e u m a a m a a w u th u <no-speech> 
[484.605]
<int> ɛ ɦ e 
[485.445]
<no-speech> 
[487.325]
<sta> 
[487.955]
<no-speech> 
[489.005]
<sta> ɛ j i i m a l i a z i kh o m f a n a ɠ u j a b ɛ d a ɛ j i <no-speech> ɠ u b ɛ d a ɛ m u v a 
[492.715]
<no-speech> 
[494.175]
ɛ j i m f ɔ w ɛ th u 
[494.775]
<no-speech> 
[496.505]
a a a s i ɠ a ɠ a ǃ a l i ǀ a ɓ a ŋ g a a a s i ɠ a ɠ a n i ɠ ɛ z w a 
[500.265]
<no-speech> 
[501.695]
ǀ a ɓ a ŋ g a <sta> a h a j a ɠ ɔ d w a i n tʼ o m ɬ a m pʼ e i ɛ z ɔ ɠ w ɛ n z ɛ ɠ a ŋ g ɔ ɓ a a h a ŋ g ɔ ɓ a n a m a ɠ ɔ n tʼ l a ɠ tʼ s e s i w a n i ɠ e z i w e ɠ u th i s o s ɔ w a v e l i f a j a m ɬ a m pʼ e ɛ m a ɮ a ɮ e n i n ɔ m a u m a u n ɛ l ɔ w j a u j a j i ɓ o l ɛ j ɔ n tʼ o <no-speech> i l ɔ j a i ɠ u b ɛ ɠ ɛ l e l ɛ j o ɠ ɔ n tʼ a ɠ tʼ i j a kh o ɓ ɛ s e u j a j i f a ɠ a u j i s u ɓ m i th e ŋ g ɔ m s ɔ m b u l u ɠ o 
[519.665]
<no-speech> 
[521.005]
<no-speech> 
[522.485]
<int> ɠ u th i n ʤ e 
[523.755]
<no-speech> 
[525.405]
j a ɠ u ʃ o ɠ u th i n ʤ e m f ɔ w ɛ th u f u l o m u <no-speech> 
[528.655]
<sta> j a ɠ u ʃ o ɠ u th i n ʤ e f u l o m u n ʤ e ŋ g ɔ m s ɔ m b u l u ɠ o ɓ a <oov> <no-speech> s a s a b i m i th a ɠ u z o ɓ e s e s e ɠ u ɓ a ʁ a j i th i ɠ e ɛ m v a ɠ w a l ɔ kh o ɠ a n tʼ ʁ a ɠ tʼ i ph ɛ l a z i j a ʃ a 
[536.865]
<no-speech> 
[537.665]
<int> u j a ɓ o 
[538.325]
<no-speech> 
[540.415]
<sta> 
[540.955]
<no-speech> 
[543.645]
h a j i u w u ʃ a pʼ u n ʤ e ɠ ɔ d w a n ʤ e 
[545.375]
<no-speech> 
[547.985]
<no-speech> <int> ɛ j i m f ɔ w ɛ th u ɛ j i ɓ o ɛ j i w ɛ n a u ɠ u ʃ i z i l a m f ɔ w ɛ th u ɠ u ph ɛ l e u ɲ a ɠ a ɠ u j i s i ǀ ɛ f e n ʤ e m f a n a ɛ j i <no-speech> u ɬ a l e u b ɛ ɠ e i l a ŋ a l i ʃ ɔ n e l i ph i n d e l i ph u m e m f ɔ w ɛ th u l i ph u m ɛ l e ɠ u w ɛ n a 
[557.175]
<no-speech> 
[559.475]
h a j i l a ph a n a a ɠ u j ɔ n a i n tʼ o h a j i i s pʼ a n i i n tʼ e <hes> i n tʼ o a a h a j i u ɠ u ɠ u ɠ ɛ l ɛ z a n ʤ e m f ɔ w ɛ th u u j a ɓ o n ʤ e ɠ u f a ɠ i w e u j a ɓ o ɠ a pʼ l a m ɓ i ŋ g u j a z a z i n a w e i z i n tʼ o z a ɠ a pʼ u l a m b i ŋ g i a m a pʼ a j i pʼ i j ɔ n ɠ e i n tʼ o <no-speech> ɠ u th i w a a m a pʼ a j i pʼ i <oov> 
[571.415]
a h a u f a ɠ a a m a th o j i l e th i 
[572.575]
<no-speech> 
[574.615]
<sta> u f a ɠ a ɔ b a v u 
[576.735]
<no-speech> 
[577.565]
h a j i a ŋ g i ɠ u b i l i v u m a n ʤ e m f ɔ w ɛ th u 
[578.915]
<no-speech> 
[582.245]
j a f o tʼ i l i m a n s i l ɛ n tʼ o s i j i ʃ a j a ŋ g a ph a ɠ a th i u j a ɓ o ɓ ɛ s e m ɬ a m pʼ e n ɛ ɠ s tʼ i j e m a ʃ i s o ph u m a s i j e a m a s i th e n i ɠ e ɠ e s i j ɔ l o kh u z a l e i <int> ɓ ɛ s e s i j a ɓ u j a f u th i m ɬ a m pʼ e i ɛ m u v a ɠ w a s i ɠ s i m a n s i ŋ g i ǃh u ɓ ɛ ɠ e n e ɠ i j ɔ s k’ s i ph i n d e s i h a m b e 
[600.265]
<no-speech> 
[600.380]
