[0.000]
<no-speech> 
[1.055]
<no-speech> 
[3.295]
<no-speech> 
[5.165]
<no-speech> 
[5.555]
<no-speech> 
[9.005]
h ɛ l o j ɛ ɓ o 
[11.355]
<no-speech> 
[12.285]
j a u n ʤ a n i 
[13.255]
<no-speech> 
[15.615]
h ɛ l o 
[16.365]
<no-speech> 
[18.345]
<no-speech> 
[18.715]
<no-speech> 
[19.815]
a a 
[20.525]
<no-speech> 
[23.795]
a a 
[25.495]
<no-speech> 
[27.235]
<no-speech> 
[27.605]
<no-speech> 
[28.625]
<no-speech> u ʃ o ɠ a n ʤ e 
[30.445]
<no-speech> 
[32.675]
<sta> ɛ ɦ e 
[34.585]
<no-speech> 
[36.285]
<no-speech> o w u 
[38.655]
<no-speech> 
[39.955]
<no-speech> 
[41.085]
<no-speech> 
[42.095]
u ɠ ɛ ph i m a n ʤ e 
[43.465]
<no-speech> 
[44.415]
<no-speech> u ɠ ɛ ph i 
[46.155]
<no-speech> 
[47.955]
<no-speech> 
[48.475]
<no-speech> 
[50.605]
ɠ w a m a ʃ u 
[51.565]
<no-speech> 
[54.475]
m h m 
[55.695]
<no-speech> 
[57.525]
<no-speech> 
[60.825]
<no-speech> 
[62.175]
<no-speech> <sta> ɛ ɦ e a a i m pʼ ɛ l a 
[67.265]
<no-speech> 
[68.185]
<no-speech> 
[68.585]
<no-speech> 
[71.115]
a a 
[73.045]
<no-speech> 
[76.565]
s i ʃ a j e i n d a w o 
[77.785]
<no-speech> 
[82.675]

[83.145]
<no-speech> 
[84.765]
a a 
[85.515]
<no-speech> 
[86.365]
<no-speech> 
[86.735]
<no-speech> 
[88.115]
m h m 
[88.835]
<no-speech> 
[92.715]
j a 
[93.585]
<no-speech> 
[98.335]
a a 
[99.645]
<no-speech> 
[101.425]
<no-speech> j a ŋ g i ɠ u z w a ɠ a ɬ e 
[103.565]
<no-speech> 
[110.185]
j a 
[111.045]
<no-speech> 
[113.905]
<no-speech> 
[115.785]
<no-speech> 
[120.545]
<no-speech> 
[121.485]
<no-speech> 
[123.545]
h e 
[124.935]
<no-speech> 
[126.125]
ɛ ɦ e 
[126.655]
<no-speech> 
[130.115]
<no-speech> j a 
[131.305]
<no-speech> 
[132.275]
<no-speech> ŋ g i s ɛ kh a j a u ɠ e u ŋ g a ɠ e ph i w ɛ n a a ŋ g i ɠ u z w a ɠ a ɬ e ŋ g i ɓ u j e ŋ g i ŋ g a ɠ u z w a ɠ a ɬ e 
[136.425]
<no-speech> 
[139.485]
h a j i a a a ŋ g i th u l i ŋ g i ɠ u l a l ɛ l e 
[144.015]
<no-speech> 
[146.195]
m h m m h m 
[147.105]
<no-speech> 
[147.945]
<sta> a ŋ g i z w a 
[150.375]
<no-speech> 
[152.235]
u ɓ a 
[152.785]
<no-speech> 
[154.805]
u ɓ a <no-speech> a a a ŋ i ɠ a z e ŋ g i m ɓ ɔ n e 
[159.005]
<no-speech> 
[160.255]
<no-speech> h a j i ŋ g i j a l i ɓ ɔ n a m a n ʤ e 
[164.545]
<no-speech> 
[166.455]
<sta> 
[166.935]
<no-speech> 
[168.595]
ɛ ɦ e 
[169.705]
<no-speech> 
[174.415]
<no-speech> 
[174.785]
<no-speech> 
[176.355]
u ɓ a 
[177.085]
<no-speech> 
[180.405]
<no-speech> 
[180.775]
<no-speech> 
[184.475]
<no-speech> <sta> ɓ a j e <no-speech> s i ɓ ɔ n a n e n ʤ a l o 
[187.255]
<no-speech> 
[188.835]
ph ɛ l a ŋ g ɛ ɠ e s i th a n d a n e m a s i ɓ ɔ n a n a n ʤ a l o <no-speech> ɠ u ŋ ɡ|ɦ ɔ n o s i ɓ u j e s i ŋ g a ɓ ɔ n a n i 
[193.985]
<no-speech> 
[196.655]
ɠ u ŋ ɡ|ɦ ɔ n o m a s e ɠ u d e n i 
[198.265]
<no-speech> 
[200.575]
u z u ŋ g i kh u m ɓ u l e n a m i ŋ g i ɠ u kh u m b u l e 
[202.575]
<no-speech> 
[204.895]
u m a s e s i ɓ ɔ n a n a n ʤ a l o s i z o ǀ i ɠ a n a 
[207.065]
<no-speech> 
[210.955]
<no-speech> 
[211.325]
<no-speech> 
[215.225]
<no-speech> 
[216.545]
<no-speech> 
[218.635]
ɛ ɦ e <no-speech> j ɛ ɓ o 
[221.945]
<no-speech> 
[222.805]
m h m a a j a <no-speech> j a 
[230.155]
<no-speech> 
[231.965]
<no-speech> 
[232.745]
<no-speech> 
[235.585]
j a 
[236.445]
<no-speech> 
[240.205]
<sta> a a 
[244.495]
<no-speech> 
[246.175]
<no-speech> 
[249.425]
<no-speech> 
[251.855]
j a 
[252.675]
<no-speech> 
[254.355]
ɠ u n ʤ a n i 
[254.975]
<no-speech> 
[256.685]
u f u n a u ŋ g i ʧʼ e ŋ g i s e <sta> a a 
[268.675]
<no-speech> 
[269.755]
h a j i ɠ e s ɔ kh ɔ l w a ŋ g o ɠ u ɓ ɔ n a ŋ g ɔ ɓ a ph ɛ l a u ɠ u kh u l u m a o ǀ i ŋ w e n i u ŋ g a kh u l u m a o ǀ i ŋ w e n i ɠ a n tʼ i m a s e ɠ u f a n ɛ l e ɠ w ɛ n z ɛ ɠ e ɠ u ŋ g ɛ n z e ɠ i n ʤ ɛ ŋ g ɔ ɓ a u ʃ o 
[276.735]
<no-speech> 
[277.955]
<no-speech> 
[279.595]
<no-speech> 
[280.795]
<no-speech> 
[281.195]
<no-speech> 
[283.355]
<no-speech> 
[283.815]
<no-speech> 
[284.675]
<no-speech> 
[286.125]
<no-speech> 
[290.105]
j a <no-speech> a a 
[292.125]
<no-speech> 
[293.215]
<no-speech> 
[294.735]
<no-speech> 
[295.935]
a a 
[296.715]
<no-speech> 
[298.475]
<sta> a a 
[302.245]
<no-speech> 
[306.025]
<sta> j a 
[308.185]
<no-speech> 
[312.525]
a a 
[313.315]
<no-speech> 
[314.785]
<no-speech> <sta> j a <no-speech> h ɛ l o <no-speech> <no-speech> 
[322.675]
<no-speech> 
[323.535]
h ɛ l o <no-speech> j a s e ŋ g i j a ɠ u z w a ɠ e 
[325.955]
<no-speech> 
[326.925]
<no-speech> ɛ ɦ e 
[329.305]
<no-speech> 
[331.435]
<no-speech> 
[331.825]
<no-speech> 
[334.035]
<no-speech> 
[335.565]
<no-speech> 
[340.275]
a a <sta> a a j a 
[349.875]
<no-speech> 
[352.415]
<no-speech> 
[354.565]
<no-speech> 
[355.775]
h ɛ l o 
[356.465]
<no-speech> 
[364.755]
a a ph i n d a kh u l u m a ɓ e ŋ g i ŋ g a ɠ u z w a ŋ g a <oov> a ŋ g i th i ɛ ŋ g a th i l a u kh ɔ n a n ʤ e 
[369.865]
<no-speech> 
[370.865]
u s ɛ m g w a ǃ w e n i ɛ ŋ g a th i ɠ u n ɔ m ɔ j a <no-speech> u ɓ a 
[375.325]
<no-speech> 
[379.985]
ɔ ɦ o i n a m ɓ a <no-speech> 
[386.105]
<no-speech> 
[390.225]
<no-speech> j a <no-speech> s e ŋ g i j a ɠ u z w a ɠ e m a n ʤ e 
[395.445]
<no-speech> 
[396.535]
<no-speech> j a <no-speech> j a ŋ g i ʁ a j th i 
[401.925]
<no-speech> 
[402.805]
ɛ ɦ e <no-speech> m h m <no-speech> ɛ ɦ e 
[407.045]
<no-speech> 
[408.265]
<no-speech> 
[408.695]
<no-speech> 
[410.575]
<sta> ɛ ɦ e 
[412.105]
<no-speech> 
[414.160]
