[0.000]
<no-speech> 
[0.205]
<no-speech> 
[0.655]
<no-speech> 
[4.565]
j ɛ ɓ o 
[6.955]
<no-speech> 
[8.145]
j a <no-speech> h a j i 
[10.505]
<no-speech> 
[12.675]
<sta> u u ɓ a l ɔ w o 
[15.035]
<no-speech> 
[26.085]
<no-speech> 
[26.505]
<no-speech> 
[29.775]
<no-speech> 
[30.245]
<no-speech> 
[34.595]
<laugh> 
[36.095]
<no-speech> 
[36.915]
<sta> 
[38.285]
<no-speech> 
[40.355]
<sta> u ɓ ɛ s e ɠ w ɛ n z ɛ n ʤ a l o n a w e 
[45.775]
<no-speech> 
[47.045]

[47.875]
<no-speech> 
[48.865]
<int> i m a u ǀh a z a h a j i 
[50.805]
<no-speech> 
[51.985]
<sta> h a j i ŋ g i ŋ g i s ɛ m g a ǃ w e n i <no-speech> ɛ ɦ e 
[57.135]
<no-speech> 
[58.665]
ŋ g ɔ ɓ a 
[59.345]
<no-speech> 
[64.755]
a a l u th o m f w ɛ th u a ŋ g i th i ŋ g a ŋ g i ʃ a j w e j i m ɔ tʼ o 
[67.395]
<no-speech> 
[68.325]
<int> ŋ g a v ɛ l e <no-speech> 
[72.175]
<int> i s ɔ n tʼ o l ɔ n ɠ e ŋ g i ŋ g a s ɛ ɓ e n z i 
[74.785]
<no-speech> 
[77.135]
<sta> 
[77.875]
<no-speech> 
[79.865]
u s a kh ɔ n a 
[80.715]
<no-speech> 
[82.945]
u s ɛ kh ɔ n a 
[83.835]
<no-speech> 
[85.055]
<sta> a th i <no-speech> j a 
[88.205]
<no-speech> 
[89.265]
ŋ g i j a ɠ u z w a <no-speech> 
[91.245]
ɛ ɦ e 
[92.255]
<no-speech> 
[94.845]
h a j i m i n a ŋ g i ɠ u z w a ɠ a kh u l u u w ɛ n a ɔ ŋ g a ŋ g i z w a 
[97.775]
<no-speech> 
[98.995]
<no-speech> 
[99.365]
<no-speech> 
[103.715]
<sta> a h a a h a a h a ŋ g i s ɛ m g a ǃ w e n i m a d ɔ d a 
[107.355]
<no-speech> 
[111.025]
ǀh a n ʤ e 
[113.475]
<no-speech> 
[115.945]
ŋ g i l a j i ʃ e a ɓ a n tʼ u ph ɛ l a 
[118.305]
<no-speech> 
[119.555]
ɛ ɦ e <no-speech> ɠ ɔ d w a ɠ e ph ɛ l a ɠ e m ɬ a w u m b e <no-speech> 
[123.705]
ɛ ɦ e 
[124.305]
<no-speech> 
[127.635]
<int> i n e n ɠ i ŋ a j i n i m a ŋ g i j ɛ ɠ a n ʤ e i z o g i ɓ ɛ l a j ɔ d w a 
[130.835]
<no-speech> 
[135.255]
<no-speech> 
[135.725]
<no-speech> 
[142.305]
<sta> j a 
[143.725]
<no-speech> 
[144.935]
ɔ ɓ a 
[145.685]
<no-speech> 
[149.815]
<sta> h a j i i n d a ɓ a j a kh o 
[153.615]
<no-speech> 
[155.305]
<int> ɛ ɦ e 
[156.415]
<no-speech> 
[158.435]
<int> ɠ u n ʤ a n i 
[159.065]
<no-speech> 
[161.425]
h a j i h a j i <sta> a ŋ g i ǃ e d i l e u ŋ g i ǃ e d i l e <no-speech> m a n ʤ e 
[165.965]
<no-speech> 
[166.785]
ɛ ɦ e 
[167.415]
<no-speech> 
[169.955]
<sta> m ɬ a m pʼ e l i z ɔ v a l w a <no-speech> u m a l i h a m b a 
[175.365]
<no-speech> 
[178.065]
h a j i m f w ɛ th u n a m a n ʤ e ɔ ɠ w e s i ɓ i l i ɓ a ʃ o n ʤ a l o 
[181.045]
<no-speech> 
[181.865]
<no-speech> 
[182.625]
<no-speech> 
[187.915]
ɔ kh ɛ j i 
[188.775]
<no-speech> 
[191.605]
<no-speech> 
[195.365]
<no-speech> 
[197.725]
<sta> h a j i m a d ɔ d a a ŋ i ɠ a z e ŋ g i j i ɓ ɔ n e i n tʼ o ɛ n ʤ e 
[200.835]
<no-speech> 
[202.055]
<int> m a n ʤ e 
[202.565]
<no-speech> 
[204.235]
<sta> ɛ ɦ e kh ɔ n a a ɠ u s a f a n i ŋ g ɔ ɓ a <no-speech> u s ɛ ɮ a n i m a n ʤ e 
[208.725]
<no-speech> 
[209.545]
<sta> n ǁ a ɠ u th i u j a b ɛ d a l o u ɓ u j e w a d a ɠ w a w ɔ n ɠ e u m u n tʼ u ɠ u l e j i n s u ɠ u <no-speech> u ɓ u j e w a d a ɠ w a ph ɛ l a ɠ a kh u l u ɠ u l e j i n s u ɠ u 
[220.965]
<sta> w a d a ɠ w a 
[222.235]
<no-speech> 
[223.865]
a h a m ɓ e <int> ŋ g a m a z i 
[225.155]
<no-speech> 
[228.265]
<sta> w a ŋ g a j a ɠ e ɛ l o kh u z e n i <no-speech> ɛ tʼ ɔ h w e n i 
[232.385]
<no-speech> 
[233.715]
<sta> w a ŋ g a j a ph ɛ l a ɠ ɔ d w a w a ɓ u j a w a j a ɠ e <no-speech> ɛ ɦ e u th e u ɓ ɛ kh ɔ n a z ɔ n ɠ e n ʤ e l e j i n s u ɠ u u n ɠ o s i u kh ɔ n a <no-speech> n a j e ɠ e u kh ɔ n a n a n a m ɬ a n ʤ e 
[244.035]
<no-speech> 
[247.605]
ɛ ɦ e u s ɛ l e n ɔ n ɠ o s i <no-speech> <breath> ɠ ɔ d w a ɓ ɛ s e ɠ u l a j th i <no-speech> ŋ g ɔ ɓ a <no-speech> ŋ g i ǀ a ɓ a ŋ g a ɠ u th i ɓ a z o m u th a th a n a m ɬ a n ʤ e 
[254.005]
<no-speech> 
[257.465]
<sta> h a j i ŋ g ɛ ɠ e w a j a kh e <no-speech> ɛ ɦ e n a m ɬ a n ʤ e u ɓ ɛ f a ɠ u th a j ɛ l a 
[268.445]
ɓ ɛ s e ɠ u th i ɠ e <oov> <oov> <no-speech> <int> ɛ ɦ e 
[272.295]
<no-speech> 
[276.465]
h a j i ph ɛ l a a ŋ g i th i i pʼ l a s tʼ ɛ l w e a m a ɲ e a m a ɠ a m ɛ l o <int> v ɛ l e 
[279.315]
<no-speech> 
[282.235]
<no-speech> ɠ ɔ d w a a m a ɲ e a w a pʼ l a s tʼ e l i w e <no-speech> ɠ ɔ d w a m ɬ a m pʼ e ɓ ɛ ŋ ɛ ɠ e ŋ g i ǃ a ʃ ɛ l e ɠ e ŋ g ɔ ɓ a h a j i <no-speech> u s e ŋ g i ɡǃɦ i l a z e ɠ a kh u l u 
[289.415]
<no-speech> 
[291.245]
<sta> m ɬ a m ɓ e ŋ g i pʼ u l a s tʼ ɛ l e m a n ʤ e 
[296.125]
<no-speech> 
[298.855]
<sta> s e ɠ u n a m a ɠ a m ɛ l o a w u th u a f u n a l ɔ kh o ɠ e o ɠ u f u n ɛ ɠ a a kh ɔ n ɠ w e <no-speech> ɛ ɦ e l a w a a m a ɲ e <no-speech> 
[306.845]
<oov> a j ɛ v ɛ l e ɛ kh o n ɠ i w e a w u th u <no-speech> ɠ ɔ d w a a m a ɲ e a m a ɓ i l i ɛ ŋ g a kh ɔ n ɠ w a ŋ g a <no-speech> ɠ u ʃ o ɠ u th i f a n ɛ l e ŋ g i l o kh u z e ɠ e <sta> <no-speech> f a n ɛ l e ŋ g i ph i n d e ŋ g i l o kh u z e a m a ɲ e 
[317.935]
ŋ g i ph i n d e ŋ g i w a kh ɔ n ɠ e f u th i <no-speech> <sta> ɓ ɛ s e ŋ g i f a ɠ a a m a th a j i l i z i ph a n s i 
[323.215]
<no-speech> 
[327.265]
h a j i ŋ g ɛ ɠ e u j a ph i l a l o m f a n a h a j i 
[330.065]
<no-speech> 
[333.145]
a j i kh o i n tʼ o a ŋ g a j e n z i 
[334.245]
<no-speech> 
[335.065]
<sta> a j i kh o i n tʼ o a ŋ g a j e n z i 
[337.285]
<no-speech> 
[340.565]
<int> i n ɠ i ŋ g a n ʤ e 
[343.335]
<no-speech> 
[345.965]
a ŋ g i z w a 
[346.815]
<no-speech> 
[348.445]
<sta> 
[349.075]
<no-speech> 
[353.545]
h a j i u e d i i m a l i ɠ u j ɛ n a ɠ u ph ɛ l a ɓ ɛ s e u th i a ɠ ɛ n z e ɔ ɠ u ɲ e 
[358.035]
<no-speech> 
[359.495]
i j o e d i i m a l i ɠ e n ʤ e w a n i w a j o i n tʼ o e ŋ g i j i ǀ a ɓ a ŋ g a j o ɠ e m a n ʤ e <no-speech> ŋ g i ǀ a ɓ a ŋ g a ɠ u th i ɠ u f a n ɛ l e ŋ g i l o kh u z e ŋ g i th ɔ l e u pʼ ɛ n d e h a j i ɠ ɔ d w a ŋ g ɛ ɠ e ŋ g i s a ɠ w a z i u ɠ u w u th ɔ l a m a n ʤ e h a j i ŋ g ɛ ɠ e i m a l i a ŋ i s ɛ n a j o <no-speech> s e ŋ g i th ɛ ŋ g e ɠ a kh u l u <no-speech> 
[371.265]
f u n ɛ a ŋ g i th ɔ l e i l o kh u z a <no-speech> u pʼ ɛ n d e 
[373.165]
<no-speech> 
[374.495]
ɓ e ɠ u f u n a ŋ g i th ɔ l e u pʼ ɛ n d e 
[375.955]
<no-speech> 
[382.745]
<int> ɛ ɦ e ɠ ɔ d w a a ŋ g i th i f a n ɛ l e ɠ u ǃ a l e ɠ u ɓ e kh ɔ n a u m u n tʼ u ɔ z ɔ h a m b a a j o ŋ g i l o kh u z ɛ l a <no-speech> a j o ŋ g i ʃ a n ɛ l ɛ l a h a j i <no-speech> a j ɔ ʃ a n ɛ l a a h a <no-speech> a j ɔ ʃ a n ɛ l a <no-speech> 
[392.855]
ɛ ɦ e 
[393.735]
<no-speech> 
[394.545]
<no-speech> 
[394.965]
<no-speech> 
[397.905]
n a ŋ g a ɠ u s a s a <sta> a ŋ g a ŋ g ɛ n a 
[401.125]
<no-speech> 
[402.455]
<int> n a m ɬ a n ʤ e ɓ ɛ ɓ ɛ ǃ ɛ d ɛ l a u ɠ u f a ɠ a i z i ǀ a b a ɠ u f u n ɛ ɠ a ɠ u s a s a a h a m ɓ e a j ɔ f a ɠ a i l o kh u z a a j o s i ɠ a a m a g l a s i a m a w i n d i 
[408.835]
<no-speech> 
[410.775]
<sta> ɛ ɦ e a m a ɲ e a s ɛ f a ɠ i w e 
[414.415]
<no-speech> 
[416.475]
u z o ŋ g i f ɔ n ɛ l a m a n ʤ e ɠ a d e u ŋ g i f ɔ n ɛ l a n ʤ e n a w e <no-speech> ɠ ɔ d w a ŋ g a th i ɓ a m b i ɓ i z i l e l a ph a ɠ a ɛ l e l i n s ɓ a th i a ɠ a z ɔ s a j i n a <no-speech> ɛ ɦ e ŋ g i j a ǀ a ɓ a ŋ g a ɠ e ɠ u th i <sta> ŋ g ɔ ɓ a s ɛ ɓ e m ɓ i z a n ʤ e 
[429.015]
<no-speech> 
[433.175]
ŋ g a ɓ e a ɓ a ŋ g i f ɔ n ɛ l a ŋ g a f u th i 
[434.735]
<no-speech> 
[435.695]
<sta> h a j i a ŋ g i th i w a kh e w a th a th a ɠ a l a s ɛ l s w a kh ɔ kh a ʃ ɛ j m i th a j m i ɠ w a ph ɛ l a 
[442.915]
<no-speech> 
[444.575]
<sta> ɠ a l a s ɛ l s 
[445.925]
<no-speech> 
[448.865]
<sta> ɠ a l a s ɛ l s w a s i kh ɔ kh a ʃ ɛ j m i th a j m i ɠ w a ph ɛ l a <no-speech> w a s i ǃ ɛ d a i s i ɠ w ɛ l e tʼ u s a ɓ o ʃ ɛ j m i th a j m i 
[455.535]
<no-speech> 
[460.615]
<no-speech> 
[460.965]
<no-speech> 
[463.995]
a h a h a j i u m b ɛ d o l ɔ w o <no-speech> ɓ a j a b ɛ d a l a ɓ o ɠ u th i i n tʼ o ɛ j a j i ɓ a ɬ u ph a ɠ a kh u l u l a ɓ o ɠ u th i ɓ a ɓ ɛ n a n e l o kh u z a ɓ a ɓ ɛ n a n e i n ʃ ɔ l e n s i 
[473.305]
<no-speech> 
[474.135]
<no-speech> 
[474.555]
<no-speech> 
[476.675]
<sta> ɓ a ɓ e ŋ g i ɬ u ph i s w a j i l ɔ kh o 
[478.665]
<no-speech> 
[479.965]
<sta> ɛ ɦ e 
[481.045]
<no-speech> 
[484.355]
<sta> i m a ɠ e ŋ g i ǀh a z ɛ l e ɠ e ɠ ɔ d w a ŋ a l ɛ n tʼ o ɔ j ɛ n z a j o ɠ u th i w ɛ n z a n i <no-speech> 
[491.005]
<sta> h a j i w ɛ n a <no-speech> a ŋ g i z w a n ʤ e m i n a l ɛ n tʼ o 
[497.755]
<no-speech> 
[499.035]
<sta> u s ɛ kh ɔ n a 
[499.925]
<no-speech> 
[501.615]
<no-speech> 
[501.985]
<no-speech> 
[503.245]
<sta> u l a ph i l a 
[504.005]
<no-speech> 
[507.545]
<sta> ŋ g i th i m i n a u l a ph i 
[509.795]
<no-speech> 
[513.305]
u l a ph i <no-speech> <sta> u l a ph i 
[516.935]
<no-speech> 
[518.715]
ɛ ɦ e <no-speech> ɔ kh ɛ j i 
[521.125]
<no-speech> 
[522.465]
<no-speech> 
[524.205]
<no-speech> 
[528.095]
<sta> j i n i i n d a ɓ a 
[529.825]
<no-speech> 
[531.625]
<no-speech> 
[532.515]
<no-speech> 
[533.365]
<no-speech> 
[533.815]
<no-speech> 
[535.565]
<sta> m i n a ŋ g i j a ɠ u z w a m i n a 
[538.225]
<no-speech> 
[541.005]
<sta> ʃ u th i i ʤ u l u ɠ i l e i n ɮ ɛ ɓ e 
[542.685]
<no-speech> 
[545.095]
h a j i ɠ e a j i kh o i n ɠ i ŋ g a a w u ɠ a ph ɛ l a l o u f a j f i m i n i th s i 
[547.435]
<no-speech> 
[550.825]
<sta> a h a a h a w ɛ m a d ɔ d a a j ɓ o 
[555.075]
<no-speech> 
[556.475]
<sta> h a j i a j i 
[563.785]
<no-speech> 
[565.895]
l ɔ kh e ŋ g i ǃ a l e ŋ g i kh u l u m a ŋ g i ǃ a l a u ɠ u ŋ g ɛ n a ɛ m l a z i 
[569.185]
<no-speech> 
[572.205]
ŋ g i j a ɛ th ɛ ɠ w i n i m a n ʤ e 
[573.435]
<no-speech> 
[575.085]
<no-speech> 
[575.645]
<no-speech> 
[577.065]
ɛ ɦ e 
[578.125]
<no-speech> 
[579.915]
<no-speech> 
[581.235]
<no-speech> 
[583.585]
<sta> h a j i l u th o h a j i ph ɛ l a ɠ u th i m a n ʤ e i n tʼ o ɛ j a ɮ a l a l ɔ kh o ɠ u th i s i ŋ g a ǁh u m a n i ɠ a ɬ e <no-speech> ɠ ɔ d w a ph ɛ l a h a j i s o ɓ u j e s i z i ǁ ɔ ǁ ɛ l e l ɔ kh o 
[592.715]
<no-speech> 
[595.815]
ɛ ɦ e ŋ g a ɓ a f u n ɛ l a ɛ ɲ e i m ɔ tʼ o ɠ ɔ d w a 
[597.695]
<no-speech> 
[599.125]
<no-speech> 
[599.675]
<no-speech> 
[600.340]
