[0.000]
<no-speech> 
[3.855]
j ɛ ɓ o 
[5.215]
<no-speech> 
[8.915]
a w u ʃ o ɠ u h a m ɓ a ɠ a n ʤ a n i 
[10.075]
<no-speech> 
[11.485]
j ɛ ɓ o 
[12.115]
<no-speech> 
[16.795]
j ɛ ɓ o 
[17.465]
<no-speech> 
[19.115]
j ɛ ɓ o 
[19.675]
<no-speech> 
[26.135]
o w u u z o <hes> u z o u z ɔ ɬ a ɲ a i m pʼ ɛ l a o w u u z ɔ ɬ a ɲ a u m a ɛ ŋ g a b ɛ ɠ a ŋ g a 
[30.355]
<no-speech> 
[32.275]
u m a ɛ ŋ g a j i n a ɠ ɛ ɠ e l i u z ɔ ɬ a ɲ a 
[34.105]
<no-speech> 
[36.875]
u m a ɛ ŋ g a j i n a ɠ ɛ ɠ e l i u z ɔ ɬ a ɲ a u d i ŋ g a u s i z o l ɔ j a m u n tʼ u <no-speech> 
[47.795]
<sta> 
[48.685]
<no-speech> 
[51.755]
<sta> h a j i u d i ŋ g u u s i z o l ɔ j a m u n tʼ u u s e n ɠ i ŋ g e n i m a n ʤ e <no-speech> 
[55.955]
u n e n ɠ i ŋ a ɠ ɔ d w a a ɓ a n tʼ u a ɓ a n a ɠ i l e 
[57.915]
<no-speech> 
[60.945]
m h m 
[61.405]
<no-speech> 
[63.745]
w a kh a l a 
[64.565]
<no-speech> 
[69.945]
u th i ɠ w ɛ n z a ɠ a l e n i 
[71.025]
<no-speech> 
[74.665]
<int> 
[75.165]
<no-speech> 
[76.365]
a h a 
[76.855]
<no-speech> 
[79.955]
ɛ ɠ u s ɛ n i 
[80.925]
<no-speech> 
[83.325]
a h a 
[84.085]
<no-speech> 
[89.745]
<sta> o w u 
[91.605]
<no-speech> 
[92.515]
h a j i a ŋ g a z i m i n a <hes> a w u th i ŋ g i ɓ o <no-speech> u m a ŋ g i ŋ g a ŋ g e n i 
[96.965]
<no-speech> 
[99.415]
ŋ g i z o f i ɠ e ŋ g i z w e n a m ɬ a n ʤ e ɠ u th i n i ph u m a n i s i ɡ|ɦ i n a n i n i u j a ɓ o 
[104.265]
<no-speech> 
[110.475]
m n ǀ a o w u ɠ u m n a n d i l a ph a j a m f w ɛ th u 
[112.495]
<no-speech> 
[115.845]
ɠ u j a ph i l w a ɠ u j a ph i l w a ɠ u ŋ ɡ|ɦ ɔ n o <oov> <oov> ɠ u n a l e n d a w o j ɔ n ɬ a ɠ a e n i j i th a n d a ɠ a kh u l u 
[121.225]
<no-speech> 
[126.345]
i s i j a v a l w a 
[127.185]
<no-speech> 
[135.645]
a ɓ a s a j i a ɓ a n tʼ u 
[136.975]
<no-speech> 
[142.905]
ɠ u f a n ɛ l e ph ɛ l a ɠ ɔ d w a u m s i n d o u ŋ g a s a s ɛ kh o a ŋ g i th i ɓ a ɓ ɛ l a n d ɛ l a u m s i n d o n e j i ŋ g a n e e j i n ǀ a n e ŋ g ɛ ɠ e ɓ ɛ z a l a ph a ɠ i n i 
[149.485]
<no-speech> 
[152.795]
ɠ u f a n ɛ l e ɠ e <no-speech> i z ɔ w a ɠ e u m a <no-speech> 
[160.225]
ŋ g ɛ m pʼ ɛ l a 
[161.015]
<no-speech> 
[172.655]
d i s i w i kh e n d i ɠ u l e l i v i ɠ i l ɛ l i 
[174.885]
<no-speech> 
[182.235]
m h m 
[182.985]
<no-speech> 
[184.545]
<sta> <no-speech> 
[191.115]
n a ɠ u l e l i u ʃ i l o j i n i ɠ u th i u f u n a n i ph i n d ɛ l e 
[193.545]
<no-speech> 
[197.255]
m h m 
[197.815]
<no-speech> 
[205.155]
ɛ j i ɠ u z a n ɔ m ɬ a ɠ a s i ɠ s tʼ i n i u ŋ g a h a j i h e j i h a j i 
[208.535]
<no-speech> 
[213.775]
h a j i ŋ g i s a z ɔ ɠ e ŋ g i ɓ a d ɔ n s e u ŋ g ɛ s ɔ n tʼ o a ŋ g i th i 
[216.525]
<no-speech> 
[221.185]
ɛ j i 
[221.735]
<no-speech> 
[225.355]
ŋ g ɔ m s ɔ m b u l u ɠ o 
[226.465]
<no-speech> 
[231.855]
a h a 
[232.765]
<no-speech> 
[234.485]
h a j i h a j i s e j i ʃ a j e i n ɬ ɛ l o 
[237.665]
<no-speech> 
[246.035]
m h m 
[246.905]
<no-speech> 
[249.415]
h a j i ŋ g i z w a ɠ a ɬ e 
[250.725]
<no-speech> 
[253.665]
ɛ ɦ e 
[254.855]
<no-speech> 
[259.315]
h a j i s e ŋ g i v u ɠ i l e w ɛ n a m f ɔ w ɛ th u ɠ u th i ŋ g i f u n a n ɔ w u n o ɠ u j o g u n d a u j a ɓ o 
[265.205]
<no-speech> 
[267.425]
ŋ g i f u n a n o ɠ u g u n d a l a e ɠ i l e w u d i w ɛ n a m f ɔ w ɛ th u u j a ɓ o 
[270.735]
<no-speech> 
[273.195]
ɛ ɦ e 
[274.255]
<no-speech> 
[277.005]
u kh ɔ n a n ʤ e ɠ u j i m a n ʤ e 
[278.585]
<no-speech> 
[283.195]
e j i d i th i 
[284.145]
<no-speech> 
[287.705]
ŋ g a ph a ɠ a th i u ɓ u ŋ g ɛ n e l a j i kh a j a n ɔ m a u ɓ u m i ŋ g a ph a n ɮ e 
[291.165]
<no-speech> 
[295.745]
<breath> o h a j i ɠ u ʃ o ɓ ɛ ɓ ɛ z o l u ŋ g i s a l ɛ z i n tʼ o z a ɓ o l ɛ z i 
[300.085]
<no-speech> 
[303.685]
ɛ ɦ e h a j i ɠ u ʃ u th i ɓ ɛ ɓ ɛ z o l u ŋ g i s a l ɛ z i n tʼ o z a ɓ o <oov> z o z o z a m a a l a m u 
[309.015]
<no-speech> 
[311.595]
m h m 
[312.135]
<no-speech> 
[319.015]
h a j i u f u n a u ɠ u f a ɠ ɛ l w a i z i ɓ u ɠ o m a n ʤ e u th i u s u s ɛ j ɛ ɠ a j ɔ n ɠ e i n tʼ o m a n ʤ e 
[322.595]
<no-speech> 
[330.685]
m a n ʤ e u z ɔ j ɛ ɠ a j ɔ n ɠ e i n tʼ o j ɛ n a ɠ a n tʼ i ŋ g a l e e s ph i ŋ o a ɠ u j ɛ ɠ w a ŋ g a j ɔ n ɠ e i n tʼ o 
[336.785]
<no-speech> 
[339.135]
h a j i u j a ɓ o <no-speech> ɛ n d i u th ɔ l e ɠ u th i j ɛ n a u z ɔ ɓ a <hes> u z ɔ ɓ a <hes> u m u n tʼ u o l u ŋ g i l e ɔ w ɛ n z a i z i n tʼ o ɠ a ɬ e 
[345.635]
<no-speech> 
[346.765]
<sta> <hes> ŋ g a l o ɠ u l ɛ l a ǀ a l a <int> u ɠ u ɓ e ɠ u ŋ g ɛ n ʤ a l o 
[350.035]
<no-speech> 
[358.580]
<no-speech> 
[367.125]
o w u ɠ a n tʼ i m a n ʤ e z ɔ n ɠ e i z i n tʼ o ɛ ɓ ɛ s ɛ n z ɛ ɠ a u ɓ ɛ s e z i th ɔ l a ɠ a l a j i n i ŋ g a l ɛ n a 
[372.525]
<no-speech> 
[380.995]
<no-speech> 
[389.465]
ɔ kh ɛ j i 
[390.555]
<no-speech> 
[399.015]
<breath> h a j i h a j i a j i n a ɓ u f a ɠ a z i ɠ e u m a i n ʤ a l o f u th i 
[402.375]
<no-speech> 
[404.545]
<sta> 
[405.165]
<no-speech> 
[408.085]
o w u o w u o w u o w u o w u o w u o w u l ɛ n d ɔ d a i s e n ɠ i ŋ g e n i <no-speech> 
[415.705]
<int> h a j i i s e n ɠ i ŋ g e n i h a j i i f u n a u ɠ u ɬ a l i s w a ph a n s i 
[419.305]
<no-speech> 
[421.685]
ɬ a l i s w a ph a n s i <no-speech> 
[428.155]
<sta> <int> u s a f u n a u ɠ u ʧʼ ɛ l w a u ɓ a n i u j a ɠ w a z i u ɠ u ʧʼ ɛ l a 
[431.765]
<no-speech> 
[434.125]
ŋ g i th i u f u n a u ɠ u ʧʼ ɛ l w a ŋ g ɔ ɓ a n a j e u j a ɠ w a z i u ɠ u ʧʼ ɛ l a a ɓ a n tʼ u i ɲ a ŋ g a a j i z ɛ l a ph i ph ɛ l a 
[439.465]
<no-speech> 
[447.015]
o w u o w u o w u o w u o w u h a j i a w u z w a 
[449.045]
<no-speech> 
[458.345]
<no-speech> 
[467.645]
u j a ɓ ɔ n a j ɛ n a ɠ e i n tʼ o o ɠ u f a n ɛ l e a j ɛ n z e l a ph o f u n ɛ ɠ e a n a ɠ e i m pʼ i l o j a kh e ɛ ǃ a l e <oov> <hes> ɛ n a ɠ e i m pʼ i l o j a kh e ŋ g a ph a n ɮ e <oov> n s i ɠ i u j a ɓ o 
[478.225]
<no-speech> 
[482.895]
h a j i h a j i h a j i h a j i h a j i j i l ɛ n tʼ o o ɠ u f a n ɛ l e s i m ʧʼ ɛ l e j ɔ n a ɠ e ɠ u f a n ɛ l e a ɬ a l i s w e ph a n s i f u n ɛ a i ɬ a l i s w e ph a n s i l ɛ n d ɔ d a l e ɠ u kh u l u ɲ w e n a j o ŋ g ɔ ɓ a u j a u j a ɠ w a z i u ɠ u ɓ o n i s a a ɓ a ɲ e a ɓ a n tʼ u n a j o i ɓ o n i s w e 
[494.535]
<no-speech> 
[495.525]
u j a ɓ o 
[496.105]
<no-speech> 
[503.045]
o w u <no-speech> 
[505.555]
a ɠ a <hes> s e ɠ u w u m u n tʼ u ɔ ŋ g a kh u l u l ɛ ɠ a ŋ g a n ʤ e m f ɔ w ɛ th u 
[508.475]
<no-speech> 
[520.175]
h a j i u ŋ g u m u n tʼ u ɔ ŋ g a kh u l u l e ɠ i l e 
[521.765]
<no-speech> 
[525.895]
a h a 
[526.455]
<no-speech> 
[528.035]
m a n ʤ e u z ɔ j ɛ ɠ a u z ɔ j ɛ ɠ a j ɛ n a ɠ ɔ d w a u n tʼ s i ɠ i u n tʼ s i ɠ i ŋ g a l e ɛ ɓ e e ǃh u ɓ ɛ ɠ a j ɛ n a ɛ n z a ɛ z a kh e 
[535.475]
<no-speech> 
[539.215]
m a n ʤ e u j a ɓ o <no-speech> 
[542.185]
o w u h a j i l ɛ n d ɔ d a u ɠ u ɓ o n i s w a ɠ w a ŋ g ɛ m pʼ ɛ l a n d ɔ d a h a j i h e j i h a j i 
[547.085]
<no-speech> 
[552.905]
<sta> h a j i ɠ u m ɛ l e u m ɬ a l i s e ph a n s i 
[555.115]
<no-speech> 
[559.195]
a ɠ a kh u l u l e ɠ i l e a ɠ a kh u l u l e ɠ i l e 
[562.415]
<no-speech> 
[563.515]
i n ɠ i ŋ g a j ɛ n a <no-speech> 
[568.095]
m h m 
[568.895]
<no-speech> 
[578.995]
h a j i m f ɔ w ɛ th u u j a ɓ ɔ n a n ʤ e i n d a ɓ a j a l ɛ j a ŋ g a n e ŋ g a th i i j a m ɬ a ɲ i s a ph ɛ l a m i n a ŋ g a ɓ ɔ n a n a m i u j a ɓ ɔ n a n ʤ e u ɠ u ɓ e ɠ u s u ɠ e ɠ u kh ɔ n a ŋ g ɔ ɓ a ɓ e ɠ u kh ɔ n a u s a n e n ʤ e a ŋ g i th i u th e <hes> u m u ʤ w a j ɛ l e ɠ a ŋ ǀ a n e ɛ j i a v ɛ l e a f a ɠ e i n d a ɓ a ɠ a n s i ɠ e m f w ɛ th u ɛ ʃ o ɠ u th i a ɠ ɛ kh o ɔ m u ɲ e u m u n tʼ u a j ɔ m th a n d a ɛ m ɬ a ɓ e n i u m a ɛ ɠ e w a ɬ u ɠ a n a n o n s i ɠ e ɛ ʃ o ɠ u s a n e 
[599.635]
<no-speech> 
[600.080]
