[0.000]
<no-speech> 
[0.455]
<no-speech> 
[2.285]

[4.315]

[5.125]
<sta> h ɛ l o 
[6.975]
<no-speech> 
[8.155]
ʃ o ʃ o ɓ a f o <int> ɠ u h a m ɓ a ɠ a n ʤ a n i 
[10.115]
<no-speech> 
[11.795]
<sta> ɠ u j a ph i l ɛ ɠ a m f ɔ w ɛ th u a ŋ g i s a ɠ w a z i h a j i z i th i n i l a ph o <no-speech> j a 
[17.065]
<no-speech> 
[18.115]
<int> <sta> j i n i ɠ w e n z i w a n i l a ph o <no-speech> 
[22.025]
<no-speech> 
[23.085]
<sta> <hes> m f ɔ w ɛ th u u j a b ɛ d a m f ɔ w ɛ th u a w u m f ɔ w ɛ th u j i n i ŋ g a m pʼ ɛ l a a ŋ g i s a ɠ w a z i ɠ a d e ŋ g a ɠ u ɡ|ɦ i n a m f ɔ w ɛ th u o w u j i n i i n d a ɓ a m f ɔ w ɛ th u ɔ s a f u n i u ɠ u ɓ u j a 
[30.685]
<no-speech> 
[31.715]
<no-speech> 
[32.945]
<no-speech> 
[37.345]
u kh i s i m u s i ph o u z o w u ɮ ɛ l a ph i e pʼ u l a z i n i n ɔ m a u z ɔ ɓ u j a u z ɔ ʃ a j a i l a w u n d i <sta> <no-speech> ɛ ɦ e 
[43.115]
<no-speech> 
[44.865]
<sta> u kh i s i m u s i u z o w u ɮ ɛ l a ph i ph o ɛ ɦ e 
[48.175]
<no-speech> 
[49.235]
<no-speech> 
[51.415]
<no-speech> 
[52.505]
<sta> m f w ɛ th u 
[55.975]
<no-speech> 
[57.785]
<sta> <oov> u m l u ŋ u u th i n i <no-speech> u m l u ŋ u u th i n i a ɠ a ɠ u v a l i s i j i n i u m l u ŋ g u m f w ɛ th u <no-speech> ɛ ɦ e <no-speech> a ɠ a ɠ u v a l i s i j i n i u m l u ŋ u m f w ɛ th u 
[67.655]
<no-speech> 
[68.585]
<int> ɛ ɦ e 
[69.545]
<no-speech> 
[70.695]
<no-speech> 
[71.065]
<no-speech> 
[72.725]
f a n ɛ ɠ e u v a l e m f w ɛ th u u z ɔ ɮ a a m a kh ɛ kh e <oov> m f w ɛ th u o w u j i n i i n d a ɓ a 
[77.015]
<no-speech> 
[77.855]
<int> ɛ ɦ e <laugh> 
[78.905]
<no-speech> 
[81.005]
<no-speech> 
[81.615]
<no-speech> 
[83.795]
<no-speech> <sta> h a j i m f w ɛ th u 
[85.575]
<no-speech> 
[86.715]
<sta> <laugh> u ɓ a l o ɔ ʃ o n ʤ a l o u ɓ a l o ɔ ʃ o n ʤ a l o <no-speech> u ɓ a l o ɔ ʃ o n ʤ a l o 
[95.885]
<no-speech> 
[99.445]
<no-speech> 
[99.825]
<no-speech> 
[102.445]
<no-speech> <sta> j ɛ ɓ o 
[103.635]
<no-speech> 
[105.755]
<sta> 
[106.625]
<no-speech> 
[108.285]
ɠ u ʃ ɔ ɓ a l ɔ ɠ o u ɓ a l o u ʃ o <laugh> ɔ ɦ o u s u j a ŋ g i b a m pʼ ɛ l a ɠ u j i m a n ʤ e u j a ɓ ɔ n a ɠ e ɠ u th i m f ɔ w ɛ th u <sta> <no-speech> m a n ʤ e ph ɛ l a m f ɔ w ɛ th u ɛ j i <no-speech> 
[118.695]
ɓ u ɠ a kh ɔ n a l a ɓ a n tʼ u i kh ɔ n a l a ɓ a n tʼ u a ɓ a l a ph ɛ z u l u ɠ a n ʤ a l o m a n ʤ e <hes> j a ɓ o n ʤ e m f ɔ w ɛ th u a w u f u n i u ɠ u v u ɠ a l a 
[124.465]
<no-speech> 
[125.375]

[125.975]
<no-speech> 
[127.795]
<no-speech> 
[128.175]
<no-speech> 
[130.685]
<laugh> u s u n ɛ m a l i 
[133.965]
<no-speech> 
[140.575]
j a <sta> ŋ g i z ɔ b ɔ n o b ɔ n a ph i 
[142.405]
<no-speech> 
[146.345]
ɛ ɦ e 
[146.985]
<no-speech> 
[154.585]
<no-speech> <sta> ŋ g i z ɔ ɠ u f ɔ n ɛ l a s e <no-speech> u b ɔ n a s a l ɛ j th i u b ɔ n a s a ŋ g ɔ m ɬ a ɠ a 
[160.095]
<no-speech> 
[161.065]
ɓ a b ɔ n a s i l e n ʤ e a ɓ a n tʼ u ŋ g ɛ w i kh ɛ n d i u b ɔ n a s a l ɛ j th i ɠ ɔ d w a u b ɔ n a s a u m ɬ a ɠ a tʼ w ɛ n tʼ i f o <no-speech> h a j i u b ɔ n a s a l ɛ j th i ŋ g ɛ ɠ e h a j i l o u m l u ŋ u w a kh o ɠ a n tʼ i j i n i i n d i j a j i n i ɠ a n tʼ i 
[171.475]
<no-speech> 
[179.495]
ɛ ɦ e <oov> <laugh> <int> ɛ ɦ e 
[183.365]
<no-speech> 
[184.655]
<no-speech> 
[185.455]
<no-speech> 
[189.175]
<sta> m a n ʤ e <no-speech> j i n i i n d a ɓ a 
[193.295]
<no-speech> 
[194.135]
<hes> u m l u ŋ u ph o <int> j i n i i n d a ɓ a a ɠ a n i h ɔ l e l i 
[197.645]
<no-speech> 
[208.775]
<no-speech> 
[211.765]
<no-speech> 
[215.675]
h a j i ɓ o <laugh> <int> 
[219.405]
<no-speech> 
[220.655]
<int> ŋ g a w a f a ɠ a 
[221.775]
<no-speech> 
[228.545]
<no-speech> 
[229.095]
<no-speech> 
[232.605]
h a j i ɓ o w ɛ n a <laugh> l ɛ z i <hes> z i ph i l e z i ŋ a n e <int> z i ph i l e z i ŋ a n e ŋ g ɔ ɓ a ph ɛ l a l e z i ŋ a n e z a ŋ g a l a l ɛ z i z i j a ɡǃɦ ɔ ɠ a ɠ u ph ɛ l a n ʤ e z i j a f i ɬ a n ʤ e ɛ ɦ e z i j a f i ɬ a n ʤ e l ɛ z i <hes> z i j a f i ɬ a n ʤ e l e z i ŋ a n e z a ŋ g a l a kh ɔ n a e ŋ g i f u n a u ɠ u ɠ u v u s a ŋ g a j o m u ŋ g a n i w a m i o j i f u n i 
[251.025]
<no-speech> 
[252.905]
<sta> ɛ ɦ e <no-speech> kh ɔ n a ɛ ɲ e n ʤ e e ŋ g i ɓ ɔ n a j o l a e d u z e <oov> <laugh> h a j i e ŋ g i ɓ ɔ n a j o n ʤ e l a e d u z e ɛ ŋ g i f u n a u ɠ u ɠ u v u s a ŋ g a j o a w u f u n i u ɠ u v u ɠ a ŋ g a j o 
[261.185]
<no-speech> 
[262.195]
ɛ ɦ e <int> 
[263.205]
<no-speech> 
[264.285]
<sta> ɛ ɦ e <no-speech> h a j i ph ɛ l a ŋ g ɛ ɠ e ŋ g i ɠ w a z i u ɠ u j i n i ɠ a u ǀ i ŋ g o <no-speech> ŋ g ɛ ɠ e ŋ g i ɠ w a z i u ɠ u j i n i ɠ a u ǀ i ŋ g o u j i kh u l u m ɛ l e n a j o <laugh> ŋ g ɛ ɠ e w a z i u ɠ u j i n i ɠ a u ǀ i ŋ g o <laugh> ɛ ɦ e 
[275.635]
<sta> h a j i m i n a ŋ g i z o ɠ u kh u l u m ɛ l a w ɛ n a u z o j i <hes> u z o j i ɓ ɔ n ɛ l a ɠ u th i ɠ w ɛ n z a ɠ a l a n i ŋ g i z o ɠ u kh u l u m ɛ l a 
[287.415]
m i n a ŋ g i z o ɠ u g ɔ ǃ ɛ l a ɠ u th i h a j i ɓ o <no-speech> <sta> n a ŋ g u l ɔ m u n tʼ u l o e f u n a u ɠ u v u ɠ a ŋ g i z o ɠ u <hes> ŋ g i z o ɠ u kh u l u m ɛ l a kh u l u l ɛ ɠ a 
[294.795]
<no-speech> 
[296.515]
<no-speech> <sta> <laugh> <breath> ɠ u th i w a n i 
[300.515]
<no-speech> 
[301.815]
<no-speech> <sta> u ɓ a n i <no-speech> ɛ ɦ e u s ɛ n ɛ ŋ g a n e m f w ɛ th u ɛ j i <no-speech> n o m u s a u s u z w i l e ɠ u th i u s ɛ n ɛ ŋ g a n e 
[308.925]
<no-speech> 
[310.275]
n o m u s a u z w i <hes> <sta> n o m u s a u z w i l e ɠ u th i u s ɛ n ɛ ŋ g a n e 
[312.965]
<no-speech> 
[314.005]
<no-speech> <sta> ɛ ɦ e <no-speech> w a ǃ ɔ ɲ w a i n tʼ ɔ m b i ɛ n ɛ ŋ a n e m a n ʤ e u th i ɛ j a kh e n a j e u th e i i u th a n d a ɠ a kh u l u i n tʼ ɔ m b i u th i ɛ j a kh e 
[325.985]
<laugh> <sta> ɛ ɦ e 
[330.535]
<no-speech> 
[331.365]
<no-speech> 
[331.715]
<no-speech> 
[333.265]
<no-speech> 
[334.225]
<no-speech> 
[336.395]
<sta> u h a j i ŋ g i j a ɠ u ʧʼ ɛ l a m f w ɛ th u u ʃ o n ʤ a l o u th e j i m a ŋ g i ɠ u ʧʼ ɛ l e u th e j ɛ n a <no-speech> w a f ɔ n ɛ l a u m a w a th i ŋ g o kh i s i m u s i u f u n a u ɠ u v a ɠ a ʃ a n a j o <no-speech> u m a w ɛ ŋ a n e j a kh e i ɛ ʧʼ ɛ l a u m a ɛ f o n i n i 
[348.355]
j i n i n i <sta> ph a ɠ a th i n e j i n s u ɠ u w a th i u f u n a u ɠ u v a ɠ a ʃ a <hes> w a th i u f u n a u ɠ u v a ɠ a ʃ a n a j e u m a w ɛ ŋ a n e j a kh e j ɛ n a <laugh> u z ɔ ɮ a u kh i s i m u s i n a j e l a ph a ɛ kh a j a 
[356.255]
<no-speech> 
[357.915]
<no-speech> 
[359.645]
<no-speech> 
[360.695]
<no-speech> 
[361.105]
<no-speech> 
[361.985]
<sta> ɛ ɦ e m f ɔ w ɛ th u <laugh> 
[365.445]
<no-speech> 
[367.365]
<no-speech> <sta> m a n ʤ e m f w ɛ th u 
[369.085]
<no-speech> 
[369.955]
<no-speech> 
[370.325]
<no-speech> 
[371.345]
ɛ j i m f ɔ w ɛ th u ŋ g i n o ɓ o j i ŋ g i s ɛ n o ɓ o j i ɠ u ph ɛ l a m i n a m f ɔ w ɛ th u <sta> <no-speech> ŋ g i n o <oov> w a m i n ʤ e ɠ u ph ɛ l a ŋ g i f u n a ɛ ɲ e ɠ ɔ d w a ɛ j e s i ɓ i l i <no-speech> ɛ ɦ e h a j i ŋ g i f u n a i 
[382.745]
<sta> n tʼ ɔ m ɓ a z a n e u ɓ o j i ɓ ɛ s ɛ m d a l a m a n ʤ e u ɓ o j i ɔ w u <no-speech> pʼ l a s i u ph a s i l e ɠ e ɠ e u ɓ o j i ǀ a ɓ a ŋ g a 
[389.225]
<no-speech> 
[390.135]
<sta> <oov> u ph a s i l e ɠ e ǀ a ɓ a ŋ g a u ɓ o j i <no-speech> ɛ ɦ e 
[393.685]
<no-speech> 
[395.975]
<no-speech> 
[396.865]
<no-speech> 
[397.685]
<no-speech> 
[398.055]
<no-speech> 
[399.815]
<sta> s e ŋ g i f u n a u <no-speech> ǀh a j a z i j a z i ŋ g i ǀ a ɓ a ŋ g a n i ɓ a f o ŋ g i ǀ a ɓ a ŋ g a u ɠ u j ɔ l ɔ ɓ ɔ l a m i n a m f w ɛ th u <no-speech> ŋ g i ǀ a ɓ a ŋ g a u ɠ u j ɔ kh ɔ kh a <no-speech> ŋ g i ɓ a ǀ a ɓ a ŋ g e u ɠ u j ɔ kh ɔ kh a ɓ o ŋ g i l ɔ ɓ ɔ l e m f w ɛ th u ŋ g i v ɛ l e ŋ g i kh ɔ kh e s i tʼ l e th i ŋ g i l ɔ ɓ ɔ l e 
[411.735]
<sta> m a s e ŋ g i j a ʃ a d a f u th i 
[413.955]
<no-speech> 
[414.805]
<sta> ɛ ɦ e <no-speech> a <hes> a m a ɲ e a m a n tʼ ɔ m ɓ a z a n e n ʤ e a ŋ g a s ɛ kh a j a n ʤ e ɛ ŋ g a w a z i n a m i ɠ u th i ɔ ɓ a a m a g a m a a ɓ o n ɔ ɓ a a m a g a m a e n u ɓ o s i s i a ŋ i w a z i l a m a n tʼ ɔ m b a z a n e <sta> 
[427.325]
<no-speech> 
[428.825]
<no-speech> 
[429.295]
<no-speech> 
[430.295]
<sta> i g a m a l a j o u z a m a n ɔ s m a ŋ g ɛ l e <laugh> ɛ ɦ e <no-speech> 
[435.765]
<no-speech> 
[437.725]
<sta> ɔ j ɛ d w a a w u ŋ g ɛ ɠ e m f w ɛ th u h a j i ŋ g i z o n i ɠ a ɓ a ph a ɠ a th i ɠ w a ɓ o ɓ ɔ ɓ a w u th u u kh ɛ th a <no-speech> m a n ʤ e ŋ g ɛ ɠ e u ɓ a ɓ ɔ n e n ʤ e ɓ a th a th i w e ɓ a th a th i w e <no-speech> n a ŋ g u ɛ kh a l a ɛ th i s ɛ th a th i w e 
[447.945]
<no-speech> 
[452.945]
<no-speech> 
[453.775]
<no-speech> 
[455.055]
<sta> i s i g a n s ɔ n s o l ɛ s i e s i ŋ g a ɠ a <laugh> a ŋ g i n i ɠ a i s i g a n s ɔ n s o 
[459.125]
<no-speech> 
[460.565]
<sta> <laugh> i s i g a n s ɔ n s o l ɛ s i e s i ŋ g a ɠ a <laugh> 
[469.335]
<no-speech> 
[470.775]
<sta> <laugh> h a j i ŋ g ɛ ɠ e h a j i a ɠ a f u n i a ɠ a f u n i m f a n a u f u n a u ɠ u kh u l u m a n a j e 
[480.545]
<no-speech> 
[483.445]
<sta> ɛ ɦ e <laugh> <no-speech> ʃ u z a l o ɔ ŋ g a l a <no-speech> <laugh> <no-speech> 
[493.595]
<no-speech> 
[494.585]
<sta> u z ɔ ɓ a ɓ ɔ n a ɠ a n ʤ a n i <no-speech> u z ɔ ɓ a ɓ ɔ n a ɠ a n ʤ a n i u ŋ g ɛ kh o l a e d u z e u z ɔ ɓ ɔ n a ɠ a n ʤ a n i u ŋ g ɛ kh o l a ɠ w a e m u ŋ g ɔ ɓ a ph ɛ l a <no-speech> ɓ a ɠ u d e ɓ ɔ n a u z ɔ ɓ a ɓ ɔ n a ɠ a n ʤ a n i u ŋ g ɛ kh o ɠ w a e m u ŋ g ɔ ɓ a ph ɛ l a w ɛ n a u l e ɛ m a f a m u i s ɛ m l a z i l a <no-speech> 
[506.035]
<sta> u z ɔ ɓ a ɓ ɔ n a ɠ a n ʤ a n i 
[508.105]
<no-speech> 
[509.075]
<sta> <laugh> 
[511.055]
<no-speech> 
[513.205]
h a j i u kh ɔ n a 
[514.545]
<no-speech> 
[516.745]
<no-speech> <sta> <laugh> <no-speech> u ɓ a u m ɓ ɔ n a ŋ g a n i <oov> ɛ ɦ e u m u n tʼ u ɔ ŋ g a m ɓ o n i u z ɔ m ɓ ɔ n a <laugh> 
[525.165]
<no-speech> 
[525.965]
<no-speech> 
[526.575]
<no-speech> 
[527.905]
<no-speech> <sta> <laugh> kh u l u l ɛ ɠ a ɠ u v a l i w e ɠ u v u l i l e <no-speech> h a j i a ŋ g a z i ɠ e u ɓ a o v u l i l e o th i ŋ g i m u v u l e <no-speech> o th i ŋ g i m u v u l e m i n a ɠ e <laugh> <breath> o th i ŋ g i m u v u l e 
[539.685]
<no-speech> <sta> o th i ŋ g i m u v u l e <laugh> 
[543.415]
<no-speech> 
[544.845]
<int> h a j i u ŋ g a s a ɓ i <laugh> 
[546.965]
<no-speech> 
[547.905]
<no-speech> <sta> h a j i u j a s a ɓ a n a j e j ɛ n a u z ɛ n z a i n tʼ o ɛ ŋ a f u n i <no-speech> 
[553.905]
<no-speech> 
[555.995]
<sta> u n e s i ʃ w a ph a ɛ j i u j a ɓ a z i ɠ e a ɓ a n tʼ u a ɓ a n e j i ʃ w a ph a <no-speech> u th i ɠ ɔ d w a u kh u th ɛ l e ɠ ɔ d w a <laugh> 
[565.395]
<no-speech> 
[566.325]
<sta> n a j e u n e s i ʃ w a ph a ɠ ɔ d w a u kh u th ɛ l e <no-speech> h a j i l ɔ n a ɠ ɔ d w a n ʤ e m f w ɛ th u <no-speech> u j a m u ɓ ɔ n a n ʤ e u m ɓ ɔ n a ɠ u th i h a j i i v i l a l ɛ l i u l i ɓ u ɠ a n ʤ e u j a ɓ ɔ n a ɠ u th i h a j i u j a v i l a ph a l o <no-speech> <no-speech> 
[578.875]
<no-speech> 
[579.945]
<sta> o w u u ʃ a j e u s ɔ l o l a u v ɛ l e u v ɛ l e u z u m ɛ ɠ e <no-speech> u j a v i l a ph a <no-speech> 
[586.735]
<no-speech> 
[592.435]
<sta> a j i j a z i j i n i i n d a ɓ a l ɔ m u n tʼ u e ŋ g i n a j e l a n a m ɛ l e ŋ g i m ǀh a th e ŋ g i m f a ɠ e u ǀh a th o a kh u th a l e m f ɔ w ɛ th u <no-speech> ɠ u z a u kh i s i <oov> 
[600.020]
