[0.000]
a m a s e n tʼ i 
[0.665]
<no-speech> 
[1.485]
h ɛ l o 
[2.145]
<no-speech> 
[4.305]
h ɛ l o 
[5.025]
<no-speech> 
[7.765]
h ɛ l o 
[8.425]
<no-speech> 
[10.785]
h ɛ l o j ɛ ɓ o ɓ a m ɓ a ɠ e 
[12.875]
<no-speech> 
[14.835]
<no-speech> 
[15.185]
<no-speech> 
[16.135]
j ɛ ɓ o s a w u ɓ ɔ n a m f w ɛ th u 
[17.365]
<no-speech> 
[19.285]
ŋ g i j a ph i l a u ɠ u ph i 
[20.905]
<no-speech> 
[23.485]
o w u i z ɔ l o ɠ w ɛ n z a ɠ ɛ l e n ʤ a n i e ɓ u s u ɠ u 
[25.585]
<no-speech> 
[32.825]
a ŋ g i th i ɓ e ŋ i h a m ɓ a n ɛ ŋ g a n e j a s ɛ kh a j a ɛ n ǀ a n e n ʤ e ɓ e ŋ i ŋ ɛ ɠ e ŋ g i j i j ɛ ɠ e j ɔ d w a i h a m b e i z e l a ph o i j o th i w a l a ph o ɠ i n i 
[38.755]
<no-speech> 
[41.305]
<no-speech> 
[41.655]
<no-speech> 
[42.875]
<sta> ɔ ɦ o j a ɠ ɔ n a u u l o u u b u tʼ i w a m i l o ɔ ɠ a d e ŋ g i h a m b a n a j e u j ɛ n a n ʤ e <no-speech> <no-speech> 
[51.465]
h a j i ŋ g i j a ǁ o l i s a ph ɛ l a a w u ɠ a ɬ e ɓ o o w u l a l ɛ l a ɠ a n tʼ i <no-speech> 
[57.045]
h e ɛ ɦ e kh u l u l ɛ ɠ a o w u ɛ ɦ e 
[59.515]
<no-speech> 
[60.765]
ŋ g i n o m u <no-speech> 
[63.125]
h a j i <oov> f ɔ n e l i m i n a ŋ g i th i l a ɠ a l a ɛ kh a j a a ŋ g i th i u j a z i n ʤ e 
[66.855]
<no-speech> 
[70.285]
h a j i ŋ g i z ɔ ɓ e ŋ g i ɠ u l i n d i l e ŋ g i z ɔ ɓ e ŋ g i ɬ ɛ l i ɛ kh a j a 
[73.225]
<no-speech> 
[77.245]
j a ɠ u n a n i 
[78.645]
<no-speech> 
[81.555]
o w u o w u ɠ a ɬ e ɓ o s i ɓ a ɬ e ɠ a n tʼ i ph ɛ l a a ɓ a ɓ a n i ŋ g i u w ɛ n a w ɛ d w a n ʤ e 
[85.535]
<no-speech> 
[87.215]
<int> th a ɓ a n i 
[89.415]
<no-speech> 
[90.845]
ǀ a ɓ a ŋ g a u j a z i u ɓ a n i l o ɔ ǃ a l e w a kh u l u m a n a j e 
[93.835]
<no-speech> 
[95.895]
<oov> o l d i l e j i d i 
[96.815]
<no-speech> 
[100.265]
ŋ g ɛ m pʼ ɛ l a ŋ i f ɔ n a n ʤ e ŋ ɛ f o n i j a kh e 
[103.485]
<no-speech> 
[108.565]
w ɛ n z a n i 
[109.505]
<no-speech> 
[110.665]
w ɛ n z a n i 
[111.505]
<no-speech> 
[114.305]
<int> j i ɓ ɛ th d j j ɛ ŋ a n e j a ɠ i n i o w u j a z i ɠ a d e ŋ g i ɓ u z a ɛ ɲ e i n tʼ ɔ m b a z a n e ɠ a d e ŋ g i ɓ u z a ɛ ɲ e i n tʼ ɔ m b a z a n e j a l a ŋ g a s ɛ kh a j a j ɛ n z a l ɛ z i n tʼ o l ɛ z i <oov> u j a j i th a n d a i n z i ph o 
[122.705]
<no-speech> 
[125.255]
n e j i n e j i i n ɠ ɔ ph e 
[126.775]
<no-speech> 
[129.115]
u th e <oov> u th e i ɠ ɔ m ɓ o <oov> h a n d i l ɛ d i ʁ a n d i m a n ʤ e w ɛ n a u j a h a m b a ɠ u s a s a m a n ʤ e a ŋ g a z i ɠ u th i s i z ɔ j ɛ n z a ɠ a n ʤ a n i 
[134.755]
<no-speech> 
[137.605]
j ɛ n a ɓ ɛ ɠ a d e ŋ g i kh u l u m a n a j e m a n ʤ e b i f o ɓ ɛ ŋ g i th i ŋ g i j o ɠ u f ɔ n ɛ l a ŋ g i z e ɠ u w ɛ n a ŋ g a ǀ ɛ l a o l d i l e j i d i ɠ u th i l i ŋ g i f o n i s e n ʤ ɛ ŋ g ɔ ɓ a s e ŋ g i ɠ u f ɔ n ɛ l a 
[144.535]
<no-speech> 
[145.905]
j e w a th i j ɛ n a n a m ɬ a n ʤ e a ɠ a n a s o i s i kh a th i b a th i a ŋ g a ɓ a n a s e i s i kh a th i ɠ u s a s a ŋ g i f u n a u ɠ u m ɛ n z a n i n i l ɔ w o m u n tʼ u ŋ g a m ʧʼ ɛ l a ɠ u th i u j a h a m b a ɠ u s a s a l ɔ m u n tʼ u ɛ ɦ e ɠ u j i m a n e <no-speech> 
[158.695]
a ŋ g i m a z i u th e u z a l a ɛ kh a j a a ŋ g i th i a ŋ g i th i ɠ u s a s a ɛ kh a j a ɠ u z o ɓ e <oov> ɠ u n a l ɔ m ɛ m ɓ ɛ s o l o w a kh ɔ n a 
[163.945]
<no-speech> 
[166.345]
ɛ ɦ e s o <no-speech> 
[168.545]
u j a h a m b a m a n ʤ e u j a ɠ u ɓ o <oov> ɠ e 
[170.715]
<no-speech> 
[173.105]
ɛ ɦ e s o n a m i ɓ e ŋ g i kh u l u m ɛ l a i n tʼ o j a n a m ɬ a n ʤ e ŋ g i th i m ɬ a m pʼ e ɓ ɛ ŋ g i th i ŋ g i f u n a u ɠ u ɠ u ʃ a j a ŋ g ɛ s ɛ pʼ l a j i z i ɠ a ɬ e ɠ a ɬ e ŋ g ɔ ɓ a a ŋ g i th i u j a h a m b a ɠ u s a s a 
[180.115]
<no-speech> 
[182.495]
u u h a m b a ŋ g a s i kh a th i s i n i 
[183.955]
<no-speech> 
[187.255]
ɛ ɠ u s ɛ n i 
[188.225]
<no-speech> 
[193.245]
a h a a ŋ g i s a z i j ɛ n a ɠ ɔ d w a l ɛ n tʼ ɔ m ɓ a z a n a i j a h a m ɓ a i h a m b i l e f u th i ŋ g i ŋ g a th i i j a h a m ɓ a i h a m b i l e i ɬ a l a ɔ ph o z i th i n a l a n a s e kh a j a 
[200.855]
<no-speech> 
[203.155]
<int> i z ɔ z e i ɓ e kh ɔ n a ɠ u s a s a f u th i i z ɔ ɓ e i ŋ g a s ɛ ɓ e n z i ɠ u s a s a i z ɔ ɓ e i z ɔ ɮ a i ɲ a m a 
[207.835]
<no-speech> 
[209.885]
ɛ ɦ e ɓ a ph i ɠ a n tʼ i a ŋ g i th i ŋ g ɔ m ɬ a ɠ a th u 
[213.255]
<no-speech> 
[214.365]
o w u 
[214.805]
<no-speech> 
[221.605]

[225.475]
<no-speech> 
[227.435]
<sta> ɛ ɦ e ŋ g ɔ m ɬ a ɠ a th u s o ɓ e s i l i n d e a m a ŋ g ɔ m ɬ a ɠ a th u s o ɓ e s i l i n d e n a w e a m a l ɛ z a l tʼ s 
[232.295]
<no-speech> 
[233.165]
<no-speech> 
[233.515]
<no-speech> 
[234.925]
o ɠ u ŋ g ɛ n z ɛ ɠ a ŋ g a m a n ʤ e s ɔ ɓ ɔ n a ŋ g ɔ ɲ a ɠ a ɔ z a j o 
[239.655]
<no-speech> 
[241.895]
<oov> ɠ ɔ d w a s i s a z ɔ ǁ ɔ ǁ a a ŋ g i th i w ɛ n a u s a z ɔ z a 
[244.705]
<no-speech> 
[245.785]
<no-speech> 
[246.135]
<no-speech> 
[247.025]
u s a z ɔ z a ŋ g a l a ŋ g a s ɛ kh a j a a ŋ g i th i a ŋ g i th i s i s a z ɔ ǁ ɔ ǁ a j a <oov> s i s a z ɔ ǁ ɔ ǁ a n a m ɬ a n ʤ e j a a ŋ g i th i u s a z ɔ z a w ɛ n a l a 
[256.545]
<no-speech> 
[258.295]
i j a ŋ g i j a l i f u n a u ŋ g i ph a th ɛ l e ɛ ɦ e ŋ g i j a l i f u n a u j a z i n a m i ɠ a d e ŋ g i l i ɮ a m a n ʤ e ɠ ɔ d w a ŋ g i z o ɠ u s i ɠ ɛ l a e l i n ǀ a n e n a w e 
[264.315]
<no-speech> 
[265.265]
u j ɛ z w a <hes> u ŋ g a ɓ e u s u f u n a <oov> th a ɠ a th a n ʤ a l o u j a z i ŋ g i j a ŋ g i j a l i th a n d a i kh ɛ kh e 
[272.595]
<no-speech> 
[273.525]
<no-speech> 
[275.225]
<no-speech> 
[276.835]
h e a ŋ g i ʃ ɔ ŋ g o ɠ u th i a ŋ g i l i f u n i ŋ g i th e ŋ g i j a l i th a n d a u ŋ g i ph a th ɛ l e o w u 
[280.955]
<no-speech> 
[282.185]
<hes> a ŋ g i ʃ ɔ ŋ g o ɠ u th i a ŋ g i ɠ u th e m ɓ i ŋ g i th e j i n i i n d a ɓ a u th i u f u n a u ɠ u ŋ g i l ɔ j a <laugh> 
[286.455]
<no-speech> 
[288.305]
u s u f u n a u ɠ u ŋ g i ʃ a j a <sta> ŋ g ɔ b ɛ ɠ a m i n a <no-speech> u s u f u n a u ɠ u ŋ g i ʃ a j a ŋ g ɔ b ɛ ɠ a m i n a ŋ g ɛ d w a <laugh> 
[293.875]
<no-speech> 
[295.055]
ɛ ɦ e ŋ g a th i u j a z i pʼ l a s i u th i u g ɔ g o h a j i u ʃ i m i l e w ɛ m f a n a <oov> m u ŋ u n i u th a n d a i n tʼ ɔ m b i ɛ j ɔ d w a ɠ u ʃ o u g ɔ g o 
[302.915]
<no-speech> 
[306.215]
<laugh> a w u ɠ ɔ d w a w ɛ n z a u ʃ o u ʃ o i n tʼ o ɛ l a j tʼ <no-speech> ŋ g ɔ ɓ a u ɠ u th a n d a a ɓ a n tʼ u a ɓ a n i ŋ g i n ʤ e ɠ u j i s tʼ o l i 
[311.285]
<no-speech> 
[313.795]
ɛ ɦ e 
[314.355]
<no-speech> 
[315.595]
<no-speech> 
[316.005]
<no-speech> 
[317.505]
h a j i ŋ g ɛ ɠ e ɠ u j a f i w a ŋ g ɛ ɠ e o w u 
[320.395]
<no-speech> 
[321.515]
<oov> <no-speech> ŋ g i j a j ɛ s a ɓ a i ŋ ɡ|ɦ u l a z a 
[325.365]
<no-speech> 
[330.315]
w u a m a n d a l o ɠ a d e e f i ɠ i l e ɠ i n i u kh ɔ n a n ɔ m ɓ a l i f u th i n a j e l a j i kh a j a ɠ u kh ɔ n a a m a n tʼ ɔ m ɓ a z a n e a w u tʼ i l i ɛ kh a j a m a n ʤ e u a m a n d a n ɔ m ɓ a l i n o ɓ u ɬ e 
[338.535]
<no-speech> 
[339.545]
a n ɔ m a n ɔ m a u ŋ g a ǀ ɛ l a m i n a a j i kh o i n ɠ i ŋ g a o w u ɠ ɔ d w a f u th i ɠ u ɠ u w ɛ n a ŋ g i th i u ŋ g a ɓ a ǀ ɛ l a 
[346.635]
<no-speech> 
[348.975]
j i m a ɠ e l a l ɛ l a <oov> u l o kh u z a n e s e ŋ g i th i u s ɓ a ɬ e a w u b ɛ ɠ e <oov> <oov> u s e l i m i n i m a n ʤ e <breath> u u z a n ɛ l e <no-speech> w ɛ n z a n i l a ph o ɠ w ɛ n z a ɠ a l a n i ɠ u z a n ɛ l e n ɔ w u n o s i ph e 
[359.785]
<no-speech> 
[362.835]
a ɠ w ɛ n z a ɠ a o w u u j a kh u m b u l a ŋ g i ǃ a l a u ɠ u ɠ u f ɔ n ɛ l a ŋ a ɠ u f ɔ n ɛ l a ŋ ɛ f o n i j a j a s ph e ŋ g a th i ŋ g i j a z a m a u ɠ u ɠ u f ɔ n ɛ l a ɛ f o n i n i j a kh e j a kh o a j a ŋ g a ŋ g ɛ n a ŋ g a z e ŋ a ɠ u f ɔ n ɛ l a ɛ f o n i n i ɠ a z a n ɛ l e 
[371.145]
<no-speech> 
[373.385]
n i s ɔ n tʼ a n a j e u s ph e 
[374.655]
<no-speech> 
[375.635]
n i s ɔ n tʼ a n a j e 
[376.465]
<no-speech> 
[379.275]
o w u ɠ a ɬ e n a n i 
[380.685]
<no-speech> 
[382.025]
ph ɛ l a ph ɛ l a l a <no-speech> h a j i <laugh> h a j i u m ŋ g a n i w a m i <oov> <no-speech> h a j i w a ŋ g i ǁ o u m ŋ g a n a m i ph ɛ l a u s ph e <no-speech> w u m u ŋ g a n i w a m i ɓ e ɠ u w u s i ɓ a l i w a m i f u th i <no-speech> w a ŋ g i ʧʼ ɛ l a ɠ u th i <no-speech> w a th i ɠ u kh ɔ n a l ɛ n tʼ o ɛ j ɛ n z a ɠ a l a j o ph a ɠ a th i ɠ w a ɓ o ɓ o w u th u <cough> 
[397.985]
<no-speech> 
[401.355]
<int> h a j i f u th i a s i ŋ g a j i ŋ g e n i i n d a ɓ a z a ɓ o j a a s i ŋ g a j i ŋ g e n i <sta> 
[405.045]
<no-speech> 
[408.085]
ɛ ɦ e j i m a ɠ e <oov> ph a th i ɠ a ɓ a n i l a ph o n a m i ŋ g i j a ɠ u th a n d a ɠ u kh ɔ n a u m a l a ɛ ǀ ɛ l e n i ɠ w a m i 
[412.715]
<no-speech> 
[414.715]
ɠ u kh ɔ n a u m a l a ɛ ǀ ɛ l e n i ɠ w a m i ŋ g i j ɛ s a ɓ a ɠ u th i ŋ g i j a ɠ u th a n d a n a m i j a ɠ u n ʤ a n i 
[419.475]
<no-speech> 
[420.635]
ŋ g i j a ph i l a u n ʤ a n i 
[421.855]
<no-speech> 
[422.965]
u ɓ a n i l ɔ n a u ɓ a n i l ɔ j o u z a n ɛ l e 
[425.335]
<no-speech> 
[427.795]
ɔ ɦ o u ɓ a n i l o o th i u j a ph i l a ph o ɛ ǀ ɛ l e n i 
[430.185]
<no-speech> 
[433.905]
ɔ ɦ o <no-speech> <hes> <sta> j a u n ʤ a n i ŋ g i j a ph i l a u n ʤ a n i 
[440.185]
<no-speech> 
[441.235]
j i n i i n d a ɓ a u ɮ a l a ŋ g ɔ m ŋ g a n i w a m i ɠ a n ʤ e 
[442.955]
<no-speech> 
[444.165]
<no-speech> 
[444.755]
<no-speech> 
[445.675]
ɛ ɦ e <oov> j i n i i n d a ɓ a j i n i i n d a ɓ a u s i ph e <sta> 
[449.825]
<no-speech> 
[451.185]
ɛ ɦ e 
[451.715]
<no-speech> 
[453.035]
<no-speech> 
[453.385]
<no-speech> 
[454.225]
<sta> o u n ʤ a n i <int> 
[457.605]
<no-speech> 
[459.185]
<int> ɔ ɦ o o h a j i ɠ u th i u j a j i ʃ a j a ŋ g a w e 
[462.095]
<no-speech> 
[462.935]
<no-speech> 
[463.465]
<no-speech> 
[465.885]
ɛ ɦ e s o u ɓ a ɔ w e n z i l e i ph a th i l a ph o 
[468.775]
<no-speech> 
[472.495]
<int> ɔ ɦ o u kh ɔ n a l a ph o u kh ɔ n a l a ph o <no-speech> u kh ɔ n a l a ph o 
[477.595]
<no-speech> 
[478.735]
ɛ ɦ e 
[479.285]
<no-speech> 
[480.405]

[481.415]
<no-speech> 
[482.385]
u m u ʧʼ ɛ l e ɠ u th i ŋ g i th e h e ph i i b ɛ d d e j i 
[484.585]
<no-speech> 
[487.405]

[488.475]
<no-speech> 
[489.935]
m h m 
[490.385]
<no-speech> 
[491.325]
h a j i a l i l i ŋ g a n i 
[492.485]
<no-speech> 
[496.055]
a ŋ g i th i ŋ g i n i ʧʼ e l i l e n ʤ ɛ ŋ g a th i ŋ g i n i ph a th ɛ l e a m a d o d a <sta> 
[499.695]
<no-speech> 
[503.315]
<int> ɓ e ŋ g i n i ph a th ɛ l e i n d o d a h a j i ŋ g ɔ ɓ a n i 
[505.945]
<no-speech> 
[507.955]
<no-speech> 
[508.325]
<no-speech> 
[509.405]
<int> o w u ŋ g i ʃ i l o n ʤ ɛ ŋ g a <hes> ŋ g a th i ɓ a j i n ǃ w a ɓ a a ɓ a f a n a <sta> 
[514.295]
<no-speech> 
[516.905]
<laugh> h a j i n ɛ n z a ɠ a ɬ e ɠ e n i ɓ e o w u ʃ ɛ j m i h a j i ʃ ɛ j m i ŋ g i j a ɓ ɔ ŋ g a u j ɛ z w a u ɠ u th a n d a u j ɛ z w a 
[525.175]
<no-speech> 
[527.185]
a w u ŋ g i kh u l u m i s a n ɔ m u n tʼ u w a m i ɛ ɦ e u th i n i 
[530.275]
<no-speech> 
[532.345]
<int> ɛ ɦ e 
[533.915]
<no-speech> 
[535.395]
<int> ɠ a n tʼ i ɛ ɦ e o w u ŋ g i j a m th a n d a n ʤ e u j a z i o w u <sta> 
[540.965]
<no-speech> 
[542.135]
<int> ɔ kh ɛ j i ŋ g i ǀ ɛ l a u ŋ g i o ŋ g i j i ʧʼ ɛ l a ɠ u th i ŋ g i s a kh u l u m a n ɔ w u s i s o s e ŋ g i kh u l u m a n a w e b ɛ j ɓ i 
[547.555]
<no-speech> 
[551.055]
ǀh a ŋ g i j a ǁ a ɠ ɛ ɠ a ɠ u th i n ɔ w u s e ŋ g i kh u l u m a i s i kh a th i ɛ s i d e ɠ a n ʤ e ŋ g i z e ŋ g i j a ph ɛ l a n a m i a j ɛ f a n a a m a v o j i s i e n u n ɔ w u <sta> ɛ ɦ e ŋ g i j a ɠ u z w a ŋ g i th i m i n a ŋ g i j a ɠ u th a n d a u j ɛ z w a 
[562.925]
<sta> o w u n a ŋ g u l o s i s i l o u j ɛ z w a u s a ŋ g i z w a n a ŋ g u l o s i s i l o ɠ a d e ɛ ɦ e n a ŋ g u m a n ʤ e l a a w u th i ŋ g i ŋ g i z o <int> ŋ g i z o m ɓ u z a ɠ u th i ɠ u th i u z o u z ɔ f i ɠ a n i n i ɠ u s a s a u z ɔ ɠ w a z i u ɠ u ɠ w ɛ n z a n i n i l ɛ n tʼ o h a j i ɠ ɔ d w a ŋ g i j a ɬ u ɠ a n a s i ǃ a l a n ʤ e u ɠ u th a n d a n a s e ŋ g i ɬ u ɠ a n a n ɛ m a l i ɛ ŋ g a ɠ a a h a 
[585.235]
<no-speech> 
[586.535]
o w u ɠ a ɬ e ŋ g i ŋ g i ɠ u f a ɠ ɛ l a a ɠ u z ɔ n a <oov> s tʼ ɛ ŋ ʤ a 
[590.555]
<no-speech> 
[591.905]
a ŋ g i th i u j a e s i ɛ s tʼ ɛ ŋ a u j a ɠ u ph i u j a ɛ s tʼ ɛ ŋ a 
[594.365]
<no-speech> 
[595.345]
h a j i z i n ɬ e n i h a j i z i n ɬ e n i l ɛ z i i n z i ph o l a ŋ g i j a j i ɓ ɔ n a m a n ʤ e l a 
[599.395]
<no-speech> 
[600.020]
