[0.000]
<no-speech> 
[1.245]
<no-speech> 
[2.915]
h ɛ l o <laugh> 
[4.835]
<no-speech> 
[6.215]
<sta> ʃ a ph u <sta> 
[7.705]
<no-speech> 
[12.795]
<sta> ɛ ɦ e 
[14.105]
<no-speech> 
[22.915]
<sta> h a j i a w u a a m a tʼ e ɠ u l a ph a n a a ŋ g i j i th ɔ l a ŋ g a u s i z e a ŋ g i ʃ o n a l e l i e l i j i b u th i s o ŋ g i z ɔ ɓ ɔ n a ɠ u s a s a f u th i <sta> 
[33.435]
<no-speech> 
[35.595]
ɔ ɦ o j a v ɛ l e ŋ g i z ɔ h a m b a ŋ g i j o ɠ u th ɛ ŋ g a ɠ u s a s a <sta> m a n ʤ e i pʼ ɛ ph a n i ɡ|ɦ i n e ɠ a n ʤ a n i 
[41.745]
<no-speech> 
[44.455]
<click> <no-speech> 
[48.665]
h a j i ɓ o i ʁ a j th i m a n ʤ e i pʼ ɛ ph a n ɔ th a z i ɡ|ɦ i n e ɠ a n ʤ a n i 
[54.045]
<no-speech> 
[55.155]
<no-speech> 
[55.695]
<no-speech> 
[58.545]
<sta> ɛ ɦ e <no-speech> j a ŋ g i j a j a z i i s a j i z 
[68.345]
<no-speech> 
[70.055]
<sta> m h m 
[71.895]
<no-speech> 
[72.765]
<no-speech> 
[73.485]
<no-speech> 
[75.015]
<no-speech> 
[75.365]
<no-speech> 
[76.575]
<no-speech> 
[77.305]
<no-speech> 
[78.115]
<sta> ɛ ɦ e 
[81.335]
<no-speech> 
[82.635]
<no-speech> 
[84.875]
<no-speech> 
[85.785]
<sta> h a j i u s i z e ɔ m n ǀ a n e u kh ɔ n a ŋ g i ʃ o m i n a ɠ u th i s i th ɔ l e l ɛ l i e l i j i b u th i <sta> 
[90.975]
<no-speech> 
[95.085]
<sta> ɛ ɦ e h a j i ɔ kh ɛ j i ɠ e 
[100.705]
<no-speech> 
[104.055]
<no-speech> 
[106.095]
<no-speech> 
[108.345]
<no-speech> 
[108.805]
<no-speech> 
[111.915]
m h m 
[114.245]
<no-speech> 
[116.135]
<sta> <laugh> h a j i ɓ o u j a kh a l a a ŋ g i th i u s ɛ m th a th i l e u g ɔ g o w a kh e a ŋ g i ʃ o <laugh> 
[123.065]
<no-speech> 
[126.125]
<sta> ɛ ɦ e 
[128.525]
<no-speech> 
[131.885]
<no-speech> 
[132.295]
<no-speech> 
[133.225]
<sta> m h m 
[134.705]
<no-speech> 
[135.935]
<no-speech> 
[136.285]
<no-speech> 
[139.985]
<laugh> ɔ kh ɛ j i <sta> 
[143.195]
<no-speech> 
[145.265]
<int> <breath> o w u n a w u u j a z i o w u <int> i ɬ a ŋ g a n i s w a n i n i ʃ u th i i ɬ a ŋ g a n i s w a <int> m a n d ɛ j 
[150.215]
<no-speech> 
[152.125]
ŋ g ɔ ɓ a v ɛ l e a ŋ g i th i i n tʼ o ɠ a ʧʼ u z d ɛ j l e 
[154.415]
<no-speech> 
[159.035]
o w u n ɔ m a h a n d i l ɛ d i ʁ a n d i 
[160.785]
<no-speech> 
[162.025]
o w u u m u n tʼ u a f i ɠ e n e ɛ ɦ e h a n d i l ɛ d i h a n d i l ɛ d i u j a ɓ o 
[165.855]
<no-speech> 
[168.045]
<int> m h m 
[168.885]
<no-speech> 
[170.645]
<no-speech> 
[171.125]
<no-speech> 
[172.635]
h a j i ɠ e ɠ u ʃ u th i w ɛ n a u z ɔ th ɛ ŋ g a l ɔ n a ɠ e i ɠ e s i 
[175.415]
<no-speech> 
[180.305]
<sta> ɛ ɦ e u j a ɓ o ŋ g ɔ ɓ a i ŋ g a th i i j a ʃ ɛ ʃ a 
[182.945]
<no-speech> 
[194.825]
h a j i u m ʧʼ ɛ l e ɠ e ɠ e a f a ɠ e ɠ e ɠ e n a j e <no-speech> o a ɠ u th ɛ ŋ g e j a ɓ o m a s e ɠ u f i ɠ a u m u n tʼ u u m u n tʼ u a f i ɠ e n ɛ n tʼ o j a kh e 
[201.285]
<no-speech> 
[209.455]
ɛ ɦ e 
[210.395]
<no-speech> 
[217.785]
a w u a ŋ g i th i u j a z i v ɛ l e ɠ u th i i j ɔ n a i s a v a n a v ɛ l e 
[221.055]
<no-speech> 
[223.365]
m h m 
[224.095]
<no-speech> 
[229.525]
ɛ ɦ e <laugh> 
[230.565]
<no-speech> 
[237.555]
<no-speech> 
[239.115]
<no-speech> 
[240.615]
<int> m h m 
[241.405]
<no-speech> 
[242.605]
j o ɔ kh ɛ j i ɠ e 
[244.145]
<no-speech> 
[250.515]
u ɓ a 
[251.345]
<no-speech> 
[255.335]
ɔ w a m i 
[256.265]
<no-speech> 
[263.865]
h a j i a ɓ a l i ʃ i n ʧʼ i a ŋ g i th i u z o l i ɡǃɦ ɔ ɠ a l i n ʤ a l o 
[266.545]
<no-speech> 
[270.085]
j a l i l u ŋ g i l e l i z o kh u l a n a j e 
[272.375]
<no-speech> 
[281.635]
ɛ ɦ e u j a ɓ o i th e ɠ u e l i l a j i th i 
[283.695]
<no-speech> 
[291.275]
m h m 
[292.185]
<no-speech> 
[298.525]
j a 
[299.315]
<no-speech> 
[306.855]
<oov> <int> e s i m u ɓ a m b a j o u j a ɓ o 
[309.015]
<no-speech> 
[314.645]
n a n e i s i ɠ e tʼ i n a s e s u w u pʼ a 
[317.065]
<no-speech> 
[318.045]
m h m 
[318.955]
<no-speech> 
[322.475]
<no-speech> 
[323.065]
<no-speech> 
[324.295]
<sta> ɠ o m ɓ u u s a j i z i ɓ a n i s o n i i s i ɠ i pʼ a 
[326.185]
<no-speech> 
[334.095]
i s i ɠ i pʼ a ɛ ɦ e 
[336.395]
<no-speech> 
[344.605]
j a 
[345.455]
<no-speech> 
[354.355]
m a s e s i th ɔ l a l o n a j i n i th u th ɛ n i w e s i ɠ i pʼ a 
[356.875]
<no-speech> 
[362.255]
<no-speech> 
[364.005]
<no-speech> 
[375.145]
j a ɔ kh ɛ j i <laugh> 
[376.615]
<no-speech> 
[386.515]
j a ŋ g i ʃ o ph ɛ l a i z ɔ l o 
[388.415]
<no-speech> 
[391.615]
m h m 
[392.545]
<no-speech> 
[396.525]
<no-speech> 
[397.325]
<no-speech> 
[401.805]
j a ɔ ɦ o a m b e ŋ g ɔ m ɬ a ɠ a ɛ j tʼ i n i 
[404.595]
<no-speech> 
[408.065]
ŋ g ɔ l w ɛ s i ɓ i l i 
[409.505]
<no-speech> 
[411.735]
j a 
[412.435]
<no-speech> 
[415.075]
h a j i ɛ ɦ e u l ɛ l e 
[416.495]
<no-speech> 
[423.875]
o w u ɠ a d e e j i kh i z i l e n a w u u j a z i 
[426.185]
<no-speech> 
[431.345]
<no-speech> 
[432.195]
<no-speech> 
[436.775]
a w u u m u n tʼ u ɔ l ɛ l e 
[438.255]
<no-speech> 
[440.715]
<int> m h m 
[441.725]
<no-speech> 
[442.995]
j a ɔ kh ɛ j i 
[444.285]
<no-speech> 
[448.605]
i j a 
[449.495]
<no-speech> 
[461.445]
<no-speech> 
[461.805]
<no-speech> 
[462.785]
ɔ ɦ o l ɔ j a m u n tʼ u 
[464.315]
<no-speech> 
[468.155]
m h m 
[469.005]
<no-speech> 
[473.135]
ɛ ɦ e u j a ɓ o 
[474.335]
<no-speech> 
[476.805]
ɔ kh ɛ j i <int> j i ɠ e 
[478.015]
<no-speech> 
[481.175]
<no-speech> 
[483.495]
<no-speech> 
[486.015]
m h m 
[486.845]
<no-speech> 
[491.385]
kh ɔ n a i n ɠ u n z i <sta> e w u m a ŋ g o <sta> 
[496.525]
<no-speech> 
[498.405]
o w u u j a j a z i ŋ g a ph a n ɮ e ɠ o ɠ u d a n s a <no-speech> a j ɔ kh o i l a j i f i <laugh> <no-speech> <sta> a j i kh o i m pʼ i l o ŋ g a ph a n ɮ e ɠ o ɠ u d a n s a 
[507.805]
<no-speech> 
[510.265]
o w u u f a ɠ e w ɔ n a n ɔ l ɔ l o u ɓ ɛ s ɛ ɡ|ɦ ɔ ɓ a l a 
[514.185]
<no-speech> 
[519.505]
<int> ɛ ɦ e <breath> 
[520.815]
<no-speech> 
[529.885]
<int> h a j i ɠ e 
[530.745]
<no-speech> 
[539.025]
m h m <sta> 
[540.805]
<no-speech> 
[546.860]
<no-speech> 
[552.915]
<no-speech> 
[554.515]
<no-speech> 
[559.135]
<sta> h ɛ l o 
[560.705]
<no-speech> 
[565.105]
j ɛ ɓ o 
[565.945]
<no-speech> 
[571.235]
ɔ ɦ o a w u <sta> 
[573.275]
<no-speech> 
[580.515]
i n i 
[581.205]
<no-speech> 
[585.545]
o w u i n tʼ o <oov> <laugh> i n tʼ o e ph u ɠ i l e i n tʼ o e ph u ɠ i l e 
[590.655]
<no-speech> 
[593.645]
o w u u j a z i ɠ u th i a j i kh a n d e ɠ i <sta> n a l o m kh a n d i n a j e u kh a n d a i m ɔ tʼ o h a j i i d i v i d i 
[598.975]
<no-speech> 
[600.360]
