[0.000]
<no-speech> 
[8.615]
<int> h ɛ l o 
[9.225]
<no-speech> 
[12.665]
<sta> 
[13.485]
<no-speech> 
[16.785]
<sta> 
[18.075]
<no-speech> 
[19.335]

[19.905]
<no-speech> 
[21.075]
<sta> ŋ g i j a ɠ u z w a ɠ ɔ d w a m a n ʤ e 
[28.375]
<no-speech> 
[32.745]
<sta> 
[37.905]
<no-speech> 
[40.215]

[40.965]
<no-speech> 
[43.195]
<sta> j a j a j ɛ n z e 
[47.365]
<no-speech> 
[48.575]
<sta> ɛ ɦ e 
[49.245]
<no-speech> 
[51.315]
<sta> j a ŋ g i j a ɠ u z w a 
[52.665]
<no-speech> 
[54.025]
a ɠ a ɠ a ɓ u j i ɛ th ɛ ɠ w i n i n a 
[55.985]
<no-speech> 
[59.105]
ɔ kh ɛ j i h a j i ŋ g i z ɔ z a m a u ɠ u m f ɔ n ɛ l a s e ŋ g i s ɛ th e ɠ w i n i 
[62.765]
<no-speech> 
[66.245]
h a j i n ʤ ɛ j a 
[68.865]
<no-speech> 
[70.725]
h a j i ŋ g i kh a th ɛ l e m f a n a h a j i 
[73.555]
<no-speech> 
[78.355]
<no-speech> 
[79.575]
<no-speech> 
[80.595]
o w u m f a n a 
[83.445]
<no-speech> 
[85.125]
<sta> m a n ʤ e w ɛ n z a n i l a ph o 
[86.325]
<no-speech> 
[88.875]
<sta> w ɛ n z a n i 
[89.695]
<no-speech> 
[96.015]
u ɬ ɛ l i 
[96.815]
<no-speech> 
[101.215]
<sta> ɔ kh ɛ j i o j i z a m e ɛ h a m ɓ i l e 
[104.385]
<no-speech> 
[105.935]

[107.515]
<no-speech> 
[108.915]
d a ɠ w a 
[110.105]
<no-speech> 
[111.885]
<sta> j a m f w ɛ th u ŋ g i ʁ a j th i ŋ g i z o n i ɓ ɔ n a n tʼ a m b a m a ɠ e <no-speech> u kh u ph u ɠ e u j e ph ɛ z u l u 
[117.225]
<no-speech> 
[118.555]
<no-speech> 
[119.715]
<no-speech> 
[126.505]
<int> ɛ ɦ e 
[127.105]
<no-speech> 
[132.015]

[134.795]
<no-speech> 
[138.695]
ɛ ɦ e j a ɠ ɔ d w a u m a d u m a u s e s i pʼ a n i <oov> u u u u s ɛ th e ɠ w i n i <no-speech> u s ɛ j a ɓ u j a m a n ʤ e 
[143.795]
<no-speech> 
[147.885]
j a <no-speech> <no-speech> ŋ g i ɓ u j e f ɔ n ɛ l e m i n a ɠ u l ɛ j o n a m ɓ a l ɛ j o o ɓ u f ɔ n a ŋ g a j o 
[152.085]
<no-speech> 
[156.485]

[157.155]
<no-speech> 
[162.535]
<int> ɔ kh ɛ j i 
[163.425]
<no-speech> 
[164.845]
m a n ʤ e ɔ kh ɛ j i 
[166.605]
<no-speech> 
[168.285]
h a j i m a n ʤ e 
[169.965]
<no-speech> 
[171.115]
ɛ ɦ e <int> 
[171.695]
<no-speech> 
[175.985]

[177.155]
<no-speech> 
[178.415]

[179.375]
<no-speech> 
[180.735]
ɛ j i ŋ g i j a f a i j i ɠ w ɛ l e tʼ u 
[181.965]
<no-speech> 
[183.045]
<no-speech> 
[183.495]
<no-speech> 
[185.845]
ŋ g ɛ m pʼ ɛ l a <no-speech> h a j i ɠ u z o l u ŋ a m f ɔ w ɛ th u ɠ a ŋ ǀ a n e ɠ a ŋ ǀ a n e n ʤ e 
[189.905]
<no-speech> 
[190.735]
<sta> ŋ g i l a n d w e e n ɮ i n i ŋ g i l a n d w e e n ɮ i n i 
[193.905]
<no-speech> 
[197.485]
<sta> <int> n ɛ ŋ g a n e i z ɔ l o 
[200.275]
<no-speech> 
[204.325]

[205.215]
<no-speech> 
[207.005]
<sta> u ph u m e w a j a kh ɔ n a ɠ u l ɛ j a ŋ g a n e ɛ ɦ e w a v ɛ l e w a ɓ ɔ n a ɠ u th i <breath> w a v ɛ l e <oov> ɛ m u ɲ a ŋ o w a f ɔ n a j a kh a l a e n ɮ i n i i f o n i w a j i z w a w a th i u ph u m a s i s i ŋ g i j a ɠ u z w a u ph u m a u ph u m a 
[216.465]
<no-speech> 
[221.065]

[221.715]
<no-speech> 
[222.615]
<sta> a ɓ a s ɛ n ɮ i n i 
[223.635]
<no-speech> 
[226.745]
m h m 
[227.255]
<no-speech> 
[231.035]
<sta> n ʤ a n i 
[231.885]
<no-speech> 
[234.545]
<sta> 
[235.315]
<no-speech> 
[239.145]
<sta> ŋ g i h a m b a n ɔ m n a ɠ w e n u m a n ʤ e ŋ g i f u n a u ɠ u ɓ ɔ n a 
[241.995]
<no-speech> 
[245.845]

[246.745]
<no-speech> 
[252.595]
<sta> 
[254.215]
<no-speech> 
[256.635]

[258.565]
<no-speech> 
[264.275]
<sta> 
[266.465]
<no-speech> 
[270.895]
<sta> w ɛ n a 
[273.055]
<no-speech> 
[278.775]
<sta> m a n ʤ e n ʤ e u b u n u u z ɔ ɓ u j a u ʃ ɛ kh e ph ɛ l a ŋ g ɛ m u v a ɠ w ɛ j a w a j a ɓ o 
[287.265]
<no-speech> 
[290.475]
m h m 
[291.065]
<no-speech> 
[294.575]
<sta> h a j i 
[295.285]
<no-speech> 
[299.575]
a ɓ a n d a 
[300.295]
<no-speech> 
[303.945]

[304.445]
<no-speech> 
[307.735]
<sta> h a j i u ŋ g a s a ɓ i <hes> ŋ g i z ɔ m d ɔ n s a m a n ʤ e u b u n u 
[310.935]
<no-speech> 
[312.255]
<sta> u ɓ u z ɔ ɠ w a z i u ɠ u f ɔ n ɛ l a l ɛ j a n a m ɓ a ŋ g i ɠ u ʧʼ ɛ l e ɠ u th i u s e f i ɠ i l e u ɠ u ph i u j a ɓ o 
[317.065]
<no-speech> 
[320.885]
<sta> u ŋ g i ɬ a ŋ g a ɓ ɛ z e ɛ ɦ e 
[323.225]
<no-speech> 
[326.375]
<sta> ɛ ɦ e m a n ʤ e <no-speech> 
[328.735]
<no-speech> 
[332.895]

[333.545]
<no-speech> 
[336.495]
j a <int> ʤ a s tʼ i f o <int> n a w u 
[338.785]
<no-speech> 
[341.685]
ɔ kh ɛ j i 
[342.375]
<no-speech> 
[347.025]
<sta> u th i a l ʁ a j i tʼ i m h m 
[349.645]
<no-speech> 
[352.555]
j a <sta> ʃ u th i ŋ g i z ɔ ɠ u f ɔ n ɛ l a m a n ʤ e 
[355.545]
<no-speech> 
[359.545]
j a 
[360.805]
<no-speech> 
[363.905]
<sta> ŋ g i l a l e l ɛ j th i j a z i ŋ g i l a l e ŋ g o ɔ n e <int> 
[366.965]
<no-speech> 
[370.365]

[371.855]
<no-speech> 
[378.895]
<sta> ŋ g a l a 
[380.675]
<no-speech> 
[388.185]
h a j i l u th o ŋ g i s ɛ m ɲ a ŋ g o 
[390.055]
<no-speech> 
[391.325]

[392.455]
<no-speech> 
[393.505]
<int> ŋ g i s ɛ m ɲ a ŋ g o 
[394.645]
<no-speech> 
[395.835]
<no-speech> 
[396.365]
<no-speech> 
[400.485]
<sta> ŋ g i s ɛ m ɲ a ŋ g o l a 
[401.615]
<no-speech> 
[403.475]
<sta> <no-speech> n tʼ a m b a m a u i l ɛ v e n i m a n ʤ e 
[407.185]
<no-speech> 
[409.865]
i l ɛ v ɛ n i a w a z i <int> w ɔ n ɠ e 
[411.715]
<no-speech> 
[415.915]
<sta> a ŋ g a z i 
[417.515]
<no-speech> 
[420.645]
<sta> 
[422.155]
<no-speech> 
[425.935]

[426.505]
<no-speech> 
[433.595]
<sta> n ɛ l a ŋ g a l a ʃ ɔ n a m a n ʤ e <int> <oov> 
[436.065]

[436.340]
