[0.000]
<no-speech> 
[2.355]
l a z o 
[2.955]
<no-speech> 
[5.415]
<no-speech> 
[6.915]
<no-speech> 
[9.115]

[10.875]
<no-speech> 
[12.775]
<laugh> ɠ u h a m ɓ a ɠ a n ʤ a n i n d ɔ d a l a ph o 
[14.735]
<no-speech> 
[17.045]
h a j i <laugh> l u th o 
[18.735]
<no-speech> 
[19.775]
<sta> s i j i ɬ a l ɛ l e 
[20.895]
<no-speech> 
[23.985]

[25.175]
<no-speech> 
[26.895]
ŋ g i ŋ i b ɛ ɠ e ph ɛ z u l u kh ɔ n a ɠ ɔ d w a h a j i <laugh> 
[32.465]
<no-speech> 
[34.015]
<oov> b ʁ a 
[34.795]
<no-speech> 
[35.915]
<sta> h a j i a s i kh o 
[37.125]
<no-speech> 
[38.155]
<sta> h a j i ŋ g ɛ m pʼ ɛ l a 
[40.185]
<no-speech> 
[41.435]
<no-speech> 
[47.655]
<no-speech> 
[48.565]
<no-speech> 
[50.255]
<no-speech> 
[51.345]
<int> a w u n ɔ w u ŋ g i ɠ e ŋ g i l i l a l ɛ l e 
[54.365]
<no-speech> 
[56.105]
<no-speech> 
[58.765]
<no-speech> 
[62.535]
<no-speech> 
[63.605]
<no-speech> 
[67.195]

[68.215]
<no-speech> 
[70.075]
h a j i ɠ u h a m ɓ e ɠ a ɬ e b ʁ a 
[71.385]
<no-speech> 
[74.095]
i j a b ʁ a 
[75.025]
<no-speech> 
[77.555]
j ɛ ɓ o b ʁ a 
[78.295]
<no-speech> 
[80.885]
<no-speech> 
[81.295]
<no-speech> 
[86.115]
o j a a j i ɠ ɔ n a ŋ g i ɓ e ʃ a ph u n ʤ e 
[88.235]
<no-speech> 
[90.385]
ŋ g i ɓ e ʃ a ph u m i n a 
[91.445]
<no-speech> 
[96.195]
ɛ ɦ e 
[96.985]
<no-speech> 
[98.895]
<int> ɓ a <no-speech> ɓ a ŋ g i n ǀ e d i l e n ʤ e i m pʼ ɛ l a 
[102.095]
<no-speech> 
[104.165]
ŋ g i th i ɓ a ŋ g i n ǀ e d i l e n ʤ e i m pʼ ɛ l a <no-speech> 
[109.695]
o w u ɠ a kh u l u ɠ ɔ d w a h a j i ɓ a ɓ a ɓ a ɓ i z i l e ɓ ɔ n a 
[113.215]
<no-speech> 
[118.975]
ɓ a z i ɠ a n ʤ a n i ɠ u th i i n ɠ i ŋ g a i ph a n s i ŋ g ɔ ɓ a ph ɛ l a <no-speech> ɛ ɦ e ɠ u s a f a n ɛ l e ɠ u ɓ u j ɛ l w e ɓ a th e ɠ u z ɔ d a j a l w a ŋ g e ŋ g ɛ l ɛ n tʼ o j e j ɛ th u <no-speech> ŋ g e ŋ g e <no-speech> ŋ g e l i s tʼ i j ɛ th u a ɓ a n tʼ u a ɓ a m ɓ ɛ s w a j o 
[132.625]
<no-speech> 
[138.655]
h a j i a ŋ g a z i m i n a ɠ u th i ɓ a ŋ g a ɠ a n a n i a ɓ a n tʼ u a ɓ a m ɓ i s a j o ɠ u th i ɠ u m ɓ ɛ s w a ɔ ɓ a n i a ŋ g a z i m i n a 
[143.775]
<no-speech> 
[145.825]
a ŋ g a z i m i n a ɠ u th i ɔ ɓ a n i a ɓ a m ɓ ɛ s w a j o 
[147.995]
<no-speech> 
[153.195]
h a j i a ŋ g a z i m i n a ɠ u m ɓ ɛ s w a ɓ a n i 
[155.105]
<no-speech> 
[157.155]

[157.965]
<no-speech> 
[160.125]
ɔ ɦ o 
[160.795]
<no-speech> 
[166.175]
o 
[166.805]
<no-speech> 
[173.645]
h a j i 
[174.325]
<no-speech> 
[177.985]
h a j i 
[178.595]
<no-speech> 
[187.245]
<no-speech> 
[195.895]
<no-speech> 
[204.545]
ɔ ɦ o 
[205.195]
<no-speech> 
[206.845]
ɔ kh ɛ j i 
[207.655]
<no-speech> 
[209.095]
h a j i ŋ g i j ɛ z w a 
[209.805]
<no-speech> 
[214.205]
<no-speech> 
[214.565]
<no-speech> 
[215.845]
h a j i 
[216.445]
<no-speech> 
[219.755]
ɛ ɦ e 
[220.425]
<no-speech> 
[222.435]
h a j i <no-speech> a h a ɠ u z o ɡ|ɦ i n a ɠ u j i n ɠ i ŋ a 
[224.805]
<no-speech> 
[230.325]
j ɛ ɓ o b ʁ a 
[231.145]
<no-speech> 
[236.535]
ɛ ɦ e <no-speech> s a ʃ o s a ʃ o n ʤ a l o i m pʼ ɛ l a 
[238.735]
<no-speech> 
[245.080]
<no-speech> 
[251.425]
ɛ ɦ e h a j i s ɔ ɠ w ɛ n z ɛ n ʤ a l o 
[253.305]
<no-speech> 
[254.585]
<no-speech> 
[255.065]
<no-speech> 
[263.325]
ɛ ɦ e 
[263.975]
<no-speech> 
[267.955]
ɛ ɦ e 
[268.555]
<no-speech> 
[271.325]
j ɛ ɓ o b ʁ a 
[272.115]
<no-speech> 
[276.655]
ɛ ɦ e 
[277.295]
<no-speech> 
[279.735]
ɛ ɦ e 
[280.345]
<no-speech> 
[284.315]
h a j i 
[284.805]
<no-speech> 
[291.175]

[291.805]
<no-speech> 
[299.925]
ɛ ɦ e 
[300.545]
<no-speech> 
[302.985]
ɛ j a b ʁ a 
[303.815]
<no-speech> 
[309.820]
<no-speech> 
[315.825]
<no-speech> 
[316.215]
<no-speech> 
[317.705]
ɔ ɦ o 
[318.395]
<no-speech> 
[321.325]
j ɛ ɓ o b ʁ a 
[322.155]
<no-speech> 
[324.855]
ɛ j a 
[325.545]
<no-speech> 
[333.115]
<no-speech> 
[336.615]
<no-speech> 
[346.530]
<no-speech> 
[356.445]
u j a w u v ɔ ǀ a 
[357.355]
<no-speech> 
[359.085]
<sta> <no-speech> <laugh> a h a ŋ g i ɬ ɛ l i n o n ǃ u ɓ ɛ ɠ o l a 
[364.845]
<no-speech> 
[367.355]
ŋ g i ɬ ɛ l i n o n ǃ u ɓ ɛ ɠ o l a <no-speech> u j a ɬ u ph a 
[370.025]
<no-speech> 
[373.985]
<laugh> h a j i 
[376.505]
<no-speech> 
[379.895]
<laugh> ŋ g i ɬ ɛ l i n o n ǃ u ɓ ɛ ɠ o u j a ŋ g i ɬ u ph a 
[382.345]
<no-speech> 
[383.775]
h a j i u j a ɬ u ph a 
[384.635]
<no-speech> 
[385.435]
h a j i u j a ɬ u ph a u f u n a u ɠ u l u ɓ a m ɓ a l o l u ǀ i ŋ o ɛ ŋ g i kh u l u m a ŋ g a l o 
[388.375]
<no-speech> 
[390.025]
<no-speech> ɛ ɦ e <oov> a ŋ g a z i <int> <no-speech> ɛ ɦ e 
[392.875]
<no-speech> 
[393.705]
u f u n a u ɠ u kh u l u m a 
[395.065]
<no-speech> 
[397.695]
ɛ ɦ e 
[398.545]
<no-speech> 
[400.795]
<laugh> h a j i s e ŋ g i m ǁ o ʃ i l e 
[403.645]
<no-speech> 
[405.625]
<no-speech> 
[406.995]
<no-speech> 
[412.595]
<no-speech> 
[414.395]
<no-speech> 
[418.225]
h a j i 
[419.015]
<no-speech> 
[420.545]

[421.385]
<no-speech> 
[422.815]
<no-speech> 
[424.475]
<no-speech> 
[425.345]
<no-speech> 
[425.725]
<no-speech> 
[427.555]
<no-speech> 
[428.925]
<no-speech> 
[430.045]
u j a ɬ u ph a 
[431.175]
<no-speech> 
[432.755]
u j a u j a <no-speech> ɬ u ph a 
[435.195]
<no-speech> 
[438.275]
h a j i 
[440.385]
<no-speech> 
[441.205]
h a j i n tʼ a m b a m a u z ɔ ɓ ɔ n a ɠ u th i ŋ g i ɬ ɛ l a ɠ a n ʤ a n i 
[443.725]
<no-speech> 
[445.515]
ŋ g i z o j i ɬ ɛ l a ɠ a ɬ e <no-speech> ŋ g i z o j i ɬ ɛ l a n ʤ e ɠ a ɬ e l ɛ n tʼ o 
[448.425]
<no-speech> 
[450.395]
ŋ g ɔ ɓ a ɠ u ŋ g a z a th i ɓ ɔ n a ɓ a ɓ ɛ s e ɠ u th e n i ɛ ɦ e <no-speech> ɠ u z ɔ ɓ a j i m i e ŋ g i ʃ ɔ j o ɠ u th i <no-speech> ɓ a ɓ i z e ɠ a ŋ g a ɠ a n a n i ɓ a z ɔ ɓ ɔ n a ŋ g e l i s tʼ i ɠ u th i f a n ɛ l e ɓ a ɓ i z e ɠ a ŋ g a ɠ a n a n i m a s e ŋ g i j o ǃ ɛ d ɛ l a 
[462.765]
<no-speech> 
[467.995]
ɛ ɦ e ɓ a th e u f o 
[469.505]
<no-speech> 
[474.985]
<hes> h a j i h e j i a ŋ g a z i ɠ e ɠ ɔ d w a ŋ g i ǀ a ɓ a ŋ g a ɠ u th i ŋ g i z o kh u l u m i s a n a <int> n a ɓ o ŋ g i z w e ɓ ɔ n a ɠ u th i <int> ɓ a th i n i 
[480.405]
<no-speech> 
[481.285]
ɠ ɔ d w a ɠ e ɓ ɛ s e ɓ ɛ s e s i kh u l u m i l e ɠ u th i <no-speech> n ɠ ɔ m o l e e w u f o i j ɔ n a ɛ s e th i i tʼ ɔ n e ɠ u th i l ɛ z i ɛ z i ɲ e z i z o ɓ i z a m a l i n i 
[490.645]
<no-speech> 
[494.895]
j ɛ ɓ o b ʁ a 
[495.745]
<no-speech> 
[498.885]
j ɛ ɓ o 
[499.565]
<no-speech> 
[504.185]
ɛ j a 
[504.875]
<no-speech> 
[512.365]
ɛ j a 
[513.015]
<no-speech> 
[515.325]
j ɛ ɓ o 
[515.955]
<no-speech> 
[518.055]
<hes> h a j i i s i th a n d a u ɠ u ɓ a i n ɠ i ŋ g a n a i m pʼ ɛ l a 
[520.275]
<no-speech> 
[525.265]
ɛ j a 
[525.855]
<no-speech> 
[533.155]
e j i n ɠ i ŋ g a i kh ɔ n a i m pʼ ɛ l a 
[535.105]
<no-speech> 
[538.105]
<no-speech> 
[539.205]
<no-speech> 
[541.205]
ɠ ɔ d w a ɠ e a ŋ g i kh ɔ l w a ɠ u th i u z o ɠ u a n d a s tʼ ɛ n d a l ɔ kh o 
[544.445]
<no-speech> 
[546.255]
a ŋ g i kh ɔ l w a ɠ u th i ɓ ɛ ɓ e ɠ u a n d a s tʼ ɛ n d a <no-speech> l ɔ kh o 
[548.935]
<no-speech> 
[552.725]
h a j i a ŋ g i kh ɔ l w a i m pʼ ɛ l a <int> ɓ ɛ ɓ e ɠ u a n d a s tʼ ɛ n d a l ɔ kh o a ŋ g i z w a 
[556.775]
<no-speech> 
[558.985]
ɛ ɦ e 
[559.485]
<no-speech> 
[561.135]
h a j i ŋ g ɛ ɠ e 
[562.025]
<no-speech> 
[566.575]
ɛ j a 
[567.225]
<no-speech> 
[570.175]
ɛ j a 
[570.795]
<no-speech> 
[578.555]
<laugh> h a j i ŋ g ɛ ɠ e ɓ a j i v u m e ɠ e l ɛ j o 
[582.205]
<no-speech> 
[587.905]
<sta> j ɛ ɓ o 
[588.865]
<no-speech> 
[590.525]
ɛ ɦ e ŋ g i ɓ ɔ n a ŋ g a z a th i i m pʼ ɛ l a ɠ u n ʤ a l o 
[592.975]
<no-speech> 
[594.125]
i j o ɡ|ɦ i n a z ɛ ɬ a ŋ g ɔ th e n i ʁ a n d i ɠ a n ʤ e 
[596.305]
<no-speech> 
[600.340]
