[0.000]
<no-speech> 
[0.035]
<no-speech> 
[1.135]
<no-speech> 
[2.525]
<no-speech> 
[4.375]
<no-speech> 
[5.195]
<no-speech> 
[5.775]
<no-speech> 
[6.655]
<sta> j a th ɛ m b ɛ l a n i <laugh> 
[12.235]
<no-speech> 
[13.805]
<no-speech> <sta> ɛ ɦ e u j i th a th e ph i l ɛ n tʼ o ɔ j ɛ n z a j o <laugh> <no-speech> ɛ ɦ e <no-speech> 
[25.735]
<sta> <laugh> j i n i i n d a ɓ a w ɛ n a u ɓ u w ɛ n z ɛ l a u ɠ u f ɔ n a 
[33.485]
<no-speech> 
[36.425]
<sta> ɔ ɦ o 
[37.385]
<no-speech> 
[38.505]
ɛ ɦ e <no-speech> 
[39.595]
<no-speech> 
[41.965]
ɛ ɦ e <no-speech> 
[43.595]
<no-speech> 
[50.395]
m a z a m b a n e <int> 
[51.975]
<no-speech> 
[53.535]
u w a th a th a ph i <int> a m a z a m b a n e 
[54.965]
<no-speech> 
[58.895]
<no-speech> <sta> ɛ ɦ e m a n ʤ e a j a d a j i s a j i n i <no-speech> n o m i u s e v u n i l e 
[62.805]
<no-speech> 
[64.375]
<no-speech> 
[66.415]
<no-speech> 
[69.085]
<no-speech> <sta> <laugh> <breath> m a n ʤ e n ʤ e h a j i h a j i s e u s u f i l e a m a ǃ a ɠ a l a ɛ l o kh u ɛ ph ɛ ɠ a a m a z a m b a n e n ʤ a l o <no-speech> 
[75.985]
<no-speech> 
[76.985]
<laugh> <int> <no-speech> ɛ ɦ e 
[80.185]
<no-speech> 
[82.575]
<sta> h a j i ŋ g i j a ɓ ɔ n a u ɓ a l e ɠ i s w e i w ɔ n a 
[86.525]
<no-speech> 
[87.795]
a h a <no-speech> <sta> m a n ʤ e <oov> <oov> <no-speech> n ɮ a l e ph a n s i 
[91.895]
<no-speech> 
[95.395]
ɛ ɦ e ɛ ŋ g a ɓ e u m kh i z e u z o j i v u m a n ʤ e l ɛ j ɔ n tʼ o <laugh> <int> 
[101.645]
<no-speech> 
[102.485]
<no-speech> 
[103.685]
<no-speech> 
[105.115]
ɠ u s a z ɔ l a n d ɛ l a i kʟ a ɓ i ʃ i ɠ ɔ n ɠ e n e s i pʼ i n i ʃ i <sta> a h a a h a <no-speech> ɛ j i <no-speech> u m a ɠ u ɠ u th i u kh ɔ n a n ɔ kh ɛ l o th i n a w o <no-speech> 
[113.035]
<no-speech> 
[115.135]
h a j i <no-speech> <sta> n a m i ɓ e ŋ i z ɔ ɓ a l ɛ ɠ a <no-speech> ɠ ɔ d w a h a j i v ɛ s e s e ɠ u ʃ a j e s ɔ n a i s i kh a th i 
[119.235]
<no-speech> 
[121.065]
<sta> m h m s e ɠ u ʃ a j e i s i kh a th i <no-speech> ɛ ɦ e 
[126.185]
<no-speech> 
[127.345]
<no-speech> <sta> h a j i ɓ o i h a m b i l e i m i ɲ a ɠ a 
[130.575]
<no-speech> 
[132.625]
<sta> ŋ g i ʃ o i m i ɲ a ɠ a i h a m b i l e s e ɠ u m ɓ a m ɓ e <oov> ɠ a kh u l u u ɠ u g u g a 
[136.245]
<no-speech> 
[138.365]
a v e <sta> <int> s e ɠ u m u ɓ a m ɓ i l e ɛ ɦ e 
[140.365]
<no-speech> 
[143.125]
<int> u pʼ a ǃ i l e j i n i 
[144.505]
<no-speech> 
[145.785]
<no-speech> 
[146.335]
<no-speech> 
[147.465]
<sta> h a j i ɓ o <oov> a ɠ a ph a ph i l e u s u ɠ e a j i n ǀ ɛ ŋ g ɛ l a 
[151.455]
<no-speech> 
[152.905]
<sta> u ɠ u ŋ g a m ɓ o n i u m a ɛ s e z i n ǀ ɛ ŋ g ɛ l a ɠ u th i u u u u l a u ɓ ɔ n a kh ɔ n a ɠ e ɠ u th i u ph a ph i l e m ɛ s e ɛ n ǀ ɛ ŋ g ɛ l a 
[158.025]
<no-speech> 
[160.325]
ɛ ɦ e <sta> <int> 
[163.335]
<no-speech> 
[164.665]
ɛ ɦ e <int> 
[166.225]
<no-speech> 
[170.095]
<sta> z o ɠ u l a l a w e ɛ ɦ e ɠ e u ɓ ɛ s e j i n ǀ ɛ ŋ g ɛ l a w a kh e w a ʃ o n a n i n i 
[175.905]
<no-speech> 
[176.735]
<no-speech> 
[177.185]
<no-speech> 
[178.185]
<sta> a ɠ a z e n ʤ e a z e a ʃ o n ʤ e a ɠ a z e 
[181.255]
<no-speech> 
[182.515]
w a <sta> j ɛ s e z i n ǀ ɛ ŋ g ɛ l a 
[184.515]
<no-speech> 
[188.225]
ɛ ɠ a s pʼ a <sta> 
[191.805]
<no-speech> 
[194.005]
<sta> m h m 
[196.795]
<no-speech> 
[199.185]
ɛ ɦ e <laugh> a ŋ a l o kh u <oov> e j i d ɔ n s a ɠ u j ɔ n a l e ɔ z o g i ɓ ɛ l a ŋ g a j o 
[203.795]
<no-speech> 
[208.175]
<hes> ɛ ɦ e u j a ɓ a ɓ a m b a u j a ɓ a ɓ a m b a ɠ e <no-speech> ŋ g i j a m a z i n a m i 
[213.885]
<no-speech> 
[216.635]
<no-speech> 
[217.155]
<no-speech> 
[218.285]
ɛ ɦ e ɠ ɔ d w a j ɛ n a ɠ ɔ d w a j ɛ n a ɛ ɓ ɛ ɓ a f u n a 
[222.135]
<no-speech> 
[223.795]
m i n a a ɠ w ɛ n z e ɠ i ŋ g i ʃ o ɠ u ŋ g a ɓ u j a i s i ɬ a n u e s i tʼ ɔ l o u z o s i f u n a 
[226.685]
<no-speech> 
[228.625]
m i n a <sta> ŋ g i ʃ o ɠ u ŋ g a ɓ u j a i s i ɬ a n u n ʤ e u z o s i f u n a ɠ ɔ d w a 
[231.275]
<no-speech> 
[232.465]
<int> o w u 
[234.145]
<no-speech> 
[237.785]
<sta> w a z i w a ɓ u j a <no-speech> ɛ ɦ e j a ɓ o n ʤ e ŋ g a l o <oov> <oov> <no-speech> ŋ g ɛ n ɠ a th i m i n a ŋ g i ɠ u f ɔ n ɛ l a <no-speech> a ŋ g i ɠ u th ɔ l a ŋ g a n a kh u u a n tʼ i ɠ a d e u th i w a j e ɠ u f ɔ n ɛ l a 
[249.745]
<sta> ɠ u th i w a w a w u z ɔ l a n d a i ŋ g u ɓ o z a ɠ a th u th u ŋ g a ŋ g i ŋ g a z i ɠ e m i n a ɠ e <int> ɠ u th i w a w u z ɔ l a n d a i ŋ g u ɓ o 
[254.865]
<no-speech> 
[256.155]
ŋ g a z e <int> ŋ g a ʧʼ ɛ l w a u j ɛ n a u m a l u th u l i ɠ u th i u ɓ u j ɔ l a n d a <sta> i ŋ g u ɓ o w a j e th i u a n tʼ i z a a ŋ i ɠ u ʧʼ ɛ l e ɠ u th i ɛ n e a j i m h m 
[262.375]
<no-speech> 
[265.915]
<no-speech> 
[266.455]
<no-speech> 
[267.435]
m h m <int> 
[268.395]
<no-speech> 
[272.835]
<no-speech> 
[273.265]
<no-speech> 
[275.815]
<int> m h m 
[276.665]
<no-speech> 
[280.845]
m h m 
[281.725]
<no-speech> 
[285.225]
<sta> m h m 
[286.025]
<no-speech> 
[291.045]
<no-speech> 
[293.465]
<no-speech> 
[298.825]
<sta> ɛ ɠ u s ɛ n i ǀ a ɓ a ŋ g a ɠ e ɛ ɠ u s ɛ n i ɛ ŋ g a ɓ e u j a h a m b a w ɛ n a <breath> u s a z ɔ ǃ a l a ph a n s i u j ɔ l a n d a n a n e ŋ g u ɓ o i z u l u m i n a f u th i <no-speech> 
[306.065]
<no-speech> 
[307.265]
h a j i m i n a ŋ g a ɓ e <sta> l e ŋ g a ǀ i ɠ ɛ ɠ a ŋ g i ɠ u ʧʼ ɛ l e ŋ g a v ɛ l e ŋ a j i z w a n ʤ e ɠ u th i i j a ŋ g i ǀ i ɠ a l ɛ n tʼ o ŋ g a v ɛ l e ŋ g a th i j a a ɠ a j ɛ ɠ e ph a n s i ŋ g a ŋ g i ŋ g a z i ɠ e ɠ e m i n a ɠ e 
[315.605]
<no-speech> 
[317.015]
<sta> f u th i n ɔ ɠ u th i ɛ z ɛ z ɔ ph a th i s a w ɛ n a <no-speech> i ŋ ɔ ɓ a th i n a s a ǃ a m b a a m a ŋ g a ɠ u ɓ a ɓ a th u th u s a th i s i s ɛ th e ɠ w i n i ɠ u m o n d i 
[323.935]
<no-speech> 
[324.815]
<no-speech> <sta> w a th i j ɛ n a ɔ ɦ o <no-speech> u m ɔ n ɮ i w a j e l a ɛ kh a j a <no-speech> 
[328.875]
<no-speech> 
[329.705]
ŋ g a th i m i n a h a j i s i s ɛ th e ɠ w i n i <sta> ɠ u m ɔ n ɮ i <no-speech> m ɬ a m pʼ e ŋ g i z ɔ f ɔ n a n ɔ th ɛ m b ɛ l a n i s i ɬ a ŋ a n e l a ɛ th ɛ ɠ w i n i ŋ g ɔ ɓ a u th e u j ɛ z a <no-speech> w a j ɛ s e th i j ɛ n a o w u i z i n tʼ o z a th u th u l ɛ z i ɔ w a w u kh a l a ŋ g a z o ɠ u th i z i s ɛ kh a j a ŋ g a th i m i n a h a j i 
[341.355]
a ŋ g a z i <no-speech> <sta> w a s e th i j ɛ n a w a s e f ɔ n ɛ l a ɠ u ɓ o ɠ e ɛ th i ɛ n a u ǀ ɛ l a <breath> ɓ a <no-speech> ɓ a l ɛ th e a j i i z i n tʼ o <no-speech> z a th u th u ɓ a j i ph a th i s e w ɛ n a 
[350.455]
<no-speech> 
[351.455]
<sta> ŋ g i z o j i th a th a ɛ th ɛ ɠ w i n i m i n a 
[353.215]
<no-speech> 
[354.745]
<sta> m h m 
[355.635]
<no-speech> 
[358.435]
u u <sta> n ǁ i ɛ ɦ e u kh ɔ n a 
[360.635]
<no-speech> 
[364.015]
<no-speech> 
[364.745]
<no-speech> 
[374.605]
<sta> ɛ j i h a j i h a j i <no-speech> i s i ŋ g i n ǀ i ɠ i l e n ʤ e m i n a i n d a ɓ a j a l e z i ŋ g u ɓ o f u th i n a kh o n a j e u ɓ a ɓ a w a th u th u ŋ g ɛ z e a kh u l u m e ŋ g ɔ ɓ a ŋ g a m ʧʼ ɛ l a <no-speech> n ʤ ɛ ŋ g a th i j a z i i n i kh a th ɛ l e ŋ g a s o s ɔ n ɠ e i s i kh a th i <sta> ɠ u f a n ɛ l e <no-speech> i n tʼ o z ɛ ŋ g a n e ŋ g i j i g u ǃ ɛ l e <no-speech> <breath> s e ŋ g i kh a th ɛ l e <no-speech> <breath> ɛ m u v a ɠ w a l ɔ kh o u m a s e ŋ g i h a m ɓ i l e j a z i ɠ u th i ɓ a ŋ g i f ɔ n ɛ l a <no-speech> ŋ g a s e ŋ g i l a ph i ŋ g a s e ŋ g i s ɛ th e ɠ w i n i 
[396.395]
<sta> a a ŋ g a ŋ g i ŋ g a ɠ a f i ɠ i ɛ th ɛ ɠ w i n i ɠ ɔ d w a ŋ g a s e ŋ g i s ɛ th e ɠ i s i n i ɛ j a ɛ th ɛ ɠ w i n i ɛ ɠ u s ɛ n i ɓ e ŋ g i f ɔ n ɛ l a ŋ g o ŋ g i ǀ a ɓ a ŋ g a ɠ u th i ɠ w a ɠ u w u n a j i n i <no-speech> ɓ e ŋ g i f ɔ n ɛ l a ɓ ɛ th i ɛ n e a ŋ i m e e m u g w a ǃ w e n i <oov> ɓ a z ɔ ɮ u l a ɓ a ʃ i j e i n tʼ o z a th u th u 
[408.355]
<no-speech> 
[409.635]
ŋ g a th i m i n a n ʤ ɛ ŋ g a m a n ʤ e m i n a a ŋ i s ɛ kh o i z i n tʼ o z a th u th u ɠ a d e ŋ g a z i ǀ ɛ l a <no-speech> ŋ g a ɓ ɔ n a z i ŋ g a ǃh a m u ɠ i ɠ u l o kh u u ɠ u f i ɠ a ŋ a w a n i s e ŋ g i z e ŋ g a h a m b a ŋ g a z i ʃ i j a 
[416.925]
<no-speech> 
[418.065]
<sta> ŋ g a h a m b a a ŋ i s ɛ kh o m i n a n ʤ ɛ ŋ g a m a n ʤ e <no-speech> w a th i j ɛ n a o w u ɓ ɛ ɓ ɛ ŋ a z i ɠ u th i ŋ g i j a h a m b a <breath> <hes> ŋ g a ɓ e ɓ a z i l ɛ th e ɠ w a j i z ɔ l o <no-speech> ŋ g a th i m i n a i ŋ ɔ ɓ a ɠ a d e ŋ g a z i ǀ ɛ l a i n tʼ o z a th u th u <no-speech> ŋ g a ɓ ɔ n a n i ŋ g a j i l e th i <sta> ŋ g a v ɛ l e ŋ g a ɓ ɔ n a ɠ e ɠ u ʃ o ɠ u th i a j i s ɛ kh o ɠ w a z ɔ n a <no-speech> i ŋ g a kh o ŋ g i v ɛ l e ŋ g a ŋ g a ʃ o n ɔ ɠ u th i ŋ g i j a h a m b a ŋ g a v ɛ l e ŋ g a j i h a m ɓ ɛ l a 
[436.955]
<no-speech> 
[437.905]
h a j i w a f ɔ n a ɠ e <no-speech> a 
[440.265]
<no-speech> 
[444.985]
<sta> ɛ ɦ e ŋ i ɓ o n i l e <no-speech> ph ɛ l a w ɛ n a v ɛ l e <no-speech> n ɔ ɓ a ɓ a th u th u <no-speech> u ʃ i l o w a th i ɛ n e <no-speech> ŋ g o ŋ g ɔ ɓ a ŋ g i ɡ|ɦ i n e s e ŋ g i m u ʧʼ e l i l e m i n a ɠ u th i ɛ n e <no-speech> ɛ th i ɓ u j i o w u w a h a m b ɛ l a n i w a ʃ i j e i n tʼ o z ɛ ŋ g a n e <no-speech> ŋ g a th i <sta> i n tʼ o z ɛ ŋ g a n e n a w e ŋ g a ɠ u ǀ ɛ l a u kh ɔ n a ŋ g a th i <no-speech> u m a u ŋ g a ɠ w a z i n ɔ m a u th ɔ l a i th u ɓ a <no-speech> ɓ e ŋ i ǀ ɛ l a u ŋ g i z a m ɛ l a u ŋ g i ǀ ɛ l ɛ l e w ɛ n a n ɔ m a <oov> u j i b ɛ ɠ e w ɛ n a ɠ e <no-speech> u th u th u u j a ɠ w a z i u ɠ u ɬ u ɠ a n i s a i n tʼ o z a kh e <breath> ŋ g ɛ ɠ e ŋ g i z e ŋ ɛ ɬ e m i n a ŋ g i z o <sta> ɠ u th i ɔ ɠ w a th u th u ɠ u th i ɔ ɠ w a th u th u <no-speech> <oov> n ʤ ɛ ŋ g ɔ ɓ a u kh ɔ n a ŋ g ɔ ɓ a ɠ u z ɔ ɓ ɛ ŋ g a th i ŋ g i j a ɠ u ǃh a th a w a th i j ɛ n a ɔ ɦ o <no-speech> n a j e ɠ e w a j i l i ɓ a l ɛ l a u ɠ u z u l a ɠ e w a j i kh ɔ ɬ ɛ l w a ɠ ɔ n ɠ e l ɔ kh u ɛ ŋ a ŋ i m u ʧʼ ɛ l e kh ɔ n a 
[479.405]
<no-speech> <sta> m a s e s e ŋ g i h a m ɓ i l e m i n a s ɛ ɓ ɛ j a m u f ɔ n ɛ l a j ɛ n a ɓ a j a m ʧʼ ɛ l a ɠ u th i o w u <no-speech> <breath> j a z i ɠ w a s a l a i ŋ g u ɓ o z a th u th u l a n a <no-speech> <breath> a ŋ g a z i n ʤ e n ɠ ɔ s i j a m i ɠ u th i u ɡǃɦ ɔ ɠ a n i <no-speech> ɠ u ʃ ɔ ɓ a u a n tʼ i z a <no-speech> a th i u ɓ a ɓ a th u th u o w u ɓ u j i 
[491.375]
<no-speech> 
[492.565]
ɛ ɦ e ɓ u j i i ŋ g a n i ɠ u th i w a u h a m b e w a ʃ i j a i z i n tʼ o <no-speech> ŋ g a th i <no-speech> l a l ɛ l a ɓ ɛ s e ŋ g i kh a th ɛ l e ɛ l o ŋ g i kh ɔ th a m ɛ l e i z i n tʼ o <no-speech> n ɛ ŋ g a n e <hes> ŋ g a m u ʧʼ ɛ l a f u th i ŋ g a th i j a z i ɠ u th i ɛ n e i z i n tʼ o z a th u th u ɛ n a h a m ɓ a n a z o z a ɡ|ɦ w a l a u b a v u ɠ u ph ɛ l a u b a kh a w a kh e ɔ m n ǀ a n e <no-speech> z a n ɛ l a l ɔ w o l a ph o ɠ u ph ɛ l a <sta> a z i z a z i ŋ g e n i ŋ g i i l ɛ z o ɠ u ph ɛ l a <no-speech> w a th i j ɛ n a o w u i n tʼ e j i n ǀ a n e ɠ a n ʤ e ŋ g a th i m i n a u m a ŋ g i ŋ g a ɠ u ʧʼ ɛ l a ɠ u th i 
[516.145]
i n i n a n i n a n i ɠ w a w ɛ n a u ŋ g a m a ŋ g a l a <no-speech> u m a ŋ g i ŋ g a ɠ u ʧʼ ɛ l a ɠ u th i j i n i n a n i n a n i <no-speech> <sta> ŋ g ɔ ɓ a z i n ǀ a n e <no-speech> ɠ u j a ɠ u j a ɠ u f a n ɛ l e ɠ u th i <no-speech> u m a e ɠ u ɡǃɦ o ɠ i l e m ɬ a m pʼ e u tʼ i l i d ɛ j z i <no-speech> f a n ɛ l e a f tʼ a tʼ i l i d ɛ j z i ŋ g i w a ʃ e ɠ a d e ŋ g i th i ŋ g ɛ ɠ e ŋ g i w a ʃ e ŋ g ɔ ɓ a ɠ u n ǀ a n e <int> <no-speech> w a s e th i j ɛ n a ɠ a ɬ e ɠ a ɬ e i n ɠ i ŋ g a i n i <no-speech> ŋ g a th i m i n a h a j i 
[533.505]
<no-speech> 
[534.325]
a ɠ u w ɔ n a <no-speech> ŋ g a th i m i n a h a j i a ŋ g a z i ɠ u th i i n ɠ i ŋ g a i l a ph i m i n a ŋ g i ǀ ɛ l a u ŋ g i ɓ u z ɛ l e ɠ i n i ɠ u th i i n ɠ i ŋ g a i l a ph i <sta> s e ŋ g i kh a th ɛ l e n ʤ a l o u ɠ u kh ɔ th a m ɛ l a i ŋ g u ɓ o z ɛ ŋ g a n e <no-speech> ɠ w e ɲ i i n ɠ a th i <oov> ɔ ɠ w a kh ɔ n a <no-speech> ɓ a j a ɡǃɦ ɔ ɠ ɛ l a n a n ɔ kh ɔ n a 
[545.325]
<sta> w a th i m h m i l ɛ n tʼ o ɠ e ɛ ŋ a ŋ i g w ɛ m a ɠ w a s e ɠ u ǃ a l e n i <no-speech> n a kh u w ɛ n a u ɠ i n i ŋ g a ŋ g i m u n i ɠ ɛ z e i z i n tʼ o ɛ z a z i s a l e ɠ u th u th u n ɔ ɓ l a n ɠ ɛ tʼ <no-speech> i l ɛ n tʼ o ɠ e ɛ ŋ a ŋ a j i f u n i ɠ e ŋ g ɔ ɓ a ŋ g a ŋ g i ɓ ɔ n a ɠ u th i 
[556.355]
<sta> l ɛ ŋ g a n e a j i n a ɓ a ɓ a 
[558.345]
<no-speech> 
[559.625]
<sta> ɠ w a j ɛ n a u th i a ɠ a j a z i i s i ɓ ɔ ŋ g o s a j o ɠ u th i ɛ j a ɠ a ɓ a <no-speech> i ŋ g a n e l e u <int> l o kh u z a n e u kh ɔ n a 
[565.355]
<no-speech> 
[566.285]
u th i <sta> a ɠ a n a ɓ a ɓ a 
[567.795]
<no-speech> 
[568.615]
<sta> ɛ ɦ e u th i a ɠ a ɓ a ɓ a m a z i 
[571.285]
<no-speech> 
[572.345]
m i n a ɠ a d e ŋ g a ŋ g i ɬ e z i ŋ g i m ɓ u z a ɠ u th i u ŋ g ɔ w a ɠ a ɓ a u kh ɔ n a i s i ɓ ɔ ŋ g o <no-speech> a th i h a j i s e ŋ g i kh o ɬ i w e <no-speech> a th i a ŋ g i s a z i j a ɓ o ɠ u ʃ u th i w ɛ n ǃ ɛ n a ɠ e u ɠ u ŋ g i ʧʼ ɛ l a <int> l a 
[580.745]
<no-speech> 
[581.595]
u s ɛ z e w a ʃ o ɠ e ɠ u th i h a j i <no-speech> a ɠ u kh o ɓ a ɓ a <no-speech> a ɠ ɛ kh o u ɓ a ɓ a w a kh e <sta> u kh ɔ n a <no-speech> i s i ɓ ɔ ŋ g o a ɠ a s a z i o w u u ŋ g a ŋ g a s a z i ɠ a n ʤ a n i i s i ɓ ɔ ŋ g o s ɛ ŋ g a n e ɠ a n tʼ i u j ɛ n a o ɠ u m u ph i <no-speech> w a th i a ɠ a m a z i ɠ u th i 
[594.105]
<no-speech> 
[594.945]
ɔ w a s e m pʼ u m a l a ŋ g a ɠ ɔ d w a o ɠ u s a l a j o u kh ɔ n a <int> <no-speech> w a ɓ u j a n a j e e m pʼ u m a l a ŋ g a 
[598.235]
<no-speech> 
[600.380]
