[0.000]
<no-speech> 
[8.425]
h ɛ l o 
[9.695]
<no-speech> 
[11.225]
h ɛ l o h e <no-speech> 
[13.575]
h ɛ l o 
[14.135]
<no-speech> 
[15.075]
j ɛ ɓ o j ɛ ɓ o 
[17.155]
<no-speech> 
[18.415]
s a ph i l a n i n ʤ a n i 
[19.295]
<no-speech> 
[20.725]
a ŋ g i z w a 
[21.545]
<no-speech> 
[23.915]
j a ŋ g i j i v u l i l e 
[27.275]
<no-speech> 
[28.615]

[29.205]
<no-speech> 
[32.815]
a ŋ g i z w a 
[33.325]
<no-speech> 
[34.835]
j ɛ ɓ o 
[35.475]
<no-speech> 
[39.985]
j a ŋ g i j a ɠ u z w a 
[41.725]
<no-speech> 
[43.935]
<int> j a ŋ g i ɠ u z w a s i s i 
[45.525]
<no-speech> 
[49.005]
ŋ g i s a ph i l a b u l a d a u n ʤ a n i w ɛ n a 
[50.555]
<no-speech> 
[53.715]
<no-speech> <sta> h a j i a ŋ i s ɛ ɓ e n z i ŋ g a m a h o l i d i 
[59.055]
<no-speech> 
[62.945]
<sta> ŋ g i kh u l u m a n ɔ ɓ a n i l a <no-speech> 
[65.965]
<no-speech> 
[68.655]
ɔ ɦ o a ŋ i s ɛ ɓ e n z i a ŋ i s ɛ ɓ e n z i n a m ɬ a n ʤ e 
[71.535]
<no-speech> 
[75.765]
<sta> h a j i <no-speech> a ŋ g i ph ɛ th w e i b a b a l a z i m i n a <hes> a ŋ i s ɛ ɓ e n z i 
[79.105]
<no-speech> 
[86.165]
<no-speech> <sta> ŋ g i kh u l u m a n ɔ ɓ a n i h w a j i <no-speech> 
[91.875]
<no-speech> 
[95.945]
ŋ g i j a ɠ u z w a ph ɛ l a 
[97.495]
<no-speech> 
[103.885]
m i n a a a a ŋ g i kh o m i m i m i n a ŋ g i s e m g a ɓ a ɓ a m i n a n ʤ ɛ ŋ g a m a n ʤ e <int> 
[109.195]
<no-speech> 
[110.265]
ɛ m g a ɓ a ɓ a 
[111.315]
<no-speech> 
[116.465]
j a 
[117.715]
<no-speech> 
[121.315]
h a j i <no-speech> a ŋ g a z i s i s i 
[126.185]
<no-speech> 
[128.255]
a ŋ g a z i 
[129.005]
<no-speech> 
[131.775]
ŋ g i h a m b e i z ɔ l o e ɓ u s u ɠ u 
[132.825]
<no-speech> 
[137.225]
a ŋ g i ɠ a v a l i ɛ m s ɛ ɓ ɛ n z i n i ŋ g i s a s ɛ ɓ ɛ n z a 
[139.035]
<no-speech> 
[144.995]
a ŋ g i z w a 
[145.605]
<no-speech> 
[150.265]
j a u m s ɛ ɓ ɛ n z i m f w ɛ th u u m s ɛ ɓ ɛ n z i l a e ŋ g i kh ɔ n a ɔ kh ɔ n a <int> 
[154.505]
<no-speech> 
[155.585]
ŋ g ɔ ɓ a ŋ g o <no-speech> ŋ g ɔ ɓ a <no-speech> <int> ŋ g ɔ ɓ a 
[158.335]
<no-speech> 
[159.525]
ŋ g i z ɔ ɓ u j a n a w o u m l ɛ n z e w ɛ n ɠ ɔ m o j a ŋ g i z ɔ ɓ u j a n a w o u m l ɛ n z e w ɛ n ɠ ɔ m o 
[162.595]
<no-speech> 
[168.175]
h a j i h a j i a ŋ g i n a n tʼ o m ɓ i 
[170.335]
<no-speech> 
[175.075]
<no-speech> 
[175.545]
<no-speech> 
[178.325]
h a j i 
[179.015]
<no-speech> 
[180.195]
a ŋ g i n a j o 
[180.935]
<no-speech> 
[182.085]
ɛ ɦ e 
[182.595]
<no-speech> 
[185.995]
u f u n a i s i v a ɠ a ʃ i j i n i 
[187.475]
<no-speech> 
[193.770]
<no-speech> 
[200.065]

[200.665]
<no-speech> 
[204.525]
ŋ g o kh i s i m u s i n i z ɔ ɓ e n i l a ph i 
[206.015]
<no-speech> 
[209.065]
h a j i ŋ g i z o ɠ u v a l a <no-speech> u s u n ɛ ɠ s tʼ w i kh i v ɛ l a u kh i s i m u s i v ɛ l e j a ŋ g i z o ŋ g i z o f i ɠ a 
[213.755]
<no-speech> 
[216.095]
a ŋ g i z w a 
[216.615]
<no-speech> 
[219.755]
h a j i a ŋ g a z i 
[220.615]
<no-speech> 
[221.835]
ŋ g ɔ ɓ a ŋ g ɔ ɓ a z i j a kh i ph a j i n i kh ɔ n a 
[224.335]
<no-speech> 
[226.575]
<no-speech> 
[226.945]
<no-speech> 
[230.195]
n a ɓ a ŋ a n i ɓ a m i a ɓ a ŋ g a n i ɓ a m u 
[233.215]
<no-speech> 
[240.005]
<no-speech> 
[244.185]
<no-speech> 
[248.135]
<sta> 
[248.605]
<no-speech> 
[249.865]
u b a l a u ɠ u th i n i 
[250.835]
<no-speech> 
[252.215]
m u ph i <no-speech> 
[255.115]
<laugh> m u ph i u j a 
[257.295]
<no-speech> 
[265.665]
h a j i h a j i a ɠ u n e th i l a a ɠ u n e th i l a n ɔ w u a a ɠ u n e th i n ʤ e 
[271.975]
<no-speech> 
[272.835]
h a j i a ɠ u ʃ i s i ɠ ɔ d w a a ɠ u n e th i 
[276.125]
<no-speech> 
[278.875]
j a 
[279.525]
<no-speech> 
[285.275]
i n i <no-speech> <hes> u m g a ɓ a ɓ a n a s e <hes> a m a n z i m tʼ o tʼ i 
[289.985]
<no-speech> 
[293.075]
m h m 
[293.725]
<no-speech> 
[303.985]
h a j i ŋ g i z o f i ɠ a m u ŋ g a n i w a m i ŋ g i z o f i ɠ a ʃ e j i n i l a m i u j i ʧʼ e n i l a m i w ɛ n a ŋ g i z o f i ɠ a ŋ g ɔ ɓ a u u u u j a ŋ g i m ɛ m a ŋ g ɔ ɓ a w ɛ n a u j a ŋ g i m ɛ m a kh u l u l ɛ ɠ a ŋ g i z o f i ɠ a 
[315.315]
<no-speech> 
[316.335]
<no-speech> 
[316.685]
<no-speech> 
[322.305]
<laugh> kh u l u l ɛ ɠ a m f a n a ɠ i th i 
[324.685]
<no-speech> 
[325.665]
<no-speech> ɛ ɦ e u z o ŋ g i th ɛ ŋ g ɛ l a n i 
[328.565]
<no-speech> 
[332.715]
w e l o <no-speech> j a ɓ o ɠ e ŋ g o ŋ g o ŋ g o ŋ g o kh i s i m u s i ŋ g i f u n a s i z ɔ ph ɛ ɠ a n a w e l a ph o 
[337.875]
<no-speech> 
[340.135]
ŋ g i z ɔ ph ɛ ɠ a n a w e kh i s i m u s i 
[341.735]
<no-speech> 
[345.625]
n ɔ w u m i n a m i n a ŋ g i z o f i ɠ a m ɬ a ŋ g i z o f i ɠ a m ɬ a ɠ a tʼ w e n tʼ i f o e ɓ u s u ɠ u l a ph o 
[350.565]
<no-speech> 
[355.835]
<no-speech> 
[356.245]
<no-speech> 
[359.095]
<no-speech> 
[362.045]
<no-speech> 
[363.265]
ɛ ɦ e 
[363.795]
<no-speech> 
[365.465]

[365.885]
<no-speech> 
[367.325]
<no-speech> 
[370.265]
<no-speech> 
[371.745]
h a j i ŋ g i z o ɠ u s ɛ n d ɛ l a ɛ z i ɲ e i z i th ɔ m ɓ e kh ɔ n a u z ɔ ɓ ɔ n a 
[374.645]
<no-speech> 
[380.505]
h a j i 
[382.075]
<no-speech> 
[384.105]
<sta> h a j i <no-speech> <no-speech> i m pʼ i i m pʼ i m pʼ i l e 
[388.915]
<no-speech> 
[389.795]

[390.855]
<no-speech> 
[392.305]

[393.065]
<no-speech> 
[394.335]
ɛ ɦ e 
[394.785]
<no-speech> 
[396.205]

[396.945]
<no-speech> 
[398.055]
ŋ g i j a ph u z a 
[399.045]
<no-speech> 
[404.325]
h a j i i ʤ e kh i d a n i j e l z i 
[407.155]
<no-speech> 
[409.975]
i ʤ e kh i d a n i j e l z i ɛ ɦ e 
[412.615]
<no-speech> 
[415.685]
ʤ e kh i d a n i j e l z i i ʤ e kh i ʤ e kh i ʤ e kh i 
[418.685]
<no-speech> 
[422.435]
<no-speech> ɛ k’ s e m a ʤ i th a m a ʤ i th a <no-speech> a a a a n a ŋ g u n a ŋ g u u l o kh u z a n a ŋ g u m ʤ i th a <breath> <no-speech> m f w ɛ th u <no-speech> ɓ a ɓ a m ɓ a ɠ a ŋ ǀ a n e 
[434.335]
<sta> l o m ʤ i th a n a ŋ g u <no-speech> <no-speech> u m ʤ i th a n a ŋ g u <no-speech> 
[445.725]
<no-speech> 
[446.595]

[447.115]
<no-speech> 
[448.065]
u f u n a u f o f i ŋ g a u f u n a u f o f i ŋ g a 
[450.995]
<no-speech> 
[451.795]
u f u n a u f o f i ŋ g a 
[452.515]
<no-speech> 
[455.725]
n i d ɛ ʃ a ŋ a l ɛ n tʼ o a a a ɠ u s i j ɔ n a i kh o w kh i <no-speech> i kh i l e n i b e l i 
[460.185]
<no-speech> 
[461.565]
<no-speech> 
[461.925]
<no-speech> 
[464.275]
ɛ ɦ e 
[464.965]
<no-speech> 
[466.075]
s i ʃ a j a i s i ɠ a j i s e s i s tʼ i l ɔ b e l i l a 
[468.055]
<no-speech> 
[471.465]
s i ʃ a j a i s i s ɠ j s e s e s e s ɛ s tʼ l ɔ ɓ e l i 
[475.235]
<no-speech> 
[481.235]
h a j i ŋ g e s i th ɛ ŋ g e i ɠ e s i l ɛ j a s ɠ a j i 
[484.025]
<no-speech> 
[485.615]
n ɔ n m i n a s i pʼ i kh a j a m i n a s i pʼ i kh a th ɛ ŋ g e i ɠ e s i l ɛ j a s ɠ a j i 
[487.835]
<no-speech> 
[495.385]
<no-speech> 
[502.935]
e w u v i n e ʃ i 
[503.985]
<no-speech> 
[505.125]
th u <no-speech> <breath> 
[506.625]
<no-speech> 
[507.605]
h ɛ l o 
[508.185]
<no-speech> 
[511.725]
ɓ a n i <no-speech> i n i 
[513.365]
<no-speech> 
[520.105]
u ɓ a ɓ i z i l e a ŋ g i th i n a w e u ɓ i z i w e n a w e 
[522.205]
<no-speech> 
[529.225]

[529.725]
<no-speech> 
[531.395]

[531.795]
<no-speech> 
[533.475]
h a j i u ɮ a l e ɠ a ŋ ǀ a n e 
[536.525]
<no-speech> 
[540.535]
<laugh> j i n i l ɛ j o 
[542.305]
<no-speech> 
[548.595]
h a j i 
[549.225]
<no-speech> 
[551.025]
u j a j i kh a ɬ ɛ l a j a z i a ŋ g ɛ ɠ e i z e ɠ u ph u m e 
[555.625]

[558.575]
ŋ g ɛ ɠ e l i ph u m e u ɠ u 
[562.295]
<no-speech> 
[563.195]
ŋ g a s o s ɔ n ɠ e i s i kh a th i <int> 
[564.725]
<no-speech> 
[570.840]
<no-speech> 
[576.955]
<no-speech> 
[578.025]
<no-speech> 
[579.155]
ʃ o s i kh ɔ kh o 
[579.915]
<no-speech> 
[583.085]
h a j i m f a n a ɠ i th i h a j i <no-speech> u j a s ɛ ɓ ɛ n z a w ɛ n a m a n ʤ e u j a s pʼ a n a m a n ʤ e 
[587.805]
<no-speech> 
[590.285]
u j a s ɛ ɓ ɛ n z a w ɛ n a 
[591.345]
<no-speech> 
[594.055]
w ɛ n a u s u j a s ɛ ɓ ɛ n z a <no-speech> 
[600.380]
