[0.000]
<no-speech> 
[1.945]
<no-speech> 
[2.345]
<no-speech> 
[3.555]
<no-speech> 
[4.225]
<no-speech> 
[7.275]
h ɛ l o j ɛ ɓ o 
[9.165]
<no-speech> 
[10.415]
<sta> j ɛ ɓ o 
[12.725]
<no-speech> 
[18.705]
a ŋ g i z w a 
[19.335]
<no-speech> 
[21.385]
h ɛ l o 
[22.015]
<no-speech> 
[23.595]
ŋ g i j a ph i l a 
[24.605]
<no-speech> 
[28.575]
<int> a a n a a ŋ g i z w a 
[29.905]
<no-speech> 
[32.165]
a ŋ g i ɠ u z w a ɠ u th i u ɓ a n i 
[33.605]
<no-speech> 
[36.405]
<int> a ŋ g i z w a u ɠ u ɓ a ŋ g i kh u l u m a n ɔ ɓ a n i 
[38.375]
<no-speech> 
[40.545]
e l i w u ɓ a n i 
[41.585]
<no-speech> 
[43.615]
a o w u 
[45.645]
<no-speech> 
[47.375]
u d u m i s i l e j i n i 
[48.685]
<no-speech> 
[52.225]
a h e <no-speech> <sta> ʤ e s u n ɠ u l u n ɠ u l u ɠ ɔ d w a u ph u ph e n i m u n tʼ a ɠ a ɓ a ɓ ɔ m n ǀ a n e 
[57.645]
<no-speech> 
[60.435]
h ɛ l o 
[61.075]
<no-speech> 
[65.165]
a h e ʤ e s u j a z i ɠ u th i ŋ g a th i ŋ g i ɠ ɛ m a ph u ʃ e n i ŋ g i l ɛ l e 
[69.355]
<no-speech> 
[71.055]
<sta> <oov> s ɔ w a j i ʃ i n ʧʼ a j i n i i n a m ɓ a j a kh o 
[74.455]
<no-speech> 
[76.625]
s e w u j i ʃ i n ʧʼ i l e j i n i i n a m ɓ a j a kh o 
[78.105]
<no-speech> 
[81.255]
m a j e u s u j a s ɛ ɓ ɛ n z a 
[83.085]
<no-speech> 
[85.555]
h ɛ l o 
[86.225]
<no-speech> 
[90.795]
ɛ ɦ e s e ŋ g i j a ɠ u z w a ɠ e m a n ʤ ɛ n a 
[92.815]
<no-speech> 
[93.995]
j ɛ ɓ o 
[94.855]
<no-speech> 
[101.145]
<breath> h a j i w ɛ n z a ɠ a ɬ e n ɠ ɔ s i j a m i <no-speech> s ɔ n ɠ e s i j a s ɛ ɓ ɛ n z a a s i ɬ e l i 
[105.475]
<no-speech> 
[114.055]
ɛ ɦ e s ɛ n a v ɛ l e n ʤ e n a ɬ u ɠ a n a n ɔ ɓ a ɓ a w e j i ŋ g a n e 
[117.705]
<no-speech> 
[120.355]
<no-speech> 
[120.955]
<no-speech> 
[125.665]
<int> h a j i ɓ o 
[127.275]
<no-speech> 
[129.055]
ɛ j i ɠ w a s e ɠ u w e s i ɠ e m b e m i w ɛ n z a ɠ a ɬ e 
[131.805]
<no-speech> 
[132.925]
ɛ ɦ e 
[133.745]
<no-speech> 
[137.205]
ɛ ɦ e n a <no-speech> 
[145.660]
<no-speech> 
[153.115]
a h e 
[154.595]
<no-speech> 
[155.755]
ɛ ɦ e n a 
[156.915]
<no-speech> 
[159.895]
a w u n ɠ ɔ s i j a m i ɠ ɔ d w a i ŋ g a n e w a j e j i ʃ a j ɛ l a n i ŋ g ɔ ɓ a ph ɛ l a ɠ u ŋ ɡ|ɦ ɔ n o w a ɬ a l a ph a n s i ɠ e n a j o m a j ɛ ŋ g a f u n i ɠ e i th a n d w e ɠ e w a j ɛ ŋ g a j i v i m ɓ a ɠ a n ʤ a n i i ŋ g a n e u m a s e z i kh u l i l e 
[168.455]
<no-speech> 
[175.775]
<no-speech> 
[183.095]
ɛ ɦ e n a 
[184.265]
<no-speech> 
[194.245]
<no-speech> 
[204.225]
<breath> i j a 
[205.155]
<no-speech> 
[212.395]
j ɛ ɓ o 
[213.385]
<no-speech> 
[215.715]
ɛ ɦ e 
[216.605]
<no-speech> 
[218.895]
ɛ ɦ e 
[219.785]
<no-speech> 
[226.705]
o w u s i s i 
[228.385]
<no-speech> 
[236.705]
<no-speech> 
[237.155]
<no-speech> 
[241.355]
ɛ ɦ e n a 
[242.365]
<no-speech> 
[249.625]
j ɛ s i 
[250.255]
<no-speech> 
[253.065]
m h m 
[253.605]
<no-speech> 
[258.305]
u n a m a s ph o 
[260.185]
<no-speech> 
[261.545]
<int> a h a 
[263.255]
<no-speech> 
[272.985]
w ɛ n z a ɠ a ɬ e 
[274.825]
<no-speech> 
[281.915]
ɛ ɦ e 
[282.715]
<no-speech> 
[285.175]
m h m 
[285.805]
<no-speech> 
[288.075]
j ɛ ɓ o 
[288.805]
<no-speech> 
[290.285]
<no-speech> 
[290.695]
<no-speech> 
[292.355]
j e 
[292.885]
<no-speech> 
[298.405]
<no-speech> 
[299.175]
<no-speech> 
[301.315]
j ɛ s i 
[301.975]
<no-speech> 
[303.675]
<sta> m h m 
[304.825]
<no-speech> 
[308.765]
<no-speech> 
[310.165]
<no-speech> 
[316.685]
ɛ ɦ e 
[317.515]
<no-speech> 
[318.645]
<no-speech> 
[320.865]
<no-speech> 
[325.305]
ɛ ɦ e n e 
[326.545]
<no-speech> 
[327.875]
h a j i w a z i s i z a w e d u m i s i l e 
[329.645]
<no-speech> 
[332.255]
w i n ɠ ɔ s i j a m i 
[333.885]
<no-speech> 
[335.625]
u s ɛ ɓ ɛ n z a ɠ a ɬ e n ʤ e m a n ʤ ɛ n a 
[337.665]
<no-speech> 
[342.545]
<sta> j ɛ ɓ o u ǃ i n i s i l e <no-speech> u j ɛ ɠ e u ɠ u ph i l a ŋ g o ɠ u th i u th ɛ m ɓ ɛ l e e m u n tʼ w i n i 
[350.895]
<no-speech> 
[356.035]
ɛ ɦ e 
[356.785]
<no-speech> 
[361.545]
<no-speech> 
[363.055]
<no-speech> 
[364.215]
<sta> ɛ ɦ e 
[367.175]
<no-speech> 
[369.195]
<no-speech> 
[369.815]
<no-speech> 
[373.965]
j ɛ ɓ o 
[375.045]
<no-speech> 
[377.515]
ɛ ɦ e 
[378.205]
<no-speech> 
[383.885]
ɛ ɦ e 
[384.775]
<no-speech> 
[392.555]
<no-speech> 
[392.915]
<no-speech> 
[396.975]
<sta> ɛ ɦ e 
[397.905]
<no-speech> 
[403.205]
<no-speech> 
[403.665]
<no-speech> 
[409.055]
a o w u u n ɠ u l u n ɠ u l u a v e m kh u l u n ɔ m a ɮ o z i 
[412.675]
<no-speech> 
[414.905]
<no-speech> 
[415.395]
<no-speech> 
[425.165]
<no-speech> 
[434.935]
ɛ ɦ e n a h a j i ɓ o 
[436.475]
<no-speech> 
[438.885]
h e 
[440.275]
<no-speech> 
[449.965]
a n i z w e n ʤ e 
[451.385]
<no-speech> 
[456.335]
<no-speech> 
[456.725]
<no-speech> 
[458.785]
<no-speech> 
[459.165]
<no-speech> 
[463.565]
<sta> ɠ u ʃ o ɠ u th i n ʤ e ph ɛ l a w ɛ s a z i ɠ u th i m a n ʤ e a w u s ɛ n a m u m v a a w u n a ph a m ɓ i l i w ɛ n z a ɠ a ɬ e w a v ɛ l e w a m kh o m ɓ i s a ɠ u th i i m pʼ i l o n ʤ e i j a ǃh u ɓ ɛ ɠ a 
[472.035]
<no-speech> 
[474.195]
m h m 
[474.775]
<no-speech> 
[476.495]
<no-speech> 
[476.855]
<no-speech> 
[480.525]
ɛ ɦ e n e 
[481.705]
<no-speech> 
[487.995]
ɛ ɦ e 
[488.935]
<no-speech> 
[490.845]
n a z o <int> ɠ e 
[491.895]
<no-speech> 
[494.475]
ɠ u ʃ u th i m a n ʤ e w a ɓ ɔ n a u m a ɛ s ɛ h a m b i l e ɠ e 
[496.925]
<no-speech> 
[498.415]
ɛ ɦ e n e 
[499.415]
<no-speech> 
[500.805]
ɛ ɦ e <sta> 
[504.245]
<no-speech> 
[505.185]
<no-speech> 
[505.555]
<no-speech> 
[509.145]
j ɛ ɓ o u s ɛ ɓ ɛ n z ɛ l e i j i ŋ g a n e z a kh o 
[511.645]
<no-speech> 
[513.055]
a h e 
[514.595]
<no-speech> 
[520.575]
j ɛ s i 
[521.355]
<no-speech> 
[524.685]
ɛ ɦ e u v ɛ l e u z i h a m ɓ ɛ l e n ʤ e <oov> <oov> ʧʼ ɛ l a i j i ŋ g a n e z a kh o n ʤ e f i n i ʃ i 
[528.805]
<no-speech> 
[530.865]
h a j i ɠ u ŋ ɡ|ɦ ɔ n o ɠ e u ŋ g a ɓ e u j o s i ɓ ɔ n a n i n i ɠ e 
[533.735]
<no-speech> 
[535.805]
<sta> h ɛ l o 
[538.505]
<no-speech> 
[541.985]
<laugh> u ɓ o f i ɠ a ŋ g ɛ m pʼ ɛ l a a v e s ɔ ʤ a ɓ u l a 
[546.975]
<no-speech> 
[549.425]
<no-speech> 
[549.925]
<no-speech> 
[557.335]
ɛ ɦ e n e <laugh> a v e s ɔ ʤ a ɓ u l a n a m i ŋ g ɔ ɠ w e ɬ i ɠ a n ʤ e ɠ ɔ ǁ ɔ ǁ w a ɠ a ɬ e 
[563.075]
<no-speech> 
[564.865]
h ɛ l o 
[565.495]
<no-speech> 
[569.245]
ɛ ɦ e n e 
[570.065]
<no-speech> 
[572.335]
<sta> j a u j a ŋ g i th ɔ l a 
[573.695]
<no-speech> 
[575.745]
j ɛ ɓ o s i ǁ ɔ ǁ e n ʤ e <sta> <laugh> 
[582.965]
<no-speech> 
[584.235]
<sta> j ɛ ɓ o <laugh> 
[589.495]
<no-speech> 
[593.675]
<no-speech> 
[594.105]
<no-speech> 
[595.285]
u j a ɡ|ɦ ɔ w e <sta> <no-speech> u ph i u m ʃ i n i w a kh e 
[598.905]
<no-speech> 
[600.340]
