[0.000]
<no-speech> 
[2.875]
ʤ i j u 
[3.645]
<no-speech> 
[5.875]
ʤ i j u <sta> <breath> i l ɛ n tʼ o ɠ a d e u kh u l u m a ŋ g a j o i z ɔ l o u s a kh u m b u l a ɠ u th i ŋ g i th e n i 
[9.675]
<no-speech> 
[11.555]
ɛ ɦ e ɓ a n ʤ a n i o w u j ɛ ɓ o 
[13.155]
<no-speech> 
[16.385]
u ph i u n o m ɓ u s o m h m 
[18.635]
<no-speech> 
[23.845]
h a j i ɓ o ɓ a j a kh i ʃ w a d a d e 
[25.305]
<no-speech> 
[29.545]
<laugh> u h a m b e n a ɓ a n tʼ u ɓ a s ɛ m s ɛ ɓ e n z i n i w a kh e 
[33.865]
<no-speech> 
[35.945]
<no-speech> 
[37.425]
<no-speech> 
[39.495]
<int> ɛ ɦ e 
[40.995]
<no-speech> 
[45.045]
ɛ ɦ e 
[45.785]
<no-speech> 
[46.895]
ɛ ɦ e u 
[47.865]
<no-speech> 
[48.805]
ɛ ɦ e u ph i ɠ ɔ d w a u tʼ i tʼ o ɓ ɛ n ɔ m l o n d i m h m 
[52.575]
<no-speech> 
[57.305]
o w u ʃ ɛ j m i 
[58.435]
<no-speech> 
[61.995]
<sta> h a j i ɓ o ɠ u th i u m u m i s e ɠ a n ʤ a n i 
[63.905]
<no-speech> 
[65.885]
a w u u j a ɓ o ɠ u th i l i n ɛ th a ɠ a n ʤ a n i u m u n tʼ u u m a a ŋ a s e ɓ a f i l e i m v u l a u ɓ o n i l e i z ɔ l o ɓ e j i ʃ a j a ɠ a n ʤ a n i 
[70.685]
<no-speech> 
[74.735]
<int> n a n a l a n a i m ɔ tʼ o ɓ e j i ǀ ɔ n s a u ɓ ɛ ŋ a th i u m f u l a <breath> h a j i ɓ o ph ɛ l a ŋ g ɛ s ɔ n tʼ o ŋ g a ɮ u l a l a ph o ŋ a ɠ i n i a v e <int> s e ɠ u ɠ u ɬ e n ɛ n z e i l i th e j i n i ŋ g i w o l i 
[82.675]
<no-speech> 
[84.495]
<no-speech> 
[84.955]
<no-speech> 
[89.095]
ɛ j i ɛ ɦ e 
[90.105]
<no-speech> 
[92.035]
<no-speech> 
[92.455]
<no-speech> 
[94.985]
ɛ ɦ e 
[95.835]
<no-speech> 
[102.555]
<sta> ɠ w a ɠ w ɛ l a ɠ u ph i l ɔ n a 
[103.855]
<no-speech> 
[105.575]
l a ɠ w ɛ l a ɠ u ph i ɛ l a ɠ u ph i l i ɬ a l a ɠ u ph i m e l i l a ɛ th ɛ ɠ w i n i 
[108.955]
<no-speech> 
[113.985]
o w u ɓ a s ɛ ɓ ɛ n z a ɓ ɛ ɓ a ŋ g a ɠ a ʤ i j u ɓ ɛ n z e ɠ a ɬ e 
[116.645]
<no-speech> 
[118.435]
ɓ a w u th u ɠ u ph ɛ l a 
[119.545]
<no-speech> 
[120.835]

[121.735]
<no-speech> 
[122.665]
w a s e n i ɓ i z a m a l i n i ph o 
[124.145]
<no-speech> 
[127.125]
<no-speech> 
[128.625]
<no-speech> 
[131.885]
<no-speech> 
[133.205]
<no-speech> 
[135.865]
i n e l ɛ j o 
[136.655]
<no-speech> 
[139.515]
ɔ ɦ o 
[140.715]
<no-speech> 
[143.015]
ɛ ɦ e 
[144.125]
<no-speech> 
[151.235]
h a j i 
[151.845]
<no-speech> 
[160.355]
ɓ a h a m ɓ e n tʼ a m b a m a 
[161.825]
<no-speech> 
[163.705]

[164.245]
<no-speech> 
[169.125]
m h m 
[169.805]
<no-speech> 
[178.655]
ɛ ɦ e 
[179.415]
<no-speech> 
[181.355]
ɛ ɦ e 
[182.195]
<no-speech> 
[189.390]
<no-speech> 
[196.585]
j ɛ s i ph ɛ l a ɓ ɛ n z a ɠ a n ʤ a l o ɓ a v ɛ l e ɓ a ɓ a m ɓ e ŋ g a ph a n a ŋ a ph a 
[199.485]
<no-speech> 
[204.655]
ɛ ɦ e 
[205.275]
<no-speech> 
[209.885]
<no-speech> 
[210.325]
<no-speech> 
[214.385]
<no-speech> 
[215.955]
<no-speech> 
[221.575]
ɛ ɦ e 
[222.255]
<no-speech> 
[226.355]
ɛ ɦ e 
[227.055]
<no-speech> 
[233.175]
ɛ ɦ e 
[235.885]
<no-speech> 
[240.255]
ŋ g ɛ m pʼ ɛ l a 
[241.135]
<no-speech> 
[247.495]
<no-speech> 
[248.155]
<no-speech> 
[250.615]
<sta> i m a ɠ e <no-speech> n i z o f i ɠ e <oov> n o kh i pʼ a u b a v u ɛ b a tʼ l u m 
[254.785]
<no-speech> 
[256.525]
m a s e n i f a ɠ e i ʃ ɔ w a h a v e ɠ u z ɔ ɓ a l a j i th i ɠ u z ɔ ɓ a n ɛ s pʼ e s i ɛ ɦ e <breath> u b a v u u j a s i ǃ ɛ d a i s i pʼ e j i s i ɠ a n tʼ i m u f a ɠ e i ʃ ɔ w a ɠ u z ɔ ɓ a l a j i th i 
[262.845]
<no-speech> 
[274.645]
<no-speech> 
[275.015]
<no-speech> 
[275.885]
<sta> h a j i ɓ o <no-speech> <oov> ɓ ɛ n z a ɠ a ɬ e a v e ɓ ɛ n z a ɠ a ɬ e <no-speech> h a j i ɓ ɛ n z a <no-speech> 
[284.975]
a w u ʃ ɛ j m i <laugh> ɛ ɦ e 
[290.785]
<no-speech> 
[292.965]
<no-speech> 
[293.325]
<no-speech> 
[296.105]
ɛ ɦ e <int> 
[298.755]
<no-speech> 
[301.065]
ɛ ɦ e <int> 
[303.965]
<no-speech> 
[307.505]
ɛ ɦ e 
[308.155]
<no-speech> 
[310.145]
<no-speech> 
[310.495]
<no-speech> 
[312.545]
ɔ ɦ o 
[313.075]
<no-speech> 
[316.775]
<int> ɛ ɦ e z i z i n i ŋ g i <int> ɠ ɔ d w a ŋ g i z o n i th ɛ l a u kh i s i m u z i j a ɓ o 
[322.045]
<no-speech> 
[323.495]
<int> m h m 
[325.025]
<no-speech> 
[329.865]
m h m 
[330.715]
<no-speech> 
[337.570]
<no-speech> 
[344.425]
u ʃ ɔ n e ɛ n e i n ʃ ɔ l e n s i 
[345.695]
<no-speech> 
[347.405]
<int> a w u ɓ a ɠ i th i a v e ɛ s ɛ ɓ ɛ n z a l o m n tʼ u w a n a j a z i j a z i j i n ɬ e i l i th e j i n i ŋ g i w o l i j ɛ n u ʤ i j u h a v e i j i n ɬ e 
[353.655]
<no-speech> 
[354.755]
i n ɬ e <int> ŋ g a ɓ ɔ n a ɠ u ɬ e j a z i ɠ u ɬ e ɠ a n ʤ a n i n a j i s i z a j a z i 
[358.395]
<no-speech> 
[359.815]
<no-speech> 
[360.995]
<no-speech> 
[364.025]
<int> ɛ ɦ e 
[365.895]
<no-speech> 
[369.345]
<no-speech> 
[370.245]
<no-speech> 
[372.075]
<no-speech> 
[372.555]
<no-speech> 
[373.875]
<no-speech> 
[374.225]
<no-speech> 
[379.365]
<sta> v ɛ s e u ǀ i ŋ g a ɠ u th i u ʤ i ɔ w a kh o u m u z i kh ɔ s i n i n a m a n tʼ ɔ m ɓ a z a n e 
[383.395]
<no-speech> 
[384.515]
ɛ ɦ e 
[386.235]
<no-speech> 
[393.685]
h a j i h a j i a ɠ a m e <breath> <sta> a ɠ a ɠ a s ɛ ɓ ɛ n z e ŋ g ɔ ɓ a ph ɛ l a ʃ u th i ŋ g ɛ n z ɛ l a n i n a <hes> n ɔ l e n tʼ u z a ɠ ɔ n ʤ e u ɓ a u m f a n a u tʼ u tʼ u ŋ g ɔ ɓ a n i n a n i s a z o j i ʃ a j a ph ɛ l a n i n i j a j i ɓ ɔ n a l ɛ j ɔ n tʼ o l ɛ j o 
[403.105]
<no-speech> 
[411.075]
ɛ ɦ e 
[411.875]
<no-speech> 
[416.365]

[417.385]
<no-speech> 
[418.825]
a ŋ g a j i ǁ i n i ɠ a kh u l u u z ɔ s a l a ɛ ŋ ɛ n a m a l i a ŋ g a j i ǁ i n i ɠ a kh u l u 
[422.655]
<no-speech> 
[426.735]
ɛ ɦ e a w u h a m b i s e ɠ u z o f u n ɛ ɠ a a kh ɔ kh ɛ l e i m ɔ tʼ o f u th i ŋ g ɛ ɠ e a j i ɛ n ʤ ɔ j e ph ɛ l a i m a l i j a kh e 
[431.815]
<no-speech> 
[437.615]
a h a a h a a h a 
[440.025]
<no-speech> 
[445.135]
j ɛ j i <laugh> e j i ɠ w ɛ l e tʼ i n i h a j i a ɠ ɛ n z e n a j e <laugh> o w u u s ɛ s ɛ ɓ e n z i l e 
[454.755]
<no-speech> 
[462.415]
m h m 
[463.195]
<no-speech> 
[465.985]
m h m m h m 
[467.655]
<no-speech> 
[472.425]
ɛ ɦ e 
[473.175]
<no-speech> 
[478.895]
ɠ u z o ɓ e <sta> u ɠ u ɓ e i n i n a n ʤ ɔ ɓ e th i a ɓ a m e ɠ u j ɔ z e u ɠ u ɓ e i n i n a ɠ u m i n a 
[482.075]
<no-speech> 
[484.665]
u j a j i ɓ ɔ n a l ɛ n tʼ o l ɛ j o ŋ g a ɓ e ŋ g i ɓ e n ʤ a n i n ʤ e i m v u l a 
[487.105]
<no-speech> 
[488.305]
o w u a v e s ɛ ɓ e <breath> m a n ʤ e <hes> u s i m ɛ n d e u ɓ u j i m a l i n i i ɓ l ɔ ɠ s l i l ɔ d w a l i ɓ e i w u m a l i n i l ɔ ɠ w ɛ n z a i l i th e j i n i ŋ g i w o l i 
[493.345]
<no-speech> 
[495.155]
<no-speech> 
[495.515]
<no-speech> 
[497.155]
<no-speech> 
[497.605]
<no-speech> 
[502.075]
ɛ ɦ e 
[502.845]
<no-speech> 
[507.935]
ɛ ɦ e ɛ ɦ e ɛ ɦ e 
[510.065]
<no-speech> 
[517.235]

[517.735]
<no-speech> 
[518.555]
a j i m a l i n i 
[519.695]
<no-speech> 
[523.975]
w a th ɛ ŋ g a a m a ŋ a ɠ i 
[525.095]
<no-speech> 
[529.435]
ŋ tʼ o 
[529.925]
<no-speech> 
[536.065]
m h m 
[536.745]
<no-speech> 
[542.805]
<no-speech> 
[543.175]
<no-speech> 
[544.585]
m h m 
[545.215]
<no-speech> 
[546.995]
m h m 
[547.685]
<no-speech> 
[549.915]
m h m 
[550.645]
<no-speech> 
[553.525]
m h m m h m n ʤ ɛ ŋ g ɔ ɓ a h a j i ǀh a 
[557.105]
<no-speech> 
[558.695]

[559.335]
<no-speech> 
[564.195]
m h m 
[564.995]
<no-speech> 
[566.145]
m h m 
[566.895]
<no-speech> 
[572.285]
<no-speech> 
[572.685]
<no-speech> 
[576.005]
m h m 
[577.035]
<no-speech> 
[577.905]
u z ɔ l o kh u e n i ǃh u ɓ a ŋ g a m a d ɔ l o ɛ ɦ e 
[580.245]
<no-speech> 
[581.955]
<no-speech> 
[582.325]
<no-speech> 
[585.515]

[586.455]
<no-speech> 
[591.525]
<breath> ŋ g ɔ ɓ a a z o j i ǃ ɔ ɠ a j a kh u m b u l a u z o j i ǃ ɔ ɠ a ŋ g ɔ ɓ a u j a j i th a n d a i z i n tʼ o e z i n ɬ e ɛ ɦ e 
[594.985]
<no-speech> 
[600.020]
