[0.000]
<sta> h ɛ l o 
[5.175]
<no-speech> 
[9.365]
<sta> ǀh a ŋ g i s ɛ tʼ e ɠ i s i n i 
[10.725]
<no-speech> 
[14.805]
<sta> h a j i ɓ o ŋ g i s ɛ tʼ e ɠ i s i n i o w u 
[16.825]
<no-speech> 
[18.885]
ɛ th e ɠ s i n i 
[20.025]
<no-speech> 
[23.775]
a w u <breath> u ɠ u g u l a ɓ a w ɛ n a 
[25.955]
<no-speech> 
[27.505]
u z o ŋ g i ɬ a ɲ ɛ l a w ɛ n a <sta> 
[30.495]
<no-speech> 
[32.085]
h a j i ɓ o <no-speech> ŋ g i j o f u n a i l ɔ n a <sta> u d a j i w a s ɛ kh a n d a ŋ g i j o f u n a u d a j i w a s ɛ kh a n d a ʤ a s tʼ i ɔ n i <no-speech> ŋ g i j o f u n a u d a j i w a s ɛ kh a n d a 
[42.695]
<no-speech> 
[45.665]
<laugh> a ŋ g a z i ɠ e <no-speech> u ɓ e f u n a n i <int> <laugh> j a n i n ʤ a n i 
[55.295]
<no-speech> 
[59.555]
<sta> u n a m a ŋ g a ɠ u ph i kh ɔ n a 
[62.295]
<no-speech> 
[66.325]
<no-speech> 
[67.495]
<no-speech> 
[68.445]
<no-speech> 
[68.845]
<no-speech> 
[71.675]
<sta> ɛ ɦ e a ɠ a j i i ɓ a n ɮ a 
[73.175]
<no-speech> 
[74.165]

[75.685]
<no-speech> 
[76.585]
<sta> u m a ɠ u f u n ɛ ɠ a a d l a j i v e ph ɛ l a ŋ g i kh ɔ n a <laugh> 
[79.815]
<no-speech> 
[82.125]
<sta> ŋ g i th i m a u m a ph ɛ l a u m a ɠ u f u n ɛ ɠ a u ŋ g a d i l a j i v i ŋ g i kh ɔ n a n ʤ e <no-speech> 
[86.635]
<no-speech> 
[93.305]
<no-speech> <sta> h a j i ɓ o u w i m ɓ i a ɠ a ʃ ɔ ŋ o ɠ a n ʤ a l o u w i m ɓ i w a ŋ g i f ɔ n ɛ l a n ʤ e ŋ g i j i ǁ a ɠ ɛ ɠ ɛ l w e j i s i s u f u th i 
[98.845]
<no-speech> 
[100.665]
<sta> w a f a n e w ɛ ɲ e w ɛ ɲ e ŋ g a ŋ g a m th a th a n ʤ ɛ ŋ g o m u n tʼ u o s i l i j a s i f u th i <no-speech> w ɛ n a w a w u ŋ g a ŋ g i f ɔ n e l i ŋ g a n i w ɛ n a 
[105.645]
<no-speech> 
[110.025]

[110.425]
<no-speech> 
[113.915]
ɔ ɦ o 
[114.785]
<no-speech> 
[115.945]
ɛ j i ɔ w u ŋ g ɛ n ɮ ɛ l a ʃ ɛ j m i <int> ŋ g i ʃ o ɠ u th i w a ŋ g a ŋ g i th a n d a ŋ g i j a ɠ u ʧʼ ɛ l a 
[121.295]
<no-speech> 
[122.705]
ɠ ɔ d w a ŋ g i j a b ɛ ɠ a ɠ e 
[124.145]
<no-speech> 
[125.185]
<sta> ɛ ɦ e 
[125.705]
<no-speech> 
[128.965]
<sta> u m ɓ ɔ n a ph i l ɛ s o s i g ɛ ɓ e ŋ u <no-speech> 
[131.225]
<no-speech> 
[132.325]
ɛ ɦ e <laugh> w a m ɓ ɔ n a ph i 
[134.365]
<no-speech> 
[137.555]
ɛ ɦ e 
[138.285]
<no-speech> 
[141.105]
<sta> u ʃ a d a ɓ a n i <no-speech> 
[143.065]
<no-speech> 
[146.035]
<int> <sta> ɔ ɦ o ɛ ɦ e <no-speech> j a m h m 
[150.995]
<no-speech> 
[152.475]
<no-speech> 
[152.935]
<no-speech> 
[153.905]
<sta> ɛ ɦ e <no-speech> 
[156.495]
<no-speech> 
[158.925]
<sta> <laugh> <no-speech> ɛ ɦ e <laugh> <no-speech> j a <laugh> 
[170.855]
<no-speech> 
[172.025]
<no-speech> 
[173.265]
a ŋ g i m a z i n a m i l o a n tʼ i <laugh> a ŋ g i m a z i ɔ ɠ w a ŋ ɛ m pʼ ɛ l a <laugh> 
[181.525]
<no-speech> 
[182.525]
<no-speech> 
[183.225]
<no-speech> 
[190.005]
<sta> ɛ ɦ e <no-speech> 
[191.245]
<no-speech> 
[196.275]
ɛ ɦ e ɛ ɦ e ph o ɓ a j a ɦ a l a j i n i <sta> 
[199.855]
<no-speech> 
[203.125]
<sta> h a j i a ɠ a z a m e ŋ g ɛ m pʼ ɛ l a 
[205.865]
<no-speech> 
[206.745]
<sta> w a th i u s i n tʼ i j a ŋ g ɛ l i ɲ e i l a ŋ a e ʃ i j i n ɮ u a ŋ g a ɠ a j i v a l i ŋ g a th i w e ɠ a n tʼ i a ɠ a ɡǃɦ ɛ ɠ ɛ z ɛ ɠ a ŋ a ɠ a ɬ e w a ʃ o m a kh ɛ l w a n e w a th i j a z i n o m u s a ŋ g ɛ m pʼ ɛ l a u ǃ i n i s i l e 
[218.255]
<no-speech> <sta> ph ɛ l a u m u n tʼ u m a ŋ g a ɓ e ɛ ŋ g ɛ kh o ʁ a j i th i u ɓ ɔ n a ŋ g ɛ ŋ g a n e i kh a l a 
[221.615]
<no-speech> 
[223.905]
<sta> m h m 
[224.755]
<no-speech> 
[226.155]
h a j i ɓ o j a z e j a n e s ɓ i ɓ i ʃ w a n a s a z e s a j o f i ɠ a l e ɛ m a n z i m tʼ o tʼ i i kh a l a 
[230.105]
<no-speech> 
[232.345]
j a j i f a ɠ w a ɔ w e n th i l e n s i n a j ɛ n z a n i n a j ɛ n z a n i <int> 
[235.245]
<no-speech> 
[236.895]
<no-speech> 
[237.715]
<no-speech> 
[238.655]
<laugh> <int> j a 
[240.965]
<no-speech> 
[242.745]
u n a m a ŋ g a 
[243.655]
<no-speech> 
[244.745]
j a kh u m u l a <int> kh ɔ n a 
[245.805]
<no-speech> 
[247.735]

[248.455]
<no-speech> 
[255.465]
ɛ ɦ e 
[256.205]
<no-speech> 
[259.085]
u n a m a ŋ g a 
[260.095]
<no-speech> 
[260.955]
<no-speech> 
[261.305]
<no-speech> 
[264.735]
m h m <sta> h a j i ɠ u l u ŋ g i l e 
[267.705]
<no-speech> 
[268.925]
<sta> o f i ɠ e ph ɛ l a n tʼ a m b a m a ŋ g i ɠ u ɓ ɔ n e ɠ a d e ŋ g a ɠ u ɡ|ɦ i n a 
[271.365]
<no-speech> 
[275.705]
m h m 
[276.425]
<no-speech> 
[280.165]
<int> <laugh> a a u n a m a ŋ g a u n a m a ŋ g a w ɛ n a u j a ɲ a m a l a l a a ŋ g i s a z i ɔ ɠ o ɠ u ɡ|ɦ i n a ɓ a ɠ u f ɔ n ɛ l a w a th i u ɠ ɛ ph i w a th i u ǃ a m b a a m a ŋ g a <laugh> 
[290.235]
<no-speech> 
[291.235]
ɠ u h a m ɓ a ɠ a n ʤ a n i ɠ w a m f ɛ j a <breath> ɠ u h a m ɓ a ɠ a n ʤ a n i ɠ w a kh o 
[294.245]
<no-speech> 
[300.495]
ɛ ɦ e <laugh> 
[303.635]
<no-speech> 
[304.515]
u n a m a <laugh> 
[307.135]
<no-speech> 
[308.615]
<laugh> h a j i ɓ o a w u f i ɠ e ɠ a d e ŋ g a ɠ u ɡ|ɦ i n a ŋ g ɛ ɠ e <laugh> 
[320.275]
<no-speech> 
[322.435]
<no-speech> 
[323.005]
<no-speech> 
[331.755]
ɛ ɦ e <no-speech> m h m 
[334.705]
<no-speech> 
[338.745]
<sta> h a j i ɓ o a j i kh o l ɛ j ɔ n tʼ o o w u 
[341.305]
<no-speech> 
[344.955]
a ŋ i s a j i f u n i 
[345.885]
<no-speech> 
[347.505]
h a j i ɓ o j o m b i s w a u kh ɔ m ɓ a ŋ g ɔ ph a ɠ a th i <laugh> ɛ j a ɠ u ɓ o j ɔ n ɠ e i m i s ɛ ɓ e n z i 
[353.705]
<no-speech> 
[354.695]
<sta> ɛ ɦ e 
[355.215]
<no-speech> 
[359.095]
<sta> h a j i ɓ o w ɛ n z a n i <laugh> a v e u ŋ ɡ|ɦ o l i l e <laugh> 
[365.585]
<no-speech> 
[368.055]
<sta> u j i ǃh u d e n ʤ e <no-speech> l o j i f u n a l a i ǃh u d e <no-speech> l o j i f u n a l a i ǃh u d e <no-speech> 
[373.835]
<no-speech> 
[375.465]
<sta> h a ɓ e ɓ ɛ ŋ g i f u n a l a 
[378.045]
<no-speech> 
[379.255]
s a l s 
[380.005]
<no-speech> 
[381.365]
<sta> h a j i ɓ o <no-speech> ɠ w a ʃ u ɠ u th i n ʤ e u m s a ɓ a n i ɠ e <no-speech> u m a m a u m s a ɓ a n i <no-speech> o w u 
[387.225]
<no-speech> 
[394.455]
<sta> ɛ ɦ e <laugh> <laugh> <int> h a j i a s a z i 
[402.605]
<no-speech> 
[404.055]
<no-speech> 
[404.535]
<no-speech> 
[405.565]
<no-speech> 
[405.925]
<no-speech> 
[407.225]
<int> 
[409.015]
<no-speech> 
[410.375]
<no-speech> <sta> a ŋ g a z i ɠ ɔ d w a u th i a j i ɓ i z i <no-speech> a w u u j a z i ŋ g ɔ m ʧʼ ɛ l a a ɠ u z w ɛ l e ŋ g ɛ m pʼ ɛ l a 
[415.305]
<no-speech> 
[417.435]
<no-speech> 
[417.845]
<no-speech> 
[421.615]
<sta> a ŋ g i s a z i j i n tʼ o ɛ n ʤ a n i ɠ e l ɛ j o 
[423.725]
<no-speech> 
[426.605]
<no-speech> <sta> <no-speech> j i n i a ɠ a s a f u n i j i n i 
[429.645]
<no-speech> 
[434.705]
a w u u n a m a ŋ g a 
[436.125]
<no-speech> 
[437.725]
<sta> ɛ j i ǀh a <int> ŋ g ɛ ɠ e h a j i o f i ɠ e s i z ɔ ǁ ɔ ǁ a <laugh> 
[443.335]
<no-speech> 
[445.515]
ɛ ɦ e 
[446.095]
<no-speech> 
[449.385]
<sta> i kh ɔ n a l a l ɛ l a l ɔ j a u m g o d i <int> ɛ ɓ e ŋ g i z w a ɠ u th i w a u u a ŋ g a z i n ɔ m a u s a ɓ i s a i ŋ g a n e j i n i <int> ɠ u th i w a u d a j i s a u m u z i ŋ g ɛ ɠ e a ɠ w a z i u ɠ u w a d a j i s a l ɔ j a u m u z i 
[457.765]
<no-speech> 
[461.105]
u j a ɠ u s a ɓ i s a 
[462.425]
<no-speech> 
[463.645]
m i n a ɠ e i n tʼ o ŋ g i f u n a u ɠ u j a ph ɛ z u l u l a ph a ŋ g i j o z i z w ɛ l a m i n a ŋ g i f u n a u ɠ u j ɔ l a n d a n e z i m pʼ a ɬ a z i ɠ a m pʼ u m e ɠ e ɠ e l ɔ ʃ l a m a a th i u j a d a j i s a a d a j i s e a j ɛ ɠ e j ɔ n ɠ e l ɛ j a m pʼ a ɬ a ŋ g ɔ ɓ a a ɠ a n a l u th o v ɛ l e 
[475.415]
<no-speech> <sta> ŋ a f i ɠ e ŋ g a f i ǀ a a ɓ a ɲ e ɔ b a l a ɠ a ǁ a n e n ʤ e e ŋ g i ŋ g a ɓ a z i a ɓ a ɓ ɛ ɡ|ɦ w ɛ l e l a ph a n a b ɛ ɠ e kh ɔ n a 
[485.875]
<no-speech> 
[487.285]
ɔ ɦ o a m b e ɛ ɦ e ɛ ɦ e <int> s e ŋ i j a kh u m b u l a s a s i h a m ɓ a n a w e h a j i ɔ w u u j a ɲ a ɲ a s a l ɔ j a n a 
[495.215]
<no-speech> 
[496.795]
m a j i ŋ g a ph a ɠ a th i l ɔ n a <no-speech> ɛ j a j i ŋ a ph a ɠ a th i ɠ u s a l a f i n a <no-speech> 
[502.205]
<no-speech> 
[503.275]
<sta> w e ɔ w u <no-speech> ŋ g i ǀ ɛ l a u ɠ u ɠ u ʧʼ ɛ l a ɠ u th i ŋ g i s e ɓ l i ʤ i s i th i m a n ʤ e ŋ g i ǀ ɛ l a u ɓ u j e u ŋ g i f ɔ n ɛ l e a ŋ g i f u n i m a n ʤ e l o m i n a 
[511.425]
<no-speech> 
[518.335]
ɛ ɦ e 
[518.855]
<no-speech> 
[522.905]
ɔ ɦ o ɔ kh ɛ j i <sta> u ŋ g a f u n i a ŋ g a z i u ɠ w ɛ n z e n ʤ a n i l u v a l e u ǀ i ŋ g o <laugh> ŋ g i ʃ o ŋ g i s a l i ɓ a m ɓ a a ŋ g a z i ɠ u th i w a u m a <sta> f u n a u ɠ w ɛ n z a n ʤ a n i l u v a l e n ɔ ɓ a u z ɔ ǃ ɔ ʃ w a <laugh> <breath> o w u m a ŋ g i v ɛ s a n e ŋ g a ɬ ɛ ɠ a ɠ a ŋ ǀ a n e ŋ g a th i h a j i a ŋ g i s a z i 
[545.595]
v i kh i <int> 
[547.405]
<no-speech> 
[548.445]
m h m <no-speech> <sta> h a j i ɓ a n ɮ a ɠ e <no-speech> w ɛ n z a n i ph o l o m kh u ph u l o ɔ j a ph e z u l u <breath> ɛ ɦ e 
[554.955]
<no-speech> 
[556.095]
i m i kh u kh u l a ph ɛ z u l u 
[557.515]
<no-speech> 
[559.445]
<sta> j a z i m kh u kh u w a ph e z u l u f a n ɛ l e u ʃ a j e ɛ ŋ g a th i u ɓ a <no-speech> f a n ɛ l e u ʃ a j e ɛ ŋ g a th i u w ɛ n a j a z i m kh u n ɠ u l u w a ph e z u l u <no-speech> <laugh> 
[565.305]
<no-speech> 
[566.775]
<sta> u n a m a ŋ g a 
[568.845]
<no-speech> 
[569.815]
ŋ g i th i m i n a u ʃ a n i n i v ɛ l e ɛ kh ɔ n a ɔ m n ǀ a n e <sta> ɛ ɦ e <no-speech> <int> h e a s a z i ɠ e ɓ a j a j i tʼ i ɠ a n ʤ e ɓ a j a j i tʼ i ɠ a n ʤ e 
[581.685]
<no-speech> 
[582.545]
<no-speech> m h m 
[584.385]
<no-speech> 
[585.935]
ɛ ɦ e <sta> <no-speech> h a j i ɓ o ɔ w u j i n tʼ o ɛ z o th i w a n i ɠ ɔ d w a l ɛ n a <no-speech> j i n tʼ o ɛ z o th i w a n i 
[592.285]
<no-speech> 
[596.135]
<sta> a w u l i n d i w e <no-speech> m h m w a z i w a v ɛ l ɛ l w a <no-speech> 
[600.340]
