[0.000]
<no-speech> 
[9.477]
<no-speech> 
[18.955]
<sta> h ɛ l o 
[19.535]
<no-speech> 
[22.115]
ɠ u l a j i th i m f ɔ w ɛ th u h a w s i th 
[23.245]
<no-speech> 
[24.485]
j ɛ s i ɓ a ɓ a 
[25.145]
<no-speech> 
[26.015]
j a <int> j a 
[26.815]
<no-speech> 
[28.635]
u ɠ u ph i 
[29.205]
<no-speech> 
[32.385]
j ɛ s i 
[33.085]
<no-speech> 
[40.905]
ʁ a j i th i 
[41.655]
<no-speech> 
[43.855]
j ɛ ɓ o 
[44.425]
<no-speech> 
[47.445]
j a j a 
[48.545]
<no-speech> 
[52.475]
m h m 
[53.065]
<no-speech> 
[53.945]
<no-speech> <sta> n ɔ w u a j i a m u l i s n i ŋ th u j u ɠ u f a n ɛ l e u th i <no-speech> ɠ u f a n ɛ l e ɠ e u g u ɮ u ɠ e ɠ u l ɛ n d a w o <oov> ɠ u j ɔ n a ɠ a ŋ ǀ a n e <no-speech> u j ɛ z w a 
[59.655]
<no-speech> 
[61.305]
<sta> j a g u ɮ u ɠ a ɠ a ŋ ǀ a n e <no-speech> j a 
[63.545]
<no-speech> 
[66.005]
<sta> j a ǃh u ɓ ɛ ɠ a ɠ e 
[67.295]
<no-speech> 
[76.195]
j a j a j a 
[77.435]
<no-speech> 
[83.955]
<sta> ʁ a j i th i 
[84.475]
<no-speech> 
[88.475]
<no-speech> 
[88.825]
<no-speech> 
[92.045]
<sta> ɔ kh ɛ j i 
[92.815]
<no-speech> 
[104.495]
ʁ a j i th i 
[105.025]
<no-speech> 
[110.300]
