[0.000]
<no-speech> 
[5.145]
j a m u ŋ g a n i 
[6.065]
<no-speech> 
[8.835]
u n ʤ a n i 
[9.885]
<no-speech> 
[11.245]
h a j i <no-speech> ŋ g i j a ph i l a ŋ g i kh ɔ n a m u ŋ g a n i w a m i u w ɛ n a ɔ ŋ g a s a z i w a 
[15.925]
<no-speech> 
[17.325]
<no-speech> 
[17.795]
<no-speech> 
[19.425]
ɛ ɦ e 
[19.955]
<no-speech> 
[27.845]
u ɓ a n i 
[28.635]
<no-speech> 
[35.915]
<no-speech> 
[43.195]
a j ɓ o u s i n e w a ɠ u ph i l ɔ w o 
[44.965]
<no-speech> 
[47.995]
ɔ ɦ o u u l o kh u n ʤ a u u u s i ɓ o 
[51.235]
<no-speech> 
[54.245]
<no-speech> 
[55.255]
<no-speech> 
[64.545]
o w u <oov> <int> ʧʼ ɛ l a ŋ g a n ʤ e 
[66.395]
<no-speech> 
[69.965]
o w u w a w a w u s a m kh u m ɓ u l a n i i g a m a 
[72.535]
<no-speech> 
[81.760]
<no-speech> 
[90.985]
<sta> m h m ɔ ɦ o ɔ kh ɛ j i ɠ u ŋ ɡ|ɦ ɔ n o ɠ e ŋ g ɔ ɓ a w a m u th ɔ l a n a m i ŋ g i th i h a j i a w u th i ŋ g i ɠ u f ɔ n ɛ l e ŋ g ɔ ɓ a a ŋ g i s a ɠ w a z i ɠ a d e ŋ g a ɠ u ɡ|ɦ i n a s ɛ w a ŋ g i l a ɬ a w a th ɔ l a a ɓ a ŋ g a n i a ɓ a ʃ a ŋ g a l a ph o 
[101.645]
<no-speech> 
[103.535]
<no-speech> 
[103.895]
<no-speech> 
[109.645]
<laugh> n a m i ŋ g ɔ ɓ a s e ŋ g i th i a w u th i ŋ g i ɠ u f ɔ n ɛ l e n ʤ e s i z ɔ ǁ ɔ ǁ a 
[113.585]
<no-speech> 
[117.135]
h a j i ɠ u j a n ǀ ɛ ŋ g ɛ ɠ a m z a l a <sta> i m pʼ i l o i j a n ǀ ɛ ŋ g ɛ ɠ a w ɛ n a 
[121.275]
<no-speech> 
[123.045]
w ɛ n a 
[123.835]
<no-speech> 
[124.755]
u ph i l ɔ w a m u n tʼ u w a kh o 
[125.995]
<no-speech> 
[130.335]
w a <no-speech> <sta> w a h a m b a n ʤ e ɠ a n ʤ a l o 
[132.905]
<no-speech> 
[140.120]
<no-speech> 
[147.335]
u n o m u ɲ e 
[148.245]
<no-speech> 
[149.805]
<sta> u n o m u ɲ e 
[150.685]
<no-speech> 
[158.865]
<no-speech> 
[160.365]
<no-speech> 
[166.175]
ɛ ɦ e 
[166.775]
<no-speech> 
[171.365]
<sta> j ɛ j i <no-speech> j a z e j a b ɛ d a 
[176.815]
<no-speech> 
[182.475]
<sta> j i n i 
[185.435]
<no-speech> 
[191.985]
ɔ ɦ o m h m u ǃ i n i s i l e <sta> <no-speech> i j a <oov> i j a ʃ a j a n a j o 
[197.035]
<no-speech> 
[203.845]
<no-speech> 
[210.655]
w e <int> 
[211.665]
<no-speech> 
[213.305]
<sta> i n tʼ ɔ m b a z a n e ʃ u th i j a s u ɠ u m a <no-speech> 
[216.225]
<no-speech> 
[224.895]
<no-speech> 
[233.565]
<sta> h a j i w ɛ n z a ɠ a ɬ e o 
[235.055]
<no-speech> 
[236.285]

[237.205]
<no-speech> 
[239.275]
a w u 
[240.645]
<no-speech> 
[247.960]
<no-speech> 
[255.275]
w ɛ n z a n ʤ a n i w ɛ n a w a m u ǁ ɔ l ɛ l a <int> 
[257.665]
<no-speech> 
[259.635]
a w u <sta> s u ɠ a n a w e 
[261.165]
<no-speech> 
[262.195]
<sta> w a ph i n d e <oov> w a ph i n d e f u th i w ɛ n z a i n tʼ o z a kh e 
[264.795]
<no-speech> 
[268.135]
<sta> w e a h a 
[269.745]
<no-speech> 
[277.840]
<no-speech> 
[285.935]
<no-speech> 
[286.285]
<no-speech> 
[290.355]
o w u ŋ g ɛ ɠ e <oov> <no-speech> <oov> j a j i g a ŋ g i l e i n tʼ ɔ m b a z a n e ɔ w u 
[294.365]
<no-speech> 
[303.375]
ɛ ɦ e 
[304.525]
<no-speech> 
[308.185]
o w u w ɛ n z e n ʤ a n i 
[309.805]
<no-speech> 
[317.350]
<no-speech> 
[324.895]
<sta> a w e m a 
[325.825]
<no-speech> 
[332.585]
<no-speech> 
[339.345]
a w e m a 
[340.325]
<no-speech> 
[346.265]
a j i <no-speech> <oov> w a j ɛ n e n ɠ i ŋ g a o 
[349.315]
<no-speech> 
[359.028]
<no-speech> 
[368.742]
<no-speech> 
[378.455]
m h m 
[379.045]
<no-speech> 
[387.200]
<no-speech> 
[395.355]
<no-speech> 
[395.715]
<no-speech> 
[399.315]
<no-speech> 
[399.885]
<no-speech> 
[409.095]
<no-speech> 
[418.305]
<no-speech> 
[427.515]
o w u 
[428.135]
<no-speech> 
[435.905]
m h m 
[436.655]
<no-speech> 
[441.915]
o w u ɔ w u <no-speech> <int> ɔ ɦ o <laugh> 
[444.795]
<no-speech> 
[446.155]
ɛ ɦ e 
[446.765]
<no-speech> 
[458.375]
a w u <no-speech> 
[468.300]
<no-speech> 
[477.545]
<no-speech> 
[486.790]
<no-speech> 
[496.035]
a w u 
[496.675]
<no-speech> 
[508.520]
<no-speech> 
[520.365]
a h a 
[520.895]
<no-speech> 
[526.165]
m h m 
[526.895]
<no-speech> 
[532.465]
ɛ ɦ e <int> w a th i 
[533.335]
<no-speech> 
[540.435]
<no-speech> 
[547.535]
<no-speech> 
[547.925]
<no-speech> 
[555.975]
w e u s a z o ph i n d a f u th i u m u ǁ ɔ l ɛ l e 
[558.275]
<no-speech> 
[561.535]
a w u o u ŋ g a <no-speech> u ŋ g a ɓ e u s a m u ǁ ɔ l ɛ l a m a n ʤ e 
[564.335]
<no-speech> 
[565.455]
h a j i <no-speech> 
[567.985]
h a j i i n tʼ o ɛ ŋ g ɛ kh o u j a ɠ u ɓ a m ɓ ɛ z ɛ l a <no-speech> <sta> ɓ a n i ŋ g i ph ɛ l a a ɓ a ɠ u d i ŋ g a j o 
[572.465]
<no-speech> 
[573.265]
j a <int> u j a ɓ ɔ n a ɠ u th i u j a m u th a n d a j i ŋ g a kh o ɛ ɠ w ɛ n z a i s i l i m a 
[576.555]
<no-speech> 
[586.765]

[588.045]
<no-speech> 
[597.995]
a ɓ a n tʼ u <int> <oov> ʁ a j i th i 
[599.065]
<no-speech> 
[600.060]
