[0.000]
<no-speech> 
[0.185]
<int> a w u h a j i 
[3.195]
<no-speech> 
[4.085]
<no-speech> <sta> ɠ u ʃ u th i v ɛ l e i n tʼ o e w u m u s i ǀ a n a <no-speech> 
[8.085]
<no-speech> 
[9.105]
<int> i j a u n ʤ a n i h ɛ l o n i o n i h a m ɓ e ɠ a ɬ e ɛ m e m u l w e n i 
[18.165]
<no-speech> 
[21.245]
ɠ a d e ŋ g i ɠ u z a m a ŋ g i ɠ u f ɔ n ɛ l a a j i i n ɛ th i w ɛ kh i a j i kh o j i n i 
[25.425]
<no-speech> 
[31.485]
o <no-speech> 
[34.455]
ɛ ɦ e 
[35.235]
<no-speech> 
[38.035]
ɔ ɦ o ŋ g a s e ŋ g i d i ŋ g a <int> ph ɛ l a ɠ u th i ɠ w ɛ n z e n ʤ a n i w a j i th ɔ l a ɠ e i m ɛ s e ʤ i j e ŋ g u ɓ o j ɛ n d a ɓ a j e z i ŋ g u ɓ o 
[46.745]
<no-speech> 
[47.635]
i m a l i i s i kh ɔ n a <int> i m a l i i s i kh ɔ n a u s u ɠ e w a ɓ a ɓ ɔ n a 
[52.145]
<no-speech> 
[57.425]
ɔ ɦ o 
[59.105]
<no-speech> 
[61.725]
<int> ŋ g i ǀ ɛ l a u z i f a ɠ e u s a w o tʼ i ɠ e ɓ a n ɮ a u m a u z i w a ʃ a kh ɔ n a z i ŋ g ɛ ɠ e z i ph u ph e 
[67.605]
<no-speech> 
[71.135]
<int> a w u s a g o d u ɠ i j i n i i z ɔ ph a th w a u ɓ a n i 
[74.725]
<no-speech> 
[76.515]
<no-speech> 
[76.905]
<no-speech> 
[78.335]
ɔ ɦ o u z o z i ph a th a w ɛ n a ŋ g ɛ w i kh ɛ n d i 
[81.225]
<no-speech> 
[86.975]
<no-speech> 
[87.335]
<no-speech> 
[88.295]
kh ɔ n a ŋ g i z o j i l u ŋ g i s a <int> a ŋ g i ɠ u <oov> ŋ g i ǀ ɛ l a u ŋ g i ph i n d ɛ l e ph ɛ l a a w u z w a ɠ a l i n ʤ ɛ ŋ g ɔ ɓ a u h ɔ ʃ ɔ z a n ʤ e 
[94.475]
<no-speech> 
[97.045]
ŋ g i z e l a ph o <int> j a 
[99.035]
<no-speech> 
[101.445]
n i l u ŋ g i s e <int> ɔ ɦ o <oov> ŋ g i j ɔ z a m a ɠ e j i z e ŋ g i n e n ɠ i ŋ g a n ʤ e j o ɠ u h a m b a ph ɛ l a m e ŋ g i h a m b a ŋ g i h a m b a n ɔ m ɬ o n i ʃ w a ɠ u l e z i n s u ɠ u ɠ ɔ d w a ŋ g i j ɔ z a m a 
[111.525]
<no-speech> 
[112.745]
<int> ŋ g i j ɔ z a m a ɠ u th i ŋ g i z e 
[114.605]
<no-speech> 
[117.465]
<sta> i z o ŋ g i f a n ɛ l a n ʤ e n ʤ e ŋ g i m ɲ a m a n ʤ e m i n a <no-speech> 
[120.945]
<no-speech> 
[122.745]
<int> e s i n ʤ a n i h a j i ɓ o ŋ g i ŋ g a ɡǃɦ ɔ ɠ a <oov> o u ʃ ɔ l o f o u m ʃ a d o o 
[131.755]
<no-speech> 
[132.845]
<int> ɠ ɔ d w a ph ɛ l a ŋ g i m u ɲ a m a m i n a u m ɓ u z o u th i i n tʼ o e ɔ l e n ʤ i i z o ŋ g i f a n ɛ l a j i n i ph ɛ l a w ɛ n a u m pʼ o f u 
[138.835]
<no-speech> 
[141.725]
o <int> i j ɔ n a l e e ŋ g i z o j i th ɔ l a ŋ g ɔ l w e s i n e i l ɛ j o 
[146.495]
<no-speech> 
[147.765]
ɔ ɦ o <int> h a j i n i j ɛ n z e i ɓ e j i n ɬ e ɠ e ɓ a ɠ i th i n ɔ m a i ŋ g a f a n a n a l ɛ j a j a kh o n ʤ e ɠ ɔ d w a ph ɛ l a l ɛ j a j a kh o ɔ w a w u j i ɡǃɦ ɔ ɠ e l a ph a ɛ m ʃ a d w e n i 
[158.715]
<no-speech> 
[160.785]
<no-speech> <sta> ɠ ɔ d w a ph ɛ l a n ɔ th i <no-speech> 
[163.895]
<sta> ɔ ɦ o i n d w a ŋ u j a m a ɠ w ɛ l ɛ ɠ w ɛ l e v ɛ l e 
[165.675]
<no-speech> 
[170.555]
<int> ɔ ɦ o h a j i 
[172.575]
<no-speech> 
[174.185]
<no-speech> <sta> h a j i ɠ ɔ d w a ŋ g i j a w u s a ɓ a u ɔ l e n ʤ i ʤ e s u n ʤ e ŋ g i m u ɲ a m a ɠ a n ʤ e <no-speech> s e ŋ g i j ɔ ɓ e ŋ g i w u ŋ ɡǃɦ a <no-speech> h a j i ŋ g i s u th i ŋ g i j ɔ v ɛ l e ŋ g i ɡǃɦ ɔ ɠ e ɔ ph a ǃ a ɓ ɛ w e ʤ i ŋ g ɛ ɠ e ŋ g i ɠ w a z i <sta> l a ph a ɠ w a m g a j i ŋ g a l a m a ǃh o ɠ i s i a ʃ ɔ n a ph a n s i a th i ʧʼ ɔ f o ɠ u ŋ ɡ|ɦ ɔ n o ɠ u ŋ ɡ|ɦ ɔ n o u ɡǃɦ ɔ ɠ e l ɛ j a w e ʤ i e ɠ l i m u w a j th i j a j i ɓ ɔ n a l e i i i i e j i s e n d i l i l a j kh i 
[197.105]
<no-speech> 
[199.115]
<int> ɔ ɦ o ɓ ɛ s e ɠ e ʃ u th i l ɛ z e z i ɲ e ŋ g i z e ŋ g i z i th ɔ l e ɠ a ɲ e z i z e z i f i ɠ e n a m i ŋ g ɛ w i kh ɛ n d i 
[206.505]
<no-speech> 
[208.715]
<int> ɔ ɦ o 
[210.695]
<no-speech> 
[214.265]
j i ph i l ɛ j ɛ ɠ w ɛ ʁ ɛ ɠ w ɛ l e n ɔ m a ɛ ɲ e <int> l e ɛ j a j i m f i ʃ a n e 
[218.525]
<no-speech> 
[219.785]
<int> a h a <oov> <laugh> i j ɔ n a e ŋ g i j i ʤ a h e ɠ a kh u l u u ɠ u j i ɓ ɔ n a ɠ u th i ɠ a z i i z o l u ŋ g i ɓ ɛ n ʤ a n i m h m a ɠ u n a l u th o ɠ e a ɠ u n a l u th o ɠ e ɓ e ŋ g i j i l e n a m i n a m ɬ a n ʤ e <int> e j u n i s a ŋ g i th i ŋ g i j ɔ z a m a l ɛ n tʼ o j a m i ŋ g ɔ ɓ a ph ɛ l a a ɓ a ɲ e ɓ a th e ɛ n e a ŋ g i ɡ|ɦ w a l i s e i f o m u u m a ŋ g i j a l a ph a u s i ǀ ɛ l o a ɠ a j a z i n a l ɛ n tʼ o ɠ ɔ d w a ɠ u kh ɔ n a i f o m u a ŋ i n i ɠ e l ɔ n a <int> ŋ g a h a m b a ŋ g a j a ɛ m a ph o j i s e n i <oov> <oov> <oov> ŋ g a b a l a i a f i d a v i th i ŋ g a f a ɠ s a a ŋ g a z i a ŋ g a z i ɠ e ɠ u th i i s i ph ɛ th o 
[254.745]
<int> e s i z ɔ ɓ a j i n i n ɔ m a ɓ a z o l i s pʼ ɔ n d a n ɔ m a ŋ g ɛ ɠ e <no-speech> 
[260.235]
a ŋ g i z w a 
[260.795]
<no-speech> 
[264.505]
<no-speech> 
[265.405]
<no-speech> 
[266.845]
h a j i a ŋ g a z i ph ɛ l a m a n ʤ e a ɓ a n tʼ u ɓ a ŋ g i ʧʼ ɛ l a j o n ɠ i n tʼ o <int> ɔ m u ɲ e u ʃ o l ɔ kh u ŋ g i ɠ w ɛ n z e ŋ g ɔ ɓ a a ŋ g i f u n i u ɠ u kh a l a m ɛ s e ɠ u s e ɠ u ŋ g a s a ph u m ɛ l e l i u m u n tʼ u u ʃ o l ɔ kh u ŋ g i ʃ ɔ n e kh ɔ n a 
[277.775]
u ʃ o l ɔ kh u ŋ g ɔ ɓ a n a l o kh u <oov> ɠ w ɛ kh ɔ n s e ʃ i n i <int> ŋ g i z ɔ ɠ u f ɔ n ɛ l a f u th i m e ŋ g i ɓ u j a ɛ kh a j a n ʤ e n g ɔ ʤ a n u w a l i ŋ g i j a ɠ u f ɔ n ɛ l a w ɛ n a l u th o u s a s a ɓ a n a m a n ʤ e n ʤ e u s a s a ɓ a n a m a n ʤ e <int> <laugh> a v e ɓ ɛ ph a s i l e ŋ g i ɠ u ʧʼ ɛ l ɛ l e a ɓ a n tʼ u m ɬ a m pʼ e n a w e ɠ u h a m ɓ e ɠ a ɬ e 
[297.385]
<no-speech> 
[298.955]
<laugh> <int> h a j i h a j i ɓ a ph a s i l e i m pʼ ɛ l a n ʤ e n a ŋ g a z u th i ɠ u ɓ u ɠ i s w a ŋ g a m i <laugh> 
[310.465]
<sta> ɠ u j a b u ʤ w a a w u ɠ u th e n i m i n i th i w ɔ n ɠ e <no-speech> u i m a ɠ e ɠ e m a n ʤ e w ɛ n a n i ǀ a ɓ a ŋ g a u ɠ u g o d u ɠ a n i n i ph ɛ l a m i n a ŋ g a ǁ a ɠ w a u m e th i u ɓ a ɓ a m ɬ o n i ʃ w a w ɛ n a u th e 
[322.005]
i z i ŋ g a n e z i g o d u ɠ a ŋ g ɔ m s ɔ m b u l u ɠ o <int> ŋ g a ǁ a ɠ ɛ ɠ a ɠ u th i u m th a th a ph i l o <breath> u g o d u ɠ i l e 
[328.845]
<no-speech> 
[330.255]
<int> w a th i u z w e ŋ g a w e ɠ u th i <breath> ŋ g i th i m i n a h a j i ɓ o i z i ŋ g a n e m i n a ŋ g a z i ɠ u th i z i z ɔ g o d u ɠ a ɠ a ɲ e n a j e ŋ g ɛ w i kh ɛ n d i ŋ g ɔ ɓ a ph ɛ l a a ɠ ɛ kh o u m u n tʼ u ɔ ŋ g a h a m b i s a i z i ŋ g a n e j ɛ n a ɛ s ɛ l e e m u m v a w a th i h a j i u th e w ɛ n a i z i ŋ g a n e <sta> h a j i a ŋ g i ɠ w a z i ɠ e l ɔ kh o ŋ g i j a ǁ a ɠ ɛ ɠ a f u th i ŋ g ɔ ɓ a u m th ɔ ɠ o ɓ e ŋ g i ǀ a th u m ɬ a m pʼ e u l a z i z ɔ b ɔ l ɛ ɠ a z ɔ d w a l a ph a ɔ ɦ o z i l a z i z ɔ z e z i h a m ɓ e n a j e <no-speech> 
[351.935]
<no-speech> 
[357.605]
<int> o h a j i ɓ o u m u n tʼ u w a m u ɡ|ɦ i n a n i n i ɔ ɦ o w ɛ m a u z ɔ f i ɠ a a b ɔ l ɛ ɠ e a ɠ u kh ɔ w a <breath> u z ɔ f i ɠ a a b ɔ l ɛ ɠ e a ɠ u kh ɔ w a a ɠ u kh o m i n a a ɠ u kh o l u th o <no-speech> ɛ ɦ e 
[367.665]
<no-speech> 
[370.605]
<int> ɛ ɦ e 
[372.775]
<no-speech> 
[374.035]
<sta> ɔ ɦ o <no-speech> a w u u ɓ ɛ ŋ g a m u g ɛ z a j ɛ n a u l u ph ɛ l a 
[379.915]
<no-speech> 
[381.915]
a h a <int> 
[382.635]
<no-speech> 
[383.965]
<int> ɔ ɦ o <oov> ɔ ɦ o h a j i ɠ u j a a n d a s tʼ ɛ n d ɛ ɠ a ɠ e a l i s a th e l i ph ɛ l a i ǁ ɛ ʃ a l a <laugh> h a j i l ɔ ŋ s tʼ o l i ŋ g i z o ɠ u ǁ ɔ ǁ ɛ l a s e ŋ g i ɠ u ɓ ɔ n a 
[395.865]
<int> <laugh> h a j i w ɛ n a u ŋ g a j i v a l i h a j i ɓ o f a n ɛ l e ɠ u z e ŋ ɡǃɦ a m u ɠ e <laugh> m a n ʤ e ǁ ɔ ǁ a ph ɛ l a n a w e <laugh> 
[407.445]
<sta> ɛ ɦ e <no-speech> <laugh> n a m i a ŋ g a z i <no-speech> 
[414.245]
<no-speech> 
[415.125]
<int> <laugh> j i n d a ɓ a ɛ ɦ e 
[419.495]
<no-speech> 
[420.375]
<int> <no-speech> 
[423.585]
h a j i ɓ o u <int> u g u l e n i n i u ǀ e ɓ i l e j a 
[432.435]
<no-speech> 
[435.085]
<int> h a m a a w a ɠ e ph i l a w ɔ m a n tʼ ɔ m ɓ a z a n e a w a ɠ e ph i a a v e u n a m a ŋ g a <laugh> 
[447.055]
<int> <laugh> i m a ɠ e <oov> <laugh> u n a n i u ǀ e ɓ i l e 
[451.785]
<no-speech> 
[452.915]
ɔ w ɔ n a <laugh> h a j i ǃh u ɓ ɛ ɠ a <laugh> <breath> a w u w ɛ n tʼ o m b i 
[458.105]
<no-speech> 
[459.165]
<no-speech> 
[460.715]
<no-speech> 
[463.225]
<laugh> ŋ g i l a l ɛ l e ph ɛ l a 
[466.665]
<no-speech> 
[470.715]
ɛ ɦ e <int> ɛ ɦ e 
[472.645]
<no-speech> 
[479.705]
<int> ɛ ɦ e 
[480.485]
<no-speech> 
[484.465]
h a j i ɓ o <int> ɠ a n tʼ i i n tʼ o ɛ kh ɔ n a ŋ g ɛ m pʼ ɛ l a j i n i l ɛ j o ɠ a n tʼ i i n tʼ o ɛ kh ɔ n a ŋ g ɛ m pʼ ɛ l a j i n i h a j i ɓ o 
[489.965]
<no-speech> 
[491.135]
<sta> j a 
[491.685]
<no-speech> 
[496.265]
<sta> o w u <no-speech> 
[497.305]
<no-speech> 
[500.925]
<int> ɛ ɦ e 
[504.435]
<no-speech> 
[508.775]
<int> i ɛ j a kh o l e e ŋ g i j a z i j o l e e ŋ g i j a z i j o 
[512.255]
<no-speech> 
[513.465]
j a <int> j a ɛ ɦ e 
[515.905]
<no-speech> 
[516.825]
<no-speech> 
[517.715]
<no-speech> 
[519.915]
<int> m h m 
[523.285]
<no-speech> 
[524.575]
<no-speech> 
[527.935]
<no-speech> 
[529.385]
<int> ɛ ɦ e 
[530.695]
<no-speech> 
[534.305]
<no-speech> 
[534.675]
<no-speech> 
[537.695]
<no-speech> 
[540.675]
<no-speech> 
[541.755]
<int> m h m 
[544.055]
<no-speech> 
[546.145]
<no-speech> 
[548.615]
<no-speech> 
[550.395]
<laugh> <int> h a j i ɓ o w ɛ n a 
[554.895]
<no-speech> 
[557.345]
<int> m h m 
[560.375]
<no-speech> 
[561.945]
<no-speech> 
[562.525]
<no-speech> 
[563.995]
<int> h a ɓ e m a n ʤ e u z ɔ ŋ g a j i d a j i s i u th i n i 
[566.105]
<no-speech> 
[570.865]
<sta> o w u <no-speech> h a m a ʤ e s u <no-speech> 
[574.165]
<no-speech> 
[579.485]
ɛ ɦ e <int> 
[581.105]
<no-speech> 
[583.615]
<no-speech> 
[584.085]
<no-speech> 
[586.115]
<int> a j i i ʃ a w a u ɓ a n i i ɓ ɔ n a n ɔ m a u w ɛ n a m a n ʤ e <oov> j a 
[597.585]
<no-speech> 
[600.020]
