[0.000]
<no-speech> 
[1.305]
<no-speech> 
[1.655]
<no-speech> 
[3.495]
<no-speech> 
[3.855]
<no-speech> 
[7.235]
<sta> i s a kh u l u m a w ɛ ɓ o ŋ g i <no-speech> 
[8.975]
<no-speech> 
[11.165]
<no-speech> 
[11.555]
<no-speech> 
[13.745]
<sta> o l u ɬ e <no-speech> h ɛ l o 
[19.355]
<no-speech> 
[20.705]
<int> <sta> j a w ɛ m a ʤ a z i 
[23.075]
<no-speech> 
[32.355]
ɛ j i n ɠ ɔ s i j a m i ŋ g ɔ ɓ a m a n ʤ e m i n a i ǀh a s i z ɔ th a th a th ɛ n i m i n i th s i ɠ u ph ɛ l a 
[35.915]
<no-speech> 
[40.445]
<int> ɛ j a ɠ a v ɔ d a kh ɔ m 
[41.615]
<no-speech> 
[43.795]
<int> <sta> kh u l u m a l a n a 
[45.615]
<no-speech> 
[47.825]
<int> kh u l u ǀh a kh u l u m a l a n a ɠ u th i s i z o ɓ u j e s i m f ɔ n ɛ l e ɠ u kh ɔ n a i n tʼ o e ŋ g i j i ʤ a h i l e kh ɔ n a i f o m u e ŋ g i j i ɡ|ɦ w a l i s a j o ŋ g a w e 
[52.845]
<no-speech> 
[54.715]
<int> ɛ ɦ e ɠ u n ʤ a n i ɠ e 
[56.025]
<no-speech> 
[58.595]
<int> ɛ ɦ e h a j i h a j i ɠ u th i ɔ kh ɛ j i ʃ o u j a n i n i ɛ m a ǀh w ɛ ɓ e n i 
[61.685]
<no-speech> 
[64.105]
<int> <sta> ɔ ɦ o kh ɔ n a m a n ʤ e ɠ u th i i l ɛ n tʼ o ɛ ŋ g i f u n a u ɠ u j i l o kh u z a l a ŋ g i f u n a u ɠ w ɛ n z a th ɛ n i m i n i th s i ɠ u ph ɛ l a ɓ e ɓ e ɓ e ɓ ɛ s e ɓ ɛ j a ʃ o ɠ e j i ŋ g a kh o n ʤ e ŋ g i f u n a u ɠ u ǁ ɔ ǁ a n a w e u th ɛ n i m i n i th s i j a 
[75.315]
<no-speech> 
[76.865]
<int> ɛ ɦ e 
[77.515]
<no-speech> 
[83.805]
ɛ ɦ e 
[85.055]
<no-speech> 
[87.925]
<int> j a ph ɛ l a m i n a 
[89.165]
<no-speech> 
[93.055]
<int> ɛ ɦ e ph ɛ l a ŋ g ɛ n z ɛ l a ɠ u th i ŋ g ɔ ɓ a ph ɛ l a m i n a ŋ g i j a b a l i s a n ʤ e ɠ u ph ɛ l a l a ŋ g i f u n a ɠ u ɡ|ɦ w a l e l e f o m u ɓ ɛ s e s i j a l i ǀ i ʃ a ɠ e u ǀ i ŋ g o 
[99.795]
<no-speech> 
[107.365]
<int> <laugh> h a j i s i z o j i ʃ i n ʧʼ a ɠ a n ʤ a n i <sta> ŋ g ɔ ɓ a s e s i ɡ|ɦ w a l i s i l e ɛ f o m i n i s e s i ɡ|ɦ w a l i s i l e ph ɛ l a ɛ f o m i n i m ɬ a m pʼ e f u th i u ɓ o ŋ i ŋ g ɛ ɠ e a ph i n d e f u th i a j i ʃ i n ʧʼ e ɛ ɲ e f o m u a j i ɓ i z e ŋ g o v ɔ d a kh o m u 
[120.915]
<no-speech> 
[124.705]
<no-speech> <sta> ɛ ɦ e i ŋ g a n i ph ɛ l a ŋ g i j a kh u l u m a n ʤ ɛ ŋ g ɔ ɓ a ŋ g i kh u l u m a m a n ʤ e <no-speech> ŋ g i j a kh u l u m a <breath> j a ɠ u kh ɔ n a ɓ a n i l a ph o ɛ kh a j a 
[134.575]
<no-speech> 
[136.235]
<int> h e ɛ ɦ e ɠ u th i u m b ɛ d o l o e ŋ g i w u kh u l u m a j o j a ɠ u kh ɔ n a u g ɔ g o w ɛ n z a n i 
[140.195]
<no-speech> 
[143.165]
<int> ǀh a w e w e w e ǀh a w ɛ n a ph e n d u l a l ɛ n tʼ o e ŋ g i j i ʃ ɔ j o ŋ g e ǀh a ŋ g ɛ n z a l ɛ n tʼ o ǀh a ŋ g i f u n a u ɠ u ɓ e u th ɛ n i m i n i th s i ŋ g i b ɛ d e n ʤ e n a w e ŋ g i b ɛ d e n ʤ e n a w e n a w e b ɛ d a n ʤ e n a m i 
[153.955]
<no-speech> 
[155.995]
<laugh> n a w e b ɛ d a n a m i 
[159.375]
<no-speech> 
[161.295]
<int> <sta> u u u u u ph i u ɓ ɔ ŋ g a 
[165.565]
<no-speech> 
[167.645]
<int> ɠ a d e ŋ g i m ɓ ɔ n a ɛ ɮ u l a l a n a 
[169.805]
<no-speech> 
[171.235]
<int> l a j kh i ɠ a d e ŋ g i m ɓ ɔ n a ɛ ɮ u l a l a n a ɛ h a m ɓ a n o m u ɲ e u m f a n a 
[174.085]
<no-speech> 
[176.405]
<int> ɛ h a m ɓ a ŋ g ɛ ph ɔ l o i z ɔ l o ɛ m ɬ ɔ ph e 
[181.385]
<no-speech> 
[182.235]
<int> ɠ ɔ d w a u ŋ g a th i ɛ j a ɠ a m ǀh u n u 
[183.715]
<no-speech> 
[185.325]
<int> u ŋ g a th i u m f a n a w a ɠ a m ǀh u n u ɛ ɦ e u ŋ g a th i u m f a n a w a ɠ a m ǀh u n u <no-speech> ɔ ɦ o 
[190.225]
<no-speech> 
[191.065]
<int> ɔ ɦ o u ŋ g a th i ɔ ɦ o u j a z i a ŋ i m ɓ ɔ n a ŋ a ɠ a ɬ e ǀh a ŋ g i j a b ɛ d a l a ŋ g ɛ n z ɛ l a s i ɬ a l e l ɔ w o th ɛ n i m i n i th s i ɠ u ph ɛ l a s i b ɛ d e s i b ɛ d e s i b ɛ d e ɓ ɛ s e n i j a ʃ o n i n a ɓ ɛ s e 
[201.545]
<int> <laugh> u z o j i ɓ ɔ n a ɠ u s a s a 
[204.945]
<no-speech> 
[206.135]
<int> u j ɛ z w a <sta> u z o u z o j i ɓ ɔ n a ɠ u s a s a <no-speech> u z o j i ɓ ɔ n a ɠ u s a s a <no-speech> ɛ ɦ e u z o j i ɓ ɔ n a ɠ u s a s a m a s e n a w e f u th i b ɛ d a ɠ i m i n a ŋ g i b ɛ d e n ʤ e u ŋ g i b ɛ d ɛ l e n ʤ ɛ ŋ g ɔ ɓ a n a m i ŋ g i ɠ u b ɛ d ɛ l a n ʤ e 
[217.645]
<int> <laugh> u ph u z e ɠ a ŋ g a ɠ a n a n i i z ɔ l o <no-speech> u ph u z e ɠ a ŋ g a ɠ a n a n i i z ɔ l o <no-speech> ɛ ɦ e u ph u z e ɠ a ŋ g a ɠ a n a n i i z ɔ l o 
[229.395]
<int> ɓ u ph i u ʧʼ w a l a ɛ ɦ e <sta> s i j a b ɛ d a ph ɛ l a s i j a b ɛ d a o ǀ i ŋ w e n i a ŋ g i th i ɛ ɦ e <laugh> a w u ɠ a z e u ph u z e 
[241.255]
<no-speech> 
[241.405]
<no-speech> 
[242.505]
<int> ɛ ɦ e j i n i <laugh> u kh u l u m a n ɔ ɓ a u kh u l u m a n ɔ ŋ g a 
[246.595]
<no-speech> 
[247.545]
<int> ɛ ɦ e u ɓ u kh u l u m a n ɔ ŋ g a ɔ ɦ o u ph i u ŋ g a <oov> a w u ŋ g i kh ɔ n z ɛ l e u m u ʧʼ ɛ l e ɠ u th i a ŋ g i ɓ ɛ ɠ ɛ l e i pʼ a k’ j e h a n th a s e d i l a j i ɠ u s a s a 
[256.315]
<no-speech> 
[258.155]
<int> <sta> n ɛ tʼ w e n th i ɠ a g w a j i j a l a ŋ g i f u n a a m a u ɠ u ɓ e u th ɛ n i m i n i th s i j a u n ʤ a n i 
[266.745]
<no-speech> 
[268.795]
<int> n a m i ŋ g i j a ph i l a h a j i ǀh a ŋ g i j a ɠ u z w a m f a n a w a m i ɠ u th i u j a kh u l u m a ŋ g i ǀ ɛ l a u ŋ g i ph a th ɛ l e u ŋ g i u ŋ g i th ɛ ŋ g ɛ l e i h a n th a s i d i l a j i i pʼ a k’ ɠ u s a s a n ɛ tʼ w e n th i ɠ a g w a j i m f a n a w a n i ŋ g i z o ɠ u n i ɠ a i n tʼ ɔ m b i j i n ɬ e u j ɛ z w a a j i kh o i n tʼ o o j i ɬ ɛ ɠ a j o l a ph o a ŋ g i z w a 
[286.845]
<no-speech> 
[288.465]
<int> a ŋ g i z w a 
[289.095]
<no-speech> 
[290.345]
<int> h a j i u u z ɔ ɓ a n a j o u z ɔ ɓ a n a j o h a m b a u j i m ɓ e l a ph a ɛ n ɬ a ɓ a th i n i h a m b a u j i m ɓ e <laugh> i n i i n i ɬ ɛ ɠ a n ʤ e ɠ a n ʤ a l o w ɛ n a ŋ g ɔ ɓ a ŋ g i ǀh i th a n e s i kh a th i kh ɔ n a i s i kh a th i e ŋ g i s i ǀh i th a j o h e ŋ g i kh u l u m a n a w e ŋ g i b ɛ d ɛ l e f u th i ŋ g i f u n a ɠ u z e u ɠ u ɓ e u th ɛ n i m i n i th s i j a b ɛ d a ɠ e 
[313.085]
<no-speech> 
[314.745]
<int> ɓ ɛ n z a n i e n ɮ i n i 
[315.795]
<no-speech> 
[317.255]
<int> ɓ ɛ n z a n i e n ɮ i n i 
[318.205]
<no-speech> 
[319.025]
<int> u z o u z o j i ph a n tʼ a l a ph a ŋ g a ph a n s i <oov> j a 
[322.075]
<no-speech> 
[323.075]
<int> u z ɔ ɓ a n a j o ph a n s i l a ph a ŋ g a ph a n s i ɠ ɔ m a ŋ g o 
[324.925]
<no-speech> 
[327.775]
ŋ g i kh u l u m a n a w e n a n a w e 
[329.845]
<no-speech> 
[330.975]
<int> h e h e a ŋ g a n i n i j a m u z w a a ŋ g i th i n i j a m ɓ ɔ n a ɠ u th i u j a ɬ ɛ ɠ a l ɔ j o l o u m a kh ɛ l w a n e <laugh> 
[336.835]
<no-speech> 
[339.125]
<int> ɛ ɦ e u j a ɬ ɛ ɠ a ŋ g i m ʧʼ ɛ l i l e ŋ g a th i l ɛ n tʼ o e ŋ g i j i f ɔ n ɛ l a j o f a n ɛ l e i ɓ e u th ɛ n i m i n i th s i ɓ ɛ s e l u j a v a l ɛ ɠ a u ǀ i ŋ g o ɠ u kh ɔ n a i f o m u e ŋ g i l i ɡ|ɦ w a l i s a j o l a 
[346.085]
<no-speech> 
[348.095]
<int> ɛ ɦ e s i b ɛ d ɛ l a n e n a w e u ŋ g a ŋ g i b ɛ d ɛ l a 
[350.485]
<no-speech> 
[352.915]
<int> 
[355.035]
<no-speech> 
[356.285]
<int> ɛ ɦ e ŋ g i b ɛ d ɛ l e ŋ ɛ n tʼ o ɛ l a j tʼ 
[357.895]
<no-speech> 
[358.955]
<int> ɛ ɦ e ŋ g i b ɛ d ɛ l e <sta> ŋ ɛ n tʼ o ɛ l a j tʼ i ʁ a j th i j a ŋ g i b ɛ d ɛ l e ɠ e ŋ g i f u n a ɛ j tʼ i n i m i n i th s i j a 
[365.315]
<no-speech> 
[366.895]
<int> <sta> j i n i n i n i 
[370.185]
<no-speech> 
[371.965]
<int> ŋ g i n ǀ ɛ ŋ g ɛ l e w ɛ n a 
[373.255]
<no-speech> 
[374.465]
<int> h e <sta> ɔ kh ɛ j i i m a l i ŋ g i z o j i th a th a <oov> <no-speech> ɛ ɦ e i m a l i ŋ g i z o j i th a th a ph a n s i ɠ w e z i ɬ a ɬ a z i ɠ a b a n a n a <laugh> 
[386.405]
<int> <laugh> a ŋ g i th i ŋ g i th i j i th a th e n i kh ɔ n a <sta> a n i f u n i u ɠ u j i th a th a kh ɔ n a h e a ŋ g i th i 
[391.765]
<no-speech> 
[392.605]
<int> a ŋ g i th i 
[393.415]
<no-speech> 
[394.485]
<int> n i th i s o ph u z a n i ɠ e m a g ɛ ŋ g e ŋ g ɔ m ɡǃɦ i ɓ ɛ l o 
[397.155]
<no-speech> 
[398.015]
<int> ɛ ɦ e 
[398.535]
<no-speech> 
[399.445]
<int> <sta> n i th i s o ph u z a n i 
[402.045]
<no-speech> 
[403.175]
<int> <sta> ɛ ɦ e 
[404.815]
<no-speech> 
[405.975]
<int> u ǀ i ŋ g o l a l a ɓ a n tʼ u l u j a b ɛ d a 
[407.595]
<no-speech> 
[408.455]
<int> ɛ ɦ e l u j a b ɛ d a <sta> j a ɛ ŋ a n i ŋ g i ɠ u ʧʼ ɛ l i l e n ʤ e 
[420.025]
<int> ŋ g ɛ ɠ e ŋ g i ɠ w a z i u ɠ u ʃ i n ʧʼ a <sta> u v ɔ d a kh o m u ɛ ɦ e ŋ g ɛ ɠ e ɛ ɦ e 
[430.565]
<no-speech> 
[431.905]
<int> <sta> h e ɛ ɦ e l u j a b ɛ d a 
[436.635]
<no-speech> 
[437.935]
<int> l u j a b ɛ d a 
[441.645]
<no-speech> 
[442.535]
<no-speech> 
[442.905]
<no-speech> 
[443.975]
<int> <sta> a l u d o n s i j i n i ɠ a ɬ e 
[445.875]
<no-speech> 
[446.785]
<int> h a j i ɓ o ɛ ŋ g a th i ɓ a ɓ a th i a l u s a d o n s i ɠ a ɬ e <sta> i ɓ a tʼ e l i j a 
[455.805]
<no-speech> 
[457.415]
<int> j a a s i l u v u s ɛ l ɛ l e <sta> l a l ɛ l a ŋ g i ŋ g a z ɔ b ɛ d a n i n a l a 
[467.365]
<no-speech> 
[468.995]
<int> n i d a ɠ w e j i n s a ŋ g u j i n i 
[470.445]
<no-speech> 
[471.265]
<int> ŋ g i j a ŋ g i l i kh u l u m a n a n i n i n a n i ɮ a i w u ŋ a j i n i 
[474.495]
<no-speech> 
[476.785]
<int> ɛ ɦ e ŋ g i f u n a n i kh u l u m e ph ɛ l a m a n ʤ e ŋ g i f u h a j i s e s i z ɔ ʃ a j a i s i kh a th i s a l ɛ n tʼ o l e e ŋ g i j i ɡ|ɦ w a l i s a j o <breath> a s i b ɛ d ɛ l a n e n i ph ɛ l a ɛ ɦ e a s i b ɛ d ɛ l a n e n i ŋ g i n i ɓ u z e ɠ u th i <laugh> 
[487.505]
<int> h a j i a ŋ g a n i u w ɛ n a n ʤ e 
[490.975]
<no-speech> 
[491.825]
u w ɛ n a n ʤ e j a <no-speech> m i n a ŋ g i z o f i ɠ a ɠ u s a s a l a ph o <no-speech> m i n a ŋ g i z o f i ɠ a ɠ u s a s a l a ph o m i n a ŋ g i z o f i ɠ a ɠ u s a s a l a ph o 
[499.975]
<no-speech> 
[501.895]
w ɛ n a u s ɛ m a ǀh w ɛ ɓ e n i v ɛ s e <int> ŋ g i l ɛ l e ŋ g i l ɛ l e ɛ ɦ e ǀh a kh u l u m a n i ŋ g ɔ ɓ a <int> s e s i z ɔ ʃ a j a i s i kh a th i s o ɠ u th i ŋ g i j ɛ ɠ e ɠ e m a n ʤ e u ɠ u kh u l u m a n a n i kh u l u m a n i n a n i s e ɠ u s ɛ l e ɠ a ŋ ǀ a n e ɛ ɦ e s ɛ ɠ ɛ s ɛ l e ɠ a ŋ ǀ a n e ŋ g i s a ɡ|ɦ o ɓ i s a <no-speech> 
[523.425]
<int> ŋ g i ɡ|ɦ w a l i s a i f o m u u kh u m ɓ u z a n ʤ e j a z i u b e ɠ i s i s a u b e ɠ i s i s a a ɠ a ɠ a z e a ɠ u f ɔ n ɛ l e m i n a ŋ g i j a kh u l u m a ɠ e u b e ɠ i s i s a a ɠ a ɠ a z e a ɠ u f ɔ n ɛ l e 
[530.205]
<no-speech> 
[531.255]
<int> ɛ ɦ e n ɔ ɓ ɔ j o a ɠ a ɠ a z e n ɔ ɓ ɔ j o ŋ g i z w e ɠ u th i w a u ɡ|ɦ w a l i s a i f o m u n ʤ e n ɔ ɓ ɔ j o a ɠ a ɠ a z e a ɠ u f ɔ n ɛ l e n ɔ ɓ ɔ j o o w u ɠ a n tʼ i i z i ɓ ɔ th o ŋ g ɛ m pʼ ɛ l a l e z i ŋ a n e i z i ɓ ɔ th o 
[543.115]
<int> ŋ g i th i h a j i i z i ɓ ɔ th o u ph i u s i z a ɠ ɛ l e 
[546.355]
<no-speech> 
[547.265]
<int> u ph i u s i z a ɠ ɛ l e u j a ph ɛ ɠ a 
[551.435]
<no-speech> 
[552.545]
<no-speech> 
[552.945]
<no-speech> 
[555.795]
<int> ɔ ɦ o u m a th i n i ɔ ɦ o u m a u l ɛ l e ɔ ɦ o ǀh a ph ɛ l a m u s a n i u ɠ u ŋ g i ǀ a s u l a ŋ g ɔ ɓ a i s i z ɔ ph ɛ l a l a m a m i n i th i e ŋ i f ɔ n a ŋ g a w o ŋ g i ɡ|ɦ w a l i s a l e f o m u h a j i a s i kh u l u m e n i s i ǃh u ɓ ɛ ɠ e s i j e ph a m b i l i <int> a w u ŋ g i b ɛ d ɛ l e n a w e u f u n a u ɠ u b ɛ d a u th i n i j a <sta> a ɠ a ɠ a z e a z e a f i ɠ e u v a d a 
[578.585]
<int> a ɠ ɛ kh o ɛ n a n d a 
[580.795]
<no-speech> 
[581.615]
<int> a ɠ ɛ kh o ɛ n a n d a ɛ ɦ e 
[583.835]
<no-speech> 
[585.035]
<no-speech> 
[586.095]
<no-speech> 
[587.665]
<int> ɔ ɦ o ɓ ɛ s e ŋ g i ɔ ɦ o ɓ ɛ s e ŋ g i th i u s ɛ s ɛ n a n d a ɠ e 
[590.575]
<no-speech> 
[591.535]
<int> h a j i ɠ u ŋ ɡ|ɦ ɔ n o u m a ɛ ŋ g ɛ kh o ɛ n a n d a ɠ e 
[593.585]
<no-speech> 
[595.095]
<int> u ɓ a n i 
[598.665]
<no-speech> 
[599.585]
<no-speech> 
[600.020]
