[0.000]
<no-speech> 
[0.425]
<no-speech> 
[1.445]
<sta> h ɛ l o ɠ u n ʤ a n i 
[4.755]
<no-speech> 
[7.905]
s i j a ɛ m l a z i 
[9.155]
<no-speech> 
[12.685]
<laugh> m u s u th u ɠ i n ɬ a m ɓ a w ɛ n a ŋ g a n e ɛ ɓ o l i l e ŋ g ɛ ɠ e u ph a th e ŋ g ɛ s kh w a m a s a m i u z ɔ h a m b a n ɛ s kh w a m a s a kh o ŋ g i j a ɠ u ʧʼ ɛ l a 
[22.275]
<no-speech> 
[25.075]
h a j i ŋ g ɛ ɠ e ŋ g i ɠ u ɓ ɔ l ɛ ɠ e s a n i <no-speech> <sta> u m a ph i n d i u n a z o i z i n tʼ o ɔ z o j i ɡǃɦ ɔ ɠ a ɛ m ʃ a d w e n i 
[32.255]
<no-speech> 
[34.965]
u s e n ɠ i ŋ g e n i s o ɓ e s i ɮ e a m a h i l i w ɛ n a u z ɔ ɓ e u ɮ e n i 
[38.685]
<no-speech> 
[42.555]
<sta> <no-speech> n a ŋ g u ɓ ɔ ŋ g a ɛ ɮ u l a i ɔ l s i tʼ a 
[46.195]
<no-speech> 
[48.535]
<int> n a n i 
[49.485]
<no-speech> 
[50.745]
n a n i 
[52.275]
<no-speech> 
[56.475]
th i n a s o ɓ e s i ɡǃɦ ɔ ɠ a i ɛ ɓ e n i ɠ e ɠ e ɠ e ɠ e i s u d i j e ɛ b a n w ɛ n a u z ɔ ɓ e u ɡǃɦ ɔ ɠ e n i 
[62.035]
<no-speech> 
[65.725]
<sta> a m a n i ɠ i a w u n i ɠ e z u u s f i s o ŋ g i kh u l u m e n o s f i s o ŋ g o ɓ u j a b ɛ d a <breath> 
[69.875]
<no-speech> 
[73.745]
h a j i ɓ o w o n i ɠ e z u u s i j a a kh u l u m e ph ɛ l a n a j e <breath> m u s a u ɠ u ɓ a n ɔ m ɔ n a n o ǀ i ŋ g o 
[78.325]
<no-speech> 
[81.025]
ɓ a l ɛ l e l e n i 
[82.125]
<no-speech> 
[86.085]
<laugh> <breath> h a j i ɓ a j e ɠ a n ɔ z a z a <sta> l a ɓ o ɓ a l a n d ɛ l o o ɓ u l e <no-speech> 
[91.755]
<no-speech> 
[92.655]
ŋ g i s ɛ d ɛ ɓ a n 
[94.075]
<no-speech> 
[96.885]
ɛ ɦ e 
[97.745]
<no-speech> 
[99.845]
ŋ g i z ɔ ɓ u j a n tʼ a m b a m a s e ŋ g i z ɔ l a n d a i m pʼ a ɬ a z a m i s e ŋ i j e ɛ m ʃ a d w e n i <breath> u ŋ g a l u v a l i u ǀ i ŋ g o <breath> ŋ g i z ɔ z a m ɛ m e ɠ u z ɔ v a l ɛ ɠ a u ǀ i ŋ g o a ɠ a ɠ a ʃ a j i i s i kh a th i 
[107.755]
<no-speech> 
[110.565]
j a 
[111.315]
<no-speech> 
[114.475]
ŋ g i z ɔ m b a z a m ɛ s e ŋ g i ǃ ɛ d e u ɠ u ph u m e ɛ th ɛ ɠ w i n i 
[117.455]
<no-speech> 
[122.335]
u f u n a u ɠ u kh u l u m a n o a n tʼ i d u m a z i l e 
[124.095]
<no-speech> 
[127.055]
<no-speech> 
[127.555]
<no-speech> 
[128.835]
<sta> a ph ɛ ɠ e i s ʧʼ u e s i m u n a n d i <no-speech> <breath> u j i s i s ɛ ɓ e n z i j i n i l a j i kh a j a 
[133.025]
<no-speech> 
[135.685]
u j i n i 
[136.705]
<no-speech> 
[139.415]
<cough> ɛ ɦ e a ɠ u j ɛ n a ɠ e ph ɛ l a u a n tʼ i w a m a b ɔ d w e 
[142.025]
<no-speech> 
[146.315]
<breath> <int> a ŋ g i g u l i 
[147.945]
<no-speech> 
[150.595]
i n ɠ i ŋ g a ŋ g i j a ɠ u ʧʼ ɛ l a ɠ u th i i n ɠ i ŋ g a a ŋ g ɛ ɠ e ɠ w a z i <breath> ɠ u th i s i ɠ u ph ɛ ɠ ɛ l e h a m b a ɠ i n i ɛ m ʃ a d w e n i <no-speech> ɠ u ɬ a ʧʼ w e n ɠ ɔ m o ɠ i n i 
[159.275]
<no-speech> 
[162.525]
h a j i ɓ o ɠ a z i n a m ʃ a d w a n a j i n i u m ʃ a d ɔ m n ǀ a n e 
[165.685]
<no-speech> 
[166.895]
a z ɔ ɓ ɛ kh ɔ n a 
[168.615]
<no-speech> 
[172.025]
<int> n a n i 
[172.835]
<no-speech> 
[173.875]
<sta> h a j i o b i j a a ŋ g i ɓ a ph u z i o b i j a 
[178.085]
<no-speech> 
[179.925]
<sta> <no-speech> ɔ kh ɛ j i <no-speech> u ph i u s f i s o 
[184.305]
<no-speech> 
[185.685]
a h a 
[186.345]
<no-speech> 
[189.665]
u z a ŋ g a n i 
[190.755]
<no-speech> 
[193.995]
<click> <sta> ɔ ɦ o n a w ɛ n a a w u l ɛ l e ŋ g a n i a s i ɠ u kh i ph i j i n i i s i s u 
[198.625]
<no-speech> 
[202.385]
<sta> ŋ g i l a ɠ a m a n ǀ i n z a ŋ g i j a ɲ u ɠ a i n tʼ a ɓ a 
[205.775]
<no-speech> 
[209.805]
<laugh> h a j i s e ŋ g i ɓ u j i l e ph ɛ l a j ɛ ɬ e th e ɠ w i n i j ɛ ɬ a ɛ tʼ e ɠ i s i n i w ɛ n a 
[215.115]
<no-speech> 
[217.885]
ɛ ɦ e 
[218.775]
<no-speech> 
[219.795]
<no-speech> 
[220.205]
<no-speech> 
[221.295]
s i j e ph i 
[222.085]
<no-speech> 
[224.115]
ɔ kh ɛ j i s i z ɔ h a m ɓ a 
[227.605]
<no-speech> 
[229.095]
ɠ u s a m ɛ l e <oov> ŋ g o l u ŋ g i s kh a n d a l a ph a n a ɠ a n ɠ ɔ m o <sta> ɛ ɦ e 
[236.675]
<no-speech> 
[238.875]
<sta> m a n ʤ e n ʤ e u m a ŋ g i ǃ ɛ d a u ɠ u ph u m a l a j ɛ th e ɠ w i n i 
[242.405]
<no-speech> 
[244.045]
<no-speech> 
[244.425]
<no-speech> 
[246.885]
<sta> h a j i ɓ o s i j a ph i n a ɓ o <breath> ɠ a m ɓ i i m i n a e ŋ g i h a m ɓ a j o n ɔ n e n ɔ n e n ʤ i n ʤ i s i <breath> z ɔ n e w ɛ n a u z ɔ s a l a u z o g i ɓ ɛ l a i b a s i ɠ a pʼ a s tʼ f a j f i 
[255.435]
<no-speech> 
[258.385]
<sta> i kh ɔ n a 
[259.445]
<no-speech> 
[261.295]
<no-speech> 
[261.715]
<no-speech> 
[263.695]
a a 
[265.355]
<no-speech> 
[266.765]
ŋ g i j a th ɛ ŋ g a i ŋ g u ɓ o e ŋ g i z o j i ɡǃɦ ɔ ɠ ɛ m ʃ a d w e n i 
[269.705]
<no-speech> 
[271.615]
<no-speech> 
[271.965]
<no-speech> 
[272.895]
<sta> <hes> n e ʤ i n i ɔ z o j i ɡǃɦ ɔ ɠ a ŋ g e a f tʼ a ph a th i a f tʼ a 
[277.975]
<no-speech> 
[279.015]
<sta> ŋ g i j ɔ j a e l i s e ph ʃ i n i 
[280.925]
<no-speech> 
[283.135]
<no-speech> 
[283.485]
<no-speech> 
[285.525]
<no-speech> 
[286.165]
<no-speech> 
[291.955]
<sta> u ɠ ɛ ph i w ɛ n a 
[293.705]
<no-speech> 
[295.915]
<int> <sta> ɔ ɦ o u s ɛ m l a z i 
[299.675]
<no-speech> 
[301.055]
<sta> <breath> j a d u d u 
[303.335]
<no-speech> 
[305.895]
<sta> w e n ʤ i n ʤ i 
[307.265]
<no-speech> 
[309.155]
<sta> <int> u th i j a s i n e <no-speech> <int> u th i j a 
[314.145]
<no-speech> 
[315.195]
<no-speech> 
[315.605]
<no-speech> 
[316.655]
<no-speech> 
[317.795]
<no-speech> 
[318.705]
<sta> u s u z o ɓ u j a 
[321.525]
<no-speech> 
[322.955]
<sta> ɔ kh ɛ j i 
[325.285]
<no-speech> 
[330.085]
u ŋ g a l i v a l i u ǀ i ŋ g o ŋ g i s a kh u l u m a n a w e <sta> ŋ g i f u n u kh u l u m a ɠ u j ɔ z e ɠ u ʃ o m i n a ɠ u th i u l i v a l e w ɛ n a m pʼ a th a <no-speech> u ŋ g a kh u l u m i 
[340.285]
<no-speech> 
[341.215]
<sta> ŋ g i z ɔ j a n tʼ a m b a m a <no-speech> h a m b a u j o kh u l u m a ɛ ɦ e 
[348.745]
<no-speech> 
[350.675]
<sta> ŋ g a ɓ ɔ f a j i f i s ɔ h a m b a ŋ ɔ ph a s tʼ i s i ɠ s i th i n a <no-speech> e s u ɠ e s e ɠ u ph ɛ ɠ w e n ɛ s a ph a <no-speech> 
[363.055]
<sta> ɛ ɦ e ŋ g i z ɔ ʃ ɛ ʃ a 
[367.355]
<no-speech> 
[370.035]
ŋ g i j e s e ŋ g i th ɛ ŋ g ɛ l a m i n a <sta> <no-speech> ɛ g e j th i w e j i <sta> 
[379.735]
<no-speech> 
[380.905]
<sta> a a 
[381.955]
<no-speech> 
[383.105]
<no-speech> 
[383.985]
<no-speech> 
[385.145]
<sta> <laugh> <breath> ɛ j i u j a ŋ g i ʤ w a j ɛ l a w ɛ n a m ɓ ɔ ŋ g ɔ l o j a z i u ŋ g i ʤ w a j ɛ l a ɠ a ɓ i w ɛ n a 
[393.115]
<no-speech> 
[394.825]
<sta> h a j i ɓ o u ŋ g a z o ŋ g i ʤ w a j ɛ l a ɠ a ɓ i w ɛ n a 
[400.065]
<no-speech> 
[401.095]
<sta> ɓ a j a ŋ g i f u n a ɠ ɛ ph i <sta> 
[404.865]
<no-speech> 
[406.365]
<sta> h a j i ŋ g ɛ ɠ e ŋ g i j e l a ph o m i n a 
[411.175]
<no-speech> 
[412.225]
j a 
[412.965]
<no-speech> 
[415.005]
h a j i a w u ɠ a ɠ a ph e l i u th ɛ n i m i n i th s i 
[417.135]
<no-speech> 
[421.665]
u ɓ ɔ n a n i 
[422.565]
<no-speech> 
[427.225]
<sta> u ɓ a n i 
[429.275]
<no-speech> 
[430.655]
u b ɔ tʼ s ɔ tʼ s o 
[431.805]
<no-speech> 
[437.025]
ɔ ɦ o h a j i a j i kh o ɠ e l ɛ n tʼ o ŋ g i z ɔ h a m b a ŋ g ɛ m ɔ tʼ o m ɬ a m ɓ e ɠ e ɠ e ɠ e ŋ g o z i g i ɓ e l i b a s i 
[442.485]
<no-speech> 
[443.595]
th i n a s i n ɔ m a s i n d i s i n ɛ m ɔ tʼ o j ɛ th u 
[445.575]
<no-speech> 
[448.815]
i m a l i j a n i 
[449.745]
<no-speech> 
[452.005]
j ɛ b a s i <sta> ŋ g i n a w o u ɛ j tʼ ʁ a n d i i w u e j i tʼ ʁ a n d i m a n ʤ e n tʼ a m b a m a 
[456.735]
<no-speech> 
[460.315]
a j i kh o i n ɠ i ŋ g a n a l a ph o a j i kh i ŋ ɡǁɦ a ɠ i 
[464.155]
<no-speech> 
[465.475]
a w u n i ɠ ɛ z e u s i n e a w u n i ɠ ɛ z e u s i n e 
[468.655]
<no-speech> 
[470.485]
<int> o w u a v u n ɔ m ɔ n a 
[472.155]
<no-speech> 
[476.795]
<int> ɔ ɦ o a ɠ a f u n i u ɠ u kh u l u m a 
[478.535]
<no-speech> 
[480.975]
ɔ kh ɛ j i <sta> ɠ u kh ɔ n a n o s i z w e l a ɓ a j a g a ŋ g a <no-speech> ɓ a g a ŋ g a ŋ g a m a f o n i ɛ ŋ g a w a z i ɠ u th i a w a n i 
[492.355]
<no-speech> 
[494.245]
<sta> a n i kh u l u m e n i a n i kh u l u m e n i ŋ g i f u n a u ɠ u ǃ ɛ d a m i n a n i ŋ g ɛ n z a u pʼ ɔ pʼ a j i w ɛ n u a a 
[501.365]
<no-speech> 
[502.195]
n a ŋ g u u l a ph a ɠ a m th a n d e n i 
[503.895]
<no-speech> 
[507.655]
u m d u n u u ɠ u ɓ o u ɬ ɛ z i u ɮ a i s i n ɠ w a n a m a ǃ a n d a n ɔ b ɛ ɠ e n i 
[512.605]
<no-speech> 
[518.425]
u ɓ a ɓ a a z i a ŋ g i m a z i u m e j i n ɠ a w i n i <int> ɠ ɔ f o 
[521.195]
<no-speech> 
[522.045]
<no-speech> <sta> kh ɔ n a u g ɔ g o l a 
[525.955]
<no-speech> 
[527.755]
<sta> u th i j a ɠ u g ɔ g o 
[531.185]
<no-speech> 
[532.535]
a a 
[533.305]
<no-speech> 
[536.375]
<sta> j a u n ʤ a n i 
[538.425]
<no-speech> 
[540.955]
ɔ ɦ o <sta> ɔ kh ɛ j i <sta> h ɛ l o j a 
[548.395]
<no-speech> 
[549.715]
<sta> <oov> <no-speech> a j i ɠ a ɠ a ph e l i i m a l i <no-speech> e ŋ g i j i f a ɠ i l e <breath> f u n u kh u l u m e n a ŋ g u u g ɔ g o 
[557.345]
<no-speech> 
[558.765]
<no-speech> 
[559.195]
<no-speech> 
[563.005]
w ɛ n z a n i l a ph o 
[563.965]
<no-speech> 
[566.085]
<sta> ɛ ɦ e <no-speech> z i ɓ u j e s ɛ kh a j a ɔ ɦ o 
[570.655]
<no-speech> 
[571.945]
<sta> ɔ kh ɛ j i <sta> w e g u g u 
[576.865]
<no-speech> 
[577.775]
<sta> a a ɛ ɦ e 
[580.265]
<no-speech> 
[584.685]
ɔ ɦ o 
[585.805]
<no-speech> 
[587.275]
kh u l u m a ɠ e u ŋ g a ǀ i m i 
[589.005]
<no-speech> 
[592.485]
ŋ g i z e ph i ŋ g ɔ ɓ a ŋ g i m i l e l a u a n tʼ i ɓ o ŋ i n a ŋ g u l a <sta> u ŋ g a l u v a l i u ǀ i ŋ g o ŋ g i s a l i n d e i s i kh a th i 
[600.020]
