[0.000]
<no-speech> 
[1.715]
j a n ɔ n ɬ a n ɬ a <int> ɠ u n ǃ a m u ɠ i l e <int> l a n a ɓ e s i s a ǁ o <no-speech> 
[7.105]
<int> ɛ ɦ e 
[8.015]
<no-speech> 
[11.035]
<sta> m a n i j a ǀ u l a j i n i ph o 
[12.655]
<no-speech> 
[17.755]
ɔ ɦ o n i s a s ɛ b a s i n i 
[19.165]
<no-speech> 
[21.725]
<sta> ɔ ɦ o 
[22.675]
<no-speech> 
[23.845]
<no-speech> 
[24.685]
<no-speech> 
[25.775]
<no-speech> 
[26.135]
<no-speech> 
[27.375]
<sta> ɛ ɦ e ŋ g i z ɔ h a m b a n tʼ a m b a m a ɛ ɦ e 
[29.905]
<no-speech> 
[31.245]
w e <int> j i n i i n d a ɓ a 
[32.605]
<no-speech> 
[34.275]
<int> h a j i 
[34.955]
<no-speech> 
[36.325]
<sta> h a j i ɛ ɦ e a ŋ i l a l i <oov> 
[38.995]
<no-speech> 
[41.475]
h a j i ŋ g o ɔ n e n ʤ e s ɛ n z ɛ l a i l ɛ n tʼ o <int> ŋ g i th i <sta> ŋ g e ŋ g i z e l a ŋ g e ŋ g i z e ŋ g i l a l e 
[46.535]
<no-speech> 
[49.985]
<int> 
[50.695]
<no-speech> 
[52.085]
<laugh> <sta> n a w e n ʤ e a ŋ g i th i u n ɛ ɠ w a kh o 
[56.695]
<no-speech> 
[60.645]
<sta> 
[61.315]
<no-speech> 
[62.205]
<sta> u n a m a ŋ g a u s a ɓ a u m pʼ i n ʧʼ w e u f i ɠ i l e <laugh> <breath> u m pʼ i n ʧʼ w e u f i ɠ i l e 
[67.935]
<no-speech> 
[71.195]
ɛ ɦ e 
[71.805]
<no-speech> 
[73.355]
<sta> ŋ g i ŋ g a ɠ u th a th i 
[74.345]
<no-speech> 
[75.725]
a ɠ a h a m b i j i n i a ɠ a h a m b i 
[77.815]
<no-speech> 
[82.875]
w a pʼ a ɠ i s i w a <int> 
[83.835]
<no-speech> 
[88.505]
ɛ ɦ e 
[89.305]
<no-speech> 
[96.685]
<int> u j ɛ z a <sta> u z ɔ th ɛ ŋ g ɛ l a i ŋ g a n e 
[98.315]
<no-speech> 
[101.095]
ɛ ɦ e 
[101.925]
<no-speech> 
[102.985]
<sta> w a th i n i m o ɠ u th i w a a ɠ a h a m ɓ e 
[105.005]
<no-speech> 
[106.125]
<sta> w a th i n i ɠ u th i w a a ɠ a h a m ɓ e 
[107.655]
<no-speech> 
[111.235]
ŋ g i th i w a th i ɠ u th i w a a ɠ a h a m ɓ e 
[113.315]
<no-speech> 
[121.635]
m a n ʤ e i n tʼ o j a kh o <sta> l u th o l u th o u ɠ u j i ɓ u j i s a n a m a n ʤ e 
[124.755]
<no-speech> 
[127.435]
l u th o u ɠ u j i ɓ u j i s a i n tʼ o j a kh o n a m a n ʤ e 
[129.465]
<no-speech> 
[131.095]
<no-speech> 
[131.445]
<no-speech> 
[133.655]
<int> n a j o 
[134.455]
<no-speech> 
[135.685]
n a j o 
[136.455]
<no-speech> 
[138.455]
n a j o a ɠ a z a ŋ e <int> a j i ɓ u j i s e 
[140.165]
<no-speech> 
[144.905]
m a n ʤ e u th i n i u m f a n a <int> m o j i f u n a 
[146.835]
<no-speech> 
[153.665]
<int> 
[154.315]
<no-speech> 
[156.165]
m a n ʤ e w ɛ n a ɠ e w a j ɛ n z a <sta> i n tʼ o ɛ ŋ a ŋ i th e i j ɛ n z e j i ʃ o 
[159.755]
<no-speech> 
[163.545]
<int> ɛ ɦ e 
[164.285]
<no-speech> 
[168.825]
ɛ ɦ e <sta> <oov> m a n ʤ e u z o ɓ u j a n i n i ph ɛ l a ʃ ɛ ʃ a o w u u z o <int> u s a z ɔ ɮ a 
[175.055]
<no-speech> 
[178.165]
ŋ g i th i <sta> u s a z ɔ ǃ a l a u ɮ e ɠ u ǃ a l a l a ph o 
[180.335]
<no-speech> 
[190.045]
j ɛ ɓ o w o w o <sta> w o ɠ u ʃ i j a n i n i ɠ e u m a w a kh o 
[192.795]
<no-speech> 
[195.585]
w o ɓ ɔ h a m ɓ a <int> n i n i ph o 
[197.185]
<no-speech> 
[199.925]
<int> ŋ g i th i ɓ ɔ h a m ɓ a n i n i 
[201.915]
<no-speech> 
[207.495]
<int> ɔ ɦ o 
[208.315]
<no-speech> 
[209.775]
<sta> i ɲ a m a j a n i l ɛ j o o j i ph ɛ th e <oov> o j i ʃ i j e ɛ m n ɡ|ɦ w a ɓ e n i 
[212.175]
<no-speech> 
[219.825]
<int> ɛ ɦ e 
[220.645]
<no-speech> 
[223.155]
ɛ ɦ e <cough> <sta> u j a ɓ ɔ n a ɠ e 
[226.535]
<no-speech> 
[228.385]
<sta> u j a ɓ ɔ n a ɠ e ɠ u th i a ɠ a z e a m ʧʼ ɛ l e w a j ɛ ŋ a ʤ u l u ɠ i s w a j i n i 
[231.865]
<no-speech> 
[235.265]
ŋ g i th i u j a ɓ ɔ n a ɠ e ɠ u th i a ɠ a ɠ a z e a m ʧʼ ɛ l e <sta> w a j ɛ ŋ a ʤ u l u ɠ i s w a j i n i 
[238.845]
<no-speech> 
[249.415]
<no-speech> 
[259.985]
<sta> ɛ ɦ e 
[260.855]
<no-speech> 
[262.885]
<sta> ɛ ɦ e 
[263.635]
<no-speech> 
[266.165]
<int> ɛ ɦ e 
[266.755]
<no-speech> 
[269.365]
<int> 
[270.845]
<no-speech> 
[275.075]
<sta> <laugh> a h a h a j i ǀh a a ɠ a d e a ɠ a d ɛ l e l i <int> u ǃh u ɓ a i n tʼ w a l a ŋ g e w i s a m f a n a <laugh> 
[283.255]
<no-speech> 
[286.635]
<no-speech> 
[287.815]
<no-speech> 
[288.705]
<no-speech> 
[289.095]
<no-speech> 
[291.555]
<no-speech> 
[292.235]
<no-speech> 
[293.195]
<sta> m h m 
[293.975]
<no-speech> 
[296.845]
<laugh> <int> <sta> u n a m a ŋ g a u j a ɓ ɔ n a i n ɮ ɛ l a n ʤ e l e a z e ɠ a ɬ e ɠ u th i u kh i j i l e <breath> i n ɮ ɛ l a n ʤ e a ŋ a s a ɠ w a z i 
[305.025]
<no-speech> 
[310.385]
ɛ ɦ e 
[311.075]
<no-speech> 
[315.855]
<int> ɛ ɦ e 
[316.675]
<no-speech> 
[318.175]
<int> h a j i 
[318.765]
<no-speech> 
[321.725]
<sta> ɓ a th i n i j a f a n a 
[322.745]
<no-speech> 
[324.095]
<laugh> u ŋ g i l a ɬ a n i w ɛ n a j a z i u ɮ a l a ŋ g a m i <laugh> 
[331.795]
<no-speech> 
[335.585]
<sta> o w u u ŋ g i ɓ ɔ n a n i n i l ɔ kh o ɠ u th i <int> ŋ g i j a ɬ a ɲ a 
[338.855]
<no-speech> 
[346.055]
<sta> m h m m a n ʤ e u th i ŋ g i z ɔ ɠ w ɛ ɬ a ph i 
[347.985]
<no-speech> 
[348.945]
ɛ ɦ e 
[351.065]
<no-speech> 
[358.035]
ɛ ɦ e 
[358.895]
<no-speech> 
[359.915]
ɛ ɦ e 
[360.715]
<no-speech> 
[363.885]
<int> i e l u ŋ i s i l e 
[365.145]
<no-speech> 
[366.985]
<sta> u n a m a ŋ g a <laugh> 
[368.855]
<no-speech> 
[370.475]
<laugh> <int> h ɛ l o 
[373.015]
<no-speech> 
[374.895]
a w e m a <laugh> w a th i n i j ɛ n a <laugh> 
[378.185]
<no-speech> 
[379.085]
<no-speech> 
[381.555]
<no-speech> 
[390.005]
<int> ɛ ɦ e 
[390.655]
<no-speech> 
[395.175]
m h m 
[395.725]
<no-speech> 
[396.755]
ɠ ɔ d w a n a w e <int> w a s u d ɛ l ɛ l a ɠ a ŋ g a ɠ a m a n ʤ e 
[399.115]
<no-speech> 
[403.885]
m h m <breath> <int> h a j i ʃ u th i n a m a n ʤ e u z ɔ f i ɠ a n ʤ e <sta> a ǃ ɔ ǃ e a ǃ ɔ ǃ e a ǃ ɔ ǃ e 
[408.735]
<no-speech> 
[413.965]
h a j i 
[414.575]
<no-speech> 
[417.125]
o w u ŋ g a ɓ e ɠ e w ɛ ɠ a d e n a th i <oov> 
[419.055]
<no-speech> 
[420.465]
<int> ŋ g a ɓ e ɠ a d e <int> s a s i ǃh u m a n a th i 
[422.095]
<no-speech> 
[423.095]
m h m 
[423.885]
<no-speech> 
[429.195]
<sta> s e s e n i ɠ e ph i n ɛ n d a w o m a n ʤ e 
[431.035]
<no-speech> 
[433.305]
<int> ɓ ɛ n ɡ|ɦ w a ɓ a ɠ ɛ ph i 
[434.265]
<no-speech> 
[438.195]
<sta> ɓ ɛ n ɡ|ɦ w a ɓ a ɛ tʼ a f u l e n i ɓ ɛ n ɡ|ɦ w a ɓ a ɛ tʼ a f u l e n i 
[441.545]
<no-speech> 
[442.815]
<sta> ɔ ɦ o <no-speech> m h m 
[444.505]
<no-speech> 
[445.755]
<sta> h a j i a ŋ g i th i a j i i l ɛ n tʼ o ɠ a d e ŋ g i j i ʃ o n ʤ e 
[448.295]
<no-speech> 
[451.625]
<sta> o w u u s u ph u th ɛ l w e m i n a s e ŋ g i n e s i kh w a m a 
[454.245]
<no-speech> 
[457.545]
h a j i <hes> <sta> ʃ ɛ ʃ a w ɛ n a u f i ɠ e <breath> w ɛ n a s i s a j a e b i l i ʤ i s i th i 
[461.305]
<no-speech> 
[466.825]
w o ɔ ɦ o 
[468.095]
<no-speech> 
[469.885]
h a j i <int> 
[470.465]
<no-speech> 
[474.215]
<sta> h a j i ŋ g i m ʧʼ ɛ l i l e ph ɛ l a ŋ g a th i ŋ g i z o s u ɠ a l ɛ j th i u l a ph a ɠ u ɓ o n a ɓ o ɓ a n o m ǀ i m ɓ i 
[479.085]
<no-speech> 
[481.255]
<sta> ɓ a n o m u ǀ i m ɓ i ph ɛ l a ŋ g ɔ m ɬ a ɠ a f i f tʼ i n i 
[483.385]
<no-speech> 
[486.415]
<sta> m a n ʤ e ɓ a ɓ a n e tʼ i j e ŋ g ɔ m ɬ a ɠ a f i f tʼ i n i ph ɛ l a ɓ ɔ n a 
[490.785]
<no-speech> 
[493.755]
ɛ ɦ e 
[494.325]
<no-speech> 
[498.445]
ɓ ɔ n a ɓ a <hes> ɓ a n e 
[500.02]
