[0.0]
<no-speech> 
[0.655]
<sta> ʔ a ʔ o ŋ a ʔ <hes> n ɐ g m i m i n u d o 
[3.965]
<no-speech> 
[4.835]
ʔ ɐ n u 
[5.555]
<no-speech> 
[6.375]
ʔ ɐ n u k u m u s t a n ɐ ʤ a ʔ a n <int> 
[8.565]
<no-speech> 
[9.795]
ʔ ɐɪ ʔ ɐ n u ŋ g i n a g ɐ w a ʔ m o k u m u s t a k a n ɐ ʤ a ʔ a n <int> 
[12.525]
<no-speech> 
[13.875]
ʔ ɐ n u k u m u s t a k a ʤ a ʔ a n 
[15.865]
<no-speech> 
[18.945]
ʔ a 
[19.645]
<no-speech> 
[20.695]
h i n d e ʔ m o ʔ ɐ k o n ɐ r i r i n i g <int> 
[22.295]
<no-speech> 
[23.795]
<sta> h i n d e ʔ m o ʔ ɐ k o n ɐ r i r i n i g 
[27.375]
<no-speech> 
[28.995]
ʔ a 
[29.645]
<no-speech> 
[30.575]
h oɪ 
[31.225]
<no-speech> 
[33.155]
<int> n ɐ r i r i n i g m o ʔ ɐ k o 
[34.535]
<no-speech> 
[35.535]
ʔ ɐ n u 
[36.095]
<no-speech> 
[39.305]
b a k e t n j o b i n a b ɐ b a ʔ 
[40.705]
<no-speech> 
[42.665]
h ɛ l oʊ 
[43.335]
<no-speech> 
[44.725]
ʔ ɐ n u ŋ a ʔ <oov> h i n d e ʔ m o ʔ ɐ k o n ɐ r i r i n i g 
[46.955]
<no-speech> 
[50.855]
<int> ʔ o ŋ a ʔ t i n a t ɐ n u ŋ k i t a k u ŋ n ɐ r i r i n i g m o ʔ ɐ k o ʔ o h i n d e ʔ 
[53.425]
<no-speech> 
[56.735]
ʔ a <no-speech> ʔ ɐɪ n ɐ k o b a k e t b a ʔ ɐ ŋ b o s e s m o d i t u h i n d e ʔ m o ʔ ɐ k o m ɐ r i r i n i g 
[61.195]
<no-speech> 
[63.595]
ʔ e t o n ɐ l a ʔ a ŋ ʔ ɐ ŋ m ɐ s ɐ s a b i k o <hes> ʔ ɐ n u ŋ g i n a g ɐ w a ʔ m o ʤ a ʔ a n ʔ u w i ʔ n ɐ ʔ ɐ k o <breath> 
[69.635]
<no-speech> 
[71.295]
ʔ oɪ ʔ u w i ʔ k a n ɐ r e n p a r a s ɐ b aɪ n ɐ t ɐ j u ʔ 
[73.685]
<no-speech> 
[75.125]
ʔ a 
[75.715]
<no-speech> 
[78.145]
ʔ ɐ n u 
[78.765]
<no-speech> 
[82.165]
m a m ɐ j a ʔ 
[82.925]
<no-speech> 
[84.175]
ʔ o d a d ɐ ʔ a n p a ʔ ɐ k o s ɐ m ɑ l <hes> 
[85.895]
<no-speech> 
[87.285]
ʔ a ʔ ɐ n u ŋ g u s t u m u ŋ p ɐ s ɐ l u b o ŋ d a d ɐ ʔ a n ʔ ɐ k o s ɐ m ɑ l <sta> <no-speech> ʔ a 
[92.875]
<no-speech> 
[97.475]
<sta> ʔ ɐ n u ŋ p ɐ s ɐ l u b o ŋ g u s t u m o d a d ɐ ʔ a n p a r a m ɐ g d ɐ l a ʔ ɐ k o b i b i l i ʔ ɐ k o n ɐ ŋ p ɐ s ɐ l u b o ŋ s ɐ j u 
[103.905]
<no-speech> 
[107.325]
ʔ a n a n ʤ a ʔ a n n ɐ 
[108.335]
<no-speech> 
[110.035]
<sta> ʔ a 
[110.945]
<no-speech> 
[113.365]
ʔ o m ɐ r a m e b a m ɐ ʃ a d u b ɐ t ʔ ɐ ŋ ʔ i ŋ ɐɪ ʔ i ŋ aɪ n i n j u ʤ a ʔ a n 
[116.765]
<no-speech> 
[117.635]
ʔ a s a n k a b a <int> 
[118.575]
<no-speech> 
[119.885]
ʔ a 
[120.425]
<no-speech> 
[122.475]
n a s a n k a b ɐ t ʔ ɐ ŋ ʔ i ŋ ɐɪ ʔ i ŋ aɪ m o 
[124.465]
<no-speech> 
[126.715]
ʔ a <no-speech> ʔ ɐ ŋ ʔ i ŋ ɐɪ ʔ i ŋ aɪ m o ʤ a ʔ a n <hes> p a r ɐ ŋ m e k u m a k ɐ n t a 
[130.525]
<no-speech> 
[132.135]
ʔ o 
[132.775]
<no-speech> 
[134.055]
m e k u m a k ɐ n t a ʤ a ʔ a n <hes> n a s a n k a b a 
[136.005]
<no-speech> 
[138.765]
<int> ʔ ɐ n u 
[139.385]
<no-speech> 
[142.315]
ʔ ɐ ŋ s a b e k o ʔ ɐ ŋ r eɪ ʤ oʊ m o ʔ ɐ ŋ ʔ i ŋ ɐɪ ʔ i ŋ aɪ m o ʤ a ʔ a n ʔ ɐ ŋ ʔ i ŋ ɐɪ ʔ i ŋ aɪ m o m e t a ʔ u ŋ m e k u m a k ɐ n t a ʔ ɐ n u b a j a ʔ a n 
[148.915]
<no-speech> 
[150.025]
k ɐ ʔ u s a p i n m o t ɐ l ɐ g a ʔ 
[151.335]
<no-speech> 
[157.405]
n a s a n k a b a t ɐ l ɐ g a ʔ 
[158.935]
<no-speech> 
[160.975]
ʔ a 
[161.485]
<no-speech> 
[163.065]
n a s a n k a b a t ɐ l ɐ g a ʔ 
[164.695]
<no-speech> 
[166.095]
<no-speech> 
[166.645]
<no-speech> 
[170.955]
ʔ o m ɐ l a j o ʔ <hes> h i n d e ʔ m o ŋ a ʔ s i n a s ɐ g o t <hes> ʔ i k aʊ ʔ ɐ ŋ n ɐ k ɐ ʔ ɐ n l i 
[174.515]
<no-speech> 
[177.175]
ʔ ɐ n u n ɐ r i r i n i g m o ʔ ɐ k o <no-speech> <hes> d a h i l ʔ ɐ ŋ ʔ i ŋ aɪ m o <no-speech> s a b e k o d a d ɐ ʔ a n ʔ ɐ k o s ɐ m ɑ l s ɐ b i h i n m o k u ŋ ʔ ɐ n u ŋ p ɐ s ɐ l u b o ŋ k o s ɐ j u ʔ ɐ ŋ ʔ i ŋ aɪ n o ŋ k ɐ n t a n j o 
[186.245]
<no-speech> 
[187.425]
s ɐ s a b ɐ d u ʔ o d u m i ŋ g o <int> <no-speech> s i g e <no-speech> <int> p a r a m ɐ p ɐ t u n a j a n k o s ɐ j u n ɐ t ɐ l ɐ g ɐ ŋ t u t o ʔ ɐ ŋ s i n ɐ s a b i k o <breath> ʔ a 
[194.625]
<no-speech> 
[195.515]
ʔ o 
[196.415]
<no-speech> 
[197.315]
n eɪ m j o r ʧ oɪ s s ɐ b i h i n m o k u ŋ ʔ ɐ n u p a r a ʔ ɐ n u 
[200.015]
<no-speech> 
[200.845]

[202.715]
<no-speech> 
[205.145]
ʔ a <no-speech> <sta> ʔ ʌ n d ə r s t æ n d m o 
[207.225]
<no-speech> 
[208.815]

[214.145]
<no-speech> 
[215.695]
ʔ æ t <hes> b ɐ s t a s a s ɐ b i h i n m o l a ʔ a ŋ k u ŋ ʔ ɐ n u j o ʔ o n 
[218.415]
<no-speech> 
[219.655]
k a h e t ʔ ɐ n u ŋ s ɐ b i h i n n i l a ʔ o ʔ ɐ n u ʔ ɐ n u <no-speech> b ɐ s t ɐ t w ɐ g m u ŋ k ɐ l i m u t a n n ɐ <no-speech> m ɐ h a l n ɐ m ɐ h a l k i t a 
[227.045]
<no-speech> 
[229.005]
<sta> m e r o n k a b æ ŋ p e r a m ɐ h a l n ɐ m ɐ h a l k i t a l ɐ h a t n ɐ ŋ k a ʔ i b i g a n m o g u g u l u h i n k o p a g s a b e m o d i m o k o l ʌ v d i m o k o l ʌ v ʔ a <no-speech> g a g ɐ w i n k o 
[240.185]
<sta> ʔ i s ɐ ŋ s u b u ʔ a n l a ʔ a ŋ j a ʔ a n 
[243.055]
<no-speech> 
[244.485]
<int> ʔ ɐ n u <hes> n ɐ ʔ i n t i n d i h a n m o ʔ ɐ k o 
[246.525]
<no-speech> 
[247.635]
j o ʔ o ŋ ʔ i s a d ɐ l a 
[248.605]
<no-speech> 
[252.425]
<no-speech> 
[252.865]
<no-speech> 
[255.655]
ʔ o 
[256.255]
<no-speech> 
[258.605]
m ɐ ŋ a ʔ k ɐ h i m a n w a ʔ o p a ʔ ɐ n u ʔ o p ɐ l ɐ b a s n ɐ k o <breath> p ɐ p u n t a n ɐ ʔ ɐ k o ʤ a ʔ a n 
[264.205]
<no-speech> 
[265.745]
<int> ʔ a <no-speech> n o r m ə l k a p a b a ʔ o ʔ ɐ l a ʔ k a n ɐ ʔ o ʔ ɐ l a ʔ k a n ɐ j a t a ʔ <hes> 
[270.335]
<no-speech> 
[271.205]
ʔ o h i n d e ʔ m o n ɐ h i n d e ʔ m o n ɐ j a t a ʔ n ɐ r i r i n i g ʔ ɐ ŋ s i n ɐ s a b i k o <hes> <no-speech> <sta> n ɐ r i r i n i g m o b a ʔ ɐ k o 
[277.715]
<no-speech> 
[279.665]
t ɐ j u ʔ ŋ a ʔ <no-speech> s ɐ g u t i n m o k ɐ s e ʔ ɐ k o n ɐ ŋ m a j o s 
[283.825]
<no-speech> 
[283.96]
