[0.0]
s ɐ n d ɐ l e ʔ l a ʔ a ŋ <int> 
[2.935]
<sta> h ɛ l oʊ m a m a 
[6.095]
<no-speech> 
[8.365]
h ɛ l oʊ m a <int> 
[9.185]
<no-speech> 
[10.175]
m a 
[10.715]
<no-speech> 
[11.845]
ʔ a <sta> h i n d e ʔ s i r eɪ ʧ ə l t o <cough> p o ʔ 
[16.875]
<no-speech> 
[21.005]
ʔ a ʔ ɐ k o m a <sta> ʔ ɐ k o t o 
[24.465]
<no-speech> 
[27.015]
h ɛ l oʊ m a 
[27.855]
<no-speech> 
[29.255]
m a 
[29.795]
<no-speech> 
[31.075]
h ɛ l oʊ <no-speech> m a m a ʔ 
[33.035]
<no-speech> 
[34.105]
s i r eɪ ʧ ə l t o m a <int> ʔ ɐ n u <laugh> b a k e t b a k e t b a k e t m o b i n a b a ʔ b a k e t m o b i n a b a ʔ 
[43.495]
<no-speech> 
[46.065]
m a 
[46.655]
<no-speech> 
[51.215]
ʔ a <breath> 
[52.685]
<no-speech> 
[53.735]
h ɐ j a n m o l a ʔ a ŋ j a ʔ a n m a <int> 
[55.485]
<no-speech> 
[56.935]
<sta> ʔ ɐ n u ʔ o 
[59.975]
<no-speech> 
[61.815]
b a k a m e b a k a m e r o n d e n d o n ʔ a <laugh> b a k a m e r o n d e n d o n k e <hes> ʔ ɐ n u k e n o r a b ɐ s t a k ɐ ʔ u s a p i n m o l a ʔ a ŋ k ɐ m e h ɐ ŋ g ɐ ŋ ʔ ɐ n u s ɐ p a t o s t o ʔ o <int> 
[73.625]
<no-speech> 
[74.695]
<no-speech> 
[76.565]
ʔ ɐ n u <laugh> 
[79.395]
<no-speech> 
[80.365]
h ɐ j a n m o s i j a m a 
[81.565]
<no-speech> 
[83.335]
ʔ o h i n d e ʔ m o k o n ɐ r i r i n i g m o k o <no-speech> <int> n ɐ r i r i n i g m o k o 
[87.495]
<no-speech> 
[91.905]
ʔ o <hes> p e r o ʔ i k aʊ d i t u m ɐ g ɐ n d a j o ʔ o ŋ ʔ ɐ n u m o <sta> b o s e s m o 
[95.845]
<no-speech> 
[97.365]
ʔ ɐ n u k u m u s t a n ɐ k ɐ j u ʤ a ʔ a n 
[99.155]
<no-speech> 
[100.285]
ʔ o 
[100.955]
<no-speech> 
[107.705]
ʔ o t u m a w a g ŋ a ʔ ʔ ɐ k o s ɐ k ɐ n j a h i n d e ʔ n i j a n ɐ r i r i n i g <hes> 
[110.655]
<no-speech> 
[111.815]
m a p a g ʔ u m u l a n 
[113.325]
<no-speech> 
[114.495]
ʔ ə m h ə m m ɐ l ɐ k a s d aʊ ʔ ɐ ŋ ʔ u l a n d o n k a j a h i n d e ʔ n i j a n ɐ r i r i n i g 
[117.445]
<no-speech> 
[119.185]
<sta> h i n d e ʔ s a b e k o <oov> d i t u r aʊ s i l a m ɐ g m a m ɐ h a l n ɐ ʔ a r aʊ <hes> d i t u r aʊ s i j a m ɐ g m a m ɐ h a l n ɐ ʔ a r aʊ t ɐ s k ɐ s a m a <oov> k ɐ s a m a j a t a ʔ n i l a s i 
[131.035]
t o p e ŋ <sta> <no-speech> k ɐ s a m a n ɐ ŋ a ʔ n i j a <no-speech> k ɐ s a m a n i j a n ɐ s i t o p e ŋ p ɐ g b ɐ l i k d o n 
[137.795]
<no-speech> 
[138.775]
ʔ o ŋ a ʔ <laugh> ʔ o m a <hes> m ɐ t ɐ g a l ŋ a ʔ j u n d o n <hes> s i l a 
[144.935]
<no-speech> 
[146.455]
h ɛ l oʊ m a 
[147.225]
<no-speech> 
[149.475]
k ɐ s e m ɐ g <int> m ɐ g k ɐ s a m a n ɐ j a t a ʔ s i l a <int> p a g 
[152.885]
<no-speech> 
[153.975]
p a g 
[154.495]
<no-speech> 
[155.305]
p ɐ g ʔ u w i ʔ n i j a <no-speech> <sta> ʔ i s ɐ s a m a n ɐ n i l a 
[158.265]
<no-speech> 
[160.195]
<int> s a b e k o ŋ a ʔ <hes> m a s m ɐ g ɐ n d a ŋ a ʔ j u n <no-speech> ʔ o m a s m ɐ g ɐ n d a ŋ a ʔ j o ʔ o ŋ m ɐ g k ɐ s a m a n ɐ l a ʔ a ŋ s i l a d u n s ɐ t r ɐ b a h u <hes> 
[166.325]
<no-speech> 
[167.285]
<int> d i b a k e s a n ɐ m a n d i t u ʔ ɐ l a ʔ s i j ɐ ŋ t r ɐ b a h u ʔ a t a ʔ <hes> 
[170.285]
<no-speech> 
[171.375]
h ɛ l oʊ m a 
[172.175]
<no-speech> 
[176.655]
n ɐ k ɐ ʔ e k s t r a s i j a 
[178.005]
<no-speech> 
[180.825]
n ɐ k a m i n s a n n ɐ k ɐ ʔ e k s t r a s i j a ʔ o <sta> m e r ʔ o n ʔ a t a ʔ 
[185.815]
<no-speech> 
[188.095]
t ɐ s p a g ʔ ɐ n u <no-speech> <sta> p a g n a g <hes> m e r o n j a t a ʔ s i j a ŋ aɪ ʔ o n m a 
[192.745]
<no-speech> 
[193.915]
m e r o n s i j ɐ ŋ m ɐ ʔ e k s t r ɐ h a n 
[195.425]
<no-speech> 
[197.065]
<int> ʔ o <no-speech> k a j a s a b e n i j a 
[199.545]
<no-speech> 
[201.475]
m a 
[202.105]
<no-speech> 
[204.295]
ʔ ɐ l e n m a 
[205.145]
<no-speech> 
[208.815]
<sta> ʔ o ŋ a ʔ <hes> 
[209.845]
<no-speech> 
[211.995]
p e r o ʔ ɐ j a n n ɐ ʔ i n t i n d i h a n m o j o ʔ o ŋ t a w a g k o 
[214.195]
<no-speech> 
[215.335]
ʔ o m a m ɐ l i n aʊ 
[216.755]
<no-speech> 
[221.045]
ʔ a h ɐ j a n m o n ɐ l a ʔ a ŋ <laugh> 
[226.875]
<no-speech> 
[230.245]
ʔ o <hes> n ɐ n d u n s i ʔ ə l eɪ n 
[233.035]
<no-speech> 
[237.375]
ʔ e t o ʔ oʊ k eɪ l a ʔ a ŋ 
[239.015]
<no-speech> 
[240.325]
l a l u ŋ ʔ ɐ n u n ɐ t ɐ l ɐ g a ʔ ʔ i t u 
[242.445]
<no-speech> 
[244.725]
ʔ o m a 
[245.545]
<no-speech> 
[247.575]
g ɐ n o n p a r e n p u m ɐ p a s o k p a r e n ʔ ɐ k o 
[249.855]
<no-speech> 
[256.985]
ʔ o m a 
[257.864875]
<no-speech> 
[258.975]
m i n s a n <int> ʔ o m a 
[261.095]
<no-speech> 
[262.235]
m i n s a n n a g n ɐ g ʔ a ʔ ɐ n u ŋ a ʔ d i t u s i l a ʔ ɐ n u s i l a t o p e ŋ 
[265.895]
<no-speech> 
[266.825]
<int> m i n s a n ʔ u m a n o d i t u s i l a t o p e ŋ t ɐ s b i n i b i g j a n k o ŋ a ʔ 
[270.975]
<no-speech> 
[272.265]
<int> k ɐ s e m i n s a n ʔ ɐ l a ʔ ŋ a ʔ s i l ɐ ŋ ʔ ɐ n u <hes> 
[274.605]
<no-speech> 
[275.895]
<int> ʔ o 
[276.815]
<no-speech> 
[279.805]
k a j a ŋ a ʔ <hes> <int> 
[281.575]
<no-speech> 
[282.625]
k a j a ŋ a ʔ s a b e k o h a b ɐ ŋ ʔ ɐ n u d a p a t m ɐ k ɐ ʔ e k s t r a m u n a s i j a h a b ɐ ŋ ʔ ɐ l a ʔ p a s i l a ʔ ɛ d i <no-speech> k ɐ s e p ɐ g b ɐ l i k n i l a d o n <hes> m ɐ t ɐ g a l p a r aʊ j u n <hes> 
[291.385]
<no-speech> 
[293.955]
d i <hes> <int> ʔ ə m h ə m <oov> m ɐ l ɐ k e p a r aʊ j u n m a 
[298.885]
<no-speech> 
[300.285]
n ɐ <int> 
[301.005]
<no-speech> 
[302.495]
m ɐ l ɐ k e p a r aʊ j u n 
[303.855]
<no-speech> 
[306.405]
m ɐ l ɐ k e p a j o ʔ o ŋ 
[308.075]
<no-speech> 
[311.515]
h i n d e ʔ s i n a b e <hes> h i n d e ʔ n ɐ m a n s i l a ʔ ɐ r a w a n 
[313.835]
<no-speech> 
[314.755]
h i n d e ʔ s i l a ʔ ɐ r a w a n 
[316.165]
<no-speech> 
[318.495]
h i n d e ʔ <no-speech> b ɐ s t a p a g ʔ ɐ n u p ɐ g k ɐ t a p u s n o ŋ <hes> ʔ ɐ n u n i l a g ɐ w a ʔ d u n n ɐ s i l a b a b ɐ j a r a n 
[323.785]
<no-speech> 
[328.475]
ʔ o p e r o p e r o p e d e s i l ɐ ŋ ʔ ɐ n u p e d e s i l ɐ ŋ m ɐ g ʔ ɐ n o p a g m ɐ g ʔ ɐ n o b a l i ʔ o b a l i s i l a ʔ o ʔ ə m h ə m j o ʔ o ŋ 
[340.185]
<no-speech> p a r a s ɐ p ɐ m i l j a b a 
[342.155]
<no-speech> 
[343.875]
n ɐ n d i t o <laugh> <sta> n ɐ k i k i n i g 
[347.415]
<no-speech> 
[351.535]
h i n d e ʔ h i n d e ʔ m a 
[353.145]
<no-speech> 
[356.695]
h i n d e ʔ h i n d e ʔ h i n d e ʔ 
[358.165]
<no-speech> 
[360.445]
ʔ ɐ k o l a ʔ a ŋ 
[361.315]
<no-speech> 
[361.68]
