[0.0]
<sta> h ɛ l oʊ ʔ o <no-speech> h ɛ l oʊ ʔ o <no-speech> ʔ oʊ k eɪ n ɐ m a n ʔ i k aʊ 
[11.435]
<sta> ʔ oʊ k eɪ n ɐ m a n k ɐ j u <no-speech> s ɐ b a h aɪ n ɐ n d i t o k ɐ m e s ɐ ʔ ɐ n u k i l a 
[18.085]
<no-speech> 
[19.345]
<sta> s a n <no-speech> n ɐ n d i t o k ɐ m e s ɐ b a h aɪ n i l a t i t a ʃ a n i <no-speech> <hes> s ɐ b a h aɪ n i t i t a n i t a ŋ <no-speech> n ɐ k i l a t i t a ʔ o ʔ u w i ʔ n ɐ ʔ o ʔ u w i ʔ n ɐ k ɐ s e s i 
[31.045]
t i t a ʃ a n i b u k a s 
[33.285]
<no-speech> 
[34.285]
<no-speech> 
[36.085]
<no-speech> 
[37.455]
h ə m 
[38.235]
<no-speech> 
[39.085]
<no-speech> 
[39.435]
<no-speech> 
[40.575]
<no-speech> 
[40.935]
<no-speech> 
[41.955]
<sta> <hes> ʔ ɐ l a ʔ ʔ ɐ n d i t o s ɐ m e t i p a t l a ʔ a ŋ <no-speech> ʔ a 
[47.145]
<no-speech> 
[48.265]
<sta> ʔ ɐ n u <no-speech> d i t u k ɐ m e s ɐ m e ʔ ɐ n u s ɐ m e t i p a t 
[52.915]
<no-speech> 
[53.715]
<sta> t i p a t m ɐ h o g ɐ n i <no-speech> ʔ o <no-speech> ʔ ɐ l a ʔ p i n ɐ p u n t a l a ʔ a ŋ k ɐ m e k ɐ s e 
[64.805]
<sta> b a g o ŋ a ʔ d aʊ ʔ u m ɐ l e s <no-speech> ʔ o <no-speech> ʔ ɐ n u k a b a m a m ɐ j a ʔ p a j o ʔ o n <laugh> h ɛ l oʊ ʔ o 
[76.775]
<no-speech> 
[78.705]
<no-speech> 
[79.675]
<sta> s i n u <no-speech> ʔ o s i d æ d i ʔ ɐ n d i j a n <no-speech> h i n d e ʔ <no-speech> h i n d e ʔ k o <oov> 
[91.585]
<sta> s ɐ m a ʔ k ɐ s e ʔ ɐ n u ʔ ɐ l a m m o n ɐ m a n m ɐ g b i b i j a h e p a <hes> <no-speech> ʔ a 
[97.865]
<no-speech> 
[99.135]
<sta> s i j e m p r e k ɐ ʔ i l a ŋ a n k o n ɐ m a n g u m a l a ʔ n o 
[106.745]
<no-speech> 
[108.045]
p i n ɐ g k o k o l s 
[108.945]
<no-speech> 
[110.135]
<sta> s ɐ t w ɛ n t i s ɪ k s p a k o ʔ i s t a r t k ɐ s e ŋ a ʔ s a b e n u ŋ ʔ ɐ n u ʔ ɐ n u b a t o s a b e n u ŋ k u m p a n j a k ɐ ʔ i l a ŋ a n k o n ɐ ŋ ʔ oʊ b i g i n n ɐ s ɜ r t ɪ f ɪ k ə t 
[121.715]
<sta> t ɐ s 
[124.795]
<no-speech> 
[125.635]
<sta> <hes> d i ʔ ɐ n u <no-speech> j o ʔ o ŋ s ɜ r t ɪ f ɪ k ə t n ɐ ŋ ʔ oʊ b i g i n k o <no-speech> k a s u d i ʔ ɐ k o m ɐ b i g j a n n ɐ ŋ ʔ oʊ b i g i n k o k ɐ s e d ɐ l w ɐ ŋ b u w a n d aʊ b a g o ʔ ɐ k o b i g j a n 
[135.285]
<no-speech> 
[137.195]
<int> ʔ o t ɐ s ʔ ɐ ŋ n ɐ ŋ j a r i 
[139.625]
<no-speech> 
[140.715]
s ɐ t w ɛ n t i s ɪ k s s a b e n i j a <no-speech> s ɐ k ɐ t ɐ p u s a n p a n i j a ʔ ɐ k o b i b i g j a n n ɐ ŋ <no-speech> ʔ ɐ n u ʔ oʊ b i g i n s ɜ r t ɪ f ɪ k eɪ ʃ ə n k a j a s ɐ k ɐ t ɐ p u s a n p a ʔ ɐ k o m ɐ k a k ɐ p a s o k k ɐ s e k u ŋ p ɐ p a p ɐ s u k i n n ɐ m a n d aʊ ʔ ɐ k o n ɐ ŋ k u m p a n j a 
[152.205]
k ɐ w a w a ʔ n ɐ m a n j o ʔ o ŋ k u m p a n j a k u ŋ m e m ɐ ŋ j ɐ j a r i s ɐ ʔ a k i ŋ m ɐ s a m a h aɪ t i t a <int> 
[157.255]
<no-speech> 
[158.075]
<no-speech> 
[160.365]
<no-speech> 
[161.175]
ʔ o ʔ ɐ ŋ g a g ɐ n d a n ɐ ŋ b a h aɪ d i t u 
[162.895]
<no-speech> 
[164.715]
<no-speech> 
[165.575]
<no-speech> 
[168.585]
ʔ o s ɐ k ɐ t ɐ p u s a n ŋ a ʔ k i n u h a n ɐ l ɐ h a t n ɐ ŋ l ɐ h a t ŋ a ʔ n ɐ ŋ r ɪ k w aɪ r m ə n t s k o n ɐ g p ɐ s a n ɐ ʔ ɐ k o 
[173.105]
<no-speech> 
[176.105]
k u ŋ b a g a ʔ p ɐ p ɐ s o k ʔ ɐ n u 
[177.805]
<no-speech> 
[179.405]
ʔ oʊ k eɪ n ɐ m a n <no-speech> n ɛ g ə t ɪ v l ɐ h a t <no-speech> p ɑ z ɪ t ɪ v j o ʔ o ŋ ʔ ɐ n u ʤ o k <int> <hes> d i ʔ oʊ k eɪ n ɐ m a n j o ʔ o ŋ ʔ ɐ n u ʔ ɐ ŋ g ɐ n d a n ɐ ŋ 
[191.115]
b a h aɪ d i t u <int> ʔ ɐɪ m e ʔ a s o <no-speech> m e ʔ a s o <laugh> 
[196.735]
<no-speech> 
[198.835]
h oɪ b a k a m ɐ h a b o l t o ʤ o w æ n ə 
[200.825]
<no-speech> 
[201.625]
ʔ o ʔ ɐ ŋ g ɐ n d a <sta> d i t u k ɐ m e ʔ ɐ n u h i n d e ʔ ʔ ɐ n u t o <hes> ʔ i s ɐ ŋ k ə m p aʊ n d t o 
[211.605]
<no-speech> 
[212.575]
ʔ ɐ n u <sta> ʔ ɐ n u 
[217.195]
<no-speech> 
[218.115]
<sta> b u k a s <no-speech> k a j a ŋ a ʔ p i n ɐ p u n t a k ɐ m e d i b a <no-speech> ʔ ɐ ŋ d a m e n ɐ m ɐ ŋ ʔ a s o d i t u 
[229.315]
<no-speech> 
[230.555]
<no-speech> 
[231.865]
<no-speech> 
[233.175]
ʔ o <sta> ʔ ɐ ŋ g ɐ n d a d i t u ʔ ɐ ŋ g ɐ n d a p r ɑ m ɪ s <no-speech> b a g aɪ s i d æ d i r i t o 
[238.615]
<no-speech> 
[239.645]
<sta> h ɛ l oʊ <no-speech> ʔ o s o b r a <no-speech> s o b r ɐ ŋ h a ŋ i n p a r a k ɐ ŋ 
[250.635]
ʔ ɐ l a m m o j o ʔ o ŋ ʔ ɐ n u 
[251.895]
<no-speech> 
[252.715]
<no-speech> 
[253.115]
<no-speech> 
[255.235]
<no-speech> 
[255.885]
<no-speech> 
[257.684875]
b ɐ h ɐ ʔ i n d i t u <no-speech> <sta> ʔ e w a n k o l a ʔ a ŋ <no-speech> s i g u r o ʔ e w a n k o h i n d e ʔ d aʊ <hes> 
[269.665]
s i s i s ɐ r i l e s d aʊ t o <hes> 
[272.435]
<no-speech> 
[277.505]
<sta> p e r o ʔ ɐ ŋ g ɐ n d a 
[281.575]
<no-speech> 
[282.995]
<sta> ʔ a 
[283.715]
<no-speech> 
[285.375]
<sta> m ɐ g ɐ n d a r i t o <no-speech> p e r o k u m u s t a n ɐ m a n s i s i l d a 
[297.115]
<sta> n a s a n b a k ɐ j u 
[302.255]
<no-speech> 
[303.385]
<no-speech> 
[304.085]
<no-speech> 
[304.885]
ʔ a 
[306.275]
<no-speech> 
[307.395]
ʔ o s i g e 
[308.435]
<no-speech> 
[309.245]
<sta> ʔ ɐ n u <no-speech> h i n d e ʔ b a k a h oɪ m e m ɐ ŋ g a n ɐ ʤ a ʔ a n ʔ a <no-speech> h oɪ p ɐ g ʔ u w i ʔ m o d aʊ d i t u m ɐ g d ɐ l a k a n ɐ ŋ m ɐ ŋ g a 
[321.185]
<no-speech> 
[333.135]
ʔ u w i ʔ d i t u ʔ a t i <sta> h i n d e ʔ ʔ ɐ ŋ g ɐ n d a <no-speech> m e p ɑ r k ɪ ŋ ʔ i s p eɪ s p a 
[344.895]
<sta> m ɐ g k a n u d aʊ d i t u <no-speech> ʔ a m ɐ l ɐ k e p o r m ɪ l j ə n 
[356.515]
<sta> l u p ɐ t b a h aɪ <no-speech> ʔ o <no-speech> m e g ɐ r a h e <no-speech> p ɐ t a t ɐ w a r a n p aɪ b h ʌ n 
[368.395]
d r e d θ aʊ z ə n d n ɐ l a ʔ a ŋ 
[369.495]
<no-speech> 
[370.295]
<sta> ʔ ɐɪ d u n n ɐ l a ʔ a ŋ ʔ ɐ k o s ɐ w ʌ n p oɪ n t t u <laugh> 
[381.145]
<no-speech> 
[382.575]
<sta> ʔ o ŋ a ʔ g u s t u k o ŋ a ʔ s ɐ k ɐ b i t e n ɐ l a ʔ a ŋ m ɐ h a ŋ i n p a m ɐ p r e s k o 
[394.385]
<no-speech> 
[404.765]
<no-speech> 
[405.815]
<sta> ʔ ɐ n u <no-speech> ʔ ɐ n u <no-speech> h ɛ l oʊ 
[416.035]
<no-speech> 
[417.875]
<sta> b u ŋ p ɐ m i l j a ʔ ɐ n u k a b a m ɐ g h ɐ n d a ʔ k a n ɐ ŋ m ɐ r a m e <breath> k e l a n ʔ æ t s a n t o 
[429.825]
<no-speech> 
[431.245]
<no-speech> 
[434.355]
<no-speech> 
[434.735]
<no-speech> 
[436.075]
<sta> d i p a g ʔ ɐ n u p ɐ g k ɐ g r a ʤ u w eɪ t n i s i l d a m ɐ g t ɐ g ɐɪ t aɪ n ɐ l a ʔ a ŋ t ɐ j u ʔ s ɐ m a ʔ k o s i s aɪ ʤ a n <no-speech> ʔ æ t s i r eɪ n a j o ʔ o ŋ s ɐ s ɐ k j a n n i k u j a ʤ ɑ ʃ <no-speech> ʔ ɐ n u k a b a 
[447.925]
p e d e n ɐ s i j a <sta> ʔ ɐ l a ʔ n ɐ m ɐ ŋ s ɐ k e t 
[452.975]
<no-speech> 
[454.115]
<no-speech> 
[454.525]
<no-speech> 
[456.125]
<sta> ʔ a ʔ o <no-speech> s ɐ b a g aɪ ʔ ɐ k o n ɐ l a ʔ a ŋ ʔ a ʔ ɐ l e s t a t aɪ n ɐ l a ʔ a ŋ n i j a m ɐ ʔ i w a n s ɐ k ɐ n i j a 
[461.435]
<no-speech> 
[463.695]
<no-speech> 
[464.165]
<no-speech> 
[465.025]
ʔ ɐɪ <no-speech> s ɐ m a ʔ k o t ɐ l ɐ g a ʔ n ɐ k o p ɐ p u p u n t ɐ h i n p ɐ p u p u n t ɐ h i n k o n ɐ l a ʔ a ŋ j o ʔ o ŋ ʔ a t i n i f r æ n s ɪ s <sta> d u n <no-speech> s ɐ b a h aɪ p a r a m e k ɐ s a m a s i j a 
[476.165]
<int> s ɐ b a h aɪ m ɐ g ʔ a l a g a ʔ k e s aɪ ʤ a n n o 
[478.265]
<no-speech> 
[479.215]
<sta> h i n d e ʔ h i n d e ʔ k o m ɐ ʔ i w a n s ɐ b a h aɪ d i b a 
[485.155]
<no-speech> 
[485.955]
<sta> ʔ o p ɐ p u p u n t ɐ h i n k o n ɐ l a ʔ a ŋ 
[494.855]
<no-speech> 
[495.975]
<sta> ʔ oʊ k eɪ n ɐ m a n n ɐ g t i t i n d a n ɐ k a j a k ɐ m e <no-speech> n ɐ g t i t i n d a n ɐ k ɐ m e k e l a n k a b a ʔ u w i ʔ <no-speech> n ɐ g t i t i n d a n ɐ k ɐ m e 
[506.195]
<no-speech> 
[507.125]
<sta> ʔ ɐ ŋ s ɐ r a p n ɐ ŋ s i j o m aɪ n i t ɪ n t ɪ n 
[511.045]
<no-speech> 
[512.284875]
<sta> s a b e ŋ a ʔ n i d æ d i ʔ u w i ʔ k a d aʊ 
[519.355]
<no-speech> 
[522.255]
<no-speech> 
[523.045]
<no-speech> 
[526.035]
<no-speech> 
[526.395]
<no-speech> 
[527.525]
<sta> b a k a m ɐ t ɐ g ɐ l a n k a p a p ɐ g ʔ u w i ʔ <no-speech> h ɛ l oʊ 
[534.865]
<no-speech> 
[536.285]
<sta> ʔ ɐ n u 
[539.175]
<no-speech> 
[540.505]
<sta> k a l a ʔ k o b a r b e k j u 
[544.785]
<no-speech> 
[546.165]
<sta> ʔ a 
[547.035]
<no-speech> 
[548.375]
<sta> b i b i g j a n k a n ɐ m a n n i d æ d i n ɐ ŋ p u h u n a n <hes> 
[558.145]
<no-speech> 
[560.885]
<sta> s ɐ k a m ɐ g ʔ a r a l k a ŋ a ʔ d aʊ 
[565.705]
<no-speech> 
[570.125]
<no-speech> 
[570.495]
<no-speech> 
[572.755]
<sta> ʔ o <no-speech> ʔ ɐ n u b a t u ŋ m ɐ ŋ a ʔ k ɐ p ɐ t e d k o n ɐ g p i ʧ u r a n n ɐ ŋ n ɐ g p i ʧ u r a n <no-speech> ʔ ɐ n u 
[580.605]
<no-speech> 
[582.515]
ʔ ɐ n u 
[583.415]
<no-speech> 
[584.295]
n ɐ g p i p i ʧ u r p i ʧ u r s i l a s ɐ b a h aɪ 
[586.735]
<no-speech> 
[587.555]
<sta> n ɐ g p i p i ʧ u r p i ʧ u r s ɐ b a h aɪ <no-speech> h ɛ l oʊ <no-speech> ʔ ɐ n u 
[595.595]
<no-speech> 
[597.165]
<no-speech> 
[597.365]
<no-speech> 
[600.28]
