[0.0]
<sta> h ɛ l oʊ <no-speech> h ɛ l oʊ <no-speech> ʔ o <no-speech> k ɐ m u s t a k a ʤ a ʔ a n 
[11.655]
<int> ʔ a 
[18.075]
<no-speech> 
[18.875]
<sta> ʔ a ʔ ɐ n u ŋ h ɐ n d a ʔ ʤ a ʔ a n <no-speech> ʔ ɐ n u ŋ h ɐ n d a ʔ ʤ a ʔ a n 
[25.205]
<no-speech> 
[28.065]
<sta> ʔ o s i g e <no-speech> ʔ a <no-speech> <oov> ʔ ɐ n d i t o s ɐ m i n s ɐ f l a j ə r s a n s i ʤ ɛ r i <no-speech> l i b i s 
[36.155]
<no-speech> 
[37.765]
<sta> ʔ oʊ k eɪ l a ʔ a ŋ k aʊ k ɐ m u s t a k a n ɐ <no-speech> ʔ i k aʊ k ɐ m u s t a k a n ɐ <no-speech> ʔ o <no-speech> l ɛ s ʔ ɐ k o s ɐ t r aɪ s ɪ k ə l <hes> <no-speech> n ɐ k ɐ s ɐ k aɪ <hes> 
[49.545]
ʔ i k aʊ k ɐ m u s t a k a n ɐ 
[50.555]
<no-speech> 
[52.135]
ʔ a <int> 
[55.075]
<no-speech> 
[55.895]
ʔ o <no-speech> <int> k ɐ m u s t a n ɐ k ɐ m u s t a n ɐ g i ŋ ʔ ɐ n u ʤ a ʔ a n j o ʔ o ŋ b ɜ r θ d eɪ ʤ a ʔ a n 
[59.855]
<no-speech> 
[61.605]
ʔ o <sta> ʔ o 
[64.455]
<no-speech> 
[66.575]
<sta> ʔ a <no-speech> m u k ɐ ŋ m ɐ r a m i ŋ p ɐ g k a ʔ e n ʤ a ʔ a n ʔ a 
[71.345]
<no-speech> 
[72.295]
<int> ʔ a 
[73.965]
<no-speech> 
[76.635]
ʔ a 
[77.125]
<no-speech> 
[78.245]
<no-speech> 
[78.735]
<no-speech> 
[80.005]
<sta> <oov> n ɐ k ɐ s ɐ k aɪ ʔ ɐ k o s ɐ t r aɪ s ɪ k ə l <no-speech> n ɐ k ɐ s ɐ k aɪ ʔ ɐ k o s ɐ t r aɪ s ɪ k ə l 
[86.195]
<no-speech> 
[88.285]
n ɐ k ɐ s ɐ k aɪ ʔ ɐ k o s ɐ t r aɪ s ɪ k ə l <hes> 
[89.715]
<no-speech> 
[94.205]
ʔ ɐ n u m o ŋ a ʔ <no-speech> ʔ ɐ n u m u ŋ h ɐ n d a ʔ 
[95.825]
<no-speech> 
[97.975]
<sta> ʔ ɐɪ n ɐ g ʔ i n u m a n n ɐ s i l a ʤ a ʔ a n <no-speech> d i ʔ ɐ k o m ɐ k a k ɐ p u n t a <hes> <no-speech> d i ʔ ɐ k o m ɐ k a k ɐ p u n t a <laugh> 
[108.125]
<no-speech> 
[109.085]
ʔ a <sta> <no-speech> s ɐ t r aɪ s ɪ k ə l <no-speech> n a s a n a s a t r aɪ s ɪ k ə l k ɐ s e ʔ ɐ k o <hes> 
[115.025]
<no-speech> 
[116.675]
<no-speech> 
[117.045]
<no-speech> 
[118.005]
<no-speech> 
[119.015]
<no-speech> 
[122.035]
<sta> s i n u <no-speech> k ɐ m u s t a n ɐ s i p ɐ p a <no-speech> k ɐ m u s t a n ɐ s i p ɐ p a <no-speech> ʔ a <no-speech> k ɐ m u s t a s i m a m a ʔ m o 
[132.835]
<sta> k a j a ŋ a ʔ n a s a t r aɪ s ɪ k ə l ŋ a ʔ ʔ ɐ k o 
[136.485]
<no-speech> 
[138.085]
<sta> ʔ oʊ k eɪ l a ʔ a ŋ j o ʔ o ŋ s i p ɐ p a <no-speech> n ɐ g t ɐ t r aɪ s i k e l ʔ ɐ k o <hes> <no-speech> <oov> ʔ oʊ k eɪ ʔ oʊ k eɪ n ɐ s i p ɐ p a <no-speech> j o ʔ o ŋ <no-speech> p u m u p u n t a 
[148.245]
<no-speech> 
[149.105]
p u p u n t a ʔ ɐ k o 
[150.425]
<no-speech> 
[151.425]
k a h e t p ɐ p a n o <sta> <no-speech> ʔ i l ɐ g aɪ m o s ɐ p eɪ s b u k <no-speech> k ɐ m u s t a n ɐ k ɐ m u s t a n ɐ k ɐ j u ʤ a ʔ a n <no-speech> k ɐ m u s t a n ɐ k ɐ j u ʤ a ʔ a n 
[160.615]
<no-speech> 
[163.595]
<sta> ʔ a <no-speech> k ɐ m u s t a n ɐ k ɐ j u ʤ a ʔ a n <no-speech> ʔ a <no-speech> ʔ a <no-speech> k u j a k ɐ m u s t a n ɐ k ɐ j u ʤ a ʔ a n 
[175.575]
<no-speech> 
[176.955]
<no-speech> 
[178.215]
ʔ o <sta> <no-speech> k ɐ m u s t a n ɐ k ɐ j u ʤ a ʔ a n 
[186.135]
<no-speech> 
[188.125]
<int> ʔ a 
[191.505]
<no-speech> 
[193.455]
<sta> s i n u 
[197.745]
<no-speech> 
[198.815]
<int> h ɛ l oʊ <int> 
[201.535]
<no-speech> 
[203.655]
<no-speech> 
[206.085]
<no-speech> 
[208.895]
<no-speech> 
[209.605]
<no-speech> 
[210.555]
<int> n a s a t r aɪ s ɪ k ə l 
[212.315]
<no-speech> 
[213.155]
<no-speech> 
[214.735]
<no-speech> 
[216.945]
<sta> s i n u <no-speech> s a n a <no-speech> s a n a g a j a k a s ɐ ʔ ɐ n u s ɐ ʔ ɐ s a w a k o 
[226.055]
<no-speech> 
[229.815]
<sta> ʔ a <no-speech> ʃ ɑ p <no-speech> m u k ɐ ŋ n ɐ m ɐ r a m e n ɐ ʔ a t ɐ ŋ <hes> n ɐ ʔ i n o m m o ʤ a ʔ a n ʔ a 
[241.755]
<sta> s i n u ŋ m e b ɜ r θ d eɪ <no-speech> s i n u ŋ m e b ɜ r θ d eɪ 
[246.495]
<no-speech> 
[250.315]
ʔ a <int> 
[252.415]
<no-speech> 
[255.305]
<sta> k a j a l a ʔ a ŋ d i ʔ ɐ k o m ɐ k ɐ p u n t a <hes> <no-speech> p a r t i 
[259.015]
<no-speech> 
[260.115]
<sta> n a s a k ɐ s e ʔ ɐ k o <hes> 
[263.725]
<no-speech> 
[265.115]
<no-speech> 
[268.965]
<no-speech> 
[271.155]
<no-speech> 
[272.775]
<no-speech> 
[275.235]
<sta> ʔ i s a k o m o 
[278.195]
<no-speech> 
[280.765]
<no-speech> 
[281.115]
<no-speech> 
[282.535]
b a k e t n ɐ k ɐ k a ʔ i n <int> l ɐ h a t k a k ɐ ʔ i n i n b a j o ʔ o ŋ p ɐ n s e t <int> <no-speech> b a k a m ɐ ʔ u b o s 
[287.665]
<no-speech> 
[289.145]
<no-speech> 
[290.235]
<no-speech> 
[292.385]
ʔ a 
[293.075]
<no-speech> 
[294.615]
<sta> ʔ o <no-speech> b a k e t m ɐ ʔ i n e t b a d o n s ɐ ʔ ɐ n u s ɐ p u w e s t o m o 
[304.075]
<no-speech> 
[308.305]
h ɛ l oʊ <sta> h ɛ l oʊ 
[313.835]
<no-speech> 
[314.845]
<sta> b a k e t m ɐ ʔ i ŋ aɪ b a s ɐ p u w e s t o m o 
[317.925]
<no-speech> 
[319.575]
<sta> t u m ɐ b i k a s ɐ d a n a n n ɐ ŋ ʤ i p <no-speech> ʔ a d i m ɐ ʔ i w a n k a 
[326.165]
<no-speech> 
[328.245]
ʔ a <int> 
[330.145]
<no-speech> 
[331.945]
<no-speech> 
[334.455]
<no-speech> 
[335.715]
<int> k o n t i ŋ ʃ ɑ p 
[337.585]
<no-speech> 
[338.695]
<sta> ʔ a <no-speech> t ɐ g ɐ ʔ ɐ l b aɪ j o ʔ o ŋ ʔ ɐ s a w a m o <no-speech> ʔ a 
[344.795]
<no-speech> 
[345.875]
<no-speech> 
[346.465]
<no-speech> 
[347.695]
<int> ʔ ɐ n u ŋ g i n a g ɐ w a ʔ n ɐ m a n n i ʔ ɐ n u <no-speech> ʤ ɑ n 
[350.075]
<no-speech> 
[351.175]
<sta> ʔ a <no-speech> ʔ ɐ n u ŋ g i n a g ɐ w a ʔ n i ʔ ʌ ŋ k ə l r u d i ŋ <no-speech> ʔ a 
[362.275]
<no-speech> 
[363.635]
<sta> ʔ ɐ n u ŋ g i n a g ɐ w a ʔ ʔ æ t n ɐ k ɐ r ɐ t i ŋ ʤ a ʔ a n <no-speech> ʔ ɐ n u ŋ g i n a g ɐ w a ʔ ʔ æ t n ɐ k ɐ r ɐ t i ŋ ʤ a ʔ a n 
[369.365]
<no-speech> 
[370.485]
<sta> g i n a g ɐ w a ʔ n i ʔ ʌ ŋ k ə l v ɪ k <no-speech> ʔ a <no-speech> ʔ o p a l a ʔ 
[381.885]
<sta> ʔ oʊ k eɪ l a ʔ a ŋ p a l a ʔ s i p ɐ p a <no-speech> h ɛ l oʊ <no-speech> ʔ o ŋ a ʔ p a l a ʔ ʔ oʊ k eɪ n ɐ s i p ɐ p a 
[390.645]
<no-speech> 
[391.495]
<no-speech> 
[392.935]
<no-speech> 
[395.775]
s a n a p u p u n t a k o ʤ a ʔ a n 
[397.635]
<no-speech> 
[399.945]
<int> ʔ o g ɐ t a w a ʔ ɐ ŋ p ɐ s j e n t e 
[402.545]
<no-speech> 
[403.605]
<sta> p u n t a p u p u n t a m u n a ʔ ɐ k o k e p ɐ p a 
[408.185]
<no-speech> 
[410.395]
p a g <sta> p u p u n t a m u n a ʔ ɐ k o k e p ɐ p a p u p u n t a ʔ ɐ k o k e p ɐ p a <no-speech> ʔ a <no-speech> d e l a t a <no-speech> d e l a t a t ɐ s t ɐ s n ɐ <hes> <no-speech> ʔ ɐ l a ʔ s ɐ t i n d a h a n 
[422.235]
<sta> ʔ ɐ l a ʔ n ɐ t o 
[424.215]
<no-speech> 
[425.115]
<sta> ʔ a <no-speech> ʔ o 
[429.535]
<no-speech> 
[430.645]
<sta> ʔ ɐ n u ŋ ʔ o r a s 
[432.635]
<no-speech> 
[433.495]
<sta> ʔ a <no-speech> s i g e s ɐ m a ʔ ʔ ɐ k o <no-speech> s i g e <no-speech> l ɐ k aʊ 
[444.675]
<sta> s i g e p e d e n ɐ <no-speech> b a k e t ʔ i l a n b a k ɐ ʔ i l a ŋ a n <no-speech> b a k e t ʔ i l a n b a k a 
[451.255]
<no-speech> 
[452.495]
<int> ʔ i l a n b a k i t a 
[454.205]
<no-speech> 
[455.475]
ʔ i l a n b a 
[456.075]
<no-speech> 
[458.415]
ʔ a 
[459.125]
<no-speech> 
[460.015]
<sta> ʔ a k ɐ t u l a d n ɐ ŋ g i n ɐ w a ʔ n i l a 
[463.255]
<no-speech> 
[465.495]
ʔ o 
[466.305]
<no-speech> 
[467.205]
<sta> n ɐ r i r i n i g k i t a 
[471.575]
<no-speech> 
[474.735]
<no-speech> 
[475.625]
<no-speech> 
[477.295]
<sta> ʔ a 
[480.795]
<no-speech> 
[481.885]
<sta> ʔ a <no-speech> ʔ ɐ n u ŋ ʔ ɐ n u ŋ ʔ i l a n k ɐ ʔ i l a ŋ a n s ɐ t r ɐ b a h u <no-speech> ʔ a <no-speech> ʔ i l a n ʔ i l a n ʔ i l a n k ɐ ʔ i l a ŋ a n s ɐ t r ɐ b a h u 
[493.775]
<no-speech> 
[493.925]
<no-speech> 
[495.975]
<sta> ʔ i l a n k ɐ ʔ i l a ŋ a n <no-speech> ʔ i l a n ʔ i l a n k ɐ ʔ i l a ŋ a n s ɐ t r ɐ b a h u 
[501.325]
<no-speech> 
[503.865]
<sta> ʔ i l a n s a b e k o ʔ i l a n <no-speech> ʔ i l a n k ɐ ʔ i l a ŋ a n s ɐ t r ɐ b a h u <no-speech> ʔ i l a n k ɐ ʔ i l a ŋ a n s ɐ t r ɐ b a h u 
[512.305]
<no-speech> 
[513.555]
<sta> ʔ o <no-speech> ʔ i l a n k ɐ ʔ i l a ŋ a n s ɐ t r ɐ b a h u 
[519.385]
<no-speech> 
[520.975]
ʤ ɜ r m ə n <sta> ʔ a <no-speech> ʔ o <no-speech> <hes> <oov> <oov> 
[531.375]
<no-speech> 
[532.825]
<sta> ʔ i s ɐ ŋ ʔ a r aʊ t r ɐ b a h u <no-speech> s ɐ p e d e n ɐ r e n 
[539.495]
<no-speech> 
[540.975]
ʔ a s a n k a b a ŋ aɪ ʔ o n <int> 
[543.605]
<no-speech> 
[544.405]
<no-speech> 
[544.755]
<no-speech> 
[545.685]
n ɐ s i n d a k <no-speech> <sta> n a s a n <hes> 
[550.775]
<no-speech> 
[551.575]
<no-speech> 
[552.415]
<no-speech> 
[554.235]
b ɐ t n ɐ g ʤ ɐ ʤ a k ʔ e n p oɪ b ɐ t n ɐ g ʤ ɐ ʤ a k ʔ e n p oɪ 
[562.425]
<no-speech> 
[563.725]
<no-speech> 
[566.045]
<no-speech> 
[569.325]
<no-speech> 
[570.225]
<no-speech> 
[572.395]
<no-speech> 
[572.945]
<no-speech> 
[575.835]
<int> m a m ɐ j a ʔ <int> 
[579.965]
<no-speech> 
[585.725]
<sta> ʔ o <no-speech> p ɐ p a r k i ŋ p a k o <hes> <no-speech> k ɐ n i n a p a 
[591.795]
<no-speech> 
[595.815]
ʔ o <int> ʔ u l e t 
[600.06]
