[0.0]
<int> h ɛ l oʊ 
[7.635]
<no-speech> 
[8.585]
<no-speech> 
[11.315]
<no-speech> 
[12.165]
<sta> h ɛ l oʊ <no-speech> h ɛ l oʊ <no-speech> h ɛ l oʊ <no-speech> h ɛ l oʊ 
[23.945]
<sta> h ɛ l oʊ <no-speech> h ɛ l oʊ ʔ a m i <no-speech> h ɛ l oʊ 
[35.745]
<sta> h ɛ l oʊ <no-speech> h ɛ l oʊ <no-speech> ʔ a m i 
[47.595]
<sta> h ɛ l oʊ <no-speech> h ɛ l oʊ 
[59.535]
<sta> h ɛ l oʊ 
[71.115]
<int> ʔ ɐ l a ʔ p a s i j a k u ŋ g ɐ n o n <no-speech> h ɛ l oʊ 
[76.46]
