[0.0]
<no-speech> 
[0.025]
<no-speech> 
[1.315]
<no-speech> 
[2.375]
<no-speech> 
[8.325]
<no-speech> 
[9.725]
h ɛ l oʊ 
[10.505]
<no-speech> 
[13.275]
h ɛ l oʊ 
[13.925]
<no-speech> 
[15.275]
h ɛ l oʊ ʔ o <laugh> ʔ o <no-speech> ʔ o 
[20.055]
<no-speech> 
[21.435]
ʔ ɐ n u n ɐ h i n d e ʔ h i n d e ʔ <oov> h i n d e ʔ ʔ u m u b r a j o ʔ o ŋ ʔ ɐ n u <laugh> h i n d e ʔ ʔ u m u b r a j o ʔ o ŋ ʔ u n a h i n d e ʔ ʔ u m u b r a j o ʔ o ŋ ʔ u n a 
[28.195]
<no-speech> 
[33.305]
ʔ o 
[34.195]
<no-speech> 
[37.555]
ʔ ɐɪ t ɐ l ɐ g a ʔ b a k e t d aʊ 
[39.315]
<no-speech> 
[40.785]
ʔ o ʔ o 
[41.735]
<no-speech> 
[43.695]
<laugh> ʧ ɑ p i b a ʧ ɑ p i s i g e l a l ɐ b a s ʔ ɐ k o 
[46.365]
<no-speech> 
[48.135]
ʔ ɐ j a n n ɐ 
[48.905]
<no-speech> 
[50.065]
ʔ ɐɪ g ɐ n u n 
[51.675]
<no-speech> 
[52.535]
ʔ ɐ j a n 
[53.355]
<no-speech> 
[55.495]
ʔ ɐ j a n <laugh> ʔ a j o s n ɐ <laugh> ʔ a j u n <laugh> 
[64.055]
<no-speech> 
[64.875]
h eɪ n ɐ k o <no-speech> k a j a p a l a ʔ <no-speech> k a h oɪ l a ʔ a ŋ <no-speech> k ɐ g a g ɐ l i ŋ l a ʔ a ŋ n a m i n p i n ɐ ʧ e k a p n a m i n s i b u b uɪ 
[75.995]
<no-speech> 
[77.035]
ʔ ɐ j o n ʔ oʊ k eɪ n ɐ m a n d aʊ 
[78.715]
<no-speech> 
[80.985]
k ɐ m e k ɐ n i n a k ɐ r a r ɐ t i ŋ r ɐ t i ŋ l a ʔ a ŋ d e n n a m i n <no-speech> ʔ o k ɐ s e s k ɛ ʤ ə l n i j a t ɐ l ɐ g a ʔ 
[86.445]
<no-speech> 
[87.955]
n ɐ ŋ ʔ a n u w e b e <hes> j o ʔ o n <no-speech> ʔ oʊ k eɪ n ɐ m a n d aʊ h i n d e ʔ ŋ a ʔ m ɐ n i w a l ɐ ŋ j o ʔ o ŋ d u k t o r n ɐ ŋ ʔ ɐ n u <hes> t u m ʌ n θ s n ɐ r aʊ j o ʔ o n <laugh> ʔ ɐ ŋ l ɐ k i l ɐ k i k ɐ s e <laugh> 
[99.855]
<laugh> s a b e k o d i p a p o ʔ <hes> ʔ o m ɐ l ɐ k e k ɐ s e <no-speech> t ɐ s <hes> ʔ ɐ ŋ s u ʔ o t p a n i j a j o ʔ o ŋ ʔ ɐ n u <no-speech> j o ʔ o ŋ s u ʔ o t n i j a k ɐ s e j o ʔ o ŋ p ɐ ŋ j o ʔ o ŋ d i n ɐ 
[111.265]
p ɐ m b eɪ b i j o ʔ o ŋ b i g aɪ n i k eɪ j o ʔ o n n ɐ j o ʔ o ŋ s i n u ʔ o t n a m i n s ɐ k ɐ n i j a <hes> <laugh> s a b e n o ŋ d u k t o r a n i j a ʔ æ t t ɐ l ɐ g ɐ ŋ d i k a n ɐ n ɐ k ɐ p ɐ m b eɪ b i d r ɛ s ʔ a <laugh> 
[122.815]
<laugh> ʔ ɐ ŋ k j u t ŋ a ʔ <hes> t a w a n ɐ ŋ t a w a j o ʔ o ŋ d u k t o r a s ɐ k ɐ n i j a <hes> 
[127.665]
<no-speech> 
[129.014875]
<no-speech> 
[129.365]
<no-speech> 
[131.335]
d u n p a r e n <no-speech> ʔ o <int> p e r o b a k a <oov> ʔ o 
[135.815]
<no-speech> 
[136.795]
ʔ o <no-speech> ʔ ɐɪ h i n d e ʔ d u n m u n a s ɐ ʔ ɐ n u s a n m ɑ r t ɪ n 
[141.915]
<no-speech> 
[143.145]
d u n s ɐ p i n ɐ ŋ ɐ n ɐ k a n ʔ o ʔ o 
[145.505]
<no-speech> 
[146.365]
d u n m u n a b a k a j o ʔ o ŋ s u s u n u d <no-speech> d u n n ɐ ʔ i l i p a t n ɐ <no-speech> ʔ o 
[150.975]
<no-speech> 
[152.215]
ʔ o p i n ɐ g ʔ ɐ n ɐ k a n p a n i j a <no-speech> ʔ ɐ j o n b a k a j o ʔ o ŋ s u s u n u d j o ʔ o n n ɐ <no-speech> ʔ o ʔ oʊ k eɪ n ɐ <no-speech> n ɐ n d i t o n ɐ ŋ a ʔ s i l a s ɐ b a b a ʔ <hes> 
[161.385]
<no-speech> 
[162.595]
b a k a h i n d e ʔ p a <no-speech> h i n d e ʔ p a <no-speech> t u m ʌ n θ s d aʊ j o ʔ o ŋ l i b n i j a <hes> 
[166.645]
<no-speech> 
[168.825]
k a j a ʔ ɐ j o n <no-speech> ʔ o 
[172.155]
<no-speech> 
[174.335]
<laugh> j o ʔ o n ŋ a ʔ <hes> <laugh> 
[179.905]
<no-speech> 
[181.015]
<no-speech> 
[183.355]
<no-speech> 
[185.005]
<no-speech> 
[187.425]
<no-speech> 
[188.445]
<laugh> t a m a ʔ <laugh> 
[190.975]
<no-speech> 
[192.365]
<hes> ʔ o ŋ a ʔ <hes> 
[194.535]
<no-speech> 
[195.895]
<hes> t ɐ l ɐ g ɐ ŋ g ɐ n u n 
[197.815]
<no-speech> 
[199.715]
<no-speech> 
[200.075]
<no-speech> 
[203.315]
<int> b a k e t 
[204.955]
<no-speech> 
[206.835]
ʔ ɐ n u ʔ ɐ n u j a ʔ a n p ɐ n t a l <no-speech> ʔ ɐ n u j o ʔ o ŋ ʔ ɐ n u n i j a n 
[209.055]
<no-speech> 
[209.925]
ʔ ɐɪ ʔ o b a k a s ɐ l ɐ m e g 
[211.345]
<no-speech> 
[213.575]
n ɐ ŋ <int> 
[214.735]
<no-speech> 
[217.325]
ʔ ɐ n u j o ʔ o n ʔ æ l ə r ʤ i 
[218.505]
<no-speech> 
[221.325]
ʔ ɐ n u j o ʔ o n ʔ æ l ə r ʤ i 
[222.355]
<no-speech> 
[228.405]
h ə m 
[229.345]
<no-speech> 
[233.225]
<sta> <hes> ʔ ɐ l a ʔ n ɐ m a n 
[235.305]
<no-speech> 
[241.715]
j o ʔ o ŋ p ɐ ŋ ʔ a l e r ʤ i j o ʔ o ŋ <sta> p ɐ ŋ ʔ a l e r ʤ i ʔ a t a ʔ ʔ ɐ ŋ ʔ ɐ n u <hes> ʔ ɐ l e r t a ʔ a t a ʔ j o ʔ o n j o ʔ o ŋ p ɐ ŋ ʔ a l e r ʤ i t ɐ l ɐ g a ʔ 
[248.415]
<no-speech> 
[249.225]
ʔ a s ɐ l ɐ m e g t ɐ l ɐ g a ʔ <int> 
[250.835]
<no-speech> 
[254.395]
ʔ a 
[255.425]
<no-speech> 
[257.494875]
b ɛ n ə d r ɪ l <no-speech> ʔ o p ɐ ŋ ʔ ɐ n o d e n n ɐ m a n j o ʔ o n <hes> ʔ æ n t i h ɪ s t ə m i n d e n n ɐ m a n j o ʔ o n <hes> 
[261.604875]
<no-speech> 
[263.505]

[264.415]
<no-speech> 
[272.375]
<laugh> ʔ o <laugh> 
[274.775]
<no-speech> 
[275.915]
<no-speech> 
[276.565]
<no-speech> 
[277.735]
<breath> m ɐ d a m e 
[279.935]
<no-speech> 
[285.725]
ʔ ɐɪ g ɐ n u n 
[286.805]
<no-speech> 
[295.955]
ʔ a ʔ o j o ʔ o ŋ ʔ a n t u k i n <laugh> 
[298.625]
<no-speech> 
[299.685]
j o ʔ o n p a n ɐ m a n ʔ ɐ ŋ s aɪ d ʔ ɪ f ɛ k t n o n <no-speech> ʔ o <no-speech> ʔ o 
[304.695]
<no-speech> 
[305.825]
j o ʔ o n p a n ɐ m a n ʔ ɐ ŋ ʔ ɐ n u k ɐ s e j o ʔ o n j o ʔ o ŋ s aɪ d ʔ ɪ f ɛ k t n o n <hes> ʔ ɐ n t o k 
[311.865]
<no-speech> 
[313.155]
ʔ o 
[313.885]
<no-speech> 
[315.235]
k a j a m a m ɐ j a ʔ k a p a ʔ i ʔ i n u m <laugh> 
[318.085]
<no-speech> 
[323.005]
j o ʔ o n <laugh> 
[325.225]
<no-speech> 
[330.255]
n ɐ k i s ɐ k aɪ s i j a s ɐ ʔ a m e n s i s i k r ɪ s ʧ ə n p a l a ʔ n ɐ g ʔ a ʔ ɐ n u ʔ a <laugh> s i k r ɪ s ʧ ə n n ɐ p a l a ʔ ʔ ɐ ŋ n ɐ g h a h ɐ t i d s i k r ɪ s ʧ ə n ʔ ɐ ŋ n ɐ g h a h ɐ t i d k e r eɪ n 
[339.915]
<no-speech> 
[341.935]
k ɐ s e j o ʔ o n ʔ ɐ ŋ l a g e ʔ n i j ɐ ŋ s t eɪ t ə s <hes> h ɐ t e d s u n d o ʔ ʔ o h ɐ t e d s u n d o ʔ <laugh> 
[347.685]
<no-speech> 
[349.675]
<no-speech> 
[350.125]
<no-speech> 
[350.955]
<laugh> ʔ o n ɐ b a b ɐ s a ʔ k o n ɐ m a n <laugh> 
[355.925]
<no-speech> 
[357.235]
b o r ɪ ŋ <hes> n o <laugh> 
[361.185]
<no-speech> 
[362.375]
m e p ɐ b o r i ŋ b o r ɪ ŋ p ɐ ŋ n ɐ l ɐ l a m a n <hes> n o j o ʔ o n n ɐ ŋ a ʔ l a ʔ a ŋ j o ʔ o ŋ ʔ i t u t u l o ŋ <laugh> 
[367.655]
<no-speech> 
[368.785]
<laugh> j o ʔ o n n ɐ ŋ a ʔ l a ʔ a ŋ j o ʔ o ŋ ʔ i t u t u l o ŋ n i j a <hes> b ɐ t m e s ɐ k e t p a r e n s i m i g e l 
[376.045]
<no-speech> 
[378.375]
ʔ o m e s ɐ k e t p a r e n s i m i g e l 
[380.165]
<no-speech> 
[381.255]
ʔ a <no-speech> k a l a ʔ k o m e s ɐ k e t n ɐ j a ʔ a n b u t i n ɐ m a n ʔ ɐ n u d aʊ j o ʔ o n b ɐ t n a g b a k e t m e d u m i s ɐ p u p u 
[388.075]
<no-speech> 
[392.275]
<hes> j u t i ʔ aɪ 
[393.795]
<no-speech> 
[394.965]
b a t a ʔ p a n o b a t a ʔ p a n ɐ g k a k ɐ j u t i ʔ aɪ n ɐ <laugh> s ɐ b a g aɪ ʔ ɐ l a ʔ n ɐ ʔ ɐ l a ʔ n ɐ m ɐ ŋ p i n i p i l e ʔ j a ʔ a n <hes> <laugh> 
[403.345]
<no-speech> 
[404.835]
h eɪ <no-speech> ʔ a <no-speech> ʔ i n u b o p a r e n 
[409.955]
<no-speech> 
[411.395]
ʔ i n u b o p a r e n 
[412.455]
<no-speech> 
[413.255]
<sta> ʔ i n u b o p a r e n m e ʔ u b o p a r e n ʔ o 
[416.405]
<no-speech> 
[417.625]
k a j a ʔ a j u n <no-speech> k ɐ ʔ u s a p i n m o <no-speech> ʔ ɐɪ k u m ɐ k a ʔ i n 
[421.625]
<no-speech> 
[422.675]
k u m ɐ k a ʔ i n s i l a <hes> 
[423.665]
<no-speech> 
[424.555]
ʔ o 
[425.225]
<no-speech> 
[426.595]
<laugh> k ɐ ʔ u s a p i n m o p a r e n <laugh> 
[430.185]
<no-speech> 
[432.725]
<laugh> m ɐ k i k i k a ʔ i n k a <laugh> 
[436.155]
<no-speech> 
[437.555]
<laugh> s ɐ n d ɐ l e ʔ l a ʔ a ŋ <laugh> 
[440.335]
<no-speech> 
[441.945]
<no-speech> 
[443.305]
<no-speech> 
[444.165]
h ɛ l oʊ 
[444.885]
<no-speech> 
[447.085]
h ɛ l oʊ 
[447.735]
<no-speech> 
[449.325]
<sta> k a ʔ i n 
[451.795]
<no-speech> 
[453.035]
ʔ o h ɛ l oʊ <no-speech> h ɛ l oʊ <no-speech> k a ʔ i n 
[455.925]
<no-speech> 
[459.635]
<no-speech> 
[460.075]
<no-speech> 
[461.135]
k a ʔ i n ŋ a ʔ k a ʔ i n <no-speech> ŋ aɪ ʔ o n p a l a ʔ a ŋ k ɐ m e k u m ɐ k a ʔ i n <no-speech> k ɐ r a r ɐ t i ŋ l a ʔ a ŋ n a m i n 
[466.285]
<no-speech> 
[469.215]
k ɐ r a r ɐ t i ŋ l a ʔ a ŋ n a m i n g ɐ l e ŋ ʔ u s p i t a l 
[471.595]
<no-speech> 
[473.595]
j e s 
[474.285]
<no-speech> 
[477.855]
k ɐ r a r ɐ t i ŋ l a ʔ a ŋ n a m i n g ɐ l e ŋ ʔ u s p i t a l 
[479.995]
<no-speech> 
[481.775]
h ɛ l oʊ 
[482.405]
<no-speech> 
[485.295]
h ə m h ə m 
[485.965]
<no-speech> 
[487.715]
h ə m h ə m 
[488.415]
<no-speech> 
[492.885]
h ə m ʔ oʊ k eɪ l a ʔ a ŋ ʔ ɐ l a m m o m e ʔ ɐ n u ŋ a ʔ j o ʔ o n <hes> m e p r u b l e m a s ɐ ʔ ɐ n u <no-speech> s ɐ b eɪ b i s k r i n ɪ ŋ j o ʔ o ŋ n ʌ m b ə r p aɪ b <no-speech> s ɐ b eɪ b i s k r i n ɪ ŋ 
[501.325]
<no-speech> 
[502.475]
b eɪ b i s k r i n ɪ ŋ d i b a p a g 
[504.265]
<no-speech> 
[505.305]
s ɐ b eɪ b i s k r i n ɪ ŋ 
[506.795]
<no-speech> 
[507.625]
t ɐ s s ɐ ʔ ɐ n u ʔ o b a g o j o ʔ o ŋ n ʌ m b ə r p aɪ b 
[511.805]
<no-speech> 
[513.355]
n ʌ m b ə r p aɪ b 
[514.415]
<no-speech> 
[516.555]
<no-speech> 
[517.425]
<no-speech> 
[519.024875]
t e k a m u n a 
[520.035]
<no-speech> 
[521.105]
j o ʔ o ŋ s ɐ d u g o ʔ 
[522.005]
<no-speech> 
[525.915]
h ə m h ə m 
[526.405]
<no-speech> 
[531.115]
m e ʔ ɐ n u <oov> p i n ɐ ʔ u l i t n a m i n n o ŋ ʔ ɐ n u s ɐ l o r d e s p a r a s ɐ ʔ ɐ n u 
[535.665]
<no-speech> 
[536.745]
m ɐ l ɐ l ɐ m a n p a l a ʔ a ŋ s ɐ s a b ɐ d u ʔ ɐɪ h ə m h ə m p e r o s a b e n ɐ m a n n o ŋ p e d j a n i j a 
[542.905]
<no-speech> 
[545.115]
s a n a d aʊ m ɐ g n e g ɐ t i b 
[546.565]
<no-speech> 
[550.585]
ʔ o p e r o k u ŋ p e r o k u ŋ <no-speech> ʔ ɐ n u m e p r u b l e m a t ɐ l ɐ g a ʔ ʔ ɐ n u l a ʔ a ŋ d aʊ j o ʔ o n n ɐ k ɐ r i n i g k a n ɐ b a n ɐ ŋ j u r aɪ n k ʌ l ʧ ə r p a r ɐ ŋ g ɐ n o n 
[561.815]
m ɐ r a m i ŋ b a w a l b a w a l j o ʔ o ŋ p ɐ g k a ʔ e n j o ʔ o ŋ m ɐ ŋ a ʔ ʔ ɐ n u ʔ æ n t i b ə j ɑ t ɪ k j o ʔ o ŋ g ɐ m u t l ɐ h a t 
[567.205]
<no-speech> 
[572.185]
ʔ o ŋ a ʔ 
[572.915]
<no-speech> 
[574.055]
<int> h ə m h ə m 
[575.225]
<no-speech> 
[577.275]
k ɐ r ɐ m i h a n d aʊ s ɐ n ɐ g g a g ɐ n u n n ɐ g n i n e g ɐ t i b n ɐ m a n d aʊ s a b e k o ŋ a ʔ s a n a 
[582.625]
<no-speech> 
[586.285]
d i b a 
[586.845]
<no-speech> 
[587.945]
ʔ ɐ n u n ɐ ŋ j a r i s ɐ ʔ u n a 
[589.355]
<no-speech> 
[590.245]
<no-speech> 
[590.615]
<no-speech> 
[594.625]
b a k e t <no-speech> p u r o s i ʔ a t e ʔ ɛ l s ə <sta> g u s t u n i l a h a l u h a l o ʔ 
[598.245]
<no-speech> 
[599.425]
ʔ a <int> 
[600.125]
<no-speech> 
[600.32]
