[0.0]
<no-speech> 
[2.605]
ʔ ɐ n u d aʊ 
[3.455]
<no-speech> 
[4.915]
<no-speech> 
[5.325]
<no-speech> 
[7.265]
<no-speech> 
[7.685]
<no-speech> 
[10.185]
<no-speech> 
[11.355]
<no-speech> 
[15.385]
h ɛ l oʊ <breath> <no-speech> ʔ ɐɪ ʔ a t e d e b e ŋ <sta> ʔ o 
[18.585]
<no-speech> 
[23.635]
ʔ o n ɐ p r e s k o n ɐ 
[25.355]
<no-speech> 
[29.255]
n ɐ p r e s k o n ɐ <int> 
[31.305]
<no-speech> 
[33.205]
<no-speech> 
[35.425]
<no-speech> 
[40.755]
<sta> ʔ o 
[45.465]
<no-speech> 
[49.095]
<int> b a k e t 
[50.505]
<no-speech> 
[52.375]
<sta> g ɐ n o n 
[53.925]
<no-speech> 
[57.055]
<no-speech> 
[57.445]
<no-speech> 
[58.595]
ʔ a <int> 
[60.135]
<no-speech> 
[61.605]
<sta> g ɐ n o n 
[66.615]
<no-speech> 
[67.435]
<no-speech> 
[68.405]
<no-speech> 
[76.025]
<sta> n ɐ 
[77.445]
<no-speech> 
[82.035]
n ɐ h aɪ b l ʌ d n ɐ h aɪ b l ʌ d j a t a ʔ s i j a <hes> <no-speech> h ɛ l oʊ n ɐ h aɪ b l ʌ d s i j a <int> 
[86.115]
<no-speech> 
[87.435]
n ɐ h aɪ b l ʌ d 
[88.445]
<no-speech> 
[89.815]
<no-speech> 
[90.345]
<no-speech> 
[92.285]
<no-speech> 
[92.635]
<no-speech> 
[94.585]
ʔ a 
[95.465]
<no-speech> 
[97.765]
h i n i h i n t aɪ s i j a 
[98.855]
<no-speech> 
[103.615]
<sta> b a b a ʔ 
[104.045]
<no-speech> 
[107.625]
ʔ a g ɐ n o n k ɐ ʔ u s a p 
[109.025]
<no-speech> 
[115.065]
ʔ a ʔ ɐɪ t u m a s ŋ a ʔ t u m a s ŋ a ʔ d aʊ p o ʔ ʔ ɐ ŋ h aɪ b l ʌ d 
[118.885]
<no-speech> 
[120.755]
n ɐ h aɪ b l ʌ d <no-speech> n ɐ h aɪ b l ʌ d <no-speech> t u m a s j o ʔ o ŋ d u g o ʔ <no-speech> t u m a s j o ʔ o ŋ d u g o ʔ 
[126.595]
<no-speech> 
[132.435]
<no-speech> 
[132.855]
<no-speech> 
[133.675]
<no-speech> 
[134.055]
<no-speech> 
[136.215]
<sta> ʔ a 
[139.315]
<no-speech> 
[146.455]
ʔ o ʔ o p o ʔ 
[147.845]
<no-speech> 
[155.565]
ʔ o ʔ o 
[156.375]
<no-speech> 
[160.105]
<no-speech> 
[160.495]
<no-speech> 
[162.465]
h i n d e ʔ k o p o ʔ ʔ ɐ l a m 
[163.835]
<no-speech> 
[168.425]
<sta> h oɪ <no-speech> ʔ ɐɪ w ɐ g 
[169.725]
<no-speech> 
[172.025]
<no-speech> 
[173.115]
<no-speech> 
[174.945]
<int> n a s a n a s a b a b a ʔ k a k ɐ ʔ u s a p i n m o 
[177.255]
<no-speech> 
[184.86]
<no-speech> 
[192.465]
<int> s i p o n p a 
[194.045]
<no-speech> 
[195.635]
<int> s i ʔ ɐ n u 
[197.565]
<no-speech> 
[200.895]
ʔ ɐ n u p i <no-speech> 
[207.005]
<int> s i n u 
[208.285]
<no-speech> 
[211.085]
s i n u <no-speech> ʔ ɐɪ 
[212.855]
<no-speech> 
[215.605]
ʔ o <no-speech> ʔ o p o ʔ 
[217.075]
<no-speech> 
[219.005]
<int> ʔ o 
[220.035]
<no-speech> 
[221.015]
ʔ o 
[221.655]
<no-speech> 
[222.925]
ʔ ə m h ə m ʔ ə m h ə m <no-speech> ʔ ə m h ə m <no-speech> ʔ ə m h ə m 
[226.205]
<no-speech> 
[230.225]
<int> ʔ ə m h ə m 
[231.595]
<no-speech> 
[240.095]
ʔ ə m h ə m 
[240.685]
<no-speech> 
[247.545]
ʔ ə m h ə m ʔ ə m h ə m <int> 
[248.685]
<no-speech> 
[250.005]
ʔ ə m h ə m <int> 
[250.865]
<no-speech> 
[254.275]
<sta> j o ʔ o ŋ 
[255.085]
<no-speech> 
[257.325]
ʔ ə m h ə m 
[258.054875]
<no-speech> 
[262.015]
<no-speech> 
[262.365]
<no-speech> 
[268.195]
ʔ e w a n k o d e n p o ʔ <int> 
[269.865]
<no-speech> 
[272.525]
ʔ a 
[273.005]
<no-speech> 
[274.385]
ʔ o ʔ o p o ʔ 
[275.855]
<no-speech> 
[276.775]
ʔ o p o ʔ 
[277.475]
<no-speech> 
[286.785]
<no-speech> 
[287.225]
<no-speech> 
[293.885]
ʔ o 
[294.615]
<no-speech> 
[295.755]
<no-speech> 
[296.175]
<no-speech> 
[299.615]
<sta> ʔ ə m h ə m <no-speech> h ɛ l oʊ 
[302.075]
<no-speech> 
[303.265]
<no-speech> 
[303.615]
<no-speech> 
[307.715]
h i n d e ʔ j a t a ʔ <sta> <no-speech> h i n d e ʔ k o p o ʔ ʔ ɐ l a m <hes> k ɐ s e p ɐ ŋ ʔ u m a g a ʔ ɐ k o n o n m a g a ʔ ɐ k o ŋ ʔ u m ɐ l e s 
[315.845]
<no-speech> 
[319.765]
ʔ o k ɐ h a p u n 
[320.765]
<no-speech> 
[321.745]
ʔ o p o ʔ 
[322.375]
<no-speech> 
[329.48]
<no-speech> 
[336.585]
ʔ ə m h ə m <int> 
[337.235]
<no-speech> 
[343.505]
ʔ o p o ʔ 
[344.165]
<no-speech> 
[345.955]
j o ʔ o ŋ k u l aɪ ʔ ɐ n u j o ʔ o n k u l aɪ j e l o 
[347.695]
<no-speech> 
[351.875]
ʔ a v a j ə l ə t 
[352.785]
<no-speech> 
[354.555]
j o ʔ o ŋ t u h ʌ n d r ə d ʔ e m ʔ e l ʔ i l a n p o ʔ n o n 
[356.625]
<no-speech> 
[357.785]
ʔ a 
[358.355]
<no-speech> 
[359.735]
ʔ i l a n p o ʔ 
[360.485]
<no-speech> 
[365.725]
<sta> <hes> t o 
[366.225]
<no-speech> 
[368.605]
<sta> k o n t i l e r o 
[369.735]
<no-speech> 
[370.805]
ʔ o p o ʔ <no-speech> ʔ ə m h ə m 
[372.495]
<no-speech> 
[374.725]
ʔ o 
[375.405]
<no-speech> 
[378.675]
ʔ o <no-speech> ʔ ɐ n u p u ŋ p ɐ ŋ a l a n 
[380.535]
<no-speech> 
[384.455]
<no-speech> 
[384.875]
<no-speech> 
[386.155]
ʔ o p o ʔ 
[386.895]
<no-speech> 
[387.865]
<sta> ʔ ɐ n u j a ʔ a n <no-speech> ʔ o s i g e p o ʔ <breath> <no-speech> ʔ ə m h ə m 
[392.445]
<no-speech> 
[396.295]
<int> ʔ ɐ l a ʔ p o ʔ d i t u j o ʔ o ŋ ʔ ɐ n u <hes> t i t i g n a n k o n ɐ l a ʔ a ŋ <no-speech> t i t i g n a n k o n ɐ l a ʔ a ŋ s ɐ ʔ ɐ n u 
[402.075]
<no-speech> 
[410.415]
<no-speech> 
[410.885]
<no-speech> 
[412.265]
ʔ o p o ʔ <breath> 
[413.555]
<no-speech> 
[414.825]
<no-speech> 
[415.575]
<no-speech> 
[416.795]
<sta> <hes> b a k a p o ʔ s ɐ s ɪ k s t i n <no-speech> s ɐ b i h i n n j o p o ʔ <no-speech> s ɐ b i h i n n j o p o ʔ b a k a s ɐ s ɪ k s t i n p a m ɐ k u k u h a j o ʔ o ŋ m ɐ ŋ a ʔ j o ʔ o n k ɐ s e m e ʔ u t a ŋ p a p o ʔ <no-speech> ʔ o 
[428.725]
<no-speech> 
[428.875]
<no-speech> 
[431.255]
p a m e m e b a b ɐ j a r a n <no-speech> ʔ o p o ʔ ʔ æ t s ɐ k a m e b a b ɐ j a r a n p a k ɐ m e <hes> 
[434.945]
<no-speech> 
[438.945]
<no-speech> 
[439.475]
<no-speech> 
[440.465]
<no-speech> 
[440.845]
<no-speech> 
[442.355]
<sta> ʔ ə m h ə m m e b a p a k ɐ m i ŋ s ɐ m p u ŋ l i b u <hes> 
[445.365]
<no-speech> 
[448.595]
t ɐ s s i g e ŋ a ʔ 
[449.655]
<no-speech> 
[458.365]
ʔ o 
[459.045]
<no-speech> 
[465.885]
<no-speech> 
[472.725]
ʔ o p o ʔ <breath> 
[473.495]
<no-speech> 
[479.125]
<int> ʔ a s i g e s a s ɐ b i h i n k o n ɐ l a ʔ a ŋ m a m ɐ j a ʔ 
[481.385]
<no-speech> 
[488.205]
<no-speech> 
[495.025]
ʔ ə m h ə m 
[495.705]
<no-speech> 
[500.135]
<no-speech> 
[500.875]
<no-speech> 
[506.695]
s ɐ f ɛ b r ə r i t w ɛ n t i n aɪ n n ɐ s i j a <no-speech> ʔ ɐ l a ʔ n ɐ m i m e s i p o n p a r e n <hes> s i p o n n ɐ l a ʔ a ŋ 
[512.665]
<no-speech> 
[515.764875]
s ɐ t w ɛ n t i <sta> s ɐ t w ɛ n t i n aɪ n p o ʔ ʔ o p o ʔ <no-speech> s ɐ t w ɛ n t i n aɪ n ʔ ɐ ŋ b ɐ l e k n i j a ʤ a ʔ a n s ɐ 
[520.965]
<no-speech> 
[522.115]
f ɛ b r ə r i 
[522.925]
<no-speech> 
[525.035]
b u s t ə r 
[525.995]
<no-speech> 
[528.745]
p o ʔ 
[529.225]
<no-speech> 
[532.915]
ʔ o p o ʔ s ɐ b u ʔ ɪ n ʤ ɛ k ʃ ə n b u s t ə r 
[536.345]
<no-speech> 
[540.035]
ʔ o 
[540.615]
<no-speech> 
[545.615]
s i l i n s i l i n ʔ æ t s ɐ k a ʧ e r i p e r 
[547.975]
<no-speech> 
[554.795]
s i l i n m e r o n <int> 
[556.175]
<no-speech> 
[561.285]
ʔ ə m h ə m ʔ o <no-speech> w ʌ n h ʌ n d r ə d p l ʌ s <int> 
[564.535]
<no-speech> 
[565.575]
ʔ ə m h ə m 
[566.365]
<no-speech> 
[568.055]
<no-speech> 
[569.325]
<no-speech> 
[576.4]
<no-speech> 
[583.475]
<no-speech> 
[584.135]
<no-speech> 
[585.685]
ʔ ɐ m p e t ɐ m i n <sta> d a p a t ʔ ɐ m p e t ɐ m i n <no-speech> ʔ ɐ m p e t ɐ m i n 
[592.205]
<no-speech> 
[595.525]
<no-speech> 
[595.725]
<no-speech> 
[599.16]
