[0.0]
<no-speech> 
[3.045]
h ɛ l oʊ 
[3.545]
<no-speech> 
[5.765]
h ɛ l oʊ b a w a l m o ʔ i p ɐ s a ʔ a b a w a l m o ʔ i p ɐ s a 
[9.275]
<no-speech> 
[10.185]
ʔ e t o n ɐ ʔ ɐ n u n o ŋ d o n k a j a k ɐ m e n ɐ t u l u g k ɐ s e n o ŋ d u m ɐ t i ŋ k ɐ m e d o n m ɐ ʔ u l a n d o n k ɐ m e s ɐ m e h ɐ r a p l a ʔ a ŋ t ɐ s t ɐ s 
[20.785]
<no-speech> 
[22.035]
t a w a g d i t u <laugh> t ɐ s s a b e n i s t ɛ f p u m a s u k d aʊ k ɐ m e s ɐ l o b n ɐ n d u n 
[28.445]
<no-speech> 
[29.275]
h ɛ l oʊ 
[29.945]
<no-speech> 
[33.575]
ʔ a d u n k ɐ m e n ɐ t u l u g s ɐ l ɐ b a s n o n n i l a t a g k o j o ʔ o ŋ t u b a l n a m i n n u n d i p ɐ g b a ŋ o n n a m i n p u r o b a t o ʔ j o ʔ o ŋ ʔ u l o n a m i n 
[39.835]
<no-speech> 
[40.925]
b ɐ s t a n ɐ n d u n k ɐ m e m ɐ r a m e n ɐ n aɪ n h ʌ n d r ə d f ɪ f t i p aɪ b k ɐ m e 
[43.995]
<no-speech> 
[46.645]
ʔ o h i n d e ʔ ŋ aɪ ʔ o ŋ ʔ a r aʊ ʔ a b a b ɐ l i k p a k ɐ m e d o n n ɐ ŋ p aɪ b k ɐ s e d o n k ɐ m e k i n a t i t a d e l 
[52.925]
<no-speech> 
[54.785]
b a b ɐ l i k p a k ɐ m e d o n n ɐ ŋ p aɪ b b a b ɐ l i k p a ŋ a ʔ k ɐ m e d o n n ɐ ŋ p aɪ b ʔ ɐ n d i t o ŋ a ʔ k ɐ m e k ɐ n i l a t i t a d e l 
[59.805]
<no-speech> 
[61.295]
p ɐ s a d o n ɐ k ɐ m e s ɐ s k r i n ɪ ŋ ʔ æ t s ɐ k a d o n s ɐ ʔ ɪ n t ə r v j u 
[64.805]
<no-speech> 
[66.395]
ʔ e w a n k o k u ŋ s ɐ s u s u n u d k ɐ s a m a n ɐ ŋ g a r ʤ ə n ʔ e w a n k o t u l o g n ɐ s i s t ɛ f 
[70.625]
<no-speech> 
[74.945]
s a b e ŋ ɐ ŋ h i n d e ʔ p a ŋ a ʔ f aɪ n ə l s a b e n ɐ ŋ m e s u s u n u d p a 
[77.425]
<no-speech> 
[78.665]
k u l e t n o 
[79.375]
<no-speech> 
[81.345]
<no-speech> 
[81.945]
<no-speech> 
[83.555]
d i k o ʔ ɐ l a m p ɐ p ɐ s o k p a ʔ ɐ k o b u k a s t ɐ l ɐ g a ʔ t i n a t ɐ n u ŋ n ɐ ŋ m ɐ ŋ a ʔ k ɐ t r ɐ b a h o k o <hes> 
[87.235]
<no-speech> 
[96.105]
ʔ o s a b e k o ŋ a ʔ k e s ɜ r m ɐ m ɐ s k o n ɐ ʔ æ t ʔ ɐ l a ʔ k u k u l a ŋ i n k ɐ m e 
[99.255]
<no-speech> 
[100.955]
ʔ i n i n s t r a k n ɐ ŋ a ʔ l a ʔ a ŋ k ɐ m e n i t i t a d e l p a n o p u m u n t a d i t u m ɐ l i l i g aʊ n ɐ m a n k ɐ m e <hes> 
[104.325]
<no-speech> 
[108.305]
h i n d e ʔ n ɐ k i k a ʔ i n k ɐ m e d i t u <int> k ɐ s e m e t i n ɐ t a p o s s i j ɐ ŋ ʔ ɐ n u p ɐ t ɐ h i ʔ 
[114.645]
<no-speech> 
[116.115]
m e t i n ɐ t a p o s s i j ɐ ŋ p ɐ t ɐ h i ʔ k a j a d i n i j a k ɐ m e n ɐ p u n t ɐ h a n 
[118.645]
<no-speech> 
[120.295]
<no-speech> 
[129.314875]
<no-speech> 
[130.785]
n ɐ ʔ i n t i n d i h a n m o b a ʔ ɐ k o 
[132.025]
<no-speech> 
[134.195]
ʔ a 
[134.715]
<no-speech> 
[139.365]
s a b e n ɐ ŋ h i n a t i ʔ ŋ a ʔ m u n a ʔ ɐ ŋ p i l a k ɐ m e ʔ ɐ ŋ n a s a ʔ u n ɐ h a n ʔ ɐ n u b a ʔ ɐ l a ʔ ŋ a ʔ m u n a n ɐ k ɐ p a s o k n ɐ ŋ n ɐ k ɐ p a s o k d i p a ŋ a ʔ 
[145.965]
k u l e t k u l e t n ɐ m a n n i j a 
[147.625]
<no-speech> 
[149.285]
t ɐ s s ɐ t r ɐ b a h u b a b ɐ l i k p a k ɐ m e n ɐ g d a d ɐ l w ɐ ŋ ʔ i s e p ŋ a ʔ k ɐ m e k u ŋ p u p u n t a k ɐ m e d i t u k ɐ s e ʔ ɐ l a m m o n ɐ m a n p ɐ m ɐ s a h e n ɐ l a ʔ a ŋ n ɐ t i t i r a ʔ ɐ ŋ p ɐ m ɐ s a h e s ɐ b ʌ s w ʌ n h ʌ n d r ə d p o r t i t u 
[160.985]
w ʌ n h ʌ n d r ə d t w ɛ n t i p o r p a l a ʔ b ɐ l i k t a d p a l a ʔ 
[163.655]
<no-speech> 
[168.325]
m ɐ k a k ɐ ʔ u w i ʔ n ɐ m a n k ɐ m e k a j a ŋ a ʔ ʔ ɐ l a ʔ k ɐ m i ŋ k a ʔ i n <hes> n o ʔ i n u n a n a m i n p ɐ m ɐ s a h e n a m i n 
[173.435]
<no-speech> 
[175.005]
m ɐ k a k ɐ d i s k a r t e k ɐ m e ʔ a 
[177.715]
<no-speech> 
[179.015]
k ɐ s e p u m u n t a n ɐ s i t i t a <no-speech> ʔ oɪ p u m u n t a n ɐ s i t ɜ r k i n a l o l a 
[183.125]
<no-speech> 
[186.375]
j o ʔ o n b i n i g j a n s i j a n ɐ ŋ d ɐ m e t b a k a m e p ɐ m ɐ s k o d e n p i n a p ɐ p u n t a b a n ɐ m a n ʔ ɐ k o d o n ʔ a j aʊ k o ŋ a ʔ <laugh> <breath> b a k a ʔ i b i g aɪ s ɐ k i n m ɐ ŋ a ʔ b ɐ d uɪ <laugh> 
[195.475]
<no-speech> 
[196.755]
ʔ ɐ n d i t o ŋ a ʔ s ɐ s ɐ m p a l o k 
[199.655]
<no-speech> 
[201.425]
<no-speech> 
[201.925]
<no-speech> 
[203.865]
k a j a ŋ a ʔ <hes> k a j a ŋ a ʔ <hes> d u m e s k a r t e n ɐ ŋ a ʔ <hes> 
[207.215]
<no-speech> 
[208.465]
m a m a ʔ k u k u w e n t u h a n k i t a t u ŋ k u l d o n s ɐ m ɐ ŋ a ʔ p i n ɐ p i r m ɐ h ɐ ŋ p o r m m a m a ʔ 
[211.945]
<no-speech> 
[213.625]
m a 
[214.195]
<no-speech> 
[218.125]
ʔ o n ɐ m a n t ɐ s m a m a ʔ s a b e n a m i n s ɐ d r aɪ v ə r n ɐ ŋ b ʌ s ʔ i b a b ɐ b a ʔ k ɐ m e d o n s ɐ s a k a j a n n ɐ ŋ m o w a d o n s ɐ m e p a s aɪ b ɐ t d i s i j a n ɐ ʔ i m i k b u t i n o ŋ 
[230.005]
n ɐ g k a k ɐ ʔ u b u s a n n ɐ n ɐ ŋ p ɐ s ɐ h e r o <hes> d i b u m a b a ʔ n ɐ r e n k ɐ m e 
[232.095]
<no-speech> 
[233.365]
ʔ a h i n d e ʔ k ɐ s e n ɐ k ɐ k i t a ʔ ɐ k o n ɐ ŋ m ɐ ŋ a ʔ k u l aɪ ʔ ɑ r ɪ n ʤ k ɐ s e s a b e n i t i t a d e l m ɐ ŋ a ʔ k u l aɪ ʔ ɑ r ɪ n ʤ d aʊ j o ʔ o n s a k a j a n s ɐ m o w a b u m a b a ʔ k ɐ m e p a r ɐ ŋ t ɐ ŋ a n ɐ k a k ɐ j ɐ m o t <laugh> 
[244.555]
<no-speech> 
[245.985]
n ɐ k o s a b e k o ŋ a ʔ k e s t ɛ f s t ɛ f m ɐ l ɐ k e n ɐ ʔ u t a ŋ m o s ɐ k i n ʔ a ʔ i l i l i s t a k o j a ʔ a n ʔ a ʔ ɐ n u 
[253.965]
<no-speech> 
[258.735]
ʔ o 
[259.215]
<no-speech> 
[262.305]
ʔ ɐɪ g ɐ n o n 
[263.525]
<no-speech> 
[265.245]
m ɐ l a j o ʔ p a k a j a s a h o d n i ʔ i s i ʔ ɐ l ɐ ŋ p ɐ m b i l i n ɐ ŋ g a t a s ʔ a 
[267.665]
<no-speech> 
[272.795]
<hes> ʔ ɐ k o ŋ a ʔ n ɐ k ɐ r e ʤ i s s t e r ŋ a ʔ d o n ʔ æ t h i n d e ʔ ŋ a ʔ h i n a n a p ʔ ɐ ŋ m ɐ ʔ i b i b i g aɪ k o ʔ aɪ d i ŋ a ʔ ʔ ɐ ŋ h i n a n a p s ɐ k i n 
[277.735]
<no-speech> 
[280.905]
s i j e m p r e m e d ɐ l a ʔ ɐ k o n a s a k i n 
[282.735]
<no-speech> 
[288.845]
b ɐ s t a m ɐ t ɐ g a l p a t o w a g m u n a t ɐ j u ŋ b a b a b a ʔ ʔ a k ɐ ʔ i l a ŋ a n m ɐ t a p u s n a t e n t o 
[291.495]
<no-speech> 
[293.225]
ʔ ɐ n u k ɐ m u s t a n ɐ k ɐ j u ʤ a ʔ a n 
[294.605]
<no-speech> 
[295.455]
k ɐ m u s t a n ɐ k ɐ j u ʤ a ʔ a n w a g m u ŋ ʔ i p a p ɐ s a ʔ a k ɐ m u s t a n ɐ k ɐ j u ʤ a ʔ a n 
[298.875]
<no-speech> 
[300.685]
ʔ o 
[301.375]
<no-speech> 
[303.835]
ʔ a 
[304.695]
<no-speech> 
[306.985]
ʔ o ŋ a ʔ <hes> 
[307.955]
<no-speech> 
[309.615]
k ɐ m e k a j a ʔ ɐ l a ʔ k ɐ m i ŋ ʔ ɐ l m u s a l s i s t ɛ f ŋ a ʔ ʔ ɐ l ɐ ŋ m u m u g m u m o g <hes> p i n ɐ g k e n d i k o n ɐ l a ʔ a ŋ ʔ ɐ ŋ h a b a ʔ n ɐ ŋ p i l a <hes> b a g o k a p a m ɐ k ɐ r ɐ t i ŋ d i j o s k o 
[320.355]
ʔ ɐ ŋ l a j u l a j o ʔ k o p a n ɐ ŋ a ŋ ɐ m oɪ n ɐ s i ʔ a r 
[323.225]
<no-speech> 
[324.345]
ʔ a 
[324.885]
<no-speech> 
[327.445]
ʔ o d i t u n ɐ ŋ a ʔ k ɐ m e m ɐ g t u t u t b r a s p ɐ g d ɐ t i ŋ k o ŋ a ʔ k ɐ n i l a t i t a d e l ʤ a ʔ a n p a ʔ ɐ k o n ɐ ʔ e b a k <hes> 
[331.295]
<no-speech> 
[334.045]
<no-speech> 
[334.735]
<no-speech> 
[335.545]
<no-speech> 
[336.085]
<no-speech> 
[338.715]
b ɐ s t a d i k o ʔ ɐ l a m b a k a g a g ɐ b i h i n k ɐ m e n ɐ ŋ ʔ u w i ʔ t ɐ s m a m a ʔ t i n ɐ n o ŋ k e n ɐ k ɐ l ɐ g aɪ d o n s ɐ p o r m n ɐ ʔ ɐ n u h ɐ l i m b a w a ʔ <hes> 
[347.285]
<no-speech> 
[348.085]
ʔ a 
[352.005]
<no-speech> 
[353.745]
ʔ ɐɪ t e k a p a l a ʔ ʔ i k u k u w e n t o k o p a l a ʔ s ɐ j u m e ʔ i s k r i n s i l a k ɐ s e ʔ ɐ l a m m o m a m a ʔ ʔ ɐ ŋ t i n a t ɐ ŋ g a p m ɐ ŋ a ʔ m ɐ p u p u t i ʔ j o ʔ o ŋ m ɐ ŋ a ʔ m i s t i s a n ɐ m ɐ t ɐ t ɐ ŋ k a d j o ʔ o ŋ m ɐ ŋ a ʔ ʔ ɐ n ɐ k m ɐ j a m a n b a k u ŋ m e t a t ɐ ŋ g ɐ p i n m æ n s i l a n ɐ m e ʤ u 
[365.505]
ʔ æ v r ə ʤ m ɐ g ɐ n d a p a r e n 
[367.295]
<no-speech> 
[368.515]
ʔ ɐ l ɐ ŋ a n i n n ɐ ŋ a ʔ t ɐ l ɐ g a ʔ <hes> n ɐ k ɐ g ɐ j a k n ɐ ŋ a ʔ ʔ ɐ k o p ɐ ʔ u w i ʔ n ɐ k ɐ m e n o n ʔ ɪ k s aɪ t ə d n ɐ ʔ ɐ k o m ɐ k a k ɐ ʔ u w i ʔ ʔ ɐ k o n ɐ ŋ m a g a <hes> t ɐ s t i n ɐ n o ŋ d aʊ s i l a k u ŋ m ɐ g d i d eɪ t d aʊ s i l a n ɐ ŋ ʔ i s ɐ ŋ ʔ ɐ r t i s t a 
[379.845]
s i n u d aʊ s ɐ k a b a k e t ŋ aɪ ʔ o n t i n ɐ n o ŋ j o ʔ o ŋ s i j e m p r e s ɐ g u t n ɐ ŋ m ɐ ŋ a ʔ l ɐ l ɐ k e b ɐ b a ʔ e ʔ i b ɐ t i b a s ɐ g u t n ɐ ŋ m ɐ ŋ a ʔ b eɪ b k ɐ r ɐ m i h a n d aʊ s i k o k o m ɑ r t ɪ n d aʊ ŋ aɪ ʔ o n s i n ɐ g o t n ɐ m a n n i s t ɛ f 
[390.145]
<no-speech> 
[391.135]
ʔ ɐ l a m m o s i n ɐ g o t n i s t ɛ f s i k r ɪ s ʔ ɐ k i n o d aʊ <laugh> <breath> h i n d e ʔ d aʊ s i j a t o m b oɪ k u m b ɐ g a <hes> h i n d e ʔ p o ʔ s ɐ t o m b oɪ ʔ ɐ k o k u m b ɐ g a <hes> g u s t u k o l a ʔ a ŋ m ɐ k ɐ d eɪ t s i k r ɪ s ʔ ɐ k i n o ʔ ɐ k i n o k ɐ s e p ɐ r e h o k ɐ m i ŋ m ɐ d ɐ l d a l m ɐ g k a k ɐ s u n d o ʔ k ɐ m e g ɐ n o n t ɐ s m ɐ g s u s u m b o ŋ d aʊ s i j a n ɐ ŋ k u ŋ ʔ ɐ n u ʔ ɐ n o p a r a ʔ i k u w e n t o d aʊ n i j a s ɐ k ɐ p ɐ t e d n i j ɐ ŋ p ɐ n o t ʔ e ʧ o s j o ʔ o ŋ k e b i n aɪ d aʊ 
[414.885]
j o ʔ o n n ɐ k ɐ p a s a s i j a t ɐ s n o ŋ ʔ i n i n t ə r v j u n ɐ ŋ a ʔ s i j a d u n s ɐ s ɐ n ɐ ŋ h oɪ p ɐ k i ŋ g a n m o n ɐ ʔ ɐ k o <cough> n ɐ s ɐ s a m i d n ɐ ʔ ɐ k o <hes> 
[426.795]
t ɐ s n u ŋ t i n ɐ n o ŋ n ɐ m a n s i j a s ɐ ʔ ɪ n t ə r v j u <hes> d i ʔ ɐ ŋ d a m i ŋ t i n ɐ n o ŋ s i j e m p r e p i n ɐ ʔ u l i t j o ʔ o ŋ m ɐ ŋ a ʔ h aɪ l aɪ t s n ɐ ŋ b u h aɪ m o g ɐ n j a n g ɐ n j a n n a s a p o r m t i n ɐ n o ŋ t ɐ n u ŋ d aʊ t ɐ s n o ŋ t i n ɐ n o ŋ 
[438.615]
s a b e <breath> d i s k r aɪ b m o s ɐ r i l i m o <breath> s a b e <hes> h i n d e ʔ n ɐ m a n p o ʔ ʔ ɐ k o m ɐ t ɐ l i n o h i n d e ʔ d e n p o ʔ ʔ ɐ k o b o b o p e r o p ɐ g d ɐ t i ŋ p o ʔ s ɐ d i s k a r t e m a s a h a n n j o p o ʔ ʔ ɐ k o j o ʔ o n t ɐ s ʔ ɐ n u m u k ɐ ŋ m ɐ g <hes> d i h i n ɐ j a n l a ʔ a ŋ s i j ɐ ŋ m ɐ g k u w e n t o n ɐ ŋ k u w e n t o t u ŋ k u l s ɐ b u h aɪ n i j a h i n d e ʔ n ɐ m a n d aʊ s i j a ʔ i n a w a t <hes> d i k u w e n t o l a ʔ a ŋ s i j a n ɐ ŋ k u w e n t o t ɐ s k u ŋ m e ʔ i t a t ɐ n o ŋ d aʊ s i n a s ɐ g o t l a ʔ a ŋ d e n d aʊ n i j a 
[457.755]
<no-speech> 
[461.205]
ʔ a 
[461.845]
<no-speech> 
[463.595]
t ɐ s t a w a g n ɐ ŋ t a w a g j o ʔ o ŋ m ɐ ŋ a ʔ k ɐ k l a s e n i j a k a j a m ɐ l u l o b a t n ɐ k ɐ m e 
[466.765]
<no-speech> 
[468.975]
k a j a ŋ a ʔ n ɐ k i ʧ a r ʤ k ɐ m e 
[470.305]
<no-speech> 
[472.035]
ʔ o n ɐ m a n n o t i ŋ i n m o s ɐ ʔ a m e n ʔ u l a ʔ u l a g a ʔ a 
[476.535]
<no-speech> 
[481.495]
ʔ o m ɐ g p a p ɐ h ɐ t i d ŋ a ʔ k ɐ m e s ɐ <hes> t i n i t e k s t n ɐ m a n n i j a s ɐ m i n k u ŋ s a n k ɐ m e ʔ a n o 
[486.145]
<no-speech> 
[487.125]
k u ŋ s a n k ɐ m e s a s ɐ k aɪ p ɐ b a b ɐ b a ʔ 
[489.045]
<no-speech> 
[494.425]
s a b e n ɐ ŋ p u m u n t a ŋ a ʔ s i s t ɛ f d o n d i ʔ ɐ k o n ɐ k ɐ p u n t a d o n k ɐ s e n a s a s i ʔ a r ŋ a ʔ ʔ ɐ k o ʔ ɐ ŋ s ɐ k i t s a k i t n ɐ ŋ t i j a n k o ʔ ɐ b a n u ŋ ʔ u m a g a k o p a t i n i s j o ʔ o n ʔ ɐ n u 
[501.335]
<no-speech> 
[502.595]
ʔ a 
[503.135]
<no-speech> 
[505.365]
m a m ɐ j a ʔ t u l o g p a s i s t ɛ f <hes> m a m ɐ j a ʔ p a g ʔ a ʔ ɐ l e s n ɐ k o d a d ɐ ʔ a n ʔ ɐ k o d o n 
[508.565]
<no-speech> 
[510.305]
h ɐ l a b a k a p i n t ɐ s e r a n ɐ m a n n o n p a n u k u ŋ p u p u n t a ʔ ɐ k o d o n 
[513.084875]
<no-speech> 
[515.945]
s i s i r a ʔ i n l a ʔ a ŋ n i j a m u d k o 
[518.995]
<no-speech> 
[521.045]
ʔ a 
[521.574875]
<no-speech> 
[522.384875]
h i n d e ʔ p e d e ʔ ɐ k o l a ʔ a ŋ s ɐ k a ʔ i k aʊ 
[524.475]
<no-speech> 
[528.125]
h e t o b i n a b ɐ n t ɐ j a n ʔ ɐ k o p ɐ t a w ɐ t a w a 
[530.185]
<no-speech> 
[531.695]
<hes> m e t i n ɐ t a p o s ŋ a ʔ s i j ɐ ŋ p ɐ n ɐ h i ʔ k a j a ŋ a ʔ d i k ɐ m e m ɐ s ɐ m a h a n 
[535.595]
<no-speech> 
[536.985]
k ɐ n i n a b a n ɐ m a n d u m a d a n n ɐ k ɐ m e s ɐ h ɐ r a p n i j a d i k ɐ m e n ɐ k i k i l a l a <laugh> p ɐ g b ɐ b a ʔ n a m i n s a b e k o t ɐ r a g u g u l a t i n n a t e n s a b e n i j a h i n d e ʔ d i t u n ɐ l a ʔ a ŋ t ɐ j u ʔ s ɐ h ɐ r a p d i j o s k o 
[547.625]
<no-speech> 
[549.485]
ʔ ɐ n u 
[550.445]
<no-speech> 
[556.805]
h ɐ l a ʔ e w a n k o k u ŋ h ɐ ŋ g ɐ ŋ s a n s i j a m ɐ r a m i ŋ m a s m ɐ g ɐ n d a s ɐ k ɐ n j a m e r o n ŋ a ʔ d o ŋ h æ f ʤ æ p ə n i s 
[565.745]
<no-speech> 
[567.905]
ʔ o ʔ ɐ ŋ t a t ɐ ŋ k a d n i l a m ɐ ŋ a ʔ g u w a p o 
[570.715]
<no-speech> 
[575.165]
s a b e k o ŋ a ʔ <hes> b a k a m a m ɐ j a ʔ t æ l ə n t n ɐ ʔ a j u n t u l o g s i j a ŋ aɪ ʔ o n 
[579.375]
<no-speech> 
[581.585]
<hes> d i m ɐ g r i r i t a ʧ n ɐ l a ʔ a ŋ h oɪ m a m a ʔ s a b e m o ʔ oʊ k eɪ n ɐ n ɐ k ɐ p ɐ n t ɐ l o ŋ s ɐ k a n ɐ k ɐ t i s e r t p i n ɐ g p ɐ l i t k o k a j a s i j a 
[588.455]
<no-speech> 
[589.425]
p i n ɐ s u ʔ o t k o s ɐ k ɐ n j a j o ʔ o ŋ s l i v l ə s k o s ɐ k a b l eɪ z ə r n ɐ b l æ k t ɐ s p i n ɐ g ʃ o r t k o n ɐ ʔ i n ɐ j u s a n k o l a ʔ a ŋ n ɐ ŋ k o n t e ʔ j o ʔ o ŋ m u k a ʔ k ɐ s e 
[597.475]
<no-speech> 
[597.68]
