[0.0]
<no-speech> 
[8.555]
<no-speech> 
[9.375]
<no-speech> 
[12.645]
h ɛ l oʊ 
[13.365]
<no-speech> 
[16.625]
<no-speech> 
[17.435]
<no-speech> 
[18.475]
<no-speech> 
[18.835]
<no-speech> 
[19.815]
s i n u t o <int> 
[21.185]
<no-speech> 
[30.805]
<no-speech> 
[32.595]
<no-speech> 
[37.955]
<no-speech> 
[38.415]
<no-speech> 
[40.885]
<no-speech> 
[41.525]
<no-speech> 
[44.325]
<no-speech> 
[44.715]
<no-speech> 
[47.095]
<no-speech> 
[47.825]
<no-speech> 
[50.165]
<no-speech> 
[52.205]
<no-speech> 
[53.065]
s i n u 
[53.785]
<no-speech> 
[55.025]
<sta> h ɛ l oʊ 
[64.895]
<no-speech> 
[65.765]
h ɛ l oʊ <int> 
[67.385]
<no-speech> 
[69.085]
s i n u t o 
[71.235]
<no-speech> 
[73.375]
<int> ʔ a 
[74.205]
<no-speech> 
[75.595]
ʔ ɐ n u <int> 
[77.545]
<no-speech> 
[79.075]
<no-speech> ʔ ɐ n u 
[80.135]
<no-speech> 
[81.575]
s i n u t o <int> s i n u b a t o <no-speech> ʔ a 
[88.455]
<no-speech> 
[89.265]
<int> ʔ a ʔ ɐ n u 
[91.685]
<no-speech> 
[93.045]
<no-speech> 
[93.565]
<no-speech> 
[94.385]
<sta> ʔ ɐ n u t o 
[100.045]
<no-speech> 
[101.295]
h ɐ l a <sta> 
[106.215]
<no-speech> 
[107.605]
s i n u 
[108.295]
<no-speech> 
[109.325]

[110.095]
<no-speech> 
[113.655]
j o ʔ o ŋ p ɐ m ɐ ŋ k i n 
[115.815]
<no-speech> 
[117.465]
s i n u k a 
[118.575]
<no-speech> 
[119.395]
<no-speech> 
[123.015]
<no-speech> 
[124.025]
<int> h ɛ l oʊ 
[124.835]
<no-speech> 
[126.735]
<int> h ɛ l oʊ h ɛ l oʊ <no-speech> <int> ʔ a <no-speech> s i n u t o 
[130.615]
<no-speech> 
[133.415]
<int> s a n k a 
[135.465]
<no-speech> 
[137.315]
ʔ ɐ n u ʔ ɐ n u <no-speech> ʔ ɑ l ə v ə r 
[142.005]
<no-speech> 
[143.865]
ʔ ɑ l ə v ə r 
[144.655]
<no-speech> 
[145.825]
<no-speech> 
[146.315]
<no-speech> 
[148.215]
s i n u ŋ ʔ ɑ l ə v ə r 
[149.115]
<no-speech> 
[149.955]
<sta> <hes> p u t a k a l a ʔ k o s i n u <no-speech> ʔ o b o s e s m o <hes> 
[157.075]
<no-speech> 
[158.345]
<int> ʔ ɐ l a ʔ h i n d e ʔ n ɐ g s a ʔ i ŋ 
[161.465]
<no-speech> 
[162.495]
h i n u g a s a n <int> l ɐ k ɐ s a n m o k ɐ s e 
[164.705]
<no-speech> 
[167.165]
s ɐ n d ɐ l e ʔ ŋ a ʔ <no-speech> 
[168.725]
<no-speech> 
[170.155]
<no-speech> s ɑ r i k a 
[170.935]
<no-speech> 
[173.195]
ʔ o <sta> 
[175.575]
<no-speech> 
[176.385]
ʔ a 
[178.345]
<no-speech> 
[179.425]
<no-speech> 
[179.775]
<no-speech> 
[181.715]
<sta> ʔ o ʤ a ʔ a n n u n <hes> ʔ ɐ l a ʔ n ɐ m a n ʔ ɐ k o ŋ l oʊ d ʔ e w a n ʔ a 
[188.695]
<no-speech> 
[190.695]
<int> s ɐ ʔ i n j o s ɐ ʃ r aɪ n 
[193.155]
<no-speech> 
[194.865]
s ɐ b i h i n m o p u p u n t a s i ʤ a ʔ a n s ɐ b a h aɪ <int> 
[197.555]
<no-speech> 
[198.395]
<int> d i t u s ɐ b a h aɪ 
[200.475]
<no-speech> 
[201.505]
<int> b u k a s b a ʔ ɐ l a ʔ k ɐ ŋ p ɐ s o k 
[205.285]
<no-speech> 
[207.365]
<no-speech> 
[207.765]
<no-speech> 
[208.625]
<no-speech> 
[209.205]
<no-speech> 
[210.715]
<int> ʔ i n ɐ ŋ 
[212.005]
<no-speech> 
[212.915]
ʔ o s ɐ b i h i n m o ʔ a <no-speech> ʔ a <int> 
[220.645]
<no-speech> 
[221.515]
<int> t e k a l a ʔ a ŋ 
[222.845]
<no-speech> 
[224.155]
<no-speech> 
[224.655]
<no-speech> 
[226.095]
<sta> ʔ o s i l a s i l a m aɪ k ə l 
[237.615]
ʔ o s i g e <no-speech> <sta> s i g e k ɐ s a m a k a n ɐ r e n 
[241.905]
<no-speech> 
[242.895]
<int> ʔ a <no-speech> <int> ʔ ɐ n u <int> ʔ ɐ n u n o n o n o <int> 
[250.225]
<no-speech> 
[251.135]
d i n ɐ k ɐ ʔ i l a ŋ a n k ɐ j u h ɛ l oʊ ʔ ɐ n u ŋ s a b e m o <int> 
[252.715]
<no-speech> 
[253.635]
<int> ʔ o <no-speech> ʔ o <int> 
[259.495]
<no-speech> 
[260.605]
s ɐ s u n o d n ɐ ʔ a p ɐ g ʔ ɐ n o n ɐ ʔ a k ɐ s e m e p ɐ s o k p a m e p ɐ s o k p a k ɐ m e p a g ʔ ɐ l a ʔ n ɐ ŋ p ɐ s o k 
[265.425]
<no-speech> 
[266.955]
<no-speech> 
[268.855]
<no-speech> 
[269.805]
s ɐ s u n o d p a g ʔ ɐ l a ʔ k ɐ ŋ p ɐ s o k <no-speech> ʔ ɐ n u 
[274.385]
<no-speech> 
[277.305]
ʔ ɐ n u ʔ ɐ n u ʔ ɐ n u <int> 
[278.715]
<no-speech> 
[279.885]
<sta> <oov> t i n e k s t k o l a ʔ a ŋ s i j a k a k o k a j a d i k o <oov> <no-speech> t ɛ k s t k o l a ʔ a ŋ s i j a <hes> m e p ɐ s o k p a ʔ ɐ k o <hes> 
[287.055]
<no-speech> 
[287.885]
<int> p a g ʔ ɐ l a ʔ n ɐ ŋ p ɐ s o k <no-speech> ʔ ɐ n u <int> 
[294.535]
<no-speech> 
[295.365]
ʔ o s i g e <no-speech> ʔ o s ɐ b i h i n m o ʔ a <no-speech> ʔ o 
[299.985]
<no-speech> 
[304.345]
g ɐ n o n <no-speech> d i n a d ɐ l a n n ɐ m a n s i j a n i p o l ʔ a 
[307.955]
<no-speech> 
[308.755]
<sta> m e n ʌ m b ə r n ɐ m a n s i j a s i g u r o n i p o l b a k e t ʔ ɐ l a ʔ s i j ɐ ŋ n ʌ m b ə r n i p o l 
[314.675]
<no-speech> 
[320.585]
<no-speech> 
[321.685]
<no-speech> 
[323.035]
<sta> ʔ a 
[324.275]
<no-speech> 
[326.335]
<no-speech> 
[326.745]
<no-speech> 
[327.735]
<no-speech> 
[328.265]
<no-speech> 
[329.885]
n i n u 
[330.565]
<no-speech> 
[332.375]
s i l a n i n u <no-speech> <sta> ʔ o t i n i t e k s k o l a ʔ a ŋ k u ŋ s a n ʔ i j u n <hes> t i n i t e k s k o n ɐ ŋ aɪ ʔ o n ʤ a ʔ a n 
[341.225]
<no-speech> 
[343.575]
m ɐ l a j o ʔ p a b a h aɪ n j o k ɐ b i t e <hes> d ɐ s m ɐ r i n j a s p a <hes> 
[347.415]
<no-speech> 
[349.095]
<sta> b ɐ s t a t e t e k s t k o n ɐ l a ʔ a ŋ s i m a r l ə n k a k o b ɐ s t a m ɐ g t e t e k s t n ɐ m a n s i j a s ɐ ʔ a k e n ʔ a 
[357.585]
<no-speech> 
[363.195]
<sta> ʔ a j o s l a ʔ a ŋ k a m o b ɪ z i j o ʔ o n <hes> t i n i t e k s k o ŋ a ʔ h i n d e ʔ n ɐ g r i r i p l aɪ <hes> 
[370.265]
<no-speech> 
[371.845]
<no-speech> 
[372.375]
<no-speech> 
[374.635]
<no-speech> 
[374.845]
<no-speech> 
[381.3]
