[0.0]
<no-speech> 
[1.285]
<no-speech> 
[1.655]
<no-speech> 
[2.835]
h ɛ l oʊ 
[3.345]
<no-speech> 
[4.195]
h ɛ l oʊ 
[4.825]
<no-speech> 
[6.175]
h ɛ l oʊ 
[6.885]
<no-speech> 
[7.775]
h ɛ l oʊ 
[8.385]
<no-speech> 
[9.415]
<sta> h ɛ l oʊ p a b u m ɐ l i k s i ʔ æ n d r eɪ 
[11.675]
<no-speech> 
[13.795]
m a n a n ʤ a ʔ a n n ɐ s i ʔ æ n d r eɪ <no-speech> ʔ ɐ l a ʔ p a <no-speech> ʔ u m u l a n d i t u <hes> b a k a ʔ i j u ŋ s i n ɐ m p aɪ <sta> ʔ u m u l a n d i t u b a k a ʔ i j u ŋ s i n ɐ m p aɪ k o <no-speech> ʔ a 
[24.445]
<no-speech> 
[26.655]
ʔ o d i t u ʔ u m u l a n <no-speech> ʔ u m u l a n ŋ a ʔ d i t u <hes> b a k a ʔ i n a ʔ ɐ n u k o ʔ i j u ŋ s i n ɐ m p aɪ 
[31.755]
<no-speech> 
[32.805]
ʔ u m u l a n d i t u b a k a ʔ i j u ŋ s i n ɐ m p aɪ k o ʔ i j u ŋ n a n ʤ a ʔ a n s ɐ l ɐ b a s 
[37.255]
<no-speech> 
[39.025]
m a ʔ a r aʊ b a ʤ a ʔ a n 
[40.175]
<no-speech> 
[42.315]
ʔ ɐ l a ʔ p a 
[43.225]
<no-speech> 
[44.295]
d i b a n i m a r k oʊ k u m u s t a k ɐ j u ʤ a ʔ a n <hes> <int> 
[46.625]
<no-speech> 
[48.815]
<sta> m e ʔ ɐ n u l a ʔ a ŋ <no-speech> k u w e n t u h a n l a ʔ a ŋ b a <laugh> 
[53.045]
<no-speech> 
[54.245]
<breath> d i t u n ɐ k ɐ m e 
[56.375]
<no-speech> 
[57.895]
ʔ ɐ l a ʔ <no-speech> d u m a n k ɐ m e k i l a k u j a r u b ə n 
[60.665]
<no-speech> 
[62.155]
ʔ a 
[62.745]
<no-speech> 
[64.964875]
<hes> ʔ ɐ n u t o <hes> ʔ ɐ n l i <no-speech> ʔ a 
[67.715]
<no-speech> 
[69.685]
ʔ ɐ n u 
[70.295]
<no-speech> 
[72.515]
<oov> ʔ ɐɪ h i n d e ʔ m ɐ ʔ i n t i n d i h a n 
[74.105]
<no-speech> 
[77.005]
<sta> ʔ u m u l a n ŋ a ʔ d i t u 
[78.485]
<no-speech> 
[80.025]
ʔ u m u l a n d i t u 
[81.705]
<no-speech> 
[83.125]
<sta> ʔ i n a ʔ ɐ n u k o ʔ i j u ŋ s i n ɐ m p aɪ k o 
[86.105]
<no-speech> 
[86.925]
ʔ a m e ʔ a r aʊ ʤ a ʔ a n 
[88.295]
<no-speech> 
[92.765]
ʔ o <no-speech> <int> <hes> ʔ ɐ n l i k o l <hes> ʔ ɐ l a ʔ ʔ ɐ k o ŋ k ɐ ʔ u s a p <hes> ʔ ɐ n l i 
[97.535]
<no-speech> 
[98.875]
<sta> t ɐ ŋ a 
[99.415]
<no-speech> 
[100.235]
ʔ ɐ n l i ʔ a 
[101.445]
<no-speech> 
[102.505]
ʔ ɐ n l i k o l <sta> ʔ ɐ l a ʔ n ɐ k i t a w a g l a ʔ a ŋ 
[106.285]
<no-speech> 
[108.395]
<laugh> k a s u n a s a s i n e n ɐ k ɐ m e n a s a b ɪ ŋ g oʊ n ɐ k ɐ j u 
[112.975]
<no-speech> 
[115.445]
ʔ a 
[115.975]
<no-speech> 
[118.005]
b ɐ s t a ʔ ɐ l a ʔ 
[118.905]
<no-speech> 
[119.945]
ʔ a 
[120.515]
<no-speech> 
[124.905]
ʔ ə m h ə m ʔ a s a n k a b a 
[126.075]
<no-speech> 
[128.745]
ʔ a <sta> s ɐ b a h aɪ n j o 
[131.185]
<no-speech> 
[133.365]
ʔ ɐ l a ʔ k a k ɐ n i l a n a n aɪ 
[134.715]
<no-speech> 
[136.095]
<sta> m ɐ ŋ a ʔ 
[137.875]
<no-speech> 
[141.255]
<no-speech> 
[141.675]
<no-speech> 
[142.535]
ʔ ɐ l a ʔ p a l a ʔ k i n a n a n aɪ g ɐ l e ŋ k ɐ m e <no-speech> g ɐ l e ŋ k ɐ m e d o n <no-speech> k i n a t i t o r u b e ŋ 
[147.695]
<no-speech> 
[148.715]
ʔ a 
[149.275]
<no-speech> 
[150.995]
g ɐ l e ŋ k ɐ m e k i n a t i t o r u b ə n 
[152.895]
<no-speech> 
[153.735]
ʔ a 
[154.295]
<no-speech> 
[157.755]
g ɐ l e ŋ k ɐ m e k i n a t i t o <int> 
[159.195]
<no-speech> 
[161.045]
ʔ ɐ ŋ g u l o <oov> m ɐ w a w ɐ l a n k a ŋ a ʔ n ɐ ŋ ʔ ɐ n u 
[163.715]
<no-speech> 
[166.045]
m ɐ w a w ɐ l a n k a n ɐ ŋ 
[167.335]
<no-speech> 
[169.035]
ʔ ɐ l a ʔ m æ n n ɐ m a n s ɪ g n ə l d i t u m eɪ n i l a ʔ k a j a 
[171.655]
<no-speech> 
[173.805]
ʔ o m eɪ n i l a ʔ ʔ i t u s u m i s i g n a l k a j a d i t u 
[176.515]
<no-speech> 
[179.995]
<sta> ʔ ɐ k o 
[181.455]
<no-speech> 
[183.675]
j a b a ŋ n ɐ m a n n i t u <sta> <oov> k a l a ʔ m o ʤ a ʔ a n m eɪ n i l a ʔ <no-speech> <oov> n ɐ k a j a m e s ɪ g n ə l ʔ ɐ ŋ t ɐ s t a s ʔ o ʔ ɐ ŋ t a s k a j a n ɐ ŋ s ɪ g n ə l 
[193.465]
<no-speech> 
[195.785]
ʔ i k aʊ ŋ a ʔ ʔ ɐ ŋ n ɐ w a w ɐ l a ʔ ʤ a ʔ a n <hes> 
[197.385]
<no-speech> 
[199.565]
<sta> g ɐ l e ŋ k ɐ m e k i n a t i t o r u b ə n 
[201.175]
<no-speech> 
[203.555]
h i n d e ʔ ʔ a 
[204.375]
<no-speech> 
[205.245]
<sta> m ɐ l a j o ʔ n ɐ 
[206.295]
<no-speech> 
[207.195]
ʔ ɐ j a n <int> m ɐ l a j o ʔ <no-speech> ʔ ɐɪ m ɐ l i n aʊ n ɐ <no-speech> ʔ ɐ j a n ʔ ɐ ŋ g ɐ l e ŋ t ɐ l ɐ g a ʔ n i ʔ ə l ɑ n ə <no-speech> ʔ oʊ k eɪ n ɐ ʔ oʊ k eɪ n ɐ 
[215.785]
<no-speech> 
[217.535]
<sta> ʔ o g ɐ l e ŋ ʔ a 
[219.295]
<no-speech> 
[220.115]
ʔ o m ɐ l i n aʊ n ɐ m ɐ l i n aʊ n ɐ 
[221.595]
<no-speech> 
[223.135]
ʔ o j u n p a l a ʔ j u n <hes> 
[225.495]
<no-speech> 
[226.875]
ʔ u m u l a n ŋ a ʔ <hes> 
[227.965]
<no-speech> 
[230.115]
p a ŋ e t ŋ a ʔ n ɐ ŋ p ɐ n ɐ h o n d i t u <hes> 
[231.605]
<no-speech> 
[233.455]
m e ʤ u 
[234.315]
<no-speech> 
[236.215]
<sta> m e ʤ u 
[237.255]
<no-speech> 
[239.245]
<sta> p e r o ʔ ɐ n u 
[240.465]
<no-speech> 
[241.595]
<sta> ʔ o k o n t e ʔ 
[242.955]
<no-speech> 
[245.435]
ʔ ɐ n u g ɐ l e ŋ k ɐ m e g ɐ l e ŋ k ɐ m e k e t i t o r u b ə n <hes> <no-speech> n ɐ g ʔ ɐ n o k i t a k i t a l a ʔ a ŋ k ɐ m e t ɐ s p u m u n t a n ɐ k ɐ m e d i t u k e m a m a ʔ 
[255.015]
<no-speech> 
[256.254875]
ʔ ə m h ə m t u t o ŋ a ʔ ʔ i t u 
[258.345]
<no-speech> 
[259.465]
g ɐ l e ŋ k ɐ m e d i t u k i n a m a m a ʔ <no-speech> <hes> p u p u n t a n ɐ k ɐ m e d i t u 
[263.235]
<no-speech> 
[265.275]
<sta> ŋ aɪ ʔ o n ʔ ɐ n d u n s i l a t i t a ʤ æ k ɪ l ɪ n k u w e k u w e n t u h a n s i g ɑ r i 
[269.225]
<no-speech> 
[271.685]
s i g ɑ r i s a n k ɐ s e s i j a 
[273.045]
<no-speech> 
[274.055]
s i g ɑ r i s ɐ k a s i ʤ æ k ɪ l ɪ n 
[275.885]
<no-speech> 
[277.445]
<sta> n ɐ g k l o k l oʊ s n ɐ s i l a n ɐ n d u n n ɐ g k u w e k u w e n t u h a n 
[282.325]
<no-speech> 
[283.825]
ʔ ɐɪ s i g e d aʊ k u m u s t a k a n ɐ r aʊ 
[285.915]
<no-speech> 
[286.785]
<sta> k u m u s t a k a n ɐ r aʊ s a b e n i t i t o m ɑ r k d i k a r a <click> s a b e n i t i t o m ɑ r k k u m u s t a k a n ɐ r aʊ <no-speech> n o n u ŋ b ɜ r θ d eɪ n i j a d aʊ s i k a m æ n l a ʔ a ŋ d aʊ n ɐ g p ɐ r ɐ m d a m <no-speech> ʔ a s a b e k o 
[297.945]
n ɐ k o m e t r ɐ b a h u k a 
[300.085]
<no-speech> 
[300.995]
s a b e k o m e t r ɐ b a h u k a 
[302.525]
<no-speech> 
[303.705]
k ɐ n i t i t o m e k <no-speech> p i n ɐ g h ɐ n d a ʔ n i j a <click> p i n ɐ s ɐ r a d o n ɐ <lipsmack> p i n ɐ s ɐ r a d o p a n ɐ m a n d aʊ n i j a ʔ i j u ŋ b u ŋ ʔ ɐ n u ʔ i j u ŋ b u ŋ p o r b s 
[310.705]
<no-speech> 
[311.605]
n ɐ g p a r t i d aʊ s i j a t ɐ s m e m ɐ ŋ a ʔ m oʊ b aɪ l m oʊ b aɪ l d aʊ <no-speech> h i n d e ʔ k a m æ n h i n d e ʔ k a m æ n l a ʔ a ŋ d aʊ p u m u n t a t ɐ s ʔ i k aʊ l a ʔ a ŋ d aʊ <no-speech> ʔ i k aʊ d aʊ l a ʔ a ŋ j o ʔ o ŋ g ɛ s t n i j a d i k a p a p u m u n t a p a r ɐ ŋ <laugh> 
[323.475]
<sta> <breath> g ɐ n i t u ʔ o 
[326.585]
<no-speech> 
[327.525]
d i t u <sta> n u ŋ b i j e r n e s 
[329.045]
<no-speech> 
[331.945]
<sta> n i l u l o k o ŋ a ʔ ʔ ɐ k o k a j a ŋ a ʔ n i l u l o k o ŋ a ʔ ʔ ɐ k o <hes> p i n ɐ s ɐ r a d o p a n ɐ m a n ʔ i j u ŋ b u ŋ p o r b s k ɐ s e ʔ ɐ l a m k o ŋ d a r ɐ t i ŋ p ɐ p a m o s a b e n i j a p a b o ŋ g a p a n ɐ m a n ʔ ɐ k o m e p a b i m o b aɪ l m oʊ b aɪ l p a n ɐ m a n 
[343.135]
ʔ ɐ ŋ h a ŋ i n t ɐ l ɐ g a ʔ n i t i t o m æ t n o <no-speech> <int> t ɐ s k eɪ t ə r ɪ ŋ p a d aʊ k eɪ t ə r ɪ ŋ <laugh> t ɐ s p u m u n t a p a r aʊ ʔ ɐ ŋ ʔ ɐ ŋ d a m e r aʊ ʔ ɐ r t i s t a 
[354.535]
<no-speech> 
[355.455]
<sta> ʔ a 
[356.725]
<no-speech> 
[359.375]
ʔ o j a b a ŋ ŋ a ʔ t ɐ l ɐ g a ʔ 
[360.875]
<no-speech> 
[363.995]
ʔ ɐ l a ʔ <laugh> m e m ɐ ŋ a ʔ ʔ ɐ r t i s t a p a ŋ a ʔ d aʊ <hes> 
[368.555]
<no-speech> 
[370.825]
<sta> <hes> <laugh> ʔ ɐ l a ʔ 
[374.905]
<no-speech> 
[375.775]
<sta> ʔ ɐ l a ʔ ʔ ɐ l a ʔ n ɐ n d i t o k i l a m a m a ʔ 
[378.475]
<no-speech> 
[381.295]
s i n u s i s u n o d s ɐ t aɪ d a ŋ 
[382.725]
<no-speech> 
[384.335]
ʔ o 
[385.265]
<no-speech> 
[388.055]
ʔ ɐ n d i t o <int> 
[389.445]
<no-speech> 
[390.785]
<sta> h i n d e ʔ t ɐ l ɐ g ɐ ŋ g ɐ n o n d aʊ t ɐ l ɐ g a ʔ b ɐ s t ɐ t ʔ i n t ɐ j i n k o l a ʔ a ŋ d aʊ h ɐ ŋ g ɐ ŋ s ɛ v ə n t i n 
[394.315]
<no-speech> 
[397.025]
b ɐ s t ɐ t ʔ i n t ɐ j i n k o <no-speech> <int> b ɐ s t ɐ t ʔ i n t ɐ j i n k o l a ʔ a ŋ d aʊ t ɐ l ɐ g a ʔ h ɐ ŋ g ɐ ŋ s ɛ v ə n t i n 
[401.675]
<no-speech> 
[404.325]
<no-speech> 
[404.895]
<no-speech> 
[406.285]
<hes> s ɐ t ɛ n ŋ a ʔ 
[407.345]
<no-speech> 
[408.255]
<sta> k a j a ŋ a ʔ s ɐ t ɛ n ʔ ɐ k o m ɐ g ʔ i ʔ i s t eɪ d i t u s ɐ t ɛ n ʔ ɐ k o m ɐ g ʔ i ʔ i s t eɪ d i t u 
[413.255]
<no-speech> 
[415.995]
ʔ ɐ l a ʔ p a s i l a <no-speech> ʔ o <no-speech> ʔ ɐ l a ʔ p a j o ʔ o ŋ m ɐ ŋ a ʔ k ɐ s a m a n i ʔ æ n d r eɪ ʤ a ʔ a n 
[420.285]
<no-speech> 
[421.605]
d i p a d aʊ ʔ u m u w i ʔ 
[422.675]
<no-speech> 
[424.245]
ʔ ɐ l a ʔ p a n ɐ m a n k ɐ k a ʔ i n j a ʔ a n p ɐ g d ɐ t i ŋ 
[426.405]
<no-speech> 
[427.695]
<sta> ʔ ə m h ə m j aʊ k o k a j a k a k ɐ ʔ i n i n j a ʔ a n p ɐ g d ɐ t i ŋ 
[432.445]
<no-speech> 
[433.935]
k u m ɐ k a ʔ i n k ɐ m e d i t u <hes> 
[435.475]
<no-speech> 
[437.245]
m ɐ g l u t o ʔ k a 
[438.205]
<no-speech> 
[439.705]
j a b a ŋ n ɐ m a n n i t u <int> 
[441.065]
<no-speech> 
[441.925]
<sta> n ɐ g u g u t o m p a n ɐ m a n ʔ ɐ k o 
[444.655]
<no-speech> 
[446.695]
ʔ a 
[447.235]
<no-speech> 
[449.105]
<sta> g u t o m p a n ɐ m a n ʔ ɐ k o 
[451.355]
<no-speech> 
[452.645]
g u l aɪ m ɐ g l u l u t o ʔ k a 
[454.145]
<no-speech> 
[455.795]
ʔ a 
[456.425]
<no-speech> 
[459.385]
ʔ ɐ n u 
[460.035]
<no-speech> 
[461.205]
j o ʔ o n ʔ i j u ŋ <click> θ ɜ r t i p e s o s 
[463.115]
<no-speech> 
[465.145]
t ɐ s <int> s ɐ θ ɜ r t i 
[467.135]
<no-speech> 
[468.065]
p a g θ ɜ r t i p e s o s ʔ a n ɐ g ʔ i s a 
[472.095]
<no-speech> 
[472.995]
ʔ i s ɐ ŋ ʔ a r aʊ l a ʔ a ŋ <no-speech> ʔ i s a ʔ o 
[476.745]
<no-speech> 
[479.995]
<sta> ʔ o ʔ i j u n ŋ a ʔ 
[482.035]
<no-speech> 
[482.995]
t i g s i s i s i k s t i p e s o s t i g s i k s t i p e s o s 
[485.945]
<no-speech> 
[489.485]
ʔ ə m h ə m 
[490.285]
<no-speech> 
[491.375]
d ɐ l w a ŋ a ʔ s ɪ k s t i p e s o s ʔ o 
[493.535]
<no-speech> 
[495.565]
s ɪ k s t i p e s o s d ɐ l w ɐ ŋ ʔ a r aʊ <int> t ɐ s ʔ ʌ n l ɪ m ɪ t ə d ʔ ɐ n l i k o l n ɐ j o ʔ o n 
[498.885]
<no-speech> 
[501.925]
<hes> ʔ ɐ l a m m o n ɐ m a n ʔ i j u ŋ m ɐ ŋ a ʔ ʔ o <no-speech> m e t a w a g t a w a g t a w a g s i l a d i t u 
[507.675]
<no-speech> 
[508.865]
p a ʔ ɐ n l i ʔ ɐ n l i 
[510.155]
<no-speech> 
[512.115]
ʔ i j u n ŋ a ʔ ʔ ɐ ŋ ʔ ɐ n l i k o l 
[513.845]
<no-speech> 
[515.445]
ʔ a 
[516.025]
<no-speech> 
[517.995]
ʔ ɐ n u <no-speech> k e ʔ ɐ n u <no-speech> p e r a 
[521.595]
<no-speech> 
[524.255]
ʔ ɐ n d i j a n ŋ a ʔ 
[524.965]
<no-speech> 
[526.165]
<sta> h i n d e ʔ n ɐ k ɐ h i r a m l a ʔ a ŋ ʔ ɐ k o n u n 
[527.925]
<no-speech> 
[529.555]
n ɐ k ɐ h i r a m l a ʔ a ŋ k ɐ m e s ɐ k a ʔ i b i g a n n i ʔ ɐ n u l i t o 
[532.015]
<no-speech> 
[534.955]
ʔ ɐ n u 
[535.595]
<no-speech> 
[536.865]
<sta> <hes> ʔ ɐ l a ʔ k ɐ ŋ b æ t ə r i b i b i l i h a n k o ŋ a ʔ s a n a n ɐ ŋ b æ t ə r i 
[541.045]
<no-speech> 
[544.515]
<sta> k u w ɐ n k u w a n b i g j a n n ɐ ŋ b æ t ə r i ʔ ɐ n u ŋ g i n a g ɐ w a ʔ n i n a n aɪ 
[547.645]
<no-speech> 
[550.745]
ʔ a 
[551.325]
<no-speech> 
[553.445]
s o ʔ ə v eɪ l ə b ə l k o s æ m s ʌ ŋ n o 
[555.015]
<no-speech> 
[559.755]
<no-speech> 
[560.775]
<no-speech> 
[564.255]
ʔ o 
[564.855]
<no-speech> 
[566.405]
ʔ o 
[567.035]
<no-speech> 
[568.715]
ʔ a <sta> m e r ʔ o n p a 
[570.505]
<no-speech> 
[573.095]
h ɛ l oʊ 
[573.735]
<no-speech> 
[575.335]
h ɛ l oʊ 
[575.975]
<no-speech> 
[578.405]
ʔ i ŋ aɪ ʔ i ŋ aɪ ŋ a ʔ ʤ a ʔ a n ʔ ɐ n u <click> 
[580.105]
<no-speech> 
[585.115]
<sta> h ɛ l oʊ 
[585.875]
<no-speech> 
[589.595]
h ɛ l oʊ p a 
[590.485]
<no-speech> 
[593.135]
n ɐ k a k ɐ t ɐ m a d n ɐ m a n ʔ i t u ŋ k ɐ ʔ u s a p 
[594.795]
<no-speech> 
[598.62]
