[0.0]
<sta> m a r e t ɐ w ɐ g a n k i t a h u m i ŋ e ʔ 
[4.835]
<no-speech> 
[5.825]
<sta> h ɛ l oʊ ʤ ɛ n i 
[9.215]
<no-speech> 
[10.465]
<sta> h ɛ l oʊ ʤ ɛ n i h ɛ l oʊ h ɛ l oʊ ʤ ɛ n 
[21.535]
<no-speech> 
[22.445]
<sta> m a r e m u s t a m u s t a b ɪ z n ə s n a t e n ʤ a ʔ a n m u s t a n i g o s j o 
[27.785]
<no-speech> 
[28.645]
<no-speech> 
[29.335]
<no-speech> 
[30.265]
<sta> m u s t a ʔ ɐ ŋ n i g o s j o n ɐ w a w ɐ l a ʔ k a n e ŋ m u s t a ʔ ɐ ŋ n i g o s j o 
[38.945]
<no-speech> 
[40.145]
<sta> ʔ o n ɐ r i r i n i g k i t a k u m u s t a n ɐ m a n ʔ ɐ ŋ n i g o s j o 
[44.645]
<no-speech> 
[47.855]
ʔ o k u m u s t a j o ʔ o ŋ ʔ i n a n a k k o ŋ s i k oɪ k oɪ k u m u s t a n ɐ 
[52.095]
<no-speech> 
[53.255]
ʔ a m ɐ l ɐ k e n ɐ b a j o ʔ o n m ɐ d a m e n ɐ j a t a ʔ ʔ ɐ k o ŋ ʔ u t a ŋ ʤ a ʔ a n s ɐ b a t ɐ ŋ j a ʔ a n ʔ a 
[57.905]
<no-speech> 
[59.025]
m ɐ d a m e n ɐ ʔ ɐ k o ŋ ʔ u t a ŋ s ɐ b a t a ʔ n ɐ j a ʔ a n ʔ i l ɐ ŋ t ɐ ʔ u n n ɐ j o ʔ o ŋ ʔ u t a ŋ k o <int> 
[63.165]
<no-speech> 
[65.475]
<sta> h ɛ l oʊ 
[69.665]
<no-speech> 
[70.525]
<sta> ʔ ɐ n u n ɐ ʔ ɐ n u n ɐ 
[78.635]
<no-speech> 
[81.275]
<sta> k e l a n 
[85.345]
<no-speech> 
[87.745]
<sta> k e l a n j o ʔ o ŋ b ɜ r θ d eɪ 
[89.315]
<no-speech> 
[91.465]
<sta> ʔ a k e l a n b ɜ r θ d eɪ n i k oɪ k oɪ s a n a m ɐ g k ɐ p e r a ʔ ɐ k o p a r a d ɐ l a ʔ ɐ k o n ɐ ŋ k eɪ k 
[101.635]
<no-speech> 
[104.415]
<sta> n ɐ g ʔ a r a l n ɐ b a j a ʔ a n 
[105.945]
<no-speech> 
[107.715]
ʔ a 
[108.275]
<no-speech> 
[111.585]
ʔ ɐ n u 
[112.145]
<no-speech> 
[113.785]
ʔ ɐ n u 
[114.625]
<no-speech> 
[119.585]
j o ʔ o ŋ ʔ ɐ n u j o ʔ o ŋ 
[120.885]
<no-speech> 
[124.595]
j o ʔ o ŋ ʔ æ p l ɪ k eɪ ʃ ə n ʔ o s i g e p r ɑ s ə s m o n ɐ 
[127.825]
<no-speech> 
[128.635]
<no-speech> 
[129.145]
<no-speech> 
[130.484875]
ʔ ɐ n u j o ʔ o n 
[131.455]
<no-speech> 
[139.875]
<no-speech> 
[148.295]
ʔ o ʔ ɐ n u n a n ʤ a ʔ a n k a p a b a b ɐ t n ɐ w ɐ l a ʔ k a 
[150.665]
<no-speech> 
[158.355]
s ɪ g n ə l 
[159.165]
<no-speech> 
[159.985]
ʔ ɐ ŋ l ɐ j o ʔ n ɐ m a n n ɐ ŋ s ɪ g n ə l m o p u n t a k a k ɐ s e s ɐ b i n t a n a ʔ n a n ʤ a ʔ a n ʔ ɐ ŋ s ɪ g n ə l 
[164.875]
<no-speech> 
[166.265]
ʔ ɐ n u b a g i n a g ɐ w a ʔ m o 
[170.165]
<no-speech> 
[173.845]
m a r e p u p u n t a ʔ ɐ k o s ɐ m o ʔ a 
[175.825]
<no-speech> 
[177.255]
ʔ a p ɐ ʔ u t a ŋ i n m o n ɐ m a n ʔ ɐ k o ʔ o 
[179.155]
<no-speech> 
[180.185]
b a b ɐ j a r i n k o r e n s ɐ l i ŋ g u 
[181.875]
<no-speech> 
[188.025]
ʤ ɛ n 
[189.365]
<no-speech> 
[190.965]
m ɐ p a p ɐ ʔ u t a ŋ m o b a ʔ ɐ k o b u k a s p u p u n t a ʔ ɐ k o ʤ a ʔ a n t ɐ s s ɐ l i ŋ g u b a b ɐ j a r a n k o r e n k ɐ s e j o ʔ o ŋ m ɐ ŋ a ʔ k ɐ p e r a h a n k o h i n d e ʔ p a d u m a r ɐ t i ŋ 
[200.405]
<no-speech> 
[204.855]
m u k ɐ ŋ ʔ a j aʊ m o s ɐ g u t i n k u ŋ p i n ɐ ŋ u ŋ u t a ŋ ʔ ɐ k o ʔ a <laugh> 
[208.715]
<no-speech> 
[214.645]
ʔ o ŋ a ʔ b ɐ s t a b a p ɐ h i h i r ɐ m i n m o ʔ ɐ k o b u k a s t ɐ s s ɐ l i ŋ g u b a b ɐ j a r a n k o r e n 
[220.305]
<no-speech> 
[221.725]
n ɐ 
[222.325]
<no-speech> 
[226.855]
ʔ o 
[227.435]
<no-speech> 
[233.875]
ʔ o ʔ ɐ n u b æ ŋ ʔ ɐ n u n a t e n ŋ aɪ ʔ o n p e d e m o b a ʔ ɐ k o ŋ m ɐ ʔ i p a s o k ŋ aɪ ʔ o n t r ɐ b a h u s ɐ ʔ u p i s i n a n j o 
[240.585]
<no-speech> 
[244.755]
k a h e t ʔ ɐ n u k a h e t ʔ u t u s a n ʤ æ n ɪ t r ə s p e d e b a ʔ ɐ k o ŋ ʤ æ n ɪ t r ə s s ɐ ʔ u p i s i n a n j o 
[249.585]
<no-speech> 
[251.525]
ʔ a 
[253.415]
<no-speech> 
[254.785]
k a h e t m ɐ b ɐ b a ʔ l a ʔ a ŋ s u w e l d o p a j a g ʔ ɐ k o 
[256.905]
p i g ɐ ʔ i n n i j a 
[258.385]
k a h e t m ɐ b ɐ b a ʔ s u w e l d o k a h e t ʔ u t u s a n r ʌ n ə r 
[262.735]
<no-speech> 
[263.815]
d i b a r ʌ n ə r m o ʔ ɐ k o m ɛ s ə n ʤ ə r 
[268.095]
<no-speech> 
[269.685]
ʔ a 
[270.415]
<no-speech> 
[273.975]
n ɐ r i r i n i g m o ʔ ɐ k o ʔ o h i n d e ʔ 
[275.595]
<no-speech> 
[278.165]
ʔ a ʔ oɪ s i ʃ u b i s i ʃ u b i n a s a b a h aɪ ŋ aɪ ʔ o n 
[282.725]
<no-speech> 
[285.235]
<sta> n ɐ s ɐ b a h aɪ 
[288.525]
<no-speech> 
[292.275]
j o ʔ o ŋ k eɪ n oʊ k o p ɐ k i k i l a l a k o s ɐ j u <int> s i g e 
[297.135]
<no-speech> 
[299.375]
j o ʔ o ŋ k eɪ n oʊ j o ʔ o ŋ k eɪ n oʊ k o d a r ɐ t i ŋ j o ʔ o n s ɐ t u θ aʊ z ə n d t w ɛ n t i p a ʤ o k l a ʔ a ŋ b i r o ʔ l a ʔ a ŋ h i n d e ʔ 
[309.425]
<no-speech> 
[311.065]
s ɐ ʔ ɐ n u s ʌ m ə r d aʊ 
[312.595]
<no-speech> 
[313.775]
<sta> s ʌ m ə r g u s t u m o 
[317.285]
<no-speech> 
[318.345]
ʔ ɐɪ ʔ ɐ l a ʔ n ɐ s i s ɪ d p ɐ t aɪ n ɐ j o ʔ o n ʔ ɐ l a ʔ n ɐ j o ʔ o n n i l o k o n i j a ʔ ɐ k o n ɐ ŋ k eɪ n oʊ n ɐ j o ʔ o n k a j a w a g n ɐ n a t e n p ɐ g ʔ u s a p a n k eɪ n oʊ n ɐ j o ʔ o n l a n ɐ j o ʔ o n n i n ɐ k a w a n l a ʔ a ŋ ʔ ɐ k o n o n 
[328.805]
<no-speech> 
[331.555]
ʔ ɐ n u 
[332.165]
<no-speech> 
[333.845]
h oɪ m e ʔ i t a t ɐ n o ŋ ʔ ɐ k o s ɐ j u p a g n ɐ g ʔ ɐ p l aɪ b a ʔ ɐ k o j o ʔ o ŋ ʔ ɐ n u n ɐ ŋ k a r d m e r ʔ o n k a b æ ŋ ʔ ɐ n u p r oʊ m oʊ n ɐ m e l i b r i ŋ s ɛ l f oʊ n 
[342.605]
<no-speech> 
[344.425]
ʔ ɐ l a ʔ 
[345.045]
<no-speech> 
[346.795]
ʔ o m e l i b r i ŋ s ɛ l f oʊ n ʔ ɐ l ɐ ŋ g ɐ n o n 
[349.625]
<no-speech> 
[353.685]
l i b r i ŋ s ɛ l f oʊ n k ɐ s e g u s t u k o s a n a m e l i b r i ŋ s ɛ l f oʊ n <hes> t ɐ s j o ʔ o ŋ s ɐ k r ɛ d ɪ t l ɪ m ɪ t k o s a b e m o ʔ i k aʊ m ɐ g p a p ɐ p a l o ʔ a p s ɐ s ɪ t i b æ ŋ k 
[363.145]
<no-speech> 
[364.705]
ʔ i k aʊ n ɐ l a ʔ a ŋ m ɐ g p a l o w a p d o n 
[366.585]
<no-speech> 
[370.805]
ʤ ə f ɑ r p ɐ g ʔ ɐ n o n ɐ ʔ ɐ k o 
[372.815]
<no-speech> 
[373.815]
n ɐ g ʔ ɐ p l aɪ ʔ ɐ k o n ɐ ŋ l oʊ n n ɐ n ɐ g ʔ ɐ p l aɪ ʔ ɐ k o n ɐ ŋ k a r d 
[378.265]
<no-speech> 
[379.165]
ʔ ɐ l a m m o b a j o ʔ o n 
[380.225]
<no-speech> 
[385.515]
k ɐ k a p w a ʔ k a ʤ a ʔ a n n ɐ g ʔ ɐ p l aɪ ʔ ɐ k o n ɐ ŋ ʔ ɐ l a m m o b a j o ʔ o n 
[388.505]
<no-speech> 
[393.285]
d e n n ɐ w a w ɐ l a ʔ k a 
[395.015]
<no-speech> 
[398.825]
ʔ o n ɐ w a w ɐ l a ʔ k a <no-speech> 
[402.265]
ʔ o j o ʔ o n n ɐ g ʔ ɐ p l aɪ ʔ ɐ k o n ɐ ŋ k a r d 
[405.185]
<no-speech> 
[408.075]
ʔ o ʔ i p ɐ p r u b m o j o ʔ o n ʔ a k ɐ s e d i b a m e ʔ ɪ g z ɪ s t ɪ ŋ k a r d n ɐ ʔ ɐ k o k a j a m ɐ d a l i n ɐ d i b a 
[413.845]
<no-speech> 
[416.465]
m e r ʔ o n n ɐ ʔ ɐ k o ŋ ʔ ɐ n u m e r ʔ o n n ɐ ʔ ɐ k o ŋ d a t e k a r d k o n ɐ g i n ɐ g a m i t ŋ aɪ ʔ o n 
[422.105]
<no-speech> 
[425.665]
p e r o m ɐ b ɐ b a ʔ l a ʔ a ŋ ʔ ɐ ŋ ʔ ɐ n u k o d o n <hes> 
[427.985]
<no-speech> 
[429.035]
ʔ o m ɐ g ʔ a p l aɪ ʔ u l e t ʔ ɐ k o p ɐ n i b a g o ŋ k a r d ʔ ɐ n u b æ ŋ m ɐ g ɐ n d a ʔ eɪ ʧ ʔ e s b i s i 
[434.285]
<no-speech> 
[437.645]
ʔ o k a h e t ʔ ɐ n u n ɐ l a ʔ a ŋ b ɐ h a l a ʔ k a b ɐ s t a ʔ ɐ n u l ɐ h ɐ t l ɐ h a t n ɐ ŋ ʔ ɐ n u ʔ ɐ p l ɐ j a n m o s t æ n d ə r d ʧ a r t ə r d m ɛ t r oʊ b æ ŋ k l ɐ h a t 
[446.095]
<no-speech> 
[447.045]
ʔ i p u n i n k o n e ŋ 
[448.345]
<no-speech> 
[449.385]
m ɐ g k a n u ʔ æ n j u w ə l p i n ɐ ŋ m ɛ t r oʊ b æ ŋ k j o ʔ o ŋ ʔ i s ɐ ŋ t ɐ ʔ u n 
[453.315]
<no-speech> 
[455.215]
ʔ æ n j u w ə l p i b i n a b ɐ j a d a n 
[458.375]
<no-speech> 
[461.395]
<no-speech> 
[463.315]
<no-speech> 
[466.475]
g ɐ n o n ʔ o m ɐ g k a n u b i n a b ɐ j a d a n ʔ æ n j u w ə l p i 
[470.395]
<no-speech> 
[472.165]
<no-speech> 
[472.775]
<no-speech> 
[475.235]
m ɐ g k a n u b i n a b ɐ j a r ɐ ŋ ʔ æ n j u w ə l p i s ɐ m ɛ t r oʊ b æ ŋ k 
[478.075]
<no-speech> 
[479.385]
<no-speech> 
[479.955]
<no-speech> 
[482.045]
<int> d i n i j a k ɐ s e ʔ ɐ k o m ɐ r i n e g 
[485.165]
<no-speech> 
[487.115]
n ɐ r i r i n i g m o b a ʔ ɐ k o 
[488.485]
<no-speech> 
[492.955]
ʔ ə m h ə m ʔ ə m h ə m 
[496.315]
<no-speech> 
[500.175]
ʤ ɛ n i j o ʔ o ŋ h i n i h i ŋ e ʔ h i n i h i ŋ e ʔ k o s ɐ j o ʔ o ŋ b æ g ʔ a j o ʔ o ŋ v a j ə l ə t 
[504.145]
<no-speech> 
[505.205]
s a b e m o b i b i g j a n m o ʔ ɐ k o ŋ v a j ə l ə t n ɐ b æ g n o ŋ p ɐ r e h a s s ɐ b æ g m u ŋ v a j ə l ə t 
[509.335]
<no-speech> 
[510.615]
j o ʔ o ŋ ʔ ɐ n u p aʊ ʧ b æ g ʔ ɐ n u ŋ t a w a g ʤ a ʔ a n p i t a k a 
[514.385]
<no-speech> 
[515.865]
p aʊ ʧ b æ g n ɐ v a j ə l ə t s a b e m o b i b i g j a n m o ʔ ɐ k o g u s t u k o t o 
[520.625]
<no-speech> 
[521.595]
g u s t u k o 
[522.454875]
<no-speech> 
[523.825]
ʔ ə m h ə m k e l a n m o ʔ ɐ k o b ɪ g k e l a n m o ʔ ɐ k o ʔ a n u h i n n ɐ ŋ b æ g 
[528.815]
<no-speech> 
[530.785]
<no-speech> 
[531.515]
<no-speech> 
[537.705]
ʔ o k e l a n m o ʔ ɐ k o b i b i g j a n n ɐ ŋ b æ g 
[541.025]
<no-speech> 
[544.995]
n ɐ p e r a m o n ɐ ŋ s ɪ g n ə l 
[546.605]
<no-speech> 
[552.83]
<no-speech> 
[559.055]
ʤ ɛ n 
[559.945]
<no-speech> 
[561.245]
p u n t a k a k ɐ s e s ɐ b i n t a n a ʔ 
[563.515]
<no-speech> 
[565.735]
d o n k a b i n t a n a ʔ p a r a m ɐ r i n e g m o ʧ ɑ p i k a 
[570.925]
<no-speech> 
[575.705]
n ɐ w ɐ l a w ɐ l a ʔ k a ʔ ɐ n u g ɐ l e t n ɐ b a s i l ɐ k aɪ m o k ɐ s e n ɐ g ʔ u s a p t ɐ j u ʔ g ɐ l e t n ɐ s i j a 
[582.115]
<no-speech> 
[586.395]
ʔ ə m h ə m 
[587.465]
<no-speech> 
[591.515]
<no-speech> 
[591.875]
<no-speech> 
[595.295]
ʔ o 
[596.005]
<no-speech> 
[596.835]
ʔ o 
[597.375]
<no-speech> 
[598.04]
