[0.0]
<no-speech> 
[1.425]
h ɛ l oʊ <sta> 
[4.045]
<no-speech> 
[5.045]
n a s a n k a s a n 
[14.115]
<no-speech> 
[15.275]
l ɐ b a s k a k a j a 
[16.334875]
<no-speech> 
[21.025]
l ɐ b a s k a 
[21.935]
<no-speech> 
[26.035]
<no-speech> 
[28.355]
<no-speech> 
[29.315]
ʔ ɐ n u g i n a g ɐ w a ʔ m o 
[30.465]
<no-speech> 
[32.705]
<no-speech> 
[33.055]
<no-speech> 
[34.435]
ʔ a 
[35.065]
<no-speech> 
[38.265]
h i n d e ʔ p a 
[39.145]
<no-speech> 
[40.045]
s i g e p a 
[40.865]
<no-speech> 
[43.235]
ʔ i k aʊ 
[43.875]
<no-speech> 
[45.785]
m a m ɐ j a ʔ n ɐ ʔ i k aʊ k u m a ʔ i n k a n ɐ 
[49.125]
<no-speech> 
[52.175]
ʔ a 
[54.235]
<no-speech> 
[55.505]
k u m a ʔ i n k a n ɐ 
[56.425]
<no-speech> 
[61.775]
ʔ a s ɑ r i n ɐ m a n 
[63.895]
<no-speech> 
[65.725]
s i n u k ɐ s a m a m o 
[68.285]
<no-speech> 
[69.795]
<no-speech> 
[70.165]
<no-speech> 
[71.465]
s i n u k ɐ s a m a m o 
[72.585]
<no-speech> 
[75.68]
