[0.0]
<int> h ɛ l oʊ 
[5.665]
<no-speech> 
[6.825]
<no-speech> 
[7.355]
<no-speech> 
[9.085]
ʔ a 
[9.635]
<no-speech> 
[12.965]
ʔ ɐ l a ʔ n ɐ g l a l ɐ b a 
[14.005]
<no-speech> 
[15.705]
<no-speech> 
[16.354875]
<no-speech> 
[17.835]
ʔ oʊ k eɪ l a ʔ a ŋ k a l a ʔ k o m ɐ g 
[19.895]
<no-speech> 
[21.055]
ʔ ɐ n u 
[21.625]
<no-speech> 
[23.005]
k a l a ʔ k o m ɐ g ʔ i s t a r t n ɐ ʔ ɐ ŋ ʔ ɪ n t ə r v j u 
[24.705]
<no-speech> 
[26.275]
s a n 
[26.825]
<no-speech> 
[31.445]
ʔ o s i g e 
[32.175]
<no-speech> 
[33.285]
h i n d e ʔ p u p u w e d e 
[34.115]
<no-speech> 
[36.515]
b a k e t 
[37.115]
<no-speech> 
[38.415]
ʔ o 
[38.915]
<no-speech> 
[44.015]
ʔ o ŋ a ʔ 
[44.685]
<no-speech> 
[50.065]
<no-speech> 
[50.415]
<no-speech> 
[51.595]
ʔ ə m h ə m 
[52.375]
<no-speech> 
[56.085]
ʔ o ʔ ɐ n u ŋ ʔ ɐ n u b a t a w a g d o n ʔ ɐ n u ŋ s a b e m o 
[60.205]
<no-speech> 
[63.605]
ʔ o p e d e 
[65.225]
<no-speech> 
[67.195]
<no-speech> 
[67.635]
<no-speech> 
[70.475]
ʔ o s i g e s i g e ʔ ɐ n u 
[72.825]
<no-speech> 
[75.485]
ʔ ɐ l a ʔ 
[76.095]
<no-speech> 
[77.155]
ʔ o p e d e n i j a j a ʔ ŋ a ʔ n i ʤ eɪ k <hes> 
[80.235]
<no-speech> 
[83.365]
<sta> ʔ o t r ɪ p l a ʔ a ŋ 
[86.695]
<no-speech> 
[87.945]
<no-speech> 
[88.295]
<no-speech> 
[89.795]
ʔ o ʔ oʊ k eɪ l a ʔ a ŋ 
[90.895]
<no-speech> 
[92.805]
ʔ o 
[93.625]
<no-speech> 
[96.055]
<no-speech> 
[96.535]
<no-speech> 
[97.595]
b a h aɪ l a ʔ a ŋ k a j a ʔ ɐ k o 
[98.715]
<no-speech> 
[100.255]
s ɐ b a h aɪ l a ʔ a ŋ ʔ ɐ k o 
[102.075]
<no-speech> 
[103.085]
b a h aɪ d i t u l a ʔ a ŋ ʔ ɐ k o s ɐ b a h aɪ 
[109.205]
<no-speech> 
[111.615]
d i ʔ o 
[113.005]
<no-speech> 
[115.565]
<sta> k ɛ l 
[116.025]
<no-speech> 
[116.925]
h i n d e ʔ m ɐ g b a s k e t b o l n ɐ l a ʔ a ŋ ʔ ɐ k o 
[118.615]
<no-speech> 
[119.915]
ʔ o m ɐ g b a s k e t b o l n ɐ l a ʔ a ŋ ʔ ɐ k o 
[121.335]
<no-speech> 
[122.755]
ʔ o 
[124.675]
<no-speech> 
[127.795]
ʔ o ŋ a ʔ <hes> 
[128.615]
<no-speech> 
[129.805]
<no-speech> 
[130.164875]
<no-speech> 
[131.025]
ʔ ɐ n u 
[131.635]
<no-speech> 
[135.205]
n ɐ m i m i s 
[135.835]
<no-speech> 
[142.905]
ʔ ɐ n u 
[143.535]
<no-speech> 
[148.565]
b a k e t 
[150.185]
<no-speech> 
[154.175]
<int> ʔ a 
[156.045]
<no-speech> 
[159.235]
h ɐ j a n m o n ɐ p ɐ g s u b o k j a ʔ a n <laugh> ʔ oʊ k eɪ l a ʔ a ŋ j a ʔ a n 
[167.365]
<no-speech> 
[168.705]
ʔ ɐ n u 
[169.315]
<no-speech> 
[171.215]
<no-speech> 
[171.585]
<no-speech> 
[173.375]
<sta> j o ʔ o ŋ ʔ a k i ŋ ʔ ɐ l ɐ ŋ ʔ eɪ ʧ ʔ ɐ n u k a b a 
[175.635]
<no-speech> 
[179.605]
ʔ o 
[180.405]
<no-speech> 
[181.815]
<no-speech> 
[184.005]
<no-speech> 
[191.495]
s ɐ d a n d a n 
[192.365]
<no-speech> 
[194.035]
m a g a p a j o ʔ o n m ɐ ŋ a ʔ m ɐ ŋ a ʔ m ɐ ŋ a ʔ t u d e n l a ʔ a ŋ j a t a ʔ 
[197.675]
<no-speech> 
[199.065]
m ɐ ŋ a ʔ g ɐ n o n t u 
[200.675]
<no-speech> 
[201.855]
ʔ o ʔ i w a n n ɐ r e n ʔ a 
[204.675]
<no-speech> 
[208.735]
ʔ o 
[209.485]
<no-speech> 
[213.645]
ʔ ɐ l a ʔ n ɐ m i m i s l a ʔ a ŋ k i t a <hes> h i h i n ɐ m i m i s l a ʔ a ŋ k i t a 
[217.725]
<no-speech> 
[218.725]
ʔ o 
[219.345]
<no-speech> 
[225.225]
<no-speech> 
[226.015]
<no-speech> 
[227.925]
ʔ o 
[228.545]
<no-speech> 
[230.505]
b a k e t 
[231.095]
<no-speech> 
[233.865]
ʔ ɐ n u 
[234.485]
<no-speech> 
[236.285]
ʔ ə m h ə m 
[237.405]
<no-speech> 
[239.355]
ʔ ə m h ə m 
[240.075]
<no-speech> 
[247.255]
ʔ ə m h ə m 
[248.095]
<no-speech> 
[252.595]
h ɛ l oʊ 
[253.295]
<no-speech> 
[264.895]
g ɐ n o n 
[265.585]
<no-speech> 
[272.965]
b a k e t 
[273.565]
<no-speech> 
[278.765]
<no-speech> 
[279.445]
<no-speech> 
[282.165]
ʔ o ŋ a ʔ ʔ o 
[284.795]
<no-speech> 
[286.325]
ʔ i l ɐ ŋ m ɪ n ɪ t s t o t ɛ n m ɪ n ɪ t s d a p a t 
[289.285]
<no-speech> 
[290.275]
<no-speech> 
[290.875]
<no-speech> 
[294.525]
ʔ a 
[295.075]
<no-speech> 
[296.645]
ʔ a 
[297.325]
<no-speech> 
[299.335]
k a j a l a ʔ a ŋ ʔ o ŋ a ʔ d i ʔ ɐ k o m ɐ k ɐ s ɐ m a ʔ s ɐ l a b a n <hes> 
[301.465]
<no-speech> 
[303.955]
<no-speech> 
[304.795]
<no-speech> 
[307.955]
ʔ ə m h ə m 
[308.545]
<no-speech> 
[314.325]
<sta> k a l i n e s s ɛ d 
[315.595]
<no-speech> 
[317.715]
ʔ ɐ n u 
[318.275]
<no-speech> 
[322.405]
<no-speech> 
[322.775]
<no-speech> 
[326.155]
<sta> h i n d e ʔ n ɐ m a n s a k t o l a ʔ a ŋ 
[327.355]
<no-speech> 
[337.195]
n ɐ m i m i s ŋ a ʔ 
[338.115]
<no-speech> 
[340.405]
h ɛ l oʊ 
[341.885]
<no-speech> 
[344.465]
ʔ ɐ n u 
[345.135]
<no-speech> 
[346.795]
ʔ ɐ n u ʔ ɐ n u 
[347.795]
<no-speech> 
[349.915]
<no-speech> 
[350.395]
<no-speech> 
[351.215]
<no-speech> 
[351.585]
<no-speech> 
[352.395]
b ɐ t n ɐ m a n 
[353.565]
<no-speech> 
[354.755]
<no-speech> 
[356.575]
<no-speech> 
[357.775]
ʔ ɐ n u ŋ b a g o 
[359.285]
<no-speech> 
[362.925]
ʔ ə m h ə m 
[363.885]
<no-speech> 
[364.855]
<no-speech> 
[365.715]
<no-speech> 
[369.745]
ʔ o d a p a t b eɪ b i 
[371.765]
<no-speech> 
[374.765]
b a g u ŋ ʔ i m eɪ l 
[377.735]
<no-speech> 
[379.795]
ʔ a 
[383.195]
<no-speech> 
[385.045]
<no-speech> 
[385.485]
<no-speech> 
[388.665]
<no-speech> 
[389.435]
<no-speech> 
[392.215]
ʔ o n ɐ m a n 
[394.315]
<no-speech> 
[395.175]
ʔ o 
[395.875]
<no-speech> 
[397.885]
<no-speech> 
[399.165]
<no-speech> 
[401.525]
<no-speech> 
[402.755]
<no-speech> 
[404.285]
<no-speech> 
[404.675]
<no-speech> 
[409.695]
<no-speech> 
[411.025]
<no-speech> 
[411.965]
<no-speech> 
[412.355]
<no-speech> 
[414.365]
<no-speech> 
[414.745]
<no-speech> 
[417.825]
ʔ ə m h ə m ʔ ɐ n u 
[421.285]
<no-speech> 
[422.495]
ʔ ɐ n u 
[423.715]
<no-speech> 
[427.645]
ʔ o ʔ a 
[431.535]
<no-speech> 
[433.035]
ʔ ə m h ə m 
[433.755]
<no-speech> 
[435.895]
<no-speech> 
[436.625]
<no-speech> 
[441.255]
ʔ ɐ n u 
[441.915]
<no-speech> 
[443.575]
<sta> m ɐ g ʔ o <no-speech> ʔ o 
[445.985]
<no-speech> 
[446.945]
<no-speech> 
[447.315]
<no-speech> 
[448.835]
b a k a m e ʧ ɛ k n ɐ 
[451.245]
<no-speech> 
[453.485]
<no-speech> 
[453.965]
<no-speech> 
[455.555]
θ r i f ɪ f t i 
[458.545]
<no-speech> 
[459.655]
θ r i f ɪ f t i ŋ a ʔ ʔ ə m h ə m 
[461.725]
<no-speech> 
[462.705]
<no-speech> 
[463.075]
<no-speech> 
[464.135]
ʔ oʊ k eɪ n ɐ m a n 
[464.975]
<no-speech> 
[466.595]
k a l a ʔ n i l a n ɐ t ɐ n d a ʔ <hes> 
[467.845]
<no-speech> 
[469.025]
ʔ o 
[470.535]
<no-speech> 
[473.665]
ʔ o p e d e <hes> 
[475.795]
<no-speech> 
[476.855]
ʔ o 
[477.535]
<no-speech> 
[478.975]
ʔ o s i g e 
[479.875]
<no-speech> 
[483.385]
ʔ ə m h ə m 
[484.145]
<no-speech> 
[486.895]
t ɐ s n ɐ 
[487.655]
<no-speech> 
[491.485]
ʔ ɐ n u ʔ ɐ n u 
[496.515]
<no-speech> 
[498.545]
ʔ o 
[501.015]
<no-speech> 
[502.005]
ʔ o 
[503.485]
<no-speech> 
[507.295]
n ɐ g k a m ɐ l e ʔ n ɐ n ɐ m a n 
[508.485]
<no-speech> 
[510.135]
<no-speech> 
[510.985]
<no-speech> 
[512.505]
ʔ o ŋ a ʔ b a k a n ɐ g k a m ɐ l e ʔ 
[514.975]
<no-speech> 
[518.365]
<no-speech> 
[519.115]
<no-speech> 
[521.675]
h i n d e ʔ t i n ɐ w a g a n ʔ ɐ k o d i t u 
[523.665]
<no-speech> 
[524.505]
<no-speech> 
[525.005]
<no-speech> 
[530.455]
s a n 
[532.095]
<no-speech> 
[533.165]
ʔ ɐ n u ŋ s w ɪ m ɪ ŋ 
[535.105]
<no-speech> 
[536.015]
ʔ a 
[536.685]
<no-speech> 
[540.195]
ʔ a ʔ oʊ k eɪ l a ʔ a ŋ 
[544.005]
<no-speech> 
[546.545]
<no-speech> 
[547.005]
<no-speech> 
[547.935]
<no-speech> 
[548.425]
<no-speech> 
[549.775]
<no-speech> 
[550.245]
<no-speech> 
[552.365]
ʔ o 
[553.085]
<no-speech> 
[555.725]
<no-speech> 
[559.885]
<no-speech> 
[560.935]
ʔ a 
[561.685]
<no-speech> 
[562.975]
<no-speech> 
[563.475]
<no-speech> 
[565.365]
ʔ a h i p o n s i n i g a ŋ s u g p o ʔ 
[572.645]
<no-speech> 
[574.065]
<no-speech> 
[574.445]
<no-speech> 
[575.865]
<no-speech> 
[576.245]
<no-speech> 
[579.875]
ʔ ɐ n u ʔ ɐ n u 
[583.095]
<no-speech> 
[586.375]
ʔ o 
[589.175]
<no-speech> 
[590.995]
ʔ ɐ l a ʔ ʔ ɐ l a ʔ s i l a ʔ ɐ k o l a ʔ a ŋ t a ʔ o d i t u <hes> 
[595.775]
<no-speech> 
[596.965]
ʔ o p u m a s u k 
[599.385]
<no-speech> 
[600.26]
