[0.0]
<no-speech> 
[0.345]
<no-speech> 
[1.695]
<no-speech> 
[2.755]
<sta> h ɛ l oʊ 
[3.925]
<no-speech> 
[5.825]
<sta> h ɛ l oʊ <no-speech> ʔ o <no-speech> h ɛ l oʊ 
[11.705]
<no-speech> 
[13.175]
ʔ o ʔ a j o s l a ʔ a ŋ <no-speech> ʔ a j o s l a ʔ a ŋ <no-speech> ʔ i k aʊ 
[17.765]
<no-speech> 
[22.155]
<sta> ʔ a ʔ ɐ n d i t o k a n ɐ s ɐ b a h aɪ 
[24.645]
<no-speech> 
[25.705]
<sta> ʔ e t o n ɐ n ɐ g d ɐ d r aɪ b ʔ ɐ k o <hes> <no-speech> ʔ a ʔ ɐ l e s ʔ ɐ k o p u n t a ʔ ɐ k o ŋ ʔ ɐ r ɐ n e t a 
[36.355]
<no-speech> 
[38.485]
<sta> ʔ ɐ n u ŋ g i n a g ɐ w a ʔ m o ŋ aɪ ʔ o n <no-speech> ʔ a <no-speech> n ɐ n u n u d k a ʔ ɐ n u ŋ p i n a p ɐ n u d m o 
[48.425]
<no-speech> 
[49.475]
<no-speech> 
[50.075]
<no-speech> 
[51.715]
ʔ ɐ n u ŋ a ʔ <sta> ʔ ɐ n u ŋ p i n a p ɐ n u d m o 
[55.985]
<no-speech> 
[59.525]
<no-speech> 
[59.875]
<no-speech> 
[62.735]
ʔ e t o m ɐ l a j o ʔ p u p u n t ɐ h a n k o ŋ aɪ ʔ o n <hes> <no-speech> p u p u n t a ʔ ɐ k o n ɐ ŋ b a g j o ŋ aɪ ʔ o n <hes> 
[66.935]
<no-speech> 
[69.275]
<no-speech> 
[70.505]
<no-speech> 
[74.625]
<sta> <hes> m ɐ t r a p i k s ɐ k a m e ʔ ɐ ŋ k a s ʔ ɐ k o <hes> 
[77.505]
<no-speech> 
[78.515]
<sta> m ɐ l a j o ʔ 
[79.565]
<no-speech> 
[81.725]
<sta> ʔ ə m h ə m <no-speech> m ɐ ŋ a ʔ b ɐ b a ʔ e k o 
[86.685]
<no-speech> 
[89.135]
<sta> m e b ɐ b a ʔ e k ɐ s e ʔ ɐ k o <hes> <no-speech> m e ʧ ɪ k s k ɐ s e ʔ ɐ k o d u n <hes> <no-speech> s ɐ m a ʔ k a p a ʔ i s t o r b o k a l a ʔ a ŋ 
[95.875]
<no-speech> 
[98.425]
<no-speech> 
[98.785]
<no-speech> 
[99.605]
<sta> s a n n ɐ s i t o t oɪ <no-speech> n a s a n n ɐ s i t o t oɪ 
[102.445]
<no-speech> 
[103.485]
<sta> ʔ a 
[104.515]
<no-speech> 
[105.695]
ʔ a s a n n ɐ s i t o t oɪ 
[107.105]
<no-speech> 
[111.445]
<sta> ʔ a b ɐ t p i n a p ɐ b ɐ j a n m o 
[113.965]
<no-speech> 
[116.615]
<sta> b ɐ t m o <oov> p i n a p ɐ b ɐ j a n 
[118.595]
<no-speech> 
[124.995]
<sta> ʔ i k aʊ d a p a t m ɐ g b ɐ n t aɪ 
[126.965]
<no-speech> 
[128.665]
<sta> ʔ a ʔ ɐ n u ŋ g u s t u m u ŋ p ɐ s ɐ l u b o ŋ 
[134.065]
<no-speech> 
[135.025]
<sta> ʔ ɐ n u ŋ a ʔ ʔ ɐ ŋ p ɐ s ɐ l u b o ŋ g u s t u m o <no-speech> ʔ a <no-speech> m a r v ɪ n m u r a n ɐ m a n n o n <no-speech> m u r a n ɐ m a n n o n 
[146.775]
<no-speech> 
[148.025]
<no-speech> 
[151.645]
<sta> j oʊ h a n k a r m ɐ h a l j o ʔ o n <no-speech> d a p a t j o ʔ o ŋ m ɐ ŋ a ʔ t i g t u t u h ʌ n d r ə d f ɪ f t i 
[157.075]
<no-speech> 
[158.265]
<sta> d a p a t s ɐ t u h ʌ n d r ə d f ɪ f t i <no-speech> m ɐ h i n a ʔ k a n ɐ m a n m ɐ g <no-speech> p ɐ s ɐ l u b o ŋ <no-speech> <sta> m ɐ h i n a ʔ k a n ɐ m a n n ɐ m ɐ ŋ h i ŋ e ʔ n ɐ ŋ p ɐ s ɐ l u b o ŋ <hes> 
[170.225]
<no-speech> 
[173.345]
ʔ o m e ʤ u <no-speech> t r æ f ɪ k ŋ aɪ ʔ o n <hes> n ɐ j a ʔ a n <no-speech> ʔ o 
[179.145]
<no-speech> 
[181.155]
<sta> b ɐ t p a r ɐ ŋ ʔ ɐ ŋ ʔ i ŋ aɪ ʤ a ʔ a n s ɐ ʔ i n j o 
[184.495]
<no-speech> 
[186.915]
<sta> b ɐ t ʔ ɐ ŋ ʔ i ŋ aɪ s ɐ ʔ i n j o <no-speech> h ɛ l oʊ 
[191.345]
<no-speech> 
[192.445]
h ɛ l oʊ 
[193.105]
<no-speech> 
[194.115]
<sta> ʔ a 
[194.825]
<no-speech> 
[196.995]
<sta> ʔ ɐ ŋ ʔ i ŋ aɪ ŋ a ʔ <hes> <no-speech> ʔ ɐ n u ʔ ɐ ŋ p ɐ l ɐ b a s ŋ aɪ ʔ o n 
[203.295]
<no-speech> 
[205.145]
<sta> ʔ a 
[205.965]
<no-speech> 
[206.825]
<sta> ʔ o 
[209.195]
<no-speech> 
[210.625]
<no-speech> 
[210.985]
<no-speech> 
[211.865]
<sta> s ɐ l ɐ b a s t i n a t ɐ n u ŋ k o k u ŋ ʔ ɐ n u ʔ ɐ ŋ p ɐ l ɐ b a s 
[214.425]
<no-speech> 
[215.565]
<sta> k j u t k a n ɐ m a n 
[216.475]
<no-speech> 
[217.745]
<sta> ʔ a 
[218.895]
<no-speech> 
[220.395]
<sta> ʔ o <no-speech> h ɛ l oʊ 
[224.395]
<no-speech> 
[225.855]
<sta> m e ʤ u t r æ f ɪ k ŋ aɪ ʔ o n <hes> s ɐ ʔ ɐ l ɐ b a ŋ n ɐ ʔ ɐ k o <hes> 
[229.665]
<no-speech> 
[232.505]
<sta> ʔ o 
[233.175]
<no-speech> 
[237.265]
<sta> w ɐ g k ɐ ŋ m ɐ ʔ i ŋ aɪ ʤ a ʔ a n 
[239.175]
<no-speech> 
[240.755]
ʔ a <int> 
[241.485]
<no-speech> 
[245.765]
<sta> m ɐ ʔ i ŋ aɪ 
[246.935]
<no-speech> 
[248.925]
<no-speech> 
[250.795]
<no-speech> 
[251.805]
<sta> k e l a n k a b a n i m a m a ʔ m o p i n a p ɐ p u n t a n ɐ ŋ 
[253.885]
<no-speech> 
[254.725]
k e l a n k a b a p i n a p ɐ p u n t a 
[256.225]
<no-speech> 
[258.304875]
<int> ʔ a <no-speech> k e l a n k a b a p i n a p ɐ p u n t a d u n s ɐ m ɐ r i k i n a 
[261.835]
<no-speech> 
[263.545]
<sta> k e l a n k a p i n a p ɐ p u n t a s ɐ m ɐ r i k i n a 
[265.585]
<no-speech> 
[269.375]
<sta> ʔ a 
[270.275]
<no-speech> 
[271.205]
<sta> k e l a n k a p i n a p ɐ p u n t a s ɐ m ɐ r i k i n a 
[274.455]
<no-speech> 
[277.235]
ʔ a 
[277.865]
<no-speech> 
[280.035]
k e l a n k a p u p u n t ɐ ŋ m ɐ r i k i n a 
[282.505]
<no-speech> 
[283.745]
<sta> ʔ ɐ ŋ b i ŋ e m o n ɐ m a n 
[285.055]
<no-speech> 
[287.795]
t ɐ s <no-speech> d o n k a n ɐ m ɐ t u t u l o g 
[290.515]
<no-speech> 
[291.905]
d u n k a n ɐ m ɐ t u t u l o g n i j a n <int> 
[293.365]
<no-speech> 
[295.795]
<sta> b a k e t 
[296.705]
<no-speech> 
[300.525]
ʔ a 
[301.065]
<no-speech> 
[303.095]
<sta> t w ɛ n t i s ɪ k s k a n ɐ ʔ u w i ʔ 
[304.895]
<no-speech> 
[305.785]
<sta> ʔ a 
[311.345]
<no-speech> 
[312.565]
ʔ o 
[313.265]
<no-speech> 
[314.465]
<sta> s i t o t oɪ n a s a t a n a s a ʔ ɐ n u <hes> n a s a t r aɪ s ɪ k ə l j a t a ʔ <hes> d a p a t b ɐ n t a j a n m o <no-speech> ʔ a <no-speech> h ɛ l oʊ ʔ ɐ n u ŋ p ɐ l ɐ b a s ŋ aɪ ʔ o n 
[325.925]
ʔ ɐ n u n ɐ ʔ ɐ ŋ p ɐ l ɐ b a s ŋ aɪ ʔ o n <int> <no-speech> ʔ a 
[332.895]
<no-speech> 
[335.465]
<int> <sta> ʔ ɐ n u n ɐ ʔ ɐ ŋ p ɐ l ɐ b a s s a b e k o 
[338.545]
<no-speech> 
[341.975]
<hes> <sta> ʔ a ʔ o 
[343.965]
<no-speech> 
[344.765]
<int> d e d ɪ s ɛ m b ə r p a l a ʔ a ŋ <no-speech> <int> ʔ a 
[349.225]
<no-speech> 
[350.705]
h ɛ l oʊ 
[352.705]
<no-speech> 
[358.165]
<sta> ʔ a ʔ ə m h ə m 
[359.235]
<no-speech> 
[360.145]
m a m ɐ j a ʔ p ɐ g d ɐ t i ŋ k o n ɐ ŋ b a h aɪ p u p u n t a ʔ ɐ k o m e d u t i p a ʔ ɐ k o 
[363.445]
<no-speech> 
[366.695]
k ɐ w a w a ʔ 
[367.545]
<no-speech> 
[370.875]
<sta> k u m a ʔ i n k a n ɐ b a 
[372.205]
<no-speech> 
[375.245]
<sta> ʔ o 
[375.925]
<no-speech> 
[377.945]
<sta> k u m a ʔ i n k a n ɐ b a 
[379.475]
<no-speech> 
[383.435]
<sta> k u m a ʔ i n k a n ɐ 
[384.735]
<no-speech> 
[387.295]
<sta> ʔ o 
[387.935]
<no-speech> 
[389.315]
<sta> ʔ ɐ n u ŋ ʔ i n u l a m m o 
[390.675]
<no-speech> 
[398.555]
<sta> b ɐ t k a k u m a ʔ i n n ɐ h i n d e ʔ m o ʔ ɐ k o s i n a m a 
[400.745]
<no-speech> 
[403.835]
<sta> ʔ a <no-speech> ʔ ə m h ə m 
[406.865]
<no-speech> 
[408.815]
<sta> b ɐ t d i m o ʔ ɐ k o s i n a m a 
[411.075]
<no-speech> 
[413.155]
<sta> h ɛ l oʊ 
[413.805]
<no-speech> 
[420.965]
<sta> <hes> n ɐ g d ɐ d r aɪ b ʔ ɐ k o p ɐ p u n t a ʔ ɐ k o n ɐ ŋ b a g j o <hes> 
[423.085]
<no-speech> 
[431.265]
<sta> ŋ aɪ ʔ o n p a l a ʔ a ŋ ŋ a ʔ 
[432.445]
<no-speech> 
[437.925]
<sta> <hes> m e ʤ u t r æ f ɪ k <hes> 
[439.345]
<no-speech> 
[445.865]
<sta> ʔ o ʔ ɐ n d i j a n n ɐ s i t o t oɪ 
[447.215]
<no-speech> 
[449.445]
<sta> ʤ a ʔ a n n ɐ b a 
[450.465]
<no-speech> 
[452.585]
<no-speech> 
[453.125]
<no-speech> 
[454.435]
<sta> h ɛ l oʊ 
[455.065]
<no-speech> 
[455.905]
<sta> h ɛ l oʊ 
[456.605]
<no-speech> 
[458.695]
<sta> ʔ o <hes> 
[459.855]
<no-speech> 
[460.755]
<sta> ʤ a ʔ a n n ɐ s i t o t oɪ 
[461.735]
<no-speech> 
[464.315]
<sta> m a m ɐ j a ʔ m ɐ g ʤ i ʤ i m ʔ ɐ k o 
[465.695]
<no-speech> 
[467.675]
<sta> m a m ɐ j a ʔ m ɐ g ʤ i ʤ i m ʔ ɐ k o m ɐ g 
[470.285]
<no-speech> 
[471.215]
<sta> ʔ a 
[471.885]
<no-speech> 
[474.295]
<sta> p ɐ g ʔ u w i ʔ k o ʤ a ʔ a n m ɐ g ʤ i ʤ i m ʔ ɐ k o 
[476.515]
<no-speech> 
[478.875]
<sta> b i ŋ e m o n ɐ m a n 
[480.025]
<no-speech> 
[481.355]
<sta> ʔ o 
[482.055]
<no-speech> 
[483.685]
<sta> h ɛ l oʊ 
[484.385]
<no-speech> 
[486.395]
<sta> m ɐ g ʤ i ʤ i m ʔ ɐ k o m a m ɐ j a ʔ <no-speech> 
[490.765]
<no-speech> 
[494.105]
<sta> ʔ ɐ n u ŋ g a g ɐ w i n k o d i t u s ɐ m oʊ t ə r 
[496.725]
<no-speech> 
[499.525]
<sta> h ɛ l oʊ 
[500.335]
<no-speech> 
[502.625]
<sta> ʔ ɐ n u ŋ g i n a g ɐ w a ʔ m o ŋ aɪ ʔ o n 
[504.185]
<no-speech> 
[506.995]
<sta> ʔ a 
[507.625]
<no-speech> 
[509.055]
<sta> ʔ ɐ n u ŋ g i n a g ɐ w a ʔ m o 
[510.535]
<no-speech> 
[511.795]
<sta> ʔ ɐ n u ŋ g i n a g ɐ w a ʔ m o 
[513.265]
<no-speech> 
[516.215]
<int> <sta> j o ʔ o n p a l a ʔ ʔ ɐ ŋ b a w ɐ t s i g u n d o 
[519.135]
<no-speech> 
[520.394875]
<no-speech> 
[521.074875]
<no-speech> 
[525.345]
<no-speech> 
[525.765]
<no-speech> 
[530.165]
<hes> <sta> d u n r e n ʔ ɐ k o n ɐ k a 
[532.985]
<no-speech> 
[534.395]
<sta> ʔ i l ɐ ŋ t ɐ ʔ u n k a n ɐ 
[535.605]
<no-speech> 
[537.585]
<sta> ʔ i l ɐ ŋ t ɐ ʔ u n k a n ɐ 
[538.965]
<no-speech> 
[541.025]
<sta> ʔ i l ɐ ŋ t ɐ ʔ u n k a n ɐ 
[542.415]
<no-speech> 
[544.245]
<sta> ʔ i l ɐ ŋ t ɐ ʔ u n k a n ɐ 
[545.695]
<no-speech> 
[550.245]
<sta> ʔ eɪ ʤ m o n ɐ 
[551.615]
<no-speech> 
[554.795]
<sta> h ɛ l oʊ 
[555.355]
<no-speech> 
[556.835]
<sta> ʔ i l ɐ ŋ t ɐ ʔ u n k a n ɐ 
[558.285]
<no-speech> 
[559.925]
<sta> ʔ o 
[560.765]
<no-speech> 
[562.865]
<sta> ʔ eɪ ʤ t ɐ ʔ u n t ɐ ʔ u n m o n ɐ ʔ i l ɐ ŋ t ɐ ʔ u n 
[565.705]
<no-speech> 
[568.005]
<sta> h ɛ l oʊ 
[568.605]
<no-speech> 
[571.905]
<sta> <hes> n ɐ k ɐ l i m u t a n k o ʔ i l ɐ ŋ t ɐ ʔ u n k a n ɐ 
[573.795]
<no-speech> 
[575.565]
<sta> t w ɛ n t i t u 
[576.615]
<no-speech> 
[578.005]
<sta> t w ɛ n t i 
[578.905]
<no-speech> 
[581.365]
<sta> ʔ oʊ <no-speech> ʔ a 
[583.295]
<no-speech> 
[585.385]
<sta> k e l a n k a ʔ i p i n ɐ ŋ ɐ n a k 
[588.165]
<no-speech> 
[589.745]
<int> <sta> k a k e l a n k a ʔ i p i n ɐ ŋ ɐ n a k 
[592.315]
<no-speech> 
[595.275]
<sta> ʔ o 
[595.835]
<sta> s i j e m p r e t i n a t ɐ n u ŋ k o n ɐ g d ɐ d r aɪ b ʔ ɐ k o m ɐ k a k ɐ l i m u t i n <oov> 
[600.0]
