[0.0]
<no-speech> 
[11.7575]
<no-speech> 
[23.515]
<no-speech> 
[23.955]
<no-speech> 
[25.025]
<no-speech> 
[25.615]
<no-speech> 
[29.925]
h ɛ l oʊ 
[30.595]
<no-speech> 
[31.755]
h ɛ l oʊ ʔ ə m h ə m 
[35.105]
<no-speech> 
[36.775]
ʔ ɐ n u 
[37.325]
<no-speech> 
[39.575]
ʔ a 
[40.695]
<no-speech> 
[42.125]
h e t o ʔ oʊ k eɪ l a ʔ a ŋ n ɐ g ʔ i ʔ i n t ə r n e t 
[44.475]
<no-speech> 
[46.235]
ʔ a n ɐ g ʔ i ʔ i n t ə r n e t 
[48.465]
<no-speech> 
[49.585]
d i p a n ɐ m a n 
[50.525]
<no-speech> 
[52.625]
d i p a n ɐ m a n n ɐ g ʔ i ʔ i n t ə r n e t p a n ɐ g p e p eɪ s b u k p a 
[56.395]
<no-speech> 
[61.105]
<int> ʔ ɐ n u 
[62.185]
<no-speech> 
[64.464875]
ʔ ɐ l e n 
[65.165]
<no-speech> 
[68.465]
ʔ æ l ə r ʤ i 
[69.395]
<no-speech> 
[70.505]
ʔ ɐɪ n ɐ k o 
[71.305]
<no-speech> 
[74.945]
h ɐ l a ʔ ɐ ŋ 
[77.405]
<no-speech> 
[78.725]
ʔ a 
[79.215]
<no-speech> 
[81.115]
ʔ ɐ ŋ h i n a ʔ k a j a n ɐ ŋ b o s e s m o ʔ ɐ n u 
[83.915]
<no-speech> 
[87.095]
ʔ ɐ n u ŋ s a b e m o ʔ ɐ ŋ h i n a ʔ n ɐ ŋ b o s e s m o 
[89.295]
<no-speech> 
[90.935]
<int> ʔ a 
[92.235]
<no-speech> 
[95.135]
n ɐ ŋ h i h i n a ʔ ʔ oʊ k eɪ l a ʔ a ŋ n ɐ m a n ʔ u m i n o m n ɐ ʔ ɐ k o n ɐ ŋ g ɐ m u t 
[98.975]
<no-speech> 
[99.955]
h i n d e ʔ n ɐ h i n d e ʔ n ɐ ʔ ɐ k o n ɐ g t e t e k s t ʔ u m i n o m l a ʔ a ŋ ʔ ɐ k o 
[103.465]
<no-speech> 
[108.595]
ʔ ɐ n u <hes> n ɐ g i ŋ k ɐ m e d i k o n ɐ m a n ʔ ɐ l a m n ɐ g ɐ n u n p a l a ʔ 
[113.625]
<no-speech> 
[114.845]
n i l ɐ s a h a n k o n ɐ k a j a k ɐ k a ʔ s ɐ b aʊ p a l a ʔ a ŋ 
[117.545]

[122.295]
ʔ o 
[122.845]
<no-speech> 
[127.835]
<cough> s ɑ r i 
[128.925]
<no-speech> 
[131.495]
<no-speech> 
[131.905]
<no-speech> 
[133.285]
<no-speech> 
[133.695]
<no-speech> 
[136.425]
ʔ o d u n j u n p ɐ p u n t a 
[139.405]
<no-speech> 
[140.475]
t ɐ s ʔ ɐ n u m ɐ m u l a k a 
[143.465]
<no-speech> 
[146.575]
ʔ o n ɐ m u m u l a k a t ɐ s m ɐ g p a p ɐ n t a l p ɐ n t a l j o ʔ o ŋ b a l a t m o 
[151.615]
<no-speech> 
[152.655]
s ɐ k a m ɐ k a t i 
[153.735]
<no-speech> 
[159.525]
ʔ ə m h ə m 
[160.015]
<no-speech> 
[163.595]
ʔ o 
[164.315]
<no-speech> 
[165.785]
<no-speech> 
[166.175]
<no-speech> 
[168.785]
ʔ a 
[169.365]
<no-speech> 
[170.165]
ʔ ɐ n u l a ʔ a ŋ s i g u r o m ɐ ŋ a ʔ s i m u l a ʔ ʔ u m i n o m ʔ ɐ k o n ɐ ŋ g ɐ m u t ʔ ɐ l a ʔ p ɐ ŋ θ ɜ r t i m ɪ n ɪ t s n ɐ w ɐ l a ʔ n ɐ n ɐ ŋ p ɐ g k ɐ ʔ i n o m k o n ɐ ŋ g ɐ m u t s ɐ g l e t l a ʔ a ŋ j o ʔ o ŋ 
[181.845]
p a g ʔ i n i n u m a n m o k ɐ g a d p e r o p a g t i n ɐ g ɐ l a n m o h i n d e ʔ m ɐ w a w ɐ l a ʔ ʔ ɐ g a d ʔ i j u n 
[187.415]
<no-speech> 
[190.305]
<no-speech> 
[190.705]
<no-speech> 
[192.915]
p a r a k ɐ m i ŋ t ɐ ŋ a n i ʤ u n 
[194.455]
<no-speech> 
[196.805]
ʔ a h i n d e ʔ h oʊ l d aɪ ʔ ɐ k o 
[200.595]
<no-speech> 
[202.045]
ʔ o ʔ ɐ l a m m o n ɐ m a n s ɐ t r ɐ b a h u 
[204.105]
<no-speech> 
[206.005]
h oʊ l d aɪ 
[206.895]
<no-speech> 
[208.515]
h i n d e ʔ n ɐ m a n ʔ ɐ k o n ɐ g h ɐ h a p d aɪ k a h e t m ɐ s a m a p ɐ k i r ɐ m d a m k o d i p e n d e n ɐ l a ʔ a ŋ p a g d i k o n ɐ t ɐ l ɐ g a ʔ k a j a 
[214.115]
<no-speech> 
[215.855]
ʔ o ʔ ɐ k o p a ʔ ɐ k o n ɐ ʔ ɐ k o n ɐ m ɐ s i p a g 
[219.715]
<no-speech> 
[220.515]
ʔ ɐ k o n ɐ ʔ ɐ ŋ m ɐ s i p a g 
[221.685]
<no-speech> 
[224.295]
ʔ ɐ k o n ɐ ʔ ɐ k o n ɐ m ɐ g ɐ n d a ʔ ɐ k o n ɐ l ɐ h a t ʔ a <laugh> 
[228.765]
<no-speech> 
[230.345]
t ɐ r a s ɐ m i n k a l ɐ m e g d o n <hes> p a g ʔ ɐ n u <laugh> n ɐ g l ɐ l a p t o p s i j a n ɐ g l ɐ l a p t o p d e n ʔ ɐ k o 
[237.255]
<no-speech> 
[238.585]
ʔ a 
[239.115]
<no-speech> 
[240.985]
ʔ ɐ n u 
[241.575]
<no-speech> 
[244.255]
ʔ ɐ ŋ h i n a ʔ n ɐ ŋ b o s e s m o 
[245.735]
<no-speech> 
[247.195]
ʔ a 
[247.675]
<no-speech> 
[250.385]
<no-speech> 
[250.815]
<no-speech> 
[252.675]
ʔ a ʔ ɐɪ b a k a m ɐ h i n a ʔ p o ʔ j o ʔ o ŋ d eɪ t ɪ ŋ s ɐ s ɛ l f oʊ n k o 
[255.645]
<no-speech> 
[258.535]
<no-speech> 
[258.965]
<no-speech> 
[259.845]
m ɐ h i n a ʔ ʔ ɐ ŋ m ɐ h i n a ʔ ʔ ɐ ŋ d eɪ t ɪ ŋ m o d i t u m ɐ h i n a ʔ 
[264.285]
<no-speech> 
[267.335]
ʔ oʊ k eɪ n ɐ 
[268.065]
<no-speech> 
[270.195]
s u m i g aʊ k a k ɐ s e 
[271.495]
<no-speech> 
[272.655]
n ɐ k ɐ ʔ o n l aɪ n k a b a h i n d e ʔ n ɐ g ʔ o n l aɪ n k a h i n d e ʔ 
[276.685]
<no-speech> 
[278.555]
ʔ a 
[279.115]
<no-speech> 
[280.895]
s ɐ p eɪ s b u k h i n d e ʔ 
[282.255]
<no-speech> 
[283.585]
ʔ o g a g ɐ w a n k o j a ʔ a n n ɐ ŋ 
[286.065]
<no-speech> 
[287.435]
t i g n a n m o m ɐ ŋ a ʔ t u t a ʔ k o j o ʔ o ŋ m ɐ ŋ a ʔ ʔ a s o k o t i g n a n m o 
[290.715]
<no-speech> 
[296.195]
n o 
[296.705]
<no-speech> 
[297.525]
ʔ o 
[298.025]
<no-speech> 
[301.595]
<no-speech> 
[302.045]
<no-speech> 
[306.015]
ʔ o 
[306.515]
<no-speech> 
[308.615]
ʔ a 
[309.145]
<no-speech> 
[311.025]
ʔ o 
[311.515]
<no-speech> 
[313.205]
<no-speech> 
[313.585]
<no-speech> 
[316.215]
<hes> 
[316.695]
<no-speech> 
[320.525]
<hes> b u n t i s <hes> g ɐ n u n t ɐ l ɐ g a ʔ 
[322.445]
<no-speech> 
[332.815]
p ɐ p ɐ ʔ a n o t ɐ l ɐ g a ʔ 
[335.065]
<no-speech> 
[339.165]
n ɐ k i t a k o s ɐ 
[340.415]
<no-speech> 
[346.975]
ʔ ɐɪ n ɐ g ʔ ɐ n o k ɐ j u n ɐ g ʧ a t n ɐ g ʧ a t k ɐ j u n ɐ g w aɪ ʔ e m k ɐ j u 
[351.645]
<no-speech> 
[353.385]
ʔ a d i n ɐ k i t a n j o ʔ ɐ ŋ s ɐ g i ŋ a n h i n d e ʔ 
[356.605]
<no-speech> 
[361.515]
<hes> b u n t i s s i j e m p r e m e p ɐ j a t b a n ɐ b u n t i s m e p ɐ j a t b a n ɐ b u n t i s 
[366.545]
<no-speech> 
[375.175]
<no-speech> 
[375.525]
<no-speech> 
[381.415]
t i n ɐ n o ŋ m o ʔ ɐ n u ŋ f i l ɪ ŋ <laugh> 
[386.215]
<no-speech> 
[388.395]
<no-speech> 
[388.895]
<no-speech> 
[389.705]
ʔ ɐ n u ŋ f i l ɪ ŋ n ɐ ŋ b u n t i s 
[391.525]
<no-speech> 
[394.775]
t i n ɐ n o ŋ m o b a 
[395.965]
<no-speech> 
[407.575]
<no-speech> 
[409.395]
<no-speech> 
[411.255]
<no-speech> 
[411.645]
<no-speech> 
[412.495]
<no-speech> 
[414.365]
<no-speech> 
[416.025]
k a ʔ i b i g a n k a d aʊ n i j a 
[417.285]
<no-speech> 
[418.355]
<no-speech> 
[418.705]
<no-speech> 
[419.935]
<no-speech> 
[420.535]
<no-speech> 
[423.435]
l ɐ g o t k a l ɐ g o t k a 
[425.045]
<no-speech> 
[426.435]
s ɐ ʔ a k e n ŋ aɪ ʔ o n l a ʔ a ŋ 
[431.185]
<no-speech> 
[432.535]
n ɐ g ʧ a t s i ʔ a t e m ə r j æ n ə 
[434.825]
<no-speech> 
[436.805]
n ɐ g ʧ a t s i ʔ a t e m ə r j æ n ə n ɐ g ʧ a t s i ʔ a t e m ə r j æ n ə s ɐ k ɐ n j a 
[441.285]
<no-speech> 
[444.035]
n ɐ r i r i n i g m o ʔ a 
[446.385]
<no-speech> 
[448.595]
h oɪ n ɐ g ʧ a t s i ʔ ɐ n u m ə r j æ n ə 
[452.045]
<no-speech> 
[454.725]
<no-speech> 
[455.375]
<no-speech> 
[457.125]
ʔ a 
[457.795]
<no-speech> 
[458.835]
s a b e n i j a n a s a s a n t a r o s a k a b a n ɐ g t ɐ n o ŋ s ɐ ʔ a k e n k u ŋ n a s a s a n t a r o s a ʔ ɐ k o 
[465.155]
<no-speech> 
[466.255]
s a b e k o ʔ o t ɐ n u ŋ n i j a m e ʔ ɐ s a w a k a n ɐ b a s a b e k o ʔ ɐ l a ʔ p a 
[472.315]
<no-speech> 
[473.145]
n ɐ g t a t ɐ n o ŋ k u ŋ m e ʔ ɐ s a w a n ɐ ʔ ɐ k o s a b e k o ʔ ɐ l a ʔ p a d ɐ l a g a p a ʔ ɐ k o 
[479.955]
<no-speech> 
[481.565]
<no-speech> 
[482.475]
<no-speech> 
[483.295]
d i b a n ɐ n d i t o l a ʔ a ŋ t o s ɐ s a n t a r o s a 
[485.425]
<no-speech> 
[486.545]
ʔ a 
[487.115]
<no-speech> 
[489.085]
d i b a n ɐ n d i t o l a ʔ a ŋ ʔ i t u s ɐ s a n t a r o s a 
[492.695]
<no-speech> 
[495.055]
h oɪ 
[496.535]
<no-speech> 
[498.855]
ʔ a 
[500.175]
<no-speech> 
[501.235]
h i n d e ʔ k o l a ʔ a ŋ ʔ ɐ l a m n ɐ k ɐ l ɐ g aɪ d u n s ɐ ʔ ɐ n u n i j a ʔ ɐ n u s ɐ ʔ e s ʔ e m d aʊ 
[509.675]
<no-speech> 
[513.264875]
<no-speech> 
[513.615]
<no-speech> 
[515.605]

[516.115]
<no-speech> 
[516.995]
b ɐ t ʔ u m i ŋ aɪ 
[518.165]
<no-speech> 
[519.284875]
b ɐ t ʔ u m i ŋ aɪ 
[522.305]
<no-speech> 
[523.835]
<no-speech> 
[524.265]
<no-speech> 
[526.695]
ʔ a n a n ʤ a ʔ a n p a l a ʔ s i ʤ ɑ ʃ u w ə n a n ʤ a ʔ a n 
[531.005]
<no-speech> 
[533.755]
ʔ ɐɪ 
[534.485]
<no-speech> 
[535.805]
s ɐ b i h i n m o k u m u s t a 
[537.135]
<no-speech> 
[538.225]
<laugh> s ɐ b i h i n m o k u m u s t a n ɐ 
[542.295]
<no-speech> 
[543.125]
<no-speech> 
[543.645]
<no-speech> 
[544.445]
ʔ a 
[544.935]
<no-speech> 
[547.125]
<no-speech> 
[547.555]
<no-speech> 
[549.055]
ʔ a 
[549.575]
<no-speech> 
[551.665]
ʔ a 
[552.125]
<no-speech> 
[556.105]
p u p u n t a k a b a d i t u ʔ a 
[559.485]
<no-speech> 
[561.235]
ʔ ɐ n u 
[562.015]
<no-speech> 
[562.865]
ʔ o k e l a n 
[563.865]
<no-speech> 
[567.345]
k e l a n k a p u p u n t a 
[568.495]
<no-speech> 
[573.115]
ʔ o ʔ ɐ l a m m o n ɐ m a n k e s j o d u n s ɐ l u g a r n ɐ p i n ɐ k ɐ m ɐ g ɐ n d a n ɐ ʔ ɐ n d u n l a ʔ a ŋ ʔ ɐ k o n ɐ n d u n l a ʔ a ŋ ʔ ɐ k o s ɐ g i t n a ʔ 
[579.405]
<no-speech> 
[580.415]
<no-speech> 
[582.735]
<no-speech> 
[584.025]
ʔ a 
[584.555]
<no-speech> 
[586.135]
ʔ a 
[586.655]
<no-speech> 
[591.455]
h i n d e ʔ ʔ ɐ n u m ɐ ŋ a ʔ m ɐ ŋ a ʔ b i n ɐ b a ʔ e s i l a 
[594.695]
<no-speech> 
[598.165]
ʔ o ʔ ɐ k o l a ʔ a ŋ 
[599.655]
t u n aɪ n ɐ b ɐ b a ʔ e 
[600.24]
