[0.0]
<no-speech> 
[0.555]
<no-speech> 
[4.725]
<no-speech> 
[6.225]
<sta> h ɛ l oʊ 
[9.115]
<no-speech> 
[10.265]
h ɛ l oʊ <no-speech> <sta> h ɛ l oʊ p a r e 
[14.225]
<no-speech> 
[15.845]
ʔ a j o s l a ʔ a ŋ p a r e <int> k u m u s t a n ɐ p a r e ʔ ɐ n u <no-speech> ʔ ɐ n u ŋ n ɐ ŋ j a r i s ɐ b u h aɪ m o <no-speech> <sta> ʔ a <no-speech> ʔ oʊ k eɪ n ɐ m a n 
[24.385]
<no-speech> 
[25.515]
<sta> m e ʔ i l a n n ɐ ʔ ɐ ŋ ʔ ɐ s a w a m o p a r e <laugh> ʔ a 
[30.035]
<no-speech> 
[33.095]
<int> ʔ o <breath> 
[33.835]
<no-speech> 
[34.785]
<no-speech> 
[35.155]
<no-speech> 
[36.465]
ʔ o 
[37.115]
<no-speech> 
[41.975]
<no-speech> 
[42.395]
<no-speech> 
[43.895]
s ɛ k ə n d ɛ r i p a r e 
[45.175]
<no-speech> 
[46.345]
p e r s j i r p a l a ʔ j o ʔ o ŋ p ɐ ŋ a n aɪ k o d ɐ l w a p a l a ʔ a ŋ d ɐ l w a l a ʔ a ŋ ʔ ɐ ŋ ʔ ɐ n a k k o <hes> 
[49.455]
<no-speech> 
[55.625]
m ɐ g g r ɐ g r a ʤ u w eɪ t n ɐ p a r e ʔ ɐ n u ŋ k o r s n ɐ k u k u h a n i n n ɐ ŋ ʔ ɐ n a k m o 
[58.685]
<no-speech> 
[62.195]
ʔ ɐ n u ŋ k o r s <sta> ʔ i b i b i g aɪ m o s ɐ ʔ ɐ n a k m o 
[64.465]
<no-speech> 
[70.905]
<no-speech> 
[71.485]
<no-speech> 
[74.605]
<sta> p a r e m ɐ h i r a p j o ʔ o n s u n d a l o <no-speech> p e d e n ɐ m a n j o ʔ o ŋ m ɐ ŋ a ʔ p ɐ ŋ ʔ ɐ n o ʔ ɐ ŋ d ɐ d a l i n ɐ m a n ʔ a j o ʔ o n b a ʔ ɐ ŋ g u s t u n ɐ ŋ ʔ ɐ n a k m o 
[81.665]
<no-speech> 
[87.435]
p u l e s <hes> p u l e s d e n ʔ ɐ ŋ m ɐ ŋ a ʔ 
[89.185]
<no-speech> 
[90.275]
p u l e s p a r e p u l e s d e n p ɐ ŋ a r a p n ɐ ŋ ʔ ɐ n a k k o <hes> 
[93.775]
<no-speech> 
[95.015]
k a s u ʔ ɐ l ɐ ŋ a n i n p a l a ʔ a ŋ p e r s j i r h aɪ ʔ i s k u l p a l a ʔ a ŋ <hes> <no-speech> <sta> ʔ o 
[99.985]
<no-speech> 
[104.185]
<no-speech> 
[106.135]
<no-speech> 
[108.825]
p e r o ʔ ɐ l ɐ ŋ 
[109.775]
<no-speech> 
[111.455]
h ɛ l oʊ p a r e k u m u s t a n ɐ j o ʔ o ŋ ʔ i n a n a k k o ʤ a ʔ a n <int> 
[113.225]
<no-speech> 
[114.395]
k u m u s t a j o ʔ o ŋ ʔ i n a n a k k o ʤ a ʔ a n <int> 
[115.755]
<no-speech> 
[118.095]
ʔ a 
[118.655]
<no-speech> 
[120.505]
ʔ i l ɐ ŋ t ɐ ʔ u n k o n ɐ r ɪ ŋ d i n a n o j a ʔ a n <hes> <no-speech> <laugh> ʔ i l ɐ ŋ t ɐ ʔ u n k o n ɐ r ɪ ŋ d i n ɐ k i k i t a j a ʔ ɐ ŋ ʔ i n a n a k k o ʔ a 
[126.705]
<no-speech> 
[129.185]
p a r e 
[129.754875]
<no-speech> 
[136.525]
<sta> p a r e d a l ɐʊ d a l aʊ n ɐ m a n k ɐ j u d i t u k a h e t m i n s a n 
[139.265]
<no-speech> 
[146.005]
ʔ a <int> 
[146.625]
<no-speech> 
[149.065]
<no-speech> 
[149.695]
<no-speech> 
[150.525]
ʔ ɐ l a ʔ <sta> 
[151.215]
<no-speech> 
[155.955]
p a r e p a g m e t aɪ m k ɐ j u d a n n ɐ m a n k ɐ j u r i t o d a l aʊ n ɐ m a n k ɐ j u r i t o <sta> 
[159.905]
<no-speech> 
[165.455]
<no-speech> 
[165.885]
<no-speech> 
[168.015]
h ɛ l oʊ <no-speech> <sta> d ɐ l w a ŋ a ʔ l a ʔ a ŋ <hes> <no-speech> d ɐ l w a 
[173.495]
<no-speech> 
[174.335]
ʔ o j o ʔ o ŋ b u n s o ʔ k o g r eɪ d p o r p a l a ʔ a ŋ <hes> 
[176.415]
<no-speech> 
[178.345]
<int> ʔ i k aʊ ʔ i l a n n ɐ b a ʔ ɐ n a k ʔ i l a n 
[180.025]
<no-speech> 
[181.845]
<sta> h ɛ l oʊ <no-speech> ʔ ɐɪ ʤ a ʔ a n k a m ɐ g h i h i r a p p a r e 
[188.725]
<no-speech> 
[191.405]
ʤ a ʔ a n ŋ a ʔ ʤ a ʔ a n ŋ a ʔ ʔ ɐ ŋ m ɐ h i r a p <hes> s ɐ k ɑ l ɪ ʤ p a r e <no-speech> j o ʔ o ŋ p a r ɐ ŋ m ɐ h a l n a t e n j o ʔ o ŋ b u ŋ b æ ʧ n a t e n d i b a p a r e 
[199.235]
<no-speech> 
[203.875]
j o ʔ o ŋ t ɐ j o t ɐ j o ʔ 
[205.065]
<no-speech> 
[210.415]
<laugh> ʔ oʊ k eɪ r e n ʔ ɐ n u 
[212.575]
<no-speech> 
[217.155]
ʔ ɐ k o t ɐ l ɐ g a ʔ n ɐ p a k o ʔ n ɐ k o r i t o 
[219.185]
<no-speech> 
[221.395]
ŋ aɪ ʔ o n m e ʤ u m e s ɐ 
[222.775]
<no-speech> 
[223.595]
m e s ɐ k e t n ɐ j o ʔ o ŋ l o l a k o <hes> j o ʔ o ŋ n a n aɪ k o <oov> <no-speech> ʔ ə m h ə m 
[228.055]
<no-speech> 
[230.285]
n ɐ 
[231.015]
<no-speech> 
[232.055]
ʔ o n ɐ ʔ i w a n a n k ɐ s e n ɐ ŋ l o l o <hes> 
[234.595]
<no-speech> 
[235.925]
n ɐ n ɐ m ɐ t aɪ k ɐ s e j o ʔ o ŋ l o l o k o <hes> 
[237.685]
<no-speech> 
[239.395]
p ɐ t aɪ n ɐ ŋ a ʔ <hes> <int> 
[240.695]
<no-speech> 
[241.575]
<int> p ɐ t aɪ n ɐ p a r e 
[242.855]
<no-speech> 
[245.555]
<oov> n ɐ n ɐ k ɐ r ɐ ŋ b u w a n l a ʔ a ŋ 
[247.965]
<no-speech> 
[249.875]
k a j a ŋ ɐ ŋ n ɐ m a n n ɐ m ɐ t aɪ ʔ ɐ ŋ l o l o k o 
[252.755]
<no-speech> 
[254.265]
ʔ a j u n ŋ a ʔ <hes> ŋ aɪ ʔ o n k a l a ʔ a ŋ n ɐ g p ɐ r ɐ m d a m s ɐ ʔ a k e n p a r e <hes> 
[256.765]
<no-speech> 
[258.494875]
p a r e s a n m o ŋ a ʔ p a l a ʔ n ɐ k u h a j o ʔ o ŋ n ʌ m b ə r k o 
[260.635]
<no-speech> 
[261.744875]
<no-speech> 
[262.205]
<no-speech> 
[268.035]
ʔ a <oov> k ɐ m u s t a n ɐ ŋ a ʔ p a l a ʔ s i ʔ eɪ p r ɪ l 
[271.975]
<no-speech> 
[274.005]
p a r e 
[274.535]
<no-speech> 
[276.955]
h a l u s l ɐ h a t p a l a ʔ t ɐ j u ʔ m e ʔ ɐ s a w ɐ t ʔ ɐ n a k n ɐ <hes> <laugh> <no-speech> <hes> k u m u s t a <no-speech> 
[284.905]
p e r o n ɐ k a k ɐ r a ʔ o s n ɐ m a n k ɐ j u ʤ a ʔ a n <no-speech> p a g m e p r u b l e m a k ɐ j u h u m i ŋ e ʔ l a ʔ a ŋ k ɐ j u n ɐ ŋ t u l o ŋ s ɐ ʔ a m e n 
[289.495]
<no-speech> 
[292.105]
j o ʔ o ŋ m i s i s k o n ɐ n d i t o n ɐ n d i t o n a g n ɐ g t ɐ t r ɐ b a h o r e n <no-speech> <int> t i ʧ ə r 
[297.605]
<no-speech> 
[305.085]
m i n s a n d a l aʊ n ɐ m a n k ɐ j u r i t o 
[306.685]
<no-speech> 
[308.405]
<laugh> g a p ɐ s g a p a s <no-speech> g a p ɐ s g a p a s p a r e 
[312.765]
<no-speech> 
[314.065]
j o ʔ o ŋ m ɐ ŋ a ʔ <hes> g i n a g ɐ w a ʔ <int> 
[315.835]
<no-speech> 
[318.095]
<sta> t i j ɐ g a t i j ɐ g a ʔ l a ʔ a ŋ p a r e <no-speech> m ɐ k a k ɐ r a ʔ o s d e n j a ʔ a n p a r e <click> 
[323.935]
<no-speech> 
[326.345]
<no-speech> 
[326.885]
<no-speech> 
[328.875]
<int> ʔ o ŋ a ʔ <hes> 
[329.905]
<no-speech> 
[331.035]
<sta> <hes> m a <no-speech> m ɐ r a m i ŋ p r u b l e m a d ɐ l w ɐ ŋ p i n ɐ g ʔ a r a l k o j o ʔ o ŋ b u n s o ʔ l a g i ŋ s a k i t i n <no-speech> s a k i t i n s a k i t i n n o ŋ n ɐ k ɐ r a n ŋ a ʔ l a ʔ a ŋ d i n ɐ l a n a m i n s ɐ <sta> h ɑ s p ɪ t ə l <hes> 
[344.775]
<no-speech> 
[346.665]
<int> n ɐ k ɐ r a n d e n 
[347.805]
<no-speech> 
[349.785]
<sta> ʔ ɐ n u m a s m ɐ b i l e s n ɐ ʔ ɐ n u m ɐ b i l e s t ɐ b l a n n ɐ ŋ l ɐ g n a t 
[354.845]
<no-speech> 
[358.025]
ʔ ɐ n u k ɐ p ɐ g k ɐ p ɐ g ʔ ɐ n u m e m e s ɐ k e t s ɐ h i k a ʔ r e n <no-speech> h i k a ʔ 
[361.875]
<no-speech> 
[363.735]
<sta> ʔ ə m h ə m 
[364.975]
<no-speech> 
[369.015]
<int> d i t u s ɐ ʔ i s ɐ b e l a l a ʔ a ŋ k ɐ m e 
[371.125]
<no-speech> 
[371.945]
<no-speech> 
[372.305]
<no-speech> 
[373.935]
<no-speech> 
[375.325]
<no-speech> 
[376.485]
h ə m 
[377.125]
<no-speech> 
[378.005]
ʔ o m a m ɐ j a ʔ 
[378.775]
<no-speech> 
[381.975]
s a n a <no-speech> ʔ ɐ n u p a r e k e l a n b a j o ʔ o ŋ <no-speech> k e l a n t ɐ j u ʔ ʔ u l e t m ɐ g r i r i j u n j o n 
[386.775]
<no-speech> 
[387.895]
<no-speech> 
[389.435]
<no-speech> 
[395.88]
<no-speech> 
[402.325]
<no-speech> 
[403.605]
<no-speech> 
[408.365]
p e r o p a r e p a g p u m u n t a k ɐ j u r i t o b a b a w e ʔ n ɐ ʔ ɐ k o s ɐ ʔ i n a n a k k o s ɐ j u <int> 
[412.335]
<no-speech> 
[413.625]
<no-speech> 
[414.025]
<no-speech> 
[422.965]
ʔ ɐ n u j o ʔ o n 
[423.525]
<no-speech> 
[429.085]
<breath> s i m a r l ə n 
[431.245]
<no-speech> 
[432.105]
m a r l ə n p a r e 
[433.175]
<no-speech> 
[437.355]
ʔ a p i n ɐ t aɪ <no-speech> p i n ɐ t aɪ j o ʔ o n p a r e 
[439.885]
<no-speech> 
[443.075]
b a k e t ʔ ɐ n u ŋ k a s u 
[444.265]
<no-speech> 
[454.525]
m ɐ ʔ ɐ n u d e n 
[455.975]
<no-speech> 
[458.755]
m ɐ k u l e t d e n k ɐ s e j o ʔ o n p a g n ɐ k ɐ ʔ i n o m p a r e 
[460.815]
<no-speech> 
[461.645]
<sta> k a s u l a ʔ a ŋ ʔ i n a ʔ ɐ n u k o b ɐ t <oov> 
[463.555]
<no-speech> 
[465.115]
<no-speech> 
[465.535]
<no-speech> 
[468.215]
<no-speech> 
[469.005]
<no-speech> 
[470.205]
<no-speech> 
[471.235]
<no-speech> 
[472.375]
<no-speech> 
[472.735]
<no-speech> 
[475.485]
<no-speech> 
[476.405]
<no-speech> 
[477.245]
<sta> <hes> m ɐ h i r a p <hes> 
[480.375]
<no-speech> 
[482.045]
p e r o p a r e ʔ i t u ŋ ʔ i t u ŋ j i r ʔ i t u ŋ j i r n ɐ t o ʔ i t u ŋ j i r n ɐ t o ʔ ɐ n u j o ʔ o n <oov> d i b a g r æ ʤ ə w eɪ t n ɐ ŋ a ʔ ʔ ɐ n a k m o 
[489.285]
<no-speech> 
[490.815]
j o ʔ o ŋ ʔ ɐ n a k m o n ɐ ʔ ɐ ŋ p ɐ g ʔ ɐ n u h i n m o n ɐ ŋ g u s t u <sta> n i j ɐ ŋ ʔ ɐ n u k u r s o 
[494.605]
<no-speech> 
[495.805]
<int> p a r e 
[497.385]
<no-speech> 
[499.015]
j o ʔ o n t ɐ l ɐ g a ʔ g u s t u 
[500.145]
<no-speech> 
[502.005]
s a n m o s a n m o n ɐ m a n d a d ɐ l i n 
[504.975]
<no-speech> 
[506.785]
ʔ ə m h ə m 
[507.355]
<no-speech> 
[509.715]
g u s t u m ɐ g p u l i s h ɛ l oʊ 
[511.695]
<no-speech> 
[512.605]
<no-speech> 
[513.084875]
<no-speech> 
[519.355]
<no-speech> 
[520.925]
<no-speech> 
[521.745]
p e r o j o ʔ o ŋ j o ʔ o ŋ ʔ ɐ n a k k o p a r e j o ʔ o ŋ p ɐ ŋ a n aɪ 
[525.425]
<no-speech> 
[526.405]
m e n ɐ k u h ɐ ŋ ʔ ɑ n ə r j o ʔ o n <hes> 
[527.755]
<no-speech> 
[528.885]
ʔ ɑ n ə r 
[529.695]
<no-speech> 
[532.345]
j o ʔ o ŋ k a d a k a d a ʔ ɑ n ə r n i j a p a r e m e k ɐ p ɐ l e t d e n k ɐ s e <no-speech> <int> p a r e 
[538.735]
<no-speech> 
[539.615]
b i n i b i g j a n <no-speech> 
[541.445]
b i n i g j a n k o s i j a n ɐ ŋ s ɐ r i l i <int> n i j ɐ ŋ ʔ ɐ n u g ɐ m i t 
[546.165]
<no-speech> 
[547.585]
p e r o h i n d e ʔ k o b i n i b i l i h a n n ɐ ŋ s ɛ l f oʊ n <no-speech> p i ʔ e s p i b i n i b i l i h a n k o <sta> p a g p a g m e ʔ ɑ n ə r s i j a p a r a p ɐ g b u t i h a n n i j a r e n ʔ ɐ ŋ p ɐ g ʔ a r a l n i j a 
[558.405]
<sta> p e r o ʔ oʊ k eɪ n ɐ m a n p a r e m ɐ b ɐ ʔ e t <no-speech> n ɐ g s i s i m b a n ɐ ŋ a ʔ n a g 
[565.655]
<no-speech> 
[566.835]
<sta> n ɐ k ɐ ʔ ɐ n o ŋ a ʔ j o ʔ o n p a r e s ɐ ʔ ɐ n u 
[570.525]
<no-speech> 
[572.035]
<int> n ɐ k ɐ ʔ ɐ n o s ɐ s i m b a h a n j o ʔ o n <hes> 
[574.465]
<no-speech> 
[578.165]
<int> s e m i n a r j o ŋ a ʔ j o ʔ o ŋ g u s t u p a r e 
[580.725]
<no-speech> 
[585.625]
ʔ i n a ʔ ɐ n u k o l a ʔ a ŋ b a t a ʔ p a k ɐ s e h i n d e ʔ p a d e n <sta> p a r e ʔ i n a ʔ ɐ n u k o l a ʔ a ŋ k ɐ s e ʔ ɐ n a k k o <hes> b a t a ʔ p a k ɐ s e h i n d e ʔ p a m ɐ k ɐ p ɐ g ʔ i s i p <hes> 
[593.185]
<no-speech> 
[594.165]
<no-speech> 
[594.555]
<no-speech> 
[596.255]
<no-speech> 
[596.685]
<no-speech> 
[597.545]

[598.115]
<no-speech> 
[599.575]
ʔ ɐ n u j o ʔ o ŋ 
[600.12]
