[0.0]
<no-speech> 
[0.085]
<no-speech> 
[2.315]
<no-speech> 
[5.145]
h ɛ l oʊ 
[5.705]
<no-speech> 
[7.425]
<sta> ʔ a t e d e s a 
[10.255]
<no-speech> 
[11.475]
<sta> h ɛ l oʊ p o ʔ h ɛ l oʊ p o ʔ ʔ a m u k ɐ ŋ n ɐ k ɐ t u l o g k ɐ j u 
[16.055]
<no-speech> 
[17.695]
ʔ o h o ʔ <sta> m u k ɐ ŋ n ɐ k a k ɐ t u l o g p o ʔ k ɐ j u ʔ ɐ ŋ s ɐ r a p k ɐ s i ŋ m ɐ t u l o g n ɐ ŋ ʔ o r a s n ɐ t o 
[23.105]
<no-speech> 
[28.575]
<sta> ʔ a ʔ o p o ʔ 
[29.285]
<no-speech> 
[30.815]
<no-speech> 
[31.285]
<no-speech> 
[33.395]
k u m u s t a n ɐ p o ʔ j o ʔ o ŋ ʔ a t i ŋ ʔ ɐ n u 
[35.185]
<no-speech> 
[36.515]
<int> j o ʔ o ŋ ʔ a t i ŋ g l oʊ b ə l <int> 
[37.855]
<no-speech> 
[39.645]
ʔ o p o ʔ 
[40.215]
<no-speech> 
[44.905]
<int> <hes> ʔ ɐ n u p o ʔ 
[45.695]
<no-speech> 
[48.465]
<no-speech> 
[48.815]
<no-speech> 
[51.675]
s i n u 
[52.235]
<no-speech> 
[54.255]
ʔ a s i ʔ ɐ n u 
[55.655]
<no-speech> 
[57.305]
ʔ ə m h ə m ʔ ə m h ə m 
[58.135]
<no-speech> 
[61.145]
ʔ æ k ʧ u w ə l i ʔ ɐ n u 
[62.435]
<no-speech> 
[66.215]
ʔ a ʔ æ k ʧ u w ə l i ʔ ɐ n u <int> 
[67.705]
<no-speech> 
[69.205]
<int> <hes> <no-speech> t a m a ʔ ʔ i s u s u n o d n i n j u n ɐ l a ʔ a ŋ j o ʔ o ŋ 
[74.145]
<no-speech> 
[77.575]
ʔ i s u s u n o d n j o n ɐ l a ʔ a ŋ j o ʔ o n ʔ ɐ n u ŋ p o ŋ g i n a g ɐ w a ʔ n i n j u 
[79.735]
<no-speech> 
[81.395]
ʔ ɐ n u g i n a g ɐ w a ʔ n i n j u 
[82.685]
<no-speech> 
[84.375]
ʔ a 
[84.815]
<no-speech> 
[87.795]
ʔ a n a n ʤ a ʔ a n k ɐ j u s ɐ ʔ i n j o <int> 
[89.345]
<no-speech> 
[90.645]
ʔ a ʔ oʊ k eɪ <int> 
[91.585]
<no-speech> 
[92.465]
m u k ɐ ŋ <int> s ɐ r a p m ɐ g ʔ i s n a k <hes> ʔ ɐ n a k 
[95.455]
<no-speech> 
[103.305]
<laugh> n ɐ ʔ i l a ŋ n ɐ ʔ ɐ k o <int> b a l a k k o s a n ɐ ŋ p u m u n t a ʤ a ʔ a n <hes> 
[107.525]
<no-speech> 
[108.365]
h o ʔ 
[108.955]
<no-speech> 
[110.705]
ʔ ɐ n u p o ʔ ʔ ɐ n u <breath> 
[111.635]
<no-speech> 
[112.645]
ʔ a ʔ oʊ k eɪ n ɐ m a n h o ʔ n ɐ n d i t o ʔ ɐ k o s ɐ b a h aɪ n i j a n h o ʔ 
[116.295]
<no-speech> 
[117.885]
ʔ ɐ n d i t o ʔ ɐ n d i t o s ɐ b a h aɪ <sta> s ɐ k ɐ p i l j a 
[121.105]
<no-speech> 
[123.445]
k a p <int> 
[123.835]
<no-speech> 
[126.265]
ʔ o k ɐ g ɐ b e k ɐ g ɐ b e 
[127.865]
<no-speech> 
[133.765]
ʔ o k i t ɐ k i t a t ɐ j u ʔ d o n ʔ a <sta> b u k a s p a g m e t aɪ m k ɐ j u 
[138.295]
<no-speech> 
[140.395]
k i t ɐ k i t a t ɐ j u ʔ b u k a s <int> p u n t a p o ʔ k ɐ j u d o n s ɐ b u k i d 
[144.185]
<no-speech> 
[148.385]
ʔ o <int> 
[148.855]
<no-speech> 
[149.655]
ʔ o h o ʔ <int> <hes> n ɐ ʔ i s e p k o k ɐ s e n ɐ p ɐ s j ɐ l i n n a t e n j o ʔ o ŋ k ɑ n t æ k t n i b u d oɪ 
[156.505]
<no-speech> 
[157.465]
ʔ ɐ n u b æ ŋ b ɐ l i t a ʔ 
[158.515]
<no-speech> 
[163.985]
<hes> ʔ i n i ʔ i s e p k o b u k a s n ɐ ŋ ʔ u m a g a 
[166.655]
<no-speech> 
[168.575]
ʔ ɐ n u k a j a h o ʔ s ɐ p ɐ l ɐ g aɪ n i n j u 
[170.195]
<no-speech> 
[172.605]
b u k a s n ɐ ŋ ʔ u m a g a 
[173.825]
<no-speech> 
[175.385]
ʔ a <sta> t a m a ʔ n a n ʤ a ʔ a n s i j a b u k a s ʔ o m ɐ ŋ a ʔ ʔ eɪ t p u p u p u n t a ʔ ɐ k o ʤ a ʔ a n m ɐ ŋ a ʔ ʔ eɪ t ʔ ə k l ɑ k b u k a s n ɐ ŋ ʔ u m a g a 
[182.545]
<no-speech> 
[183.575]
ʔ ɐ n u h o ʔ <no-speech> <int> s o s ɐ n d ɐ l e ʔ ʔ a m ɐ h a b a ʔ p a ʔ ɐ ŋ k u w e n t u h a n n a t e n n ɐ ŋ u ŋ u m u s t a l a ʔ a ŋ h o ʔ ʔ ɐ k o 
[189.675]
<no-speech> 
[191.035]
<hes> m ɐ h ɐ b a h ɐ b a ʔ p a h o ʔ ʔ i t u <hes> ʔ ɐ n u h u ŋ b ɐ l i t a ʔ 
[195.515]
<no-speech> 
[198.065]
ʔ ɐ n u t u ŋ <int> <laugh> 
[200.785]
<no-speech> 
[202.425]
n ɐ ŋ j a r i n ɐ <laugh> n ɐ ʔ a s a n n ɐ ʔ a t e r oʊ z i 
[205.685]
<no-speech> 
[207.745]
ʔ a 
[208.335]
<no-speech> 
[209.935]
<laugh> ʔ oʊ k eɪ l a ʔ a ŋ ʔ ɐ l a ʔ r e n <breath> ʔ ɐ l a ʔ r e n ʔ ɐ k o m ɐ h i n a ʔ ʔ ɐ ŋ ʔ a k i ŋ r ɪ s i v ə r <hes> 
[214.345]
<no-speech> 
[216.595]
ʔ ɐ n u ŋ 
[217.415]
<no-speech> 
[220.065]
ʔ a 
[220.715]
<no-speech> 
[222.235]
ʔ o 
[222.955]
<no-speech> 
[225.935]
<no-speech> 
[226.825]
<no-speech> 
[229.015]
<breath> ʔ o ŋ a ʔ <breath> <laugh> <int> ʔ ɐ n u k u m u s t a n ɐ b a k ɐ j u 
[234.835]
<no-speech> 
[236.295]
k u m u s t a n ɐ k ɐ j u s ɐ k ɐ n j a <int> 
[238.245]
<no-speech> 
[246.495]
ʔ ɐ l a m m o ʔ a j aʊ r e n s i l a s ɐ 
[247.915]
<no-speech> 
[256.665]
ʔ ə m h ə m ʔ ə m h ə m 
[257.465]
<no-speech> 
[262.715]
ʔ ɐɪ s i j e m p r e n ɐ m a n <int> 
[264.105]
<no-speech> 
[273.725]
<laugh> j a <breath> j a r i ʔ n ɐ l a l u n ɐ ŋ n ɐ j a r i ʔ 
[278.435]
<no-speech> 
[279.295]
h eɪ n ɐ k o 
[280.435]
<no-speech> 
[282.905]
ʔ ə m h ə m <int> 
[283.595]
<no-speech> 
[288.365]
ʔ o ŋ a ʔ <sta> p e r o 
[290.925]
<no-speech> 
[291.835]
ʔ i n a ʔ ɐ n u b a k ɐ j u t a w a g n i t u <hes> n i l a l ɐ m b i ŋ n ɐ m a n k ɐ j u <int> 
[298.175]
<no-speech> 
[305.875]
<no-speech> 
[306.945]
<no-speech> 
[309.475]
ʔ a ʔ o h o ʔ <int> 
[312.195]
<no-speech> 
[313.245]
p ɐ m a t o ʔ 
[313.995]
<no-speech> 
[319.175]
ʔ o p o ʔ 
[319.865]
<no-speech> 
[325.355]
<no-speech> 
[326.165]
<no-speech> 
[327.025]
<no-speech> 
[327.645]
<no-speech> 
[331.205]
s i g u r o d ɐ l a n ɐ ŋ ʔ ɐ n u d ɐ l a n ɐ ŋ d ɐ l a n ɐ ŋ p ɐ g t ɐ n d a ʔ 
[335.745]
<no-speech> 
[338.775]
ʔ ɐ n u <laugh> 
[340.785]
<no-speech> 
[342.505]
<no-speech> 
[344.065]
<no-speech> 
[348.185]
<laugh> <breath> p ɐ m b i h i r a ʔ n ɐ m a n j a ʔ ɐ ŋ t ɜ r m ɪ n ɑ l ə ʤ i 
[352.585]
<no-speech> 
[354.345]
p a r ɐ ŋ k a n t o l a ʔ a ŋ j a ʔ a n h o ʔ 
[355.925]
<no-speech> 
[357.675]
<no-speech> 
[359.255]
<no-speech> 
[362.565]
<no-speech> 
[363.345]
<no-speech> 
[367.855]
<no-speech> 
[368.405]
<no-speech> 
[370.835]
ʔ o n ɐ m a n 
[371.875]
<no-speech> 
[376.915]
<sta> n ɐ k o d i n ɐ 
[381.075]
<no-speech> 
[383.895]
<sta> d i l ɐ j o ʔ l a l ɐ b a s a n n ɐ ŋ p a ŋ i l s ɐ ʔ a m e n 
[388.145]
<no-speech> 
[392.805]
<no-speech> 
[393.805]
<no-speech> 
[397.435]
ʔ ɐ b a 
[398.275]
<no-speech> 
[402.145]
ʔ a j o ʔ o n 
[402.955]
<no-speech> 
[404.755]
<laugh> <breath> m a <oov> m ɐ t i n d e ʔ ɐ ŋ b e r t u d ʔ ɐ n u h o ʔ m ɐ t i n d e ʔ ɐ ŋ b e r t u d 
[412.765]
<no-speech> 
[415.065]
s ɐ <no-speech> 
[417.865]
<no-speech> 
[419.105]
<no-speech> 
[421.255]
<breath> n ɐ w ɐ l a ʔ m ɐ ŋ a ʔ ʔ ɐ n u 
[424.345]
<no-speech> 
[425.565]
<sta> m ɐ ŋ a ʔ 
[426.895]
<no-speech> 
[428.145]
<int> <laugh> <breath> m e z ɪ p ə r 
[431.835]
<no-speech> 
[433.595]
<laugh> <breath> <sta> p ɐ m b i h i r a ʔ t u m a t ɐ g o s s ɐ b u t o 
[440.845]
<no-speech> 
[442.975]
h o ʔ 
[443.575]
<no-speech> 
[445.195]
g r a b e s u m a s ɐ g a d h ɐ ŋ g ɐ ŋ b u t o 
[448.775]
<no-speech> 
[451.125]
s u m a 
[451.685]
<no-speech> 
[460.615]
ʔ o 
[461.275]
<no-speech> 
[468.375]
<laugh> <int> ʔ o ŋ a ʔ 
[470.335]
<no-speech> 
[479.675]
s ɐ b a g aɪ <no-speech> b ɐ s t a <int> n ɐ k i k i s a m a ʔ oʊ k eɪ n ɐ j o ʔ o n 
[484.465]
<no-speech> 
[486.925]
ʔ ɐ n u 
[487.635]
<no-speech> 
[492.005]
<no-speech> 
[494.325]
<no-speech> 
[495.265]
t ɐ l ɐ g a ʔ n ɐ m a n <hes> s i n a t i r aʊ k ɐ s e 
[499.205]
<no-speech> 
[503.495]
ʔ a <click> <int> 
[505.045]
<no-speech> 
[508.275]
k u m u s t a 
[509.575]
<no-speech> 
[512.634875]
k u m u s t a j o ʔ o ŋ m ɐ g ʔ ɐ s a w a 
[513.934875]
<no-speech> 
[517.985]
ʔ a h i n d e ʔ h i n d e ʔ ʔ a t i ʔ a t i s i g e n ɐ s i g e n ɐ 
[520.365]
<no-speech> 
[523.774875]
ʔ o h o ʔ 
[524.505]
<no-speech> 
[526.045]
ʔ oʊ k eɪ n ɐ m a n p o ʔ 
[527.275]
<no-speech> 
[529.035]
<laugh> b i n i b i r o ʔ k o s i ʔ a t e r oʊ z i <hes> ʔ æ t s i 
[532.345]
<no-speech> 
[535.025]
k ɐ g ɐ b e p o ʔ k ɐ g ɐ b e 
[536.285]
<no-speech> 
[539.455]
ʔ o h o ʔ 
[540.135]
<no-speech> 
[544.945]
ʔ a <int> 
[545.815]
<no-speech> 
[547.255]
ʔ i k aʊ p a ʔ ɐɪ n ɐ k o d a p a t t u t u l o g m u n a k ɐ j u 
[550.265]
<no-speech> 
[551.655]
d a p a t m ɐ t u l o g m u n a k ɐ j u n a ʔ e s n ɐ ʔ i s t o r b o k o k ɐ j u 
[555.375]
<no-speech> 
[563.585]
<no-speech> 
[563.935]
<no-speech> 
[565.635]
ʔ ə m h ə m ʔ ə m h ə m <ring> 
[566.465]
<no-speech> 
[570.965]
ʔ o 
[571.795]
<no-speech> 
[577.765]
<sta> <laugh> p ɐ k u n d i s j o n 
[580.205]
<no-speech> 
[581.485]
p o ʔ 
[581.995]
<no-speech> 
[590.375]
h ɛ l oʊ ʔ ɐ ŋ 
[591.435]
<no-speech> 
[592.735]
h i n d e ʔ n ɐ m a n h o ʔ ʔ ɐ ŋ k ɐ ʔ i l a ŋ a n l a ʔ a ŋ ʔ ɐɪ ʔ ɐ n u ʔ ɐ l a m n ɐ s ɐ ʔ ɑ f ɪ s j o ʔ o n n ɐ 
[598.345]
<no-speech> 
[598.78]
