[0.0]
<no-speech> 
[8.475]
h ɛ l oʊ 
[10.705]
<no-speech> 
[14.565]
h ɛ l oʊ 
[15.205]
<no-speech> 
[16.595]
ʔ o b a k e t 
[17.335]
<no-speech> 
[20.465]
ʔ o 
[21.095]
<no-speech> 
[23.505]
ʔ a 
[24.015]
<no-speech> 
[26.485]
ʔ ɐ n u n o 
[27.265]
<no-speech> 
[29.715]
s ɐ b a h aɪ 
[30.635]
<no-speech> 
[32.315]
n a s a b a h aɪ 
[33.365]
<no-speech> 
[36.515]
h i n d e ʔ 
[37.155]
<no-speech> 
[37.975]
h i n d e ʔ 
[38.655]
<no-speech> 
[40.485]
h i n d e ʔ n a s a n b a k ɐ j u 
[42.035]
<no-speech> 
[43.765]
n a s a n b a k ɐ j u 
[44.705]
<no-speech> 
[47.295]
n a s a n k ɐ j u 
[48.245]
<no-speech> 
[51.745]
ʔ a 
[52.405]
<no-speech> 
[53.685]
ʔ ɐ l a ʔ ʔ ɐ k o s ɐ b a h aɪ 
[55.075]
<no-speech> 
[57.535]
ʔ ɐ l a ʔ ʔ ɐ k o s ɐ b a h aɪ 
[58.825]
<no-speech> 
[59.795]
ʔ ɐ l a ʔ ʔ ɐ k o s ɐ b a h aɪ 
[61.255]
<no-speech> 
[65.685]
ʔ ɐ l a ʔ ʔ ɐ l a ʔ ʔ ɐ k o s ɐ b a h aɪ 
[67.915]
<no-speech> 
[70.185]
ʔ ɐ l a ʔ ʔ ɐ k o s ɐ b a h aɪ 
[71.615]
<no-speech> 
[74.595]
ʔ ɐ l a m m o n ɐ <no-speech> ʔ ɐ l a m m o n ɐ 
[77.305]
<no-speech> 
[78.715]
ʔ ɐ l a m m o n ɐ j o ʔ o n p a g l i ŋ g u ʔ ɐ l a m m o n ɐ j o ʔ o n p a g l i ŋ g u h ɛ l oʊ 
[83.165]
<no-speech> 
[86.575]
ʔ ɐ l a ʔ ŋ a ʔ ʔ ɐ k o 
[87.715]
<no-speech> 
[89.905]
ʔ ɐ l a m m o n ɐ ŋ a ʔ 
[90.895]
<no-speech> 
[94.315]
ʔ a 
[94.855]
<no-speech> 
[101.285]
ʔ i n t oɪ 
[101.865]
<no-speech> 
[104.125]
ʔ a 
[104.665]
<no-speech> 
[105.635]
ʔ o 
[106.175]
<no-speech> 
[107.165]
d i n ɐ 
[107.845]
<no-speech> 
[110.545]

[111.065]
<no-speech> 
[112.805]
ʔ o 
[113.625]
<no-speech> 
[116.915]
ʔ ɐ l a ʔ ŋ a ʔ ʔ ɐ k o s ɐ b a h aɪ 
[118.545]
<no-speech> 
[126.745]
ʔ o 
[127.585]
<no-speech> 
[128.945]
ʔ o 
[129.705]
<no-speech> 
[135.205]
ʔ o ŋ a ʔ 
[136.035]
<no-speech> 
[139.475]
ʔ o 
[140.015]
<no-speech> 
[150.755]
ʔ ɐ n u 
[151.345]
<no-speech> 
[154.535]
h ɛ l oʊ 
[155.095]
<no-speech> 
[156.965]
ʔ o 
[157.685]
<no-speech> 
[163.985]
t i n ə 
[166.385]
<no-speech> 
[169.125]
ʔ oʊ k eɪ n ɐ 
[170.025]
<no-speech> 
[176.135]
b a k e t 
[176.755]
<no-speech> 
[181.055]
ʔ a 
[181.595]
<no-speech> 
[184.535]
ʔ o 
[185.105]
<no-speech> 
[194.815]
ʔ o s i g e 
[195.775]
<no-speech> 
[198.615]
b u k a s p a <int> b u k a s 
[201.265]
<no-speech> 
[202.305]
<no-speech> 
[202.665]
<no-speech> 
[204.245]
b u k a s 
[205.025]
<no-speech> 
[206.895]
ʔ o <no-speech> <sta> b u k a s p a ʔ ɐ k o ʔ u w i ʔ 
[212.245]
<no-speech> 
[214.885]
<no-speech> 
[215.435]
<no-speech> 
[216.435]
ʔ ə m h ə m ʔ ə m h ə m 
[217.805]
<no-speech> 
[222.525]
<no-speech> 
[222.905]
<no-speech> 
[226.035]
ʔ o 
[226.885]
<no-speech> 
[227.895]
ʔ o 
[228.655]
<no-speech> 
[230.535]
ʔ i s ɐ ŋ d a n p a ʔ a w ʌ n h ʌ n d r ə d k o 
[232.785]
<no-speech> 
[237.795]
h ɛ l oʊ 
[238.425]
<no-speech> 
[240.075]
h æ ŋ ʔ eɪ t ʔ o 
[242.045]
<no-speech> 
[246.745]
ʔ ə m h ə m 
[247.515]
<no-speech> 
[249.865]

[251.525]
<no-speech> 
[252.735]
k o t s e 
[253.485]
<no-speech> 
[259.015]
ʔ ɐ n u 
[259.674875]
<no-speech> 
[261.244875]
ʔ o 
[262.415]
<no-speech> 
[264.805]
ʔ ə m h ə m 
[265.485]
<no-speech> 
[272.415]
ʔ a 
[273.165]
<no-speech> 
[274.225]
h ɛ l oʊ 
[274.905]
<no-speech> 
[281.645]
s ɐ b a h aɪ 
[282.645]
<no-speech> 
[284.755]
ʔ o 
[285.605]
<no-speech> 
[286.895]
ʔ ɐ l a ʔ ŋ a ʔ 
[287.555]
<no-speech> 
[291.335]
ʔ ɐ l a ʔ 
[292.035]
<no-speech> 
[292.865]
ʔ ɐ l a ʔ 
[293.465]
<no-speech> 
[294.515]
ʔ ɐ l a ʔ ʔ ɐ k o s ɐ b a h aɪ 
[296.665]
<no-speech> 
[300.285]
<no-speech> 
[300.665]
<no-speech> 
[302.495]
ʔ a s a n n ɐ b a k ɐ j u 
[303.475]
<no-speech> 
[304.405]
p ɐ s j a l n ɐ t ɐ j u ʔ 
[305.435]
<no-speech> 
[306.805]
ʔ ə m h ə m 
[307.305]
<no-speech> 
[314.185]
ʔ ə m h ə m 
[314.905]
<no-speech> 
[316.975]
l ɐ g u n a 
[318.045]
<no-speech> 
[322.705]
l ɐ g u n a 
[323.655]
<no-speech> 
[328.235]
t ɐ ʔ a l 
[328.945]
<no-speech> 
[331.365]
h ɛ l oʊ <no-speech> ʔ o 
[332.965]
<no-speech> 
[338.605]
ʔ a 
[339.195]
<no-speech> 
[342.675]
p a ŋ e t 
[343.295]
<no-speech> 
[344.975]
ʔ o 
[345.785]
<no-speech> 
[355.805]
b a h aɪ 
[356.705]
<no-speech> 
[359.185]
s ɐ b a h aɪ 
[360.035]
<no-speech> 
[364.895]
ʔ o 
[365.765]
<no-speech> 
[368.095]
m ɐ s ɐ k e t p a r e n d aʊ 
[369.595]
<no-speech> 
[379.045]
s i n u 
[379.735]
<no-speech> 
[383.275]
ʔ o 
[383.835]
<no-speech> 
[387.395]
<no-speech> 
[387.815]
<no-speech> 
[388.775]
d i k o ʔ ɐ l a m 
[389.665]
<no-speech> 
[400.685]
ʔ ə m h ə m 
[401.155]
<no-speech> 
[404.125]
ʔ a ʔ a 
[405.555]
<no-speech> 
[411.175]
ʔ ɐ n d i t o n ɐ s i j a p ɐ g d ɐ t i ŋ 
[413.795]
<no-speech> 
[419.845]
s i j a 
[420.375]
<no-speech> 
[424.805]
h i n d e ʔ 
[425.375]
<no-speech> 
[431.785]
ʔ o 
[432.345]
<no-speech> 
[435.245]
b a k e t 
[435.855]
<no-speech> 
[441.715]
ʔ ə m h ə m 
[442.175]
<no-speech> 
[446.135]
ʔ o s i g e s a s ɐ b i h i n k o 
[448.115]
<no-speech> 
[451.545]
ʔ ɐ n u ŋ s ɐ b i h i n k o 
[452.505]
<no-speech> 
[461.235]
ʔ a 
[461.795]
<no-speech> 
[464.085]
b a k e t 
[464.725]
<no-speech> 
[466.875]
ʔ o 
[467.485]
<no-speech> 
[472.985]
ʔ ɐ n u <int> ʔ ɐ n u 
[474.635]
<no-speech> 
[486.205]
s i g e 
[486.955]
<no-speech> 
[489.845]
ʔ o 
[490.515]
<no-speech> 
[496.885]
t a ʔ e m e p u m a s u k n a s a b a h aɪ 
[499.705]
<no-speech> 
[502.325]
ʔ o 
[502.915]
<no-speech> 
[506.365]
ʔ ə m h ə m 
[506.995]
<no-speech> 
[511.055]
ʔ u m ɐ l e s 
[511.785]
<no-speech> 
[514.675]
ʔ u m ɐ l e s 
[516.255]
<no-speech> 
[518.355]
ʔ u m ɐ l e s 
[519.485]
<no-speech> 
[520.925]
ʔ u m ɐ l e s 
[521.675]
<no-speech> 
[526.075]
d i k o ʔ ɐ l a m 
[526.825]
<no-speech> 
[528.715]
<no-speech> 
[529.065]
<no-speech> 
[533.895]
ʔ a 
[534.545]
<no-speech> 
[536.755]
d i k o ʔ ɐ l a m 
[537.615]
<no-speech> 
[538.775]
ʔ ɐ n u ŋ ʔ o r a s k ɐ j u m ɐ k a k ɐ ʔ u w i ʔ 
[540.975]
<no-speech> 
[542.015]
<no-speech> 
[542.375]
<no-speech> 
[543.525]
<int> ʔ ɐ n u ŋ ʔ o r a s k ɐ j u m ɐ k a k ɐ ʔ u w i ʔ 
[546.215]
<no-speech> 
[549.305]
<no-speech> 
[549.675]
<no-speech> 
[551.565]
ʔ ɐ n u ŋ ʔ o r a s k ɐ j u m ɐ k a k ɐ ʔ u w i ʔ 
[552.995]
<no-speech> 
[560.585]
d i p e d e 
[561.465]
<no-speech> 
[564.255]
ʔ o 
[564.865]
<no-speech> 
[574.065]
ʔ o 
[574.685]
<no-speech> 
[577.505]
ʔ o 
[578.305]
<no-speech> 
[586.905]
ʔ ə m h ə m <int> p ɐ s ɐ l u b o ŋ 
[589.255]
<no-speech> 
[592.855]
p ɐ s ɐ l u b o ŋ 
[593.825]
<no-speech> 
[599.095]
p ɐ s ɐ l u b o ŋ 
[599.925]
<no-speech> 
[600.44]
