[0.0]
<no-speech> 
[0.305]
t a w a g 
[3.095]
<no-speech> 
[4.315]
h ɛ l oʊ 
[5.205]
<no-speech> 
[6.165]
s i n u t o 
[7.125]
<no-speech> 
[8.425]
ʔ ɐɪ s i n u t o ʔ a t e n ə n ɛ t 
[10.195]
<no-speech> 
[11.705]
h ɛ l oʊ 
[12.455]
<no-speech> 
[13.605]
ʔ ɐɪ k a l a ʔ k o s i ʔ a t e n ə n ɛ t b a k e t 
[16.165]
<no-speech> 
[22.685]
ʔ o 
[23.675]
<no-speech> 
[24.925]
<no-speech> 
[25.355]
<no-speech> 
[27.655]
s ɐ k ɐ n i l a 
[28.725]
<no-speech> 
[32.145]
s ɐ k ɐ n i l a ʔ ɐ ŋ ʔ i ŋ aɪ ʤ a ʔ a n s ɐ ʔ i n j o <sta> k a l a ʔ k o s i ʔ a t e n ə n ɛ t n ɐ 
[38.135]
<no-speech> 
[39.535]
<no-speech> 
[39.885]
<no-speech> 
[41.335]
<no-speech> 
[41.685]
<no-speech> 
[42.545]
b a k e t 
[43.295]
<no-speech> 
[46.705]
s i ʔ æ l v ɪ n 
[47.805]
<no-speech> 
[49.695]
<no-speech> 
[50.105]
<no-speech> 
[51.625]
m ɐ p u t e ʔ <int> s o b r ɐ ŋ p u t e ʔ p a r ɐ ŋ s i ʔ eɪ n ʤ ə l ʔ o 
[59.235]
<no-speech> 
[60.115]
<sta> m ɐ g ɐ n d a m e p ɪ ʧ ə r ʔ ɐ k o p a g ʔ ɐ n d u n s i ʔ æ l v ɪ n ŋ aɪ ʔ o n k i n a m aɪ k 
[65.755]
<no-speech> 
[66.925]
ʔ ɐ l a ʔ 
[67.805]
<no-speech> 
[72.905]
<hes> ʔ e w a n k o k u ŋ d a d ɐ l i n d i t u s ɐ l u n e s <int> 
[75.375]
<no-speech> 
[80.805]
p e d e n ɐ b a ʔ i g a l a ʔ j o ʔ o n 
[82.555]
<no-speech> 
[84.015]
p e d e n ɐ ŋ ʔ i g a l a ʔ p ɐ ŋ h i n d e ʔ p a p e d e ʔ i g a l a ʔ j o ʔ o n ʤ a ʔ a n 
[87.955]
<no-speech> 
[93.405]
ʔ i t ɛ k s t k o n ɐ l a ʔ a ŋ k ɐ j u p a g n ɐ n d i t o 
[95.605]
<no-speech> 
[100.145]
<oov> t u m a w a g t u m a w a g n ɐ s i n a n aɪ t u m a w a g n ɐ s i n a n aɪ p e t u m a w a g s i n a n aɪ 
[106.655]
<no-speech> 
[110.675]
ʔ a 
[111.245]
<no-speech> 
[112.435]
g ɐ n o n 
[114.175]
<no-speech> 
[115.175]
ʔ ɐ k oɪ n ɐ g p ɐ t e k s t ʔ ɐ k o k e <no-speech> ʔ ɐ l a ʔ 
[120.235]
<no-speech> 
[121.035]
<no-speech> 
[121.455]
<no-speech> 
[123.965]
n a s a d ɐ l w ɐ ŋ l i b u r e n <no-speech> n a s a d ɐ l w ɐ ŋ l i b u r e n 
[128.605]
<no-speech> 
[129.924875]
ʔ o k ɐ s e p i n ɐ b eɪ b i ʔ i s k r i n j o ʔ o ŋ b a t a ʔ <hes> 
[132.855]
<no-speech> 
[133.845]
ʔ o <int> 
[135.195]
<no-speech> 
[136.035]
p i n ɐ b eɪ b i ʔ i s k r i n j o ʔ o ŋ b a t a ʔ 
[138.505]
<no-speech> 
[139.655]
ʔ o h i n d e ʔ k ɐ m e p i n ɐ l ɐ b a s h ɐ ŋ g ɐ t h i n d e ʔ b i n eɪ b i ʔ i s k r i n 
[143.665]
<no-speech> 
[152.825]
h i n d e ʔ s ɐ m ɐ r t e s p a s i j a k u k u n a n p i n ɐ g b a j a d l a ʔ a ŋ k ɐ m e 
[155.985]
<no-speech> 
[160.665]
ʔ o n ɐ g b a j a d l a ʔ a ŋ k ɐ m e k ɐ n i n a 
[162.565]
<no-speech> 
[169.165]
ʔ ɐ l a ʔ n ɐ m a n <no-speech> <hes> p i n a p ɐ ʔ u t a ŋ ŋ a ʔ ʔ ɐ k o n i n a n aɪ k e ʤ oʊ v ə n 
[173.355]
<no-speech> 
[174.545]
<hes> ʔ ɐ l a ʔ p a l a ʔ s i ʤ oʊ v ə n 
[175.985]
<no-speech> 
[178.245]
ʔ oʊ 
[178.835]
<no-speech> 
[179.835]
ʔ o 
[180.665]
<no-speech> 
[184.245]
k a j a ŋ a ʔ s a b e n i j a m ɐ ŋ u t a ŋ k a m u n a 
[187.035]
<no-speech> 
[190.345]
ʔ oʊ p ə n 
[191.205]
<no-speech> 
[198.985]
<no-speech> 
[199.785]
<no-speech> 
[203.365]
n a s a n k a b a b ɐ t ʔ ɐ ŋ ʔ i ŋ aɪ 
[205.145]
<no-speech> 
[209.885]
n a s a n k a b ɐ t ʔ ɐ ŋ ʔ i ŋ aɪ 
[211.685]
<no-speech> 
[213.065]
n a s a n k a b a k e t ʔ ɐ ŋ ʔ i ŋ aɪ 
[215.115]
<no-speech> 
[221.195]
ʔ o s o b r a 
[222.385]
<no-speech> 
[226.645]
ʔ ɐ n d i t o s ɐ b a h aɪ 
[227.985]
<no-speech> 
[238.125]
<no-speech> 
[238.555]
<no-speech> 
[240.445]
ʔ o s i g e n ɐ <oov> 
[242.745]
<no-speech> 
[245.075]

[246.065]
<no-speech> 
[247.705]
p ɐ t aɪ j o ʔ o ŋ s ɛ l f oʊ n 
[249.015]
<no-speech> 
[251.915]
b a k a ʔ ɐ l ɐ ŋ s ɪ g n ə l 
[253.265]
<no-speech> 
[257.595]
b a k a ʔ ɐ l ɐ ŋ s ɪ g n ə l 
[259.095]
<no-speech> 
[260.445]
h ɛ l oʊ 
[261.234875]
<no-speech> 
[265.625]
ʔ oʊ k a j a k a h e t m ɐ g <no-speech> 
[269.355]
ʔ ɐ l a m m o n ɐ m a n 
[270.545]
<no-speech> 
[274.115]
ʔ o k a j a ŋ a ʔ d i n ɐ n i l a t i n u l uɪ <hes> 
[276.025]
<no-speech> 
[278.745]
s ɐ 
[280.155]
<no-speech> 
[282.015]
b a g o m ɐ ŋ ɐ n a k s i <no-speech> s i s æ m 
[284.835]
<no-speech> 
[286.115]
<no-speech> 
[286.465]
<no-speech> 
[288.155]
ʔ ɐ l a ʔ n ɐ m a n t ɐ l ɐ g ɐ ŋ ʔ a j aʊ n i l a s i m aɪ l a r i t o t ɐ l ɐ g a ʔ n i k u j a b a m b i 
[292.145]
<no-speech> 
[294.175]
<int> ʔ ɐ l a ʔ h i n d e ʔ p e d e k ɐ s a l 
[297.345]
<no-speech> 
[299.415]
p e r o p e d e 
[300.165]
<no-speech> 
[301.405]
h i n d e ʔ p a p e r o j o ʔ o ŋ b a t a ʔ p e d i ŋ ʔ i ʔ ɐ p i l i d o k e ʔ æ l v ɪ n s a b e n o ŋ ʔ u s p i t a l 
[306.595]
<no-speech> 
[309.365]
p a r ɐ ŋ g ɐ n u n s i g u r o 
[310.725]
<no-speech> 
[318.865]
ʔ o 
[321.015]
<no-speech> 
[328.825]
j a ʔ a n p o ʔ j a ʔ a n ʔ oʊ j a ʔ a n 
[330.485]
<no-speech> 
[331.825]
j a ʔ a n <no-speech> h ɛ l oʊ 
[334.635]
<no-speech> 
[336.985]
<no-speech> 
[337.915]
<no-speech> 
[339.625]
n ɐ g p a p ɐ d e d e n ɐ g p a p ɐ d e d e 
[342.425]
<no-speech> 
[344.125]
k a j a l a ʔ a ŋ m ɐ h i n a ʔ j o ʔ o ŋ 
[345.525]
<no-speech> 
[346.665]
<hes> k a j a l a ʔ a ŋ m ɐ h i n a ʔ j o ʔ o ŋ b a t a ʔ j o ʔ o ŋ g a t a s n ɐ ŋ b a t a ʔ 
[350.485]
<no-speech> 
[353.755]
h i r a p n ɐ h i r a p 
[354.465]
<no-speech> 
[357.765]
k u ŋ s i l a s i l a n ɐ m a n 
[360.485]
<no-speech> 
[364.075]
<hes> n a s a k ɐ n i l a n ɐ m a n <hes> <no-speech> n a s a k ɐ n i l a n ɐ m a n d i b a <no-speech> <hes> n a s a k ɐ n i l a d i s i l a ʔ ɐ ŋ 
[373.215]
<no-speech> 
[376.445]
k a ʔ i n k a n ɐ 
[377.075]
<no-speech> 
[380.065]
ʔ ɐ n d u n ŋ aɪ ʔ o n <int> 
[381.875]
<no-speech> 
[383.575]
ʔ e w a n ʔ o h i n d e ʔ d aʊ s i j a d i t u s i j a m ɐ t u t u l o g 
[387.485]
<no-speech> 
[388.905]
m ɐ g h a p o n l a ʔ a ŋ s i j a r u n 
[390.755]
<no-speech> 
[396.135]
s i g e n ɐ t e s u m a s ɐ k i t ʔ u l o k o s ɐ ʔ i ŋ aɪ ʤ a ʔ a n 
[398.915]
<no-speech> 
[402.205]
s u m a s ɐ k i t n ɐ ʔ u l o k o s ɐ ʔ i ŋ aɪ ʤ a ʔ a n 
[404.485]
<no-speech> 
[406.605]
s i g e n ɐ k ɐ k a ʔ i n n ɐ k ɐ m e 
[407.885]
<no-speech> 
[410.025]
s i g e n ɐ s i g e n ɐ k ɐ k a ʔ i n n ɐ k ɐ m e t e 
[411.965]
<no-speech> 
[413.485]
b a k a k ɐ k a ʔ i n n ɐ k ɐ m e k ɐ k a ʔ i n n ɐ k ɐ m e 
[416.305]
<no-speech> 
[420.755]
ʔ i n t ɐ j i n k o p a m ɐ ʔ u b o s 
[422.175]
<no-speech> 
[423.325]
b ɐ t m ɐ t ɐ t a p o s n ɐ b a 
[424.795]
<no-speech> 
[425.635]
m ɐ r j o s e p 
[426.585]
<no-speech> 
[429.635]
ʔ a l i b r e 
[430.805]
<no-speech> 
[432.125]
<no-speech> 
[432.675]
<no-speech> 
[441.235]
s ɛ v ə n t i n ŋ a ʔ d aʊ 
[442.885]
<no-speech> 
[444.725]
s ɐ s ɛ v ə n t i n s ɐ s ɛ v ə n t i n 
[447.135]
<no-speech> 
[448.345]
<no-speech> 
[448.715]
<no-speech> 
[451.245]
ʔ o 
[452.145]
<no-speech> 
[454.165]
ʔ o ŋ aɪ ʔ o ŋ s ɛ v ə n t i n 
[456.225]
<no-speech> 
[457.075]
ʔ o 
[457.895]
<no-speech> 
[465.845]
d ɐ l w ɐ ŋ l i ŋ g o ŋ a ʔ s i l a d u n 
[468.105]
<no-speech> 
[473.395]
h i n d e ʔ n o ŋ b a g o ʔ u m ɐ l e s s i n a b e n i j a 
[476.065]
<no-speech> 
[482.105]
<no-speech> 
[488.145]
<hes> d i ʔ i t ɛ k s t m o t ɐ n u ŋ m o k u ŋ k e l a n s i j a ʔ u w i ʔ h ɛ l oʊ 
[491.905]
<no-speech> 
[493.265]
s a b e k o ʔ i t ɛ k s t m o t ɐ n u ŋ m o k u ŋ k e l a n s i l a ʔ u w i ʔ 
[496.295]
<no-speech> 
[502.565]
ʔ ɐɪ t ɐ ŋ a n ɐ k ɐ ʔ ɐ n l i 
[504.925]
<no-speech> 
[510.505]
ʔ ə m h ə m <hes> b ɐ t d i p a s i n a n aɪ ʔ a k ɐ s e ʔ ɐ l a ʔ ŋ ɐ ŋ l i n j a 
[515.215]
<no-speech> 
[521.715]
ʔ o 
[522.434875]
<no-speech> 
[523.975]
ʔ o 
[524.715]
<no-speech> 
[527.835]
<no-speech> 
[528.475]
<no-speech> 
[534.425]
k ɐ m e ŋ a ʔ ʔ u l a m n a m i n ʔ i t l o g 
[536.265]
<no-speech> 
[541.135]
<no-speech> 
[542.635]
<no-speech> 
[548.495]

[549.025]
<no-speech> 
[553.305]
ʔ o 
[553.835]
<no-speech> 
[557.025]
<no-speech> 
[557.405]
<no-speech> 
[561.455]
ʔ ɐɪ g ɐ n o n 
[562.435]
<no-speech> 
[565.805]
m e p e r a ŋ aɪ ʔ o n 
[566.995]
<no-speech> 
[569.625]
b ɐ t p a n u s i j a n ɐ g k ɐ p e r a 
[571.275]
<no-speech> 
[572.085]
s a b e n i j a n u ŋ n ɐ k ɐ r a n ʔ ɐ l a ʔ d aʊ s i j ɐ ŋ p e r a 
[574.315]
<no-speech> 
[577.515]
ʤ a n ʤ a n 
[578.365]
<no-speech> 
[579.165]
ʔ o 
[579.905]
<no-speech> 
[583.065]
n o ŋ g a b i ŋ ʔ ɐ n u k e l a n b a j o ʔ o n 
[586.915]
<no-speech> 
[589.825]
n o ŋ n ɐ g h a h ɐ n a p ʔ ɐ k o ŋ p ɐ m b i l i ŋ g ɐ m u t n i ʤ ɛ n ʔ a k ɐ h a p u n l a ʔ a ŋ 
[594.955]
<no-speech> 
[596.445]
<no-speech> 
[597.025]
ʔ a 
[600.2]
