[0.0]
<no-speech> 
[2.395]
h ɛ l oʊ 
[3.185]
<no-speech> 
[5.125]
<no-speech> 
[5.795]
<no-speech> 
[7.115]
<breath> h ɛ l oʊ ʔ ɐ m eɪ <breath> <sta> <no-speech> <breath> ʔ ɐ n u ŋ g i n a g ɐ w a ʔ m o 
[17.925]
<no-speech> 
[27.235]
<int> s i n u ŋ k ɐ s a m a m o ʤ a ʔ a n 
[29.105]
<no-speech> 
[33.045]
<no-speech> 
[34.685]
<no-speech> 
[35.565]
<sta> <breath> ʔ ɐ l a ʔ n ɐ n d i t o l a ʔ a ŋ <no-speech> 
[41.145]
<no-speech> 
[43.235]
s i n u ŋ t a ʔ o s ɐ b a h aɪ <sta> <no-speech> 
[46.675]
<no-speech> 
[48.355]
<no-speech> 
[48.735]
<no-speech> 
[49.655]
<no-speech> 
[50.185]
<no-speech> 
[52.425]
<sta> s i l a ʔ a t e ʤ ɛ s i <no-speech> 
[56.005]
<no-speech> 
[56.945]
<no-speech> 
[57.585]
<no-speech> 
[60.435]
<sta> <no-speech> d i t u l a ʔ a ŋ s ɐ t ɐ b i t ɐ b i ʤ o k <no-speech> d i k a 
[71.795]
p u m a s u k <breath> <int> 
[74.355]
<no-speech> 
[75.345]
<sta> ʔ a <no-speech> ʔ ɐ l a ʔ k ɐ j u ŋ p ɐ s o k 
[78.635]
<no-speech> 
[79.855]
<sta> b a k e t <no-speech> s a n k a b a n ɐ g ʔ a r a l 
[91.525]
<no-speech> 
[92.135]
<no-speech> 
[94.245]
<sta> s a n k a n ɐ g ʔ a r a l <no-speech> s a n k a b a p u m ɐ p a s o k 
[99.825]
<no-speech> 
[102.015]
ʔ a <sta> s a n k a p u m ɐ p a s o k 
[104.035]
<no-speech> 
[105.595]
<no-speech> 
[105.945]
<no-speech> 
[107.325]
<sta> <no-speech> ʔ ɐ n u ŋ j i r m o n ɐ 
[112.855]
<no-speech> 
[118.275]
k u m u s t a n ɐ s i l a m ɑ m i 
[119.925]
<no-speech> 
[125.665]
<sta> b a k e t d i k a b a ʔ u m u w i ʔ s ɐ b a h aɪ 
[130.155]
<no-speech> 
[134.825]
<no-speech> 
[135.195]
<no-speech> 
[137.565]
p a g k e l a n <sta> <breath> ʔ a r ɐ w a r aʊ g ɐ b i g ɐ b i 
[141.915]
<no-speech> 
[143.075]
<sta> <no-speech> ʔ ɐ n u ŋ g i n a g ɐ w a ʔ n ɐ ŋ k u j a m o s ɐ b a h aɪ 
[148.925]
<no-speech> 
[151.545]
<no-speech> 
[152.765]
<no-speech> 
[153.995]
s i ʤ ɛ f ə r s ə n <sta> <no-speech> 
[159.215]
<no-speech> 
[161.115]
<int> <no-speech> d i l u m a l ɐ b a s 
[163.625]
<no-speech> 
[167.245]
<no-speech> 
[167.605]
<no-speech> 
[169.835]
s i m e l ʧ o r 
[170.995]
<no-speech> 
[175.925]
s a n p u m ɐ p a s o k <int> 
[177.715]
<no-speech> 
[180.425]
<no-speech> 
[180.965]
<no-speech> 
[186.475]
n ɐ g ʔ a r a l b a ʔ u l e t j o ʔ o n 
[187.975]
<no-speech> 
[190.595]
<no-speech> 
[191.265]
<no-speech> 
[192.885]
<sta> <no-speech> b ɐ t m ɐ g ʔ a b r o d s i j a <no-speech> 
[199.205]
<no-speech> 
[204.085]
<breath> p u m u n t a s i j ɐ ŋ k o r e j a k e k u j a t o t oɪ 
[207.115]
<no-speech> 
[209.825]
<no-speech> 
[210.295]
<no-speech> 
[211.735]
d a p a t s u m ɐ m a ʔ k a n ɐ r e n <sta> <no-speech> 
[216.065]
<no-speech> 
[220.245]
k u ŋ p e d e l a ʔ a ŋ ʔ ɐ k o <int> <hes> 
[221.815]
<no-speech> 
[227.105]
s i ʔ a t e b e ŋ b e ŋ ʔ ɐ n u ŋ g i n a g ɐ w a ʔ s ɐ b a h aɪ 
[229.975]
<no-speech> 
[233.405]
<no-speech> 
[235.155]
<no-speech> 
[238.205]
<int> ʔ i d i d i m o l i s n ɐ r aʊ j o ʔ o ŋ b a h aɪ n j o 
[241.525]
<no-speech> 
[246.365]
k e l a n h ɐ ŋ g ɐ ŋ k e l a n n ɐ l a ʔ a ŋ k ɐ j u 
[248.345]
<no-speech> 
[252.385]
n i t o ŋ m ɑ r ʧ 
[253.545]
<no-speech> 
[254.465]
<no-speech> 
[256.845]
<no-speech> 
[258.975]
<no-speech> <sta> <breath> n ɛ k s t j i r s a n k ɐ j u l i l i p a t <no-speech> 
[266.025]
<no-speech> 
[266.965]
<no-speech> 
[268.735]
<no-speech> 
[277.945]
t ɐ n u ŋ i n m o s ɐ k ɐ n i j a <sta> <no-speech> d i ŋ a ʔ k ɐ m e n ɐ g k i k i t a n o n <hes> 
[288.855]
<no-speech> 
[298.515]
<sta> m a m ɐ j a ʔ <no-speech> s ɐ b i h i n m o n ɐ l a ʔ a ŋ m ɐ g ʔ o n l aɪ n s i j a 
[303.995]
<no-speech> 
[308.165]
<no-speech> 
[312.215]
<no-speech> 
[316.065]
<no-speech> 
[317.525]
<no-speech> 
[318.405]
d i k o p a ʔ ɐ l a m <hes> 
[319.535]
<no-speech> 
[321.465]
m ɐ g t e t e k s t n ɐ l a ʔ a ŋ ʔ ɐ k o <sta> <no-speech> ʔ a <no-speech> ʔ o 
[328.325]
<no-speech> 
[330.065]
s o b r a 
[331.005]
<no-speech> 
[332.305]
ʔ a <sta> <no-speech> 
[335.695]
<no-speech> 
[338.195]
s a b e m ɐ r a m e ʔ ɐ k o ŋ g i n a g ɐ w a ʔ d i s a b e k o s o b r a 
[340.925]
<no-speech> 
[347.215]
m ɐ r a m e ŋ a ʔ 
[348.255]
<no-speech> 
[349.585]
m ɐ r a m e ʔ ɐ k o ŋ p i n u p u n t ɐ h a n <sta> <no-speech> ʔ i n a ʔ i n a j o s k o p a j o ʔ o ŋ b æ k p eɪ k o 
[358.205]
<no-speech> 
[362.725]
ʔ ɐ l a ʔ p a k o ŋ ʔ aɪ d i 
[364.135]
<no-speech> 
[365.085]
ʔ a 
[365.645]
<no-speech> 
[369.455]
<sta> <no-speech> d i b a d a t e s ɐ ʔ e s ʔ e m <no-speech> 
[374.545]
<no-speech> 
[375.425]
<no-speech> 
[375.945]
<no-speech> 
[377.945]
ʔ ɐ l a ʔ n ɐ g h a h ɐ n a p 
[379.205]
<no-speech> 
[385.305]
<no-speech> 
[391.405]
ʔ i k aʊ n ɐ l a ʔ a ŋ p u m u n t a 
[392.665]
<no-speech> 
[394.095]
<int> ʔ a 
[394.775]
<no-speech> 
[399.615]
<sta> s i n u <no-speech> 
[401.425]
<no-speech> 
[403.865]
<sta> <no-speech> t ɐ g ɐ s a n g ɐ l e ŋ s a n 
[407.655]
<no-speech> 
[414.035]
d i m ɐ r a m e n ɐ n ɐ m a n k ɐ j u <int> 
[416.095]
<no-speech> 
[421.245]
<sta> <no-speech> s i n u ŋ n ɐ m a m ɐ l e ŋ k e 
[427.065]
<no-speech> 
[433.205]
<no-speech> 
[439.345]
s a n s i k i ʃ ə <int> 
[440.605]
<no-speech> 
[443.945]
<no-speech> 
[445.355]
<no-speech> 
[453.055]
s o b r ɐ ŋ ʔ i n e t ŋ aɪ ʔ o n n o 
[454.635]
<no-speech> 
[460.955]
j ʌ k <int> m e s o r ʔ aɪ s k a 
[463.755]
<no-speech> 
[470.005]
<no-speech> 
[470.375]
<no-speech> 
[472.415]
s ɐ r a p s a n a m ɐ t u l o g p a g t ɐ ŋ h a l e ʔ k a s u s o b r ɐ ŋ ʔ i n e t <hes> 
[476.035]
<no-speech> 
[480.305]
ʔ ɐ ŋ s ɐ r a p m ɐ g s w i m i ŋ ŋ aɪ ʔ o n 
[482.205]
<no-speech> 
[484.625]
<no-speech> 
[485.585]
<no-speech> 
[487.205]
s w ɪ m ɪ ŋ t ɐ j u ʔ p a g n ɐ k u h a k o j o ʔ o ŋ b æ k p eɪ k o s w ɪ m ɪ ŋ t ɐ j u ʔ <sta> <no-speech> s ɐ l ɐ g u n a 
[499.095]
<sta> <no-speech> ʔ a j aʊ m o ʔ a j aʊ m o d i w a g 
[503.995]
<no-speech> 
[504.795]
<no-speech> 
[505.295]
<no-speech> 
[512.675]
<sta> b u r a k aɪ s oʊ ʃ ə l ʔ a b o t b a j o ʔ o ŋ b æ k p eɪ k o d o n 
[518.155]
<no-speech> 
[520.024875]
<sta> <no-speech> ʔ ɐ ŋ ʔ i n e t g r a b e 
[529.835]
<no-speech> 
[536.255]
s ɐ r a p ŋ ɐ ŋ m ɐ g s w i m i ŋ ŋ aɪ ʔ o n k a s u ŋ a ʔ l a ʔ a ŋ p ɐ g k ɐ t a p u s m u ŋ m ɐ g s w i m i ŋ m ɐ ŋ i ŋ i t i m k a d i b a ʔ ɐ ŋ p a ŋ e t 
[542.185]
<no-speech> 
[547.355]
<no-speech> 
[547.925]
<no-speech> 
[551.575]
n ɐ m i m i s k o n ɐ ʤ a ʔ a n 
[553.435]
<no-speech> 
[560.465]
p a g h i n d e ʔ n ɐ k o b ɪ z i 
[562.195]
<no-speech> 
[565.065]
n ɐ m i m i s n ɐ m i m i s k o n ɐ ŋ a ʔ j o ʔ o ŋ m ɐ ŋ a ʔ p i n u p u n t ɐ h a n n a t e n <hes> 
[569.065]
<no-speech> 
[570.015]
<no-speech> 
[570.405]
<no-speech> 
[573.925]
n o ŋ d u m ɐ t i ŋ s i ʔ a t e m ɐ t e t d i b a p u m u n t a t ɐ j u ʔ s ɐ m o w a 
[577.905]
<no-speech> 
[579.795]
n o ŋ p ɐ s k o 
[581.095]
<no-speech> 
[583.005]
<no-speech> 
[583.355]
<no-speech> 
[585.275]
<sta> <no-speech> ʔ ɐ n u n j u j i r 
[588.985]
<no-speech> 
[590.285]
<no-speech> 
[590.745]
<no-speech> 
[591.775]
d ɪ s ɛ m b ə r s i j a d u m ɐ t i ŋ d i b a 
[593.615]
<no-speech> 
[595.535]
<sta> m ɐ ŋ a ʔ <oov> <no-speech> 
[598.535]
<no-speech> 
[599.98]
