[0.0]
<sta> ʔ o k ɐ m u s t a n ɐ <no-speech> ʔ o 
[5.415]
<no-speech> 
[6.515]
<sta> h ɛ l oʊ k ɐ m u s t a k a n ɐ <no-speech> <breath> ʔ oʊ k eɪ n ɐ m a n 
[9.275]
<no-speech> 
[11.285]
<int> <sta> t ɐ s k a n ɐ ŋ m ɐ g t i n d a 
[13.015]
<no-speech> 
[14.055]
<sta> ʔ ɐ l a ʔ n ɐ m a n 
[15.245]
<no-speech> 
[16.235]
<sta> ʔ ɐ l a ʔ n ɐ m a n <no-speech> t a t ɐ s k a n ɐ ŋ m ɐ g t i n d a <no-speech> b a k e t 
[28.065]
<sta> ʔ a m ɐ r a m e b æ ŋ l ɐ l ɐ k e 
[34.715]
<no-speech> 
[36.035]
<int> <sta> b a k e t ʔ ɐ ŋ s ɛ k s i m o ŋ aɪ ʔ o n 
[38.805]
<no-speech> 
[40.425]
<no-speech> 
[40.945]
<no-speech> 
[41.785]
<sta> <laugh> s ɐ b a n j o ʔ ɐ l a m m o n ɐ <no-speech> ʔ ɐ l a m m o n ɐ <int> 
[54.655]
<sta> ʔ ɐ l a ʔ <no-speech> s a b e k o m ɐ g ʔ i s n oʊ b ɑ l k a p a r a b u m i l i ʔ ɐ k o <no-speech> <laugh> ʔ a <no-speech> <laugh> ʔ ɐ j o k u k o ŋ a ʔ d a h i l ʔ ɐ j o k u <hes> ʔ a s i g e 
[66.215]
<sta> s a n 
[66.915]
<no-speech> 
[69.185]
<sta> ʔ ɐɪ b a k e t k a ʤ a ʔ a n <breath> ʔ ɐ l a ʔ p a b a s i l a v ə n ɛ s ə ʔ ɐ ŋ t ɐ g ɐ l t ɐ g a l n ɐ m a n n i l a 
[73.505]
<no-speech> 
[74.345]
<int> <sta> k u ŋ b i b i l i b a m ɐ t u t u w a ʔ s ɐ ʔ a t e n ʔ ɐ ŋ k a ʔ i b i g a n n a t e n n a p ɐ k ɐ n o <no-speech> n ɐ k a k ɐ b ɐ l iʊ <no-speech> n ɐ k a k ɐ b ɐ l iʊ 
[84.475]
<no-speech> 
[86.165]
<sta> n ɐ k a k ɐ b ɐ l iʊ 
[87.555]
<no-speech> 
[88.365]
<sta> ʔ o 
[89.185]
<no-speech> 
[90.095]
<sta> ʔ o <no-speech> ʔ o <no-speech> h i n d e ʔ <hes> k i l a l a j o ʔ o n 
[94.695]
<no-speech> 
[95.815]
<sta> h i n d e ʔ b a l i ʤ a ʔ a n t ɐ j u ʔ 
[97.655]
<no-speech> 
[98.655]
<sta> w ɐ g m o ʔ ɐ k o ŋ ʔ i d a m aɪ ʔ a 
[100.185]
<no-speech> 
[101.035]
<int> <sta> w ɐ g m o ʔ ɐ k o ŋ ʔ i d a m aɪ 
[102.535]
<no-speech> 
[103.445]
<no-speech> 
[104.565]
<no-speech> 
[106.025]
<sta> <laugh> ʔ a ʔ a 
[107.775]
<no-speech> 
[109.315]
<sta> <laugh> s i j a <no-speech> t ɐ l ɐ g a ʔ <breath> 
[115.525]
<no-speech> 
[116.765]
<laugh> k ɐ h ɐ w i g m o k a j a s i ʤ o p aɪ <no-speech> k ɐ h ɐ w i g m o k a j a s i ʤ o p aɪ 
[123.875]
<no-speech> 
[125.185]
<int> <sta> ʔ ɐ l a ʔ 
[127.045]
<no-speech> 
[128.195]
<no-speech> 
[128.735]
<no-speech> 
[130.435]
<sta> b a k e t <no-speech> ʔ ɐ ŋ s ɛ k s i m o ʤ a ʔ a n <no-speech> <breath> ʔ ɐ ŋ s ɛ k s i m o ʤ a ʔ a n 
[140.375]
<no-speech> 
[141.665]
<sta> ʔ o <no-speech> k a j a ŋ a ʔ k ɐ k ɐ t e k s t m o s i m æ r j ə n r i b e r a 
[145.705]
<no-speech> 
[146.965]
<no-speech> 
[147.515]
<no-speech> 
[149.025]
<sta> p ɐ h ɐ r a p <breath> 
[151.035]
<no-speech> 
[152.245]
<sta> <laugh> p ɐ g k a h u m ɐ r a p b a k i l a l a m o k u ŋ s i n u 
[155.085]
<no-speech> 
[156.275]
<sta> s i j a p a l a ʔ <no-speech> <laugh> 
[159.765]
<no-speech> 
[160.675]
<sta> b a k e t 
[162.295]
<no-speech> 
[164.455]
ʔ o g ɐ n o n n ɐ g ɐ n o n <int> <no-speech> k ɐ m u k a ʔ p a r e n n i d i ŋ d o ŋ d ɑ n t eɪ s 
[169.635]
<no-speech> 
[171.085]
<no-speech> 
[171.485]
<no-speech> 
[172.615]
<sta> s i d i ŋ d o ŋ ʔ ɐ v ɐ n z a d o <breath> 
[175.365]
<no-speech> 
[177.635]
<sta> <laugh> s i ʤ ɛ s ə z a r ɐ g o s a 
[180.615]
<no-speech> 
[181.795]
<sta> ʔ o 
[185.035]
<no-speech> 
[186.245]
<sta> s i s i n u 
[187.405]
<no-speech> 
[189.265]
<sta> ʔ o ʔ ɐ k o p a m ɐ g ɐ n d a ʔ ɐ k o <hes> 
[190.905]
<no-speech> 
[194.285]
<int> <sta> ʔ o n ɐ m a n 
[195.285]
<no-speech> 
[197.065]
<no-speech> 
[197.475]
<no-speech> 
[198.535]
<sta> ʔ a 
[200.225]
<no-speech> 
[201.075]
<sta> g ɑ d b l ɛ s j u 
[204.015]
<no-speech> 
[205.255]
<sta> ʔ ɐ l a ʔ <no-speech> k u m u k u p i t p a ʔ ɐ k o d i t u s ɐ t i n d a h a n n i ʔ a t e k a k aɪ <hes> 
[209.805]
<no-speech> 
[213.885]
<sta> n i n i k a k aɪ <no-speech> n i k a k aɪ b i l a s k e s 
[219.335]
<no-speech> 
[221.225]
<sta> k ɐ p ɐ t e d n i r ə ʤ i n b i l a s k e s 
[223.365]
<no-speech> 
[226.265]
<sta> ʔ a 
[227.765]
<no-speech> 
[228.905]
<sta> b oʊ l d 
[229.845]
<no-speech> 
[231.715]
<laugh> n i r ə ʃ ɛ l ʔ ɐ n u ʔ o l i b a r ʔ æ t n i 
[243.065]
<sta> <laugh> n o n oɪ t ɐ b a ʔ <laugh> 
[244.995]
<no-speech> 
[245.815]
<laugh> 
[252.365]
<no-speech> 
[253.685]
<sta> s i j e m p r e m ɐ t ɐ l i n o ʔ ɐ k o 
[256.095]
<no-speech> 
[256.895]
<sta> d a h i l m ɐ r a m e ʔ ɐ k o ŋ ʔ ɐ l a m 
[258.424875]
<no-speech> 
[260.965]
<sta> <oov> s i j e m p r e m ɐ t ɐ l i n o ʔ ɐ k o ʔ ɐ ŋ d a m e k o ŋ ʔ ɐ l a m 
[264.005]
<no-speech> 
[265.145]
<no-speech> 
[265.535]
<no-speech> 
[267.235]
<sta> b a k e t 
[269.695]
<no-speech> 
[271.025]
<sta> s i j e m p r e m ɐ g ɐ n d a ŋ a ʔ ʔ ɐ k o 
[272.735]
<no-speech> 
[273.915]
<sta> ʔ o <no-speech> b a k e t 
[278.575]
<no-speech> 
[279.615]
<no-speech> 
[280.035]
<no-speech> 
[282.735]
<sta> k a h e t ʔ a s a n n ɐ ŋ a ʔ 
[284.595]
<no-speech> 
[286.205]
<sta> m ɐ g ʔ i h ɐʊ ʔ i h aʊ k a n ɐ <no-speech> m ɐ g t i n d a k a n ɐ ŋ ʔ i h ɐʊ ʔ i h aʊ <no-speech> d a h i l m ɪ s k o n ɐ ʔ ɐ ŋ ʔ i h ɐʊ ʔ i h aʊ 
[292.335]
<no-speech> 
[295.665]
<sta> s æ l i b a n o ŋ n ɐ ŋ d i n ɐ g ʔ i h aʊ n i j a j o ʔ o ŋ ʔ i h ɐʊ ʔ i h aʊ <no-speech> <hes> d i ʔ i r e p m o m u n a 
[301.155]
<no-speech> 
[304.715]
<sta> k a j a s k r æ b ə l ʔ i s n o b ɑ l 
[307.515]
<no-speech> 
[310.275]
<breath> <sta> <hes> b a k e t ʔ ɐ ŋ ʔ ɐ ŋ t i n i t i n d a m o p u r o m ɐ ʔ i n i t f r ɛ n ʧ p r aɪ s <no-speech> ʔ o m ɐ ʔ i n e t j o ʔ o n <hes> <breath> 
[318.775]
<no-speech> 
[323.065]
d a p a t j e l o <no-speech> <sta> k ʌ l ə r l a ʔ a ŋ ʔ a t a ʔ j a ʔ a n <hes> 
[327.295]
<no-speech> 
[328.665]
<sta> ʔ e t o h ɑ r ə r 
[330.165]
<no-speech> 
[332.445]
<sta> ʔ ə m h ə m ʔ ɐ ŋ t ɐ g a l n ɐ m a n <no-speech> m ɐ g t i n d a k a n ɐ 
[337.295]
<no-speech> 
[341.245]
<int> ʔ o <sta> 
[347.905]
<no-speech> 
[348.705]
<sta> k e l a n ʔ ɐ ŋ ʔ ɐ l e s k o 
[351.555]
<no-speech> 
[352.885]
<int> <sta> m ɐ t ɐ g a l p a 
[354.495]
<no-speech> 
[355.825]
<sta> ʔ o <no-speech> p u n t a ʔ ɐ k o n ɐ ŋ ʔ ɪ t ə l i 
[360.645]
<no-speech> 
[361.685]
s i ʔ ɐ n u <no-speech> s i b a n d o ŋ s ɐ k a s i v æ n ʤ i s i b a n o ŋ s ɐ k a s i v æ n ʤ i m ɐ ŋ h o h o l d a p k ɐ m e <laugh> 
[373.595]
<no-speech> 
[375.035]
<no-speech> 
[377.975]
<sta> ʔ o <no-speech> <breath> k ɐ t u l a d n ɐ ŋ <no-speech> <breath> ʔ ɐ k o ʔ ɐ ŋ m ɐ g p a p ɐ d ɐ l a s ɐ ʔ i n j o 
[381.875]
<no-speech> 
[383.265]
<no-speech> 
[383.735]
<no-speech> 
[384.585]
<sta> ʔ a g ɐ n o n <no-speech> t e k a m ɐ g p a p ɐ d ɐ l a ʔ ɐ k o n ɐ ŋ m ɐ ŋ a ʔ t ɐ ʔ i ŋ a k i k aɪ 
[388.815]
<no-speech> 
[389.925]
<no-speech> 
[390.355]
<no-speech> 
[392.685]
<sta> ʔ a 
[394.065]
<no-speech> 
[399.425]
<sta> m ɐ l ɐ k e 
[400.525]
<no-speech> 
[402.915]
<sta> m ɐ l ɐ k i ŋ ʔ ɐ n u 
[403.985]
<no-speech> 
[405.095]
<sta> m ɐ l ɐ k i ŋ ʔ ɐ n u 
[406.215]
<no-speech> 
[407.205]
<no-speech> 
[409.015]
<no-speech> 
[411.225]
<sta> ʔ o m ɐ r a m i ŋ n ɐ g m a m ɐ h a l s ɐ ʔ a k e n <hes> <breath> 
[413.795]
<no-speech> 
[417.805]
g ɐ n o n <int> 
[418.825]
<no-speech> 
[423.005]
<sta> ʔ o <no-speech> h ɑ r ə r ʔ a t a ʔ j a ʔ a n <hes> 
[428.735]
<no-speech> 
[433.045]
<sta> ʔ i l ɐ ŋ m ɪ n ɪ t s n ɐ b a 
[434.525]
<no-speech> 
[436.245]
<sta> m ɐ g t i t i n d a 
[437.365]
<no-speech> 
[438.925]
<sta> ʔ o 
[439.695]
<no-speech> 
[440.625]
ʔ o s i g e <no-speech> <int> <sta> p i n a p ɐ g ɐ l i t a n n ɐ ʔ ɐ k o n ɐ ŋ ʔ a m o k o d i t u 
[444.845]
<no-speech> 
[448.085]
<sta> s a b e n i j a d u n d aʊ ʔ ɐ k o d u n d aʊ ʔ ɐ k o 
[449.995]
<no-speech> 
[453.095]
<sta> k ɐ l i l i ŋ i n d aʊ ʔ ɐ k o d u n d aʊ ʔ ɐ k o d u n d aʊ ʔ ɐ k o 
[455.985]
<no-speech> 
[459.495]
<sta> h u m b a j a ʔ a n <breath> 
[461.335]
<no-speech> 
[462.605]
<no-speech> 
[463.555]
<no-speech> 
[465.975]
<sta> ʔ ɐ l a ʔ l a ʔ a ŋ <no-speech> <breath> p a ŋ e t ʔ ɐ ŋ r ɛ f <no-speech> p a ŋ e t n ɐ ŋ r ɛ f n i l a d i t u 
[470.575]
<no-speech> 
[471.955]
<no-speech> 
[472.305]
<no-speech> 
[473.585]
<sta> s i b a s ʧ a n 
[475.835]
<no-speech> 
[477.115]
<sta> ʔ ɐ n u ŋ g i n a g ɐ w a ʔ m o ʤ a ʔ a n 
[478.675]
<no-speech> 
[481.235]
<sta> k a l a ʔ k o ʔ i s a s ɐ r a m o n ɐ j a ʔ a n 
[484.365]
<no-speech> 
[487.765]
<sta> k a l a ʔ k o ʔ i s a s ɐ r a m o n ɐ 
[489.305]
<no-speech> 
[491.375]
<sta> b a k e t 
[492.445]
<no-speech> 
[494.615]
<sta> w ɐ g k a n ɐ ŋ m ɐ g s ɐ r a h ɐ ŋ g ɐ ŋ b u k a s n ɐ j a ʔ a n p a r a m ɐ l ɐ k e ʔ ɐ ŋ k i t a 
[501.235]
<no-speech> 
[503.555]
<no-speech> 
[507.235]
<no-speech> 
[510.315]
<sta> m ɐ g l u t o ʔ n ɐ ŋ p u p a r a m ɐ l ɐ k e ʔ ɐ ŋ k i t a 
[514.564875]
<no-speech> 
[517.215]
<sta> ʔ o 
[518.995]
<no-speech> 
[523.065]
<sta> <hes> m ɐ g ɐ n d a k a n ɐ m a n <hes> 
[526.175]
<no-speech> 
[528.405]
<sta> s u m a g a p k a n ɐ n ɐ m a n 
[529.755]
<no-speech> 
[534.775]
<sta> ʔ i n a n t o k n ɐ j o ʔ o ŋ ʔ a m o k o d i t u 
[536.785]
<no-speech> 
[540.405]
<int> ʔ o <no-speech> <sta> ʔ ɐ n u 
[545.485]
<no-speech> 
[547.065]
<sta> ʔ o n ɐ b i b i n b i n k a ʤ a ʔ a n 
[549.185]
<no-speech> 
[551.485]
<sta> n ɐ g k ɐ p i ŋ p i ŋ <breath> 
[553.015]
<no-speech> 
[556.015]
<sta> p i ŋ p i ŋ 
[557.135]
<no-speech> 
[559.525]
<sta> p i ŋ p i ŋ <no-speech> d i m o ʔ ɐ l a m j o ʔ o n <no-speech> p i ŋ p i ŋ ʔ ɐ ŋ m ɐ g ʔ i s a k a l a ʔ a ŋ 
[570.735]
<sta> p i ŋ p i l i p i ŋ p i ŋ p i ŋ p i ŋ 
[577.175]
<no-speech> 
[578.675]
<sta> <laugh> n ɐ g ɛ t s m o n ɐ <laugh> g ɐ l i ŋ g ɐ l i ŋ m o t ɐ l ɐ g a ʔ <no-speech> ʔ ɐ ŋ t ɐ g a l n ɐ ŋ <sta> ʔ o ʔ ɐ ŋ t ɐ g a l ʔ u m ɐ l e s 
[594.945]
<no-speech> 
[595.955]
<sta> t ɐ g ɐ l t ɐ g a l n i j a ʔ e w a n k o 
[599.88]
