[0.0]
<no-speech> 
[10.0075]
<no-speech> 
[20.015]
h ɛ l oʊ 
[20.665]
<no-speech> 
[28.445]
h ɛ l oʊ 
[29.075]
<no-speech> 
[30.815]
h ɛ l oʊ ʔ a t e ʤ i n <int> 
[33.265]
<no-speech> 
[37.845]
ʔ ɐ k o m ɐ l i l i g o ʔ p a l ɐ ŋ ʔ ɐ k o <hes> 
[39.815]
<no-speech> 
[42.305]
ʔ o 
[43.155]
<no-speech> 
[47.655]
s i g e 
[48.305]
<no-speech> 
[52.265]
j o ʔ o ŋ ʔ ɐ n u n i l a g a ʔ 
[53.805]
<no-speech> 
[56.655]
<no-speech> 
[58.555]
<no-speech> 
[61.425]
ʔ o 
[62.225]
<no-speech> 
[63.665]
ʔ o <int> 
[64.984875]
<no-speech> 
[67.285]
<int> s i n a n aɪ 
[69.035]
<no-speech> 
[72.685]
p ɪ ŋ k 
[73.315]
<no-speech> 
[76.525]
k ɐ s e ŋ a ʔ d aʊ b u s o g p a ŋ a ʔ s i l a <hes> 
[78.375]
<no-speech> 
[79.885]
b u s o g p a s i l a 
[81.055]
<no-speech> 
[86.005]
t ɐ s m o t a w a g 
[87.165]
<no-speech> 
[88.915]
ʔ o 
[89.605]
<no-speech> 
[93.905]
<no-speech> 
[94.265]
<no-speech> 
[97.425]
ʔ a 
[98.145]
<no-speech> 
[100.335]
ʔ o 
[101.015]
<no-speech> 
[104.545]
<hes> ŋ aɪ ʔ o n h a p u n 
[106.375]
<no-speech> 
[108.185]
ʔ a 
[108.945]
<no-speech> 
[112.425]
<no-speech> 
[112.865]
<no-speech> 
[114.565]
<no-speech> 
[114.995]
<no-speech> 
[118.135]
d i b a n a g <hes> 
[118.915]
<no-speech> 
[120.495]
t a m a ʔ ʔ a 
[121.535]
<no-speech> 
[127.745]
j o ʔ o ŋ r i l o r i l o n i ʤ ʌ s t ɪ n <click> j o ʔ o ŋ ʔ i t e m 
[131.125]
<no-speech> 
[135.865]
ʔ o g ɐ m i t 
[136.935]
<no-speech> 
[138.625]
ʔ o d a p a t d aʊ <hes> d a p a t d aʊ 
[141.665]
<no-speech> 
[142.565]
d a p a t d aʊ ʔ ɐ n u <hes> d ɐ l w ɐ t d ɐ l w a n ɐ n ɐ b i t b i t n i j a 
[146.055]
<no-speech> 
[147.195]
d ɐ l a <hes> l ɐ h a t n ɐ l a ʔ a ŋ b i n i t b i t n i j a k ɐ s e d ɐ l w a l a ʔ a ŋ d aʊ j o ʔ o n n ɐ ʔ i w a n d aʊ ʔ i n i w a n n i j a d aʊ k ɐ s e j o ʔ o ŋ ʔ i s a <int> 
[153.335]
<no-speech> 
[160.255]
p i n a n a ʔ <int> 
[161.235]
<no-speech> 
[171.515]
ʔ o p e r o m e r ʔ o n n ɐ m a n t o s ɐ ʔ oʊ v ə r p æ s d i b a 
[174.005]
<no-speech> 
[175.405]
m e r ʔ o n d o n ʔ oʊ v ə r p æ s 
[176.775]
<no-speech> 
[179.555]
m e ʔ oʊ v ə r p æ s d o n 
[180.655]
<no-speech> 
[182.325]
d u n s ɐ m e <no-speech> k u b aʊ d i b a d i <no-speech> m o ʔ ɐ l a m 
[186.825]
<no-speech> 
[188.095]
m e r o n d o n 
[188.945]
<no-speech> 
[199.285]
s a n 
[199.865]
<no-speech> 
[203.175]
h i n d e ʔ n ɐ 
[204.205]
<no-speech> 
[205.885]
s i l a 
[206.475]
<no-speech> 
[209.455]
ʔ a 
[209.995]
<no-speech> 
[217.495]
ʔ ɐ n d i t o l a ʔ a ŋ <no-speech> n u ŋ n ɐ g l a l ɐ r u ʔ s i ʤ ɑ ʃ 
[220.075]
<no-speech> 
[220.875]
t ɐ s n ɐ g ʔ ɐ n o <hes> n ɐ g t a t ɐ n o ŋ t ɐ n u ŋ <laugh> l a ʔ a ŋ 
[224.435]
<no-speech> 
[226.315]
s i n u <no-speech> s i g u r o ʔ i s t aɪ l m o n ɐ k i k i t a k a n i l a ʔ i n a ʔ ɐ n u s i r i j ə n 
[231.475]
<no-speech> 
[232.695]
t ɐ s ʔ ɐ n u s i <no-speech> m ɐ ŋ b ɛ n s a b e n i j a ʔ ɐ ŋ ʔ ɐ n u d aʊ n i ʤ ɑ ʃ ʔ ɐ ŋ t a p a ŋ <laugh> d aʊ s i ʔ ɐ n u ʔ ɐ s t i g d aʊ s a b e n i ʔ a t e g i g i ŋ n ɐ k ɐ p ɐ t u p a d aʊ <laugh> 
[242.775]
<no-speech> 
[244.795]
<no-speech> 
[245.325]
<no-speech> 
[250.115]
<laugh> g ɐ n u n 
[252.675]
<no-speech> 
[254.005]
<no-speech> 
[254.475]
<no-speech> 
[256.554875]
ʔ ɐ n u s i l ɑ k d i b a p i n ɐ j u s a n n j o 
[258.935]
<no-speech> 
[260.485]
s i n u n ɐ g p a j o s 
[261.655]
<no-speech> 
[272.725]
ʔ a 
[273.395]
<no-speech> 
[274.795]
p a n u j a ʔ a n m e p e r a k a ʤ a ʔ a n p ɐ ŋ ʔ ɐ n u 
[276.785]
<no-speech> 
[277.755]
<int> n ə d i n m e p e r a k a <no-speech> p ɐ ŋ ʔ ɐ n u 
[282.445]
<no-speech> 
[288.145]
<no-speech> 
[288.915]
<no-speech> 
[298.58]
<no-speech> 
[308.245]
<no-speech> 
[308.955]
<no-speech> 
[310.575]
<no-speech> 
[310.935]
<no-speech> 
[312.005]
<no-speech> 
[312.925]
<no-speech> 
[314.125]
ʔ o 
[314.885]
<no-speech> 
[317.875]
<int> h ɐ l a ʔ ɐ n d i t o r e n s u m ɐ m a ʔ s ɐ <no-speech> t ɐ ŋ a 
[322.515]
<no-speech> 
[327.845]
ʔ ɐ l a ʔ l u m ɐ b a s ʔ ɐ k o d i t u l a ʔ a ŋ s ɐ ʔ ɐ n u s ɐ b ɐ l k o n <int> l u m ɐ b a s ʔ ɐ k o d i t u l a ʔ a ŋ s ɐ l i k u d 
[333.075]
<no-speech> 
[336.445]
<no-speech> 
[337.185]
<no-speech> 
[338.485]
p a r a 
[339.165]
<no-speech> 
[340.335]
ʔ o b a 
[342.365]
<no-speech> 
[344.345]
d o n k a s ɐ l o b d i b a ʔ ɐ l ɐ ŋ <int> s ɪ g n ə l 
[346.115]
<no-speech> 
[347.105]
m ɐ g k o k o m p j u t ə r s ɐ t a s 
[348.775]
<no-speech> 
[354.225]
<int> ʔ o 
[355.515]
<no-speech> 
[356.485]
<int> ʔ ɐ n u j o ʔ o n j o ʔ o ŋ l ɐ h a t <int> 
[359.665]
<no-speech> 
[361.455]
<sta> l i m a l a ʔ a ŋ ʔ ɐ ŋ l oʊ d n i j a ŋ aɪ ʔ o n 
[364.305]
<no-speech> 
[365.385]
<sta> m e b a g o b a m e b a g o b a 
[369.985]
<no-speech> 
[371.015]
ʔ a s i g e 
[372.485]
<no-speech> 
[374.475]
m e k u h a b æ ŋ p ɪ ʧ ə r d o n 
[376.165]
<no-speech> 
[378.255]
<no-speech> 
[378.605]
<no-speech> 
[382.935]
<no-speech> 
[383.285]
<no-speech> 
[384.575]
<sta> ʔ a 
[386.715]
<no-speech> 
[387.595]
<sta> ʔ o 
[389.785]
<no-speech> 
[397.955]
<no-speech> 
[398.925]
<no-speech> 
[399.825]
t ɐ s ʔ o b u m i l i d aʊ n ɐ ŋ ʔ ɐ n u 
[402.085]
<no-speech> 
[403.835]
s ɑ f t d r ɪ ŋ k 
[404.585]
<no-speech> 
[406.835]
s ɑ f t d r ɪ ŋ k 
[407.645]
<no-speech> 
[409.945]
ʔ o <int> 
[411.465]
<no-speech> 
[415.825]
<no-speech> 
[416.325]
<no-speech> 
[417.945]
h i n d e ʔ <no-speech> k u m u h a s i ʤ oʊ s i s ɐ t a s 
[420.555]
<no-speech> 
[421.635]
d i b a m e r ʔ o n k a ʔ i n i w a n <no-speech> <int> m e r ʔ o n k ɐ ŋ ʔ i n i w a n s ɐ t a s 
[426.055]
<no-speech> 
[428.055]
ʔ o d o n k o s i j a ʔ i n u t <hes> n u ŋ ʔ ɐ n u ʔ i n u t u s a n k o s i j a k u m u h a d o n 
[431.655]
<no-speech> 
[438.045]
<int> ʔ ɐ n u ŋ g i n a g ɐ w a ʔ <laugh> n i ʤ ɑ ʃ s a b e k o ʔ ɐ l a ʔ ʔ ɐ k o ŋ p ɐ m p ɐ s j a l 
[442.245]
<no-speech> 
[448.085]
ʔ ɐ l ɐ ŋ p æ m p ə r s j a ʔ a n 
[449.685]
<no-speech> 
[450.575]
h i n d e ʔ ʔ ɐ l ɐ ŋ p æ m p ə r s j a ʔ a n 
[452.385]
<no-speech> 
[459.985]
h i n d e ʔ s a b e k o m e p æ m p ə r s j o ʔ o n 
[462.175]
<no-speech> 
[464.885]
ʔ ɐ l ɐ ŋ p æ m p ə r s ʔ ɐ l ɐ ŋ <int> p æ m p ə r s s i ʤ ɑ ʃ <int> 
[467.725]
<no-speech> 
[469.135]
ʔ i j a k 
[469.495]
<no-speech> 
[471.915]
<int> ʔ ɐ l a ʔ b a k ɐ j u ŋ g a n u ŋ k ʌ s t ə m ə r 
[473.585]
<no-speech> 
[476.125]
ʔ a 
[476.675]
<no-speech> 
[478.505]
ʔ ɐ ŋ 
[478.955]
<no-speech> 
[481.715]
ʔ a 
[482.535]
<no-speech> 
[489.845]
<laugh> s a b e k o ŋ a ʔ s a b e k o ʔ a t e ʤ i ŋ ʤ i ŋ ʔ a t e ʤ i ŋ ʤ i ŋ s i l ʌ k i p ɐ n u h i n m o ʔ o p ɐ g u p i t a n m o p a r a n ɐ m a n m ɐ g m u k ɐ ŋ t a ʔ o 
[498.955]
<no-speech> 
[500.215]
j o ʔ o n b a <no-speech> s a b e k o 
[502.485]
<no-speech> 
[503.445]
ʔ o ŋ aɪ ʔ o ŋ s ʌ m ə r p ɐ ʔ i k l i ʔ a n n ɐ ŋ b u h o k 
[506.065]
<no-speech> 
[507.725]
<no-speech> 
[508.495]
<no-speech> 
[513.555]
m e r ʔ o n 
[514.564875]
<no-speech> 
[515.925]
j o ʔ o ŋ ʔ ɐ n u <hes> n ɐ l i g o ʔ k a j a j a ʔ a n s ɐ s æ k s i d i t u 
[519.515]
<no-speech> 
[520.884875]
n ɐ l i g o ʔ k a j a j a ʔ a n d i t u s i l a k s m e <no-speech> ʔ ɐ l a m m o b a <laugh> n ɐ t a t ɐ w a ʔ ɐ k o <hes> <no-speech> n ɐ k ɐ p a m p ə r s 
[529.035]
<no-speech> 
[530.125]
s i <hes> l a k s m e ʔ æ t s ɐ k a s i n a n aɪ 
[532.515]
p æ r ə n oɪ d 
[533.345]
k ɐ s e ʔ ɐ n u s i l a k ɪ ŋ k ɐ s e d aʊ ʔ ɐ n u <hes> d aʊ b a k a b i g l a ʔ d aʊ h i h i ŋ e ʔ 
[536.585]
<no-speech> 
[538.295]
n ɐ k ɐ p a m p ə r s <laugh> t ɐ s ʔ ɐ l a m m o <no-speech> p i n ɐ ʔ u l i t n i ʔ a t e ʤ i ŋ ʤ i ŋ n ɐ ŋ l i g o ʔ j o ʔ o n k ɐ s e j o ʔ o ŋ g i n ɐ w a ʔ b u h o s n ɐ ŋ b u h o s n ɐ ŋ <int> t u b e g d i ʔ i n a j o s n ɐ ŋ l i g o ʔ 
[547.725]
<no-speech> 
[550.985]
p a r ɐ ŋ b ɐ l iʊ t ɐ s h i n d e ʔ p a n ɐ g p ɐ l i t n ɐ ŋ d ɐ m e t 
[553.995]
<no-speech> 
[556.715]
n i n u n i 
[558.065]
<no-speech> 
[558.905]
s i ʔ eɪ n ʤ ə l s ʔ æ t r i j ə n k ɐ n i n a 
[560.765]
<no-speech> 
[561.885]
h i n d e ʔ n ɐ m a n <no-speech> ʔ i n a ʔ ɐ n u l a ʔ a ŋ m i n s a n n i ʤ ɑ ʃ s i ʔ ɐ n u s i r i j ə n <no-speech> n ɐ k i k i t a ŋ a ʔ n i n a n aɪ <hes> 
[568.375]
<no-speech> 
[569.905]
<int> t ɐ s ʔ ɐ n u <no-speech> t ɐ s 
[572.995]
<no-speech> 
[574.035]
<int> ʔ ɐ l a ʔ ʔ ɐ ŋ d ɐ l a n i n a n aɪ m ɐ ŋ a ʔ d ɐ m e t p a r a k e ʤ ʌ s t ɪ n ʔ o n t i ʔ l a ʔ a ŋ n ɐ m a n j o ʔ o n <hes> d ɐ l w ɐ ŋ t i s e r t j a t a ʔ j o ʔ o n t ɐ s s ɐ p a t o s n i ʤ ʌ s t ɪ n 
[584.415]
<no-speech> 
[587.545]
t ɐ s <no-speech> j o ʔ o ŋ ʔ ɐ n u p o l b o 
[590.425]
s i r a ʔ 
[591.515]
p o l b o 
[592.405]
<no-speech> 
[593.215]
j o ʔ o ŋ k r ɪ s t ə l <no-speech> t ɐ s j o ʔ o ŋ p e r l 
[596.215]
<no-speech> 
[598.945]
h i n d e ʔ n j o p a b a b i n u k s a n 
[600.135]
s t ɑ p 
[600.42]
