[0.0]
<no-speech> 
[7.0525]
<no-speech> 
[14.105]
h ɛ l oʊ ʔ o <sta> <breath> k u m u s t a n ɐ m e ʔ ɐ n u m e l i b r i ŋ t a w a g d i t u <hes> n ɐ p ɐ s a l i ʔ ɐ k o d i t u s ɐ b i g a j a n n ɐ ŋ b i j a j a ʔ ʔ o <breath> 
[24.885]
<no-speech> 
[26.575]
ʔ o ʔ e t o j o ʔ o ŋ k ɐ n i n a j o ʔ o ŋ s i n ɐ s a b i k o s ɐ j u ʔ ə m h ə m ʔ ɐ n u ʔ ɐ n u g i n a g ɐ w a ʔ m o ŋ aɪ ʔ o n ʤ a ʔ a n 
[32.235]
<no-speech> 
[33.795]
ʔ a 
[34.405]
<no-speech> 
[36.275]
ʔ ɐ n u n o <breath> 
[37.245]
<no-speech> 
[40.155]
b ɐ s t a <oov> b ɐ s t a n ɐ n d i t o s i l a n ɐ n d i t o s i l a s i p ɛ n s i p ɐ ʧ i ŋ ʔ o 
[45.105]
<no-speech> 
[45.925]
ʔ ɐ n d i t o r e n j o ʔ o ŋ ʔ ɐ n u j o ʔ o ŋ s i ʔ ɐ n u s i ʔ e n ɐ <int> 
[50.755]
<no-speech> 
[52.765]
ʔ a j o s n ɐ m a n m e ʤ u n ɐ g k a ʔ i n u m a n 
[54.865]
<no-speech> 
[56.495]
ʔ a j o s ŋ a ʔ n ɐ g k a ʔ i n u m a n 
[59.005]
<no-speech> 
[61.045]
h i n d e ʔ k ɐ m e n ɐ k ɐ p ɐ g l i n i s d a h i l <hes> s a b e n i n a n aɪ s a b e n i n a n aɪ ʔ ɐ n u n ɐ l a ʔ a ŋ d aʊ k ɐ s e m e g i n a g ɐ w ɐ ŋ <breath> m e g i n a g ɐ w a ʔ p a d o n j o ʔ o ŋ ʔ ɐ n u <hes> n ɐ g p a p ɐ ʔ u p a k a j a 
[71.525]
h i n d e ʔ k ɐ m e m u n a p i n ɐ g p ɐ l i n i s s a b e <no-speech> s ɐ s u s u n u d n ɐ l a ʔ a ŋ <breath> d aʊ t ɐ s j o ʔ o n n ɐ g j a j a s i l a m a r l ə n <breath> s i l a ʔ ɐ n u n ɐ g ʔ i n u m a n ʔ o j o ʔ o n <no-speech> g a b ʔ i n ɐ ŋ a ʔ k ɐ m e n ɐ k ɐ ʔ u w i ʔ <hes> 
[83.105]
m ɐ ŋ a ʔ b a n d ɐ ŋ t w ɛ l v θ ɜ r t i n ɐ j a t a ʔ ʔ o ʔ ɐ n u <hes> n ɐ p u j a t 
[87.565]
<no-speech> 
[88.685]
n ɐ p u j a t p a j o ʔ o ŋ ʔ ɐ n u 
[89.855]
<no-speech> 
[91.255]
<hes> b a k a s i g u r o s ɐ <hes> p o r t i n ʔ o k a j a s ɐ ʔ ɐ n u 
[94.705]
<no-speech> 
[96.885]
b a k a ŋ a ʔ s ɐ p o r t i n b a k a b a k a m ɐ g l i n i s <hes> j o ʔ o n ʔ o j o ʔ o ŋ m ɐ ŋ a ʔ g ɐ n o n <breath> ʔ o k a j a p a g k u k u h a n i n n ɐ ʔ ɐ ŋ r ɛ f k ɐ ʔ u s a p i n n ɐ l a ʔ a ŋ s i k æ θ r ɪ n d u n m u n a k ɐ s e m e ʔ ɐ p ɐ r ɐ d o r p a n ɐ n ɐ k ɐ h a r a ŋ 
[107.685]
<no-speech> 
[108.555]
t a t ɐ ŋ g ɐ l i n p a j o ʔ o n <hes> b u m i l i s i ʔ a r d i n ɐ ŋ r ɛ f 
[111.765]
<no-speech> 
[112.665]
h i r a p n ɐ h i r a p ŋ a ʔ k ɐ m e m a ʔ i p a s o k d o n <hes> <breath> d a h i l n ɐ k ɐ h a r a ŋ j o ʔ o ŋ ʔ ɐ p ɐ r ɐ d o r d o n k i l a k u j a r ɑ ʤ ə r <no-speech> t ɐ s p ɐ g k ɐ t a p u s d o n k i l a ʔ ɐ n u <breath> k u k u h a n i n d u n p u p u n t a n ɐ k o k i l a k u j a r ɑ ʤ ə r k u k u h a n i n k o n ɐ j o ʔ o ŋ m ɐ ŋ a ʔ w a j ə r 
[124.515]
d o n <breath> j o ʔ o ŋ m ɐ ŋ a ʔ ʔ ɐ n u <int> 
[126.925]
<no-speech> 
[130.915]
t ɐ s s i ʔ ɐ n u s i ʔ æ k s ə l 
[132.425]
<no-speech> 
[134.515]
ʔ a s a b e n i n ɐ ŋ r u b i p e d e n ɐ d aʊ 
[136.755]
<no-speech> 
[138.155]
ʔ ə m h ə m p a g b a j a ʔ a n p ɐ g k a ʔ ɐ n u <oov> <no-speech> 
[142.195]
ʔ o ʔ a n h i n k o n ɐ l a ʔ a ŋ j o ʔ o ŋ p i n t o ʔ r u n t u t u ŋ k ɐ b i n k o n ɐ l a ʔ a ŋ j o ʔ o ŋ p i n t o ʔ 
[145.585]
<no-speech> 
[147.325]
ʔ ɐ n u n o 
[148.015]
<no-speech> 
[150.795]
<hes> s a b e n i j a <int> ʔ o k ɐ s e s ɐ k ɐ s e d u m ɐ t i ŋ s i θ i j oʊ d u n n ɐ n d u n s i θ i j oʊ k ɐ g ɐ b e 
[157.985]
<no-speech> 
[158.985]
ʔ o 
[159.565]
<no-speech> 
[165.255]
<hes> s a b e n i r u b i 
[166.355]
<no-speech> 
[167.375]
<hes> b a k a d i n ɐ k a d u m ɐ t i ŋ s i θ i j oʊ d o n d u m ɐ t i ŋ s i θ i j oʊ k ɐ g ɐ b e 
[172.075]
<no-speech> 
[174.405]
s i θ i j oʊ <sta> d u m ɐ t i ŋ k ɐ g ɐ b e ʔ o s i j a l a ʔ a ŋ m ɐ g ʔ i s a n ɐ g k ɐ ʔ u s a p k ɐ m e n ɐ g k ɐ k u w e n t u h a n k o n t e ʔ g ɐ n j a n m ɐ ŋ a ʔ <no-speech> ʔ ɐ l a ʔ n ɐ m a n ʔ ɐ l a ʔ n ɐ d aʊ b a l a k b u m ɐ l i k s i k u j a r ɑ ʤ ə r d o n s ɐ b a h aɪ 
[185.265]
<no-speech> 
[186.425]
<hes> d i k o n ɐ m a n n ɐ s a b i n ɐ <hes> b u b u k s a n b a h aɪ j o ʔ o ŋ k u w a r t o n i l a p a r a k u h a n i n k o j o ʔ o ŋ m ɐ ŋ a ʔ w a j ə r 
[192.055]
<no-speech> 
[192.915]
p ɐ t i j o ʔ o ŋ m ɐ ŋ a ʔ ʔ ɐ n u 
[193.625]
<no-speech> 
[194.625]
ʔ ɐ l a ʔ j o ʔ o n k o n t i ŋ ʔ ɐ n u n ɐ n a l o d aʊ j o ʔ o ŋ ʔ ɐ n a k n i j a s ɐ k ɐ n t ɐ h a n n u ŋ n ɐ k ɐ r a n s ɐ t i n a s a t i b i s i l a n u ŋ ʔ ɐ n u 
[202.705]
<no-speech> 
[203.565]
ʧ æ n ə l p aɪ b <breath> 
[205.135]
<no-speech> 
[206.395]
ʔ ə m h ə m k ɐ s e j o ʔ o ŋ s i p a r i ŋ r ɑ n i k ɐ ʔ u s a p n a m i n k ɐ k u w e n t u h a n 
[211.025]
<no-speech> 
[211.835]
s ɐ m ɐ h a n 
[212.465]
<no-speech> 
[213.315]
ʔ i k aʊ ʔ ɐ n u g i n a g ɐ w a ʔ m o ʤ a ʔ a n ŋ aɪ ʔ o n 
[215.455]
<no-speech> 
[218.355]
ʔ ɐ l a ʔ p a <hes> ʔ ɐ l a ʔ p ɐ ŋ <breath> 
[220.115]
<no-speech> 
[221.535]
ʔ ɐ l a ʔ p a ʔ ɐ l a ʔ p ɐ ŋ t a w a g s i p a r i ŋ m i g <no-speech> ʔ o k o k o n t ɐ k i n n ɐ l a ʔ a ŋ d aʊ <no-speech> ʔ o n ɐ n d u n l a ʔ a ŋ s ɐ b a h aɪ ŋ aɪ ʔ o n j o ʔ o n s ɐ b i j e n a n 
[228.235]
<no-speech> 
[229.985]
p ɐ g k a m e r ʔ o n n ɐ ʔ o p e r o d i r e t s o n ɐ j o ʔ o ŋ ʔ ɐ n u ʔ æ d d i r e t s o n i j a d i r e t s o n ɐ j o ʔ o ŋ <breath> t r ɐ b a h u n i j a 
[235.885]
<no-speech> 
[236.725]
j o ʔ o n ŋ a ʔ l a ʔ a ŋ ʔ i n i n t aɪ l a ʔ a ŋ n ɐ ŋ ʔ ɐ n u <breath> t a w a g n i p a r i ŋ m i g s ɐ ʔ ɐ n u p a k a s u m ɐ t a t ɐ g ɐ l a n p a j u n 
[243.505]
<no-speech> 
[244.805]
ʔ ə m h ə m ʔ ə m h ə m <hes> ʔ i k aʊ ʔ ɐ n u j o ʔ o ŋ ʔ ɐ n u k u m u s t a n ɐ 
[248.055]
<no-speech> 
[250.595]
ʔ ə m h ə m ʔ ə m h ə m <breath> j o ʔ o ŋ m ɐ ŋ a ʔ g ɐ n o n ʔ o ʔ i n i n t aɪ n i j a n ɐ l a ʔ a ŋ 
[253.645]
<no-speech> 
[255.495]
<int> j o ʔ o ŋ ʔ ɐ l e n ʔ ɐ n u ŋ p ɐ p a n o 
[257.695]
<no-speech> 
[259.295]
ʔ ɐ l e n j o ʔ o ŋ p ɐ p a n o 
[260.294875]
<no-speech> 
[263.975]
j o ʔ o ŋ <hes> 
[264.555]
<no-speech> 
[270.545]
ʔ o s i j e m p r e <hes> ʔ i ʔ ɐ n o <hes> ʔ i n t ɐ j i n n ɐ l a ʔ a ŋ j o ʔ o n n i p a r ɑ n i 
[274.085]
<no-speech> 
[276.045]
ʔ a ʔ o j o ʔ o ŋ m ɐ ŋ a ʔ g ɐ n j ɐ ŋ ʔ ɐ n u <no-speech> k a j a l a ʔ a ŋ <click> k l a r o s i j e m p r e j o ʔ o ŋ m ɐ ŋ a ʔ ʔ ɐ n u 
[280.075]
<no-speech> 
[281.205]
s i j a n ɐ b ɐ h a l a ʔ r o n <int> j o ʔ o ŋ m ɐ ŋ a ʔ g a g ɐ m i t a n n i j a ʔ ɐ n u 
[284.315]
<no-speech> 
[286.075]
<no-speech> 
[286.425]
<no-speech> 
[288.625]
h i n d e ʔ n ɐ m a n b a k a m ɐ m b o n <breath> ʔ ɐ l a ʔ n a s a l o b k ɐ s e ʔ ɐ k o <hes> d i k o n ɐ k i k i t a <hes> 
[292.605]
<no-speech> 
[293.445]
ʔ a ʔ u m u l a n n ɐ ʤ a ʔ a n 
[294.635]
<no-speech> 
[296.155]
<hes> <int> <hes> n a s a l o b ʔ ɐ k o h i n d e ʔ k o ʔ ɐ l a m k u ŋ ʔ u m a m b o n ʔ o ʔ ɐ n u <no-speech> h i n d e ʔ k o n ɐ m a n ʔ ɐ l a m <hes> j o ʔ o ŋ m ɐ ŋ a ʔ ʔ ɐ n u 
[302.235]
<no-speech> 
[303.545]
ʔ ə m h ə m 
[304.175]
<no-speech> 
[305.055]
ʔ o ŋ a ʔ <hes> ʔ a <laugh> 
[306.515]
<no-speech> 
[307.465]
ʔ ə m h ə m <breath> 
[308.345]
<no-speech> 
[309.265]
j u n ŋ a ʔ m ɐ ŋ a ʔ ʔ ɐ n u <breath> k o n t i ŋ ʔ o r a s n ɐ l a ʔ a ŋ t o 
[312.285]
<no-speech> 
[313.905]
ʔ a <breath> 
[314.625]
<no-speech> 
[315.575]
ʔ ɐ n u ʔ ɐ n o <hes> n ɐ g s u n d o ʔ k a p a 
[317.515]
<no-speech> 
[320.575]
ʔ ɐ k o m a m ɐ j a ʔ r e n m ɐ g s u s u n d o ʔ ʔ ɐ k o <hes> 
[322.465]
<no-speech> 
[323.275]
m ɐ ŋ a ʔ ʔ ɐ l ɐ s i ŋ k o m ɐ ŋ a ʔ g ɐ n j a n j o ʔ o ŋ m ɐ ŋ a ʔ ʔ ɐ n u <hes> p ɐ g k ɐ t a p u s m ɐ g ʔ u s a p m ɐ g s u s u n d o ʔ 
[327.355]
<no-speech> 
[329.465]
ʔ o 
[329.985]
<no-speech> 
[333.015]
s i n u j o ʔ o n 
[333.705]
<no-speech> 
[335.265]
<hes> j o ʔ o ŋ s ɐ <int> 
[337.285]
<no-speech> 
[340.275]
k u h a n i n m o j o ʔ o ŋ ʔ ɐ n u ʔ a 
[341.595]
<no-speech> 
[342.595]
j o ʔ o ŋ w ʌ n h ʌ n d r ə d k u h a n i n m o d o n k e ʔ ɐ n u ʔ a 
[344.885]
<no-speech> 
[347.575]
k e l o r d e s p a r a ʔ ɐ n u 
[349.115]
<no-speech> 
[350.655]
<oov> m e r ʔ o n ʔ i b i b i g aɪ s ɐ ʔ a k e n s i ʔ ɐ n u 
[353.115]
<no-speech> 
[354.195]
s i k ɐ g a w a d <no-speech> m e t i j e k e d aʊ ʔ i b i b i g aɪ s a b e g ɐ n o n <breath> j o ʔ o ŋ m ɐ ŋ a ʔ ʔ ɐ n u <laugh> k ɐ g a w a d d ɐ g r i ŋ 
[360.635]
<no-speech> 
[361.605]
k ɐ g a w a d d ɐ g r i ŋ ʔ i b i b i g aɪ d aʊ j o ʔ o ŋ ʔ ɐ n u n i j a j o ʔ o ŋ n ɐ k u h a n i j ɐ ŋ ʔ ɐ n u s i k ɐ g a w a d ʔ ɐ g r i ŋ p e n j a 
[367.465]
<no-speech> 
[368.495]
ʔ i b i b i g aɪ d aʊ j o ʔ o ŋ t i j e k e <breath> s a b e n i j a <no-speech> s ɐ ʔ a k e n ŋ a ʔ 
[372.655]
<no-speech> 
[373.805]
ʔ ɐɪ ʔ ɐ l ɐ s t r e s p a l a ʔ j o ʔ o n ʔ o ʔ o p e r o w ɐ g k a m ɐ ʔ i ŋ aɪ s ɐ k ɐ n i l a ʔ a 
[380.345]
<no-speech> 
[381.215]
p a r a b i g j a n ʔ ɐ k o n i l o r d e s n ɐ ŋ w ʌ n h ʌ n d r ə d 
[383.685]
<no-speech> 
[384.725]
ʔ ə m h ə m 
[385.325]
<no-speech> 
[386.355]
ʔ ɐ l ɐ s t r e s ʔ ɐ l ɐ s t r e s k ɐ m e ʔ a ʔ ɐ l e s n o n <hes> n i k ɐ g a w a d <hes> 
[389.375]
<no-speech> 
[390.785]
m ɐ l a p e t n ɐ m ɐ ŋ a ʔ ʔ ɐ l ɐ s t r e s j a t a ʔ 
[392.455]
<no-speech> 
[393.865]
ʔ o ʔ e t o b a k a s i g u r o ʔ o 
[396.775]
<no-speech> 
[397.835]
ʔ o ŋ a ʔ <hes> k ɐ s e d o n p a ŋ a ʔ j o ʔ o n <hes> p i n u n t ɐ h a n s ɐ m e ʔ ɐ n u 
[400.515]
<no-speech> 
[402.925]
<hes> p ɐ p u n t a k a r o n <breath> 
[404.215]
<no-speech> 
[406.515]
ʔ o s i g e s i g e s i g e s i g e d a d a n a n n ɐ k i t a ʤ a ʔ a n 
[408.625]
<no-speech> 
[410.745]
ʔ a d u n k i t a ʔ i d a d a n s ɐ m ɐ r j a k l a r a ʔ o s i g e 
[413.605]
<no-speech> 
[414.785]
ʔ ə m h ə m ʔ ə m h ə m 
[415.415]
<no-speech> 
[417.795]
<hes> ʔ oʊ k eɪ h o ʔ 
[419.255]
<no-speech> 
[420.875]
ʔ ə m h ə m <breath> 
[421.495]
<no-speech> 
[423.135]
ʔ o s i g e s i g e s i g e m a m ɐ j a ʔ p ɐ g ʔ ɐ n o h i n d e ʔ p a ʔ a h i n d e ʔ p a h i n d e ʔ p a m ɐ r a m e p ɐ ŋ s a s ɐ b i h i n ʔ ɐ n u 
[429.425]
<no-speech> 
[430.415]
j o ʔ o n m ɐ ŋ a ʔ <hes> t u ŋ k u l s ɐ ʔ ɐ n u m o t u ŋ k u l n ɐ m a n s ɐ ʔ ɐ n u 
[434.215]
<no-speech> 
[436.905]
s a n j o ʔ o n 
[437.715]
<no-speech> 
[440.495]
ʔ ɐ k o <hes> p e r a n ɐ n ɐ m a n j a ʔ a n 
[443.145]
<no-speech> 
[443.945]
m ɐ g k a n u b a b ɐ j a r a n s ɐ g r æ ʤ ə w eɪ ʃ ə n 
[446.125]
<no-speech> 
[448.815]
j o ʔ o ŋ k i l a ʔ ɐ n u k i l a ʔ ɛ l ə ʔ o k i l a ʔ ɛ l ə 
[451.355]
<no-speech> 
[453.955]
h ɛ l oʊ 
[454.585]
<no-speech> 
[456.225]
w ʌ n h ʌ n d r ə d f ɪ f t i 
[457.575]
<no-speech> 
[459.325]
ʔ o t ɐ s ʔ ɐ n u p a j o ʔ o ŋ ʔ ɐ n u 
[461.525]
<no-speech> 
[466.845]
b ɐ t w a g b ɐ t <oov> m ɐ g t u t o g a p a d a p a t w a g n ɐ m ɐ g t o g a ʔ ɐ l a ʔ n ɐ m a n p e r a m ɐ g <breath> m ɐ g p a p ɐ t o g a p a <int> <oov> d a p a t s i n a b e m o n ɐ l a ʔ a ŋ k e m æ m k æ θ i 
[475.655]
<no-speech> 
[476.865]
ʔ a n ɐ g b u t u h a n k ɐ j u 
[478.045]
<no-speech> 
[483.335]
ʔ ɐ l ɐ ŋ ʔ ɐ n u s i j e m p r e ʔ ɐ l ɐ ŋ j o ʔ o ŋ ʔ i b a r e n <int> j o ʔ o ŋ ʔ i b a n ɐ m a n ʔ ɐ l ɐ ŋ n ɐ m a n ʔ i b ɐ b a j a d d o n <hes> k a j a ʔ ɐ n u 
[490.175]
<no-speech> 
[494.165]
s i p i ŋ ʔ ɐ l a ʔ 
[495.185]
<no-speech> 
[496.185]
s i n u ŋ <no-speech> n ɐ n a l o p a j o ʔ o ŋ ʔ ɐ n u m e t o k a k a j a ʔ ɐ n u 
[499.205]
<no-speech> 
[501.035]
<hes> k ɐ s e k a j ɐ ŋ k a j a n ɐ m a n n i l a j o ʔ o n s i l a m e m ɐ ŋ a ʔ ʔ ɐ n u <hes> k a j a 
[504.225]
<no-speech> 
[505.345]
p e r o <hes> p e d e k a h e t ʔ ɐ l a ʔ 
[507.115]
<no-speech> 
[509.125]
p e d e n ɐ m a n j a t a ʔ k a h e t ʔ ɐ l a ʔ <hes> s ɐ s a b e n i s a s ɐ b i h i n n ɐ l a ʔ a ŋ k e m æ m k æ θ i d i b a 
[512.995]
<no-speech> 
[513.865]
j o ʔ o ŋ m ɐ ŋ a ʔ ʔ ɐ n u 
[514.655]
<no-speech> 
[516.115]
j o ʔ o ŋ m ɐ ŋ a ʔ <hes> ʔ ɐ l ɐ ŋ t o g a <int> t ɐ s ʔ ɐ n u ŋ ʔ ɐ n u s a n d aʊ g a g ɐ w i n j o ʔ o ŋ g r æ ʤ ə w eɪ ʃ ə n n i l a 
[521.655]
<no-speech> 
[522.915]
h ɛ l oʊ 
[523.515]
<no-speech> 
[526.605]
s a n 
[527.205]
<no-speech> 
[530.945]
s a n s ɐ m e t ɐ p a t l a ʔ a ŋ <int> s ɐ m e t ɐ p a t l a ʔ a ŋ n ɐ ŋ d eɪ k ɛ r 
[534.215]
<no-speech> 
[538.245]
ʔ ə m h ə m 
[538.805]
<no-speech> 
[539.755]
<no-speech> 
[540.625]
<no-speech> 
[543.755]
s i j e m p r e k a j a n a g d u n n ɐ g ʔ a r a l <hes> ʔ ɐ l ɐ ŋ a n n ɐ m a n ʔ ɐ ŋ l a j u l a j o ʔ p u p u n t a p a n ɐ ŋ s ɛ n t ə r 
[549.185]
<no-speech> 
[553.265]
b u l ɐ k l a k ʔ a ʤ a ʔ a n s ɐ m e <hes> ʔ ɐ n u s ɐ d ɐ ŋ w a 
[556.475]
<no-speech> 
[557.415]
ʔ ə m h ə m 
[558.025]
<no-speech> 
[559.295]
p a r ɐ ŋ b a b ɐ w a s a n <int> 
[560.445]
<no-speech> 
[562.915]
p a r a m ɐ b ɐ w a s a n j o ʔ o ŋ g a s t o s s i j e m p r e ʔ ɐ n u h i n n ɐ n i m æ m k æ θ i j u n j o ʔ o ŋ h ɐ l i m b a w ɐ ŋ ʔ i b ɐ b a w a s n ɐ s ɐ j u j o ʔ o n 
[570.725]
<no-speech> 
[574.175]
m ɐ ŋ a ʔ p a <no-speech> 
[576.505]
<hes> b i b i l i p a n ɐ ŋ ʔ ɐ n u j o ʔ o ŋ m ɐ ŋ a ʔ p ɐ n d i s aɪ n s ɐ ʔ ɐ n u 
[580.185]
<no-speech> 
[583.365]
ʔ ə m h ə m 
[583.995]
<no-speech> 
[585.845]
ʔ ɐɪ <oov> ʔ i k aʊ ʔ ɐ ŋ <hes> m ɐ g s a s ɐ l i t a ʔ b a k e t n ɐ m a n s i n u n ɐ g s a b i 
[589.575]
<no-speech> 
[591.235]
s i n u s a b e 
[592.045]
<no-speech> 
[595.585]
d ɐ l w a s a n <int> 
[596.445]
<no-speech> 
[597.465]
ʔ a 
[597.835]
<no-speech> 
[599.26]
