[0.0]
<no-speech> 
[0.765]
<no-speech> 
[1.825]
<no-speech> 
[2.955]
<no-speech> 
[5.235]
<no-speech> 
[5.755]
<no-speech> 
[7.075]
<no-speech> 
[10.405]
<no-speech> 
[16.245]
<no-speech> 
[26.355]
<no-speech> 
[27.575]
<no-speech> 
[28.075]
<no-speech> 
[28.945]
t o l ʔ ɐ n u t o l <int> 
[30.955]
<no-speech> 
[32.315]
h ɛ l oʊ 
[32.935]
<no-speech> 
[34.615]
ʔ oʊ n ɐ g ʔ i s t a r t n ɐ b a k ɐ j u <sta> 
[36.575]
<no-speech> 
[39.125]
w e 
[39.715]
<no-speech> 
[41.445]
ʔ a 
[41.935]
<no-speech> 
[43.535]
d i t u p a ʔ ɐ k o <hes> <sta> n a s a b i j a h e p a 
[45.195]
<no-speech> 
[47.815]
m ɐ ŋ a ʔ θ ɜ r t i m ɪ n ɪ t s m ɐ ŋ a ʔ θ ɜ r t i m ɪ n ɪ t s p ɐ p u n t a n ɐ ʔ ɐ k o ʤ a ʔ a n 
[50.615]
<no-speech> 
[51.935]
s ɐ ʔ e d s a p a l a ʔ a ŋ ʔ e d s a 
[53.435]
<no-speech> 
[55.945]
b a k a p ɐ g b ɐ l i k <no-speech> p ɐ g b ɐ l i k k o s ɐ ʔ ɐ l a ʔ n ɐ j a ʔ a n ʔ a 
[58.295]
<no-speech> 
[60.625]
ʔ ɐ n u ŋ p u l u t a n n a t e n ʤ a ʔ a n 
[61.885]
<no-speech> 
[64.635]
ʔ a 
[65.145]
<no-speech> 
[67.715]
ʔ ɐ l e n 
[68.275]
<no-speech> 
[70.285]
n ɐ g p ɐ b i l i ʔ ɐ k o n ɐ ŋ <no-speech> d a p a t n ɐ g p ɐ b i l i k ɐ j u n ɐ ŋ s ɑ s ə ʤ ʔ a p ɐ b u r i t u k o j a ʔ a n 
[73.855]
<no-speech> 
[79.255]
ʔ oʊ s i g e s i g e <no-speech> <hes> s i n u ʔ ɐ ŋ n ɐ n d i d i ʤ a n 
[82.515]
<no-speech> 
[84.635]
ʔ e d s a 
[85.345]
<no-speech> 
[88.805]
b a n d ɐ ŋ ʔ ɐ n u k ɐ l ɐ j a n 
[90.545]
<no-speech> 
[93.775]
<sta> s ɐ b a g u ŋ p ɐ g a s a 
[96.265]
<no-speech> 
[98.265]
m e ʤ u <click> 
[98.965]
<no-speech> 
[100.625]
m ɐ b a g a l t u ŋ s i n ɐ k j a n 
[102.065]
<no-speech> 
[104.185]
ʔ o t r æ f ɪ k 
[105.225]
<no-speech> 
[107.345]
ʔ ɐ ŋ d a m e k ɐ s e r i t o ŋ ʔ ɐ n u <hes> t r æ f ɪ k l aɪ t 
[109.305]
<no-speech> 
[110.885]
ʔ o 
[111.495]
<no-speech> 
[112.525]
<no-speech> 
[112.985]
<no-speech> 
[114.195]
ʔ ɐ n u ŋ g i n a g ɐ w a ʔ n j o ʤ a ʔ a n 
[115.315]
<no-speech> 
[118.115]
<no-speech> 
[118.495]
<no-speech> 
[120.595]
ʔ ɐ l a ʔ b a t ɐ j u ŋ ʧ ɪ k s 
[121.855]
<no-speech> 
[125.275]
s i n u ŋ b ɐ b a ʔ e ʤ a ʔ a n 
[126.235]
<no-speech> 
[127.195]
s i n u 
[127.755]
<no-speech> 
[130.165]
s i n u ŋ a ʔ 
[130.795]
<no-speech> 
[132.565]
s i n u 
[133.155]
<no-speech> 
[140.805]
<no-speech> 
[141.235]
<no-speech> 
[142.415]
ʔ a ʔ ɐ l a ʔ n ɐ m a n t ɐ j u ŋ <no-speech> ʔ ɐ l a ʔ ʔ ɐ l a ʔ ʔ ɐ k o ŋ d ɐ l a 
[144.955]
<no-speech> 
[146.675]
p ɐ ʔ u w i n m o n ɐ j a ʔ a n 
[147.915]
<no-speech> 
[150.815]
<sta> w ɐ g n j o n ɐ l ɐ s i ŋ i n j a ʔ a n 
[152.625]
<no-speech> 
[154.245]
b a k a m ɐ g w ɐ l a ʔ 
[155.185]
<no-speech> 
[159.995]
ʔ ɐ n u h i n m o n ɐ m a n k u m p l e t o <no-speech> k u m p l e t o b a t r o p a ʤ a ʔ a n 
[162.465]
<no-speech> 
[166.635]
ʔ a 
[167.285]
<no-speech> 
[168.535]
<hes> m ɐ l a p e t n ɐ ʔ ɐ k o ʤ a ʔ a n m ɐ l a p e t n ɐ 
[170.125]
<no-speech> 
[171.975]
p ɐ p u n t a n ɐ <int> 
[172.745]
<no-speech> 
[173.545]
p ɐ p u n t a n ɐ <sta> m ɐ l a p e t n ɐ m e ʤ u t r a p e k ŋ a ʔ l a ʔ a ŋ d i t u <hes> 
[176.735]
<no-speech> 
[180.375]
ʔ o ʔ ɐ n u p a r e <sta> 
[181.225]
<no-speech> 
[182.785]
p a r ɐ ŋ s ɑ s ə ʤ s i j a 
[184.095]
<no-speech> 
[185.495]
<sta> j o ʔ o ŋ s ɑ s ə ʤ p ɐ g b ɐ l i k k o ʤ a ʔ a n m e r ʔ o n p a 
[190.345]
<no-speech> 
[192.045]
ʔ a t i r ɐ h a n n j o ʔ ɐ k o n ɐ ŋ s ɑ s ə ʤ 
[193.805]
<no-speech> 
[196.195]
<no-speech> 
[196.965]
<no-speech> 
[197.955]
<no-speech> 
[198.375]
<no-speech> 
[200.465]
m e ʤ u ʧ ɑ p i k a p a r e <int> 
[201.885]
<no-speech> 
[203.045]
ʔ a 
[203.585]
<no-speech> 
[211.755]
ʔ a 
[212.395]
<no-speech> 
[213.675]
h oɪ j o ʔ o ŋ b ɐ s u r a n ɐ ʔ i t a p o n m o b a <int> 
[215.335]
<no-speech> 
[218.935]
n ɐ h a k o t n j o n ɐ b a j o ʔ o ŋ m ɐ ŋ a ʔ b ɐ s u r a 
[220.435]
<no-speech> 
[224.745]
k u m p l e t o 
[225.515]
<no-speech> 
[226.595]
ʔ a s i g e 
[227.685]
<no-speech> 
[229.555]
ʔ o n ɐ m a n <no-speech> ʃ u r j o ʔ o n <no-speech> ʔ oʊ k eɪ p a r e d ɐ l w ɐ ŋ b u w a n l a ʔ a ŋ j o ʔ o n 
[234.895]
<no-speech> 
[237.755]
k ɐ l a l ɐ b a s k o l a ʔ a ŋ s ɐ t r ɐ b a h u 
[239.215]
<no-speech> 
[245.345]
ʔ o s i g e p r e 
[246.195]
<no-speech> 
[248.855]
b ɐ s t a p u p u n t a ʔ ɐ k o ʤ a ʔ a n <no-speech> m ɐ l a p e t n ɐ 
[250.585]
<no-speech> 
[252.265]
b a k a <no-speech> f ɪ f t i n m ɪ n ɪ t s <no-speech> n a n ʤ a ʔ a n n ɐ ʔ ɐ k o 
[256.935]
<no-speech> 
[262.535]
ʔ a <no-speech> ʔ ɐ n u k a b a 
[264.835]
<no-speech> 
[269.605]
j e l o 
[270.325]
<no-speech> 
[271.915]
ʔ o s i g e 
[272.625]
<no-speech> 
[274.355]
<hes> d i ʔ ɐ k o m ɐ k a k ɐ b i l i p a r e p a g b ɐ l e k k o n ɐ ʤ a ʔ a n m e s ɐ s ɐ k j a n ŋ a ʔ ʔ ɐ k o <hes> 
[278.075]
<no-speech> 
[284.015]
ʔ a s i g e ʔ ɐ n u ŋ k u l a ŋ ʤ a ʔ a n 
[286.555]
<no-speech> 
[289.565]
ʔ ɐ l a ʔ ʔ ɐ l a ʔ n ɐ ŋ k u l a ŋ 
[291.555]
<no-speech> 
[301.385]
s i g e <click> s i g e 
[302.265]
<no-speech> 
[303.445]
<no-speech> 
[303.925]
<no-speech> 
[305.065]
<no-speech> 
[307.835]
<no-speech> 
[310.235]
m ɐ g k a n u b a ʔ ɐ ŋ ʔ a l a k ʤ a ʔ a n 
[311.535]
<no-speech> 
[316.555]
ʔ i l a n p a 
[317.345]
<no-speech> 
[321.265]
ʔ a b a k a t ɛ n j i r s p a t ɐ j u ʔ ʤ a ʔ a n ʔ a 
[323.645]
<no-speech> 
[327.035]
b a k a t ɛ n j i r s p a t ɐ j u ʔ ʤ a ʔ a n p ɐ g d ɐ t i ŋ k o ʤ a ʔ a n 
[329.275]
<no-speech> 
[330.165]
s i j e m p r e 
[330.965]
<no-speech> 
[334.025]
s i j e m p r e 
[334.875]
<no-speech> 
[337.765]
m ɐ b a g a l ʔ i t u ŋ s ɐ s ɐ k j a n 
[339.225]
<no-speech> 
[340.375]
ʔ a p ɐ t aɪ t o ŋ aɪ ʔ o n 
[342.245]
<no-speech> 
[346.575]
ʔ o n ɐ m a n 
[347.435]
<no-speech> 
[352.415]
ʔ o s i g e s i g e <no-speech> ʔ o 
[354.145]
<no-speech> 
[358.625]
ʔ o ŋ a ʔ <hes> <no-speech> k a h e t ʔ i k aʊ <hes> ʔ ɐ ŋ b o s e s m o p a r ɐ ŋ s i w a k o w a k o <hes> 
[362.445]
<no-speech> 
[369.705]
ʔ a 
[370.395]
<no-speech> 
[373.065]
<sta> g ɐ m u t p r e g ɐ m u t s ɐ t u l o ʔ j o ʔ o n 
[376.975]
<no-speech> 
[380.305]
<int> ʔ o s i g e <int> 
[387.075]
<no-speech> 
[388.065]
ʔ a 
[388.605]
<no-speech> 
[389.865]
<no-speech> 
[391.675]
<no-speech> 
[392.965]
<no-speech> 
[394.365]
<no-speech> 
[395.615]
<no-speech> 
[396.765]
<no-speech> 
[398.305]
<laugh> ʔ o s i g e <no-speech> m ɐ l a p e t n ɐ ʔ ɐ k o 
[401.525]
<no-speech> 
[402.655]
<no-speech> 
[404.155]
<no-speech> 
[405.105]
<laugh> 
[409.005]
<no-speech> 
[410.435]
t r a p e k d i t u <int> 
[411.755]
<no-speech> 
[413.785]
m ɐ l a b o ʔ j o ʔ o ŋ t ɐ k b o n ɐ ŋ s ɐ s ɐ k j a n <hes> 
[416.035]
<no-speech> 
[418.485]
w ʌ n f ɪ f t i k ɪ l ɑ m ɪ t ə r 
[420.215]
<no-speech> 
[421.155]
<no-speech> 
[421.615]
<no-speech> 
[423.195]
d ɑ g ʔ i s t aɪ l ʔ i s p o r t s k a j a d a d ɐ l i n k o ʤ a ʔ a n p r e 
[425.785]
<no-speech> 
[431.455]
ʔ ɐ l a ʔ n ɐ b æ ŋ b aɪ k <sta> 
[432.475]
<no-speech> 
[437.075]
<hes> ʔ i k aʊ g u s t u m o b aɪ k <no-speech> d i m e m oʊ t ə r d e n ʔ ɐ k o 
[441.345]
<no-speech> 
[442.625]
ʔ i s a l a ʔ a ŋ g u l o ŋ 
[444.325]
<no-speech> 
[445.615]
w eɪ b b o r d g u s t u m o w eɪ b b o r d 
[448.255]
<no-speech> 
[450.705]
w eɪ b b o r d n ɐ l a ʔ a ŋ 
[451.695]
<no-speech> 
[455.245]
<no-speech> 
[459.585]
<no-speech> 
[460.605]
b aɪ k n i 
[462.335]
<no-speech> 
[463.835]
k ɐ n i n u ŋ b aɪ k 
[464.605]
<no-speech> 
[466.175]
ʔ a ʔ o <no-speech> p ɐ k i ʧ e k 
[468.235]
<no-speech> 
[469.455]
<hes> j o ʔ o ŋ b aɪ k n i w ɪ l j ə m p a r ɐ ŋ ʔ ɐ n u j o ʔ o n <hes> p ɐ m b i l i n ɐ ŋ t i n a p aɪ 
[472.345]
<no-speech> 
[478.115]
p ɐ ŋ s t ɛ r w eɪ t u h ɛ v ə n j o ʔ o ŋ b aɪ k n i j a <hes> 
[480.085]
<no-speech> 
[483.035]
<sta> ʔ a 
[490.285]
<no-speech> 
[491.595]
ʔ ɐ n u 
[492.155]
<no-speech> 
[493.595]
<no-speech> 
[493.985]
<no-speech> 
[495.055]
ʔ o <int> 
[495.705]
<no-speech> 
[496.765]
<breath> ʔ i s ɐ ŋ l i b u l a ʔ a ŋ 
[498.005]
<no-speech> 
[500.065]
<breath> p ɐ j a t 
[501.525]
<no-speech> 
[503.325]
p ɐ j a t j o ʔ o ŋ ʔ i s ɐ ŋ l i b u 
[504.655]
<no-speech> 
[505.695]
p ɐ j a t d e n s i w ɪ l j ə m <hes> <int> 
[506.925]
<no-speech> 
[508.395]
p ɐ j a t 
[509.005]
<no-speech> 
[510.055]
m ɐ g k a n u 
[510.795]
<no-speech> 
[512.045]
m ɐ g k a n u b a 
[512.895]
<no-speech> 
[516.865]
p ɐ j a t ŋ a ʔ 
[517.745]
<no-speech> 
[518.715]
<int> ʔ a <int> 
[521.194875]
<no-speech> 
[522.144875]
<int> g a n o k a t a s l u m i p a d 
[523.745]
<no-speech> 
[524.675]
<int> g a n o k a t a s ŋ a ʔ 
[526.235]
<no-speech> 
[527.045]
<int> m e r ʔ o n ʔ ɐ k o d i t u 
[531.475]
<no-speech> 
[532.655]
<int> m e r ʔ o n ŋ a ʔ ʔ ɐ k o d i t u b a t o ʔ p ɐ m p ɐ l i p a d 
[536.345]
<no-speech> 
[538.065]
<no-speech> 
[538.415]
<no-speech> 
[539.435]
<no-speech> 
[539.785]
<no-speech> 
[541.355]
m ɐ b i g a t 
[542.025]
<no-speech> 
[543.155]
<sta> s a n b a <no-speech> n a n ʤ a ʔ a n b a j o ʔ o ŋ m æ p n a t e n 
[550.485]
<no-speech> 
[552.045]
ʔ a <no-speech> s i g e s i g e <no-speech> ʔ o <no-speech> s i g e p a r e b aɪ n ɐ b aɪ n ɐ 
[556.625]
<no-speech> 
[557.685]
ʔ o p ɐ p u n t a n ɐ ʔ ɐ k o ʤ a ʔ a n 
[559.335]
<no-speech> 
[560.305]
m ɐ l a p e t ʔ a n ʔ ɐ k o s ɐ ʔ u p i s i n a 
[561.425]
<no-speech> 
[562.715]
ʔ oʊ k eɪ <no-speech> ʔ oʊ k eɪ 
[564.615]
<no-speech> 
[567.935]
<no-speech> 
[568.325]
<no-speech> 
[569.395]
<sta> d i s i g e s i g e 
[571.105]
<no-speech> 
[572.495]
ʔ o s l e k k u m p l e t o p a b a t ɐ j u ʔ ʤ a ʔ a n 
[574.785]
<no-speech> 
[576.575]
<no-speech> 
[576.945]
<no-speech> 
[577.995]
k u m p l e t o p a b a 
[579.005]
<no-speech> 
[582.595]
m e ʤ u m ɐ l ɐ j u l ɐ j o ʔ p a d aʊ t o <hes> <sta> 
[584.245]
<no-speech> 
[586.475]
ʔ a <hes> h i n d e ʔ t ɐ l ɐ g a ʔ m ɐ l ɐ l ɐ s i ŋ j a ʔ a n m e h i n i h i n t aɪ j a ʔ a n <hes> 
[590.505]
<no-speech> 
[598.385]
<no-speech> 
[600.02]
