[0.0]
<no-speech> 
[5.595]
h ɛ l oʊ k u j a n oɪ 
[6.925]
<no-speech> 
[10.155]
k ɐ m u s t a ʤ a ʔ a n ʔ a 
[11.895]
<no-speech> 
[13.485]
ʔ a <no-speech> h ɛ l oʊ 
[15.305]
<no-speech> 
[16.445]
ʔ o k u j a k ɐ m u s t a 
[17.545]
<no-speech> 
[18.825]
k ɐ m u s t a 
[19.465]
<no-speech> 
[22.115]
ʔ a <no-speech> h e t o n ɐ k ɐ h i g a ʔ n ɐ 
[24.395]
<no-speech> 
[25.255]
ʔ o 
[25.825]
<no-speech> 
[31.005]
ʔ o 
[31.655]
<no-speech> 
[33.605]
ʔ o p u m u n t a s i l a d i t u 
[35.125]
<no-speech> 
[41.625]
s ɐ ʔ i n j o n ɐ l a ʔ a ŋ p o ʔ 
[42.845]
<no-speech> 
[44.535]
ʔ a 
[45.105]
<no-speech> 
[47.355]
m a j a ʔ oʊ k eɪ l a ʔ a ŋ n ɐ m a n 
[49.035]
<no-speech> 
[54.485]
ʔ ɐ n d i j a n n ɐ b a s i l a k u j a n oɪ 
[55.775]
<no-speech> 
[59.815]
s i r a j a n n a n ʤ a ʔ a n 
[60.875]
<no-speech> 
[64.205]
ʔ ɐ ŋ b i l i s n ɐ m a n ʔ i l ɐ ŋ ʔ o r a s l a ʔ a ŋ t i n ɐ k b o 
[66.445]
<no-speech> 
[73.105]
<no-speech> 
[79.765]
ʔ ɐ ŋ b a g a l n ɐ m a n <laugh> ʔ o 
[83.225]
<no-speech> 
[85.425]
ʔ ɐ ŋ b a g a l n ɐ m a n n i l a ʔ a 
[87.065]
<no-speech> 
[90.855]
ʔ o ʔ a 
[92.045]
<no-speech> 
[94.765]
ʔ ɐ n d i t o 
[95.685]
<no-speech> 
[97.745]
ʔ o 
[98.285]
<no-speech> 
[100.415]
k ɐ n i n a p a <no-speech> k ɐ n i n a p a <no-speech> ʔ o 
[104.685]
<no-speech> 
[106.015]
t i n ɐ k b o k o n ɐ ŋ ʔ i s ɐ ŋ ʔ o r a s j a ʔ ɐ ŋ ʔ o l o ŋ g ɐ p o <hes> 
[108.645]
<no-speech> 
[109.985]
<no-speech> 
[111.055]
<no-speech> 
[112.565]
ʔ i s a l a ʔ a ŋ 
[113.315]
<no-speech> 
[115.015]
ʔ i s a 
[115.535]
<no-speech> 
[117.985]
m ɐ h i r a p ʔ ɐ ŋ b u h aɪ 
[120.225]
<no-speech> 
[121.445]
m ɐ h i r a p ʔ ɐ ŋ b u h aɪ 
[123.965]
<no-speech> 
[127.405]
ʔ i k aʊ ʔ i l a n n ɐ ʔ ɐ ŋ ʔ ɐ n a k m o 
[128.895]
<no-speech> 
[130.885]
<no-speech> 
[131.325]
<no-speech> 
[134.245]
m a s m ɐ h i n a ʔ k a ʔ ɐ l a ʔ k a ʔ ɐ n a k <hes> <laugh> 
[137.605]
<no-speech> 
[139.315]
ʔ u s o d m o ʤ a ʔ a n 
[144.045]
<no-speech> 
[146.895]
ʔ a 
[147.395]
<no-speech> 
[148.715]
ʔ ɐ l a ʔ 
[149.215]
<no-speech> 
[152.465]
k ɐ m u s t a b u h aɪ ʤ a ʔ a n 
[153.545]
<no-speech> 
[157.615]
ʔ ɐ l a ʔ b a t ɐ j u ŋ h u l o g n ɐ ŋ l a ŋ e t g ɐ l e ŋ s ɐ ʔ i b ɐ ŋ b ɐ n s a ʔ 
[160.465]
<no-speech> 
[165.405]
b a k e t d i b a t ɐ j u ʔ k ɐ s a l i 
[167.445]
<no-speech> 
[173.165]
ʔ i k aʊ m ɐ g ʔ ɐ n a k m o ʔ i k aʊ ʔ ɐ ŋ n a n ʤ a ʔ a n <hes> <laugh> 
[176.215]
<no-speech> 
[177.755]
<no-speech> 
[178.145]
<no-speech> 
[183.375]
s æ m s ʌ ŋ l a ʔ a ŋ t o 
[184.655]
<no-speech> 
[186.925]
ʔ a 
[187.415]
<no-speech> 
[188.385]
ʔ o j o ʔ o ŋ <oov> j o ʔ o ŋ m u m u r a h i n ʔ ɐ l a ʔ ŋ ɐ ŋ k æ m ə r a t o <hes> 
[191.455]
<no-speech> 
[195.375]
<no-speech> 
[195.735]
<no-speech> 
[196.675]
j a m a n j a m a n 
[197.725]
<no-speech> 
[203.485]
m ɐ r a m e n ɐ ʔ ɐ n a k j o ʔ o n <laugh> 
[207.145]
<no-speech> 
[210.785]
ʔ ɐ n u ʔ i n i n o m n j o ʤ a ʔ a n 
[211.925]
<no-speech> 
[214.275]
ʔ a 
[214.865]
<no-speech> 
[215.735]
ʔ u m i n o m k ɐ j u 
[216.535]
<no-speech> 
[220.825]
d i ʔ ɐ k o m ɐ r u n u ŋ m ɐ g k o m p j u t ə r <laugh> 
[223.805]
<no-speech> 
[226.585]
d i ʔ ɐ k o m ɐ r u n u ŋ n ɐ ŋ k ə m p j u t ə r 
[228.405]
<no-speech> 
[238.885]
j o ʔ o ŋ ʔ i m eɪ l ʔ æ d n i j a 
[240.705]
<no-speech> 
[242.165]
<hes> d i r e s e r ʧ m o s ɐ k w a n p eɪ s b u k 
[244.195]
<no-speech> 
[247.325]
ʔ i r e s e r ʧ m o s ɐ p eɪ s b u k 
[249.345]
<no-speech> 
[251.525]
ʔ a 
[252.025]
<no-speech> 
[254.285]
<no-speech> 
[254.855]
<no-speech> 
[257.925]
ʔ i k aʊ ʔ ɐ ŋ m ɐ h i n a ʔ 
[259.035]
<no-speech> 
[261.365]
ʔ o 
[261.875]
<no-speech> 
[268.365]
m ɐ l ɐ k a s m ɐ ʃ a d u j o ʔ o ŋ k w a n m o <oov> w a g k a g a g a g ɐ l aʊ ʔ a m ɐ l i w a n a g n ɐ k ə m p j u t ə r <hes> 
[274.025]
<no-speech> 
[276.905]
h ɛ l oʊ 
[277.385]
<no-speech> 
[280.365]
ʔ ɐ l a ʔ ŋ a ʔ <hes> 
[281.185]
<no-speech> 
[282.555]
p a p ɐ s a d a l a ʔ a ŋ d e n ʔ ɐ k o n ɐ ŋ t r aɪ s ɪ k ə l 
[285.535]
<no-speech> 
[286.605]
ʔ ɐ l a ʔ d i p a ŋ a ʔ ʔ ɐ k o s a n a m ɐ m ɐ s a d a k ɐ ʔ o ʔ o p e r a k o p a l a ʔ a ŋ <hes> 
[290.605]
<no-speech> 
[292.125]
k a s u ʔ ɐ l a ʔ ʔ ɐ l a ʔ n ɐ k o ŋ p ɐ ŋ 
[293.955]
<no-speech> 
[295.095]
ʔ a 
[295.575]
<no-speech> 
[300.555]
t i n ɐ ŋ g a l j o ʔ o ŋ ʔ i s ɐ ŋ ʔ i t l o g k o t ɐ ŋ e k 
[302.505]
<no-speech> 
[304.055]
ʔ o 
[304.535]
<no-speech> 
[306.375]
t ɐ n u ŋ m o k e ʔ i j ə n t ɐ ŋ e k 
[307.785]
<no-speech> 
[310.485]
n ɐ ʔ o p e r a k a j a ʔ ɐ k o <no-speech> h i n d e ʔ l u s l o s 
[314.055]
<no-speech> 
[315.775]
h i n d e ʔ n ɐ t ɐ d j ɐ k a n n ɐ t ɐ d j ɐ k a n n ɐ ŋ ʔ ɐ n a k k o j o ʔ o ŋ ʔ i s ɐ ŋ ʔ i t l o g k o 
[319.565]
<no-speech> 
[325.165]
<cough> h aɪ h i n d e ʔ s i j a n ɐ b ɐ n l i ʔ a n 
[327.895]
<no-speech> 
[328.865]
d i m o n ɐ n ɐ b ɐ l i t a n j o ʔ o n <no-speech> d i n j o n ɐ b ɐ l i t a n 
[332.575]
<no-speech> 
[333.635]
s u m u l a t p a ŋ a ʔ s i d a r j o h u m i ŋ e ʔ n ɐ ŋ t u l o ŋ 
[335.975]
<no-speech> 
[342.115]
ʔ o 
[342.915]
<no-speech> 
[344.095]
h i n d e ʔ n ɐ g p ɐ ʧ e k a p l a ʔ a ŋ ʔ ɐ k o ʤ a ʔ a n 
[345.935]
<no-speech> 
[349.295]
p ɐ p ɐ s o k n ɐ s a n a ʔ ɐ k o ʔ ɐ ŋ s a b e n ɐ m a n m ɐ g h ɐ n a p ʔ ɐ k o ŋ m u r a ŋ h ɑ s p ɪ t ə l k a j a n ɐ g h ɐ n a p ʔ ɐ k o 
[354.685]
<no-speech> 
[356.295]
s ɐ l o b <no-speech> s ɐ l o b k a p a r e n b a 
[358.265]
<no-speech> 
[360.445]
ʔ o k a s u n ɐ h o l d a p 
[362.665]
<no-speech> 
[368.845]
<oov> h i n o l d a p p a h i n o l d a p p a n i l a j o ʔ o ŋ p ɐ d ɐ l a 
[371.875]
<no-speech> 
[374.795]
b i n ɐ w a s a n p a n i l a 
[377.465]
<no-speech> 
[378.715]
ʔ o m e ʔ u t a ŋ p a t u l uɪ ʔ ɐ k o d i t u ŋ ʔ o n s e m i l 
[381.215]
<no-speech> 
[386.985]
k a j a ŋ a ʔ <hes> n ɐ g h u h u l o g p a ʔ ɐ k o n ɐ ŋ m oʊ t ə r 
[389.435]
<no-speech> 
[391.725]
ʔ ɐ l a ʔ p a ŋ a ʔ <hes> 
[393.675]
<no-speech> 
[394.735]
d i p a ʔ a s ɐ m p u ŋ b u w a n p a j a ʔ a n 
[397.605]
<no-speech> 
[398.815]
<no-speech> 
[399.335]
<no-speech> 
[400.265]
t ɐ t l u ŋ t ɐ ʔ u n t o 
[401.425]
<no-speech> 
[404.095]
ʔ o ŋ a ʔ 
[405.475]
<no-speech> 
[406.885]
p a p a r ɐ ŋ k w a n p a r ɐ ŋ m e s u m ɐ k aɪ s ɐ l i k u d k o n ɐ m ɐ b i g a t 
[410.005]
<no-speech> 
[411.955]
d u n s ɐ ʃ o r t k ʌ t 
[412.835]
<no-speech> 
[415.035]
n ɐ n ɐ k w a n l a ʔ a ŋ j o ʔ o ŋ t i n i d o r n ɐ l i k o ʔ j o ʔ o ŋ t i n i d o r l a ʔ a ŋ n ɐ l i k o ʔ j o ʔ o n l a ʔ a ŋ ʔ ɐ ŋ t a m a ʔ n i j a 
[420.135]
<no-speech> 
[425.585]
ʔ ɐ n u ŋ g i n a g ɐ w a ʔ n j o ʤ a ʔ a n 
[426.505]
<no-speech> 
[428.285]
ʔ ɐ l a ʔ ŋ a ʔ n ɐ g p a p ɐ s a d a l a ʔ a ŋ ʔ ɐ k o 
[430.285]
<no-speech> 
[431.995]
n ɐ m a m ɐ s a d a l a ʔ a ŋ ʔ ɐ k o 
[433.315]
<no-speech> 
[434.615]
m ɐ h i n a ʔ n ɐ ʔ ɐ ŋ d a m i ŋ b a g u ŋ m oʊ t ə r m ɐ h i n a ʔ 
[437.825]
<no-speech> 
[441.395]
ʔ o 
[442.045]
<no-speech> 
[443.885]
d i t u r e n <hes> ʔ ɐ ŋ d a m i ŋ b a g u ŋ m oʊ t ə r 
[446.135]
<no-speech> 
[447.245]
b a k e t p a r e <laugh> 
[449.595]
<no-speech> 
[450.745]
d i d i d i t u m ɐ ŋ a ʔ k u l o r u m h i n d e ʔ n ɐ k ɐ r i h i s t r o 
[454.565]
<no-speech> 
[455.535]
ʔ a 
[456.035]
<no-speech> 
[460.065]
ʤ a ʔ a n s ɐ l o b n ɐ ŋ b eɪ s ʔ ɐ l ɐ ŋ t r ɐ b a h u ʤ a ʔ a n 
[461.805]
<no-speech> 
[463.595]
<no-speech> 
[463.955]
<no-speech> 
[469.385]
m ɐ d a m i ŋ n ɐ m a m ɐ t aɪ d o n 
[472.645]
<no-speech> 
[474.055]
s a n ʤ i p 
[474.865]
<no-speech> 
[479.245]
ʔ ɐ l a ʔ 
[480.265]
<no-speech> 
[481.585]
<no-speech> 
[482.685]
<no-speech> 
[483.645]
b a b ɐ g s a k k a p a r a 
[485.115]
<no-speech> 
[489.775]
<hes> k u ŋ <no-speech> <hes> k u ŋ d u n k a p u m w e s t o <laugh> 
[493.145]
<no-speech> 
[496.035]
ʔ u m i n o m k ɐ j u ʤ a ʔ a n 
[496.965]
<no-speech> 
[501.745]
k a l a ʔ k o b a ʔ u m i n o m s i l a ʤ a ʔ a n 
[503.225]
<no-speech> 
[506.965]
b ɐ s t a ʔ ɐ ŋ s a b e k a l a ʔ k o m e b i s i t a s i k u j a n o n oɪ ʤ a ʔ a n m e b i s i t a s i k u j a n o n oɪ 
[510.905]
<no-speech> 
[515.654875]
d i k a d aʊ n ɐ g p a p ɐ ʔ i n o m <hes> k a j a <no-speech> k a j a n ɐ t a t ɐ r ɐ n t a s i l ɐ ŋ ʔ u m u w i ʔ <hes> 
[520.385]
<no-speech> 
[523.505]
j o ʔ o ŋ b i s i t a n i b i s i t a n i k u j a n o n oɪ 
[525.735]
<no-speech> 
[527.095]
ʔ o j o ʔ o ŋ <oov> h a p u n d aʊ b a j a ʔ a n 
[528.955]
<no-speech> 
[529.775]
<no-speech> 
[530.255]
<no-speech> 
[535.635]
j o ʔ o ŋ b i s i t a n i l a 
[536.735]
<no-speech> 
[538.345]
ʔ o 
[538.805]
<no-speech> 
[540.705]
ʔ o <no-speech> ʔ o ŋ a ʔ k a j a ŋ a ʔ n i l a s i n a m a s i r a j a n <hes> 
[543.905]
<no-speech> 
[546.775]
<laugh> k ɐ k i l a l a d aʊ n i r a j a n <no-speech> ʔ a 
[551.385]
<no-speech> 
[557.395]
ʔ a 
[557.795]
<no-speech> 
[560.215]
<oov> k a j a ŋ a ʔ n i l a s i n a m a s i r a j a n d o n d i b a 
[562.605]
<no-speech> 
[563.965]
m ɐ r a m i ŋ ʔ aɪ t a 
[565.045]
<no-speech> 
[566.135]
<no-speech> 
[568.715]
<no-speech> 
[569.705]
<no-speech> 
[572.885]
<no-speech> 
[574.565]
<no-speech> 
[574.925]
<no-speech> 
[576.645]
ʔ aɪ t a <laugh> 
[583.505]
<no-speech> 
[585.545]
h ɛ l oʊ 
[586.585]
<no-speech> 
[588.885]
b ɐ l i t a ʔ k o m ɐ g ʔ a b r o d k a n ɐ r aʊ 
[590.445]
<no-speech> 
[592.755]
t ɐ g a l p a 
[593.645]
<no-speech> 
[594.455]
t ɐ g a l p a <no-speech> d ɐ l w ɐ ŋ b u w a n p a 
[597.595]
<no-speech> 
[600.42]
