[0.0]
<no-speech> 
[6.3725]
<no-speech> 
[12.745]
<no-speech> 
[13.095]
<no-speech> 
[14.305]
a ɫ o 
[15.025]
<no-speech> 
[16.595]
n e h a b e ɾ 
[17.415]
<no-speech> 
[18.915]
i j i j i m s e n n e j a p ɯ j o n 
[20.405]
<no-speech> 
[22.765]

[23.355]
<no-speech> 
[25.455]
ɯ m h ɯ m a n ɫ a d ɯ m 
[28.145]
<no-speech> 
[29.155]
n e j a p t ɯ n 
[30.255]
<no-speech> 
[33.315]
d y n n e j a p t ɯ n n e ɾ d e j d i n 
[37.095]
<no-speech> 
[39.365]
s i p o ɾ a ɟ i t m e d i n m i s i p o ɾ a ɟ i t m e d i n ɯ m h ɯ m 
[44.485]
<no-speech> 
[45.715]
ɯ m h ɯ m b e n d e b u ɟ y n d e ɟ i t m e d i n eː n i j e b u k a d a ɾ a s ɯ j o n p e c i n i j e b u k a d a ɾ a s ɯ j o n d i j o m n e d e n ɟ i t m i j o n 
[54.975]
<no-speech> 
[56.585]
ɯ m h ɯ m 
[57.005]
<no-speech> 
[59.325]
ɯ m h ɯ m 
[60.485]
<no-speech> 
[64.494875]
b i l m i j o m j a <hes> n e ɾ d e n ʧ ɯ c a ɾ t ɯ ɫ ɯ j o ɾ c i n o ɾ m a ɫ d e a d l i j e d e n ʧ ɯ k a ɾ t ɯ ɫ m ɯ j o ɾ m u 
[70.135]
<no-speech> 
[73.255]
a d l i j e d e n ʧ ɯ k a ɾ t ɯ ɫ ɯ j o s a b e n b i t e j z e m e s o ɾ a ɾ ɯ m b i o n ɫ a ɾ a n n e m l e ɾ f a ɫ a n b i l i ɾ l e ɾ j a w a ɾ m ɯ j o k m u d i j e 
[79.715]
<no-speech> 
[82.385]

[82.825]
<no-speech> 
[85.505]
h ɯ n e ɾ e j i c a b u ɫ e t t i n n e ɾ e j e ɟ i d i j o n 
[87.965]
<no-speech> 
[89.675]
ʧ a ɾ ʃ a m b a ɟ y n y 
[90.815]
<no-speech> 
[92.335]
ɯ m h ɯ m h a s t aː n e c a ʧ p a ɾ a w e ɾ d i l e ɾ 
[94.735]
<no-speech> 
[100.635]
i j i n e j a p ɯ ʤ a k s ɯ n h i ʧ j o k t a n i j i d i ɾ b iː ɾ a z ʧ a ɫ ɯ ʃ o ɫ m a d ɯ ʧ ɯ c a ɾ s ɯ n n a p ʤ a k s ɯ n 
[105.095]
<no-speech> 
[111.875]
ɯ m h ɯ m j aː n i h a s t aː n e b i d e n e b a k a ɫ ɯ m s e n i n i ʧ i n 
[115.285]
<no-speech> 
[117.665]
<no-speech> 
[119.505]
<no-speech> 
[121.045]
ɯ m h ɯ m 
[122.755]
<no-speech> 
[124.735]

[125.405]
<no-speech> 
[127.115]
ɯ m h ɯ m 
[127.885]
<no-speech> 
[129.484875]
a m a a ɾ n a w u t c ø j d e n ʧ ɯ k a ɾ t ɯ ɾ s ɯ n j a w a ɾ d ɯ ɾ d i j e d y ʃ y n y j o m 
[133.965]
<no-speech> 
[140.505]
oː d a d oː ɾ u b e n j o k u m n e j s e ʃ e j j a p a ɾ s ɯ n t u b a j ɫ a ɟ e l i ɾ s i n o ɫ m u ʃ t u n p ɯ ɾ o b l e m d iː l 
[145.525]
<no-speech> 
[149.735]
n i j e ʧ ɯ k a m ɯ j o ɾ m u ʃ 
[151.175]
<no-speech> 
[156.395]
ɯ m h ɯ m n e z a m aː n ɟ i d ʤ e c 
[158.645]
<no-speech> 
[165.205]
ɯ m h ɯ m 
[166.075]
<no-speech> 
[167.115]
ʃ e j 
[169.665]
<no-speech> 
[175.225]
ø j l e m i 
[176.235]
<no-speech> 
[177.195]
a s ɫ ɯ n d a b i j a n d a n d a a ɟ y z e l o ɫ m u ʃ t u n ɟ e ʤ e ʧ a ɫ ɯ ʃ ʤ a k s ɯ n ɟ y n d y z j a t ʤ a k s ɯ n 
[182.745]
<no-speech> 
[185.835]

[186.315]
<no-speech> 
[187.375]
j aː n i a j n ɯ ʃ e j 
[188.565]
<no-speech> 
[194.795]
ɯ m h ɯ m <breath> ʃ e j 
[198.275]
<no-speech> 
[200.555]
b e n m e ʤ b u ɾ j a ɾ ɯ n i ʃ e ɟ i d i ʤ e m n e j a p a j ɯ m 
[203.335]
<no-speech> 
[204.555]
j a ɾ ɯ n i ʃ w a ɾ 
[205.815]
<no-speech> 
[213.715]
<no-speech> 
[221.615]
<no-speech> 
[225.295]
ɯ m h ɯ m n e ɟ i j e ʤ e c s i n i z 
[226.665]
<no-speech> 
[229.215]
s i j a 
[229.945]
<no-speech> 
[233.935]
h ɯ i j i h a d i b a k a ɫ ɯ m 
[235.735]
<no-speech> 
[245.485]
ɯ m h ɯ m 
[246.185]
<no-speech> 
[247.585]
a n ɫ a d ɯ m 
[248.265]
<no-speech> 
[256.035]
i j i j a d a a i j i j aː n i 
[258.015]
<no-speech> 
[259.415]

[260.505]
<no-speech> 
[262.735]
j aː n i 
[263.755]
<no-speech> 
[265.395]
<breath> a j a n n e n 
[268.795]
<no-speech> 
[274.015]
ɯ m h ɯ m b u ɟ y n b e d aː w a a n n e n i n t a b i 
[275.865]
<no-speech> 
[276.765]
b e n i m h a ɫ a m ɟ e l d i o k m e j d a n ɯ n d a o t u ɾ a n i ʃ t e b a ɫ ɯ k f a ɫ a n c e s i j o ɾ ɫ a ɾ j e m e c h a z ɯ ɾ ɫ ɯ ʤ a k ɫ a ɾ 
[284.385]
<no-speech> 
[286.395]
<no-speech> 
[287.185]
<no-speech> 
[288.445]
e w d e j i m j o k b u ɟ y n ʧ ɯ k a m a d ɯ m d ɯ ʃ a ɾ ɯ d a d y n ɟ i t t i c b i j e ɾ l e ɾ e 
[293.315]
<no-speech> 
[296.105]
ʃ e j f i l m i z l e d i c 
[298.285]
<no-speech> 
[299.325]
s i n e m a j a ɟ i t t i c s i n e m a j a 
[300.715]
<no-speech> 
[302.325]
o n u n i ʃ i w a ɾ d ɯ b iː ɾ a z ɟ e ʧ ɟ e l d i b e n ɟ i t t i m b i l e t l e ɾ i f a ɫ a n a ɫ d ɯ m ʃ e j e ɟ i t t i c f o ɾ u m a ɟ i t t i c f o ɾ u m a 
[308.355]
<no-speech> 
[314.375]
b u ɟ y n m y 
[315.325]
<no-speech> 
[318.795]
ɯ m h ɯ m n e b i l e j i m h i ʧ k o n u ʃ m a d ɯ k a s ɫ ɯ n d a d e s e n b e l c i d e ʧ ɯ k a ɾ d ɯ k 
[322.975]
<no-speech> 
[323.805]
n i j e ʧ ɯ k a m ɯ j ʤ aː z a m a a ɾ t ɯ k ɟ e ʧ o ɫ d u 
[326.075]
<no-speech> 
[327.185]
<laugh> h a d i ʧ ɯ k 
[328.715]
<no-speech> 
[330.845]
j aː n i b u s aː t t e n s o n ɾ a 
[332.915]
<no-speech> 
[339.26]
<no-speech> 
[345.605]
<hes> ʤ u m a ɾ t e s i ɟ y n l e ɾ i ʧ a ɫ ɯ ʃ m ɯ j o n d iː l m i 
[348.655]
<no-speech> 
[349.945]
i j i j a 
[350.755]
<no-speech> 
[352.595]
ʤ u m a ɾ t e s i ɟ y n y 
[353.695]
<no-speech> 
[355.875]
i j i j a b o ʃ w e ɾ a j n e n ø j l e a j b u ɟ y n d e ɾ s d e ʧ a ɫ ɯ ʃ a m a d ɯ m j a y f 
[362.085]
<no-speech> 
[363.995]

[365.555]
<no-speech> 
[368.995]
h a j ɯ ɾ ʤ a n ɯ m y ʧ y n ʤ y s ɯ n ɯ f o k u j o m ɯ m h ɯ m 
[372.365]
<no-speech> 
[373.375]
a d i f e 
[374.155]
<no-speech> 
[376.135]
eː c a j ɯ t j a p t ɯ ɾ ɯ j o n 
[378.035]
<no-speech> 
[379.315]
eː d u j u j o ɾ m u s u n b e n i 
[380.865]
<no-speech> 
[382.535]
e w e t ɟ i d i p d i ɾ e c t ɯ m h ɯ m 
[385.085]
<no-speech> 
[387.195]
a d i f e 
[388.005]
<no-speech> 
[389.075]
øː s eː j eː m eː b y ɾ o s u n a ɟ i d i j o n c a j ɯ t j a p t ɯ ɾ ɯ j o n a ɫ o 
[392.865]
<no-speech> 
[394.265]
a ɫ o 
[395.455]
<no-speech> 
[396.335]
ɯ m h ɯ m b a ɯ ɾ ɯ j o ɾ u m n i j e d u j m u j o n d i j o m c i ɯ m h ɯ m ø d u j u j o ɾ m u s u n 
[401.135]
<no-speech> 
[403.575]
a d i f e d u j u j o ɾ m u s u n b e n i <overlap> 
[406.865]
<no-speech> 
[410.355]
t a m a m e f e n d i m 
[412.415]
<no-speech> 
[417.035]
øː s eː j eː m eː b y ɾ o s u n a ɟ i d i j o n c a j ɯ t j a p t ɯ ɾ ɯ j o n 
[421.375]
<no-speech> 
[422.355]
eː t a m a m b e n a j n e n b ø j l e j a p t ɯ m i ʃ t e ɟ i d i p c a j ɯ t j a p t ɯ ɾ ʤ a k s ɯ n 
[425.955]
<no-speech> 
[428.285]
o f 
[428.915]
<no-speech> 
[429.905]
ø j l e j a p t ɯ m t a b i z a m aː n ɯ n d a n i j e j a p t ɯ ɾ m a d ɯ m b i l m i j o m 
[433.365]
<no-speech> 
[437.025]
eː ɟ e ʧ ɟ e ʧ t i i ʃ t e s e n i n n i j e ɟ e ʧ i ɾ t t i j s e n 
[440.675]
<no-speech> 
[444.545]
o ɫ m u ʃ t u n j a b o ʃ w e ɾ b i ʃ e j o ɫ m a z j aː n i b u i ʃ i n o ɫ m a z j aː n i c a j ɯ t j a p t ɯ ɾ s e n e j e j a p t ɯ ɾ ʤ a k s ɯ n a m a b u s e n e b i t t i 
[453.375]
<no-speech> 
[456.655]
ɯ m h ɯ m ø j l e i ʃ t e <breath> 
[458.435]
<no-speech> 
[459.885]
<no-speech> 
[461.125]
<no-speech> 
[463.425]
ʃ e j k ɯ z ɫ a ɾ d a n h a b e ɾ i n w a ɾ m ɯ m e ɾ w e l e ɾ d e n f a ɫ a n 
[467.665]
<no-speech> 
[471.635]
<no-speech> 
[471.995]
<no-speech> 
[474.495]
b u ɾ a d a a ɾ n a w u t c ø j d e 
[475.885]
<no-speech> 
[478.155]
<no-speech> 
[478.545]
<no-speech> 
[479.745]
ɯ m h ɯ m 
[480.675]
<no-speech> 
[482.875]
<no-speech> 
[483.315]
<no-speech> 
[488.885]
t a m a m øː ɾ e n i ɾ i m a t a ɾ ɯ m b e n s a n a m e s a ʒ 
[491.415]
<no-speech> 
[497.445]
eː j aː n i 
[498.425]
<no-speech> 
[504.545]
t a m a m øː ɾ e n i ɾ i m b e n s a n a d ø n e ɾ i m h a b e ɾ w e ɾ i ɾ i m 
[507.445]
<no-speech> 
[508.505]
n e j a p ɯ ʤ a k s ɯ n ʃ i m d i 
[509.905]
<no-speech> 
[511.385]
<no-speech> 
[512.405]
<no-speech> 
[515.274875]
ɯ m h ɯ m a n ɫ a d ɯ m 
[516.334875]
<no-speech> 
[518.805]
h i ʧ b i ɾ i n i z b i j e ɾ e ɟ i t m e d i n i z h e ɾ c e s e w d e b e n d e s ɯ k ɯ ɫ d ɯ m j a b a n j o f a ɫ a n j a p a ɾ ɯ m ʃ i m d i 
[525.075]
<no-speech> 
[528.185]
<lipsmack> c a ʧ 
[530.985]
<no-speech> 
[532.545]
n e j a p ɯ ʤ a k s ɯ n c i ʧ ɯ k ɯ p ʧ ɯ k ɯ p n e j a p ɯ ʤ a k s ɯ n 
[535.055]
<no-speech> 
[540.405]
ɯ m h ɯ m a j b e n d e a d i f e 
[543.085]
<no-speech> 
[544.155]
b e n d e d e ɾ i d e ɾ i d e ɾ i m o n t a ɫ ɯ ʤ a m j a n e ɾ d e n a ɫ a j ɯ m 
[548.675]
<no-speech> 
[554.525]
b e ɾ a b e ɾ e w e t b a k a ɫ ɯ m d a n e ɾ d e n b a k ʤ aː z j a d e ɾ i d e ɾ i m o d d a n a ɫ ɯ ʤ a m i ʃ t e b i t a n e d e ɾ i ʤ e c e t 
[560.245]
<no-speech> 
[561.255]
ɯ m h ɯ m o ɾ d a w a ɾ m ɯ d e ɾ i m o d a m a 
[563.365]
<no-speech> 
[564.855]
d e ɾ i m o d w a ɾ m ɯ 
[566.705]
<no-speech> 
[568.725]
ɯ m h ɯ m w a ɾ d e s a d a n a ɫ m ɯ ʤ a m 
[570.955]
<no-speech> 
[572.775]
d e d e s a d a n a ɫ m ɯ ʤ a m d e ɾ i m o d d a n a ɫ ɯ ʤ a m i ʃ t e h a n i d e ɾ i m o d h a n i b i ɾ e c ɫ a m ɯ w a ɾ d ɯ j a 
[579.975]
<no-speech> 
[582.715]
<no-speech> 
[583.065]
<no-speech> 
[583.875]
b e n h e ɾ ʃ e j i m i d e ɾ i m o d d a n m ɯ a ɫ ɯ ɾ ɯ m ɯ m h ɯ m 
[589.605]
<no-speech> 
[592.485]
<no-speech> 
[592.845]
<no-speech> 
[593.775]
d e ɾ s ʧ a ɫ ɯ ʃ ʤ aː m a k ʃ a m d y n a k ʃ a m ʧ a ɫ ɯ ʃ t ɯ m b i s aː t <breath> k o n u ɫ a ɾ ɯ b i t i ɾ d i m p a z a ɾ ɫ a m a n ɯ n k o n u s u n u b u ɟ y n 
[599.86]
