[0.0]
<no-speech> 
[1.525]
<no-speech> 
[1.875]
<no-speech> 
[3.885]
a ɫ o 
[4.575]
<no-speech> 
[9.045]
i j i j i m s e n n a s ɯ ɫ s ɯ n 
[10.475]
<no-speech> 
[11.955]
e f e n d i m s e s i m ɟ e l i j o ɾ m u 
[13.975]
<no-speech> 
[15.385]
e w d e j i m <int> 
[17.395]
<no-speech> 
[18.265]
s e n i n c i d e ɟ e l i j o ɾ b iː ɾ a z 
[19.585]
<no-speech> 
[20.805]
n e o ɫ m u ʃ t u n j a n e s i ɾ l e b i ɾ l i c t e uː ɾ a ʃ ɯ j o m e ɾ s a n d ɯ ʃ a ɾ ɯ j a ʧ ɯ k t ɯ ʃ i m d i 
[24.745]
<no-speech> 
[26.825]
s e n n a s ɯ ɫ s ɯ n d u d u n a s ɯ ɫ 
[28.615]
<no-speech> 
[31.855]
a ɫ o 
[32.525]
<no-speech> 
[35.235]
b a k s e n ʃ u n a j a b a k s e n ʃ u n a i c i d a c i c a t e c b ɯ ɾ a k m a j a j ɯ m a z i m e t e j z e h e m e n k o ɫ t u a s y t y d ø c t y 
[43.365]
<no-speech> 
[47.875]
<no-speech> 
[48.435]
<no-speech> 
[49.885]
<breath> oː d a ʃ i m d i d ɯ ʃ a ɾ ɯ j a ʧ ɯ k t ɯ b iː ɾ a z h a w a a ɫ a j ɯ m d i j e a ɾ c a d a ʃ ɫ a ɾ ɯ n ɯ n j a n ɯ n a ɟ i t t i 
[55.145]
<no-speech> 
[59.585]
e w e t b e n d e f o t oː ɾ a f ʧ e c m i ʃ t i m j a o n ɫ a ɾ ɯ k o j m a k <no-speech> 
[64.294875]
n e j i s ø j l i ʤ e c t i n b e b iː m 
[66.025]
<no-speech> 
[67.605]
<no-speech> 
[68.025]
<no-speech> 
[71.545]
n e a j g a z ɯ 
[72.855]
<no-speech> 
[76.335]
<no-speech> 
[76.685]
<no-speech> 
[79.285]
e w e t 
[79.885]
<no-speech> 
[83.425]
<no-speech> 
[84.745]
<no-speech> 
[89.625]
o ɫ a b i l i ɾ s o ɾ m a k l aː z ɯ m i s t e ɾ s e n b e n s o ɾ a j ɯ m 
[93.145]
<no-speech> 
[94.085]
oː a ɾ a s ɯ n ʤ e m aː b i j a d a s i z b i z e ɟ e l i ɾ s i n i z b i z e d e ɟ e l i n b i ɟ y n b a k b a j a d ɯ ɾ ɟ e l m i j o s u n u z <int> 
[101.855]
<no-speech> 
[104.045]
b e n d e i ʃ a ɾ ɯ j o m a z i m e a b ɫ a ʤ ɯ m 
[106.305]
<no-speech> 
[107.235]
<no-speech> 
[107.645]
<no-speech> 
[108.685]
a ɫ o 
[109.395]
<no-speech> 
[110.975]
<no-speech> 
[111.405]
<no-speech> 
[112.385]
e w e t b a n a u j g u n b i i ʃ a k ɫ ɯ n d a o ɫ m u ʃ t u n 
[116.805]
<no-speech> 
[121.635]
k a j n a n a m b a k ʤ a k 
[123.365]
<no-speech> 
[127.475]
e w e t b e b e n i m e w i m e ɟ e l ʤ e c b a k ʤ a k <no-speech> b u ɫ u ɾ s a m ɟ y z e l b i i ʃ d e w a m ɫ ɯ ʧ ɯ k m a k i s t e m i j o m a z i m e a b ɫ a oː j y z d e n b ø j l e ɟ y z e l b i i ʃ o ɫ m u ʃ t u n h a n i s i g o ɾ t a s ɯ s aː t i w e m aː ʃ ɯ i j i b i i ʃ o ɫ u ɾ s a s y ɾ e c l i ʧ a ɫ ɯ ʃ m a k i s t i j o m 
[143.075]
<no-speech> 
[144.625]
a ʤ e l e e t m i ʤ eː m oː j y z d e n h a n i ø j l e i l k b u ɫ d uː m i ʃ e ɟ i ɾ m i j ʤ eː m ʧ y n c y e s c i d e n ø j l e j a p ɯ j o ɾ d u m e w l e n m e d e n ø n ʤ e 
[152.545]
<no-speech> 
[153.665]
b u ɫ d uː m i ʃ e ɟ i ɾ i j o ɾ d u m s o n ɾ a ʧ ɯ k ɯ j o ɾ d u m 
[156.825]
<no-speech> 
[159.055]
<no-speech> 
[159.605]
<no-speech> 
[160.855]
e w e t j a ɾ ɯ n o n a d a s ø j l i j ʤ eː m i ʃ t e f e j s b u k u n u a ʧ t ɯː z a m aː n 
[165.085]
<no-speech> 
[170.245]
b u ɾ a d a e ɾ s a n ɯ n e ɾ s a n ɯ n d y k a n ɯ n ɯ n 
[173.575]
<no-speech> 
[174.605]
a j n e n e ɾ s a n ɯ n d y k a n ɯ n ɯ n c a ɾ ʃ ɯ s ɯ n d a b i ʃ e j i w a ɾ i l ɟ i l i b a s k ɯ a t ø l j e s i 
[182.335]
<no-speech> 
[183.995]
<breath> a d a m ɫ a a d a m ɫ a k o n u ʃ t u e ɾ s a n ʤ u m a ɾ t e s i j i d e i p t a ɫ e d e l i m t a m a m d e m i ʃ s e c i z j y z c y s u ɾ m i l j o n m a ʃ w e ɾ i j o ɾ 
[193.025]
<no-speech> 
[195.155]
o n d a n s o n ɾ a a m a s i g o ɾ t a j o k h e ɾ ʃ e j ɟ y z e l s aː t l e ɾ i d e ɟ y z e l s a b a s e c i z b u ʧ u k a k ʃ a m a ɫ t ɯ j e m e c o ɾ d a n i ʃ t e d o k u z j y z e j a k ɯ n m a ʃ w e ɾ ʤ e c a m a s i g o ɾ t a j o k 
[206.965]
b e n d e d e d i m i c i a j y ʧ a j ʧ a ɫ ɯ ʃ m ɯ ʤ aː m c i d e w a m ɫ ɯ ʧ a ɫ ɯ ʃ ʤ aː m s i g o ɾ t a s ɯ ø n e m l i b e n i m i ʧ i n d e d i m e ɾ s a n a 
[213.515]
<no-speech> 
[216.575]
<no-speech> 
[216.935]
<no-speech> 
[223.145]
<no-speech> 
[223.545]
<no-speech> 
[225.075]
<cough> e w e t j a o n ɫ a ɾ h a ɫ ɫ o ɫ u ɾ 
[229.845]
<no-speech> 
[230.865]
d e n i j ʤ eː z k a j n a n a m o ɫ m a z s a ʧ iː d e m a b ɫ a b a k ʤ a k 
[234.125]
<no-speech> 
[240.855]
b a k a ɾ b a k a ɾ z a t e n n e s i l ʧ o k b a n a d y ʃ c y n b i ʧ o ʤ u k d iː l 
[244.425]
<no-speech> 
[246.275]
n e s i l ʧ o k f a z ɫ a b a n a d y ʃ c y n b i ʧ o ʤ u k d iː l 
[250.075]
<no-speech> 
[252.635]
a n n e m d e b a k a ɾ d a ø j l e ʧ o k ʃ e j o ɫ u ɾ 
[255.175]
<no-speech> 
[256.635]
e w e t a n n e m d e i ʃ t e n ʧ ɯ k t ɯ a m a a z i m e a b ɫ a ʧ o ʤ u k ø j l e ɾ e z i l o ɫ u ɾ j a a n n e m b u ɾ a j a n a s ɯ ɫ ɟ e l ʤ e c j a d a ʧ o ʤ uː b e n o ɾ a j a b ɯ ɾ a k s a m a n n e a n n e m l e m i uː ɾ a ʃ s ɯ n ɾ a m a z a n ɫ a m ɯ uː ɾ a ʃ s ɯ n b i s y b i s y ɾ y b a ʃ ɯ n d a d e ɾ t w a ɾ z a t e n 
[269.905]
<no-speech> 
[274.215]

[274.715]
<no-speech> 
[277.645]
e f e n d i m 
[278.465]
<no-speech> 
[280.995]
d u j m a d ɯ m s e n i 
[282.405]
<no-speech> 
[288.085]
<hes> b i t a n e b i i c i t a n e ʧ ɯ k m ɯ ʃ ɟ aː l i b a a m a <breath> s ɯ ɾ a ɟ e l m e m i ʃ ɟ ø s t e ɾ e m e m i ʃ l e ɾ s o n ɾ a s ɯ ɾ a ɟ e l d iː n d e a n n e m e a b ɫ a m ɫ a ɾ ɟ e l m e m i ʃ f a ɫ a n h i ʧ s o ɾ m a z a t e n j a n e ɾ e d e n ʧ ɯ k t ɯ j s a ʃ u d a j a b a ʃ ɯ m a b e ɫ a o ɫ d u 
[302.755]
<no-speech> 
[309.905]
e w e t <int> 
[311.025]
<no-speech> 
[311.955]
<no-speech> 
[312.365]
<no-speech> 
[313.385]
a j n e n 
[313.985]
<no-speech> 
[318.925]
h a j aː t b e n i m d i j o ɾ 
[320.385]
<no-speech> 
[327.645]
b e n d e b i l m i j o m b u s aː t t e n s o n ɾ a ʧ o k z o ɾ i c i t a n e ʧ o ʤ uː w a ɾ b e c a ɾ 
[333.615]
<no-speech> 
[335.755]
a m a h a j ɯ ɾ ɫ ɯ s ɯ o ɫ m u ʃ t u n i n ʃ a ɫ ɫ a a ɫ ɫ a o n u n d a c a ɾ ʃ ɯ s ɯ n a h a j ɯ ɾ ɫ ɯ b i i n s a n ʧ ɯ c a ɾ t ɯ ɾ 
[340.715]
<no-speech> 
[347.815]
aː m i n 
[348.765]
<no-speech> 
[359.475]
a j n e n ø j l e b i z b i l e s i n i ɾ l e n i j o z b aː z e n b ø j l e k ɯ z ɯ j o z 
[364.095]
<no-speech> 
[370.225]
n e j a p a ɫ ɯ m j a 
[371.275]
<no-speech> 
[380.835]
e w e t b e ʃ a j f a ɫ a n b e ʃ a j ɫ ɯ k f a ɫ a n h a m i l e e ɾ c e c o ɫ u j o ɾ o n u n d a ʧ o ʤ uː 
[387.315]
<no-speech> 
[393.045]
b i l m i j o m h e ɾ h a l d e u z u n b i s y ɾ e oː d a ʧ a ɫ ɯ ʃ m a z o n a d a h a b e ɾ w e ɾ i ʤ eː m 
[399.415]
<no-speech> 
[400.525]
o ɫ m a d ɯ d i j o m j a d a b i b i ɾ k a ʧ a j b ø j l e i ʃ i m i b u ɫ a n a k a d a ɾ e ɾ s a n ɯ n oː a ɾ c a d a ʃ ɯ n ɯ n j a n ɯ n a ɟ i ɾ e ɾ i m d i j o m 
[407.415]
<no-speech> 
[408.485]
i ʃ b u ɫ a n a k a d a ɾ j a ʧ o k s ɯ k ɯ ɫ d ɯ m a z i m e a b ɫ a e w d e <no-speech> e w d e o t u ɾ d u k c a f a m d a b i s y ɾ y ʃ e j k u ɾ u j o m 
[415.455]
<no-speech> 
[417.125]
<no-speech> 
[417.515]
<no-speech> 
[419.065]
b i d e i s t e c l e ɾ i m i z h i ʧ b i t m i j o ɾ 
[421.775]
<no-speech> 
[423.475]
e n a z ɯ n d a n b iː ɾ a z b e n d e d e s t e c o ɫ u ɾ u m e ɾ s a n a e ɾ s a n ɯ n i ʃ l e ɾ i d e ʧ o k c ø t y ʧ y n c y 
[428.205]
<no-speech> 
[433.365]
j a h i ʧ i ʃ j o k i c i h a f t a d ɯ ɾ y ʧ h a f t a d ɯ ɾ ʧ o k c ø t y d u ɾ u m d a ɫ a ɾ j aː n i 
[439.505]
<no-speech> 
[440.755]
h a n i o n ɫ a ɾ a ɫ ɯ ʃ m ɯ ʃ a m a b e n <click> b e n a ɫ ɯ ʃ a m ɯ j o m b ø <click> b ø j l e j a ʃ a m a j a 
[445.695]
<no-speech> 
[446.985]
<no-speech> 
[447.565]
<no-speech> 
[449.025]
<no-speech> 
[449.375]
<no-speech> 
[451.005]
<no-speech> 
[451.535]
<no-speech> 
[452.565]
<no-speech> 
[453.005]
<no-speech> 
[464.725]
j a t a b i c i o ɫ u ɾ a m a 
[466.475]
<no-speech> 
[468.085]
n e b i l e j i m ɟ e n e d e z o ɾ j a 
[471.005]
<no-speech> 
[474.905]
o n u n s i t ɾ e s i d e i n s a n ɯ j o ɾ u j o ɾ h a n i h e ɾ j e ɾ e ɟ i t m e c i s t i j o n ɟ e l m e c i s t i j o n a d ɯ m ɯ n a d ɯ m a t m a n p a ɾ a b i c e ɾ e a d ɯ m a t m a n p a ɾ a j aː n i b e n s e w m i j o m h i ʧ p a ɾ a h a ɾ ʤ a m a o n l i ɾ a h a ɾ ʤ a j ɯ p ɟ e l i j o ɾ u m h i ʧ h a ɾ ʤ a m a s a m j aː n i 
[490.715]
<no-speech> 
[493.655]
ʧ y n c y ʧ a ɫ ɯ ʃ t ɯː n z a m aː n i ʃ t e n d ɯ ʃ a ɾ ɯ j a ʧ ɯ k m a d ɯː m i ʧ i n a n ɫ a m ɯ j o n s aː d e ʤ e h a f t a s o n u ɟ i d i j o n a m a ʧ a ɫ ɯ ʃ m a d ɯː n z a m aː n s a n a b a t ɯ j o ɾ h e ɾ ʃ e j ɟ e z e j i m 
[505.495]
b i ʃ e j l e ɾ a ɫ a j ɯ m s i t ɾ e s a t a j ɯ m i s t i j o n 
[507.975]
<no-speech> 
[510.845]
n e n e b i l e j i m p i s i k o ɫ o ʒ i m m i b o z u ɫ d u b e n i m d e a n ɫ a m a d ɯ m 
[515.704875]
<no-speech> 
[519.024875]
<no-speech> 
[519.405]
<no-speech> 
[522.415]
<no-speech> 
[522.824875]
<no-speech> 
[530.815]
<no-speech> 
[531.705]
<no-speech> 
[532.535]
<no-speech> 
[533.105]
<no-speech> 
[534.375]
<no-speech> 
[534.725]
<no-speech> 
[535.865]
e w e t a m a 
[536.855]
<no-speech> 
[539.355]
<no-speech> 
[539.825]
<no-speech> 
[540.795]
<no-speech> 
[541.195]
<no-speech> 
[545.335]
<no-speech> 
[545.785]
<no-speech> 
[548.045]
e w e t 
[548.525]
<no-speech> 
[553.405]

[553.965]
<no-speech> 
[562.565]
<int> i ʃ t e k a j n a n a m e w d e b a k a ʤ a ɯ i ʧ i n ø j l e p ɯ ɾ o b l e m i m o ɫ m a z b e n d e oː j y z d e n i s t e d i m t a m a m a n n e ʤ i m p i s l e n m i ʃ s i l e l i m ɟ e l k a j n a n a m o ɫ u ɾ s a oː j e m e c t e j a p a ɾ 
[574.205]
t e m i z l i c t e j a p a ɾ 
[575.255]
<no-speech> 
[578.365]
e w e t 
[579.315]
<no-speech> 
[581.585]
a j n e n b i b a k ɯ ʤ ɯ ɟ i b i o ɫ ʤ a k 
[583.485]
<no-speech> 
[589.045]
<no-speech> 
[589.465]
<no-speech> 
[590.835]
<no-speech> 
[591.205]
<no-speech> 
[597.225]
e w e t ø j l e p ɯ ɾ o b l e m l e ɾ o ɫ a b i l i ɾ 
[599.465]
<no-speech> 
[600.32]
