[0.0]
<no-speech> 
[3.805]
<no-speech> 
[4.175]
<no-speech> 
[5.655]
a ɫ o 
[6.265]
<no-speech> 
[7.885]
a ɫ o 
[8.485]
<no-speech> 
[9.355]
e f e n d i m ʤ a n ɯ m 
[10.025]
<no-speech> 
[11.765]
e f e n d i m 
[12.595]
<no-speech> 
[13.855]
i j i j i m s aː o ɫ s e n n a s ɯ ɫ s ɯ n 
[15.365]
<no-speech> 
[16.495]
i j i j i m s e n n a s ɯ ɫ s ɯ n 
[17.895]
<no-speech> 
[20.035]
<hes> s e s i n ʧ o k c e s i c ɟ e l i j o ɾ 
[22.095]
<no-speech> 
[23.675]
a ɫ o 
[24.265]
<no-speech> 
[26.535]
<hes> s e n i n s e s i n b a n a ʧ o k c e s i c ɟ e l i j o ɾ ɟ y ɫ a j 
[29.405]
<no-speech> 
[30.575]
a ɫ o 
[31.195]
<no-speech> 
[33.635]
s e n s e n i n b a n a s e s i n ʧ o k c e s i c ɟ e l i j o ɾ 
[36.715]
<no-speech> 
[38.385]
a ɫ o 
[39.005]
<no-speech> 
[40.425]
e w e t e w e t 
[41.445]
<no-speech> 
[44.375]
<no-speech> 
[44.725]
<no-speech> 
[45.585]
ɟ e l i j o ɾ a m a j a ŋ k ɯ j a p ɯ j o ɾ ɡ ɟ e ɾ i d ø n y j o ɾ s e s 
[48.305]
<no-speech> 
[50.345]
a ɫ o 
[50.985]
<no-speech> 
[54.465]
ʃ i m d i ɟ e l i j o ɾ k o n u ʃ b a k a j ɯ m 
[55.965]
<no-speech> 
[59.885]
ʃ u a n d a ɟ e l i j o ɾ e w e t 
[61.085]
<no-speech> 
[62.525]
a m a b e n i m s e s i m j a ŋ k ɯ j a p ɯ j o ɾ ɟ e ɾ i d ø n y j o ɾ s e s i m 
[64.955]
<no-speech> 
[69.985]
b e n i m s e s i m j a ŋ k ɯ j a p ɯ j o ɾ ɟ e ɾ i d ø n y j o ɾ b a k ʃ u a n d a d a o ɫ d u 
[73.165]
<no-speech> 
[74.095]
n e j s e n e j a p ɯ j o n i j i s i n 
[75.615]
<no-speech> 
[78.065]
<no-speech> 
[80.035]
n e j a p a j ɯ m i ʃ t e b e n d e e w d e j i m b iː ɾ a z ɾ a a t s ɯ z ɯ m 
[82.555]
<no-speech> 
[87.625]
a j n e b i l e j i m i ʃ t e j i n e b ø j l e b i h a ɫ s i z l i c ʃ e j l i c w a ɾ y z e ɾ i m d e aː ɾ ɫ ɯ k w a ɾ b ø j l e b i ɟ i ɾ i p a ɫ d u ɾ u m h e ɾ h a l d e j a ʃ ɯ j o m 
[93.985]
<no-speech> 
[95.085]
j a i ʃ t e ø j l e b iː ɾ a z t a t s ɯ z ɯ m s a b a h t a n b e ɾ i j a t ɯ j o m d a a j e n i c a ɫ k t ɯ m i ʃ t e 
[99.455]
<no-speech> 
[101.455]
s e n n e j a p ɯ j o n s e n i j i s i n 
[103.995]
<no-speech> 
[111.655]
<no-speech> 
[119.315]
a ɫ ɫ a a ɫ ɫ a 
[120.555]
<no-speech> 
[121.405]
a n ɫ a m a d ɯ m w a ɫ ɫ aː b i l m i j o m 
[123.025]
<no-speech> 
[126.625]
e w e t k ɯ z ɟ e ɾ i ɟ e l ʤ eː z b i z a n n e n i h e m j o ɫ ʤ u ɫ a m a k i ʧ i n ɟ e l ʤ eː z 
[129.965]
<no-speech> 
[131.265]
o n u m u m ɾ e j e ɟ i t m e d e n e w w e l i ʃ t e b i ɡ e b i ɟ e ʤ e ɟ e l i p k a ɫ ɯ ʤ aː z 
[135.045]
<no-speech> 
[137.535]
a j ʤ a n ɯ m o n d a n d a a ɫ ɫ a ɾ aː z ɯ o ɫ m u ʃ t u n b u ɟ ø ɾ e w i j e ɾ i n e ɟ e t i ɾ ʤ e c a ɫ ɫ a o n d a n d a ɾ aː z ɯ o ɫ m u ʃ t u n 
[142.135]
<no-speech> 
[143.545]
ø j l e i ʃ t e i ʃ l e m l e ɾ i j a p t ɯ k b a k a ɫ ɯ m h a j ɯ ɾ ɫ ɯ s ɯ j ɫ a i n ʃ a ɫ ɫ a 
[146.495]
<no-speech> 
[148.135]
i n ʃ a ɫ ɫ a b a k a ɫ ɯ m h a j ɯ ɾ ɫ ɯ s ɯ j ɫ a ɟ i d i p ɟ e l i ɾ l e ɾ 
[150.285]
<no-speech> 
[152.045]
h ɯ h ɯ 
[152.775]
<no-speech> 
[157.315]
a j w a ɫ ɫ aː b i l m i j o m h a n ɟ i d eː n s i z c e n a n ɫ a k o n u ʃ t u j s a b i l m i j o m b i z l e ɾ d e n b i ɾ i a m a c i m <hes> ʃ ʃ e j p e ɾ i h a n ɫ a m ɯ k o n u ʃ m u ʃ j a s e m i n l e m i <hes> ʃ e j a m a n j aː s e m i n d i j o m n e s l i h a n ɫ a m ɯ n e s l i a n m ɯ s ø j l e m i ʃ <no-speech> j aː n i s ø j l e m e j e ʤ e c l e ɾ d i b u n u h e m e n <hes> h a c e n a n a h a b e ɾ u ʧ u ɾ m u ʃ ɫ a ɾ 
[175.145]
<no-speech> 
[175.965]
oː d a k ɯ j a m e t i k o p a ɾ t m ɯ ʃ t a b i j aː n i 
[178.345]
<no-speech> 
[180.805]
a ɫ o 
[181.405]
<no-speech> 
[188.175]
j a b e n d e s ø j l e d i m j e n ɟ e m e oː ɟ y n w a p u ɾ d a n a ɾ a d ɯː m d a d e d i m c i j e n ɟ e j aː n i b i ʧ o ʤ u k d e d i m ʧ o ʤ uː n d e d i m s a n a d e d i m n a s ɯ ɫ d e d i m k a ɾ ɯ ʃ ɯ j o ɾ d e d i m j aː n i d i j e m i j o ɾ m u s u n c i oː ɫ u m b e n m u m y b a ɾ e c b i j e ɾ e ɟ i d i j o m b e n t a t i l e ɟ i t m i j o m j aː n i b e n i b a d e t e ɟ i d i j o m o ɾ a j a a ɾ t ɯ j a n ɯ m d a b e n i m b i s y ɾ y j e d i c i ʃ i ɟ i d i j o z b i z b i s y ɾ y i n s a n w a ɾ j aː n i j a ɫ n ɯ z d iː l i m o ɾ d a j aː n i n e w a ɾ b u n d a j aː n i b u a j ɯ p 
[211.575]
d iː l ɟ y n a d iː l b u n u d i n i b i ʃ e j w e ʤ i b e j e ɟ i d i j o n s e n b u ɾ a j a d e d i m h i ʧ d e d i b e n ʃ e j <hes> a s c e ɾ d e o ɫ d uː i ʧ i n k o ɾ k u j o m i ʃ t e ʃ e j j a p a ɾ t͡ʃ ɯ k a ʧ ɯ c a ɾ ʧ e c e ɾ ɟ e l i ɾ 
[223.325]
a s c e ɾ l iː j a c a ɾ j aː n i oː ɟ y l e ɾ b u ɾ a d a j a ɫ n ɯ z k a ɫ d ɯː i ʧ i n h ɯ 
[229.195]
<no-speech> 
[231.235]
ɟ y l e ɾ b u ɾ a d a j a ɫ n ɯ z k a ɫ d ɯː i ʧ i n m i ʃ 
[233.415]
<no-speech> 
[235.445]
h ɯ 
[235.925]
<no-speech> 
[238.945]
j a b a k c e m a ɫ b a ʃ ɯ n d a <hes> h a w w a n ɯ n a n a s ɯ d a ɟ e l ʤ e c aː a b ɫ a s ɯ d a ɟ e l i ʤ e c m i ʃ e w e <no-speech> o n d a n s o n ɾ a b i l i j o n ɟ y l e ɾ o k u ɫ u b ɯ ɾ a k t ɯ ɟ y l e ɾ o k u ɫ u b ɯ ɾ a k t ɯ e w d e o t u ɾ u j o ɾ o k u ɫ a d a ɟ i t m i j o ɾ a ɾ t ɯ k 
[250.785]
oː ʧ o ʤ uː l i s e j i b i t i ɾ t t i ɾ e m e d i l e ɾ j aː n i h a n i <hes> <click> j u d i j o m a ɾ t ɯ k l i s e j i b i t i ɾ t t i ɾ e m e d i l e ɾ oː ʧ o ʤ u a j a ɾ ɯ m b ɯ ɾ a k t ɯ j aː n i <no-speech> h a n i h i ʧ o k u m a s a j d ɯ <no-speech> h i ʧ o k u m a s a j d ɯ i l k o k u ɫ d a n ʧ ɯ k ɯ p e w d e o t u ɾ s a j d ɯ a n ɫ a ɾ d ɯ m o k u m a d ɯ d e ɾ i m o t u ɾ u ɾ d u e w d e a m a t u t u p d a l i s e b i l i s e i c i j e k a d a ɾ ɟ e l e n b i i n s a n ɯ n o k u ɫ u j a ɾ ɯ m b ɯ ɾ a k m a s ɯ n a b e n h i ʧ b i ɾ a n ɫ a m w e ɾ e m i j o m j aː n i <no-speech> t a m aː m e n <hes> <no-speech> 
[275.175]
ɟ y ɫ a j ʤ ɯ m b i i n s a n c e n d i n e ɟ y w e n m i j o s a c i m s e j e d e ɟ y w e n m e z z a t e n o n ɫ a ɾ ɯ n c e n d i l e ɾ i n e ɟ y w e n i j o k aː e ɾ c e c o ɫ a ɾ a k e ɾ c e c o ɫ a ɾ a k c e n d i l e ɾ i n e ɟ y w e n m i j o ɾ ɫ a ɾ o k u j a n b i i m a m h a t i p t e o k u j a n b i <hes> ɟ e n ʧ 
[287.135]
k ɯ z ɯ n t u t u p d a k a ɾ d e ʃ i n i z i n i s t i c b a l i n e n i j e e n ɟ e l o ɫ d u n u z o k u j o ɾ d u ʧ o ʤ u k i ʃ t e j o k a ɫ d ɯ ɫ a ɾ s a n c i o k u ɫ a ɟ i d i p <hes> o k u ɫ a ɟ i d i p s a n c i <hes> a j k ɯ ɾ ɯ n a m u s d ɯ ʃ ɯ d ɯ ʃ ɯ b i ʃ e j 
[298.965]
ʃ e j j a p ɯ j o ɾ l e c e s y ɾ y j o ɾ s a n c i s o j a d ɫ a ɾ ɯ n a b e n a n ɫ a m ɯ j o m j a b u n ɫ a ɾ a ʤ aː j i p ʤ aː h i l ʤ aː h i l i n s a n ɫ a ɾ ʤ a i l l i c w a ɾ ɟ y ɫ a j iː t e m e z s i n 
[307.495]
<no-speech> 
[313.98]
<no-speech> 
[320.465]
a j n e n ø j l e ʃ i m d i b u ɟ y n a s ɫ ɯ n d a k ɯ j a m e t l e ɾ i k o p a ɾ t ɯ j o ɾ e f e n d i m t u t t u ɾ m u ʃ s o n d a c i c a <hes> ɟ y l e ɾ i d e ɟ ø t y ɾ ʤ e c s i n d i j o ɾ u m ɾ e j e eː ɟ y l e ɾ ɟ i t m e c i s t e m i j o ɾ z a t e n 
[331.225]
<no-speech> 
[332.085]
ɟ y l e ɾ ɟ i t m e c i s t e m i j o ɾ a ɾ t ɯ p a ɾ a d u ɾ u m u w a ɾ eː p a ɾ a d u ɾ u m u w a ɾ j o k i ʃ t e e f e n d i m b e n o n u d a a n ɫ a j a m a d ɯ m j a l a f a ɾ a m ɯ z d a o n u d a o n u d a ʧ ø z e m e d i m b i t y ɾ l y <breath> j aː n i t ø w b e eː s t aː f u ɾ u ɫ ɫ a h 
[343.315]
h a n i a j ɾ a n ɫ a ɾ ɯ j o k i ʧ m e j e a t ɫ a ɟ i d i j o ɾ ɫ a ɾ b i l m e m n e j a p m a j a d i j e b i l a f w a ɾ j a oː m i s a l ɟ yː j aː a s c e ɾ e ɟ i t m e d e n e w w e l a s c e ɾ e ɟ i t m e d e n e w w e l i c i m i l j a ɾ l i ɾ a p a ɾ a b i ɾ i c t i ɾ m i ʃ b e j e f e n d i o ɾ d a ɟ i d e ɾ c e n b i a ɾ k a d a ʃ ɯ n a b ɯ ɾ a k m ɯ ʃ <breath> a ɾ c a d a ʃ ɯ n ɯ a ɾ ɯ ʤ a k m ɯ ʃ oː p a ɾ a j ɯ a ɫ ɯ ʤ a k m ɯ ʃ <hes> c e m a ɫ <no-speech> ɟ y l e ɾ i d e j o ɫ ɫ a j ɯ n oː i c i m i l j a ɾ ɫ a i c i m i l j a ɾ a s a n c i u m ɾ e j e ɟ i d i l i j o ɾ eː ɟ e ɾ i s i n i d e b o ɾ ʧ a ɫ ɯ ʤ a k m ɯ ʃ c e m a ɫ b i j e ɾ l e ɾ d e n 
[366.975]
t a m a m ɫ a j a ʤ a k m ɯ ʃ u m ɾ e j e ɟ y l y d e u m ɾ e j e ɟ ø t y ɾ ʤ e c s i n j a n ɯ n d a ɟ y l e ɾ e w d e j a ɫ n ɯ z c a ɫ ɯ ɾ s a a k ɫ ɯ k a ɫ ɯ ɾ m ɯ ʃ 
[374.655]
<no-speech> 
[383.095]
b e n s o ɾ d u m ɟ y l e ɾ i ɟ y l e ɾ d e d i m s e n ɟ i t m e c i s t i j o ɾ m u s u n d e d i m <hes> o n d a n s o n ɾ a i ʃ t e b i l m i j o m ɟ y ɫ a j a b ɫ a d a h i ʧ a k ɫ ɯ m d a j o k t u a m a a ɾ t ɯ k n e j a p a j ɯ m aː b i m ø j l e i s t e d i j i i ʧ i n m e ʤ b u ɾ u m ɟ i t m e j e <breath> d e d i m 
[394.655]
c i w a ɫ ɫ aː o t e l l e ɾ d e j e ɾ j o k 
[396.285]
<no-speech> 
[398.935]
j a o n a j a o n b e ʃ o n a ɫ t ɯ j a ʃ ɯ n d a c i ʧ o ʤ uː n n e i ʃ i w a ɾ a ɫ ɫ a a ʃ k ɯ n a u m ɾ e d e ɟ y ɫ a j j a d a a o n b e ʃ o n a ɫ t ɯ j a ʃ ɯ n d a ʧ o ʤ u k j aː n i b u n u j a i s t e m e c l aː z ɯ m ɟ y ɫ a j i s t e m e c l aː z ɯ m 
[409.045]
<no-speech> 
[409.975]
j aː n i 
[410.585]
<no-speech> 
[411.875]
ʃ i m d i e w e t s o ɾ m a ɫ a ɾ ɯ ɟ e ɾ e c i j o ɾ 
[414.775]
<no-speech> 
[416.145]
ʃ u a n d a b e n b u ɟ ø ɾ e w i j e ɾ i n e ɟ e t i ɾ e m e m b i l i j o ɾ m u s u n c e n d i m i c e n d i m i h a z ɯ ɾ h i s s e t m i j o m u m ɾ e i ʧ i n b e n c e n d i m i h a z ɯ ɾ h i s s e t m i j o m h ɯ b e n ɟ i d e m e m ʃ u a n d a a m a h a b iː b e j e n ɟ e m 
[427.555]
c e n d i n i h a z ɯ ɾ h i s s e t t iː i ʧ i n ɟ i d i j o ɾ a ɫ ɫ a ɾ aː z ɯ o ɫ m u ʃ t u n <breath> <hes> h a w w a j e n ɟ e m d e ɟ i d i j o ɾ h a w w a j e n ɟ e m d e ɟ i d i j o ɾ k a j ɯ n w a l i d e m d e c e n d i m i <hes> c e n d i m i d i j o ɾ ɟ i t m e j e h a b e n h a z ɯ ɾ h i s s e t t i j i m z a m b e n c e n d i n i h a z ɯ ɾ <hes> h i s s e d e n b i i n s a n ɯ j o ɫ ɫ a ɾ ɯ m b e n h a w w a j a s o ɾ d u m j e n ɟ e d e d i m ɟ i t m e c i s t e ɾ m i s i n ɟ ø n l y n d e b ø j l e b i ʃ e j w a ɾ m ɯ a j ʧ o k s e w i n i ɾ i m ɟ y ɫ a j d u a e d e ɾ i m s a n a d e d i b e n d e b u i ʃ e k a ɫ k ɯ ʃ t ɯ m 
[450.715]
<breath> h a c e z a a n n e m d e h a b iː b e j e n ɟ e m e s o ɾ d u <no-speech> a n n e m d e h a b iː b e j e n ɟ e m e s o ɾ d u h a b iː b e j e n ɟ e m d e ʧ o k h e w e s l i j i m ɟ i t m e c i s t i j o m a b ɫ a <hes> d e m i ʃ b i z d e b u i ʃ e b a ʃ ɫ a d ɯ k <no-speech> j aː n i b a n a d e s e j d i c i h a w w a j o k ɟ y ɫ a j b e n h a z ɯ ɾ h i s s e t m i j o m b e n n a s ɯ ɫ j o ɫ ɫ a ɾ d ɯ m o n u <no-speech> ɟ y l e ɾ <click> d e a j n ɯ d u ɾ u m d a ʃ u a n d a 
[468.535]
<no-speech> 
[471.315]
j a a ɾ t ɯ <hes> ɟ y l e ɾ ʤ iː m <hes> b u m y b a ɾ e c j e ɾ e ɟ i d i j o n b u n u n p a ɾ a s ɯ s o n k u ɾ u ʃ u n a k a d a ɾ h e ɫ a ɫ o ɫ m a ɫ ɯ <no-speech> t u t u p d a b o ɾ ʧ ɫ a u m ɾ e j e ɟ i d i l m e z b a k b o ɾ ʧ ɫ a u m ɾ e j e ɟ i d i l m e z 
[483.785]
<no-speech> 
[484.625]
i c i m i l j a ɾ b e j e f e n d i p a ɾ a b i ɾ i c t i ɾ m i ʃ b i ɾ i c t i ɾ m i ʃ ɟ e ɾ i s i j l e d e c e m a ɫ ɟ i d ʤ e c m i ʃ s aː d a n s o ɫ d a n b o ɾ ʧ t o p ɫ a j a ʤ a k m ɯ ʃ <hes> ɟ y l e ɾ i d e ɟ ø t y ɾ ʤ e c m i ʃ h a w w a h a w w a j a n ɯ n d a j o k b ø j l e b i ʃ e j j aː n i b e n d e d i m 
[496.345]
c i oː ɟ y n h a w w a j a j e n ɟ e d e d i m b o ɾ ʧ ɫ a o ɫ u ɾ m u b u i ʃ l e ɾ d e d i m <breath> a j i ʃ t e ʃ e j ø j l e s ø j l e d i c e n a n 
[502.025]
<no-speech> 
[512.399938]
<no-speech> 
[522.774875]
w a ɫ ɫ aː b e n a n ɫ a m ɯ j o m ɟ y ɫ a j ʧ ø z e m e d i m b e n b u i ʃ i 
[526.205]
<no-speech> 
[527.025]
b i l m i j o m <no-speech> h e b i d e i ʃ i n t u a f j a n ɯ ʃ e j <hes> s e n m aː d e m a s c e ɾ e ɟ i t m e d e n b ø j l e b i j a t ɯ ɾ ɯ m j a p t ɯ n p a ɾ a b i ɾ i c t i ɾ d i n n e d e n b u p a ɾ a j ɯ ɟ i d e ɾ c e n a n n e n e t e s l i m e t m i j o n d a b i a ɾ k a d a ʃ ɯ n a w e ɾ i j o ɾ s u n p a ɾ a j ɯ j e n ɟ e m o ɾ d a b e ʃ k u ɾ u ʃ a t a k ɫ a a t ɯ j o ɾ k a d ɯ n ʤ a ɯ z c i ɾ a s ɯ n ɯ a ɫ a m a m ɯ ʃ e l e c t ɾ i c s u p a ɾ a s ɯ n ɯ ø d e j e m e m i ʃ a n n e n i n oː k a d a ɾ m aː d u ɾ i j e t i w a ɾ b u ɾ a d a s e n n i j e a n n e n e 
[550.615]
ɟ y w e n i p d e a n n e n e p a ɾ a n ɯ t e s l i m e t m e d i n d e ɟ i d i p e ɫ a l e m i n a d a m ɯ n a w e ɾ d i n b e l c i a d a m oː p a ɾ a j ɯ s a n a ø d i j ʤ e c ø d e m e j e ʤ e c b e n a n ɫ a m a d ɯ m b i o ɾ t a d a b i ʃ e j l e ɾ d ø n y j o ɾ a m a b i t y ɾ l y b e n ʧ ø z e m e d i m d e d i m 
[562.235]
c i h a w w a j a w a ɫ ɫ aː d e d i m j e n ɟ e d e d i m a ɾ a d e d i m u m ɾ e o ɾ g a n i z a s j o n u t e l e f o n u w e ɾ i j i m d e d i m a ɾ a d e d i m b i z d e d i m oː ɟ y n d e d i m s o ɾ d u k d e d i m h a b iː b e j e n ɟ e m l e s o ɾ d u k o n d a n s o n ɾ a <hes> ʃ e j 
[573.865]
b iː ɾ a z s ɯ k ɯ n t ɯ ɫ ɯ o t e l l e ɾ o d a ɫ a ɾ d a h a t t a b a j aː b i o d a p ɾ o b l e m i j a ʃ a d ɯ k o ɾ d a a n n e m b e l c i a n ɫ a t m ɯ ʃ t ɯ ɾ <no-speech> o n d a n s o n ɾ a o d a s ɯ k ɯ n t ɯ s ɯ w a ɾ b a ʃ k a o t e l e w e ɾ m e i h t i m a l l e ɾ i w a ɾ b a ʃ k a b i o d a j a w e ɾ m e i h t i m a l l e ɾ i w a ɾ ɟ y l e ɾ i <no-speech> ɟ y l e ɾ i <hes> o n d a n s o n ɾ a b e n d e d i m c i j o k <no-speech> j o k d e d i m b u i ʃ j a ʃ <hes> b a ʃ k a b i o d a d a b a ʃ k a b i k a d ɯ n ɫ a m ɯ k a ɫ ʤ a k ɟ y l e ɾ j a b a n ʤ ɯ k a d ɯ n ɫ a 
[597.205]
<breath> ʃ i m d i ɟ yː j aː d y n a ɫ d ɯː m h a b e ɾ e 
[599.635]
ɟ ø ɾ e b e n h a w w a 
[600.26]
