[0.0]
<no-speech> 
[11.385]
a ɫ o 
[12.095]
<no-speech> 
[13.625]
a ɫ o <no-speech> h ɯ n e j a p ɯ j o n 
[16.375]
<no-speech> 
[17.405]
<hes> b e n i m b e n i m 
[18.325]
<no-speech> 
[22.885]
t a m a m i j i oː j aː n i ʃ e j d e ɾ i n ɟ e l i j o ɾ 
[26.315]
<no-speech> 
[27.985]
n e k o n u s u 
[29.045]
<no-speech> 
[32.695]
t a m a m n e j a p ɯ j o n n a s ɯ ɫ ɟ i d i j o ɾ t a t i l 
[35.985]
<no-speech> 
[44.785]
o a aː f e ɾ i n l a n 
[46.425]
<no-speech> 
[47.705]
aː f e ɾ i n b i ʃ e j s ø j l i j ʤ eː m b e n h a n i oː f i z i c t e n s o n ɾ a m e s a ʒ a t t ɯ m h o ʤ a j a b a n a ɟ e ɾ i d ø n m e d i <hes> 
[54.005]
<no-speech> 
[56.015]
f i z i c ʧ i h a j ɯ ɾ h a j ɯ ɾ m u s t a f a h o ʤ a j a m e s a ʒ a t t ɯ m j a ɟ e ɾ i d ø n m e d i s i n i ɾ l e n d i h e ɾ h a l d e 
[61.525]
<no-speech> 
[65.595]
<laugh> n e j a p a j ɯ m w a ɫ ɫ aː ɟ e l i j o ɾ u m y m ɾ a n i j e j e m i ɟ e l ʤ eː m 
[68.715]
<no-speech> 
[70.435]
<laugh> b i ʃ e j s ø j l i j ʤ eː m 
[72.135]
<no-speech> 
[73.325]
<hes> 
[73.825]
<no-speech> 
[75.255]
s ø j l e b i d a a 
[76.055]
<no-speech> 
[77.265]
s e n s ø j l e 
[78.765]
<no-speech> 
[82.285]
b i ʃ e j d i ʤ eː m k u ɫ ɫ a n ɯ j o ɾ m u s u n ʃ u a n 
[85.245]
<no-speech> 
[89.395]
t y j a 
[90.375]
<no-speech> 
[91.475]
n i h a l e b i ʃ e j s o ɾ d i ʤ e c t i m <no-speech> j a b a k b i t a n e d e ɾ s a n e d e d e ɾ s a n e d e b i ʧ o ʤ u k w a ɾ 
[98.275]
<no-speech> 
[99.375]
n i a l i n i n d e e c l i 
[100.955]
<no-speech> 
[101.885]
<hes> b e n ʧ o ʤ u a ɟ i d i p ʃ e j d e m i ʃ t i m i ʃ t e e ɾ e n d i j e b i ʧ o ʤ u k 
[105.475]
<no-speech> 
[106.765]
b a k s o n ɾ a d y n a k ʃ a m e ɾ e n d i j e b i ɾ i 
[109.825]
<no-speech> 
[111.135]
<no-speech> 
[111.505]
<no-speech> 
[112.345]

[113.035]
<no-speech> 
[113.895]
h ɯ d u ɾ b e c l e s a b a u j a n d ɯ m i ʃ t e s aː t c a ʧ j e d i b u ʧ u k m u n e t e l e f o n a b i b a k t ɯ m t a n ɯ m a d ɯː m b i n u m a ɾ a d a n m e s a ʒ c i b u t a ɾ z ʃ e j l e ɾ e s i n i ɾ o ɫ u ɾ u m h a n i n u m a ɾ a m ɯ n b a ʃ k a s ɯ n a w e ɾ i l m e s i n e 
[125.695]
n e h a b e ɾ ʒ o e b e n e ɾ e n d i j e m e s a ʒ a t m ɯ ʃ 
[128.235]
<no-speech> 
[129.364875]
b e n ʧ o ʤ u k ɫ a h a n i m e ɾ h a b a m e ɾ h a b a h i ʧ b i ɾ a ɾ k a d a ʃ ɫ ɯː m j o k ʧ o k s i n i ɾ l e n d i m d e d i m a ʤ a b a <click> h a n i n i j aː z i j a k ɯ n s a n d ɯ ʧ o ʤ u k i s t e d i w e ɾ d i m i j o k s a d e ɾ s a n e d e i c i ʧ o ʤ u k w a ɾ <no-speech> e s c i d e n a ɾ k a d a ʃ t ɯ m b e n o n ɫ a ɾ w e ɾ d i d i j e d y ʃ y n y j o m a a z ɫ a ɾ ɯ n a s ɯ ʧ ʤ aː m d a s ɯ ʧ m a d a n ø n ʤ e b i n i h a l l e k o n u ʃ a j ɯ m d e d i m 
[146.485]
<no-speech> 
[151.355]
<hes> 
[153.105]
<no-speech> 
[155.635]
b i ʃ e j s ø j l iː m m i h a j ɯ ɾ s o ɾ u n d iː l ʧ o ʤ u k ʃ e j j aː n i ʧ o ʤ u k t a n ʃ e j j a p t ɯː m d a n d iː l b e n u j a ɾ m ɯ ʃ t ɯ m c i m s e j e w e ɾ m e j i n d i j e oː j y z d e n 
[164.965]
<no-speech> 
[166.745]
ɟ e ɾ i z e k aː ɫ ɯ ɫ a ɾ ʃ e ɾ e f s i z l i c j a p t ɯ ɫ a ɾ a a z ɫ a ɾ ɯ n a s ɯ ʧ ʤ aː m 
[170.195]
<no-speech> 
[171.525]
<hes> 
[171.965]
<no-speech> 
[173.785]
n i a ɫ d iː l b e ø f n i a ɫ j a p m a m ɯ ʃ t ɯ ɾ d i j e d y ʃ y n y j o m j aː n i s a n m ɯ j o m a m a b e l c i b i z i j a k ɯ n s a n d ɯ j s a b e l c i oː w e ɾ m i ʃ t i ɾ <no-speech> i d i l m i 
[184.005]
<no-speech> 
[186.215]
i d i l 
[187.145]
<no-speech> 
[188.725]

[189.755]
<no-speech> 
[191.225]
n i h a l i m i a ɾ a j a j ɯ m 
[192.305]
<no-speech> 
[196.925]
<hes> 
[198.065]
<no-speech> 
[200.485]
ʃ e j <hes> e n s o n m e s a ʒ m ɯ n e a t t ɯ 
[203.725]
<no-speech> 
[206.235]
n e j a p m ɯ ʃ 
[207.095]
<no-speech> 
[209.345]

[210.065]
<no-speech> 
[211.645]
<hes> i j i b o k j i j o ɾ 
[212.865]
<no-speech> 
[214.725]
h a d i b i ʃ e j s ø j l iː m m i b e n ʤ e ø j l e b i ʃ e j o ɫ u ɾ s a b a n a a n ɫ a t ɯ ɾ ɟ i b i m e ɟ e l i j o ɾ j a d a a ɾ t ɯ k b e n i d e <laugh> ɟ ø z d e n ʧ ɯ k a ɾ d ɯ <laugh> 
[224.725]
<no-speech> 
[226.615]

[229.625]
<no-speech> 
[233.295]
c i m d e d i s a n a 
[234.415]
<no-speech> 
[236.965]
j u ɾ s a ɫ m ɯ ɟ y n s a ɫ m ɯ 
[239.415]
<no-speech> 
[241.005]
<hes> o ɫ a b i l i ɾ 
[243.015]
<no-speech> 
[244.905]
<hes> 
[245.465]
<no-speech> 
[246.825]
b i l m i j o m j a 
[247.975]
<no-speech> 
[252.575]
ʃ e j h o ʤ a d a m ɯ k a ɫ ɯ j o ɾ s u n u z 
[254.485]
<no-speech> 
[256.665]
a m a ɟ ø ɾ y j o n 
[258.465]
<no-speech> 
[259.934875]
i ʃ m i j aː n i ʧ a ɫ ɯ ʃ m ɯ j o ɾ b i z i m d e b u ɟ y n d e ɾ s aː n e t a t i l o ɫ d u 
[263.975]
<no-speech> 
[265.965]
d e ɾ s a n e j e ɟ i t 
[266.915]
<no-speech> 
[269.475]
j a ʧ a ɫ ɯ ʃ ɯ n d a oː u j k u ʃ e j i j a s o ɾ u n d iː l j a 
[272.445]
<no-speech> 
[273.275]
b i ɾ d e n b i ɾ e s a b a c a ɫ k t ɯ m d e ɾ s a n e j e ɟ i t t i m 
[277.195]
<no-speech> 
[277.995]
b a k d e ɾ s a n e j e ɟ i t t i m c a p ɯ d a n ɟ i ɾ d i m b a n a t a t i l d e d i l e ɾ f ɯ t t ɯ ɾ d ɯ m f ɯ t t ɯ ɾ d ɯ m k a w ɟ a e d ʤ e c t i m 
[284.465]
<no-speech> 
[285.575]
t a t i l 
[286.395]
<no-speech> 
[287.665]
<hes> <laugh> 
[288.695]
<no-speech> 
[289.495]
j a ɾ ɯ n d a t a t i l b i l i j o ɾ m u s u n 
[291.275]
<no-speech> 
[293.315]
ʧ o k s a ʧ m a 
[294.245]
<no-speech> 
[295.125]
e w e t 
[295.725]
<no-speech> 
[296.665]
h a n i ʧ o k j a k ɯ n o t u ɾ m a j a n ɫ a ɾ w a ɾ j a b e n i m e w i m b e ʃ d a c i c a u z a k ɫ ɯ k t a j aː n i a m a i ʃ t e j aː n i u z a k t a o t u ɾ a n ɫ a ɾ i ʧ i n h o ʤ a ɫ a ɾ i ʧ i n 
[303.995]
<no-speech> 
[307.125]
w a ɫ ɫ aː t a t i l d i 
[308.805]
<no-speech> 
[310.745]
j a ɫ n ɯ z 
[312.585]
<no-speech> 
[314.005]
h e m b i ʃ e j s ø j l iː m m i b u ɾ a d a b a j a k a ɾ w a ɾ k a ɾ w a ɾ 
[317.065]
<no-speech> 
[318.765]
i j i a m a a z ø j l e t a t i l o ɫ ʤ a k k a d a ɾ d iː l 
[321.235]
<no-speech> 
[323.675]
n e 
[324.215]
<no-speech> 
[331.005]
<hes> 
[331.645]
<no-speech> 
[339.105]
a t a c ø j d e f e m a ʧ ɯ ɫ ɯ j o ɾ 
[340.785]
<no-speech> 
[343.065]
a t a c ø j y n ɟ i ɾ i ʃ i n e f e m a ʧ ɯ j o ɾ ɫ a ɾ <no-speech> oː ɫ u m c a ʧ c a ʧ k a t ɫ ɯ p i l a z a a ɫ m ɯ ʃ ʃ e ɾ e f s i z l e ɾ 
[350.165]
<no-speech> 
[353.005]
ʧ o k f e n aː j a ɟ ø ɾ s e n d ɯ ʃ t a n b a j a ɟ y z e l 
[356.435]
<no-speech> 
[362.505]
h ɯ i ʃ t e ʃ e j m i ʃ b i c a t ɯ f e m ø z e l n o ɾ m a l m i ʃ s o n ɾ a b i j e ɾ b i c a t ɯ j u ɾ t o ɫ ʤ a k m ɯ ʃ j aː n i oː t a ɾ z b i ʃ e j 
[368.645]
<no-speech> 
[373.235]
b i t m i ʃ b i n aː b e <no-speech> b i t i c 
[376.105]
<no-speech> 
[377.735]
h a n i ʃ i m d i b i z s e ɾ w i s l e ɟ i d e ɾ c e n m e m o ɾ i a ɫ h a s t aː n e s i n i n o ɾ d a n s o ɫ a d ø n y j o ɾ j a 
[385.695]
<no-speech> 
[388.565]
h a n i b e n i b ɯ ɾ a k ɯ j o ɾ b i b e n z i n ʤ i n i n o ɾ d a d e ɾ s aː n e i ʧ i n s o n ɾ a a t a ʃ e i ɾ e d e w a m e d i j o ɾ s aː d a b i h a s t aː n e w a ɾ j a o n u n a ɾ k a s ɯ n d a 
[395.925]
<no-speech> 
[396.825]
o n u n a ɾ k a s ɯ n d a 
[398.035]
<no-speech> 
[399.595]
a t a ʃ e i ɾ i n ɟ i ɾ i ʃ i n d e 
[400.875]
<no-speech> 
[403.105]
<hes> 
[403.505]
<no-speech> 
[411.805]
<hes> 
[412.605]
<no-speech> 
[413.565]
b i ʃ e j d i ʤ eː m ʃ e j s e k a ɾ d e ʃ i m i d e s ø j l e d e o ɾ d a n d a ʃ e j j a p a ɫ ɯ m o n m i l j o n k a z a n ɯ j o s a n 
[419.505]
<no-speech> 
[428.125]
<hes> t a m a m 
[429.065]
<no-speech> 
[430.025]
<no-speech> 
[430.385]
<no-speech> 
[431.205]
<no-speech> 
[432.445]
<no-speech> 
[434.595]
<hes> 
[435.245]
<no-speech> 
[437.895]
o n ɫ a ɾ ɟ i b i i j i 
[440.375]
<no-speech> 
[449.395]
<hes> a n ɫ a d ɯ m 
[451.335]
<no-speech> 
[452.135]
e ʤ e n a z n e j a p ɯ j o ɾ 
[453.355]
<no-speech> 
[455.725]
<no-speech> 
[456.275]
<no-speech> 
[457.305]
a j ɾ ɯ ɫ d ɯ n m ɯ 
[458.255]
<no-speech> 
[461.815]
b i ɾ i j l e ʧ ɯ k ɯ j o ɾ m u s u n 
[462.775]
<no-speech> 
[467.805]
<no-speech> 
[468.155]
<no-speech> 
[469.255]
t a m a m 
[469.745]
<no-speech> 
[470.585]
t a m a m t a m a m e n d oː ɾ u s u n u j a p m ɯ ʃ s ɯ n e n ɟ y z e l i 
[473.885]
<no-speech> 
[478.785]
t a m a m h a d i ø p y j o m s e n i 
[480.605]
<no-speech> 
[482.365]
<no-speech> 
[482.715]
<no-speech> 
[484.775]
t a m a m k a p a m ɯ j o m 
[486.235]
<no-speech> 
[489.615]
k a p a m ɯ j o m <laugh> 
[490.535]
<no-speech> 
[492.985]
b i z e t o ɾ p i l ɟ e ʧ i j o ɾ ɫ a ɾ 
[494.505]
<no-speech> 
[499.175]
e f e n d i m 
[499.825]
<no-speech> 
[504.785]
t a m a m t a m a m k a p a m ɯ j o m b e n 
[506.335]
<no-speech> 
[516.205]
n e d e d i n 
[516.934875]
<no-speech> 
[522.665]
b i z i s e w d i t e l e f o n k a p a n m ɯ j o ɾ 
[524.735]
<no-speech> 
[528.395]
<no-speech> 
[529.455]
<no-speech> 
[533.695]
<no-speech> 
[535.275]
<no-speech> 
[536.085]
<no-speech> 
[537.485]
<no-speech> 
[539.245]
<no-speech> 
[541.165]
<no-speech> 
[545.125]
k a p a n m a d ɯ 
[546.235]
<no-speech> 
[553.045]
k a p a j a j ɯ m m ɯ k a p a m a j a j ɯ m m ɯ 
[554.195]
<no-speech> 
[556.825]
<no-speech> 
[558.195]
<no-speech> 
[559.035]
<no-speech> 
[559.475]
<no-speech> 
[564.225]
<no-speech> 
[565.295]
<no-speech> 
[568.905]
t a m a m d a k a p a n m a j a ʤ a k 
[571.395]
<no-speech> 
[574.285]
<laugh> <breath> 
[576.665]
<no-speech> 
[580.175]
<no-speech> 
[582.215]
<no-speech> 
[587.525]
<no-speech> 
[588.275]
<no-speech> 
[594.475]
<laugh> e f e n d i m 
[596.505]
<no-speech> 
[599.075]
n e j a p ɯ j o n 
[599.685]
<no-speech> 
[600.18]
