[0.0]
<no-speech> 
[2.605]
<no-speech> 
[3.115]
<no-speech> 
[5.195]
<int> <no-speech> h ɯ <no-speech> s ø j l e oː ɫ u m <no-speech> b a k t ɯ m 
[8.405]
<no-speech> 
[9.495]
e f e n d i m 
[10.555]
<no-speech> 
[11.945]
h ɯ 
[12.485]
<no-speech> 
[14.835]
d u j u j o m t a b i 
[16.025]
<no-speech> 
[18.815]
i j i j i m <laugh> s i z n e j a p ɯ j o s u n u z n e i ʃ l e ɾ k a ɾ ɯ ʃ t ɯ ɾ ɯ j o s u n u z 
[22.055]
<no-speech> 
[23.815]
a ɫ o 
[24.635]
<no-speech> 
[28.005]
h ɯ s ø j l e 
[29.095]
<no-speech> 
[30.015]
h ɯ 
[30.615]
<no-speech> 
[35.085]
e 
[35.825]
<no-speech> 
[37.215]
a n c e t i ʃ i s e n d e m i ɟ i ɾ d i n 
[38.985]
<no-speech> 
[41.895]
s e n d e m i ɟ i ɾ d i n <no-speech> <int> s e n d e m i ɟ i ɾ d i n d i j o m 
[45.855]
<no-speech> 
[46.835]

[48.535]
<no-speech> 
[50.025]
i j i <no-speech> t a m a m d a a k o n u ʃ a ʤ a k m ɯ j ɯ z b ø j l e 
[53.555]
<no-speech> 
[54.705]
ɟ e ʧ t i m i d e ɾ s l e ɾ i n i n h e p s i n d e n <no-speech> b e ʃ i n d e n d e 
[57.975]
<no-speech> 
[60.025]
ɟ e ʧ t i n m i d e ɾ s l e ɾ i n d e n <no-speech> <click> h ɯ 
[63.055]
<no-speech> 
[66.225]
b e ʃ i n d e n d e ɟ e ʧ t i n m i 
[67.835]
<no-speech> 
[69.655]
b i t a n e 
[70.345]
<no-speech> 
[71.735]
ɟ aː l i b a 
[72.625]
<no-speech> 
[75.935]
a d a a n e i s t i j o ɾ m u ʃ s u n d a a 
[78.205]
<no-speech> 
[79.625]
h ɯ <no-speech> <click> i j i b a b a n d a j a n ɯ m d a 
[82.475]
<no-speech> 
[85.685]
h ɯ 
[86.425]
<no-speech> 
[88.225]
t a m a m 
[88.845]
<no-speech> 
[90.455]
t a m a m i c i m i z k o n u ʃ u j o z h ɯ 
[92.395]
<no-speech> 
[93.975]
t a m a m 
[94.625]
<no-speech> 
[95.565]
<hes> b a ʃ k a n e w a ɾ n e j o k 
[97.325]
<no-speech> 
[98.645]
a b ɫ a n i j i <hes> ʤ u m a a k ʃ a m ɯ ɟ e l i j o ɾ a b ɫ a n 
[101.195]
<no-speech> 
[103.395]
a k ʃ a m ɟ e l i j o ɾ ʤ u m a a k ʃ a m ɯ 
[105.155]
<no-speech> 
[106.485]
h ɯ i j i <no-speech> i j i s i n i z <no-speech> i j i s i n i z d iː l m i <no-speech> 
[111.685]
<no-speech> 
[113.295]
i j i <int> 
[114.105]
<no-speech> 
[115.845]
h ɯ 
[116.445]
<no-speech> 
[117.835]
h ɯ 
[118.545]
<no-speech> 
[120.435]
h ɯ <laugh> 
[121.345]
<no-speech> 
[124.215]
<laugh> h ɯ 
[127.485]
<no-speech> 
[128.435]

[129.145]
<no-speech> 
[137.685]
<laugh> a n ɫ a m a d ɯ m h ɯ n e b i t m i ʃ 
[140.295]
<no-speech> 
[144.925]
h ɯ h ɯ 
[146.455]
<no-speech> 
[149.515]
<no-speech> 
[150.035]
<no-speech> 
[151.505]
h ɯ 
[152.115]
<no-speech> 
[154.275]
<no-speech> h ɯ 
[156.025]
<no-speech> 
[157.735]
<no-speech> 
[158.345]
<no-speech> 
[159.475]
<breath> <no-speech> h ɯ <no-speech> <laugh> 
[163.625]
<no-speech> 
[166.615]
<no-speech> 
[167.545]
<no-speech> 
[172.095]
<hes> h ɯ 
[172.865]
<no-speech> 
[176.375]
h ɯ 
[176.995]
<no-speech> 
[178.715]

[182.225]
<no-speech> 
[187.515]
n e oː p e c m e z m i <no-speech> h ɯ <no-speech> p e c m e z m i i ʧ i ɾ d i l e ɾ 
[191.925]
<no-speech> 
[193.435]
j a <laugh> <no-speech> <int> <no-speech> i c i m i z k o n u ʃ m a m ɯ z l a z ɯ m m ɯ ʃ 
[201.585]
<no-speech> 
[202.445]
<laugh> h ɯ i j i <no-speech> b a ʃ k a <hes> n e j a p ɯ j o n 
[208.035]
<no-speech> 
[209.455]
c a ʧ ɟ y n d a a b i a j i z n i n w a ɾ d iː l m i j e l i z ɟ e l m i ʃ m i 
[213.175]
<no-speech> 
[214.675]
j e l i z ɟ e l d i m i 
[216.005]
<no-speech> 
[218.675]
e 
[219.185]
<no-speech> 
[221.155]
<no-speech> 
[221.625]
<no-speech> 
[223.185]
n e j a p ʤ a k m ɯ ʃ b i ɫ a ɾ d o m u o j n ɯ ʤ a k m ɯ ʃ 
[225.445]
<no-speech> 
[227.075]
h ɯ 
[227.695]
<no-speech> 
[231.065]
a n i j e c i 
[232.195]
<no-speech> 
[234.435]
h ɯ 
[235.255]
<no-speech> 
[237.495]
h ɯ 
[238.315]
<no-speech> 
[240.445]
<no-speech> i j i 
[241.895]
<no-speech> 
[244.835]
<no-speech> 
[245.205]
<no-speech> 
[249.455]
h ɯ 
[249.935]
<no-speech> 
[254.325]
a 
[255.225]
<no-speech> 
[256.235]
<int> s o ɾ u n ɫ u m u ɟ e ʧ m i ʃ s i n 
[257.745]
<no-speech> 
[261.335]
h ɯ 
[261.905]
<no-speech> 
[263.265]
n a s ɯ ɫ o ɫ u j o ɾ s o ɾ u m ɫ u ɟ e ʧ m e c 
[264.975]
<no-speech> 
[270.735]
y ʧ y n a ɫ t ɯ n a d y ʃ m e m e s i eː j a b e ɾ k <no-speech> b e ɾ k j a ʧ a ɫ ɯ ʃ a z ʤ ɯ k oː ɫ u m j a b u b ø j l e o ɫ m u j o ɾ c i ʧ a ɫ ɯ ʃ m a j ɯ n ʤ a h i ʧ b i ɾ ʃ e j o ɫ m a z 
[277.825]
<no-speech> 
[278.865]
ʧ a ɫ ɯ ʃ a n n e m h a d i h ɯ 
[280.445]
<no-speech> 
[281.545]
e w e t ʧ a ɫ ɯ ʃ 
[282.705]
<no-speech> 
[288.075]
j a <hes> d e ɾ s oː ɫ u m d e ɾ s j aː n i b u d e <breath> z e w k l i z e w k s i z d e ɾ s i ʧ a ɫ ɯ ʃ m a n l aː z ɯ m 
[293.725]
<no-speech> 
[294.835]
h a n ɟ i d e ɾ s o ɫ u ɾ s a o ɫ m u ʃ t u n <int> b e d e n d e ɾ s i o ɫ s a d a ʧ a ɫ ɯ ʃ m a k l aː z ɯ m 
[298.485]
<no-speech> 
[302.585]
h ɯ 
[303.265]
<no-speech> 
[305.435]
<no-speech> h ɯ 
[306.525]
<no-speech> 
[308.235]
i n ʃ a ɫ ɫ a <no-speech> j y c s e c j a p n o t ɫ a ɾ ɯ n ɯ s e n i n i ʧ i n d e i j i o ɫ u ɾ <no-speech> d a a b i ʃ e j l e ɾ i n d e n f a j d a ɫ a n ɯ ɾ s ɯ n b i ʃ e j o ɫ u ɾ <no-speech> j aː n i 
[317.305]
<no-speech> 
[318.325]
s o n ɾ a w a w a w a w a t y c e ʃ c e ʧ a ɫ ɯ ʃ s a j d ɯ m <breath> b e n b u n u h a c c e t t i m d e m e z s i n 
[323.965]
<no-speech> 
[326.085]
j aː n i 
[326.715]
<no-speech> 
[328.205]
d iː l m i <no-speech> d oː ɾ u s ø j l y j o m t a b i 
[330.185]
<no-speech> 
[331.775]
j aː n i <no-speech> f ɯ ɾ s a t ɫ a ɾ ɯ k a ʧ ɯ ɾ m a a n n e ʤ iː m f ɯ ɾ s a t ɫ a ɾ ɯ k a ʧ ɯ ɾ m a 
[336.205]
<no-speech> 
[337.345]
t a m a m ʤ a n ɯ m o ɫ d u m u o n d a c i c a 
[339.275]
<no-speech> 
[341.415]
c a ʧ d a c i c a k o n u ʃ ʤ aː z 
[342.695]
<no-speech> 
[346.205]
ʃ i m d i b u n u b a b a n a w e ɾ s e m o ɫ m u j o ɾ m u 
[348.715]
<no-speech> 
[349.995]
a n ɫ a t b a k a ɫ ɯ m 
[351.015]
<no-speech> 
[352.455]
j o k 
[353.075]
<no-speech> 
[354.965]
j o k i ʃ i m j o k <no-speech> <laugh> h a d i a n ɫ a t b a k a ɫ ɯ m b a ʃ k a n e a n ɫ a t ʤ a k s ɯ n 
[363.335]
<no-speech> 
[369.405]
j o k j a b e n s e n i m e ɾ a k e t t i j i m i ʧ i n a ɾ ɯ j o m s a ɫ a k 
[372.615]
<no-speech> 
[373.515]
n e o ɫ d u n e j a p ɯ j o n d i j e 
[375.145]
<no-speech> 
[382.485]
h ɯ h ɯ h a s t a o ɫ m u ʃ s u n b e l l i s e s i n d e n 
[384.815]
<no-speech> 
[385.825]
n i j e c e n d i n i k o ɾ u m u j o n a n n e ʤ iː m 
[387.835]
<no-speech> 
[389.085]
u u h i 
[390.515]
<no-speech> 
[393.995]
h ɯ 
[394.575]
<no-speech> 
[395.875]
o f 
[396.975]
<no-speech> 
[398.205]
ʧ ɯ p ɫ a k j a t m a b i b o a z <no-speech> ɟ øː s y n y k o ɾ u 
[402.005]
<no-speech> 
[403.805]
t a m a m m ɯ <no-speech> s oː k ʧ y n c y i s t a n b u ɫ k a ɾ j aː j o ɾ d iː l m i 
[407.515]
<no-speech> 
[409.445]
k a ɾ ɟ e l i j o ɾ m u ʃ ɟ e n e <no-speech> j aː m ɯ j o ɾ d a ɟ e l ʤ e c j aː n i ɟ e l i ʤ e c m i ʃ k a ɾ ɟ e l i ʤ e c m i ʃ ʤ u m a ɟ y n y 
[415.205]
<no-speech> 
[417.445]
c e n d i n i k o ɾ u m a n l aː z ɯ m 
[418.795]
<no-speech> 
[420.085]
h ɯ h ɯ c e n d i n i k o ɾ u m a n l aː z ɯ m 
[422.105]
<no-speech> 
[423.955]
h ɯ <no-speech> e s c i ʃ e h i ɾ m i 
[426.205]
<no-speech> 
[428.525]
e s c i ʃ e h i ɾ h e ɾ j e ɾ k a ɾ ɫ ɯ z a t e n 
[430.905]
<no-speech> 
[440.865]
h ɯ <no-speech> a ɫ a n j a d a j aː j o ɾ <no-speech> s y ɾ e c l i j aː j o ɾ 
[445.105]
<no-speech> 
[446.735]
<hes> ʃ e j n a s ɯ ɫ ɟ i d i j o ɾ s i p o ɾ n a s ɯ ɫ 
[448.875]
<no-speech> 
[449.755]
w a ɫ ɫ aː s y ɾ e c l i j aː m u ɾ j aː j o ɾ ʃ u a n d a d a j aː j o ɾ <no-speech> ʃ e j ʃ e j i n n a s ɯ ɫ ɟ i d i j o ɾ <hes> ɟ i t t i j i n o j u n 
[456.285]
<no-speech> 
[459.765]
l a k ɾ o z 
[460.535]
<no-speech> 
[462.265]
<hes> a m a n i ʃ t e b e n j a 
[464.895]
<no-speech> 
[466.385]
z e w k l i m i i j i 
[467.585]
<no-speech> 
[472.025]
<no-speech> b i l i j o m a n ɯ ɫ ɯ 
[473.715]
<no-speech> 
[476.045]
<no-speech> n e ɾ d e <no-speech> 
[480.765]
h ɯ oː d a m ɯ 
[482.105]
<no-speech> 
[483.275]
h ɯ 
[484.095]
<no-speech> 
[486.005]
h ɯ 
[486.755]
<no-speech> 
[489.655]
i j i 
[490.315]
<no-speech> 
[492.985]
h ɯ 
[493.695]
<no-speech> 
[496.585]
i j i eː s e n i n j o k m u a ɾ c a d a ʃ ɯ n d a w a ɾ d iː l m i s e n i n n e j d i oː <hes> ʧ o ʤ u k 
[501.675]
<no-speech> 
[502.865]
oː j o k m u j d u 
[503.805]
<no-speech> 
[504.715]
e f e e f e h ɯ 
[505.795]
<no-speech> 
[508.215]
h ɯ <no-speech> n i j e ɟ i t m i ʃ c i e s c i ʃ e i ɾ d e j s e 
[511.105]
<no-speech> 
[513.695]
eː d e m e c c i b ɯ ɾ a k ɯ p ɟ i d e b i l i j o n s i p o ɾ u 
[516.385]
<no-speech> 
[517.675]
ø j l e m i 
[518.454875]
<no-speech> 
[521.235]
h ɯ <breath> ø j l e 
[522.584875]
<no-speech> 
[525.095]
i j i 
[525.905]
<no-speech> 
[527.575]
t a m a m ʤ a n i k o m <no-speech> o ɫ d u o n o n d a c i c a o ɫ d u m u <int> <no-speech> o n d a c i c a o ɫ m u ʃ b a k 
[533.485]
<no-speech> 
[536.465]
c e n d i m i k a p a n ʤ a k m ɯ ʃ i j i 
[538.175]
<no-speech> 
[539.055]
o ɫ d u a n n e ʤ iː m 
[540.145]
<no-speech> 
[541.325]
b a ʃ k a n e w a ɾ n e j o k a n n e a n n e n l e ɾ n a s ɯ ɫ <hes> n a s ɯ ɫ ɟ e ʧ i n i j o ɾ m u s u n 
[545.295]
<no-speech> 
[547.055]
a n n e a n n e n l e ɟ e ʧ i n e b i l i j o ɾ m u s u n <no-speech> 
[550.505]
i j i 
[551.135]
<no-speech> 
[553.035]
i j i 
[553.585]
<no-speech> 
[554.855]
n e 
[555.495]
<no-speech> 
[557.125]
e 
[557.805]
<no-speech> 
[560.135]
<no-speech> 
[561.205]
<no-speech> 
[562.045]
h a n ɟ i <no-speech> b a ʧ e d e <no-speech> s o c a k t a 
[565.645]
<no-speech> 
[567.445]
h a n i s o k aː m ɯ 
[568.635]
<no-speech> 
[570.465]
e w i n i ʧ i n e h ɯ t a m a m <no-speech> s o c a k t a o ɫ s a k a f a m i l l e t i n c a f a j ɯ 
[575.955]
<no-speech> 
[578.685]
t a t ɫ ɯ <hes> k ɯ z m ɯ ʃ t ɯ ɾ a n n e a n n e n 
[582.195]
<no-speech> 
[583.025]

[583.785]
<no-speech> 
[585.215]
<no-speech> 
[587.075]
<no-speech> 
[588.885]
n e d e d i 
[589.665]
<no-speech> 
[590.745]

[591.135]
<no-speech> 
[592.165]
<no-speech> 
[593.785]
<no-speech> 
[595.165]

[599.185]
h a j a ɫ ɫ a ɯ m 
[600.08]
