[0.0]
<no-speech> 
[1.585]
<no-speech> 
[3.195]
<no-speech> 
[4.855]
a ɫ o 
[5.485]
<no-speech> 
[8.595]
a ɫ o 
[9.285]
<no-speech> 
[11.365]
a ɫ o n e w a ɾ n e j o k 
[12.565]
<no-speech> 
[14.385]
s e s i m ɟ e l m i j o ɾ m u 
[15.435]
<no-speech> 
[16.745]
h ɯ n e j a p ɯ j o s u n u z <laugh> u j k u d a n m ɯ u j a n d ɯ n ɯ z s i z 
[23.235]
<no-speech> 
[26.715]
<hes> a ɫ p e ɾ u j u j o ɾ m u j d u 
[28.365]
<no-speech> 
[29.845]
a ɫ p e ɾ u j u j o ɾ m u 
[31.035]
<no-speech> 
[32.465]
<hes> n e w a ɾ n e j o k 
[33.945]
<no-speech> 
[34.915]
ʧ o ʤ u k ɫ a ɾ u j u j o ɾ m u 
[36.035]
<no-speech> 
[37.385]
d a u j u j o ɾ m u 
[38.565]
<no-speech> 
[42.855]
<hes> n e e d i j o s u n u z h a w a n a s ɯ ɫ <cough> 
[46.225]
<no-speech> 
[47.305]
h a w a n a s ɯ ɫ 
[48.275]
<no-speech> 
[50.265]
h ɯ 
[51.735]
<no-speech> 
[52.735]

[53.785]
<no-speech> 
[55.015]
b u ɾ a d a d a ɟ e ʤ e j aː d ɯ d ø ɾ t t e n d ø ɾ t t e n s o n ɾ a j aː d ɯ ʃ i m d i a ʧ t ɯ ɟ y n e ʃ l i h a w a e s i j o ɾ a m a ɟ y z e l 
[60.555]
<no-speech> 
[62.355]
s e ɾ i n l e d i j aː n i 
[63.505]
<no-speech> 
[65.795]

[66.735]
<no-speech> 
[70.325]

[71.875]
<no-speech> 
[74.305]
<no-speech> 
[74.655]
<no-speech> 
[80.045]

[81.995]
<no-speech> 
[84.355]
ɾ a m a z a n a 
[85.165]
<no-speech> 
[87.325]
h ɯ o ɫ m u ʃ t u n a k ʃ a m s a ɫ a t a k o j a ɾ s ɯ n ɯ z d a 
[91.155]
<no-speech> 
[95.815]
n e c a ɫ d ɯ c i ʃ u ɾ d a j i ɾ m i ɟ y n c a ɫ d ɯ 
[99.695]
<no-speech> 
[101.745]
j a n e w a ɾ n e j o k e m i n e ɟ e l ʤ e c m i c ø j e 
[103.755]
<no-speech> 
[105.595]
e m i n e d e n h a b e ɾ w a ɾ m ɯ e m i n e d e n h a b e ɾ w a ɾ m ɯ ɟ e l ʤ e c m i c ø j e 
[108.735]
<no-speech> 
[116.075]
h ɯ 
[116.705]
<no-speech> 
[121.875]
ɾ a m a z a n d a m ɯ ɾ a m a z a n d a n s o n ɾ a m ɯ 
[123.845]
<no-speech> 
[130.045]
<int> h ɯ 
[131.425]
<no-speech> 
[133.555]
j o k s a ɟ e l i ɾ ɾ a m a z a n d a n s o n ɾ a d a 
[135.515]
<no-speech> 
[137.745]
d iː l m i 
[138.365]
<no-speech> 
[140.645]
h ɯ 
[141.275]
<no-speech> 
[144.035]
<no-speech> 
[144.685]
<no-speech> 
[148.505]

[151.235]
<no-speech> 
[155.195]
ɯ m h ɯ m 
[155.955]
<no-speech> 
[157.545]
i j i h a j ɯ ɾ ɫ ɯ s ɯ o ɫ m u ʃ t u n j a 
[159.075]
<no-speech> 
[160.955]
h a j ɯ ɾ ɫ ɯ s ɯ o ɫ m u ʃ t u n 
[162.375]
<no-speech> 
[163.575]
n e 
[164.215]
<no-speech> 
[166.465]
s e s i m ɟ e l m i j o ɾ m u 
[167.655]
<no-speech> 
[169.175]
ʃ e j j a p <hes> b ø j l e ʤ a n ɯ s ɯ k ɯ ɫ d ɯ ɟ ø n d e ɾ d i m o n u b a b a s ɯ j ɫ a b u a k ʃ a m m u s t a f a n ɯ n e ɾ c e n a k ʃ a m ɯ j a 
[175.665]
<no-speech> 
[177.015]
ɟ i t t i <hes> ʃ i m d i a a b u ɾ a d a n m i n i m i n i b y s e b i n d i ɾ d i m o n u m e t ɾ o b y s l e ɟ i t t i 
[181.305]
<no-speech> 
[183.655]
m u s t a f a j a ɟ i t t i 
[186.255]
<no-speech> 
[190.455]
<hes> i ʃ j e ɾ i n e d a 
[191.615]
<no-speech> 
[193.535]
d i j o ɾ d u k b a k a ɫ ɯ m b u h a f t a ɟ i d e ɾ ʃ e j e ʤ u m a d a n 
[198.505]
<no-speech> 
[200.885]

[201.605]
<no-speech> 
[203.305]

[207.105]
<no-speech> 
[210.255]
h ɯ 
[210.835]
<no-speech> 
[214.405]

[218.405]
<no-speech> 
[219.675]
<no-speech> 
[220.335]
<no-speech> 
[223.095]
<no-speech> 
[223.475]
<no-speech> 
[224.305]
ʃ u a d a m m ɯ 
[225.275]
<no-speech> 
[228.155]
ʃ u a d a m n e ɾ e j e ɟ i d ʤ e c 
[229.515]
<no-speech> 
[231.445]
d ø ɾ t s e n e o k u d u j a y ʧ s e n e d a a o k u j ʤ a k 
[235.645]
<no-speech> 
[239.295]
j o k j o k j o k d e ɾ s a n e d e n e i ʃ i w a ɾ 
[241.555]
<no-speech> 
[243.665]
c e n d i ʧ a ɫ ɯ ʃ ʤ a k d a d e ɾ s a n e d e n e i ʃ i w a ɾ 
[245.985]
<no-speech> 
[249.885]
ɯ m h ɯ m o k u ɫ o ɾ d a a ɾ t ɯ k d e ɾ s a n e j e 
[252.145]
<no-speech> 
[253.015]
<hes> d e ɾ s a n e j e ɟ i d e n d e a j n ɯ o k u j o ɾ ɟ i t m i j e n d e 
[256.515]
<no-speech> 
[257.535]
n e ɯ m h ɯ m p a z a ɾ ʤ ɯ ɫ ɯ k e t m e d i n m aː ʃ a ɫ ɫ a 
[262.555]
<no-speech> 
[264.535]
b u ɟ y n p a z a ɾ ʤ ɯ ɫ ɯ k e t m e d i n i z m i ʧ a ɾ ʃ ɯ j a d a 
[267.625]
<no-speech> 
[274.565]
h ɯ 
[275.555]
<no-speech> 
[287.015]
h ɯ 
[288.145]
<no-speech> 
[290.015]
h ɯ h e m e n t u t ɟ e l b u ɾ a j a 
[292.065]
<no-speech> 
[300.495]
h ɯ n e j s e h a f t a j a h a f t a j a ɟ ø ɾ y ɾ s y n y z o ɫ m u ʃ t u n 
[303.255]
<no-speech> 
[304.535]
h a f t a j a ɟ i d e ɾ s i n i z d a o n a 
[306.135]
<no-speech> 
[308.045]
ɯ m h ɯ m c ø j y 
[311.445]
<no-speech> 
[313.005]
a ɫ o <click> 
[313.755]
<no-speech> 
[314.755]
<laugh> s a n c i o ɾ d a b y j y m y ʃ 
[320.045]
<no-speech> 
[321.785]
<no-speech> 
[324.035]
<no-speech> 
[325.105]
s a n c i c ø j d e b y j y m y ʃ 
[326.445]
<no-speech> 
[328.775]
<laugh> s a n c i c ø j d e b y j y m y ʃ ɟ i b i d iː l m i 
[332.015]
<no-speech> 
[333.005]
<no-speech> 
[334.695]
<no-speech> 
[339.505]
<laugh> h ɯ ɟ e ʧ e n ɟ e l d i l e ɾ b i z e <int> 
[344.915]
<no-speech> 
[345.715]
ɟ e ʧ e n <hes> 
[346.545]
<no-speech> 
[348.045]
<hes> <laugh> <breath> ɟ e ʧ e n ɟ e l d i l e ɾ b i z e 
[354.185]
<no-speech> 
[355.555]
a ʃ a ɯ j a i n d i m i n i b y s l e ɟ e ʧ e n a n a n n e s i n e k ɯ z d ɯ s e ɾ a t a b i b i z i m l e ɟ e l m e d i d i j e 
[361.275]
<no-speech> 
[363.365]
ɟ e l m i ʃ ɟ e l m i ʃ t i j a e ɾ c e k l iː ʧ o k s e w i j o ɾ d a 
[367.535]
<no-speech> 
[368.705]
m e m e l iː c e j i d iː l d e m e l iː c e j l e o j n a m ɯ j o ɾ <laugh> <hes> 
[376.545]
<no-speech> 
[379.745]
<hes> b a k a ɫ ɯ m a k ʃ a m <hes> u j u d u m u n a s ɯ ɫ o ɫ ʤ a k u j u j u n ʤ a 
[384.565]
<no-speech> 
[385.935]
<lipsmack> a k ʃ a m b a k a ɫ ɯ m n e j a p ʤ a k 
[388.525]
<no-speech> 
[392.945]
a ɫ d ɯ a ɫ d ɯ d e i ʃ i k l i j e u j a ʤ a k b a k a ɫ ɯ m a k ʃ a m a k ʃ a m n e j a p ʤ a k 
[397.215]
<no-speech> 
[399.855]
a n a 
[400.455]
<no-speech> 
[402.525]
<no-speech> 
[404.115]
<no-speech> 
[406.035]
s i z <hes> s i z e a ʤ e m i l i c e t m e d i ʤ a n ɯ m 
[408.325]
<no-speech> 
[410.075]
a n a 
[410.725]
<no-speech> 
[412.455]
h ɯ i j i i j i i j i 
[414.625]
<no-speech> 
[416.565]
<laugh> <breath> 
[419.855]
<no-speech> 
[420.765]
j o k o n d a c i k a m d o ɫ a ʤ a k d a o n d a c i k a m w a ɾ 
[423.275]
<no-speech> 
[424.545]
s i z <hes> 
[429.535]
<no-speech> 
[435.485]
<hes> d oː ɾ u 
[436.885]
<no-speech> 
[438.775]
<hes> s aː c i n e a b ɫ a m <hes> ʃ e j i n s aː c i n e a b ɫ a m ɯ n c i ɟ e l i ɾ m i a ʤ a b a a ʃ a ɯ j a 
[444.575]
<no-speech> 
[446.095]
j o k 
[448.115]
<no-speech> 
[450.415]
h ɯ j a 
[451.515]
<no-speech> 
[453.795]
j aː m u ɾ j aː m a d ɯ m ɯ 
[455.055]
<no-speech> 
[456.785]
j aː m u ɾ ʧ o k j aː m a d ɯ m ɯ 
[458.255]
<no-speech> 
[462.445]
h ɯ 
[463.655]
<no-speech> 
[468.455]
a m a b u i j i i j i 
[470.815]
<no-speech> 
[476.015]
o ɫ m u ʃ t u n d a a i j i 
[477.845]
<no-speech> 
[480.225]
<hes> z o ɾ j a d e s e n e oː s i z i n c ø j d e o ɫ m a z oː z a m aː n d oː ɾ u d y z ɟ y n 
[484.705]
<no-speech> 
[487.475]
<no-speech> 
[487.845]
<no-speech> 
[489.915]
h ɯ <no-speech> 
[494.405]
ʃ e j l e ɾ o ɫ d u m u f a s u l j e n i z 
[496.125]
<no-speech> 
[498.745]

[499.145]
<no-speech> 
[501.485]
ø j l e 
[502.255]
<no-speech> 
[504.125]

[506.855]
<no-speech> 
[514.264875]
<laugh> c e s i n c ø j d e m i k a ɫ ʤ a k oː d a 
[518.105]
<no-speech> 
[523.365]
<no-speech> 
[524.434875]
<no-speech> 
[525.535]

[526.105]
<no-speech> 
[528.535]
<no-speech> 
[529.095]
<no-speech> 
[530.215]
n e b i l e j i m 
[535.315]
<no-speech> 
[544.585]
<no-speech> 
[545.725]
<no-speech> 
[550.085]
<no-speech> 
[551.065]
<no-speech> 
[555.535]
<hes> b u b u d a 
[560.315]
<no-speech> 
[561.995]
s i z i n o ɾ a d a c i 
[563.945]
<no-speech> 
[565.625]
<no-speech> 
[566.525]
<no-speech> 
[573.535]
o ɫ u j o ɾ m u ʃ 
[575.325]
<no-speech> 
[577.615]
<no-speech> 
[578.415]
<no-speech> 
[580.325]
<hes> ø j l e o ɫ m u ʃ t u n 
[581.145]
<no-speech> 
[582.135]
<hes> b e n ʤ e b a ʃ k a j e ɾ d e n ɟ e l i j o ɾ 
[584.895]
<no-speech> 
[589.465]
<no-speech> 
[590.435]
<no-speech> 
[592.355]
oː d a a 
[593.355]
<no-speech> 
[594.435]
b e l c i d a a i j i p i ʃ e ɾ 
[596.615]
<no-speech> 
[600.02]
