[0.0]
<no-speech> 
[0.255]
a ɫ o a ɫ o n e j a p ɯ j o n t a t ɫ ɯ m 
[10.175]
<no-speech> 
[11.215]
a ɫ ɯ j o m s e n b e n d e i n e j i m d ɯ ʃ a ɾ ɯ d a j ɯ m ʃ i m d i j o ɫ c e n a ɾ ɯ n a ɟ i d i j o m n e j a p ɯ j o n 
[22.795]
n e b ø j l e b o ʃ b o ʃ k o n u ʃ ʤ aː z ʃ u a n d a 
[27.515]
<no-speech> 
[28.715]
o ɫ a b i l i ɾ b i l m i j o m 
[31.495]
<no-speech> 
[32.425]

[33.425]
<no-speech> 
[34.675]
b e n b i ʧ ɯ k ɯ ʤ aː m d ɯ ʃ a ɾ ɯ ʃ i m d i a ɾ a d a b a ʃ k a s ɯ w a ɾ d a ʃ e j b a ɫ ɯ m 
[45.865]
<no-speech> 
[47.245]
ʃ e j ʃ u a n d a b o ʃ b o ʃ o n d a c i c a k o n u ʃ ʤ aː z n e j a p ɯ j o n 
[52.885]
<no-speech> 
[56.005]
<no-speech> 
[56.675]
<no-speech> 
[59.655]
i j i 
[61.595]
<no-speech> 
[63.755]
b e n d e n o ɾ m a ɫ d e i ʃ t e s e n i n l e i n d e d i k o d u s u n u j a p ɯ ʤ a k t ɯ m a m a i n d i n l e m e ʃ a n s ɯ o ɫ d uː i ʧ i n j a p m ɯ j o m s e w ɟ i l e ɾ i n i z i i l e t i j o m 
[73.625]
<no-speech> 
[79.515]
ʃ i m d i h e ɾ ʃ e j k o n u ʃ u ɫ m a z j aː n i ø j l e 
[81.805]
<no-speech> 
[83.925]
<no-speech> 
[84.365]
<no-speech> 
[86.065]
s e s i n ɟ e ʧ ɟ e l i j o ɾ a ɾ t ɯ k s e n a n ɫ a t b e n d i n l e j e j i m n e b i l e j i m <laugh> 
[92.325]
<no-speech> 
[98.405]
<no-speech> 
[98.755]
<no-speech> 
[107.82]
<no-speech> 
[116.885]
<no-speech> 
[117.235]
<no-speech> 
[118.165]
<no-speech> 
[118.615]
<no-speech> 
[121.485]
<no-speech> 
[121.945]
<no-speech> 
[128.055]
<no-speech> 
[128.435]
<no-speech> 
[135.085]
ɯ m h ɯ m 
[135.895]
<no-speech> 
[137.325]
ø j l e j aː n i b e n a n ɫ a t a j ɯ m oː z a m aː n s a n a 
[141.055]
<no-speech> 
[142.955]
s e n ɟ i t t i j i n d e b e n d e i ʃ t e ʧ ɯ k t ɯ m s e n i n j a n ɯ n d a n j i ɾ m i d a c i c a e ɾ c e n ɟ i t t i m b e ʃ d a c i c a d a j y ɾ y d y m j o ɫ u z a t e n s o n ɾ a o t u ɾ d u m o ɾ a j a b e c l e d i m ɟ e l d i l i m o n a t a i ʧ t i m 
[154.835]
l i m o n a t a k o ɾ k u n ʧ t u b i d a h a c i s e f e ɾ e i ʧ m e o ɾ d a n c e s i n l i c l e ʃ e j z o ɾ ɫ a s oː k d i j e i ʧ t i c s aː d e ʤ e s o n ɾ a i ʃ t e ʃ i m d i ø j l e 
[166.585]
o t u ɾ u j o z a ɾ c a d a ʃ ɫ a ɾ ɫ a ʃ e j b u n u n d ɯ ʃ ɯ n d a ʃ i m d i b a k m e s e ɫ a s ɯ n a w ɫ a ɾ ɯ d y ʃ y n y j o m t a t ɫ ɯ m s ɯ n a w ɫ a ɾ a o n b e ʃ ɟ y n c a ɫ d ɯ b i z n e j a p ʤ aː z 
[177.545]
<no-speech> 
[179.695]
<no-speech> 
[190.395]
<no-speech> 
[190.885]
<no-speech> 
[193.835]
<laugh> ʃ e j p e c i oː z a m aː n j a b a k b ø j l e f ɯ ɾ s a t b u ɫ m u ʃ c e n b i ʃ e j d e n d e k o n u ʃ a ɫ ɯ m d e d i k o d u j a p a ɫ ɯ m b i ʃ e j l e ɾ j a p a ɫ ɯ m b e ɟ y m d e n b a s e d e l i m b e ɟ y m y n b i t m e z c i b a k 
[205.665]
b e ɟ y m y n b a s e d e l i m m e s e ɫ a 
[207.265]
<no-speech> 
[208.125]
<no-speech> 
[208.835]
<no-speech> 
[210.555]
b i l m i j o m a s ɯ ɫ b e ɾ ɾ i n j a ʃ ɯ j o ɾ m u a ʤ a b a 
[214.045]
<no-speech> 
[214.975]
n e 
[216.595]
<no-speech> 
[226.175]
<laugh> s e w ɟ i l i j a p m ɯ ʃ c e n d i n e ɟ aː l i b a s e w ɟ i l i j a p m ɯ ʃ c e n d i n e oː j y z d e n ʃ e j f e j s b u k t a ɾ e s i m l e ɾ f a ɫ a n w a ɾ m ɯ ʃ ø j l e t a k ɯ ɫ ɯ j o m 
[238.135]

[238.645]
<no-speech> 
[242.895]
<no-speech> 
[243.295]
<no-speech> 
[245.735]
j a b i d e s a b a u j a n d ɯː m d a h o l i g a n o ɫ m a s ɯ i j i b i ʃ e j d iː l m i h o l i g a n o ɫ d u b e n 
[252.735]
<no-speech> 
[254.095]
<no-speech> 
[255.725]
<no-speech> 
[260.885]
ʃ e j p e c i b a ʃ k a b a ʃ k a b a ʃ k a 
[267.975]
<no-speech> 
[268.795]
ʃ i m d i h e ɾ ʃ e j i d e k o n u ʃ a m ɯ j o z b i l i j o ɾ m u s u n 
[271.865]
<no-speech> 
[272.695]
o n u n d ɯ ʃ ɯ n d a 
[276.505]
<no-speech> 
[277.315]
<no-speech> 
[277.785]
<no-speech> 
[279.115]
<no-speech> 
[280.365]
<no-speech> 
[283.925]
<no-speech> 
[284.485]
<no-speech> 
[285.535]
<no-speech> 
[289.425]
<no-speech> 
[290.915]
<no-speech> 
[291.485]
<no-speech> 
[294.795]
<no-speech> 
[295.645]
<no-speech> 
[296.755]
<no-speech> 
[297.145]
<no-speech> 
[298.015]
<no-speech> 
[299.795]
<no-speech> 
[301.255]
<laugh> a m a b i z i m d e ɾ s h aː n e m i z e f s aː n e l y t f e n b i z i m d e ɾ s aː n e e f s a n e d i ɾ j aː n i h a n i 
[308.475]
<no-speech> 
[312.855]
<no-speech> 
[313.225]
<no-speech> 
[314.805]
<sta> o n ɫ a ɾ z a t e n <foreign> o ɫ d u k ɫ a ɾ ɯ i ʧ i n <no-speech> h a n i <no-speech> o n ɫ a ɾ a d iː ʤ e c b i ʃ e j i m i z j o k b e n a s ɯ ɫ i l c e ɾ aː b i n i n k a ɾ ɯ s ɯ n ɯ ʧ o k m e ɾ a k e d i j o m j a 
[326.235]
<no-speech> 
[330.875]
ɟ e ɾ ʧ e c t e n 
[332.675]
<no-speech> 
[338.665]
d i n l i j o m a m a ɟ e ɾ ʧ e c t e n h a j a l e d e m i j o m o n u j aː n i 
[342.675]
<no-speech> 
[343.645]
<no-speech> 
[346.475]
<no-speech> 
[347.955]
<no-speech> 
[348.855]
<no-speech> 
[349.795]
s ø j l e t a t ɫ ɯ m 
[351.955]
<no-speech> 
[354.385]
ɯ m h ɯ m 
[355.075]
<no-speech> 
[356.215]
<no-speech> 
[357.005]
<no-speech> 
[360.145]
ɟ e ɾ ʧ e c t e n o n d a c i c a oː 
[361.695]
<no-speech> 
[363.435]
h e b i m u a b b e t e d e l i m h a s ɾ e t ɟ i d e ɾ e l i m i ʃ t e 
[366.415]
<no-speech> 
[368.925]
<no-speech> 
[369.825]
<no-speech> 
[371.005]
a n n e n l e b a b a n n a s ɯ ɫ t a n ɯ ʃ m ɯ ʃ m e s e ɫ a o n u a n ɫ a t b a n a 
[374.315]
<no-speech> 
[375.355]
<no-speech> 
[375.715]
<no-speech> 
[377.935]
a n n e n l e b a b a n n a s ɯ ɫ t a n ɯ ʃ m ɯ ʃ o n u a n ɫ a t 
[381.405]
<no-speech> 
[382.475]
<no-speech> 
[383.035]
<no-speech> 
[384.625]
e w e t t a t ɫ ɯ m 
[385.625]
<no-speech> 
[387.045]
<no-speech> 
[387.415]
<no-speech> 
[397.015]
<no-speech> 
[397.375]
<no-speech> 
[399.395]
<int> h ɯ 
[400.795]
<no-speech> 
[402.935]
<no-speech> 
[404.345]
<no-speech> 
[408.055]
<no-speech> 
[408.435]
<no-speech> 
[412.345]
<no-speech> 
[412.705]
<no-speech> 
[415.555]
<no-speech> 
[416.065]
<no-speech> 
[426.915]
w a j b e 
[428.005]
<no-speech> 
[433.855]
s e n i n b i t c i k o n u s u n d a n i j e b u k a d a ɾ ø c y z o ɫ d uː n b e l l i <laugh> 
[439.765]
<no-speech> 
[441.125]

[442.365]
<no-speech> 
[447.625]
<no-speech> 
[448.985]
<no-speech> 
[452.415]
ɯ m h ɯ m 
[452.995]
<no-speech> 
[455.335]
ʃ e j d i j e l i m oː z a m aː n z a m aː n ɯ ɟ e l d iː n d e ɟ e ɾ e c t i j i c i ʃ i ɟ e ɾ e c e n c i ʃ i ø j l e d a w ɾ a n a ʤ a k d i j e b a k a ɫ ɯ m o ɫ a j a h a n i ʃ e j d i j e b a k m a j a ɫ ɯ m e w e t 
[465.145]
<no-speech> 
[466.195]
a j n e n c e s i n l i c l e 
[467.755]
<no-speech> 
[469.795]
a m a b a k oː b ɯ j ɯ k ɫ ɯ d a f e n aː d iː l d i <laugh> 
[472.745]
<no-speech> 
[473.725]
<laugh> b ɯ j ɯ k ɫ ɯ d a f e n aː d iː l d i d i j o m m e ɾ t 
[478.045]
<no-speech> 
[480.955]
<no-speech> 
[482.345]
<no-speech> 
[485.625]
<no-speech> 
[485.975]
<no-speech> 
[487.095]
w a ɫ ɫ aː s e n d e ɟ e l i ɾ s i n t a t ɫ ɯ m 
[489.185]
<no-speech> 
[492.055]
<no-speech> 
[492.775]
<no-speech> 
[495.065]
b a ʃ k a b i ʃ e j s ø j l i j ʤ eː m <laugh> a j 
[498.905]
<no-speech> 
[499.745]
h a n i n i j e o ɫ m a s ɯ n t a t ɫ ɯ ʧ o ʤ u k j aː n i b e n ʤ e o ɫ a b i l i ɾ 
[503.515]
<no-speech> 
[506.385]
b e n ʤ e o ɫ a b i l i ɾ d i j o m 
[507.815]
<no-speech> 
[514.805]
o ɫ u ɾ m u ø j l e ʃ e j ʤ a n ɯ m 
[516.795]
<no-speech> 
[517.865]
ø j l e ʃ e j o ɫ u ɾ m u j a 
[520.204875]
<no-speech> 
[522.605]
<laugh> a n n e n l e ɾ s e n d e n k u ɾ t u ɫ s u n d i j e j a p ɯ j o m 
[526.455]
<no-speech> 
[532.805]
<no-speech> 
[534.405]
<no-speech> 
[536.615]
n e j s e ʃ e j 
[540.835]
<no-speech> 
[548.345]
j a b i ʃ e j s ø j l i j ʤ eː m d e o n d a c i c a o ɫ m a d ɯ m ɯ a ɾ t ɯ k a j c y f ɾ e t t i m ʧ o k c ø t y c y f ɾ e t m e m e m ɟ e ɾ e c i j o ɾ d u n e j s e <laugh> ʧ o k c ø t y 
[558.835]
<no-speech> 
[560.675]
<no-speech> 
[561.935]
<no-speech> 
[563.455]
t a t ɫ ɯ m b i d a c i c a b e c l e s e n e t e l e f o n d a b i d a c i c a b e c l e 
[572.415]
<no-speech> 
[573.575]
<int> a ɫ o 
[584.975]
t a m a m d a a k o n u ʃ u j o z d a a k o n u ʃ u j o z d e 
[594.105]
<no-speech> 
[597.415]
eː l e n i j o ɾ s a n s o ɾ u n j o k b e n ʤ e 
[599.68]
