[0.0]
<no-speech> 
[5.435]
a ɫ o 
[6.485]
<no-speech> 
[8.225]
s e ɫ a m y n a l e j c y m h e 
[11.085]
<no-speech> 
[12.935]
h e j 
[13.635]
<no-speech> 
[16.685]
h e b i z b ø j l e 
[18.065]
<no-speech> 
[20.765]

[23.285]
<no-speech> 
[30.465]
w u ɾ 
[31.625]
<no-speech> 
[33.075]
j a z ɯ n y ʃ y j o n 
[35.635]
<no-speech> 
[41.815]
h e 
[42.315]
<no-speech> 
[43.545]

[45.555]
<no-speech> 
[46.755]

[48.095]
<no-speech> 
[57.025]
h a 
[57.615]
<no-speech> 
[59.335]
h e 
[60.005]
<no-speech> 
[62.395]

[63.495]
<no-speech> 
[64.994875]
i j i i j i b i j aː m u ɾ j aː d ɯ b i k a ɾ j aː d ɯ c i 
[67.775]
<no-speech> 
[68.815]
a ʃ aː a ʃ aː 
[69.835]
<no-speech> 
[72.685]
oː ɫ u m 
[73.335]
<no-speech> 
[76.695]
j o k j o k ɟ e ʧ e n p a z a ɾ ɟ y n y ɟ i t t i c 
[80.925]
<no-speech> 
[82.535]
n e z a m aː n ɟ i t t i c 
[84.865]
<no-speech> 
[87.365]
j a k a ɫ ɯ j o ɾ 
[88.365]
<no-speech> 
[92.195]
s e n b e n i 
[93.465]
<no-speech> 
[94.905]

[95.935]
<no-speech> 
[98.795]
j a ɾ ɯ n ɟ i d i j o z 
[100.505]
<no-speech> 
[101.555]
i j i i j i i j i i j i 
[103.635]
<no-speech> 
[104.645]
n e 
[105.145]
<no-speech> 
[110.375]

[112.395]
<no-speech> 
[113.775]
h e 
[114.375]
<no-speech> 
[122.645]

[124.005]
<no-speech> 
[127.635]
h a 
[128.205]
<no-speech> 
[132.525]
h ɯ ø j l e m i d e m i ʃ l e ɾ 
[133.985]
<no-speech> 
[136.875]
<no-speech> 
[137.225]
<no-speech> 
[147.005]
h ɯ k a w ɟ a e d i j o ɾ m u s u n a l i j e j l e 
[148.935]
<no-speech> 
[158.135]
eː s a n a c i m h a b e ɾ w e ɾ m i ʃ c i s e n e t t i n o n u d a 
[161.185]
<no-speech> 
[164.795]
h e s e n i n e t t iː n i ʃ e 
[168.815]
<no-speech> 
[176.385]
<breath> e i c i d a a t a n e 
[178.165]
<no-speech> 
[186.845]
j aː n i i c i s aː t d a a n e d i ɾ c i <breath> o ɫ d u ø j l e 
[190.395]
<no-speech> 
[200.565]
ɯ m h ɯ m ø j l e t a m a m m ɯ d a o ɫ u ɾ o ɫ u ɾ 
[202.785]
<no-speech> 
[204.545]
h ɯ b a b a m ø l d y c t e n s o n ɾ a d a a n n e m a k ɫ ɯ n ɯ j i t i ɾ d i 
[207.435]
<no-speech> 
[213.66]
<no-speech> 
[219.885]

[220.475]
<no-speech> 
[227.435]
b a ʃ c a s ɯ n ɯ n b e j e n m i j o n 
[231.785]
<no-speech> 
[235.575]
<no-speech> 
[236.905]
<no-speech> 
[238.975]
<no-speech> 
[239.355]
<no-speech> 
[240.255]
e w e t 
[240.795]
<no-speech> 
[247.38]
<no-speech> 
[253.965]
<hes> 
[254.635]
<no-speech> 
[256.325]

[257.875]
<no-speech> 
[264.465]
j aː n i s e n d e n i j i s i o ɫ m a z d ɯ 
[266.585]
<no-speech> 
[274.595]
<no-speech> 
[282.605]

[285.355]
<no-speech> 
[294.49]
<no-speech> 
[303.625]
<no-speech> 
[312.76]
<no-speech> 
[321.895]
<no-speech> 
[322.405]
<no-speech> 
[331.455]
ɯ m h ɯ m 
[340.505]
<no-speech> 
[349.555]

[350.335]
<no-speech> 
[355.695]
w a ɫ ɫ aː i s ø j l e d i h e p s ø j l e 
[357.775]
<no-speech> 
[365.355]

[367.355]
<no-speech> 
[370.875]
<no-speech> 
[371.245]
<no-speech> 
[374.785]

[376.615]
<no-speech> 
[386.011667]
<no-speech> 
[395.408333]
<no-speech> 
[404.805]

[406.575]
<no-speech> 
[415.835]
h e p e w e m i d i ɾ l e ɾ 
[417.095]
<no-speech> 
[420.375]
b u ɟ y n h e p e w e m i d i ɾ l e ɾ 
[421.675]
<no-speech> 
[431.01]
<no-speech> 
[440.345]
o ɫ a b a a n e 
[441.465]
<hes> 
[451.605]

[456.445]
<no-speech> 
[461.435]
n e ʃ i m d i k o m ʃ u n u n b a ɫ k o n a ʃ i m d i b a ɯ ɾ ɯ j o ɾ 
[465.495]
<no-speech> 
[470.585]
c e n d i d e c e n d i a ʃ aː e w e b a ɫ k o n d a d ɯ ɾ 
[473.175]
<no-speech> 
[477.485]
ɯ m h ɯ m ɾ i z e ɾ i z e 
[481.455]
<no-speech> 
[487.865]
a s ɫ ɯ n d a eː ʃ e j m y e z z i n l i k e d i j o ɾ <laugh> m y e z z i n l i k e d i j o ɾ d a c i c i ɾ i k j a n ɫ ɯ ʃ ɟ e l d i n i z 
[496.665]
<no-speech> 
[503.375]
<no-speech> 
[510.085]

[513.475]
<no-speech> 
[518.024875]
b i l m i j o m c i b i b a ɯ ɾ ɯ j o ɾ ɫ a ɾ a ɫ ɫ a 
[520.934875]
<no-speech> 
[525.895]
ɯ m h ɯ m oː oː h e f a t m a f a t h e 
[529.385]
<no-speech> 
[532.235]
ɯ m h ɯ m 
[532.865]
<no-speech> 
[536.665]
ɯ m h ɯ m j e m e c h i ʧ 
[538.205]
<no-speech> 
[540.045]
h ɯ h a j aː t ɯ m b i t a n e ɟ i d i j o ɾ a b ɫ a a j 
[543.325]
<no-speech> 
[544.155]
j i ɾ m i a ɫ t ɯ s ɯ n a b i t a n e s i n e ɟ i d i j o ɾ a s c e ɾ e <int> 
[546.995]
<no-speech> 
[549.555]
j e t i m l e ɾ w a ɾ j a j e t j e t i m l e ɾ <no-speech> n e 
[552.735]
<no-speech> 
[562.535]
d e l i a m e t d i j o ɾ d a a w a ɾ d i j o ɾ 
[564.325]
<no-speech> 
[565.975]
j aː n i 
[566.785]
<no-speech> 
[577.755]
oː ɟ e n e a j n ɯ ø j l e d i ɾ d a 
[579.315]
<no-speech> 
[580.965]
<no-speech> 
[581.205]
<no-speech> 
[590.6025]
<no-speech> 
[600.0]
