[0.0]
<no-speech> 
[2.075]
a ɫ o 
[2.935]
<no-speech> 
[4.055]
ʤ a n ɯ m <no-speech> a ɫ o 
[7.185]
<no-speech> 
[8.685]
i j i d i ɾ ʤ a n ɯ m s e n n a s ɯ ɫ s ɯ n 
[10.855]
<no-speech> 
[15.245]
n e j a p a j ɯ m j a a j n ɯ b i l d i j i n ɟ i b i s e n n e j a p ɯ j o n n a s ɯ ɫ ɟ i d i j o ɾ 
[20.835]
<no-speech> 
[28.665]
b u ɾ a s ɯ d a k a p a ɫ ɯ j a <no-speech> b i ɾ k a ʧ ɟ y n d y ɾ 
[32.065]
<no-speech> 
[32.865]
<no-speech> 
[33.495]
<no-speech> 
[36.655]
h a d i j a 
[37.755]
<no-speech> 
[41.415]
a j ʧ a 
[42.385]
<no-speech> 
[43.275]
a j ʃ a n s ɯ n a j aː n i 
[44.945]
<no-speech> 
[46.655]
n e j a p t ɯ n ɯ z d y n a k ʃ a m n a s ɯ ɫ ɟ e ʧ t i 
[49.075]
<no-speech> 
[50.805]
o ɫ d u o ɫ d u <laugh> <no-speech> o ɫ d u o ɫ d u <no-speech> d y n a k ʃ a m d oː d u <no-speech> a k ʃ a m y z e ɾ i 
[59.925]
<no-speech> 
[61.415]
h ɯ 
[62.365]
<no-speech> 
[63.985]
w a ɫ ɫ aː i j e n ɟ e o ɫ d u k j aː n i 
[66.275]
<no-speech> 
[69.775]
ɟ y z e l b i k o n s e ɾ 
[71.415]
<no-speech> 
[72.665]
h ɯ <no-speech> h ɯ 
[74.505]
<no-speech> 
[75.605]
e <no-speech> n e øː ɾ e n ʤ i c i m l i j i m i 
[78.785]
<no-speech> 
[83.275]
ɯ m h ɯ m a n ɫ a d ɯ m 
[85.245]
<no-speech> 
[88.215]
o 
[89.415]
<no-speech> 
[96.765]
h ɯ i j i e w l e n e ʤ e c s e n i z p ɯ ɾ o b l e m j o k 
[99.695]
<no-speech> 
[101.095]
<hes> n e z a m aː n ɟ e l ʤ e c s i n 
[102.895]
<no-speech> 
[109.255]
h ɯ 
[110.435]
<no-speech> 
[111.265]
j a a n n e m e b i ʃ e j b i l m i j o m j a n e a ɫ ɯ ʤ aː m ɯ ø z ɟ e b u ɫ a m a d ɯ m j aː n i <no-speech> n e a ɫ ɯ ʤ aː m ɯ d a b i l m i j o m <no-speech> h e 
[120.125]
<no-speech> 
[124.425]
h ɯ 
[125.105]
<no-speech> 
[133.595]
e 
[134.235]
<no-speech> 
[136.565]
j o k <no-speech> c ø t y d iː l 
[138.455]
<no-speech> 
[143.385]
j aː n i ø f c ø t y d iː l i j i l e ɾ j aː n i <no-speech> ʃ u b u a ɾ a ɫ a ɾ 
[147.005]
<no-speech> 
[150.445]
n e o ɫ d u b i ʃ e j m i d e d i s a n a 
[152.015]
<no-speech> 
[153.245]
o n u ɾ u ɟ ø ɾ y j o m ɟ ø ɾ y j o m <int> 
[154.835]
<no-speech> 
[158.245]
n e z a m aː n <no-speech> h i ʧ d e ø j l e b i ʃ e j j o k 
[160.985]
<no-speech> 
[162.045]
h ɯ d y n 
[164.265]
<no-speech> 
[165.515]
<int> o ɫ a b i l i ɾ <no-speech> i j i m aː d e m 
[168.435]
<no-speech> 
[170.625]
a j j e t t i d y n a k ʃ a m s i n i ɾ e t t i <no-speech> s a ɫ a k s a ɫ a k m e s a ʒ ɫ a ʃ m a ɫ a ɾ f a ɫ a n b a n a m e s a ʒ ɫ a ɾ ɟ ø n d e ɾ i j o ɾ a p t a ɫ a p t a ɫ b e n i s i n i ɾ e t t i e w e t <no-speech> s a ɫ a k j a 
[181.535]
<no-speech> 
[183.265]
h ɯ 
[184.275]
<no-speech> 
[186.705]
a j n e n a j n e n 
[187.795]
<no-speech> 
[190.435]
a j s a ɫ a k j a <breath> b a n a n e d i j o ɾ b i l i j o ɾ m u s u n s e n d i j o ɾ c e n d i n i b ɯ ɾ a k d i j o ɾ b u ɾ a d a d i j o ɾ b e n w a ɾ ɯ m <int> f a ɫ a n d i j o ɾ <breath> a m a h e ɾ ʃ a c a n ɯ n a ɫ t ɯ n d a d i j o ɾ b i ɟ e ɾ ʧ e c w a ɾ d ɯ ɾ d i j o ɾ b a n a <int> a j 
[201.935]
<no-speech> 
[203.505]
s a ɫ a k s a ɫ a k 
[204.345]
<no-speech> 
[206.415]
ʤ a n ɯ m 
[207.165]
<no-speech> 
[211.525]
b e n ʤ a n e ɾ i ɟ ø ɾ m e d i m h i ʧ b u h a f t a s aː d e ʤ e o n u ɾ u d a b i c e ɾ e ɟ ø ɾ d y m z a t e n <no-speech> o n u d a b a ʃ k a ɟ ø ɾ m e d i m d y n a k ʃ a m o n u ɾ t a n e ɾ i ɟ ø ɾ d y m k a ɾ p e d i e m i n ø n y n d e 
[220.695]
<no-speech> 
[221.635]
<int> t e c b a ʃ ɯ n a j d ɯ t e l e f o n ɫ a k o n u <no-speech> j o k t e c b a ʃ ɯ n a 
[227.605]
<no-speech> 
[229.795]
n i j e <int> <laugh> 
[233.905]
<no-speech> 
[234.705]
<breath> i j i t a m a m a b ɫ a ʤ ɯː m n e j a p ɯ j o ɾ <no-speech> 
[241.045]
<no-speech> 
[242.525]
i j i 
[243.005]
<no-speech> 
[244.985]
<int> h ɯ c aː m i l h o ʤ a h a l i l l e ɾ e y ʧ p u a n w e ɾ d i aː y ʧ t a n e a ɾ t ɯ w e ɾ d i <no-speech> b i z d e c aː m i l h o ʤ a j a s ø j l e d i c b i d e n e o ɫ d u b i l i j o ɾ m u s u n 
[253.545]
<no-speech> 
[254.445]
h a l i l l e ɾ s o ɾ u d a s o ɾ m a d ɯ ɫ a ɾ ʤ e n ɟ i z b e j ɟ e l m i ʃ t i j a 
[258.685]
<no-speech> 
[260.895]
ø j l e k a j n a d ɯ o n ɫ a ɾ ɯ n i ʃ t e s o ɾ u s o ɾ m a m u a b b e t i h a l i l l e ɾ e s o ɾ u s o ɾ u ɫ m a d ɯ o n a ɾ aː m e n y ʧ t a n e a ɾ t ɯ w e ɾ d i <no-speech> e w e t b i z d e h o ʤ a j a 
[270.715]
<no-speech> 
[272.615]
b i z d e h o ʤ a j a s ø j l e d i c <int> d e d i c h o ʤ a m b ø j l e b ø j l e d e d i c s i z d e d i c <no-speech> b i z e d e d i c i c i h e <int> i ʃ t e y ʧ b u ʧ u k a ɾ t ɯ w e ɾ m i ʃ s i n i z d e d i c s o n ɾ a i c i b u ʧ u k a ɾ t ɯ d e d i n i z f a ɫ a n d e d i c 
[283.525]
o n d a n s o n ɾ a <int> h o ʤ a ø j l e m i f a ɫ a n b e n d e d i b i b a k a j ɯ m d e d i n o t ɫ a ɾ ɯ m a d e d i <no-speech> i ʃ t e t e c ɾ a ɾ b a n a d e d i uː ɾ a j ɯ n f a ɫ a n d e d i <int> ø j l e s o n ɾ a d a n d a z a t e n o k u ɫ a ɟ i t m e d i c 
[294.785]
d y n ɟ i t m e d i c o k u ɫ a j aː n i <no-speech> <int> oː j y z d e n <no-speech> uː ɾ a j a m a d ɯ k p a z a ɾ t e s i j a d a s a ɫ ɯ uː ɾ a ɾ ɯ z s e n ɟ e l d iː n d e <int> 
[303.245]
<no-speech> 
[307.845]
<click> e w e t <no-speech> b i z e y ʧ b u ʧ u k d e m i ʃ t i z a t e n s ɯ n ɯ f t a h e ɾ c e s s ø j l y j o ɾ d i j o ɾ c i s i z e ʧ o k b y j y c h a k s ɯ z ɫ ɯ k j a p t ɯ f a ɫ a n j aː n i a ɾ t ɯ k ʃ e j <hes> c i m s e ʃ u a n d a s a ɫ ɫ a m ɯ j o ɾ b i l i j o ɾ m u s u n ʃ e j d i j o ɾ c i <hes> a n ɯ ɫ ɫ a ɾ b i l e m e s e ɫ a s ɯ n ɯ f j a p ɯ ʤ a k ɫ a ɾ d ɯ ɟ e ʧ e n h a f t a j a p a m a d ɯ ɫ a ɾ ʤ e n ɟ i z b e j ɟ e l d i j i i ʧ i n a m a d i j o ɾ c i j a b e n s aː d e ʤ e i ʃ t e j i ɾ m i <int> a ɫ m a m a k i ʧ i n j aː n i s ɯ n a w ɯ j a p ɯ j o m a ɾ t ɯ o t u z b e ʃ i n f a ɫ a n p e ʃ i n d e d iː l i m d i j o ɾ j aː n i j e t e ɾ c i h a n i b a n a e c s i <int> w e ɾ m e s i n <no-speech> b e n s ɯ n a w ɯ m ɯ j a p a j ɯ m j e t e ɾ d i j o ɾ j aː n i c i m s e s a ɫ ɫ a m ɯ j o ɾ 
[342.635]
<no-speech> 
[342.785]
<no-speech> 
[348.555]
e w e t e w e t 
[349.745]
<no-speech> 
[351.685]
a j n e n ø j l e j aː n i z a t e n h e ɾ c e s d i j o ɾ b i z e b i z oː a d a m ɯ n <int> a d aː l e t a n ɫ a j ɯ ʃ ɯ n a h a s t a j ɯ z h a n i n e j e ɟ ø ɾ e p u a n w e ɾ i j o ɾ m e s e ɫ a h a l i l l e ɾ h a n i h a l i l l e ɾ i n h i ʧ s o ɾ u f a ɫ a n s o ɾ u ɫ m a d ɯ o n ɫ a ɾ a a ɾ t ɯ y ʧ p u a n w e ɾ d i s aː d e ʤ e 
[363.525]
d e a n ɫ a t t ɯ ɫ a ɾ j aː n i h a n i n e j e ɟ ø ɾ e w e ɾ d i c i oː a ɾ t ɯ y ʧ p u a n ɯ m e s e ɫ a j aː n i <no-speech> d iː l m i h a n i b i z <no-speech> b e n ʤ e b i z i m p e ɾ f o ɾ m a n s ɯ 
[372.525]
<no-speech> 
[374.455]
b u a ɾ a d a 
[375.725]
<no-speech> 
[377.955]
c e s i n l i c l e h a n i b i z i m s u n u m u m u z b i l e d a a ɟ y z e l d i <no-speech> j aː n i 
[382.995]
<no-speech> 
[385.285]
ø j l e i ʃ t e 
[386.225]
<no-speech> 
[390.285]
j aː n i <breath> j a a m a b a k oː t a k ɯ m e l b i s e k ɯ j aː f e t o ɫ a j ɯ n e d i ɾ b i l i j o ɾ m u s u n b u i m k a n m e s e l e s i d i ɾ ø z ɟ e b u n u h e ɾ c e s j a p a m a j a b i l i ɾ b u n a b a k m a j a ʤ a k s ɯ n 
[401.435]
b e l c i a d a m ɯ n j o k j aː n i p a ɾ a s ɯ j o k a ɫ m a j a ɟ y ʤ y j o k 
[404.765]
<no-speech> 
[406.735]
j a h a w a k o ʃ u ɫ ɫ a ɾ ɯ n d a n z i j aː d e h a n i b e l c i a d a m ɯ n i m c aː n ɯ j o k j aː n i o ɫ a b i l i ɾ s o n u ʧ t a t a m a m h a d i b i z i m d u ɾ u m u m u z i j i a m a o n u s ɯ n ɯ f t a a ɫ a m a j a ʤ a k o ɫ a n ɫ a ɾ 
[415.615]
<no-speech> 
[417.215]
j aː n i 
[418.025]
<no-speech> 
[419.205]
a m a n <no-speech> n e j s e s a ɫ ɫ a j a y f 
[421.355]
<no-speech> 
[424.895]
<breath> ʃ e j a n ɯ ɫ ɯ n e s c i s e w ɟ i l i s i w a ɾ d ɯ j a s a ɾ ɯ ʃ ɯ n k ɯ z <laugh> h a t ɯ ɾ ɫ a d ɯ n m ɯ <no-speech> oː d a b i z i m n i a ɫ n i a ɫ o n ɫ a ɾ ɯ n 
[436.315]
t a k ɯ m ɯ n d a ʃ e j i n g ɯ ɾ u b u n d a j d ɯ j a <breath> o n d a n s o n ɾ a n i a l i n a ɾ k a d a ʃ ɯ j a oː k ɯ z a n ɯ ɫ ɫ a f o t oː ɾ a f ʧ e k t i ɾ m e l e ɾ f e j s e f a ɫ a n k o j m u ʃ ɫ a ɾ i p e c s i n i ɾ i n d e n ø l y j o ɾ <no-speech> e w e t <laugh> 
[448.005]
a n ɯ ɫ ɫ a ɾ ɯ ʧ a ɯ ɾ m ɯ ʃ 
[449.155]
<no-speech> 
[449.965]
b ø j l e s a ɾ m a ʃ d o ɫ a ʃ f o t oː ɾ a f ɫ a ɾ f a ɫ a n <breath> a m a b a k s a n a b i ʃ e j a n ɫ a t ʤ aː m d y n n e o ɫ d u b i l i j o ɾ m u s u n <breath> d y n b e n a h m e t l e j d i m j a 
[457.945]
<no-speech> 
[458.745]
i p e c l e a n ɯ ɫ <hes> ʤ a d d e d e n a ʃ aː i n i j o ɾ ɫ a ɾ d ɯ b i z oː o ɫ d uː k a ɫ d ɯ ɾ ɯ m d a j d ɯ k 
[465.885]
<no-speech> 
[467.085]
b a k ʃ i m d i e w e t c e s i n ø j l e b i z oː d a d a ʃ ɫ a ɾ ɯ n k a ɫ d ɯ ɾ ɯ m ɯ n d a j d ɯ k o n ɫ a ɾ d a c a ɾ ʃ ɯ k a ɫ d ɯ ɾ ɯ m <no-speech> o n ɫ a ɾ c a ɾ ʃ ɯ k a ɫ d ɯ ɾ ɯ m a ɟ e ʧ t i l e ɾ <no-speech> b e n ɟ ø ɾ d y m o n ɫ a ɾ ɯ <no-speech> c a ɾ ʃ ɯ k a ɫ d ɯ ɾ ɯ m 
[478.825]
b e n i ɟ ø ɾ d y l e ɾ b y j y c i t i m a l l e c i c a ɾ ʃ ɯ k a ɫ d ɯ ɾ ɯ m a ɟ e ʧ t i l e ɾ j o ɫ ɫ a ɾ ɯ n ɯ d iː ʃ t i ɾ d i l e ɾ <breath> o n d a n s o n ɾ a b i z n e j s e a m e t l e b e ɾ a b e ɾ i ʃ b a ŋ k a s ɯ n ɯ n o ɾ a j a ɟ i t t i c <no-speech> b i b a k t ɯ m a n ɯ ɫ ɫ a i p e c 
[490.795]
a n ɯ ɫ h i ʧ b e n i m s u ɾ a t ɯ m a b a k m ɯ j o ɾ k u j ɾ u k t a b e c l i j o ɾ ɫ a ɾ i p e c d e s e n b e n i ɟ ø ɾ m e m e z l i c t e n ɟ e l i j o ɾ c a f a s ɯ n ɯ ʧ e w i ɾ i j o ɾ f a ɫ a n n e h a b e ɾ i p e c d i j o m i p e c e w e t n e h a b e ɾ i p e c d i j o m i p e c 
[502.605]
t u a f b ø j l e i j i f a ɫ a n h i ʧ a m e t e b i l e s e ɫ aː m w e ɾ m e d i <breath> o n d a n s o n ɾ a ɟ e ɾ ʧ e c t e n w a ɫ ɫ aː a ɫ ɫ a ɯ m d e d i m n e o ɫ u j o z f a ɫ a n d e d i m <breath> s o n ɾ a h e ɾ h a l d e 
[514.505]
<click> d e d i m c i b u d e d i m 
[515.765]
<no-speech> 
[517.305]
a j n e n ø j l e ɟ a j e t n o ɾ m a ɫ b i ʃ e j j aː n i <no-speech> s a ʧ m a s a ʧ m a t a w ɯ ɾ ɫ a ɾ <no-speech> 
[525.435]
j aː n i b i l i j o m ʧ o k s a ʧ m a d a w ɾ a n d ɯ h i ʧ b e n i m s u ɾ a t ɯ m a f a ɫ a n b a k m ɯ j o ɾ a n ɯ ɫ d e s e n h i ʧ b a k m ɯ j o ɾ f a ɫ a n n e j a p ɯ j o n f a ɫ a n i j i i j i f a ɫ a n j a p ɯ j o ɾ b ø j l e a m e t e s e ɫ aː m w e ɾ m e d i oː c i m j a n ɯ n d a c i a m e t d e d i m b e n d e <breath> s a ʧ m a s a ʧ m a j aː n i a n ɫ a j a m a d ɯ m b e n d e 
[543.695]
<no-speech> 
[545.405]
ø j l e i ʃ t e 
[546.645]
<no-speech> 
[550.265]
h ɯ 
[550.845]
<no-speech> 
[555.885]
ɯ m h ɯ m 
[556.405]
<no-speech> 
[560.295]
b e n ʤ e d e <no-speech> b e n ʤ e 
[562.225]
<no-speech> 
[563.605]
o ɫ a b i l i ɾ o ɫ a b i l i ɾ 
[565.285]
<no-speech> 
[568.685]
ʧ o k t u a f j a oː k ɯ z b e n a n ɫ a j a m a d ɯ m j aː n i oː k ɯ z ɯ j aː n i n e b i l e j i m t u h a f ɯ m a ɟ i t t i j a s o n u ʧ t a b i z n e j i z j aː n i <no-speech> h a n i i n s a n b i b a k a ɾ s u ɾ a t ɯ m a a m e t j a n ɯ m d a f a ɫ a n b i s e ɫ aː m w e ɾ i ɾ 
[580.645]
t u a f d a i j i f a ɫ a n j a p ɯ j o ɾ b ø j l e s e n n a s ɯ ɫ s ɯ n f a ɫ a n j o k h i ʧ <breath> n e j a p ɯ j o n f a ɫ a n j o k j a n e b i l e j i m t u h a f t ɯ a n ɫ a j a m a d ɯ m a m a n 
[589.975]
<no-speech> 
[591.405]
n e j s e s a ɫ ɫ a j aː n i 
[593.365]
<no-speech> 
[595.595]
c e s i n c e s 
[596.565]
<no-speech> 
[598.715]
j aː n i o ɫ a b i l i ɾ 
[600.065]
<no-speech> 
[600.14]
