[0.0]
<no-speech> 
[0.125]
<no-speech> 
[1.575]
<no-speech> 
[2.565]
a ɫ o e f e n d i m 
[7.575]
<no-speech> 
[9.885]
a ɫ o 
[10.455]
<no-speech> 
[11.765]
i j i s e n d e n n e h a b e ɾ e f e n d i m 
[15.685]
<no-speech> 
[19.735]
<no-speech> 
[20.115]
<no-speech> 
[21.375]
i j i w a ɫ ɫ aː i s e n n e j a p ɯ j o n 
[24.135]
<no-speech> 
[24.975]
<no-speech> 
[25.415]
<no-speech> 
[26.365]
n a s ɯ ɫ ɟ i d i j o ɾ 
[28.445]
<no-speech> 
[29.455]
ɯ m h ɯ m d ɯ ʃ a ɾ ɯ d a j ɯ m 
[30.505]
<no-speech> 
[32.594875]
<int> n e a n ɫ a m a d ɯ m 
[36.235]
<no-speech> 
[37.135]
e ɾ ɟ y n l e ɾ l e k o n u ʃ t u m k o n u ʃ t u m k o n u ʃ t u m 
[40.515]
<no-speech> 
[45.675]
j a ɟ i d i j o ɾ ɫ a ɾ m ɯ ʃ d a c i m c i m c i m b e l l i d iː l d a a s a n ɯ ɾ ɯ m 
[50.155]
<no-speech> 
[51.335]
<no-speech> 
[51.705]
<no-speech> 
[54.885]
j a b e n i m d e b e l l i d iː l ɟ i t m e k l e ɟ i t m e m e k a ɾ a s ɯ n d a ɟ i d i p ɟ e l i j o ɾ u m 
[59.555]
<no-speech> 
[64.135]
b e n ɟ e l s e j d i m i j i j d i 
[66.075]
<no-speech> 
[70.045]
b e n o n u t e c ɾ a ɾ a ɾ a d ɯ m s e n d e n s o n ɾ a o n u n ɫ a k o n u ʃ t u m d e d i b e n b a h a ɾ ɯ a ɾ ɯ ʤ aː m d i j e a ɾ a m a d ɯ m ɯ h aː l aː 
[79.335]
<no-speech> 
[81.845]
a ɫ ɫ a a ɫ ɫ a a ɫ ɫ a a ɫ ɫ a 
[83.885]
<no-speech> 
[86.625]
b ɯ ɾ a k j a s e n d e j a p ɯ j o n b a n a b a a ɾ ɯ m h ɯ m 
[95.665]
<no-speech> 
[99.475]
b i l e m i j o m w a ɫ ɫ aː 
[101.225]
<no-speech> 
[102.825]
<no-speech> 
[103.395]
<no-speech> 
[104.435]
<no-speech> 
[104.845]
<no-speech> 
[105.685]
<no-speech> 
[109.115]
<no-speech> 
[110.195]
<int> o k u ɫ j o k j aː n i j a z ɯ ɫ ɯ s ɯ n a w ɫ a ɾ b i t t i d e ʃ e j l e ɾ w a ɾ i ʃ t e s u n u m ɫ a ɾ p ɾ o ʒ e l e ɾ m ɯ ɾ o ʒ e l e ɾ w a ɾ 
[119.165]
<no-speech> 
[124.785]
i ʃ t e ø j l e o n d a n s o n ɾ a c i h a f t a o ɫ u j o ɾ s ɯ n a w j e ɾ i n e s u n u m j a p t ɯ ɾ ɯ j o ɾ ɫ a ɾ j aː n i 
[133.605]
<no-speech> 
[135.405]
s e n i n n a s ɯ ɫ ɟ i d i j o ɾ 
[136.845]
<no-speech> 
[140.495]
i j i l e ɾ o n ɫ a ɾ d a 
[142.085]
<no-speech> 
[143.145]
d a j ɯ m d ɯ ʃ a ɾ ɯ d a m a ʧ ɯ i z l e ɾ b i ɾ a z d a n j e n ɟ e n e w d e s i z i n c i l e ɾ n e j a p ɯ j o ɾ n e z a m aː n d ø n y j o ɾ 
[150.385]
<no-speech> 
[153.525]
j o k b e 
[154.385]
<no-speech> 
[157.265]
j o k j o k ɯ m h ɯ m ø j l e s i n e s i z i n c i l e ɾ n e z a m aː n d ø n y j o ɾ ɫ a ɾ 
[161.665]
<no-speech> 
[170.425]
j e n i a ɫ d ɯː m ɯ z j e ɾ e m i 
[171.925]
<no-speech> 
[173.315]
j e n i a ɫ d ɯː m ɯ z j e ɾ 
[175.085]
<no-speech> 
[177.015]
<no-speech> 
[178.575]
<no-speech> 
[180.925]
b e l l i m i 
[183.015]
<no-speech> 
[191.595]
<no-speech> 
[191.965]
<no-speech> 
[193.505]
s i z n e z a m aː n ɟ i d ʤ e c s i n i z p e c i 
[195.615]
<no-speech> 
[202.765]
n e z a m aː n 
[204.025]
<no-speech> 
[205.045]
<no-speech> 
[207.315]
<no-speech> 
[208.145]
<no-speech> 
[211.625]
<no-speech> 
[213.055]
a m a n oː b i ʃ e j b a ʃ ɫ ɯ j o ɾ d iː l m i 
[214.975]
<no-speech> 
[215.995]
<no-speech> 
[216.345]
<no-speech> 
[221.205]
w a ɫ ɫ aː i b y j y d y 
[222.795]
<no-speech> 
[224.545]
s e n i n 
[226.115]
<no-speech> 
[228.165]
b e n b a ɫ t a j a s a p o ɫ a m a d ɯ m 
[230.355]
<no-speech> 
[231.425]
<no-speech> 
[232.375]
<no-speech> 
[234.795]
<no-speech> 
[235.225]
<no-speech> 
[238.915]
<no-speech> 
[239.725]
<no-speech> 
[240.935]
s e n d e n ɟ i d ʤ e c o ɫ u ɾ m u b e n o n u m e ɾ a k e d i j o m 
[243.545]
<no-speech> 
[244.665]
<no-speech> 
[245.755]
<no-speech> 
[246.585]

[249.685]
<no-speech> 
[250.625]
<no-speech> 
[251.205]
<no-speech> 
[254.475]
<no-speech> 
[260.465]
<no-speech> 
[261.705]
<laugh> o n u n d a k u z e n i m l e t a ɾ t ɯ ʃ m a s ɯ n ɯ j a p t ɯ k d a 
[270.025]
<no-speech> 
[271.175]
e f e n d i m 
[271.925]
<no-speech> 
[274.835]
t a b i ʤ a n ɯ m oː t e i l k b a ʃ t a n d a k u z e n i m k u z e n i m d i j e k ɯ s k a n ʧ t a b i s e n i n j e ɾ i n a j ɾ ɯ o ɾ a s ɯ m u a k k a k 
[284.555]
<no-speech> 
[287.785]
<no-speech> 
[288.135]
<no-speech> 
[290.505]
n i j e 
[292.185]
<no-speech> 
[297.835]
n e d e n <no-speech> 
[300.405]
n e <laugh> n e d e n oː 
[302.755]
<no-speech> 
[304.425]
n e d e n a m a 
[305.405]
<no-speech> 
[310.965]
<no-speech> 
[311.345]
<no-speech> 
[313.525]
<no-speech> 
[314.685]
<no-speech> 
[315.865]
k u t ɫ u j o ɾ 
[317.115]
<no-speech> 
[318.775]
<laugh> <sta> n i j e a ɫ m ɯ j o ɾ s u n u z b i s aː n i j e n i j e a ɫ m ɯ j o n <no-speech> a ɫ ɯ ɾ s ɯ n a ɫ ɯ ɾ s ɯ n 
[329.255]
<no-speech> 
[330.965]
h a n e d e j i m ʃ i m d i 
[333.995]
<no-speech> 
[335.635]
e f e n d i m 
[337.945]
<no-speech> 
[339.755]
oː c i m 
[341.285]
<no-speech> 
[343.235]
oː c i m d i j e m i s o ɾ d u ʤ eː ʤ e j d aː 
[346.595]
<no-speech> 
[347.975]
<no-speech> 
[348.615]
<no-speech> 
[350.205]
<no-speech> 
[351.575]
<no-speech> 
[352.545]
<sta> a l e j c y m s e ɫ a m o n u n <sta> o n u n d a s a n a s e l aː m ɯ w a ɾ 
[359.215]
<no-speech> 
[362.575]
<no-speech> 
[363.795]
<no-speech> 
[365.625]
d e m e c <no-speech> 
[368.015]
n e j a p a b i l i ɾ i m n e j a p a b i l i ɾ i m 
[374.435]
<no-speech> 
[375.295]
ø z l e m i n i j e a ɫ a m ɯ j o ɾ n i j e 
[381.355]
<no-speech> 
[383.915]
k ɯ s k a n ʧ 
[386.405]
<no-speech> 
[387.715]
b a h ʧ e l i e w l e ɾ d e j i m b e n k a f e d e j i m b a h ʧ e l i e w l e ɾ d e ɯ m h ɯ m 
[399.095]
<no-speech> 
[400.875]
j o k 
[401.955]
<no-speech> 
[406.405]
j a p t ɯ k a m a 
[407.465]
<no-speech> 
[409.665]
<sta> j a p ʤ a k j a p ʤ a k s e n n e z a m aː n b a ʃ ɫ ɯ j o n m a s t ɯ ɾ a 
[418.275]
<no-speech> 
[419.555]
<sta> ɯ m h ɯ m ɟ y z e l 
[422.155]
<no-speech> 
[425.495]
ɟ e ɾ ʧ i s e n i n c i m a s t ɯ ɾ k a d a ɾ o ɫ d u 
[427.635]
<no-speech> 
[428.595]
m a s t ɯ ɾ k a d a ɾ o ɫ d u s e n i n c i 
[431.475]
<no-speech> 
[432.345]
<no-speech> 
[432.695]
<no-speech> 
[434.885]
<no-speech> 
[438.525]
<no-speech> 
[440.365]
u t k u ʤ e m 
[442.415]
<no-speech> 
[443.265]
h a b i z i m b i s e n e j s e i j i 
[450.115]
<no-speech> 
[451.025]
<sta> b u s e n e b i s e n e b i t t i o n u n 
[455.425]
<no-speech> 
[458.415]
d i j o n a j ɯ p o ɫ u ɾ l a n ø j l e d e a j ɯ p o ɫ u ɾ ø j l e <laugh> 
[470.275]
<no-speech> 
[470.595]
<no-speech> 
[472.725]
j o k b e n ø j l e j e ɾ l e ɾ i b i l m e m b e n ø j l e j e ɾ l e ɾ i b i l m e m 
[478.845]
<no-speech> 
[480.295]
<no-speech> 
[483.115]
<no-speech> 
[483.935]
<no-speech> 
[489.555]
<no-speech> 
[490.855]
<no-speech> 
[492.025]
<no-speech> 
[494.675]
e ʧ ɯ k ɯ j o ɾ 
[495.575]
<no-speech> 
[502.695]
d i j o n 
[505.245]
<no-speech> 
[506.675]
<no-speech> 
[507.425]
<no-speech> 
[510.155]
<no-speech> 
[514.295]
<no-speech> 
[515.985]
<no-speech> 
[516.345]
<no-speech> 
[517.865]
n e j a p s ɯ n i ʃ t e i ʃ e ɟ i d i j o ɾ e w l e n d i ʧ o ʤ u k b a k t ɯ b i l i j o n 
[523.064875]
<no-speech> 
[524.045]
<no-speech> 
[525.215]
<no-speech> 
[527.565]
ø j l e i ʃ t e 
[529.025]
<no-speech> 
[531.165]
oː d a ʃ e j i ʃ t e d a j ɯ m ɯ n oː ɫ u 
[536.995]
<no-speech> 
[538.775]
j o k b u ɾ a d a j a ɯ m h ɯ m 
[545.435]
<no-speech> 
[546.555]
ø b y ɾ c y n y d e b e n d e n b i b e n d e n b i s e n e ø n ʤ e b i t i ɾ d i 
[555.085]
<no-speech> 
[558.025]
<no-speech> 
[558.375]
<no-speech> 
[559.795]
j o k a ɫ t ɯ a j b y j y c b e n d e n ɯ m h ɯ m a w u c a t ɫ ɯ k b y ɾ o s u n d a ʧ a ɫ ɯ ʃ ɯ j o ɾ 
[565.995]
<no-speech> 
[566.915]
k a b a t a ʃ t a b i j e ɾ d e 
[568.295]
<no-speech> 
[570.315]
<no-speech> 
[570.925]
<no-speech> 
[572.305]
<no-speech> 
[573.645]
<no-speech> 
[574.965]
ɟ i t t i c ɟ i t t i c o n u n a ɾ a b a s ɯ j ɫ a ɟ i t t i c z a t e n 
[578.355]
<no-speech> 
[579.885]
e f e n d i m 
[582.185]
<no-speech> 
[583.675]
<no-speech> 
[584.035]
<no-speech> 
[585.435]
j o k b e s a ɾ ɯ ʃ ɯ n d iː l e s m e ɾ s a ɾ ɯ ʃ ɯ n j o k c i ø j l e b i z d e c a ɾ a 
[594.925]
<no-speech> 
[597.835]
n e 
[600.235]
<no-speech> 
[600.36]
