[0.0]
<no-speech> 
[1.365]

[2.655]
<no-speech> 
[6.765]
<hes> 
[7.915]
<no-speech> 
[8.875]
a ɫ o 
[10.135]
<no-speech> 
[11.185]
<no-speech> 
[11.665]
<no-speech> 
[12.635]
<hes> i ʃ t e j i m j a s e n n e ɾ e d e s i n 
[14.215]
<no-speech> 
[19.985]
<hes> 
[20.565]
<no-speech> 
[21.615]
t a m a m 
[22.155]
<no-speech> 
[23.385]
<no-speech> 
[23.795]
<no-speech> 
[24.765]
h a f t a s o n u j a p a ɾ ɯ z oː ɫ u m j a b e n ɟ e ʧ ɟ e l i ɾ i m 
[27.105]
<no-speech> 
[32.155]
b e n d o k u z b u ʧ u k t a o n d a a n ʤ a e w d e o ɫ u ɾ u m j a 
[34.735]
<no-speech> 
[36.045]
<no-speech> 
[36.535]
<no-speech> 
[44.085]
<hes> 
[44.675]
<no-speech> 
[46.745]
oː d a o ɫ u ɾ t a m a m oː ɫ u m h a n i ø j l e j a ɾ ɯ m s aː t b i s aː t t a k ɯ ɫ a b i l i ɾ i z j a ø j l e h a n i i c i y ʧ s aː t t a k ɯ ɫ a m a j ɯ z ʃ a f t ɯ m k a j a ɾ ʧ y n c y 
[53.115]
<no-speech> 
[58.965]
e f e n d i m 
[59.925]
<no-speech> 
[67.315]
<hes> i l i ʃ c i m i 
[69.055]
<no-speech> 
[71.565]
<no-speech> 
[71.915]
<no-speech> 
[75.835]
<hes> ʧ e m b e ɾ l i t a ʃ t a j a 
[77.315]
<no-speech> 
[79.295]
<no-speech> 
[79.675]
<no-speech> 
[81.695]
<hes> 
[82.395]
<no-speech> 
[83.405]
<no-speech> 
[84.185]
<no-speech> 
[90.775]
<hes> 
[91.485]
<no-speech> 
[92.985]
<no-speech> 
[93.335]
<no-speech> 
[95.245]
<hes> 
[95.805]
<no-speech> 
[96.825]
<no-speech> 
[97.205]
<no-speech> 
[103.095]
t a m a m j a oː s ɯ k ɯ n t ɯ d iː l j a i ʃ t e b e n e ɾ c e n ɟ e l e b i l i ɾ s e m b e n i m i ʧ i n s ɯ k ɯ n t ɯ j o k m e ʤ n u n 
[107.265]
<no-speech> 
[113.915]
<hes> 
[114.645]
<no-speech> 
[121.655]
i j i b e n e j a p a ɫ ɯ m a j n ɯ t a k ɯ ɫ ɯ j o z ʧ a ɫ ɯ ʃ ɯ j o z i ʃ ɟ y ʧ <int> p o ɫ a t a l e m d a ɾ ɟ e l i j o ɾ z a t e n 
[127.655]
<no-speech> 
[128.795]
e f e n d i m 
[130.935]
<no-speech> 
[132.905]
<breath> w a ɫ ɫ aː i ʃ t e ɟ i d i j o m j a 
[136.245]
<no-speech> 
[139.515]
<hes> k ɯ s m e t s e ɟ i d ʤ eː m j a b a k a ɫ ɯ m <int> 
[142.765]
<no-speech> 
[144.255]
<no-speech> 
[144.635]
<no-speech> 
[149.715]
j o k b e oː ɫ u m j a n e i ʃ i m o ɫ u ɾ b e n d yː n i ʧ i n b e n ʧ o k d yː n ɟ e z d i m b i l i j o ɾ m u s u n a ɾ t ɯ k j e t e ɾ s ɯ k t ɯ <breath> 
[155.785]
<no-speech> 
[161.525]
oː ɫ u m s e s i n ʧ o k c ø t y ɟ e l i j o ɾ j a <int> 
[165.645]
<no-speech> 
[167.455]
<hes> b i d e ʧ o k ɟ e ʧ ɟ e l i j o ɾ 
[170.715]
<no-speech> 
[172.935]
<no-speech> 
[173.905]
<no-speech> 
[179.125]
<no-speech> 
[179.825]
<no-speech> 
[180.885]
<hes> b iː ɾ a z b u ɫ a n ɯ k ɟ e l i j o ɾ j a s e s i n ʧ e c m i j o ɾ h e ɾ a l d e t y n e l e f a ɫ a n m ɯ ɟ i ɾ d i n 
[185.655]
<no-speech> 
[186.795]
<no-speech> 
[187.175]
<no-speech> 
[190.555]
<no-speech> 
[191.915]
<no-speech> 
[193.575]
<hes> 
[194.215]
<no-speech> 
[201.225]
j a oː ɫ u m d u j m u j o m c i h i ʧ b i ɾ ʃ e j b o ʃ w e ɾ oː ɫ u m b e n k ɯ ɾ o j u m b e n h e d e ɾ i m 
[204.945]
<no-speech> 
[206.105]
<no-speech> 
[206.715]
<no-speech> 
[210.235]
<laugh> n e d i ʤ e c t i m s a n a j a 
[214.185]
<no-speech> 
[216.505]
s e n i n b u b i l ɟ i s a j a ɾ s aː ɫ a m m ɯ 
[220.515]
<no-speech> 
[227.105]
<hes> 
[227.955]
<no-speech> 
[228.835]
a j n e n s e n d a a j e n m e d i n m i o n u 
[230.665]
<no-speech> 
[232.355]
<no-speech> 
[232.895]
<no-speech> 
[238.785]
<hes> 
[239.645]
<no-speech> 
[241.355]
<hes> h a f t a s o n u oː z a m aː n b i z ʤ u m a ɾ t e s i ɟ y n y j a p a ɫ ɯ m s e n e b i ʃ e j l e ɾ s e n i n l e j a 
[245.805]
<no-speech> 
[251.395]
j a oː ɫ u m 
[252.365]
<no-speech> 
[253.285]
b i l i j o n d e d i j i m ʃ e c i l j a p ʤ aː z 
[255.295]
<no-speech> 
[260.624875]
n e 
[261.354875]
<no-speech> 
[267.455]
j o k j a ɟ e ɾ e c j o k b e n k u ɫ ɫ a n m ɯ j o m 
[269.425]
<no-speech> 
[271.105]
<no-speech> 
[271.475]
<no-speech> 
[273.395]
<int> j o k oː ɫ u m 
[276.985]
<no-speech> 
[278.215]
oː ɫ u m b i i ʃ i m i z i h a l l e d e l i m o n d a n s o n ɾ a a j a ɾ ɫ a ɾ ɯ z j a ɟ e l i ɾ l e ɾ b e n a j a ɾ ɫ a ɾ ɯ m d ø ɾ t b e ʃ t a n e j o ɫ ɫ a ɾ ɯ m o ɾ a j a d oː ɾ u ɟ e l i ɾ l e ɾ z a t e n 
[284.005]
<no-speech> 
[291.275]
<hes> i ʃ t e j i m 
[292.655]
<no-speech> 
[297.385]
oː ɫ u m b e n ʧ ɯ ɾ a k o ɫ u ɾ m u j u m l a n k a f a m a ɟ ø ɾ e ʧ ɯ k ɯ j o m d o ɫ a ʃ ɯ j o m ʃ u a n i ʧ e ɾ d e d ɯ ʃ a ɾ ɯ d a j ɯ m <int> 
[305.035]
<no-speech> 
[306.555]

[307.165]
<no-speech> 
[308.405]

[309.685]
<no-speech> 
[310.695]
<breath> w o w s e n d e o ɫ m a z m ɯ oː ɫ u m w a ɾ j a b i ɾ k a ʧ t a n e w a ɾ a m a i ʃ t e 
[315.885]
<no-speech> 
[316.825]
oː t a ɾ a f ɫ a ɾ a ɟ i ɾ m e d iː m i ʧ i n j a ɫ a n o ɫ u j o ɾ b i l i j o ɾ m u s u n 
[319.395]
<no-speech> 
[325.735]
<hes> j o k s a n a ɟ e ɾ e c j o k b i z ɟ ø k h a n ɫ a z a t e n b u ɾ a d a uː ɾ a ʃ ɯ j o z j a ɟ e ɾ e c i j o ɾ b i l i j o ɾ m u s u n 
[332.775]
<no-speech> 
[338.435]
<hes> j a ɟ e l s e n o ɫ u ɾ h a n i b o ʃ w e ɾ t a k ɯ ɫ t a k ɯ ɫ o ɾ a ɫ a ɾ d a b o ʃ w e ɾ 
[343.325]
<no-speech> 
[349.085]
<laugh> <int> o ɫ m a z s a b y j yː n y w e ɾ i ɾ i z 
[353.355]
<no-speech> 
[354.375]
<no-speech> 
[355.105]
<no-speech> 
[359.625]
<no-speech> 
[360.155]
<no-speech> 
[363.905]
<int> <hes> i j i oː d a n e j a p s ɯ n oː d a j u k a ɾ d a ʧ a ɫ ɯ ʃ ɯ j o ɾ i ʃ t e 
[367.835]
<no-speech> 
[372.795]
<int> n e 
[374.375]
<no-speech> 
[379.395]
<hes> <int> d a j ɯ m ɫ a ɾ ɫ a ɟ i d i j o m c i m i n l e ɟ i d ʤ eː m b a ʃ k a oː ɫ u m 
[382.375]
<no-speech> 
[386.715]
<laugh> k a f a d a n s e c i z w a ɾ <int> 
[391.915]
<no-speech> 
[395.245]
oː ɫ u m b i z b i n m i j o z z a t e n i c i t a n e ø n e d ø ɾ t t a n e o ɾ t a j a i ʃ t e b a k ɯ j ɯ m c a ʧ o ɫ d u a ɫ t ɯ m ɯ o ɫ d u j a <int> i ʃ t e i c i t a n e d e a ɾ c a j a b i n e ɾ <int> 
[406.015]
<no-speech> 
[407.175]
<hes> m y l t e ʤ i l e ɾ ɟ i b i ɟ i d i j o z j o ɫ d a b i ɾ i s i s a t a ʃ ɯ ɾ s a j o k k u ɾ t u ɫ m a ʃ a n s ɯ j o k 
[415.195]
<no-speech> 
[421.745]
<hes> <int> 
[424.675]
<no-speech> 
[425.695]
h a t ɯ ɾ ɫ ɯ j o m oː ɫ u m s e n d e b i t o k ɫ u k w a ɾ z a t e n 
[428.585]
<no-speech> 
[430.925]
<no-speech> 
[431.855]
<no-speech> 
[434.585]
<hes> 
[435.565]
<no-speech> 
[437.765]
n e 
[438.275]
<no-speech> 
[441.365]
oː ɫ u m 
[442.955]
<no-speech> 
[443.775]
j a p m a 
[445.685]
<no-speech> 
[450.645]
j a oː ɫ u m b a k s i c e ɾ i m j e ɾ i n i s ø j l e a m ʤ ɯ k a ɯ z ɫ ɯ b e n i ʧ ɯ ɫ d ɯ ɾ t m a 
[454.635]
<no-speech> 
[460.455]
<no-speech> 
[460.945]
<no-speech> 
[465.595]
<hes> 
[466.165]
<no-speech> 
[468.075]
<hes> t a m a m k u ɫ ɫ a n m ɯ j o m d a s e n i n d e b i t a ɾ a f ɫ a ɾ ɯ n k a ʃ ɯ n m a s ɯ n l y t f e n p o p o n k a ʃ ɯ n d ɯ 
[472.175]
<no-speech> 
[478.135]
<no-speech> 
[478.575]
<no-speech> 
[479.935]
<no-speech> 
[482.395]
<no-speech> 
[484.885]
<hes> oː ɫ u m ɾ a a t b u i ʃ oː j y z d e n k a ʃ ɯ n m a j a ʤ a k s ɯ n b a n a h e d i j e f a ɫ a n k o j m a j a ɟ e ɾ e c j o k 
[490.325]
<no-speech> 
[495.635]
<hes> oː ɫ u m b e n s e n d e n d iː l b e n h e ɾ c e s t e n k u ɾ t u ɫ u j o m ʧ o k ɟ y z e l o ɫ u j o ɾ l a n 
[499.785]
<no-speech> 
[504.145]
<no-speech> 
[504.605]
<no-speech> 
[506.755]
j o k oː ɫ u m l a n <hes> o n b e ʃ a j j a p ʤ aː z i ʃ t e oː ɫ u m n e o ɫ ʤ a k <hes> b e n b i y ʧ a j d a a ɟ e l i ɾ i m h a w a d e i ʃ i m i d e ɾ i m p i s i k o ɫ o ʒ i m b o z u ɫ d u f a ɫ a n f i ɫ a n 
[516.034875]
b i c i ʃ i j e s a ɫ d ɯ ɾ ɯ ɾ ɯ m k o m u t a n a s a ɫ d ɯ ɾ ɯ ɾ ɯ m y ʧ ɟ e l i ɾ i m b u ɾ a j a 
[520.145]
<no-speech> 
[527.895]
oː ɫ u m m i b ø j l e s aː s o ɫ u t a n ɯ m a j ɯ z b i l i j o n s e n t a n ɯ m a z s ɯ n d a a b e n i d e d a a d e ŋ k ɟ e l m e d i c 
[533.395]
<no-speech> 
[537.605]
<no-speech> 
[537.985]
<no-speech> 
[540.005]
<no-speech> 
[540.435]
<no-speech> 
[541.445]
<hes> 
[542.675]
<no-speech> 
[545.035]
l a n oː ɫ u m 
[545.845]
<no-speech> 
[547.195]
a ɫ o a ɫ o 
[548.765]
<no-speech> 
[551.905]
a ɫ o 
[552.605]
<no-speech> 
[555.465]
a ɫ o 
[556.185]
<no-speech> 
[557.065]
d u j u j o ɾ m u s u n 
[558.025]
<no-speech> 
[559.045]
<no-speech> 
[559.405]
<no-speech> 
[562.555]
<hes> ɟ e l i j o ɾ ʃ u a n ɟ e l d i 
[564.145]
<no-speech> 
[566.455]
<no-speech> 
[566.815]
<no-speech> 
[568.435]
e w e t ɟ e l d i ɟ e l d i ʃ e j n e ɾ e d e s i n s e n 
[571.865]
<no-speech> 
[573.755]
b u ɾ a d a j ɯ m b u ɾ a d a 
[576.705]
<no-speech> 
[578.675]
t a m a m s aː d a n ʧ ɯ k a m a <hes> 
[580.745]
<no-speech> 
[586.655]
<hes> c a ɫ ɯ n m ɯ c a ɫ ɯ n a m a ʃ e j m e ɾ a k e d i j o z 
[592.255]
<no-speech> 
[594.415]
<no-speech> 
[594.955]
<no-speech> 
[595.905]
<no-speech> 
[596.675]
<no-speech> 
[598.865]
<hes> 
[599.225]
<no-speech> 
[600.32]
