[0.0]
<no-speech> 
[4.035]
a j 
[4.595]
<no-speech> 
[10.655]
<no-speech> 
[11.345]
<no-speech> 
[19.725]
<no-speech> 
[28.105]
<no-speech> 
[36.485]
a ɫ o 
[37.145]
<no-speech> 
[38.715]
a ɫ o 
[39.395]
<no-speech> 
[41.335]
e w e t 
[41.975]
<no-speech> 
[42.845]
e w e t 
[43.455]
<no-speech> 
[50.405]
eː j e m e c t a ɾ i f i 
[51.775]
<no-speech> 
[52.695]
<no-speech> 
[53.525]
<no-speech> 
[54.555]
h a n ɟ i j e m n e j e m h a n ɟ i j e m iː t a ɾ i f e t s e m a ʤ a b a <laugh> i ʧ l i c ø f t e t a ɾ i f e d e j i m s i z e 
[60.855]
<no-speech> 
[61.865]
<no-speech> 
[62.625]
<no-speech> 
[65.445]
<hes> a ɫ o 
[66.335]
<no-speech> 
[68.265]
a ɫ o 
[68.955]
<no-speech> 
[70.475]
a ɫ o 
[71.135]
<no-speech> 
[73.205]
e w e t ɟ e l i j o ɾ 
[74.465]
<no-speech> 
[76.165]
ɟ e l i j o ɾ ʃ i m d i s e s i n i z ɟ e l i j o ɾ 
[77.975]
<no-speech> 
[79.355]
b e n i m s e s i m ɟ e l i j o ɾ m u b i ʃ e j w a ɾ p ɯ ɾ o b l e m w a ɾ ɟ aː l i b a 
[82.725]
<no-speech> 
[84.035]
t a m a m <hes> j e m e c t a ɾ i f i 
[87.605]
<no-speech> 
[96.125]
h a n ɟ i d i z i j i 
[97.225]
<no-speech> 
[99.965]
a j b e n s i z e j e m e c t a ɾ i f i w e ɾ i j i m 
[101.635]
<no-speech> 
[104.615]
j e m e c t a ɾ i f i w e ɾ i j i m <no-speech> d i z i j i t a m <hes> a n ɫ a m ɫ ɯ d i n l e m e ʃ e j j a p m a d ɯ m <hes> i ʧ l i c ø f t e t a ɾ i f i w e ɾ i j i m b e n s i z e b u ɫ g u ɾ u ɯ s ɫ a t a ʤ a k s ɯ n ɯ z <no-speech> <hes> ɯ s ɫ a t ɯ j o ɾ s u n u z i ʧ i n e 
[115.955]
e w e t 
[117.285]
<no-speech> 
[121.215]
b u ɫ g u ɾ u ɯ s ɫ a t ɯ j o ɾ s u n u z o n u d i n l e n d i ɾ m e j e a ɫ ɯ j o s u n u z b e c l i j o ɾ d i j e ɾ t a ɾ a f t a n i ʧ i n i h a z ɯ ɾ ɫ ɯ j o ɾ s u n u z b o ɫ s o a n k ɯ j m a 
[130.735]
<no-speech> 
[131.885]
o n u d i n l e n d i ɾ m e j e a ɫ ɯ j o s u n u z d i j e ɾ t a ɾ a f t a n i ʧ i n i h a z ɯ ɾ ɫ ɯ j o ɾ s u n u z b o ɫ s o a n k ɯ j m a s o a n 
[143.385]
k ɯ j m a ʤ e w i z 
[144.715]
<no-speech> 
[145.735]
ʤ e w i z 
[146.315]
<no-speech> 
[147.635]
ɟ y z e l ʤ e k a w u ɾ u j o ɾ s u n u z 
[149.525]
<no-speech> 
[150.475]
<hes> ʧ o k a z ɟ e l d i i ʃ t e k a w u ɾ u j o ɾ s u n u z o n u k a w u ɾ d u k t a n s o n ɾ a d i j e ɾ b u ɫ g u ɾ u u n ɫ a <hes> j oː ɾ u p i j i ʤ e j o w u ɾ u j o s u n u z j o w u ɾ d u k t a n s o n ɾ a i ʧ i n i a ʧ ɯ p 
[161.465]
d o ɫ d u ɾ u p d o ɫ d u ɾ u j o s u n u z 
[164.025]
<no-speech> 
[165.745]
h ɯ 
[166.195]
<no-speech> 
[171.895]
b o ɫ s o a n k a w u ɾ u j o n ɟ y z e l ʤ e 
[174.555]
<no-speech> 
[175.505]
k a w u ɾ u j o n k a w u ɾ d u k t a n s o n ɾ a b u ɫ g u ɾ u o n u b i c e n a ɾ a a ɫ ɯ j o n c a w u ɾ m a i ʃ i b i t t i c t e n s o n ɾ a m a j d o n o z k o j u j o n i ʃ t e b a a ɾ a t ɫ a ɾ ɯ n ɯ k o j u j o n 
[184.845]
<no-speech> 
[187.035]
s o a n k ɯ j m a ʤ e w i z b a a ɾ a t ɫ a ɾ 
[189.435]
<no-speech> 
[191.205]
<no-speech> 
[191.605]
<no-speech> 
[192.565]
b o ɫ s o a n k ɯ j m a ʤ e w i z b a a ɾ a t ɫ a ɾ m a j d o n o z k o j u p k a ɾ ɯ ʃ t ɯ ɾ ɯ j o n 
[198.655]
<no-speech> 
[202.005]
k a ɾ ɯ ʃ t ɯ ɾ d ɯ n ɯ z m ɯ 
[203.125]
<no-speech> 
[203.935]
h ɯ oː b i t t i o n u b i o n u a ɫ ɯ j o s u n u z ɟ y z e l k a w u ɾ d u k t a n s o n ɾ a c e n a ɾ a a ɫ ɯ j o n 
[210.095]
<no-speech> 
[211.705]
o ʤ a ɯ k a p a t ɯ j o n j aː n i 
[213.305]
<no-speech> 
[217.555]
t a m a m 
[218.135]
<no-speech> 
[219.685]
d i j e ɾ t a ɾ a f t a k ɯ j m a j ɯ ʃ e j b u ɫ g u ɾ u j oː ɾ u p h ɯ b u ɫ g u ɾ u j oː ɾ u p i ʧ i n i a ʧ ɯ p d o ɫ d u ɾ u j o n 
[226.175]
<no-speech> 
[227.165]
j u m u ɾ t a j a b u ɫ a j ɯ p k ɯ z a ɾ t w e j a h a ʃ ɫ a 
[229.495]
<no-speech> 
[233.955]
a ɫ o h ɯ 
[235.105]
<no-speech> 
[238.745]
a k ʃ a m a j e m e c t e 
[240.015]
<no-speech> 
[240.895]
<no-speech> 
[241.275]
<no-speech> 
[242.135]
a k ʃ a m j e m e c d a a d y ʃ y n m e d i m j a h a z ɯ ɾ d iː l d a a 
[245.445]
<no-speech> 
[246.355]
d y ʃ y n m e d i m j aː n i t a w u k ɯ z g a ɾ a j a p a m a j ɯ d y ʃ y n y j o m 
[250.605]
<no-speech> 
[251.685]
t a w u k ɯ z g a ɾ a j a p m a j ɯ d y ʃ y n y j o m e w e t 
[255.045]
<no-speech> 
[257.994875]
ʧ o ɾ b a p a t a t e s p y ɾ e s i 
[259.794875]
<no-speech> 
[260.915]
e w e t t a w u k ɯ z g a ɾ a 
[262.595]
<no-speech> 
[265.755]
p a t a t e s p y ɾ e s i ʧ o ɾ b a 
[267.245]
<no-speech> 
[270.945]
t a m a m 
[271.475]
<no-speech> 
[273.865]
m e j w e s u j u s a ɫ a t a 
[275.355]
<no-speech> 
[280.775]
i ʧ l i c ø f t e j i a n ɫ a d ɯ n m ɯ 
[282.315]
<no-speech> 
[284.135]
b u ɟ y n n e j a p ʤ aː m 
[285.435]
<no-speech> 
[286.555]
a n ɫ a d ɯ n t a m a m 
[287.845]
<no-speech> 
[289.245]
b u ɟ y n 
[290.545]
<no-speech> 
[291.785]
d ɯ ʃ a ɾ ɯ ʧ ɯ k ɯ ʤ aː m a ɫ ɯ ʃ w e ɾ i ʃ e 
[293.875]
<no-speech> 
[297.595]
a ɫ ɯ ʃ w e ɾ i ʃ e ɟ i d ʤ eː m b a n c a j a uː ɾ ɯ ʤ aː m 
[300.655]
<no-speech> 
[306.485]
b a b a n d ɯ ʃ a ɾ ɯ ʧ ɯ k t ɯ 
[307.795]
<no-speech> 
[310.605]
h ɯ h ɯ d ɯ ʃ a ɾ ɯ ʧ ɯ k t ɯ 
[311.905]
<no-speech> 
[317.005]
j a t ɯ j o ɾ k a ɫ k m a d ɯ 
[319.015]
<no-speech> 
[322.095]
h ɯ h ɯ u j u j o ɾ 
[323.265]
<no-speech> 
[324.965]
u j u j o ɾ j o k 
[325.825]
<no-speech> 
[329.345]
h ɯ i ʧ l i c ø f t e c ø f t e j i s e n m i j a p ɯ ʤ a k s ɯ n <laugh> t aː ɾ i f i n i 
[338.135]
<no-speech> 
[338.995]
h ɯ b i ɾ i n e m i j a p t ɯ ɾ ʤ a k s ɯ n s e n m i j a p ɯ ʤ a k s ɯ n j o k s a n e j s e j a p d a b e n d e j i j e j i m t a m a m 
[346.465]
<no-speech> 
[349.725]
t a m a m t a m a m 
[354.425]
<no-speech> 
[355.325]
b a k a j ɯ m b e n i m j a p t ɯː m ɟ i b i o ɫ ʤ a k m ɯ 
[358.835]
<no-speech> 
[359.765]
h ɯ o n u b e n k a ʧ ɯ ɾ ɯ j o m z a t e n h ɯ h ɯ o n u b e n h e p k a ʧ ɯ ɾ ɯ j o m 
[362.995]
<no-speech> 
[365.415]
o n b i ɾ i ʧ e j ɾ e c ɟ e ʧ e w e j a j i ɾ m i ɟ e ʧ e 
[367.915]
<no-speech> 
[371.325]
h ɯ oː ʤ i w a ɾ d a ɟ e ʧ e n h a f t a c a ʧ ɯ ɾ d ɯ m i n ʃ a ɫ ɫ a b u h a f t a k a ʧ ɯ ɾ m a m n e j s e h a t ɯ ɾ ɫ a t ɯ ɾ s ɯ n b a n a 
[377.005]
<no-speech> 
[380.755]
t a m a m h a t ɯ ɾ ɫ a t 
[381.905]
<no-speech> 
[382.865]
ʃ e j w a ɾ f e ɾ i a f e ɾ i a w a ɾ 
[384.885]
<no-speech> 
[386.665]
t e j z e n a ɾ a d ɯ h ɯ f e ɾ i a w a ɾ b i ʧ o ʤ u k s e w d i m w a ɾ 
[392.725]
<no-speech> 
[395.445]
o n u i z l e d i m d e b i ʧ o ʤ u k s e w d i m w a ɾ b e n o n u s e j ɾ e d i j o m 
[399.095]
<no-speech> 
[402.445]
h ɯ h ɯ 
[403.125]
<no-speech> 
[404.595]
j o w u n b i ɟ y n 
[405.535]
<no-speech> 
[407.745]
p e l i n d e a k ʃ a m ɟ i d ʤ e c 
[409.385]
<no-speech> 
[410.415]
<no-speech> 
[410.875]
<no-speech> 
[412.535]
b i l m e m j a p e l i n p e l i n z a t e n s y ɾ e c l i 
[417.395]
<no-speech> 
[420.865]
oː p a z a ɾ ɟ y n y ɟ e l ʤ e c 
[422.315]
<no-speech> 
[425.255]
f e ɾ i a d a e n s o n ʃ e j o ɫ d u j a oː e m i ɾ w a ɾ d ɯ j a 
[429.145]
<no-speech> 
[430.065]
f e ɾ i a j ɯ k u ɾ t a ɾ m a j a ɟ e l d i 
[431.795]
<no-speech> 
[433.015]
oː n i ʃ a n ɫ ɯ s ɯ ʃ e j j a p t ɯ <hes> n e j d i oː ʧ o ʤ uː n i s m i h a t ɯ ɾ h a t ɯ ɾ ɫ ɯ j a m a d ɯ m ʃ u a n d a 
[439.225]
<no-speech> 
[440.185]
e s c i n i ʃ a n ɫ ɯ s ɯ h a l i l h a l i l h a l i l h a l i l t a m oː c a p ɯ d a n s a k ɫ a n c a p ɯ j ɯ e m i ɾ d e i ʧ e ɾ i ɟ i ɾ d i i ʧ e ɾ i ɟ i ɾ e ɾ c e n c a f a s ɯ n a w u ɾ d u b a j ɯ ɫ t t ɯ 
[451.445]
<no-speech> 
[454.115]
<no-speech> 
[454.925]
<no-speech> 
[456.485]
o n u d a ɾ e c ɫ a m ɫ a ɾ ɯ n d a ʃ e j i n d e ɟ ø s t e ɾ i j o ɾ j a ɾ e c ɫ a m ɫ a ɾ ɯ n d a ɟ ø s t e ɾ i j o ɾ f ɾ a g m a n ɯ n d a ɟ ø s t e ɾ i j o ɾ 
[463.475]
<no-speech> 
[464.665]
ʃ e j o ɫ a ɾ a k <hes> 
[466.105]
<no-speech> 
[468.685]
f e ɾ i a n ɯ n j a n ɯ n a b aː ɫ ɯ j o ɾ e l i n d e f ɾ a g m a n ɯ n d a ɟ ø s t e ɾ i j o ɾ i ʃ t e b aː ɫ ɯ b i w a z i j e t t e a m a 
[474.445]
<no-speech> 
[475.275]
b a k a ɫ ɯ m n e o ɫ ʤ a k 
[476.365]
<no-speech> 
[477.835]
i ʃ t e b iː ɾ a z f e ɾ i a d a n b iː ɾ a z f e ɾ i a d a n b iː ɾ a z d iː e ɾ i n d e n b iː ɾ a z d a ø b y ɾ k a n ɫ a ɫ ɫ a ɾ d a n j a c a ɫ a ɾ ɯ m s e j ɾ e d e ɾ i m i ʃ t e b i l m i j o m 
[484.535]
<no-speech> 
[485.495]
h e p s i n d e n b i ɾ e ɾ p a ɾ ʧ a 
[486.945]
<no-speech> 
[487.935]
ɾ e c ɫ a m ɟ i ɾ i n ʤ e i ʃ t e b i d iː ʃ i c l i c j a p ɯ p ø b y ɾ l e ɾ i n e ɟ e ʧ e ɾ i m 
[490.965]
<no-speech> 
[494.915]
<no-speech> 
[495.305]
<no-speech> 
[496.465]
a ɫ ɯ ʃ w e ɾ i ʃ j a p ʤ aː m i c i d e ʧ ɯ k ɯ ʤ aː m j aː n i d ɯ ʃ a ɾ ɯ ʧ ɯ k ɯ ʤ aː m 
[500.935]
<no-speech> 
[504.765]
s e n n e j a p ɯ j o n 
[505.575]
<no-speech> 
[507.375]
j o k j a ɾ ɯ n øː l e n o ɫ ʤ a k s e n n e j a p ɯ j o n j o k a ɾ a b a d a j o k 
[512.655]
<no-speech> 
[513.644875]
j a ɾ ɯ n ø ɰ øː l e n ʧ ɯ k ɯ ʤ a k o n d a n s o n ɾ a ʃ e j <hes> 
[517.834875]
<no-speech> 
[518.685]
b a k ɯ m a ɟ i ɾ ʤ e c 
[520.045]
<no-speech> 
[520.865]
a j s e ɾ w i s e ɟ i ɾ ʤ e c 
[522.295]
<no-speech> 
[523.764875]
j aː n i øː l e n e d oː ɾ u a ɫ ʤ a k ʃ e j e ɟ ø t y ɾ ʤ e c b a b a n b a k ɯ m a ɟ ø t y ɾ ʤ e c b u s e f e ɾ d e d i ɾ e c s i j o n u n d a b i p ɯ ɾ o b l e m w a ɾ m ɯ ʃ 
[532.635]
<no-speech> 
[535.045]
o n u ʃ e j j a p ʤ a k ɟ ø t y ɾ ʤ e c 
[536.835]
<no-speech> 
[538.565]
s e n ʧ a ɫ ɯ ʃ ɯ j o n 
[539.715]
<no-speech> 
[542.315]
h ɯ 
[543.165]
<no-speech> 
[544.625]
i j i ʧ a ɫ ɯ ʃ m a ɫ a ɾ 
[545.865]
<no-speech> 
[547.615]
n e j s e h a w a d a b u ɟ y n ʃ e j l i ɟ y n e ʃ l i a m a 
[550.435]
<no-speech> 
[553.045]
b a k a j ɯ m n a s ɯ ɫ h a w a s oː k d i j o ɾ t e j z e n ʧ ɯ k m ɯ ʃ d ɯ ʃ a ɾ ɯ j a 
[557.085]
<no-speech> 
[558.765]
h ɯ t e j z e n d e s o k aː ʧ ɯ k m ɯ ʃ d a oː d a s ø j l e d i h a w a s oː k d i j e 
[562.075]
<no-speech> 
[562.955]
b a b a n d a s oː k t a ɟ i t t i ɟ i t m e d e d i m a m a a n ɫ a m a d ɯ 
[566.635]
<no-speech> 
[568.945]
d i n l e m e d i j aː n i 
[570.215]
<no-speech> 
[571.615]
ʃ e j b i a ɾ a b a j a ɟ i d e j i m b a k a j ɯ m d e d i 
[573.555]
<no-speech> 
[575.375]
h ɯ a ɾ a b a j a b a k a j ɯ m d e d i o ɾ d a d a 
[578.335]
<no-speech> 
[579.305]
o ɾ d a d a k a w e j e ɟ i d e ɾ h e ɾ h a l d e 
[581.055]
<no-speech> 
[582.725]
h ɯ s ɯ k ɯ ɫ ɯ j o ɾ n e j a p s ɯ n 
[585.005]
<no-speech> 
[588.885]
i ʃ t e ɟ y n e ʃ l i b iː ɾ a z h a w a ʃ e j a m a s e ɾ t ɟ aː l i b a 
[592.525]
<no-speech> 
[597.175]
j o k p a z a ɾ t e s i k a ɾ j a ɯ ʃ ɯ w a ɾ j a 
[599.435]
<no-speech> 
[599.88]
