[0.0]
<no-speech> 
[8.985]
<int> a ɫ o 
[10.715]
<no-speech> 
[12.025]
a ɫ o 
[12.735]
<no-speech> 
[15.135]
a b ɫ a m e ɾ h a b a 
[16.115]
<no-speech> 
[17.235]
a ɫ o 
[17.965]
<no-speech> 
[20.065]
m e ɾ h a b a n a s ɯ ɫ s ɯ n 
[21.345]
<no-speech> 
[22.935]
a ɫ o 
[23.905]
<no-speech> 
[25.895]
ɟ e l i j o ɾ s e n i n ɟ e l i j o ɾ m u 
[30.455]
<no-speech> 
[31.954875]
t a m a m m a t m a z e l 
[34.355]
<no-speech> 
[36.595]
o ɫ ʤ a j n a s ɯ ɫ s ɯ n d i j o m <int> i j i j i m t e ʃ e c c y ɾ l e ɾ n e w a ɾ n e j o k 
[41.355]
<no-speech> 
[43.255]
t e ʃ e c c y ɾ l e ɾ s e n n a s ɯ ɫ s ɯ n 
[45.145]
<no-speech> 
[50.455]
i j i j i m 
[52.185]
<no-speech> 
[53.165]
<no-speech> 
[53.515]
<no-speech> 
[55.935]
o ɫ ʤ a j 
[56.775]
<no-speech> 
[59.845]
n e j a p ɯ j o n 
[61.725]
<no-speech> 
[66.715]
s e s i m ɟ e ʧ m i ɟ e l i j o ɾ s a n a 
[68.815]
<no-speech> 
[73.455]
o ɫ a b i l i ɾ 
[74.345]
<no-speech> 
[76.885]
n e j a p t ɯ n ɯ z n e 
[78.075]
<no-speech> 
[85.225]
ɟ i t t i m i 
[86.285]
<no-speech> 
[89.505]
h ɯ 
[90.155]
<no-speech> 
[91.475]

[91.845]
<no-speech> 
[93.285]
n e ɾ e j e ø j l e m i n a s ɯ ɫ ɟ e ʧ t i 
[95.805]
<no-speech> 
[100.345]
b i l i j o m b i l i j o m o ɾ a j ɯ 
[101.895]
<no-speech> 
[103.955]
ɟ ø ɾ m e d i 
[104.805]
<no-speech> 
[109.415]
ø j l e m i <no-speech> b u t a ɾ a f a ɟ e l d i m i 
[111.795]
<no-speech> 
[113.995]
t a m a m ɟ e l ɡ e l i oː ʃ e j d e n <int> 
[116.095]
<no-speech> 
[118.025]
ø j l e m i <breath> oː z a m aː n n e j a p a ɫ ɯ m 
[120.555]
<no-speech> 
[123.495]
f u n d a ɫ a ɾ l a h e <hes> 
[125.455]
<no-speech> 
[127.095]
o ɫ ʤ a j 
[127.875]
<no-speech> 
[129.505]
b u ɾ a j a h ɯ 
[131.135]
<no-speech> 
[134.195]
h ɯ 
[134.695]
<no-speech> 
[140.305]
ɯ m h ɯ m 
[140.935]
<no-speech> 
[143.855]
i j i 
[144.595]
<no-speech> 
[148.515]

[151.165]
<no-speech> 
[152.485]
a j n ɯ 
[153.015]
<no-speech> 
[156.285]
h ɯ h ɯ 
[157.815]
<no-speech> 
[162.825]
h ɯ 
[163.315]
<no-speech> 
[169.415]
h ɯ 
[169.935]
<no-speech> 
[172.735]
h ɯ 
[173.165]
<no-speech> 
[179.055]
h ɯ 
[179.585]
<no-speech> 
[182.015]
h ɯ 
[182.445]
<no-speech> 
[184.825]
h ɯ 
[185.295]
<no-speech> 
[190.035]
h ɯ 
[190.515]
<no-speech> 
[195.295]

[198.175]
<no-speech> 
[203.185]
<hes> 
[203.965]
<no-speech> 
[205.765]
h ɯ 
[206.205]
<no-speech> 
[209.205]
eː w e ɾ m e s e j d i n oː z a m aː n 
[210.595]
<no-speech> 
[216.075]
h ɯ 
[216.635]
<no-speech> 
[219.835]

[221.915]
<no-speech> 
[223.335]
a ɫ o o ɫ ʤ a j 
[224.355]
<no-speech> 
[226.525]
h a n d a n ɫ a ɟ ø ɾ y ʃ t y m <no-speech> d u j u j o ɾ m u s u n b e n i 
[229.725]
<no-speech> 
[232.305]
ɟ e l i j o ɾ m u <int> h a n d a n ɫ a d a ɟ ø ɾ y ʃ t y c h a n d a n b i ʃ e j d e m e d i t a m a m <hes> h a n d a n ɫ a ɟ ø ɾ y ʃ t y h a n d a n i ʃ t e d e d i b e n i d e a ɾ a m ɯ ʃ f a ɫ a n 
[242.225]
<no-speech> 
[243.205]
i ʃ t e ɟ e l f a <hes> ɟ e l d e m i ʃ b a n a b e n d e ʃ e j j a p m a m ɯ ʃ ɯ m h a n i b a b a m h a s t a j d ɯ d i j e 
[248.835]
<no-speech> 
[249.995]
ʃ e j j a p m a d ɯ m <no-speech> ɟ i ɟ i d e m e d i m b e n o n d a n s o n ɾ a i ʃ t e b a n a d e d i c i <hes> b i ɟ y n m y s a i t s e n b i ɾ l i c t e f a ɫ a n ɟ i d e ɾ i z eː d e d i m h a n i s e n b i l i ɾ s i n d e d i m <no-speech> h y s e j i n l e k o n u ʃ m a d ɯ m a m a 
[262.455]
<no-speech> 
[265.695]
j o k j o k ø j l e b i ʃ e j j o k 
[267.545]
<no-speech> 
[269.125]
<no-speech> 
[269.715]
<no-speech> 
[271.105]
u u <no-speech> h a n d a n d e d i c i 
[273.785]
<no-speech> 
[276.405]
h a n d a n d e d i b e n i a ɾ a m ɯ ʃ i ʃ t e d e m i ʃ s e n d e ɟ e l i j o ɾ m u s u n ɟ e l m i j o n f a ɫ a n f i ɫ a n b e n d e m i ʃ i m i ʃ t e b e n m y s aː i t d iː l i m ɟ e l e m i j o m 
[283.975]
<no-speech> 
[284.875]
o n d a n s o n ɾ a d i j o ɾ c i i ʃ t e h e ɾ c e s e a n ɫ a m a d ɯ m h ɯ 
[289.665]
<no-speech> 
[291.595]
a j o ɫ ʤ a j 
[293.305]
<no-speech> 
[296.085]
b e n d e 
[296.815]
<no-speech> 
[299.515]
o ɫ ʤ a j 
[300.375]
<no-speech> 
[301.765]
<int> ɟ i d i p ɟ e l e b i l i ɾ s i n n o ɾ m a ɫ 
[304.275]
<no-speech> 
[307.515]
o ɫ ʤ a j d u j u j o ɾ m u s u n b e n i 
[308.965]
<no-speech> 
[313.425]
b i d u j u j o n <laugh> b i d u j m u j o n 
[315.935]
<no-speech> 
[316.995]
<int> a n ɫ a t b a k a ɫ ɯ m 
[319.185]
<no-speech> 
[320.685]
d e d i m c i 
[321.625]
<no-speech> 
[322.725]
h ɯ 
[323.345]
<no-speech> 
[325.245]
h e h a n d a n d e d i m c i h a n d a n a h i ʧ <int> 
[327.365]
<no-speech> 
[329.925]
h ɯ 
[330.445]
<no-speech> 
[334.785]
h ɯ 
[335.515]
<no-speech> 
[338.065]
d e m e t n e j a p ɯ j o ɾ d u 
[339.245]
<no-speech> 
[344.245]
o k u j o ɾ m u <int> b aː ɾ i 
[345.585]
<no-speech> 
[348.295]
h ɯ 
[348.745]
<no-speech> 
[352.795]
h a s t a m ɯ 
[353.695]
<no-speech> 
[360.175]
a ɫ ɫ a ɯ s e w i j o s a n c a ʧ t a k a ɫ k t ɯ ɫ a ɾ 
[362.185]
<no-speech> 
[367.575]
b iː ɾ a z b aː ɾ b aː ɾ 
[368.695]
<no-speech> 
[371.075]
h ɯ 
[371.635]
<no-speech> 
[374.165]
t a m a m 
[374.905]
<no-speech> 
[379.755]
h ɯ 
[380.335]
<no-speech> 
[381.945]
h ɯ 
[382.545]
<no-speech> 
[385.665]
i j i j i m 
[386.405]
<no-speech> 
[394.175]
<laugh> n e j a p ɯ j o ɾ 
[395.775]
<no-speech> 
[400.915]
<hes> 
[401.855]
<no-speech> 
[403.885]
<no-speech> 
[405.765]
<no-speech> 
[406.925]
<laugh> ʃ i m d i d iː ʤ e c c i b u n ɫ a ɾ n e <no-speech> 
[411.955]
s e s i n ɟ e l m i j o ɾ s e s i n ɟ e l m i j o ɾ 
[414.405]
<no-speech> 
[415.715]
s e s i n ɟ e l m i j o ɾ s e s i n 
[417.555]
<no-speech> 
[418.605]
e w e t 
[419.295]
<no-speech> 
[422.555]
ɟ e l i j o ɾ ɟ e l i j o ɾ 
[423.755]
<no-speech> 
[425.125]
ɟ e l i j o ɾ 
[426.165]
<no-speech> 
[427.365]
<no-speech> 
[428.085]
<no-speech> 
[430.525]
<breath> e k a ɾ d e ʃ i n a s ɯ ɫ o ɫ m u ʃ s e ɾ a p ɯ n 
[433.945]
<no-speech> 
[441.765]
h a d i j a 
[443.165]
<no-speech> 
[452.985]
h e 
[453.695]
<no-speech> 
[457.555]
<hes> 
[458.055]
<no-speech> 
[462.515]

[463.345]
<no-speech> 
[464.275]
e b e n t e l e f o n ɟ ø ɾ y ʃ t y m s e ɾ a p ø j l e b i ʃ e j d e m e d i <no-speech> a j o ɾ d a 
[468.605]
<no-speech> 
[471.645]
a j n e k a d a ɾ y z y l d y m a m a 
[473.515]
<no-speech> 
[476.295]
e b e n a ɾ a m ɯ ʃ t ɯ m o n u 
[478.505]
<no-speech> 
[480.265]
b u ɾ a d a m ɯ j a p ɯ j o ɾ t e d a w i j i 
[481.745]
<no-speech> 
[484.055]
o ɫ ʤ a j 
[484.865]
<no-speech> 
[485.955]
t e d a w i j i b u ɾ a d a m ɯ j a p ɯ j o ɾ 
[487.475]
<no-speech> 
[488.335]
t e d a w i j i b u ɾ a d a m ɯ j a p ɯ j o ɾ aː b e j i s i 
[490.245]
<no-speech> 
[495.625]

[496.295]
<no-speech> 
[497.285]
h a n ɟ i h a s t aː n e 
[498.425]
<no-speech> 
[501.035]
a m a n i j i 
[502.345]
<no-speech> 
[504.735]
a m a ɟ ø z y c ø ɾ o ɫ m u ʃ 
[506.195]
<no-speech> 
[510.115]
a m a ɟ ø z l e ɾ i c ø ɾ 
[511.455]
<no-speech> 
[514.534875]
<int> e h a j aː t ɯ m 
[515.985]
<no-speech> 
[521.325]
h ɯ 
[521.735]
<no-speech> 
[523.685]
h ɯ 
[524.165]
<no-speech> 
[526.135]
h ɯ 
[526.765]
<no-speech> 
[528.525]
a m a z a t e n oː <int> h ɯ 
[532.065]
<no-speech> 
[533.245]
s e ɾ a p ø n ʤ e d e n d e m i ʃ t i z a t e n d o k t o ɾ d e m i ʃ b e n ɟ i d i j o m 
[536.345]
<no-speech> 
[537.585]
o ɫ ʤ a j 
[538.485]
<no-speech> 
[541.115]
s e ɾ a p ɫ a ɾ d a d ø n m e m i ʃ t i c ø j d e o ɫ a b i l i ɾ 
[543.365]
<no-speech> 
[546.875]
d u j u j o ɾ m u s u n 
[547.715]
<no-speech> 
[553.285]
h ɯ 
[553.785]
<no-speech> 
[556.525]
c ø t y j a 
[557.425]
<no-speech> 
[558.815]
aː m i n aː m i n 
[560.525]
<no-speech> 
[562.495]
ø z l e d i m j a 
[563.475]
<no-speech> 
[566.245]
o ɫ ʤ a j oː aː b e j i s i o ɫ ʤ a j o n u n aː b e j i s i w a ɾ j a h a n i h a s t a o ɫ a n <int> h a s t a o ɫ a n aː b i s i o n ɫ a ɾ ɯ n e w i n e w i n d e m i j a ʃ ɯ j o ɾ j o k s a a j ɾ ɯ j a ʃ ɯ j o ɾ 
[577.315]
<no-speech> 
[578.645]
e w i n d ɯ ʃ ɯ n d a m ɯ 
[579.845]
<no-speech> 
[583.145]
h ɯ 
[583.875]
<no-speech> 
[593.435]
h ɯ 
[593.955]
<no-speech> 
[595.275]
<hes> 
[595.765]
<no-speech> 
[597.235]
b a n a a n ɫ a t m a d ɯ d a 
[598.635]
<no-speech> 
[599.66]
