[0.0]
<click> <sta> 
[2.675]
<no-speech> 
[4.115]
<no-speech> 
[4.955]
<sta> a ɫ o 
[7.455]
<no-speech> 
[8.485]
<no-speech> 
[8.835]
<no-speech> 
[10.735]
<sta> n e j a p ɯ j o n b e 
[12.095]
<no-speech> 
[13.825]
<click> n e j a p ɯ j o n 
[14.895]
<no-speech> 
[16.275]

[21.075]
<no-speech> 
[22.365]
eː oː ɫ u m b a n a b a k l a n <laugh> 
[26.315]
<no-speech> 
[27.115]
<overlap> 
[32.145]
<no-speech> 
[32.945]
<overlap> s ø j l e s e n e 
[35.045]
<no-speech> 
[36.345]
c e j i f l e ɾ <no-speech> 
[39.595]
<laugh> ʧ o k i j i ʧ o k i j i <click> b e n d e a ʧ ɯ k ɫ a n m a s ɯ n ɯ b e c l i j o m a ɫ o a ɫ o 
[48.245]
<no-speech> 
[49.195]
ʤ o ʃ k u n 
[50.005]
<no-speech> 
[51.015]
<laugh> j a oː s e n n i j e b ø j l e s i n j a <sta> 
[58.035]
<no-speech> 
[60.325]
<overlap> s e n b e ʃ i c t a ʃ m a ʧ ɯ n a n i j e ɟ e l m e d i n 
[63.635]
<no-speech> 
[65.385]
<hes> 
[65.885]
<no-speech> 
[72.785]
<click> s e n n i j e b e ʃ i c t a ʃ m a ʧ ɯ n a ɟ e l m e d i n ʧ o ʤ u k 
[76.185]
<no-speech> 
[78.345]
<breath> ɯ m h ɯ m 
[79.595]
<no-speech> 
[81.475]
e w e t s ø j l e 
[82.345]
<no-speech> 
[85.305]
j a <click> s e n i n s e s i n h i ʧ ɟ e l m i j o ɾ c i j a s e n i n s e s i n h i ʧ ɟ e l m i j o ɾ 
[88.235]
<no-speech> 
[89.285]
b iː ɾ a z b a ɯ ɾ a ɾ a k k o n u ʃ ʤ a n <hes> ʃ i m d i ɟ y z e l 
[93.845]
<no-speech> 
[95.865]
ʃ i m d i b e n s a n a b i ʃ e j s o ɾ ʤ aː m 
[97.305]
<no-speech> 
[98.405]
ɟ y z e l i j i ʃ i m d i s e s i n ɟ e l i j o ɾ <breath> s e n n i j e b e ʃ i c t a ʃ m a ʧ ɯ n d a b e n i e c t i n a ʧ ɯ k ɫ a m a b e c l i j o m b e n i e c t i n 
[105.585]
<no-speech> 
[107.315]
e c m e d i n m i 
[108.235]
<no-speech> 
[109.635]
e c m e d i n m i 
[110.565]
<no-speech> 
[112.835]
<hes> 
[113.305]
<no-speech> 
[115.145]
<no-speech> 
[115.555]
<no-speech> 
[116.615]
k o n u ʃ s a n a 
[117.565]
<no-speech> 
[120.705]
<int> s e s i n i j i ɟ e l m i j o ɾ j a b aː ɾ b iː ɾ a z j a h i ʧ a n ɫ a m ɯ j o m c i h i ʧ b i ɾ ʃ e j <int> <breath> ʧ o ʤ u k 
[128.655]
<no-speech> 
[130.815]
ʃ i m d i ɟ y z e l e w e t m y c e m m e l d ø ɾ t d ø ɾ t l y c i j i i j i e w e t s a n a s o ɾ u j o m b i d a a s o ɾ u j o m 
[136.315]
<no-speech> 
[139.025]
n e j a p a j ɯ m o t u ɾ u j o m ø j l e ʧ a j i ʧ i j o m c e j f i m e <sta> b a k ɯ j o m n e j a p a j ɯ m 
[143.005]
<no-speech> 
[144.105]
n e j a p a j ɯ m s ø j l e s e n e <laugh> 
[149.075]
<no-speech> 
[150.495]
<int> j o k 
[152.135]
<no-speech> 
[153.815]
b o m b a 
[154.725]
<no-speech> 
[156.555]
<no-speech> 
[156.925]
<no-speech> 
[159.445]
<click> n e 
[160.315]
<no-speech> 
[161.625]
<overlap> s e n i n s e s i n ɟ e l m i j o ɾ b e n i m s e s i m i j i j a s e n i n s e s i n b aː z e n ɟ i d i j o ɾ 
[169.225]
<no-speech> 
[174.445]
ʃ i m d i i j i d y z ɟ y n k o n u ʃ j a 
[176.465]
<no-speech> 
[177.335]
b u ʃ e c i l d u j a m ɯ j o m j a 
[179.525]
<no-speech> 
[180.715]
<no-speech> 
[181.105]
<no-speech> 
[183.065]

[183.505]
<no-speech> 
[185.055]
j a s e n n a s ɯ ɫ a d a m s ɯ n 
[187.285]
<no-speech> 
[189.085]
ʃ i m d i m y c e m m e l d ø ɾ t d ø ɾ t l y c t a m a m a d a m o ɫ ʤ a k s ɯ n s e n a d a m o ɫ ʤ a k s ɯ n d a b i z ɟ ø ɾ e m i ʤ e z b a k <click> f e n e ɾ b a ʧ e ʃ a m p i j o n o ɫ u ɾ m u l a n 
[198.065]
<no-speech> 
[199.505]
a z i z j ɯ ɫ d ɯ ɾ ɯ m ɯ i ʧ e ɾ i a ɫ m ɯ ʃ ɫ a ɾ a z i z j i l d ɯ ɾ ɯ m ʧ ɯ c a ɾ m ɯ a z i z j i l d ɯ ɾ ɯ m n e z a m aː n ʧ ɯ k ɯ ʤ a k ʧ ɯ c a ɾ m ɯ o n d ø ɾ t ʃ u b a t t a <laugh> 
[208.425]
<no-speech> 
[210.795]
g a ɾ a n t i m i 
[212.685]
<no-speech> 
[215.065]
g a ɾ a n t i m i 
[215.945]
<no-speech> 
[217.485]
g a ɾ a n t i m i d i j o m ʧ ɯ k a ʤ a ɯ 
[219.005]
<no-speech> 
[227.165]
<hes> <cough> ɟ e l e n s a w ʤ ɯ ø j l e o ɫ u ɾ m u 
[229.655]
<no-speech> 
[232.605]
<click> <int> ɟ e l e n s a w ʤ ɯ ø j l e o ɫ u ɾ m u m e s e ɫ a 
[239.625]
<no-speech> 
[244.895]
<hes> 
[246.045]
<no-speech> 
[247.125]
t a b i o n u d a b i l d i ɾ i n 
[248.325]
<no-speech> 
[250.965]
<click> ʃ i m d i d u j u j o m j a i j i ɟ e l i j o ɾ s e s i n <click> s e n oː s e c i z m a ɾ t ʤ u m a ɾ t e s i ɟ y n y 
[259.695]
<no-speech> 
[260.695]
ɟ e l i j o ɾ ɟ e l i j o ɾ s aː t o n <no-speech> 
[265.855]
<overlap> a ʃ t ɯ n c e n d i n i j a i ʃ ɟ y ʧ w a c i t b u ɫ a m ɯ j o m 
[271.885]
<no-speech> 
[272.925]
<overlap> a n ɫ a d ɯ n m ɯ 
[275.225]
<no-speech> 
[277.115]

[277.595]
<no-speech> 
[280.815]
j a b e n b a ɯ ɾ ɯ j o ɾ u m s e n i n s e s i n ɟ e l m i j o ɾ s e n i n t e l e f o n u n d a s o ɾ u n w a ɾ h e ɾ h a l d e j a 
[286.105]
<no-speech> 
[287.005]

[287.455]
<no-speech> 
[289.845]

[290.345]
<no-speech> 
[292.025]
o n d a n m ɯ d i j o n s e n <no-speech> 
[298.705]
s e n n e ɾ d e s i n 
[300.375]
<no-speech> 
[302.185]
<no-speech> 
[302.585]
<no-speech> 
[308.095]
n e ʧ a ɫ ɯ ʃ ɯ j o n s e n n e i ʃ j a p ɯ j o n b a k a j ɯ m s ø j l e b a k a j ɯ m 
[310.955]
<no-speech> 
[320.765]
e n i j i s i b o ʃ w e ɾ <click> 
[322.275]
<no-speech> 
[324.575]
s e n n e j a p ɯ j o n 
[326.305]
<no-speech> 
[330.555]
a j n e n a j n e n s e n n e j a p ɯ j o n 
[333.535]
<no-speech> 
[335.985]
h e j ʧ o ʤ u k s e s i n <no-speech> 
[340.845]
<overlap> i ʧ e ɾ i z j a i ʧ e ɾ i z j a s e n j e t e ɾ c i i s t e m a ʧ a ɟ i d e ɾ i z m a ʧ a o n s e c i z m a ɾ t f e n e ɾ g a ɫ a t a s a ɾ a j m a ʧ ɯ w a ɾ 
[348.905]
<no-speech> 
[354.545]
b a n a b a k 
[355.075]
<no-speech> 
[356.485]

[356.855]

[359.305]
j a h e ɾ m a ʧ a ɟ e l i ʤ e m d e m i ʃ ɟ e l d iː n i ɟ ø ɾ m e d i m a m a s ø j l e d i j i z a m aː n <overlap> a ɫ o 
[365.595]
<no-speech> 
[368.525]
<lipsmack> <overlap> j u n u s h e ɾ m a ʧ a ɟ e l i ʤ e m d i j o n h i ʧ b i ɾ m a ʧ a ɟ e l d iː n i ɟ ø ɾ m e d i c 
[373.735]
<no-speech> 
[376.845]
e w e t 
[377.395]
<no-speech> 
[384.715]
<int> t a b i b i ʃ e j o ɫ m u ʃ t u n d a ø t e c i ø n e m l i d iː l j a 
[389.095]
<no-speech> 
[389.965]
o ɫ a n ɫ a ɾ ɯ n o ɾ a n ɯ ʃ e j o ɫ m u ʃ t u n d iː l m i 
[391.905]
<no-speech> 
[398.185]
n e z a m aː n e w l e n i ʤ e c s i n l a n s e n <hes> ʧ o ʤ u k s ø j l e b a k a j ɯ m 
[404.355]
<no-speech> 
[405.275]
a ɫ o 
[405.925]
<no-speech> 
[409.235]
e w l e n d e d yː n ɟ ø ɾ e l i m b iː ɾ a z j a 
[413.585]
<no-speech> 
[417.845]
n e z a m aː n a m a n e z a m aː n oː ɫ u m j a ʃ ɯ n c a ʧ o ɫ d u a ɾ t ɯ k e w l e n j a 
[421.925]
<no-speech> 
[424.845]
<no-speech> 
[425.925]
<no-speech> 
[428.405]
<click> j a ɾ ɯ n n e j a p ɯ j o n <overlap> a ɫ o 
[433.835]
<no-speech> 
[442.505]
<overlap> c a ʧ t a c a ʧ t a ʧ ɯ k ɯ j o n i ʃ t e n <overlap> 
[448.975]
<no-speech> 
[451.805]

[452.205]
<no-speech> 
[460.295]
<click> n e t o p ɫ a n n e t o p ɫ a n t ɯ s ɯ w a ɾ l a n 
[463.015]
<no-speech> 
[464.435]
ɯ m h ɯ m <sta> o n d a n s o n ɾ a 
[469.935]
<no-speech> 
[474.815]
<cough> j a ɾ ɯ n o ɫ m a z s a ʤ u m a o ɫ ʤ a k <hes> ʤ u m a 
[483.585]
<no-speech> 
[487.345]
a j n e n a j n e n <overlap> p a ɾ a w a ɾ h u z u ɾ w a ɾ d iː l m i <hes> p a ɾ a w a ɾ h u z u ɾ w a ɾ d iː l m i 
[497.285]
<no-speech> 
[498.285]
p a ɾ a w a ɾ h u z u ɾ c e j i f s e n d e h e ɾ ʃ e j s e n d e <no-speech> c e j i f s e n d e h e ɾ ʃ e j s e n d e 
[503.625]
<no-speech> 
[513.115]
<int> 
[515.314875]
<no-speech> 
[517.384875]
<no-speech> 
[518.375]
<no-speech> 
[519.575]
m e s u t ɫ a ɟ ø ɾ y ʃ y j o ɾ m u s u n m e s u t ɫ a <overlap> a ɫ o 
[524.225]
<no-speech> 
[526.935]
m e s u t d i j o m c i m e s u t ɫ a ɟ ø ɾ y ʃ y j o ɾ m u s u n 
[529.555]
<no-speech> 
[530.645]
<no-speech> 
[532.755]
<no-speech> 
[536.865]
c i m <overlap> oː m u 
[538.965]
<no-speech> 
[540.915]
oː a d a m ɟ i b i a d a m l a n 
[542.225]
<no-speech> 
[544.145]

[545.225]
<no-speech> 
[546.855]
a d a m ɟ i b i a d a m m e s u t l a n n a s ɯ ɫ n e k a ɾ a k t e ɾ s i z l iː n i ɟ ø ɾ d y n 
[550.205]
<no-speech> 
[552.455]
<no-speech> 
[552.855]
<no-speech> 
[558.815]
l a n oː a d a m d ø ɾ t <click> d ø ɾ t l y c <click> ʧ o ʤ u k l a n 
[561.105]
<no-speech> 
[562.925]
oː ʧ o ʤ uː ɟ aː l i b a s e n i n n i j e h a b e ɾ i n j o k 
[567.675]
<no-speech> 
[569.635]
<int> a ɫ o 
[571.045]
<no-speech> 
[573.805]
o ɫ m a z o ɫ m a z n i j e b e n i m h a b e ɾ i m j o k j aː n i 
[576.815]
<no-speech> 
[578.805]

[579.245]
<no-speech> 
[586.615]
a d a m ɯ n d yː n y n e d e ɟ i d e m e d i c z a t e n 
[588.655]
<no-speech> 
[590.245]
oː s e n i n j y z y n d e n m i b e n i m j y z y m d e n <click> m i 
[592.405]
<no-speech> 
[593.675]
<no-speech> 
[593.885]
<no-speech> 
[600.0]
