[0.0]
<no-speech> 
[1.055]
<no-speech> 
[2.525]
<no-speech> 
[3.785]
<no-speech> 
[5.165]
<no-speech> 
[6.425]
e f e n d i m 
[7.385]
<no-speech> 
[9.595]
a ɫ o i j i j i m 
[11.675]
<no-speech> 
[12.555]
s e n h ɯ n e j a p ɯ j o n <laugh> 
[18.755]
<no-speech> 
[20.895]
<cough> b e z a t 
[22.945]
<no-speech> 
[26.205]
n e j a p a j ɯ m b u ɾ a d a j ɯ m i ʃ t e ɯ m h ɯ m b e c l i j o m e w ɾ a k ɫ a ɾ ɯ a ɫ d ɯ ɫ a ɾ i ʧ e ɾ i j e b a k a ɫ ɯ m b u ɾ a d a o ɫ u ʤ a k s a 
[33.285]
<no-speech> 
[34.425]
b u ɾ a d a o ɫ m ɯ j ʤ a k s a ʃ e j e n e j d i a d ɯ 
[37.615]
<no-speech> 
[38.945]
ʤ e ɾ ɾ a p a ʃ a a m a n 
[40.395]
<no-speech> 
[41.845]
ʃ i ʃ l i j e ʃ i ʃ l i d e b e n b i d e k a ɾ d i j o ɫ o ʒ i j i i s t i j o m m e l i c e i ʧ i n k a ɾ d i j o ɫ o ʒ i j e d e b a k <cough> b a k ʤ aː z b a k a ɫ ɯ m a ɫ ɫ a i z i n <no-speech> 
[54.515]
<no-speech> 
[54.865]
<no-speech> 
[55.745]
m e l i c e i ʧ i ɯ m h ɯ m o n u n e w ɾ a k ɫ a ɾ ɯ n ɯ ɟ e t i ɾ d i m b u ɾ a j a oː h a s t a n e d e o ɫ u j o ɾ m u o ɫ m u j o ɾ m u 
[62.045]
<no-speech> 
[63.775]
i ʧ e ɾ i j e a ɫ d ɯ ɫ a ɾ e w ɾ a k ɫ a ɾ ɯ a m a d a a 
[66.735]
<no-speech> 
[67.875]
h ɯ 
[68.365]
<no-speech> 
[70.465]
a ɫ o 
[71.235]
<no-speech> 
[72.215]
j o k j a aː ɾ ɯ j o ɾ a k ʃ a m d a d i j o ɾ d u aː ɫ ɯ j o ɾ d i j e a m a b i l m i j o m t a l i l l e ɾ i n d e ʧ o k c ø t y b i d u ɾ u m j o k 
[79.615]
<no-speech> 
[80.765]
ɯ m h ɯ m 
[81.285]
<no-speech> 
[83.575]
a ɫ o 
[84.255]
<no-speech> 
[85.225]
h e ɾ z a m aː n aː ɾ ɯ j o ɾ m e t a p j o u ɾ t j e d iː m d e s y t i ʧ t iː m d e b i ɾ ʧ o k ʃ e j l e ɾ d e aː ɾ ɯ j o ɾ i ʃ t e b a k a ɫ ɯ m 
[91.985]
<no-speech> 
[93.575]
ɯ m h ɯ m n e d i j ʤ e c l e ɾ 
[94.925]
<no-speech> 
[96.465]
j o k j o k k ɯ z ɯ m j o k d i c c a t e t t i c j aː n i h e ɾ ʃ e j d e o ɫ u j o ɾ 
[101.125]
<no-speech> 
[102.835]
b a k a ɫ ɯ m n e d iː ʤ e c 
[103.965]
<no-speech> 
[106.435]
b e n i m d e ø j l e j d i s e n i n d e ø j l e j d i w a ɾ d ɯ j a b i z d e y l s e ɾ k ʃ e j w a ɾ j a h e ɾ c e s t e o n u n ʃ e j i d e w a ɾ 
[114.385]
<no-speech> 
[115.275]
s ɯ k ɯ n t ɯ s ɯ 
[116.305]
<no-speech> 
[117.495]
i ʃ b a k a ɫ ɯ m i n ʃ a ɫ ɫ a ø j l e b i ʃ e j j o k t u ɾ a m a ʧ o k i s t i j o m o ɫ m u ʃ t u n m e t a p oː o ɫ ʤ aː n d a s e n d e ɟ e l i ɾ s i n d iː l m i 
[125.385]
<no-speech> 
[126.465]
a m a ʧ a ɫ ɯ ʃ ɯ j o z 
[127.705]
<no-speech> 
[129.924875]
a m a ʧ a ɫ ɯ ʃ ɯ j o n j a o ɫ m a z b e 
[132.285]
<no-speech> 
[136.365]
n e b i l e j i m d u ɾ b a k a j ɯ m oː d a d y n a ɾ c a d a ʃ ɫ a ɾ ɯ d e m i ʃ c i n a s ɯ ɫ d a j a n ɯ ʤ a k s ɯ n b ø j l e b i ʃ e j e m a n j a k m ɯ s ɯ n s e n b a z ɯ ɫ a ɾ ɯ d a d e m i ʃ a m a n h i ʧ b i ɾ ʃ e j s ø j l e m i ʃ a ɾ c a d a ʃ ɫ a ɾ ɯ n a b i o j u n o j n u j o ɾ ɫ a ɾ m ɯ ʃ i ʃ t e m iː d e j l e a ɫ a c a ɫ ɯ b i i s i m ɟ e ɾ e c i j o ɾ m u ʃ oː d a k o ɫ o n o s k o p i m i d e m i ʃ b i ʃ e j d e m i ʃ ø j l e d e j i n ʤ e o n ɫ a ɾ d a oː n e ɾ e d e n b i l h ɯ 
[162.285]
<no-speech> 
[164.625]
a ɫ o h ɯ o n u o n u b u ɫ m u ʃ o n ɫ a ɾ d a s e n o n u f i ɫ a n n e ɾ e d e n b i l i j o n d iː n ʤ e b u s e f e ɾ d e m i ʃ b a n a b ø j l e b ø j l e j a p ɯ ɫ ʤ a k d e m i ʃ o n u n i ʧ i n o n u b i l i j o m d e m i ʃ o n ɫ a ɾ d a d iː l m i ʃ l e ɾ m a n j a k m ɯ s ɯ n oː ø l y m ø l y m d e m i ʃ l e ɾ c i m i s i d e d e m i ʃ c i <hes> oː k a d a ɾ b a s i t c i h i ʧ a n ɫ a m ɯ j o n h e m e n ʤ e ʤ i c o ɫ u w e ɾ i j o ɾ d e m i ʃ l e ɾ 
[185.345]
<no-speech> 
[186.415]
o n d a n s o n ɾ a i ʃ t e b i l m i j o m ø j l e b i s ɯ k ɯ n t ɯ s ɯ w a ɾ a k ɫ ɯ n a ɟ e l d i m i y z y l y j o ɾ j aː n i ʃ e j m i j a p ʤ aː m n a s ɯ ɫ ɟ e ʧ ʤ e c n e o ɫ ʤ a k a m a ʃ i m d i s ø j l e d i m d e b u ɾ a j a 
[197.605]
<no-speech> 
[200.305]
a e w e t ɯ m h ɯ m d y n a k ʃ a m ɾ e ʒ i m e b a ʃ ɫ a d ɯ d i j e t e t o p u ʃ i ʃ i ɾ d i y s t y n e j a t ɯ j o ɾ <laugh> j u w a ɾ ɫ a n ɯ j o ɾ <laugh> a m a n 
[211.395]
b i h aː l i n i ɟ ø ɾ s e n oː k a d a ɾ k o m i c c i k o ʤ a b i c a ɾ n ɯ w a ɾ z a t e n b i l i j o n m iː d e s i d e ø j l e 
[219.305]
<no-speech> 
[221.705]
a ɫ m ɯ ʃ ʤ a n ɯ m ʃ i m d i b a ʃ ɫ a d ɯ ʃ e j c i ɫ o w e ɾ ʤ e c 
[226.055]
<no-speech> 
[226.885]
<no-speech> 
[227.265]
<no-speech> 
[228.525]
ø j l e s u k a j n a t t ɯ k ʃ e j oː ʃ e j l e ɾ d e n b a a ɾ a t ɫ a ɾ d a n f i ɫ a n k a j n a t t ɯ k o n d a n i ʧ i j o z ʃ i m d i ɟ e ʤ e b i oː t u w a ɫ a t e k a ɫ k ɯ j o ɾ b i b e n b i oː b i b e n i ʧ t i c j a ʧ o k 
[240.125]
<no-speech> 
[242.035]
i ʃ t e ø j l e b e n i j i j i m ʃ i m d i h i ʧ b i ɾ ʃ e j i m j o k j aː n i ø j l e aː ɾ ɯ m s ɯ z ɯ m b i ʃ e j i m j o k 
[248.865]
<no-speech> 
[249.955]
ɯ m h ɯ m 
[250.645]
<no-speech> 
[252.305]
h ɯ 
[252.805]
<no-speech> 
[253.765]
<no-speech> 
[255.175]
<no-speech> 
[257.095]
j o k j o k b i c e ɾ e o ɫ d u t a h l i l d e n s o n ɾ a b a ʃ k a d a o ɫ m a d ɯ ɯ m h ɯ m 
[263.545]
<no-speech> 
[265.615]
oː w a ɾ oː w a ɾ a m a i ʃ i b i t e n e k a d a ɾ o ɫ ʤ a k d e d i j a n o ɾ m a ɫ d e 
[269.815]
<no-speech> 
[272.775]
<cough> n e b i l e j i m 
[276.705]
<no-speech> 
[278.275]
ɯ m h ɯ m k o ɫ u m a 
[279.575]
<no-speech> 
[281.415]
b e n i m aː ɾ ɯ o ɫ m a d ɯ m e t a p b e n k a n a m a j ɫ a b a ʃ ɫ a d ɯ b e n i m c a n c a n ɟ e l i n ʤ e b a ʃ ɫ a d ɯ k i ʃ t e i ʃ l e ɾ e <breath> j o k s a b a ʃ k a b i ʃ e j j o k 
[293.185]
<breath> ø j l e i ʃ t e 
[294.915]
<no-speech> 
[296.435]
b a ʃ k a s e n n e j a p ɯ j o n 
[297.965]
<no-speech> 
[300.175]
ɯ m h ɯ m k o ɾ k u j o ɾ 
[303.725]
<no-speech> 
[304.585]
ɟ e ʧ ʤ e c i n ʃ a ɫ ɫ a d a h ɯ b u ɾ a s ɯ e w e t k a ɫ a b a ɫ ɯ k 
[310.015]
<no-speech> 
[311.665]
b a b a n d a ʃ e j d e b e c l i j o ɾ f a t i t e 
[313.915]
<no-speech> 
[314.715]
ɟ ø ɾ ɟ y m o n u oː ʃ e j ʤ e ɾ ɾ aː h iː d e b e n ʃ e j d e j i m h a n i b a n a m iː d e m e h o ɾ t u m s a ɫ ɯ n a n j e ɾ d e j i m 
[322.815]
<no-speech> 
[324.385]
o n u n ø n y n d e j i m j aː n i h ɯ h ɯ 
[328.005]
<no-speech> 
[329.885]
j o k j a p m a d ɯ m k ɯ z ɯ m j a p m a d ɯ m 
[332.105]
<no-speech> 
[333.145]
a m ʤ a ɟ e l o t u ɾ o t u ɾ o t u ɾ ʃ u ɾ a j a 
[336.885]
<no-speech> 
[338.785]
ø j l e i ʃ t e j a p m a d ɯ m d a k a ɾ n ɯ m d a ʧ o k a ʧ j a n ɯ m d a p a ɾ a d a j o k ʃ e j j a p ʤ aː m ɟ i d e ɾ c e n 
[345.955]
<no-speech> 
[347.755]
<breath> j a e w e t w a ɫ ɫ aː a m a j a p m a d ɯ m n e b i l e j i m ʤ a n ɯ m i s t e m e d i 
[352.935]
<no-speech> 
[354.655]
j o k h a j ɯ ɾ b b a b a n a a ɾ a d ɯ d a f a t i t e j m i ʃ a n n e a n n e n i n m i n d e ɾ l e ɾ i n i n s o n p a ɾ ʧ a s ɯ n ɯ d a ɟ ø t y ɾ y j o ɾ ɫ a ɾ m ɯ ʃ ʃ i m d i 
[362.815]
<no-speech> 
[363.735]
<breath> a n n a n n e n d e b u ɫ u ʃ a ɫ ɯ m d e d i b e n d e ʃ e j d e d i m e w e ɟ i t m e l i m e l i c e j a ɫ n ɯ z o ɫ ʤ a k ʃ i m d i oː d a d e d i c i m e l i c e z a t e n h a n i n a s ɯ ɫ s a e w e 
[375.515]
ɟ i ɾ m i ʃ o ɫ ʤ a k b i z s e n l e b u ɫ u ʃ a ɫ ɯ m d e d i 
[377.985]
<no-speech> 
[378.855]
ʃ i m d i b i l m i j o m n e j a p ʤ aː m b u ɾ a d a i ʃ i m i z b i t e ɾ d e e j e ɾ b e n i ʃ i ʃ l i j e ɟ ø n d e ɾ i ɾ l e ɾ s e b a b a n ɯ a ɾ ɯ ʤ aː m ɟ e l b i ɾ l i c t e ɟ i d e l i m d i ʤ eː m 
[386.355]
<no-speech> 
[390.485]
h ɯ e j e ɾ b u ɾ a d a n n e d e ɾ l e ɾ s e d u ɾ u m a ɟ ø ɾ e a m a k a d i ɾ a b i d e oː ɟ y n t e l e f o n d a d e m i ʃ t i c i 
[399.095]
<no-speech> 
[400.165]
b u ɾ d a c i d o k t o ɾ ɫ a ɾ d a n b u ɾ a d a n s e w k a ɫ ɯ ɾ s e n i ʃ e j e ɟ ø n d e ɾ i ɾ s e k d e d i l e ɾ ʃ i ʃ l i j e oː z a m aː n d a a i j i o ɫ u ɾ o ɾ d a d a a i j i b i b a k ɯ m o ɫ u ɾ b u ɾ d a c i d o k t o ɾ ɫ a ɾ h a n i b y j y c 
[412.085]
d o k t o ɾ ɫ a ɾ j a u z m a n ɫ a ɾ o n ɫ a ɾ ɟ ø n d e ɾ i ɾ s e 
[415.385]
<no-speech> 
[416.825]
h a n i d i j e ʃ i m d i o ɾ ʃ u ɾ a d a n b e n b i ʤ e w a p a ɫ a j ɯ m s o n ɾ a k a d i ɾ a b i j i b u ɫ ʤ aː m 
[421.165]
<no-speech> 
[422.225]
oː oː n e d e ɾ s e h a n i o n a o n a ɟ ø ɾ e d e h a ɾ e c e t <no-speech> 
[428.395]
ø j l e ɯ m h ɯ m ʃ e j e d e ʧ o k s e w i n d i m m e t a p 
[432.885]
<no-speech> 
[435.065]

[436.295]
<no-speech> 
[437.685]
a ɫ o 
[438.365]
<no-speech> 
[439.695]
<sta> ɟ ø ɾ y ʃ t y m a z ø ʤ e i ʃ j a a z ø n ʤ e a ɾ a d ɯ ɫ a ɾ b e n i c a p a t m a k z o ɾ u n d a c a ɫ d ɯ m a d a m t a m b i ʃ e j s o ɾ u j o ɾ 
[447.805]
<no-speech> 
[448.935]
ø j l e i ʃ t e 
[450.185]
<no-speech> 
[451.385]
<no-speech> 
[451.825]
<no-speech> 
[452.845]
b a ʃ k a 
[454.075]
<no-speech> 
[456.565]
i ʃ t e b u ɾ a d a j ɯ z ʃ i m d i <cough> t a h l i l l e ɾ j a p ɯ l j a p ɯ ɫ d ɯ j a e l i m i z d e ʧ o k t a l i l w a ɾ e n a z ɯ n d a n m e l i c e i ʧ i n o n ɫ a ɾ i j i o ɫ d u 
[466.715]
<no-speech> 
[468.455]
o ɾ d a h e m e n k o ɫ a j ʤ a j a p t ɯ ɾ d ɯ k b u ɾ a ɫ a ɾ a s a b a ɯ n s e c i z i n d e f i ɫ a n n a s ɯ ɫ ɟ e l ʤ e c t i c d iː l m i 
[473.475]
<no-speech> 
[476.915]
ɯ m h ɯ m 
[477.545]
<no-speech> 
[479.605]
a 
[481.145]
<no-speech> 
[483.105]

[484.225]
<no-speech> 
[488.615]

[489.535]
<no-speech> 
[490.465]
eː a ɫ s a n a n e j l e n e n e j l e a ɫ ʤ a k m ɯ ʃ s ɯ n 
[494.125]
<no-speech> 
[500.845]
h ɯ 
[502.225]
<no-speech> 
[503.535]
ɯ m h ɯ m i ʧ s e n e k ɯ z ɯ m 
[506.455]
<no-speech> 
[507.285]
n e w a ɾ ø j l e ʃ e j l e ɾ d e a 
[509.245]
<no-speech> 
[511.095]
a m a i ʃ t e b a k i s t e m e z m i s i n b o j u n u z a s ɯ n 
[513.954875]
<no-speech> 
[515.154875]
s oː k s oː k i ʧ s u n i j e t i n e 
[517.275]
<no-speech> 
[518.545]
eː d a a n e b a k m e l i c e d e i ʧ m i j o ɾ o n a d a s ø j l e 
[521.595]
<no-speech> 
[523.014875]
o n a d a s ø j l e ɟ y d y k ɟ y d y k c a ɫ m a s ɯ n a ɾ c a d a ʃ ɫ a ɾ ɯ n a s ɯ ɫ b a k oː ɾ aː b i a oː t o p i t o p k ɯ z n a s ɯ ɫ c y ʧ y ʤ y c 
[529.735]
<no-speech> 
[531.465]
ɯ m h ɯ m a m a 
[533.315]
<no-speech> 
[534.325]
<no-speech> 
[534.985]
<no-speech> 
[536.425]
ø j l e 
[537.715]
<no-speech> 
[541.055]
b i l m i j o m c i 
[543.025]
<no-speech> 
[544.175]
s a b a l e j i n ɟ i j d i ʃ e j i n i m aː w i m o n t u n u o n u n ɫ a ɟ i t t i b a k a ɫ ɯ m b i d e s i j a w a ɾ m e t a p 
[549.895]
<no-speech> 
[550.765]
d i j e ɾ ʃ e j 
[551.815]
<no-speech> 
[552.645]
n e j d i a d ɯ a j n ɯ h a n i ʃ e j d e n k u m a ʃ t a n j aː n i c a ɫ ɯ n k u m a s e n i n c i n i n s i j a ɯ n ɯ d y ʃ y n m o d e l i ø n d e n f e ɾ m u a ɾ ɫ ɯ ʃ a p k a ɫ ɯ ʧ o k ɟ y z e l 
[563.525]
<no-speech> 
[565.225]
b u ɾ a d a w a ɾ i ʃ t e 
[566.845]
<no-speech> 
[568.655]
ø j l e 
[569.425]
<no-speech> 
[570.625]

[571.445]
<no-speech> 
[574.095]

[574.885]
<no-speech> 
[576.445]
j e m e c <cough> j e n ɟ e m l e ɾ e ɟ i t t i c c i 
[580.225]
<no-speech> 
[581.485]
n e ʃ a t k o n u ʃ a j ɯ m m ɯ 
[582.745]
<no-speech> 
[583.895]
ʃ e j b i z h a w w a j e n ɟ e m l e ɾ e ɟ i t t i c j a ɯ m h ɯ m h a w w a j e n ɟ e m l e ɾ e ɟ i t t i c j a 
[588.935]
<no-speech> 
[590.825]
a ɫ o ɯ m h ɯ m o ɾ d a h a w w a j e n ɟ e m p a t a t e s l e ɾ i ʃ e j <hes> t a w a t e p s i j e ʃ e j k o j m u ʃ ɯ m h ɯ m 
[599.605]
 
[600.14]
