[0.0]
<no-speech> 
[0.055]

[1.955]
<no-speech> 
[3.525]
a ɫ o 
[4.195]
<no-speech> 
[6.295]
a ɫ o 
[6.945]
<no-speech> 
[8.205]
i j i s e n n e j a p ɯ j o n 
[9.225]
<no-speech> 
[10.595]
d u j m u j o ɾ m u s u n 
[14.625]
<no-speech> 
[15.425]
h e aː f e ɾ i n aː f e ɾ i n n e j a p ɯ j o s u n u z d u j u j o m d u j u j o m 
[21.585]
<no-speech> 
[24.585]
i j i l i c o t u ɾ u j o z i j i i ʃ t e n e j a p s ɯ n ɫ a ɾ 
[28.645]
<no-speech> 
[29.625]
i j i n e j a p s ɯ n ɫ a ɾ i j i j u w a ɾ ɫ a n ɯ p i j i n e j a p s ɯ n j o k oː 
[37.295]
<no-speech> 
[38.215]

[39.345]
<no-speech> 
[41.915]
h e j a ɾ ɯ n s a b a ɟ i d ʤ e c 
[43.965]
<no-speech> 
[45.435]
n e o ɫ m u ʃ t u n i ʃ t e 
[47.405]
<no-speech> 
[48.465]
ɟ i t a ɾ ɯ b o z u k u u n e j a p a ɫ ɯ m 
[54.605]
<no-speech> 
[56.115]
n e ɾ e d e n b i l e j i m 
[57.295]
<no-speech> 
[59.295]
ʧ e c e ɾ ʧ e c e ɾ ʧ e c t iː k a d a ɾ 
[68.535]
<no-speech> 
[69.425]
<no-speech> 
[70.195]
<no-speech> 
[71.215]
<no-speech> 
[74.795]
<no-speech> 
[76.005]
ɯ m h ɯ m 
[79.415]
<no-speech> 
[80.695]
s e n d u j m u j o ɾ m u s u n 
[82.215]
<no-speech> 
[83.915]
<no-speech> 
[84.275]
<no-speech> 
[87.005]
b o ʃ w e ɾ b e d u j d uː n k a d a ɾ k o n u ʃ s e n d e ɯ m h ɯ m 
[91.585]
<no-speech> 
[93.255]

[93.765]
<no-speech> 
[95.405]
<no-speech> 
[96.225]
<no-speech> 
[97.645]
b u ɾ a s ɯ ʧ o k s ɯ ʤ a k 
[109.365]
e c i n l e ɾ l e uː ɾ a ʃ t ɯ k i ʃ t e z e c iː b e j i n i ʃ l e ɾ i j l e 
[114.085]
<no-speech> 
[115.055]
<no-speech> 
[115.775]
<no-speech> 
[116.975]

[118.725]
<no-speech> 
[120.775]
k a ɾ a b u ɾ u n o ɾ t a ɫ a ɾ d a j o k 
[123.445]
<no-speech> 
[124.765]
<no-speech> 
[125.205]
<no-speech> 
[126.275]
w a ɫ ɫ aː n e b i l e j i m h i ʧ ʧ ɯ k m a d ɯ b i l e oː k a d a ɾ b aː ɾ d ɯ k ʧ a ɯ ɾ d ɯ k h i ʧ n e ɾ e d e n b i l e j i m f i ɾ aː ɾ i 
[132.625]
<no-speech> 
[134.505]
ɟ e ɾ ʧ i b a ɯ ɾ ɯ k ʧ a ɯ ɾ d ɯ k b i c e ɾ e b i l e ɟ e l m e d i 
[143.745]
<no-speech> 
[145.395]
c e m i c m e m i k ɟ ø ɾ m e d i m b e n ɟ ø ɾ m e d i m c e m i c m e m i k 
[154.955]
<no-speech> 
[155.995]
b e n ɟ i t m i ʤ eː m 
[163.515]
<no-speech> 
[164.785]
m e ɾ s i 
[165.875]

[167.895]
<no-speech> 
[173.565]
<no-speech> 
[174.945]
e n i ʃ t e m 
[176.065]
<no-speech> 
[177.395]
<no-speech> 
[177.745]
<no-speech> 
[178.835]
ɯ m h ɯ m 
[181.485]
<no-speech> 
[182.895]
<no-speech> 
[188.225]
<no-speech> 
[191.855]
n e h a b e ɾ 
[196.935]
<no-speech> 
[197.745]
b o ʃ w e ɾ 
[199.025]
<no-speech> 
[200.575]
ʧ o k n e t d u j m a 
[201.705]
<no-speech> 
[202.765]
<no-speech> 
[203.625]
<no-speech> 
[205.525]

[206.405]
<no-speech> 
[207.975]
<no-speech> 
[208.375]
<no-speech> 
[209.465]
<no-speech> 
[211.355]
<no-speech> 
[212.635]
i j i i ʃ t e n e j a p s ɯ n s e n i s o ɾ u j o ɾ n e ɾ e d e 
[218.755]
<no-speech> 
[220.455]
<no-speech> 
[220.945]
<no-speech> 
[224.865]
b i d a c i c a k o n u ʃ t u k oː k a d a ɾ 
[227.415]
<no-speech> 
[230.585]
u u 
[231.275]
<no-speech> 
[232.585]
n e ɾ e d e oː 
[235.665]
<no-speech> 
[236.535]
<no-speech> 
[238.065]
<no-speech> 
[239.675]
ɯ m h ɯ m 
[240.655]
<no-speech> 
[243.325]
ɯ m h ɯ m 
[243.855]
<no-speech> 
[247.025]
k a p ɯ k u l e j i k a p a t m ɯ ʃ ɫ a ɾ 
[248.585]
<no-speech> 
[252.135]
ɯ m h ɯ m 
[252.905]
<no-speech> 
[254.205]
h e j e j o ɫ o t o b a n k a p a n m ɯ ʃ j a c a ɾ ʃ ɯ t a ɾ a f t a 
[258.775]
<no-speech> 
[259.595]
<no-speech> 
[261.755]
<no-speech> 
[263.785]
n e ɾ e d e 
[265.655]
<no-speech> 
[271.305]
a ɫ o 
[273.675]
<no-speech> 
[276.165]
ɯ m h ɯ m s a ɫ a t a n e ɾ e d e l a n j o ɫ d a m ɯ 
[278.415]
<no-speech> 
[279.775]
ɯ m h ɯ m 
[280.795]
<no-speech> 
[281.735]
<no-speech> 
[282.105]
<no-speech> 
[283.105]
ɯ m h ɯ m b a b a j ɯ ɟ e l ʤ e c 
[285.475]
<no-speech> 
[287.055]
eː k a p a t m ɯ ʃ ɫ a ɾ i ʃ t e k a p ɯ k u l e j i 
[291.645]
<no-speech> 
[292.585]
<no-speech> 
[293.265]
<no-speech> 
[294.825]
<no-speech> 
[295.615]
<no-speech> 
[300.205]
k a p a t 
[300.775]
<no-speech> 
[303.305]
ɯ m h ɯ m 
[305.405]
<no-speech> 
[307.475]
w a ɫ ɫ aː k a p a ɫ ɯ j m ɯ ʃ i ʃ t e ʃ e j d e d e j a z ɯ j o ɾ i n t e ɾ n e t t e d e j a z ɯ j o ɾ 
[313.445]
<no-speech> 
[315.875]
<no-speech> 
[317.595]
<no-speech> 
[318.425]
ɯ m h ɯ m j o k b e j o ɫ u z a t e n s e l b a s m ɯ ʃ 
[321.955]
<no-speech> 
[323.655]
j o ɫ u z a t e n b a s m ɯ ʃ s e l b a s m ɯ ʃ k a p a n m ɯ ʃ j o ɫ 
[327.925]
<no-speech> 
[329.435]
u u 
[330.145]
<no-speech> 
[332.405]
<no-speech> 
[333.135]
<no-speech> 
[334.435]
<no-speech> 
[335.055]
<no-speech> 
[335.955]
<no-speech> 
[337.795]
<no-speech> 
[347.295]
ɯ m h ɯ m 
[348.685]
<no-speech> 
[354.045]
<no-speech> 
[355.695]
<no-speech> 
[357.385]
k a ʧ ɯ j o ɾ d u i ʃ t e b u a k ʃ a m 
[359.105]
<no-speech> 
[360.175]
<no-speech> 
[368.545]
<no-speech> 
[370.445]
<no-speech> 
[370.925]
<no-speech> 
[373.125]
a ɫ ɫ a a ɫ ɫ a 
[376.785]
<no-speech> 
[380.615]
<no-speech> 
[381.125]
<no-speech> 
[382.025]
<no-speech> 
[385.175]
<no-speech> 
[386.245]
<no-speech> 
[387.125]
<no-speech> 
[388.645]
ɯ m h ɯ m 
[389.745]
<no-speech> 
[390.675]
n e 
[391.215]
<no-speech> 
[393.775]
j o k b e o j u n o j n u j o m 
[395.405]
<no-speech> 
[397.745]
oː t o p ɫ u o j u n u o j n u j o m ɟ e n e 
[401.525]
<no-speech> 
[403.965]
s i n i ɾ h a s t a s ɯ e t t i l e ɾ u u 
[411.365]
<no-speech> 
[414.145]
w a ɾ 
[415.945]
<no-speech> 
[418.105]
b a j aː i l e ɾ i d e 
[420.505]
<no-speech> 
[421.855]
<no-speech> 
[422.415]
<no-speech> 
[423.965]
n e d e n m i 
[425.175]
<no-speech> 
[426.825]
<no-speech> 
[427.205]
<no-speech> 
[428.515]
<no-speech> 
[429.325]
<no-speech> 
[430.225]
<no-speech> 
[431.845]
<no-speech> 
[432.675]
b i ʃ e j d e m e d i m 
[437.165]
<no-speech> 
[441.185]
<no-speech> 
[441.895]
<no-speech> 
[443.135]
<no-speech> 
[444.405]
<no-speech> 
[446.465]
<no-speech> 
[447.415]
<no-speech> 
[449.365]
<no-speech> 
[450.015]
<no-speech> 
[450.865]

[453.125]
<no-speech> 
[454.445]
j a b ɯ ɾ a k s ɯ n o c e j i ɟ i t s i n k a w e j e m a w e j e b e a z ʤ ɯ k i n s a n i ʧ i n e k a ɾ ɯ ʃ s ɯ n 
[458.825]
<no-speech> 
[461.205]
p i s i k o ɫ o ʒ i m i b o z m a s ɯ n b e n i m 
[462.675]
<no-speech> 
[464.105]
<no-speech> 
[464.815]
<no-speech> 
[469.045]
k a w e j l e m a w e j l e uː ɾ a ʃ a m a j ɯ z 
[470.775]
<no-speech> 
[473.435]
n e ɾ e s i n e e c l e j e ʤ e c s i n h ɯ 
[476.455]
<no-speech> 
[478.625]
n e ɾ e s i m i j y c l y ʤ eː z 
[479.815]
<no-speech> 
[481.305]
<no-speech> 
[482.045]
<no-speech> 
[483.515]
<no-speech> 
[485.915]
<no-speech> 
[491.435]
h i ʧ b i ɾ ʃ e j o ɫ d uː j o k 
[496.615]
<no-speech> 
[498.665]
oː d a ɟ i d ʤ e c j a ɾ ɯ n a m a d u ɾ b a k a ɫ ɯ m ɟ i d e b i l ʤ e c m i 
[502.045]
<no-speech> 
[503.825]
n e j a p a j ɯ m b a n a n e 
[509.555]
<no-speech> 
[511.835]
ɟ i d e b i l i j o s a ɟ i t s i n 
[513.064875]
<no-speech> 
[518.465]
oː d a ɟ aː l i b a o ɾ d a 
[520.495]
<no-speech> 
[522.185]
<no-speech> 
[523.824875]
<no-speech> 
[527.875]
<no-speech> 
[530.925]
<no-speech> 
[532.145]
<no-speech> 
[533.825]
<no-speech> 
[535.275]
i j i 
[535.865]
<no-speech> 
[539.275]
n e a n ɫ a t a j ɯ m 
[540.395]
<no-speech> 
[541.865]
<no-speech> 
[542.225]
<no-speech> 
[546.105]
u z a k t a n ɟ e l i j o ɾ ɟ e n e s e s 
[549.755]
<no-speech> 
[550.915]
u z a k t a n ɟ y z e l ɟ e l i j o ɾ a m a s e s i m d iː l m i <laugh> 
[554.705]
<no-speech> 
[557.925]
i j i i ʃ t e 
[561.235]
<no-speech> 
[562.995]
n e ɟ y l y j o s u n u z l a n 
[568.175]
<no-speech> 
[569.985]
h a j ɯ ɾ 
[570.625]
<no-speech> 
[572.225]
h a j ɯ ɾ n i j e 
[573.255]
<no-speech> 
[575.065]
a ɾ a m a d ɯ p a n d a 
[576.235]
<no-speech> 
[578.265]

[578.625]
<no-speech> 
[579.725]
m u s t a f a j ɫ a i ʃ o ɫ u ɾ m u b e m u s t a f a d a n t e l e f o n i s t e d i c b i d a a a ɾ a ɾ m ɯ b i z i s e n ʤ e 
[585.645]
<no-speech> 
[588.015]
a j f o w n i s t e d i c 
[590.265]
<no-speech> 
[591.125]
<no-speech> 
[592.005]
<no-speech> 
[592.805]
a ɾ a ɾ m ɯ b i d a a 
[594.365]
<no-speech> 
[595.995]
b e ʃ j y z m i l j o n 
[597.735]
<no-speech> 
[600.08]
