[0.0]
<dtmf> <int> 
[9.855]
h ɯ 
[10.345]
<no-speech> 
[12.295]
s e ɾ ʤ a n 
[12.925]
<no-speech> 
[14.275]
i j i s e n n e j a p ɯ j o n 
[15.365]
<no-speech> 
[17.085]
<int> h ɯ 
[17.695]
<no-speech> 
[21.145]
a j n e n m a ʧ ɯ i z l i ʤ e c t i m t a m 
[23.145]
<no-speech> 
[24.825]
s ɯ f ɯ ɾ s ɯ f ɯ ɾ 
[25.785]
<no-speech> 
[27.015]
s ɯ f ɯ ɾ s ɯ f ɯ ɾ 
[27.935]
<no-speech> 
[32.145]
ɟ aː l i b a b e ʃ d a c i c a o ɫ d u ɟ i t m e d i d a a b a k a ɫ ɯ m n e o ɫ ʤ a k b e l c i k a p a t ɯ ɾ ɫ a ɾ f a ɫ a n b e l l i o ɫ m a z j aː n i <no-speech> h ɯ 
[41.105]
<no-speech> 
[43.605]
j o k o j n a m a d ɯ m i d d aː h ɯ o j n a m a d ɯ m 
[46.455]
<no-speech> 
[48.535]
s e n 
[49.055]
<no-speech> 
[51.545]
<no-speech> 
[51.905]
<no-speech> 
[53.585]
o ɫ u ɾ <laugh> 
[54.685]
<no-speech> 
[55.515]
b a k a ɫ ɯ m 
[56.285]
<no-speech> 
[59.455]
h ɯ 
[59.955]
<no-speech> 
[62.315]
n i j e j a 
[63.055]
<no-speech> 
[66.785]
m o t o ɾ a ɫ m a k l aː z ɯ m b i t a n e 
[68.385]
<no-speech> 
[69.915]
<int> m aː ʃ ɯ a ɫ a ɫ ɯ m d a 
[71.215]
<no-speech> 
[74.035]
eː 
[74.645]
<no-speech> 
[77.225]
a j n e n m aː ʃ ɯ a ɫ a ɫ ɯ m o n d a n s o n ɾ a b i m o t o ɾ 
[80.005]
<no-speech> 
[81.745]
ɟ y z e l b i ʃ e j a ɫ ʤ a k s ɯ n c i b u n ɫ a ɾ ɯ m o t o ɾ ɫ a 
[84.535]
<no-speech> 
[85.555]
h ɯ 
[86.075]
<no-speech> 
[89.685]
a ɫ ʤ aː z d a i ʃ t e 
[92.055]
<no-speech> 
[93.625]
<int> oː ɫ u m b u b i ɫ a l l e ɾ i n m o t o ɾ a ɟ ø z d i c m i ʃ l e ɾ s o n ɾ a s o w u d u m m o t o ɾ d a n 
[97.015]
<no-speech> 
[98.425]
a n ɫ a d ɯ m d a 
[99.225]
<no-speech> 
[101.795]
o n d a n s o n ɾ a i t i j o z m i t i j o z <no-speech> <int> 
[104.615]
<no-speech> 
[105.595]

[107.255]
<no-speech> 
[109.245]
h ɯ 
[109.795]
<no-speech> 
[114.045]
n e d i j o n n i j e k ɯ s ɯ k s e s ɟ e l i j o ɾ l a n b u n d a n 
[116.045]
<no-speech> 
[121.375]
<no-speech> 
[121.905]
<no-speech> 
[128.605]
ɟ aː l i b a <no-speech> 
[131.335]
c a p a t m a 
[132.345]
<no-speech> 
[134.215]
h ɯ 
[134.735]
<no-speech> 
[139.935]
i j i i j i s e n n a s ɯ ɫ s ɯ n 
[142.255]
<no-speech> 
[143.715]
s e ɫ aː m s ø j l e h e ɾ c e s e 
[144.895]
<no-speech> 
[148.605]
i j i a ɫ ɫ a i j i l i c w e ɾ s i n 
[149.895]
<no-speech> 
[150.955]
<breath> b e n d e s e n i ø z l e d i m 
[152.735]
<no-speech> 
[154.215]
<no-speech> 
[154.875]
<no-speech> 
[158.415]
h ɯ 
[158.995]
<no-speech> 
[164.265]
a j n e n 
[165.045]
<no-speech> 
[166.275]
uː ɾ a m ɯ j o n h i ʧ 
[167.475]
<no-speech> 
[173.305]
j o k b e h e p b e n h e p b u ɾ a d a j ɯ m s e n j o k s u n 
[176.815]
<no-speech> 
[181.185]
a j n e n b i z h e p b u ɾ a ɫ a ɾ d a j ɯ z 
[183.815]
<no-speech> 
[186.885]
b a d j e j a z ɯ ɫ ʤ aː m 
[188.125]
<no-speech> 
[191.335]
h ɯ 
[192.875]
<no-speech> 
[194.325]
n e ɾ e j e 
[194.995]
<no-speech> 
[199.245]
ʃ e j e j a z ɯ ɫ j a d a b o ʃ w e ɾ o ɾ a j ɯ i s m e c e 
[201.515]
<no-speech> 
[204.125]
s aː ɫ ɯ k ɾ a p o ɾ u a ɫ m a k l aː z ɯ m 
[205.525]
<no-speech> 
[206.475]
b e d aː w a 
[207.365]
<no-speech> 
[213.005]
j o k h o ʤ a d iː ʃ t i j a 
[214.405]
<no-speech> 
[216.145]
<no-speech> 
[216.495]
<no-speech> 
[217.335]
a j n e n j e n i h o ʤ a ɟ e l d i 
[219.725]
<no-speech> 
[220.855]
b i l a l j a z ɯ ɫ m ɯ ʃ 
[221.995]
<no-speech> 
[225.235]
s aː ɫ ɯ k ɾ a p o ɾ u a ɫ m a k l aː z ɯ m 
[226.855]
<no-speech> 
[229.595]
n e z a m aː n i z i n a ɫ ʤ a k s ɯ n 
[231.215]
<no-speech> 
[233.715]
h ɯ n e z a m aː n i z i n a ɫ ʤ a k s ɯ n 
[235.605]
<no-speech> 
[237.835]
<int> s a ɫ ɯ ɟ y n y s a ɫ ɯ ɟ y n y b e n d e o ɫ u ɾ s a m a ɫ ɯ ɾ ɯ z s aː ɫ ɯ k ɾ a p o ɾ u 
[243.625]
<no-speech> 
[244.725]
b i l a l a ɫ m ɯ ʃ ɟ i ɾ m i ʃ 
[246.005]
<no-speech> 
[247.615]
b i z i m d e a ɫ m a m ɯ z l aː z ɯ m ɟ i t m e m i z l aː z ɯ m 
[249.685]
<no-speech> 
[250.545]
a j n e n 
[251.205]
<no-speech> 
[252.285]
j a z ɯ ɫ m ɯ ʃ b i ɫ o 
[253.435]
<no-speech> 
[259.485]
a j n e n ɟ i d ʤ eː z o n a 
[260.804875]
<no-speech> 
[262.235]
ɟ y z e l f i l m j aː n i 
[263.295]
<no-speech> 
[270.175]
o j u n u k o m p l e i n d i ɾ m e n l aː z ɯ m 
[272.065]
<no-speech> 
[273.595]
a n ɫ a d ɯ n m ɯ b e n i m a t t ɯː m ʃ e c i l d e a s ɫ ɯ n d a b i l ɟ i s a j a ɾ a o ɫ d u 
[277.615]
<no-speech> 
[279.005]
<int> b e n a s ɫ ɯ n d a ø j l e j y c l e d i m b i l ɟ i s a j a ɾ a s e n d e n i j e o ɫ m a d ɯ a m a b i l m i j o m 
[283.185]
<no-speech> 
[285.625]
h ɯ 
[286.185]
<no-speech> 
[290.205]
b i l i j o m b e n j y c l e d i m ʧ y n c y o n u 
[292.125]
<no-speech> 
[293.635]
b e n d e j a p t ɯ m j aː n i b i c e ɾ e b i ʃ e j o ɫ d u o j u n a 
[296.085]
<no-speech> 
[297.905]
j o k t u oː h e p <foreign> a t ɯ j o ɾ 
[299.875]
<no-speech> 
[301.555]
a m a j i n e d e s o ɾ m a k l aː z ɯ m 
[303.055]
<no-speech> 
[305.245]
b i l m i j o m c i oː h e p <foreign> a t ɯ j o ɾ 
[308.315]
<no-speech> 
[309.475]
a m a s o ɾ m a k l aː z ɯ m 
[310.755]
<no-speech> 
[317.235]
b i l m i j o m c i b i l ɟ i s a j a ɾ d a n b i l ɟ i s a j a ɾ a d eː i ʃ i j o ɾ b e n i m b i l ɟ i s a j a ɾ h ɯ z ɫ ɯ h e ɾ h a l d e <int> 
[322.265]
<no-speech> 
[323.805]

[325.275]
<no-speech> 
[326.165]
h ɯ 
[326.685]
<no-speech> 
[328.825]
s e n i n b i l ɟ i s a j a ɾ h ɯ z ɫ ɯ d iː l m i 
[330.205]
<no-speech> 
[332.675]
j a w a ʃ m ɯ 
[333.565]
<no-speech> 
[335.925]
h ɯ 
[336.535]
<no-speech> 
[338.285]
n a s ɯ ɫ j a w a ʃ 
[339.075]
<no-speech> 
[341.635]
h ɯ oː z a m aː n 
[342.805]
<no-speech> 
[344.055]
oː z a m aː n j i j i j i ɾ m i o t u z t a n e s i n i i n d i ɾ i ɾ s i n 
[347.585]
<no-speech> 
[349.575]
i j i m i 
[350.395]
<no-speech> 
[351.785]
n e 
[352.245]
<no-speech> 
[355.405]
o n u n c i b i j i ɾ m i o t u z k ɯ ɾ k s aː t t e i n d i ɾ i j o ɾ z a t e n j i ɾ m i d ø ɾ t s aː t f a ɫ a n 
[361.895]
<no-speech> 
[363.935]
o z a n n a s ɯ ɫ j e n i l d i l a n f e n e ɾ 
[365.815]
<no-speech> 
[368.235]
h ɯ 
[368.735]
<no-speech> 
[371.505]
a ɫ ɯ ʤ a z m u s t a f a j a m o t o ɾ a ɫ a ɫ ɯ m 
[373.455]
<no-speech> 
[375.595]
h ɯ 
[376.095]
<no-speech> 
[379.865]
h e m o n u n d a s aː s o ɫ u d ø c y l y j o ɾ 
[381.815]
<no-speech> 
[383.785]
a ɫ ɯ p d a n e j a p ɯ ʤ a k s ɯ n a m a 
[385.045]
<no-speech> 
[387.725]
<no-speech> 
[388.095]
<no-speech> 
[392.175]
i j i h a d i b a k a ɫ ɯ m 
[393.345]
<no-speech> 
[394.745]
s e w i n m i ʃ 
[395.655]
<no-speech> 
[398.695]
j a p a ɾ ɯ z t a b i 
[399.645]
<no-speech> 
[401.305]
j a p a ɾ ɯ z t a b i j a p m a z m ɯ j ɯ z <int> 
[402.855]
<no-speech> 
[405.425]
b i m o d i f i j e 
[406.585]
<no-speech> 
[407.715]
c a j n a k ɫ ɯ b i m o d i f i j e j a p a ɾ ɯ z h e 
[409.505]
<no-speech> 
[414.555]
h ɯ 
[415.175]
<no-speech> 
[416.415]
o n a a ɾ a b a j a p ɯ ʤ a k s ɯ n m o t o ɾ a ɟ i t m e z 
[419.255]
<no-speech> 
[421.075]
<int> <no-speech> 
[427.335]
a ɫ ɫ a ɯ m s ɯ n a w a ɟ i ɾ m e d i n m i 
[428.935]
<no-speech> 
[431.155]
h ɯ 
[431.665]
<no-speech> 
[434.145]
o n b e ʃ m i 
[435.065]
<no-speech> 
[435.935]
o n b i i j i h a d i b a k a ɫ ɯ m 
[438.085]
<no-speech> 
[439.115]
a ɫ a b i l ʤ e c m i s i n i l k ɟ i ɾ i ʃ t e 
[440.635]
<no-speech> 
[442.525]
h ɯ 
[443.015]
<no-speech> 
[445.705]
i j i h a d i b a k a ɫ ɯ m 
[446.735]
<no-speech> 
[447.815]
i n ʃ a ɫ ɫ a h a d i b a k a ɫ ɯ m 
[449.985]
<no-speech> 
[451.375]
ɟ e ʧ e m i j o n s ɯ n a w ɯ 
[453.275]
<no-speech> 
[455.055]
h ɯ 
[455.645]
<no-speech> 
[457.825]
ɟ e ʧ e m i j o n s ɯ n a w ɯ 
[458.955]
<no-speech> 
[461.485]
eː d e ɾ s l e ɾ i n e ʧ a ɫ ɯ ʃ ɟ i ɾ a ɫ 
[464.755]
<no-speech> 
[466.125]
<int> m o t o ɾ e l i j e t i m i ʧ ɯ c a ɾ t <int> 
[468.655]
<no-speech> 
[470.695]
c a ɾ d e ʃ i m i j i oː ɫ u m n e j a p s ɯ n 
[472.315]
<no-speech> 
[475.805]
m o t o ɾ e l i j e t i a ɫ m a k l aː z ɯ m <no-speech> h ɯ 
[478.225]
<no-speech> 
[479.925]
o j u n m u 
[480.665]
<no-speech> 
[483.755]
j a i ʃ t e m o t o ɾ d a n p a a ɫ ɯ m o t o ɾ e l i j e t i d e 
[486.685]
<no-speech> 
[490.265]
<int> a ɫ t ɯ j y z m i l j o n w e ɾ i p t e m o t o ɾ e l i j e t i 
[492.985]
<no-speech> 
[494.655]
a ɫ t ɯ j y z m i l j o n m o t o ɾ e l i j e t i n e w e ɾ ʤ eː n e i c i t a n e m o t o ɾ a ɫ ɯ ɾ s ɯ n h a 
[498.615]
<no-speech> 
[504.585]
a j n e n a ɫ m a k l aː z ɯ m d a i ʃ t e 
[507.035]
<no-speech> 
[508.675]
ɟ y z e l b i ʃ e j 
[509.625]
<no-speech> 
[511.725]
h ɯ u ɫ a n i s t e d i j i n ɟ i b i j e ɾ l e ɾ e <int> 
[514.915]
<no-speech> 
[516.264875]
u ɫ a n c e ɾ i z <laugh> 
[517.985]
<no-speech> 
[522.034875]
j iː t a ɫ m a d ɯ m o t o ɾ u h e b e n d e a ɫ d ɯ s a n d ɯ m 
[524.245]
<no-speech> 
[531.485]
eː k o ɾ k u j o m k o w a j ɯ m o w a j ɯ l a s t i c l e ɾ i f a ɫ a n ɟ ø ɾ y n ʤ e d e d i m eː m o t o ɾ p a s ɫ ɯ <int> 
[535.925]
<no-speech> 
[545.285]
a j n e n <int> 
[546.615]
<no-speech> 
[547.415]
e 
[548.365]
<no-speech> 
[549.505]
<int> a ɫ m a k ʃ a ɾ t 
[551.645]
<no-speech> 
[553.105]
h e 
[553.585]
<no-speech> 
[559.075]
a ɫ ɯ ʤ a z d a ɟ y z e l b i ʃ e j a m a b ø j l e b i ɫ a l i n c i ɟ i b i m u s t a f a n ɯ n c i ɟ i b i m o t o ɾ a ɫ ɯ n m a z 
[564.135]
<no-speech> 
[566.375]
p a s o i t e ɾ i z s o n ɾ a m o t o ɾ u 
[567.945]
<no-speech> 
[574.375]
a j n e n <laugh> oː t aː m i ɾ aː n e s e n i n oː b u t aː m i ɾ aː n e b e n i m d o ɫ a ʃ ɯ ɾ d u ɾ u ɾ u z 
[579.765]
<no-speech> 
[581.335]
o n d a n s o n ɾ a j o k u ʃ j u c a ɾ ɯ i t t i ɾ i ɾ i z f a ɫ a n 
[583.875]
<no-speech> 
[586.355]
uː ɾ a ʃ ɯ ɫ m a z 
[587.245]
<no-speech> 
[596.825]
j e ɾ i n ɟ y z e l 
[597.675]
<no-speech> 
[598.745]

[599.155]
<no-speech> 
[600.14]
