[0.0]
<no-speech> 
[7.255]
a ɫ o 
[7.815]
<no-speech> 
[10.955]
a ɫ o 
[11.605]
<no-speech> 
[13.325]
n e j a p ɯ j o n h a j aː t ɯ m 
[14.365]
<no-speech> 
[15.525]
a ɫ o 
[16.675]
<no-speech> 
[18.175]
<no-speech> 
[18.525]
<no-speech> 
[19.375]
ɟ y ɾ c a n b e n h a j aː t ɯ m s e s i m ɟ e l i j o ɾ m u 
[21.175]
<no-speech> 
[24.565]
a z m ɯ ɟ e l i j o ɾ ɟ e l i j o ɾ a m a ʃ u a n d iː l m i d u j u j o n j aː n i 
[26.745]
<no-speech> 
[29.845]
n e j a p ɯ j o n b e b iː m 
[30.835]
<no-speech> 
[37.835]
h ɯ h ɯ 
[38.435]
<no-speech> 
[39.665]
d y n a k ʃ a m c a ʧ t a ɟ i t m i ʃ t i e l e c t ɾ i c l e ɾ j a c a ʧ s aː t o ɫ d u 
[42.025]
<no-speech> 
[50.755]
s aː t o n f a ɫ a n d ɯ h e ɾ h a l d e d iː l m i 
[52.365]
<no-speech> 
[54.585]
a k ʃ a m y z e ɾ i m i ɟ i t m i ʃ t i 
[55.875]
<no-speech> 
[57.425]
h ɯ m 
[58.105]
<no-speech> 
[60.585]
j a b i z i m b u ɾ a d a d a ɟ i t m i ʃ t i b i l i j o n ɟ e ʧ e n ɟ y n d ø ɾ t s e c i z s aː t 
[64.075]
<no-speech> 
[66.965]
s e c i z s aː t f a ɫ a n j o k t u o ɾ a d a c i d e b y j y c b i a ɾ ɯ z a h e ɾ h a l d e 
[70.345]
<no-speech> 
[76.425]
<no-speech> 
[82.505]
<int> h ɯ h ɯ 
[83.985]
<no-speech> 
[89.085]
t ɯ ɾ a f o ɫ a ɾ d a n m ɯ k a j n a k ɫ a n ɯ j o ɾ m u ʃ 
[90.695]
<no-speech> 
[98.625]
e w e t b u t ɯ ɾ a f o p a t ɫ a m a s ɯ d a ʧ o k c ø t y j a b i z i m b u ɾ a d a s e c i z s aː t ɟ i t t i j i n d e b u ɾ s a d a t ɯ ɾ a f o ɫ a ɾ p a t ɫ a m ɯ ʃ i s t a n b u ɫ a k a d a ɾ e t c i e t t i j aː n i b ø j l e 
[108.075]
<no-speech> 
[111.385]
ɟ e l i ɾ j aː n i e n j a k ɯ n z a m aː n d a i n ʃ a ɫ ɫ a <int> 
[114.535]
<no-speech> 
[117.435]
h ɯ h ɯ 
[117.995]
<no-speech> 
[122.615]
e w e t 
[123.155]
<no-speech> 
[125.535]
e w e t 
[126.075]
<no-speech> 
[128.704875]
e w e t 
[129.235]
<no-speech> 
[132.135]
ɟ e ɾ ʧ e c t e n h a j aː t ɯ m m a h ɾ uː m i j e t b ø l ɟ e s i o ɫ d u o ɾ a s ɯ d a 
[135.025]
<no-speech> 
[136.325]
ʃ e j d e j a p a m a z s ɯ n ɯ z j aː n i e w i t i j a ʧ ɫ a ɾ ɯ n ɯ d a ɟ i d e ɾ e m e z s i n i z n e b i l e j i m b ø j l e 
[139.695]
<no-speech> 
[140.895]
a ɫ ɯ ʃ w e ɾ i ʃ t i i ʃ t e o k u ɫ d u b i l m e m n e j d i b a k k a ɫ d ɯ ʧ a k k a ɫ d ɯ 
[144.755]
<no-speech> 
[148.775]
w a ɫ ɫ aː b ø j l e b i h a f t a t a t i l o ɫ ʤ a k h e ɾ h a l d e 
[150.725]
<no-speech> 
[161.325]
<laugh> t a b i s e w i n m e z m i <cough> <hes> h a k k a t t e n b u ʤ u m a o k u ɫ ɫ a ɾ t a t i l o ɫ u j o ɾ d iː l m i u n u t m u ʃ t u m b e n o n u 
[166.175]
<no-speech> 
[167.265]
b u ʤ u m a s ø m e s t ɯ ɾ 
[168.385]
<no-speech> 
[170.195]
e ɾ k a n d a ɟ e l i ɾ z a t e n b u ʤ u m a o n b e ʃ ɟ y n 
[172.875]
<no-speech> 
[174.225]
c a ɫ ɯ ɾ b u ɾ a d a s ø m e s t ɯ ɾ s ø m e s t ɯ ɾ ɯ i p l e ʧ e c i j o ɾ d u z a t e n 
[178.315]
<no-speech> 
[180.885]
e ʃ i n i n j a n ɯ n a ɟ e l ʤ e c i ʃ t e oː d a ø z l y j o ɾ k a ɾ ɯ s ɯ n ɯ 
[183.175]
<no-speech> 
[184.745]
b e n d e ø z l y j o m k a ɾ ɯ m ɯ 
[186.075]
<no-speech> 
[186.975]
<no-speech> 
[187.815]
<no-speech> 
[189.775]
<breath> a n n e b a b a n a s ɯ ɫ h a j aː t ɯ m 
[191.845]
<no-speech> 
[196.605]
s o ɾ u j o ɾ ɫ a ɾ m ɯ b e n i 
[197.555]
<no-speech> 
[198.625]
h ɯ 
[199.085]
<no-speech> 
[200.675]
h ɯ h ɯ 
[201.245]
<no-speech> 
[205.915]
h ɯ oː d a d i c c a t e t s i n h ɯ ø j l e k a j a ɾ d y ʃ e ɾ f a ɫ a n 
[209.475]
<no-speech> 
[215.835]
<no-speech> 
[222.195]
h ɯ h ɯ 
[222.755]
<no-speech> 
[225.495]
j a 
[226.225]
<no-speech> 
[235.285]
h ɯ h ɯ 
[235.905]
<no-speech> 
[242.905]
ɟ e ɾ ʧ e c t e n <hes> h i ʧ d y ʃ y n m e d i m b a k b e n o n u 
[245.685]
<no-speech> 
[247.145]
t e l e f o n u n ʃ a ɾ ʒ ɯ d a b i t e b i l i ɾ d iː l m i s e n i n 
[249.065]
<no-speech> 
[251.105]
u j a u j a ɾ ɯ f a ɫ a n w e ɾ i j o ɾ m u 
[252.905]
<no-speech> 
[256.535]
h ɯ i j i oː z a m aː n 
[258.195]
<no-speech> 
[260.874875]
oː z a m aː n i j i 
[261.554875]
<no-speech> 
[262.775]
a ɫ ɫ a t a n c e s i l m e s i n d i j e ʃ a ɾ ʒ e t m i ʃ s i n t e l e f o n u 
[265.145]
<no-speech> 
[270.315]
h ɯ h ɯ 
[270.915]
<no-speech> 
[272.475]
<breath> j a b u h a j aː t ɯ m b u j y z y c b e n i m p a ɾ m aː m a b iː ɾ a z ʃ e j ɟ e l m e j e b a ʃ ɫ a d ɯ b o ɫ ɟ e l m e j e b a ʃ ɫ a d ɯ n i j e b ø j l e o ɫ d u 
[277.455]
<no-speech> 
[280.515]
h ɯ b i ɾ a z ʤ ɯ k j a ʃ e j b ø j l e h a n i n e b i l e j i m b ø j l e b a n j o f a ɫ a n j a p a ɾ c e n p a ɾ m aː m d a n ʧ ɯ k a b i l i ɾ j aː n i h i s s e t m i j e b i l i ɾ i m o n u d a ɾ a ɫ t ɯ ʤ aː m b e n j a d a ɾ a ɫ t ɯ ɫ ɯ j o ɾ d iː l m i j y z y k l e ɾ 
[290.445]
<no-speech> 
[294.235]
t a m a m 
[294.745]
<no-speech> 
[298.875]
h ɯ h ɯ f a w o ɾ i b aː j iː w a ɾ d ɯ ɾ c e s i n a ɫ d ɯː m ɯ z j e ɾ ɟ i b i 
[301.705]
<no-speech> 
[303.885]
a m a j y j y z y e b i h a s a ɾ w e ɾ m e z l e ɾ d iː l m i 
[306.415]
<no-speech> 
[308.805]
<breath> j y z y e b i h a s a ɾ w e ɾ m e z l e ɾ h e ɾ h a l d e d i j o m 
[311.155]
<no-speech> 
[314.945]
d a ɾ a ɫ t ɯ ɾ c e n f a ɫ a n b ø j l e 
[316.585]
<no-speech> 
[320.375]
h ɯ h ɯ 
[320.985]
<no-speech> 
[326.095]
h ɯ 
[326.525]
<no-speech> 
[328.095]
h ɯ h ɯ 
[328.665]
<no-speech> 
[331.355]
i j i o ɫ u ɾ j a 
[332.265]
<no-speech> 
[333.825]
ʧ y n c y n o ɾ m a ɫ z a m aː n d a d a b ø j l e p a ɾ m a ɯ m d a d u ɾ d u <no-speech> h ɯ 
[337.585]
<no-speech> 
[342.335]
e w e t b a n a a k ʃ a m s ø j l e ɾ b i l i j o ɾ m u s u n o n u 
[344.765]
<no-speech> 
[346.555]
s e n ɟ i t o ɾ a j a j a z d ɯ ɾ b e n d e b u ɾ a d a j a z d ɯ ɾ ʤ aː m 
[349.415]
<no-speech> 
[354.325]
i s i m i n i j a z d ɯ ɾ m a j ɯ m ɯ 
[355.545]
<no-speech> 
[357.855]
j o k j o k u n u t m a m m e ɾ a k e t m e 
[359.525]
<no-speech> 
[360.495]
u n u t u ɾ m u j u m s e n n e z a m aː n j a z d ɯ ɾ ʤ a k s ɯ n s a ɫ ɯ ɟ y n y m y 
[363.235]
<no-speech> 
[364.315]
h ɯ b u ɟ y n s a ɫ ɯ z a t e n j a 
[365.655]
<no-speech> 
[367.575]
<laugh> t a m a m t a m a m <laugh> 
[378.065]
<no-speech> 
[380.075]
<no-speech> 
[380.575]
<no-speech> 
[382.265]
t a m a m c e n d i a d ɯ m ɯ j a z d ɯ ɾ ɯ ɾ ɯ m b e n j y z y e 
[385.985]
<no-speech> 
[389.835]
<no-speech> 
[391.205]
<no-speech> 
[393.835]
<laugh> i c i s i n d e d e ɟ y ɾ c a n j a z a ɾ n e ɟ y z e l o ɫ u ɾ <laugh> 
[397.155]
<no-speech> 
[398.165]
<no-speech> 
[398.575]
<no-speech> 
[400.005]
j o k j o k s e n n e b u ɟ y n m y 
[401.675]
<no-speech> 
[403.725]
<no-speech> 
[406.595]
<no-speech> 
[408.215]
d u j d u m d u j d u m 
[409.185]
<no-speech> 
[413.145]
d iː l m i <laugh> j a d a s ɯ ɾ t ɯ m d a b i t e f ɫ o n j a z ɯ s ɯ o ɫ a b i l i ɾ j aː n i 
[419.465]
<no-speech> 
[420.695]
e w e t 
[421.245]
<no-speech> 
[425.155]
e w e t e w e t <breath> a m a s e n b u ɟ y n j a z d ɯ ɾ ɯ n ʤ a s i l m e o n u 
[428.035]
<no-speech> 
[430.545]
ʧ ɯ k a m a j a ʤ a k s ɯ n c i d ɯ ʃ a ɾ ɯ j a z d ɯ ɾ a s ɯ n 
[432.015]
<no-speech> 
[433.635]
a n ʤ a k h a w a ɫ a ɾ d y z e l d i c t e n s o n ɾ a 
[435.365]
<no-speech> 
[437.115]
ɟ e ɾ ʧ i oː e l e m a n b e n i a ɾ ɯ ʤ a k b i l i j o ɾ m u s u n 
[439.075]
<no-speech> 
[440.005]
h a n i d a a j a p ɯ ɫ m a d ɯ h e ɾ h a l d e j a p ɯ ɫ d ɯ k t a n s o n ɾ a t e l e f o n a ʧ ʤ a k b a n a o n a ɟ ø ɾ e h a b e ɾ w e ɾ i ɾ i m d e d i z a t e n 
[445.185]
<no-speech> 
[456.215]
h ɯ h ɯ 
[456.795]
<no-speech> 
[462.635]
h ɯ 
[463.165]
<no-speech> 
[464.605]
a m a ʃ i ʃ ʃ i ʃ s e p a ɾ m aː m a d a ɾ ɟ e l i ɾ h a j aː t ɯ m 
[467.195]
<no-speech> 
[470.485]
b e n i m c i b o ɫ ɟ e l m e j e b a ʃ ɫ a d ɯ z a j ɯ f ɫ a d ɯ m h e ɾ h a l d e d y n d e n b e ɾ i 
[473.315]
<no-speech> 
[479.535]
h ɯ h ɯ 
[480.135]
<no-speech> 
[483.375]
h ɯ e w e t e w e t e w e t d oː ɾ u s ø j l y j o n 
[486.165]
<no-speech> 
[486.965]
oː z a m aː n ʤ u k d i j e o t u ɾ m u ʃ t u j a p a ɾ m aː m a 
[489.155]
<no-speech> 
[497.635]
e w e t 
[498.115]
<no-speech> 
[500.045]
<no-speech> 
[500.405]
<no-speech> 
[501.355]
w a ɫ ɫ aː s y ɾ e c l i j o ɫ ʤ u ɫ u k j a p a m a m j y z y c p a ɾ m aː m a o ɫ m u ʃ t u n d i j e j aː n i e n i j i s i ɟ i d e ɾ j y z yː d a ɾ a ɫ t t ɯ ɾ ɯ ɾ ɯ m 
[505.855]
<no-speech> 
[506.805]
o ɫ u ɾ b i t e ɾ 
[507.695]
<no-speech> 
[510.445]
<no-speech> 
[513.985]
<no-speech> 
[515.134875]
<laugh> d iː l m i 
[516.074875]
<no-speech> 
[520.894875]
s e n ʃ i m d i t e l e w i z j o n d a i z l e j e m i j o n b i l ɟ i s a j a ɾ a d a ɟ i ɾ e m i j o n 
[523.785]
<no-speech> 
[528.345]
s ɯ k ɯ ɫ ɯ j o ɾ m u s u n 
[529.215]
<no-speech> 
[532.085]
ʤ a n ɯ n s ɯ k ɯ ɫ ɯ j o ɾ m u 
[533.045]
<no-speech> 
[536.945]
s u d a m ɯ j o k 
[537.825]
<no-speech> 
[539.995]
s u d a m ɯ c e s i c 
[540.805]
<no-speech> 
[543.665]
e j w a 
[544.885]
<no-speech> 
[550.355]
j ɯ ɫ b i n d o k u z j y z j i ɾ m i i c i <laugh> k u ɾ t u ɫ u ʃ s a w a ʃ ɯ z a m aː n ɯ n d a e l e c t ɾ i c j o k s u j o k h e ɾ j e ɾ k a ɾ a ɫ t ɯ n d a 
[556.975]
<no-speech> 
[558.595]
<no-speech> 
[560.785]
<no-speech> 
[563.345]
<laugh> oː ʃ e j d i j a 
[569.305]
<no-speech> 
[571.545]
<no-speech> 
[571.985]
<no-speech> 
[574.325]
eː n e j a p ɯ j o ɾ ʃ i m d i o u z n e j a p ɯ j o ɾ p e c i 
[576.115]
<no-speech> 
[577.025]
h i ʧ 
[577.595]
<no-speech> 
[586.155]
h ɯ h ɯ 
[586.765]
<no-speech> 
[587.655]
e w e t <breath> s e n c a ʧ t a s e n c a ʧ t a k a ɫ k t ɯ n b u ɟ y n 
[591.525]
<no-speech> 
[594.645]
o n d a m ɯ u j a n d ɯ n 
[595.645]
<no-speech> 
[598.755]
n i j e h a b e ɾ <no-speech> 
[599.98]
