[0.0]
<no-speech> 
[0.555]
<no-speech> 
[0.925]
<no-speech> 
[2.055]
<no-speech> 
[2.695]
<no-speech> 
[3.965]
a ɫ o 
[4.605]
<no-speech> 
[5.855]
<click> 
[6.215]
<no-speech> 
[8.905]
n e j a p ɯ j o n s e n 
[10.365]
<no-speech> 
[11.265]
e n j a p ɯ j o n <breath> 
[13.765]
<no-speech> 
[14.855]
<no-speech> 
[15.295]
<no-speech> 
[16.104875]
<breath> n e j a p a j ɯ m ø j l e o t u ɾ u j o m b e n d e <no-speech> n a s ɯ ɫ s ɯ n 
[20.315]
<no-speech> 
[26.165]
i j i n e j e n e o ɫ m u ʃ t u n j a b e n d e ɟ e l d i m b a ɫ ɯ c e s i ɾ e 
[29.075]
<no-speech> 
[30.805]
<breath> b a ɫ ɯ c e s i ɾ d e n ɟ e l d i m b e n d e d a a j e n i 
[34.155]
<no-speech> 
[37.945]
a m a 
[38.485]
<no-speech> 
[40.395]
<int> i j i ɟ e ʧ t i j a <no-speech> i j i j aː n i b i t i ɾ e ʤ e i z i n ʃ a ɫ ɫ a 
[44.675]
<no-speech> 
[46.875]
<no-speech> 
[47.225]
<no-speech> 
[53.155]
d y n m a ʧ ɯ i z l e d i n m i t y ɾ c i j e m a ʧ ɯ n ɯ 
[55.055]
<no-speech> 
[56.615]
<no-speech> 
[56.995]
<no-speech> 
[59.515]
t y ɾ c i j e m a ʧ ɯ n ɯ i z l e d i n m i 
[60.915]
<no-speech> 
[62.035]
<no-speech> 
[62.465]
<no-speech> 
[63.395]
<no-speech> 
[63.745]
<no-speech> 
[66.415]
f u t b o ɫ f u t b o ɫ 
[67.445]
<no-speech> 
[70.955]
f u t b o ɫ e w e t i z l e d i n m i f u t b o ɫ m a ʧ ɯ n ɯ 
[72.905]
<no-speech> 
[75.985]
<no-speech> 
[76.495]
<no-speech> 
[77.595]
d y n f i n l a n d i j a j l a o j n a d ɯ k ɟ aː l i b a y ʧ i c i j e n i l d i c ɟ aː l i b a 
[81.105]
<no-speech> 
[85.915]
<breath> j aː 
[87.535]
<no-speech> 
[88.555]
j e n i l m i ʃ i z j a y ʧ i c i 
[90.105]
<no-speech> 
[91.475]
<hes> 
[92.275]
<no-speech> 
[93.435]
j e n i l m i ʃ i z j e n i l m i ʃ i z 
[94.875]
<no-speech> 
[99.365]
e w e t f i n l a n d i j a j e n d i b i z i y ʧ i c i 
[101.345]
<no-speech> 
[107.445]
a ɫ o 
[108.145]
<no-speech> 
[114.995]
<no-speech> 
[115.385]
<no-speech> 
[118.405]
j e t e ɾ m i 
[119.135]
<no-speech> 
[122.675]
a ɫ o a ɫ o 
[125.005]
<no-speech> 
[126.755]
<no-speech> 
[127.125]
<no-speech> 
[129.114875]
e f e n d i m 
[129.895]
<no-speech> 
[133.675]
a ɫ o 
[134.315]
<no-speech> 
[136.925]
ɟ e z i j o m ʃ u a n d a <no-speech> a ɾ a b a i ʧ i n d e 
[139.925]
<no-speech> 
[141.545]
b i z k u t ɫ u j o z d iː l m i 
[145.115]
<no-speech> 
[147.095]
a ɾ a b a n ɯ n i ʧ i n d e ɟ e z i j o z ɟ e z i j o z <no-speech> ɟ e l ʤ eː m b e n m a a l l e j e z a t e n 
[151.465]
<no-speech> 
[155.875]
a ɫ o <breath> 
[157.645]
<no-speech> 
[161.235]
a ɫ o 
[161.955]
<no-speech> 
[165.155]
a ɫ o 
[165.655]
<no-speech> 
[169.68]
