[0.0]
<dtmf> 
[3.035]
<dtmf> 
[3.385]
<dtmf> 
[4.645]
a ɫ o 
[5.405]
<no-speech> 
[6.885]

[7.655]
<no-speech> 
[9.525]
d u j u j o m 
[10.535]
<no-speech> 
[11.465]
d u j u j o m 
[12.155]
<no-speech> 
[13.135]
<no-speech> 
[13.515]
<no-speech> 
[16.245]
i j i n e j a p a j ɯ m j a k a b ɫ o ʧ e c i j o m ø j l e o ɾ t a ɫ ɯ a a ɫ o 
[20.155]
<no-speech> 
[22.065]
a ɫ o ɯ m h ɯ m 
[24.265]
<no-speech> 
[26.595]
d i n l i j o m b e n s e n i d i n l i j o m 
[28.105]
<no-speech> 
[29.815]

[31.105]
<no-speech> 
[41.695]
a ɫ ɫ a a ɫ ɫ a 
[43.375]
<no-speech> 
[45.315]
b i z w a ɾ j a 
[47.815]
<no-speech> 
[56.785]
e w e t 
[57.645]
<no-speech> 
[60.355]
b i z u ɫ a ʃ a m ɯ j o z d o s t u m j a c i m a ʧ t ɯ t e l e f o n u n u c i m a ʧ t ɯ c i m a ʧ t ɯ 
[67.255]
<no-speech> 
[72.445]

[73.595]
<no-speech> 
[74.895]

[77.925]
<no-speech> 
[82.565]
u f u f b i z w a ɾ j a i ʃ j a p ɯ j o z ʃ i m d i b i s aː t e b i t m e z b u i ʃ j a 
[87.465]
<no-speech> 
[89.515]
a ɫ o 
[90.235]
<no-speech> 
[95.545]
h e p t e n s ɯ k ɯ n t ɯ d o s t u m j a h a j aː t w a ɾ j a b i z i b u ɾ a ɫ a ɾ d a 
[100.295]
<no-speech> 
[102.195]
n e k a b ɫ o j e t i ʃ i j o ɾ 
[105.005]
<no-speech> 
[106.465]
ɯ m h ɯ m 
[107.075]
<no-speech> 
[109.705]
h e j a k a b ɫ o j e t i ʃ m i j o ɾ u z a t m a ʧ e c t i ɾ i j o m a d a m ɫ a ɾ a u z a t m a j e t m i j o ɾ o ɾ d a n b a ɯ ɾ ɯ j o ɾ ɟ y ɾ y l t y d e h a d i ʧ a b u k o ɫ i ʃ j e t i ʃ m i ʤ e k 
[118.305]
<no-speech> 
[119.565]
i ʃ j e t i ʃ m i ʤ e k d e b e n n e j a p a j ɯ m 
[122.695]
<no-speech> 
[125.415]
h i ʧ d e ɾ t l e ɾ i b i t m i j o ɾ j a 
[126.995]
<no-speech> 
[129.595]
s e n n a p ɯ j o n ʃ i m d i n e ɾ e d e s i n 
[131.215]
<no-speech> 
[133.055]

[134.805]
<no-speech> 
[137.245]
a j n ɯ i ʃ t e m i s i n 
[138.575]
<no-speech> 
[139.405]
a j n ɯ i ʃ t e m i s i n 
[140.505]
<no-speech> 
[142.875]
<no-speech> 
[143.305]
<no-speech> 
[145.985]
d i j o ɾ 
[146.825]
<no-speech> 
[149.475]
a ɾ a d ɯ m 
[150.935]
<no-speech> 
[153.555]
ɟ e ʧ e n d e ʧ aː ɫ a ɾ ɫ a k o n u t u k ʧ aː ɫ a ɾ 
[155.925]
<no-speech> 
[158.665]
ʧ aː ɫ a ɾ ʧ aː ɫ a ɾ 
[160.055]
<no-speech> 
[161.135]

[163.625]
<no-speech> 
[165.775]
i c i h a f t a o ɫ u j o ɾ h e ɾ a l d e j a 
[167.635]
<no-speech> 
[171.495]

[173.005]
<no-speech> 
[175.695]
i j i i j i d o s t u m i j i j a 
[177.865]
<no-speech> 
[179.185]
h e p ɟ e l i ʤ e z d i j o n u z a n a s ɯ n ɯ s a t a j ɯ m h i ʧ h i ʧ b i ɾ j o ɫ j o k 
[185.015]
<no-speech> 
[189.395]
n e 
[189.915]
<no-speech> 
[194.125]
n e j a p m a d ɯ n 
[194.995]
<no-speech> 
[198.115]
ɯ m h ɯ m 
[199.135]
<no-speech> 
[202.145]
s ɯ n a w ɯ n e j a p t ɯ n 
[203.165]
<no-speech> 
[206.305]
s ɯ n a w ɯ n e j a p t ɯ n s ɯ n a w ɯ 
[207.455]
<no-speech> 
[209.315]
n a s ɯ ɫ j a 
[210.615]
<no-speech> 
[215.885]
e 
[217.985]
<no-speech> 
[220.975]
e 
[221.695]
<no-speech> 
[229.03]
<no-speech> 
[236.365]
eː ɟ i t m e d i n e 
[237.635]
<no-speech> 
[239.775]
eː ø b y ɾ 
[241.875]
<no-speech> 
[251.805]
ø j l e i ʃ m i o ɫ u ɾ m u ʃ oː ɫ u m j a 
[253.525]
<no-speech> 
[258.054875]
h a ɾ b i m i l a 
[258.984875]
<no-speech> 
[265.565]
ɯ m h ɯ m 
[266.055]
<no-speech> 
[270.395]
h a n ɟ i h o ʤ a ɟ i ɾ i j o ɾ c i 
[272.175]
<no-speech> 
[273.825]
n eː j 
[274.325]
<no-speech> 
[276.665]
t a m a m a b i 
[277.475]
<no-speech> 
[279.255]
s ɯ n a w ɯ n e z a m aː n b ɯ ɾ a k m ɯ ʃ d e w a m s ɯ z ɫ ɯ k t a n j a 
[281.395]
<no-speech> 
[283.435]
j o k 
[284.845]
<no-speech> 
[289.585]
e w d e d iː l m i 
[290.635]
<no-speech> 
[292.525]
m i 
[293.455]
<no-speech> 
[295.085]
d e w a m s ɯ z ɫ ɯ k t a n a j n e n d oː ɾ u s ø j l y j o n 
[296.765]
<no-speech> 
[297.685]
n i j e b ɯ ɾ a k m ɯ ʃ c i l a w u k 
[299.025]
<no-speech> 
[300.945]
n i j e b ɯ ɾ a k m ɯ ʃ c i 
[302.195]
<no-speech> 
[304.935]

[305.735]
<no-speech> 
[310.095]
h a j ɯ ɾ ɫ ɯ s ɯ h a j ɯ ɾ ɫ ɯ s ɯ k o ʧ u m h a j ɯ ɾ ɫ ɯ s ɯ 
[312.845]
<no-speech> 
[317.555]
oː ɫ u m b e n b e n d e d e w a m s ɯ z ɫ ɯ k t a n c a ɫ d ɯ m d a 
[321.235]
<no-speech> 
[322.575]
b e n e n a z ɯ n d a n s ɯ n a w a s o k t u m c e n d i m i 
[325.145]
<no-speech> 
[325.985]
s ɯ n a w a s o k t u m c e n d i m i d e n o ɾ m a ɫ s ɯ n a w d a n c a ɫ d ɯ m b e n 
[328.695]
<no-speech> 
[330.635]
ɟ e n e c a ɫ d ɯ m j aː n i 
[331.825]
<no-speech> 
[332.745]
f a ɾ k e d e n b i ʃ e j o ɫ m a d ɯ 
[333.995]
<no-speech> 
[335.685]
ɯ m h ɯ m f a ɾ k e d e n b i ʃ e j j o k 
[337.785]
<no-speech> 
[340.615]
n e j a p ʤ aː z b i l i j o n m u b u d ø n e m y ʧ t a n e m i d e ɾ s i n w a ɾ s e n i n 
[343.405]
<no-speech> 
[346.765]
d u j u j o n m u b e n i 
[347.725]
<no-speech> 
[348.685]
ɯ m h ɯ m y ʧ t a n e d e ɾ s e ɟ i ɾ i ʤ e n b e n d e y ʧ t a n e d e ɾ s e ɟ i ɾ i ʤ e m n e 
[352.545]
<no-speech> 
[357.365]
y ʧ t a n e d e ɾ s i a ɫ ɯ ʤ a z 
[358.675]
<no-speech> 
[359.605]
s ɯ n a w ɫ a ɾ ɯ n a ɟ i ɾ ʤ eː z 
[360.735]
<no-speech> 
[363.695]
s ɯ n a w ɫ a ɾ ɯ n a ɟ i ɾ ʤ eː z ɟ e l i ʤ e z 
[365.335]
<no-speech> 
[368.965]
s e n d e oː ɫ u m ʧ a ɫ ɯ ʃ m ɯ ʃ t ɯ n oː k a d a ɾ b i d e 
[371.155]
<no-speech> 
[372.475]
<no-speech> 
[372.825]
<no-speech> 
[374.255]
ʧ a ɫ ɯ ʃ m a m ɯ ʃ m ɯ j d ɯ n 
[375.365]
<no-speech> 
[380.255]
t e s t m i s o ɾ m u ʃ 
[381.355]
<no-speech> 
[383.505]
ɯ m h ɯ m 
[385.015]
<no-speech> 
[386.775]
s a ɫ ɫ a s a n ɟ e ʧ e ɾ d i n l a n b e l c i 
[388.585]
<no-speech> 
[393.665]
n eː j 
[394.155]
<no-speech> 
[395.195]

[395.895]
<no-speech> 
[396.835]
ɯ m h ɯ m 
[397.315]
<no-speech> 
[401.715]
c ø t y o ɫ m u ʃ l a n oː 
[402.835]
<no-speech> 
[405.685]
n e 
[406.255]
<no-speech> 
[408.175]
j a z o k u ɫ u n d a m ɯ 
[409.155]
<no-speech> 
[411.695]
h a n ɟ i d e ɾ s b u 
[412.745]
<no-speech> 
[414.055]
h a n ɟ i d e ɾ s h a n ɟ i d e ɾ s 
[415.235]
<no-speech> 
[417.805]
m u aː s e b e m i 
[419.445]
<no-speech> 
[421.885]

[425.285]
<no-speech> 
[432.02]
<no-speech> 
[438.755]
a j n ɯ oː z a m aː n d u ɾ u m ɫ a ɾ ɯ m ɯ z n e ɾ d e j s e 
[440.935]
<no-speech> 
[447.985]

[449.055]
<no-speech> 
[450.215]
n a s ɯ ɫ o ɫ ʤ a k b ø j l e 
[451.525]
<no-speech> 
[459.865]
<no-speech> 
[460.215]
<no-speech> 
[466.785]
oː ɫ u m 
[469.905]
<no-speech> 
[471.735]
n e 
[474.685]
<no-speech> 
[481.99]
<no-speech> 
[489.295]
a j n e n a j n e n d o s t u m h a j ɯ ɾ ɫ ɯ s ɯ d i ʤ e z oː z a m aː n b i ʃ e j l e ɾ j a p m a j a ʧ a ɫ ɯ ʃ ʤ aː z 
[494.705]
<no-speech> 
[500.275]
u f a ɾ t ɯ k 
[503.195]
<no-speech> 
[505.315]
ʃ a ɾ t j aː n i a ɾ t ɯ k b i ʃ e c i l d e b i t i ɾ m e c 
[507.635]
<no-speech> 
[512.555]
s e n ʃ i ɾ c e t t e m i s i n ʃ i m d i j a 
[514.515]
<no-speech> 
[520.955]
eː n e j a p ɯ j o n s e n ʃ i m d i b ø j l e n e a j a k 
[524.665]
<no-speech> 
[526.065]
<no-speech> 
[526.935]
<no-speech> 
[532.425]
<no-speech> 
[532.865]
<no-speech> 
[533.785]
w a j c i n e w a j l a n 
[535.115]
<no-speech> 
[538.205]
d i j o n 
[539.005]
<no-speech> 
[545.365]
n e ɯ m h ɯ m a j ɯ k t ɯ m a j ɯ k t ɯ m 
[547.695]
<no-speech> 
[549.745]
i j i b a k a ɫ ɯ m d o s t u m i j i i j i a ɫ ɫ a z a ɾ a ɾ w e ɾ m e s i n d e 
[555.545]
<no-speech> 
[558.415]
<no-speech> 
[562.975]
<no-speech> 
[564.195]
<no-speech> 
[567.655]
<no-speech> 
[568.605]
d a a ʧ o k m u j m u ʃ <int> h e j 
[574.495]
<no-speech> 
[575.965]
<no-speech> 
[577.165]
<no-speech> 
[578.325]
w a j c i w a j l a 
[579.855]
<no-speech> 
[584.165]
<laugh> s e n i n i ʃ j e ɾ i n m i b u 
[587.035]
<no-speech> 
[589.135]
c i m l e ɾ 
[589.905]
<no-speech> 
[591.605]
c i m l e ɾ <int> 
[594.965]
<no-speech> 
[596.745]
n e j a p s ɯ n 
[598.22]
