[0.0]
<no-speech> 
[1.735]

[2.245]
<no-speech> 
[3.305]
<no-speech> 
[3.655]
<no-speech> 
[5.645]
a ɫ o 
[6.405]
<no-speech> 
[8.305]
a ɫ o 
[8.975]
<no-speech> 
[9.955]
n a n e j a p ɯ j o n 
[11.725]
<no-speech> 
[12.935]
d u j u j o ɾ m u s u n 
[13.845]
<no-speech> 
[16.795]
d u j u j o ɾ m u s u n d i j o m 
[18.125]
<no-speech> 
[19.015]
e w d e j i m b e n d e ʃ i m d i o t u ɾ u j o m s e l e n l e k o n u ʃ t u m 
[23.375]
<no-speech> 
[25.225]
d u j m u j o n s e l e n l e k o n u ʃ t u m d i j o m n e j a p ɯ j o n d i j o n 
[28.595]
<no-speech> 
[30.125]
ɟ e ʧ ɟ e l m i j o ɾ s e s i m h e ɾ h a l d e a n ɫ a m a d ɯ m c i <int> a ɫ o 
[33.945]
<no-speech> 
[35.955]
<int> d u j u j o ɾ d u j u j o ɾ m u s u n b e n i b e n s e n i d u j u j o m d a b e n i m s e s i m s o n ɾ a d a n m ɯ ɟ e l i j o ɾ s a n a 
[41.665]
<no-speech> 
[46.575]
e w e t i ʃ t e n e j a p ɯ j o n s e l e n l e k o n u ʃ t u m d i j o m n e j a p ɯ j o n d i j o n b a n a 
[51.755]
<no-speech> 
[57.705]
b a j a i j i 
[58.965]
<no-speech> 
[60.205]
i ʃ t e s e l e n l e k o n u ʃ t u m 
[61.985]
<no-speech> 
[63.035]
d a a j e n i b i t t i c a w a ɫ t ɯ j a b e n i m s e n i n d e j e n i b i t t i k a w a ɫ t ɯ n i ʃ t e d e d i m a k ʃ a m a d oː ɾ u j aː n i a k ʃ a m y s t y f a ɫ a n ɟ i d e ɾ i z d e d i m ʤ i a n ɟ i ɾ e 
[72.415]
<no-speech> 
[74.335]
i ʃ t e oː d a t e z t e z f a ɫ a n j a z m a m l aː z ɯ m j e t i ʃ t i ɾ m e m l aː z ɯ m f a ɫ a n b i ʃ e j l e ɾ d e d i d e i ʃ t e b i ɾ a z d a n ɟ e n e a ɾ ɯ ʤ aː m o n u 
[82.645]
<no-speech> 
[88.185]
b i t t i d e ʃ e j j a p ʤ a k m ɯ ʃ ø n s ø z y n y n s o n b i t i ʃ i n i j a z a ʤ a k m ɯ ʃ i ʃ t e 
[94.745]
<no-speech> 
[98.555]

[99.775]
<no-speech> 
[101.405]
n e d i j o ɾ 
[102.405]
<no-speech> 
[103.935]
ɯ m h ɯ m j a ɾ ɯ n m ɯ a k ʃ a m y s t y n e d oː ɾ u ɟ i t m e c d a a 
[107.975]
<no-speech> 
[110.135]
h ɯ m 
[110.835]
<no-speech> 
[112.305]
a k ʃ a m a d oː ɾ u ɟ i t m e c d a a m a n t ɯ k ɫ ɯ b e n d e ʧ o k t o k u m j aː n i k u s y ʤ aː m b i ɾ a z d a n 
[116.955]
<no-speech> 
[121.265]
j a i ʃ t e a n ʤ a d a a s o n ɾ a ɟ i d e ɾ i z 
[124.055]
<no-speech> 
[126.385]
s e l i n e ɾ d aː j ɫ a b u ɫ u ʃ t u i ʃ t e 
[128.414875]
<no-speech> 
[130.144875]
e ɾ d aː j ɫ a b u ɫ u ʃ t u e ɾ d a ɯ m h ɯ m 
[133.135]
<no-speech> 
[135.385]
a j n e n 
[136.075]
<no-speech> 
[138.115]
n e o n ɫ a ɾ b u ɫ u ʃ u j o ɾ j a s e l i n l e 
[140.515]
<no-speech> 
[142.425]
i ʃ t e o n ɫ a ɾ b u ɫ u ʃ t u k ɯ z a ɫ ɯ ʃ w e ɾ i ʃ m e ɾ c e z i n d e n b i ʃ e j a ɫ ɯ ʤ a k m ɯ ʃ 
[147.525]
<no-speech> 
[150.075]
o n u n ɫ a d o ɫ a n a ʤ a k m ɯ ʃ b iː ɾ a z s o n ɾ a s i z i n j a n ɯ n ɯ z a ɟ e l i ɾ i m f a ɫ a n b i ʃ e j d e d i d e 
[154.855]
<no-speech> 
[155.975]
b i z ʧ ɯ k a n a oː k a d a ɾ ʧ o k t a n a j ɾ ɯ ɫ m ɯ ʃ o ɫ u ɾ o n d a n z a t e n j aː n i 
[160.325]
<no-speech> 
[164.485]
d a a w a ɾ z a t e n j a a k ʃ a m a d oː ɾ u ʧ ɯ k a ɫ ɯ m d a a i j i j aː n i 
[168.265]
<no-speech> 
[170.625]
eː a k ʃ a m a d oː ɾ u ɟ i d e ɾ s e c ɟ e l i ɾ 
[172.735]
<no-speech> 
[177.785]
h ɯ m 
[178.485]
<no-speech> 
[179.385]
a j n e n n e ɾ e d e o n u n i ʃ j e ɾ i b i l m i j o m b e n a m a 
[182.135]
<no-speech> 
[184.055]
o s m a n b e j d e m i j d i i ʃ j e ɾ i 
[186.105]
<no-speech> 
[187.555]
h ɯ m 
[188.135]
<no-speech> 
[189.675]
e w e t 
[190.335]
<no-speech> 
[191.515]
eː o s m a n b e j d e n m e t ɾ o j ɫ a ɟ e l i ɾ i ʃ t e 
[194.375]
<no-speech> 
[195.435]
i s t e ɾ s e 
[196.325]
<no-speech> 
[201.005]
b i l m e m 
[201.975]
<no-speech> 
[204.545]
b i l m e m c i 
[205.685]
<no-speech> 
[207.465]
j a o ɫ m a d ɯ i s t i j o s a n ɯ z ʤ a d o j a ɟ i d e ɾ i z j e m e c j e ɾ i z o ɾ d a n ʤ i a n ɟ i ɾ e ɟ i d e ɾ i z c a w e i ʧ m e j e 
[212.895]
<no-speech> 
[218.825]

[219.755]
<no-speech> 
[222.015]
ʃ e j n a s ɯ ɫ ɾ ɯ f a t n a s ɯ ɫ 
[224.445]
<no-speech> 
[232.835]
h ɯ eː i j i j a 
[234.665]
<no-speech> 
[235.505]
z a t e n b i h a f t a ɫ ɯ k b i ʃ e j b i h a f t a b i l e d iː l j aː n i b e ʃ a ɫ t ɯ ɟ y n l y c 
[240.765]
<no-speech> 
[244.175]
h ɯ m 
[244.845]
<no-speech> 
[250.035]
ɯ m h ɯ m p a ɾ i s f a ɫ a n w a ɾ m ɯ 
[252.195]
<no-speech> 
[260.955]
ɯ m h ɯ m eː i j i j a 
[262.915]
<no-speech> 
[264.385]
i j i j aː n i s a n a ɟ e ʧ m e d i j aː n i ɟ e ʧ m e z h e ɾ h a l d e b u b u s aː t t e n s o n ɾ a 
[269.945]
<no-speech> 
[274.105]
h ɯ m 
[274.845]
<no-speech> 
[275.675]
w a ɫ ɫ aː 
[276.445]
<no-speech> 
[278.055]

[278.655]
<no-speech> 
[281.025]
<laugh> n e j s e b e n ɟ e ʧ i ɾ d i m b e n i m j a n ɯ m d a d o ɫ a n a b i l i ɾ s i n 
[284.985]
<no-speech> 
[285.785]
<no-speech> 
[286.305]
<no-speech> 
[288.115]
e w e t <laugh> a j n e n c y ʧ y c c e n k a b a k u ɫ a k 
[295.905]
<no-speech> 
[297.085]
a ɫ p a ɫ p ɟ e ʧ i ɾ m e m i ʃ m i 
[298.675]
<no-speech> 
[301.485]
a l i 
[302.075]
<no-speech> 
[307.075]
aː 
[308.085]
<no-speech> 
[314.885]
t a m a m d a oː 
[316.305]
<no-speech> 
[319.005]
eː i ʃ t e c y ʧ y c c e n j a ʃ a m a m ɯ ʃ s a n ʃ i m d i j a ʃ ɯ j o n i ʃ t e 
[322.685]
<no-speech> 
[324.695]
j aː n i oː h a s t a ɫ ɯ k b i ʃ e c i l d e s e n i b u ɫ m a s ɯ ɟ e ɾ e c i j o ɾ 
[328.165]
<no-speech> 
[336.575]
a m a b e n i m b i l d i j i m oː h e ɾ ʃ e c i l d e j a ʃ a n ɯ ɾ j aː n i oː h a s t a ɫ ɯ k t a 
[341.405]
<no-speech> 
[349.695]
h ɯ m 
[350.425]
<no-speech> 
[352.975]
h ɯ o ɫ a b i l i ɾ w a ɫ ɫ aː 
[355.215]
<no-speech> 
[358.795]
e w e t j a ʧ o k e n t e ɾ e s a n 
[360.925]
<no-speech> 
[363.515]
a n ɫ a d ɯ m 
[364.685]
<no-speech> 
[366.835]
a ɫ ɫ a a ɫ ɫ a c i m d e n k a p t ɯ a ʤ a b a 
[368.875]
<no-speech> 
[372.805]
c i m d e n k a p t ɯ d i j o m a ʤ a b a ʧ o k g a ɾ i p 
[375.185]
<no-speech> 
[382.905]
a n ɫ a m a d ɯ m c i b e n d e 
[384.315]
<no-speech> 
[386.225]
e w e t 
[386.805]
<no-speech> 
[389.195]
a n ɫ a d ɯ m 
[390.015]
<no-speech> 
[394.575]
n e d i j e 
[395.445]
<no-speech> 
[398.555]
h ɯ m 
[399.215]
<no-speech> 
[402.105]
ɯ m h ɯ m a n ɫ a d ɯ m 
[404.285]
<no-speech> 
[406.675]
o n u n ɫ a d a k o n u ʃ b a k a ɫ ɯ m 
[408.385]
<no-speech> 
[410.055]
s e n i n m i <click> 
[411.305]
<no-speech> 
[412.405]
<click> a ɫ o 
[414.105]
<no-speech> 
[415.005]
ɯ m h ɯ m a n ɫ a d ɯ m 
[417.135]
<no-speech> 
[418.115]
d u j u j o m d u j u j o m 
[419.385]
<no-speech> 
[423.095]
a n ɫ a d ɯ m 
[423.895]
<no-speech> 
[425.145]
<breath> ʃ i m d i j a p i s t i j o s a n s o n ɾ a a k ʃ a m a ɾ a a t o ɫ u ɾ s u n 
[429.795]
<no-speech> 
[435.895]
a n ɫ a d ɯ m 
[436.765]
<no-speech> 
[438.485]
ɯ m h ɯ m a n ɫ a d ɯ m 
[440.805]
<no-speech> 
[444.115]
i j i 
[444.795]
<no-speech> 
[446.395]
a ɫ o 
[447.025]
<no-speech> 
[449.365]
<hes> ʃ e j <laugh> 
[454.025]
<no-speech> 
[456.615]
i ʃ t e h e b e n i m d e ʃ e j l e ɾ i m w a ɾ n e d e n i ɾ i c i t a n e s i a ʧ ɯ k ɫ a n m ɯ ʃ n o t ɫ a ɾ ɯ m ɯ n l eː j eː s eː d e 
[466.095]
<no-speech> 
[468.335]
ɯ m h ɯ m j a i c i t a n e s i s aː d e ʤ e b i t a n e s i aː aː b i t a n e s i b eː aː 
[473.275]
<no-speech> 
[475.085]
n e 
[475.715]
<no-speech> 
[477.735]
<no-speech> 
[478.515]
<no-speech> 
[479.965]
<breath> b a j a i j i j aː n i 
[482.195]
<no-speech> 
[485.335]
aː aː b eː aː i ʃ t e 
[488.405]
<laugh> b i l m i j o m w a ɫ ɫ aː j a b i t a n e b a j a b i z o ɾ d e ɾ s w a ɾ d ɯ m i l l e t h e ɾ c e s j aː n i c a ʧ t a n e f eː f eː w a ɾ m ɯ ʃ b a k t ɯ m 
[499.745]
z o ɾ ɟ e l m e m i ʃ t i h a n i s a n a s ø j l e m i ʃ t i m j a h e ɾ h a f t a f i l m i z l i j o z i ʃ t e m a c aː l e o k u j o z f a ɫ a n f i ɫ a n 
[505.815]
<no-speech> 
[509.105]
oː d e ɾ s i ʃ t e o n d a n b eː aː ɟ e l m i ʃ 
[511.805]
<no-speech> 
[512.615]
b eː aː oː b eː aː 
[514.045]
<no-speech> 
[518.355]
h e o n ɫ a ɾ d a a ɟ e l m e d i ɾ e c ɫ a m a n a l i z i n d e n aː aː a ɫ d ɯ m i ʃ t e 
[522.605]
<no-speech> 
[523.965]
d iː e ɾ l e ɾ i j o k d a a o ɾ t a ɫ ɯ k t a 
[526.345]
<no-speech> 
[527.145]
j aː n i 
[527.835]
<no-speech> 
[529.165]
<no-speech> 
[529.535]
<no-speech> 
[532.325]
h ɯ m 
[533.125]
<no-speech> 
[534.145]
ʃ i m d i l i c f e n aː d iː l i ʃ t e b a k a ɫ ɯ m d iː e ɾ l e ɾ i i s i s p a n j o ɫ ʤ a d a i j i ɟ e l i ɾ i ʃ t e b a k a ɫ ɯ m d iː e ɾ l e ɾ i 
[540.855]
<no-speech> 
[543.235]
a ɫ o 
[543.855]
<no-speech> 
[545.805]
d i j e b i s e s ʧ ɯ k t ɯ e w e t 
[548.275]
<no-speech> 
[550.235]
a ɫ o 
[550.835]
<no-speech> 
[552.145]
a ɫ o <int> 
[553.025]
<no-speech> 
[554.275]
d u j u j o m s e s i n ɟ e ɾ i d e n ɟ e l d i 
[557.595]
<no-speech> 
[560.185]
<no-speech> 
[560.535]
<no-speech> 
[563.795]
ɯ m h ɯ m ɟ e ʧ ɟ e l i j o ɾ s e s 
[565.325]
<no-speech> 
[566.815]
ø j l e i ʃ t e 
[567.955]
<no-speech> 
[569.045]
d iː e ɾ l e ɾ i d e ɟ e l s i n d e o n d a n s o n ɾ a b e l l i o ɫ u ɾ j aː n i 
[573.805]
<no-speech> 
[576.015]
d e b u d ø n e m ʧ o k k o ɫ a j ɟ e ʧ t i z a t e n 
[578.545]
<no-speech> 
[581.115]
o ɾ t a ɫ a m a m f e n aː d iː l z a t e n c a ʧ s e n e d e n b e ɾ i i j i b a j a o ɾ t a ɫ a m a m d a <int> ø n e m l i o ɫ a n i c i n ʤ i d ø n e m t e z f a ɫ a n w e ɾ i ʤ eː m a s ɯ ɫ o n ɫ a ɾ ʧ o k z o ɾ 
[590.105]
<no-speech> 
[595.565]
a s ɫ ɯ n d a t e z j a z m a j ɯ d y ʃ y n y j o m f i l m ʧ e c m e c l e uː ɾ a ʃ a m ɯ ʤ aː m ɟ aː l i b a 
[599.155]
<no-speech> 
[599.98]
