[0.0]
<no-speech> 
[2.105]

[3.775]
<no-speech> 
[8.975]
<int> a ɫ o 
[10.255]
<no-speech> 
[12.065]
a ɫ o 
[12.765]
<no-speech> 
[14.405]
n e o ɫ m u ʃ t u n i j i l i c 
[15.675]
<no-speech> 
[17.455]
ɟ e l i j o ɾ ɟ e l i j o ɾ 
[18.595]
<no-speech> 
[20.985]

[22.085]
<no-speech> 
[23.345]

[26.005]
<no-speech> 
[27.645]
b e n 
[28.555]
<no-speech> 
[30.185]

[31.215]
<no-speech> 
[32.505]

[33.875]
<no-speech> 
[36.025]
h e 
[36.565]
<no-speech> 
[38.235]
j o k oː oː d a o t u ɾ u j o ɾ 
[41.595]
<no-speech> 
[43.375]
h ɯ o t u ɾ u j o ɾ 
[44.225]
<no-speech> 
[47.185]
i ʃ t e o t u ɾ u j o z 
[49.175]
<no-speech> 
[50.255]
h a w a j aː j o ɾ j aː m u ɾ ɫ u 
[51.805]
<no-speech> 
[52.805]
w a ɾ m ɯ 
[53.895]
<no-speech> 
[55.685]
h e 
[56.275]
<no-speech> 
[58.885]
<no-speech> 
[59.235]
<no-speech> 
[62.175]
h ɯ a j n ɯ a j n ɯ b u ɾ a s ɯ d a a j n ɯ 
[64.205]
<no-speech> 
[65.085]
h ɯ b u ɾ a d a a j n ɯ j aː j o ɾ h e 
[69.495]
<no-speech> 
[73.285]
h a f t a d a n s o n ɾ a t o p ɫ a n ɯ ɾ ɫ a ɾ ʃ i m d i b i d a a h a f t a d a n s o n ɾ a 
[79.915]
<no-speech> 
[81.395]
t o p ɫ a n ɯ ɾ j aː n i h e 
[82.765]
<no-speech> 
[83.605]
h e b e n i m t o p ɫ a n ɯ ɾ j aː n i ɾ a m a z a n d a t a b i 
[86.285]
<no-speech> 
[87.445]

[88.465]
<no-speech> 
[90.535]
ɾ a m a z a n a b i ʃ e j c a ɫ m a d ɯ c i 
[94.675]
<no-speech> 
[96.655]
b i ʃ e j c a ɫ m a d ɯ c i ɾ a m a z a n a 
[98.165]
<no-speech> 
[100.085]
h ɯ 
[100.645]
<no-speech> 
[101.505]
j i ɾ m i ɟ y n c a ɫ d ɯ 
[102.435]
<no-speech> 
[105.155]
<int> 
[106.025]
<no-speech> 
[108.785]
b i l m i j o m b i ʃ e j d e m i j o ɾ ø j l e b i d i j o ɾ d u a m a b i l m i j o m b i <hes> a l i u ʃ a k o k u ɫ a ʤ a m i j e ɟ i d i j o ɾ j a a l i p e c ɟ i t m i j o ɾ b i l m i j o m b e n z a t e n d i j o ɾ d u c i 
[120.495]
<no-speech> 
[124.885]
h e h e j e ɾ a m a z a n a ʃ e j e b e n ɟ i d e m e m d e m i ʃ ø j l e <hes> ø j l e d e d i ʃ e j b e l l i j a b e l l i ɟ e n e b a k ɯ n 
[136.165]
<no-speech> 
[137.065]
h e ɾ a m a z a n d a n s o n ɾ a 
[139.775]
<no-speech> 
[140.785]
ʃ e j d i j o ɾ 
[143.505]
<no-speech> 
[144.425]
k a j n a t ɯ s ɯ j ɫ a c a ɾ d e ʃ i j l e 
[146.045]
<no-speech> 
[149.425]
<no-speech> 
[150.705]
<no-speech> 
[152.865]
h ɯ h ɯ a j ʃ e oː d a a j ʃ e 
[154.235]
<no-speech> 
[159.405]
h ɯ h ɯ b i j e ɾ b i j e ɾ 
[162.575]
<no-speech> 
[164.145]
h e 
[165.505]
<no-speech> 
[166.705]
n e j a p ɯ j o ɾ 
[168.085]
<no-speech> 
[169.655]
ɟ e l i j o ɾ ɟ e l i j o ɾ 
[170.765]
<no-speech> 
[177.385]
h ɯ <hes> 
[178.605]
<no-speech> 
[183.015]
h ɯ h ɯ i j i d a 
[186.775]
<no-speech> 
[187.995]
h ɯ a j ʃ e j l e ɟ i t t i ø j l e p a z a ɾ ɟ y n y b i ɟ i t s e d a j ɯ s ɯ j ɫ a d a 
[192.675]
<no-speech> 
[194.055]
h ɯ j a 
[195.645]
<no-speech> 
[197.215]
h ɯ 
[197.795]
<no-speech> 
[200.195]
h ɯ h ɯ ɟ i d i n ɟ i d i n ɟ e z e ɾ s i n i z 
[202.535]
<no-speech> 
[203.575]
eː c ø c s a ɫ i l e ɟ i d i n 
[204.765]
<no-speech> 
[206.815]

[207.225]
<no-speech> 
[208.635]
h ɯ h ɯ ɟ i d i n t a b i ɟ i d i n 
[213.665]
<no-speech> 
[215.725]
w a ɫ ɫ aː i 
[216.505]
<no-speech> 
[220.175]
h ɯ d a a ɟ i d ʤ e c m i j m i ʃ d e ɾ s h aː n e l e ɾ e d i j o m 
[223.225]
<no-speech> 
[226.675]
h e 
[227.205]
<no-speech> 
[228.545]
j aː n i o k u j ʤ a k m ɯ d a a ʃ i m d i b u j a z h ɯ h ɯ d i j o m d a o k u j ʤ a k m ɯ 
[232.965]
<no-speech> 
[234.675]
j aː n i <hes> ʃ i m d i d e ɾ s h aː n e l e ɾ e ɟ i d ʤ e c m i d i j o m h a j a z ɯ n 
[239.285]
<no-speech> 
[243.275]
h ɯ i j i 
[244.245]
<no-speech> 
[245.475]

[245.845]
<no-speech> 
[247.665]
h a e w e t d a 
[249.165]
<no-speech> 
[250.615]
e w d e ʧ a ɫ ɯ ʃ ʤ a k ʧ o ʤ u k ø j l e m i 
[253.275]
<no-speech> 
[254.135]
h ɯ 
[254.945]
<no-speech> 
[256.775]
h ɯ 
[257.585]
<no-speech> 
[258.515]
i j i b i j a ɾ a m a z ɫ ɯ k j o k 
[260.825]
<no-speech> 
[262.495]

[262.855]
<no-speech> 
[264.825]

[265.445]
<no-speech> 
[267.775]
k ɯ z ɯ n ɯ ɟ i d i p a ɫ m a d ɯ h a s a n a ɾ a b a j ɫ a ɟ e l m i ʃ t i ø t e d e n ɟ i t m e d i d e p a z a ɾ a 
[279.735]
b i z d e ɟ i t t i c b i ʃ e j l e ɾ a ɫ m a j a s a ɫ a t a ɫ ɯ k b i ʃ e j l e ɾ p a z a ɾ d a n b i z j e ɾ i z d a a ɾ a b a j ɯ ɟ e t i ɾ m i ʃ o ɾ a j a b e k l e t i j o ɾ b i z i k ɯ z ɯ m ɟ e l i j o ɾ 
[291.715]
h a s a n h a h e h a s a n ɟ e l ʤ e c t i o n u a ɫ ʤ a k t ɯ b e n d e b iː ɾ a z d o ɫ a ʃ a ʤ a k t ɯ k p a z a ɾ ɯ 
[298.965]
<no-speech> 
[299.865]
b a ʃ t a n p i ʃ m a n o ɫ d u m a m a 
[302.705]
<no-speech> 
[304.015]
h ɯ j a n e b i l e j i m ɟ e n e n e j a p ɯ j o ɾ ʃ i m d i d e ɟ e n e ɟ i d e ɾ i m k a f a m a ɟ e ʧ m i j o ɾ 
[309.335]
<no-speech> 
[310.255]

[311.515]
<no-speech> 
[312.865]
j aː n i o j n a m a z s a n k u d u ɾ u j o ɾ o j n a m a z s a n k u d u ɾ u j o ɾ <laugh> o j n a m a z s a n k u d u ɾ u j o ɾ b y t y n 
[324.685]
s o b a j ɯ j a k ɯ j o m h e 
[328.885]
<no-speech> 
[330.025]
h e <laugh> 
[332.155]
<no-speech> 
[333.685]
h ɯ h ɯ <laugh> b a j ɯ ɫ d ɯ b a j ɯ ɫ d ɯ 
[340.125]
<no-speech> 
[341.135]
b a j ɯ ɫ d ɯ c a p ɯ j ɯ o j n u j o ɾ ʧ i ʧ e c l e ɾ i w u ɾ u j o ɾ 
[347.225]
<no-speech> 
[348.785]
h ɯ 
[349.255]
<no-speech> 
[351.905]
<no-speech> 
[352.265]
<no-speech> 
[355.825]
h ɯ 
[358.045]
<no-speech> 
[359.265]
h e 
[359.685]
<no-speech> 
[362.765]

[366.965]
<no-speech> 
[368.615]
h ɯ ɟ e z m e j i ʧ o k s e w i j o ɾ ø j l e a t i k t i ɾ ø j l e ʃ e j b i u ʃ a k d iː l 
[371.965]
<no-speech> 
[374.235]
e w e t t a b i h a 
[379.125]
<no-speech> 
[380.195]
n e j a p s ɯ n 
[382.125]
<no-speech> 
[384.535]

[385.045]
<no-speech> 
[386.925]

[388.225]
<no-speech> 
[391.265]
ʃ e j m i a ɫ p e ɾ m i 
[392.855]
<no-speech> 
[394.545]

[395.275]
<no-speech> 
[398.995]
a ɫ a m a z 
[401.435]
<no-speech> 
[402.355]
h ɯ a n n e s i j a n ɯ n d a d i j o m d a oː a ɫ a m a z <laugh> 
[408.385]
<no-speech> 
[409.915]
j o k j o k a ʤ e m i l i c e t m e d i j o k j o k ø j l e b i ʃ e j e t m e d i a ʤ e m i l i c e t m e d i e t m e d i j o k j o k h i ʧ j a ɾ a m a z ɫ ɯ k e t m e d i 
[416.375]
<no-speech> 
[417.255]
h ɯ i j i c a p a t a ɫ ɯ m d a <laugh> 
[422.235]
<no-speech> 
[424.975]
n e 
[425.725]
<no-speech> 
[430.735]
j o k j o k a l i ɟ e l m e d i a j ʃ e a j ʃ e d e ɟ e l m e d i o n ɟ y n s o n ɾ a b e l c i ɟ e l i ɾ l e ɾ h ɯ b a k a ɫ ɯ m h a b e ɾ w e ɾ i ɾ l e ɾ ʃ i m d i b iː ɾ a z j a k s a k 
[442.205]
s aː c i n e b i l m e m d a b i ɟ e l m e d i oː d a 
[444.655]
<no-speech> 
[446.335]
h ɯ oː d a ɟ e l i ɾ a m a k u ɾ a k t a n ɟ e l e m e d i c i 
[448.555]
<no-speech> 
[449.585]
j o k j o k ø j l e b i ʃ e j j o k d i j o ɾ ɫ a ɾ h e ɾ h e ɾ t a ɾ a f a j n ɯ a j n ɯ h e ɾ t a ɾ a f a j n ɯ k u ɾ a k 
[455.535]
<no-speech> 
[456.385]
j aː m u ɾ d a j aː m a d ɯ c i j aː d ɯ j o k ø j l e f a z ɫ a j aː m a d ɯ c i a ɾ a d a j aː ɾ s a a ɾ a d a j aː ɾ s a i ʃ t e ø j l e d a b i h a f t a j aː j o ɾ b i h a f t a j aː m ɯ j o ɾ c i ø j l e i ʃ t e j aː n i ø j l e b i d e w a m ɫ ɯ j aː s a h a b ø j l e b i b i h a f t a j aː s a d e w a m ɫ ɯ b iː ɾ a z j aː s a b e l c i ø j l e d a a i j i o ɫ ʤ a k d a t o p ɾ a k k u p k u ɾ u 
[479.315]
<no-speech> 
[480.175]
m a j ɯ s a j ɯ d a k u ɾ a k ɟ e ʧ t i 
[481.525]
<no-speech> 
[483.615]

[484.535]
<no-speech> 
[486.235]
h ɯ ø j l e j aː n i d i j o m b u a j d a k u ɾ a k ɟ e ʧ e ɾ s e ɟ e ʧ m e z h e ɾ h a l d e ʃ i m d i z a t e n b u a j ʧ ɯ k t ɯ z a t e n b i ʃ e j c a ɫ m a d ɯ j aː n i ʃ e j e d e ɟ i ɾ d i c m i 
[496.645]
<no-speech> 
[497.785]

[502.965]
<no-speech> 
[504.435]
ø j l e b i ʃ e j o ɫ d u f a s u ɫ j e <hes> ʧ o k i j i o ɫ m u ʃ ʧ o k ɟ y z e l b i <hes> i j i o ɫ d u i j i o ɫ d u i j i o ɫ d u ɟ ø z d e n o ɫ d u ø j l e ɟ ø z d e n 
[513.944875]
<no-speech> 
[516.705]
ɟ ø z d e n o ɫ d u <laugh> i n s a n d a e s c i d e n t o k ɫ u k w a ɾ d ɯ ʃ i m d i ʃ i m d i i n s a n ɫ a ɾ ʧ a ɫ ɯ ʃ m a j a t o k ɫ u k o ɫ m u j o ɾ t o k ɫ u k e d e m i j o ɾ j aː n i <hes> ɟ ø z y a ʧ o ɫ u j o ɾ 
[532.565]
<no-speech> 
[533.755]
h ɯ b u ɾ a d a b u ɟ y n p a z a ɾ a h ɯ <hes> f a s u ɫ j e w a ɾ a m a b i a ʤ ɯ f a s u ɫ j e p i ʃ m i j o ɾ ɟ e t i ɾ m i ʃ l e ɾ d o ɫ d u ɾ m u ʃ ɫ a ɾ 
[545.495]
ʧ a ɾ ʃ ɯ j a a m a f a s u ɫ j e f a s u ɫ j e d iː l c i oː n e o ɫ u ɾ j e n m e z c i p i ʃ m i j o ɾ p i ʃ m i j o ɾ f a s u ɫ j e 
[556.975]
<no-speech> 
[558.265]
<hes> h ɯ 
[559.435]
<no-speech> 
[562.395]
<hes> b u ʃ e j i n c i d a a d iː ʃ i c 
[564.215]
<no-speech> 
[565.385]
h ɯ oː d a b i j e ɾ d e n ɟ e l i j o ɾ h e p s i b i j e ɾ d e n ɟ e l i j o ɾ d i j o ɾ f a s u ɫ j e s i f a s u ɫ j e s i c a ɾ t c a ɾ t 
[572.805]
<no-speech> 
[573.995]
ø j l e ɟ ø ɾ s e n b i a ʤ ɯ j d ɯ ø j l e b i a ʤ ɯ j d ɯ c i j o k ɟ e l i j o ɾ d a b i a ʤ ɯ m ɯ ʃ c i b ø j l e c a ɾ t c a ɾ t b ø j l e b i b i b u ʧ u a w a ɾ i c i i c i b u ʧ u a h ɯ i c i b u ʧ u a w a ɾ i c i b u ʧ u k 
[594.585]
<no-speech> 
[595.535]
h ɯ w a ɾ w a ɾ b u ɾ a d a w a ɾ n e b i l e j i m 
[600.265]
<no-speech> 
[600.34]
