[0.0]
<no-speech> 
[6.585]
a ɫ o 
[7.185]
<no-speech> 
[10.095]
a ɫ o eː s e ɾ t a ʧ n e j a p ɯ j o n 
[12.475]
<no-speech> 
[14.025]
n e j a p ɯ j o n 
[14.895]
<no-speech> 
[16.025]
i j i n e j a p a j ɯ m b a b a n e n n a s ɯ ɫ 
[18.165]
<no-speech> 
[22.495]
h ɯ eː n a s ɯ ɫ o ɫ d u j aː n i e n s o n h a s t a n e j e ɟ i d ʤ e c t i 
[25.305]
<no-speech> 
[31.775]
h ɯ j o k 
[32.485]
<no-speech> 
[33.365]
h ɯ a j a k ɫ a ɾ ɯ n a s ɯ ɫ o ɫ d u e n s o n j y ɾ y j e m i j o m f a ɫ a n d i j o ɾ d u 
[36.075]
<no-speech> 
[40.535]
h ɯ e w d e c i l e ɾ l e h i ʧ k o n u ʃ u j o ɾ m u s u n j e n ɟ e m ʧ o ʤ u k ɫ a ɾ ɫ a 
[44.655]
<no-speech> 
[46.075]
<no-speech> 
[46.425]
<no-speech> 
[47.945]
e w d e c i l e ɾ l e h i ʧ k o n u ʃ u j o ɾ m u s u n a m ʤ a m j e n ɟ e m ʧ o ʤ u k ɫ a ɾ ɫ a f a ɫ a n 
[51.995]
<no-speech> 
[55.765]
h ɯ 
[56.395]
<no-speech> 
[57.695]
ʃ e j <hes> a ɾ c a d a ʃ ɫ a ɾ ɯ n n e j a p ɯ j o ɾ 
[60.025]
<no-speech> 
[60.945]
ʧ o ʤ u k ɫ a ɾ y n i w e ɾ s i t e d e c i l e ɾ 
[63.125]
<no-speech> 
[68.905]
b i l ɟ i s a j a ɾ n e o ɫ d u d u ɾ u j o ɾ m u h aː l aː 
[71.595]
<no-speech> 
[78.715]
h ɯ h a n ɟ i p ɾ o g ɾ a m ɫ a ɾ 
[80.615]
<no-speech> 
[82.665]
h a n ɟ i p ɾ o g ɾ a m ɫ a ɾ 
[83.795]
<no-speech> 
[91.145]
j a p a s k a ɫ 
[92.185]
<no-speech> 
[93.135]
o k u ɫ t a k ɯ m ɯ n a ɟ i ɾ ʤ e c t i n n e o ɫ d u 
[95.045]
<no-speech> 
[104.105]
d i j o ɾ d u n j a k a m p y s t a k ɯ m ɯ n d a s e ʧ m e l e ɾ e ɟ i t t i n m i 
[110.505]
<no-speech> 
[113.475]
k a m p y s t a k ɯ m ɯ n ɯ n s e ʧ m e l e ɾ i n e ɟ i t t i n m i 
[115.535]
<no-speech> 
[121.105]
s e n m e k a t ɾ o n i k o k u j o ɾ d u n d iː l m i 
[122.935]
<no-speech> 
[125.055]
<hes> m e k a t ɾ o n i k o k u j u n ʤ a b i t i ɾ i n ʤ e n e o ɫ ʤ a k s ɯ n 
[129.615]
<no-speech> 
[138.875]
d o w a ɫ g a z a ɟ i ɾ i j o ɾ m u 
[140.945]
<no-speech> 
[144.045]
h ɯ ʃ e j <hes> s i n e m a j a f a ɫ a n ɟ i d i j o ɾ m u s u n 
[147.915]
<no-speech> 
[150.045]
s i n e m a j a f a ɫ a n ɟ i d i j o ɾ m u s u n o ɾ d a h i ʧ 
[151.775]
<no-speech> 
[153.275]
s i n e m a j a ɟ i d i j o ɾ m u s u n h i ʧ o ɾ d a 
[157.095]
<no-speech> 
[160.175]
ɯ m h ɯ m 
[160.775]
<no-speech> 
[161.895]
h a n ɟ i f i l m e ɟ i t t i n e n s o n 
[163.695]
<no-speech> 
[168.185]
<no-speech> 
[168.565]
<no-speech> 
[172.835]
ɯ m h ɯ m o k u ɫ n a s ɯ ɫ ɟ i d i j o ɾ s ɯ n a w ɫ a ɾ n e z a m aː n b i t i j o ɾ 
[176.235]
<no-speech> 
[180.735]
s e n n e z a m aː n ɟ e l ʤ e c s i n b u ɾ a j a 
[182.195]
<no-speech> 
[185.285]
b a b a n n e m 
[186.145]
<no-speech> 
[188.605]
b a b a n n e m b e l l i o ɫ d u m u ɟ e l i p ɟ e l m e j e ʤ iː 
[190.995]
<no-speech> 
[200.145]
o n a ɟ ø ɾ e b e l l i o ɫ ʤ a k d i j o n 
[202.275]
<no-speech> 
[203.675]
s e n d e w a ɾ m ɯ b i s ɯ k ɯ n t ɯ s aː ɫ ɯ k ɫ a i l ɟ i l i 
[205.985]
<no-speech> 
[210.025]
s aː ɫ ɯ k ɫ a i l ɟ i l i b i s ɯ k ɯ n t ɯ n w a ɾ m ɯ s aː ɫ ɯ k ɫ a i l ɟ i l i b ø j l e h a s t a ɫ ɯ k f a ɫ a n s oː k o ɫ u ɾ o ɾ a 
[215.065]
<no-speech> 
[219.475]
h a f t a s o n u n e j a p ɯ j o n 
[220.795]
<no-speech> 
[227.845]
j o k n o ɾ m a ɫ d e h a f t a s o n u n e j a p ɯ j o n c ø j d e 
[229.935]
<no-speech> 
[233.585]
e f e n d i m 
[234.275]
<no-speech> 
[237.195]
n e j a p ɯ j o n 
[238.045]
<no-speech> 
[239.895]
ʤ e n ɟ i z d a j ɯ m ɯ h i ʧ ɟ ø ɾ y j o ɾ m u s u n 
[243.195]
<no-speech> 
[246.625]
h ɯ h ɯ 
[247.215]
<no-speech> 
[250.665]
h ɯ n i j e 
[251.685]
<no-speech> 
[254.065]
j a n i j e ɟ i t t i n d oː m ɟ y n y w a ɾ d i j e 
[255.875]
<no-speech> 
[257.215]
h ɯ ʧ o ʤ uː n d a d oː m ɟ y n y j m y ʃ ɟ e ʧ e n ɟ ø ɾ d y m 
[260.015]
<no-speech> 
[261.735]
ɯ m h ɯ m 
[262.395]
<no-speech> 
[263.495]
b e n d e b e l c i s e n i n l e b i ɾ l i c t e ɟ e ɾ i d ø n e ɾ i m h a f t a s o n u d e ŋ k ɟ e l i ɾ s e 
[267.305]
<no-speech> 
[268.665]
a j a ɾ ɫ a m a j a ʧ a ɫ ɯ ʃ ɯ j o m 
[269.945]
<no-speech> 
[271.795]
j aː n i s e n l e b i ɾ l i c t e c ø j e 
[273.535]
<no-speech> 
[274.695]
ɟ e ɾ i d ø n y p s o n ɾ a d a n t e c ɾ a ɾ d a n d ø n y p h a f t a s o n u n a d e ŋ k ɟ e l i ɾ s e 
[277.875]
<no-speech> 
[280.055]
j aː n i a j a ɾ ɫ a m a j a ʧ a ɫ ɯ ʃ ɯ j o m 
[281.555]
<no-speech> 
[282.435]
i ʃ t e d ø n y ʃ t e s e n i n d ø n y ʃ y n d e 
[284.265]
<no-speech> 
[289.235]
j aː n i b u ʤ u m a ɟ y n y f a ɫ a n b e j a z ʃ o w u s e j ɾ e d i j o ɾ m u s u n 
[292.855]
<no-speech> 
[296.275]
ʤ u m a ɟ y n l e ɾ i b e j a z ʃ o w u f a ɫ a n t e l e w i z j o n d a c i ʃ o w ɫ a ɾ ɯ s e j ɾ e d i j o ɾ m u s u n 
[300.695]
<no-speech> 
[306.515]
<no-speech> 
[306.895]
<no-speech> 
[308.335]
e f e n d i m 
[309.095]
<no-speech> 
[314.145]
h a b e ɾ l e ɾ i o k u j o ɾ m u s u n <int> 
[316.475]
<no-speech> 
[317.805]
h a b e ɾ l e ɾ i o k u j o ɾ m u s u n <int> 
[319.475]
<no-speech> 
[322.525]
b o ʃ z a m aː n ɫ a ɾ ɯ n d a m ɯ 
[323.775]
<no-speech> 
[325.015]
<no-speech> 
[325.475]
<no-speech> 
[327.555]
h a b e ɾ l e ɾ i o k u j o ɾ m u s u n 
[328.905]
<no-speech> 
[337.195]
c i t a p o k u j o ɾ m u s u n <int> 
[340.475]
<no-speech> 
[343.365]
s e s i n c e s i c ɟ e l i j o ɾ b iː ɾ a z d a a b a ɯ ɾ ɯ ɾ m ɯ s ɯ n <int> 
[346.475]
<no-speech> 
[353.445]
<hes> d e ɾ s l e ɾ i n e ʧ a ɫ ɯ ʃ ɯ j o ɾ m u s u n s e n 
[355.405]
<no-speech> 
[358.455]
<no-speech> 
[358.865]
<no-speech> 
[359.685]
ʧ a ɫ ɯ ʃ ɯ j o ɾ m u s u n d e ɾ s l e ɾ i n e 
[361.535]
<no-speech> 
[364.885]
ʧ a ɫ ɯ ʃ ɯ j o n s ɯ n a w ɫ a ɾ w a ɾ m ɯ j aː n i b u ɟ y n f a ɫ a n s ɯ n a w ɯ n w a ɾ m ɯ j d ɯ 
[368.705]
<no-speech> 
[373.105]
w a ɾ m ɯ j d ɯ b u ɟ y n s ɯ n a w ɯ n 
[374.375]
<no-speech> 
[379.075]
<no-speech> 
[379.855]
<no-speech> 
[381.375]
<hes> s e s i m ɟ e l i j o ɾ m u b e n i m o ɾ a j a <int> 
[383.195]
<no-speech> 
[387.565]
ɟ e l i j o ɾ m u <int> 
[389.235]
<no-speech> 
[390.305]
ʧ o k a z m ɯ ɟ e l i j o ɾ 
[391.405]
<no-speech> 
[394.545]
e f e n d i m 
[395.225]
<no-speech> 
[399.365]
<hes> s e n i n s e s i n b iː ɾ a z ɟ e l m i j o ɾ s e n b iː ɾ a z b iː ɾ a z d a a j y c s e c s e s l e k o n u ʃ u ɾ m u s u n 
[403.595]
<no-speech> 
[408.045]
e f e n d i m 
[408.715]
<no-speech> 
[410.735]
ʃ i m d i ɟ e l i j o ɾ m u 
[411.805]
<no-speech> 
[412.785]
h ɯ t a m a m ʃ i m d i ɟ e l i j o ɾ s e s i n b u ɟ y n s ɯ n a w ɯ n w a ɾ m ɯ j d ɯ 
[416.445]
<no-speech> 
[419.725]
n a s ɯ ɫ ɟ e ʧ t i 
[420.745]
<no-speech> 
[425.665]
i j i m i j d i j aː n i s ɯ n a w ɯ n 
[427.055]
<no-speech> 
[431.095]
n e j d i h a n ɟ i d e ɾ s i n s ɯ n a w ɯ j d ɯ 
[433.465]
<no-speech> 
[434.285]
h a n ɟ i d e ɾ s i n s ɯ n a w ɯ j d ɯ 
[435.675]
<no-speech> 
[439.535]
h a n ɟ i d e ɾ s j aː n i s ɯ n a w 
[441.005]
<no-speech> 
[442.845]
e f e n d i m 
[443.545]
<no-speech> 
[444.765]
e d e b i j a t 
[445.575]
<no-speech> 
[448.095]
m e s l e c iː s ɯ n a w ɫ a ɾ b i t t i m i 
[449.835]
<no-speech> 
[454.245]
ɯ m h ɯ m b i t t i m i m e s l e c iː s ɯ n a w ɫ a ɾ 
[456.025]
<no-speech> 
[460.105]
b i t t i t a b i c a ɫ m a z 
[461.335]
<no-speech> 
[462.215]
j aː n i ʤ u m a ɟ y n y k o m p l e b i t i j o ɾ 
[464.155]
<no-speech> 
[465.925]
<hes> b u i n t e ɾ n e t t e n 
[467.595]
<no-speech> 
[470.635]
øː l e n b i n o t o b y s e b i n i n a k ʃ a m b u ɾ a d a o ɫ u ɾ s u n u z 
[473.905]
<no-speech> 
[480.795]
j a øː l e n b i n s e n i z 
[482.185]
<no-speech> 
[483.035]
s a b a j aː n i øː l e n b i n s e n i z a k ʃ a m b u ɾ a d a o ɫ u ɾ s u n u z b i ɟ y n d a a k a z a n m ɯ ʃ <no-speech> 
[492.865]
ɯ m h ɯ m 
[493.485]
<no-speech> 
[498.455]
i s t a n b u ɫ d a s ɯ n 
[500.145]
<no-speech> 
[501.885]
ɟ e l i n ʤ e n e j a p ɯ ʤ a k s ɯ n b u ɾ a d a 
[503.365]
<no-speech> 
[510.205]
<hes> 
[512.655]
<no-speech> 
[514.255]
<hes> s ɯ n a w ɫ a ɾ n e z a m aː n b a ʃ ɫ ɯ j o ɾ j aː n i oː h a ɾ ʧ j a t ɯ ɾ m a ɫ a ɾ f a ɫ a n 
[518.265]
<no-speech> 
[524.985]
<no-speech> 
[531.705]
h a ɾ ʧ j a t ɯ ɾ m a ɫ a ɾ ɯ n n e z a m aː n o ɫ d uː n u b i l i j o ɾ m u s u n 
[533.975]
<no-speech> 
[536.165]
j aː n i h a ɾ ʧ j a t ɯ ɾ ɯ j o z j a o k u ɫ a o n ɫ a ɾ ɯ n n e z a m aː n o ɫ d uː n u b i l i j o ɾ m u s u n 
[540.615]
<no-speech> 
[546.515]
h ɯ o n u n e ɾ e d e n øː ɾ e n e b i l i ɾ i z 
[548.435]
<no-speech> 
[555.355]
ɯ m h ɯ m a n n e a n n e m i f a ɫ a n ɟ ø ɾ y j o ɾ m u s u n h i ʧ 
[557.605]
<no-speech> 
[559.475]
c ø j d e a n n e a n n e m i f a ɫ a n ɟ ø ɾ y j o ɾ m u s u n 
[560.945]
<no-speech> 
[562.295]
h ɯ h ɯ 
[562.835]
<no-speech> 
[567.865]
e f e n d i m 
[568.575]
<no-speech> 
[577.655]
s e n h e ɾ h a l d e ɟ e n e l d e oː o k u ɫ t a ɾ a f ɯ n d a t a k ɯ ɫ ɯ j o n 
[580.895]
<no-speech> 
[585.635]
d iː l m i e ɟ e l i 
[586.985]
<no-speech> 
[591.955]
<hes> e ʤ e n i n h a f t a s o n ɫ a ɾ ɯ j y z m e j e ɟ i d i j o ɾ o n u s e j ɾ e t m e j e ɟ i d i j o ɾ m u s u n i s t a n b u ɫ a ɟ e l d i j i n z a m aː n 
[597.355]
<no-speech> 
[599.355]
<no-speech> 
[599.565]
<no-speech> 
[599.98]
