[0.0]
<no-speech> 
[2.755]
<no-speech> 
[4.435]
<no-speech> 
[6.765]
<sta> a ɫ o <no-speech> a ɫ o <no-speech> i j i a b i s e n n a s ɯ ɫ s ɯ n 
[15.195]
<no-speech> 
[17.085]
a ɫ o <breath> <no-speech> s e s ɟ e l i j o ɾ m u 
[22.285]
<no-speech> 
[26.985]
a ɫ o 
[27.815]
<no-speech> 
[30.155]
a ɫ o <breath> 
[31.845]
<no-speech> 
[33.0]
