[0.0]
<no-speech> 
[4.215]
<no-speech> 
[4.725]
<no-speech> 
[7.185]
a ɫ o 
[9.495]
<no-speech> 
[10.335]
<no-speech> 
[11.245]
<no-speech> 
[12.395]
e f e n d i m 
[13.055]
<no-speech> 
[14.285]
i j i j i m s e n n e j a p ɯ j o n 
[15.475]
<no-speech> 
[17.425]
<hes> a ɫ o 
[18.415]
<no-speech> 
[19.795]
i j i j a a ɫ ɫ a a ʃ y c y ɾ 
[21.505]
<no-speech> 
[24.165]
<no-speech> 
[24.515]
<no-speech> 
[26.825]
ɟ i t t i d e b e n h a s t a n e d e d iː l i m j aː n i oː ɟ e l d i h a s t a n e d e n 
[33.385]
<no-speech> 
[34.325]
<no-speech> 
[34.675]
<no-speech> 
[36.765]
b iː ɾ a z d a a i j i ø n ʤ e c i n d e n 
[39.715]
<no-speech> 
[41.365]
<no-speech> 
[41.875]
<no-speech> 
[46.355]
e f e n d i m 
[47.115]
<no-speech> 
[48.275]
<no-speech> 
[48.625]
<no-speech> 
[49.545]
<no-speech> 
[49.935]
<no-speech> 
[52.625]
ø j l e s i n e 
[56.065]
<no-speech> 
[57.005]

[57.615]
<no-speech> 
[62.385]

[63.215]
<no-speech> 
[65.065]
i j i l e ɾ n e j a p s ɯ n ɫ a ɾ i ʃ t e d e ɾ s l e ɾ f a ɫ a n 
[67.545]
<no-speech> 
[72.165]
d u ɾ u j o ɾ j a i ʃ t e <hes> p ɾ o g ɾ a m ɫ a ɾ ɯ f a ɫ a n j y c l e d i m d e b e n i m o k u ɫ i l e i l ɟ i l i o n ɫ a ɾ d a n d o ɫ a j ɯ 
[81.365]
<no-speech> 
[82.395]
e f e n d i m j a b u f a ɫ a n w a ɾ p a s k a ɫ w a ɾ 
[91.435]
<no-speech> 
[94.275]
<hes> 
[95.655]
<no-speech> 
[96.685]
w a ɾ ɯ m i ʃ t e j a z a t e n w a ɾ ɯ m b a s c e t t e i ʃ t e b a s c e t t e d e o j n ɯ ʤ aː m i l k b e ʃ t e o j n ɯ ʤ aː m w o l e j b o ɫ d a d a o j n ɯ ʤ aː m h e p s i n d e w a ɾ ɯ m j aː n i 
[107.655]
f u t b o ɫ f u t b o ɫ w a ɾ z a t e n j a 
[110.785]
<no-speech> 
[112.185]
e f e n d i m 
[114.885]
<no-speech> 
[116.165]
j o k ɟ i t m e d i m o n ɫ a ɾ a ɟ e ɾ e c j o k z a t e n o k u ɫ t a k ɯ m ɯ k a p t a n ɯ aː b i m o ɫ d uː i ʧ i n 
[127.685]

[129.064875]
<no-speech> 
[131.375]
i ʃ t e b u e l e c t ɾ i c b i l ɟ i s a j a ɾ m a c i n e h e ɾ a ɫ a n d a i ʃ b u ɫ a b i l ʤ eː z 
[138.445]
<no-speech> 
[141.895]
<hes> ɟ y z e l s i z i n c i l e ɾ i n z a t e n <no-speech> n e j e 
[150.035]
<no-speech> 
[151.045]
<no-speech> n e ɾ e j e a n ɫ a m ɯ j o m c i d e d i j i n i 
[155.205]
<no-speech> 
[157.255]
n e m o j a ɟ i d i j o m j a a ɾ a s ɯ ɾ a 
[162.105]
<no-speech> 
[163.565]
<no-speech> 
[163.965]
<no-speech> 
[165.465]
e n s o n <hes> h a n ɟ i f i l m d i oː j a 
[168.575]
<no-speech> 
[169.625]
ʃ i f ɾ e s i m i ø j l e b i ʃ e j d i 
[171.955]
<no-speech> 
[173.615]
<no-speech> 
[173.965]
<no-speech> 
[178.155]
ʤ u m a ɟ y n y b i t i j o ɾ s ɯ n a w ɫ a ɾ ʤ u m a ɟ y n y b i t ʤ e c d i ɾ e c a t ɫ a j ɯ p ɟ e l ʤ eː m b y j y c i t i m a l l e ʤ u m a a k ʃ a m ɯ a ɫ ɯ ɾ ɯ m b i l e t i ɟ e l i ɾ i m 
[187.755]
<no-speech> 
[191.445]
<no-speech> 
[192.055]
<no-speech> 
[192.935]
i ʃ t e b u ɟ y n b i k o n u ʃ ʤ aː z h a s t a n e j e ɟ i t m i ʃ t i ɟ e l d iː n d e n e o ɫ d u b i l m i j o m b e n o k u ɫ d a j d ɯ m b u ɟ y n 
[201.345]
<dtmf> 
[202.945]
<hes> e j e ɾ 
[205.665]
<dtmf> 
[209.495]
e f e n d i m 
[210.195]
<no-speech> 
[212.165]
j o k j a 
[213.305]
<no-speech> 
[214.205]

[215.945]
<no-speech> 
[220.385]
b y j y c i t i m a l l e j o ɫ d a o ɫ u ɾ u m z a t e n 
[223.605]
<no-speech> 
[224.865]
n e d e n 
[225.365]
<no-speech> 
[228.375]

[229.205]
<no-speech> 
[230.065]
<no-speech> 
[230.485]
<no-speech> 
[231.345]

[232.045]
<no-speech> 
[233.225]
ɟ e l i j o ɾ u m n o ɾ m a ɫ d e h a f t a s o n ɫ a ɾ ɯ y n i w e ɾ s i t e d e c i ʧ o ʤ u k ɫ a ɾ ɫ a k ɯ z ɫ a ɾ ɫ a f a ɫ a n t a k ɯ ɫ ɯ j o z 
[238.815]
<no-speech> 
[241.125]
ʤ e n ɟ i z d e j i m o n ɫ a ɾ a ɟ i t t i m 
[245.635]
<no-speech> 
[246.575]
s o n z a m aː n ɟ ø ɾ d y m 
[248.625]
<no-speech> 
[250.455]
n e b i l e j i m ø j l e s i n e 
[251.665]
<no-speech> 
[254.045]
j o k j a 
[256.565]
<dtmf> 
[259.855]
<no-speech> 
[260.234875]
<no-speech> 
[264.735]
n e ɾ e j e ɟ e l i p ɟ e ɾ i d ø n ʤ e c s i n 
[266.275]
<no-speech> 
[271.015]
<hes> 
[271.705]
<no-speech> 
[275.095]
n e z a m aː n i ʧ i n 
[276.705]
<no-speech> 
[280.925]
<hes> o ɫ a b i l i ɾ a s ɫ ɯ n d a b e ɾ a b e ɾ ɟ e l i ɾ s e c d a a i j i o ɫ u ɾ 
[284.105]
<no-speech> 
[287.775]
<no-speech> 
[289.785]
<no-speech> 
[296.855]

[300.905]
<no-speech> 
[303.805]
d a a ʧ o k i n t e ɾ n e t t e t a k ɯ ɫ d ɯː m p e c a k ʃ a m ɫ a ɾ ɯ z a t e n b i s aː t o ɾ d a 
[309.225]
<no-speech> 
[310.425]

[314.385]
<no-speech> 
[316.495]
<no-speech> 
[319.655]
<no-speech> 
[320.975]
h a b e ɾ l e ɾ i i ʃ t e 
[326.705]
<no-speech> 
[328.075]
<no-speech> 
[329.525]
<no-speech> 
[331.315]
<no-speech> 
[331.665]
<no-speech> 
[333.955]
<no-speech> 
[340.485]
<no-speech> 
[342.415]
<no-speech> 
[343.965]
<no-speech> 
[345.155]
<no-speech> 
[345.505]
<no-speech> 
[347.305]
ʧ a ɫ ɯ ʃ ɯ j o m 
[349.225]
<no-speech> 
[352.475]
<no-speech> 
[352.825]
<no-speech> 
[354.525]
<no-speech> 
[355.465]
<no-speech> 
[363.255]
<no-speech> 
[363.605]
<no-speech> 
[366.855]

[368.965]
<no-speech> 
[370.685]

[371.125]
<no-speech> 
[374.165]

[378.985]
<no-speech> 
[383.595]

[386.605]
<no-speech> 
[387.995]
d e d i j i n i a n ɫ a m a d ɯ m b i d a a s ø j l e ɾ s e n 
[389.655]
<no-speech> 
[390.535]
ɟ e l i j o ɾ ʃ u a n d a 
[391.455]
<no-speech> 
[394.065]
<no-speech> 
[394.415]
<no-speech> 
[395.255]
w a ɾ d ɯ 
[395.955]
<no-speech> 
[397.255]
<no-speech> 
[397.605]
<no-speech> 
[398.955]

[401.405]
<no-speech> 
[402.935]
<no-speech> 
[403.915]
<no-speech> 
[405.115]
i j i i j i j d i j a b iː ɾ a z z o ɾ d u a m a i j i j d i 
[409.805]
<no-speech> 
[417.145]
e d e b i j a t e d e b i j a t 
[422.385]
<no-speech> 
[425.795]
e f e n d i m m e s l e c iː s ɯ n a w ɫ a ɾ 
[430.475]
<no-speech> 
[431.945]
b i i c i t a n e s i c a ɫ d ɯ b i i c i t a n e c a ɫ d ɯ 
[435.665]
<no-speech> 
[437.985]
<no-speech> 
[438.365]
<no-speech> 
[439.255]
<hes> 
[440.085]
<no-speech> 
[442.175]
j aː n i ʤ u m a ɟ y n y i ʃ t e i n ɟ i l i z ʤ e j e ɟ i ɾ i p ʧ ɯ k ɯ ʤ aː m 
[445.235]
<no-speech> 
[447.235]
<no-speech> 
[449.025]
<no-speech> 
[452.015]
a k ʃ a m b y j y c i t i m a l l e s a b a o ɾ a d a j d ɯ ʤ u m a ɾ t e s i ɟ y n y 
[456.085]
<no-speech> 
[465.975]
j a øː l e n ʃ i m d i b e n i m s ɯ n a w w a ɾ j a øː l e n s ɯ n a w a ɟ i ɾ i ʤ eː m a k ʃ a m d a b i n e ɾ i m ʤ u m a ɾ t e s i s a b a i s t a n b u ɫ d a j ɯ m 
[473.595]
<no-speech> 
[478.415]
j a 
[479.345]
<no-speech> 
[480.795]
ɟ e l i n ʤ e b y j y c i t i m a l l e s i z e ɟ e l i ɾ i m 
[487.415]
<no-speech> 
[489.325]
<no-speech> 
[490.435]
<no-speech> 
[493.295]
<no-speech> 
[493.725]
<no-speech> 
[495.085]
h ɯ i ʃ t e i k i n ʃ e j b y t f a ɫ a n z a t e n j o k j a z o k u ɫ u f a ɫ a n j o k d a ʃ u b a t ɯ n o n y ʧ y n d e b i z i m o k u ɫ a ʧ ɯ ɫ ʤ a k j i n e 
[506.985]
<no-speech> 
[508.215]
m a j ɯ s ɟ i b i f a ɫ a n d a b i t ʤ e c m a j ɯ s i c i d e 
[510.365]
<no-speech> 
[511.925]
<no-speech> 
[515.595]
<no-speech> 
[516.855]
b i l m i j o m c i <no-speech> w a ɫ ɫ aː i 
[528.415]
b i f i c ɾ i m j o k j aː n i <no-speech> n e ɾ e d e n ø j l e j i n e b a c a ɾ ɯ m a ɾ a ʃ t ɯ ɾ ɯ ɾ ɯ m d a b i l m i j o m a n n e a n n e n i ɟ ø ɾ y j o ɾ m u j u m 
[539.905]
ɟ ø ɾ m e d i m 
[544.115]
ɟ ø ɾ m e d i m j a c ø j d e c ø j d e z a t e n 
[555.695]
<no-speech> 
[557.065]
<no-speech> 
[558.865]
<no-speech> 
[564.145]
a n ɫ a m ɯ j o m w a ɫ ɫ aː a n ɫ a m ɯ j o m 
[568.875]
<no-speech> 
[572.805]
<no-speech> 
[573.505]
<no-speech> 
[574.445]
b i d a a 
[574.76]
