[0.0]
<no-speech>
[0.175]
<no-speech>
[0.535]
<no-speech>
[2.795]
হ্যালো <int> হ্যালো <breath>
[5.405]
<no-speech>
[7.155]
হ্যাঁ হ্যাঁ পপি
[9.015]
<no-speech> হ্যালো <sta> হ্যাঁ কেমন আছিস
[12.915]
<no-speech>
[13.885]
<int> চলছে <no-speech> হালচাল হালচাল <hes> নতুন নতুন বছর কেমন কাটলো
[18.855]
<no-speech>
[21.815]
হ্যাঁ <no-speech> <int> আচ্ছা ইয়ে <hes> আজকের খেলার রেজাল্ট জানিস
[27.515]
<no-speech>
[28.375]
<no-speech>
[28.945]
<no-speech>
[32.065]
আচ্ছা মানে ইংন্ডিয়া হারবে না জিতবে না ড্র হবে জেতার তো কোন চান্সই নেই
[37.555]
<no-speech>
[41.125]
ওখানে একটু আওয়াজ হচ্ছে কি আওয়াজ তুই একটু ওদিকে সরে যা
[44.235]
<no-speech>
[46.795]
হ্যাঁ এখনো হচ্ছে <int> ভীষণ ভাবে কানে বাজছে অনেকদিন পর যোগাযোগ হল কথা বলতে পারছি না
[53.525]
<no-speech>
[55.075]
এখনো আওয়াজ (()) <no-speech>
[57.555]
হ্যাঁ <int>
[59.425]
<no-speech>
[60.355]
হ্যাঁ <int>
[61.105]
<no-speech>
[63.325]
<no-speech>
[63.695]
<no-speech>
[66.295]
আচ্ছা তো <hes> কাজে বের হোস নি আজকে <int>
[70.735]
<no-speech>
[72.625]
কাজে
[73.145]
<no-speech>
[74.485]
হ্যাঁ কাজে বের হসনি
[76.535]
<no-speech>
[79.505]
আচ্ছা <no-speech> <int> আর <hes> এমনি ব্যবসার ব্যবসার হালচাল কিরকম
[85.015]
<no-speech>
[87.955]
(()) ব্যবসা ব্যবসার হালচাল <int>
[91.745]
<no-speech>
[92.955]
আচ্ছা ঠিক চলছে
[94.315]
<no-speech>
[97.335]
<no-speech>
[97.685]
<no-speech>
[101.115]
আচ্ছা <no-speech> <hes> এদিকে মমতাদির খবর কি
[106.105]
<no-speech>
[112.855]
হ্যাঁ <no-speech> এই যে কংগ্রেস এসেছে (())
[116.415]
<no-speech>
[117.475]
না কংগ্রেসের সঙ্গে এই যে কংগ্রেসকে বলছে দিয়েছি কংগ্রেস বলছে তৃণমূল (()) এইতো বহুৎ প্রবলেম
[124.825]
<no-speech>
[127.385]
হ্যাঁ <breath> হ্যাঁ
[128.635]
<no-speech>
[131.455]
<no-speech>
[131.845]
<no-speech>
[134.935]
(())
[135.675]
<no-speech>
[136.845]
এর এর বেশিদিন নাকি <sta> এখন তাহলে এখন এটা সেন্ট্রালেও পড়বে এই যে এখানে কংগ্রেস যা করছে মমতার সঙ্গে <breath> কংগ্রেস ও সেইম দলে এরকম পড়বে
[148.535]
<int> তাই না
[149.685]
<no-speech>
[150.765]
হ্যাঁ
[151.605]
<no-speech>
[153.285]
না তুই কখন <hes> কাজ থেকে ফিরবি
[155.495]
<no-speech>
[159.555]
আচ্ছা <int> তাহলে ক- আবার কবে দেখা হবে আমাদের সঙ্গে
[163.645]
<no-speech>
[165.625]
<breath> আমার শরীরতো ঠিকই আছে একটু মাঝে ভাল ঠান্ডা লেগেছিলো <sta> ঠিকই আছে চলছে এখন ঠিকই চলছে
[172.565]
<no-speech>
[173.675]
হ্যাঁ হ্যাঁ <no-speech> <int> তাহলে তুই কালকে অবশ্যই দেখা করিস বুঝলি
[177.095]
<no-speech>
[178.675]
<sta> হ্যাঁ হ্যাঁ হ্যাঁ (()) দেখা করেছিস ওকে ঠিক আছে হ্যালো হ্যালো <hes> লাইনটা ছাড়িস না লাইনটা ছাড়িস না
[190.585]
<lipsmack> আর দীলিপের খবর কি দিলীপ প্রীতি এদের খবর ভাল আছে সব
[194.565]
<no-speech>
[197.495]
হ্যাঁ
[198.175]
<no-speech>
[199.585]
হ্যাঁ
[200.085]
<no-speech>
[200.965]
আচ্ছা (()) হ্যাঁ
[203.525]
<no-speech>
[204.325]
আঃ আর যে কি বলবো ভাবছি (())
[207.415]
<no-speech>
[209.985]
হ্যাঁ নাইজেরির সঙ্গে <sta> সাক্ষাতে অনেক কিছুই আলোচনা করা যাবে
[213.885]
<no-speech>
[214.845]
হ্যাঁ <no-speech> <sta> (()) আর আর সিনেমা টিনেমায় গেছিলি
[219.435]
<no-speech>
[220.895]
<sta> (()) <no-speech>
[225.875]
<no-speech>
[226.535]
<no-speech>
[230.195]
<sta> আচ্ছা আচ্ছা আচ্ছা <breath> আমি তো হলে অতো যাইনা <no-speech> হ্যাঁ <no-speech> আমি তো হলে অতো যাইনা <no-speech> ওটা কোন হলে *যাবি*
[239.125]
<no-speech>
[240.685]
ও- ওটা কোন হলে <hes> সিনেমাটা
[242.895]
<no-speech>
[245.635]
হ্যাঁ আচ্ছা তো এখন টিকিট কত করেছে <int>
[248.775]
<no-speech>
[250.675]
হ্যাঁ <no-speech>
[253.145]
হ্যাঁ আচ্ছা <no-speech>
[255.305]
<hes> তা তুই কবে যাবি যদি যাস তো আমাকে খবর দিস যদি আমার সুযোগ সুবিধা হয় তে <no-speech>
[266.095]
তাহলে <hes> তাহলে না আমি তুই কবে থাকবি সেটা তো আমাকে একটু জানতে হবে নাহলে ধুম দড়াম করে তো আর (()) হ্যাঁ তুই আমাকে একটা ফোন করে দিবি আমি ঠিক টাইম নিয়ে তোকে আমি জানিয়ে দেব
[276.985]
<no-speech>
[278.735]
হ্যাঁ <no-speech> হ্যাঁ
[280.165]
<no-speech>
[282.785]
হ্যাঁ আচ্ছা আচ্ছা আচ্ছা আচ্ছা <no-speech>
[287.805]
হ্যাঁ হ্যাঁ হ্যাঁ <no-speech>
[295.925]
<int> হ্যাঁ
[296.875]
<no-speech>
[298.215]
<sta> ঠিক আছে আর আর আর আর তুই এক কাজ করবি একটু পীযুষের খবর <hes> কথা বলবি ওতো <hes> কংগ্রেসের অফিস টফিসে যায় কংগ্রেসের ভেতরের খবরটা একটু নিয়ে নিবি বুঝলি
[309.445]
<no-speech>
[311.275]
হ্যাঁ <no-speech> (()) কাগজের উপরে কথা কত সত্যি মিথ্যে তা তো জানি না পাবলিক স্টান্ট দিচ্ছে তা তো আমরা ঠিক বুঝতে পারছি না <breath> সত্যি ঘটনা যারা কংগ্রেসের
[322.865]
<sta> মহলে যায় বা ভেতরে যায় তারাই একমাত্র খবরগুলো আনতে পারবে বুঝলি <no-speech> <breath> খবর খবরটা নিয়ে নিস <no-speech> হ্যাঁ
[334.635]
<int> হ্যাঁ
[335.445]
<no-speech> হ্যাঁ
[339.755]
<no-speech>
[346.465]
(()) <no-speech>
[349.065]
আচ্ছা তোর দাদার খবর কি দাদা তো অনেকদিন আসে না ব্যবসাপত্র কিরম চলছে <int>
[354.145]
<no-speech>
[356.525]
অ (())
[359.275]
<no-speech> এখন আমাদের আমার সঙ্গে লাস্ট কথা হয়েছিল এখন পেমেন্ট টেমেন্ট গুলো হচ্ছে না <sta> <breath> এই যে স্টা-স্টাম্প কোম্পানিটা পেমেন্টই দিতে পারছে না কি ফার্ম নেই এখন সেন্ট্রাল গভর্নমেন্ট থেকে তো টাকাও আসছে না
[371.985]
না সেন্ট্রাল গভর্ণমেন্টের কাছে <int> <breath> টাকা না পেলে তো ফান্ডও আসবে না ফান্ড না এলে তো কাজকর্ম ও মুশকিল হয়ে যাবে <breath> চাকরীটা এজন্য এখনকার দিনে একটা অবস্থা বুঝলি
[381.875]
<no-speech>
[383.685]
হুম
[384.395]
<no-speech>
[387.165]
হ্যাঁ <no-speech>
[390.085]
হ্যাঁ তোর দাদার সঙ্গে যদি দেখা হয় একবার আমার সঙ্গে দেখা করতে <sta> বলবি তো <no-speech> হ্যাঁ
[397.145]
<no-speech>
[397.955]
<no-speech>
[398.325]
<no-speech>
[399.485]
<no-speech>
[399.915]
<no-speech>
[408.425]
হ্যাঁ
[409.005]
<no-speech>
[410.245]
আর তুই এখনকার কাজে বেরোচ্ছিস না
[412.445]
<no-speech>
[413.455]
<no-speech>
[413.805]
<no-speech>
[415.405]
(())
[416.795]
<no-speech>
[417.815]
(())
[419.525]
<no-speech>
[421.655]
<no-speech>
[422.035]
<no-speech>
[424.055]
হ্যাঁ <int> হ্যাঁ
[425.965]
<no-speech>
[428.365]
আচ্ছা কয়টার সময় ফিরবি
[430.765]
<no-speech>
[432.925]
কয়টার সময় ফিরবি <int>
[435.955]
<no-speech>
[437.195]
<sta> আচ্ছা ঠিক হ্যাঁ <hes> কালকে কিন্তু আমার সঙ্গে দেখা করবি তারপরে এই ইয়া করবি আর রবিবার দিন তো আমরা সব <hes> এবার কি পিকনিকে যাওয়া হবে <int>
[450.835]
<no-speech>
[453.535]
আচ্ছা <sta> (()) না চলছে তোর অন্য জায়গায় কোন এনগেজমেন্ট আছে <no-speech> (()) কি করতে হবে
[464.815]
<sta> আমাদের তো ঠিক কি করতে হবে তুই তাহলে এলেই ঐ ডেটটা ঠিক করা যাবে সবাইকে তো একটা একটা করা তো অসুবিধা কার কখন সময় হয় না হয় সেগুলো তো দেখতে হবে <int> হ্যাঁ
[477.375]
<no-speech>
[480.635]
হ্যাঁ হ্যাঁ
[481.515]
<no-speech>
[485.695]
হ্যাঁ
[486.435]
<no-speech>
[487.405]
হ্যাঁ <no-speech> আজকে সকাল থেকে তো পুরো অসুবিধা হল পাড়ায় জল নেই কি অবস্থা বা- বাইরে থেকে
[494.025]
<no-speech>
[496.185]
(()) আজকে (()) করেছি বেরুবো না তাও আবার সকাল থেকে বড় খাটা খাটনি গেছে বুঝলি
[504.085]
<no-speech>
[505.085]
কোল- হ্যাঁ <no-speech> কলকাতা থেকে (())
[508.575]
<no-speech>
[513.505]
হ্যাঁ তোমার দিদি তো কলকাতা থেকে লন্ডন বানিয়ে দেবে কিন্তু সকাল থেকে এখানে জল নেই কি অবস্থা <no-speech> বাপরে
[520.895]
<no-speech>
[522.205]
রাস- রাস্তা দিয়ে হাঁটা যায় না
[525.055]
<no-speech> (()) ট্যাক্সি এক
[528.665]
<no-speech> হ্যাঁ পছন্দমতো জায়গা না হলে ট্যাক্সি দেয় না যায় না রীতিমত জল বেড়েই যাচ্ছে কি <sta> কাণ্ড বাপরে বাপ <no-speech> এটা হচ্ছে ল-লন্ডন
[541.075]
হবে <no-speech> <int> তাহলে <hes> ঠিকই আছে তাহলে <no-speech> হ্যাঁ <int>
[550.055]
<no-speech>
[550.915]
এই দাঁড়া লাইনটা <hes> ছাড়িস না দাঁড়া দাঁড়া দাঁড়া দিদি যদি কথা বলে দিদিকে জিজ্ঞেস
[555.245]
<no-speech>
[556.805]
একটু এক একটু লাইনটা হল্ড কর <sta> <no-speech> দিদিকে জিজ্ঞেস করছি দাঁড়া দাঁড়া
[561.265]
<no-speech>
[564.395]
<int> না দিদি বলছে চলে যেতে দিদি আসছে না <no-speech> দিদি আসছে না <no-speech> হ্যাঁ এ্যা
[572.985]
<no-speech>
[574.215]
আর <hes> এর মধ্যে কোন সিনেমা দেখেছিলি
[577.485]
<no-speech>
[579.665]
তারপরে সিনেমা দেখেছিলি
[580.965]
<no-speech>
[585.895]
হ্যাঁ <sta> <hes> আচ্ছা আচ্ছা মিনাদি একটা কথা বলি এই যে স্কুলে পাশ ফেলটা উঠে গেল বা তুলে দিল তো এখনো তুলে দিয়ে দিচ্ছে না দেইনি না দেবে
[598.965]
<no-speech>
[599.46]
