[0.0]
<no-speech>
[6.305]
(()) আমি শিখছি শিখছিতো
[9.825]
<no-speech>
[10.905]
হ্যালো
[11.485]
<no-speech>
[12.735]
হ্যালো
[13.305]
<no-speech>
[14.475]
<sta> হ্যালো <no-speech> কে আকাশদা
[16.695]
<no-speech>
[18.355]
হ্যালো <no-speech> কি হয়েছে <hes> বল
[20.725]
<no-speech>
[22.255]
হ্যালো
[22.935]
<no-speech>
[24.665]
হ্যালো <no-speech> হ্যাঁ বল আকাশ দা বল কি হয়েছে
[27.905]
<no-speech>
[29.885]
হ্যালো
[30.555]
<no-speech>
[33.815]
আমি এই দোকানে গেছিলাম একটু এই দোকান থেকে আসছি এই পড়তে বসবো
[37.695]
<no-speech>
[38.895]
হ্যালো <int>
[39.575]
<no-speech>
[41.405]
হ্যালো
[42.035]
<no-speech>
[45.205]
কলেজ নেই <no-speech> ছুটি আছে গরমের জন্য সেইজন্যে
[49.035]
<no-speech>
[52.655]
কেন বাড়িতে
[53.665]
<no-speech>
[58.315]
হো মিথ্যা কথা
[59.945]
<no-speech>
[65.035]
<no-speech>
[65.404875]
<no-speech>
[72.025]
তাই তো ভাল কথা কবে আসবি
[73.915]
<no-speech>
[78.155]
এই যে মা আছে এখানে মাসি আছে কাছে
[80.315]
<no-speech>
[82.875]
মাসি আছে কাছে তোর কাছে
[84.435]
<no-speech>
[87.605]
হুম নাও মা কথা বল মা <int>
[89.985]
<no-speech>
[90.805]
<sta> হ্যালো
[92.705]
<no-speech>
[96.225]
হ্যাঁ
[96.805]
<no-speech>
[97.815]
<sta> হ্যালো
[101.805]
<no-speech>
[102.645]
<sta> সোনাই যায় না কি ডিস্টার্ব হচ্ছে রে বাবা বল এবার বল বাইরে এসছি
[108.145]
<no-speech>
[112.285]
দাদা দাদার তো পরীক্ষা এখন ঐ যে বি_কম শেষ হলো পাশ করে গেছে আর এই যে হচ্ছে যে এখন না না বাবা (()) ছয় মাসের জন্য পনেরো হাজার টাকা জমা দিয়ে আর তিন
[123.785]
(())
[124.705]
<no-speech>
[126.325]
<sta> হ্যালো কি কি পয়েন্ট কি পয়েন্ট ইন্সটিটিউট আছে না চাকরী বাকরি যদি আসলো ওখান থেকে যদি পারে তো <breath> হবে না হলে না হইবে
[135.805]
<no-speech>
[136.635]
<int> হ্যালো
[137.185]
<no-speech>
[140.675]
হ্যাঁ
[141.385]
<no-speech>
[142.875]
হ্যাঁ <sta>
[144.505]
<no-speech>
[151.255]
<no-speech>
[151.625]
<no-speech>
[156.135]
<no-speech>
[156.805]
<no-speech>
[160.825]
<sta> হ্যাঁ ঐ ঐখান থেকে যদি কোথাও একটা কোথাও হইলো তো হলো না হলে নাই ভাগ্যের ওপর নির্ভর বাবা হবে বলে কোন গ্যারান্টি নাই
[167.965]
<no-speech>
[173.215]
অ হ আর ইয়ে তা মা কোথায়
[176.505]
<no-speech>
[184.965]
<no-speech>
[185.315]
<no-speech>
[192.155]
<sta> আহা যাক তোর কোথায় আছিস এখন বাবা এখন কোথায় বসে আছিস
[202.445]
<no-speech>
[204.575]
<no-speech>
[205.015]
<no-speech>
[209.445]
তুই পাশ করে গেছিস
[210.415]
<no-speech>
[212.475]
<sta> যাক খুব ভাল খুশির খবর বাবা সত্যিই শুনে <laugh> খুশি হলাম হ্যাঁ এখন কি পড়বি এখন পড়বি তো
[220.645]
<no-speech>
[223.225]
<sta> হ্যাঁ এখন কলেজে ভর্তি হয়ে নে
[227.335]
<no-speech>
[230.985]
ওর স্কুল না
[232.155]
<no-speech>
[238.655]
<sta> হ্যাঁ না আমাদের এখানেও ছিল সে এখন এখানে হয়ে যাচ্ছে আবার এরকম হুম <no-speech> আর এই তো
[246.115]
<no-speech>
[249.135]
হ্যাঁ
[249.735]
<no-speech>
[251.035]
হ্যাঁ হ্যাঁ
[251.735]
<no-speech>
[255.175]
হ্যাঁ
[255.815]
<no-speech>
[256.754875]
<sta> হ্যাঁ না আমাদের এখানে যবে থেকে স্কুলে পড়তে পারে কলেজেও ভর্তি হতে পারে দুটোই আছে সেরকম কিছু অসুবিধা নেই
[263.045]
<no-speech>
[264.155]
<sta> আর ইয়ে (()) হ্যাঁ
[265.445]
<no-speech>
[266.615]
<no-speech>
[267.215]
<no-speech>
[274.815]
কলকাতায় বাবা কলকাতায় গেলে পরে বাবা বাবা ইসে সেই রকম ভাবে চাকরী টকিং করতে হবে যাবে বলছে এই কলেজ কলকাতায় গেলে কি পাবে বাবা এখানে এই রকম গেল তো বেড়াতে
[285.845]
<no-speech>
[289.495]
হ্যাঁ
[290.145]
<no-speech>
[294.895]
হ্যাঁ
[295.375]
<no-speech>
[296.285]
কলকাতায় গেলে তো কোন অসুবিধা নেই রে বাবা এখানে কত সুন্দর মাছ পাওয়া য়ায় একটা মানে ছোট দিয়ে জায়গা পায় চাকরী করতে পারে কোন অসুবিধা নেই হ্যাঁ
[305.585]
<no-speech>
[308.115]
আরে বাবা <laugh> <breath> শোনো না তুমি না মাকে বলবে (()) আগে তোরই <int> নানা তারপর থাকার চিন্তা পরে
[316.255]
<no-speech>
[317.305]
(())
[317.775]
<no-speech>
[320.545]
(()) <no-speech>
[322.365]
(())
[324.195]
<no-speech>
[328.865]
<sta> সমীরন হ্যাঁ সমীরনের মামা তো ব্যাঙ্গালোরে সমীরন ব্যাঙ্গালোরে চাকরী পেয়ে গেছে এখন
[333.045]
<no-speech>
[335.175]
সমীরন ব্যাঙ্গালোরে থাকবে ব্যাঙ্গালোরে চলে এসছে
[338.045]
<no-speech>
[338.925]
<sta> হ্যাঁ ব্যাঙ্গালোর ব্যাঙ্গালোর হ্যাঁ
[342.045]
<no-speech>
[343.455]
<sta> হ্যালো হ্যাঁ খালি শিশিরন আছে এইখানে কলকাতায় শিশিরন আছে <breath> আর সমীরন ব্যাঙ্গালোরে আছে আসি হাজার টাকা মাইনা হয়ে গেল মাইনা মাইনা ঐ হলো
[354.455]
<sta> মামীমাও বোঝেননা হ্যাঁ মাকে একটু ফোন দে মায়ের সঙ্গে একটু কথা বলি
[359.065]
<no-speech>
[364.455]
<sta> হ্যালো
[369.295]
<no-speech>
[372.055]
<sta> হ্যাঁ দে নে বোনের সঙ্গে কথা বল
[375.585]
<no-speech>
[376.945]
হ্যালো
[377.565]
<no-speech>
[379.945]
<sta> হ্যালো
[382.185]
<no-speech>
[384.475]
হ্যাঁ তোকে যে এত ম্যাসেজ পাঠাইছিস কি রকম আছে ম্যাসেজ পাঠাইছি
[387.935]
<no-speech>
[396.935]
(()) আমার মোবাইলে পাঠায় দে তোর নাম্বার দিয়ে আকাশ বলে লিখে পাঠায় দে
[401.005]
<no-speech>
[403.885]
<no-speech>
[404.475]
<no-speech>
[413.045]
<sta> দাঁড়া দাঁড়া দেখছি একটু দাঁড়া ওয়েট কর
[415.735]
<no-speech>
[419.485]
<sta> (()) <breath> আমি তো জানি এইটা তোর মোবাইল নাম্বার বলে
[422.625]
<no-speech>
[426.375]
<breath> <int> ওহ বল ওহ বল
[429.005]
<no-speech>
[431.905]
এইট নাইন
[432.865]
<no-speech>
[435.665]
হ্যাঁ এইট নাইন সিক্স ওয়ান
[437.135]
<no-speech>
[440.505]
নাইন টু
[441.505]
<no-speech>
[444.235]
ডবল সিক্স
[445.065]
<no-speech>
[447.735]
হ্যাঁ
[448.325]
<no-speech>
[450.945]
<sta> নাইন ফাইভ (())
[455.685]
<no-speech>
[458.615]
হ্যাঁ রে দেখো এইট নাইন সিক্স ওয়ান নাইন টু ডবল সিক্স নাইন ফাইভ
[461.715]
<no-speech>
[463.645]
হু
[464.335]
<no-speech>
[467.375]
<no-speech>
[467.965]
<no-speech>
[468.765]
(())
[469.325]
<no-speech>
[475.305]
হ্যাঁ তাহলে আবার রিটার্ন পাঠাবো ঐ ঐ মোবাইলে
[477.855]
<no-speech>
[482.745]
<no-speech>
[483.185]
<no-speech>
[486.805]
কি
[487.325]
<no-speech>
[488.135]
হুম ঠিক আছে আর কি বলি মাসি নেই কাছে
[490.455]
<no-speech>
[494.665]
রিঙ্কুদার নাম্বার এই তার শরীর ভাল না তো তিন দিন ধরে তিন দিন ধরে বন্ধ করে রাখছে মোবাইল পুরা সুইচ অফ
[501.385]
<no-speech>
[502.515]
<sta> হ্যালো
[503.965]
<no-speech>
[507.215]
ওর শরীর ভাল নয় ভীষণ জ্বর কালকে স্যালাইন দিয়ে আসছে মা ওকে নিয়ে
[511.115]
<no-speech>
[513.215]
আর দাদার দাদার
[515.485]
<no-speech>
[519.884875]
<sta> কি বললি আবার স্লাইন স্লাইন মানে কি বলবো
[523.235]
<no-speech>
[524.875]
<sta> উ ঘুরিসনি এখনো
[527.825]
<no-speech>
[529.235]
হ্যালো
[529.915]
<no-speech>
[532.985]
ওকে ডাক্তার খানায় ভর্তি করেছিল তো সেইজন্য ঠিক আছে তো
[536.215]
<no-speech>
[537.645]
<no-speech>
[539.055]
<no-speech>
[541.575]
<sta> <laugh> সব ঠিক আছে মা বলছে একটু কথা (()) আর কি বলি আর তুই কবে আসবি
[548.175]
<no-speech>
[553.265]
হ্যালো <no-speech> শুনতে পারছি না কি বল আবার বল
[556.425]
<no-speech>
[560.465]
আরে রিঙ্কুদার জ্বর হয়েছিল (()) ভীষণ হয়েছে <laugh>
[566.655]
<no-speech>
[569.255]
হ্যাঁ তোর দিব্যি আমার মায়ের দিব্যি ঠিক বলছি রে ভীষণ জ্বর হয়েছিল
[573.755]
<no-speech>
[575.295]
<laugh> হ্যাঁ রে ঐ সেই ঐ সেই গ্লুকোজকেই স্যালাইন বলে ওখানে
[580.355]
<no-speech>
[585.395]
কি জানি আমি কি মিথ্যা কথা বলছি এই নে মার সাথে কথা বল নে <sta> হ্যালো হুম হ্যালো
[593.915]
<no-speech>
[595.265]
হ্যালো
[595.835]
<no-speech>
[600.0]
