[0.0]
<no-speech>
[0.075]
<sta> ফোন ধরেছে
[0.925]
<no-speech>
[2.335]
হ্যালো
[2.885]
<no-speech>
[4.755]
হ্যাঁ <hes> ঐখান থেকে কল এসেছিল
[7.775]
<no-speech>
[10.395]
আচ্ছা <sta> ঘুমাচ্ছিস নাকি এখন
[12.735]
<no-speech>
[15.665]
<sta> হ্যাঁ হ্যালো
[18.715]
<no-speech>
[21.265]
ও না এইতো পিকনিক কেমন কাটলো সেদিনকে
[24.025]
<no-speech>
[29.615]
এই
[30.395]
<no-speech>
[34.825]
(()) গেছিল হ্যাঁ <sta>
[36.795]
<no-speech>
[38.585]
কি
[38.995]
<no-speech>
[40.485]
(()) <no-speech>
[46.405]
<sta> ও ও আচ্ছা আচ্ছা (()) বলে চলে গেছে
[51.705]
<no-speech>
[52.845]
<sta> আমি জানি (()) আমি তো রাত্রিবেলা ওখানে দাঁড়িয়েছিলাম সবাই আসছে তুই নেই আবার বলল যে সবাই আসবে <hes> ট্রেনে করে ট্রেনের ওখানে আছে ফিরবে সব
[62.555]
<sta> তো আমি আবার বাড়ী চলে গেছিলাম গিয়ে আবার ফিরে আসলাম যে তুই আসবি সোনা চনু আসবে <breath> বন্যা আসবে শেখর সবাই আসবে আমি আবার ফিরে আসছিলাম- ফিরে আসলাম দেখলাম সবাইকে দেখলাম এবার আর দেখতে পেলাম না
[74.435]
<sta> <no-speech> তারপরে ঐ ময়মনসিং পাড়ার একটা বউকে দেখলাম ওটা কে গো ঐটা কে দোস্তো
[79.325]
<no-speech>
[80.565]
<sta> এই
[80.995]
<no-speech>
[82.165]
<sta> কে (()) <no-speech>
[85.315]
<no-speech>
[86.435]
<no-speech>
[87.245]
<sta> ওহ ওদের ছেলেটা কি ইটা এ্যাবনরমাল <no-speech> হ্যাঁ হ্যাঁ <no-speech> ও আচ্ছা আচ্ছা এ্যা মেনু কি করে যেন
[99.105]
<no-speech>
[99.255]
<no-speech>
[101.015]
<no-speech>
[101.665]
<no-speech>
[106.745]
<no-speech>
[107.285]
<no-speech>
[108.985]
<no-speech>
[109.535]
<no-speech>
[110.955]
<no-speech>
[111.475]
<no-speech>
[113.075]
<no-speech>
[113.495]
<no-speech>
[115.585]
<no-speech>
[116.015]
<no-speech>
[116.865]
<no-speech>
[117.875]
<no-speech>
[121.665]
ও আচ্ছা আচ্ছা
[122.905]
<no-speech>
[124.125]
আর মাংস কি (()) <sta> হ্যাঁ
[129.224875]
<no-speech>
[131.335]
<sta> বাহ্ ব- এত আইটেম <no-speech> হ্যাঁ
[135.725]
<no-speech>
[137.055]
(()) মিষ্টি কত রকমের করল
[138.995]
<no-speech>
[143.625]
<sta> ও- ও কেন খাস নি কেন কি <hes> তোর কি আবার সুগার ধরলো না কি না তোর কি তোর কি আবার সুগার ধরেছে যে মিষ্টি খেলি না
[153.285]
<no-speech>
[154.115]
<sta> হ্যাঁ
[155.325]
<no-speech>
[157.915]
<sta> (()) নিয়ে আসতে পারতিস তো আমাদের জন্য কিছু আর কিছু না পট করে কিছু বললো না তোরা যা- যাবি তাও জানি তাহলে তো আমরা যেতাম (()) যেতাম জানিই না
[169.605]
<no-speech>
[179.675]
হুম
[180.265]
<no-speech>
[181.765]
হুম হু
[182.505]
<no-speech>
[185.415]
ও ও আচ্ছা আচ্ছা আচ্ছা হ্যাঁ সে তো আমাকে বলেছিল পিকনিকটা হবে না বলছে আবার ক্যান্সেল হয়ে গেছে তাতো আমি জানিনা <sta> পরে যে তা আবার হয়ে তা আবার ঐ হঠাৎ করে সকালবেলা বলছে যে সব পিকনিকে যাবে কিন্তু আমাকে তখন বললে আর হয়
[197.145]
<sta> তা ওরা চলে গেলো আমি তো আর বুঝতেই পারলাম না (()) তা মানে একসাথে গেলে মজা হতো আর কি এই যা
[202.375]
<no-speech>
[206.575]
আঃ <sta> তবে যে গান টান হয়নি যে- নাচ গান হয়নি কিচ্ছু
[211.285]
<no-speech>
[217.025]
<sta> ও বাহ্ বাহ্ বাহ্ এত এই তো- এই এরকম করে (()) যায় আমাদের বাসায় <no-speech> (()) বউ ও আচ্ছা (()) বউকে তো আমি দেখতে পারলাম না (()) বউ মানে ছিল অনেকগুলো নেমেছিলো
[228.605]
<sta> এই কি শাড়ি পরা
[230.115]
<no-speech>
[232.005]
না
[232.515]
<no-speech>
[234.125]
ও (()) <sta> ওটা তো ছিল কিন্তু মুখ ঢাকা ছিল আমি চিনতেই পারিনি হ্যাঁ হ্যাঁ হ্যাঁ আমি ভাবছিলাম অন্য কেউ বোধহয়
[243.875]
<no-speech>
[244.795]
আমি ভাবছিলাম অন্য কেউ তা (()) <sta> দেখা গেলো না মুখটাই দেখা হয়নি এ্যা এ্যা
[251.555]
<no-speech>
[255.775]
এই কি রকম (())
[257.614875]
<no-speech>
[259.965]
হ্যালো
[260.495]
<no-speech>
[264.155]
ও মানে কি <hes> ত্রিশ বছর টছর হয়ে গেছে নাকি তোর (()) বুড়ো <sta>
[269.585]
<no-speech>
[270.865]
<sta> হ্যাঁ
[271.785]
<no-speech>
[274.285]
<sta> ও বাবা ত্রিশ বছরের উপরে হয়ে গেছে তাহলে আর কি (()) অনেক বয়স
[282.035]
<no-speech>
[283.105]
তা এমনি <hes> ইয়ে টিয়ে কেউ ওয়াইন টোওয়াইন কেউ খায় নি ওখানে
[286.945]
<no-speech>
[290.885]
এই পিকনিকের বিশেষত্ব ঐ <sta> এই পিকনিকের বিষয়টা পিকনিকে গিয়ে যদি একটু নাই খেতে পারলাম তাহলে আর কি হল <no-speech> এ্যা
[299.115]
<no-speech>
[303.685]
<sta> (()) তো তোর তো পেট ঐ তোর তো পেট ঐখানি ছোট্টো
[308.945]
<no-speech>
[309.825]
এ্যা
[310.465]
<no-speech>
[312.975]
ওরে বাবা
[314.075]
<no-speech>
[314.955]
হলদিরামের লাড্ডু আবার
[316.405]
<no-speech>
[321.095]
<no-speech>
[321.505]
<no-speech>
[322.535]
হ্যাঁ <sta> <no-speech> তা কটা লাড্ডু তো এনে রাখতে পারতি হলদিরামের লাড্ডুগুলা <hes> রাত্তিরে ফ্রীজে রেখে দিলে রাত্রিবেলা খেতে পারতাম না
[331.215]
<no-speech>
[332.145]
<sta> হ্যাঁ
[333.255]
<no-speech>
[336.425]
কষ্ট <int> হবে বলছো কিচ্ছু খাই নি জানিস তো সারা- শোন না আমি (()) খাই নি আমি চান করে এসে <hes> তোরা চলে গেলি তারপর আমি শুয়ে পড়ে (()) ঘুম পড়েছিলা
[347.055]
<sta> ও তিনটে বাজে যখন তখন ঘুমের থেকে উঠেছি তারপরে আর খাওয়া হয় তারপরে সেই রাত্তিরে সেই মানে- রাত্তিরে সাড়ে দশটা এগারোটার সময় শো- (()) আবার (()) ডেকে নিয়ে গিয়ে আবার মাংস খেয়েছিলাম
[357.855]
<sta> <no-speech> ফাইন তো
[360.465]
<no-speech>
[364.605]
হ্যাঁ আমি মাংস খেয়ে আমার প্রবলেম হয়েছে বলছে দু রকমের মাংস খেয়ে আমার গন্ডোগোল <sta> হয়ে গেছে আর বলো না তোমার- খাবো না খাবো না জোর করে আমি নিয়ে গেছি যে না মাংস <no-speech> তুই তো চলে গেছিলি থাকলে না
[376.495]
তোকে না হয় ডেকে নিয়ে যেতাম আঃ
[378.435]
<no-speech>
[383.155]
<laugh> আঃ ছাগলের ছা- ছাগলের মাংস ঐ খাসির মাংস আর কচ্ছপের মাংস দুটো কুদোকুদি করে রাত্রে পেট খারাপ হয়েছে রাত্রেও <sta> কালকে তিনখানা ট্যাবলেট দিয়েছে খেয়ে দেয়ে
[395.135]
এই অফিসে যাচ্ছে যে বিকালবেলায় গেলো বললো তোমাদের তোমার <hes> কথা শুনবো না খাসির মাংস খেয়েছি মিষ্টি ফিষ্টি খেয়েছি সকালবেলা একগাদা খেয়েছি তারপরে আবার রাত্রিবেলা কচ্ছপের মাংস খেয়েছো খাইয়ে টাইয়ে একেবারে সকালবেলা- এসে আমার একেবারে ছয় সাতবার পায়খানা করেছে <sta> তাই বললো তারপরে ঐ ট্যাবলেট ট্যাবলেট খেয়ে তারপরে গেছে এখন তুই কোন খানে যা- <hes> কোন বাস ধরবি
[417.445]
<no-speech>
[423.175]
হ্যাঁ <sta>
[424.355]
<no-speech>
[425.605]
(()) <sta> কটা থেকে তোর নাইট কটা থেকে <no-speech> আটটা থেকে এই তুই- তুই এখন এদিক থাকিস না কেন রে তোকে তো দেখি না তো অনেক দিন ধরে আমি- ঐ সেদিনকে পিকনিকের (())
[438.785]
<no-speech>
[439.885]
হ্যাঁ
[440.415]
<no-speech>
[446.185]
(()) নিয়ে বাড়ী ফিরলি তা আমি কোথায় ছিলাম আমি কোথায় ছিলাম <sta> তোকে দেখলাম না যে
[450.235]
<no-speech>
[453.365]
(()) <int> ফুলের বাড়ী ছিলি না এই বাড়ী ছিলি
[455.655]
<no-speech>
[457.805]
হ্যাঁ
[458.365]
<no-speech>
[460.715]
<sta> আ- <no-speech> আমি তো <hes> এই রাস্তায় ঘুরে বেড়াচ্ছি
[466.155]
<no-speech>
[468.765]
<sta> এটা এখন কোথায় এটাকে কি বলবো এটাকে (()) না যাদবপুর যাদবপুর ধরে সুলে- সুলেখার এখানটায়
[475.945]
<no-speech>
[478.465]
হুম হুম হুম আর পড়াশুনো করে (()) এ্যা
[482.695]
<no-speech>
[487.345]
<sta> সুলেখা তোর খুব চেনা পরিচিত তুই তো এদিকে পড়েছিস না কোন জায়গাতে যেন <no-speech> এই জায়গায় কোথায় যেন পড়তিস যাদবপুরে পড়তিস না তুই
[494.735]
<no-speech>
[496.645]
তাহলে- তাহলে সুলেখা তোর চেনা হবেই স্বাভাবিক ব্যাপার এইজন্যই তো চেনা সুলেখা তুই কি এইদিক দিয়ে সুলেখা হয়ে ব্রীজ (()) পা- পাড় করে ঐ স্টেশনে উঠে তো আবার চলে যেতি তাই
[507.885]
<no-speech>
[509.275]
ঐ সুলেখা হয়ে যেতিস না কি এগ্রি হয়ে চলে যে <no-speech>
[513.625]
<sta> ঐ তখন (()) হ্যাঁ হ্যাঁ
[516.834875]
<no-speech>
[517.894875]
<no-speech>
[518.285]
<no-speech>
[519.185]
ঐ তো এগ্রির ওখান দিয়ে সোজা- সোজা চলে গিয়ে ওখান দিয়ে ট্রেন ধরতি তাই তো <int>
[523.305]
<no-speech>
[526.655]
ঐ তো হ্যাঁ তা ঐ তো ইউনিভার্সিটি হয়ে তো এগ্রি অবধি আসছিস <int> না ইউনিভার্সিটির (()) ক্যাম্পাসের ভিতর দিয়ে (())
[533.405]
<no-speech>
[539.475]
<sta> ও
[542.045]
<no-speech>
[544.485]
আচ্ছা- <no-speech>
[546.915]
আচ্ছা
[547.595]
<no-speech>
[548.485]
আচ্ছা আচ্ছা <no-speech>
[550.045]
ঠিক আছে তাহলে তোর পিকনিক টিকনিক আছে নাকি সামনে এর মধ্যে আর <sta>
[554.485]
<no-speech>
[555.905]
<sta> হুম না না অফিস পিকনিক <int> না তোর অফিস পিকনিক
[561.865]
<no-speech>
[562.805]
<no-speech>
[563.285]
<no-speech>
[566.465]
(()) তোদের নদীর চরে ঐ জায়গাটা একটু ভাল পিকনিকের স্পট সব এইদিক গিয়ে ঐদিকে গেলো <sta> আর তুই তো ঐখানেই থাকিস ওখান থেকে ওখানে পিকনিকে যাস না সব মজার ব্যাপার তো ঐ জায়গায় (()) মদ খাচ্ছে আর নাচানাচি করছে <sta> এইতো ব্যাপার <no-speech>
[580.695]
(()) এ্যা <sta>
[581.865]
<no-speech>
[583.455]
<sta> মানে তুই তোর <hes> অফিস ছুটি হয়ে গেছে
[586.065]
<no-speech>
[587.285]
<int> এ্যা
[588.715]
<no-speech>
[590.015]
এ্যা
[590.505]
<no-speech>
[591.865]
<no-speech>
[594.305]
<no-speech>
[596.665]
<no-speech>
[596.9]
