[0.0]
<no-speech>
[4.315]
হ্যালো
[4.895]
<no-speech>
[6.725]
আমায় এখন (())
[8.115]
<no-speech>
[10.105]
ভাবী গেছে না ওখানে
[11.125]
<no-speech>
[16.925]
(()) <laugh>
[21.685]
<no-speech>
[23.935]
<sta> (())
[26.675]
<no-speech>
[29.605]
তাহলে একটু পরে করি
[30.895]
<no-speech>
[33.565]
<sta> এই জানো এই ভাবেই দেব হ্যাঁ সমস্ত পড়াশুনা করে হ্যাঁ
[37.785]
<no-speech>
[40.915]
হ্যাঁ হ্যাঁ বললাম না এই ভাবেই (()) পড়াশুনা করে হ্যাঁ
[44.005]
<no-speech>
[47.105]
সমস্ত কথা সোনার পরে তারপরে ফোনটা রিসিভ করবি হ্যাঁ
[51.395]
<no-speech>
[55.145]
<no-speech>
[55.355]
<no-speech>
[55.94]
