[0.0]
<no-speech>
[4.895]
হ্যালো <int>
[6.165]
<no-speech>
[7.005]
হ্যালো
[7.605]
<no-speech>
[9.085]
হ্যাঁ <breath> বলছি কেমন আছো
[11.005]
<no-speech>
[15.035]
হ্যাঁম ভালই আছি অনেকদিন তো তোমার সঙ্গে দেখা হয়না <int> সেই লাস্ট গ- <hes> এসছিলে তারপর তো আসোনাই এখানে আর
[22.565]
<no-speech>
[25.815]
বলছি <breath> এই <hes> পড়াশোনা করছিলাম বলছি <breath> তুমি বলেছিলে সেই চিড়িয়াখানায় বেড়াতে যাবে গেছিলে
[31.865]
<no-speech>
[35.585]
তুমি বলেছিলে না <int> চিড়িয়াখানায় বেড়াতে ঘুরতে যাবে গেছিলে
[38.535]
<no-speech>
[42.685]
ও সে তো তুমি আমাকে বলেছিলে আমার যাওয়া হলো না আমার এদিকে <breath> একটু পরীক্ষার <hes> পড়া ছিল তো তাই যেতে পারিনি
[49.305]
<no-speech>
[51.145]
ঠিক আছে <breath> আর <hes> <cough> কেমন ঘুরলে তুমি ওখানে
[54.955]
<no-speech>
[59.535]
ও <int>
[60.145]
<no-speech>
[62.835]
ও হ্যাঁ <breath> বলছি কি ওখানে <breath> <hes> সেই সাদা বাঘ দেখেছো
[66.745]
<no-speech>
[70.115]
সাদা বাঘ দেখেছো
[71.265]
<no-speech>
[72.265]
সাদা বাঘ <int> তারপরে গন্ডার <breath> তারপরে <breath> আচ্ছা ভাল কথা ওখানে সেই <breath> <hes> ইয়ে ছিল <hes> সেই বনমানুষ
[78.105]
<no-speech>
[82.745]
ও ঘুমাচ্ছিলো <breath> ও তো গাছে গাছে ঘুরে বেড়ায় <breath> ঠিক আছে বলছি <breath> চলো না <hes> মায়াপুর থেকে একদিন গিয়ে ঘুরে আসি
[91.235]
<no-speech>
[92.215]
<int> আচ্ছা মায়া পুড়ে নতুন মন্দির করেছে খুব সুন্দর বেশ <breath> <hes> ওটা বলে এশিয়ার সর্ববৃহৎ মন্দির হবে <breath> ঠিক আছে ওখানে সব বিদেশিরা প্রচুর বিদেশি আসে দেখতে খুব ভাল লাগবে তুমি তো যাওনি কখনো <breath> তুমি তো কখনো
[103.765]
কলকাতা ছেড়ে বেরও না
[105.225]
<no-speech>
[111.195]
হ্যাঁ <hes> একদিন গিয়ে ঘুরে আসতে হবে ওখানে খুব সুন্দর আর <breath> তোমার ঐ তোমার কি বলবো ঐ দোল পূর্নিমার সময়
[117.305]
<no-speech>
[119.605]
<hes> দোল পূর্নিমার সময় তো তোমার ঐ <breath> <hes> নদীয়ার যে মায়াপুর ওখানে তো বিশাল বড় প্রোগ্রাম হয় <cough> ওখানে তোমার বিদেশিরা আসে <breath> তারপর সেই <breath> <hes> সেই নাচ গান <int> <hes> কীর্তন <breath> হ্যাঁ লাইট দিয়ে গোটা মন্দিরটাকে সাজিয়ে দেয় মানে অপূর্ব অপূর্ব লাগে <breath> মানে তোমাকে <hes> না বলে বোঝানো যাবে না বললে কি বুঝবে না না দেখলে বুঝবে না তুমি
[141.745]
<no-speech>
[142.565]
<cough> আমি গতোবার গেছিলাম আমার এক বন্ধুর সাথে মিল্টন <breath> মিল্টন গেছিলেন মিল্টন আর আমি গেছিলাম তারপর ঐ মায়াপুরে আমার এক বন্ধু থাকে বাচ্চু ঐ আমাদের ঘুরিয়ে ঘুরিয়ে সমস্ত কিছু দেখালো
[152.875]
<no-speech>
[153.735]
চারদিকে তোমার <breath> মানে হ্যালো
[156.455]
<no-speech>
[157.505]
হ্যালো
[158.155]
<no-speech>
[159.375]
হ্যালো হ্যালো <int> শুনতে পারছো তো
[161.665]
<no-speech>
[162.885]
হ্যাঁ হ্যাঁ <breath> বলছি কি <int> হ্যাঁ শুনতে পারছো তো
[166.455]
<no-speech>
[168.175]
হ্যাঁ <breath> ওখানে চারদিকে সেই <hes> লাইটিং ফাইটিং করে দেয় *একেবারে* ডিভোর্স সুন্দর লাগে <breath> একদিন গিয়ে সবাই মিলে ঘুরে আসব তুমি <hes>
[175.385]
<no-speech>
[177.155]
তুমি তোমার মা বাবা <int> তুমি হ্যাঁ <int> আমিও গেলাম আমার মা বাবার সাথে গেলো হ্যাঁ তুমি তোমার বৌদিকে তোমার জামাইবাবুকে ডেকে নেবে সবাই একসাথে গিয়ে ঘুরে আসব গিয়ে
[187.555]
<no-speech>
[188.915]
ঠিক আছে
[189.615]
<no-speech>
[190.795]
আর বলছি হ্যালো <int>
[192.885]
<no-speech>
[193.995]
হ্যালো
[194.575]
<no-speech>
[196.165]
হ্যাঁ হ্যাঁ হ্যাঁ বলছি যে <cough> <hes> পড়াশুনা তো শুধু করলে হবে একটু ঘুরতে তো হবে <breath> না ঘুরলে বাইরের জগৎ না চিনলে হবে কি করে শুধু ঘরের মধ্যে বসে থাক- থাকলে হবে <breath> একটু নিজের ঘরের জগৎ ছেড়ে বাইরে বেড়িয়ে আসো তাইনা
[212.575]
<no-speech>
[215.165]
আঃ <sta> যাব যাব করলে হবে আসতে হবে তো
[219.325]
<no-speech>
[220.615]
<hes> যেতে তো হবে <breath> ওখানে ওখানে <breath> তোমার জানো ঐ সেই তো সেই পুরনো শিবতলা বলে একটা পুরনো জায়গা আছে হ্যাঁ খুব সুন্দর সেই পুরনো শিবের সেই <hes> <breath> সোনা দিয়ে সেই পুরনো মুরতিখা- সোনা দিয়ে বাঁধানো <breath> ওখানে একদিন <hes> তোমার নবদ্বীপে তুমি একদিন না গেলে বুঝবে না <breath> ঐ যে দৃশ্যটা ঠিক আছে তুমি না গেলে বুঝবে না ওখানে তো প্রচুর লোক <breath> আর ওখানে তোমার একটা ইয়ে আছে কি বলবো
[244.115]
তাতে তোমার ঐ <hes> অনেকদিনের পুরনো একটা গাছ আছে ওখানে সব মানত করলে বলে সবকিছু শরীর খারাপ সবকিছু মনের কামনা পূর্ণ হয় <breath> তোমার যদি মনে কোন ইচ্ছে থাকে বা কামনা থাকে বাসনা থাকে <breath> তুমি যদি ওখানে মানত করতে- করতে <hes> পারো
[256.905]
<no-speech>
[258.254875]
হ্যাঁ <hes> ঠিক আছে তুমি না দেখলে বিশ্বাস করবে না যে কত লোক <breath> মানে কাতারে কাতারে <int> লোক এসে ওখানে ভীড় করে জমায়েত করে পূজো করে <breath> মানে সেই অপূর্ব দৃশ্যও সেই দৃশ্যটা কি তোমায় কি করে বোঝাবো আমি <hes> জানি না অপূ- অপূর্ব দৃশ্যও না দেখলে বুঝতে পারবে না
[271.535]
<no-speech>
[272.805]
বলছি ভাল কথা
[273.885]
<no-speech>
[276.225]
হ্যাঁ হ্যাঁ নিশ্চয় <breath> বলছি আঃ
[278.375]
<no-speech>
[279.275]
<no-speech>
[279.995]
<no-speech>
[281.295]
বলছি আঃ তুমি এস_এস_সির জন্য তো ই করছ তো প্রিপারেশান নিচ্ছো তো
[285.135]
<no-speech>
[287.295]
আঃ তোমাকে আমি বলেছিলাম না সেই হিস্ট্রির একজন টিচার খুঁজতে পেয়েছো
[290.765]
<no-speech>
[291.845]
হ্যাঁ
[292.355]
<no-speech>
[297.325]
হ্যাঁ হ্যাঁ আমার এক বন্ধু চেনো <int> তো বন্ধুটাকে ঐ রাহুল
[300.345]
<no-speech>
[302.465]
রাহুল বলেছিল যে আমাদের এরকম গাগনাপুরে সমীর <breath> দত্ত বলে একজন আছে ভাল পড়ান <breath> কিন্তু উনি কোন স্কুলের টিচার নন উনি এমনি <sta> এমনি একজন মানে স্কুলের টিচার এমনি হায়ার সেকেন্ডারি <breath> (()) এগুলো
[314.305]
পড়ান <breath> কিন্তু খুব ভাল বোঝায় বলে জানো তো <breath> তুমি যদি পড়াশুনা করো মানে উনার কাছে পড় <breath> হ্যাঁ উনার বোঝানো এত সুন্দর না তুমি <breath> না মানে বাড়িতে <int> বই না পড়লে তোমার মুখস্ত করিয়ে দেবে এরকম ব্যাপার <breath> খুব ভাল বলে তুমি যোগাযোগ করতে পারো <int>
[326.845]
<no-speech>
[330.985]
<no-speech>
[331.345]
<no-speech>
[332.475]
হ্যাঁ হ্যাঁ <int>
[333.125]
<no-speech>
[335.155]
হ্যাঁ আমি যদি ওখানে পড়ি জানাবো খন তাহলে <breath> তাহলে ভালই হবে কারণ <breath> আঃ ধরো দুই একজন পড়ানো ইচ্ছুক না তিন চারজন হলো তাহলে হইতো পড়ালো তাইনা আর <lipsmack> তুমি কোথায় ফর্ম ফিলআপ করলে এই বছর <hes> এই এবার
[346.315]
<no-speech>
[350.555]
নদীয়া থেকে ঐ তুমি <hes> গাগনাপুর থেকে কি তুলেছো মানে বাড়ীর সামনে যে ব্যাংকটা এইচ বি_ও থেকে
[355.905]
<no-speech>
[358.025]
ও তোমার তো <breath> এটা আমাদের সাউথ ইস্টার্ন আমাদের মনে হয় হিস্ট্রিতে আটটা সিট আছে তাইনা
[362.385]
<no-speech>
[367.015]
হ্যাঁ তুমি তো তুমি তো পাঁচটা দিচ্ছো তো <breath> অনার্সে
[370.305]
<no-speech>
[371.715]
পাশে তো
[372.475]
<no-speech>
[373.795]
হ্যাঁ <int> পাশে আমাদের আটটা সিট আছে <breath> আর বলত কি <hes> দেখো <lipsmack> অনেকে আছে না <breath> তোমার ঐ সাইত্রিশটা আটত্রিশটা করে সিট আছে <breath> সব বাইরে চলে যাচ্ছে তুমি ভাল করে একটা কথা চিন্তা করে দেখো ওম- যেখানে সাইত্রিশটা সিট আছে হ্যাঁ <breath> সেখানে চারদিককার সিট বেশী বলে চারদিককার ছেলে গিয়ে ওখানে ভীড় জমাচ্ছে হ্যাঁ আল্টিমেট কিন্তু কোনো লাভই হচ্ছে না <lipsmack> দেখো কারণ আমি তোমায় বুঝিয়ে বলছি একারণে <lipsmack> যেখানে সাইত্রিশ- ত্রিশটা সিট চারদিকে <breath> সব ওয়েস্ট বেঙ্গল থেকে ওখানে পরীক্ষা দিতে আসছে <breath> তাহলে ঐখানে গেদারিংটা বেশী হচ্ছে <breath> আর যেখানে কম সিট সেখানে কোনো ছেলেরা যাচ্ছে না ফর্ম তুলছে না <breath> তাহলে ওখানে তো কম <int> ভর্তিও কম- <no-speech>
[409.065]
প্রতিযোগীতা কম <int> হচ্ছে
[410.325]
<no-speech>
[414.745]
হ্যাঁ আঃ
[415.385]
<no-speech>
[418.165]
কোথায়
[418.805]
<no-speech>
[422.505]
কত সাইত্রিশটা
[423.505]
<no-speech>
[426.385]
সাতশো সিট আছে
[427.775]
<no-speech>
[432.435]
ওহ <int> হ্যাঁ
[433.435]
<no-speech>
[440.035]
হিস্ট্রি
[440.805]
<no-speech>
[442.545]
হিস্ট্রির <no-speech>
[444.135]
সাস আঃ <int> ও <breath> ঐ তুমি <hes> একটু ঘরে আছো তো লাইনটা কেটে কেটে যাচ্ছে ঠিক আছে <breath> বলছি <hes> হ্যালো
[453.585]
<no-speech>
[458.015]
ফুল চার্জ থাকা সত্ত্বেও হচ্ছে কেন আমিও তো বুঝলাম <int> আমি তো ঘরের মধ্যে কি যেন আমার নতুন সিম নিয়েছি আসলে হ্যাঁ <hes> শোনো এইবার কিন্তু ভাল করে <hes> পড়াশোনা করতে হবে কারণ এইবারই হয়তো আমাদের শেষ সুযোগ
[468.865]
<breath> কারণ দু হাজার <breath> <hes> <int> চৌদ্দের পর থেকে আর <hes>
[473.105]
<no-speech>
[474.135]
হ্যালো
[474.705]
<no-speech>
[477.575]
হ্যাঁ দু হাজার <hes> চৌদ্দের পর থেকে আমার হচ্ছে না এইবারই <breath> ভাল করে পড়াশোনা করতে হবে <breath> চাকরী পেতে গেলে তাই না
[483.615]
<no-speech>
[486.535]
হ্যাঁ ভাল করে পড়াশোনা করতে হবে আমাদেরকে <breath> <hes> কিন্তু এইবার খুবই <hes> সত্যি কথা জানতো এইবার আমাদের খুবই খাটতে হবে এইবার খুবই খাটতে হবে <breath> আর (()) কোনো দিকে তাকানো চলবে না এদিক ওদিক
[498.035]
ডানে বায়ে (()) দিক ওদিক তাকালে চলবে না তোমাকে <hes> পড়াশোনা করতে হবে <int>
[503.065]
<no-speech>
[505.435]
কিছু বললে আমাকে
[506.375]
<no-speech>
[509.515]
হ্যাঁ হ্যাঁ পড়াশোনা আরম্ভ করে দিয়েছি <breath> শুধু (()) না আমি <int> সারা দিন রাত আমি খাটছি আমি <breath> শুধু
[514.735]
<no-speech>
[516.105]
হ্যাঁ হ্যাঁ ঠিক আছে <cough>
[518.055]
<no-speech>
[526.105]
হ্যাঁ
[526.775]
<no-speech>
[528.465]
বলছি তুমি <hes> বলছি তুমি হিস্ট্রি দিচ্ছো তো <breath> আচ্ছা হিস্ট্রি কার বই <hes> দিয়ে পড়লে ভাল হয় বলত
[533.295]
<no-speech>
[539.355]
জীবন মুখো <no-speech>
[544.055]
হ্যাঁ হ্যাঁ
[544.615]
<no-speech>
[547.515]
হ্যাঁ জীবন মুখোপাধ্যায়ের বইটা যেন আমার দরকার ছিল একটু
[549.955]
<no-speech>
[555.665]
তুমি তো ভাগ্য করে জোগাড় করেছ কিন্তু আমি তো পাচ্ছি না <int> কারো কাছে খুঁজে পাচ্ছি না আমার খুবই দরকার <breath> কিনতে পাওয়া যাবে কিন্তু
[561.025]
<no-speech>
[562.805]
হ্যালো
[563.375]
<no-speech>
[564.815]
হ্যালো <int>
[565.315]
<no-speech>
[566.965]
হ্যালো <int>
[567.475]
<no-speech>
[568.435]
শুনতে পাচ্ছো
[569.245]
<no-speech>
[572.885]
<int> হ্যাঁ শুনতে পাচ্ছি বলছি <breath> <hes> বইটা তো কিনা দরকার খুব
[577.095]
<no-speech>
[580.465]
হ্যাঁ হ্যাঁ তাহলে প্রবলেম হচ্ছে কিছু করার নেই গো <hes> একটু কথা বলি কারণ <breath> প্রয়োজনটা যখন পড়াশোনার ব্যাপারটা বুঝতে পারছি যে <breath> <int> আমি প্রতিবার তোমার সাজেশনটা নিয়ে থাকি আমি তাইনা আমি তোমার <hes>
[592.335]
তোমার কাছ থেকে আমি কতবার দেখেছি তোমার কাছ থেকে সাজেশনের বই টই কিনলাম তাইনা
[596.325]
<no-speech>
[597.885]
হ্যালো
[598.265]
<no-speech>
[598.62]
