[0.0]
<no-speech>
[2.755]
<no-speech>
[3.295]
<no-speech>
[4.685]
<no-speech>
[5.975]
<no-speech>
[6.845]
<no-speech>
[7.335]
<no-speech>
[13.205]
<no-speech>
[15.475]
<no-speech>
[20.045]
<no-speech>
[21.375]
<no-speech>
[22.345]
হ্যাঁ হ্যালো
[23.145]
<no-speech>
[31.835]
<hes> কালকে হলিডে ছিল ঘুরতে গিয়েছিলাম মাস্তদিতের বাড়ী
[35.705]
<no-speech>
[38.505]
পাতুলি
[39.215]
<no-speech>
[40.755]
<int> পাতুলি এক মিনিট কাটোয়ার লায়
[47.785]
<no-speech>
[49.865]
<int> হ্যালো হ্যাঁ বল <int>
[54.375]
<no-speech>
[56.275]
কি বলছো <int> হ্যালো হ্যাঁ
[60.575]
<no-speech>
[62.135]
<int> হ্যাঁ কি বলছো যান কার মত দিয়েছিলাম কি একটা কথা বললে
[66.995]
<no-speech>
[70.185]
<sta> বেড়াতে যে গিয়েছিলাম আজকে (())
[74.265]
<no-speech>
[76.185]
<no-speech>
[78.345]
<no-speech>
[79.965]
<no-speech>
[80.425]
<no-speech>
[81.275]
গেলাম এখান থেকে ট্রেন ধরলাম <int> গিয়ে আমার একটু দরকারও ছিল ছুটি টা মজা করারও দরকার ইচ্ছে ছিল <int>
[92.135]
আত্মীয় বাড়ী গেলাম <sta> গিয়ে একটু আনন্দ করে <no-speech> আবার বিকেলে ট্রেন ধরে ব্যাক করলাম
[99.195]
<no-speech>
[102.425]
বিকেলে ওখান থেকে ট্রেন ধরেছি সাড়ে চারটে
[104.935]
<no-speech>
[107.235]
ধরে ওখানে এক ট্রেনেই আমার মাই সামনা ঘর
[116.225]
<no-speech>
[117.885]
সামনা ঘর থেকে আর কোথাও যায়নি বাড়ীতেই বেরিয়েছিলাম
[120.275]
<no-speech>
[122.255]
<no-speech>
[123.595]
<no-speech>
[125.535]
বাড়িতে
[126.315]
<no-speech>
[128.864875]
<sta> বাড়িতে পৌঁছেছি নটায়
[130.405]
<no-speech>
[136.985]
<no-speech>
[137.375]
<no-speech>
[140.435]
হ্যাঁ
[141.095]
<no-speech>
[142.415]
<no-speech>
[142.765]
<no-speech>
[146.695]
<int> হ্যাঁ
[147.935]
<no-speech>
[149.445]
নটায় বেড়িয়েছি কি করেছ- <no-speech>
[152.475]
নটায় বেড়িয়েছি কি করেছ
[154.305]
<no-speech>
[159.755]
<no-speech>
[160.245]
<no-speech>
[161.685]
<no-speech>
[162.475]
<no-speech>
[164.665]
কোথার দিব্যি করতে যাচ্ছ <sta>
[167.855]
<no-speech>
[171.205]
হিম
[171.765]
<no-speech>
[173.745]
হিম
[174.995]
<no-speech>
[178.035]
হিম <int>
[181.665]
<no-speech>
[182.725]
হে <int> তোরা তোরা কটা কটার সময় পিকনিক শেষ হল
[186.295]
<no-speech>
[187.425]
<sta> হ্যাঁ
[191.055]
<no-speech>
[191.975]
<sta> পিকনিক কটায় শেষ হয়েছে
[197.305]
<no-speech>
[198.695]
সাড়ে তিনটে <hes> কালকের দিনটা ভালই কেটেছে মোটামুটি যেটা আমি চেয়ে ছিলাম সেটাই হয়ে গেছে
[205.405]
<no-speech>
[207.995]
<no-speech>
[209.645]
<no-speech>
[213.285]
<int> হা
[214.115]
<no-speech>
[214.985]
<no-speech>
[220.925]
<no-speech>
[221.825]
<int> না ওখানে কি বল বলত প্রথম দিন যেখানে আমি মানে ধর ট্রেনে করে যাচ্ছিলাম পঁচিশ ডিসেম্বর একটু একা একা লাগছিলো কিন্তু যখন ধর মনে কর যে আমি ওখানে পৌঁছে গেলাম ওখানেতো দিদি বাড়ী তো
[233.565]
দিদি বাড়িতে বেশ মজা হয়েছে মজা বলতে ধর ওরা বাড়ীর মধ্যেই একটা পিকনিক ছোট্টো মত করেছিল সেদিন ঘরে রান্না হয়নি আসে পাশে দুটো ফ্যামেলি ইন্টিমেসি বেশী রয়েছে
[244.475]
আর আমরা দুজন সবাই মিলে গেছিল পূজোর সময় যাওয়া হয়ে ছিলোনা ওই বাড়িতে মানে বাচ্চাটার জন্য জামা কিনেছিলাম তো
[252.015]
<no-speech>
[252.815]
<sta> সেটা দাওয়া হয়নি তো আমার কাজের চাপও ছিল তো এর মধ্যে থাকার সময় পেয়েছি কালকে <no-speech> ঠান্ডার মধ্যে একটা সময় হয়ে গেল ওখানে গেলাম পিকনিক হল টল খেলাম ইভেন কি <hes> পিঠেও খেলাম কেকও
[264.625]
খেলাম সবই হল <int> বেশ ভালই মজায় কেটেছে আমরা ওখানে পৌঁছে গেছি বারোটার সময় পৌঁছে গিয়ে ধর চার সাড়ে চারটের নাগাদ ট্রেন ধরেছি মানে বেশীক্ষণ টাইম থাকা হয়নি যেটুক
[276.545]
টুকু টাইম থাকা হয়েছে খাওয়া খাই হুল্লোড়ের মধ্যেই কেটেছে
[279.285]
<no-speech>
[281.335]
<no-speech>
[281.695]
<no-speech>
[282.855]
<int> বুঝেছো
[284.035]
<no-speech>
[287.625]
এর পরে যাওয়ার টার ইয়ে বলছি <int> এর পরে কোথায় যাবে <int>
[295.375]
<no-speech>
[296.815]
জিজ্ঞাসা করলাম এর পরে কোন ঘোরা ঘুরি নেই <int>
[303.775]
<no-speech>
[305.225]
হ্যালো
[306.635]
<no-speech>
[308.745]
<sta> আমি বললাম এবার তুমি বল
[311.905]
<no-speech>
[318.91]
<no-speech>
[325.915]
<no-speech>
[326.505]
<no-speech>
[329.245]
<no-speech>
[329.595]
<no-speech>
[331.375]
<no-speech>
[331.965]
<no-speech> দু বার পিকনিক
[335.975]
<no-speech>
[338.525]
হি হি
[339.185]
<no-speech>
[343.375]
<no-speech>
[343.825]
<no-speech>
[346.055]
নিজস্ব বুটিক
[347.165]
<no-speech>
[348.335]
<sta> না বুটিকের লোকে নিয়ে কাজ তাই তো
[351.225]
<no-speech>
[352.215]
<no-speech>
[352.685]
<no-speech>
[357.435]
<sta> না না পিকনিকটা পিকনিকটা যেটা হয়েছে
[361.285]
<no-speech>
[362.355]
<sta> পিকনিক যেটা করেছে বুটিক বুটিকের লোকদের নিয়ে করেছে
[366.685]
<no-speech>
[370.395]
হুম না কালকে আমার কিছু কেনা হয়নি কেনা হয়নি মানে এত তাড়াহুড়ার মধ্যে কিছু হয়ও না ঐ গিয়ে ব্যাক করা সে মানে কি বলবো মানে
[381.465]
<sta> এত তাড়াহুড়ার মধ্যে না খাওয়া দাওয়া ঠিক হয় না লোকের প্রশ্নের উত্তর দেওয়া হেনা করা ত্যানা করা কিছু করে কিছু হয়না ফালতু ফালতু ব্যাস আমার দরকার ছিল তাছাড়া পঁচিশে ডিসেম্বরটা ঘোরাও হয়ে যাবে
[393.295]
সেই জন্যই আমি গিয়েছিলাম
[394.855]
<no-speech>
[396.055]
<no-speech>
[396.745]
<no-speech>
[399.895]
<sta> হা এমনি এমনি যার স্কোপ হয় না স্কোপ হলেও মানে ইচ্ছা করে না এই জন্য সবাই হুল্লোড় করে বেড়ায় হুল্লোড়ের চোটে আমার আরও মনে মনে হয় একটা হুল্লোড় লাগে
[411.445]
চলে যাই
[412.105]
<no-speech>
[424.075]
না আসলে টা না আমার সেটাও হয়নি কারণ আমার ট্রেনটা তাড়াতাড়ি ধরতে হবে আমিও তাড়াতাড়ি উঠতে হয়েছে ছুটি র দিন হলে হয়তো আর একটু রেস্ট পাই মানে ওইদিন ডেটে কিন্তু কালকে হয়নি কালকে তাড়াতাড়ি
[435.965]
তাড়াতাড়ি ঘুম থেকে উঠতে হল <int> উঠে বেরোলাম
[440.455]
<no-speech>
[442.205]
কি আর করা
[443.035]
<no-speech>
[443.905]
তার পরে কেমন কাটালে খুব ভাল কাটিয়েছ
[446.035]
<no-speech>
[447.825]
<int> কতটা
[448.845]
<no-speech>
[450.105]
<no-speech>
[450.455]
<no-speech>
[453.345]
<laugh> লাস্টে
[454.695]
<no-speech>
[456.085]
লাস্টে লাস্টে
[457.435]
<no-speech>
[461.105]
(()) যখন পিকনিক থেকে ফিরছে তখন
[464.795]
<no-speech>
[467.085]
যখন পিকনিক থেকে ফিরছো <sta>
[470.025]
<no-speech>
[472.105]
<no-speech>
[473.135]
<no-speech>
[474.125]
<no-speech>
[474.545]
<no-speech>
[475.735]
<no-speech>
[477.315]
<no-speech>
[481.385]
<no-speech>
[482.965]
<no-speech>
[484.725]
<no-speech>
[487.125]
<no-speech>
[488.835]
<no-speech>
[489.255]
<no-speech>
[491.495]
<sta> বৃহস্পতিবার অনুষ্ঠান বাড়ী করছ মানে
[494.875]
<no-speech>
[498.035]
বৃহস্পতিবার দিন
[499.065]
<no-speech>
[505.755]
<int> হ্যাঁ <int>
[509.935]
<no-speech>
[514.305]
হুম
[514.954875]
<no-speech>
[518.835]
নেই
[519.475]
<no-speech>
[521.995]
আচ্ছা যাব দেখি সময় পাই
[524.445]
<no-speech>
[527.245]
কি সময় পাই
[528.725]
<no-speech>
[530.735]
তার পরে দেখা হবে
[532.175]
<no-speech>
[534.045]
<no-speech>
[534.395]
<no-speech>
[536.955]
হা
[537.695]
<no-speech>
[540.145]
<sta> কালকে কি খেয়েছি
[542.445]
<no-speech>
[543.585]
কালকে কালকে ছিল যে পটল <int> পটল দিয়ে আলু দিয়ে চিংড়ি হয়েছিল মাটন হয়েছিল
[551.275]
<int> ফুলকপির দোরমা না কি বলে ও একটা কি একটা যেন করেছিল ফুলকপির তা এক
[559.755]
<int> ফুলকপিটা করা করে করে কি টাইপের তরকারি করেছিল ওরা ডাল করেছিল বেগুন ভাজা মিষ্টি <int>
[568.975]
চাটনি পাঁপড় <int> আর পিঠে <int> সাথে <int> সাথে ঐ যে ঝোলা গুড়
[580.515]
খাই না
[581.185]
<no-speech>
[582.365]
<sta> ঝোলা গুড় ঝোলা গুড় ঝোলা গুড় দিয়ে একটা পায়েস টাইপের ওরা করেছিল কিন্তু অতটা তো ভাল হয়নি কিন্তু ভাল লাগিনি আমার কিন্তু পিঠেটা ভাল লেগেছে- <int> সে পাটিশাপটা পিঠে করেছিল <int>
[598.625]
<int> খাওয়া দাওয়া হল কই
[599.72]
