[0.0]
<no-speech>
[4.715]
<sta> হ্যালো
[5.545]
<no-speech>
[6.605]
হ্যাঁ কি করছিস
[8.205]
<no-speech>
[12.505]
(()) <no-speech>
[14.035]
আচ্ছা <int> স্বপনদার একটা করে দিয়েছে
[16.785]
<no-speech>
[17.765]
ওরে (()) <sta> ওটা কি আজকে দেওয়া হবে নাকি
[20.445]
<no-speech>
[21.365]
ও <int> আচ্- <no-speech>
[24.035]
এই <sta> যাক ওটা হয়ে (()) গেলে পাঠিয়ে দেবো হ্যাঁ
[29.565]
<no-speech>
[30.915]
<no-speech>
[31.315]
<no-speech>
[32.134875]
হ্যাঁ <hes> শনিবার খেলা দেখি এখন কাজের কি রকম চাপ থাকে না থাকে <sta> সেই ব্যাপার (()) খেলা দেখাবার ইচ্ছে আছে হ্যাঁ মাঠে যাবার ইচ্ছা আছে মাঠে যাবার ইচ্ছা ছে কিন্তু এখন কি রকম চাপ থাকে প্রেশার থাকে <sta> সেটা না দেখে তো কিছু করা যাবেনা
[48.745]
<no-speech>
[49.625]
<sta> <hes> (()) <no-speech>
[56.945]
<int> হুম
[57.435]
<no-speech>
[58.455]
(()) এই ম্যাচটা মোহন বাগান কে হারাতেই হবে <sta>
[63.065]
<no-speech>
[64.354875]
(()) না হারালে <laugh> তার সুদাম নষ্ট হয়ে যাবে বুঝলি তো <no-speech> <sta> কাগজে কি আছে কাগজ
[70.235]
<no-speech>
[72.275]
(()) আনন্দবাজারে কংগ্রেস কি বলছে দীপা দাসমুন্সী <int>
[79.055]
<no-speech>
[80.965]
ও বলছে যে (()) আত তৃণমূলেরই আছে <sta>
[87.205]
<no-speech>
[89.495]
হ্যাঁ <no-speech>
[94.595]
হ্যাঁ হ্যাঁ <sta>
[95.325]
<no-speech>
[99.865]
(()) করছে
[102.045]
<no-speech>
[103.365]
<no-speech>
[104.655]
<no-speech>
[105.525]
<sta> হ্যাঁ
[109.845]
<no-speech>
[112.285]
<sta> মমতা (()) করছে একেবারে ঠিক কাজ করছে ফুল প্রেশার না দিলে ফুল প্রেশার না দিলে
[124.005]
এরা পুরোপুরি পেয়ে <sta> বসবে
[126.125]
<no-speech>
[126.945]
(()) <sta> এদের কোন কাজে (()) লাগবে না
[132.835]
<no-speech>
[134.635]
<no-speech>
[137.135]
<no-speech>
[138.385]
হুম <sta> মমতা যেটা করছে ঠিক করছে এক দুটোকে <no-speech>
[146.745]
<no-speech>
[149.395]
<no-speech>
[150.285]
<sta> হ্যাঁ <no-speech> আর শোন না বলছি ঐ জানুয়ারীর পনেরো না ষোল তারিখে একটা নিমন্ত্রণ আছে
[160.325]
<no-speech>
[161.625]
<sta> গোবিন্দর মেয়ের বিয়ে
[163.115]
<no-speech>
[164.155]
<no-speech>
[165.105]
<no-speech>
[166.385]
<sta> হ্যাঁ সেদিনকে কি যাবি
[168.755]
<no-speech>
[170.425]
<no-speech>
[171.855]
<no-speech>
[173.005]
<sta> তা অনেক ডিসটেন্স তো ওটা একটা গাড়ি করে নিলে
[176.215]
<no-speech>
[177.415]
(()) সবাই (()) <sta> তাই না কেননা ডিসটেন্স অনেকটা চেনার ব্যাপার আছে রাতও হয়ে যাবে শীতকাল
[186.915]
<no-speech>
[188.155]
<sta> ঐসব ব্যাপার (()) করতে হবে
[190.215]
<no-speech>
[192.745]
<sta> হ্যাঁ কত তারিখ
[195.715]
<no-speech>
[198.325]
<sta> হ্যাঁ ইংরেজীর উনিশ তারিখ (())
[203.385]
<no-speech>
[205.775]
<sta> <hes> আমি আসছি একটু হ্যাঁ
[209.965]
<no-speech>
[210.905]
<sta> <hes> তাহলে উনিশ তারিখে ঐ করি বুঝলিতো একটা গাড়ি ফাড়ি ঠিক করে নি গাড়ি ফাড়ি ঠিক করে <no-speech> একসাথে সবাই মিলে চলে যাব
[220.765]
<no-speech>
[221.975]
এখন শীতকালে <no-speech>
[226.485]
হ্যাঁ অবশ্যই অবশ্যই <sta> তা হলেতো কিছু হবে <no-speech>
[230.675]
আর (()) <sta>
[231.995]
<no-speech>
[233.925]
<sta> (()) বিয়ের ডেট আছে আগের থেকে বুক না করলে অসুবিধা হয়ে যাবে
[238.585]
<no-speech> পাঠশালা কেমন চলছে <no-speech> <sta> হ্যালো
[244.175]
<no-speech>
[245.875]
বলছি তো কাজটা আবার কেমন চলছে <sta> <no-speech> আরে ভাই লেবার প্রবলেমে এই যা ভুগছি কি বলবো লেবার <int> আজকে আসে তো কালকে আসে না পরশু (()) <sta> আসে না ওরা (())
[261.544875]
<no-speech>
[262.565]
<sta> সেইভাবেই চলতে হয়
[264.375]
<no-speech>
[268.965]
<sta> ওরা যেইভাবে চালাবে এখন আমাদের সেইভাবে চলতে হবে আমাদের কিছু (()) মানে
[279.165]
<no-speech>
[280.365]
এবার (()) <no-speech>
[282.685]
লেবারের জন্য সংসার চালানো দুস্কর হয়ে যাচ্ছে <sta>
[288.615]
<no-speech>
[291.615]
<no-speech>
[292.115]
<no-speech>
[292.965]
<sta> কি দুর্ভাগ্য যে এই লাইনে চলে এলাম যেটা পুরোপুরি লেবারের উপর ডিপেনডেড
[299.445]
<no-speech>
[300.375]
<int> (())
[301.185]
<no-speech>
[307.395]
<no-speech>
[307.815]
<no-speech>
[309.155]
এই হচ্ছে কথা <int> (())
[312.075]
<no-speech>
[313.545]
<sta> (()) এত বছর (()) এত বছর ধরে কাজ করে আসছি তখন তো আর বুঝতে পারিনি যে এই রকম ঘট- <no-speech>
[324.235]
<sta> না
[326.505]
<no-speech>
[327.525]
(()) <no-speech>
[331.085]
<sta> সে রকম কোন ব্যাপার নেই <no-speech> আসছি আমি <no-speech> আমি এত বছর ধরে যে এই লাইনে আছি আমি মনে করছি যে ও বুঝি সুখে আছে এই লাইনটা ভাল এ্যা ম ওই লাইনটা ঢুকলে বোধহয়- কিন্তু <sta> ওটার মধ্যেও সেই একই সমস্যা <no-speech> ওই জন্য (())
[349.345]
<no-speech>
[350.995]
কি করব <sta> (()) নিজের হাতে (()) <no-speech>
[356.795]
<sta> (()) <no-speech>
[364.095]
<no-speech>
[365.735]
<no-speech>
[367.495]
<sta> বললাম না পুরোপুরি ওদের পর ডিপেনডেড হয়ে আছি
[370.195]
<no-speech>
[371.335]
<sta> যা বলবে যেই ভাবে বলবে সেই ভাবে চলতে হবে সেই ভাবে চলতে হবে সেই ভাবে <no-speech>
[377.635]
<sta> (()) <no-speech>
[381.135]
<no-speech>
[381.515]
<no-speech>
[384.795]
<sta> হুম <no-speech> আমার মেয়ের (()) স্কুল খুলেছে আমি স্কুলেই যাচ্ছি এখন <no-speech> ছুটি হবে একটা পঞ্চাশে ছুটি হবে এখনও পর্যন্ত বুকলিস্ট দেইনি <no-speech> <sta> এই একটা সমস্যা বুকলিস্ট না দিলে পরেতো কোনও বইও কিনতে পারবো না কিছুই করতে পারবো না
[406.645]
<no-speech>
[407.495]
(()) <no-speech>
[414.475]
<no-speech>
[417.125]
<no-speech>
[421.145]
<no-speech>
[421.565]
<no-speech>
[422.545]
<no-speech>
[423.465]
<no-speech>
[424.315]
<sta> সে পাওয়া যাবে ঠিক আছে কিন্তু বুকলিস্টটা দিলে পরে তো বইয়ের সমস্যার সামাধান <no-speech>
[432.495]
<no-speech>
[435.075]
<no-speech>
[436.665]
<no-speech>
[437.145]
<no-speech>
[437.955]
<no-speech>
[438.615]
<no-speech>
[439.975]
হ্যাঁ <sta>
[442.365]
<no-speech>
[444.125]
<sta> আচ্ছা আচ্ছা
[445.785]
<no-speech>
[446.625]
<sta> আর তন্ময় উশকিন্দে বলেছে যে কথামালাতে তুই সব বই পাবি
[449.985]
<no-speech>
[451.625]
(()) এখন আমার (())
[454.945]
<no-speech>
[455.815]
<sta> আমাদের তো (()) নাই (()) <hes> যেই রাইটারের বই দেবে সেই রাইটারের বইই কিনতে হবে অন্য কোন রাইটার কিনলে হবে না আর এই নয় যে আজ <sta> (()) সেই রকম কোন ব্যাপার নেই আর এখন তো সব দামী দামী <no-speech>
[477.945]
<sta> হুম
[479.455]
<no-speech>
[483.105]
<sta> হুম
[487.005]
<no-speech>
[489.415]
<no-speech>
[494.325]
<no-speech>
[495.155]
<sta> হুম <no-speech>
[501.515]
<sta> (()) হল তোর মনে নেই
[504.515]
<no-speech>
[506.415]
আজ না <sta>
[507.375]
<no-speech>
[509.395]
<sta> আমার জন্য নাই এখন নাইন টেন এর বই <no-speech>
[514.805]
(()) <no-speech>
[519.295]
<sta> (()) নাইন (()) ওই জন্যই তো (()) এদিকে
[528.045]
<no-speech>
[529.225]
ও রুটিন দিয়ে দিয়েছে (()) <sta> কি সমস্যা রুটিন দিয়ে দিয়েছে (())
[540.105]
<sta> হ্যাঁ
[542.745]
<no-speech>
[545.325]
<sta> কি জানি (()) সেটাও কিছু বলেনি আজকে যাচ্ছি স্কুলে দেখি কি বলে না বলে <no-speech> একমিনিট
[556.445]
<sta> হা বল
[560.685]
<no-speech>
[562.195]
<sta> হ্যালো
[562.755]
<no-speech>
[569.405]
<sta> হুম বেড়ে গেল সমস্যা
[571.455]
<no-speech>
[573.645]
(()) <sta>
[581.265]
<no-speech>
[583.075]
আমি বাস থেকে নামলাম গড়িয়াপুকুরে <sta> এখন আবার অনেক (()) হবে
[587.825]
<no-speech>
[589.415]
এই (()) নামলাম
[591.225]
<no-speech>
[593.165]
<int> হ্যাঁ নেমে <sta> গেছি দুষ্টুর কাছে ওই ফোনটা দিলাম
[597.545]
<no-speech>
[598.765]
<no-speech>
[598.96]
