[0.0]
<no-speech>
[3.565]
হ্যালো
[4.204875]
<no-speech>
[6.465]
হ্যাঁ বলো
[7.405]
<no-speech>
[8.375]
<no-speech>
[10.165]
<no-speech>
[14.005]
হ্যাঁ
[15.245]
<no-speech>
[17.145]
আরে এটা একটা ওই কাজ আছে তো ওইটাই ভয়েস রেকর্ডিয়ের কাজ হচ্ছে তো
[23.345]
<no-speech>
[24.645]
ভোডাফোন কোম্পানীর তো দশ <hes> মানে দশ মিনিট একজনার সঙ্গে কথা বলতে লাগে তো
[30.135]
<no-speech>
[31.655]
এইটাই
[32.365]
<no-speech>
[35.705]
<breath> আচ্ছা <sta> আর কি আছে ফ্রিতে কথা বলাচ্ছে কথা বলতে থাকি কি আছে <laugh>
[40.855]
<no-speech>
[44.245]
তাই (())
[45.195]
<no-speech>
[48.415]
আরে না রাখীও করে গেছে রাখি আবার আমার নাম্বারে কথা বলে <hes> দশ মিনিট কথা বললো এখন আমি গিয়ে আবার রাখি কে করব
[55.375]
<no-speech>
[57.985]
এমনি তেই মনে হয় কথা <hes> বাড়ী হইতেছে না কি কবো না কবো
[62.845]
<no-speech>
[65.405]
হ্যাঁ কি বলে কবে আসলা গেছিলা কল্যানী
[68.815]
<no-speech>
[73.705]
ওহ
[74.455]
<no-speech>
[81.205]
ওহ রান্না বান্না কি বড়দাই করছে
[83.195]
<no-speech>
[85.645]
রান্না বান্না কি বড়দাই করছে
[87.385]
<no-speech>
[92.645]
হু
[94.015]
<no-speech>
[100.375]
ওহ
[101.095]
<no-speech>
[103.955]
এ্যা বড়দা কি মাঠে
[106.765]
<no-speech>
[110.885]
<sta> ও বৃষ্টি টৃষ্টি হইতেছে ওই দিকে
[114.865]
<no-speech>
[116.935]
বৃষ্টি হয়
[117.885]
<no-speech>
[125.925]
ওহ
[127.685]
<no-speech>
[128.545]
আমাদের এখনে গুড়ি গুরি ওই আরকি নাই তেমন হয় ন্যায় এখনও
[133.465]
<no-speech>
[143.815]
ওহ
[144.465]
<no-speech>
[146.835]
<sta> ও মেঘা মেঘা ইসে ঘুমাইছে নাকি
[151.065]
<no-speech>
[156.065]
ওহ
[156.875]
<no-speech>
[160.405]
(()) আর (())
[162.195]
<no-speech>
[167.675]
<sta> ও
[169.625]
<no-speech>
[170.465]
আর ঠিকই আছে একটা দিনইতো রোববার
[173.065]
<no-speech>
[180.165]
হু
[180.695]
<no-speech>
[185.005]
<no-speech>
[185.355]
<no-speech>
[186.695]
আবার ঘুম দিবা
[187.665]
<no-speech>
[195.035]
ওহ আমি পুচকি উঠছে তখন আটটা বাজে তখন ওকে নিয়ে কিছু্ক্ষণ ঘুরলাম ঘুরে টুরে মা ফাকা হইলো কাজ টাজ করে মার কাছে দিয়ে তারপর
[206.175]
আমি আবার ঘুম দিলাম এই ইয়ে তোমার দশটায় দশটায় উঠলাম
[210.175]
<no-speech>
[215.525]
<sta> ধূর কে কিছু নাই কাম টাম ওই জন্য
[219.905]
<no-speech>
[223.265]
হ্যাঁ
[224.175]
<no-speech>
[228.005]
টিউশানি তো টিউশানি তো হয়ই না মানে নেহাৎ এই বাড়ীরটা তিন্নি আরকি ওইটা বলতে (()) তিন্নি অন্য মাস্টারদের ভয় পায় না তো কাকি বলছে তুই
[239.655]
পড়াইস যখন ফাকা থাকি ওই শনি রবিবারটা ফাকা আছি কাজ থাকে না শনি রবিবারটা পড়াই
[245.275]
<no-speech>
[246.895]
<sta> তাও তো <cough> সকালে ওর পড়া থাকে দুপুরের দিকে গিয়ে পড়ায়ে দি আরকি ও রকম
[250.725]
<no-speech>
[253.965]
ওই জন্য
[254.695]
<no-speech>
[259.475]
বুঝলে
[260.065]
<no-speech>
[266.795]
কি
[267.265]
<no-speech>
[270.695]
আছে ঠিকই আছে
[272.955]
<no-speech>
[278.005]
ঠাকুর মা ঠিকই আছে তবে এখন ঐ মনে রাখতে পারে না ভুলে যায় মানে মোটামোটি ধর দশ পনের মিনিট আগে কিছু বলল আবার বলবে যে আপনি যে এটা করছিলেন এই কিছু
[289.955]
(()) তখন বলবে আমি করছি নাকি এটা কে করছে
[292.155]
<no-speech>
[293.025]
মানে এরকম আরকি কিছু কিছু কথা ভুলে যায়
[295.935]
<no-speech>
[298.525]
<sta> হ্যাঁ
[300.065]
<no-speech>
[304.515]
সেই ওইটাই
[305.685]
<no-speech>
[309.265]
(())
[309.905]
<no-speech>
[310.965]
<hes> হ্যাঁ
[311.825]
<no-speech>
[314.675]
হাঁটা চলা ঠিক আছে
[316.445]
<no-speech>
[318.295]
আমরা আমরা এতদিন লাস্টিং করব কিনা সন্দেহ
[321.195]
<no-speech>
[324.615]
তারপর সেদিন আবার ইসে উঠছিলো ব্যারাম উঠছিলো উঠে তোমার ঘড়ের এই এখানটা থেকে পরছে <hes> একটু কেটে গেছে
[335.285]
<no-speech>
[336.325]
ঠাকুমা যে ঘরে থাকে মানে ঠাকুরমা যে ঘরে থাকে
[339.745]
<no-speech>
[341.705]
ওইখান থেকে আরকি সিড়িতেই বসে ছিল
[344.705]
<no-speech>
[345.555]
ওই নীচটা পাথর টাথর আছে তো ওইখানে পরছে আরকি পইড়া হাতটা মনে হয় কাটছে আমি ছিলাম না রাখি বললো
[353.125]
<no-speech>
[356.405]
কাটছে কাইটে গেছে
[357.845]
<no-speech>
[363.095]
এইটাই তো এইটাই তো ভয় লাগে কখন কি (())
[367.685]
<no-speech>
[370.485]
এই এখন আবার বর্ষা কালের ব্যাপার এখন ওইদিকে যায় নদী ফদী সাইডে কোনদিন নদীতে না <no-speech>
[379.115]
আরে যাইতে দিবো নাকি এখন দেখলাম এখান ধর রাখি ভাত বারতেছে দেখলো ওইখানে বসে আছে তারপর ভাত টাত বেড়ে ডাকছে নাই নাই নাই পরে দেখি রাস্তার ওইদিক থেকে আইতেছে
[387.645]
<no-speech>
[389.525]
নিমেশের মধ্যে (())
[390.725]
<no-speech>
[393.445]
ও নিমেশের মধ্যে ভ্যানিশ হয়ে যায়
[395.555]
<no-speech>
[403.105]
আমিও ছোট থাকতে দেখছিলাম তো পইড়া খাটের পায়ের নীচে ইট দেওয়া ইটের লেগে মাথা মুথা ফেটে গল গল করে রক্ত পরতেছে ছোট বেলায় দেখছি এখন তো তাও ওরকম ওতো কিছু হয়না এখন (()) ধর মাটিতেই পড়ল উঠানের মধ্যে এরকম আরকি
[418.585]
<no-speech>
[419.725]
<no-speech>
[420.215]
<no-speech>
[425.805]
এইটা এইটার জন্য কিন্তু এখনও এইদিক দিয়া অন্য <hes> অন্য সব ইসে নাই কিছু
[430.895]
<no-speech>
[432.635]
তখন কিছু আর মানে এইটা একটাই আছে আর আদার্স কোন সমস্যা নেই
[437.825]
<no-speech>
[443.205]
আর এইটা (()) এইটাতেই ঘুমায়ে রয়েছি রাস্তাঘাটে ধর গেল রাস্তা ঘটে গাড়ি ঘোড়া চলে
[447.895]
<no-speech>
[453.585]
এইটাই এখনতো সবার সবসময় তো আর নজরে রাখা সম্ভব না এখন এইখানে গেল ওইখানে গেল এখন কই কই কে পিছনে দৌড়াবে আবার আবার বেশী না করলে আবার খেপে যায় রাগ করে
[463.795]
<no-speech>
[466.305]
<no-speech>
[466.655]
<no-speech>
[468.995]
এই রকম
[469.675]
<no-speech>
[474.885]
ওই যে বাচ্চাদের করেনা তোমার কোমড়ে দড়ি বেঁধে রাখে
[479.175]
<no-speech>
[481.635]
(()) ওই <hes> ওই রকম করে রাখতে হবে তাহলে
[484.045]
<no-speech>
[487.745]
<sta> ঠিক <laugh> ওইটাই তো কথা
[489.845]
<no-speech>
[490.715]
তাহলে
[491.335]
<no-speech>
[493.345]
এখন এখানে আছে তখন দেখলাম ওইখানে চলে গেল তারপর আবার ওইখানে
[498.595]
<no-speech>
[501.585]
এটাই
[503.515]
<no-speech>
[504.595]
তারপর আজকে কি রান্না বান্না
[506.135]
<no-speech>
[512.245]
হু
[512.785]
<no-speech>
[516.075]
ওহ
[516.735]
<no-speech>
[522.875]
ওহ
[524.095]
<no-speech>
[525.535]
হুম হু
[526.315]
<no-speech>
[527.605]
তালে রাতে কি এখন রুটিই খাও
[530.355]
<no-speech>
[539.395]
ভাল
[540.175]
<no-speech>
[550.635]
রুটি খেলে কি আর ঘুম আসে
[552.555]
<no-speech>
[556.005]
<no-speech>
[558.075]
<no-speech>
[560.585]
তাহলে
[561.145]
<no-speech>
[562.535]
বাঙ্গালীর খাদ্য হচ্ছে ভাত
[564.225]
<no-speech>
[567.735]
<hes> রুটি খাওয়ায় কি আর <hes> রুটি খাওয়ায় কি আর ভুলায় ভালায় রাখা যাবে
[572.855]
<no-speech>
[575.655]
<sta> করিছে
[577.395]
<no-speech>
[580.105]
<no-speech>
[580.475]
<no-speech>
[586.475]
হ্যাঁ
[587.105]
<no-speech>
[590.525]
না এখন মনে কর বাড়ীতেও হঠাৎ ফঠাৎ রুটি হয় রাত্রেবেলা রুটি হয় না ধর কোন দিন পুরী হইলো
[599.025]
<no-speech>
[600.04]
