[0.0]
<no-speech>
[7.035]
<sta> হ্যাঁ <breath>
[8.715]
<no-speech>
[11.305]
(())
[12.105]
<no-speech>
[14.005]
<sta> এই তো আছি তুমি
[16.185]
<no-speech>
[21.975]
<sta> হ্যাঁ কথা বলছে
[23.495]
<no-speech>
[27.585]
কোথায় আসছে
[28.445]
<no-speech>
[31.545]
<no-speech>
[31.925]
<no-speech>
[35.015]
হ্যাঁ
[35.545]
<no-speech>
[41.125]
হ্যাঁ
[41.715]
<no-speech>
[45.115]
কিন্তু আর ইসে কি এমনি তোমাকে কি বললো কাজের কথা
[48.405]
<no-speech>
[55.005]
কি নাই এখন
[55.925]
<no-speech>
[59.275]
হ্যাঁ
[59.855]
<no-speech>
[63.955]
হ্যাঁ
[64.495]
<no-speech>
[66.445]
হুঁ
[67.015]
<no-speech>
[72.875]
হুঁ
[73.445]
<no-speech>
[78.825]
<no-speech>
[79.285]
<no-speech>
[81.455]
হ্যাঁ আমি তো কালকে অনেকবার ফোন করলাম ফোন ধরে নাই হ্যাঁ আজকেও অনেকবার আজকে অনেকবার কি আজকে দুই বার অনেক কল করছি ফোন ধরে নাই আমার তো খুব রাগ মানে রাগ উঠছে কি এবার ভাবছি যে কোনো অন্য নাম্বার
[93.345]
থেকে সুব্রতকে একটা ফোন করে ফোনটা তো রিসিভ করবে <sta> তখন বলে দিয়ে বলবো যে কাজটাজ করব না এইটা বলে দেবো যেমন মানে চিন্তাধারা ছিল সেখানে আমার কাজের ব্যাপারটা কি ফোনটা ধরে তো শুনবে যে কিসের জন্য ফোনটা কর- আমার দুটা মাল লাগবে এইজন্যে আমি ফোন করছি আমি ভাবছি যে আমাকে মাল দুটা পাঠায়ে দাও হ্যাঁ এসব মনে হচ্ছে কিন্তু আমার ফোনটাই ধরছে না
[113.315]
<no-speech>
[115.055]
<int> যে এইটা এইটা ব্যাপার তা না ফোনটা ধরলে তো বোঝা যায় যে কাজে আসছে কি না খবর কি ব্যাপার
[121.135]
<no-speech>
[121.995]
ঠিক আসে আমি বলেছিলাম যে আমাকে দুইটা মাল পাঠাবে ঐজন্য আমি ফোন করছিলাম আর কি ওকে
[126.075]
<no-speech>
[127.655]
<sta> এখন ফোনই ধরেনি কি বলবো বলো
[130.175]
<no-speech>
[134.755]
<sta> মাকে
[136.845]
<no-speech>
[140.855]
<sta> গ্যাংটক কেন গেছে
[142.415]
<no-speech>
[148.475]
কি
[148.995]
<no-speech>
[153.145]
<int> হুম কিসে কিসের জন্য গেছে
[154.745]
<no-speech>
[159.765]
হ্যাঁ
[160.365]
<no-speech>
[164.615]
হ্যাঁ
[165.175]
<no-speech>
[170.565]
হ্যাঁ
[171.045]
<no-speech>
[174.675]
হ্যাঁ
[175.585]
<no-speech>
[181.945]
হ্যাঁ
[182.455]
<no-speech>
[184.825]
হ্যাঁ হু
[186.115]
<no-speech>
[191.375]
হু
[192.005]
<no-speech>
[196.465]
কি বলে শুনপনায়
[197.515]
<no-speech>
[202.185]
হ্যাঁ
[202.675]
<no-speech>
[206.725]
কি বলে
[207.375]
<no-speech>
[208.435]
<no-speech>
[208.855]
<no-speech>
[214.745]
এ্যাই কথা এমন আসছে কেন ঠিক ভাবে বলো
[216.665]
<no-speech>
[222.065]
হ্যাঁ
[222.645]
<no-speech>
[226.695]
হ্যাঁ
[227.245]
<no-speech>
[228.155]
হ্যাঁ
[228.685]
<no-speech>
[232.185]
ও
[232.935]
<no-speech>
[234.995]
সন না কিছু বুঝছিনা সোনা যাছেনা ব্যাপারটা যে কি
[237.765]
<no-speech>
[243.345]
হ্যাঁ
[243.925]
<no-speech>
[249.165]
হ্যাঁ তুই কোথাও ঘুমানোর ঘুমায়ে ছিল
[251.035]
<no-speech>
[253.925]
ওহ আমিই কয়েকবার ফোন করলাম না তখন দেখলাম যে <sta> ঐ ঘুমায়ে অবস্হায় আমার সাথে কথা বলছে একটু
[258.495]
<no-speech>
[261.325]
তারপর
[261.965]
<no-speech>
[264.805]
ভাল আছে সব ওরা মানে এখন তো কাজ কম আছে তাহলে যে কাজগুলো আছে এবার দূরে হইলেও কাজগুলো ওরা নিজেরা করে নিতিশে এরকম করছে মানে ওদের সুবিধাটা দেখছে আজকে সিজনের সময়ে যে ওদের
[276.665]
মানে আমরা যে অসুবিধা করে ওদের কাজগুলাকে উঠায়ে দিচ্ছি আলো ওগুলো ভুলে গেছে সব
[281.625]
<no-speech>
[282.675]
বুঝছো
[283.305]
<no-speech>
[284.575]
<sta> এবার তো এবার তো আমিও এমন করব আমার থেকে যখনে গরমের সময়ে ফোন করবে তখন আমি বলবো যে তোমাদের কাজ করবোনা ওরা করলে ওরা কামায় নিয়ে নিয়ে যাক বুঝতে পারবে যে অসুবিধাটা কোথায় হয় যে <hes> ওদের মানে একটা লোক কাজে আস- লে যে কত টা অসুবিধে হয়
[297.775]
<no-speech>
[298.755]
ও তো রান করল নাতো
[300.095]
<no-speech>
[301.225]
আর সবচেয়ে বড় খারাপ লাগলো সে যে ফোনগুলা করতেছি ফোনগুলা ধরেনা
[304.305]
<no-speech>
[305.295]
ধরলে অন্তত কথাবার্তা বলতে পারে বা আমি কিসের জন্য ফোন করলাম এটা জানতে পারতো কি আমি যে ফোন করছি ফোন ধরেনি
[311.715]
<no-speech>
[313.985]
<breath> এই জন্য আমি ভাবছি যে আমার তো এমন কাজ তো কাজ তো কোনদিক দিয়ে না কোনদিক দিয়ে আসেই আমার তো কাজের তো অভাব নেই এরা ওদের মানে খারাপ লাগতেছে ওদের সাথে কাজ করছি এবার আমি ফোন করছি আমার তো ফোন
[325.645]
তো ধরলাম তারপর কি যে কিসের জন্য ফোন করলাম না করলাম আমার দুইটা মাল লাগবে আমি বলছি যে তোমার এক নাগরাকাটায় কাজ আছে তালে তোমরাই করে দাও
[333.075]
<no-speech>
[333.915]
আমি বললাম যে একটা মাল লাগবে কিন্তু এটা ও ঐ করতেছে না
[336.775]
<no-speech>
[339.295]
(())
[340.095]
<no-speech>
[341.895]
এ্যা
[342.435]
<no-speech>
[345.865]
বুঝলাম না কি বললে
[346.865]
<no-speech>
[352.205]
গাড়ি
[352.815]
<no-speech>
[356.215]
(()) ও পাঁচটা তো
[359.275]
<no-speech>
[360.415]
এখন শিলিগুঁড়ি যেতে পারছিনা মানে কয়দিনের দিকে একাজ করলাম তারপর তো কয়দিন রং খেলা হল ইসেতে গেল ছুটি এইবার মানে কালকের থেকে তো কাজ করি মানে রং খেলার পরে তো শনিবারটাই হাতে পেয়েছি এবার শনিবারে <hes> যাই নাই তা
[372.175]
আমিও যাইনি শনিবারে
[373.085]
<no-speech>
[374.105]
আবার আজকে তো রোববার এবার আমি ভাবছি যদি আজকে পাঠায়ে দিতো বা কালকেও ফোন করছিলাম আমি যে ওরা তো আসেই তো টাউন থেকে তো আর ওদের অফিস টফিস দূর না কি মানে ফোন করছিলাম যে তুমি একটু মালটা পাঠায় ও তোমরা তো অফিসে আসোই
[385.665]
তো আমার জন্য মালটা গাড়িতে ওঠিয়ে দিলে মালটা নিয়ে নিতে পারতাম এটার জন্য কালকে ফোন করলাম কালকেও হইলো না আজকেও ফোন করছি আজকেও হইলো না এবারে আমায় কালকে অন্যরকম চিন্তা করতে হবে আমি যদি মাল
[397.215]
কিনে আনি তাহলে আর ওদের সাথে সম্পর্ক রেখে কি হবে কি
[400.455]
<no-speech>
[401.885]
<int> হু
[402.985]
<no-speech>
[403.955]
মনে কর আজকে আমার কাজ আছে এবার আমি যদি অসুবিধা করে আমার মাল ফিলে দিতে আনতে হয় তাহলে তো ওদের সাথে আমার সম্পর্ক রাইখে লাভ নাই কি আসে
[411.495]
<no-speech>
[412.635]
তাহলে
[413.195]
<no-speech>
[417.105]
কি
[417.835]
<no-speech>
[420.435]
আরে সমানে (()) হ্যাঁ
[423.685]
<no-speech>
[428.995]
হু
[429.605]
<no-speech>
[430.775]
আরে এরাই মানে এদের বানার হাঁটের মধ্যে এত মেশিন বিক্রী হচ্ছে তো এই মেশিন যে জায়গায় যতো বেশী বিক্রী হয় তত মেশিন খারাপও বেশী হয় কি
[439.915]
<no-speech>
[440.725]
তাহলে আমি ইয়ে করি সে একটা আউট অফ ওয়ারেন্টির কাজ পাই না সবগুলোই ইন ওয়ারেন্টির কাজগুলা তো এবার আর বানার থেকে তো ডাইরেক্টরি থেকে তো পুরা ওরা কল লগিং করে ইন ওয়ারেন্টি হোক আর আউট অফ ওয়ারেন্টি হোক সব ওরা কল লগিং করে এবার
[452.445]
<sta> আউট অফ ওয়ারেন্টির কাজগুলা আমাকে দেয় না আর কি ওরা নিজে গিয়ে করে আর যেগুলো দেখে খুব ভেতরে
[458.295]
<no-speech>
[459.205]
ঐগুলো ওরা আমাকে দেয় আর কি
[460.665]
<no-speech>
[468.765]
হুম আরে সবাই সমান তুমি কোথাকার খারাপ কও আর সুব্রতদাকে ভাল কও সুব্রতদা ভাল হইলে এই যে এই ফোনগুলা করতাম কেন ফোনগুলা ধরতে পারতোনা সবাই সমান সুব্রতদা এই যে উপর দিয়ে ভাই ভাই (())
[483.065]
<no-speech>
[487.085]
এ্যা তাহলে ও তো আরও বেশী সেয়ানা পিঙ্কুদা যা কয় <sta> উপরে বলে ফেলায় ওর ভিতরে কিছু নাই কিন্তু সুব্রতদা উপরে যেমন বলেনা ভিতরে অনেক কিছু আছে ও আরও বেশী সেয়ানা
[497.695]
<no-speech>
[498.975]
<sta> দেখলা না যে সুব্রতদা তলে তলে অন্য কিছু ধান্দা করতেছে তাহলে ও যদি এতটাই ইয়ে হত তাহলে পিঙ্কুকে নিয়েই করতো কি
[506.995]
<no-speech>
[508.045]
এদিকে এই জায়গা তো মানো যে পিঙ্কুর থেকে শুভ্র অনেক চালাক
[511.145]
<no-speech>
[512.505]
তোমাকে কাজ দিবে না কিন্তু বলে যাবে যে আমি তো এগুলা কিছুই জানিনা যেগুলা পর এগুলা দে দি এবার দোষটা পিঙ্কুর উপর দিয়ে দিচ্ছে এবার পিংকু তো পিংকু তো কাজ করে আর ওরও লোক আছে এবার ও তো
[524.015]
ছাড়ি দেব কাজগুলো ওই করবে
[525.465]
<no-speech>
[527.995]
(())
[529.165]
<no-speech>
[532.155]
এ্যা
[532.665]
<no-speech>
[537.375]
কি ঢুকছে না
[538.285]
<no-speech>
[542.735]
জলপাইগুড়িতে
[543.665]
<no-speech>
[547.935]
হ্যাঁ
[548.535]
<no-speech>
[554.365]
ঐটা হ্যাঁ ধূপগুড়িতে ঐ পি_সি_বি_টা সেল্স করছি আমি গিয়ে মেশিনটা দেখে আসছি তারপর সুব্রতদার সাথে কথাও বলছি যেমন আমরা কাস্টমার থেকে মেশিনটা এমন তারপর লাস্টে তোমার হইসে ওয়ারেন্টিটা তো পেলো না তাহলে তার মানে ফ্লেভার কাস্টমারটা আমার কিন্তু ঐ পিঙ্কুদাকে ফোন কোর্সে লাস্টে পিঙ্কুদা এসে মালটা লাগায়ে কেন তখন পারল না মালটা পাঠায়ে দিতে আমার কাছে
[577.665]
যে না পি_সি_বি_টা পাঠাচ্ছি যেমন আমাদের কাস্টমারটা ফোন করে তুই পি_সি_বি_টা লাগায়ে দে টাকাটা দিয়ে যা আর তোর কিছুটা নিয়ে যা তখন বলল (()) কি
[585.575]
<no-speech>
[587.145]
ঐ সময়তো কিছু বলেনি এবার আমি কাস্টমারটাকে <hes> সপ্তাহ দুয়েক তিনেক পরে ফোন করছি <sta> যে আমি কই কিরে কাস্টমারটা তো অনেকবার ফোন করল আমাকে এখন তো ফোন করেনা শুনি তাই মানে আমি ফোন করছিলাম
[598.94]
