[0.0]
<no-speech>
[3.215]
<sta> হ্যালো
[4.925]
<no-speech>
[6.965]
মা
[7.565]
<no-speech>
[8.745]
হ্যাঁ বল <laugh> বল কি করছ কি করছ
[14.875]
<no-speech>
[16.635]
এখনো হয়নি না আমার খাওয়া হয়নি আমি খাইনি এখনো না <laugh> আমার খাওয়া হয়নি
[25.395]
<no-speech>
[27.505]
হ্যাঁ এই জো এই খেলাটা খেলে তারপরে খাবো
[30.615]
<no-speech>
[31.715]
(()) হ্যাঁ
[37.815]
<no-speech>
[40.125]
না না কেউ গেল না তো কি করে যাব একা একা ঐ জন্যে গেলাম না
[43.355]
<no-speech>
[45.265]
কি করে যাব একা দূর ভাল লাগেনা বাবা আবার বললো কি জন্যে যাবেই ঐ জন্যে আমি আর গেলাম না
[49.695]
<no-speech>
[50.955]
হ্যাঁ
[51.445]
<no-speech>
[52.945]
না তা নইলে (()) আমরা রবিবার দিন যাব কিন্তু হ্যাঁ <int> আমরা রবিবার দিন যাব
[59.855]
<no-speech>
[61.645]
ফোনও করেছে
[62.695]
<no-speech>
[63.625]
এ্যা
[64.205]
<no-speech>
[65.315]
হ্যালো জোরে বল হ্যাঁ ঝুমা বলেছে
[67.735]
<no-speech>
[73.315]
ধ্যাৎ বড়দিন বলছে কোথায় বড়দিন তোর মাথা খারাপ আছে বড়দিন
[76.285]
<no-speech>
[77.565]
<laugh> আজ কি দিয়ে ভাত খেয়েছো ঐজন্যে গুলিয়ে যাচ্ছ
[83.315]
<no-speech>
[84.245]
এ্যা কি দিয়ে ভাত খেয়েছো
[86.425]
<no-speech>
[87.765]
হ্যাঁ কি দিয়ে ভাত খেয়েছো
[89.545]
<no-speech>
[90.515]
কি দিয়ে ভাত খেয়েছো
[91.755]
<no-speech>
[92.565]
হ্যাঁ হ্যাঁ
[94.555]
<no-speech>
[96.735]
কি দিয়ে খেয়েছো
[97.875]
<no-speech>
[102.115]
বাহ্ বাবাঃ অনেক কিছু করেছ তো আচ্ছা ঠিক আছে আমাদের তো আমি করেছি বেগুনভাজা আর নিরামিষ তো লাউ দিয়ে বড়ি দিয়ে করেছি <laugh>
[113.985]
<laugh> আলু ভাতে হয়েছে <laugh> ঝুমাকে ঝুমাকে ফোন করেছিলাম জানো
[122.535]
<no-speech>
[124.105]
ঝুমাকে ফোন করেছিলাম জানো ইকো হচ্ছে ঝুমা ধরেনি
[126.735]
<no-speech>
[128.525]
জানিনা আবার ফোন করেছিলাম মিসড কল দিতে আমি ধরিনি তো আমি মিসড কল দিয়ে আমার কাকা চলে যাচ্ছে মিসড কল দিচ্ছে আমি ধরিনি
[134.865]
<no-speech>
[136.915]
কালকে
[137.735]
<no-speech>
[140.295]
হ্যাঁ হ্যাঁ বোন বলেছে
[142.715]
<no-speech>
[146.615]
হ্যাঁ আমি বোনকে জিজ্ঞাসা করেছি চোখটা কি হয়েছে ভাল এখন কেমন আছো
[150.005]
<no-speech>
[152.345]
হুম
[152.785]
<no-speech>
[154.105]
ও এই কত করে
[156.125]
<no-speech>
[160.625]
ঐটা ঐ শিবানী
[162.005]
<no-speech>
[168.965]
ও
[169.495]
<no-speech>
[171.385]
হ্যাঁ কি বললো
[172.585]
<no-speech>
[176.045]
ও
[176.535]
<no-speech>
[177.925]
ও আচ্ছা
[179.625]
<no-speech>
[183.995]
হ্যাঁ হ্যাঁ
[185.305]
<no-speech>
[188.595]
ও বাবা অতো ও
[191.015]
<no-speech>
[194.655]
ও
[195.305]
<no-speech>
[196.765]
হ্যাঁ হ্যাঁ সেটাই আছে যখন দেবে একটা বোনের জন্য না <int> আছে দেবে হ্যাঁ
[201.985]
<no-speech>
[203.195]
আচ্ছা বাড়িতে
[203.975]
<no-speech>
[205.295]
হ্যাঁ তোরকি ভাই আর ফোন করেনা বলছি ভাই ফোন করেনা
[209.075]
<no-speech>
[211.575]
হ্যাঁ
[212.215]
<no-speech>
[213.275]
হ্যাঁ কি বল- <no-speech>
[215.475]
হ্যাঁ
[216.065]
<no-speech>
[217.615]
হ্যাঁ হ্যাঁ বল
[218.475]
<no-speech>
[219.975]
কি
[220.445]
<no-speech>
[222.475]
ও আচ্ছা বললে কেন তুমি না বলতে পারতে
[225.795]
<no-speech>
[233.065]
হ্যাঁ ঠিকঠাক <sta> হ্যাঁ এই
[236.605]
<no-speech>
[237.955]
হ্যাঁ
[238.455]
<no-speech>
[240.045]
হ্যাঁ
[240.525]
<no-speech>
[241.625]
<sta> হ্যাঁ হ্যাঁ
[242.415]
<no-speech>
[245.185]
আর দরকার নেই দরকার নেই কিছু ঠিক আছে হ্যাঁ
[249.125]
<no-speech>
[252.595]
হ্যাঁ <sta> হ্যাঁ হ্যাঁ
[254.985]
<no-speech>
[256.124875]
হ্যাঁ হ্যাঁ হ্যাঁ হ্যাঁ হ্যাঁ যে যেরম মানুষ সে সেরমই ভাবে <int> পেয়ে যায় <laugh> <breath> হ্যাঁ
[265.745]
<no-speech>
[266.925]
দরকার নেই হুম তার চেয়ে (())
[272.355]
<no-speech>
[273.235]
হ্যাঁ বলছি যার কেউ নেই তার ভগবান আছে
[276.035]
<no-speech>
[277.305]
হুম হ্যাঁ
[278.655]
<no-speech>
[279.925]
হ্যাঁ
[280.515]
<no-speech>
[281.805]
হ্যাঁ <breath> হ্যাঁ
[283.725]
<no-speech>
[285.035]
হ্যাঁ
[285.525]
<no-speech>
[286.915]
তাড়াক গে যা খুশি করুক গে বাদ দাও ওর কথা ক <no-speech>
[291.585]
হ্যাঁ
[292.085]
<no-speech>
[297.755]
হ্যাঁ হ্যাঁ ও <breath> আমরা যাচ্ছি তো
[300.585]
<no-speech>
[301.815]
আমরা যাচ্ছি <laugh> আর শনিবার <laugh> হ্যাঁ <breath> আমাদের বাড়ীর সামনে আমাদের বাড়ীর সামনে কি
[310.275]
<no-speech>
[311.935]
হ্যাঁ
[312.545]
<no-speech>
[314.465]
হ্যাঁ
[315.065]
<no-speech>
[316.055]
সে তো যাব বাধা পরে গেল দিদির দিদির শয়তানিগুলো সব এসছে না ঐজন্যে
[320.385]
<no-speech>
[321.895]
পরে যাব
[322.595]
<no-speech>
[325.165]
হ্যাঁ হ্যাঁ
[326.285]
<no-speech>
[327.185]
<sta> কি
[328.255]
<no-speech>
[331.075]
হ্যাঁ সবাই শুনেছি আমি ভাল লাগলো এবার আমার (()) বাকি আছে পাশ করে কি ফেল করে তার ওপরে <laugh>
[338.115]
<no-speech>
[338.955]
<sta> হ্যাঁ
[340.775]
<no-speech>
[342.115]
হ্যাঁ হ্যাঁ (()) তো করবোই হু
[345.155]
<no-speech>
[347.355]
আচ্- <no-speech>
[350.565]
হ্যাঁ কেন
[351.565]
<no-speech>
[355.205]
ও আলাদা করব আচ্ছা হ্যাঁ
[358.835]
<no-speech>
[360.765]
ঐ সরু গলি বেরুবে তাই তো
[362.085]
<no-speech>
[363.865]
আচ্ছা আচ্ছা হ্যাঁ হু
[365.385]
<no-speech>
[366.215]
<no-speech>
[366.595]
<no-speech>
[368.755]
আর আমাদের করে লাভটা কি আর কিছুই হচ্ছে না আমাদের ওখানে কিছু করবে না
[371.965]
<no-speech>
[373.655]
<sta> হুম আমাদের ঘর কিছু হবে না
[376.135]
<no-speech>
[378.595]
<sta> এসেছিল
[380.285]
<no-speech>
[382.275]
হ্যাঁ
[382.655]
<no-speech>
[384.755]
<sta> ঐ তো ওটাই হচ্ছে মনে কথা আর কিছু না
[387.515]
<no-speech>
[396.035]
<sta> হুম অ হ্যাঁ বল
[400.185]
<no-speech>
[403.355]
হ্যাঁ সে তো শুনলাম জানো আমি তো রাস্তায় আসতে ছি মা বলেছে যে গণেশের বিয়ে <laugh> <sta> কলাবউ নিয়ে এসছে <laugh> <breath> হ্যাঁ
[414.245]
আর দেখিনি তো <laugh> <sta> দু চার দিন দেখবো <laugh> কলাবউকে দেখবো রবিবার গিয়ে <laugh>
[426.025]
<laugh> বল
[427.065]
<no-speech>
[429.835]
হ্যাঁ কবে যাবে <int>
[431.565]
<no-speech>
[435.585]
হ্যাঁ <breath>
[436.325]
<no-speech>
[437.705]
নিয়ে নেবে
[438.455]
<no-speech>
[439.855]
নিয়ে নেবে
[440.675]
<no-speech>
[444.925]
ও কেন
[445.645]
<no-speech>
[452.975]
ও কোনো ক্ষমতা ওর ক্ষমতা নেই গো মা ও যাই খুশি বলুক না কেন ও যখন বলবে (()) চালাকি পেয়েছে (()) পারবে না (())
[459.825]
<no-speech>
[463.605]
তাহলে চালাকি করবে
[464.845]
<no-speech>
[466.615]
থলে চালাক হয়ে গেছ- <no-speech>
[473.975]
হ্যাঁ হ্যাঁ
[474.685]
<no-speech>
[475.825]
হ্যাঁ
[476.395]
<no-speech>
[483.395]
হ্যাঁ কে বললো তোমাকে
[485.195]
<no-speech>
[486.205]
(())
[486.745]
<no-speech>
[488.205]
হ্যাঁ হ্যাঁ হ্যাঁ
[490.615]
<no-speech>
[499.595]
দেখে রাখ না খোঁজ করতে পারো তুমি জানতো অনেকেই নিয়েছে আর কি অনেকে নতুন পুরো অনেক নতুন এসেছে মুক্তিকে বলে রাখলেই তো হবে
[506.855]
<no-speech>
[509.905]
হু
[510.375]
<no-speech>
[511.265]
হ্যাঁ
[511.775]
<no-speech>
[518.715]
<sta> আচ্- ও মা মা ও মা দাঁড়াও মা এই <hes> কেটে দিচ্ছি একটু কেটে দিচ্ছি তোমার কাছে আবার ফোন যাবে হ্যাঁ তুমি আবার রিসিভ করবে ঠিক আছে রিসিভ
[530.675]
হ্যাঁ
[531.375]
<no-speech>
[532.375]
রিসিভ করবে তুমি না না রিসিভ করবে আবার ঠিক আছে আমি কেটে দিচ্ছি <sta> রাখছি রাখছি
[537.895]
<no-speech>
[539.08]
