[0.0]
<no-speech>
[0.285]
<sta> হ্যালো হ্যালো <no-speech> হ্যালো কথা বল
[5.625]
<no-speech>
[7.135]
<sta> (()) <no-speech>
[9.905]
এ্যা
[10.595]
<no-speech>
[15.795]
<sta> ও বলছি <hes> কোথায় গেছিলে তুমি
[18.525]
<no-speech>
[20.835]
ও <sta> ওই জন্যে আচ্ছা কখন থেকে আমি বসে রয়েছি (()) আসছো না সেই কারণে
[26.775]
<no-speech>
[30.955]
হ্যাঁ বাবু কোথায় বাবু
[32.284875]
<no-speech>
[33.125]
বাবুকে নিয়ে গেছিল সঙ্গে করে
[34.735]
<no-speech>
[35.955]
বাবুকে সঙ্গে করে নিয়ে গেছিলে <int>
[37.505]
<no-speech>
[38.535]
কথা বলছো না কেন <int>
[39.555]
<no-speech>
[42.375]
ও <sta> বলছি সেই বাবু নিয়ে গেছিলে আর কত টাকা দিয়েছিলে (()) কত টাকা ছিল
[50.345]
<no-speech>
[51.575]
<sta> হ্যাঁ
[52.135]
<no-speech>
[53.535]
হ্যাঁ বলছি <sta> (()) খুঁজছিল
[57.585]
<no-speech>
[61.255]
টাকাটা <sta> কত টাকা <hes> দিয়েছিল
[64.465]
<no-speech>
[66.505]
<sta> আচ্ছা
[68.905]
<no-speech>
[71.525]
<sta> সে পিকুকে একটু খানি ডাক নাহলে বলছি পিকুকে ডাক (()) পিকুকে ওদিকে ওকে ইয়ে করে বাবুকে খেতে দিয়ে দাও বাবু খেয়ে নেবে ভাত খেয়ে নেবে বাবুকে হ্যাঁ
[82.885]
<no-speech>
[83.965]
বাবুকে খেতে দিয়ে দাও ভাত <sta> ও খায়নি আজকে সকাল থেকে কিছু হুম বুঝেছো কিছু খায় নি সকাল থেকে আর তুমি কি খাবে <no-speech>
[94.055]
মিষ্টি আনতে <sta> নাহলে বাবুকে দিয়ে দাও এখন মিষ্টি নিয়ে চলে আসুক হু
[98.665]
<no-speech>
[99.555]
হ্যাঁ বাবুকে দিয়ে দাও <sta> মিষ্টি আনতে মিষ্টি নিয়ে এসে খাক আর তুমি তুমি মিষ্টি খেয়ে নাও আজকে হ্যাঁ মিষ্টি খেয়ে নাও আজকে (()) করেছে তো
[107.405]
<no-speech>
[108.965]
সকাল থেকে তা <no-speech>
[111.215]
<sta> তারপরে ওই যে জেঠিমা <hes> খাক খাওয়া হয়ে গেলে তারপরে আবার খেয়ে নেবে তারপরে বাবুকে আগে দিয়ে দাও খেতে ও খেয়ে নিক খাওয়া দাওয়া হয়ে গেলে <no-speech>
[120.435]
<sta> (()) এখন <no-speech> পিকু তো বাইরে আছে বাইরে থেকে ডেকে নাও ডেকে নিয়ে বাবুকে দিয়ে দাও খেতে অনেক বেলা হয়ে গেছে
[130.405]
<no-speech>
[131.535]
<sta> সে দেড়টা <no-speech> বেজে গেছে
[133.915]
<no-speech>
[134.725]
<no-speech>
[135.915]
<no-speech>
[137.345]
তা বিকালে কটার সময় বেরোবে <int>
[139.435]
<no-speech>
[142.705]
চারটের সময় আচ্ছা
[144.405]
<no-speech>
[145.295]
<sta> তাহলে একটা কাজ করে একেবারে একসঙ্গে চলে যাব
[148.425]
<no-speech>
[149.265]
<sta> হুম বাবুকে তাহলে রেডি করে রাখবে ঘরের ভিতরে যে জামা প্যান্ট পরিয়ে টরিয়ে রেডি করে রেখে দেবে আমি একেবারে এসে কাজ থেকে এসে একেবারে নিয়ে বেড়িয়ে চলে যাব
[160.825]
<sta> আটটার সময়
[162.415]
<no-speech>
[163.525]
<sta> যদি কিছু কেনার থাকে কিনে টিনে নিয়ে চলে আসবে একবার
[166.715]
<no-speech>
[167.725]
<sta> আর আমার একটা <hes> ওই এয়ার মুন্ডা প্যান্ট কিনতে হবে খেয়াল রেখো মাথায় ভুলে যেও না রাতে
[174.895]
<no-speech>
[176.415]
<sta> আমি যদি নাও যাই নাও যেতে পারি তাহলে একটা কাজ করবে তোমরা চলে যাবে আমার জন্য ওইটে কিনে নিয়ে আসবে কালকে ভোর বেলা ছটার সময় আমায় বেড়িয়ে যেতে হবে
[186.155]
<no-speech>
[187.655]
<sta> ঢুকাছে তোমার কথাটা মাথায় <no-speech> হ্যাঁ
[191.385]
<no-speech>
[192.395]
<sta> মাথায় ঢুকাছে না ঠিক বিকাল বেলা গিয়ে বা <hes> আমি যদি নাও যাই তাহলে একটা কিনে নিয়ে আসবে বারমুন্ডা এমনি যে <hes> ইয়ে নীচে এপাশে
[203.865]
<sta> দোকান দিয়ে (()) <no-speech>
[207.445]
আচ্ছা জোরে বললে <sta> সোনা যাচ্ছে আঃ ঠিক আছে
[211.515]
<no-speech>
[212.415]
হ্যাঁ অফ <sta> (()) এ্যা
[214.895]
<no-speech>
[216.035]
<sta> ওই ডিস্টার্ব করে একটু মোবাইলটা ডিস্টার্ব করে একটুখানি হ্যাঁ <hes> একটু বাইরে দূরের দিকে গেলে ভাল বোঝা যাবে
[223.545]
<no-speech>
[224.715]
দূরের দিকে যাও <no-speech> পার্টি অফিস হ্যাঁ হ্যাঁ
[227.765]
<no-speech>
[228.815]
মোবাইলটা <sta> ডিস্টার্ব করছে মাঝে মাঝে
[231.855]
<no-speech>
[232.745]
<sta> আচ্ছা
[235.275]
<no-speech>
[236.275]
<sta> আমার আঃ <hes> এ্যা ফলে ওই (()) বলা রইলো আচ্ছা <hes> তুমি নিয়ে একদম চলে যাবে বাবুকে নিয়ে গিয়ে ঐখান থেকে একেবারে নিয়ে চলে আসব
[247.405]
আমি যেতে পারলে যাব <sta> না যেতে পারলে না যাব হ্যাঁ
[250.315]
<no-speech>
[252.335]
<sta> (()) আচ্ছা ওই বাবুকে এসে খেতে দিয়ে দাও
[257.794875]
<no-speech>
[259.615]
<sta> হ্যাঁ
[260.135]
<no-speech>
[261.415]
(()) <no-speech>
[264.085]
আচ্ছা
[264.785]
<no-speech>
[267.245]
<no-speech>
[267.705]
<no-speech>
[269.455]
হ্যাঁ <sta> (()) ইয়ে করে
[274.245]
<no-speech>
[278.155]
<int> আচ্ছা আচ্ছা
[280.325]
<no-speech>
[282.095]
ঠিক আঃ <no-speech>
[286.275]
<sta> হ্যাঁ
[288.515]
<no-speech>
[289.825]
<no-speech>
[290.215]
<no-speech>
[292.895]
<int> হ্যাঁ জল খেয়েছে ঠান্ডা জল
[294.795]
<no-speech>
[298.265]
<no-speech>
[298.615]
<no-speech>
[299.995]
তুই এখন কোথায় রে
[301.065]
<no-speech>
[302.795]
<sta> (()) কোথায় রয়েছো হ্যালো তুমি এখন কোথায় রয়েছো
[305.935]
<no-speech>
[310.145]
(()) <no-speech>
[312.045]
<sta> আচ্ছা
[312.845]
<no-speech>
[314.345]
(()) <no-speech>
[317.255]
আচ্ছা ঠিক আছে
[318.365]
<no-speech>
[320.865]
<int> ও আচ্ছা ঠিক আছে
[323.335]
<no-speech>
[324.625]
হ্যাঁ আমি একটা কথা বার বার <sta> বুঝি না একটা কথা একবারই বুঝি তুমি ইয়ে কর করে তাড়াতাড়ি পিকুকে আগে পিকুকেও খেতে দিয়ে দাও আর বাবুকেও খেতে দিয়ে দাও
[333.395]
<no-speech>
[334.705]
<sta> ও আবার পূজো করতে হবে অনেক ঝামেলা আছে এমনি বেলা হয়ে গেছে আজকে <no-speech> কালকে ভোর বেলা বের হব কিন্তু আমি <no-speech> এই জেঠিমার খাওয়া হয়ে গেছে এবার ওদের দিয়ে ঝামেলা মি <sta> (()) খাবার দাবার দিয়ে
[349.265]
<no-speech>
[352.265]
তুমি কোথায় রয়েছো এখন
[353.395]
<no-speech>
[354.365]
<no-speech>
[354.745]
<no-speech>
[356.965]
<no-speech>
[357.415]
<no-speech>
[358.475]
ও
[359.225]
<no-speech>
[360.845]
<sta> একটু দূরে সরে যাও তাহলে ভাল কথাটা সোনা যাবে <hes> আওয়াজ হচ্ছে ওই দূরের দিকে চলে যাও পার্টি অফিসের ওদিকটা চলে যাও
[368.665]
<no-speech>
[370.595]
হ্যাঁ ওটা ডিস্টার্ব করে না সেই কারণে
[373.035]
<no-speech>
[374.065]
<no-speech>
[375.345]
<no-speech>
[379.075]
<sta> ওই ও রীতা রীতা কি আজকে আসবে <hes> ওই ও নিয়ে যাবে রিতাকে কি ওই ইয়েতে সেই কারণে আজকে ফোন নাম্বার দিয়েছিলে
[385.565]
<no-speech>
[388.755]
হ্যাঁ
[389.255]
<no-speech>
[392.905]
আচ্ছা
[393.365]
<no-speech>
[396.825]
হ্যাঁ
[397.355]
<no-speech>
[399.835]
হ্যাঁ
[400.305]
<no-speech>
[406.665]
ওহ
[407.065]
<no-speech>
[408.765]
আচ্ছা <no-speech>
[412.715]
(())
[413.955]
<no-speech>
[415.145]
<sta> (()) হ্যাঁ
[416.795]
<no-speech>
[422.505]
(()) হ্যাঁ
[424.865]
<no-speech>
[426.785]
<sta> ও ও <hes> যে ও তেরো দিন পরে আমাদের বাড়িতে আসবে ও
[430.995]
<no-speech>
[434.635]
<sta> ও আচ্ছা তোর বিয়ের কি হয়েছে
[438.505]
<no-speech>
[446.125]
<sta> তোমার থেকেও বড় ও
[448.485]
<no-speech>
[452.555]
<sta> (()) <no-speech>
[455.315]
কোন মদনদা
[456.165]
<no-speech>
[462.985]
কোন মদনদা
[463.795]
<no-speech>
[465.295]
কোন মদনদা আমাদের তিনতলার মদনদা
[467.405]
<no-speech>
[471.235]
ও (()) ও
[473.945]
<no-speech>
[476.195]
<sta> ও ও মদনদা অতো টাকা চেয়েছিলো পন
[480.985]
<no-speech>
[484.605]
<sta> আঃ
[485.015]
<no-speech>
[486.985]
একটা গরীবের মেয়ে তার জন্যে এত টাকা <int>
[490.755]
<no-speech>
[492.395]
(())
[493.245]
<no-speech>
[494.155]
<sta> ও সাহারা ওরকমই
[496.105]
<no-speech>
[497.565]
<sta> <hes> সাহা সাহারা (()) বিশাল <no-speech> সাহারা অন্য <no-speech>
[502.765]
<no-speech>
[503.695]
<no-speech>
[506.565]
<sta> অমল (()) সাহা
[507.805]
<no-speech>
[516.534875]
<sta> ও আগে ওই যে তোমাদের ওই বাড়ীটার সামনে দিয়ে গিয়ে এইপাশে যে ওই যে একটা ভাঙ্গা <hes> ওই বগাদের বাগানের ভিতরে ওইখানে তো বাড়ী ছিল ওদের
[525.225]
<no-speech>
[528.435]
<sta> অ (())
[529.415]
<no-speech>
[531.995]
<sta> এ্যা
[532.785]
<no-speech>
[535.225]
হ্যাঁ
[535.915]
<no-speech>
[536.805]
(()) <no-speech>
[539.685]
আচ্ছা
[540.405]
<no-speech>
[543.915]
<sta> তাহলে কোথায় এখন
[546.245]
<no-speech>
[548.485]
হ্যালো
[549.035]
<no-speech>
[552.745]
<sta> দিয়ে এই বিষু এসে গেছে (())
[555.195]
<no-speech>
[559.945]
ও খেতে <sta> (()) আমের চাটনি খাবে খালি
[564.205]
<no-speech>
[565.215]
<sta> কিছু খেতে চাইছে না টিফিন
[571.035]
<no-speech>
[572.885]
(()) <no-speech>
[574.435]
<sta> হ্যালো
[576.255]
<no-speech>
[580.435]
ও <sta> আচ্ছা ঠিক আছে
[582.305]
<no-speech>
[585.365]
(()) তুমি ওই যে <sta> আমাদের (()) ইয়ে এসেছে ওই যে ওই মেয়েটা কি যেন নাম আমাদের ঘরের সামনে এ্যা (()) হ্যাঁ অফিস আছে ওইখানে
[596.985]
<no-speech>
[597.515]
<no-speech>
[598.365]
পার্টি অফিসের ঐখানে রয়েছে
[599.675]
<no-speech>
[599.86]
