[0.0]
<no-speech>
[8.945]
<sta> হ্যালো হ্যাঁ ভাল বেটা হ্যাঁ হ্যাঁ শুনতে পাচ্ছি বেটা
[14.335]
<no-speech>
[15.755]
হ্যাঁ ভাল আছি
[16.965]
<no-speech>
[19.855]
হ্যাঁ বাড়ীর লোক ভাল আছে আংকেল দেশে গেছে (())
[24.995]
<no-speech>
[27.105]
হ্যাঁ সবাই ভাল আছে
[28.755]
<no-speech>
[29.765]
রাজা এসেছিল এ্যা রাজা ঐ ইলেকট্রিকের কাজ শিখছে বেটা এয়ার কমপ্রেসারের
[35.035]
<no-speech>
[36.765]
হ্যাঁ <no-speech>
[40.695]
<sta> হ্যাঁ দেখো এখন কবে কমপ্লিট করবে <breath> করার পর বাবার (()) দোকান করে দাও দোকান করে তবে নিজে আমি নিজে টেন্ডার নেব
[50.575]
<no-speech>
[53.395]
হ্যাঁ দেখো আল্লাহ্ রস্তে <int> দোয়া কর
[57.035]
<no-speech>
[62.525]
হ্যাঁ হ্যাঁ বহরমপুরে (()) সেরকম কাজ নেই (())
[67.445]
<no-speech>
[69.295]
<no-speech>
[70.255]
<no-speech>
[71.245]
হ্যাঁ তাই তো তাই জন্য ভ্যালু কলকাতা থেকেই শিখে যাবে সে একটা আলাদা ভ্যালু ভ্যালু থাকবে
[76.445]
<no-speech> তো জায়গা তাই জন্যে তো যায়- তাই জন্যে জায়গা কিনে রেখেছি রোজই টাটাতে টুয়েলভের পরীক্ষা দিচ্ছে
[89.745]
<no-speech>
[93.445]
টুয়েলভের পরীক্ষা দিচ্ছে
[95.095]
<no-speech>
[97.325]
ফেব্রুয়ারি মাসে টুয়েলভ পরীক্ষা আরম্ভ হবে মার্চ মাসে শেষ হবে
[101.035]
<no-speech>
[106.385]
টুয়েলভ বারো ক্লাশ <breath> বারো ক্লাসের পরীক্ষা
[109.655]
<no-speech>
[112.615]
হ্যাঁ ইংলিশ মিডিয়ামে ওর ঐ ইংলিশ ভাল তো
[115.505]
<no-speech>
[116.735]
<no-speech>
[117.085]
<no-speech>
[118.795]
হ্যাঁ (()) কলেজ থেকে
[121.335]
<no-speech>
[128.764875]
হ্যাঁ
[129.275]
<no-speech>
[130.165]
হ্যাঁ হ্যাঁ পড়ছে তো কোনরকমে চলছে বাইরেও কাজ সামলাচ্ছে মামা আছে মামী আছে ছোট ছোট দুটো ভাই আছে
[136.855]
<no-speech>
[141.085]
তাও হ্যাঁ হ্যাঁ ভজিয়াও তো একই ক্লাসে দুজন আছে একসঙ্গে যায় <breath> একসঙ্গে আসে একসঙ্গে শোয়া ওঠা বসা
[147.935]
<no-speech>
[149.245]
<sta> হ্যাঁ
[150.035]
<no-speech>
[153.165]
হ্যাঁ হ্যাঁ হ্যাঁ ওদের একটা (()) হয়ে গেছে <breath> একটা আলাদা রুম ওতে খাও দাও শুয়ে থাক গল্পসল্প কর বই পড় সব ওদের আলাদা
[162.225]
<no-speech>
[167.165]
হ্যাঁ হ্যাঁ (())
[168.575]
<no-speech>
[170.205]
হ্যাঁ হ্যাঁ হ্যাঁ রান্নাও করে <hes> মা- মামী করে তারপর একটু হেলপ দেয় ওরা
[175.855]
<no-speech>
[178.895]
এক ঐখানে দুটো মামা একটা প্রিন্সিপাল ওনার বাড়ী আলাদা আর একটা প্রফেসার মামা ওনার বাড়ীতেই এরা থাকে দুজন
[185.515]
<no-speech>
[187.195]
সব একসঙ্গে বসে খায় একসঙ্গে সব বাচ্চাদেরকে নিয়ে আনন্দ করছে
[190.965]
<no-speech>
[198.295]
ও জোরও ও স্কুলে যাবে যদি স্কুলে অতো মানে কলেজে অতো স্টাইপ থাকবে <breath> তো প্র- প্রিন্সিপালরা সব নিজে এসে প্রফেসররা গাড়ি করে এসে বাড়িতে দিয়ে যায়
[209.595]
যে না ভাই ফক্রু প্রফেসরের ভাগ্নী আছে ফক্রু প্রফেসরের ভাগ্নী আছে তাই বলে বলে ঘরের মধ্যে নিয়ে আসে ওদের হেলপার আছে একটা
[219.345]
<no-speech>
[222.785]
হ্যাঁ <int> তাই তো
[224.405]
<no-speech>
[226.205]
হু
[226.815]
<no-speech>
[227.615]
তাই তো
[228.375]
<no-speech>
[230.645]
ওদের টিউশনের পয়সা লাগেনা ঐসব বন্ধু প্রফেসররা সব সাবজেক্ট ও ওকে দেখিয়ে দিল ও ওকে দেখিয়ে দিল দুজনকে দেখিয়ে দেয় পয়সা লাগে না
[240.735]
<no-speech>
[246.385]
হু
[246.975]
<no-speech>
[249.685]
হ্যাঁ <no-speech>
[252.415]
হ্যাঁ রোজ (()) ঐ কলেজের মালদাহ রটা <no-speech> কি বলবি
[260.685]
<no-speech>
[262.035]
হ্যাঁ
[262.725]
<no-speech>
[266.885]
হ্যাঁ তাই তো
[268.035]
<no-speech>
[269.805]
তোমার বাড়িতে সবাই ভাল (()) <sta> <no-speech> তোমার বাড়িতে সবাই ভাল মা আব্বা কেমন আছে
[275.775]
<no-speech>
[282.26]
<no-speech>
[288.745]
আচ্ছা
[289.535]
<no-speech>
[291.265]
যাক তুমি মাকে আব্বাকে বাড়িতে দেখো আর কি হুম
[295.105]
<no-speech>
[296.655]
হ্যাঁ মা আব্বাকে তো তোমাকেই গার্ড করতে হচ্ছে এখন <no-speech> বাচ্চা সামলাতে হচ্ছে মা আব্বাকে দেখতে হচ্ছে
[302.365]
<no-speech>
[307.745]
হ্যাঁ তাই তো
[308.865]
<no-speech>
[312.325]
হ্যাঁ হ্যাঁ তাই তো
[313.985]
<no-speech>
[317.895]
হ্যাঁ বড় মাও তো কানাডা চলে গেছে ফোন করে ও ডেলি একবার দু বার করে <breath> মামার মেয়ে মামার বৌ সবাই এখানেই আছে নতুন স্ট্রিটে
[325.715]
<no-speech>
[328.085]
মামা ইন্টারনেটে দেখাশোনা করেছে কথা <laugh> বলেছে খুব আনন্দ করেছে মামা বাচ্চারা
[333.835]
<no-speech>
[339.065]
তাসিয়া ফাইভে পড়ছে সাইবা টুয়েনটি
[341.665]
<no-speech>
[345.015]
হ্যাঁ দুজনের ইংলিশ মিডিয়াম (()) সাইফি হল ভাল হল টুয়েলভ পর্যন্ত আছে <no-speech>
[354.545]
হুম হ্যাঁ শুনছে
[356.165]
<no-speech>
[357.905]
মামী নিয়ে যায় সি- <no-speech>
[360.925]
হ্যাঁ মামী নিয়ে যাওয়া আসা করে ডেলি <breath> ওদেরকে
[365.425]
<no-speech>
[367.785]
হ্যাঁ মামী হ্যাঁ দুটো দিক মামী নিয়ে যায় দুবারেই
[371.685]
<no-speech>
[375.205]
<lipsmack> হ্যাঁ তা তো এখনি
[376.825]
<no-speech>
[380.465]
হ্যাঁ সাইবার থেকে তাসিয়া ভাল করছে সাইবা অতিরিক্ত বন্ধু- (())
[384.445]
<no-speech>
[386.825]
হ্যাঁ সাইবা ভাল রিড করতে পারে এবং (()) ওর খুব ভাল <no-speech>
[394.235]
হু
[394.725]
<no-speech>
[396.225]
হ্যাঁ (())
[399.745]
<no-speech>
[402.895]
ওহ (())
[405.645]
<no-speech>
[408.885]
হ্যাঁ তাই তো হ্যাঁ
[410.845]
<no-speech>
[414.725]
হ্যাঁ মুন্নি আন্টির দুটোই ছেলে ভাল আছে বড়টা খুব বদ পড়াশোনা করতে পারেনা খুব ভয় পায় কেমন একটা ভ্যাদা টাইপের (()) কোনই নাই তোতলা তোতলা কথা বলে
[425.055]
<no-speech>
[428.635]
এ্যা ছোটাকাটাও বদ এখন তো ও তো হাঁটাহাঁটি করছে দু বছর হল তো
[432.605]
<no-speech>
[435.815]
হ্যাঁ ও তো দু বছরের (()) বয়স না এখন
[438.615]
<no-speech>
[443.145]
হ্যাঁ ছোট টা ছোট
[444.535]
<no-speech>
[448.185]
ওহ <int> বড় কাটা তাড়াতাড়ি লম্বা হয়ে যাচ্ছে বড় কাটা (()) হ্যাঁ বড়টার মাথা হয়নি বড়টা <no-speech> হুম
[460.045]
<no-speech>
[460.195]
<no-speech>
[461.005]
সাত বছর হয়ে গে- <no-speech>
[465.765]
হ্যাঁ (())
[466.965]
<no-speech>
[469.195]
না না (()) এই
[471.375]
<no-speech>
[472.705]
হ্যাঁ হ্যাঁ গরুর দুধ খায়
[474.375]
<no-speech>
[478.405]
হ্যাঁ
[479.015]
<no-speech>
[481.135]
হ্যাঁ মুনি আন্টি বাড়ী করবে উপরে (()) করছে
[485.185]
<no-speech>
[487.365]
হ্যাঁ হ্যাঁ তাই তো
[489.695]
<no-speech>
[493.755]
হ্যাঁ ও তো
[494.845]
<no-speech>
[497.135]
হ্যাঁ হ্যাঁ
[498.375]
<no-speech>
[503.385]
না না ওয়ানে মিরাজ
[505.625]
<no-speech>
[510.505]
না না ফাঁকিবাজি একদম মাথায় গোবর মনে রাখতে পারেনা রিম্মি পড়াতে যায় <breath> মেরেধরে রিম্মি পড়ায় রিমনিকে একটু ভয় করে তাছাড়া কাউকে ভয় করেনা <sta>
[520.184875]
<no-speech>
[521.295]
<no-speech>
[521.824875]
<no-speech>
[526.195]
হ্যাঁ রিমনি পড়ায় যে রিমনি ওকে টিউশান দেয়
[528.645]
<no-speech>
[535.325]
হ্যাঁ
[536.005]
<no-speech>
[540.595]
<sta> হ্যাঁ
[541.785]
<no-speech>
[542.665]
হ্যাঁ হ্যাঁ
[543.465]
<no-speech>
[547.345]
<int> না বেটা রোয়ারি এখনো বাকি আছে কমপ্লিট হয়নি
[551.105]
<no-speech>
[552.625]
<sta> আপাততঃ এখন ভাড়া বাড়িতে আছি এই কমপ্লিট হয়ে গেলে নিজস্ব বাড়িতে যাব
[556.635]
<no-speech>
[566.075]
হ্যাঁ আছি ভাড়া বাড়িতে থাকছি তো এদিকে জল ফেলবে না এদিকে (())
[575.485]
<no-speech>
[576.755]
হ্যাঁ <int>
[577.185]
<no-speech>
[578.325]
হ্যাঁ (()) ইলেকট্রিক বিল পানির খরচ সব নিয়ে আড়াই হাজার হয়ে যাচ্ছে
[583.805]
<no-speech>
[590.505]
হ্যাঁ হ্যাঁ
[591.775]
<no-speech>
[593.215]
হ্যাঁ হ্যাঁ তাই তো
[595.585]
<no-speech>
[596.605]
হ্যাঁ
[597.105]
<no-speech>
[599.02]
