[0.0]
<no-speech>
[7.1325]
<no-speech>
[14.265]
<sta> এখানে গিয়েছিলি আজকে
[17.145]
<no-speech>
[18.225]
আর কোথাও বেড়াতে গিয়েছিলি আজকে কোথাও বেড়াতে গিয়েছিলি
[22.055]
<no-speech>
[25.725]
তাইতো ও <breath> আমিতো ঐ পঁচিশ তারিখে গিয়েছিলাম একটু দক্ষিনেশ্বরে <breath> হ্যাঁ মানে বেলা বারোটার সময় ছেলে মেয়েকে নিয়ে একটু দক্ষিনেশ্বরে গিয়েছিলাম
[36.705]
তা আজকে ফার্স্ট জানুয়ারি <int> কোথাও যাইনি শরীর ভাল না কোথাও যাইনি একদম <breath> সারাদিন আজকে শুয়ে বসে কাজ কর্ম করেছি ঘরে বের হইনি
[48.325]
শরীর ভাল লাগছে না এবার বল তুই <int> কোথাও বের হয়েছিলি
[52.355]
<no-speech>
[53.965]
<hes> <int> এ্যা
[55.755]
<no-speech>
[57.265]
হ্যালো
[57.825]
<no-speech>
[59.855]
হ্যাঁ
[60.405]
<no-speech>
[64.434875]
<sta> হ্যাঁ হ্যাঁ হ্যাঁ সেই তো ও আজকে তোর ছুটি ছিল <laugh> ফার্স্ট জানুয়ারি ছিল হ্যাঁ ও তোর সোমবার <hes> রোববার ছুটি থাকে
[75.255]
<no-speech>
[80.535]
<sta> ও হ্যাঁ বল ও আচ্ছা আচ্ছা হ্যাঁ
[87.175]
<no-speech>
[87.995]
<int> ও আচ্ছা আচ্ছা হুম এইতো আমি ঐ <hes> মেয়ের <hes> মেয়ের সাথে দেখা হয়েছিল মনজুর মঞ্জুরে মনজুর সাথে দেখা হয়েছিল
[99.185]
তারপর এই কত শত কথা বললো কাঁদলো বললো দিদি আসে না আমি বললাম আমি কোথাও যাই না <breath> তারপরে আজকে ফোন করেছিলাম মঞ্জুকে <breath> মনজুর ছেলেটা এক এ্যাকসিডেন্ট হয়েছে ঐ পায়ে চোট লেগেছে <sta> <breath> ঐ একদম কোম- ঐ রানার ঐ কোমরের (()) মানে মাংস কেটে ঐ পায়ের ঐ পাতার উপরে দিয়ে সে মানে চাকাটা পায়ে জড়িয়ে গিয়েছিল <breath> (()) ছিল গাড়িতে সেই সময় এই এক্সিডেন্টটা হয়েছে
[130.365]
<no-speech>
[131.855]
হ্যাঁ তো কাকার বাড়িতে দুই দিন না তিন দিন ছিল
[135.175]
<no-speech>
[136.815]
<hes> ও <sta> তো প্রায়ই কাকার বাড়িতে
[139.175]
<no-speech>
[140.765]
হ্যাঁ
[141.345]
<no-speech>
[145.865]
হ্যাঁ <int>
[146.655]
<no-speech>
[147.665]
ও তো যায় কাকার বাড়িতে যায় <breath> থাকে হ্যাঁ তো আমি বললাম যে তুই তো যখন তখন এখানে ওখানে যেতে পারিস থাকতে পারিস তাহলে তো আসতে পারিস
[158.495]
আর আমি দেখো কোথাও যেতে পারি না আমার সবসময় কাজকর্ম একের পরে (()) রয়েছি <int> পরে সংসার তারপরে বয়স হয়ে গেছে
[169.365]
<no-speech>
[170.685]
<sta> হ্যাঁ তারপর তুই ও তো রাগ করিস দেখিস তো তোর বাড়ী যেতে পারি কবে তোর বাড়ী গিয়েছিলাম সেই হ্যাঁ
[177.845]
<no-speech>
[179.895]
<sta> হ্যাঁ তারপরে আর যেতে পারলাম না তোর শাশুড়ি সেই মারা গেলো সেই গেলাম না গেছিলাম <no-speech>
[189.885]
হ্যাঁ এই দেখো না তুই তো নিজেই দেখলি যে কোনো জায়গায় যেতে পারি না ইচ্ছা হয় আজকে সারাদিন ছেলে মেয়ে বললো মা একটু বের হবে <breath> আমাদের নিয়ে চলো না আমি বললাম নারে আমি কোথাও বের হব না
[201.585]
<breath> আমার শরীর ভাল না আজকে আমি ঘরেই থাকব <breath> কাজ নেই কর্ম নেই তাই আর কোথাও যাব না <breath> ঘরে রান্নাবান্না করে নিজে টুক টাকা কাজ করে সারাদিন শুয়ে রইলাম
[212.945]
<breath> আমি তারপরে বললাম মেয়েকে <breath> যে মাসীর সাথে কথা বলবো তখন বললো দাঁড়াও আমার একটা কাজ আছে <breath> আমি ভিট্টুকে ফোন করি ভিট্টুকে ফোন করে ভিট্টুকে শিখিয়ে দিই
[224.845]
<breath> তারপরে মাসীমা ও তো বোঝে না তুমিও তো বোঝো না তারপরে ভিট্টু ঐ করে দিবে মাসি কথা বলবে তুমি কথা বলবে
[232.765]
<no-speech>
[233.645]
হ্যাঁ ঐ জন্য <int>
[235.635]
<no-speech>
[236.595]
হ্যাঁ রান্না হয়ে গেছে
[238.285]
<no-speech>
[244.895]
<no-speech>
[245.365]
<no-speech>
[247.175]
<sta> ও পরে তার (()) আমাদের স্বপন কেমন আছে
[252.395]
<no-speech>
[254.785]
<no-speech>
[255.145]
<no-speech>
[259.054875]
ও এমনি স্বপনের কাজ কর্ম কেমন চলছে টুক টাকা কাজ যে করছে
[264.155]
<no-speech>
[272.305]
হ্যাঁ <int>
[272.935]
<no-speech>
[276.185]
এই তো <no-speech>
[281.435]
হ্যা
[281.865]
<no-speech> এই তো
[284.455]
<no-speech>
[285.945]
সেইতো ঠিকইতো কথা এখন যা বাজারের পরিস্থিতি না খুবই খারাপ পরিস্থিতি তারপরে এই বাবু তো
[294.745]
<no-speech>
[296.105]
<sta> যেখানে <hes> মানে বাবুর যে সরকারী কাজ করছে সেইতো মর্নিং এই বেড়িয়ে যায় তারপরে অন্য বিজনেস এর কাজ গুলো করে বলে চলছে তাই
[305.095]
<no-speech>
[306.275]
<sta> হুম ঐ বাবুর ঐ রোজ- রোজভ্যালী আছে ঐ আছে এল_আই_সি আছে এই সব আছে টাছে বলে চলে যাচ্ছে
[314.325]
<no-speech>
[315.405]
হ্যাঁ তা ঐ জন্য <hes> বলছিল যে মা মাসীকে <hes> আজকে মাসীর বাড়িতে চলো সময় করে <breath> ওর তো সময় হয় না ওর তো সময় হয় তো আমার হয় না
[327.295]
ঐ দক্ষিনেশ্বরে গেলাম তো ঝট করে গেলাম সেই <hes> ছেলের সাথে বললাম যে চল তুই বলছিল চল গিয়ে পূজা দিয়ে আসি বাবু তো একটা গাড়ি কিনেছে
[338.915]
হ্যাঁ ওই অমনই অমনই মারুতি অমনই কিনেছে <sta> ঐ গাড়ি গাড়ি হ্যাঁ বাবু কিনেছে ঐ (()) আগের দিন
[350.015]
<no-speech>
[351.265]
হ্যাঁ হ্যাঁ ঐ গাড়ি করেই এসেছে <int>
[354.065]
<no-speech>
[355.265]
হ্যাঁ
[355.805]
<no-speech>
[357.455]
হ্যাঁ <int>
[357.985]
<no-speech>
[358.805]
<hes> না ওইটা হচ্ছে
[360.635]
<no-speech>
[361.555]
হ্যাঁ ঐ প্রাইভেট গাড়ি ঐ মারুতি অমনই হ্যাঁ হ্যাঁ হ্যাঁ ঐ (()) <no-speech>
[370.765]
হ্যাঁ
[371.355]
<no-speech>
[374.385]
না না গ্যারেজে গ্যারেজে রাখে এই একবালপুরে গ্যারেজ আছে ওখানে রাখে <breath> এক হাজার টাকা ভাড়া দিতে হয় এ্যাডভান্স টাকা এক হাজার জমা আছে
[383.165]
<no-speech>
[385.435]
<no-speech>
[385.845]
<no-speech>
[387.165]
হ্যাঁ ওই ও কিনেছে গাড়ি কিনলো তোমার ঐ (()) আগের দিন কিনেছে
[393.185]
<no-speech>
[395.265]
হ্যাঁ <breath> তা ঐ ঐ ঐ করেই গিয়েছিলাম গাড়ি করেই গিয়েছিলাম তোমার দক্ষিনেশ্বরে <breath> তা আমাকে আমি বললাম আমাকে একটু তারাপীঠে নিয়ে যাবি তারাপীঠে গেলে তোকে নিয়ে যাব <breath> তারাপীঠে গেলে এক এক সাথে যাব খানে হ্যাঁ হ্যাঁ এই জন্য আর আর কি আছে আর ভাত লাগে না শরীরটা ভাল না এবার ছেলের জন্য বাঁচতে হবে <int> <hes>
[416.725]
<no-speech>
[423.385]
<sta> না তোকে নিয়ে যাব গেলে তোর সাথে তুই আমি <breath> আমার মেয়ে ছেলে তোর ছেলে তোর বর আমি যাব <breath> তোর জামাইবাবু তো কোথাও যায় না তুই তো জানিস <no-speech>
[439.125]
ভালই তো <no-speech>
[441.815]
তাহলে তোর সুবিধা হবে কোনো অসুবিধা হবে না ঠিক আছে হ্যাঁ আর অসুবিধা হবে না সেই জন্য আবার (()) ছেলেটাকে একটু বিয়ে দিতে হবে রে মেয়ে টেয়ে দেখতে হবে তো মেয়ে টেয়ে দেখো না
[454.905]
<no-speech>
[457.085]
হ্যাঁ
[457.635]
<no-speech>
[459.855]
না ছেলেরও কোনো লাভ নেই মেয়েরো কোনো লাভ নাই <breath> আমি তো বলেছিলাম যে লাভ করলে বল আমরা বিয়ে দিয়ে দিবো <breath> এখনকার দিনে ভালোবাসাতো অন্যায় না <breath> ভাল পরিবার হলে ভালই তো কোনো <breath> <hes> কোনো অসুবিধা নেই কিন্তু না ঐ আমাকেই দিতে হবে
[475.625]
<no-speech>
[476.735]
(())
[477.805]
<no-speech>
[480.035]
হ্যাঁ
[480.605]
<no-speech>
[482.215]
হ্যাঁ বল <sta> কবে
[485.515]
<no-speech>
[487.145]
ও <sta> ও ও আচ্ছা <no-speech>
[491.445]
আচ্ছা যাই হোক এবার আমার মেয়ে আমার ছেলেটার জন্য একটা মেয়ে দেখো
[495.885]
<no-speech>
[501.875]
হ্যাঁ দেখো <hes> মেয়েটার ছেলেটাকে বিয়ে দিতে হবে নিজেরও শরীর আর ভাল না বুঝলি না <breath> আর কি কখন কি হয়ে যায় বোঝা যায় না তাই মেয়েটা বলছে এখন বিয়ে করব না আগে ছেলের দাদাকে দাও তারপরে <breath> আমি করব
[516.505]
<no-speech>
[520.625]
না সেটাই তো কথা বললো না মা আমি তো টুক টাকা এটা ওটা করছি আমার কোনো ব্যাপার না <breath> বিয়ে পাস করে গেলো বুঝলি এম এই ভর্তি হয়েছে মেয়েটা
[531.785]
<no-speech>
[533.705]
হ্যাঁ ও বলছে আমি তো নিজেই <hes> পয়সা রোজগার করব <hes> করব আমার কি আছে সেটাই কথা ওর এবং ভাল হলে ভাল হলো খারাপটাই ধরে রাখতে হবে
[544.485]
<sta> খারাপ ধরে রাখতে হবে জানি না <breath> এবার ভাল হলে আমার কপাল ভাল
[550.325]
<no-speech>
[551.835]
(()) <sta> হ্যাঁ এই তোকে বলে রাখলাম দেখিস ভাল মেয়ে টেয়ে পেলে ঘরোয়া মেয়ে পেলে হ্যাঁ
[559.245]
<no-speech>
[560.435]
যদি চাকরী বাকরীও করে আমার অসুবিধা নেই তাতে
[564.095]
<no-speech>
[564.905]
হ্যাঁ একদিন আসিস <int> বাড়িতে
[567.445]
<no-speech>
[568.565]
<no-speech>
[568.915]
<no-speech>
[569.775]
ছেলেতো গভর্ণমেন্ট চাকরী করে পি_টি_সি তে
[572.165]
<no-speech>
[573.445]
ও তো বাবু সেই (()) হ্যাঁ
[576.195]
<no-speech>
[583.195]
<sta> ও ও আচ্ছা আচ্ছা
[585.715]
<no-speech>
[588.735]
হ্যাঁ আচ্ছা তোকে আমি বলে রাখলাম তুই একটু দেখে দেখিস <breath> হ্যাঁ তোর জানাশুনা পরিচিত ভবানীপুর অঞ্চলে <breath> তুই তো এতদিন ওখানে বউ <no-speech>
[598.74]
