[0.0]
<sta> নাহ <no-speech>
[1.275]
<no-speech>
[2.345]
<no-speech>
[4.025]
হ্যালো <sta>
[5.845]
<no-speech>
[6.765]
হ্যাঁ <hes> কথা (()) না কেন
[11.555]
<no-speech>
[12.595]
এই শুনো <breath> <sta> কালকে <hes> কালকে কালকে তো খুব খাইছো
[17.285]
<no-speech>
[19.695]
আগেই কেটো না কিন্তু দশ মিনিট না হলে বুঝছো
[22.935]
<no-speech>
[24.735]
<hes> এমনিই কাটবো আগেই কেটো না তুমি আপনি না কাটলে কেটো না
[28.305]
<no-speech>
[29.775]
(()) <no-speech>
[32.175]
আই শুনো <int> <hes> আই কি কি খাইলা কালকে
[36.345]
<no-speech>
[41.265]
ও <int> তা আমারে তো জানাইলে না যে তুমি যাবা তা আমারে তো নিয়ে যাবার (()) <no-speech>
[48.645]
হ্যাঁ
[49.205]
<no-speech>
[51.955]
(()) <no-speech>
[53.935]
এ্যা তোমরা একা একাই গেলা না আমার পেটটা বড় দেখছ তাই না হ্যাঁ
[59.125]
<no-speech>
[62.895]
কি
[63.455]
<no-speech>
[66.325]
এ্যা হ্যাঁ তোমরা কয়টার দিকে গেছো
[69.495]
<no-speech>
[72.355]
ও সাড়ে তিনটা তা সম্ভুর বাবা গেছে কয়টার সময় ছয়টার সময়
[77.095]
<no-speech>
[78.425]
(()) <no-speech>
[80.635]
ও তোমরা আগে যাইয়া সব মাংসগুলা খায়া ফালাইছ পরে তো সম্ভুর বাবা যাইয়া পায় নাই না
[87.405]
<no-speech>
[88.785]
(()) কমল <no-speech> কমলদার (()) <no-speech>
[92.755]
ও
[93.455]
<no-speech>
[95.535]
(()) <sta>
[96.515]
<no-speech>
[98.895]
হ্যাঁ
[99.535]
<no-speech>
[102.295]
<no-speech>
[102.935]
<no-speech>
[104.885]
হ্যাঁ হ্যাঁ ঐ কে কে <sta> গেছিল
[107.975]
<no-speech>
[108.965]
কে <sta> কে গেছিল
[110.085]
<no-speech>
[112.935]
হ্যালো কে কে গেছিল <sta> ঐ জায়গায়
[114.695]
<no-speech>
[116.775]
ক্যা ক্যা গেছিল ঐ বাড়িতে
[118.555]
<no-speech>
[124.805]
ও <no-speech>
[129.035]
<sta> কে রকম <no-speech>
[132.245]
ও কোথায় গেছে
[133.365]
<no-speech>
[136.415]
<sta> ও আর <no-speech>
[139.795]
আমিও তো গেছিলাম পরে রাতে
[141.775]
<no-speech>
[146.225]
হ্যাঁ <sta> তারপরে ওই জায়গাটায়
[148.735]
<no-speech>
[149.645]
ঐখান থাইকা মদনবাড়ি গেছি
[151.695]
<no-speech>
[153.555]
<hes> ওদে- ওদের সঙ্গে তারপরে খাওয়া দাওয়া করেছি তারপরে এসেছি
[158.235]
<no-speech>
[160.155]
ও ইসে কি বলে তুমি এসো এর মধ্যে আসো না কেন
[164.385]
<no-speech>
[167.965]
ও তোমারে তো ফোন করলে তো তুমি ফোন তোলোই না
[171.835]
<no-speech>
[174.665]
ও কয়দিন করি রাতে পাই না <hes> রাতে বাড়ী যাও তুলুর সঙ্গে কথা কমু তুমি তোলোই না ফোন আপনেই কেটে দাও
[183.595]
<no-speech>
[185.015]
হ্যাঁ
[185.575]
<no-speech>
[187.015]
(()) <no-speech>
[189.495]
ও তুমি ফোন তুলবারই চাও না কে জানি ওইজন্য এখন আমি তোমার কাছে করিই না
[194.925]
<no-speech>
[200.775]
কিসে আছো
[201.825]
<no-speech>
[203.185]
হ্যাঁ
[203.695]
<no-speech>
[207.075]
<int> হ্যাঁ
[207.735]
<no-speech>
[208.995]
<int> <no-speech>
[210.975]
ও আর ইসের সঙ্গে <hes> ঐ যে বিমল যাবে কবে
[216.125]
<no-speech>
[219.075]
(()) <no-speech> হু
[221.125]
<no-speech>
[224.395]
ও ভাত করবা না এখন
[226.395]
<no-speech>
[229.215]
ও তো কেন করব না করুক তোমরা করে নেও তোমারটা তোমরা ঠিক কিরা তোল ঘরটর
[233.725]
<no-speech>
[237.525]
(()) <no-speech>
[239.405]
কল <sta> বসাইছ
[240.465]
<no-speech>
[241.475]
ও তা ভালই হইসে কল বসায়া খুব ভাল হইসে
[245.305]
<no-speech>
[249.025]
ও ও
[250.045]
<no-speech>
[250.845]
কোন কোন (())
[252.015]
<no-speech>
[253.725]
কোন কোন স্কুলে ভর্তি করছ
[255.655]
<no-speech>
[257.585]
<hes> সারদায় ভর্তি করাইছো নাকি এই জায়গায়
[260.895]
<no-speech>
[262.895]
ঐ চৌরঙ্গী
[264.035]
<no-speech>
[266.155]
ও দিয়া যায় না না একা পাঠাও
[268.645]
<no-speech>
[273.795]
ও একা রেখো না কিন্তু ওদিক দিয়া খুব গাড়ি
[277.215]
<no-speech>
[278.595]
ও বাড়ী <int> (())
[281.125]
<no-speech>
[282.655]
ওতো একটু ধীর স্থির কম তাই না
[284.885]
<no-speech>
[287.185]
(()) <no-speech>
[289.055]
<int> ও তৃপ্তির কম আছে এইজন্যে ওরে সঙ্গে সঙ্গে রাইখা সঙ্গে সঙ্গে তাড়াতাড়ি ওরে তৃপ্তিরে কইবা যে রান্না তাড়াতাড়ি কিরা <hes> সঙ্গে যাইয়া <no-speech>
[302.325]
<int> ও এরপরে ঐ <hes> ছুটি হলে একবারে নিয়ে জানি যায় বাড়িতে
[307.665]
<no-speech>
[308.705]
আমি শম্ভুরে নিয়া দুই তিন বছর গেছি এই জায়গা থেইকা
[312.975]
<no-speech>
[314.275]
(()) <no-speech>
[318.905]
ও ও
[319.845]
<no-speech>
[321.065]
এই শুনছো ইয়া <no-speech>
[324.325]
এই রাতে ফোন কইরো তো আইজকা
[326.575]
<no-speech>
[327.425]
<int> <hes> তোমার বউর সঙ্গে কথা কমু
[331.185]
<no-speech>
[333.785]
হ্যাঁ রাতে ফোন কইরো
[334.985]
<no-speech>
[338.08]
