[0.0]
<no-speech>
[0.165]
<no-speech>
[1.435]
<no-speech>
[3.435]
<sta> হ্য- হ্যালো
[8.345]
<no-speech>
[9.405]
<sta> হ্যালো মলয়দা <no-speech> সোনা যায় না
[15.725]
<no-speech>
[17.585]
<sta> আচ্ছা <no-speech> হ্যাঁ একটু
[21.255]
<no-speech>
[22.055]
<sta> হ্যাঁ শুনেন <no-speech> কিরম আওয়াজ হয়েছে <no-speech> <sta> হ্যাঁ হ্যাঁ
[29.825]
<no-speech>
[30.825]
<no-speech>
[35.055]
<no-speech>
[36.915]
<sta> হ্যাঁ <no-speech> <sta> হ্যাঁ আচ্ছা ইয়ে <hes> মাছ মাছ আপনি কত করে এনেছেন
[47.745]
<no-speech>
[48.695]
<sta> হ্যালো <no-speech> হ্যালো
[60.325]
<sta> হ্যাঁ মাছ কি দর এনেছেন
[64.325]
<no-speech>
[65.425]
<sta> হ্যাঁ রে কানাই <no-speech> আরে আমার কাছ থেকে কি আমার কাছ থেকে মাছের দাম বেশী নীল নাকি
[76.695]
<sta> হ্যাঁ <no-speech> হ্যালো
[88.155]
<sta> হ্যালো
[95.495]
<no-speech>
[96.715]
<sta> হ্যালো <no-speech> হ্যালো
[107.415]
<no-speech>
[108.535]
<sta> কি <no-speech> কথা কথা কথা বলেন না কেন <no-speech> হ্যাঁ কথা বলার কথা বলেন না কেন
[118.815]
<no-speech>
[120.785]
হ্যাঁ
[121.435]
<no-speech>
[122.295]
<sta> আচ্ছা আচ্ছা ইয়ে মলয়দা মলয়দা
[128.105]
<no-speech>
[128.905]
<sta> আপনি একটা কাপড় নিয়েছিলেন না <no-speech> <sta> এক- একশো টাকা দিয়েছিলেন শাঠ টাকা ফিরেছিল না
[139.795]
<no-speech>
[144.075]
<sta> হ্যাঁ আচ্ছা আচ্ছা <no-speech> না ওইযে
[149.705]
<no-speech>
[150.545]
<no-speech>
[150.935]
<no-speech>
[152.755]
<sta> আচ্ছা <no-speech> না না আমার কাছ আমার কাছ থেকে যে মাছের দামটা বেশী নীল <no-speech> এই
[163.625]
<no-speech>
[164.665]
<no-speech>
[165.035]
<no-speech>
[167.545]
<sta> না না আপনি (()) নেই <no-speech> আমি আমি আজকে পাঁচ কেজি মাছ *আনছিতো* <no-speech> তা তা পাঁচ কেজি মাছের দাম নীল
[179.385]
<no-speech>
[181.555]
<no-speech>
[183.265]
<sta> প-পয় <overlap> <no-speech> পঁয়ষট্টি টাকা করে নীল
[190.555]
<no-speech>
[191.725]
<no-speech>
[192.125]
<no-speech>
[194.195]
<sta> তাই না কি
[197.515]
<no-speech>
[198.575]
<sta> ও
[200.205]
<no-speech>
[201.795]
<sta> এই
[204.445]
<no-speech>
[206.325]
<no-speech>
[206.675]
<no-speech>
[207.665]
তাই না কি
[208.485]
<no-speech>
[209.405]
<sta> হ্যাঁ আচ্ছা ঠিক আছে ইয়ে <breath> তারপরে ম- বাচ্চা কাচ্চা কেমন আছে
[216.325]
<no-speech>
[218.645]
<sta> ভালই আছে <no-speech> হ্যাঁ <no-speech> আচ্ছা আপনাদের ঐদিকে আ- আপ- আপনার আপনার বাড়ীর কাছে <no-speech> হ্যাঁ হ্যালো
[230.565]
<no-speech>
[231.585]
<no-speech>
[232.505]
<sta> আপনার বাড়ীর কাছে <no-speech> এক নতুন এক ভদ্রলোক আসছে ওনার নামটা না কি
[241.815]
<no-speech>
[243.855]
<sta> আরে ওইযে আপনার বাড়ীর পূর্বে
[247.065]
<no-speech>
[247.875]
<no-speech>
[249.025]
<no-speech>
[250.825]
<sta> তাই নাকি <no-speech> <sta> না না আমি য- আমি যখন বলবো <breath> আমি যখন বলবো তখনতো ভদ্রলোক ই বলবো
[260.304875]
<no-speech>
[261.295]
<no-speech>
[261.665]
<no-speech>
[263.705]
<sta> আ- আচ্ছা <no-speech> তা কি নামটা জানি
[269.805]
<no-speech>
[272.825]
<sta> তা
[273.365]
<no-speech>
[274.285]
<no-speech>
[274.635]
<no-speech>
[275.855]
<sta> হ্যাঁ হ্যাঁ <sta>
[279.215]
<no-speech>
[283.245]
হ্যাঁ <sta> ভিন্ন <no-speech> আচ্ছা <no-speech> ভাল <no-speech> উনি কিন্তু উনি কিন্তু আবার খুব ইয়ের ভক্ত গো
[294.755]
<no-speech>
[295.765]
<no-speech>
[296.625]
হ্যাঁ <sta> আচ্ছা <no-speech> তারপরে <no-speech> তারপরে ছেলে ফেলের বী এই টিয়ে করাইছেনতো
[308.585]
<no-speech>
[308.845]
<no-speech>
[309.855]
<sta> এই
[311.305]
<no-speech>
[312.365]
এই <no-speech>
[314.055]
<sta> কয় ছেলের বী এই করেছেন
[316.945]
<no-speech>
[318.125]
<sta> একটা ও না <no-speech> আচ্ছা দেখা দেখি নাই দেখা দেখি হচ্ছে
[326.385]
<no-speech>
[328.185]
<sta> সোনা যায়
[331.185]
<no-speech>
[332.965]
<sta> কি কন দেরি আছে <no-speech> আপনারা এখন বুড়াবুড়ি <no-speech> এখন ছেলেদের বী এই করাবেন
[339.505]
<no-speech>
[340.425]
<no-speech>
[340.785]
<no-speech>
[342.175]
আর দূর মশাই কমে হয় নাই
[344.125]
<no-speech>
[344.965]
<no-speech>
[346.005]
<no-speech>
[349.025]
আচ্ছা <sta> <no-speech> আপনার ওইযে সজলের বাড়িতে <no-speech> সজলের বাড়িতে মাটি দেওয়ার কথা ছিল না
[357.615]
<no-speech>
[358.675]
<sta> মাটি মাটি দিয়েছেন <no-speech> হ্যালো
[367.375]
<no-speech>
[368.445]
<sta> দিবেন <no-speech> আচ্ছা যাহোক বলেছিল যে দেখা করার জন্য
[375.145]
<no-speech>
[376.775]
<sta> বুঝেছেন <no-speech> আরে ওই যে ইয়ে নিরেনের ভাই
[385.315]
<no-speech>
[388.235]
<sta> নিরেনের ভাই স্বপন
[392.205]
<no-speech>
[395.055]
বুঝেছেন তো কিযে কিছু বলেন আপনি আপনি কিছু বলেন <sta>
[400.835]
<no-speech>
[402.915]
<sta> কত বস্তা কত
[407.165]
<no-speech>
[409.445]
<sta> এ্যা
[411.465]
<no-speech>
[414.475]
<sta> তাই না কি
[415.825]
<no-speech>
[416.865]
<no-speech>
[418.035]
<no-speech>
[418.875]
ও <no-speech>
[421.865]
<sta> হ্যাঁ
[424.255]
<no-speech>
[427.105]
<sta> <breath> আচ্ছা এটাইতো কথা এখন <breath> যে বয়স আপনার আপনারতো আর অতো ধান্ধা করার দরকার নাই <breath> এই টুকটাক যাই কিছু হয় তার খরচটা তা হলেই হয়
[438.685]
<no-speech>
[439.715]
<no-speech>
[447.275]
তাই না কি <sta> আচ্ছা রং কই গেলো বলতে পারেন আপনি
[451.385]
<no-speech>
[456.055]
<no-speech>
[458.955]
<no-speech>
[460.095]
হ্যাঁ আমার রং আছে আপনার রং নাই <sta>
[463.755]
<no-speech>
[465.565]
অব <no-speech>
[467.155]
<sta> কথা হল নাকি এটা
[468.625]
<no-speech>
[469.585]
<no-speech>
[471.045]
<no-speech>
[472.745]
<sta> আর কি কও <no-speech> কও কও
[476.625]
<no-speech>
[479.115]
<no-speech>
[479.515]
<no-speech>
[484.015]
আমি কই থেকে ধরতাম <no-speech> <sta> আচ্ছা তাহলে এক কাজ কর <no-speech> মলয়দা
[492.495]
<no-speech>
[493.715]
আমারে <no-speech> <sta> বিষ পঞ্চাশ তলা মাটি দিও তো
[497.255]
<no-speech>
[500.555]
আমাদের
[501.175]
<no-speech>
[502.255]
<no-speech>
[502.645]
<no-speech>
[503.535]
<sta> আমারে <no-speech> আমার বাড়ীর
[507.285]
<no-speech>
[508.795]
<no-speech>
[509.185]
<no-speech>
[510.085]
কত <sta> ঠেলা কত
[512.694875]
<no-speech>
[514.195]
<sta> হ্যাঁ
[516.415]
<no-speech>
[517.605]
<sta> ঠেলা কত
[522.184875]
<no-speech>
[529.975]
<sta> আর লুট তো টনটনাই কিন্তু ইয়ে কত
[533.465]
<no-speech>
[534.325]
<no-speech>
[534.695]
<no-speech>
[535.825]
<sta> বলবো না
[538.005]
<no-speech>
[540.775]
<no-speech>
[541.145]
<no-speech>
[542.275]
<sta> কাল <no-speech> হ্যালো
[544.045]
<no-speech>
[546.535]
<no-speech>
[547.325]
<no-speech>
[548.585]
<sta> হ্যাঁ
[549.105]
<no-speech>
[550.085]
<sta> না না কালকে না এই মনে করেন <hes> আজকে কয় তারিখ তেইশ তারিখ <no-speech> <hes> সাতাশ আটাশ তারিখ
[558.105]
<no-speech>
[560.595]
<no-speech>
[560.955]
<no-speech>
[565.735]
হ্যাঁ ঠিক আছে ভাই <sta> যদি <no-speech> পয়সা না নাও তাহলে তো অনেক
[570.615]
<no-speech>
[571.565]
সুবিধা পেলাম আমি
[573.915]
<no-speech>
[577.725]
<sta> না না না <no-speech> মনা মিঞা না খেয়ে থাকতে পারে
[582.315]
<no-speech>
[584.885]
হ্যাঁ হ্যাঁ
[585.645]
<no-speech>
[589.635]
তা <sta> এইতো সারা দিনে এক বার খাবই
[593.445]
<no-speech>
[595.435]
<sta> হ্যালো
[596.675]
<no-speech>
[597.645]
হ্যালো
[598.265]
<no-speech>
[599.38]
