[0.0]
<no-speech>
[7.825]
<sta> হ্যালো
[8.465]
<no-speech>
[11.735]
হ্যাঁ
[12.205]
<no-speech>
[13.365]
হ্যালো বলুন
[14.315]
<no-speech>
[18.235]
<int> ও আপনি আমি ভাবলাম কি ঐ অন্য জামাই <hes> কুচবিহারের জামাই বুঝি
[24.445]
<no-speech>
[26.365]
হ্যাঁ (())
[28.155]
<no-speech>
[31.265]
<laugh> (()) বলবেন তো
[33.615]
<no-speech>
[34.615]
হ্যাঁ অন্য
[35.545]
<no-speech>
[38.155]
দিদি আছে <breath> <hes> কি ব্যাপার এটা কি অফার টফার নাকি
[42.125]
<no-speech>
[50.285]
মানে (())
[51.445]
<no-speech>
[55.715]
<int> হ্যাঁ ছিল ঐ তো <int> পরশুদিন গেছে
[59.925]
<no-speech>
[61.945]
পরশুদিন গেছে
[63.295]
<no-speech>
[64.165]
<sta> দুই দিন ছিল
[65.154875]
<no-speech>
[69.625]
না তো
[70.375]
<no-speech>
[74.885]
সেটাতো আগে
[75.875]
<no-speech>
[78.485]
কতোদিন আগের প্রায় এক দেড়মাস হইলো দুই মাস
[80.945]
<no-speech>
[84.145]
তাহলে কি
[85.015]
<no-speech>
[87.435]
ও <sta> কয়দিন থাইকা গেছে তা আপনি জানেন না
[89.825]
<no-speech>
[90.855]
<sta> দুই দিন ছিলই
[91.815]
<no-speech>
[95.115]
এইখানে দুই দিন ছিল
[96.635]
<no-speech>
[98.425]
এইখানে দুই দিন ছিল
[99.985]
<no-speech>
[104.545]
তো ভালই হয়ছে না কইয়া বাড়ায় দিয়েছে তো করবে
[107.265]
<no-speech>
[111.615]
আমার খবর আমার কি খবর জানতে চান বলেন না <sta>
[115.645]
<no-speech>
[118.415]
হ্যাঁ টিউশানি <sta> তো করতেই যাচ্ছি
[120.115]
<no-speech>
[122.355]
করছিতো
[123.425]
<no-speech>
[127.885]
অন্যকিছু বলতে আর তো কিছু করিনা
[130.175]
<no-speech>
[133.025]
আর কি করব আর তো কিছু নাই আমাদের আমাদের কি চাকরী বাকরি হবে যে চাকরীর চেষ্টা করব
[138.165]
<no-speech>
[142.405]
না এস_এস_সি_এফ_এস করি না
[144.215]
<no-speech>
[145.335]
<hes> <int> নাম্বার কম নাম্বার কম না
[148.035]
<no-speech>
[149.955]
(())
[151.245]
<no-speech>
[156.385]
বেশী হইলে <no-speech>
[160.325]
কি বলেন
[161.085]
<no-speech>
[171.535]
বাড়ীর সামনে <int>
[173.045]
<no-speech>
[179.295]
<sta> আমাদের বাড়ী (()) পশ্চিমে
[181.355]
<no-speech>
[182.365]
<sta> হ্যাঁ বলেন
[184.445]
<no-speech>
[191.125]
না মাধ্যমিক ফেল দেয় <hes> পরে আর দেয়নি
[194.405]
<no-speech>
[195.565]
পরে আর দেয়নি একবার ফেল করছে পরে আর দেয়নি
[197.975]
<no-speech>
[204.085]
বয়স কিরকম হ্যাঁ
[206.535]
<no-speech>
[207.475]
<hes> বিশের <int> মত হইতে পারে বিষ টিশ হ্যাঁ
[211.515]
<no-speech>
[215.295]
বিষ একুশ হইতে পারে
[216.785]
<no-speech>
[227.595]
তা তো আর আমরা জানিনা কিন্তু কে সেটা কে
[231.345]
<no-speech>
[233.625]
ছেলেটা কে
[234.685]
<no-speech>
[241.195]
ও
[241.775]
<no-speech>
[242.985]
(())
[244.195]
<no-speech>
[250.135]
হ্যাঁ এলে দিবে
[251.295]
<no-speech>
[253.725]
জেল পড়ছে
[255.075]
<no-speech>
[256.374875]
<no-speech>
[256.755]
<no-speech>
[260.425]
আছে বাবা মা দুইজনের
[262.825]
<no-speech>
[264.675]
(()) হ্যাঁ হ্যাঁ ভাই আছে যে তিন বোন ওরা
[269.515]
<no-speech>
[270.335]
<hes> <int> না তিন বোন না চার বোন <hes> <int> এক ভাই
[275.635]
<no-speech>
[276.895]
ভাই
[277.425]
<no-speech>
[278.445]
হুম মেয়েটার কয়টা ভাই (())
[280.145]
<no-speech>
[282.055]
পয়সা পাচ্ছে তো
[283.075]
<no-speech>
[285.625]
হ্যাঁ
[286.255]
<no-speech>
[289.305]
হ্যাঁ হ্যাঁ সবারই বিয়ে হয়েছে ভাই বিয়ে করে নাই আরও আছে <int>
[292.735]
<no-speech>
[300.105]
খবরটা নিতে পারবোনা কেন কিন্তু <hes> ছেলেটা কি কি করে ওদেরকেও তো ছেলে সমন্ধেও তো বলতে হবে
[307.335]
<no-speech>
[316.165]
<no-speech>
[316.765]
<no-speech>
[319.315]
হু
[319.895]
<no-speech>
[323.925]
হুম হু
[325.665]
<no-speech>
[331.205]
হু
[331.765]
<no-speech>
[337.605]
হু
[338.135]
<no-speech>
[348.035]
<no-speech>
[348.535]
<no-speech>
[351.515]
<no-speech>
[351.875]
<no-speech>
[353.215]
এগুলো ঘটকগিরির লোক আলাদা লাগে বুঝলেন <laugh> আমাদের <int> দিয়ে হবে হ্যাঁ <int>
[358.885]
<no-speech>
[362.405]
(()) <no-speech>
[369.865]
ও
[370.905]
<no-speech>
[372.355]
<sta> ঠিক আছে আমি কথা বলে আগে দেখি জানি ওরা কিরকম দেয়
[375.555]
<no-speech>
[383.695]
<sta> হ্যাঁ হ্যাঁ ডি_ডিতে দেখি
[385.075]
<no-speech>
[392.935]
<no-speech>
[400.795]
<int> ও ও
[401.785]
<no-speech>
[406.675]
(())
[407.145]
<no-speech>
[410.115]
<no-speech>
[410.485]
<no-speech>
[412.205]
<sta> নেশা নেশা টেশা করে না তো
[415.565]
<no-speech>
[417.625]
নেশা করে না তো
[419.005]
<no-speech>
[422.555]
তাই (())
[424.885]
<no-speech>
[426.665]
না <sta> সে তো এখন মনে করেন মনে করেন যে মামাতো ভাই হতে পারে কিন্তু আমাদের পরিবারে আমাদের রিলেটিভ থাকতে পারে কিন্তু তারা যে <breath> সবাই যে <cough> ভাল এইরকম তো কোন কথা না <int>
[438.045]
<sta> এটাই (()) <no-speech>
[441.415]
<int> সবই তো (()) ব্যাপার
[443.445]
<no-speech>
[444.735]
হ্যাঁ <int>
[445.385]
<no-speech>
[449.045]
<sta> হ্যাঁ সেইটা তো বুঝছি
[451.635]
<no-speech>
[453.995]
<no-speech>
[454.365]
<no-speech>
[461.77]
<no-speech>
[469.175]
আচ্ছা ঠিক আছে আমি আগে কথা বলে নিই
[471.735]
<no-speech>
[476.285]
আচ্ছা
[477.155]
<no-speech>
[482.945]
হ্যাঁ <int>
[483.605]
<no-speech>
[487.145]
হ্যাঁ আছে ভালই
[488.165]
<no-speech>
[491.895]
<sta> ঐ তো আছেই ভালই আচ্ছা
[494.445]
<no-speech>
[500.125]
<sta> এইবার তো সিক্সে উঠলো
[503.035]
<no-speech>
[507.475]
ও
[508.185]
<no-speech>
[509.285]
<int> সিক্সে
[510.165]
<no-speech>
[511.265]
ঐ তো মোটামুটি <sta> ফোর্থ হয়ছে বুঝি
[513.485]
<no-speech>
[515.685]
<sta> হুম
[516.434875]
<no-speech>
[518.915]
<no-speech>
[519.425]
<no-speech>
[521.235]
না যায় নাই
[522.375]
<no-speech>
[523.305]
<int> যাব হয়তো
[524.525]
<no-speech>
[530.615]
<sta> যাব কবে যাই এখনও ঠিক নেই
[533.135]
<no-speech>
[540.815]
তাই নাকি <int> কই ফাঁকি দিলাম
[543.085]
<no-speech>
[543.935]
কই ফাঁকি দিলাম
[544.995]
<no-speech>
[549.405]
হ্যাঁ এখন মোটামুটি ভাল আছে আগে যে <int> (()) পায়ের ব্যাথাটা এখন অনেকটা কমছে
[555.945]
<no-speech>
[558.755]
শরীর ভাল থাকলেই তো ভাল তাই না <int> হ্যাঁ
[562.145]
<no-speech>
[563.305]
এটাই (()) <int>
[564.235]
<no-speech>
[565.625]
একবেলা খাওয়া দাওয়ার ঐটা কম বেশী ঐটা চলে যায় কিন্তু শরীর অসুস্থ থাকলে বড় চিন্তা এটা মানুষের
[572.335]
<no-speech>
[574.775]
<no-speech>
[575.525]
<no-speech>
[579.215]
<no-speech>
[579.825]
<no-speech>
[580.995]
হু
[581.635]
<no-speech>
[585.135]
অ <int>
[586.295]
<no-speech>
[589.695]
আচ্ছা
[590.395]
<no-speech>
[591.625]
ঠিক আছে আমি দুই <int> একদিন পরে যাব গিয়া কথা বইলা (()) ওরা (())
[597.545]
<sta> হ্যাঁ ~
[599.74]
