[0.0]
<no-speech>
[4.525]
<sta> হ্যালো
[6.045]
<no-speech>
[7.715]
হ্যাঁ হ্যাঁ হ্যাঁ হ্যাঁ কি করছিস তুই দিদিভাইরা এসেছিল
[12.875]
<no-speech>
[17.625]
ও আর তিনটা তিনটা চলে গেছে তিনটা
[20.885]
<no-speech>
[22.225]
<no-speech>
[22.585]
<no-speech>
[24.675]
আমার আসার তো এখনো আধ ঘন্টা আমি রাস্তায় আছি
[27.615]
<no-speech>
[33.545]
<hes> না আমি কিছু খায়নি এমনি খেয়েছি এমনি মুর ট্যুরই বাসার মধ্যে আছে আর একটা বিস্কুট খাচ্ছে আর বাসার মধ্যে আছে
[43.035]
<no-speech>
[44.685]
<laugh> (()) আর <hes> তিন্নি করছে
[48.465]
<no-speech>
[49.555]
<sta> হ্যাঁ বৌদিকে বল তাড়াতাড়ি করে যাতে ভাত বেড়ে রাখতে আমি গিয়ে খাওয়া দাওয়া করব খেয়ে দেয়ে (()) বুঝেছিস
[56.795]
<no-speech>
[58.525]
(())
[59.025]
<no-speech>
[62.455]
ও <sta>
[63.545]
<no-speech>
[64.345]
আচ্ছা আর বিদায়ের লোক এসেছিল <sta>
[66.805]
<no-speech>
[69.635]
ও <sta> আচ্ছা আচ্ছা আর (()) এসেছে <hes> বৌদি বাজার থেকে আসেনি এখনো
[78.165]
<no-speech>
[80.965]
<sta> আচ্ছা আচ্ছা আচ্ছা আর হচ্ছে <hes> তিন্নিকা পড়াশুনা করিয়েছিস <no-speech> হ্যালো
[88.785]
<no-speech>
[90.675]
<sta> তিন্নিকে পড়াশুনা করিয়েছিস
[94.345]
<no-speech>
[95.165]
<sta> ও আর ও কে একটু গান টান করিয়ে দিস বৌদি বলছিল ওকে গান করানোর জন্য
[102.935]
<no-speech>
[104.285]
বুঝেছিস (())
[106.765]
<no-speech>
[107.565]
হারমোনিয়াম বাজিয়ে
[108.825]
<no-speech>
[110.435]
হুম আর হ্যাঁ
[113.115]
<no-speech>
[115.215]
হ্যাঁ আর হচ্ছে আমি কি কিছু নিয়ে যাব যাওয়ার সময়
[118.495]
<no-speech>
[124.845]
আচ্ছা
[125.655]
<no-speech>
[127.155]
ও আর আমাদের না অফিসে পিকনিক হবে বুঝেছিস অফিসের পিকনিকে যাবি তোরা
[132.645]
<no-speech>
[133.995]
<sta> অফিসের পিকনিক
[136.445]
<no-speech>
[138.785]
আড়াইশো টাকা করে
[140.035]
<no-speech>
[142.385]
<no-speech>
[143.065]
<no-speech>
[148.015]
ঐটা হচ্ছে এক তারিখে রবিবার
[150.595]
<no-speech>
[152.155]
আমার (()) হ্যাঁ <sta>
[153.795]
<no-speech>
[155.235]
তাহলে কি করবি <sta>
[157.815]
<no-speech>
[161.115]
হ্যাঁ হ্যাঁ
[161.955]
<no-speech>
[163.165]
আচ্ছা <no-speech>
[166.365]
ও কবে সেটা
[167.875]
<no-speech>
[169.995]
ও <sta> আচ্ছা আচ্ছা না না পিকনিকে মনে হয় বাস টাসে করেই যাবে আমাদের সবাই অফিস কলীগ টলিগরা সবাই যাচ্ছে তা চল তাহলে আমি তাহলে বলে দিবো <int> আমি তাহলে আজকে রাত্রে ফোন করে বলে দিতে হবে
[186.815]
<no-speech>
[191.875]
আচ্ছা আচ্ছা <no-speech>
[194.415]
ঠিক আছে ঠিক আছে আর হচ্ছে <hes> তিনটায় (()) পৌঁছেছে কি না একবার ফোন করে জেনে নিস হ্যাঁ <no-speech> <sta> আমিও দেখি রাত্রিবেলা
[205.845]
<sta> (()) ফোন করে দিচ্ছি
[211.245]
<no-speech>
[212.265]
ঠিক আচ্ছে আর হচ্ছে তিন্নিকে কিন্তু গান শেখা হ্যাঁ আর হচ্ছেন তিন্নিকে কিন্তু গান শেখা
[222.815]
<no-speech>
[224.845]
কিসের কথা
[225.735]
<no-speech>
[228.445]
না না না না বলে দিবো কিন্তু সংগীত আর সারেগামাটা এগুলো ভাল করে শিখতে দিতে
[233.275]
<no-speech>
[234.455]
কি হয়েছে
[236.355]
<no-speech>
[237.215]
হুম আর হচ্ছে আর <hes> আর পারলে একটু বিছানাটা কে করে রাখিস আমি যে ঘর টর (()) ঘর টর ঝাড় দিয়ে রাখিস হ্যাঁ
[247.065]
<no-speech>
[248.205]
(()) রেখে দিয়ে <hes> একটু করে রাখিস খাওয়া দাওয়া করে বৌদি আসলে ইয়ে করে দিবো
[254.585]
<no-speech>
[255.855]
<sta> ঠিক আছে আর হচ্ছে তিন্নিকে ইয়ে করে নিস <hes> জামা প্যান্ট গুলো সাজিয়ে টাজিয়ে দিস
[261.685]
<no-speech>
[262.785]
(()) আর হচ্ছে <hes> ভাত রান্না হয়ে গেছে <no-speech> বৌদি কি করে রেখে গেছে <hes> ভাত
[269.335]
<no-speech>
[271.345]
<sta> ভাত ভাত
[272.475]
<no-speech>
[273.485]
(())
[274.305]
<no-speech>
[275.465]
ও আচ্ছা আচ্ছা আচ্ছা আচ্ছা ঠিক আছে ঠিক আছে আর তোর কালকে অফিস কেই <sta>
[283.055]
<no-speech>
[289.44]
<no-speech>
[295.825]
ও
[296.945]
<no-speech>
[299.015]
আচ্ছা
[299.775]
<no-speech>
[305.135]
আচ্ছা <int>
[305.805]
<no-speech>
[309.405]
<no-speech>
[309.795]
<no-speech>
[313.585]
ও <sta>
[314.895]
<no-speech>
[315.905]
একত্রিশে ডিসেম্বর কিছু হবে নাকি তোদের অফিস
[318.465]
<no-speech>
[328.435]
<sta> আচ্ছা
[331.425]
<no-speech>
[333.405]
ও <sta> আচ্ছা আমি বাসে উঠবো একটু বাসের সামনে দাঁড়িয়ে আছি হুম (()) হাঁটছি হেঁটে হেঁটে (()) আর হচ্ছে (())
[345.065]
<sta> এক তারিখে তাহলে আমি বলে নেব তাহলে <no-speech> হ্যালো
[349.825]
<no-speech>
[353.085]
<sta> আমরা চার জন তো ওখানে ভাল খাওয়াবে জানিস তো খাওয়াবে হচ্ছে ভাত
[360.715]
<sta> তারপর হচ্ছে <hes> ডাল মুগের ডাল মাছের মাথা দিয়ে তারপর হচ্ছে বাঁধাকপি তারপর <hes> মাংস পাঠার মাংস <sta> বুঝেছিস হ্যাঁ আর মাফ করে দিস চাটনি হুম পাপড়ভাজা <hes> মিষ্টি কি (())
[384.485]
<sta> বুঝেছিস হ্যালো
[388.655]
<no-speech>
[391.855]
হ্যাঁ খুবই ভাল আড়াইশো টাকা আবার
[394.245]
<no-speech>
[395.095]
হুম আর হচ্ছে বাসে করে নিয়ে যাবে
[398.035]
<no-speech>
[399.095]
<no-speech>
[402.775]
<no-speech>
[404.025]
<sta> হ্যাঁ বাস থেকে নামিয়ে দিবে আমাকে <no-speech> হুম
[407.125]
<no-speech>
[409.215]
হ্যাঁ বাড়ীর সামনে না হলে একটা কোনো জংশন এই নামিয়ে দিবে ওখান থেকে আসতে হবে
[413.455]
<no-speech>
[414.275]
<sta> হ্যাঁ আর বাসের জন্য মনে হয় কিছু টাকা পয়সা নেবে হয়তো
[418.715]
<no-speech>
[419.785]
হ্যাঁ
[420.475]
<no-speech>
[423.015]
(())
[423.615]
<no-speech>
[424.805]
দিদিভাইকে জিজ্ঞাসা করবি ওরা যাবে কিনা
[427.235]
<no-speech>
[435.805]
আচ্ছা আচ্ছা ঠিক আছে ঠিক আছে আর হচ্ছে আমি বাজার থেকে কি করব <sta> বাজার হ্যাঁ হুম
[447.785]
<no-speech>
[448.915]
<no-speech>
[452.795]
<sta> আচ্ছা আচ্ছা (()) হুম
[460.895]
<no-speech>
[461.885]
<sta> হ্যালো
[462.645]
<no-speech>
[463.655]
<sta> বৌদি আবার কি বাজার আনে দেখো আবার আমি আবার ডবল করে নিয়ে যাব আমিতো আটা নেই বৌদি বলছিগো আটা ময়দা নিয়ে নিচ্ছি বুঝলি
[473.965]
<no-speech>
[476.945]
<sta> (())
[479.085]
<no-speech>
[480.965]
আচ্ছা
[481.435]
<no-speech>
[483.185]
ও জয়নগরের উমা আচ্ছা আচ্ছা আর তিন্নিকে কিন্তু যেগুলো বললাম সেগুলো শেখা তিন্নি তো <hes> হ্যাঁ তিন্নিকে গান টান শিখিয়ে দে না হলে কিন্তু আবার
[495.175]
<sta> বৌদি এসে বলবে যে ভাই <hes> করো আমার তো যাওয়ার কথা ছিল তাড়াতাড়ি কিন্তু যাওয়াটা দেরি হচ্ছে হুম
[502.805]
<no-speech>
[504.005]
হ্যালো
[504.605]
<no-speech>
[506.835]
ঠিক আছে
[507.595]
<no-speech>
[508.955]
হ্যাঁ
[509.505]
<no-speech>
[515.774875]
আচ্ছা
[516.625]
<no-speech>
[519.685]
হ্যাঁ হ্যাঁ
[520.454875]
<no-speech>
[521.565]
তাহলে আসবার সময় মণিদার সাথে দেখা করে আসব
[524.255]
<no-speech>
[527.725]
<int> ও কবে কি বলেছিল কবে লাগাবে
[531.315]
<no-speech>
[536.255]
<no-speech>
[536.685]
<no-speech>
[539.385]
<sta> আচ্ছা
[541.515]
<no-speech>
[542.835]
আচ্ছা হ্যাঁ হ্যাঁ ঠিক আছে
[545.805]
<no-speech>
[548.555]
<no-speech>
[548.905]
<no-speech>
[550.345]
আচ্ছা
[551.065]
<no-speech>
[552.895]
<no-speech>
[553.265]
<no-speech>
[555.705]
<sta> এই একদম ফালতু লোক আছে হুম যে দিনের পর দিন হুম যে কবে লাগাবো কি করবে কোনো ঠিক ঠিকানাই নেই
[565.885]
<no-speech>
[571.735]
<sta> (())
[574.405]
<no-speech>
[575.855]
হ্যাঁ
[576.405]
<no-speech>
[577.285]
<no-speech>
[577.705]
<no-speech>
[578.875]
<no-speech>
[579.305]
<no-speech>
[581.415]
<sta> হ্যালো ভোজ ট্রাভেল (())
[585.415]
<no-speech>
[594.405]
হ্যাঁ বাজে কথা হচ্ছে <sta> (()) হুম
[599.725]
<no-speech>
[600.02]
