[0.0]
<no-speech>
[1.375]
(())
[2.525]
<no-speech>
[3.795]
<sta> হ্যাঁ বল হ্যাঁ হ্যালো বল
[7.105]
<no-speech>
[8.685]
<sta> হ্যালো হ্যাঁ
[10.295]
<no-speech>
[11.405]
<sta> (()) হ্যালো বল
[13.925]
আমার
[14.745]
<no-speech>
[15.135]
<no-speech>
[17.455]
হ্যাঁ আমি বাড়িতে গিতালদার বাড়িতে বল
[19.635]
<no-speech>
[27.425]
<sta> (()) হ্যাঁ হ্যাঁ
[29.225]
<no-speech>
[30.065]
হ্যাঁ হ্যাঁ বল <int> আমি বলতেছি বল
[31.885]
<no-speech>
[34.615]
<sta> বাড়িতে <hes> বাড়িতে তো তোমার পৌষমাসের দিকে গেছিলাম তারপরে আর যাই নাই মনে কর
[39.915]
<no-speech>
[44.265]
না তারপরে আর যাইনি পৌষমাসেই গেছিলাম
[46.585]
<no-speech>
[49.865]
হ্যাঁ হ্যাঁ হ্যাঁ
[50.985]
<no-speech>
[54.365]
হ্যাঁ বাড়িতে সবাই ভাল আছে
[55.835]
<no-speech>
[59.035]
<int> এ্যা
[59.635]
<no-speech>
[61.875]
<int> ওই যে আমাদের বাড়ীর থেকে
[63.305]
<no-speech>
[65.015]
আমদের বাড়ীর থেকে এইখানে আস নাকি সেইটা জিজ্ঞাসা হচ্ছে তো
[67.865]
<no-speech>
[70.705]
যা <hes> শান্তুতো শান্তু আগে আসতো মনে করো এখন তো পড়ায় এর জন্য ও আসতে পারে না তা দিদি কিছুদিন আগে আসছিলো এসে চলে গেছে
[79.315]
<no-speech>
[82.735]
শান্তু এখন পড়ে প্রাইভেট পড়েনা তা শনি রোববার করে তো আসতে হয় শনি রোববারে মনে কর হচ্ছে ওর এখন কিনা পড়া আছে তাইজন্য ও আসেনা বুঝছো আর ওর (()) হ্যাঁ <sta>
[93.655]
<no-speech>
[94.765]
না ওকে প্রাইভেট মাস্টার দিছে তো ওই প্রাইভেট মাস্টারের কাছে পড়ে চারদিন এরজন্য ও এখন আসেনা এ্যা কুচবিহারেই পড়ে (()) এ্যা <sta>
[106.525]
<sta> হ্যাঁ চাকরীর জন্য পড়াশুনা করতাছে যে ওই যে শ্বশুরবাড়ি থেকে ভর্তি করে দিয়াছে ওই জায়গাটায়
[112.905]
<no-speech>
[116.825]
হ্যাঁ আমিতো অতো বলতে পারবো না ওকে সুমন্ত ভর্তি করায়ে দিছে এখন ওখানটায় এখন সপ্তাহে চারদিন পড়েতো তার জন্য ও এখন আসতে পারে না নাহলে আগে মনে হয় আসতো তা দিদি কিছুদিন আগে এসে ঘুরে গেছে
[127.845]
<no-speech>
[130.764875]
সুমন তো বিয়াইয়ের অফিসে চাকরী করে না <sta> বিয়ের দিনে তো চাকরী হইছে ওর
[134.525]
<no-speech>
[138.315]
এ্যা
[138.885]
<no-speech>
[141.195]
<sta> না না বন্ধ ওইটা যে চালাতো বাইরে গেছিল তো তাই বন্ধ হ্যাঁ হ্যালো বল
[146.695]
<no-speech>
[149.685]
না না আমার বরতো আছে মানে যে মানে ছোটজন করতো তো ছোটজন বাইরে গেছে তাইজন্য বন্ধ
[155.125]
<no-speech>
[160.655]
হ্যাঁ হ্যাঁ
[162.035]
<no-speech>
[163.455]
<no-speech>
[164.855]
<no-speech>
[169.275]
<no-speech>
[169.915]
<no-speech>
[170.925]
<sta> এ্যা
[173.655]
<no-speech>
[175.475]
<sta> না না কিছু দেখাশোনা না ওইটাতো ওরা করে এখন ওইটা কিছু মানে কোন কিছু করেনা (()) ওর ভাই যে ভাই বিয়ে করল (()) সেই ভাই চার নাম্বার ভাই
[187.005]
<no-speech>
[190.925]
<sta> হ্যাঁ
[191.635]
<no-speech>
[193.545]
<sta> ওহ এ্যা কিন্তু আগে তাও অনেকদিন আগে যে দেখে দেখে আসছিলাম সেটা তুমি যান না গাড়ি নিয়ে গেছিলাম যে আমরা সবাই মিলে সেটাতো হলোনা (()) দেখাশুনা হচ্ছে নাকি
[203.825]
<no-speech> (()) হ্যাঁ
[206.715]
<no-speech>
[208.595]
<sta> ওই যে ইসে মাথাভাঙ্গার ওইদিকটায় মাথাভাঙ্গার (()) গেছিলাম সবাই মিলে তা ওখানটায় মনে কর <hes> পছন্দ হয়ে গেছিল অনেক দাবি টাবী মনে কর চেয়েছিলো তার পরে ইসে তোমার ওই যে ইসে ছেলে আবার
[220.525]
(()) একটু ট্যারা টাইপের দেখে বুঝছো এরজন্য ওখানটায় আর হলোনা বিয়েটা (()) না
[225.375]
<no-speech>
[226.515]
হ্যাঁ
[227.225]
<no-speech>
[229.615]
চোখ ট্যারা নাক ট্যারা ট্যারা ছেলেটা ভালোনা
[233.025]
<no-speech>
[236.115]
<sta> <laugh> হ্যাঁ
[237.325]
<no-speech>
[239.555]
এ্যা
[240.125]
<no-speech>
[242.115]
হ্যাঁ বাড়ী ঘড়টা ভাল ছিল হ্যাঁ
[243.865]
<no-speech>
[249.405]
হ্যাঁ বয়স টয়েস ঠিকই ছিল বয়স টয়েস ঠিকই ছিল দেখতেও সুন্দর ছিল ভালই ছিল সবদিক দিয়েই পছন্দ বুঝছো কিন্তু ওইযে ছেলেটা একটু মানে ইয়ে টাও ছিল মনে হয় ভালোনা একটু
[261.375]
খালি মানে ই টাইপের ছিল এরজন্য নিলনা
[263.735]
<no-speech>
[264.715]
বুঝছো
[265.435]
<no-speech>
[266.425]
এ্যা
[267.005]
<no-speech>
[271.645]
ও দূর আমি তোমার কথা বুঝতেই পারছিনা তা আমি তো সাউন্ড বাড়িয়ে দিয়েছি তাও তো বুঝতে পারছি না বল
[277.105]
<no-speech>
[280.525]
সাউন্ডটা কি করব
[281.525]
<no-speech>
[288.935]
কি হল
[289.665]
<no-speech>
[294.045]
না না না এদিকটায় নেইগো আর এদিকটায় থাকলেও মানে হবেনা বুঝছো এদিকটা এক নাম্বার নেই আর এদিকটায় থাকলেও হবেনা এদিকটার পরিবেশ ভালোনা
[303.255]
<no-speech>
[305.065]
হ্যাঁ ও (()) হবে না
[306.565]
<no-speech>
[309.165]
হ্যাঁ স্কুলে দিছিতো মেয়েকে <int> স্কুলে দিছিতো স্কুলে যায় তো
[313.565]
<no-speech>
[314.825]
স্কুলে যায় পড়াশুনাও শিখছে লেখা টেখা সব শিখে গেছে তা তুমি কবে আসবে তাই বল আগে আসবা না
[319.405]
<no-speech>
[320.635]
(())
[321.905]
<no-speech>
[323.435]
হ্যাঁ
[324.095]
<no-speech>
[327.265]
হ্যাঁ
[327.875]
<no-speech> (()) সেই ভাল কবে আসবা
[332.175]
<no-speech>
[336.715]
হুম হুম
[338.255]
<no-speech>
[340.815]
হ্যাঁ ওইযে আমাদের এদিকে না তোমার ওইযে বামনহাটার দিকে হয় আমিও কোনদিন যাইনি কিন্তু যাওয়ার ইচ্ছা খুব হ্যাঁ যদি যাও তবে ইসে করবা তাইলে আমিও যাব
[348.035]
<no-speech>
[348.975]
জানি ওইপার থেকে মা রা সবাই গেল গাড়ি রিজার্ভ করছিল না গাড়ি রিজার্ভ করে সবাই গেল আমার জন্য গাড়ি রিজার্ভ করল শান্তু সুমন্ত তবে আমার আবার যাওয়া হইলোনা বুঝছো আমাকে দিনহাঁটায় ওইখানটায় বলছিল যে ওইখানটায় থাকতে তা আমি যাইও নাই
[360.715]
আর যাওয়া হয়নি ওরা গাড়ি রিজার্ভ করে (()) করে সবাই মিলে গেছিলতো ওই জায়গাটায়
[365.485]
<no-speech>
[367.835]
ওই যে তোমার ওই যে আজকে (()) যে বিষ তারিখের দিকে মনে হয় হবে ওইটা বারনির পরে মনে হয় (()) এই চৈত্রমাসের দিকে হয়তো ওই মেলাটা
[378.645]
<no-speech>
[379.835]
এ্যা
[380.395]
<no-speech>
[383.155]
হ্যাঁ হ্যাঁ হ্যাঁ (()) জানা বলি যখন শুরু হবে বুঝছো যখন জানা যায় যখন মেলাটা শুরু হবে তখন আমি তোমাকে জানাবো তালে যদি কিনা আস তারপরে একসাথে তালে যাওয়া যাবে মনে কর বাড়ীর
[394.605]
তো আমি যাব তো বাড়িতে এর মধ্যে আমার যাওয়ার কথা এখন কবে বা যাই জানিনা বাড়িতে ওইযে মা খালি ফোন করে <sta> বাড়িতে যাওয়ার জন্য তা এখনো তো আমি যাই নাই না যাব আমি বাড়িতে এর মধ্যেই যাব বুঝছো
[404.325]
<no-speech>
[407.105]
(()) হ্যাঁ
[409.215]
<no-speech>
[412.575]
পড়াশুনা (()) হ্যাঁ পড়াশুনাও করতে পরে লিখতেও পারে সব কিছু
[417.125]
<no-speech>
[417.965]
ওর নাম টাম তুমি বলবা ও হ্যাঁ আমার নাম বলবা ওর বাবার নাম বলবা সবার নাম বলবা ও লেখাও শিখছে বুঝছো আর পড়াশোনাও মনে কর যে মানে পারে এখন স্কুলে তো ওয়ার্ড লিখতে দিচ্ছে স্কুলে আগে এ বী সী ডী ওয়ান
[429.415]
এক দুই দু একবার লেখাইলো ক অক্ষর সরিয়ে সরিয়ে তবে এখন তোমার হচ্ছে এই যে ওয়ার্ডগুলো লিখতে দিচ্ছে ব্যাগট্যাকএই যে সব মানে চিন্তা কর শব্দ যেগুলো মনে কর বই টই এই সব লেখালেখি করে এখন এ্যা
[439.345]
<no-speech>
[441.965]
ওই যে ইংলিশ মিডিয়াম
[443.155]
<no-speech>
[445.595]
হ্যাঁ এদিককার (()) ইংলিশ মিডিয়াম কই ওটা বাচ্চাদের স্কুল (()) পয়সা লাগেনা এইজন্য হরিরহাটের দিকে দিছি আমাদের এইখানে গিতালদাতে ভর্তি করাইছি ওকে
[456.615]
<no-speech>
[459.375]
মাসে তোমার একশো টাকা করে নেয় আর বই দিছে আর তোমার ওই ভর্তি হইতে একশো টাকা নিছে বই আর হচ্ছে তোমার ব্যাগ দিছে ওগুলোতে তোমার সাড়ে তিনশো টাকা নিছে আর মাসে মাসে একশো টাকা আর ভ্যান ভাড়া একশো টাকা
[470.255]
সে ভ্যান ভ্যানে দিইনি আমরা হচ্ছে নিয়ে যাই ভ্যানে দিইনি ওকে মাসে মাসে তোমার একশো টাকা দিতে হয়
[475.585]
<no-speech>
[481.485]
ও (())
[482.385]
<no-speech>
[488.615]
না না আমরা তো দিনহাটায় দেবার কথা ছিল দিনহাটায় দিলে যে অনেক পয়সা লাগে না দিনহাটায় তোমার যাইতেই হাজার টাকা গাড়ি ভাড়া তোমার হাজার টাকা লাগবে তা পরেতো পয়সা আছে অরবিন্দ স্কুল দিনহাটায় ওখানটায় এই যে দিতে পারলাম না পারবোনা বলে ওখানে দিলাম না তাই
[500.335]
স্কুলে ভর্তি করাইতে এখানে পয়সা কমই আছে মাসেমাসে একশো টাকা করে লাগে বুঝছো মাসে পাঁচশো টাকা লাগে আর তোমার হ্যাঁ (())
[509.255]
<no-speech>
[511.475]
এ্যা
[511.945]
<no-speech> (()) না না প্রাইমারী স্কুলে ভর্তি করাইলে পাঁচ বছর ছয় বছর হইলে তারপরে ভর্তি করাইতে লাগবে তাছাড়া হবেনা এখন মনে কর পাঁচ ছয় বৎসর না হইলে তো ভর্তি করান যাবেনা ওর তো ওই যে জ্যৈষ্ঠ মাসে চার বছর
[526.885]
ছেলে করবে বুঝছো
[528.125]
<no-speech>
[531.865]
ওর তো এখন তো ওর (()) জৈষ্ঠমাস আসলে চার বছরে পরবে তারপরে তোমার মানে পাঁচে পরলে নাকি আমাদের বাড়ীর সামনে প্রাইমারী স্কুল আছে এখানে ভর্তি করায়ে দেব নইলে অতো দূরে নিয়া যাতায়াত করা মানে তো অসুবিধা হয় নইলে তো অতো দূরে নিয়া যাতায়াত করতে ছিঃ হরিহাট (()) হরিহাট <int>
[547.205]
<no-speech>
[550.835]
হ্যাঁ
[551.305]
<no-speech>
[552.175]
না বল <int> আর বাড়িতে তো পড়াশুনা করেনা না আর জানোই তো টাউন আর গ্রামের পরিবেশটা একদম আলাদা এইজন্য স্কুলে দিছি না হইলে স্কুলে না দিলে তো এইখানে এমনিতে যা চঞ্চল হইছে না সেই চঞ্চল বুঝছো চঞ্চল এখন মানে সেই চঞ্চল স্কুলে ভর্তি করাইছি মনে কর এখন তাও (()) আছে লেখা পড়া গেল
[569.565]
<no-speech>
[574.115]
<int> আর বউদি কেমন আছে বউদি কেমন আছে
[576.305]
<no-speech>
[577.105]
<sta> এ্যা
[577.655]
<no-speech>
[579.385]
বউদি কেমন আছে
[580.805]
<no-speech>
[585.235]
তাই
[585.875]
<no-speech>
[589.625]
(()) সবাই ভাল আছে বাবা ভাল আছে
[592.915]
<no-speech>
[599.6]
