[0.0]
<no-speech>
[5.765]
হ্যালো
[6.335]
<no-speech>
[8.795]
(())
[9.675]
<no-speech>
[11.555]
<sta> আর কি রকম আছো
[12.665]
<no-speech>
[16.505]
<sta> আছি আমিও মোটামুটি আছি বেশী একটা ভাল না
[18.965]
<no-speech>
[20.945]
<sta> হ্যাঁ বলো
[21.685]
<no-speech>
[26.105]
স্বস্বতিতা পূজা মোটামুটি ভালই করলাম
[28.495]
<no-speech>
[31.015]
হ্যাঁ আমি নিজে গেছিলাম তো কোথায়
[33.315]
<no-speech>
[35.745]
হ্যালো
[36.545]
<no-speech>
[37.885]
<no-speech>
[38.455]
<no-speech>
[41.725]
স্বস্বতি পূজা এ ইসে গেছিলাম আমরা কুচবিহারে গেছিলাম বই দেখতে <sta> খোকাবাবু
[46.425]
<no-speech>
[48.975]
এই যে ইসে তোমার হচ্ছে <no-speech> <sta> ইয়ে <hes> কিযে নামটা ভবানী ভবানী
[56.385]
<no-speech>
[57.955]
<sta> হ্যাঁ হ্যাঁ
[58.995]
<no-speech>
[61.985]
কাজ
[62.565]
<no-speech>
[63.735]
তাই <sta>
[64.365]
<no-speech>
[65.205]
আচ্ছা <int>
[66.095]
<no-speech>
[69.535]
<sta> হ্যাঁ
[70.205]
<no-speech>
[74.345]
<no-speech>
[74.835]
<no-speech>
[76.275]
<no-speech>
[76.845]
<no-speech>
[77.735]
<no-speech>
[78.275]
<no-speech>
[79.475]
আচ্ছা <sta>
[81.605]
<no-speech>
[83.425]
<sta> হ্যাঁ
[85.745]
<no-speech>
[89.305]
টেকুর স্কুল এখন বন্ধ বন্ধ এখন বন্ধ আছে
[92.685]
<no-speech>
[95.905]
<sta> পরীক্ষা চব্বিশ তারিখে
[97.545]
<no-speech>
[100.025]
<sta> হ্যাঁ
[100.675]
<no-speech>
[101.875]
হ্যাঁ
[102.605]
<no-speech>
[107.245]
<sta> হ্যাঁ পড়াশুনা করতেছি তো ভাল
[109.115]
<no-speech>
[111.105]
হলে <sta> কেউ খাওয়াদাওয়া হইছে
[112.535]
<no-speech>
[116.535]
আঃ <sta>
[117.955]
<no-speech>
[122.355]
<no-speech>
[123.085]
<no-speech>
[124.085]
<no-speech>
[124.435]
<no-speech>
[126.755]
<no-speech>
[127.555]
<no-speech>
[129.385]
<no-speech>
[129.814875]
<no-speech>
[131.105]
<sta> হ্যালো
[132.065]
<no-speech>
[133.145]
(())
[134.105]
<no-speech>
[137.415]
<sta> আচ্ছা <laugh> আচ্ছা তালে দিতে আসবে এখন নাকি
[140.545]
<no-speech>
[146.345]
<no-speech>
[147.025]
<no-speech>
[148.765]
(()) একটা মোবাইল কিনে দাও তালে যোগাযোগ করা ভাল হবে
[152.195]
<no-speech>
[154.675]
হ্যালো দিদাকে একটা <int> মোবাইল কিনে দাও হ্যাঁ
[158.775]
<no-speech>
[161.205]
<sta> আমি এখন এই যে এখন খেলাধূলা করতেছি
[164.305]
<no-speech>
[168.595]
হ্যাঁ ক্রিকেট খেলছি
[170.005]
<no-speech>
[175.325]
<sta> সাইন্স টপ ক্লাশ আছে
[176.785]
<no-speech>
[180.275]
<sta> ইনস্যুর তো তুই কৃষ্ণ মাস্টার
[181.885]
<no-speech>
[186.205]
<sta> হ্যাঁ হ্যাঁ বিজ্ঞান পড়ানা মারাত্মক পড়ায়
[188.965]
<no-speech>
[192.975]
আঃ <sta>
[193.515]
<no-speech>
[195.165]
<sta> হ্যাঁ
[195.905]
<no-speech>
[199.845]
হ্যাঁ <sta>
[200.415]
<no-speech>
[202.125]
(()) একটা
[203.435]
<no-speech>
[206.535]
(())
[207.585]
<no-speech>
[210.385]
<sta> হ্যাঁ
[211.065]
<no-speech>
[213.465]
হ্যাঁ <sta>
[213.975]
<no-speech>
[215.785]
<sta> হ্যাঁ
[216.505]
<no-speech>
[217.585]
হ্যালো <int>
[218.225]
<no-speech>
[221.285]
বিপু যে কই গেছে বাড়িতে গেছে মনে হয়
[223.825]
<no-speech>
[228.815]
হ্যাঁ <no-speech> <sta> ঠিক আছে
[230.665]
<no-speech>
[235.095]
(()) ওই যে আমাকে যেতে বলে আমিতো যাই যাই না ইচ্ছা করে না ওই জায়গায় যাত- <no-speech>
[242.945]
<sta> যাব আর কি (())
[245.165]
<no-speech>
[246.145]
<sta> হ্যাঁ
[246.825]
<no-speech>
[250.455]
<sta> সমস্যাটা
[251.255]
<no-speech>
[253.335]
<sta> প্রথম দিন হবে বাংলা
[254.935]
<no-speech>
[257.975]
হ্যাঁ
[258.655]
<no-speech>
[261.254875]
হ্যাঁ <sta> দুইটাই
[263.045]
<no-speech>
[265.745]
<sta> হ্যাঁ
[266.455]
<no-speech>
[272.105]
<sta> হ্যাঁ কাছে এসে গেলো তোরে আর দেরি নাই টাইম নাই আর
[274.955]
<no-speech>
[279.925]
<no-speech>
[281.685]
<no-speech>
[283.415]
<no-speech>
[283.895]
<no-speech>
[285.375]
<sta> হ্যাঁ
[286.055]
<no-speech>
[290.655]
<sta> হ্যাঁ
[291.525]
<no-speech>
[296.075]
<sta> এখন খেলাধূলা বাদ দিতে হবে
[297.945]
<no-speech>
[299.175]
<no-speech>
[300.145]
<no-speech>
[305.865]
হ্যাঁ
[306.545]
<no-speech>
[311.535]
আলুর অবস্থা খুব খারাপ ধসা ধরে গেছে
[314.885]
<no-speech>
[317.355]
ইফতারি করতে
[318.325]
<no-speech>
[327.685]
(()) <int>
[328.235]
<no-speech>
[329.515]
আচ্ছা
[330.305]
<no-speech>
[331.335]
হ্যাঁ <int> (())
[332.105]
<no-speech>
[334.575]
<sta> হ্যালো কথা সোনা যাচ্ছে না কেন
[336.775]
<no-speech>
[338.855]
<no-speech>
[339.205]
<no-speech>
[340.115]
হ্যাঁ ঔষুধটা ইনডোফিল <sta> দিচ্ছি
[342.015]
<no-speech>
[344.975]
হ্যাঁ কোনো ঔষুধ লাগাই নাই শুধু ইনডোফিল দিয়া ইয়ে কে চলছে আর কি এসে পরে করা
[349.325]
<no-speech>
[351.265]
<no-speech>
[351.615]
<no-speech>
[352.845]
<sta> হ্যাঁ
[353.485]
<no-speech>
[357.265]
<sta> এর অন্য ঔষুধ অন্য ঔষুধ দেইনি আর কি
[360.205]
<no-speech>
[361.005]
<sta> অন্য ঔষুধ দেই নাই
[362.395]
<no-speech>
[366.745]
<no-speech>
[367.215]
<no-speech>
[368.235]
হ্যাঁ <sta>
[368.925]
<no-speech>
[371.585]
হ্যালো দাদু
[372.525]
<no-speech>
[374.915]
আরে এখন কই আছো <sta>
[376.585]
<no-speech>
[380.795]
ও <sta> নদী পাড়ে
[381.685]
<no-speech>
[384.455]
<sta> ও আচ্ছা আচ্ছা মিষ্টি কুমড়া ধরে নাই
[386.445]
<no-speech>
[391.815]
<laugh> (()) করতেছে
[393.755]
<no-speech>
[396.595]
(())
[397.425]
<no-speech>
[399.745]
হ্যাঁ <sta>
[400.435]
<no-speech>
[404.645]
আচ্ছা <sta> আচ্ছা
[406.165]
<no-speech>
[409.105]
<no-speech>
[409.495]
<no-speech>
[412.995]
হ্যাঁ বলো <sta>
[413.965]
<no-speech>
[420.685]
আসবে আসবে অতো তাল করেন কে আমি না আছি চিন্তা (())
[424.415]
<no-speech>
[433.465]
<sta> তোমরা তো আছো নদীর পাড় আমিতো এখন তোমাদের বাড়িতে আছি
[436.845]
<no-speech>
[438.705]
যদি দিদাদি এদিকে আসে <sta> তোমার সাথে দেখা না করে তোমার সঙ্গে যদি দেখা না করে দিদা
[444.275]
<no-speech>
[447.205]
<laugh> করবে না আচ্ছা
[450.075]
<no-speech>
[453.135]
<sta> আচ্ছা
[453.865]
<no-speech>
[454.805]
হ্যাঁ বলো <sta>
[455.505]
<no-speech>
[459.245]
<sta> হ্যাঁ হ্যাঁ
[460.415]
<no-speech>
[463.745]
সকালে হ্যাঁ (())
[465.425]
<no-speech>
[468.425]
হ্যাঁ
[468.995]
<no-speech>
[470.355]
<sta> হ্যাঁ আমার এদিকে অনেক রজন আছে দুই তিন পাঁচ <no-speech> সাত আট জন আছে এদিকে
[476.205]
<no-speech>
[478.315]
সাত আট জন আছি আমরা
[479.705]
<no-speech>
[483.795]
হ্যাঁ হ্যাঁ ওই (()) অস্ট্রেলিয়াতে হচ্ছে
[485.955]
<no-speech>
[491.745]
<sta> হ্যাঁ
[492.415]
<no-speech>
[494.785]
<sta> হ্যাঁ
[495.425]
<no-speech>
[497.095]
<sta> হ্যাঁ
[497.655]
<no-speech>
[498.815]
<sta> হ্যাঁ (()) হ্যাঁ
[500.215]
<no-speech>
[504.505]
<sta> আঃ
[505.205]
<no-speech>
[509.025]
হ্যাঁ আচ্ছা আচ্ছা
[510.475]
<no-speech>
[515.195]
<sta> আচ্ছা
[516.574875]
<no-speech>
[521.154875]
হ্যাঁ
[521.745]
<no-speech>
[524.685]
<sta> রোববার কয়টার দিকে
[525.855]
<no-speech>
[529.485]
(())
[530.345]
<no-speech>
[532.005]
<no-speech>
[532.805]
<no-speech>
[534.785]
<no-speech>
[535.245]
<no-speech>
[536.365]
<sta> হ্যাঁ হ্যাঁ
[537.135]
<no-speech>
[538.495]
ওহ <int>
[539.105]
<no-speech>
[540.675]
<sta> হ্যাঁ
[541.295]
<no-speech>
[545.925]
(()) <int> হ্যাঁ
[546.945]
<no-speech>
[550.205]
<sta> হ্যাঁ হ্যাঁ
[550.995]
<no-speech>
[554.305]
<sta> হ্যাঁ
[554.945]
<no-speech>
[557.305]
হ্যাঁ পাও নাই তাকে
[558.705]
<no-speech>
[560.475]
<sta> হ্যাঁ
[561.045]
<no-speech>
[564.505]
আচ্ছা আচ্ছা <no-speech> <sta> হ্যাঁ
[567.155]
<no-speech>
[569.885]
আমাদের <no-speech>
[573.495]
হ্যাঁ পেয়েছি তো ওইটা
[574.575]
<no-speech>
[578.355]
হ্যাঁ <sta>
[578.995]
<no-speech>
[582.365]
হ্যাঁ
[583.005]
<no-speech>
[586.535]
আচ্ছা ঠিক আছে ঠিক আছে তালে বলবো হ্যাঁ <no-speech>
[591.775]
<sta> আচ্ছা
[592.565]
<no-speech>
[597.095]
<sta> <laugh> ওই আর কি
[599.015]
<no-speech>
[599.34]
