[0.0]
<no-speech> 
[4.725]
a ɫ o 
[5.415]
<no-speech> 
[9.875]
n e j a p ɯ j o n 
[10.905]
<no-speech> 
[13.185]
n e j a p ɯ j o n 
[14.475]
<no-speech> 
[16.885]
j a ʃ e j b e n i m 
[18.105]
<no-speech> 
[19.345]
ʤ a n ɯ m s ɯ k ɯ ɫ ɯ j o ɾ d a b i a ɾ a j a j ɯ m d e d i m 
[21.505]
<no-speech> 
[22.665]
<no-speech> 
[24.375]
<no-speech> 
[26.215]
ɯ m h ɯ m n a s ɯ ɫ ɟ i d i j o ɾ e ɾ d i n ʧ n e j a p ɯ j o ɾ i ʃ j e ɾ i n d e n a ɾ ɯ j o m 
[31.325]
<no-speech> 
[33.895]
<int> o n d a c i c a m o ɫ a j a ʧ ɯ k t ɯ m d e d i m o n d a c i k a m ɯ i b ɾ aː i m l e d o ɫ d u ɾ a j ɯ m 
[38.055]
<no-speech> 
[39.345]
<no-speech> 
[39.805]
<no-speech> 
[42.305]
<no-speech> 
[46.485]
<no-speech> 
[48.535]
b a ʃ ɫ ɯ j o ɾ m u s u n u z 
[49.715]
<no-speech> 
[51.975]
j e n i t a ɾ z ɯ n ɯ ʧ o k b e j e n d i m j a ɫ n ɯ z h a 
[54.535]
<no-speech> 
[57.135]
i l k d e f aː b i ʃ e j t u t t u ɾ m u ʃ s u n 
[59.195]
<no-speech> 
[64.354875]
n e 
[65.044875]
<no-speech> 
[67.555]
a n ɫ a m ɯ j o m 
[68.645]
<no-speech> 
[74.195]
j o k b e i j i o ɫ m u ʃ s a ʧ ɯ n ɯ c e s t i ɾ m e b i d a a ø j l e u z u n c a ɫ s ɯ n o ɾ ʧ u n a b e n z e m i ʃ s i n i z l i j o ɾ m u s u n s e n j a ɫ a n d y n j aː j ɯ 
[83.155]
<no-speech> 
[92.265]
<breath> m u t ɫ a c a i z l e t a m a m m ɯ a j n ɯ o n a b e n z e m i ʃ s i n b i d e a ɯ z j a p ɯ n f a ɫ a n d a b e n z i j o ɾ m u ʃ b e n f a ɾ k e t m e d i m 
[98.565]
<no-speech> 
[104.135]
<no-speech> 
[104.855]
<no-speech> 
[109.105]
n e <breath> a n ɫ a m a d ɯ m 
[111.555]
<no-speech> 
[120.815]
e j aː n i z a t e n ø z e l o ɫ a ɾ a k j a p ɯ ɫ ʤ a k b i ʃ e j j o k 
[123.805]
<no-speech> 
[131.085]
<breath> <laugh> e w e t <cough> h a s t a ɫ ɯ k t a n ø l y ʤ eː m j a b i i j i l e ʃ e m e d i m 
[138.285]
<no-speech> 
[144.805]
s e n c a ʧ a j d ɯ ɾ e w d e j a t ɯ j o n 
[146.755]
<no-speech> 
[152.385]
n e c a d a ɾ d ɯ ɾ b i a j i c i a j o ɫ d u m u 
[154.585]
<no-speech> 
[162.555]
b i a j i c i a j o ɫ d u m u d i j o m 
[164.455]
<no-speech> 
[165.815]
n e c a d a ɾ d ɯ ɾ e w d e j a t ɯ j o n b i a j i c i a j o ɫ d u m u 
[170.135]
<no-speech> 
[172.135]
i j i oː k a d a ɾ j a t ɯ j o n j a t ɯ j o n c i ɫ o d a a ɫ m ɯ j o n 
[175.195]
<no-speech> 
[178.715]
a ɫ o 
[179.485]
<no-speech> 
[180.635]
a j n e n a j n e n 
[181.695]
<no-speech> 
[184.275]
<no-speech> 
[184.795]
<no-speech> 
[187.425]
h a 
[188.205]
<no-speech> 
[189.625]
ɯ m h ɯ m 
[190.365]
<no-speech> 
[196.565]
ɯ m h ɯ m 
[197.395]
<no-speech> 
[199.465]
<no-speech> 
[200.145]
<no-speech> 
[203.615]
<no-speech> 
[204.445]
<no-speech> 
[206.825]
<no-speech> 
[207.595]
<no-speech> 
[209.555]
n e <int> 
[211.305]
<no-speech> 
[216.895]
<no-speech> 
[217.675]
<no-speech> 
[219.905]
j e t m i ʃ b i 
[221.025]
<no-speech> 
[225.205]
p e c i c a n w e ɾ d i c t e n s o n ɾ a n e k a d a ɾ ʧ ɯ k t ɯ 
[227.895]
<no-speech> 
[235.245]
h a d i j aː n i z a j ɯ f ɫ a d ɯ n m i a n ɫ a d ɯ ɫ a ɾ 
[238.365]
<no-speech> 
[240.955]
a n ɫ a m a d ɯ m ʃ i m d i b e n s e n z a j ɯ f o ɫ d uː n i ʧ i n s e n d e n c a n m ɯ a ɫ m a d ɯ ɫ a ɾ 
[245.225]
<no-speech> 
[250.555]
p i l a t i n m i t a k t ɯ ɾ d ɯ n 
[252.055]
<no-speech> 
[254.405]
n e d e n 
[255.165]
<no-speech> 
[257.515]
n e d e n <no-speech> 
[260.754875]
p iː ɾ s i n g 
[262.054875]
<no-speech> 
[263.755]
a n ɫ a d ɯ m t a m a m <no-speech> p iː ɾ s i n g t a k t ɯ ɾ d ɯ n a ɫ t ɯ a j ø n ʤ e k a ʃ ɯ n a 
[267.785]
<no-speech> 
[268.805]
oː j y z d e n c a n w e ɾ e m e d i n 
[270.585]
<no-speech> 
[276.075]
<cough> n e k a d a ɾ s a ʧ m a 
[278.685]
<no-speech> 
[285.72]
<no-speech> 
[292.755]
<no-speech> 
[293.245]
<no-speech> 
[295.825]
j aː n i w a ɾ j a t e b ɾ i c e d e ɾ i m k ɯ ɾ k j ɯ ɫ ɯ n b i ɟ i ɾ ʤ e c t i n o n u d a j a p a m a d ɯ n 
[300.645]
<no-speech> 
[301.665]
<no-speech> 
[302.045]
<no-speech> 
[305.745]
s e n d e n c a j n a k ɫ a n a n b i ʃ e j j a s e n ɟ e l m i ʃ s i n j i ɾ m i i c i j a ʃ ɯ n a j i ɾ m i y ʧ j a ʃ ɯ n a b u j a ʃ t a n s o n ɾ a p i e ɾ ʤ i n ɟ i n e j a p ɯ ʤ a k s ɯ n h a n i ʧ o ʤ u k d iː l s i n b i ʃ e j d iː l s i n 
[314.415]
<no-speech> 
[323.095]
b e n b e c l i j o m a ɾ t ɯ k b ø j l e t a k ɯ m e l b i s e f a ɫ a n ɟ i j i n m e n i b e c l i j o m s e n ɟ i d i j o n p iː ɾ s i n g t a k t ɯ ɾ ɯ j o n 
[328.345]
<no-speech> 
[331.255]
<int> b e n b e c l i j o m b ø j l e a ɾ t ɯ k b y j y t a k ɯ m e l b i s e f a ɫ a n ɟ i j s e n ɟ i d i j o n p iː ɾ s i n g t a k t ɯ ɾ ɯ j o n 
[337.475]
<no-speech> 
[344.235]
ɟ e ɾ e c j o k j aː n i 
[345.575]
<no-speech> 
[351.215]
j aː n i ʃ e j 
[353.145]
<no-speech> 
[354.575]
ɟ e ɾ ʧ i s e n f i l m i z l e m e j i s e w m i j o ɾ d u n d iː l m i f i l m t a w s i j e e d ʤ e c t i m d e s a n a b i t a n e 
[358.975]
<no-speech> 
[363.745]
s e n f i l m i z l e m e j i s e w m i j o ɾ d u n 
[365.835]
<no-speech> 
[366.885]
f i l m t a w s i j e e d ʤ e c t i m d e s a n a b i t a n e ɟ e ʧ e n b i t a n e f i l m i z l e d i m ʧ o k ɟ y z e l d i 
[371.195]
<no-speech> 
[372.425]
b u ʤ u m a ɾ t e s i n e j a p ɯ j o n 
[374.225]
<no-speech> 
[376.045]
b u ʤ u m a ɾ t e s i n e j a p ɯ j o n 
[378.115]
<no-speech> 
[379.605]
f i l m i n a d ɯ m ɯ d e d e m i n i n s a n ɫ a ɾ ɯ 
[381.835]
<no-speech> 
[383.635]
ʧ aː n ɯ ɾ m a k 
[384.785]
<no-speech> 
[386.975]
d e d e m i n i n s a n ɫ a ɾ ɯ ʧ aː n ɯ ɾ m a k 
[390.065]
<no-speech> 
[396.135]
j a b e n d e s e w m i j o ɾ d u m d a h o ʃ u m a ɟ i t t i b ø j l e t u a f b i f i l m ɟ y l e ʤ e k m i s i n aː ɫ ɯ ʤ a k m ɯ s ɯ n b i l e m i j o n a m a ɟ y z e l b i f i l m j aː n i 
[405.025]
<no-speech> 
[407.685]
i b ɾ aː i m 
[409.195]
<no-speech> 
[411.975]
b u ʤ u m a ɾ t e s i n e j a p ɯ j o n 
[413.745]
<no-speech> 
[419.835]
ɟ e ʧ ʤ e c m i s i n t a k s i m e f a ɫ a n 
[421.865]
<no-speech> 
[424.315]
<no-speech> 
[424.985]
<no-speech> 
[428.055]
aː b u b u ʤ u m a ɾ t e s i ɟ e ʧ e ɾ s e n b a n a h a b e ɾ w e ɾ t a m a m <lipsmack> b e n ʃ e j a ɫ ɯ ʃ w e ɾ i ʃ j a p m a j a ɟ i d ʤ eː z t a k s i m d e 
[434.855]
<no-speech> 
[436.275]
ɟ ø ɾ y ʃ y ɾ y z 
[437.255]
<no-speech> 
[439.485]
h a j d a ɾ a ɟ i d e ɾ i z <laugh> 
[441.135]
<no-speech> 
[442.035]
<no-speech> 
[442.385]
<no-speech> 
[447.455]
ɟ e ʧ e n b e n i m a ɾ k a d a ʃ ɫ a ɾ o ɾ a j a ɟ i t t i d oː m ɟ y n y m k u t ɫ a j a ʤ a k ɫ a ɾ d ɯ i ʃ t e o n u n ø n ʤ e s i n d e b i t a n e k a f e d e n j e ɾ a j ɯ ɾ t m ɯ ʃ ɫ a ɾ i ʃ t e o n u n ø n ʤ e s i n d e b i t a n e k a f e d e n j e ɾ a j ɯ ɾ t t ɯ ɾ m ɯ ʃ ɫ a ɾ i ʃ t e o n u n ø n ʤ e s i n d e n e j a p a ɫ ɯ m n e j a p a ɫ ɯ m b i ɾ i d e d i h a d i h a j d a ɾ a ɟ i d e l i m 
[459.335]
d e d i m m a n j a k m ɯ s ɯ n ɯ z b e n o ɾ a j a h a j aː t t a ɟ e l m e m d e d i m <laugh> o n d a n s o n ɾ a ɟ e n e z o ɾ ɫ a s o k t u ɫ a ɾ a ɫ ɫ a ɯ m n e i ʧ i ʤ i b i m e k a n d ɯ ɾ o ɾ a s ɯ j a h i ʧ s e w e m e d i m b i t y ɾ l y 
[469.235]
<no-speech> 
[474.955]
n e o ɫ m u ʃ j a s e n i n b i p ɯ ɾ o b l e m i n j o k s e n d e o n ɫ a ɾ ɟ i b i s i n ʧ y n c y 
[479.215]
<no-speech> 
[480.425]
s i j a ɟ i j i n e n a d a m ɫ a ɾ 
[482.025]
<no-speech> 
[483.125]
oː ɫ u m s i z d e n e s i n l e n i p b i k o ɾ k u f i l m i j a p m ɯ ʃ ɫ a ɾ j aː n i <laugh> 
[487.635]
<no-speech> 
[490.255]
<no-speech> 
[490.925]
<no-speech> 
[492.135]
s i z d e n e s i n l e n i p b i k o ɾ k u f i l m i j a p m ɯ ʃ ɫ a ɾ 
[494.975]
<no-speech> 
[499.745]
t a b i ʤ a n ɯ m b i l m i j o ɾ m u s u n 
[501.325]
<no-speech> 
[502.525]
b i z d e m u a k k a k s i j a ɟ i j i n e n a d a m ɫ a ɾ 
[505.255]
<no-speech> 
[507.825]
<laugh> ʃ a c a ʃ a c a k o ɾ k u d iː l k o m e d i a ɫ ɫ a a ʃ k ɯ n a s i z d e n n e k o ɾ k u f i l m i ʧ ɯ k ɯ ʤ a k k o m e d i f i l m i j a p m ɯ ʃ ɫ a ɾ 
[514.184875]
<no-speech> 
[515.534875]
n e a d a m z e n ʤ i b i t a n e a d a m w a ɾ j a w i l s i m i t m i n e o n u n f i l m i 
[521.454875]
<no-speech> 
[523.855]
i ʃ t e d a a j e n i w i z j o n a ɟ i ɾ ʤ e c 
[525.695]
<no-speech> 
[527.835]
k o m e d i f i l m i 
[529.075]
<no-speech> 
[531.145]
a m a n j a s e n d e h i ʧ s o s j a ɫ d iː l s i n j a e z i c m i s i n n e s i n a n ɫ a m a d ɯ m c i 
[536.015]
<no-speech> 
[537.075]
<no-speech> 
[537.475]
<no-speech> 
[541.875]
ʃ e j e b a k s a n a c a ʧ d a c c a o ɫ d u 
[544.215]
<no-speech> 
[545.855]
t e l e f o n a b a k s a n a 
[547.265]
<no-speech> 
[548.995]
ɯ m h ɯ m o n d a c i c a m o ɫ a m w a ɾ d a b e n i m o n u n i ʧ i n 
[552.315]
<no-speech> 
[557.045]
o n o n o n d a c iː k a n ɯ n d o ɫ m a s ɯ n a m ɯ 
[559.755]
<no-speech> 
[563.465]
ɯ m h ɯ m i j i t a m a m oː z a m aː n b iː ɾ a z d a a d e w a m e t 
[566.195]
<no-speech> 
[567.995]
ɯ m h ɯ m d e w a m e d e l i m oː z a m aː n e m u ɾ a t ɫ a ɟ ø ɾ y ʃ y j o ɾ m u s u n 
[571.305]
<no-speech> 
[575.245]
a ɫ o 
[575.915]
<no-speech> 
[577.425]
ɯ m h ɯ m n e j a p ɯ j o ɾ 
[578.755]
<no-speech> 
[581.085]
n e j a p ɯ j o ɾ 
[582.215]
<no-speech> 
[587.065]
h a d i j a 
[588.225]
<no-speech> 
[590.435]
b e n ʤ e w a ɾ j a s e n a s c e ɾ e ɟ i t m e j a z a t e n ʃ u ɾ d a t a ʃ ʧ a t ɫ a s ɯ n o n s e n e d a a j a ʃ a ɾ s ɯ n o n d a d a a s c e ɾ e ɟ i t m e j aː n i 
[598.635]
<no-speech> 
[600.02]
