[0.0]
<no-speech> 
[4.395]
a ɫ o 
[5.115]
<no-speech> 
[8.795]
s o n ɟ y l 
[9.495]
<no-speech> 
[11.365]
n e j a p ɯ j o n 
[12.425]
<no-speech> 
[13.745]
n e j a p ɯ j o n 
[14.975]
<no-speech> 
[17.185]
<breath> b e n d e i j i j i m 
[18.505]
<no-speech> 
[20.305]
b e n d e i j i j i m o t u ɾ u j o m 
[23.655]
<no-speech> 
[24.895]
h e s e s i m ɟ e ʧ ɟ e l i j o ɾ b iː ɾ a z 
[27.335]
<no-speech> 
[28.645]
d e n i z n e j a p ɯ j o ɾ 
[29.885]
<no-speech> 
[32.585]
ɯ m h ɯ m n e j a p ɯ j o n 
[34.235]
<no-speech> 
[36.235]
<no-speech> 
[37.495]
<no-speech> 
[40.855]
e d y n k ɯ n a ɟ e ʤ e s i n a s ɯ ɫ ɟ e ʧ t i 
[42.865]
<no-speech> 
[50.635]
<no-speech> 
[51.185]
<no-speech> 
[57.87]
<no-speech> 
[64.555]
e <breath> 
[65.745]
<no-speech> 
[67.845]
e f e n d i m 
[68.785]
<no-speech> 
[75.385]
e ɟ e ʧ ɟ e l i j o ɾ 
[76.715]
<no-speech> 
[78.215]
n e z a m aː n u j a n d ɯ d e n i z 
[79.785]
<no-speech> 
[90.135]
d y n ɟ e l i n m i ɟ i j m i ʃ t i 
[91.835]
<no-speech> 
[97.005]
d y n ɟ e l i n m i ɟ i j m i ʃ t i 
[98.665]
<no-speech> 
[105.145]
h ɯ 
[105.795]
<no-speech> 
[112.355]
j oː j oː s e n k o n u ʃ 
[113.485]
<no-speech> 
[121.605]
<no-speech> 
[122.395]
<no-speech> 
[123.285]
s e n i n m a s a s a n d a ɫ j e n ɟ e l m e d i m i d a a 
[125.365]
<no-speech> 
[127.135]
h e 
[127.695]
<no-speech> 
[130.305]
j a ɾ ɯ n m ɯ 
[131.205]
<no-speech> 
[133.305]
<no-speech> 
[134.085]
<no-speech> 
[136.655]
h e d oː ɾ u b u ɟ y n p a z a ɾ d ɯ 
[138.595]
<no-speech> 
[140.805]
w i l d a n j e n ɟ e j l e s a b a m ɯ ɟ i t t i n s e n 
[142.755]
<no-speech> 
[144.605]
a n n e n ɟ i l l e ɾ m i ɟ i t t i 
[145.985]
<no-speech> 
[153.245]
h ɯ 
[153.815]
<no-speech> 
[154.655]
a n n e m d e m a h w o ɫ m u ʃ b ø j l e ɟ e l d i i c i k a t o ɫ m u ʃ k ɯ n a ɟ e ʤ e s i n e 
[158.535]
<no-speech> 
[164.465]
n e b i l e j i m n e ʃ e j j a p t ɯ j s a <breath> c a ɫ m ɯ ʃ h e i ʃ d e j a p m ɯ ʃ j e m e c f a ɫ a n d a ɯ t m ɯ ʃ 
[172.065]
<no-speech> 
[181.765]
h e m m a m a s ɯ n ɯ j e d i ɾ h e m k o n u ʃ 
[183.805]
<no-speech> 
[191.105]
<no-speech> 
[191.865]
<no-speech> 
[192.665]
i j i 
[193.265]
<no-speech> 
[194.495]
n e s l i a n d a j a t ɯ j o ɾ oː d a 
[196.195]
<no-speech> 
[197.585]
a ɾ a d ɯ m d a 
[198.545]
<no-speech> 
[202.505]
h ɯ 
[203.055]
<no-speech> 
[205.275]
<breath> <int> n i j e s a b a k a ɫ k t ɯ n ɟ i t t i n c i s e n d e n i z l e <no-speech> j a t s a j d ɯ n a ʃ a ɯ j a 
[210.955]
<no-speech> 
[212.825]
n i j e ɟ i t t i n c i s a b a d e n i z l e b e ɾ a b e ɾ 
[215.045]
<no-speech> 
[217.135]
<no-speech> 
[217.835]
<no-speech> 
[222.075]
h ɯ 
[222.755]
<no-speech> 
[224.285]

[225.075]
<no-speech> 
[227.755]
b e n d e ø j l e ɾ a a t s ɯ z d ɯ m c i ɟ e ʤ e s a b a a k a d a ɾ ø k s y ɾ d y m 
[231.155]
<no-speech> 
[238.455]
e w d e 
[239.245]
<no-speech> 
[241.625]
e w d e 
[242.555]
<no-speech> 
[247.495]
<laugh> e w d e s i n t a m a m a n ɫ a d ɯ m d e d i n j a o n a ɟ y l d y m <laugh> 
[258.655]
<no-speech> 
[259.965]
<no-speech> 
[262.335]
<no-speech> 
[263.515]
i j i a k ʃ a m d yː n e n e ɟ i j i n e ʤ e c s i n 
[265.655]
<no-speech> 
[266.485]
<no-speech> 
[267.005]
<no-speech> 
[269.085]
<breath> a k ʃ a m d yː n e n e ɟ i j i n e ʤ e c s i n 
[271.555]
<no-speech> 
[277.735]
ɯ m h ɯ m ɟ i j i n b i ʃ e j o ɫ m a z 
[280.655]
<no-speech> 
[283.895]
w a ɫ ɫ aː b e n d e j aː n i p e c ʃ e j j a p m ɯ j o m d y ʃ y n m y j o m <no-speech> ɯ m h ɯ m b e n j a ʃ l a n b e n d oː m a d a n j a ʃ ɫ a n d ɯ m a n a m 
[293.245]
<no-speech> 
[295.945]
<no-speech> 
[296.455]
<no-speech> 
[299.965]
h e 
[300.625]
<no-speech> 
[303.865]
j oː 
[304.485]
<no-speech> 
[306.325]
<breath> b i l m i j o m b a k a ɫ ɯ m ø j l e 
[308.145]
<no-speech> 
[309.275]
<breath> ø j l e eː s u s t u <int> 
[313.915]
<no-speech> 
[316.275]
<no-speech> 
[316.625]
<no-speech> 
[318.015]
h ɯ i j i i ʃ m ɯ n n ɯ k 
[324.425]
<no-speech> 
[325.365]
<breath> s e s i m k ɯ s ɯ ɫ m ɯ ʃ h a d iː l m i b a n a ø j l e ɟ e l i j o ɾ s a n c i 
[330.115]
<no-speech> 
[332.365]
b e n i m s e s i m h e b e n i m b e n i m 
[336.805]
<no-speech> 
[338.265]
h e 
[339.115]
<no-speech> 
[341.315]
<int> 
[343.525]
<no-speech> 
[344.505]
h e 
[345.615]
<no-speech> 
[346.685]
<int> j y c s e l j a ɾ ɯ n m ɯ i z i n l i 
[348.585]
<no-speech> 
[353.655]
<no-speech> 
[354.195]
<no-speech> 
[355.475]
<no-speech> 
[356.115]
<no-speech> 
[358.675]
<int> n i a ɫ d a a d oː m a m ɯ ʃ m ɯ k a j ɯ n w a l i d e n a ɾ a m a d ɯ m ɯ h i ʧ 
[363.665]
<no-speech> 
[368.865]
<no-speech> 
[369.385]
<no-speech> 
[370.225]
h i l aː l d e n h a b e ɾ w a ɾ m ɯ 
[371.515]
<no-speech> 
[374.175]
<no-speech> 
[374.535]
<no-speech> 
[377.785]
c y ʧ y c s e ɟ i t m i ʃ o n ɫ a ɾ ɯ n b a ʃ ɯ n ɯ b e k l e n i ɾ 
[380.505]
<no-speech> 
[382.245]
<no-speech> 
[382.775]
<no-speech> 
[384.085]
n e o ɫ d u 
[384.835]
<no-speech> 
[386.915]
s e n b i ʃ e j s ø j l e d i n a n ɫ a m a d ɯ m o n u 
[388.705]
<no-speech> 
[390.245]
<no-speech> 
[391.565]
<no-speech> 
[393.995]
b a ʃ ɯ n ɯ b e c l e d i l e ɾ ɟ e l s e n i n b a ʃ ɯ n ɯ b e k l e s e j d i l e ɾ 
[399.695]
<no-speech> 
[400.535]
<no-speech> 
[400.905]
<no-speech> 
[403.845]
<no-speech> 
[404.685]
<no-speech> 
[406.385]
u f ø j l e s o n ɟ y l b a ʃ ɯ m aː ɾ ɯ j o ɾ ø j l e j o ɾ g u n u m <int> 
[410.635]
<no-speech> 
[412.205]
<no-speech> 
[412.565]
<no-speech> 
[414.345]
<no-speech> 
[415.155]
<no-speech> 
[417.105]
h ɯ <int> 
[419.475]
<no-speech> 
[425.855]
<no-speech> 
[426.215]
<no-speech> 
[427.045]
<no-speech> 
[427.405]
<no-speech> 
[428.405]
<no-speech> 
[429.365]
<no-speech> 
[434.815]
ɯ m h ɯ m 
[435.425]
<no-speech> 
[438.105]
<no-speech> 
[438.495]
<no-speech> 
[441.245]
<no-speech> 
[441.595]
<no-speech> 
[442.645]
<no-speech> 
[443.055]
<no-speech> 
[447.175]
s e h p a b a ʃ ɫ a ɾ ɯ n a 
[448.895]
<no-speech> 
[449.745]
<no-speech> 
[450.095]
<no-speech> 
[452.095]
w a ɫ ɫ aː <no-speech> 
[456.675]
<no-speech> 
[457.055]
<no-speech> 
[459.005]
h e 
[459.845]
<no-speech> 
[460.655]
z a t e n b a ʃ t a n b e l l i j d i s o n ɟ y l <int> 
[464.635]
<no-speech> 
[466.975]
<int> ɯ m h ɯ m <int> h e 
[473.715]
<no-speech> 
[474.625]
<int> h e 
[475.865]
<no-speech> 
[477.165]
<no-speech> 
[478.345]
<no-speech> 
[480.055]
<no-speech> 
[482.845]
<no-speech> 
[486.775]
j aː n i 
[487.725]
<no-speech> 
[489.125]
n e j s e c e n d i n e s a k ɫ a ɾ 
[490.745]
<no-speech> 
[492.805]
<int> i ʃ t e n e o ɫ ʤ a k b o ʃ w e ɾ b e n oː j y z d e n h i ʧ h i ʧ b i ɾ ʃ e j l e ɾ i n e ɟ e l m e j i d y ʃ y n m y j o m <int> 
[497.845]
<no-speech> 
[499.315]
h i ʧ l y z u m j o k 
[500.405]
<no-speech> 
[503.535]
<no-speech> 
[504.465]
<no-speech> 
[510.065]
h i ʧ d e m e ɾ a k d a e t m i j o m 
[511.975]
<no-speech> 
[514.195]
h ɯ 
[514.805]
<no-speech> 
[516.755]
<no-speech> 
[517.285]
<no-speech> 
[525.115]
<int> ɟ y l s e ɾ d e ɟ e l m e j e ʤ e i n e ɟ ø ɾ e p ɯ ɾ o b l e m j o k d e m e c c i 
[528.925]
<no-speech> 
[531.565]
<no-speech> 
[532.445]
<no-speech> 
[537.915]
<no-speech> 
[539.465]
<no-speech> 
[540.355]
<no-speech> 
[542.445]
<no-speech> 
[547.965]
<no-speech> 
[548.365]
<no-speech> 
[550.625]
<click> a ɫ o 
[552.215]
<no-speech> 
[557.605]
n e o ɫ d u 
[559.245]
<no-speech> 
[561.655]
n e j a p ɯ j o ɾ 
[562.395]
<no-speech> 
[565.275]
ɯ m h ɯ m o j n a t m a j ɯ n d a ʧ o ʤ u a n a z a ɾ d e j m e s i n <int> 
[570.195]
<no-speech> 
[579.825]
<no-speech> 
[580.175]
<no-speech> 
[584.765]
aː ʧ o ɫ m u ʃ d e m e c c i <laugh> 
[587.435]
<no-speech> 
[588.985]
<no-speech> 
[589.615]
<no-speech> 
[592.645]
<no-speech> 
[598.125]
h ɯ 
[599.455]
<no-speech> 
[600.04]
