[0.0]
<no-speech> 
[2.655]
<no-speech> 
[4.195]
<no-speech> 
[9.795]
<no-speech> 
[10.145]
<no-speech> 
[12.875]
<no-speech> 
[13.545]
<no-speech> 
[14.545]
<sta> <breath> e f e n d i m 
[22.505]
<no-speech> 
[23.835]
a ɫ o 
[24.605]
<no-speech> 
[25.775]
i j i d i ɾ s e n d e n n e h a b e ɾ 
[27.285]
<no-speech> 
[28.585]
ɟ e l i j o ɾ 
[30.035]
<no-speech> 
[32.925]
<no-speech> 
[33.445]
<no-speech> 
[34.375]
<hes> w a ɫ ɫ aː h i ʧ b i ɾ ʃ e j j a p t ɯː m ɯ z j o k e w d e j i m s e n n e j a p ɯ j o n 
[39.095]
<no-speech> 
[40.195]
<sta> <hes> 
[47.285]
<no-speech> 
[49.495]
<no-speech> 
[52.325]
<no-speech> 
[53.785]
<no-speech> 
[54.845]
<no-speech> 
[56.275]
<no-speech> 
[59.185]
<no-speech> 
[60.945]
s e s i n ʧ o k a z ɟ e l i j o ɾ a m a j a 
[62.565]
<no-speech> 
[65.755]
<no-speech> 
[66.345]
<no-speech> 
[67.815]
<no-speech> 
[68.335]
<no-speech> 
[69.355]
<no-speech> 
[69.735]
<no-speech> 
[70.715]
n e j a p t ɯ m m ɯ a ɫ o 
[74.695]
<no-speech> 
[75.875]
ɟ i t t i m ɟ i t t i m 
[76.995]
<no-speech> 
[79.545]
ɟ i t t i m ɟ i t t i m <breath> ʃ e j d i j o ɾ i ʃ t e j a o ɫ ʤ a k m ɯ ʃ 
[84.575]
<no-speech> 
[86.585]
a ɫ o <cough> 
[87.965]
<no-speech> 
[89.495]
a ɫ ɯ n a ʤ a k m ɯ ʃ d a 
[91.865]
<no-speech> 
[94.365]
d u j u j o ɾ m u s u n s e n b e n i 
[97.225]
<no-speech> 
[98.605]
a ɫ o 
[99.365]
<no-speech> 
[101.095]
<hes> ʃ e j m i ʃ i ʃ t e s a b a o n a k ʃ a m o n m u ʃ <hes> 
[105.015]
<no-speech> 
[106.795]
a ɫ o 
[107.565]
<no-speech> 
[109.285]
ø j l e j m i ʃ i ʃ t e ʃ e j d e d i 
[111.135]
<no-speech> 
[112.375]
a n ɫ a t t ɯ ɾ m ɯ j o n c i 
[114.755]
<no-speech> 
[116.065]
ʃ e j d e d i l e ɾ j a o n i c i s aː t ʧ a ɫ ɯ ʃ ɯ j o ɾ ɫ a ɾ m ɯ ʃ <lipsmack> s e c i z j y z e l l i m i l j o n w e ɾ i j o ɾ ɫ a ɾ m ɯ ʃ <breath> o n d a n s o n ɾ a i ʃ t e s e c i z j y z e l l i 
[127.225]
<no-speech> 
[129.674875]
<breath> <hes> ʃ e j d e d i m b e n a ɫ ɯ ʃ w e ɾ i ʃ m e ɾ c e z i n d e j i m s y ɾ e c l i j a c a p ɯ d a d u ɾ a ʤ a k m ɯ ʃ s ɯ n j a b i l m e m n e j a p a ʤ a k m ɯ ʃ s ɯ n ʧ o k j o w u n ɟ e ʧ i j o ɾ f a ɫ a n d e d i <breath> 
[139.795]
z a t e n b i a j d e n e m e s y ɾ e s i o ɫ u j o ɾ m u ʃ <breath> o n d a n s o n ɾ a b e j e n i ɾ l e ɾ s e s i g o ɾ t a j a p ɯ j o ɾ ɫ a ɾ m ɯ ʃ b e j e n m e z l e ɾ s e ʧ ɯ k a ɾ t ɯ j o ɾ ɫ a ɾ m ɯ ʃ ø j l e j m i ʃ 
[151.735]
o n d a n s o n ɾ a b e n d e d i m o n i c i s aː t ʃ e j j a p a m a m d e d i m <lipsmack> oː z a m aː n d e d i b a ʃ k a d e d i ʃ e j l e ɾ b u ɫ d uː m u z d a d e d i p ɯ ɾ o ʒ e l e ɾ i m i z o ɫ d uː n d a h a b e ɾ w e ɾ i ɾ i z b i z s i z e d e d i t a m a m d e d i m b e n d e ɟ e l d i m j aː n i 
[163.285]
<no-speech> 
[164.345]
<no-speech> 
[165.155]
b u ɾ a d a i ʃ t e b i i c i t a n e ʃ i ɾ c e t w a ɾ ɟ e b z e d e o ɾ a j a b a ʃ w u ɾ a ʤ a ɯ m <hes> 
[171.195]
<no-speech> 
[176.405]
j o k c a b u ɫ e t m e d i m s a b a o n a k ʃ a m o n d i j o ɾ l a n 
[179.205]
<no-speech> 
[180.425]
n e 
[181.005]
<no-speech> 
[187.225]
ʃ e j o ɾ d a n s o n ɾ a <hes> b i t a n e ʃ e j w a ɾ d ɯ b e n i m b u ɾ a d a s y ɾ e c l i w a ɾ d ɯ b i t a n e <breath> oː a d a m a ʃ e j j a p t ɯ m d e d i m w a ɾ m ɯ t a n ɯ d ɯː n b i j e ɾ f a ɫ a n oː b i t a n e c a ɾ t w e ɾ d i b u ɾ a j a ɟ i t t i d e d i b e n i m s e ɫ aː m ɯ m ɯ s ø j l e d e d i <breath> o ɾ a j a ɟ i t t i m f o ɾ m d o ɫ d u ɾ d u m <breath> d y n d e i ʃ t e t e c ɾ a ɾ uː ɾ a d ɯ m b e n d e d i m ɟ i t t iː n i z j e ɾ e d u ɾ d e d i b e n s e n i b a ʃ k a b i j e ɾ e j ø n l e n d i ɾ ʤ e m d e d i b i c a ɾ t w e ɾ d i b i ʃ e j l e b i b a j a n ɯ n ʃ e j i j m i ʃ oː d a i n ʃ aː t m y h e n d i s i j m i ʃ m i ʃ n e j m i ʃ <breath> oː d e d i o n u n j a n ɯ n a uː ɾ a d e d i oː d e d i ʃ e j j a p a ɾ j a ɾ d ɯ m o ɫ u ɾ j a ɾ d ɯ m ʤ ɯ o ɫ u ɾ d e d i 
[222.215]
o n d a n s o n ɾ a i ʃ t e <breath> b i t a n e a ɾ c a d a ʃ w a ɾ d ɯ k u ɾ s t a n <breath> oː b i j e ɾ i t a ɾ i f e t t i ɟ e b z e d e n o ɾ a j a ɟ i t d e d i o ɾ a j a d a f o ɾ m d o ɫ d u ɾ d e d i b a n a d e d i i ʃ b u ɫ d u ɫ a ɾ h e m e n d e d i 
[232.915]
<no-speech> 
[233.745]
<lipsmack> b i m i l j a ɾ ɫ a b a ʃ ɫ a m ɯ ʃ oː b i m i l j a ɾ i c i j y z l e m i n e 
[237.855]
<no-speech> 
[239.295]
<breath> i ʃ t e o ɾ a j a ɟ i d ʤ eː m j a ɾ ɯ n d a oː i c i j e ɾ e 
[243.095]
<no-speech> 
[249.125]
c i m 
[249.655]
<no-speech> 
[255.595]
<breath> ɯ m h ɯ m o n ɫ a ɾ ʃ e j m i ʃ j a t a ʃ e ɾ o n f i ɾ m a ɫ a ɾ i ʃ j e ɾ l e ɾ i n e f e ɫ a n e l e m a n b u ɫ u j o ɾ ɫ a ɾ m ɯ ʃ 
[261.505]
<no-speech> 
[262.605]
<no-speech> 
[263.005]
<no-speech> 
[264.135]
ø j l e j aː n i <breath> 
[267.215]
<no-speech> 
[269.695]
<no-speech> 
[270.045]
<no-speech> 
[271.585]
<int> <cough> b e n s e n i d u j a m ɯ j o m a m a 
[274.845]
<no-speech> 
[278.235]
a ɫ o 
[278.855]
<no-speech> 
[283.695]
s e n i d e d i m d u j a m ɯ j o m ʧ o k a z ɟ e l i j o ɾ s e s i n b i z i m c i l e ɾ d e s aː o ɫ s u n ɫ a ɾ ʧ o k s e s s i z l e ɾ j a d u j a m ɯ j o m <breath> 
[289.735]
<no-speech> 
[294.895]
<lipsmack> a b i m l e ɾ d e b i ʃ e j j a p m a m ɯ ʃ t ɯ m <breath> o t u ɾ d u m o t u ɾ d u m ɟ e l d i m j iː t i ʃ t e a m e l i j a t j a p ɯ ʤ a k ɫ a ɾ d ɯ o n ɫ a ɾ ɯ f a ɫ a n uː ɾ a ʃ ɯ j o ɾ d u e ʃ i <breath> o j a <int> 
[311.005]
<no-speech> 
[311.835]
j a o ɫ ʤ a k m ɯ ʃ h e ɾ h a l d e ʃ e j o j a ʧ a p a j a f a ɫ a n ɟ ø t y ɾ e l i m d e m i ʃ m a ɾ m a ɾ a j a f a ɫ a n m a ɾ m a ɾ a d a <breath> b i a j d o ɫ u j m u ʃ ɾ a n d e w u ɫ a ɾ ɯ k u ɫ a k b u ɾ u n b o a z ɯ n <breath> aː b i m d e c y ʧ y c b i o p e ɾ a s j o n d e m i ʃ o ɾ a d a c i d o k t o ɾ a j a p t ɯ ɾ t a ʤ a k m ɯ ʃ <int> ø j l e j aː n i 
[331.445]
<no-speech> 
[332.305]
<hes> 
[332.805]
<no-speech> 
[334.535]
a n ɫ a m a d ɯ m <int> ʃ e j w a ɾ j a c a ɾ ʃ ɯ d a p o l i k l i n i k w a ɾ j a o n ɫ a ɾ ɯ n o ɾ d a 
[341.015]
<no-speech> 
[343.715]
o ɾ a d a c i s y ɾ e c l i ɟ ø t y ɾ d y k l e ɾ i d o k t o ɾ 
[346.225]
<no-speech> 
[348.345]
<no-speech> 
[349.555]
<no-speech> 
[352.455]
ʃ e j m i ʃ t y p t a k ɯ ɫ a ʤ a k m ɯ ʃ <breath> 
[356.245]
<no-speech> 
[357.805]
<int> <breath> t y p t a k ɯ ɫ a ʤ a k m ɯ ʃ i ʃ t e 
[361.135]
<no-speech> 
[364.545]
<no-speech> 
[364.915]
<no-speech> 
[366.545]
n e 
[367.085]
<no-speech> 
[368.425]
<no-speech> 
[369.405]
<no-speech> 
[372.155]
h e ø j l e j m i ʃ aː b i m d e h a n i c y ʧ y c b i o p e ɾ a s j o n n a s ɯ ɫ o ɫ s a d e m i ʃ h a n i oː k a d a ɾ ʃ e j j a p m a j a <no-speech> ɟ e ɾ e c j o k d e m i ʃ <breath> i ʃ t e ɟ e ʧ e n ɟ y n ʃ e j j a p t ɯ ɫ a ɾ ɟ i t t i l e ɾ c a n t a l i l i f a ɫ a n j a p t ɯ ɾ d ɯ ɫ a ɾ 
[383.665]
j a ɾ ɯ n j a ɾ ɯ n d a s o n u ʧ ɫ a ɾ ɯ a ɫ ɯ p h e ɾ h a l d e ʃ e j e ɟ i d ʤ e c l e ɾ m i ʃ <breath> d e w l e t h a s t aː n e s i n e a n e s t e z i d e n h a n i o n a j a ɫ d ɯ k t a n s o n ɾ a d a a m e l i j a t ɟ y n y w e ɾ ʤ e c m i ʃ <breath> <int> 
[395.515]
<sta> n e 
[407.035]
<no-speech> 
[408.285]
<int> b i l m i j o m c i 
[412.725]
<no-speech> 
[415.065]
<no-speech> 
[418.415]
<no-speech> 
[419.925]
<no-speech> 
[420.645]
<no-speech> 
[421.645]
<no-speech> 
[424.815]
<no-speech> 
[426.235]
<no-speech> 
[426.715]
<no-speech> 
[430.105]
<no-speech> 
[430.615]
<no-speech> 
[432.315]
ɯ m h ɯ m a j n e n a j n e n ʃ e j i ʃ t e ɟ e ʧ e n ɟ y n d e <lipsmack> a t a a ɾ a m ɯ ʃ b i h a z iː ɾ a n d a ʃ e j i w a ɾ m ɯ ʃ m eː z u n i j e t t ø ɾ e n i h e ɾ h a l d e 
[442.295]
ɟ e l e b i l i ɾ s e n i z ɟ e l i n d e m i ʃ d e <breath> aː b i m d e b i l m i j o m a ɾ t i s t a ɾ t i s t a ɾ a b a m a ɾ a b a b i ʃ e j l e ɾ d i j i p d u ɾ u j o ɾ d u a m a <breath> 
[451.055]
<no-speech> 
[452.535]
<no-speech> 
[455.215]
<no-speech> 
[456.565]
n e 
[457.135]
<no-speech> 
[462.915]
<no-speech> 
[463.265]
<no-speech> 
[464.765]
<int> <hes> 
[468.485]
<no-speech> 
[471.135]
<no-speech> 
[471.515]
<no-speech> 
[472.375]
<no-speech> 
[475.535]
<no-speech> 
[479.085]
<no-speech> 
[479.715]
<no-speech> 
[481.865]
<no-speech> 
[485.475]
<no-speech> 
[486.355]
<no-speech> 
[487.445]
<no-speech> 
[488.385]
<hes> ʃ aː h i n e c i m s ɯ a ʤ a k m ɯ ʃ 
[493.735]
<no-speech> 
[498.645]
<no-speech> 
[499.005]
<no-speech> 
[503.105]
ɯ m h ɯ m 
[504.175]
<no-speech> 
[505.195]
<no-speech> 
[506.115]
<no-speech> 
[508.245]
b a b a m ɯ a ɾ a d ɯ k ʃ e j d e a n n e l e ɾ ɟ y n y n d e h a n i k o n u ʃ a ɫ ɯ m d i j e ʃ e j l e k a d ɯ n ɫ a <breath> d e d i c ø j d e j i m b e n d e d i h a m i t t a ɾ ɫ a d a j ɯ m d e d i <breath> ʃ e j j a p m a d ɯ k d a a d a a ɾ a m a d ɯ k k a d ɯ n ɯ f a ɫ a n b i l m i j o m 
[520.215]
<no-speech> 
[521.495]

[522.564875]
<no-speech> 
[525.215]
n e j o k ɟ i t m e m i ʃ h e ɾ h a l d e <breath> b i l m i j o m b e n ʃ e j j a p m a d ɯ m z a t e n p e c 
[530.815]
<no-speech> 
[532.785]
k o n u ʃ a s ɯ j o k t u ɟ i b i j a d a j o ɾ g u n d u b i l m i j o m s o ɾ m a d ɯ m b e n 
[537.405]
<no-speech> 
[538.205]
<no-speech> 
[538.795]
<no-speech> 
[539.805]
<no-speech> 
[544.295]
<no-speech> 
[549.175]
<no-speech> 
[551.775]
<no-speech> 
[552.625]
<hes> e f e n d i m d i n l i j o m b e n s e n i d i n l i j o m 
[555.025]
<no-speech> 
[556.025]
n e 
[556.575]
<no-speech> 
[561.575]
ɯ m h ɯ m 
[562.325]
<no-speech> 
[563.435]
<no-speech> 
[563.825]
<no-speech> 
[568.765]
<no-speech> 
[569.875]
<no-speech> 
[576.305]
<no-speech> 
[576.705]
<no-speech> 
[579.225]
<no-speech> 
[581.455]
<no-speech> 
[583.755]
ɯ m h ɯ m 
[584.415]
<no-speech> 
[587.295]
<hes> w a ɫ ɫ aː n e 
[589.165]
<no-speech> 
[591.775]
a l e j c y m s e ɫ aː m s e n d e s e ɫ aː m s ø j l e h e p s i n e <breath> b i z i m c i l e ɾ d e s e ɫ aː m s ø j l y j o ɾ d u ɾ h e ɾ h a l d e b i l m i j o m 
[598.645]
<no-speech> 
[600.36]
