[0.0]
<no-speech> 
[8.175]
e f e n d i m 
[8.865]
<no-speech> 
[12.455]

[13.445]
<no-speech> 
[15.225]
n e j a p ʤ a k 
[16.815]
<no-speech> 
[18.625]
<breath> oː ɫ u m s e s i n n e t ɟ e l m i j o ɾ 
[20.365]
<no-speech> 
[30.045]
<click> ʃ i m d i k o n u ʃ 
[33.145]
<no-speech> 
[36.095]
<lipsmack> j e d i b u ʧ u k t a 
[37.745]
<no-speech> 
[41.895]
j e d i b u ʧ u k oː ɫ u m n e b i b u ʧ uː <no-speech> j e d i b u ʧ u k 
[44.745]
<no-speech> 
[49.845]
h e 
[50.485]
<no-speech> 
[52.615]
s e n i n s e <no-speech> <breath> ʃ u t e l e f o n u e l i n e a ɫ oː ɫ u m h o p a ɾ l ø ɾ m o p e ɾ l ø ɾ a ʧ ɯ k s a k a p a t 
[58.185]
<no-speech> 
[64.255]
e w e t 
[64.855]
<no-speech> 
[65.945]
b a b a m ɟ e l d i 
[67.085]
<no-speech> 
[71.425]
b u n u k o n u ʃ m a k i ʧ i n m i ʃ e j j a p t ɯ n ʤ a n 
[73.325]
<no-speech> 
[75.265]
a n c e t i j a p a ʤ a k s a k j a p a ɫ ɯ m b i <laugh> <breath> a n c e t i j a p a ʤ a k s a k j a p a ɫ ɯ m b e n s a n a a n ɫ a t ɯ ɾ ɯ m o n ɫ a ɾ ɯ <breath> 
[81.305]
<no-speech> 
[83.295]
h e 
[83.875]
<no-speech> 
[86.375]
ø j l e s i n e 
[87.265]
<no-speech> 
[90.595]
eː 
[91.325]
<no-speech> 
[97.015]
<no-speech> 
[97.405]
<no-speech> 
[99.275]
n e ɾ e d e s i n s e n ʃ i m d i 
[100.635]
<no-speech> 
[103.745]
e w d e m i s i n 
[104.685]
<no-speech> 
[108.235]

[108.675]
<no-speech> 
[110.295]
<cough> s aː d e ʤ e k o n u ʃ m a b i t i j o ɾ 
[114.085]
<no-speech> 
[117.125]
ø z e n d e 
[117.985]
<no-speech> 
[121.815]
h e h i ʧ b i ɾ ʃ e j 
[122.865]
<no-speech> 
[125.465]
a n c e t f a ɫ a n j o k j aː n i 
[127.085]
<no-speech> 
[129.885]
h ɯ d e ɾ s i k a ʧ ɯ ɾ d ɯ 
[131.215]
<no-speech> 
[135.585]
i j i o ɫ m u ʃ <laugh> 
[139.305]
<no-speech> 
[142.345]
h ɯ 
[142.755]
<no-speech> 
[144.395]
<no-speech> 
[144.755]
<no-speech> 
[146.965]
h a n ɟ i d e ɾ s t e 
[148.025]
<no-speech> 
[150.775]
h a n ɟ i d e ɾ s t e d i j o m 
[152.055]
<no-speech> 
[156.135]
u j g u ɫ a m a j a p ɯ j o ɾ m u h aː l aː 
[157.705]
<no-speech> 
[161.725]
u j g u ɫ a m a j a p ɯ j o ɾ m u 
[162.915]
<no-speech> 
[169.195]
i j i oː z a m aː n 
[170.145]
<no-speech> 
[178.095]
e w e t 
[178.845]
<no-speech> 
[181.215]
eː 
[181.905]
<no-speech> 
[182.915]
<no-speech> 
[183.545]
<no-speech> 
[185.195]
s e n i d i n l i j o m s e n a n ɫ a s e n a n ɫ a t 
[187.725]
<no-speech> 
[188.885]
o n u <no-speech> s aː d e ʤ e k o n u ʃ u ʤ a k s a k t e l e f o n a ʧ ɯ k d u ɾ a b i l i ɾ j aː n i i l l aː k o n u ʃ m a k z o ɾ u n d a d iː l i z 
[195.055]
<no-speech> 
[196.995]
n e d i j o n 
[197.835]
<no-speech> 
[203.355]
l a n <no-speech> l a n ɟ e ɾ i z e k a ɫ ɯ s a n c i s e n i n l e m u a b b e t e t m e c i s t e m i j o z <no-speech> d oː ɾ u s u z a m aː n d ɯ ɾ c y f y ɾ e d i j o ɾ d u ɾ ʃ i m d i i ʧ i n d e n 
[210.375]
<no-speech> 
[212.495]
<breath> a n ɫ a d ɯ n a n ɫ a d ɯ n m ɯ 
[215.025]
<no-speech> 
[221.055]
ʤ i a n <no-speech> aː b i s e s i n h i ʧ a n ɫ a ʃ ɯ ɫ m ɯ j o ɾ <no-speech> aː b i s e s i n h i ʧ a n ɫ a ʃ ɯ ɫ m ɯ j o ɾ j a 
[226.545]
<no-speech> 
[228.075]
a ɫ ɫ a a ɫ ɫ a ʧ y n c y n o ɾ m a ɫ b a k t e l e f o n u m d a n <no-speech> h ɯ ʃ i m d i b iː ɾ a z d a a i j i ɟ e l i j o ɾ 
[233.095]
<no-speech> 
[234.235]
ɟ e l i j o ɾ ɟ e l i j o ɾ b iː ɾ a z d a a i j i 
[237.605]
<no-speech> 
[239.285]
ɟ e l m i j o ɾ 
[240.065]
<no-speech> 
[242.945]
n e 
[243.545]
<no-speech> 
[246.295]
h a j ɯ ɾ m e t e <no-speech> m e t e o ɾ o ɫ o ʒ i k ɾ e a k s i j o n ɫ a ɾ ɯ s m e t e o ɾ o ɫ o ʒ i k ɾ e a k s i j o n ɫ a ɾ ɯ s e ʧ t i m 
[251.385]
<no-speech> 
[253.545]
l a n ɟ e ɾ i z e k a ɫ ɯ d o ɫ m a s a a ɫ ɯ ɾ d ɯ k i ʃ t e 
[255.825]
<no-speech> 
[259.035]
aː b i <no-speech> <breath> oː ɟ e ɾ i <hes> <no-speech> ɟ e ɾ i z e k a ɫ ɯ c e l i m e s i n i k u ɫ ɫ a n d ɯ m a m a s a k ɯ n ʤ a ɫ ɯ o ɫ u ɾ m u 
[266.155]
<no-speech> 
[272.515]
<no-speech> 
[278.875]
<no-speech> 
[279.585]
<no-speech> 
[280.385]
b i z i m d e ɾ s k o ɫ a j m ɯ ʃ ɟ aː l i b a 
[282.005]
<no-speech> 
[285.585]
b i z i m d e ɾ s k o ɫ a j m ɯ ʃ ɟ aː l i b a 
[287.595]
<no-speech> 
[288.935]
b i z i m d e ɾ s 
[289.725]
<no-speech> 
[292.225]
e w e t 
[292.935]
<no-speech> 
[295.655]
j aː n i m e m e t ø j l e d i j o ɾ i n ʃ a ɫ ɫ a k o ɫ a j d ɯ ɾ d a <breath> <no-speech> e ɾ m a n f a ɫ a n h a n ɟ i d e ɾ s i a ɫ d ɯ 
[301.005]
<no-speech> 
[304.745]
<breath> d u j a m ɯ j o m d u j a m ɯ j o m d u j u j o <breath> 
[309.945]
<no-speech> 
[318.755]
o 
[319.575]
<no-speech> 
[322.205]
<breath> ø m e ɾ f a ɫ a n a m a n n e ø m e ɾ i j a e ɾ m a n h a n ɟ i d e ɾ s i a ɫ d ɯ 
[325.705]
<no-speech> 
[328.275]
h e 
[328.805]
<no-speech> 
[330.345]
h ɯ i j i 
[331.055]
<no-speech> 
[332.345]
t a m a m b e n s e n i ɟ ø ɾ y ɾ y m e w d e 
[334.005]
<no-speech> 
[337.265]
<no-speech> 
[337.805]
<no-speech> 
[339.535]
n e o ɫ m u ʃ 
[340.435]
<no-speech> 
[343.085]
a n ɫ a m a d ɯ m <no-speech> s a b a d ø ɾ t ɟ i b i b e n t e ɾ m i n a ɫ d e o ɫ u ɾ u m o ɾ d a n s e ɾ w i s e b i n e ɾ ɟ e l i ɾ i m 
[348.505]
<no-speech> 
[351.725]
a n ɫ a d ɯ n 
[352.455]
<no-speech> 
[359.995]
e w e t 
[360.665]
<no-speech> 
[370.395]
c i m i n 
[370.975]
<no-speech> 
[373.605]
ɯ ʃ ɯː j a k m a o z a n k a p a t 
[374.825]
<no-speech> 
[375.855]
<breath> c a b u ɫ c a b u ɫ e t m e z c i <no-speech> c a b u ɫ e t m e z 
[379.395]
<no-speech> 
[381.795]
<no-speech> 
[382.225]
<no-speech> 
[392.375]
e w e t 
[392.975]
<no-speech> 
[401.125]
aː b i b e n o n u b e n a j a ɾ ɫ a ɾ ɯ m s e n ʤ a n ɯ n ɯ s ɯ k m a 
[403.435]
<no-speech> 
[406.335]
s e n n i j e e w e ɟ i t m i j o n l a n 
[407.885]
<no-speech> 
[410.545]
h e <no-speech> s e n n i j e e w e ɟ i t m i j o n 
[412.535]
<no-speech> 
[415.785]

[416.365]
<no-speech> 
[417.755]

[418.315]
<no-speech> 
[419.435]

[420.125]
<no-speech> 
[425.305]
aː f e ɾ i n i j i j a p m ɯ ʃ s ɯ n 
[426.665]
<no-speech> 
[432.995]
i l e ɾ i 
[433.605]
<no-speech> 
[435.475]
i j i j a p m ɯ ʃ s ɯ n 
[436.465]
<no-speech> 
[440.965]
k a ɾ ɫ a ɾ e ɾ i d i m i 
[442.045]
<no-speech> 
[446.555]
<no-speech> 
[450.095]
<no-speech> 
[454.225]
<no-speech> 
[454.815]
<no-speech> 
[460.555]
a ʤ aː j i p k a ɾ w a ɾ <no-speech> k a ɾ j aː d ɯ oː ɫ u m b i z i m b u ɾ a j a b u ɟ y n 
[464.285]
<no-speech> 
[466.425]
b a j aː 
[467.075]
<no-speech> 
[470.415]
<no-speech> 
[471.915]
<no-speech> 
[474.435]
<no-speech> 
[475.265]
<no-speech> 
[484.965]
n e 
[485.495]
<no-speech> 
[488.275]
oː ɫ u m <no-speech> 
[491.815]
a n ɫ a ʃ ɯ ɫ m ɯ j o ɾ <laugh> s e n t e l e f o n ɫ a k o n u ʃ m u j o n ɟ aː l i b a j a 
[496.395]
<no-speech> 
[501.455]
i j i o ɫ d u h ɯ 
[503.215]
<no-speech> 
[504.815]
h e 
[505.365]
<no-speech> 
[508.055]
i j i o ɫ m u ʃ d i j o ɾ <no-speech> i j i o ɫ m u ʃ 
[510.475]
<no-speech> 
[515.055]
e w e t 
[515.665]
<no-speech> 
[523.134875]
ʃ e b n e m h i ʧ ø j l e s a ɫ a k d iː l 
[524.485]
<no-speech> 
[526.875]
<breath> s e n u j u m a j a ʤ a k s ɯ n d iː l m i s a b a a k a d a ɾ 
[529.765]
<no-speech> 
[532.235]
h e 
[532.755]
<no-speech> 
[535.775]
s e n <no-speech> b i ɾ d e b i ɾ d e k a ɫ k a ɾ ɯ m d e m e b a n a k a ɫ k m a z s ɯ n 
[539.825]
<no-speech> 
[543.295]
s e n k a ɫ k m a z s ɯ n 
[544.425]
<no-speech> 
[548.755]
u l e n 
[549.585]
<no-speech> 
[551.295]
<no-speech> 
[551.645]
<no-speech> 
[552.885]
c e ʃ c e <no-speech> i n ʃ a ɫ ɫ a 
[554.685]
<no-speech> 
[555.715]

[557.525]
<no-speech> 
[561.875]
i ʃ t e b ø j l e 
[562.635]
<no-speech> 
[564.585]
t a m a m 
[565.175]
<no-speech> 
[569.815]
e w e t 
[570.425]
<no-speech> 
[580.55]
<no-speech> 
[590.675]
oː ɫ u m n e z a m aː n k a p a t ʤ aː z 
[592.075]
<no-speech> 
[595.875]
h ɯ j a ɾ 
[596.465]
<no-speech> 
[599.645]
b a a ɾ 
[600.045]
<no-speech> 
[600.14]
