[0.0]
<no-speech> 
[4.225]
a ɫ o 
[4.925]
<no-speech> 
[8.215]
a ɫ o n e h a b e ɾ 
[9.295]
<no-speech> 
[10.775]
a ɫ o 
[11.565]
<no-speech> 
[13.675]
a ɫ o n e h a b e ɾ 
[15.595]
<no-speech> 
[17.395]
d u j u j o m s e n b e n i d u j a b i l i j o ɾ m u s u n 
[19.435]
<no-speech> 
[20.665]
a ɫ o 
[21.355]
<no-speech> 
[23.435]
a ɫ o n e j a p ɯ j o n 
[25.545]
<no-speech> 
[27.695]
b e n d e s e n i d u j u j o m d a i j i w a ɫ ɫ aː i e w d e m i s i n 
[33.375]
<no-speech> 
[37.225]
h ɯ i j i w a ɫ ɫ aː b e n d e o t u ɾ u j o m <lipsmack> ʃ e j i ʃ t e j i m d y c c a n d a j ɯ m d a <breath> ʃ e j ʧ o ʤ u k ʧ o ʤ u k ɫ a ɾ ɯ n e j a p t ɯ n 
[45.405]
<no-speech> 
[46.205]
ɟ ø t y ɾ d y n m y 
[47.045]
<no-speech> 
[51.165]

[51.845]
<no-speech> 
[53.075]
n a s ɯ ɫ o ɫ d u 
[54.775]
<no-speech> 
[57.275]
ɟ y n y n y z m y w a ɾ 
[59.105]
<no-speech> 
[61.235]
h ɯ 
[61.705]
<no-speech> 
[63.035]
m e n y d e n e l e ɾ w a ɾ 
[64.255]
<no-speech> 
[66.035]
m e n y d e n e l e ɾ w a ɾ 
[67.285]
<no-speech> 
[68.975]
h ɯ 
[69.945]
<no-speech> 
[71.115]
a k ʃ a m a b i z e d e d y ʃ y j o ɾ m u b i ʃ e j l e ɾ 
[73.325]
<no-speech> 
[77.415]
<breath> h ɯ 
[79.825]
<no-speech> 
[81.105]
n e b i l e j i m <cough> a k ʃ a m a n e w a ɾ <hes> n e j a p t ɯ n c i j e m e c 
[85.935]
<no-speech> 
[90.975]
h ɯ t e ɾ a s t a c i oː m u j d u 
[93.605]
<no-speech> 
[94.415]
a k ʃ a m ɟ ø ɾ m y ʃ t y m t e ɾ a s t a 
[97.295]
<no-speech> 
[98.575]

[99.065]
<no-speech> 
[100.415]
t aː z e m i j m i ʃ 
[101.785]
<no-speech> 
[108.675]
<int> ʃ e j n e d i ʤ eː m n e j a p t ɯ b e i t s ɯ n a w ɫ a ɾ ɯ 
[111.885]
<no-speech> 
[118.065]
h ɯ <lipsmack> 
[119.645]
<no-speech> 
[121.205]
oː <no-speech> 
[123.635]
h ɯ k o ɫ a j s o ɾ u ɫ a ɾ 
[125.875]
<no-speech> 
[127.215]
j y z a ɫ m a z s a ɟ e l m e d e d i n m i 
[129.235]
<no-speech> 
[132.155]
h ɯ <laugh> 
[132.925]
<no-speech> 
[134.385]

[134.875]
<no-speech> 
[140.885]
h ɯ 
[141.545]
<no-speech> 
[148.495]
ʃ e j b e j i t i n a ɫ t m ɯ ʃ b e ʃ i w a ɾ m ɯ h i ʧ h i ʧ ø j l e b a ʃ k a j o k t u d iː l m i 
[154.375]
<no-speech> 
[161.565]
h ɯ 
[162.205]
<no-speech> 
[167.345]
h e ɾ a l d e oː ɟ y n d e ʃ e j <hes> ʃ e j <hes> ʧ o ʤ uː n ɾ u s a ɫ s ɯ k ɯ n t ɯ s ɯ j a d a ʃ e j ʧ a ɫ ɯ ʃ m a d ɯː j e ɾ l e ɾ d e n m i ɟ e l m i ʃ s e n e j a p m ɯ ʃ s a 
[176.065]
<no-speech> 
[177.365]
j a j a n ɫ ɯ ʃ ʤ e w a p ɫ a m ɯ ʃ h ɯ z ɫ ɯ h ɯ z ɫ ɯ ɟ i d e ɾ c e n 
[180.645]
<no-speech> 
[187.125]
<no-speech> 
[193.605]
h ɯ ʃ e j 
[194.455]
<no-speech> 
[206.325]
j a b i d e a ɫ ɯ ʃ ɯ n ʤ a b e n d e ø j l e d o k s a n ɯ n a ɫ t ɯ n d a b i ʃ e j ɟ ø ɾ m e j i n ʤ e d o k s a n j y z j y z e a ɫ ɯ ʃ t ɯ ɾ d ɯ j a 
[212.555]
<no-speech> 
[213.995]
ɟ ø ɾ y n ʤ e b ø j l e o ɫ u j o ɾ 
[215.375]
<no-speech> 
[220.975]
h ɯ z a t e n h e ɾ c e s e s o ɾ u j o ɾ d u b u s e n e 
[223.095]
<no-speech> 
[224.835]
h ɯ 
[225.425]
<no-speech> 
[232.42]
<no-speech> 
[239.415]
<no-speech> 
[243.705]
<no-speech> 
[252.045]
ʃ e j b i b i d e a ɫ d ɯː k u ɾ s t a o n a 
[254.605]
<no-speech> 
[256.425]
a ɫ d ɯː k u ɾ s t a <hes> i j i ʤ e ʃ e j o ɫ d u m u o n u n 
[259.345]
<no-speech> 
[265.005]
h ɯ e w e t b a j aː d a i j i d u ɾ u m 
[267.185]
<no-speech> 
[271.905]
k u ɾ s d a a b i <hes> j a ʃ e j j a p t ɯ o n u d a a i j i iː t i m a ɫ m ɯ ʃ t ɯ 
[277.725]
<no-speech> 
[282.025]
ʃ e j b u ʤ u m a ɾ t e s i ɟ i t t i j i k u ɾ s ɫ a ɾ o n a j a ɾ ɯ j o ɾ d iː l m i j o k s a eː l e n i j o ɾ ɫ a ɾ m ɯ a ʤ a b a 
[287.165]
<no-speech> 
[288.975]
b y t y n s ɯ n ɯ f ɟ i d i j o ɾ m u j o k s a 
[290.795]
<no-speech> 
[292.115]
j a ɾ ɯ j a ɾ ɯ j a d y ʃ t y 
[293.365]
<no-speech> 
[300.465]
<no-speech> 
[307.565]
<no-speech> 
[307.935]
<no-speech> 
[316.325]
h ɯ 
[316.745]
<no-speech> 
[319.205]
ɟ ø ɾ d y c 
[320.055]
<no-speech> 
[321.545]
s e n ʃ e j d e n s o n ɾ a b u s e n e h ɯ h ɯ b u s e n e d e s o n d iː l m i o k u ɫ u o n u n ʃ e j d e n ø t e c i s e n e ʃ e j e ɟ i d ʤ e c 
[327.915]
<no-speech> 
[331.485]
h ɯ <hes> h ɯ b a k b e n s a n a u n u t t u m oː b i ʃ e j s ø j l i ʤ e c t i m s a n a <breath> j a b i z i m <hes> b i a ɾ k ʃ e j w a ɾ d ɯ <hes> c e m a ɫ h a s t a ɾ e b e ɾ øː ɾ e t m e n a ʧ ɯː s e n i n c e m a ɫ h a s t a t a n ɯ d ɯ k øː ɾ e t m e n m i w a ɾ d i l e c m i w a ɾ d ɯ ø j l e b i ʃ e j l e ɾ d i j o ɾ d u n j o k 
[346.915]
<no-speech> 
[350.425]

[350.965]
<no-speech> 
[357.335]
j a b i ɾ e b e ɾ øː ɾ e t m e n i w a ɾ oː d a k a ɾ ʃ ɯ d a j m ɯ ʃ b u t a ɾ a f a d oː ɾ u t aː j i n i s t i j o ɾ d u a n a d o ɫ u l i s e s i n d e 
[365.045]
<no-speech> 
[365.935]
d e d i t a n ɯ b i l d i j i n o k u ɫ ɫ a ɾ n e w a ɾ d e d i o ɾ a ɫ a ɾ d a d e d i m b i z e j a k ɯ n oː c e m a ɫ <breath> 
[371.095]
<no-speech> 
[373.745]
j o k oː i ʃ t e <hes> i t e d iː j e ɾ l e ɾ o n u n ʃ i m d i e w a ɫ m ɯ ʃ ɫ a ɾ ʃ e j d e n <hes> i ʃ t e k a j ɯ n p e d e ɾ i n d e n c a ɫ m ɯ ʃ e w 
[382.335]
<no-speech> 
[384.195]
oː t a ɾ a f ɫ a ɾ a d oː ɾ u ɟ e l i ʤ e c m i ʃ ø j l e s ø j l e d i 
[387.025]
<no-speech> 
[388.295]

[389.085]
<no-speech> 
[390.535]
z a t e n oː h a j ɯ ɾ h a j ɯ ɾ oː d a ʃ e j d i j o ɾ j aː n i <breath> <hes> ʃ i m d i i n t e ɾ n e t t e n ɟ y n ʤ e l o ɫ m a d ɯː i ʧ i n ɟ ø ɾ e m i j o ɾ o n ɫ a ɾ ɯ u z a k t a d i j o ɾ a ʤ a b a w a ɾ m ɯ d i j o ɾ 
[402.975]
<no-speech> 
[408.145]
e j e ɾ ø j l e b i ʃ e j o ɫ u ɾ s a d a b i z i m i ʧ i n d e i j i o ɫ u ɾ e n a z ɯ n d a n k a j ɯ t t a b i z e d e j a ɾ d ɯ m ʤ ɯ o ɫ u ɾ i l e ɾ i d e o ɾ a j a 
[415.525]
<no-speech> 
[416.595]
j aː n i e j e ɾ <hes> b e i t n a s ɯ ɫ s a ø n y m y z d e c i s e n e ʃ e j j a p a ɾ s a o ɾ a j a ɟ i d e ɾ s e i j i o ɫ u ɾ o n u n i ʧ i n 
[421.685]
<no-speech> 
[429.035]
n e ɾ e j e 
[429.935]
<no-speech> 
[438.295]
h a j ɯ ɾ e j y b y d e m i j o m b e n b e i t i n ʃ e j d e c i b e i t i n ʃ e j d e c i ɟ e ɾ ʧ i 
[443.965]
<no-speech> 
[447.885]
h ɯ ʃ i m d i a n a d o ɫ u l i s e l e ɾ i o ɫ ʤ a k d e w a m ɯ 
[450.235]
<no-speech> 
[456.455]
<no-speech> 
[457.005]
<no-speech> 
[465.345]
h ɯ o n a ɟ ø ɾ e ʃ e j 
[466.615]
<no-speech> 
[468.095]
b i z e j a k ɯ n d a b i j e ɾ j o k o n u n i ʧ i n d e t e c ɾ a ɾ b i z e j a k ɯ n d a b i j e ɾ j o k o n u n i ʧ i n t e c ɾ a ɾ s e ɾ w i s t a ɾ z ɯ ʃ e j l e ɾ b a ʃ ɫ ɯ ʤ a k d iː l m i 
[475.455]
<no-speech> 
[477.505]
h ɯ 
[478.005]
<no-speech> 
[480.255]
j a oː c e m a ɫ h a s d a z a t e n t i ʤ aː ɾ e t ʃ e j a n a d o ɫ u l i s e s i o ɫ u ɾ oː y ʧ d ø ɾ t s e n e i ʧ i n d e z a t e n 
[485.485]
<no-speech> 
[491.405]
h ɯ i ʃ t e 
[492.475]
<no-speech> 
[497.335]
ɯ m h ɯ m s e n c a ʧ t a ʧ ɯ k ʤ a k s ɯ n o ɾ d a n 
[500.345]
<no-speech> 
[501.465]
a n o ɾ m a ɫ ʧ o k k a ɾ ɟ e l i j o ɾ m u ʃ h ɯ 
[505.015]
<no-speech> 
[508.395]
b a ʃ ɫ ɯ j o ɾ m u ʃ <breath> ʃ e j d i ʤ eː m c a ʧ t a ʧ ɯ k ʤ a k s ɯ n 
[511.495]
<no-speech> 
[512.725]
h ɯ ʧ o ʤ u k ɫ a ɾ ɯ a ɫ ʤ a k t ɯ m 
[514.295]
<no-speech> 
[520.125]
h ɯ 
[520.675]
<no-speech> 
[521.705]
b e n d e oː s aː t l e ɾ d e i ʃ t e d y c c a n ɯ c a p a t ɯ p ɟ e l i ɾ i m ʃ e j j a p a ɾ ɯ m j aː n i j e d i j e d i b u ʧ u k s e c i z ɟ i b i ʃ e j j a p a j ɯ m 
[528.265]
<no-speech> 
[529.155]
o n a ɟ ø ɾ e b a c a ɾ ɯ m 
[530.425]

[533.265]
b u ɟ y n n e w a ɾ t e l e w i z j o n d a 
[536.325]
<no-speech> 
[543.475]
n e ø j l e b i ɟ e ʧ e ɾ m i w a ɾ d ɯ n e w a ɾ 
[545.695]
<no-speech> 
[548.465]
h ɯ <hes> s i n e m a s e j ɾ e d e l i m f i l m s e j ɾ e d e l i m h e p b e ɾ a b e ɾ d i j o ɾ d u d a 
[556.885]
<no-speech> 
[558.975]
aː i l e 
[559.685]
<no-speech> 
[563.625]
n eː j n e i s t i j o n n eː j 
[566.085]
<no-speech> 
[570.775]
<hes> ʃ e j d e w a ɾ d ɯ ɾ o ɾ d a n 
[572.605]
<no-speech> 
[574.895]
b a b a m ɯ n oː ɫ u m u b a b a m w e oː ɫ u n m u 
[576.965]
<no-speech> 
[578.685]
h ɯ 
[579.365]
<no-speech> 
[581.915]
h ɯ 
[582.555]
<no-speech> 
[584.795]
h ɯ a n ɫ a d ɯ m ʃ e j d e n <hes> o n ɫ a ɾ ʃ u a n ʃ e j d e m i s i n e m a d a m ɯ o j n u j o ɾ j o k s a 
[589.825]
<no-speech> 
[596.185]
ɟ y l s e j i t b e j e s ø j l iː m oː 
[597.805]
<no-speech> 
[599.495]
oː 
[599.98]
