[0.0]
<no-speech> 
[8.615]
a ɫ o 
[9.225]
<no-speech> 
[11.825]
a ɫ o 
[12.525]
<no-speech> 
[14.295]
a ɫ o 
[14.955]
<no-speech> 
[16.905]
a b ɫ a n e j a p ɯ j o n a ɫ o 
[20.085]
<no-speech> 
[22.015]
b e n i d u j b e n i d u j u j o ɾ m u s u n 
[23.665]
<no-speech> 
[24.835]
b e n d e s e n i d u j u j o m n e j a p ɯ j o n i j i m i s i n 
[28.255]
<no-speech> 
[31.805]
ʧ o k ɟ y z e l <no-speech> ʧ o k ɟ y z e l s i n 
[34.335]
<no-speech> 
[35.805]
e ɾ c e c k a ɾ d e ʃ i n l e c aː t o j n e o j n u j o ɾ s u n u z 
[38.225]
<no-speech> 
[39.835]
<laugh> n e o j n u j o ɾ s u n u z 
[42.035]
<no-speech> 
[44.645]
a n ɫ a d ɯ m <breath> j a u b e n s a n a n e a n b e n s a n a n e a n ɫ a t ʤ aː m 
[48.175]
<no-speech> 
[52.715]
b e n d y n a k ʃ a m n ø b e t ʧ i j d i m j a 
[54.535]
<no-speech> 
[56.015]
b e n b i a j b o j u n ʤ a d a a n ø b e t t u t m a k i s t e m i j o m l y t f e n l y t f e n b y n j e j e j a z ɯ k 
[60.955]
<no-speech> 
[64.794875]
<no-speech> n e o ɫ d u s o ɾ u n m u j d u 
[69.215]
<no-speech> 
[70.885]
j o u n d u d i j o m s o 
[73.495]
<no-speech> 
[76.095]
n e z e k a s ɯ b y t y n k o m p l e <hes> c i t l e ɾ i n h e p s i n i d ɯ ʃ a ɾ ɯ j o ɫ ɫ a d ɯ m j a t e s t l e ɾ i n h e p s i n i <no-speech> a ɾ ɯ j o ɾ d u m a ɾ t ɯ k m e t ɾ o p o l d e c i ʧ o ʤ u k d i j o ɾ c i n e c a d a ɾ d ɯ ɾ ʧ a ɫ ɯ ʃ ɯ j o s u n u z k ɯ ɾ k k ɯ ɾ k b e ʃ h a f t a ɟ e l i j o ɾ d e d i m ɟ e ʤ e d e a m a ʃ e j d e d i j a d e d i b i z e b i l e oː k a d a ɾ ɟ e l m i j o ɾ d e d i <breath> s a b a b e n k a m e ɾ e a ɫ t ɯ d a j o ɫ ɫ a d ɯ m a m a 
[95.915]
<no-speech> 
[96.715]
t eː j eː p eː l e ɾ i b a n a d i j o ɾ c i d o k u z b u ʧ u k o n d a ʧ ɯ c a ɾ 
[99.635]
<no-speech> 
[100.515]
o n a b e n d e d e d i m c i n e j a p ɯ j o n <laugh> s e n j a d o k u z b u ʧ u k b e n d e d i m b e ʃ ɾ a k a m ɫ a ɾ ɯ s i l d i m s a n a e ɾ c e n ʧ ɯ k s ɯ n d i j e 
[106.685]
<no-speech> 
[107.875]
d o k u z d a f a ɫ a n ʧ ɯ k t ɯ 
[109.855]
<no-speech> 
[111.735]
o n a n e j a p t ɯ m b e n h a b u a ɾ a d a f i z m o ʒ e l c i t i m i z b i t t i 
[115.265]
<no-speech> 
[116.575]
n e 
[117.075]
<no-speech> 
[119.945]
<no-speech> 
[120.335]
<no-speech> 
[121.415]
f i z m o ʒ e l c i t i m i z d e b i t t i b u a ɾ a d a ɟ ø z y n y z a j d ɯ n h a j ɯ ɾ ɫ ɯ uː ɾ ɫ u o ɫ m u ʃ t u n 
[125.515]
<no-speech> 
[131.635]
aː b e n m e t ɾ o p o l i t a n a j o ɫ ɫ a d ɯ m s a b a h c i n i 
[134.115]
<no-speech> 
[136.105]
b e n i j i j i m j a u n e o ɫ a j ɯ m 
[137.635]
<no-speech> 
[139.205]
j o k j a t t ɯ m c a ɫ k t ɯ m b u ɟ y n 
[140.965]
<no-speech> 
[142.795]
s a b a ʧ ɯ k t ɯ m e w e t 
[143.985]
<no-speech> 
[147.365]
b i d e b i ʃ e j s ø j l i j ʤ eː m s a n a b e n i h a f t a j a p a z a ɾ n ø b e t e j a z m ɯ ʃ t ɯ n j a 
[151.665]
<no-speech> 
[153.555]
m y m c y n s e b i b a ʃ k a s ɯ n a w e ɾ e w e t ø j l e j a p m ɯ ʃ t ɯ n b a ʃ k a s ɯ n a w e ɾ 
[157.735]
<no-speech> 
[160.395]
b a n a j a z ɯ k d iː l m i 
[161.645]
<no-speech> 
[164.165]
eː b a n a j a z ɯ k d iː l m i 
[165.775]
<no-speech> 
[167.315]
b e n s e n i n e n s e w d iː n e l e m a n ɯ m e n ɟ y z e l e l e m a n ɯ n e n i j i e l e m a n ɯ m <laugh> e n m u t ɫ u e l e m a n ɯ m 
[173.175]
<no-speech> 
[177.665]
<no-speech> 
[178.305]
<no-speech> 
[181.635]
j aː n i b e n i m oː p i l a n ɫ a ɾ ɯ m a ɾ a s ɯ n d a ɟ e l i ʃ e ɟ e l m e c w a ɾ oː ɟ y n c y p i l a n ɫ a ɾ ɯ m ɯ n a ɾ a s ɯ n d a oː o n u k o j d u m j aː n i s a b a o n b u ʧ u k ɟ i b i ɟ e l i ɾ i m 
[189.145]
<no-speech> 
[193.055]
s a n a u j a ɾ m ɯ o n b u ʧ u k o n b u ʧ u k u j a ɾ m ɯ <laugh> 
[196.135]
<no-speech> 
[203.745]
<no-speech> 
[204.295]
<no-speech> 
[205.195]
<laugh> t a m a m b e n d e a k ʃ a m d a i c i b u ʧ u k t a ʧ ɯ k a ɾ ɯ m d i j o ɾ d u m 
[210.305]
<no-speech> 
[212.625]
j aː n i ø j l e i c i i c i b u ʧ u k <laugh> b e n ʤ e ʧ o k b i l e 
[217.565]
<no-speech> 
[222.955]
<laugh> j o k b i ʃ e j d iː l b u ɫ s a m h i ʧ f e n aː o ɫ m a z a s ɫ ɯ n d a a ɫ o b u ɫ s a m h i ʧ f e n aː o ɫ m a z a s ɫ ɯ n d a 
[230.035]
<no-speech> 
[230.955]
b i w o t k a b i ʃ i ʃ e ʃ a ɾ a p ɟ y z e l o ɫ u ɾ 
[233.505]
<no-speech> 
[234.525]
<no-speech> 
[235.105]
<no-speech> 
[238.675]
e w e t 
[239.675]
<no-speech> 
[241.425]
n u ɾ ɟ y l l e <no-speech> s a b a j i n e ɟ e ʧ ɟ e l d i n u ɾ ɟ y l l e 
[245.055]
<no-speech> 
[249.865]
j o k s e c i z e d e s e c i z b u ʧ uː ɟ e ʧ m i ʃ t i d o k u z a d oː ɾ u j d u 
[253.325]
<no-speech> 
[258.295]
<no-speech> h a n e d e d i s a n a 
[260.495]
<no-speech> 
[269.455]
b u a ɾ a d ɯ m ɯ b i d a a 
[270.645]
<no-speech> 
[272.115]
ʧ o k ɟ e ɾ e c s i z b i ʃ e j d i ɾ 
[273.595]
<no-speech> 
[275.915]
d y n n i j e i z i n a ɫ d ɯː n ɯ s a n a s ø j l e d i m i 
[278.385]
<no-speech> 
[280.345]
h ɯ j a b a n a s ø j l e m e d i m e ɾ a k <no-speech> 
[291.755]
j a ɫ a n j a u b y t y n h a j <hes> h a j aː t ɯ j a ɫ a n ʧ i f t a j a k y s t y n d e k ɯ ɾ k t a n e j a ɫ a n s ø j l y j o ɾ 
[297.105]
<no-speech> 
[303.785]
n a s ɯ ɫ d ɯ 
[304.725]
<no-speech> 
[307.295]
n a s ɯ ɫ d ɯ f i l m 
[308.535]
<no-speech> 
[310.745]
ɯ m h ɯ m p a z a ɾ t e s i b i b i l e t a ɫ a n a b i b i l e t b e d aː w a oː z a m aː n b e n ɟ i d e b i l i ɾ i m 
[315.315]
<no-speech> 
[320.965]
oː z a m aː n b e n i ʃ e <hes> ɟ e l m e k t e n k o m p l e w a z ɟ e ʧ t i m s i n e m a j a ɟ i d ʤ eː m ʧ y n c y b i l ɟ i n o ɫ m u ʃ t u n 
[326.105]
<no-speech> 
[329.775]
<no-speech> 
[330.225]
<no-speech> 
[334.875]
eː j aː n i b e n o ɾ d a b i t a n e k o ɾ k u f i l m i n e ɟ i t m i ʃ t i m j a y ʧ d eː <no-speech> e f e n d i m 
[339.695]
<no-speech> 
[341.695]
y ʧ d eː b i t a n e k o ɾ k u f i l m i n e ɟ i t m i ʃ t i m d e <no-speech> j aː n i k o ɫ t u u n a ɫ t ɯ n a m ɯ ɟ i ɾ s e m y s t y n e m i <laugh> ʧ ɯ k s a m j a n ɯ m d a c i n i n k u ʤ aː n a m ɯ o t u ɾ s a m a ɾ t ɯ k c a ɾ a ɾ w e ɾ e m e d i m j aː n i 
[352.715]
<no-speech> 
[356.095]
e f e n d i m 
[356.725]
<no-speech> 
[359.145]
ʃ e j d e m i ʤ e w a i ɾ ɟ i b i <hes> b y j y c ɟ ø z l y k l e ɾ l e m i ɟ i t t i n i z j o k s a ɟ y n e ʃ ɟ ø z l yː ɟ i b i o ɫ a n ɫ a ɾ ɫ a m ɯ 
[364.625]
<no-speech> 
[374.925]
ø n ʤ y ɟ y z e l d i ʤ e w a i ɾ d e m i ɟ i t t i n i z n e ɾ e d e ɟ i t t i n i z 
[377.795]
<no-speech> 
[384.255]
aː ʃ e j d e c i ʧ o k ɟ y z e l 
[385.835]
<no-speech> 
[387.085]
o aː f i j e t o ɫ m u ʃ t u n 
[388.525]
<no-speech> 
[394.155]
a s t o ɾ j a d a b i ɟ y n b i d a a s i n e m a j a ɟ i d e l i m 
[396.345]
<no-speech> 
[397.955]
a s t o ɾ j a d a b i ɟ y n b i d a a s i n e m a j a ɟ i d e l i m 
[400.405]
<no-speech> 
[402.315]

[403.025]
<no-speech> 
[405.865]
o n j e d i ʃ u a n 
[406.865]
<no-speech> 
[408.305]
j e i o n <no-speech> 
[411.395]
o n j e d i m i l j o n ʃ u a n d a o ɾ d a y ʧ d eː 
[413.375]
<no-speech> 
[416.025]
ʧ o k k a ɫ 
[416.805]
<no-speech> 
[417.675]
e w e t 
[418.245]
<no-speech> 
[420.825]
a m a i n s a n ɫ a ɾ t u w a l e t l e ɾ e b i l e l eː ʤ eː d eː t e l e w i z j o n k o j m u ʃ j aː n i 
[426.065]
<no-speech> 
[434.315]
a m a ɟ y z e l j aː n i o ɾ a j ɯ b e n ʧ o k s e w d i m 
[436.535]
<no-speech> 
[439.105]
b i d e ʃ e j ʧ o k ɟ y z e l 
[440.505]
<no-speech> 
[443.505]
b a b a m <no-speech> e n s o n n e z a m aː n ɟ i t t i m i c i h a f t a ø n ʤ e <laugh> f a ɫ a n ɟ i t t i m 
[449.115]
<no-speech> 
[452.225]
b i d e ø j l e ɟ y z e l b i ɾ e c ɫ a m j o k t u h e p e s c i ɾ e c ɫ a m ɫ a ɾ d ø n y j o ɾ d u 
[455.255]
<no-speech> 
[465.875]
a d ɯ n e 
[466.555]
<no-speech> 
[469.495]
a d ɯ n e 
[470.175]
<no-speech> 
[472.995]
h ɯ ʃ e j 
[474.225]
<no-speech> 
[475.225]
ʃ e j w a ɾ j a u b i d e <no-speech> oː ʧ i z m e l i c e d i j i b e n i z l e d i m j a oː ʧ o k ɟ y z e l d iː l d i 
[480.265]
<no-speech> 
[484.805]
b i d e <no-speech> f i l m i z l e d i n m i b u ɟ y n s e n e w d e 
[487.195]
<no-speech> 
[493.255]
e w d e f i l m i z l e ɾ 
[495.045]
<no-speech> 
[496.435]
b i t u t a m ʤ e n n e t 
[497.845]
<no-speech> 
[499.335]
ʧ o k ɟ y z e l f i l m 
[500.355]
<no-speech> 
[507.135]

[507.795]
<no-speech> 
[510.335]
b a ʃ ɫ a ɾ ɯ b iː ɾ a z a m a s o n ɾ a ɟ e ʧ i j o ɾ 
[513.355]
<no-speech> 
[514.514875]
h a n ɟ i f i l m i i z l e d i n 
[515.985]
<no-speech> 
[522.034875]
h ɯ 
[522.465]
<no-speech> 
[525.735]
ʧ o k ɟ y z e l d iː l m i ʃ oː 
[526.965]
<no-speech> 
[534.335]
j a ɾ ɯ n h a w a ɟ y z e l o ɫ u ɾ s a b a ɫ ɯ k e c m e c j e m e j e ɟ i d e l i m 
[537.015]
<no-speech> 
[539.135]

[539.665]
<no-speech> 
[541.435]
b a ɫ ɯ k e c m e c 
[542.355]
<no-speech> 
[549.915]
d u j d u n m u b e n i 
[550.765]
<no-speech> 
[553.335]
n i j e s a n a d a m ɯ i z i n w e ɾ m i j o ɾ a n n e n 
[555.755]
<no-speech> 
[561.195]
a n ɫ a d ɯ m j a u b i d e <no-speech> ɟ y z e l o ɫ u ɾ s a d i j e d i j o z a m a 
[564.725]
<no-speech> 
[568.375]
ɟ y z e l o ɫ u ɾ m u b i l m i j o m e m i n e 
[570.945]
<no-speech> 
[571.815]
o t u ɾ u j o ɾ n e j a p s ɯ n 
[573.065]
<no-speech> 
[574.305]
c e n d i n e b a k ɯ j o ɾ h e ɾ z a m aː n c i ɟ i b i s y s l y e w i n s y s l y s y <breath> s a ɯ j ɫ a s o ɫ u j ɫ a m e ʃ g u ɫ 
[580.015]
<no-speech> 
[582.655]
b e n ɟ e ʧ e n ɟ y n b i m a ʤ e ɾ a m w a ɾ 
[584.655]
<no-speech> 
[588.775]
p a z a ɾ t e s i ɟ y n y e w e t 
[590.225]
<no-speech> 
[593.315]
m a ʤ e ɾ a m ɯ 
[594.295]
<no-speech> 
[596.985]
d o k t o ɾ c i t m i s a j a ʤ a k 
[598.535]
<no-speech> 
[600.0]
