[0.0]
<no-speech> 
[5.085]
a ɫ o 
[5.705]
<no-speech> 
[7.905]
a ɫ o 
[8.585]
<no-speech> 
[9.615]
a ɫ o j aː s e m i n n e j a p ɯ j o n 
[11.185]
<no-speech> 
[12.395]
a ɫ o 
[13.095]
<no-speech> 
[16.015]
i j i j i m <no-speech> ɟ e l i j o ɾ ʤ a n ɯ m b e n i m s e s i m ɟ e l i j o ɾ m u s a n a 
[19.785]
<no-speech> 
[21.915]
a ɫ o 
[22.665]
<no-speech> 
[26.295]
t a b i ʤ a n ɯ m k o n u ʃ u ɾ u m n e j a p ɯ j o n i j i m i s i n 
[28.785]
<no-speech> 
[31.375]
a ɫ o 
[32.105]
<no-speech> 
[33.055]
i j i j i m b e n d e n a s ɯ ɫ o ɫ a j ɯ m o t u ɾ u j o m d e d i m b i a ɾ a j a j ɯ m 
[35.805]
<no-speech> 
[36.755]
s e s i n ɟ e l i j o ɾ a m a b e n i m c i b iː ɾ a z ɟ e l m i j o ɾ ɟ aː l i b a 
[39.695]
<no-speech> 
[41.935]
ɟ e l m i j o ɾ m u s e s i m 
[43.165]
<no-speech> 
[44.065]
ɟ e l i j o ɾ m u 
[44.765]
<no-speech> 
[45.765]
ɯ m h ɯ m 
[46.475]
<no-speech> 
[48.695]
t a m a m ʤ a n ɯ m s aː o ɫ n e j a p ɯ j o n i j i m i s i n 
[51.305]
<no-speech> 
[55.585]
i j i j i m b e n d e n a s ɯ ɫ o ɫ a j ɯ m i ʃ t e n a s ɯ ɫ ɟ i d i j o ɾ ɟ e l d i n m i y n i w e ɾ s i t e d e n 
[59.465]
<no-speech> 
[63.405]
ɟ e l d i n m i d i j o m <no-speech> e d i ɾ n e d e n ɟ e l d i n m i 
[66.255]
<no-speech> 
[71.245]
h ɯ i j i h a d i h o ʃ ɟ e l d i n 
[73.405]
<no-speech> 
[79.255]
h e ɾ ʃ e j i j i n o ɫ s u n i ʃ t e b e n d e ʧ a ɫ ɯ ʃ ɯ j o m f a ɫ a n i ʃ ɟ y ʧ 
[82.685]
<no-speech> 
[87.645]
n e j a p ɯ j o n p e c i ʃ i m d i ɟ e l i n ʤ e 
[89.465]
<no-speech> 
[90.305]
s ɯ t a ʒ f a ɫ a n j a p ɯ j o ɾ m u s u n j o k s a u n i v e ɾ i t e s ɯ t a ʒ j a p ɯ j o ɾ m u s u n u z j o k s a y n i w e ɾ s i t e b i t t i c t e n s o n ɾ a m ɯ 
[96.945]
<no-speech> 
[102.835]
h ɯ 
[103.455]
<no-speech> 
[104.395]
b i ʃ e j l e ɾ j a p t ɯ ɾ m ɯ j o ɾ ɫ a ɾ b e n ʃ e j d u j m u ʃ t u m a ɾ a d ø n e m d e s ɯ t a ʒ j a p ɯ ɫ ɯ j o ɾ d i j e d u j m u ʃ t u m a m a 
[109.035]
<no-speech> 
[115.185]
i j i ɟ y z e l m i ʃ 
[116.265]
<no-speech> 
[117.635]
ɟ y z e l m i ʃ d a a i j i b o ʃ w e ɾ <laugh> 
[119.575]
<no-speech> 
[122.415]
n e ɾ d e ʧ a ɫ ɯ ʃ m a j ɯ d y ʃ y n y j o n p e c i 
[124.325]
<no-speech> 
[133.475]
<no-speech> 
[142.625]
ɟ y z e l m i ʃ 
[143.525]
<no-speech> 
[144.975]
ɟ y z e l m i ʃ s e ɾ t i f i k a f a ɫ a n w e ɾ d i l e ɾ m i b e n ø j l e d u j d u m 
[148.385]
<no-speech> 
[149.755]
k ɯ s m e t ʤ a n ɯ m 
[150.675]
<no-speech> 
[152.345]
s e ɾ t i f i k a f a ɫ a n w e ɾ d i l e ɾ m i b e n d u j d u m h e p <no-speech> s e ɾ t i f i k a <no-speech> y n i w e ɾ s i t e l e ɾ d e h e p b ø j l e <hes> 
[158.255]
<no-speech> 
[159.355]
j o k w e ɾ d i l e ɾ m i d a a ø n ʤ e b e n d u j d u m y n i w e ɾ s i t e l e ɾ d e h e p <no-speech> e w e t g ɯ d a t e c n o l o ʒ i 
[164.665]
<no-speech> 
[169.315]
ɯ m h ɯ m 
[169.855]
<no-speech> 
[176.15]
<no-speech> 
[182.445]
e w e t 
[183.065]
<no-speech> 
[189.215]
h ɯ a n ɫ a d ɯ m ʤ a n ɯ m j a b e n ø j l e d u j m u ʃ t u m d a g ɯ d a t e c n o l o ʒ i l e ɾ i i ʧ i n f a ɫ a n b e n i m k u z e n i m o k u j o ɾ d u <breath> d a a i l k s e n e d e b i s y ɾ y s e ɾ t i f i k a s ɯ w a ɾ d ɯ b e l c i s i z i n i ʧ i n d e w e ɾ i j o ɾ ɫ a ɾ d ɯ ɾ s a n d ɯ m 
[199.055]
<no-speech> 
[205.435]
ɯ m h ɯ m d a a i j i n e j s e d a a ɟ y z e l b o ʃ w e ɾ 
[209.225]
<no-speech> 
[216.105]
e l i f n a p ɯ j o ɾ 
[217.265]
<no-speech> 
[223.945]
ɯ m h ɯ m 
[224.695]
<no-speech> 
[230.95]
<no-speech> 
[237.205]
j a z ɯ k j a <no-speech> b i l i j o m j a o n ɫ a ɾ e l i f ʧ o k y z y l y j o ɾ 
[241.805]
<no-speech> 
[247.575]
ɯ m h ɯ m 
[248.025]
<no-speech> 
[251.535]
b e n n e j a p t ɯ m d e ɾ s ʧ a ɫ ɯ ʃ m a j a f a ɫ a n ʧ a ɫ ɯ ʃ a j ɯ m d e d i m b u ɟ y n ø j l e b iː ɾ a z ʧ a ɫ ɯ ʃ t ɯ m b a k a ɫ ɯ m t e c ɾ a ɾ h a z ɯ ɾ ɫ a n m a j a ʧ a ɫ ɯ ʃ ʤ aː m a m a n e k a d a ɾ h a z ɯ ɾ ɫ a n ɯ ɾ ɯ m b i l m i j o m 
[260.785]
<no-speech> 
[262.015]
j o k j a d e ɾ s a n e j e ɟ i t m i j o m e w d e c e n d i m e ʧ a ɫ ɯ ʃ ʤ aː m c i t a p f a ɫ a n a ɫ d ɯ m b i s y ɾ y o n ɫ a ɾ ɫ a ʧ a ɫ ɯ ʃ ʤ aː m 
[267.245]
<no-speech> 
[272.135]
ʃ i m d i l i c ʧ o k j o w u n h a s t a n e d e b u a ɾ a ɫ a ɾ d a b u o n b e ʃ t a t i l ɟ e l d i j a b e l c i b iː ɾ a z d a a i j i o ɫ u ɾ oː z a m aː n ʧ a ɫ ɯ ʃ ɯ ɾ ɯ m d i j e d y ʃ y n y j o m 
[278.965]
<no-speech> 
[284.945]
ø j l e j a <no-speech> i n ʃ a ɫ ɫ a z a t e n b u s e f e ɾ o ɫ m u ʃ t u n i s t i j o m ʧ o k s ɯ k ɯ ɫ d ɯ m ʧ o k j o ɾ u j o ɾ i n s a n ɯ s a b a s e c i z a k ʃ a m a ɫ t ɯ a m a ʧ o k j o ɾ u ɫ u j o n 
[295.345]
<no-speech> 
[299.985]
w a ɫ ɫ aː i ʃ t e c i m s e j l e ɟ ø ɾ y ʃ m y j o m b i c i b a ɾ ɫ a ɟ ø ɾ y ʃ y j o m b i a j d ɯ n ɫ a s y ɾ e c l i h a b e ɾ l e ʃ i j o z m e s a ʒ ɫ a ʃ ɯ j o m o n u n d ɯ ʃ ɯ n d a h i ʧ c i m s e j l e ɟ ø ɾ y ʃ m y j o m 
[306.795]
<no-speech> 
[314.155]
i n ʃ a ɫ ɫ a j aː n i h a ɫ a j b e c l i j o m 
[316.255]
<no-speech> 
[317.985]
i n ʃ a ɫ ɫ a o ɫ u ɾ j aː n i b e n d e h e p s ø j l y j o m z a t e n a m a ɟ e l e n ɟ i d e n j o k j aː n i 
[323.635]
<no-speech> 
[334.415]
d e i ʃ m e z c i z a t e n h e p a j n ɯ d iː ʃ m i j o ɾ c i 
[337.935]
<no-speech> 
[339.075]
ʃ u s i z i n c i l e ɾ b i d iː ʃ t i d e y n i w e ɾ s i t e j e f a ɫ a n ɟ i t t i n i z b i z h aː l aː a j n ɯ c a ɫ d ɯ k 
[343.795]
<no-speech> 
[349.885]
j o k j a ʃ e j j a p m ɯ j o m z a t e n 
[351.285]
<no-speech> 
[352.745]
b u s e f e ɾ u m u t ɫ u j u m z a t e n ɟ i ɾ e ɾ i m d i j e d y ʃ y n y j o m ʧ a ɫ ɯ ʃ m a k i s t i j o m ɟ e ɾ ʧ e c t e n 
[357.155]
<no-speech> 
[360.985]
i n ʃ a ɫ ɫ a o ɫ u ɾ i ʃ t e b i l m i j o m j aː n i i n ʃ a ɫ ɫ a o ɫ u ɾ d i j o m ʧ y n c y ʧ o k s ɯ k ɯ ɫ d ɯ m 
[366.925]
<no-speech> 
[372.905]
ɯ m h ɯ m 
[373.495]
<no-speech> 
[377.065]
b u ɾ a d a n t a ʃ ɯ n ʤ a k s ɯ n ɯ z t a ʃ ɯ n m a j ɯ d y ʃ y n y j o ɾ m u s u n u z 
[379.465]
<no-speech> 
[384.125]
b u ɾ d a t a ʃ ɯ n ʤ a k s ɯ n ɯ z d i j o m h aː l aː t a ʃ ɯ n m a j ɯ d y ʃ y n y j o ɾ m u s u n u z 
[387.445]
<no-speech> 
[396.275]
h ɯ n e t a ɾ a f a ɟ i t n e t a ɾ a f a ɟ i t m e j i d y ʃ y n y j o s u n u z 
[399.425]
<no-speech> 
[407.645]
<no-speech> 
[415.865]
k a w a ʤ ɯ k ɟ y z e l m i ʃ h e m d a a i j i j m i ʃ b e n a ɾ k a d a ʃ ɯ m o t u ɾ u j o ɾ d a o ɾ d a <breath> u ɫ a ʃ ɯ m f a ɫ a n i j i j m i ʃ 
[421.855]
<no-speech> 
[425.125]
i ʃ t e s e s i n b iː ɾ a z k ɯ s ɯ k k ɯ s ɯ k ɟ e l i j o ɾ 
[427.335]
<no-speech> 
[429.595]
n i j e k a w a ʤ ɯ a ɟ i t m i j o n z k a w a ʤ ɯ k ʧ o k ɟ y z e l 
[432.245]
<no-speech> 
[440.89]
<no-speech> 
[449.535]

[450.215]
<no-speech> 
[451.825]
b u ɾ d a c a ɫ ɯ ɾ s ɯ n ɯ z b o ʃ w e ɾ d a a i j i ɟ i t m e z s i n i z e n i j i s i b u ɾ a s ɯ 
[456.785]
<no-speech> 
[468.6]
<no-speech> 
[480.415]
i n ʃ a ɫ ɫ a u j g u n j e ɾ b u ɫ u ɾ s u n u z j aː n i o ɫ u ɾ s a ɟ y z e l b i j e ɾ o ɫ u ɾ h e j e ʤ a n ɫ ɯ f a ɫ a n i j i o ɫ u ɾ 
[485.915]
<no-speech> 
[489.995]
o ɫ u ɾ s a d i j o m ʧ o k i j i o ɫ u ɾ h e p i n i z i ʧ i n h e m d a a i j i h e m h e j e ʤ a n ɫ ɯ 
[493.475]
<no-speech> 
[503.145]
t e j z e n l e ɾ f a ɫ a n y s c y d a ɾ d a j d ɯ d iː l m i 
[505.885]
<no-speech> 
[509.705]
ɯ m h ɯ m t a b iː a n n e n i ʧ i n y s c i d a ɾ d a a i j i d a a ʧ o k s e w e ɾ <laugh> y s c y d a ɾ ɯ d a a ʧ o k s e w e ɾ <no-speech> d a a ʧ o k z a t e n h e p o ɾ d a 
[517.855]
<no-speech> 
[520.255]
eː d a a i j i ɟ i t i ʃ t e y s c y d a ɾ a e n i j i s i e n ɟ y z e l i 
[523.064875]
<no-speech> 
[527.215]
y s c y d a ɾ a ɟ i d i n d i j o m d a a i j i h e m a k ɾ a b aː ɫ a ɾ ɯ n ɯ z ɫ a o ɫ m u ʃ o ɫ u ɾ s u n u z w a c i t ɟ e ʧ i ɾ i ɾ s i n i z 
[531.665]
<no-speech> 
[541.315]
d a a i j i 
[542.375]
<no-speech> 
[544.485]
a b ɫ a m d a i ʃ t e a j n ɯ a b ɫ a m ɯ n j a n ɯ n d a ʧ a ɫ ɯ ʃ ɯ j o m ʃ i m d i z a t e n b i ɾ l i c t e ʧ a ɫ ɯ ʃ ɯ p ɟ i d i p ɟ e l i j o z oː w e z n e d e f a ɫ a n t͡ʃ a l ɯ ʃ ɯ j o i ʃ t e oː b u s a b a n ø b e t t e n ʧ ɯ k t ɯ ɟ i d i ʤ e z d e d i 
[555.095]
b i s y ɾ y j aː m u ɾ j a g ɯ j o ɾ n e ɾ e j e ɟ i d i j o n 
[557.305]
<no-speech> 
[560.255]
j o k b e d a a b e c a ɾ n e e w l e n m e s i 
[562.445]
<no-speech> 
[564.865]
e w l e n m e j i d y ʃ y n m y j o ɾ d a a 
[566.375]
<no-speech> 
[567.285]
<laugh> e w l e n m i ʤ eː m i n ʃ a ɫ ɫ a a z c a ɫ d ɯ j a 
[570.545]
<no-speech> 
[572.825]
s e w ɟ i l i s i a s c e ɾ e ɟ i t m e d i j a oː j y z d e n d a a e w l e n m e j i d y ʃ y n m y j o ɾ ɫ a ɾ 
[575.975]
<no-speech> 
[582.575]
ɯ m h ɯ m e w e t j o k b u 
[584.315]
<no-speech> 
[585.885]
<no-speech> 
[587.305]
<no-speech> 
[588.235]
j i ɾ m i a ɫ t ɯ 
[589.355]
<no-speech> 
[593.215]
e w e t 
[593.875]
<no-speech> 
[596.225]
h ɯ 
[596.665]
<no-speech> 
[598.615]

[599.115]
<no-speech> 
[599.98]
