[0.0]
<no-speech> 
[5.295]
a ɫ o 
[5.915]
<no-speech> 
[10.475]
i j i j i m s e n n e j a p ɯ j o n 
[11.905]
<no-speech> 
[13.725]
a ɫ o 
[14.435]
<no-speech> 
[19.115]
e w e t ɟ e l i j o ɾ 
[20.265]
<no-speech> 
[29.045]

[29.475]
<no-speech> 
[35.895]
b e n l e m i k o n u ʃ u j o n 
[38.735]
<no-speech> 
[42.715]
<hes> t a m a m 
[43.775]
<no-speech> 
[49.215]
j a s e s i n ʧ o k b ø j l e d iː ʃ i c ɟ e l d i u z a k t a n 
[53.285]
<no-speech> 
[57.605]
<hes> t a m a m 
[58.555]
<no-speech> 
[63.815]
<hes> 
[64.374875]
<no-speech> 
[65.405]
<hes> 
[65.855]
<no-speech> 
[74.48]
<no-speech> 
[83.105]
<laugh> h a d i j a 
[85.085]
<no-speech> 
[91.355]
<no-speech> 
[97.625]
<hes> 
[98.145]
<no-speech> 
[101.255]
i j i h a d i ɟ ø z y n a j d ɯ n ɾ e s i m i ʃ l e ɾ i n i n e j a p t ɯ n 
[104.475]
<no-speech> 
[108.865]
f o t oː ɾ a f f a ɫ a n ʧ e c e ʤ e c t i n o n ɫ a ɾ ɯ n e j a p t ɯ n h a l l e t t i n m i 
[112.045]
<no-speech> 
[122.995]
oː 
[123.685]
<no-speech> 
[125.375]

[126.955]
<no-speech> 
[132.885]
h a d i j a 
[133.655]
<no-speech> 
[136.185]
n e k o n u ʃ t u n u z 
[137.295]
<no-speech> 
[142.705]
<hes> b a ʃ k a d e ɾ s a n e j e ɟ e ʧ m e d e d i 
[145.615]
<no-speech> 
[150.155]
b a ʃ k a d e ɾ s a n e j e ɟ i t m i ʤ e c j aː n i 
[152.605]
<no-speech> 
[160.815]
<hes> 
[161.325]
<no-speech> 
[164.275]
<no-speech> 
[164.685]
<no-speech> 
[165.775]
w e ɾ i ɾ w e ɾ i ɾ b u ɟ y n k o n u ʃ t uː m a ɟ ø ɾ e 
[169.005]
<no-speech> 
[170.685]
j a s o n u n d a b e n s a n a s e n h a k ɫ ɯ j d ɯ n h a l i m e a b ɫ a d e d i ɾ t e ʤ e c m i j i m d e d i ɾ t ʤ eː m 
[175.465]
<no-speech> 
[183.115]
<no-speech> 
[183.495]
<no-speech> 
[184.405]
<no-speech> 
[184.755]
<no-speech> 
[188.065]
b i ʃ e j o ɫ m a z m e ɾ a k e t m e 
[189.805]
<no-speech> 
[200.705]
<hes> 
[204.485]
<no-speech> 
[208.445]
f e j s t e ɟ ø ɾ d yː m d e d i j o m b e n d e k o n u ʃ u ɾ u m 
[211.115]
<no-speech> 
[214.185]
d e ɾ i m b ø j l e b ø j l e j a z ɯ k ʧ o ʤ u a 
[216.495]
<no-speech> 
[218.885]
<hes> 
[219.345]
<no-speech> 
[224.835]

[225.305]
<no-speech> 
[229.975]
n e k a d a ɾ 
[230.755]
<no-speech> 
[236.585]
<hes> a m a n z a t e n ɟ e ɾ e c m e z c i oː k a d a ɾ h e d i j e a ɫ m a n a d a ɟ e ɾ e c j o k z a t e n 
[242.745]
<no-speech> 
[249.675]
j a u b o ʃ w e ɾ oː k a d a ɾ ɯ n a ɟ e ɾ e c b i l e k a ɫ m ɯ ʤ a k 
[253.535]
<no-speech> 
[262.015]
b a k a ɫ ɯ m <no-speech> a j b e n d e j a ɾ ɯ n s ɯ n a w a ɟ i ɾ i ʤ eː m 
[265.585]
<no-speech> 
[272.005]
a j n e n j a n d ɯ m b e n j a a ʤ aː j i p s i t ɾ e s j a p t ɯ m b a b a m a s i t ɾ e s l i j i m d i j o m k ɯ z ɯ m d i j o ɾ a ɫ ɯ ʃ m a d ɯ n m ɯ h aː l aː c a ʧ c e ɾ e ɟ i ɾ d i n a ɫ ɯ ʃ m a j ɫ a o ɫ m u j o ɾ c i h e ɾ s e f e ɾ i n d e a j n ɯ ʃ e j i j a ʃ ɯ j o m 
[284.545]
<no-speech> 
[293.475]
s e n e c a ɫ d ɯ m j a b a k b a k 
[297.095]
<no-speech> 
[299.385]
b a k a ɫ t ɯ y s t y b i s e n e n c a ɫ d ɯ m t a m a m m ɯ b i s e n e <no-speech> i n s a n ɯ n j y z y n e b u k a d a ɾ w u ɾ u ɫ m a z c i ʤ a n ɯ m 
[307.295]
<no-speech> 
[311.405]
i c i 
[312.235]
<no-speech> 
[320.515]
<hes> t a m a m 
[321.405]
<no-speech> 
[323.955]
n e j a j a b i s e n e c a ɫ d ɯ m i ʃ t e a ɾ a d a c i b i s e n e b e l c i ɟ e ʧ b a ʃ ɫ a d ɯ m b i s e n e c a ɫ d ɯ m s aː d e ʤ e 
[331.115]
<no-speech> 
[337.64]
<no-speech> 
[344.165]
oː b i s e n e d e o k u ɫ a j a z ɯ ɫ m a t a m a m m ɯ 
[347.255]
<no-speech> 
[349.075]
h i ʧ ʃ e j j a p m a ʃ i m d i 
[350.775]
<int> <breath> 
[355.785]
j a ø f b a k k a p a t ɯ ɾ ɯ m <hes> <no-speech> f i ɾ d e w s k a p a t ɯ ɾ ɯ m <no-speech> j a p a ɾ ɯ m o n u 
[362.445]
<no-speech> 
[364.115]
<no-speech> 
[364.985]
<no-speech> 
[365.945]
<no-speech> 
[366.325]
<no-speech> 
[368.315]
h e 
[368.805]
<no-speech> 
[370.405]
h a l l e d e ɾ i z j a d u ɾ b a k a j ɯ m 
[375.125]
<no-speech> 
[377.835]
<hes> t a m a m 
[378.785]
<no-speech> 
[380.225]
<hes> 
[380.755]
<no-speech> 
[382.915]
t e l e f o n a b a k t ɯ m j a 
[384.435]
<no-speech> 
[387.035]
a j b i l m i j o m w a ɫ ɫ aː b e n s e ʧ e j i m o n ɫ a ɾ ɯ <no-speech> n e l e ɾ i ʧ a ɫ d ɯ ɾ s a m c i 
[392.405]

[395.835]
a s ɫ ɯ n d a w a ɾ b i t a n e b i t a n e b i t a n e f ɾ a n s ɯ z d u ɾ b i t a n e f ɾ a n s ɯ z ʃ a ɾ k ɯ s ɯ w a ɾ 
[401.795]
<no-speech> 
[403.235]
o n u i s t i j o m 
[404.485]
<no-speech> 
[406.465]
f ɾ a n s ɯ z ʃ a ɾ k ɯ s ɯ d u ɾ b a k a j ɯ m b i d a c i c a 
[409.015]
<no-speech> 
[410.995]
f ɾ a n s ɯ z ʃ a ɾ k ɯ s ɯ <no-speech> d u ɾ b a k z a z ɯ n 
[414.905]
<no-speech> 
[416.485]
b i l i j o n d u ɾ o n u 
[417.815]
<no-speech> 
[425.235]
j a ø f j i n e o t e l l e ɾ h i ʧ k u ɫ ɫ a n ɯ ɫ m a d ɯ b a k s a n a d u ɾ oː ʃ a ɾ k ɯ j ɯ d i n l e t i j i m 
[431.375]
<no-speech> 
[432.535]
<foreign> d i j o ɾ ɟ i d i j o ɾ f a ɫ a n ʃ i m d i b e n s ø j l e ɾ d i m s a n a <no-speech> t a m a m ʃ i m d i b e n s a n a oː ʃ a ɾ k ɯ j ɯ s ø j l e ɾ d i m a m a n e j s e b e n s a n a d a a s o n ɾ a s ø j l i j ʤ eː m oː ʃ a ɾ k ɯ j ɯ 
[444.445]
<no-speech> 
[445.515]
<no-speech> 
[446.055]
<no-speech> 
[448.535]
a j ʃ i m d i 
[451.225]
<no-speech> 
[453.115]
<no-speech> 
[453.545]
<no-speech> 
[454.375]
<hes> o n u n ɫ a 
[455.265]
<no-speech> 
[458.185]
j o k j a k a ɫ d ɯ ɾ m a d ɯ m b i l m i j o m s o ɾ ʤ aː m f a t i e k a ɫ d ɯ ɾ a ɫ ɯ m m ɯ d i j e d e a m a n d u ɾ u j o ɾ o ɾ d a j a 
[464.135]
<no-speech> 
[466.495]
n i j e <no-speech> n e z a ɾ aː ɾ ɯ w a ɾ 
[468.845]
<no-speech> 
[475.245]
j aː n i a j n e n 
[476.825]
<no-speech> 
[478.515]
<laugh> ʤ i d d iː j i m b a k ʧ o k i ʃ e j a ɾ ɯ j o ɾ 
[481.935]
<no-speech> 
[483.005]
d iː l m i <laugh> i ʃ t e b a k d i j o m s i z i n 
[488.035]
<no-speech> 
[490.555]
<laugh> t a m a m ʧ o k s i n i ɾ j a z ɯ j o ɾ m u s u n 
[495.015]
<no-speech> 
[497.825]
ʧ o k i ʃ e j a ɾ ɯ j o ɾ 
[500.165]
<no-speech> 
[503.515]
oː d u ɾ u m d i j o m h a n i ø j l e j a z ɯ j o ɾ j a ʧ o k i ʃ e j a ɾ ɯ j o ɾ m e s e ɫ a a ɾ c a d a ʃ o ɾ t a m ɯ n a ɟ i ɾ d iː m i z d e b aː z e n a ɾ c a d a ʃ ɫ a ɾ a s o ɾ u j o ɾ ɫ a ɾ m ɯ ʃ b ø j l e s ø j l y j o ɾ ɫ a ɾ f a ɫ a n h a n i b ø j l e b ø j l e f e j s d e b ø j l e j a z ɯ j o ɾ h a n i j o k t u f a ɫ a n d i j e 
[515.304875]
d i j o m h e m e n e w e t w a ɾ ɟ e ɾ ʧ e c oː f a ɫ a n 
[518.735]
<no-speech> 
[519.595]
h e m e n j o ɫ w e ɾ i j o z k o ɫ a j o ɫ u j o ɾ 
[522.334875]
<no-speech> 
[525.335]
<no-speech> 
[527.685]
<no-speech> 
[533.555]
<hes> a n ɫ a t b a k a j ɯ m b a ʃ k a 
[535.455]
<no-speech> 
[537.785]
a j b e n b u <no-speech> s e n n i j e f e j s t e c i o j u n u o j n a m ɯ j o n 
[540.825]
<no-speech> 
[545.415]
<hes> n e d e d i n 
[546.385]
<no-speech> 
[549.715]
d y n ɟ e ʤ e 
[550.605]
<no-speech> 
[552.615]
f e j s t e c i b u o j u n u n i j e o j n a m ɯ j o n a ɾ t ɯ k d i j o m 
[555.785]
<no-speech> 
[558.985]
a ɫ o 
[559.725]
<no-speech> 
[561.285]
s e s i n ɟ i d i p ɟ e l i j o ɾ j a f e j s t e o j n a d ɯː m ɯ z b i o j u n w a ɾ d ɯ j a 
[565.635]
<no-speech> 
[571.165]
e w e t 
[571.815]
<no-speech> 
[572.755]
n i j e o j n a m ɯ j o n s e n o n u s e n n i j e b a n a b i h e d i j e j o ɫ ɫ a m ɯ j o n 
[576.175]
<no-speech> 
[582.375]
a ɾ a d a ɟ i ɾ d e s a w a ʃ f a ɫ a n j o ɫ ɫ a 
[585.885]
<no-speech> 
[591.995]
<no-speech> 
[598.105]
k ɯ j a m a m 
[599.095]
<no-speech> 
[599.88]
