[0.0]
<no-speech> 
[7.995]
a ɫ o oː ɫ u m 
[9.255]
<no-speech> 
[13.185]
e w ɫ aː d ɯ m n e j a p ɯ j o m ø j l e o t u ɾ u j o m e w ɫ aː d ɯ m <hes> d y n ɟ e n e b iː ɾ a z s a ɾ o ʃ ɟ i b i a j a ɯ m k a j d ɯ <hes> b i ɾ a z ɯ a t m ɯ ʃ ɯ m 
[24.855]
<no-speech> 
[25.735]
eː o n d a n s o n ɾ a i ʃ t e b iː ɾ a z b i ʃ e j l e ɾ i ʃ t e 
[36.025]
<no-speech> 
[37.035]
ø n ʤ e d e n d u j a m ɯ j o ɾ m u s u n 
[40.355]
<no-speech> 
[42.615]
a ɫ o 
[43.495]
<no-speech> 
[47.125]
d u j a m a d ɯ n d e d i j i m i 
[54.505]
<no-speech> 
[55.445]

[61.425]
<no-speech> 
[62.475]
h a n ɯ m ɯ n 
[67.005]
<no-speech> 
[68.475]
h ɯ e i ʃ t e b i ʃ e j o ɫ d u 
[76.475]
<no-speech> 
[78.765]
o n d a n s o n ɾ a e w ɫ aː d ɯ m a ɫ ɫ a ɾ aː z ɯ o ɫ m u ʃ t u n a d a m ɫ a ɾ ɟ e l d i b iː ɾ a z k o n u ʃ u n ʤ a i ʃ t e 
[90.645]
<no-speech> 
[91.655]
ɯ m h ɯ m 
[95.305]
<no-speech> 
[97.135]
b e n s ø j l e d i m ʧ a k t ɯ ɾ m a d a n 
[98.865]
<no-speech> 
[100.075]

[103.555]
<no-speech> 
[106.195]
h ɯ 
[106.695]
<no-speech> 
[108.375]
i j i uː ɾ a ʃ ɯ j o ɾ i ʃ i j l e <no-speech> 
[112.605]

[113.645]
<no-speech> 
[114.695]

[118.855]
<no-speech> 
[120.555]
ø j l e i ʃ t e 
[125.585]
<no-speech> 
[127.555]
eː s ø j l y j o ɾ m u s u n 
[129.254875]
<no-speech> 
[131.355]

[136.685]
<no-speech> 
[137.875]
h e ɾ h a l d e 
[149.135]
<no-speech> 
[150.855]

[152.495]
<no-speech> 
[153.295]
ɟ e l ʤ e c ɟ e l ʤ e c a l i b u ɾ s a j a ɟ e l i j o ɾ 
[155.645]
<no-speech> 
[156.545]
a l i o ɫ m u ʃ t u n ɟ e l i j o ɾ ɟ e l i j o ɾ 
[158.985]
<no-speech> 
[159.835]

[170.995]
<no-speech> 
[172.775]
e w ɫ aː d ɯ m 
[179.245]
<no-speech> 
[180.525]
d i j o m a m a 
[185.785]
<no-speech> 
[186.915]
d e d i m b i h a f t a s o n u d e d i i ʃ t e 
[194.315]
<no-speech> 
[195.815]
b a k a ɫ ɯ m j a w a ʃ j a w a ʃ h a z ɯ ɾ ɫ a n a ɫ ɯ m 
[199.285]
<no-speech> 
[200.985]

[203.445]
<no-speech> 
[204.445]

[208.345]
<no-speech> 
[209.275]
j a p t ɯ j a b i t t i j a 
[210.915]
<no-speech> 
[211.725]

[215.215]
<no-speech> 
[216.065]
h i ʧ ø j l e b iː ɾ a z k o n u ʃ t u k t a ʃ e j d i j e b iː ɾ a z a ɾ a d ɯ 
[225.565]
<no-speech> 
[226.475]
b e n d e 
[233.485]
<no-speech> 
[235.715]
<laugh> 
[240.295]
<no-speech> 
[241.205]
h ɯ j o ɫ ɫ a m a d ɯ m o n u d a 
[251.525]
<no-speech> 
[252.575]

[255.315]
<no-speech> 
[256.215]
h ɯ h ɯ h ɯ 
[257.895]
<no-speech> 
[259.845]
<no-speech> 
[260.294875]
<no-speech> 
[261.135]
w a ɫ ɫ aː e w ɫ aː d ɯ m 
[262.505]
<no-speech> 
[263.415]

[265.865]
<no-speech> 
[267.385]
ʃ i m d i 
[268.695]
<no-speech> 
[270.525]

[275.405]
<no-speech> 
[276.385]

[287.115]
<no-speech> 
[288.105]

[296.645]
<no-speech> 
[298.875]
e t m e d i m a k ʃ a m 
[310.765]

[322.625]
<no-speech> 
[322.775]
<no-speech> 
[323.695]

[324.685]
<no-speech> 
[325.965]

[327.815]
<no-speech> 
[328.785]
o t u ɾ u j o ɾ b a h ʧ e j e ɟ i d i j o ɾ d a 
[335.655]
<no-speech> 
[336.695]

[342.975]
<no-speech> 
[344.495]
ʧ o ʤ u k w a ɾ j a d o n u j o ɾ d y ʃ y n d o n u j o ɾ 
[351.185]
<no-speech> 
[352.145]

[361.385]
<no-speech> 
[362.915]
ʧ o k i j i o ɫ u ɾ 
[363.775]
<no-speech> 
[364.725]

[376.675]

[387.215]
<no-speech> 
[388.655]
n o ɫ u ɾ n o ɫ u ɾ e w ɫ aː d ɯ m b i ɾ a z ʤ ɯ k d a a 
[392.235]
<no-speech> 
[394.465]

[396.845]
<no-speech> 
[398.395]

[402.645]
<no-speech> 
[403.905]

[414.375]
<no-speech> 
[416.485]

[422.235]
<no-speech> 
[423.975]

[428.865]
<no-speech> 
[430.635]

[438.725]
<no-speech> 
[439.815]

[441.115]
<no-speech> 
[441.965]
i j i ʃ e j ɟ e l ʤ e c e m i n e ɟ e l ʤ e c 
[448.685]
<no-speech> 
[450.065]
<no-speech> 
[457.205]
<no-speech> 
[458.185]

[460.685]
<no-speech> 
[462.565]

[470.155]
<no-speech> 
[471.605]
s aː l i h a b i n l e 
[472.555]
<no-speech> 
[474.915]

[484.475]
<no-speech> 
[485.535]

[497.165]

[507.215]
<no-speech> 
[508.295]

[519.155]
a ɾ a j a ɫ ɯ m e d e l i m 
[521.175]
<no-speech> 
[522.455]

[533.715]
<no-speech> 
[535.995]
<no-speech> 
[536.895]
b e n i m i ʧ i n i ʧ i ɾ a a t 
[539.805]
<no-speech> 
[540.745]

[543.865]
<no-speech> 
[545.105]

[547.885]
<no-speech> 
[548.815]
n e e d e l i m o j e w ɫ aː d ɯ m o j 
[551.615]
<no-speech> 
[552.715]
<cough> j o k f a z ɫ a j a ɾ a m a z ɫ ɯ k j o k e w ɫ aː d ɯ m i ʃ t e 
[557.425]
<no-speech> 
[558.455]

[570.375]
<no-speech> 
[570.525]
<no-speech> 
[574.055]
a l i o s m a n a j n ɯ 
[581.245]
<no-speech> 
[582.875]

[586.315]
<no-speech> 
[587.975]
s e n b i c ø j e ɟ e l ʤ e c 
[590.015]
<no-speech> 
[591.535]
h ɯ 
[595.205]
<no-speech> 
[598.325]
b e n m i b a k a j ɯ m b e n 
[599.815]
<no-speech> 
[600.34]
