[0.0]
<no-speech> 
[0.905]
<no-speech> 
[1.255]
<no-speech> 
[5.185]
a ɫ o 
[5.775]
<no-speech> 
[8.785]
n e j a p ɯ j o n b e u s t a m 
[10.345]
<no-speech> 
[12.325]
a ɫ o 
[12.995]
<no-speech> 
[15.075]
a j a n <no-speech> h ɯ n e j a p ɯ j o n i j i m i s i n 
[17.535]
<no-speech> 
[23.505]
<no-speech> 
[23.915]
<no-speech> 
[26.425]
b a n a b a k <no-speech> oː b e n i m s iː d iː i ʃ i n e o ɫ d u l a n 
[30.765]
<no-speech> 
[31.905]
oː b e n i m s iː d iː i ʃ i n e o ɫ d u 
[33.585]
<no-speech> 
[34.825]
d o s t u m oː b a n a ʃ a ɾ k ɯ a t a ʤ a k t ɯ n j a 
[36.885]
<no-speech> 
[39.095]
oː h a n i d ø w y ʃ d ø d ø w y ʃ m y z i k l e ɾ i w a ɾ d ɯ j a h a n i a t a m a d ɯ j d ɯ k 
[42.655]
<no-speech> 
[43.885]
<no-speech> 
[44.275]
<no-speech> 
[47.375]
h ɯ b u ɫ a m a d ɯ n m ɯ 
[49.125]
<no-speech> 
[50.395]
<hes> ɾ a <no-speech> 
[54.225]
a n a n ɫ a d ɯ m 
[55.625]
<no-speech> 
[57.085]
h ɯ 
[57.955]
<no-speech> 
[60.025]
ʃ e j ʃ i j i j i m j a d y c c a n d a j ɯ m b e n n e j a p a j ɯ m ʃ e j ɾ aː m i n i n t eː s iː s a t k a ɫ d ɯ ɾ m a d ɯ l a n oː ʤ eː d eː j i b a n a b i t aː n e d e f a ɾ k ɫ ɯ b i s iː d iː j a p 
[67.825]
<no-speech> 
[72.705]
oː ɫ u m oː b a s ʃ a ɾ k ɯ ʧ o k b y j y c j aː n i ʧ o k b a s w u ɾ u j o ɾ j a o n d a n 
[77.085]
<no-speech> 
[80.345]
ɾ aː m i n i n a ɾ a b a k a ɫ d ɯ ɾ m a d ɯ i ʃ t e 
[82.185]
<no-speech> 
[84.135]
aː a j n ɯ s ɯ n d a n b e n d e w a ɾ d a 
[85.645]
<no-speech> 
[86.995]
<hes> f a ɾ k ɫ ɯ b i b a s ʃ a ɾ k ɯ s ɯ i s t i j o m b e n 
[89.565]
<no-speech> 
[94.425]
b e ɾ a b e ɾ a j ʃ e j a j z e ɾ a j z e ɾ i z l e j e ʤ e c m i j i z 
[97.835]
<no-speech> 
[102.935]
<no-speech> 
[103.575]
<no-speech> 
[106.325]
<hes> a j z e ɾ i f a ɫ a n s e j ɾ e d e ɾ m i j i z d i j o m e w d e 
[109.365]
<no-speech> 
[113.905]
a n ɫ a d ɯ m 
[114.705]
<no-speech> 
[116.965]
<no-speech> 
[119.615]
<no-speech> 
[123.245]
<hes> t a m a m j a oː ʃ a ɾ k ɯ ɫ a ɾ ɯ oː k ɯ l i p l e ɾ i f a ɫ a n a t a ɫ ɯ m j aː n i 
[127.615]
<no-speech> 
[130.095]
b a n a b a k s e n <no-speech> <hes> j a s e s b i b iː ɾ a z ʃ e j ɟ i d i j o ɾ h e ɾ h a l d e b e n i m h o p e ɾ l ø ɾ b o z u k t e l e f o n u n d a ʃ e j i s ø j l i j ʤ eː m a j a n 
[139.045]
<no-speech> 
[141.565]
<hes> b e n i m b e n i m ʃ e j i s ø j l i j ʤ eː m b a n a b a k 
[145.895]
<no-speech> 
[147.345]
b i a ɾ a a w a a w a ɟ i d e b i l i ɾ m i j i z a w a 
[149.755]
<no-speech> 
[155.645]
<hes> t a m a m ʃ e j j a p a ɾ ɯ z b i ɾ ʧ o k ø ɾ d e c ɟ e l m i ʃ b i l i j o ɾ m u s u n 
[159.475]
<no-speech> 
[162.965]
h ɯ <laugh> 
[164.115]
<no-speech> 
[166.285]

[168.785]
<no-speech> 
[169.865]
p e c s e n i s a ɾ m ɯ j o ɾ b u a ɾ a ɫ a ɾ d a <click> ɟ i t a ɾ i ʃ l e ɾ i n a s ɯ ɫ ɟ i d i j o ɾ l a n 
[173.855]
<no-speech> 
[177.285]
ɟ i t a ɾ ɟ i t a ɾ b a s ɟ i t a ɾ ʤ ɯ d iː l m i s i n oː ɫ u m <no-speech> ɟ i t a ɾ l a n <no-speech> 
[182.585]
i j i i j i 
[184.155]
<no-speech> 
[186.335]
<hes> b e n ʃ e j j a p a j ɯ m b e n b i a ɾ a c ø j e ɟ e l d iː m z a m aː n s i z i ʧ a ɯ ɾ a j ɯ m d a a j a n 
[190.185]
<no-speech> 
[192.465]
<hes> 
[193.615]
<no-speech> 
[197.715]
aː ø z l e d i m s e n i j a b a j a ɯ d ɯ ɾ ɟ ø ɾ y ʃ e m i j o z 
[200.785]
<no-speech> 
[201.645]
<no-speech> 
[201.995]
<no-speech> 
[204.575]
<hes> t a m a m b e n <hes> b e n 
[206.345]
<no-speech> 
[207.385]
<hes> t a m a m j a b e n ʃ i m d i b iː ɾ a z i ʃ l e ɾ w a ɾ d a i ʃ l e ɾ i h a l l e d e j i m d e d oː ɾ u b i l i j o n z a t e n ɟ e l d i m m i j a n ɯ n a uː ɾ u j o m 
[213.195]
<no-speech> 
[217.015]
t a m a m d o s t <hes> i j i n e j a p a j ɯ m j a a j a n d y c c a n 
[220.115]
<no-speech> 
[221.845]
h ɯ 
[222.405]
<no-speech> 
[224.935]
<no-speech> 
[227.155]
<hes> a n ɫ a m a d ɯ m j a 
[228.635]
<no-speech> 
[232.905]
<click> 
[233.365]
<no-speech> 
[236.195]
a ɫ o 
[236.905]
<no-speech> 
[238.305]
a n <no-speech> a ɫ o 
[239.895]
<no-speech> 
[241.625]
h ɯ s e s i n i a ɫ a m a d ɯ m d a h ɯ 
[243.715]
<no-speech> 
[247.455]
a ɫ ɫ a a ʃ y c y ɾ b e a j a n <no-speech> i d aː ɾ e e d i j o z i j i i j i i d aː ɾ e e d i j o z 
[251.595]
<no-speech> 
[257.254875]
j o k j o k b e n s e n n o ɾ m a ɫ ʃ e j j a p d a b i b e n s a n a ʃ e j j a p ʤ aː m <no-speech> b e n s e n i z a t e n <hes> b e ʃ d a c i c a s o n ɾ a j i n e ʃ ʃ e j j a p ʤ aː z ɟ ø ɾ y ʃ ʤ eː z s e n i n l e t a m a m 
[266.135]
<no-speech> 
[267.415]
c a p a t m a ʃ i m d i 
[268.485]
<no-speech> 
[271.005]
<hes> ɯ m h ɯ m 
[272.115]
<hes> 
[274.645]
<hes> j a <no-speech> h ɯ h ɯ h ɯ oː j y z d e n ʃ e j j a p ɯ j o ɾ h a n i <hes> <laugh> 
[282.565]
<no-speech> 
[284.645]
b e n i m m e l i 
[286.305]
<no-speech> 
[288.405]
b a n a 
[289.305]
<no-speech> 
[292.645]
h e s e n b e n i b i d i n l e s e n b e n i m s o ɾ d uː m <laugh> s e n b e n i m s o ɾ d uː m s o ɾ u ɫ a ɾ a ʤ e w a p w e ɾ a j a k 
[297.985]
<no-speech> 
[302.465]
ʃ ʃ e j <hes> 
[306.275]
<no-speech> 
[307.955]
<hes> s e n e w d e m i s i n <laugh> 
[310.555]
<no-speech> 
[311.925]
<hes> ʃ e j oː <no-speech> <hes> d e ɾ s a n e j e f a ɫ a n ɟ i t m i j o ɾ m u s u n 
[318.035]
<no-speech> 
[321.715]
d e ɾ s a n e j e l a n d e ɾ s a n e j e <hes> i ʃ i n e m i b a k ɯ j o n n e j a p ɯ j o n n e ɾ e j e ɟ i d i j o n d e ɾ s a n e j e 
[326.825]
<no-speech> 
[327.725]

[328.515]
<no-speech> 
[331.505]
<hes> ʃ e j b i j e ɾ e j e ɟ i d i j o ɾ d u n j a l a n d e ɾ s m e ɾ s a ɫ ɯ j o m d i j o ɾ d u n j aː n i 
[335.255]
<no-speech> 
[336.885]
l a n oː ɫ u m b h a n i b e n s a n a d e d i m <hes> d e ɾ s ʧ a ɫ ɯ ʃ ɯ j o m f a ɫ a n d e d i n j a j a n e ɾ e j e b i j e ɾ e ʧ a ɫ ɯ ʃ ɯ j o m d e d i n j a h a z ɯ ɾ ɫ a n ɯ j o m d e d i n j a øː s eː j eː m eː j e m i n e 
[346.005]
<no-speech> 
[347.055]
<no-speech> 
[347.445]
<no-speech> 
[348.795]
s e n ʃ i m d i <hes> h a j ɯ ɾ h a j ɯ ɾ s e n ʃ i m d i ʃ e j e ɟ i t m i j o ɾ m u s u n <hes> d e d e ɾ s a n e j e f a ɫ a n d e ɾ s ɟ ø ɾ m e j e 
[354.245]
<no-speech> 
[355.545]
h ɯ o n u s o ɾ u j o m n e j a p ɯ j o n e d i j o n n e z a m aː n ɫ a ɾ ɟ i d i j o n u z 
[358.345]
<no-speech> 
[362.225]
h a f t a s o n ɫ a ɾ ɯ d e ŋ k ɟ e l i j o ɾ d i j o n d iː l m i ʤ u m a ɾ t e s i f a ɫ a n m ɯ 
[365.545]
<no-speech> 
[368.335]
h ɯ 
[369.165]
<no-speech> 
[369.975]
p a z a ɾ d a ɟ i d i j o n 
[371.115]
<no-speech> 
[372.025]
eː oː ɫ u m b i z s e n i n l e n a s ɯ ɫ p a s l a ʃ a d͡ʒ a ɰ ɯ z c ø j e ɟ e l d iː n d e 
[375.415]
<no-speech> 
[378.705]
a n ʤ a k a k ʃ a m ɫ a ɾ ɯ m ɯ eː k a s a a  k a c a ʧ t a n c a ʧ a k a d a ɾ s e n i n d e ɾ s i n 
[383.905]
<no-speech> 
[386.245]
<no-speech> 
[386.595]
<no-speech> 
[390.005]
a k ʃ a m <no-speech> a n a c a ʧ a k a d a ɾ s y ɾ y j o ɾ 
[396.175]
<no-speech> 
[398.655]
<no-speech> 
[399.565]
<no-speech> 
[403.065]
s e c i z b u ʧ u a k a d a ɾ s y ɾ y j o ɾ a k ʃ a m 
[405.205]
<no-speech> 
[406.555]
o oː eː oː ɫ u m n a s ɯ ɫ ɡ ɟ ø ɾ y ʃ ʤ eː z c e ʃ o d a j ɯ n ɯ n m e k a n ɯ n a ɟ i d ʤ eː z <no-speech> m a ŋ g a ɫ j a p m a j a 
[414.075]
<no-speech> 
[420.125]
<no-speech> 
[420.635]
<no-speech> 
[421.615]
<no-speech> 
[421.975]
<no-speech> 
[425.575]
a n ɫ a d ɯ m j a b i b e n ɟ e l d iː m z a m aː n b i a j a ɾ ɫ ɯ j a ɫ ɯ m d a b i a ɾ a ʃ u c e ʃ o d a ɯ s ɾ a ɾ e d i j o ɾ n e ɾ d e s i n i z ɟ e l m i j o ɾ m u s u n u z f a ɫ a n f i ɫ a n d i j o ɾ j a 
[433.605]
<no-speech> 
[435.525]
b e n d y c c a n d a j ɯ m j a a ɾ k a d a ʃ ɫ a ɾ w a ɾ 
[441.025]
<no-speech> 
[444.395]
<int> d y c c a n d a j ɯ m <no-speech> 
[447.655]
<hes> ʃ i m d i ʃ i m a j a n ʤ ɯː m d o s t u m h a j ɯ ɾ h a j ɯ ɾ b a k ʃ i m d i b e n s a n a s ø j l i j ʤ eː m s e n <hes> ʃ e j j a p 
[453.185]
<no-speech> 
[454.125]
<hes> n o ɾ m a ɫ b e n i m l e i c i d a c i c a m u a b b e t e t s e n <no-speech> b e n s a n a i z a e d ʤ eː m t a m a m m ɯ c a ɾ d e ʃ i m 
[459.285]
<no-speech> 
[460.125]
h ɯ t a m a m j aː n i ʃ e j j a p m a s ɯ k ɯ n t ɯ j a p m a 
[462.875]
<no-speech> 
[466.005]
h ɯ 
[466.475]
<no-speech> 
[468.105]
a n ɫ a m a d ɯ m n eː j s ø j l e 
[469.505]
<no-speech> 
[472.515]

[473.175]
<no-speech> 
[477.655]
eː t a m a m s e n t a m a m t a m a m oː b e n b i d a c i c a i c i d a c i c a n o ɾ m a ɫ b i ʃ e j j a p a ɫ ɯ m b i s e n l e k o n u ʃ a ɫ ɯ m <no-speech> b e n s a n a i z a e d ʤ eː m t a m a m m ɯ 
[486.215]
<no-speech> 
[491.485]
a ɫ o 
[492.105]
<no-speech> 
[493.395]
eː n e a n ɫ a t a j ɯ m s e n a n ɫ a t b e n k o n u ʃ u p b e n k o n u ʃ u p d u ɾ u j o m s e n k o n u ʃ l a n 
[497.515]
<no-speech> 
[503.145]
eː ɟ y n d y z h a f t a i ʧ i d e ɟ i d i j o n m u 
[505.095]
<no-speech> 
[506.675]
eː a d a p a z a ɾ ɯ n a h i ʧ ɟ e l m i j o n s e n j a 
[508.735]
<no-speech> 
[511.915]
a d a p a z a ɾ ɯ n a d i j o m h i ʧ ɟ e l m i j o n 
[513.845]
<no-speech> 
[517.935]
<no-speech> 
[518.334875]
<no-speech> 
[520.065]
t o p o j <hes> b a k b a k b i ʃ e j s ø j l i j ʤ eː m 
[522.365]
<no-speech> 
[525.705]
t o p o ʃ j a w u z o ɫ s a ɟ i d e ɾ s i n j a n ɯ n a <breath> 
[528.635]
<no-speech> 
[531.475]
<no-speech> 
[531.895]
<no-speech> 
[532.745]
t o p o ʃ j a w u z o ɫ s a d i j o m ɟ e l s e d i j o m b u ɾ s ʃ e j d e n <no-speech> t o p o ʃ <hes> j a w u z ɟ e l s e d i j o m o n u n j a n ɯ n a ɟ i d e ɾ s i n <laugh> 
[538.975]
<no-speech> 
[539.795]
<no-speech> 
[540.165]
<no-speech> 
[543.285]
<hes> h ɯ ɟ e l d i m i oː b u ɾ a ɫ a ɾ d a m ɯ oː <overlap> 
[547.475]
<no-speech> 
[550.705]
<hes> 
[551.525]
<no-speech> 
[552.415]
ʃ e j m i k ø t͡ʃ <hes> c ø ʧ e l e j a w u z m u 
[555.665]
<no-speech> 
[559.005]
<no-speech> 
[560.245]
<no-speech> 
[561.795]
<hes> o k u ɫ n e o ɫ m u ʃ o n u n 
[563.255]
<no-speech> 
[566.885]
<no-speech> 
[567.495]
<no-speech> 
[568.345]
eː <hes> o n o n b e ʃ s e n e d a a ɟ i d e ɾ m i <laugh> 
[571.405]
<no-speech> 
[573.505]
<no-speech> 
[574.075]
<no-speech> 
[576.035]
<hes> n e d i j o ɾ <hes> h a n i b i t ʤ e c d i j o ɾ b i t ʤ e c f a ɫ a n d i j o ɾ m u <laugh> 
[580.185]
<no-speech> 
[583.175]
b i t i ɾ m e j e n i j e t i w a ɾ m ɯ j m ɯ ʃ 
[584.675]
<no-speech> 
[587.205]
<overlap> b i t i ɾ m e j e n i j e t i w a ɾ m ɯ j m ɯ ʃ d i j o m c a ʧ s e n e o ɫ d u l a n 
[591.395]
<no-speech> 
[592.765]
<cough> <int> <no-speech> 
[595.745]
<hes> h e w a ɫ ɫ aː i o n d a p e c ø j l e b e n b i i ɾ aː d e  
[599.98]
