[0.0]
<no-speech> 
[6.945]
a ɫ o <no-speech> e w e t 
[8.675]
<no-speech> 
[18.035]
n e o ɫ ʤ a k ʃ i m d i <no-speech> 
[23.315]
i j i j i m s e n n a s ɯ ɫ s ɯ n 
[24.635]
<no-speech> 
[27.045]
e w e t 
[27.625]
<no-speech> 
[31.975]
h a j aː t ɟ y z e l i ʃ l e e w a ɾ a s ɯ n d a b u a ɾ a a ɫ o ɟ e l i j o ɾ m u s e s i m 
[36.265]
<no-speech> 
[43.565]

[45.705]
<no-speech> 
[48.385]
ʃ i m d i b a n a s o ɾ u ɫ a ɾ m ɯ s o ɾ ʤ a k s ɯ n n a s ɯ ɫ b i a n c e t j aː n i b i l m i j o m ʃ i m d i b u n e d i ɾ j a 
[52.865]
<no-speech> 
[54.705]
<breath> k o n u ʃ u ʤ a k m ɯ j ɯ z 
[56.655]
<no-speech> 
[58.805]
<breath> k o n u ʃ oː z a m aː n n e i ʧ i n d e n ɟ e l i j o s a s ø j l e b a k a ɫ ɯ m 
[62.685]
<no-speech> 
[64.225]
s e n n e l e ɾ j a p ɯ j o n <int> 
[66.595]
<no-speech> 
[70.965]
h e p e w d e s i n e w e t b u ɟ y n ʧ ɯ k a m a d ɯ n m e s e ɫ a 
[73.815]
<no-speech> 
[75.995]
n e z a m aː n ɫ a ɾ ʧ ɯ k a b i l i j o n 
[77.665]
<no-speech> 
[78.865]
n a s ɯ ɫ 
[79.505]
<no-speech> 
[86.745]
n e d e n ʧ ɯ k m ɯ j o n j o k m u h i ʧ a ɾ c a d a ʃ ɯ n j a 
[89.005]
<no-speech> 
[92.805]
e w e t ʧ ɯ k a ɾ a d a b i 
[94.725]
<no-speech> 
[95.815]
h ɯ b a b a n e w d e j c e n ʧ ɯ k a m ɯ j o n ɟ aː l i b a 
[98.035]
<no-speech> 
[102.505]
<breath> b u ɟ y n ʧ ɯ k a m a m f i ɫ a n d e d i n j a oː j y z d e n s ø j l e d i m 
[106.405]
<no-speech> 
[107.915]

[109.325]
<no-speech> 
[110.905]
<no-speech> 
[111.385]
<no-speech> 
[114.685]
<no-speech> 
[115.045]
<no-speech> 
[117.545]
h ɯ ʃ i m d i b u a n c e t m i <breath> 
[119.935]
<no-speech> 
[122.475]
a n ɫ a d ɯ m 
[123.215]
<no-speech> 
[126.035]
t a m a m 
[127.825]
<no-speech> 
[129.605]
<no-speech> 
[130.135]
<no-speech> 
[134.385]
<breath> j ɯ k ɯ ɫ d ɯ e w e t j aː n i ʧ o k a a ɫ d ɯ b u ɟ y n l e ɾ e k a d a ɾ ɟ e l d i 
[138.715]
<no-speech> 
[140.335]
<breath> ʧ o k c i ʃ i n i n h a k k ɯ n ɯ j e d i j aː n i b ø j l e o ɫ m a s ɯ n o ɾ m a ɫ d i ɾ 
[145.135]
<no-speech> 
[153.155]
b e n t o p o j n a d ɯ m o ɾ d a b e n i m ʧ o k ɟ i d e ɾ j aː n i j ɯ k ɯ ɫ d ɯː z a m aː n d a ʧ o k y z y l m e d i m 
[158.905]
<no-speech> 
[161.635]
b e n t o p o j n a d ɯ m d e d i m d u j d u n m u oː k u l y p t e 
[164.675]
<no-speech> 
[167.065]
ɟ e l i j o ɾ m u s e s i m 
[168.085]
<no-speech> 
[170.445]
ɟ e l i j o ɾ ɟ aː l i b a i j i b e n 
[172.085]
<no-speech> 
[173.835]
ʃ i m d i ɟ e l i j o ɾ m u 
[175.255]
<no-speech> 
[178.985]
j aː n i oː k u l y p t e b e n j a k ɫ a ʃ ɯ k o n s e n e t o p o j n a d ɯ m <breath> ʧ o u z a m aː n p a ɾ a m ɯ w e ɾ m e d i l e ɾ ʧ o u z a m aː n o j n a t ɯ ɫ m a d ɯ m <breath> b e n i m ɟ i b i b i ɾ k a ʧ c i ʃ i n i n d e aː ɯ n ɯ a ɫ m ɯ ʃ t ɯ ɾ b e n i m ɟ i b i b i ɾ k a ʧ c i ʃ i d e h i ʧ y z y l m e m i ʃ t i ɾ 
[190.855]
k u l y b y n j ɯ k ɯ ɫ d ɯː n a <breath> b e n h i ʧ y z y l m e d i m n e j y ɾ y j y ʃ y n e ɟ i t t i m n e d e h e ɾ b a ʃ k a b i t y ɾ l y d e s t e c w e ɾ d i m <breath> u m u ɾ u m d a d a d iː l <breath> <laugh> 
[201.695]
b ø j l e j aː n i <breath> 
[204.755]
<no-speech> 
[210.855]
n a s ɯ ɫ o ɫ m u ʃ 
[211.925]
<no-speech> 
[218.975]
h e j aː n i oː k ɯ ɫ a s i c t i ɾ h e ɾ s e n e f u t b o ɫ ʤ u ɫ a ɾ ɯ n p a ɾ a ɫ a ɾ ɯ n ɯ w e ɾ m e z l e ɾ z a t e n 
[223.885]
<no-speech> 
[228.025]
e w e t ø j l e 
[228.975]
<no-speech> 
[231.745]
<no-speech> 
[235.025]
<no-speech> 
[240.485]
h a j aː t b u a ɾ a m o n o t o n 
[242.115]
<no-speech> 
[245.295]
<no-speech> 
[245.645]
<no-speech> 
[247.065]
n a s ɯ ɫ 
[247.795]
<no-speech> 
[250.315]
s e s i n a z ɟ e l i j o ɾ 
[251.575]
<no-speech> 
[254.265]
e w e t h a j w a n ɫ a ɾ ɯ s e w i j o m c ø p e c a ɫ ʤ a k s a n d a <foreign> a ɫ 
[257.354875]
<no-speech> 
[262.775]
<foreign> a ɫ c ø p e c a ɫ ʤ a k s a n 
[265.935]
<no-speech> 
[270.225]
ɯ m h ɯ m <breath> ʧ o k e n t e ɾ a s a n b i k o n u ʃ m a b u e w e t <breath> b u a n c e t i n s o n u n e ɾ e j e ɟ i d e ɾ o n u d a b i l m i j o m <breath> <cough> e j e ɾ b u a n c e t s e 
[281.395]
<breath> a ɾ c a d a ʃ ɯ n b u n u n ɫ a b i t e s t e ɟ i ɾ i ʤ e c s e b u n ɫ a ʧ o k c ø t y b i t e s t b u b a t a ɾ j aː n i b u a n c e t l e e j e ɾ b u a n c e t s e 
[293.055]
<breath> a ɾ k a d a ʃ ɯ n a ø j l e s ø j l e <laugh> <breath> p e c a n c e t o ɫ d uː n u d a z a n n e t m i j o m n e j s e <laugh> 
[301.505]
<no-speech> 
[302.845]
<no-speech> 
[303.285]
<no-speech> 
[310.555]
b e n s e n i n s e s i n d e n h i ʧ b i ɾ ʃ e j a n ɫ a m ɯ j o m i n a n 
[312.795]
<no-speech> 
[316.865]
ʧ o k e n t e ɾ a s a n 
[318.045]
<no-speech> 
[321.785]
a ɫ o k o d ɫ u j o m u s u n 
[323.215]
<no-speech> 
[324.845]
e w e t ʃ i m d i d u j u j o m a m a 
[326.325]
<no-speech> 
[334.465]
e w e t d i n l i j o m 
[336.055]
<no-speech> 
[346.785]
b e n a n a d o ɫ u h i s a ɾ ɯ n ɯ n n e ɾ e s i n d e j i m t i ʤ aː ɾ e t l i s e s i n i b i l i j o ɾ m u s u n 
[349.965]
<no-speech> 
[354.175]
t i ʤ aː ɾ e t l i s e s i n i b i l i j o ɾ m u s u n 
[355.855]
<no-speech> 
[359.235]
e w e t t a m oː l i s e n i n o ɾ a d a j ɯ m 
[360.815]
<no-speech> 
[370.725]
e w e t j a k ɯ n 
[371.685]
<no-speech> 
[374.835]
ʧ o k e n t e ɾ e s a n b i k o n u ʃ m a e w e t 
[376.925]
<no-speech> 
[380.455]
ʧ o k e n t e ɾ e s a n ʃ u a n e w e t n o ɾ m a ɫ t e l e f o n d a n d a k o n u ʃ a b i l i ɾ d i c a m a n e d e n s e b ø j l e b i j o ɫ s e ʧ t i c ɟ i d i j o z b a k a ɫ ɯ m n e ɾ e j e ʧ ɯ k ɯ ʤ a k t y n e l 
[387.875]
<no-speech> 
[393.255]
a ɾ k a d a ʃ ɯ n a j a ɾ d ɯ m ʤ ɯ o ɫ m a k i ʧ i n m i j a p ɯ j o z ʃ u a n <no-speech> 
[400.045]
a ɾ k a d a ʃ ɯ n a j a ɾ d ɯ m ʤ ɯ o ɫ m a k i ʧ i n j a p ɯ j o z h e ɾ a l d e b u k o n u ʃ m a j ɯ ʃ u a n 
[403.235]
<no-speech> 
[411.41]
<no-speech> 
[419.585]
e w e t ɟ y n y n ʃ a n s ɫ ɯ s ɯ b e n i m j aː n i 
[422.145]
<no-speech> 
[428.595]
e w e t a ɾ c a d a ʃ ɯ n j a n ɯ n d a m ɯ ʃ u a n 
[431.085]
<no-speech> 
[434.755]
j a n ɯ n d a <breath> 
[436.245]
<no-speech> 
[438.755]
n e d i j o ɾ p e c i o ɾ d a n <no-speech> 
[441.435]
b i ʃ e j l e ɾ s ø j l y j o ɾ m u 
[442.825]
<no-speech> 
[443.695]
<no-speech> 
[444.345]
<no-speech> 
[453.065]
e w e t <breath> oː z a m aː n i s t i j o s a a n c e t o n u n s a s ø j l e s i n b a k a ɫ ɯ m n a s ɯ ɫ b i ʃ e j k o n u ʃ m a j a p ʤ aː z ʃ u a n <breath> 
[462.935]
<no-speech> 
[466.525]
<no-speech> 
[466.915]
<no-speech> 
[469.175]
t a m a m o n u k u ɫ ɫ a n m a d a n a ɾ c a d a ʃ ɯ n b i z e b i ø n e ɾ i s u n s u n oː z a m aː n b i z k o n u ʃ s a k b a k a ɫ ɯ m <breath> 
[474.275]
<no-speech> 
[484.415]
<no-speech> 
[485.145]
<no-speech> 
[491.175]
<no-speech> 
[491.585]
<no-speech> 
[494.085]
<no-speech> 
[495.025]
<no-speech> 
[497.005]
<no-speech> 
[497.965]
<no-speech> 
[502.345]
e w e t d i n l i j o m 
[503.735]
<no-speech> 
[511.375]
e w e t a m a ɟ e ɾ ʧ e c t e n ʧ o k g a ɾ i p b i m u a b b e t <no-speech> c a ʧ d a c iː k a m ɯ z c a ɫ d ɯ 
[518.165]
<no-speech> 
[523.185]
<breath> b aː ɾ i o n d a c i k a j ɯ b u ɫ s u n d a a ɾ k a d a ʃ ɯ n a j a ɾ d ɯ m ʤ ɯ o ɫ a ɫ ɯ m s o n ɾ a a ɾ t ɯ k <breath> 
[528.765]
<no-speech> 
[530.575]
d a a u j g u n b i o ɾ t a m d a k o n u ʃ u ɾ u z 
[532.825]
<no-speech> 
[534.065]
<no-speech> 
[534.865]
<no-speech> 
[537.505]
<no-speech> 
[537.975]
<no-speech> 
[540.835]
s e n n e l e ɾ j a p a ɾ s ɯ n s e n o k u ɫ u n e ɾ d e o k u d u n l i s e j i 
[543.785]
<no-speech> 
[552.015]
l i s e j i n e ɾ d e o k u d u n 
[553.465]
<no-speech> 
[559.565]
t a m a m n e ɾ d e a n ɫ a m a d ɯ m 
[561.475]
<no-speech> 
[565.055]
<breath> h ɯ y s c i d a ɾ h ɯ c a ʧ ɯ n ʤ ɯ s o n s ɯ n ɯ f m ɯ 
[569.745]
<no-speech> 
[572.585]
i c i 
[573.955]
<no-speech> 
[582.915]
o n a ɫ t ɯ j a ʃ ɯ n d a s ɯ n 
[585.175]
<no-speech> 
[587.515]
h ɯ ɾ e s i m l e ɾ d e d a a b y j y c ɟ ø s t e ɾ i j o n <breath> 
[591.275]
<no-speech> 
[592.605]
<no-speech> 
[595.865]
<no-speech> 
[597.465]
a n ɫ a m a d ɯ m 
[598.155]
<no-speech> 
[600.24]
