[0.0]
<no-speech> 
[3.405]
<no-speech> 
[4.785]
<no-speech> 
[5.895]
a ɫ o 
[6.585]
<no-speech> 
[9.115]
j a t ɯ 
[9.885]
<no-speech> 
[11.585]
n e j a p ɯ j o n <breath> 
[12.805]
<no-speech> 
[13.975]
o t u ɾ u j o m n e ɾ e d e s i n 
[15.915]
<no-speech> 
[17.385]
n e 
[17.975]
<no-speech> 
[18.835]
<no-speech> 
[19.275]
<no-speech> 
[20.845]
i j i c i m w a ɾ 
[21.965]
<no-speech> 
[23.655]
h ɯ 
[24.205]
<no-speech> 
[26.615]
<no-speech> h ɯ n e j a p ɯ j o ɾ i j i s i n 
[29.475]
<no-speech> 
[31.455]
w a ɾ n e j a p a ɫ ɯ m o t u ɾ u j o m j e m e c j e d i c <no-speech> ʃ i m d i <no-speech> ʃ i m d i b e c l i j o z j aː n i 
[36.745]
<no-speech> 
[37.545]
a ʃ aː i n ʤ eː m i ʃ t e 
[38.895]
<no-speech> 
[40.225]
h ɯ <no-speech> m u ɾ a t b i z d e 
[43.515]
<no-speech> 
[46.035]
a ɫ o m u ɾ a t b i z d e o t u ɾ u j o z ø j l e 
[48.395]
<no-speech> 
[50.245]
<hes> m u ɾ a t b i z h ɯ b i z d e <no-speech> h ɯ 
[54.315]
<no-speech> 
[56.455]
i j i oː d a o t u ɾ u j o ɾ d y c c a n a 
[59.205]
<no-speech> 
[61.015]
n e 
[61.625]
<no-speech> 
[63.645]
n e 
[64.255]
<no-speech> 
[65.635]
j o k b u i j i ʃ i m d i l i c d a a <no-speech> j o k j o k d a a i j i ʃ i m d i l i c s e n n e j a p ɯ j o n <no-speech> ɯ m h ɯ m ʧ o ʤ u k ɫ a ɾ n a s ɯ ɫ 
[73.085]
<no-speech> 
[75.305]

[76.315]
<no-speech> 
[78.515]
ɯ m h ɯ m 
[79.225]
<no-speech> 
[83.455]
h ɯ b u <no-speech> k a ɾ i j i d i ɾ j a b u ɾ a j a k a ɾ j aː d ɯ 
[86.915]
<no-speech> 
[88.265]
b u ɾ a d a d a k a ɾ w a ɾ i ʃ t e b iː ɾ a z 
[90.485]
<no-speech> 
[92.155]
h ɯ 
[92.785]
<no-speech> 
[93.845]
b ø j l e b i <hes> h a w a j o k k a d a ɾ s oː k j o k j a k a ɾ i ʃ t e j aː d ɯ b iː ɾ a z h a w a j ɯ 
[102.815]
<no-speech> 
[104.135]
i j i j i m s e n n a s ɯ ɫ s ɯ n 
[105.305]
<no-speech> 
[106.315]
aː aː a l i n e j a p ɯ j o ɾ 
[108.155]
<no-speech> 
[109.985]
a l i n e j a p ɯ j o ɾ 
[110.935]
<no-speech> 
[114.545]
h ɯ c i m i n 
[115.415]
<no-speech> 
[117.885]
h ɯ ʧ a ɫ ɯ ʃ ɯ j o ɾ m u 
[119.145]
<no-speech> 
[120.395]
ʧ a ɫ ɯ ʃ m ɯ j o ɾ m u 
[121.325]
<no-speech> 
[125.255]
h ɯ 
[125.975]
<no-speech> 
[128.514875]
h ɯ 
[129.435]
<no-speech> 
[133.945]
<no-speech> 
[134.975]
<no-speech> 
[137.465]
h ɯ c i m i n n i ʃ a n ɯ 
[139.125]
<no-speech> 
[140.735]
c i m i n n i ʃ a n ɯ j d ɯ 
[141.845]
<no-speech> 
[142.715]
c i m 
[143.205]
<no-speech> 
[144.545]
<hes> <no-speech> h ɯ m e m e t i n 
[146.975]
<no-speech> 
[149.505]
h ɯ a n ɫ a d ɯ m 
[151.055]
<no-speech> 
[157.675]
h ɯ 
[158.325]
<no-speech> 
[165.145]
<no-speech> 
[165.595]
<no-speech> 
[173.525]

[177.685]
<no-speech> 
[179.925]
a ɫ o 
[180.655]
<no-speech> 
[182.125]
e t t i n 
[183.145]
<no-speech> 
[185.185]

[186.425]
<no-speech> 
[190.795]
ɯ m h ɯ m o c e j a ɰ l a m ɯ j o ɾ u m 
[192.945]
<no-speech> 
[195.315]
h ɯ 
[196.105]
<no-speech> 
[201.815]
h ɯ a j ʃ e n a s ɯ ɫ 
[204.085]
<no-speech> 
[206.525]
uː ɾ a ʃ ɯ j o z i ʃ t e 
[210.465]
<no-speech> 
[211.505]
k a ɾ j aː d ɯ k a ɾ j aː d ɯ o t u ɾ d u m 
[215.245]
<no-speech> 
[216.165]

[224.865]
<no-speech> 
[228.315]

[230.475]
<no-speech> 
[231.375]

[233.145]
<no-speech> 
[235.555]
a ɫ o <no-speech> h ɯ <hes> s y n n e t <hes> d yː n y o ɫ ʤ a k o n u b e c l i j o ɾ h a f t a j a 
[241.465]
<no-speech> 
[242.515]
o n d a n s o n ɾ a m u ɾ a t d a <no-speech> t y ɾ k a n t y ɾ k a n 
[245.655]
<no-speech> 
[246.515]
h ɯ ɟ aː l i b a o n d a n s o n ɾ a m u ɾ a t ɫ a t y ɾ k a n i ʃ t e 
[249.625]
<no-speech> 
[250.485]
h ɯ t y ɾ k a n d a w e ɾ ʤ e c b y j y c i h t i m a l 
[252.275]

[253.105]
<cough> a m e l i j a t o ɫ m u ʃ 
[256.304875]
<no-speech> 
[258.235]
ɾ a h m i n d e n a m e l i j a t ɾ a h m i n d e n a m e l i j a t o ɫ m u ʃ 
[260.734875]
<no-speech> 
[262.785]
<hes> a ɫ o 
[263.795]
<no-speech> 
[264.805]
<no-speech> n e ɾ d e 
[267.255]
<no-speech> 
[269.085]
n e ɾ e d e o ɫ m u ʃ n e ɾ e d e a m e l i j a t o ɫ m u ʃ 
[271.715]
<no-speech> 
[275.845]
h ɯ 
[278.255]
<no-speech> 
[280.745]
n e <no-speech> <int> 
[282.285]
<no-speech> 
[284.245]

[285.085]
<no-speech> 
[286.075]
h ɯ m u s t i n e j a p ɯ j o ɾ 
[287.435]
<no-speech> 
[289.995]
m u s t i n a s ɯ ɫ 
[290.905]
<no-speech> 
[298.165]
h ɯ 
[298.875]
<no-speech> 
[301.945]

[302.765]
<no-speech> 
[303.875]
<hes> ɡ ø n d e ɡ ø n ɟ ø n d e ɾ l e ɾ i ɟ ø n d e ɾ m e d i n h i ʧ 
[307.155]
<no-speech> 
[314.595]

[315.425]
<no-speech> 
[321.695]
a ɫ ɫ a a ɫ ɫ a 
[322.535]
<no-speech> 
[325.385]
h ɯ <breath> j a b u n u <hes> 
[327.265]
<no-speech> 
[329.495]
h ɯ j a b u j a p m ɯ ʃ m ɯ 
[331.515]
<no-speech> 
[333.735]
a ɫ o 
[334.415]
<no-speech> 
[335.665]
j a b u j a p m ɯ ʃ m ɯ 
[337.535]
<no-speech> 
[339.175]
j a j a p m ɯ ʃ m ɯ 
[341.185]
<no-speech> 
[343.415]
j a p m a j a 
[344.445]
<no-speech> 
[345.835]
h ɯ d a a ʃ e j w a ɾ 
[347.715]
<no-speech> 
[349.805]
h ɯ 
[351.535]
<no-speech> 
[352.875]
ʃ u b a t t a ɟ i d ʤ e c j aː n i 
[354.235]
<no-speech> 
[357.305]
h ɯ i j i i j i 
[358.725]
<no-speech> 
[361.785]
h ɯ 
[362.515]
<no-speech> 
[370.195]
ɯ m h ɯ m 
[370.855]
<no-speech> 
[377.865]
h ɯ 
[378.775]
<no-speech> 
[389.005]
h ɯ 
[390.345]
<no-speech> 
[391.265]
ɟ e ʧ e n ɟ e l d i oː d a <no-speech> ɟ e ʧ e n ɟ e l d i oː 
[396.515]
<no-speech> 
[397.775]
o n u ɟ ø ɾ m e d i m b e n s aː d e ʤ e ɟ e l d i m b i d a a h i ʧ ɟ ø ɾ m e d i m k o n u ʃ m a d ɯ m d a 
[402.325]
<no-speech> 
[403.315]
ø j l e b i ʃ e j j a p t ɯː m ɯ z j o k i ʃ t e h a s h a s t a d i j e i ʧ i j o ɾ 
[406.475]
<no-speech> 
[407.705]
ɟ ø ɾ m e d i m c i i ʃ t e h a s t a j d ɯ m j a b iː ɾ a z h i ʧ b i ɾ ʃ e j j a p m a d ɯ m <breath> j o k h i ʧ ɟ ø ɾ m e d i m o n u 
[412.555]
<no-speech> 
[414.425]
h ɯ h a s t a j d ɯ m b e n h i ʧ 
[415.745]
<no-speech> 
[416.935]
ɟ ø ɾ d y m d a a ø n ʤ e d e ʃ i m d i d a a s o n z a m aː n ɫ a ɾ d a ɟ ø ɾ m e d i m 
[420.615]
<no-speech> 
[426.385]
h ɯ 
[427.065]
<no-speech> 
[428.185]
j a p m a j a 
[429.145]
<no-speech> 
[431.245]

[433.655]
<no-speech> 
[434.925]

[436.115]
<no-speech> 
[437.565]

[438.975]
<no-speech> 
[441.375]
oː j a n a k ɫ a ɾ t o m b u ɫ m u 
[444.395]
<no-speech> 
[449.055]
h ɯ 
[449.685]
<no-speech> 
[451.165]
aː ɫ a m a m 
[452.005]
<no-speech> 
[453.525]
<no-speech> 
[454.065]
<no-speech> 
[459.365]

[460.045]
<no-speech> 
[468.035]
<no-speech> 
[468.735]
<no-speech> 
[473.045]
a ɫ ɫ a a ɫ ɫ a 
[473.995]
<no-speech> 
[481.315]
w a ɾ i ʃ l e ɾ i 
[482.345]
<no-speech> 
[483.775]
b a b a s ɯ ɟ i b i j ɯ ɾ t ɯ k d e s e n e 
[485.825]
<no-speech> 
[487.435]
b a b a s ɯ ɟ i b i m i n j o n t i p l i 
[489.155]
<no-speech> 
[493.815]
<no-speech> 
[494.265]
<no-speech> 
[496.055]
b i t a n e d e 
[497.655]
<no-speech> 
[502.295]
<no-speech> 
[502.705]
<no-speech> 
[505.035]
a j n e n b a c a ɾ ɯ m m ɯ d i j o ɾ 
[506.445]
<no-speech> 
[517.465]
<no-speech> 
[528.485]
h ɯ <no-speech> ɯ m h ɯ m 
[530.445]
<no-speech> 
[535.845]
h ɯ <no-speech> m a n j a k t a s i n i n d yː n n e z a m aː n 
[538.785]
<no-speech> 
[540.965]
t a h s i n <no-speech> t a s i n i n d yː n n e z a m aː n 
[543.455]
<no-speech> 
[548.875]
b u <no-speech> h ɯ c ø j d e m i j a p ʤ a k 
[552.025]
<no-speech> 
[556.035]
i j i j i m 
[557.385]
<no-speech> 
[562.545]
h ɯ o n ɫ a ɾ ɯ b i l m i j o m oː n e ɾ d e i s t a n b u ɫ d a m ɯ 
[564.735]
<no-speech> 
[568.675]
h ɯ 
[569.205]
<no-speech> 
[571.175]
eː i s t a n b u ɫ d a 
[572.535]
<no-speech> 
[574.025]
h ɯ 
[575.725]
<no-speech> 
[578.485]
e 
[579.275]
<no-speech> 
[582.695]
oː n e z a m aː n 
[583.555]
<no-speech> 
[586.685]

[587.215]
<no-speech> 
[589.495]
c i m c i m i j e n e ɾ 
[590.455]
<no-speech> 
[591.375]
<no-speech> 
[591.865]
<no-speech> 
[592.835]
h ɯ o ɫ u ɾ c i m c i m i 
[594.535]
<no-speech> 
[595.455]
c i m c i m ɟ e l i j o ɾ ɫ a ɾ 
[597.495]
<no-speech> 
[598.915]

[599.975]
<no-speech> 
[599.98]
