[0.0]
<no-speech> 
[2.435]
a ɫ o 
[3.115]
<no-speech> 
[6.035]
n e j a p ɯ j o n 
[6.695]
<no-speech> 
[8.825]
<laugh> d u j u j o ɾ m u s u n s e s i m i <sta> 
[13.355]
<no-speech> 
[14.855]
<hes> ʃ e j ɟ e ʧ ɟ e l i j o ɾ ɟ aː l i b a b y j y c b i i h t i m a l <sta> <no-speech> a j ʧ o k s i n i ɾ b o z u ʤ u b i ʃ e j <cough> 
[26.215]
<no-speech> 
[27.775]
d u j u j o ɾ m u s u n s e n b e n i 
[30.515]
<no-speech> 
[32.204875]
h a i j i n e j a p ɯ j o n <laugh> 
[34.585]
<no-speech> 
[39.795]
n e j a p ɯ j o n n e j a p ɯ j o n 
[40.975]
<no-speech> 
[45.515]
h a j ɾ e t s e n n a s ɯ ɫ e w e i n t e ɾ n e t m i a ɫ d ɯ n 
[48.115]
<no-speech> 
[56.615]
<no-speech> 
[59.045]
a n a n ɫ a m a d ɯ m c i s e n i ʃ u a n 
[60.735]
<no-speech> 
[65.845]
h a h a n e z a m aː n a ɫ d ɯ n ɯ z c i 
[67.825]
<no-speech> 
[73.785]
h a j ɯ ɾ b e 
[74.795]
<no-speech> 
[75.665]
b e n e n s o n b i l d iː m d e s i z d e j o k t u c i i n t e ɾ n e t 
[78.015]
<no-speech> 
[81.915]
n e b i l e j i m b e n b e n s i z e e n s o n n e z a m aː n ɟ e l d i m h a t ɯ ɾ ɫ a m ɯ j o m c i i ʃ t e n e z a m aː n ɟ e l d i j s e m oː z a m aː n 
[86.685]
<no-speech> 
[89.215]
b e n 
[89.775]
<no-speech> 
[92.365]
i c i y ʧ s e n e d e n b e ɾ i m i 
[93.915]
<no-speech> 
[100.685]
h a 
[101.605]
<no-speech> 
[102.715]
i j i b e n 
[103.715]
<no-speech> 
[104.885]
b e n b e n ɟ e l d i m ɯ m h ɯ m a j s ɯ n a w d a n ʧ ɯ k t ɯ m d e l i ɾ i ʤ eː m j a ʧ o k c ø t y j d y oː k a d a ɾ ʧ a ɫ ɯ ʃ t ɯ m ʧ a ɫ ɯ ʃ t ɯ m b i d e b y j y c b i i h t i m a l c e s i n k a ɫ ʤ aː m 
[112.895]
<no-speech> 
[116.605]
<no-speech> 
[116.955]
<no-speech> 
[118.605]
o n b e ʃ i n d e o n b e ʃ i n d e d e b e n i m c i o n y ʧ y n d e b i t i j o ɾ 
[122.525]
<no-speech> 
[123.645]
o n y ʧ y n d e b i t i j o ɾ o n d a n s o n ɾ a z a t e n ʃ e j j a p ʤ aː m <hes> b i i c i ɟ y n ʃ e j d ɯ ʃ a ɾ ɯ ʧ ɯ k ɯ ʤ aː m j a d ɯ ʃ a ɾ ɯ ʧ ɯ k ɯ ʤ aː m d e ɾ c e n i s t a n b u ɫ a ɟ e l ʤ eː m d e d i ɾ e c t e w e ɟ e ʧ m e j e ʤ e i m i c i ɟ y n i ʃ l e ɾ i m w a ɾ 
[133.045]
<no-speech> 
[134.375]
o n d a n s o n ɾ a h a l l e d ʤ eː m o n ɫ a ɾ ɯ o n d a n s o n ɾ a e w e ɟ e ʧ ʤ eː m i c i ɟ y n i ʃ i m w a ɾ h a n i o n y ʧ y n d e b i t i j o ɾ j a o n d ø ɾ d y o n b e ʃ i 
[140.635]
<no-speech> 
[141.675]
oː i ʃ l e ɾ i m i h a l l e t t i c t e n s o n ɾ a a n ʤ a k ɟ i d ʤ eː m e w e h e m e n ɟ i t m i ʤ eː m j aː n i s o n ɾ a s i z e ɟ e l ʤ eː m b a n a t o s t j a p ɯ ʤ a k s ɯ n 
[148.595]
<no-speech> 
[151.705]
<no-speech> 
[152.295]
<no-speech> 
[153.305]
<laugh> h i ʧ u n u t m u j o m oː t o s t ɫ a ɾ ɯ m e ɾ a k e t m e <no-speech> t a m a m b a n a t o s t j a p ɯ ʤ a k s ɯ n t o s t j a p ɯ ʤ a k s ɯ n e ɾ i k h a b i ʃ e j s ø j l i j ʤ eː m b i l m i j o m b a n a b i s y ɾ y h a ʃ ø j l e 
[165.155]
ʃ e j j a p 
[165.875]
<no-speech> 
[169.525]
b i l m i j o m t o s t j a p 
[171.555]
<no-speech> 
[173.545]
<laugh> t a m a m m ɯ t o s t j a p 
[176.465]
<no-speech> 
[177.885]
<sta> a j ʧ o k c ø t y j y m j a 
[180.315]
<no-speech> 
[182.775]
j a b e n i m t e l e f o n d a n c a j n a k ɫ a n ɯ j o ɾ ɟ ø s t e ɾ i ʤ eː m ɟ ø s t e ɾ i ʤ eː m b e n i m t e l e f o n d a n c a j n a k ɫ a n ɯ j o ɾ oː j y z d e n 
[190.675]
i s t a n b u ɫ a b i ɟ e l e j i m d e h a l l e d ʤ eː m h e p s i n i 
[195.505]
<no-speech> 
[197.945]
b a k a j n e a n ɫ a t ʤ aː m s a n a d u ɾ <sta> ʃ e j <no-speech> d y n b i ɾ i j l e ʃ e j a n ɫ a t ʤ aː m a n ɫ a t ʤ aː m 
[205.895]
<no-speech> 
[208.455]
ɟ y z e l ʃ e j l e ɾ a n ɫ a t ʤ aː m d a <int> 
[210.485]
<no-speech> 
[212.795]
<no-speech> 
[213.415]
<no-speech> 
[215.435]
j a j o k a j a n ɫ a t ʤ aː m d a h a n i a n ɫ a t a m a m d iː l b i o ɾ t a m m y s aː i t d iː l j o k s a a n ɫ a t ɯ ɾ ɯ m o ɾ t a m m y s aː i t o ɫ s a n e l e ɾ a n ɫ a t ʤ aː m n e l e ɾ b e n ʃ e j d e j i m j a o k u ɫ u n c a p ɯ s ɯ n ɯ n ø n y n d e j i m a ɾ a b a ɫ a ɾ f a ɫ a n ɟ e ʧ i j o ɾ b ø j l e n o ɾ m a ɫ d e ɟ i d i p b i ɾ a z d a n ɟ i d ʤ eː m i ʃ t e e w a ɾ k a d a ʃ ɯ b i t a n e k ɯ z ɫ a ɟ ø ɾ y ʃ t y m d e e w a ɾ k a d a ʃ ɯ i ʧ i n j a ɫ n ɯ z k a ɫ ɯ j o m j a b i t a n e k ɯ z ɟ e l ʤ e c j a n ɯ m a b u ɟ y n k o n u ʃ ʤ aː z i ʃ t e b i ɾ a z d a n ɟ i d ʤ eː m j a n ɯ n a <int> d e d i m b i ɟ i t m e d e n s e n i n l e k o n u ʃ a j ɯ m j o k k ɯ z e w h ɯ 
[247.075]
j a b e n e w d e t e c k a ɫ ɯ j o m j a 
[248.855]
<no-speech> 
[250.025]
d a e w e ɟ e l m i ʤ e c j aː n i o k u ɫ u n i ʧ i n d e k a f e d e ɟ ø ɾ y ʃ ʤ eː z 
[253.565]
<no-speech> 
[255.335]
j a n ɯ m a a ɫ ʤ aː m 
[257.215]
<no-speech> 
[262.325]
n e 
[262.945]
<no-speech> 
[268.235]
j a a n ɫ a ʃ a b i l e ʤ e c m i j i m j a k ɯ z ɫ a h e ɾ ʃ e j i k o n u ʃ t u k ø j l e h e ɾ c y ʧ y c b i a j ɾ ɯ n t ɯ j ɯ <laugh> <sta> ʤ i d d iː m i s ø j l y j o n <no-speech> h ɯ 
[278.525]
<no-speech> 
[279.545]
eː j a n ɫ ɯ z z a t e n <laugh> h ɯ d u ɾ a n ɫ a t a j ɯ m k ɯ z ɯ a n ɫ a t ɯ j o ɾ d u m 
[283.635]
<no-speech> 
[284.825]
ʃ e j i ʃ t e b u ɟ y n ɟ ø ɾ y ʃ ʤ eː z k ɯ z j a h a n i b a j aː h e ɾ ʃ e j i k o n u ʃ t u k i n ʤ e a j ɾ ɯ n t ɯ ɫ a ɾ ɯ f a ɫ a n h a n i b i z b i ʃ e j ʧ ɯ k m ɯ ʤ a k ɟ i b i b a k a ɫ ɯ m h a t t a b e n i m o d a m h a n i o n u n o d a s ɯ n a ɟ ø ɾ e d a a b y j y c 
[296.525]
d e d i m c i b ø j l e d e d i m o d a d e d i m c y ʧ y c b iː ɾ a z d e d i m o d a d a s o ɾ u n d iː l d e d i h a n i h e ɾ c y ʧ y c a j ɾ ɯ n t ɯ j ɯ k o n u ʃ t u k ʃ i m d i d e j y z j y z e k o n u ʃ ʤ aː z j o k w a ɾ j a g ɯ ʤ ɯ k b i ʃ e j j a b e n b u b ø j l e b e c l i j o m 
[308.395]
<sta> ʧ o k b e ɾ b a t b i ʃ e j s ɯ k k a <no-speech> ʧ o k b e ɾ b a t oː j a a ɫ o 
[315.605]
<no-speech> 
[316.985]
b e n s a n a i ʃ t e d a a s o n ɾ a b a a n ɫ a t ʤ aː m j aː n i d u ɾ u m u <int> 
[321.255]
<no-speech> 
[322.555]
a n ɫ a d ɯ n k a p a t ʤ a k <int> t a b i k a p a t a <laugh> ʃ e j j o k j a n ɯ m d a s o n ɟ y l d e w a ɾ j a o n u n ɫ a d a k o n u ʃ u j o m 
[333.435]
s u s s a n a <laugh> d e l i ɾ i ʤ eː m j a b u ɾ a d a ɾ e s m e n b i ʃ e j s ø j l i j ʤ eː m b i d a c i c a b i d u ɾ s a n a ʃ e j d i l e c j a i j i b i ɾ a z d a n k a p a n ɯ ɾ z a t e n t e l e f o n u m d a b i b e ʃ d a c i c a s o n ɾ a f a ɫ a n t e c ɾ a ɾ d a n a ɾ a ɾ ɯ m 
[356.685]
<no-speech> 
[357.715]
ø n e m l i ʃ e j l e ɾ i a n ɫ a t ʤ aː m s a n a oː z a m aː n j a p a b i l i ɾ s i n i s t e d i j i n i 
[361.125]
<no-speech> 
[362.225]
e s e n k a p a t m ɯ ʤ a k s ɯ n d a a ø n e m l i ʃ e j l e ɾ i a n ɫ a t ʤ aː m s a n a b i d a c i c a d u ɾ s o n ɟ y l e b i ʃ e j s ø j l i j ʤ eː m 
[374.065]
w a ɾ <cough> b i d a c i c a m e ɾ a k e t t i m j a h ɯ 
[379.675]
<no-speech> 
[382.375]
a j 
[383.255]
<no-speech> 
[385.365]
a ɫ o 
[386.025]
<no-speech> 
[387.645]
h a ʤ ɯ 
[388.765]
<no-speech> 
[391.565]
s e n i n ʃ e j <hes> e b ɾ u w a ɾ j a 
[394.685]
<no-speech> 
[395.865]
e b ɾ u e b ɾ u oː h a n ɟ i l i s e j d i 
[399.415]
<no-speech> 
[400.645]
t a b i m e ɾ a k e t t i m ʃ u a n j a ɫ n ɯ z 
[402.945]
<no-speech> 
[404.705]
n e d i m m i h y s e j i n m i 
[405.815]
<no-speech> 
[406.785]
b i z i m c i l e ɾ m i 
[408.735]
<no-speech> 
[409.835]
h ɯ <sta> <hes> ʃ u a n b i t i ɾ m i ʃ o ɫ d u s o n s e n e d e o ɫ m a s ɯ ɟ e ɾ e c m i j o ɾ m u 
[416.055]
<no-speech> 
[419.815]
j o k h a j ɯ ɾ c a ʧ ɯ n ʤ ɯ s ɯ n ɯ f a c a ʧ ɯ n ʤ ɯ s ɯ n ɯ f a ɟ e ʧ t i <int> a j oː z a m aː n d e m e c c i h a c a n b i z i m c i b ɯ ɾ a k t ɯ j a e j e ɾ b ɯ ɾ a k m a s a j d ɯ e b ɾ u j ɫ a b i ɾ l i c t e o ɫ ʤ a k t ɯ ɟ aː l i b a 
[432.595]
<no-speech> 
[433.405]
t a b i k ɯ z ɯ m oː a k ʃ a m j a a k ʃ a m l i s e s i n e ɟ i d i j o ɾ ɫ a ɾ h ɯ h ɯ a k ʃ a m l i s e s i n e ɟ i d i j o ɾ j a a ɫ ɫ a a ʃ k ɯ n a o n t a n e ʃ e j o n t a n e z a j ɯ f ɟ e t i ɾ e n a d a m d a n n e b e c l i j o n 
[443.785]
<no-speech> 
[447.145]
j a b i l d i j i n h e p s i z a j ɯ f j aː n i h i ʧ b i ɾ t a n e j y c s e c n o t ɟ e l m e d i c i 
[450.485]
<no-speech> 
[451.605]
i c i e i c i s e n e y s t y s t e k a l ɯ j o k i c i s e n e y s t y s t e c a ɫ d ɯ j a 
[456.175]
<no-speech> 
[457.075]
j aː n i n e j s e b o ʃ i c i s e n e y s t y s t e k a ɫ ɯ n ʤ a z a t e n b i d a a a ɫ m ɯ j o ɾ ɫ a ɾ m ɯ ʃ h e ɾ h a l d e 
[462.965]
<no-speech> 
[468.905]
<hes> ʃ e j b e n d e ø j l e 
[470.655]
<no-speech> 
[471.635]
<sta> a n ɫ a m a d ɯ m 
[473.805]
<no-speech> 
[477.235]
m a n j a k k ɯ z ɯ m j a w a ɾ j a ø z e l d e ɾ s f a ɫ a n d a a ɫ d ɯ ɾ ɯ j o ɾ h a ɫ a m 
[481.875]
<no-speech> 
[485.275]
<sta> h ɯ h ɯ ø z e l 
[486.935]
<no-speech> 
[488.045]
a n ɫ a m a d ɯ m 
[488.945]
<no-speech> 
[490.835]
<no-speech> 
[491.655]
<no-speech> 
[492.465]
c a ʧ a ɟ i d i j o ɾ b i l m e m b e ʃ e ɟ e ʧ i j o ɾ b e ʃ e ɟ i d i j o ɾ ɟ aː l i b a aː o ɾ t a b i ɾ e ɟ e ʧ t i k ɯ z j a d ø ɾ d e j a b e ʃ e j a o ɾ t a b i ɾ e ɟ aː l i b a a m a o n u n c i ʧ o k i j i j a b a j aː b i ø z e l d e ɾ s 
[502.575]
f a ɫ a n a ɫ d ɯ ɾ ɯ j o ɾ h a ɫ a m w a j n e j s e b e n ɟ i d e j i m 
[509.625]
<no-speech> 
[510.905]
w o ɫ k a n b i z i m t a ɾ a f a h a c a n b a b a s ɯ n ɯ n t a ɾ a f ɯ n a ʧ e c t iː i ʧ i n oː j y z d e n b i z b i z i m t a ɾ a f a ʧ e c m i ʃ k ɯ z ɯ m b e n ɟ i b i ʧ a ɫ ɯ ʃ c a n 
[522.035]
<no-speech> 
[523.185]
m u t b u a ɾ a d a f o t o k o p i ʃ e j b a n a d a ʧ e k t i ɾ s e n e 
[525.515]
<no-speech> 
[528.195]
h a i ʃ t e m a t e m a t i c b a n a d a ʧ e k t i ɾ i n b i t a n e o f b u ɟ y n ʧ o k c ø t y j d y s ɯ n a w j a n a l e t o ɫ a s ɯ 
[537.455]
<no-speech> 
[539.665]
<sta> d u j u j o ɾ m u s u n 
[542.205]
<no-speech> 
[544.115]
d u j u j o ɾ m u s u n s e n b e n i 
[546.205]
<no-speech> 
[548.385]
h a j o k a ɾ a d a s e s i n ɟ i d i j o ɾ d a d e d i m h e ɾ h a l d e b e n i d i n l e m i j o ɾ <sta> j a n d a ʃ m ɯ h a h a n i n e ɾ e d e <laugh> <overlap> w a ɾ j a <hes> i n a n m ɯ j o m j aː n i b i ʃ e j s ø j l i j ʤ eː m s a n a <int> 
[567.635]
<no-speech> 
[568.655]
<sta> d a n d i c b i ʃ e j j a ʃ e j e ɾ s i n i l e k o n u ʃ u j o ɾ m u s u n u z a j b a ɯ ɾ ɯ j o ɾ u m ɾ e s m e n j a e ɾ s i n l e e ɾ s i n l e 
[577.195]
<no-speech> 
[578.425]
<laugh> n i j e k o n u ʃ m u j o ɾ s u n u z b e n b u ɫ d u m b e n b u ɫ d u m b i ɾ i n i b i ɾ i n i b u ɫ d u m 
[584.105]
<no-speech> 
[586.215]
<sta> a j i n a n a m a z s ɯ n w a ɾ j a m y c e m m e l ʃ e j l e ɾ o ɫ d u j a a n ɫ a t ʤ aː m <laugh> 
[592.745]
<no-speech> 
[593.695]
m y c e m m e l ʃ e j l e ɾ j a b ø j l e ʧ o k d iː ʃ i c b i ʃ e j j aː n i a n ɫ a t ʤ aː m d iː ʃ i c b ø j l e ʧ o k d iː ʃ i c t e s aː d y f 
[599.785]
<no-speech> 
[599.94]
