[0.0]
<no-speech> 
[0.375]

[1.515]
<no-speech> 
[2.325]
a ɫ o 
[2.885]
<no-speech> 
[5.475]
a ɫ o d a j ɯ b e n i m 
[6.365]
<no-speech> 
[8.345]
a ɫ o d a j ɯ 
[9.275]
<no-speech> 
[11.125]
a ɫ o d a j ɯ b e n i m d u j u j o ɾ m u s u n 
[13.335]
<no-speech> 
[15.345]
d a j ɯ h e h e d a j ɯ 
[17.275]
<no-speech> 
[18.595]
a ɫ o 
[19.215]
<no-speech> 
[20.135]
d a j ɯ h e h e ʃ e j <hes> n e j d i o n u n a d ɯ d y n h a n i o j u n u j y c l e d i c j a d a j ɯ 
[26.755]
<no-speech> 
[28.765]
a ɫ o 
[29.375]
<no-speech> 
[30.515]
a ɫ o 
[31.235]
<no-speech> 
[32.555]
h e d a j ɯ d u j u j o ɾ m u s u n b e n i h e h e d y n d a o j u n u 
[36.965]
<no-speech> 
[37.845]
<hes> ʃ e j 
[40.015]
<no-speech> 
[40.825]
<hes> b i z b i z 
[43.075]
<no-speech> 
[44.545]
n e d i ʤ eː m d i n l e b e n i d a j ɯ <hes> ʃ e j <hes> <foreign> b i t i ɾ d i c j a d a j ɯ 
[51.885]
<no-speech> 
[53.095]
a ɫ o 
[53.695]
<no-speech> 
[54.845]
ʃ i m d i b i n i c i b i n j e t m i ʃ d ø ɾ d e j e d i j y z a ɫ t m ɯ ʃ s e c i z s e n e o j u n u ʃ e j w a ɾ d ɯ j a d a j ɯ b i n j i ɾ m i d ø ɾ d e j e d i j y z a ɫ t m ɯ ʃ s e c i z ʧ ø z y n y ɾ l y c o ɾ a n ɯ d u j u j o n d iː l m i d a j ɯ b e n i 
[65.555]
<no-speech> 
[66.395]
o n u h a n i b i n i c i j y z s e c s e n e j e d i j y z h e b i n i c i j y z s e c s e n e j e d i j y z a ɫ t m ɯ ʃ s e c i z e j a p t ɯ m t a m a m m ɯ b e n i m c i n d e b e n i m d i z y s t y n d e d i n l i j o ɾ m u s u n o n d a n s o n ɾ a j a n d a a j a ɾ i n ʤ e a j a ɾ ɫ a ɾ d a n b a s e t t i m j a d y n d a j ɯ 
[78.235]
<foreign> 
[79.095]
<no-speech> 
[80.215]
d e t a j ɫ a n d ɯ ɾ m a m o d e l l e m o d e l i n m o d e l i n d e t a j ɫ a n d ɯ ɾ ɯ ɫ m a s ɯ d a j ɯ oː m o d e l i n d e t a j ɫ a n d ɯ ɾ m a s ɯ n ɯ j a p t ɯ k t a n s o n ɾ a o j u n ʃ e j i n i w e ɾ i j o ɾ b i l ɟ i s a j a ɾ k a s m ɯ j o ɾ d a h i ʧ b i ɾ ʃ e c i l d e 
[90.645]
<no-speech> 
[92.735]
d y ʃ y c o ɫ d uː i ʧ i n b i l ɟ i s a j a ɾ k a s ɯ n t ɯ j a p ɯ j o ɾ h a n i a ɫ g ɯ ɫ a j a m ɯ j o ɾ ɟ ø ɾ y n t y j y <foreign> n o ɾ m a l e d ø n y j o ɾ a n ɫ a t a b i l d i m m i d a j ɯ h e ɾ h a n ɟ i b i ʃ e c i l d e ʃ e j j a p m ɯ j o n i l k 
[102.385]
<no-speech> 
[103.625]
<hes> <foreign> a j a ɾ ɫ a ɾ ɯ w a ɾ j a d a j ɯ e f e n d i m 
[107.985]
<no-speech> 
[110.665]
d y n s e n i n c i ʃ u a n a ʧ ɯ k m ɯ ʃ i m d i ø n y n d e d a j ɯ 
[113.925]
<no-speech> 
[117.605]
h a j ɯ ɾ j o k j o k j o k j o k j o k c e s i n l i c l e a ɫ o 
[120.975]
<no-speech> 
[121.805]
d u j u j o ɾ m u s u n j o k k a p a m a d u ɾ b e n h e c e s i n l i c l e k a p a m a t e l e f o n u 
[128.205]
<no-speech> 
[129.674875]
ʃ e j d i ʤ eː m h e oː b i n j i ɾ m i d ø ɾ d e j e d i j y z a ɫ t m ɯ ʃ s e c i z <hes> ʃ e j oː ɟ ø ɾ y n t y a j a ɾ ɫ a ɾ ɯ w a ɾ j a d a j ɯ o n ɫ a ɾ ɯ b i n i c i j y z s e c s e n e ɟ e t i ɾ i j o n t a m a m m ɯ d a j ɯ b i n i c i j y z s e c s e n e j e d i j y z a ɫ t m ɯ ʃ 
[141.395]
<no-speech> 
[142.195]
h e b i n i c i j y z s e c s e n e j e d i j y z a ɫ t m ɯ ʃ s e c i z ɟ e t i ɾ i j o n b i c e ɾ e s e n i n g ɯ ɾ a f i c k a ɾ t ɯ n b e n i m c i n d e n d a a k u w w e t l i j a n ɯ n d a ʃ e j w a ɾ <foreign> a j a ɾ ɫ a ɾ ɯ w a ɾ h a n i b u <foreign> j a z ɯ j o ɾ a ɫ t ɯ n d a o ɾ a ɫ a ɾ d a b i j e ɾ l e ɾ d e h e m e n 
[155.965]
<no-speech> 
[158.995]
h e d u ɾ s a k ɯ n t e l e f o n u k a p a m a h i ʧ b i ɾ ʃ e j d e n d e b a s e t m e k o n u ʃ t uː m u z k o n u d ɯ ʃ ɯ n d a h a j ɯ ɾ j o k s a k ɯ n o n d a c i c a o n d a c i c a <hes> k o n u ʃ m a m l aː z ɯ m ʃ u a n s e n i n l e s a k ɯ n d i j o m 
[170.595]
<no-speech> 
[172.875]
e w e t s a k ɯ n d i j o m h i ʧ b i ɾ ʃ e j d e n b a s e t m e b e n s aː d e ʤ e d i j o m c i <hes> b u ɟ e l i ʃ m i ʃ a j a ɾ ɫ a ɾ w a ɾ o j u n d a c i a n ɫ a t a b i l d i m m i 
[182.565]
<no-speech> 
[184.565]
<no-speech> 
[184.925]
<no-speech> 
[185.765]
b e n d e b u ɟ ø ɾ y n t y a j a ɾ ɫ a ɾ ɯ d a j ɯ w a ɾ j a h i ʧ u z a t m a j a b i n i c i j y z s e c s e n e j e d i j y z a ɫ t m ɯ ʃ s e c i z w a ɾ j a n ɯ n d a s e <foreign> j a z ɯ j o ɾ a n ɫ a t a b i l d i m m i ɟ ø ɾ y ɾ s y n d a j ɯ <foreign> a ʧ t ɯː n z a m aː n m o d e l d e t a j ɫ a n d ɯ ɾ m a s ɯ n ɯ s e n c e n d i e l i n l e j a p ɯ j o n <foreign> h e p s i n i <foreign> ɟ e t i ɾ i j o n 
[201.735]
<no-speech> 
[202.565]
<hes> <foreign> j a z ɯ j o ɾ 
[204.575]
<no-speech> 
[206.765]
<hes> 
[207.125]
<no-speech> 
[208.395]
t a m a m d a j ɯ 
[209.275]
<no-speech> 
[212.675]
b e c l i j o m b e c l i j o m 
[213.935]
<no-speech> 
[219.335]
b e c l i j o m 
[220.125]
<no-speech> 
[231.795]
a ɫ o 
[232.455]
<no-speech> 
[233.825]
h e ɾ n e j s e 
[234.755]
<no-speech> 
[235.675]
d e t a j ɫ a n d ɯ ɾ m a j a p ɯ ʤ a k s ɯ n 
[237.235]
<no-speech> 
[238.365]
oː k o n u ʃ ʤ aː z 
[239.645]
<no-speech> 
[240.545]
b a ʃ k a b i ʃ e j j o k 
[241.505]
<no-speech> 
[243.115]
<no-speech> 
[243.515]
<no-speech> 
[249.605]

[251.175]
<no-speech> 
[252.325]
eː d a j ɯ b e n i d u j u j o ɾ m u s u n 
[254.615]
<no-speech> 
[255.825]
d a j ɯ 
[256.565]
<no-speech> 
[258.085]
h ɯ <foreign> 
[259.484875]
<no-speech> 
[260.684875]
h ɯ <foreign> a ʧ t ɯ n <foreign> a ʧ t ɯ n <foreign> a ʧ ɯ j o n d a j ɯ d y n a k ʃ a m oː j y z d e n s e n i b e n ʧ a ɫ d ɯ ɾ d ɯ m o j u n u a ʧ d i j e a n ɫ a t a b i l d i m m i h a n i b e l i ɾ t e j i m ʧ y n c y oː z a m aː n 
[271.855]
<no-speech> 
[272.995]
b i n i c i j y z s e c s e n e j e d i j y z a ɫ t m ɯ ʃ s e c i z 
[274.895]
<no-speech> 
[276.595]
o n u b i n i c i j y z b i n i c i j y z s e c s e n e ʧ ɯ k a ɾ t ɯ j o n 
[279.835]
<no-speech> 
[284.445]
j a n a s ɯ ɫ j o k d a j ɯ j a n ɯ n d a b i n j i ɾ m i d ø ɾ d y n j a n ɯ n d a i ʃ aː ɾ e t w a ɾ b a s ɯ j o n 
[288.675]
<no-speech> 
[290.215]
h e b i n i c i j y z s e c i z b i n i c i j y z s e c i z b i n i c i j y z s e c s e n j a p i ʃ t e d a j ɯ b i ɾ i n i s e ʧ 
[295.035]
<no-speech> 
[296.475]
s e ʧ t i n m i 
[297.335]
<no-speech> 
[301.835]
h e d i n l i j o m 
[303.685]
<no-speech> 
[304.815]
e w e t d oː ɾ u 
[306.535]
<no-speech> 
[309.085]
b i n y ʧ j y z m y <no-speech> 
[311.565]
b i d a c i c a p a ɾ d o n b i n j i ɾ m i d ø ɾ t d oː ɾ u j u m d iː l m i b i n j i ɾ m i d ø ɾ t t e n s o n ɾ a b i n i c i j y z s e c s e n ʧ ɯ k m ɯ j o ɾ m u d a j ɯ s e n d e 
[317.455]
<no-speech> 
[320.775]
n e ʧ ɯ k ɯ j o ɾ b i n y ʧ j y z a ɫ t m ɯ ʃ m ɯ ʧ ɯ k ɯ j o ɾ 
[322.725]
<no-speech> 
[326.165]
t a m a m oː z a m aː n b i n y ʧ j y z j a p b e n ʧ y n c y b e n i m e c ɾ a n c a ɾ t ɯ d a a f a z ɫ a k a ɫ d ɯ ɾ m a z d i j e b i n i c i j y z s e c s e n d e b ɯ ɾ a k t ɯ m b e n o n u 
[332.065]
<no-speech> 
[334.015]
a n ɫ a t a b i l d i m s e n i n c i b i ɟ i g a b i t e d a j ɯ d ø ɾ t ɟ i g a b i t e ʃ i m d i s e n b i n y ʧ j y z e oː z a m aː n b i n y ʧ j y z a ɫ t m ɯ ʃ s e c i z e n y s t ʃ e j i n i a ɫ ɯ j o ɾ d e m e c c i s e n d e o j u n d a a k u w w e t l i a ɫ ɯ j o ɾ 
[345.525]
aː t i e c ɾ a n c a ɾ t ɯ o ɫ d uː i ʧ i n b i n y ʧ j y z a ɫ t m ɯ ʃ s e c i z j a p t ɯ n j a p t ɯ n m ɯ d a j ɯ o n u 
[351.225]
<no-speech> 
[354.655]
j a a ɫ t t a ɾ a f ɯ b i i ʃ a ɾ e t l e j e ʤ e c s i n b e d a j ɯ ʤ ɯː m 
[356.915]
<no-speech> 
[358.055]
h e 
[358.565]
<no-speech> 
[359.565]
<no-speech> 
[359.935]
<no-speech> 
[370.625]
oː e j e ɾ e j e ɾ d i j e l i m b i n y ʧ j y z a ɫ t m ɯ ʃ s e c i z i k a ɫ d ɯ ɾ m ɯ j o ɾ s a c i k a ɫ d ɯ ɾ m a s ɯ l aː z ɯ m 
[375.615]
<no-speech> 
[376.645]
d i j e l i m k a ɫ d ɯ ɾ m a d ɯ d a j ɯ j i n e b i n j i ɾ m i d ø ɾ d e b ɯ ɾ a k s e n o n u 
[379.435]
<no-speech> 
[383.355]
e w e t 
[383.875]
<no-speech> 
[385.905]
d i j e l i m a ʧ m a d ɯː n ɯ f a ɾ z e d e l i m t a m a m d a j ɯ ʃ ø j l e b i ʃ e j j a p a ɫ ɯ m o n a b i n j i ɾ m i d ø ɾ d e w a ɾ j a j a n ɯ n d a eː h ɯ 
[393.315]
<no-speech> 
[397.045]
d u j u j o ɾ m u s u n a ʧ m a d ɯ 
[399.135]
<no-speech> 
[402.535]
a ʧ m a d ɯ m ɯ ʃ u a n 
[403.605]
<no-speech> 
[405.475]
k a s a b i l i ɾ 
[406.385]
<no-speech> 
[408.075]
t a m a m b e c l i j o m p p p ɯ ɾ o b l e m j o k t a m a m d i j e l i m oː a ʧ m a z s a b e n s a n a b a s e d i j o ɾ u m d i j o m c i <breath> e j e ɾ a ʧ m a z s a oː j i n e b i n j i ɾ m i d ø ɾ d e j e d i j y z a ɫ t m ɯ ʃ s e c i z o ɫ a ɾ a k c a ɫ s ɯ n t a m a m m ɯ j a n 
[419.945]
t a ɾ a f ɯ n d a a ʃ a ɯ s ɯ n d a <foreign> d i j e ʃ e j w a ɾ m o d e l a j a ɾ ɫ a ɾ ɯ j a z ɯ j o ɾ h a n i <foreign> j a d a <foreign> d i j o ɾ 
[427.485]
<no-speech> 
[431.105]
ɟ ø ɾ d y n m y d a j ɯ 
[431.965]
<no-speech> 
[435.905]
h e a ʧ ɯ ɫ d ɯː z a m aː n <foreign> j a z ɯ j o ɾ t a m a m m ɯ 
[438.985]
<no-speech> 
[444.795]
oː oː z a m aː n b i d a a a ʧ k a p a j a p d a j ɯ 
[446.945]
<no-speech> 
[448.195]
o ɫ a b i l i ɾ t a k ɯ ɫ a b i l i ɾ e f e n d i m 
[450.285]
<no-speech> 
[453.185]
t a m a m b i d a a a ʧ k a p a j a p d a j ɯ 
[454.895]
<no-speech> 
[456.705]
f a ɾ k e t m e z 
[457.525]
<no-speech> 
[462.215]
i j i i ʃ l e m ʤ i b e n s a n a d i j o m i n t e l i ʃ l e m ʤ i l e ɾ b i h a ɫ t a j a ɾ a m a z aː m eː ʤ eː d eː d e n ʃ a ʃ m a j a ʤ a k s ɯ n o j u n o j n a ɾ c e n h e p m a c i n a ɫ a ɾ aː m eː d eː o ɫ u ɾ aː m eː aː m eː d eː l e ɾ ʧ o k k u w w e t l i d i ɾ 
[473.095]
<no-speech> 
[475.085]
j a j e m i ʃ i m d a j ɯ k a l i t e s i n i s e n b a k f e ɾ ɾ a ɾ i b i l e aː m eː d eː i n t e l d y n j aː n ɯ n p a ɾ a s ɯ n ɯ w e ɾ i j o ɾ aː m eː ʤ eː d eː d e n w a z ɟ e ʧ m i j o ɾ f e ɾ ɾ a ɾ i b i l e w a z ɟ e ʧ m i j o ɾ 
[483.255]
<no-speech> 
[484.955]
f e ɾ ɾ a ɾ i a ɾ a ʧ t a s a ɾ ɯ m ɫ a ɾ ɯ n ɯ ʃ u n u b u n u aː m eː d eː k u ɫ ɫ a n ɯ j o ɾ i n t e l d y n j aː n ɯ n p a ɾ a s ɯ n ɯ d ø c t y 
[490.095]
<no-speech> 
[495.795]
a n ɫ a d ɯ n h i ʧ ʃ e j e ɟ e ɾ e c j o k aː m eː d eː b i i c i a ɾ k a d a ʃ ɯ m d a a b a k b e n i m j y z y m d e n aː m eː d eː j e ɟ e ʧ t i l e ɾ a d a m ɫ a ɾ m e m n u n ɫ a ɾ ʤ a n a w a ɾ ɟ i b i ʧ a ɫ ɯ ʃ ɯ j o ɾ d i j o ɾ ʧ o ʤ u k ɫ a ɾ 
[504.915]
<no-speech> 
[511.755]
h e d a j ɯ i n t e l i n ʃ e j i ʃ u d u ɾ i n t e l h ɯ z h ɯ z a ʃ ɯ ɾ t m a ʧ y n c y b a k h a n i h e p j e n i b i ʃ e j ʧ ɯ k t ɯː n d a i n t e l e s y ɾ e c l i e c l e m e i s t i j o ɾ j o k d o n a n ɯ m ɯ d iː ʃ t i ɾ j o k b i l m e m n e aː m eː d eː n i n h i ʧ d o n a n ɯ m ɯ d iː ʃ m i j o ɾ 
[523.695]
d o n a n ɯ m ɫ a ɾ ɯ i n t e l i n k a ɫ d ɯ ɾ d ɯː n ɯ k a ɫ d ɯ ɾ ɯ j o ɾ ɫ a ɾ 
[527.155]
<no-speech> 
[528.525]
j a a j a ɾ ɯ j a p ɯ ɫ a ʤ a k t a j a p ɯ ɫ m ɯ ʃ b e n o ɾ d a j a p t ɯ m b y t y n <no-speech> 
[532.975]
j a c e n d i a j a ɾ ɫ a ɾ ɯ d e d i j i n n e d i ɾ d a j ɯ p ɾ o b l e m l e i l ɟ i l i a j a ɾ ɫ a ɾ ɯ w a ɾ j a d a 
[537.505]
<no-speech> 
[538.495]
n e a j a ɾ ɫ a ɾ ɯ 
[539.405]
<no-speech> 
[540.295]
j a g ɯ ɾ a f i c a j a ɾ ɫ a ɾ ɯ n d a n e w a ɾ d a j ɯ j a o t o m a t i c z a t e n g ɯ ɾ a f i c a j a ɾ ɯ ʃ e j j a p ɯ j o n s aː d e ʤ e <no-speech> 
[551.115]
j a d a j ɯ o n ɫ a ɾ ɫ a a ɫ aː c a s ɯ j o k i ʃ l e m ʤ i n i n j a p a ɾ ɯ z o n ɫ a ɾ ɯ p ɯ ɾ o b l e m d iː l o n ɫ a ɾ ɯ j a p a ɾ ɯ z b e n j a p a ɾ ɯ z n e o ɫ ʤ a k ʃ e j i n i j y c s e l t i j o n oː k a d a ɾ j a d a d e t a j ɫ a n d ɯ ɾ m a 
[562.955]
a ʧ ɯ j o n j a d a k a p a t ɯ j o n e l l e j a p ɯ j o n ɯ ʃ ɯ k a j a ɾ ɯ o n ɫ a ɾ b i ʃ e j d iː l c i 
[566.795]
<no-speech> 
[572.305]
n e d e n d a j ɯ 
[573.195]
<no-speech> 
[574.125]
p i ɾ e f o ɾ m d a n m ɯ p i ɾ i f o ɾ m ɫ a i l ɟ i l i n e a ɫ aː c a s ɯ w a ɾ d a j ɯ p i ɾ i f o ɾ m o n a m y d a l e e t m e z c i 
[578.425]
<no-speech> 
[579.995]
p i l m i n i j e ʃ a ɾ ʒ d a d iː l m i s e n i n c i 
[582.135]
<no-speech> 
[587.045]
ʃ a ɾ ʒ a t a k d a j ɯ n e a ɫ aː c a ʃ i m d i oː z a m aː n d i ɾ e c k a p a n ɯ ɾ j aː n i o j u n ɫ a b i ʃ e j i j o k c i o n u n 
[592.305]
<no-speech> 
[594.565]
t e l e f o n d iː l c i oː d i z y s t y a ʃ a ɯ d a o j u n o j n a ɾ c e n ʃ e j w e ɾ i ɾ 
[598.695]
<no-speech> 
[599.78]
