[0.0]
<no-speech> 
[6.685]
a ɫ o 
[7.315]
<no-speech> 
[9.675]
h ɯ 
[10.185]
<no-speech> 
[12.235]
h ɯ 
[12.745]
<no-speech> 
[14.315]
e j w a ɫ ɫ a 
[15.025]
<no-speech> 
[21.215]
o n d a c i c a m ɯ 
[22.195]
<no-speech> 
[23.605]
oː ɫ u m ʧ a b u k b i t i ɾ h a d i <no-speech> h a d i ʧ a b u k b i t i ɾ j a 
[26.825]
<no-speech> 
[28.445]
h ɯ 
[28.985]
<no-speech> 
[30.365]
j o k b e s e n h a d i j a p h a l l e t h a d i n e s o ɾ u ʤ a k s a n s o ɾ 
[32.975]
<no-speech> 
[38.415]
h ɯ n i j e <no-speech> k a j d e d i l i j o ɾ m u ʃ a m a 
[40.635]
<no-speech> 
[48.185]
c a j ɯ t i ʃ i n i j a p ʤ aː z t a b i n e ɾ d e j a p ʤ aː z 
[50.355]
<no-speech> 
[54.365]
b i z i m e w u j g u n <no-speech> d a n e j l e j a p ʤ aː z k a j d ɯ 
[57.265]
<no-speech> 
[62.155]
h ɯ ɟ e t i ɾ ɟ e t i ɾ <no-speech> b e n i m l a p t o p t a ʃ e j j o k ʧ y n c y <no-speech> m i c ɾ o f o n j o k 
[65.835]
<no-speech> 
[69.635]
h ɯ <no-speech> s e n i n c i n e m a ɾ k a s ɯ n e 
[71.725]
<no-speech> 
[76.025]
m a ɾ k a s ɯ n e <no-speech> 
[78.195]
oː ɫ u m <no-speech> l a p t o p u n m a ɾ k a s ɯ n e d i j o m <no-speech> h e 
[80.685]
<no-speech> 
[82.355]
h ɯ 
[82.905]
<no-speech> 
[84.085]
h e h e w a w a ɾ d ɯ ɾ o n d a <no-speech> a n ɫ a d ɯ k t a m a m l a n 
[87.475]
<no-speech> 
[88.495]
<no-speech> 
[89.155]
<no-speech> 
[91.185]
n e a n c e t i 
[92.305]
<no-speech> 
[101.525]
<no-speech> 
[110.745]
s e n i n s e s i n c ø t y ɟ e l i j o ɾ h ɯ 
[112.225]
<no-speech> 
[114.205]
j a j o k oː ɫ u m s i z i n b u t e l e f o n d a s ɯ k ɯ n t ɯ w a ɾ h e ɾ h a l d e s e s c ø t y ɟ e l i j o ɾ 
[117.655]
<no-speech> 
[121.695]
h ɯ ɟ e ʧ ɟ e l i j o ɾ d a o ɫ a b i l i ɾ <no-speech> a m a c ø t y d e ɟ e l i j o ɾ j aː n i 
[124.715]
<no-speech> 
[129.465]
h ɯ 
[130.004875]
<no-speech> 
[132.375]
h ɯ s ɯ k ɯ n t ɯ w a ɾ b iː ɾ a z h ɯ o n u p a t ɾ o n a s ø j l e j i n <no-speech> n a s ɯ ɫ 
[138.545]
<no-speech> 
[140.705]
h ɯ i j i h a d i c a ʧ d a c i c a c a ɫ d ɯ j a 
[142.665]
<no-speech> 
[146.705]
h e <no-speech> b a k n e d i ʤ eː m j a k ɯ ʃ ɯ k ʃ ɯ b i d u ɾ b i d u ɾ <no-speech> j a k ɯ ʃ ɯ k ɫ ɯ m e s a ʒ a t t ɯ s a b a <no-speech> d e d i ʃ e j d e d i j a ɾ ɯ n d e d i a k ʃ a m y s t y n e d e d i h a ɫ ɯ s a a a j a ɾ ɫ a a j a ɾ ɫ a j ɯ n d e d i 
[156.555]
<no-speech> 
[161.855]
j a j o k b i l m i j o m d a b e n j o k u m h ɯ 
[164.365]
<no-speech> 
[171.685]
j a a n c a ɾ a j a m ɯ ɟ i d ʤ eː z j a j a n e b i l e j i m oː ɫ u m h a s t a j ɯ m b e n z a t e n b i j e ɾ e ɟ i d e m e m 
[176.075]
<no-speech> 
[181.535]
h ɯ 
[182.075]
<no-speech> 
[185.865]
n e b i l e j i m j a y ʃ y t t y c h e ɾ h a l d e 
[187.525]
<no-speech> 
[191.895]
j a j o k j a oː ɟ y n z a t e n b e n i m ɟ e n i z d e h a f i f t e n w u ɾ u j o ɾ d u j a w a ʃ j a w a ʃ oː h e ɾ h a l d e ʃ e j o ɫ d u <no-speech> k a m e ɾ u n ɫ u j a d a ʃ e j e a ɾ a p ɫ a ɾ a s ø z y m y z w a ɾ d ɯ h ɯ 
[203.615]
<no-speech> 
[207.795]
j a i ʃ t e <no-speech> b i z i m ɟ ø c t uː i l e o t u ɾ u j o ɾ d u k <no-speech> ʃ e j d e 
[211.725]
<no-speech> 
[212.585]
<hes> m e j h aː n e d e a ɾ c a m a s a j a a ɾ a p ɫ a ɾ ɟ e l d i i ʃ t e <no-speech> s o b e t m o b e t f a ɫ a n 
[218.225]
<no-speech> 
[220.525]
b i ɾ i l i b j a ɫ ɯ j m ɯ ʃ <no-speech> i j i i j i j a b i ɾ i l i b j a ɫ ɯ b i k a m e ɾ u n ɫ u y ʧ y n ʤ y s y k o n u ʃ m u j o ɾ d u y ʧ y n ʤ y s y n y b i l m i j o z 
[226.905]
<no-speech> 
[229.065]
d e d i j a ɾ ɯ n d e d i a j n ɯ s aː t j a ɾ ɯ n d e d i a j n ɯ s aː t t e d e d i ɟ e l i n d e d i i ʧ e l i m d e d i <no-speech> d e d i m e j w a ɫ ɫ a aː b i ɟ e l i ɾ i z d e d i m d e ɟ i d e m e d i c i ʃ t e a j ɯ p o ɫ d u 
[236.795]
<no-speech> 
[239.515]
h ɯ 
[240.035]
<no-speech> 
[243.345]
j o k 
[243.835]
<no-speech> 
[250.755]
h ɯ 
[251.325]
<no-speech> 
[255.155]
b i z ʃ i m d i k a j ɯ t t a n e j a p ʤ aː z 
[256.745]
<no-speech> 
[263.085]
h ɯ <no-speech> eː i j i t a m a m 
[264.335]
<no-speech> 
[268.955]
j a t e c n i c i ʧ i n b e n a d a m b u ɫ u ɾ u m s a n a d a <lipsmack> ʃ i m d i d e n e m e k a j d ɯ n ɯ j a p a ɫ ɯ m b i z j o ɫ ɫ a j a ɫ ɯ m <no-speech> i ʃ ʤ i d d i j e b i n e ɾ s e a d a m ɯ m w a ɾ b e n i m 
[276.875]
<no-speech> 
[285.785]
a j n e n a j n e n <no-speech> b i d e m u s t a f a f a ɫ a n w a ɾ <no-speech> ʃ e j i b aː ɫ a ɾ ɯ z 
[289.075]
<no-speech> 
[290.245]
h ɯ 
[290.705]
<no-speech> 
[294.655]
h a ɾ b i m i s i n 
[295.495]
<no-speech> 
[300.445]
oː ɫ u m oː j a ɫ a n o ɫ u ɾ h ɯ 
[301.925]
<no-speech> 
[307.635]
w a j i j i j m i ʃ <no-speech> n e z a m aː n 
[310.105]
<no-speech> 
[315.425]
i j i h a d i b a k a ɫ ɯ m <no-speech> n e ɾ d e 
[317.235]
<no-speech> 
[322.255]
j a m e ʤ i d i j e c ø j n e oː ɫ u m j a 
[324.035]
<no-speech> 
[329.645]
i ʃ i n i z e m i i i ʃ i n i z e m i j a k ɯ n <no-speech> i ʃ i n i z m i w a ɾ oː ɫ u m s i z i n 
[333.085]
<no-speech> 
[337.725]
h ɯ s e n u z u n w a d e l i a n c e t j a p ɯ ʤ a k s ɯ n 
[339.655]
<no-speech> 
[344.945]
h ɯ <no-speech> p e c i n a s ɯ ɫ ʃ i m d i s i z h a n i 
[347.865]
<no-speech> 
[348.925]
a n ɫ a d ɯ m s e n o ɫ a j ɯ a n ɫ a t s a n a b i a n c e t i ʃ i n i n e d i ɾ j aː n i b u 
[351.855]
<no-speech> 
[358.135]
n a s ɯ ɫ 
[359.325]
<no-speech> 
[361.695]
n a s ɯ ɫ <no-speech> h ɯ h ɯ 
[363.955]
<no-speech> 
[364.785]
t a m a m b i l i j o m <no-speech> h i ʧ d e s e w m e m o n ɫ a ɾ ɯ h ɯ 
[367.365]
<no-speech> 
[369.895]
<no-speech> 
[370.485]
<no-speech> 
[372.245]
h ɯ 
[372.825]
<no-speech> 
[376.175]
<no-speech> 
[376.525]
<no-speech> 
[378.275]
j a <no-speech> p e c i ʃ i m d i <no-speech> s i z i n p a t ɾ o n m e s e ɫ a k a j d ɯ d i n l e j i p s e n i n b ø j l e ɟ e j i c j a p t ɯː n ɯ ɟ ø ɾ s e s e n i k o w m a z m ɯ 
[384.345]
<no-speech> 
[387.085]
<no-speech> 
[387.595]
<no-speech> 
[389.855]
<no-speech> 
[390.215]
<no-speech> 
[394.825]
<no-speech> 
[395.225]
<no-speech> 
[399.025]
n i j e p e c i ɟ e j i c j a p m a n l aː z ɯ m o n u a n ɫ a m a d ɯ m 
[401.205]
<no-speech> 
[405.455]
h ɯ <no-speech> h a j ɯ ɾ n e d e n ɟ e j i c j a p m a n l aː z ɯ m oː e j l e m n e d e n o ɫ u j o ɾ j aː n i 
[409.395]
<no-speech> 
[413.805]
<no-speech> 
[414.165]
<no-speech> 
[415.925]
h ɯ h a j ɯ ɾ n e d e n p e c i oː o n d a c i c a n e d e n l aː z ɯ m a m ɯ n a k o j a j ɯ m n e d e n l aː z ɯ m oː o n d a c i c a o n u b i s ø j l e j a 
[420.905]
<no-speech> 
[424.535]
h ɯ h ɯ <no-speech> i j i oː z a m aː n ʃ e j <no-speech> h ɯ b e c t a ʃ h ɯ n e ɾ d e oː e s c i ɾ a m a z a n ɫ a ɾ j a 
[429.885]
<no-speech> 
[438.095]
a ŋ k a ɾ a n ɯ n s o w uː d a a p i s j a 
[439.845]
<no-speech> 
[441.805]
t a b i 
[442.305]
<no-speech> 
[444.755]
t a b i j a a s ɫ ɯ n d a z a m aː n ɯ n d a b u ɾ a j ɯ a ɾ s a a ɫ ʤ a k t ɯ k b u ɾ a d a n w a ɾ j a ʃ i m d i ʧ o k z e n ɟ i n o ɫ m u ʃ t u k h ɯ 
[449.905]
<no-speech> 
[455.785]
h ɯ h ɯ i n ɟ i l i z l e ɾ m e s e l e s i n i h ɯ 
[458.215]
<no-speech> 
[459.865]
<lipsmack> h ɯ 
[461.845]
<no-speech> 
[462.885]
ʃ i m d i w a ɾ j a y s t y n e a ɫ t ɯ t a n e a p a ɾ t m a n d i c s e n a ɫ t ɯ j y z l i ɾ a d a n ʧ o k p a ɾ a j a p a ɾ j a c a ʧ d a c i c a c a ɫ d ɯ b u a ɾ a d a 
[469.605]
<no-speech> 
[478.38]
<no-speech> 
[487.155]
<no-speech> 
[488.495]
<no-speech> 
[489.615]
p e c i b a n a ʃ u s o ɾ u n u n ʤ e w a b ɯ n ɯ w e ɾ e b i l i ɾ m i s i n b e c t a ʃ <no-speech> <hes> ʃ u s o ɾ u j u b e n s a n a j ø n e l t m e k i s t i j o m ʃ u s o ɾ u j u s a n a j ø n e l t m e k i s t i j o m <hes> n e o ɫ ʤ a k b u ʤ i a n ɟ i ɾ i n h a l i 
[499.635]
<no-speech> 
[505.585]
<laugh> j a n e o ɫ ʤ a k b u n i ʃ a n t a ʃ ɯ n ɯ n j aː n i b u <no-speech> b e j a z t y ɾ k l e ɾ i n b u <hes> ɟ e ɾ ʧ e c i s t a n b u ɫ ɫ u ɫ a ɾ ɯ n j aː n i h a l i n e o ɫ ʤ a k <breath> j aː n i <laugh> <hes> ø t e c i c a ɫ ɯ j o ɾ u z b i z 
[517.535]
<no-speech> 
[521.134875]
<breath> <hes> ɟ e ɾ ʧ e c 
[522.905]
<no-speech> 
[526.595]
h a d i b i t m e d i m i oː ɫ u m j a 
[528.105]
<no-speech> 
[530.085]
h ɯ 
[530.585]
<no-speech> 
[533.235]
h a j a m ɯ n a k o j a j ɯ m n e b i b u ʧ u k d a c i c a j a 
[534.925]
<no-speech> 
[536.375]
<breath> d u ɾ b i t a n e c i t a p a ɫ a j ɯ m d a o k u j a j ɯ m b e n s a n a ʃ u ɾ a d a n <no-speech> d u ɾ 
[540.525]
<no-speech> 
[542.165]
<breath> a j 
[543.465]
<no-speech> 
[544.265]
s a n a c i t a p o k u j a j ɯ m b e c t a ʃ <no-speech> b i l ɟ i l e n <no-speech> <breath> 
[548.325]
<no-speech> 
[549.815]
o k u j o m 
[550.405]
<no-speech> 
[551.785]
h ɯ <no-speech> i n ʃ a ɫ ɫ a <no-speech> ʧ o k ɟ y z e l 
[554.295]
<no-speech> 
[555.105]
b e n m i c e n d i m i b e j e n m i ʃ i m h ɯ h ɯ b e n c e n d i m i b e j e n m i ʃ d iː l d iː l d i m a ɫ b a j ɯ m ʧ y n c y k a ɾ ɯ m ɯ u z u n s y ɾ e j a p m ɯ ʃ t ɯ m c e n d i i s t iː m l e <no-speech> b u ɫ a ʃ ɯ k ɫ a ɾ ɯ j ɯ k a m ɯ ʃ t ɯ m k o k u ɫ a ɾ a c a ɾ ʃ ɯ b u ɾ n u m a 
[567.025]
ɟ e n e d e a j ɾ ɯ ɫ ɯ ɾ c e n s a ɾ m ɯ s a k k o k u s u n a ɾ aː m e n o n u n ɫ a ø p y ʃ m e j e ɾ aː z ɯ o ɫ m u ʃ t u m <breath> s o n ɾ a a d ɾ e s i n i a ɫ m ɯ ʃ t ɯ m o n u b i d a a ɟ ø ɾ m i ʤ eː m i b i l d i j i m h a ɫ d e ɟ y n l e ɾ ʤ e <cough> <no-speech> c a ɾ t a t a m a m ɯ ʃ t ɯ m <no-speech> b a z ɯ m e s e l e l e ɾ i m w a ɾ d ɯ a ɫ b a j ɯ m o n u n h a n ɟ i c i t a p t a n b u b i l i j o ɾ m u s u n 
[582.185]
<no-speech> 
[585.615]
<hes> b i l m e n l aː z ɯ m 
[586.975]
<no-speech> 
[588.435]
ʧ y ʃ l a n oː ɫ u m a ɫ b a j ɯ m d i j o ɾ a ɫ b a j ɯ m 
[590.585]
<no-speech> 
[591.895]
a ɫ b a j ɯ m d i j o ɾ l a n <no-speech> h a j ɯ ɾ aː b i a ɫ b a j ɯ m n e ɾ d e w a ɾ a ɫ b a j ɯ m <no-speech> h ɯ 
[596.865]
<no-speech> 
[599.035]
t e l i c e l i o j u n ɫ a ɾ 
[600.265]
<no-speech> 
[600.34]
