[0.0]
<no-speech> 
[3.115]
a ɫ o 
[4.235]
<no-speech> 
[5.355]
n e j a p ɯ j o n e w e t 
[7.265]
<no-speech> 
[8.435]
i j i j i m s e n n e j a p ɯ j o n <breath> i j i j i m 
[11.625]
<no-speech> 
[13.445]
<breath> i j i <no-speech> 
[15.395]
i j i h a s a n d a <breath> e n i ʃ t e m ʧ o ʤ u k ɫ a ɾ n a s ɯ ɫ 
[18.675]
<no-speech> 
[24.215]
ɯ m h ɯ m ʤ a n b e ɾ k d e i ʃ t e 
[25.955]
<no-speech> 
[26.905]
ʧ a ɫ ɯ ʃ ɯ j o ɾ n e j a p s ɯ n ʧ o ʤ u k 
[28.275]
<no-speech> 
[30.105]
s e n b u ɾ a k t a n h a b e ɾ w e ɾ <breath> 
[32.214875]
<no-speech> 
[33.305]
s e s i n ʃ e j ɟ e l i j o ɾ b iː ɾ a z 
[34.855]
<no-speech> 
[35.905]
i j i j i z b u ɾ aː a ɟ i d ʤ eː z i ʃ t e ʤ u m a ɟ y n y a ɫ m a j a 
[39.135]
<no-speech> 
[40.235]
<no-speech> 
[40.795]
<no-speech> 
[42.375]
ɯ m h ɯ m h a s a n ɫ a h a s a n ɫ a ɟ i d ʤ eː z b u ʤ a n b e ɾ k d e ɟ e l ʤ e c i z i n a ɫ ʤ a k i ʃ j e ɾ i n d e n 
[49.055]
<no-speech> 
[50.695]
h ɯ o ɾ d a n d ø n y ʃ t e 
[52.485]
<no-speech> 
[53.825]
i n ʃ a ɫ ɫ a <laugh> z a t e n <hes> b u ɾ a k <hes> ʃ e j i ʤ i h aː n ɯ a ɾ a m ɯ ʃ d a <breath> d e m i ʃ ʤ i a n a b i s e n d e ɟ e l b a b a m ɫ a ɾ ɫ a <breath> j o k j a n e j a p ʤ a k 
[65.144875]
h a n i j a d a k o ɾ k u j o ɾ b iː ɾ a z j a b u ɾ a k d a b i z b i ʃ e j o ɫ ʤ a k d i j e <no-speech> a m a n n e h ɯ 
[72.485]
<no-speech> 
[73.965]
w e ɾ m e z h e ɾ h a l d e w e ɾ m e z <hes> i j i l i c i ʃ t e d ø n y ʃ t e d e ɟ ø ɾ y m ʤ e m e uː ɾ a j a ʤ a ɯ z 
[80.045]
<no-speech> 
[82.265]
e ɾ e j l i j e i f t a ɾ ɯ o ɾ d a j a p ʤ aː z o ɾ d a n s o n ɾ a d a ɟ e l ʤ eː z i ʃ t e 
[87.635]
<no-speech> 
[88.665]
h ɯ d iː ʃ i c l i c o ɫ u ɾ h e m b i d a a b a j ɾ a m d a ɟ i t m e c ɟ e ɾ e c m e z i j i a b ɫ a m d a <breath> 
[94.675]
<no-speech> 
[96.365]
h ɯ d e d i m h a n i a b i m l e ɾ ɟ e l ʤ e c b i l i j o n 
[99.375]
<no-speech> 
[100.985]
h e <no-speech> h e <breath> a k ʃ <no-speech> ɟ e l ʤ e c l e ɾ 
[105.695]
<no-speech> 
[106.585]
a k ʃ a m a ɾ a d ɯ m d a h a n i d e d i m b e n a ɾ a d ɯ m 
[110.525]
<no-speech> 
[111.405]
i j i l e ɾ d e d i m ɟ e l ʤ e c s i n i z d iː l m i b a j ɾ a m d a d e d i m 
[114.645]
<no-speech> 
[116.545]
oː oː d a d e d i i c i n ʤ i ɟ y n y ɟ e l ʤ eː z 
[119.105]
<no-speech> 
[121.005]
a b ɫ a m ɯ n h a b e ɾ i j o k a b ɫ a m ɯ n h a b e ɾ i j o k 
[124.295]
<no-speech> 
[125.295]
<no-speech> 
[126.465]
<no-speech> 
[127.485]
<breath> i j i l e ɾ m i ʃ i ʃ t e d e d i ʧ a j i ʧ m e j e b u ɾ s a j a ʧ ɯ k a ʤ a k ɫ a ɾ m ɯ ʃ aː a ɾ i f ɟ ø t y ɾ ʤ e c m i ʃ 
[133.865]
<no-speech> 
[135.665]
h ɯ 
[137.185]
<no-speech> 
[139.565]
ʧ e j i z i 
[140.485]
<no-speech> 
[141.405]
j o k ɟ ø t y ɾ e ʤ e c l e ɾ m i h ɯ 
[143.745]
<no-speech> 
[148.365]
i j i ʤ a n ɯ m d a a w a ɾ d a a i c i a j w a ɾ a b ɫ a j aː n i i c i a j ø n ʤ e ʧ e j i z m i ɟ i d e ɾ 
[154.035]
<no-speech> 
[156.755]
j o k ʤ a n ɯ m d a j o k j o k a k ʃ a m <hes> ʃ e j l e j ɫ a o ɾ a d a j d ɯ 
[162.835]
<no-speech> 
[163.665]
i ʃ t e b u t͡ʃ ɯ k ɯ ɟ i j i n i j o ɾ d u z a t e n b e n a ɾ a d ɯː m d a ʧ ɯ k a ʤ a k ɫ a ɾ d ɯ o n u n i ʧ i n k o n u ʃ m a d ɯ k eː ɟ e l i n ʤ e b a j ɾ a m d a 
[170.225]
<no-speech> 
[171.065]
k o n u ʃ u ɾ u z b a k a ɫ ɯ m 
[172.365]
<no-speech> 
[175.645]
j o k j o k a j a ɾ i f ø z l e m a ɾ i f ø z l e m a j ʃ e aː b i m d e j o k h ɯ <dtmf> o n u n i ʃ i w a ɾ d e d i aː b i n i n d e d i 
[185.135]
<no-speech> 
[186.785]
ø j l e b a ʃ k a d a a n e j a p ɯ j o s u n u z <breath> 
[189.455]
<no-speech> 
[190.315]
h ɯ 
[190.805]
<no-speech> 
[196.095]
h ɯ c i m c i m i n b u h a w a d a d u ɾ d u n d u ɾ d u n ʃ i m d i m i j ɯ k ɯ j o n 
[201.045]
<no-speech> 
[202.815]

[203.295]
<no-speech> 
[205.835]
h ɯ 
[206.685]
<no-speech> 
[208.525]
h ɯ 
[209.195]
<no-speech> 
[211.595]
eː j aː n i 
[212.585]
<no-speech> 
[213.775]
ɟ y z e l d iː l i ʃ t e b e n d e ʧ a m a ʃ ɯ ɾ j ɯ k a d ɯ m d a d i j o m k u ɾ u ɾ ɫ a ɾ m ɯ a k ʃ a m a k a d a ɾ 
[218.465]
<no-speech> 
[224.695]
a b i l m i j o m d ɯ ʃ a ɾ ɯ ʧ ɯ k m a d ɯː m i ʧ i n <no-speech> h ɯ <no-speech> b a k n e d i ʤ eː m 
[229.195]
<no-speech> 
[230.395]
d i n l i j o m b u <hes> d ɯ ʃ a ɾ ɯ d a p e ɾ d e l e ɾ c a p a ɫ ɯ j a b e n i m ʃ e j <hes> a z i m e a ɾ a d ɯ a z ø n ʤ e d e <lipsmack> i ɾ f a n d a j y z d e e l l i i n d i ɾ i m w a ɾ m ɯ ʃ 
[239.755]
<no-speech> 
[243.075]
ɯ m h ɯ m 
[243.785]
<no-speech> 
[244.775]
ɯ m h ɯ m oː ɟ i ɟ i d ʤ eː z o ɾ a j a j a h a j ɯ ɾ b a k m a j a ɟ i d ʤ eː z <breath> j o k b a k m a j a ɟ i d ʤ eː z b a k a ɫ ɯ m n e w a ɾ n e j o k d i j e 
[252.935]
<no-speech> 
[253.825]
i j i b a k a ɫ ɯ m <no-speech> 
[257.385]
a j b a n a c a ɫ s a b e n d iː ʃ t i ɾ ʤ eː m d e h ɯ b i t t i m i 
[263.245]
<no-speech> 
[266.175]
h ɯ 
[267.315]
<no-speech> 
[268.845]
eː b u ɟ e ʤ e b e n d e ʃ e j e ɟ i t m e j i d y ʃ y n y j o m ʤ a m i j e d e c i m s e j i a b ɫ a m ɯ a ɾ ɯ ʤ aː m o n a s ø j l i j ʤ eː m ɟ i d e l i m d i j e t e s b i h n a m a z ɯ o ɫ u j o ɾ d iː l m i b u <no-speech> 
[278.685]
i ʃ t e o n u n i ʧ i n i s t i j o m b e n d e 
[280.545]
<no-speech> 
[281.825]
h ɯ j a a ɾ t ɯ k b a j ɾ a m a j o k j a n e ɾ e j e ɟ e l ʤ eː m b a j ɾ a m a b i d a a a ɾ t ɯ k ɟ e l i ɾ i z oː t a ɾ a f a <breath> a b ɫ a m ɫ a ɾ d a ʃ e j i ʧ i n ɟ e l ʤ e c 
[291.915]
<no-speech> 
[292.755]
j a ø m e ɾ e e w b a k t ɯ k d y n 
[295.025]
<no-speech> 
[298.805]
h ɯ 
[299.675]
<no-speech> 
[300.585]
j a ʧ o k ɟ y z e l <hes> h a s a n d e d i o ɾ a s ɯ d e ɾ e j a t aː b iː ɾ a z d e d i s a n c i d e d i 
[306.365]
<no-speech> 
[307.685]
a m a ʧ o k ɟ y z e l j e ɾ i j aː n i <breath> 
[309.805]
<no-speech> 
[310.955]
oː h e l e b iː ɾ a z y s t y n d e j aː n i oː k a d a ɾ ɟ y z e l b y j y c e w j a p ɯ ɫ m ɯ ʃ c i o n ɫ a ɾ ɯ b e n h i ʧ ɟ ø ɾ m e d i m n e z a m aː n j a p ɯ ɫ d ɯ o n ɫ a ɾ ʧ o k d iː ʃ i c e w l e ɾ w a ɾ 
[320.675]
<no-speech> 
[322.065]
h ɯ ɟ y z e l e w l e ɾ w a ɾ 
[323.895]
<no-speech> 
[328.005]
h a j ɯ ɾ ø d e m e s i d e ɟ y z e l a d a m d e d i j i ɾ m i b e ʃ m i l j a ɾ p e ʃ i n w e ɾ i n b i j y z b i j y z t a k s i l i d e d i 
[335.965]
<no-speech> 
[339.555]
ɯ m h ɯ m o n s e n e d e ø d i j ʤ e c 
[342.465]
<no-speech> 
[344.645]
e w e t 
[345.285]
<no-speech> 
[348.845]
j aː n i a ɫ t ɯ j y z e l l i m i l j o n w e ɾ i j o ɾ z a t e n <breath> j a w e ɾ i ɾ ø m e ɾ ø m e ɾ a ɫ ɯ j o ɾ m aː ʃ ɯ ɟ y z e l ɯ m h ɯ m 
[356.945]
<no-speech> 
[358.175]
m aː ʃ ɯ ɟ y z e l ø m e ɾ i n <click> i c i m i l j a ɾ d a n f a z ɫ a m a ʃ <no-speech> 
[368.875]
b e n d e o n u d e d i m o n a 
[370.825]
<no-speech> 
[372.015]
a j n e n b e n d e ø j l e d e d i m 
[373.865]
<no-speech> 
[375.355]
b i a ɾ t ɯ b i ɾ i <hes> a j n e n d e d i i c i t a n e a ɫ ɯ ɾ oː <hes> p a ɾ a j ɫ a j a o n u n d a i ɾ e s i j l e 
[382.325]
<no-speech> 
[383.815]
ɟ y z e l ɟ y z e l 
[384.975]
<no-speech> 
[386.455]
j a j y z j e t m i ʃ t e n a ʃ a ɯ j a s a t m a z 
[388.535]
<no-speech> 
[389.465]
j y z j e t m i ʃ t e n a ʃ a ɯ j a s a t m a z 
[391.395]
<no-speech> 
[392.965]
a ɫ ɯ ɾ t a b i ʤ a n ɯ m p e ʃ i n p a ɾ a j ɫ a s a t t ɯ k t a n s o n ɾ a a ɫ ɯ ɾ 
[398.515]
<no-speech> 
[401.045]
j a <breath> a d a m d e d i i ʃ t e j y z m i l j o n ɫ u k w a ɾ d ɯ o n u d o k s a n b e ʃ e d y ʃ e ɾ d e d i 
[406.575]
<no-speech> 
[407.505]
j y z o n ɫ u k w a ɾ d ɯ o n u d a j y z b e ʃ e d y ʃ e ɾ d e d i <no-speech> h a n i i c i s i d e ɟ y z e l b e n b e j e n d i m j a j e ɾ i d e ɟ y z e l b ø j l e h a n i h e p a ʧ ɯ k ø n l e ɾ i k a p a n ʤ a k b i d u ɾ u m u j o k 
[420.365]
<no-speech> 
[422.465]
h ɯ 
[423.415]
<no-speech> 
[424.595]
t e s i s 
[425.315]
<no-speech> 
[428.445]
e w e t 
[429.035]
<no-speech> 
[433.475]
o d a s ɯ s a ɫ o n u ʧ o k b y j y c j aː n i s e n i n s a ɫ o n d a n b y j y c t y ɾ ʧ o k ɟ y z e l ʤ a m ɫ a ɾ j e ɾ e k a d a ɾ i c i t a n e b y j y c ʤ a m 
[441.935]
<no-speech> 
[442.875]
h a n i ɟ y z e l d e d i m ø m e ɾ e j aː n i b i ʤ e s aː ɾ e t <no-speech> 
[446.745]
ʤ e s aː ɾ e t l e n i n d e d i m a ɫ ɯ n j a c i ɾ aː a ɫ t ɯ s e n e d i ɾ c i ɾ aː ø d y j o n <hes> d e ɾ j aː d e d i m b a k n a s ɯ ɫ j a p t ɯ 
[454.665]
<no-speech> 
[456.185]
e w e t y ʧ s e n e s i c a ɫ d ɯ h e ɾ h a l d e 
[459.805]
<no-speech> 
[464.285]
j a ʧ ɯ c a ɾ h e ɾ h a l d e i ʃ i ʃ j e ɾ i n d e n a ɫ ʤ a k i ʃ t e ʧ ɯ k ɯ ʃ p a ɾ a s ɯ n ɯ a ɫ ʤ a k 
[468.915]
<no-speech> 
[470.875]
ʧ ɯ k ɯ ʃ p a ɾ a s ɯ n ɯ a ɫ ʤ a k j i ɾ m i b e ʃ b i n l i ɾ a h ɯ 
[474.895]
<no-speech> 
[478.555]
h e ɾ h a l d e j aː n i ɟ e n ʧ l e ɾ j a p s ɯ n ɫ a ɾ a k ɯ ɫ ɫ a ɾ ɯ a k ɯ ɫ b i z e a k ɯ ɫ w e ɾ e n j o k t u 
[485.455]
<no-speech> 
[486.435]
o n ɫ a ɾ a w e ɾ i j o z a k ɯ ɫ ʤ e s aː ɾ e t l e n s i n l e ɾ 
[489.285]
<no-speech> 
[491.555]
h ɯ 
[492.005]
<no-speech> 
[494.195]
a j n e n a j n e n oː o n u o n u b o ʃ w e ɾ o n u i ʃ t e j a p t ɯ k oː h a t aː ɫ a ɾ ɯ ʧ o k d a <no-speech> 
[501.915]
s o n p i ʃ m a n ɫ ɯ k f a j d a e t m i j o ɾ n e j a z ɯ k c i <breath> s e n ɟ e n e h i ʧ o ɫ m a z s a ʧ a ɫ ɯ ʃ m a d ɯ n <breath> b e n b o ʃ u b o ʃ u n a a ɫ t ɯ s e n e ʧ a ɫ ɯ ʃ t ɯ m 
[511.665]
h ɯ j aː n i 
[512.574875]
<no-speech> 
[513.975]
b e n i m c i 
[515.084875]
<no-speech> 
[517.545]

[517.925]
<no-speech> 
[519.295]
h e ɾ h a l d e t a b i c i 
[520.944875]
<no-speech> 
[522.634875]
h ɯ b a ʃ k a <laugh> 
[527.105]
<no-speech> 
[527.955]
b u ɾ a j a p a z a ɾ k u ɾ u ɫ d u ʧ ɯ k m a j ɯ d a d y ʃ y n m y j o m p a z a ɾ d i j o m k u ɾ u ɫ d u <breath> a j b i l m i j o m b i ʃ e j a ɫ m ɯ ʤ aː m a j 
[535.685]
<no-speech> 
[537.065]
b i ɟ i t m e m e ɟ e ɾ e c j o k z a t e n ʧ ɯ k ɯ ʤ aː m d ɯ ʃ a ɾ ɯ ɟ e ʧ e ɾ c e n <click> b a c a ɾ ɯ m b ø j l e 
[541.385]
<no-speech> 
[542.475]
<hes> ʃ e j d o m a t e s s a ɫ a t a ɫ ɯ k f a ɫ a n a ɫ ɯ ɾ ɯ m 
[545.485]
<no-speech> 
[549.705]
h ɯ i j i a ɫ ɫ a c a b u ɫ e t s i n 
[553.095]
<no-speech> 
[554.635]
b i z ɾ a m a z a n ɯ j a t a ɾ a k ɟ e ʧ i ɾ d i c 
[556.695]
<no-speech> 
[557.705]
aː m i n i n ʃ a ɫ ɫ a 
[559.015]
<no-speech> 
[561.385]
j a c i m s e j o k c i b u ɾ a d a ɟ i d ʤ eː m w a ɾ o ɫ m a z m ɯ a j t e c b a ʃ ɯ m a b e n ɟ i d e m e m 
[568.625]
<no-speech> 
[569.775]
a j n e b i l e j i m b i a ɾ c a d a ʃ <no-speech> 
[574.095]
a j n e b i l e j i m b e n i ʃ t e 
[575.825]
<no-speech> 
[576.745]
<no-speech> 
[577.115]
<no-speech> 
[582.125]
j a j a ɫ n ɯ z b e n j a ɫ n ɯ z b e n h i ʧ b i ɾ j e ɾ e ʧ ɯ k m a j ɯ s e w m i j o m m a ɾ c e t e b i l e s e w m i j o m j a ɫ n ɯ z ɟ i t m e j i 
[588.935]
<no-speech> 
[590.675]
j a s e w m i j o m n e j a p a j ɯ m a j n e n k a p a ɾ ɫ a ɾ b e l c i d e 
[595.075]
<no-speech> 
[599.715]

[599.995]
<no-speech> 
[600.02]
