[0.0]
<no-speech> 
[0.105]
f i n a l e m i ʧ ɯ k t ɯ k <no-speech> f i n a l e m i <no-speech> e l e n d i k m i <sta> <no-speech> a ɫ o 
[9.125]
<no-speech> 
[10.085]
<sta> a ɫ o <no-speech> aː b i n e j a p a j ɯ m j a ɟ e z i n i j o m s e n n e j a p ɯ j o n d u j u j o m d u j u j o m 
[18.305]
<no-speech> 
[22.145]
<sta> a ɫ o 
[24.935]
<no-speech> 
[27.635]
<sta> j a ʃ e j o ɫ d u f y z e m y z e a t t ɯ ɫ a ɾ b u ɾ a d a s a w a ʃ ʧ ɯ k t ɯ s a n c i j a <no-speech> <laugh> ʧ o ʤ u k ɫ a ɾ o j u n o j n u j o ɾ ʧ o ʤ u k ɫ a ɾ o j u n o j n u j o ɾ f y z e m y z e a t t ɯ ɫ a ɾ j a n ɯ m d a n ɟ e ʧ t i f y z e a z c a ɫ s ɯ n ʧ a ɾ p ɯ j o ɾ d u ø l y ʤ e c t i m j aː n i a z c a ɫ s ɯ n <laugh> 
[43.985]
<no-speech> 
[46.675]
<breath> <sta> <breath> <laugh> 
[49.575]
<breath> <sta> 
[51.445]
<no-speech> 
[51.815]
<no-speech> 
[52.745]
j a ʃ e j d e j a <hes> c ø ʃ e d e <sta> b i z i m b i b a k k a ɫ w a ɾ j a a ɫ t t a p o l i s k a ɾ a k o ɫ u n u n j a n ɯ n d a o n u n c a ɾ ʃ ɯ s ɯ n d a b i j e ɾ d e b u ɫ m u ʃ 
[62.435]
<no-speech> 
[63.255]
<sta> eː o n a b a k m a j a ɟ i t t i l e ɾ i ʃ t e d e c i ɾ a s ɯ f a ɫ a n ʧ o k u j g u n <no-speech> y ʧ j y z l i ɾ a f a ɫ a n m ɯ ʃ c i ɾ a s ɯ i ʃ t e <no-speech> <hes> b a k a ɫ ɯ m j a n e o ɫ ʤ a k j a e w b a k m a j a ɟ i t t i l e ɾ z a t e n p eː t eː t eː j e b a ʃ ɫ a d ɯ c e n d i s i m aː ʃ ɯ d a i j i j aː n i k u ɾ t a ɾ ɯ ɾ j a e ʃ i m e ʃ i ʧ a ɫ ɯ ʃ ɯ j o ɾ b i ʃ e c i l d e i d aː ɾ e e d e ɾ l e ɾ 
[82.405]
<no-speech> 
[86.095]
<sta> eː e ʃ i e w d e e l i ʃ l e ɾ i f a ɫ a n a ɫ ɯ j o ɾ ɫ a ɾ m ɯ ʃ i ʃ t e <no-speech> <hes> u f a k t e f e c b ø j l e p a ɾ ʧ a b a ʃ ɯ n a f a ɫ a n ʧ a ɫ ɯ ʃ ɯ j o ɾ m u ʃ h e ɾ a l d e k o m ʃ u s u o n d a n oː ʃ e c i l d e i ʃ a ɫ ɯ p oː i ʃ i j a p m a j ɯ d y ʃ y n y j o ɾ m u ʃ e ʃ i j l e e w d e o t u ɾ u ɾ c e n <sta> <no-speech> 
[100.835]
<sta> j aː n i b i ʃ e c i l d e i d aː ɾ e e d e ɾ l e ɾ a ɾ t ɯ k e w d e ʧ a ɫ ɯ ʃ ɯ ɾ j aː n i <no-speech> p a ɾ ʧ a b a ʃ ɯ n a 
[105.955]
<no-speech> 
[107.365]
<no-speech> 
[108.305]
<no-speech> 
[110.175]
<sta> s e n n e j a p ɯ j o n n e ɾ e d e j d i n d y n e w e ɟ e l m e d i n 
[113.855]
<no-speech> 
[115.695]
<no-speech> 
[116.075]
<no-speech> 
[117.655]
<sta> h e t a k ɯ ɫ d ɯ n j aː n i c i m w a ɾ d ɯ h a ɫ a m d a 
[121.005]
<no-speech> 
[126.375]
<no-speech> 
[126.855]
<no-speech> 
[127.665]
h e i j i j m i ʃ j a 
[129.205]
<no-speech> 
[130.614875]
<sta> j a k u ɾ s a m u ɾ s a b a ʃ w u ɾ u ʤ a k t ɯ n n e o ɫ d u oː i ʃ j a 
[135.245]
<no-speech> 
[136.825]
<int> k u ɾ s a f i ɫ a n b a ʃ ɫ a j a ʤ a k t ɯ n n e o ɫ d u d i j o m oː i ʃ 
[139.575]
<no-speech> 
[143.885]
<sta> h a c a j ɯ t o ɫ d u n n e k a d a ɾ a 
[145.485]
<no-speech> 
[149.505]
<sta> j e d i y ʧ j y z 
[150.505]
<no-speech> 
[151.515]
<sta> n e j l e ø d e m e j i d y ʃ y n y j o n oː <hes> b e j e f e n d i <laugh> 
[154.545]
<no-speech> 
[157.795]
<sta> n e j l e ø d e m e j i d y ʃ y n y j o n oː j e d i y ʧ j y z 
[160.355]
<no-speech> 
[161.865]
h e j m aː ʃ a ɫ ɫ a 
[162.865]
<no-speech> 
[164.815]
p e ʃ i n ø d i ʤ e c s i n 
[165.895]
<no-speech> 
[167.185]
<sta> j a p m a j a <laugh> oː k a d a ɾ b i ɾ i c i m i n i z w a ɾ j aː n i 
[173.395]
<no-speech> 
[178.875]
<sta> <laugh> k ɯ s m e t k ɯ s m e t b a k a ɫ ɯ m j a j e d i y ʧ j y z <no-speech> i j i j m i ʃ j a h a d i b a k a ɫ ɯ m b i <hes> m eː z u n o ɫ d a b i b i t i ɾ d e b i ʃ e j l e ɾ j a p d a b i z d e e c m e c j i j e l i m 
[190.255]
<no-speech> 
[191.395]
<no-speech> 
[195.205]
<sta> eː b i z d e e c m e c j i j e l i m b i m eː z u n o ɫ b i ʃ e j l e ɾ j a p b i i ʃ k u ɾ b i i ʃ j e ɾ i a ʧ b iː ɾ a z i l e ɾ l e d e b i z d e e c m e c j i j e l i m d i j o m b i z e d e i ʃ w e ɾ i ɾ s i n j aː n i j a n ɯ n d a 
[206.895]
<no-speech> 
[208.765]
<no-speech> 
[212.505]
<no-speech> 
[213.695]
<sta> h ɯ <no-speech> 
[218.565]
<no-speech> 
[218.925]
<no-speech> 
[220.035]
n e <sta> 
[224.975]
<no-speech> 
[227.815]
<sta> h e a n ɫ a d ɯ m 
[230.165]
<no-speech> 
[232.085]
t a m a m t a m a m o n u z a t e n b i a j a ɾ ɫ ɯ j ʤ aː m d e d i b e n o n d a n s o n ɾ a h a b e ɾ e d e ɾ i m d e d i <int> e n f a z e n f a z ɫ a b i h a f t a d e d i ʃ e j s y ɾ e ʃ e j j a p d e d i h e 
[241.125]
<no-speech> 
[244.955]
<sta> e n f a z ɫ a b i h a f t a s y ɾ e t a n ɯ d e d i b i a j a ɾ ɫ ɯ j ʤ aː m z a t e n ʧ e n e w a ɾ c aː m i l d e 
[250.225]
<no-speech> 
[251.035]
<sta> b i h a f t a d a a j a ɾ ɫ a ɾ k ɯ w a m a ɟ e t i ɾ i ɾ s o n ɾ a b e n ɟ i d e ɾ i m b i ʃ e c i l d e <hes> j aː n i e n f a z ɫ a o n b e ʃ ɟ y n i t͡ʃ e ɾ i s i n e n f a z ɫ a o n b e ʃ ɟ y n i ʧ e ɾ i s i n d e b e n d e b a ʃ ɫ a ɾ ɯ m o ɾ a j a 
[260.395]
<no-speech> 
[264.495]
<no-speech> 
[275.315]
<no-speech> 
[277.695]
<no-speech> 
[279.475]
<no-speech> 
[280.495]
<sta> eː c aː m i l i c i m s o k t u i ʃ t e b i t a n e aː b i w a ɾ d ɯ t a n ɯ d ɯ k o ɫ m a d ɯ o n u n j a n ɯ n a ɟ i d ʤ eː z oː ʃ e c i l d e k o n u ʃ ʤ aː z aː b i 
[287.335]
<no-speech> 
[290.055]
<sta> eː ø j l e j a p ʤ aː z z a t e n <hes> b a ʃ k a j ʧ ɯ k a ɾ ɯ j o k j aː n i ɾ e f e ɾ a n s o ɫ m a d a n o ɾ a j a oː ʃ e c i l d e p a t d i j e ɟ i ɾ i l m e z o n u n ɫ a k o n u ʃ ʤ aː z h a b e ɾ b e c l i ʤ eː z o n u n h a b e ɾ i o ɫ ʤ a k ɟ i ɾ ʤ eː z <no-speech> b u j aː n i 
[301.635]
<no-speech> 
[313.085]
<sta> n a s ɯ ɫ 
[314.115]
<no-speech> 
[315.265]
<no-speech> 
[315.735]
<no-speech> 
[318.545]
<sta> t a b i t a b i t a b t a b i t a b i t a b i ʧ o k t u a f b i i ʃ i w a ɾ z a t e n f a z ɫ a ʧ a ɫ ɯ ʃ m ɯ j o ɾ s a <no-speech> h ɯ y ʧ d ø ɾ t s aː t t e i ʃ i n i b i t i ɾ e b i l m e i m c aː n ɯ o ɫ u j o ɾ m u ʃ y ʧ d ø ɾ t s aː t t e i ʃ i n i b i t i ɾ e b i l m e i m c aː n ɯ o ɫ u j o ɾ <hes> o n u n d ɯ ʃ ɯ n d a b i e c s t ɾ a i ʃ l e ɾ d e k o w a ɫ a j a ʤ a ɯ m <hes> b a k a ɫ ɯ m j a 
[335.755]
<no-speech> 
[336.595]
<sta> d y n j a j u w a ɾ ɫ a k d ø n y j o ɾ <laugh> 
[338.355]
<no-speech> 
[341.795]
<no-speech> 
[342.165]
<no-speech> 
[343.795]
<sta> n a s ɯ ɫ 
[344.445]
<no-speech> 
[350.105]
<sta> j a aː b i ʤ iː m t͡ʃ a <hes> n e d i j e j i m b i ɟ y n ʧ a ɫ ɯ ʃ t ɯ c aː m i l b i b u ʧ u k s aː t t e i ʃ b i t t i d i j o ɾ z a t e n s a b a ɟ i t t i c d i j o ɾ o n b i b u ʧ u k t a a n ʤ a ʧ ɯ k t ɯ k d i j o ɾ o j a ɫ a n a n a o j a ɫ a n a n a d i j o ɾ 
[362.075]
<breath> j a <hes> i ʃ t e s e n d i j o ɾ j i ɾ m i j i ɾ m i b e ʃ d a c i c a d a e l l i t a n e d i j o ɾ d aː t ɯ m ɯ n ɯ a ɫ m ɯ ʃ d a ɯ t m a i ʃ <no-speech> i s t e ɾ s e n d i j o ɾ e n f a z ɫ a j a ɾ ɯ m s aː t t e ʧ ɯ c a ɾ d i j o ɾ <int> b i z o j a ɫ a n a n a o ɾ d a n o ɾ a j a ɟ i t t i c ʧ a j i ʧ t i c 
[374.055]
<sta> b i ʃ e j l e ɾ j a p t ɯ k ʃ u d u ɾ b u d u ɾ d i j o ɾ j aː n i b i b u ʧ u k s aː t t e i ʃ i m i z b i t t i d i j o ɾ j aː n i o j a ɫ a n a n a o j a ɫ a n a n a <no-speech> b a n a d i j o ɾ i ʃ i p a z a ɾ t e s i d i j o ɾ m o t o ɾ w e ɾ ʤ e c l e ɾ b a n a 
[386.005]
<sta> m o t o ɾ u a ɫ d ɯː m z a m aː n b i l d i j i m m a h a l l e l e ɾ i d e s ø j l e d i m o ɾ a ɫ a ɾ ɯ w e ɾ ʤ e c l e ɾ d i j o ɾ t a ʃ ʧ a t ɫ a s ɯ n i c i y ʧ s aː t t e i ʃ i m b i t e ɾ d i j o ɾ 
[393.005]
<no-speech> 
[394.305]
s a b a ɟ i d e ɾ i m a j a ɾ ɫ a ɾ ɯ m d i j o ɾ b i l m e m ʃ e j l e ɾ d i j o ɾ <int> 
[398.585]
<no-speech> 
[399.845]
s e n i n w a ɾ m ɯ <sta> t a m a m t a m a m <no-speech> j aː n i o n a ɟ ø ɾ e ʃ e j j a p ʤ aː z <hes> b a k a ɫ ɯ m k ɯ s m e t i n ʃ a ɫ ɫ a 
[409.755]
<no-speech> 
[415.205]
<sta> t a b iː t a b iː t a b iː b o ʃ t a w a c i t c a ɫ ɯ ɾ b i i c i b i e c s t ɾ a i ʃ <hes> k o w a ɫ a j a ʤ a ɯ m oː d a o ɫ u ɾ s a <hes> k ɯ s m e t a ɾ t ɯ k j a a ɫ ɫ a b y j y c 
[423.565]
<no-speech> 
[426.045]
<sta> k o w a ɫ a m a j a ʧ a ɫ ɯ ʃ ʤ aː z 
[428.435]
<no-speech> 
[431.115]
<no-speech> 
[431.465]
<no-speech> 
[435.905]
<sta> a ɫ o 
[437.085]
<no-speech> 
[441.585]
<sta> h ɯ <no-speech> a j a j a j 
[445.025]
<no-speech> 
[446.725]
<no-speech> 
[450.205]
<no-speech> 
[451.785]
<no-speech> 
[452.645]
<no-speech> 
[454.895]
<sta> aː b i d o ɫ a ʃ ɯ j o m j a b i i ʃ i m w a ɾ d ɯ o n u h a l l e t m e j e ʧ ɯ k t ɯ m d ɯ ʃ a ɾ ɯ 
[459.625]
<no-speech> 
[460.725]
<sta> b e n b i ɾ k a ʧ j e ɾ e uː ɾ a m a m ɟ e ɾ e c i j o ɾ oː i ʃ l e ɾ i h a l l e d ʤ eː m s o n ɾ a b i d a i ɾ e j e ɟ e ʧ ʤ eː m 
[464.825]
<no-speech> 
[466.195]
<sta> s e n n e j a p ɯ j o n a ɾ a d a n e ɾ e d e s i n ʃ i m d i 
[469.275]
<no-speech> 
[470.665]
<no-speech> 
[471.895]
<no-speech> 
[473.545]
ɯ m h ɯ m ɟ e z i n i j o n j aː n i <int> 
[475.135]
<no-speech> 
[477.205]
<sta> ɯ m h ɯ m 
[477.935]
<no-speech> 
[479.995]
<sta> s e s i n i a ɫ a m ɯ j o m j a <int> 
[484.145]
<no-speech> 
[486.675]
<sta> h a ʃ u a n ɟ e l i j o ɾ b iː ɾ a z s e s l i k o n u ʃ a ɫ a m ɯ j o m t a m 
[491.745]
<no-speech> 
[492.795]
<no-speech> 
[493.145]
<no-speech> 
[494.395]
<sta> ɯ m h ɯ m 
[495.155]
<no-speech> 
[496.765]
<no-speech> 
[497.585]
<no-speech> 
[498.405]
<breath> h a w a ʧ o k s ɯ ʤ a k b u ɟ y n j a b i z i m c i l e ɾ d e p i c n iː e ɟ i t m e d i b i j e ɾ e ɟ i t m e d i e w d e j a t ɯ j o z d e n i z h a w a s ɯ w a ɾ j a 
[506.225]
<no-speech> 
[509.405]
<sta> h ɯ f a t i h a b i j l e k o n u ʃ t u m a b i d e m i n d e ɟ e l s i n d i j o ɾ o n u n d i j o ɾ b i i f a d e s i n i a ɫ a j ɯ m d i j o ɾ <no-speech> <breath> j aː n i ʧ o k ʧ o k k a ʃ ɯ n d ɯ d i j o ɾ b u a ɾ a ɫ a ɾ d i j o ɾ j o k b e n i d i j o ɾ b a ɫ k a n ɫ a ɾ d a c i m s e j e n e m e z m i ʃ f e ɫ a n d e d i 
[522.635]
<no-speech> 
[523.455]
<sta> <hes> ɟ e l s i n d i j o ɾ b i h a w a s ɯ n ɯ a ɫ a j ɯ m d i j o ɾ s ø n d y ɾ e j i m d i j o ɾ b i ʃ e j l e ɾ d i j o ɾ <no-speech> h e <no-speech> f a t i h aː b i f a t i h aː b i 
[532.235]
<no-speech> 
[535.425]
<sta> e w d e ɯ m h ɯ m b u ɾ a d a c e n d i s i j a e w d e d e <no-speech> <hes> k o n u ʃ t u m ɟ e ʧ e n d i j o ɾ <hes> o n u n ɫ a d a ɟ e l s i n d i j o ɾ b i h a w a s ɯ n ɯ a ɫ a j ɯ m d i j o ɾ ʧ o k <hes> h a w a ɫ a n m ɯ ʃ d i j o ɾ 
[547.065]
<no-speech> 
[548.485]
j o k b e n i c i m s e j e n e m e z m i ʃ d e j o k ʃ ø j l e j a p a m a z m ɯ ʃ d a b i ʃ e j l e ɾ d e d i <no-speech> j aː n i a k ɫ ɯ n d a b u ɫ u n s u n 
[554.785]
<no-speech> 
[559.485]
<sta> b i l e m e m j aː n i b i l e m e m j aː n i 
[562.125]
<no-speech> 
[563.385]
b a n a b e n oː n e d e d i j s e b e n s a n a o n u s ø j l y j o m <sta> 
[568.765]
<no-speech> 
[570.895]
<sta> h ɯ <laugh> 
[572.405]
<no-speech> 
[573.585]
<no-speech> 
[574.555]
<no-speech> 
[577.315]
<sta> eː b a ʃ k a n e j a p ɯ j o n j a n e ɾ e <hes> 
[580.045]
<no-speech> 
[588.305]
h e 
[589.185]
<no-speech> 
[591.445]
<sta> a n ɫ a d ɯ m a n ɫ a d ɯ m 
[593.225]
<no-speech> 
[599.015]
<no-speech> 
[600.225]
<no-speech> 
[600.34]
