[0.0]
<no-speech> 
[3.265]
<no-speech> 
[3.725]
<no-speech> 
[5.195]
a ɫ o 
[5.755]
<no-speech> 
[8.485]
a ɫ o a ɫ o t a h s i n n a s ɯ ɫ s ɯ n 
[11.055]
<no-speech> 
[12.785]
a ɫ o 
[13.415]
<no-speech> 
[15.835]
h ɯ t a h s i n n a s ɯ ɫ s ɯ n <no-speech> a ɫ o 
[17.835]
<no-speech> 
[19.125]
a ɫ o t a h s i n s e s i m ɟ e l i j o ɾ 
[20.825]
<no-speech> 
[22.135]
h e 
[22.905]
<no-speech> 
[25.315]
<no-speech> 
[25.665]
<no-speech> 
[26.545]
t a m a m t a m a m t a m a m t a h s i n n e j a p ɯ j o n 
[29.075]
<no-speech> 
[30.165]
n e j a p ɯ j o n t a h s i n 
[30.985]
<no-speech> 
[33.405]
i j i d i ɾ j a n e j a p ɯ j o n <no-speech> n a s ɯ ɫ ɟ i d i j o ɾ h a j aː t 
[36.305]
<no-speech> 
[41.425]
i j i j a ʧ o k ʃ y c y ɾ n e j a p a ɫ ɯ m i ʃ t e <no-speech> o k u ɫ a ʧ ɯ k ɯ j o z i n i j o z <no-speech> ø j l e ɟ e ʧ i j o ɾ 
[45.755]
<no-speech> 
[49.765]
h ɯ j u ɾ t n a s ɯ ɫ ɟ i d i j o ɾ j u ɾ t <no-speech> a ɫ ɯ ʃ a ɫ ɯ ʃ t ɯ n m ɯ j u ɾ d a 
[52.935]
<no-speech> 
[57.555]
h ɯ i j i 
[59.275]
<no-speech> 
[61.795]
h ɯ i j i j a i j i 
[62.975]
<no-speech> 
[63.875]
i j i i j i <no-speech> c e j i f l e ɾ j e ɾ i n d e j aː n i 
[65.785]
<no-speech> 
[67.835]
s e n i n b e n i m a ɫ ɫ a a ʃ y c y ɾ j a <no-speech> n e j a p a ɫ ɯ m i ʃ t e 
[71.165]
<no-speech> 
[72.105]
<hes> c y t a j a d a n n e z a m aː n ɟ e l d i n u ɫ a n 
[74.395]
<no-speech> 
[78.465]
c y t a j a d a n n e z a m aː n ɟ e l d i n 
[79.695]
<no-speech> 
[83.365]
a ɫ o 
[83.885]
<no-speech> 
[88.485]
h ɯ j i ɾ m i d o k u z o ʤ a k t a ɟ e l d i n i z 
[91.095]
<no-speech> 
[91.915]
i j i <no-speech> k a ɾ w a ɾ m ɯ j d ɯ u ɫ a n o ɾ d a 
[93.485]
<no-speech> 
[100.235]
h ɯ 
[100.825]
<no-speech> 
[102.105]
h ɯ 
[102.665]
<no-speech> 
[104.125]
o oː b a j aː j aː m ɯ ʃ 
[105.505]
<no-speech> 
[107.845]
i j i i j i i j i o ɫ d u k ʧ a i j i 
[109.635]
<no-speech> 
[110.645]
c a ɾ ɯ ɟ ø ɾ d y c ɟ e n e j aː n i 
[111.795]
<no-speech> 
[115.495]

[118.735]
<no-speech> 
[119.845]
oː ɫ u m 
[122.175]
<no-speech> 
[124.495]

[125.115]
<no-speech> 
[128.085]
a n ɫ a d ɯ m a n ɫ a d ɯ m t a m a m <no-speech> s o ɾ m j a a m a i j i <no-speech> i j i j a j aː ʃ w a ɾ 
[135.225]
<no-speech> 
[139.125]
a ɫ a ɫ ɯ m 
[139.765]
<no-speech> 
[142.885]
u ɫ a n oː ɫ u m <no-speech> ɟ e ɾ i ʧ ɯ k j a 
[144.545]
<no-speech> 
[149.475]
h ɯ 
[150.075]
<no-speech> 
[152.615]
h ɯ i j i i j i i j i j a 
[155.435]
<no-speech> 
[157.125]
h ɯ y ʧ y ʧ y n ʤ y 
[159.335]
<no-speech> 
[161.015]
<no-speech> 
[161.585]
<no-speech> 
[163.855]
h ɯ i j i 
[165.085]
<no-speech> 
[168.575]
h a 
[169.065]
<no-speech> 
[171.095]
d e ɾ s l e ɾ n a s ɯ ɫ u ɫ a n aː ɾ m ɯ 
[174.255]
<no-speech> 
[178.725]
aː ɾ m ɯ <no-speech> aː ɾ m ɯ b u d ø n e m c i d e ɾ s l e ɾ 
[180.935]
<no-speech> 
[188.835]
h ɯ oː oː z a m aː n b iː ɾ a z d a a <no-speech> aː ɾ d i j o n j aː n i 
[191.655]
<no-speech> 
[192.875]
i j i j a 
[193.505]
<no-speech> 
[201.205]
h ɯ i j i i j i j aː n i 
[204.395]
<no-speech> 
[209.335]

[209.805]
<no-speech> 
[212.975]
h a l i n e o ɫ ʤ a k u ɫ a n 
[216.215]
<no-speech> 
[220.145]
h a l i n e o ɫ ʤ a k d i j o m 
[221.795]
<no-speech> 
[226.985]
<no-speech> 
[227.385]
<no-speech> 
[228.765]
a m a ʧ o k ɟ y z e l d e m e c o n u n b e n d e s a n d ɯ m c i oː k a d a ɾ ʃ e j i p a j ɫ a ʃ ɯ j o m <foreign> d e 
[235.105]
<no-speech> 
[237.665]
<no-speech> 
[238.015]
<no-speech> 
[240.765]
<no-speech> 
[241.135]
<no-speech> 
[241.965]
o oː oː ɫ u m o n a b i d e s t e c l aː z ɯ m u ɫ a n d e s t e c w e ɾ i n 
[244.865]
<no-speech> 
[248.385]
<no-speech> 
[248.885]
<no-speech> 
[249.785]
<hes> oː ɫ u m ø j l e j s e s o ɾ u n j o k j aː n i 
[251.565]
<no-speech> 
[257.695]
<no-speech> 
[263.825]
h ɯ 
[264.435]
<no-speech> 
[265.555]

[268.615]
<no-speech> 
[274.335]
h ɯ <no-speech> b o ʃ w e ɾ oː ɫ u m j a b o ʃ w e ɾ a m a t ø ɾ d e t a k ɯ ɫ s e n 
[277.525]
<no-speech> 
[282.725]

[284.915]
<no-speech> 
[286.855]
h a 
[287.395]
<no-speech> 
[293.145]

[297.065]
<no-speech> 
[298.095]
ɟ y n l y c ɡ y l i s t a n ɟ y l i s t a n ɫ ɯ k t ɯ b u ɟ y n d e j aː m u ɾ j aː d ɯ 
[301.685]
<no-speech> 
[302.675]
j o ɫ j aː n i 
[303.565]
<no-speech> 
[304.495]
<hes> i c i ɟ y n d y ɾ s oː k d a 
[307.155]
<no-speech> 
[308.505]
ʤ u m a ɾ t e s i p a z a ɾ j a z s a n d ɯ m u ɫ a n j a z d a j ɯ z s a n d ɯ m 
[311.065]
<no-speech> 
[312.525]
i j i b i t e ɾ l e d i c 
[313.405]
<no-speech> 
[316.845]
h ɯ i j i i j i s e n o d a d a c a ʧ c i ʃ i k a ɫ ɯ j o n 
[319.465]
<no-speech> 
[323.065]
o d a d a c a ʧ c i ʃ i k a ɫ ɯ j o n 
[324.335]
<no-speech> 
[328.585]
h ɯ oː ɟ e ʧ e n <no-speech> ɟ e ʧ e n s e n e c i a ɾ c a d a ʃ ɯ n m ɯ j d ɯ 
[331.735]
<no-speech> 
[342.385]
h ɯ 
[343.065]
<no-speech> 
[345.085]
h ɯ 
[345.725]
<no-speech> 
[347.185]

[347.725]
<no-speech> 
[349.195]
o <no-speech> i j i a m a n a m a n i j i j a 
[351.605]
<no-speech> 
[353.825]
ʃ e j <no-speech> d i j e ɾ d i j e ɾ d iː e ɾ i n e j d i u ɫ a n <no-speech> i c t i s a t m ɯ o k u j o ɾ d u n u z i ʃ l e t m e m i o k u j o ɾ d u n 
[357.635]
<no-speech> 
[363.925]
h ɯ i c i c i ʃ i l i c <no-speech> s e n i ʃ l e t m e m i o k u j o ɾ d u n n e o k u j o ɾ d u n u ɫ a n 
[367.085]
<no-speech> 
[369.965]
d ø n d y c 
[371.135]
<no-speech> 
[372.695]
h ɯ 
[373.345]
<no-speech> 
[376.095]
h ɯ ø n ʤ i c i d i j o m u ɫ a n ø n ʤ i c i 
[377.545]
<no-speech> 
[379.675]
h ɯ i j i aː ɾ ɫ ɯ j o ɾ i j i <no-speech> i j i j a 
[382.175]
<no-speech> 
[383.325]
h e h e h e 
[384.205]
<no-speech> 
[387.085]
h ɯ 
[387.715]
<no-speech> 
[391.865]
<no-speech> 
[392.215]
<no-speech> 
[394.715]
h ɯ n e ɾ e d e a ɫ d ɯ n 
[397.165]
<no-speech> 
[399.485]
o t e l l e ɾ i n e ɾ e d e j d i oː 
[400.695]
<no-speech> 
[406.325]
o t e l l e ɾ i n e ɾ e d e j d i h a n ɟ i i l d e j d i 
[408.085]
<no-speech> 
[409.855]
a ɫ o 
[410.445]
<no-speech> 
[411.845]
a ɫ o 
[412.525]
<no-speech> 
[414.205]
h e o t e l l e ɾ i n e ɾ e d e j d i d i j o m a ɾ c a d a ʃ ɫ a ɾ ɯ n ɯ n <no-speech> a ɾ c a d a ʃ ɯ n ɯ n 
[418.105]
<no-speech> 
[421.705]
a ɫ o 
[422.315]
<no-speech> 
[423.965]
j o k u ɫ a n o t e l l e ɾ i n e ɾ e d e j d i 
[425.705]
<no-speech> 
[430.775]
h ɯ h a ʤ ɯ s o ɾ u n d iː l <no-speech> p ɯ ɾ o b l e m j o k s e n d e w a m e t 
[433.205]
<no-speech> 
[436.935]
b a n a m ɯ 
[438.265]
<no-speech> 
[441.685]
t a m a m 
[442.045]
<no-speech> 
[442.935]
n e k a d a ɾ w e ɾ d i n u ɫ a n b u a j 
[445.245]
<no-speech> 
[449.845]
j u ɾ d a n e k a d a ɾ w e ɾ d i n d i j o m p a ɾ a s ɯ n e k a d a ɾ 
[452.755]
<no-speech> 
[458.735]
<no-speech> 
[459.185]
<no-speech> 
[460.075]
y ʧ b i n <no-speech> y ʧ b i n 
[461.475]
<no-speech> 
[464.105]
o oː i j i u ɫ a n i j i j m i ʃ j i n e <no-speech> b i d a c i c a 
[466.505]
<no-speech> 
[474.725]
a j n e n a j n e n a j n e n <no-speech> b i d e 
[477.175]
<no-speech> 
[485.275]
<hes> <no-speech> z a t e n y ʧ c i ʃ i l i c t i o d a 
[487.405]
<no-speech> 
[493.515]
<no-speech> 
[494.335]
<no-speech> 
[495.495]
<laugh> n e i ʃ i n o ɫ u j o ɾ oː ɫ u m 
[498.105]
<no-speech> 
[500.455]
h e a ɾ a b a a ɾ a b a n w a ɾ m ɯ a ɾ a b a m ɯ ɟ ø t y ɾ d y n <no-speech> 
[504.785]
<no-speech> 
[505.215]
<no-speech> 
[506.525]
<no-speech> 
[506.955]
<no-speech> 
[510.025]
<no-speech> 
[510.405]
<no-speech> 
[515.255]
h e k a n c i m i o ɫ <no-speech> k a n c i m i o ɫ d u n o ɾ a d a c i l e ɾ l e 
[517.765]
<no-speech> 
[521.815]
o ɾ a d a c i l e ɾ l e a ɾ c a d a ʃ m ɯ o ɫ d u n d i j o m k a n c i m i o ɫ d u n 
[523.954875]
<no-speech> 
[529.315]
<no-speech> 
[529.955]
<no-speech> 
[534.285]
u ɫ a n oː ɫ u m o ɫ s a i n s a n o ɫ m u ʃ t u n 
[537.175]
<no-speech> 
[540.375]
d oː ɾ u oː d a d oː ɾ u 
[541.405]
<no-speech> 
[546.885]
h ɯ i j i h a d i i j i d e ɾ s e s o ɾ u n j o k 
[549.775]
<no-speech> 
[554.595]
h ɯ 
[555.335]
<no-speech> 
[559.955]
w a ɫ ɫ aː m ɯ u ɫ a n <no-speech> oː ɫ u m b e n z i n e s u c a ʧ ɯ ɾ ɯ j o ɾ o ɫ m a s ɯ n ɫ a ɾ 
[562.635]
<no-speech> 
[572.785]
<no-speech> 
[573.155]
<no-speech> 
[575.255]
h ɯ i j i h a ʤ ɯ j a <no-speech> i ʃ t e oː m y e n d i s l i c o k u j o ɾ 
[578.695]
<no-speech> 
[581.535]
h ɯ d oː ɾ u oː ɫ u m <no-speech> s u k a t m ɯ j o ɾ ɫ a ɾ d ɯ ɾ j a 
[584.265]
<no-speech> 
[589.695]
h ɯ 
[590.305]
<no-speech> 
[592.165]
h ɯ i j i 
[593.375]
<no-speech> 
[597.225]
h ɯ h a n ɟ i y n i w e ɾ s i t e 
[598.625]
<no-speech> 
[599.98]
