[0.0]
<no-speech> 
[1.105]
<no-speech> 
[1.455]
<no-speech> 
[7.235]
a ɫ o 
[7.795]
<no-speech> 
[11.785]
a ɫ o 
[12.405]
<no-speech> 
[15.105]
a ɫ o 
[15.665]
<no-speech> 
[18.735]
a ɫ o e f e n d i m 
[20.605]
<no-speech> 
[24.805]
a ɫ o 
[25.405]
<no-speech> 
[27.095]
a ɫ o 
[27.735]
<no-speech> 
[29.675]
h ɯ d i n l i j o m 
[30.845]
<no-speech> 
[32.125]
e f e n d i m 
[32.865]
<no-speech> 
[34.115]
<no-speech> 
[34.985]
<no-speech> 
[38.175]
ʃ u a n ɟ a j e t n o ɾ m a ɫ 
[40.985]
<no-speech> 
[44.275]
a ɫ o 
[44.885]
<no-speech> 
[45.775]
n o ɾ m a ɫ n e t a ɫ ɯ j o m s e s i n i 
[48.265]
<no-speech> 
[50.245]

[50.755]
<no-speech> 
[52.695]
i j i n e j a p a j ɯ m e w d e j i m h ɯ u f s e n n e j a p ɯ j o n <breath> 
[60.205]
<no-speech> 
[66.585]
<no-speech> 
[66.945]
<no-speech> 
[67.765]
h ɯ ɯ m h ɯ m 
[71.725]
<no-speech> 
[75.815]
ɯ m h ɯ m 
[78.045]
<no-speech> 
[80.905]
ɯ m h ɯ m 
[81.515]
<no-speech> 
[82.905]
c i m <no-speech> 
[88.805]
c i m ʧ e c i j o ɾ a n ɫ a m a d ɯ m 
[90.125]
<no-speech> 
[94.565]
e w e t 
[95.215]
<no-speech> 
[96.475]
<no-speech> 
[97.015]
<no-speech> 
[101.215]
e 
[101.855]
<no-speech> 
[102.905]
<no-speech> 
[103.275]
<no-speech> 
[105.315]
<no-speech> 
[105.735]
<no-speech> 
[116.605]
<no-speech> 
[116.955]
<no-speech> 
[119.135]
<sta> a n ɫ a d ɯ m ɯ m h ɯ m 
[125.115]
<no-speech> 
[126.265]
<no-speech> 
[131.055]
<no-speech> 
[132.395]
ɯ m h ɯ m <sta> ɯ m h ɯ m 
[138.805]
<no-speech> 
[139.775]
<sta> ɯ m h ɯ m 
[145.145]
<no-speech> 
[146.175]

[155.245]
<no-speech> 
[157.485]
oː ɫ u m 
[158.845]
<no-speech> 
[161.585]
a j n ɯ ʃ e c i l d e ɟ e ʧ ɟ e l i j o ɾ a ɫ o 
[165.205]
<no-speech> 
[167.255]
a ɫ o 
[167.885]
<no-speech> 
[168.985]
eː d u j u j o m b e n s e n i 
[170.325]
<no-speech> 
[172.505]
a ɫ o 
[173.295]
<no-speech> 
[174.445]
b e n d u j u j o m s e n i 
[175.555]
<no-speech> 
[178.415]
<no-speech> 
[178.775]
<no-speech> 
[179.695]
d u j u j o m b e n s e n i 
[180.875]
<no-speech> 
[186.055]
n a z m i k o n u ʃ u ɾ u z o n u b i l m i j o m c i ʃ u a n t e l e f o n ɫ a k o n u ʃ u j o ɾ ʃ e j d iː l 
[190.315]
<no-speech> 
[191.235]
h e l e oː z a m aː n b i ɟ e l s i n 
[192.555]
<no-speech> 
[193.475]
<no-speech> 
[193.825]
<no-speech> 
[197.385]
<no-speech> 
[198.595]
<no-speech> 
[199.495]
ɯ m h ɯ m 
[200.185]
<no-speech> 
[202.525]
ɯ m h ɯ m 
[205.245]
<no-speech> 
[207.025]
a n ɫ a d ɯ m 
[207.785]
<no-speech> 
[211.855]
ɯ m h ɯ m b i z b u t e l e f o n n e ɾ e j e c a j ɯ t ɫ ɯ 
[215.285]
<no-speech> 
[218.715]
b u t e l e f o n n e ɾ e j e c a j ɯ t ɫ ɯ 
[221.035]
<no-speech> 
[224.215]
a ɫ o 
[224.775]
<no-speech> 
[226.305]
a n ɫ a m ɯ j o m c i b e n s e n i 
[227.805]
<no-speech> 
[230.165]
a ɫ o 
[232.935]
<no-speech> 
[234.605]
<no-speech> 
[234.995]
<no-speech> 
[240.435]
ɟ i d i j o ɾ ɟ e l i j o ɾ ɟ i d i j o ɾ ɟ e l i j o ɾ n e t <no-speech> 
[244.425]
n e t ɟ e l m i j o ɾ s e s i n 
[245.645]
<no-speech> 
[252.055]
ɟ e l i j o ɾ 
[252.755]
<no-speech> 
[254.045]
<int> a ɫ o 
[255.545]
<no-speech> 
[257.554875]
<no-speech> 
[258.375]
<no-speech> 
[259.304875]
d u j u j o m b e n s e n i 
[260.674875]
<no-speech> 
[262.245]
a ɫ o 
[262.875]
<no-speech> 
[271.275]
a ɫ ɫ a ɯ m j aː ɾ a b b i m j a 
[273.165]
<no-speech> 
[274.765]
e f e n d i m d u j u j o m b e n s e n i 
[276.235]
<no-speech> 
[279.325]
a ɫ o 
[279.915]
<no-speech> 
[288.765]
u f <no-speech> b e ʃ j y z l i ɾ a ɫ ɯ k k u p o n <no-speech> 
[296.405]
<no-speech> 
[296.975]
<no-speech> 
[298.055]
j a t t ɯ m o n d a n d a 
[299.255]
<no-speech> 
[301.765]
aː f e ɾ i n s a n a b ø j b ø j l e 
[304.475]
<no-speech> 
[305.275]
b ø j l e d e w a m e t 
[306.265]
<no-speech> 
[307.925]
b ø j l e d e w a m e t 
[308.805]
<no-speech> 
[320.265]
<no-speech> 
[320.675]
<no-speech> 
[323.415]
<no-speech> 
[323.795]
<no-speech> 
[327.735]
<no-speech> 
[328.205]
<no-speech> 
[329.545]
a ɫ o 
[332.315]
<no-speech> 
[335.095]
a ɫ o 
[335.855]
<no-speech> 
[337.925]
d u j u j o m a b i s e n i 
[339.195]
<no-speech> 
[343.905]
e w d e j i m n e j a p a j ɯ m d u ʃ a ɫ d ɯ m ʧ ɯ k t ɯ m e w d e n ʃ e j d e n d u ʃ t a n ʧ ɯ k t ɯ m s e n a ɾ a d ɯ n z a t e n 
[348.655]
<no-speech> 
[350.475]
eː n e d i ɾ b u t e l e f o n 
[352.885]
<no-speech> 
[354.715]
h ɯ 
[355.525]
<no-speech> 
[356.825]
s e n a ɾ a d ɯ n i ʃ t e d u ʃ t a n ʧ ɯ k m ɯ ʃ t ɯ m d a a j e n i 
[359.545]
<no-speech> 
[361.995]
t e l e f o n n e j i n n e s i b e n a n ɫ a m a d ɯ m c i 
[363.895]
<no-speech> 
[367.405]
a ɫ o 
[367.945]
<no-speech> 
[369.425]
a ɫ o 
[372.195]
<no-speech> 
[373.755]
h ɯ ʃ i m d i k a p a t ɯ ʤ aː m t e l e f o n u a ɫ ɫ a ɯ m j aː ɾ a b b i m j a <laugh> 
[378.195]
<no-speech> 
[379.665]
<no-speech> 
[380.285]
<no-speech> 
[382.225]
<no-speech> 
[382.925]
<no-speech> 
[387.555]
i j i l e ɾ i j i l e ɾ i j i l e ɾ b a b a m m a ʧ s e j ɾ e d i j o ɾ h a t iː ʤ e a b ɫ a m i ʧ e ɾ i d e i ʃ t e k ɯ z c a ɾ d e ʃ i m w a ɾ o n u n ɫ a b i ɾ l i c t e o t u ɾ u j o ɾ t e l e w i z j o n s e j ɾ e d i j o ɾ 
[395.175]
<no-speech> 
[398.075]
<breath> oː ɫ u m b u b u i ʃ c e n ʤ e c a ʧ d a c i c a s y ɾ ʤ e c 
[401.515]
<no-speech> 
[409.425]
<no-speech> 
[417.335]
s i c t i ɾ ɟ i t j a s i z c e n d i n i z e b a k ɯ n oː ɫ u m s o n ɾ a n e d e d i m l a n w u ɾ ʤ a k s ɯ n d e m e d i m d iː l m i 
[423.615]
<no-speech> 
[431.665]
o j o j u n a d e w a m t a m k a d ɾ o b i b a ɾ ɯ ʃ j o k t u oː k a d a ɾ 
[435.255]
<no-speech> 
[439.965]
e w e t 
[440.605]
<no-speech> 
[441.735]
b a ɾ ɯ ʃ j o k t u 
[442.545]
<no-speech> 
[445.915]
oː ɫ u m b e n s a n a b e n s a n a n e d e d i m ʤ i d d iː t a k ɯ m ɫ a ɾ ɯ j e n e m e z s i n i z s i z j e n e m e z s i n i z e s c i ʃ e h i ɾ e c a ɾ ʃ ɯ o j n a d ɯ n ɯ z j e n e m e d i n i z b u ɾ s a j a c a ɾ ʃ ɯ o j n a d ɯ n ɯ z 
[454.455]
<no-speech> 
[455.825]
b e ʃ p u a n k a j b e t t i n i z j a f e n e ɾ e n s e n i z e j a p ɯ ʃ t ɯ j i n e 
[458.665]
<no-speech> 
[461.745]
h ɯ 
[462.135]
<no-speech> 
[463.225]
f e n e ɾ d i j o m e n s e n i z e j a p ɯ ʃ t ɯ ɟ e n e i c i p u a n c a ɫ d ɯ b i ʃ e j c a ɫ m a d ɯ 
[466.165]
<no-speech> 
[473.955]
i c i p u a n c a ɫ d ɯ 
[475.005]
<no-speech> 
[476.545]
f e n e ɾ k ɯ ɾ k s e c i z g a ɫ a t a s a ɾ a j e l l i 
[478.325]
<no-speech> 
[480.445]
ɯ m h ɯ m 
[481.125]
<no-speech> 
[482.995]
ɟ e ʧ e n ʧ a ɾ ʃ a m b a ɟ y n y b i g aː l i p ɟ e l s e j d i c 
[485.665]
<no-speech> 
[486.515]
ʧ a ɾ ʃ a m b a ɟ y n y b e l e d i j e j i j e n s e j d i c b i z ɟ e l i ɾ d i c ʃ u a n d a 
[489.435]
<no-speech> 
[495.525]
j aː n i i c i p u a n ɫ a ø n d e j d i c i ʃ t e e l l i b i o ɫ u j o ɾ d u k b i z ʃ u a n d a ɟ e l i ɾ d i c 
[500.585]
<no-speech> 
[501.825]
j a t t ɯ i ʃ t e ɟ e ɾ i z e k aː ɫ ɯ ɫ a ɾ b u ɟ y n c y ɟ i b i a j n ɯ m a ʧ k a z a n d ɯ ɫ a ɾ b u ɟ y n d e 
[507.435]
<no-speech> 
[508.445]
u ɫ a n i c i s ɯ f ɯ ɾ o ɫ m u ʃ ɾ a a t ɾ a a t k a z a n a ʤ aː m a ʧ ɯ i c i b i z o ɾ k a z a n d ɯ ɫ a ɾ 
[514.225]
<no-speech> 
[522.565]
ɯ m h ɯ m c i m e j a z ɯ k ʤ a n ɯ m m e ɾ s i n e m i j a z ɯ k g a ɫ a t a s a ɾ a j a m ɯ c i m e j a z ɯ k 
[527.825]
<no-speech> 
[534.905]
d a a d u ɾ oː ɫ u m j e n i b a ʃ ɫ a d ɯ n ɯ z d u ɾ b a k a ɫ ɯ m d a a b e ʃ i c t a ʃ ɟ ø ɾ ʤ e c s i n i z f e n e ɾ l e t ɯ ɾ a b z o n ɫ a k a j s e ɾ i j e ɟ i d ʤ e c s i w a s a ɟ i d ʤ e c 
[542.535]
<no-speech> 
[546.185]
<no-speech> 
[546.745]
<no-speech> 
[548.295]
c i m 
[548.795]
<no-speech> 
[551.305]
b a k ɟ ø ɾ y ɾ s y n b a k a ɫ ɯ m h e p s i n e k a j b ɯ n o ɫ u ɾ s a j d ɯː m t a k ɯ m ɫ a ɾ ɯ n h e p s i n e p u a n k a j b e d ʤ e c b e ʃ i c t a ʃ t a j e n e ʤ e c s i n i z b a k h e p s i j e n i ʤ e c 
[558.035]
<no-speech> 
[564.535]
j aː n i d a a z o ɾ m a ʧ ɫ a ɾ ɯ n ɯ z j e n i b a ʃ ɫ a d ɯ ʃ i m d i j e k a d a ɾ c i m l e c i m i n l e o j n a d ɯ n ɯ z a ŋ k a ɾ a ɟ y ʤ y <hes> s a m s u n s ɯ p o ɾ k a ɾ a b y c s p o ɾ <laugh> a ɫ t t a c i ʤ e b e l l e ʃ e n t a k ɯ m ɫ a ɾ ɫ a o j n a d ɯ n ɯ z ʃ i m d i j e k a d a ɾ 
[577.305]
<no-speech> 
[584.665]
a ɫ o 
[585.285]
<no-speech> 
[586.395]
a ɫ o 
[587.005]
<no-speech> 
[590.095]
b u b u c a ʧ d a c i c a s y ɾ ʤ e c b u i ʃ c e n ʤ e oː ɫ u m 
[593.645]
<no-speech> 
[594.445]
h ɯ 
[594.785]
<no-speech> 
[599.94]
