[0.0]
<no-speech> 
[0.495]
<no-speech> 
[1.845]
<no-speech> 
[3.135]
<no-speech> 
[6.265]
<no-speech> 
[6.625]
<no-speech> 
[7.595]
<int> a ɫ o 
[8.825]
<no-speech> 
[11.755]
m e ɾ h a b a ʤ a n ɯ m 
[12.715]
<no-speech> 
[13.755]
s e s i m ɟ e l i j o ɾ m u 
[14.835]
<no-speech> 
[16.585]
n e h a b e ɾ 
[17.435]
<no-speech> 
[21.085]
<no-speech> 
[21.835]
<no-speech> 
[23.465]
ʃ i m d i h a j aː t ɯ m b i z i m ʧ o ʤ u k ɫ a ɾ ɯ n b ø j l e b i ʧ a ɫ ɯ ʃ m a s ɯ j a o n d a n d iː l 
[28.185]
<no-speech> 
[29.055]
ɯ m h ɯ m ø j l e i ʃ t e b i y ʤ ɾ e t s i z k o n u ʃ m a h a k k ɯ w a ɾ m ɯ ʃ 
[33.245]
<no-speech> 
[34.165]
o n d a n d o ɫ a j ɯ 
[35.225]
<no-speech> 
[36.775]
b e n d e b i a ɾ a j a j ɯ m d e d i m a k ɫ ɯ m a ɟ e l d i u z u n z a m aː n d ɯ ɾ ɟ ø ɾ y ʃ m y j o z j a <int> 
[40.615]
<no-speech> 
[42.055]
d e d i m a ɾ a j a j ɯ m b i s e n l e d e j e ɾ l e n d i ɾ e j i m b u n u d i j e 
[45.915]
<no-speech> 
[46.835]
b u ɾ a d a m a j m u n ɫ u k j a p ɯ j o ɾ d a d i c c a t i m o n a ɟ i t t i 
[51.165]
<no-speech> 
[53.405]
k u z e j k u z e j m a j m u n ɫ u k j a p ɯ j o ɾ 
[55.585]
<no-speech> 
[57.345]
<int> d u j u j o ɾ m u s u n s e s i k o ʤ a m a n o ɫ d u e w e t ɟ e l i j o ɾ m a j m u n ɫ u k j a p ɯ j o ɾ d ø ɾ t j a ʃ ɯ n d a d ø ɾ t b u ʧ u k d ø ɾ t b u ʧ u k 
[68.925]
d ø ɾ d y c a b u ɫ e t m i j o ɾ d ø ɾ t b u ʧ u k o ɫ d u 
[71.395]
<no-speech> 
[72.645]
<int> b a k c a ʧ j a ʃ ɯ n d a s ɯ n d ø ɾ t b u ʧ u k d u j d u n m u 
[79.125]
<no-speech> 
[80.695]
ɟ e l d i m i s e s i <sta> <laugh> a n n e m j a ʃ ɫ a ɾ ɯ m ɯ b i ɾ i c t i ɾ m i ʃ ø j l e o ɫ d u m d i j o ɾ <laugh> s e n n e j a p ɯ j o n ʤ a n ɯ m 
[90.455]
<no-speech> 
[95.745]
<no-speech> 
[96.115]
<no-speech> 
[97.495]
n e ɾ d e s i n i z ʃ i m d i h a n ɟ i s e ɾ w i s t e 
[99.485]
<no-speech> 
[104.555]
ɯ m h ɯ m b e n d iː ʃ t i ɾ ʤ eː m d iː ʃ t i ɾ ʤ eː m f i ɫ a n d i j o ɾ d u m d a <int> 
[109.645]
<no-speech> 
[111.115]
<no-speech> 
[112.015]
<no-speech> 
[116.215]
<no-speech> 
[119.745]
<no-speech> 
[121.605]
ɯ m h ɯ m 
[124.105]
<no-speech> 
[124.935]
s e n t i ɾ e n e n ʒ e c s i j o n d a m ɯ s ɯ n 
[127.865]
<no-speech> 
[132.735]
<no-speech> 
[133.365]
<no-speech> 
[134.595]
<no-speech> 
[135.095]
<no-speech> 
[136.725]
<no-speech> 
[138.185]
<no-speech> 
[139.935]
<no-speech> 
[140.585]
<no-speech> 
[146.365]
ɯ m h ɯ m a n ɫ a d ɯ m a n ɫ a d ɯ m a n ɫ a d ɯ m 
[148.115]
<no-speech> 
[149.695]
b e n d e a ʤ i l d e d e w a m e d i j o m e s c i ʃ e h i ɾ e t aː j i n i s t e d i m t a j i n i m ʧ ɯ k t ɯ 
[154.035]
<no-speech> 
[157.655]
d iː ʃ i c l i c o ɫ m u ʃ t u n d i j e <laugh> 
[160.695]
<no-speech> 
[164.955]
j a a n c a ɾ a j a j a k ɯ n o ɾ a j a ɟ i t t i k o n u ʃ m a d ɯ k h e ɾ h a l d e k o n u ʃ t u k m u s e n i n l e 
[169.435]
<no-speech> 
[172.675]
a n c a ɾ a j a ɟ i d e m i j o m h a j aː t ɯ m p u a n ɫ a ɾ ɯ ʧ o k j y c s e c 
[176.925]
<no-speech> 
[178.575]
<breath> p u a n ɯ j e t m i j o ɾ <hes> b ø j l e t aː j i n d ø n e m l e ɾ i n d e h i z m e t p u a n ɫ a ɾ ɯ n a b a k t ɯ m e n d y ʃ y c p u a n o t u z y ʧ o t u z d ø ɾ t b i n p u a n d ɯ b e n i m j i ɾ m i s e c i z b i n 
[190.125]

[190.845]
<no-speech> 
[192.305]
h e m e s c i ʃ e h i ɾ d a a ɟ y z e l b i ʃ e h i ɾ d a a m o d e ɾ n d a a c y ʧ y c d a a k o ɫ a j b i ɾ ʧ o k a ʧ ɯ d a n i j i j aː n i b ø j l e 
[202.345]
j aː n i <sta> b i i c i j ɯ ɫ f a ɫ a n o ɾ a j ɯ d y ʃ y n y j o ɾ d u m z a t e n t a n o ʃ d a a n c a ɾ a j a ɟ i d i n ʤ e h e m o n a d a j a k ɯ n o ɫ ʤ a k i s t a n b u ɫ a d a j a k ɯ n h e ɾ a ʧ ɯ d a n t a m b ø j l e j o ɫ 
[213.675]
y s t y n d e b i j e ɾ j aː n i 
[214.725]
<no-speech> 
[215.805]
oː j y z d e n o ɾ a j ɯ d y ʃ y n d y m j aː n i t e c b ø j l e d iː l a s ɫ ɯ n d a i ʃ t e j aː n i h e ɾ t a ɾ a f a j a k ɯ n b i j e ɾ 
[224.075]
<no-speech> 
[225.745]
ø j l e ɟ i b i ɟ ø ɾ y n s e d e 
[227.605]
<no-speech> 
[229.705]
ɯ m h ɯ m d a a j a k ɯ n e n a z ɯ n d a n 
[231.345]
<no-speech> 
[233.295]
e t a b i <no-speech> 
[236.395]
<no-speech> 
[240.585]
<no-speech> 
[241.695]
b i d e o ɾ d a n o ɾ a j a k a ɫ k ɯ j o n <laugh> b i c e ɾ e ɟ e l d i m z a t e n b e 
[249.815]
<no-speech> 
[251.045]
<no-speech> 
[251.425]
<no-speech> 
[252.655]
b e n s a n c i b i c e ɾ e h a t ɯ ɾ ɫ ɯ j o m 
[254.575]
<no-speech> 
[257.325]
s oː k t a ɟ e l d i n m i s e n 
[258.935]
<no-speech> 
[261.275]
<no-speech> 
[261.984875]
<no-speech> 
[263.345]
e d i ɾ n e h i ʧ o n u h a t ɯ ɾ ɫ a m ɯ j o m b e l ɟ i n j a 
[267.155]
<no-speech> 
[268.065]
<no-speech> 
[268.815]
<no-speech> 
[270.945]
<no-speech> 
[271.315]
<no-speech> 
[272.165]
h ɯ o n d a n h a t ɯ ɾ ɫ a m a m ɯ ʃ s ɯ n d e m e c c i j aː n i <int> <breath> 
[277.405]
<no-speech> 
[278.585]
<no-speech> 
[278.935]
<no-speech> 
[280.095]
<no-speech> 
[281.095]
<no-speech> 
[282.745]
<no-speech> 
[284.405]
<no-speech> 
[285.495]
d oː ɾ u d oː ɾ u h a t ɯ ɾ ɫ ɯ j o n d u ɾ b e n i m h a f ɯ z a m d a a c ø t y 
[289.015]
<no-speech> 
[290.255]
oː j y z d e n ʃ e j j a p a m ɯ j o m j aː n i h a t ɯ ɾ ɫ a j a m ɯ j o m 
[293.295]
<no-speech> 
[296.305]
<no-speech> 
[296.985]
<no-speech> 
[301.815]
<no-speech> 
[302.185]
<no-speech> 
[305.515]
b e n d e ɟ e n e l d e h e p ø j l e d i j o m <laugh> <breath> j a a ɾ a d ɯ m s o n s e f e ɾ l e ɾ d e h e p b e n a ɾ a d ɯ m a ʃ k o ɫ m u ʃ t u n j aː n i <laugh> <breath> e w d e n a ɾ a d ɯ m ʤ e p t e n a ɾ a d ɯ m f a ɫ a n <laugh> 
[317.185]
<no-speech> 
[318.155]
<breath> e b e n d e ɟ e n e l d e a j n ɯ <hes> ɾ u h h a l i n d e h a ɾ e c e t e d i j o m j aː n i i ʃ t e <hes> b iː ɾ a z c e n d i m i i j i h i s s e d i j i m p i s i k o ɫ o ʒ i m i j i o ɫ m u ʃ t u n f a ɫ a n d a f i ɫ a n d a b i l m e m n e j d i 
[329.485]
z a t e n s o n b i j ɯ ɫ d ɯ ɾ d a n e ɾ e d e j s e j aː n i i ʃ e ɟ e l i p e w e ɟ e l i p u j u j o m b i f i i l b ø j l e 
[335.795]
<no-speech> 
[336.995]
h a j aː t ɯ m b ø j l e u j k u j ɫ a n ø b e t a ɾ a s ɯ n d a ɟ e ʧ i j o ɾ 
[340.305]
<no-speech> 
[341.955]
oː j y z d e n p e c b i ʃ e j j a p a m ɯ j o m j aː n i 
[344.235]
<no-speech> 
[346.125]
<no-speech> 
[347.045]
<no-speech> 
[347.905]
<no-speech> 
[348.285]
<no-speech> 
[349.495]
a c e s i n l i c l e ʧ o k i j i o ɫ ʤ a k j a o ɾ a j a ɟ i t m e c c e s i n l i c l e a ɾ t ɯ k ʧ o k f a z ɫ a 
[356.335]
<no-speech> 
[359.955]
e w e t e w e t c e s i n l i c l e i j i b i j e ɾ 
[361.625]
<no-speech> 
[364.215]
c e s i n l i c l e i j i b i s e ʧ i m ʤ a n ɯ m 
[365.865]
<no-speech> 
[367.685]
h e ɾ j ø n y j l e i j i s e ʧ i m ʧ o k d a a m o d e ɾ n i n s a n ɫ a ɾ ɯ d a a ʧ aː d a ʃ ɯ m h ɯ m 
[373.665]
<no-speech> 
[375.345]
<no-speech> 
[375.725]
<no-speech> 
[379.385]
i s t a n b u ɫ u i s t e m e d i m <sta> ɟ e l e b i l i ɾ d i m ʧ o k ɾ a a t ɟ e l e b i l i ɾ d i m ʃ e j j aː n i oː j o ɾ g u n ɫ uː b e n i k o ɾ k u t t u k a ɫ d ɯ ɾ a b i l i ɾ m i j i m a ɫ t ɯ n d a n k a ɫ k a ɾ m ɯ j ɯ m 
[390.605]
<no-speech> 
[392.665]
ɯ m h ɯ m j aː n i ʧ o k z a m aː n ɟ e ʧ t i ʧ y n c y ʧ o k b ø j l e 
[395.885]
<no-speech> 
[396.995]
b y j y d y k a ɾ t ɯ k ʧ o k j o ɾ u ɫ d u k 
[399.205]
<no-speech> 
[401.335]
j a ʧ o k j ɯ p ɾ a n d ɯ m a ɾ t ɯ k b e ɾ ɟ y l n e b i l e j i m <sta> c a ʧ s e n e d i ɾ b u ɾ a d a j ɯ m b u c y ʧ y c ʃ e i ɾ d e ɯ m h ɯ m e w e t ʤ a n ɯ m oː j y z d e n 
[413.065]
ʃ e j j aː n i i s t a n b u ɫ ʃ e h i ɾ k a ɫ a b a ɫ ɯː n a ɟ y ɾ y l t y s y n e f a ɫ a n k a t ɫ a n m a k i s t e m i j o m 
[422.605]
<no-speech> 
[424.305]
e w e t e w e t o ɾ d a e m e c l i o ɫ u ɾ u m a ɾ t ɯ k 
[426.565]
<no-speech> 
[430.355]
<no-speech> 
[430.825]
<no-speech> 
[433.185]
<no-speech> 
[433.725]
<no-speech> 
[434.565]
<no-speech> 
[436.295]
<no-speech> 
[438.815]
ɯ m h ɯ m d oː ɾ u d oː ɾ u a ɫ d ɯ m i ʃ t e b i j ɯ ɫ o ɫ d u 
[441.755]
<no-speech> 
[443.575]
ø d y j o m o n u d a s a t ɯ ʃ a ʧ ɯ c a ɾ d ɯ m <laugh> 
[446.675]
<no-speech> 
[447.545]
<breath> j aː n i k ɯ ɾ e d i j l e b y t y n h e p s i n i k ɯ ɾ e d i j l e ʧ e c t i m a ɫ d ɯ m ʤ a n ɯ m 
[451.165]
<no-speech> 
[452.225]
a m a ʃ i m d i s a t ʤ aː m j aː n i 
[454.585]
<no-speech> 
[455.975]
j a i ʃ t e b e n s e c s e n l i ɾ a k ɯ ɾ e d i ʧ e c t i m 
[458.655]
<no-speech> 
[459.545]
y ʧ b u ʧ u k m i l j a ɾ f a ɫ a n e l i m d e p a ɾ a w a ɾ d ɯ o n u h a ɾ ʤ a d ɯ m 
[462.905]
<no-speech> 
[463.785]
oː s y ɾ e ʧ t a ʃ ɯ n m a s y ɾ e ʤ i n d e s o n ɾ a i ʃ t e t a p u s u j o k t u t a p u s u ɯ m h ɯ m d o w a ɫ g a z ɯ m ɯ d ø ʃ e t t i m j aː n i b ø j l e <hes> i c i b u ʧ u k y ʧ m i l j a ɾ d a ø j l e 
[475.415]
s e c s e n a ɫ t ɯ j a f a ɫ a n m a ɫ o ɫ d u i ʃ t e b a n a e t a b i ʃ i m d i b i d e h a n i k ɯ ɾ e d i b o ɾ ʤ u n u ø d e ɾ c e n f aː i z w e k ɯ ɾ e d i j i b e ɾ a b e ɾ ø d y j o n 
[486.365]
<no-speech> 
[487.365]
ʧ o k f a z ɫ a w e j aː n i m aː l i j e t i <int> j y c s e c i ʃ t e d o k s a n d o k s a n ɯ n y z e ɾ i n d e f a ɫ a n j aː n i b a n a m aː l i j e t i o n u n <int> t o p ɫ a m d a <hes> s e c s e n l i ɾ a k ɯ ɾ e d i j y z j i ɾ m i m i l j a ɾ a m a ɫ o ɫ u j o ɾ d u z a t e n j aː n i 
[499.765]
<no-speech> 
[500.785]
oː j y z d e n s a t ʤ aː m ʃ i m d i 
[502.255]
<no-speech> 
[503.385]
<no-speech> 
[503.785]
<no-speech> 
[509.135]
w a ɫ ɫ aː d o k s a n s e c i z i iː ɫ a n w e ɾ d i m 
[511.565]
<no-speech> 
[513.475]
s a t ɯ ɫ ɯ ɾ ʧ y n c y e w l e ɾ i n f i j a t ɫ a ɾ ɯ ʧ o k j y k s e l m i ʃ d u ɾ u m d a 
[516.845]
<no-speech> 
[518.045]
j aː n i e w m e ɾ c e z i b i j e ɾ d e ʧ a ɾ ʃ ɯ n ɯ n h e m e n i ʧ i n d e a n a ʤ a d d e n i n y z e ɾ i n d e 
[522.954875]
<no-speech> 
[524.745]
k o n u m u i j i j aː n i oː a ʧ ɯ d a n a w a n t a ʒ ɫ a ɾ ɯ w a ɾ d e z a w a n t a ʒ ɫ a ɾ ɯ d a w a ɾ t a b i 
[530.475]
<no-speech> 
[531.595]
b a k ʤ aː z o ɫ m a z s a c i ɾ a j a w e ɾ i ʤ eː m b e ɾ ɟ y l ʤ yː m 
[534.005]
<no-speech> 
[535.915]
<no-speech> 
[536.415]
<no-speech> 
[537.925]
n e b i l e j i m b e n j a b e n b ø j l e a m a n a m a n ʧ o k ʃ e j d e ɾ d i n d e d iː l d i m d e i ʃ t e b i 
[545.455]
<no-speech> 
[547.205]
j aː n i t a n o ʃ ɟ i d e ɾ c e n s o n s e n e s i i ʃ t e b iː ɾ a z d oː ɾ u d y z ɟ y n b i o ɾ t a m d a d e ɾ s ʧ a ɫ ɯ ʃ s ɯ n f a ɫ a n d i j e c i ɾ a ɫ ɯ k b i e w a ɾ a ɾ c e n b a k t ɯ m c i ɾ a ɫ a ɾ ʧ o k j y c s e c s i n i ɾ l e n d i m d e e w a ɫ d ɯ m <laugh> 
[559.125]
<breath> o n d a n ʃ e j d iː l j aː n i a m a n a m a n e w i m o ɫ m u ʃ t u n i s t e m i j o m ʤ a n ɯ m b e n i m 
[563.405]
<no-speech> 
[565.835]
<no-speech> 
[566.825]
<no-speech> 
[567.875]
s e n n e j a p t ɯ n oː p a ɾ a i ʃ i n i ɯ m h ɯ m b i ɟ e l i ʃ m e j o k d iː l m i 
[575.995]
<no-speech> 
[581.365]
<no-speech> 
[582.925]
<no-speech> 
[589.315]
<no-speech> 
[590.545]
<no-speech> 
[596.105]
a j i n a n m ɯ j o m j a n a m u s s u z a b a k j a 
[598.895]
<no-speech> 
[600.0]
