[0.0]
<no-speech> 
[4.095]
a ɫ o 
[4.725]
<no-speech> 
[6.645]
a ɫ o 
[7.335]
<no-speech> 
[8.465]
c a ɾ d e ʃ i m n e j a p ɯ j o n 
[9.515]
<no-speech> 
[11.315]
n e j a p ɯ j o n 
[12.125]
<no-speech> 
[14.575]
<int> d u j u j o ɾ m u s u n <no-speech> h e s e s b iː ɾ a z <no-speech> ɟ e ʧ ɟ e l i p ɟ i d i j o ɾ ɟ aː l i b a 
[18.695]
<no-speech> 
[19.605]
s e s b iː ɾ a z ɟ e ʧ ɟ e l i p ɟ i d i j o ɾ 
[21.225]
<no-speech> 
[22.985]
s e s s e s d i j o m b iː ɾ a z ɟ e ʧ ɟ i d i p ɟ e l i j o ɾ 
[25.355]
<no-speech> 
[27.365]
a ɾ c a d a ʃ ɯ n t e l e f o n u n d a n a ɾ ɯ j o m j a 
[29.265]
<no-speech> 
[30.285]
h e ʃ i m d i ɟ e l i j o ɾ j a 
[32.345]
<no-speech> 
[33.145]
i j i d i ɾ s e n n e j a p ɯ j o n 
[35.955]
<no-speech> 
[37.905]
<laugh> i j i n e ɾ d e s i n 
[39.265]
<no-speech> 
[43.245]
h e d y k k a n d a s ɯ n i j i ɟ y z e l <no-speech> s ɯ n a w d a n ʧ ɯ k t ɯ m b e n d e i ʃ t e <no-speech> b i a ɾ a j a j ɯ m b a k a j ɯ m d e d i m n e j a p ɯ j o n d i j e <no-speech> <int> h e <no-speech> h e 
[55.155]
<no-speech> 
[55.585]
<no-speech> 
[57.915]
e w d e 
[58.635]
<no-speech> 
[59.645]
h e b u ɟ y n e k a d a ɾ o ɫ a n ɫ a ɾ ɯ n h e p s i ɟ y z e l d i j a <no-speech> c a ɫ d ɯ ɟ e ɾ i j e y ʧ t a n e 
[63.445]
<no-speech> 
[64.725]
o n ɫ a ɾ ɯ d a w e ɾ e l i m d e i ʃ t e b i t ʤ e c 
[67.015]
<no-speech> 
[68.275]
n e z a m aː n ɟ e l ʤ eː m w a ɫ ɫ aː t a m o ɫ a ɾ a k b e l l i d iː l h a f t a j a h a f t a i ʧ i n d e b i ɟ y n ɟ e l ʤ eː m a ɾ t ɯ k h a f t a s o n u f a ɫ a n b u ɾ d a 
[78.445]
m u t f a k d o ɫ a p ɫ a ɾ ɯ f a ɫ a n d iː ʃ t i ɾ e l i m b a n j o d o ɫ a p ɫ a ɾ ɯ f a ɫ a n 
[83.055]
<no-speech> 
[84.765]
oː i ʃ l e ɾ b i t t i c t e n s o n ɾ a ɟ e l ʤ eː m ʃ e j b i d e ɟ ø ɾ d y n m y b e n s a n a b o ʃ m e s a ʒ a t m ɯ ʃ t ɯ m 
[93.465]
<no-speech> 
[97.625]
s e n d e m i ʃ t i n j a h a n i b a n a b i t a n e b o ʃ m e s a ʒ a t b a n a d i j e 
[100.315]
<no-speech> 
[107.255]
h e o ɫ u ɾ j a 
[108.455]
<no-speech> 
[115.205]
n e b i l e j i m oː ɫ u m s e n b o ʃ m e s a ʒ a t d e j i n ʤ e b e n d e b o ʃ m e s a ʒ a t t ɯ m s a n a 
[118.495]
<no-speech> 
[122.065]
<no-speech> 
[122.615]
<no-speech> 
[123.655]
j a i ʃ t e s ɯ n a w ɫ a ɾ a f a ɫ a n ʧ a ɫ ɯ ʃ ɯ j o ɾ d u k j a o n ɫ a ɾ d a n ʃ e j j a p a m a d ɯ k j a z a m aː n a j ɯ ɾ a m a d ɯ k ʧ o k f a z ɫ a j aː n i ø j l e 
[135.635]
ʧ o ʤ u k ɫ a ɾ n e j a p ɯ j o ɾ 
[136.515]
<no-speech> 
[141.415]
d y c c a n d a m ɯ 
[143.585]
<no-speech> 
[149.785]
a ɾ a d ɯ ɟ e ʧ e n ɟ y n a m a s ɯ n a w ɫ a ɾ ɯ o ɫ d uː i ʧ i n ɟ ø ɾ y ʃ e m e d i c a d a m ɫ a a j ɯ p o ɫ m a s ɯ n 
[155.195]
<no-speech> 
[159.255]
<no-speech> 
[160.275]
<no-speech> 
[161.565]
m u ɾ a t ɫ a ɾ z a t e n b e n i m s ɯ n a w ɫ a ɾ ɯ s a b o t e e t t i l e ɾ <no-speech> h e d u j u j o m b e n s e n i 
[165.995]
<no-speech> 
[171.675]
i j i n e o ɫ m u ʃ t u n n e i ʃ t e j a w a ɫ ɫ aː ʃ i m d i s ɯ n a w b e n i j a i j i o n ɫ a ɾ d a n e j a p s ɯ n ɫ a ɾ i ʃ t e o n ɫ a ɾ ɫ a b e ɾ a b e ɾ i z a k ʃ a m o n ɫ a ɾ a ɟ i d ʤ eː z f ɯ ɾ a t ɫ a ɾ a z a t e n 
[180.485]
<no-speech> 
[181.565]
ɯ m h ɯ m <int> h a f t a s o n u ʤ u m a ɾ t e s i p a z a ɾ j i n e d e ɾ s ʧ a ɫ ɯ ʃ ʤ aː z p a z a ɾ t e s i s a ɫ ɯ p e ɾ ʃ e m b e ɟ y n y y ʧ t a n e s ɯ n a w w a ɾ <no-speech> o n ɫ a ɾ a ʧ a ɫ ɯ ʃ ʤ aː z j i n e b i ʃ e j j a p t ɯː m ɯ z j o k 
[189.715]
<no-speech> 
[191.215]
j a z ɯ n b u ɾ d a j ɯ z z a t e n i s t a n b u ɫ d a j ɯ z 
[193.625]
<no-speech> 
[196.985]
i j i l e ɾ o n ɫ a ɾ d a d y n a k ʃ a m k o n u ʃ t u k e n s o n b i j a ɾ a m a z ɫ ɯ k j o k m u ʃ ʧ o ʤ uː b e c l i j o ɾ b i ɾ aː d e ɾ d e i ʃ t e ɟ e l d i 
[208.595]
t e m m u z ɟ i b i f a ɫ a n b i a j f a ɫ a n c a ɫ d ɯ i ʃ t e b i a j o t u z b e ʃ o t u z a ɫ t ɯ ɟ y n f a ɫ a n c a ɫ d ɯ 
[215.605]
<no-speech> 
[218.875]
ø j l e j a n e j a p ɯ j o ɾ ʧ o ʤ u k ɫ a ɾ n e j a p ɯ j o ɾ f a ɫ a n d yː n h a z ɯ ɾ ɫ ɯ k ɫ a ɾ ɯ n ɯ n e j a p ɯ j o ɾ ɫ a ɾ 
[223.425]
<no-speech> 
[228.445]
<no-speech> 
[231.745]
<no-speech> 
[234.825]
w e ɾ d i n s e n o n a a ɫ d ɯ oː 
[246.105]
ɟ ø ɾ d y m ɟ e ʧ e n ɟ y n e w d e o t o m o t i w d e o n u ɾ a p a j ɫ a ʃ t ɯ ɾ m ɯ ʃ t ɯ n ɟ aː l i b a 
[255.855]
<no-speech> 
[259.165]
o n u ɾ aː b i j e m i j a p t ɯ n d i j o m 
[262.685]
<no-speech> 
[263.655]
<no-speech> 
[264.235]
<no-speech> 
[265.045]
<no-speech> 
[265.645]
<no-speech> 
[267.345]
<no-speech> 
[268.065]
<no-speech> 
[270.505]
t a b i j a s e n b e n i ʧ ɯ c a ɾ e ɾ t uː ɫ a o n u ɾ u j a p z a t e n <no-speech> k ɯ n ɯ j o m s e n i 
[274.585]
<no-speech> 
[278.525]
b e n i m a ɾ c a d a ʃ l i s t e s i n e j o ɫ ɫ a m a d ɯ k c i 
[280.525]
<no-speech> 
[281.445]
<int> o ɫ a ɾ a k b e n a ʧ t ɯ m s e n i n s a j f a d a n 
[284.855]
<no-speech> 
[287.065]
o ɫ a ɾ a k oː a k ʃ a m 
[288.665]
<no-speech> 
[289.625]
j o k b e n a ʧ t ɯ m b e n <foreign> i ʃ t e s e n ʧ ɯ k d e d i n o n d a n <int> s o n ɾ a b e n i j a p d e d i n <no-speech> b e n ʧ ɯ k t ɯ m <no-speech> ʃ e j j a p a m a d ɯ m b e n s aː d e ʤ e d u w a ɾ ɯ m d a <no-speech> 
[298.745]
j o k b e n s aː d e ʤ e d u w a ɾ ɯ m d a p a j ɫ a ʃ t ɯ m 
[300.905]
<no-speech> 
[302.535]
ɟ ø n d e ɾ i ɾ i m j a a k ʃ a m s e n a j a ɾ ɫ a o n u b e n b y t y n l i s t e j i ʃ e j i ɟ ø n d e ɾ i ɾ i m d aː w e t i ɟ ø n d e ɾ i ɾ i m j aː n i 
[308.185]
<no-speech> 
[311.985]
h e s e n b a n a b i b o ʃ m e s a ʒ a t b e n a n ɫ a ɾ ɯ m z a t e n <int> 
[314.675]
<no-speech> 
[316.855]
<no-speech> 
[317.405]
<no-speech> 
[319.565]
j a w a ɾ m ɯ a ɾ a b a s a t ɯ ʃ ɫ a ɾ ɯ f a ɫ a n 
[321.615]
<no-speech> 
[325.495]
<no-speech> 
[325.855]
<no-speech> 
[326.855]
a ɫ d ɯ n ɯ z d y c c a n ɯ n m ɯ j o k s a d ɯ ʃ a ɾ ɯ d a n b i a ɾ c a d a ʃ ɯ n m ɯ 
[331.065]
<no-speech> 
[333.385]

[335.435]
<no-speech> 
[336.645]
h e i j i ɟ y z e l b a j aː b i <foreign> f a ɫ a n ɟ ø ɾ d y m d y c c a n d a d a 
[342.055]
<no-speech> 
[344.585]
oː b e j a z ɾ e n ɟ i b a n a a j ɯ ɾ j a b e n s a t ɯ n a ɫ ɯ ɾ ɯ m o n u 
[347.085]
<no-speech> 
[348.635]
b i t a n e s i n i b e n s a t ɯ n a ɫ ʤ aː m o n ɫ a ɾ ɯ n 
[350.415]
<no-speech> 
[352.445]
a j n e n b e n i m z a m aː n ɯ m w a ɾ a ɾ a d ɯ m s e n i m u a b b e t e d i j o z a m a i ʃ i n d e n a ɫ ɯ k o j m u j o ɾ u m d u ɾ u m a ɾ ɯ m 
[356.905]
<no-speech> 
[358.475]
<no-speech> 
[359.095]
<no-speech> 
[361.655]
<int> h e i j i oː z a m aː n 
[364.165]
<no-speech> 
[365.105]
i j i oː z a m aː n b o ʃ z a m aː n ɯ n ɯ b e n i m l e d e j e ɾ l e n d i ɾ b aː ɾ i 
[367.595]
<no-speech> 
[369.945]
a j k u t f a ɫ a n d a m ɯ o ɾ d a 
[371.395]
<no-speech> 
[373.815]
<no-speech> 
[374.175]
<no-speech> 
[375.565]
<sta> h e <no-speech> h e h e p s i o ɾ d a 
[380.315]
<no-speech> 
[381.355]
h e a j k u t ʧ ɯ k m ɯ ʃ oː z a m aː n a z ø n ʤ e a j k u t ɫ a k o n u ʃ u j o ɾ d u k d a b u ɾ a k ɯ n o ɾ a d a j ɯ m b e n d e d i 
[385.135]
<no-speech> 
[386.985]
<no-speech> 
[387.515]
<no-speech> 
[389.705]
h e a n ɫ a d ɯ m <int> i j i j m i ʃ h a ʤ ɯ <no-speech> s e n n e z a m aː n ɟ e l ʤ e c s i n b i d a a <int> i s t a n b u ɫ a <int> 
[394.095]
<no-speech> 
[399.135]
<int> h e <no-speech> ɟ e l j a b a j a ɯ d ɯ ɾ ɟ e l m i j o n 
[402.565]
<no-speech> 
[406.585]
ø z l e d i c s e n i s e p e t i n i ø z l e d i c 
[411.445]
<no-speech> 
[413.345]
ø j l e i ʃ t e 
[414.045]
<no-speech> 
[415.225]
aː i l e 
[416.035]
<no-speech> 
[420.535]
ø j l e i ʃ t e n e j a j a p a ɫ ɯ m b i z d e e s c i ʤ e z aː a w u k a t ɫ a ɾ ɯ n d a n i ʃ t e d e w a m ɫ ɯ ɟ e l i j o ɾ 
[425.545]
<no-speech> 
[427.705]
o j o j 
[429.055]
<no-speech> 
[431.895]
h a ʤ ɯ n e o ɫ m u ʃ t u n i ʃ t e j a z ɯ n ɟ e l ʤ eː m o ɾ d a j ɯ m z a t e n j o k b e h a ʤ ɯ m s aː ɫ ɯː n ɯ z 
[437.695]
<no-speech> 
[439.715]
ø j l e i ʃ t e j aː n i s i z i n b i i s t eː i n i z w a ɾ s a b i z h a l l e d e l i m b u ɾ d a n 
[445.405]
<no-speech> 
[447.655]
s e n i s t e i s t a n b u ɫ u s e ɾ e j i m a j a ɯ n a b u ɾ d a c i g a z i n o ɫ a ɾ ɯ n h e p s i n i k a p a t ɯ j ɯ m b e n s e n i s t e j e t e ɾ c i 
[454.625]
<no-speech> 
[459.135]
b i l i j o n b e n d e c ø k l y j y m b e n b i l i j o n z a t e n 
[464.105]
<no-speech> 
[466.055]
i j i d e m e s l e k t a ʃ s a j ɯ ɫ ɯ ɾ ɯ z oː ɫ u m 
[468.995]
<no-speech> 
[473.155]
m e s l e k t a ʃ s a j ɯ ɫ ɯ ɾ ɯ z d i j o m j a 
[476.475]
<no-speech> 
[481.335]
m e s l e k t a ʃ s a j ɯ ɫ ɯ ɾ ɯ z d i j o m m e s l e k t a ʃ b i z d e g a l e ɾ i ʤ i j i z j a a n ɫ a ɾ ɯ z 
[485.535]
<no-speech> 
[488.985]
j aː n i j a p ʤ a k b i ʃ e j j o k 
[492.085]
<no-speech> 
[494.685]
n e 
[495.155]
<no-speech> 
[497.975]
a n ɫ a m a d ɯ m <no-speech> h e ɟ e l d e i ʃ i n i n b a ʃ ɯ n a ɟ e ʧ t a b i b e n i m <no-speech> s i z i n e n y s t k a t b iː ɾ a z s e ɾ i n d i z a t e n e n y s t c a t ɯ b a n a a j a ɾ ɫ a j ɯ n j a 
[506.395]
<no-speech> 
[512.125]
h e 
[512.684875]
<no-speech> 
[513.855]
<sta> w a k t i n w a ɾ s a s e n i ʃ t e b i i c i y ʧ d a c i c a d a a u z a t a ɫ ɯ m b i z b e n d e i ʃ i m e ɟ y ʤ y m e b a c a ɾ ɯ m 
[520.095]
<no-speech> 
[521.034875]
w a k t i n w a ɾ s a d i j o m b i i c i y ʧ d a c i c a d a a u z a t a ɫ ɯ m ʤ a n ɯ n s ɯ k ɯ ɫ m a s ɯ n d i j o m b o ʃ b o ʃ o t u ɾ u j o z 
[531.805]
<no-speech> 
[532.785]
a k ʃ a m n e j a p ʤ a k s ɯ n ɯ z 
[539.345]
<no-speech> 
[541.165]
n e 
[541.625]
<no-speech> 
[547.335]
<sta> h e a n ɫ a d ɯ m j a i j i o ɫ u ɾ 
[559.215]
n e j a p ʤ aː z ʧ o ʤ u k ɫ a ɾ ɫ a b e ɾ a b e ɾ o t u ɾ u ɾ u z j a b i l m i j o m a ɾ t ɯ k n e j a p a ɾ ɯ z d a 
[566.715]
ʧ o ʤ u k ɫ a ɾ d i j o ɾ b i ɾ a k ɯ i ʧ e l i m f a ɫ a n f i ɫ a n d i j e d e b i l m i j o m b e l c i o n ɫ a ɾ ɫ a b i ɾ a k ɯ i ʧ e ɾ i z ø j l e b i t a k ɯ ɫ ɯ ɾ ɯ z j a d a e w e ɟ e ʧ e ɾ i m d i n l e n i ɾ i m s ɯ n a w s i t ɾ e s i n d e n j o ɾ u ɫ d u m z a t e n 
[578.415]
<no-speech> 
[582.125]
n e 
[587.625]
<no-speech> 
[591.415]
b i l m i j o m j a b u a k ʃ a m i ʃ t e f ɯ ɾ a t ɫ a ɾ a ɟ e ʧ e ɾ i z d e f ɯ ɾ a t ɫ a ɾ d a o ɫ u ɾ p a ɾ t i b e n i m e w d e p e c j a p a m ɯ j o z p a ɾ t i a ɫ t k a t t a c i ʃ i k a j e t e d i j o ɾ s o n ɾ a 
[599.615]
<no-speech> 
[600.04]
