[0.0]
<no-speech> 
[4.795]
a ɫ o 
[5.395]
<no-speech> 
[9.885]
i j i ɟ y n l e ɾ 
[10.635]
<no-speech> 
[12.595]
a ɫ o 
[13.175]
<no-speech> 
[14.585]
h ɯ ɟ e l i j o ɾ a b i 
[15.555]
<no-speech> 
[17.705]
ɟ e l i j o ɾ a b i a m a d e ɾ i n d e n ɟ e l i j o ɾ 
[19.785]
<no-speech> 
[21.685]
a ɫ o 
[22.305]
<no-speech> 
[25.565]
<int> d e ɾ i n d e n ɟ e l i j o ɾ a b i d u j m u j o m <cough> 
[29.145]
<no-speech> 
[30.075]
a ɫ o 
[30.735]
<no-speech> 
[37.885]
a ɫ o 
[38.555]
<no-speech> 
[40.865]
ʧ o k d e ɾ i n d e n ɟ e l i j o ɾ a b i 
[42.555]
<no-speech> 
[44.465]
d e ɾ i n d e n ɟ e l i j o ɾ d u j m u j o m a b i 
[46.475]
<no-speech> 
[54.925]
j o k d ɯ ʃ a ɾ d a j ɯ m a b i 
[56.265]
<no-speech> 
[58.535]
h ɯ h ɯ 
[59.225]
<no-speech> 
[60.025]
e w e t 
[60.635]
<no-speech> 
[72.465]
h ɯ h ɯ d u j u j o m 
[73.465]
<no-speech> 
[81.155]
h ɯ h ɯ 
[81.775]
<no-speech> 
[87.515]
h ɯ h ɯ 
[88.095]
<no-speech> 
[94.79]
<no-speech> 
[101.485]
ʃ e j b ø l y m o ɫ a ɾ a k m ɯ a b i 
[103.135]
<no-speech> 
[110.315]
<no-speech> 
[117.495]
ʃ e j s ø z l e ɾ i m i d a a k u w w e t l i a b i 
[120.005]
<no-speech> 
[127.085]
h ɯ 
[127.725]
<no-speech> 
[131.365]
<no-speech> 
[131.715]
<no-speech> 
[136.765]
h ɯ 
[137.355]
<no-speech> 
[138.525]
e j e ɾ h u k u k <cough> 
[140.095]
<no-speech> 
[142.895]
e j e ɾ i l l aː c i h u k u k i s t i j o s a a b i ʃ e j j a p a b i l i ɾ eː d a a b ø j l e d y ʃ y c p u a n ɫ a ɾ d a o ɫ a n m e s e ɫ a a t ɯ j o m w a n d a m e s e ɫ a o k u j a b i l i ɾ w e j a n e b i l e j i m h a n i d a a b ø j l e u z a k 
[154.295]
j e ɾ l e ɾ d e o ɫ a b i l i ɾ a m a p u a n ɫ a ɾ ɯ d a a d y ʃ y c o ɫ a n m e s e ɫ a eː h u k u k o k u ɫ ɫ a ɾ ɯ w a ɾ eː ø n ʤ e b i p u a n ɯ n ɯ b e n ʤ e b i øː ɾ e n m e s i l aː z ɯ m h a n i oː p u a n ɯ j ɫ a n e ɾ e l e ɾ e ɟ i ɾ e b i l i ɾ h u k u k ɫ a a ɫ a c a ɫ ɯ o ɫ a ɾ a k 
[166.825]
<no-speech> 
[173.695]
<no-speech> 
[180.565]
h ɯ 
[181.145]
<no-speech> 
[185.295]

[185.965]
<no-speech> 
[190.095]
e j e ɾ h u k uː i s t i j o s a d e d i j i m ɟ i b i a b i j aː n i <hes> o k u ɫ u n ʃ e j i n e b a k m a j a ʤ a k h a n i n e ɾ e d e o ɫ d uː n a b a k m a j a ʤ a k s aː d e ʤ e b ø l y m o ɫ a ɾ a k c e n d i n i h u k u a 
[200.625]
<no-speech> 
[203.465]
j aː n i u z a k d a o ɫ s a h a n i <hes> ʃ e j j a p m a j a ʤ a k s ɯ n ɯ z h a n i s o ɾ u n e t m e j e ʤ e c s i n i z o n u h a n i o k u ɫ u n n e o ɫ i s m i n i n n e o ɫ d uː ø n e m l i d iː l b ø l y m y n y n n e o ɫ d uː ø n e m l i ʧ y n c y m aː d e m h u k uː b u k a d a ɾ s e w i j o ɾ w e i s t i j o s a 
[215.405]
h a n i h e ɾ h a n ɟ i b i o k u ɫ d a a m a h u k u k b ø l y m y n y j a z m a s ɯ l aː z ɯ m c i h a n i s e w d i j i i ʃ t e i n i n s a n d a a ʧ o k b a ʃ a ɾ ɯ ɫ ɯ o ɫ u ɾ 
[223.295]
<no-speech> 
[224.235]
<hes> b e n ø j l e d y ʃ y n y j o m o n u n i ʧ i n 
[226.745]
<no-speech> 
[228.575]
h ɯ h ɯ 
[229.215]
<no-speech> 
[239.015]
e w e t 
[239.525]
<no-speech> 
[244.015]
e w e t 
[244.515]
<no-speech> 
[253.745]
h ɯ h ɯ 
[254.335]
<no-speech> 
[261.445]
<no-speech> 
[268.555]
i n ʃ a ɫ ɫ a 
[269.395]
<no-speech> 
[270.455]
i n ʃ a ɫ ɫ a 
[271.215]
<no-speech> 
[283.185]
j aː n i b e n ʤ e h e ɾ h aː l y c a ɾ d a h u k u k t a n n e ɾ e j e ɟ i ɾ e b i l i j o ɾ s a b e n ʤ e o ɾ a j a ɟ i ɾ m e j e b a k s ɯ n 
[289.815]
<no-speech> 
[291.215]
j aː n i ʧ y n c y a n ɫ a d ɯ n 
[292.535]
<no-speech> 
[293.465]
e w e t 
[293.995]
<no-speech> 
[305.355]
ʃ ø j l ʃ ø j l e j a p a b i l i ɾ m e s e ɫ a i c i j ɯ ɫ ɫ ɯ k ɫ a ɾ d a ʃ e j w a ɾ a b i <hes> a d aː l e t m e s l e c j y k s e k o k u ɫ u w a ɾ i c i j ɯ ɫ ɫ ɯ k ɫ a ɾ d a 
[313.245]
<no-speech> 
[314.195]
<hes> o n u b i t i ɾ d iː z a m aː n <hes> d eː ɟ eː s e j e ɟ i ɾ e ɾ d i c e j ɟ e ʧ i ʃ s ɯ n a w ɯ d e n i l e n b i s ɯ n a w w a ɾ oː s ɯ n a w a ɟ i ɾ d i c t e n s o n ɾ a e j e ɾ d eː ɟ eː s e d e n ɟ e ʧ m i ʃ w e j u k a ɾ ɯ s ɯ n d a 
[325.715]
p u a n a ɫ ɯ ɾ s a <hes> a ɫ d ɯː p u a n a ɟ ø ɾ e <hes> n o ɾ m a ɫ y n i w e ɾ s i t e l e ɾ i n d ø ɾ t j ɯ ɫ ɫ ɯ k b ø l y m d e n h u k u a b ø l y m h u k u k b ø l y m y n e ɟ e ʧ i ʃ j a p a b i l i j o ɾ oː z a m aː n 
[334.515]
<no-speech> 
[336.595]
a n ɫ a t a b i l i j o ɾ m u j u m j aː n i i c i j ɯ ɫ ɫ ɯ k <hes> ʃ e j o k u ɾ a d aː l e t m e s l e c j y k s e k o k u ɫ u o k u ɾ i c i j ɯ ɫ ɯ n s o n u n d a s ɯ n a w a ɟ i ɾ e ɾ e j e ɾ oː d eː ɟ eː s eː s ɯ n a w ɯ n d a n j e t m i ʃ i n y z e ɾ i n d e p u a n a ɫ ɯ ɾ s a 
[348.535]
n o ɾ m a ɫ ɟ e n e n o ɾ m a ɫ y n i w e ɾ s i t e l e ɾ i n d ø ɾ t j ɯ ɫ ɫ ɯ k h u k u k ɫ a ɾ ɯ n a ɟ e ʧ i ʃ j a p a ɾ y ʧ i l e d ø ɾ d y a t ɯ j o m m e s e ɫ a m a ɾ m a ɾ a y n i w e ɾ s i t e s i n d e h u k uː c a z a n d ɯ p u a n ɯ o n a j e t t i m e s e ɫ a 
[359.525]
ɟ i ɾ e ɾ o ɾ d a i c i j ɯ ɫ d a o ɾ d a ø j l e o k u ɾ d ø ɾ t j ɯ ɫ ɯ n s o n u n d a a w u c a t ɫ ɯ k ʃ e j i n i m e s l iː n i e l i n e a ɫ m ɯ ʃ o ɫ u ɾ d i p ɫ o m a s ɯ n ɯ d a a ɫ ɯ ɾ j aː n i oː ʃ e c i l d e j aː n i e j e ɾ d ø ɾ t j ɯ ɫ ɫ ɯ k k a z a n a m a z s a h u k uː <no-speech> o n u n j e ɾ i n e i c i j ɯ ɫ ɫ ɯ k eː m e s l e c j y k s e k o k u ɫ u o k u s u n <no-speech> e w e t b e n ʤ e j aː n i d ø ɾ t j ɯ ɫ ɫ ɯ k a t ɯ j o m i ʃ l e t m e o k u j a ʤ a ɯ n a <no-speech> m aː d e m b u a ɾ c a d a ʃ 
[382.375]
eː h u k u k i s t i j o ɾ <no-speech> h u k u k i s t i j o s a oː z a m aː n d ø ɾ t j ɯ ɫ ɫ ɯ k i ʃ l e t m e j e p u a n ɯ t u t s a b i l e ɟ i t m e s i n <no-speech> o n u n j e ɾ i n e i c i j ɯ ɫ ɫ ɯ k a d aː l e t m e s l e c j y k s e k o k u ɫ u o k u s u n b i t i ɾ s i n <no-speech> i c i j ɯ ɫ d a <no-speech> i c i j ɯ ɫ ɯ n s o n u n d a d a d eː ɟ eː s e j e ɟ i ɾ s i n d eː ɟ eː s e d e n d e d ø ɾ t j ɯ ɫ ɫ ɯ k h u k u a t a m a m ɫ a ɾ 
[398.955]
<no-speech> 
[409.955]
<no-speech> 
[410.305]
<no-speech> 
[412.175]
o n ɫ a ɾ ɯ ʃ e j l e j a p a b i l i ɾ 
[413.785]
<no-speech> 
[415.965]
h ɯ h ɯ eː b u b i l ɟ i l e ɾ i ʃ e j d e n d e a ɫ a b i l i ɾ eː a ʧ ɯ k øː ɾ e t i m b y ɾ o ɫ a ɾ ɯ n ɯ n eː c a j ɯ t k a b u ɫ l e ɾ i n d e o ɫ a n c i ʃ i l e ɾ d e w e ɾ e b i l i j o ɾ <no-speech> o n d a n s o n ɾ a o k u ɫ ɫ a ɾ ɯ n ɾ e b e ɾ øː ɾ e t m e n l e ɾ i d e w e ɾ e b i l i j o ɾ eː y n i w e ɾ s i t e h a z ɯ ɾ ɫ ɯ k k u ɾ s ɫ a ɾ ɯ n ɯ n ɾ e b e ɾ øː ɾ e t m e n l e ɾ i n e d e s o ɾ u ɫ a b i l i ɾ <no-speech> o n ɫ a ɾ d a n ɟ e ɾ e c l i d a a a j ɾ ɯ n t ɯ ɫ ɯ b i l ɟ i a ɫ ɯ n a b i l i ɾ a b i 
[436.315]
<no-speech> 
[438.205]
h ɯ oː ʃ e c i l d e i n ʃ a ɫ ɫ a 
[440.485]
<no-speech> 
[441.625]
j o k j o k j o k eː s t aː f u ɾ u ɫ ɫ a h a b i i n ʃ a ɫ ɫ a h a j a ɫ ɫ a ɟ ø n l y n e ɟ ø ɾ e w e ɾ i ɾ h a j ɯ ɫ ɯ s ɯ n e j s e oː o ɫ m u ʃ t u n 
[447.365]
<no-speech> 
[452.825]
b e n b i t i ɾ d i m a b i 
[454.105]
<no-speech> 
[457.845]
b e n i m i ʃ l e t m e j d i a b i 
[459.285]
<no-speech> 
[460.555]
i ʃ l e t m e a b i b e n i m h ɯ h ɯ 
[462.915]
<no-speech> 
[465.325]
e w e t s o n 
[466.165]
<no-speech> 
[467.985]
o t u z d ø ɾ t a b i 
[469.085]
<no-speech> 
[470.515]
o t u z d ø ɾ t 
[471.295]
<no-speech> 
[472.985]
h ɯ h ɯ 
[473.545]
<no-speech> 
[475.605]
t a m a m a b i ʤ iː m 
[476.525]
<no-speech> 
[478.785]
a b i i ʃ d u ɾ u m u ʃ u a n d a b i ʃ e j j a p m ɯ j o m a b i j aː n i i ʃ t e <hes> f a ɾ k ɫ ɯ b i t a k ɯ m eː i t i m l e ɾ a ɫ ʤ aː m o n ɫ a ɾ ɯ b e c l i j o m k u ɾ s ɫ a ɾ b a ʃ ɫ ɯ ʤ a k i ʃ t e o n ɫ a ɾ ɯ b e c l i j o m j aː n i 
[490.165]
<no-speech> 
[494.325]
j a oː aː m i n 
[496.185]
<no-speech> 
[498.005]
j o k f a ɾ k ɫ ɯ f a ɾ k ɫ ɯ 
[499.785]
<no-speech> 
[500.815]
f i n a n s y z e ɾ i n e d y ʃ y n y j o m 
[502.405]
<no-speech> 
[504.305]
h ɯ h ɯ 
[504.925]
<no-speech> 
[505.735]
f i n a n s y z e ɾ i n e d y ʃ y n y j o m e w e t 
[507.435]
<no-speech> 
[510.875]
<no-speech> 
[511.245]
<no-speech> 
[513.375]
a b i z e w k l i j a j aː n i h a ɾ b i d e n h o ʃ u m a ɟ i d i j o ɾ j aː n i oː ʃ e j l e ɾ i f e ɫ a n t aː c i p e d i j o n m e s e ɫ a b u l uː m b e ɾ g d e n f e ɫ a n t aː c i p e d i j o m b u f o ɾ e c s d i j e b i p i j a s a a ʧ ɯ ɫ d ɯ j e n i b i p i j a s a 
[524.855]
ɟ e ɾ ʧ i d y n j aː d a w a ɾ d a t y ɾ c i j e d e d a a j e n i ʃ u ɾ d a i c i y ʧ s e n e d i ɾ f e ɫ a n w a ɾ o ɫ a n b i p i j a s a i ʃ t e i n t e ɾ n e t t e n ʃ e j i t aː c i p e d i j o m i ʃ t e f o ɾ e c s p i j a s a s ɯ n ɯ t aː c i p e d i j o m b o ɾ s a d a b a z ɯ c a ɯ t ɫ a ɾ a f e ɫ a n b a k ɯ j o m 
[536.275]
<no-speech> 
[537.295]
ø j l e t aː c i p e d i j o m j aː n i b a k a ɫ ɯ m 
[539.235]
<no-speech> 
[545.165]
h ɯ h ɯ 
[545.795]
<no-speech> 
[553.665]
h ɯ h ɯ <no-speech> i ʃ t e b e n d e o n l a j n o ɫ a ɾ a k oː f o ɾ e c s t e ʃ e j j a p ɯ j o m h a n i t aː c i p e d i j o m o ɫ a j ɫ a ɾ ɯ d a a h e n y z p a ɾ a j a t ɯ ɾ ɯ p o j n a m a d ɯ m d a s aː d e ʤ e t aː c i p e d i j o m 
[565.365]
<no-speech> 
[567.595]
h ɯ j o k 
[568.245]
<no-speech> 
[576.605]
e w e t 
[577.185]
<no-speech> 
[579.875]
t a b i a b i ʃ i m d i b i d e j e n i b i p i j a s a o ɫ d uː i ʧ i n f o ɾ e c s 
[582.785]
<no-speech> 
[583.755]
oː j y z d e n 
[584.515]
<no-speech> 
[588.075]
<breath> ø j l e a b i ʤ iː m 
[589.735]
<no-speech> 
[597.725]
e w e t d oː ɾ u d i j o n a b i 
[598.985]
<no-speech> 
[600.34]
