[0.0]
<no-speech> 
[2.195]
a ɫ o 
[2.915]
<no-speech> 
[5.885]
<breath> i j i j i m ʤ a n ɯ m s e n n a s ɯ ɫ s ɯ n 
[7.665]
<no-speech> 
[12.215]
<breath> ʃ i m d i h a z ɯ ɾ ɫ a j a ʤ a ɯ m i ʃ t e b iː ɾ a z s o n ɾ a a z c a ɫ d ɯ z a t e n i f t a ɾ a j a ɾ ɯ m s aː t c a ɫ d ɯ ɟ aː l i b a d iː l m i 
[16.855]
<no-speech> 
[21.255]
s e n m i s a n c i o ɾ u ʧ t u t u j o ɾ m u ʃ s u n ɟ i b i k o n u ʃ m a <laugh> o ɾ u ʧ m u s u n b u ɟ y n 
[26.395]
<no-speech> 
[29.525]
<no-speech> 
[29.975]
<no-speech> 
[32.705]
h ɯ a n ɫ a d ɯ m a n ɫ a d ɯ m <lipsmack> j e t i ʃ e b i l i ɾ s e n ɟ e l s e n d e 
[36.875]
<no-speech> 
[37.785]
ɟ i t t i m ɟ i t t i m <hes> ʃ e j i d ɾ a ɾ ɯ n d a b iː ɾ a z e n f e c s i j o n w a ɾ n e s l i ʃ a h ɯ n <breath> o n d a n s o n ɾ a <hes> i d ɾ a ɾ ɯ j a p t ɯ ɾ t t ɯ m b i t y ɾ l y ɟ ø t y ɾ d y m z a t e n ʧ o k a z o ɫ d u a m a o ɫ m u ʃ t u n b i ʃ e j o ɫ m a z d e d i l e ɾ 
[49.775]
<breath> i d b iː ɾ a z e n f e c s i j o n ʧ ɯ k t ɯ i ʃ t e n a s ɯ ɫ 
[53.885]
<no-speech> 
[56.315]
a ɫ o 
[56.965]
<no-speech> 
[57.935]
h ɯ o n d a n s o n ɾ a h a f t a j a b i d a a <hes> b i d a a c y l t y ɾ t e s t i j a p ɯ ɫ ʤ a k h a f t a j a ʃ i m d i b i a n t i b i j o t i c w e ɾ d i <breath> t e c ɾ a ɾ c y l t y ɾ j a p ʤ a k ɫ a ɾ h a f t a j a 
[66.155]
<no-speech> 
[67.455]
aː z ɯ n d a c i p a m u k ʧ u k ɫ a ɾ d a ɟ e ʧ t i z a t e n <breath> j a m u t e m e l e n t a t i l d e h a w u z a s o k t u m j a b e n o n u <breath> t a t i l d e h a w u z a s o k t u m j a b e n o n u h e ɾ h a l d e b y j y c i t i m a l l e o ɾ d a n o ɫ d uː n u d y ʃ y n y j o m a m a b i aː ɾ ɯ s ɯ b i s a n ʤ ɯ s ɯ j o k j aː n i d o k t o ɾ u n a d a s ø j l e d i m z a t e n <breath> o ɫ a b i l i ɾ d e d i b e l c i i ʃ t a h s ɯ z j a h a n i i ʃ t a h s ɯ z ɫ ɯː n s e b e b i d e b u o ɫ a b i l i ɾ b e l c i d e d i 
[84.835]
<no-speech> 
[88.405]
b u n u n a ɫ t ɯ n d a j a t a b i l i ɾ j aː n i d e d i oː j y z d e n t a m a m oː z a m aː n d e d i m i ɫ a ʤ ɯ n ɯ w e ɾ d i <breath> b i d e i ʃ t e ø n y m y z d e c i h a f t a b a j ɾ a m d a n s o n ɾ a d a a d oː ɾ u s u t e c ɾ a ɾ ɟ i d ʤ eː z t e s t <breath> s u p ɾ a k s d i j e b i a n t i b i j o t i c w e ɾ d i 
[97.925]
<no-speech> 
[100.395]
s u p ɾ a s u p ɾ a k s ɯ m h ɯ m b i l m i j o m b i z i m ʧ o ʤ u k ɫ a ɾ d a n b i t a n e s i d a a i ʧ t i o n u ɟ aː l i b a p e c i s m i j a b a n ʤ ɯ ɟ e l m e d i b a n a a m a w e ɾ i j o m ʃ i m d i b a ʃ ɫ a d ɯ k b u ɟ y n z a t e n 
[108.945]
<no-speech> 
[112.335]
h ɯ ɟ e l d i ɟ e l d i z a t e n b u ɟ y n e ɾ c e n ʤ i j d i oː b uː s e j i k a ɾ a t e j e ɟ ø t y ɾ d y ɟ e l d i <breath> i l k ø n ʤ e b i d o k t o ɾ a ɟ i t t i c ɟ e l d i c s o n ɾ a b uː s e j i k a ɾ a t e j e ɟ ø t y ɾ d y t e c ɾ a ɾ ɟ i t t i a ɫ d ɯ <breath> b uː s e n i n d e k a ɾ a t e s a ɫ o n u n u s u b a s m ɯ ʃ d y n c y j aː m u ɾ d a n h o ʤ a ɫ a ɾ ɯ b u ɟ y n o ɾ a ɫ a ɾ ɯ t e m i z l e m i ʃ l e ɾ b u n ɫ a ɾ d a c e n d i c e n d i l e ɾ i n e o j n a m ɯ ʃ ɫ a ɾ o ɾ d a <laugh> o ɾ a j ɯ k u ɾ u t m a j a ʧ a ɫ ɯ ʃ ɯ j o ɾ ɫ a ɾ m ɯ ʃ h ɯ 
[136.125]
<no-speech> 
[139.435]
u j u j o ɾ m u ʃ u a n d a 
[140.655]
<no-speech> 
[145.185]
a j m aː ʃ a ɫ ɫ a aː f e ɾ i n o n a w a ɫ ɫ aː i 
[147.785]
<no-speech> 
[150.335]
<hes> h ɯ 
[151.845]
<no-speech> 
[153.685]
h ɯ 
[154.195]
<no-speech> 
[156.485]
h ɯ 
[157.145]
<no-speech> 
[160.495]
h ɯ 
[161.025]
<no-speech> 
[163.185]
h ɯ 
[163.875]
<no-speech> 
[166.325]
n e n e j m i ʃ ʤ i n s i j e t i 
[167.745]
<no-speech> 
[169.635]
ʤ i n h a d i ɟ ø z y n y z a j d ɯ n ʧ o k s e w i n d i m ʧ o k m u t ɫ u o ɫ d u m <breath> t aː n e m i n e ɾ c e c k a ɾ d e ʃ i o ɫ ʤ a k h a <breath> j e ɾ i m o n u b e n <laugh> 
[177.795]
<no-speech> 
[181.035]
<no-speech> 
[181.455]
<no-speech> 
[183.375]
<laugh> e ɾ c e c ʧ o ʤ uː n a oː ɫ a n d e m i j o ɾ ɫ a ɾ m ɯ s i n i ɾ o ɫ u j o m w a ɾ j a ø j l e j a p t ɯ k ɫ a ɾ ɯ z a m aː n 
[189.015]
<no-speech> 
[190.385]
ʤ a n ɯ m b i h i t a p ʃ e c l i w a ɾ d ɯ ɾ j aː n i h e ɾ c e s ʧ o ʤ uː n a oː ɫ a n oː ɫ a n n e k a d a ɾ ʧ i ɾ c i n b i k o n u ʃ m a ʃ e c l i d iː l m i 
[195.205]
<no-speech> 
[197.565]
b i l m i j o m b e n i m h o ʃ u m a ɟ i t m i j o ɾ j aː n i s i z h ɯ 
[200.375]
<no-speech> 
[203.455]
h a s t a n e d e m i j a t ɯ j o ɾ m u ʃ ɟ aː l i b a a m a t a m b i l m i j o m n e o ɫ d uː n u n e o ɫ m u ʃ s aː d e ʤ e h a s t a n e d e j a t t ɯ ɯ n ɯ øː ɾ e n d i m 
[208.975]
<no-speech> 
[214.325]
ʤ i d d iː m i s i n j a z ɯ k j a 
[216.255]
<no-speech> 
[218.745]
<hes> 
[219.445]
<no-speech> 
[224.185]
h ɯ 
[224.735]
<no-speech> 
[228.565]
a j j a z ɯ k k a d ɯ n a 
[230.715]
<no-speech> 
[231.525]
n e ɾ e d e h a n ɟ i h a s t a n e d e j m i ʃ 
[233.305]
<no-speech> 
[238.165]
h ɯ 
[238.725]
<no-speech> 
[239.705]
ʧ ɯ k m ɯ ʃ m ɯ 
[240.585]
<no-speech> 
[241.865]
n e j s e e w i n e ɟ i d e ɾ i z ʤ a n ɯ m b u ɾ a j a b a n a j a k ɯ n z a t e n n e o ɫ d u 
[245.265]
<no-speech> 
[248.725]
h a j ɯ ɾ 
[249.565]
<no-speech> 
[251.145]
n e o ɫ m u ʃ c i 
[252.065]
<no-speech> 
[256.535]
t a m a m 
[257.195]
<no-speech> 
[260.105]
t a m a m h ɯ 
[261.155]
<no-speech> 
[262.265]
h ɯ 
[262.975]
<no-speech> 
[267.875]
h ɯ 
[268.665]
<no-speech> 
[269.725]
h ɯ 
[270.265]
<no-speech> 
[274.815]
a n n e s i n e m i s ø j l e m i ʃ b u n u t e ɾ b i j e s i z t e ɾ b i j e s i z h ɯ 
[280.155]
<no-speech> 
[282.685]
j a z ɯ k k a d ɯ n a j a 
[284.035]
<no-speech> 
[285.215]
h ɯ 
[285.925]
<no-speech> 
[288.675]
<no-speech> 
[289.165]
<no-speech> 
[291.695]
<hes> a j i n a n m ɯ j o m k a d ɯ n a j a z ɯ k ɟ y n a j a 
[295.305]
<no-speech> 
[296.455]
eː c e s m i ʃ m i ʃ i m d i p e c i ɟ e ʧ i ʤ i s a ʧ m ɯ h a n i j o k s a ʃ e j b ɯ ɾ a k ɯ ʤ a k m ɯ b ɯ ɾ a k ɯ ʤ a k m ɯ j m ɯ ʃ 
[301.155]
<no-speech> 
[307.665]
a j n e j s e b e n i m e w i m e j a k ɯ n j a b u ɾ a j a ɟ e l i ɾ s i n ɟ i d e ɾ i z b i ɾ l i c t e b i a ɾ a 
[310.925]
<no-speech> 
[314.285]
b a n a j a k ɯ n ʧ y n c y b u ɾ a j a b e ʃ d a c i c a h e m e n ɟ i d e ɾ i z b i ɾ l i c t e 
[317.015]
<no-speech> 
[317.825]
<lipsmack> a n ɫ a d ɯ m a n n e m l e ɾ n e j a p ɯ j o ɾ ɫ a ɾ 
[319.535]
<no-speech> 
[321.375]
h ɯ i ʃ t e o n u s ø j l i j ʤ eː m b e n s a n a b a j ɾ a m ʧ ɯ c a ɾ ʧ ɯ k m a z ɟ i d ʤ eː z t a m a m m ɯ 
[325.745]
<no-speech> 
[327.685]
b e n b e n <hes> 
[328.985]
<no-speech> 
[329.845]
t a t i l e a m a s i z <hes> ɾ a m a z a n ʃ u a n d a n a s ɯ ɫ ɟ i d ʤ eː z 
[333.155]
<no-speech> 
[335.535]
n a s ɯ ɫ o ɫ ʤ a k 
[336.305]
<no-speech> 
[337.255]
eː ɟ e l d i c t e n s o n ɾ a t a m a m ɟ e l d i c t e n s o n ɾ a u z a t m a j ɯ z h i ʧ j aː n i s i z t a t i l d e n ɟ e l d i c t e n h e m e n ɟ i d e ɾ i z b i ɾ l i c t e 
[343.095]
<no-speech> 
[344.985]
t a m a m m ɯ ø j l e j a p a ɾ ɯ z 
[346.145]
<no-speech> 
[347.815]
h ɯ e s ɾ aː ɫ a ɾ ɯ d a ʧ a ɯ ɾ ɯ ɾ ɯ z 
[349.265]
<no-speech> 
[350.935]
eː ʃ e j d e d e <no-speech> 
[354.285]
j o k j a t m a d ɯ d a a j a t m a d ɯ w a ɾ o n u n d a ɟ aː l i b a b i i c i a j ɯ f a ɫ a n w a ɾ d a a j a t m a d ɯ j aː n i <breath> a m a ʃ e j <hes> b u p a ɾ k a ɟ i d e ɾ c e n <dtmf> h a ɫ a m ɫ a ɾ ɯ a ɫ ɯ ɾ ɯ z m e l e c h a ɫ a m ɫ a ɾ ɯ ʧ a ɯ ɾ ɯ ɾ ɯ z o n ɫ a ɾ d a ɟ e l i ɾ l e ɾ 
[364.975]
<no-speech> 
[367.515]
ɟ i d e ɾ i z k a ɫ a b a ɫ ɯ k ɟ i d e ɾ i z ʧ o ʤ u k ɫ a ɾ o j n a ɾ ɫ a ɾ ɯ m h ɯ m 
[369.785]
<no-speech> 
[371.225]
h ɯ t a b i ʤ a n ɯ m h e ɾ h a l d e n e o ɫ ʤ a k 
[372.415]
<no-speech> 
[374.585]
b e n ʤ e d e ʧ o k e l e c t ɾ i c j y c l y ɟ ø z d e ʧ o k h ɯ ɾ ʧ ɯ n ʧ o k h ɯ ɾ ʧ ɯ n j a ɾ a m a z 
[380.115]
<no-speech> 
[381.245]
f a ɾ k ɯ n d a j ɯ m f a ɾ k ɯ n d a j ɯ m ʧ o k h ɯ ɾ ʧ ɯ n j aː n i n e o ɫ ʤ a k o n u n s o n u b i l m i j o m <breath> b e n s a n a b i ʃ e j s ø j l y j o m m y ʤ i d d iː d o k t o ɾ ɫ u k oː ʧ o ʤ u k n o ɾ m a ɫ d iː l <int> w a ɫ ɫ aː i d u ɾ d u k j e ɾ e b aː ɾ m a s ɯ oː ʃ e c i l d e j aː n i d i c c a t ʧ e c m e j e m i ʧ a ɫ ɯ ʃ ɯ j o ɾ n e j a p ɯ j o ɾ ʧ ø z e m e d i m b e n o n u h aː l aː 
[395.335]
<no-speech> 
[396.295]
h o ʃ d iː l j aː n i 
[397.285]
<no-speech> 
[399.075]
eː n e o ɫ a b i l i ɾ j aː n i y ʧ b u ʧ u k j a ʃ ɯ n d a c i ʧ o ʤ uː n n e s o ɾ u n u o ɫ a b i l i ɾ p ɯ s i k o ɫ o ʒ i c 
[402.315]
<no-speech> 
[403.405]
d iː l m i 
[404.165]
<no-speech> 
[405.865]
h ɯ n e ɾ e d e s i n s e n s e s l e ɾ ɟ e l i j o ɾ b ø j l e 
[409.255]
<no-speech> 
[410.565]
e w e t f a ɾ k ɯ n d a j ɯ m 
[411.865]
<no-speech> 
[415.475]
ɯ m h ɯ m 
[416.185]
<no-speech> 
[418.205]
h ɯ a n ɫ a d ɯ m a n ɫ a d ɯ m 
[420.045]
<no-speech> 
[424.135]
h ɯ a ɫ ɯ ʃ w e ɾ i ʃ m i j a p t ɯ n 
[425.425]
<no-speech> 
[427.245]
a ɫ ɯ ʃ w e ɾ i ʃ m i j a p t ɯ n 
[431.475]
b o ʃ w e ɾ f a z ɫ a aː ɾ ɫ ɯ k j a p m a c e n d i n e j aː n i h ɯ <hes> i t i j a ʤ ɯ n o ɫ a n ɫ a ɾ ɯ a ɫ s a j d ɯ n b o ʃ w e ɾ f a z ɫ a aː ɾ ɫ ɯ k j a p m a c e n d i n e 
[437.795]
<no-speech> 
[441.965]
ɟ e l m i ʤ e c m i 
[442.985]
<no-speech> 
[445.445]
p e c i d y n c a ɫ d ɯ m ɯ 
[446.675]
<no-speech> 
[448.105]
d y n c a ɫ d ɯ m ɯ 
[449.175]
<no-speech> 
[450.315]
h ɯ a m a ɟ e ʧ o ɫ m u ʃ t u ɾ j aː n i oː s aː t t e n s o n ɾ a ɟ i d e m e z d i h e ɾ h a l d e ʤ a n ɯ m <breath> b i d e ʧ o k ɟ e ʧ o ɫ m u ʃ t u d y n ʧ y n c y o n d a n 
[456.345]
<no-speech> 
[457.315]
a m a o ɫ m u ʃ t u n s ɯ k s ɯ k b ø j l e t e c ɾ a ɾ ɫ a j a ɫ ɯ m ɟ y z e l o ɫ u j o ɾ d iː l m i a k ʃ a m ɫ a ɾ ɯ 
[460.555]
<no-speech> 
[462.425]
a ɫ o 
[463.065]
<no-speech> 
[464.435]
e w e t h e ɾ h a l d e ɟ e ʤ e s aː t i a ɫ o e f e n d i m 
[467.015]
<no-speech> 
[468.565]
ɟ ø z d e 
[469.365]
<no-speech> 
[470.295]
s e s i n a ɾ a s ɯ ɾ a c e s i l i j o ɾ s e n i n a ɾ a s ɯ ɾ a s e s i n c e s i l i j o ɾ 
[474.165]
<no-speech> 
[475.805]
a ɾ a s ɯ ɾ a ɟ i d i j o ɾ ɯ m h ɯ m oː j y z d e n d u ɾ u j o m b e n s e s i n ɟ e l ʤ e c d i j e n e b i l e j i m ɟ i d i j o ɾ a ɾ a s ɯ ɾ a 
[481.125]
<no-speech> 
[482.605]
a ɫ o ʃ u a n ɟ e l i j o ɾ a m a ʃ u a n ɟ e l i j o ɾ ʃ u a n ɟ e l i j o ɾ ɟ ø z d e 
[487.625]
<no-speech> 
[489.425]
ɟ e l i j o ɾ ɟ e l i j o ɾ ʃ i m d i ɟ e l i j o ɾ ʃ i m d i ɟ e l i j o ɾ ʤ a n ɯ m h ɯ 
[492.515]
<no-speech> 
[493.795]
s ø j l e 
[494.355]
<no-speech> 
[497.055]
i f t a ɾ a m ɯ b u h a f t a ɟ e l i ɾ i z h e ɾ h a l d e ʤ u m a f a ɫ a n ʤ u m a ʤ u m a ɟ y n y ɟ e l i ɾ i z b e l c i 
[502.055]
<no-speech> 
[503.575]
ʧ y n c y p e ɾ ʃ e m b e ɟ y n y d ɯ ʃ a ɾ ɯ j a ʧ ɯ k ɯ ʤ aː z ɯ m h ɯ m aː a ɾ i f e <hes> p e ɾ ʃ e m b e ɟ y n y k ɯ z ɫ a ɾ a a ɫ ɯ ʃ w e ɾ i ʃ e ʧ ɯ k a ɾ ʤ aː m ʧ y n c y f a t i h t a ɾ a f ɯ n a ɟ ø t y ɾ y ʤ eː m 
[512.444875]
<no-speech> 
[513.605]
b uː s e j l e n e s l i ʃ a h a e l b i s e a ɫ ʤ aː m e l b i s e a ɫ ʤ aː m j a b uː s e j e b i t a n e a s k ɯ ɫ ɯ n o ɾ m a ɫ j a z ɫ ɯ k b i e l b i s e n e o ɫ ʤ a k s a n c i h a w a s ɯ ʤ a k z a t e n d iː l m i b uː s e j e d e d e d i m a j n ɯ s ɯ n ɯ ʧ o k ʃ ɯ k ɯ ɾ ʃ ɯ k ɯ ɾ b i ʃ e j e ɟ e ɾ e c j o k j aː n i <breath> a m a ʧ o k ɟ y z e l t o p u k ɫ u a j a k k a b ɯ s ɯ w a ɾ o n u n <laugh> h ɯ o n u ɟ i j d i ɾ ʤ e m j aː n i <breath> s a ʧ ɫ a ɾ ɯ z a t e n o n u n t o p u k ɫ u a j a k k a b ɯ ɫ a ɾ ɯ n ɯ ɟ ø ɾ d y n m y s e n t e j z e s i ʧ o k ɟ y z e l b i a j a k k a b ɯ s ɯ w a ɾ <breath> o k u ɫ ɫ a ɾ k a p a n ɯ n ʤ a b a b aː n n e s i h e d i j e a ɫ d ɯ o n a k a ɾ n e h e d i j e s i a ɫ d ɯ 
[537.405]
k a ɾ n e h e d i j e s i a ɫ m ɯ ʃ t ɯ a z ɟ i j d i z a t e n h ɯ f a z ɫ a ɟ i j m e d i <breath> j a ɟ i j s e o n u ʧ y n c y b u j a z d a ɟ i j e ɾ s e d a a ɟ i j i n e m i j e ʤ e c z a t e n t a b i ʤ a n ɯ m <breath> b u j a z d a ɟ i j i n m e z s e d a a ɟ i j i n e m i j e ʤ e c b i s y ɾ y a j a k k a b ɯ s ɯ c a ɫ d ɯ ø j l e j aː n i j a z ɫ ɯ k a ɫ ɯ j o z a ɫ ɯ j o z d u ɾ u j o ɾ e s c i m e d e n 
[552.465]
<no-speech> 
[554.185]
<lipsmack> n e s l i ʃ a h a s a k ɫ a s a k d e s e c b o j a ɫ a ɾ ɯ ʧ a t ɫ ɯ j o ɾ 
[556.705]
<no-speech> 
[558.165]
ɯ m h ɯ m a ɫ o h ɯ 
[560.065]
<no-speech> 
[562.945]
d iː l m i o ɫ m u ʃ t u n d u ɾ ʃ i m d i i j i ʤ e b i c e s i n l e ʃ s i n h e ɾ ʃ e j a n ɫ a d ɯ n m ɯ s a k ɫ a o n d a n s o n ɾ a d a ɯ t ɯ ɾ i t i j aː ʤ ɯ o ɫ a n b i ɾ i s i n e w e ɾ i ɾ s i n j aː n i n e o ɫ ʤ a k s a n c i <breath> ʧ o k i t i j aː ʤ ɯ o ɫ a n i n s a n w a ɾ ɟ ø z d e d iː l m i 
[574.575]
b e n b i z i m m e s e ɫ a a j a k k a b ɯ ɫ a ɾ w a ɾ d ɯ k ɯ ʃ ɯ n <breath> b i s y ɾ y a j a k k a b ɯ w a ɾ d ɯ b u ɾ a d a ʧ ø p k o n t e j n e ɾ i w a ɾ s e ɾ c a n ɟ ø t y ɾ d y a j a k k a b ɯ ɫ a ɾ ɯ p o ʃ e t e k o j m u ʃ t u m o ɾ a j a k o j m u ʃ ʧ ø p k o n t e j n e ɾ i n i n j a n ɯ n a i t i j aː ʤ ɯ o ɫ a n ɫ a ɾ a ɫ ɯ j o ɾ s o n u ʧ t a i n s a n ɫ a ɾ o ɾ d a n 
[586.205]
a m a k ɯ j a f e t t e j aː n i ø j l e j a p m a z s ɯ n t a b i c i ø j l e j a p m a z s ɯ n t a n ɯ d ɯː n k ɯ j aː f e t l e ɾ i n i b i t a n ɯ d ɯː n b i l d i j i n i t i j aː ʤ ɯ o ɫ a n b i ɾ i n e w e ɾ i ɾ s i n a n ɫ a d ɯ n m ɯ 
[594.615]
<no-speech> 
[596.285]
t a b i ʤ a n ɯ m ʧ o k i n s a n w a ɾ ø j l e b u ɫ u ɾ u z j a t a n ɯ d ɯ k b i ɾ i l e ɾ i n i w a ɾ d ɯ ɾ m u a k k a k 
[599.435]

[600.08]
