[0.0]
<no-speech> 
[3.795]
<no-speech> 
[4.145]
<no-speech> 
[5.035]
a ɫ o 
[5.575]
<no-speech> 
[7.295]
<no-speech> e ɾ t a n a b i <int> 
[11.785]
<no-speech> 
[13.975]
i j i j i m j a <no-speech> n e ɾ e d e s i n 
[17.265]
<no-speech> 
[23.015]
i j i j i m n e j a p a j ɯ m j a b e n d e ø j l e i ʃ t e uː ɾ a ʃ ɯ j o m <breath> 
[26.465]
<no-speech> 
[29.025]
<no-speech> 
[29.375]
<no-speech> 
[30.605]
h e 
[31.165]
<no-speech> 
[35.565]
i j i j a n e j a p a j ɯ m i ʃ t e <laugh> k a n c a <no-speech> s e n ɟ i t t i n m i m a ʧ ɯ n a 
[43.325]
<no-speech> 
[45.255]
ɟ i d ʤ e c m i s i n b e ʃ i c t a ʃ m a ʧ ɯ n a b e ʃ i c t a ʃ m a ʧ ɯ n a 
[47.205]
<no-speech> 
[48.645]
<no-speech> 
[49.015]
<no-speech> 
[49.835]
i j i b a k <int> 
[50.745]
<no-speech> 
[55.165]
i j i b e l c i b e ɾ a b e ɾ <int> ɟ i d e ɾ i z 
[56.525]
<no-speech> 
[59.025]
i j i <breath> 
[61.095]
<no-speech> 
[61.955]
<int> d e ɾ s l e ɾ n a s ɯ ɫ 
[63.025]
<no-speech> 
[68.915]
d e ɾ s l e ɾ i n n a s ɯ ɫ 
[69.875]
<no-speech> 
[75.825]
s e s i m s a n a b iː ɾ a z ɟ e ʧ ɟ e l ʤ e c 
[77.665]
<no-speech> 
[86.015]
n e <int> <breath> 
[87.335]
<no-speech> 
[91.805]
i j i j d i j a m a ʧ d a i j i j d i <no-speech> a m a s aː b aː n d a ʧ e c m e w a ɾ <int> 
[97.615]
<no-speech> 
[100.545]
<no-speech> 
[100.925]
<no-speech> 
[103.205]
<no-speech> 
[104.415]
<no-speech> 
[106.605]
<no-speech> 
[107.255]
<no-speech> 
[110.655]
d e f a n s t a ʧ o ʤ u k w a ɾ d ɯ o n u d e l i e t t i m j a 
[112.605]
<no-speech> 
[118.025]
<laugh> n e o n a w e ɾ d i m <no-speech> a m a <no-speech> j e d i m o n u j aː n i <laugh> 
[122.835]
<no-speech> 
[129.144875]

[129.664875]
<no-speech> 
[131.805]
ʧ a ɫ ɯ ʃ ɯ j o m o n u a m a o ɫ m u j o ɾ j aː n i 
[134.175]
<no-speech> 
[143.555]
j o k j o k i ʧ m i j o m j a 
[144.865]
<no-speech> 
[149.725]
s e n i n h aː l e j l e a ɾ a n n a s ɯ ɫ 
[150.785]
<no-speech> 
[153.255]
e w e t 
[153.915]
<no-speech> 
[156.925]
s e n i n n a s ɯ ɫ 
[158.225]
<no-speech> 
[162.485]
h aː l e j l e a ɾ a n n a s ɯ ɫ 
[163.525]
<no-speech> 
[169.9]
<no-speech> 
[176.275]
<laugh> c a ʧ a n k o w a ɫ a n ɯ ɾ oː ɫ u m b a k c a ʧ a n k o w a ɫ a n ɯ ɾ u n u t m a j a ʤ a k s ɯ n t a m a m m ɯ 
[181.375]
<no-speech> 
[188.955]
<no-speech> 
[191.425]
<no-speech> 
[192.555]
<no-speech> 
[193.095]
<no-speech> 
[193.965]
<breath> o f o f 
[196.385]
<no-speech> 
[198.145]
h e 
[198.655]
<no-speech> 
[200.355]

[201.335]
<no-speech> 
[202.665]
<int> <hes> b ø j l e ʃ e j l e ɾ d e n b a h s e t m e j e l i m <breath> 
[205.805]
<no-speech> 
[206.955]
<sta> e w e t 
[209.745]
<no-speech> 
[212.505]
<no-speech> 
[213.155]
<no-speech> 
[214.835]
n e <no-speech> n e 
[216.255]
<no-speech> 
[221.125]
j o k j e m e d i m j e m e c j a <breath> k a ɾ n ɯ m ʧ o k a ʧ a m a j a 
[223.885]
<no-speech> 
[225.095]
<no-speech> 
[225.505]
<no-speech> 
[227.445]
e w e t b u a k ʃ a m d a h a ɫ ɯ s a a m a ʧ ɯ m ɯ z w a ɾ <breath> 
[230.205]
<no-speech> 
[233.185]
e w e t ɟ i d e ɾ s e c b e n i ɟ ø t y ɾ ʤ e c 
[236.215]
<no-speech> 
[237.825]
j e n i l i ɾ s e k 
[240.555]
<no-speech> 
[243.615]
n e 
[244.155]
<no-speech> 
[248.455]
n e m a ʧ ɯ b u <breath> <no-speech> <breath> i s p a n j a 
[254.185]
<no-speech> 
[259.275]
e w e t 
[259.945]
<no-speech> 
[262.205]
b u ɾ a d a o ɫ s a j d ɯ n s e n i d e a ɫ ɯ ɾ d ɯ m j a 
[263.695]
<no-speech> 
[267.365]
s e n i d e a ɫ ɯ ɾ d ɯ m 
[268.625]
<no-speech> 
[274.115]
e w e t 
[274.635]
<no-speech> 
[275.535]
e w e t 
[276.055]
<no-speech> 
[277.615]
<no-speech> 
[278.195]
<no-speech> 
[279.575]

[282.715]
<no-speech> 
[288.655]
ʃ e c l i iː ɾ e n ʧ <int> 
[289.815]
<no-speech> 
[292.775]
<no-speech> 
[293.225]
<no-speech> 
[294.255]
<no-speech> 
[295.085]
<no-speech> 
[300.155]
h a j ɯ ɾ k a p a t a m a m ʃ u a n d a m y m c y n d iː l <int> 
[302.735]
<no-speech> 
[306.415]
t e l e f o n c e n d i s i k a p a n ʤ a k 
[307.655]
<no-speech> 
[312.325]
e w e t <int> 
[312.995]
<no-speech> 
[317.925]
e w e t b u n d a n b a h s e t m e j e l i m i s t e ɾ s e n 
[319.755]
<no-speech> 
[327.035]
<no-speech> s a n a n e 
[329.145]
<no-speech> 
[334.515]
<no-speech> 
[338.415]
<no-speech> 
[339.295]

[342.115]
<no-speech> 
[345.225]
n e a n ɫ a m a d ɯ m <sta> <breath> 
[349.205]
<no-speech> 
[350.045]
e w e t s e s i m s a n a ɟ e ʧ ɟ e l i j o ɾ b e n i m c i s i d e s a n a ɟ e ʧ ɟ e l i j o ɾ b i i c i s aː n i j e 
[353.405]
<no-speech> 
[357.985]
e w e t k u ɾ a ɫ b u j aː n i 
[359.185]
<no-speech> 
[366.215]
<sta> <breath> ø j l e j aː n i k a n c a <breath> 
[373.775]
<no-speech> 
[376.205]
h e 
[376.725]
<no-speech> 
[378.435]
d oː ɾ u j a e w e t <no-speech> 
[379.855]
<no-speech> 
[381.005]
d e ɾ s l e ɾ i m w a ɾ d e ɾ s l e ɾ e ɟ i ɾ m e d i m <int> 
[383.085]
<no-speech> 
[388.935]
<int> e w e t <int> a j n e n 
[390.315]
<no-speech> 
[392.845]
e w e t 
[393.315]
<no-speech> 
[394.155]
<breath> i n ʃ a ɫ ɫ a b i t i ɾ i ɾ s i n o k u ɫ u b i l i j o n b e n b i t i ɾ d i m e m ɫ a k m y h e n d i s i o ɫ d u m 
[398.065]
<no-speech> 
[406.115]
e w e t 
[406.525]
<no-speech> 
[407.595]
<no-speech> 
[407.945]
<no-speech> 
[409.575]
<ring> e w e t c a ɾ d e ʃ i m 
[410.985]
<no-speech> 
[418.095]
t a t i l d e n e j a p ɯ j o ɾ d u n s e n 
[419.665]
<no-speech> 
[426.255]
<breath> b e n s a n a t a t i l d e n e j a p ɯ j o n <int> d e d i m <int> 
[427.965]
<no-speech> 
[433.615]
b e n s e n i n l e t a t i l d e n e j a p a j ɯ m <int> d e d i m j aː n i 
[435.755]
<no-speech> 
[439.495]

[439.885]
<no-speech> 
[441.595]

[444.485]
<no-speech> 
[452.645]
s e n b o d i e d e w a m e d i j o ɾ m u s u n b o d i e 
[455.045]
<no-speech> 
[462.195]
w a j b e k ɯ z o ɫ s a m <no-speech> k ɯ z o ɫ s a m <no-speech> k ɯ z o ɫ s a m b iː ɾ a z d y ʃ y n y ɾ d y m <int> a m a s o n u n d a c e n d i m i c e n d i m i s a n a <int> t e s l i m e d e ɾ d i m 
[470.665]
<no-speech> 
[477.875]
<laugh> oː j y z d e n b e n d e z a t e n <int> k ɯ z d iː l i m 
[480.785]
<no-speech> 
[490.975]
e w e t e w e t 
[491.665]
<no-speech> 
[499.315]
<no-speech> 
[506.965]
h e b ø j l e b e k l e j e l i m b aː ɾ i n e j a p a ɫ ɯ m <laugh> 
[509.695]
<no-speech> 
[513.065]
<int> b ø j l e b e k l e j e l i m b aː ɾ i d i j o m n e j a p a ɫ ɯ m <breath> 
[515.574875]
<no-speech> 
[520.144875]
<no-speech> 
[521.405]
<no-speech> 
[522.325]
n a s ɯ ɫ o ɫ s a k ɯ z a ɾ c a d a ʃ ɯ m ɯ z j o k b aː ɾ i b i z i c i m i z b e ɾ a b e ɾ k o n u ʃ u ɾ u z 
[525.255]
<no-speech> 
[526.815]
<no-speech> 
[527.195]
<no-speech> 
[530.095]
<no-speech> 
[531.075]
<no-speech> 
[531.885]
<no-speech> 
[532.235]
<no-speech> 
[534.665]
<no-speech> 
[536.615]
<no-speech> 
[538.255]

[539.745]
<no-speech> 
[542.525]
<no-speech> 
[542.885]
<no-speech> 
[547.375]
n e 
[547.945]
<no-speech> 
[549.745]
<no-speech> 
[550.235]
<no-speech> 
[553.965]
<no-speech> 
[554.315]
<no-speech> 
[555.615]
<laugh> e w e t ʃ u a n j a n ɯ n d a j ɯ m ɟ i b i a m a <int> k a p a t ɯ ɾ ɯ z t e l e f o n u 
[560.745]
<no-speech> 
[561.785]
<no-speech> 
[562.215]
<no-speech> 
[565.325]
e w e t 
[566.005]
<no-speech> 
[566.805]
<no-speech> 
[567.185]
<no-speech> 
[571.035]
<no-speech> 
[571.655]
<no-speech> 
[576.225]
n e d i j o n l a n <no-speech> h e 
[578.275]
<no-speech> 
[582.525]
<breath> oː d u ɾ u m u h a l l e t m e j e ʧ a ɫ ɯ ʃ ɯ j o z j a k a n c a <breath> 
[586.845]
<no-speech> 
[587.955]
<no-speech> 
[588.685]
<no-speech> 
[591.405]
t a b i c i t e ʃ e c c y ɾ l e ɾ s aː o ɫ <int> c a ɾ d e ʃ i m 
[593.275]
<no-speech> 
[598.105]
<no-speech> 
[598.395]
oː b iː ɾ a z z o ɾ 
[600.14]
