[0.0]
<no-speech> 
[4.445]
a ɫ o 
[5.055]
<no-speech> 
[8.255]
h a n e h a b e ɾ i j i m i s i n 
[9.505]
<no-speech> 
[10.525]
a ɫ o e ɾ g u n 
[11.565]
<no-speech> 
[12.755]
n e j a p ɯ j o n s e s b iː ɾ a z ʃ e j ɟ e l i j o ɾ j a h ɯ d e m i n d a a ø n ʤ e d a a i j i ɟ e l i j o ɾ d u s e s ʃ e j d e n m i j e ɾ k o n u m u n d a n m ɯ 
[21.665]
<no-speech> 
[24.755]
h ɯ m i a ʧ t ɯ n t e l e f o n u e f e n d i m 
[27.395]
<no-speech> 
[28.535]
j o k a ʧ m a 
[30.095]
<no-speech> 
[32.725]
t e l e f o n d a n d i ɾ e c t ʃ e j ʧ ɯ k m ɯ j o ɾ m u ʃ 
[36.755]
<no-speech> 
[38.405]
t a m a m t a m a m s e n d e w a m e t d e w a m e t s e n d e w a m e t k o n u ʃ m a n a d e w a m j o k c a p a t m a d e w a m e t j a h ɯ 
[44.665]
<no-speech> 
[50.075]
e w e t 
[50.635]
<no-speech> 
[52.615]
d i n l i d u j u j o m s e s i n i d u j u j o m d u j u j o m 
[55.205]
<no-speech> 
[65.135]
t a m a m t a m a m s e n h a n i t a m a m t a m a m a n ɫ a d ɯ m a n ɫ a d ɯ m s e n i z a e t m e n e ɟ e ɾ e c j o k ʃ i m d i t a m a m 
[71.355]
<no-speech> 
[73.755]
h ɯ ʃ e j t a m a m 
[76.145]
<no-speech> 
[76.955]
i j i d i ɾ n e z a m aː n ɟ i t t i n i z s i z 
[78.495]
<no-speech> 
[84.455]
h ɯ j i ɾ m i s e c i z i n d e ɟ e l d i n j aː n i i s t a n b u ɫ i s t a n b u ɫ d a k a ɾ j o k t u d iː l m i ɟ e l d iː n d e 
[88.615]
<no-speech> 
[91.615]
h ɯ 
[92.155]
<no-speech> 
[95.135]
h ɯ h ɯ h ɯ 
[96.505]
<no-speech> 
[99.335]
h ɯ ɟ e ʤ e 
[100.125]
<no-speech> 
[105.365]
h i ʧ s e n s o ɾ m a j a d y n d y n f e ɫ a c e t t i a ʤ a j i p t i b u ɟ y n b u ɟ y n ʃ i m d i ʃ e j o ɫ d u b e n d e b iː ɾ a z b e n d e b iː ɾ a z ø n ʤ e a ʃ a ɯ j a i n d i m i ʃ t e e w e t b i z i m b u ɾ a s ɯ u ɫ u d aː ɟ i b i j a b i a ɾ a b a n ɯ n y s t y n d e k a ɾ w a ɾ 
[117.355]
b i m e t ɾ e j a t e m i z l e d i m a ɾ a b a j ɯ ʧ a ɫ ɯ ʃ t ɯ ɾ a j ɯ m d e d i m a c y b i t m i ʃ j a b a s m ɯ j o ɾ a c y b a s m a d ɯ a c y d e j e d i s e c i z s e n e l i c a c y j d y h ɯ 
[129.315]
<no-speech> 
[129.465]
<no-speech> 
[135.555]
<no-speech> 
[141.645]
h ɯ 
[142.175]
<no-speech> 
[145.005]
h ɯ 
[145.585]
<no-speech> 
[149.115]
b e ɾ c a j n e j a p s ɯ n i ʃ t e b e ɾ c a j d a ʃ i m d i t a t i l d e d a a j e n i c a ɫ k t ɯ a k ʃ a m ɫ a ɾ ɯ t a b i ɟ e ʧ j a t ɯ j o ɾ b i l m e m n e b e n d e ʃ e j j a p m ɯ j o m o n d a n s o n ɾ a i ʃ t e p a z a ɾ t e s i ɟ y n y o k u ɫ ɫ a ɾ a ʧ ɯ ɫ ʤ a k o n u n i ʧ i n h i ʧ s e s i m i ʧ ɯ k a ɾ m ɯ j o m ʃ i m d i j e n i c a ɫ k t ɯ oː d a 
[160.725]
b a n j o j a ɟ i ɾ d i i ʃ t e e l i n i j y z y n y j ɯ k a ʤ a j a k <breath> n a s ɯ ɫ ɟ e ʧ i j o ɾ t a t i l i j i m i 
[164.895]
<no-speech> 
[166.945]
e f e n d i m 
[167.545]
<no-speech> 
[169.245]
k a ɾ n e y ʧ t a n e z a j ɯ f w a ɾ j a y ʧ t a n e z a j ɯ f w a ɾ k a ɾ n e d e 
[172.595]
<no-speech> 
[174.055]
h ɯ h ɯ a m a k u ɾ t a ɾ ɯ ɾ j aː n i h ɯ b o ʃ w e ɾ m i ʃ ʤ a n ɯ m z a t e n t o p a ɾ ɫ a ɾ j a ø j l e ʃ e j b i t a n e t aː ɾ i w a ɾ b i f i z i c b i d e b i j o ɫ o ʒ i j a 
[182.795]
<no-speech> 
[183.765]
j aː n i m a t e m a t iː f i ɫ a n b e ʃ j aː n i i n ɟ i l i z ʤ e s i d ø ɾ t o n ɫ a ɾ i j i d e oː d e ɾ s l e ɾ d e n ʃ e j b a b a d i j o ɾ b u n ɫ a ɾ ɯ d i j o ɾ ʃ e j j a p a ɾ ɯ m d i j o ɾ d e d i m h e ɾ a l d e b e n s a n a ɟ y w e n i j o m i n a n ɯ j o m j aː n i oː k a p a s i t e d e 
[195.065]
b i ɾ i n ʤ i i c i n ʤ i j a ɾ ɯ t e ʃ e c c y ɾ ɟ e t i ɾ i ɾ i m d i j o ɾ j a b i ɾ i n ʤ i j a ɾ ɯ d a d a ɟ e t i ɾ i ɾ d i t e ʃ e c c y ɾ i ʃ t e ø n e m s e m e d i oː ʃ e j z a n n e t t i i l k o k u ɫ ɟ i b i l e j l e j ɫ o m o ɾ t a o k u ɫ ɟ i b i l i s e b i b iː ɾ a z d a a ʃ e j j a o n d a n s o n ɾ a 
[206.795]
n e ɾ m i n b e ɟ y m i j i l e ɾ m i 
[209.475]
<no-speech> 
[213.445]
ø j l e m i 
[214.095]
<no-speech> 
[214.905]
ʃ e j n i l ɟ y n j e n ɟ e m i o ɾ d a ʃ e ɾ e f d a j ɯ d ø n d y m y 
[218.375]
<no-speech> 
[222.005]
h ɯ j o k 
[223.195]
<no-speech> 
[224.215]
h ɯ j a ɫ n ɯ z ʃ e j n i l ɟ y n j e n ɟ e k a ɫ a ʤ a k t ɯ ʃ e ɾ e f d a j ɯ d ø n y ʤ e c t i f i ɫ a n ø j l e b i ʃ e j d u j d u m d a o n u n i ʧ i n s o ɾ d u m b e n j a 
[231.285]
<no-speech> 
[236.125]
h ɯ 
[236.615]
<no-speech> 
[239.885]
h ɯ 
[240.555]
<no-speech> 
[241.375]
j a s e n oː ɟ y n <hes> d a j ɯ n ɯ n <hes> 
[243.495]
<no-speech> 
[248.175]
d a j ɯ n ɯ n d i j o m m e w l y d y n d e e ɾ d o a n e n i a ɫ o e ɾ g u n d u j u j o ɾ m u s u n b e n i 
[253.185]
<no-speech> 
[262.755]
<no-speech> 
[272.325]

[275.465]
<no-speech> 
[276.385]
b u ɫ u n d uː n j e ɾ d e n m i d i ɾ s e n i n n e d i ɾ j a <hes> b a k ʃ u a n d a ɟ y z e l ɟ e l i j o ɾ 
[281.565]
<no-speech> 
[285.045]
ʃ u a n d a s e s i n ʧ o k ɟ y z e l ɟ e l i j o ɾ 
[286.945]
<no-speech> 
[289.715]
oː h e ɾ a l d e ʃ e j d e n d o ɫ a j ɯ d ɯ ɾ u j d u d a n d o ɫ a j ɯ 
[292.395]
<no-speech> 
[293.395]
u j d u d a n d o ɫ a j ɯ h e ɾ a l d e 
[294.665]
<no-speech> 
[296.665]
u j d u d a n d o ɫ a j ɯ h e ɾ a l d e 
[298.765]
<no-speech> 
[299.815]
b u ʃ e c i l d e k o n u ʃ s e n d e w a m e t 
[301.925]
<no-speech> 
[304.875]
j o k j o k s e n j o k j o k s e n ʃ u a n d a ø j l e b u ʃ e c i l d e k o n u ʃ m a j a d e w a m e t j a k o n u ʃ a ɫ ɯ m ɟ i t s i n 
[311.585]
<no-speech> 
[317.145]
h ɯ ʃ e j n e n e d i ʤ eː m e ɾ d o a n e n i ʃ t e n i n a n n e s i h a s t a j m ɯ ʃ b u h i s a ɾ h o s p i t a ɫ d a o ɾ a j a ɟ i t t i c ɟ e ʧ e n h a f t a aː a b ɫ a m ɫ a k o n u ʃ t u b e t y l 
[326.555]
<no-speech> 
[327.865]
o n d a n s o n ɾ a <hes> k o n u ʃ t u k s o n ɾ a d a e ɾ t e s i a k ʃ a m d a ʃ e j e ɟ i t t i c i ʃ t e h i s a ɾ e n i ʃ t e n o ɾ a d a j d ɯ a n n e s i n i ɟ ø t y ɾ m y ʃ t y z i j a ɾ e t e 
[336.855]
<no-speech> 
[339.935]
h ɯ o n d a n s o n ɾ a h e ɾ a l d e 
[341.825]
<no-speech> 
[343.155]
w a ɫ ɫ aː b i l m i j o m i ʃ t e b iː ɾ a z f e n aː d iː l d i j aː n i o ɾ d a i c i t a n e ʃ e j ɟ e l d i i ʃ t e h a s t a b a k ɯ ʤ ɯ ɟ e l d i b i z t a m ɟ i t t i j i m i z d e o n ɫ a ɾ i ɫ a ʧ ɟ i b i b i ʃ e j w e ɾ i j o ɾ ɫ a ɾ d ɯ i ʃ t e o n d a n s o n ɾ a 
[355.135]
b i j a ɾ ɯ m s aː t f a ɫ a n o t u ɾ d u k 
[356.815]
<no-speech> 
[357.935]
ɟ e ʧ e n h a f t a ɟ i t t i c ɟ e ʧ e n h a f t a n e ɟ y n y n y ɟ i t t i c j a ʃ u a n d a h a t ɯ ɾ ɫ a m ɯ j o m ɟ y n y n y j a ɟ e ʧ e n h a f t a <breath> ʧ a ɾ ʃ a m b a ɟ y n y ɟ i t t i c ɟ aː l i b a h ɯ ʧ a ɾ ʃ a m b a ɟ y n y ɟ e ʧ e n h a f t a ʧ a ɾ ʃ a m b a ɟ y n y s aː t d ø ɾ t t e n s o n ɾ a ɟ i t t i c 
[369.235]
<no-speech> 
[371.035]
ø j l e m i 
[371.785]
<no-speech> 
[372.995]
s o n h ɯ 
[374.595]
<no-speech> 
[377.345]
ʃ u a n d a n a s ɯ ɫ d u ɾ u m u 
[378.855]
<no-speech> 
[383.875]
h ɯ 
[384.425]
<no-speech> 
[386.475]
b i d a a m ɯ a m e l i j a t o ɫ ʤ a k 
[387.735]
<no-speech> 
[391.245]
h ɯ e z ɟ i a m e l i j a t o ɫ ʤ a k m ɯ ʃ e w e t e w e t ʃ e j d e n d u j d u k b i z d e d y n a k ʃ a m a j ʃ e a b ɫ a a ɾ a d ɯ b e t y l y 
[397.065]
<no-speech> 
[398.185]
a j ʃ e a b ɫ a a ɾ a d ɯ b e t y l y k a j ɯ n w a l i d e s i k a j n a n a s ɯ b u ɟ y n ɟ i d ʤ e c l e ɾ m i ʃ m e m l e c e t e i ʃ t e o n b e ʃ j i ɾ m i ɟ y n d y ɾ o n ɫ a ɾ d a o ɾ a d a j m ɯ ʃ <breath> b e t y l l e b a j aː k o n u ʃ t u ɫ a ɾ 
[409.335]
e z ɟ i b u ɟ y n a m e l i j a t o ɫ ʤ a k t ɯ d e d i b e t y l y a ɾ ɯ j ʤ a k t ɯ ɟ e n i z e t i f i ɫ a n h e ɾ a l d e 
[413.605]
<no-speech> 
[417.385]
j a s i n y z i t ɟ e n i z e t i f i ɫ a n ø j l e d e m i ʃ 
[419.525]
<no-speech> 
[424.505]
h ɯ h ɯ 
[425.045]
<no-speech> 
[426.925]
h ɯ i j i b aː ɾ i 
[428.805]
<no-speech> 
[429.845]
s i z k a ʧ ɯ n d a d ø n y ʤ e c s i n i z 
[431.105]
<no-speech> 
[433.385]
i j i 
[433.875]
<no-speech> 
[437.165]
h ɯ o n d ø ɾ d y ʃ u b a t ɯ n a n ɫ a d ɯ m s e w ɟ i l i l e ɾ ɟ y n y j aː n i 
[440.455]
<no-speech> 
[444.775]
h ɯ h ɯ 
[445.345]
<no-speech> 
[447.135]
s e w ɟ i l i l e ɾ ɟ y n y d ø n ʤ e c s i n i ʃ t e 
[448.405]
<no-speech> 
[449.945]
h ɯ 
[450.535]
<no-speech> 
[452.295]
a n ɫ a d ɯ m 
[452.975]
<no-speech> 
[456.425]
i j i 
[456.975]
<no-speech> 
[457.975]
ʧ o k k a ɾ w a ɾ m ɯ o ɾ d a 
[459.145]
<no-speech> 
[467.795]
<no-speech> 
[476.445]
b u ɾ a d a d a ø j l e d y n h i ʧ 
[478.795]
<no-speech> 
[479.705]
e f e n d i m 
[480.365]
<no-speech> 
[481.245]
d i n l i j o m s e n i 
[482.175]
<no-speech> 
[485.595]
h ɯ h ɯ 
[486.155]
<no-speech> 
[489.495]
n e ɾ e ʃ e j e 
[491.275]
<no-speech> 
[493.765]
e f e n d i m 
[494.375]
<no-speech> 
[496.025]
ʃ e j 
[496.635]
<no-speech> 
[498.835]
<cough> c a ʧ d a c c a w a ɾ d a a 
[500.435]
<no-speech> 
[502.125]
h ɯ t a m a m s e n d e w a m e t n o ɾ m a ɫ k o n u ʃ d a ʃ e j j a k o n u k o n u j ɫ a i l ɟ i l i ʃ e j j a p m a s e n d e w a m ʃ e j b a k f u t b o ɫ f e d e ɾ a s j o n u i s t i f a e t t i 
[510.115]
<no-speech> 
[511.205]
f u t b o ɫ f e d e ɾ a s j o n u i s t i f a e t t i h a b e ɾ i n w a ɾ d iː l m i h ɯ h ɯ b a k a ɫ ɯ m n e o ɫ ʤ a k ʃ i m d i k a ɾ ɯ ʃ a ʤ a k o ɾ t a ɫ ɯ k 
[516.875]
<no-speech> 
[519.435]
w a ɫ ɫ aː f e n e ɾ b a ʧ e i s t i f a e t m e s i n i i s t i j o ɾ d u d i j e ɾ k u l y p l e ɾ e t m e m e s i n i i s t i j o ɾ d u a m a b a k a ɫ ɯ m n e o ɫ ʤ a k ʃ i m d i b i i c i a j d a a s y ɾ e ɾ b u i ʃ l e ɾ 
[526.075]
<no-speech> 
[530.865]
p e ɾ ʃ e m b e <no-speech> 
[532.965]
p e ɾ ʃ e m b e ɟ y n y d e b i z i m j e n i ʃ e j ɟ e l i j o ɾ s o ɫ ɟ e l i j o ɾ m u s a s o ɫ 
[536.995]
<no-speech> 
[538.815]
j e n i t ɯ ɾ a n s f e ɾ w a ɾ j a b i t a n e l i l l e d e n a ɫ d ɯː m ɯ z g o ɫ ʤ y h ɯ h ɯ oː d a j a ɾ ɯ n ɟ e l i ʤ e c m i ʃ p e ɾ ʃ e m b e ɟ y n y i ʃ t e t a k ɯ m i n ʃ a ɫ ɫ a i j i b i l i j o n j a ɾ ɯ n s a m s u n m a ʧ ɯ w a ɾ 
[550.245]
eː p a z a ɾ ɟ y n y d e eː ɡ a b e ʃ i c t a ʃ m a ʧ ɯ w a ɾ b u ɾ d a 
[554.835]
<no-speech> 
[555.725]
b e ʃ i c t a ʃ ɫ a o j n ɯ j ʤ aː z 
[556.855]
<no-speech> 
[559.895]
b e ɾ c a j d a ɟ i t m e c i s t i j o ɾ b e ʃ i c t a ʃ m a ʧ ɯ n a b a k a ɫ ɯ m <breath> b e n d i j o m ɟ i t m e e w d e s e j ɾ e t f a ɫ a n j o k d i j o ɾ a ɾ c a d a ʃ ɯ m ɫ a b e ɾ a b e ɾ d y n k o n u ʃ t u d a b i l e t a ɫ ʤ a k ɫ a ɾ 
[568.535]
<no-speech> 
[569.755]
j a m i ɟ ɾ o s a j a t e l e k o m a ɟ i d ʤ e c i ʃ t e ʤ u m a ɟ y n y ʧ ɯ k ɯ ʤ a k m ɯ ʃ b i l e t l e ɾ 
[573.195]
<no-speech> 
[574.795]
ɟ i d ʤ e c s e ɟ i t s i n b a k a ɫ ɯ m n e j a p a j ɯ m 
[576.785]
<no-speech> 
[578.165]
e f e n d i m 
[578.785]
<no-speech> 
[580.655]
d u j m u j o m 
[581.385]
<no-speech> 
[582.525]
b e t y l b u ɟ y n ʧ a ɾ ʃ a m b a j a b e t y l i ʃ e ɟ i t t i b u ɟ y n s a b a 
[585.655]
<no-speech> 
[587.865]
ʧ a ɾ ʃ a m b a h ɯ h ɯ <hes> s aː t i c i d e y ʧ t e ʧ ɯ c a ɾ ɟ e l i ɾ j a h a w a h a w a b ø j l e j a ʃ e j o ɫ d u ɟ e ʧ e n h a f t a d a e ɾ c e n ʧ ɯ k t ɯ i ʃ j o k ɟ y ʧ j o k b u s aː t e e ɾ c e n ʧ ɯ k t ɯ ɟ e ʧ e n h a f t a ʧ a ɾ ʃ a m b a ɟ y n y d e ɟ e l d i 
[599.8]
