[0.0]
<no-speech> 
[10.995]
<no-speech> 
[11.345]
<no-speech> 
[12.585]
h ɯ e f e n d i m 
[14.065]
<no-speech> 
[15.165]
e f e n d i m 
[17.255]
<no-speech> 
[20.085]
<laugh> a ɫ ɫ a s e n i k a ɾ e t m e s i n b u c e p a z e l i c l e ɾ i n l e uː ɾ a ʃ ɯ j o m ɟ e l m i j o ɾ m u s e s i m 
[28.685]
<no-speech> 
[30.055]
a ɫ o 
[30.945]
<no-speech> 
[32.395]
t a m a m i j i l i c ɟ y z e l l i c ɯ m h ɯ m b e n s a n a b aː ɫ a n ʤ aː m e w e t e w e t 
[39.445]
<no-speech> 
[40.855]
b a n a b i m e s a ʒ w e ɾ m e d i i ʃ t e b e n b u ɾ a d a b aː j i s o n u n d a s i ɟ a ɾ a i ʧ i j o m ʧ a k t ɯ ɾ m a d a n 
[44.965]
<no-speech> 
[47.705]
a ɫ o h ɯ t a m a m a ɫ ɫ a b e ɫ a n ɯ w e ɾ s i n c y f ɾ e ɟ i ɾ m i j o ɾ d iː l m i b u a ɾ a d a 
[53.195]
<no-speech> 
[54.745]
h ɯ 
[56.145]
<no-speech> 
[57.895]
<laugh> t a m a m t a m a m h ɯ e f e n d i m ʤ a n ɯ m 
[61.445]
<no-speech> 
[65.145]
d ø n d ø n e ɾ i z d ø n e ɾ s ø j l e d i c j aː n i d ø n e ɾ i n d e n s ø j l e d i c j aː n i 
[69.185]
<no-speech> 
[76.235]
<no-speech> 
[76.835]
<no-speech> 
[77.635]
<no-speech> 
[79.345]
<no-speech> 
[80.275]
t a m a m ɟ e l i j o ɾ ɟ e l i j o ɾ d e s y ɾ e c l i b u ʃ e c i l d e i l e t i ʃ i m h a l i n d e m i o ɫ m a k ɟ e ɾ e c i j o ɾ m u ʃ c i 
[86.005]
<no-speech> 
[92.825]
<hes> n e d e n h ɯ 
[95.615]
<no-speech> 
[96.925]
ɯ m h ɯ m 
[97.545]
<no-speech> 
[103.885]
ɯ m h ɯ m 
[104.665]
<no-speech> 
[111.145]
t a m a m 
[111.835]
<no-speech> 
[114.315]
<no-speech> 
[114.895]
<no-speech> 
[116.635]
t a m a m 
[117.365]
<no-speech> 
[120.915]
t a m a m t a m a m 
[122.645]
<no-speech> 
[123.535]
t a b i d u j d u m d u j d u m b e n s e n i ʧ o k ɾ a a t b e n s e n i ʧ o k ɾ a a t d u j u j o m 
[128.065]
<no-speech> 
[131.635]
ɯ m h ɯ m o n u n ɫ a i l ɟ i l i j a p a b i l ʤ eː m b i ʃ e j j o k j aː n i 
[134.515]
<no-speech> 
[135.775]
b y j y c i t i m a l l e ʃ e j l e i l ɟ i l i d i ɾ oː j a 
[138.045]
<no-speech> 
[139.765]
a ɾ c a o d a d a j ɯ m j a b e n ʧ e c m i j o ɾ d u ɾ b e l c i 
[141.935]
<no-speech> 
[144.035]
oː o ɫ a b i l i ɾ j a 
[145.325]
<no-speech> 
[146.825]
<no-speech> 
[147.915]
<no-speech> 
[148.775]
t a m a m p e n ʤ e ɾ e j i 
[149.955]
<no-speech> 
[152.775]
<no-speech> 
[153.245]
<no-speech> 
[154.625]
h ɯ ʃ i m d i ʃ e j w a ɾ b i d e ʃ u ɯ m h ɯ m s e n d e o n ɯ m h ɯ m oː d e n e m e s ɯ n a w ɯ w a ɾ j a s o s j a ɫ b i l i m l e ɾ 
[160.455]
<no-speech> 
[162.275]
a ɫ o h e b e n a s ɫ ɯ j a b i t a n e n o ɾ m a ɫ d e n e m e s ɯ n a w ɯ a ɫ m ɯ ʃ t ɯ m d a 
[166.785]
<no-speech> 
[168.295]
t a m a m b a k ʃ i m d i a s ɫ ɯ j a n o ɾ m a ɫ b i d e n e m e s ɯ n a w ɯ a ɫ m ɯ ʃ t ɯ m d a b e n b i t a k ɯ m 
[171.925]
<no-speech> 
[174.655]
o n u n j e ɾ i n e oː s o s j a ɫ b i l i m l e ɾ i u j g u ɫ a j a ɫ ɯ m a s ɫ ɯ j a d i j o m oː c i t a p ʧ ɯː n e j a p ɯ ʤ a k s ɯ n s e n 
[179.365]
<no-speech> 
[184.115]
e w e w e t 
[185.805]
<no-speech> 
[192.855]
e w e t e w e t 
[193.705]
<no-speech> 
[196.095]
<no-speech> 
[196.645]
<no-speech> 
[199.425]
t a m a m 
[200.235]
<no-speech> 
[201.535]
j aː n i i n ʤ e l e m e s i n m i w e j a d i ɾ e c d i ɾ e c a ɫ d ɯ ɾ ɯ ɾ ʃ i m d i b e n ɟ e n e l d e n e m e d i j o ɾ d u m d a ɟ e n e l d e n e m e ʧ o k uː ɾ a ʃ t ɯ ɾ ɯ ɾ j a 
[208.465]
<no-speech> 
[214.245]
d a a i j i b e n ʤ e d e d a a i j i j aː n i oː i j i 
[216.745]
<no-speech> 
[220.585]
<cough> a ɫ d ɯ ɾ ɯ ɾ ɯ m d a b e n a s ɫ ɯ j a a j ɾ ɯ b i ʃ e c i l d e u j g u ɫ a t m a k i s t i j o m o n u j a 
[225.205]
<no-speech> 
[228.335]
e w e t e w e t o n u u j g u ɫ a t m a k i s t i j o m a s ɫ ɯ j a a j ɾ ɯ b i ʃ e c i l 
[232.235]
<no-speech> 
[237.425]
h ɯ oː z a m aː n 
[239.095]
<no-speech> 
[242.215]
eː t a m a m b u h a f t a i ʧ i h a l l e d e l i m oː i ʃ i oː z a m aː n 
[244.795]
<no-speech> 
[253.055]
t a m a m 
[253.895]
<no-speech> 
[257.095]
t a m a m t a m a m oː z a m aː n b i z ʃ ø j l e j a p a ɾ ɯ z k o m p l e a ɫ ɯ ɾ ɯ z o n u 
[260.415]
<no-speech> 
[263.415]
k o m p l e a ɫ ɯ ɾ ɯ z b i z o n u ɯ m h ɯ m j a ʧ o ʤ u k ɫ a ɾ d a n d a p a ɾ a s ɯ n ɯ t o p ɫ a j a ɫ ɯ m oː z a m aː n j aː n i 
[268.825]
<no-speech> 
[274.315]
<no-speech> 
[274.825]
<no-speech> 
[278.585]
c i t a p ʧ ɯ ɫ a ɾ d a n d iː l b i z a ɫ ɯ ɾ ɯ z b i z a ɫ ɯ ɾ ɯ z j a b i z c e n d i m i z ʃ a h s e n a ɫ ɯ ɾ ɯ z j aː n i d i ɾ e c i n t e ɾ n e t t e n w e s a i ɾ e d e n w e j a n o ɾ m a ɫ <foreign> b aː ɫ a n t ɯ j a ɟ e ʧ e ɾ i z 
[287.355]
<no-speech> 
[294.665]
h ɯ h ɯ 
[295.305]
<no-speech> 
[297.185]
h e m d e 
[297.955]
<no-speech> 
[303.735]
t a m a m 
[304.375]
<no-speech> 
[308.425]
j a j o k m eː z u n s ø z e l i h a j ɯ ɾ b a k a b i m eː z u n s ø z e l i h e p s i n i z o ɾ u n ɫ u t u t a ɫ ɯ m j aː n i e n a z ɯ n d a n d e ɾ s ʧ ɯ k ɯ ʃ ɫ a ɾ ɯ b i z b u n ɫ a ɾ ɯ o n ɫ a ɾ ɯ b u ɾ a d a t u t u j o z j a 
[316.905]
<no-speech> 
[319.955]
ʤ e w a p a n a h t a ɾ ɯ n ɯ a ɫ ɯ ɾ ɯ z o n u n 
[321.965]
<no-speech> 
[323.725]
ʤ e w a p a n a h t a ɾ ɯ n ɯ a ɫ ɯ ɾ ɯ z b i z o n u n 
[325.375]
<no-speech> 
[327.165]
t a b i t a b i h e ɾ ɟ y n b i d e n e m e 
[328.625]
<no-speech> 
[330.495]
t a b i h e ɾ ɟ y n b i d e n e m e 
[332.765]
<no-speech> 
[335.415]
o ɫ u ɾ m u k ɯ ɾ k s o ɾ u j a i j i i ʃ t e 
[338.055]
<no-speech> 
[340.635]
i j i k ɯ ɾ k t a n e s o ɾ u w a ɾ a b i ʤ i m d e n e m e ʃ e c l i n d e j a p a ɾ s a k o n ɫ a ɾ ɯ z a t e n b i s aː t t e a n ʤ a b i t i ɾ i ɾ l e ɾ 
[346.825]
<no-speech> 
[355.655]
j aː n i j a i j i i j i d i ɾ ʤ a n ɯ m c a ʧ t a n e o t u z t a n e m i w a ɾ m ɯ ʃ o n d a n 
[362.265]
<no-speech> 
[364.775]
h ɯ 
[365.365]
<no-speech> 
[367.995]
o t u z t a n e 
[370.125]
<no-speech> 
[372.975]
h ɯ h ɯ 
[373.575]
<no-speech> 
[379.685]
t a b i t a b i t a b i o ɫ u ɾ j aː n i h e ɾ t y ɾ l y o ɫ u ɾ 
[381.705]
<no-speech> 
[383.825]
j aː n i b i ʃ e c i l d e 
[385.365]
<no-speech> 
[387.905]
t a m a m ʤ a n ɯ m b e n i m h aː l aː s y ɾ e m i z d o ɫ m a d ɯ m ɯ b u ʃ i m d i 
[391.605]
<no-speech> 
[396.385]
a ɫ o 
[397.155]
<no-speech> 
[399.455]
<no-speech> 
[400.325]
<no-speech> 
[402.585]
t a m a m 
[403.245]
<no-speech> 
[407.575]
ɯ m h ɯ m t a m a m 
[409.225]
<no-speech> 
[416.085]
h ɯ j o k b e n i m ɟ ø ɾ y ʃ a ʧ ɯ m n e ɾ e d e b u ɾ a d a n a s ɯ ɫ u j g u n o ɫ ʤ a k b e n t e ɾ s t a ɾ a f t a j ɯ m a b i ʤ i m b e n j aː n i 
[420.955]
<no-speech> 
[424.805]
<no-speech> 
[425.955]
<no-speech> 
[429.705]
h ɯ i j i ɟ e t i ɾ i ɾ l e ɾ i n ʃ a ɫ ɫ a 
[431.535]
<no-speech> 
[436.395]
h ɯ t a b i ʤ a n ɯ m b i ɟ y n ɟ e l i ɾ s e e d i ɾ n e j e ɟ ø ɾ y ʃ y ɾ y z <no-speech> 
[440.385]
<cough> b u a ɾ a d a s e ʤ o j u ɟ ø n d e ɾ k o ɫ a m o ɫ a a ɫ s ɯ n a ɫ o e f e n d i n ʤ a n ɯ m 
[444.865]
<no-speech> 
[450.165]
t a m a m ʤ a n ɯ m e j w a ɫ ɫ a j aː n i t a n ɯ ʃ ɯ ɾ ɯ z o n d a n s o n ɾ a 
[453.095]
<no-speech> 
[456.275]
<laugh> j a o ɫ ʤ a k oː k a d a ɾ o ɫ m u ʃ t u n oː k a d a ɾ j aː n i n e j a p a ɫ ɯ m n e j a p a ɫ ɯ m b e j a t a m a m ʤ a n ɯ m oː k a d a ɾ 
[463.355]
<no-speech> 
[464.305]
ʃ e ʃ e j i s e ʤ o j u j aː n i j a p ʤ a k b i ʃ e j j o k s e ʤ o j u ɟ ø n d e ɾ d e a j ɾ a n m a j ɾ a n a ɫ s ɯ n b aː ɾ i o ɾ a ɫ a ɾ d a n b a k k a ɫ d a n 
[471.855]
<no-speech> 
[475.915]

[479.705]
<no-speech> 
[481.885]
<no-speech> 
[482.295]
<no-speech> 
[485.035]
t a ɾ a f t a ɾ d e d i j i n n e d i ɾ j a 
[486.605]
<no-speech> 
[489.895]
<no-speech> 
[490.325]
<no-speech> 
[492.935]
t a m a m ʤ a n ɯ m t a m a m ɟ e l i ɾ i m m e ɾ a k e t m e j aː n i m e ɾ a k e t m e e j w a ɫ ɫ a 
[499.125]
<no-speech> 
[499.965]
h i ʧ m e ɾ a k e t m e s e n b i l i j o n j o k j o k h o p a ɾ h o p a l ø ɾ y n a ʧ ɯ k m ɯ s e n i n h o p a ɾ l ø ɾ y n a ʧ ɯ k m ɯ 
[510.135]
<no-speech> 
[512.325]
a ɫ o 
[512.775]
<no-speech> 
[514.415]
k a p a t l a n b i ʃ e j s o ɾ ʤ aː m ø z e l b i ʃ e j s o ɾ ʤ aː m h a j ɾ e t b i ʃ e j s i n j a 
[519.715]
<no-speech> 
[527.185]
a j j o k k ɯ z a n ɫ a ɾ d e m i j o m o n u d i j o m b e n d e 
[529.755]
<no-speech> 
[531.495]
j a n ɯ n d a d iː l m i k ɯ z a n d a oː ɫ u m j a 
[533.305]
<no-speech> 
[539.175]
h ɯ h ɯ t a m a m a n ɫ a d ɯ m a n ɫ a d ɯ m ʃ e j n e j a p t ɯ n j e j e d i n m i s e n p a ɾ a ɫ a ɾ ɯ j e d i n m i p o c e ɾ d e c i p a ɾ a ɫ a ɾ ɯ j a h ɯ 
[546.485]
<no-speech> 
[553.685]
c a ʧ l i ɾ a ɫ ɯː 
[554.745]
<no-speech> 
[556.275]
c a ʧ l i ɾ a d u ɾ u j o ɾ 
[557.395]
<no-speech> 
[562.795]
o n l i ɾ a m ɯ a z p a ɾ a m ɯ l a n oː 
[565.555]
<no-speech> 
[567.515]
b a k s e n ʃ u b i ʃ e j d i ʤ eː m s e n b u p a ɾ a j ɯ ʃ i ʃ i ɾ y s t a t 
[573.105]
<no-speech> 
[573.915]
h ɯ s e n b u p a ɾ a j ɯ ʃ i ʃ i ɾ b iː ɾ a z 
[575.795]
<no-speech> 
[577.745]
o n d a n s o n ɾ a b e n b u n u s a t a j ɯ m 
[579.505]
<no-speech> 
[581.955]
t a m a m <no-speech> 
[584.185]
a n i ʃ t e b a k b a k b e n s a t a ɾ ɯ m oː p a ɾ a ɫ a ɾ ɯ b a k 
[587.125]
<no-speech> 
[588.665]
b e n o n ɫ a ɾ ɯ b a k t ɯ ɾ a n s f e ɾ e d i p s a t ɯ j o m d i j o m s a t ɯ j o m s a t ɯ j o m j a 
[592.735]
<no-speech> 
[594.365]
e w e t 
[595.075]
<no-speech> 
[598.705]
j a oː ɫ u m b a k 
[599.815]
<no-speech> 
[600.06]
