[0.0]
<no-speech> 
[0.155]
<overlap> 
[8.635]
<no-speech> 
[9.695]
a ɫ o 
[10.695]
<no-speech> 
[13.455]
a ɫ o 
[14.165]
<no-speech> 
[15.375]
m e m e t o ɾ d a m ɯ s ɯ n 
[16.475]
<no-speech> 
[19.125]
n e j a p ɯ j o n 
[19.995]
<no-speech> 
[23.125]
<no-speech> 
[23.475]
<no-speech> 
[25.875]
<no-speech> 
[27.025]
<no-speech> 
[28.825]
t a m a m b i s aː n i j e 
[29.945]
<no-speech> 
[31.515]

[32.225]
<no-speech> 
[35.275]
i ʃ t e h e ɾ h a l d e a ɫ ɯ ʤ ɯ d a b i s o ɾ u n w a ɾ ʃ i m d i n a s ɯ ɫ 
[38.485]
<no-speech> 
[40.505]
m e m e t 
[41.935]
<no-speech> 
[43.715]
s e s i m ʃ i m d i n a s ɯ ɫ 
[44.815]
<no-speech> 
[49.965]
s e n b ø j l e d a a h a n i ʃ e b e c e f a ɫ a n b e l c i s o ɾ u n w a ɾ d ɯ ɾ s e n b a ʃ k a b i j e ɾ e ɟ e ʧ 
[54.535]
<no-speech> 
[57.365]
m e m e t 
[57.945]
<no-speech> 
[61.325]
ʃ i m d i ɟ e l i j o ɾ 
[62.235]
<no-speech> 
[67.065]
<hes> i j i 
[67.805]
<no-speech> 
[69.625]
<hes> n e d i ʤ e c t i m s a n a b e n b u ɟ y n s e n i n s ɯ n a w ɯ n w a ɾ m ɯ j d ɯ 
[74.525]
<no-speech> 
[77.185]
<hes> 
[77.715]
<no-speech> 
[80.475]
ɯ m h ɯ m b u ɟ y n 
[81.305]
<no-speech> 
[84.505]
a ɫ o 
[85.285]
<no-speech> 
[86.715]

[87.375]
<no-speech> 
[90.455]
f i z i c ʧ a ɫ ɯ ʃ m a d ɯ n m ɯ 
[92.385]
<no-speech> 
[96.755]
n i j e 
[97.465]
<no-speech> 
[103.495]
<hes> 
[107.445]
<no-speech> 
[108.395]

[109.265]
<no-speech> 
[112.495]
s e n 
[113.835]
<no-speech> 
[119.425]
<hes> s e n c a ʧ a ɫ m ɯ ʃ t ɯ n w i z e s i n d e n o n u n 
[122.245]
<no-speech> 
[127.055]
i j i k u ɾ t a ɾ ɯ ɫ a ʤ a k ɟ i b i d iː l 
[128.724875]
<no-speech> 
[138.745]
a n ɫ a d ɯ m 
[139.585]
<no-speech> 
[140.405]

[141.505]
<no-speech> 
[145.795]
n uː ɾ i e w d e 
[148.135]
<no-speech> 
[150.505]
n e j a p ɯ j o ɾ 
[151.225]
<no-speech> 
[159.515]
m a ʧ i z l i j o ɾ 
[161.665]
<no-speech> 
[165.095]
<hes> j e m e c j i j o ɾ oː d a n e z a m aː n ɟ i t m i ʃ t i oː ʃ e j e k o ʤ a e l i n e n e z a m aː n ɟ i t m i ʃ t i 
[170.895]
<no-speech> 
[178.475]
<hes> a ɾ a ɫ ɯ k t ɯ k a s ɯ m m ɯ j d ɯ n e j d i b a j aː ø n ʤ e j d i d iː l 
[182.295]
<no-speech> 
[185.715]
l a n s e n c ø j e k a s ɯ m d a c i c eː p eː s eː s eː d e n s o n ɾ a ɟ i t t i n 
[191.015]
<no-speech> 
[194.815]
<hes> 
[197.715]
<no-speech> 
[199.385]
a n ɫ a m a d ɯ m 
[200.305]
<no-speech> 
[203.295]
j o k ɟ e l i j o ɾ d a a n ɫ a m a d ɯ m n e d e d i j i n i 
[205.955]
<no-speech> 
[209.715]
<no-speech> 
[210.815]
<no-speech> 
[212.565]
<hes> d ø n d y m ɟ i t m e d i m 
[213.955]
<no-speech> 
[220.135]
<hes> ɟ e ʧ e n ɟ y n j a i ʃ i m ʧ ɯ k t ɯ ʧ a ɫ ɯ ʃ ɯ j o m j a 
[231.115]
n a s ɯ ɫ 
[231.865]
<no-speech> 
[236.175]
j o k j o k ø j l e ʃ e j o ɫ u ɾ m u n e k a j b e d i j o n j a 
[242.155]
<no-speech> 
[243.795]
b a ʃ k a b i i ʃ i n w a ɾ 
[246.295]
<no-speech> 
[251.425]
d e ɾ s a n e j e m i ɟ i d ʤ e c s i n h a n ɟ i d e ɾ s w a ɾ 
[253.925]
<no-speech> 
[259.535]

[261.595]
<no-speech> 
[264.105]
d e n e m e c a ʧ s aː t s y ɾ y j o ɾ 
[265.985]
<no-speech> 
[266.815]
<no-speech> 
[267.225]
<no-speech> 
[270.325]
<hes> s aː t c a ʧ t a b a ʃ ɫ ɯ ʤ a k 
[271.795]
<no-speech> 
[279.385]
<hes> ʃ i m d i b e n i m s a n a i j i ɟ e l i j o ɾ 
[282.155]
<no-speech> 
[283.995]
<no-speech> 
[284.375]
<no-speech> 
[285.395]
n i j e 
[286.705]
<no-speech> 
[291.855]
b iː ɾ a z ɟ e ʧ ɟ e l i j o ɾ d iː l 
[293.305]
<no-speech> 
[299.725]
ʧ o k k o p u k ɟ e l i j o ɾ 
[300.915]
<no-speech> 
[301.885]
<no-speech> 
[302.825]
<no-speech> 
[305.165]
<hes> oː j y z d e n m i s ɯ k ɯ ɫ d ɯ n 
[307.345]
<no-speech> 
[313.595]
<hes> w a ɫ ɫ aː b e n d e j aː n i s e n i n s e s i n i b iː ɾ a z ɟ e ʧ a ɫ ɯ j o m a m a h a n i j a p ʤ a k b i ʃ e j j o k ʃ i m d i l i c 
[319.535]
<no-speech> 
[320.825]
<no-speech> 
[322.785]
<no-speech> 
[324.665]
w a ɫ ɫ aː b e n d e a n ɫ a m a d ɯ m d y n j a k a d a ɾ ʃ e j o k u t t u ɫ a ɾ b ø j l e i ʃ t e j o k <hes> d e n i z b i l m e m d a ɫ g a ɫ ɯ j m ɯ ʃ d e n i z i n d a ɫ g a ɫ a ɾ ɯ n ɯ s e j ɾ e d e s e j ɾ e d e h e ɾ ɟ y n t e s e l l i b u ɫ u j o ɾ m u ʃ 
[335.715]
o n d a n s o n ɾ a i s i m l e ɾ w a ɾ t aː ɾ i w a ɾ j a z ɯ ɫ a ɾ f a ɫ a n w a ɾ s o n ɾ a ʃ e j w a ɾ i ʃ t e 
[343.735]
<no-speech> 
[344.585]
<hes> n a s ɯ ɫ d i j e j i m b u n ɫ a ɾ b o n ʤ u k <hes> o n d a n s o n ɾ a t e s b i h t a n e s i n o h u t m u ʃ j aː n i o ɫ a b i l i ɾ m i ʃ 
[354.295]
<no-speech> 
[355.135]
b ø j l e a ʤ aː j i p a ʤ aː j i p ʃ e j l e ɾ j aː n i h e ɾ h a l d e h e ɾ <hes> ʧ e ʃ i t b ø j l e n a s ɯ ɫ d i j e j i m n e s n e o ɫ m u ʃ t u n j a d a b ø j l e s o j u t s o m u t b i ʃ e j l e ɾ i n i s i m l e ɾ i n i o k u t u j o ɾ d a 
[366.525]
o k u t t u ɾ u j o ɾ ɫ a ɾ c i h a n i b ø j l e h e p s i n i k a j d e d e b i l s i n l e ɾ h a 
[369.755]
<no-speech> 
[377.375]
t o p ɫ a m d a b i o n d a c i c a s y ɾ y j o ɾ j aː n i b iː ɾ a z i d aː ɾ e e t m e n j e t e ɾ l i d i ɾ 
[381.805]
<no-speech> 
[386.935]
<hes> 
[387.495]
<no-speech> 
[389.205]
a n ɫ a m a d ɯ m 
[390.015]
<no-speech> 
[391.755]
n e d e d i n 
[392.565]
<no-speech> 
[396.225]
j a i s t e d i j i n i s ø j l e ɾ a a t o ɫ j a 
[398.135]
<no-speech> 
[402.895]
k o n u ʃ a b i l i ɾ s i n ʤ a n ɯ m i s t e ɾ s e n i s t e ɾ s e n <laugh> 
[410.875]
<no-speech> 
[412.025]
<laugh> 
[416.995]
<no-speech> 
[418.485]
<hes> 
[419.785]
<no-speech> 
[421.115]
d i j o m c i i s t e ɾ s e n s e n i n c i n i a w u ʧ ɫ a m a m d a n b a h s e d e b i l i ɾ s i n 
[424.995]
<no-speech> 
[427.865]
n e j i n l aː n e t o ɫ a s ɯ c a ʧ s aː t s y ɾ ʤ e c s ø j l e s e n e h a 
[430.325]
<no-speech> 
[432.145]
<no-speech> 
[443.765]

[445.395]
<no-speech> 
[452.145]
ʤ a n ɯ m h a n i c e m a ɫ s u n a ɫ ɯ n b i f i l m i w a ɾ d ɯ j a d a w a ɾ o o t e l e ɟ i d i j o ɾ ɫ a ɾ 
[457.225]
<no-speech> 
[458.245]
ʃ e j t u w a l e t e p a ɾ d o n a d a m d i j o ɾ b y j y c m y c y ʧ y c m y e l i j l e i ʃ aː ɾ e t w e ɾ i j o ɾ a b u k a d a ɾ 
[463.705]
<no-speech> 
[464.975]
<no-speech> 
[465.495]
<no-speech> 
[466.625]
<no-speech> 
[467.035]
<no-speech> 
[467.885]
ʤ a n ɯ m s e n c e m a ɫ s u n a ɫ ɯ n d a w a ɾ o d a w a ɾ o f i l m i n i h a t ɯ ɾ ɫ ɯ j o n 
[471.555]
<no-speech> 
[477.185]
a ɫ o n uː ɾ i 
[478.475]
<no-speech> 
[480.525]
c i m s i n s e n 
[482.205]
<no-speech> 
[484.485]
s aː o ɫ a s ɯ n j a s e n n a s ɯ ɫ s ɯ n 
[486.215]
<no-speech> 
[489.345]

[491.685]
<no-speech> 
[494.655]
t a m a m ɟ ø ɾ y ʃ y ɾ y z 
[495.735]
<no-speech> 
[497.545]
<no-speech> 
[498.365]
<no-speech> 
[500.905]
<hes> 
[501.485]
<no-speech> 
[503.735]
s e n c i m s i n 
[504.585]
<no-speech> 
[506.095]
<hes> s e n s i n 
[507.265]
<no-speech> 
[510.055]

[516.095]
<no-speech> 
[517.394875]
b e n b e n b i ɾ a z d a n ɟ e ʧ e ɾ i m c a ʧ d a c i c a k o n u ʃ m u ʃ ɫ a ɾ o ɾ d a ɟ ø s t e ɾ i j o ɾ m u 
[521.834875]
<no-speech> 
[526.705]
<no-speech> 
[527.115]
<no-speech> 
[530.815]
d o k u z d o k u z b i ɾ a z d a n s i n j a ɫ s e s i ɟ e l i ɾ oː z a m aː n 
[533.515]
<no-speech> 
[534.715]

[537.845]
<no-speech> 
[540.585]
s e n d a w a ɾ o d a c i s a n e j e h a t ɯ ɾ ɫ ɯ j o n 
[543.195]
<no-speech> 
[544.765]
a ɫ o 
[545.385]
<no-speech> 
[546.225]
h a n i oː ʃ e j w a ɾ d ɯ j a 
[556.535]
<hes> h a t ɯ ɾ ɫ a d ɯ n 
[557.955]
<no-speech> 
[561.485]
<hes> o ɾ a d a j d ɯ j a a a b u k a d a ɾ b e n d e s a n a o n u s o ɾ u j o m oː s ɯ ɾ a d a s e n i n c i n e c a d a ɾ d ɯ ɾ b o j u k a ʧ t ɯ ɾ 
[568.045]
<no-speech> 
[570.885]
<cough> 
[575.385]
<no-speech> 
[577.635]

[581.925]
<no-speech> 
[584.815]
<hes> w a ɫ ɫ aː ø j l e 
[588.105]
<no-speech> 
[595.245]

[595.655]
<no-speech> 
[599.78]
