[0.0]
<no-speech> 
[0.525]
k a n c a ʃ ø j l e ɟ e ʧ s e n e b i d a c i c a t e l e f o n ɫ a k o n u ʃ y ʤ aː m a p a ɾ t m a n d a ʧ e c m i j o ɾ 
[5.155]
<no-speech> 
[6.155]
a ɫ o 
[6.805]
<no-speech> 
[9.225]
i j i d i ɾ k a n c a s e n n e j a p ɯ j o n e f e n d i m 
[12.295]
<no-speech> 
[13.895]
a ɫ o 
[14.555]
<no-speech> 
[16.165]
<no-speech> 
[18.225]
e w e t s e n i n s e s i n ɟ e ʧ ɟ e l i j o ɾ j a <laugh> 
[20.355]
<no-speech> 
[22.095]
ɟ e l i j o ɾ 
[22.945]
<no-speech> 
[25.625]
i j i d i ɾ k a n c a ʧ a k t ɯ ɾ m ɯ j o m s e n n e j a p ɯ j o n <laugh> 
[28.825]
<no-speech> 
[36.945]
o o ɾ t a m ɯ t o p ɫ a m ɯ ʃ s ɯ n ɯ z b i z d e n e j a p a ɫ ɯ m k a n c a b e w e g a d a n ʧ ɯ k t ɯ k j y ɾ y j o z ø j l e <breath> 
[44.215]
<no-speech> 
[49.035]
h a ɾ b i d e n k a n c a j a n e j a p a ɫ ɯ m z a t e n d a n s t a n s o n ɾ a h e ɾ t a ɾ a f ɯ m aː ɾ ɯ j o ɾ j a <laugh> 
[54.635]
<no-speech> 
[59.285]
a j k a n c a h i ʧ s o ɾ m a h o ʤ a z a t e n ʧ o k k o m i c j a <laugh> 
[63.245]
<no-speech> 
[64.244875]
<no-speech> 
[64.594875]
<no-speech> 
[67.105]
o ɾ d a n b u ɾ a d a n z ɯ p ɫ ɯ j o ɾ z a t e n b e n d e h a ɾ e c e t l e ɾ i ɟ e ʧ j a p ɯ j o m a ɫ ɯ ʃ a m a d ɯ m 
[72.135]
<no-speech> 
[76.765]
j o k j a t o p ɫ u ʤ a d a n s e d i j o ɾ d u k t a i ʃ t e 
[79.215]
<no-speech> 
[80.145]
j a b i z i m p a ɾ t n e ɾ i m i z j o k t u k a n c a j a b i z e p a ɾ t n e ɾ w e ɾ m e m i ʃ l e ɾ <breath> b i ɟ y n ɟ e l d i d i j e ɟ e l m i j o ɾ ɫ a ɾ h e ɾ h a l d e <laugh> 
[92.035]
<no-speech> 
[92.185]
<no-speech> 
[94.205]
j aː n i k a n c a j a <no-speech> a j b i z d e t e l e f o n ɫ a k o n u ʃ m a k i ʧ i n 
[100.325]
<no-speech> 
[101.695]
n e h e d i j e s i b e 
[102.775]
<no-speech> 
[105.145]
j aː m u ɾ u n h e d i j e s i m i 
[106.365]
<no-speech> 
[109.095]
ɯ m h ɯ m 
[110.235]
<no-speech> 
[111.415]
b i ʃ e j d e m e d i m k a n c a ɯ m h ɯ m d e d i m 
[113.385]
<no-speech> 
[114.925]
<laugh> j a b u m u j m u ʃ j aː n i t e c b u m u 
[118.265]
<no-speech> 
[119.235]
<no-speech> 
[120.465]
<no-speech> 
[121.715]
<int> a j ʧ o k i l ɟ i n ʧ a n c e t m i ʃ j a 
[126.195]
<no-speech> 
[127.505]
a m a ʧ n e j aː n i b e n a n ɫ a m a d ɯ m c i c a f a m b a s m a d ɯ b u n a j a 
[132.735]
<no-speech> 
[134.955]
t a m a m 
[135.545]
<no-speech> 
[136.965]
t a m a m b o ʃ w e ɾ d i m k a n c a <no-speech> 
[139.595]
<breath> j a ɫ n ɯ z s e s i n b ø j l e c e s i c c e s i c ɟ e l i j o ɾ b e n h i ʧ b i ɾ ʃ e j a n ɫ a m ɯ j o m 
[144.015]
<no-speech> 
[146.785]
a ɫ o 
[147.455]
<no-speech> 
[148.275]
s e s ʃ i m d i i j i 
[149.325]
<no-speech> 
[151.695]
ɟ e l i j o ɾ ɟ e l i j o ɾ 
[152.915]
<no-speech> 
[153.935]
t a m a m j e ɾ i n i d iː ʃ t i ɾ d i j s e n s o ɾ u n j o k a j k a n c a n e j a p a j ɯ m b e e w d e o t u ɾ u j o z 
[159.865]
<no-speech> 
[165.555]
o ɫ a b i l i ɾ j aː n i ɟ e l e b i l i ɾ i m <laugh> 
[170.015]
<no-speech> 
[172.285]
h a b e ɾ l e ɾ ʃ i ɾ i z oː z a m aː n <no-speech> 
[177.635]
n e 
[178.195]
<no-speech> 
[179.885]
b u n e b i ʃ e j j a b e n a n ɫ a m ɯ j o m s e n i j a <laugh> ʃ e j n e z a m aː n e w e ɟ i d ʤ e c s i n f a ɫ a n 
[186.345]
<no-speech> 
[187.485]
s o n ɾ a d a n ɟ e l i j o ɾ 
[188.885]
<no-speech> 
[190.265]
h ɯ i j i <no-speech> 
[193.535]
t a m a m d ɯ ɾ oː z a m aː n s a k a n c i <cough> b e n a j ɟ ø z d e j i e w e b ɯ ɾ a k ɯ ɾ c e n b e n d e o n u n ɫ a b i ɾ l i c t e ɟ i d e ɾ i m oː z a m aː n s a <int> 
[201.215]
<no-speech> 
[206.355]
a j n e n k a n c a ø j l e j a p a ɾ ɯ m oː z a m aː n s a <cough> a j <int> 
[212.545]
<no-speech> 
[213.675]
ʧ o k j o ɾ u ɫ d u m <sta> e w i n i ʧ i n e ɟ i ɾ i j o m k a n c a a p a ɾ t m a n d a j ɯ m 
[218.785]
<no-speech> 
[220.135]
<no-speech> 
[220.485]
<no-speech> 
[222.435]
<int> e w e t ɟ i d e ɾ i z s oː k 
[227.065]
<no-speech> 
[230.025]
e w e t ʧ o k s oː k d o n d u m s oː k t a <breath> 
[235.275]
<no-speech> 
[236.215]
<no-speech> 
[237.825]
<no-speech> 
[239.505]
<hes> ɟ i d e l i m k a n c a <laugh> 
[241.255]
<no-speech> 
[242.105]
j aː n i j a ɾ ɯ n d e ɾ s aː n e j o k h e ɾ h a l d e s a ɫ ɯ ɟ y n y b a ʃ ɫ ɯ j o ɾ 
[245.605]
<no-speech> 
[246.805]
a n ɫ a m a d ɯ m 
[248.495]
<no-speech> 
[251.475]
e f e n d i m k a n c a 
[252.665]
<no-speech> 
[254.705]
a ɫ o h ɯ b e n d u j u j o m d a s e n b e n i d u j u j o ɾ <no-speech> 
[258.965]
<laugh> a j n e n s e n d e a ɾ a d a b i ɟ i d i p ɟ e l i j o n 
[264.475]
<no-speech> 
[265.305]
h ɯ h ɯ <int> 
[267.425]
<no-speech> 
[270.535]
<hes> oː z a m aː n s a ɟ i d e l i m k a n c a u z u n z a m aː n d ɯ ɾ s i n e m a j a ɟ i t m i j o m z a t e n b i h a f t a d ɯ ɾ m ɯ i c i h a f t a d ɯ ɾ m ɯ n e <breath> a j ʧ o k j o ɾ u ɫ d u m j a <no-speech> 
[282.055]
ɯ s m a ɾ ɫ a ɾ ɯ m t a b i k a n c a a j ɯ p s ɯ n 
[284.195]
<no-speech> 
[286.345]
n a s ɯ ɫ o ɫ s a b a n a b i t eː l eː b i l i j o n <breath> 
[289.625]
<no-speech> 
[292.205]
a b i ʧ a k t ɯ ɾ m a s a n a b e ø f h a n i j a ɫ a n a t m ɯ ʃ t ɯ m j a b i z i m c i s i d e <breath> 
[298.865]
<no-speech> 
[303.575]
a j n e n a j n e n <laugh> 
[307.425]
<no-speech> 
[309.915]
<breath> s e n z a t e n w o d a f o n e ɫ u d iː l m i s i n 
[312.795]
<no-speech> 
[318.995]
k a n c a s e n i n k a f a n m ɯ i j i j a 
[320.795]
<no-speech> 
[322.095]
i j i ɟ i d i j o ɾ j a s i z n e j a p ɯ j o s u n u z j a b e n <laugh> h i ʧ b i ɾ ʃ e j a n ɫ a m a d ɯ m a m a n e j s e 
[327.725]
<no-speech> 
[331.215]
<no-speech> 
[331.565]
<no-speech> 
[332.605]
ʧ ø z ʤ eː m t a b i k ɯ z ɯ m j a a j ɯ p s ɯ n 
[336.455]
<no-speech> 
[343.265]
<hes> n e z a m aː n i s t e ɾ s e n k a n c a d a d e ɾ s aː n e b a ʃ ɫ a j ɯ n ʤ a ʧ a ɾ ʃ a m b a j a d a p e ɾ ʃ e m b e ɟ y n y ʧ a ɫ ɯ ʃ ɯ ɾ ɯ z 
[348.385]
<no-speech> 
[354.055]
<no-speech> 
[354.645]
<no-speech> 
[356.485]
t a m a m i ŋ k ɯ l a p f a ɫ a n ʧ a ɫ ɯ ʃ ɯ ɾ ɯ z oː z a m aː n s a 
[359.725]
<no-speech> 
[364.685]
a n ɫ a m a d ɯ m 
[365.565]
<no-speech> 
[367.945]
a ɫ o 
[368.635]
<no-speech> 
[370.105]
h ɯ a j n e n k a n c a j a b i ɾ b i ɾ i m i z e j a ɾ d ɯ m e d e ɾ i z c e s i c c e s i c ɟ e l i j o ɾ h i ʧ b i ɾ ʃ e j a n ɫ a m ɯ j ɾ u m z a t e n k a f a m a ɟ ø ɾ e ʤ e w a p w e ɾ i j o m <breath> 
[378.955]
<no-speech> 
[385.955]
a j n e n o j n a ɾ ɯ z <breath> h e j a ɫ ɫ a ɯ m j aː ɾ a b b i m <laugh> k a n c a n e ɾ e j e i s t e ɾ s e n o ɾ a j a ɟ i d e l i m 
[394.375]
<no-speech> 
[402.305]
a ɫ o c i m 
[404.445]
<no-speech> 
[409.095]

[409.705]
<no-speech> 
[411.045]
c i m n e j a p ɯ j o ɾ a n ɫ a m a d ɯ m 
[412.645]
<no-speech> 
[417.365]
s e s i n ɟ e l m i j o ɾ h i ʧ b i ɾ ʃ e j d u j m u j o m ʃ u a n d a h ɯ 
[419.935]
<no-speech> 
[421.485]
a ɫ o 
[422.445]
<no-speech> 
[424.075]
ɟ i t t i m ɟ i t t i m ʃ u a n e w d e j i m <laugh> a n n e m d e n e j a p s ɯ n k a n c a ɟ ø z d e j l e i ʧ e ɾ i d e o t u ɾ u j o ɾ ɫ a ɾ <laugh> 
[434.025]
<no-speech> 
[436.855]
a l e j c y m s e ɫ a m <laugh> 
[439.095]
<no-speech> 
[442.095]
<no-speech> 
[442.455]
<no-speech> 
[445.495]
ɟ e l k a n c a <breath> 
[447.095]
<no-speech> 
[450.425]
n e i s t e ɾ s e n o n u j a p a j ɯ m k a n c a j a <laugh> w a ɫ ɫ aː b i l m i j o m d u ɾ b a k a j ɯ m <laugh> 
[457.205]
<no-speech> 
[458.755]
w a ɫ ɫ aː n e h a ɫ t k a ɾ ɯ ʃ t ɯ ɾ ɯ j o s u n u z b e n a n ɫ a m a d ɯ m h ɯ 
[461.595]
<no-speech> 
[462.725]
z e j t i n j aː ɫ ɯ m ɯ 
[464.475]
<no-speech> 
[467.055]
z e j t i n j aː ɫ ɯ m ɯ z e j t i n j aː ɫ ɯ m ɯ d i j o m s a ɾ m a 
[471.195]
<no-speech> 
[472.855]
t a m a m d ɯ ɾ j a p a ɾ ɯ z a j ɯ p s ɯ n <laugh> 
[478.295]
<no-speech> 
[480.755]
t a m a m k a n c a k o p ɟ e l oː z a m aː n s a 
[482.945]
<no-speech> 
[489.115]
n e ɾ e d e n 
[489.895]
<no-speech> 
[492.925]
a ɫ k a n c a 
[493.995]
<no-speech> 
[495.015]
a ɫ 
[495.525]
<no-speech> 
[496.825]
<breath> a ɫ m a n a ɟ e ɾ e c j o k b e n <no-speech> 
[501.315]
w a ɫ ɫ aː k a n c a ʃ e j o ɫ 
[503.145]
<no-speech> 
[505.765]
<laugh> ʃ a ɾ a p o ɫ m u ʃ t u n oː z a m aː n s a 
[509.205]
<no-speech> 
[514.845]
k ɯ ɾ m ɯ z ɯ o ɫ m u ʃ t u n 
[515.915]
<no-speech> 
[517.915]
ø l d y ɾ b e n i <laugh> ø c y z ɟ ø z y o ɫ m u ʃ t u n 
[523.735]
<no-speech> 
[525.565]
<no-speech> 
[526.585]
<no-speech> 
[531.315]
a f a ɾ k <no-speech> 
[533.945]
e l m a o ɫ m u ʃ t u n m a n d a l i n a a ɫ 
[537.715]
<no-speech> 
[542.215]
<no-speech> 
[542.565]
<no-speech> 
[543.635]
n e i s t i j o ɾ m u j u m 
[544.685]
<no-speech> 
[549.765]
a ɫ k a n c a n e a ɫ ɯ ɾ s a n a ɫ j a m a ɾ c e t i t o p ɫ a d a ɟ e l <laugh> a ɫ o 
[554.465]
<no-speech> 
[555.375]
a ɫ o <laugh> 
[556.565]
<no-speech> 
[558.315]
t a m m a 
[559.505]
<no-speech> 
[560.475]
<no-speech> 
[562.525]
<no-speech> 
[564.635]
<breath> ɟ ø z d e i s t e d i j i n b i ʃ e j w a ɾ m ɯ k a ŋ k a ʤ ɯ m t e ʃ e c c y ɾ e d i j o ɾ m u ʃ s a n a ʧ o k ʧ i k o ɫ a t a a ɫ a b i l i ɾ m i ʃ s i n 
[572.215]
<no-speech> 
[574.075]
<no-speech> 
[574.455]
<no-speech> 
[576.875]
<laugh> ʧ i k o ɫ a t a a ɫ j o k j a k a ɫ m ɯ ʤ a k k a ɫ m ɯ ʤ a k 
[583.415]
<no-speech> 
[584.705]
<int> p o ɾ t a c a ɫ b i l m i j o m j a d a b i z i m k a f a m ɯ z ɟ y z e l <laugh> 
[595.635]
<no-speech> 
[596.805]
<no-speech> 
[599.935]
<no-speech> 
[600.26]
