[0.0]
<no-speech> 
[5.505]
a ɫ o 
[6.205]
<no-speech> 
[8.014875]
a ɫ o 
[8.675]
<no-speech> 
[10.765]
n a b e ɾ ʤ a n ɯ m 
[11.925]
<no-speech> 
[14.295]
a ɫ o 
[14.995]
<no-speech> 
[18.035]
i j i d i ɾ w a ɫ ɫ aː n a p ɯ j ɯ m 
[19.865]
<no-speech> 
[22.795]
k ɯ z k o n u ʃ s a n a s e s i n ɟ e l m i j o ɾ 
[24.815]
<no-speech> 
[26.965]
ɯ m h ɯ m 
[27.575]
<no-speech> 
[29.355]
ɯ m h ɯ m ʧ o ʤ u k ɫ a ɾ n a p ɯ j o ɾ i j i l e ɾ m i 
[31.435]
<no-speech> 
[33.325]
ɯ m h ɯ m c e c j a p ʤ aː m d e d i n j a p t ɯ n m ɯ 
[36.435]
<no-speech> 
[37.325]
ɯ m h ɯ m n e k o j d u n i ʧ i n e s e w ɟ i n i k o j d u n m u 
[40.765]
<no-speech> 
[41.745]
j a uː ɾ a ɾ ɯ m j a s o n ɾ a s e w ɟ i n i k o j d u n m u 
[44.595]
<no-speech> 
[47.205]
a ɫ o 
[47.905]
<no-speech> 
[49.365]
<laugh> ʃ e j <laugh> 
[52.185]
<no-speech> 
[53.045]
c y f y ɾ l y k o n u ʃ m a j a ɫ ɯ m 
[54.645]
<no-speech> 
[57.515]
<no-speech> 
[57.895]
<no-speech> 
[60.105]
n e ɟ y l y j o n j a 
[61.325]
<no-speech> 
[63.325]
j a uː ɾ a ɾ ɯ m j a ʃ i m d i i ʃ i m w a ɾ <breath> ʃ i m d i i ʃ i m w a ɾ j a <no-speech> ø j l e 
[69.405]
<no-speech> 
[70.335]
h ɯ o k u ɫ a b ɯ ɾ a k t ɯ m ɟ e l d i m <no-speech> <lipsmack> e w d e a z ʤ ɯ k i ʃ i m w a ɾ o n ɫ a ɾ ɯ t o p a ɾ ɫ a j a j ɯ m <breath> ɟ e l ʤ eː m s a n a <cough> ʧ a j k o j d u n m u 
[79.015]
<no-speech> 
[82.195]
ɯ m h ɯ m 
[82.705]
<no-speech> 
[83.985]
e c a w e i ʧ e l i m 
[85.255]
<no-speech> 
[86.235]
n i j e h e p c a w e c a w e d iː l ʧ a j i ʧ e l i m <no-speech> w a ɫ ɫ aː b e n d e c a w e s e w m i j o m 
[92.375]
<no-speech> 
[98.455]
<breath> h a d i ʧ a j i ʧ e l i m b u b ø j l e ɟ i d e ɾ j aː n i <laugh> 
[104.945]
<no-speech> 
[108.255]
<no-speech> 
[109.375]
<no-speech> 
[110.655]
<laugh> b a k s a n a n e d i j ʤ e c s i n 
[112.565]
<no-speech> 
[114.315]
d e d i m j a n e j s e e w d e j i m e w d e 
[117.175]
<no-speech> 
[118.705]
ø j l e ʃ e j i <no-speech> <hes> s e n i ɾ e m i a k ʃ a m k o ʃ t u ɾ a ʤ a k m ɯ s ɯ n ɟ e n e 
[123.765]
<no-speech> 
[127.235]
ɯ m h ɯ m 
[127.715]
<no-speech> 
[128.885]
e w e t b e n i m ʤ a n ɯ m e c ʃ i b i d e o ɾ d a d ø n e j i m 
[131.955]
<no-speech> 
[132.925]
d i j o m b e n i m ʤ a n ɯ m e c ʃ i b i d e o ɾ d a d ø n e j i m 
[135.305]
<no-speech> 
[137.335]
y ʧ b e ʃ c i ɫ o a ɫ m ɯ ʃ ɯ m o n u n a m a n <breath> b a k s a n a n e d i ʤ e c t i m <breath> s e n i l e k o ʃ t u ɾ u j o n j a i n s a n b e n m e s e ɫ a k o ʃ u j o ɾ e w e ɟ e l i j o ɾ h a n i j o ɾ u ɫ u j o ɾ j a d a a ʧ o k a ʤ ɯ k ɯ ɾ o n u h i s s e d e ɾ h e m e n ø j l e b i ʃ e j l e ɾ j e d i ɾ m e j aː n i b ø j l e e c m e c m e k m e k s i p o ɾ d a a ʤ ɯ k t ɯ ɾ ɯ j o ɾ ʧ y n c y 
[157.085]
<no-speech> 
[160.075]
ɯ m h ɯ m 
[160.515]
<no-speech> 
[162.815]
n e d e d i n 
[163.595]
<no-speech> 
[166.265]
n e o ɫ u j o ɾ a ʤ ɯ k ɯ j o ɾ 
[167.865]
<no-speech> 
[170.835]
t a m a m i ʃ t e s i p o ɾ d a ʧ o k a ʤ ɯ k t ɯ ɾ ɯ j o ɾ j aː n i o n u d i j o m oː <hes> j a b aː z e n c e s i l i j o ɾ j a oː j y z d e n ø n e m l i d iː l a m a oː ʃ e j i <hes> h a n i oː s i p o ɾ d a a ʤ ɯ k t ɯ ɾ ɯ j o ɾ i ʃ t a h a ʧ ɯ j o ɾ o n a a ɫ d a n ɯ p d a ʧ o ʤ u a j e d i ɾ m e h i ʧ b i ɾ a n ɫ a m ɯ c a ɫ m a z j aː n i 
[186.435]
<no-speech> 
[190.375]
ɯ m h ɯ m 
[191.395]
<no-speech> 
[193.845]
ɯ m h ɯ m 
[195.935]
<no-speech> 
[197.375]
m e j w e f a ɫ a n j e d i ɾ 
[198.925]
<no-speech> 
[199.995]
ɯ m h ɯ m m e j w e 
[201.105]
<no-speech> 
[203.185]
ɯ m h ɯ m n e b i l e j i m 
[204.755]
a m a n <breath> 
[206.125]
c i ɫ o i j i d iː l c i ɫ o i j i d iː l h a s t a ɫ ɯ k b a ʃ k a h i ʧ b i ɾ ʃ e j d iː l ɯ m h ɯ m 
[210.595]
<no-speech> 
[213.355]
<breath> a j d ɯ n a k ʃ a m ɟ e l d i <laugh> e l i n i u z a t b a n a e l i n i u z a t m ɯ ʃ d i j o ɾ c i ø p k o ʤ a n ɯ n e l i n i <laugh> 
[221.845]
<no-speech> 
[223.965]
<laugh> 
[227.315]
<no-speech> 
[228.735]
<no-speech> 
[230.665]
<no-speech> 
[231.745]
<laugh> ø j l e i ʃ t e 
[235.535]
<no-speech> 
[236.385]
<laugh> i ʃ t e b i ø p k o ʤ a n ɯ n e l i n i f a ɫ a n 
[240.465]
<no-speech> 
[243.305]
ɯ m h ɯ m c i m ʃ e j b aː d e ɟ y l 
[245.605]
<no-speech> 
[247.655]
h e t e j z e n 
[248.645]
<no-speech> 
[249.455]
ɯ m h ɯ m 
[250.025]
<no-speech> 
[250.835]
ɯ m h ɯ m <laugh> t a b i ʤ a n ɯ m ø j l e o ɫ u j o ɾ b ø j l e j a p ɯ j o ɾ ʃ i m d i w e ɾ i j o ɾ j y z l y k w e ɾ i j o ɾ b i j y z l y k i c i j y z l y k k ɯ z b u ɾ a c a ʧ t a n e j y z l y k w a ɾ 
[262.695]
<no-speech> 
[263.015]
<no-speech> 
[265.795]
<laugh> b e n l e d a ɫ g a ɟ e ʧ i j o ɾ 
[272.665]
<no-speech> 
[274.105]
ɯ m h ɯ m 
[274.605]
<no-speech> 
[278.815]
n e j i a ɫ ʤ a k 
[279.715]
<no-speech> 
[285.695]
ɯ m h ɯ m o n u s o n ɾ a a ɫ ɯ ʤ a m j a n a p ɯ j ɯ m e m ɾ e j i a ɫ d ɯ k t a n s o n ɾ a b e l c i ɟ i d e ɾ i m b e l c i d e ɟ i t m e m 
[291.655]
<no-speech> 
[292.895]
j o k j o k s e n i n c i j o k d a a n e o ɫ d u n d y n j o k 
[296.675]
<no-speech> 
[297.865]
d a a d y n b i b u ɟ y n i c i n e o ɫ d u a ɫ ɫ a a ɫ ɫ a 
[300.885]
<no-speech> 
[303.075]
<hes> o f n e ɾ d e l e ɾ ɾ u ʒ u n m u j o k 
[305.495]
<no-speech> 
[308.475]
ɯ m h ɯ m 
[308.945]
<no-speech> 
[312.655]
n e j a p a j ɯ m w a ɫ ɫ aː j a p ɯ ɫ ʤ a k b i ʃ e j j o k 
[315.125]
<no-speech> 
[316.865]
t y c e n m e z k a l e m <no-speech> 
[319.465]
<no-speech> 
[319.815]
<no-speech> 
[322.365]
<laugh> 
[326.215]
<no-speech> 
[329.575]
<no-speech> 
[333.205]
<no-speech> 
[334.165]
o f 
[334.755]
<no-speech> 
[338.775]
ɯ m h ɯ m 
[339.565]
<no-speech> 
[342.635]
ʤ aː n a n 
[343.455]
<no-speech> 
[347.345]
m aː ʃ a ɫ ɫ a i ɾ e m n e j a p ɯ j o ɾ oː d a m ɯ i j i 
[350.615]
<no-speech> 
[354.675]
i j i 
[355.655]
<no-speech> 
[361.865]
<laugh> o n a j aː m u ɾ ɫ u h a w a d a b o ʃ w e ɾ 
[365.715]
<no-speech> 
[369.935]
ʃ e j i k ɯ z oː f a t m a n i j e <no-speech> 
[373.635]
ɯ m h ɯ m 
[374.305]
<no-speech> 
[379.975]
e w e t 
[380.495]
<no-speech> 
[382.395]
ɯ m h ɯ m 
[382.955]
<no-speech> 
[386.385]
<no-speech> 
[387.395]
<no-speech> 
[388.385]
<laugh> s e n i n ʧ o ʤ u k ɫ a ɾ ɯ n d o a s ɯ n d a w a ɾ n e b u ɫ s a j i j o ɾ ɫ a ɾ 
[392.035]
<no-speech> 
[393.315]
ɯ m h ɯ m <hes> b e ʃ d a c i c a ʧ ɯ k a ɾ s a n a a ɾ d a j ɯ k a ɾ ɟ ø ɾ s y n k ɯ z j a z ɯ k 
[398.325]
<no-speech> 
[402.575]
k ɯ z oː <hes> ø b y ɾ ʃ e j ø b y ɾ s e f e ɾ c i ɟ i b i s oː k d iː l 
[406.555]
<no-speech> 
[407.475]
h a n i ɟ e n e j aː j o ɾ a m a ø j l e ʧ o k e s m i j o ɾ oː z a m aː n d a a <no-speech> 
[412.365]
n e o ɫ m u ʃ t u n ɟ e n e i j i b i d a a d a j aː m a z z a t e n b u s o n 
[415.565]
<no-speech> 
[416.735]
ɟ e n e i j i j aː n i 
[417.905]
<no-speech> 
[419.825]
b i z i m e m ɾ e d e d e b i o k u ɫ ʃ e j i b a ʃ ɫ a m ɯ ʃ 
[422.315]
<no-speech> 
[423.235]
ɯ m h ɯ m d u j u j o n m u 
[425.215]
<no-speech> 
[426.175]
d i j o m b i z i m e m ɾ e d e b i o k u ɫ ʃ e j i b a ʃ ɫ a m ɯ ʃ i l l aː d a o k u ɫ a ɟ i d ʤ eː m o k u ɫ a ɟ i d ʤ eː m l a n n e o ɫ d u s a n a n e j s e a ɾ t ɯ k d i j o ɾ c i a n n e d i j o ɾ c e ʃ c e øː l e d e n s o n ɾ a d a b e ʃ d e ɾ s o ɫ s a <laugh> 
[439.405]
<no-speech> 
[440.835]
d u j u j o n w a ɫ ɫ aː i d e d i m h a d i b a k a ɫ ɯ m i n ʃ a ɫ ɫ a h e p b ø j l e ɟ i d e ɾ s e w e ɾ s i n o k u ɫ u j a z ɯ s ɯ n ɯ f a ɫ a n ɟ y z e l l e ʃ t i ɾ m i ʃ 
[449.575]
<no-speech> 
[451.115]
c e n d i c e n d i n e 
[452.255]
<no-speech> 
[454.905]
<breath> ø j l e i ʃ t e ʤ aː n a n ʤ ɯː m 
[456.885]
<no-speech> 
[463.105]

[463.885]
<no-speech> 
[464.975]
<hes> o ɫ m a z l a n ø j l e n e j o ɫ u b u s oː k t a b i d e t e l e f o n m u t u t ʤ a k s ɯ n e l i n d e 
[469.765]
<no-speech> 
[472.985]
a ɫ o s oː k s oː k d i j o m 
[475.335]
<no-speech> 
[478.735]
ɯ m h ɯ m 
[479.305]
<no-speech> 
[480.885]
<no-speech> 
[481.395]
<no-speech> 
[482.745]
<laugh> k ɯ z s u s 
[484.015]
<no-speech> 
[485.575]
<no-speech> 
[488.695]
<no-speech> 
[489.925]
m aː ʃ a ɫ ɫ a s e ɾ w e ɾ i j o ɾ s u n s ɯ ɾ w e ɾ m i j o n h a <laugh> 
[493.765]
<no-speech> 
[498.285]
b i b i ʧ u w a ɫ i n ʤ i ɾ i b e ɾ b a t e t t i n w a ɫ ɫ aː i 
[502.615]
<no-speech> 
[503.825]
<laugh> s e n i n j y z y n d e n b a ʃ a ɟ e l ʤ e c 
[506.075]
<no-speech> 
[509.265]
n e 
[510.175]
<no-speech> 
[514.585]
h e i n d i ɾ d i c ʃ e j ɟ e l d i t a b i t a b i <laugh> 
[517.675]
<no-speech> 
[519.325]
<breath> a j ʃ e o k u ɫ a ɟ i t s i n d e <laugh> 
[521.954875]
<no-speech> 
[528.315]
a j ʃ e o k u ɫ a ɟ i t s i n d e a j ʃ e 
[530.505]
<no-speech> 
[534.385]
h ɯ <laugh> a n ɫ a d ɯ n m ɯ 
[536.675]
<no-speech> 
[537.655]
<laugh> ʃ e j <no-speech> 
[540.095]
<laugh> a n ɫ a d ɯ n m ɯ 
[541.685]
<no-speech> 
[543.035]
ɯ m h ɯ m 
[543.635]
<no-speech> 
[546.275]
<laugh> a z i z j i l d ɯ ɾ ɯ m a z i z j ɯ ɫ d ɯ ɾ ɯ m ɯ n ʃ i c e ʃ e j l e ɾ i w a ɾ d ɯ j a ʃ i f ɾ e s i n i ʧ ø z m y ʃ l e ɾ d i a j ʃ e o k u ɫ a ɟ i t s i n m i t e l e f o n d a ø j l e k o n u ʃ u j o ɾ ɫ a ɾ m ɯ ʃ 
[557.825]
<no-speech> 
[558.955]
<no-speech> 
[559.735]
<no-speech> 
[564.065]
<laugh> oː i b ɾ aː i m k u t ɫ u a j d ɯ k a ɾ ɯ ʃ t ɯ ɾ d ɯ n i j i ʤ e 
[569.305]
<no-speech> 
[570.775]
<no-speech> 
[571.305]
<no-speech> 
[574.985]
w a ɫ ɫ aː i b i l l aː i s aː l i h n a p ɯ j o ɾ 
[577.865]
<no-speech> 
[579.615]
h e 
[580.165]
<no-speech> 
[581.995]
c i m oː j a 
[582.735]
<no-speech> 
[583.655]
c i m oː 
[584.215]
<no-speech> 
[585.485]
b i ɾ i m i ɟ e l d i 
[586.545]
<no-speech> 
[589.625]
k ɯ z c i m ɟ e l d i 
[591.835]
<no-speech> 
[597.015]
b o ʃ w e ɾ a n n e a n n e n n e j a p ɯ j o ɾ 
[598.815]
<no-speech> 
[599.98]
