[0.000]
<no-speech>
[0.985]
ஹலோ <sta> ஹலோ வித்யா
[4.155]
<no-speech>
[5.705]
நீ எப்ப எடுத்தாறார்ரியா
[8.255]
<no-speech>
[9.505]
ஹம் சரோ என்னக்கிடி வருவே
[11.915]
<no-speech>
[12.975]
<no-speech>
[14.215]
<no-speech>
[15.455]
<sta> என்னடி சீனாக்காரன் வந்துக்கிட்டேயிருக்கானாண்டி
[19.245]
<no-speech>
[22.425]
சரிடி நித்யா நித்யா நம்ம <int> சைட் (()) எதுனா வேகன்ஸியிருக்கான்னு கேட்டுப்பார்டி
[28.845]
<no-speech>
[29.865]
<no-speech>
[30.235]
<no-speech>
[32.535]
ஆமான்டி ஹம் அதான் நம்ம- ஹம்
[35.745]
<no-speech>
[37.445]
ஹம்
[37.995]
<no-speech>
[39.095]
ஷோ சைட்டா <no-speech> என்னடி முன்னாடியே ஒரு வாரத்துக்கு முன்னாடியே என்னமோ காலேஜ் லீவுன்னு சொல்லிட்டிருந்தாங்க இப்ப அதுக்குள்ளவே இது பண்ணிட்டாங்க
[48.355]
<no-speech>
[51.725]
ஹம் <sta> இதும் ஓர் பிரச்சினையா
[56.125]
<no-speech>
[58.295]
<no-speech>
[58.645]
<no-speech>
[60.375]
ஹூம் ஹூம் இதிலயும் அங்குலிமான் காலேஜில வந்து ஸ்டார்டிங் வந்து பி_ஈக்கு வந்து ட்வெல்லாண்டி சேலரி <no-speech> ஹம் அத அடுத்த ஆறு மாசத்துல அப்புறம் வந்து ஃபிஃப்டீனாம் <no-speech> அடுத்த ஒன் இயர்க்கும் அப்புறம் டுவென்டி
[72.355]
அப்பிடியாம் ஏன்னா அங்க வந்து காப்பி எழுதின புது பிரின்ஸிபால் மாறியிருக்கிராராம் <int> அவங்க <click> பி_ஈ க்வாலிஃபையிடாம் அதுவும் அந்த காலத்துல படிச்சவங்களாயிருந்தா ஒன்னுமே
[84.205]
தேவயில்லியாம் ஈஸியா எடுத்துப்பாங்களாம் <no-speech> அழகா நம்ம பேசாம ஓர் சைடாவே போயிரலாம் <no-speech> எம்_இ படிக்கிறதுக்கு அவஙகளே பணம் தருவாங்களாம் அவங்களே படிக்க வெப்பாங்களாம் <sta>
[93.165]
<no-speech>
[96.415]
யார் ஐ_பி_எம்முக்கு போனாளுகள்ளே இன்னைக்கு <no-speech> அதுல வந்து இன்னைக்கு ஐ_பி_எம் ஆப்டிமம் நடந்துச்சா அதுல வந்து இன்னைக்கு சுகந்தியும் சக்தியும் <no-speech> அதுல வந்து சக்தி-
[108.115]
சக்தி வந்து ஃபர்ஸ்ட் ரவுண்ட் <foreign> பண்ணிட்டா
[109.795]
<no-speech>
[111.035]
ஃபர்ஸ்ட் ரவுண்டுன்னா ஆர்_டி_ஜியோட ரவுண்ட்
[113.125]
<no-speech>
[113.985]
ஹம் ஆர்_டி_ஜி ரவுண்ட் வந்து <foreign> பண்ணிட்டு அ- நெக்ஸ்ட்டு வந்து என்னமோ இங்கிலீஷ் <foreign> டெஸ்டாம் <no-speech> அந்த இங்கிலீஷ் <foreign> டெஸ்ட் போகும்போது இதாயிட்டாடி வெளிய வந்துட்டா
[125.685]
சுகந்தி <sta> வந்து அ அதான் வெளிய வந்துட்டா செலக்ட் ஆகல இதுல ஹம்
[132.875]
<no-speech>
[133.815]
ஹம் என்னென்னமோ இங்கிலீஷ் <foreign> டெஸ்டாம் <no-speech> என்னமோ ஒரு ஒரு நம்மோட கிளயண்டுக்கு வந்து நம்ம ஓர் புராஜெக்ட் எதாவது சொல்ற மாதிரி இங்கிலீஷ்ல ஈமெயில் <foreign> மாதிரி எழுதனுமாம் அதுக்கு என்னென்னமோ
[145.105]
<no-speech>
[146.175]
<no-speech>
[146.525]
<no-speech>
[147.925]
<sta> அது ஹம் <foreign> வந்து என்னென்னா ஓர் <foreign> இருக்குமாம் இல்லாட்டி டைரக்ட் ஹெச்_ஆர் தானாம் ரெஃபரன்ஸுக்கு போனா அதுவும் ஈஸியாம்
[157.925]
அதுவும் ஐ_பி_எம்ல வந்து ரெஃபரன்ஸ் கொடுத்தா மட்டும் தான் தான் அந்த அப்ளிகேஷன எடுத்திருக்காங்க ஓகேய் இல்லாத அப்ளிகேஷன எடுக்கல <sta> இல்லாத அப்ளிகேஷன எடுக்கல
[169.245]
<sta> நான் தான் தான் என்னோட வைத்தியலிங்கம் சார் போயிருக்காங்க எதானும் அங்கே இருக்காமா இல்லையாமா
[173.955]
<no-speech>
[178.905]
ஹம்
[179.465]
<no-speech>
[183.805]
<sta> ஏய் எட்டாயிரம் டாலர்னா எவ்ளோ
[185.955]
<no-speech>
[188.305]
என்னடி சொல்றேன் என்னடி <laugh> உன்னைக்கையில புடிக்க முடியாது போலருக்கே <sta>
[193.455]
<no-speech>
[198.285]
அப்பிடியா <sta>
[199.815]
<no-speech>
[206.375]
ஹம்
[207.255]
பேக் அப்
[210.175]
(())
[210.615]
<no-speech>
[213.405]
ஹூம் ஹூம் <sta>
[215.855]
<no-speech>
[219.135]
சீ ஏய் என்னடி இப்டி சொல்ல சொல்றேன் அந்த கம்பனியில மறுபடியும் சக்கரைக் கொட்ட- ஹம்
[224.035]
<no-speech>
[230.335]
<no-speech> அப்புறம் இப்ப இங்க இங்க ஐ_பி_எம்ல மறுபடியும் வந்தாக்கா எடுத்துப்பாங்கள்ள <no-speech>
[235.885]
<no-speech>
[238.995]
<sta> அவன எந்த நாளும் எந்த நாளும் சம்பளம்தான் ஏன் அப்படித்தானே
[243.565]
<no-speech>
[248.085]
கண்டிப்பா அவள வேல பாப்பாங்கல்ல <sta> சரி அப்புறம் அவங்களுக்கு இப்ப நிச்சியம் பண்ணாங்கல்ல அந்த பொண்ணு அவங்க வேலைக்கி போவாங்களா வேலைய விட்டுருவாங்களா
[256.305]
<no-speech>
[258.895]
ஹம் சரி வினோத்தெல்லாம் எதாவது வேலைக்கி போய்டானா இல்லையா
[262.725]
<no-speech>
[268.985]
ஏன்டி
[270.285]
<no-speech>
[272.515]
ஹூம் ஹூம் சரி நித்யா நீ கேட்டுக்கு படிரி எதாவது ஓர் லைன்ல நம்ம ஐ_டி சைட் தான் வரணும் இந்த சைட் தான் போகணும்னெல்லாம் கெடையாது உனக்கு ரிசல்ட் வந்து கடவுளை வேண்டிக்கிட்டு எப்படியாவது ரிசல்ட் நல்லது சொல்லிக்கிட்டு வரணும்னு
[284.255]
ரிசல்ட் மட்டும் நல்ல ரிசல்ட்டா வந்துச்சின்னா நம்ம ரெண்டு பேரும் எதாவது ஓர் சைட் நல்ல ஸைடா போய்ட்டு படிக்கிறோம் வீட்ல இருக்கிறோம் வீட்ட பாத்துக்கிறோம்
[291.915]
<no-speech>
[293.645]
ஏன் கீர்த்திதான் அசஞ்சர்ல கீர்த்திதான் அசஞ்சர்ல ப்ளேசாயி ஆஃப்பர் லட்டர்லாம் வாங்கிட்டாளே அவளுக்குத்தான் ஓர் லைஃப் செட்டில்டு
[299.855]
<no-speech>
[300.735]
செம லக்கு அவளுக்கு <sta>
[312.455]
<sta> (()) எல்லாம் கட்டிட்டு வீட்டுக்குப் போய்ட்டா
[314.305]
<no-speech>
[316.445]
ஹம் சரி சரி சரி கல்யாணியக்காவ எப்பிடியாவது டிரை பண்ண சொல்லு அப்புறம் அவ்வளவு தான் தான் ஹம் ஃபிரியா நல்லாருக்கா பரியாதாண்டி எளச்சிப் போயிட்டா கவலதாண்டி ரொம்ப
[328.305]
ஓய் <sta> எனக்கு என்ன சொல்றதுன்ன தெரியல இல்லடி அவதானேடி அவ வீட்டுக்கு ஹம்
[335.265]
<no-speech>
[337.485]
ஏய் அப்படித் தான் அப்படி ஏய் இல்லடி அப்படி சொல்ல வரலடி அவ வந்து என்ன நெனக்கிறான்னா நான் என்னடி சம்பளம் வாங்கி ஹாஸ்ட்டல் ஃபீஸ் மட்டும் கட்டினா
[348.025]
போதுமாடி <sta> என் தங்கச்சியையும் படிக்க வைக்கனும்னாடிங்கறா <no-speech> உம்ம் வேல வேற கெடைக்கல
[353.395]
<no-speech>
[355.415]
இப்ப <sta> எல்லாருக்குமே எல்லாருமே கஷ்டம்தாண்டி நித்யா
[360.325]
<no-speech>
[362.315]
ஹம் அதான் அதான் எதாவது படிசிட்டிருக்கா படிக்கத்தான் சொல்லிருக்கேன் சரி இதும் என்னமோ நெனச்ச-
[368.935]
<no-speech>
[371.875]
ஹம் சக்தி அதான் ஆர்ட்ஸெல்லாம் படிக்கச்சொல்லியிருக்கேன் அவள
[375.095]
<no-speech>
[375.965]
ஆர்ட்ஸெல்லாம் எதாவது படிச்சு ஆனா வந்துட்டு நித்யா எதாவது ஓர் ஜாபுக்கு போகணும்னாக்கா நம்ம எதாவது ஓர் ஆர்ட்ஸ் தெரியணும்டி ஆர்_எஸ் அகர்வால் புக் தெரிஞ்சா தான் எந்த ரவுண்டா இருந்தாலும் <foreign> பண்ணலான்ட்டு இருக்கு கவர்ன்மெண்ட்
[387.395]
எந்த எக்ஸாமா இருந்தாலும் பேங்க் எக்ஸாமா இருந்தாலும் எந்த எக்ஸாமா இருந்தாலுமே நித்யா நம்ம பி_ஈ நம்ம பி_ஈ வந்து பாலிடெக்னிக் காலேஜுக்கே குவாலிஃபைடு தெரியுமா நம்ம கவர்மெண்ட்
[398.535]
ஏன் பாலிடெக்னிக் <sta> காலேஜ் இருக்கும்னா அதுக்கு எல்லாம் நம்ம குவாலிஃபையிடு நம்ம வந்து எக்ஸ்பீரியன்ஸ் ஓர் ரெண்டு வருஷம் வெச்சிருந்தாலும் டி_ஆர்_பி எக்ஸாம்
[408.685]
<sta> வெப்பாங்களாம்டி பேங்க் எக்ஸாம் டி_என்_பி_சி வெக்கறாங்கள்ளே அது போல வந்து பாலிடெக்னிக் காலேஜுக்குன்னு ஓர் டி_ஆர்_பி எக்ஸாம் வெப்பாங்களாம் அந்த டி_ஆர்_பி எக்ஸாம்ல-
[419.925]
<sta> அதே நம்ம எழுதி பாஸ் பண்ணிட்டம்னா பாலிடெக்னிகல்ல நமக்கு கவர்மெண்ட் போஸ்ட்டு கிடக்குமாம்
[425.805]
<no-speech>
[426.805]
<sta> ஹம் கவர்ன்மெண்ட் போஸ்ட்டெல்லாம் கேடச்சா ஜாலிதானேடி அதான நெறய-
[432.965]
<no-speech>
[435.795]
ஹம்
[436.265]
<no-speech>
[437.465]
அதான் பெல்ல சென்டா இதான்டி <foreign> ரெண்டு மணிக்குள்ள செலான் எடுக்கணும் ரெண்டு மணிக்குள்ள செலான் எடுக்கணும்டி ஆன்மா நான் எத்தன ரெண்டு மணிக்குத் தானே வரேன் அதுக்கப்புறம் செலான் எடுக்கறதுக்கில்ல
[448.645]
அதனால சுகந்தி நாளைக்கி வீட்ல இருக்கா அவள போய் நாளைக்கி செலான் எடுக்க சொல்றேன்
[452.365]
<no-speech>
[453.925]
நான் தான் செலான் எடுத்து நான் லேண்ட்லைனில <foreign> பண்ணிருக்கேன் <sta> சரி உனக்கு நான் என்னக்கின்னு பாத்து சொல்றேன் அதே போல அப்புறம் என்னென்னமோ பி_இ_எல் என்னென்னமோ செல்றாங்கடி அதுக்கெல்லாம் <foreign>
[463.625]
இல்ல வந்தா <sta> அதிகமாஇருக்கும்னா நம்மள கூப்பிடறாங்க போலருக்கு
[467.375]
<no-speech>
[470.365]
<no-speech>
[470.775]
<no-speech>
[471.825]
ஏய் கேட்டுக்கு வந்து இங்க ஓர் அக்கா புக் வச்சிருக்காங்கடி
[474.965]
<no-speech>
[476.935]
ஹூம் ஹூம் என்ன மாமியக்கா வெச்சிருக்காங்க ராணியக்கா வெச்சிருக்காங்க அந்த புக்கெயெல்லாம் எடுத்து கொஸ்டியன் பேப்பர பாக்கும்போது தலையே சுத்துது என்ன நம்ம படிக்கிறதுக்கும் புக்ல
[487.945]
சாதாரணமா தியரியெ படிக்கிறதுக்கும் அந்த கொஸ்டியென் பேப்பருக்கும் ஒன்னுமே சம்பந்தமேயில்ல <no-speech> சரி நம்ம கிளாசுல வந்து திவ்யாவுக்கு யாரோ கேன்ஸர்னு சொன்னாங்களேடி சரியாயிட்டதாடி
[499.065]
<no-speech>
[501.785]
அதாண்டி தெரியல என்னென்னு தெரியல நம்ம காலேஜில வந்து நல்லா ஜாலியா திவ்யா இவ எல்லாம் ஜாலியா என்ஜாய் பண்ணாளுக ஜாலியா ரெஃபரென்ஸ எடுத்து கொடுத்தாங்கடி
[512.045]
<no-speech>
[512.925]
அதான் இந்த இன்னொர் திவ்யா இருப்பாலே பாரதி திவ்யா அவ அவள அவளுகல்லாம் பிப்டீன் தௌசன் வாங்கிட்டு இருக்காளுக
[520.925]
<no-speech>
[522.065]
<int> ஆமாம்
[524.005]
<no-speech>
[525.025]
அதான் டென் தௌசன் வாங்கிட்டிருக்கான் <sta> ஹம் அவன் என்னமோ (()) என்ன பண்றது
[535.505]
<no-speech>
[536.555]
(())
[537.365]
<no-speech>
[540.625]
<laugh> அதான ஜனாவை காணவே காணோம் ஜனாவெ கல்யாணம் பண்ணிக்கிட்டு (())
[547.745]
<no-speech>
[548.735]
<sta> ஹம் ஹம் அதான் <no-speech> ஹம் ஹம் <foreign> ஆ
[558.575]
<no-speech>
[560.525]
திவ்யாவா திவ்யாதான் இங்க தான் இருக்கா இப்ப வந்துட்டா அங்கிருந்து தெவசம் முடிச்சிட்டு வந்துட்டா
[565.355]
<no-speech>
[567.805]
ஆஹ் அதான் சரி அப்புறம் இந்த இதேயெல்லாம் என்னடி பண்றது <no-speech> ஹம் ஜனாவாம் பார்க்கையாம் அப்புறம் வேற யார் நம்ம காலேஜில யாருமே ஒழுங்கா இதும் ஆகல
[579.365]
<no-speech>
[584.645]
ஹம்
[586.015]
<no-speech>
[587.865]
ஹம்
[590.635]
<no-speech>
[592.175]
டேய் கல்யாணிக்கா வந்து கல்யாணிக்கா என்ன சொன்னாங்க உன்ன வந்து இங்க கோர்ஸ் படிக்க சொன்னாங்களாம் இல்ல வேறெததும் வேல தேட சொன்னாங்களாம்
[598.245]
<no-speech>
[599.575]
<no-speech>
[599.795]
<no-speech>
[599.940]
