[0.000]
<no-speech>
[1.155]
<no-speech>
[7.175]
<no-speech>
[8.895]
<no-speech>
[9.545]
<no-speech>
[15.175]
<sta> ஆமா
[16.095]
<no-speech>
[17.945]
<sta> என்னைய வச்சு என்ன பண்ற நீ
[19.885]
<no-speech>
[21.765]
ஆஹ் <int>
[22.265]
<no-speech>
[25.265]
ஓ <int>
[25.905]
<no-speech>
[27.805]
என்னது <int>
[28.605]
<no-speech>
[32.725]
சரி <int>
[33.545]
<no-speech>
[39.925]
ஓ
[40.495]
<no-speech>
[44.905]
உம்ம் <int>
[45.535]
<no-speech>
[51.990]
<no-speech>
[58.445]
<sta> ஐயோ கோணம்
[61.625]
<no-speech>
[64.455]
<no-speech> செகண்ட் ஷிஃப்ட் போடுல நான் திருப்பி லீவுல இருக்கன் இப்ப
[69.415]
<no-speech>
[71.345]
<sta> நீ தான் ரீப்லே பண்ணலேன்ன அன்னைக்கு
[73.455]
<no-speech>
[78.895]
<no-speech>
[79.545]
<no-speech>
[83.335]
<no-speech> யோ
[85.085]
<no-speech>
[86.835]
<sta> அய்யியோ பத்து நிமிஷம் கண்டிப்பா பத்து நிமிஷம் முழுசா பேசனுமா நான் அப்ப தான் ரெக்காடுஆவும் சித்தி உனக்கு கிடைக்குமா
[94.055]
<no-speech>
[97.575]
ரொம்ப சந்தோஷம்
[98.475]
<no-speech>
[103.015]
<sta> ஐயோ திருக்குறள்ளாம் படிக்கிறியா நீயும்
[107.875]
<no-speech>
[113.895]
<sta> என்ன <no-speech> கொத்திடு
[116.625]
<no-speech>
[118.505]
யார் யார் <int>
[119.215]
<no-speech>
[123.755]
ஆஹ் <int>
[125.145]
<no-speech>
[132.795]
<sta> படிக்கிற காலத்தில் படி படின்னு சொன்னா படிக்கில
[137.195]
<no-speech>
[139.275]
<breath> இப்ப அன்னி அட்வைஸ் பண்ணாங்களாம்
[141.735]
<no-speech>
[148.145]
ஹூம்
[149.015]
<no-speech>
[157.215]
<sta> ஐய் டேமேஜ் பண்ணிட்டாங்க ஒன்ணிய
[161.115]
<no-speech>
[166.305]
உம் ஊம் <int>
[167.235]
<no-speech>
[168.785]
<sta> எல்லாமே என்ன சொல்லிருக்காங்க ஒன்னயை பத்திதாண சொல்லிருக்காங்க நீ செய்யுன்தாண சொல்லிருக்காங்க
[174.305]
<no-speech>
[175.115]
ஹூம் <no-speech> ஏன் அப்டி நடந்துக்கனும் அப்டி போய் என்னத்துக்கு அவுங்கல்ட்ட சொல்னும் இது விஷயாமாங்ற
[179.755]
<no-speech>
[180.815]
<sta> அதான் நம்ப மாத்திக்கவே மாட்டோமே
[182.465]
<no-speech>
[185.125]
<no-speech>
[186.575]
<no-speech>
[188.075]
<sta> உம் ஊம் ஹூம் ஹும்திருக்குறள் படிச்சா தான் நடக்காமா இருக்க நீ
[192.715]
<no-speech>
[195.665]
<int> ஆ ஹூம்
[196.855]
<no-speech>
[200.925]
<sta> எனக்கு தெரிஞ்சு ஆஹ் அதான் எனக்கு தெரிஞ்சும் ரெண்டு நாளை அதிகபச்சம் இதுல எங்க இருந்து மூனு நாள் <breath> அதிகபச்சம் நீ சொல்ற
[207.675]
<no-speech>
[212.405]
உம் ஊம்
[213.135]
<no-speech>
[216.215]
உம்ம் <int>
[216.895]
<no-speech>
[217.845]
<sta> நைட் சொல்ல நான் இல்ல
[219.275]
<no-speech>
[224.025]
<no-speech>
[224.585]
<no-speech>
[226.505]
<no-speech> அம்மா <no-speech>
[229.925]
<no-speech>
[232.225]
ஓ <int>
[232.735]
<no-speech>
[233.795]
ஓ
[234.395]
<no-speech>
[239.105]
<sta> <laugh> அவ்ளோ தான் அப்டி தான் அந்த சர்க்குல பேசிக்கிறிங்க அந்த அக்காக்குஅப்டிதான் பேர் வச்சிருக்கிங்க <no-speech>
[245.245]
<no-speech>
[246.885]
<sta> உம்ம்
[248.275]
<no-speech>
[253.035]
ஆஹ் <int>
[253.625]
<no-speech>
[256.155]
வாவோ <int>
[256.745]
<no-speech>
[258.585]
<sta> ஆகஸ்ட்டுக்குள்ள முடிச்சிட்டாங்க
[260.265]
<no-speech>
[262.765]
ஆஹ்
[263.385]
<no-speech>
[268.165]
ஆஹ் <int>
[268.785]
<no-speech>
[273.555]
ஓ
[274.185]
<no-speech>
[279.555]
<sta> ஹூம் கங்ராஜ்லேஷன் ஏன் தூக்கம ஒனக்கு வர்லன்னா <laugh> எனக்கு ஹாப்பி தான்
[286.305]
<no-speech>
[287.105]
<no-speech>
[287.495]
<no-speech>
[288.965]
<sta> எனக்கு மிக்கற்ற மகிழ்ச்சி எனக்கு ஒரு எப்படா ஓர் நல்லது ஏன் காதில கேக்கும்னு இதும் பண்ணிட்டுறுக்காங்களா
[298.805]
<no-speech>
[303.785]
<sta> இல்ல ஒன் மேல பாசம் இல்லாமலாயா சொல்லு
[307.475]
<no-speech>
[310.715]
<no-speech>
[312.555]
<no-speech>
[314.535]
என்ன என்ன விஷயம் <int>
[315.855]
<no-speech>
[320.705]
<sta> அதெல்லாம் ஒன்ணும் ஏய் என்ன ஒனக்கு ஓர் நல்லது நடக்கணும் <no-speech> அது ஏன் காதில கேக்கணும் சொன்னா அதுக்கு போய் ஆள் போட்ருக்கியா அடிக்கிறத்துக்குன்ணு கேக்குற என்ன போய் என்ன வார்தை கேட்ட
[332.185]
ச்சீ
[332.885]
<no-speech>
[333.685]
<no-speech>
[334.115]
<no-speech>
[339.645]
<sta> அப்டியா
[340.595]
<no-speech>
[346.885]
<sta> இதுலயா தெரியுது <no-speech> இதுல இந்த டைலாக் மட்டுந்தாண் நீ சொல்றது என்ன பாத்து என்ன வார்தை சொல்டங்றது
[354.075]
<no-speech>
[358.385]
அப்டியா இதும் ரிலு
[359.785]
<no-speech>
[361.695]
<no-speech>
[362.105]
<no-speech>
[363.415]
<sta> நீ தான் பாக்கவே இல்லயே சரி வியாபாரம் நம்பர் டெலிட்பண்ணிட்தா சொன்ணியே <no-speech> ஆனா எப்டிஅவுளுக்கு ஃபோன் பண்ணி பேசின
[371.065]
<no-speech>
[374.725]
<sta> அழாதக்க <no-speech> அதுக்கு முன்ன அதுக்கப்புறம் தொண அந்த பிளான்
[379.005]
<no-speech>
[382.695]
நீ ஃபோன் பன்னதுக்கு அப்புறம் தான் அவன் அணுப்பிடுவா
[386.185]
<no-speech>
[391.675]
<int> ரொம்ப இதும் <hes> சரி எப்பிடி
[394.005]
<no-speech>
[395.085]
<no-speech>
[395.455]
<no-speech>
[398.425]
<sta> அது அதுக்கு முன்னாடியே நீ என்ணுட்ட சொன்ணியே நான் சத்தியாமா நான் டெலிட் பன்ணிட்டன் சொன்ணியே
[402.805]
<no-speech>
[407.845]
<sta> திருப்பி திருப்பி நீ தெளிவா என்னை நீ இதும் பண்ற மாறியே பேசுற இரு
[414.115]
<no-speech>
[423.815]
<int> செவன் ஸ்கூலா
[424.915]
<no-speech>
[425.865]
<no-speech>
[426.475]
<no-speech>
[428.005]
<sta> நான் புது நம்பர் செவண்லேருந்துதான் ஆரமிக்குது
[430.825]
<no-speech>
[432.755]
எயிட் தான் ஆரமிக்கும் <int>
[434.055]
<no-speech>
[437.725]
<sta> எத்தன <foreign> கற்ற எயிட் தான்
[439.695]
<no-speech>
[440.525]
<sta> நம்பர் எடுத்து குடுத்ததே நானும் செலக்ட் பண்ணதே நானும்
[444.145]
<no-speech>
[445.335]
<int> என்னது
[445.985]
<no-speech>
[449.115]
<sta> என்னது
[450.505]
<no-speech>
[452.855]
ஹூம் ஒன் முஞ்சி
[454.375]
<no-speech>
[455.825]
நம்பர் செலக்ட் பண்ணதே நான் தான் அவன் நம்பர
[459.115]
<no-speech>
[464.985]
உம்ம் <int>
[465.465]
<no-speech>
[466.705]
<sta> ஆஹ் ஓகேய் <no-speech>
[467.575]
<no-speech>
[470.405]
<sta> பத்து நிமிஷம் தாண்டி போயிட்டிருக்க மாறியே தோனுதே எனக்கு
[473.855]
<no-speech>
[479.515]
<sta> இந்த டைலாக்க பல தடவை கேட்ருப்பான் <no-speech>
[483.335]
<no-speech>
[484.595]
<sta> உம்ம்
[487.875]
<no-speech>
[490.905]
<sta> நீ சந்தோஷமா போயிட்டு வந்த (()) நீ சந்தோஷமா கெளம்பின மாதிரில்ல இருக்கு
[495.225]
<no-speech>
[498.145]
<sta> அத பாத்து கரெக்ட் பண்ணி அணுப்பிடுமா <no-speech> சொல்லும்
[501.765]
<no-speech>
[504.425]
உம்ம்
[505.075]
<no-speech>
[507.605]
<sta> அதெல்லாம் ஒன்னுல்ல சொல்லும்
[509.345]
<no-speech>
[512.735]
<sta> ஊருக்கு <no-speech> கிளம்பு அன்னைக்கு மெசேஜ் பன்னிட்றுந்தேன் <no-speech> ரெண்டு மெசேஜ் அனுப்பு திருப்பு நீ தான் ரீப்லே பண்ல
[520.595]
<no-speech>
[521.515]
<sta> டெஸ்ட் பண்ணா மெசேஜ் பண்ணா ரீப்லே என்ணாத்தாண் ஏறாம இருக்கோம் திருப்பி குடுத்துடுவேன்
[525.425]
<no-speech>
[534.235]
<no-speech> நான் இத யாருன்ணு கேட்டனா செரிறி ஒன் செல்லுள பேலன்ஸே இருக்காதா
[543.455]
<no-speech>
[546.045]
<sta> ஏய்
[547.315]
<no-speech>
[549.925]
<sta> ஒன் மொபைல்ல பேலன்ஸே இருக்காதா
[553.735]
<no-speech>
[554.685]
<sta> ஆஹ் எதுக்கு இவுணுக்கெல்லாம் ஃபோன் பண்ணி சொல்லிக்கிட்டு <no-speech> அதான் அப்டி தான் <laugh> நீ பேசியே கவுக்கலன்ணாலும் அதான் உண்மை
[565.175]
<no-speech>
[568.335]
<sta> சரி நான் திருப்பி கேப்பாமான் பாத்தேன் ஊருக்கு கிளம்பிட்டியா கிளம்பிட்ருக்கியா பிஸியான் கேப்பேன் பாத்தோம் <no-speech> அந்த ஓர் மெசேஜுக்கு கண்டினுயூவ்ஸ் அத பாத்து நீ ரீப்லே பண்ல அதபாத்தும் நீ ரீப்லே பண்ல அதுக்கப்புறம் நீ போணும் பண்ல ஒனக்கு எதுக்கும்
[579.585]
<sta> எத்தண்ணாலு கேக்கணுண்தான் நானும் உட்டுட்டேன்
[582.885]
<no-speech>
[583.805]
ஆஹ் இல்ல சந்தோஷம்
[585.385]
<no-speech>
[586.555]
மொபைல் <int>
[587.135]
<no-speech>
[593.955]
என்ணாது <int>
[594.625]
<no-speech>
[600.220]
