[0.000]
<no-speech>
[10.295]
ஆஹ் சொல்றா சமீது
[11.575]
<no-speech>
[15.425]
ஆஹ் நல்லாருக்கேண்டா
[16.685]
<no-speech>
[19.935]
ஓ திலக் நகர் போயிட்டிருக்கறேன் ஃபிரண்ட பாக்கறதுக்காக
[22.335]
<no-speech>
[24.795]
ஆஹ்
[25.435]
<no-speech>
[27.875]
இல்லல்ல ஷேர் ஆட்டோ இல்ல
[29.365]
<no-speech>
[34.515]
இல்ல யாராண்ட இல்லடா <no-speech> இல்ல
[36.965]
<no-speech>
[41.205]
உம்ம் சரி என்னைக்கு காலேஜ்
[42.755]
<no-speech>
[44.575]
ஆஹ்
[45.125]
<no-speech>
[46.185]
ஆஹ் எழுதிருக்கேன் ஆஹ் எழுதிருக்கேன் எழுதிருக்கேன் நல்லா எழுதிருக்கேன் நீ
[50.545]
<no-speech>
[52.705]
<no-speech> சரி என்னைக்கு காலேஜ்
[54.705]
<no-speech>
[58.805]
ஜூலை தேர்டா
[60.005]
<no-speech>
[61.775]
எவ்ளோ பீச்ன்னு சொன்னாங்களாம் <no-speech> இல்லடா காலேஜ்லருந்து ஃபோன் பண்ணாங்கல்லே
[71.385]
<no-speech>
[74.655]
<sta> சேதுபதி சார் தான் ஃபோன் பண்ணாரா உனக்கு
[78.145]
<no-speech>
[79.315]
என்ன சொன்னாங்க (())
[80.345]
<no-speech>
[81.655]
ஆஹ் <sta> ஃபோன் பண்ணி என்ன சொன்னாரு
[83.845]
<no-speech>
[87.275]
ஆஹ்
[87.995]
<no-speech>
[91.045]
அதான் அதான் ஃபோன் பண்ணி (()) ஆள் வச்சிருக்கு அப்புறம்
[94.925]
<no-speech>
[99.375]
ஆஹ்
[99.975]
<no-speech>
[101.215]
ஆஹ் ஆஹ்
[101.965]
<no-speech>
[103.595]
(())
[104.565]
<no-speech>
[106.365]
ஆஹ்
[106.965]
<no-speech>
[107.795]
சரி எவ்ளோ ஃபீஸ் கட்டணும்னு எல்லாம் சொல்லலியா
[110.075]
<no-speech>
[112.845]
எதுமே சொல்லலியா ஃபீஸெல்லாம் <no-speech>
[116.535]
<no-speech>
[117.715]
ஆஹ்
[118.385]
<no-speech>
[119.795]
(()) இவ்ளோ காசு அது இதுன்னு எதும் சொல்லலே
[122.595]
<no-speech>
[127.635]
ஆஹ் நீ தான் தான் <foreign> பண்ணியும் <no-speech> (())
[130.435]
<no-speech>
[131.715]
எனக்கு எவ்ளோன்னெல்லாம் சொல்லலே
[133.325]
<no-speech>
[134.835]
<sta> வர ஜூலை தேர்ட் காலேஜ் ஆஹ் அதுக்குள்ள வந்துடணும் இது ஃபீஸ் கட்டிடணும்ன்னாங்க அதுக்குள்ள <no-speech> ஆஹ் அதுக்குள்ள ஃபீஸ் கட்டிடணும்
[146.195]
<no-speech>
[148.845]
ஆமாமா ஜூலை தேர்ட் காலேஜ் போனப்புறம் வாங்கிக்கலாம் இப்பன்னா அவசரம் நீ என்ன (()) போறேன் ஆஹ்
[158.045]
<no-speech>
[159.655]
நடுவுல போய் வாங்க போறியான்னு கேட்டேன்
[161.385]
<no-speech>
[163.895]
(())
[167.335]
<no-speech>
[171.455]
<sta> ஏய் பேங்க் காலையில இருந்தானுங்கடா <no-speech> அந்த இதும் எடுத்துனு போய் குடுத்தா போதும் போனஃபைடும் நம்மளோட மார்க்ஷீட்டு ஜெராக்ஸ்ஸும் சைன் வாங்கி
[183.115]
பிரின்ஸிபாலுகிட்டயோ எச்_ஓ_டி கிட்டயோ சைன் வாங்கி <sta> குடுத்தா போதும்
[185.085]
<no-speech>
[186.685]
<sta> குடுத்தா அவங்க ஒரே நாள்ல தந்துருவாங்க டி_டி
[189.455]
<no-speech>
[191.545]
ஆஹ் அப்ப நம்ம வந்து இதும் (())
[194.515]
<no-speech>
[204.335]
அப்டியெல்லாம் கிடையாதுடா எங்கெருந்து மாறரது
[207.055]
<no-speech>
[211.245]
(())
[212.185]
<no-speech>
[212.985]
அதென்ன உன்னம் மூனு வருஷம் இருக்குதுல நம்மளுக்கு
[215.785]
<no-speech>
[217.635]
<sta> கவர்ன்மெண்ட் மாறரதுக்கு கூட மூனு வருஷம் இருக்குதுல்லடா
[221.495]
<no-speech>
[222.535]
பட் <no-speech> ஆனா இப்ப வட்டி கட்டி தான் ஆகணும்
[225.225]
<no-speech>
[228.355]
<no-speech>
[228.785]
<no-speech>
[230.075]
(())
[230.705]
<no-speech>
[232.705]
ஆஹ் அதெல்லாம் நாம கட்டி தான் ஆகணும் இந்தியன் பேங்குல போன வருஷம் நீ கட்டல
[237.335]
<no-speech>
[238.685]
(())
[239.725]
<no-speech>
[240.645]
போன வருஷம் கட்டவேயில்லயா அப்பறம் எப்டி தந்தான் லோன்
[243.575]
<no-speech>
[246.205]
<sta> அதென்ன போன வருஷம் எப்டி தந்தான்
[249.335]
<no-speech>
[255.765]
என்னடா ரெண்டு வருஷம் ஃபரஸ்ட் இயர் வாங்குனா ரெண்டாவது இயரும் வாங்கனும்ல
[259.005]
<no-speech>
[263.605]
ரெண்டு செக்க சேத்தி ஒரே டி_டில குடுத்துட்டானா அதாவது ரெண்டாவதும் வருஷம் குடுத்தான்
[269.435]
<no-speech>
[272.965]
<sta> ஆஹ் எங்களுக்கு தனி தனியா குடுத்தான்ல போன வருஷமே எட்னூத்தயம்பது ரூபா கட்டிட்டோம் <no-speech> இந்த வருஷம் வந்து பதினெட்டாயிரத்து ஐந்நூறு ரூபா கட்டணும்
[280.815]
<no-speech>
[283.445]
பதினட்டாயிரத்து (()) ஆஹ் இனிமேல் தான் (())
[287.255]
<no-speech>
[288.125]
எனக்கு வருது எண்பத்தி- எண்பத்தாறாயிரம் வருதுறா
[292.605]
<no-speech>
[295.685]
<int> கேக்கல நம்மளுக்கெதிரே பஸ் ஃபீஸ் ஒரு ஆயிரம் ரூபா ஏத்திட்டானுங்க
[299.475]
<no-speech>
[300.335]
<sta> அவரை <foreign> <foreign> உடறேன்னா இதுங்களெல்லாம் எக்ஸ்டரா
[303.875]
<no-speech>
[306.045]
<sta> பத்தொம்போதாயிரத்து ஐந்நூறு எக்ஸ்டரா <hes> போன வருஷமே எண்பத்தி நாலாயிரம் கட்னோம் <no-speech> (())
[312.605]
<no-speech>
[313.835]
<no-speech> புரியல <int>
[315.635]
<no-speech>
[318.725]
ஆமாமா அதெல்லாம் சேர்த்துதான் போட்டு இந்த வருஷம் எதும் தொண்ணூறாயிரம் வந்துடும் போலருக்கு
[322.685]
<no-speech>
[325.575]
நீனா பன்சல்
[326.415]
<no-speech>
[328.245]
என்னாயிது அதுக்கு
[329.355]
<no-speech>
[332.845]
எனக்கா
[333.665]
<no-speech>
[335.045]
நல்ல எஸ்_ஓ_எம்
[336.485]
<no-speech>
[338.305]
(())
[339.135]
<no-speech>
[341.325]
<sta> ஏ_எஸ்_பி என்_எம் எல்லாமே (()) இருக்குது
[344.565]
<no-speech>
[346.765]
(()) ஒனக்கென்ன (()) மட்டும் தானே
[349.345]
<no-speech>
[353.375]
எங்கடா அவன்
[354.325]
<no-speech>
[355.315]
ஆஹ்
[355.985]
<no-speech>
[357.095]
<no-speech>
[358.255]
<no-speech>
[359.635]
இல்ல செவன்ட்டி ஃபைவ்
[361.085]
<no-speech>
[364.085]
ஆனா அப்ப எல்லாத்துலயும் பாஸாயிட்டியா
[366.005]
<no-speech>
[372.475]
(())
[373.855]
<no-speech>
[375.175]
பாஸானாதானே வரும் செவண்டி
[378.215]
<no-speech>
[379.275]
<no-speech> ஆஹ்
[380.475]
<no-speech>
[384.335]
ஆஹ்
[384.905]
<no-speech>
[385.805]
<sta> எப்படியிருந்தாலும் பாஸாயிடணுமில்ல ஜஸ்ட்டு பாஸாவது ஆகணும் <no-speech> எண்ணா சொல்லு அப்புறம்
[395.395]
<no-speech>
[398.455]
ஏய் வெளியில இருக்கறேண்டா (()) என்னடா உனக்கு கோபம்
[403.155]
<no-speech>
[407.795]
திருநின்றவூர் எல்லாம் ஒண்ணும் தான்
[409.675]
<no-speech>
[412.315]
அதான் (())
[413.445]
<no-speech>
[415.575]
ஆஹ் யாருமில்ல
[416.615]
<no-speech>
[419.775]
<sta> அப்புறம் சொல்லும் சொல்லும் <no-speech>
[423.215]
<no-speech>
[425.355]
ஹலோ ஆஹ்
[426.985]
<no-speech>
[429.035]
புக்கெல்லாம் இனிமேதானேடா டேய் காலேஜ் தொறந்த பெறகுதாண்டா வாங்கணும்
[432.245]
<no-speech>
[435.235]
ஆஹ் நீ வாங்கிட்டியா
[436.785]
<no-speech>
[440.105]
செகண்ட்ஸ்லயா வாங்க போறேன் ஆஹ்
[442.965]
<no-speech>
[445.225]
டேய் <foreign> பேரெல்லாம் தெரியுமா உனக்கு
[447.525]
<no-speech>
[452.085]
எனக்கு ஒரே ஓர் ஆத்தர்தாண்டா
[453.615]
<no-speech>
[455.815]
<no-speech>
[456.705]
<no-speech>
[457.855]
டேய் நீ பேசு (()) தெரியாம வாங்க- வாங்க போறேடா
[460.875]
<no-speech>
[467.745]
<no-speech>
[468.335]
<no-speech>
[470.065]
<no-speech>
[470.555]
<no-speech>
[471.455]
ஃபெளன்டேஷன்னா ஃபெளன்டோஷன்னா காய்ல் மெக்கானிசத்துல சேந்து வந்திருமே
[475.545]
<no-speech>
[477.645]
ஆஹ்
[478.235]
<no-speech>
[480.365]
என்னடா (()) போன வருஷம் புக்கில்லடா புதுசா புது (()) <sta> ஆஹ்
[487.395]
<no-speech>
[489.175]
<no-speech> அக்கா <no-speech> ஆஹ்
[490.495]
<no-speech>
[494.415]
<int> எப்ப போறியோ கூப்பிடு நான் கூட வரேன்
[496.905]
<no-speech>
[498.325]
<sta> சரியா <no-speech> சொல்லும்
[504.165]
<no-speech>
[506.085]
<no-speech>
[506.435]
<no-speech>
[509.265]
<sta> டிரெஸ்ஸா டிரெஸ்ஸெல்லாம் (()) டேய் அதே டிரெஸ்தாண்டா
[513.305]
<no-speech>
[515.365]
ஆஹ்
[515.835]
<no-speech>
[518.255]
போணும் பெங்களூர் போணும் இப்போம் <no-speech> ஆஹ்
[523.475]
<no-speech>
[525.185]
இதுடா ஓர் கிரகப்பிரவேசத்துக்கு மாமா (())
[530.035]
<no-speech>
[531.775]
<no-speech> ஆஹ் சொல்லும் சொல்லும்
[536.475]
<no-speech>
[537.825]
எண்ணா புரியல
[538.785]
<no-speech>
[540.465]
<no-speech> ஹெல்ப்
[541.665]
<no-speech>
[542.735]
(())
[543.245]
<no-speech>
[545.005]
(()) அடுத்த ஜூலயிலிருந்து போலான்னுருக்கிறேன்
[549.535]
<no-speech>
[552.665]
(()) ஏன்யா அவ்வளவு நாளா ஆகும் ஓர் வருஷத்துக்குள்ள முடிச்சிற முடியாது
[558.345]
<no-speech>
[561.935]
ஆஹ்
[562.955]
<no-speech>
[565.585]
புரியல <no-speech> இல்லல்ல அண்ணா நகர் போப்போறதில்ல தெரியல உன்னம் இதாகல இனிமே கேட்ஸ்கேன்னு சொல்லிட்டு (()) உனக்கு எவ்ளோ ஃபீஸ்
[576.365]
<no-speech>
[579.535]
<sta> உனக்கு எவ்ளோ எவ்ளோ ஃபீஸ் கட்ட சொன்னே
[583.305]
<no-speech>
[584.905]
இருபத்திரெண்டாயிரத்தி நூறோ <sta> மறுபடி ஆவடில தான் போணும்
[589.935]
<no-speech>
[594.005]
யாரிருக்கறாங்க ராம் இருக்கிறான் அவ்வளவு தான் <sta>
[596.745]
<no-speech>
[598.725]
<no-speech>
[598.965]
<no-speech> (())
[600.180]
