[0.000]
<no-speech> ஹலோ
[5.525]
<no-speech>
[7.065]
<no-speech> கங்கா <no-speech> பேசுடி <no-speech>
[11.955]
<no-speech>
[12.975]
<no-speech> ஆஹ் செரிறி
[15.675]
<no-speech>
[17.715]
<no-speech> என்ன இன்னானா பண்ற
[19.305]
<no-speech>
[22.405]
<no-speech> இரு அப்புறமா சொல்றேன் <no-speech> இதுல பேச கூடாதாம் <no-speech> இன்னும் சாப்ட
[28.235]
<no-speech>
[29.665]
<no-speech> ஆஹ் ஆஹ் ஒரு பத்து நிமிஷம் பேசலாம் என்ன வேண்ணாலும்
[32.535]
<no-speech>
[34.015]
<no-speech>
[34.645]
<no-speech>
[35.475]
<no-speech> அப்பறம் அதுவே கட் ஆயிடும்னா <int>
[37.475]
<no-speech>
[39.705]
<no-speech> இன்னும் சாப்பிடற
[40.455]
<no-speech>
[41.555]
<no-speech> ஆஹ்
[42.165]
<no-speech>
[44.905]
<no-speech> ஆஹ் காணும் பொங்கல் நீயா செஞ்சம்
[47.265]
<no-speech>
[50.125]
<no-speech> ஆஹ் காணும் பொங்கலுக்கு எங்க போன <no-speech>
[53.585]
<no-speech>
[54.745]
<no-speech> எல்லாருக்குமா வீட்ல
[56.505]
<no-speech>
[59.425]
<no-speech> போயிட்டு எப்பம் வந்தீங்க
[60.925]
<no-speech>
[63.745]
<no-speech> உம்ம் எத்தன மனிக்கு <no-speech>
[66.285]
<no-speech>
[68.155]
<no-speech> ஒம்போது மணிக்கா
[69.395]
<no-speech>
[72.895]
<no-speech> நீயே காசு இல்லண்ண செரிறி அப்பறம் வாங்கிக்கலாம்னு சொல்லிட்டு தான் விட்ட
[76.495]
<no-speech>
[79.515]
உம்ம் <no-speech> என்ன <hes> என்னாயிருந்துது அங்க மகாலிபுரத்துல கேளு <no-speech>
[85.765]
<no-speech>
[89.305]
<no-speech> நறைய கூட்டமா
[90.815]
<no-speech>
[93.325]
<no-speech> உம்ம்
[94.065]
<no-speech>
[99.735]
<no-speech> கோயிலிருக்குல்ல கோயில்லாம் எதுவும் இல்ல <no-speech>
[102.455]
<no-speech>
[103.555]
<no-speech> அந்த பெரிய பாறை பஸ்ல போகொ நாம பாத்திற்கோம்ல அந்த பெரிய பாறை தான்
[107.745]
<no-speech>
[111.125]
<no-speech> அது மேல போய் உக்காண்டு வந்தீங்களா
[113.325]
<no-speech>
[118.655]
உம்ம் <hes> உம்ம் <no-speech> யார் யார் எல்லாருமேவா உங்க மாமியார் மாமனார் <no-speech>
[124.165]
<no-speech>
[125.825]
<no-speech>
[126.515]
<no-speech>
[128.705]
<no-speech> வண்டிலயா
[130.075]
<no-speech>
[132.975]
<no-speech> பத்துச்சா
[133.975]
<no-speech>
[138.335]
<no-speech> ஆஹ் <hes> முன்னாடி ரெண்டு பேர் பின்னாடி மூனு பேரா
[141.575]
<no-speech>
[144.195]
<no-speech> ஓ
[145.335]
<no-speech>
[147.035]
<no-speech> செரிறி அப்பறம் உங்க அத்தலாம் நல்லா பேசறங்கலா
[149.445]
<no-speech>
[152.935]
<no-speech> சூப்பரா பேசறாங்களா
[154.215]
<no-speech>
[156.395]
<no-speech> என்ன ஊம் உன்ற
[157.895]
<no-speech>
[160.845]
<no-speech> உன் தூக்கத்த கெடுக்கறேனா <no-speech>
[163.365]
<no-speech>
[164.615]
<no-speech> ஃபோன் பேசி உன் பாப்பா எங்கடி ஊருக்கு போயிடுச்சா <no-speech>
[170.095]
<no-speech>
[171.395]
தெரியவேல்ல உங்க வீடே பூட்டிருக்குது உங்க அம்மா உங்க அப்பா <sta> எங்கேயோ வளைகாப்புக்கு போயிருக்காங்க <no-speech> ஆன்
[177.355]
<no-speech>
[180.365]
<no-speech> ஆமா <hes> அவுங்குளுதுல தான் பேசணும்
[182.475]
<no-speech>
[185.835]
<no-speech> ஆஹ் ஆஹ் <no-speech> நாம் அப்பறம் சொல்றேன்
[188.665]
<no-speech>
[191.865]
<no-speech> இது முஷ்டு
[194.515]
<no-speech>
[195.975]
<no-speech> ஐயோ ஐயோ ஆன் <hes> என்ன பண்ற
[200.705]
<no-speech>
[203.385]
<no-speech> ஆஹ் சாப்டேன்
[204.665]
<no-speech>
[205.685]
<no-speech> என்ன சாப்டேன் சாம்பார் காலிஃபளவர் பொரியல்
[208.715]
<no-speech>
[209.975]
<no-speech> உம்ம் அப்பறம்
[211.755]
<no-speech>
[214.275]
<no-speech> ஆஹ் ஐநூறுவா குடுத்தாங்கனு நெனக்கிறேன் எங்க அம்மா
[216.435]
<no-speech>
[218.935]
ஆஹ் <hes> <no-speech> என்ன உன் ஃபோன்னயே தாண்டிவச்சு நோண்டினு கிடைக்கறாங்க என் தம்பி
[223.415]
<no-speech>
[225.185]
<no-speech> எனி டைம் ஃபோன தான் வெச்சுகுனு நோண்டினு இருக்கிறான் <no-speech> ஆஹ்
[229.705]
<no-speech>
[231.855]
<no-speech> ஆஹ்
[232.905]
<no-speech>
[233.905]
<no-speech> ஏணி டைம் நோண்டிகினே இருக்கான் ஏணி டைம் ஃபோன் பேசிக்கின்னே இருக்கான்
[237.755]
<no-speech>
[241.505]
<no-speech> ஆஹ் <int>
[243.295]
<no-speech>
[246.205]
<no-speech> எங்க எங்க கிட்ட குடுக்கவே மாற்றான்
[248.345]
<no-speech>
[250.025]
<no-speech> இப்ப சார்ஜ் இல்ல என்றான் என்கிட்ட குடுத்தா <no-speech> இப்ப கேட்டும் நாளைக்கி பாருங்கறான்
[254.425]
<no-speech>
[260.495]
<no-speech> அவனுக்கலாம் திமிருடி அவனுக்கு இப்ப ரொம்ப ஏறி போச்சு
[263.805]
<no-speech>
[268.295]
<no-speech> எப்பம்
[269.145]
<no-speech>
[271.355]
<no-speech> ஹம் இதுலத்தான் திருப்பதி போய்ட்டாங்களே
[273.465]
<no-speech>
[277.405]
<no-speech> ஏய் <hes> போனான் எண் தம்பி அப்ப குளிக்கவே இல்ல எண்ணெய் தேச்சிக்கினு இருந்தான்
[281.345]
<no-speech>
[282.775]
வன்ட்டான் <no-speech> அவன் <int> கரெக்ட் எண்ணெய் தேயிக்குல உங்க அம்மா கூப்ட்டாங்க பெரியம்மா சாமி கும்பட தானே கூப்படராங்க இப்ப தானே எண்ணெய் தேய்கறேன்டு போனான்
[291.085]
<no-speech>
[292.685]
ஆஹ் <no-speech> அதுக்கப்புறம் மேட்டுக்கு <no-speech> என்ன உடம்பு செரியில்லயா எண்ணா
[297.325]
<no-speech>
[302.945]
<no-speech> குளிச்சியா
[304.405]
<no-speech>
[310.255]
<no-speech> ஆஹ்
[311.025]
<no-speech>
[315.135]
<no-speech> ஏன்
[315.815]
<no-speech>
[321.245]
<no-speech> ஏன்
[323.155]
<no-speech>
[327.695]
<no-speech> அதனால பேசுதான் உன் தங்கச்சி
[329.935]
<no-speech>
[333.595]
<no-speech> ஏன்
[334.415]
<no-speech>
[337.505]
<no-speech> அவங்க மாமியார் வீட்லயா
[338.875]
<no-speech>
[340.485]
<no-speech> அதுக்கு மேல எந்த பிரச்சன இல்லல்லடி
[342.825]
<no-speech>
[345.415]
<no-speech> அப்ப அவங்க வீட்டுக்காரரை போய் செக் பண்ண சொல்ல வேண்டியது தானே
[348.715]
<no-speech>
[353.815]
<no-speech> அவங்க வீட்டுக்கு தெரியாது ஆனா இதும்
[355.605]
<no-speech>
[360.645]
<no-speech> ஹூம் ஹூம் ஐயோ பாவம் இல்ல
[363.065]
<no-speech>
[370.445]
<no-speech> ஆஹ்
[371.655]
<no-speech>
[376.915]
<no-speech> ஆஹ்
[377.565]
<no-speech>
[381.875]
<no-speech> ஹம்
[382.455]
<no-speech>
[389.435]
<no-speech> உம்ம்
[390.395]
<no-speech>
[391.205]
<no-speech>
[391.575]
<no-speech>
[394.885]
<no-speech> உம்ம் <int>
[395.635]
<no-speech>
[400.305]
<no-speech> இவாவன் எனக்கு ஃபோன பண்ணுறது கிடையாது நாம் எங்க குடுத்தேன எண் தம்பிக்கு தான் குடுத்தன் எங்க அம்மா தான் சும்மாவே இல்ல
[406.595]
<no-speech>
[412.085]
<no-speech> யார்கிட்ட
[413.145]
<no-speech>
[417.775]
<no-speech> ஆறா
[419.055]
<no-speech>
[420.545]
<no-speech> குமாரா
[421.705]
<no-speech>
[423.985]
<no-speech> ஐயையோ நானும் ஆறல்லா குடுக்- ஏய் ஃபர்ஸ்ட் குடுத்தத சேர்த்து சொன்னானாம் இப்ப குடுக்காதேடானு சொல்லிட்டேன் எண் தம்பிககிட்ட எங்க அம்மா தான் அவங்க வீட்ல இருந்திக்கினு அவனுக்கே குடுக்க மாட்டிரியா வேணா காசு எடுத்து குடுனா பாரு
[434.705]
<no-speech> அது மாண்ணு கேள்வி கேட்டுகுனு இருந்துச்சு அம்மா சரி மூட் அதோட ரெண்டு குடுக்கிறன் அப்டின்னு எங்க தம்பி சொன்னான் <no-speech> அவர் எனக்கு ஃபோன பண்றது கிடையாது நானும் எதுவும் கண்டுக்கல <int> என்ன பண்ணணும் விட்டேன்
[446.565]
<no-speech>
[446.715]
<no-speech>
[448.585]
<no-speech> ஹம்
[449.295]
<no-speech>
[458.825]
<no-speech> உம்ம் நானும்
[460.725]
<no-speech>
[462.425]
<no-speech> யாருக்கு தெரியும்
[463.655]
<no-speech>
[465.695]
<no-speech> ஒன்பதாம் மாசம் தானே சீமந்தம் வெச்சுருந்தா அங்க
[468.125]
<no-speech>
[472.145]
<no-speech> உம்ம் யாருக்கும் தெரியும்
[474.235]
<no-speech>
[476.665]
<no-speech> கடுப்பாருக்குது எனக்கு <no-speech> இதும் தேவயில்லாத
[478.715]
<no-speech>
[479.535]
<no-speech>
[479.885]
<no-speech>
[481.825]
<no-speech> உஊம் <no-speech>
[483.195]
<no-speech>
[485.035]
(()) <no-speech> வேலைக்கு போறது நிம்மதி வேலைக்கு வந்தா தான் நிம்மதியாயிருக்குது <laugh> நேத்தும் வேற எங்க வீட்ல சண்ட நூறு எடுத்துண்டு போய் குடிச்சுடார்டி எங்க அப்பா நீ கூப்பிட்டல்ல கீழ <no-speech> (())
[496.895]
அப்ப தான் கோயில்ல போய் அந்த வீட்டு <hes> இதும் நானும் அவங்க அப்பா தான் போய் அத கட்டீட்டு வச்சுட்டு வந்தோம் <no-speech> நீ கூப்டேன் சொல்ட்டு அலமாரி சாவிய எடுததுனு போய் அங்க இதும் க்ரைண்டரல்ல போய் போட்டு ஒடியாந்தேன் பாரு <no-speech> பூட்டி
[508.165]
அதுக்குள்ள எடுத்துட்டிருக்காரு இன்னிக்கு கோ- நேத்திக்கு தான் எங்க அம்மா பாத்தாங்க திருடிட்ட சொன்ன உடனே எங்க அப்பா அசிங்க அசிங்கமா எடுக்கலன்டு சத்தியம் எல்லாம் பண்றார் <no-speech> கற்பூரம் ஏத்தி கால்ல (())
[519.565]
கேக்குறேன் எங்க போயிடுனுட்டு நானும் தான் எடுத்தேங்கறாரு காலைல <int>
[522.395]
<no-speech>
[523.215]
<no-speech> ஐயோ செரியான பொய்டா யம்மா எங்க அப்பா வாய தொறந்தாவே பொய் பொய் பொய்
[528.755]
<no-speech>
[531.755]
<no-speech> எண் தம்பிக்கூட காசுக்- குடுக்கலடி
[534.255]
<no-speech>
[535.895]
<no-speech> எடுத்து இவர் குடுச்சுட்டு படுத்துனு இருக்காரு
[537.875]
<no-speech>
[543.575]
<no-speech> கட்டாயிடும்னு நெனக்கிறேன் இப்ப
[545.215]
<no-speech>
[548.335]
<no-speech> உஊம் உனக்கு கேட்டுச்சான்னா
[550.145]
<no-speech>
[552.715]
<no-speech> சொல்றாரு கொய்ங்- கேட்டுச்சு என்னன்னு தெரியல
[555.375]
<no-speech>
[559.865]
<no-speech> இப்பன்னா எப்பம் எழுந்திருப்பே பத்தாந் <no-speech> உங்க அத என்ன பண்றாங்க
[564.675]
<no-speech>
[566.855]
<no-speech> உங்க மாமா
[567.865]
<no-speech>
[570.535]
என்னங்க தூங்கற வேல தானா மதியானமானா
[573.695]
<no-speech>
[575.595]
<no-speech> நீ கேட்டும் தூங்க போறேன்றேன் உங்க அத்தையை கேட்டும் தூங்கறாங்க அவர் எங்க வேலைக்கு போயிட்டாரா இன்னிக்கு தான் போனாறான்னா
[582.595]
<no-speech>
[585.605]
<no-speech> உம்ம்
[586.555]
<no-speech>
[587.585]
<no-speech> அப்பறம் உங்க அத வீட்ல பொங்கலுக்கும் என்ன செஞ்சாங்க
[590.745]
<no-speech>
[592.325]
<no-speech> பொங்கலுக்கும் என்ன செஞ்சாங்க உங்க அத வீட்ல
[594.405]
<no-speech>
[597.815]
<no-speech> பானை வெச்சா பொங்கினாங்க
[599.365]
<no-speech>
[600.020]
