[0.000]
<no-speech>
[1.165]
<no-speech>
[2.775]
<no-speech>
[3.255]
<no-speech>
[5.345]
<no-speech>
[6.165]
<no-speech>
[8.445]
<no-speech>
[8.955]
<no-speech>
[12.015]
<no-speech> ஹலோ
[15.245]
<no-speech>
[16.255]
<no-speech> ஆன்
[17.485]
<no-speech>
[19.755]
<no-speech> ஆஹ் ஆஹ் என்ன வீட்ல தான் தான் இருக்கியா <no-speech> ஆஹ் சரி சரி ஆஹ்
[27.415]
<no-speech>
[28.325]
ஆன் தம்பி இங்க வெளில வே இது கிரிக்கெட் வெளாட போயிருக்கான்
[31.615]
<no-speech>
[32.745]
ஆன் <sta> இதும் சித்தப்பா சேவ் பண்றார்
[36.155]
<no-speech>
[37.225]
<no-speech> ஆமா வேல இல்ல ஆமா உங்களுக்குலாம் இல்லையா அமாவாசை <no-speech> ஆஹ் <no-speech>
[49.195]
<no-speech> ஆன்
[50.115]
<no-speech>
[52.915]
உம்ம் உம்ம் <sta>
[54.535]
<no-speech>
[57.575]
<no-speech> உம்ம் உம்ம் உம்ம்
[59.385]
<no-speech>
[60.475]
சரி
[61.085]
<no-speech>
[62.395]
இல்ல இல்ல வர்ல அது இன்னும் நானும் ஃபோன் பண்ல ஃபோன் <int> நம்பர விட்டுட்டேன்
[67.415]
<no-speech>
[68.535]
ஆஹ் அதனால சரி ஃபோன் பண்ணிக்கலாம் (()) செல்வம் பொண்டாட்டி கிட்ட தான் கேக்கணும் <no-speech> கேட்டுட்டு ஃபோன் பண்ணணும் உம்ம் உம்ம்
[75.785]
<no-speech>
[76.925]
வந்துட்டு <sta> லா- லாஸ்டா வந்துட்டு போச்சு அழுதுட்டு போச்சு இந்த மாறி வீட்டுக்காரு இந்த மாறி பண்றான் போறார் அப்டீனுட்டு
[83.625]
<no-speech>
[84.455]
<no-speech> (()) தெரிஞ்ச மகாலக்ஷ்மி வீட்டுக்காரு தான்
[88.985]
<no-speech>
[90.065]
ஆஹ் அது சண்ட தான் அதேன் சண்ட சண்ட போட்டுகிட்டுதான் இருக்காங்க போலருக்கு <sta> பசங்களுக்கு இதுக்கலாம் பிடிக்கல போலருக்கு சண்ட போடுறது
[98.155]
<no-speech>
[101.115]
அது போகுது போகுது வேலைக்கி போரதுனா முடியாது <no-speech>
[104.415]
<no-speech>
[105.315]
உம்ம் <no-speech> ஆமா வேலைக்கி போய் திட்டு வாங்கினு <sta> எதும் எல்லாத்தையும் எதுனாச்சும் அசிங்கமா பேசினு இருக்கும் எலாலத்தியும் கேட்டுகின்னு உம்ம் உம்ம்
[115.465]
<no-speech>
[116.885]
<sta> ஐய அந்த லூஸ் படிக்காம டென்த் பாஸ் பண்ணிச்சு ஏதோ ஜஸ்ட் பாசுதான்
[121.565]
<no-speech>
[122.665]
பாஸ் <sta> பண்ணி ஆஹ் டென்த் <hes> பாஸ் ஏதோ கம்மி மார்க் தான் எடுத்து பாஸ் பண்ணிருக்கு வேலைக்கி இதும் என்ன படிக்கவே போமாட்டேன்னு வேலைக்கி தான் போவேன்னு அடம் பிடிச்சுகிட்டு வேலைக்கி போயிட்டிருக்கு
[132.905]
<no-speech>
[135.195]
<sta> ஆஹ் <no-speech> (()) அவங்க மிஷ் கிட்ட கூட போய் இந்த பொண்ணு பேசிருக்கு மகாலக்ஷ்மி அவங்க நான் கூட ஹெல்ப் பண்றேன் நீங்க படிக்க சொல்லுங்க பிளஸ் ஒன் பிளஸ் டூ படிக்க சொல்லுங்க அப்டின்னாக்கா
[146.655]
ஆஹ் அது நான் போவே மாட்டேன் எண்ணா அது படிப்பு கொஞ்சம் ஏறலது <hes> ஜெயா <no-speech> ஆஹ் அதனால <foreign> இல்ல போலருக்கு படிக்கிறதுக்கு அதனால இந்த டென்த் இதும்
[157.055]
டென்த் லீவுல போய் வேலைக்கி போச்சுபாரு <sta> அந்த ருசி இருக்கு அம்மாவுக்கு
[161.585]
<no-speech>
[162.565]
சேஸ்ஸூதான் கடைல நிக்குறா போலிருக்குது <sta> அஞ்சு அவர் என்ன ஆறு அவர் நிக்கனுமா கடெலியே
[167.185]
<no-speech>
[168.285]
அது நின்னுக்கிட்டு வியாபாரம் பண்ணணும் போலருக்கு அது அது பாரு கொழுப்பு ரெண்டு மாசம் சம்பளம் வாங்கி அம்மா கிட்ட கூட குடுக்காம
[175.435]
<no-speech>
[176.675]
அது இஸ்ட்டத்துக்கு திருப்பி செலவு பண்ணினு இருக்கும் அது
[179.165]
<no-speech>
[181.465]
அவங்க அப்பா (()) அவங்க அப்பா கிட்டயும் குடுக்க மாட்டிங்கிதாம் <hes> அவங்க அம்மா கிட்டயும் குடுக்க மாட்டிங்கிதாம் <sta> (()) ஆஹ் போன மாசம் பேர்த்டே வந்ததுனு சொல்லிட்டு
[191.335]
ப- ஃபிரண்டோட அவங்க அம்மாவ கூட்டிக்கிட்டு போய் கைக்கு ஓர் ரிங்கு ஒண்ணும் வாங்கிகிட்டு <no-speech> டிரஸ் வாங்கிகிட்டு பசங்களுக்குலா சாக்லெட் கைக்கு எதுனா வாங்கி குடுத்து ஆஹ் செலவு பண்ணுச்சாம் காய
[203.225]
<no-speech>
[204.215]
<no-speech>
[205.055]
ஆஹ் வந்து சொல்லுது அவங்க அந்த பொண்ணு வந்து ஏன் இப்டி இவ்ளோ தூரம் விட்டிருக்க அப்டின்னா இந்த மாறி பண்ணுதுக்கா அது கேட்டா சட்டம் பேசுது ஆன் <hes> ஓர் மாரியா என்ன வந்து வாயடி கையடி அடிக்குது என்ன அது
[216.555]
அப்டின்னு சொல்லுது
[218.285]
<no-speech>
[219.495]
<sta> ஆஹ் திமுறு ரொம்ப திமுறு <hes> ஆஹ் புடிச்சு அலையுது அப்பனும் சொல்றான் நான் படிமா நான் படிக்க வைக்கிறேன் எவ்ளோ நாளும் செலவு பண்ணி படிக்க வக்கி- படிக்க வைக்கிறேன் அப்டின்னு சொன்னுதுக்கு
[230.355]
<sta> ஆன் கிழிச்ச போ அப்டினுதாம் அப்பன <no-speech>
[234.545]
<no-speech>
[235.625]
ஆன் அதான் <sta> (()) <no-speech> அம்மாவ பத்தி ஆயிரம் சொல்றது பொண்ணு கிட்ட இப்ப அப்பனையும் மதிக்க மாட்டிது அம்மாவயும் மதிக்க மாட்டிது பொண்ணு
[246.145]
ஆம்ப்ளை பசங்கன்னா சரி படிக்கிறியா இந்த பொண்ணாது படிக்கட்டும்னு சொல்லிட்டு படிக்க சொன்னாக்கா படிக்க மாட்டேன்னு சொல்லி அடம்பண்ணுதாம் அது <sta> என்னாத்த பண்றது
[254.765]
<no-speech>
[255.605]
<sta> இப்போம் நமக்கு வழியும் தெரிய மாட்டேங்குது போய் இப்ப போய் என்ன ஏதுன்னு அந்த பொண்ண நல்லா திட்டி திட்டுட்டு வர்லாம்னு பாத்தா நமக்கு வழியும் தெரிய மாட்டேங்குது ஒண்ணும் தெரிய மாட்டேங்குது <breath> ஃபுல்லா ஞாயித்துக்கிழம கூட வேல தானா அந்த பொண்ணுக்கும்
[266.165]
<sta> லீவே கிடையாதாம் <no-speech> அப்டி இதும் மாடி இதும் (()) <hes> ஒரே ஒரு தடவ தான் போனேன் வீடு அந்த அடயாளமே தெரில எனக்கு
[275.635]
எங்க போய் நம்ம <sta> அலையுறது அவங்க வீட தேடினு போயிட்டு
[279.425]
<no-speech>
[281.175]
சரி <sta> (()) <no-speech> ஆன் எங்க போறது அதனால இந்த அம்மாவும் வேலைக்கி ஆஹ்
[287.745]
<no-speech>
[294.345]
<no-speech>
[296.195]
<no-speech>
[297.935]
<no-speech>
[300.785]
<no-speech>
[302.465]
ஆஹ் அதுக்கு வேற ஒண்ணும் இல்ல <sta> அதான் ரொம்ப திமிரெடுத்து போய் அலையுதுங்க பசங்க ஆம்ப்ளை பசங்க அடங்க மாட்டேங்குதுங்க இந்த பொண்ணும் அடங்க மாட்டேங்குது ஆம்ப்ளை அதுக்கு மேல ஆடின்னு கெடக்குறா (())
[312.335]
<no-speech>
[314.735]
ஆஹ் அவன் <sta> கெடக்குறா வேலைக்கும் போகாம ஒண்ணும் போகாம் சுத்திகினு <no-speech> ஆஹ் நல்லா டிரஸ் பண்ணிக்கினு சுத்திட்டு வரார் போயிட்டு
[322.945]
<no-speech>
[324.245]
நம்ம அதான் <sta> (()) கஷ்டப்படுறோம் <no-speech>
[328.485]
<no-speech>
[329.545]
<sta> (()) <no-speech> அதான் அதான்
[332.115]
<no-speech>
[333.665]
உம்ம் உம்ம் செல்வம் பையனுக்கும் <no-speech> (())
[343.405]
<no-speech>
[344.695]
<no-speech>
[345.055]
<no-speech>
[346.395]
<sta> ஆரம்பத்துல (()) அது ஆரம்பத்துல ருசியாயி போச்சு நம்ம இதும் நம்ம வேலைக்கி போய் ஆம்பளயன ஒக்கார வச்சாச்சு இப்ப வந்து சுத்தமா ஒக்காந்துகுனு வீட்ல ஒக்காந்துகுனு உயிரை வாங்கி கெடக்குறா அவன்
[356.495]
<no-speech> என்னாத்த பண்றது செல்வம் பையனுக்கும் பெரிய பையனுக்கும் மஞ்சக்காமால <no-speech> சின்ன பையனுக்கும் டைபாய்ட்டு ஜுரம்
[365.335]
<no-speech> உம்ம் போய் பாக்க கூட இல்ல நானும் சரி இன்னைக்கு போலான்னு பாத்தா அம்மாவாசயா இருக்குது ஒம்போது மணி வரிக்கும் <int> போய் கொலாவாண்ட நின்னுட்டு வந்தேன் நானும் அஞ்சு மனிக்கு போயிட்டு
[375.115]
<no-speech>
[376.005]
கொல இப்ப <sta> தண்ணி பிடிக்கறதுக்கு <no-speech> காலைல அஞ்சு மனிக்கு போயிட்டு ஒம்போது மணிக்குதாம்பா வீட்டுக்கு வந்தேன் <no-speech> அவளோ கூட்டணி ஆன் ரொம்ப இதுவா இருக்குது நேத்து
[387.885]
எல்லாருக்கும் நால் கொடம் கெடச்சது <sta> சரி எல்லாமே
[391.285]
<no-speech>
[392.955]
<no-speech> ஆஹ்
[394.475]
<no-speech>
[398.445]
<sta> உம்ம் அதான் ஒவ்வொருத்தரும் இஸ்ட்டத்துக்கு அடிக்கிறாங்கப்பா முப்பது கொடம் நாப்பது கொடம் அடிக்கிறாங்கள்ள ஐயையோ ரொம்ப கஷ்டம் உம்ம் எப்டி தான் ஜனங்க அப்பா வேளைல போனா தான் நமக்கு வேளைல போய்
[410.285]
<no-speech>
[419.615]
<no-speech>
[423.205]
இப்ப வந்து ஒம்போது மனிக்கு வந்து டீம் போட்டு குடுத்தன் இப்ப தான் குளிச்சேன் <sta> சரி ஆஹ் <hes> அதுக்குள்ள நீ ஃபோன் பண்ணியே சொல்ட்டு ஃபோன் பண்றேன் <no-speech> என்ன அம்மா இல்லையா
[434.855]
<no-speech>
[437.665]
<no-speech> ஆஹ் ஆஹ் (())
[442.325]
<no-speech>
[444.235]
சரி ஆன்
[445.705]
<no-speech>
[449.805]
ஆமா ஆமா வருவான் பன்னெண்டு மனிக்கு வருவான் பதினொன்னுக்கு வருவான் பன்னென்டுக்கு வருவான் <sta> அவன் வந்ததுக்கு (()) வரேன்ப்பா வரேன் இந்த தண்ணி முடியட்டும் என்ன பத்தாந்தேதி இன்னும் தண்ணி விடுறான் விடுறான் நம்ம வீட்டுங்களுக்கு <no-speech> தண்ணி
[465.685]
<no-speech>
[466.905]
ஆஹ் அங்க வருது ஆனா வீட்ல தண்ணி வரது கெடயாதுல எங்க வீட்ல <no-speech>
[471.135]
<no-speech>
[473.555]
ஆமா ஆமா லாரி தண்ணி தண்ணி வருது <no-speech> ரோட் காலைல டெய்லியா வரும் <no-speech> தண்ணி வராத நாள் வந்து கொஞ்ச நேரம் தான் வாரும்
[483.085]
<no-speech>
[484.245]
ஆஹ் வர நாள்ல <hes> <int> வரதனால கொஞ்சம் நேரம் வர நாள்னா கொஞ்சம் நெ- நிறைய நேரம் வாரும் சரி நாளைக்கு போய் கூட்டமா இருக்குமே வர நாள்ல ஜனங்க எல்லாரும் வருவாங்கலேனு சொல்ட்டு இன்னைக்கு போனா இன்னைக்கு அதுக்கு மேல இருக்குது கூட்டணி
[496.095]
<no-speech> தலை வலி ஆயிடுச்சு உம்ம் வேலையே ஆகல பாத்துக்கொ ஆஹ்
[501.075]
<no-speech>
[502.985]
(())
[503.615]
<no-speech>
[504.945]
அது எடுத்தனுகுறோம் அது எங்க எல்லாத்தையும் ஒரேடியா சொரண்டி எடுத்துர்ராங்க என்னாத்த பண்றது ஒருத்தரே சொரண்டி எடுத்த அடுத்தவங்களுக்கு என்னாத்த பண்றது (()) அநியாயம் பண்றாங்க இங்கயும் தான் <no-speech> (())
[516.495]
ஆஹ் பத்து கொடத்த நெறன்ஞசதே கொஞ்சம் அட்ஜஸ் பண்ட்டு போணும் அதலெல்லாம் கெடயவே கெடையாது இங்கலாம் போட்டி போட்டிதான் யெல்லாத்துக்கும் போட்டி போட்டுக்குனு எல்லாம் இதும் பண்ணி கெடக்குறாங்க <no-speech> உம்ம் உம்ம்
[526.285]
<no-speech>
[529.435]
ஆன் <sta> பரவால்ல இப்ப பரவால்ல ஆன் என்னங்க இல்ல இல்ல (()) ஆஹ் அதலெல்லாம் இல்ல சித்தப்பாதான் தூக்கிட்டு வரார் தண்ணி புடிச்சு வைக்கிறோம் அவர் தான் தூக்கிட்டு வரார்
[540.775]
<no-speech> முடியல கையும் வேற வலிக்குதா தூக்கம் முடியல
[543.935]
<no-speech>
[545.595]
இந்த கையில் நரம்பு இதெல்லாம் வலிக்குதா <no-speech> அத தூக்கி இடுப்புல வக்கவே முடியல யாராது தூக்கினா இடுப்புல வச்சா தூக்கிட்டு வந்துடுவேன் மெதுவா <no-speech> என்ன சித்தப்பாதான் தூக்கி வருவாரு
[557.035]
அதான் பைட்டு கீட்டு கெளம்பிகினு <sta>
[559.085]
<no-speech>
[559.925]
(())
[560.315]
<no-speech>
[563.575]
(())
[563.955]
<no-speech>
[565.045]
ஆஹ் அறுவது <no-speech> இங்கயே எங்களுக்கு வருமாம்
[571.765]
<no-speech>
[573.855]
உம்ம் சரி சரி <sta> என்ன உங்க வீட்டுக்காரு எப்டி இருக்காரு வேலைக்கி போனாரா <no-speech> ஆஹ்
[580.735]
<no-speech>
[584.385]
ஏன்
[585.105]
<no-speech>
[592.785]
ஆன் <int> ஆன் <no-speech>
[594.245]
<no-speech>
[599.660]
