[0.000]
<no-speech>
[0.015]
<no-speech>
[3.615]
<no-speech>
[6.215]
ஹம் என்னம்மா
[7.635]
<no-speech>
[13.315]
செரிம்மா <no-speech> செரிம்மா செரிம்மா <no-speech>
[16.965]
<no-speech>
[18.155]
ஆஹ் சாப்டேம்மா
[19.475]
<no-speech>
[21.715]
என்னம்மா
[22.755]
<no-speech>
[25.035]
பிரிஞ்சிம்மா
[26.145]
<no-speech>
[29.745]
ஹம் பிரியாவும் நானும் தான் சாப்ட்டோம் <sta>
[33.385]
<no-speech>
[35.175]
அம்மாவப்பாத்தேன் அம்மா வேல செஞ்சிக்கிட்டிருக்காங்க
[40.385]
<no-speech>
[42.795]
<sta> தா <laugh> முணீஸு சும்மா கூவிட்டிக்கினு இருக்கிறான்ஹம்
[51.375]
<no-speech>
[52.695]
கடைக்கு போய்ட்டு வந்தோம்
[53.925]
<no-speech>
[56.445]
ஆஹ்
[57.285]
<no-speech>
[61.855]
ஆஹ்
[62.575]
<no-speech>
[65.605]
ஹம் வந்திடுச்சி அம்மா கமலி வந்திடுச்சி
[68.005]
<no-speech>
[70.755]
அதுவா வெளயாண்டிக்கினுருக்குது அனுவோட தண்ணிலெ
[73.245]
<no-speech>
[74.395]
<sta> இரு <hes> சரவணன் என்னம்மா பண்றான் <int>
[80.015]
<no-speech>
[82.465]
<sta> நானாக்கா வீட்ல நானாக்காவ நான் கேட்டேன்னு சொல்லுமா
[86.315]
<no-speech>
[87.165]
<no-speech>
[87.515]
<no-speech>
[91.595]
<sta> அங்கெயா
[93.365]
<no-speech>
[95.625]
(())
[96.675]
<no-speech>
[98.035]
ஹம்
[98.565]
<no-speech>
[99.455]
நாயுடு வந்து பிரிச்சி எல்லாம் தின்னுப்புடும்
[101.475]
<no-speech>
[107.285]
மஞ்சில்லாப்ல மிதிலை வச்சிருகன்ல <sta>
[112.325]
<no-speech>
[114.055]
<no-speech>
[114.415]
<no-speech>
[115.915]
ஹம் <sta> எல்லாம் வருவாங்க ஊருலருந்நது
[119.625]
<no-speech>
[123.695]
பலகாரம் அங்க செய்யறாங்க அக்கா வீட்ல <no-speech> அது என்னென்னவோ செய்யறாங்க ஊர் சாங்கியம்னு
[130.095]
<no-speech>
[134.215]
ஹம்
[135.115]
<no-speech>
[137.595]
எல்லாம் வாய் எல்லாம் வாங்கி வச்சிருக்கிறோம்
[140.145]
<no-speech>
[141.015]
<sta> என்னம்மா
[145.125]
<no-speech>
[146.155]
யம்மா <sta> அதுவா
[153.235]
<no-speech>
[154.605]
அவ உன்னோட ஃபிரண்ட் <int> வெறுப்பேத்துரா செரியா <sta>
[159.085]
<no-speech>
[161.925]
என்ன
[162.885]
<no-speech>
[163.765]
<sta> துணி வாங்கி வச்சிருக்கோங்க கால் பவுன் நகை மாலை பூவு
[169.375]
<no-speech>
[170.205]
பதினஞ்சிலதான் பழமாவீங்க <no-speech> ஆறில பூவாவீங்க
[176.285]
<no-speech>
[177.725]
அப்- அப்புறம் அஞ்சாறு சாப்பாடு
[180.045]
<no-speech>
[181.875]
<no-speech> அது அஞ்சாறு வித சாப்பாடும்
[184.285]
<no-speech>
[188.105]
ஹம் வாங்கம்மா ஏன் நீங்க தான் தான் வரல
[191.435]
<no-speech>
[193.725]
தறிங்களா
[194.825]
<no-speech>
[195.665]
<sta> பிரியாவா
[198.885]
<no-speech>
[199.915]
<sta> பிரியா தூங்கறா
[203.295]
<no-speech>
[205.725]
ஹம்
[206.635]
<no-speech>
[211.385]
நீங்க மார்க்கெட்டுக்கு போயிருந்தீங்களாமே
[213.495]
<no-speech>
[217.845]
அதான் சரவணா கிட்ட <hes> சொல்லிட்டு வந்தேன் நான்
[221.025]
<no-speech>
[224.445]
டேய் ஒன்னுமே சொல்லாதிருந்தயா
[226.665]
<no-speech>
[228.205]
சொல்லிட்டு வந்தாளாமா
[229.805]
<no-speech>
[237.605]
<sta> இப்பயா <no-speech> இப்ப யெவன் சாப்டுவான்
[240.005]
<no-speech>
[242.175]
லெமன் லெமன்
[243.325]
<no-speech>
[245.575]
ஹம்
[246.395]
<no-speech>
[247.615]
<sta> கறி மீனெல்லாம் கவ்- கௌசி தரக்கூடாதாம் நைட்டி தான் முடிஞ்சினிக்கப்பிட கவுச்சு
[251.815]
<no-speech>
[256.915]
<sta> கோழிக்கறி செய்யறேனில்ல
[258.635]
<no-speech>
[262.635]
ஹம்
[263.355]
<no-speech>
[266.595]
அது அவங்க கும்புடுவாங்கம்மா <no-speech> எங்க வீட்ல ஒண்ணுமில்லெல்ல
[270.595]
<no-speech>
[274.765]
நான் கும்பிடல
[275.925]
<no-speech>
[278.805]
<laugh> அப்படியிருக்குதே அதனால கும்பிடல
[282.035]
<no-speech>
[285.865]
என்ன
[286.415]
<no-speech>
[288.195]
சின்ன மாமா பெரிய மாமாவெல்லாம் வந்திருக்காங்களா <no-speech> இருக்காங்களா <sta>
[292.935]
<no-speech>
[299.095]
ஏன்
[299.885]
<no-speech>
[304.625]
ஐயையோ <no-speech> இரு <sta> இரு நான் வந்து கவனிச்சிக்கறேன்
[307.705]
<no-speech>
[312.385]
அம்பியா <no-speech> சரி நான் ஒரு நாள் ஞாயித்துக்கிழம டைம்ல மதியம் டைம்ல வரேன் <no-speech> வந்து செஞ்சு கொடுத்துட்டு வரேன்
[318.055]
<no-speech>
[319.445]
செய்து எடுத்துனு வரேன்
[320.885]
<no-speech>
[322.765]
செய்து எடுத்தன் வரேன்
[324.045]
<no-speech>
[326.535]
ஹம் <no-speech> ஹம்
[329.035]
<no-speech>
[332.795]
என்ன வேணும் உங்களுக்கு
[334.275]
<no-speech>
[338.545]
<sta> மாம்பழம் செஞ்சு எடுத்திட்டு வரட்டா
[341.285]
<no-speech>
[343.245]
பால் பாயாசம்
[344.495]
<no-speech>
[345.575]
<sta> எடுத்துட்டு வரட்டா
[350.895]
<no-speech>
[353.285]
அப்புறம் என்ன வேணும் <sta>
[356.165]
<no-speech>
[358.935]
<no-speech>
[360.915]
<no-speech>
[364.535]
ஹம் ஹம் <sta>
[365.865]
<no-speech>
[366.755]
ஹலோ <no-speech> பாயாசம் செஞ்சு எடுத்துனு வருவேன் கேசரி எடுத்துட்டு வந்து செய்யறேன் <no-speech> எடுத்திட்டு வருவேன்
[372.995]
<no-speech>
[374.235]
<sta> அப்புறம் சாப்பாடும் எடுத்திட்டு வருவேன்
[377.885]
<no-speech>
[380.185]
ஹம் *கோந்தியம்* வேணுமா
[381.905]
<no-speech>
[384.015]
சரி எடுத்துகினு வரேன் எடுத்துகினு வரேன்
[385.675]
<no-speech>
[388.075]
ஹேமா <hes> அப்புறம் <no-speech> பிரியாவ நாளக்கித்தான் அனுப்புவேன்
[393.265]
<no-speech>
[394.315]
<no-speech>
[394.715]
<no-speech>
[398.145]
அவ ஒண்டியா <no-speech> அது போகவுட உடமாட்டேன் நானும் <no-speech> நாளைக்கு நைட் அதான் வேல- ஏம்மா வேலைக்கி இப்டியே போய்ட்டு
[410.035]
<no-speech>
[411.505]
இப்டியே அனுப்பிச்சிவுடறேன் <no-speech> நைட்டுக்கு அப்படியே வந்திருவா
[413.715]
<no-speech>
[416.405]
டிரஸ் எடுத்துட்டு வந்திருக்கயாடி
[417.895]
<no-speech>
[418.715]
எடுத்துட்டு வந்திருக்காளாமா அப்பிடி என்ன உடுப்பாளோ அத நான் தாரேன்
[421.295]
<no-speech>
[423.875]
ஹம் <sta>
[425.785]
<no-speech>
[427.085]
ஏன்
[427.945]
<no-speech>
[432.135]
என்னது
[433.155]
<no-speech>
[437.615]
ஐயையோ <laugh> ஹம் அப்படியெல்லாம் ஒண்ணுமில்லேம்மா
[442.475]
<no-speech>
[446.395]
ஹை *என்டை* என்ன அப்பிடிப்பாக்குது <no-speech> அவளுது என்ன குச்சி மாதிரி இருக்கா அவ
[450.115]
<no-speech>
[454.795]
<laugh> நல்லாருக்கும் காமெடியாயிருக்கும்
[458.035]
<no-speech>
[458.965]
<no-speech>
[460.345]
<no-speech>
[462.345]
அம்பியா இரு ஹம் டைட் பிட்டிங்ல சூப்பராயிருக்கும்
[467.025]
<no-speech>
[468.315]
<int> ஓர் துளியும் இல்லங்க நான் பாத்துக்கறேன் அவள
[471.745]
<no-speech>
[473.495]
ஹம் சூப்பராயிருக்கா அத நெனச்சு பாக்கறாடி ஃபிரியா எப்படியிருக்குதுன்னு
[477.915]
<no-speech>
[481.425]
யார் அதுவா <no-speech> அது அடிக்காதய்யா அது அடிக்கப்போகுது ஏன் நான் அத அடிப்பேன்
[486.715]
<no-speech>
[491.885]
ஹம் எதுமே <sta> சொல்லலே <no-speech> வந்தவுடனே எல்லாரியும் முடிச்சிட்டேன்
[496.625]
<no-speech>
[501.265]
தண்ணி புடிக்கல தண்ணிஅப்புறம் <no-speech> புடிச்சு வச்சுட்டு ஒன்னு அப்புறம் பிரியாவ அனுப்பிச்சிட்டு வேறென்ன துனியெல்லாம் தொவச்சிப் போட்டு சாப்பாடுலாம் செஞ்சேன் <no-speech> அக்கா மாமாவெல்லாம் வராங்கனு எல்லாம் வேலையும் முடிச்சேன்
[512.075]
<no-speech>
[515.945]
ஹம்
[516.575]
<no-speech>
[518.925]
ஹம் அதெ- அதெல்லாம் ஜாலியா இருக்கும்
[521.745]
<no-speech>
[524.385]
இல்லேம்மா
[525.575]
<no-speech>
[529.235]
ஐயோ அப்பிடியா அவர் பெரிய அப்போட்டாகிற நெனப்பு அவருக்கு
[532.295]
<no-speech>
[533.125]
அப்பிடியே
[533.795]
<no-speech>
[537.405]
ஹம்
[538.115]
<no-speech>
[539.515]
<no-speech>
[539.885]
<no-speech>
[541.655]
ஐயோ <no-speech> நான் சொல்றேன்
[544.435]
<no-speech>
[551.805]
நான் சொல்றேன் இப்ப இவர் ஃபோன் பண்ணுவார் சொல்றோம்
[554.675]
<no-speech>
[556.875]
ஹம் ஃபோன்
[558.845]
<no-speech>
[560.795]
ஓனர் <laugh> ஓனர் எண்ணா பண்றான்னு தெரியல <no-speech> நாளக்கிப் போனா தான் தெரியும் என்ன ஆயிருக்குதுன்னு தெரியல <int>
[566.805]
<no-speech>
[567.855]
<no-speech>
[568.295]
<no-speech>
[571.875]
<int> நிக்க போறேன்ராளா
[573.815]
<no-speech>
[577.155]
ஏம்மா
[578.535]
<no-speech>
[584.615]
ஹலோ ஹம் நான் நேத்திக்கு அதான் போனா <int> வேலைக்கி நிக்கப்போறேன்னு இங்க வந்து என்ன பீலாவுட்டுட்டு இருக்கிறே <no-speech> நிக்கப்போற
[594.935]
<no-speech>
[597.795]
அதான் அது நின்னா வீடு பூந்த நாய்
[600.035]
<no-speech>
[600.200]
