[0.000]
<no-speech>
[1.505]
<no-speech>
[1.975]
<no-speech>
[3.875]
ஹலோ
[4.535]
<no-speech>
[5.435]
ஆம் ஆன் எப்பிடி இருக்க மாமா
[7.545]
<no-speech>
[9.505]
நல்லாஇருக்கேன் மாமா நீங்க எப்பிடி இருக்கீங்க
[11.015]
<no-speech>
[15.885]
சரி சரி சரி அதுனால என்ன
[17.415]
<no-speech>
[20.095]
<sta> ஆன் சரி மாமா <no-speech> சொல்லுங்க மாமா
[22.295]
<no-speech>
[24.175]
<sta> இங்க சும்மா தான் இருக்கன் வீட்ல அப்பிடியே இதா இருக்கு <no-speech> சரியா
[29.545]
<no-speech>
[30.605]
இல்ல மாமா ரெண்டு நாளைக்கு ஒரு மொற சந்த நடத்திட்டு இருக்கும்
[33.545]
<no-speech>
[38.355]
சந்தைக்கு போறேன் மாமா சாயந்திரம் நான் கூட்டிட்டு போவேன்
[41.535]
<no-speech>
[48.045]
கடை இல்ல மாமா கடதான் எடுத்தாச்சே எப்பயே
[50.135]
<no-speech>
[51.735]
ஆன் கடை தான் எடுத்தாச்சு சாயந்திரம் ஓர் நால் மனிக்கு மேல போவேன்
[55.475]
<no-speech>
[57.555]
<sta> உம்ம் அது போய்ட்டா வரும்போது நைட்டி பத்து பதினொன்னு ஆயிடும்
[61.205]
<no-speech>
[64.265]
<sta> வாரத்துக்கு நால் நாள் அஞ்சு நாள் போவோம்
[66.895]
<no-speech>
[70.505]
<sta> வெளில இருக்கன் மாமா வேளைல அந்த ஃபிளாட் இருக்குல்ல அங்க இருக்கன்
[73.415]
<no-speech>
[76.535]
ஆன் சும்மா தான் அப்பிடியே
[79.235]
<no-speech>
[80.845]
போடப்போறோம்
[82.205]
<no-speech>
[84.295]
ஆன் அதான் வாங்கிட்டு வந்தேன்
[86.175]
<no-speech>
[87.795]
<sta> அது தான்
[88.665]
<no-speech>
[89.645]
உம்ம் நல்லா இருக்கன் மாமா
[90.945]
<no-speech>
[94.825]
உம்ம்
[95.465]
<no-speech>
[96.495]
(())
[96.975]
<no-speech>
[98.215]
<sta> அதான் வரேன்னு சொல்லிட்டு வரவே இல்ல
[100.335]
<no-speech>
[105.275]
<sta> சரி நீங்களும் வருவீக வருவீகனு பாத்தேன் அன்னிக்கி வரேன்னு சொன்னீங்கோ அதுக்கப்புறம் ஓர் வாரம் கழிச்சு வரேன்னு சொன்னீங்கோ அதுக்கப்புறம் வரவே இல்ல
[110.255]
<no-speech>
[118.975]
<sta> ஆமாமா ஆமாமா சரி நான் ஃபோன் பண்றேன் உங்களுக்கு ஃபோன் பண்றேன் நீங்க வாங்க
[122.655]
<no-speech>
[125.595]
ஆன் நல்லா இருக்காங்கனேன்
[126.655]
<no-speech>
[128.995]
<sta> ஆன் நல்லா இருக்காங்க
[130.185]
<no-speech>
[131.785]
<sta> ஏன் மாமா
[132.695]
<no-speech>
[135.405]
இல்ல இல்ல அதெல்லாம் ஒன்னும் இல்ல பிரச்சன மேல பிரச்சன தான் ரொம்ப ஓவரா போயிட்டு இருக்கு
[140.365]
<no-speech>
[144.475]
<sta> ஆன்
[146.145]
<no-speech>
[148.405]
<sta> பழய <no-speech> ஆமாம்
[150.085]
<no-speech>
[152.185]
ஆமாம்
[153.025]
<no-speech>
[156.915]
ஆன்
[157.625]
<no-speech>
[160.055]
<sta> உம்ம அங்க பழய வீட்டுக்கு எதுனா இதுனா வாடக இது கம்மியா எப்பிடி கம்மியா
[163.905]
<no-speech>
[167.195]
<sta> உம்ம் <no-speech> சரி
[169.055]
<no-speech>
[171.745]
உம்ம் அதான் இப்ப மின்னாச்சி அங்க வீட்ல இருந்தாக ஒண்ணும் தெரியல இப்ப எல்லாம் பள்ளி எல்லாம் ஸ்கூலுக்கு போக ஆரம்பிச்சிடுச்சுங்க இல்ல
[177.575]
<no-speech>
[183.285]
<no-speech>
[183.655]
<no-speech>
[184.475]
<sta> வரலாம்னு பாக்குறேன் எங்க மாமா வர முடியுது அப்பிடியே வீட்ல செல செல பிரச்சினைகள்
[190.355]
<no-speech>
[196.075]
உம்ம் சரி வாங்கலேன் அப்பிடியே கொஞ்சம் பிரச்சினையா இருக்குன்னு சொல்லிட்டு இன்னும் ஓர் வாரத்துல
[200.765]
<no-speech>
[203.665]
<sta> ஆமாம்
[204.465]
<no-speech>
[213.365]
<sta> அவருக்குத்தான் ஏதோ முடியாத ரொம்ப ஆபரேஷன் பண்ணி இங்க இருக்க கூடாதுனு சொல்லி மெட்ராஸ் லேருந்து ஆபரேஷன் பண்ணி வந்தாரே என்ன
[219.195]
<no-speech>
[221.785]
(())
[222.735]
<no-speech>
[225.295]
அவர் தான் சம்பா மாமாவுக்குத்தான் ரொம்ப ஓவரா சீரியஸ்ஸா ஆய் ஹார்ட் <foreign> ஆய் அதான் இதா அதான் ஆய் சாகற கண்டிஷன்ல ஆய் இதிலே ஆய் அப்புறம் காந்தி எடுதிட்டாறாமில்ல
[233.375]
<no-speech>
[235.845]
அது போய் இப்ப தான் மூனு மாசத்துக்கு மேல ஆகுமே ரெண்டு மாசத்துக்கு மேல ஆகுமே போய் அங்க இருந்தும் பத்து லட்ச ரூவா வரைக்கும் செலவு பண்ணிட்டு வந்திருக்காக பதினஞ்சு லட்ச ரூவா பத்து லட்ச ரூவா செலவு பண்ணி அப்பொல்லோல வச்சு
[244.275]
<no-speech>
[245.165]
ஆன் அப்பொல்லோ வச்சு பாத்துட்டு அப்புறம் சரி பண்ணிட்டு வந்திருக்காகலாம் இந்த மாதிரி சரக்குன்னு கைய தொட்டாருனா உசிர விட்ற வேண்டியது தான் தான்
[251.625]
<no-speech>
[260.945]
அதி பங்க்ஷன் முடிஞ்சி அதுக்கப்புறம் இப்ப நடந்ததே என்ன பண்ணி கொடுத்தாகனா எனக்கு <no-speech> எனக்கு ஏதோ ஓர் வேல இருக்குன்னு மாமனார் ஏதோ ஓர் வேல கொடுத்திருக்காருனு மெட்ராஸ் போயிட்டான் மெட்ராஸ் இல்ல ஆன் சேலம் போனான்
[271.615]
<no-speech>
[273.775]
ஆன் சேலம் போய்யிருந்தான் சேலம் போம்போது இந்த மாதிரி ஃபோன் போட்டு இந்த மாதிரி இதாயிடுச்சு ஆன் வாண்ணான்
[278.755]
<no-speech>
[283.485]
<sta> (()) யார்
[285.365]
<no-speech>
[288.485]
<sta> ஆன் நல்லா இருக்காரு நல்லா இருக்காரு இவருக்கும் என்ன இவர் இப்ப தான்
[290.985]
<no-speech>
[292.805]
ஆன் என்னிக்காவது ஒரு நாள் பேசுவான் முன்னா மாதிரியெல்லாம் இப்ப டச் இல்ல
[295.535]
<no-speech>
[298.965]
இல்லியே நான் கூப்பிடவே இல்லயே என்னானுக்கு என்னன்னு சரி அதுக்குத் தான் தான் அவர் கோவத்த்துல இருக்காரு
[303.065]
<no-speech>
[304.085]
(())
[306.235]
<no-speech>
[307.875]
எதுக்கெடுத்தாலும் நம்ம பைய யெதிர் பார்த்தா எப்பிடி அப்புறம் நம்ம என்ன மாமா பண்ணுறது (())
[313.515]
<no-speech>
[318.055]
ஆன் சொத்து மட்டும் சம்பாரிச்சு வச்சா போதுமா
[320.765]
<no-speech>
[323.875]
ஆன்
[324.425]
<no-speech>
[325.605]
அப்புறம் அவுகல்லாம் ஒண்ணா இருக்காக இப்ப
[327.355]
<no-speech>
[329.815]
ஆன் பெரிய வாந்திங்கறவன் இப்ப கடைல தான் இருக்கான் வியாவாரம் பண்றாங்க வியாவாரம் நல்லா கத்துட்டாங்க இந்த போன வாரத்துல போன வாரத்துல காசிக்கு போயிருக்காரு
[338.015]
<no-speech>
[342.185]
ஆன்
[342.875]
<no-speech>
[347.675]
ஆன்
[348.205]
<no-speech>
[353.895]
எதாவது வேலையா வந்திருப்பாங்க
[355.415]
<no-speech>
[362.645]
அதெல்லாம் எனக்கு தெரியாது எங்க அப்பாவ பாத்து பேசுனு சொல்லிட்டு போயிட்டே இருக்க வேண்டியது தானே
[365.365]
<no-speech>
[373.575]
<no-speech>
[375.245]
<no-speech>
[377.735]
<sta> ஆன்
[378.325]
<no-speech>
[384.495]
உம்ம் ஆன் வந்து கேட்டுக்கிட்டா பேசிக்கறலாம் ஒண்ணும் பெரிய விஷயமில்ல பெரிய (())
[389.405]
<no-speech>
[393.015]
<no-speech>
[393.375]
<no-speech>
[398.325]
உம்ம் நான் வந்தா வரேன் மாமா
[399.905]
<no-speech>
[403.005]
அடுத்த வாரம் இப்ப கூப்பிடாதவகல எப்ப கூப்பிட்ட போறோம் <laugh>
[405.555]
<no-speech>
[407.245]
<sta> அங்க வந்தா ஃபர்ஸ்ட் ஒங்களுக்குத்தானே ஃபோன் பண்ணுவோம்
[409.295]
<no-speech>
[412.875]
உம்ம்
[413.435]
<no-speech>
[416.705]
ஆன்
[417.235]
<no-speech>
[420.585]
<sta> ஆமாம்
[421.415]
<no-speech>
[425.865]
<sta> ஆன்
[426.415]
<no-speech>
[429.985]
<sta> ஆன்
[430.545]
<no-speech>
[434.985]
<sta> (()) நல்லா இருக்கா
[437.065]
<no-speech>
[439.165]
<sta> அக்கா நல்லா இருக்கா
[440.305]
<no-speech>
[444.255]
<sta> ஆன் குடுங்க குடுங்க
[446.415]
<no-speech>
[447.265]
ஆன் சொல்லுங்க
[448.175]
<no-speech>
[451.695]
<sta> யார்
[452.645]
<no-speech>
[459.115]
<sta> ஆமாம்
[459.885]
<no-speech>
[467.685]
<sta> ஆன்
[468.285]
<no-speech>
[474.555]
ஆன்
[475.115]
<no-speech>
[476.965]
ஏன் இங்க ஓர் சுத்து அங்க தான் ஓர் சுத்து சுத்திருக்கீங்களே
[478.955]
<no-speech>
[480.695]
அங்க தான் ஓர் சுத்தும் இல்லயே
[482.205]
<no-speech>
[487.125]
நான் தான் போய் எடுத்து போட்டுட்டு வந்தேன்
[488.785]
<no-speech>
[494.375]
<no-speech> எனக்கு தெரியாதே இதெல்லாம்
[496.885]
<no-speech>
[498.575]
<sta> அன்னிக்கு ஆறுமே தூக்கி போடறதுக்கு ஆள் இல்ல லாஸ்ட் மினிட் ரெண்டு கையால ரெண்டு பக்கம் ரெண்டு கையால போய் தூக்கி போட்டுட்டு வந்தேன் நானும்
[504.735]
<no-speech>
[509.965]
<sta> ஆன்
[510.575]
<no-speech>
[512.985]
<sta> ஆன்
[513.675]
<no-speech>
[516.335]
<sta> ஆமாமா எடுத்துட்டீங்க இல்ல
[518.085]
<no-speech>
[520.915]
<sta> ஆன்
[521.545]
<no-speech>
[522.455]
<sta> ஆன்
[523.065]
<no-speech>
[525.965]
உங்களுக்கு ஏன் உங்களுக்கு தேவயில்லாத எங்களுக்கு ஏன் பிரச்சினை நம்ம பாட்டு பொழப்ப பாத்துட்டு போவோம் சொல்லிட்டு போங்க ஏன் தேவாயிலாமா பண்ணிக்கிட்டு
[530.315]
<no-speech>
[535.005]
நம்பளுக்கு இங்க ஒண்ணும் அப்பிடீ ஒண்ணும் நம்ப கிட்ட இன்னும் சொல்லல அவங்க
[538.205]
<no-speech>
[539.745]
நீங்க ஒதிங்கிங்க மாமா இதெல்லாம் உங்களுக்கு தேவ இல்லாத வேல ஆமாம் நமக்கு தேவ இல்லாத வேல நம்ம குடும்போம் நாம் வேலைன்னு பாத்திட்டு போயிட்டு இருக்கோம்
[545.315]
<no-speech>
[549.945]
<sta> ஆன் (())
[553.135]
<no-speech>
[554.705]
நீங்க போய் கேட்டேங்கனா அதுக்கு நீங்க தான் அலயணும் உங்களுக்கு இதும் தூரம் நீங்க அது உங்க வேல வெட்டிய விட்டு அங்க போணும்
[560.095]
<no-speech>
[564.645]
நம்பளுக்கெல்லாம் சொல்லவே இல்ல இதுவரைக்கும் சொல்லல சொல்லல
[566.775]
<no-speech>
[575.485]
<sta> அது எதுக்கு நம்பளுக்கு ஏன் தேவ இல்லாத வேல எவனோ முட்டி மோதி போய் பாத்துட்டு போறாங்க போங்க
[580.465]
<no-speech>
[588.555]
<sta> உம்ம்
[589.055]
<no-speech>
[590.565]
<no-speech>
[590.935]
<no-speech>
[591.975]
<sta> உம்ம்
[593.355]
<no-speech>
[597.915]
<sta> உம்ம்
[598.325]
<no-speech>
[599.240]
