[0.000]
<no-speech>
[0.835]
(()) <hes> ஹம் தயாராக இருக்கிறேன் ஹம் தயாராக இருக்கிறேன் ஹம் ஹலோ வணக்கங்க
[6.035]
<no-speech>
[7.805]
ஹம் சொல்லு சொல்லும் ஹம்
[9.225]
<no-speech>
[11.435]
ஆஹ் ஆஹ் சாப்டாச்சு <no-speech> ஹம் என்ன சாப்பாடும்
[14.165]
<no-speech>
[16.665]
ஆன் டயூஷன்தான் போயிருக்கான் <no-speech> போயிட்டு இதோ <int> இப்ப உடனே <sta> உடனே வந்திருவான்
[21.175]
<no-speech>
[23.735]
ஆமா <no-speech> ஆஃபீஸ் இந்தா ஆஃபீஸ் போயிருக்கிறாரு <no-speech> வந்திருவாரு <int> ஹம்
[29.755]
<no-speech>
[33.625]
ஹம் <int> செரிறி டெய்லிமா கேக்றேன் தினம் எக்ஸாம் வெக்கிறாங்க <hes> எக்ஸாம் வச்சு <hes> கரக்சனும் பண்றாங்க
[41.925]
<no-speech>
[43.175]
ஹம் ஹம் மார்க்கெல்லாம் நல்லா வாங்கறான்
[46.215]
<no-speech>
[47.555]
<no-speech>
[48.155]
<no-speech>
[49.285]
சாப்பாடும் நல்லா இருக்கு <no-speech> காலையில மதியம் ஹம் இரவு எல்லாமே <no-speech> எல்லாமே இருக்கு <no-speech> டெய்லிஹம்ஹம் <hes> நல்லாவும் சாப்பிடறோம்
[59.985]
<no-speech>
[63.325]
ஹம் நல்லா இருக்குது <no-speech> அவங்க அவர் மருத்துவருகிட்ட கூட்டிக்கிணு போய்ட்டு <no-speech> மா-மருந்து மருந்து மாத்திரையெல்லாம் கொடுத்தாங்க <no-speech> இப்ப நல்லாயிருக்குது <no-speech> ஹம் இப்ப நல்லாயிருக்கிறான்
[75.295]
<no-speech>
[77.365]
<int> பூஜ- ஆஹ் புதன்கிழமை காலையில பூஜை பண்ணணும் <no-speech> அதற்கடுத்து
[82.525]
<no-speech>
[84.065]
விநாயகர் கோயில் <no-speech> விநாயகர் ஹம் முருகர் கோயிலுக்கும் பூஜை பண்ணிட்டு அங்கிருந்து வந்து வீட்டுக்கு தலை வாசக்கால் வச்சோம் <no-speech> அந்த அது முடிஞ்சி
[94.865]
இல்ல அதுக்கப்புறம் இங்க ஒரு கும்பாபிஷேகம் <no-speech> பூமிநாதர் ஆலயம்
[98.935]
<no-speech>
[100.605]
இப்ப அதுக்கு அங்க போய் (()) ஹம் எல்லாரும் குடும்பத்தோட கொழந்தகளோட போய்ட்டு கும்பாபிஷேகத்தில கலந்துக்கினோம் <no-speech> அதுக்கப்புறம் பிரசாதம்லாம் (())
[110.585]
<no-speech>
[114.335]
எல்லாம் சொந்தம் எனக்குத்தான் <no-speech> அத்த தம்பி தம்பி தம்-
[119.025]
<no-speech>
[120.055]
<no-speech>
[120.535]
<no-speech>
[122.085]
பாபு <no-speech> தம்பி மனைவி வந்து தேவி
[126.135]
<no-speech>
[128.095]
அதுக்கடுத்து ஆன் எங்க வீட்டுக்காரு <sta> ஆன் (())
[130.995]
<no-speech>
[133.195]
ஆஹ் ஆஹ் தாம்பூலமெல்லாம் கொடுத்தேன்
[134.835]
<no-speech>
[135.665]
மஞ்சள் குங்குமம் ஹம் காசு எல்லாம் கொடுத்தோம் <no-speech> அதுக்கப்புறம் இங்க வந்து வாசக்தால் நிக்க வந்தவங்களுக்கு எல்லாருக்கும் ம்ரியாத கொடுத்தோம் <no-speech> வேஷ்டி
[144.155]
<no-speech>
[145.615]
ஹம் துண்டு எல்லாம் கொடுத்தோம்
[147.125]
<no-speech>
[150.325]
ஹம் ஸ்கூலுக்கு போய்ட்டு வந்தோம் இன்னிக்கு குடியரசு தின விழா <no-speech> அறுபத்திநாலாவது குடியரசு தின விழா <no-speech> அத <foreign> நல்லா கொண்டாடினோம்
[157.215]
<no-speech>
[158.125]
<sta> (()) கொண்டாடிட்டு <hes> பள்ளியில இருக்குற கொழந்தைகளுக்கு எல்லாருக்கும் இன்னிக்கி <hes> இனிப்பும் கொடுத்தோம்
[165.095]
<no-speech>
[166.295]
எங்களுக்கும் எங்களுக்கும் கொடுத்தாங்க <no-speech> பள்ளியில
[169.405]
<no-speech>
[170.225]
ஹம் ஹம் உஊம்
[171.735]
<no-speech>
[179.735]
ஆமாம் <no-speech> ஹம் <int>
[182.355]
<no-speech>
[186.835]
ஆஹ் ஆஹ்
[187.575]
<no-speech>
[190.485]
ஹூம் ஹூம்
[191.195]
<no-speech>
[192.255]
வாங்க
[192.885]
<no-speech>
[194.635]
ஹம்
[195.325]
<no-speech>
[197.995]
ஹம்
[198.555]
<no-speech>
[203.605]
ஹம்
[204.325]
<no-speech>
[206.045]
உம்ம் (())
[208.315]
<no-speech>
[216.785]
ஆஹ் ஆஹ் அத முடிச்சிட்டு அப்பிடியே (()) ஆஹ் (())
[221.825]
<no-speech>
[222.855]
ஆன் கையாறது
[223.775]
<no-speech>
[227.905]
ஆமாம்
[228.705]
<no-speech>
[229.785]
ஹம் அப்பிடியே ஆரணிக்கும் வராங்களாம் <no-speech> ஆரணிக்கு வந்து ஹம்
[235.125]
<no-speech>
[236.145]
ஹம் ஆரணிக்கு வந்து கப்பங்காய் ஹம் நீங்கல்லாம் சாப்டீங்களா
[241.685]
<no-speech>
[244.765]
ஹூம் ஹூம்
[245.225]
<no-speech>
[247.345]
(()) நேரம் கேடச்சா நானும் ஆரணி வரேன் இல்லேனாக்கா அப்டியே சென்னைக்கு திரும்பிட்றேன் அப்பிடின்ற மாறி சொன்னாங்க
[255.265]
<no-speech>
[262.555]
ஹூம் ஹூம்
[263.185]
<no-speech>
[266.195]
ஆமா ஹம் அந்தமான் போய்ட்டு வந்துட்டார் <no-speech> ஹம் நல்லா
[270.965]
<no-speech>
[272.005]
முந்தாநாள் நா- இரவு வந்திட்டாரு
[274.065]
<no-speech>
[275.695]
<sta> ஹூம் ஹூம் (()) பயணமெல்லாம் நல்லாருந்ததாம் எல்லாம் நல்லா சுத்தி பாத்திருக்காங்க
[282.515]
<no-speech>
[284.315]
ஹம் உடல் நிலையெல்லாம் நல்லாருக்குதாம் <no-speech> ஹம் மறுபடியும் வந்து வே வே- மருத்துவ மனைக்கு கிளம்பிட்டாரு
[290.725]
<no-speech>
[291.985]
<no-speech>
[292.605]
<no-speech>
[298.095]
இன்னும் முடிவு தெரியல <no-speech> வந்து பாத்திட்டு போயிருக்காங்க <no-speech> அதுக்கப்- இன்னும் எதுவும் முடிவு பண்ணல <no-speech> அவங்க தாய் தந்தையரெல்லாம் வேற வரதாச்சொல்லியிருக்குறாங்களாம்
[306.085]
<no-speech>
[307.055]
ஆன் அதுங்காட்டியும் எது எவ்வளவோ <no-speech> பரீட்சையெல்லாம் எழுதினேனில்ல <no-speech> ஆசிரிய பயிற்சி இப்ப படிச்சிட்டிரிந்தாளில்லயா <no-speech> அதுக்கு எக்ஸாம் எழுதணும் <no-speech> தகுதித்தேர்வு தகுதித்தேர்வு
[318.725]
ஹம் தயாராயிரு ராம்
[320.615]
<no-speech>
[323.665]
அவங் அவங்க <int> சொந்த ஊர் வந்து மலேசியால இருக்கிறாங்க போலிருக்குது <no-speech> <foreign> வந்து இந்த பக்கம் எங்கேயோ பதுப்பேட்டை பக்கம் போலிருக்குது <no-speech> சொந்த ஊர் <no-speech> அவங்க போய் <int> ஹம்
[334.895]
<no-speech>
[337.155]
ரெண்டை <no-speech> இரண்டு மகன்கள் மட்டும்
[339.355]
<no-speech>
[340.485]
<sta> ஹம் இவர் மூத்தவர் <no-speech> இளையருக்காகணும் <no-speech> ஃபர்ஸ்ட் மகனுக்கு திருமணமாகிட்டு இரண்டு கொழந்தைகள் இருக்காப்பல இருக்குது <no-speech> அதுக்கப்புறம் இவர் இரண்டாவது மகன்
[350.735]
அதுக்கப்புறம் அதுக்கடுத்து ஓர் வரன் வந்தது <no-speech> காங்கேய நல்லூர் <no-speech> கிருபானந்த வாரியார் பிறந்தாரில்லயா
[356.865]
<no-speech>
[358.525]
ஹம் கிருபானந்த வாரியார் சொற்பொழிவாளர் கிருபானந்த வாரியார் பொறந்த ஊர் அவர் <no-speech> அந்த ஊர்லேர்ந்து ஓர் வரன் வந்தது
[364.925]
<no-speech>
[365.995]
<sta> அவர் மாப்பிளை பேங்களூர்ல வேல செய்யறாரு
[370.325]
<no-speech>
[372.005]
(()) <sta>
[372.985]
<no-speech>
[374.175]
ஹூம் ஹூம் ஏதோ சாஃப்ட்வேர்ல எதுலியோ ஒர்க் பண்ற- <no-speech> இந்த கணிணி இதும் போல ஒர்க் பண்றார் போலிருக்குது
[379.815]
<no-speech>
[380.825]
அதுனா ஆஹ் ஹம்
[381.935]
<no-speech>
[386.575]
ஹம் நான் சாய்- போயிடணும் ஹம்
[388.875]
<no-speech>
[390.575]
ஹம் அவளுக்கென்னப்பா
[392.365]
<no-speech>
[395.575]
(())
[396.065]
<no-speech>
[397.765]
ஹம் ஹம் நம்ம நம்ப பக்கமா எழுதுற மாதிரியெழுது <sta>
[401.595]
<no-speech>
[405.725]
ஆஹ் இங்க இருக்கறாங்க <no-speech> ஆரணிப்பக்கத்தில <no-speech> ஆரணிப்ப- பட்டு ஆரணிப்பட்டுன்றாங்களே <no-speech> ஹம் இரும்பேடு பக்கத்துல பக்கத்துல கீவாளூர்ப்போ-
[416.795]
<no-speech>
[418.095]
ஹம் அந்த பெயர்க்குறிப்பு ஹம் ஜாதகக்குறிப்பு அவர் பொறந்த நேரம் அந்த குறிப்பெல்லாம் எடுத்திட்டு வந்துருங்க <no-speech> நாம எழுதிடலாம்
[427.565]
<no-speech>
[428.475]
ஹம் தம்பிக்கும் எழுதிடறேன் <sta>
[430.155]
<no-speech>
[432.025]
ஹம் தாமரைத்தோப்புக்கு இந்த பக்கம்
[435.185]
<no-speech>
[436.055]
பிரபு ஹம் பிரபு வித்துட்டான்
[437.725]
<no-speech>
[438.665]
ஹம்
[439.415]
<no-speech>
[440.965]
ஏய்
[441.385]
<no-speech>
[449.705]
ஹூம் ஹூம்
[450.385]
<no-speech>
[457.415]
<no-speech>
[458.095]
<no-speech>
[459.055]
சரி சரி
[459.945]
<no-speech>
[461.485]
சரி நீங்கல்லாம் வரும்போது சேலம் ஓர் முறை வாங்க <no-speech> கிருஷ்- கிருஷ்ணப்பா நீங்கெல்லாம்
[466.135]
<no-speech>
[469.005]
ஹம்
[469.735]
<no-speech>
[471.465]
ஹூம் ஹூம்
[473.095]
<no-speech>
[475.455]
ஹூம் ஹூம்
[476.095]
<no-speech>
[479.555]
பொங்கல் எல்லாம் நல்லா கொண்டாடினீங்களா <sta> பொங்கலெல்லாம் நல்லா கொண்டாடினீங்களா
[484.745]
<no-speech>
[486.065]
ஹம் எத்தன நாள் கொண்டாடினீங்க பொங்கல்
[488.115]
<no-speech>
[489.125]
எத்தன நாள்
[489.815]
<no-speech>
[491.285]
ஆஹ் <int>
[491.775]
<no-speech>
[493.885]
ஆன் <int>
[494.605]
<no-speech>
[495.415]
ஹம்
[495.985]
<no-speech>
[497.285]
திருப்பாவையிலே
[498.195]
<no-speech>
[499.335]
ஹம்
[500.005]
<no-speech>
[503.115]
ஹூம் ஹூம்
[503.625]
<no-speech>
[508.165]
ஹம்
[508.825]
<no-speech>
[511.045]
ஆஹ் ஹம் நானும் நானும் பொங்கலண்ணைக்குஎங்கயும் போகலையா வெளியில
[515.215]
<no-speech>
[518.315]
<sta> ஏங்க எங்கினா கடற்கரைக்கு எங்கினா போய்ட்டு வரது
[521.225]
<no-speech>
[524.905]
ஆன்
[525.475]
<no-speech>
[527.585]
உஊம்
[528.165]
<no-speech>
[530.375]
ஹூம் ஹூம்
[530.945]
<no-speech>
[531.745]
இருப்பன்
[532.555]
<no-speech>
[533.575]
நம்ம குலதெய்வக் கோயிலுக்கும்
[534.845]
சிதம்பரத்துக்குப் போப்போற நீ
[535.940]
