[0.000]
<no-speech>
[0.275]
<no-speech>
[1.975]
<no-speech>
[3.635]
<sta> ஹலோ <no-speech> அஹ் ஆஹ் சொல்டா <no-speech>
[6.015]
<no-speech>
[8.925]
<sta> டேய் சொல்லறா புண்ட அசிங்கமா திட்டிருவேன் <no-speech> சொல்லறா
[13.165]
<no-speech>
[14.265]
ஏய் சொல்லறா <no-speech> ஏய் சொல்லறா சுரேஷ்
[19.085]
<no-speech>
[19.995]
<no-speech> சொல்லறா
[22.825]
<no-speech>
[24.245]
<no-speech> சாப்புட்னுகிரே மச்சான் <no-speech> ஆமா சாப்புட்னுகிரேன் <no-speech>
[30.945]
<no-speech>
[32.045]
<no-speech> ஹம் ஓட்டல்ல சாப்டுற மச்சான் வேல நைட் ஷிஃப்ட் போறேன் சரி ஓட்டல் ஓட்டல் சாப்பாடு கம்பெனில சாப்ட்டுனு- <no-speech> ஆஹ் <no-speech>
[42.445]
<no-speech> ஆன் <no-speech> ஆமா என்ன பண்றது ஓத்தா பசங்கெல்லாம் ஓத்தா வெறுப்பேத்துரானுங்களே <no-speech>
[52.145]
<no-speech>
[53.025]
<sta> சந்தனம் தயாளன் <no-speech> ஓ சரக்கு கேக்றானுங்கடா கல்யாணத்துக்கு <no-speech>
[60.695]
<no-speech>
[63.055]
<sta> என்ன பண்றது ஓத்தா ஃபோன் பண்ணி தயாளன் <no-speech> அடிக்க வெப்பியா வெக்கமாட்டியா ஓத்தா ஒரே பேச்சு சொல்லு அப்டின்றான் <no-speech>
[70.665]
<no-speech>
[71.955]
<sta> என்ன பண்றதுரா ஃப்ரெண்டுங்கெல்லா போயிட்டானுங்க
[74.405]
<no-speech>
[76.205]
<no-speech> எப்பிடிடா வரவேணானு சொல்ல முடியும் <no-speech> கோவிச்சிப்பாண்டா அவன் அப்புற்ம் <no-speech>
[84.575]
<no-speech>
[85.535]
<no-speech> அத்தான் அவங்கிட்டயே குடுத்துவுட்டேன் அவன் <hes> எல்லாருக்கோ வாங்கி தந்துரேன்ட்டா என்கிட்ட முன்னூறு ரூபா குட் மச்சான் போதோ எனக்கு அப்டின்ட்டா நான் வாங்கி தந்துறேன் <no-speech> முன்னூறு ரூபா கேட்டுக்கிறான் <no-speech>
[95.255]
<no-speech>
[96.275]
<sta> உம்ம் <no-speech> ஆன் <no-speech>
[101.195]
<no-speech>
[102.145]
<no-speech> டேய் அவன்தான்டா சொன்னா மச்சான் நீ முன்னூறு ரூபா குட் போதோ நான் நான் பாத்துக்கிறேன் அப்டீனா செய்றானா <no-speech>
[107.915]
<no-speech>
[109.265]
<no-speech>
[109.655]
<no-speech>
[110.625]
என்னது <no-speech> நீயா <no-speech> அப்டியா ஓகேய் கூப்டுன்னு போனனே
[117.895]
<no-speech>
[119.365]
<no-speech> *பேலன்சா* <no-speech>
[121.945]
<no-speech>
[124.375]
<no-speech> வி மணிய ஏன் குடுக்கவே இல்லடா விமணி எண்ணா சொல்றான் ஏய் அதெல்லாம் எது குடுக்காத பசங்க வந்தா கம்முனு அவங்க அடிச்சிட்டு வருவாங்க *ஏற்கனவே* நீ வேற குடுத்துட்டு ஓவராக்கிடாதே அப்டீனா விமணி
[133.905]
<no-speech>
[137.545]
<no-speech>
[138.055]
<no-speech>
[139.455]
<no-speech> உம்ம் <no-speech> தெரில
[142.755]
<no-speech>
[144.435]
எண்ணா பண்றது ஓத்தா <sta> ஏய் அத பாத்ததே எவங்கிட்டயும் சொல்லாதே
[147.965]
<no-speech>
[149.035]
<sta> என்னது <no-speech>
[151.335]
<no-speech>
[152.425]
<sta> அது கால்ல முடிச்சிட்டே <hes> நைட் போறது <foreign> கைகாலெல்லா வலிக்கிது ஒடம்பெல்லா <no-speech> நான் சாப்பிடற டைம் (()) டைம் எட்ரை மணிக்கா <no-speech> ஏழ் மணி
[164.205]
<no-speech>
[164.575]
<no-speech>
[165.825]
<sta> ஏழ் மணிக்கி போனேன்டா
[167.105]
<no-speech>
[169.055]
ஏழ் மணி <sta> ஆறரை மணிக்கி ஃபோனே ஏழ் மணி அங்க டைமிங் <no-speech> ஹூம் <lipsmack> இப்போம் சாப்பாடும் கட்டிட்டு <no-speech> ஆன்
[176.285]
<no-speech>
[177.715]
<no-speech> வீட்டுக்கு நைட்டுக்கு ரெண்டு மனிக்கு தான் <no-speech>
[181.305]
<no-speech>
[182.475]
ஆமா <no-speech>
[184.005]
<no-speech>
[186.275]
<sta> இரனூறுவா <no-speech> என்ன பண்றது மச்சான் வெறுப்பா இருக்குடா மச்சான் <no-speech> இப்பில்ல
[197.165]
<no-speech>
[200.285]
<sta> ஏய் கால்லானா வீட்டு வேல கால்லேந்து இது அரைச்சிட்டு வா அது <hes> மிக்சி கிரைண்டர் இதெல்லாமே ரிப்பேர் எல்லாத்தியு ரெடி பண்ணி வண்டில எத்தாந்து டுடே <no-speech> காலில <no-speech>
[212.105]
<no-speech> ஆனா <no-speech>
[214.715]
<no-speech>
[216.015]
ஆன் <no-speech>
[217.485]
<no-speech>
[218.825]
<no-speech> இங்க ஓட்டல்ல சாப்பிடறோல்ல <laugh> அப்பறோம் <no-speech>
[224.185]
<no-speech>
[225.705]
<sta> இல்ல தனியா தனியா காசு குடுத்துருவாரு மச்சான் முப்பது ரூபா <no-speech> இந்த மாதிரி சாப்ட்டு வரோம் <no-speech>
[232.275]
<no-speech>
[233.955]
எண்ணா <int>
[235.685]
<no-speech>
[236.525]
<sta> ஹூம் <no-speech> இப்ப அது வேற ஒத வாங்குவ இரு <no-speech> இப்ப எண்ணா பத்து நிமிஷம் பேசனுமா <no-speech> ஆன் பத்து நிமிஷம் பேசனுமா என்ன
[248.505]
<no-speech> மொதல்லயே <no-speech> முதல் <foreign> <foreign> மாறியே இருந்நதுதா நீங்கள் தயவு செய்து சா- அல்லது துண்டிக்கவும் (()) அப்டின்னாங்க
[258.745]
<no-speech>
[260.635]
<sta> இன்னிக்கி தான் எத்துட்டு வந்துகிரே மறந்துட்னா <hes> வேற கடைக்கு போன பாரு அப்டியே எடுத்தான்ட்டுகிறேன் <no-speech> ஆன் <no-speech> உம்ம் அப்பறோம்
[272.485]
<sta> சாப்டியா <no-speech> சாப்டீயான்னே
[274.715]
<no-speech>
[275.645]
<no-speech> அது எண்ணா மச்சான் கிளாஸ் நடந்துனுந்துதா எதாவது சொன்னாங்களாம்
[279.105]
<no-speech>
[280.275]
<no-speech> எதுவும் சொல்லியா அந்த பயித்தியம் பயம் லெட்டர் குடுக்க உடமாட்டான்டா அவுள்ட்ட வெலிச்சினே வந்தான்டா என்னே
[286.645]
<no-speech>
[287.815]
<no-speech> நீ இல்லன்னு ஆமா நேத்தும் உட்ட டோஸ் அப்டியா <no-speech>
[293.015]
<no-speech>
[294.375]
நேத்தும் உட்டார்ரா <sta> அஷோக் கொஞ்ச சார் திட்னார்ரா
[297.785]
<no-speech>
[298.605]
உம்ம் <sta> செம லொல்லுதான் <cough> டாக்டர் சர்டிஃபிகேட் இருந்தா தான் வரண் இனிமேல் நீ கட்டடிச்சா அப்டீன்னாரு <no-speech> ஆன் <no-speech>
[308.785]
<no-speech> புரியல <no-speech> புரியல மச்சான் <no-speech>
[314.685]
<no-speech>
[315.555]
<sta> ஆமாமா எதாவதுன்னா <foreign> பண்ணினுக்கிறேன்
[317.365]
<no-speech>
[318.335]
<no-speech>
[318.795]
<no-speech>
[319.665]
<no-speech> சொல்லும் பத்து நிமிஷம்
[321.265]
<no-speech>
[322.755]
<no-speech> கோ பையன் சேந்து பையன் எங்கூட கூட தான் இருக்கிறான் <no-speech>
[326.745]
<no-speech>
[328.415]
<sta> உம்ம் பேசுறியா
[329.885]
<no-speech>
[331.765]
<no-speech> செர்றா <no-speech>
[334.415]
<no-speech>
[335.225]
<no-speech> அப்டியே ஒரு மேரேஜ்க்கு வந்தே சந்திரன் கூட வந்துரு மச்சான் சந்திரனுக்கு தெரியும் <no-speech> அப்பிடியே பாத்துட்டு ஆன்
[342.765]
<no-speech>
[344.675]
<sta> ஏழர எட்டு மணிக்கா வா <no-speech> ஏழர எட்டு மணிக்கெல்லாம் சீக்கிரமா வந்தா தான் மச்சான் சீக்கிரமா கெளம்புவ அன்னிக்கே நீ லேட்டாய்ச்சி திட்டினுருந்திருப்பே <no-speech>
[354.215]
<no-speech>
[355.465]
<no-speech> அத்தான் வீட்டுக்கு போய்ட்டு தான் உனுக்கு கிட்ட தான்டா கிட்ட தான் உனுக்கு <no-speech>
[359.555]
<no-speech>
[360.725]
<sta> ஆன் <no-speech>
[362.375]
<no-speech>
[363.565]
<no-speech> வா சீக்கிரமா வா சாப்பிட்டேன்
[367.875]
<no-speech>
[369.485]
<no-speech> ஐயோ <no-speech> கத்தினேருக்குதே <no-speech> உன்தா
[376.125]
<no-speech>
[377.185]
<no-speech>
[377.665]
<no-speech>
[378.465]
<no-speech> ஆமாடா நீ பேசுற வீட்ல <no-speech> உம்ம் <laugh> டிவி ஓடுதா <no-speech>
[386.345]
<no-speech>
[388.365]
<sta> உம்ம் போய் மின்ட் வந்தியே <no-speech>
[390.595]
<no-speech>
[394.155]
<no-speech> அது பாடில்ல நிக்கும் மச்சான் கரெக்ட் எடதெரு கூட நிக்கும் ஒயிட் போடா இருந்தா எடதெரு <no-speech> ஆமா அதுல வந்து ஒயிட் போடுன்னா எடதெருல <foreign> ஓகேவா <no-speech>
[404.995]
<no-speech>
[405.895]
<sta> இருடா ஒயிட் போர்ட் நல்லா இருந்துச்சினா <hes> அந்த பஸ் வந்து ஒயிட் போடா இருந்துதுனா <hes> எந்த தெருன்னு கேட்டு டிக்கெட் எடு <no-speech> சரியா எக்ஸ்பிரஸ்சா இருந்தா
[417.165]
<sta> பாடின்னு கேட்டு எடுப்பனோ <no-speech>
[419.785]
<no-speech>
[421.365]
பாதிலே எறங்கறியா அப்படியே பேக்லேயே வா <no-speech> ஆமா பேக்லேயே வந்துட்டு ஃபர்ஸ்ட் ரைட் கிராஸ் பண்ணோம் அதான் ஃபஸ்ட் ரைட் எடுக்கணும் ஃபஸ்ட் ரைட்லந்து திருப்பி லெஃப்ட்
[432.725]
<sta> திருப்பி ரைட் <no-speech> அப்டியே ஸ்ட்ரெயிட்டா வரனும் அவ்வளவு தான் <no-speech> டேய் கிட்ட தானேடா நீ அப்டீல்லனா ரூட் பஸ்ல ஏறு
[442.215]
<no-speech>
[443.165]
<sta> ஆன் <no-speech> ஆஹ் உங்க லூகாசில எறங்கிடு இல்லனா <no-speech> ஒரு கோயில் ஒன்னு வரும் படவேட்டம்மன் கோயுலுன்னு
[453.875]
<no-speech> அங்க அதுக்கு நேரா ஓர் சந்து போவும் அதுக்கு ஆப்போசிட்ல <no-speech> ஆஹ்
[460.895]
<no-speech>
[462.765]
<sta> இல்லனா சந்திரன வர சொல்லிடு <no-speech>
[466.265]
<no-speech>
[467.065]
<sta> செரிறி வா
[468.255]
<no-speech>
[469.275]
<no-speech> வா மச்சான் அவங்கூடயே வா <no-speech>
[473.235]
<no-speech>
[474.795]
<sta> என்னது யார் இருடா யார்னு தெரில மாப்பிளை வீடு நம்பர்னாங்க அது மட்டும் <no-speech> கச்சேரி மட்டும் வேணான்னோம் அவங்களே
[486.375]
செரிறி நாங்க பண்ணிட்றோ அப்டின்னாங்க <no-speech> செரின்னேன் யார்னு தெரில நான் பாக்கல அது <no-speech>
[493.225]
<no-speech>
[494.915]
<sta> இருடா கச்சேரி இருக்குடா கன்ஃபார்மா மாப்பிளை வீடு சொன்னாங்கடா <no-speech> கன்ஃபர்மா கச்சேரி இருக்கு நாங்க <foreign> பண்ட்டோம் அப்டின்டாங்க
[504.615]
<no-speech>
[506.185]
ஏய் சாப்ட்ரா பிரின்ஜி சாதம் <no-speech> சாப்பாடும் <sta> சாம்பார் மோர் ரசம் காரக்கொழம்பு <no-speech> பொரியல் வந்து கோஸ் பொரியல் உருள கிழங்கு பொரியல்
[515.335]
<no-speech>
[516.475]
<no-speech> ஆன்
[517.525]
<no-speech>
[521.225]
நாட் அடி ஆல் <laugh> <foreign> <foreign> <laugh> ஏய் பிரியாணியெல்லா போட கூடாது மச்சான் பிரியாணி எல்லா போட கூடாதுடா
[527.175]
<no-speech>
[528.395]
<no-speech>
[528.905]
<no-speech>
[531.605]
எது <int>
[532.335]
<no-speech>
[534.685]
ஏய் ஒருத்தங்கோ உன் கூட நம்பிட்டு இப்டி சேந்துட்டே மச்சான் அவன் எதுமே என்கிட்ட பேசிக்கோ மாட்டான்டாவ ஓத்தா லூஸ்குதியாருக்குதுரா <no-speech> பவித்தரன் இல்லையா மச்சான் எங்கூட வா அப்டீனா செரிறி
[544.445]
<sta> போய் சேந்தா அவன் எதுமே சொல்லமாட்டானா நெட்ல பிட்டும் பாத்துட்டு
[547.685]
<no-speech>
[549.475]
ஆன்
[549.985]
<no-speech>
[552.445]
<sta> ஆமா தேவர் ஃபிலிப்பு எம்புண்ட
[554.315]
<no-speech>
[556.395]
<sta> அத்தியும் அவனுங்களே எத்தாந்தானுங்க இவன் எத்தாரே எத்தாரேன்ட்டு எத்தாரவேயில்ல வர்றது கெடையாது ஒழுங்கா எல்லாத்தையும் பிட்டும் படமே எடுத்தாரா
[561.805]
<no-speech>
[562.975]
சொல்ட்டானுங்களா <no-speech>
[563.955]
<no-speech>
[566.355]
<no-speech> ஆஹ் எண்ணா சொன்னாரு சார் எதாவது என்ன கேட்டாங்களா
[569.675]
<no-speech>
[573.445]
<int> சொல்ல மச்சான் இவன் உடலடா லெட்டர் குடுக்க ஏய் வரியா இல்லையா அத டைம் ஆகுதுன்ட்டு புடிச்சு இலுத்துனு போய்ட்டாண்டா
[578.125]
<no-speech>
[580.825]
<sta> ஆஹாம் இன்னும் சொல்லவேயில்ல <laugh>
[583.065]
<no-speech>
[585.045]
ஏய் நம்பர் குட் மச்சான் <sta> அப்படியே சொல்லறா நான் உன் கிட்ட அத்தான் மெயினா கேக்கணும் நெனி- <no-speech> ஆமா சூசன் நம்பர் <no-speech> ஆஹ் குடுறா
[591.675]
<no-speech>
[594.305]
<sta> யாருகிட்ட
[594.855]
<no-speech>
[600.000]
