[0.000]
<no-speech>
[1.235]
<no-speech>
[2.535]
<no-speech>
[5.455]
ஆன் கண்ணு
[6.565]
<no-speech>
[8.175]
<hes> <sta> ஆன் வந்துருச்சு வந்துருச்சு ஆன் சரி சரி ஆமா சிந்து பைரவியோட ஸ்டோர் சொல்லு தாயே எப்ப பாரு கரெண்ட் கட்டு இங்க
[18.165]
<no-speech>
[19.845]
ஆமா ஆமா ஆமா ஆன்
[23.595]
<no-speech>
[25.865]
<no-speech>
[26.235]
<no-speech>
[28.975]
ஆன் ஆன்
[29.795]
<no-speech>
[30.745]
அதுக்கப்புறம்
[31.575]
<no-speech>
[37.605]
ஆமா
[38.485]
<no-speech>
[40.415]
ஆன் ஆன்
[41.165]
<no-speech>
[45.995]
ஓ சரி சரி
[47.995]
<no-speech>
[52.585]
ஆன் <no-speech>
[54.115]
<no-speech>
[56.815]
உம்ம்
[57.285]
<no-speech>
[59.015]
ஆன்
[59.445]
<no-speech>
[64.455]
ஆன் <no-speech> ஆன்
[66.325]
<no-speech>
[70.305]
ஆன்
[70.975]
<no-speech>
[76.055]
ஆன்
[76.545]
<no-speech>
[80.475]
ஆன் ஆன் ஆன்
[81.205]
<no-speech>
[83.365]
ஆன்
[83.735]
<no-speech>
[87.445]
<no-speech> ஆன் ஆன்
[88.705]
<no-speech>
[92.915]
ஆன் ஆன்
[93.725]
<no-speech>
[95.645]
ஆன்
[96.215]
<no-speech>
[98.965]
ஆன்
[99.575]
<no-speech>
[100.765]
ஆன்
[101.205]
<no-speech>
[105.595]
ஆன்
[106.075]
<no-speech>
[108.055]
அடடா ஆன் ஆன் ஆன்
[109.445]
<no-speech>
[112.505]
ஆன்
[112.945]
<no-speech>
[119.025]
ஆன் <no-speech> ஆன்
[120.595]
<no-speech>
[123.035]
ஆன் ஆன் வேலைக்கா உம்ம்
[125.165]
<no-speech>
[131.215]
ஆஹ் ஆஹ் சரி சரி சரி சரி அப்ப வீர் வந்து அவள புருஞ்சுக்கவே இல்லையா சிந்துவ ஆன் ஆன்
[138.845]
<no-speech>
[140.935]
ஆன்
[141.365]
<no-speech>
[144.135]
ஆன்
[144.575]
<no-speech>
[148.645]
ஆமா ஆமா கேட்டுருவான்ல உம்ம் ஆஹ் ஆஹ் சரி
[152.675]
<no-speech>
[154.645]
(()) ஆஹ் ஆஹ் அப்புறம் ஆன் நான் இன்னிக்கி சாம்பார் வச்சேன் காலைல பொங்கல்காக <int> ஆஹ் பொங்கல் சாம்பார் தான் வச்சேன்னா அதோட வச்சுட்டு உங்க அண்ணே
[166.345]
திருவண்ணாமலைக்கு போய்ட்டாருன்னு ஆனா இவர் திடீர்னு நான் வறேன்டாரு அப்பறம் <sta> புளி காச்சு செஞ்சேன் நானும் உம்ம் உம்ம் சித்ரா கடைல எதும் வாங்கனும்னு சொன்னார் கொசுவத்தி ஏதோ ரீஃபிள் வங்கனும்னு சொன்னார்
[178.015]
<sta> அதான் சரி அதனால அவருக்கு கால் பண்ணி பேசணும் கொஞ்சமாச்சும் செஞ்சேன் நானும் அதான் அவர் சாப்டோனே அவர் என்ன லூஸ் மோஷன் ஆனேன் இருக்குன்னாரு உங்க அண்ணே <int> என்னத்த அதான் சூடா தான் ஆயிருக்கும்
[189.535]
இந்த மாரி இருக்கு *அவரு* நேத்துலேந்தே இருக்கு போல இது <breath> இவர் பிரியா வந்தவோன ஃபிரியா டுவெல்த் கம்முனு ஒக்காந்துருக்கா நான் <sta> கொஞ்சம் மாமாட்ட சொல்லிக்கிறேன் எதுனா பண்ணுன்றேன் எதுவும் <hes> காதில வாங்கிக்க மாட்டேங்கிறாரு உம்ம் உம்ம்
[200.825]
<no-speech>
[201.755]
ஹம் ஹம் ஹம் ஹம் சரி அப்புறம்
[204.305]
<no-speech>
[206.235]
ஆன் <int>
[206.845]
<no-speech>
[207.905]
ஆஹ் ஆஹ்
[208.605]
<no-speech>
[211.375]
சரி சரி ஆன் ஆன்
[213.595]
<no-speech>
[214.535]
ஆன் <laugh> ஆன்
[217.465]
<no-speech>
[219.575]
பாரேன் ஆன் ஆன்
[221.475]
<no-speech>
[225.515]
ஆன்
[226.115]
<no-speech>
[227.255]
ஆன்
[227.775]
<no-speech>
[229.595]
ஆன்
[230.305]
<no-speech>
[231.465]
<laugh> ஆன் ஆன் சரி சரி சரி சரி
[235.695]
<no-speech>
[236.705]
ஆன் ஆன்
[237.865]
<no-speech>
[241.525]
ஆன் ஆன்
[242.505]
<no-speech>
[245.505]
உம்ம் சரி சரி சரி <no-speech> அப்டியா ஆன் நேத்தும் உங்க அண்ணேன ஆஃபீஸ் போய்ருந்தாரா பின்னாடியே மாப்ள வண்டிலயே வந்தாறாம் என்ன உங்களை பாத்துட்டு தான் பாத்துட்டு தான் நான் வரேன் நீ எங்க நிக்காம வந்துனே வந்திட்டீங்கன்னாராம் <sta> இவர் பின்னாடி வராருனு யாருக்கும் தெரியும் இவர் ஆஃபீஸ்க்கு வந்து பேசினாரு போல்து <hes> அவங்க மாப்ள <hes> (()) பதினேழாம் தேதியே அம்மாவ கூட்டினு போக சொல்டாங்கன்னுட்டு
[268.565]
<sta> ஆன் ஆன் பதினேழு ஜனவரி
[271.565]
<no-speech>
[274.035]
அப்டியா சரி சரி அதான்
[276.865]
<no-speech>
[279.625]
ஜனவரி பதினேழா
[281.175]
<no-speech>
[282.595]
ஆன்
[283.145]
<no-speech>
[285.975]
ஆன் ஆன் ஆன்
[287.005]
<no-speech>
[289.165]
ஷேர் ஷேர் சரி சரி ஓஹோ அதான் அன்னைக்கு கூட்டிட்டு போக சொன்னாங்க அப்டீன்ணு சொன்னாம் அது தான் இவர் அப்பனா எப்டியும் கூட்டிட்டு போரதுனா எப்டின்னு கேட்ருபாரு போலருக்கு
[300.685]
ஆன் <hes> இவங்க போனப்போ அப்டி செய்ங்கன்னானாம் ஆன் நாங்க வந்து எல்லாம் வந்து நீங்க வந்து இன்னைக்கு சீமந்தம் வச்சுருக்கோம் அப்டீன் நீங்க சொன்னீங்கன்னா நாங்க பரிசம்னா எடுத்துட்டு வருவோம் சாதம்னா களரி
[312.255]
வருவோம் வந்து வச்சு வளையல் கிளையல் போட்டு நாங்க வீட்டுக்கு கூட்டினு வருவோம் அப்டின்னு சொன்னார் போலருக்கு அதெல்லாம் எங்களுக்கு பழக்கம் இல்ல அதாவது சீமந்தம்ன்றது வேணாம்னு நெனைக்குறான் போலருக்கு அவன்
[322.145]
<no-speech>
[323.835]
அதனால ஆஹ் ஆஹ் வேல எங்க மிச்சம் தட்டி வச்சா மட்டும் எடுத்து வைக்கணுமா
[329.045]
<no-speech>
[330.965]
ஆமா அவள மட்டும் ஒக்கா- <sta> பாரு எவ்ளோ ஒரு கெட்ட எண்ணம் பாரு அவள ஒக்கார வச்சு இதெல்லாம் கேக்க கூடாது புரியுதா
[337.705]
<no-speech>
[339.845]
ஆன் காய (()) அதெல்லாம் இல்ல நாம பண்ண வேண்டிய செலவை பண்ணின்னுமா
[345.115]
<no-speech>
[346.205]
<int> ஆஹ் ஆஹ் ஆனா அவள ஒருத்தி ஒக்கார வச்சு வளையல்லாம் போடு கூடாது அதெல்லாம் கெடையாது என்ன இதும் கூத்து இதெல்லாம் சொல்லும் பாக்கலாம் <no-speech> கெட்ட எண்ணம் தான் அப்டி தான் இத அந்த பொம்பள என்ன தான் பண்ணி தொலையுறதுன்னு எனக்கு ஒண்ணும்
[357.905]
(()) <sta> அப்டியே ஓர் மாடி கடுப்பா இருக்குது எனக்கு டென்சன்னாது அவுது <breath> அது வர்சலா எத போல தான் எல்லாம் வந்து வைக்கனுமாம் <hes> இந்த பொண்ணு அது வர சொல்லுது தட்டி நிறைய நிறைய எல்லாத்தையும் வச்சு அதுங்க மலப்பாவனும் அது மாதிரி வச்சுடுங்க
[369.115]
<sta> <hes> நான் வந்து ஆனா தனி வீட்ல தான் இருப்பன் வந்து அவுங்கட்ட ஆசிர்வாதம் வாங்கி நான் அப்டியே கெளம்பிடுவேன் அப்ப நாங்க வரிசையில அவங்க வீட்ல போய் வைக்கனுமாம்
[377.645]
<no-speech>
[380.445]
ஆன் என்ன நாம இப்டி <sta> நாம என்ன சொல்றது
[383.345]
<no-speech>
[386.555]
ஆன்
[387.115]
<no-speech>
[391.325]
ஹூம் ஹூம் நான் யாரையும் கூட கூப்டல நாங்க ரெண்டை பேர் கூட போய்க்குறோன்னு வச்சிக்கோ ஆன் ஆன் ஆஹ் ஆஹ் <hes>
[400.305]
<no-speech>
[402.865]
ஆஹ் என்ன சொல்லுது பார் சீமந்தம் பழக்கம் இல்ல வரிசை மட்டும் வாங்கி அனுப்பு பழக்கம் தான் இதும் நாம எங்கனா செய்யிற மாடி இருக்குதோ பாத்தியா இதும் <sta> அப்டியே கடுப்பா இருக்கு எனக்கு (()) ஒரே டென்சனா கெளப்பின்னே இருக்க மாடி இருக்கு எரிச்சலா (()) <hes> ஆன் ஆன் ஆன் சரி
[416.565]
<no-speech>
[420.465]
ஆன்
[421.055]
<no-speech>
[423.005]
ஆன்
[423.465]
<no-speech>
[424.685]
ஆன் ஆன் ஆன் ஆன்
[426.775]
<no-speech>
[431.425]
ஆன் ஆன் ஆன் ஆன்
[432.895]
<no-speech>
[436.155]
ஆன் <sta>
[436.715]
<no-speech>
[438.815]
உம்ம் இன்னைக்கு சன்டே ஆச்சே இந்த மாசம் எங்கன்னு கேட்டா நான் மட்டும் தனியா இருக்கன் என்னத்தை செய்றது சும்மா தான் செய்ஞ்சேன்னும் அப்ப இவ்ளோ (()) ஓர் மேகி பாக்கெட் டைப்பா நூடுல்ஸ் செஞ்சேன்னுது
[449.585]
<no-speech> ஆன் மதியாணத்துக்கு லீவ் நாள்ல லீவ் நாள்ல கூட புருசன் பக்கத்துல இல்லாம எதுனா ஒண்ணும் செய்யுவோம் கொல்லுவோம் அந்த மாரின்னா இல்லவே இல்ல சாவித்ரி <int>
[457.375]
<no-speech>
[458.445]
ஆன்
[458.885]
<no-speech>
[460.085]
<sta> அதாம்ப்பா இப்ப வந்து அது நம்ம கிட்ட சொல்லணும் இல்ல அது நம்ம கிட்ட சொல்லணும் இல்லப்பா தனியா தான் இருக்குறேன்னா எப்டிமான்னு நான் கேக்குறேன் <hes> கண்ணு தனியா தான் இருக்குறேன்னா என்னம்மா இதும் <hes> ஓர்
[471.625]
பொண்டாட்டி முழுகாம இருக்கான்னாக்கா அவ கூட வந்து இருக்கணும் இல்லனா அவருக்கு நேரமே எல்லமா லீவே கெடையாதுமா அவர் வீட்லயே தங்றது கெடையாது அப்ப போனார்னா காலைல போனா நைட்டி எட்டு மணி எட்டு மனிக்கு தான் வருவாரு வந்து சாப்புட்டு <sta>
[483.015]
<no-speech>
[484.215]
<sta> என்ன நாம என்ன சொல்ல முடியும் அது தான் எனக்கு கடுப்பா வருது ஒண்ணும் தொல்லை முடிலெல நம்மால ஆன்
[489.285]
<no-speech>
[490.615]
உம்ம் உம்ம் ஒண்ணும் தொல்லை முடியல போ அதுவே எனக்கு கடுப்பா வருது பதினேழந்தேதி கல்யாணம் <int>
[497.165]
<no-speech>
[497.975]
அது தான் நானும் சொல்லினேன் இதும் மரியாதையே எல்லமா நாங்க போய் அவங்க கிட்ட போய் என்ன செய்யனும் எப்ப அனுப்புறீங்கன்னு நாங்க கேக்க மாட்டோம் <no-speech> உம்ம் அதனால அவங்களா வந்து இட்டுனு போங்கன்னு சொன்னா <hes> சொன்னாக்கா
[509.635]
நீங்களா இப்ப இங்க வந்து வுட்டுடுங்க ஏன்னா நாங்க வந்து வரிசையோட வரனும்னால்லாம் வர முடியாது இப்ப அவங்க அன்னி பெரிய அன்னி அங்க சொல்லுது வரிசெல்லாம் அப்டீனா அதெல்லாம் எடுத்துன்னா போ முடியாது என்ன மக கல்யாணத்துக்கெல்லாம் (())
[520.235]
<no-speech>
[522.735]
ஆன்
[523.305]
<no-speech>
[524.975]
ஆன்
[525.545]
<no-speech>
[526.465]
<sta> (()) அதுலேருந்து ஓர் பழம் கூட எடுத்து <hes> நம்ம பொண்ணு தின்ரதுக்கு இல்ல நாம வச்சுட்டு அப்டியே வெறும் வயிரோட நம்ம பாட்டுக்கு கம்முனு எந்திருச்சு வந்துடணும்
[533.625]
<no-speech>
[535.085]
ஆமா எல்லாத்தையும் அவங்கள சாப்ட சொல்லி வுட்டு அப்டி தான் பண்ணுச்சு தீவாளி வரிசைக்கும் அவ்ளோ எடுத்துனு போனதும் அப்டி வாரி கொட்டிக்கிச்சு ஆன் அப்டி வாரி கொட்டின்னு வெறும் சாதி தட்டி வச்சுனு நம்மட்ட குடுத்துச்சுங்க நான் பாட்டுக்கும் வா- அந்த மாடி தான்
[546.845]
ஆன் என்ன தான் சொல்றது அப்டியே கடுப்பா இருக்கு எனக்கு வயித்தெருச்சலா இருக்கு எனக்கு ஆன் ஆன் ஆனா வந்து அவனும் ஆயிரத்தி எட்டு கொற சொல்லின்னு என்ன தான் பொறந்தியோ <hes> பொண்டாட்ட தப்பா சொல்லின்னே இருந்தானாம்
[558.595]
ஆன் அதாவது அண்ணே கிட்ட பேசுனானாம் இருவது இருவத்தஞ்சு நாளா அவன் பேசலயாம் பொண்டாட்டி கிட்ட ஜெனவரி ஃபர்ஸ்ட் நாள் பேசுனானாம் ஹோட்டலுக்கு இழுந்துன்னு போய் டிஃபன் வாங்கி வாங்கி குடுத்தனம் இதெல்லாம் ஓர் இதும் அப்டி
[570.575]
<no-speech> சரி சரி
[572.025]
<no-speech>
[573.635]
இல்ல இருவது இருவத்தஞ்சு நாளா பேசலயாம் பாரு
[576.175]
<no-speech>
[577.135]
ஆன் <breath> நான் <sta> அதுக்கு தான் தனியா விட்டுட்டு எப்டிம்மா இருக்க போற இப்போம் உம்ம் ஏதோ ஏதோ சரி இல்ல
[584.815]
<no-speech>
[588.385]
ஹூம் ஹூம்
[589.105]
<no-speech>
[591.025]
ஆமா ஆமா அதும் வேண்டாம் இந்த எனக்கு அங்க ஏற்கனவே அங்க இருந்து வெறுத்து போய் தான் நானே உங்க வீட்டுக்கு வரணுன்னு வரேன் அங்க பக்கத்துலயே அது பக்கத்து தெருவுன்ற மாரி தான இருக்குது
[599.725]
போ
[599.980]
