[0.000]
<no-speech>
[10.865]
(())
[20.335]
<no-speech>
[21.905]
ஹலோ <no-speech> ஹலோ <no-speech> ஹலோ கேக்குதா கேக்குதா சொல்லு என்ன பண்ற என்ன பண்ற <sta>
[33.825]
<no-speech> ஆஹ் <no-speech> ஹூம் செரிறி எப்ப போன ஊருக்கு <sta>
[40.725]
<no-speech>
[41.905]
<no-speech>
[42.405]
<no-speech>
[44.645]
கால்லயா <no-speech> நைட் தூங்கினியா <sta>
[49.525]
<no-speech>
[50.605]
ஹூம் <int>
[51.225]
<no-speech>
[53.515]
ஹூம் <no-speech> நைட்டி எங்க டெஸ்ட் பண்ல <sta>
[57.255]
<no-speech>
[59.195]
கால்லயும் கால் பண்ணல <sta>
[63.415]
<no-speech>
[65.625]
ஹூம் <no-speech> வெல்ல போனியா <no-speech> ஹூம் சொல்லும் <sta>
[72.935]
<no-speech>
[75.405]
ஹூம் சாப்டேன் நீ சாப்டியா <sta>
[78.475]
<no-speech>
[79.385]
<no-speech> ஹூம் சொல்லும் நானா இப்ப தான் தான் ஒக்காந்து சாப்ர்லாம் பன்ணிட்டுருந்தேன் <sta>
[86.405]
<no-speech>
[87.345]
அவள பாத்துட்டு வந்தேன் <no-speech> அதான் கால் பண்லாம் கிளம்புனேன் சொல்லும் <sta>
[91.095]
<no-speech>
[93.075]
<no-speech> ஹலோ <no-speech> கேக்கல சத்தமா பேசு <sta>
[97.035]
<no-speech>
[99.695]
நானா சாப்டியா நீ <no-speech> இப்ப எங்க <hes> அம்மா வீட்லயா இருக்க <no-speech> எங்க <sta>
[111.225]
<no-speech>
[112.055]
<no-speech> எந்த ஊர் <no-speech> ஹூம் செரிறி செரிறி ஆத்தூரா <sta>
[123.095]
<no-speech>
[123.965]
ஹூம் <no-speech> புரியல <sta>
[128.345]
<no-speech>
[130.495]
நான் என்ன பண்ணேன் நான் எதும் சொல்ல அப்டி <no-speech> அப்பயே நான் சொன்னேன் ஆர்_பி புல்நேம் என்ன <sta>
[135.765]
<no-speech>
[138.675]
ஹூம் செரிறி செரிறி நம்பார்ட்டி ஹூம் <sta>
[141.995]
<no-speech>
[143.725]
என்ன <int>
[144.545]
<no-speech>
[146.345]
<no-speech> செரிறி இப்ப வேணாம் உடுறீ <sta>
[150.725]
<no-speech>
[152.735]
இப்ப எப்ப வருவ <sta>
[155.635]
<no-speech>
[158.505]
நைட்டா <no-speech> அப்ப டுயூட்டி வருவியா டுயூட்டி கால்லிக் போவியா <sta>
[163.655]
<no-speech>
[168.735]
ஹூம் <sta>
[171.255]
<no-speech>
[174.765]
ஹூம்
[175.325]
<no-speech>
[177.205]
<no-speech> அப்டியா சொன்னாங்க <sta>
[180.335]
<no-speech>
[181.325]
ஐய யெவன் சொன்னான் <sta>
[183.715]
<no-speech>
[185.185]
<no-speech> ஹூம் <sta>
[187.085]
<no-speech>
[189.285]
ஹூம் <sta>
[191.275]
<no-speech>
[193.665]
<ring> <int> என்னது
[195.845]
<no-speech>
[200.105]
அப்டியா <no-speech> (()) பிரச்சனையாம் காலேஜ்ஞ்ல <sta>
[206.245]
<no-speech>
[209.585]
அவுங்க <foreign> காலேஜ்ல மட்டும் தான் தான் போவுணும் பக்ஸன்னா <sta>
[217.475]
<no-speech>
[220.675]
ஆமா <int>
[221.895]
<no-speech>
[223.495]
ஹூம் காலர் ஷீப்லேய இருக்குயே அப்புறம் என்ன <sta>
[226.015]
<no-speech>
[227.185]
நீ கால்லே சொல்லிட்டியே ஷிப் ஷிப் இருக்கே அப்புறம் இன்னும் என்ன <no-speech> ஹூம் <sta>
[232.535]
<no-speech>
[234.685]
<no-speech>
[235.735]
<no-speech>
[237.155]
சும்மா <int>
[238.055]
<no-speech>
[240.795]
ஆஹ்
[241.325]
<no-speech>
[242.615]
<no-speech>
[243.095]
<no-speech>
[244.205]
<int> சொல்லும்
[245.235]
<no-speech>
[246.735]
போ பிச்சே <int>
[247.655]
<no-speech>
[250.755]
புரியில்லா
[251.415]
<no-speech>
[252.765]
<no-speech>
[253.145]
<no-speech>
[255.555]
கேக்கலாமா இது <int>
[257.245]
<no-speech>
[259.925]
ஓஹ் செய் செய் <int>
[262.165]
<no-speech>
[263.795]
செரிறி எப்பம் <no-speech> சாட்டே வந்துடலாமா <sta>
[267.155]
<no-speech>
[268.835]
<no-speech> சாட் சாட்டே மீட் பண்லாமான்னு கேட்டேன்
[270.925]
<no-speech>
[273.915]
ஆஹ்
[274.435]
<no-speech>
[276.985]
ஹூம்
[277.575]
<no-speech>
[278.845]
<no-speech> ஆஹ் உனக்கு ஒரு லீவ் வாங்கிட்டு வர போறேன் பாஸ்போட்டுக்கு <int>
[283.215]
<no-speech>
[285.735]
ஹூம்
[286.405]
<no-speech>
[287.435]
செரிறி <sta>
[289.055]
<no-speech>
[290.775]
அப்புறம் நீங்க <no-speech> ஆன்
[292.685]
<no-speech>
[295.585]
கேக்கல என்னது <int>
[296.855]
<no-speech>
[299.585]
அப்பா எதும் தொல்லை வீட்டுக்கு போனா தான் தெரியும் நாளைக்கு எல்லாம் எடுத்துட்டு வான்னாறு வீட்டுக்கு <no-speech> எல்லாம் எடுத்து போவேன் பைண்டர்ல்லாம் <sta>
[307.965]
<no-speech>
[312.195]
ஆஹ் <no-speech> புரியல <sta>
[316.775]
<no-speech>
[317.605]
<no-speech>
[317.985]
<no-speech>
[321.005]
<no-speech> எத்தன கேளு ஃபிரண்ட்டுடா <sta>
[323.385]
<no-speech>
[325.155]
<no-speech> ஏன் இப்டி கேக்குற <sta>
[328.105]
<no-speech>
[330.785]
என்ன கேட்ட புரியல எனக்கு பத்துனுச்சுன்னா <int>
[332.695]
<no-speech>
[336.205]
அத ஏன் அப்டி கேட்ட <sta>
[339.755]
<no-speech>
[341.325]
நடக்காதே யாருமே இல்லயே உனக்கு தான் தெரியுமா <no-speech> யாருமே இல்லயே உனக்கு தான் தெரியுமே அப்டின்னா <sta>
[349.525]
<no-speech>
[351.585]
<no-speech> ஹூம் <no-speech> தெரியுலே <sta>
[357.195]
<no-speech>
[359.805]
<no-speech> ஆஹ்
[361.875]
<no-speech>
[363.335]
<no-speech> சரியா கேக்கல என்னது <sta>
[366.825]
<no-speech>
[369.735]
என்னது <int>
[371.595]
<no-speech>
[373.915]
<no-speech> அதெல்லாம் கேக்காத <no-speech> நான் டெஸ்ட் பன்ணனும் கால் பண்ணும்போது சொல்றான் நானும் கட்டாவும் வேறென்ன சொல்றேன் நானும் <no-speech> சொல்லும் <sta>
[384.355]
<no-speech>
[386.505]
லூஸ் நீங்க உன்மையாலும் நீனு <sta>
[388.745]
<no-speech>
[392.535]
<no-speech>
[393.585]
<no-speech>
[395.585]
<no-speech> சரியாவே கேக்க மாட்டுது சத்தமாவே பேசலாம் நீ வாய்கிட்ட வச்சு பேசும் <sta>
[399.465]
<no-speech>
[401.565]
எல்லாம் நல்லா தான் இருக்காங்க நீ மொதல்ல கிட்ட வச்சு பேசு <sta>
[403.975]
<no-speech>
[405.755]
<no-speech> பகல்லாம் அங்க தான் தான் இருக்கான் ஆனா அங்கே யாருகிட்ட ஒக்காந்து பேசிட்ருக்கான் <sta>
[410.475]
<no-speech>
[411.965]
ஹூம் <no-speech> போ <sta>
[415.455]
<no-speech>
[418.525]
சொல்லும் <sta>
[420.595]
<no-speech>
[423.145]
ஆஹ் <sta>
[424.835]
<no-speech>
[427.175]
உள்ளிங்களா <int>
[428.275]
<no-speech>
[429.755]
என்னது இல்லையா
[430.975]
<no-speech>
[432.775]
போல போல <int>
[433.485]
<no-speech>
[435.395]
அதான் போல <int>
[437.115]
<no-speech>
[439.725]
ஏன்னா காசுல்லன் போல
[441.465]
<no-speech>
[442.385]
<no-speech>
[442.735]
<no-speech>
[444.315]
<no-speech> சொல்லும் நான் நாளைக்கு ஊருக்கு போலன் தெரியுலே <no-speech> என்ன நடக்க போகுதே தெரியுலே
[448.455]
<no-speech>
[451.045]
<no-speech> நாளைக்கு நைட்டா கிளம்புறன்னா <sta>
[454.385]
<no-speech>
[455.285]
வந்த நைட்டா <int>
[456.175]
<no-speech>
[458.155]
<no-speech> ஆஹ் <sta>
[460.235]
<no-speech>
[461.125]
<no-speech> கொஞ்சம் சத்தமா பேசும் கேக்கல <sta>
[463.795]
<no-speech>
[465.315]
<no-speech> ஆஹ் சொல்லும்
[466.365]
<no-speech>
[467.385]
<no-speech>
[467.815]
<no-speech>
[470.315]
<no-speech> ஹூம் எண்ணா பண்ற இப்ப <int>
[472.175]
<no-speech>
[475.155]
<no-speech> ஹும்தூங்கலயா நைட்டி <sta>
[479.705]
<no-speech>
[482.795]
<no-speech> என்னது <sta>
[485.195]
<no-speech>
[487.985]
நைட்டி கால் பண்ண மாட்டியா அவளதான <sta>
[492.825]
<no-speech>
[494.705]
செரிறி ஓகேய் போ <sta>
[496.645]
<no-speech>
[497.665]
<no-speech>
[498.165]
<no-speech>
[501.075]
<no-speech> ஆஹ் <sta>
[503.565]
<no-speech>
[506.295]
நீ சொல்ணா
[509.125]
<no-speech>
[510.645]
சொல்லும் <int>
[513.425]
<no-speech>
[517.665]
<no-speech> எண்ணா பேசுறது நானே ஆமா மண்டேலருந்து ஆரம்பிக்க போறேன் சுருதி <sta>
[524.155]
<no-speech>
[525.735]
ஏன்டி
[526.595]
<no-speech>
[528.995]
<no-speech>
[531.455]
<no-speech>
[533.635]
<no-speech> ஹும்நால்லேருந்நது ஆரம்பிக்கபோறான் <int>
[537.715]
<no-speech>
[538.685]
<no-speech>
[539.035]
<no-speech>
[542.255]
<no-speech> கட்டாவுன்ணு நெனக்கிறேன் இப்ப
[543.825]
<no-speech>
[545.675]
<no-speech> அப்பாடாவா <sta>
[547.455]
<no-speech>
[548.435]
ஆஹ் நான்லாம் கவலையே படம் மாட்டேன் (()) <no-speech> ஆஹ் செரிறி செரிறி <no-speech> ஆஹ் <sta>
[558.135]
<no-speech>
[560.405]
<no-speech>
[560.795]
<no-speech>
[562.785]
ஆஹ்
[564.215]
<no-speech>
[565.415]
<no-speech> என்ன பண்ற இப்ப <int>
[568.355]
<no-speech>
[569.535]
<sta> டேய் அப்போ நான் செளமியா கிட்ட எப்ப சொன்னாலும் ஓகேய் சொல்லுவாலா <no-speech> அப்போதெல்லாம் சொல்ட்டியா செளமியா கிட்ட
[575.105]
<no-speech>
[579.415]
<no-speech> ஆஹ் <sta>
[581.185]
<no-speech>
[587.235]
ஆஹ் அவட்ட சொன்னியாயா அதுக்கு என்ன சொன்னா அவ <int>
[589.055]
<no-speech>
[596.015]
<no-speech> உம்ம் சொல் <no-speech> நாளைக்கு சொல்லாத
[599.940]
