[0.000]
<no-speech>
[0.045]
<no-speech>
[0.775]
<no-speech>
[1.685]
<sta> ஹலோ <no-speech> ஆன் ஹலோ கேக்குதா குரு <no-speech> ஆன் சொல்லு ஜாலி ஜாலி (())
[12.365]
<no-speech>
[13.335]
<sta> ஆன் நான் நல்லா இருக்கன் நீ எப்பிடி இருக்க <no-speech> ஆன் எப்பிடி போகுது ஸ்கூல் எல்லாம் <no-speech> ஸ்கூல் எல்லாம் எப்பிடி போகுது
[25.065]
<no-speech>
[25.885]
<no-speech>
[27.295]
<sta> சப்பலா நீ எங்க வீட்லேர்ந்து போட்டு போகலையா <no-speech> எங்க இருக்கற நீ <no-speech> நான் இப்போம் ஏய் சரி நீ இப்போம்
[37.795]
<sta> போய்ட்டு மொதல்ல ஒன் சப்பல போடு போ <no-speech> போய் போடு போ சப்பல <no-speech> உம்ம் உம்ம் நீ போய் போடு சப்பல் போடு வா <no-speech> நீ போய் வீட்டு கிட்ட சப்பல் போடு
[49.005]
<no-speech>
[53.995]
<no-speech>
[55.595]
<sta> ஆன் நான் போறேன் சரி அத பத்தி பிரச்சன இல்ல எப்பிடி போகுது ஸ்கூல் எல்லாம் என்ன பண்ணிட்டு இருக்க எப்பிடி போகுது ஃபிரண்ட்ஸ் எல்லாம் எப்பிடி
[63.075]
<no-speech>
[64.005]
<no-speech>
[64.495]
<no-speech>
[65.755]
<sta> (()) ஃபிரண்ட்ஸ் எல்லாம் எப்பிடி (())
[68.395]
<no-speech>
[69.565]
<sta> சரி சரி உன் ஃபிரண்ட்ஸ் பத்தி சொல்லும்
[71.825]
<no-speech>
[78.255]
சொல்லவே இல்லயே எனக்கு சுத்தமா ஞாபகமே இல்ல இப்ப சொல்லும்
[80.905]
<no-speech>
[84.525]
<sta> ஏய் இப்ப சொல்லும் பரவாயில்ல இப்ப என்ன
[87.045]
<no-speech>
[89.425]
<sta> உம்ம் சொல்லும்
[93.225]
<no-speech>
[95.355]
<sta> <laugh> சரி சொல்லுடி
[98.345]
<no-speech>
[102.845]
<sta> ஆன் சரி சரி ஓகேய் ஓகேய் <no-speech> அப்புறம் என்ன நீ
[108.495]
<no-speech>
[110.065]
<sta> சொல்லும் அதாவது உன் பெஸ்ட் ஃபிரண்ட் யாருன்னாங்க இருந்தாங்கன்னா அத பத்தி சொல்லும் உன் பாய் ஃபிரண்ட் இருந்தாங்கன்னா அத பத்தி சொல்லும்
[114.935]
<no-speech>
[119.725]
(())
[120.605]
<no-speech>
[122.335]
<sta> பாத்தியா ஏய் நான் சொல்றது அந்த பாய் ஃபிரண்ட் இல்ல ஃபிரண்ட் ஜஸ்ட்டு அது வந்து ஒரு பாய் ஃபிரண்டா
[128.325]
<no-speech>
[131.255]
<sta> உம்ம் ஹூம் உன்ன விட சின்ன பசங்க மாதிரியா ஆமாமா ஆமா
[141.455]
<no-speech>
[143.035]
<sta> ஆன்
[143.475]
<no-speech>
[145.745]
<no-speech>
[146.165]
<no-speech>
[148.715]
<no-speech>
[149.195]
<no-speech>
[150.975]
(()) ஓ ஓ ஓ சரி சரி
[162.805]
<no-speech>
[163.905]
<sta> அத விடு அப்ப உன்னோட உன்னோட கேர்ள் ஃபிரண்ட பத்தி சொல்லும் <no-speech> இப்டி வராத
[172.395]
<no-speech>
[174.805]
<no-speech>
[175.325]
<no-speech>
[176.435]
<no-speech>
[176.915]
<no-speech>
[181.665]
<sta> இல்ல இம்பார்ட்டண்ட் மெயின் பெஸ்ட் ஃபிரண்ட்ஸ் இருப்பாங்கல்ல அந்த மாதிரி நான் கேக்குறேன்
[192.395]
<no-speech>
[193.915]
<sta> ஆன்
[196.395]
<no-speech>
[199.465]
<sta> ஆன் ஆன் ஓகேய்
[200.585]
<no-speech>
[201.475]
<sta> உம்ம்
[201.975]
<no-speech>
[205.245]
<no-speech>
[205.605]
<no-speech>
[206.565]
போ (())
[207.015]
<no-speech>
[210.135]
உம்ம் (())
[210.665]
<no-speech>
[213.205]
<sta> என்ன பத்தி என்ன சொல்லுவ
[214.965]
<no-speech>
[221.335]
<sta> இப்போம் <no-speech> இப்போம் பிட்டும் போடறியா ஏதோ வாங்கறதுனும்காக
[228.585]
<no-speech>
[239.905]
<no-speech>
[240.255]
<no-speech>
[246.255]
<no-speech>
[246.605]
<no-speech>
[247.885]
ஆன்
[248.535]
<no-speech>
[250.055]
<sta> உம்ம் உம்ம் உம்ம்
[251.775]
<no-speech>
[252.925]
<no-speech>
[253.285]
<no-speech>
[255.515]
<sta> ஆன் ஓகேய் ஓகேய்
[259.265]
<no-speech>
[262.235]
<no-speech>
[262.595]
<no-speech>
[264.905]
<sta> ஆன் எந்த ஃபிரண்ட்ஸ் கிட்ட எந்த ரெண்டு ஃப்ரென்ட்ஸ்னா
[267.945]
<no-speech>
[269.865]
ஆங்
[271.135]
<no-speech>
[275.445]
<sta> (()) அவன் இவனா
[277.555]
<no-speech>
[279.325]
<no-speech>
[279.895]
<no-speech>
[282.285]
ஆன்
[283.615]
<no-speech>
[290.055]
ஏன் அப்பிடி
[291.865]
<no-speech>
[293.365]
ஏன் அப்பிடி
[294.135]
<no-speech>
[295.245]
ஏன் அப்
[295.955]
<no-speech>
[297.985]
<sta> அப்ப வந்து நீ வந்து வந்து ஏமாத்தற நடிக்கற மரியாதை குடுக்கிற மாதிரி பின்னாடி போனா மரியாதை இல்ல
[302.245]
<no-speech>
[303.295]
<no-speech>
[303.695]
<no-speech>
[307.995]
இல்ல அப்புறம் ஏன் அப்பிடி சொல்ற ஏன்னா இப்ப வந்து அம்மாலாம் வராங்க இப்ப யாருனா வராங்கனா இப்ப மாமா வராங்கனா நான் <foreign> எதுனாலும் சொன்னாங்கனா மாமா வந்தாங்க அத வந்தாங்க அப்டீனுதான் சொல்லுவன் மாமா வந்தான்
[319.915]
<sta> அத வந்தா அப்டீனா சொல்ல முடியும்
[322.575]
<no-speech>
[323.775]
<sta> இல்ல நான் அந்த மரியாதை அர்த்தத்துல சொல்றேன் கேக்குறேன் இப்ப எனக்கே ஓர் அண்ணன் இருந்தானா நான் அப்பிடி தான் சொல்லணும் சொல்லும் போது அப்டி தான் சொல்லுவன் நீ ஏன் சொல்லும் போது அப்பிடி சொல்றம்னு கேக்குறேன்
[333.475]
<no-speech>
[340.165]
<no-speech>
[340.885]
<no-speech>
[344.805]
(())
[345.635]
<no-speech>
[349.995]
<no-speech>
[350.445]
<no-speech>
[357.595]
(())
[359.165]
<no-speech>
[367.565]
உம்ம் உம்ம் உம்ம்
[369.335]
<no-speech>
[380.335]
<sta> ஏன் என்னைய இல்ட்ட (())
[381.675]
<no-speech>
[383.685]
<sta> சரி சரி யார் அந்த ரெண்டு <no-speech> அந்த ரெண்டு ஃபிரண்ட் யார் பேர்
[389.215]
<no-speech>
[393.035]
<sta> என்னது
[394.355]
<no-speech>
[397.095]
<sta> ஜாய்ன்சும் ஜாக்குலின்னும் <no-speech> ஜாக்குலின் புரியுது ஃபர்ஸ்ட் நேம் என்னது
[405.555]
<no-speech>
[406.575]
<sta> ஜரீஸ்ஷ் ஆ ஓ ஜெயஸ்ரீ ஆ <no-speech> ஜெயஸ்ரீ இன்னோன்னு ஜாக்குலின்
[417.335]
<sta> இப்ப இப்ப கொஞ்ச நேரத்துக்கு முன்னாடி ஃபோன் பண்ணினயே அது யார்
[419.785]
<no-speech>
[422.255]
அப்ப ஏன் அந்த பொண்ணு வந்து பேசல
[424.065]
<no-speech>
[432.685]
உம்ம்
[433.185]
<no-speech>
[437.775]
<no-speech>
[438.175]
<no-speech>
[442.565]
உம்ம்
[443.075]
<no-speech>
[452.145]
ஓ ஓகேய் ஓகேய்
[453.445]
<no-speech>
[455.955]
<sta> உம்ம் உம்ம் உம்ம்
[459.345]
<no-speech>
[464.235]
<sta> எனக்கு ஃபிரண்ட்ஸா நறய பேர் இருக்காங்கலே எக்கசக்கமா
[468.005]
<no-speech>
[471.785]
<sta> அத யாரனு சொல்றது ரொம்ப பெஸ்ட் ஃபிரண்ட்ஸ் பசங்கள்ல பாத்தா பாரூக்னு ஓர் பையன்
[477.075]
<no-speech>
[478.595]
அதுக்கப்புறம் கார்த்தினு ஓர் பையன்
[480.805]
<no-speech>
[481.745]
<no-speech>
[482.115]
<no-speech>
[487.045]
<sta> ஆமாம் அவன் ஒருத்தான் அதுக்கப்புறம் ஆஃபீஸ்ல விக்கினு ஓர் பையன் இருக்கான் அப்புறம் நறய பேர் பெஸ்ட் ஃபிரண்ட்ஸ் கொஞ்சம் குளோசான ஃப்ரென்ட்ஸ்னா இவங்க தான் அதுக்கப்புறம் கேர்ல்ஸ்ல கொஞ்சம் ஃபிரண்ட்ஸ் இருக்காங்க பெஸ்ட் ஃபிரண்ட்ஸா
[498.745]
<sta> கேர்ல்ஸ்லயும் அதே மாதிரி கொஞ்சம் ஃபிரண்ட்ஸ் இருக்காங்க இப்ப பாய்ஸ்ல நல்லா குளோஸ் ஃபிரண்ட்ஸ் இருக்காங்கல்ல அந்த மாதிரி கேர்ல்ஸ்ல கொஞ்சம் பேர் நறய பேர்ஃப்ரென்ட் இருக்காங்க நறய பாய் ஃபிரண்ட்ஸ் இருக்காங்க கேர்ல்ஸ்ல நறய ஃபிரண்ட்ஸ் இருக்காங்க
[510.405]
ஆனா கொஞ்சம் குளோஸ் ஃப்ரென்ட்ஸ்னு பாத்தா கொஞ்சம் கொஞ்சம் பேர் தானே இருப்பாங்க
[513.805]
<no-speech>
[516.315]
<sta> ஆனா உன்ன மாதிரி நீ சொன்னியே சின்ன வயசுலேருந்து ரெண்டு பேர் ஃபிரண்ட்ஸா இருக்காங்கன்னு <no-speech> அந்த மாதிரி ஃபிரண்டுனு பாத்துதா எனக்கு கார்த்தியும் பரூக்கும் மட்டும் தான் தான்
[528.225]
<no-speech>
[529.965]
<no-speech>
[530.915]
<sta> உம்ம்
[533.145]
<no-speech>
[534.675]
<sta> தெரியாதா அவன் வந்து பரூக் அவன் வந்து ஓர் முஸ்லீம் பையன் அவன் கார்த்தி நானும் மூனு பெரும் சின்ன வயசுலேருந்து ஸ்கூல்லேர்ந்து ஃபிரண்ட்ஸ் இல்ல <no-speech> ஸ்கூல் மேட்ஸ்சு
[545.375]
அப்புறம் ஒரே ஏரியாவிலயே இருந்தோம் இப்ப தான் பரூக் கொஞ்சம் தள்ளி போய்ட்டான் <no-speech> ஆன்
[551.905]
<no-speech>
[553.005]
<sta> ஆமாம்
[554.295]
<no-speech>
[557.425]
<sta> நீ ஏன் வெளிய வர நீ கேட்டு கிட்ட இருப்பேன் சொல்லிட்டு தான் நான் இங்க வந்தேன் நீ கேட்டு கிட்டயே வந்து பேசு நீ எங்கயும் சுத்தாத
[565.355]
<no-speech>
[567.125]
<sta> அதான் அதான் அவுங்க வீட்ல தான் தான் வீடு
[572.565]
<no-speech>
[574.365]
<sta> அவுங்க என்னன்னு நெனச்சிட்டு இருப்பாங்கன்னா என்ன இந்த பொண்ணு பேசிக்கிட்டே இருக்குதுனு அப்டின்னு சொல்லிட்டு நீ கேட்டு கிட்டயே நின்னு பேசும்
[579.175]
<no-speech>
[581.755]
<sta> கஷ்டமாங்காட்டி உள்ள கூட இல்ல வேணாம் வேணாம்
[584.285]
<no-speech>
[585.955]
<no-speech>
[587.335]
<no-speech>
[588.425]
<sta> ஆமாம் அதுல சிக்னல் வேற சரியா இருக்காது
[592.515]
<no-speech>
[595.465]
<sta> உம்ம் உம்ம் கேக்குது கேக்குது நீ அங்கயேந்தே பேசும்
[600.125]
<no-speech>
[600.220]
