[0.000]
<no-speech>
[5.035]
(())
[5.615]
<no-speech>
[9.735]
<laugh> ஆமான்டா ஸர்வர்ல இருந்து வருது கால்ஸ்
[12.625]
<no-speech>
[17.175]
<no-speech> ஆஹ் ஆஹ் சரி அப்புறம் சொல்றேன் இதைப் பத்தி ஜென்ரலா
[21.615]
<no-speech>
[22.685]
<hes> என்ன திடீர்னு வீட்லனு
[27.625]
<no-speech>
[31.555]
<no-speech> எவ்ளோ நாள் கழிச்சிடா இத <int> சொல்லுச்சி
[33.405]
<no-speech>
[35.305]
எவ்ளோ நாள் கழிச்சிடா அத விக்கறே
[36.765]
<no-speech>
[37.995]
<sta> எனக்கு தான் ஒரு (())
[40.185]
<no-speech>
[41.165]
<no-speech> வாயிஸ் பிரேக் ஆவ்தா
[42.325]
<no-speech>
[45.525]
<no-speech> எனக்கும் அப்டிதா இருக்கும்
[46.525]
<no-speech>
[48.075]
<no-speech>
[48.425]
<no-speech>
[52.745]
ஆஹ்
[53.375]
<no-speech>
[60.005]
<no-speech>
[66.635]
ஹே ஸேடர்டே அப்டி இருக்கிற மாதிரி பண்ண முடியாதா யெல்லாத்துக்கும் ஆஃபீஸ் இருக்கும்ல
[71.285]
<no-speech>
[72.625]
<no-speech>
[72.995]
<no-speech>
[77.345]
ஆஹ்
[77.735]
<no-speech>
[82.725]
உம்ம்
[83.405]
<no-speech>
[87.105]
<no-speech>
[87.625]
<no-speech>
[89.005]
சரிடா சரிடா வீட்ல வீட்ல தான் இருக்க
[91.535]
<no-speech>
[98.145]
ஓ அவ ஜான்ஸிகி
[99.845]
<no-speech>
[106.975]
ஓ வீட்லயே தானா
[108.135]
<no-speech>
[112.235]
சரி (()) <no-speech> உன்னோட <no-speech> என்ன என்ன மொபைல் யூஸ் பண்ற
[115.405]
<no-speech>
[120.925]
(()) ஆஹ் நெட்வொர்க்
[123.795]
<no-speech>
[125.425]
<no-speech> நெட்வொர்க் நெட்வர்குடா
[126.715]
<no-speech>
[129.945]
ஏர்டெல்லா <no-speech> சரி சரி <no-speech> ரமேஷ் ஓர் நாள் ஃபோன் பண்ணிருந்தான் மணி வந்துருக்கான் <no-speech> எங்கிருகேனு கேட்டான் <no-speech> நாம் இப்ப தான்டா வீட்டுக்கும் ஃபோனே அப்டீன்னேன்
[140.105]
<no-speech>
[145.395]
ஆன் அது ஓன்- ஹவுஸ் தான் அது
[147.335]
<no-speech>
[152.775]
<no-speech>
[153.265]
<no-speech>
[156.875]
ஆன்
[157.295]
<no-speech>
[166.095]
ஓ ஓ ஓகேய் ஓகேய் ஓகேய் ஆஹ் இப்ப அவங்க அப்பா அம்மா எல்லாம் எங்க (())
[169.245]
<no-speech>
[172.335]
ஓ இது ரெண்டல் விட்டுடலாம் அப்படின்டா
[174.345]
<no-speech>
[184.805]
<sta> (())
[185.375]
<no-speech>
[186.605]
ஆன்
[187.225]
<no-speech>
[188.275]
<lipsmack> சொல்லவே இல்ல அவங்க
[189.625]
<no-speech>
[190.645]
<no-speech> அது ஓர் வேள அதுக்கு தான் போன வாரம்
[193.075]
<no-speech>
[194.505]
ஆஹ் ஆமாண்டா கால் பண்ணிருந்தான் மணி வந்துருக்கான் எங்கிருகே எனானு கேட்டான் <no-speech> ஓர் வேல அதுக்காக தான் இருக்குன்னு நெனக்கிறேன்
[200.225]
<no-speech>
[202.385]
சரி அப்புறம் <no-speech> அப்றமென்ன
[204.205]
<no-speech>
[209.185]
ஆன்
[209.555]
<no-speech>
[210.845]
<no-speech> யார் மணி (())
[212.125]
<no-speech>
[214.845]
<no-speech> ரமேஷுகும்மா அவன் (())
[217.525]
<no-speech>
[220.055]
(())
[220.545]
<no-speech>
[222.945]
ஆன்
[223.335]
<no-speech>
[227.825]
<no-speech>
[228.475]
<no-speech>
[229.275]
(())
[230.385]
<no-speech>
[231.775]
<int> (()) அப்டியே கல்யாணம் (()) தான்
[235.425]
<no-speech>
[240.645]
(())
[241.485]
<no-speech>
[242.395]
நாம் வந்துட்டு கால் பண்ரேண் என்ன டைம் நீ இங்க இருப்ப வீட்ல நீ
[245.165]
<no-speech>
[247.815]
சரி வீட்ல <no-speech> எப்பம் இருப்ப
[249.565]
<no-speech>
[254.855]
<no-speech> ஆஹ்
[255.425]
<no-speech>
[256.585]
சரிடா சரிடா
[257.555]
<no-speech>
[263.735]
<no-speech> ஆமா எனக்கு ஃபைவ் தேர்ட்டி ஷிஃப்ட் ஓகேய் சிக்ஸ் தேர்ட்டிகு வருவேன் <no-speech> சிக்ஸ் தேர்ட்டிகு மேல வந்து
[269.225]
<no-speech>
[275.865]
ஆமா ரொம்ப தொலைவில இருக்கும் <laugh> ஆஃபீஸ் உனக்கு நீ லெஃப்டுல கட் பண்ணனோம் நாம் ரைட்டுல கட் பண்ண போறேன்
[281.705]
<no-speech>
[283.705]
<no-speech>
[284.115]
<no-speech>
[290.225]
சரி சரி சரி
[291.145]
<no-speech>
[292.325]
நானும் வரேன் நானும் அப்பனா இந்த வாரம் ஊருக்கு போலான்னு இருக்கன் ஏன்னா போன வாரமும் போல
[297.365]
<no-speech>
[300.405]
(())
[300.775]
<no-speech>
[308.065]
நாம் எங்க வாரம் வாரம் போய்னு இருக்கன் போன வாரம் வேர போலயா
[311.105]
<no-speech>
[313.355]
<no-speech>
[313.745]
<no-speech>
[315.115]
உம்ம் நல்- நல்லா இருக்கா நல்லா இருக்காம் இப்பலாம் அந்த அம்மா வந்து <no-speech> அப்படியே <hes> யாராவது பேசுனாங்கன்னா அப்படியே திரும்பி பாக்குறது <no-speech> கண்ண மட்டும் திரும்பி பாக்குறது
[324.035]
<no-speech>
[324.975]
<no-speech> சகோதிரி
[325.565]
<no-speech>
[327.335]
<no-speech> ஆஹ் ஆகப்போகுது
[328.325]
<no-speech>
[329.965]
<no-speech>
[330.495]
<no-speech>
[331.545]
<no-speech> ஆம்புத்
[332.165]
<no-speech>
[334.555]
ஆஹ் லைன்னு கொஞ்சம் நேரத்தில <no-speech> கட்டாயிடுமா ஆட்டோமெட்டிக்கா அதுவே கட்டாயிடுமா
[337.735]
<no-speech>
[339.135]
<int> ஆமா
[339.675]
<no-speech>
[341.575]
ஆஹ் கட்டாயிடும் கட்டானதும்- கூப்புடறேன் உனக்கு
[344.885]
<no-speech>
[346.145]
<no-speech>
[346.655]
<no-speech>
[347.515]
உம்ம் (())
[348.085]
<no-speech>
[351.245]
<no-speech> அவாயாவா எண்ணா தெரியல ஏய் வாய் பத்தி நிறைய கேக்கணும்டா உனக்கு
[354.375]
<no-speech>
[355.205]
நிறைய டவுட் இருக்குடா <no-speech> ஃபுல்லாம் வாயிஸ் (())
[358.315]
<no-speech>
[361.875]
ஆஹ் <no-speech> இல்ல இல்ல (()) இதப்பத்தி இதப்பத்தி இதுல பேச வேண்டாம் இதுல ஃபோன்ல கூப்புடறேன்
[365.865]
<no-speech>
[366.715]
(())
[367.995]
<no-speech>
[370.445]
டெக்னிக்கலா எதுவும் பேச வேண்டாம் இத ரெக்கார்டிங் போட்டு கேப்பாங்க எப்படி இருக்கும் வாயிஸ் வாயிஸ் <foreign> <no-speech> அதுக்காக இப்போம் ஓர் வாயிஸ் செட்டப் பண்ராங்கணா ஓகேவா அப்டின்ட்டு
[382.185]
எல்லாரியும் கூப்ட்டு இந்த மாதிரி <no-speech> யாருக்- யாருக்காவுது கால் பண்ணி பேசுங்கனு சொல்லிட்டு <no-speech> அந்த வாயிஸ் <foreign> வச்சு இந்த சர்வர் போடலாமா (())
[390.365]
<no-speech>
[394.585]
(())
[395.395]
<no-speech>
[398.075]
<no-speech> அது- அதனால தான் அவங்க மொபைலும் இதுவும் கேக்கறாங்க வீட்ல இருக்கியா <no-speech> இல்ல இதும் <no-speech> நெட்வொர்க் என்ன நெட்வொர்க்
[405.945]
<no-speech>
[406.835]
(())
[408.755]
<no-speech>
[412.745]
என்த் ஆஃபீஸுல இருக்கேனல ஆஃபீஸுல இருக்கேனல உள்ள ரூம்ல இருக்ரதால அப்டி பிரேக்காவ்தானு தெரில
[420.245]
<no-speech>
[421.625]
<no-speech> உம்ம் அப்புறம் பசங்க யாராவது பாத்தியா அருண் கால் பன்றான்
[425.055]
(())
[432.885]
யார்
[433.625]
<no-speech>
[438.295]
ஆமா
[439.005]
<no-speech>
[443.225]
<laugh> ஏன்டா இதெல்லாம் நாம் (())
[446.025]
<no-speech>
[454.385]
<no-speech> ஏய் என்னடா <no-speech> ஏய் சும்மாடா அதலெல்லாம்
[457.045]
<no-speech>
[460.765]
<no-speech> ஆஹ்
[461.165]
<no-speech>
[462.905]
மணி ஏன்டா அடிச்சுட்டானாமா அருண
[465.065]
<no-speech>
[469.675]
<no-speech>
[470.665]
<no-speech>
[471.505]
அடப்பாவி எப்பம் <no-speech> இதும் சீமந்தத்துக்கு <no-speech> வரணுமா
[475.825]
<no-speech>
[478.835]
(())
[479.255]
<no-speech>
[481.595]
<no-speech>
[481.955]
<no-speech>
[486.365]
டேய் இல்லடா சும்மா சொல்றான் நெனக்கிறேன் ஏன்னா அவங்ளாம் <hes> இவ ரமேஷ் <no-speech> *பண்ணி* <no-speech> ஆஹ் அப்புறம் மணி எல்லாம் வந்து மாயாஜால் போறதா சொல்லி கெளம்பி போய்ட்டாங்க காட்ல <no-speech> அதுக்கப்புறம் இவன் பைக்ல தான் போனான் அது வரைக்கும்
[497.845]
கூட தான் இருந்தாங்க
[498.645]
<no-speech>
[508.415]
ஆஹ் ஆஹ் ஆஹ்
[509.245]
<no-speech>
[511.345]
<no-speech> தேவயாது உனக்கு <no-speech> ஆனா என்கிட்ட எதுவுமே சொல்லுடா அவன் ரெண்டு மூனு <no-speech> போன வாரம் தான் கால் பண்ணும் டிரைவர்ஸ் வேணும் மிஷினோட டிரைவர்ஸில்ல
[522.005]
<no-speech> ஹே டவுன்லோட் பண்ணிட்ரு (()) யெங்காவது வந்து வாங்கிக்றேன்
[525.275]
<no-speech>
[527.015]
<no-speech> ஆஹ் மிஷின் <foreign> பண்றானாம்
[530.425]
<no-speech>
[532.105]
டிரைவர்ஸ் <no-speech> <hes> அதனால நீ டவுன்லோட் பண்ணிதரியா அப்டின்றான்
[535.865]
<no-speech>
[537.115]
<int> ஓர் தடவ ஒரு தடவ இ_சி_ஆர் இ_சி_ஆர்ல அவங்க அத வீடு உம்ம் ஹலோ கட்டாயிடுச்சு
[543.235]
<no-speech>
[544.175]
ஆஹ் ஆஹ் <laugh> ஏதோ சவுண்ட் வந்துது <no-speech> அத அவங்க அத வீடு இருக்கும் இ_சி_ஆர்ல அங்க (()) கூப்ட்டான் கூப்ட்டு எனக்கு ஷிஃப்ட் (())
[555.865]
வரதுக்கு போறதுக்கு வீட்டுக்கும் போய் துங்கரதுக்கு இதுக்கே சரியா இருக்கும் எனக்கு <foreign> என்னோட பர்சனல் வர்கே பார்க்க முடியல அவன் கூப்ட்டான் ரெண்டு மூனு தடவை ஒரு தடவ நானும் வந்து வரேன்னு சொல்லிட்டேன் ஆனா அவருக்கும் வேல இருக்காம்
[567.295]
<no-speech> போயிட்டாரு
[568.555]
<no-speech>
[569.565]
அதுக்கப்புறம் இன்னொர் நாள் ஃபோன் பண்ணி கேட்டா <no-speech> <hes> ஏய் இல்லடா இப்ப தா வீட்டுக்கும் வந்துர்க்கேன் டயர்டா இருக்கும் பாக்கலாம்டா அப்டீன்னேன் ஃபோன கட் பண்டான்
[577.095]
<no-speech>
[579.685]
ஃபோன கட் பண்டாங்க நானும் அம்மாவும் <laugh> உனக்கு எவ்ளோ அடுப்பு இருந்தா எனக்கு எவ்ளோ அடுப்பு இருக்குன்னு நானும் பண்ணவேயில்ல நானும் <no-speech> அதுக்கப்புறம் அவன ஃபோன் பண்ணி பேசினான் <no-speech> பேசிட்டு ஏய் இது மாரி ப்ரொப்ளம்டா வந்து பாரேன்டா அப்டின்றான்
[591.375]
அத நீ ஒழுங்கா சொல்ணும்டா நாயே <laugh> அப்டின்னு <int> அப்புறம் அப்ரம்போனா கீபோர்டு பிண்ணெல்லாம் அழிச்சு ஒடச்சு வெச்சிருக்காங்க
[598.715]
<no-speech>
[599.705]
(())
[599.945]
<no-speech>
[600.040]
