[0.000]
<no-speech>
[1.925]
<no-speech>
[2.775]
<no-speech> ஹலோ பிரியா
[4.935]
<no-speech>
[6.085]
<no-speech> ஆஹ் ஃபைன் டி நீ எப்டி இருக்க
[8.015]
<no-speech>
[10.465]
எல்லாரும் நல்லாருக்காங்க <no-speech> அப்புறம் <int> தங்களின் வேல எப்டி கொண்டு போயிக் கொண்டிருக்கிறது
[15.335]
<no-speech>
[17.525]
<no-speech> *தங்களின்* வேள எப்டி போய் கொண்டிருக்கிறதுன்னு கேக்குறேன்
[19.875]
<no-speech>
[22.275]
<no-speech> நலமாக இருக்கின்றதா <no-speech> பிறகு
[25.075]
<no-speech>
[27.275]
<no-speech> பிறந்தநாள் ஃபன்க்ஸன் நன்றாகவே போனதும் <int>
[30.245]
<no-speech>
[33.325]
<no-speech> ஏய் தமிழ்ல பேசுடி <int>
[37.505]
<no-speech>
[38.705]
<no-speech> நீ சொல்லு <no-speech> அப்புறம் ஏன்டி அன்னிக்கு வர்ல <no-speech>
[45.725]
<no-speech>
[47.685]
<no-speech> ஹோ அப்டியா
[49.275]
<no-speech>
[50.305]
பிறகு <no-speech> ஆஹ் எல்லாரும் நன்றாக இருக்கிறார்கள்
[53.715]
<no-speech>
[55.625]
<sta> ஏய் நல்லா பேசடி <no-speech> நீ தான் சேட் ஆயிட்ட நான் என்ன பண்றது <click>
[58.845]
<no-speech>
[62.645]
<no-speech> ஓ அப்டியா
[63.845]
<no-speech>
[68.335]
உண்மையாவா டி <no-speech> அன்னைக்கு டாடி இல்லாதது தான்டி குறை டாடி இருந்தாங்கன்னா இன்னும் சூப்பரா இருந்துருக்கும்
[74.045]
<no-speech>
[76.245]
<sta> ஆஹ் <hes> வர புதன்கெழம வராங்க <no-speech>
[79.525]
<no-speech>
[80.755]
<sta> ஆமான்டி சம ஜாலியா இருக்கபோது எங்க டாடி வந்தா தான் இனிமே எல்லாமே <laugh>
[84.325]
<no-speech>
[86.585]
<laugh> <sta> சாக்லெட் என்ன என்னமோ வாங்கிட்டு வருவாரு நான் கேக்காததெல்லாம் வாங்கிட்டு வருவாரு <sta>
[91.495]
<no-speech>
[93.455]
<cough> <sta> ஆஹ் செரிறி டி
[96.535]
<no-speech>
[99.685]
<sta> ஆஹ் கண்டிப்பா டி நினைச்சு பார்க்கிறேன் <no-speech>
[104.925]
<no-speech>
[106.995]
<sta> ஆஹ் எல்லாரும் பாத்துட்டு இருக்காங்க கிளாஸ்ல சம போர் டி <no-speech> புடிக்கவே இல்ல உக்காரவே <no-speech> இன்னும் எவ்ளோ நேரம் இப்டி பேசணும்
[114.525]
<no-speech>
[118.015]
<no-speech> டென் மினிட்ஸா <no-speech>
[120.095]
<no-speech>
[121.135]
<no-speech> அந்த கருமத்த யார் வெட்டுனா <laugh>
[122.935]
<no-speech>
[124.125]
<no-speech>
[125.765]
<no-speech>
[126.805]
<no-speech> எனக்கு ஆன்சரே தெரியாது (())
[128.785]
<no-speech>
[133.005]
<sta> ஏய் நாளைக்கு பிரியா அம்மா வீட்டுக்கு போலாம் ச்சீ ஆஸ்பிட்டலுக்கு போலான்ருக்கோம் நீ என்ன நெனைக்குற
[137.645]
<no-speech>
[142.235]
<sta> ஆமா அதான் இன்னைக்கு நைட் பண்றாங்களாம் நாம நாளைக்கு <no-speech> போலாம் கிளாஸ்ல இன்னைக்கு போட்ல- குடுத்துர்லாம்
[148.125]
<no-speech>
[149.985]
<no-speech> அம்மாவுக்கு இல்ல இல்ல மொத்தமா <foreign> போல அம்மாவையும் கூட்டி போ
[154.345]
<no-speech>
[155.765]
<no-speech> ஆஹ் சரி <no-speech> அதான் நாளைக்கு <no-speech> *ரெசல்ட்* வந்த உடனே அவளே கூட்டு போறேன் சொல்லிருக்கா பிரியா
[162.705]
<no-speech>
[164.765]
<no-speech> ஆமா
[165.445]
<no-speech>
[167.795]
<no-speech> ஆஹ் அதான் <hes> அதான் இன்னிக்கு நீ உழைக்கிறியே அதுல அதுனால நாங்க இங்கிருந்து ஓகேவா <no-speech> பிறகு <no-speech> ஆஹ் (())
[179.235]
<sta> நீ குடுக்கப்போறயா <no-speech> ஹம்
[181.365]
<no-speech>
[182.485]
<no-speech> அப்ப வார்டு நம்பர் எல்லாமே நோட் பண்ணி வச்சிக்கோ
[185.115]
<no-speech>
[187.165]
<no-speech> ஓ சரி சரி அப்ப த்ரூவா போயிடலாம் பஸ் இருக்குதா <no-speech>
[193.795]
<no-speech>
[194.645]
<no-speech> ஓ ஆறு இருக்கும் பொதுவா <no-speech> ஏய் இல்ல சிக்ஸ்டிடூகே போலாம்டி ஆறுக்காக வெயிட் பண்ணி-
[199.705]
<no-speech>
[201.715]
<sta> ஓ சரி சரி அப்ப நாளைக்கு நம்ம போலாம் என்ன நாளைக்கு யாரும் காலேஜ்க்கு வர வேணாம்
[204.885]
<no-speech>
[205.705]
மேம் கிட்ட சொல்லிட்லாமா யாமக்குடம்
[207.645]
<no-speech>
[208.505]
ஆன் <int> ஐ <foreign> திஸ் <no-speech> <foreign> டெஸ்ட் வேற <sta>
[214.905]
<no-speech>
[215.975]
<no-speech> போன சாட்டடே வச்சாங்க இந்த சாட்டடே ஆக்ச்சுலா லீக் தான் வரணும் <no-speech> <hes> செகண்ட் சாட்டடே தாமா சிக்ஸ் நமக்கு சிக்ஸ் <foreign> இருக்குல்ல
[224.735]
<no-speech>
[225.615]
<no-speech> அதுனால கண்டிப்பா வச்சு தான் ஆகணும் அப்டி சொல்ட்டாங்க
[228.245]
<no-speech>
[229.115]
<no-speech> இல்லனா லீக் வரும் <sta> ஆனா நெக்ஸ்ட்டு சாட்டடே லீக்
[230.915]
<no-speech>
[232.045]
<sta> ஆமான்டி <no-speech> நம்ம எத்தன நாள் தான் தள்ளி தள்ளி போடுறது பாரு இன்னைக்கு டெஸ்ட் வைக்குறத வேற தள்ளி போட்டாச்சு
[236.285]
<no-speech>
[238.035]
<sta> ஆஹ் அதையும் நாளைக்கு வேற எழுதணும் <sta>
[241.345]
<no-speech>
[245.105]
<no-speech> சொன்னியா
[247.645]
<no-speech>
[249.665]
<no-speech> ஓ
[250.285]
<no-speech>
[255.345]
ஆஹ் <no-speech> சிரிச்சிட்டு போறங்கல்ல <foreign> நமக்கு இன்னும் தெரியவே தெரியாது
[259.785]
<no-speech>
[261.735]
<no-speech>
[262.965]
<no-speech>
[263.935]
<no-speech> ஆமா நாளைக்கு <foreign> <foreign> <foreign>
[265.875]
<no-speech>
[267.745]
<no-speech> ரெண்டுமே நாளைக்கு தான் <no-speech>
[269.855]
<no-speech>
[271.605]
<sta> எனக்கு ஆன்சரே தெரியாதுன்னு ஃபீல் பண்ணிட்டிருக்கேன் <no-speech> கொஷ்டின்
[279.905]
<no-speech>
[283.005]
<sta> ஓ சரி சரி <no-speech> அப்புறம்
[285.525]
<no-speech>
[287.085]
<no-speech>
[287.445]
<no-speech>
[292.155]
<no-speech> லாஸ்டா அவ வீட்டுக்கு தான் போய்ருப்பாக
[293.905]
<no-speech>
[296.065]
<no-speech> வீட்டுக்கு <no-speech>
[297.695]
<no-speech>
[298.865]
சும்மா <no-speech> ஏய் ஏய் ஏய் பிரியா <no-speech> தேர்ஸ்டே எங்க வீட்டுக்கு வரியா
[303.015]
<no-speech>
[304.755]
<no-speech> ஆஹ் <sta>
[306.075]
<no-speech>
[307.165]
<no-speech> ஏய் இல்ல அவ வெட்னஸ்டேக்கு <foreign> டாடி வராங்க <sta>
[310.205]
<no-speech>
[311.215]
<cough> அதான் வரியா தேர்ஸ்டே <no-speech>
[314.685]
<no-speech>
[316.585]
<sta> ஏய் அதுகில்ல சும்மா எதாது சாக்லேட்காக இருக்கும்ல வீட்டுக்கு வந்து ஜாலியா பேசி சாப்ட்டு போலாம்ல
[321.035]
<no-speech>
[322.985]
<no-speech> ஏய் போ ஃபா <no-speech> காலேஜ்க்கு வந்தா நிறைய பேரு- <no-speech> வீட்டுக்கு வந்தீங்கனா
[327.305]
<no-speech>
[330.065]
<no-speech> நீங்க ரொம்ப அழகா இருக்கீங்க மேடம் <laugh>
[334.645]
<no-speech>
[335.535]
<no-speech> ஏய் <no-speech> பிரியா <no-speech> நீங்க அழகா பேசுறீங்க உங்க வாயிஸ் ஸ்வீட்டா இருக்கு நீங்க எங்க இருக்கீங்க <no-speech> கஸ்டமர்கேர் <laugh>
[347.325]
<sta> <laugh> அப்பிடியா நான் உங்க பின்னாடிதாங்க நிக்குறேன் <no-speech> ஆஹ் அப்புறம்
[358.815]
<sta> <laugh> ஆக்ச்சுலா இந்த *பெல்லு* கட்டாம போய்ட்டு வந்தேன் <no-speech> எனக்கு சம சரிப்பா இருக்கு பிரியா எனக்கு
[369.385]
<no-speech> ஓகேய் ஃபைன் <no-speech> அப்ப <foreign> கலை மற்றும் அறிவியல் கல்லூரி
[377.045]
<no-speech>
[379.405]
<no-speech> பின்னாடி போடு பாத்தியா- <int>
[380.735]
<no-speech>
[382.375]
<no-speech> ஆமா ஆமா <sta>
[386.085]
<no-speech>
[388.325]
<no-speech> ஓ அப்பிடியா அப்ப அது வரைக்கும் பேசணுமா
[390.245]
<no-speech>
[392.525]
<sta> <laugh> பெல் அடித்து விட்டது தாங்கள் வீட்டுக்கு செல்லும் நேரம் வந்து விட்டது <no-speech>
[398.855]
<no-speech>
[399.905]
<sta> இருந்தாலும் தொடர்ந்து <foreign> கொண்டிருப்போம் <sta>
[405.875]
<no-speech>
[407.035]
<no-speech> தெர்லியே நீ அப்டியே நின்னு பேசிட்டுரு <no-speech> அது அதுவே கட் ஆயிடுனு சொன்னாங்கள
[412.855]
<no-speech>
[413.715]
<no-speech> ஏய் <no-speech> தள்ளி போ நீ தள்ளி போ
[415.585]
<no-speech>
[417.725]
<no-speech> பண்றாங்களே <no-speech> <hes> நேத்தெல்லாம் அலௌ பண்ணல இன்னிக்கு அலௌ பண்றாங்க
[422.855]
<no-speech>
[425.695]
<sta> ஆமா <no-speech> இன்னிக்கு நம்ம வந்துருக்கோம்ல அதுனால <laugh> நம்மள வுட்றாங்க ஆமா <no-speech> தெரியாத புள்ளபூச்சி கத கெட்டுப்போச்சுனு நெனச்சுக்குறாங்க
[437.295]
<no-speech> ஒன்னு இல்லம்மா <no-speech> அப்புறம் சாப்டியா
[442.195]
<no-speech>
[443.135]
<sta> ஏய் மூஞ்சிய பாத்து பேசாத திரும்பு <no-speech> எனக்கு மட்டும் என்ன காமடியா இருந்துச்சு எனக்கு <sta>
[451.975]
<no-speech>
[453.445]
<sta> என்ன தைரியம் <no-speech> பிரியா <no-speech> அப்ப-
[460.235]
<no-speech>
[462.665]
<sta> <laugh> ஏய் <no-speech> இந்த <foreign> திருப்பி கெடைக்காது <no-speech> ஆமா ஆமா <no-speech> பிறகு
[474.525]
<sta> தமிழரசி வந்து கொண்டு இருக்கிறாள் <no-speech> தமிழரசி அவ கூட தான் நீ வீட்டுக்கு போணும் எப்டி நீ வீட்டுக்கு வரியா <no-speech> இல்ல கேட்க்குறேன் நானும்
[486.385]
<no-speech> ஓ அப்டியா <no-speech> ஓகேய் ஓகேய் <no-speech> நான் மறைச்சுட்டு வண்ட்ட மாறியே வராங்க பெமிலா மேம் <laugh>
[497.895]
<no-speech>
[498.905]
<no-speech> ஆஹ் <no-speech> ஃபோன புடிச்சு வைக்குற மாறியே வராங்க <sta>
[503.465]
<no-speech>
[505.505]
<sta> ஆஹ் <no-speech> ஏய் <no-speech> ஏய் பிரியா <no-speech> என்னடி எல்லாரும் என்ன கலாய்க்கிறாங்க <laugh> <sta>
[516.485]
<no-speech>
[517.845]
<no-speech> செவுத்துகிட்டனே நெனச்சுக்கலாம் <no-speech> ஏய் என்னடி மொக்க போடு அப்புறம்
[527.625]
<no-speech>
[528.495]
<sta> <laugh> ஏய் நான் என்ன உன் லவ்வரா என்ன போர் அடிக்குற வர உன் கிட்ட பேசிட்டு இருக்குறதுக்கு <no-speech> உன் லவ்வருக்கு ஃபோன் பண்ணு
[535.305]
<no-speech>
[536.855]
<sta> ஆஹ் <no-speech> ஏய் காது சூடாவுது
[540.435]
<no-speech>
[543.015]
<no-speech> சரி ஓகேய் ஓகேய் <no-speech> அப்புறம்
[546.395]
<no-speech>
[549.025]
<no-speech> தெரிலயே அது அவங்களுக்கு தான் தெரியணும் <no-speech>
[552.835]
<no-speech>
[554.945]
<no-speech> எம்புட்டு தைரியம் பாரு <hes>
[556.395]
<no-speech>
[557.295]
<no-speech>
[557.675]
<no-speech>
[558.735]
<sta> <laugh> அப்புறம் <no-speech> உன் கிட்ட இருந்தும் இன்னும் நிறைய எதிர்பாக்குறேன் <laugh> <sta>
[569.505]
<no-speech> என்னது இங்கடி இங்க சொன்னேன்டி <laugh> <sta>
[572.665]
<no-speech>
[574.365]
<sta> அப்ப நம்ம காலேஜ்ல எத்தன <foreign> இருக்கும் தெரியுமா <no-speech>
[578.825]
<no-speech>
[580.305]
<sta> அப்டியா <no-speech> க்ளாஸ்ரூம் எத்தன இருக்கும் தெரியுமா <no-speech> க்ளாஸ்ரூம்
[586.595]
<no-speech>
[589.235]
யாரும் கேக்கலியே <no-speech> கேட்டா நான் இங்க ப்ரியாகிட்டதான் <laugh> பேசுறேன்னு கை காமிச்சு விட்ருவேன் <laugh>
[597.335]
<no-speech>
[598.195]
<no-speech> ஆமா <no-speech>
[600.105]
<no-speech>
[600.320]
