[0.000]
<no-speech>
[7.675]
ஹலோ
[8.425]
<no-speech>
[10.585]
ஆன் சொல்லு கீது
[11.655]
<no-speech>
[16.195]
<sta> எனக்கு வேற வேல செட் ஆக மாட்டேங்குது நைட் ஷிஃப்ட் இருக்கு ஒரு மனிக்கு ஃப்ளைட் இருக்கு
[19.665]
<no-speech>
[23.085]
என்ன பண்றது <laugh> <breath> சூரியா எங்க
[26.735]
<no-speech>
[30.105]
இல்ல இங்கன தான் இருக்கு
[31.745]
<no-speech>
[33.415]
ஆன் என்னடா
[34.875]
<no-speech>
[37.025]
ஆன் <int>
[37.425]
<no-speech>
[41.135]
ஆன் எங்க இருக்கு
[42.115]
<no-speech>
[46.165]
ஆன்
[46.865]
<no-speech>
[50.705]
சரி சரி
[51.525]
<no-speech>
[54.805]
அதான் என்னடா அதிசியமா சுரேஷ் சைட்ல அதிசியமா கால் வருதுன்னு பாத்தேன்
[58.075]
<no-speech>
[59.955]
<no-speech>
[60.505]
<no-speech>
[63.215]
ஆன்
[63.635]
<no-speech>
[66.055]
உம்ம் உனக்கு டைம் பாஸ் ஆவலனு இப்ப என்ன போட்டு கலாய்ச்சுனுருக்கியா <int>
[69.345]
<no-speech>
[72.665]
ஆன்
[73.135]
<no-speech>
[74.505]
ஆன் ஆன்
[75.205]
<no-speech>
[79.895]
சரி சரி சரி எவ்ளோ நேரம் வேணா பேசின்னுருக்கறேன்
[82.885]
<no-speech>
[86.815]
ஓர் முக்கியமா கால் <hes> உங்கள விட முக்கியமான கால் எனக்கு வரவிருக்கு
[90.925]
<no-speech>
[92.505]
<no-speech>
[93.555]
<no-speech>
[96.035]
<sta> டேய் <hes> ஆமா நைட் இங்க ஸ்டரைக் (()) அங்க ஸ்டரைக் நாளைக்கு ஸ்டரைக் அங்கலாம்
[101.585]
<no-speech>
[104.355]
ஆமா சென்னைலயே ஸ்டரைக் தான் <sta>
[106.985]
<no-speech>
[108.325]
<sta> இன்னைக்கு இல்ல நாளைக்கு <no-speech> ஆமா
[112.065]
<no-speech>
[113.335]
பட் இருந்தாலும் ஸ்டரைக் இல்ல அந்த டீசல் பெட்ரோல் விலை ஏத்துனாங்கன்னு
[116.705]
<no-speech>
[118.635]
ஆன் அதனால போய் பைக் பாக்கி
[120.295]
<no-speech>
[122.845]
ஆமா ஆமா
[123.655]
<no-speech>
[126.095]
பேங்க்கும் லீவ் ரெண்டு நாள் பேங்க்கும் லீவ்
[128.355]
<no-speech>
[130.865]
ஆமா
[131.685]
<no-speech>
[136.945]
அதனால தான் நைட் ஷிஃப்ட் போட்டேன் காலைல வந்து குட்ட அச்சு ஒட்சுருவாங்க கேரளால
[140.665]
<no-speech>
[142.455]
அதானல தான் நைட்டி நைட்டி ஓர் கள்ள கடத்தல் பண்ற மாதிரி நைட்டோட நைட்டா பண்றோம் <int>
[146.525]
<no-speech>
[147.495]
<no-speech>
[148.605]
<no-speech>
[149.615]
<no-speech>
[150.325]
<no-speech>
[151.695]
<sta> யார்னா (()) ட்ரைனிங்குல தான்
[155.765]
<no-speech>
[158.535]
<sta> ஆன்
[159.395]
<no-speech>
[164.225]
<no-speech>
[164.575]
<no-speech>
[165.895]
<sta> இல்ல அதான் எடுத்த உடனே வாங்கிட்டியா
[168.235]
<no-speech>
[170.765]
<sta> ஆன் <hes> சொல்லும் அவன்ட்ட சொல்லும் <breath> செரிறி தலை சொல்ற மாரி என்ன சுரேஷ் செல்ல அதிசியமா கால் வருது அப்டின்னு <laugh>
[179.415]
<no-speech>
[181.875]
<no-speech>
[182.495]
<no-speech>
[186.515]
<sta> இல்ல டில்லி இனிமே தான் சாப்டணும் டில்லி செஞ்சுனு இருக்காங்கனுங்க ரசம் மீன்
[190.085]
<no-speech>
[193.475]
ஆன் <sta>
[194.045]
<no-speech>
[196.845]
<sta> <hes> நீ சாப்டியா <no-speech> யார் யார் இருக்க நீ <hes> சாம்சன் கூட இருக்கானா
[202.255]
<no-speech>
[208.005]
<sta> ஆன் வரலாயா அப்ப இன்னிக்கு
[209.985]
<no-speech>
[215.275]
சரி சரி
[216.275]
<no-speech>
[218.005]
<sta> அப்பறம் <no-speech>
[219.715]
<no-speech>
[220.615]
சரி
[220.965]
<no-speech>
[223.735]
ஏன் நானா
[224.625]
<no-speech>
[225.755]
ஓஹோ
[226.305]
<no-speech>
[227.185]
நீ குடுத்த நீ குடுத்த பாத்தியா பிரேமா நம்பர்
[229.695]
<no-speech>
[231.705]
பிரேமா மகேஷ் காலேஜ் பிரேமா
[233.525]
<no-speech>
[235.215]
<sta> ரொம்ப ஃபோன் பேசுற
[236.835]
<no-speech>
[238.765]
ஆன்
[239.725]
<no-speech>
[240.975]
<sta> அது வீட்டுக்கு (()) வீடு இது
[244.465]
<no-speech>
[246.685]
<sta> அருமை செயின் உடுத்தி
[247.785]
<no-speech>
[251.575]
<sta> (()) தங்கச்சி வந்து முருக பழனி ஸ்கூல் கிட்ட
[255.655]
<no-speech>
[257.855]
ஆன்
[258.425]
<no-speech>
[260.095]
ஆன் அவங்க அப்பா கொத்தனார் <laugh>
[264.725]
<no-speech>
[265.565]
தெரியுதா
[266.465]
<no-speech>
[269.655]
ஆன் ஆன் கொத்தனார் <hes> ஓர் தம்பி இருக்கான் தம்பி வேல செய்றான்
[274.505]
<no-speech>
[278.885]
<sta> சொல்லிடவா இருடா டேய் என்ன கலாய்க்றதே வேலையா போச்சு
[284.845]
<no-speech>
[286.715]
<no-speech> பிரியாட்ட குட் (())
[289.135]
<no-speech>
[291.075]
<sta> இதா இதா இதாங்கூட எது வந்தது
[292.965]
<no-speech>
[296.405]
<sta> பேச கூடாதா
[297.535]
<no-speech>
[299.395]
சரி
[299.805]
<no-speech>
[302.145]
<laugh> <sta> சொல்லி வை இலாவுக்கு தூக்கிடுவேன்னு கலாய்ச்சுட்டே இருக்கான் என்ன
[308.205]
<no-speech>
[311.345]
<laugh> பேசு
[313.505]
<no-speech>
[317.525]
<sta> <breath> ஆமா பயங்கரமா உடம்பெல்லாம் ஏத்திட்டு இருக்கியா நீ கேள்வி பட்டேன்
[322.295]
<no-speech>
[324.215]
அய்- ஏஞ்சலு பயங்கரமா <breath> பயங்கரமா ஏத்திட்டி இருக்கியா ஒடம்ப நியூஸ் வந்துனு தான் இருக்குது எனக்கு
[331.035]
<no-speech>
[337.565]
<sta> எங்களுக்கு பிளாஸ் நியூஸ் பிளாஸ் நியூஸ் வந்தனே தான் இருக்கும் டெய்லி
[340.595]
<no-speech>
[341.495]
திடீர்னு இந்த மாதிரி இங்க போறான் இங்க வர்றான் இந்த மாதிரி பண்ணினு இருக்குறான் ஒடம்பேத்திக்திக்குறான் எல்லா நீயூசும் வந்துன்னுருக்கு எனக்கு ஒன்னும் தெரியாதுன்னு நினைச்சுட்டு இருக்காத
[347.375]
<no-speech>
[350.245]
<no-speech>
[350.975]
<no-speech>
[351.865]
<sta> டோட் டோட்டல் நெட்வொர்க்கும் இப்ப என்கிட்ட தான்
[354.925]
<no-speech>
[357.015]
டோட்டல் <sta> நெட்வொர்க்கே இப்ப என்கிட்ட தான் இருக்குது
[359.315]
<no-speech>
[363.195]
<no-speech>
[364.835]
<no-speech>
[367.095]
டொக்கமோவா பஸ்ட்ல இருந்தது
[368.725]
<no-speech>
[371.585]
உம்ம்
[372.035]
<no-speech>
[373.625]
<sta> திரை துறை துறை <hes> உங்க உங்க எல்லாம் ட்ரீபிள் ஃபைவ் என்ன பண்றது
[378.065]
<no-speech>
[378.865]
<sta> எங்க போட்டார் எந்த முஸ்லீம் பொண்ண பாக்குறாருனு நம்மளுக்கு தான் தெரியும்
[382.625]
<no-speech>
[383.795]
<no-speech>
[385.755]
<no-speech>
[387.665]
அப்பா <no-speech> அவர் அவர் கூட சீதோஷணனும் கலியாணமாம்
[391.665]
<no-speech>
[393.745]
<sta> அவளுக்கு <laugh>
[395.715]
<no-speech>
[397.835]
எவ்ளோ சுத்தின்னு இருக்கு நானும் ஒண்ணும் என்ன பாத்துட்டியா
[400.335]
<no-speech>
[402.815]
என்னமோ பாத்தா மாதிரியே பில்டப் குடுக்குற
[404.965]
<no-speech>
[408.865]
எது வரைக்கும் இங்கயே எனக்கு (()) நான் சென்னைக்கு வந்ததும் நம்ம எல்லாம் ஒண்ணா போலான்னு சொல்லும்
[413.145]
<no-speech>
[414.215]
இல்ல பில்லா போனான் பாத்தியா நைட்டி
[416.035]
<no-speech>
[417.835]
பில்லா போனானேன்
[419.075]
<no-speech>
[421.275]
அது மறுபடியும் போய்றலாம்
[422.425]
<no-speech>
[426.195]
<no-speech>
[428.065]
<no-speech>
[428.945]
<sta> <laugh> நல்லா காமெடி பண்றடா நீ
[431.795]
<no-speech>
[434.495]
ஆமா சைட் இழுத்தா இழுப்பாட்டி தான்
[436.175]
<no-speech>
[438.015]
உம்ம் இந்தோ பக்கத்திலயா இருக்குது தொள்ளாயிரத்தி ஐம்பது கிலோ மீட்டர்றா
[441.195]
<no-speech>
[447.275]
அப்பறம் சாப்டியா
[448.735]
<no-speech>
[451.275]
<sta> உம்ம் <no-speech> எங்க இருக்க இப்ப எந்த எடத்துல இருக்க நீ
[454.425]
<no-speech>
[459.015]
<sta> அவரா அந்த பொண்ணு பேர் என்ன (()) பேர் கூட மறந்துட்டேன் பாரு ஷாலினியா
[463.285]
<no-speech>
[466.565]
<sta> ஷாலினி ஷாலினி தான்
[467.875]
<no-speech>
[470.375]
ஆன் ஆன் ஆன்
[471.525]
<no-speech>
[475.035]
அதெல்லாம் போயிருந்தது அது சும்மானா ரொம்ப போனா சொல்ல மாட்டான் அவன்
[479.525]
<no-speech>
[481.035]
ஆமா அவங்க பேர் பூனா வாய துறக்க மாட்டான்
[483.925]
<no-speech>
[486.205]
ஆன்
[486.655]
<no-speech>
[490.405]
ஆமா ஆமா அவர் இப்ப மன்மதன் படம் போட்டுக்குறான்பா அவர் கத தான் இதும் <no-speech> கே டிவி போட்டருக்காங்க பாரு மன்மதன்
[495.845]
<no-speech>
[498.225]
ஆமா படம் போட்டுருக்குறான்
[499.485]
<no-speech>
[502.955]
<no-speech>
[503.565]
<no-speech>
[504.825]
என்னவாம்
[505.515]
<no-speech>
[507.075]
ஆன்
[507.495]
<no-speech>
[510.325]
என்னைக்கு இதும்
[511.245]
<no-speech>
[515.065]
ஹலோ
[515.735]
<no-speech>
[517.895]
ஆன் சொல்லும் ஜில்லு
[518.965]
<no-speech>
[523.835]
ஆன் <int>
[524.215]
<no-speech>
[526.345]
<sta> இப்ப இப்ப பயங்கர ஃபார்ம்ல இருக்காய்ங்க இப்போம்
[529.525]
<no-speech>
[531.095]
<sta> இப்ப பயங்கர பார்ம்ல இருக்கான் சூடு என்ன நினைச்சுட்டு இருக்க என்ன நீ கூடவே இருக்குற நம்ளயும் போட்ற நீ என்ன போட்டு வாங்குறியா என்ன
[539.085]
<no-speech>
[540.115]
நான் இல்ல இல்ல வுட்டு குடுக்க மாட்டியா
[542.345]
<no-speech>
[545.625]
<sta> நான் ஏதோ ஒண்ணும் நீ தெருவுல தொல்லை தேவையில்ல ஒண்ணும் தொல்லை தேவையில்ல நீ கைய கால்ல வச்சுட்டு சும்மா இருனுவான்
[550.595]
<no-speech>
[555.165]
<sta> ஆன்
[555.955]
<no-speech>
[558.565]
<sta> நான் இப்ப என்ன டில்லி எனக்கு <hes> ஒன்னுமே புரிலடீ எனக்கு <no-speech>
[564.885]
<no-speech>
[566.595]
<sta> இப்ப ஃபோன் பண்னேன் வெறும் கம்பியூட்டர் வாயிஸ் வந்தது கட் பண்ணாத நீ ஃபோன் பண்ண நீ பேசுறது ஒண்ணும் புரியல எனக்கு நீ பேசி சொல்றம்னு பேசிட்டு இருக்கன்
[574.045]
<no-speech>
[578.325]
<sta> ஆன் ஆமா
[580.235]
<no-speech>
[583.195]
<sta> ஆன்
[583.855]
<no-speech>
[585.695]
உம்ம்
[586.045]
<no-speech>
[592.115]
உம்ம்
[592.505]
<no-speech>
[594.205]
ஆன்
[594.775]
<no-speech>
[597.855]
<sta> இப்ப உன் மொபைலேருந்து பேசுனீரே எப்டி
[599.760]
