[0.000]
<no-speech>
[2.225]
<no-speech> ஹலோ <no-speech> ஹலோ
[6.165]
<no-speech>
[7.275]
<no-speech> ஹலோ
[8.635]
<no-speech>
[11.115]
<no-speech> கேக்குதா <no-speech> ஹலோ
[17.785]
<no-speech>
[19.355]
<no-speech> கேக்குதா இல்லையா <foreign> பண்றா (()) <no-speech> என்னது
[24.015]
<no-speech>
[25.315]
<no-speech> என்னாச்சு <hes> <sta> நீ தான் கட் பண்ணியா
[27.715]
<no-speech>
[29.365]
<no-speech> ஆஹ்
[29.815]
<no-speech>
[30.675]
<no-speech> அப்பயே கட்டாயிருச்சா
[31.545]
<no-speech>
[33.025]
<no-speech> ஓ செரிறி செரிறி <no-speech> ஆஹ் ஒண்ணாந்தேதி (()) <no-speech> யார் கயாமுயானு பேசுடா
[39.345]
<no-speech>
[40.625]
<no-speech>
[41.475]
<no-speech>
[42.835]
<no-speech> ஆஹ்
[43.895]
<no-speech>
[45.825]
<no-speech> புரியல
[46.475]
<no-speech>
[51.495]
<no-speech>
[56.445]
<no-speech>
[57.885]
<no-speech> ஹலோ
[59.175]
<no-speech>
[61.445]
<no-speech> ஹலோ
[65.885]
<no-speech>
[68.575]
<no-speech>
[70.985]
<no-speech>
[73.735]
<no-speech> லூஸ் எங்கயும் போடா <no-speech> (())
[78.315]
<no-speech>
[80.415]
<no-speech> ஆஹ் எங்க விட்டு போன யார் வந்துருக்காம் <no-speech> அப்புறம் என்ன பத்து நிமிஷத்துல எங்க ஓடுற <no-speech> ஆஹ்
[90.665]
<no-speech>
[91.495]
<no-speech> நீ எங்க போன மொதல்ல பத்து நிமிஷத்துல எங்க ஓடுறன்னு கேட்டேன் <no-speech> என்னது
[102.435]
<no-speech>
[103.925]
<no-speech> ஆஹ் செரிறி <no-speech> சவுண்டா தான் பேசு ஒன்னுமே கேக்கல <no-speech> ஆஹ்
[111.445]
<no-speech>
[113.195]
<no-speech> கேக்குது கேக்குது
[114.525]
<no-speech>
[115.755]
<no-speech> ஆஹ் <no-speech> அதிலென்ன
[119.845]
<no-speech>
[119.980]
