[0.000]
<no-speech>
[8.885]
<no-speech>
[9.235]
<no-speech>
[20.815]
<no-speech> ஹலோ
[21.735]
<no-speech>
[23.255]
<no-speech> ஹலோ
[24.035]
<no-speech>
[25.685]
<no-speech> ஹலோ
[26.505]
<no-speech>
[27.365]
<no-speech> ஹலோன்னேன் <int> காது கேக்குது சொல்லு <no-speech> கேக்குது
[32.315]
<no-speech>
[33.235]
<no-speech> படுத்துட்டுருக்கேன்
[34.245]
<no-speech>
[36.635]
<no-speech> படுத்துட்டுருக்கேன் <sta>
[37.735]
<no-speech>
[42.435]
<no-speech> ஆஹ் நேத்தி <no-speech> கல்ல
[45.325]
<no-speech>
[48.055]
<no-speech> ஓ <sta> இல்ல தூங்கல தூங்கல
[49.995]
<no-speech>
[51.965]
<no-speech> தூங்கல <no-speech>
[53.095]
<no-speech>
[56.805]
<no-speech> மெசேஜ் பூஸ்ட்டர் இல்ல அதான்
[59.485]
<no-speech>
[63.105]
<no-speech> ஆஹ் அப்பா கூடருந்தாரு <sta> அதான்
[65.735]
<no-speech>
[69.055]
<no-speech> ஆஹ் போய்ட்டு வந்தேன்
[71.005]
<no-speech>
[71.825]
<no-speech>
[72.255]
<no-speech>
[73.795]
<no-speech> அப்பறம் சாப்டியா
[74.945]
<no-speech>
[77.825]
<no-speech> நான் முட்ட சாப்டேன்
[79.295]
<no-speech>
[80.355]
<no-speech> என்ன பண்ற <int>
[81.345]
<no-speech>
[86.705]
<no-speech> ஆஹ்
[87.215]
<no-speech>
[93.295]
<no-speech> ஆஹ் சொல்லும் <sta> நீ தான் தான் சொல்லணும்
[94.795]
<no-speech>
[97.685]
<no-speech> நீ தான் சொல்லணும்
[99.505]
<no-speech>
[102.375]
<no-speech> ஆஹ் சாப்டேன்
[103.525]
<no-speech>
[106.825]
<no-speech> இல்லல்ல யெங்கத்த வீட்ல <foreign>
[109.185]
<no-speech>
[111.265]
<no-speech> யெங்கத்த வீட்ல <foreign>
[112.875]
<no-speech>
[116.315]
<no-speech> ஸ்ரீவில்லிபுத்துர்
[117.485]
<no-speech>
[119.715]
<no-speech> ஆஹ்
[120.295]
<no-speech>
[122.235]
<no-speech> அத்த வீடே தான் <no-speech>
[124.905]
<no-speech>
[126.485]
<no-speech> ஆர்த்தினா ஒரு அலாதி குஷி இல்ல
[129.965]
<no-speech>
[133.985]
(())
[134.665]
<no-speech>
[136.905]
<no-speech> வெறும் ஆர்த்தி தான்
[138.055]
<no-speech>
[142.145]
<no-speech> <foreign> <foreign> (()) <int>
[143.145]
<no-speech>
[145.335]
<no-speech> எஸ்ஸு தம் <sta> சிஸ்டர்
[146.865]
<no-speech>
[151.505]
<no-speech> உம்ம் தென் <foreign>
[153.045]
<no-speech>
[155.675]
<no-speech> ஆஹ் மண்டே நைட் கெளம்புறேன்
[158.175]
<no-speech>
[160.455]
<no-speech> உம்ம்
[161.215]
<no-speech>
[164.775]
<no-speech> ஏய் ஆமா ஸ்ட்ரெயிட்டா காலேஜ்க்கு போணும் ஆல்ரெடி சிவசங்கர் என்ன திட்டிட்டுருக்கான் <no-speech>
[169.045]
<no-speech>
[170.805]
<no-speech> எங்கம்மா லீக் <foreign> பண்ணா ஃபோன் பண்ணுமோ அப்டி சொன்னா <no-speech> குட்மார்னிங் சார் வாழ்க வளமுடனாம் <laugh>
[177.515]
<no-speech>
[178.805]
<no-speech>
[181.175]
<no-speech>
[182.205]
<no-speech>
[182.615]
<no-speech>
[183.475]
<no-speech> அவன் என்ன சொன்னான் எனக்கு தெரில <no-speech>
[186.025]
<no-speech>
[186.845]
<no-speech> ஃபிரைடே காலேஜ் போனா தான் தெரியும்
[188.625]
<no-speech>
[190.755]
<no-speech> இன்னைக்கு <foreign> எல்லாரும் ஜாலியா என்ஜாய் பண்ணிருப்பாங்க நான் மத்தரம் போல
[194.585]
<no-speech>
[196.085]
<no-speech> இன்னைக்கு <foreign> எல்லாரும் ஜாலியா என்ஜாய் பண்ணிருப்பாங்க நான் மத்திரம் போல
[200.205]
<no-speech>
[206.305]
<no-speech> நீங்க பண்ணுவீங்க ஸிப்பெல்லாம் எடுத்துட்டு வந்து (()) <int>
[209.435]
<no-speech>
[213.185]
<no-speech> அங்க போனா கேட்டேன் <foreign> நீங்க என்ன பண்ணுவீங்க
[215.995]
<no-speech>
[216.955]
<no-speech> மெக்கானிக்கல் பாய்ஸ்ல்லாம் கார் <foreign> அதெல்லாம் வுட்டாங்க
[220.335]
<no-speech>
[221.245]
<no-speech> நீங்க என்ன <int> ஷிப் <foreign> விட்டீங்களா
[223.195]
<no-speech>
[226.035]
<no-speech> ஆஹ்
[226.695]
<no-speech>
[230.745]
<no-speech> ஓ
[231.415]
<no-speech>
[233.665]
<no-speech> உம்ம் சொல்லும் அப்பறம்
[234.755]
<no-speech>
[239.295]
<no-speech> நீ தான் சொன்ன
[240.305]
<no-speech>
[242.865]
<no-speech> நீ தான் சொல்லும்
[243.905]
<no-speech>
[246.285]
<no-speech> அவ்ளோ தான் பேச தெரியும் எனக்கு <no-speech>
[251.125]
<no-speech>
[252.235]
<no-speech> அவ்ளோ தான் எனக்கு பேசி தெரியும்ன்னேன்
[254.245]
<no-speech>
[257.085]
<no-speech> அவ்ளோ தான் எனக்கு பேசி தெரியும்
[259.455]
<no-speech>
[261.885]
<no-speech> புரிஞ்சுதா
[263.225]
<no-speech>
[267.785]
<no-speech> ஆஹ்
[268.585]
<no-speech>
[271.905]
<no-speech> ஆஹ் வேஷ்ட்டு பண்ணலாமே
[273.485]
<no-speech>
[275.125]
<no-speech> ஆஹ் பண்ணாலாமே
[276.445]
<no-speech>
[283.535]
<no-speech> வெரி கூட் வெரி கூட்
[284.925]
<no-speech>
[289.095]
<no-speech> அப்பறம் ஒங்கப்பா என்ன சொன்னாரு
[291.505]
<no-speech>
[293.325]
<no-speech> ஒங்கப்பா என்ன சொன்னார்
[294.965]
<no-speech>
[297.365]
<no-speech> ஒங்கப்பா என்ன சொன்னார்
[298.805]
<no-speech>
[304.585]
<no-speech> ஆஹ்
[305.755]
<no-speech>
[308.265]
<no-speech> உம்ம் செரிறி செரிறி எத்தன பொண்ணுங்க புரோபோஷ் பண்ணாங்க
[311.795]
<no-speech>
[313.325]
<no-speech> எத்தன பொண்ணுங்க புரோபோஷ் பண்ணாங்க
[315.205]
<no-speech>
[317.525]
<no-speech> எத்தன பொண்ணுங்க புரோபோஷ் பண்ணாங்க எத்தன கேர்ள் ஃபிரண்ட்ஸ் ஒனக்கு <no-speech>
[322.315]
<no-speech>
[323.995]
<no-speech> ஆமா
[324.775]
<no-speech>
[327.565]
(())
[328.965]
<no-speech>
[333.125]
<no-speech> ஒனக்கு இப்போம் எத்தன கேர்ள் ஃபிரண்ட்ஸ் இருக்காங்கன்னு கேட்டேன்ப்பா
[336.405]
<no-speech>
[338.685]
<no-speech> சும்மா தான் கேக்குறேன் சொல்லும்
[340.605]
<no-speech>
[345.275]
<no-speech> ஆஹ்
[345.805]
<no-speech>
[349.955]
<no-speech> எனக்கு தெரியுமா
[351.125]
<no-speech>
[357.065]
<no-speech> அவ்ளோ தானா இன்னும் எவ்ளோ நேரம் பேசிட்டேருக்கணும் கட்டா (()) வரைக்குமா
[360.365]
<no-speech>
[361.475]
<no-speech> எவ்ளோ நேரம் <sta> இப்டி பேசிட்டேருக்கணும்
[363.305]
<no-speech>
[366.435]
<no-speech> எவ்ளோ நேரம் இப்டி <sta> பேசிட்டேருக்கணும்னு கேட்டேன்
[368.765]
<no-speech>
[371.215]
<no-speech> எவ்ளோ நேரம் இப்டி பேசிட்டே இருக்கணும் <no-speech>
[374.485]
<no-speech>
[377.345]
<no-speech> கேக்க கூடாதா <sta>
[378.905]
<no-speech>
[383.475]
<no-speech> ஆஹ் இனிமேல் கேக்க கூடாது இல்ல
[385.875]
<no-speech>
[389.465]
<no-speech> ஏய் அப்டி இல்லப்பா ஆஹ் <hes> ஓகேய் ஓகேய் <foreign> <no-speech> ஆஹ் செரிறி அப்பறம் <int>
[394.205]
<no-speech>
[395.155]
<no-speech> சதீஷ் எப்டிருக்கான் நல்லாருக்கானா
[397.195]
<no-speech>
[398.675]
<no-speech> சதீஷ் எப்டிருக்கான் நல்லாருக்கானானு கேட்டேன்
[401.045]
<no-speech>
[403.475]
<no-speech> ஆஹ் சுதா எப்டீருக்கா <sta>
[405.255]
<no-speech>
[409.965]
<no-speech> நல்லாவா <laugh>
[412.045]
<no-speech>
[414.655]
<no-speech> இல்ல சொல்லுங்க
[415.845]
<no-speech>
[418.555]
<no-speech> அப்பறம்
[419.105]
<no-speech>
[421.265]
<no-speech> நீ எதாவது சொல்லலாமே
[422.865]
<no-speech>
[424.505]
<no-speech> ஃபாஸ்ட் ஃபுட் போய் சாப்டீங்களா <no-speech> உங்களுக்கு சோறு போடுறதுக்கு அங்க ஓர் <int> தெய்வம் இருக்குமே
[429.295]
<no-speech>
[431.655]
<no-speech> ஆஹ் உங்களுக்கு சோறு போடுறதுக்கு அங்க ஓர் தெய்வம் இருக்கமேன்னேன்
[435.095]
<no-speech>
[437.565]
<no-speech> ஏன் போல
[438.915]
<no-speech>
[442.775]
<no-speech> நல்ல விஷயம் ஓகேய்
[444.255]
<no-speech>
[454.385]
<no-speech> நாளைக்கு இல்லங்க <sta> நாளானக்கி நைட் மண்டே நைட்டி
[457.635]
<no-speech>
[459.695]
<no-speech> ஆமா ஆமா
[460.685]
<no-speech>
[463.375]
<no-speech> ஆமா
[464.885]
<no-speech>
[467.395]
<no-speech> இல்ல
[468.465]
<no-speech>
[473.835]
<no-speech> சாப்ட்டு வந்து படுத்துட்டேன்
[475.245]
<no-speech>
[479.665]
<no-speech> நைட்டெல்லாம் எல்லாரும் தூங்குவாங்க எனக்கு <int> தெரிஞ்சு
[482.485]
<no-speech>
[484.635]
<no-speech> நைட்டெல்லாம் எனக்கு தெரிஞ்சும் எல்லாரும் தூங்க தான் <int> செய்வாங்க
[487.635]
<no-speech>
[492.415]
<no-speech> ஆஆ அவ்ளோ தான் அவ்ளோ தான்
[493.925]
<no-speech>
[497.625]
<no-speech> ஓகேய் ஓகேய் அப்பறம்
[499.515]
<no-speech>
[500.405]
<no-speech> வேர் <foreign>
[501.425]
<no-speech>
[503.105]
<no-speech> உம்ம் <foreign> <foreign> டெல் <no-speech>
[506.025]
<no-speech>
[508.405]
<no-speech> ஆஹ்
[510.315]
<no-speech>
[512.875]
<no-speech> இதுக்கு அப்பறம் பேசினா முடியல சீக்கிரம் தயவு செஞ்சு எதாவது பேசுங்க
[517.085]
<no-speech>
[520.835]
<no-speech>
[521.845]
<no-speech>
[523.505]
<no-speech> ஓகேய் ஓகேய்
[525.255]
<no-speech>
[527.585]
<no-speech> ஒன்னுல்ல <no-speech>
[528.875]
<no-speech>
[531.225]
<no-speech>
[534.395]
<no-speech>
[538.895]
<no-speech> செரிறி ஆல் <foreign> பெஸ்ட் ஆரம்பிங்க ஆரம்பிங்க
[541.755]
<no-speech>
[544.555]
<no-speech> அப்பாடா
[545.455]
<no-speech>
[546.955]
<no-speech> ஆமா
[548.665]
<no-speech>
[551.925]
<no-speech> சீ சீ சீ
[554.205]
<no-speech>
[555.175]
<no-speech> ஆஹ் <no-speech> நோ நாட் <foreign> <foreign> வில் <foreign> <foreign> <no-speech> <foreign> ஹிம்
[559.675]
<no-speech>
[561.695]
<no-speech> ஹலோ
[562.385]
<no-speech>
[564.105]
<no-speech> உம்ம் <sta>
[564.895]
<no-speech>
[569.525]
<no-speech> இப்ப நான் என்ன பண்ணணும்னு சொல்ணுமா
[571.435]
<no-speech>
[576.005]
<no-speech> சோனாகிட்ட ஏய் இல்ல நான் இனிமேல் தான் பேசணும் அவட்ட
[578.835]
<no-speech>
[579.785]
<no-speech> அவ கிட்ட சொல்லிருக்கேன் ஷார்ட் ஃபிலிம் பண்ண போறேன் மே பி ரோல் தேவப்பட்டா கூப்டுவேன் பட் நான் இன்னும் அவ கிட்ட கேக்கல நீ தான் அன்னைக்கு சொன்ன கேக்காத அப்டின்னு
[587.075]
<no-speech>
[589.355]
<no-speech> ஆஹ் உம்ம் சரிடி பாக்கலாம் அப்டீன்ருக்கான் நான் இன்னும் டீடெய்ல்டா சொன்னா தான் தெரியும்
[594.545]
<no-speech>
[598.795]
<no-speech>
[599.315]
<no-speech>
[600.220]
