[0.000]
<no-speech>
[1.085]
<no-speech>
[3.585]
ஹலோ
[4.315]
<no-speech>
[5.815]
<sta> உம்ம் நல்லாருக்கேன்டி
[7.965]
<no-speech>
[10.065]
நீ தான் நீ தான் (())
[11.525]
<no-speech>
[14.845]
உம்ம் நல்லா போது <int> உனக்கு எப்டி போகுது
[16.625]
<no-speech>
[21.055]
<sta> இல்லல்ல என்ன கேக்குறதுனு தெரியணும் அவ்ள தான் <no-speech> செரிறி அப்பறம்
[25.865]
<no-speech>
[26.885]
<no-speech> ஸ்பெஷல்லாம் ஒன்னும் கெடையாது
[29.155]
<no-speech>
[31.735]
செரிறி இன்னும் மொக்க போடாத சொல்லு
[33.965]
<no-speech>
[36.485]
உம்ம்
[37.015]
<no-speech>
[39.935]
ஃப்ரண்ட்ஷிப் டேக்கும் என்ன ஸ்பெஷலா
[41.725]
<no-speech>
[42.545]
இல்லல்ல இனிமேல் தான் டிசைட் பண்ணணும் நீங்களாம் என்ன பிளான் பண்ணிருக்கீங்க <int>
[45.505]
<no-speech>
[48.285]
உம்ம்
[48.775]
<no-speech>
[50.865]
கேக்குறேன் நீங்களாம் என்ன பிளான் பண்ணிருக்கீங்கனு (())
[54.265]
<no-speech>
[57.215]
உம்ம் <int>
[57.685]
<no-speech>
[60.135]
<no-speech>
[60.505]
<no-speech>
[62.565]
ஓ செரிறி அதான் பிளானா
[64.145]
<no-speech>
[66.785]
அப்பறம் வேறென்ன
[68.555]
<no-speech>
[71.405]
செரிறி (())
[72.365]
<no-speech>
[75.595]
சொல்லுங்க அப்பறம் வேற என்னது
[77.515]
<no-speech>
[78.485]
உம்ம் என்ன பண்றது
[79.695]
<no-speech>
[84.685]
உம்ம் அதெல்லாம் ஓகேய் உம்ம் ரொம்ப முன்னாடியே முடியாமயே இருந்தாங்க இப்ப ஓகேய் ஃபைன் அப்பறம் வேறென்ன கேக்குறது உன் தங்கச்சிக்கு ஸ்கூல் எல்லாம் எப்டி போகுது
[93.375]
<no-speech>
[98.065]
ஓ ஏன் லேட்டா பேசுற
[100.705]
<no-speech>
[102.725]
லேட்டா கேக்குது எனக்கு ஏன் அந்த மாறி பேசிட்டு இருக்க ரிஸீவர பக்கமா <int> வச்சு பேசு
[107.025]
<no-speech>
[109.145]
<no-speech>
[109.555]
<no-speech>
[111.335]
ஏன் (()) நிரஞ்சனுக்கு உடம்பு சரியில்லயா
[113.295]
<no-speech>
[116.645]
ஹலோ <no-speech>
[118.405]
<no-speech>
[119.865]
ஓகேய் ஓகேய் ஓகேய்
[121.165]
<no-speech>
[122.095]
<sta> அப்பறம் வேறென்ன
[123.225]
<no-speech>
[125.505]
நேத்து <sta> ஃபிரண்ட் வீட்டுக்கு போனியே எப்டி இருந்தது
[127.465]
<no-speech>
[130.945]
ஃபிரண்ட் வீட்டுக்கு நேத்திகி போனியே எப்டி இருந்ததுன்னு கேக்குறேன்
[133.735]
<no-speech>
[138.205]
ஓ வீட்ல இருக்கேன்னு சொன்ன
[139.685]
<no-speech>
[142.425]
புரியல
[143.095]
<no-speech>
[147.515]
ஓ ஓ ஓ ஓகேய் ஓகேய் ஓகேய் உம்ம் உம்ம் அம்மாலாம் எப்டி இருக்காங்க
[151.795]
<no-speech>
[155.195]
ஏன் ஒரே சலிப்பா பேசுற ஒழுங்கா பேசும்
[157.345]
<no-speech>
[162.025]
நீ அப்டிலாம் இல்லியே
[163.395]
<no-speech>
[165.505]
நான் கை கால் ஆட்டி ஆட்டி ஜாலியா சிரிச்சு சிரிச்சு தான் பேசிட்டு இருக்கன்
[168.415]
<no-speech>
[172.225]
உம்ம் உம்ம் அப்பறம் வேறென்ன
[174.895]
<no-speech>
[177.785]
சொல்லுங்க நீங்க தான் <int> சொல்லணும்
[179.175]
<no-speech>
[185.175]
<no-speech> ஹலோ
[186.175]
<no-speech>
[188.525]
ரொம்ப டிஸ்டபர்ன்ஸா இருக்கு
[189.815]
<no-speech>
[192.195]
<int> லைன் அவுங்களுக்கு ஓகேய்
[194.165]
<no-speech>
[196.435]
உம்ம் உம்ம் ஓ அப்பறம் <no-speech>
[199.805]
<no-speech>
[203.695]
ஆஹ் என்ன கூடத்தான் <no-speech> நீயாவது பரவால்ல அட்லீஸ்ட் எதாவது பேசும் (()) என் நெலமைய நெனச்சு பாரு
[208.735]
<no-speech>
[211.965]
<no-speech> உம்ம்
[212.655]
<no-speech>
[215.885]
எத பத்தி <int>
[216.755]
<no-speech>
[218.945]
<no-speech> அத பத்தி ஒண்ணும் நெனைக்கல நெனக்கிறதுக்கு ஒண்ணும் இல்லம் இல்ல
[221.905]
<no-speech>
[224.325]
காந்தி புடிக்கும் மாயா எல்லாமே நீயே தான் கேக்குறியா
[227.945]
<no-speech>
[230.705]
<no-speech> ஆஹ் ஆஹ் புடிக்கும் புடிக்கும் <int>
[233.025]
<no-speech>
[234.845]
ஏன் அவர புடிக்குமா
[236.055]
<no-speech>
[237.905]
பாக்க கியூட்டா இருக்காருல்ல அதுனால
[239.775]
<no-speech>
[243.005]
ஏன் அவருக்கு என்ன
[244.435]
<no-speech>
[247.585]
உம்ம்
[248.215]
<no-speech>
[250.305]
வேற யார் <int>
[251.465]
<no-speech>
[253.515]
எனக்கு நாய்ஸ் கேட்டுட்டே இருக்கு உனக்கு கேக்குதா அந்த பக்கம்
[256.755]
<no-speech>
[262.095]
இன்னும் அஞ்சு நிமிஷமா அப்பறம் ஏன் மூனு நிமிஷம்னு சொன்ன
[264.505]
<no-speech>
[268.105]
<no-speech> ஐய்யய்யோ இன்னுமுமா என்ன மொக்க போடுறது தெரிலயே எனக்கு
[272.365]
<no-speech>
[275.545]
புரியல
[276.325]
<no-speech>
[279.865]
ஆஹ் கொடுப்பாங்க நெனக்கிறேன் தெரியல இப்ப தான் நான் ஃபர்ஸ்ட் இன்டிபன்டன்ஸ்டே <foreign> பண்ண போறேன் ஆஃபீஸ்ல
[284.305]
<no-speech>
[286.335]
தரமாட்டாங்களா
[287.295]
<no-speech>
[288.705]
ஓ அப்ப ஆஃபீஸ விட்டு போக வேண்டிய தான்
[290.545]
<no-speech>
[292.945]
உம்ம் <no-speech> டூராம் ஆகஸ்ட் ஃபிஃப்டீன் தான் இன்டிபன்டன்ஸ்டே டூர் ஆகஸ்ட் ஃபிஃப்ட்டீனா கெடையாதுல்ல
[299.025]
<no-speech>
[302.225]
ஓ அது கூட உனக்கு தெரியாது
[303.875]
<no-speech>
[307.545]
<no-speech> அது தெரியும் <sta> எனக்கு
[309.095]
<no-speech>
[311.375]
செரிறி எதாவது சொல்லும் ஏன் சம்மந்தமே இல்லாம மொக்க போட்ற
[313.915]
<no-speech>
[319.295]
<no-speech> டைம் (()) இருக்காத
[321.225]
<no-speech>
[323.565]
யெதயாவது சொல்லும்
[324.715]
<no-speech>
[330.035]
<sta> என்னாலயும் தான் முடியல என்ன பண்றது விடமாட்டிங்குறாங்களே
[333.425]
<no-speech>
[336.625]
<no-speech>
[338.405]
<no-speech>
[339.565]
புரியல நான் தான் நிறைய பேசணுமாமா <no-speech> மாட்டேன் மாட்டேன் பேசவே முடியாதுறி இதுல
[344.925]
<no-speech>
[347.145]
<no-speech>
[347.525]
<no-speech>
[351.315]
உம்ம் உம்ம்
[352.405]
<no-speech>
[355.945]
இல்ல இல்ல இல்ல இல்ல டான்ஸ்லாம் இன்னைக்கு ஆட கூடாது <int>
[358.685]
<no-speech>
[362.365]
<lipsmack> <foreign> ஓகேய் பரவால்ல ஏன்டி அதெல்லாம் நீ தான் நல்லா ஆடுவல்ல
[366.485]
<no-speech>
[369.775]
ஓ ஓ ஓ ஓகேய் ஓகேய் <int> ஏன் பசங்களோட ஆட மாட்டியோ
[373.365]
<no-speech>
[375.995]
உம்ம்
[376.515]
<no-speech>
[378.705]
(()) இல்ல பசங்களோட ஆட மாட்டியானு கேக்குறேன்
[381.225]
<no-speech>
[383.965]
ஒரு பொண்ணு இருந்தா தான் <int> உனக்கு ஓகேய் ஓகேய் ஓகேய் ஓகேய் அதான் ஐஸுலாம் ஆடுவாலாம்மே அவள நீ கூப்டுருக்கலாமே
[389.605]
<no-speech>
[392.445]
ஓ ஓகேய் ஓகேய் ஓகேய் ஓகேய் நான் யாராது இருந்தானா <hes> நான் வேணா டிரை பண்ணட்டுமா உனக்கு (()) இருக்கவங்க யார் கிட்டயாவது
[398.205]
<no-speech>
[401.525]
ஓகேய் <int>
[402.725]
<no-speech>
[404.225]
அப்புறம்
[404.995]
<no-speech>
[409.345]
ஓ இன்னும் திரீ <foreign> <int> இருக்கா
[410.985]
<no-speech>
[412.635]
உம்ம்
[413.395]
<no-speech>
[415.825]
உன்ன (()) <int>
[416.665]
<no-speech>
[420.725]
<no-speech> என்ன பண்றது <no-speech> செரிறி (())
[425.585]
<no-speech>
[428.025]
உம்ம் <no-speech>
[429.815]
<no-speech>
[431.315]
டூர்க்கா ஐ <foreign> (()) <int> உம்ம்
[434.295]
<no-speech>
[436.685]
ஐ <foreign> ஐ வில் கம்
[437.825]
<no-speech>
[441.505]
எடுத்தாச்சு
[442.715]
<no-speech>
[445.375]
பாக்கலாம் <int>
[446.215]
<no-speech>
[447.465]
உம்ம்
[447.985]
<no-speech>
[450.095]
இல்ல எனக்கு சீரியஸா தெரியல வருவேன் நெனக்கிறேன்
[453.085]
<no-speech>
[454.805]
இல்ல <int> நீங்க வரீங்களா
[456.765]
<no-speech>
[458.995]
நீங்க வறீங்களானு கேட்டேன்
[460.515]
<no-speech>
[463.745]
சும்மா (())
[464.795]
<no-speech>
[466.425]
ஏன் <int>
[467.065]
<no-speech>
[470.325]
உம்ம் அப்பறம் வேறென்ன <foreign> எல்லாம் ரெடியா டூர்க்கு எல்லாம்
[473.745]
<no-speech>
[476.005]
டூர்க்கு <int> எப்டி
[477.165]
<no-speech>
[478.155]
என்ன <foreign> பண்ணிட்டு இருக்க <sta> டூர்ல <foreign> <foreign> ஆர் <foreign> ஆஹ்
[482.615]
<no-speech>
[485.675]
அதான் கேக்குறேன் <foreign> <foreign> ஆர் <foreign>
[487.545]
<no-speech>
[490.945]
<foreign> மச்சான் ஏன்
[492.125]
<no-speech>
[496.135]
<int> அதான் (()) அப்ப அதான் டூர் பத்தி <no-speech>
[500.805]
<no-speech>
[502.025]
சொல்லும் ஓகேய் ஓகேய் சொல்லும் சொல்லும் அதான்
[504.065]
<no-speech>
[508.745]
ஏன் கஷ்டம் இதுக்கு முன்னாடி நீ உன் ஃபிரண்ட்ஸோட போனதே கெடையாதா <no-speech>
[512.725]
<no-speech>
[514.845]
ஓஹோ
[516.005]
<no-speech>
[517.085]
ஓ உம்ம் <int>
[518.155]
<no-speech>
[520.465]
<int> உம்ம்
[521.025]
<no-speech>
[525.085]
உம்ம் உம்ம் உம்ம் <int>
[526.705]
<no-speech>
[531.455]
<int> ஓகேய் அப்புறம் வேறென்ன
[534.805]
<no-speech>
[538.965]
ஏன் சொன்னா அந்த டைம் முடியுறதுக்கா <int>
[541.035]
<no-speech>
[542.865]
ஓகேய் ஏன் <foreign> சவுண்ட் கேக்குது எனக்கு எதாவது பிராப்ளமா உன் லைன்ல
[546.455]
<no-speech>
[547.405]
<no-speech>
[548.025]
<no-speech>
[549.605]
ஓ ஃபைன் ஓகேய் <no-speech> அப்புறம் வேற என்ன
[553.035]
<no-speech>
[554.505]
<no-speech>
[554.925]
<no-speech>
[556.765]
உம்ம் சொல்லும் <int> வேறெதாவது இருக்கா சொல்லும் <int> குட்டி
[559.815]
<no-speech>
[560.795]
என்னது <int>
[561.545]
<no-speech>
[562.675]
<int> ஆஹ்
[563.445]
<no-speech>
[564.385]
<foreign> என்ன சாப்டேன்னா <no-speech> நீங்க என்ன சாப்டீங்களோ அதே தான் சாப்டேன்
[568.415]
<no-speech>
[570.705]
ஓ நானும் <int> அது தான்
[571.825]
<no-speech>
[573.885]
ஆஹ் (())
[575.085]
<no-speech>
[576.425]
உம்ம் அதான்
[577.435]
<no-speech>
[578.535]
<no-speech> அப்பறம் வேற (())
[580.845]
<no-speech>
[582.835]
எண் உஊம்
[584.245]
<no-speech>
[586.365]
ஏன் அப்டியெல்லாம் <sta> (())
[587.835]
<no-speech>
[589.425]
<sta> என்ன முடிஞ்சுருச்சா ஆஹ் செரிறி செரிறி இன்னும் முடிலயா <no-speech>
[596.285]
<no-speech>
[597.525]
<no-speech>
[599.845]
<no-speech>
[600.000]
