[0.000]
<no-speech>
[0.295]
<no-speech> ஹலோ சொல்றா
[7.045]
<no-speech>
[7.865]
அது <sta> சும்மா டிவி பாத்துனு வீட்ல யாருமே இல்ல
[10.335]
<no-speech>
[14.985]
நான் எங்கப்பா தான் இதும் படிக்க சொல்றாரே என்ன எம்_இ படி எம்_இ படின்றாரு நான் சொல்லிட்டேன் எங்கப்பாட்ட எம்_இ படிச்சால எனக்கு வேல கெடைக்காது அப்ப பாத்துக்கலாம் நீ பட் அப்டின்னு சொல்லி சாவடிச்சுனு <sta> இருக்குறாரு எங்கேருக்கே வீட்ல இருக்கியா எங்கேருக்கே
[26.875]
<no-speech>
[29.575]
ஆஹ் <no-speech> எங்க ஊர்ல இல்லையா ஒங்கப்பா
[32.735]
<no-speech>
[35.325]
ஆஹ்
[35.685]
<no-speech>
[39.545]
ஆஹ் சரி சரி என்ன (()) பசங்கட்டதான் போறென்னான்னே
[43.335]
<no-speech>
[44.235]
அவன் அந்த <foreign> சீக்கோ ஏதோ சொன்னா ஆர்பர்லியோ ஏதோ ஒரு இதும் சொன்னான் தெரியுமா
[48.275]
<no-speech>
[50.025]
அங்க தான் தான் போறேன் சொன்னா நேத்தும் நீ வந்து ஏறிட்ட நீ பாட்டுக்கும் போயிட்டு நானும் வசந்ததான் இருந்தும் உன்ன தேடுனோம் ஆளயே காணோம் நீங்க
[55.605]
<no-speech>
[58.505]
அதான்டா ஆர்பர்ல ஆர்பர்ல ஏதோ ஓர் கம்பெனி அவங்க அண்ணணோட ஃபிரண்ட் வச்சுருக்கானாம் சொந்தமா
[63.745]
<no-speech>
[64.795]
சரி அப்டின்ட்டு வரியாடானு கேட்டான் அதே மாடி நீ கேசட் <foreign> கார்ட் வச்சுகிறியா இல்ல பி_எல்_சி மட்டும் தானா
[70.075]
<no-speech>
[73.605]
<foreign> கேடு புடிச்சுருந்தா <no-speech> ஆஹ்
[76.455]
<no-speech>
[78.765]
இல்ல இல்ல அது சொல்ல <foreign> கேடு படிச்சுருந்தா இது வாங்கி தரேன்னா எங்கேயோ ஓர் எடத்துல இருவத்தோராயிரம் சம்பளம் தர்றாங்களாம் போரூர்ல
[85.915]
<no-speech>
[87.375]
வாங்கி தரேன் அப்டின்னு <no-speech> உம்ம்
[89.205]
<no-speech>
[91.035]
எதுக்கு <foreign> கேடு நான் ஒருத்தன் நான் எதுமே படிக்கல அதுக்கு என்ன பண்றது
[95.045]
<no-speech>
[98.995]
அது தான் படிக்கனும்டா இதும் இப்ப சேந்தா முடிக்குமா நான் காலேஜ் ஸ்டார்ட் ஆயிட்டா முடிச்சுருவாங்களா
[103.395]
<no-speech>
[107.735]
இல்லடா இப்ப சேந்துட்டேன் வச்சுக்கவேன்
[109.725]
<no-speech>
[110.555]
காலேஜ் சேர்றதுக்குள்ள முடிச்சுருவாங்களா
[112.415]
<no-speech>
[113.805]
காலேஜ் ஸ்டார்ட் ஆகுறதுக்குள்ள எம்_இ ஸ்டாட் ஆகுறதுக்குள்ள
[115.725]
<no-speech>
[120.725]
ஆஹ்
[121.245]
<no-speech>
[125.595]
ஓஹோ சேர்றா சேர்றா சேர்றா சரி இப்ப ஓர் வேல நான் இப்ப இதும் பண்றேன் படிச்சுர்றேன் ஓர் எடத்துல சேந்துட்டேன் வச்சுக்கவேன் அதே கம்பெனி வேற எடத்துல இருக்கும் இல்லையா கேடு கம்பெனி கேடு சென்டர் சி_எஸ்_சி இப்ப சி_எஸ்_சீனா
[137.515]
இப்ப சி_எஸ்_சி இருக்குல்ல அது மாடி கேடு கண்ட்ரோல் இருக்கு தெரியுமா அது நம்ம மாத்திக்க முடியான்றேன் இப்ப ஓர் எடத்துல சேன்ட்டேன்னா சி_எஸ்_சி (())
[144.965]
<no-speech>
[149.755]
அரக்கோணத்துல அரக்கோணத்துல <sta> ஓர் மயிரும் இல்ல இங்க கம்பியூட்டர் சென்டர்லாம் அவளேவா கெடையாது என்ன என்_ஐ_ஐ_டி இருக்குது சி_எஸ்_சி இருக்குது இதெல்லாம் இருக்குது ஆப்டெக்கு அப்பல்லாம் எல்லாம் இருக்குது ஆனா அந்த கேடு சென்டர் (())
[161.415]
புதுசா ஒண்ணும் இருக்குது அது எப்டி சொல்லித்தராங்கனு தெரில மெட்ராஸ்ல இருக்க மாடி வருமாம் இங்க
[166.125]
<no-speech>
[168.115]
<no-speech> கேடா இல்லடா அதான் <foreign> கேடு சி_எல்_சி எது பெஸ்ட்டோ அது பாத்து படிக்க வேண்டி தான் தான்
[173.345]
<no-speech>
[178.375]
<foreign> அது போனேன்டா அது என்ன நால் பேர் தான் சொன்னீங்க நீங்க இந்த மாறி சொல்றது பாத்தா நான் ஒண்ணும் பிரிப்பேர்ல அவளேவா பண்ண மாட்டேன்டா இ_சி நமக்கு என்ன தெரியும்
[185.105]
<no-speech>
[186.965]
<foreign> சொல்லிருக்கான்ல அவன் <foreign> ஓர் வருஷம் சொன்னானாம் இல்லையா
[189.585]
<no-speech>
[197.145]
இல்ல இல்ல ஓர் வருஷத்துக்கு காசி கட்டனுமா
[198.955]
<no-speech>
[201.375]
எதுக்கும் <sta>
[202.295]
<no-speech>
[203.705]
ஆஹ்
[204.325]
<no-speech>
[208.465]
அது இதுன்னாத சொன்னா டிரெயினிங்தான் அந்த மாறி சொன்னா வசந்த்
[211.685]
<no-speech>
[213.975]
இல்ல பா- நீ வந்து இதும் பண்றேனா சொல்றேனா டைரெக்ட்டா டேரெட் வாக்கின்னா எப்டி அப்ப பாஸ் ஆயிட்ட
[222.445]
<no-speech>
[226.635]
அதான் அதான் டுவென்ட்டி ஃபைவ்க்கு மேல எடுத்தா டைரெக்ட்டா எடுத்துப்பானா
[229.355]
<no-speech>
[230.235]
ஓ <no-speech> சரி
[231.235]
<no-speech>
[234.795]
நானால நான் எடுத்துருவேன்பா <int>
[237.365]
<no-speech>
[238.165]
இப்டித்தான் சொல்லின்னு தான் இப்டி சொல்லிகினுதான் திரியனும்
[240.565]
<no-speech>
[241.985]
<no-speech>
[242.445]
<no-speech>
[243.995]
ஆஹ் இல்லடா ஓர் பையன் போறேண்ணா திங்ககெழம போயிருப்பான்னு நெனக்கிறேன் எங்கடா எங்க மாமாக்கும் வேற வர இருவத்தி ஒண்ணாம் தேதி கல்யாணம் வச்சுட்டு யாரும் இல்ல ஆளுங்க சும்மா நம்லயே புடிச்சு நோண்டிகிறாங்க இதும் செய் அத செய் அங்க போ இங்க ஃபோன்
[255.785]
<no-speech>
[257.495]
ஜான்தான ஏதோ ஓரளவுக்கு எழுதிகிறேன்டா பாப்போம்டா அது லாஸ்ட்லதான் ஓர் ரெண்டு டென் மார்க்குதான் (()) டென்மார்க் ஒழுங்கா எழுதல
[264.935]
<no-speech>
[266.835]
மத்ததுலா பரவால்ல
[268.105]
<no-speech>
[269.875]
ஒன்மார்க்லா நல்லா தான் தான் எழுதிருப்ப எப்டியும் நீ
[271.895]
<no-speech>
[274.155]
ஆஹ்
[274.685]
<no-speech>
[276.945]
ஏன்
[277.465]
<no-speech>
[280.435]
ஏய் என்னாடா புரியல உனக்கு டு மார்க்ல
[282.585]
<no-speech>
[288.015]
வி_வி_வி_எஸ்னா தெரியாதாம் உனக்கு <no-speech> <foreign> <foreign> <foreign> <foreign> <foreign> <foreign> டபுள்வி வே- வி_வி_வி_யா <foreign> <foreign> <foreign> <foreign> <foreign> அதான் <foreign> அது வந்து (()) அது
[302.585]
<no-speech>
[304.905]
அதுவும் (()) <foreign> <foreign> <foreign> <foreign> மட்டும் பேஜ் விட்டு வன்டேன் அது எனானு கூட எழுதல தெளிவா
[310.515]
<no-speech>
[311.635]
*அப்டியே* எழுதிக்கிறேன் எனானு பாப்போம்
[313.865]
<no-speech>
[316.995]
சேலட்டானாவா பாப்போம் எங்கப்பா விடுறமாறியே இல்லடா என்ன இவருக்கென்ன சரி ஓர் வாரம் போய் <sta> சம்பாறிச்சர்லாம் அப்டின்னா எல்லாம் அப்டியே இதும் முடிச்சு வேளைல போனேன்னா அதுக்கப்பறமா (()) சேக்கமாட்டாங்களா நம்மள எத்தன வருஷம் கம்பெனில (())
[328.885]
இதுவும் தான் பாப்பாங்க கம்பெனில என்ன வேல செஞ்சுகுறாங்க என்ன மாறி கம்பெனில வேல செஞ்சுகுறனுதான் பாப்பாங்க நம்மள <int>
[333.255]
<no-speech>
[334.955]
அப்டிதாண பாப்பாங்க இல்ல <sta> அதுக்கப்புறமும் வேற கம்பெனி தேடுனா அப்பவும் பெர்ஷன்டேஜு பாப்பாங்களா என்ன
[339.765]
<no-speech>
[343.815]
சரி இப்ப அங்க எம்_இ நல்ல காலேஜ்ல படிச்சா அது மாடி கேம்பஸ் வர மாறி காலேஜ்ல படிச்சா அப்போ கே- கேம்பஸ் வர காலேஜ்ல எப்டி எந்த மாரி எந்தளவுக்கு சேலரி இருக்கும் எம_இ படிச்சா
[352.685]
<no-speech>
[356.775]
ஆஹ்
[357.325]
<no-speech>
[359.245]
<foreign> போனா <int>
[360.425]
<no-speech>
[361.575]
புரியல <foreign> (())
[362.525]
<no-speech>
[363.915]
ஆஹ்
[364.355]
<no-speech>
[365.695]
ஆமா <foreign> பண்ணிக்கிறேன்
[367.025]
<no-speech>
[371.115]
எப்ப விட்டாங்களா இதுவும் அப்ளிகேசனு
[373.455]
<no-speech>
[377.785]
ஏய் இதும் டுவென்ட்டி நைனுக்கு மேல சொன்னாடா யாரோ புவனேஷ் சொன்னான்டா
[381.135]
<no-speech>
[382.985]
(())
[383.385]
<no-speech>
[385.425]
உம்ம் ஹூம் சேர்றா சேர்றா சேர்றா ஆமா சரி உன் தங்கச்சி என்ன படிச்சது ஆர்ட்ஸ் தான் படிச்சது
[390.135]
<no-speech>
[391.165]
வேல
[391.995]
<no-speech>
[393.705]
ஆஹ்
[394.245]
<no-speech>
[396.395]
<int> செரிறி ஏ எனக்கு தெரிஞ்ச அத பொண்ணு ஒண்ணும் படிக்கனுன்து எம்- பி_ஏ முடிச்சுகுது இங்கிலீஷும்
[402.035]
<no-speech>
[403.465]
ஆஹ் அது வந்து மேல எம்_ஏ படிக்கனுன்து இதும் மெட்ராஸ்ல எங்கெங்க ஆர்ட்ஸ் காலேஜ் இருக்குது எதும் நல்ல காலேஜ் எதுனா கெடைக்குமா அப்டின்றத மட்டும் பாக்கணும் <int> எல்லாம் முடின்ச்சுச்சுல்ல கவுன்சிலிங்லா போக முடியாதுல்ல இனிமேட்டு
[414.795]
இனிமேட்டு
[415.685]
<no-speech>
[418.415]
<hes> எல்லாம் மேனேஜ்மெண்ட்தான் போணும்
[420.465]
<no-speech>
[421.935]
செரிறி உன் தங்கச்சிட்ட எனக்கு கேட்டு நல்லா நல்ல காலேஜ் எங்கியாது சோல்லேன் எங்கெங்க இருந்தா ஓரளவுக்கு என்னென்ன நல்ல காலேஜ் எங்கெங்கெக இருக்குனாச்சு தெரிஞ்சோ நம்ம போய் பாப்போம்
[429.935]
<no-speech>
[432.645]
எம்_ஏ எம்_ஏ எம்_ஏ இங்கிலீஷும்
[434.365]
<no-speech>
[440.125]
அது தேட வேணான்டா <sta> இங்க வந்து எனக்கு வந்து தங்கறதுக்கு இடம் அது மாடி நல்ல நல்ல காலேஜா பாக்கணும் ஜெயா காலேஜ்லாம் வேணா எனக்கு கெடக்கலனா அப்பறம் பாக்கலாம்
[449.515]
<no-speech>
[451.415]
நல்ல காலேஜா பாக்கணும்
[453.155]
<no-speech>
[456.975]
<sta> சரி கேட்டு சொல்லு ஞாபகமா கேட்டு சொல்லும்
[458.785]
<no-speech>
[459.995]
யார்
[460.675]
<no-speech>
[461.555]
சித்தனா <int>
[462.215]
<no-speech>
[465.035]
புளுகிரினா
[465.845]
<no-speech>
[467.455]
என்னது புளு கிர்னு
[468.605]
<no-speech>
[476.045]
யார் வசந்த்தயா அந்த நாய் வேஸ்ட்ரா வேஸ்ட்ரா லூசுடா அவன் இதும் மட்டும் வந்தான்னு வச்சுக்குயேன் (()) மட்டும் யாருக்குமே சொல்லேல பாரேன் இம்போர்ட்டெல்லாம் போனா எழுவத்தஞசு (())
[487.145]
(()) வந்துகுறாங்கடா நம்மளா போயிருந்தா டிரிபிள் இம் அழகா செலக்ட் பண்ட்டு போயிட்ருப்பான் டிரிபிள் இம் தான் மேக்சிம்ம் <int> எடுத்துருகுறாங்கோ வேற யாரையும் எடுக்கல அவளேவா சி_எஸ்_சீல ரெண்டு போறோ என்னவோ செலட்டு
[496.545]
<no-speech>
[497.605]
இ_சில ஓர் நா- ரெண்டா நால் போறோ செலக்ட்
[505.595]
<no-speech>
[506.855]
<sta> சரி எப்டியாச்சு போட்டும் அதுலயாச்சும் <no-speech> ஆஹ்
[509.695]
<no-speech>
[512.435]
அப்டியா <no-speech> உம்ம் அது செலக்ட் ஆணது அஷோக் அஷோக் போல சிவசு போவான் தெரில
[517.615]
<no-speech>
[519.395]
ஆமா <sta> ஆமா <no-speech> எது நாய் நான் வரவே இல்லடா வந்துருந்தா அழகா செகநன்ட் ஆயிருப்பேன்டா நம்மளா
[524.515]
<no-speech>
[527.735]
(()) அது இவன் லூஸ் மாடி பண்ணான் நான் கெளம்பிட்டேன்டா <sta> ஃபர்ஸ்ட் ஃபஸ்ட்டா காலேஜ்ல இருந்தும் ஃபோன் பண்ணாங்களே நான் போறேம்மானு சொல்லி ஊர்ல இருந்தேன் போறேம்மானு சொல்லிட்டேன் திடீர்னு எங்க பாட்டி எனானு சொல்லுச்சு ஆஹ் லேட்டா போனா இதுவாகும்டான்னா
[538.205]
சரி நான் லேட்டா கிளம்பலான்னு இருந்தேன் லேட்டா போனா பஸ்லாம் இதும் பண்றாங்களாம் அது இதுன்னு பயமுருதிறுச்சுரா என்ன <no-speech> பயிந்துட்டு சரி நானும் பயபுடல சரி சோம்பேறிதனம் பட்டு நானும் வர்ல இவன் கரெக்ட் கோர் கம்பெனி இதும் மாரி கம்பெனி
[548.855]
டிரிபிலிதான்பா வருது வாங்கப்பா அப்டிருந்தாங்கன்னாக்கா வந்துருப்போம் அது எல்லாரும் வந்து <foreign> பண்ணுவாங்க போலருக்கு எல்லாம் டிப்பாட்மெண்ட்டும் எதுக்கும் போனும்னு சொல்ட்டு கம்முனு விட்டேன் தேவ இல்லாம
[556.925]
<no-speech>
[559.245]
எனக்கும் அவன்தான்டா சொன்னா எனக்கு ஃபர்ஸ்ட் அமுதா மேம் ஃபோன் பண்ணுச்சு அதுக்கப்பறமா சதிஸ்தான் பேசினான் இந்தாப்பா சதிஸ்சார்ட்ட பேசுன்னு
[565.525]
<no-speech>
[566.525]
<sta> அதுனால தான் (()) எனக்கு வேல தேடுறதலா <foreign> இல்ல எங்கப்பா திரும்பி பட் படிங்கறாரா எங்கப்பா விடுற மாடி தெரில <no-speech> சரி அதுக்கு தான் சரியா எதாவது பாத்துக்கோங்கன்னேன் நானும் இல்லனா முழு மூச்சா வேல தேட ஆரம்புச்சுருவேன் எனக்கு நேத்தும் கூட ஓர் இன்டர்வியூ (()) சும்மா தான் வந்து எழுதுனேன் பாத்தா ஈஸியா இருந்துச்சு கொஷ்டீன் பேப்பர் ஃபர்ஸ்ட் ஃபர்ஸ்ட் எழுதுனதுறாபா வேலைக்குன்னு சும்மா வந்து எழுதுனது <no-speech> முன்னாடி வந்துருந்தாதான நீ நீ செலகட் ஆயிருந்தா போய்ருப்பேல்ல
[590.215]
(())
[590.875]
<no-speech>
[593.565]
ஆஹ்
[594.115]
<no-speech>
[595.165]
ஆஹ் ஏய் உனக்கு என்னாப்பா
[596.925]
<no-speech>
[600.260]
