[0.000]
<no-speech> 
[1.255]
<no-speech> 
[3.565]
<no-speech> 
[4.265]
<no-speech> 
[7.115]
h ɑ l oː ʔ ɯə̯ j ph e t w ɑ 
[8.375]
<no-speech> 
[10.825]
ʔ ɑo m uː h e t p iə̯ n ph iə̯ n m ɛː kh ɑo h ɑ j l o ŋ f iː k ɔː d ɑ j ŋ ɤ n s ɑː w h ɑ ph ɑ n n iː n ɑː m uː k i n b iə̯ w ɑ 
[15.255]
<no-speech> 
[16.105]
ɲ i n b ɔ ʔ ɤ m ɯ ŋ p iə̯ n ph uː l o ŋ p iə̯ n ph uː l o ŋ b ɔ d ɑ j d ɑ j <no-speech> m ɛː n n ɑ m ɯ ŋ p iə̯ n ph ɑ j l o ŋ m ɯ k i n iː n ɑ 
[21.985]
<no-speech> 
[23.445]
h ɑ 
[23.985]
<no-speech> 
[26.855]
<int> ʔ ɤ b ɔ d ɑ j l ɑː k d ɔː k ʔ ɑ n m ɯ ŋ b ɔː k h ɑ j k iː w ɑː b ɔ p ɑ j w ɑ b ɑ k ʔ i n p ɑ n p ɑ j h ɑː n m ɯ ŋ b ɔ p ɑ j w ɑ 
[33.295]
<no-speech> 
[35.245]
h ɑ 
[35.835]
<no-speech> 
[41.775]
ʔ ɤ m ɯ ŋ ɲ ɑ ŋ kh ɑː w iə̯ k j uː b ɔ kh ɑ m t i h ɑ kh ɑː kh ɯə̯ ŋ 
[45.925]
<no-speech> 
[46.745]
ʔ ɤ h ɑ 
[48.255]
<no-speech> 
[49.555]
t ɑː k kh ɯə̯ ŋ m ɯ ŋ j uː h ɑ n 
[51.035]
<no-speech> 
[52.655]
ʔ ɤ ʔ ɤ ʔ ɤ 
[54.115]
<no-speech> 
[55.015]
ʔ ɤ m ɯ ŋ k ɔː l o m k ɔː n l ɛ ʔ b ɔ h ɔː t s i p n ɑ th iː k ɔː n l ɛː w kh ɔː j h e t m ɛː n ph ɑ j d ɛ p ɑ j n ɑ m m ɯ ʔ h ɑ n 
[58.755]
<no-speech> 
[60.035]
h ɑ 
[60.585]
<no-speech> 
[63.605]
kh ɑː d e n ʔ ɤ 
[65.845]
<no-speech> 
[69.855]
ʔ ɤ ʔ ɤ ʔ ɤ s uː p ɑ j t ɔː n c ɑ k m oː ŋ k uː s ɔː k h ɑ kh ɯː b ɔ h e n l ɑ ʔ p ɑ j t ɔː n c ɑ k m oː ŋ 
[73.995]
<no-speech> 
[75.305]
h ɑ 
[75.805]
<no-speech> 
[78.525]
ʔ ɤ 
[79.065]
<no-speech> 
[80.345]
<hes> ʔ ɑo s ɑo l o m l o m k ɔː n ʔ ɤ j uː h ɔː ŋ k ɑː n l o m kh ɑo h ɑ j l o m f iː l ɛ ʔ kh ɑo ʔ ɑo ŋ ɤ n h ɑ j <no-speech> kh ɑo ʔ ɑo ŋ ɤ n h ɑ j s ɑː w h ɑ ph ɑ n k iː p m ɯ ŋ b ɔ p ɑ j k i n b iə̯ w ɑ 
[90.115]
<no-speech> 
[91.985]
h ɑ l o m m ɯ ŋ s ɑo k iə̯ ŋ l ɛː w kh ɑo ʔ ɑo ŋ ɤ n h ɑ j s ɑː w h ɑ ph ɑ n ɲ ɑ ŋ w ɑː m ɯ ŋ b ɔ k i n w ɑ b iə̯ d ɑ j c ɑ k kh uə̯ t s ɑː w h ɑ ph ɑ n ʔ ɤ 
[98.085]
<no-speech> 
[98.965]
ʔ ɑo 
[99.465]
<no-speech> 
[101.465]
ʔ ɑo m iə̯ m ɯ ŋ ʔ oː j s ɑː w h ɑ ph ɑ n m ɛ k ɑ ʔ h e t t uə̯ ʔ s ɑː w h ɑ ph ɑ n 
[105.315]
<no-speech> 
[106.175]
ʔ i n p ɑ n d ɛ ʔ i n p ɑ n n ɑː m ɯ ŋ b ɔ p ɑ j k i n n ɑ m ʔ i n p ɑ n w ɑ 
[110.475]
<no-speech> 
[112.115]
ʔ i n p ɑ n s ɤː n d ɑ j h ɑː n kh ɑ m m ɑ j h ɑ 
[114.505]
<no-speech> 
[118.155]
p e n n ɛː w d ɑ j <laugh> 
[119.645]
<no-speech> 
[120.705]

[121.235]
<no-speech> 
[122.345]
ʔ o th ɑː w ɲ ɑ ŋ m ɑ n s ɤː n <no-speech> m ɑ n s ɤː n ʔ ɑ n n ɑː th ɑ n w iə̯ ŋ ph ɔː n l ɛː w d eː 
[127.095]
<no-speech> 
[128.285]
ʔ ɑ n n ɑː 
[128.845]
<no-speech> 
[130.425]
ʔ ɤ s ɤː n th ɑ n w iə̯ ŋ ph ɔː n l ɛː w d eː 
[132.315]
<no-speech> 
[136.325]
h ɑ 
[136.935]
<no-speech> 
[138.455]
ph ɑ j c ɑ ʔ th o h ɑ ʔ i n p ɑ n w ɑ 
[139.895]
<no-speech> 
[142.465]
ʔ ɤ h ɑː k s i ʔ b ɔː k m ɑ n th o d ɔː k kh ɑ n p ɑ j s i ʔ b ɔː k m ɑ n th o d ɔː k h ɑ n n ɑː 
[146.965]
<no-speech> 
[149.345]
<no-speech> 
[149.985]
<no-speech> 
[150.995]
<no-speech> 
[151.655]
<no-speech> 
[155.435]
k i n k ɑ p ɲ ɑ ŋ 
[156.265]
<no-speech> 
[159.695]
ʔ o m ɑ n t ɛː k t ɛ s ɑ j m ɑː t o b ɑː ŋ 
[161.165]
<no-speech> 
[168.815]
j uː s ɑ j kh o ŋ m ɑː k kh ɑ j w ɑ 
[169.975]
<no-speech> 
[173.025]
ʔ o m ɛː n ph ɑ j p ɑ j s ɯː m ɯ ŋ p ɑ j s ɯː m ɑː h ɑ j w ɑ 
[175.385]
<no-speech> 
[177.825]
ʔ o m ɯ ŋ p ɑ j s ɯː ʔ eː ŋ n ɔː ʔ o <no-speech> kh ɯː b ɔ th o kh ɯː b ɔ th o h ɑ d ɛ p ɑ j w ɑː n n iː 
[182.995]
<no-speech> 
[186.455]
kh ɯː b ɔ kh ɯː b ɔ th o h ɑ d ɛ s ɑ n n ɑː 
[187.965]
<no-speech> 
[189.685]
h ɑ 
[190.195]
<no-speech> 
[191.545]
ʔ iː ʔ ɤ ʔ ɤ j ɑː l ɛ ʔ s ɑ n n ɑː <laugh> m ɯː n iː b ɔ d ɑ j j uː h ɯə̯ n d ɤ m ɯː n iː n ɑː d ɤ m ɯː n iː m ɯː n iː p ɑ j l i n j uː l ɑ k h ɑː d ɑ j m ɯː n iː 
[203.255]
<no-speech> 
[204.015]
<no-speech> 
[206.875]
ʔ ɤ h ɔː ŋ k ɑː n j uː h ɑ n h ɑː k s i ʔ j ɑː ŋ ʔ ɔː k p ɑ j h ɑ h e n t ɛ l o t h e n t ɛ l o t ph uə̯ ŋ m ɑ ʔ n oː j uː h ɑ n n ɑː 
[211.525]
<no-speech> 
[212.465]
h ɑ 
[213.075]
<no-speech> 
[215.315]
h e n 
[215.765]
<no-speech> 
[218.105]
h e n t ɛ l o t j ɑː ŋ ʔ ɔː k p ɑ j b ɔ h e n h ɔː j p ɑ j s ɔː k m ɔː ŋ h uə̯ j k ɑː h ɔː j kh ɯː m ɑ n p ɑ j s ɑ j b ɑː t n iː kh ɯː b ɔ h e n ʔ ɑo h ɔː j kh ɯː b ɔ h e n h e t k i n w ɑ 
[224.165]
<no-speech> 
[225.065]
h ɑ n n ɑː 
[225.615]
<no-speech> 
[228.225]
ʔ ɤ 
[229.035]
<no-speech> 
[231.485]
ʔ ɤ m ɯ s w ɑː j h ɑo k ɔː p ɑ j k i n ʔ ɤ p ɑ j h uə̯ n ɑː s ɑ j s o m h ɑ k h uə̯ n ɑː s ɑ j s o m h ɑ k s ɯː m uː m ɑː p iː ŋ d ɑ j h uə̯ n ɑː ʔ ɑ n s ɯː m ɑː p iː ŋ k i n n ɑ m kh ɑo 
[242.425]
h uə̯ n ɑː th ɔː ŋ w ɑ n ʔ ɤ th ɔː ŋ w ɑ n <int> h ɑ 
[246.195]
<no-speech> 
[247.355]
h uə̯ n ɑː th ɔː ŋ w ɑ n s ɯː m uː m ɑː p iː ŋ m ɑː l ɛː w k i n kh ɑo m ɯ s w ɑː j n iː 
[251.385]
<no-speech> 
[259.045]
ʔ ɤ k ɑ ʔ ʔ oː j ph ɤ n m ɯə̯ l ɑ ʔ t i b ɔ ʔ ɤ j uː h ɔː ŋ k ɑː n h ɑ n l ɑ ʔ k i n t ɛ s uə̯ j ph u n n ɑː k i n t ɛ m oː ŋ n ɯ ŋ ph u n n ɑː 
[264.575]
<no-speech> 
[266.215]
ɲ ɑ ŋ j uː h ɔː ŋ k ɑː n h ɑ n 
[267.275]
<no-speech> 
[271.015]
m ɑː l ɑ ʔ n ɑː m ɑː l ɑ ʔ n ɑː m ɯ s w ɑː j n iː h ɑo k ɑ ʔ k i n p iː ŋ ʔ ɑː n ɑ n ʔ ɑː n ɑ n p iː ŋ s iː n m uː p iː ŋ s ɑ j m uː n ɑ ŋ m uː h uə̯ c ɑ j m uː p iː ŋ k i n j uː h ɔː ŋ l ɑː w h ɑ n l ɑ ʔ 
[280.885]
<no-speech> 
[282.015]
ʔ ɑo t ɑo m ɑ j <int> ʔ ɑo t ɑo m ɑ j kh o w e p m ɑː 
[286.165]
<no-speech> 
[287.535]
p iː ŋ h ɑ n d eː t ɑo p i ŋ m ɑ j kh o w e p h ɑ n d eː p iː ŋ k i n n ɑ m kh ɑo c ɑo kh ɔː ŋ k ɑː l ɑ j kh ɯ n m ɑː h e t w iə̯ k h ɑ 
[293.475]
<no-speech> 
[294.425]
k ɑ p l ɑo h ɑ n l ɛ ʔ k ɑ p l ɑo ʔ ɑ n 
[296.265]
<no-speech> 
[297.145]
h ɑ 
[297.825]
<no-speech> 
[302.695]
<no-speech> 
[303.665]
<no-speech> 
[304.595]
<laugh> s i ʔ d ɑ j th o j ɔː k l ɑː w <laugh> l ɑː w m ɑː l ɛː w n ɑː ŋ ɤ n k ɑ n k ɑː m o t ph ɤ n w ɑː d eː m o t ŋ ɤ n m o t ph ɤ n w ɑː d eː <laugh> 
[314.515]
<no-speech> 
[316.285]
s ɯː s iː n h uə̯ n ɑː h uə̯ n ɑː th ɔː ŋ w ɑ n t i s ɯː h ɑ n n ɑ ph u s ɯː s iː n 
[321.195]
<no-speech> 
[322.085]
h uə̯ n ɑː th ɔː ŋ w ɑ n ʔ ɑo m ɑː t ɛ s ɛː n n ɯ ŋ b ɔ ʔ s ɯː s iː n <laugh> s iː n m uː 
[326.195]
<no-speech> 
[327.395]
ʔ iː 
[327.955]
<no-speech> 
[331.945]
ʔ ɤ ʔ ɑo h uə̯ n ɑː th ɔː ŋ w ɑ n ʔ ɤ h uə̯ n ɑː th ɔː ŋ w ɑ n p ɑ k ɔː p s uə̯ n ph ɤ n w ɑː s ɑ n d eː ph ɤ n h ɑ n p ɑ k ɔː p t ɛ s iː p ɤ s e n ph ɤ n w ɑː d eː h ɑ n n ɑː 
[342.395]
<no-speech> 
[344.295]
ʔ ɤ <no-speech> h ɑ n l ɛ ʔ 
[347.215]
<no-speech> 
[350.255]
ɲ ɑ ŋ ɲ ɑ ŋ j uː th ɤ ŋ ph iː n ɑː j uː 
[352.305]
<no-speech> 
[353.385]
ʔ ɑo k uː ɲ ɑ ŋ j uː h ɔː ŋ ph iː n ɑː ɲ ɑ ŋ j uː t ɯ k c iː n ph iː n ɑː 
[356.245]
<no-speech> 
[357.935]
j uː n ɑ m ʔ ɑː j 
[358.725]
<no-speech> 
[359.775]
ʔ ɤ ʔ ɤ k uː ɲ ɑ ŋ j uː t ɯ k c iː n ph iː n ɑː j uː n ɑ m ʔ ɑ n t ɯ k w iə̯ ŋ ph ɔː n ph iː n ɑː c ɑ k n ɔː j s i ʔ ɲ ɑː ŋ ʔ ɔː k p ɑ j 
[365.745]
<no-speech> 
[367.205]
ʔ iː 
[367.975]
<no-speech> 
[369.975]
c ɑ k n ɔː j ph u n l ɑ ʔ s i ʔ ɲ ɑː ŋ ʔ ɔː k p ɑ j 
[371.395]
<no-speech> 
[373.675]
ʔ ɤ w iə̯ ŋ ph ɔː n k ɑː s uə̯ n j ɑː n m ɛː n s iː m oː ŋ ph u n l ɑ ʔ 
[376.235]
<no-speech> 
[377.755]
s iː m oː ŋ ph u n t i ʔ m ɑ n l ɤː m t i ʔ <no-speech> h ɑ n n ɑː 
[380.515]
<no-speech> 
[381.695]
<no-speech> 
[382.065]
<no-speech> 
[383.375]
h ɔː t m oː ŋ s iː m oː ŋ 
[384.845]
<no-speech> 
[386.125]
ʔ ɤ d iə̯ w d iə̯ w d iə̯ w n iː k ɑ m l ɑ ŋ l ɔː ŋ w ɑ 
[388.565]
<no-speech> 
[392.915]
ʔ ɤ 
[393.865]
<no-speech> 
[395.585]
b ɔ d ɑ j d ɯ ŋ s ɔː j kh ɑo w ɑ 
[397.805]
<no-speech> 
[399.715]
h ɑ 
[400.225]
<no-speech> 
[402.885]
m iː t ɛ m iː t ɛ n ɑ ŋ j uː s iː w ɑ n ɑ ŋ j uː h ɔː ŋ ʔ ɛː w ɑ 
[405.335]
<no-speech> 
[406.795]
b ɔ ʔ 
[407.315]
<no-speech> 
[412.235]
<laugh> j uː k ɑː ŋ d ɤː n 
[414.555]
<no-speech> 
[416.915]
ʔ ɤ 
[418.095]
<no-speech> 
[419.835]
j uː th ɤ ŋ h ɔː ŋ p ɑ s u m 
[421.435]
<no-speech> 
[422.645]
kh ɑo th ɑː j th ɔː t <int> th ɑː j th ɔː t h ɑ th ɑː j th ɔː t w ɑ n h ɛ ŋ k ɑ m m ɑ b ɑː n n iː w ɑ 
[427.135]
<no-speech> 
[431.545]
ʔ ɤ k ɔː ŋ p ɑ s u m s ɑ ph ɑː n ɑ kh ɔː n l uə̯ ŋ ʔ ɯ ʔ ɯ k uː kh ɤː j m ɑː 
[435.345]
<no-speech> 
[436.775]
ʔ ɤ s ɑ ph ɑː s ɑ ph ɑː th ɔː ŋ s i t kh ɑo c ɑ t j uː s ɑ j l ɑ ʔ 
[442.335]
<no-speech> 
[443.835]
b ɔ ʔ j uː th ɛː w th ɛː w ʔ ɑ n u s ɑ w ɑ l iː h ɑ n w ɑ ʔ ɑ n u s ɑ w ɑ l iː w ɑ 
[447.085]
<no-speech> 
[449.725]
ʔ ɤ t o kh ɑo h e t m ɑ j 
[451.355]
<no-speech> 
[454.345]
t o d ɑ j k ɔ t o ʔ ɑ n u s ɑ w ɑ l iː h ɑ n t uə̯ b ɔ ʔ 
[455.855]
<no-speech> 
[458.665]
ʔ ɤ kh ɑo h e t ŋ ɑː m b ɔ kh ɑ k b ɔ b ɔ d ɑ j kh ɑo p ɑ j c ɑ k th ɯə̯ 
[462.455]
<no-speech> 
[467.765]
b ɔ m ɑ n ʔ ɤ m ɑ n k ɑ ʔ ŋ ɑː m m ɑ n k ɑ ʔ ɲ ɑ j k uə̯ s uː n k ɑː ŋ b ɔ <laugh> kh ɔː ŋ l ɑ t th ɑ b ɑː n b ɔ <laugh> ɲ ɑ j k uə̯ kh ɔː ŋ l ɑ t th ɑ b ɑː n w ɑ 
[475.205]
<no-speech> 
[476.305]
ʔ ɤ 
[476.965]
<no-speech> 
[477.985]
ɲ ɑ j th ɔː kh ɔː ŋ l ɑ t th ɑ b ɑː n b ɔ 
[479.545]
<no-speech> 
[482.515]
ʔ ɤ <hes> ʔ ɤ ʔ ɤ 
[485.535]
<no-speech> 
[489.755]

[490.525]
<no-speech> 
[494.435]
ʔ ɑ l oː 
[495.175]
<no-speech> 
[496.395]
ʔ ɑ l oː ʔ ɑ l oː j ɑː f ɑː w w ɑː ŋ d ɤ j ɑː f ɑː w w ɑː ŋ ʔ ɤ j ɑː f ɑː w w ɑː ŋ ph ɔ w ɑː m ɑ k k ɑ ʔ b ɔ c ɑ k s i ʔ l o m ʔ ɤː j s i ʔ l o m ɲ ɑ ŋ w ɑ <laugh> 
[503.295]
<no-speech> 
[505.945]
ʔ ɤ ʔ ɤ ɲ ɑ ŋ ɲ ɑ ŋ d iə̯ w d iə̯ w ɲ ɑ ŋ s ɔː ŋ ɲ ɑ ŋ s ɔː ŋ n ɑ th iː 
[509.275]
<no-speech> 
[510.215]
ʔ iː k s ɔː ŋ n ɑ th iː 
[511.175]
<no-speech> 
[512.695]

[513.125]
<no-speech> 
[514.585]

[516.195]
<no-speech> 
[517.635]
b ɔ b ɔ b ɔ h e n l ɛ ʔ s i ʔ th ɑː d ɤ s i ʔ m ɑː k i n m ɯː n iː k ɑː d ɑː j 
[520.915]
<no-speech> 
[522.065]
h ɑ 
[522.605]
<no-speech> 
[525.625]
p e n ɲ ɑ ŋ 
[527.405]
<no-speech> 
[528.625]
l ɑː w s i ʔ h ɑ j w ɑ 
[529.625]
<no-speech> 
[532.545]
m iə̯ l ɑː w h ɑ j w ɑ 
[534.475]
<no-speech> 
[537.065]
<no-speech> 
[537.465]
<no-speech> 
[539.765]
<laugh> kh ɯː kh ɯː b ɔ h e n l ɑː w n ɔ ʔ w ɑː ŋ w ɑː n n iː n ɔ ʔ 
[542.865]
<no-speech> 
[544.475]
h ɑ 
[544.995]
<no-speech> 
[547.485]
ʔ ɤː j th iə̯ ŋ l ɑ ʔ n ɔ ʔ m ɯə̯ j c o m 
[549.605]
<no-speech> 
[551.825]
ʔ ɤ c o m j uː n ɔ ʔ 
[553.185]
<no-speech> 
[554.085]
<no-speech> 
[557.825]
<no-speech> 
[558.845]
ʔ iː 
[559.465]
<no-speech> 
[560.485]
<int> 
[561.265]
<no-speech> 
[562.945]

[563.805]
<no-speech> 
[565.205]
b ɔ n ɑː b ɔ d ɑ j m ɑo kh ɑː ŋ n ɑ b ɔ d ɑ j m ɑo 
[567.885]
<no-speech> 
[569.245]
k uː k ɑː k i n b ɔ b ɔ d ɑ j m ɑo d ɔː k n ɔː j d iə̯ w k i n n ɑ m kh ɑo s ɔː ŋ s ɑː m c ɔː k n ɯ ŋ l ɑo ʔ ɑ n n ɑ n n ɑː c iː n h ɑ n n ɑː l ɑo kh i w kh i w h ɑ n n ɑː 
[578.585]
<no-speech> 
[580.625]
l ɑo kh i w <int> 
[582.145]
<no-speech> 
[582.965]
k i n k ɑː k i n kh ɑo l ɑ ʔ k i n m ɯ s w ɑː j n iː n ɑː 
[586.285]
<no-speech> 
[589.515]
ʔ iː 
[590.245]
<no-speech> 
[592.465]

[593.145]
<no-speech> 
[594.825]
b ɔ b ɔ kh ɛ ŋ d ɔː k b ɔ h e n h ɔː t m ɛ s ɔː n h e n m ɛ s ɔː n j ɑː ŋ p ɑ j l ɛ ʔ n ɑ m k o n l ɑː w p ɑ j ʔ ɑo 
[599.695]
<no-speech> 
[599.940]
