[0.000]
<no-speech> 
[4.995]
<hes> w ɑː c ɑ ŋ d ɑ j 
[6.245]
<no-speech> 
[10.555]
m ɯ l ɛː ŋ b ɔ m ɛː n ʔ ɑ n ph ɑ k ɑ n m ɑː k i n kh ɑo j uː h ɯə̯ n h ɑo w ɑ l ɯ w ɑː p ɑ j k i n b u p f eː n iː l ɛ ʔ d ɑ j ɲ i n m ɛ w ɑo w ɑː s i ʔ ph ɑ p ɑː p ɑ j n ɑː ŋ s i ʔ ph ɑ m ɑː m ɯ l ɛː ŋ j uː 
[19.725]
<no-speech> 
[25.015]
m ɛː n w ɑ 
[25.615]
<no-speech> 
[26.815]
j ɑː n p ɑ j k i n b u p f eː t i ʔ b ɔ ʔ m ɯ ʔ ɯː n w ɑ m ɯː n iː b u ʔ 
[29.465]
<no-speech> 
[38.095]
<no-speech> 
[41.135]
<no-speech> 
[45.615]
ʔ i m ɛː ph ɔː kh ɔ ɲ ʔ i m ɛː ʔ i ph ɔː j uː th ɤ ŋ ph u n 
[49.245]
<no-speech> 
[50.295]
c ɑ k n ɔː j k ɑ ʔ ʔ ɑː p n ɑ m p ɑ j w iə̯ k 
[51.905]
<no-speech> 
[54.595]
<no-speech> 
[55.825]
<no-speech> 
[58.535]
ʔ ɯ 
[59.035]
<no-speech> 
[65.015]
ʔ ɯ ʔ ɯ ʔ ɯ d ɤ w ɛː h ɑ p n ɑ m w ɑː n h ɑ j n ɛː l ɤː j 
[68.065]
<no-speech> 
[69.155]
ʔ ɯ ɲ ɑ ŋ b ɔ th ɑ n n ɑ m ɲ ɑ ŋ b ɔ th ɑ n d ɑ j ʔ ɑː p s ɑ m 
[71.385]
<no-speech> 
[76.715]
<no-speech> 
[77.445]
<no-speech> 
[83.475]
j uː j uː l ɑ ʔ s i ʔ ʔ ɑo ɲ ɑ ŋ p ɑ j s ɑ j d ɑ j <hes> l ɑ ʔ kh ɔ m k ɑ p <hes> <foreign> s i ʔ ʔ ɑo w ɑ j h ɔː ŋ m ɛ d ɤ 
[91.375]
<no-speech> 
[95.585]
ʔ ɑo w ɑ j th ɤ ŋ h ɔː ŋ kh ɔ ɲ l ɤː j w ɑ 
[96.935]
<no-speech> 
[100.355]
d ɤː m s i p ph ɑ n ph u n n ɑː s ɔː k b ɑ t h ɑ ph ɑ n b ɔ h e n p ɛː w ɑː m ɯː n iː k ɑ p m ɯ ʔ ɯː n t ɔː ŋ d ɑ j l i n 
[105.935]
<no-speech> 
[108.185]
s ɔː k b ɑ t h ɑ ph ɑ n b ɔ m iː 
[109.805]
<no-speech> 
[114.455]
h ɑ 
[114.995]
<no-speech> 
[119.055]
m iː ɲ ɑ ŋ k ɔ b ɔ kh ɑo c ɑ j 
[120.155]
<no-speech> 
[125.795]
c ɑo s i ʔ m ɯə̯ s iə̯ ŋ kh uə̯ ŋ 
[126.975]
<no-speech> 
[128.815]
b ɔ ʔ 
[129.275]
<no-speech> 
[132.195]
m ɯː d ɑ j 
[132.785]
<no-speech> 
[134.245]
w ɑ n s ɑo 
[134.975]
<no-speech> 
[136.675]
ʔ ɑo w ɑ n w ɑ n s ɑo ʔ ɯə̯ j <hes> ʔ ɯə̯ j <hes> n ɑ n b ɔ d ɑ j b ɔː k c ɑo w ɑ 
[140.815]
<no-speech> 
[146.295]
b ɔ m ɑ t kh ɛː n l u k l ɑː w h ɑ n n ɑ 
[148.585]
<no-speech> 
[152.155]
b ɑ k c oː b ɔː k b ɑ k c oː m ɑ n m ɑː s ɯː n ɑ m ʔ ɔː j l ɑ ʔ m ɑ n b ɔː k 
[155.445]
<no-speech> 
[164.730]
<no-speech> 
[174.015]
h ɑ 
[174.535]
<no-speech> 
[176.015]
w ɑ 
[176.555]
<no-speech> 
[180.655]
ʔ ɤ <no-speech> h w ɑː j 
[182.435]
<no-speech> 
[186.435]
<hes> ʔ ɑ th i t n ɯ ŋ ph u n l ɛ ʔ 
[189.305]
<no-speech> 
[195.535]
w ɑ n th iː s ɑː w s ɔː ŋ d ɑ j kh ɑo 
[197.035]
<no-speech> 
[202.745]
ph ɑ k ʔ ɑ th i t n ɯ ŋ 
[203.825]
<no-speech> 
[206.295]
<hes> k ɑ ʔ ph ɑ k t ɑ ŋ t ɛː w ɑ n th iː <hes> l ɑ ʔ d eː w ɑ n c ɑ n m ɑː l ɑ ʔ d eː 
[209.865]
<no-speech> 
[216.025]
ɲ ɑ ŋ ɲ ɑ ŋ w i s ɑː c ɑː w ɑː 
[219.605]
<no-speech> 
[221.895]
t o ʔ ɑ n <foreign> h ɑ n k ɛː l ɛː w t o <foreign> 
[224.455]
<no-speech> 
[226.735]
d ɑ j th ɔ d ɑ j ɲ ɑ ŋ b ɔ h uː b ɔ h uː b ɤː ʔ ɑ kh ɑː n 
[229.065]
<no-speech> 
[231.375]
kh uə̯ m s uə̯ b ɔ h uː b ɤː ʔ ɑ kh ɑː n k ɑ ʔ l ɤː j ɲ ɑ ŋ b ɔ h uː 
[233.825]
<no-speech> 
[237.255]
<hes> h ɑ k ɔː s iː n ɑ th iː 
[239.195]
<no-speech> 
[243.635]
t ɔː ŋ kh o p s i p n ɑ th iː w ɑ m ɑ n c ɯ ŋ b ɑ k th ɯː k l ɑː 
[245.935]
<no-speech> 
[251.695]
w ɑ kh ɑo c ɑo s i ʔ ʔ ɑo p ɑ j ʔ iː c ɑ j ʔ i ɲ ɑ ŋ 
[254.735]
<no-speech> 
[263.085]
w ɑ 
[263.615]
<no-speech> 
[268.125]
kh ɔː ŋ d iː th ɛ k w ɑ 
[269.185]
<no-speech> 
[273.235]
<hes> l ɑ ʔ b ɔ l i s ɑ t c ɑo p e n ɲ ɑ ŋ kh ɯː d ɑ j th o s ɑ n 
[276.065]
<no-speech> 
[285.465]
<no-speech> 
[294.865]
t ɤː m h ɑ j th ɯə̯ h ɑ ph ɑ n s iː w ɑ 
[297.035]
<no-speech> 
[299.725]
<hes> l ɑ ʔ h ɑo t ɔː ŋ th o m ɑː h ɑ t ɛ kh o n th ɑ j w iə̯ ŋ w ɑ l ɯː th ɑ j d ɑ j k ɑ ʔ d ɑ j 
[305.505]
<no-speech> 
[309.045]
m iː t ɛ th ɑ j w iə̯ ŋ m ɛː n b ɔ 
[310.375]
<no-speech> 
[313.315]
m iː t ɛ s iə̯ ŋ w iə̯ ŋ m ɛː n b ɔ 
[315.185]
<no-speech> 
[318.655]
<hes> h uː l ɑ ʔ kh ɤː j d ɑ j ɲ i n d e k n ɔː j n ɯ ŋ s uə̯ n j uː 
[321.615]
<no-speech> 
[322.455]
b ɔ l o m th o l ɑ s ɑ p 
[323.925]
<no-speech> 
[325.755]
h ɑ 
[326.265]
<no-speech> 
[329.935]
b ɔ d ɑ j ɲ i n t ɛ kh ɑo c ɑo w ɑː l o m th o l ɑ s ɑ p 
[333.635]
<no-speech> 
[334.705]
kh ɑo c ɑ j kh ɯ k ɑ n 
[335.515]
<no-speech> 
[344.585]
h ɑ 
[345.095]
<no-speech> 
[350.075]
c ɑ k w ɑo ʔ i ɲ ɑ ŋ b ɔ kh ɑo c ɑ j 
[351.535]
<no-speech> 
[352.975]
b ɔ ʔ 
[353.415]
<no-speech> 
[359.535]
b ɔ kh ɑo c ɑ j 
[360.515]
<no-speech> 
[366.925]
f ɯ k s ɑː w s ɔː ŋ m ɯː h ɑ s i p s ɔː ŋ ph ɑ n 
[369.745]
<no-speech> 
[375.575]
ʔ ɯ 
[376.425]
<no-speech> 
[377.805]
ʔ ɑo kh ɔ ɲ d ɑ j m ɯː n ɯ ŋ s ɑː w h o k ph ɑ n n ɔ ʔ d ɑ j m ɯː n ɯ ŋ s ɑː w h o k ph ɑ n ŋ ɤ n kh ɑː l ɔ k h ɑ n b ɔ d ɑ j k iə̯ w k ɑ p ŋ ɤ n d ɯə̯ n n ɔ ʔ l ɑ ʔ <hes> ŋ ɤ n d ɯə̯ n h ɑ n m ɯː n ɯ ŋ s ɑː w h o k ph ɑ n s ɑː w h o k ph ɑ n h ɑ n t ɑ t s ɔː ŋ h ɛː ŋ k ɑ ʔ h ɑ s i p 
[389.085]
s ɔː ŋ ph ɑ n l iə̯ p l ɔː j kh ɑː t m ɯː d iə̯ w 
[391.905]
<no-speech> 
[396.165]
h ɑ s i p s ɔː ŋ ph ɑ n l o p ʔ iː k n ɯ ŋ s i s ɛː n l ɯə̯ th ɔ d ɑ j n ɯ ŋ l ɯə̯ s i s ɛː n s ɑ ʔ s ɑː m s ɛː n s i s i p p ɛː t ph ɑ n kh ɯ t w ɑ j l ɑ ʔ ɲ ɑ ŋ h ɑ k kh ɑː th uə̯ j kh ɑː b uə̯ ŋ ʔ iː k 
[406.565]
<no-speech> 
[413.695]
b ɔ b ɔ d ɑ j ph ɑ k 
[414.965]
<no-speech> 
[417.905]
p iː m ɑ j kh ɔ ɲ kh ɑː t s ɑː m l ɛː ŋ h ɑ n t i 
[420.275]
<no-speech> 
[427.105]
l ɑ ʔ b ɑ t c ɑo w ɑː ŋ s ɑː j th o l ɑ s ɑ p m ɛː n c ɑo m ɯə̯ l ɤː j t uə̯ ʔ 
[430.125]
<no-speech> 
[433.655]
ʔ ɤː ʔ ɤː b ɑ t w ɑː ŋ l ɑ ʔ m ɑː l ɤː j d ɤ c ɑ k n ɔː j l ɑː n m ɑ n th ɑː d o n 
[438.865]
<no-speech> 
[444.735]
<hes> k ɑ j s i ʔ h ɔː t p ɛː t n ɑ th iː l ɑ ʔ l ɑː 
[447.665]
<no-speech> 
[449.025]
<laugh> p ɛː t n ɑ th iː l ɑ ʔ ɲ ɑ ŋ ʔ iː k s ɔː ŋ n ɑ th iː ʔ ɑo 
[453.815]
<no-speech> 
[462.700]
<no-speech> 
[471.585]
<laugh> th ɛː <no-speech> <hes> m ɯː n iː n ɑ l ɑː kh ɔ ɲ s ɯː <hes> s ɯː n ɑ m t ɑː n n ɔ ʔ p ɛː t ph ɑ n s ɯː n o m s o t c e t ph ɑ n ph ɔ d iː s i p h ɑ ph ɑ n b ɑ k l i k w ɑː 
[482.985]
<hes> m ɛ h ɑ j m ɯ ŋ kh ɑː j m ɯ ŋ k ɑ ʔ t ɔː ŋ l o ŋ th ɯ n t uə̯ ph ɤ n w ɑː s iː l ɛ ʔ b ɑ t l ɛː w l ɑ ʔ p ɑː k ɑ p l u ŋ p ɑː k ɑ p l u ŋ m ɑː n ɔ ʔ p ɑ n n ɑ m ʔ ɔː j h ɑ j ph ɤ n k i n l ɑ ʔ b ɑ t n iː b ɑ k l i k l ɑ ʔ 
[494.575]
p ɑ n n ɑ m p ɑ n h ɑ j ph ɤ n k i n n ɛː m ɛː b ɑ t n iː m ɑ n <hes> n o m s o t s ɑ j h ɑ n n ɑ b ɑ k l ɑː j l ɑː j n ɯ ŋ c o n m ɑ n th ɛː m ɑ n w ɑː 
[503.035]
<no-speech> 
[507.145]
kh ɔ ɲ p ɑ n m ɑ n h ɑː k th eː s ɑ j ʔ eː ŋ m ɑ n n o m s o t m ɑ n th eː ʔ eː ŋ m ɑ n w ɑː d eː th eː c uə̯ k l o ŋ b ɤ t l ɤː j 
[513.595]
<no-speech> 
[517.175]
b ɔ d ɑ j t o m s ɑ j l ɛ ʔ t o m n ɑ m h ɔː n j uː k ɑ ʔ t i k n ɑ m h ɔː n h ɑ n 
[520.825]
<no-speech> 
[521.665]
h uː l ɛː w l ɑ ʔ b ɔ h ɑ j m ɑ n h ɑ j m ɑ n h ɑ j b ɛː p h ɑ j m ɑ n ph ɔ d iː h ɑ n n ɑ n ɑ m t ɑː n l oː n ɯ ŋ n ɔ ʔ l ɑ ʔ s ɑ j n ɑ m s ɔː ŋ l i t th ɔ n ɑ n ph ɔː ph ɔ d iː l ɤː j 
[530.605]
<no-speech> 
[535.495]
<no-speech> 
[536.005]
<no-speech> 
[538.365]
<hes> n ɑ m j uː k ɑː k ɑ ʔ b ɔ d ɑ j d eː ph ɔ d iː n ɑ m j uː k ɑ ʔ t i k n ɑ m h ɔː n n iː s ɔː ŋ l i t ph ɔ d iː t e m s ɔː ŋ l i t n ɔ ʔ n ɑ m t ɑː n l oː n ɯ ŋ n ɑ m s ɔː ŋ l i t s ɑ j k ɯə̯ n ɔː j n ɯ ŋ ph ɔ d iː l ɤː j w ɑː n ph ɔ d iː 
[550.115]
<no-speech> 
[551.375]
<no-speech> 
[552.385]
<no-speech> 
[563.135]
ph ɑ j ph ɑ k 
[563.735]
<no-speech> 
[564.645]
c ɑo w ɑ ph ɑ k 
[565.405]
<no-speech> 
[569.665]
<no-speech> 
[570.025]
<no-speech> 
[572.435]
w ɑː j kh ɑo c ɑo b ɔ k i n t i ʔ b ɔ ʔ n ɔ ʔ k i n t ɛ b iə̯ 
[574.975]
<no-speech> 
[578.675]
m ɯː n iː ɲ ɑ ŋ kh ɑː j d ɑ j t ɛ s i s i p h ɑ ph ɑ n 
[583.135]
<no-speech> 
[586.875]
h ɑ 
[587.375]
<no-speech> 
[598.105]
ʔ ɑ j m oː b ɑː j 
[599.045]
<no-speech> 
[600.160]
