[0.000]
<no-speech> 
[0.955]
<no-speech> 
[2.005]
<no-speech> 
[7.325]
h ɑ l oː 
[8.115]
<no-speech> 
[9.965]
h ɑ l oː 
[10.715]
<no-speech> 
[12.285]
ʔ i m ɛː w ɑ 
[13.095]
<no-speech> 
[14.515]
ʔ o h ɑo n iː 
[15.615]
<no-speech> 
[16.635]
h ɑo s i ʔ th ɑː m c ɑo w ɑː m ɯ ʔ ɯː n c ɑo s i ʔ <dtmf> <hes> p ɑ j p ɑ j m ɑ t kh ɛː n h ɑ n c ɑ k m oː ŋ 
[20.745]
<no-speech> 
[25.685]
<no-speech> 
[26.095]
<no-speech> 
[31.065]
<no-speech> 
[31.545]
<no-speech> 
[33.115]
c ɑo s i ʔ p ɑ j k ɑ p ph ɑ j 
[35.575]
<no-speech> 
[43.025]
<no-speech> 
[43.555]
<no-speech> 
[45.235]
ʔ ɑo ʔ ɑ n b ɔ d ɑ j p ɑ j n ɑ m c u ʔ ʔ ɯə̯ j s ɛː ŋ w ɑː s ɑ n 
[48.475]
<no-speech> 
[55.335]
<no-speech> 
[62.195]
w ɑ t b ɑː n d ɑ j 
[63.015]
<no-speech> 
[66.745]
<no-speech> 
[67.455]
<no-speech> 
[77.925]
m ɯ l ɛː ŋ w ɑ 
[78.745]
<no-speech> 
[82.185]
l ɤː k l ɛː w h ɑo k ɑ m l ɑ ŋ s i ʔ c iː n m ɯə̯ n iː l ɑ ʔ 
[84.345]
<no-speech> 
[88.255]
<no-speech> 
[88.625]
<no-speech> 
[91.625]
<no-speech> 
[92.205]
<no-speech> 
[95.415]
<no-speech> 
[96.295]
<no-speech> 
[98.935]
<no-speech> 
[99.315]
<no-speech> 
[109.125]
<no-speech> 
[110.525]
<no-speech> 
[113.435]
ʔ ɤː c ɑo j uː h ɯə̯ n w ɑ d iə̯ w n iː 
[115.745]
<no-speech> 
[119.145]
<no-speech> 
[119.495]
<no-speech> 
[128.125]
c ɑo h u ŋ kh ɑo l ɑ ʔ 
[129.035]
<no-speech> 
[137.705]
h ɑo j uː th ɛː p n iː n ɑ s i kh ɑ j n iː l ɑ ʔ 
[139.875]
<no-speech> 
[142.365]
k ɑ m l ɑ ŋ kh ɑo m ɯə̯ d ɤ 
[143.515]
<no-speech> 
[150.560]
<no-speech> 
[157.605]
<no-speech> 
[157.975]
<no-speech> 
[163.135]
<no-speech> 
[164.315]
<no-speech> 
[168.565]
<no-speech> 
[169.155]
<no-speech> 
[170.295]
h ɑo j ɑː n b ɔ th ɑ n d ɑ j h ɑ p c ɑo b ɔː k p ɑː m uə̯ n p ɑ j h ɑ p l ɑ ʔ w ɑ h ɑ n 
[173.325]
<no-speech> 
[181.465]
s ɑ n p ɑː d eː h e t ɲ ɑ ŋ 
[182.865]
<no-speech> 
[187.365]
<no-speech> 
[187.825]
<no-speech> 
[192.045]
ʔ ɤ l ɑː w c ɑ ʔ s ɯː 
[193.245]
<no-speech> 
[195.825]
s ɯː p ɑː m ɯə̯ p iː ŋ d ɔː k k ɑ p c ɑ ʔ s ɯː k ɑ l ɑ m m ɯə̯ kh uə̯ d ɔː k 
[199.995]
<no-speech> 
[208.205]
<no-speech> 
[216.415]
ʔ ɤː ʔ ɤː h ɑo b ɔ w ɛː d ɔː k 
[218.275]
<no-speech> 
[221.595]
m iː t ɛ c ɑo b ɤ ŋ ʔ ɑ n 
[222.775]
<no-speech> 
[224.985]
b ɤ ŋ b ɑ k k iː s ɔː j t ɑː n ɛː b ɤ ŋ b ɑ k k iː s ɔː j t ɑː n ɛː d ɤ 
[228.315]
<no-speech> 
[235.315]
ʔ o l ɑː ŋ th ɯə̯ h ɑo k ɑ ʔ kh ɑ m s ɑ n d ɔː k l ɑː ŋ th ɯə̯ s i ʔ h ɔː t h ɯə̯ n n iː 
[237.945]
<no-speech> 
[245.735]
b ɔ k i n m ɑ n b ɔ d ɑ j k i n d ɔː k 
[246.975]
<no-speech> 
[248.435]
p ɑ j w ɛː l i n n ɑ m m uː ph u n n ɑː s i ʔ w ɑo w iə̯ k n ɑ m m uː n ɔː j n ɯ ŋ 
[250.695]
<no-speech> 
[252.040]
