[0.000]
<no-speech> 
[1.865]
h ɑ l oː h ɑ l oː 
[6.845]
<no-speech> 
[8.875]
c ɑo ʔ ɤ b ɯ k d iə̯ w ʔ ɑː j k ɑ m l ɑ ŋ th eː ʔ ɑː j k ɔː s i ʔ h ɔː t l ɛː w 
[12.915]
<no-speech> 
[14.205]
<no-speech> 
[14.575]
<no-speech> 
[16.285]

[18.845]
<no-speech> 
[19.965]

[20.745]
<no-speech> 
[21.625]
<sta> d eː h ɔː t l ɛː w h ɔː t l ɛː w 
[23.385]
<no-speech> 
[24.275]
<sta> m ɯ k iː ʔ ɑː j l ɑ ŋ l ɛ ʔ l ɑː w ph ɑ p ɑ j k i n kh ɑo m ɑː 
[27.525]
<no-speech> 
[29.005]
ʔ ɑ n d ɑ j w ɑ 
[30.195]
<no-speech> 
[31.495]
d o j h ɔː t l ɛː w 
[32.785]
<no-speech> 
[34.435]
h ɑ 
[35.035]
<no-speech> 
[35.975]
w ɑo m ɑː d ɛ m ɛː 
[36.955]
<no-speech> 
[38.295]
<no-speech> 
[38.925]
<no-speech> 
[40.195]
l o t w ɑ l o t m ɯː w ɑ n s i n ph u n n ɑː p ɛː ŋ n ɑː 
[42.945]
<no-speech> 
[45.195]
w ɑ n s i n ʔ ɤ w ɑ n th iː s i p ʔ ɑː j s i ʔ p ɛː ŋ 
[48.085]
<no-speech> 
[52.005]
kh ɑo l ɛː n ɔː p e n ɲ ɑ ŋ p e n ɲ ɑ ŋ s i ʔ h e t ɲ ɑ ŋ 
[55.125]
<no-speech> 
[58.105]
ʔ o th o m d i n w ɑ 
[59.445]
<no-speech> 
[60.885]
t ɛː w ɑː m ɑ n h e t w iə̯ k k i n ŋ ɤ n d ɯə̯ n ʔ ɑ n n ɑ n n ɑː t ɔː n m ɯ l ɛː ŋ m iː l o t h u n d ɑ j b ɔ ph ɑ ʔ ɑː j p ɑ j ʔ ɑo kh ɯə̯ ŋ s iə̯ ŋ d uː 
[66.855]
<no-speech> 
[71.465]
c ɑ k m oː ŋ 
[72.255]
<no-speech> 
[73.995]
c ɑ k m oː ŋ 
[74.835]
<no-speech> 
[78.595]
l ɑ ʔ b ɤː b ɤː c ɑo b ɤː d iə̯ w n iː t uə̯ 
[80.865]
<no-speech> 
[82.125]
d iə̯ w j uː b ɑː n b ɑ k ʔ iə̯ ŋ n ɑː p ɑ j b ɤ ŋ l o t m ɑ n l ɤː j t ɛː ŋ kh ɯə̯ ŋ s iə̯ ŋ t e m l ɛː w 
[85.985]
<no-speech> 
[87.805]
b ɑ k ʔ iə̯ ŋ n ɑː h ɑ j uː th ɑː ŋ n ɑː 
[92.385]
<no-speech> 
[94.145]
b ɔ ɲ ɑ ŋ k ɔː c ɑo w ɑː ɲ ɑ ŋ k ɔː h ɑ 
[96.325]
<no-speech> 
[97.955]
ʔ ɑ n d ɑ j k ɔː 
[98.655]
<no-speech> 
[99.735]
b ɔ t ɔː ŋ ɲ ɑ ŋ k ɔː 
[100.525]
<no-speech> 
[101.835]
ʔ ɤ ʔ ɤ 
[102.605]
<no-speech> 
[105.795]
l ɛː w m iː d eː 
[106.625]
<no-speech> 
[110.555]
ʔ ɑo ʔ ɑː j m ɯə̯ h ɔː t h ɯə̯ n k ɔː c e t m oː ŋ l ɛː w 
[113.315]
<no-speech> 
[117.225]
ʔ ɤ 
[117.875]
<no-speech> 
[119.185]
ʔ ɤ c e t m oː ŋ p ɑ j ʔ ɑo 
[120.325]
<no-speech> 
[122.135]
m ɑ n kh ɑː j h ɑ j ʔ ɑː j n ɑː 
[123.425]
<no-speech> 
[124.385]
ph ɑ n b ɑː t n ɑː ʔ ɑː j s ɯː n iː n ɑː ph ɑ n b ɑː t n ɑː 
[127.365]
<no-speech> 
[129.455]
m ɑ n p e n b ɑː kh ɑː j n ɔː b ɔ m iː l ɛː 
[133.425]
<no-speech> 
[136.905]
c ɑ ŋ m ɛː n l ɔː ʔ ɑ n n iː ʔ ɑo m ɑ j m ɑː h e t l ɤː j 
[138.735]
<no-speech> 
[140.205]
ʔ ɑo m ɑ j h e t l ɛː w t ɑ p uː k iə̯ w c ɑ p c ɔ ʔ h uː c ɔ ʔ ɲ ɑ ŋ w ɑ j th ɑː l oː t n ɑː 
[144.235]
<no-speech> 
[145.775]
ʔ ɤ m iː t ɛ s iː d ɔː k s ɑ j l oː t l ɛː 
[147.395]
<no-speech> 
[149.575]
m iː t ɛ s ɯː d ɔː k s ɑ j n ɔː 
[150.955]
<no-speech> 
[152.115]
h ɑ 
[152.675]
<no-speech> 
[155.435]
b ɤ ŋ k ɔː n m ɛː 
[156.585]
<no-speech> 
[157.995]
b ɤ ŋ k ɔː n m ɛː w ɑː m ɑ n s i ʔ d ɑ j b ɔ 
[159.845]
<no-speech> 
[160.965]
s iə̯ ŋ kh ɯː kh ɑː t w ɑ 
[162.075]
<no-speech> 
[164.395]

[164.905]
<no-speech> 
[166.095]
ʔ ɑː j ɲ ɑ ŋ b ɔ h u w ɑː t uə̯ c i ŋ m ɑ n p e n c ɑ ŋ d ɑ j n ɑː h ɑ 
[169.795]
<no-speech> 
[172.945]
d ɔː k d iə̯ w 
[174.195]
<no-speech> 
[175.765]
ʔ ɑː j ɲ ɑ ŋ b ɔ d ɑ j h e n kh ɑ k th ɯə̯ n ɑː m ɯ l ɛː ŋ h e n m ɯ l ɛː ŋ h e n 
[178.915]
<no-speech> 
[182.565]
m ɯ l ɛː ŋ h e n 
[183.305]
<no-speech> 
[185.495]
ʔ ɤ ʔ ɤ j ɑː n m ɛː n c i m m iː d ɑ j d ɑ j h e t h ɑ j n iː 
[188.225]
<no-speech> 
[190.105]
ʔ ɑː w c ɑ k m ɑ n ph ɛː ŋ ʔ ɤː j 
[191.225]
<no-speech> 
[194.015]
b ɔ d ɑ j w ɑː ŋ n ɑː 
[195.215]
<no-speech> 
[199.205]
ʔ i ɲ ɑ ŋ kh ɯ w ɑː m ɑ n t ɑ t ʔ eː ŋ 
[200.355]
<no-speech> 
[201.885]
b ɤː th ɑ j w ɑ 
[202.855]
<no-speech> 
[207.545]
h ɑ 
[208.105]
<no-speech> 
[209.425]
b ɤː th ɑ j w ɑ ʔ ɑː j w ɑː 
[210.645]
<no-speech> 
[214.275]
p ɑ ʔ th o ʔ i ɲ ɑ ŋ b ɤː ʔ ɑː m eː k ɑː t ɔː t i t t ɔː m ɑː d ɑ j s ɤː j 
[217.765]
<no-speech> 
[226.665]
m ɛː n ph ɑ j w ɑo 
[227.495]
<no-speech> 
[231.265]
s ɑ j d ɑ j s ɑ n b ɔ 
[232.065]
<no-speech> 
[233.395]
w ɑo p ɑ j 
[234.315]
<no-speech> 
[237.745]
b ɤː th ɑ j t i ʔ 
[238.875]
<no-speech> 
[242.685]
c ɑo c ɑo t ɑ ŋ l ɔː w ɑ th o l ɑ s ɑ p m ɑ n p e n c ɑ ŋ s iː w ɑ 
[245.665]
<no-speech> 
[246.925]
c ɑː j ŋ ɤ n l ɑː j b ɔ l ɑː 
[248.985]
<no-speech> 
[250.145]
l ɑ ʔ m ɑ n s iə̯ d eː l ɑː j b ɔ l ɑː 
[251.415]
<no-speech> 
[254.975]
m ɑ n th o h ɑ b ɤː l ɑː w d ɑ j 
[258.485]
<no-speech> 
[260.035]
ʔ i ɲ ɑ ŋ m ɑ n h uə̯ m b ɤː l ɑː w d ɑ j w ɑ 
[261.615]
<no-speech> 
[264.685]
th o h ɑ b ɤː l ɑː w d ɑ j n ɔː 
[266.045]
<no-speech> 
[270.745]
ʔ o ʔ o 
[272.555]
<no-speech> 
[274.535]
<no-speech> 
[274.755]
<no-speech> 
[274.840]
