[0.000]
<no-speech> 
[0.455]

[0.815]
<no-speech> 
[9.715]
<no-speech> 
[11.865]
<no-speech> 
[21.785]
<no-speech> 
[31.705]
h ɑ 
[32.205]
<no-speech> 
[34.905]
w ɑː ŋ d ɑ j 
[35.575]
<no-speech> 
[37.575]

[38.005]
<no-speech> 
[39.835]
ʔ ɤː k ɑ ʔ s ɑ b ɑː j d iː h ɤː j 
[42.175]
<no-speech> 
[48.855]
c ɑ k b ɔ d ɑ j b ɤ ŋ b ɤː n ɑː ʔ iə̯ n h ɑ n 
[50.625]
<no-speech> 
[52.825]
h ɑ <no-speech> ʔ ɑ n d ɑ j 
[54.205]
<no-speech> 
[64.565]
ʔ ɑː b ɔ d ɑ j w ɑː s ɑ n kh ɑo b ɔ h e t kh uə̯ m uː l ɑ ʔ m iː t ɛ p e n ʔ o k uː b ɯə̯ kh ɑ j d iə̯ w n iː n ɑ 
[70.425]
<no-speech> 
[71.995]
th u k kh ɑː p l ɤː j kh ɑ j ʔ ɑː 
[73.295]
<no-speech> 
[77.635]
ʔ iː b ɯə̯ kh ɑ j 
[79.545]
<no-speech> 
[86.975]
l o m l ɛː w m o t l ɑ ʔ <int> kh ɑo h ɑ j k uː l o ŋ m ɯə̯ ʔ iː k th iə̯ w n ɯ ŋ p iː m ɑ j n iː c ɑ k s i ʔ l o ŋ b ɔ l o ŋ b ɔ n iː 
[93.965]
<no-speech> 
[99.315]
<click> k uː b ɤ t l ɛː w p iː m ɑ j k uː b ɔ d ɑ j l o ŋ 
[101.015]
<no-speech> 
[104.585]
ʔ ɯː m 
[105.225]
<no-speech> 
[108.235]
w ɑː s i ʔ p ɑ j l i n t ɑː t s ɛː t ɑː t k uə̯ ŋ s iː n ɑ p iː n iː 
[110.935]
<no-speech> 
[112.635]
l i n l uə̯ ŋ ph ɑ b ɑː ŋ n ɑ ʔ ɤ 
[114.325]
<no-speech> 
[121.025]
<no-speech> 
[127.725]
j ɑː k c iː n t ɑː ŋ kh u ʔ ɛː ŋ w ɑː m ɯ ŋ n ɑ 
[129.005]
<no-speech> 
[136.485]
<no-speech> 
[136.995]
<no-speech> 
[143.385]
ʔ ɯː m <no-speech> ʔ ɔː p ɑ j t i t kh u ʔ ɛː ŋ l ɛː w w ɑ 
[146.225]
<no-speech> 
[153.205]
<no-speech> 
[160.185]
<no-speech> 
[160.995]
<no-speech> 
[167.905]
<no-speech> 
[168.275]
<no-speech> 
[170.185]
k ɑ ʔ ŋ ɑ n ŋ ɑ n l ɛ ʔ k uː ʔ oː j <breath> m ɯə̯ j th ɔː t c ɑ j l ɑ ʔ h e t w iə̯ k kh i kh ɑː n l ɛ ʔ c ɑ k s i ʔ h e t ɲ ɑ ŋ k uː kh ɑ n c iː n n ɤː 
[175.375]
<no-speech> 
[176.735]
<no-speech> 
[178.015]
<no-speech> 
[181.405]
w ɑ 
[182.005]
<no-speech> 
[189.855]
ʔ iː 
[190.385]
<no-speech> 
[193.795]

[194.245]
<no-speech> 
[206.145]
b ɔ ʔ m ɑ k b ɤ ŋ l ɛ ʔ l ɛː w <hes> 
[208.825]
<no-speech> 
[210.055]
ʔ ɤ d ɑ j ɲ i n j uː 
[211.125]
<no-speech> 
[213.355]
ʔ ɑː w <no-speech> t ɑ t p ɑ j p e n b ɑː t 
[215.725]
<no-speech> 
[217.075]
ʔ ɑ n t o m ɯ ŋ w ɑː l ɔː ŋ <hes> b ɤː h ɯ 
[219.685]
<no-speech> 
[221.705]
m ɛː n ɲ ɑ ŋ 
[222.185]
<no-speech> 
[226.445]
ʔ ɤ l ɛ ʔ m ɑ n m ɑː b ɑː t n iː k uː h ɑ p k ɑ ʔ m iː t ɛː w ɑː p e n kh ɔː kh uə̯ m s iə̯ ŋ s ɯː 
[229.745]
<no-speech> 
[235.025]
ʔ ɤ b ɑ n th ɯ k s iə̯ ŋ s ɯː n ɑː 
[236.485]
<no-speech> 
[238.205]
t ɛ b ɤː k uː b ɤ ŋ w ɑː n m ɑ n p e n ɲ ɑ ŋ h uː m iː k iː m ɑ n 
[240.725]
<no-speech> 
[248.375]
k ɑ ʔ l i n j uː s uə̯ ŋ n iː b ɔ d ɑ j kh ɑo p ɑː n d ɑ j n ɑː 
[250.565]
<no-speech> 
[252.755]
<int> b ɤː t o n ɑ n m ɑ n s o ŋ ʔ o m ɑ n l ɑː j ph oː t 
[254.885]
<no-speech> 
[255.905]
<int> h ɑ 
[257.055]
<no-speech> 
[262.305]
k o ŋ m ɑ n th ɛː 
[263.155]
<no-speech> 
[265.945]
ʔ ɯː m <no-speech> t o n ɑ j k u m n ɑ n m ɯ ŋ s o ŋ m ɑː m ɑ n m ɛː n ph ɑ j n ɛː m ɑ n l ɑː j ph oː t n ɑ k uː b ɔ d ɑ j kh ɑo l i n b ɔ d ɑ j kh ɑo b ɤ ŋ s ɑ m n ɑ m ɑ n b ɔ s ɑː ŋ t i t t ɔː h ɑ kh ɑo 
[273.725]
<no-speech> 
[279.365]
m ɯ ŋ ʔ ɛ t m ɑː m ɑ n l ɑː j ph oː t t ɛ k ɯə̯ p p e n l ɔː j ph u n w ɑ 
[282.595]
<no-speech> 
[284.755]
<no-speech> 
[285.625]
<no-speech> 
[292.725]
<foreign> s o ŋ m ɑː m ɑ n k i n n ɯə̯ th iː b ɑ k l ɑː j l ɑː j n e kh ɔː ŋ k uː k ɑ d ɑː j 
[295.545]
<no-speech> 
[296.505]
<no-speech> 
[296.885]
<no-speech> 
[297.715]
s uə̯ ŋ n ɯ ŋ 
[298.355]
<no-speech> 
[306.505]
<no-speech> 
[306.895]
<no-speech> 
[318.565]
<no-speech> l o p kh ɔ m uː n m o t b ɔ 
[321.935]
<no-speech> 
[323.925]
<no-speech> 
[324.445]
<no-speech> 
[325.425]
w ɑː l o p kh ɔ m uː n c ɑ m ph uə̯ k n ɑ n l ɛː w k ɔː 
[327.595]
<no-speech> 
[329.705]
ʔ iː ʔ iː 
[330.425]
<no-speech> 
[331.495]
b ɔ d ɑ j kh ɑo l i n d o n k uː m ɑː kh ɑo s uə̯ ŋ n ɑ n m ɑ n b ɔː k h ɑ j <hes> <foreign> m ɑ j w ɑː s ɑ n w ɑː <foreign> t o k ɑo n ɑ m ɑ n k ɑo ph oː t w ɑː s ɑ n 
[337.745]
<no-speech> 
[339.645]
l ɛː w k ɔː d ɑ w l oː t m ɑ j 
[340.745]
<no-speech> 
[342.785]
<int> h ɑ 
[343.875]
<no-speech> 
[347.875]
b ɔ n ɑ 
[348.585]
<no-speech> 
[352.995]
p iə̯ n ʔ ɑ n d ɑ j 
[353.955]
<no-speech> 
[361.375]
ʔ ɯ k uː s ɑ j t ɛ l ɑ k s ɔː ŋ l ɛː w n ɑ n iː l ɑ k k ɑo k uː th i m l ɛː w n ɑ 
[363.935]
<no-speech> 
[367.085]
l ɑ k k ɑo n ɑ n k uː th i m l ɑ ʔ k uː l ɔː ŋ th o t i t kh ɑo j uː <hes> 
[369.905]
<no-speech> 
[371.305]
ph ɑː k t ɑ j ph u n n ɑː 
[372.485]
<no-speech> 
[373.425]
<no-speech> 
[374.885]
<no-speech> 
[375.855]
<int> c ɑ k b ɔ m ɑ k m ɛː n d ɑ j h uː m ɑ n k ɑ ʔ ŋ ɑː m j uː 
[379.955]
<no-speech> 
[380.935]
c ɑ k d ɑ j h uː kh i kh ɑː n s ɑ j l ɑː j b ɤː 
[382.505]
<no-speech> 
[383.785]
m ɑː w iə̯ ŋ n iː s ɑ j ʔ i ʔ s ɑ j l ɑ k h ɑː n iː ʔ o k uː l o ŋ 
[387.815]
<no-speech> 
[392.015]
ʔ ɤ h ɤː j 
[392.825]
<no-speech> 
[396.075]
ʔ ɑ n d ɑ j 
[396.725]
<no-speech> 
[401.165]
ʔ oː j h e t n ɑ m <click> b ɔ l ɔː n n ɑ s uə̯ ŋ n iː k uː ʔ ɑː 
[403.685]
<no-speech> 
[404.845]
<foreign> k uː s ɑː m s i p p ɑː j s i s i p n iː j iə̯ p s ɑː m l ɑː n p ɑː j l ɑ ʔ d ɑ j n iː d ɯə̯ n n iː 
[411.865]
<no-speech> 
[413.175]
m ɑ n l e ŋ ʔ o th iː k uː w iə̯ k b ɑ k l ɑː j 
[415.085]
<no-speech> 
[420.055]
m ɑ n m ɑ n p e n w iə̯ k kh oː ŋ k ɑː n j uː l ɛː w m ɑ n h e t w iə̯ k m ɑ n m ɑ n p e n w iə̯ k ʔ ɔː d ɤ 
[426.465]
<no-speech> 
[429.975]
p ɛː w ɑː w iə̯ k h ɑ p s ɑ j kh oː ŋ k ɑː n s ɯː n ɑ k uː <hes> kh ɑo h ɑ j l ɛː n w iə̯ k m ɑː ph iː l ɛː w k uː p ɑ j p ɛː ŋ l ɛː n w iə̯ k m ɑː ph iː k uː p ɑ j p ɛː ŋ s iː n ɑː 
[436.365]
<no-speech> 
[442.485]
ʔ ɤ n ɑ n h ɤː j 
[443.555]
<no-speech> 
[450.295]
ʔ iː 
[450.785]
<no-speech> 
[454.645]
b ɔ s ɑ n ɲ ɑː n b ɔ j ɑː k d iː p ɑː n d ɑ j d ɤ h ɤː j 
[456.965]
<no-speech> 
[458.205]
j ɑː k kh ɑː t kh ɑː t j uː <no-speech> ʔ ɯː m 
[460.485]
<no-speech> 
[467.695]
<click> l o m p ɑ j k ɔː n w ɑ 
[468.725]
<no-speech> 
[472.225]
ʔ ɤ h ɤː j 
[473.045]
<no-speech> 
[475.325]
h ɑ 
[475.865]
<no-speech> 
[480.705]
<no-speech> 
[481.115]
<no-speech> 
[483.295]
l iə̯ ŋ k uː h e t w iə̯ k j uː n iː s iː w ɑ <breath> 
[484.805]
<no-speech> 
[487.695]
m ɯ ŋ s i ʔ m iː ɲ ɑ ŋ j uː n iː kh i f u n k ɑ ʔ f u n h ɔː n k ɑ ʔ h ɔː n ph uː k ɑ ʔ ph uː h uə̯ l oː n 
[491.615]
<no-speech> 
[492.855]
kh ɑo th ɑː ŋ p i k ɑː j n iː l oː n m o t p iː n iː h ɑ h ɑ k ɔː p o ŋ ɲ ɔː t n iː <click> 
[496.475]
<no-speech> 
[497.765]
ʔ o k s i c eː n b ɔ ph ɔː h ɑ n d eː th ɛː w n iː h ɔː n 
[501.825]
<no-speech> 
[506.705]
<int> ph uː h ɑ n l ɛ ʔ kh ɑo c ɑo p ɔː k ph uː n ɑ ph uə̯ k ʔ ɑ n n ɑ n kh ɑo b u k b ɤː k h e t t ɑ t <hes> m ɑ j n ɛː c ɑ m n uə̯ n n ɯ ŋ l ɑ ʔ th ɑː ŋ p ɑː h e t h ɑ j h ɑ n n ɑ 
[513.125]
<no-speech> 
[518.335]
t o h ɑ n w ɑ 
[519.455]
<no-speech> 
[521.255]
b ɔ t o t o n iː c ɔ ʔ ʔ uː m o ŋ ʔ ɑ n n ɑ n <hes> h ɑ j n ɑ m l ɔː t l ɔː t l ɔː t ʔ uː m o ŋ m ɑː 
[526.395]
<no-speech> 
[528.195]
t ɔː ph uː n uə̯ j n ɯ ŋ h ɑ n l ɛ ʔ kh ɑ n s i ʔ w ɑo k ɑ d ɑː j 
[529.995]
<no-speech> 
[539.755]
ʔ ɤː p e n b ɛː p t ɑ f ɑ ŋ m ɑ n n ɑ kh ɑo c ɑo s iː t p uː n ʔ ɑ t p uː n 
[543.335]
<no-speech> 
[544.885]
l ɔː t t ɑ f ɑ ŋ m ɑ n l ɑ ʔ kh ɑo w ɑː ʔ ɑo l ɛ w n ɑ m ʔ ɔː k m ɑː th ɑː ŋ ʔ uː m o ŋ kh ɑo k ɑ ʔ t ɑ n t ɑ n k ɛː n kh ɯə̯ n t ɑ n n ɑ m l ɤː j n ɑ 
[552.335]
<no-speech> 
[555.805]
t ɑ n l ɑ ʔ b ɑ t n ɑ n l ɛː w k ɔː kh ɑo k ɑ ʔ c ɔ ʔ ʔ uː m o ŋ t o m ɑ j h e t ʔ uː m o ŋ <hes> n ɑ m t oː n s ɑ j m ɔː b ɛː ŋ m ɔː p ɑ n f ɑ j n ɑ 
[563.795]
<no-speech> 
[565.105]
t ɑ n t o n ɑ n h ɑ j n ɑ m l o n kh ɯ n m ɑː d ɑ j l ɑ d ɑ p l ɑ ʔ n ɑ m p ɑ j t oː n s ɑ j <hes> d ɑ j p ɑ n f ɑ j ph ɑ l i t k ɑ s ɛː f ɑ j c iː n 
[570.125]
<no-speech> 
[571.535]
l ɑ ʔ ʔ uː m o ŋ l ɑ ʔ ʔ uː m o ŋ t o c ɔ ʔ n iː p e n ʔ uː m o ŋ b ɛː p 
[574.405]
<no-speech> 
[575.715]
<sta> n ɑ n s ɯː ʔ uː m o ŋ s uə̯ j s ɯː s uə̯ j t ɔː n kh ɑo l ɤː m t ɑ n ʔ uː m o ŋ 
[580.795]
<no-speech> 
[585.445]
j uː n iː kh ɑo c ɑo c ɑ ʔ c ɔ ʔ <hes> h uː n ɯ ŋ n iː 
[587.555]
<no-speech> 
[589.615]
ʔ ɑː h uː n ɯ ŋ s ɔː t k ɑ n l ɛː w k ɔː ʔ iː k h uː n ɯ ŋ s ɔː ŋ h uː j uː n iː kh ɑo c ɔ ʔ 
[592.995]
<no-speech> 
[593.805]
ʔ o p ɑ j j uː s iə̯ ŋ kh uə̯ ŋ kh ɑo c ɑo c ɔ ʔ l ɑː j h uː l ɛː w ɲ ɑː w ɲ ɑː w p e n s i s i p h ɑ s i p k i l oː n ɑ k i l o m ɛ t 
[598.555]
<no-speech> 
[600.220]
