[0.000]
ʔ ɤ 
[1.465]
<no-speech> 
[4.555]
<sta> h ɑ l oː <sta> 
[9.285]
<no-speech> 
[10.195]
j uː h ɔː ŋ k ɑː n n iː p e n ɲ ɑ ŋ 
[11.525]
<no-speech> 
[12.465]
<no-speech> 
[14.085]
<no-speech> 
[15.175]
p e n ɲ ɑ ŋ 
[17.235]
<no-speech> 
[18.785]
<sta> h ɑ <sta> m ɯ ŋ p e n ɲ ɑ ŋ b ɔ ʔ m ɯ ŋ m ɑː m ɯ ŋ p e n ɲ ɑ ŋ <no-speech> b ɔ n ɑː k uː s i ʔ c iː n m ɯə̯ l ɑ ʔ n iː m ɯ ŋ p e n ɲ ɑ ŋ 
[30.155]
<no-speech> 
[33.565]
ʔ ɤ w ɑo m ɑː l ɑ ʔ m ɛː 
[34.485]
<no-speech> 
[40.715]
ʔ ɤ 
[41.405]
<no-speech> 
[43.775]
p e n ɲ ɑ ŋ <no-speech> c ɑ k n ɔː j n iː l ɛ ʔ p e n ɲ ɑ ŋ 
[45.895]
<no-speech> 
[50.945]
h ɑ <sta> ph ɑ j th o m ɑː 
[54.045]
<no-speech> 
[55.105]
b ɔ n ɑː m ɯ ŋ p e n ɲ ɑ ŋ m ɯ ŋ w ɑo m ɑː n iː l oː t t ɛ l ɑ ʔ th ɯə̯ m ɯ ŋ b ɔ h e n th o m ɑː 
[58.205]
<no-speech> 
[61.375]
h ɑ 
[61.945]
<no-speech> 
[64.285]
d ɑ j ɲ i n j uː l ɛː w m ɯ ŋ p e n ɲ ɑ ŋ 
[65.475]
<no-speech> 
[68.965]
<no-speech> 
[69.375]
<no-speech> 
[72.435]
kh ɑo c ɑo h ɑ j th o m ɑː n ɛː w d ɑ j 
[73.495]
<no-speech> 
[75.805]
<no-speech> 
[76.165]
<no-speech> 
[77.145]
l ɑ ʔ p e n ɲ ɑ ŋ 
[77.765]
<no-speech> 
[79.995]
p e n ɲ ɑ ŋ 
[80.625]
<no-speech> 
[84.865]

[85.475]
<no-speech> 
[87.315]
kh ɑo c ɑo <hes> m ɯ ŋ h e t p ɑ t uː m ɯ ŋ h e t <sta> d iə̯ w <no-speech> m ɯ ŋ h e t p ɑ t uː <hes> d ɑ j b ɔ <no-speech> h e t <hes> t ɑ n ɑː ŋ k ɑ n ɲ u ŋ h ɑ n n ɑ 
[95.705]
<no-speech> 
[97.275]
h e t s ɔː ŋ p ɔː ŋ n ɑː 
[98.635]
<no-speech> 
[100.495]
m ɑː h e t h e t h ɑ j kh ɑo c ɑo b ɔ d ɑ j m ɯ ʔ ɯː n n iː n ɑ 
[102.485]
<no-speech> 
[104.725]
m ɯ ŋ m ɯ ŋ th ɑː m b ɑ k t ɑː d u ʔ w ɑː p ɔː ŋ th ɔ d ɑ j h e t j uː h ɔː ŋ k ɑː n n iː n ɑː 
[107.755]
<no-speech> 
[111.175]
b ɔ l ɛ ʔ m ɯ ŋ p ɑ j w ɑo 
[112.165]
<no-speech> 
[113.025]
h ɑ 
[113.735]
<no-speech> 
[115.365]

[115.735]
<no-speech> 
[116.955]
<no-speech> 
[117.565]
<no-speech> 
[118.805]
<no-speech> 
[119.155]
<no-speech> 
[124.325]
b ɔ l ɛ ʔ l e k ʔ i ɲ ɑ ŋ s uː m o t l ɤː j d ɑ j 
[126.305]
<no-speech> 
[127.645]
h e t m ɑ j m o t n ɑ 
[128.835]
<no-speech> 
[130.975]
m ɯ ŋ th ɑː m b ɑ k t ɑː d u ʔ kh ɑo c ɑo j ɑː k h ɑ j h e t s ɔː ŋ p ɔː ŋ n ɯ ŋ n ɑː 
[133.625]
<no-speech> 
[136.995]
ʔ ɑo m ɑ n p ɑ j h e t w iə̯ k j uː l uə̯ ŋ ph ɑ b ɑː ŋ w ɑ <no-speech> ʔ ɤ m ɯ ŋ h e t p e n b ɔ ʔ l ɛ ʔ 
[139.995]
<no-speech> 
[141.735]
<no-speech> 
[142.185]
<no-speech> 
[143.125]
h ɑ 
[143.675]
<no-speech> 
[146.005]
h ɑ j ph uə̯ k j uː h oː ŋ m ɔː n iː n ɑː <no-speech> h ɑ j ph uə̯ k kh ɔː h o k n iː n ɑ 
[149.585]
<no-speech> 
[152.795]
b ɔ n ɑː p ɑ t uː p ɔː ŋ j iə̯ m <no-speech> ʔ ɤ 
[155.205]
<no-speech> 
[156.645]
ʔ ɤ 
[157.325]
<no-speech> 
[158.955]

[159.455]
<no-speech> 
[164.025]
b ɔ l ɛ ʔ m ɯ ŋ k ɑ ʔ s ɯː m ɯ ŋ k ɑ ʔ m ɑ t s o m m u t m ɯ ŋ s i ʔ h e t th ɛː th ɛː k uː s i ʔ w ɑo kh ɑ n w ɑː h e t b ɔ d ɑ j k ɑ ʔ l ɛː w d ɑ j 
[169.655]
<no-speech> 
[176.210]
<no-speech> 
[182.765]
l ɑ ʔ m ɯ ŋ s i ʔ h e t d ɑ j s ɑ b ɔ ʔ k ɑ ʔ h e t d ɑ j s ɑ b ɔ ʔ 
[184.515]
<no-speech> 
[188.965]
m ɯ ŋ m iː kh ɯə̯ ŋ l ɛ ʔ b ɔ ʔ ph uə̯ k p ɑ j h e t b ɔ h e t l ɑː w 
[190.945]
<no-speech> 
[196.255]
ʔ ɤ ʔ ɤ k uː <no-speech> k uː k ɑ ʔ w ɑo k ɑ p m ɑ n th ɛː 
[197.865]
<no-speech> 
[199.995]
k ɑ ʔ m iː m ɯ ŋ k ɑ ʔ m iː l ɑ ʔ d eː k uː k ɑ ʔ m iː j uː 
[202.945]
<no-speech> 
[204.755]
<sta> ʔ ɑo m ɯ ŋ p e n ɲ ɑ ŋ m ɯ ŋ j ɑː k th o m ɑː p e n ɲ ɑ ŋ <no-speech> b ɤː ph ɑ j n iː 
[208.955]
<no-speech> 
[212.905]
ʔ ɤ m ɑ n p e n ɲ ɑ ŋ m ɯ ŋ j uː s ɑ j j uː h ɯə̯ n w ɑ 
[214.475]
<no-speech> 
[215.355]
h ɑ <no-speech> m ɯ ŋ j uː h ɯə̯ n w ɑ n iː 
[217.325]
<no-speech> 
[223.405]
k ɑ p b ɑː n w ɑ 
[224.285]
<no-speech> 
[226.125]
p e n ɲ ɑ ŋ m ɯ ŋ m ɯ ŋ m iː ɲ ɑ ŋ k ɔ w ɑo m ɑː l ɑ ʔ m ɛː 
[228.005]
<no-speech> 
[233.725]
<no-speech> 
[234.285]
<no-speech> 
[236.045]
m ɑ t p ɑ j s ɑ j 
[236.885]
<no-speech> 
[238.175]
<sta> s uə̯ n s uə̯ n p ɑ j s ɑ j l ɛ ʔ 
[240.365]
<no-speech> 
[241.505]
m ɑː h ɯə̯ n h ɑo h ɑ n w ɑ 
[242.525]
<no-speech> 
[244.335]
ʔ ɑo p e n ɲ ɑ ŋ 
[245.035]
<no-speech> 
[247.465]
b ɔ n ɑː 
[248.325]
<no-speech> 
[249.775]
b ɔ p e n ɲ ɑ ŋ 
[250.765]
<no-speech> 
[252.895]
s uː m ɯ ŋ kh ɯ t w ɑː p e n ɲ ɑ ŋ <no-speech> b ɔ b ɑ k ph ɔː n b ɔ d ɑ j ɲ ɑː m m ɯ ŋ p e n ɲ ɑ ŋ <no-speech> b ɑ k ph ɔː n b ɔ d ɑ j ɲ ɑː m m ɑ n b ɔ d ɑ j ɲ ɑː m 
[259.825]
<no-speech> 
[261.195]
p e n ɲ ɑ ŋ 
[261.975]
<no-speech> 
[263.965]
p e n ɲ ɑ ŋ 
[264.675]
<no-speech> 
[267.805]
p e n ɲ ɑ ŋ kh ɯː l o m th o l ɑ s ɑ p 
[268.895]
<no-speech> 
[276.405]
b ɔ m ɯ ŋ w ɑo m ɑː d iː d iː m ɯ ŋ p e n ɲ ɑ ŋ d iə̯ w n iː 
[278.355]
<no-speech> 
[285.915]
<no-speech> 
[293.475]
ʔ ɤ th o l ɑ ʔ p e n ɲ ɑ ŋ b ɑː t n iː 
[294.565]
<no-speech> 
[296.455]
th o l ɑ ʔ p e n ɲ ɑ ŋ 
[297.185]
<no-speech> 
[306.385]
ʔ ɔː m ɯ ŋ b ɔ m ɛː n d ɔː k m ɯ ŋ p e n ɲ ɑ ŋ 
[308.215]
<no-speech> 
[309.195]
m ɯ ŋ j uː m ɔː ŋ d ɑ j n iː j uː h ɯə̯ n w ɑ 
[310.645]
<no-speech> 
[313.085]
ʔ ɑo m ɯ ŋ j uː s ɑ j ʔ ɑo b ɔ j uː h ɯə̯ n 
[314.555]
<no-speech> 
[318.815]
l ɑ ʔ m ɯ ŋ p ɑ j ɲ ɑ ŋ h ɑ n 
[319.755]
<no-speech> 
[321.225]
ʔ ɤ m ɯ ŋ m iː p ɯː n b ɔ ʔ h ɑ n 
[322.605]
<no-speech> 
[323.665]
kh ɑo c ɑo j ɑː k d ɑ j p ɯː n n ɑ 
[325.485]
<no-speech> 
[327.035]
m iː b ɔ l ɛ ʔ 
[327.805]
<no-speech> 
[334.435]
l ɑː w j ɑː k d ɑ j d iə̯ w n iː n ɑː h e n w ɑː l ɑː w j ɑː k d ɑ j th i t n iː n iː l ɛ ʔ 
[337.305]
<no-speech> 
[339.445]
kh ɑ n d ɑ j k uː s i ʔ b ɔː k l ɑː w <no-speech> h ɑ 
[341.685]
<no-speech> 
[345.145]
ʔ ɤ ʔ ɑo m ɑː h ɑ j l ɑː w b ɤ ŋ k ɔː n 
[346.555]
<no-speech> 
[349.865]
ʔ ɑo m ɑ n s i ʔ b ɔ b ɤ ŋ ph ɑ j s i ʔ p ɑ j s ɯː d ɑ j n ɔ ʔ 
[351.995]
<no-speech> 
[352.845]
w ɑo b ɑː ŋ th ɯə̯ m ɑ n b ɔ th ɯː k 
[354.115]
<no-speech> 
[357.225]
ʔ ɤ p ɑ j b ɤ ŋ ph u n 
[358.565]
<no-speech> 
[363.095]
ʔ ɤ ʔ ɤ ʔ ɤ 
[363.955]
<no-speech> 
[368.635]
ʔ ɤ p ɯː n t ɛː ŋ l ɛː n b ɔ 
[370.255]
<no-speech> 
[373.015]
ʔ ɤː k uː s i ʔ m ɯə̯ ʔ ɑo 
[374.255]
<no-speech> 
[376.435]
p ɯː n b ɔ t ɛ ɲ ɑ ŋ 
[377.565]
<no-speech> 
[382.785]
ʔ ɤ k uː s i ʔ w ɑo k ɑ p l ɑː w ph ɔ ʔ kh ɑo c ɑo j ɑː k d ɑ j h ɑ n n ɑː 
[385.545]
<no-speech> 
[387.685]
ʔ ɯ ʔ ɯ th ɔː n iː w ɑ 
[389.405]
<no-speech> 
[392.565]
<no-speech> 
[392.925]
<no-speech> 
[394.065]
ʔ ɑo m ɯ ŋ p e n ɲ ɑ ŋ b ɔ ʔ k uː th ɑː m h ɯ ʔ 
[397.305]
<no-speech> 
[402.745]
p ɑ j s ɑ j 
[403.305]
<no-speech> 
[406.205]
m ɯ ŋ p e n ɲ ɑ ŋ ʔ ɑo 
[407.145]
<no-speech> 
[412.115]
<sta> h ɑ <sta> 
[414.945]
<no-speech> 
[416.785]
b ɔ n ɑː k uː th ɑː m m ɯ ŋ p e n ɲ ɑ ŋ d iə̯ w n iː ʔ ɑo m ɯ ŋ kh ɯ w ɑː j ɑː k th o h ɑ t ɛ l ɑ ʔ th ɯə̯ kh ɯː b ɔ h e n th o h ɑ m ɯ ŋ p ɑ j h e t ɲ ɑ ŋ m ɯ ŋ p e n ɲ ɑ ŋ 
[422.195]
<no-speech> 
[424.945]
b ɔ k iə̯ w 
[426.035]
<no-speech> 
[430.895]
b ɔ k iə̯ w b ɔ k iə̯ w m ɯ ŋ t ɔː ŋ m iː ɲ ɑ ŋ n iː l ɛ ʔ 
[433.055]
<no-speech> 
[436.565]
b ɔ h uː 
[437.315]
<no-speech> 
[444.995]
ʔ o 
[445.915]
<no-speech> 
[447.045]
m ɯ ŋ p e n ɲ ɑ ŋ m ɯ ŋ kh ɯ w ɑː s ɑ n m ɯ ŋ s i ʔ p ɑ j s ɑ j 
[449.255]
<no-speech> 
[454.515]
b ɔ n ɑː m ɯ ŋ s i ʔ ʔ ɔː k p ɑ j s ɑ j 
[456.265]
<no-speech> 
[465.755]
m ɑː h ɯə̯ n h ɑo h ɑ n d ɑ j 
[466.695]
<no-speech> 
[469.765]
p ɑ j h e t ɲ ɑ ŋ h ɯə̯ n h ɑo k uː th ɑː m m ɯ ŋ k ɔː n 
[471.335]
<no-speech> 
[473.105]
p ɑ j h e t ɲ ɑ ŋ 
[473.825]
<no-speech> 
[474.745]
m ɯ ŋ ʔ ɑo ŋ ɤ n m ɑː t ɛ s ɑ j l iə̯ ŋ b iə̯ kh ɑo 
[476.445]
<no-speech> 
[478.065]
m ɯ ŋ p ɑ j ʔ ɑo ŋ ɤ n m ɑː t ɛ s ɑ j <no-speech> ʔ o 
[480.345]
<no-speech> 
[481.415]
k uː th ɑː m m ɯ ŋ p e n ɲ ɑ ŋ 
[482.475]
<no-speech> 
[485.535]
ŋ ɤ n d ɯə̯ n ph ɑ j 
[486.305]
<no-speech> 
[488.765]
ph i b ɑː w ɑ 
[489.795]
<no-speech> 
[492.775]
m ɯ ŋ s i ʔ p ɑ j c iː n b ɑː t n iː ʔ ɑo m ɯ ŋ p e n ɲ ɑ ŋ ph i b ɑː b ɔ n iː h ɯ 
[495.695]
<no-speech> 
[502.565]
<no-speech> 
[502.935]
<no-speech> 
[504.995]
ʔ o b ɔ k iə̯ w d ɔː k d iə̯ w n iː n ɑ <no-speech> m ɯ ŋ <laugh> p e n b ɑː ɲ ɑ ŋ d iə̯ w n iː 
[509.345]
<no-speech> 
[510.935]
b ɔ b ɔ p e n c ɑ ŋ s iː n ɑ <laugh> 
[514.265]
<no-speech> 
[518.105]
h ɑ 
[518.645]
<no-speech> 
[523.045]
s ɑ b ɔ ʔ 
[523.625]
<no-speech> 
[529.155]
m ɛː n ph ɑ j b ɔː k 
[531.165]
<no-speech> 
[535.015]
<no-speech> 
[536.015]
<no-speech> 
[537.395]
<sta> s ɑ b ɔ ʔ 
[538.835]
<no-speech> 
[542.455]
b ɔ n ɑː m ɑ n b ɔ d ɑ j ɲ ɑː m m ɯ ʔ ɯː n ph u n n ɑː ɲ ɑː m n ɑ 
[544.315]
<no-speech> 
[547.925]
<no-speech> 
[548.315]
<no-speech> 
[549.385]
<sta> m ɯ ŋ p e n b ɑː ɲ ɑ ŋ n iː k uː w ɑo th ɛː <sta> 
[555.755]
<no-speech> 
[557.035]
b ɔ m ɯ ŋ b ɔ kh ɤː j p e n c ɑ ŋ s iː c ɑ k th ɯə̯ 
[558.835]
<no-speech> 
[565.205]
m ɑo j ɑː w ɑ <no-speech> h o <laugh> b ɑ k n iː m ɑo j ɑː d ɑ j n iː b ɤ ŋ s o ŋ n iː <laugh> kh ɑ n b ɔ m ɑo j ɑː b ɔ p e n c ɑ ŋ s iː d ɔː k m ɯ ŋ p e n ɲ ɑ ŋ m ɯ ŋ p e n ɲ ɑ ŋ 
[576.115]
<no-speech> 
[578.505]
ʔ o m ɑo j ɑː d ɑ j n iː n ɔ ʔ 
[580.155]
<no-speech> 
[585.075]
<no-speech> 
[585.435]
<no-speech> 
[588.465]
h ɑ 
[589.025]
<no-speech> 
[591.585]
b ɔ k iə̯ w n ɑ k uː w ɑː m ɯː n iː m ɯ ŋ p e n ɲ ɑ ŋ 
[593.175]
<no-speech> 
[598.205]
ʔ ɑo 
[599.625]
k ɑ ʔ w ɑo d iə̯ w 
[600.220]
