[0.000]
<no-speech> 
[1.745]
<no-speech> 
[4.355]
ʔ ɯː m <no-speech> h ɑ l oː 
[7.105]
<no-speech> 
[8.015]
<no-speech> 
[8.365]
<no-speech> 
[9.825]
m ɛː n w ɑ <laugh> kh ɯ w ɑː h ɔː t w ɑ j th ɛː s ɑ n d ɔː k w ɑː ŋ k i ʔ n iː <laugh> 
[17.095]
<no-speech> 
[18.205]
w ɑ p e n c ɑ ŋ d ɑ j c ɑo b ɔ d ɑ j p ɑ j k ɑo l iə̯ w c ɑo b ɔ h e n n ɑː ŋ b ɑː ŋ w ɑ 
[21.945]
<no-speech> 
[27.045]
<no-speech> 
[28.905]
<no-speech> 
[31.655]
ʔ ɤ <no-speech> w ɑ 
[34.405]
<no-speech> 
[36.325]
ʔ ɯː m l ɛː w d iə̯ w <no-speech> ʔ ɯː m <no-speech> ʔ ɯː m 
[47.345]
ʔ ɯː m l ɛː w b ɑː t n iː <hes> j uː j uː ph u n j uː ph u n c ɑ k kh o n s ɑ n n uə̯ j n ɯ ŋ <no-speech> j uː k ɑo m o t ʔ ɤ l ɑ b ɑː t b ɑː t n iː kh ɑo s i ʔ ʔ ɑo c iː n ph u n ɯ ŋ l ɯə̯ p ɛː t s ɑ n w ɑ 
[58.815]
<no-speech> 
[59.765]
ʔ ɯː m l ɑ ʔ ʔ ɑo m ɑː h ɑ j h ɑo <no-speech> k ɑo m o t ʔ ɤ ʔ ɑo j uː k ɑo l iə̯ w d iə̯ w n iː n uə̯ j n ɯ ŋ c ɑ k kh o n s ɑ <no-speech> c ɑ k kh o n 
[69.285]
<no-speech> 
[71.315]
ʔ ɤ l ɑ ʔ kh ɑo c ɑo s i ʔ ʔ ɑo w ɑ j k ɑo <no-speech> ʔ ɯː m 
[75.215]
<no-speech> 
[76.125]
ʔ ɯː m <no-speech> ʔ ɯː m <no-speech> ʔ ɯː m m ɛː n ph ɑ j l ɑ ʔ s i ʔ m ɑː 
[83.255]
<no-speech> 
[86.055]
<no-speech> 
[87.185]
<no-speech> 
[88.845]

[92.385]
<no-speech> 
[93.585]
<no-speech> 
[93.985]
<no-speech> 
[95.015]
ʔ ɯː m l ɑ b ɑː t n iː <hes> n ɑː ŋ b ɑː ŋ d eː p e n c ɑ ŋ d ɑ j <no-speech> w ɑ ph oː th ɔː ŋ s i ʔ kh ɑo n ɑ j ʔ i l iː w ɑ <no-speech> ʔ ɯː m ph oː th ɔː ŋ w ɑ 
[106.065]
ph oː ph oː ph oː th ɔː ŋ n ɑ n s i ʔ kh ɑo n ɑ j w ɑ ph oː th ɔː ŋ s i ʔ kh ɑo b ɔ l i s ɑ t w ɑ 
[111.385]
<no-speech> 
[113.715]
<sta> ʔ ɯː m 
[115.705]
<no-speech> 
[117.785]
ʔ ɯː m ʔ ɯː m ʔ ɯː m c ɑ k ph ɤ n s i ʔ kh ɑo p ɑ j h e t ɲ ɑ ŋ 
[120.985]
<no-speech> 
[122.205]
<no-speech> 
[123.035]
<no-speech> 
[124.085]
<no-speech> 
[129.605]
<no-speech> 
[130.745]
k ɑː n p ɑ j k ɑː n s u m ɯː j uː w ɑ n ɑː ŋ b ɑː ŋ 
[133.495]
<no-speech> 
[136.885]
ʔ ɤ 
[137.955]
<no-speech> 
[138.845]
ʔ ɤ l ɑː w j uː k ɑ j ʔ ɤ j uː k ɑ j n ɔ ʔ 
[141.885]
<no-speech> 
[142.825]
<no-speech> 
[144.575]
<no-speech> 
[147.405]
ʔ o b ɔ h ɛ ʔ ph ɤ n b ɔ ʔ ɑo c ɑ k th ɯə̯ d ɑ j 
[150.125]
<no-speech> 
[151.725]
l u k ph ɤ n k ɑ ʔ ɲ ɑ ŋ b ɔ ʔ ɑo b ɔ ʔ ɑo k ɑ ʔ b ɔ p e n ɲ ɑ ŋ h ɛ ʔ ʔ ɛː 
[156.075]
<no-speech> 
[157.765]
w ɑ j kh ɑː j j uː h ɯə̯ n k ɑ ʔ ɲ ɑ ŋ s ɑ m s i ʔ kh ɑː j ph ɔ d ɑ j kh ɑː j ʔ ɑː j ʔ ɛː ʔ ɤː j 
[162.045]
<no-speech> 
[164.595]
ʔ ɤ b ɔ ph ɔː s ɑ m <lipsmack> ʔ ɯː m <foreign> w ɑ j t ɛ s ɑː m h ɔː j n ɯ ŋ h ɑː k s i ʔ ph ɔː kh ɑː j l ɯː b ɔ 
[170.195]
<no-speech> 
[171.085]
ʔ ɯ m ɑ n b ɔ m iː b ɔː n w ɑ j n ɑ s ɑː ŋ kh ɔ ɲ m ɑ n n ɔː j ʔ ɯː m ʔ oː j s uː p iː l ɑː j k ɔː n h ɑ n ʔ ɯː m s ɑː m h ɔː j l ɑ ŋ ʔ ɑo w ɑ j l ɑ ʔ d eː t ɛː w ɑː <hes> m ɑ n <hes> b ɔ m iː b ɔː n w ɑ j s ɑː ŋ kh ɔ ɲ m ɑ n n ɔː j t ɛ h ɑ n ɲ ɑ ŋ b ɔ m iː b ɔ n ɲ ɑː ŋ d eː c ɑo k ɑ ʔ 
[182.295]
p ɑ j m ɑː ɲ ɑː m m ɯ ʔ ɯː n p ɑ j c ɔː p b ɤ ŋ m ɛ ʔ 
[184.275]
<no-speech> 
[186.425]
k ɑ w s i p k ɑ w s i p t ɛː w ɑː w i t th i t n iː p ɑ j b ɔ m ɛː n kh ɑo kh ɯ n l ɑ ʔ w ɑ b ɔ d ɑ j th o th ɑː m m uː kh ɔ ɲ ʔ ɑo w ɑ j t ɛ th i t l ɛː w n iː <no-speech> s ɑː m h ɔː j h ɑ s i p k ɑ ʔ kh ɑː j 
[194.425]
<no-speech> 
[198.305]
<no-speech> 
[198.665]
<no-speech> 
[199.545]
<laugh> k ɑ ʔ b ɔ d ɑ j l ɑ ʔ b ɔ d ɑ j ʔ ɑo h ɑ j d ɑ j kh ɑo ʔ ɑo h ɑ j w ɑ th ɑ m m ɑ d ɑː 
[205.445]
<no-speech> 
[208.695]
<no-speech> 
[210.295]
<no-speech> 
[211.235]
l o t b iə̯ h ɑ n d ɑ j <no-speech> ʔ o 
[214.745]
<no-speech> 
[216.205]
ʔ o <no-speech> ʔ ɑː m ɛː n b ɔ m ɛː n w ɑ ʔ o n ɑ j n ɑ j l o t b iə̯ h ɑ n d ɑ j ʔ ɑː ʔ oː j c ɑ k h ɛ ʔ t o h ɛ ʔ p ɑ j s ɯː t ɛ t ɑ l ɑː t kh uə̯ d i n h ɑ n 
[228.125]
<no-speech> 
[228.275]
<no-speech> 
[229.135]
m ɛː n w ɑ m ɑː h ɑ j b ɤ ŋ n ɛː 
[230.905]
<no-speech> 
[232.305]
ʔ ɑo j uː s ɑ j ʔ ɑo m ɑː h ɑ j c ɑ k ʔ ɑ n n ɛː s ɑ n l ɑ ʔ b ɔ <no-speech> h ɑ 
[236.925]
<no-speech> 
[239.180]
