[0.000]
<no-speech> 
[1.995]
ʔ ɤː h e t ɲ ɑ ŋ s iə̯ w 
[2.905]
<no-speech> 
[4.895]
ʔ ɤː 
[5.435]
<no-speech> 
[6.545]
m ɯː d ɑ j c ɑ ŋ d ɑ j <hes> 
[8.285]
<no-speech> 
[9.965]
w ɑ 
[10.705]
<no-speech> 
[11.665]
b ɔ 
[12.355]
<no-speech> 
[14.285]
b ɔ b ɔ h e t ɲ ɑ ŋ n ɑ 
[15.335]
<no-speech> 
[16.745]
ʔ ɤː 
[17.355]
<no-speech> 
[20.085]
<hes> ʔ ɑ n b ɔ b ɔ b ɔ d ɑ j p ɑ j s ɑ j b ɔ m iː ŋ ɑː n 
[23.995]
<no-speech> 
[24.985]
b ɔ m iː ŋ ɑː n 
[25.945]
<no-speech> 
[27.255]
b ɔ 
[28.115]
<no-speech> 
[31.425]
b ɔ b ɔ b ɔ ŋ ɑː n ɲ ɑ ŋ 
[32.965]
<no-speech> 
[35.555]
<no-speech> 
[36.045]
<no-speech> 
[37.715]
s ɑ j 
[38.485]
<no-speech> 
[41.545]
s uː b ɔ d ɑ j p ɑ j w ɑ 
[42.355]
<no-speech> 
[43.735]
b ɔ b ɔ b ɔ 
[44.685]
<no-speech> 
[45.825]
ʔ ɑ w t o j uː s ɑ j h ɤː j 
[47.375]
<no-speech> 
[48.455]
t o j uː s ɑ j h ɑ n 
[49.125]
<no-speech> 
[50.205]
t o j uː s ɑ j n iː 
[50.985]
<no-speech> 
[52.045]
<no-speech> 
[53.875]
<no-speech> 
[57.285]
<hes> ʔ ɑo kh ɯ w ɑː s ɯː th o l ɑ s ɑ p w ɑ 
[59.335]
<no-speech> 
[60.515]
l ɔː ŋ th o l ɑ s ɑ p m ɑ j w ɑ 
[61.565]
<no-speech> 
[62.775]
b ɔ b ɔ b ɔ 
[63.765]
<no-speech> 
[65.355]
l ɔː ŋ th o l ɑ s ɑ p m ɑ j w ɑ 
[66.955]
<no-speech> 
[68.315]
b ɔ b ɔ b ɔ 
[69.185]
<no-speech> 
[70.445]
t iə̯ ŋ m ɑ j t o k ɑo w ɑ 
[71.665]
<no-speech> 
[72.745]
w ɑ s iə̯ ŋ k ɑ ʔ c ɛː ŋ d iː d ɑ j n ɔ ʔ 
[74.505]
<no-speech> 
[76.545]
w ɑ 
[77.065]
<no-speech> 
[78.265]
c ɛː ŋ d iː b ɔ ʔ c ɛː ŋ d iː t uə̯ 
[79.585]
<no-speech> 
[81.085]
<no-speech> 
[81.785]
<no-speech> 
[84.645]

[85.125]
<no-speech> 
[86.905]
kh ɯː s iə̯ ŋ m ɯ k iː s iə̯ ŋ s uː n b ɤː s uː n w ɑ 
[89.075]
<no-speech> 
[90.565]
b ɤː s uː n w ɑ th o m ɑː h ɑ w ɑ ŋ k iː <no-speech> ʔ ɤː 
[93.175]
<no-speech> 
[96.265]
m ɛː n w ɑ 
[96.865]
<no-speech> 
[97.925]
w ɑ 
[100.315]
<no-speech> 
[101.385]
ʔ ɤː ʔ ɤː ʔ ɤː s o m ph ɔː b ɔ kh ɑo c ɑ j t o k uː w ɑː ŋ n ɔ ʔ <laugh> k uː kh ɯ t w ɑː m ɯ ŋ t ɔː ŋ th o m ɑː k uː w ɑː j uː 
[106.975]
<no-speech> 
[108.895]
ʔ ɤː 
[109.475]
<no-speech> 
[111.285]
ʔ ɤ ʔ ɤ ʔ ɤ 
[115.675]
<no-speech> 
[117.345]
m ɯ ʔ ɯː n t o m k ɑ j s uː k i n w ɑ 
[118.535]
<no-speech> 
[119.575]
ʔ ɤ 
[120.385]
<no-speech> 
[124.135]
m ɯː n ɑ n s ɑː w w ɔː n t o m k ɑ j s uː k i n w ɑ 
[125.915]
<no-speech> 
[127.215]
ʔ ɤ <no-speech> ʔ ɤː k ɑ j kh ɑo l ɑː j d eː n ɔ ʔ k ɑ j h ɑo d ɑ p <laugh> 
[132.465]
<no-speech> 
[133.545]
ʔ ɤː <no-speech> m ɑ n b ɔ s ɛː p n ɔ ʔ 
[141.055]
<no-speech> 
[142.075]
k i n n ɔ j l ɑ ʔ b ɔ s ɛː p n ɔ ʔ 
[143.215]
<no-speech> 
[146.275]

[146.735]
<no-speech> 
[147.855]
b ɔ d ɑ j p ɑ j l i n s ɑ j n ɑː h ɑo kh ɑː w iə̯ k h ɑ n t i ʔ 
[150.755]
<no-speech> 
[151.615]
kh ɑː w iə̯ k w ɤː j <int> 
[153.395]
<no-speech> 
[156.485]
ʔ ɤː l ɑ ʔ h ɑo p ɑ j h ɯə̯ n b ɑ k s ɑ k l ɤː j b ɑ k s ɑ k l ɤː j w ɑ n th iː p ɛː t h ɑ n n ɑ <no-speech> l ɑ ʔ h ɑo p ɑ j h ɯə̯ n w ɑ n s ɑ k l ɤː j 
[163.745]
<no-speech> 
[166.355]
<no-speech> 
[166.705]
<no-speech> 
[167.935]
b ɔ h ɑo p ɑ j h ɯə̯ n h ɯə̯ n s ɑ k k i n t o m p e t 
[170.685]
<no-speech> 
[171.775]
k i n l ɛː w k ɑ ʔ m ɑo l ɛː w k ɔː m ɑo b ɔ d ɑ j p ɑ j h ɑ ʔ iː t u j h ɑ n d eː 
[173.855]
<no-speech> 
[174.965]
<sta> t u j c o m j uː b ɔ ʔ 
[177.405]
<no-speech> 
[179.515]
<no-speech> 
[180.985]
<no-speech> 
[182.245]
<laugh> kh ɑ k b ɔ 
[185.435]
<no-speech> 
[188.015]
kh o n l ɑː j b ɔ m ɯː n ɑ n m ɯː n ɑ n w ɑ n k ɤː t t u j 
[190.265]
<no-speech> 
[191.965]
h ɑ 
[193.255]
<no-speech> 
[194.665]
ʔ ɤː 
[195.985]
<no-speech> 
[197.125]
w ɑ <no-speech> ʔ ɑo 
[201.305]
<no-speech> 
[203.025]
<no-speech> 
[203.395]
<no-speech> 
[204.365]
w ɑo p e n kh ɑː l ɑː ʔ oː k e ʔ w ɑ 
[205.775]
<no-speech> 
[207.755]
<no-speech> 
[208.185]
<no-speech> 
[209.325]
kh ɑo h ɑ j th i p w ɑ ʔ ɑo w ɑ n k ɤː t ɲ ɑ ŋ h ɑ j th i p s ɤː j n ɔ ʔ <laugh> th ɛː n th iː <foreign> h ɑ j kh ɑo h ɑ j th i p s ɑ m n ɔ ʔ 
[216.205]
<no-speech> 
[217.775]
w ɑ 
[219.065]
<no-speech> 
[221.775]
ʔ o kh ɑ n b ɔ m ɑo k ɔː p ɑ j l ɛ ʔ n ɔ ʔ 
[223.495]
<no-speech> 
[224.995]
<no-speech> 
[226.095]
<no-speech> 
[228.255]
h w ɑː j s uː l ɑ ʔ ph ɑ ph ɑ k uː k i n w ɤ j 
[230.515]
<no-speech> 
[231.905]
k uː w ɑ ph ɑ k uː k i n t o m k ɑ j k uː w ɑ k ɑ ʔ w ɑː t o m k ɑ j k uː k ɑ ʔ kh ɯ t j ɑː k l ɑ ʔ k uː k ɑ ʔ <laugh> ʔ ɤ 
[237.645]
<no-speech> 
[239.105]
<no-speech> 
[239.485]
<no-speech> 
[241.065]
w ɑ 
[242.115]
<no-speech> 
[243.255]
ʔ ɤ <int> ʔ ɑo j uː h ɑː n b ɔ m iː ŋ ɑː n w ɑ <int> 
[246.175]
<no-speech> 
[248.225]
<int> h ɑ 
[249.565]
<no-speech> 
[250.835]
kh i l ɑː j n ɔ ʔ 
[251.575]
<no-speech> 
[254.375]
w ɑ ʔ ɤ 
[256.505]
<no-speech> 
[260.445]
m ɑ n kh i l ɑː j n ɔ ʔ 
[261.325]
<no-speech> 
[264.035]
h w ɑː j n ɔ ʔ w ɑː ŋ l ɑ ʔ t e ʔ f u n k i n l ɑo j uː 
[266.375]
<no-speech> 
[269.265]
ʔ ɑ w 
[269.705]
<no-speech> 
[270.915]
<no-speech> 
[271.335]
<no-speech> 
[273.095]
ʔ ɤ ʔ ɤ ʔ ɤ 
[274.125]
<no-speech> 
[275.795]
ʔ ɤː ʔ ɤː 
[276.575]
<no-speech> 
[283.275]
ʔ ɤː s ɑo w ɑ n th i t m uː ph ɤ n kh ɑː b ɔ 
[285.395]
<no-speech> 
[287.015]
s ɑo th i t <hes> l ɑ ʔ s i ʔ l ɑ ʔ s i ʔ th o h ɑ d ɔː k <hes> 
[291.165]
<no-speech> 
[292.785]
d ɑ j b ɔ ʔ l ɛ ʔ th o l ɑ s ɑ p 
[293.695]
<no-speech> 
[297.315]
n oː n k ɛː w n oː n k ɛː w 
[298.365]
<no-speech> 
[299.335]
n oː n k ɛː w 
[300.105]
<no-speech> 
[301.255]
ʔ ɤ 
[301.785]
<no-speech> 
[304.025]
n oː n k ɛː w 
[305.315]
<no-speech> 
[307.285]
ʔ ɑ n s o m f ɔː ŋ h ɑ n m ɑ n m ɛː n ph oː n s o m b uː n <no-speech> ph oː n s o m b uː n <hes> 
[314.765]
<no-speech> 
[315.715]
ʔ ɤ b ɑː n ph oː n s o m b uː n <no-speech> ph oː n s o m b uː n th ɛː w th o ŋ p o ŋ kh ɑo ʔ ɤː n <no-speech> ʔ ɤ 
[320.115]
<no-speech> 
[321.045]
ʔ ɑ n n iː t o n oː n k ɛː w kh eː t k ɑo l iə̯ w <no-speech> w i t kh eː t ph u n d eː 
[324.755]
<no-speech> 
[325.565]
<no-speech> 
[325.945]
<no-speech> 
[328.145]
ph u n d ɑ j 
[328.685]
<no-speech> 
[331.065]
ɲ ɑ ŋ ɲ ɑ ŋ ʔ ɑ n b ɑː n n oː n k ɛː w k uː 
[333.795]
<no-speech> 
[334.985]
b ɑː n n oː n k ɛː w <no-speech> ʔ ɤː 
[337.105]
<no-speech> 
[339.285]
ʔ ɤː ʔ ɤː 
[340.055]
<no-speech> 
[342.505]
<no-speech> 
[342.885]
<no-speech> 
[345.185]
ph ɔː m ɯː s ɑo k ɑ ʔ ph ɔː k i n k ɑ f eː n ɑ m k ɑ n <no-speech> ph ɔː m ɯː s ɑo k ɑ ʔ ph ɔː k i n k ɑ f eː n ɑ m k ɑ n <hes> 
[350.295]
<no-speech> 
[357.045]
ʔ ɤː ʔ ɤː <no-speech> d ɑː w w iə̯ ŋ n ɔ ʔ <hes> 
[364.605]
<no-speech> 
[368.025]
k uː k ɑ ʔ l ɯː m th ɑː m m ɑ n w ɤ j 
[369.235]
<no-speech> 
[371.315]
ʔ ɤː ʔ ɤː 
[372.145]
<no-speech> 
[377.265]
j uː ʔ ɤː d iə̯ w n iː j uː 
[378.875]
<no-speech> 
[381.425]
d iə̯ w n iː k ɑ ʔ j uː p ɔː m f ɑ j d ɛː ŋ th o ŋ kh ɑ n kh ɑ m d iə̯ w n iː 
[383.295]
<no-speech> 
[385.695]
d iə̯ w n iː k ɑ ʔ j uː th o ŋ kh ɑ n kh ɑ m h ɑ n l ɛ ʔ 
[386.855]
<no-speech> 
[389.865]
ʔ ɤː 
[390.395]
<no-speech> 
[391.905]
j uː p ɔː m f ɑ j d ɛː ŋ th o ŋ kh ɑ n kh ɑ m h ɑ n n ɑː 
[393.255]
<no-speech> 
[394.435]
b ɔ j uː h ɑ n l ɑ ʔ <hes> k ɑ p p ɑ j kh ɯː n l ɛː w 
[397.515]
<no-speech> 
[398.335]
w ɑː ŋ h ɑ n ɲ ɑː j k ɑ p p ɑ j kh ɯː n <no-speech> ʔ ɤː 
[400.745]
<no-speech> 
[403.725]
ʔ ɤː 
[404.815]
<no-speech> 
[406.205]
ʔ ɤː 
[407.875]
<no-speech> 
[408.725]
ʔ ɤː 
[409.365]
<no-speech> 
[412.305]
<no-speech> 
[413.595]
<no-speech> 
[414.485]
ʔ ɤː 
[415.025]
<no-speech> 
[416.885]
<hes> c ɯː 
[418.605]
<no-speech> 
[419.525]
s ɑ m ɔː ŋ s ɯə̯ m p ɑː n n ɑ n 
[421.925]
<no-speech> 
[424.465]
s iə̯ n l ɑo kh ɑː w d ɑ j m ɔː n ɑ n 
[426.795]
<no-speech> 
[428.215]
s iə̯ n l ɑo kh ɑː w 
[429.065]
<no-speech> 
[430.675]
<hes> k i n l ɑo kh ɑː w k e ŋ <laugh> 
[432.585]
<no-speech> 
[433.575]
b iə̯ k ɑ ʔ k i n h ɑː k b ɔ kh ɑ k p ɑː n d ɑ j k i n d ɑ j j uː ʔ ɤː m ɑ n ʔ ɯː t th ɔː ŋ b ɔ m ɛː n d ɔː k b iə̯ n ɑ <hes> <laugh> ʔ ɑo b ɔ d ɑ j k i n n ɑ m kh ɑ n k ɛː w w ɑ 
[445.365]
b ɔ ʔ t o b ɔ d ɑ j k i n n ɑ m kh ɑ n k ɛː w w ɑ 
[448.325]
<no-speech> 
[450.665]
ʔ ɑo t o b ɔ d ɑ j t o b ɔ d ɑ j k i n w ɑ 
[452.855]
<no-speech> 
[454.805]
t o b ɔ d ɑ j p ɑ j h ɑ w ɑ s ɑ n 
[456.975]
<no-speech> 
[460.505]
ʔ ɑo b ɔ h uː b ɔ p ɑ j k i n w ɑ s ɑ n 
[461.805]
<no-speech> 
[463.445]
<no-speech> 
[463.905]
<no-speech> 
[465.815]
<no-speech> 
[466.605]
<no-speech> 
[467.495]
ʔ ɤː 
[468.755]
<no-speech> 
[471.985]
<no-speech> 
[472.825]
<no-speech> 
[476.575]
<no-speech> 
[477.535]
<no-speech> 
[478.665]
ʔ ɑo l o m th o l ɑ s ɑ p n iː kh ɑo <no-speech> b ɤː s uː n kh ɑo b ɔ d ɑ j s iə̯ ŋ ɤ n b ɔ ʔ n iː 
[481.535]
<no-speech> 
[483.525]
h ɑ <no-speech> b ɤː s uː n b ɔ d ɑ j th o b ɔ ʔ n iː 
[485.455]
<no-speech> 
[487.025]
b ɔ d ɑ j s iə̯ ŋ ɤ n w ɑ th o m ɑː n iː b ɤː s uː n n iː <no-speech> b ɔ d ɑ j s iə̯ ŋ ɤ n t iː b ɤː s uː n n iː 
[490.935]
<no-speech> 
[492.355]
b ɔ d ɑ j s iə̯ ŋ ɤ n b ɔ ʔ 
[493.235]
<no-speech> 
[494.405]
ʔ o kh ɑ n th o f iː w ɑ b ɤː s uː n n ɑ 
[496.165]
<no-speech> 
[498.185]
<hes> h w ɑː j s ɑ b ɑː j n ɔ ʔ 
[499.885]
<no-speech> 
[501.095]
s ɑ b ɑː j 
[501.805]
<no-speech> 
[507.845]
ʔ ɤː 
[508.365]
<no-speech> 
[510.155]
ʔ ɤː 
[510.665]
<no-speech> 
[516.935]
t iə̯ m t iə̯ m k ɤː t m ɛː n b ɔ <laugh> ʔ ɑo ʔ iː t u j b ɔ d ɑ j k i n n ɑ m w ɑ 
[521.075]
<no-speech> 
[523.055]
b ɔ ʔ ʔ iː t u j b ɔ d ɑ j k i n n ɑ m w ɑ 
[524.625]
<no-speech> 
[530.055]
<no-speech> 
[530.815]
<no-speech> 
[534.875]
m ɑ n kh ɑo k ɑ ʔ l ɑ j h w ɑː j s ɑ l iə̯ l ɑ j s ɑ l iə̯ m ɑ n h ɑ ŋ ɤ n ɲ ɑː k n ɑ n ɔ ʔ 
[537.815]
<no-speech> 
[538.775]
<laugh> kh ɑo b ɤ ŋ ŋ o p n ɔ ʔ 
[541.605]
<no-speech> 
[544.985]
<no-speech> 
[546.915]
<no-speech> 
[553.145]
ʔ ɑ w 
[553.665]
<no-speech> 
[554.655]

[555.055]
<no-speech> 
[556.225]
ʔ oː j m iː t ɛ s ɛː n k ɑo 
[557.615]
<no-speech> 
[559.035]
b ɔ ʔ <hes> kh ɯː s ɯː kh ɔː ŋ p ɔː m 
[561.925]
<no-speech> 
[566.345]
<no-speech> 
[567.805]
<no-speech> 
[569.975]
s iə̯ ŋ ɤ n ʔ iː k 
[570.695]
<no-speech> 
[572.095]
m ɯ ŋ h ɑ n n ɑ 
[572.765]
<no-speech> 
[573.785]
kh ɑ k b ɔ 
[574.695]
<no-speech> 
[575.675]
w ɑ p ɑː n th ɯː k l eː k n ɔ ʔ m ɯ ŋ n ɔ ʔ 
[577.465]
<no-speech> 
[578.715]
<no-speech> 
[579.105]
<no-speech> 
[583.615]
ʔ ɤː 
[584.175]
<no-speech> 
[585.445]
kh ɑo k ɑ ʔ b ɔ h uː m ɛː n b ɔ 
[586.455]
<no-speech> 
[589.075]
<no-speech> 
[589.575]
<no-speech> 
[590.975]
<no-speech> 
[591.475]
<no-speech> 
[595.595]
m ɑ n w ɑː j uː th ɛː w h ɑː n h ɑo ph u n n ɑː n ɔ ʔ 
[597.045]
<no-speech> 
[599.195]
<no-speech> 
[599.685]
<no-speech> 
[600.060]
