[0.000]
<no-speech> 
[0.335]
<no-speech> 
[5.115]
ʔ ɑ l oː s ɑ b ɑː j d iː 
[6.725]
<no-speech> 
[8.015]
ʔ ɑ l oː d ɑ j ɲ i n l ɛː w b ɔ b ɔ d ɑ j ɲ i n w ɑ 
[12.985]
<no-speech> 
[13.965]
s ɑ b ɑː j d iː p e n c ɑ ŋ d ɑ j kh ɑː j kh ɯə̯ ŋ d iː b ɔ <no-speech> 
[18.345]
<no-speech> 
[20.545]
w ɑ ʔ ɑ n n iː m ɛː n p e n s ɑ l i n k eː m d ɤ 
[24.545]
<no-speech> 
[26.615]
b ɔ b ɔ kh ɔː j d ɑ j ɲ i n b ɔ c ɑo s ɑ j ɲ i h ɔː ɲ ɑ ŋ th o l ɑ s ɑ p c ɑo h ɑ n n ɑ ʔ ɛː n c iː w ɑ ɲ i h ɔː ɲ ɑ ŋ th o l ɑ s ɑ p n ɑ kh ɯː b ɔ kh ɔː j d ɑ j ɲ i n d iː th ɛː p iə̯ n s ɑ j m ɑ j d ɤ 
[37.775]
ɲ i h ɔː ɲ ɑ ŋ l ɑ ʔ th o l ɑ s ɑ p h ɑ n n ɑ j ɑː k th ɑː m ɲ i h ɔː th o l ɑ s ɑ p n iː n ɑ <no-speech> 
[42.365]
<no-speech> 
[43.635]
b ɔ d ɑ j ɲ i n w ɑ <sta> 
[45.805]
<no-speech> 
[49.345]
ʔ ɤ <hes> ɲ ɑ p c iː n k ɑ j k ɑ j d ɛ c ɑ k n ɔː j n ɛː n ɔ ʔ <sta> 
[53.635]
<no-speech> 
[54.625]
ʔ ɑː <hes> th o l ɑ s ɑ p ɲ i h ɔː ɲ ɑ ŋ n ɑ kh ɯ w ɑː s ɑ j b ɔ d iː s i ʔ p iə̯ n n uə̯ j m ɑ j h ɑ j n iː n ɑː <sta> 
[63.935]
<no-speech> 
[64.855]
ʔ ɛː w c iː w ɑ m ɛː n ɲ ɑ ŋ k ɔ th o l ɑ s ɑ p c ɑo h ɑ n n ɑ ʔ ɛː w c iː w ɑ l ɯː <foreign> ʔ ɤ <hes> ʔ iː th iː ʔ ɛː w <hes> ʔ i ɲ ɑ ŋ k ɔ ʔ w ɑo b ɔ p e n <foreign> w ɑ 
[76.395]
<no-speech> 
[77.885]
s ɑ n d ɑ j ɲ i n b ɔ ʔ 
[79.095]
<no-speech> 
[80.215]
<no-speech> 
[81.495]
<no-speech> 
[82.715]
ʔ ɤ ʔ ɤ ʔ ɤ ʔ ɑo kh ɑː kh ɑː j kh ɯə̯ ŋ d iː d iː d ɤ l i n k eː m n ɑ m ph ɤ n k ɔː n ph ɤ n w ɑː h ɑ j l ɔː ŋ l i n b ɤ ŋ <no-speech> ʔ ɤ w ɑo d ɑ j ɲ i n b ɔ ʔ 
[94.075]
p e n ɲ ɑ ŋ kh ɯ w ɑː b ɔ kh ɔː j d ɑ j ɲ i n th o l ɑ s ɑ p c ɑo h ɑ n w ɑ <no-speech> 
[98.055]
<no-speech> 
[99.575]
ʔ ɤ b ɔ j ɑː k d ɑ j ɲ i n c ɑo p ɤː t ph e ŋ m ɛː n b ɔ 
[102.175]
<no-speech> 
[103.625]
<no-speech> 
[104.455]
<no-speech> 
[105.315]
d ɑ j ɲ i n b ɔ ʔ ʔ ɑ l oː d ɑ j ɲ i n j uː b ɔ ʔ 
[107.445]
<no-speech> 
[108.255]
ʔ ɤ 
[109.465]
<no-speech> 
[110.525]
ʔ ɤ ph ɔ w ɑː kh ɑo c ɑo k ɑ m l ɑ ŋ h e t s e n th ɑː ŋ m ɑ j k ɑ m l ɑ ŋ ph ɑ t th ɑ n ɑː b ɑː n h ɑo d iə̯ w n iː n ɑ l ɤː j w ɑː l ɔː ŋ th o b ɤ ŋ d ɑ j ɲ i n d ɤ b ɔ s ɑ n d ɔː k 
[119.365]
<no-speech> 
[123.595]
ʔ ɤ b ɑː n kh ɔ ɲ d iə̯ w n iː k ɑ m l ɑ ŋ h e t th ɑː ŋ m ɑ j m iː s ɛː ŋ s ɑ w ɑː ŋ d ɑ j h o n th ɑː ŋ n iː d iː j uː d iə̯ w n iː k ɑ m l ɑ ŋ ph ɑ t th ɑ n ɑː m ɑː b ɔ m ɑː l i n t ɑ l ɑː t n ɑ m b ɔ ʔ 
[131.365]
<no-speech> 
[134.915]
m ɯː d ɑ j m ɯː d ɑ j ph ɑ k m ɯː d ɑ j ph ɑ k 
[139.085]
<no-speech> 
[140.325]
<sta> w ɑ w ɑ n w ɑ n s ɑo w ɑ n th i t p ɑ j l i n b ɔ p ɑ j th iə̯ w h ɑː t t ɑː n p iə̯ w b ɔ w ɑ n s ɑo w ɑ n th i t p ɑ j l i n h ɑː t t ɑː n p iə̯ w b ɔ ʔ ɑ k ɑː t m ɑ n h ɔː n n iː 
[151.775]
<no-speech> 
[153.515]
<no-speech> 
[154.415]
ʔ ɑ w h ɑː t t ɑː n p iə̯ w t uə̯ ʔ b ɔ p ɑ j w ɑ ʔ ɤ k ɑ ʔ h ɑː t t ɑː n p iə̯ w b ɔ p ɑ j b ɔ w ɑ n th i t s i m ɑː n iː p ɑ j l i n n ɑ m 
[165.415]
ʔ ɤ <sta> ʔ ɑ w w ɑ n th i t l u k k ɑ ʔ ph ɑ k s ɑ n t uə̯ l u k ph ɑ k t uə̯ ʔ w ɑ n s ɑo w ɑ n th i t 
[173.005]
<no-speech> 
[173.825]
ph ɑ l u k p ɑ j l i n p iː m ɑ j w ɑ 
[175.185]
<no-speech> 
[176.105]
m iː t ɛ kh ɑː j kh ɯə̯ ŋ n ɔ ʔ w ɑ n s ɑo w ɑ n th i t k ɑ ʔ l ɤː j b ɔ ph ɑ k n ɔ ʔ <no-speech> 
[182.175]
<no-speech> 
[183.715]
ʔ ɤ ʔ ɑo ph ɑ k t uə̯ ʔ b ɔ d ɑ j kh ɑː j k ɑ ʔ ph ɑ k t uə̯ ʔ b ɔ d ɑ j kh ɑː j d iː p ɑː n d ɑ j <no-speech> 
[189.495]
<no-speech> 
[190.975]
ʔ ɤ ph ɑ k p iː m ɑ j t uə̯ ʔ <sta> p iː m ɑ j kh ɑː j ɲ ɑ ŋ d iː s ɑ ŋ l uː k s iː n ph ɯə̯ d ɤ s ɑ n kh ɑ n b ɔ ph ɑ k n ɑ ŋ i n b ɔ ʔ 
[198.005]
<no-speech> 
[199.835]
d iə̯ w n iː kh o n l ɑː j b ɔ ʔ d iə̯ w n iː <no-speech> ʔ o s ɤː m h ɑː n m ɑ j kh ɯː b ɔ b ɔː k m ɑ n d ɛ s ɑ n n ɑ c ɔː ŋ ph ɯə̯ d ɛ d ɤ 
[211.305]
<int> c ɔː ŋ ph ɯə̯ d ɛ h ɑ p e n ɲ ɑ ŋ k ɔ ʔ o s iə̯ ŋ kh ɑo c ɑo k eː t th ɑː ŋ s ɑ n t uə̯ n ɑ 
[220.515]
<no-speech> 
[221.815]
kh ɑo c ɑo k eː t th ɑː ŋ m ɑ j j uː n ɑː t ɑ l ɑː t l ɤː j n ɑ 
[223.945]
<no-speech> 
[224.775]
d ɑ j ɲ i n b ɔ ʔ t ɑ t l ɛː w k ɑː j s i p n ɑ th iː l ɛː w <int> 
[236.735]
<int> d ɑ j ɲ i n j uː w ɑ d ɑ j ɲ i n j uː w ɑ ʔ ɤ 
[246.505]
<no-speech> 
[247.695]
b ɔ s i p n ɑ th iː ph u n n ɑː l o m j uː n iː n ɑ ʔ ɤ h ɑː m w ɑː ŋ d ɤ l o m k ɑ n k ɔː n l i n k eː m j uː d ɑ j n iː n ɑ l ɔː ŋ b ɤ ŋ l ɔː ŋ l i n b ɤ ŋ l eː k c iː n d ɤ 
[259.635]
d ɑ j ɲ i n d ɑ j ɲ i n d iː j uː t uə̯ ʔ b ɑː t n iː kh ɑo ɲ ɑː j b ɔ n w ɑo 
[263.595]
<no-speech> 
[264.705]
p e n ɲ ɑ ŋ c ɯ ŋ 
[265.395]
<no-speech> 
[267.065]
b ɔ n ɑː w ɑo ph u d iə̯ w kh ɔ ɲ n iː n ɑ t ɛː w ɑː s iə̯ ʔ ɑ n n iː kh ɑo c ɑo t ɔː ʔ ɑ n n ɑ n d ɑ j kh ɑo c ɑo l ɔː ŋ s ɑ j l ɔː ŋ b ɤ ŋ ʔ ɤː kh ɑo c ɑo l ɔː ŋ kh ɑo c ɑo t ɔː h ɑ j s iː n ɑː b ɔ m ɛː n b ɤː kh ɔː ŋ h ɑo d ɑ j b ɤː kh ɔː ŋ s uː n ph ɤ n t ɔː ʔ ɤ 
[278.845]
<hes> l ɔː ŋ l ɔː ŋ <hes> h ɑ j kh ɑo c ɑo s iə̯ p kh ɔ m uː n m ɑ j h ɑ n n ɑː b ɛː p w ɑː h ɑo l o m k ɑ n b ɤ ŋ ʔ i ɲ ɑ ŋ h ɑ n n ɑː j ɑː k h u w ɑː m ɑ n p e n n ɛː w d ɑ j s ɑ t c eː n b ɔ th o l ɑ s ɑ p ph ɤ n b ɔ d iː kh ɑo s i ʔ s ɯː h ɑ j ph ɤ n m ɑ j m ɛː n ɲ ɑ ŋ p ɑ m ɑː n n iː n ɑ 
[290.635]
kh ɑo c ɑo w ɑː c ɑ ŋ d ɑ j s iː d eː l i n k eː m d eː <no-speech> b ɔ kh ɔː j d ɑ j ɲ i n n ɔ ʔ c ɑ ʔ 
[298.065]
<no-speech> 
[300.735]
w ɑ <no-speech> d ɑ j ɲ i n j uː c ɑo h ɑ n b ɔ d ɑ j ɲ i n m ɛː n b ɔ ʔ ɤː p iə̯ n p iə̯ n th o l ɑ s ɑ p m ɑ j c ɑ ŋ d ɑ j ɲ i n n ɑ kh ɑo c ɑo h e t th ɑː ŋ n ɛː j uː n iː n ɑ l ɤː j b ɔ d ɑ j ɲ i n s iə̯ ŋ d iː p ɑː n d ɑ j 
[312.615]
<prompt> l ɛː w p iː m ɑ j c ɑ ŋ p ɑ j l i n n ɔ ʔ n ɔ ʔ s ɑ n n ɔ ʔ 
[315.865]
<no-speech> 
[316.865]
l ɛː w l ɛː w p iː m ɑ j h ɑo c ɑ ŋ p ɑ j th iə̯ w d iə̯ w n iː ɲ ɑ ŋ b ɔ f ɑː w p ɑ j kh ɑː j kh ɯə̯ ŋ k ɔː n s i p s i s i p h ɑː s i ʔ m ɑː n iː k ɑ ʔ m ɛː n s o ŋ k ɑː n t i ʔ n ɔ ʔ 
[322.255]
<no-speech> 
[323.345]
m ɛː n b ɔ th i t n iː w ɑ ʔ ɑ th i t n iː w ɑ 
[325.705]
<no-speech> 
[332.305]
ʔ ɤ ʔ ʔ ɤː kh ɑ n s i ʔ p ɑ j l i n k ɔː p ɑ j t uə̯ 
[336.105]
<no-speech> 
[337.195]
j ɑː k p ɑ j w ɑ <hes> j ɑː k p ɑ j k ɔː p ɑ j l ɑ ʔ w ɤː j h ɑ ʔ ɤː ʔ ɑː w t u j ʔ ɑː w t u j s i ʔ p ɑ j kh ɑː j kh ɯə̯ ŋ w ɑ 
[346.885]
<no-speech> 
[348.315]

[348.865]
<no-speech> 
[351.515]
<hes> m ɑː h ɑ n ɑ h ɑo s i ʔ p ɑ j n ɑ <no-speech> m ɑː h ɑ l ɛː w k ɔː p ɑ j l i n kh ɑ n l u k kh ɑː j l ɑ ʔ h ɑo k ɔː p ɑ j l i n n ɔ ʔ 
[359.355]
<no-speech> 
[360.155]
<no-speech> 
[360.595]
<no-speech> 
[361.825]
<sta> m ɛː n ɲ ɑ ŋ k ɔ 
[365.645]
<no-speech> 
[366.685]
<no-speech> 
[368.075]
<no-speech> 
[369.075]
<int> ʔ ɑ w b ɔ m ɛː n b ɤː n iː d ɑ j k ɑ ʔ th o b ɤː kh ɔ ɲ kh ɯː k ɑo h ɑ n l ɛ ʔ ʔ ɑ n n iː b ɤː b ɤː kh ɑo c ɑo m ɑː h ɑ j th o f iː n ɑː m ɑː h ɑ j l o m f iː n ɑː ʔ ɤː 
[377.605]
<no-speech> 
[378.415]
s uə̯ ŋ n iː kh ɑo c ɑo m iː p oː n m oː s ɑ n kh ɑo c ɑo j ɑː k h u w ɑː <click> l ɑː w h ɑo s ɑ j d iː j ɑː k th o k ɑ j k ɑ j c ɑ ŋ s iː n ɑː ʔ ɑ n n iː k ɑ ʔ b ɔ k ɑ j p ɑː n d ɑ j t ɑ l ɑː t s ɑ ph ɑː n th ɔː ŋ h ɑo n iː kh ɯ w ɑː s iə̯ ŋ b ɔ kh ɔː j d iː n ɔ ʔ t ɛː w ɑː ɲ i h ɔː th o l ɑ s ɑ p ph ɤ n <hes> 
[390.145]

[391.365]
<no-speech> 
[392.435]
w ɑ <breath> d ɑ j ɲ i n j uː b ɔ s ɑ n n ɑ <no-speech> m ɑ n p e n kh ɑː t kh ɑː t c ɑ ŋ d ɑ j b u ʔ s iə̯ ŋ ph ɤ n n ɑ 
[398.155]
<no-speech> 
[400.335]
ŋ i n b ɔ 
[400.995]
<no-speech> 
[403.295]
ʔ ɤ ʔ ɤ ʔ ɤ w ɑo k ɑ n j uː n iː l ɛ ʔ 
[406.335]
<no-speech> 
[407.345]
d ɑ j ɲ i n kh ɔ ɲ d ɑ j ɲ i n c ɑo 
[409.605]
<no-speech> 
[412.995]
<sta> <laugh> c ɑ k l ɛ ʔ c ɑ k l ɛ ʔ c ɯː d ɑ j t ɛ b ɤː n iː b ɔ c ɯː b ɤː ʔ iː th iː ʔ ɛː w ph ɤ n n ɔ ʔ c ɯː d ɑ j t ɛ b ɤː n iː ph uə̯ k c ɑo l ɑː j b ɤː n ɔ ʔ b ɔ h uː n uə̯ j d ɑ j d iː n uə̯ j d ɑ j b ɔ d iː n ɔ ʔ th ɑː m iː c ɑo m iː n uə̯ j d iː d iː k ɑ ʔ 
[424.705]
s i ʔ <hes> s i ʔ th o h ɑ n uə̯ j d iː l ɑ ʔ n ɔ ʔ <sta> ʔ ɑo w ɑ h ɑ 
[431.045]
<no-speech> 
[432.305]
<no-speech> 
[434.215]
<no-speech> 
[435.135]
b ɔ kh ɑo c ɑ j s ɑ b ɔ ʔ <sta> m ɑ n p e n n ɑ m th o l ɑ s ɑ p ph ɤ n t i ʔ s ɑ n n ɑ <no-speech> j ɑː n p e n n ɑ m th o l ɑ s ɑ p c ɑo c ɑ ŋ w ɑː b ɔ kh ɑo c ɑ j n ɑ 
[441.445]
<no-speech> 
[444.815]
<hes> j ɑː n p e n n ɑ m th o l ɑ s ɑ p c ɑo h ɑ n l ɛ ʔ kh ɑo c ɑo h ɑ j th o s i p n ɑ th iː n ɯ ŋ n ɑ m iː ɲ ɑ ŋ k ɔ w ɑo l oː t l o m l oː t 
[450.085]
<no-speech> 
[451.865]
ʔ ɤː ph ɤ n kh i t w ɑː m ɛː n m ɑ n m ɑ n h ɑː k t ɑ t ʔ eː ŋ d ɔː k n ɑ n k ɑ d ɑː j k ɑ ʔ t ɑ t ʔ eː ŋ 
[456.875]
<no-speech> 
[457.855]
l o m l o m c o n t ɑ t w ɑː s ɑ n d eː s i p n ɑ th iː t ɑ ŋ w ɑ j n ɑ 
[461.025]
<no-speech> 
[461.915]
h ɑ 
[464.655]
<no-speech> 
[466.625]
<int> <hes> <no-speech> b ɑ k t u j b ɔ d ɑ j n ɑ ŋ kh ɑː j kh ɯə̯ ŋ s ɑ b ɔ ʔ d iə̯ w n iː l ɯː kh ɑː j j uː kh ɑː j j uː w ɑ ʔ ɑ l oː 
[478.515]
<no-speech> 
[479.325]
ʔ oː j k uː s i ʔ ʔ ɑ n n ɑ n d ɑ j n ɔ ʔ <no-speech> ʔ ɑ l oː 
[481.675]
<no-speech> 
[482.505]
kh ɑː j kh ɯə̯ ŋ d iː b ɔ ʔ d ɑ j d e k n ɔː j th ɑː ŋ d ɑ j kh ɯ w ɑː l o m c ɑ ŋ d ɑ j n iː n ɑ 
[487.345]
<no-speech> 
[488.585]
ʔ ɤː kh ɔ ɲ n iː n ɑ b ɔː k n ɑ <no-speech> ʔ ɤː kh ɔ ɲ kh ɔ ɲ n ɑ b ɔː k <sta> b ɔ t ɔː ŋ l oː b ɔ t ɔː ŋ l o m l ɑː j kh o n l o m s ɔː ŋ kh o n h ɑo l ɛː w ph ɤ n s i ʔ d ɑ j ɲ i n n ɑ m 
[499.465]
<no-speech> 
[501.625]
<hes> kh ɑ n h u w ɑː s i ʔ p iə̯ n <hes> th o l ɑ s ɑ p k ɑ ʔ s i ʔ ʔ ɑ n n ɑ n d ɔː k t ɛː w ɑː h uː t ɛ b ɤː n iː d eː ph ɤ n n ɑ s ɑ j l ɑː j b ɤː n ɔ ʔ <no-speech> l ɑ ʔ m ɑ n b ɔ kh ɔː j d ɑ j ɲ i n p ɑː n d ɑ j p iə̯ n m ɑ j d ɤ th ɯə̯ n ɑː d ɤ 
[512.925]
ph ɤ n s ɯː l eː k j uː w ɑ m ɯː n iː n ɑ <sta> <no-speech> k ɑ ʔ l ɔː ŋ l ɔː ŋ s ɯː t uə̯ ʔ <no-speech> h ɑ 
[520.785]
<no-speech> 
[522.415]
ʔ ɤ d ɑ j ɲ i n j uː <no-speech> <sta> 
[528.535]
<no-speech> 
[529.335]
<sta> <hes> t ɛ w ɑː l ɛ ʔ l ɛː w t ɛː w ɑː h ɑ n n ɑ <no-speech> ph ɔ w ɑː m ɯ ph ɑ k d eː <no-speech> s i ʔ p ɑ j k i n b iə̯ w ɑ 
[539.085]
<no-speech> 
[540.635]
<hes> s ɑ n k ɑ ʔ d ɑ j <no-speech> ʔ ɑː w h ɑo p ɑ j b ɔ d ɑ j l i n n ɑ m d eː ph ɑ l u k p ɑ j l i n n ɑ m d eː 
[551.155]
<no-speech> 
[552.635]
<no-speech> p iː m ɑ j kh ɑo h ɑ j ʔ ɑo d o n t iː l o ŋ h ɑː t t uə̯ ʔ ʔ ɑː j t iə̯ <sta> p iː m ɑ j kh ɑo c ɑo ʔ ɑo d o n t iː l o ŋ h ɑː t ph ɑ kh ɔ ɲ p ɑ j l i n j uː s ɑ b ɔ ʔ 
[563.325]
<no-speech> 
[564.605]
m ɑ n h ɔː n s ɑ b ɔ 
[566.105]
<no-speech> 
[570.075]
p ɑ j l i n j uː th ɑː t l uə̯ ŋ m ɑ n c ɑ ŋ k uə̯ ŋ n ɔ ʔ <sta> m ɑ n m ɑ n p ɑ j l i n p ɑ j l i n h o t n ɑ m d ɤː n th ɑː t l uə̯ ŋ ʔ ɑo m ɑ n c ɑ ŋ k uə̯ ŋ 
[576.315]
<no-speech> 
[578.835]
<no-speech> 
[579.205]
<no-speech> 
[580.705]
<sta> m ɑ n ph ɑ t b u n p iː m ɑ j d eː n ɔ ʔ h ɔː n h ɑ j m ɑ n h ɔː n l ɑː j p ɑ j s ɛː n ɑ m l i n c ɑ k b ɑː t kh ɯː p iː n ɑ n n ɑː s ɑ n d ɔː k m ɑ n th ɯː k s o ŋ k ɑː n kh ɑ n ph ɑ k ɑ n p iə̯ k k ɑ ʔ b ɔ w ɑː l ɛː 
[591.405]
<no-speech> 
[592.975]
ʔ ɑː w t ɑː n p iə̯ w b ɔ m iː n ɑ m s ɑ n b ɔ ʔ 
[597.645]
<no-speech> 
[598.480]
