[0.000]
<sta> h ɑ l oː d ɑ j ɲ i n l ɛː w w ɑ <breath> 
[7.825]
<no-speech> 
[8.635]
b ɔ th ɑ n d ɑ j p ɑ j b ɔ th ɑ n d ɑ j p ɑ j ʔ ɑ n h ɛː t o n th ɯə̯ w ɑ 
[12.595]
<no-speech> 
[16.625]
p e n ɲ ɑ ŋ 
[17.175]
<no-speech> 
[18.905]
kh ɑo c ɑo h ɛː c ɑ k m oː ŋ 
[20.525]
<no-speech> 
[21.465]
kh ɑo c ɑo h ɛː c ɑ k m oː ŋ 
[22.485]
<no-speech> 
[24.855]
<sta> ʔ ɤ ʔ ɑo ph uə̯ k kh ɑo k ɑ ʔ th ɑː kh ɑo c ɑo l o m l ɛː w l ɛ ʔ n ɔ ʔ 
[29.015]
<no-speech> 
[30.025]
kh ɑo k ɑ ʔ b ɔ h uː 
[31.095]
<no-speech> 
[32.685]
ʔ ɑ n kh ɑo th ɑː kh ɑo c ɑo kh ɑo ʔ ɑ n ph ɤ n ph ɤ n ʔ ɑo b ɤː ph ɑ j th o m ɑː 
[36.045]
<no-speech> 
[37.185]
kh ɑo w ɑː s i ʔ m ɑː c ɑ k n ɔː j kh ɑo s i ʔ k ɑ p l ɛː w 
[39.655]
<no-speech> 
[41.425]
w ɑ 
[41.955]
<no-speech> 
[43.035]
w ɑ j kh ɑo ʔ ɑ n n ɑ n l ɛː w c ɑ k n ɔː j kh ɑo k ɑ ʔ k ɑ p l ɛː w ʔ iː k s i p n ɑ th iː n iː l ɛː w k ɑ ʔ ʔ ɑ n n ɑ n l ɑ ʔ 
[47.955]
<no-speech> 
[50.165]

[50.985]
<no-speech> 
[53.575]
<sta> k ɑ ʔ t ɛː n w ɑ 
[54.815]
<no-speech> 
[57.005]
ʔ oː j m ɯ l ɛː ŋ m ɯ l ɛː ŋ kh ɔː j p ɑ j m ɑ j k ɑ ʔ d ɑ j t uə̯ 
[60.655]
<no-speech> 
[61.655]
ʔ ɯː m <no-speech> b ɔ th ɑ n h ɑ j f ɑː w w ɑː ŋ d ɑ j 
[64.455]
<no-speech> 
[66.985]
h uə̯ j h ɑ k ɑ ʔ m ɑː ʔ i ɲ ɑ ŋ 
[68.365]
<no-speech> 
[70.315]
ʔ ɤ h ɑ n l ɛ ʔ 
[71.255]
<no-speech> 
[76.525]
ʔ ɑo k ɑ ʔ w ɑː s i ʔ h ɑ p t ɛ m ɑ n ʔ ɑ n s ɛː w b ɔ d ɑ j d eː b ɔ h ɑ j h ɑ p 
[80.175]
<no-speech> 
[81.345]
<no-speech> 
[82.055]
<no-speech> 
[82.855]
s uə̯ ɲ ɑ ŋ <laugh> 
[83.885]
<no-speech> 
[89.335]
ʔ ɯː m k ɑ m l ɑ ŋ s ɑ p d eː 
[91.405]
<no-speech> 
[93.045]
c ɑ k s i ʔ w ɑo ɲ ɑ ŋ n ɔ ʔ <laugh> b ɔ b ɔ h ɑ j p iə̯ n kh o n l o m d ɤ l o m t ɛ ph ɤ n kh o n d iə̯ w 
[99.075]
<no-speech> 
[101.585]
k o p j uː ʔ ɑ n n ɑ n ph u n l ɛ ʔ <no-speech> h ɑ 
[104.075]
<no-speech> 
[105.795]
ʔ ɑ n d ɑ j <no-speech> k o p l ɛː w l ɛː w ɲ ɑ ŋ t ɛ kh ɑo <no-speech> l ɛː w l ɛː w 
[110.185]
<no-speech> 
[111.055]
<no-speech> 
[111.455]
<no-speech> 
[112.825]
h ɑ <no-speech> ʔ ɑ n d ɑ j k ɔ 
[115.565]
<no-speech> 
[116.925]
b ɔ <no-speech> ɲ ɑ ŋ ʔ iː k j uː t ɛː w ɑː kh ɑo ʔ ɑ n n ɑ n 
[122.615]
<no-speech> 
[123.615]
m ɑː s ɑː m kh o n 
[126.135]
<no-speech> 
[130.155]
<no-speech> 
[130.865]
<no-speech> 
[132.405]
c ɑ k m oː ŋ <laugh> s i p s ɔː ŋ m oː ŋ 
[134.475]
<no-speech> 
[137.985]
s ɑː m m oː ŋ s ɑ n b ɔ ʔ ʔ o kh ɑo k ɑ ʔ 
[141.295]
<no-speech> 
[144.875]
m ɛː n w ɑ 
[145.565]
<no-speech> 
[146.565]
<no-speech> 
[147.055]
<no-speech> 
[149.105]
ʔ o t ʔ ɑo ʔ o t ʔ ɑo c ɑ k n ɔː j k ɑ ʔ 
[150.495]
<no-speech> 
[154.605]
l ɑ ʔ s i ʔ p ɑ j d ɔː k 
[155.555]
<no-speech> 
[156.965]
ɲ i n 
[157.945]
<no-speech> 
[159.645]
b ɔ l ɯː m d ɔː k l ɑː w l ɑː w kh ɯ s i ʔ th ɑː j uː t i ʔ b ɔ ʔ th ɑː j uː <hes> h ɯə̯ n kh ɑo c ɑo h ɑ n n ɑ 
[165.905]
<no-speech> 
[168.175]
s ɑ n b ɔ ʔ 
[168.745]
<no-speech> 
[170.895]
ʔ ɑo l ɛ ʔ l ɛ ʔ t ɑː d eː s ɑ n 
[172.565]
<no-speech> 
[175.535]
t ɑː d eː s ɑ n 
[176.335]
<no-speech> 
[177.955]
ʔ ɯː m <no-speech> j uː h ɑː n <laugh> 
[180.395]
<no-speech> 
[183.365]
ʔ u j m iː ɲ ɑ ŋ b ɔ s ɑ m kh ɑ n ʔ i ɲ ɑ ŋ <no-speech> k ɑ ʔ s ɑ m kh ɑ n p ɑː n n ɑ n l ɑ ʔ d eː <no-speech> m uː kh ɑː w iə̯ k k ɑ ʔ ʔ ɑ n n ɑ n d ɛ d uː s ɑ n n ɑ 
[190.205]
<no-speech> 
[194.025]
ʔ ɑ n d ɑ j 
[194.535]
<no-speech> 
[198.195]
ʔ oː j m ɯ l ɛː ŋ d eː s ɑ n n ɑ 
[201.295]
<no-speech> 
[203.125]
ʔ ɯː m 
[203.845]
<no-speech> 
[207.465]
ph u n n ɑː k i n h ɔː t m ɯ ʔ ɯː n ph u n n ɑː ŋ ɤ n l ɑː j d eː n ɔ ʔ 
[212.085]
<no-speech> 
[214.615]
ʔ ɤ c ɑ k n ɔː j p ɑ j 
[216.825]
<no-speech> 
[222.155]
<no-speech> 
[222.505]
<no-speech> 
[223.355]
<laugh> m ɛː n s ɑ n b ɔ ʔ 
[225.255]
<no-speech> 
[228.845]
ʔ ɯː m ph ɤ n m uə̯ n n ɔ ʔ 
[230.195]
<no-speech> 
[235.485]
ʔ ɤ 
[236.395]
<no-speech> 
[239.585]
<no-speech> 
[240.135]
<no-speech> 
[242.765]
kh o n l ɑ ʔ th ɯə̯ <no-speech> m e ʔ k ɑ p l ɑ ʔ c ɑ n m ɑː s iː w ɑ 
[245.695]
<no-speech> 
[246.495]
m e ʔ k ɑ p l ɑ ʔ c ɑ n kh ɔː j m ɑː <no-speech> m e ʔ k ɑ p l ɑ ʔ c ɑ n kh ɔː j m ɑː w ɑ 
[250.015]
<no-speech> 
[250.955]
ʔ ɯ h ɯ ʔ 
[251.705]
<no-speech> 
[252.935]

[253.935]
<no-speech> 
[256.995]
ʔ ɯː m 
[257.705]
<no-speech> 
[258.695]
<no-speech> 
[259.295]
<no-speech> 
[261.875]
s i ʔ w ɑo ɲ ɑ ŋ l ɑ ʔ w ɑo d ɤ <laugh> b ɔ m iː n ɛː w c ɑ ʔ l o m <no-speech> s ɑ b ɔ ʔ 
[265.655]
<no-speech> 
[267.155]

[268.385]
<no-speech> 
[270.085]
ʔ ɤː j <no-speech> c ɑ k n ɔː j c ɑ k n ɔː j <no-speech> d ɑ j ɲ i n 
[274.285]
<no-speech> 
[275.255]
k ɑ ʔ kh i t h ɔː t l ɛ ʔ n ɔ ʔ 
[276.475]
<no-speech> 
[278.075]
kh i t h ɔː t 
[279.245]
<no-speech> 
[280.965]
<laugh> ʔ ɑo kh ɑː w iə̯ k kh ɑː ŋ ɑː n n ɔ ʔ <laugh> 
[284.945]
<no-speech> 
[287.655]
ʔ ɯː m 
[288.455]
<no-speech> 
[289.315]
ʔ oː j ɲ ɑ ŋ ʔ iː k l ɑː j m ɯː j uː n ɑː 
[291.155]
<no-speech> 
[292.595]

[293.405]
<no-speech> 
[296.545]
ʔ ɑ n d ɑ j p ɑ j t ɑ k b ɑː t j uː w ɑ 
[297.975]
<no-speech> 
[299.865]
m ɯː s ɑo n iː m ɯː s ɑo n iː d ɑ j p ɑ j t ɑ k b ɑː t j uː w ɑ 
[302.035]
<no-speech> 
[303.575]
m ɯː s ɑo n iː d ɑ j p ɑ j t ɑ k b ɑː t <no-speech> w ɑ t d ɑ j 
[305.865]
<no-speech> 
[309.625]
c ɑ k m oː ŋ <laugh> 
[311.725]
<no-speech> 
[314.355]
b ɔ b ɔ d ɑ j n ɯ ŋ kh ɑo s iː w ɑ 
[315.875]
<no-speech> 
[319.845]
ʔ ɯː m <no-speech> ph ɤ n p ɑ j t ɑ k b ɑː t 
[321.775]
<no-speech> 
[324.455]
<int> p ɑ j w ɑ t d ɑ j 
[325.695]
<no-speech> 
[327.185]
ph ɤ n p ɑ j t ɑ k b ɑː t j uː 
[328.285]
<no-speech> 
[329.395]
m ɛː n s ɑ n b ɔ ʔ <no-speech> kh o n l ɑː j b ɔ kh o n l ɑː j b ɔ 
[332.485]
<no-speech> 
[333.765]

[334.385]
<no-speech> 
[336.895]
ʔ ɤ ʔ ɤ 
[338.155]
<no-speech> 
[343.635]
ɲ ɑ ŋ w ɑː <laugh> s ɑ b ɔ ʔ 
[346.445]
<no-speech> 
[347.375]
kh ɑo k ɑ ʔ j ɑː k p ɑ j j uː t ɛ m ɑ n kh ɑː n ɔ ʔ 
[349.425]
<no-speech> 
[353.355]
ʔ ɯː m 
[354.035]
<no-speech> 
[357.195]
ʔ ɯ b u n b u n m o t l ɑ ʔ w ɑ 
[359.175]
<no-speech> 
[361.335]
k ɑ j l ɑ ʔ d eː k ɑ j s i ʔ k ɑ p l ɛː w 
[363.995]
<no-speech> 
[364.885]
k ɑ j s i ʔ h ɔː t l ɛː w 
[366.155]
<no-speech> 
[369.805]
<no-speech> 
[370.165]
<no-speech> 
[370.995]
m ɑ n s ɛː w <no-speech> b ɔ d ɑ j 
[376.345]
<no-speech> 
[380.095]
b ɔ b ɔ s ɛː w l ɛː w <no-speech> m iː kh ɑo w ɑo kh o n d iə̯ w k ɑ p ph ɤ n s ɔː ŋ kh o n h ɑ n l ɛ ʔ 
[383.775]
<no-speech> 
[389.225]
h ɑ 
[389.785]
<no-speech> 
[391.675]
m iː ph ɑ j d ɛ 
[392.515]
<no-speech> 
[393.745]
<no-speech> 
[394.575]
<no-speech> 
[396.175]
s i ʔ m iː ɲ ɑ ŋ 
[397.225]
<no-speech> 
[399.435]
ʔ ɑo k ɑ ʔ w ɑo k ɑ p ph ɤ n h ɑ n t uə̯ 
[400.885]
<no-speech> 
[402.885]
s i ʔ h ɑ j w ɑo k ɑ p ph ɑ j l o m th o l ɑ s ɑ p s ɔː ŋ kh o n 
[405.385]
<no-speech> 
[409.805]
w ɑː ŋ j uː s ɑ j b ɔ m iː 
[411.755]
<no-speech> 
[412.825]
<no-speech> 
[413.545]
<no-speech> 
[415.385]
b ɔ 
[415.965]
<no-speech> 
[421.225]
ʔ ɤː j 
[422.155]
<no-speech> 
[423.775]
d ɑ j ɲ i n l ɛː w 
[424.615]
<no-speech> 
[426.385]
ʔ oː j m ɑː l ɑ ʔ m ɛː kh ɔ ɲ j ɑː k m ɯə̯ n ɑ m <laugh> 
[428.255]
<no-speech> 
[432.455]
ʔ ɑ n d ɑ j ʔ iː k 
[433.205]
<no-speech> 
[435.005]
p e n ɲ ɑ ŋ s i ʔ p ɑ j b ɔ d ɑ j <no-speech> ɲ ɑː ŋ m ɑː k ɑ ʔ d ɑ j k ɑ j k ɑ j n ɯ ŋ 
[438.775]
<no-speech> 
[439.625]
ɲ ɑː ŋ m ɑː k ɑ ʔ d ɑ j j uː n oː n k ɛː w n iː n ɑ 
[441.655]
<no-speech> 
[443.235]
ʔ ɑo l ɑ ʔ p e n ɲ ɑ ŋ 
[444.165]
<no-speech> 
[445.205]
th ɛː w <hes> 
[446.165]
<no-speech> 
[447.485]
<laugh> th ɛː w th ɑː t l uə̯ ŋ j uː s ɑ j k ɔ ʔ 
[450.515]
<no-speech> 
[451.625]
<no-speech> 
[452.475]
<no-speech> 
[454.155]
<no-speech> ʔ oː j 
[456.205]
<no-speech> 
[458.295]
c ɑ ŋ m ɛː n kh ɯː <int> 
[459.765]
<no-speech> 
[461.495]
b ɔ b ɔ d ɑ j k i n <no-speech> t ɑ ŋ t ɛː <no-speech> t ɑ ŋ t ɛː b ɔ th ɑː p ɑ j k i n j uː h ɯə̯ n ph ɤ n ʔ ɑo <laugh> 
[467.545]
<no-speech> 
[469.345]
h e t s i ʔ h e t ɲ ɑ ŋ k ɔ 
[470.315]
<no-speech> 
[471.515]
s ɯː ɲ ɑ ŋ k ɔ 
[472.255]
<no-speech> 
[474.915]
ʔ ɤ 
[475.795]
<no-speech> 
[477.445]
<no-speech> 
[478.015]
<no-speech> 
[482.375]
b ɔ <no-speech> ph ɑ j s i ʔ h ɑː j 
[484.685]
<no-speech> 
[487.525]
l ɯə̯ ŋ ɲ ɑ ŋ w ɑo m ɑː d u ʔ 
[488.575]
<no-speech> 
[493.575]
m ɯə̯ j ɲ ɑ ŋ h iː p w ɑo m ɑː w ɑ j <no-speech> m ɯə̯ j ɲ ɑ ŋ j uː l ɑː l ɑː k ɑ ʔ m ɯə̯ j <no-speech> b ɔ 
[498.695]
<no-speech> 
[501.955]
<no-speech> 
[502.485]
<no-speech> 
[503.885]
s ɑ n b ɔ ʔ 
[504.385]
<no-speech> 
[505.975]
<no-speech> 
[506.325]
<no-speech> 
[507.635]
k o p h ɑ n k ɑ ʔ ph ɔ t ɛː m ɑː l ɑː w k ɔː p ɑ j k i n <no-speech> ph u n n ɑː th ɑ m th ɑː t i ʔ b ɔ ʔ <no-speech> t ɛ l ɑ ʔ m ɯː b ɔ d ɑ j kh i t h ɔː t kh i t h ɔː t t ɛ m ɯː n iː n iː w ɑ 
[515.415]
<no-speech> 
[519.315]
ʔ oː j <no-speech> ph u n n ɑː <no-speech> kh ɑ ʔ ɲ ɔː n w ɑː h e t h e t p ɑː n w ɑː b ɔ h e n n ɑː k ɑ n c ɑ k m ɯː n ɔ ʔ h e n n ɑː k ɑ n h ɑː m ɯː b ɔ h e n m ɯː d iə̯ w n ɯ ŋ <no-speech> <laugh> kh ɑ ʔ ɲ ɔː n ʔ iː k o p k ɑ p b iː <laugh> 
[531.265]
<no-speech> 
[531.515]
<no-speech> 
[536.715]
p ɑ j s ɑ j k ɔ ʔ 
[537.425]
<no-speech> 
[539.465]
b iː n iː s i ʔ p ɑ j s ɑ j <no-speech> p ɑ j ɲ i ŋ p ɯː n <no-speech> l ɑː w h iə̯ n k ɑː n th ɑ h ɑː n n ɛː w ɑ 
[543.905]
<no-speech> 
[545.615]
ʔ ɤ 
[546.405]
<no-speech> 
[547.485]
<no-speech> 
[547.855]
<no-speech> 
[550.285]
b ɔ m ɛː n 
[551.785]
<no-speech> 
[555.255]
ʔ o 
[556.095]
<no-speech> 
[559.535]
kh ɑ k w ɑ <no-speech> kh ɔ ɲ l ɑ ʔ j ɑː n 
[561.595]
<no-speech> 
[565.285]
c ɑ k n ɔː j k ɑ ʔ d ɑ j h iə̯ n 
[566.625]
<no-speech> 
[569.035]
<no-speech> 
[570.005]
<no-speech> 
[575.465]
ɲ i ŋ p ɯː n p e n b ɔ m iː p ɯː n k ɑ ʔ kh ɯː k ɑo l ɛ ʔ 
[577.625]
<no-speech> 
[582.195]
ʔ ɑː w 
[582.795]
<no-speech> 
[585.765]
t ɑ l ɔː t <laugh> 
[586.685]
<no-speech> 
[589.055]
b ɔ t ɛː k d ɔː k 
[590.195]
<no-speech> 
[592.085]
kh ɑo w ɑː h e n 
[593.655]
<no-speech> 
[595.365]
kh ɑo w ɑː s i ʔ th o h ɑ t ɑː l ɑ ʔ j ɑː n l ɑː w kh ɑː h ɑ 
[598.165]
<no-speech> 
[599.115]
ʔ ɑ n d ɑ j 
[599.605]
<no-speech> 
[599.940]
