[0.000]
<no-speech> 
[5.065]
h ɑ l oː 
[6.635]
<no-speech> 
[7.585]
h ɑ l oː ʔ ɤ 
[9.465]
<no-speech> 
[10.455]
ʔ ɤ d ɑ j ɲ i n l ɛː w 
[12.325]
<no-speech> 
[13.515]
ʔ ɤ s iː th ɑː m n iː l ɛ ʔ p e n n ɛː w d ɑ j l ɑ ʔ l ɯə̯ ŋ p ɑ j n iː 
[16.385]
<no-speech> 
[19.555]
b ɑː t l ɯə̯ ŋ b oː d eː kh ɑo w ɑː c ɑ ŋ d ɑ j h ɑo kh ɑo p ɑ j th ɑ m ʔ i t kh ɑo w ɑː n ɛː w d ɑ j 
[23.315]
<no-speech> 
[29.035]
kh ɑo k ɑ ʔ b ɔ w ɑo ɲ ɑ ŋ w ɑ l ɯə̯ ŋ k ɑ ʔ l ɛː w l ɑ ʔ 
[31.625]
<no-speech> 
[32.735]
h ɑ 
[33.205]
<no-speech> 
[38.305]
b ɔ kh ɑo k ɑ ʔ w ɑː <no-speech> m iː t ɛː w ɑː b ɔ ʔ ɑo c ɑ ŋ s iː m ɛː n b ɔ 
[41.585]
<no-speech> 
[43.095]
ʔ ɤ l ɑ ʔ ʔ ɑ n kh ɑo k ɑ ʔ w ɑː b ɔ d ɑ j kh iə̯ t b ɔ d ɑ j kh o m ɲ ɑ ŋ l ɑ ʔ kh ɑo k ɑ ʔ w ɑː b ɔ p e n ɲ ɑ ŋ 
[46.755]
<no-speech> 
[48.695]
b ɔ d ɑ j w ɑː ɲ ɑ ŋ t i l ɑː w k ɑ ʔ b ɔ w ɑː ʔ ɑ w b ɔ ʔ ɑo l ɑ ʔ p e n ɲ ɑ ŋ h eː t ph o n ɲ ɑ ŋ kh ɑo k ɑ ʔ b ɔ w ɑo w ɑ 
[52.845]
<no-speech> 
[54.235]
b ɔ h eː t ph o n h ɑo k ɑ ʔ b ɔ d ɑ j th ɑː m kh ɑo l ɤː j m ɛː n b ɔ 
[56.345]
<no-speech> 
[57.645]
h eː t ph o n ɲ ɑ ŋ h ɑo k ɑ ʔ b ɔ d ɑ j th ɑː m kh ɑo l ɤː j m ɛː n b ɔ 
[59.455]
<no-speech> 
[60.875]
ʔ ɤː 
[61.575]
<no-speech> 
[62.745]
l ɑ ʔ b ɑ t n iː t o k l o ŋ s e n k ɑ n l ɑ ʔ ɲ ɑ ŋ s iː d ɑ j s e n k ɑ n ʔ iː k s iː w ɑ 
[65.785]
<no-speech> 
[67.675]
ʔ ɤː 
[68.445]
<no-speech> 
[70.765]
ʔ ɯ 
[71.385]
<no-speech> 
[72.685]
w ɑ 
[73.285]
<no-speech> 
[74.495]
p e n ɲ ɑ ŋ h e t ɲ ɑ ŋ ʔ iː k 
[75.495]
<no-speech> 
[78.015]
ʔ ɯ 
[78.675]
<no-speech> 
[79.965]
ʔ ɤː n ɛ n ɔː n l ɛ ʔ 
[81.115]
<no-speech> 
[85.055]
k ɑː ʔ ɑo kh ɑː s ɑo h ɑo s iə̯ ʔ eː ŋ s ɑ n b ɔ ʔ ŋ ɤ n h ɑ n kh ɑː n ɑ m m uː k n ɑ m m ɑ n p ɑ j kh ɑo s iə̯ h ɑ j h ɑo w ɑ k ɑː th ɑː ŋ k ɑː n kh ɑo ph u n t i s iə̯ ʔ eː ŋ 
[91.985]
<no-speech> 
[93.215]
h ɑ j h ɑo s iə̯ ʔ eː ŋ b ɤ t 
[94.265]
<no-speech> 
[95.875]
t o d ɑ j l iə̯ ŋ kh ɑo ʔ iː k s iː w ɑ 
[97.605]
<no-speech> 
[98.735]
h ɑo w ɑ d ɑ j s iə̯ h ɑ j kh ɑo m ɤ t 
[100.395]
<no-speech> 
[101.405]
ʔ ɤ 
[102.475]
<no-speech> 
[103.555]
t ɔː n n iː n ɑː kh ɑo s iː ʔ ɑo p ɑ j l ɤː j h uː c ɑ ŋ d ɑ j kh ɑo k ɑ ʔ ʔ ɑ n n ɑ n l ɑ ʔ d eː p e n ɲ ɑ ŋ b ɔ th ɯ p e n ɲ ɑ ŋ b ɔ h ɑ j kh ɑo th ɯː p ɑ j n ɑ m l ɤː j l ɑ ʔ d o n th ɛː w ɑ kh ɑo s iː p ɑ j c iː k j uː h ɑ n s iː w ɑ c ɑ ŋ w ɑː kh ɑo s i ʔ c iː k b ɔ l ɑ ʔ kh ɑo s i ʔ c iː k b ɔ l ɑ b ɑː t n iː 
[115.135]
ʔ ɑo l u ŋ m o n w ɑː c ɑ ŋ d ɑ j s ɑ n b ɑː t n iː 
[116.495]
<no-speech> 
[118.635]
h ɑ 
[119.095]
<no-speech> 
[119.955]
ʔ ɤː 
[121.175]
<no-speech> 
[122.865]
ʔ ɤː 
[123.685]
<no-speech> 
[124.915]
ʔ ɤ 
[125.625]
<no-speech> 
[127.905]
ʔ ɯ ɲ ɯː n b ɑ j ʔ i ɲ ɑ ŋ 
[129.855]
<no-speech> 
[135.545]
ʔ ɤ ʔ ɯ l ɑ ʔ ph ɤ n m ɑː ɲ ɑ ŋ m ɯː n iː 
[138.295]
<no-speech> 
[142.095]
<no-speech> 
[142.545]
<no-speech> 
[145.485]
b ɔ ɲ ɔː m m ɑ n m ɑ n b ɔ ɲ ɔː m ɲ ɔː n h eː t ph o n ɲ ɑ ŋ 
[147.695]
<no-speech> 
[148.655]
l ɑ ʔ c ɑ ŋ w ɑː ɲ ɔː n h eː t ph o n ɲ ɑ ŋ m ɑ n c ɑ ŋ b ɔ ɲ ɔː m 
[150.625]
<no-speech> 
[151.755]
ʔ ɑo m ɑ n ɲ ɑː k h e t ɲ ɑ ŋ s ɑ n 
[153.505]
<no-speech> 
[157.175]
w ɑ 
[157.755]
<no-speech> 
[159.965]
ʔ ɤ kh ɑo s e n kh ɑo b ɔ ʔ ɑo n ɛː w kh ɑo b ɔ ʔ ɑo kh ɑo k ɑ ʔ s e n l ɛ ʔ m ɛː n b ɔ l ɑ ʔ l ɑ ʔ ph ɤ n s i ʔ m ɑː ɲ ɑː k ɲ ɑ ŋ ʔ iː k s ɑ n 
[165.675]
<no-speech> 
[167.415]
ph uə̯ k n ɑː ŋ th eː h ɑ n b ɔ ɲ ɑː k t i ʔ 
[168.945]
<no-speech> 
[169.975]
m ɛ ɲ i ŋ p ɑ j c ɑ k kh o n s ɑ n b ɑː t n iː p ɑ j h ɑ n 
[171.705]
<no-speech> 
[173.535]
ph uə̯ k p ɑ j n ɑ m m ɯ ŋ m iː c ɑ k kh o n s ɑ n p ɑ j h ɑ n 
[175.455]
<no-speech> 
[177.095]
t ɑ m l uə̯ t p ɑ j n ɑ m m ɯ ŋ m iː c ɑ k kh o n 
[178.695]
<no-speech> 
[180.565]
ʔ ɑo m ɛː n ph ɑ j p ɑ j w ɑo n ɑ m kh ɑo s ɑ n 
[182.575]
<no-speech> 
[183.815]
ʔ ɯ 
[184.535]
<no-speech> 
[186.325]
ʔ ɤ ph uə̯ k kh ɑo m ɑː n ɑ m 
[187.675]
<no-speech> 
[191.035]
ʔ ɤ s e n b ɤ t m ɛː n b ɔ 
[192.555]
<no-speech> 
[193.525]
n ɑː j b ɑː n n ɑː j b ɑː n l ɑ ʔ ph ɑ j s iː s e n s ɑ n 
[196.415]
<no-speech> 
[200.335]
ʔ ɤ 
[201.045]
<no-speech> 
[202.415]
ʔ ɤ 
[203.145]
<no-speech> 
[204.295]
ʔ ɯ 
[204.975]
<no-speech> 
[206.705]
n ɛː kh ɑo s e n p ɑː n n ɑ n m ɑ n k ɑ ʔ d ɑ j l ɑ ʔ d eː s iː p ɑ j ɲ ɑː k ʔ i ɲ ɑ ŋ 
[209.425]
<no-speech> 
[211.065]
w ɑ ʔ iː n iː n ɑː b ɑ t d iə̯ w n iː n ɑː 
[213.745]
<no-speech> 
[215.335]
s ɑ d ɛː ŋ w ɑː m ɑ n m iː kh o n m ɑː m ɑ k m ɑ n l ɛː w m iː kh o n m ɑː kh ɔː m ɑ n l ɛː w kh ɑo s i ʔ ʔ ɑo l ɛː w m ɛː n b ɔ n ɛː m ɑ n m iː ʔ ɑ n d ɑ j n ɑ m kh ɑo s ɑ n m ɑ n s iː s ɑo ŋ ɑː j s ɑo d ɑː j p ɑː n n ɑ n c ɑ k th ɯə̯ m iː kh o n m ɑː m ɑ k t ɔː m iː kh o n 
[226.455]
m ɑ n m ɑː l ɛː w kh ɔː m ɑː l ɛː w 
[228.125]
<no-speech> 
[229.075]
ʔ ɤː s ɑ n kh ɑo s i ʔ p ɑ j ʔ ɑ n n ɑ n p ɑː n n ɑ n c ɑ k th ɯə̯ 
[231.335]
<no-speech> 
[233.115]
ʔ o s o m ph ɔː m ɛː n l ɛː w h ɑ n n ɑː 
[235.465]
<no-speech> 
[236.305]
ʔ ɯ ʔ ɯ s o m ph ɔː w ɑː kh ɑo ŋ ɑː j kh ɑo d ɑː j s ɑ n kh ɑo b ɔ w ɑo d ɔː k w ɑː p e n ph iː p e n n ɔː ŋ k ɑ n n ɔ ʔ n ɛː w n ɑ n n ɛː w n iː h ɑo s u ʔ s ɑ ŋ k ɑ n n ɛː w n ɑ n n ɛː w n iː ʔ ɤː h ɑo k ɑ ʔ w ɑo d iː p ɑ j s ɑ n l ɛ ʔ h ɑo k ɑ ʔ w ɑː s i ʔ p e n 
[245.365]
<no-speech> 
[246.955]
ʔ ɯ 
[248.045]
<no-speech> 
[249.865]
ʔ ɯ 
[250.715]
<no-speech> 
[255.205]
ʔ ɤː 
[256.265]
<no-speech> 
[257.165]
m ɑ n k ɑ ʔ d iː t uə̯ ʔ 
[258.055]
<no-speech> 
[259.855]
ʔ ɯ kh ɑ n s i ʔ w ɑː 
[261.315]
<no-speech> 
[262.485]
ʔ ɤ b ɑː t n iː kh ɑː h oː ŋ h ɛː m h ɑ n kh ɑː h oː ŋ h ɛː m ɲ ɑ ŋ m ɑ n h ɑ j h ɑo s iə̯ ʔ eː ŋ h ɑo s iə̯ ʔ eː ŋ w ɑ h ɑo ph ɑ k h ɑ n m ɑ n b ɔ d ɑ j c ɑː j h ɑ j h ɑo t i 
[269.555]
<no-speech> 
[270.965]
kh ɑː h oː ŋ h ɛː m h ɑo ph ɑ k h ɑ n n ɑ kh ɑː h oː ŋ h ɛː m h ɑo ph ɑ k h ɑ n n ɑ h ɑo s iə̯ ʔ eː ŋ t i 
[274.685]
<no-speech> 
[275.895]
ʔ ɤː m ɑ n m ɑ n b ɔ d ɑ j s iə̯ h ɑ j h ɑo t i 
[278.185]
<no-speech> 
[279.995]
ʔ ɤː kh ɯː n kh ɑo ʔ ɑo kh ɯː n th ɔ d ɑ j l ɑ b ɑː t n iː 
[282.335]
<no-speech> 
[285.155]
kh ɯː n l ɑ ʔ s ɛː n b ɑː t th oː kh ɑ j t ɛ n ɔː n kh ɯː n d iə̯ w t o ʔ ɑo c ɑ k h ɔː ŋ s ɑ n 
[290.955]
<no-speech> 
[293.275]
ʔ ɯ ʔ ɤː th ɑ m m ɑ d ɑː h ɑo k ɑ ʔ c iː n l ɛ ʔ n ɔ ʔ h ɑo s i ʔ p ɑ j j uː ɲ ɑ ŋ h ɔː t d o n ph oː t 
[297.075]
<no-speech> 
[298.045]
kh ɤ ŋ n ɯ ŋ k ɑ ʔ d iː l ɛː w h ɔː t s i n ʔ e t m oː ŋ ʔ ɤː h ɑo c iː n k ɔː n s i p ʔ e t m oː ŋ h ɑo k ɑ ʔ b ɔ d ɑ j s iə̯ ŋ ɤ n t ɔː 
[302.525]
<no-speech> 
[303.345]
p ɑ j l i n s ɑ j n ɛː s ɑ n b ɑː t n iː s uː ʔ ɔː k m ɑː l ɑ ʔ s uː w ɛː p ɑ j l i n s ɑ j 
[305.815]
<no-speech> 
[307.465]
<laugh> ɲ ɑ ŋ b ɔ d ɑ j n ɔː n ʔ ɛː m ɛː n b ɔ j e n th ɛː k uː ɲ ɑ ŋ d ɑ j m ɔː t t ɛ l ɑ ʔ m ɯː ʔ ɤ t ɛ k uː k ɑ ʔ ɲ ɑ ŋ d ɑ j m ɔː t t ɛ l ɑ ʔ m ɯː kh ɯ k ɑ n m ɑ n j e n j e n n ɑː w ʔ i l iː d ɑ j ʔ ɯ 
[319.325]
<no-speech> 
[319.475]
<no-speech> 
[320.745]
ʔ ɤ b ɑː t j e n l ɑ ʔ ɲ ɑ ŋ b ɔ l ɛː w ɲ ɑ ŋ p ɤː t ph ɑ t l o m s ɑ j j uː 
[323.955]
<no-speech> 
[325.505]
ʔ ɯ ʔ ɑo m ɑ n ʔ ɤ ʔ ɛː d iː d eː 
[328.465]
<no-speech> 
[329.645]
ʔ ɯ 
[330.645]
<no-speech> 
[336.695]
ʔ ɯ ʔ ɤ j ɑː h uə̯ m ɯ ŋ l ɛ ʔ s ɑ n 
[338.935]
<no-speech> 
[340.125]
ʔ ɤ p ɛː w ɑː s e n l ɑ ʔ h ɑ j h ɑo ʔ ɑo p ɑ j ɲ ɯː n m ɛː n b ɔ n iː s e n l iə̯ p l ɔː j l ɛː w p ɑ j ɲ ɯː n m ɛː n b ɔ n iː h ɑo p ɑ j ɲ ɯː n ʔ eː ŋ 
[346.285]
<no-speech> 
[348.035]
w ɑ 
[348.535]
<no-speech> 
[350.365]
ʔ ɤ ʔ ɤː ʔ ɤː 
[352.925]
<no-speech> 
[354.345]
ʔ ɤ 
[354.955]
<no-speech> 
[356.925]
<no-speech> 
[357.505]
<no-speech> 
[359.005]
ʔ ɯ ʔ ɯ 
[360.065]
<no-speech> 
[362.075]
ʔ ɯ 
[362.755]
<no-speech> 
[363.695]
ʔ ɤ 
[365.415]
<no-speech> 
[367.605]
ʔ ɯ m ɑ n th ɯː k l ɑ ʔ d eː 
[368.835]
<no-speech> 
[369.805]
<no-speech> 
[370.155]
<no-speech> 
[371.335]
ʔ ɯ 
[374.005]
<no-speech> 
[380.245]
f ɑː j ʔ e k ɑ s ɑː n d ɑ j ph uə̯ k n ɑ n w ɑ ph uə̯ k ph ɑ s iː h ɑ n w ɑ 
[382.775]
<no-speech> 
[384.335]
ʔ ɯ 
[386.525]
<no-speech> 
[387.625]
ʔ ɤː 
[388.945]
<no-speech> 
[391.735]
ʔ o s i ʔ p e n ɲ ɑ ŋ f ɑː k p ɑ j h ɑ j kh ɑo kh ɑo h uː j uː 
[394.175]
<no-speech> 
[395.465]
ʔ o f ɑː k n ɑ m ph ɤː j 
[397.305]
<no-speech> 
[398.775]
ʔ ɤ l o t m eː k ɑ ʔ d ɑ j kh ɑo h uː m ɤ t l o t m eː s ɑ j s ɔː ŋ l ɛː w k ɔː s iə̯ ŋ ɤ n h ɑ j kh ɑo ʔ ɤː kh ɑo k ɑ ʔ s o ŋ k ɑ j m ɤ t h ɑ n l ɑ ʔ 
[404.975]
<no-speech> 
[406.175]
ʔ ɯ k ɑ ʔ m ɛː n l ɛ ʔ 
[407.805]
<no-speech> 
[409.445]
b ɑː t n iː <hes> th ɯə̯ n ɑː n iː kh ɑo h ɑ j d o n th ɛː w ɑ h ɑ j p ɑ j b ɑː t n iː <no-speech> h ɑ 
[415.375]
<no-speech> 
[416.935]
<no-speech> 
[417.285]
<no-speech> 
[418.295]
m ɑː m ɑː kh o n kh uə̯ ʔ ɤː p ɛː w ɑː 
[420.355]
<no-speech> 
[421.185]
c ɑ ŋ s iː d ɑ j n ɑ t k ɑ n p ɑ j c iː k <no-speech> c iː k b ɑ j j ɑː h ɑː ŋ ʔ iː k w ɑ b ɑː t n iː c iː k b ɑ j th i w ɑː <hes> ʔ ɑ n u m ɑ t 
[430.325]
<no-speech> 
[431.505]
k ɑ ʔ m ɛː n l ɛ ʔ 
[432.905]
<no-speech> 
[433.745]
m ɛː n ph ɑ j l ɑ ʔ ʔ ɑː j 
[434.695]
<no-speech> 
[436.355]
<no-speech> 
[436.895]
<no-speech> 
[437.945]
ʔ ɤ ʔ u j s iː n ɑː ʔ ɑː j h e t ɲ ɑ ŋ l ɯə̯ ŋ m ɑ n s iː p ɑ j k iə̯ w ɲ ɑ ŋ k ɑ p kh ɑo b ɔ m ɛː n l ɯə̯ ŋ kh ɑo l ɯə̯ ŋ h ɑo ph iː 
[442.885]
<no-speech> 
[443.825]
<no-speech> 
[444.545]
<no-speech> 
[446.075]
ʔ ɤ p iː n kh uə̯ m k ɑ ʔ b ɔ m ɛː n h ɑo p iː n kh ɑo p iː n d eː s ɑ n <no-speech> ʔ ɑo kh ɑo p iː n b ɔ m ɛː n h ɑo p iː n h ɑo b ɔ d ɑ j p iː n ɲ ɑ ŋ kh ɑo p iː n ʔ eː ŋ kh ɑo b ɔ ʔ ɑo ʔ eː ŋ l ɑ ʔ s i ʔ h e t d ɑ j kh ɑo m iː ph u m ɑ j p ɑ j l ɛː w 
[457.325]
<no-speech> 
[460.765]
b ɔ m ɛː n b ɔ m ɛː n d ɔː k m ɑ n m iː kh o n 
[465.085]
<no-speech> 
[468.815]
ʔ ɯ 
[469.905]
<no-speech> 
[470.775]
f ɑː j d iə̯ w s iː p e n ɲ ɑ ŋ 
[471.905]
<no-speech> 
[473.655]
ʔ ɯ 
[474.335]
<no-speech> 
[478.405]
ʔ ɯ k ɑ ʔ w ɑo n ɛː w n ɑ n l ɛ ʔ ʔ ɤː k ɑ ʔ w ɑo n ɛː w n iː m ɑ n k ɑ ʔ th ɯː k l ɑ ʔ d eː w ɑo n ɛː w n iː 
[482.865]
<no-speech> 
[484.815]
ʔ ɤ 
[485.435]
<no-speech> 
[491.795]
ʔ ɯ 
[492.395]
<no-speech> 
[494.165]
ʔ ɤː 
[494.925]
<no-speech> 
[496.545]
<no-speech> 
[496.945]
<no-speech> 
[497.825]
ʔ ɤ k ɑ ʔ w ɑo s iː l ɛ ʔ h ɑo k ɑ ʔ j ɑː n p ɑ j k uə̯ ŋ p ɑ j k ɑ j k ɑ ʔ b ɔ m ɛː n th i n t o ʔ eː ŋ ʔ iː k h ɑ k ɑ ʔ p ɑ j t ɛ th ɯə̯ d iə̯ w n iː th ɯə̯ n ɯ ŋ s ɔː ŋ th ɯə̯ k ɑ ʔ l i n s ɯː s ɯː k ɑ ʔ w ɑo n ɛː w n iː l ɛ ʔ h ɑo k ɑ ʔ t ɔː p n ɛː w n iː p ɑ j h ɑ n l ɛ ʔ w oː j 
[509.145]
<no-speech> 
[510.825]
k ɑ ʔ d iː kh ɑo w ɑː n ɛː w n ɑ n l ɑ b ɑː t n iː ʔ ɑ n 
[514.065]
<no-speech> 
[515.175]
<no-speech> 
[515.635]
<no-speech> 
[516.765]
ʔ oː j m ɛː n l ɛː w l ɛ ʔ m ɛː n l ɛː w ʔ ɤ 
[521.115]
<no-speech> 
[521.915]
ʔ ɤː 
[524.175]
<no-speech> 
[525.375]
ʔ ɯ 
[526.045]
<no-speech> 
[530.365]
ʔ ɯ ʔ ɯ 
[531.505]
<no-speech> 
[532.935]
b ɔ ʔ ɑo 
[533.635]
<no-speech> 
[536.425]
ʔ ɤː 
[537.205]
<no-speech> 
[539.435]
ʔ ɯ 
[540.425]
<no-speech> 
[542.375]
ʔ ɯ 
[543.035]
<no-speech> 
[544.895]
ʔ ɤ ʔ ɯ p ɑ t i s eː t l oː t m ɛː n b ɔ ʔ ɤː p ɑ t i s eː t n ɛː w n ɑ n l ɤː j 
[550.685]
<no-speech> 
[551.505]
ʔ ɯ 
[552.815]
<no-speech> 
[556.095]
ʔ ɤː b ɔ d ɑ j th ɑː m kh ɑo w ɑ w ɑː t i ʔ ɲ ɑ ŋ t i ʔ ɲ ɑ ŋ m ɑ n k ɑ ʔ b ɔ d ɑ j th ɑː m w ɑ 
[561.785]
<no-speech> 
[562.945]
h ɑ l oː 
[563.575]
<no-speech> 
[566.835]
ʔ ɤː kh ɑo t i ʔ th ɔ n ɑ n 
[568.405]
<no-speech> 
[569.205]
ʔ ɑo b ɔ m ɛː n b ɔ h ɔː t ɲ ɑː m th ɯə̯ d eː b ɔ h ɔː t ɲ ɑː m t i b ɔ t i ʔ m ɑ n k ɑ ʔ b ɔ h ɔː t ɲ ɑː m th ɯə̯ d eː 
[572.695]
<no-speech> 
[574.455]
ʔ o c ɔː p b ɤ ŋ j uː n ɔ ʔ ʔ ɤ k ɑ ʔ j ɑː h uə̯ m ɑ n 
[576.805]
<no-speech> 
[577.685]
ʔ ɤː c ɔː p b ɤ ŋ j uː l ɤː j k ɑ ʔ p ɑː k h e n p ɑː k ʔ ɤː c ɑo w ɑo n ɛː w n ɑ n kh ɔ ɲ k ɑ ʔ kh ɑo 
[583.725]
<no-speech> 
[584.665]
c ɑo w ɑo n ɛː w n ɑ n kh ɑo c ɑ j 
[586.225]
<no-speech> 
[587.095]
ʔ ɤː m ɑ k ŋ ɤ n k ɑ ʔ h ɑ j l ɑː w ʔ ɑo ŋ ɤ n s iː p e n ɲ ɑ ŋ kh ɑ n w ɑo n ɛː w n ɑ n kh ɔ ɲ k ɑ ʔ d iː d ɔː k kh ɔ ɲ h uː n ɛː w n ɑ n l ɑ ʔ kh ɔ ɲ k ɑ ʔ d iː l ɑ ʔ 
[595.045]
<no-speech> 
[596.015]
l u k kh ɔ ɲ th u k 
[596.775]
<no-speech> 
[598.045]
ʔ ɯ m ɛ p ɑː ph ɤ n h ɑ n n ɑː 
[599.405]
<no-speech> 
[599.980]
