[0.000]
<no-speech> 
[9.045]
ʔ ɑ l oː 
[9.805]
<no-speech> 
[13.995]

[14.405]
<no-speech> 
[17.155]
n ɑ ŋ j uː n ɑː kh ɔ m ph i w t ɤː n ɑ ŋ j uː n ɑ c ɔː kh ɔ m ph i w t ɤː ph i m n ɑ ŋ s ɯː 
[22.155]
<no-speech> 
[26.025]
m iː ɲ ɑ ŋ b ɔ 
[27.015]
<no-speech> 
[29.435]
p e n kh ɑ j n ɔː n ʔ ɑː n n ɑ ŋ s ɯː 
[31.075]
<no-speech> 
[38.915]
ʔ ɤ <int> ɲ ɑ ŋ 
[40.675]
<no-speech> 
[42.165]
ʔ o kh ɯ w ɑː h e t ɲ ɑ j 
[43.665]
<no-speech> 
[46.125]
b ɔ b ɔ kh ɤː j d ɔː k 
[47.545]
<no-speech> 
[53.045]
<no-speech> 
[53.465]
<no-speech> 
[56.005]
ʔ ɯ 
[56.545]
<no-speech> 
[57.655]
ʔ ɤ m iː ɲ ɑ ŋ l ɑ b ɑː t n iː h e t c ɑ ŋ d ɑ j 
[60.135]
<no-speech> 
[61.635]
<no-speech> 
[61.985]
<no-speech> 
[64.355]
h ɯ 
[64.935]
<no-speech> 
[67.845]
m iː ɲ ɑ ŋ b ɔ 
[69.015]
<no-speech> 
[71.645]
j ɑː k l o m ɲ ɑ ŋ 
[72.815]
<no-speech> 
[76.485]
ʔ ɯ 
[77.155]
<no-speech> 
[79.825]
ʔ ɑ w <laugh> k ɑ d iə̯ w w ɑː c ɑo s i ʔ l o m n ɑ m ʔ ɑo p ɑ j ʔ ɑo m ɑː h ɑ j ʔ ɑː j l o m n ɑ m c ɑo <no-speech> 
[85.755]
<no-speech> 
[87.895]
b ɔ <int> 
[89.065]
<no-speech> 
[91.545]
b ɔ b ɔ m iː ŋ ɤ n b ɔ m iː ŋ ɤ n kh ɑː b ɔ m iː ŋ ɤ n s ɑ j n ɑ m m ɑ n l o t b ɔ m iː ŋ ɤ n s ɑ j n ɑ m m ɑ n l o t ʔ ɤ b ɔ d ɑ j p ɑ j l ɛ ʔ c ɑo h ɑ n t i th ɯː k l eː k c ɑo b ɔː k 
[102.815]
ʔ ɤ k ɑ ʔ s ɑ j h ɑ j ʔ ɑː j n ɛː l ɛ ʔ 
[105.305]
<no-speech> 
[106.525]
h e n b ɔ 
[107.205]
<no-speech> 
[109.595]
ʔ ɤ p e n c ɑ ŋ d ɑ j j uː n ɑ j h ɯə̯ n n ɑ j kh ɔː p kh uə̯ m iː p ɑ n h ɑː ɲ ɑ ŋ b ɔ 
[114.665]
<no-speech> 
[116.795]
h ɯ 
[117.365]
<no-speech> 
[118.275]
j uː kh ɔː p kh uə̯ m iː p ɑ n h ɑː ɲ ɑ ŋ b ɔ 
[120.275]
<no-speech> 
[122.565]
l u k 
[123.115]
<no-speech> 
[123.945]
ph ɑ j c iː n m ɯə̯ n ɔː n d ɯə̯ n c iː n 
[125.525]
<no-speech> 
[127.965]
b ɔ s ɑ b ɑː j 
[128.875]
<no-speech> 
[133.985]
ʔ ɤ kh ɑo kh ɑo b ɔ d ɑ j p ɑ j 
[137.865]
<no-speech> 
[139.005]
<int> <oov> m ɯə̯ kh o n d iə̯ w l ɑ ʔ <int> n ɔː n kh o n d iə̯ w kh ɑo b ɔ d ɑ j p ɑ j ʔ ɑo kh ɯə̯ ŋ ph ɤ n ʔ iː k b ɔ d iə̯ w n iː 
[145.395]
<no-speech> 
[146.785]
kh ɑo b ɔ d ɑ j ʔ ɑo ɲ ɑ ŋ ph ɤ n ʔ iː k b ɔ d iə̯ w n iː 
[148.425]
<no-speech> 
[155.385]
m ɑ n j ɑː n ɲ ɑ ŋ p iː n k ɑ ʔ m iː t ɛː w ɑː s i ʔ p e n t ɑ m l uə̯ t kh ɯː b ɔ ʔ ɑo p ɯː n k ɑ ʔ l ɑ p l o t 
[160.005]
<no-speech> 
[161.695]
h ɑ 
[162.205]
<no-speech> 
[164.185]
k ɑː l ɯ w ɑː ph ɤ n p e n t ɑ m l uə̯ t k ɑː ph ɤ n k ɑ ʔ m iː 
[166.255]
<no-speech> 
[167.715]
h ɔː j k uː b ɔ m iː ɲ ɑ ŋ k ɔ kh ɔː ph uə̯ k p ɔ ŋ k ɑ n 
[170.795]
<no-speech> 
[173.005]
k ɑ ʔ kh ɔː p ɑ j p ɔ ŋ k ɑ n t uə̯ t uə̯ kh ɔː ŋ t o j uː ph u d iə̯ w j uː d ɑ j m uː 
[176.965]
<no-speech> 
[178.265]
b ɔ d ɑ j b ɔ m iː kh ɔː ŋ t o k ɑ ʔ ʔ ɑo kh ɔː ŋ ph ɔː t uə̯ b ɔ m iː w ɑ <int> ʔ ɯ ph u ɲ i ŋ k ɑ ʔ ʔ ɑo p ɑ j 
[185.405]
<no-speech> 
[187.005]
ʔ ɤ k ɑ ʔ ʔ ɑo n ɑ m ph ɔː t uə̯ ph ɔː k ɑ ʔ m iː j ɯː m p ɑ j s ɯː s ɯː j ɯː m p ɑ j w ɑ ʔ ɑo p ɑ j 
[192.325]
<no-speech> 
[194.745]
h ɑ 
[195.305]
<no-speech> 
[196.715]
ʔ ɯ 
[197.325]
<no-speech> 
[204.255]
ʔ ɯ 
[204.615]
<no-speech> 
[210.805]
ʔ ɤ ʔ ɑo k ɔː ŋ w o ŋ c ɔː n p i t <laugh> 
[212.835]
<no-speech> 
[215.655]
ʔ ɯ 
[216.235]
<no-speech> 
[218.915]
ʔ ɯ 
[219.445]
<no-speech> 
[228.775]
<no-speech> 
[229.275]
<no-speech> 
[233.625]
l uː k s ɑː w c ɑo d eː s ɑː w n ɑː d eː n ɑː d eː b ɔ d ɑ j m ɑː j ɑː m b ɔ 
[238.125]
<no-speech> 
[239.835]
k i ʔ n ɑː h ɑ n n ɑː b ɔ d ɑ j m ɑː ɲ ɑː m b ɔ 
[241.745]
<no-speech> 
[243.015]
th o m ɑː h e t ɲ ɑ ŋ l ɑ ʔ m ɑ n k ɑ ʔ 
[244.525]
<no-speech> 
[245.965]
ph ɤ n kh ɯ t h ɔː t b ɑː n b ɔ ʔ ph ɤ n c ɯ ŋ th o m ɑː b u m 
[248.005]
<no-speech> 
[252.075]
s i ʔ l ɔː ŋ p ɑ j 
[253.175]
<no-speech> 
[254.675]
b ɤ ŋ t e ʔ b ɑː n j uː 
[256.035]
<no-speech> 
[257.685]
<no-speech> 
[258.385]
<no-speech> 
[262.185]
<int> p ɑ ʔ th o ph ɑ j h ɑ j ŋ ɤ n p ɑ j ŋ ɤ n t e ʔ b ɑː n 
[265.715]
<no-speech> 
[266.865]
kh ɔː m iː ʔ ɑ n n ɑ n <int> h ɑ j w ɑ kh ɑo m iː k iː p h ɑ j w ɑ 
[270.925]
<no-speech> 
[272.495]
kh ɯː m ɑː c ɑ j ɲ ɑ j th ɛː p ɑ j b ɤ ŋ t e ʔ b ɑː n 
[275.055]
<no-speech> 
[276.895]
th i m ʔ iː s ɑ ŋ c ɑ ŋ w ɑː s i ʔ p ɑ j b ɤ ŋ k ɑ j th ɛː 
[279.205]
<no-speech> 
[282.815]
ʔ ɯ 
[283.695]
<no-speech> 
[287.315]
ʔ e ʔ ɑː 
[289.035]
<no-speech> 
[290.675]
ʔ o ʔ ɯ ʔ ɯ 
[293.405]
<no-speech> 
[295.475]
ʔ ɑ w 
[296.385]
<no-speech> 
[298.445]
<int> b ɑ k n ɔ j m ɑ n m ɑː p iː n kh iː kh ɔː l ɑ ʔ n iː n ɑː 
[303.375]
<no-speech> 
[304.505]
ʔ ɯ 
[305.305]
<no-speech> 
[307.155]
n ɔ j m ɑː p iː n kh iː kh ɔː ʔ ɤ 
[309.925]
<no-speech> 
[314.585]
m ɯ ŋ th o 
[315.455]
<no-speech> 
[316.255]
d o j <int> 
[317.025]
<no-speech> 
[318.235]
m ɯ ŋ th o 
[320.785]
<no-speech> 
[321.745]
j uː h uə̯ n ɑ m n ɑ l u k 
[322.825]
<no-speech> 
[323.735]
ʔ ɑ n 
[324.565]
<no-speech> 
[325.755]
w ɑː ŋ ʔ ɑ th i t l ɛː w ʔ ɑː j k ɔː p ɑ j ph u n p ɑ j k u ŋ th eː p ph u n 
[328.255]
<no-speech> 
[330.335]
h ɑ l oː 
[330.995]
<no-speech> 
[335.445]
ʔ o ɲ ɑ ŋ b ɔ d ɑ j ʔ ɔː k p ɑ j s ɑ j d ɔː k p ɑ j n ɑ j w iə̯ k p ɑ j k ɑ ʔ m iː t ɛ kh ɑo h ɔː ŋ p ɑ ʔ s u m l ɑ ʔ k ɑ ʔ l ɤː k p ɑ s u m l ɑ ʔ kh ɑo k ɑ ʔ k i n kh ɑo k i n kh ɑo l ɛː w k ɔː kh ɑo p ɑ ʔ kh u m t ɔː ʔ iː k b ɔ d ɑ j p ɑ j s ɑ j d ɔː k <int> 
[346.275]
<no-speech> 
[347.075]
s i ʔ m iː w eː l ɑː p ɑ j l ɔ ʔ th ɑː ŋ ʔ ɯ n w ɑ ʔ oː j 
[350.575]
<no-speech> 
[353.485]
p e n c ɑ ŋ d ɑ j 
[354.295]
<no-speech> 
[357.025]
<int> <oov> 
[357.895]
<no-speech> 
[359.255]
b ɔː k l ɑ ʔ s i ʔ h e t c ɑ ŋ d ɑ j 
[360.645]
<no-speech> 
[363.635]
<int> ʔ ɤ kh ɑo k ɑ ʔ m iː ph ɛː n k ɑː n p ɑ j l ɤː j l ɤː j j uː d ɔː k 
[369.095]
<no-speech> 
[370.305]
m ɑ n j u t j uː th ɛː w d ɑ j 
[371.785]
<no-speech> 
[374.765]
h ɯ 
[375.245]
<no-speech> 
[381.855]
ʔ o 
[382.585]
<no-speech> 
[383.585]
ph ɤ n p e n kh o n t ɑ ŋ w ɑ 
[384.845]
<no-speech> 
[385.915]
m ɑ n p e n kh o n d ɑ ŋ th ɛː w ɑ c ɑ ŋ s i ʔ h e n ph ɤ n <int> h ɯ 
[390.765]
<no-speech> 
[392.345]
<no-speech> 
[392.725]
<no-speech> 
[395.345]
<no-speech> 
[395.815]
<no-speech> 
[397.025]
c iː n 
[397.625]
<no-speech> 
[400.125]
<int> ʔ ɤ ʔ o 
[404.135]
<no-speech> 
[405.945]
<int> kh ɯː p ɑ j h e t w iə̯ k ph ɤ n k ɑ ʔ d ɑ j ŋ ɤ n d iː j uː b ɔ b ɔ ʔ p ɑ j h e t w iə̯ k m ɑ n k ɑ ʔ d ɑ j ŋ ɤ n d iː j uː b ɔ 
[414.105]
<no-speech> 
[416.365]
f ɑː k ŋ ɤ n m ɑː h ɑ j j uː b ɔ 
[417.925]
<no-speech> 
[420.035]
h ɯ 
[420.585]
<no-speech> 
[423.815]
ʔ ɤ f ɑː k m ɑː h ɑ j ph ɑ j l ɑ ʔ 
[426.405]
<no-speech> 
[427.515]
f ɑː k m ɑː h ɑ j ph ɑ j h ɑ j m ɛ l ɯː h ɑ j l uː k 
[429.445]
<no-speech> 
[431.145]
ʔ o p ɛː w ɑː c ɑo k ɑ ʔ 
[432.655]
<no-speech> 
[433.915]
l ɑː j d ɑ j d iː t ɤː p d ɑ j n ɔ ʔ d iə̯ w n iː n ɔ ʔ s ɑ n n ɔ ʔ ʔ ɯ ʔ ɤ l ɑː j d ɑ j d iː c ɑo b ɤ ŋ ɲ ɛː ŋ ʔ ɑː j d ɛ ʔ ɑː j k ɑ ʔ b ɔ m iː w iə̯ k h e t l ɑ ʔ d eː d iə̯ w n iː j uː l ɑː l ɑː s ɯː s ɯː 
[445.715]
<no-speech> 
[446.945]
<laugh> b ɔ d ɑ j s o ŋ kh ɑː w m ɯə̯ b ɑː n b ɔ ʔ 
[451.485]
<no-speech> 
[454.475]
h ɯ 
[455.045]
<no-speech> 
[458.805]
<no-speech> 
[459.235]
<no-speech> 
[460.355]
ʔ ɯə̯ j ph uə̯ ph ɑ n l ɑː w c o m j uː l ɑː w w ɑː ʔ iː kh i w m ɑ n b ɔ m iː m ɛ b ɔ m iː ph iː m iː n ɔː ŋ l ɛ ʔ j uː b ɑː n n ɑ w ɑː m ɑ n b ɔ d ɑ j kh ɯ t h ɔː t ph ɑ j d ɔː k w ɑː s ɑ n d eː <int> l ɑː w c o m n ɔː j c ɑ j j uː l ɑː w w ɑː n ɔː ŋ n u ŋ k ɑ ʔ p e n n ɛː w n iː 
[472.325]
m i p 
[472.645]
<no-speech> 
[474.185]
p ɑː n l ɑː w s i ʔ m ɑː h e t ɲ ɑ ŋ 
[476.655]
<no-speech> 
[477.785]
<laugh> ʔ oː j s iə̯ ŋ ʔ ɔː n d eː 
[479.335]
<no-speech> 
[482.655]
l ɑː w k ɑ ʔ s i ʔ ʔ ɯ t w iə̯ k s ɑ n b ɔ ʔ j uː ph u n l ɑː n l ɑː w k ɑ ʔ b ɔ d ɑ j ʔ ɯ t <int> l ɑː w k ɔː p ɑ j ŋ o m n ɑ m l ɑː n l ɑː w j uː ph u n k ɑ ʔ ph ɔ h ɛː ŋ l ɑ ʔ <int> b ɔ b ɤ ŋ l ɛ ʔ l u k ʔ oː j j ɑː p ɑ j h e t j ɑː p ɑ j h e t ph ɔː kh ɑː h ɑ n n ɑ <int> 
[494.455]
ph ɔː kh ɑː ph ɔː kh ɑː l o m n ɑ m 
[497.175]
<no-speech> 
[498.015]
<int> ʔ ɤ l ɑː n c ɑo k ɑ ʔ s ɔː j uː n iː 
[500.915]
<no-speech> 
[501.905]
<int> b ɔ b ɔ d ɑ j m ɑo ph ɤ n l o m w iə̯ k ph ɤ n ph ɤ n kh iː t t ɛ l i n k eː m 
[508.405]
<no-speech> 
[509.545]
l i n k eː m ʔ ɑo ŋ ɤ n b ɔ ʔ 
[510.915]
<no-speech> 
[512.025]
h ɯ 
[512.515]
<no-speech> 
[513.605]
ʔ ɑ l oː 
[514.305]
<no-speech> 
[515.945]
ʔ o 
[516.765]
<no-speech> 
[517.685]
s o <int> s oː k d iː j ɑː l ɯː m ʔ ɑː j d ɤ 
[520.455]
<no-speech> 
[521.955]
kh ɑ n d ɑ j l ɑː j d ɤ 
[523.245]
<no-speech> 
[525.395]
<laugh> k uː j ɑː n t ɛ b ɑː t p ɑ j l ɑ ʔ m o t l ɑ ʔ d eː w ɑː d ɑ j ʔ oː j ʔ oː j ʔ oː j th ɯː k l eː k l ɤː j t uə̯ ʔ 
[534.515]
<no-speech> 
[535.405]
th ɯː k th ɯː k l eː k th ɯː k l eː k h ɑ 
[538.025]
<no-speech> 
[540.645]
ʔ o kh ɑː j kh ɯə̯ ŋ d ɑ j t ɑ ŋ m ɯː n p ɑː j b ɑː t b ɔ l ɯː m ɯː n p ɑː j k iː p b ɔ d ɑ j m ɯː n p ɑː j b ɑː t l ɯː m ɯː n p ɑː j k iː p 
[552.185]
p ɑː th o 
[553.655]
<no-speech> 
[554.695]
d ɑ j l ɑː j p ɑː n n ɑ n ph u n n ɑː 
[555.895]
<no-speech> 
[556.915]
ʔ ɯ 
[557.655]
<no-speech> 
[559.185]
ʔ ɤ ʔ o 
[560.555]
<no-speech> 
[563.485]
ʔ oː j kh ɑo h ɑː k l o ŋ l ɤː j l ɤː j d ɔː k ph uə̯ k kh ɑː j k ɛː w kh ɑ n ɲ ɑː m h ɑo s i ʔ kh ɑː j h ɑ j kh ɑo 
[567.475]
<no-speech> 
[569.765]
ʔ ɯ 
[570.375]
<no-speech> 
[571.255]
ph ɔː ph ɤ n d eː ɲ ɑ ŋ ʔ ɑ n n ɑ n b ɔ 
[573.075]
<no-speech> 
[576.945]
ʔ oː j h e t ʔ i ɲ ɑ ŋ 
[577.975]
<no-speech> 
[580.965]
ʔ u j <int> m iː p ɑ n ɲ ɑː kh o n p ɑ j p ɑː n n ɑ n 
[583.815]
<no-speech> 
[586.525]
h ɯ 
[586.985]
<no-speech> 
[589.335]
<no-speech> 
[589.705]
<no-speech> 
[591.325]
ʔ ɤ k ɑ ʔ d iː t uə̯ ʔ ɯ k ɑ ʔ d iː 
[595.705]
<no-speech> 
[598.995]
<no-speech> 
[599.905]
<no-speech> 
[600.200]
