[0.000]
æ m j æ k b u n 
[9.025]
<no-speech> 
[10.125]
<no-speech> 
[10.485]
<no-speech> 
[11.905]
<sta> æ l o 
[20.075]
<no-speech> 
[21.875]
æ l o 
[22.545]
<no-speech> 
[23.765]
k u ʧ ɪ k e ʃ ɑ m i l t ʊ ʧ ɑ w ɑ j i t ʊ ʧ ɪ d ɪ k i ʧ ɑ w ɑ j i 
[28.865]
<no-speech> 
[29.845]
<no-speech> 
[31.915]
<no-speech> 
[34.635]
x w æ d e <int> b ɑ ʃ ɪ n s ɑ x b ɪ h u n b ɑ ʃ ɪ n i ʃ h ɑ l e t æ 
[40.365]
<no-speech> 
[42.535]
<no-speech> 
[42.925]
<no-speech> 
[43.955]
t æ i ɾ o ʒ t æ i ɾ o ʒ d æ ɾ s x ɑ n e ʧ ɪ k ɪ ɾ 
[46.635]
<no-speech> 
[49.525]
h ɑ 
[50.055]
<no-speech> 
[51.665]
<no-speech> 
[52.185]
<no-speech> 
[55.475]
e b ɑ ʃ q ɑ 
[56.865]
<no-speech> 
[59.095]
b æ ħ s ɑ t æ k ɪ ɾ <int> 
[63.675]
<no-speech> 
[64.495]
ħ æ u b ɑ ʃ q ɑ 
[65.735]
<no-speech> 
[67.115]
<no-speech> 
[67.595]
<no-speech> 
[69.685]
<no-speech> 
[70.115]
<no-speech> 
[71.965]
<int> w æ ʧ ɪ ʧ e k ɪ ɾ b u æ w ʃ æ v w e r o ʒ e 
[76.105]
<no-speech> 
[78.495]
h ɑ l ɪ w ɪ ɾ e <oov> 
[80.165]
<no-speech> 
[82.755]
<no-speech> 
[83.135]
<no-speech> 
[84.865]
<int> w æ ʧ ɪ ʧ e k ɪ ɾ ʧ ɪ x w ɑ ɾ ɪ n ʧ e k ɪ ɾ 
[86.855]
<no-speech> 
[90.305]
k ʊ r o m ɪ n q æ r i w ɑ n ʧ e k ɪ ɾ q æ r i w ɑ n ʧ e k ɪ ɾ 
[93.345]
<no-speech> 
[94.955]
q æ r i w ɑ n z ɑ n ɪ n x w ɑ ɾ ɪ n e ʧ e k ɪ n ʧ ɪ ʧ e k ɪ ɾ 
[98.215]
<no-speech> 
[100.355]
n ɪ z ɑ n i 
[102.965]
<no-speech> 
[104.625]
o h k e f k æ f ɑ w æ j æ 
[108.705]
<no-speech> 
[110.885]
ɑ ɾ æ t æ x e ɾ o ʧ ɑ w ɑ j æ 
[112.065]
<no-speech> 
[113.035]
<int> ɑ ɾ æ t æ x e ɾ o ʧ ɑ w ɑ j æ 
[115.515]
<no-speech> 
[117.185]
<int> h ɑ <laugh> 
[122.925]
<no-speech> 
[124.265]
t æ x t æ k i w i k e m h æ n æ n æ w i d ɪ b e ʒ i æ w i 
[127.695]
<no-speech> 
[129.545]
e m ɪ n g o t t ʊ d ɪ b e t æ x t æ k i w i n ɑ v r o ʒ e k e m h æ n æ m ɪ n g o t t æ x t æ k i w i k e m h æ n æ n æ w i ɑ l i 
[136.995]
<no-speech> 
[138.005]
<no-speech> 
[138.365]
<no-speech> 
[139.315]
e d æ b ɑ ʃ æ h æ v d ʊ i d ɑ ɾ æ <int> <laugh> h ɑ 
[144.275]
<no-speech> 
[147.135]
<int> æ ɾ e 
[148.255]
<no-speech> 
[150.745]
<int> t æ l æ f o n ʧ ɑ w ɑ j æ 
[153.405]
<no-speech> 
[157.065]
<int> h ɑ 
[157.655]
<no-speech> 
[159.315]
<no-speech> 
[159.715]
<no-speech> 
[161.975]
<int> h ɑ t ʊ j i e v ɑ ɾ e d æ ɾ k æ v i 
[166.745]
<no-speech> 
[168.805]
d æ n g e t æ n ɑ j e 
[171.365]
<no-speech> 
[173.405]
<int> w æ l ɑ h i t ʊ n ɑ ʃ ɪ x ʊ l i 
[175.945]
<no-speech> 
[177.155]
æ z w æ r æ d æ ɾ k æ v ɪ m t ʊ ɾ k i b ɑ v e ʒ ɪ n æ m x w æ r ɑ p ɪ ʧ u k i b ɪ g æ ɾ ɪ n n ɑ k ʊ r o t æ æ w k ʊ d æ ɾ x ɪ s t m ɪ n g o t æ m ʒ ɪ x w æ r ɑ t ʊ ɾ k i d æ ɾ k æ v ɪ n d æ ɾ v ɑ 
[188.965]
<no-speech> 
[190.355]
<no-speech> 
[191.305]
<no-speech> 
[192.285]
<int> ħ æ æ m h æ ɾ ɪ n p ɑ ɾ k m ɑ ɾ k ɑ æ m e x w æ r ɑ t ɪ ʃ t æ k i d æ ɾ x ɪ n 
[197.975]
<no-speech> 
[200.595]
e 
[201.975]
<no-speech> 
[203.525]
i ʒ ɑ ɾ g o t æ m w æ ɾ ɪ n æ ʤ æ m w æ h u n e m æ b ɪ h æ w i n ɪ n h ɑ 
[207.455]
<no-speech> 
[209.625]
m ɪ n g o t æ z g o t w æ ɾ ɪ m ʤ æ m w æ h u n e m æ b ɪ h ɛ j i n ɪ n 
[213.005]
<no-speech> 
[214.565]
<no-speech> 
[214.935]
<no-speech> 
[216.675]
<laugh> n ɑ w æ l æ h w e k ɑ n e w æ ɾ æ e d i b e ʒ æ h ɑ 
[225.845]
<no-speech> 
[227.585]
<no-speech> 
[228.225]
<no-speech> 
[229.525]
<no-speech> 
[230.435]
<no-speech> 
[231.355]
m ɑ h u n u k i l ɪ m ɑ l e n æ 
[232.445]
<no-speech> 
[234.015]
<no-speech> 
[234.895]
<no-speech> 
[235.985]
h ɑ <int> 
[239.115]
<no-speech> 
[240.325]
m h u n d æ ɾ s ɑ ʧ ɪ l o n æ d æ ɾ s ɑ ʧ ɪ d ɪ k ɪ n 
[245.345]
<no-speech> 
[247.215]
<no-speech> 
[248.495]
<no-speech> 
[249.405]
<sta> h u n d æ ɾ s ɑ d ɪ ʃ ɪ x ʊ l ɪ n h u n d ɪ ʃ ɪ x ʊ l ɪ n e v ɑ ɾ e j o q s ɑ k ɑ k æ s l ɪ ʤ æ m w æ h ɛ j æ 
[255.175]
<no-speech> 
[259.415]
<int> o k æ j ʤ æ m w æ h æ n æ o k æ j o k æ j æ m b ɪ l i z ɪ n 
[264.045]
<no-speech> 
[265.445]
ʧ ɪ m ɑ h æ m ɑ ʧ ɪ b u j æ 
[268.725]
<no-speech> 
[269.935]
<no-speech> 
[270.315]
<no-speech> 
[271.345]
æ m e x w æ r ɑ s ɑ ʕ æ t æ k e b ɪ l i z ɪ n 
[272.875]
<no-speech> 
[276.885]
<int> h ɑ e t ɪ ʃ t p e n ɑ j e m ɑ s ɑ ʕ æ t ɑ w i r ɑ b ɪ b i n i m ɑ ʧ e n ɑ b æ q æ j 
[281.445]
<no-speech> 
[288.435]
j ɑ n i d ɪ b e w æ ɾ ɪ n æ m e b ɪ l ɛ j ɪ z ɪ n <int> 
[290.695]
<no-speech> 
[291.555]
æ z b e m w ɪ ɾ e t æ m ɑ m i ʃ æ v ʒ ɪ e t ʊ n ɪ z ɑ n i m ɑ æ m e ʧ æ n d h æ v b ɪ l ɛ j ɪ z ɪ n 
[297.205]
<no-speech> 
[300.795]
e 
[301.395]
<no-speech> 
[304.865]
<laugh> m ɑ z ɑ n i i ʒ ɑ ɾ <laugh> 
[312.865]
<no-speech> 
[314.255]
<int> h ɑ e æ w s e k ɑ e ʧ ɑ ɾ ɑ n 
[320.395]
<no-speech> 
[322.115]
ħ æ k ɑ n e w æ ɾ d ɑ n æ e k ʊ z ɑ n i l ɑ w e t æ d i k e n ɑ v e w i ʧ e b u h ɑ 
[328.765]
<no-speech> 
[330.175]
æ w e g o t ʤ æ m m ɑ l ɑ w æ n ɑ v e w i ʧ ɪ b u k ɑ n i w ɑ ɾ n ɑ j e ʤ æ m t æ j æ n ɑ v i w e ʧ e b u n ɑ v e w e ʧ ɪ j æ l e ħ æ 
[341.865]
f æ ɾ h ɑ t j e d i n 
[343.015]
<no-speech> 
[344.165]
e k i d ɪ n ʒ i w e d æ ɾ e m ɑ n æ 
[346.305]
<no-speech> 
[348.085]
t ɑ ʒ i d i n ħ æ æ w z ɑ n i 
[350.085]
<no-speech> 
[352.495]
<int> m <int> e e <int> e j e ʧ ɑ ɾ ɑ n w e s ɪ b e ʒ ɪ h æ b u n 
[358.715]
<no-speech> 
[361.225]
j e ʧ ɪ k <laugh> 
[368.715]
<no-speech> 
[370.435]
r æ s m i m ɪ n <oov> 
[371.585]
<no-speech> 
[372.985]
<int> e 
[376.305]
<no-speech> 
[378.395]
m ɪ n g o t æ m e ʧ ɪ ʒ ɪ m ɑ l ɑ <int> 
[379.555]
<no-speech> 
[384.665]
m ɪ n g o t æ m e ʧ ɪ æ m b e n 
[386.475]
<no-speech> 
[389.975]
m ɪ n g o t æ m e ʧ e æ m e b e n ʤ æ m w æ 
[395.025]
<no-speech> 
[398.025]
<no-speech> 
[398.945]
<no-speech> 
[400.605]
t æ w e r o ʒ ɑ ʧ ɪ ʧ e k ɪ ɾ 
[403.245]
<no-speech> 
[406.075]
t ʊ ʧ ɪ z ɑ n i p e g ɪ ɾ t 
[407.455]
<no-speech> 
[408.875]
t ʊ g ɪ ʃ n ɑ j i t ʊ g ɪ ʃ n ɑ j i t æ r ɑ g o t b e n f i l m ɑ n ʧ e k ɪ n 
[413.505]
<no-speech> 
[414.965]
m ɪ n g o t t ʊ ʧ ɪ z ɑ n i n ɪ z ɑ n ɪ m b e n ʒ ɪ ħ æ 
[417.585]
<no-speech> 
[422.015]
<no-speech> 
[424.065]
<no-speech> 
[425.865]
k æ f ɑ t æ w ɑ n e g ɪ ʃ d ɪ ʧ æ t æ g o t m ɪ n r æ ʧ e k æ <int> 
[430.515]
<no-speech> 
[432.615]
<no-speech> 
[433.025]
<no-speech> 
[435.185]
m ɪ n g o t k æ f ɑ m ɪ n k æ f ɑ t æ ʧ ɪ ɾ t e g o t i w e n æ ʧ e k i 
[438.795]
<no-speech> 
[441.265]
<no-speech> 
[441.615]
<no-speech> 
[443.435]
æ ɾ e 
[444.035]
<no-speech> 
[446.685]
<int> m 
[450.075]
<no-speech> 
[451.205]
e d ɪ g o t t ʊ p e ʃ ɪ j e d æ j n e x w æ ʧ e k i t ʊ e v ɑ ɾ e b e i ʒ ɑ ɾ w e ʧ e k ɪ m v e ʧ e k ɪ m ɑ x w æ b ɪ k ɪ n ʧ e n ɑ b æ w ɪ l o 
[460.615]
<no-speech> 
[465.085]
<no-speech> 
[466.825]
<no-speech> 
[468.035]
<sta> <laugh> e k ɑ b ɪ g ɪ ɾ ɪ m h ɑ ʧ e z ɑ n i ʧ e k i ʧ ɑ w ɑ ʧ e k i t ʊ ʧ ɪ d ɪ k i h ɑ 
[479.115]
<no-speech> 
[483.475]
b ɪ ɾ ɑ b e m æ k æ v ʧ ɪ j e m æ s e v ɑ s æ ɾ e m æ n æ x æ æ w e b ɪ ɾ ʧ i b e h ɑ n e <laugh> n ɑ n m ɑ n t ɪ ʃ t æ k e ʧ e k ɪ n 
[488.075]
<no-speech> 
[490.635]
w æ l æ h 
[491.735]
<no-speech> 
[493.375]
<no-speech> 
[494.605]
<no-speech> 
[496.195]
<no-speech> 
[496.905]
<no-speech> 
[498.425]
i ʒ ɑ ɾ m ɪ n d o h m ɪ n g o t g o t n æ h ɑ t m ɪ n g o t ʧ ɪ m ɑ g o t æ m f æ d i d ɪ k ɪ n m ɑ j e ʧ ɪ b æ l e w æ l æ h k æ s t æ n ɑ x e 
[505.585]
<no-speech> 
[506.885]
d o ɾ ɑ x e ɾ i x e ɾ i x e ɾ i 
[510.555]
<no-speech> 
[512.125]
d ɪ m ɪ ʒ ɑ ɾ e æ z ʒ ɪ k ʊ z ɑ n ɪ m i ɾ o ʒ q æ l æ b ɑ l ɪ x i j æ <laugh> 
[520.325]
<no-speech> 
[521.635]
i ɾ o ʒ m ɑ l ɑ k ɑ z o w ɑ n m ɑ n æ m e v ɑ n e m æ u æ w h ɑ t 
[524.455]
<no-speech> 
[525.815]
æ ɾ e j e x æ l k e æ ɾ e 
[529.695]
<no-speech> 
[531.595]
æ ɾ e 
[532.285]
<no-speech> 
[533.475]
x æ l k b u b ɑ ʃ b ɪ ɾ ɑ w æ ɾ i 
[537.045]
<no-speech> 
[541.105]
e 
[541.965]
<no-speech> 
[543.545]
t ʊ k æ n g i h ɑ t 
[544.355]
<no-speech> 
[546.155]
<no-speech> 
[547.075]
<no-speech> 
[548.225]
e w æ l æ h x ɑ n i j e w æ ʧ ɑ w ɑ 
[550.695]
<no-speech> 
[551.765]
<no-speech> 
[552.115]
<no-speech> 
[552.915]
k ɑ n i w ɑ ɾ ʧ ɑ w ɑ b u d æ ɾ s e w i ʧ ɑ w ɑ b u 
[555.655]
<no-speech> 
[557.895]
h u n b æ ɾ m ɑ l e 
[559.375]
<no-speech> 
[561.955]
s ɪ b ɑ l ɪ m ɑ l e b e k ɑ n i w ɑ ɾ 
[564.205]
<no-speech> 
[565.965]
<sta> m ɪ n g o t k ɑ n i w ɑ ɾ æ l i m ɑ l e m ɑ l e j æ j o q s ɑ x w æ 
[569.995]
<no-speech> 
[571.115]
æ w ʧ u k ʊ d æ ɾ e æ w ʧ u k ʊ d æ ɾ e 
[574.735]
<no-speech> 
[581.155]
<no-speech> 
[581.715]
<no-speech> 
[583.955]
<no-speech> 
[584.315]
<no-speech> 
[585.215]
h u n k æ f ɑ x w æ d ɪ n e ɾ e j e n d ɪ m ɑ j e m ɑ l d ɪ 
[587.465]
<no-speech> 
[589.795]
h ɑ <sta> m ɪ n g o t h u n k æ f ɑ x w æ d ɪ n e ɾ e t ʊ m ɑ j e l ɪ m ɑ l d æ <int> m ɪ n g o t q æ j b e ʃ e x o t ʊ l ɪ k ʊ d æ ɾ e m ɑ w æ ɾ æ m ɑ l e ʒ ɪ <no-speech> ʒ ɪ k ʊ z ɑ n ɪ m q æ j s æ ɾ e t æ k æ t 
[600.020]
