[0.000]
<int> h e ʒ k i ʒ ɑ n e t e m t æ m ɑ m w ɪ l o æ z w ɪ l o t e d æ n g e m ɪ n b ɪ r e j æ 
[11.785]
<no-speech> 
[13.485]
<no-speech> 
[14.665]
<sta> d æ n g e w e n ɑ j e m ɪ n 
[17.285]
<no-speech> 
[18.885]
n æ w ɾ o z t ʊ ʧ ɪ d ɪ k i <int> 
[22.745]
<no-speech> 
[23.625]
<breath> t ʊ ʧ ɑ w ɑ j i 
[25.205]
<no-speech> 
[26.575]
<breath> ʧ ɑ w ɑ j æ 
[28.755]
<no-speech> 
[29.725]
t ʊ d ɪ r i t ʊ d ɪ r i k i ʒ ɑ n m æ k t æ b e 
[31.935]
<no-speech> 
[33.535]
<int> <hes> s ɑ æ t ʧ ɪ j æ s ɑ æ t ʒ ɪ m ɪ n r æ t æ n e j æ 
[45.215]
<int> b ɪ ʃ t æ x ɪ l ɛ n æ w ɾ o z e 
[48.205]
<no-speech> 
[50.125]
<int> h ɑ 
[53.235]
<no-speech> 
[55.055]
ʧ ɪ 
[55.745]
<no-speech> 
[56.975]
g ɑ z ɪ p ɑ ʃ ɑ j æ 
[58.195]
<no-speech> 
[60.025]
<int> ʧ ɪ d ɪ ɾ u m ɑ m ɪ n g æ l k e q æ n ʤ æ 
[65.855]
<no-speech> 
[68.435]
k ɑ b ɪ ʃ t æ x ɪ l ɛ 
[70.005]
<no-speech> 
[71.405]
<no-speech> 
[72.335]
<no-speech> 
[73.615]
n æ w ɾ o z e 
[74.505]
<no-speech> 
[75.465]
<int> m ɑ l ɑ w æ l ɪ l ɪ k ʊ j æ 
[77.715]
<no-speech> 
[79.995]
<int> <laugh> i ʒ ɑ ɾ b e ʒ æ 
[86.825]
<no-speech> 
[87.695]
<int> n æ w ɾ o z t ʊ d ɪ r i q ɑ ʧ ɪ n ʤ i s ɪ n ɪ f e 
[97.105]
<no-speech> 
[98.945]
n ɑ <laugh> 
[100.145]
<no-speech> 
[101.785]
n ɑ v e m ɑ m e t æ ʧ ɪ j æ <laugh> 
[104.625]
<no-speech> 
[106.055]
k e ɑ n ɑ v e m ɑ m e m ɪ n ʤ æ m i l æ k e j æ 
[116.215]
<no-speech> 
[117.205]
<laugh> d æ b ɪ ʃ t æ x ɪ l b ɪ ʃ t æ x ɪ l n æ w ɾ o z e 
[125.995]
<no-speech> 
[126.915]
<hes> n ɑ v e x w æ <hes> m ɪ z g i n e m ɪ z g i n e d ɪ r e q ɑ ʧ ɪ n ʤ i s ɪ n ɪ f e 
[137.615]
<no-speech> 
[138.725]
d ɪ ɾ ɪ m <hes> d ɪ ɾ ɪ m d æ b e ʒ æ 
[148.015]
<no-speech> 
[149.715]
<no-speech> 
[151.835]
<no-speech> 
[153.195]
<hes> ʧ ɪ b e ʒ ɪ m <hes> 
[164.495]
ɑ m ɪ n ʒ ɪ ɑ m ɪ n ʒ ɪ h æ m i b æ ʃ b u n m ɪ n t æ q d i ɾ ɑ n i ɑ m ɪ z g i n e ʧ ɪ l o b u ʧ ɪ ʧ ɪ ɑ n i m ɪ z g i n e 
[176.405]
<no-speech> 
[177.615]
t ɪ ʃ t æ k n æ ɑ n i 
[180.605]
<no-speech> 
[181.965]
t ʊ n ɪ z ɑ n ɛ 
[182.935]
<no-speech> 
[184.365]
<hes> 
[188.435]
<no-speech> 
[189.975]
ʧ ɪ b u n æ w ɾ o z 
[193.685]
<no-speech> 
[194.895]
æ z æ z l ɪ m ɑ l ɪ m 
[197.475]
<no-speech> 
[200.205]
<no-speech> 
[200.585]
<no-speech> 
[201.505]
<hes> 
[204.075]
<no-speech> 
[205.425]
k ɑ æ z e b e m ʧ ɪ <hes> ʧ ɑ w ɑ j i 
[211.465]
<no-speech> 
[213.205]
t ʊ g e ʒ n æ b u j i p ɪ ʧ u k i <laugh> w æ l æ h j e m ɪ n p ɪ ʧ u k i s æ ɾ e m ɪ n g e ʒ b u 
[222.015]
<no-speech> 
[223.525]
b ɑ t æ j æ 
[227.995]
<no-speech> 
[229.675]
<laugh> <hes> 
[233.515]
<no-speech> 
[236.405]
m ɑ t æ m ɑ t i k ɑ m ɪ n b e ʃ æ <laugh> 
[240.245]
<no-speech> 
[243.275]
<hes> 
[245.055]
<no-speech> 
[247.655]
<no-speech> 
[248.365]
<no-speech> 
[249.935]
h e 
[251.105]
<no-speech> 
[253.765]
ʧ ɪ 
[254.575]
<no-speech> 
[257.235]
k ɑ t ʊ b e ʒ æ 
[260.585]
<no-speech> 
[262.705]
q ɑ ʧ æ 
[265.385]
<no-speech> 
[267.975]
b e ʃ æ b ɑ ʃ b ɑ ʃ 
[271.645]
<no-speech> 
[272.695]
<hes> ɑ m ɪ n ʒ ɪ b e ʃ b u 
[278.525]
<no-speech> 
[279.395]
<no-speech> 
[280.555]
<no-speech> 
[282.385]
<no-speech> 
[283.065]
<no-speech> 
[286.175]
<no-speech> 
[287.145]
<no-speech> 
[290.695]
<no-speech> 
[291.495]
<no-speech> 
[293.545]

[295.155]
<no-speech> 
[296.205]
<no-speech> 
[296.805]
<no-speech> 
[298.545]
<no-speech> 
[299.335]
<no-speech> 
[299.780]
