[0.000]
<no-speech> 
[0.665]
<no-speech> 
[1.305]
<no-speech> 
[3.635]
æ l o f ɑ t m ɑ 
[4.685]
<no-speech> 
[9.065]
ʧ ɪ d i k e <int> 
[10.125]
<no-speech> 
[11.895]
e 
[12.915]
<no-speech> 
[15.385]
k ʊ ɾ t ʧ æ b ɪ ʃ t æ x ɪ l ɛ k ʊ ɾ m ɑ n ʤ i b ɪ p ɛ j ɪ v ɛ b ɪ ʃ t æ x ɪ l ɛ 
[18.675]
<no-speech> 
[20.145]
<int> k ʊ ɾ m ɑ n ʤ i b ɪ p ɛ j ɪ v ɛ b ɪ ʃ t æ x ɪ l ɛ d u v r æ æ z e ʒ ɪ t æ r æ t ɪ ʃ t æ k i b e ʒ ɪ m 
[22.275]
<no-speech> 
[23.845]
ħ æ 
[24.475]
<no-speech> 
[27.065]
ʧ ɪ d i k e 
[27.735]
<no-speech> 
[30.395]
<no-speech> 
[31.595]
<no-speech> 
[33.135]
<int> m ɑ t ʊ j e n ɪ h ɑ h æ ɾ i 
[34.955]
<no-speech> 
[40.565]
æ ʧ æ n d æ d æ ɾ d ɪ k æ v e 
[42.945]
<no-speech> 
[45.875]
<int> n ɑ æ z l ɪ m ɑ l e m æ 
[47.465]
<no-speech> 
[53.145]
j ɑ w æ w h æ v ɑ l ɑ m ɪ n e t ʊ b ɪ ʃ t æ x ɪ l ɛ d æ ħ d æ q i q æ b ɪ ʃ t æ x ɪ l ɛ z ɑ t æ n j e b e g ɪ ɾ t ɪ n 
[60.375]
<no-speech> 
[61.215]
ʒ ɪ x w æ ʒ ɪ x w æ m ɪ n g o t k ɑ b e t ʊ ʧ ɪ d i k e t ʊ b ɑ ʃ i <no-speech> t ʊ l ɪ m ɪ n n ɑ g æ ɾ i 
[65.605]
<no-speech> 
[72.295]
æ ɾ e d æ k ɑ <laugh> t ɪ ɾ e ʒ i l ɪ b ɑ t æ j e 
[81.345]
<no-speech> 
[85.835]
æ z u h æ v ɑ l ɑ x w æ n æ t æ m ɑ m d ɪ ɾ e ʒ n æ k ɛ 
[92.555]
<no-speech> 
[94.305]
æ ɾ e æ ɾ e v ɑ j e æ z e l ɪ t æ b ɪ g æ ɾ ɪ m 
[95.745]
<no-speech> 
[98.545]
<no-speech> 
[100.035]
<no-speech> 
[101.475]
æ d ɪ j ɑ m ɪ n æ w ʒ i ʧ u n æ g ʊ n d z ɑ t æ n i ɾ o ʒ 
[103.665]
<no-speech> 
[104.485]
<no-speech> 
[105.555]
<no-speech> 
[106.395]
<int> j ɑ n ɑ s æ k ɪ n i m æ m ɪ ɾ ɪ j æ j ɑ m ɪ n ʒ ɪ t æ r æ g o t ɪ n 
[111.215]
<no-speech> 
[115.295]
ɑ p e p i ɾ ɪ k ɑ m ɪ n m ɪ ɾ 
[116.655]
<no-speech> 
[119.215]
i ʃ t æ ʒ ɪ b æ ɾ w ɪ l o ʧ u 
[120.345]
<no-speech> 
[123.315]
<no-speech> 
[123.675]
<no-speech> 
[124.795]
s ɑ z b e i ʒ ɑ ɾ b ɑ v e m ɪ n d o h ʧ u b u z ɑ t æ n e v ɑ ɾ e h ɑ t 
[128.115]
<no-speech> 
[129.375]
i ɾ o ʒ d i s ɑ ʧ u n <oov> 
[130.825]
<no-speech> 
[132.005]
j e w æ ʒ i ʧ u n d o h p i ɾ ɪ k ɑ m ɪ n ʧ u z ɑ t æ n i ɾ o ʒ d o h w ɪ ɾ b u i ɾ o ʒ n æ h ɑ t j ɑ n i n ɪ z ɑ n ɪ m 
[137.115]
<no-speech> 
[139.705]
<no-speech> 
[140.245]
<no-speech> 
[142.065]
æ ɾ e æ m d ɪ h æ ɾ ɪ n d æ ɾ s ɑ n e z ɑ t æ n ʤ u m ɑ ɾ t æ s i p ɑ z ɑ ɾ v æ b u 
[145.285]
<no-speech> 
[146.465]
æ m ʧ u n u ɑ ɾ t ɪ q i ɾ o ʒ æ z n æ ʧ u m 
[149.195]
<no-speech> 
[153.065]
<int> æ ɾ e f ɑ t m ɑ w ɪ l o j æ æ w ɑ 
[157.115]
<no-speech> 
[157.995]
<sta> w æ l æ h b ɪ ʃ t æ x ɪ l ɛ b ɪ ʃ t æ x ɪ l ɛ ʧ ɪ b u 
[169.125]
ʧ ɪ b u 
[172.635]
<no-speech> 
[173.465]
<no-speech> 
[173.815]
<no-speech> 
[176.395]
<no-speech> 
[176.855]
<no-speech> 
[177.875]
k i ħ ɑ t æ m ɑ l e 
[179.695]
<no-speech> 
[183.685]
ʧ ɪ b u 
[184.415]
<no-speech> 
[191.445]
n ɪ h ɑ n æ g ɪ ɾ ɛ b ɪ s æ k ɪ n ɪ n æ w ʒ ɪ b æ ɾ x w æ t e g ɪ ɾ t ɪ n <no-speech> n æ g ɪ ɾ ɛ n æ g ɪ ɾ ɛ 
[195.935]
<no-speech> 
[197.335]
n æ g ɪ ɾ ɛ ʒ ɪ b æ ɾ x w æ t e g ɪ ɾ t ɪ n j ɑ w n æ g ɪ ɾ ɛ t æ m ɑ m b ɪ ʃ t æ x ɪ l ɪ n w ɪ l o b ɪ ʃ t æ x ɪ l ɪ n ʒ ɪ x w æ r ɑ w æ ɾ æ g ɪ ɾ t ɪ n b ɪ ʃ æ ɾ q i k e ʒ ɪ m ɪ n r æ <oov> 
[209.285]
<no-speech> 
[209.735]
<no-speech> 
[210.625]
k ʊ ɾ m ɑ n ʤ i b ɪ p ɛ j ɪ v ɛ 
[211.345]
<no-speech> 
[213.625]
n æ g ɪ ɾ ɛ h ɑ n e t ʊ b ɪ g ɪ ɾ æ æ z n æ m ɑ b ɪ t æ r æ d ɪ ʃ t æ x ɪ l ɪ m 
[215.555]
<no-speech> 
[216.715]
<no-speech> 
[217.125]
<no-speech> 
[219.055]
f ɑ t m ɑ 
[219.755]
<no-speech> 
[223.345]
f ɑ t m ɑ 
[224.655]
<no-speech> 
[228.435]
t æ m ɑ m t æ m ɑ m t ʊ x w æ u b ɪ ʃ t æ x ɪ l ɛ ʒ i d ɪ b æ ɾ æ j ɑ w 
[231.425]
<no-speech> 
[238.655]
n ɪ z ɑ n ɪ m v ɑ r o ʒ ɑ n d ɪ g æ l æ k æ z g æ l æ k i d ɪ ʃ t æ x ɪ l ɪ m <laugh> 
[241.405]
<no-speech> 
[242.265]
æ z g æ l æ k i s o ɾ i j ɑ d ɪ b e ʒ ɪ m 
[244.335]
<no-speech> 
[245.365]
n ɑ l e 
[246.495]
<no-speech> 
[248.665]
h ɑ 
[250.605]
<no-speech> 
[254.455]
e g o t i j æ ʧ ɪ m ɑ j e b e d æ ɾ s x ɑ n e j e b e ʧ ɪ 
[256.275]
<no-speech> 
[257.705]
<int> ɪ m æ z ʧ u m b ɑ m ɪ ʕ æ l ɪ m e r æ h b æ ɾ l i k ʧ i z ɑ t æ n g o t g o t t ʊ b ɑ ɾ ɑ ʒ e ɑ ʃ m i ʃ b ɪ k e t ʊ s ʊ p æ ɾ i <laugh> u k æ s i ʧ e n æ k ɪ ɾ i j ɛ j ɑ n i ɑ m ɑ d ɪ g o t z o ɾ æ 
[267.935]
<no-speech> 
[270.525]
t æ æ w x w æ ʃ ʒ ɪ m ɪ n r æ n æ g o t t æ g o t æ v 
[271.905]
<no-speech> 
[273.455]
f ɑ t i m ɑ 
[275.075]
<no-speech> 
[277.965]
j ɑ t æ b ɑ ʃ b u j ɑ n i w æ k t æ ʒ ɪ m ɪ n r æ g o t w ɪ l o b u 
[279.895]
<no-speech> 
[283.395]
t æ ʧ æ n d n æ t d æ ɾ x ɪ s t ɪ b u 
[284.685]
<no-speech> 
[290.305]
ɑ ɾ æ m ɪ n z ɑ n ɑ t æ ʧ ɪ q ɑ s d æ ɾ x ɪ s t i j æ 
[292.215]
<no-speech> 
[293.435]
z ɑ n ɪ b æ i ɾ ɑ n e ʧ æ n d n æ t <oov> 
[294.795]
<no-speech> 
[295.595]
d ɑ h ɑ d o x ɾ ʊ s ʊ d o x ɾ u j ʊ z o n d o x ɾ u ʧ ɪ x ɑ ɾ t m i ʃ j ʊ z o n 
[299.795]
<no-speech> 
[301.065]
d o x ɾ u h ɑ n æ t d æ j ɨ l <no-speech> d o x ɾ u ħ æ <cough> æ ɾ e w ɪ l o 
[307.685]
<no-speech> 
[309.465]
t ʊ ʃ ɪ x ʊ l i 
[310.285]
<no-speech> 
[313.035]
w ɑ m ɪ n t æ f æ h m n æ k ɪ ɾ h ɑ 
[316.865]
<no-speech> 
[320.405]
<sta> j ʊ z o n s æ d u d æ ħ æ ɾ e d o x ɾ u ɑ m ɑ h ɑ n æ n æ d e w i n æ 
[328.785]
<no-speech> 
[329.755]
æ ɾ e l e æ w ʒ i ʧ ɑ v e w i l ɪ <oov> j æ w æ k b i ɾ e w i 
[333.705]
<no-speech> 
[334.765]
n æ g ɪ ɾ ɛ h ɑ 
[335.675]
<no-speech> 
[336.605]
<no-speech> 
[338.725]
<no-speech> 
[340.985]
t æ m ɑ m b æ ɾ b ɪ w i ʧ ɑ x i k ʊ ɾ m ɑ n ʤ i b ɪ p ɛ j ɪ v ɛ ʒ i ʒ ɪ x w æ r ɑ x w æ 
[343.855]
<no-speech> 
[345.895]
t æ m ɑ m <int> 
[347.935]
<no-speech> 
[350.645]
k æ ʧ e m ɪ n d i n l æ m i ʃ b ɪ k æ j ɑ m ɪ n b ɪ k æ 
[352.965]
<no-speech> 
[354.325]
<no-speech> 
[354.675]
<no-speech> 
[355.605]
æ z e e v ɑ ɾ e ʒ ɪ t æ r æ b e ʒ ɪ m z ɑ t æ n t æ m ɑ m 
[357.345]
<no-speech> 
[361.365]
d æ h ɑ j d i ʒ ɪ m ɪ n r æ ʃ æ ɾ q ɪ k æ k ʊ ɾ m ɑ n ʤ i b ɪ p ɛ j ɪ v ɛ b e ʒ æ 
[363.595]
<no-speech> 
[367.785]
d æ h ɑ j d i 
[368.505]
<no-speech> 
[371.065]
<no-speech> 
[371.905]
<no-speech> 
[372.945]
<int> ʧ ɪ b u <int> 
[376.395]
<no-speech> 
[377.285]
<int> s ɑ æ t ʧ æ n d æ <int> 
[378.335]
<no-speech> 
[379.255]
<no-speech> 
[379.875]
<no-speech> 
[381.885]
æ l o 
[382.535]
<no-speech> 
[389.765]
<no-speech> 
[390.385]
<no-speech> 
[393.615]
<no-speech> 
[394.095]
<no-speech> 
[395.005]
<no-speech> 
[397.645]
<no-speech> 
[398.655]
æ m x w æ d ɪ k ɪ n 
[399.775]
<no-speech> 
[404.915]
d æ m ɑ b u ʧ ɪ 
[405.915]
<no-speech> 
[409.935]
ħ æ 
[410.555]
<no-speech> 
[413.105]
d æ b e ʒ æ b e ʒ æ h ɪ n d ɪ k m ɑ d æ 
[414.535]
<no-speech> 
[417.425]
<no-speech> 
[417.935]
<no-speech> 
[426.105]
f ɑ t m ɑ 
[426.875]
<no-speech> 
[431.105]
d æ b ɪ ʃ t æ x ɪ l ɛ t ʊ ʧ ɪ d i k e 
[432.615]
<no-speech> 
[434.955]
m ɪ n <oov> m ɪ n ʒ ɪ t æ r æ g o t ʧ ɪ m ɪ n g o t x w æ l ɪ x w æ b ɪ k æ u ʒ ɪ m ɪ n r æ ʃ æ ɾ q ɪ k æ k ʊ ɾ m ɑ n ʤ i b ɪ p ɛ j ɪ v ɛ b e ʒ æ h ɑ j d e 
[438.665]
<no-speech> 
[442.515]
m ɪ n g o t k i æ t æ k e x w æ l ɪ x w æ b ɪ k æ u ʒ ɪ m ɪ n r æ ʃ æ ɾ q ɪ k æ b e ʒ æ 
[445.125]
<no-speech> 
[447.175]
<no-speech> 
[448.155]
<no-speech> 
[449.175]
<no-speech> 
[449.725]
<no-speech> 
[451.835]
t æ m ɪ n ɑ ʤ ɪ z k ɪ ɾ h ɑ 
[453.035]
<no-speech> 
[456.485]
t ʊ n æ d i k æ s æ k i e d i d ɑ h ɑ ɑ ɾ t ɪ q t æ n e b ɪ ʃ t æ x ɪ l ɛ b ɪ m ɪ n r æ 
[458.445]
<no-speech> 
[462.735]
<no-speech> 
[464.125]
<no-speech> 
[473.345]
<no-speech> 
[474.155]
<no-speech> 
[482.655]
ħ æ 
[484.125]
<no-speech> 
[484.955]
t e m æ z b e m 
[485.995]
<no-speech> 
[488.335]
ʧ ɪ m ɪ n f æ h m n æ k ɪ ɾ 
[489.295]
<no-speech> 
[492.815]
h ɑ b e ʒ æ 
[493.735]
<no-speech> 
[497.905]
f ɑ t m ɑ 
[498.615]
<no-speech> 
[502.395]
t æ g o t ʧ ɪ m ɪ n f æ h m n æ k ɪ ɾ 
[503.685]
<no-speech> 
[511.205]
m æ k t æ b ɑ m ɪ n ʒ i b ɑ ʃ æ i ɾ o ʒ ʒ i æ m k æ t ɪ n s ɪ n ɑ v e d æ æ m d æ ɾ k æ t ɪ n m ɪ ʕ æ l ɨ m d ɪ b e ʒ i z ɑ t æ n <int> 
[515.595]
<no-speech> 
[517.705]
<no-speech> 
[518.485]
<no-speech> 
[519.395]
æ ɾ e m ɑ m ɪ n t ɪ ʃ t æ k i p e ʃ m æ n æ k ɪ ɾ ɪ n æ k i <int> æ w ʒ ɪ m æ r æ ʤ æ w ɑ b ɑ n d ɪ b e ʒ æ ɑ m ɑ s æ ʧ ɑ ɾ ɛ j ɛ k e m æ h ɪ ʃ t ɪ n m æ ʒ ɪ x w æ r ɑ ʧ e k ɪ ɾ ɪ n <int> u i n e ʒ i æ z k æ t ɪ m æ s ɪ n ɑ v e z ɑ t æ n æ w ʒ i h ɪ n æ k g o t ɪ n <int> m æ ʧ e k ɪ ɾ ɪ n h æ ɾ j æ k e 
[531.325]
d o h 
[531.705]
<no-speech> 
[533.065]
w ɪ l o <int> ɑ ɾ t ɪ q d æ n æ m e m æ ʧ e b æ m æ k t æ b e m æ <int> 
[539.295]
<no-speech> 
[541.335]
t ʊ d ɪ d i z ɑ ɾ o k ɑ n h i n ɑ <int> 
[543.155]
<no-speech> 
[546.345]
d ɪ d ɪ n ɛ z ɑ ɾ o k ɑ n 
[547.635]
<no-speech> 
[549.975]
t æ s t t æ s t 
[551.225]
<no-speech> 
[552.715]
m i ɾ z ɑ ʒ i ʧ u j æ <int> ʧ u j æ g ʊ n d 
[554.685]
<no-speech> 
[555.705]
ʧ ɪ l o n æ j ɑ ɾ ɑ m ɑ z l ɪ x e d ɪ k ɪ n 
[557.445]
<no-speech> 
[563.095]
t ʊ n ɑ k i h æ z ʒ ɪ w ɑ n d ɪ k i 
[565.065]
<no-speech> 
[569.385]
ʒ ɪ w æ ɾ æ ʃ æ ɾ q ɪ j ɑ n d ɪ b e ʒ æ 
[570.615]
<no-speech> 
[573.555]
<no-speech> 
[574.885]
<no-speech> 
[576.035]
n æ g ɪ ɾ ɛ h ɑ 
[577.085]
<no-speech> 
[577.965]
t ʊ n æ g ɪ ɾ ɛ n æ g ɪ ɾ ɛ b ɪ s æ k ɪ n æ l ɑ w o d ʊ d æ q ɛ j e n d i n ʒ i b ɪ s æ k ɪ n æ 
[581.505]
<no-speech> 
[582.985]
t ʊ n æ g ɪ ɾ ɛ h ɑ m i n æ h ɑ <int> s e d æ q s e d æ q ɛ j e n d i n b ɪ ʃ t æ x ɪ l ɛ 
[587.365]
<no-speech> 
[589.405]
t æ m ɑ m 
[590.045]
<no-speech> 
[593.545]
b ɪ n e ɾ æ z <hes> æ z ħ ɛ j ɑ t e d æ n æ m ɑ b ɪ t æ r æ d ɪ ʃ t æ x ɪ l ɪ m t ʊ m ɪ n z ɑ n ɑ 
[597.575]
<no-speech> 
[598.515]
<no-speech> 
[599.115]
<no-speech> 
[600.100]
