[0.000]
<no-speech> 
[7.485]
æ l o 
[8.175]
<no-speech> 
[10.985]
æ l o 
[11.765]
<no-speech> 
[16.885]
d æ n g e t æ t e t ɪ n 
[18.875]
<no-speech> 
[20.375]
æ l o 
[20.955]
<no-speech> 
[24.215]
b ɑ ʃ æ k ʊ r o æ w <laugh> 
[27.115]
<no-speech> 
[28.295]
k ʊ r o o ɾ h ɑ n 
[29.465]
<no-speech> 
[32.525]
d æ n g e t æ t e t 
[33.645]
<no-speech> 
[37.025]
<no-speech> 
[37.455]
<no-speech> 
[38.255]
s ɑ x o l ɑ s ɪ n ʧ ɑ w ɑ n i b ɑ ʃ i 
[41.295]
<no-speech> 
[42.195]
k ʊ t d i k e 
[43.175]
<no-speech> 
[44.385]
r æ w ʃ ɑ t æ ʧ ɑ w ɑ n æ 
[45.945]
<no-speech> 
[51.915]
d æ b ɑ ʃ æ æ z ʒ i n ɪ h ɑ <hes> m ɑ l ɪ m r u n ɪ ʃ t ɪ m æ ʧ ɑ j v æ d ɪ x w ɪ m 
[59.795]
<no-speech> 
[62.995]
t ʊ k ʊ t d i k e 
[64.395]
<no-speech> 
[68.165]
w ɑ 
[68.985]
<no-speech> 
[73.155]
<no-speech> 
[74.145]
<no-speech> 
[75.435]
<no-speech> 
[78.315]
<no-speech> 
[79.155]
æ z ʒ i b ɑ ʃ ɪ m s p ɑ s ɪ j ɑ t æ d ɪ k ɪ m 
[82.045]
<no-speech> 
[85.555]
b ɪ r ɑ s t i b ɑ w æ ɾ i æ w æ k i m æ k t æ b x w æ ʃ d i t ɪ n 
[89.745]
<no-speech> 
[90.925]
<hes> b æ l e h æ m b ɑ ʃ n i n ɛ 
[94.145]
<no-speech> 
[95.485]
<no-speech> 
[96.355]
<no-speech> 
[102.725]
ħ æ ħ æ g ʊ h d ɑ ɾ i d ɪ k ɪ m 
[104.335]
<no-speech> 
[105.665]
ħ æ ħ æ 
[106.525]
<no-speech> 
[109.055]
ħ æ 
[109.665]
<no-speech> 
[110.945]
h e n ɑ b ɪ r ɑ s t i b ɑ ʃ æ j ɑ n i r æ w ʃ ɑ d æ ɾ s e m ɪ n b ɑ ʃ æ w æ l ɑ h i æ w æ k i s æ ɾ k æ f t ɪ n ɑ m æ k t æ b ɑ m ɪ n <hes> 
[122.735]
b ɪ r ɑ s t i g æ l æ k b ɑ ʃ d i t ɪ n 
[126.025]
<no-speech> 
[129.415]
f æ ɾ m o 
[130.805]
<no-speech> 
[141.705]
<hes> r ɑ s t i æ w æ k i o ɾ h ɑ n t ʊ m ɪ ɾ o v æ k x w æ n d ɑ w ɑ ɾ i <hes> 
[148.235]
<no-speech> 
[149.045]
t ʊ k ʊ t d i k e <laugh> 
[150.125]
<no-speech> 
[155.955]
<no-speech> 
[156.355]
<no-speech> 
[158.665]

[159.205]
<no-speech> 
[163.025]
<hes> s ɑ l ɑ b æ l e s ɑ l æ k s ɑ l æ k e m æ k t æ b u z ɑ m i ʃ b ɪ <laugh> 
[173.295]
<no-speech> 
[174.465]
d ɪ ɾ e ʒ b u 
[175.795]
<no-speech> 
[178.965]

[181.195]
<no-speech> 
[184.925]
j ɑ r ɑ s t ʧ ɪ f t n ɑ d ʊ b ɑ ɾ æ j æ d ʊ b ɑ ɾ æ 
[191.095]
<no-speech> 
[195.965]
ħ æ ħ æ r ɑ s t r ɑ s t 
[197.295]
<no-speech> 
[201.585]
æ v i n h ɛ j æ 
[202.835]
<no-speech> 
[203.935]
n ɑ æ v i n h ɛ j æ m ɪ n æ ʃ q h ɛ j æ æ v i n ɑ m ɪ n b ɪ r ɑ s t i g æ l e l ɑ w æ 
[209.295]
<no-speech> 
[214.785]
æ ɾ e w æ l æ h æ v i n ɑ t æ h ɛ j æ j ɑ n 
[216.855]
<no-speech> 
[222.375]
æ z s p ɑ s ɪ j ɑ t æ d ɪ k ɪ m h æ v ɑ l e o ɾ h ɑ n b ɑ w æ ɾ i j ɑ m ɪ n æ w æ t ʊ ʒ i s æ v g ɪ l i j ɑ x w æ 
[229.465]
<no-speech> 
[231.855]
e b e ʒ æ b e ʒ æ f æ ɾ m o b e ʒ æ 
[233.795]
<no-speech> 
[239.910]
<no-speech> 
[246.025]
j ɑ 
[247.265]
<no-speech> 
[253.075]
<hes> x æ m g i n i b ɪ r ɑ s t i g æ l æ k g æ l æ k t ɪ ʃ t æ k i z o ɾ æ 
[258.665]
<no-speech> 
[260.115]
h ɛ j æ ħ æ ħ æ d i k e 
[262.705]
<no-speech> 
[264.735]
<hes> f æ ɾ m o 
[268.405]
<no-speech> 
[270.315]
d i ɾ o k ɑ <hes> 
[272.175]
<no-speech> 
[274.515]
m ɑ l ɑ ħ æ h æ v ɑ l e m æ m ɑ l r u n ɪ ʃ t i n æ x w ɛ r æ r u n ɪ ʃ t i n æ ʧ ɑ j v æ d ɪ x w ɪ n ʃ ɑ q ɑ l ɑ ʃ ɪ j o ɾ ʊ z 
[284.105]
<no-speech> 
[287.735]
æ l o 
[288.365]
<no-speech> 
[292.735]
x æ ɾ i b i g æ l æ k z o ɾ æ b i h n ɑ m ɪ n n ɑ j e 
[296.615]
<no-speech> 
[299.755]
æ l o 
[300.435]
<no-speech> 
[303.345]
k ʊ r o æ z x æ ɾ i b i m æ æ z g æ l æ k x æ ɾ i b i m æ 
[306.525]
<no-speech> 
[308.755]
<no-speech> 
[309.115]
<no-speech> 
[310.805]
h ɑ k ɑ t æ ʤ ɑ r ɪ h æ t 
[313.555]
<no-speech> 
[315.665]

[320.255]
<no-speech> 
[325.305]
n ɑ t ʊ j e k æ n g i x ɪ l ɑ s b ɪ k i x w æ 
[327.755]
<no-speech> 
[329.205]
k ʊ r o ɪ s m ɑ i l t ʊ ʒ i d i t 
[332.205]
<no-speech> 
[333.855]

[337.195]
<no-speech> 
[338.985]
h ɑ b e ʒ æ 
[342.845]
<no-speech> 
[345.865]
k ʊ t k ɪ ɾ 
[346.535]
<no-speech> 
[357.445]
<hes> i ʒ ɑ ɾ t æ n ɑ b i n ɪ n t æ 
[359.215]
<no-speech> 
[364.275]
<no-speech> 
[364.655]
<no-speech> 
[366.535]
æ ɾ e æ z d ɪ t ɪ ɾ s ɪ m b ɪ k æ v ɪ n ɛ w ɑ l i 
[369.455]
<no-speech> 
[373.575]
<no-speech> 
[373.955]
<no-speech> 
[376.065]
h ɪ q u q k ɑ ɾ i j æ 
[379.115]
<no-speech> 
[383.545]
<no-speech> 
[383.935]
<no-speech> 
[384.875]
æ ɾ e d ʊ h æ v ɑ l e d ɪ n e m ɪ n r ɑ s t d ɪ b ɪ n 
[388.375]
<no-speech> 
[391.555]
e m ɑ n æ x ɪ l ɑ s b u m ɑ æ v ɑ ʧ ɪ j æ 
[394.175]
<no-speech> 
[400.555]
ʧ æ n d d æ q æ m ɑ j æ 
[401.535]
<no-speech> 
[403.685]
w æ l æ h k ʊ w æ k i d æ m æ k æ x w æ ʃ ɪ k h æ b u j ɑ g o t ɪ n ɑ x w æ g o t ɪ b ɑ t æ 
[410.845]
<no-speech> 
[413.175]

[413.695]
<no-speech> 
[416.755]
d o s t ɪ m d ɪ b e ʒ æ t æ 
[418.535]
<no-speech> 
[422.555]
æ z æ z e h æ ɾ ɪ m ʤ æ m x w æ d ʊ s ɑ ʕ æ t ɑ k ʊ ɾ d i j ɑ x w æ b ɪ ɑ x ɪ v æ 
[428.355]
<no-speech> 
[431.015]
k ʊ r o æ m k ɑ ʧ ɪ j æ j ɑ w 
[433.305]
<no-speech> 
[434.285]
k ʊ r o o ɾ h ɑ n 
[435.115]
<no-speech> 
[436.155]
k ʊ r o b æ ʃ i k t ɑ ʃ k ʊ p ɑ ʧ u j æ b ɪ b ɪ m ɛ b æ ʃ i k t ɑ ʃ 
[438.295]
<no-speech> 
[439.605]
t æ f o ʃ æ ɾ m æ 
[440.545]
<no-speech> 
[442.605]
k ʊ r o æ w e u ʧ i k i s o d æ q i q æ g o l d ɪ x w æ 
[445.775]
<no-speech> 
[447.365]
ħ æ ħ æ 
[448.115]
<no-speech> 
[450.475]
g o l x w æ d e æ z n ɪ z ɑ n ɪ m w e f æ n æ ɾ e u s ɑ m s u n 
[454.385]
<no-speech> 
[456.265]
b æ ʃ i k t ɑ ʃ e g e ʧ 
[458.415]
<no-speech> 
[459.235]
k ʊ r o o ɾ h ɑ n ʤ ɑ m ɪ n d ɪ g æ ɾ ɪ n o ɾ h ɑ n 
[464.105]
<no-speech> 
[465.635]
t ʊ j e k æ n g i x ɪ l ɑ s b ɪ 
[466.805]
<no-speech> 
[468.385]
h ɑ 
[469.035]
<no-speech> 
[472.215]
ʧ æ n d d æ q æ m ɑ j æ 
[473.435]
<no-speech> 
[474.835]
k ʊ r o ʧ æ n d d æ q æ m ɑ j æ ʧ æ n d d æ q æ m ɑ j æ 
[476.695]
<no-speech> 
[478.465]
ʧ æ n d d æ q æ m ɑ 
[479.405]
<no-speech> 
[483.785]
k ʊ r o x w æ d e æ ʤ æ l æ m æ h ɛ j æ 
[485.775]
<no-speech> 
[491.385]
æ ɾ e 
[492.075]
<no-speech> 
[494.685]
k ʊ r o d o s t o t æ m ɑ m t æ m ɑ m s e d æ q æ h ɛ j æ x æ b æ ɾ d æ <laugh> k ʊ r o k ɑ n k ɑ 
[502.865]
<no-speech> 
[505.285]
æ l o 
[505.945]
<no-speech> 
[507.105]
t æ n i h o 
[507.845]
<no-speech> 
[509.215]
m ɪ n e ʧ ɪ b ɪ g o t ɑ t æ t æ q ɑ d o q æ t d i t 
[511.375]
<no-speech> 
[515.365]
æ l o 
[516.775]
<no-speech> 
[518.715]
æ l o 
[519.475]
<no-speech> 
[521.655]
o ɾ h ɑ n t æ q æ t q ɑ d ɪ ɾ d i t 
[523.115]
<no-speech> 
[525.565]
k ʊ r o 
[526.055]
<no-speech> 
[529.255]
ʧ ɪ d ɪ g o t 
[530.245]
<no-speech> 
[534.405]
<no-speech> 
[534.895]
<no-speech> 
[537.925]
<no-speech> 
[538.335]
<no-speech> 
[543.545]
ħ æ æ l o <int> 
[548.195]
<no-speech> 
[549.485]
d æ n g e t æ t e k ʊ 
[550.835]
<no-speech> 
[552.255]
k ʊ r o m ɪ n h æ w æ r o ʒ e l e g æ ɾ i j ɑ 
[555.875]
<no-speech> 
[556.715]
x w æ d e æ w m ɪ n ʤ æ m t æ d i t t e d ɪ k ɑ n e 
[560.005]
<no-speech> 
[563.375]
w æ l æ h 
[564.925]
<no-speech> 
[567.435]
ħ æ w æ l æ h 
[568.125]
<no-speech> 
[570.435]
æ ɾ e æ ɾ e æ z ʤ o l æ m e ɾ g i n i n ɨ m æ z s ɑ k ɑ ɾ j ɑ j e m æ 
[575.495]
<no-speech> 
[579.115]
<breath> æ ɾ e w æ l æ h 
[580.395]
<no-speech> 
[581.325]
æ z 
[581.855]
<no-speech> 
[582.705]
æ z n ɑ p æ n ʤ æ ɾ æ b ɪ g ɪ h ɪ m e h æ m ɑ 
[585.535]
<no-speech> 
[591.205]
d ɪ d ʊ d ʊ 
[592.255]
<no-speech> 
[594.795]
d ʊ d æ ɾ s ħ æ 
[597.605]
<no-speech> 
[600.180]
