[0.000]
<no-speech> 
[8.092]
<no-speech> 
[16.183]
<no-speech> 
[24.275]
æ l o 
[24.885]
<no-speech> 
[28.805]
t ɪ ʃ t æ k e n ɑ k ɪ m t ʊ ʧ ɪ d i k e <int> 
[31.165]
<no-speech> 
[32.505]
x w æ d e ʒ ɪ t æ d æ r ɑ z i b e 
[34.065]
<no-speech> 
[36.515]
d æ n g e m ɪ n n ɑ j e 
[37.535]
<no-speech> 
[41.875]
d æ n g e m ɪ n n ɑ j e 
[42.925]
<no-speech> 
[46.795]
ħ æ t ʊ b ɑ ʃ d i k e 
[48.155]
<no-speech> 
[53.385]
ħ æ b ɑ ʃ æ b ɑ ʃ h ɪ n d e t ʊ ʧ ɪ d i k e 
[56.245]
<no-speech> 
[58.425]
<no-speech> 
[58.835]
<no-speech> 
[60.265]
æ l o 
[61.125]
<no-speech> 
[62.215]
b ɑ ʃ ɪ m s ɑ x b e t ʊ ʧ ɑ w ɑ j æ 
[63.965]
<no-speech> 
[64.815]
b ɑ ʃ ɪ m b ɑ ʃ 
[66.485]
<no-speech> 
[69.195]
ħ æ x w æ d e ʒ ɪ t æ d æ r ɑ z e b e b ɑ ʃ æ s ɑ x b e 
[72.825]
<no-speech> 
[75.875]
b ɑ ʃ æ b ɑ ʃ 
[77.115]
<no-speech> 
[83.145]
<no-speech> 
[84.435]
<no-speech> 
[85.365]
h u n ʧ ɪ d ɪ k ɪ n 
[86.715]
<no-speech> 
[90.175]
æ z e b æ ɾ i j ɑ t æ d ɪ k ɪ m w æ l æ h 
[92.465]
<no-speech> 
[96.205]
<laugh> h ɪ n d e t ʊ ʧ ɪ d i k e 
[99.185]
<no-speech> 
[101.795]
<no-speech> 
[102.145]
<no-speech> 
[106.045]
w æ l æ h æ z w æ ɾ ɪ m d æ i ʃ e m ɪ n h ɛ j æ 
[108.275]
<no-speech> 
[110.895]
<no-speech> 
[111.245]
<no-speech> 
[114.165]
ħ æ k ɑ ɾ e m ɪ n h ɛ j æ <laugh> 
[115.975]
<no-speech> 
[123.325]
w æ l æ h t ʊ z ɑ n ɑ æ m k i n g ɑ b ɪ ʧ ɪ n 
[125.695]
<no-speech> 
[132.325]
ħ æ æ m b ɑ ʃ k ɪ ɾ æ m b ɪ ʧ ɪ n 
[134.735]
<no-speech> 
[139.625]
e e æ m 
[140.625]
<no-speech> 
[142.045]
ħ æ ħ æ æ m b ɪ ʧ ɪ n h æ s æ n p ɑ ʃ ɑ j e 
[144.095]
<no-speech> 
[147.365]
h ɑ b ɑ ʃ æ b ɑ ʃ 
[149.135]
<no-speech> 
[150.805]
t æ m ɑ m æ z d ɪ p ɪ ɾ s ɪ m 
[152.035]
<no-speech> 
[155.955]
e h ɛ j æ 
[157.215]
<no-speech> 
[163.145]
h e n ɑ e h ɛ j æ h ɛ j æ j e t æ h ɛ j æ 
[166.495]
<no-speech> 
[171.425]
ħ æ b ɪ d æ w e 
[173.075]
<no-speech> 
[177.455]
æ l o 
[178.335]
<no-speech> 
[179.875]
æ f æ n d ɪ m b ɑ ʃ ɪ m s ɑ x b e t ʊ ʧ ɑ w ɑ j æ 
[182.895]
<no-speech> 
[190.255]
ħ æ m ɪ n b ɑ ʃ k ɪ ɾ 
[191.755]
<no-speech> 
[193.345]
<no-speech> 
[193.775]
<no-speech> 
[195.375]
e ʧ ɪ h ɛ j æ ʧ ɪ t æ n e h u n ʧ ɪ d ɪ k ɪ n 
[198.035]
<no-speech> 
[203.125]
h u n ʤ ɪ x ɑ ɾ ɑ d ɪ x w ɪ n 
[204.655]
<no-speech> 
[209.005]
ħ æ b ɑ ʃ æ b ɑ ʃ 
[210.795]
<no-speech> 
[212.645]
t ʊ d ɪ ʧ e m æ k t æ b e 
[214.455]
<no-speech> 
[216.045]
<no-speech> 
[216.395]
<no-speech> 
[220.595]
t ʊ n ɑ ʧ e m æ k t æ b 
[221.915]
<no-speech> 
[226.065]
ʧ ɪ m ɑ 
[227.195]
<no-speech> 
[228.365]
<no-speech> 
[228.715]
<no-speech> 
[229.985]
ħ æ b ɑ ʃ æ b ɑ ʃ t ʊ d ɪ ʧ e ʊ n i v æ ɾ s i t e 
[234.455]
<no-speech> 
[235.745]
<no-speech> 
[236.295]
<no-speech> 
[238.615]
ħ æ b ɑ ʃ æ b ɑ ʃ 
[240.605]
<no-speech> 
[245.255]
ħ æ b ɪ d æ v e 
[247.025]
<no-speech> 
[248.385]
n ɑ n ɑ n æ d æ v e n ɑ 
[250.345]
<no-speech> 
[253.615]
æ l o 
[254.445]
<no-speech> 
[256.235]
h ɑ 
[258.185]
<no-speech> 
[261.355]
æ z b ɑ ʃ ɪ m s ɑ x b e 
[263.105]
<no-speech> 
[264.035]
<no-speech> 
[264.425]
<no-speech> 
[265.335]
n ɑ b æ 
[266.325]
<no-speech> 
[268.335]
<no-speech> 
[268.905]
<no-speech> 
[270.135]
m ɪ n t ɪ ʃ t æ n æ g o t 
[271.865]
<no-speech> 
[272.835]
m ɪ n ʧ ɪ n æ g o t 
[274.565]
<no-speech> 
[276.255]
t ʊ ʧ ɪ d ɪ k ɪ n 
[278.745]
<no-speech> 
[279.655]
æ z x æ b æ ɾ d ɪ d ɪ m d æ n g e m ɪ n d ɪ ʧ æ ʧ ɪ m ɑ 
[282.365]
<no-speech> 
[286.495]
e b ɑ ʃ æ b ɑ ʃ æ b ɑ ʃ h ɑ t 
[288.985]
<no-speech> 
[296.015]
<laugh> b ɪ ɾ ɑ b ɑ ʃ d i k e 
[300.805]
<no-speech> 
[306.265]
b ɪ ɾ ɑ h ɑ æ w ʒ i b ɑ ʃ æ 
[309.225]
<no-speech> 
[312.595]
æ ɾ e 
[313.435]
<no-speech> 
[315.225]
e t ʊ ʧ ɪ d i k e 
[316.545]
<no-speech> 
[319.815]
ħ æ h u n ʤ ɪ x ɑ ɾ ɑ d ɪ x w ɪ n 
[321.945]
<no-speech> 
[323.055]
<no-speech> 
[323.405]
<no-speech> 
[327.115]
h ɪ n d i ʧ ɪ h æ n æ ʧ ɪ t æ n e 
[329.005]
<no-speech> 
[332.095]
m ɪ n g o t h ɪ n d e h u n ʧ ɪ d ɪ k ɪ n 
[333.985]
<no-speech> 
[335.195]
m ɪ n g o t h u n ʧ ɪ d ɪ k ɪ n 
[337.285]
<no-speech> 
[343.735]
h u n ʧ ɪ d ɪ k ɪ n 
[345.125]
<no-speech> 
[349.385]
ħ æ t ʊ 
[350.405]
<no-speech> 
[353.615]
<no-speech> 
[354.725]
<no-speech> 
[355.815]
w æ l æ h h ɪ n d ɑ m ɪ n ʧ ɪ k t æ n e æ z e x æ b æ ɾ d ɪ d ɪ m e 
[363.165]
<no-speech> 
[364.615]
æ l æ j k ʊ m s æ l ɑ m t ʊ d ɪ s ɪ l ɑ v b ɪ k æ 
[367.885]
<no-speech> 
[369.075]
<no-speech> 
[370.065]
<no-speech> 
[371.395]
b i ɾ g ʊ l d ɪ ʧ i d i k e 
[374.285]
<no-speech> 
[378.255]
q æ h w æ b ɪ x w æ ʒ ɪ x w æ r ɑ q æ h w æ b ɪ x w æ 
[383.755]
<no-speech> 
[384.965]
e 
[385.855]
<no-speech> 
[387.535]
ħ æ h u n b ɑ ʃ d ɪ k ɪ n 
[389.625]
<no-speech> 
[393.885]
ħ æ n ɑ v e v e ʧ ɪ j æ 
[395.615]
<no-speech> 
[399.795]
n ɑ v e v e ʧ ɪ j æ 
[401.185]
<no-speech> 
[404.085]
n ɑ v e h æ v ɑ l e t æ 
[405.705]
<no-speech> 
[410.245]
ħ æ b ɑ ʃ æ b ɑ ʃ 
[411.815]
<no-speech> 
[417.065]
e d æ ɾ s e t æ ʧ ɑ w ɑ j æ 
[419.645]
<no-speech> 
[423.005]
d æ ɾ s e t æ ʧ ɑ w ɑ j æ d æ ɾ s 
[425.045]
<no-speech> 
[429.885]
ħ æ t ʊ q ɑ ɾ n æ w e ʧ ɑ w ɑ b u 
[432.565]
<no-speech> 
[434.385]
q ɑ ɾ n ɛ j e t æ ʧ ɑ w ɑ b u 
[435.975]
<no-speech> 
[442.135]
ħ æ b ɑ ʃ æ b ɑ ʃ q ɑ n ʤ æ b o l ʊ m æ 
[446.435]
<no-speech> 
[448.295]
q ɑ n ʤ æ b o l ʊ m æ 
[449.655]
<no-speech> 
[452.155]
q æ n ʤ o 
[453.155]
<no-speech> 
[456.665]
ħ æ b ɑ ʃ æ b ɑ ʃ 
[458.295]
<no-speech> 
[460.035]
e e 
[462.165]
<no-speech> 
[468.945]
b ɪ ɾ ɑ 
[470.025]
<no-speech> 
[473.065]
e e e m æ j m u n æ 
[476.985]
<no-speech> 
[478.335]
<laugh> ħ æ w æ l æ h t ʊ b ɪ ɾ ɑ d ɪ b e ʒ æ 
[483.245]
<no-speech> 
[485.035]
<no-speech> 
[485.395]
<no-speech> 
[488.405]
<no-speech> 
[489.465]
<no-speech> 
[490.295]
t æ j e x æ b æ ɾ b ɪ d æ 
[492.135]
<no-speech> 
[495.855]
æ z ʧ ɪ q ɑ s b ɪ k ɪ m t ʊ ʊ n i v æ ɾ s i t e q ɑ n ʤ æ b o l ʊ m d ɪ x w ɑ z æ 
[499.395]
<no-speech> 
[504.105]
<no-speech> 
[505.135]
<no-speech> 
[508.295]
e b ɑ ʃ æ b ɑ ʃ 
[509.765]
<no-speech> 
[510.635]
h u n n ɑ n x w ɑ ɾ 
[512.015]
<no-speech> 
[514.785]
m ɪ n g o ʃ t h u n n ɑ n x w ɑ ɾ 
[516.875]
<no-speech> 
[519.185]
j e m æ k j e m æ k h u n j e m æ k x w ɑ ɾ 
[522.395]
<no-speech> 
[529.445]
<laugh> ʃ i v æ <laugh> <int> 
[532.665]
<no-speech> 
[539.155]
<no-speech> 
[539.905]
<no-speech> 
[541.595]
ħ æ æ z ʧ ɪ b ɪ k ɪ m æ z t ɑ m n ɪ z ɑ n ɪ m 
[543.905]
<no-speech> 
[545.025]
<no-speech> 
[545.715]
<no-speech> 
[546.555]
<no-speech> 
[548.365]
<no-speech> 
[552.155]
e h æ v d ʊ t ʊ ʧ ɪ d ɪ k i 
[553.965]
<no-speech> 
[555.025]
e 
[556.005]
<no-speech> 
[556.875]
m ɪ n g o t h ɪ n d e t ʊ ʧ ɪ d i k e 
[558.515]
<no-speech> 
[563.735]
<no-speech> 
[564.835]
<no-speech> 
[566.695]
e ʧ ɑ j æ l e x w æ ʃ n i n ɛ k i q ɑ ʧ ɑ x b ɪ x w æ 
[570.855]
<no-speech> 
[573.975]
e b ɪ ɾ ɑ d ɪ b e ʒ æ 
[575.575]
<no-speech> 
[580.695]
<no-speech> 
[582.375]
<no-speech> 
[583.405]
ʃ æ h l ɑ ʧ ɪ d i k e 
[584.965]
<no-speech> 
[592.095]
ħ æ b ɑ ʃ d i k e 
[594.035]
<no-speech> 
[597.045]
d ɪ j ɑ t æ i s æ j i n æ 
[598.575]
<no-speech> 
[599.625]
h ɑ 
[600.255]
<no-speech> 
[601.525]
m ɪ n g o t d ɪ j ɑ t æ i s æ j i n æ b ɑ v e t æ 
[605.095]
<no-speech> 
[613.415]
ħ æ b ɑ ʃ æ b ɑ ʃ 
[614.765]
<no-speech> 
[623.144]
