[0.000]
<no-speech> 
[0.035]
<no-speech> 
[1.155]
<no-speech> 
[1.955]
<no-speech> 
[4.175]
<no-speech> 
[5.065]
<sta> æ f æ n d ɪ m ʤ ɑ n ɪ m 
[7.275]
<no-speech> 
[9.725]
æ l i 
[10.555]
<no-speech> 
[12.595]
o ɾ d ɑ m i s i n 
[13.635]
<no-speech> 
[16.125]
b æ n i n ɪ j ɛ ɑ ɾ ɑ m ɑ d ɪ n b æ n b u n u ɑ n l ɑ m ɑ d ɪ m 
[19.225]
<no-speech> 
[21.795]
æ l i 
[22.545]
<no-speech> 
[23.655]
t æ m ɑ m b ɪ b e ʒ æ <cough> 
[25.795]
<no-speech> 
[27.285]
<oov> b u 
[28.075]
<no-speech> 
[29.555]
t ɪ ʃ t æ k n ɑ k ɪ m <hes> m ɪ n x w æ ħ ɑ z ɪ ɾ k ɪ ɾ æ z e h æ ɾ ɪ m ɛ m æ k t æ b e 
[32.245]
<no-speech> 
[36.195]
h ʊ l j ɑ æ m s ɑ ʕ æ t ɑ m æ h ɑ t æ m t æ v d ɪ ʧ ɪ n h æ k æ h u n h æ ɾ ɪ n 
[40.505]
<no-speech> 
[42.515]
ʧ ɪ k t ʊ b o n ɑ ʧ ɪ b ɪ m i n i h ɑ 
[44.925]
<no-speech> 
[48.875]
<int> w ɑ æ v t æ l æ f o n ɑ t æ j æ 
[50.565]
<no-speech> 
[58.145]
t æ n ɑ n x e ɾ æ t ʊ t e ʤ æ m m ɪ n 
[59.725]
<no-speech> 
[62.255]
t ʊ t æ n e j e n ɪ h ɑ 
[63.215]
<no-speech> 
[64.925]
æ ɾ e æ z b ɑ ʃ ɪ m æ w k ʊ ɾ m ɑ n ʤ i b ɪ p ɛ j ɪ v ɛ ʧ ɪ b u n m ɪ n f æ h m n æ k ɪ ɾ j ɑ w 
[68.935]
<no-speech> 
[77.475]
h ɑ 
[77.995]
<no-speech> 
[81.585]
ɑ n ɪ h ɑ ʧ ɪ k ɪ n p e t ʊ ʧ ɪ m ɑ d ɪ ʃ i n æ æ z w i n ɪ z ɑ n ɪ m 
[84.355]
<no-speech> 
[90.565]
e t æ m ɑ m b ɪ l ɑ b ɪ l ɛ j i z ɛ t ʊ j e e v ɑ ɾ e m ɪ n b ɪ q æ ɾ ɛ 
[92.915]
<no-speech> 
[95.095]
æ l o b ɪ p ɛ j ɪ v ɛ <no-speech> t æ m ɑ m s ɪ b ɑ æ w d ɪ ʧ ɪ n m æ k t æ b e j ɑ h o æ w <oov> s ɪ b ɑ n ɑ j e n ɛ b ɪ ɾ ɑ m æ 
[100.325]
<no-speech> 
[105.205]
k ɑ x e ɾ æ ʧ u n 
[106.345]
<no-speech> 
[111.245]
n ɑ 
[111.735]
<no-speech> 
[112.705]
n ɑ s k e t æ k i 
[113.725]
<no-speech> 
[118.515]
ħ æ e r æ h m ɑ 
[120.815]
<no-speech> 
[121.915]
e r æ h m ɑ x w æ d e l e b e 
[123.505]
<no-speech> 
[126.925]

[127.415]
<no-speech> 
[128.765]
e b e j e m æ ʧ u n j e m æ ʒ i d ɪ ʧ u n 
[130.665]
<no-speech> 
[132.445]
e t æ m ɑ m ʧ u n 
[133.525]
<no-speech> 
[137.605]
e t ʊ d æ m ɑ s ɪ b ɑ d æ ɾ s x ɑ n e w ɪ ɾ e l e b ɪ x æ 
[140.225]
<no-speech> 
[143.165]
h ɑ 
[143.705]
<no-speech> 
[147.025]
<cough> <int> ħ æ 
[149.615]
<no-speech> 
[150.805]
n ɪ z ɑ n ɪ m ʧ ɪ ɾ ɑ d ɪ ʧ æ 
[152.215]
<no-speech> 
[153.245]
<no-speech> 
[153.755]
<no-speech> 
[154.715]
<no-speech> 
[155.075]
<no-speech> 
[156.835]
h ɑ t ʊ t ʊ n æ k ɪ r i 
[159.235]
<no-speech> 
[160.925]
ʧ o q m ʊ j ɑ n l ɪ ʃ 
[165.405]
<no-speech> 
[167.545]

[169.465]
<no-speech> 
[172.365]
n ɑ 
[177.215]
<no-speech> 
[178.835]
<sta> k ɑ d æ s t e t æ ʃ æ w ɪ t ɪ j æ n ɑ l o 
[184.035]
<no-speech> 
[186.355]
t æ m ɑ m 
[190.045]
<no-speech> 
[192.225]
t æ m ɑ m æ z g e ʧ m ɑ m æ 
[193.695]
<no-speech> 
[194.805]
k ʊ r o æ z g æ l æ k i m ɑ m 
[196.085]
<no-speech> 
[197.535]
k ɑ æ m ʒ e r ɑ n ɑ j e m ɛ z ɪ l ɑ m 
[199.055]
<no-speech> 
[201.135]
k ɑ m e æ z n ɑ g ɪ ɾ ɪ m 
[202.335]
<no-speech> 
[203.395]
<no-speech> 
[203.945]
<no-speech> 
[206.595]
<sta> æ ʤ æ l æ m ɪ n h ɛ j æ æ z e h æ ɾ ɪ m ɛ m æ k t æ b e h ɑ d e 
[212.775]
<no-speech> 
[214.805]
<no-speech> 
[215.215]
<no-speech> 
[217.685]
<no-speech> 
[219.365]
<no-speech> 
[221.145]
<no-speech> 
[221.595]
<no-speech> 
[223.775]
<sta> h e h e 
[228.015]
<no-speech> 
[229.975]
<no-speech> 
[230.325]
<no-speech> 
[232.555]
<sta> x e ɾ o t ʊ ʧ ɪ m ɑ m ɪ t f ɑ q ɑ d ɪ ʃ t æ x ɪ l i 
[237.385]
<no-speech> 
[238.925]
t ʊ æ w ɑ x w æ p ɪ ʃ t i 
[240.745]
<no-speech> 
[242.255]
m ɪ n b ɪ s æ k ɪ n æ 
[244.055]
<no-speech> 
[245.485]
t ʊ b ɪ s æ k ɪ n i 
[247.215]
<no-speech> 
[248.185]
<hes> m ɪ ʕ æ l ɪ m e t æ j e d æ ɾ s ɑ n e n æ g o t ɪ n ʧ ɪ 
[252.555]
<no-speech> 
[254.925]
t æ n æ g o t ʧ e k ɪ ɾ ɪ j æ w æ n æ g o t t ɪ ʃ t æ k 
[257.065]
<no-speech> 
[259.145]
<int> h e 
[260.325]
<no-speech> 
[266.065]
h ɑ 
[266.815]
<no-speech> 
[269.925]
<sta> w ɑ 
[270.915]
<no-speech> 
[275.735]

[276.705]
<no-speech> 
[277.755]
m ɪ n æ w q ɑ s n æ t ʧ e k ɪ ɾ ɪ j æ ʧ e k ɪ m h ɑ 
[282.515]
<no-speech> 
[283.925]
<no-speech> 
[284.305]
<no-speech> 
[285.535]
<sta> æ z e n ɪ z ɑ n ɪ m b æ l i j æ 
[287.695]
<no-speech> 
[289.955]
æ l i t ɑ n æ o l ɑ s ɪ g æ ɾ æ k ɪ j o ɾ 
[292.095]
<no-speech> 
[293.405]
ʧ ɪ q ɑ s 
[293.995]
<no-speech> 
[296.245]
ʧ æ n d 
[296.845]
<no-speech> 
[300.315]
ʧ ɪ q ɑ s 
[301.025]
<no-speech> 
[304.045]
æ ɾ e 
[304.735]
<no-speech> 
[309.005]
<int> ʧ æ n d f æ h m n æ k ɪ ɾ 
[310.945]
<no-speech> 
[314.255]
h ɑ n e 
[314.945]
<no-speech> 
[316.845]
t æ g o t æ g o t ʧ ɪ q ɑ s t æ x ɪ ʃ k ɪ ɾ i j æ 
[319.125]
<no-speech> 
[323.175]
w ɪ h ɑ h æ ɾ ɪ m 
[323.995]
<no-speech> 
[326.525]
t ʊ j e h æ ɾ ɛ w e h æ ɾ ɛ ʒ e b æ ɾ d æ 
[328.545]
<no-speech> 
[329.865]
<sta> b ɑ ʃ ɪ m 
[335.155]
<no-speech> 
[337.025]
<sta> n ɑ ʃ t æ x ɪ l ɪ n 
[338.895]
<no-speech> 
[341.755]

[342.995]
<no-speech> 
[345.665]
<sta> k æ ʧ e t ʊ ʧ ɪ m ɑ q æ ɑ l i j i k ʊ ɾ m ɑ n ʤ i b ɪ p ɛ j ɪ v ɛ d ɪ k ɪ ɾ 
[347.895]
<no-speech> 
[355.975]
<no-speech> 
[356.555]
<no-speech> 
[359.145]
t æ m ɑ m t æ m ɑ m <sta> 
[371.055]
<no-speech> 
[380.425]
<no-speech> 
[381.305]

[385.845]
<no-speech> 
[388.495]
<no-speech> 
[388.855]
<no-speech> 
[389.785]
<no-speech> 
[390.435]
<no-speech> 
[392.665]
<no-speech> 
[395.165]
<no-speech> 
[396.305]
<no-speech> 
[396.685]
<no-speech> 
[399.875]
<no-speech> 
[400.225]
<no-speech> 
[401.235]
<no-speech> 
[401.595]
<no-speech> 
[407.145]
<sta> b ɑ ɾ ɑ n 
[408.615]
<no-speech> 
[410.455]
<no-speech> 
[410.865]
<no-speech> 
[413.485]
<no-speech> 
[415.165]
<no-speech> 
[416.365]
<no-speech> 
[427.135]
<no-speech> 
[428.055]
<sta> 
[434.165]
<no-speech> 
[439.005]
e w æ l æ h d æ n g e t æ n ɑ j e m ɪ n h ɪ ɾ æ h ɪ ɾ ɑ d æ n g e t æ 
[441.485]
<no-speech> 
[443.515]

[452.855]
<no-speech> 
[454.755]
<no-speech> 
[456.705]
<no-speech> 
[461.965]
<no-speech> 
[462.315]
<no-speech> 
[466.545]
<no-speech> 
[467.095]
<no-speech> 
[473.500]
<no-speech> 
[479.905]
<sta> æ l i h ɑ æ l i 
[483.605]
<no-speech> 
[484.775]
t ʊ ʒ ɪ x w æ r ɑ b ɪ ʃ ɪ x ʊ l æ ʧ e k ɪ ɾ ɪ n 
[486.315]
<no-speech> 
[492.545]
<no-speech> 
[494.095]
<no-speech> 
[494.935]
<sta> h e 
[502.735]
<no-speech> 
[505.135]
<sta> m ɪ n g o t m ɪ n 
[506.665]
<no-speech> 
[508.045]
<sta> m æ k t æ b ɑ t æ ʧ ɪ ɾ æ j e m æ k t æ b 
[510.155]
<no-speech> 
[517.345]
j ɑ 
[518.055]
<no-speech> 
[519.135]
<no-speech> 
[520.705]
<no-speech> 
[530.930]
<no-speech> 
[541.155]
<no-speech> 
[541.925]
<no-speech> 
[544.065]
<sta> ʧ ɪ 
[545.325]
<no-speech> 
[547.545]
æ ɾ e z ɑ f æ ʒ i n ɪ z ɑ n ɪ m 
[551.125]
<no-speech> 
[552.395]
t æ z ɑ f z u ɑ n i j æ 
[553.775]
<no-speech> 
[558.905]
<sta> n ɑ d æ ɾ s d æ w ɑ m d ɪ k ɪ n d æ w ɑ m d ɪ k ɪ n 
[562.345]
<no-speech> 
[564.225]
<no-speech> 
[564.575]
<no-speech> 
[566.015]
<sta> w æ l æ h 
[567.375]
<no-speech> 
[571.745]
<sta> æ l i d æ n g e m ɪ n t e 
[576.335]
<no-speech> 
[580.055]

[581.895]
<no-speech> 
[583.955]

[584.725]
<no-speech> 
[588.355]
<sta> æ z n ɪ k ɑ ɾ ɪ m 
[592.875]
<no-speech> 
[600.060]
