[0.000]
<no-speech> 
[0.505]
æ l o n ɑ v æ n ɑ k ɛ 
[2.125]
<no-speech> 
[2.945]
<int> <lipsmack> æ l o 
[4.965]
<no-speech> 
[5.795]
ħ æ s o n g ʊ l ʧ ɪ d ɪ k i 
[8.445]
<no-speech> 
[9.385]
æ l o 
[10.145]
<no-speech> 
[11.265]
s ɑ x ɪ j ɑ t æ k e f h ɑ l e t æ ʧ ɑ w ɑ j æ ħ æ ħ æ t ʊ ʧ ɑ w ɑ j æ 
[15.825]
<no-speech> 
[18.755]
<laugh> t ʊ ʧ ɪ d ɪ k i 
[20.635]
<no-speech> 
[22.295]
w æ l æ h s ɑ x b i s p ɑ s d ɪ k ɪ m æ m l ɪ ʤ æ m m ɑ l ɑ t ɑ ʒ i d i n ʤ æ m m ɑ l ɑ t ɑ ʒ i d i n r u n ɪ ʃ t ɪ n ɛ ʒ ɪ m æ r æ ʃ i v e ʧ e d ɪ k ɪ n x w ɑ ɾ ɪ n e æ w u ħ ɪ s e n e t ʊ ʧ ɪ d ɪ k i m ɑ l b ɑ t ɑ w æ ʧ ɑ w ɑ j æ 
[33.945]
<breath> w æ l ɑ h i w ɑ g o ʃ t u b ɪ ɾ ɪ n ʤ ʒ ɪ m æ r æ ʧ e k ɪ ɾ ɪ n æ 
[37.975]
<no-speech> 
[39.075]
w æ ʃ i v x w ɑ ɾ i j ɛ 
[41.245]
<no-speech> 
[42.895]
<breath> ħ æ s ɑ x b e s p ɑ s t ʊ ʧ ɪ d ɪ k i t æ ʧ ɪ x w ɑ ɾ 
[46.905]
<no-speech> 
[49.995]
æ ɾ e d æ ʧ ɪ x w ɑ ɾ ʧ ɪ x w ɑ ɾ <no-speech> b ɪ ɾ ɑ <no-speech> e d æ n o ʃ i ʤ ɑ n b e 
[54.425]
<no-speech> 
[56.315]
m ɪ n g o t n o ʃ i ʤ ɑ n b e 
[57.745]
<no-speech> 
[59.915]
e m æ k t æ b ʧ ɑ w ɑ j æ 
[63.055]
<no-speech> 
[64.885]
m æ k t æ b ʧ ɑ w ɑ <foreign> d ɪ h æ ɾ ɛ <foreign> <no-speech> m æ k t æ b ɑ t æ ʧ ɪ l o d ɪ h æ ɾ ɛ 
[68.275]
<no-speech> 
[72.765]
b ɪ ɾ ɑ 
[73.605]
<no-speech> 
[75.045]
<no-speech> 
[76.795]
<no-speech> 
[78.475]
ħ æ 
[79.475]
<no-speech> 
[80.375]
n æ <oov> n æ r æ h æ t i n æ 
[82.275]
<no-speech> 
[84.975]
e 
[85.705]
<no-speech> 
[88.265]
<no-speech> 
[89.145]
<no-speech> 
[89.995]
<laugh> e 
[91.845]
<no-speech> 
[92.685]
k i æ z 
[93.555]
<no-speech> 
[95.475]
ħ æ 
[96.115]
<no-speech> 
[97.565]
æ z æ z u h æ v ɑ l e n x w æ k ɑ ħ æ t ɑ x w æ d e ʧ e k i 
[100.965]
<no-speech> 
[102.585]
ħ æ t ɑ k ʊ b u q ɪ s m æ t æ m e b e n i n ʃ æ l ɑ h 
[105.285]
<no-speech> 
[106.415]
k ɑ t æ ʒ ɪ x w æ r ɑ k æ s n æ d i t i d ɑ w æ t m ɑ w æ t t ɪ ʃ t æ k t æ n e n i ʃ ɑ n i 
[110.745]
<no-speech> 
[113.025]
h e 
[113.635]
<no-speech> 
[115.325]
k ɑ t æ ʒ ɪ x w æ r ɑ n æ d i t ɪ n t o p 
[116.785]
<no-speech> 
[118.925]
ʧ ɪ m ɑ 
[119.705]
<no-speech> 
[120.695]
ʧ ɪ m ɑ 
[121.205]
<no-speech> 
[123.325]
g ɑ v ɑ t æ g o t h æ n æ ʒ ɪ 
[125.225]
<no-speech> 
[126.335]
<int> h æ ɾ ɛ æ m ɾ e t æ v ɑ j æ b u b i s t u h æ ʃ t s ɑ l 
[128.455]
<no-speech> 
[129.935]
ʧ ɪ æ m ɾ e t æ b u b i s t u <no-speech> <cough> æ m ɾ e k e 
[134.085]
<no-speech> 
[135.715]
k e 
[136.795]
<no-speech> 
[138.145]
k i m æ s ɑ ʒ ʒ ɪ t æ r æ ʃ ɑ n d 
[139.335]
<no-speech> 
[142.015]
æ w e <no-speech> e n ɪ s e b i n i j ɑ n d i n h æ n æ æ w e h ɑ n 
[145.425]
<no-speech> 
[146.675]
e ʧ ɪ d ɪ b e ʒ i <breath> d æ v ʒ ɪ w ɑ n b ɪ q æ ɾ ɛ j ɑ h o <int> d æ v ʒ e b ɪ q æ ɾ ɛ <int> æ ɾ e æ ɾ e d æ v ʒ ɪ w ɑ n b ɪ q æ ɾ ɛ l e 
[154.055]
<no-speech> 
[155.225]
x e ɾ ʒ ɪ w ɑ n ʒ ɪ t æ r æ n ɑ j e h ɑ 
[157.035]
<no-speech> 
[160.905]
æ m ɑ t u x w æ ʃ ɪ k i s u ʤ e k i j æ 
[162.955]
<no-speech> 
[164.675]
m b æ ʒ n ɑ t æ d ɪ ɾ e ʒ æ t ʊ x w æ ʃ ɪ k i m ɑ l ɑ x æ l k e x ɪ ɾ ɑ d ɪ k i e n ʧ ɑ v l ɪ t æ d ɪ k æ v ɪ n d e m æ k x w æ w ɪ n d ɑ d ɪ k ɪ n m ɑ æ z ʧ ɪ b e ʒ ɪ m d ɪ l d ɪ k æ v ɪ n t æ 
[174.505]
<no-speech> 
[177.255]
<laugh> m ɑ l ɑ x æ l k e x æ ɾ ɑ d ɪ k i 
[179.805]
<no-speech> 
[181.875]
ʧ ɑ v x w æ ʃ n æ d ɪ n k ɑ 
[183.665]
<no-speech> 
[184.985]
h ɑ 
[185.605]
<no-speech> 
[187.875]
m ɑ l ɑ m ɪ n e ʧ ɪ 
[189.035]
<no-speech> 
[191.355]
æ z 
[192.055]
<no-speech> 
[193.475]
k æ ʧ e e m ɪ n ʒ ɪ x w æ d æ ɾ v æ j æ 
[196.215]
<no-speech> 
[197.165]
ʒ ɪ b o w æ ʒ ɪ b o k ʊ w æ x t d æ ɾ b ɑ s b ɪ k ɑ m ɑ m ɪ n ʧ ɪ k ɪ ɾ i j æ m ɪ n ħ æ n æ k e x w æ b ɪ k e k ɪ ɾ i j æ m ɪ n k e <laugh> x ɑ p ɑ n d i j ɛ æ z b ɪ x w ɑ z ɪ m æ z k ɑ ɾ ɪ m r o ʒ e b ɪ j æ k e d æ ɾ k æ v ɪ m <no-speech> 
[207.505]
d ɪ k ɑ ɾ ɪ m m ɑ l ɑ ʤ ɪ w ɑ n x æ ɾ ɑ b ɪ k ɪ m l e æ z ʒ ɪ x w æ d e d ɪ t ɪ ɾ s ɪ m 
[210.115]
<no-speech> 
[211.795]
ħ æ i n ʃ æ l ɑ h t ɪ ʃ t æ k e x w æ ʃ æ b ɪ i n s ɑ n b ɪ n t ʊ z ɑ n i 
[216.605]
<no-speech> 
[217.535]
k ʊ i n s ɑ n b ɪ n t ɪ ʃ t æ k i x w æ ʃ æ l e n æ i n s ɑ n b ɪ n æ m ʧ ɑ w ɑ b ɪ k ɪ n m æ ɾ ɪ v d u ɾ d æ ɾ d ɪ k æ v æ 
[221.935]
<no-speech> 
[222.745]
æ v e l ɪ v e d ɪ x ɑ n i j e t æ n e d ʊ ħ æ b 
[225.495]
<no-speech> 
[226.965]
ʧ ɪ b u 
[227.635]
<no-speech> 
[230.365]
t æ g o t ʧ ɪ 
[231.155]
<no-speech> 
[234.625]
æ ɾ e 
[235.275]
<no-speech> 
[237.135]
æ ɾ e <cough> æ ɾ e 
[239.215]
<no-speech> 
[247.545]
e æ ɾ e w æ l æ h x æ b æ ɾ ɑ w e j æ e m ɑ w ɪ l o d æ ɾ t e h ɑ æ z e n ɪ h ɑ æ z e l e b ɪ g æ ɾ ɪ m b e m x ɪ s t ɪ n æ g o z æ l ɑ b i w ɪ l o b u 
[254.355]
<no-speech> 
[255.625]
e d æ æ m e <oov> d æ q æ j x w æ x w æ z ɑ t æ n p æ n ʤ k i l o ʒ ɪ w æ ɾ æ ɑ n i p e n ʤ i m ɪ l j o n m ɪ n p ɑ ɾ æ ʒ ɪ ʒ e n æ s t æ n d 
[262.765]
<no-speech> 
[265.475]
w æ l æ h l ɑ w <laugh> <no-speech> s æ ɾ h ɑ s æ ɾ h ɑ l ɑ d ɪ <laugh> e l ɪ s æ ɾ h ɑ l ʤ ɑ ɾ æ k d i n n æ m ɑ t ɪ ʃ t æ k e ʒ ɪ k æ s i r æ t i n ɪ m 
[272.465]
<no-speech> 
[274.485]
æ z ʤ ɑ ɾ d ɪ n n æ m ɑ t ɪ ʃ t æ k i ʒ ɪ k æ s i r æ t i n ɪ m 
[276.255]
<no-speech> 
[283.005]
æ v ʧ ɪ j æ l ɑ w 
[284.095]
<no-speech> 
[285.315]
w ɑ n l i w ɪ l o n ɪ h ɑ g ɪ ʃ w ɪ l o n æ 
[287.305]
<no-speech> 
[290.095]
<no-speech> 
[290.645]
<no-speech> 
[291.645]
t æ k i n æ m n ɑ n ɑ æ m e p æ ɾ e x w æ d ɑ b ɑ n ɑ d æ q æ k i p æ ɾ e x w æ b ɪ ʃ t æ x ɪ l ɪ n <laugh> n ɑ n ɑ g o t m æ p æ ɾ e x w æ d ɑ b ɑ n ɑ m æ m æ g o t ɪ b ɑ p æ ɾ e x w æ b ɪ ʃ t æ x ɪ l ɪ m 
[300.605]
<no-speech> 
[302.915]
ħ æ 
[303.735]
<no-speech> 
[304.885]
d æ v ʒ e b ɪ q æ ɾ ɛ m e ɾ æ k i j ʊ z e b ɪ d i t æ b ɑ ʃ b u <int> 
[307.905]
<no-speech> 
[309.465]
m æ g o t m æ m e ɾ ɪ k ʒ ɪ w e r æ ʒ ɪ b ɪ d i t ɑ b ɑ ʃ b u m æ m e ɾ ɪ k ʒ ɪ w e r æ ʒ ɪ b ɪ d i t ɑ b ɑ ʃ b u 
[313.135]
<no-speech> 
[314.885]
n æ w ɪ l o 
[315.595]
<no-speech> 
[317.465]
n æ w ɪ l o 
[318.245]
<no-speech> 
[319.785]
<laugh> ħ æ q e t æ t æ ʒ ɪ b ɪ z æ w ɪ ʤ ɑ n d ɪ n ɑ 
[324.135]
<no-speech> 
[325.435]
n ɑ n ɑ ħ æ t ɑ b ɪ x w æ b e d æ ɾ x ɪ n 
[327.585]
<no-speech> 
[328.705]
<click> n ɑ n ɑ h æ b æ k e d i n x w æ <oov> b ɪ d e <laugh> g æ l æ k <int> n ɑ n ɑ k ʊ ɾ m ɑ n ʤ i b ɪ p ɛ j ɪ v ɛ k ʊ ɾ d i d æ w l æ m æ n d æ 
[339.385]
x ɪ l ɑ s n ɑ b æ 
[341.285]
<no-speech> 
[345.265]
æ ɾ e t ɑ ʒ i d i n w æ l æ h b ɑ ʃ k æ t ɪ m o d æ w i ɑ l i æ d i s ɑ h æ v ɑ l e w i h æ v ɑ l e t æ æ w e h ɑ n s ɪ b e b e d ʊ s ɪ b æ b e <breath> 
[352.605]
<no-speech> 
[355.985]
ħ æ <int> n ɑ n ɑ <no-speech> m 
[358.335]
<no-speech> 
[360.005]
t æ g o t ʧ ɪ 
[360.805]
<no-speech> 
[362.785]
t æ g o t ʧ ɪ ɑ w i d æ ɾ n ɑ k æ v ɪ n k æ ʧ e <oov> ʧ ɑ v e w i ʃ i n 
[367.585]
<no-speech> 
[368.645]
v e ʧ ɪ l e n i n ɛ k æ s e d æ ɾ n ɑ k æ v ɛ æ w 
[370.605]
<no-speech> 
[371.525]
æ w k æ s e d æ ɾ n ɑ k æ v ɛ h i ʧ 
[373.185]
<no-speech> 
[374.545]
d ɪ b i g ʊ n d ɪ j e n b æ l k i ʒ ɪ m ɪ n r æ b e ʒ ɪ n k æ s ħ ɛ j ɑ t e d æ l ɪ t æ n ɑ j e 
[377.605]
<no-speech> 
[378.705]
n ɑ p ɪ ɾ b ɑ ʃ æ d ɪ b e k æ ʧ ɪ k ʒ ɪ m ɪ n r æ b e ʒ ɪ m ɪ n r æ b e ʒ æ d ɪ b e b æ l k i d ɪ b e t ʊ d ɪ z ɑ n i d ɪ b e ʧ ɪ d ɪ b e k æ ʧ ɪ k b e ʒ ɪ m ɪ n r æ b e ʒ æ b æ l k i ʧ e b æ j ɑ n ɑ æ z ħ ɛ j ɑ t e d æ d æ ɾ n ɑ k æ v ɪ m m ɪ n g o t t ʊ l ɪ v e d æ ɾ e b ɪ s æ k ɪ n æ s æ d u s ɑ l æ k e 
[390.385]
n æ x w æ ʃ ɪ k b i l æ n ɑ j e ʒ ɪ t æ r æ n ɑ b e ʒ e v e j ɑ ʒ ɪ x w æ r ɑ <laugh> 
[395.305]
<no-speech> 
[397.555]
d ɪ b e ʒ æ æ w b e n ʒ ɪ m ɪ n r æ b e ʒ ɪ n b æ l k i j ɑ n æ z k æ s e r æ n ɑ b e ʒ ɪ m 
[401.725]
<no-speech> 
[404.585]
æ ɾ e w æ l æ h 
[405.475]
<no-speech> 
[406.565]
æ h i ʒ ɑ ɾ h æ v ɑ l ɑ w i l ɑ w ɪ k ɑ n k i j æ j ɑ w b æ l k i æ z w e n ɑ s b ɪ k ɪ m ʧ ɪ d ɪ x w i n ɛ 
[410.165]
<no-speech> 
[411.505]
h æ v ɑ l ɑ k æ ʧ ɪ k ɑ z ɑ n i k i j æ 
[413.515]
<no-speech> 
[415.865]
t ʊ w i n ɑ s d ɪ k i 
[417.005]
<no-speech> 
[418.135]
h ɑ n ɑ n ɑ k æ ʧ ɪ k ɑ h æ v ɑ l ɑ s ɑ l ɪ ħ ʧ ɪ j æ n ɑ v e w e t ʊ w e n ɑ s d ɪ k i m ɑ 
[422.085]
<no-speech> 
[424.405]
ħ æ 
[425.075]
<no-speech> 
[426.975]
æ l o 
[427.615]
<no-speech> 
[430.235]
æ ɾ e æ ɾ e m ɪ n g o t t ʊ k æ ʧ ɪ k ɑ h æ v ɑ l ɑ s ɑ l ɪ ħ n ɑ s d ɪ k i 
[432.845]
<no-speech> 
[433.985]
ħ æ 
[434.705]
<no-speech> 
[435.985]
s o n g ʊ l h æ v ɑ l ɑ s ɑ l ɪ ħ t ʊ n ɑ s d ɪ k i m ɑ 
[438.755]
<no-speech> 
[440.635]
æ ɾ e ħ æ ħ æ d æ n g e t æ t e m ɪ n 
[442.495]
<no-speech> 
[444.105]
s o n g ʊ l 
[445.095]
<no-speech> 
[447.685]
h æ v ɑ l ɑ s ɑ l ɪ ħ l ɑ w k æ ʧ ɪ k ɑ s æ v g ɪ l i j ɑ s ɑ l ɪ ħ n ɑ s d ɪ k i 
[453.495]
<no-speech> 
[461.325]
m ʧ ɪ d ɪ x w i n ɛ 
[463.025]
<no-speech> 
[464.865]
b æ l k i æ z w e n ɑ s b ɪ k ɪ m w æ l æ h ʧ ɪ d ɪ x w i n ɛ 
[467.715]
<no-speech> 
[473.615]
m b æ l k i æ z w e n ɑ s b ɪ k ɪ m m ɑ 
[475.645]
<no-speech> 
[478.175]
æ ʒ ɪ ʒ ɪ w ɑ n æ z g ɪ ʃ ɑ n ɑ s d ɪ k ɪ m 
[482.975]
<no-speech> 
[484.975]
æ w ʧ ɑ ɾ s e s ɑ l e m ɪ n l ɪ m ɪ n 
[487.005]
<no-speech> 
[490.635]
e w æ l æ h æ z ʒ ɪ n ɪ z ɑ n ɪ m d e m æ k k i q ɪ s m æ t t æ n e 
[493.415]
<no-speech> 
[498.815]
b æ l e æ ɾ e 
[500.345]
<no-speech> 
[502.565]
<int> 
[503.495]
<no-speech> 
[505.085]
m 
[507.085]
<no-speech> 
[509.145]
æ ɾ e 
[509.805]
<no-speech> 
[510.835]
h e 
[511.445]
<no-speech> 
[513.445]
æ ɾ e w æ l æ h æ z ʒ ɪ n ɪ z ɑ n ɪ m t ʊ x ɑ l e w e e b æ ɾ i n ɑ s d ɪ k ɪ ɾ m ɑ 
[515.935]
<no-speech> 
[516.785]
n ɑ 
[517.755]
<no-speech> 
[520.835]
n ɑ n æ ʃ ɑ n d <hes> <int> æ d æ k æ n g i d ɪ ʃ i n i 
[525.605]
<no-speech> 
[527.855]
<no-speech> 
[528.605]
<no-speech> 
[530.445]
m 
[531.125]
<no-speech> 
[533.385]
m 
[534.345]
<no-speech> 
[535.645]
ħ æ g o t h ɑ t z ɑ t æ n b ɪ l ɑ b e b æ ɾ v i j u ɾ d e j u ɾ d e r ɑ h ɪ ʒ ɪ m e 
[539.565]
<no-speech> 
[540.635]
ʕ æ ɾ ɑ b e k ɑ m p ʊ s e s ɪ w ɑ ɾ b e w æ ɾ æ d æ ɾ v æ j u ɾ d e d æ ʒ ɪ v e d æ ɾ e r ɑ h ɪ ʒ e m ɪ n 
[543.645]
<no-speech> 
[544.985]
h ɑ 
[545.625]
<no-speech> 
[551.165]
æ ɾ e b ɪ l ɑ b e j u ɾ d e æ m e w ɪ ɾ æ m e b ɪ l ɑ b e m æ ɾ k æ z e d ɪ x w ɑ z æ <oov> h ɑ t k i d æ ɾ b o æ m h æ v d ʊ b ɪ b i n ɪ n 
[555.825]
<no-speech> 
[560.815]
j ɑ b ɪ l ɑ <hes> b ɪ l ɑ b e k ɑ m p ʊ s e 
[563.445]
<no-speech> 
[565.215]
i ɾ o ʒ x ɪ ɾ ɑ b æ j æ i ɾ o ʒ d ʊ r o ʒ x ɪ ɾ ɑ b æ j æ 
[568.025]
<no-speech> 
[570.135]
x ɪ ɾ ɑ b æ j æ i ɾ o ʒ d ʊ r o ʒ t ʊ d ɪ z ɑ n i 
[571.905]
<no-speech> 
[573.815]
i ɾ o ʒ d ʊ r o ʒ x ɑ n i l ɪ j u ɾ d e t æ n e j æ 
[576.015]
<no-speech> 
[577.835]
b æ l k i æ m b ɪ k ɑ ɾ ɪ b ɪ n w i d ɪ j u ɾ d e b ɪ x ɪ n 
[579.335]
<no-speech> 
[582.100]
