[0.000]
<no-speech> 
[0.505]
<no-speech> 
[2.415]
<no-speech> 
[3.295]
<no-speech> 
[3.645]
<no-speech> 
[5.075]
<sta> æ l o b ɑ ʃ ɪ m t ʊ ʧ ɪ d i k e 
[8.225]
<no-speech> 
[11.305]
<laugh> x w æ d e æ z e s u k e m æ 
[15.155]
<no-speech> 
[18.135]
<int> e t ʊ k ʊ d æ ɾ e j e 
[19.545]
<no-speech> 
[21.795]
<no-speech> 
[22.165]
<no-speech> 
[24.965]
<sta> k ʊ d æ ɾ e 
[26.385]
<no-speech> 
[29.585]
<sta> ħ ɑ t æ k ʊ t ɪ k e d i k e 
[32.295]
<no-speech> 
[36.125]
<int> k i æ m 
[37.035]
<no-speech> 
[40.665]
x w æ d e n ɪ z ɑ n ɪ m t ʊ z ɑ n i 
[42.035]
<no-speech> 
[44.455]
<no-speech> 
[45.265]
<no-speech> 
[47.125]
<laugh> w æ l æ h ʤ æ m m æ b ɪ ɑ x ɪ v æ <int> <breath> v æ d ɑ t t æ h æ v ɑ l e x w æ d i t h æ v ɑ l e t æ d i t 
[56.835]
<no-speech> 
[58.835]
h ɑ ħ æ ħ æ t æ d i t 
[61.835]
<no-speech> 
[63.145]
<sta> h æ v ɑ l e t æ j e d æ ɾ s ɑ n e 
[65.975]
<no-speech> 
[69.505]
<sta> j e d æ ɾ s ɑ n e 
[72.305]
<no-speech> 
[74.295]
<no-speech> 
[74.805]
<no-speech> 
[77.325]
<sta> t æ d i t ʧ ɪ d ɪ g o t 
[80.505]
<no-speech> 
[81.895]
h ɑ 
[82.455]
<no-speech> 
[84.285]
<sta> n ɑ ħ æ h e ʃ i n æ h e ʃ i n æ k ɪ ɾ 
[91.575]
<no-speech> 
[93.065]
h ɑ 
[94.035]
<no-speech> 
[95.675]
ħ æ 
[96.385]
<no-speech> 
[97.885]
<sta> ħ æ 
[99.695]
<no-speech> 
[100.925]
<int> m ɑ n æ x ɪ l ɑ s m æ k t æ b ɑ w e 
[104.445]
<no-speech> 
[106.115]
<sta> h ɑ 
[107.965]
<no-speech> 
[110.915]
<sta> d æ m ɪ n g o t t ʊ v e s ɑ l ɑ ʃ i ɾ k æ t ɪ n 
[113.005]
<no-speech> 
[114.645]
æ ɾ e n æ ʃ u l k ɪ n <int> 
[116.655]
<no-speech> 
[117.945]
<no-speech> 
[118.315]
<no-speech> 
[120.165]
<sta> <laugh> æ z e g æ l ʧ e k ɪ m 
[123.095]
<no-speech> 
[124.235]
<no-speech> 
[128.325]
<no-speech> 
[129.145]
<sta> ʧ ɪ 
[131.785]
<no-speech> 
[132.895]
t æ ʧ ɪ g o t 
[133.945]
<no-speech> 
[135.265]
<sta> æ z s æ v g ʊ l e n ɑ b ɪ m 
[137.835]
<no-speech> 
[138.715]
<sta> ħ æ ħ æ p ɪ ʃ t ɑ w e <laugh> 
[140.945]
<no-speech> 
[141.785]
<breath> <sta> æ ɾ e x w æ d e ʧ ɪ d æ n g e t æ x w æ ʃ n ɑ j e t e d æ n g e t æ x w æ ʃ n ɑ j e t e m ɪ n 
[151.885]
<no-speech> 
[152.705]
<sta> æ ɾ e x w æ d e t ʊ ʧ ɪ b e æ z x æ t ɑ s æ ɾ i m æ 
[158.655]
<no-speech> 
[159.835]
<sta> d æ d æ ɾ k æ v æ æ ɾ e æ ɾ e g æ l e 
[169.135]
<no-speech> 
[170.285]
<sta> e æ v ɑ ʧ ɪ d æ ħ d æ q æ j æ h e h ɑ <laugh> 
[181.945]
<no-speech> 
[183.685]
<sta> <laugh> h æ g æ ɾ h æ g æ ɾ æ z n æ ɑ x ɪ v ɪ m 
[190.675]
<no-speech> 
[192.345]
<sta> æ z b ɑ ʃ ɪ m e æ m e k æ n g i t e n 
[197.655]
<no-speech> 
[199.465]
<sta> ʤ æ m d ɑ j ɪ k ɑ x w æ j æ ʤ æ m d ɑ j ɪ k ɑ x w æ j æ 
[203.645]
<no-speech> 
[205.525]
<no-speech> 
[205.875]
<no-speech> 
[207.305]
ħ æ <sta> 
[209.075]
<no-speech> 
[210.385]
<sta> e d æ b ɑ ʃ æ 
[212.275]
<no-speech> 
[215.865]
<sta> x w æ d e d æ ɾ s e m ɪ n d ɑ j ɪ k e n i n ɛ <no-speech> m ɪ n q æ n æ d ɑ j æ x w æ d e n ɪ z ɑ n ɪ m ħ æ t ɑ æ z æ z e b ɪ s æ k ɪ n ɪ m 
[226.945]
<no-speech> 
[227.815]
<sta> e m æ n æ d i t i j ɛ k ɑ l o ɾ i f æ ɾ l i 
[230.695]
<no-speech> 
[232.705]
<no-speech> 
[233.825]
<no-speech> 
[235.905]
<sta> m ɪ n g o t t ʊ n ɪ h ɑ ħ æ t ɑ k ʊ d æ ɾ e ʧ u j æ 
[242.285]
<no-speech> 
[244.715]
<sta> e t ʊ k æ n g i ʧ u j æ w e d æ ɾ e 
[252.415]
<no-speech> 
[254.755]
<sta> æ z d ɪ x ɪ n h æ ɾ ɪ m ɛ ʤ ɪ l ɑ n æ z d ɪ x ɪ m h æ ɾ ɪ m ɛ ʤ ɪ l ɑ n v e d æ ɾ e 
[260.075]
<no-speech> 
[261.735]
<no-speech> 
[263.195]
<no-speech> 
[264.145]
ʧ ɪ 
[265.115]
<no-speech> 
[267.425]
<sta> h ɪ n æ h ɪ n æ k i 
[271.315]
<no-speech> 
[272.695]
<sta> w æ l æ h æ z b ɪ t æ w æ l æ h æ z b ɪ t æ r æ b ɪ k ɪ ɾ ɪ m n ɑ m ɪ n æ w n æ k ɪ ɾ i j æ ʒ e b ɪ k ɪ m 
[279.295]
<no-speech> 
[283.785]
w æ d ɪ g o t e æ z ʧ ɪ d ɪ k ɪ m 
[285.335]
<no-speech> 
[286.855]
x w æ d e m ɪ n b ɪ k ɪ m 
[289.325]
<no-speech> 
[290.515]
x w æ d e k ʊ r o ʤ ɑ ɾ ɪ n ɑ x w æ ʃ d ɪ b ɪ n 
[292.485]
<no-speech> 
[293.365]
æ ɾ e w æ l æ h 
[294.115]
<no-speech> 
[294.945]
ʧ ɪ æ ɾ e j e z ɪ l ɑ m ɑ n 
[296.645]
<no-speech> 
[297.935]
<int> g o m l æ k e z ɑ v ɑ j e m æ x w æ ʃ ɪ n w e d æ ɾ e 
[299.895]
<no-speech> 
[301.295]
æ m g æ l æ k i <int> 
[303.525]
<no-speech> 
[304.975]
ʧ ɪ 
[305.635]
<no-speech> 
[309.755]
ħ æ ʤ ɪ n d i n æ 
[310.935]
<no-speech> 
[316.885]
i ʃ t æ t ɪ ʃ t æ k w æ ɾ æ n æ ɑ n i j ɛ æ ɾ e 
[318.325]
<no-speech> 
[321.885]
k ʊ r o m ɪ n t i ʃ o ɾ t æ k e g æ l e æ v b ɪ x w æ ʃ b e 
[324.695]
<no-speech> 
[325.765]
h ɑ 
[326.335]
<no-speech> 
[328.535]
t æ ʧ ɪ g o t 
[329.355]
<no-speech> 
[332.045]
s ɑ æ t ʧ ɪ j æ 
[332.805]
<no-speech> 
[336.095]
j ɑ n i m æ n ɑ w e ʧ ɪ 
[337.305]
<no-speech> 
[338.905]
æ l o 
[339.585]
<no-speech> 
[342.045]
h e d æ n g e t æ p ɪ ʧ u k t e 
[343.585]
<no-speech> 
[345.155]
d æ n g e t æ p ɪ ʧ u k t e 
[346.445]
<no-speech> 
[350.145]
k ɑ æ z <int> 
[351.225]
<no-speech> 
[354.985]
æ l o 
[355.595]
<no-speech> 
[357.475]
æ l o 
[358.165]
<no-speech> 
[359.985]
ħ æ ħ æ 
[360.725]
<no-speech> 
[362.245]
æ l o 
[362.845]
<no-speech> 
[364.565]
æ ɾ e t e m m ɪ n t e m 
[367.145]
<no-speech> 
[368.805]
h e t ɪ m ʒ i b ɪ m æ t æ j ɑ w 
[370.425]
<no-speech> 
[371.385]
t e t t e t d æ n g e t æ t e t 
[372.895]
<no-speech> 
[375.195]
t æ m ɑ m b u k b ɪ m ɪ ɾ ɛ m ɑ t ʊ j e k ʊ b ɪ s æ k ɪ n i 
[377.035]
<no-speech> 
[379.145]
h ɑ 
[379.695]
<no-speech> 
[382.345]
n ɑ d æ n g e t æ t e t v e d ɪ b e ʒ ɪ m æ t æ ɑ j 
[386.415]
<no-speech> 
[390.005]
h e d æ n g e t æ t e t ʊ b e ʒ æ 
[391.495]
<no-speech> 
[396.385]
<no-speech> 
[398.485]
<no-speech> 
[399.305]
<laugh> b e t æ z ɪ v ɪ ɾ æ z ɪ v ɪ ɾ æ w æ ɾ æ 
[401.205]
<no-speech> 
[403.385]
h ɛ j æ h ɛ j æ b ɪ z ɪ v ɪ ɾ æ w æ 
[405.205]
<no-speech> 
[407.325]
æ l o 
[408.025]
<no-speech> 
[409.495]
d ɪ b e ʒ ɪ m æ t æ b ɪ z ɪ v ɪ ɾ æ w æ 
[410.905]
<no-speech> 
[413.225]
<laugh> i ʒ ɑ ɾ t ʊ n æ z ɪ v ɪ ɾ æ æ z z ɑ n ɪ m 
[418.855]
<no-speech> 
[419.785]
<no-speech> 
[420.175]
<no-speech> 
[422.945]
<no-speech> 
[423.305]
<no-speech> 
[425.705]
h ɑ t ʊ r ɑ s t d ɪ b e ʒ i 
[427.535]
<no-speech> 
[429.535]
æ l o 
[430.335]
<no-speech> 
[431.375]
d æ n g e t æ t e t ʊ n æ x æ q e ɾ i n 
[433.465]
<no-speech> 
[438.675]
<int> m ɪ n g o t d æ n g e m ɪ n n ɑ j e t æ t æ t æ x w æ t æ g o t æ l o d æ n g e m ɪ n n ɑ j e t æ t æ 
[443.515]
<no-speech> 
[446.675]
w æ l æ h d æ n g e m ɪ n n ɑ j e t æ t ʊ h æ m ɑ i k i d æ b ɪ ɾ d ɪ b e ʒ i æ l o æ l o t ʊ d ɪ b e ʒ i æ l o æ l o 
[451.235]
<no-speech> 
[457.495]
<laugh> n æ k ɪ ɾ i j æ n ɑ x w æ d e t ʊ b e b æ x t i j ɑ n d i k e 
[463.265]
<no-speech> 
[464.765]
t ʊ b e b æ x t i j ɑ n d i k e 
[466.295]
<no-speech> 
[471.295]
ʧ ɪ 
[471.925]
<no-speech> 
[474.685]
æ z d ɪ h e m æ z k ʊ n ɑ h e m 
[476.065]
<no-speech> 
[478.145]
æ z d ɪ h e m æ z k ʊ n ɑ h e m 
[479.625]
<no-speech> 
[480.565]
b e 
[481.245]
<no-speech> 
[484.505]
h æ m æ h æ m æ æ w d e h ɛ j æ 
[486.625]
<no-speech> 
[488.945]
m ɪ n g o t b ɪ x w æ æ t æ k æ k g æ l e l ɑ w d i t h ɑ 
[491.185]
<no-speech> 
[492.185]
k ʊ r o m ɪ n æ t æ k æ k d i t b ɪ x w æ 
[493.765]
<no-speech> 
[495.415]
æ t æ k æ t æ k m ɪ n g o t m ɪ n k ɪ ɾ i æ t æ k æ k m ɪ n e k ɪ r i b u m ɪ n k ɪ ɾ i 
[499.615]
<no-speech> 
[500.495]
<no-speech> 
[500.845]
<no-speech> 
[503.955]
l e m ɪ n p æ ɾ e m ɪ n n i n ɛ 
[505.515]
<no-speech> 
[506.545]
æ z e r æ b æ n ɪ m m ɑ p æ ɾ e m ɪ n h ɛ j æ 
[508.395]
<no-speech> 
[510.395]
b o m ɪ n d ɪ k ɪ ɾ æ m ɑ n æ k ɪ r ɛ <int> 
[513.535]
<no-speech> 
[514.835]
h ɑ 
[515.365]
<no-speech> 
[518.515]
<no-speech> 
[519.465]
<no-speech> 
[521.135]
<no-speech> 
[521.545]
<no-speech> 
[522.935]
<int> n ɑ v e b o m ɪ n k ɪ r i n ɛ 
[525.335]
<no-speech> 
[527.345]
<sta> æ l o 
[528.115]
<no-speech> 
[530.275]
æ z d ɪ b e ʒ ɪ m m ɪ n d ɑ j ɪ k ɑ t æ s æ s ɪ n g æ l m ɪ j o ɾ 
[535.465]
<no-speech> 
[538.275]
t ʊ k ʊ d æ ɾ e j e b ɪ z ɪ v ɪ ɾ æ w æ ɾ æ b ɪ z ɪ v ɪ ɾ æ w æ ɾ æ 
[540.045]
<no-speech> 
[541.065]
b ɪ z ɪ v ɪ ɾ æ w æ ɾ æ m ɪ n 
[542.995]
<no-speech> 
[544.285]

[546.275]
<no-speech> 
[547.365]
ʧ ɑ x e d u r ɑ s æ ɾ m æ t ɪ ʒ i b u n 
[548.965]
<no-speech> 
[555.885]
e d æ b ɑ ʃ æ b e h æ m ɑ s æ ɾ ʧ ɑ v e w æ s æ ɾ ʧ ɑ v e w æ 
[559.165]
<no-speech> 
[562.025]

[562.785]
<no-speech> 
[564.175]
ʧ ɪ 
[564.845]
<no-speech> 
[566.685]
d ɪ b e ʒ ɪ m 
[567.695]
<no-speech> 
[570.295]
x w æ d e m ɪ n t ʊ n æ g æ ɾ i 
[571.435]
<no-speech> 
[574.065]
ħ æ m ɪ n <laugh> k ʊ r o æ z k æ r ɪ m m ɪ n g o t e n æ b u j ɑ x w æ d e 
[579.125]
<no-speech> 
[583.085]
<laugh> x w æ d e k æ r ɪ m æ z k ʊ d ɪ j ɑ t æ n æ w e ɾ ɪ m 
[587.625]
<no-speech> 
[592.785]
h u n b e h æ ɾ ɪ n æ d ɑ w æ t e 
[594.225]
<no-speech> 
[599.455]

[599.965]
<no-speech> 
[600.020]
