[0.000]
<no-speech> 
[2.165]
<no-speech> æ l o 
[3.905]
<no-speech> 
[5.955]
k æ ʒ e <no-speech> ʧ ɪ d ɪ k i 
[9.205]
<no-speech> 
[10.595]
x w æ d e ʧ ɪ b ɪ k ɪ m ʒ ɪ t æ r ɑ r ɑ z i b e t ʊ ʧ ɑ w ɑ j i 
[12.435]
<no-speech> 
[14.125]
p i ɾ e ʒ ɪ b ɑ ʃ æ <laugh> 
[15.905]
<no-speech> 
[16.885]
<cough> h ɑ 
[17.985]
<no-speech> 
[19.725]
m ɑ l ɑ m æ d æ z g æ h ɑ ʧ i ʧ æ k 
[21.615]
<no-speech> 
[22.555]
<hes> z o z ɑ n s æ ɾ d ɑ l h æ m u r u n ɪ ʃ t ɪ n ɛ ʧ ɑ j e v æ d ɪ x w ɪ n <no-speech> <int> 
[27.075]
<no-speech> 
[28.265]
<no-speech> 
[28.935]
<no-speech> 
[30.275]
n ɑ w æ l æ h x w æ d e ʒ ɪ t æ r ɑ z i b e t æ v l i ʒ ɪ g æ l æ k b e ʃ u n v æ s ɪ l ɑ v ɑ b ɪ k æ <laugh> 
[33.755]
<no-speech> 
[34.765]
n æ ʤ m ɪ j æ h u n ʧ ɑ w ɑ <oov> 
[38.015]
<no-speech> 
[40.235]
n æ ʤ m ɪ j æ 
[41.115]
<no-speech> 
[42.795]
h ɑ b ɑ ʃ æ ʤ ɑ t æ ɑ ʤ ɪ z b u j i 
[44.595]
<no-speech> 
[45.865]
d ɑ m ɪ n 
[46.735]
<no-speech> 
[49.095]
n æ d ɑ m ɪ n n æ d ɑ m ɪ n ʧ u n æ t ɑ z i j e 
[52.825]
<no-speech> 
[55.995]
n æ ʤ m ɪ j æ j ɑ ɑ l i j i x æ ʤ e j ɑ n i æ q ɾ æ b ɑ m æ j æ <laugh> 
[61.765]
<no-speech> 
[63.075]
d ɑ t æ b e j æ 
[64.185]
<no-speech> 
[67.235]
ħ æ 
[67.765]
<no-speech> 
[69.195]
ʒ ɪ x w æ ɑ ɾ g æ ɾ n æ h ɑ t i j æ w e d æ ɾ e 
[70.735]
<no-speech> 
[73.195]
h ɑ 
[75.015]
<no-speech> 
[76.535]
b ɑ v e m ɪ n n æ ʧ u j ɛ k o n t ɾ o l e p ɪ ʃ t r æ i ʃ e w i æ w ʒ ɪ ʧ u t ɑ z i j e 
[80.125]
<no-speech> 
[82.945]
n æ ʤ m ɪ j æ 
[83.765]
<no-speech> 
[84.615]

[86.245]
<no-speech> 
[87.395]
<hes> 
[88.005]
<no-speech> 
[90.005]
æ ɾ e w æ l ɑ h i t ʊ n ɑ j e v ɪ ɾ e 
[92.315]
<no-speech> 
[93.625]
n ɑ x w æ d e ʒ ɪ t æ r æ r ɑ z i b e b ɪ ʧ u k ʒ i b ɑ ʃ 
[96.835]
<no-speech> 
[98.595]
ħ æ 
[99.295]
<no-speech> 
[100.765]
ħ æ 
[101.365]
<no-speech> 
[103.625]
h ɑ 
[104.345]
<no-speech> 
[108.455]

[109.535]
<no-speech> 
[112.405]
n æ ʤ m ɪ j æ d æ n g e t æ n ɑ j e <no-speech> h ɑ h u n x æ d æ m æ j æ 
[115.585]
<no-speech> 
[118.665]
n æ ʤ m ɪ j æ m ɪ n d i t j ɑ n i h ɛ j æ 
[121.085]
<no-speech> 
[124.565]
ħ æ 
[125.245]
<no-speech> 
[127.225]
j ɑ b o t i 
[128.255]
<no-speech> 
[129.715]
h ɑ æ z n ɑ s n ɑ k ɪ m w e 
[131.505]
<no-speech> 
[133.595]
m æ m h ɑ t ɪ n v e ʒ i j ɑ t ʊ j ɑ n i 
[135.715]
<no-speech> 
[137.005]
ħ æ ɪ j i 
[137.855]
<no-speech> 
[140.465]
e j ɑ <breath> 
[141.835]
<no-speech> 
[145.485]
ħ æ 
[146.205]
<no-speech> 
[148.435]
ʧ ɪ 
[149.105]
<no-speech> 
[150.645]
h ɑ 
[151.355]
<no-speech> 
[152.305]
m ɪ n g o t ʧ ɑ w ɑ j æ 
[153.505]
<no-speech> 
[157.725]
m æ z ɪ n æ 
[158.885]
<no-speech> 
[160.265]
e t æ ʒ ɪ ʧ u j æ ʤ æ m ʧ e n æ k ɪ ɾ m ɑ n j ɑ q e x ɑ s t ɑ x ɑ n e d ɑ j æ 
[165.345]
<no-speech> 
[167.945]
h ɑ 
[168.505]
<no-speech> 
[172.665]
n æ n ɑ n ʒ ɪ t æ n æ g o t t ʊ ʒ ɪ ʧ u j æ ʤ æ m n i j æ t ɑ w e x ɑ s t ɑ x ɑ n e j ɑ n i 
[176.735]
<no-speech> 
[177.545]
h ɑ ʤ ɑ w e ʧ u j æ k ɑ ɾ j ɑ ʧ e n æ k ɪ ɾ 
[180.955]
<no-speech> 
[183.145]
ħ æ 
[183.735]
<no-speech> 
[186.285]
d æ n g e t æ n ɑ j e n æ ʤ m ɪ j æ 
[187.815]
<no-speech> 
[191.285]
ʧ ɪ 
[191.875]
<no-speech> 
[196.105]
n æ ʤ l ɑ n ɑ 
[197.325]
<no-speech> 
[198.675]
n ɑ n ɪ h ɑ n æ j æ 
[200.325]
<no-speech> 
[201.885]
e d i n ɑ ʧ i t æ 
[203.025]
<no-speech> 
[206.965]
ħ æ 
[207.645]
<no-speech> 
[210.135]
i ʒ ɑ ɾ d ɪ b e ʒ æ ħ æ 
[212.145]
<no-speech> 
[217.085]
d ɪ b e ʧ ɪ 
[218.095]
<no-speech> 
[221.395]
n æ ʤ m ɪ j æ d æ n g e t æ n ɑ j e 
[222.835]
<no-speech> 
[227.965]
n æ ʤ m ɪ j æ 
[229.075]
<no-speech> 
[231.165]
<no-speech> 
[232.105]
<no-speech> 
[233.085]
<no-speech> 
[233.595]
<no-speech> 
[234.535]
<no-speech> 
[235.125]
<no-speech> 
[236.415]
d æ n g <breath> n æ ʤ m ɪ j æ d æ n g e t æ n ɑ j e t æ l æ f o n 
[239.525]
<no-speech> 
[240.945]
<sta> h ɑ 
[249.075]
<no-speech> 
[250.195]
ħ æ t æ m ɑ m 
[251.475]
<no-speech> 
[252.755]
<int> h i n x ɪ l ɑ s n æ b u j æ 
[255.025]
<no-speech> 
[256.195]
<cough> h ɑ d æ n g e m ɪ n t e t æ e t æ n ɑ j e ʒ ɪ t æ 
[258.685]
<no-speech> 
[260.355]
<no-speech> 
[261.795]
<no-speech> 
[262.775]
ʧ i ʧ æ k v æ s æ ɾ d ɑ l z o z ɑ n n æ ʤ l ɑ ʧ i ʧ æ k n æ ʤ l ɑ b u k ʧ i ʧ æ k 
[270.285]
<no-speech> 
[271.385]
e h ɪ n æ k ʧ u n æ t ɑ z i j æ æ m ʒ ɪ v æ g æ ɾ e n u ʧ u n s æ ɾ e 
[274.165]
<no-speech> 
[275.235]
m æ h l u q 
[276.065]
<no-speech> 
[276.915]
<int> k i m æ r ɑ s t k ɑ 
[279.625]
<no-speech> 
[283.525]
h ɑ n æ 
[284.575]
<no-speech> 
[285.425]
n æ <oov> d ɪ ɾ ɑ n e x w æ ʒ ɪ æ m æ l ɪ j ɑ t n ɑ k i 
[287.805]
<no-speech> 
[289.515]
n æ n æ n ɪ z ɑ n ɪ m k ɑ m i l æ ʒ ɪ æ m æ l ɪ j ɑ t k ɪ ɾ i j æ 
[291.695]
<no-speech> 
[292.775]
æ ɾ e æ ɾ e 
[293.675]
<no-speech> 
[294.955]
æ ɾ e ʧ u ɑ d i b u ʧ u n v e j ɑ 
[296.935]
<no-speech> 
[298.045]
p i j e x w æ ʧ u ʒ ɪ ʃ ɪ k e n ɑ n d t æ d ɑ w i b u n æ j ɑ k ʊ b ɪ b ɪ n ɛ <laugh> 
[301.635]
<no-speech> 
[303.825]
t æ m ɑ m n æ ʤ m ɪ j æ x ɪ l ɑ s n æ b u 
[305.715]
<no-speech> 
[309.475]
ħ æ 
[310.155]
<no-speech> 
[314.075]
k i m ɪ n 
[315.025]
<no-speech> 
[317.435]
n æ ʤ m ɪ j æ 
[318.515]
<no-speech> 
[319.605]
d ɑ m ɪ n n ɑ h e ʧ e n æ b u j æ <no-speech> h e s i g o ɾ t ɑ m æ ʧ e n æ b u j æ n æ ʤ m ɪ j æ 
[324.115]
<no-speech> 
[326.405]
t e k æ n g i d ɪ d æ s æ ɾ e m æ h e 
[328.995]
<no-speech> 
[336.085]
h ɑ 
[336.785]
<no-speech> 
[338.975]
k ɑ d ɪ b e ʒ æ m ɪ n g o t b e n æ b u 
[340.445]
<no-speech> 
[341.955]
s æ ɾ e m æ h e 
[343.075]
<no-speech> 
[346.795]
d ɪ ɾ ɑ n e ʤ ɑ m ɪ n ʒ ɪ s æ ɾ e m æ h e ʧ e k æ t ʊ 
[348.935]
<no-speech> 
[350.825]
t ʊ z ɑ n i 
[351.775]
<no-speech> 
[353.145]
m 
[353.675]
<no-speech> 
[357.805]
b e k æ n g i 
[359.005]
<no-speech> 
[361.775]
ʤ ɑ t æ ʒ ɪ k æ n g i ʧ u j æ 
[363.245]
<no-speech> 
[364.565]
h ɑ ɪ j i m ɑ n æ g o t ɪ b u ʤ ɑ t æ h æ ɾ ɛ t e k æ n g i w æ ɾ æ <no-speech> k ɑ q i z ɑ m ɪ n h e i ʒ ɑ ɾ g o t h ɑ n i k ɑ m p ʊ s e g o t t ʊ h æ ɾ ɛ s e s ɑ l e d i n w æ ɾ æ 
[372.345]
<no-speech> 
[378.905]
h ɑ <laugh> k i b æ ɾ t æ j æ n ɪ h ɑ 
[381.695]
<no-speech> 
[384.145]
ɑ v t æ n e j i 
[385.275]
<no-speech> 
[389.025]
ħ æ 
[389.695]
<no-speech> 
[391.305]
h i n ɑ æ z e ʧ ɪ b e ʒ ɪ m n æ ʤ m ɪ j æ x ɪ l ɑ s b u <laugh> 
[393.685]
<no-speech> 
[395.295]
<no-speech> 
[395.665]
<no-speech> 
[399.505]
n æ j ɑ k ʊ ɾ e n ɑ z l i j e h ɛ j æ b ɑ ʃ q ɑ t æ n e j æ <no-speech> n æ ʤ d æ t 
[403.035]
<no-speech> 
[405.845]
ħ æ n ɑ z e n ɑ z e t ʊ t ʊ t æ ɾ d ɪ b e n ɑ z e 
[409.775]
<no-speech> 
[412.275]
h æ m ɑ j ɑ w d ɑ w æ t ɑ w i j æ ħ æ t ɑ t ʊ m e ɾ b ɪ k æ æ z e b e m d ɑ w æ t ɑ t æ 
[416.445]
<no-speech> 
[418.945]
ħ æ 
[419.595]
<no-speech> 
[421.125]
m j ɑ n i ʧ ɪ b e ʒ ɪ m t ʊ z ɑ n i 
[423.025]
<no-speech> 
[424.235]
j ɑ l ɪ m m ɑ h ɑ l æ s i t ʊ z ɑ n i æ ɾ e j ɑ l ɪ m <no-speech> j ɑ l ɪ m <no-speech> j ɑ l ɪ m æ ɾ æ z ʒ ɪ b ɑ n k ɪ ɾ ħ æ w æ l æ h 
[429.915]
<no-speech> 
[431.545]
j ɑ n i d u ɾ æ 
[432.555]
<no-speech> 
[433.845]
æ h j ɑ l ɪ m æ ɾ e b ɪ ʧ u k e d u ɾ æ 
[435.975]
<no-speech> 
[439.955]
h ɑ 
[440.655]
<no-speech> 
[443.275]
ʧ ɪ 
[443.975]
<no-speech> 
[447.485]
i ʒ ɑ ɾ t æ ʤ ɑ ɾ e d ɪ k i x æ j ɾ ɪ j æ æ z l e b ɪ x ɪ m æ z l e 
[451.075]
<no-speech> 
[452.735]
m ɑ q i z ʧ ʊ ʧ e k e ʧ e k ɪ ɾ ɪ n m ɑ q i z ʧ e k ɪ ɾ w æ l æ h j ɑ n i b ɪ x w æ n æ ʤ m ɪ j æ 
[460.995]
<no-speech> 
[463.305]
d æ 
[463.985]
<no-speech> 
[471.175]
n ɑ w æ l æ h ʧ u j i n æ <oov> m u ʃ t æ æ s k æ ɾ i k ɪ ɾ 
[473.625]
<no-speech> 
[476.695]
d æ 
[477.335]
<no-speech> 
[478.975]
g o t t æ 
[479.795]
<no-speech> 
[481.975]
h ɑ b o ʤ æ m ɑ l b ɪ b i n ɪ n ħ æ æ w ɑ b o x w æ d i t i j æ i ʒ ɑ ɾ ʕ æ s k æ ɾ i j ɑ w i m ɑ j æ n æ k ɪ ʃ i n ɛ 
[488.105]
<no-speech> 
[492.325]
t æ g ʊ l e d i t i j æ 
[493.375]
<no-speech> 
[497.275]
<hes> 
[497.735]
<no-speech> 
[499.785]
k ʊ l i l k n æ d ɑ 
[501.015]
<no-speech> 
[502.875]
h ɪ n g i g o t æ n æ d æ ɾ g ɪ s t i j ɑ x w æ 
[504.885]
<no-speech> 
[508.515]
h ɑ 
[510.035]
<no-speech> 
[512.185]
j ɑ d æ n g e t æ n ɑ j e 
[513.535]
<no-speech> 
[515.765]
n æ ʤ m ɪ j æ 
[516.635]
<no-speech> 
[518.435]
æ l o n æ ʤ m ɪ j æ <no-speech> d æ n g e t æ n ɑ j e 
[521.465]
<no-speech> 
[529.015]
h e v i j ɑ t æ b ɪ d æ n æ m ɪ n ʧ ɪ l o x w æ x w æ 
[531.465]
<no-speech> 
[542.455]
h ɑ h ɑ s ɪ n g i 
[543.825]
<no-speech> 
[545.895]
u æ ɾ ʤ ɑ n k e h ɑ t ɪ n 
[547.535]
<no-speech> 
[550.635]
h ɑ 
[551.475]
<no-speech> 
[554.365]
d æ n g e t æ d i s ɑ ʧ u 
[555.865]
<no-speech> 
[556.885]
h ɑ 
[557.795]
<no-speech> 
[558.825]
m æ z ɪ n æ 
[561.375]
<no-speech> 
[562.245]
h ɑ 
[562.895]
<no-speech> 
[565.125]
e t ʊ k ʊ d ɑ n i 
[566.575]
<no-speech> 
[570.275]
t ʊ k ʊ d ɑ n i n ɪ z ɑ n i 
[571.635]
<no-speech> 
[573.045]
h ɑ h ɑ 
[574.515]
<no-speech> 
[577.025]
m 
[577.745]
<no-speech> 
[580.405]
ħ æ 
[581.075]
<no-speech> 
[585.625]
t ʊ h ɑ t ɪ b ɑ n æ d j ɑ 
[586.945]
<no-speech> 
[589.305]
n æ ʤ i m æ k ʊ d æ ʒ i j ɑ ʧ ɪ t æ n ɪ z ɑ n ɪ m <no-speech> h ɑ 
[592.885]
<no-speech> 
[596.085]
n æ ʤ m ɪ j æ 
[596.885]
<no-speech> <oov> 
[600.300]
