[0.000]
<no-speech> 
[6.295]
<sta> 
[8.675]
<no-speech> 
[9.905]
n æ m ɑ æ v d æ n g ʒ e t e 
[11.445]
<no-speech> 
[12.665]
æ l o 
[13.465]
<no-speech> 
[15.055]
æ l o ʃ i ɾ i n e 
[16.175]
<no-speech> 
[18.175]
k ɑ t ʊ ʧ ɪ d ɪ k i k ɑ t ʊ ʧ ɪ d ɪ k i 
[20.945]
<no-speech> 
[24.735]
æ ɾ e d u r ɑ æ z e ʒ ɪ t æ r ɑ b e ʒ ɪ m k ɑ t ʊ ʧ ɪ d ɪ k i 
[27.255]
<no-speech> 
[29.455]
m ɪ n g o t t ʊ ʧ ɪ d ɪ k i 
[30.635]
<no-speech> 
[34.565]
ʤ æ m k e j æ 
[35.585]
<no-speech> 
[37.955]
æ l o d æ n g e m ɪ n n ɑ j e q æ j j e w æ n ɑ j e æ ɾ e æ ɾ e d æ n g e t æ h ɑ t j e m ɪ n t e 
[45.765]
<no-speech> 
[47.645]
æ l o 
[48.405]
<no-speech> 
[49.665]
ħ æ k æ ʧ t æ g o t t ʊ l ɪ k ʊ j æ 
[52.035]
<no-speech> 
[53.565]
m ɪ n g o t t ʊ l ɪ k ʊ j æ 
[54.835]
<no-speech> 
[60.335]
ħ æ s ɪ l ɑ v ɑ l ɪ w ɑ n k æ k ɑ i b o d æ ɾ n æ k æ t m ɪ n g o t i b o d æ ɾ n æ k æ t 
[64.915]
<no-speech> 
[67.725]
w ɑ w e s ɑ æ t ʧ æ n d æ b ɪ g ɪ h æ v ɪ ɾ 
[70.845]
<no-speech> 
[72.065]
w ɑ e s ɑ æ t ʧ æ n d æ w æ ɾ æ v ɪ ɾ 
[74.365]
<no-speech> 
[76.985]
ħ æ f t e s ɪ b æ h e 
[78.145]
<no-speech> 
[80.045]
ħ æ f t e s ɪ b æ h e 
[81.655]
<no-speech> 
[82.665]
<sta> ɑ h e w æ l æ h æ z n ɪ h ɑ k ɑ æ z ʧ ɪ k b u m m ɪ n g o t æ ʤ e b ɑ i b o h ɑ t w æ l æ h æ m t ɪ ʃ t æ k e n ɑ k ɪ n m e v ɑ n h ɑ t ɪ b u n m æ f ɪ ɾ ɑ v i n ʧ e k ɪ ɾ ɪ b u ʧ u n æ m ʒ i r u n ɪ ʃ t ɪ n ɛ 
[94.605]
h ɑ 
[95.955]
<no-speech> 
[97.195]
æ m æ m l ɪ m ɑ l ɪ n 
[98.875]
<no-speech> 
[100.585]
j ɑ m æ j æ 
[101.595]
<no-speech> 
[104.455]
j ɑ m æ j æ t æ l æ f t æ l æ f o n j ɑ m æ j æ 
[107.475]
<no-speech> 
[109.295]
g o t m ɪ n q ɑ p ɑ t k ɪ ɾ v e n ʊ m ɑ ɾ ɛ j e n æ g ɪ ɾ i d u ɾ æ h ɑ <laugh> 
[112.675]
<no-speech> 
[114.075]
<sta> æ z æ z d ɪ k ɑ ɾ ɪ m b e ʒ ɪ m e b e ʒ ɪ b o z ɪ m ɑ n æ h ɑ e t æ h ɑ j ʒ e w æ l i d e t æ n e j æ 
[122.565]
<no-speech> 
[123.735]
æ l o 
[124.465]
<no-speech> 
[126.835]
h ɑ 
[127.375]
<no-speech> 
[128.935]
m ɪ n g o t æ h ɑ j ʒ ɪ t æ n e j æ b æ l e b æ l e d æ n g e t æ t e m ɪ n g ɑ h ɑ j ʒ ɪ t æ n e j æ 
[134.415]
<no-speech> 
[135.325]
w ɑ s ɪ l ɑ v ɑ l e b ɪ k æ 
[137.385]
<no-speech> 
[140.615]
m 
[141.405]
<no-speech> 
[142.935]
w æ l æ h æ m t ɪ ʃ t æ k e n ɑ k ɪ n æ m r u n ɪ ʃ t i n æ m ɪ n g o t æ m t ɪ ʃ t æ k e n ɑ k ɪ n æ m r u n ɪ ʃ t i n æ m ɪ n g o t k ɑ æ m b i n e h u n ʧ ɪ d ɪ k ɪ n 
[151.045]
<no-speech> 
[152.465]
m 
[153.135]
<no-speech> 
[157.545]
<sta> h ɑ d æ x w æ d e s æ l ɑ m æ t e k ɑ t ʊ b æ l i n æ k ɪ ɾ k ʊ t ʊ w æ ɾ i 
[162.145]
<no-speech> 
[164.395]
h ɑ 
[164.985]
<no-speech> 
[170.405]
t ʊ j e b æ ɾ e æ j d i w æ ɾ i 
[172.655]
<no-speech> 
[175.835]
m ɪ n g o t 
[176.325]
<no-speech> 
[177.855]
<sta> w ɑ i ɾ o ʒ m ɪ ħ s o l ɪ m ɪ n g æ ɾ i j ɑ g ɑ w æ ɾ æ v e d æ ɾ e m e v ɑ n h æ b u n æ z n æ ʧ u m g o t w æ ɾ æ v ɪ ɾ g o t m ɑ t ʊ j e b ɪ ʃ ɪ x ʊ l i m ɪ n g o t n ɑ w æ l æ h m ɪ n g o t b æ l k i 
[188.925]
ʤ æ m w e b ɪ ʃ ɪ x ʊ l ɪ m i ʒ ɑ ɾ g o t s æ ɾ v i s ɑ g o t t ʊ j e z ɑ ɾ o k ɑ n ʒ i ʧ ɪ k b ɪ k i m ɪ n g o t n ɑ æ z æ z s æ ɾ v i s e q æ b u l n ɑ k ɪ m j ɑ n i w ɪ l o g o t m ɪ n g o t æ z e b e m ʤ æ m t æ æ z n ɑ ʃ ɪ x ʊ l ɪ m æ ɾ e 
[200.095]
w e i ɾ o ʒ g o t i n e w æ ɾ æ w æ ɾ æ v e d æ ɾ e m ɪ n g o t t æ m ɑ m æ z e w æ ɾ ɪ m w æ l æ h ħ æ z ɑ ɾ e w e ʧ ɪ l o n æ 
[207.385]
<no-speech> 
[209.265]
ɑ j t æ n e ʧ ɪ l o j æ 
[210.865]
<no-speech> 
[213.145]
ɑ h 
[214.005]
<no-speech> 
[217.515]
æ ɾ e æ ɾ e z ɑ n ɪ m æ z z ɑ n ɪ m æ m i n æ ʧ ɪ d i k e d ɪ ʃ ɪ x ʊ l æ 
[221.035]
<no-speech> 
[222.495]
e æ w x æ ɾ i b d ɪ h e n ɑ n ɑ t ʊ b ɪ k æ n ɑ n ɑ b ɪ s æ k ɪ n æ i ʃ e m ɪ n p e h ɛ j æ b æ ɾ i j ɑ t æ k ɪ ɾ ɪ b u i ʒ ɑ ɾ d ɪ v e d u r ɑ b ɪ ʃ t æ x ɪ l ɪ m <laugh> 
[232.865]
<no-speech> 
[233.665]
<laugh> m ɪ n g o t m ɪ n e b ɪ g o t ɑ ʧ ɪ <hes> æ m i n æ ʒ i n ɑ j e b ɪ t æ r ɑ 
[238.365]
<no-speech> 
[240.765]
ħ æ 
[241.445]
<no-speech> 
[245.775]
æ m i n æ t æ r ɑ n ɑ j e m ɑ t ʊ j e t æ n e w æ ɾ i ʒ ɪ w e d æ ɾ e 
[248.465]
<no-speech> 
[253.995]
m 
[254.845]
<no-speech> 
[258.725]
m ɪ n g o t m ɑ t ʊ t æ n e w æ ɾ i 
[260.725]
<no-speech> 
[261.755]
æ æ t e t e m ɪ n g o t m ɑ t ʊ t æ n e w æ ɾ i 
[264.015]
<no-speech> 
[266.545]
t ʊ q æ n ʤ i d ɪ k i ħ æ t ʊ t æ n e w æ ɾ æ <laugh> u d ɪ j ɑ t æ w e r o ʒ i j e w æ ɾ æ n æ w ɪ l o 
[272.275]
<no-speech> 
[275.235]
d ɪ g o t ʧ ɪ d ɪ g o t ʧ ɪ j ɑ l ʧ ɪ n 
[277.105]
<no-speech> 
[278.835]
m ɪ n g o t j e d ɪ j ɑ t æ 
[280.925]
<no-speech> 
[285.245]
e 
[286.085]
<no-speech> 
[288.475]
e i ʤ ɑ t ʊ 
[289.955]
<no-speech> 
[292.795]
<sta> e m ɑ t ʊ b ɪ t ɛ j ɑ ɾ æ j e w æ ɾ i b ɪ o t o b ʊ s e w æ ɾ i 
[295.475]
<no-speech> 
[297.245]
<sta> n æ b æ l i j æ 
[298.825]
<no-speech> 
[305.555]
h ɑ æ ɾ e w æ l æ h e w æ l æ h m ɑ t ʊ ʒ i t æ n e w æ ɾ i m ɑ t ʊ n ɪ k ɑ ɾ i t æ n e <oov> m ɑ b ɑ v e r o n j ɑ æ w w æ ɾ ɪ n t ʊ w ɪ ɾ e 
[313.075]
<no-speech> 
[314.575]
ʃ i n e 
[315.445]
<no-speech> 
[316.895]
e t æ m ɑ m w e w æ ɾ æ w e w e n o z d æ h e m æ h w e n o z d æ h e m æ h e w e d i s ɑ v æ g æ ɾ i w e d i s ɑ v æ g æ ɾ i w e ʃ ɪ k ɑ k ʧ ɑ v e w e æ ɾ e æ m ɑ d ɪ æ z 
[328.725]
b e w e w ɪ l o w æ ɾ ɪ n w e b ɪ t ɛ j ɑ ɾ æ j e w æ ɾ ɪ n 
[331.375]
<no-speech> 
[333.265]
w e ʃ i n e w æ ɾ æ ʃ i n e t ɪ r m ɪ n b ɪ k æ j ɑ n i b ɪ b æ ʧ ɪ k 
[336.935]
<no-speech> 
[338.015]
b æ l e k æ ʧ e w e w æ ɾ ɪ n d ʊ ʃ æ m e ʧ ɪ k ɑ w e 
[341.045]
<no-speech> 
[343.355]
æ ɾ e w e d ʊ r o ʒ s e r o ʒ ɑ w e b ɪ m e n ɛ l ɪ w e d æ ɾ e ʤ æ m 
[346.095]
<no-speech> 
[347.765]
ʧ u j æ k æ n g i ʧ u n 
[349.085]
<no-speech> 
[352.945]
m ɑ k æ n g i ʧ u j æ ʃ i n e 
[354.635]
<no-speech> 
[355.595]
ʃ i n e k æ n g i ʧ u j æ 
[357.075]
<no-speech> 
[359.765]
ɑ h 
[361.285]
<no-speech> 
[362.085]
w æ l æ h m ɪ n d ɪ g o t q æ j d ɪ g o t d ɪ g o t æ z e h æ ɾ ɪ m 
[365.785]
<no-speech> 
[366.815]
u s p o ɾ ɑ x w æ ʒ i k ɪ r i n ɛ ʧ i k b u f æ q i ɾ e 
[370.285]
<no-speech> 
[372.225]
p o r ɑ x w æ m ɑ n æ ʧ e k ɪ ɾ ɪ b u 
[373.885]
<no-speech> 
[375.665]
æ ɾ e æ ɾ e ʧ e k ɪ ɾ d ɪ g o t 
[377.405]
<no-speech> 
[379.545]
æ ɾ e æ ɾ e x w æ ʃ ɪ k ʧ e k ɪ ɾ ɪ b u n w æ l æ h p o r ɑ w e n æ 
[382.325]
<no-speech> 
[383.195]
ɑ v e t ɪ b u f æ j s e x w æ ʃ ɪ k ʧ e k ɪ ɾ ɪ b u ħ æ g æ l æ k i p e k æ t ɪ b u 
[388.045]
<no-speech> 
[389.885]
m æ ɾ e æ ɾ e w æ l æ h e i ʤ ɑ 
[395.305]
<no-speech> 
[396.255]
n ɑ n ɑ <int> æ m b e n æ w ɪ ɾ 
[398.225]
<no-speech> 
[400.135]
æ ɾ e t æ m ɑ m t æ m ɑ m n æ b e ʒ æ ʧ ɪ m ɑ t ʊ d ɪ b e ʒ i 
[402.955]
<no-speech> 
[404.725]
n æ b e ʒ æ t ɪ ʃ t æ k i e v ɑ ɾ e j ɑ t æ n æ b æ l ɑ ʃ æ 
[407.015]
<no-speech> 
[407.885]
æ ɾ e e v ɑ ɾ e j ɑ t æ n æ b æ l ɑ ʃ æ m ɑ 
[410.005]
<no-speech> 
[410.945]
t æ m ɑ m b ɪ ɾ ɑ m ɪ n b ɪ g æ ɾ i j ɑ d u r ɑ e v ɑ ɾ e t æ m ɑ m d u r ɑ v i j ɑ m ɪ n b ɪ q æ ɾ ɛ 
[415.765]
<no-speech> 
[416.875]
j ɑ m ɪ n b ɪ g ɪ ɾ æ j ɑ m ɪ n 
[418.785]
<no-speech> 
[419.915]
æ w ɑ k ʊ m ɪ n b æ ɾ e l ɪ t æ d ɪ g æ ɾ i 
[421.545]
<no-speech> 
[423.235]
æ ɾ e æ ɾ e <laugh> 
[424.865]
<no-speech> 
[426.205]
k æ ʧ e b ɪ s æ b ɪ s æ k ɪ n i n æ w ɑ h æ m ɑ m ɑ k æ ʧ e b ɪ s æ q ɑ p ɑ t n æ k ɛ ʃ i n e 
[432.095]
<no-speech> 
[433.115]
ʃ i n e 
[434.015]
<no-speech> 
[436.675]
<sta> b e æ m e h æ ɾ ɪ n m ɑ l e m ɑ m ɑ t ʊ ʤ ɪ j ɑ x w æ h u n e h æ ɾ ɪ n m ɑ t ʊ q æ t ʊ t æ n e h e ʃ i n e ʃ i n e 
[445.585]
<no-speech> 
[446.855]
k æ ʧ e b ɪ s æ d ʊ d æ q ɛ j e n d i n b ɪ ʃ t æ x ɪ l ɛ 
[449.035]
<no-speech> 
[450.035]
d ʊ d æ q ɛ j e n d i n b ɪ ʃ t æ x ɪ l ɛ u x ɪ l ɑ s b ɪ s æ k ɪ n i n æ m ɪ n g o t æ z e t ɪ ʃ t t æ r ɑ b e ʒ ɪ m ħ æ ħ æ <laugh> h ɑ v ɑ j æ m ɑ ɾ e ʒ i ʤ æ m m æ j æ s ɪ l ɑ v ɑ l ɪ t æ d i k e m ɑ ɾ e m ɑ ɾ e 
[461.965]
<laugh> m ɑ ɾ e m ɑ ɾ e 
[464.965]
<no-speech> 
[466.475]
d ɪ b æ q æ t j æ k e n æ d i t <laugh> d ɪ b æ q æ t 
[470.085]
<no-speech> 
[470.925]
d ɪ b æ k ɑ j æ k e n æ d i t 
[472.305]
<no-speech> 
[473.235]
h ɑ 
[473.885]
<no-speech> 
[475.365]
ʧ ɪ l o 
[476.115]
<no-speech> 
[480.095]
h ɑ d æ b ɪ b ɪ n b ɪ b i n æ 
[483.605]
<no-speech> 
[492.745]
<laugh> d ʊ d æ q æ d i n x w æ b ɪ g ɪ ɾ æ n ʊ m ɑ ɾ ɛ j e b ɪ d æ j æ k e m ɪ n n ɑ d ɪ n e 
[499.035]
<no-speech> 
[501.165]
h ɑ 
[501.805]
<no-speech> 
[503.315]
<no-speech> 
[503.665]
<no-speech> 
[504.475]
ħ æ h ɛ j ɑ n i s ɪ ɾ ɑ t æ ħ æ t ɑ s ɑ l æ k e <laugh> n i n ɪ n m ɑ ʧ ɪ m ɑ ʒ ɪ t æ r ɑ b ɪ ʒ e ɾ n i n ɪ n <laugh> 
[514.415]
<no-speech> 
[515.575]
<hes> 
[516.245]
<no-speech> 
[518.845]
ħ æ 
[519.825]
<no-speech> 
[520.665]
i ʒ ɑ ɾ m æ s u d æ n ɑ j e w e d æ ɾ e g o t æ ɾ e æ l m ɑ n j ɑ m æ s u d æ 
[525.805]
<no-speech> 
[527.455]
n ɑ j e 
[528.215]
<no-speech> 
[530.415]
w e d ʊ ʃ æ m e h æ ɾ ɛ æ n q æ ɾ æ h ɑ h æ ɾ ɛ k o n s o l o s e 
[533.905]
<no-speech> 
[535.185]
w e d ɪ g o t e æ v d ʊ ʃ æ m b ɪ ʧ ɪ b ɪ b æ æ m e h æ ɾ ɪ n w æ l æ h q æ h p æ k æ t æ ʧ ɪ d i k e 
[541.705]
<no-speech> 
[543.465]
h e 
[544.665]
<no-speech> 
[549.155]
m 
[549.735]
<no-speech> 
[551.895]
<hes> m ɪ n g o t ɪ b ɑ n ɑ ʧ ɪ æ z s ʊ n d ʊ z e d ɪ g o t æ z e w e b ɪ x w ɪ m m ɪ n g o t ʕ æ j n i w æ ɾ e <int> 
[557.805]
<no-speech> 
[558.655]
b ɪ v e w ɑ ʃ i n e 
[561.475]
<no-speech> 
[564.345]
q ʊ ɾ ʕ ɑ n q ʊ ɾ ʕ ɑ n d ɪ g o t g o t w e w æ ɾ ɪ n æ v e d æ ɾ e æ z 
[567.505]
<no-speech> 
[568.375]
<hes> d ɪ g o t g o t w æ ɾ æ v e d æ ɾ e æ z w e b æ ɾ n ɑ d ɪ m d ɪ g o t ʕ æ j n i d ɪ x w ɪ m <laugh> q ʊ ɾ ʕ ɑ n ʒ ɪ b æ ɾ w ɪ l o u 
[577.725]
<no-speech> 
[578.665]
u w e i b o g æ l æ k i v ɪ ɾ b ɪ m e n ɛ 
[581.865]
<no-speech> 
[583.965]
ħ æ 
[584.575]
<no-speech> 
[587.095]
p ɑ n z d æ h r o ʒ ɑ 
[588.215]
<no-speech> 
[590.755]
m ɑ m ɑ ʃ æ l ɑ h h ɪ n g i t e æ m w i d ɪ b i n ɪ n t e u d ɪ ʧ æ 
[594.045]
<no-speech> 
[595.115]
d æ n g e m ɪ n t e t æ 
[596.305]
<no-speech> 
[599.035]
æ ɾ e k æ ʧ e b ɪ s æ d æ 
[600.040]
