[0.000]
t ʊ n ɪ h ɑ 
[0.535]
<no-speech> 
[1.355]
ʧ ɪ <hes> ʧ u k æ 
[2.725]
<no-speech> 
[4.485]
æ z ʒ i b ɑ ʃ ɪ m 
[5.655]
<no-speech> 
[6.645]
<sta> x ɑ l t i k e t ɑ ʧ ɑ w ɑ n æ 
[10.545]
<no-speech> 
[11.845]
h e æ z ɪ m 
[12.865]
<no-speech> 
[14.555]
<sta> t ʊ b ɑ ʃ ɪ m t ʊ s ɑ x b e ʤ ɪ j ɑ t æ ʧ ɑ w ɑ n æ 
[19.075]
<no-speech> 
[20.675]
m ɑ z l u m 
[22.415]
<no-speech> 
[24.655]
b ɑ ʃ æ ħ æ x ɑ l t i k æ ʧ ɑ w ɑ n æ 
[26.825]
<no-speech> 
[29.155]
ħ æ i ʃ e t æ ʤ ɑ d ɪ ʧ æ 
[30.515]
<no-speech> 
[33.165]
<sta> f ɑ t ʊ ɾ æ t æ f ɑ t ʊ ɾ æ t æ ɑ ɾ ɑ s ɪ ʧ ɑ w ɑ n æ 
[37.185]
<no-speech> 
[40.835]
h ɑ 
[41.395]
<no-speech> 
[42.775]
<sta> b ɑ ʃ æ i ʃ e t æ ʧ ɑ w ɑ n ɪ n h æ v ɑ l e t æ ʧ ɑ w ɑ n æ ɑ ɾ æ t æ b ɑ ʃ æ e b ɑ ʃ æ w æ l æ h 
[51.295]
<no-speech> 
[53.045]
æ w e m ɪ n ʒ i b ɑ ʃ æ i ʃ t æ æ m ʒ i æ z ʒ i d ɪ ʃ ɪ x ʊ l ɪ m 
[56.135]
<no-speech> 
[58.335]
ħ æ b ɑ ʃ æ æ z ʒ i d ɪ ʃ ɪ x ʊ l ɪ m p ɑ t ɾ o n ɑ m ɪ n ɑ ɾ æ m ɪ n ʒ i b ɑ ʃ æ h ɑ 
[62.315]
<no-speech> 
[65.245]
<sta> ħ æ b ɑ ʃ æ h æ m ɑ æ ɾ e ħ æ w æ l æ h h æ v ɑ l ʒ i b ɑ ʃ ɪ n j ɑ n i 
[75.435]
<sta> h e h ɑ 
[79.705]
<no-speech> 
[81.665]
<sta> t æ g o t ʧ ɪ <no-speech> æ w ɑ æ ɾ e æ ɾ e b ɑ ʃ æ ʒ ɪ x w æ æ j n æ æ j n æ w ɪ s ɑ æ ɾ e <laugh> 
[93.275]
æ j n æ w ɪ s ɑ j æ æ ɾ e j ɑ w q æ n æ b e ʒ æ j ɑ w æ w ɑ æ z ʒ i k ɪ ɾ p ɪ ɾ ʃ ɑ ʃ ɪ ɾ m i ʃ b u m ħ æ æ z n ɪ z ɑ n ɪ m æ z e ʧ ɪ b ɪ k ɪ m æ z n ɪ z ɑ n ɪ m æ z ʒ i h æ m ɑ w ɪ s ɑ 
[105.125]
<int> ʒ ɪ x w ɛ j ɑ m ɪ n ʒ ɪ x w æ æ z n ɪ z ɑ n ɪ m ʒ ɪ <oov> ʒ ɪ m ɪ n r æ w ɪ s ɑ g o t ɪ n æ z ʒ i w ɪ s ɑ d ɪ k ɪ m ʒ ɪ x w æ <int> <laugh> t æ m ɑ m n æ æ w n æ 
[117.065]
<sta> k æ ʧ e ʒ ɪ x w æ w ɪ s ɑ d ɪ b æ j ɑ n i t ʊ z ɑ n i 
[121.805]
<no-speech> 
[122.855]
<sta> t æ x æ b æ ɾ e h ɑ p ɪ ʃ t x w ɛ j ɑ w e j æ t ʊ z ɑ n ɑ e r ʊ z g ɑ ɾ f ɑ l ɑ n t e 
[133.475]
<no-speech> 
[134.345]
<sta> j ɑ æ ɾ e i ɾ o ʒ p ɪ ɾ s ɑ ɾ æ 
[137.145]
<no-speech> 
[138.005]
<sta> x æ w w æ d ɑ j æ 
[141.145]
<no-speech> 
[142.805]
n ɪ z ɑ n ɪ m t ʊ ʧ ɪ d ɪ b e ʒ i b e ʒ æ 
[144.955]
<no-speech> 
[148.495]
<no-speech> 
[149.015]
<no-speech> 
[151.935]
<sta> t ʊ n ɪ z ɑ n ɛ k ʊ ɾ m ɑ n ʤ i b ɪ p ɛ j ɪ v ɛ n ɪ z ɑ n ɛ 
[155.925]
<no-speech> 
[159.545]
<no-speech> 
[160.485]
<no-speech> 
[161.335]
<sta> d ɪ ɾ u m ɑ m æ r ɪ n d æ j ɑ ʃ æ j ɑ ʃ æ <laugh> 
[165.865]
<no-speech> 
[167.185]
æ ɾ e h ɑ b e ʒ æ d ɑ 
[169.595]
<no-speech> 
[171.305]
h ɑ 
[171.855]
<no-speech> 
[174.845]
h ɑ 
[175.405]
<no-speech> 
[177.405]
<sta> h æ n æ d ɪ j o ɾ 
[179.755]
<no-speech> 
[181.225]
<laugh> æ ɾ e æ ɾ e æ ɾ e 
[185.855]
<no-speech> 
[187.045]
<no-speech> 
[188.715]
<no-speech> 
[190.215]
t æ m ɑ m 
[190.735]
<no-speech> 
[191.915]
t ʊ ʧ u j æ i ʒ ɑ ɾ n ɪ z ɑ n ɪ m 
[193.445]
<no-speech> 
[196.575]
i ʃ e t æ ʤ ɑ d ɪ ʧ æ 
[197.805]
<no-speech> 
[198.975]
<no-speech> 
[199.565]
<no-speech> 
[201.355]
<int> b ɑ ʃ æ 
[202.345]
<no-speech> 
[204.015]
h ɑ 
[204.545]
<no-speech> 
[208.195]
<int> h ɑ 
[209.855]
<no-speech> 
[213.365]
d æ n g e t æ n ɑ j e m ɪ n h ɑ 
[214.825]
<no-speech> 
[215.935]
<no-speech> 
[216.465]
<no-speech> 
[218.625]
<sta> w æ l æ h n ɪ z ɑ n ɪ m d æ n g e t æ t e d ɪ ʧ æ t e d ɪ ʧ æ f æ h m n ɑ k ɪ m j ɑ 
[225.825]
<no-speech> 
[228.455]
<sta> <laugh> w æ j e 
[232.425]
<no-speech> 
[233.905]
h ɛ j æ 
[234.665]
<no-speech> 
[236.165]
e 
[236.925]
<no-speech> 
[237.795]
d ɑ h ɑ d ɑ d ɪ ʧ e 
[238.905]
<no-speech> 
[241.075]
<no-speech> 
[245.435]
<no-speech> 
[246.495]
<sta> <laugh> ʤ ɑ w æ ɾ æ x æ b æ ɾ e m ɪ n 
[249.705]
<no-speech> 
[250.695]
ʧ u j æ m ɑ l ɑ ʧ ɑ w ɑ n æ 
[252.215]
<no-speech> 
[253.035]
<no-speech> 
[253.385]
<no-speech> 
[255.605]
<sta> ħ æ 
[258.525]
<no-speech> 
[259.895]
<sta> d æ i n ʃ æ l ɑ h j e d ɑ h ɑ p ɪ ɾ b ɑ ʃ b ɪ b æ 
[264.735]
<no-speech> 
[265.545]
d æ ʧ ɪ b u i ɾ o ʒ æ m x æ b æ ɾ d ɪ d ɪ n x æ b æ ɾ d ɪ d ɪ n æ m x æ b æ ɾ d ɪ d ɪ n ʧ æ n d d æ q æ b u n ʧ æ n d d æ q æ b u n h ɑ 
[273.955]
<no-speech> 
[275.145]
<sta> w æ l æ h e d i ʧ æ n d d æ q æ m ɪ n g o t ʧ æ n d d æ q æ b u æ m x æ b æ ɾ d ɪ d ɪ n 
[281.555]
<no-speech> 
[286.625]
<no-speech> 
[287.155]
<no-speech> 
[288.205]
<sta> o j m æ ɾ j æ m æ m e s æ x æ b æ ɾ d i n d ɑ <no-speech> d æ n g e m ɪ n n ɑ j e t æ 
[299.295]
<no-speech> 
[301.155]
h ɑ 
[302.015]
<no-speech> 
[303.925]
<sta> ʒ ɪ b o m b æ b ɪ k æ 
[307.555]
<no-speech> 
[309.755]
<no-speech> 
[310.265]
<no-speech> 
[311.895]
<no-speech> 
[312.245]
<no-speech> 
[313.105]
<laugh> æ z h æ v ɑ l ɑ d ɪ k æ n ɪ m 
[315.925]
<no-speech> 
[318.875]
t ʊ ʧ ɪ m ɑ v ɑ n i ʃ ɑ w ɪ s ɑ ʧ e d ɪ k æ æ ɾ e t ʊ ʧ ɑ w ɑ n b ɪ k i ʧ e k ɪ ɾ ɪ b u j ɑ b o z ʊ q b u h ɑ 
[324.945]
<no-speech> 
[328.235]
d æ n g e m ɪ n t e t æ ħ æ 
[330.745]
<no-speech> 
[331.775]
t æ f æ h m k ɪ ɾ 
[332.795]
<no-speech> 
[336.975]
<sta> d æ n g e m ɪ n n ɑ j e t æ 
[342.565]
<no-speech> 
[343.705]
<sta> t ʊ ʧ ɪ h æ v ɑ l e m ɪ n t æ ʧ ɑ w ɑ n æ 
[346.865]
<no-speech> 
[348.945]
w æ l æ h æ z d ɪ b ɨ m <sta> <laugh> w æ l æ h æ z g o m l æ k e s æ ɾ e x w æ k e m b e w e w ɪ s ɑ b e 
[360.825]
d ɪ ʃ ɪ b ɛ g o m l æ k e t æ n ɪ k 
[364.105]
<no-speech> 
[366.105]
m ɪ n g o t g o m l æ k e g æ ɾ æ x w æ b ɪ k æ ʒ ɪ x w æ s ɑ ɾ æ t æ f æ h m k ɪ ɾ <int> 
[371.225]
<no-speech> 
[373.155]
<sta> <laugh> ʧ æ n d d æ q æ n ɪ z ɑ n ɛ x æ b æ ɾ d ɪ d ɪ n x æ b æ ɾ d ɪ d ɪ n 
[383.495]
<no-speech> 
[385.465]
m ɑ z l u m t æ m ɑ m m ɑ z l u m ʧ æ n d d æ q æ b u <int> 
[390.185]
<no-speech> 
[392.375]
<no-speech> 
[392.905]
<no-speech> 
[394.405]
<no-speech> 
[396.605]
<no-speech> 
[398.885]
<sta> ħ æ 
[399.815]
<no-speech> 
[400.815]
<sta> i ʒ ɑ ɾ x w æ n d ɪ b u æ ɾ e i ʒ ɑ ɾ h ɪ n d ɪ k m ɑ æ m t ʊ ʧ ɪ æ m e x æ b æ ɾ d i n 
[412.725]
<sta> <laugh> m ɪ n g o t æ k o n t ʊ ɾ d ɑ n e 
[417.375]
<no-speech> 
[418.495]
<sta> e d i t æ q ɑ l b e t æ n i n ɛ ħ æ t æ m ɑ m e m ɑ z l u m 
[424.555]
<no-speech> 
[426.265]
<int> d æ q ɑ b e ʒ æ h æ v ɑ l 
[427.935]
<no-speech> 
[430.595]
æ ɾ e 
[431.255]
<no-speech> 
[432.975]
i ʃ e t æ ʧ ɑ w ɑ h ɛ j æ 
[434.075]
<no-speech> 
[436.635]
æ z b ɑ ʃ ɪ m i ʃ e ʧ ɑ w ɑ d ɪ ʧ æ 
[438.935]
<no-speech> 
[439.905]
<sta> h ɑ <laugh> 
[451.835]
<no-speech> 
[452.645]
<sta> ħ æ e b ɑ ʃ æ ʤ ɪ j ɑ t æ ʧ ɑ w ɑ j æ 
[464.455]
<sta> <laugh> w æ l æ h æ z e ʒ i n ɪ z ɑ n ɪ m æ z e ʧ ɪ x æ b æ ɾ h æ m ɑ æ z e t ɪ ʃ t ɑ d ɪ b e ʒ ɪ m j ɑ n i 
[472.445]
<no-speech> 
[473.575]
<no-speech> 
[473.935]
<no-speech> 
[474.775]
<sta> ħ æ 
[478.335]
<no-speech> 
[480.395]
æ ɾ e w æ l æ h w ɪ s ɑ j æ j ɑ 
[483.355]
<no-speech> 
[485.225]
m 
[486.005]
<no-speech> 
[488.365]
k ɑ n e æ m h ɪ n d æ k ʊ ɾ m ɑ n ʤ i b ɪ p ɛ j ɪ v ɛ x æ b æ ɾ d ɪ d ɪ n 
[491.105]
<no-speech> 
[493.735]
<no-speech> 
[494.845]
<no-speech> 
[495.655]
<no-speech> 
[496.105]
<no-speech> 
[497.955]
ħ æ z ɑ f x w æ ʃ æ ʧ ɪ q ɑ s 
[499.925]
<no-speech> 
[501.055]
<sta> h ɑ 
[506.425]
<no-speech> 
[507.425]
<sta> æ z s æ m ɑ n æ <laugh> 
[518.935]
<no-speech> 
[519.805]
<sta> h æ ɾ ɛ x e ɾ æ h æ ɾ ɛ x æ s t ɑ n e x æ s t ɑ n æ n æ x w æ ʃ x ɑ n ɛ h æ ɾ ɛ b ɪ ʧ ɛ n æ x w æ ʃ x ɑ n ɛ 
[531.255]
<sta> ħ æ 
[537.045]
<no-speech> 
[538.095]
æ m ʧ u n 
[548.805]

[550.405]
<no-speech> 
[551.265]
<sta> w æ l æ h æ z e t ɑ m <laugh> æ z n ɪ z ɑ n ɪ m æ z e b e ʒ ɪ m ʧ ɪ 
[563.255]
<sta> h ɑ 
[564.995]
<no-speech> 
[567.045]
h ɑ 
[567.625]
<no-speech> 
[569.045]
d æ b e ʒ æ h æ v ɑ l 
[570.055]
<no-speech> 
[570.965]
h ɑ 
[571.625]
<no-speech> 
[575.825]
h æ m ɑ t e t 
[577.035]
<no-speech> 
[578.205]
<sta> æ ɾ e j e t æ ʧ ɪ j æ æ ɾ e t æ m ɑ n ɑ v e t æ ʧ ɪ j æ 
[585.195]
<no-speech> 
[586.935]
<sta> d æ n g n ɑ j e t æ 
[592.355]
<no-speech> 
[597.005]
d æ n g e m ɪ n t e t æ 
[597.985]
<no-speech> 
[599.780]
