[0.000]
<no-speech> 
[9.845]
<no-speech> 
[10.255]
<no-speech> 
[13.595]
<no-speech> 
[13.965]
<no-speech> 
[19.635]
æ l o 
[20.485]
<no-speech> 
[22.825]

[24.095]
<no-speech> 
[24.915]
s ɑ x b ɪ t ʊ ʧ ɑ w ɑ n i 
[26.585]
<no-speech> 
[27.415]
<no-speech> 
[27.775]
<no-speech> 
[29.695]
æ l o 
[30.505]
<no-speech> 
[31.365]
<no-speech> 
[33.335]
<no-speech> 
[34.365]
æ l o b æ l e d æ n g t e 
[36.675]
<no-speech> 
[38.115]
<no-speech> 
[38.885]
<no-speech> 
[41.215]
b æ l e b ɑ ʃ æ æ m ʃ i v e ħ ɑ z ɪ ɾ d ɪ k ɪ n h u n ʧ ɪ d ɪ k ɪ n ɛ 
[44.295]
<no-speech> 
[47.035]
<no-speech> 
[47.385]
<no-speech> 
[48.435]
<int> b æ l e æ m e i ʃ e w ɑ n d æ ɾ æ n g 
[50.905]
<no-speech> 
[51.905]
<sta> n ɑ w æ l æ h æ m e m ɪ ɾ i ʃ k æ k e b ɑ v e ʒ ɪ n f ɪ r ɪ n e d æ 
[55.475]
<no-speech> 
[59.575]
<sta> <laugh> ħ æ w æ l æ h <laugh> b ɑ ʃ æ æ w ʒ ɪ <int> <laugh> æ w ʒ ɪ v e d æ ɾ e j æ s æ l ɑ m æ t æ 
[71.535]
ʧ ɑ v e t æ b ɑ ʃ 
[72.855]
<no-speech> 
[73.805]
e d ɪ ʧ ɑ w ɑ n æ b ɑ ʃ æ 
[75.435]
<no-speech> 
[77.685]
b ɑ ʃ æ i ʃ t æ t e ʧ æ m e t æ 
[79.755]
<no-speech> 
[81.635]
<sta> b ɑ ʃ æ ʃ ɪ k æ s t æ z d ɪ ʃ ɪ x ʊ l ɪ n æ m 
[88.695]
<no-speech> 
[89.545]
m æ k t æ b ʒ ɪ b ɑ ʃ æ 
[90.935]
<no-speech> 
[93.455]
b æ l e h æ v d ɪ b æ r æ x h æ v d ɪ b o ɾ i i ʃ t æ 
[96.135]
<no-speech> 
[100.535]
b æ l e h æ m d ɪ ʃ ɪ x ʊ l ɪ m h æ m d ɪ ʧ ɪ m m æ k t æ b e 
[103.395]
<no-speech> 
[105.145]
p æ n ʤ r o ʒ ɑ d ɪ ʧ ɪ m i ʃ ʃ ɪ x ʊ l i m æ z d ʊ r o ʒ ɑ d ɪ ʧ ɪ m ɛ m æ k t æ b e 
[109.125]
<no-speech> 
[113.035]
q æ j d æ n g e m ɪ n n ɑ j i t æ 
[114.525]
<no-speech> 
[117.065]
æ h m æ d 
[117.785]
<no-speech> 
[122.485]
w æ l ɑ h i æ z n ɪ z ɑ n ɪ m h æ m ɑ d æ n g e m ɪ n n ɑ j e t æ b æ l k i t ʊ m ɪ n s æ h n ɑ k i 
[126.245]
<no-speech> 
[127.765]
d æ n g e m ɪ n t e t æ 
[129.375]
<no-speech> 
[133.165]
m ɪ n ʤ ɪ h e x w æ ʒ ɪ d æ g ɪ ʃ k ɪ ɾ ʧ ɪ n ɑ b i ʧ ɪ d ɪ b u j ɛ <int> 
[136.775]
<no-speech> 
[140.235]
æ l o 
[141.445]
<no-speech> 
[143.325]
<sta> s ɪ n ɑ v ɑ m ɪ n b ɑ ʃ b u w i ʃ ɪ k ʊ ɾ d æ ɾ s e m ɪ n h æ m u j ɑ æ z b ɪ m i n ɪ m 
[147.505]
<no-speech> 
[150.265]
æ l o 
[150.955]
<no-speech> 
[152.285]
<int> d æ n g e m ɪ n s æ h n ɑ k i 
[154.565]
<no-speech> 
[156.745]
ħ æ 
[157.395]
<no-speech> 
[159.585]
e b ɑ ʃ æ ʃ ɪ k ʊ ɾ 
[161.015]
<no-speech> 
[165.065]
h ɑ 
[165.665]
<no-speech> 
[170.765]
<lipsmack> s ɪ n ɑ v e m ɪ n 
[172.235]
<no-speech> 
[173.155]
<int> ʧ ɪ l b o ɾ i j æ b ɑ ʃ b o ɾ i j æ d æ n g e m ɪ n s æ h n ɑ k i æ l o 
[185.035]
<no-speech> 
[185.755]
<no-speech> 
[189.005]
<no-speech> 
[189.855]
<no-speech> 
[191.135]
e t æ m ɑ m 
[192.535]
<no-speech> 
[199.885]
æ z <oov> æ z æ d æ n e m æ b ɪ x w æ x w æ m æ z ɪ n ɪ m 
[202.535]
<no-speech> 
[203.925]
<int> æ d æ n e m æ ʤ æ m x w æ x w æ m æ z ɪ n ɪ m s ɑ ɾ j ɑ 
[207.505]
<no-speech> 
[218.485]
<no-speech> 
[218.835]
<no-speech> 
[220.065]
n ɑ æ m d ɪ k ɪ n æ m ʃ ɪ x ʊ l i n æ ʤ æ m 
[222.915]
<no-speech> 
[224.165]
b ɑ ʃ ɪ n ʃ ɪ k ɾ ɪ j ɑ l e b ɪ z e <int> 
[226.175]
<no-speech> 
[228.775]
b ɑ ʃ æ h æ ɾ t ɪ ʃ t r ɑ s t d ɪ b o ɾ e 
[230.995]
<no-speech> 
[233.195]
<breath> t æ ʧ ɪ k ɪ ɾ t ʊ k i b i n i m ɑ t 
[236.205]
<no-speech> 
[242.085]
t ʊ ʒ ɪ x w æ r ɑ k ɑ m ɪ n 
[243.165]
<no-speech> 
[247.355]
t ʊ r ɑ s t i 
[248.755]
<no-speech> 
[250.005]
n ɑ w æ l æ h m ɪ n s æ h n æ k ɪ ɾ k i u t æ 
[252.705]
<no-speech> 
[257.275]
m 
[258.145]
<no-speech> 
[261.665]
g ʊ l ʃ æ n t æ m ɑ m 
[263.265]
<no-speech> 
[268.355]
x æ b æ ɾ ɑ m ɪ n ʒ ɪ t æ n e j æ h æ m ɑ t ʊ b ɪ g ɪ ɾ æ æ z 
[271.535]
<no-speech> 
[273.465]
æ z ʒ ɪ g o t i m æ k ɑ ʧ ɪ l o ʧ e b u j æ b ɑ ʃ b u j æ 
[275.905]
<no-speech> 
[279.105]
<cough> e t ʊ x ɑ l e m ɪ n w ɑ n r æ x æ b æ ɾ d ɪ d i 
[282.435]
<no-speech> 
[285.825]
x ɑ l e m ɪ n ɑ p o w ɑ n x æ b æ ɾ d ɪ d ɪ n ɛ 
[288.205]
<no-speech> 
[298.765]
<no-speech> 
[299.265]
<no-speech> 
[300.195]
ħ æ 
[301.115]
<no-speech> 
[302.435]
<no-speech> 
[303.275]
<no-speech> 
[304.565]
e b ɑ ʃ æ n æ x w ɛ 
[305.925]
<no-speech> 
[309.935]
<sta> e w æ l æ h h æ ɾ h æ f t æ æ m x æ b æ ɾ d ɪ d ɪ n ɛ 
[313.405]
<no-speech> 
[318.295]
<laugh> æ z 
[320.415]
<no-speech> 
[322.615]
<laugh> æ ɾ e w æ l æ h æ m e h æ ɾ r o ʒ b o d i s ɑ k æ s 
[327.245]
<no-speech> 
[333.125]
<no-speech> 
[334.225]
<no-speech> 
[335.775]
<no-speech> 
[336.385]
<no-speech> 
[337.345]
e d e m æ k k i 
[338.575]
<no-speech> 
[340.045]
æ ɾ e w æ l æ h <laugh> z æ j n æ p b e ʒ æ m æ <laugh> 
[343.165]
<no-speech> 
[344.685]
ʕ æ j n i ʒ e r ɑ æ j ʃ o t ʊ b ɪ b i n i 
[346.555]
<no-speech> 
[350.375]
æ ɾ e t ʊ ʒ ɪ æ j ʃ o j e m ɪ n 
[352.925]
<no-speech> 
[354.145]
<no-speech> 
[355.815]
<no-speech> 
[356.775]
<breath> q æ j q æ d ɑ l ɪ t æ n æ k æ v i t ʊ ʧ ɪ m ɑ l e n æ ʧ u j i 
[359.665]
<no-speech> 
[362.255]
<no-speech> 
[363.425]
<no-speech> 
[365.785]
<no-speech> 
[366.175]
<no-speech> 
[367.445]
<no-speech> 
[367.995]
<no-speech> 
[370.245]
<hes> j ɑ n i ʒ ɪ x w æ p i ɾ ɪ k ɑ m ɪ n p ɪ ʃ t e q æ z ɑ h ɪ n d ɪ k p e ʃ b u j æ 
[375.155]
<no-speech> 
[378.595]
<int> j e n i j e n i g o z ɑ ʧ ɪ j o ɾ i ʃ t æ p i ɾ æ k ɑ m ɪ n æ j ʃ o ʒ ɪ 
[382.375]
<no-speech> 
[386.805]
q æ z æ t æ j ɑ 
[390.185]
<no-speech> 
[393.375]
b e ʒ æ 
[394.045]
<no-speech> 
[403.585]
ʧ ɪ i ʃ e d i k e 
[404.665]
<no-speech> 
[406.055]
<no-speech> 
[407.315]
<no-speech> 
[411.045]
m ɪ n ʧ u k ɑ d i n e 
[414.195]
<no-speech> 
[420.735]
<laugh> æ z d ɪ l e d ɪ l e w ɑ l i d æ n æ x w æ n d 
[424.095]
<no-speech> 
[431.615]
w æ l æ h d ʊ r o ʒ ɑ s ɑ æ t ħ æ f t e d æ d æ ɾ d ɪ k æ v ɪ n d ʊ r o ʒ ɑ ʒ i s ɑ æ t h æ ʃ t ɑ n d ɑ d æ ɾ d ɪ k æ v ɪ n 
[436.755]
<no-speech> 
[439.975]
m w æ l æ h i ʃ e m æ æ m d æ ɾ æ n g d æ s t p e d ɪ k ɪ n 
[445.215]
<no-speech> 
[446.355]
s ɑ æ t d æ h ɑ n d ɑ d ɪ ʧ ɪ m ɛ ʤ ɪ h e i ʃ 
[448.625]
<no-speech> 
[452.755]
m d æ h ɑ n d æ d ɪ ʧ ɪ m ɛ i ʃ ħ æ f t e d æ d æ ɾ d ɪ k æ v ɪ m 
[455.645]
<no-speech> 
[459.155]
i n ʃ æ l ɑ h æ w ʒ ɪ 
[460.515]
<no-speech> 
[462.245]
<int> l e z æ m ɑ n e m æ ɑ ʃ e <sta> t æ ʧ ɪ g o t 
[468.635]
<no-speech> 
[472.225]
n ɑ 
[472.945]
<no-speech> 
[474.905]
m ɪ n f æ h m n æ k ɪ ɾ 
[476.415]
<no-speech> 
[481.445]
w æ l æ h d æ n g e t æ z ɑ f n ɑ j e m ɪ n 
[483.305]
<no-speech> 
[487.525]
h ɑ 
[488.055]
<no-speech> 
[491.745]
<breath> ħ æ m æ ɑ ʃ m æ ɑ ʃ m æ ɑ ʃ e m ɪ n ʧ e k ɑ 
[495.995]
<no-speech> 
[499.885]
b æ l e <breath> 
[500.645]
<no-speech> 
[501.495]
j ɑ n i t æ n e j i b u j e b ɑ ʃ t ɪ ɾ æ 
[503.765]
<no-speech> 
[505.485]

[506.155]
<no-speech> 
[507.415]
<laugh> h æ v ɑ l e m ɪ n ʒ ɪ h æ n æ ʒ ɪ g ʊ n d e w ɑ n 
[511.355]
<no-speech> 
[513.035]
d ɪ j ɑ m ɪ n ʒ ɪ ʤ ɑ ɾ ɪ n ɑ b ɑ ʃ æ ʤ ɑ ɾ ɪ n ɑ n æ x w æ ʃ æ w æ l æ h d ɪ b o ɾ e ʃ ɪ k ʊ ɾ ʒ e x w æ d e r ɑ 
[518.045]
<no-speech> 
[519.655]
m 
[521.455]
<no-speech> 
[522.695]
b ɑ ʃ æ æ w ʒ ɪ m æ j ʊ n ʊ s ʒ ɪ r e k ɪ ɾ m æ k t æ b e 
[527.945]
<no-speech> 
[532.045]
j ʊ n ʊ s i ɾ o ʒ o t o b ʊ s e s ɪ w ɑ ɾ b u ʧ u r i z æ j e 
[534.885]
<no-speech> 
[539.435]
r i z æ ʧ u ʊ n i v æ ɾ s i t æ x w æ 
[541.735]
<no-speech> 
[548.445]
j ʊ n ʊ s 
[549.405]
<no-speech> 
[552.355]
<breath> b ɑ ʃ æ m ɑ l æ <int> <breath> æ z d ɪ b e ʒ ɪ m t æ b ɑ ʃ æ t ʊ s æ h n ɑ k i <int> 
[559.845]
<no-speech> 
[561.395]
<no-speech> 
[561.805]
<no-speech> 
[562.995]
x ɑ l o q æ j t ʊ p ɪ ɾ b u j i t ʊ m ɪ n s æ h n ɑ k i 
[565.655]
<no-speech> 
[568.215]
<no-speech> 
[570.105]
<no-speech> 
[571.475]
<laugh> t ʊ m ɑ j i m ɑ l d ɑ t ʊ n ɑ z æ w ɪ ʤ i ʒ ɪ 
[574.705]
<no-speech> 
[578.095]
<breath> æ ɾ e w æ l æ h 
[579.725]
<no-speech> 
[580.635]
<no-speech> 
[581.005]
<no-speech> 
[581.905]
<int> l e t ʊ p ɪ ɾ b ɪ t ʊ m ɑ j i m ɑ l d ɑ g ʊ h e t æ s æ h n ɑ k ɛ 
[587.925]
<no-speech> 
[588.855]
<int> t æ d ɪ x ɛ b æ l o q e x w æ 
[591.935]
<no-speech> 
[594.180]
