[0.000]
<no-speech> 
[11.836]
<no-speech> 
[23.673]
<no-speech> 
[35.509]
<no-speech> 
[47.346]
<no-speech> 
[59.182]
<no-speech> 
[71.019]
<no-speech> 
[82.855]
<no-speech> 
[83.215]
<no-speech> 
[89.300]
<no-speech> 
[95.385]
j e m ɪ n æ l o 
[96.755]
<no-speech> 
[98.395]
æ l o 
[99.205]
<no-speech> 
[100.715]

[101.505]
<no-speech> 
[102.715]
m ɪ n k æ ʧ e s ɑ ʕ æ t æ k æ v æ k ɪ ɾ i j ɛ <int> w æ l æ h b ɑ ʃ ɪ m s ɑ x b ɪ n ʧ ɪ b ɪ k ɪ m s ɪ l ɑ v ɑ n 
[109.205]
<no-speech> 
[110.465]
<int> æ v s ɑ ʕ æ t æ k æ h æ m ɑ ʧ ɪ m ɑ n ɑ b ɪ h i z æ n æ ʃ t æ x ɪ l i 
[114.455]
<no-speech> 
[115.825]
w e w e ʧ ɑ x e ʧ u n æ ʧ u n æ s æ h 
[119.865]
<no-speech> 
[123.455]
t ʊ h ɑ t i j æ n ɪ s e b i n e 
[124.785]
<no-speech> 
[125.625]
h e h e 
[126.365]
<no-speech> 
[128.275]
ħ æ 
[128.715]
<no-speech> 
[130.095]
ɑ h ɑ ʧ ɪ h ɛ j æ ʧ æ n d i n æ 
[132.045]
<no-speech> 
[133.855]
h ɑ k e f k æ f ɑ w e j æ b ɑ ʃ æ w æ l æ h 
[136.155]
<no-speech> 
[138.445]
m æ x w æ v æ k ɪ ɾ 
[139.455]
<no-speech> 
[141.575]
æ z ɑ n i n ɑ ɪ m b ɑ ʃ ɪ m b ɑ ʃ ɪ m 
[143.945]
<no-speech> 
[144.905]
i n ʃ æ l ɑ h æ z ʒ i m ɑ l ɪ m i ʃ d ɪ k ɪ m m ɑ æ z e ʧ ɪ b ɪ k ɪ m ʃ ɪ x ʊ l e m ɪ n h æ b u n ʃ ɪ x ʊ l e t æ d ɪ k ɪ m f ɪ ɾ ɑ x ɑ ʒ ɪ m ɑ k i n e d æ ɾ d ɪ x ɪ m w æ l æ h 
[151.655]
<no-speech> 
[153.585]
m ɪ n x o ʃ ɑ v ʧ e k ɪ ɾ 
[154.845]
<no-speech> 
[158.105]
<no-speech> 
[158.485]
<no-speech> 
[159.485]
w æ l æ h k e f k æ f ɑ ħ æ m u j ɑ n j æ æ w ʒ i ʧ u n æ n ɑ n d ɪ k ɪ ɾ e ʧ u b u n n ɑ n b ɪ k ɪ ɾ ɪ n 
[164.045]
<no-speech> 
[165.825]
æ ɾ e m æ m ɪ n t ɑ ʃ t e ħ ɑ z ɪ ɾ k ɪ ɾ i j æ n ɑ ʧ u b u n t ɑ ʃ t e ħ ɑ z ɪ ɾ d ɪ k ɪ n 
[170.775]
<no-speech> 
[171.905]
<sta> æ ɾ e w æ l æ h m ɪ n ʧ u j æ h e b e ʒ æ 
[176.925]
<no-speech> 
[177.915]
t æ g o t ʧ ɪ b ɑ ʃ æ b ɑ ʃ æ i d ɑ ɾ æ j æ 
[183.125]
<no-speech> 
[183.955]
i d ɑ ɾ æ j æ h æ m ɑ b ɪ x w æ d e b ɪ ʧ u k i d ɪ e ʃ ɛ l e i ʃ æ s æ ɾ ʧ ɑ w ɑ t ʊ ʒ i s ɪ l ɑ v ɑ b ɪ k æ t ɪ ʃ t e d i n d ɪ b e ʒ i 
[191.675]
<no-speech> 
[194.045]
<no-speech> 
[194.505]
<no-speech> 
[196.855]
d æ h ɑ j d e o x ɪ ɾ b e s ɪ l ɑ v ɑ d o ɾ ɑ x w æ b ɪ k æ 
[199.565]
<no-speech> 
[201.005]
e 
[201.525]
<no-speech> 
[203.955]
<no-speech> 
[204.345]
<no-speech> 
[205.365]
<int> l e k æ ʧ e n ɪ h ɑ k æ ʧ e b e ʒ ɪ m ʧ ɪ b u t æ <oov> d i t <laugh> 
[209.355]
<no-speech> 
[210.165]
e 
[210.985]
<no-speech> 
[212.455]
<int> h æ k æ h u n e k æ ɾ ɑ b ɪ d i n æ m ɪ n d æ w ɑ m <laugh> 
[215.655]
<no-speech> 
[217.105]
w æ l æ h <oov> <int> b ɑ ʃ b ɑ ʃ æ j e ʧ ɪ b ɪ s ɪ l ɑ v ɑ n <int> s ɪ l ɑ v ɑ n æ m d ʊ ʤ ɑ ɾ ɑ n <int> 
[227.805]
<no-speech> 
[229.765]
ʧ ɪ 
[230.445]
<no-speech> 
[232.835]
<no-speech> 
[233.195]
<no-speech> 
[234.935]
n ɪ h ɑ t ʊ t æ n e j e 
[237.465]
<no-speech> 
[238.485]
t ʊ ʤ ɑ d i k e 
[239.415]
<no-speech> 
[240.745]
<int> t æ m ɑ m b e ʒ æ æ m b æ l ɑ ʃ n ɑ ʃ t æ x ɪ l ɪ n p æ ɾ ɑ n æ d æ m ɪ n æ z n ɑ ʃ t æ x ɪ l ɪ m 
[247.935]
<no-speech> 
[250.435]
<no-speech> 
[251.355]
<no-speech> 
[252.975]
æ z e d ɪ k ɪ m v ɑ ʒ i x w æ ʃ ɪ k æ d æ ɾ x ɪ n 
[256.065]
<no-speech> 
[256.915]
d ɪ g o t z ɑ f b ɪ m ɪ ɾ ɪ n 
[258.835]
<no-speech> 
[260.675]
<no-speech> 
[261.485]
<no-speech> 
[263.165]
e j ɑ <int> j ɑ h u t d æ j n e s æ d u p e n ʤ i b ɪ d e m ɪ n 
[266.695]
<no-speech> 
[271.455]
<oov> w æ l æ h t ɪ ʃ t æ k p e n ɑ k ɛ q u n d æ v e ʤ ɑ l ɪ t æ k ɪ m 
[275.465]
<no-speech> 
[277.745]
<no-speech> 
[278.185]
<no-speech> 
[279.025]
<no-speech> 
[279.605]
<no-speech> 
[283.015]
<no-speech> 
[283.755]
<no-speech> 
[284.925]
n ɑ x ɑ l t i j e h æ m ɑ d ɪ b æ d ɪ b æ m ɪ n m ɪ n g o t t ʊ h æ ɾ ɛ l ɪ m æ l æ t i 
[289.405]
<no-speech> 
[291.185]
<no-speech> 
[291.545]
<no-speech> 
[292.725]
z ɑ t æ n h æ ɾ m e ɾ b e t ʊ b i n e b ɪ ʧ ɛ d æ v æ ɾ æ k e 
[295.905]
<no-speech> 
[301.545]
k ɑ t ʊ ʧ ɪ m ɑ q æ j n ɑ j e d æ w ɑ m k e 
[303.575]
<no-speech> 
[307.395]
d æ ħ d æ q æ m ɑ ʧ e n æ b u n i ʃ e m ɪ n h ɛ j æ h ɑ j d e <int> d ɪ k ɪ m <int> 
[313.885]
<no-speech> 
[316.355]
<no-speech> 
[317.045]
<no-speech> 
[320.075]
z ɑ t æ n n æ ʒ ɪ t ɪ ʃ t e q æ n ʤ i m ɪ n r æ d ɪ k i t ɪ ʃ t æ k i q æ n ʤ ɑ n ɪ h ɑ t ʊ m ɪ n r æ d ɪ k i q æ j t æ s ɪ l ɑ v ʒ i n æ d ɪ d ɑ m ɪ n <int> 
[326.735]
<no-speech> 
[329.855]
ħ æ 
[330.485]
<no-speech> 
[331.675]
<int> æ ɾ e ʧ ɪ m ɑ n ɑ j e <int> t ɪ ʃ t e b æ l ɑ ʃ i x w æ ʃ ɪ n w æ l æ h j ɑ d e x æ b æ ɾ ɑ t æ j æ 
[336.435]
<no-speech> 
[338.355]
<sta> n ɑ 
[340.745]
<no-speech> 
[341.725]
æ ɾ e w æ l æ h 
[342.585]
<no-speech> 
[345.505]
æ ɾ e s ɪ b ɑ b e k æ n g i n ɑ j e s ɑ æ t d ɪ d ʊ b u t u ɾ e ʒ ɪ x w æ r ɑ d ɪ ɑ v e ʒ æ <int> 
[350.875]
<no-speech> 
[354.675]
<no-speech> 
[355.025]
<no-speech> 
[357.075]
n ɑ w æ l æ h b ɑ v e t æ j æ t ʊ b ɪ k e ɾ i t ʊ b ɑ v e x w æ r ɑ n æ w e ɾ i b ɑ v e x w æ r ɑ t ʊ b ɪ ʃ t æ x ɪ l i <int> t ʊ b ɪ ʃ t æ x ɪ l j ɑ b e ʒ æ b ɑ v e x w æ <int> 
[363.355]
<no-speech> 
[365.245]
k ɪ l e d ɪ ɑ v e ʒ æ s æ ɾ p i l e 
[366.925]
<no-speech> 
[368.545]
<sta> h ɑ 
[369.505]
<no-speech> 
[372.935]
<no-speech> 
[373.295]
<no-speech> 
[374.905]
ħ æ ħ æ t ʊ i ʒ ɑ ɾ 
[376.325]
<no-speech> 
[378.595]
h e b ɑ t æ d i k e t ʊ h e i ʒ ɑ ɾ n ɑ j e 
[380.565]
<no-speech> 
[385.245]
<int> ɑ h t æ m æ <int> w æ l æ h t ʊ ʒ i m ɑ ɾ ɑ n n ɑ t ɪ ɾ s i b ɑ v e x w æ b ɪ t ɪ ɾ s i <int> 
[392.455]
<no-speech> 
[393.295]
<no-speech> 
[394.545]
<no-speech> 
[395.865]
<no-speech> 
[396.255]
<no-speech> 
[399.505]
b ɪ x w æ d e æ z e ʒ i m ɑ l ɪ m m ɪ n g o t æ z e i ɾ o ʒ h ɪ n æ k i ɑ ʤ ɪ z b u m m æ g o t p ɪ ʧ æ k i æ m e ʒ ɪ x w æ r ɑ v æ d æ ɾ k æ v ɪ n æ d æ ɾ v æ æ m e ʒ ɪ x w æ b ɪ g æ ɾ ɪ n 
[406.495]
<no-speech> 
[407.575]
ʧ u n æ ʧ o l m o l ɑ n h ɪ n g i æ m ɑ ʤ ɪ z b u n 
[409.755]
<no-speech> 
[412.455]
<no-speech> 
[412.835]
<no-speech> 
[415.755]
æ ɾ e 
[416.665]
<no-speech> 
[418.405]
<no-speech> 
[418.875]
<no-speech> 
[420.395]
t æ g o t ʧ ɪ 
[420.885]
<no-speech> 
[422.155]
w æ l æ h s ɑ x ɪ j ɑ t æ 
[423.515]
<no-speech> 
[424.925]
<int> n ɑ ʒ ɪ k ʊ v e ʤ ɑ m ɪ n d æ ɾ x ɪ s t ɪ n m ɪ n ʒ ɪ m ɑ k i n e d æ n ɪ h ɑ ʤ ɑ ɾ æ k i d i n v e ʤ ɑ f ɪ ɾ ɑ q ɑ v e t ɪ m æ m ɑ k i n e d æ 
[430.275]
<no-speech> 
[431.665]
<int> æ z b æ ɾ i t ɑ ʃ t e ʒ i ħ ɑ z ɪ ɾ d ɪ k ɪ m w æ k f ɪ ɾ ɑ q ɑ ʒ i d ɪ x ɪ m æ m ɑ k i n e <int> h ɑ 
[437.465]
<no-speech> 
[441.205]
<int> w æ l æ h x w æ d e ʧ ɪ d ɪ b e ʒ i m ɪ n <int> n ɑ n ɑ t æ ʧ ɪ l e d ɑ n e l ɪ t æ k ɪ m n u d ɑ <int> <laugh> n ɪ h ɑ ʃ t æ x ɪ l i j ɛ t æ ħ æ m u j ɑ n b i n ɪ m b o t ʊ b ɪ q ʊ ɾ p i n i <int> 
[453.165]
<int> e 
[454.095]
<no-speech> 
[455.715]
ħ æ 
[456.235]
<no-speech> 
[457.835]
<int> m æ ɾ ɑ q n æ k ɛ t ʊ j e n ɪ h ɑ x w æ b æ ɾ d e m ɪ n 
[460.085]
<no-speech> 
[461.585]
t ʊ j e x w æ n ɪ h ɑ b æ ɾ d e m ɪ n <laugh> <int> 
[467.655]
<no-speech> 
[468.695]
<no-speech> 
[469.165]
<no-speech> 
[470.225]
<int> æ z h ɑ t ɪ m t æ b u x w æ h ɑ m ɪ n t ʊ l ɪ m ɪ n g æ ɾ i j ɑ h ɑ b u j æ b u <int> 
[475.995]
<no-speech> 
[478.745]
æ z t æ z æ h ɑ t ɪ b u m m ɪ n h ɪ ʃ j ɑ ɾ b e h ɪ ʃ i j ɑ ɾ b u m ɑ h ɑ t t ɑ ʃ t e ħ ɑ z ɪ ɾ k ɪ ɾ 
[486.825]
<no-speech> 
[492.115]
e æ w ɑ r ɑ z ɑ n d ɪ n x w æ ʃ æ n ɪ h ɑ t ɪ ʃ t æ k <int> n ɪ h ɑ t ɪ ʃ t æ k ʒ ɪ d ɪ n j e æ w e b ɪ x w æ ʃ t ɪ ɾ h ɛ j æ ʒ ɪ r ɑ z ɑ n d ɪ n æ d i l ɑ n <int> 
[498.385]
<no-speech> 
[502.345]
<no-speech> 
[502.705]
<no-speech> 
[505.585]
ħ æ b ɑ ʃ æ b ɑ ʃ æ 
[507.305]
<no-speech> 
[509.725]
<sta> w ɑ t ʊ b i h n ɑ n ɑ æ z e ʧ ɪ b ɪ ʃ t æ x ɪ l ɪ m j e n t æ t ʊ n ɑ ʃ t æ x ɪ l ɛ m ɑ h æ m ɑ æ z b ɪ ʃ t æ x ɪ l ɪ m æ z s ɑ b ɑ ħ s ɑ b ɑ ħ æ z b u m æ n ɪ z ɑ n ɪ m æ m d ɪ ʃ t æ x ɪ l ɪ n æ z 
[521.485]
ʧ ɑ v x æ w ɪ n <int> 
[523.255]
<no-speech> 
[529.005]
d æ æ m h æ ɾ 
[529.685]
<no-speech> 
[530.775]
<int> w æ l æ h t ʊ d ɪ ʃ t æ x ɪ l i w æ k i d i n l e ʧ æ n ɑ t æ n ɑ s æ k ɪ n ɛ d æ v e t æ w æ l æ h w ɪ h ɑ d æ v e t æ j æ i ɾ o ʒ t ʊ x w æ w ɪ l o n ɑ ʃ t æ x ɪ l i 
[537.685]
<no-speech> 
[538.545]
i ɾ o ʒ x w æ k ʊ b ɑ ɾ t e 
[540.075]
<no-speech> 
[542.075]
æ ɾ e s ɑ n e n ɪ z ɑ n ɛ k i q æ b u l d ɪ k i 
[544.335]
<no-speech> 
[545.785]
h e 
[546.305]
<no-speech> 
[547.975]
t æ g o t ʧ u j ɑ n 
[548.845]
<no-speech> 
[550.875]
m ɪ n g o t w æ k i d i n æ w l ɑ v ɑ t æ j æ i ɾ o ʒ t ʊ x w æ n ɑ z ɪ k d ɪ k i 
[553.815]
<no-speech> 
[555.995]
<int> k æ ʧ e k ɑ 
[557.525]
<no-speech> 
[560.595]
k ɑ h e ʒ ɑ ʧ ɪ b u v e ʤ ɑ h e w ɪ l o d æ w ɑ m k e 
[562.975]
<no-speech> 
[565.315]
h e 
[565.955]
<no-speech> 
[572.315]
<int> i ʃ e m ɪ n h ɛ j æ k e m d ɪ d ɪ m <laugh> 
[574.525]
<no-speech> 
[575.595]
<int> <hes> <laugh> <int> 
[579.795]
<no-speech> 
[581.365]
æ z t ɑ ʃ t e ħ ɑ z ɪ ɾ d ɪ k ɪ m h æ m u b ɪ ɾ ʧ i n æ ʒ ɪ w ɪ l o 
[584.615]
<no-speech> 
[586.525]
d ɑ p i ɾ ɑ w æ ʒ i n e z d æ m ɪ ɾ ɪ n æ 
[588.375]
<no-speech> 
[589.895]
ʧ ɪ <int> 
[592.945]
<no-speech> 
[594.035]
<no-speech> 
[594.385]
<no-speech> 
[595.985]
æ z e b e ʒ ɪ m ɛ b ɑ v e w i d ɪ b æ h e d ɪ b e ʒ æ x æ b æ ɾ ɑ 
[598.385]
<no-speech> 
[599.495]
<no-speech> 
[600.105]
<no-speech> 
[600.260]
