[0.000]
<no-speech> 
[0.955]
h æ v ɑ l 
[1.785]
<no-speech> 
[2.825]
<no-speech> 
[3.175]
<no-speech> 
[5.705]
æ l o h æ v ɑ l 
[7.795]
<no-speech> 
[9.245]
<hes> h æ v ɑ l 
[10.565]
<no-speech> 
[11.805]
ʧ ɪ d ɪ k i 
[12.585]
<no-speech> 
[13.645]
d æ n g d æ h ɑ 
[14.465]
<no-speech> 
[15.485]
<hes> k ɑ t ʊ ʧ ɪ l o j i 
[17.725]
<no-speech> 
[20.355]
i ʒ ɑ ɾ t ʊ b ɑ ʃ i 
[21.325]
<no-speech> 
[24.055]
<int> æ l o h æ v ɑ l 
[25.135]
<no-speech> 
[26.785]
<hes> 
[27.495]
<no-speech> 
[28.995]
m ɑ l e n æ b i 
[30.015]
<no-speech> 
[31.965]
m ɪ n r æ <breath> k ɑ t ʊ ʧ ɪ d ɪ k i r æ h ʃ ɑ n k æ n g i b e 
[35.405]
<no-speech> 
[36.775]
<hes> d æ n g t e <breath> r æ h ʃ ɑ n k æ n g i b e 
[39.705]
<no-speech> 
[40.935]
<int> s ɪ b ɑ n ɪ h ɑ 
[41.845]
<no-speech> 
[44.805]
n æ h 
[45.385]
<no-speech> 
[46.375]
<hes> 
[46.975]
<no-speech> 
[47.815]
<hes> w e b e i n ʃ æ l ɑ h w e b e <breath> æ z 
[51.205]
<no-speech> 
[53.355]
b æ l k i d ʊ r o ʒ ɑ n l ɪ w ɪ ɾ b i j ɑ n i 
[54.675]
<no-speech> 
[55.815]
æ ɾ e æ ɾ e s ɪ b ɑ 
[57.345]
<no-speech> 
[58.345]
æ ɾ e <int> n æ 
[60.105]
<no-speech> 
[62.335]
<int> æ z x ɑ s t ɑ x ɑ n e h ɑ v i n i 
[63.895]
<no-speech> 
[65.175]
ħ æ 
[65.785]
<no-speech> 
[68.435]
w e v ɑ l ɑ b e 
[69.385]
<no-speech> 
[70.555]
ħ æ h ɑ j l o w e b æ n w e b æ n d e 
[74.175]
<no-speech> 
[75.735]
w e b æ n d e b e 
[76.825]
<no-speech> 
[77.925]
<hes> 
[78.495]
<no-speech> 
[79.525]
q ɪ ɾ e ʒ <breath> q ɪ ɾ e ʒ e n ʃ i ɾ 
[82.705]
<no-speech> 
[84.065]
ħ æ 
[84.675]
<no-speech> 
[85.485]
ɑ h <hes> r o ʒ i n l ɪ w ɪ ɾ æ 
[87.625]
<no-speech> 
[89.325]
w i d ɑ j e 
[89.915]
<no-speech> 
[91.385]
<hes> 
[91.985]
<no-speech> 
[93.445]
ħ æ r o ʒ i n w e æ w ʒ i p e r æ b e 
[95.735]
<no-speech> 
[97.105]
w æ j <int> b ɪ x w æ d e 
[99.245]
<no-speech> 
[100.065]
<hes> d æ b ɑ ʃ æ <int> <hes> 
[102.315]
<no-speech> 
[106.565]
w e æ w ʒ i w e æ w ʒ i b ɪ r æ h ʃ ɑ n r æ b e n 
[108.995]
<no-speech> 
[111.555]
n ɑ j e l ɪ w ɪ ɾ b e 
[113.105]
<no-speech> 
[114.695]
w e r o w e r o ʒ i n l ɪ w ɪ ɾ b e 
[116.525]
<no-speech> 
[119.585]
<int> w e æ w ʒ i b e j ɑ n l ɪ w ɪ ɾ b e 
[121.185]
<no-speech> 
[122.535]
<hes> 
[123.155]
<no-speech> 
[124.425]
<int> w e l ɪ w ɪ ɾ b e 
[126.325]
<no-speech> 
[129.395]
<int> w e l ɪ ʤ æ m d ɪ j ɑ x w æ b ɪ n <hes> <int> d ɪ j ɑ w e n æ x w æ ʃ æ e h ɑ 
[133.585]
<no-speech> 
[134.455]
h æ v ɑ l <int> 
[136.075]
<no-speech> 
[136.965]
<int> <int> 
[137.865]
<no-speech> 
[142.015]
<int> w e b æ n d e b e 
[144.145]
<no-speech> 
[145.835]
<hes> 
[146.635]
<no-speech> 
[148.925]
w e ʒ ɪ n ɑ v r æ g æ n ɑ v r æ b e 
[150.675]
<no-speech> 
[151.915]
<int> n æ <int> 
[153.455]
<no-speech> 
[155.795]
<oov> g ʊ l i z ɑ ɾ n ɪ h ɑ n æ j e l e <int> 
[160.245]
<no-speech> 
[162.685]
<laugh> h æ ɾ e m ɪ n g o t g ʊ l i z ɑ ɾ n æ ʧ u j ɛ 
[166.055]
<no-speech> 
[170.615]
<hes> æ ɾ e æ z 
[172.895]
<no-speech> 
[175.035]
<breath> m ɪ n g o t g ʊ l i z ɑ ɾ m ɑ l ɑ m æ j æ h e n æ ʧ u n æ 
[177.415]
<no-speech> 
[182.825]
æ ɾ e æ ɾ e <int> 
[185.435]
<no-speech> 
[187.905]
<int> n æ w ɪ l o j æ 
[188.815]
<no-speech> 
[190.955]
æ ɾ e ħ æ <int> æ w ʒ i <int> 
[194.435]
<no-speech> 
[196.465]
w e b æ n d e b e 
[197.585]
<no-speech> 
[198.585]
ħ æ 
[199.325]
<no-speech> 
[200.705]
s u k ɑ 
[201.455]
<no-speech> 
[203.385]
g ʊ l i z ɑ ɾ ʃ t æ x ɪ l i b u j æ m æ æ z n æ ʃ t æ x ɪ l i b u m n æ ʃ t æ x ɪ l i n ɑ g ʊ l i z ɑ ɾ ʃ t æ x ɪ l i 
[207.375]
<no-speech> 
[209.575]
æ z b ɪ w ɑ n r æ n æ ʃ t æ x ɪ l i m g ʊ l i z ɑ ɾ d ʊ h d ʊ h ʃ t æ x ɪ l i 
[212.625]
<no-speech> 
[213.895]
ħ æ 
[214.575]
<no-speech> 
[215.615]
g ʊ l i z ɑ ɾ ʃ t æ x ɪ l i g o t j e m æ æ z n æ ʃ t æ x ɪ l i m m æ æ m i n æ r æ ʃ t æ x ɪ l i 
[218.925]
<no-speech> 
[221.775]
<int> b ɪ x w æ d e n ɑ n ɪ z ɑ n ɪ m n æ b e n n æ n ɛ j e n n ɪ z ɑ n ɪ m ʒ e r æ n æ g o t 
[224.875]
<no-speech> 
[226.385]
b ɑ ʃ 
[227.345]
<no-speech> 
[229.815]
æ w ʒ i b ɑ ʃ <int> ħ æ <breath> æ ɾ e ħ æ 
[233.825]
<no-speech> 
[234.925]
n ɑ 
[235.735]
<no-speech> 
[237.345]
b ɪ x w æ d e q ɑ l n æ k ɪ ɾ 
[239.375]
<no-speech> 
[242.295]
n ɑ n ɑ j e æ w n ɪ h ɑ n ɑ j e 
[245.165]
<no-speech> 
[246.155]
æ ɾ e 
[247.055]
<no-speech> 
[248.585]
g o t h ɛ j ɑ b e æ z n ɑ h æ ɾ ɪ m l ɪ w e 
[250.505]
<no-speech> 
[251.865]
b ɪ x w æ d e i ɾ o ʒ d ɪ g o t 
[253.095]
<no-speech> 
[254.535]
æ ɾ e 
[255.385]
<no-speech> 
[257.865]
æ ɾ e æ ɾ e 
[258.985]
<no-speech> 
[261.625]
q æ j n ɪ z ɑ n ɪ m b æ l k i 
[263.265]
<no-speech> 
[266.175]
<int> h æ ɾ e 
[267.175]
<no-speech> 
[270.235]
<int> æ ɾ e 
[271.045]
<no-speech> 
[272.605]
h æ ɾ e 
[273.355]
<no-speech> 
[276.085]
<sta> æ ɾ e w i <oov> æ ɾ e w i ʒ i d ɪ g o t d ɪ g o t v ɑ j æ ʤ æ m m æ m 
[281.545]
<no-speech> 
[282.985]
d ɪ g o t w ɪ ɾ d ɪ h ɑ t d ɪ ʧ u d ɪ g o t n æ b u 
[285.595]
<no-speech> 
[290.075]
æ ɾ e 
[290.925]
<no-speech> 
[293.315]
æ ɾ e b ɪ x w æ d e w ɪ l o b u j æ <sta> <breath> ʒ e r æ æ w x w æ ʃ t ɪ ɾ æ 
[299.795]
<no-speech> 
[304.165]
b ɑ ʃ ɪ 
[305.215]
<no-speech> 
[306.785]
ħ æ ħ æ b ɑ ʃ ɪ n 
[307.995]
<no-speech> 
[309.045]
d ɪ g o t b ɑ ʃ t ɪ ɾ b e e d i æ z n ɪ z ɑ n ɪ m <int> ħ æ 
[311.595]
<no-speech> 
[312.435]
<int> d ɪ g o t b ɑ ʃ t ɪ ɾ b e æ ɾ e 
[315.305]
<no-speech> 
[318.645]
b ɪ x w æ d e h ɑ j ɑ m ɪ n ʒ e t æ n e b u 
[320.635]
<no-speech> 
[321.775]
h ɑ n ɪ z ɑ n ɪ m 
[323.955]
<no-speech> 
[327.765]
<no-speech> 
[328.205]
<no-speech> 
[331.515]
k e r æ b i s t r o ʒ b æ t ɪ ɾ h ɛ j æ m æ h æ k h ɛ j æ 
[333.855]
<no-speech> 
[337.265]
b ɪ x w æ d e n ɪ z ɑ n ɪ m 
[338.325]
<no-speech> 
[339.225]
z u d æ æ z n æ ʃ t æ x ɪ l i m 
[340.545]
<no-speech> 
[342.435]
ʒ ɪ n x ɑ l ɑ t æ 
[343.485]
<no-speech> 
[344.955]
n ɪ z ɑ n ɪ m 
[345.865]
<no-speech> 
[346.965]
m m ɪ n ʒ e r æ n æ g o t 
[349.015]
<no-speech> 
[353.315]
b ɑ ʃ æ 
[354.195]
<no-speech> 
[356.805]
ħ æ 
[357.295]
<no-speech> 
[360.095]
n ɑ 
[360.815]
<no-speech> 
[365.335]
k i 
[365.945]
<no-speech> 
[367.785]
n ɑ 
[368.545]
<no-speech> 
[371.005]
b ɪ x w æ d e æ z b ɪ ʃ t æ x ɪ l ɪ m 
[371.885]
<no-speech> 
[373.025]
n ɑ 
[373.725]
<no-speech> 
[375.245]
b ɑ ʃ æ æ w ʒ i b ɑ ʃ æ 
[376.625]
<no-speech> 
[378.855]
m <int> 
[379.455]
<no-speech> 
[381.025]
<int> ħ æ 
[381.745]
<no-speech> 
[388.215]
t o b æ æ v z u d æ b u j æ æ m n æ ʃ t æ x ɪ l i n 
[390.825]
<no-speech> 
[393.655]
ħ æ h æ v ɑ l 
[394.935]
<no-speech> 
[398.125]
e j e m æ æ z p e r æ n æ ʃ t æ x ɪ l i m h u n ʃ t æ x ɪ l i n 
[401.425]
<no-speech> 
[405.225]
æ l o 
[405.785]
<no-speech> 
[408.285]
æ l o <hes> 
[409.865]
<no-speech> 
[413.235]
t ʊ t ʊ ʃ t æ x ɪ l i b u g ʊ l i s t ɑ n r æ 
[415.745]
<no-speech> 
[424.895]
<int> 
[425.715]
<no-speech> 
[427.275]
w e w æ x t i 
[428.165]
<no-speech> 
[429.705]
ħ æ h æ v ɑ l 
[430.815]
<no-speech> 
[432.785]
h æ j h æ j 
[433.475]
<no-speech> 
[435.715]
ħ æ 
[436.395]
<no-speech> 
[441.795]
b æ h ɪ j e ʧ u 
[443.085]
<no-speech> 
[445.045]
n ɑ n ɑ ʧ e b u j æ 
[446.385]
<no-speech> 
[447.425]
<int> æ ɾ e b u j æ t ɪ ɾ ʃ w æ l æ h 
[450.435]
<no-speech> 
[452.395]
e 
[452.885]
<no-speech> 
[457.655]
æ ɾ e æ ɾ e 
[458.695]
<no-speech> 
[460.425]
k æ n g i 
[461.185]
<no-speech> 
[465.275]
w i w æ x t i d æ 
[466.265]
<no-speech> 
[467.235]
<hes> 
[467.775]
<no-speech> 
[470.505]
b ɪ x w æ d e 
[471.315]
<no-speech> 
[472.465]
<no-speech> 
[472.995]
<no-speech> 
[475.785]
n ɑ 
[476.525]
<no-speech> 
[479.345]
n ɑ n æ ʃ t æ x ɪ l i m 
[480.365]
<no-speech> 
[483.775]
<int> æ ɾ e 
[484.665]
<no-speech> 
[485.615]
<int> æ ɾ e æ ɾ e æ ɾ e 
[489.355]
<no-speech> 
[490.655]
w æ l æ h ħ æ 
[492.345]
<no-speech> 
[496.635]
<laugh> æ ɾ e æ ɾ e 
[498.095]
<no-speech> 
[499.185]
<int> n ɑ ʃ t æ x ɪ l ɪ m 
[500.485]
<no-speech> 
[501.915]
n æ n ɑ n æ ʃ t æ x ɪ l i m 
[504.035]
<no-speech> 
[504.975]
n ɑ m ɑ m ɪ n <no-speech> m ɪ n r æ n ɑ ʃ t æ x ɪ l ɛ 
[508.295]
<no-speech> 
[510.455]
<hes> 
[511.065]
<no-speech> 
[511.925]
e b ɑ ʃ æ o j l æ i s æ 
[513.315]
<no-speech> 
[514.485]
æ ɾ e 
[515.205]
<no-speech> 
[516.055]
æ j 
[516.485]
<no-speech> 
[518.625]
h æ v ɑ l t æ g o t ʧ ɪ 
[519.895]
<no-speech> 
[523.285]
ɑ h <int> b æ l e b æ l e <no-speech> b æ l e 
[527.665]
<no-speech> 
[528.905]
æ w ʒ i <int> w ɑ n r æ ʃ t æ x ɪ l i <int> m <int> <breath> 
[533.575]
<no-speech> 
[535.055]
b ɑ ʃ b u b ɑ ʃ 
[536.465]
<no-speech> 
[539.985]
<no-speech> 
[540.935]
<no-speech> 
[541.755]
<int> æ m i n æ n æ d ɪ g o t m ɪ n r æ d ɪ ʃ t æ x ɪ l i j ɑ n 
[545.035]
<no-speech> 
[546.135]
<hes> 
[546.675]
<no-speech> 
[548.935]
<int> <hes> 
[550.645]
<no-speech> 
[551.655]
æ ɾ e <laugh> h ɑ l e m æ b ɪ n e ɾ æ e k j æ k e d i n 
[554.465]
<no-speech> 
[555.645]
<hes> 
[556.085]
<no-speech> 
[557.615]
æ ɾ e 
[558.435]
<no-speech> 
[559.575]
<int> ħ æ ħ æ 
[560.155]
<no-speech> 
[562.405]
<breath> b ɪ x w æ d e n ɑ d ɪ g o t w e b i ɾ e m ɪ n b e <no-speech> n ɑ 
[567.345]
<no-speech> 
[568.375]
d ɪ g o t h ɛ j ɑ d æ ħ p ɑ n z d æ h r o ʒ e n d i n ʒ i æ z n ɑ j e m 
[571.075]
<no-speech> 
[573.605]
x w æ d e k ɪ ɾ v e e v ɑ ɾ e æ m p e r æ ʃ t æ x ɪ l i n 
[575.695]
<no-speech> 
[578.545]
g o t g o t w e b i ɾ e m ɪ n b e æ z n ɪ h ɑ h æ f t ɛ j e b e æ ɾ e 
[583.395]
<no-speech> 
[584.100]
