[0.000]
<no-speech> 
[0.705]
<no-speech> 
[1.065]
<no-speech> 
[2.015]
æ l o 
[3.095]
<no-speech> 
[4.575]
ħ æ ʤ i ʧ ɪ d ɪ k i <int> 
[7.585]
<no-speech> 
[9.115]
m ɪ n g o t t ʊ ʧ ɪ d ɪ k i ʧ ɑ w ɑ n i 
[11.595]
<no-speech> 
[12.775]
ħ æ æ z ɪ m ħ æ <int> s ɑ x b ɪ t æ ʃ æ k ʊ ɾ d ɪ k ɪ m s ɑ x ɪ j ɑ t æ b e <int> 
[18.055]
<no-speech> 
[19.305]
n ɑ æ z ɪ m æ z æ z ɪ m æ z <hes> <laugh> ħ æ w æ l æ h 
[29.995]
s ɑ x ɪ j ɑ ʤ ɑ n e t æ b ɪ ɾ ɑ j ɑ t æ x w æ ʃ b e 
[32.375]
<no-speech> 
[33.655]
<no-speech> 
[35.405]
<no-speech> 
[37.215]
m ħ æ w æ l æ h s ɑ x ɪ j ɑ ʤ ɑ n e t æ b e t æ s ɪ n ɑ v e m ɪ n s e z d æ h n i s ɑ n e <int> 
[44.645]
<no-speech> 
[47.415]
ħ æ ħ æ <int> 
[50.005]
<no-speech> 
[51.175]
<hes> x w æ d e x e ɾ e b ɪ d æ t æ <int> 
[54.005]
<no-speech> 
[55.355]
m s æ ɾ k æ f t ɪ n æ æ m ʒ ɪ s æ ɾ k æ f t ɪ n <breath> n ɑ w æ l æ h æ z t æ n e m æ <int> æ z t æ n e m æ m 
[65.785]
<no-speech> 
[68.055]
ħ æ æ m i ɾ o ʒ ʒ ɪ x w æ r ɑ d æ ɾ k æ t ɪ n æ g æ z m ɑ x e 
[71.305]
<no-speech> 
[72.385]
<no-speech> 
[73.775]
<no-speech> 
[75.605]
ħ æ n ɪ z ɑ n ɪ m j e ʧ ɪ b æ ʒ n ɑ m æ x ɪ ɾ ɑ b m ɑ 
[79.055]
<no-speech> 
[80.535]
w æ l æ h b ɑ m æ n o ɾ m ɑ l æ x w æ ʃ æ i ɾ o ʒ n i v ɾ o t e n i ɾ o ʒ ʒ ɪ n i v ɾ o p e d æ x w æ ʃ b u <int> 
[86.215]
<no-speech> 
[90.175]
n ɑ n ɑ m i n ɑ d o h n æ b u i ɾ o ʒ x w æ ʃ b u 
[93.015]
<no-speech> 
[96.655]
<no-speech> 
[99.535]
<no-speech> 
[100.965]
t æ s ɪ n ɑ v t æ ʧ e k ɪ ɾ ɪ j æ <int> n ɑ n ɑ x æ b æ ɾ b ɪ d æ d æ ħ d æ q æ i d ɑ ɾ æ b ɪ k æ b æ ɾ x w æ b ɪ d æ w æ l æ h 
[108.255]
<no-speech> 
[109.255]
d æ ħ d æ q æ d æ ħ d æ q æ 
[110.945]
<no-speech> 
[113.025]
ħ æ w æ l æ h f æ ɾ z æ <int> 
[115.145]
<no-speech> 
[118.305]
<int> <laugh> x æ b æ ɾ b ɪ d æ t ɪ ʃ t æ k e n ɑ b æ 
[123.295]
<no-speech> 
[125.305]
<int> <laugh> t æ t æ s ɪ n ɑ v e x w æ <oov> t æ ʧ æ n d <oov> ʧ e k ɪ ɾ ɪ b u 
[129.875]
<no-speech> 
[131.185]
w æ l æ h m ɑ l e ɑ n ɪ h ɑ d ʊ ʃ ʊ n m i ʃ b e m ɪ n g o t t æ s ɪ n ɑ v e x w æ n ɪ h e ɾ i t æ ʧ æ n d ħ æ b ɑ n ʧ e k ɪ ɾ ɪ b u <int> 
[137.015]
<no-speech> 
[141.365]
<hes> t æ i ɾ o ʒ g ɑ z æ t æ b ɪ s t ɑ n d ɑ t æ j e l e b ɪ n ɪ h e ɾ t ɑ n ɑ 
[144.485]
<no-speech> 
[150.565]
<hes> d æ h æ ɾ t ɪ ʃ t e x w æ 
[154.525]
<no-speech> 
[158.315]
<hes> 
[159.835]
<no-speech> 
[160.865]
<no-speech> 
[161.325]
<no-speech> 
[162.165]
ʧ ɪ m ɑ <int> 
[163.435]
<no-speech> 
[165.175]
<hes> n ɑ w æ l æ h <oov> p ɑ r h æ ɾ ɛ r ɪ ħ æ t e b u m ɪ n ʒ ɪ <hes> <breath> e t ʊ ʧ ɪ d ɪ k i 
[173.615]
<no-speech> 
[174.455]
<no-speech> 
[175.775]
<no-speech> 
[179.845]
<no-speech> 
[180.915]
<no-speech> 
[182.335]
m ɪ n g o t <hes> æ z k ɑ w æ x t e b ɑ ʃ w u ɾ ɪ j ɑ m æ b ɑ ʃ w u ɾ i n æ k ɪ ɾ <breath> 
[187.235]
<no-speech> 
[192.225]
m m ɪ n g o t w æ x t e b ɑ ʃ w u ɾ ɪ j ɑ m æ b ɑ ʃ w u ɾ i n æ k ɪ ɾ k ɑ <breath> 
[195.565]
<no-speech> 
[200.215]
<hes> d æ n g e m ɪ n h ɑ t h ɑ <int> 
[203.105]
<no-speech> 
[204.055]
<no-speech> 
[205.505]
<no-speech> 
[207.655]
n ɑ v e n ʊ m ɑ ɾ ɛ j e ʒ ɪ t æ p e ʃ t ɪ ɾ k æ s i n æ g æ ɾ i j ɑ m æ 
[210.585]
<no-speech> 
[214.005]
<hes> i l k d æ f ɑ t æ g æ ɾ ɪ j ɑ m <hes> ʧ ɑ w ɑ j i n ʊ m ɑ ɾ æ m ɪ n n ɪ h ɑ n u x w æ ʃ æ 
[219.495]
<no-speech> 
[221.355]
<hes> n ɑ g æ ɾ ɪ m ʧ ɑ w ɑ b ɪ g æ ɾ ɪ m m ɪ n g o t n ʊ m ɑ ɾ æ m ɪ n ɑ n u x w æ ʃ æ 
[225.615]
<no-speech> 
[227.645]
<laugh> <int> <laugh> æ z n æ 
[232.075]
<no-speech> 
[233.305]
<hes> æ z b e m b e m m e ɾ d i n e b e m ʒ e r ɑ b e m ʧ ɪ <hes> w e m ɑ l e d i j ɑ ɾ b æ k ɪ ɾ æ 
[239.875]
<no-speech> 
[241.225]
æ ɑ k e j æ ɑ k ɑ m ɪ n m <int> 
[245.655]
<no-speech> 
[248.365]
<laugh> b ɑ w æ h æ w ɑ ʧ ɑ w ɑ j æ i ɾ o ʒ 
[253.265]
<no-speech> 
[254.755]
<int> <laugh> m ɪ n g o t l ɪ b ɑ w æ i ɾ o ʒ h æ w ɑ ʧ ɑ w ɑ b u 
[259.415]
<no-speech> 
[263.495]
<int> æ ɾ e j ɑ w æ l æ h b ɪ l ɑ d i k e d i k e ʒ e r ɑ v ɪ ɾ n ɑ m æ s æ l æ n 
[268.795]
<no-speech> 
[270.575]
æ ɾ e æ z z ɑ n ɪ m æ w ʒ e r ɑ n æ m æ s æ l ɑ j æ <laugh> d ɪ k ɑ ɾ æ v ɪ ɾ e b ɪ k æ 
[274.795]
<no-speech> 
[276.705]
<int> <laugh> ʒ e r ɑ x æ b æ ɾ d ɪ d i ʒ e ɾ ʧ ɑ w ɑ j æ 
[280.605]
<no-speech> 
[281.585]
<no-speech> 
[283.105]
<no-speech> 
[286.395]
<hes> 
[287.055]
<no-speech> 
[288.195]
g o t d ɪ ʃ ɪ x ʊ l æ g o t d ɪ ʃ ɪ x ʊ l æ l ɪ b e d o n æ ɾ ʤ i q æ ɾ f e 
[290.885]
<no-speech> 
[293.315]
<int> g o t g o t ɪ n b ɑ d o n æ ɾ ʤ i d ɪ ʃ ɪ x ʊ l æ l e p ɑ ɾ i s e d æ ɾ s b ɪ ɾ k ɪ ɾ i j æ 
[298.885]
<no-speech> 
[302.415]
<no-speech> 
[303.305]
<no-speech> 
[304.865]
<sta> h ɑ j ɑ t æ ʒ e t æ n e j æ 
[308.965]
<no-speech> 
[311.945]
ʧ ɪ m ɑ <sta> 
[313.835]
<no-speech> 
[316.025]
<no-speech> 
[316.785]
<no-speech> 
[317.865]
ħ æ ʒ ɪ b æ ɾ n ɑ v ɑ d ɪ b e ʒ æ w æ l æ h 
[320.435]
<no-speech> 
[323.535]
<hes> g æ n æ f ɪ ɾ æ n g e p ɑ ɾ æ d ɑ b ɑ h æ v <int> <hes> m ɪ n g o t ʒ ɪ f ɪ ɾ æ n g i p ɑ ɾ æ n æ d ɑ b u h æ v 
[332.485]
<no-speech> 
[336.775]
<hes> w ɑ ʤ ɪ x ɑ ɾ ɛ j e ʒ ɪ d ɪ k ɪ ʃ i n ɪ n 
[338.975]
<no-speech> 
[342.235]
<hes> b ɪ ɾ ɑ ʤ ɪ x ɑ ɾ ɑ w e ʒ ɪ h ɛ j æ l o m ɑ 
[346.745]
<no-speech> 
[348.765]
<sta> h e e t ʊ ʧ u j i t ʊ i ɾ o ʒ ʧ u j i d æ ɾ s e 
[353.985]
<no-speech> 
[357.665]
m ɪ n g o t t ʊ i ɾ o ʒ ʧ u b u j i d æ ɾ s e <int> 
[359.845]
<no-speech> 
[363.915]
ħ æ <int> ħ æ ʧ ɪ m ɑ d æ w ɑ m s ɪ z l ɪ x e t æ h ɛ j æ d æ ɾ s e 
[367.905]
<no-speech> 
[369.925]
m h ɑ j l o l o m ɪ n g o t d æ w ɑ m s ɪ z l ɪ x e t æ p ɪ ɾ h æ n æ <int> 
[373.485]
<no-speech> 
[378.355]
<hes> <int> 
[380.155]
<no-speech> 
[380.955]
<breath> 
[382.815]
<no-speech> 
[383.905]
<hes> t ʊ d e b ɑ v o r æ x æ b æ ɾ d ɪ d i æ w ʧ ɑ w ɑ n ɪ n 
[386.765]
<no-speech> 
[391.815]
<hes> <int> 
[393.845]
<no-speech> 
[395.535]
<int> t ʊ t ɪ ʃ t i d i s ɑ w æ ɾ i æ m h æ ɾ ɪ n æ g ʊ n d 
[398.495]
<no-speech> 
[402.395]
ħ æ <int> 
[403.565]
<no-speech> 
[405.175]
ħ æ w æ ɾ ɪ m ɛ æ z b e w æ d æ i n ʃ æ l ɑ h 
[408.395]
<no-speech> 
[409.695]
ħ æ e b ɪ x w ɪ n x e ɾ ɑ x w æ m ɪ n g o t j e <oov> x w æ j e m ɪ ʒ u l i b ɪ k ɪ ɾ ɪ n 
[415.305]
<no-speech> 
[419.935]
<hes> <laugh> n ɑ n ɑ t ʊ j e d æ ɾ b ɑ s k i m ɑ h u n e ʧ ɪ b ɪ k ɪ n 
[423.265]
<no-speech> 
[427.115]
<hes> <laugh> t æ s e ʧ ɑ ɾ ħ æ b ɑ n d ɑ b ɛ b æ ɾ ʧ ɑ v e x w æ æ z e t æ v i b ɪ d ɪ m b æ ɾ ʧ ɑ v h æ m ɑ <laugh> 
[431.655]
<no-speech> 
[436.145]
<int> <hes> m æ r e m æ m i ʒ ɪ z ɑ ɾ ɪ n 
[440.065]
<no-speech> 
[441.435]
<int> ʧ æ k ɑ t ʊ w æ ɾ æ h æ b æ k e d æ ɾ b ɑ s b ɪ k æ m ɪ n g o t ʧ æ k ɑ t ʊ w æ ɾ æ h æ b æ k e d æ ɾ b ɑ s b ɪ k æ 
[446.045]
<no-speech> 
[451.075]
m e m ɪ n m ɪ n q ɑ p ɑ s i t ɑ t æ ʒ ɪ ɑ m ɪ n z e d æ t ɪ ɾ æ n o ɾ m ɑ l æ q æ j ɑ q ɪ l i n æ 
[456.775]
<no-speech> 
[459.425]
<hes> e t ʊ ʒ e h ɑ t i t ʊ q æ j æ z ɑ q ɪ l i j i 
[464.475]
<no-speech> 
[466.365]
<hes> e r ɪ n d k ɪ ɾ x w æ r ɑ t o p k i b ɪ s t i n ɛ 
[469.515]
<no-speech> 
[471.785]
<no-speech> 
[472.405]
<no-speech> 
[473.825]
<hes> e k ɑ j e t ʊ ʒ ɪ d ɪ b e n ɑ v k ɑ j e m ɪ n i 
[476.495]
<no-speech> 
[479.195]
<hes> n æ j s æ t ʊ v e h ɑ v i n e b ɪ ʃ ɪ x ʊ l i t æ ʒ ɪ x w æ r ɑ b ɪ s t i n i 
[482.945]
<no-speech> 
[485.075]
<hes> 
[485.895]
<no-speech> 
[487.785]
<int> j e n t e 
[489.345]
<no-speech> 
[490.235]
<hes> t ʊ j e h ɑ v i n e w æ ɾ i v e d æ ɾ i 
[492.715]
<no-speech> 
[493.915]
t ʊ j e h ɑ v i n e w æ ɾ i s t æ n b o l e <int> 
[495.955]
<no-speech> 
[497.235]
<hes> e w æ ɾ æ n ɑ w æ l æ h k ɑ æ m n æ ʧ ɪ n æ m e ʧ ɪ b ɪ k ɪ n 
[502.445]
<no-speech> 
[503.915]
n ɑ j ɑ w l ɪ v e d æ ɾ e t ʊ i ʃ <oov> w æ i ʃ <oov> ʕ æ j ɑ ɾ k ɪ n m ɪ n g o t g æ ɾ æ æ z n ɑ ʧ ɪ m w e d æ ɾ e 
[509.555]
<no-speech> 
[514.235]
<hes> d æ æ z e x w æ b ɪ d ɪ m b æ ɾ ʃ e x e m æ n z i l e <laugh> 
[518.325]
<no-speech> 
[520.675]
<int> <laugh> ʃ e x e w æ m æ z ɪ n æ z ɪ m 
[524.175]
<no-speech> 
[525.015]
n ɑ ʃ e x e æ n m æ z ɪ n æ z ɪ m w æ x t e æ z b e m æ z h æ ɾ ɪ m æ z e <laugh> 
[530.065]
<no-speech> 
[532.225]
<hes> 
[533.335]
<no-speech> 
[534.365]
n ɑ w æ l æ h w ɪ s ɑ j æ <int> 
[536.445]
<no-speech> 
[538.625]
<hes> <sta> 
[541.355]
<no-speech> 
[542.815]
h ɑ 
[544.345]
<no-speech> 
[548.145]
m æ k t æ b ɑ m æ k ʊ æ m n æ m i n ɪ n b ʊ t ɑ ʃ æ ʃ e ħ æ z i ɾ ɑ n e 
[551.875]
<no-speech> 
[556.465]
æ ɾ e k ʊ æ m n æ m i n ɪ n b ʊ t ɑ k ʊ æ m b ɪ m i n ɪ n b ʊ t ɑ w æ l æ h æ m d ɪ ʧ æ u d ɪ ʧ ɪ n <breath> 
[563.745]
<no-speech> 
[567.375]
<no-speech> 
[568.115]
<no-speech> 
[569.255]
æ l o <int> 
[570.705]
<no-speech> 
[572.145]
<int> æ z i z æ l o 
[579.115]
<no-speech> 
[580.995]
n ɑ z i f 
[581.985]
<no-speech> 
[588.845]
n ɑ z i f 
[589.945]
<no-speech> 
[593.005]
<no-speech> 
[593.625]
<no-speech> 
[596.665]
d æ n g e m ɪ n t e 
[597.340]
