[0.000]
<no-speech> 
[1.605]
<no-speech> 
[2.035]
<no-speech> 
[4.565]

[5.175]
<no-speech> 
[9.435]
æ l o 
[10.025]
<no-speech> 
[11.475]
h ɑ 
[12.145]
<no-speech> 
[13.725]
b ɑ ʃ ɪ m s ɑ x b ɪ t ʊ ʧ ɪ l o j æ 
[15.215]
<no-speech> 
[17.095]

[18.695]
<no-speech> 
[21.145]
e 
[21.775]
<no-speech> 
[24.245]
ħ æ 
[26.885]
<no-speech> 
[31.745]
<oov> 
[32.465]
<no-speech> 
[36.855]
t æ r æ b i n ɪ m 
[37.595]
<no-speech> 
[43.385]
x w æ d e h ɑ t ɪ n b ɪ ʃ ɑ ɾ ʃ ɪ v ɑ n o s e v d i n ʒ i w ɑ t e ʤ ɪ j ɑ m ɪ n r ɑ z ɑ j æ 
[48.465]
<no-speech> 
[52.925]
æ ɾ e b ɪ x w æ d e 
[53.755]
<no-speech> 
[62.825]

[63.585]
<no-speech> 
[64.945]
x æ m n ɑ k ɛ 
[66.175]
<no-speech> 
[66.985]
<no-speech> 
[67.365]
<no-speech> 
[72.925]
æ ɾ e b ɪ x w æ d e b ɪ l i ʃ o ʒ i i ɾ o ʒ b ɑ x ʧ æ h ɑ t w ɑ æ w ʒ i r ɑ z ɑ j æ t ɑ ɾ i h i j æ 
[77.015]
<no-speech> 
[80.705]
ħ æ 
[81.175]
<no-speech> 
[82.315]
x w æ d e m ɑ l e n æ æ z n æ ʧ u m s æ ɾ 
[84.835]
<no-speech> 
[85.665]
n ɑ 
[86.405]
<no-speech> 
[92.835]
<laugh> æ ɾ e x w æ d e 
[94.455]
<no-speech> 
[95.285]
<laugh> d ɪ ɑ x ɪ v æ 
[97.605]
<no-speech> 
[98.745]

[99.285]
<no-speech> 
[102.435]

[103.125]
<no-speech> 
[106.895]
d ɑ j e 
[108.025]
<no-speech> 
[110.155]
t ɪ ʃ t æ k ɪ ɾ i j æ 
[110.935]
<no-speech> 
[115.975]
w æ l æ h æ w ʧ ɪ 
[116.785]
<no-speech> 
[122.425]
h u n j ɑ n u d ɪ h e l ɪ n 
[123.995]
<no-speech> 
[126.385]
d ɪ b e ʒ æ 
[127.535]
<no-speech> 
[130.345]
ʒ e r æ b e ʒ æ j ɑ r æ ʃ ɪ k r æ w ɪ l o b e ʒ æ 
[133.555]
<no-speech> 
[139.635]
<no-speech> 
[145.715]
z ɑ n i b ɑ b ɑ g ʊ n d d ɪ b æ ʧ ɪ 
[147.935]
<no-speech> 
[150.215]
b ɑ ʃ b ɪ m t ʊ s ɑ x b ɪ b e ʒ ɪ m s u ɾ æ t æ k e t æ w ɑ n r æ n i n ɛ 
[154.455]
<no-speech> 
[163.325]
n ɪ z ɑ n ɪ m k i n æ 
[164.215]
<no-speech> 
[168.715]
m ɪ n g o t æ z b e b e ʒ æ s u ɾ æ t æ k e t æ b ɪ w ɑ n r æ g o t ʧ ɪ 
[176.905]
<no-speech> 
[177.905]
m ɪ n ʒ e r æ b e ʒ æ 
[179.735]
<no-speech> 
[182.385]
æ ɾ e z u d æ z ɑ n ɪ m 
[187.215]
<no-speech> 
[190.695]
x w æ d e 
[191.285]
<no-speech> 
[192.185]
e b ɪ x w æ d e 
[196.065]
<no-speech> 
[200.505]
e 
[201.135]
<no-speech> 
[203.775]
w i ʒ i x ɑ l e t æ ʒ ɪ f æ x ɾ æ d i n r æ b ɑ ʃ n æ h ɑ t 
[209.105]
<no-speech> 
[210.325]
<no-speech> 
[210.675]
<no-speech> 
[215.785]
<int> z ɑ n ɪ n d ɪ k ɪ n 
[221.065]
<no-speech> 
[222.635]
ħ æ 
[223.205]
<no-speech> 
[225.415]
<int> æ v d ɪ l ʤ æ b ɑ ɾ 
[226.695]
<no-speech> 
[236.115]
<no-speech> 
[236.475]
<no-speech> 
[238.565]

[239.025]
<no-speech> 
[241.055]
u b ɪ d ɑ ɣ 
[242.405]
<no-speech> 
[247.655]
ʧ ɪ l o 
[248.395]
<no-speech> 
[251.325]

[251.785]
<no-speech> 
[255.785]
m ɪ n g o t k ʊ 
[256.925]
<no-speech> 
[259.675]
æ v d ɪ l o 
[262.695]
<no-speech> 
[266.775]
q ɑ l ɑ h ʊ s ɛ j ɪ n n ɑ b æ 
[269.075]
<no-speech> 
[270.955]
<no-speech> 
[271.315]
<no-speech> 
[279.980]
<no-speech> 
[288.645]
ħ æ h ɑ 
[290.365]
<no-speech> 
[298.275]
e x æ m n ɑ k ɛ t ʊ ʒ e r æ b e ʒ æ 
[300.185]
<no-speech> 
[302.195]
x w æ d e d o h h ɑ t t e d æ d o h b u æ z ʒ e r æ b e ʒ ɪ m h ɑ t ɪ b u b ɪ m ɪ n r æ ʃ ɑ n d i j æ 
[308.625]
<no-speech> 
[314.335]
<no-speech> 
[314.825]
<no-speech> 
[320.315]
m ɑ j i k æ f ɑ x w æ 
[322.405]
<no-speech> 
[323.665]

[324.435]
<no-speech> 
[329.545]
<laugh> æ w e k æ f ɑ x w æ j æ 
[331.655]
<no-speech> 
[341.445]

[342.105]
<no-speech> 
[344.315]
x æ m 
[345.015]
<no-speech> 
[349.405]

[349.915]
<no-speech> 
[351.875]
g o t x w æ ʃ æ v ɪ ɾ æ 
[353.495]
<no-speech> 
[356.305]
ʃ i v ɑ 
[357.015]
<no-speech> 
[358.035]

[358.945]
<no-speech> 
[363.205]
<no-speech> 
[363.565]
<no-speech> 
[364.685]
m ɪ n g o t m æ s u d n ɑ ʃ t æ x ɪ l ɛ 
[369.025]
<no-speech> 
[369.905]
<no-speech> 
[370.835]
<no-speech> 
[372.525]
m æ s u d m æ s u d 
[373.765]
<no-speech> 
[375.535]
t ʊ ʒ ɪ x w æ b e w æ 
[376.575]
<no-speech> 
[377.615]
ʧ ɪ 
[378.675]
<no-speech> 
[380.455]
<no-speech> 
[382.125]
<no-speech> 
[383.135]
<no-speech> 
[383.775]
<no-speech> 
[385.485]
ħ æ h æ w æ z ɑ ɾ o k e x w æ ʒ i 
[389.145]
<no-speech> 
[390.275]
ʒ e r æ g o t ʧ ɪ 
[391.385]
<no-speech> 
[393.655]
ʧ ɪ m ɑ 
[394.415]
<no-speech> 
[397.375]
e ʒ ɪ b e w ɪ l o ʧ ɪ d ɪ k ɪ n ɑ n ɪ h ɑ j ɑ n i 
[399.315]
<no-speech> 
[400.315]
e t ʊ z ɑ n i 
[401.385]
<no-speech> 
[403.285]
e e 
[404.175]
<no-speech> 
[408.185]
<int> i ʒ ɑ ɾ ʒ i 
[409.095]
<no-speech> 
[410.725]

[411.295]
<no-speech> 
[415.875]
t ʊ ʧ ɪ m ɑ h æ z d i k e m ɪ n 
[417.095]
<no-speech> 
[419.495]

[423.295]
<no-speech> 
[424.195]

[426.245]
<no-speech> 
[427.555]
<laugh> b ɪ d æ 
[429.585]
<no-speech> 
[431.065]
m ɪ n g o t æ z e h æ ɾ ɪ n u ɾ f ɑ 
[432.615]
<no-speech> 
[433.625]
æ z ʤ ɪ j ɑ x w æ g ʊ l s ɑ ɾ e b ɑ v e x w æ 
[436.135]
<no-speech> 
[437.175]
w æ l æ h t ʊ j e b e j i <laugh> 
[440.755]
<no-speech> 
[441.715]
<laugh> j æ q i n n ɑ k ɛ h ɑ 
[445.875]
<no-speech> 
[447.345]
w æ x e ɾ e b e t ʊ s ɑ x b i x w æ d e ʒ ɪ t æ r ɑ z i b e 
[453.265]
<no-speech> 
[454.755]
<no-speech> 
[455.325]
<no-speech> 
[457.775]
e 
[458.615]
<no-speech> 
[460.375]
ʧ ɪ m ɑ 
[461.105]
<no-speech> 
[462.415]
æ m ʒ ɪ x w æ b ɪ ɾ ɑ b e n 
[463.625]
<no-speech> 
[467.015]
m ɪ n g o t æ m n ɑ j e 
[469.625]
<no-speech> 
[470.735]
<no-speech> 
[471.095]
<no-speech> 
[473.735]
æ ɾ e m ɑ t ʊ ʒ e r æ v ɪ j ɑ 
[476.045]
<no-speech> 
[477.745]
n ɑ æ z <laugh> ɑ v e t ɪ n ɑ v e t ɪ n 
[486.465]
<no-speech> 
[489.185]
e 
[489.835]
<no-speech> 
[492.295]

[492.985]
<no-speech> 
[493.905]
ʧ ɪ 
[496.135]
<no-speech> 
[498.475]
t æ g o t ʧ ɪ l o 
[499.345]
<no-speech> 
[501.725]
w ɑ 
[502.505]
<no-speech> 
[506.645]
e m ɑ l ɪ w ɪ ɾ g æ ɾ i j ɑ t ʊ h ɑ t 
[509.315]
<no-speech> 
[510.395]

[514.835]
<no-speech> 
[516.255]
<no-speech> 
[516.645]
<no-speech> 
[518.025]
e 
[518.625]
<no-speech> 
[519.535]

[520.245]
<no-speech> 
[523.365]
k i d ɪ b æ ʧ ɪ 
[524.345]
<no-speech> 
[525.855]
ʤ ɪ j ɑ m ɪ n æ w b ɪ h æ s i j ɑ x w æ h æ s i j ɑ 
[529.425]
<no-speech> 
[531.625]
<laugh> h æ v ɑ l e m ɪ n q æ j d ɪ b æ ʧ ɪ 
[537.485]
<no-speech> 
[541.005]
e 
[541.725]
<no-speech> 
[543.065]
t æ g o t ʧ ɪ 
[543.985]
<no-speech> 
[549.435]
æ w æ k x w ɑ ɾ 
[550.505]
<no-speech> 
[554.205]
e 
[554.785]
<no-speech> 
[555.965]
t ʊ k æ r b u j æ 
[556.935]
<no-speech> 
[562.225]
e k i k i æ w e v æ d ɪ x w æ 
[563.615]
<no-speech> 
[569.715]
<no-speech> 
[570.705]
<no-speech> 
[571.715]
e t ɪ ʃ t k ʊ t e t ɪ ʃ t k ʊ t e 
[573.415]
<no-speech> 
[575.315]
e 
[575.905]
<no-speech> 
[578.375]
t ʊ ʒ i d ɪ g æ ɾ æ 
[579.305]
<no-speech> 
[580.525]
e æ z ʒ i ʒ ɪ x w æ æ z d ɪ ʧ u m d ɪ g æ ɾ i j ɑ m d ɪ h ɑ t ɪ m ʒ i 
[582.725]
<no-speech> 
[584.125]
x w æ d e ʧ u m m ɑ l ɑ x ɑ l e x w æ ʧ u m m ɑ l ɑ ɑ p e x w æ m ɪ ħ æ m æ s ɑ l i ʧ u m m ɑ l ɑ x ɑ l t i k ɑ x w æ b æ h ɪ j æ d i s ɑ æ z g æ ɾ ɪ j ɑ m h ɑ t ɪ m 
[591.755]
<no-speech> 
[594.005]

[594.525]
<no-speech> 
[595.800]
