[0.000]
<sta> æ l o 
[6.845]
<no-speech> 
[7.695]
<no-speech> 
[8.975]
<no-speech> 
[10.235]
ʧ ɪ d ɪ k i k æ k e 
[11.385]
<no-speech> 
[12.385]
<sta> q ɪ z ɨ m b u n æ j d i æ v ʧ ɪ j æ <laugh> 
[16.625]
<no-speech> 
[17.575]
<no-speech> 
[19.805]
<no-speech> 
[20.705]
ʧ ɪ 
[21.545]
<no-speech> 
[23.085]
e e æ v t æ n e b e <int> 
[27.285]
<no-speech> 
[29.925]
j e d æ m ɑ n ʧ æ t e d ɑ k ɛ <int> 
[32.455]
<no-speech> 
[34.805]
<int> ʧ ɪ 
[41.115]
<no-speech> 
[43.155]
<no-speech> 
[43.845]
<no-speech> 
[44.825]
k æ ʧ e d æ n g e t æ n ɑ j e d æ n g e t æ n ɑ j e <int> ʧ ɪ 
[49.835]
<no-speech> 
[51.885]
t ɪ ʃ t æ k e n ɑ k ɪ m w æ l æ h <int> 
[57.475]
<no-speech> 
[58.375]
<int> æ l o 
[65.145]
<no-speech> 
[66.185]
<no-speech> 
[67.125]
<no-speech> 
[68.555]
<int> æ m m ɑ l ɪ n h ɑ æ m e ʧ ɪ b ɪ k ɪ n ʧ ɪ 
[73.045]
<no-speech> 
[74.135]
<sta> æ z æ z n ɑ i ʃ e m ɪ n h ɛ j æ e v ɑ ɾ e m e v ɑ n e h ɛ j æ æ m e ʃ i v e ʧ e k ɪ n d æ ɾ æ n g e æ z e s ɪ b æ h e ʧ u m b ɪ l e t b ɪ ɾ i n 
[84.235]
<no-speech> 
[85.285]
<no-speech> 
[86.975]
<no-speech> 
[88.845]
<sta> s ɪ b æ h e <no-speech> s ɪ b æ h e s ɑ æ t j ɑ z d æ h u n i v ɑ n æ z b ɪ ʧ ɪ m 
[100.315]
<int> ʧ ɪ 
[103.125]
<no-speech> 
[104.285]
<no-speech> 
[104.765]
<no-speech> 
[107.335]
<int> æ l o 
[109.135]
<no-speech> 
[110.375]
<no-speech> 
[110.745]
<no-speech> 
[111.735]
<no-speech> 
[112.285]
<no-speech> 
[113.565]
d æ n g e m æ d æ n g e t æ n ɑ j e 
[116.205]
<no-speech> 
[117.315]
d æ n g e t æ n ɑ j e 
[119.005]
<no-speech> 
[119.855]
<no-speech> 
[121.285]
<no-speech> 
[122.325]
<int> t æ l æ f o n ɑ t æ g ɪ ɾ t i j ɛ 
[126.465]
<no-speech> 
[129.925]
ʧ ɪ ħ æ t ʊ l ɪ k ʊ d æ j i <sta> t æ m ɑ m n ɪ h ɑ t ʊ l ɪ k ʊ d æ j i 
[139.605]
<no-speech> 
[141.515]
<no-speech> 
[142.025]
<no-speech> 
[143.405]
<int> k æ ʧ e t ʊ l ɪ k æ d æ ɾ e n ɪ h ɑ æ z d ɪ b e ʒ ɪ m 
[147.475]
<no-speech> 
[149.265]
<no-speech> 
[149.625]
<no-speech> 
[151.165]
s æ ɾ ʤ ɑ d e k ʊ d æ 
[152.875]
<no-speech> 
[153.895]
<no-speech> 
[154.265]
<no-speech> 
[156.075]
<no-speech> 
[156.645]
<no-speech> 
[157.625]
<hes> æ z n ʊ m ɑ ɾ æ k i b e ʒ æ 
[160.835]
<no-speech> 
[162.725]
<int> h æ v ɑ l e t æ k i j æ 
[168.195]
<no-speech> 
[169.385]
h ɑ <int> 
[170.735]
<no-speech> 
[172.325]
ʧ ɪ 
[173.255]
<no-speech> 
[175.305]
<no-speech> 
[177.265]
<no-speech> 
[182.155]
<int> ʧ ɪ 
[184.385]
<no-speech> 
[185.645]
<sta> t ɪ ʃ t æ k e n ɑ k ɪ m w æ l æ h m ɑ æ z e ʧ ɪ b ɪ k ɪ m d æ n g e t æ h i ʧ n ɑ j e h ɑ d æ n g e t æ d æ ɾ i n d æ n t e 
[192.825]
<no-speech> 
[195.685]
<no-speech> 
[196.145]
<no-speech> 
[198.795]
k æ ʧ e æ v n ʊ m ɑ ɾ æ <sta> k i ʒ ɑ n t æ r æ t æ g o t 
[203.185]
<no-speech> 
[204.175]
<no-speech> 
[204.545]
<no-speech> 
[206.665]
<no-speech> 
[207.285]
<no-speech> 
[209.295]
ʃ æ b æ k ɛ ɑ n i n ɑ æ e t æ g o t ʧ ɪ j æ 
[214.035]
<no-speech> 
[216.265]
<int> ʧ ɪ n ɪ h ɑ b e ʒ æ 
[221.815]
<no-speech> 
[224.335]
n ʊ m ɑ ɾ æ n æ k ɪ ɾ i j æ t ɪ ɾ k i j ɑ w 
[228.755]
<no-speech> 
[230.035]
<sta> æ v n ʊ m ɑ ɾ æ n æ j ɑ t ɪ ɾ k ɪ j æ j ɑ <no-speech> k ɑ p ɪ ɾ s k æ m ɪ n j ɑ t ɪ ɾ k ɪ j æ ʧ ɪ m ɑ 
[241.715]
k ʊ ɾ m ɑ n ʤ i b ɪ p ɛ j ɪ v ɛ d ɪ ʃ t æ x ɪ l ɛ 
[243.495]
<no-speech> 
[246.985]
l e <int> 
[248.935]
<no-speech> 
[250.305]
<int> x ɪ ɾ ɑ b n æ b e k i x ɪ ɾ ɑ b n ɑ b æ k i 
[260.035]
<no-speech> 
[261.325]
<no-speech> 
[263.735]
<no-speech> 
[265.985]
t æ g o t ʧ ɪ 
[267.085]
<no-speech> 
[268.085]
<int> j ɑ x w ɑ z j ɑ t æ <int> h u n v ɪ ɾ e ʧ e d ɪ k ɪ n 
[276.935]
<no-speech> 
[279.095]
<no-speech> 
[284.295]
<no-speech> 
[286.285]
m ɪ n f æ h m n æ k ɪ ɾ <int> 
[290.895]
<no-speech> 
[292.785]
<no-speech> 
[294.035]
<no-speech> 
[296.445]
t ɪ ʃ t æ k e n ɑ k ɛ t æ v l i g ʊ l s æ ɾ æ n s æ l ɑ m s o j l ɪ j o ɾ 
[299.235]
<no-speech> 
[300.245]
<sta> g ʊ l s æ ɾ æ n s æ l ɑ m s æ l ɑ m s o j l ɪ j o ɾ n æ h ɑ t i 
[308.885]
<no-speech> 
[310.385]
<no-speech> 
[314.325]
<no-speech> 
[315.355]
ʧ ɪ <laugh> <int> 
[317.935]
<no-speech> 
[318.955]
k i j æ 
[319.735]
<no-speech> 
[322.215]
ħ æ ħ æ 
[322.985]
<no-speech> 
[328.525]
h ɑ t ɪ b u ʧ ɪ 
[329.655]
<no-speech> 
[332.295]
ħ æ 
[333.055]
<no-speech> 
[338.385]
f æ h m n ɑ k ɪ m k i k ɪ ɾ e k ɪ ɾ e 
[341.255]
<no-speech> 
[344.425]
n ɪ h ɑ b e ʒ æ 
[345.325]
<no-speech> 
[352.795]
n ɪ h ɑ b e ʒ æ n ɪ h ɑ b e ʒ æ ʧ ɪ 
[355.545]
<no-speech> 
[358.175]
ʕ æ j n i 
[359.095]
<no-speech> 
[364.935]
k æ ʧ e t ʊ t æ n e b ɪ ʃ t æ x ɪ l i 
[367.115]
<no-speech> 
[368.725]
ʕ æ j n i j æ m ɪ n g o t t ɪ ʃ t æ k f æ ɾ q l i ɑ n i n ɑ æ d æ n g e t æ ʒ ɪ x w æ ʃ n ɑ j e 
[373.285]
<no-speech> 
[378.085]
k æ s n ɑ j e m i n ɑ d o ɾ ɑ m ɪ n g o t s æ ɾ n ɪ h ɑ 
[381.175]
<no-speech> 
[384.415]
m ɪ n g o t ʕ æ j n i j æ t ɪ ʃ t æ k i f æ ɾ q l i ɑ n i n ɑ æ 
[386.805]
<no-speech> 
[388.205]
j o n æ j e b ɑ t æ 
[391.035]
<no-speech> 
[396.225]
n ɪ z ɑ n ɪ m n æ ʧ u j ɛ h e 
[397.735]
<no-speech> 
[401.535]
n ɪ z ɑ n ɪ m b æ l k i n æ ʧ u j ɛ ʒ ɪ <sta> ʧ ɪ 
[412.245]
<no-speech> 
[414.955]
<no-speech> 
[415.955]
<int> ʧ ɑ w ɑ m ɪ n f æ h m n æ k ɪ ɾ 
[418.295]
<no-speech> 
[423.875]
n u 
[424.865]
<no-speech> 
[428.155]
j o h i ʧ m ɪ n b æ ħ s e w i n æ k ɪ ɾ 
[431.115]
<no-speech> 
[432.035]
g o t l o t ɪ ʃ t æ k i d i n ʒ ɪ <oov> 
[434.885]
<no-speech> 
[435.815]
m ɪ n g o t n ɑ x w ɑ z ɪ m 
[436.905]
<no-speech> 
[440.905]
<laugh> n ɪ z ɑ n ɪ m d æ q æ w i m ɑ n æ 
[443.305]
<no-speech> 
[447.175]
ħ æ ħ æ 
[447.915]
<no-speech> 
[452.595]
m ɪ n g o t n ɪ z ɑ n ɪ m æ z e ʧ ɪ k i 
[454.045]
<no-speech> 
[460.305]
k æ t ɪ m <oov> n ɑ v ɑ g ɪ ɾ n æ t æ n e 
[462.975]
<no-speech> 
[470.735]
æ z b æ t ɪ l i m t ʊ n ɑ j e ʤ æ m m ɪ n 
[472.875]
<no-speech> 
[476.895]

[477.565]
<no-speech> 
[479.105]
ʧ ɪ d æ n g e t æ ʒ ɪ n ɑ j e x w æ ʃ 
[481.215]
<no-speech> 
[484.055]
æ f æ n d ɪ m 
[485.245]
<no-speech> 
[487.805]
ʧ ɪ 
[488.385]
<no-speech> 
[492.935]

[494.745]
<no-speech> 
[503.405]
<hes> 
[504.025]
<no-speech> 
[512.875]
ʒ ɪ g o t ɪ b ɛ ʧ ɪ ɾ æ 
[514.155]
<no-speech> 
[515.385]
<hes> 
[515.995]
<no-speech> 
[520.675]
t e f æ q æ ɑ v 
[522.055]
<no-speech> 
[523.165]
h ɑ 
[523.775]
<no-speech> 
[526.235]
<laugh> m ɑ æ v e k ʧ ɪ m ɑ t ʊ n ɑ b e ʒ e m æ j m u n 
[529.955]
<no-speech> 
[536.335]
ʧ ɪ 
[536.955]
<no-speech> 
[543.835]
t æ h e ʤ ɑ ɾ æ k i p e v ɑ n ʊ m ɑ ɾ æ v æ k ɪ ɾ i j ɛ m ɪ n 
[546.675]
<no-speech> 
[551.045]
h æ f t ɛ j ɑ d i n n ɪ m ɑ ɾ ɑ k i j ɑ b ɑ n ʤ i b ɑ k ɪ ɾ æ m ɪ n 
[553.635]
<no-speech> 
[555.335]
ʕ æ j n i e k æ v e d ɪ x ʊ j ɑ n ʊ m ɑ ɾ æ 
[557.195]
<no-speech> 
[558.815]
t ʊ n ɪ h ɑ n æ k ɪ r i 
[559.775]
<no-speech> 
[562.645]
<int> 
[563.425]
<no-speech> 
[564.785]
h ɑ 
[565.355]
<no-speech> 
[572.015]
ʧ ɪ 
[575.785]
<no-speech> 
[577.965]
t æ g o t 
[578.605]
<no-speech> 
[581.185]
d ɪ b e ʒ ɪ ʧ ɪ 
[582.195]
<no-speech> 
[586.055]
x w æ d e æ z t ɪ ʃ t æ k e n ɑ k ɪ m æ m ʒ ɪ v ɑ d æ ɾ i n d ɪ ʒ ɪ x w æ r ɑ d ɪ l ɛ j i z ɪ n 
[588.965]
<no-speech> 
[594.625]
v e ʤ ɑ ɾ e m ɪ n ʒ i ʧ u ʒ e r ɑ n ɑ n ɑ n i m ɪ n h ɑ ʤ æ ɾ r æ g o t t ɪ ʃ t ɑ n i ʒ e r æ p æ ɾ e m ɪ n n i n ɛ b u 
[598.755]
<no-speech> 
[599.900]
