[0.000]
<no-speech> 
[4.785]
<hes> 
[6.515]
<no-speech> 
[8.775]
<no-speech> 
[9.125]
<no-speech> 
[10.385]
<int> æ l o 
[12.165]
<no-speech> 
[13.995]
<int> æ l o 
[16.075]
<no-speech> 
[17.565]
k i m s ɪ n ɪ z 
[18.575]
<no-speech> 
[23.185]
æ l o s ɪ z k i m s ɪ n ɪ z 
[25.185]
<no-speech> 
[29.515]
æ l o 
[30.365]
<no-speech> 
[33.105]
<no-speech> 
[35.045]
<no-speech> 
[36.675]
<int> j e n g æ n ɑ s ɪ l s ɪ n t e j z æ n ɑ s ɪ l s ɪ n 
[43.795]
<no-speech> 
[54.725]
æ l o 
[55.455]
<no-speech> 
[58.755]
æ l o 
[59.485]
<no-speech> 
[61.325]
æ l o 
[62.105]
<no-speech> 
[67.145]
<no-speech> 
[70.415]
<no-speech> 
[71.295]
æ l o ħ æ m ɪ x ɑ l e t i 
[74.815]
<no-speech> 
[77.265]
æ l o 
[78.065]
<no-speech> 
[79.235]
æ z ɪ m æ z ɪ m 
[80.525]
<no-speech> 
[83.445]
h ʊ l j ɑ 
[84.395]
<no-speech> 
[85.685]
æ ɾ e æ ɾ e 
[86.785]
<no-speech> 
[89.355]
<hes> 
[90.445]
<no-speech> 
[91.985]
b ɑ ʃ ɪ n x w æ d e ʒ ɪ t æ r ɑ z i b e 
[94.655]
<no-speech> 
[96.185]
b ɑ ʃ ɪ n w æ l æ h x w æ d e ʒ ɪ t æ r ɑ z i b e h æ m ɑ g o t h u n b ɑ ʃ b ɪ n h u n ʧ ɪ d ɪ k ɪ n h u n r ɪ h æ t ɪ n 
[100.165]
<no-speech> 
[101.625]
<hes> <int> 
[105.075]
<no-speech> 
[109.425]
w æ l æ h æ m b ɑ ʃ ɪ n x w æ d e ʒ ɪ t æ r æ r ɑ z i b e x w æ d e k ʊ ɾ e t æ b ɪ h e l æ m ɑ æ m e ʧ ɪ b ɪ k ɪ n r u n ɪ ʃ t i n æ w æ l æ h 
[114.295]
<no-speech> 
[115.315]
x w æ d e ʒ ɪ t æ r ɑ z i b e z ɑ ɾ o k ʧ ɪ d ɪ k ɪ n r ɪ h æ t ɪ n 
[117.365]
<no-speech> 
[119.645]
b ɑ ʃ b ɑ ʃ l ɪ æ l h æ m d u l i l ɑ h b ɑ ʃ x w æ d e ʒ ɪ t æ r ɑ z i b e 
[121.965]
<no-speech> 
[124.205]
w i d æ s t e w i k ɑ æ m m æ j z e ħ æ t ɑ æ m ʒ e k ɪ n b ɑ ʃ æ b ɑ ʃ æ æ l h æ m d u l i l ɑ h t e d æ s t e t æ x w æ d e ʒ ɪ t æ r ɑ z i b e x w æ d e z ɑ ɾ o k e t æ b ɪ h e l ɑ n ɑ w æ l æ h n æ q ɪ l æ k e m æ b ɪ ɾ g o t w æ ɾ æ ħ æ t ɑ p ɑ n z d æ h r o ʒ <hes> 
[135.695]
<no-speech> 
[137.405]
b ɑ ʃ ɪ n w æ l æ h m ɑ j e ʧ ɪ b ɪ k ɪ n æ w ʒ ɪ r u n ɪ ʃ t i n æ ʃ e v e d ɪ æ w k ɪ ɾ ɪ b u n d ɑ w æ t e b æ ɾ z ɑ ɾ o k ɑ n b u 
[145.095]
<no-speech> 
[146.155]
<no-speech> 
[146.685]
<no-speech> 
[148.785]
h e v i j ɑ æ v k i j æ d ɪ ʃ t æ x ɪ l ɛ l ɪ w ɪ ɾ h ɪ s ɑ m ɪ n n ɑ j e t æ 
[152.905]
<no-speech> 
[155.175]
æ ɾ e <int> æ ɾ e 
[157.855]
<no-speech> 
[160.295]
<int> 
[161.675]
<no-speech> 
[162.905]
n ɪ z ɑ n ɪ m h ɪ n æ k ɑ n ɑ s j ɑ m ɑ l ɑ m e ħ æ ʤ i s ɑ l ɪ ħ h æ d ɪ j e q æ j k æ ʧ ɑ x w æ d ɑ b u ʧ u b u n ɑ ʃ i ɾ ɑ n i j e j ɑ h ɪ n æ j e 
[169.415]
<no-speech> 
[171.085]
æ w u x e ɾ ɪ j ɑ æ w ʧ u b u n g o t w æ ɾ ɪ n g o t w æ l æ h æ z n ɑ j e m ʃ e x m u s v æ k ɪ ɾ i d æ m ɪ ɾ t e d æ æ z n ɑ j e m 
[175.955]
<no-speech> 
[177.235]
<int> h u n h æ ɾ ɪ n æ z e b æ ɾ z ɑ ɾ o k ɑ n b ɪ m 
[180.805]
<no-speech> 
[183.865]
d ɑ h ɑ d æ æ z t e m ɛ r u j e z ɑ ɾ o k ɑ n <int> 
[187.885]
<no-speech> 
[192.195]
<no-speech> 
[196.175]
<no-speech> 
[199.675]
<no-speech> 
[202.525]
<no-speech> 
[203.455]
<sta> æ l o æ l o 
[213.485]
<no-speech> 
[214.705]
æ l o <int> 
[216.365]
<no-speech> 
[220.735]
<hes> 
[221.375]
<no-speech> 
[223.175]

[226.095]
<no-speech> 
[227.605]
i ʤ ɑ h ɛ j ɑ s æ ɾ e m æ b ɑ ʃ ɪ n w æ l æ h x w æ d e ʒ ɪ t æ r ɑ z i b e d æ n g e t æ ʧ ɪ m ɑ q ʊ t d ɪ b æ 
[234.425]
<no-speech> 
[237.875]
q ʊ t d i k e 
[239.405]
<no-speech> 
[243.485]
<hes> w æ l æ h æ m b ɑ ʃ ɪ n x w æ d e k ʊ ɾ e t æ b ɪ h e l æ 
[247.395]
<no-speech> 
[248.335]
<int> m ɑ h ɑ t ɪ n ɑ 
[250.455]
<no-speech> 
[252.335]
h ɑ t ɪ n æ 
[253.335]
<no-speech> 
[257.415]

[258.125]
<no-speech> 
[261.535]
h ɑ j ɑ m ɪ n ʒ e ɑ n i n ɑ æ n ɪ z ɑ n ɪ m 
[263.435]
<no-speech> 
[264.565]
h e ʒ ɑ m ɪ n ʒ ɪ w ɑ ɑ n i n ɑ æ h e 
[267.535]
<no-speech> 
[269.135]
j ɑ h æ d ɪ j e k æ ʧ ɑ x w æ b ɪ ɾ i j ɑ j ɑ j ɑ h æ d ɪ j e h æ d ɪ j e b u j ɑ k æ ʧ ɑ h æ d ɪ j e j ɑ h æ v ɑ l ɑ h æ z n ɪ j ɑ j e 
[275.975]
<no-speech> 
[278.325]
æ l o 
[279.145]
<no-speech> 
[283.035]
æ ɾ e k æ ʧ ɑ x w æ d ɑ j æ j æ k e t ɪ ɾ k 
[285.535]
<no-speech> 
[286.975]
h e x w æ h ɑ m ɪ n 
[288.025]
<no-speech> 
[289.315]
æ l o æ ɾ e 
[291.505]
<no-speech> 
[295.525]
h e x w æ h ɑ m ɪ n h e 
[296.655]
<no-speech> 
[298.925]
d æ n g e d æ n g e m ɪ n n ɑ j e d æ n g e t æ 
[301.155]
<no-speech> 
[302.615]
d æ n g e m ɪ n n ɑ k ɛ 
[303.765]
<no-speech> 
[309.585]
<hes> n ɑ x w ɛ z ɑ ɾ o k ʧ ɪ l o n æ <int> 
[314.975]
<no-speech> 
[319.325]
n ɑ x w æ h ɑ m ɪ n w æ l æ h ʒ ɪ z u b ɪ w æ r æ n æ ʃ t æ x ɪ l i m ɛ æ v i ɾ o ʒ s e ʧ ɑ ɾ r o ʒ i ɾ o ʒ s e ʧ ɑ ɾ r o ʒ b ɪ w æ r æ n æ ʃ t æ x ɪ l i m ɛ 
[325.275]
<no-speech> 
[327.955]

[328.995]
<no-speech> 
[330.745]

[331.965]
<no-speech> 
[335.385]
<hes> n ɑ i ɾ o ʒ n æ ʧ u n æ m æ k t æ b e l ɪ m ɑ l 
[337.785]
<no-speech> 
[338.855]
<hes> 
[339.455]
<no-speech> 
[341.175]
æ l o æ ɾ e 
[342.675]
<no-speech> 
[345.905]
æ ɾ e <hes> <laugh> æ ɾ e x w æ h ɑ m ɪ n æ ɾ e 
[352.215]
<no-speech> 
[353.415]
<hes> w æ l æ h æ m b ɑ ʃ ɪ n k e f k æ f ɑ m æ j æ 
[356.855]
<no-speech> 
[358.375]
b ɑ ʃ ɪ n w æ l æ h i ɾ o ʒ t ɑ v æ k æ b ɪ h ɑ ɾ ɑ 
[361.405]
<no-speech> 
[362.415]
æ ɾ e i ɾ o ʒ i ɾ o ʒ t ɑ v æ k æ 
[364.505]
<no-speech> 
[367.565]
i ɾ o ʒ t ɑ v æ k æ x w æ ʃ æ æ v d æ ɾ ʕ æ v d ɪ l w æ h ɑ p ʧ ɪ l o b u j æ 
[371.055]
<no-speech> 
[372.775]
æ l o 
[373.645]
<no-speech> 
[375.225]
ʕ æ v d ɪ l w æ h ɑ p ʧ ɪ l o b u j æ 
[376.765]
<no-speech> 
[379.905]
m ɪ n g o t ʕ æ v d ɪ l w æ h ɑ p ʧ ɪ l o b u j æ 
[381.505]
<no-speech> 
[383.985]
b ɑ ʃ ɑ n i n ɑ æ 
[385.015]
<no-speech> 
[389.855]
æ v g o t d æ ħ d æ q æ b ɪ ʃ t æ x ɪ l ɛ ʧ ɪ m æ s æ l ɛ j e b u 
[393.065]
<no-speech> 
[395.135]
æ l o 
[395.905]
<no-speech> 
[402.295]
<int> ħ æ g o t ʧ ɪ l o 
[407.575]
<no-speech> 
[410.445]
t æ g o t ʧ ɪ l o x w æ h ɑ m ɪ n 
[411.475]
<no-speech> 
[415.135]
ħ æ 
[415.995]
<no-speech> 
[419.195]
n æ w ɪ l o m ɪ n g o t g o t i j æ x æ j ɾ i 
[423.665]
<no-speech> 
[425.455]
e d æ b ɑ ʃ 
[426.655]
<no-speech> 
[427.755]
n æ x w ɛ k æ ʧ ɪ k ʧ ɪ l o n æ 
[429.215]
<no-speech> 
[432.385]
æ ɾ e w æ l æ h d ɪ ʃ t æ x ɪ l ɛ l e i ɾ o ʒ d ʊ r o ʒ n æ ʃ t æ x ɪ l i j ɛ 
[435.645]
<no-speech> 
[437.065]
i ɾ o ʒ n æ ʃ t æ x ɪ l i j ɛ 
[438.555]
<no-speech> 
[442.065]
<hes> b æ ɾ i ʃ t æ x ɪ l i æ w ʒ ɪ r o k e ʃ t æ x ɪ l i u ɑ s e k ɪ ɾ h æ w v æ k ɪ ɾ 
[446.265]
<no-speech> 
[447.305]
b æ l e b æ ɾ i n ʤ ɑ ɾ æ k e v æ k ɪ ɾ 
[449.255]
<no-speech> 
[451.135]
æ ɾ e g o t æ z e h æ s i j ɑ h æ ɾ r o ʒ g æ ɾ ɪ j ɑ m u 
[454.375]
<no-speech> 
[455.785]
æ ɾ e t ɪ ɾ k ɑ n e d ɑ b u j e m ɪ n g o t b ɪ s t i n ɛ 
[458.695]
<no-speech> 
[462.635]
v e ʤ ɑ g o t æ z e h æ ɾ r o ʒ x ɑ l t i k e æ z e h æ ɾ r o ʒ l ɪ t æ g æ ɾ m u ʒ ɪ h ɪ n g i p e ʒ n ɑ w e h æ w h ɑ t 
[467.605]
<no-speech> 
[470.905]
æ l o 
[471.665]
<no-speech> 
[478.395]
h æ k æ v e ʤ ɑ d ɪ b e i ʃ e w e m e v ɑ n e w e h æ n æ ʒ ɪ b æ ɾ w ɪ l o 
[483.535]
<no-speech> 
[490.225]
n æ w ɪ l o 
[491.065]
<no-speech> 
[493.025]
d ɪ ɾ u m ɑ w e ʧ ɪ k e w æ l æ h g o t æ z b ɑ ʃ ɪ m 
[495.525]
<no-speech> 
[497.015]
m ɑ t i t ɪ ʃ t e w i ɑ n i n ɑ æ m ɑ j e ʧ ɪ h æ b æ 
[499.815]
<no-speech> 
[501.915]
<hes> 
[502.525]
<no-speech> 
[505.975]
x w æ d e m ɪ l k ɪ j æ ʒ ɪ m ɪ l k ɪ j æ b ɑ ʃ <int> r o ʒ ɑ h ɑ t ɪ b æ æ w ʒ ɪ b ɑ ʃ 
[512.875]
<no-speech> 
[514.215]
h ɑ t ɪ b u u d o h ʒ ɪ t æ l æ f o n k ɪ ɾ 
[517.335]
<no-speech> 
[518.825]
k e f k æ f ɑ w e j æ 
[521.115]
<no-speech> 
[522.965]
<no-speech> 
[523.535]
<no-speech> 
[524.865]
æ ɾ e w æ l æ h m ɪ n 
[526.165]
<no-speech> 
[528.135]
<hes> <int> m ɑ t æ u f æ q i ɾ e 
[531.195]
<no-speech> 
[532.755]
<hes> <int> n ɑ x w ɛ ʧ ɪ l o j æ b ɑ ʃ 
[538.605]
<no-speech> 
[541.935]
<int> n ɪ h ɑ g ɪ j ɑ j e d o h ʧ e b u j æ 
[545.495]
<no-speech> 
[547.065]
æ l o 
[547.965]
<no-speech> 
[550.695]
<int> n æ w ɪ l o 
[554.235]
<no-speech> 
[555.085]
<hes> n æ w ɪ l o 
[558.205]
<no-speech> 
[559.125]
g ɪ j ɑ j e ʧ o l e x w æ ʃ ɪ k e 
[562.445]
<no-speech> 
[563.595]
<hes> æ w 
[565.545]
<no-speech> 
[568.365]

[570.035]
<no-speech> 
[571.555]
d æ ʧ e d ɪ b ɪ n 
[572.605]
<no-speech> 
[574.125]
æ w d ɪ d æ ʧ e d ɪ b æ 
[575.635]
<no-speech> 
[577.595]
q i z ɪ k 
[578.285]
<no-speech> 
[581.495]
q i z ɪ k 
[583.245]
<no-speech> 
[584.195]
g o t q i z ɪ k ɑ w æ t æ n e h u n d ɪ ʧ ɪ n 
[586.085]
<no-speech> 
[588.975]
<hes> w æ l æ h t æ l æ f o n ɑ t æ b ɪ k æ r n ɑ j e i ɾ o ʒ i ɾ o ʒ t æ l æ f o n ɑ t æ b ɪ k æ r n ɑ j e 
[594.465]
<no-speech> 
[596.685]
<no-speech> 
[597.035]
<no-speech> 
[598.015]
t ɑ x ɪ m ɑ t æ ɑ n i n ɑ æ 
[599.085]
<no-speech> 
[600.140]
