[0.000]
<no-speech> 
[8.045]
<no-speech> k ɫ a ʊ s oː mj ɛ <breath> 
[9.215]
<no-speech> 
[13.265]
p oː p oː p oː p oː ʒj ɪ n a ɪ v a <breath> k a ɪ mj ɛ gj iː vj ɛ n ʊ t a ɪ <breath> t a ɪ gj iː v ʊ lj ʊ k a ɪ t a ɪ t a s t a ɪ t a s <breath> 
[21.485]
<no-speech> 
[24.115]
oː k a ɪ p p a s t a vj ɛ rj ɛ ɪ k a ɫ a ɪ 
[25.705]
<no-speech> 
[30.275]
ɑː ɣ ɑː 
[30.975]
<no-speech> 
[35.835]
t a ɪ gj ɛ r a ɪ t a ɪ m a t m a <no-speech> gj ɛ r a s k lj æː ʦ k a s <breath> t a ɪ m a tj iː t mj ɪ ɫ t a ɪ s ʃj ɛ rj ɪ <laugh> 
[43.695]
<no-speech> 
[45.005]
<no-speech> 
[46.365]
<no-speech> 
[47.665]
<laugh> k vj ɪ e tj ɪ nj a ɪ s <breath> a ɪ ʃ k ʊ <breath> t a ɪ 
[51.355]
<no-speech> 
[54.735]
<hes> b ʊ v a ʊ ɪ r t ʊ ʒj ɪ n a ɪ <breath> ɪ ʃ p r a ʤj uː b ʊ v oː p a sj ɪ r oː dj æː oː p ɑː s k ʊ i k a ɪ p t a ɪ p r a nj iː k oː ɪ r v a d a r <breath> s a kj a ʊ rj iː t ɔ j ɛ ɪ sj ʊ p a d a b oː t <breath> a lj ɛ v a k a ɪ mj iː n a s b ʊ v oː n ʊ eː j æː s t a ɪ s ɑː k oː t ʊ ʒj ɪ n a ɪ k a d nj eː r a 
[66.025]
<no-speech> 
[67.725]
s a k a ʊ d a r v a lj ɪ e t ʊ s p a lj ɪ j oː 
[69.535]
<no-speech> 
[71.035]
s a k a ʊ lj ɪ e t ʊ s p a lj ɪ j oː t a ɪ ɡ a ɫ d a r a tj sj ɪ r a s 
[73.645]
<no-speech> 
[78.565]
ʒj ɪ n oː k k a d <no-speech> a lj ɛ k a d ʒ ɑː d a a t ʃ a lj ɪ m ɑː <breath> 
[81.095]
<no-speech> 
[89.015]
<hes> s ʊ vj ɪ d ʊ lj ʊ <breath> 
[90.345]
<no-speech> 
[92.335]
a a r s ʊ a r s ʊ <no-speech> s ʊ r a k a ʊ s k ʊ 
[94.665]
<no-speech> 
[96.145]
<hes> <hes> nj ɛ tj ɛ n <oov> <oov> s ʊ r a k a ʊ s k ʊ t a ɪ b ʊ v a ʊ s ʊ sj ɪ tj ɪ kj æː s <breath> a ʃ b ʊ v a ʊ a n t k a p uː n ʊ v a ʒj ɑː vj æː s p a d a b oː t k a ɪ p tj ɛ n m ɑː n oː b r a n ɡ ʊ tj eː t ɔ j <breath> a p ɫ a nj kj a ʊ n ɑː dj ɑː <breath> 
[108.085]
<breath> n ʊ t a ɪ p a s t a ʧj a ʊ ʒ v a kj ɛ lj ɛ s ɪ r ʃj ɪ t ɑː <breath> <click> gj eː lj uː k vj ɪ e tj kj æː lj uː n ʊ pj ɪ r k a ʊ r a m ʊ nj uː j a ɪ 
[114.985]
<no-speech> 
[116.145]
ɪ r ɪ r vj ɪ s k a s v a <breath> ɪ r <oov> <breath> d a r v a t a r <oov> <oov> <oov> 
[121.285]
<no-speech> 
[122.095]
j oː tj ɛ n a ɪ p a t s vj ɪ s k ɑː t a s p a t s dj ɪ r b a <breath> 
[124.945]
<no-speech> 
[126.025]
ɪ r ʃj ɪ t ɑː <breath> ɪ r t a k s ʊ ɔ j a ɪ r ɪ r ʃj ɪ t ɑː ɪ r tj ɛ n a ɪ p ɔ lj ɪ ʦj ɪ j ɔ j dj ɪ r b a <breath> oː a t a ɪ a ʃ <oov> a t v a ʒj ʊ ɔ sj ʊ ɡ a ɫ 
[134.205]
<no-speech> 
[135.725]
s a k a ʊ sj ɛ rj ɛ d ɔ n ɡ a ɫ a t v a ʒj ʊ ɔ sj ʊ <breath> 
[137.855]
<no-speech> 
[143.845]
n ʊ <oov> <oov> <oov> j ʊ d a j ʊ d a j ʊ d a bj ɛ t j a ʊ ʒj ɪ n a ɪ ɪ r ɫ a ɪ k a s s a v oː d ɑː r oː <breath> j ɪ m a t k a ɪ p s ɑː k oː ʣ uː k a ɪ ʧj eː s a s s a v oː d ɑː r oː 
[151.155]
<no-speech> 
[152.925]

[153.545]
<no-speech> 
[156.515]
oː oː t a ɪ p t a ɪ ʒj ɪ n a ɪ nj ɪ e k oː gj æː r oː v a t <breath> j oː j oː j oː m ɔ n ɔ t ɔ nj ɪ ʃ k a s gj iː vj æː nj ɪ m a s <breath> 
[162.065]
<no-speech> 
[167.495]
<click> n ʊ t a ɪ a pj sj ɪ ɫ a n k oː <click> k a ɪ t ʊ rj ɪ ʧj eː s oː sj ɛ s ʊ ɔ t a ɪ bj rj ʊ sj ɛ lj ɪ n d a r <breath> 
[170.845]
<no-speech> 
[172.435]
ɪ ʃj nj ɛ ʃj eː m ʊ i ɫ ɑː n ʊ s ʊ b a t ɔ n s ʊ ɡ rj iː ʃ <breath> 
[175.325]
<no-speech> 
[177.785]
n ʊ <breath> oː oː b r oː lj ɪ s k a ʃ k ʊ r t a ɪ ɪ ʃj sj k rj ɪ dj æː s <breath> tj ɛ n k a ʃ k ʊ r t a ɪ j a m <breath> <hes> s ʊ f uː r a b ɫ oː ɡ a ɪ tj ɛ n a nj ɡ lj ɪ j ɔ j 
[186.365]
<no-speech> 
[189.275]
n ʊ 
[190.165]
<no-speech> 
[192.185]
<breath> t a ɪ j a ʊ nj ɛ sj nj ɪ s j ɪ s s a v oː d a r b ɑː dj ɪ r b a v a ʒj ɪ nj eː j a oː vj iː rj ɛ sj nj ɪ s j oː j oː <hes> n ʊ ɔ s a v oː s fj ɪ r m oː s tj ɛ n p a vj ɛ dj eː v a ɪ r ʊ ɔ t oː j a s 
[200.175]
<no-speech> 
[205.985]
t a ɪ v a j ɪ s 
[206.735]
<no-speech> 
[208.645]
n ʊ n ʊ k a s ʧj a ɡ ɑː lj ɪ b uː t gj ɛ rj ɛ sj nj oː v a <breath> <sta> b ʊ v a ʊ 
[213.705]
<no-speech> 
[214.755]
rj ɛ ɪ k s vj eː ɫ v a ʒj ʊ ɔ t k a d a <breath> 
[216.405]
<no-speech> 
[217.595]
ʃj ɪ t ɑː <breath> rj ɛ ɪ k s rj ɛ ɪ k s <hes> s ʊ sj ɪ tj ɪ k t <breath> v a t a ɪ ʃj ɪ t ɑː gj ɪ k ɫ ɑː sj eː s s ʊ sj ɪ tj ɪ kj ɪ m ɑː rj ɛ ɪ kj a d a rj iː t ʃj ɪ t ɑː v ɑː s a r ɑː 
[226.725]
<no-speech> 
[232.125]
<breath> tj ɪ k a ʃ nj ɛ ʒj ɪ n a ʊ k ɑː tj ɛ n rj ɪ m a s a r a n t k a d a <oov> rj ɛ ɡ ʊ lj ʊ ɔ s <breath> 
[235.805]
<no-speech> 
[238.125]

[238.565]
<no-speech> 
[240.725]
n ʊ a n t a n t lj ɪ e p oː s mj eː nj ɛ sj oː a r a n t k oː kj oː <breath> 
[243.275]
<no-speech> 
[249.645]
n ʊ k a ɪ k a ɪ p oː d a r b uː vj ɪ sj ɪ b uː n a <breath> 
[252.465]
<no-speech> 
[256.935]
n ʊ <hes> a ʃ t a ɪ d a lj iː j ɛ ɪ d a gj iː vj ɛ nj sj ʊ t a ɪ d a lj iː v a ʊ sj ʊ t a ɪ p a ʃ gj ɪ d r ʊ sj kj ɪ nj ɪ n k ʊ ɔ sj ɛ b ʊ v a ʊ ʃj ɪ t ɑː <breath> s a n a t ɔ rj ɪ j ɔ j 
[264.165]
<no-speech> 
[265.485]
n ʊ 
[266.835]
<no-speech> 
[268.005]
<click> p a m ɑː ʧj ɪ n a n ʊ t a ɪ ʒj ɪ n a ɪ n ʊ r a n k a j a ʊ gj ɛ rj a ʊ p a sj ɪ kj ɛ lj a t a ɪ gj ɪ m a n ɔ pj ɛ r ɑː v oː r a n k ɑː <breath> 
[272.515]
<no-speech> 
[275.095]
n ʊ 
[275.735]
<no-speech> 
[276.815]
t a ɪ t a ɪ v a t oː kj ɪ e rj ɛ ɪ k a ɫ a ɪ <breath> k r ʊ t ʊ p oː bj ɪ ʃj kj iː vj ɪ e n ɑː k a r t s oː p a kj ɪ t ɑː k a r t nj ɛ s oː p a 
[282.685]
<no-speech> 
[285.805]
n ʊ <click> 
[286.425]
<no-speech> 
[296.095]
<breath> n ʊ ɡ ɑː lj ɪ vj ɪ s k oː b uː t ɡ ɑː lj ɪ vj ɪ s k oː b uː t <breath> ɡ a ɫ nj ɛ tj ɪ k n a mj æː lj iː ɡ a ɫ ɪ r t a ɪ p k ʊ r kj ɪ t ʊ r pj ɛ r ʃ a ɫ a ʊ <breath> 
[302.995]
<no-speech> 
[303.815]
ʒj ɪ n a ɪ t oː k s d a r b a s <breath> 
[305.485]
<no-speech> 
[308.205]

[308.845]
<no-speech> 
[313.725]
<no-speech> 
[314.425]
<no-speech> 
[315.445]
<hes> t a ɪ m a n <breath> a ʃ 
[318.385]
<no-speech> 
[319.315]
t uː a r nj ɛ t tj rj ɪ zj dj ɛ ʃj ɪ m t k a ʃ k ʊ r <sta> t a ɪ s ʊ vj ɪ r ʃ ʊ m ɪ ʃj ɛ ɪ n a 
[322.685]
<no-speech> 
[325.475]
n ʊ <click> t a ɪ ɡ ɑː lj ɪ m a ʒj ɪ n a ɪ k a ɪ p <click> k a ɪ mj ɛ t a ɪ sj æː k a s k r ʊ tj eː t <breath> 
[328.485]
<no-speech> 
[330.165]
t a ɪ v a <breath> 
[330.895]
<no-speech> 
[334.565]

[334.975]
<no-speech> 
[336.655]
n ʊ n ʊ d a r <hes> k ɔ ɫ k a s d a r ʃ ɑː ɫ a <breath> t a ɪ gj ɪ d a b a r gj ɪ ʃj ɪ t ɑː s ɑː kj eː j a ʊ mj ɛ s gj ɪ p a k lj uː n a m t ɔ n b ʊ fj ɛ rj ɪ nj eː n z ɔ n ɔ n 
[344.305]
<no-speech> 
[345.225]
t a ɪ rj ɛ ɪ kj a kj a ʊ lj ɛ s ɪ ʃj pj j a ʊ t <breath> 
[347.035]
<no-speech> 
[348.375]
oː oː oː d a r tj ɛ n <oov> <no-speech> p a s iː r a p oː r a kj a ʊ ɫ a ɪ ʧj uː t a ɪ r a s ʧj a j a s rj ɛ ɪ kj eː s <breath> ɪ ʒ d ʊ sj ɪ n t t a ɪ t a ɪ sj eː dj eː sj ɪ m a n a n <no-speech> a n t pj ɛ nj sj ɪ j oː s 
[357.675]
<no-speech> 
[361.015]
m ɣ m 
[361.595]
<no-speech> 
[362.475]
n ʊ t a ɪ 
[363.185]
<no-speech> 
[364.755]
s ɑː kj eː tj rj ɪ s mj æː t ʊ s <breath> 
[366.195]
<no-speech> 
[369.415]
t a ɪ v a 
[370.025]
<no-speech> 
[370.975]
n ʊ k ɑː k ɑː ʧj a t a ʊ d a ʊ gj a ʊ p a s a kj iː t v a <breath> ɫ a ʊ kj ʊ sj nj ɪ e ɡ oː 
[374.835]
<no-speech> 
[376.735]

[377.145]
<no-speech> 
[378.755]
k a s 
[379.265]
<no-speech> 
[384.955]
n ʊ n ʊ t a ɪ a ʃ v a j ɛ ɪ ɡ ʊ s ʊ ɫ a ʊ k sj ʊ t a d a ɫ a ʊ k sj ʊ ʃj vj ɪ e ʒj uː b ʊ lj vj uː 
[388.595]
<no-speech> 
[391.455]
<no-speech> 
[392.995]
<no-speech> 
[395.665]
<hes> n ʊ <breath> n ʊ t a ɪ k a lj eː d oː s ɪ r n a ʊ j ɪ mj æː t a ɪ n ʊ t a ɪ ɡ a ɫ dj ɪ e v a s d ʊ ɔ s sj nj ɪ e ɡ oː a t p uː s 
[401.235]
<no-speech> 
[402.965]
tj ɪ k tj ɪ k d a ʊ ɡ <oov> d a ʊ ɡ t a ɪ nj ɛ rj ɛ ɪ kj a <breath> 
[405.305]
<no-speech> 
[407.145]

[407.755]
<no-speech> 
[408.585]
ʃj ɪ t ɑː oː t a ɪ p nj ɛ s ʊ sj ɪ tj ɪ nj kj ɪ 
[410.495]
<no-speech> 
[412.305]
n ʊ 
[413.365]
<no-speech> 
[415.545]
<hes> b uː n a k a d ʃj ɪ t ɑː <breath> ɪ r p a d a r a ʊ ɡ rj ɪ e k ɑː 
[419.535]
<no-speech> 
[422.355]
<laugh> <oov> p a s <no-speech> k a d dj ɪ e v ʊ lj ɪ s nj ɛ rj ɛ gj eː t uː t a ɪ p a sj ɪ k a v oː j ʊ p oː k a ɫ d r a 
[428.735]
<no-speech> 
[431.465]
n ʊ <laugh> ʧj a s ɑː k oː p oː k a ɫ d r a k a ɪ p gj ɛ r a ɪ t a ɪ 
[436.485]
<no-speech> 
[437.365]
k a ɪ p s a k a ɪ 
[438.135]
<no-speech> 
[441.625]
ɡ ɔ dj nj a ɪ ʊ ʒj dj ɛ rj eː j oː <int> ɡ ɔ dj nj a ɪ gj æː r oː s t ʊ ʒj ɪ n a ɪ ɪ r <hes> ɡ r ɑː ʒj oː s t oː kj oː s 
[446.345]
<breath> 
[447.355]
nj ɛ ʒj ɪ n a ʊ k a ɪ p kj ɪ t a ɪ s mj æː t a ɪ s b ʊ s oː ʃj a ɪ s mj æː t a ɪ s t a ɪ <hes> ʃj ɪ t a ɪ s t a ɪ ɡ ɔ d n oː s gj æː r oː s <breath> nj eː r k oː s k uː sj tj ɪ s a lj ɛ k a d nj ɛ b ʊ s k ɑː ʃj ɛ r t t ɔ m b ʊ lj vj eː m 
[455.195]
<no-speech> 
[457.955]
kj a ʊ lj uː nj ɛ b ʊ s <no-speech> t ʊ ɔ j vj ɪ s k ɑː lj ɪ e p s ɪ ʃj pj j a ʊ t ɪ r t a d a rj ɛ ɪ k s v a ʒj ɪ nj eː t k r a ʊ t ʊ vj eː n vj ɪ s k ɑː pj ɪ r k t <breath> <oov> nj ɛ ɛ k ɔ ɫ ɔ gj ɪ nj iː m a ɪ s t ɑː 
[466.005]
<no-speech> 
[467.745]
t a ɪ j oː pj rj ɪ e <no-speech> t a ɪ a ʃ m a n a ʊ k a d pj rj ɪ e t oː ɪ r d ɑː r oː sj ɪ k a d t a ɪ p b uː t 
[471.425]
<no-speech> 
[475.475]
n ʊ nj ɛ p a tj ɪ n k a m a n ʃj ɪ t a p ɔ lj ɪ tj ɪ k a 
[477.525]
<no-speech> 
[483.335]
<no-speech> n ʊ t a ɪ t a ɪ p 
[485.805]
<no-speech> 
[487.525]
<oov> gj iː vj ɛ nj sj ɪ m d a b oː sj ɪ m k a s t oː lj a ʊ b ʊ s 
[490.245]
<no-speech> 
[491.735]
<hes> ʒj ɪ n a ɪ tj ɛ n b ʊ v ɔ m a n t a n t s a v oː k a ɪ k a ɪ m oː k a pj ɪ nj uː t a ɪ <int> k ʊ nj ɪ gj eː lj ɪ s b ʊ v oː <oov> ɡ a ɫ ɪ ʒ ɡ a nj iː t oː j a s m uː s <breath> a r ɡ a nj iː t oː j a s k a ɪ p j ɪ s <hes> a t v a ʒj ɑː vj æː s t a ɪ vj ɪ sj ɪ p a sj ɪ mj ɛ lj dj eː m tj ɛ n 
[502.475]
<no-speech> 
[503.415]
n ʊ <hes> d a r ʧj a nj ɛ k a v oː j oː nj ɪ e k oː 
[505.725]
<no-speech> 
[510.555]
<hes> lj ɪ n k mj ɪ ʃ k oː pj rj ɪ e p a t vj ɪ e ʃj kj ɛ lj oː k a ɪ iː r ʊ dj nj ɑː v a ʒj ʊ ɔ j ɪ 
[513.995]
<no-speech> 
[517.745]
j oː t a ɪ s k a ɪ t oː s k a d j a ʊ a pj ɪ e ɡ a ɫ kj ɛ t ʊ rj ɪ a r pj ɛ nj kj ɪ d a r <breath> p a mj ɛ tj nj ɪ k a ɪ s t oː vj ɪ ɪ r <breath> ɪ r vj ɪ s k a s <breath> 
[525.075]
<no-speech> 
[526.385]
n ʊ 
[526.865]
<no-speech> 
[527.935]
t a ɪ d a ʊ gj a ʊ nj ɪ e k oː t oː kj oː s a k a ʊ gj æː r oː s a k a ʊ 
[530.005]
<no-speech> 
[531.255]
t a ɪ gj ɪ a ʃ gj ɪ 
[532.375]
<no-speech> 
[533.185]
m a n ʧj a nj ɛ m a nj ɛ r ʊ dj nj ɪ n 
[535.085]
<no-speech> 
[536.345]
a ɪ a ʃ tj ɛ n ʊ ʃj sj ɪ s a kj a ʊ <laugh> 
[539.595]
<no-speech> 
[540.625]
<laugh> 
[541.865]
<no-speech> 
[543.275]
n ʊ t a ɪ gj ɪ vj ɪ s a m ɑː n oː <hes> ʃj ɪ t a p a r ɑː pj ɪ j a bj ɛ vj ɛ ɪ k <hes> k ɑː nj a v oː s 
[548.125]
<no-speech> 
[550.805]
j oː 
[551.385]
<no-speech> 
[552.815]
t a ɪ t a ɪ <hes> vj ɪ sj ɪ k a nj a vj ɪ ʃj kj a ɪ k ʊ rj ɪ e j a ʊ nj ɪ d a r ɡ ʊ lj ɪ 
[556.695]
<no-speech> 
[561.295]
j oː t a ɪ d a ʊ gj a ʊ nj ɪ e k ʊ r oː k ʊ r <no-speech> nj eː r k ʊ r d a ʊ gj a ʊ dj eː tj ɪ s 
[565.425]
<no-speech> 
[566.635]
t a ɪ oː oː t ʊ k ʊ r sj tj rj iː ʒj uː n ʊ ɔ s n a v a ʒj ʊ ɔ sj ɪ a r k ʊ r 
[569.645]
<no-speech> 
[573.585]

[574.025]
<no-speech> 
[575.085]
<oov> <oov> m a ɪ n ɔ m tj ɛ m ɑː t a ɪ mj ɛ s 
[577.315]
<no-speech> 
[578.125]
m a ɪ n ɔ m tj ɛ m ɑː t a ɪ mj ɛ s nj ɛ tj ɛ n n ʊ v a ʒj ɑː v ɔ m <breath> oː t ʊ b ʊ v a ɪ a t v a ʒj ɑː vj æː s pj ɛ r vj ɪ s ʊ s ʃj vj ɛ n t ʊ s <breath> 
[583.595]
<no-speech> 
[593.465]
m 
[594.125]
<no-speech> 
[595.405]
t a ɪ t a ɪ p p a t 
[596.755]
<no-speech> 
[599.275]
oː k oː 
[599.765]
<no-speech> 
[600.120]
