[0.000]
<no-speech> 
[3.715]
<no-speech> 
[4.225]
<no-speech> 
[6.425]
<no-speech> 
[7.365]
<no-speech> 
[13.695]
<no-speech> 
[14.415]
<no-speech> 
[16.865]
<no-speech> 
[17.455]
<no-speech> 
[21.845]
<no-speech> 
[22.535]
<no-speech> 
[25.685]
<no-speech> 
[26.095]
<no-speech> 
[29.695]
<no-speech> 
[30.825]
<no-speech> 
[34.175]
a lj oː <breath> 
[35.675]
<no-speech> 
[37.855]
a lj oː a r gj ɪ rj dj ɪ t 
[39.205]
<no-speech> 
[43.095]
oː oː <breath> 
[44.525]
<no-speech> 
[46.325]
n ʊ k a ɪ p nj ɛ b ɫ oː ɡ a ɪ <breath> s a v a ɪ d ɡ a lj ɪ s <breath> 
[49.665]
<no-speech> 
[52.065]
k a ʃ k oː rj iː ʃj iː s ɫ a b a ɪ p r a s t a s 
[54.225]
<no-speech> 
[56.135]
<int> a lj oː 
[58.585]
<no-speech> 
[59.445]
<no-speech> 
[59.815]
<no-speech> 
[60.785]
k a ɪ p 
[61.565]
<no-speech> 
[63.815]
k a ʃ k a ɪ p ɫ a b a ɪ <sta> <no-speech> ɫ a b a ɪ s ʊ nj kj a ɪ <breath> 
[67.115]
<no-speech> 
[68.665]
<no-speech> 
[69.055]
<no-speech> 
[72.115]
j oː k a ʃ k a ɪ p ɫ a b a ɪ t oː lj ɪ ɪ r s a v oː a ɪ d ɑː gj ɪ rj ʤj ʊ 
[75.655]
<no-speech> 
[79.715]
ɡ a ɫ ɡ a ɫ t a a ʊ d r a ʧj a vj ɛ ɪ kj a <breath> 
[83.745]
<no-speech> 
[84.915]
<no-speech> 
[85.455]
<no-speech> 
[89.815]
r ɑː ʃ ɔ m 
[90.705]
<no-speech> 
[93.315]
v a v a lj gj iː t d ɑː r ɔ m mj ɪ e ɡ a m <breath> <int> <laugh> 
[96.825]
<no-speech> 
[97.805]
<no-speech> 
[98.375]
<no-speech> 
[99.815]
<int> k ɑː j uː s gj æː r oː vj ɛ ɪ kj a t 
[102.515]
<no-speech> 
[106.345]
<no-speech> 
[106.945]
<no-speech> 
[109.905]
<no-speech> 
[111.925]
<no-speech> 
[114.065]
<int> <oov> 
[115.015]
<no-speech> 
[116.525]
<no-speech> 
[117.035]
<no-speech> 
[118.015]
n ʊ j oː ʧj a <no-speech> nj ɛ lj ɛ n ɡ v a nj ɛ lj ɛ n ɡ v a 
[120.765]
<no-speech> 
[126.125]
ʧj a k a ʃ k a ɪ p s ʊ nj kj a ɪ s ʊ nj kj a ɪ gj ɪ rj dj ɪ s <no-speech> k a ɪ p <int> 
[132.105]
<no-speech> 
[137.005]
j oː s ʊ p ɫ a n ɑː v ɔ m iː p ɑː ɫ a n ɡ ɑː v a ʒj ʊ ɔ t 
[140.295]
<no-speech> 
[141.625]
tj ɛ n s ʊ d r a ʊ ɡ a ɪ s s ʊ p oː r a d a r vj ɪ e n a <no-speech> <int> 
[145.905]
<no-speech> 
[150.945]
<laugh> <breath> nj ɪ e k oː s v a r b ʊ b uː t uː n ʊ ɔ m a pj ɪ gj ɪ 
[155.685]
<no-speech> 
[157.745]
dj vj ɪ e m p a r ɔ m ɪ ʃj sj ɪ n ʊ ɔ m ɑː v ɔ m 
[160.295]
<no-speech> 
[162.165]
tj ɛ n vj ɪ e n dj vj ɪ e j uː k a m b a rj uː b ʊ t a s tj rj iː s ʃj ɪ m t a ɪ 
[165.425]
<no-speech> 
[170.595]
n ʊ j oː n ɔ r m ɑː lj a ɪ 
[172.455]
<no-speech> 
[175.095]
t a ɪ mj ɛ s j a ʊ sj æː nj a ɪ n oː rj eː j ɔ m 
[177.155]
<no-speech> 
[180.145]
sj æː nj a ɪ pj rj ɪ e j uː r oː s b ʊ v ɔ m <laugh> <breath> 
[183.395]
<no-speech> 
[184.475]
oː k ɑː j uː s n a m ʊ ɔ sj ɛ s ʊ v a ɪ k a ɪ s 
[186.625]
<no-speech> 
[193.065]
<int> m ɣ m 
[194.575]
<no-speech> 
[196.265]
<no-speech> 
[197.385]
<no-speech> 
[198.575]
m ɣ m 
[199.125]
<no-speech> 
[200.805]
<no-speech> 
[201.375]
<no-speech> 
[204.135]
n ʊ j oː 
[205.155]
<no-speech> 
[206.325]
oː k a ɪ p 
[207.015]
<no-speech> 
[208.015]
sj vj ɛ ɪ kj ɪ d a b a r 
[209.405]
<no-speech> 
[214.595]
m ɣ m 
[215.335]
<no-speech> 
[223.345]
n ʊ j oː vj ɪ s a d a tj ɛ n s ʊ d a rj ʒj æː lj a ɪ s 
[226.205]
<no-speech> 
[230.565]
k a ʃ k oː dj eː ɫ rj iː ʃj iː s vj eː ɫ ʊ ɔ j a kj ɛ t ʊ rj ɔ m sj ɛ k ʊ nj dj eː m <laugh> <breath> 
[235.545]
<no-speech> 
[238.265]
k a ɪ p a s a k a ʊ k ɑː n ɔ r s rj ɛ ɪ kj a p a ɫ a ʊ k t tj rj ɪ s sj ɛ k ʊ nj dj ɛ s k a d ɪ ʒj gj ɪ r s t <laugh> 
[243.315]
<no-speech> 
[245.395]
<int> nj ɪ e k oː ʃj a ɪ p gj ɛ r a ɪ s sj æː k a s 
[248.325]
<no-speech> 
[250.225]
<laugh> k ɑː d a rj iː t 
[251.835]
<no-speech> 
[253.415]
<breath> j oː p ʊ sj ɛ ɛ t ɑː t oː v a rj eː n ɔ j <breath> ɪ r ʧj a k a ʊ nj ɛ m oː k s ɫ a ɪ <int> 
[259.425]
<no-speech> 
[263.115]
t a ɪ iː r a k ɑː vj ɛ ɪ k t <breath> 
[265.045]
<no-speech> 
[270.145]
<no-speech> 
[271.135]
<no-speech> 
[271.955]
gj ɛ r a ɪ p ʊ i kj a ɪ j ʊ sj tj ɪ n a k ɫ a ʊ sj a k ɑː pj ɛ r ʃj vj ɛ nj tj ɛ s k a lj eː d a s <no-speech> <int> ɪ r p a n ɑː ʃj a ɪ vj ɛ ɪ k sj ɪ t 
[279.975]
<no-speech> 
[282.775]
<no-speech> 
[283.315]
<no-speech> 
[284.125]
<no-speech> 
[284.615]
<no-speech> 
[287.975]
<int> oː d oː v a nj eː lj uː s ɑː r a ʃ ɑː p a d ɑː rj eː t 
[290.585]
<no-speech> 
[291.855]
mj ɛ s t a ɪ p ɫ a n ʊ ɔ j a m iː n a m ʊ s k a ʃ k ʊ r iː k a ɪ m ɑː 
[295.815]
<no-speech> 
[300.855]
k ɑː 
[301.325]
<no-speech> 
[303.225]
t a ɪ gj ɪ <no-speech> k a lj eː d oː s ʃj ɛ ɪ m oː s ʃj vj ɛ nj tj eː 
[306.995]
<no-speech> 
[308.345]
<breath> rj ɛ ɪ kj a s ʊ ʃj ɛ ɪ m a b uː t 
[311.225]
<no-speech> 
[315.205]
t a ɪ d oː v a nj eː lj uː 
[316.865]
<no-speech> 
[320.365]
n ʊ ʊ ʃj tj ɛ n k a ɪ r tj ɪ e k <no-speech> a tj vj ɛ ʃ <laugh> <breath> a bj ɪ e m a r bj ɛ n d r ɑː <no-speech> vj ɪ e n ɑː <laugh> 
[329.185]
<no-speech> 
[330.345]
<breath> gj ɛ r a ɪ <breath> 
[332.415]
<no-speech> 
[335.375]
j ʊ sj tj ɪ n a v a ɫ ɡ oː 
[336.765]
<no-speech> 
[339.375]
k ɑː t oː kj ɑː <breath> 
[340.625]
<no-speech> 
[342.555]
k ɑː t oː kj ɑː a tj vj ɛ ʃ t 
[343.805]
<no-speech> 
[346.265]
nj ɛ mj ɛ s a ʦj kj ɪ r a ɪ kj ɪ e k vj ɪ e n a m 
[348.805]
<no-speech> 
[349.905]
kj ɪ e k vj ɪ e n a m p oː vj ɪ e n ɑː ɪ r p oː dj vj ɪ 
[352.475]
<no-speech> 
[360.895]
gj ɛ r a ɪ <int> 
[363.255]
<no-speech> 
[364.255]
<sta> ʃj ɪ t ɑː ɫ a b a ɪ gj æː r ɑː rj ɛ ʦj ɛ p t ɑː d a b a r v a t ɪ ʒ b a n d ɔ m 
[367.945]
<no-speech> 
[368.935]
k ɔ ɫ d uː n a ɪ s ʊ ʃ oː nj ɪ nj ɛ <no-speech> nj ɛ ʒj ɪ n oː t ɪ ʃ k ʊ r ʧj a a tj sj ɪ r ɑː d oː t oː k s 
[372.995]
<no-speech> 
[378.825]
ɪ r d a r vj ɪ e n ɑː gj æː r ɑː ʒj ɪ n ɔ m s ʊ sj rj ʊ b a tj ɛ n t oː k s ɫ a b a ɪ ɡ rj ɛ ɪ t a s <laugh> 
[384.455]
<no-speech> 
[386.065]
<no-speech> 
[386.685]
<no-speech> 
[392.965]
t a ɪ f ɑː k tj ɪ ʃ k a ɪ ʃj ɪ t ʊ ɔ s ɪ r v a ɫ ɡ ɔ m d a ʒj nj a ʊ sj a ɪ 
[396.375]
<no-speech> 
[401.335]
j oː <no-speech> ɫ a b a ɪ p a t oː ɡ ʊ k a ɪ ɡ rj ɛ ɪ t a ɪ v a t oː kj ɪ e <no-speech> ɪ r d a r <no-speech> s k oː nj ɪ s vj ɪ s a ɪ gj ɛ r a s 
[408.225]
<no-speech> 
[410.545]

[411.185]
<no-speech> 
[418.235]
n ʊ nj ɛ rj ɛ ɪ kj a nj ɛ ɪ tj ɛ n sj eː dj eː t ɪ ɫ ɡ a ɪ nj ɪ e k oː 
[421.825]
<no-speech> 
[426.445]
b uː t uː gj ɛ r a ɪ d a r ɪ kj ɪ n a ʊ j uː k oː kj iː 
[428.705]
<no-speech> 
[431.375]
k a ɪ p 
[432.045]
<no-speech> 
[437.115]
t a ɪ v a s a k a ʊ bj ɛ n t vj ɪ e n a s d a r b uː t uː gj ɛ r a ɪ tj rj æː ʧj ɑː <breath> 
[440.685]
<no-speech> 
[446.705]
k a ɪ p <click> 
[447.875]
<no-speech> 
[454.505]
j oː m a s ʊ m a k a r oː n a ɪ s t a ɪ d ɑː r ɔ m <int> s ʊ dj ɛ ʃj rj æː lj eː m s ʊ mj eː s a t oː kj iː k a ɪ p k a ɪ p p ɫ oː v ɑː k a ʃ k ɑː p a n a ʃ a ʊ s 
[461.315]
<no-speech> 
[468.495]
<laugh> <int> <breath> ɪ r p ɔ mj ɪ d ɔ r uː p ɑː d a ʒ a s <no-speech> <laugh> <breath> p ɔ mj ɪ d ɔ r uː p ɑː d a ʒ a s s v a rj bj a ʊ sj a <laugh> <breath> 
[478.735]
<no-speech> 
[483.205]
oː oː <int> 
[484.345]
<no-speech> 
[485.405]
ɪ lj gj a ʊ ʊ ʃ t r ʊ n k a t a ʊ <int> 
[487.555]
<no-speech> 
[490.455]
<no-speech> 
[492.105]
<no-speech> 
[493.215]
<no-speech> 
[493.785]
<no-speech> 
[494.845]
<no-speech> 
[495.205]
<no-speech> 
[496.365]
m a k a r oː n a ɪ k ɔ ɫ ɪ ʃj vj ɛ r d a <no-speech> <int> 
[499.485]
<no-speech> 
[502.315]
n ʊ t a ɪ a t v a ʒj ʊ ɔ sj ɪ m p a sj ɪ m oː kj iː t 
[504.565]
<no-speech> 
[509.875]
j oː p r ɑː ʤj a ɪ rj ɛ ɪ k s p a r a ɡ a ʊ t t a d a ʒj uː rj eː sj ɪ m 
[513.095]
<no-speech> 
[522.155]
n ɔ r m ɑː lj a ɪ j a ʊ ɡ ɑː lj ɪ t a t v a ʒj ʊ ɔ t iː sj vj ɛ ʧj ʊ s <int> <no-speech> nj ɛ bj ɛ bj ɪ j oː kj ɪ t 
[526.795]
<no-speech> 
[534.535]
n ʊ 
[535.315]
<no-speech> 
[536.315]

[537.015]
<no-speech> 
[537.855]
ɡ ɑː lj ɪ t ɪ r kj ɪ t a ɪ s mj æː t a ɪ s nj ɪ e k oː t oː kj oː bj ɛ t p ɫ a n ʊ ɔ kj ɪ t <breath> 
[542.125]
<no-speech> 
[546.745]
<no-speech> 
[547.165]
<no-speech> 
[551.895]
<laugh> t a ɪ v a 
[553.535]
<no-speech> 
[554.365]
nj ɪ e k oː nj ɛ bj ɛ lj ɪ k oː j a ʊ 
[556.155]
<no-speech> 
[558.545]
oː j uː s tj ɛ n p a s s a vj ɛ a n t r a m a ʊ k ʃj tj ɛ d a b a r d ɑː rj eː t k ɑː a r nj ɪ e k oː k ɔ ɫ k a s 
[563.315]
<no-speech> 
[572.135]
ɑː ɣ ɑː 
[572.845]
<no-speech> 
[576.435]
t a ɪ tj ɛ n k a ɪ p ɪ r vj ɪ s k a s b a ɪ k t a a r nj ɛ ɡ rj ɪ nj dj iː s gj ɪ j a ʊ s ʊ dj eː t oː s b ʊ v oː <no-speech> a r d a r nj ɛ <int> 
[583.015]
<no-speech> 
[587.175]
a a 
[588.075]
<no-speech> 
[596.515]
m ɣ m 
[597.105]
<no-speech> 
[600.200]
