[0.000]
<no-speech> 
[6.655]
k ɫ a ʊ s a ʊ 
[7.395]
<no-speech> 
[9.615]
k ɫ a ʊ s a ʊ <no-speech> ɫ ɑː b a s <no-speech> t a ɪ p 
[12.655]
<no-speech> 
[14.645]
gj ɪ rj ʤj ʊ 
[15.385]
<no-speech> 
[21.955]
<no-speech> 
[22.405]
<no-speech> 
[23.895]
n ʊ gj ɛ r a ɪ s ʊ p r a t a ʊ 
[25.375]
<no-speech> 
[32.755]
n ʊ nj ɪ e k oː ʃj a n ʃj a nj dj ɪ e n ʒj ɪ n oː k ɫ a b a ɪ ɡ r a ʒ ʊ s oː r a s <no-speech> ʃj a ɪ p t a ɪ ʃj ɪ ɫ ʊ m oː s ɡ a ɫ tj ɪ k t a ɪ kj ɛ t ʊ rj ɪ pj ɛ nj kj ɪ bj ɛ t vj eː j oː t a ɪ nj eː r a nj ɛ ɪ lj ɪ e t a ʊ s vj ɪ e n ʊ ʒ oː ʤj ʊ ɫ a b a ɪ r ʊ d ʊ ɔ ɡ r a ʒ ʊ s 
[44.655]
ʃj ɪ e mj ɛ t 
[45.155]
<no-speech> 
[47.745]
<no-speech> 
[48.105]
<no-speech> 
[60.095]
nj ɪ e k oː nj ɪ e k oː bj ɛ t j a ʊ pj ɪ rj ʃj tj ɪ nj uː bj ɛ t j a ʊ pj ɪ rj ʃj tj ɪ nj uː t a ɪ rj ɛ ɪ kj eː t uː <no-speech> ʃj a ɪ p j a ʊ ɛ ɪ n a n t k a ɪ m a ʃj ɪ n a v a ʒj ʊ ɔ j ɪ t a ɪ d a r <no-speech> m a ʃj ɪ n a k a ɪ v a ʒj ʊ ɔ j ɪ t a ɪ d a r b a ɪ kj eː n ʊ n ʊ t a ɪ d a ʊ gj a ʊ d a ʊ gj a ʊ a pj ɪ e k ɑː <oov> ʃj nj æː k a m d a b a r ʧj a mj ɛ s 
[74.515]
<no-speech> 
[81.145]
n ʊ t a ɪ ʒ a dj eː j oː bj ɛ t <hes> <oov> ɪ nj tj ɛ rj nj ɛ tj ɛ s k a ɪ ʧj a ʊ t a ɪ k a d <hes> dj ɛ ʃj ɪ m t a ɪ s t a ɪ t oː kj ʊ ɫ a ɪ k ʊ j a ʊ b ʊ v oː sj nj ɪ e ɡ oː oː d a b a r t a ɪ m ɑː t a ɪ <no-speech> vj ɪ e n ʊ ʒ oː ʤj ʊ gj ɛ r a s r ʊ d ʊ ɔ 
[92.555]
<no-speech> 
[97.295]
n ʊ t a ɪ b uː d a v oː n ʊ <int> 
[99.135]
<no-speech> 
[100.025]
n ʊ ʃj ɪ e ʃj ɪ e mj ɛ t <oov> nj eː r a sj nj ɪ e ɡ oː k a p a ɪ ɫ a b a ɪ ɡ r ɑː ʒ uː s ɫ a b a ɪ ʒj iː dj ɪ vj ɪ s ʊ r <no-speech> nj ɛ n ʊ ʃ ɑː lj æː 
[108.275]
<no-speech> 
[111.125]
v a 
[111.815]
<no-speech> 
[114.515]
t a ɪ <hes> tj ɛ t oː s t a ɪ p a kj ɛ ɪ tj eː ɡ a ɫ a ʊ dj ɪ nj eː s m ɑː n oː t a ɪ ɡ a ɫ d a rj bj ɪ nj eː s m a ʃj ɪ n oː s ʊ nj ɪ vj ɛ r s ɑː lj oː s ʊ ʒj dj eː t oː s a ʃ ɫ a b a ɪ ʒj ɪ n oː k nj ɛ sj ɪ d oː mj ʊ <laugh> 
[125.045]
<no-speech> 
[125.955]
v a <no-speech> vj ɪ e n ʊ ʒ oː ʤj ʊ v a ʒj ʊ ɔ j ʊ ɪ r vj ɪ s k a s <no-speech> <oov> 
[129.515]
<no-speech> 
[134.955]
n ʊ t a ɪ v a 
[136.365]
<no-speech> 
[137.935]
t a ɪ v a 
[138.625]
<no-speech> 
[142.935]
t a ɪ t ʊ 
[143.575]
<no-speech> 
[147.235]
n ʊ t a ɪ tj ɪ k rj a ʊ sj a ɪ k a d nj ɛ rj ɛ ɪ k 
[149.085]
<no-speech> 
[153.165]
m ɣ m 
[153.885]
<no-speech> 
[159.845]
n ʊ t a ɪ d a b a r gj ɛ r a ɪ tj ɪ k t a ɪ nj ɛ ʒj ɪ n a ʊ k a ʃ k a s t a ɪ s ʊ p oː s uː kj ʊ iː j ʊ nj gj ɪ p oː s uː kj iː <no-speech> n a gj ɪ ɪ r p oː s uː kj ɪ s nj ɛ mj ɪ rj k sj ɪ <no-speech> k a ɪ tj ɪ k p r a dj ɛ dj ɪ s ʊ k t m a ʃj ɪ n ɑː j a ʊ n a gj ɪ k a d 
[171.815]
s ʊ k t p oː s uː kj iː t a d a p r a dj ɛ d a mj ɪ rj k sj eː tj ɪ s ɑː kj eː k a d k a ʃ k a s t a ɪ rj ɛ ɪ kj a rj ɛ m ɔ n t ʊ ɔ t bj ɛ t nj ɛ b ʊ v oː ɛ lj ɛ k tj rj ɪ k ɑː ʃj a nj dj ɪ e d a rj bj ɛ t a ɪ vj ɪ e n ʊ ʒ oː ʤj ʊ t a ɪ p ɪ r v a ʒj a v a ʊ ʃj a nj dj ɪ e n 
[183.165]
<no-speech> 
[186.735]
s m ʊ lj k mj ɛ n a 
[187.605]
<no-speech> 
[188.465]
n ʊ 
[189.605]
<no-speech> 
[193.635]
n ʊ <no-speech> ʃj ɪ t ɑː gj ɪ ʃj a nj dj ɪ e n v a ʒj a v a ʊ j ʊ ʃ k ɑː nj iː <no-speech> t a ɪ s ʊ p r a nj tj ɪ kj ɪ e k d a r t uː n a gj ɪ ʒ m oː nj uː a n t a b ʒ v a ɫ ɡ oː s <no-speech> b oː k ʃ t ɑː 
[204.945]
n a gj ɪ k a ɪ p nj ɪ e k a t <no-speech> 
[207.725]
<no-speech> 
[208.915]
nj ɛ ʒj ɪ n a ʊ ɡ a ɫ ɡ a ɫ ɡ a ɫ ɡ a ɫ ɡ a ɫ ɡ a ɫ k a d ɪ r <oov> m oː kj ɪ nj uː a ʊ t ɔ b ʊ sj ʊ k uː ɪ r vj ɪ s k ɑː n ʊ dj ɪ e n a ɡ r a ʒj ɪ ɡ a ɫ d a r ʒ m oː nj eː s v a ʒj ʊ ɔ j a 
[219.105]
<no-speech> 
[225.085]
v a ɪ z d a s gj ɛ r a s n ʊ 
[228.045]
<no-speech> 
[234.025]
m 
[234.655]
<no-speech> 
[238.885]
ɑː ɣ ɑː ɪ r t a d a v a ʒj a v a ʊ p r oː ʃ ɑː lj iː <int> <no-speech> oː t a ɪ ʊ ʒ d ɑː rj eː m ʊ ʒ v ɑː k a r n a gj ɪ tj ɛ lj iː ʧj a s s ʊ vj ɛ ʒj eː m t a ɪ v a ʒj a v a ʊ s ʊ sj ɪ rj ɪ n k t vj ɪ s uː n a gj ɪ n a gj ɪ pj ɪ e mj ɛ n uː p a rj sj ɪ vj ɛ ʃ t vj ɪ s k a s <no-speech> <oov> <no-speech> n ʊ nj ɛ s <oov> ɡ a ɫ v oː j a ʊ k a d ɪ ʃ v a ʒj ʊ ɔ sj ɪ m s a v a ɪ d ɡ a lj ʊ i vj ɪ lj nj ʊ n t a ɪ s a k a ʊ a r ʊ ʃj sj nj ɪ k t uː t a ɪ t a d a s ʊ vj ɛ ʒj a ʊ s p a k a ɪ n a j a ʊ vj ɪ s vj ɪ s tj ɪ e k t a ɪ <no-speech> ɪ r ʃj a ɪ p ɪ r ʒ oː lj eː s nj ɛ bj eː r a j a ʊ 
[265.995]
<no-speech> 
[267.525]
ɪ r ʒ oː lj eː s j a ʊ nj ɛ bj eː r a 
[269.785]
<no-speech> 
[272.235]
n ʊ 
[272.795]
<no-speech> 
[275.505]
n ʊ t a ɪ d a r ʃj a ɪ p iː r a ʒ m oː nj eː s kj ɪ tj ɪ r ʊ ɫ ɔ n ʊ s vj æː ʒ a n a gj ɪ iː ɡ a nj iː k ɫ ɑː ɪ r n a gj ɪ tj ɛ n a ɪ ʃj æː rj a a t a ɪ 
[283.315]
<no-speech> 
[284.355]
ʃj a ɪ p t a ɪ n a gj ɪ nj ɛ ʃj a ɪ p t a ɪ nj ɛ ɡ ɑː lj ɪ m a ɪ ɫ ɡ a ɪ ɡ a nj iː t ʊ ʒ t a ɪ k a d ʒ oː lj æː n ʊ eː d a ɫ a b a ɪ n ʊ s k ʊ t a t a d a p a v ɑː s a rj iː s ʊ nj kj a ɪ a dj ʒj ɛ lj a vj ɪ e n ʊ ʒ oː ʤj ʊ 
[294.845]
<no-speech> 
[295.865]
t a ɪ p <int> t a ɪ p t a ɪ p rj ɛ ɪ ʃj kj a t ʊ rj ɪ b uː tj ɪ lj ɪ kj æː ʒ oː lj eː k oː kj uː pj ɛ nj kj uː ʦj ɛ nj tj ɪ mj ɛ t r uː k a d <no-speech> n a gj ɪ p a v ɑː s a rj iː gj ɛ rj a ʊ a dj ʒj ɛ ɫ t uː oː k a ɪ n ʊ s k ʊ t a ɪ kj ɪ p ɑː b a ɪ ɡ oː s t a d a p a v ɑː s a rj iː 
[307.765]

[308.075]
<no-speech> 
[309.595]
t a ɪ v a <int> 
[310.765]
<no-speech> 
[317.515]
n ʊ t a ɪ bj ɛ t t a ɪ n ʊ t a ɪ k a s t a ɪ <no-speech> <hes> iː r a vj ɪ e n a s kj ɛ lj a s k a rj vj eː s bj ɛ t j a ʊ 
[323.165]
<no-speech> 
[324.665]
n ʊ t a ɪ ɪ r t a m s ʊ ɪ r ʃ a ɫ t a <no-speech> ɪ r ɪ r vj eː j a s ɪ r lj ɪ e t ʊ s 
[330.085]
<no-speech> 
[331.205]
iː p a ʧ j ɛ ɪ ɡ ʊ lj ɪ e t ʊ s lj iː j a t a ɪ v a 
[333.495]
<no-speech> 
[337.425]
d a r m a ʧj a ʊ ʒj ɪ n a ɪ k ɑː m a ʧj a ʊ v a ʒj a v a ʊ d a r t a d a p r oː ʃj ɪ t ɑː gj ɪ z a r a n k uː t ɑː s oː dj iː b a s k ʊ r ʃj a ʊ lj ɪ e ʧj a ɪ s t ɑː t oː 
[344.135]
<no-speech> 
[345.625]
t a ɪ v a <int> vj ɪ s k ɑː <int> k ɫ oː j a j ʊ ɔ d ɔ m tj rj ɪ nj kj æː lj eː m 
[349.245]
<no-speech> 
[350.415]
n a gj ɪ kj ɪ e m ɑː 
[352.095]
<no-speech> 
[353.345]
k ɑː 
[353.835]
<no-speech> 
[354.905]
j ʊ ɔ d ɔ m <sta> ɪ r ʃj a nj dj ɪ e n <hes> ʃj ɪ lj dj iː tj ɪ v a ʒj a v a ʊ t a ɪ ʒj ɪ n oː k pj rj ɪ vj ɛ ʃ t a tj ɪ e k j ʊ ɔ d uː n a gj ɪ t uː tj rj ɪ nj kj æː lj uː k a d ʧj a nj ɛ t tj ɛ n k ʊ r m a tj iː sj ɪ s 
[366.415]
<sta> p a vj ɪ e nj ʊ s n a mj ɛ lj ʊ s bj ɛ t k ʊ r ʧj a pj rj ɪ e s oː dj iː b oː s t oː s sj æː n oː s <no-speech> t a ɪ ʧj a t a ɪ ɪ rj gj ɪ dj ɪ ʤj a ʊ sj a s kj ɪ e m a s p a d a rj iː t a ɪ ʃj lj iː gj ɪ n t a ɪ r ʧj a pj rj ɪ vj ɛ ʃ t a j ʊ ɔ d uː tj rj ɪ nj kj æː lj uː rj ɛ ɪ ʃj kj a <no-speech> rj ɛ ɪ ʃj kj a n ʊ k ɫ oː s 
[378.375]
d a b a r t oː kj ɔ m p a ʧj ɔ m tj rj ɪ nj kj æː lj eː m <int> 
[381.435]
<no-speech> 
[384.475]
n ʊ t a ɪ t a ɪ p <sta> 
[396.345]
p r oː <sta> d v a r uː k a ɪ v a ʒj a v a ʊ ʒj uː rj ʊ s t a t ʊ ɫ a s t oː vj ɪ tj ɛ n t oː lj ɪ <no-speech> ʒj uː rj ʊ p a s t a tj iː t a m a rj ɪ j a ɪ ʃj kj ɛ ɫ t ɔ m r a n k ɔ m <no-speech> k ɑː <no-speech> 
[408.275]
<sta> m a rj ɪ j a ɪ ʃj kj ɛ ɫ t ɔ m r a n k ɔ m n ʊ s t a t ʊ ɫ a a n t k a p uː s t oː vj ɪ pj rj ɪ e p a ɡ rj ɪ nj dj ɪ nj oː t ɑː k oː ʒj ɪ n a ɪ t oː kj ɑː m a rj ɪ j ɑː tj ɛ n j ɪ n a ɪ v a nj dj æː nj iː ɪ ʃj kj ɛ ɫ t ɔ m r a n k ɔ m n ʊ t a ɪ v a 
[419.465]
<int> t a ɪ gj ɪ vj ɪ e n ʊ ʒ oː ʤj ʊ d v ɑː r a s <no-speech> n ʊ tj ɛ n s t oː vj eː j oː pj rj ɪ e d v ɑː r oː <no-speech> pj rj ɪ e b a ʒj nj iː ʧj oː s oː k a ɪ p n a gj ɪ s ɔ vj ɪ e tj ɪ nj a ɪ s ɫ a ɪ k a ɪ s b ʊ v oː p a d a rj iː t a m oː kj iː k ɫ a 
[430.775]
t a ɪ t a d a ʃj ɪ t ɑː s t a t ʊ ɫ ɑː a tj kj eː lj eː a n t k a p uː oː d a b a rj tj ɪ nj a ɪ n a gj ɪ s a vj ɪ nj ɪ n k a ɪ n oː rj eː j oː k a d vj eː ɫ ɡ r ɑː ʒj ɪ n t ʃj ɪ t ɑː s t a t ʊ ɫ ɑː pj rj ɪ e d v ɑː r oː bj ɛ t n a gj ɪ ʧj a bj ɛ n d r ʊ ɔ mj ɛ nj eː s bj ɛ n d r ʊ ɔ mj ɛ nj eː s ʒ m oː nj eː s nj ɛ s ʊ tj ɪ k oː a tj ɪ d ʊ ɔ t t a ɪ a nj ɪ e s a v oː n ʊ sj ɪ lj ɪ bj dj eː 
[446.495]
<no-speech> 
[448.035]
ɪ r d a b a r vj eː ɫ p a s t a tj iː s pj rj ɪ e m a pj rj ɪ e d v ɑː r oː bj ɛ t nj ɛ ʒj ɪ n a ʊ k ʊ rj ɔ j vj ɪ e t ɔ j tj ɛ n ɪ ʃ tj ɪ k r uː j uː s t oː vj eː j oː a ʃ j a ʊ k a ɪ ʧj a p r a dj eː j a ʊ gj iː vj ɛ nj tj ɪ t a ɪ ʧj a b ʊ v oː a n t k a p uː nj ɛ ʒj ɪ n a ʊ kj ɛ lj ɪ nj tj ɪ ʧj a mj æː t a ɪ 
[459.295]
<no-speech> 
[460.235]
<no-speech> 
[465.595]
b a ʒj nj iː ʧj a 
[466.575]
<no-speech> 
[468.065]
n ʊ t a ɪ t a ɪ p bj ɛ t nj ɛ ʒj ɪ n oː bj ɛ t k oː dj eː ɫ t a ɪ s t a t ʊ ɫ a ɪ 
[471.065]
<no-speech> 
[474.255]
n ʊ t a ɪ k a lj tj ɪ vj ɪ s <hes> m a n a t r oː d oː k a d tj ɛ n j ɪ e <oov> vj ɪ s ɑː a rj xj ɪ tj ɛ k t uː r ɑː s ʊ kj ɪ ʃ a ɪ r ɪ r t ɑː b oː k ʃj tj æː lj iː pj rj ɪ m uː rj ɪ j a k ʊ rj oː nj ɪ e k a s nj ɛ a tj sj ɪ mj ɛ n a 
[485.635]
<no-speech> ɡ a ɫ ɪ r b ʊ v oː ɡ a ɫ k ʊ r n ɔ r s 
[488.375]
<no-speech> 
[489.915]
a r a rj xj iː v ʊ ɔ sj ɛ ɡ a ɫ r ɑː d oː k ʊ r n ɔ r s 
[492.055]
<no-speech> 
[501.668]
<no-speech> 
[511.282]
<no-speech> 
[520.895]
bj ɛ t ʃj a ɪ p ʒj ɪ n oː k iː ɛ ɪ k d a b a r n a gj ɪ ɪ nj tj ɛ rj nj ɛ tj ɛ p ʊ s ɫ a pj iː n a gj ɪ b ʊ rj bj ɪ ʃj kj oː d v ɑː r a s a nj iː k ʃj ʧj uː r a j ɔ nj ɛ t a ɪ iː r a s ʊ dj eː t oː s n ʊ ɔ t r a ʊ k oː s ʃj uː mj æː t uː k ʊ r d a ʊ ɡ d a r b uː p a d a rj iː t a t a ɪ vj ɪ s a ɪ nj ɛ b ɫ oː ɡ a ɪ tj ɛ n 
[537.545]
<no-speech> 
[538.795]
ɫ a ʊ k a s vj ɪ d a ʊ s nj ɛ iː dj eː t a <laugh> ɫ a ʊ k a s ɫ a ʊ k a s 
[542.565]
<no-speech> 
[544.345]
vj ɪ d a ʊ s vj ɪ d a ʊ s d a r vj ɪ d a ʊ s d a r nj eː r a 
[547.015]
<no-speech> 
[556.065]
n ʊ t a ɪ m ɑː t a ɪ tj ɛ n a ɪ t ɑː vj ɪ e n ɑː pj ɪ r m ɑː k ʊ r <hes> n a gj ɪ ɑː b d a ɪ ɫ ɑː iː rj ɛ nj gj ɪ nj eː j a t a ɪ k a ʃ k a s t a ɪ nj ɛ gj æː r a ɪ k a d t a s p a t s <oov> s ɑː kj eː t a s vj ɪ r ʃ a ɪ tj ɪ s p a t s 
[567.935]
vj eː ɫ ɡ rj iː ʒj æː s ʧj a dj ɪ rj bj ɪ nj eː j oː n a gj ɪ nj ɛ bj ɛ k a vj ɪ nj eː j sj eː dj eː j oː 
[572.875]
<no-speech> 
[575.005]
<no-speech> 
[575.355]
<no-speech> 
[579.105]
nj ɛ n ʊ t a ɪ k ɑː ʒj ɪ e m ɑː ʒj ɪ e m ɑː dj ɪ r b a j oː kj ɑː tj ɛ n bj ɪ ʃj kj iː m ɑː t a ɪ gj ɪ t a d a k a ɪ b ʊ v ɔ m p uː tj ɪ k a ɪ ʃj ɪ tj ɪ e p uː tj eː bj ɛ t t a ɪ s ʊ p r a nj tj ɪ k a s tj ɛ n a ɪ nj ɪ e k oː tj ɛ n a ɪ j ɪ e gj ɪ nj ɛ t oː k s p ɑː s t a t a s a ʊ k ʃ t ʊ m a s a ʊ k ʃ t ʊ m a s k a s gj ɪ tj ɛ n t a ʊ tj ɪ n k ɫ ɑː ɪ ʒj ʤj oː vj ɪ n a d a b a r tj ɛ n k ʊ r a tj eː j oː n a ʊ j a ɪ n a gj ɪ k a ɪ v ɑː s a r ɑː p r a dj eː j oː bj iː rj eː t t a s tj ɪ n k a s 
[599.755]

[600.240]
