[0.000]
<no-speech> 
[4.215]
<no-speech> 
[4.665]
<no-speech> 
[6.405]
<no-speech> 
[6.915]
<no-speech> 
[16.648]
<no-speech> 
[26.380]
<no-speech> 
[36.112]
<no-speech> 
[45.845]
a lj oː 
[46.555]
<no-speech> 
[47.635]
a lj oː 
[48.445]
<no-speech> 
[50.335]
<int> n ʊ sj vj ɛ ɪ k a fj ɪ ɫ ɔ mj ɛ n a t a ɪ gj ɪ v a a ʃ d a b a r ʧj a n a ɪ vj eː ɫ 
[54.515]
<no-speech> 
[55.375]
m ɑː t a ɪ k a ɪ p vj ɪ s k a s n ʊ sj ɪ vj eː lj iː j oː 
[57.425]
<no-speech> 
[58.975]
p r ɑː ʃ ɔ m k ʊ pj ɪ ʃj kj eː nj ɪ ʃ k a ɪ k a ɫ b a t nj ɛ t a ɪ p oː tj eː p 
[62.585]
<no-speech> 
[64.695]
t a ɪ k a ɪ p gj iː vj æː n a t fj ɪ ɫ ɔ mj ɛ n a k a ɪ p gj ɪ k ɫ ʊ b a s 
[68.135]
<no-speech> 
[76.395]
m a t a ʊ gj ɪ ʒj ɪ n ʊ ʧj uː b uː n a pj rj ɪ sj uː s t a 
[78.605]
<no-speech> 
[79.875]
n ʊ a lj ɛ m a n tj ɪ k bj ɛ lj ɪ e k a j a s ɪ ʃj tj rj ɪ n t a t v a ʒj ɑː v ʊ s 
[83.095]
<no-speech> 
[84.305]
n ʊ b a nj ɪ e k oː gj ɪ nj ɛ t ʊ rj ʊ ɪ nj tj ɛ rj nj ɛ t oː a ʃ k a ɪ mj ɛ gj ɪ d a b a r sj eː ʤj ʊ n ʊ ɔ vj ɛ lj iː k uː 
[88.725]
<no-speech> 
[90.115]
n ʊ t a ɪ v a n ʊ ɫ a b a ɪ b ɫ oː ɡ a ɪ n ʊ t a ɪ a k ɑː 
[94.315]
<no-speech> 
[95.625]
k ɑː 
[96.245]
<no-speech> 
[98.375]
<sta> oː t ʊ k oː 
[99.185]
<no-speech> 
[100.315]
p a sj ɪ ɪ ɫ ɡ oː t ɫ a b a ɪ t a ɪ k a s gj ɪ d a b a r v a d oː v a ʊ j a k ɫ ʊ b ʊ 
[103.685]
<no-speech> 
[105.885]
fj ɪ ɫ ɔ mj ɛ n a a lj oː 
[107.035]
<no-speech> 
[109.085]
b ɫ oː ɡ a s rj iː ʃj iː s ɫ a b a ɪ 
[110.585]
<no-speech> 
[111.685]
oː v a k a d n oː rj ɪ 
[113.355]
<no-speech> 
[115.225]
n ʊ nj ɪ e k oː n ʊ k a ɫ b a m t oː lj a ʊ a k ɑː gj ɪ d a rj iː sj ɪ 
[117.575]
<no-speech> 
[118.425]
nj ɛ d ʊ ɔ d a p a sj ɪ k a ɫ b oː sj iː t v a m ɑː t a ɪ rj ɛ ɪ kj a s ʊ sj ɪ tj ɪ k t <laugh> rj ɛ ɪ kj a s ʊ sj ɪ tj ɪ k t pj rj ɪ e k ɑː v oː s <click> p ʊ ɔ dj æː lj oː p a sj ɪ k a lj bj eː t 
[126.235]
<no-speech> 
[127.135]
t ʊ d a b a r a t v a ʒj ʊ ɔ sj ɪ ʊ n t s p ɑː lj oː ʃj vj ɛ nj ʧj uː 
[129.935]
<no-speech> 
[134.365]
s ʊ sj ɪ tj ɪ k s m a oː t a ɪ b ʊ s t a ɪ k a ɪ k oː k s rj ɛ nj gj ɪ nj iː s 
[136.785]
<no-speech> 
[144.655]
ɡ r ʊ ɔ dj iː oː k a d ʊ ɡ r ʊ ɔ dj iː b ʊ s k oː k s n ɔ r s s ʊ sj ɪ eː j ɪ m a s 
[148.365]
<no-speech> 
[156.595]
p a vj ɪ lj oː nj ɪ e nj eː oː t a ɪ k oː kj a p r oː ɡ a 
[158.755]
<no-speech> 
[164.565]
oː t a ɪ k ɑː j ɪ n a ɪ k ʊ pj ɪ ʃj kj eː n k a j ɪ n a ɪ gj ɪ nj ɛ <oov> a j uː s t a ɪ k a ɪ p iː d oː m ʊ s ʒ m oː ɡ ʊ s nj ɛ k ʊ pj ɪ ʃj kj eː n k a 
[170.215]
<no-speech> 
[172.395]
a t a ɪ ʧj a ɡ a ɫ ʊ n t k oː kj uː j a ʊ ʃj vj ɛ nj ʧj uː nj ɛ 
[176.155]
<no-speech> 
[180.485]
k ʊ pj ɪ ʃj kj eː nj ɪ ʃ k a ɪ m ɣ m 
[182.205]
<no-speech> 
[187.005]
a k a ɪ p f a ɪ n a t a ɪ k a d a nj ɛ ʒj ɪ n oː t d a r a d a r nj ɛ ʒj ɪ n oː t <oov> k a d a k oː kj ɑː dj ɪ e n ɑː 
[191.775]
<no-speech> 
[199.545]
a ɪ pj ɪ r m ɔ j ɡ r ʊ ɔ ʤj oː nj ɛ dj eː lj ɔ j sj ɛ k m ɑː dj ɪ e nj iː a r nj ɛ <lipsmack> a ɪ ʃ k ʊ oː t a ɪ k a ɪ p p a tj ɪ fj ɪ ɫ ɔ mj ɛ n a gj iː vj æː n a t gj iː vj æː n a t k ɑː vj ɛ ɪ kj a t dj ɪ r b a t 
[207.835]
<no-speech> 
[217.785]
n ʊ t a ɪ 
[218.645]
<no-speech> 
[224.155]
ɑː ɣ ɑː 
[225.045]
<no-speech> 
[234.375]
k a d ʊ d a b a r b ʊ s s ʊ m a ɪ nj ɛ lj iː tj ɛ <breath> a t a ɪ j uː s m ɑː ɫ a tj eː s p oː vj ɪ s oː kj ʊ s rj ɛ nj gj ɪ nj ʊ s 
[239.645]
<no-speech> 
[246.155]
m ɣ m 
[246.875]
<no-speech> 
[249.945]
<sta> n ʊ t a ɪ <foreign> oː t a ɪ a n t ɫ ɑː pj k rj ɪ ʧj oː pj ɪ r m oː s v a ʒj ʊ ɔ sj ɪ t k ʊ pj ɪ ʃj kj ɪ n 
[254.915]
<no-speech> 
[261.495]
j ɛ ɪ ɡ ʊ k a s n ʊ vj ɛ ʃ 
[262.725]
<no-speech> 
[263.525]
<no-speech> 
[265.875]
<no-speech> 
[267.435]
n ʊ 
[268.245]
<no-speech> 
[269.095]
oː t a ɪ k a s gj ɪ oː k a s gj ɪ d a b a r v a d oː v a ʊ j a k ɫ ʊ b ʊ s fj ɪ ɫ ɔ mj ɛ n a 
[272.435]
<no-speech> 
[274.745]
a lj oː 
[275.485]
<no-speech> 
[277.225]
k a s d a b a r iː r a s pj ɪ rj mj ɪ nj ɪ n k a s k a s iː r a s pj ɪ rj mj ɪ nj ɪ n k a s d a b a r 
[280.655]
<no-speech> 
[283.315]
nj ɛ ʒj ɪ n a ʊ gj ɪ nj ɪ e k oː gj ɪ nj ɛ b ʊ v a ʊ nj ɛ ɪ k a r t oː n ʊ ɫ ɑː k ʊ s n ʊ tj ɛ p n ʊ n ʊ 
[288.945]
<no-speech> 
[290.915]
<breath> fj ɪ ɫ ɔ mj ɛ n a t a ɪ j uː s pj ɪ rj mj ɪ nj ɪ n k a s n ʊ f a n t ɑː sj tj ɪ k a n ʊ t a ɪ sj vj ɛ ɪ kj ɪ n ʊ sj vj ɛ ɪ kj ɪ n ʊ sj vj ɛ ɪ kj ɪ n ʊ ɪ ʃ m a nj iː k ɫ a ʊ sj iː kj ɪ t 
[301.795]
ʃ a m p ɑː n oː b ʊ tj ɛ lj ɪ s <laugh> n ʊ t a ɪ v a b uː tj ɪ n a ɪ rj ɛ ɪ kj a s ʊ sj ɪ tj ɪ k t n ʊ <breath> t a ɪ <oov> k ʊ rj a m <oov> k ʊ rj ɔ m d a b a r ɫ a ɪ k ʊ i k ʊ rj ɔ m ɫ a ɪ k ʊ i ɪ ʃj rj ɪ n k oː 
[313.775]
<no-speech> 
[314.805]
m ɑː t ɔ m 
[315.635]
<no-speech> 
[317.225]
m k a ɪ p gj ɛ r a ɪ n ʊ 
[319.365]
<no-speech> 
[321.135]
n ʊ t a ɪ n a ʊ j uː n a rj uː a tj eː j oː 
[322.965]
<no-speech> 
[324.435]
ɑː ɣ ɑː nj ɛ gj æː r a ɪ oː m a nj iː n oː rj eː j oː t iː sj uː lj iː t a tj ɛ ɪ n a n a ʊ j uː 
[328.565]
<no-speech> 
[331.455]
oː j a ʊ nj ɪ m oː m ɑː n oː m ɑː n oː a mj ʒj a ʊ s a tj eː j oː <laugh> 
[335.515]
<no-speech> 
[336.475]
<no-speech> 
[337.145]
<no-speech> 
[339.775]
<sta> nj eː r k oː mj ɪ sj lj iː t a r nj ɛ a ʃ v a t a ɪ p ɪ r s a kj a ʊ k a d j a ʊ nj ɪ m a s ʊ ʃj sj ɪ eː mj æː s <oov> 
[343.875]
<no-speech> 
[346.525]
j oː 
[347.555]
<no-speech> 
[348.695]
s a v ʊ s rj ɛ ɪ k a ɫ ʊ s rj ɛ ɪ k a ɫ ʊ s oː mj ɛ s v a t oː kj ɪ e k a ɪ p s a kj iː t n ʊ v a oː m a n gj ɪ t a ɪ ɪ ʃj vj ɪ s gj ɪ sj ɪ t ʊ ɑː ʦj ɪ j a k oː kj a p r ɑː s t a n ʊ rj ɛ ɪ kj eː j oː v a ʒj ʊ ɔ t k a ɪ m a n ɪ r ɪ r a pj sj ɪ s t oː t n ʊ 
[360.135]
<no-speech> 
[360.995]
oː k ɑː gj ɪ d a rj iː sj ɪ n ʊ k a d b ʊ v oː ɫ a b a ɪ nj ɛ bj ɛ gj ɛ r a ɪ n ʊ j oː t a ɪ v a gj iː vj ɛ n ʊ <oov> tj iː ɫ oː s p a s a ʊ lj iː 
[367.235]
<no-speech> 
[368.185]
n ʊ t a ɪ v a nj ɛ p a vj iː dj eː kj ɪ t m a n gj iː vj ɛ n ʊ tj iː ɫ oː s p a s a ʊ lj iː s ʊ k a tj ɪ n a ɪ s k a ɫ b ʊ 
[374.045]
<no-speech> 
[376.435]
t a ɪ v a 
[377.395]
<no-speech> 
[378.735]
n ʊ 
[379.455]
<no-speech> 
[382.235]
n ʊ t a ɪ v a 
[383.405]
<no-speech> 
[386.045]
a k ɑː gj ɪ d a rj iː sj ɪ n ʊ ʃj a ɪ p t a ɪ v ɑː s a r a v a t ʃj a ɪ p t a ɪ ɪ ʃj sj ɪ pj ɪ ɫ d oː m ɑː n oː sj æː n a s v a j oː nj eː vj ɪ s a v ɑː s a r ɑː k a ɪ mj ɛ oː j eː z a ʊ k a ɪ p f a ɪ n a b ʊ v oː k a ɪ p gj ɛ r a ɪ 
[395.025]
<click> <lipsmack> k ɑː t ʊ ɣ a m ɑː kj ɛ ɡ ʊ lj ʊ <breath> dj ɛ bj ɛ sj ɪ s ɡ a n a ʊ <laugh> d a r ʒ ʊ s tj ɪ k t a ɪ r a vj ʊ <breath> 
[402.695]
<no-speech> 
[403.975]
n ʊ 
[404.895]
<no-speech> 
[405.835]
n ʊ d a b a r d a r a ʊ p r oː tj ɪ n ɡ ʊ d a r ʒ ʊ fj ɪ ɫ ɔ mj ɛ n a v a ɡ a ʊ sj ɪ t a t v a ʒj ʊ ɔ t p a sj ɪ ʒj uː rj eː t 
[411.215]
<no-speech> 
[412.185]
n ʊ k a d <oov> <sta> k a d nj ɛ bj ɛ rj ɛ ɪ kj eː t uː r a vj eː t k ɑː 
[415.915]
<no-speech> 
[417.545]
k a ɪ p 
[418.155]
<no-speech> 
[420.455]
n ʊ p r oː tj ɪ n ɡ ʊ p r oː tj ɪ n ɡ ʊ d a r ʒ ʊ k a d nj ɛ rj ɛ ɪ k t uː r a vj eː t j oː t a ɪ gj ɪ vj ɪ s oː kj ɔ m lj ɛ n t ɔ m a p a p a p a p k a ɫ t a tj ɛ n a ɪ <breath> pj lj a ʊ s k ɔ m a bj dj eː t a ʒ oː ʤj ʊ nj ɛ bj ɛ rj ɛ ɪ k s tj ɛ n k a pj sj tj iː t t a s ʒj ɛ mj ɛ s n ʊ m ʊ lj ʧj ʊ ɔ t m ʊ lj ʧj ʊ ɔ t n ʊ d ʊ rj nj ʊ ɔ sj ʊ d a b a r a ʃ s ʊ t ʊ ɔ d a r ʒ ʊ tj ɛ n a ɪ n ʊ <sta> n ʊ 
[436.465]
<no-speech> 
[440.725]
t a ɪ p ɪ r j ɪ s tj ɛ n s a v oː ʊ sj ɪ ɪ m a rj ɛ ɪ k a ɫ a ɪ s j oː j oː t a ɪ <breath> d a r rj ɛ ɪ kj eː s bj ɪ ʃj kj iː p ɫ oː tj æː lj iː ɪ r b ʊ lj vj uː tj ɛ n a ɪ <hes> ʃj a ʊ d ʊ ɔ s p a k a ɪ ʃj oː t b ʊ lj vj ɛ s k a ɪ p gj ɪ ɪ rj gj ɪ ʧj a gj ɪ rj dj eː j a ʊ k a d <breath> p ɑː s k ʊ i p a kj ɛ lj ɪ s ɑː kj eː 
[452.365]
ʃj a ʊ d ʊ s s ʊ sj ɪ rj ɛ nj kj ɪ dj ɪ ʤj a ʊ sj a s b ʊ ɫ b a s ɪ r vj eː ɫ vj eː ɫ ʊ ʒj vj ɛ rj tj ɪ ɪ r t oː lj a ʊ a ʊ ɡ a t oː s b ʊ ɫ b a ɫ a s <laugh> t a ɪ v a 
[461.375]
<no-speech> 
[462.945]
<breath> n ʊ v a <breath> oː t a ɪ j uː s ʃj ɪ t oː kj oː d a lj iː k oː d oː nj ɛ <oov> <oov> nj ɛ dj ɪ r b oː t p a s s a vj iː 
[468.405]
<no-speech> 
[471.875]
a lj ɛ j a ʊ 
[473.035]
<no-speech> 
[477.135]
n ʊ t a ɪ 
[478.015]
<no-speech> 
[480.565]
oː t a ɪ k oː kj ɪ e k vj ɪ e t k a ɪ tj ɛ n p a s t a p a s p a s t a m s t ɑː 
[483.685]
<no-speech> 
[491.765]
pj lj eː n s ʊ s 
[492.725]
<no-speech> 
[495.295]
rj ɛ tj ɛ sj nj ʊ s a r nj ɛ <breath> oː j eː z a ʊ k a ɪ p <oov> ɡ a ɫ j ʊ rj gj ɪ n uː t ʊ rj eː t k oː kj uː fj ɪ ɫ ɔ mj ɛ n a j ʊ rj gj ɪ n uː nj ɛ t ʊ rj ɪ t 
[503.135]
<no-speech> 
[509.665]
t a ɪ r a ɪ k s n ʊ ɫ a k t k a ɪ k a d ʊ bj ɛ t t a ɪ d a b a r j a ʊ r ʊ d ʊ ɔ vj ɪ s k a s 
[512.615]
<no-speech> 
[515.085]
<breath> a ɪ t a ɪ gj ɪ nj ɛ k oː k s gj ɪ m ɑː n oː k a ɪ mj ɛ ɪ nj tj ɛ rj nj ɛ t a s t a ɪ gj ɪ s a k a ʊ tj ɪ k pj ɛ r k ɑː mj ɪ n ʊ vj eː j a s <int> uː ʒj a t a ɪ v a t vj ɪ s a s m ɑː n oː ɪ nj tj ɛ rj nj ɛ t a s <breath> n ʊ <oov> <laugh> ʒ a d ʊ iː sj ɪ vj ɛ s t <breath> 
[525.005]
a lj ɛ k a d a t a s b ʊ s t a ɪ d a r nj ɛ ʒj ɪ n a ʊ d ʊ k r a t ʊ rj ɪ <sta> n ʊ sj ɪ pj ɪ r k t n a ʊ j ʊ k ɔ mj pj ʊ tj ɛ rj iː t a ɪ t a d a t uː sj ɛ n uː p a rj sj ɪ vj ɛ ʃj ʊ 
[530.985]
<no-speech> 
[532.255]
n ʊ 
[532.955]
<no-speech> 
[534.225]
t a ɪ v a t a ɪ k a ɪ p p a sj uː sj ɪ t b uː sj ʊ p r ɔ fj ɛ s oː rj ʊ s t a d a n ʊ t a ɪ d a b a r a tj sj uː sj kj ɪ t gj ɪ m a n a ʃ <oov> d a b a r vj ɪ lj nj ʊ j a ʃ d a b a r vj ɪ lj nj ʊ j fj ɪ ɫ ɔ mj ɛ n a a tj sj uː sj kj ɪ t m a n 
[542.935]
<no-speech> 
[544.385]
rj iː t ɔ j rj iː t ʊ v a ʒj ʊ ɔ j ʊ j a ʊ k a ɪ m a n 
[546.395]
<no-speech> 
[547.485]
n ʊ 
[548.195]
<no-speech> 
[551.555]
p a sj ɪ ʒj uː rj eː sj ʊ n ʊ p a sj ɪ ɡ r oː ʒj eː sj ʊ d a rj ʒj æː lj a ɪ s <breath> n ʊ t a ɪ gj ɪ <foreign> t a ɪ k a s d a r n a ʊ j ɛ sj nj oː k a s d a r gj ɛ rj ɛ sj nj oː k a s n ʊ mj ɪ rj eː k a s ʊ ʒj gj ɪ mj eː 
[560.675]
<no-speech> 
[562.235]
<no-speech> 
[563.035]
<no-speech> 
[567.325]
<no-speech> 
[568.535]
<no-speech> 
[573.685]
<laugh> nj ɛ ɪ vj ɪ e n a s <laugh> nj ɛ ɪ vj ɪ e n a s nj ɛ n ʊ mj ɪ rj eː ɑː ʧj uː dj ɪ e v ʊ i 
[578.535]
<no-speech> 
[585.695]
n ʊ t a ɪ rj ɛ ɪ ʃj kj a nj ɛ ɪ vj ɪ e n oː rj ɛ ɪ ʃj kj a a rj tj ɪ m oː nj eː r a j ɛ ɪ ɡ ʊ nj ɛ a tj sj ɪ mj ɛ n a t ʒj ɪ n oː kj ɪ t fj ɪ ɫ ɔ mj ɛ n a k a ɪ p m ʊ s a tj j ʊ n k s t a ɪ a tj j ʊ n k s a ʃ t a d a pj ɛ r s k a mj bj ɪ nj sj ʊ p ɑː ʧj a ɪ gj ɛ r a ɪ mj ɛ s dj æː ʃj ɪ m t mj ɪ n ʊ ʧj uː k a ɫ b a m t a ɪ ʒ oː ʤj ʊ m ʊ s a tj j ʊ n k s bj ɛ t d a b a r pj lj ʊ rj pj kj ɪ m d a r pj lj ʊ rj pj kj ɪ m n ʊ d a r rj ɛ ɪ kj a t a ɪ k ɑː gj ɪ p a p ɑː s a k oː kj ɪ t gj ɪ n ʊ ɪ ʃ s a v oː 
[602.745]
<no-speech> 
[603.805]
n ʊ k a ɪ p a n uː k a ɪ gj iː vj æː n a 
[605.335]
<no-speech> 
[611.725]
a n uː k a s ɛ gj ɪ p t a n ɪ ʃ r uː k oː 
[613.545]
<no-speech> 
[616.655]
p a sj ɪ ɪ lj sj ɪ t ɪ ʃj sj k rj ɪ d oː 
[618.185]
<no-speech> 
[623.415]
dj ɪ rj pj tj ɪ a r <oov> m oː kj iː tj ɪ s a r k oː tj ɛ n d a rj iː t 
[625.915]
<no-speech> 
[629.355]
a ɪ a t oː s t oː ɡ a ʊ t oː m ɑː n oː gj ɪ s uː n ʊ s ɪ ʃ v a ʒj ɑː v oː a ʊ s t r ɑː lj ɪ j ɔ n m oː kj ɪ nj tj ɪ s 
[634.825]
<no-speech> 
[637.795]
n ʊ t a ɪ d a b a r p a s m ʊ s s ʊ kj ɛ n ɡ uː r ɔ m k a rj a ʊ j a 
[641.355]
<no-speech> 
[643.125]
<no-speech> 
[643.325]
<no-speech> 
[645.448]
