[0.000]
<no-speech> 
[1.465]
<breath> n ʊ p oː <int> bj ɪ ʃj kj iː 
[2.835]
<no-speech> 
[4.895]
<breath> t a ɪ <oov> k ɑː ɡ a ɫ ʃ a ɫ n a ʃj a nj dj ɪ e n b ʊ v oː k oː kj a 
[7.845]
<no-speech> 
[9.855]

[10.415]
<no-speech> 
[12.405]
<hes> t a ɪ v a 
[15.635]
<no-speech> 
[17.275]
<breath> nj ɪ e k oː gj ɛ r a ɪ <breath> k ɫ a ʊ sj iː k t a ɪ k oː kj ɪ e p ɫ a n a ɪ ʃj a ɪ dj ɪ e n a ɪ <breath> 
[22.805]
<no-speech> 
[26.855]
t a ɪ nj ɛ bj ɛ n t v a k a rj ɛ k ɑː j ɛ ɪ k ɑː s k ɑː nj a ɪ p a d a rj iː tj ɪ v a k a rj ɛ t a ɪ a t v a rj iː sj ʊ 
[31.545]
<no-speech> 
[36.705]
j oː t a v oː mj ɪ ɫ d ʊ k a s <hes> k ɑː 
[39.175]

[45.135]
k ɑː 
[45.765]
<no-speech> 
[47.765]
k ɑː p a d a rj iː t 
[48.855]
<no-speech> 
[50.705]
a gj ɛ r a ɪ 
[51.605]
<no-speech> 
[52.815]
gj ɛ r a ɪ b uː tj ɪ n a ɪ 
[53.915]
<no-speech> 
[60.255]
gj ɛ r a ɪ z ʊ i kj æː lj ɪ b ʊ s 
[61.505]
<no-speech> 
[62.755]
j oː oː t a v oː v a ɪ k a s n a mj ɪ e t a v oː v a ɪ k a s j a ʊ n a mj ɪ e 
[65.995]
<no-speech> 
[69.545]
j oː t a ɪ t ʊ tj ɛ n nj ɛ tj rj ʊ k ʃ m a ʊ k ɫ a b a ɪ 
[71.705]
<no-speech> 
[73.045]
n ʊ k oː kj oː s p a s k ʊ tj ɪ nj eː s n a ʊ j ɪ e n oː s <oov> <breath> k oː kj oː s n a ʊ j ɪ e n oː s p a s k ʊ tj ɪ nj eː s k a ɫ v a rj ɪ j ɔ j 
[78.305]
<no-speech> 
[82.025]
k a s k ɑː <oov> k a s k ɑː ʊ ʒ m ʊ ʃj eː a r d a r k ɑː p a d ɑː rj eː 
[85.675]
<no-speech> 
[88.325]
oː k a ɪ p ʃj ɪ e mj ɛ t t a v oː dj ɛ rj lj a ɪ 
[89.975]
<no-speech> 
[91.115]
a r gj ɪ rj dj ɪ k a ɪ p t a v oː dj ɛ rj lj a ɪ ʃj ɪ e mj ɛ t vj ɪ sj ɪ 
[93.605]
<no-speech> 
[94.515]
k oː t r uː k s t a 
[95.485]
<no-speech> 
[98.425]
j oː t a ɪ ɡ a ɫ t a ʊ p a dj eː t 
[99.855]
<no-speech> 
[101.425]
oː kj ɪ t oː s d a r ʒ oː vj eː s 
[102.605]
<no-speech> 
[104.515]
n ʊ ʒj ɪ n oː k p ʊ sj eː nj ɛ ɡ ʊ pj ɛ r n a ɪ bj ɛ t ɡ a lj eː sj ɪ m p a sj ɪ d a lj iː t j ɛ ɪ ɡ ʊ ɫ a b a ɪ rj ɛ ɪ kj eː s 
[109.275]
<no-speech> 
[110.095]
a ʃ tj ɛ n n ʊ kj ɪ e k m ʊ dj vj ɪ e m rj ɛ ɪ kj a 
[111.935]
<no-speech> 
[113.785]
k ɑː 
[114.325]
<no-speech> 
[116.835]
<breath> j oː oː kj ɪ t oː s d a r ʒ oː vj eː s 
[119.605]
<no-speech> 
[121.425]
p a ɫ a ʊ k p r ɑː s t a ɪ gj ɪ rj ʤj ʊ k ɫ a ʊ sj iː k pj rj ɪ sj ɪ dj eː k tj ɛ lj ɛ f ɔ n ɑː gj ɛ rj a ʊ 
[124.535]
<no-speech> 
[127.635]
n ʊ t a ɪ nj ɪ e k oː m a tj iː t ʧj a s ʊ rj iː ʃj uː <breath> ʃj ɪ t ɑː oː b ʊ r oː k a ɪ 
[131.445]
<no-speech> 
[138.145]
a lj ɛ gj ɛ r a ɪ t a d a 
[139.585]
<no-speech> 
[141.245]
j oː ʃj ɪ t 
[141.985]
<no-speech> 
[143.785]
oː t a ɪ p a ɫ a ʊ k 
[144.625]
<no-speech> 
[145.505]
a ɪ oː t a v oː lj ɪ n a k ʊ r gj iː vj æː n a ʃj ɪ m t a s mj æː t uː a ʃ j oː s nj ɛ m ɑː ʧj ʊ s 
[149.705]

[157.855]
t a ɪ p a s k ɑː ɛ ɪ n a 
[158.875]

[163.925]
<hes> b ʊ v ʊ sj ɔ j t a ʊ p k a sj eː j j oː m ɣ m 
[167.015]
<no-speech> 
[169.155]
ʒj ɪ n a ʊ j oː 
[170.955]

[173.255]
oː k ɑː t ʊ p ɫ a ʊ k a m d a r a ɪ s a v oː s t a tj ɪ e m 
[175.515]
<no-speech> 
[178.275]
nj ɪ e k oː t a ɪ k oː v a ɪ k ʃj ʧj oː t iː kj ɪ rj pj iː k ɫ ɑː <laugh> 
[180.955]
<no-speech> 
[181.915]
d a r t ʊ nj ɛ ʒj ɪ ɫ a ɡ a ɫ k a ɪ p a ʃ 
[183.855]
<no-speech> 
[186.155]
a r gj ɪ rj dj ɪ 
[187.025]
<no-speech> 
[188.725]
a ɪ 
[189.515]
<no-speech> 
[192.375]
j oː t a ɪ v a 
[194.135]
<no-speech> 
[199.005]
n ʊ vj ɪ s k oː p a sj ɪ s oː dj ɪ n a ʊ b r ɑː ʃj kj ɛ s p a sj ɪ s oː dj ɪ n a ʊ ʧj ɛ s n a k ʊ s oː p ɑː s k ʊ i vj ɪ s k oː t a ɪ gj ɪ dj vj ɪ dj ɛ ʃj ɪ m t ɑː r uː ʒj ɛ mj eː s t a ɪ gj ɪ b r oː lj æː lj uː dj vj ɪ v a ɡ ʊ tj ɛ s p a sj ɪ s oː dj ɪ nj sj ʊ ɛ ɪ sj ɪ a n t k a p uː ʊ ʒj ɛ ɪ sj ɪ <breath> a gj ɛ r a ɪ 
[210.355]
<no-speech> 
[213.175]
t a ɪ p a ɫ a ʊ k a ʃ d a r tj ɛ n a ʃ d a r tj ɛ n nj ɛ gj iː vj ɛ n ʊ kj ɪ t a m r ʊ dj ɛ nj ʊ i b ʊ s p a ʒ a d ʊ 
[218.015]
<no-speech> 
[219.255]
j oː 
[219.945]
<no-speech> 
[221.255]
n ʊ 
[222.045]
ɡ a ɫ ɛ ɪ n a m <breath> 
[226.965]
ʒj ɪ n a ʊ k a d nj eː r a lj ɪ kj æː vj ɪ sj ɪ tj ɪ e ʃj ɪ ɫ t n a mj ɪ nj a ɪ k ʊ rj ʊ ɔ s p a s oː dj ɪ nj ɪ ɪ r t ʊ ɔ j p a t n ʊ ɡ a ɪ ʃ t a 
[232.145]
<no-speech> 
[234.065]
t a ɪ v a 
[234.735]
<no-speech> 
[235.935]
n ʊ t a ɪ k ɑː 
[236.755]
<breath> 
[240.265]
m ɣ m 
[241.195]
<no-speech> 
[245.005]
k ɑː t a ɪ p tj ɪ ɫ t ɑː 
[246.695]
<no-speech> 
[248.125]
<hes> nj ɛ ʒj ɪ n a ʊ ʒj ɪ n oː k s ɑː k oː k a d m uː s uː v a lj ʤj a pj rj ɪ sj ɪ s t ɑː tj eː vj ɪ ɫ uː ʊ ʒ t ɑː tj ɪ ɫ t ɑː oː a ʃ d a b a r mj ɛ s ʊ ʒ t a ɪ gj ɪ v a ʒj ɪ nj eː j a m sj ɛ ɪ n uː ɡ a tj vj ɛ k ʊ rj ɑː <oov> b a ɪ gj a s ʊ ɡ rj a ʊ t <breath> a r b a ɛ ɪ n a m <foreign> pj ɛ r lj ɪ e p t ʊ k ɑː 
[259.965]
<no-speech> 
[266.310]
<no-speech> 
[272.655]
n ʊ t a ɪ d a b a r vj æː ʒ a m ɑː m ɑː m ɑː n oː m ɑː m ɑː ɪ rj gj ɪ vj æː ʒj eː sj ɛ ɪ n uː ɡ a tj vj ɛ 
[276.675]
<no-speech> 
[277.655]
k a ɪ p n ʊ mj ɪ rj eː <breath> t a ɪ v a 
[279.595]
<no-speech> 
[280.765]
j oː 
[281.325]
<no-speech> 
[284.145]
n ʊ t a ɪ tj ɪ e t r ʊ m p a m b ʊ v oː j ɪ e d a b a r d a b a r d a b a r vj ɪ s ɔ m p ʊ sj eː m ɛ ɪ n a p r a v a ʒj ʊ ɔ t a ʃ v a ʒj ʊ ɔ j ʊ iː t ʊ ɔ s s a v oː n a ʊ j ʊ s n a m ʊ s ɪ r tj ɛ n <breath> vj ɪ s k a s gj ɛ r a ɪ <breath> tj ɪ k t a ɪ ɫ a b a ɪ d ʊ ɔ bj eː s 
[293.925]
<no-speech> 
[298.625]
n ʊ t a ɪ p <breath> oː t ʊ s ʊ s a v oː <oov> s ʊ ɔ ɫ oː d r a ʊ gj ɛ a r gj ɪ rj dj ɪ s ʊ s a v oː s ʊ ɔ ɫ oː d r a ʊ gj ɛ lj ɪ n ʊ tj ɛ nj ɛ bj ɛ n d r a ʊ j ɪ 
[305.425]
<no-speech> 
[314.745]
n ʊ ʒj ɪ n oː k b a ɪ s ʊ s rj ɛ ɪ k a ɫ a s 
[316.385]
<no-speech> 
[317.955]
a r nj ɛ 
[318.615]
<no-speech> 
[322.945]
n ʊ 
[323.575]
<no-speech> 
[325.395]
n ʊ nj ɛ p a ʒj ɪ n oː ʧj a ʊ ʒj ɪ n oː k a ʃ j a ʊ j oː s 
[327.615]
<no-speech> 
[329.125]
ɛ ɪ k t ʊ s a ʊ tj rj ɪ zj dj ɛ ʃj ɪ m t mj æː t uː nj ɛ 
[330.965]
<no-speech> 
[332.585]
oː k ɑː j ɪ tj ɛ n vj ɛ ɪ kj eː 
[333.575]
<no-speech> 
[335.515]
dj ɪ r b oː 
[336.505]
<no-speech> 
[342.155]
m ɣ 
[343.025]
<no-speech> 
[345.365]
n ʊ ɪ r k a ɪ p a t r oː d oː 
[346.705]
<no-speech> 
[347.515]
j oː 
[348.175]
<no-speech> 
[353.015]
<no-speech> 
[353.535]
<no-speech> 
[355.735]
<hes> j oː 
[356.485]
<no-speech> 
[358.255]

[358.775]
<no-speech> 
[365.365]
nj ɛ p a sj ɪ kj ɛ ɪ t ʊ s 
[366.685]
<no-speech> 
[368.465]
nj ɛ j oː n a s m oː kj eː sj ɪ pj rj ɪ e ʃ m a nj ɛ mj æː t a ɪ s 
[370.715]
<no-speech> 
[371.875]
nj ɛ sj ɪ m oː kj ɪ n oː j oː n a s s ʊ m a nj ɪ m m ɣ m 
[374.395]
<no-speech> 
[375.485]
j ɪ s vj iː rj ɛ sj nj ɪ s 
[376.275]
<no-speech> 
[378.725]
ɔ ɪ t a s t a ɪ d a ʊ ɡ j a ʊ nj ɛ sj nj ɪ s bj ɛ t k a d j ɪ s a ɪ tj ɛ n ɫ a bj a ʊ n ʊ k v ɑː kj æː s nj ɛ ɡ ʊ bj ɛ t k a s kj ɪ t a s 
[382.955]
<no-speech> 
[384.325]
ʧj a m a n <hes> pj rj ɪ e ʃ kj æː lj ɪ s mj æː t ʊ s b ʊ v a ʊ s ʊ sj ɪ tj ɪ k ʊ s a n t sj a ʊ r oː t ɑː k oː b ʊ v a ʊ s ʊ sj ɪ tj ɪ k ʊ s t a ɪ ʒj uː r a ʊ k a d tj ɛ n j a m p r ɑː s t a ɪ s ʊ ɡ a ɫ v a 
[390.805]
<no-speech> 
[392.695]
t a ɪ v a 
[393.365]
<no-speech> 
[395.495]
n ʊ j oː 
[396.455]
<no-speech> 
[403.555]
n ʊ t a ɪ m a tj iː t ʒj ɪ n a ɪ ʒj ɪ n a ɪ k ɑː a ʃ k a ɪ p a sj ɪ ʒj uː rj ʊ k a ɪ p k a s b r oː lj a ɪ sj æː sj ɛ rj iː s v a k a ɪ p m ɑː n oː t oː s dj vj ɪ p ʊ sj ɛ sj ɛ rj eː s k ʊ rj a s ʒj ɪ n a ɪ k a ɪ p j oː s <breath> bj ɛ n d r a ʊ j a tj ɪ k t a ɪ k a d <hes> gj ɛ rj k lj æː vj ɪ e n a s kj ɪ t a ɪ pj ɛ r k ɑː s t t a ɪ a ʃ k a r t a ɪ s k a r t a ɪ s a ʃ ʒj ɪ n oː k ʤj a ʊ gj ʊ ɔ sj ɪ k a d a ʃ vj ɪ e n a 
[417.365]
<no-speech> 
[420.205]
t a ɪ v a 
[420.865]
<no-speech> 
[426.505]
n ʊ t a ɪ t a ɪ a ɪ ʃ k ʊ j ɛ ɪ pj ɛ r mj æː t ʊ s kj æː t ʊ rj ɪ s k a r t ʊ s m ɑː t oː tj eː s 
[429.845]
<no-speech> 
[438.515]
oː t a ɪ k ʊ ɔ j ɪ ʊ sj ɪ ɪ m a 
[439.585]
<no-speech> 
[447.875]
p a ɫ a ʊ k oː t a ɪ a ʃ kj ɪ e k ʒj ɪ n a ʊ j ɪ n a ɪ dj ɪ r b oː v a ɪ k uː d a rj ʒj æː lj iː j dj ɪ r b oː a r nj ɛ 
[451.515]
<no-speech> 
[452.445]
oː d a b a r j a ʊ nj ɛ bj ɛ dj ɪ r b a 
[453.885]
<no-speech> 
[455.615]
v a ɪ k uː d a rj ʒj æː lj ɪ s <breath> v a ɪ k uː d a rj ʒj æː lj ɪ s ɪ r a ʊ t ɔ r ɑː lj ɪ s k ɑː a ʃ ʒj ɪ n a ʊ 
[459.855]
<no-speech> 
[464.445]
ɔ ɪ j eː z a ʊ 
[465.245]
<no-speech> 
[467.375]
t a ɪ gj ɛ r a ɪ 
[468.175]
<no-speech> 
[472.575]
<hes> oː <oov> oː t a vj æː s nj ɛ sj ɪ vj ɛ ʒ a 
[474.885]
<no-speech> 
[477.525]
t a vj æː s nj ɛ sj ɪ vj ɛ ʒ a 
[478.825]
<no-speech> 
[480.715]
m ɣ m 
[481.325]
<no-speech> 
[485.335]
ɡ a ɫ v ɑː n ʊ ɔ b ʊ rj zj gj ɪ m oː j oː 
[487.165]
<no-speech> 
[488.875]

[489.565]
<no-speech> 
[493.495]
m ɣ m 
[494.335]
<no-speech> 
[505.435]
a ʃ d a b a r iː k a ɫ v a rj ɪ j ɑː nj ɛ ɪ n ʊ a ʃ tj ɪ k iː m a rj ɪ j a m p ɔ lj æː v a ʒj ʊ ɔ j ʊ m a n k a ɫ v a rj ɪ j ɔ j nj ɛ p a tj ɪ k oː t a s tj rj ɛ ʧj a a mj ʒj ɪ nj iː k a ɪ <breath> p oː m a rj ɪ j a m p ɔ lj æː k a ɪ p v a ʒj ɑː v ɔ m t a ɪ p ɪ r v a ʒj ʊ ɔ j a m d a b a r 
[514.115]
<no-speech> 
[515.215]
k a d ʧj a ʒj ɪ n oː k nj ɛ ʒj ɪ n a ʊ 
[516.965]
<no-speech> 
[518.135]
<breath> t a v oː a ʊ k lj eː t oː j a n ʊ sj æː n oː ɪ r iː m a rj ɪ j a m p ɔ lj æː j a ʊ nj ɛ v a ʒj ʊ ɔ j a j ɪ n a ɪ pj ɛ r n a ɪ j a ʊ nj ɛ v a ʒj ɑː v oː ʒj ɪ n oː k iː m a rj ɪ j a m p ɔ lj æː j a ʊ j ɪ n a ɪ s ɑː kj eː sj æː n a a ʃ 
[526.065]
<no-speech> 
[527.835]
nj ɛ ʒj ɪ n oː k <oov> p r ɑː s t a ɪ j a ɪ s ʊ sj vj ɛ ɪ k ɑː t a ʒj ɪ n oː k n ʊ ɡ r ɑː ʒj a ɪ bj ɛ t <breath> n ʊ ʒj ɪ n oː k j a ʊ j a ɪ vj ɪ r ʃ sj ɛ pj tj iː nj a zj dj æː ʃj ɪ m t pj ɛ nj kj uː 
[537.765]
<no-speech> 
[539.715]
n ʊ t a ɪ gj ɪ j oː s r uː t a <breath> d ʊ k r a t a ɪ b ʊ v oː m ɑː n oː k ɫ a sj oː kj eː n ʊ t a ɪ p a ɡ a ɫ v oː k kj ɪ e k t a v oː mj æː t a ɪ mj æː t uː b ʊ v oː m ɑː m a ɪ n ʊ t a ɪ <breath> j ɪ n a ɪ ɪ r nj ɛ ɡ ɑː lj ɪ b uː t <breath> j a ʊ n a 
[549.565]
<no-speech> 
[555.245]
nj ɛ bj ɛ t ʒj ɪ n oː k j a ʊ bj ɪ sj kj iː 
[556.695]
<no-speech> 
[558.765]
a b ʊ d ʊ 
[559.525]
<no-speech> 
[561.285]
<breath> ɪ r ʒj ɪ n oː k j ɑː j ɑː nj ɛ ɫ a b a ɪ pj ɛ ʧj ʊ lj ɪ s lj ɛ ɪ ʤj a ʒj ɪ n oː k vj ɪ e n n ʊ ɔ b ʊ mj bj eː j ɪ m oː tj ɛ n 
[565.365]
<no-speech> 
[566.395]
t a ɪ ɡ a ɫ nj ɛ tj ɪ e k p a tj ɪ k a d nj ɛ v a ʒj ʊ ɔ j a k a d nj ɛ p a j eː gj a bj ɛ t kj ɪ e k dj ɪ e d a s nj ɛ lj ɛ ɪ ʤj a 
[570.745]
<no-speech> 
[572.185]
p ɑː vj iː d a s sj ɛ n ɑː tj vj eː j a tj sj ɪ r ɑː d oː 
[573.975]
<no-speech> 
[575.295]
j oː 
[575.975]
<no-speech> 
[580.515]
p a ɫ a oː k ʊ r a ʃ m a ʧj a ʊ p a ʦj æː vj ɪ ʧj ɪ e nj æː a n ɑː sj iː k k a d j a ʊ vj ɪ s a ɪ ʊ ʃ p a k a lj ɪ s a tj sj ɪ kj ɪ ʃj æː s ɪ rj gj ɪ 
[584.685]
<no-speech> 
[593.098]
<no-speech> 
[601.512]
