[0.000]
<no-speech> 
[9.755]
s ɫ ʊ x a m <oov> 
[10.945]
<no-speech> 
[13.665]
z d a r ɔ v a n ʊ k a ɪ p 
[14.965]
<no-speech> 
[22.805]
<laugh> <foreign> t a ɪ k ɑː ɡ a ɫ v oː j ɪ k ɑː p ɫ a n ʊ ɔ j ɪ 
[28.365]
<no-speech> 
[30.155]
a ʃ f r ɔ nj tj ɛ ʃj ʊ ɔ m ɔ mj ɛ n t ʊ 
[32.045]
<no-speech> 
[36.985]
t a ɪ <sta> a ɪ ʃ k ʊ 
[38.225]
<no-speech> 
[42.955]
<sta> a j oː 
[44.755]
<no-speech> 
[46.145]
<sta> a j oː <no-speech> <foreign> mj ɪ nj dj ɛ 
[50.395]

[54.665]
n ʊ t a ɪ k a ʃ k ɑː t a ɪ ɡ a lj eː j a ɪ a tj ɪ dj eː t ɪ ʃ t uː rj ɛ ɪ k a ɫ uː 
[57.365]
<no-speech> 
[60.115]
<breath> <sta> a r nj ɛ ɫ a b a ɪ ɛ ɪ n a <no-speech> 
[62.795]
<no-speech> 
[63.855]
j oː <sta> <oov> j oː j oː iː sj ɪ d a rj bj ɪ n oː bj ɛ t ʒj ɪ n a ɪ tj ɛ n t oː k s a ɪ t a s iː sj ɪ d a rj bj ɪ nj ɪ m a s <breath> vj ɪ e n ɑː dj ɪ e n ɑː n ʊ eː j oː iː d a r b ɑː <breath> kj ɪ t ɑː dj ɪ e n ɑː j a m s k a mj bj ɪ n a ɪ ʃ t oː d a r b oː j ɪ s ɪ ʃj j ʊ nj gj æː s tj ɛ lj ɛ f ɔ n ɑː p oː s a v a ɪ tj eː s ɡ a lj a ʊ sj a ɪ p a s k a mj bj ɪ n oː s ɑː k oː ɛ ɪ k t ʊ n ɑː x ʊ i s ʊ s a v oː d a r b ʊ <foreign> <laugh> t a ɪ v a t oː kj ɪ e 
[84.565]
<no-speech> 
[86.065]
ɔ ɪ ɔ ɪ a tj sj ɪ p r a ʃ a ʊ a tj sj ɪ p r a ʃ a ʊ 
[88.235]
<no-speech> 
[92.895]

[93.855]
<no-speech> 
[95.555]

[98.105]

[99.345]
t a ɪ t a ɪ p t a ɪ ʃj oː k s t oː k s <sta> ʃj eː t oː n a s ʒj ɪ n a ɪ 
[101.635]
<no-speech> 
[103.455]
t a ɪ v a t a ɪ p j ɪ s a ɪ <overlap> 
[105.065]
<no-speech> 
[106.035]
<sta> a ɪ <oov> <oov> bj ɪ r ʒ uː pj ɪ lj ɪ e s t oː kj iː n ʊ sj ɪ pj ɪ r k a ʊ ʒj ɪ n a ɪ <breath> b ʊ v a ʊ <oov> bj ɪ r ʒ ʊ ɔ sj ɛ ɡ a ɫ v oː j ʊ rj ɛ ɪ k 
[113.245]
<no-speech> 
[114.365]

[114.925]

[116.975]
a ɪ dj ɪ dj ɛ lj ɪ s ɡ ʊ rj k ʃj nj ɪ s ɪ r ʊ ʒ t a vj ɛ a r nj ɛ 
[119.465]
<no-speech> 
[120.735]
n ʊ d a b a r <sta> k ɫ a ʊ sj iː k 
[122.105]
<breath> <no-speech> 
[126.485]
n ʊ t a ɪ a ʃ s ʊ p r a t a ʊ <breath> t a ɪ d a b a r v a d a r a ʊ ʊ ʒ t a vj ɛ ɪ r ʊ ʒ s a vj ɛ k ɫ a ʊ sj iː k 
[130.605]
<no-speech> 
[136.705]
<sta> <breath> <no-speech> n ʊ <foreign> p a r oː dj iː k k a s tj ɛ n gj æː r oː ɡ r oː j a 
[140.985]
<no-speech> 
[145.875]
oː oː oː 
[146.845]
<no-speech> 
[148.335]
a <oov> 
[149.095]
<no-speech> 
[151.305]
<sta> s ʊ <no-speech> j ʊ n k <oov> j ʊ n k ɡ a ɫ 
[155.225]

[156.295]
m 
[156.795]
<no-speech> <breath> 
[163.370]
<no-speech> <int> <no-speech> 
[169.945]
<sta> oː m a n a t r oː d oː t a ʊ j iː rj ɛ ɪ kj eː t uː mj ɛ s t d a b a r v a ʒj ʊ ɔ j a n t p r oː ɫ a n ɡ ɑː 
[173.155]
<no-speech> 
[175.495]
<sta> <laugh> 
[181.265]
<no-speech> 
[186.385]
nj ɛ n ʊ t a ɪ <sta> <no-speech> 
[188.775]
<no-speech> 
[189.875]
t a d a ɡ a lj eː sj ʊ <foreign> k oː kj a s <sta> b oː b a s 
[192.075]
<no-speech> 
[193.005]

[193.385]
<no-speech> 
[200.225]
ɪ r k a ɪ p 
[201.035]
<no-speech> 
[207.635]
a j ɔ p ʃ v a ɪ t oː t a ɪ sj ɛ k m ɑː dj ɪ e nj iː ɡ rj iː ʃj tj ɪ a r k a d a 
[210.235]
<no-speech> 
[217.810]
<no-speech> 
[225.385]
a 
[225.815]
<no-speech> 
[233.600]
<no-speech> 
[241.385]
a a t a ɪ t a vj ɛ rj ɛ ɪ kj a k a d k a ʃ k a s n ʊ vj ɛ ʃ t uː a r nj ɛ 
[243.835]
<no-speech> 
[252.545]
<no-speech> 
[261.255]
a ɪ <foreign> t a ɪ ʧj a <sta> ʒj ɪ n <no-speech> gj ɪ rj ʤj ʊ gj ɪ rj ʤj ʊ bj ɪ ʃj kj iː k a ʃ k a ɪ p ʒj ɪ n a ɪ k a ɪ p a ʃ t a ʊ p a s a k a ʊ bj ɪ ʃj kj iː b uː n a ʊ ʒ ɫ ɑː gj ɪ n a t a ɪ p ʒj ɪ n a ɪ n ʊ tj ɪ p oː k a ɪ p ɪ r <lipsmack> gj ɪ rj dj ɪ t ʊ m a nj ɛ ʒj ɪ n a ɪ bj ɛ t p oː t oː k a ʃ k a ɪ p n ʊ nj ɛ ʒj ɪ n a ʊ t oː k s k a ɪ p ɫ ɑː ɡ a s ɛ ɪ n a <int> 
[275.105]
<no-speech> 
[278.815]
a a t a ɪ n ʊ ʒj ɪ n a ɪ gj ɪ fj ɛ dj ɛ r ɑː ʦj ɪ j a ɪ pj rj ɪ k ɫ a ʊ s a ʊ p oː lj ɪ ʦj ɪ j oː s rj eː mj eː j uː 
[282.805]
<no-speech> 
[284.215]
<no-speech> 
[285.195]
<no-speech> 
[288.895]
n ʊ a ɪ ʃ k ʊ a tj sj ɪ mj ɛ n ʊ a tj sj ɪ mj ɛ nj ɪ p a v a rj iː d a v a ʊ 
[292.075]
<no-speech> 
[293.645]
ɪ r dj æː ʃj ɪ m t nj ɛ ɪ vj ɪ e n oː s vj ɛ ɪ k ɫ oː s <laugh> 
[298.595]
<no-speech> 
[300.665]
<no-speech> 
[301.625]
<no-speech> 
[303.885]
<int> 
[304.505]
<int> <no-speech> <int> 
[308.195]
<sta> oː t ʊ a tj sj ɪ mj ɛ nj ɪ k a ɪ p s ʊ mj ɛ n t ɔ v s k ɔ m <no-speech> k a ɪ p s ʊ mj ɛ n t ɔ v s k ɔ m a p r a n ɡ ɔ m v a ɪ k ʃj ʧj oː j ɔ m p oː rj oː mj ɛ rj iː 
[315.275]
<no-speech> 
[317.175]
k a ɪ tj ɪ k ɪ ʒ d a vj ɛ ɪ 
[318.115]

[319.325]
<no-speech> 
[321.055]
<no-speech> 
[329.305]
j oː j oː <int> 
[330.065]
<no-speech> 
[331.595]
a tj sj ɪ mj ɛ n ʊ ɪ r k ɑː mj ɛ s d a r tj ɛ n <breath> s ʊ tj ɪ k ɔ m t a s dj vj ɪ ɡ r a ʒ ʊ ɔ lj ɛ s 
[337.115]
<no-speech> 
[338.535]
k ɑː 
[339.195]
<no-speech> 
[340.105]

[341.505]
<no-speech> 
[343.185]
ʒ ʊ vj iː ɪ r k ʊ b ɑː 
[344.615]
<no-speech> 
[345.775]
a a <laugh> t a ɪ dj eː ɫ ɪ r a tj sj ɪ mj ɛ nj ɪ bj ɛ t k a ɪ ʒ ʊ vj iː ɪ r k ʊ b ɑː s ʊ tj ɪ k ɔ m t a d a a tj sj ɪ mj ɛ n ʊ b ʊ v oː j ʊ m ɔ r oː ʃ ɔ ʊ <laugh> 
[354.125]
<no-speech> 
[356.515]
<no-speech> 
[357.865]
<no-speech> 
[361.435]
<sta> j oː 
[362.985]
<no-speech> 
[369.935]
n ʊ t a ɪ t ʊ rj eː t uː bj ɛ n t bj ɛ n t t a ɪ p a tj sj ɪ lj iː gj ɪ n t m a nj iː ʧj a ʊ 
[373.125]
<no-speech> 
[381.455]
t a ɪ v a k a d iː r a t uː mj ɛ r ɡ uː d a b a r n a ʊ j a t oː kj a ɡ a bj rj ɪ e lj eː 
[385.015]
<no-speech> 
[385.865]
k a r ɔ ʧj ɛ ɪ ʃ b a ɫ t ʊ pj kj eː s m ɣ m sj æː n a p a ʒj iː s t a m a k a r ɔ ʧj ɛ iː sj ɪ v a ɪ z d ʊ ɔ k <int> nj ɛ nj ɛ t a vj æː s nj ɛ p a ʒj iː s t a <breath> bj ɛ t t oː kj a ʒj a ʊ rj a ɪ ʒj a ʊ rj a ɪ 
[396.865]
ʒj a ʊ rj a ɪ ɡ r a ʒj ɪ p a nj æː lj eː p a nj æː lj eː <breath> t a ɪ k a r ɔ ʧj ɛ <int> 
[401.975]
<no-speech> 
[404.575]
t a ɪ ʧj a p a s m a nj ɛ pj iː pj tj ɛ lj eː j oː 
[405.705]
<no-speech> 
[406.995]
j oː j oː j oː t a a tj sj ɪ mj ɛ nj ɪ t a d a k a ɪ pj rj ɪ e k a zj ʊ k oː vj ɛ ʒj a ʊ j oː j oː j oː <breath> t a ɪ a ʃ d a b a r j a ʊ s ʊ j a kj ɪ e k vj ɪ e n ɑː kj ɪ e k vj ɪ e n ɑː s a v a ɪ d ɡ a lj iː t a ɪ p 
[413.895]
<no-speech> 
[419.425]
t a ɪ t a ɪ p a ʃ nj ɛ t p a ɫ a ʊ k ʊ ʒ v ɑː k a r 
[421.595]
<no-speech> 
[423.095]
t a ɪ p t a ɪ p t a ɪ p t a ɪ p d a b a r d a r <no-speech> b ʊ v a ʊ t a ɪ nj ɛ vj ɪ e n ɑː k a r t ɑː a ʃ s ʊ j a k ɫ ʊ bj ɛ k a r t ʊ b ʊ v a ʊ k a r ɔ ʧj ɛ <breath> ʊ ʒ v ɑː k a r ʧj a b ʊ v a ʊ s ʊ sj ɪ tj ɪ kj æː s j ɪ n a ɪ s ɑː k oː v ɑː r ɔ m iː k ɫ ʊ b ɑː ʒj ɪ n a ɪ <foreign> oː p a s m a nj ɛ ʒj ɪ n a ɪ s ʊ a rj ɛ n d a nj ɛ t n ʊ 
[434.865]
nj ɛ nj ɛ pj iː r ɑː ɡ a ɪ ʒj ɪ n a ɪ <breath> s a k a ʊ <foreign> nj ɛ ɫ a b a ɪ s a k a ʊ n ʊ k ɑː a ʃ tj ɛ n v a rj iː sj ʊ ʒj ɪ n a ɪ 
[439.155]
<no-speech> 
[440.255]
t a ɪ vj ɪ e n ʊ ʒ oː ʤj ʊ <foreign> <int> tj ɛ n t a ɪ p ɪ r t a ɪ p <breath> k a r ɔ ʧj ɛ tj ɛ n s ʊ j a vj ɪ s a ɪ iː d oː mj a ɪ k ɔ n s t r ʊ ɔ j a sj ɪ bj ɛ t j ɪ n a ɪ p oː <foreign> n oː rj ɪ k a d tj ɛ n tj ɪ p oː d r a ʊ ɡ a ʊ t tj ɛ n d a r ʒj ɪ n a ɪ k a ʃ k ɑː oː k a r ɔ ʧj ɛ ɡ a ɫ v oː j ʊ ʒj ɪ n a ɪ k ɑː 
[451.585]
<breath> a ʃ t ʊ rj ʊ t oː kj iː d a r n ʊ ɔ sj ɛ n uː <sta> ɫ a ɪ k uː n ʊ k a ɪ p n ʊ ɔ sj ɛ n uː ɫ a ɪ k uː <breath> n ʊ ɔ p r a ɛ ɪ t uː mj æː t uː m a n p a d oː v a n oː j oː bj ɛ t j ɪ n a ɪ mj æː t ʊ s ɫ a ɪ k oː ɡ a lj oː j a d oː v a n a t oː kj a k a r ɔ ʧj ɛ tj ɛ n a ɪ <hes> ʒj vj æː j oː 
[463.265]
pj ɪ rj kj oː j ɛ tj ɛ n ʊ ʒ t r ɑː k uː r a j ɔ n oː <int> k a r ɔ ʧj ɛ pj ɪ rj tj ɪ s vj ɪ sj ɪ ʃj ɪ tj ɪ e n a v a r ɔ t a ɪ <sta> ɪ r k a r ɔ ʧj ɛ tj ɛ n tj ɪ p oː dj vj ɪ e m ʒ m oː nj eː m p a b uː t p ɑː r a ɪ tj ɪ p oː <breath> tj ɛ n k a r ɔ ʧj ɛ pj ɪ rj tj ɪ s ʤ a k ʊ zj ɪ p oː t oː t a s <breath> k ʊ bj ɪ ɫ a s ɪ r k a r ɔ ʧj ɛ a ʃ ʧj a ɡ a ɫ v oː j ʊ k a ɪ p j ɑː ʧj a t a ɪ p p a sj ɪ k vj ɪ e s t ʒj ɪ n a ɪ nj ɛ s j ɪ n a ɪ m a n t a ɪ p s ɑː k oː <foreign> s ɑː k oː n ɑː x ʊ i t a s k ɫ ʊ b a s b uː t uː j ɛ ɪ ɡ ʊ b uː t uː k oː k s p ɫ oː t a s <sta> <breath> <foreign> a ʃ ɡ a ɫ v oː j ʊ 
[486.925]
<sta> k ʊ r a ʃ t a ʊ d a b a r s ʊ r a sj ʊ t ɑː p ɫ oː t ɑː 
[488.845]

[490.095]
iː vj ɪ e ʒ b ʊ tj iː ʒj ɪ n a ɪ <int> oː k ʊ r v a <breath> k a r ɔ ʧj ɛ ɡ a ɫ v oː j ʊ iː vj ɪ e ʒ b ʊ tj iː s a kj iː t v ɑː r ɔ m t a ɪ ʧj a ʒj ɪ n a ɪ k a ʃ k a ɪ p ɡ ɑː lj ɪ p a ɡ a ɫ v oː t k a d ʧj a n ʊ <sta> n ɑː x ʊ i oː t a ɪ p n ʊ nj ɛ ɪ tj ɪ n m a n d a ɡ ʊ b uː t uː 
[501.585]
<no-speech> 
[502.435]
<sta> t a ɪ v a t ɡ a ɫ v oː j ʊ ʒj ɪ n a ɪ k a ɪ p ʧj a <no-speech> 
[504.895]

[507.775]

[508.245]
d a r n ʊ <foreign> 
[510.105]
<sta> t a ɪ v a t a ɪ a ʃ t ɑː ɪ r s ʊ p r a n t ʊ k a d j ɪ n oː rj ɪ a ʃ ɡ a ɫ v oː j ʊ tj ɪ k t a ɪ k ʊ r j ɑː ʧj a ʒj ɪ n a ɪ <breath> n ʊ sj ɪ vj ɛ ʃ t p oː t oː ɡ a ɫ v oː j a ʊ 
[515.565]
<no-speech> 
[520.405]
<no-speech> 
[521.965]
<no-speech> 
[522.935]
<sta> a ʃ t a ɪ p ɪ r ɡ a ɫ v oː j a ʊ k a d ʧj a <no-speech> oː j ɪ t oː kj a ʒj ɪ n a ɪ tj ɪ k r a ɪ ɡ r a ʒj ɪ <foreign> t oː kj a tj ɪ k r a ɪ ɡ rj a ʊ n a m a <breath> s ʊ sj ɪ tj ɪ k sj ɪ m k a d a n ʊ ɔ t r a ʊ kj iː tj ɛ s p a r oː dj iː sj ʊ 
[533.125]
<no-speech> 
[537.355]

[537.745]

[542.925]
<sta> <laugh> n ʊ n ʊ n ʊ t a ɪ ʒj ɪ n a ɪ n ʊ ʧj a <no-speech> k a s t oː kj oː b ʊ v oː 
[549.405]
<no-speech> 
[551.435]
nj ɛ ɪ ʒj gj ɪ r d a ʊ <int> 
[552.475]
<no-speech> 
[554.125]
<sta> a ɪ nj ɛ ʧj a nj ɛ nj ɛ p a s nj ɛ p a nj ɛ nj ɛ nj ɛ p a s p a ʊ ʤj a ʊ <breath> ʧj a t ʊ r b uː t mj ɛ s k a ʃ k a s n ʊ ɛ ɪ n a p a s t a vj ɛ ɡ a ɫ s ɑː s k a ɪ t a a r k a s tj ɛ n pj ɛ r bj iː bj ɪ s ʒj ɪ n a ɪ k a ɪ p tj ɛ n b uː n a tj ɛ n t oː kj uː ɪ r t oː kj uː ɪ s t ɔ rj ɪ j uː tj ɛ n t ʊ rj eː t uː t a ʊ ʒj ɪ n a ɪ k a ʃ k a s 
[566.115]
<no-speech> 
[568.705]
n ʊ t a ɪ a ʃ 
[569.645]
<no-speech> 
[572.235]

[572.625]
<no-speech> 
[574.515]
n ʊ t a ɪ tj ɪ kj eː kj ɪ mj eː s k a d n ɔ r m a ɫ ʊ s p ɫ ɑː n a s 
[576.685]
<no-speech> 
[578.625]
t a ɪ v a t ʒj ɪ n a ɪ p a ʒj uː rj eː sj ɪ m k a ɪ p s ʊ t a <oov> s ʊ t a <oov> 
[581.205]
<no-speech> 
[582.295]

[582.695]
<no-speech> 
[583.635]
s ʊ t a ɪ <oov> s a k a ʊ ʒj uː rj eː sj ɪ m k a ɪ p tj ɛ n s ʊ t a ɡ a bj rj ɪ e lj ɛ <int> k a ɪ p 
[587.515]
<no-speech> 
[588.505]
n ʊ t a ɪ p m ɔ mj ɛ n t a ɪ s k a ɪ p ɪ r ʒj ɪ n a ɪ k oː kj iː n ɔ r s bj iː bj iː ʒj ɪ n a ʊ ʊ ɔ s t oː k a ʃ k oː kj a m mj ɪ ʃj kj ɛ a r d a r k a ʃ k oː k s bj iː bj ɪ s ɡ a ɪ dj iː s 
[595.615]
<no-speech> 
[600.200]
