[0.000]
<no-speech> 
[4.315]
<no-speech> 
[4.675]
<no-speech> 
[8.115]
<lipsmack> j uː s <oov> <oov> s ʊ rj ɪ n k oː t a r k ɑː k ɑː s ɑː kj eː t ɫ a ʊ k t <sta> <no-speech> a ɪ ʃ k ʊ 
[15.215]
<no-speech> 
[16.315]
<no-speech> 
[17.965]
<no-speech> 
[20.795]
<sta> <breath> a ɪ sj vj ɛ ɪ k ʊ tj eː <no-speech> a r gj ɪ rj dj ɪ n ʊ t a ɪ k ʊ r r a nj dj ɪ e sj ɪ d a b a r 
[29.695]
<no-speech> 
[31.455]
<click> kj ɛ ɪ s t a ɪ a r nj ɛ 
[32.495]
<no-speech> 
[34.095]
<sta> <breath> t ʊ d a r v a ʒj ɪ nj eː j ɪ a r gj ɪ rj dj ɪ 
[37.495]
<no-speech> 
[39.105]
k a ɪ p <no-speech> gj ɪ rj dj ɪ <breath> n ʊ t a ɪ <oov> <breath> k ɑː vj ɛ ɪ kj a m 
[44.255]
<no-speech> 
[49.535]
<sta> <no-speech> vj ɪ s k a s a ɪ ʃ k ʊ n ʊ ɪ r k ɑː pj ɪ rj k sj ɪ m 
[53.785]
<no-speech> 
[59.625]
<sta> <breath> vj ɪ s k a s a ɪ ʃ k ʊ a ʃ t a ɪ ʒj ɪ n a ɪ k ɑː n ʊ sj ɪ pj ɪ r k a ʊ ʒ ʊ r n ɑː ɫ ɑː ɪ r vj ɪ e n ʊ ʒ oː ʤj ʊ r a d a ʊ ɫ a b a ɪ ʃj ɪ t ɑː n ʊ vj ɪ e n ɑː ʃj ɪ t ɑː f a ɪ n ɑː ʃj ɪ t ɑː ʃj ɪ t ɑː rj ɛ ʦj ɛ p t ɑː <lipsmack> ʃj ɪ t ɑː <oov> ʒ ʊ vj iː t ʊ t a d a k a ɪ m a n s a kj ɛ ɪ iː d a rj ɪ nj eː j a ɪ ʃj ɪ t ɑː ʒ ʊ vj iː a r nj ɛ s vj ɪ ʃ t ɑː t a ɪ gj ɪ mj ɛ s d a rj ɪ nj eː j ɔ m oː ʃj ɪ t ɑː t ʊ ʒ ʊ vj iː <breath> d a rj ɛ ɪ k a lj eː d ɔ m k a d a 
[80.195]
<no-speech> 
[86.235]
m ɣ m <breath> oː t a ɪ k oː kj ɑː t ʊ ʒ ʊ vj iː f a rj ʃj ɪ r a v a ɪ 
[89.095]
<no-speech> 
[92.025]
<sta> <breath> m ɣ m ʃj ɪ t ɑː oː t a ɪ k ɫ a ʊ sj iː k oː t ʊ tj ɛ vj ɪ s k a s tj ɛ n lj ɛ n ɡ v a ɪ n ʊ sj ɪ ɫ ʊ p oː 
[98.315]
<no-speech> 
[99.735]
n ʊ p a ʒj uː rj eː s k a ʃ k a s k ʊ r ɑː 
[102.035]
<no-speech> 
[103.305]
<no-speech> 
[104.175]
<no-speech> 
[107.285]
<no-speech> 
[108.935]
<no-speech> 
[110.135]
<sta> bj ɛ t t ʊ vj ɪ e n ʊ ʒ oː ʤj ʊ mj eː s ɑː a tj sj kj iː rj ɛ ɪ ɪ r kj ɪ ʃ a ɪ tj ɪ k t a ɪ f a r ʃ ɑː a r ʃj ɪ t ɑː n ʊ ʃj ɪ t ɑː ʃj ɪ t ɑː n ʊ s ʊ k a ʊ ɫ a ɪ s ʃj ɪ t ɑː d a rj ɛ ɪ bj ɛ bj ɛ k a ʊ ɫ uː a r nj ɛ 
[118.255]
<no-speech> 
[122.965]
<no-speech> 
[125.055]
<no-speech> 
[126.105]
<no-speech> 
[126.825]
<no-speech> 
[130.485]
m ɣ m m ɣ m 
[131.795]
<no-speech> 
[134.685]
<no-speech> 
[135.525]
<no-speech> 
[139.605]
a ʧj a d a b a r v a t a ɪ k a lj eː d ɔ m t a ɪ nj ɛ tj ɪ k s ʃj ɪ t a ʃ oː nj ɪ nj eː nj ɛ ɡ ɑː lj ɪ m a rj ɛ ɪ kj a tj ɪ k t a ɪ ʒ ʊ vj iː ʃj ɪ t ɑː dj eː tj ɪ 
[145.295]
<no-speech> 
[148.635]
j oː j oː j oː j oː j oː 
[151.275]
<no-speech> 
[155.535]
<no-speech> 
[155.915]
<no-speech> 
[156.945]
<no-speech> nj ɛ gj ɪ pj ɛ r k uː ʧj a s vj ɪ sj ɪ ʒj ɪ n a ɪ t a ɪ ɡ a ɫ v oː j a m p oː k a m p oː ʃj ɪ t ɑː <breath> ɪ r ʒj ɪ n a ɪ k oː kj iː ɫ a b a ɪ ʃj ɪ t ɑː r a d a ʊ ʒj ɪ n oː k k nj iː ɡ ʊ tj eː j ɫ a b a ɪ iː d oː m uː s ʊ p r a nj tj ɪ 
[168.775]
<breath> tj ɪ p oː ʃj ɪ t ɑː vj iː nj oː tj ɪ nj iː ʒ ʊ vj ɪ e s dj æː d a sj ɪ s k a ɪ t oː sj ɪ ʃj ɪ t ɑː n ʊ ʃj ɪ t ɑː ʃj ɪ t ɑː ʒ ɑː lj a s s ɫ ʊ ɔ k sj nj ɪ s ɪ r vj ɪ d ʊ i ɫ a ʃj ɪ ʃ a ʒj ɪ n oː k n ʊ ʃj ɪ t ɑː ʒ ɑː lj a s ʊ r a ʊ d oː n a n ʊ ʒj ɪ n oː k n ʊ <foreign> k a ɪ p ʒj ɪ n oː k ʃj ɪ t ɑː n ʊ ʃj ɪ t ɑː f a ɪ nj a ɪ s ʊ p r a nj tj ɪ v a t <oov> 
[180.595]
<breath> n ʊ k uː ʧj ɔ m a r vj ɪ ʃ t a a r ʃj ɪ t ɑː ʃj ɪ t ɑː ʒ ʊ vj ɪ s ɫ a b a ɪ ʒj ɪ n oː k ʃj ɪ t ɑː tj ɪ n k a j ɛ ɪ ɡ ʊ n oː rj eː sj ɪ t a ɪ ʒj ɪ n oː k ʃj ɪ t ɑː ɡ a lj eː sj ʊ a ʃ t a ʊ d ʊ ɔ t k ʊ r t ʊ ʃj ɪ t ɑː k uː ʧj a s ʃj vj æː sj ɪ 
[189.415]
<no-speech> 
[192.035]
<no-speech> 
[192.385]
<no-speech> 
[193.235]
s ʊ s a v oː ʃj ɛ ɪ m a tj ɪ k t a ɪ <int> 
[195.605]
<no-speech> 
[197.855]
<no-speech> 
[198.785]
<no-speech> 
[204.935]
vj ɪ s k a s a ɪ ʃ k ʊ ʃj ɪ t ɑː n ʊ 
[206.895]
<no-speech> 
[210.005]
<no-speech> 
[210.535]
<no-speech> 
[213.275]
k ɫ a ʊ sj iː k d a ɪ v a oː t ʊ ʃj ɪ t ɑː ʃj ɪ t ɑː k ʊ r t ʊ ʃj ɪ t ɑː p ɫ oː tj kj ɛ lj ɛ s ʃj ɪ t ɑː n ʊ ʃj ɪ t ɑː t ʊ ɡ a ɫ j a ʊ n ʊ sj ɪ pj ɪ r k ʊ s 
[217.925]
<no-speech> 
[226.485]
<no-speech> 
[235.045]
<breath> oː oː t ʊ ɡ ɑː lj ɪ p a p r a ʃj iː t k a d ɪ r m a n p a ɪ m t uː 
[237.955]
<no-speech> 
[240.085]
<laugh> <breath> n ʊ t a ɪ m a n <click> ʃj ɪ t ɑː tj rj ɪ s p a ɪ m k gj ɛ r a ɪ oː t ʊ k ɑː t ʊ p a p r a ʃj iː sj ɪ p a s ʃj ɪ t ɑː n ʊ ʃj ɪ t ɑː m a n 
[249.315]
<no-speech> 
[250.125]
<click> vj ɪ s k a s a ɪ ʃ k ʊ oː t a ɪ <oov> oː t a ɪ ʃj ɪ t ɑː k uː ʧj ʊ k ʊ s p a tj ɪ ʃj ɪ t ɑː kj ɛ pj sj ɪ a r ʃj ɪ t ɑː n ʊ <hes> a r ʃj ɪ t ɑː ɡ ɑː t a v ʊ s pj ɪ rj k sj ɪ 
[257.205]
<no-speech> 
[258.525]
<no-speech> 
[258.875]
<no-speech> 
[264.925]
m ɣ m 
[266.505]
<no-speech> 
[272.065]
<no-speech> 
[273.925]
<no-speech> 
[275.465]
<no-speech> 
[276.465]
<no-speech> 
[279.835]
<sta> m ɣ m <breath> n ʊ t a ɪ p t a ɪ p 
[287.425]
<no-speech> 
[288.685]
vj ɪ s k a s a ɪ ʃ k ʊ 
[291.275]
<no-speech> 
[292.495]
<no-speech> 
[292.845]
<no-speech> 
[296.375]
<sta> <breath> j oː j oː j oː ʒj ɪ n oː k a n t t oː k a n t oː a ʃ n ʊ sj ɪ pj ɪ r k a ʊ ʒj ɪ n a ɪ k nj iː ɡ ʊ tj æː t a ɪ a n t t oː k a n t oː ɪ rj gj ɪ r a d a ʊ t oː kj iː s ʊ p r a nj tj ɪ ɪ r iː d oː mj ɛ sj nj iː rj ɛ ʦj ɛ p t ɑː <breath> tj ɪ p oː s ʊ p r a nj tj ɪ ɪ ʃj kj ɛ pj ɪ b ʊ ʃj ɪ t ɑː b ʊ lj vj uː ʃj ɪ t ɑː n ʊ ʃj ɪ t ɑː rj ɪ e k ʊ tj eː s ʊ p r a nj tj ɪ a pj kj æː pj ɪ nj ɪ ʃj ɪ t ɑː n ʊ s ʊ pj j a ʊ s t a ɪ ʃj ɪ t ɑː n ʊ ʃj ɪ t ɑː n ʊ t ɑː b ʊ lj vj ɛ s ʒj ɪ n a ɪ n ʊ ɡ a ʊ t uː sj ɪ s t oː rj oː <breath> a pj kj æː pj ɪ nj ɪ <sta> <breath> oː t a d a ʃj ɪ t ɑː n ʊ ʃj ɪ t ɑː s ʊ m a lj ɪ ʃj ɪ t ɑː n ʊ ʃj ɪ t ɑː sj ɪ ɫ k ʊ tj æː 
[319.935]
s v oː ɡ uː nj ʊ k ɑː ʃj ɪ t ɑː n ʊ ʃj ɪ t ɑː ʃj ɪ t ɑː ɡ a ɫ k a ʃ k a ɪ p t a ɪ ɪ r s ʊ p r a nj tj ɪ ʃj ɪ t ɑː m a j ɔ nj ɛ z ɑː s ʊ m a ɪ ʃ a ɪ bj ɪ ʃj kj iː s ʊ ɡ a rj sj tj iː ʧj ɔ m <breath> p ɑː d a ʒ ɑː <lipsmack> ɪ r t a d a <oov> dj ɛ dj ɪ ʃj ɪ t ɑː n ʊ ʃj ɪ t ɑː sj ɪ ɫ k ʊ tj ɛ s n ʊ v a t oː k s ʒj ɪ n a ɪ vj ɪ e n a s ɪ ʃ iː d oː mj ɛ sj nj uː ʒj ɪ n a ɪ <breath> <lipsmack> <no-speech> nj ɛ s sj æː sj eː t a ɪ 
[334.925]
<no-speech> 
[339.225]
<sta> a a n ʊ t ʊ m ɑː t a ɪ j a ʊ ɫ a b a ɪ s ɑː ʒj ɪ nj ɪ n ɡ a ɪ ɫ a ɪ k a ɪ sj ɪ a ʃ t a ɪ d a r bj ɪ sj kj iː <breath> 
[345.745]
<no-speech> 
[347.305]
oː t a ɪ p a ɫ a ʊ k t a ɪ <sta> s ʊ t ʊ sj ɪ lj kj æː d a r a ɪ t a ɪ s ʊ k oː kj a ɪ s ɡ rj iː b a ɪ s a r nj ɛ 
[350.935]
<no-speech> 
[358.665]
m ɔ r k uː 
[359.445]
<no-speech> 
[365.925]
<no-speech> 
[372.405]
m ɣ m m ɣ m 
[373.745]
<no-speech> 
[374.725]
<no-speech> 
[375.375]
<no-speech> 
[379.655]
vj ɪ s k a s <breath> a ɪ ʃ k ʊ ʃj ɪ t ɑː 
[382.705]
<no-speech> 
[387.855]
<click> n ʊ p a s m a nj ɛ ʒj ɪ n oː k b ʊ s nj ɛ s a n t t oː k a n t oː ʒj ɪ n oː k a ʃ ʃj a nj dj ɪ e n ɪ ʒ b a nj ʤj a ʊ ʃj ɪ t ɑː n ʊ ʃj ɪ t ɑː <breath> k ɑː d a rj iː sj ʊ k a r ʃ t a m t a ɪ s ʊ p r a nj tj ɪ ʃj ɪ t ɑː t r oː ʃj kj ɪ nj iː ɡ rj ɪ e tj ɪ nj eː lj eː j ɪ r lj iː dj iː t a m s uː rj iː ʃj ɪ t ɑː n ʊ ʃj ɪ t ɑː <hes> lj iː dj æː k ɑː 
[399.585]
<breath> a n t t oː k a n t oː ʃj ɪ t ɑː d a r ʃj ɪ t ɑː dj æː d a sj ɪ <breath> n ʊ ʒj ɪ n oː k a n t t oː k a n t oː ʃj a nj dj ɪ e n ʒj ɪ n oː k p a b a nj ʤj a ʊ ʒj ɪ n oː k m a n p a tj ɪ k oː nj ɛ s v ɑː k a r ʃj ɪ t ɑː b ʊ v oː d a ɪ nj ʊ s s ʊ s a ʊ lj ʊ m p a s m a nj ɛ ʒj ɪ n a ɪ gj ɪ mj ɪ e ɡ oː j oː t a ɪ a n t t oː k a n t oː vj ɪ e n ʊ ʒ oː ʤj ʊ ɪ ʒ b a nj dj eː m ʃj ɪ t ɑː 
[410.885]
<breath> ʃj ɪ t ɑː <hes> p a kj ɛ pj ɪ <hes> p a ɪ ɫ ɡ oː dj iː nj oː a r nj ɛ ʃj ɪ t oː n ʊ dj iː nj oː m ɔ r k oː s ɪ r s v oː ɡ uː nj ʊ k oː ʃj ɪ t ɑː ʃj ɪ t ɑː p a kj æː pj ɪ nj ɪ pj ɛ nj kj a s mj ɪ n ʊ tj ɛ s t a d a 
[422.475]
ʃj ɪ t ɑː <hes> ʃj ɪ t ɑː iː pj ɪ lj ɪ lj iː dj iː t oː ʃj ɪ t ɑː <hes> s uː rj æː lj oː <breath> ɪ r iː pj ɪ lj ɪ ɡ rj ɪ e tj ɪ nj eː lj eː s s ʊ pj ɪ lj ɪ iː ɪ nj d ɑː <click> ʃj ɪ t ɑː s ʊ pj ɪ lj ɪ iː ɪ nj d ɑː ɪ r t a d a ʃj ɪ t ɑː n ʊ s ʊ dj ɛ dj ɪ ʃj ɪ t ɑː 
[433.935]
<sta> s ʊ vj iː nj oː j ɪ ʃj ɪ t ɑː n ʊ ʃj ɪ t ɑː s ʊ k tj ɪ n ʊ k ʊ s ʃj ɪ t ɑː lj iː dj æː k oː s ɪ r ʃj ɪ t ɑː ʃj ɪ t ɑː t a d a ʃj ɪ t ɑː dj ɛ dj ɪ iː ɔ r k a ɪ tj æː d ʊ ʃj ɪ m t a ɪ dj vj ɪ dj ɛ ʃj ɪ m t ɪ r <hes> ʃj ɪ t ɑː ʃj ɪ t ɑː dj vj ɪ dj ɛ ʃj ɪ m t mj ɪ n ʊ ʧj uː p a kj æː pj ɪ nj ɪ a ɪ ɪ r d a r ʃj ɪ t ɑː a n t vj ɪ r ʃ a ʊ s ʊ ʒj dj ɛ dj ɪ 
[445.905]
k rj ɛ vj ɛ ʧj uː <int> n ʊ ʒj ɪ n oː k ʒj ɪ n oː k s ʊ a lj vj iː d ʊ t oː kj iː bj ɪ ʃj kj iː k a ɪ p s ɑː k oː m a <breath> bj ɛ t ʒj ɪ n oː k n ʊ ʒj ɪ n oː k a t r oː d oː ʒj ɪ n oː k f a ɪ nj a ɪ ʒj ɪ n oː k ɪ r n ʊ 
[457.825]
ɫ a b a ɪ lj iː dj ɛ k a ʒj ɪ n oː k s k ɑː nj a ɪ n ʊ j ɪ n a ɪ vj ɪ s tj ɪ e k nj ɛ t oː kj a ʒj ɪ n a ɪ ʃj ɪ t ɑː k a ɪ p s ɑː k oː m a <breath> ʃj ɪ t ɑː n ʊ ʃj ɪ t ɑː gj ɛ r a s s k oː nj ɪ s <sta> 
[466.555]
<no-speech> 
[467.455]
<sta> <breath> a r t ʊ gj ɪ rj dj ɪ m a nj ɛ k ɑː 
[470.515]
<no-speech> 
[471.455]
<no-speech> 
[472.125]
<no-speech> 
[473.035]
oː k ɑː t ʊ <sta> k a r ʃ t a m d a rj iː sj ɪ <no-speech> oː k ɑː t ʊ d a rj iː sj ɪ k a r ʃ t a m 
[477.465]
<no-speech> 
[485.375]
<no-speech> 
[493.285]
<no-speech> 
[494.575]
<no-speech> 
[497.655]
oː <foreign> <breath> <lipsmack> oː t a ɪ ɪ ʃ k ʊ r ɡ a v a ɪ 
[501.505]
<no-speech> 
[506.825]
s ʊ p r a t a ʊ ʃj ɪ t ɑː <no-speech> m ɣ m 
[510.905]
<no-speech> 
[518.205]
<no-speech> 
[519.245]
<no-speech> 
[522.745]
<no-speech> 
[524.065]
<no-speech> 
[527.805]
m ɣ m m ɣ m 
[528.985]
<no-speech> 
[532.055]
<no-speech> 
[532.965]
<no-speech> 
[535.325]
<lipsmack> vj ɪ s k a s a ɪ ʃ k ʊ t a ɪ v a ɪ k a ɪ ʃj ɪ t ɑː n ʊ ʃj ɪ t ɑː ɡ rj iː ʒ oː 
[537.725]
<no-speech> 
[542.025]
<int> gj ɪ rj dj ɪ 
[545.185]
<no-speech> 
[546.565]
<no-speech> 
[548.225]
<no-speech> 
[550.265]
ʃj ɪ t ɑː <breath> <no-speech> a r gj ɪ rj dj ɪ m a nj ɛ 
[552.985]
<no-speech> 
[554.305]
d a ɪ v a <sta> <no-speech> n ʊ ʃj ɪ t ɑː ʃj ɪ t ɑː n ʊ s a k a ʊ t a vj ɪ ʃj kj ɪ s ʃj a nj dj ɪ e n ɡ rj iː ʒj æː s a r nj ɛ 
[560.015]
<no-speech> 
[562.685]
<sta> m ɑː n oː t a ɪ ʒj ɪ n oː k nj ɛ ɡ rj iː ʒ oː ʃj a nj dj ɪ e n ɪ ʃ k a ʊ n oː 
[565.805]
<no-speech> 
[566.895]
<oov> lj ɪ k oː vj ɪ lj nj ɔ n 
[568.515]
<no-speech> 
[569.385]
ʒ a dj eː j oː ʃj ɪ t ɑː n ʊ <breath> 
[572.735]
<no-speech> 
[574.465]
<breath> nj ɛ n ʊ t a ɪ p ɫ a n ɑː v oː ʃj iː ɡ rj iː ʃj tj ɪ bj ɛ bj ɛ t vj ɪ e n ʊ ʒ oː ʤj ʊ ʃj ɪ t ɑː p a sj ɪ kj ɛ ɪ tj eː p ɫ a n a ɪ nj ɛ s s ʊ p r a nj tj ɪ n ʊ sj pj rj ɛ nj dj eː k a d vj ɪ s dj eː ɫ t oː ʃj ɪ t ɑː n ʊ ʒj ɪ n a ɪ n ʊ gj ɪ p a s m a nj ɛ n ʊ ʃj iː k a r t ɑː sj vj ɛ ʧj uː t a ɪ ʃj ɪ t ɑː ɡ a ɫ v oː j ʊ a ɪ <lipsmack> 
[585.605]
<oov> nj ɛ nj ɛ v a ʒj ɑː v oː ʃj ɪ t ɑː s ɑː kj eː ʃj ɪ t ɑː m a n tj ɛ n ɡ r uː sj tj ɪ s s ʊ j ʊ mj ɪ s ʃj ɪ t ɑː a n t t oː k a n t oː ʒj ɪ n a ɪ <breath> t a ɪ p ɪ r ɪ ʃj eː j oː k a d ʃj ɪ t ɑː n ʊ bj ɪ ʃj kj iː tj ɛ n p a s d a n ɡ ʊ ɔ lj æː k a ɪ vj ɪ s ɑː ɫ a ɪ k ɑː m a ʒj a ʊ ʃj ɪ t ɑː s ʊ sj ɪ rj ɪ n k oː iː b ɑː lj uː t ɑː ʃj ɪ t ɑː sj vj ɛ ʧj uː t a ɪ vj ɪ e n ʊ ʒ oː ʤj ʊ ʃj ɪ t ɑː n ʊ nj ɛ nj ɛ nj ɛ pj rj ɪ rj ɛ ɪ kj eː ɪ r p a s m a nj ɛ 
[599.485]
<no-speech> 
[599.640]
