[0.000]
<no-speech> 
[2.415]
<no-speech> 
[6.055]
<no-speech> 
[7.205]
<no-speech> 
[8.045]
<no-speech> 
[9.395]
<no-speech> 
[13.695]
<no-speech> 
[18.395]
<no-speech> 
[18.755]
<no-speech> 
[20.215]
<no-speech> 
[20.565]
<no-speech> 
[21.425]
<no-speech> 
[31.975]
<no-speech> 
[33.025]
<no-speech> 
[38.315]
<no-speech> 
[39.265]
<no-speech> 
[39.665]
<no-speech> 
[40.575]
<no-speech> 
[42.295]
<no-speech> 
[43.305]
<no-speech> a lj oː <no-speech> 
[49.645]
<no-speech> 
[50.595]
<no-speech> a lj oː <no-speech> <int> 
[61.005]
<oov> n ʊ sj vj ɛ ɪ k s gj iː v a s <no-speech> sj vj ɛ ɪ k s n ʊ <oov> t a k a ɪ p bj ɛ gj iː v ʊ ɔ j ɪ 
[69.925]
<no-speech> 
[70.905]
<no-speech> 
[71.865]
<no-speech> 
[73.205]
a p oː bj ɪ ʃj kj ɪ <no-speech> n ʊ k a ɪ p k a ɪ p t a m a ʃj ɪ n a tj ɛ n <oov> bj ɛ bj ɛ s ʊ t v a rj kj eː ɑː n ɔ n tj ɛ n k ɑː 
[77.405]
<no-speech> 
[87.925]
m 
[88.495]
<no-speech> 
[98.475]
a a tj ɛ tj ɛ n <oov> nj ɪ e k oː nj ɛ ʒj ɪ n a ɪ t ʊ ɔ k a r t ʊ 
[100.865]
<no-speech> 
[103.665]
a a 
[104.185]
<no-speech> 
[105.975]
tj ɛ tj ɛ n nj ɪ e k oː t oː kj oː rj ɛ ɪ ʃj kj a s s ʊ sj ɪ t v a rj kj iː s 
[108.455]
<no-speech> 
[109.325]
v a <no-speech> ʃj a nj dj ɪ e n vj ɪ s a dj ɪ e n a t oː kj a lj iː j a nj tj ɪ b ʊ v oː <no-speech> 
[113.765]
<no-speech> 
[115.705]
<oov> <oov> k a ɪ p k a ɪ p tj ɛ n s k ʊ ɔ dj ɛ 
[117.865]
<no-speech> 
[129.675]
m 
[130.225]
<no-speech> 
[140.815]
n ʊ 
[141.445]
<no-speech> 
[142.685]
a ʃ ʃj ɪ ʃj a nj dj ɪ e n ɪ ʃ d a r b ɑː ɪ ʃj eː j a ʊ s ʊ d r a ʊ ɡ ʊ ʒj ɪ n oː k ɫ a ʊ k a ʊ <no-speech> ɫ a ʊ k a ʊ t ʊ ɔ ʃj ɪ t ɑː <no-speech> vj ɛ ɪ z a m ʒ m oː ɡ ʊ s <oov> s t ʊ mj a <no-speech> n ʊ ʃj ɛ dj æː ʃj ɪ m t mj æː t uː ʒ m oː ɡ ʊ s <hes> t a ʊ 
[153.825]
<breath> k a ɪ p t a s iː r a s ʊ b a r ʊ <foreign> <no-speech> s t ʊ mj a sj ɪ ʤj ɪ p ɑː 
[158.235]
<no-speech> 
[160.275]
s t ʊ mj a <no-speech> s a k a ʊ ɛ ɪ n ʊ p a dj eː sj ʊ p a s t ʊ m t ʒj ɪ n a ɪ <laugh> 
[165.395]
<no-speech> 
[167.235]
n ʊ p a p a dj eː j a ʊ p a s t ʊ m t s a k a ʊ k a s iː r a k a d nj ɛ nj ɛ v a ʒj ʊ ɔ j ɪ <no-speech> <hes> <oov> s ɑː k oː ɛ lj ɛ k t r ɔ nj ɪ k a s ʊ gj æː d oː 
[174.425]
<no-speech> 
[175.275]
s a k a ʊ a ʃ a ʊ t ɔ sj ɛ rj vj ɪ sj ɛ dj ɪ r b ʊ ʒj ɪ n a ɪ s a k a ʊ a ʃ t a ʊ ɡ a lj ʊ p a t v a rj kj iː t ɡ rj ɛ ɪ t a ɪ ʒj ɪ n a ɪ <no-speech> pj ɛ r vj ɪ e n ɑː mj ɪ n ʊ tj æː <laugh> 
[182.785]
<no-speech> 
[183.965]
<hes> ɪ r p a kj eː lj a ʊ k a p ɔ t ɑː ɪ r nj ɪ e k oː tj ɛ n nj ɛ s ʊ t v a rj kj iː sj ɪ ʒj ɪ n a ɪ 
[187.795]
<no-speech> 
[188.915]
p a sj kj a ʊ s ʊ ɡ a ɫ v oː j a ʊ <no-speech> <hes> t a s <hes> k lj æː m a s k lj æː m a s p a <no-speech> p a tj ɪ k rj ɪ n a ʊ ɪ r vj ɪ e n ɑː k lj ɛ m ɑː 
[195.495]
<no-speech> 
[197.935]
a tj sj ɪ j ʊ n ɡ ʊ s 
[199.405]
<no-speech> 
[204.365]
n ʊ bj ɪ ʃj kj ɪ p a k a lj nj eː n b ʊ v oː bj ɪ ʃj kj ɪ bj ɪ ʃj kj ɪ ʒj ɪ n a ɪ ɪ r 
[207.545]
<no-speech> 
[209.545]
bj ɪ ʃj kj ɪ t oː kj oː a n t lj iː gj oː kj æː lj oː ɪ r s t uː mj eː sj ɪ ʒ m oː gj æː lj ɪ s vj ɪ e n a s ʒj ɪ n a ɪ 
[213.085]
<no-speech> 
[215.665]
t a ɪ v a t a ɫ a ɪ mj ɪ n ɡ a s ʒj ɪ n oː k nj ɛ ʒj ɪ n oː j oː k ʊ r bj ɛ dj ɪ nj k tj ɪ 
[218.925]
<no-speech> 
[220.355]
t a ɪ <laugh> rj iː t ɔ j rj iː t ɔ j ʒ a dj eː j oː a ɫ a ʊ s a tj vj ɛ ʃj tj ɪ 
[223.965]
<no-speech> 
[226.575]
m 
[227.155]
<no-speech> 
[230.455]
n ʊ 
[231.135]
<no-speech> 
[233.125]
t a ɪ v a t ʊ t oː kj ɪ e d a lj iː k ɑː 
[235.435]
<no-speech> 
[236.435]
<no-speech> 
[236.855]
<no-speech> 
[238.125]
t oː kj ɪ e d a lj iː k ɑː dj æː d a s 
[240.035]
<no-speech> 
[241.775]
n oː 
[242.365]
<no-speech> 
[245.475]
n ʊ t a ɪ p p a r v a ʒj ʊ ɔ sj ɪ m p a r v a ʒj ʊ ɔ sj ɪ m <hes> rj iː t rj iː t p oː rj iː t ɪ r b uː sj ɪ m 
[250.155]
<no-speech> 
[252.865]

[253.545]
<no-speech> 
[254.405]
<no-speech> 
[254.755]
<no-speech> 
[259.195]
n ʊ ʒj ɪ n oː k ʒj a ʊ rj a ɪ gj æː r a <laugh> 
[261.415]
<no-speech> 
[262.415]
<hes> ɫ a b a ɫ a b a gj æː r ɑː ɛ ɪ n a ɫ a b a gj æː r ɑː t r a ʊ k ɪ r <hes> ɪ r dj ɪ dj ɛ lj æː gj ɛ r s v a rj ɪ k lj ɪ s iː r a s ʊ n t ʊ n t p ʊ s ɔ n t r a s t uː k s t a nj tj ɪ s a p s ʊ k uː j a ʊ ɡ ɑː lj ɪ v a ʒj ʊ ɔ tj ɪ pj ɛ n k t ʊ bj eː gj ʊ 
[272.725]
<no-speech> ʊ n t dj vj ɪ e j uː t uː k s t ɔ nj ʧj uː a n a s ɛ ɪ n a n ɔ r m a ɫ ʊ s <hes> 
[276.015]
<no-speech> 
[279.115]
<lipsmack> nj ɛ rj ɛ ɪ k nj ɛ rj ɛ ɪ k tj ɛ n pj ɛ r ɡ a z ʊ ɔ tj ɪ a r k a ʃ k ɑː 
[282.045]
<no-speech> 
[285.115]
nj ɛ 
[285.805]
<no-speech> 
[286.735]
nj ɛ tj ɪ n k a nj ɛ s nj ɛ sj ɪ v a ʒj ɑː vj æː s d oː r ɑː k a ɪ p s ɑː k a n t <no-speech> 
[291.245]
<no-speech> 
[292.995]
n oː rj ɛ ɪ k rj ɛ ɪ k p a v a ʒj ʊ ɔ tj ɪ t ʊ t ʊ ʃj ɪ t ɑː <hes> dj ɪ dj ɛ lj æː gj æː r ɑː bj ɪ e ɡ <no-speech> v a ɪ r a s dj ɪ dj ɛ lj æː lj ɛ n ɡ v ʊ s a ʊ k ʃ t a m <no-speech> ʃj a nj dj ɪ e n v a ʒj a v a ʊ s ʊ t ɔ j ɔ t a a a vj ɛ nj sj ɪ s t a ʊ d ʊ pj ɛ n k t uː mj æː t uː d a b a 
[304.205]
<no-speech> 
[305.205]
t a nj ɛ lj iː gj ɪ s ʒj ɪ n oː k nj ɛ lj iː gj ɪ s <no-speech> <hes> k a ʃ k oː kj a nj ɛ nj ɛ tj ɛ ɪ sj ɪ n ɡ a p a ɡ a mj ɪ n t a m a ʃj ɪ n a 
[311.495]
<no-speech> 
[315.075]
d ʊ pj ɛ n k t uː m ʊ s t 
[316.455]
<no-speech> 
[320.295]
n ʊ p r a ʃj a ʊ p a v a ʒj ʊ ɔ t ʒj ɪ n oː k nj ɛ nj ɛ <no-speech> t a ʃj ɪ t ɑː m a n <oov> d a ʊ ɡ m a ɫ oː nj ɛ sj nj eː k ʊ r t a ʊ lj ɛ n ɡ v a t oː kj a t r a ʊ kj a nj tj ɪ <no-speech> <hes> oː tj ɛ n k a ʃ k oː kj a t r a gj ɛ dj ɪ j a 
[330.975]
<int> <no-speech> n ʊ 
[332.585]
<no-speech> 
[335.335]
t a ɪ v a 
[336.115]
<no-speech> 
[338.625]
nj ɛ nj ɛ n a ʊ j a m a ʃj ɪ n a 
[341.135]
t a <no-speech> 
[342.915]
s v oː rj ɪ s dj ɪ dj ɛ lj ɪ s k ʊ ɔ tj ɛ n 
[345.155]
<no-speech> 
[347.385]
n ʊ v a ʒj ʊ ɔ t ɡ a ɫ ʒj ɪ n a ɪ pj rj ɪ p r a nj tj ɪ 
[349.355]
<no-speech> 
[353.115]
ʊ nj ɪ vj ɛ r s ɑː ɫ a s <no-speech> p a p r a s t a s 
[355.095]
<no-speech> 
[357.695]

[358.485]
<no-speech> 
[363.525]
nj ɛ nj ɛ <oov> <oov> d a lj iː k ɑː iː r a s tj ɛ n t oː kj a ɪ 
[367.185]
<no-speech> 
[369.395]
<oov> bj ɪ e ɡ oː s gj iː v a s rj ɛ ɪ k a ɫ a s bj ɪ e ɡ oː s 
[372.175]
<no-speech> 
[373.235]
bj ɪ ʃj kj æː lj iː p a s t uː mj ɛ ɪ ɪ r bj eː ɡ a t a ʊ 
[375.355]
n oː <no-speech> 
[378.265]
t a ɪ v a t a ɪ k a ɪ p k a ɪ p t ɑː v a tj ɪ e ʃ ʊ nj iː s tj ɛ n 
[380.725]
<no-speech> 
[384.365]
a t a ʊ vj ɪ e n ɑː ʃ ʊ nj ɪ e lj iː t r oː b ʊ ɔ ɫ a ɪ k ɑː 
[386.965]
<no-speech> 
[390.815]
m ɣ m 
[391.425]
<no-speech> 
[399.285]
m ɣ m 
[399.845]
<no-speech> 
[402.165]
<hes> t a t ʊ <oov> s a ʊ ɫ a ɪ kj iː sj ɪ 
[404.655]
<no-speech> 
[410.155]
<no-speech> 
[410.525]
<no-speech> 
[412.265]
tj ɛ p tj ɛ p d a r pj ɪ e nj ɪ nj æː d a nj tj iː s tj ɛ bj eː r a 
[415.055]
<no-speech> 
[417.805]
n oː 
[418.465]
<no-speech> 
[422.355]
<oov> d ʊ ɔ k t ʊ mj ɪ n k ʃ t uː ʒ a ɪ s ɫ uː ɪ r ɪ r ɪ r <hes> <oov> d ʊ ɔ k d r a sj kj iː t k a ɪ p <no-speech> <hes> ʒj vj ɪ e rj æː a ʊ k t ɔ m t oː k s pj eː k t s 
[429.515]
<no-speech> 
[432.075]
n ʊ 
[432.615]
<no-speech> 
[433.745]
mj ɪ n k ʃ t ʊ s ʒ a ɪ s ɫ ʊ s v a ɪ k uː k ʊ r iː r a s 
[436.295]
<no-speech> 
[438.145]
n ʊ <no-speech> a nj ɪ e dj ɪ dj ɛ lj æː gj æː r ɑː ʒ a ɪ ʤj a s ʊ a n a ɪ s 
[441.405]
<no-speech> 
[442.715]
n ʊ <no-speech> nj ɛ s ʊ k a ʊ ɫ a s nj ɛ s ʊ k ʊ ɔ oː s ʊ mj ɪ n k ʃ t ʊ ʒ a ɪ s ɫ ʊ 
[446.705]
<no-speech> 
[448.935]
m ɣ m <no-speech> t a ɪ p t a ɪ t a s 
[450.865]
<no-speech> 
[457.365]
<no-speech> 
[463.865]
n oː 
[464.645]
<no-speech> 
[466.505]
t a ɪ v a t oː kj ɪ e rj ɛ ɪ k a ɫ a ɪ 
[468.445]
<no-speech> 
[474.405]
n oː n ɔ r m ɑː lj a ɪ n ɔ r m ɑː lj a ɪ <no-speech> 
[476.335]
<no-speech> 
[478.945]
n ɔ r m ɑː lj a ɪ iː r a 
[480.225]
<no-speech> 
[488.585]
<no-speech> 
[496.945]
m ɣ m 
[497.605]
<no-speech> 
[501.465]
<hes> v a 
[502.115]
<no-speech> 
[508.325]
oː k ʊ r v a ʒj ʊ ɔ sj ɪ 
[509.435]
<no-speech> 
[517.365]
a ɪ <oov> mj æː dj iː 
[518.955]
<no-speech> 
[520.995]
oː k ʊ r t ʊ a n ɑː dj eː sj ɪ ʃ a ʊ k ʃ t ʊ s s k a p t ʊ ɔ sj ɪ 
[523.805]
<no-speech> 
[530.935]
a ɪ k a ʊ kj eː m d r oː ʃj tj ɪ 
[532.555]
<no-speech> 
[543.190]
<no-speech> 
[553.825]
m ɣ m 
[554.605]
<no-speech> 
[562.640]
<no-speech> 
[570.675]
p a p a tj ɪ n k a ʒj ɪ n oː k 
[572.305]
<no-speech> 
[574.175]
p a tj ɪ n k a a ʃ <foreign> vj ɪ s ɑː ɫ a ɪ k d r oː ʒj ʊ ʒj ɪ n oː k <laugh> 
[577.095]
<no-speech> 
[585.245]
k ɑː t ʊ ɔ kj ɪ 
[586.405]
<no-speech> 
[589.645]
b ʊ v a ʊ b ʊ v a ʊ <no-speech> 
[591.145]
<no-speech> 
[592.105]
t a tj ɛ n p ʊ s v a ɫ a nj ʤj oː d a r b a s iː r a 
[594.125]
<no-speech> 
[601.545]
n ʊ tj ɛ p tj ɛ p <hes> j ɛ ɪ ɡ ʊ tj ɛ n 
[603.765]
<no-speech> 
[610.165]
<no-speech> 
[616.565]
m ɣ m 
[617.065]
<no-speech> 
[622.805]
a iː ʦj ɛ ɫ ɔ f ɑː n ɑː rj ɛ ɪ k iː vj iː nj oː t k a ɪ p 
[624.945]
<no-speech> 
[633.200]
<no-speech> 
[641.455]
m ɣ m 
[641.975]
<no-speech> 
[650.355]
