[0.000]
<no-speech> 
[5.715]
n ʊ <click> ɫ ɑː b a s <breath> <sta> <no-speech> k ɑː k ʊ r vj ɛ ɪ kj ɪ <breath> 
[8.935]
<no-speech> 
[11.125]
k ɑː k ʊ r 
[11.785]
<no-speech> 
[18.715]
<breath> oː k ʊ rj oː t ʊ n oː rj ɪ t oː s ʊ ɡ rj ɪ e tj ɪ nj ɛ a r t oː kj ɪ t oː <breath> 
[21.675]
<no-speech> 
[25.275]
a b ʊ d ʊ p a s a kj iː t gj ɛ r a ɪ <breath> pj ɪ r m a sj ɪ s t a ɪ iː r a t oː k s a ɪ <breath> rj ɛ ɪ kj a <breath> ʃj ɛ ʃj uː dj ɪ dj ɛ lj uː oː b ʊ ɔ lj uː <breath> 
[31.665]
<no-speech> 
[33.995]
bj ɛ t k a ɪ p rj ɛ ɪ k a ɫ a s dj ɪ dj ɛ lj uː t ʊ j ʊ ɔ s n ʊ ɫ ʊ pj sj ɪ ɪ r s ʊ pj j a ʊ sj tj iː sj ɪ p ɫ oː n ɔ m <int> rj ɪ e kj æː lj eː m 
[37.575]
<no-speech> 
[38.855]
<breath> t a d a rj ɛ ɪ kj a <breath> t a d a rj ɛ ɪ kj a p a kj æː lj oː sj vj ɪ e s t oː <breath> 
[42.745]
<no-speech> 
[45.245]
<breath> t a d a <sta> t a d a rj ɛ ɪ kj a mj ɪ ɫ t uː gj ɛ rj a ʊ nj ɛ k a r ɑː lj ɪ ʃj kj ɪ k a d b uː t uː <breath> <no-speech> k a r ɑː lj ɪ ʃj kj ɪ t a ɪ t a ɪ p n ʊ pj ɛ r p ʊ r uː s ʃj ɪ t a ɪ tj æː ʃ ɫ a ɪ b uː n a <breath> t a d a rj ɛ ɪ kj a tj rj ɪ j uː kj a ʊ ʃj ɪ nj uː j ɛ ɪ ɡ ʊ ɪ ʃ vj ɪ e n oː s 
[56.815]
n ɔ r m oː s 
[57.425]
<no-speech> 
[59.755]
a r ɪ ʃ dj vj ɪ e j uː n oː rj eː sj ɪ n ʊ t a ɪ p a sj ɪ dj ɪ dj ɪ nj sj ɪ j ɛ ɪ ɡ ʊ ɪ ʃ dj vj ɪ e j uː n oː rj eː sj ɪ <breath> mj ɪ ɫ t uː <sta> t a ɪ p n ʊ <no-speech> mj ɪ ɫ t uː t a ɪ p ʊ s a n t r oː s sj tj ɪ lj ɪ nj eː s 
[66.515]
<no-speech> 
[67.315]
m a ʒ d a ʊ k rj ɛ ɪ kj a n ʊ t a ɪ vj ɪ s tj ɪ e k j ɛ ɪ ɡ ʊ n a mj ɪ e t ʊ rj ɪ t a ɪ t a d a ʒj ɪ n a ɪ nj ɛ rj ɛ ɪ kj a pj ɪ r k t ɪ ʃ tj ɪ k r uː j uː t uː mj ɪ ɫ t uː <no-speech> 
[72.495]
t a d a <breath> <no-speech> t a d a <breath> <laugh> <breath> k a s d a r d a b a r p a ɫ a ʊ k tj ɛ n ɛ ɪ n a <breath> a ɪ <breath> n ʊ t a ɪ d r ʊ s k oː s tj ɛ n a ɪ <hes> ɪ r t a ɪ p t oː lj a ʊ ɪ r p a n ɑː ʃj a ɪ t a ɪ d a b a r t ʊ r b uː t p ɑː tj iː rj ɛ ʦj ɛ p t ɑː nj ɛ a tj sj ɪ mj ɛ nj ɪ a r nj ɛ <breath> 
[85.375]
<no-speech> 
[86.365]
a r a tj sj ɪ mj ɛ nj ɪ t ʊ p ɑː tj iː 
[87.385]
k a ɪ p tj ɛ n <breath> <sta> <no-speech> 
[92.265]
oː b ʊ ɔ lj uː t ʊ rj eː sj ɪ <breath> 
[93.565]
<no-speech> 
[97.155]
oː kj a ʊ ʃj ɪ nj uː oː kj a ʊ ʃj ɪ nj uː t ʊ rj eː sj ɪ 
[99.075]
<no-speech> 
[103.785]
n ʊ d r ʊ s k oː s ʦ ʊ k r a ʊ s t ʊ rj eː sj ɪ a r nj ɛ 
[105.675]
<no-speech> 
[106.825]
ʦ ʊ k r a ʊ s <sta> t ʊ rj eː sj ɪ <breath> <no-speech> t ʊ rj eː sj ɪ <breath> n ʊ t a ɪ t a d a gj ɛ r a ɪ d a b a r <no-speech> k ɑː <breath> a r t ʊ rj ɪ k ʊ ɔ r a ʃj iː tj ɪ <breath> 
[113.945]
<no-speech> 
[115.235]
k ʊ r t ʊ ʧj a v a ʒj ʊ ɔ j ɪ nj ɛ s ʊ p r a n t ʊ t ʊ ʧj a m a n t r uː kj ɪ nj eː j ɪ v a ʒj ʊ ɔ j ɪ t ʊ ʧj a a r k ɑː k a ʃ k ʊ r <no-speech> 
[120.755]
k ɑː <int> 
[121.295]
<no-speech> 
[126.005]
t ʊ rj eː t ʊ m a tj sj ɪ mj ɪ nj tj ɪ gj ɛ r a ɪ <breath> d a b a r ɪ ʃ p ɫ a kj ɪ <breath> <hes> ɑː ɣ ɑː <breath> ɪ ʃ p ɫ a kj ɪ tj rj iː nj ʊ s <int> <breath> t ʊ ɔ s tj rj ɪ s s ʊ p ʊ s a n t r oː s sj tj ɪ k lj ɪ nj eː s ʦ ʊ k r a ʊ s 
[134.865]
<no-speech> 
[136.205]
ɫ a b a ɪ gj ɛ r a ɪ ɪ ʃ p ɫ a kj ɪ k ɔ ɫ b a lj tj ɪ p a sj ɪ d ɑː r oː <breath> t a d a kj ɪ t a m ɪ nj dj ɛ ɪ ʃ p ɫ a kj ɪ b a lj tj iː m ʊ s <breath> <hes> s ʊ t r ʊ p ʊ ʧj ʊ ʦ ʊ k r a ʊ s d a r v a nj ɪ lj ɪ n oː ʒj ɪ n a ɪ ɡ ɑː lj ɪ iː dj eː tj ɪ <breath> ɪ rj gj ɪ k ɔ ɫ p a s n ʊ nj ɛ k rj ɛ n t a n ʊ ɔ ʃ a ʊ k ʃ t oː ʒj ɪ n a ɪ t oː kj ɪ e k a ɪ p p ʊ t oː s k a ɪ p m ɔ rj ɛ n ɡ a ɪ p a sj ɪ d ɑː r oː <breath> 
[151.035]
<no-speech> 
[153.745]
j oː j oː t a m t a m <oov> p ɫ a kj ɪ k lj iː gj ɛ rj a ʊ p ɫ a k tj ɪ j ɪ e <breath> tj ɪ k tj ɛ n ɫ a b a ɪ ɡ rj ɛ ɪ t a ɪ tj rj ɪ s k a r t ʊ s a p s ʊ k sj ɪ <breath> ɪ r ɪ r ʒ oː ʤj ʊ ɪ ʃj sj ɪ p ɫ a k s <breath> n ʊ v a <breath> ɪ r d a b a r t ʊ ɔ s j a ʊ t ʊ rj ɪ ɪ ʃ p ɫ a k t ʊ s tj rj iː nj ʊ s ɪ r ɪ ʃ p ɫ a k t ʊ s b a lj tj iː m ʊ s a r nj ɛ 
[165.055]
<breath> t a d a <breath> ɪ ʃj sj ɪ tj ɪ rj pj ɪ nj ɪ sj vj ɪ e s t ɑː <breath> a ɪ mj ɪ k r ɔ b a nj gj eː j ɡ a ɫ k oː kj ɔ j ɪ ʃj sj ɪ tj ɪ rj pj ɪ nj ɪ <breath> 
[171.025]
<no-speech> 
[171.825]
ɪ r iː t ɑː sj vj ɪ e s t ɑː t a d a <oov> <int> 
[173.545]
<no-speech> 
[174.365]
n ʊ t a ɪ a ʃ t a ɪ p mj ɪ k r ɔ b a nj gj eː j k ɑː a ʃ ʒj ɪ n a ʊ a ʃ t a ɪ dj ɛ d ʊ k oː kj a ɪ p ʊ s a n t r oː s mj ɪ n ʊ tj eː s ɡ a ɫ 
[178.685]
<no-speech> 
[181.985]
j oː p ʊ s a n t r oː s mj ɪ n ʊ tj eː s ɪ ʃj sj ɪ tj ɪ rj pj ɪ nj ɪ t ɑː sj vj ɪ e s t ɑː n ʊ j ɛ ɪ nj ɛ ɪ ʃj tj ɪ r p s t a ɪ d a r kj iː ʃj tj ɛ lj sj ɪ p ʊ sj ɛ ɪ mj ɪ n ʊ tj eː s <breath> tj ɪ k t a ɪ a ɪ ʃ k ʊ rj ɛ ɪ kj a p ɑː s k ʊ i p a ɫ a ʊ k tj ɪ k ɔ ɫ j ɪ s p r a vj eː s <breath> nj ɛ s iː t ɑː sj vj ɪ e s t ɑː rj ɛ ɪ kj eː s s ʊ dj eː t p ɫ a k t ʊ s <hes> tj rj iː nj ʊ s 
[192.955]
<no-speech> 
[195.385]
iː t ɑː sj vj ɪ e s t ɑː s ʊ dj ɛ dj ɪ s ʊ dj eː tj ɪ j ɛ ɪ j ɛ ɪ nj ɛ s j ɛ ɪ t ʊ n ʊ iː k a r ʃ t ɑː s ʊ dj eː sj ɪ t a ɪ t ʊ ɔ s tj rj iː nj ʊ s s ʊ t r a ʊ k s 
[200.655]
<no-speech> 
[203.665]
<breath> n ʊ t a ɪ t a d a k a ɪ j a ʊ s ʊ dj ɛ dj ɪ <int> <breath> s ʊ dj ɛ dj ɪ t ʊ ɔ s tj rj iː nj ʊ s a r nj ɛ <breath> t a d a bj ɛ rj ɪ t a s t ʊ ɔ s mj ɪ ɫ t ʊ s p ʊ s a n t r oː s sj tj ɪ k lj ɪ nj eː s ɪ r b uː tj ɪ n a ɪ t ʊ ɔ s mj ɪ ɫ t ʊ s s ʊ m a ɪ ʃ a ɪ s ʊ vj ɪ e n ʊ a r b ɑː tj ɪ nj ʊ ʃ a ʊ k ʃj tj æː lj ʊ s ɔ d oː s 
[213.915]
<no-speech> 
[217.795]
s ʊ vj ɪ e n ʊ <sta> a r b ɑː tj ɪ nj ʊ ʃ a ʊ k ʃj tj æː lj ʊ s ɔ d oː s n ʊ tj ɛ n p a sj ɪ d ɑː r oː t oː kj a tj æː ʃ ɫ a t oː kj a ʒj ɪ n a ɪ <breath> iː t r ʊ pj ɪ n ʊ k ʊ s j ɪ n a ɪ t r ʊ p a nj tj ɪ p a sj ɪ d ɑː r oː <breath> t a ɪ v a <breath> n ʊ k a ɪ j a ʊ t ɑː tj æː ʃ ɫ ɑː p a sj ɪ d a r a ɪ t ʊ j ɑː n ʊ ɪ ʃj sj ɪ m a ɪ ʃ a ɪ t a p r ɑː sj mj ɛ j ɪ j a ʊ t oː kj a ɪ s t r ʊ pj ɪ n ʊ k a ɪ s t r ʊ p a <breath> t a d a <hes> t ʊ <hes> s ʊ sj ɪ pj j a ʊ s t a ɪ p ɫ oː n a ɪ oː b ʊ ɔ lj ʊ s ɡ ɑː lj ɪ nj ɛ t ɪ r nj ɛ ɫ ʊ pj tj ɪ bj ɛ t ɫ a b a ɪ s v a r b ʊ p ɫ oː n a ɪ s ʊ pj j a ʊ sj tj iː tj ɪ gj ɛ rj a ʊ rj ɪ e k ʊ tj eː mj ɪ s 
[237.665]
<no-speech> 
[238.735]
<breath> s ʊ sj ɪ pj j a ʊ s t a ɪ oː b ʊ ɔ lj ʊ s <breath> <no-speech> k ʊ ɔ 
[242.235]
<no-speech> 
[243.485]
k ʊ bj æː lj a ɪ s 
[244.175]
<no-speech> 
[245.325]
k ɔ m b a ɪ n ʊ n ʊ ɡ a ɫ ɡ ɑː lj ɪ m a ɪ r <oov> <breath> <no-speech> nj ɛ k ʊ bj æː lj a ɪ s nj ɛ ɡ ɑː lj ɪ m a rj ɛ ɪ kj a rj ɪ e k ʊ tj eː mj ɪ s t a ɪ ɡ ɑː lj ɪ m a ɪ r k ɔ m b a ɪ n ʊ nj ɛ s k ɔ m b a ɪ n a s t a r k ʊ ɔ j a rj ɪ e k ʊ tj eː mj ɪ s 
[254.265]
<no-speech> 
[255.395]
bj ɛ t t a ɪ <hes> nj ɛ t a ɪ p k a d t a r k a b uː t uː bj ɛ t k ɔ m b a ɪ n oː t oː kj ɔ m rj ɪ e k ʊ tj eː m k ʊ r ɪ ʃj ɛ ɪ n a t ɑː kj ɪ t ɑː pj ɛ ɪ lj ʊ k ɑː p a sj ɪ ɪ mj ɪ 
[261.025]
<no-speech> 
[264.465]
<hes> j oː j oː j oː p a sj ɪ ɪ mj ɪ t ɑː <breath> t a d a <breath> <int> <no-speech> t a d a ʃj ɪ t a ɪ p d a r a ɪ p a sj ɪ d a lj ɪ nj ɪ tj æː ʃ ɫ ɑː <breath> iː dj vj ɪ d a lj ɪ s <breath> 
[272.635]
<no-speech> 
[273.485]
<breath> vj ɪ e n ɑː tj æː ʃ ɫ ɑː iː k ɫ oː j ɪ iː f ɔ r m ɑː <breath> p a sj ɪ ɪ m k t ɑː sj ɪ lj ɪ k ɔ nj ɪ nj æː <breath> 
[277.405]
<no-speech> 
[278.925]
gj ɛ rj a ʊ sj a k ʊ r a n ɑː k a r t t uː n ʊ sj ɪ pj ɪ r k ɔ m tj ɛ n vj ɪ s oː s n ʊ t a ɪ ʒj ɪ n a ɪ p a t s gj ɛ rj a ʊ sj a s kj ɛ pj ɪ nj a m s m ɔ mj ɛ n t a s <breath> v a <breath> ɪ ʃ k ɫ oː j ɪ tj ɛ ʃ ɫ oː s ɑː p a ʧj ɑː n ʊ t a <oov> <laugh> tj æː ʃ ɫ a ɪ ʃ k ɫ oː j ɪ s k a r d oː s ɑː p a ʧj ɑː 
[290.285]
<no-speech> a r nj ɛ 
[291.215]
<no-speech> 
[292.785]
ɪ ʃ k ɫ oː j ɪ 
[293.505]
<no-speech> 
[296.605]
<breath> t a d a <breath> <no-speech> k ɑː d a r a ɪ <breath> t a d a a n t vj ɪ r ʃ a ʊ s s ʊ dj ɛ dj ɪ oː b ʊ ɔ lj ʊ s 
[301.555]
<no-speech> 
[304.365]
a n t oː b ʊ ɔ lj uː ʊ ʒj dj ɛ dj ɪ b a lj tj iː m ʊ s 
[306.125]
<no-speech> 
[307.355]
<breath> ɪ r a n t b a lj tj iː m uː kj ɪ t ɑː tj ɛ ʃ ɫ oː s kj ɪ t ɑː tj ɛ ʃ ɫ oː s d ɑː lj iː s ʊ t r ʊ pj ɪ nj ɪ t a r p pj ɪ r ʃ t uː s ʊ t r ʊ pj ɪ nj ɪ ɪ r t oː kj uː t r ʊ pj ɪ nj uː pj rj ɪ bj iː r a tj ɛ n d a ʊ ɡ <breath> n ʊ v a ɪ r vj ɪ s k a s iː <oov> 
[316.125]
<no-speech> 
[317.485]
k ɑː 
[318.125]
<no-speech> 
[322.475]
<hes> 
[323.115]
<no-speech> 
[324.185]
n ʊ t a ɪ ʒj ɪ n a ɪ v a ʒj ʊ ɔ j ɪ m a ʃj ɪ n a t a ɪ t ʊ nj ɛ n oː rj eː k k a d nj ɛ sj ɪ gj ɪ rj dj eː t uː tj rj ʊ k ʃ m a s <breath> <hes> s ʊ t r ʊ pj ɪ nj ɪ s ʊ t r ʊ pj ɪ nj ɪ t r ʊ pj ɪ n ʊ k a ɪ s a r nj ɛ 
[331.395]
<no-speech> 
[332.795]
s ʊ t r ʊ pj ɪ nj ɪ t r ʊ pj ɪ n ʊ k a ɪ s <breath> ɪ r <hes> iː dj ɛ dj ɪ iː ɔ r k a ɪ tj æː ɔ r k a ɪ tj eː <breath> b uː n a iː k a ɪ tj ɪ n t a ɪ kj ɪ ʃj ɪ m t oː a ʃ t ʊ ɔ nj a zj dj æː ʃj ɪ m t <breath> ɪ r d a r j oː j ɛ kj ɛ pj ɪ m a ʒ d a ʊ k pj ɛ nj kj a zj dj æː ʃj ɪ m t mj ɪ n ʊ ʧj uː 
[344.055]
<no-speech> 
[345.415]
n ʊ ʒ oː ʤj ʊ p a sj ɪ ʒj uː rj eː t rj ɛ ɪ kj a pj ɛ r ɫ a nj gj æː lj iː <breath> <hes> k a d a j a ʊ b ʊ s ɪ ʃj kj æː pj æː t a ɪ vj ɪ r ʃ ʊ s b ʊ s ɡ r ɑː ʒj a ɪ a p s k r ʊ dj æː s ɪ r j a ʊ t a d a ɪ ʃj sj ɪ j ʊ nj gj ɪ ɪ r ɪ r t a d a v a ɫ ɡ a ɪ ʒj ɪ n oː k ʃj a ɪ p ɫ a b a ɪ f a ɪ n a <breath> s ʊ lj ɛ d a ɪ s 
[356.155]
<no-speech> 
[357.895]
ɫ a b a ɪ s ʊ lj ɛ d a ɪ s f a ɪ n a 
[359.455]
<no-speech> 
[370.695]
<breath> <hes> ʒj uː rj eː sj ʊ <breath> ʒj uː rj eː j ɔ m 
[374.045]
<no-speech> 
[375.745]
sj ɛ rj ɪ j ɑː ɫ ɑː 
[376.565]
<no-speech> 
[377.395]
sj ɛ rj ɪ j ɑː ɫ ɑː ʒj uː rj eː sj ʊ dj ɪ dj ɪ n ɡ a s a mj ʒj ʊ s j oː <breath> dj ɪ dj ɪ n ɡ a s a mj ʒj ʊ s d a b a r ɫ a b a ɪ a n t ɪ nj tj rj ɪ ɡ ʊ ɔ t oː s vj ɪ e t oː s b a ɪ gj eː sj ɪ <breath> t a ɪ tj ɪ e sj oː k tj ɪ e sj oː k n ʊ j a ʊ j a ʊ ɡ a lj eː ʧj a ʊ ɪ r ʒj uː rj eː tj ɪ bj ɛ t a ʃ gj ɪ ʒj ɪ n a ɪ mj eː k s t ʊ a tj sj ɪ s ʊ k tj ɪ ɡ ɑː ɫ a tj ɛ lj ɛ vj ɪ zj ɪ j ɑː <breath> t a ɪ t a ɪ t a d a a tj sj ɪ sj eː dj ɪ rj ɛ k ɫ a m a s <oov> 
[392.895]
<no-speech> 
[394.815]
rj ɛ k ɫ a m a s pj ɛ rj sj ɪ s t ʊ mj ɪ <breath> ɪ r b uː n a ɫ a b a ɪ gj ɛ r a ɪ <breath> oː t a ɪ k ʊ r t ʊ t ɑː pj iː r ɑː ɡ ɑː kj ɛ pj sj ɪ 
[399.885]
<no-speech> 
[404.625]
<lipsmack> oː t a ɪ k oː k a ɪ p ʧj a j a ʊ s ʊ ɡ a ɫ v oː j a ɪ pj iː r ɑː ɡ ɑː kj ɛ pj tj ɪ 
[407.025]
<no-speech> 
[410.815]
<breath> oː t a ɪ a r ʃj ɪ t oː ʊ ʃj tj ɛ k s a r dj ɪ k t ʊ ɔ tj ɪ ɪ r kj ɪ t ɑː pj iː r ɑː ɡ ɑː 
[413.725]
<no-speech> 
[414.825]
kj ɪ t a s t a ɪ ʒj ɪ n oː k p a p r a sj tj ɛ sj nj ɪ s ɡ a ɫ ɪ r kj ɪ t ɑː p a s a kj iː t <no-speech> 
[420.895]
<breath> t a ɪ kj ɪ t a s ʒj ɪ n oː k b ʊ s ʃj ɪ t a ɪ p <breath> p a sj ɪ ɪ mj ɪ sj tj ɪ k lj ɪ nj æː <hes> <breath> ɡ rj ɪ e tj ɪ nj eː s 
[425.175]
<no-speech> 
[426.805]
sj tj ɪ k lj ɪ nj æː mj ɪ ɫ t uː 
[428.185]
<no-speech> 
[429.305]
n ʊ <breath> sj tj ɪ k lj ɪ nj æː mj ɪ ɫ t uː <no-speech> sj tj ɪ k lj ɪ nj æː mj ɪ ɫ t uː 
[432.765]
<no-speech> 
[436.045]
ɪ r <breath> 
[436.965]
<no-speech> 
[438.215]
n ʊ p ʊ sj æː p a kj æː lj oː sj vj ɪ e s t oː <breath> <no-speech> ɪ rj gj ɪ ɪ ʃj lj iː dj iː t oː 
[441.975]
<no-speech> 
[442.885]
n ʊ vj ɪ s k ɑː s ʊ p ɫ a kj ɪ mj ɪ k sj ɛ rj ʊ <no-speech> iː dj ɛ dj ɪ a r b a tj ɪ nj iː ʃ a ʊ k ʃj tj æː lj iː s ɔ d oː s 
[447.775]
<no-speech> 
[449.785]
ɪ r s ʊ dj ɛ dj ɪ ɡ a b a lj ʊ k a ɪ s pj j a ʊ sj tj iː t ʊ s oː b ʊ ɔ lj ʊ s s ʊ s ʊ v oː lj oː t ʊ s iː ʦj ɪ n ɑː m ɔ n ɑː <no-speech> ɪ r vj ɪ s k a s <no-speech> a ɪ tj ɪ e s a kj a ʊ ʃj ɪ nj iː p a mj ɪ r ʃ a ʊ n ʊ d a r kj a ʊ ʃ ɑː iː m ʊ ʃj ɪ n ʊ ɪ r vj ɪ s k ɑː s ʊ p ɫ a kj ɪ <breath> t a ɪ sj tj ɪ k lj ɪ nj eː mj ɪ ɫ t uː <breath> sj tj ɪ k lj ɪ nj eː <breath> ɡ rj ɪ e tj ɪ nj eː s vj ɪ e n a s kj a ʊ ʃj ɪ nj ɪ s 
[464.975]
<no-speech> 
[466.485]
p ʊ sj eː p a kj æː lj oː sj vj ɪ e s t oː 
[467.995]
<no-speech> 
[468.855]
ɡ a ɫ m a ʒj a ʊ nj ɛ ɡ ʊ p ʊ sj eː nj ɛ t k oː kj ɪ e ʃj æː ʃj a zj dj æː ʃj ɪ m t ɡ r ɑː m uː ʊ ʃj tj ɛ k s <no-speech> n ʊ tj rj æː ʤ d a lj iː p a kj æː lj oː sj vj ɪ e s t oː p ɑː s k ʊ i t a ʊ pj ɛ r rj ɪ e b ʊ s b ʊ s t a ɪ p ɑː s k ʊ i ʒj ɪ n a ɪ 
[476.125]
<no-speech> 
[477.625]
j ɛ ɪ sj vj ɪ e s t oː nj ɛ t n ʊ <breath> ɡ ɑː lj ɪ m a m a r ɡ a rj ɪ n oː ʒj ɪ n a ɪ <breath> n ʊ ɪ r v a ɪ r s ʊ p ɫ a kj ɪ vj ɪ s k ɑː s ʊ m a ɪ ʃ a ɪ s ʊ oː b ʊ ɔ lj a ɪ s <no-speech> ɪ rj gj ɪ iː f ɔ r m ɑː s ʊ vj ɛ rj tj ɪ ɪ r ʃ a ɫ t ɑː iː ʃ a ɫ t ɑː ɔ r k a ɪ tj æː kj ɪ ʃj ɪ n ʊ ɪ rj gj ɪ v ɑː ɫ a n d a ɫ a ɪ k oː 
[489.405]
k ɔ ɫ ɪ ʃj kj ɛ p a a p s k r ʊ n d a ɪ r b uː n a ɪ ʃj kj æː pj æː <no-speech> 
[492.935]
<breath> j oː 
[494.105]
<no-speech> 
[495.955]
t a ɪ ʃj ɪ t a s lj ɛ nj ɡ vj ɛ sj nj ɪ s bj ɛ t a n a s s k a nj ɛ sj nj ɪ s tj ɛ n ʃj a ɪ p a r t a ɪ p t r ʊ pj ɪ nj ɪ nj ɪ s pj iː r ɑː ɡ a s oː ʧj a t a ɪ t oː k s a ɪ ʒj ɪ n a ɪ n ʊ t oː k s n ʊ k a ɪ p vj ɪ s a d a bj ɪ sj k vj ɪ tj ɛ t oː k s a ɪ mj ɪ n k ʃ t a s 
[503.985]
<no-speech> 
[505.175]
tj ɪ k nj ɛ p a ɡ a ɪ lj eː t iː ʃj ɪ t ɑː rj ɛ ɪ kj a oː b ʊ ɔ lj uː 
[507.365]
<no-speech> 
[508.855]
nj ɛ s j ɛ ɪ oː b ʊ ɔ lj uː p a ɡ a ɪ lj eː sj ɪ t a ɪ b ʊ s nj ɛ s k a n ʊ s ʧj a k ʊ ɔ d a ʊ gj a ʊ oː b ʊ ɔ lj oː t ʊ ɔ s k a nj a ʊ ɡ a ʊ n a sj ɪ <no-speech> 
[516.075]
t a ɪ v a <breath> <no-speech> tj ɪ e s a t ʊ ʒj ɪ n a ɪ k a d a ʃ b ʊ v a ʊ ɛ gj ɪ pj tj ɛ <breath> 
[519.925]
<no-speech> 
[522.145]
s a kj a ʊ 
[522.785]
<no-speech> 
[526.635]
a ɪ n ʊ f a ɪ n a b ʊ v oː tj ɪ k v a n d ʊ ɔ ʃ a ɫ t a s nj ɛ ɡ a lj eː j a ʊ m a ʊ dj iː tj ɪ s vj ɪ sj ɪ ʃ k a ɪ t oː dj eː ɫ k a d v a n d ʊ ɔ b ʊ v oː <breath> <no-speech> k a ɪ p lj ɪ e t ʊ vj ɪ ʃ k a m p a j uː rj iː j ɛ <breath> oː n ʊ v a ʒj ʊ ɔ tj ɪ vj ɪ d ʊ rj iː ʒj ɪ e m oː s v a s ɑː rj oː mj eː nj ɛ sj iː iː ɛ gj ɪ p t ɑː ɪ r m a ʊ dj iː tj ɪ s lj ɪ e t ʊ vj ɪ ʃ k a m v a nj dj æː nj iː t a ɪ k a ʃ k a ɪ p nj ɛ ʒ a vj eː j oː <breath> bj ɛ t ʊ ʒ t a ɪ ɫ a b a ɪ f a ɪ n a b ʊ v oː k a ɪ tj ɪ nj tj ɪ s <hes> t a ɪ p a tj sj ɪ ɡ ʊ lj ɪ t a ɪ p j a ʊ t a ɪ p m a ɫ oː n ʊ lj ɛ n ɡ v a s vj eː j æː lj ɪ s s a ʊ lj iː tj eː dj vj ɪ dj ɛ ʃj ɪ m t tj rj iː s dj vj ɪ dj ɛ ʃj ɪ m t pj ɛ nj kj ɪ ɫ a ɪ pj sj nj a ɪ <breath> n ʊ vj ɪ s k a s ʃj a ɪ p b uː t uː ɫ a b a ɪ f a ɪ n a ɪ j ɛ ɪ ɡ ʊ ʒj ɪ n a ɪ nj ɛ vj ɪ s k a s vj ɪ e n a mj ɛ iː s k a ɪ ʧj ʊ ɔ t a <laugh> <breath> t a ɪ n ʊ t ʊ k a ʊ k a ɪ p p a rj ʃj æː lj ɪ s <no-speech> nj ɛ ɡ a ɫ v oː j ɪ a ʃ iː j oː kj ʊ s <breath> 
[561.955]
<no-speech> 
[562.105]
<no-speech> 
[562.935]
ɑː pj sj k rj ɪ t a ɪ k a ɪ ɡ rj iː ʒ a ʊ n a m oː <breath> t a ɪ t ʊ ʒj ɪ n oː k nj ɛ tj ɪ ɫ p a ʊ iː ʃ v a r k ɑː nj ɛ ʊ ʃj sj ɪ sj ɛ gj eː <breath> 
[568.035]
<no-speech> 
[569.175]
t a ɪ d a b a r ʒj ɪ n a ɪ k a ɪ p t a ɪ p <oov> <breath> d a b a r k a ɪ p t a m a nj ɛ ɡ d ɔ tj ɛ ʒj ɪ n a ɪ a nj ɛ ɡ d ɔ t ɑː a pj ɪ e ɡ rj ɪ kj ʊ s <no-speech> 
[575.545]
pj ɪ r m ɑː dj ɪ e nj ɪ s <no-speech> v a ʊ ɡ rj ɪ kj a ɪ <breath> a n t r ɑː dj ɪ e nj ɪ s ɡ rj ɪ kj a ɪ tj rj ɛ ʧj ɑː dj ɪ e nj ɪ s ɡ rj ɪ kj a ɪ <breath> kj ɛ tj vj ɪ r t ɑː dj ɪ e nj ɪ s ɡ rj ɪ kj a ɪ 
[587.495]
<no-speech> 
[588.485]
pj ɛ n k t ɑː dj ɪ e nj ɪ s 
[589.235]
<no-speech> 
[590.935]
k ɑː nj eː r a ɡ rj ɪ kj uː 
[592.515]
<no-speech> 
[593.415]
ʃj ɛ ʃ t ɑː dj ɪ e nj ɪ s v a ʊ ɪ r vj eː ɫ ɡ rj ɪ kj a ɪ <no-speech> t a ɪ v a t a ɪ t a ɪ p pj ɪ r m ɑː dj ɪ e nj ɪ s ʒj ɪ n oː k sj eː ʤj ʊ a n t ɡ rj ɪ kj uː dj ɪ e t oː s <breath> 
[599.845]

[600.180]
