[0.000]
<no-speech> 
[1.245]
<int> <no-speech> a lj oː 
[3.395]
<no-speech> 
[4.995]
a lj oː <no-speech> n ʊ sj vj ɛ ɪ k ʊ tj eː k ɑː vj ɛ ɪ kj ɪ 
[8.045]
<no-speech> 
[9.715]
gj ɪ rj dj ɪ m a nj ɛ 
[10.855]
<no-speech> 
[11.735]
k ɑː <no-speech> gj ɪ rj dj ɪ 
[13.625]
<no-speech> 
[14.935]
a r gj ɪ rj dj ɪ m a nj ɛ <sta> <no-speech> n ʊ t a ɪ k a s n a ʊ j oː k a s gj æː r oː 
[18.625]
<no-speech> 
[19.665]
k ɑː 
[20.225]
<no-speech> 
[25.235]
k a ɪ p t a v oː p a ʊ lj ʊ s 
[27.475]
<no-speech> 
[34.625]
k a s 
[35.135]
<no-speech> 
[38.715]
<sta> m ɑː n oː gj ɛ r a ɪ t a ɪ gj ɪ j a ʊ kj ɛ tj vj ɪ r t a s mj eː n ʊ ɔ <no-speech> t a ɪ t ʊ k ɑː j a ʊ j ʊ ɔ kj a sj ɪ k a ɫ b a ʒj ɪ n a ɪ gj ɪ 
[46.845]
<no-speech> 
[48.435]
t a ɪ v a k a d a k a d a t a v oː vj ɪ lj iː tj eː <sta> ɡ rj iː ʃ t a 
[51.675]
<no-speech> 
[57.055]
ɛ ɪ k ɛ ɪ k 
[57.795]
<no-speech> 
[59.645]
<sta> n ʊ t a ɪ vj ɪ s tj ɪ e k ɡ a ɫ a n t v ɑː s a r oː s p a r v a ʒj ʊ ɔ s 
[62.385]
<no-speech> 
[67.205]
<sta> <no-speech> a a <no-speech> a ɪ ʃ k ʊ t a ɪ ɪ ʃj sj ɪ k lj ɪ j a v a ɪ t a pj ɛ t ʊ s pj ɛ r k uː ʧj a s <laugh> k a ɪ p s a kj ɛ ɪ <breath> 
[76.145]
<no-speech> 
[84.685]
<sta> n ʊ t a d a gj ɪ k a ɪ b ʊ v oː s ʊ sj ɪ tj ɪ kj æː gj ɪ s a kj ɛ ɪ pj rj ɪ sj ɪ pj ɪ r k oː t t a pj ɛ t uː 
[89.785]
<no-speech> 
[93.465]
<no-speech> 
[93.835]
<no-speech> 
[96.125]
<sta> m ɣ m <no-speech> 
[97.975]
<no-speech> 
[101.535]
<sta> n ʊ t a ɪ ɡ a ɫ ɫ a ɪ k a s tj ɛ n a pj sj ɪ t v a rj kj iː t a r nj ɛ <no-speech> f a zj ɛ n d ɔ j 
[106.375]
<no-speech> 
[114.625]
ɑː ɣ ɑː 
[115.535]
<no-speech> 
[120.955]
<sta> <no-speech> n ʊ ʧj a ʒj ɪ n a ɪ k ɔ ɫ d a r vj ɪ s k ɑː ʒj ɪ n a ɪ <no-speech> s ʊ t v a rj kj iː sj ɪ 
[126.495]
<no-speech> 
[136.185]
<sta> ɑː ɣ ɑː 
[137.105]
<no-speech> 
[138.795]
<no-speech> 
[139.395]
<no-speech> 
[141.115]
<sta> t a ɪ rj ɛ ɪ kj a <no-speech> rj ɛ ɪ kj a mj ɛ ɪ s t r oː j ɪ e ʃ k oː t 
[144.945]
<no-speech> 
[148.295]
k ɑː 
[148.845]
<no-speech> 
[152.805]
nj ɛ <sta> b a ɪ k t ʊ ɪ ʃ k ʊ r a ʃ t a ʊ ʒj ɪ n oː sj ʊ <no-speech> nj ɛ t ʊ rj ʊ gj ɪ t oː kj uː pj æː ʧj uː n a mj ɪ e <laugh> <breath> <no-speech> oː k a ɪ p t ʊ r ɡ ʊ j sj æː k a s d a r 
[163.475]
<no-speech> 
[166.875]
<no-speech> 
[168.185]
<no-speech> 
[169.025]
<sta> <no-speech> a r nj ɛ 
[170.905]
<no-speech> 
[173.365]
<sta> ɡ a ɫ nj ɛ ɫ a b a ɪ ʒj ɪ n a ɪ d a b a r ɪ r 
[175.465]
<no-speech> 
[177.455]
a ɪ ʃ k ʊ 
[178.835]
<no-speech> 
[184.435]
<sta> t a ɪ k a ɪ p tj ɪ k d a b a r rj ɛ ɪ k t ʊ rj eː t v a ɪ ʃj lj ɛ ɪ s t vj ɪ s ʊ s <laugh> 
[188.705]
<no-speech> 
[197.295]
<sta> t a ɪ gj ɪ v a 
[198.505]
<no-speech> 
[200.425]
n ʊ t a ɪ d a b a r ɪ r p a ʊ lj a ʊ s nj ɛ vj ɛ dj ɪ d a rj ʒj æː lj ɪ n 
[203.715]
<no-speech> 
[206.465]
vj ɛ dj ɪ vj ɪ s tj ɪ e k 
[207.895]
<no-speech> 
[209.685]
m <int> 
[210.465]
<no-speech> 
[216.175]
<laugh> <breath> 
[217.375]
<no-speech> 
[218.385]
<sta> ɑː ɣ ɑː 
[219.185]
<no-speech> 
[225.900]
<no-speech> 
[232.615]
n ʊ <sta> t a ɪ ʒj ɪ n a ɪ a ɪ ʃ k ʊ <no-speech> n ʊ 
[236.405]
<no-speech> 
[237.835]
<sta> m ɑː n oː 
[238.625]
<no-speech> 
[239.915]
<sta> n ʊ m ɑː n oː ɪ e v a ɪ r t a ɪ sj ɪ m ʊ lj ɑː v oː nj eː j oː m oː kj iː k ɫ ɔ n <laugh> <breath> 
[244.815]
<no-speech> 
[248.905]
<sta> a ɪ t a ɪ ʒj ɪ n a ɪ p a ɡ a ɫ v oː j ʊ s n ʊ ɪ ʃ tj ɪ k r uː j uː rj iː t ɑː t a ɪ n ʊ vj ɛ ʃj ʊ oː p a rj ɛ ɪ t gj ɪ d ʊ kj ɪ ɫ ɔ mj ɛ t r ʊ s pj ɛ r ɫ a ʊ k ɑː t a ɪ 
[256.095]
<no-speech> 
[257.495]
<sta> 
[258.895]
<no-speech> 
[260.925]
<no-speech> 
[261.295]
<no-speech> 
[266.785]
n ʊ 
[267.405]
<no-speech> 
[269.175]
n ʊ 
[269.745]
<no-speech> 
[270.835]
t a ɪ gj ɪ <sta> ʊ ʒ t a ɪ 
[271.995]
<no-speech> 
[274.345]
<sta> n ʊ nj ɪ e k oː gj ɪ nj eː r a vj ɪ sj ɪ ʃ k a ɪ 
[276.525]
<no-speech> 
[280.525]
<laugh> <sta> a ʊ t ɔ b ʊ s oː nj ɛ t ʃ a lj ɪ ɡ a tj vj oː s ʊ pj ɛ rj eː j a nj eː r a a pj ɪ e a ʊ t ɔ b ʊ s ʊ s t a ɪ ʧj a ɪ r k a ɫ b oː s nj eː r a 
[287.325]
<no-speech> 
[289.005]
ɪ r s v a rj bj a ʊ sj a t a s k a ɪ p iː r a <sta> gj ɛ ɫ t oː n a s n ʊ m oː kj iː k lj ɪ nj ɪ s ʒj ɪ n a ɪ <no-speech> t a ɪ m ʊ m s nj ɛ pj rj ɪ k ɫ a ʊ s oː nj ɛ s mj ɛ s mj ɪ e sj tj ɛ gj iː vj æː n a m <no-speech> nj ɛ s v a r b ʊ k a d j ɪ s v a ʒj ʊ ɔ j a p r oː ʃ ɑː lj iː ɪ r iː r a vj ɪ e t uː <breath> bj ɛ t j ɪ s nj ɛ ɡ ɑː lj ɪ p a vj ɛ ʃj tj ɪ nj ɛ s mj ɛ s gj iː vj æː n a m <sta> mj ɪ e sj tj ɛ oː nj ɛ k a ɪ mj ɛ 
[304.945]
<no-speech> 
[306.925]
<laugh> iː sj ɪ v a ɪ z d ʊ ɔ j ɪ <breath> 
[308.265]
<no-speech> 
[310.235]
<sta> <no-speech> n ʊ 
[311.755]
<no-speech> 
[315.655]
n ʊ <sta> t a ɪ ʊ ʃ t a t <breath> 
[317.525]
<no-speech> 
[318.505]
<int> n ʊ 
[319.205]
<no-speech> 
[322.725]
n ʊ <int> 
[323.385]
<no-speech> 
[324.445]
<breath> a ɪ ʃj ɪ t ɑː gj ɪ k a ʒj ɪ n s a k a ʊ b r ɑː ʃj kj eː s nj ɛ ɪ ʃ ʃ ɑː ɫ oː k a ɪ p <no-speech> a lj ɛ ɡ a ɫ nj ɪ e k oː k a ɪ t oː kj ɪ e ʃ a lj ʧj a ɪ 
[330.535]
<no-speech> 
[333.015]
a r t ʊ d a r <sta> dj ɛ nj gj ɛ ɪ ɡ a ɫ k ʊ ɔ n ɔ r s 
[335.765]
<no-speech> 
[336.615]
<sta> nj ɛ dj ɛ nj gj ɛ ɪ nj ɪ e k ʊ ɔ m 
[338.065]
<no-speech> 
[340.205]
<no-speech> 
[341.995]
<no-speech> 
[343.685]
<sta> m ɣ m 
[344.395]
<no-speech> 
[348.595]
<no-speech> 
[348.945]
<no-speech> 
[354.035]
<sta> n ʊ ɪ r a ʃ nj ɛ t nj ɛ n ʊ ɛ ɪ n ʊ p a sj ɪ ʒj uː rj eː t n ɔ r s vj ɪ e t ɔ j a t r oː d oː 
[358.885]
<no-speech> 
[359.875]
<sta> k a ɪ p t a ɪ <breath> vj ɪ s ʊ ʒj mj ɪ r ʃ t ʊ ʒj ɪ n a ɪ ɡ rj iː ʃj tj ɪ t a m s ʊ t a ɪ k ʊ r <int> gj ɪ tj ɛ n 
[364.355]
<no-speech> 
[366.695]
<sta> <laugh> <breath> 
[369.135]
<no-speech> 
[373.045]
<sta> n ʊ 
[373.685]
<no-speech> 
[375.865]
<sta> t a ɪ gj ɪ v a <no-speech> t a ɪ gj ɪ v a 
[378.335]
<no-speech> 
[385.175]
<sta> m ɣ m <no-speech> 
[386.345]
<no-speech> 
[387.735]
<sta> a ɪ ʃ k ʊ n ʊ ʒj uː rj eː sj ɪ m <no-speech> k a s tj ɛ n ɡ a ʊ sj ɪ s s ʊ t ɔ m b r ɑː ʃj kj eː m ɪ n ɡ a gj ɪ ɫ a b a ɪ ɫ a ʊ kj a k a s ɡ a ʊ sj ɪ s <breath> t a d a ɪ r j ɪ n a ɪ gj ɪ j a ʊ <no-speech> d a rj iː s t a ɪ p <laugh> <breath> 
[399.195]
<no-speech> nj ɪ e k a ɪ p j a ɪ n oː r a s nj ɛ p r a ɛ ɪ n a 
[402.075]
<no-speech> 
[403.425]
k ɑː 
[404.005]
<no-speech> 
[405.825]
n ʊ <no-speech> n ʊ <int> t a ɪ gj ɪ t a d a ʊ sj ɪ s ɑː kj eː d a ɪ ɡ uː gj ɪ ɪ ʃ m ɑː nj æː s vj ɪ s uː j a ʊ tj ɛ n <no-speech> pj ɪ r m uː ʃj ɪ t uː <no-speech> n ʊ t a ɪ gj ɪ a ʃ k a ɪ p 
[417.475]
s oː dj ɪ n a ʊ gj ɪ <sta> n ʊ sj ɪ pj ɪ e ʃj a ʊ p ɫ ɑː n ɑː a n t k a r t ɔ n oː ʧj a t oː kj a ʧj a t oː kj a ʧj a t oː kj a ɛ ɪ lj eː <laugh> <breath> t a ɪ v a t a ɪ <no-speech> n ʊ 
[427.815]
<no-speech> 
[436.295]
<breath> n ʊ t a ɪ gj ɪ a ʃ <hes> kj ɪ e k s ʊ sj ɪ s oː dj ɪ n a ʊ p ɑː s k ʊ i d a r p a s oː dj ɪ n a ʊ vj ɪ s uː r uː ʃj uː a ʦj kj ɪ r a ɪ tj ɪ p oː <no-speech> nj ɛ d ʊ ɔ sj ʊ ʒj iː dj eː tj ɪ oː 
[445.165]
<no-speech> 
[446.355]
n ʊ p oː kj æː lj ɪ s 
[447.755]
<no-speech> 
[449.475]
n ʊ 
[450.145]
<no-speech> 
[451.055]
d a ɪ ɡ a m j a ʊ gj ɪ t a ɪ p 
[452.755]
<no-speech> 
[453.635]
<no-speech> 
[454.035]
<no-speech> 
[455.095]
<sta> a x ɪ r s a k a ɪ j a ʊ vj ɪ s k a s a r nj ɛ 
[457.535]
<no-speech> 
[458.855]
<sta> n ʊ t a ɪ ʒj uː rj eː sj ɪ m 
[460.205]
<no-speech> 
[464.215]
ɑː ɣ ɑː 
[464.985]
<no-speech> 
[466.235]
ɑː ɣ ɑː n ʊ t a ɪ s a kj a ʊ a ʃ vj ɪ s uː r uː ʃj uː p a sj ɪ s oː dj ɪ n a ʊ a ʦj kj ɪ r a ɪ ɪ rj gj ɪ s ʊ sj ɪ r a ʃj a ʊ tj ɛ n <breath> <sta> tj rj iː s t oː kj ɪ e kj ɛ t ʊ rj ɪ t oː kj ɪ e <laugh> <breath> <no-speech> n ʊ ɪ r 
[478.135]
<no-speech> 
[478.715]
<no-speech> 
[480.365]
a ɪ t a ɪ gj ɪ <foreign> 
[481.875]
<no-speech> 
[485.905]
ɑː ɣ ɑː <sta> <no-speech> n ʊ t a ɪ m a tj iː sj ɪ m p a v ɑː s a rj iː 
[489.265]
<no-speech> 
[490.275]
k a ɪ p <sta> ʧj a k a s b ʊ s 
[491.975]
<no-speech> 
[494.175]
<sta> t a ɪ v a <no-speech> k a s ʃj a ɪ p n a ʊ j oː <no-speech> nj ɪ e k oː nj ɛ s ʊ sj ɪ tj ɪ nj kj ɪ nj ɛ m a t a ɪ mj ɛ r ɡ uː 
[499.805]
<no-speech> 
[505.890]
<no-speech> 
[511.975]
<sta> a a <breath> <int> 
[513.135]
<no-speech> 
[518.535]
<breath> <sta> a ʃ ɪ rj gj ɪ nj ɛ ɪ nj ɛ ɪ mj ɪ e sj tj ɛ <no-speech> n ʊ 
[521.605]
<no-speech> 
[522.725]
<sta> nj ɪ e k ʊ r 
[523.835]
<no-speech> 
[524.925]
<sta> s k a mj bj ɪ n oː <int> k ʊ rj ɔ j ʧj a dj ɪ e n ɔ j <no-speech> s ɑː kj eː ɪ ʃ t a vj æː s n ʊ mj ɛ rj iː ɡ ɑː v oː <laugh> <breath> 
[531.565]
<no-speech> 
[532.745]
<hes> n ʊ <breath> 
[533.785]
<no-speech> 
[536.105]
<sta> ɑː ɣ ɑː bj ɛ t t a ɪ 
[537.585]
<no-speech> 
[540.385]
<sta> oː t a ɪ p t a ɪ nj ɪ e k oː 
[542.005]
<no-speech> 
[544.745]
n ʊ 
[545.455]
<no-speech> 
[548.475]
<sta> n ʊ ɑː ɣ ɑː ʧj a dj eː ɫ k ɔ m p uː n ʊ n ʊ k a d tj ɛ n ɪ n ɡ a t oː kj a ʒj ɪ n a ɪ 
[554.965]
<no-speech> 
[557.475]
<sta> nj ɪ e k oː a ʃ tj ɛ n s a k a ʊ 
[559.025]
<no-speech> 
[561.625]
a ɪ dj ɪ e vj ɛ t a ɪ nj ɛ gj ɪ ɡ a ɪ ɫ a t a ɪ nj ɛ gj ɪ k a ʃ k a m d a vj ɛ ɪ t a ɪ gj ɪ <laugh> <breath> <no-speech> <sta> <foreign> <breath> ɪ r t a ɪ p t ʊ ɔ s n ʊ mj ɛ rj ʊ s ɡ a ʊ n a k a s n oː rj ɪ ɪ r nj ɛ n oː rj ɪ vj ɪ s oː kj ɪ e 
[572.905]
<no-speech> 
[575.225]
t a ɪ v a <sta> <no-speech> k oː k s oː r a s p a s j ʊ s gj ɛ r a ɪ ʃj ɪ ɫ t a 
[579.245]
<no-speech> 
[586.765]
ɑː ɣ ɑː 
[587.605]
<no-speech> 
[590.525]
ɑː ɣ ɑː 
[591.315]
<no-speech> 
[595.055]
<no-speech> 
[595.285]
<no-speech> 
[600.020]
