[0.000]
<no-speech> 
[6.438]
<no-speech> 
[12.875]
<no-speech> 
[13.285]
<no-speech> 
[15.655]
<sta> j a ʊ ɪ ʃj vj ɪ s t a p r ɑː sj mj ɛ kj æː lj ɪ s k a r t ʊ s p a k vj ɪ e tj eː ɪ r 
[18.255]
<no-speech> 
[19.465]
<no-speech> 
[20.625]
<no-speech> 
[22.095]
<sta> n ʊ sj vj ɛ ɪ k a j ʊ sj tj ɛ <no-speech> a lj oː <no-speech> k ɑː vj ɛ ɪ kj ɪ 
[27.365]
<no-speech> 
[28.635]
<sta> a ʃ gj ɪ rj ʤj ʊ t a vj ɛ 
[29.785]
<no-speech> 
[31.425]
<sta> oː t ʊ gj ɪ rj dj ɪ m a nj ɛ <no-speech> k ɑː 
[33.785]
<no-speech> 
[35.055]
<no-speech> 
[35.675]
<no-speech> 
[36.945]
<sta> n ʊ t a ɪ gj ɪ rj dj ɪ t a ɪ t v a r k ɔ j t a d a <breath> oː k ɫ a ʊ sj iː k k ɑː vj ɛ ɪ kj ɪ <breath> <no-speech> k ɑː vj ɛ ɪ kj ɪ d a b a r <no-speech> 
[45.015]
<no-speech> 
[45.915]
<sta> k ɑː <breath> 
[46.445]
<no-speech> 
[49.015]
<sta> <breath> a ɪ oː oː oː k ɫ a ʊ sj iː k oː mj ɪ nj ʤj ʊ s k ɑː vj ɛ ɪ kj a <breath> 
[52.765]
<no-speech> 
[54.725]
<no-speech> 
[55.135]
<no-speech> 
[57.445]
<sta> ʒj uː rj ɪ ɔ lj ɪ mj pj ɪ j ɑː d ɑː oː k ɑː oː <oov> t ʊ ɪ rj gj ɪ sj tj æː bj ɪ t ɑː ɔ lj ɪ mj pj ɪ j ɑː d ɑː <no-speech> k ɑː 
[61.045]
<no-speech> 
[62.275]

[62.635]
<no-speech> 
[64.095]
<sta> <breath> t ʊ nj ɛ ʒj uː rj ɪ nj ɛ t a ʊ nj ɛ iː d oː m ʊ <breath> oː k ɫ a ʊ sj iː k k a ɪ p b ʊ v oː ɡ rj ɛ t oː s t a s gj ɪ m t ɑː dj ɪ e nj ɪ s 
[68.225]
<no-speech> 
[69.465]
<no-speech> 
[70.515]
<no-speech> 
[76.265]
<sta> <no-speech> j oː <breath> 
[78.125]
<no-speech> 
[79.335]
<sta> oː kj ɪ e k ʒ m oː nj uː b ʊ v oː <breath> 
[80.755]
<no-speech> 
[82.965]
<sta> 
[83.365]
<no-speech> 
[86.405]
<sta> oː t a ɪ ʧj a j uː s k a r t ʊ d ɑː rj eː t a r tj ɪ e d ʊ k ɫ a sj oː k a ɪ d ɑː rj eː k a r t ʊ 
[89.475]
<no-speech> 
[94.065]
<sta> m ɣ m 
[94.695]
<no-speech> 
[97.115]
<sta> oː k ʊ r oː <oov> oː oː k ɑː ɡ rj ɛ t a ɪ d oː v a n oː j oː d a ʊ gj a ʊ 
[100.225]
<no-speech> 
[110.255]
<sta> m 
[110.825]
<no-speech> 
[112.205]
<sta> oː gj ɛ r d oː s gj ɛ r d a nj ɛ ɡ rj iː ʃ t a ɪ ʃ a nj ɡ lj ɪ j oː s 
[114.425]
<no-speech> 
[115.965]
<sta> gj ɛ r d a nj ɛ ɡ rj iː ʒ ʊ s ɪ ʃ a nj ɡ lj ɪ j oː s 
[117.385]
<no-speech> 
[118.835]
<sta> a ɪ 
[119.525]
<no-speech> 
[129.975]
<sta> bj ɛ t j a ʊ j ɪ n a ɪ a pj sj ɪ p r ɑː t ʊ s a r nj ɛ tj ɛ n a ɪ b uː t <no-speech> j a ʊ nj ɪ e k oː nj ɛ pj ɛ rj gj iː vj ɛ n a k a d tj ɛ n ɪ ʃ v a ʒj ɑː v oː s t ʊ dj ɪ j ʊ ɔ t 
[135.195]
<no-speech> 
[137.095]
<sta> <breath> oː ʒj ɪ n a ɪ k ɑː n oː rj eː j a ʊ <oov> 
[138.855]
<no-speech> 
[140.665]
<sta> ʒj ɪ n a ɪ k ɑː n oː rj eː j a ʊ t a vj æː s p a k ɫ a ʊ s t <hes> <breath> a r t ʊ nj ɛ ɡ a lj eː t ʊ m ʦ ʊ pj ɛ p a ʒj uː rj eː t <hes> vj ɪ e n uː k vj ɛ p a ɫ uː a r nj eː r a pj ɪ r k t 
[147.385]
<no-speech> 
[148.485]
<sta> <hes> ɛ s ɔ lj ɪ vj ɛ rj oː rj ɛ ɪ k 
[150.335]
<no-speech> 
[151.715]
<sta> k ɑː <breath> 
[152.225]
<no-speech> 
[156.355]
<sta> nj ɛ ʒj ɪ n a ʊ k ʊ r bj ɛ t a ʃ m a ʧj a ʊ ɪ nj tj ɛ rj nj ɛ tj ɛ k a d m a ʧj a ʊ <oov> <no-speech> m a ʧj a ʊ ɪ nj tj ɛ rj nj ɛ tj ɛ k a d ʒj ɪ n a ɪ j uː j ɪ e t ʊ rj eː t uː b uː t ɛ s ɔ lj ɪ vj ɛ rj oː <breath> v ʊ mj ɛ n v a dj ɪ n a sj ɪ t oː k s b a ɫ t a s b ʊ tj ɛ lj ʊ k a s ɪ r ʊ ʒ r a ʃj iː t a <foreign> 
[168.235]
<sta> ʧj a nj ɛ m a n rj ɛ ɪ kj a bj ɛ t ʃ a kj ʊ ɔ s t a ɪ tj ɪ k r a ɪ j uː nj ɪ e k ʊ r nj eː r a t a ɪ a ʃ ɡ a ɫ v oː j ʊ ɡ a ɫ t a vj æː s p a p r a ʃj iː sj ʊ k a d vj ɪ lj nj ʊ j p a ʒj uː rj eː t ʊ m k ʊ r n ɔ r s <no-speech> a pj lj ɪ n k tj ɛ n t oː p a r d ʊ ɔ t ʊ vj eː sj ɛ 
[175.675]
<no-speech> 
[179.265]
<sta> n ʊ nj ɛ s ʒj ɪ n a ʊ ʃj a ɪ p t a ɪ j uː bj ɛ vj ɛ ɪ k nj ɪ e k ʊ r nj eː r a t uː <no-speech> t uː bj ɛ n t j a ʊ ɪ nj tj ɛ rj nj ɛ tj ɛ t a ɪ nj ɛ r oː d oː nj ɛ ɪ k a d d a ɡ ɫ a sj ɛ b uː t uː nj ɛ ɪ nj ɛ ɪ j oː kj ɔ j kj ɪ t ɔ j p a r d ʊ ɔ t ʊ vj eː j nj ɛ ɪ ɛ ʊ r ɔ k ɔ sj ɛ 
[187.805]
<no-speech> 
[188.655]
<sta> a ʃ 
[189.135]
<no-speech> 
[191.225]
<sta> n ʊ b a ɫ t a s t oː k s b ʊ tj ɛ lj ʊ k a s 
[192.685]
<no-speech> 
[194.165]
<sta> oː t ʊ vj ɪ e n a s ʊ s a vj ɪ m d a b a r j a ʊ ʧj a ʃj nj ɛ kj ɪ e sj ɪ 
[196.375]
<no-speech> 
[197.525]
<sta> j ʊ sj tj ɛ 
[198.145]
<no-speech> 
[199.495]
<sta> <breath> nj ɛ s t ʊ k a ɪ m a lj ɪ t a ɪ 
[200.885]
<no-speech> 
[202.335]
<sta> a ɪ n ʊ t a ɪ gj ɛ r a ɪ nj ɛ s a ʃ k a ʃ k a ɪ p ɡ a ɫ v oː j ʊ n ʊ t a ɪ s ɡ a ɫ v oː j ʊ k a d t ʊ s a ʊ vj ɪ e n a ʃj nj ɛ kj ɪ a ʃ s a ʊ vj ɪ e n a ʃj nj ɛ k ʊ <breath> oː mj ɪ nj ʤj ʊ s nj ɛ ɡ rj iː ʃ s a v a ɪ d ɡ a lj iː 
[208.355]
<no-speech> 
[210.165]
<sta> oː t a ɪ k a d a j ɪ s p a s k ʊ tj ɪ nj iː k a r t ɑː b ʊ v oː 
[211.805]
<no-speech> 
[213.475]
<sta> k ɑː 
[213.995]
<no-speech> 
[217.355]
<sta> n ʊ <no-speech> oː t a ɪ k oː dj eː ɫ j ɪ s nj ɛ ɡ rj iː ʃ t a 
[219.705]
<no-speech> 
[225.865]
<no-speech> 
[232.025]
<no-speech> 
[233.025]
<no-speech> 
[235.985]
<sta> a ɪ oː t a ɪ j iː p a ɪ m s k a s n ɔ r s a r nj ɛ a r t ʊ a r a r p a r a ʃj ɛ ɪ fj ɛ ɪ z b ʊ kj ɛ 
[239.745]
<no-speech> 
[244.185]
<sta> m ɣ m 
[244.945]
<no-speech> 
[249.065]
<sta> <breath> oː d a r a tj sj ɪ mj ɛ nj ɪ k a ɪ b ʊ v a ʊ p r ɑː ʃj ʊ s t a vj æː s ʒj ɪ n a ɪ k oː <no-speech> a r ʒj ɪ n a ɪ t a vj æː s b ʊ v a ʊ p r ɑː ʃj ʊ s t oː s kj ɛ mj pj ɪ nj eː lj eː s j ɛ ɪ ɡ ʊ k ʊ r n ɔ r s <oov> p a ʒj uː rj eː t ʊ m j ɛ ɪ ɡ ʊ k ɑː n ɔ r s p a tj ɪ s a ʊ <oov> 
[257.965]
<no-speech> 
[260.105]
<sta> bj ɛ t nj eː r a a r nj ɛ 
[261.015]
<no-speech> 
[262.795]
<sta> <breath> n ʊ j oː a r b a t a d a ʒj ɪ n a ɪ k a s 
[264.535]
<no-speech> 
[265.395]
<sta> a r b a a ʃ n oː rj ʊ t oː s t oː kj oː s v a a p v ɑː lj oː s <no-speech> n ʊ ʒj ɪ n a ɪ k ʊ r ʧj a t oː kj ɑː d a b a r vj ɪ s oː s tj ɛ t ʊ rj ɪ t a ɪ t oː kj oː s d a r n oː rj eː ʧj a ʊ nj ɛ s j ɛ ɪ ɡ ʊ t a ʊ s a ʊ k oː ʊ ʃj sj ɪ s a kj iː sj ɪ t a ɪ ɪ r m a n ʊ ʃ s a kj iː k t oː kj ɑː p ɑː ʧj ɑː 
[274.025]
<no-speech> 
[275.465]
<sta> n ʊ t a p r ɑː sj mj ɛ ɪ ʃ 
[276.565]
<no-speech> 
[279.605]
<sta> j oː <breath> n ʊ a ʃ t a ʊ n ʊ mj ɛ sj ʊ p ɑː s k ʊ i n ʊ ɔ r oː d ɑː k oː kj oː s a ʃ k oː kj oː s tj ɛ n n oː rj eː ʧj a ʊ j ɛ ɪ ɡ ʊ t oː s a n oː s nj ɛ r a nj dj ɪ k ʊ r k ʊ r a ʃ t a ʊ pj ɪ r pj ɪ rj mj a ʊ r a ʃj a ʊ 
[287.385]
<no-speech> 
[288.965]
<sta> oː t a ɪ ɡ a ɫ a t v a rj iː sj ɪ iː k a ɪ m ɑː s ʊ tj eː v a ɪ s 
[291.055]
<no-speech> 
[298.050]
<no-speech> 
[305.045]
<sta> m 
[305.675]
<no-speech> 
[307.725]
<sta> nj ɛ s p a v a r ɡ ʊ s 
[308.625]
<no-speech> 
[316.365]
<sta> a 
[316.945]
<no-speech> 
[318.735]
<sta> <breath> oː t a ɪ p a s k a ɪ t uː d a b a r a n t r a m sj ɛ mj ɛ sj tj rj ɛ t a p r ɑː sj mj ɛ a n a n t r a m p ʊ sj mj ɛ tj iː tj ɪ e k p a t kj ɪ e k pj ɪ r m a m a r a r n ɔ r m ɑː lj a ɪ a r t a p r ɑː sj mj ɛ a r a r ɪ ʃ a r k a s n ɔ r s kj ɛ ɪ tj eː sj ɪ 
[327.225]
<no-speech> 
[333.475]
<sta> m ɣ m 
[334.115]
<no-speech> 
[344.045]
<sta> oː t a ɪ p ɑː s k ʊ i pj ɛ n k t ɑː dj ɪ e nj iː a r nj ɛ vj ɪ sj ɪ sj ɛ mj ɪ n ɑː r a ɪ 
[346.375]
<no-speech> 
[348.695]
<sta> <breath> oː t a ɪ mj ɛ s ʒj ɪ n a ɪ k ɑː mj ɛ s s ʊ gj ɪ n t ʊ ʃj nj ɛ kj eː j ɔ m <no-speech> a r gj ɪ rj dj ɪ <no-speech> s ʊ gj ɪ n t ʊ ʒj ɪ n a ɪ d a r k ɑː ʃj nj ɛ kj eː j ɔ m dj eː ɫ t oː t ɔ m oː a r t ʊ j iː s ʊ tj ɪ nj kj ɪ k a d a n ɔ r s 
[356.375]
<no-speech> 
[357.975]
<sta> t ɔ m ɑː 
[358.565]
<no-speech> 
[360.175]
<sta> oː t a ɪ j ɪ s nj ɛ ɪ ʃj sj ɪ k r a ʊ s t oː d a r nj ɪ e k ʊ r <no-speech> nj ɛ j ɪ s nj ɛ ɪ ʃj sj ɪ k r a ʊ s t oː s a k a ʊ d a r nj ɪ e k ʊ r 
[364.735]
<no-speech> 
[366.295]
<sta> bj ɛ t nj ɛ nj ɛ ʃj nj ɛ kj eː j oː t 
[367.515]
<no-speech> 
[369.505]
<sta> nj ɛ ʃj nj ɛ kj eː j oː t a pj ɪ e t a ɪ k a d j ɪ e j ɪ e ʃ k oː s b ʊ t oː 
[371.765]
<no-speech> 
[372.905]
<sta> n ʊ t a ɪ k a d gj ɪ n t a s t a ɪ ʒj ɪ n a ɪ k a d ʧj a t ʊ ɔ j gj ɪ mj dj iː s <no-speech> n ʊ ɪ r p ɑː s k ʊ i t a s t ɔ m a s lj ɪ k s a n t lj æː d oː j ɛ ɪ ɡ ʊ nj ɛ s 
[378.335]
<no-speech> 
[379.375]
<sta> oː mj ɪ nj ʤj ʊ s nj ɛ n oː rj ɪ k a d kj ɪ t oː s x ɑː t oː s j ɪ e ʃ k oː tj ɪ s 
[381.835]
<no-speech> 
[384.195]
<sta> mj ɪ n d a ʊ ɡ a s <oov> 
[385.395]
<no-speech> 
[390.675]
<sta> <breath> oː t a ɪ k ʊ rj a m d a r ɫ a ɪ k ʊ i p r a sj ɪ tj æː sj eː <breath> 
[393.795]
<no-speech> 
[395.795]
<sta> oː k ʊ rj a m s a k a ʊ ɫ a ɪ k ʊ i p r a sj ɪ tj æː sj eː 
[397.445]
<no-speech> 
[399.965]
<sta> nj ɛ s <hes> 
[400.995]
<no-speech> 
[412.845]
<sta> s ʊ mj ɪ n d a ʊ ɡ ʊ a r s ʊ t ɔ m ʊ 
[414.345]
<no-speech> 
[416.135]
<sta> s ʊ mj ɪ n d a ʊ ɡ ʊ s a k a ʊ a r s ʊ t ɔ m ʊ 
[417.655]
<no-speech> 
[419.915]
<sta> nj ɛ s nj ɛ s ʒj ɪ n a ɪ k a s iː r a nj ɛ s p ɑː vj iː ʒj ʤj ʊ i nj ɛ s t ɔ m a s tj ɪ k r a ɪ lj ɪ k s a n t lj æː d oː 
[424.705]
<no-speech> 
[425.645]
<sta> nj ɛ s tj ɪ k r a ɪ s a k a ʊ lj ɪ k s a n t lj æː d oː j ɛ ɪ ɡ ʊ j ɪ s a ɪ t a p r ɑː sj mj ɛ nj ɛ sj ɪ j ɪ e ʃ k oː s <no-speech> b ʊ t oː t a ɪ p ɑː s k ʊ i 
[430.995]
<no-speech> 
[438.900]
<no-speech> 
[446.805]
<sta> n ʊ <oov> <breath> nj ɛ s ʃj a ɪ p t a ɪ a ʃ p a ɡ a ɫ v oː j a ʊ k a d ʒj ɪ n a ɪ j ɛ ɪ ɡ ʊ <oov> mj ɪ n d a ʊ ɡ a s j ɪ e ʃ k oː t uː kj ɪ t oː b ʊ t oː s a kj iː kj ɪ m tj rj ɪ j uː k a m b a rj uː t a ɪ ɡ ɑː lj ɪ m a n ʊ n ɔ r m ɑː lj a ɪ ɪ r tj rj iː sj ɛ ɪ ʃj sj ɪ tj ɛ k t bj ɛ t a ɪ ʃ k ʊ mj ɪ n d a ʊ ɡ a s k a ʒj ɪ n a r n oː rj eː t uː 
[457.455]
<no-speech> 
[459.515]
<sta> oː <oov> nj ɛ v ɑː r oː t iː p r oː t m uː ʃj ʊ s 
[461.655]
<no-speech> 
[463.105]
<sta> nj ɛ v ɑː r oː t iː p r oː t m uː ʃj ʊ s 
[464.385]
<no-speech> 
[474.195]
<sta> m ɣ m 
[474.865]
<no-speech> 
[478.135]
<sta> m ɣ m 
[478.835]
<no-speech> 
[483.615]
<sta> a ɪ tj ɪ k sj lj a ɪ t a ɪ gj ɪ ʧj a j oː p a 
[485.355]
<no-speech> 
[486.805]
<sta> p a ɡ rj ɪ nj dj ɪ nj ɪ s d a r b a s 
[488.355]
<no-speech> 
[490.225]
<sta> oː k a ʒj ɪ n nj ɛ m a tj ɛ ɪ n a mj ɪ e nj ɛ p a mj æː t ʊ s nj ɛ p a mj æː t ʊ s a ʃ s k ɑː r oː s nj ɛ m a tj ɛ ɪ n a mj ɪ e t oː kj oː s <hes> tj ɪ ɡ rj ɪ nj eː s nj ɛ s nj ɪ e k ʊ r nj ɛ r a n d ʊ s k ɑː r oː s 
[496.735]
<no-speech> 
[498.695]
<sta> p a s t a ɪ b ʊ tj ɛ 
[499.905]
<no-speech> 
[501.375]
<sta> nj ɛ s a ʃ k a ʃ k ʊ r p a mj ɛ ʧj a ʊ t ɑː 
[503.025]
<sta> s k ɑː r ɑː <no-speech> 
[504.755]
<sta> nj ɛ s <hes> nj ɛ r a n d ʊ nj ɪ e k ʊ r <breath> t a ɪ d a r t a v oː nj ɛ ʃj oː j ʊ t oː kj ɑː vj ɪ e n ɑː t ʊ rj ɪ s p a ɫ v oː t ɑː 
[509.765]
<no-speech> 
[510.645]
<sta> k ʊ r a k ʊ r b ʊ v a ʊ p a sj ɪ eː m ʊ sj ɪ vj ɪ e n ɑː sj iː kj iː ɪ r nj ɛ a tj ɪ d a vj a ʊ <breath> n ʊ t ɑː t a mj sj a ɪ mj eː lj iː n ɑː s ʊ gj eː lj iː tj eː m 
[515.595]
<no-speech> 
[517.945]
<sta> t a ɪ ʃj ɪ t ɑː d a b a r nj ɛ ʃj oː j ʊ p a tj ɪ 
[520.165]
<no-speech> 
[521.215]
<sta> <breath> oː t ʊ ɡ a ɫ t ʊ rj ɪ t uː <oov> k ɫ a ʊ sj iː k ɡ a ɫ t ʊ rj ɪ ɡ a ɫ t ʊ rj ɪ t uː nj ɛ nj ɛ ʃj oː j a m uː s a v oː d r a b ʊ ʒj uː k ʊ r k ʊ r k ʊ r j a ʊ t ʊ nj ɛ nj ɛ ʃj oː j ɪ t oː kj uː t uː m a rj ʃj kj ɪ nj uː ʤj ɪ nj sj ɪ nj uː <no-speech> k ʊ r a ʃ nj ɛ ʃj oː j a ʊ ɪ r ɪ r t ʊ s a kj ɛ ɪ a tj ɪ d ʊ ɔ k m ʊ m s a t r oː d oː nj ɛ ɪ t ʊ j ʊ ɔ s <sta> nj ɛ ʃj oː j ɪ nj ɛ ɪ k ɑː 
[533.875]
<no-speech> 
[536.745]
<sta> a r 
[537.195]
<no-speech> 
[539.905]
<sta> nj ɛ ʃj oː j ɪ t ʊ j ʊ ɔ 
[540.945]
<no-speech> 
[543.135]
<sta> s ʊ k ʊ ɔ 
[543.825]
<no-speech> 
[551.045]
<sta> m 
[551.515]
<no-speech> 
[554.505]
<sta> a j uː s iː dj ɛ d a t j ʊ ɔ s p a r d ʊ ɔ t a r k ɑː d ɑː r oː t 
[556.635]
<no-speech> 
[558.225]
<sta> m a ʧj a ʊ ɡ rj ɛ t a t a ɪ iː dj eː j ʊ s tj ɛ n t a r p 
[559.985]
<no-speech> 
[561.375]
<sta> m ɑː n oː d r a b ʊ ʒj a ɪ a r k a ʃ k a ɪ p tj ɛ n t a s <oov> 
[563.365]
<no-speech> 
[564.675]
<sta> t a ɪ j uː s tj ɛ n p r a k a ɫ a t bj ɛ n t k ɑː n ɔ r s 
[566.315]
<no-speech> 
[574.060]
<no-speech> 
[581.805]
<sta> m ɣ m 
[582.595]
<no-speech> 
[584.505]
<sta> nj ɛ s ʒj ɪ n a ɪ k a s iː r a a ʃ <oov> a ʃ k a ɪ p s ɑː k a n t iː t ɑː tj ɛ m ɑː t a ɪ d a r t ʊ rj ʊ d a r t ʊ rj ʊ vj ɪ e n ʊ s n a ʊ j ʊ s b a t ʊ s t a ɪ ɡ a ɫ v oː j ʊ bj ɛ t a ʃ t a ɪ <oov> n ʊ k a ɪ p a ʃ nj ɛ ʒj ɪ n a ʊ k a ɪ p tj ɛ n vj ɪ s a vj iː k s t a t a sj ɪ sj tj ɛ m a 
[594.315]
<no-speech> 
[595.225]
<sta> ɪ r <hes> <oov> 
[596.345]
<no-speech> 
[598.935]
<sta> m a n t a ɪ j ɪ e 
[599.665]

[600.020]
