[0.000]
<no-speech> 
[1.715]
<no-speech> 
[2.155]
<no-speech> 
[9.605]
t a ɪ p k ɫ a ʊ s a ʊ 
[10.565]
<no-speech> 
[11.785]
ɫ ɑː b a s rj iː t a s 
[12.865]
<no-speech> 
[13.915]
ɫ ɑː b a s 
[14.755]
<no-speech> 
[15.625]
k a ɪ p ɫ a ɪ k a ɪ sj ɪ d a n ʊ tj ɛ 
[17.135]
<no-speech> 
[18.255]
j a ʊ sj æː nj a ɪ ɡ a ɫ v oː j a ʊ ɛ ɪ t ɫ a p ʊ s ɡ rj eː b oː t 
[20.965]
<no-speech> 
[22.955]
k a s ʧj a nj ɛ gj ɪ rj dj eː t a ɪ 
[24.695]
<no-speech> 
[25.885]
nj ɛ nj ɛ b ʊ v oː k ʊ r t a ʊ b ʊ s nj ɛ b ʊ v oː 
[28.525]
<no-speech> 
[29.685]
<breath> k oː dj eː ɫ ʧj a t a ɪ p m a n a ɪ d a s gj ɪ rj dj ɪ sj ɪ m a n <no-speech> nj ɛ 
[34.625]
<no-speech> 
[38.165]
ʃj ɪ t 
[38.745]
<no-speech> 
[40.445]
oː k ɑː p a s m ʊ m s a t v a rj iː sj ɪ 
[42.355]
<no-speech> 
[44.145]
t ɑː 
[44.755]
<no-speech> 
[47.285]
oː 
[47.685]
<no-speech> 
[49.725]
t a ɪ gj ɛ r a ɪ n ʊ sj kj ɪ nj sj ʊ v a lj gj iː t d a rj iː t k ɫ a ʊ sj iː k d a n ʊ t t ʊ t ʊ <no-speech> a ʃ n oː rj eː j a ʊ t a vj æː s p a p r a ʃj iː t k a d t ʊ <oov> a t v a ʒj ʊ ɔ s d ɔ n ɔ r a ɪ 
[60.455]
<no-speech> 
[61.645]
k a d m a n p r a nj ɛ ʃ t ʊ m 
[63.035]
<no-speech> 
[64.215]
k a ɪ k r a ʊ j ɑː <oov> a t v a ʒj ʊ ɔ s ɪ m t 
[66.565]
<no-speech> 
[67.365]
k a d m a n p r a nj ɛ ʃ t ʊ m 
[68.755]
<no-speech> 
[69.855]
nj ɛ s a ʃ ʒj ɪ n oː k nj ɪ e k a t iː mj ɪ e s t ɑː rj ɛ t a ɪ ɪ ʃj ɛ ɪ n ʊ k ɫ a ʊ sj iː k ɪ r ɪ r ɪ r ɪ r oː m a n rj ɛ ɪ kj a d ʊ ɔ t 
[75.795]
<no-speech> 
[77.305]
dj eː ɫ sj vj ɛ ɪ k ɑː t oː s 
[78.405]
<no-speech> 
[80.145]
k ɑː 
[80.735]
<no-speech> 
[82.845]
<oov> <oov> <oov> nj eː r a p ɫ a n ʊ ɔ s ɪ m t 
[85.445]
<no-speech> 
[87.315]
nj ɛ 
[87.945]
<no-speech> 
[89.785]
n ʊ t a ɪ k a m b a rj iː tj ɛ n 
[92.295]
<no-speech> 
[96.305]
nj ɛ ʒj ɪ n a ʊ nj ɛ ɫ a b a ɪ ɪ ʃj ɛ ɪ n ʊ a ʃ iː mj ɪ e s t ɑː 
[100.535]
<no-speech> 
[103.765]
<no-speech> nj ɛ ʒj ɪ n a ʊ tj ɪ k m a ʧj a ʊ s a vj ɪ v a lj dj iː bj eː ɫ a b 
[107.015]
<no-speech> 
[108.915]
nj ɪ e k oː gj æː r oː 
[110.185]
<no-speech> 
[111.835]
nj ɛ ʒj ɪ n a ʊ a ʃ nj ɛ k a ɪ p 
[113.895]
<no-speech> 
[115.305]
b ʊ lj vj eː s ɫ a b a ɪ p r ɑː s t oː s b ʊ v oː 
[117.405]
<no-speech> 
[118.515]
ɡ a ɫ k ɑː t ʊ pj rj ɪ sj ɪ k a sj ɛ ɪ 
[120.185]
<no-speech> 
[127.665]
oː k ɫ a ʊ sj iː k n ʊ t a ɪ vj ɪ s tj ɪ e k rj ɛ ɪ kj a <cough> rj ɛ ɪ kj a 
[133.765]
<no-speech> 
[134.815]
oː t a ɪ k ɑː t ʊ vj eː d a r uː p ɑː vj iː ʒj ʤj ʊ i nj ɛ kj ɛ pj ɪ 
[137.065]
<no-speech> 
[140.995]
t ʊ ʒj ɪ n oː k ɪ r a ʃ ɫ a b a ɪ p r ɑː s t a ɪ gj ɪ rj ʤj ʊ 
[143.495]
<no-speech> 
[147.915]
ʒj ɪ n 
[148.915]
<no-speech> 
[149.975]
b ʊ r oː k a ɪ vj ɪ s a ɪ nj ɛ ʊ ʒ a ʊ ɡ oː bj ɛ t ɡ a v a ʊ m a n kj ɪ tj ɪ d ʊ ɔ d a <laugh> ʒj ɪ n oː k <oov> lj ɪ n a a tj vj ɛ ʒj eː n ʊ d a b a r ʊ ɔ d uː 
[161.345]
<no-speech> 
[166.125]
m ɑː n oː lj ɪ n a b ʊ v oː d a b a r ɡ rj iː ʒ ʊ s bj ɛ t t a ɪ ɡ rj iː ʃ t a iː mj æː t ʊ s ɡ a ɫ k oː kj ʊ s kj æː t ʊ rj ɪ s k a r t ʊ s k a ɪ p rj ɛ ɪ kj a p ɫ a ʊ k ʊ s dj eː tj ɪ s 
[173.255]
<no-speech> 
[175.715]
nj ɛ s p a s rj ɛ n ɑː t ɑː b a ɡ d oː nj ɪ e nj æː ʒj ɪ n a ɪ tj ɛ n ʊ ʒ k a m p oː 
[180.115]
<no-speech> 
[181.595]
pj rj ɪ e ʃ a ɪ s 
[182.425]
<no-speech> 
[183.665]
oː k ʊ r vj ɪ zj ɪ j a ɪ r p a sj kj a ʊ ʊ ʒ k a m p oː 
[185.865]
<no-speech> 
[187.075]
tj ɛ n a ɪ ɪ r a ʃ ɛ ɪ n ʊ ɪ r j ɪ n a ɪ ɛ ɪ n a 
[189.335]
<no-speech> 
[191.065]
v a 
[191.745]
<no-speech> 
[193.685]
nj ɪ e k oː a ʃ pj lj ɪ k a ɪ kj ɛ r p ʊ ɔ sj ɪ 
[197.145]
<no-speech> 
[199.485]
<breath> 
[200.555]
<no-speech> 
[202.335]
a ʃ t a ɪ nj ɛ ɫ a b a ɪ <no-speech> t ʊ t a ɪ nj ɛ gj ɪ rj dj ɪ a ʃ t a ɪ gj ɪ rj ʤj ʊ 
[208.745]
<no-speech> 
[211.175]
j oː oː k ɫ a ʊ sj iː k k ɑː t ʊ tj ɛ d a ʊ gj a ʊ s oː dj iː sj ɪ n a m ʊ ɔ sj ɛ 
[215.365]
<no-speech> 
[226.895]
a t a ɪ d a r d a b a r nj eː r a a r nj ɛ <laugh> d a r nj ɛ ʊ ʒ a ʊ gj æː 
[231.105]
<no-speech> 
[235.475]
a a ɪ kj ɪ t a m r ʊ dj ɛ nj ʊ i <no-speech> t a ɪ gj ɛ r a ɪ t a ɪ a ʃ t a ʊ ɪ r k ʊ pj ʧj ʊ s ʊ ʒ r oː dj iː sj ʊ ʒj ɪ n oː k nj ɛ s d a ʊ ɡ k a s n oː rj ɪ ɪ r nj eː r k a ɫ v a rj ɪ j ɔ j 
[242.955]
<no-speech> 
[243.845]
v a ɡ a lj eː s n ʊ sj ɪ pj ɪ r k t 
[245.975]
<no-speech> 
[250.525]
m ɣ m 
[251.505]
<no-speech> 
[252.415]
ɪ r ɪ r ɪ r vj ɪ k nj eː j p a v ɑː s a rj oː j a ʊ nj ɛ bj ɛ s t oː vj ɪ ʒj ɪ n oː k 
[256.335]
<no-speech> 
[257.155]
oː k ɫ a ʊ sj iː k k a d a t ɑː tj ɪ ɫ t ɑː m uː s <oov> p a b a ɪ k s s t a tj iː t 
[260.515]
<no-speech> 
[262.695]
nj ɛ gj ɪ rj dj eː j a ɪ kj ɪ b a j oː 
[265.555]
<no-speech> 
[275.435]
t a ɪ d a r 
[276.045]
<no-speech> 
[277.215]
t a ɪ tj ɛ n vj ɪ e n ʊ m ɔ mj ɛ n t ʊ k ɫ a ʊ sj iː k mj ɛ s ɡ a ɫ v oː j ɔ m k a d nj ɛ b ʊ s <hes> k ʊ r <hes> k a ɪ p t ʊ ɔ s n ʊ mj ɪ rj eː lj ʊ s iː k a p ʊ s n ʊ vj ɛ ʒ a <no-speech> k a d tj ɛ n nj ɛ ɪ tj ɛ nj eː ɡ ɑː tj vj eː nj ɛ vj ɛ ɪ kj eː ɪ r p a sj kj a ʊ p r oː dj ɛ ɡ a lj ɪ nj æː tj ɛ n nj eː j oː p r a v a ʒj ʊ ɔ t 
[288.145]
<no-speech> 
[289.305]
s ɑː kj eː vj ɪ s ʊ r a p k a s t a b ʊ v oː 
[290.965]
<no-speech> 
[295.035]
t a ɪ 
[296.165]
<no-speech> 
[297.135]
a ɪ t a ɪ v ɑː s a r ɑː t a ɪ d a r eː j oː p r a v a ʒj ʊ ɔ t 
[299.665]
<no-speech> 
[300.665]
oː d a b a r t a ɪ ɪ r ʧj a vj ɪ e n ʊ m ɔ mj ɛ n t ʊ 
[303.095]
<no-speech> 
[308.755]
a 
[309.575]
<no-speech> 
[312.005]
t a ɪ a ʃ gj ɪ rj dj eː j a ʊ k a d d a r ɪ r pj eː ʃj ʧj uː j uː t ɑː k ɑː n ʊ ɪ m s <cough> 
[315.755]
<no-speech> 
[317.565]
t a ɪ ɪ rj gj ɪ nj ɛ ɪ sj ʊ 
[318.815]
<no-speech> 
[323.855]
ʒj ɪ n oː k m a ʧj a ʊ sj ɪ ʧj a t a d a 
[326.825]
<no-speech> 
[328.535]
a lj ɛ ʒj ɪ n oː k nj ɛ n oː rj ʊ bj ɛ n d r a 
[330.835]
<no-speech> 
[332.555]
k a ʃ k ʊ r 
[333.265]
<no-speech> 
[334.335]
t ʊ ʒj ɪ n a ɪ p oː kj ɪ e k mj æː t uː s ʊ sj ɪ tj ɪ k a ʊ ʒj ɪ n a ɪ a tj sj ɪ mj ɛ nj ɪ nj ɪ j ɔ lj æː j oː n ʊ ʃj ɪ e nj æː 
[338.915]
<no-speech> 
[340.325]
ɪ ʃ m ɑː n oː k ɫ ɑː sj eː s 
[341.425]
<no-speech> 
[342.575]
p oː p oː p oː vj ɪ d ʊ rj ɪ nj eː s b ʊ v a ʊ nj ɛ m ɑː ʧj ʊ s 
[345.035]
<no-speech> 
[346.075]
ɪ r ɪ r b ʊ v oː p a s m ʊ s s t oː vj iː k ɫ ɔ j 
[348.255]
<no-speech> 
[349.095]
n ʊ 
[349.785]
<no-speech> 
[352.635]
<breath> j oː s dj eː dj eː nj ɛ j oː s dj eː dj eː a ʃ t ʊ ɔ nj a zj dj ɛ ʃj ɪ mj tj mj æː tj ɪ s b ʊ v oː 
[358.205]
<no-speech> 
[359.605]
t a ɪ a ʃ r ʊ ɔ ʃj a ʊ 
[360.845]
<no-speech> 
[361.745]
ʒj ɪ n a ɪ k a v a lj a ʊ s k uː j uː r ɑː tj eː 
[363.475]
<no-speech> 
[365.795]
n ʊ <no-speech> n ʊ ʒj ɪ n a ɪ k a s j ɪ n a ɪ iː r a <laugh> 
[368.605]
<no-speech> 
[369.965]
oː ʃj a ɪ p t a ɪ k ɑː a ʃ ʒj ɪ n a ʊ a t p a ʒj ɪ n t ɛ ɪ n a 
[373.585]
<no-speech> 
[374.435]
j ɪ m ɑː nj æː s t a ɪ nj ɛ p a ʒj ɪ n oː j oː ʒj vj ɛ nj gj a ʊ s ʊ sj ɪ rj ɪ e z d a m a oː j ɑː t a ɪ ɪ ʃ ɪ ʃ nj ɛ ʒj ɪ n a ʊ ɪ ʃ t oː lj ɪ p a ʒj ɪ n oː sj ɪ 
[380.445]
<no-speech> 
[381.665]
oː t a ɪ k ɫ a ʊ sj iː k t ʊ t ʊ rj ɪ k a s m oː kj ɪ n oː sj ɪ 
[384.545]
<no-speech> 
[388.865]
a ɪ pj rj ɪ e ʃ t a vj ɛ d a r 
[390.335]
<no-speech> 
[391.685]
a oː t a ɪ vj ɪ t a s kj ɪ e k j a ʊ nj ɛ sj nj ɪ s ʊ ʒ m ʊ s 
[394.185]
<no-speech> 
[401.575]
t a ɪ a ʃ ʃj ɪ t ɑː ʒj ɪ n a ʊ 
[403.205]
<no-speech> 
[408.965]
<cough> vj ɪ s ɑː ɫ a ɪ k ʧj ʊ dj nj ɛ sj nj ɪ s b ʊ v oː 
[411.635]
<no-speech> 
[412.935]
n ʊ t a ɪ a lj ɛ k ɑː a ʃ ʒj ɪ n a ʊ ɫ a b a ɪ p a sj ɪ kj eː lj æː s v a ɪ dj ɪ n a m a n d r ɑː a lj ɛ j oː nj ɛ b ʊ v oː tj ɛ n t ɔ j ʃj vj ɛ nj tj eː j 
[418.945]
<no-speech> 
[420.635]
ʃj a ɪ p s a ʊ 
[421.705]
<no-speech> 
[429.035]
<no-speech> 
[436.365]
oː t ʊ ʒj ɪ n oː k oː k a ɪ p m ʊ dj vj ɪ s ʊ lj ɪ n a s ʊ sj ɪ tj ɪ n k a m t a ɪ ʒj ɪ n oː k nj eː r gj ɛ rj a ʊ 
[441.875]
<no-speech> 
[444.295]
mj ɛ s k a ɪ p p a sj ɪ ʒj uː rj ɪ m 
[445.875]
<no-speech> 
[447.805]
nj ɛ t a ɪ a ʃ n oː rj eː ʧj a ʊ k a d d a ʒj nj a ʊ m a tj iː t ʊ mj eː m bj ɛ t t a ɪ <no-speech> j ɛ ɪ ɡ ʊ j a ɪ ɫ a ɪ s v a t a ɪ v a ʒj ʊ ɔ j a iː v a rj ʒj iː b a s t a ɪ 
[453.995]
<no-speech> 
[455.955]
j ɪ n a ɪ gj ɪ a <no-speech> n ʊ a ʊ t ɔ r ɑː lj iː j ɪ n a ɪ a pj sj ɪ gj iː n ʊ s t a r p t a ʊ tj ɪ nj ɛ t a m tj ɛ ɪ sj eː j a 
[462.925]
<no-speech> 
[464.955]
t a ɪ v a ʒj ʊ ɔ j a iː r ɑː lj ʊ s 
[466.415]
<no-speech> 
[469.645]
oː j ɪ n a ɪ d a ʊ ɡ p r a eː j ʊ s 
[470.915]
<no-speech> 
[471.725]
oː d a b a r k ɔ n d ʊ k t oː rj ɛ 
[473.145]
<no-speech> 
[477.745]
n ʊ t a ɪ j ɪ s tj ɛ ɪ sj eː j a ʊ n a 
[479.955]
<no-speech> 
[480.755]
v a ʒj ʊ ɔ j a tj ɛ ɪ sj eː j a ʊ t kj ɪ e k vj ɪ e n ɑː sj iː k <no-speech> v a k a ɪ b uː n a ʃj ɛ ɪ m uː tj ɪ e <no-speech> a ʊ t ɔ r ɑː lj a ɪ vj ɪ s oː kj ɪ e tj ɛ n tj ɪ e <no-speech> t a ɪ v a ʒj ʊ ɔ j a 
[489.835]
<no-speech> 
[491.265]
ɪ r ɫ a b a ɪ d a ʒ n a ɪ k ɑː 
[493.455]
<no-speech> 
[495.015]
k a z ɫ uː r uː d ɔ j 
[496.125]
<no-speech> 
[496.935]
ɛ ɪ k t ʊ k ʊ r 
[497.855]
<no-speech> 
[499.435]
m a n s k a ʊ d a 
[501.445]
<no-speech> 
[502.685]
k ʊ r a t v a ʒj ɪ nj eː j oː 
[503.935]
<no-speech> 
[505.305]
nj ɛ nj ɛ 
[507.565]
<no-speech> 
[508.555]
pj ɛ r d a ʊ ɡ 
[509.355]
<no-speech> 
[510.965]
j ɛ ɪ v a ɪ s t uː nj ɛ ɪ ʒj gj ɛ rj ʊ t a ɪ tj ɛ p ɛ ɪ d a v a ʊ k ɑː p a sj kj a ʊ k ɑː a ʃ n oː rj eː j a ʊ t a vj æː s d a r p a k ɫ a ʊ s t nj ɛ b ʊ v a ɪ ʧj a ʃj ɪ t ɔ j p a s k a ɪ t ɔ j k a ɫ v a rj ɪ j ɔ j k a ɪ p b ʊ v oː a pj ɪ e s ɑː n a rj ʊ s tj ɛ n t a s pj rj ɪ s t ɑː tj iː m a s 
[522.785]
<no-speech> 
[524.195]
<no-speech> 
[529.345]
v a j ɛ 
[530.225]
<no-speech> 
[532.165]
a t a ɪ t ʊ ɪ r s ʊ m ɑː n oː a ʊ k lj eː t oː j a 
[534.165]
<no-speech> 
[535.715]
ɪ r s ʊ a ʊ k lj eː t oː j ɔ m 
[537.015]
<no-speech> 
[542.585]
ɛ ɪ k t ʊ <laugh> t a ɪ d a r ɡ r ɑː ʒj a ɪ ɫ a b a ɪ a t r oː d oː 
[547.005]
<no-speech> 
[548.945]
oː k a s j a ɪ d ɑː r oː s 
[549.905]
<no-speech> 
[553.045]
n ʊ 
[553.615]
<no-speech> 
[555.835]
oː 
[556.735]
<no-speech> 
[557.795]

[558.415]
<no-speech> 
[565.195]
<no-speech> 
[565.655]
<no-speech> 
[567.505]
<cough> bj ɛ t j ɪ m a n nj ɪ e k a t t oː kj a nj ɛ sj ɛ n s t a nj tj ɪ <no-speech> bj ɛ kj ɪ t a k oː s ɑː kj eː d a r ʒj ɪ n oː k k ʊ pj ʧj ɪ n s k a ɪ gj iː vj ɪ 
[574.505]
<no-speech> 
[576.265]
ʒj ɪ n a ʊ a b ʊ d ʊ 
[578.455]
<no-speech> 
[584.255]
a ɪ 
[585.035]
<no-speech> 
[589.625]
ɛ ɪ k t ʊ 
[590.825]
<no-speech> 
[591.905]
s ɑː kj eː p a tj ɛ lj ʧj ɪ e nj eː d a r j ɪ e tj ɛ p v a ʒj ʊ ɔ j a 
[595.575]
<no-speech> 
[597.835]
bj ɛ t s ɑː kj eː 
[598.935]
<no-speech> 
[600.240]
