[0.000]
<no-speech> 
[0.845]
<no-speech> 
[3.525]
<no-speech> 
[7.365]
<breath> sj vj ɛ ɪ k a s 
[9.655]
<no-speech> 
[12.305]
<breath> dj ɪ r b ʊ gj iː vj ɛ n ʊ gj iː vj ɛ n ʊ <hes> p oː bj ɪ ʃj kj iː <hes> d a r b ʊ ɔ sj ɛ p a sj kj ɛ nj dj æː s p a p a sj ɪ nj eː rj æː s iː k a rj j ɛ r a s <hes> ɪ r t a ɪ p t oː lj a ʊ dj ɪ r b ʊ pj rj ɪ e 
[23.375]
<oov> ʒj vj ɛ j a m s <hes> s ɔ ʦj ɑː lj ɪ nj iː p ɔ r t ɑː ɫ ɑː <hes> k ʊ rj ʊ k a ɪ p tj ɪ k d a b a r k a ɪ p k a ɪ p p a t s ɫ a ɪ k a ɪ s 
[30.505]
<no-speech> 
[33.145]
<no-speech> <breath> <hes> j oː d a b a r n a m ʊ ɔ sj ɛ k a ɪ p ɪ r dj ɪ r b ʊ t oː k s ʒj ɪ n a ɪ pj rj ɪ e ʃ t a ɪ dj ɪ r b a ʊ <hes> kj ɛ lj oː sj ɛ d a r b oː vj ɪ e tj eː sj ɛ ɪ r ɪ r ɪ r d a b a r k a ɪ p 
[43.295]
p r a dj eː j a ʊ k ʊ r t t ɑː p r ɔ j ɛ k t ɑː t a ɪ ɡ rj iː n a ɪ dj ɪ r b ʊ s a ʊ t a ɪ t a ɪ t a ɪ d a b a r k ɔ ɫ k a s d a r b a s d a ʊ gj a ʊ sj a ɪ ɪ ʃ n a m uː <no-speech> t a ɪ ʒj ɪ n a ɪ <no-speech> dj eː ɫ <oov> dj eː ɫ k a rj j ɛ r oː s pj ɛ rj sj pj ɛ k tj iː v uː k a ɪ p s ɑː k a n t <breath> 
[55.115]
n ʊ k a ɪ p k a ɪ p p a t s ɫ a ɪ k a ɪ s k a ɪ p ʃj ɛ ɪ m a 
[57.735]
<no-speech> 
[58.695]
nj ɛ ɪ ʃ n a m uː nj ɛ 
[60.845]
<no-speech> 
[67.505]
<breath> j oː ʧj a ʒj ɪ n a ʊ 
[69.465]
<no-speech> 
[73.255]
j oː tj ɛ ɪ sj ɪ n ɡ a ɪ n ʊ d a b a r mj ɛ s n a ʊ d oː j a mj eː s ʃj ʊ ɔ ɫ a ɪ kj ɪ nj eː mj ɪ s tj ɛ x n ɔ ɫ ɔ gj ɪ j oː mj ɪ s ɫ a b a ɪ gj ɛ r a ɪ sj æː k a sj ɪ k ɔ m a n d a ɪ <hes> rj ɛ ɪ ʃj kj a dj ɪ rj pj tj ɪ pj ɛ r <hes> 
[81.925]
pj ɛ r <hes> ɪ nj tj ɛ rj nj ɛ tj ɪ nj ʊ s k ɔ nj fj ɛ rj ɛ nj ʦj ɪ nj ʊ s p oː k a lj bj ʊ s <hes> ɪ nj tj ɛ rj nj ɛ tj ɪ nj ʊ s s ʊ sj ɪ rj ɪ nj kj ɪ m ʊ s d a rj iː tj ɪ ɪ r t a ɪ p t oː lj a ʊ <breath> ʒj ɪ n a ɪ t a ɪ v a t a ɪ k ɔ ɫ k a s k ɔ ɫ k a s vj ɪ s k a s sj eː k mj ɪ n ɡ a ɪ <breath> k a ɪ p k a ɪ p t ʊ k a ɪ p k a ɪ p 
[93.095]
k a ɪ p ʒ m oː n a k a ɪ p v a ɪ k a ɪ 
[94.635]
<no-speech> 
[103.215]
m ɣ m 
[103.835]
<no-speech> 
[110.135]
<no-speech> 
[111.955]
<no-speech> 
[115.255]
oː k ʊ r v a ʒj ʊ ɔ j a 
[116.185]
<no-speech> 
[123.505]

[123.935]
<no-speech> 
[126.065]
<no-speech> 
[126.415]
<no-speech> 
[132.625]
<no-speech> 
[138.835]
m ɣ m 
[139.605]
<no-speech> 
[144.085]
s ʊ p r a t a ʊ 
[144.935]
<no-speech> 
[147.165]
s ʊ v a ɪ kj ɛ lj ʊ 
[148.035]
<no-speech> 
[151.355]

[151.875]
<no-speech> 
[156.505]
a a kj ɛ lj ɪ n t ɔ j t a ɪ d a b a r <oov> pj ɪ r m ɔ j k ɫ ɑː sj eː j 
[158.925]
<no-speech> 
[159.985]
<hes> kj ɛ lj ɪ n t ɔ j k ɫ ɑː sj eː j d a b a r 
[162.085]
<no-speech> 
[163.035]
s ʊ p r a t a ʊ k a ɪ p sj æː k a s k a ɪ p m oː k s ɫ a ɪ 
[165.425]
<no-speech> 
[166.665]
k a ɪ p m oː k s ɫ a ɪ v a ɪ k ʊ i 
[167.865]
<no-speech> 
[173.215]
ɑː ɣ ɑː 
[173.885]
<no-speech> 
[180.055]
s ʊ p r a t a ʊ <no-speech> s ʊ p r a t a ʊ 
[182.145]
<no-speech> 
[188.935]
ɑː ɣ ɑː s ʊ p r a t a ʊ 
[190.265]
<no-speech> 
[194.615]
n ʊ v a ɡ a b ʊ s v a ɪ k a s iː tj eː v ɑː <laugh> 
[198.925]
<no-speech> 
[202.395]
n ʊ s ʊ p r a t a ʊ <breath> 
[204.135]
<no-speech> 
[207.455]
s ʊ p r a t a ʊ oː k a ɪ p <hes> <int> 
[209.705]
<no-speech> 
[217.295]
<breath> n ʊ d a r nj ɛ ʒj ɛ n oː t a s <hes> gj iː vj ɛ n ʊ gj iː vj ɛ n ʊ j a ʊ <hes> kj æː lj ɪ s mj æː t ʊ s tj rj ɪ s mj æː t ʊ s gj iː vj ɛ n ʊ s ʊ d r a ʊ gj ɛ a b ʊ d ʊ æː s a m b a ɪ sj a ɪ ʊ ʃj sj ɪ eː mj æː a n a a n a d a ʊ ɡ m oː k oː sj ɪ <breath> 
[228.165]
<hes> d a ʊ ɡ m oː k oː s ɪ rj gj ɪ dj ɪ r b a a b ʊ d ʊ t a ɪ p k a ɪ p s ɑː k a n t d a b a r s ʊ sj ɪ k ɔ nj ʦj ɛ n t r ɑː vj æː iː iː iː iː iː k a rj j ɛ r oː s ɡ a lj ɪ mj iː bj ɛ s a rj tj ɪ mj a ʊ sj ɪ e m s mj æː t a m s k a d p ɑː s k ʊ i b uː t uː ɡ ɑː lj ɪ m a ʒj ɪ n a ɪ ʃj ɛ ɪ m a ɪ a tj sj ɪ d ʊ ɔ tj ɪ ɪ r ɪ r ɪ r ɪ r a tj ɛ ɪ tj iː 
[240.035]
k a ɪ p s ɑː k a n t t a ɪ p t a ɪ p s ʊ sj tj iː ɡ ɑː vj æː vj ɪ s k ɑː <breath> k ɔ ɫ k a s ʒj æː nj iː tj ɪ s d a r nj ɛ p ɫ a n ʊ ɔ j ʊ nj ɛ s k ʊ b a m ɫ a b a ɪ ʒj ɪ n a ɪ t a ɪ v a oː gj ɪ rj dj eː j a ɪ p a ɫ a ʊ k a ʃ t a ʊ s a kj a ʊ 
[249.005]
<no-speech> 
[249.945]
n ʊ a ʃ t a ʊ a t r oː d oː s a kj a ʊ k a d <hes> p a ʊ lj ʊ s s ʊ sj ɪ ɫ a ʊ kj eː d ʊ k tj eː s a r nj ɛ 
[254.265]
<no-speech> 
[259.715]
n ʊ 
[260.335]
<no-speech> 
[261.265]
<int> <breath> nj ɛ k a d a n ʊ ɔ d ʊ t a ɪ p s ʊ t a rj eː k a d ɪ rj gj ɪ k ɔ ɫ k a s nj ɛ sj ɪ ʒj æː nj iː j a a n oː a n oː ʃj ɪ t a d r a ʊ gj eː iː r a dj æː ʃj ɪ m t mj æː t uː vj iː rj ɛ sj nj eː ʊ ʒ ʊ ʒ a n ɑː ʒj ɪ n a ɪ t a ɪ <breath> ɪ r ɪ r ɪ r a n a ʃj a ɪ p iː r a 
[272.645]
<no-speech> 
[273.785]
n ʊ ɪ ʃ p ɔ r t ʊ ɡ ɑː lj ɪ j oː s iː r a j ɪ n a ɪ p ɔ r t ʊ ɡ ɑː lj eː t a ɪ a b ʊ d ʊ gj iː vj æː n a a ɪ rj ɪ j ɔ j <breath> dj ɪ r b a tj ɛ n <click> t a ɪ v a <no-speech> t a ɪ a ʊ gj ɪ n a d ʊ k r ɑː d a b a r ʒj ɪ n a ɪ 
[284.025]
n ʊ oː k a ɪ p p a t s k ɑː ɫ a ɪ s v ʊ ɫ a ɪ k ʊ 
[287.275]
<no-speech> 
[294.125]
n ʊ t a ɪ j oː n ʊ <no-speech> b ʊ v oː p a rj sj ɪ vj æː ʒj æː s iː lj ɪ e t ʊ v ɑː p a r oː dj eː tj eː v a m s ʒj ɪ n a ɪ tj eː v a ɪ nj ɛ k a ɫ b a t ɔ m vj ɪ s ɔ m k a ɫ b ɔ m <oov> k oː kj a s a n a j ɪ m oː k a <laugh> t a ɪ t a ɪ ʒ oː ʤj ʊ b ʊ v oː 
[305.165]
b ʊ v oː t oː k s k ʊ ɫ t uː rj ɪ nj ɪ s ʃ ɔ k a s ʒj ɪ n a ɪ bj ɛ t bj ɛ t nj ɪ e k oː a pj sj ɪ p r ɑː t oː s ɑː kj eː ɪ r k a d gj ɛ r a ɪ vj ɪ s k a s n ʊ <breath> t a ɪ v a 
[312.005]
<no-speech> 
[320.615]
a s ʊ p r a t a ʊ 
[321.545]
<no-speech> 
[327.375]
n ʊ n ʊ 
[328.085]
<no-speech> 
[337.945]
n ʊ 
[338.665]
<no-speech> 
[342.745]
n ʊ s ʊ p r a t a ʊ ʒj ɪ n 
[344.305]
<no-speech> 
[347.355]
<breath> t a ɪ t a ɪ p 
[349.795]
<no-speech> 
[352.065]
t a ɪ p 
[352.585]
<no-speech> 
[355.485]
t a ɪ p ɡ ɫ ɔ b a lj ɪ z ɑː ʦj ɪ j oː s ɫ a ɪ k a ɪ s gj iː vj æː n a m k a ɪ p s ɑː k a n t sj ɪ e n oː s a tj sj ɪ vj eː rj eː <breath> t a ɪ v a j oː oː k a ɪ p k ɑː p a t s k ɑː ɫ a ɪ s v ʊ ɫ a ɪ k ʊ 
[363.975]
<no-speech> 
[366.505]

[367.085]
<no-speech> 
[371.875]
m ɣ m 
[372.675]
<no-speech> 
[378.895]
m ɣ m 
[379.645]
<no-speech> 
[385.790]
<no-speech> 
[391.935]
t a ɪ p oː k a ʃ k ʊ r s ʊ ʃj ɛ ɪ m a ɡ a ɫ 
[394.215]
<no-speech> 
[403.000]
<no-speech> 
[411.785]
<no-speech> 
[412.155]
<no-speech> 
[413.945]
oː k a ɪ p iː d oː mj a ɪ 
[415.135]
<no-speech> 
[419.635]
m ɣ m 
[420.435]
<no-speech> s ʊ p r a t a ʊ <no-speech> 
[426.635]
<no-speech> 
[432.045]
s ʊ p r a t a ʊ 
[432.755]
<no-speech> <no-speech> 
[441.895]
s ʊ p r a t a ʊ oː ʧj a oː ʧj a k a s ʧj a iː r a pj ɛ r <hes> kj ɛ lj oː nj uː a gj ɛ n t uː r ɑː 
[445.135]
<no-speech> 
[453.785]
a ɪ s ʊ p r a t a ʊ s ʊ p r a t a ʊ 
[455.775]
<no-speech> 
[459.055]

[459.605]
<no-speech> 
[461.815]
s ʊ p r a t a ʊ 
[462.815]
<no-speech> 
[465.835]
m ɣ m <breath> s ʊ p r a t a ʊ a ʃ t a ɪ a ʃ t a ɪ ɪ rj gj ɪ <hes> iː iː iː 
[469.555]
<no-speech> 
[471.435]
iː ʒj vj ɛ j iː bj ɪ nj ɛ s kj ɛ lj oː nj ɛ s <no-speech> <breath> j oː tj ɛ n <oov> d a ʊ gj a ʊ sj a ɪ d a ʊ gj a ʊ sj a ɪ n ʊ iː ʒj vj ɛ j iː b a s sj tj ɛ nj gj ʊ ɔ s kj ɪ e k vj ɪ e n ɑː v ɑː s a r ɑː kj ɪ e k vj ɪ e n a ɪ s mj æː t a ɪ s j a ʊ kj ɛ t ʊ rj ɪ mj æː t a ɪ ɪ ʃ ɛ ɪ lj eː s <hes> 
[482.735]
v a ʒj ʊ ɔ j ʊ iː r ʊ sj ɪ j ɑː iː k ɔ ɫ oː s p ʊ sj ɑː s a lj iː <breath> tj ɛ n a ɪ p a p a p a b uː tj ɪ bj ɪ ʃj kj iː n ʊ ɔ ʦj ɪ vj ɪ lj ɪ z ɑː ʦj ɪ j oː s <oov> a tj sj ɪ j ʊ nj k tj ɪ p a p a ɪ lj sj eː tj ɪ p a ʒj vj ɛ j oː tj ɪ tj ɛ n ɫ a ʊ kj ɪ nj eː ɡ a m t a ʊ ʒ p ɔ lj ɑː rj ɪ nj oː r ɑː t t oː 
[493.245]
n ʊ ɪ r <hes> ɪ r ɪ r kj ɪ e k vj ɪ e n ɑː sj iː kj iː p a rj sj ɪ vj ɛ ʒ ʊ d a ʊ ɡ iː s p uː ʤj uː pj rj ɪ sj ɪ ʒj vj ɛ j oː j ʊ ʊ ʒ vj ɪ s ʊ s mj æː t ʊ s ɪ r p ɑː s k ʊ i vj eː ɫ kj ɪ t ʊ s mj æː t ʊ s ɫ a ʊ kj ʊ vj eː ɫ sj æː k a nj ʧj oː s t oː kj oː s kj ɛ lj oː nj eː s j a ʊ kj ɪ tj ɪ e m s mj æː t a m s ʒj ɪ n a ɪ 
[505.075]
<no-speech> t a ɪ v a 
[506.245]
<no-speech> 
[508.655]
<breath> b ʊ v a ʊ b ʊ v a ʊ ɪ rj gj ɪ <breath> <hes> lj ɪ e p oː s mj eː nj ɛ sj iː t a ɪ p k a ʃ k ʊ r v a ʒj ʊ ɔ j a m vj ɪ s ɑː ɫ a ɪ k ɑː nj ɛ s tj ɛ n t ʊ ɔ t ʊ ɔ mj ɛ t ʊ ʃj ɪ ɫ t a b uː n a n ʊ rj ɛ ɪ ʃj kj a tj ɛ n tj ɪ k p oː r ɑː p oː r ɑː 
[517.935]
<no-speech> 
[522.265]
<no-speech> 
[522.615]
<no-speech> 
[523.485]
t a ɪ <breath> <oov> k a r t a ɪ s <hes> b ʊ v ɔ m ɪ r t a s p a ʧj a s vj ɪ e t a s a p ɫ a nj kj æː kj ɛ lj a s <hes> bj ɛ t ʃj a ɪ p sj tj ɛ nj gj a mj eː s <hes> sj kj ɪ rj tj ɪ n ɡ a s p a m a tj iː tj ɪ k a ʃ k ɑː p a mj eː gj ɪ nj tj ɪ vj ɪ e n ɑː sj iː kj iː vj ɪ e n oː sj ɛ ʊ pj eː sj ɛ kj ɪ t ɑː sj iː kj iː 
[535.045]
ɛ ʒj ɛ r ʊ ɔ sj ɛ <breath> pj rj ɪ e j uː r oː s p a b uː tj ɪ tj ɛ n b a ɫ t oː sj oː s t oː s t a ɪ ʒ oː ʤj ʊ <hes> bj ɪ ʃj kj iː iː v a ɪ r oː vj eː s b a n d ɔ m iː nj ɛ ʃj tj ɪ <no-speech> iː t ɑː 
[545.365]
<no-speech> 
[546.465]
<breath> d a ʊ gj a ʊ sj a ɪ v a ʒj ʊ ɔ j a m tj ɛ n vj ɪ sj ɪ s ʊ s ʊ sj pj ɪ nj ɪ n ɡ a ɪ s ɡ a ʊ d oː <hes> ɡ a ʊ d oː pj lj eː ʃj rj ɑː sj a s ʒ ʊ vj ɪ s t a ɪ t a ɪ t a ɪ t a ɪ lj iː dj æː k oː s kj ɪ rj ʃj lj a ɪ ɛ ʃj ɛ rj a ɪ d a ʊ gj a ʊ sj a ɪ <breath> 
[557.485]
<hes> bj ɪ ʃj kj iː ɪ r ɫ a ʃj ɪ ʃ uː p a ɡ a ʊ n a m <breath> t a ɪ t a ɪ ʒ oː ʤj ʊ t a ɪ p iː v a ɪ rj a ɪ iː v a ɪ rj a ɪ <breath> n ʊ t a ɪ oː oː oː tj ɛ ɪ sj ɪ n ɡ a ɪ oː ɪ ʃ s t ʊ dj ɪ j uː ɫ a ɪ k uː <breath> 
[567.195]
k a ɪ p d ɔ n a ɫ d a s gj iː vj æː n a a r bj ɛ s ʊ sj ɪ sj ɪ e kj ɪ nj ɛ s ʊ gj ɪ rj dj eː j æː s nj ɪ e k oː a pj ɪ e a n ɑː 
[571.585]
<no-speech> 
[575.825]
a a n ʊ m a t 
[576.715]
<no-speech> 
[578.445]
n ʊ v a 
[579.195]
<no-speech> 
[583.365]
ɑː ɣ ɑː 
[584.155]
<no-speech> 
[593.665]
m ɣ m 
[594.215]
<no-speech> s ʊ p r a t a ʊ ʃj ɛ ɪ mj iː nj ɪ nj iː gj iː vj æː nj ɪ m ɑː gj iː vj æː n a a 
[600.100]
