[0.000]
<no-speech> 
[11.086]
<no-speech> 
[22.172]
<no-speech> 
[33.259]
<no-speech> 
[44.345]
a lj oː 
[44.965]
<no-speech> 
[46.865]
a lj oː 
[47.475]
<no-speech> 
[50.955]
gj ɪ rj ʤj ʊ gj ɪ rj ʤj ʊ <breath> gj ɪ rj ʤj ʊ <no-speech> j oː 
[53.545]
<no-speech> 
[57.125]
j oː j oː j oː <breath> <no-speech> n ʊ 
[59.475]
<no-speech> 
[65.855]
a ʃ nj ɛ s ʊ p r a t a ʊ a ʃ nj ɛ s ʊ p r a t a ʊ k a s tj ɛ n b ʊ v oː <laugh> <no-speech> a ʃ s a k a ʊ nj ɛ s ʊ p r a t a ʊ k a s tj ɛ n b ʊ v oː 
[71.945]
<no-speech> 
[74.525]
rj eː kj ʊ rj eː kj ʊ a ʃ a lj oː <no-speech> rj eː kj ʊ a lj oː a lj oː a lj oː a lj oː ɪ r nj ɪ e k a s s ʊ m a nj ɪ m nj ɛ k a ɫ b a <laugh> 
[79.755]
<no-speech> 
[80.985]
ɪ r d a b a r k a ʃ k a ɪ p t a ɪ ɪ rj gj ɪ rj eː kj ʊ rj eː kj ʊ <hes> tj iː k ʊ 
[84.435]
<no-speech> 
[85.305]
n ʊ 
[85.865]
<no-speech> 
[90.065]
<breath> gj ɛ r a ɪ <breath> 
[91.135]
<no-speech> 
[91.955]
gj ɛ r a ɪ j oː v a ʊ ɡ nj ɛ ɪ s ʊ k nj æː lj æː mj ɛ z ɡ ʊ <breath> ɫ ɑː pj eː b ʊ s 
[95.385]
<no-speech> 
[98.025]
<hes> s ʊ k nj æː lj æː 
[99.235]
<no-speech> 
[100.345]
ʊ ɡ nj ɛ ɪ s ʊ k nj æː lj æː <no-speech> j oː 
[102.605]
<no-speech> 
[105.245]
n ʊ 
[105.975]
<no-speech> 
[111.395]
n ʊ <breath> 
[112.085]
<no-speech> 
[114.415]
ɑː ɣ ɑː 
[115.135]
<no-speech> 
[120.815]
oː ɣ oː 
[121.735]
<no-speech> 
[127.325]
j oː <breath> 
[127.905]
<no-speech> 
[130.215]
a ɪ <int> bj ɛ t nj ɛ ʃj ɪ t oː <no-speech> bj ɛ t nj ɛ ʃj ɪ t ɑː 
[133.235]
<no-speech> 
[134.445]
nj ɛ nj ɛ ʃj ɪ t ɑː pj ɪ r k oː 
[135.875]
<no-speech> 
[145.575]
ɑː ɣ ɑː 
[146.195]
<no-speech> 
[148.915]
n ʊ ʧj a d a b a r 
[150.145]
<no-speech> 
[155.495]
oː j eː z a ʊ 
[156.465]
<no-speech> 
[159.095]
<int> ɑː ɣ ɑː <no-speech> n ʊ v a 
[161.595]
<no-speech> 
[163.815]
m ɣ m 
[164.545]
<no-speech> 
[165.825]
m ɣ m <no-speech> n ʊ n ʊ n ʊ 
[167.735]
<no-speech> 
[168.705]
oː k ɑː d a rj iː t j ʊ k <breath> bj ɛ t rj ɛ ɪ ʃj kj a <no-speech> bj ɛ t rj ɛ ɪ ʃj kj a j ɪ n a ɪ nj ɛ gj iː vj æː n a t a d a s ʊ t ʊ ɔ vj iː r ʊ 
[173.705]
<no-speech> 
[175.045]
k a ɪ p j ɪ e s ʊ p r a s 
[175.895]
<no-speech> 
[179.035]
<hes> t a ɪ ɪ r s a k a ʊ nj ɛ nj ɛ gj iː vj æː n a m a tj iː t <no-speech> n ʊ n ʊ n ʊ 
[182.045]
<no-speech> 
[183.575]
m 
[184.525]
<no-speech> 
[185.395]
j oː 
[186.035]
<no-speech> 
[188.465]
ɑː ɣ ɑː 
[189.165]
<no-speech> 
[191.545]
m ɣ m 
[192.335]
<no-speech> 
[195.395]
a ɪ p a k vj ɪ e s iː sj vj ɛ ʧj ʊ s t a ɪ j a ʊ t a ɪ p p a sj ɪ r ʊ ɔ ʃj æː j oː 
[198.385]
<no-speech> 
[199.425]

[199.805]
<no-speech> 
[201.665]
ɑː ɣ ɑː <breath> 
[202.405]
<no-speech> 
[206.505]
n ʊ n ʊ n ʊ n ʊ <no-speech> n ʊ <no-speech> n ʊ a ɪ ʃ k ʊ 
[209.935]
<no-speech> 
[211.795]
a ɪ ʃ k ʊ 
[212.885]
<no-speech> 
[220.925]
a r nj ɛ 
[221.605]
<no-speech> 
[223.685]
a ɪ iː t ɑː <laugh> 
[225.175]
<no-speech> 
[227.975]
m a m a ʒ ʊ s ʊ sj kj ɪ r m a k a r t ʊ p a k vj ɪ e s <no-speech> n ʊ 
[230.925]
<no-speech> 
[233.245]
<hes> m a ʒ ʊ s ʊ sj kj ɪ r m ʊ tj ɛ a bj ɪ dj vj ɪ <no-speech> a bj ɪ dj vj ɪ m a ʒ ʊ p a k vj ɪ e s 
[237.655]
<no-speech> 
[241.295]
n ʊ n ʊ n ʊ n ʊ n ʊ <no-speech> 
[243.845]
<no-speech> 
[246.495]
t a ɪ a ɪ ʃ k ʊ t a ɪ k oː tj ɛ n nj ɛ n ʊ ɛ ɪ t 
[248.395]
<no-speech> 
[249.595]
n ʊ a ɪ k a ɪ p k a s tj ɛ n j a s ʊ j a s ʊ p a ɪ sj iː sj ɪ m 
[252.985]
<no-speech> 
[254.705]
s ʊ p a ɪ sj iː s j ɑː tj ɛ n k a s <no-speech> ɑː ɣ ɑː 
[256.765]
<no-speech> 
[258.005]
j oː j oː j oː <no-speech> a r b a k vj ɪ e s a r b a nj ɛ 
[260.455]
<no-speech> 
[270.425]
nj ɛ ʒj ɪ n a ʊ nj ɛ t <breath> k ɑː s ʊ t a ʒj vj ɛ j iː b a ʧj a d a rj iː s <laugh> nj ɛ ʒj ɪ n a ʊ d a r 
[276.525]
<no-speech> 
[278.215]
s ʊ sj ɪ m a ɪ ʃ oː nj ɛ s p a s k ʊ tj ɪ nj ɪ s s a v a ɪ d ɡ a lj ɪ s j a ʊ <no-speech> ʒj vj ɛ j oː t p ɑː s k ʊ i b ʊ s nj ɛ ɡ ɑː lj ɪ m a <no-speech> t a ɪ nj ɛ ʒj ɪ n a ʊ nj ɛ ɡ a lj ʊ p a s a kj iː t tj ɪ k sj lj a ɪ 
[286.745]
<no-speech> 
[287.795]
ɪ kj ɪ ɪ kj ɪ d a b a r ʧj a ɪ kj ɪ ʃj ɛ ʃj oː lj ɪ k t oː s a r ɪ kj ɪ pj ɛ nj kj oː lj ɪ k t oː s ɪ kj ɪ k a d a ʧj a d r a ʊ dj ɪ m a s p ɑː s k ʊ i tj ɛ n j ɪ e <breath> k a ʃ k ʊ r pj rj ɪ e sj ɪ e n oː s v a ʒj ʊ ɔ j a tj ɛ n p ɑː s k ʊ i j a ʊ b ʊ s d r a ʊ ʤj a m a 
[295.775]
<no-speech> 
[297.165]
tj ɛ n k a ʃ k ʊ r pj ɛ r pj ɛ r sj ɪ e n ɑː j ɪ e <oov> <int> s ɑː k oː tj ɛ n nj ɛ ɡ ɑː lj ɪ m a tj ɪ k ɪ kj ɪ pj ɛ nj kj oː lj ɪ k t oː s a t r oː d oː 
[301.545]
<no-speech> 
[302.535]
nj ɛ ʒj ɪ n a ʊ ɡ a ɫ t a ɪ <sta> j ɛ ɪ ɡ ʊ <oov> <no-speech> t a ɪ k a ʒj ɪ a r v a rj iː s j a ʊ ʃj iː k a ʃ k a ɪ p t a ɪ ɡ a ɫ v oː j ʊ 
[307.505]
<no-speech> 
[308.615]
k ɑː <breath> 
[309.175]
<no-speech> 
[316.325]
n ʊ 
[316.935]
<no-speech> 
[317.905]
n ʊ n ʊ gj ɛ r a ɪ 
[319.675]
<no-speech> 
[322.705]
n ʊ 
[323.365]
<no-speech> 
[326.205]
n ʊ 
[326.915]
<no-speech> 
[331.155]
n ʊ <breath> j oː j oː <breath> gj ɛ r a ɪ gj ɛ r a ɪ <no-speech> d a b a r t a ɪ d a r k a ʃ k a ɪ p t a ɪ ɪ rj gj ɪ ɪ r m ɑː rj ʊ i m ɑː rj ʊ s sj ɛ r ɡ a m ɑː n oː p ɫ a ʊ ʧj uː <oov> 
[338.555]
<no-speech> 
[340.265]
j oː j oː j oː j oː j oː <no-speech> m ɑː rj ʊ i p ɫ a ʊ ʧj uː ʊ ʒj dj ɛ gj ɪ m a s 
[343.745]
<no-speech> 
[345.095]
n ʊ <no-speech> k ɔ mj pj lj ɪ k ɑː ʦj ɪ j a ʧj a k a ʃ k oː kj a t a ɪ <no-speech> n ʊ v ɑː k a r n ʊ sj ɪ vj ɛ ʒj eː m s ɑː k oː p ɫ a ʊ ʧj ʊ ɔ sj ɛ k rj oː k a <laugh> 
[350.545]
<no-speech> 
[352.195]
k a ʃ k a ɪ p t a ɪ v a t a ɪ p 
[353.395]
<no-speech> 
[354.585]
p a sj ɪ ɡ ɑː v oː m a tj iː t k a ʃ k ɑː t a ɪ ɪ r v a <no-speech> n ʊ t a ɪ k ɑː d a b a r bj ɛ t nj ɪ e k oː k oː sj tj ɪ k oː sj tj ɪ ɪ ʃj sj ɪ p a ɪ p a lj oː s v a ɪ s t uː iː r a p a ɡ a ɫ b oː s iː r a t a ɪ ʧj a 
[362.965]
<no-speech> 
[364.475]
<foreign> dj eː ɫ t oː 
[365.415]
<no-speech> 
[366.615]
n ʊ <no-speech> n ʊ 
[368.565]
<no-speech> 
[369.825]
a ɪ n ʊ t a ɪ <hes> k a ɪ p dj ɪ dj ɛ lj ɪ s t a ɪ vj ɪ s tj ɪ e k kj ɪ t a ɪ p j a ʊ tj ɛ n <no-speech> v a ɪ s t ʊ s s ʊ gj eː rj eː <oov> <hes> t ʊ ɔ s sj kj iː ʃj ʧj ʊ s gj æː rj a t a ɪ nj ɛ m a ʒj ʊ k ɑː p oː pj ɪ nj ɪ j ʊ k k a ɪ nj ɛ ʒj ɪ n a ɪ k a s d ɑː r oː sj ɪ nj ɛ ɡ ɑː lj ɪ p a s a kj iː t k a s k a s <breath> k a s d ɑː r oː sj ɪ 
[381.625]
ʧj a dj ɪ dj ɛ lj ɪ s t a ɪ ʧj a <oov> 
[383.155]
<no-speech> 
[385.105]
j oː 
[385.915]
<no-speech> 
[387.905]
n ʊ k a ɪ p n ɔ r s k a ɪ p n ɔ r s t a ɪ s v a rj bj a ʊ sj a k a d nj ɛ d ʊ s t uː nj ɛ s j a m <no-speech> n ʊ <no-speech> j oː <no-speech> k a ɪ p d a r b a ɪ k a ɪ p d a r b a ɪ 
[396.035]
<no-speech> 
[398.445]
k a ɪ p d a r b a ɪ sj æː k a sj ɪ <no-speech> a t oː s t oː ɡ oː sj ɛ oː t a ɪ <no-speech> s m a ɡ ʊ <oov> a t oː s t oː ɡ oː sj ɛ a r nj ɛ <no-speech> ɑː ɣ ɑː 
[404.345]
<no-speech> 
[406.305]
a ʃ m a nj a ʊ k a ʃ k a ɪ p t a ɪ k a d n ʊ ɔ ʃj ɛ ʃj oː lj ɪ k t oː s 
[408.445]
<no-speech> 
[410.175]
a a 
[410.925]
<no-speech> 
[413.225]
<breath> a ɪ 
[415.145]
<no-speech> 
[416.295]
a ɪ m a n k a ʃ k a ɪ p t a ɪ k a d t ʊ a t r oː d a ɪ n ʊ ɔ ʃj ɛ ʃj oː lj ɪ k t oː s 
[419.185]
<no-speech> 
[420.375]
n ʊ gj ɛ r a ɪ p ɑː s k ʊ i ʃj vj ɛ nj ʧj uː d a ʊ ɡ 
[422.305]
<no-speech> 
[423.795]
m ɣ m 
[424.595]
<no-speech> 
[428.245]
oː <breath> k a ɪ p gj ɛ r a ɪ 
[429.485]
<no-speech> 
[430.985]
v a j eː 
[431.675]
<no-speech> 
[433.765]
m ɣ m 
[434.525]
<no-speech> 
[438.075]
oː k a ɪ p gj ɛ r a ɪ 
[439.185]
<no-speech> 
[441.115]
n ʊ 
[441.785]
<no-speech> 
[442.605]
oː kj ɛ t ʊ rj oː lj ɪ k t a ʃj ɛ ʃ t ɑː dj ɪ e nj ɪ s a r nj ɛ kj ɛ t ʊ rj oː lj ɪ k t a <no-speech> ɑː ɣ ɑː 
[445.885]
<no-speech> 
[447.175]
<hes> a ɪ nj ɛ ʒj ɪ n a ʊ ʧj a j ɪ e s ʊ sj ɪ t a rj eː kj æː lj ɪ <no-speech> kj æː lj ɪ <no-speech> k a s d a r ʧj a ʒj ɪ n oː j ʊ ɔ s <no-speech> a r v a ʒj ʊ ɔ s a r b a nj ɛ <no-speech> j oː 
[454.485]
<no-speech> 
[455.615]
n ʊ 
[456.295]
<no-speech> 
[462.385]
t a ɪ k a s kj ɪ t a s j oː kj ɪ t a s <breath> <sta> t a ɪ kj ɪ t a s kj ɪ t a s j oː 
[466.375]
<no-speech> 
[468.165]
m ɣ m 
[468.935]
<no-speech> 
[470.665]
n ʊ <no-speech> n ʊ <breath> gj ɛ r a ɪ gj ɛ r a ɪ <laugh> gj ɛ r a ɪ 
[474.655]
<no-speech> 
[475.565]
sj vj ɛ ɪ k a k ɔ ɫ k a s d a r bj ɪ j a ʊ <oov> <no-speech> <hes> sj vj ɛ ɪ k a 
[479.555]
<no-speech> 
[482.855]
kj ɪ b a p r ɑː s t a ɪ gj ɪ rj dj eː t ɫ a b a ɪ a r nj ɛ 
[484.955]
<no-speech> 
[486.215]
p r ɑː s t a ɪ gj ɪ rj dj eː t kj ɪ b a <no-speech> p r ɑː s t a ɪ gj ɪ rj dj eː t <no-speech> a 
[489.315]
<no-speech> 
[492.335]
p r ɑː s t a ɪ gj ɪ rj dj eː t a r nj ɛ 
[493.755]
<no-speech> 
[499.955]
<sta> ɑː ɣ ɑː <oov> t r uː k ʧj oː j a k a r t a ɪ s t oː k s <no-speech> m ɣ m 
[503.915]
<no-speech> 
[507.495]
ɑː ɣ ɑː 
[508.215]
<no-speech> 
[510.175]
<no-speech> 
[510.735]
<no-speech> 
[511.945]
j oː j oː j oː <breath> <no-speech> nj eː r ʊ ʒ k ɑː n ʊ ʧj a d a b a r t a ɪ 
[516.095]
<no-speech> 
[517.005]
t a ɪ k ɑː j a ʊ ʧj a gj ɛ r a ɪ <no-speech> n ʊ 
[519.625]
<no-speech> 
[526.545]
t r uː kj ɪ nj eː j a a r nj ɛ 
[527.635]
<no-speech> 
[528.735]
j oː j oː j oː j oː 
[529.805]
<no-speech> 
[531.475]
t a ɪ k a d m ɑː n oː tj ɛ lj ɛ f ɔ n a s j a ʊ <no-speech> t a ɪ s a k a ʊ nj ɪ e k oː tj ɛ lj ɛ f ɔ n a s j a ʊ vj ɪ sj ɪ ʃ k a ɪ s ʊ gj æː d oː m ɑː n oː <no-speech> vj ɪ e n a s <no-speech> k a d ɪ ʃj ɛ ɪ nj ɪ ɪ ʃj vj ɪ s v a t p a sj ɪ k r a ʊ nj ɪ a t r oː d oː tj ɪ k ɪ ʃj ɛ ɪ nj ɪ k a s n ɔ r s s k a mj pj tj ɛ lj ɪ ɪ r mj ɪ r ʃ t a <no-speech> ɪ r vj ɪ s k a s n ʊ mj ɪ r ʃ t a tj ɛ lj ɛ f ɔ n a s <no-speech> b a tj ɛ rj ɪ j a <no-speech> j oː tj ɛ lj ɛ f ɔ n a s b a 
[550.285]
<no-speech> 
[551.525]
<oov> tj ɛ n a ɪ j ɪ s a ɪ b a t a rj ɛ ɪ kj ɛ s k a ʃ k a ɪ p t a ɪ sj vj ɪ lj ɪ n oː <no-speech> k a d m a n n ʊ pj ɪ r k oː n a ʊ j ɑː b a tj ɛ rj ɪ j ɑː iː dj eː j oː ɪ r ɪ ʃ p uː tj eː <no-speech> m a tj iː t k a ʃ k oː k s j ʊ nj gj ɪ m a s 
[560.145]
<no-speech> 
[561.315]
ɛ lj ɛ k t r ɑː k a ʃ k a s t a ɪ m a tj iː t k a ʃ k ʊ r t a ɪ <oov> <breath> ɪ r ɪ r vj ɪ e n ɑː n ʊ pj ɪ r k oː v a t ɑː <foreign> ɪ r kj ɪ t ɑː ɪ r ɪ ʃ p uː tj eː t a s b a tj ɛ rj ɪ j a s s ʊ sj vj ɪ lj æː j oː s j ɪ e k a ʃ k a ɪ p 
[569.235]
<no-speech> 
[570.505]
t a ɪ v a t <no-speech> nj ɛ s ɑː m oː nj eː t a ɪ p ɑː s k ʊ i kj ɪ t ɑː n ʊ eː j ɔ m ʧj a t oː kj iː <no-speech> iː t a ɪ sj iː m ɑː <laugh> 
[576.725]
<no-speech> 
[577.985]
<sta> t a ɪ v a t <no-speech> tj ɪ e k ɪ r n a ʊ j ɪ e n uː <breath> dj ɪ rj ɛ k t oː rj eː vj eː ɫ s k a mj bj ɪ n oː 
[582.365]
<no-speech> 
[583.495]
v a lj ɪ nj ʧj ɪ e nj eː <no-speech> j oː 
[586.235]
<no-speech> 
[587.695]
j ɪ nj ɛ t ʊ rj ɪ k ɑː vj ɛ ɪ k t j oː 
[589.755]
<no-speech> 
[591.055]
j oː ɫ a b a ɪ gj iː rj eː sj ɪ j oː ɫ a b a ɪ a n uː kj ɛ ɫ a b a ɪ gj iː rj eː sj ɪ <breath> 
[594.745]
<no-speech> 
[596.045]
t a s a v oː a ʊ sj tj eː j a 
[597.305]
<no-speech> 
[597.840]
