[0.000]
<no-speech> 
[0.185]
<sta> <hes> h a l oː <no-speech> e p ʈ i m m aː i ɾ u k k u r a <no-speech> aː h 
[11.175]
e p ʈ i ɾ u k k u r a <int> 
[13.495]
<no-speech> 
[14.815]
s a ɾ i s a ɾ i e p ʈ iː ɾ i k k u r a n n u k eː ʈ ʈ eː n <no-speech> j aː ɾ aː ɳ ʈ a j u m k uː p p i ʈ aː t̪ eː i n t̪ a f oː n a k a ʈ ʈ aː ʋ u r a ʋ a ɾ ai k k u m p eː ʧ u <no-speech> e ŋ k i ʈ ʈ a t̪ aː n p eː s u m 
[26.165]
<no-speech> 
[27.035]
<no-speech> 
[28.405]
i l l a i t̪ e n n a m oː o ɾ u i t̪ u ʋ aː ɾ aː ʋ a ʈ i k o ʈ u t̪ t̪ u p eː s u m p eː s u n n u ʧ ʧ u a t̪ a n aː l a t̪ aː n p eː ʧ u r eː n 
[33.105]
<no-speech> 
[34.315]
e n n oː ʈ a t̪ aː n f oː n a i l l a l l a 
[36.385]
<no-speech> 
[38.115]
n ai n aː e ŋ k a p oː j i ʈ ʈ u <int> ʋ a n t̪ aː ɾ 
[41.195]
<no-speech> 
[42.795]
<sta> aː h aː h n aː ɭ ai k k u t̪ e ʋ a s a m aː 
[46.865]
<no-speech> 
[47.795]
<sta> aː h aː h a p p u r a m ʋ eː r a e n n a s a m aː ʧ ʧ aː ɾ a m 
[50.995]
<no-speech> 
[52.095]
e n f oː n t̪ aː n s aː ɾ ʤ eː i l l a t̪ i ɾ u p p i u ʈ a ɲ ʧ u i t̪ u ʋ aː j i ʈ u ʧ ʧ u a t̪ u u ʈ a j a l aː i l l a s aː ɾ ʤ u aː k a m aː ʈ ʈ eː ŋ a k u t̪ u 
[57.825]
<no-speech> 
[59.045]
<sta> f oː n ʋ aː ŋ k u r a t̪ u k k u k aː ʧ u k o ʈ u t̪ t̪ eː n eː m aː m aː n ʈ a 
[63.195]
<no-speech> 
[64.625]
<sta> a t̪ u e p p a m ʋ aː ŋ k i t̪ a ɾ u ʋ aː ɾ u n e t̪ e ɾ i l a 
[67.015]
<no-speech> 
[69.665]
<int> e n n a 
[71.575]
<no-speech> 
[73.225]
n ai n aː aː j i ɾ a ɾ uː p aː k o ʈ t̪ aː ɾ u l l a 
[75.195]
<no-speech> 
[76.885]
a t̪ u m n aː n u m oː ɾ aː j i ɾ uː p aː p oː ʈ ʈ u k o ʈ u t̪ t̪ eː n <int> 
[80.625]
<no-speech> 
[81.655]
<int> a t̪ u e p p a m ʋ aː ŋ k i t̪ a ɾ u ʋ aː ɾ u n n u t̪ e ɾ i l a n ai n aː k k u ʋ eː ʃ ʈ i s a ʈ ʈ a k uː ʈ a m aː m aː t̪ aː n e ʈ u t̪ t̪ u t̪ a n t̪ aː ɾ u 
[86.025]
<no-speech> 
[88.305]
<sta> e n n a m oː e ʈ u t̪ t̪ u t̪ u t̪ a n t̪ aː ɾ u e ʈ u t̪ t̪ u k o ʈ u k k a ʧ o n n aː ɾ u 
[92.085]
<no-speech> 
[95.705]
<sta> aː h a ʋ a ɾ t̪ aː n eː t̪ oː e ʈ u t̪ t̪ u k k u n u e ʈ u t̪ t̪ u k n aː ɾ eː 
[100.325]
<no-speech> 
[105.355]
<int> aː h aː h aː h 
[107.985]
<no-speech> 
[109.595]
s a ɾ i j e n n a p o ŋ k a l p oː n o n e s a m aː ʧ ʧ aː ɾ a m a ʋ a ŋ k a ɭ u t̪ u ʧ o l r a n n aː ŋ k a ɭ e e n n a s o n n aː ŋ k a ɭ aː m <int> 
[114.695]
<no-speech> 
[115.545]
<no-speech> 
[115.915]
<no-speech> 
[118.045]
aː h <int> 
[119.645]
<no-speech> 
[121.075]
<sta> u m u m n ai n aː e ŋ k a <no-speech> u uː m 
[125.725]
<no-speech> 
[126.565]
<sta> ʃ ɾ iː j aː n ʈ aː k o ʈ u k k u r a p eː ʧ u r i j aː 
[129.695]
<no-speech> 
[131.355]
oː ʋ i j aː k k u <int> n aː ɭ ai k k u p eː ɾ t̪ ʈ eː 
[134.385]
<no-speech> 
[137.145]
u n a k k u t̪ e ɾ i j u m aː <int> 
[139.385]
<no-speech> 
[140.405]
k aː l l a f oː n p oː ʈ ʈ u ʧ o l l u <int> ʃ ɾ iː t̪ a ɾ ʃ i n i 
[143.005]
<no-speech> 
[143.985]
p i ɾ i j aː <int> n aː n u m t̪ aː n p eː ʧ a ɳ u m aː 
[147.565]
<no-speech> 
[149.905]
n aː n u m t̪ aː n <int> p eː s u n u m aː m aː 
[153.535]
<no-speech> 
[155.755]
aː aː p i ɾ i j aː l l aː m p eː s a ʋ eː <int> k uː ʈ aː t̪ aː m 
[158.675]
<no-speech> 
[160.285]
<sta> n aː n u m t̪ aː n p eː s a ɳ u m s a ɾ i s o l l u m <cough> aː h 
[164.675]
<no-speech> 
[166.685]
aː h aː h <laugh> 
[167.735]
<no-speech> 
[168.875]
<laugh> a n t̪ a m aː ɾ i f oː n t̪ aː n a n t̪ a p o ɳ ɳ u ʋ aː ŋ k i ʋ a ʧ ʧ u k k u t̪ u 
[171.685]
<no-speech> 
[172.675]
<int> aː h s o l l u m aː 
[175.625]
<no-speech> 
[178.405]
aː h aː h <int> p o r a n t̪ u ʈ u ʧ ʧ u 
[179.885]
<no-speech> 
[180.745]
<no-speech> p ai j a n 
[183.365]
<no-speech> 
[185.645]
<cough> <int> a t̪ u e p j oː p o r a n t̪ u t̪ u 
[190.705]
<no-speech> 
[191.745]
<sta> ɾ e ɳ ʈ u m aː s a m aː k u t̪ u <no-speech> ɾ e ɳ ʈ u m aː s a m aː k u t̪ u <no-speech> p o ŋ k a l l aː m ʋ e ʧ ʧ iː ŋ k a ɭ aː 
[200.485]
<no-speech> 
[202.435]
e n a k k u i t̪ u l a k uː ʈ a i n t̪ a p a k k a m aː p o ŋ k u ʧ ʧ u m aː <int> m eː r k u p a k k a m aː n a l l a t̪ t̪ aː 
[208.435]
<no-speech> 
[209.845]
a p ʈ iː n aː e n n a a ɾ t̪ t̪ a m 
[211.205]
<no-speech> 
[212.365]
<int> aː h 
[216.235]
<no-speech> 
[218.185]
aː h aː h <int> m eː r k u p a k k a m t̪ aː n ʋ a n t̪ u ʧ ʧ u 
[220.365]
<no-speech> 
[224.355]
<no-speech> n iː j e ɳ ɳ aː s o n n i j aː n n a e t̪ u ʋ u m eː s o l l a ʋ eː i l l a 
[228.425]
<no-speech> 
[233.335]
n iː k a l j aː ɳ a m ʧ o l l i r u n t̪ aː n aː n u m <hes> p a ɾ s u e ʈ u t̪ t̪ u ʋ a n t̪ u ɾ u p p a n l a s a ɾ i j aː ɾ aː n n a k uː ʈ u p a ɾ s u ʋ aː ŋ k a l aː m i ŋ k a j eː 
[243.015]
<no-speech> 
[244.545]
t̪ aː ɾ a ɭ a m aː k o ʈ u k k a l aː m i ŋ k a l aː m n uː t̪ t̪ i i ɾ u p a t̪ u ɾ uː ʋ aː 
[246.895]
<no-speech> 
[248.635]
l ai n i ŋ k eː ai m p a t̪ u ɾ uː p aː ʋ aː m <int> 
[251.805]
<no-speech> 
[253.075]
n uː r u p aː ʋ aː <int> 
[254.975]
<no-speech> 
[256.275]
ai j ai j oː <no-speech> s a ɾ i k uː ʈ u 
[257.815]
<no-speech> 
[259.685]
ɾ e ɳ ʈ u t̪ a ʈ a ʋ a l ai n i ŋ u p oː ʈ ʈ u t̪ ai j i <no-speech> l ai n i ŋ u k uː ʈ a p ɭ au s u p i ʈ ʈ u m ʋ iː ʈ l a i ɾ u k k u m p aː ɾ u 
[264.365]
<no-speech> 
[265.725]
a t̪ a p oː ʈ ʈ u <int> t̪ ai j i 
[270.225]
<no-speech> 
[272.055]
<int> e n n a t̪ u m aː m aː 
[277.705]
<no-speech> 
[279.405]
<no-speech> 
[280.015]
<no-speech> 
[280.945]
e p p a m <int> s o n n aː ɾ 
[283.095]
<no-speech> 
[284.945]
aː h aː h <sta> n aː n u m t̪ aː n s o n n eː n <no-speech> aː m aː oː ɾ l i ʈ ʈ a ɾ a r u p a t̪ t̪ u ɾ uː ʋ aː k o ʈ u t̪ t̪ u ʋ aː ŋ k u r aː ŋ k a a t̪ aː l a k i ɾ u ʃ ɳ aː j i l i l l a e ʈ u t̪ t̪ u ʋ a ɾ a s o n n eː n 
[293.925]
<no-speech> 
[296.015]
<sta> a r u p a t̪ t̪ u ɾ uː p aː k o ʈ u t̪ t̪ u t̪ aː n ʋ aː ŋ k i ʋ aː ŋ k i uː t̪ t̪ a r aː ɾ u 
[298.535]
<no-speech> 
[299.655]
a t̪ aː n n aː n u m <int> ɾ aː ʤ a m m aː ʋ a k eː ʈ ʈ a n 
[302.735]
<no-speech> 
[303.705]
a ʋ a ŋ k a a n u p ʧ ʧ aː e ʈ u t̪ t̪ aː n t̪ u k aː m a ʈ ʧ i k k aː ʈ ʈ a k o ʈ u t̪ t̪ u ʈ ʈ u p oː ʧ ʧ u u n k i ʈ ʈ a i ɾ u n t̪ aː k u ʈ u m m aː a p ʈ i n n u <sta> n iː eː n e ŋ k i ʈ ʈ a i l l a a m m aː ʈ ʈ a f oː n p oː ʈ u 
[311.585]
<no-speech> 
[312.835]
<sta> a p ʈ i n n u ʧ o l ʧ ʧ u a t̪ u k k a p p a r a n t̪ aː n n aː n u m s o n n eː n 
[315.445]
<no-speech> 
[318.505]
a ŋ k a e ŋ k a s e j <int> m u ʈ i j u m 
[320.825]
<no-speech> 
[322.015]
<no-speech> 
[322.845]
<no-speech> 
[323.735]
au ʋ a a ʋ aː ʋ a n t̪ aː ŋ k a ɭ aː m p o ŋ k a l u k k u m k aː ʧ u t̪ a n t̪ aː ŋ k a ɭ aː <int> p u ʈ a ʋ a k k u 
[327.815]
<no-speech> 
[330.215]
aː h aː h i ɾ u m m aː i t̪ u m f oː n p oː ʈ ʈ i j aː <no-speech> p o ŋ k a l l aː m ʋ e ʧ ʧ aː ŋ k a ɭ aː m aː 
[341.325]
f oː n f oː n p oː ʈ ʈ aː ŋ k a e n a k k u <no-speech> n iː eː n f oː n p a ɳ ɳ a l a 
[347.095]
<no-speech> 
[348.345]
p a t̪ t̪ u ʋ a ɾ u ʃ a m p o ŋ k a l k u a t̪ u s e ɲ ʧ i ʈ ʈ e n i t̪ u m s e ɲ ʧ i ʈ ʈ e n f oː n p a ɳ ɳ i p a ɳ ɳ i k eː k k u m eː n i n a t̪ a ʋ a ɾ u ʃ a m p a ɳ ɳ a l a n aː n u m a t̪ aː n s o n n eː n <int> e ŋ k a m m aː ʋ u k k u f oː n p a ɳ ɳ i k eː ʈ ʈ u k k u n e n a p ʈ i n n u <no-speech> a n n i k k u s iː k k i ɾ a m aː ʋ eː s aː m i k u m ʈ o m p a t̪ t̪ a ɾ a k k e l l aː m k u m ʈ ʈ u s aː p ʈ ʈ oː m 
[360.275]
<no-speech> 
[360.425]
<no-speech> 
[361.475]
aː h 
[362.065]
<no-speech> 
[365.725]
a p ʈ i s o n n aː n a i l l a ʋ aː a m m aː k k u f oː n p a ɳ ɳ i k eː ʈ ʈ u k k u n e n 
[369.135]
<no-speech> 
[370.125]
a p ʈ i n n u s o l l i ʈ ʈ eː n 
[372.245]
<no-speech> 
[373.995]
a t̪ a l e l l aː m a ʋ a ŋ k a e t̪ u m ʧ o l l a 
[376.615]
<no-speech> 
[378.135]
<no-speech> 
[378.495]
<no-speech> 
[379.375]
u m u m n aː ɭ ai k k u k eː k k u m h uː m h uː m 
[381.905]
<no-speech> 
[382.965]
<sta> a p r e n n a ʋ eː r a o n n u i l l a <no-speech> n iː t̪ aː n s o l l a ɳ u m 
[388.745]
<no-speech> 
[389.685]
aː h m aː m aː e ʈ u t̪ t̪ u ʈ ʈ u ʋ a n t̪ aː ɾ <no-speech> ɾ e ɳ ʈ u p eː ɾ u k k u m e ʈ u t̪ t̪ u ʈ ʈ eː n 
[395.365]
<no-speech> 
[396.865]
p e ɾ t̪ u ʈ eː k k u m e ʈ u t̪ t̪ u k o ʈ u t̪ t̪ aː ɾ 
[398.725]
<no-speech> 
[402.335]
e n n a m m aː 
[403.065]
<no-speech> 
[408.165]
aː m aː <sta> n aː n u m t̪ aː n m uː n u ʃ e ʈ u ʈ ɾ a s u e ʈ u t̪ t̪ u ɾ u k k u r a n e 
[410.875]
<no-speech> 
[413.085]
aː m m aː m aː k aː ʈ ʈ a n l a oː ɾ f ɾ aː k u e ʈ u t̪ t̪ a n <no-speech> s u ʈ i t̪ aː ɾ o ɳ ɳ u m e ʈ u t̪ t̪ a n m aː m aː o ɳ ɳ u m e ʈ u t̪ t̪ u t̪ a n t̪ aː ɾ u 
[419.615]
<no-speech> 
[422.175]
<sta> aː h aː h a t̪ u k k u i n n o ɾ ʃ e ʈ u e ʈ u t̪ t̪ u t̪ ɾ eː n s o n n aː ɾ <no-speech> e ʈ u t̪ t̪ u e ʈ u t̪ t̪ u t̪ t̪ a ɾ e n n u s o l l i ɾ u k k aː ɾ 
[433.515]
aː h aː h aː n <no-speech> a ʋ a ɾ e n n a n aː s e l au p a ɳ r aː ɾ i p p a p o ŋ k a l u k k a l aː m ai j aː j i ɾ u ʋ aː k k i ʈ ʈ a s e l au aː j i ʈ u ʧ ʧ u m uː ʋ aː j i ɾ a t̪ t̪ i n ai n aː t̪ t̪ oː ʈ a s eː ɾ t̪ t̪ u m uː ʋ aː j i ɾ a t̪ t̪ i ai n n uː r u p aː aː j i ʈ u ʧ ʧ u 
[443.685]
<sta> m uː ʋ aː j i ɾ a t̪ t̪ i ai n n uː r u p aː aː j i ʈ u ʧ ʧ u a t̪ u k k a p p u r a m i t̪ u k k e l l aː m oː ɾ ai n n uː r u p aː k o ʈ u t̪ t̪ aː ɾ 
[449.565]
<no-speech> 
[450.905]
a t̪ u k k a p p u r a m ʋ a n t̪ u ai j aː j i ɾ uː p aː k i ʈ ʈ a k aː l i aː j i ʈ u ʧ ʧ u <no-speech> a t̪ a n aː l a ʋ aː ʈ a k a ʋ aː ʈ a k a k a ʈ n u m n u s o l l i n u n t̪ aː ɾ u e ŋ k i ʈ ʈ a k aː s oː ʈ a p oː ʈ ʈ u k a ʈ ʈ i ɾ u p p aː ɾ u aː n aː ʋ aː ŋ k i ʈ ʈ u ʋ a n t̪ u ɾ u ʋ aː ɾ u 
[461.395]
<no-speech> 
[462.755]
<int> aː h aː h 
[465.005]
<no-speech> 
[466.455]
<cough> <int> aː m aː 
[469.135]
<no-speech> 
[470.175]
<int> aː h aː h aː n <no-speech> aː m aː 
[474.505]
<no-speech> 
[475.415]
<sta> aː n a k k aː k k u s aː ʋ i e ʈ u t̪ t̪ u k o ʈ u 
[478.125]
<no-speech> 
[479.035]
oː ʋ i j aː <no-speech> p aː p p aː k k u <sta> aː j ʋ a ɾ u t̪ aː m p aː ɾ u ʋ iː ʈ ʈ u k k u k uː ʈ ʈ i n u p oː s aː ʋ i e ʈ u t̪ t̪ u ɳ ʈ u p oː 
[483.835]
<no-speech> 
[486.965]
<sta> ɾ eː ʋ a t̪ i e ɳ p a ɾ ʧ a e ʈ e n <no-speech> k o ɭ ɭ u m aː i l l eː l a <no-speech> aː h 
[495.395]
<no-speech> 
[496.585]
aː h aː h aː n a t̪ aː n <int> s o l ʧ eː 
[500.055]
<no-speech> 
[501.865]
aː h 
[502.535]
<no-speech> 
[505.565]
aː m aː <int> 
[507.435]
<no-speech> 
[508.275]
oː ʋ i j aː k a ʋ a ɾ e ʈ u t̪ t̪ u ɳ ʈ u p oː ʋ iː ʈ l a i ɾ u k a ɾ a ɳ ʈ u ʋ a n t̪ u ʈ u m n aː n u m i p p a ʋ a n t̪ u ʈ u r eː n <no-speech> u ŋ k a ɭ u k k u i t̪ u m ʋ a n t̪ a ɾ a ʧ ʧ aː m aː 
[514.625]
<no-speech> 
[515.765]
k ɾ ai ɳ ʈ a ɾ l aː m ʋ a n t̪ u ɾ u t̪ aː <no-speech> m aː m aː oː ɾ k ɾ ai ɳ ʈ a ɾ ʋ aː ŋ k i n aː ɾ aː j i ɾ uː p aː k o ʈ u t̪ t̪ u <no-speech> eː p oː <no-speech> aː m aː s e k k a n e n ʈ u i l l a p u t̪ u s u 
[527.715]
ʋ aː ŋ k i n aː ɾ t̪ oː k a l ai ɲ a ɾ <hes> i t̪ u m k u ʈ u t̪ t̪ a t̪ u t̪ aː n 
[531.505]
<no-speech> 
[537.405]
e n n a t̪ u a t̪ u n a l l aː <int> 
[540.525]
<no-speech> 
[542.845]
aː h aː h aː h 
[545.555]
<no-speech> 
[547.935]
<sta> ɾ o m p a n aː ɭ t̪ aː ŋ k a l a j aː m aː <no-speech> a t̪ u e n n a m oː ʋ aː ŋ k i n aː ɾ 
[553.745]
<no-speech> 
[554.715]
<no-speech> 
[555.095]
<no-speech> 
[557.045]
<sta> aː h <no-speech> a t̪ u ʋ aː ŋ k a n u m n u ai ʈ i j aː ʋ eː i l l a a ʋ a ŋ k a k a ʈ ai j i l a j aː ɾ oː ʋ aː ŋ k i n aː ŋ k a ɭ aː 
[565.455]
<no-speech> 
[566.915]
a t̪ a e ʈ u t̪ t̪ u k k u r i j aː n n u k eː ʈ ʈ aː ŋ k a a p ʈ i j eː e ʈ u t̪ t̪ u ɳ ʈ u ʋ a n t̪ u ʈ ʈ aː ɾ <no-speech> a t̪ a a p ʈ i j eː i n n i k k u t̪ aː m aː <no-speech> aː h 
[574.365]
<no-speech> 
[577.775]
u m u m <no-speech> a t̪ u aː h a p ʈ i ʧ o l r i j aː 
[581.155]
<no-speech> 
[584.115]
<no-speech> 
[584.535]
<no-speech> 
[585.485]
aː h 
[587.175]
<no-speech> 
[590.055]
aː h 
[591.855]
<no-speech> 
[593.215]
i n n i k k u <no-speech> a t̪ aː n i n n i k k u k uː ʈ a p oː ʈ ʈ u n aː t̪ aː n i ɾ u k k u r eː n p a ʧ ʧ a ɾ i s i s uː p p a ɾ aː i ɾ u k k u t̪ u oː ɾ k i l oː a ɾ i s i p oː ʈ ʈ aː ŋ k a ɭ eː a t̪ eː m aː ɾ i j eː i ɾ u k k u t̪ u 
[599.745]
<no-speech> 
[599.920]
