[0.000]
<no-speech> 
[3.095]
h a l oː 
[3.695]
<no-speech> 
[5.165]
<no-speech> 
[5.515]
<no-speech> 
[6.345]
ʧ o l l u ŋ k a m eː ʈ a m 
[7.175]
<no-speech> 
[9.945]
n aː n ʋ iː ʈ l a s aː p ʈ u ʈ ʈ u i ɾ u k k a n m eː ʈ a m 
[11.425]
<no-speech> 
[13.725]
aː f iː s u ʋ a n t̪ u p oː l a i n n i k k u l iː ʋ 
[15.955]
<no-speech> 
[18.085]
<sta> u ʈ a m p u ʧ a ɾ i j i l l a 
[19.195]
<no-speech> 
[22.215]
aː n k aː l ai l a l ai ʈ ʈ aː ʋ a j i r u ʋ a l u ʧ ʧ a t̪ u a p ʈ i j eː i t̪ aː n ʃ aː k k u n u l iː k u p oː ʈ ʈ eː n p aː t̪ t̪ aː ʋ a j i r u ʋ a l i s a ɾ i j aː p oː j i ʈ u ʧ ʧ u h aː f u h a ʋ a ɾ l a 
[28.125]
<no-speech> 
[30.265]
u m u m 
[30.745]
<no-speech> 
[32.625]
aː m aː ʋ o ɾ k u i l l a 
[33.705]
<no-speech> 
[36.635]
ʋ o ɾ k u i l l a <hes> i n n ai k k u p a ɳ ɳ a ʋ eː ɳ ʈ i j a ʋ o ɾ k u e l l aː m n aː ɭ ai k k u n eː t̪ t̪ eː m u ʈ u ʧ ʧ u ʈ ʈ eː n m iː t̪ i ʋ o ɾ k u n aː ɭ ai k k u i ɾ u k k u i n n ai k k u aː k ʧ au l aː p oː k a ʋ eː ɳ ʈ i i ɾ u n t̪ a t̪ u a ʋ a ɾ ʋ a n t̪ u m e j i l e ʈ u t̪ t̪ u m e j i l p a ɳ ɳ u ŋ k a n iː ŋ k a ʋ a ɾ a ʋ eː ɳ ʈ i j a t̪ i l l a a p ʈ iː n n aː ɾ u 
[48.005]
<no-speech> 
[48.925]
<sta> aː k ʧ ʋ a l l a k a j i r u ʋ a l i k k u t̪ u a p ʈ i n n u n aː n f oː n p a ɳ ɳ i s o n n eː n n aː n u m s u m m aː k a t̪ a ʋ i ʈ ʈ eː n l ai ʈ ʈ aː k a j i r u ʋ a l i k r a m aː r i i ɾ u n t̪ a t̪ u n aː n a p ʈ i s o n n eː n a ʋ a ɾ oː k eː j n iː ŋ k a m e j i l p a ɳ ɳ u ŋ k a ʋ a ɾ a ʋ eː ɳ ʈ i j a t̪ i l l a a p ʈ i n ʈ aː ɾ u <no-speech> 
[58.305]
<no-speech> 
[59.245]
a p ʈ i j eː p oː l a <int> 
[60.115]
<no-speech> 
[61.725]
<no-speech> u m u m 
[63.005]
<no-speech> 
[67.215]
<sta> a p i ɾ aː m i j aː 
[68.415]
<no-speech> 
[72.505]
u m u m <sta> o ɻ u ŋ k aː e ʈ u t̪ t̪ u k k oː u m u m u m u m u m u m a n t̪ a p o ɳ ɳ u k k u ʤ aː p u n aː n ʋ a n t̪ a t̪ u m ʧ o l r eː n 
[78.685]
<no-speech> 
[80.585]
<no-speech> 
[80.975]
<no-speech> 
[83.775]
<no-speech> ʈ i e n e <no-speech> 
[85.595]
<no-speech> 
[88.255]
ʈ i e n e s u <no-speech> k a m p e n i p eː ɾ t̪ aː n k eː k k u r aː k a m p e n i p eː ɾ ʈ i e n e s u ɾ eː k aː 
[95.095]
<no-speech> 
[96.675]
<no-speech> 
[97.185]
<no-speech> 
[98.905]
<sta> p a ɳ ɳ a l aː m a n t̪ a p o ɳ ɳ u k uː ʈ a p a ʈ u k o ɲ ʧ a m aː t̪ u <hes> o ɾ u e k s p iː ɾ i j a n s u i ɾ u k k a n u m l a oː ɾ e k s p iː ɾ i j a n s u i ɾ u k k a n u m l a 
[104.705]
<no-speech> 
[105.775]
aː n 
[106.285]
<no-speech> 
[107.815]
i l l a a t̪ u ʋ eː r a a n t̪ a ʈ ɾ ai n i ŋ u ʋ eː r a i p p a a ŋ k a ʋ a s a t̪ i j aː ʋ o ɾ k u p a ɳ ɳ a n u m n aː a t̪ u k k u ʋ eː r a <hes> i ɾ u k k u l l a <sta> a t̪ u k k u t̪ eː ʋ ai l a k o ɲ ʧ a m k u ʋ aː l i f i k eː ʃ a n oː ɾ e k s p iː ɾ i j a n s u 
[117.275]
<no-speech> 
[121.685]
u m u m 
[122.285]
<no-speech> 
[124.285]
a t̪ u k k e l l aː m ʋ eː l ai j eː k e ʈ ai j aː t̪ u <sta> i ŋ k i ʈ ʈ u p i i p a ʈ u ʧ ʧ a p o ɳ ɳ u k k u m i ŋ k a e n n a ʋ eː l a 
[127.695]
<no-speech> 
[132.245]
<no-speech> 
[132.705]
<no-speech> 
[133.835]
<sta> a p ʈ i l aː m t̪ a p p u e ŋ k a j aː ʋ a t̪ u a ŋ k a a t̪ u k e ʈ ai k k a l a n n aː i t̪ u l a ʋ a n t̪ a au ɭ a t̪ aː n t̪ aː n i t̪ u l a ʋ i ɻ u n t̪ u ɾ a ʋ eː ɳ ʈ i j a t̪ aː n 
[138.565]
<no-speech> 
[141.335]
<sta> e n n a t̪ u m eː ʈ ʈ a ɾ ʋ a ʧ ʧ u ɾ u k k a <no-speech> 
[142.945]
<no-speech> 
[146.695]
<sta> aː m aː aː m aː e n a k k u k a l j aː ɳ a m p a ɳ ɳ i k u r iː j aː n u k eː ɭ u a n t̪ a p o ɳ ɳ a <no-speech> 
[149.745]
<no-speech> 
[152.375]
<sta> n aː n s ʈ ɾ e j i ʈ ʈ aː s a m p a ɭ a m eː t̪ a n t̪ u r eː n <breath> a n t̪ a p o ɳ ɳ u ʋ eː l ai k k eː p oː t̪ eː ʋ a l a n aː n eː s a m p a ɭ a t̪ t̪ ai j u m k u ʈ u t̪ t̪ i ʈ u r eː n k eː ɭ u a n t̪ a p o ɳ ɳ u k i ʈ ʈ a k a l j aː ɳ a m p a ɳ ɳ i k k i r iː j aː n u 
[159.755]
<no-speech> 
[163.115]
<sta> <laugh> eː j i p p a e n n a ʋ eː l ai k k u p oː j ʧ a m p aː t̪ i k r a t̪ a ʋ i ʈ a s a m p aː ɾ u ʧ ʧ u s a m p a ɭ a t̪ t̪ a k o ɳ ʈ u ʋ a n t̪ u k u ʈ u k r a t̪ u p e ʈ ʈ a ɾ i l l ai j aː <no-speech> 
[170.785]
<no-speech> 
[172.675]
<sta> <laugh> eː j n iː e p ʈ i <hes> n a ʈ a k k aː t̪ a ʋ i ʃ a j a m n aː e t̪ u n a ʈ a k k aː t̪ u ŋ k u r a n iː p eː ʧ u r a t̪ eː s a ɾ i i l l a j eː e n n a n a ʈ a k k aː t̪ u ŋ k u r a e l l aː m n a ʈ a k k u m 
[182.395]
<no-speech> 
[185.475]
<no-speech> oː ɾ aː n 
[188.845]
<no-speech> 
[190.205]
e n n a 
[190.655]
<no-speech> 
[192.235]
u m u m <sta> s a ɾ i n aː n ɾ e ʈ i p a ɳ r eː n a t̪ u e n n a n aː n e n n a j aː ɾ p aː t̪ t̪ aː l u m e ŋ k i ʈ ʈ a ʋ a n t̪ u ʤ aː p u ɾ e ʈ i p a ɳ ɳ u ŋ k i r iː ŋ k a e n a k k u e n n a t̪ e ɾ i j u m e n a k k u o n n u m eː t̪ e ɾ i j aː t̪ u e ŋ k i ʈ ʈ a ʋ a n t̪ u k eː k k u r a u m u m 
[200.975]
<no-speech> 
[204.185]
<sta> uː ɾ u k k u ɭ ɭ a p eː ʧ i k r aː ŋ k a n u t̪ aː n 
[206.525]
<no-speech> 
[210.005]
a t̪ u o n n u 
[210.915]
<no-speech> 
[215.095]
aː n 
[215.615]
<no-speech> 
[218.165]
a p ʈ iː n aː e n n a t̪ u 
[219.065]
<no-speech> 
[222.215]
s i e s u e s n aː e n n a t̪ u 
[223.425]
<no-speech> 
[227.265]
u m u m 
[227.845]
<no-speech> 
[233.165]
<no-speech> 
[233.645]
<no-speech> 
[235.075]
u m u m 
[235.605]
<no-speech> 
[241.785]
u m u m 
[242.375]
<no-speech> 
[247.085]
u m u m 
[247.755]
<no-speech> 
[248.765]
e n a k k u e t̪ u m t̪ e ɾ i j aː t̪ eː 
[249.815]
<no-speech> 
[254.635]
<sta> s i e s u e s u ʈ ɾ ai n i ŋ u s e n ʈ a ɾ ʈ aː j oː ʋ s i e s u e s u k a m p i j uː ʈ ʈ a ɾ k oː ɾ s u k a m p i j uː ʈ ʈ a ɾ <hes> k a m p i j uː ʈ ʈ a ɾ s e n ʈ a ɾ t̪ aː n a t̪ u 
[260.705]
<no-speech> 
[263.185]
u m u m 
[263.655]
<no-speech> 
[264.845]
<sta> s i e s u e s ʧ aː eː j o n m oː ɾ t̪ oː s ai u m u m <no-speech> 
[267.515]
<no-speech> 
[268.785]
a n t̪ a m aː r i l aː m i ɾ u k k u t̪ aː e n n a a n t̪ a m aː r i l aː m n aː n k eː ɭ ʋ i p a ʈ ʈ a t̪ u m i l l a i l l a n iː k a m p i j uː ʈ ʈ a ɾ s e n ʈ a ɾ p a t̪ t̪ i t̪ aː n p eː ʧ u r i j oː n u n e n a ʧ ʧ eː n 
[273.325]
<no-speech> 
[274.445]
n iː s i n n a p o ɳ ɳ u s i n n a ʋ i t̪ a m aː j oː ʧ i k r i j oː e n n a n n u p aː t̪ t̪ eː n <breath> 
[277.005]
<no-speech> 
[278.005]
<no-speech> u m u m <no-speech> u m u m 
[287.685]
<no-speech> 
[292.065]
<sta> u m u m 
[292.645]
<no-speech> 
[295.305]
e p ʈ i k eː k k u r aː ŋ k a 
[296.285]
<no-speech> 
[307.815]
<no-speech> u m u m <no-speech> eː j s a ɾ i a t̪ a ʋ i ʈ u a n t̪ a p o ɳ ɳ u ʤ aː p u k eː ʈ ʈ iː j eː <no-speech> a n t̪ a p o ɳ ɳ u k k u m n aː n s a m p a ɭ a m eː t̪ a ɾ aː m a a t̪ u k k u p a t̪ i l a k aː ɳ oː m eː <no-speech> 
[318.625]
<no-speech> 
[320.415]
<sta> eː j a n t̪ a p o ɳ ɳ u oː ɾ p o ɳ ɳ u k k u m ʤ aː p u t̪ eː ʋ a <oov> i ɲ ʧ i n i j a ɾ i ŋ u p a ʈ i ʧ ʧ u ɾ u k k u s o n n eː l a <no-speech> a n t̪ a p o ɳ ɳ u ʤ aː t̪ a k a t̪ t̪ a a n u p p a ʧ o l l u 
[327.305]
<no-speech> 
[328.315]
<sta> e n a k k u oː k eː j <no-speech> 
[330.785]
<no-speech> 
[332.405]
aː n 
[332.945]
<no-speech> 
[334.305]
eː j ɾ e ʧ i j uː m p a t̪ t̪ aː t̪ u p a j oː ʈ eː ʈ ʈ aː k u ʈ u ʤ aː t̪ a k a m ʋ eː ɳ u m 
[336.865]
<no-speech> 
[337.895]
eː j <sta> a t̪ u ʋ eː r a ʋ eː l a ʋ aː ŋ k i t̪ a ɾ a m aː r i i ɾ u n t̪ aː ɾ e ʧ i j uː m p oː t̪ u m i t̪ u s a m p a ɭ a t̪ t̪ ai j eː t̪ a ɾ a t̪ u n n aː ʤ aː t̪ a k a t̪ t̪ a j eː p aː k k a ɳ u m p aː 
[343.295]
<no-speech> 
[348.325]
<no-speech> 
[348.765]
<no-speech> 
[349.815]
eː j ʤ aː p u e t̪ u k k u ʤ aː p u <sta> e l l aː m t̪ a n t̪ u k i ʈ ʈ u a t̪ u k k a p p u r a m i n n o ɾ ʋ aː ɻ k k a ʋ eː r a k u ʈ u t̪ t̪ u ʈ ʈ u m o t̪ t̪ a m aː i t̪ eː k u ʈ u t̪ t̪ u ɾ u ʋ oː m 
[355.475]
<no-speech> 
[358.415]
m eː ʈ ɾ i m a ɳ i l aː m i l l a n a m a k k u e t̪ u k k u m m eː ʈ ɾ i m a ɳ i <no-speech> u m u m 
[361.585]
<no-speech> 
[363.815]
u m u m n a m a k k u e t̪ u k k u m m eː ʈ ɾ i m a ɳ i n iː i ɾ u k k u m p oː t̪ u e n a k k u e t̪ u k k u m m eː ʈ ɾ i m a ɳ i s o l l u m ɾ eː k aː 
[367.115]
<no-speech> 
[371.005]
<laugh> s eː ʧ ʧ eː s eː ʧ ʧ eː n iː j aː n iː k ɭ oː s u f ɾ e ɳ ʈ p aː k ɭ oː s u f ɾ a ɳ ʈ u oː ɾ <foreign> s o n n aː a t̪ u k k u p eː ɾ <foreign> aː n 
[379.035]
<no-speech> 
[380.665]
u m u m 
[381.125]
<no-speech> 
[384.935]
<no-speech> 
[385.445]
<no-speech> 
[387.055]
s a n t̪ i j aː ʋ a s o l l i s a n t̪ i j aː ʋ a k eː ɭ u s a n t̪ i j aː ʋ a k eː ɭ u n u <hes> p oː n a ʋ aː ɾ a m u m u j i ɾ ai ʋ aː ŋ k i n a <sta> a n t̪ a p o ɳ ɳ u ʤ aː p u i ɾ u n t̪ aː k a ɳ ʈ i p p aː e n a k k u m u t̪ a ʋ i ʃ a j a m aː e n a k k u s o l l a ʋ aː n aː n u ʈ a n eː ʧ o l r eː n 
[395.275]
<no-speech> 
[399.255]
u m u m <sta> ɾ eː k aː n iː a ɾ u m p aː k k a t̪ l a j eː p e ɾ i j aː ɭ n iː <no-speech> 
[403.035]
<no-speech> 
[404.095]
p e ɾ u m p u ɭ ɭ i a ɾ u m p aː k k a t̪ t̪ u l a a t̪ aː ʋ a t̪ u p e ɾ u m p u ɭ ɭ i k a ɭ <sta> ʋ i ɾ a l ʋ i ʈ ʈ u e n n a k uː ʈ i j a p e ɾ u m p u ɭ ɭ i l a n iː j u m oː ɾ aː ɭ a t̪ aː n u n ʈ eː e l l aː ɾ u m k eː k k u r aː j ŋ k a <no-speech> n aː n oː ɾ s i n n a p ai j a n e ŋ k i ʈ ʈ a ʋ a n t̪ u k eː ʈ ʈ aː e n n a a ɾ t̪ t̪ a m 
[414.505]
<no-speech> 
[415.655]
<no-speech> 
[416.025]
<no-speech> 
[417.815]
u m u m <sta> u n n aː l a <breath> u n n aː l a ʋ aː ɻ k k a k e ʈ a ʧ ʧ a ʋ a ŋ k a p a l a p eː ɾ k au ʋ i k e ʈ a ʧ ʧ a ʋ a ŋ k a p a l a p eː ɾ 
[424.375]
<no-speech> 
[425.235]
aː n u n n a n a m p i aː m aː n iː n aː n p a l a p eː ɾ u k k u p i s i n a s u p a ɳ ɳ i k u ʈ u t̪ t̪ u p a l a p eː ɾ n a l l a ʋ i t̪ a m aː i ɾ u k k aː ŋ k a u n n aː l a aː n a k oː ʈ iː s ʋ a ɾ a n u ŋ k a p a l a p eː ɾ i ɾ u k k aː ŋ k a 
[431.525]
<no-speech> 
[432.835]
a t̪ a n aː l a n iː oː ɾ p e ɾ i j a p u ɭ ɭ i u n n a p a t̪ t̪ i p eː s i k k u ʋ aː ŋ k a 
[435.435]
<no-speech> 
[438.815]
<laugh> <breath> n iː t̪ aː n p eː s a ɳ u m u n a k k u t̪ aː n i ɾ a n uː t̪ t̪ a p p a t̪ u ɾ uː ʋ aː k u ʈ u k k u r aː ŋ k a n iː e n a k k u f oː n p a ɳ ɳ i e ɳ u j i ɾ ai ʋ aː ŋ k u r a aː n 
[446.115]
<no-speech> 
[448.305]
aː m aː 
[449.205]
<no-speech> 
[451.115]
u m u m 
[451.505]
<no-speech> 
[453.385]
oː a t̪ a p a t̪ t̪ i l aː m p eː ʧ a k uː ʈ aː t̪ aː s a ɾ i s a ɾ i s a ɾ i <sta> <hes> s a ɾ i s a ɾ i n iː p eː ʧ u r i j aː n iː t̪ aː n p eː s a ɳ u m n aː n p eː s i ʈ ʈ u i ɾ u k k a n p eː ʧ u 
[460.875]
<no-speech> 
[464.345]
ʤ aː p u s a ɾ i ʤ aː p u <foreign> p a t̪ t̪ i s o l l u m e n n a p a ʈ u ʧ ʧ u ɾ u k k aː e n n a e p ʈ i p a ʈ i p p a e p ʈ i ʋ o ɾ k u p a ɳ ɳ a ʋ aː e n n a n n a t̪ e ɾ i j u m e n n a <foreign> i ɾ u k k u e l l a t̪ t̪ ai j u m s o l l u m 
[470.515]
<no-speech> 
[471.985]
u m u m u m u m 
[473.365]
<no-speech> 
[475.765]
<no-speech> 
[476.145]
<no-speech> 
[483.545]
<no-speech> 
[490.945]
a p p u r a m 
[491.625]
<no-speech> 
[492.925]
e t̪ t̪ a n a u j a ɾ a m e n n a h ai ʈ u e n n a ʋ e j i ʈ u e n n a n n a <foreign> e n n a ʈ ɾ a s u e l l aː m p oː ʈ u ʋ aː ŋ k a 
[498.095]
<no-speech> 
[502.725]
<lipsmack> <foreign> e l l aː t̪ t̪ ai j u m s o l l a n u m p p aː a t̪ e l l aː m oː ɾ ʈ ʋ i s ʈ ʈ u i ɾ u k k u a t̪ e l l aː m oː ɾ <hes> a ɾ t̪ a t̪ t̪ oː ʈ a t̪ aː n k eː ɭ ʋ i k eː p p aː ŋ k a p e ɾ i j a ʋ a ŋ k a n n aː a p ʈ i t̪ aː n k eː ɭ ʋ i k eː p p aː ŋ k a a t̪ e l l aː m k eː ɭ ʋ i k eː k k a k uː ʈ aː t̪ u 
[510.015]
<no-speech> 
[511.145]
s o l l u m 
[511.655]
<no-speech> 
[517.535]
n iː a n t̪ a p o ɳ ɳ oː ʈ a <foreign> s o l l i m u ʈ i k l a 
[519.725]
<no-speech> 
[523.485]
a t̪ u p o ɳ ɳ u h ai ʈ u ʋ e j i ʈ u <foreign> p aː j f ɾ a ɳ ʈ u i ɾ u k k aː ŋ k a ɭ aː i l l ai j aː e t̪ t̪ a n a m aː m aː e t̪ t̪ a n a a ɳ ɳ eː n e t̪ t̪ a n a t̪ a m p i a ɳ ɳ eː n e l l aː m s aː t̪ u ʋ aː p i ɾ a ʧ ʧ a n a p a ɳ ɳ u ʋ aː n n aː a t̪ e l l aː m k eː k k a ɳ u m 
[532.955]
<no-speech> 
[534.035]
e ŋ k a s o l l u m p aː p p oː m e n n e n n a k eː k k a ɳ u m s o l l u m 
[535.725]
<no-speech> 
[538.725]
<click> <laugh> <sta> s a ɾ i a ʈ u t̪ t̪ u p eː s u m n aː n t̪ aː n p eː s i ʈ ʈ u i ɾ u k k a n ai j oː u n n a ʋ i ʈ ʈ a t̪ u k k u e n n a ʋ i ʈ ʈ aː ʋ aː t̪ u n a l l aː p eː s i ɾ u p p eː n n aː n u m s a ɾ i s iː k ɾ a m s o l l u m 
[546.225]
<no-speech> 
[549.805]
u m u m 
[550.235]
<no-speech> 
[552.705]
u m u m 
[553.355]
<no-speech> 
[558.295]
<sta> a p p a n iː ʋ eː r a j aː ɾ oː p a t̪ t̪ i s o l l i ɾ u k k a aː n s a ɾ i s a ɾ i s o l l u m 
[561.535]
<no-speech> 
[565.455]
u m u m n iː s o n n a t̪ e l l aː m o n n u m eː m eː ʈ ʧ u aː k a l ai j eː n a l l a f ɾ a ɳ ʈ u n a l l a ʤ aː p u ɾ e ʈ i p a ɳ ɳ i t̪ a ɾ u ʋ aː n n u s o l l i ɾ u k k a a n t̪ a m aː r i n n aː e t̪ u m k i ʈ ai j aː t̪ eː 
[570.835]
<no-speech> 
[573.245]
u m u m 
[573.865]
<no-speech> 
[576.755]
ai j j a j oː e n n a s a ɾ ʋ iː s ʧ u n aː n a p ʈ i l aː m p a ɳ r a t̪ u i l l a j eː <sta> 
[579.565]
<no-speech> 
[582.235]
u m u m <sta> 
[583.795]
<no-speech> 
[584.655]
u m u m <sta> s a ɾ i a t̪ a ʋ i ʈ u m n eː t̪ t̪ u m p oː n i j aː a m p a t̪ t̪ uː ɾ u k k u 
[588.765]
<no-speech> 
[594.255]
<int> s a ɾ i s a ɾ i s a ɾ i s o l l u m s o l l u m 
[595.645]
<no-speech> 
[597.245]
u m u m 
[597.615]
<no-speech> 
[600.200]
