[0.000]
<no-speech> 
[2.365]
h a l oː 
[3.045]
<no-speech> 
[4.775]
aː n i p p a k eː k k u t̪ aː 
[5.825]
<no-speech> 
[7.445]
<dtmf> aː n e n n a aː ʧ ʧ u i t̪ u <hes> ɾ e ʈ u ʤ e j ɳ ʈ a l a o n a k k aː s uː ʈ ʈ iː ŋ k aː 
[12.365]
<no-speech> 
[14.865]
ɾ e ʈ u ʤ e j ɳ ʈ a l a 
[16.135]
<no-speech> 
[17.655]
o ɳ ɳ aː n t̪ eː t̪ i s uː ʈ ʈ iː ŋ k aː 
[18.925]
<no-speech> 
[20.865]
e n n a n a m m a s a ʋ a n p a s u k eː k k u r aː l aː m eː <int> 
[24.645]
<no-speech> 
[25.985]
a ʋ a h a s p a ɳ ʈ eː s a ʋ a n p a s m eː l a 
[27.895]
<no-speech> 
[29.655]
s a ʋ a n p a s u n a m m a ʈ ʈ a i l l eː l a 
[31.115]
<no-speech> 
[33.775]
aː m aː aː m aː a t̪ aː n s o n n aː p l a ʋ eː ɳ u m s o n n aː p l a 
[36.065]
<no-speech> 
[37.755]
i n t̪ a m aː t̪ i ɾ i s a ʋ a n p a s u t̪ aː n k eː k k a r aː ŋ k a n ʈ ʈ u 
[39.595]
<no-speech> 
[41.595]
s a ɾ i oː k eː j a t̪ a p aː p p oː m n u <no-speech> e ŋ k a i ɾ u k k a i p p a 
[45.275]
<no-speech> 
[48.495]
t̪ aː ɳ ʈ i j aː 
[50.335]
<no-speech> 
[52.195]
s a ɾ i s a ɾ i s a ɾ i s a ɾ i 
[53.355]
<no-speech> 
[59.745]
ʋ eː r a 
[60.305]
<no-speech> 
[63.485]
a t̪ aː n o ɳ ɳ u m p u ɾ i j a l a e n n a ɾ aː ʤ eː ʃ u j e ʈ u t̪ t̪ aː ɾ u 
[65.635]
<no-speech> 
[67.965]
ɾ aː ʤ eː ʃ ʧ u k u ɳ aː ʈ ʈ a t̪ aː n t̪ a m p i 
[69.865]
<no-speech> 
[73.215]
aː n 
[73.715]
<no-speech> 
[76.105]
h iː ɾ oː j i n u k k u <hes> eː m m aː i n t̪ a s iː ʈ ʈ u <no-speech> t̪ a n i t̪ a n i s iː ʈ ʈ u k u ʈ u k k a ʋ eː ɳ ʈ i j a t̪ aː n a <int> 
[79.935]
<no-speech> 
[83.535]
aː n 
[84.195]
<no-speech> 
[86.735]
h iː ɾ oː ʋ u k k aː 
[87.545]
<no-speech> 
[89.535]
e n t̪ a h iː ɾ oː ʋ u k k u 
[90.555]
<no-speech> 
[94.275]
s i ʋ aː ɾ e ɳ ʈ u t̪ aː n oː ʈ r aː n aː i p p oː m 
[95.825]
<no-speech> 
[97.535]
s a ɾ i s a ɾ i 
[98.455]
<no-speech> 
[101.935]
aː n 
[102.535]
<no-speech> 
[109.615]
s a ɾ i 
[110.355]
<no-speech> 
[113.155]
aː n 
[113.745]
<no-speech> 
[115.785]
a t̪ u k a ɾ e k ʈ u aː n 
[117.055]
<no-speech> 
[118.145]
i t̪ u m ʋ a n t̪ u k a n ʈ ʈ i n i j uː ʋ aː oː ʈ r a t̪ u 
[119.475]
<no-speech> 
[122.115]
s a ɾ i 
[122.845]
<no-speech> 
[127.885]
s a ɾ i 
[128.635]
<no-speech> 
[133.155]
oː k eː j 
[133.985]
<no-speech> 
[139.795]
aː m aː 
[140.575]
<no-speech> 
[142.425]
u m u m 
[143.165]
<no-speech> 
[146.165]
oː 
[146.735]
<no-speech> 
[148.755]
u m u m 
[149.175]
<no-speech> 
[150.625]
i ɾ u ʋ a t̪ t̪ i o ɳ ɳ u m o ɳ ɳ u m aː ɾ a m p i ʧ ʧ u i ɾ u ʋ a t̪ t̪ i ɾ e ɳ ʈ u m u ʈ i j a p oː k u t̪ oː 
[152.845]
<no-speech> 
[156.835]
oː ɾ e ɳ ʈ u n aː ɭ p ɾ eː k k a 
[158.325]
<no-speech> 
[160.205]
s a ɾ i s a ɾ i s a ɾ i s a ɾ i s a ɾ i 
[161.365]
<no-speech> 
[164.545]
aː n 
[165.225]
<no-speech> 
[166.665]
s a ɾ i s a ɾ i <no-speech> h iː ɾ oː j i n j aː ɾ 
[168.295]
<no-speech> 
[170.625]
<no-speech> aː n 
[171.605]
<no-speech> 
[175.025]
oː k eː j oː k eː j oː k eː j <no-speech> h iː ɾ oː o ʈ a p oː ʈ ʈ u ʋ u ʈ u ŋ k a p p aː e t̪ aː ʋ a t̪ u oː ɾ ʋ a ɳ ʈ i j a <int> 
[179.735]
<no-speech> 
[182.625]
aː h aː h u m u m u m u m 
[184.495]
<no-speech> 
[186.065]
aː m aː a ŋ k a j u m a ɲ ʧ u aː r u k k u m eː l a s ʈ aː ɾ ʈ u aː k i ʈ u t̪ aː m 
[188.315]
<no-speech> 
[190.125]
e n n a i ɾ u n t̪ aː l u m <hes> <no-speech> ʧ e ɾ i r i t̪ a ɳ ʈ a p aː ɳ i i ŋ k a oː ʈ i n aː n n a m m a au ʈ l aː m ʋ aː ɾ e ɳ ʈ u p eː ɾ u m s eː n t̪ aː oː ʈ u i l l a <int> 
[195.085]
<no-speech> 
[199.125]
aː m aː aː m aː aː m aː aː m aː 
[200.285]
<no-speech> 
[202.815]
k a ɳ ʈ i p p aː k a ɳ ʈ i p p aː e n n a k oː p i f oː n eː n k eː k k a l a u n a k k u 
[205.625]
<no-speech> 
[208.915]
k aː l eː ʤ u k eː k k a l a a ʋ a n 
[210.095]
<no-speech> 
[211.225]
aː n 
[211.735]
<no-speech> 
[213.405]
i n t̪ a p aː ɳ ʈ i ʧ ʧ eː ɾ i p oː j i ʈ u ʋ a n t̪ u i ŋ k a oː ɾ k u ʋ aː l i s u k eː ʈ ʈ eː n eː i m i ʈ i j a ʈ ʈ aː i ɾ u k k a n e ʈ u t̪ t̪ u ʋ a ɾ a n u m ʈ ʈ u 
[218.175]
<no-speech> 
[221.565]
h a m h a m n i k k aː s u m n aː n u m p oː k a m aː ʈ ʈ oː m 
[223.365]
<no-speech> 
[225.425]
u m u m 
[225.985]
<no-speech> 
[228.805]
aː n aː n aː n aː n 
[229.865]
<no-speech> 
[234.145]
aː n 
[234.805]
<no-speech> 
[238.795]
oː s a ɾ i s a ɾ i s a ɾ i s a ɾ i a p ʈ i j aː 
[241.905]
<no-speech> 
[244.925]
aː m aː 
[245.775]
<no-speech> 
[250.635]
aː n <no-speech> aː m aː n eː t̪ t̪ u m ɲ aː t̪ t̪ u k e ɻ a m a n n u s a ɾ a k k u p oː ʈ ʈ u p oː n aː ŋ k a 
[253.365]
<no-speech> 
[257.185]
aː n 
[257.875]
<no-speech> 
[261.415]
oː h oː 
[262.295]
<no-speech> 
[265.035]
aː m aː 
[265.915]
<no-speech> 
[268.585]
aː h aː n 
[269.465]
<no-speech> 
[273.345]
s a ɾ i ʃ eː ɾ 
[274.275]
<no-speech> 
[275.985]
u m u m <no-speech> u n m a ʧ ʧ aː n u k k u f oː n p a ɳ ɳ i j aː i l l ai j aː <int> 
[279.315]
<no-speech> 
[282.545]

[283.325]
<no-speech> 
[284.295]
a p p a i ɾ u k k aː i l l ai j aː u n m a ʧ ʧ i n eː n 
[285.755]
<no-speech> 
[291.225]
aː n 
[291.905]
<no-speech> 
[298.355]
aː n 
[298.965]
<no-speech> 
[303.175]
oː h oː 
[303.935]
<no-speech> 
[305.825]
<no-speech> 
[306.225]
<no-speech> 
[308.555]
aː n aː n aː n 
[309.565]
<no-speech> 
[312.155]
i n t̪ a p a ʈ a m e t̪ u k k u u n k uː ʈ a p aː k r aː ɾ u 
[313.755]
<no-speech> 
[315.735]
<no-speech> i n t̪ a p a ʈ a m t̪ aː n p aː k r aː ɾ u 
[317.755]
<no-speech> 
[319.795]
s a ɾ i s a ɾ i ʃ eː ɾ 
[320.585]
<no-speech> 
[323.205]
p a ɾ a ʋ a l a p a ɾ a ʋ aː l l a ʋ i ʈ u n a m a k k u t̪ o l l a i l l aː m a i ɾ u k k u m ʋ i ʈ u m 
[325.685]
<no-speech> 
[328.685]
aː n 
[329.345]
<no-speech> 
[336.755]
aː n aː n aː n 
[337.715]
<no-speech> 
[342.325]
e p ʈ i a ʋ a n e p ʈ i ʋ eː l a s e j j a m u ʈ i j u m i ŋ k a a ŋ k i ɾ u n t̪ u ʋ eː l a s e j j a ʋ a ɾ aː ɾ aː t̪ a m i ɻ p eː ʧ a 
[345.705]
<no-speech> 
[347.135]
<no-speech> 
[347.495]
<no-speech> 
[349.665]
aː n aː n aː n aː n 
[350.785]
<no-speech> 
[355.885]
aː m aː aː m aː aː m aː aː m aː aː m aː aː m aː 
[357.715]
<no-speech> 
[361.825]
aː n 
[362.525]
<no-speech> 
[365.435]
s a ɾ i s a ɾ i s a ɾ i s a ɾ i 
[366.665]
<no-speech> 
[372.275]
h a m h a m 
[372.845]
<no-speech> 
[374.615]
oː k a m p a n i l a p a t̪ t̪ ai ʋ a ʧ ʧ u ɾ u k k a n u m n u p aː t̪ ɾ u k k aː ŋ k a ɾ e ɳ ʈ u p eː ɾ u m 
[377.015]
<no-speech> 
[378.325]
<no-speech> 
[378.745]
<no-speech> 
[383.405]
aː n 
[384.005]
<no-speech> 
[388.355]
aː n aː n aː n aː n 
[389.435]
<no-speech> 
[394.815]
aː n 
[395.305]
<no-speech> 
[397.875]
aː n 
[398.515]
<no-speech> 
[404.995]
aː n 
[405.595]
<no-speech> 
[409.445]
aː n 
[410.055]
<no-speech> 
[412.565]
h a m h a m 
[413.295]
<no-speech> 
[418.695]
e ŋ k a 
[419.435]
<no-speech> 
[422.145]
aː m aː 
[422.945]
<no-speech> 
[427.335]
aː n 
[427.985]
<no-speech> 
[431.095]
aː n 
[431.745]
<no-speech> 
[435.725]
aː n 
[436.365]
<no-speech> 
[439.475]
aː n 
[440.155]
<no-speech> 
[442.735]
s uː ʈ ʈ iː ŋ k aː 
[443.795]
<no-speech> 
[446.275]
aː n aː n 
[447.675]
<no-speech> 
[450.545]
aː n 
[451.135]
<no-speech> 
[458.975]
u m u m 
[459.555]
<no-speech> 
[465.755]
<hes> <no-speech> ɾ e k k a m a ɳ ʈ n u p a ɳ ɳ a m aː ʈ ʈ a t̪ o l l ai m aː ʈ ʈ a t̪ o l l ai m aː ʈ ʈ a <int> aː n 
[470.365]
<no-speech> 
[471.705]
aː n aː n aː n 
[472.625]
<no-speech> 
[474.925]
aː n 
[475.505]
<no-speech> 
[478.215]
aː n 
[478.835]
<no-speech> 
[483.675]
aː n aː n aː n aː n 
[484.705]
<no-speech> 
[489.275]
<no-speech> 
[489.705]
<no-speech> 
[494.145]
aː n 
[494.745]
<no-speech> 
[498.815]
<no-speech> 
[499.185]
<no-speech> 
[502.595]
aː m aː 
[503.595]
<no-speech> 
[505.995]
<no-speech> aː n 
[507.045]
<no-speech> 
[508.655]
<int> aː n 
[510.485]
<no-speech> 
[513.285]
aː m aː 
[513.975]
<no-speech> 
[514.920]
