[0.000]
<no-speech> 
[0.385]
<no-speech> i ɾ u ʈ aː ʋ a ɾ u n ʈ aː <no-speech> ʋ a ɾ u t̪ aː <no-speech> a t̪ a p aː ɾ u n iː k eː ʈ ʈ u n eː i ɾ u 
[6.015]
<no-speech> 
[7.625]

[9.195]
<no-speech> 
[10.365]
<no-speech> ai <foreign> s iː <foreign> <foreign> 
[13.225]
<no-speech> 
[14.655]
<no-speech> t̪ e n t̪ a m <foreign> 
[15.845]
<no-speech> 
[16.855]
<no-speech> t̪ i s u <foreign> eː n ʈ ai h aː ɾ ʈ u 
[20.135]
<no-speech> 
[21.495]
<no-speech> <foreign> <foreign> <foreign> ʋ aː s u <no-speech> <foreign> <foreign> <foreign> l ai k u <foreign> o n <foreign> ʋ iː <foreign> <no-speech> p a ʈ u <foreign> aː ɾ <foreign> <foreign> <foreign> n aː ʈ u 
[33.265]
<no-speech> <foreign> e n i m oː ɾ 
[35.855]
<no-speech> 
[36.725]

[38.955]
<no-speech> 
[40.185]
<no-speech> <foreign> p eː k k a p u <foreign> <foreign> a ʋ a ɾ <foreign> t̪ i s u <foreign> aː f u ʈ e ʋ a l a p m e ɳ ʈ u aː f u <foreign> aː f u s oː s i j a l s a ɾ ʋ iː s u aː f u f ai n aː h a n t̪ a 
[52.035]
<no-speech> 
[53.045]
<no-speech> 
[54.415]
<no-speech> aː h 
[56.125]
<no-speech> 
[56.965]
<sta> <foreign> n a m m a p eː ʧ a l a k aː n ʋ e ɾ s eː ʃ a n n aː n aː n n iː j u m n aː n u m p eː ʧ u r a t̪ u <no-speech> <foreign> aː f u a n t̪ a m aː ɾ i i ŋ k i l iː ʃ l a n aː m a eː n p eː ʧ a m u ʈ i l l a n aː n a m m a ɭ oː ʈ a s e l f u <foreign> a t̪ aː ʋ a t̪ u n aː eː n e t̪ i ɾ o l i 
[68.745]
a t̪ u ʋ a n t̪ u o ɾ u k a l i m aː ɾ i j aː m <no-speech> a n t̪ a k a l l a n a m m a t̪ a k a ɾ t̪ t̪ u e r i j a l a n aː e t̪ u m aː j i ʈ u m aː m 
[74.825]
<no-speech> 
[75.705]
<no-speech> 
[76.155]
<no-speech> 
[77.325]
<no-speech> aː h i p p oː m p a s i l a m a ʈ ʈ u m p eː s aː t̪ a i n n o ɾ n aː ɭ n iː p eː s a l aː m <no-speech> <no-speech> a p ʈ i j aː aː h aː h 
[88.665]
<no-speech> i ɳ ʈ i j a n ʈ i ɾ aː m aː <no-speech> t̪ aː ɾ u m aː r aː i ɾ u k k u t̪ u p p aː i ɳ ʈ i j a n s ʈ eː ʤ u aː f u <foreign> <foreign> f ai ʋ t̪ a m p i ɾ aː ʈ ʋ eː <foreign> <no-speech> <foreign> aː f u <foreign> <foreign> au ʈ u ʋ aː j m i j uː s i k k a l <foreign> s a j i n s u ʈ i ɾ aː m aː 
[100.565]
<no-speech> s a s a ɾ oː ʋ ɳ ʈ i ŋ u h oː l ʈ i ŋ u s eː m p u ɾ a s eː ʤ u 
[103.085]
<no-speech> 
[104.745]
<no-speech> <foreign> ʈ i p s u 
[106.125]
<no-speech> 
[106.985]
<sta> i n t̪ a s ʈ iː ɾ iː ʈ u <foreign> k uː ʈ a u n eː ɾ i j aː <no-speech> eː j e n a k k uː ʈ a t̪ aː n p oː ɾ a ʈ i k k u t̪ u ʋ e r u p p aː l l a p eː ʧ a l a n aː n u m m a j i ɾ u <no-speech> p eː s i ʈ ʈ u ʋ ai ŋ k a ʈ aː p i ɭ iː s ʈ aː <no-speech> e n ʈ a ɾ ʈ e j i n m e n ʈ u <foreign> t̪ a m <foreign> f eː m i l i 
[118.775]
<no-speech> 
[120.055]
<no-speech> 
[121.455]
<no-speech> aː h j aː ɾ <no-speech> n a m m a f a ɾ s ʈ u i j a ɾ p a ʈ i k k u m p oː t̪ u f ai n a l i j a ɾ <no-speech> ʋ a ɾ u ɳ s aː k a ɾ oː e n n a m oː p eː ɾ a ʋ a n p eː ɾ 
[132.375]
<no-speech> e l eː j a ʋ a n p i ɭ eː s ʈ aː i ŋ k a j eː ʋ iː s i k s n u n e n a k k i r eː n 
[135.255]
<no-speech> 
[136.365]
<no-speech> n a n t̪ aː p a k k a t̪ t̪ u l a i ŋ k a t̪ aː n i ɾ u p p aː n i ŋ k a ɾ uː m l a t̪ aː n i ɾ u p p aː n n u n e n a k k i r eː n 
[140.545]
<no-speech> 
[142.165]
<no-speech> 
[143.985]
i l l a <breath> 
[145.105]
<no-speech> e n n a m a ʧ ʧ aː n p eː ʧ u r a t̪ u <laugh> k aː ɳ ʈ aː i ɾ u k k u t̪ u ʈ aː e n a k k u 
[147.665]
<no-speech> 
[150.455]
<no-speech> i t̪ t̪ oː ʈ a n aː n e t̪ t̪ a n a k aː l t̪ e ɾ i m aː p eː s i ɾ u k k eː n i n t̪ a m aː t̪ i ɾ i k aː l eː l a ɾ u n t̪ eː a ɲ ʧ u k aː l p eː s i ʈ ʈ eː n 
[154.805]
<no-speech> 
[155.935]
<no-speech> 
[156.345]
<no-speech> 
[157.815]
<no-speech> u n a k k u e n n a ʋ aː m <no-speech> 
[160.165]
<no-speech> 
[162.835]
<no-speech> 
[163.635]
<no-speech> 
[165.835]
<no-speech> m a ʧ ʧ aː n ʋ e r u p p eː t̪ t̪ aː t̪ a ʈ aː 
[170.175]
<no-speech> 
[171.375]
ai j oː 
[172.185]
<no-speech> 
[174.735]
<no-speech> aː m aː p i n n a ʋ eː l ai j a m u ʈ i k k a ɳ u m n iː j e l l aː m h e l p u p a ɳ ɳ aː t̪ aː n u ɳ ʈ u i n t̪ a m aː t̪ i ɾ i k o ɲ ʧ a m k a ʃ ʈ a p p a ʈ a n u m 
[179.175]
<no-speech> 
[180.415]
<no-speech> 
[180.995]
<no-speech> 
[183.495]
<no-speech> ʧ e ɾ i r i p a ɾ a ʋ aː l l a ʋ u ʈ u eː t̪ oː o n n u p a ɳ ɳ a ʈ ʈ u m ʧ e ɾ i r i m a ʧ ʧ aː n n iː i p p a s i t̪ t̪ i k k u <no-speech> n aː n i p p a k eː k k u r a k eː ɭ ʋ i k k u p a t̪ i l s o l l i j eː aː k a ɳ u m 
[189.575]
<no-speech> 
[191.285]
<no-speech> e n n a ʈ aː 
[192.305]
<no-speech> 
[193.635]
<no-speech> ʃ i p l a eː r i ʈ ʈ i j aː m a ʧ ʧ aː n 
[195.595]
<no-speech> 
[196.745]
<no-speech> 
[197.115]
<no-speech> 
[197.995]
<no-speech> p u ɾ i j a l a <no-speech> eː j s iː ɾ i j a s aː k eː k k u r eː n ʈ aː 
[202.195]
<no-speech> 
[203.885]
<no-speech> eː n <no-speech> 
[205.445]
<no-speech> 
[206.275]
<no-speech> ʧ e ɾ i r i <no-speech> a p p a k aː ʧ u i l l a m aː ʧ e ɾ i r i ʋ eː r a e ŋ k a j aː ʋ a t̪ u ʋ eː l a p aː p p i j aː 
[209.845]
<no-speech> 
[210.785]
<no-speech> ʋ eː r a e ŋ k a p a ɳ ʈ ɾ ai p a ɳ r a 
[212.285]
<no-speech> 
[213.995]
<no-speech> s e ɾ i ɾ aː <no-speech> e n n a k a m p e n i e n n a e n n a ʋ eː l a 
[219.185]
<no-speech> 
[220.665]
<no-speech> aː h <no-speech> aː h 
[222.755]
<no-speech> 
[225.115]
a ŋ k a e n n a ʈ aː ʋ eː l a n a m m a ɭ u k k u <no-speech> <oov> <no-speech> eː j a t̪ u k k u p a t̪ i l aː e t̪ aː ʋ a t̪ u k a m p e n i l a ʋ eː l a p oː j i ɾ u k k a l aː m l a <no-speech> m e k k aː n i k k a l k a m p e n i l a 
[232.195]
<no-speech> 
[233.025]
<no-speech> 
[233.375]
<no-speech> 
[234.235]
<no-speech> e n n a m aː ʈ i k aː l eː ʤ l a j aː ɾ aː ʋ a t̪ u <no-speech> j aː ɾ aː j aː ʋ a t̪ u p u ʈ i ʧ ʧ u e p ʈ i j aː ʋ a t̪ u oː ɾ ʋ eː l a ʋ aː ŋ k u n aː oː ɾ p a t̪ a n e ɲ ʧ aː j i ɾ a m i ɾ u ʋ a t̪ aː j i ɾ a t̪ t̪ u k k u s a m p a ɭ a m ʋ a ɾ a ɳ u m 
[239.645]
<no-speech> 
[240.495]
<no-speech> f iː s aː n aː l u m e l a k ʈ ɾ i k u p a ɳ ɳ a l aː m n u <no-speech> e n n a t̪ u <no-speech> aː m aː p i n n a e l l aː ɾ ʋ iː ʈ l a j u m a p p aː t̪ aː n h e l p u p a ɳ ɳ i j aː k a ɳ u m n a m m a ɭ aː l a l aː m o ɳ ɳ u m p a ɳ ɳ a m u ʈ i j aː t̪ u n iː oː n f ɾ a ɳ ʈ u k i ʈ ʈ a s o l l i <click> e t̪ aː ʋ a t̪ u m e k k aː n i k k a l k a m p e n i l a j aː ɾ aː ʋ a t̪ u a ɳ ɳ eː t̪ a m p i j aː ɾ aː ʋ a t̪ u ʋ eː l a s e j ʋ aː ŋ k a l l a 
[252.435]
<no-speech> aː h 
[252.875]
<no-speech> 
[255.655]

[256.095]
<no-speech> 
[256.560]
