[0.000]
<no-speech> 
[0.465]
<no-speech> a p p aː n aː n a m u k k a n u m aː n iː a m u k k i p p i j aː <no-speech> a p p u 
[9.995]
<no-speech> 
[11.685]
<sta> n aː n s e l ʋ i p eː ʧ u r eː n p p aː k eː k k u t̪ aː <no-speech> ʧ e ɾ i r i ʧ aː p ʈ i j aː 
[17.385]
<no-speech> 
[18.375]
<no-speech> e n n a s aː p ʈ a 
[19.965]
<no-speech> 
[22.125]
aː h <int> 
[22.645]
<no-speech> 
[23.905]
k aː l ai l a e n n a s aː p ʈ a <int> 
[25.345]
<no-speech> 
[27.445]
u m u m <int> 
[27.955]
<no-speech> 
[29.155]
ʧ e ɾ i r i n eː t̪ t̪ u f u l l aː e p ʈ i p oː ʧ ʧ u <int> 
[30.875]
<no-speech> 
[32.405]
<no-speech> e p ʈ i j oː p oː ʧ ʧ u e ŋ k a a n t̪ a s i n i m aː t̪ i j eː ʈ ʈ a ɾ l a i ɾ u n t̪ i j aː 
[36.925]
<no-speech> 
[39.605]
<no-speech> aː h ʋ eː l a ʋ e ʈ ʈ i l aː m ʋ eː l ai j a p aː t̪ t̪ i j aː n eː t̪ t̪ u m 
[44.365]
<no-speech> 
[45.695]
<no-speech> ʋ eː ɭ a p aː t̪ t̪ u k k i ʈ ʈ u t̪ aː n i ɾ u k k i j aː i n n a k k u m ʋ eː l ai j aː <no-speech> ʧ e ɾ i r i u ŋ k a a m m aː e n n a ʧ e j r aː ŋ k a <no-speech> 
[53.845]
<no-speech> 
[55.205]
<lipsmack> n aː n u m a ɻ a k a p a t̪ t̪ i k eː k k a l a a p p u <no-speech> u ŋ k a a m m aː i p p a e n n a ʧ e j r aː ŋ k a n n u t̪ aː n k eː ʈ ʈ eː n <no-speech> e n n a t̪ u 
[66.395]
<no-speech> 
[68.705]
<no-speech> n a l l aː ɾ u k k aː ŋ k a ɭ aː ʧ e ɾ i r i oː ɾ n aː ɭ ai k k u k uː p ʈ ʈ u ʋ a ɾ a ʋ eː ɳ ʈ i j a t̪ aː n 
[74.425]
<no-speech> 
[75.315]
<no-speech> e p p a m 
[77.195]
<no-speech> 
[79.245]
u m u m <sta> ʧ e ɾ i r i u n k uː ʈ a p o r a n t̪ a ʋ a ŋ k a e t̪ t̪ a n a p eː ɾ a p p a <no-speech> 
[84.645]
<no-speech> 
[85.595]
<no-speech> 
[88.755]
<no-speech> 
[90.495]
<sta> aː h 
[91.435]
<no-speech> 
[93.275]
<sta> m uː n u p eː ɾ t̪ aː n i ɾ u k k iː ŋ k a ɭ aː ʧ e ɾ i r i n iː m uː t̪ t̪ a ʋ a n aː <no-speech> 
[99.375]
<no-speech> 
[101.745]
<sta> aː h <no-speech> aː h ʧ e ɾ i r i n iː n iː m uː t̪ t̪ a ʋ a n aː i ɭ ai j a ʋ a n aː <no-speech> 
[113.565]
<sta> a p p aː n iː m u t̪ a p o r a n t̪ a p ai j a n aː ɾ e ɳ ʈ aː ʋ a t̪ u p o r a n t̪ a p ai j a n aː m uː ɳ aː ʋ a t̪ u p o r a n t̪ a p ai j a n aː <no-speech> 
[118.945]
<no-speech> 
[122.105]
<int> h a l l a l l oː u ŋ k a a ɳ ɳ eː l aː m t̪ a m p i l aː m n iː t̪ aː n f a s ʈ ʈ aː u ŋ k a ʋ iː ʈ l a <breath> 
[126.785]
<no-speech> 
[128.995]
<sta> oː k eː j ʧ e ɾ i r i a p p a m a t̪ t̪ a ɾ e ɳ ʈ u p eː ɾ l aː m u n a k k u k iː ɻ a t̪ aː n <breath> 
[133.365]
<no-speech> 
[134.215]
<no-speech> ʧ e ɾ i r i u ŋ k a a p p aː e p ʈ i i ɾ u k k aː u ŋ k a a p p aː e n n a ʋ eː ɭ a p aː k k u r aː ŋ k a <no-speech> 
[141.645]
<no-speech> 
[143.185]
u m u m <int> 
[143.905]
<no-speech> 
[145.985]
<sta> u m u m <no-speech> ʧ e ɾ i r i ʧ e ɾ i r i n iː u ŋ k a a p p aː a m m aː l aː m n a l l aː p aː t̪ t̪ u k k u r i j aː 
[150.855]
<no-speech> 
[153.815]
<no-speech> u m u m <no-speech> 
[155.755]
<no-speech> 
[156.615]
<no-speech> ʧ e ɾ i r i u n a k k u e t̪ t̪ a n a p i ɭ ɭ ai k a ɭ 
[159.915]
<no-speech> 
[162.075]
<no-speech> p o ɳ ɳ u e n n a p a ʈ i k k i r aː 
[164.455]
<no-speech> 
[166.965]
<no-speech> 
[167.655]
<no-speech> 
[169.455]
<no-speech> ʧ e ɾ i r i u ŋ k a l ai f l a <click> p i n n aː ʈ i e n n a ʋ a ɾ a ɳ u m n e n ai k k i r a <no-speech> p i n n aː ʈ i i n n aː ʋ aː e p ʈ i <click> aː k a ɳ u m n e n ai k k i r a 
[178.555]
<no-speech> 
[180.555]
<no-speech> aː h 
[181.615]
<no-speech> 
[183.445]
<no-speech> eː n i n t̪ a l ai ʈ l a e t̪ aː ʋ a t̪ u p aː t̪ i p p u ʋ a n t̪ u ɾ u ʧ ʧ aː m <no-speech> 
[189.875]
<no-speech> 
[191.785]
u m u m 
[192.315]
<no-speech> 
[193.475]
<int> u m u m 
[193.975]
<no-speech> 
[197.815]
<no-speech> ʧ e ɾ i r i u ŋ k a t̪ a m p i k a ɾ e ɳ ʈ u p eː ɾ n a l l aː ʋ eː l ai k k u p oː r aː ŋ k a ɭ aː 
[201.085]
<no-speech> 
[202.955]
<no-speech> k a ɾ e k ʈ aː p oː r aː ŋ k a ɭ aː ʧ e ɾ i r i u ŋ k a t̪ a m p i k k u e t̪ t̪ a n a p i ɭ ɭ ai ŋ k a <no-speech> 
[208.435]
<no-speech> 
[212.695]
oː <sta> a p ʈ i j aː <no-speech> ʧ e ɾ i r i u ŋ k a ʋ iː ʈ l a u ŋ k a a p p aː k uː ʈ a p o r a n t̪ a t̪ a ŋ k a ʧ ʧ i m aː ɾ u ŋ k a e l l aː m n a l l aː ɾ u k k aː ŋ k a ɭ aː 
[221.515]
<no-speech> 
[222.435]
<no-speech> 
[222.805]
<no-speech> 
[224.565]
ʧ e ɾ i r i au ŋ k a ɭ u k k u l aː m e t̪ t̪ a n a p i ɭ ɭ ai ŋ k a <int> 
[226.335]
<no-speech> 
[232.425]
ʧ e ɾ i r i <breath> u ŋ k a a p p aː k k u u ʈ a m p u n a l l aː ɾ u k k aː i p p oː m <no-speech> 
[236.595]
<no-speech> 
[237.825]
<sta> ʧ e ɾ i r i n iː ŋ k a h i n t̪ u ʋ aː m u s l iː m aː <no-speech> 
[241.105]
<no-speech> 
[242.845]
u m u m 
[243.455]
<no-speech> 
[244.725]
<no-speech> h a l oː 
[245.815]
<no-speech> 
[248.625]
i n t̪ i j a n aː ʧ e ɾ i r i ʧ e ɾ i r i <breath> a p ʈ i i l l a e n t̪ a m a t̪ a t̪ t̪ a s aː ɾ n t̪ a ʋ a ŋ k a n u k eː ʈ ʈ eː n <breath> 
[253.025]
<no-speech> 
[255.165]
<no-speech> 
[255.885]
<no-speech> 
[256.975]
<sta> ʧ e ɾ i r i m u s l iː m l a e t̪ t̪ a n a t̪ a ʈ a ʋ a t̪ o ɻ u ʋ u ʋ iː ŋ k a <no-speech> n iː ŋ k a i p p a ʋ eː ɭ a s e j j u m p oː t̪ u e n n a e p ʈ i t̪ o ɻ u ʋ iː ŋ k a 
[265.595]
<no-speech> 
[268.925]
<sta> u m u m 
[269.525]
<no-speech> 
[272.315]
<no-speech> aː n aː i p p oː m <no-speech> aː n aː i p p oː m m u s l iː m l a l aː m 
[278.415]
<no-speech> 
[279.585]
<sta> aː h aː h aː h ʤ e n ʈ s u m a ʈ ʈ u m t̪ aː n au ŋ k a i t̪ u k k u p oː ʋ aː ŋ k a ɭ aː 
[283.435]
<no-speech> 
[285.025]
<no-speech> 
[285.445]
<no-speech> 
[286.375]
<sta> u m u m 
[286.885]
<no-speech> 
[287.935]
<sta> l eː ʈ iː s l aː m a n u m a t̪ i k e ʈ ai j aː t̪ aː <no-speech> eː n <no-speech> 
[295.205]
<no-speech> 
[298.065]
oː l eː ʈ i s u eː n au ŋ k a <sta> i t̪ u m a s uː t̪ i k k u ɭ ɭ a j eː p oː m aː ʈ ʈ aː ŋ k a ɭ aː m 
[301.895]
<no-speech> 
[303.155]
<no-speech> 
[303.645]
<no-speech> 
[305.425]
<no-speech> oː m a s uː t̪ i i ɾ u k k u aː n aː 
[307.535]
<no-speech> 
[310.295]
u m u m <int> 
[310.885]
<no-speech> 
[313.585]
oː <sta> ʧ e ɾ i r i ʧ e ɾ i r i ʧ e ɾ i r i ʧ e ɾ i r i 
[315.525]
<no-speech> 
[316.415]
ʧ e ɾ i r i u ŋ k a i t̪ u l a k a l j aː ɳ a m l aː m p a ɳ ɳ i k k u m p oː t̪ u <sta> <hes> i p p a m aː e p ʈ i h i n t̪ u k k a ɭ m aː r i n a ʈ a k k u m aː ʋ eː r a m aː ʈ i n a ʈ a k k u m aː 
[325.275]
<no-speech> 
[327.765]
<int> a t̪ aː n e p ʈ i n a ʈ a k k u m <click> i n t̪ a k u t̪ i ɾ ai eː t̪ t̪ i ʈ ʈ u p oː ʋ aː ŋ k a ɭ eː a p ʈ i j aː 
[331.465]
<no-speech> 
[333.285]
<int> aː h 
[333.885]
<no-speech> 
[340.985]
<sta> u m u m aː n aː o ɾ u t̪ t̪ a ɾ a o ɾ u t̪ t̪ a ɾ a p aː k k a m aː ʈ ʈ aː ŋ k a ɭ aː m 
[343.845]
<no-speech> 
[350.415]
<sta> u m u m 
[350.985]
<no-speech> 
[353.975]
u m u m <int> 
[354.515]
<no-speech> 
[356.815]
a p p oː n iː ŋ k a m o t̪ a l l a l aː m p o ɳ ɳ a l l aː m p oː j p aː k k a m aː ʈ ʈ i ŋ k a ɭ aː 
[360.285]
<no-speech> 
[362.285]
<int> au ŋ k a p aː k k a l a n iː ŋ k a m aː p ɭ a p aː k k a k uː ʈ a p aː k k a m aː ʈ ʈ i ŋ k a ɭ aː 
[366.095]
<no-speech> 
[367.765]
f oː ʈ ʈ aː ʋ a t̪ aː n p aː p p i ŋ k a ɭ aː <no-speech> 
[370.325]
<no-speech> 
[376.075]
<no-speech> ʋ eː ɳ aː m n u t̪ aː n s o l ʋ iː ŋ k a ɭ aː a p ʈ i p aː k k a ɳ u m aː s ai p p a ʈ ʈ a ʋ a ŋ k a 
[380.525]
<no-speech> 
[383.875]
oː <sta> a t̪ aː n k eː ʈ ʈ eː n n aː n u m au ŋ k a o ɾ u t̪ t̪ a ʋ a ŋ k a m uː ɲ ʧ i j a m uː ɲ ʧ i j a m a r ai ʧ ʧ u k k u ʋ aː ŋ k a ɭ eː a p ʈ i j aː n u k eː ʈ ʈ eː n 
[390.695]
<no-speech> 
[399.380]
<no-speech> 
[408.065]
<int> u m u m 
[408.665]
<no-speech> 
[409.865]
<int> u m u m u m u m 
[411.615]
<no-speech> 
[413.105]

[413.625]
<no-speech> 
[417.785]
<no-speech> 
[418.195]
<no-speech> 
[419.765]
aː h n iː ŋ k a o ʋ ʋ o ɾ u t̪ t̪ a n a p aː k k a m aː ʈ ʈ iː ŋ k a l l a <no-speech> h a l oː <no-speech> 
[427.615]
<sta> a p p a r a m e p p a j oː t̪ aː n i t̪ u m p a ɳ ɳ u ʋ aː ŋ k a eː t̪ oː oː ɾ m u s l iː m k a l j aː ɳ a m p aː t̪ t̪ u ɾ u k k eː n a t̪ aː n k eː k k u r eː n n aː n u m <no-speech> ʧ e ɾ i r i u ŋ k a ɭ t̪ u l a ʧ aː p p aː ʈ u l aː m e p ʈ i 
[437.365]
<no-speech> 
[439.505]
<int> a t̪ aː n a n t̪ a m a t̪ t̪ i j aː n a m t̪ aː n u ŋ k a ɭ u k k u k a l j aː ɳ a m ʋ e p p aː ŋ k a k aː l ai l a 
[442.745]
<no-speech> 
[445.925]
<int> u m u m 
[446.435]
<no-speech> 
[451.935]
oː ʧ e ɾ i r i ʧ e ɾ i r i <no-speech> ʧ e ɾ i r i a n t̪ a t̪ a l ai m u ɻ u k k u l aː m s o l ʋ aː ŋ k a ɭ eː e ŋ k a h i n t̪ u l a u ŋ k a ɭ t̪ u l a a p ʈ i l aː m i ɾ u k k aː <no-speech> 
[461.585]
<sta> i n t̪ a e ŋ k a ɭ t̪ u l a m uː ɳ aː ʋ a t̪ u n aː ɭ k a r i ʧ aː p p aː ʈ u a p ʈ i l aː m p eː s u ʋ aː ŋ k a <no-speech> u ŋ k a t̪ u l a a n t̪ a k a l j aː ɳ a m s aː p p aː ʈ u m m a ʈ ʈ u m aː 
[468.005]
<no-speech> 
[470.105]
u m u m <int> 
[470.535]
<no-speech> 
[472.055]
<int> u m u m 
[472.515]
<no-speech> 
[474.025]
m aː p ɭ a ʋ iː ʈ ʈ u k k aː ɾ a ŋ k a ɭ aː 
[475.495]
<no-speech> 
[478.095]
ʧ e ɾ i r i ʧ e ɾ i r i ʧ e ɾ i r i i p p a n aː ɭ ai k k u e n n a e ŋ k a p oː l aː n n u p ɭ aː n p a ɳ ɳ i ɾ u k k iː ŋ k a <sta> 
[482.405]
<no-speech> 
[486.725]
u m u m <int> 
[487.165]
<no-speech> 
[488.095]
<no-speech> ʧ e ɾ i r i p a m m a l p oː ɳ u m n u ʧ o n n a n eː a t̪ u e p p a p oː p oː r iː ŋ k a <no-speech> 
[496.685]
<no-speech> 
[497.625]
e p p a m <int> 
[498.375]
<no-speech> 
[500.745]
ʋ i j aː ɻ a k k e ɻ a m a j aː <int> 
[502.365]
<no-speech> 
[504.485]
ʋ i j aː ɻ a k k i ɻ a m a k aː l ai l a p oː m u ʈ i j u m aː 
[507.625]
<no-speech> 
[512.215]
eː n ʧ a n i k k e ɻ a m a <no-speech> 
[515.225]
<no-speech> 
[516.925]
<sta> ʧ a n i k k i ɻ a m a p oː n aː e n n a <no-speech> 
[518.775]
<no-speech> 
[520.575]
i p p a a n t̪ a <sta> p a m m a l n r a t̪ u p a l l aː ʋ a ɾ a t̪ t̪ u k k u p a k k a t̪ t̪ u l a j eː ʋ aː <breath> p a l l aː ʋ a ɾ a t̪ t̪ u l a t̪ aː ɳ ʈ i ʋ eː r a p a s u p i ʈ i ʧ ʧ u p oː ɳ u m aː 
[526.685]
<no-speech> 
[527.625]
<no-speech> 
[529.415]
<no-speech> 
[532.045]
<sta> a p ʈ i j aː <no-speech> 
[534.235]
<no-speech> 
[535.435]
<sta> i ŋ k a i ɾ u n t̪ u u n a k k u ʈ ɾ e j i n i ŋ u i ɾ u k k u l l a <no-speech> 
[538.515]
<no-speech> 
[540.925]
<no-speech> 
[541.295]
<no-speech> 
[543.895]
<sta> oː a p ʈ i j aː 
[545.445]
<no-speech> 
[546.715]
<sta> a p p a p a l l aː ʋ a ɾ a t̪ t̪ u l a i ɾ u n t̪ u m oː ɾ p a t̪ t̪ u n i m i ʃ a m p oː k u m aː 
[549.175]
<no-speech> 
[552.185]
<no-speech> 
[552.875]
<no-speech> 
[556.385]
<sta> u m u m <no-speech> 
[558.145]
<no-speech> 
[564.395]
<no-speech> 
[565.465]
<no-speech> 
[569.755]
aː h 
[570.375]
<no-speech> 
[573.715]
<sta> aː h <no-speech> 
[575.045]
<no-speech> 
[577.955]
<no-speech> 
[578.825]
<no-speech> 
[581.105]
u m u m 
[581.715]
<no-speech> 
[583.115]
ʧ e ɾ i r i i p p a k aː ɲ ʧ iː p u ɾ a m i n t̪ a m aː s a m p oː l aː m a ʈ u t̪ t̪ a m aː s a m p oː ʋ i j aː 
[585.805]
<no-speech> 
[590.875]
<sta> u m u m 
[591.365]
<no-speech> 
[593.845]
<no-speech> n e k s ʈ ʈ u m a n t̪ t̪ aː ʧ e ɾ i r i i p p a h ai t̪ a ɾ aː p aː t̪ u e t̪ u m f aː ŋ k a ɭ uː ɾ e t̪ u m p oː r i j aː e p ʈ i <no-speech> 
[599.635]
<no-speech> 
[599.820]
