[0.000]
<no-speech> 
[0.145]
<no-speech> 
[0.735]
<no-speech> 
[3.085]
<no-speech> 
[3.515]
<no-speech> 
[4.485]
h a l oː s e m i ʈ aː 
[5.645]
<no-speech> 
[9.565]
n aː n n a l l aː ɾ u k k eː n n iː n u e p ʈ i i ɾ u k k a <sta> 
[11.285]
<no-speech> 
[14.025]
<no-speech> 
[14.375]
<no-speech> 
[16.405]
<sta> t̪ e ɾ i j aː t̪ eː <no-speech> 
[18.585]
<no-speech> 
[20.305]
<sta> s a ɾ i 
[21.125]
<no-speech> 
[23.835]
<no-speech> 
[24.185]
<no-speech> 
[25.935]
<no-speech> 
[26.285]
<no-speech> 
[27.095]
<sta> aː h s a ɾ i <no-speech> aː h ʧ e ɾ i r i a n t̪ a a ɻ a k aː i ɾ u k k u n t̪ aː n 
[33.585]
<no-speech> 
[36.305]
<sta> a n t̪ a ʋ iː ʈ u k eː ʋ a l a m aː i ɾ u k k u m aː n aː i n t̪ a ʋ iː ʈ u a ɻ a k aː i ɾ u k k aː 
[40.055]
<no-speech> 
[47.835]
<sta> e n n a t̪ u 
[48.865]
<no-speech> 
[59.265]
<sta> aː h 
[59.935]
<no-speech> 
[61.185]
<no-speech> 
[61.585]
<no-speech> 
[63.445]
<sta> aː h i n n u m e ɻ u t̪ a ʋ eː i l l a 
[66.335]
<no-speech> 
[69.415]
<sta> eː t̪ oː p a ʈ i ʧ ʧ u ɾ u k k eː n 
[70.875]
<no-speech> 
[76.265]
<sta> aː h s uː p p a ɾ aː i ɾ u n t̪ eː n f a s ʈ u p i ɾ ai s aː n aː n n aː n k ɭ aː s l a m uː n u p eː ɾ f a s ʈ u p i ɾ ai s u f ɾ i n s i t̪ aː n l aː s ʈ u k k u m u n n aː ʈ i k k u m u n n aː ʈ i 
[84.815]
<no-speech> 
[88.065]
<sta> f i f t̪ t̪ u 
[89.025]
<no-speech> 
[98.005]
<sta> aː h f a s ʈ u p i ɾ ai s u ʋ aː ŋ k i ʈ ʈ a n eː 
[100.035]
<no-speech> 
[107.835]
<sta> n aː n t̪ eː t̪ i j a t̪ aː n k o ʈ u p p eː n 
[109.565]
<no-speech> 
[111.765]
<sta> aː h p aː k k a l aː m p aː k k a ʋ eː ɳ aː m a t̪ aː n f a s ʈ u p i ɾ ai s l aː m 
[114.665]
<no-speech> 
[118.565]
<sta> aː h 
[119.245]
<no-speech> 
[121.475]
<sta> aː h <no-speech> a ʋ a ɭ aː m n a l l aː t̪ aː n i ɾ u k k aː 
[124.075]
<no-speech> 
[125.495]
<sta> aː h 
[126.015]
<no-speech> 
[128.845]
<sta> aː h 
[129.375]
<no-speech> 
[132.945]
<sta> t̪ aː t̪ t̪ aː s aː p ʈ a ʋ eː i l l a <lipsmack> 
[136.135]
<no-speech> 
[142.605]
<no-speech> 
[142.955]
<no-speech> 
[146.785]
<sta> n iː e p ʈ i j u m s aː p ʈ a ʋ eː m aː ʈ ʈ eː n r a i n n u m n iː s aː p ʈ a l a n aː u n m uː ɲ ʧ i j eː <laugh> a p ʈ i j eː k eː ʋ a l a m aː i ɾ u k k u m a t̪ u a t̪ eː s a k i k k aː t̪ u 
[155.575]
<no-speech> 
[159.765]
<sta> p a ɻ ai j a f oː n s ʈ ɾ aː ŋ k aː i ɾ u k k u m eː 
[162.245]
<no-speech> 
[167.165]
<sta> aː m aː n aː n f oː n p eː s i ʈ ʈ u i ɾ u k k a n <breath> 
[170.005]
<no-speech> 
[172.695]
<no-speech> o k k aː n t̪ u ʈ ʈ u i ɾ u n t̪ a 
[175.655]
<no-speech> 
[182.875]
<sta> aː h n a l l aː ɾ u k k oː m n iː ŋ k a ɭ aː m e p ʈ i i k k iː ŋ k a m a m m i ʈ eː ʈ i l aː m e p ʈ i i ɾ u k k iː ŋ k a 
[186.995]
<no-speech> 
[190.335]
<sta> o n n u t̪ e ɾ i j u m aː e ŋ k a s k uː l l a ʋ a n t̪ u p u ɾ aː ʤ e k ʈ u s e j j a s o n n aː ŋ k a t̪ a m i ɻ l a p a r a ʋ ai k a ɭ p a l a ʋ i t̪ a t̪ t̪ u l a i ɾ u n t̪ u k aː k k aː k uː ʈ u k u ɾ u ʋ i k a k uː ʈ u l aː m s e j j a s o n n aː ŋ k a 
[199.695]
<no-speech> 
[201.375]
<sta> <cough> aː h s e ɲ ʧ eː n s e ɲ ʧ i ʈ ʈ u ʋ a n t̪ u m i ʃ u n aː n m aː l a t̪ i m i ʃ u a ɻ a k aː i ɾ u k k u n n u s o l ʈ ʈ u h e ʧ u e m k i ʈ ʈ a k uː ʈ ʈ i ʈ ʈ u p oː j k aː m i k k a t̪ u k k aː k a p oː n aː ŋ k a a p p u r a m p i s i j aː i ɾ u k k u n s o l ʈ ʈ oː m s o l ʈ ʈ aː ŋ k a a t̪ aː n ʋ a n t̪ u ʈ ʈ oː m ʋ a n t̪ u ʈ ʈ oː m <sta> a ʈ u t̪ t̪ u m a m m i k aː k k aː ʋ e l l aː m ʋ aː ŋ k i ʈ ʈ u ʋ a n t̪ u ʋ a ʧ ʧ u m u ʈ ʈ a l aː m p oː ʈ ʈ u ʈ i k ʈ eː k u p oː ʈ ʈ u k u ʈ u t̪ t̪ u ʈ ʈ oː m <laugh> 
[220.085]
<no-speech> 
[222.905]
<sta> a p ʈ i t̪ aː n t̪ aː n 
[223.795]
<no-speech> 
[229.855]
<no-speech> e ŋ k a t̪ a m i ɻ m i ʃ u 
[232.125]
<no-speech> 
[234.975]
<sta> aː h 
[235.335]
<no-speech> 
[241.465]
<no-speech> 
[241.825]
<no-speech> 
[243.235]
<sta> n aː n l aː m 
[244.945]
<no-speech> 
[245.775]
<no-speech> 
[246.125]
<no-speech> 
[255.125]
<sta> n aː n k uː ʈ a t̪ aː n l eː ʈ ʈ aː t̪ uː ŋ k u r eː n <breath> 
[257.995]
<no-speech> 
[261.785]
<no-speech> 
[262.135]
<no-speech> 
[265.365]
<sta> aː h 
[265.835]
<no-speech> 
[267.175]
<no-speech> 
[267.615]
<no-speech> 
[272.535]
<sta> u m u m u m u m 
[273.265]
<no-speech> 
[281.830]
<no-speech> 
[290.395]
<no-speech> 
[290.745]
<no-speech> 
[293.515]
<sta> e ŋ k a ɭ u n t̪ u ʋ a n t̪ u j oː e ŋ k a ɭ u k k u m ʋ a n t̪ u j oː e ŋ k a ɭ u k k u m ʋ a n t̪ u j oː k aː p a ɳ ɳ a s o l ʋ aː ŋ k a a t̪ u k k a p p u r a m ʋ a n t̪ u a t̪ u k k a p p u r a m <foreign> k o ʈ u p p aː ŋ k a a t̪ a p a t̪ t̪ i n a m m a p eː s a ɳ u m n aː n p oː n a ʋ aː ʈ ʈ i <sta> e ŋ k a ɭ u k k u m ʋ a n t̪ u <foreign> k u ʈ u t̪ t̪ u ʈ ʈ aː ŋ k a n aː n a p ʈ i j eː t̪ e ɾ i j aː m a f a ɾ s ʈ u oː ɾ p o ɳ ɳ u s o n n aː ŋ k a m oː n i k aː n ʈ ʈ u e n n a s o n n aː a p ʈ i j eː m u ɻ i ʧ ʧ u ʈ ʈ u n i n n u ʈ ʈ u i ɾ u n t̪ eː n t̪ e ɾ i j u m aː 
[313.405]
<no-speech> 
[315.015]
<sta> a p ʈ i t̪ aː n 
[316.315]
<no-speech> 
[327.430]
<no-speech> 
[338.545]
<no-speech> 
[339.385]
<no-speech> 
[341.335]
<no-speech> 
[342.015]
<no-speech> 
[344.605]
<sta> e ŋ k a ɭ u k k u m k u ʈ u t̪ t̪ aː ŋ k a 
[346.245]
<no-speech> 
[348.345]
<sta> e ŋ k a ɭ u k k u m p a s u ʋ a ɾ aː t̪ u aː ʈ ʈ oː ʋ u m k e ʈ ai k k aː t̪ u n aː n ɾ e ɳ ʈ u m uː n u n aː ɭ ʋ iː ʈ ʈ u k k eː ʋ a n ʈ eː n s k uː l k k u p oː k aː m a a p ʈ i t̪ aː n 
[357.295]
<no-speech> 
[358.555]
<no-speech> 
[359.085]
<no-speech> 
[360.015]
<sta> i p p a t̪ aː n a ʧ o n n a p aː t̪ t̪ i j aː 
[362.105]
<no-speech> 
[365.705]
<no-speech> 
[366.065]
<no-speech> 
[374.675]
<no-speech> 
[375.065]
<no-speech> 
[380.345]
<sta> p a s s eː ʋ a ɾ aː t̪ u aː ʈ ʈ oː ʋ u m ʋ a ɾ aː t̪ u n aː n k e ɭ a m p u r a t̪ u l eː ʈ ʈ u e ŋ k a ɭ u k k u l aː m ʤ aː l i 
[387.285]
<no-speech> 
[394.795]
<sta> u n a k k u n aː aː j aː uː ʈ ʈ i ʋ i ʈ u ʋ aː ŋ k a e n a k k u j aː ɾ uː ʈ ʈ i ʋ i ʈ u ʋ aː ʧ o l l u 
[399.115]
<no-speech> 
[403.335]
<no-speech> a t̪ t̪ ai j aː 
[405.195]
<no-speech> 
[407.195]
f ɾ i j aː e ŋ k a m a m m i i ɾ u k k aː ŋ k a 
[409.305]
<no-speech> 
[414.095]
<sta> ai j j ai j oː <laugh> 
[416.735]
<no-speech> 
[418.205]
<no-speech> 
[418.955]
<no-speech> 
[420.895]
<no-speech> s a ɾ i i p p a e n n a p a ɳ ʈ ʈ u i ɾ u k k a 
[424.035]
<no-speech> 
[425.635]
i p p a e n n a p a ɳ ʈ ʈ u i ɾ u k k a k eː ɾ ɭ 
[427.145]
<no-speech> 
[428.015]
<no-speech> 
[428.425]
<no-speech> 
[436.405]
<no-speech> 
[444.385]
<sta> e ŋ k a 
[445.165]
<no-speech> 
[446.755]
<no-speech> a ʋ a ŋ k a ɭ u k k u p o k k i ʃ a m 
[449.165]
<no-speech> 
[450.235]
<sta> p u t̪ ai j a l 
[450.865]
<no-speech> 
[452.195]
<no-speech> 
[452.575]
<no-speech> 
[456.915]
<sta> aː h h a l oː e ŋ k a ɭ u k k u m a t̪ eː t̪ aː n e ŋ k a ɭ u k k u m ʋ a n t̪ u aː k a s ʈ u f i ʋ ʈ ʈ iː n ʋ a n t̪ u e m ʤ i e m k uː ʈ ʈ i ʈ ʈ u p oː r aː ŋ k a 
[462.835]
<no-speech> 
[465.025]
a p ʈ i k k aː 
[465.985]
<no-speech> 
[472.015]
<no-speech> e ŋ k a ɭ u k k u m t̪ aː n p oː n a ʋ a ɾ u ʃ a m t̪ aː n k uː ʈ ʈ i ʈ ʈ u p oː n aː ŋ k a ʋ a ɳ ʈ a l uː ɾ ʤ uː ʋ u k k u 
[476.835]
<no-speech> 
[480.395]
<no-speech> 
[482.255]
<no-speech> 
[484.075]
<no-speech> 
[484.445]
<no-speech> 
[493.755]
<sta> aː m aː t̪ i ʈ n u m p oː l a i ɾ u k k u 
[497.755]
<no-speech> 
[498.975]
<sta> aː h 
[500.605]
<no-speech> 
[504.115]
<no-speech> p aː k k a l ai j eː n iː p aː t̪ t̪ i j aː 
[506.655]
<no-speech> 
[509.295]
<no-speech> 
[510.205]
<no-speech> 
[519.915]
<sta> aː h h a l oː <no-speech> 
[522.275]
<no-speech> 
[524.985]
<sta> e n n a k eː ʈ ʈ i n aː 
[526.205]
<no-speech> 
[527.765]
<sta> ʋ e ɭ i l a ʋ e ɭ i j a t̪ aː n ʋ a n t̪ u p eː ʧ u r eː n 
[531.435]
<no-speech> 
[532.855]
<sta> a p ʈ i t̪ aː n <no-speech> 
[535.585]
<no-speech> 
[537.665]
<sta> a t̪ t̪ ai ʋ a n t̪ u n a l l aː i ɾ u k k aː ŋ k a n a l l aː k o ɻ u k o ɻ u n ʈ ʈ u 
[540.385]
<no-speech> 
[543.315]
<sta> h a l oː <no-speech> 
[546.495]
<no-speech> 
[549.495]
<sta> aː h aː h ʋ a n t̪ u o k k aː n t̪ u ʈ ʈ u i ɾ u k k aː k a 
[552.175]
<no-speech> 
[553.505]
<no-speech> 
[555.395]
<no-speech> 
[556.615]
<sta> aː h i l l a i l l a <no-speech> 
[559.515]
<no-speech> 
[564.475]
<sta> aː h 
[565.455]
<no-speech> 
[567.885]
<sta> a n t̪ a a ɳ ɳ a n ʋ a ɾ aː ŋ k a a n t̪ a a ɳ ɳ a n ʋ a ɾ aː ŋ k a k a ɳ ɳ aː a ɳ ɳ a n ʋ a ɾ aː ŋ k a 
[571.915]
<no-speech> 
[577.915]
<sta> h a l oː 
[578.765]
<no-speech> 
[581.805]
<no-speech> 
[582.165]
<no-speech> 
[583.075]
<sta> aː h 
[583.725]
<no-speech> 
[588.635]
<sta> a p p i ʈ i j aː 
[589.995]
<no-speech> 
[593.795]
<sta> aː h a t̪ aː n p u t̪ u ʋ iː ʈ u m aː ɾ r oː m n aː ŋ k a ɭ u m p u t̪ u ʋ iː ʈ u m aː ɾ r oː m t̪ e ɾ i j u m aː a t̪ u k k u m eː l a j eː oː ɾ s a ɾ ʧ u i ɾ u k k u 
[600.245]
<no-speech> 
[600.260]
