[0.000]
<no-speech> 
[0.085]
<no-speech> 
[0.495]
<no-speech> 
[3.675]
h a l oː 
[4.415]
<no-speech> 
[6.145]
h a l oː k eː k k u t̪ aː p p aː 
[8.005]
<no-speech> 
[9.635]
aː h n aː n t̪ aː n t̪ aː n a n i t̪ aː 
[10.775]
<no-speech> 
[13.135]
s o l l u p p aː e k s aː m s ʈ aː ʈ u aː j i ʈ ʧ aː p a ʈ i k k a aː ɾ a m p i ʧ ʧ u ʈ ʈ i j aː 
[15.735]
<no-speech> 
[16.545]
<no-speech> 
[16.905]
<no-speech> 
[19.685]
u m u m a ɾ u ɳ ʋ a ɾ aː n aː m i l l a e p ʈ i 
[22.635]
<no-speech> 
[26.615]
u m u m 
[27.145]
<no-speech> 
[29.095]
s a ɾ i <int> 
[29.785]
<no-speech> 
[32.955]
ʈ e n ʃ a n aː k aː t̪ a eː n <breath> a t̪ u o ɳ ɳ u m i l l a p oː j <foreign> p a ɳ ɳ aː p oː t̪ u m aː m aː m au ɭ oː t̪ aː n aː n aː n m a r u p a ʈ i j u m k eː ʈ ʈ eː n p ɾ a ʋ iː n k i ʈ ʈ a j u m k uː ʈ a f oː n p a ɳ ɳ i <breath> k eː ʈ ʈ a t̪ u k k u m i l l a a n i t̪ aː a t̪ u ʋ a n t̪ u n aː ɾ m a l aː ʋ eː <foreign> s a p m i ʈ u 
[44.685]
p a ɳ ɳ aː l eː p oː t̪ u m <breath> a t̪ u <foreign> s a m m i ʈ u p a ɳ ɳ aː ɭ eː u n a k k u ʋ a n t̪ u ʈ u ʋ e n ʈ ʈ i e j i ʈ u ʈ u ʋ e n ʈ ʈ i f ai ʋ m aː ɾ k u a t̪ i l a j eː <foreign> <breath> a t̪ a t̪ a ʋ i ɾ t̪ t̪ u p aː t̪ t̪ aː i n n o ɾ ʈ u ʋ e n ʈ ʈ i m aː ɾ k u ʋ a n t̪ u i ʋ a ŋ k a k ɭ aː s l a i ɾ u k k u r a t̪ u <breath> i ʋ a ŋ k a p a ŋ k u ʧ ʧ u ʋ aː l i ʈ ʈ i 
[56.605]
<breath> a t̪ e l l aː m ʋ a n t̪ u o ɾ u ʈ e n m aː ɾ k u ʋ a ɾ u t̪ u a ɾ ai t̪ a ʋ i ɾ t̪ t̪ u i n n u m oː ɾ i ɾ u ʋ a t̪ u m aː ɾ k u p aː t̪ t̪ i n aː a t̪ u p eː ɾ e n n a a ʈ ʈ a n a ɲ ʧ u a t̪ u k k u ʋ a n t̪ u u n a k k u ʋ a n t̪ u ʋ a ɾ u t̪ aː m aː m a t̪ a n aː l a o ɳ ɳ u m p i ɾ a ʧ ʧ a n a i l l a 
[68.585]
a p ʈ i n ʈ ɾ u n t̪ aː ɾ u i t̪ u e t̪ u k k u i ʋ ɭ oː t̪ uː ɾ a m ʋ a n t̪ u eː ɻ m a ɳ i k k u l aː m p oː j p i ɾ aː k ʈ i k a l <foreign> p a ɳ r a o ɾ eː k u ɾ uː p u i t̪ u ŋ k a l aː t̪ aː n i ɾ u k k u ŋ k a p i ɾ aː k ʈ i k a l aː k ʧ ʧ u ʋ a l aː ʋ a n t̪ u n i r ai j aː p eː ɾ ʋ a ɾ a m aː ʈ ʈ aː ŋ k a 
[79.365]
i ʋ a ŋ k a t̪ aː n ʋ a n t̪ u p oː j i ʈ ʈ eː i ɾ u k k u r aː ŋ k a a p ʈ i n n u p ɾ a ʋ iː n s o l l i ʈ i ɾ u n t̪ aː ɾ u <breath> a ʋ a ɾ aː n t̪ i ɾ aː l a i ɾ u k k u r aː ɾ aː m aː a t̪ a n aː l a n eː t̪ t̪ u m f oː n p a ɳ ɳ iː ŋ k a n aː n e ʈ u k k a m u ʈ i l a n n eː 
[90.535]
<sta> a n t̪ a ʋ a ɾ a t̪ a ɾ aː ʤ a n f oː n a e ʈ u k k a m aː ʈ ʈ i ŋ k a r aː n p oː l a i ɾ u k k u 
[93.835]
<no-speech> 
[94.975]
e n n a j u m t̪ eː n ʈ ɾ ai p a ɳ ɳ a ʧ o n n aː ɾ u n aː n e n n a t̪ t̪ a p oː ʈ ʈ u ʈ ɾ ai p a ɳ r a t̪ u n aː n s iː n i ʋ aː s a n k i ʈ ʈ a k eː k k a t̪ aː n m u ʈ i j u m <breath> n aː n k eː ʈ ʈ u ʈ ʈ u e n n a ʧ o l r eː n n aː n ʧ o l r eː n a p ʈ iː n n eː 
[103.335]
<no-speech> 
[105.085]
u m u m u m u m 
[105.775]
<no-speech> 
[107.425]
n aː n a ʋ a ɾ k i ʈ ʈ a ʋ a ɾ l eː n n aː e n n a k eː k k aː t̪ iː ŋ k a a p ʈ iː n n eː <breath> a t̪ u k k u a ʋ a ɾ ʋ a n t̪ u ʈ ʈ u s a ɾ i <breath> aː h n iː ŋ k a ʋ a n t̪ u e p ʈ i j aː t̪ u p aː ɾ u ŋ k a i l l a n aː u n a ʈ ɾ a s u m a ʈ ʈ u m m a ʈ ʈ u m ʋ aː ŋ k i t̪ aː n aː n p aː t̪ t̪ u k k u r eː n a p ʈ iː n n aː ɾ u <no-speech> a p p a r a m 
[123.915]
<no-speech> 
[124.845]
<hes> a ʈ ɾ a s u n aː n e ŋ k a p oː j ʋ aː ŋ k u r a t̪ u a ʋ a ɾ i n n u m f oː n e ʈ u k k a l a a ʋ a ɾ eː t̪ oː s uː ʈ ʈ iː ŋ u p oː j i ɾ u p p aː ɾ u p oː l a ɾ u k k u s iː n i ʋ aː s a n <breath> a ʋ a ɾ f oː n a e ʈ u k k a m aː ʈ ʈ i ŋ k a r aː ɾ u aː m aː a ʋ a ɾ s i n i f iː l ʈ u l a i ɾ u k k aː ɾ u <breath> a s i s ʈ a n ʈ u a s i s ʈ a ɳ ʈ ʈ aː eː t̪ oː o ɳ ɳ aː i ɾ u k k aː ɾ u <no-speech> <foreign> a t̪ u k k u ʋ a n t̪ u f oː n u ŋ k u r a f iː l ʈ u l aː e ʈ u k k u r aː ŋ k a ɭ aː a t̪ u k k u p oː j i ʈ u r aː ŋ k a 
[143.225]
<no-speech> 
[144.715]
u m u m a p p a i n t̪ a s k ai ʋ aː k k u i n t̪ a p a <foreign> i ɾ u k k u l l a a ɳ ɳ aː n a k a ɾ p a k t̪ t̪ u l a <breath> a t̪ u p a k k a t̪ t̪ u l a j a m a h aː s oː ɾ uː m aː m <breath> aː ɾ o ɳ ɳ aː <no-speech> <foreign> <foreign> <foreign> 
[156.595]
a p p a e n n a k k i 
[157.195]
<no-speech> 
[159.405]
aː h a t̪ u ʋ a n t̪ u ɾ u k k aː m 
[160.475]
<no-speech> 
[161.825]
<sta> aː h i t̪ a t̪ t̪ aː n ʋ a n t̪ u n iː aː ʋ eː s u k i ʈ ʈ a p oː j <oov> s o l l i ʈ ɾ u n t̪ eː l l a 
[166.235]
<no-speech> 
[171.455]
<no-speech> a p p aː oː k eː j <no-speech> aː n aː n iː p aː t̪ t̪ u <no-speech> aː h ʋ a ɳ ʈ i n i n ʈ u ɾ u ʧ ʧ u 
[177.735]
<no-speech> 
[180.675]
eː n 
[181.165]
<no-speech> 
[183.215]
eː n a t̪ u m a t̪ u k k u e n n a a t̪ eː t̪ aː n a a t̪ u k k u m 
[185.755]
<no-speech> 
[187.165]
aː h <no-speech> 
[188.135]
<no-speech> 
[192.875]
s a ɾ i 
[193.605]
<no-speech> 
[194.795]
u m u m 
[195.415]
<no-speech> 
[198.395]
s a ɾ i 
[199.555]
<no-speech> 
[202.705]
<no-speech> 
[203.255]
<no-speech> 
[204.735]
aː h 
[205.265]
<no-speech> 
[209.375]
s a ɾ i s a ɾ i 
[210.595]
<no-speech> 
[217.685]
u n n ai j a e ʋ a n u m o t̪ t̪ u ɻ ai k k a m u ʈ i j aː t̪ u oː ɾ ʋ a ɳ ʈ i l aː m p a ɾ a ʋ aː l l a n uː r u ʋ a ɳ ʈ i k k u l aː e ʋ a n u m o t̪ t̪ u ɻ ai k k a m aː ʈ ʈ aː n 
[222.195]
<no-speech> 
[223.435]
m eː ʈ ʈ a ɾ a 
[224.215]
<no-speech> 
[225.425]
<no-speech> <int> 
[227.955]
<no-speech> 
[230.015]
e n n a ʋ aː m 
[230.685]
<no-speech> 
[232.395]
<no-speech> 
[233.375]
<no-speech> 
[238.105]
<hes> u m u m u m u m <no-speech> i p p a n a m m a m uː ɭ ai j aː ɾ u k k u i ɾ u k k u a ŋ k i ɾ u n t̪ u ʋ a ɳ ʈ i a n u p p i i ŋ k i ɾ u n t̪ u eː t̪ t̪ i a n u p p u n aː t̪ t̪ aː n m u ʈ i j u m oː a t̪ u k k u i ŋ k a ɾ u n t̪ eː oː ɾ ʋ a ɳ ʈ i p u ʈ i ʧ ʧ u a n u p p i ɾ l aː m eː 
[246.695]
<no-speech> 
[248.745]
<no-speech> 
[250.155]
<no-speech> 
[252.055]
<lipsmack> <hes> a p p aː 
[253.555]
<no-speech> 
[255.545]
i ŋ k a e t̪ u p u ɾ i j a l a e n n a t̪ u <int> 
[257.075]
<no-speech> 
[261.315]
<breath> oː a p p a ʈ i a p p a ʈ i oː k eː j aː m aː a p p oː i n m aː r i n i r ai j aː e ŋ k a uː ɾ l ai j u m i t̪ eː m aː r i t̪ aː n m i ʧ ʧ a m e l l aː m 
[266.585]
<no-speech> 
[267.625]
a ŋ k i ɾ u n t̪ u a n t̪ a k aː j k a r i l aː eː t̪ t̪ i ʈ ʈ u ʋ a ɾ u t̪ u l l a l oː ʈ u ʋ a ɳ ʈ i <breath> <foreign> p oː k u m p oː t̪ u e m ʈ i j aː p oː r a t̪ u k k u i n t̪ a m aː r i eː t̪ t̪ i ʈ ʈ u p oː j i ʈ u r a t̪ u <no-speech> a n t̪ a m aː r i ʋ a ɳ ʈ i l a p u ʈ i p p aː ŋ k a <no-speech> aː h 
[278.285]
<no-speech> 
[283.825]
<int> k e ʈ a j aː t̪ u aː h a t̪ u m a ʋ a ŋ k a uː ɾ l a ʈ ai m m i ŋ k u e n n a ʤ u ɲ k e ʈ ʈ a k i ʈ ai j aː t̪ u n n u n e n a k k i r eː n 
[287.255]
<no-speech> 
[288.465]
oː a t̪ u k k e n n e n n aː ɾ u 
[290.875]
<no-speech> 
[292.255]
<no-speech> 
[292.625]
<no-speech> 
[294.905]
u m u m p aː ʈ ʈ i j oː ʈ a u ʈ a m p u p a ɾ a ʋ aː l ai j aː 
[297.655]
<no-speech> 
[300.025]
p aː ʈ ʈ i a ŋ k a ɾ u k k a p aː ʈ ʈ i n aː k a ɾ k oː j i l p aː ʈ ʈ i <no-speech> 
[302.955]
<no-speech> 
[304.255]
aː ʧ ʧ i a ʋ a ŋ k a ɭ u k k u u ʈ a m p u p a ɾ a ʋ aː l ai j aː 
[306.395]
<no-speech> 
[310.005]
h uː m 
[310.845]
<no-speech> 
[313.015]
e n n a 
[313.835]
<no-speech> 
[317.205]
<lipsmack> s a ɾ i ʋ i ʈ u a ʋ a ɾ s u j a ɾ uː p a m t̪ aː n t̪ e ɾ i j u t̪ u l a s u m m aː a t̪ a p a t̪ t̪ i j eː p eː s i k i ʈ ɾ u p p aː ŋ k a a ʋ a ŋ k a n eː ɾ a t̪ t̪ u k k u o ɳ ɳ u m p eː ʧ u r aː ŋ k a ʋ i ʈ r u s a ɾ i j aː a ʋ a ŋ k a p a ɳ r a t̪ u t̪ aː n k a ɾ e ʈ ʈ u n u j oː s i k k u m p oː t̪ u a ʋ a ŋ k a p a ɳ r a t̪ eː k a ɾ e k ʈ ʈ aː i ɾ u k k a ʈ ʈ u m ʋ i ʈ r u s u m m aː 
[329.075]
<breath> s u m m aː s u m m aː aː ɾ k i j uː p a ɳ ɳ i o ɳ ɳ u m n a ʈ a k k a p oː r a t̪ i l l a 
[331.665]
<no-speech> 
[333.605]
<no-speech> 
[334.095]
<no-speech> 
[335.755]
aː h aː h 
[336.815]
<no-speech> 
[338.925]
t̪ e ɾ i l a p p aː a t̪ u l a k k a p p a r a m ʤ e n i 
[340.945]
<no-speech> 
[342.215]
i p p a ʋ aː s a ɾ i s a ɾ i 
[344.015]
<no-speech> 
[345.175]
aː h ʤ e n i <sta> ʋ a n t̪ u 
[347.395]
<no-speech> 
[349.025]
e n n a p p aː 
[349.825]
<no-speech> 
[353.595]
aː h 
[354.305]
<no-speech> 
[355.665]
e n n a t̪ u <breath> 
[356.625]
<no-speech> 
[358.765]
<no-speech> m aː ʈ ʈ oː m a p p a t̪ e ɾ i j u m p i ʈ ʈ u m p i ʈ ʈ aː 
[363.485]
<no-speech> 
[364.505]
eː n n aː e ʋ a n aː t̪ u ʈ ɾ ai p a ɳ ɳ aː n aː m i n n ai k k u a p ʈ i k aː l l a o k k aː n t̪ u 
[367.855]
<no-speech> 
[376.185]
k a ʃ ʈ a m t̪ aː n <breath> a t̪ u n a l l a k aː l a t̪ t̪ u l a <foreign> o ɻ u ŋ k aː t̪ uː k k i ʈ ʈ u p oː k a t̪ e ɾ i j aː t̪ u i t̪ u l a i t̪ u m e ŋ k a i t̪ u m i n t̪ a a ʈ ʈ a m ʈ l aː t̪ eː ʋ ai j aː <no-speech> 
[385.455]
<no-speech> 
[386.615]
<no-speech> 
[387.135]
<no-speech> 
[391.325]
eː n n i r ai j aː k u ʋ aː ʈ u l aː ʋ a ɾ aː ŋ k a ɭ aː e n n a 
[393.455]
<no-speech> 
[398.265]
<no-speech> n iː j a l aː a t̪ u k k u s a ɾ i p p a ʈ ʈ u ʋ a ɾ a m aː ʈ ʈ eː n u ʧ o l l eː l a <no-speech> 
[402.255]
<no-speech> 
[407.505]
oː i n t̪ a t̪ a ʈ a ʋ a <sta> i l l ai j aː 
[409.515]
<no-speech> 
[411.305]
u m u m <no-speech> s o l 
[412.745]
<no-speech> 
[413.565]
<no-speech> 
[414.495]
<no-speech> 
[415.985]
<no-speech> e t̪ t̪ a n a p eː ɾ s ʈ e n t̪ t̪ u k ɭ aː s l a 
[419.215]
<no-speech> 
[422.005]
m u p p a t̪ u p eː ɾ aː 
[422.945]
<no-speech> 
[429.065]
e ɻ u ʋ a t̪ aː 
[429.835]
<no-speech> 
[431.775]
e ɻ u ʋ a t̪ u eː ɻ ʤ iː ɾ oː 
[433.255]
<no-speech> 
[434.975]
a p p aː i t̪ t̪ a n a p eː ɾ o ɾ eː ɾ u m l a j aː 
[437.855]
<no-speech> 
[439.785]

[440.385]
<no-speech> 
[443.605]
oː k eː j oː k eː j 
[444.655]
<no-speech> 
[445.565]
s a ɾ i s a ɾ i o ʋ ʋ o ɾ u t̪ t̪ a ʋ a ŋ k a ɭ u k k u m o ʋ ʋ o ɾ u k oː i t̪ u m ʋ a ɾ u ʋ aː ŋ k a p u ɾ oː p oː ʧ a ɾ m aː r i ʋ a ɾ aː ŋ k a 
[449.955]
<no-speech> 
[452.225]
aː n aː i p p a p a ɾ a ʋ aː l l a i n t̪ a p u t̪ u s aː p oː ʈ ɾ u k k aː aː ɭ i ɾ u k k aː ŋ k a l l a a t̪ a n aː l a k o ɲ ʧ a m aː ɾ k a n ai s ʈ aː i ɾ u k k u m u n n aː ʈ i l aː m <breath> e n n a k ɭ aː s u ɾ uː m u k k u ʋ a ɾ a n u m e ŋ k a o k k aː ɾ a n u m o n n u m eː t̪ e ɾ i j aː t̪ u a ŋ k a ɾ o m p a m oː s a m aː i ɾ u k k u m 
[463.895]
<no-speech> 
[465.215]
<no-speech> 
[465.855]
<no-speech> 
[469.655]
i l l a i l l a a ʋ a ɭ oː t̪ aː n a ʋ a ɾ k i ʈ ʈ a k eː ʈ ʈ eː n m a r u p a ʈ i j u m eː ŋ k a e n n a ʋ a n t̪ u t̪ i j a ɾ i k k u m k uː ʈ a i ʋ ɭ oː t̪ uː ɾ a m j aː ɾ u m eː k eː ʈ ʈ a t̪ u l l a i p ʈ i ʋ a n t̪ u p i ɾ aː k ʈ i k a l u k k u p a j a p ʈ u r iː ŋ k a <breath> i t̪ u m o ɳ ɳ u m p e ɾ i j a ʋ i ʃ a j a m eː k e ʈ ai j aː t̪ u 
[481.525]
a ʈ ʈ e ɳ ʈ a n s u i ɾ u n t̪ aː l eː p oː t̪ u m 
[482.935]
<no-speech> 
[484.895]
s a ɾ i 
[485.375]
<no-speech> 
[487.055]
aː h u m u m 
[488.365]
<no-speech> 
[490.465]
u m u m u m u m a t̪ u e n n a t̪ u a t̪ u 
[492.425]
<no-speech> 
[494.255]
aː h e n n a t̪ u 
[495.395]
<no-speech> 
[497.015]
eː n n iː ŋ k a p a ɳ ɳ u m n aː <int> e l l aː m eː t̪ a p p u k a ɾ e k ʈ u <breath> i l l a i l l a n aː e n n e n n a n i j aː j a m p eː ʧ u r iː ŋ k a a p p aː 
[505.295]
<no-speech> 
[509.025]
aː h <no-speech> u m u m u m u m 
[510.535]
<no-speech> 
[511.585]
<no-speech> 
[511.985]
<no-speech> 
[513.245]
u m u m u m u m 
[513.935]
<no-speech> 
[515.625]
i ɾ u ʋ a t̪ t̪ i o ɳ ɳ aː 
[516.715]
<no-speech> 
[519.085]
<oov> i n t̪ a i ɾ u ʋ a t̪ t̪ a ɲ ʧ aː <no-speech> <hes> m u t̪ a l i j a ɾ k k aː i l l a ɾ e ɳ ʈ u ʋ a ɾ u ʃ a t̪ t̪ u k k u s eː t̪ t̪ u t̪ a ɾ u ʋ aː n u k a ɭ aː m aː 
[524.575]
<no-speech> 
[527.545]
j aː ɾ s o n n aː 
[528.555]
<no-speech> 
[530.655]
a t̪ u m e p ʈ i ʋ e p s ai ʈ l a ʋ a ɾ u t̪ aː i l l a p oː ɾ ʈ u l a p oː ʈ ʈ u t̪ a ɾ u ʋ aː ŋ k a 
[534.345]
<no-speech> 
[539.425]
s a ɾ i ʧ e ɾ i r i i l l a a n a n n ai k k u ʋ a n t̪ u ʈ ʈ u ʈ e n ʃ a n aː k a k k uː ʈ aː t̪ u l a 
[543.965]
<no-speech> 
[548.795]
aː h s ʋ i ʈ ʧ u aː p u <no-speech> m o p ai l a s ʋ i ʈ ʧ u aː f u p a ɳ ɳ i ʋ a ʧ ʧ u ɾ u ʋ eː n a ʋ a ɭ oː t̪ aː n i t̪ u k k u m m eː l eː l aː m o ɳ ɳ u m p a ɳ ɳ a k uː ʈ aː t̪ u n u s o l l i 
[554.595]
<no-speech> 
[558.575]
u m u m 
[558.995]
<no-speech> 
[562.125]
<int> 
[562.605]
<no-speech> 
[563.885]
u m u m 
[564.345]
<no-speech> 
[567.095]
s o l l u m aː 
[567.755]
<no-speech> 
[569.115]
i n i i n n ai k k u ɾ e ɳ ʈ u k oː ɾ s u i ɾ u k k aː 
[571.135]
<no-speech> 
[573.825]
i n n ai k k u ʋ a n t̪ u i n n u m e n n a s i s i p ɭ a s u p i ɭ a s s aː 
[576.695]
<no-speech> 
[578.665]
aː aː 
[579.345]
<no-speech> 
[586.195]
i n n ai k k u e p ʈ i n n u t̪ e ɾ i l a k o ɲ ʧ a m s iː k k i ɾ a m aː f iː s u ʋ i ʈ ʈ a t̪ u n aː a t̪ a n aː l aː n aː n ʋ a ɳ ʈ i j eː k o ɳ ʈ u ʋ a n t̪ u ʈ ʈ eː n a t̪ a n aː l a t̪ aː n m e j i n aː k o ɳ ʈ u ʋ a n t̪ eː n i l l a n aː ɾ e ɳ ʈ u m a ɳ i n eː ɾ a m ʋ e j i ʈ u p a ɳ ɳ i k eː p i ɭ a p oː ɳ u m <breath> i l l a p p aː a n t̪ a p o ɳ ɳ u ʋ a n t̪ u e n n a <foreign> p a ɳ ɳ aː ŋ k a 
[597.865]
t̪ uː ɾ a m a t̪ u k k a p p u r a m n aː n m a r u p a ʈ i j u m a ɾ i j a ɾ ʧ u s ʈ eː n 
[600.020]
