[0.000]
<no-speech> k u ʈ aː f n uː n k u ʈ aː k u ʈ aː f n uː n s i s ʈ a ɾ <no-speech> 
[11.855]
<no-speech> aː h n a l l aː ɾ u k k eː n p aː n iː ŋ k a e p ʈ i i ɾ u k k iː k a <no-speech> aː h ʧ aː p ʈ eː n n iː s aː p ʈ aː ʧ ʧ aː <no-speech> 
[22.865]
a p p a r a m <sta> ʋ iː ʈ l a <no-speech> aː m aː aː m aː p p aː aː m aː p p aː <lipsmack> n iː j u m aː f iː s u l a t̪ aː n i ɾ u k k i j aː <no-speech> a p p a r a m u n h a s p e ɳ ʈ u n a l l aː i ɾ u k k aː ɾ aː 
[31.635]
<no-speech> 
[32.445]
<no-speech> a p u <lipsmack> e l l aː n a l l aː ɾ u k k aː ŋ k a p p aː <breath> e n u k k u t̪ aː n k o ɲ ʧ a m f iː ʋ a ɾ e n u k k u p iː ʋ a ɾ u <lipsmack> aː s p i ʈ l u k k u p oː j ʈ ʈ u ʋ a n t̪ u ɾ u k k eː n u n n u m s e ɾ i j aː ʋ a l a <no-speech> 
[43.995]
u m u m <lipsmack> a t̪ u t̪ aː n k o ɲ ʧ a m k a ʃ ʈ a m aː i ɾ u k k u <breath> <lipsmack> aː h u m u m u m m a p ai j a n e n n a p a ʈ i k k i r aː n i p p a 
[50.025]
<no-speech> 
[51.015]
<no-speech> a p p a r a m p iː s e l aː m k a ʈ ʈ i j aː ʧ ʧ aː 
[55.215]
<no-speech> 
[56.395]
<no-speech> 
[56.765]
<no-speech> 
[57.605]
<no-speech> 
[57.955]
<no-speech> 
[59.215]
aː h u n n u m ʈ e n ʈ eː s u l iː ʋ k u ʈ u t̪ t̪ u ɾ u k k aː ŋ k a p oː l a <lipsmack> <breath> 
[63.685]
<no-speech> 
[64.505]
aː h aː h aː h <breath> aː h <breath> oː k eː j oː k eː j a p p a r a m s i t̪ t̪ i j e l l aː m e p ʈ i i ɾ u k k aː ŋ k a s i s ʈ a ɾ e p ʈ i i ɾ u k k aː ŋ k a 
[71.305]
<no-speech> 
[72.125]
<no-speech> u m u m u m u m 
[74.185]
<no-speech> 
[75.125]
u m u m p oː t̪ u p oː t̪ u n a l l aː p oː t̪ u <lipsmack> a p p a r a m u n u k k u aː f iː s l aː m e p ʈ i i ɾ u k k u 
[78.865]
<no-speech> 
[80.465]
<no-speech> u n f i ɾ a ɳ ʈ e l l aː m n a l l aː i ɾ u k k aː ŋ k a ɭ aː <no-speech> aː h aː h p oː ʈ ʈ eː t̪ aː n i ɾ u k k eː n <breath> u m u m u m u m <lipsmack> i t̪ u m k a ʋ a ɾ m e ɳ ʈ u ʈ eː p l e ʈ u i l l a i n n u m 
[91.385]
<breath> n aː n aː s aː m p aː ɾ s aː t̪ a m <sta> k a ʋ a ɾ m e ɳ ʈ u ʈ eː p l e ʈ u i l l a u n n a k o ɲ ʧ a m s e ʈ ʈ aː k a l a <no-speech> u m u m <lipsmack> i p p a p i ɾ ai ʋ eː ʈ l a p aː t̪ t̪ u ʈ ʈ i ɾ u n t̪ oː m i l l a <breath> t̪ i ʈ iː ɾ n u k a ʋ a ɾ m e ɳ ʈ u p oː n eː n n aː 
[103.315]
s e ʈ ʈ aː k a l a <lipsmack> ʧ e ɾ i r i p aː p p oː m ʈ eː p l e ʈ u s e ʈ ʈ aː k a l a n aː p i ɾ ai ʋ eː ʈ l a t̪ aː n ʋ aː ŋ k a ɳ u m <no-speech> u m u m <sta> aː h ʧ e ɾ i r i ʧ e ɾ i ʈ aː e n n a s a m ai j a l ʧ e ɲ ʧ a i n n i k k u 
[115.105]
<no-speech> 
[116.115]
<no-speech> aː h aː h aː h a p p a r a m <no-speech> oː aː h ʧ e ɾ i r i ʧ e ɾ i r i n iː j aː s a m ai ʧ ʧ eː 
[123.575]
<no-speech> 
[126.385]
<sta> <breath> oː aː h ʧ e ɾ i r i ʧ e ɾ i r i ʧ e ɾ i r i ʧ e ɾ i r i n aː n m a ɳ ʈ eː m a ɳ ʈ eː <breath> aː m aː m aː t̪ e ɾ i j u n u l l a <no-speech> a p p a r a m t̪ iː p a n e p ʈ i i ɾ u k k aː n <no-speech> 
[136.275]
<no-speech> 
[137.415]
oː <no-speech> ʋ a ɾ a n u m ʋ a ɾ a n u m e ŋ k a <hes> i p p a t̪ aː n a ʋ e j i l e l l aː m m u ʈ i ɲ ʧ i ɾ u k k u m i n i m eː t̪ aː n <lipsmack> aː h aː h <no-speech> i p p a t̪ aː n ʋ e j i l e l l aː m m u ʈ i ɲ ʧ i ɾ u k k u m i n i m eː t̪ aː n ʋ a ɾ a n u m 
[149.035]
<no-speech> aː h 
[151.295]
<no-speech> 
[152.165]
aː h <oov> <no-speech> aː m aː m aː aː m aː <breath> u m u m a p p a r a m t̪ i ŋ k a k k i ɻ a m ai m a ɳ ʈ eː aː f iː s k k u ʋ a ɾ u ʋ eː n ʋ a n t̪ u a p p a aː h n a l l aː ɾ u k aː ŋ k a n a l l aː ɾ u k k aː ŋ k a u m u m u m u m 
[163.935]
<int> <lipsmack> n a l l aː ɾ u k k aː ŋ k a 
[165.235]
<no-speech> 
[166.765]
k a ɳ ʈ i p p aː k a ɳ ʈ i p p aː <int> 
[168.045]
<no-speech> 
[168.885]
u m u m <breath> a p p a r a m <oov> <breath> aː h n a l l aː p oː t̪ u t̪ iː p a n a t̪ aː n p aː k k a ɳ u m p oː l a i ɾ u k k u <no-speech> 
[175.185]
<no-speech> 
[176.045]
u m u m <lipsmack> a ʋ a n u k k u m o ʈ ʈ ai a ʈ i k k u r a t̪ u s o n n aː ɭ eː e p p a m 
[178.235]
<no-speech> 
[179.095]
<no-speech> 
[179.445]
<no-speech> 
[181.225]
<no-speech> 
[182.255]
<no-speech> 
[183.115]
<no-speech> oː h oː u n n u m a n aː l a ɲ ʧ u m aː s a m i ɾ u k k u p oː l a <no-speech> u m u m i n n u m n aː l a ɲ ʧ u m aː s a m i ɾ u k k u u m u m i n n u m n aː l a ɲ ʧ u m aː s a m i ɾ u k k u <no-speech> ʤ uː l ai 
[194.715]
aː h aː h ʤ uː n ʤ uː l ai u n n u m ɾ e ɳ ʈ u m aː s a m <breath> aː h ʧ e ɾ i r i ʧ e ɾ i r i ʧ e ɾ i r i <no-speech> a ʈ u t̪ t̪ a m aː s a m <hes> a ʈ u t̪ t̪ a m aː s a m a k k aː k k u k uː ʈ a p eː ɾ t̪ ʈ eː ɲ aː p a k a m i ɾ u k k aː 
[203.735]
<no-speech> 
[205.285]
<no-speech> 
[208.365]
<no-speech> 
[209.655]
aː h e n u k k u a ɳ ɳ aː k k u p e ɾ i j a s i s ʈ a ɾ k k u 
[213.615]
<no-speech> 
[214.995]
s i p ʈ u s i s k k u m ʈ o n ʈ ʈ iː f ai ʋ i l l a 
[216.755]
<no-speech> 
[220.675]
u m u m u m u m u m u m 
[221.555]
<no-speech> 
[222.955]
aː h aː h aː h aː h ʧ e ɾ i r i ʧ e ɾ i r i <no-speech> e n u k k u ʤ uː n p a n n e ɳ ʈ u 
[228.465]
<no-speech> 
[230.715]
u m u m a p p a r a m f i ɾ iː e n a k k u ʤ uː n p a n n e ɳ ʈ u f ɾ i j aː i ɾ u k k i j aː m aː p i s i j aː i ɾ u k k i j aː 
[235.415]
<no-speech> 
[237.095]
aː h i p p a ʋ eː l a i ɾ u k k aː i l l a f ɾ i j aː t̪ aː n i ɾ u k k i j aː 
[239.345]
<no-speech> 
[243.515]
aː h aː h <sta> ʧ e ɾ i r i ʧ e ɾ i r i ʧ e ɾ i r i s u m a t̪ i e l l aː m e p ʈ i i ɾ u k k aː ŋ k a 
[246.625]
<no-speech> 
[248.745]
ʤ oː ʃ u n a l l aː i ɾ u k k aː 
[250.165]
<no-speech> 
[251.795]
<no-speech> u m u m u m u m m u ɾ u k a ɳ ɳ a l l aː m k eː ʈ ʈ eː n n u ʧ o l l u 
[254.465]
<no-speech> 
[255.945]
aː h aː h aː h 
[256.985]
<no-speech> 
[258.395]
aː h s a ɾ i s a ɾ i 
[259.685]
<no-speech> 
[262.205]
oː oː k eː j oː k eː j oː k eː j oː k eː j a p p a r a m a ɳ ɳ aː i ŋ k a t̪ aː n i ɾ u k k u r aː ɾ aː i l l a ʋ e ɭ i l a uː ɾ u k k u p oː j i ɾ u k k aː r aː 
[266.135]
<no-speech> 
[268.925]
aː h aː h s a ɾ i s a ɾ i ʧ e ɾ i r i 
[270.555]
<no-speech> 
[271.755]
aː h aː h m a ɳ i aː f iː s u p oː r aː n aː 
[273.935]
<no-speech> 
[274.805]
<no-speech> 
[275.165]
<no-speech> 
[277.225]
aː h aː h aː h 
[278.125]
<no-speech> 
[280.285]
u m u m u m u m u m u m u m u m 
[281.305]
<no-speech> 
[282.905]
<lipsmack> <int> a p p a r a m 
[283.685]
<no-speech> 
[284.645]
<lipsmack> aː h s o l l u m aː 
[285.595]
<no-speech> 
[286.805]
<no-speech> 
[287.165]
<no-speech> 
[288.835]
<int> h a l oː 
[289.695]
<no-speech> 
[291.585]
aː h aː h k eː k k u t̪ u k eː k k u t̪ u m aː 
[293.165]
<no-speech> 
[294.575]
aː h 
[295.515]
<no-speech> 
[299.945]
aː h aː h ʧ e ɾ i r i ʧ e ɾ i r i ʧ e ɾ i r i <breath> a p p a r a m n ai ʈ u e t̪ t̪ a n a m a n i k k u p oː k a <hes> ʋ iː ʈ ʈ u k k u iː ʋ n i ŋ u 
[305.895]
<no-speech> 
[309.395]
aː h ʧ e ɾ i r i ʧ e ɾ i r i ʧ e ɾ i r i <breath> a p p a m a ɳ ʈ eː 
[311.985]
<no-speech> 
[313.335]
aː h aː h aː h 
[314.355]
<no-speech> 
[318.005]
a p p a r a m m a ɳ ʈ eː a ŋ k a ʋ aː aː f iː s aː n ʈ a e n n a <no-speech> 
[320.935]
<no-speech> 
[322.525]
<no-speech> m a ɳ ʈ eː aː f iː s aː n ʈ a ʋ aː e n n a 
[325.075]
<no-speech> 
[327.185]
aː h s a ɾ i s a ɾ i a p p a r a m a m m aː ʋ a k eː ʈ ʈ aː n s o l l u m 
[329.985]
<no-speech> 
[331.255]
a m m aː ʋ a k eː ʈ ʈ aː n s o l l u m a m m aː i p p a t̪ aː n k aː l p a ɳ ɳ aː ŋ k a e n a k k u 
[333.945]
<no-speech> 
[338.095]
<breath> h a l oː <lipsmack> aː h aː h 
[341.015]
<no-speech> 
[342.175]
<int> aː m aː m aː n aː ɭ ai k k u a m m aː ʋ a ɾ a s o l l i ɾ u k k aː ŋ k a a ŋ k a 
[345.085]
<no-speech> 
[346.415]
aː h aː h aː h aː h 
[347.585]
<no-speech> 
[350.575]
aː h ʋ a ɾ oː m ʋ a ɾ oː m ʋ a ɾ oː m aː <no-speech> a p p a r a m aː h ʧ e ɾ i r i u n f i ɾ a ɳ ʈ e l l aː m 
[354.975]
<no-speech> 
[355.985]
u ŋ k a f i ɾ a ɳ ʈ e l l aː m e n n a ʧ o l r aː ŋ k a 
[357.725]
<no-speech> 
[360.495]
u m u m 
[361.255]
<no-speech> 
[362.375]
aː h aː h aː h aː h 
[363.435]
<no-speech> 
[364.855]
aː h s a ɾ i 
[366.095]
<no-speech> 
[367.125]
u m u m 
[367.755]
<no-speech> 
[368.715]
aː h n a l l aː ɾ u k k aː ŋ k a n a l l aː ɾ u k k aː ŋ k a u m u m n a l l aː ɾ u k k aː ŋ k a a n n i n a l l aː ɾ u k k aː ŋ k a t̪ a m p i n a l l aː ɾ u k k aː n t̪ a m p i p a s a ŋ k a n a l l aː ɾ u k k aː ŋ k a 
[375.975]
<no-speech> 
[377.035]
aː h aː h aː h a n n i a n n i p a s a ŋ k a n a l l aː ɾ u k k aː ŋ k a 
[379.515]
<no-speech> 
[380.765]
u m u m u m u m u m u m <lipsmack> a p p a r a m p i ɾ i ʈ ʈ oː uː ɾ u k k u p oː j i ɾ u k k aː n i n n u m ʋ a ɾ a l a 
[385.195]
<no-speech> 
[386.735]
u m u m ʋ a n t̪ u ʈ u ʋ aː n <int> m a ɳ ʈ eː ʋ a ɾ u ʋ aː n n u n e n a k k i r eː n 
[390.375]
<no-speech> 
[392.205]
u m u m u m u m u m u m <lipsmack> m a ɳ ʈ eː ʋ a n t̪ u n t̪ aː <int> aː m aː m aː l iː n aː ʋ iː ʈ l a t̪ aː n i ɾ u k k aː aː h s u n t̪ a ɾ p a s a ŋ k a ɭ e l aː m 
[399.985]
<no-speech> 
[400.905]
p oː r aː ŋ k a n aː n i n n i k k u p oː l a n e n a k k i r eː n 
[402.825]
<no-speech> 
[404.525]
u m u m s u n t̪ a ɾ p a s a ŋ k a ɭ aː m i ɾ u k k aː ŋ k a 
[406.935]
<no-speech> 
[408.155]
aː h a ʋ a ŋ k a ɭ a p aː t̪ t̪ u k k a aː ɭ i l l a n t̪ t̪ u k k aː k a i n n i k k u l iː ʋ p oː ʈ a s o l ʈ ʈ aː 
[411.245]
<no-speech> 
[413.035]
u m u m u m u m u m u m u m u m u m u m 
[414.545]
<no-speech> 
[416.075]
u m u m 
[416.855]
<no-speech> 
[418.035]
aː h aː h aː h u m u m a ɲ ʧ aː k u m n e n a k k i r eː n 
[420.385]
<no-speech> 
[422.205]
aː h aː m aː m aː aː m aː 
[423.655]
<no-speech> 
[425.315]
u m u m a p p a r a m i ʋ a n t̪ t̪ i a ʋ a n t̪ t̪ i j u m n a l l aː ɾ u k k aː ŋ k a ɭ aː 
[428.255]
<no-speech> 
[430.285]
u m u m s i s ʈ a ɾ ʋ eː l ai k k u p oː r aː ŋ k a ɭ aː 
[432.645]
<no-speech> 
[436.185]
ʋ a ɾ eː n <breath> k o ɲ ʧ a m p i s i j aː ɾ u k k u n u l l a 
[438.975]
<no-speech> 
[440.645]
u m u m u m u m t̪ a m aː s p e ʈ ʈ a l u k k u p oː j i ʈ ɾ u k k oː m u l l a k aː l i l a p oː n aː o ɾ u n aː ɭ f u l l aː j i ʈ u t̪ u 
[444.685]
<no-speech> 
[446.305]
u m u m 
[447.045]
<no-speech> 
[447.895]
m a r u p a ʈ i j u m m a ɳ ʈ eː ʋ u m aː s p i ʈ ʈ a l p oː n oː m 
[450.045]
<no-speech> 
[451.425]
f ɾ ai ʈ eː ʋ eː aː s p i ʈ ʈ a l p oː n oː m 
[453.475]
<no-speech> 
[454.815]
i t̪ e l l aː m m u ʈ i ʧ ʧ aː t̪ aː n ʋ a ɾ a m u ʈ i j u m 
[456.475]
<no-speech> 
[458.985]
u m u m a p p a r a m <no-speech> a p p a r a m e n n a ʋ i s eː ʃ a m 
[461.875]
<no-speech> 
[465.495]
u m u m n aː ŋ k a e n n a s o l 
[467.295]
<no-speech> 
[468.215]
u m u m e t̪ u k k u 
[469.255]
<no-speech> 
[471.805]
<lipsmack> e t̪ u k k u m 
[472.545]
<no-speech> 
[477.195]
u m u m u m u m u m u m u m u m <lipsmack> ʈ e n t̪ u p aː s u p a ɳ ʈ ʈ oː m u n u k k u e n n a p e ɾ i j a ʈ i ɾ iː ʈ u ʋ ai k k i r eː n 
[481.095]
<no-speech> 
[483.245]
aː h s a ɾ i <no-speech> aː h a p p a 
[486.315]
<no-speech> 
[487.475]
aː h i l l a l l a i l l a i t̪ u m k o ɲ ʧ a n eː ɾ a m 
[489.615]
<no-speech> 
[490.585]
i n n u m oː <breath> oː ɾ ɾ e ɳ ʈ u m uː n u s e k a ɳ ʈ u <no-speech> u m u m a p p a r a m 
[495.775]
<no-speech> 
[498.185]
h a l oː <lipsmack> h a ɾ i ʃ u h a ɾ i ʃ u e n n a p a ʈ i k k i r aː n n a t̪ eː ʈ aː 
[502.155]
<no-speech> 
[504.385]
aː h aː h ʧ e ɾ i r i ʧ e ɾ i r i a ʋ a n u k k u f iː s u k a ʈ ʈ i j aː ʧ ʧ aː 
[507.115]
<no-speech> 
[508.865]
f iː s u k a ʈ ʈ i j aː ʧ ʧ aː <no-speech> 
[510.145]
<no-speech> 
[513.435]
aː h i p p a 
[514.565]
<no-speech> 
[516.505]
aː h aː h 
[517.285]
<no-speech> 
[521.065]
aː h ʧ e ɾ i r i ʧ e ɾ i r i ʧ e ɾ i r i 
[522.535]
<no-speech> 
[524.455]
oː h oː ʧ e ɾ i r i ʧ e ɾ i r i <no-speech> u m u m <int> 
[526.885]
<no-speech> 
[527.905]
i l l a m m aː i n i m eː t̪ aː n e l l aː m eː 
[529.855]
<no-speech> 
[531.455]
aː m aː m aː <no-speech> u m u m <int> u m u m ʧ e ɾ i r i a p p a r a m 
[535.895]
<no-speech> 
[538.165]
p u ɾ i j a l a 
[538.785]
<no-speech> 
[542.205]
s i k s u s i k s oː k ɭ aː k u 
[543.695]
<no-speech> 
[545.975]
u m u m u m u m u m u m u m u m 
[547.045]
<no-speech> 
[547.905]
u m u m <lipsmack> u h uː m <int> 
[549.465]
<no-speech> 
[551.395]
aː m aː aː m aː 
[552.245]
<no-speech> 
[553.715]
aː m aː <hes> 
[555.165]
<no-speech> 
[556.615]
ʧ e ɾ i r i ʧ e ɾ i r i 
[557.515]
<no-speech> 
[558.795]
aː h aː h ʧ e ɾ i r i ʧ e ɾ i r i 
[560.055]
<no-speech> 
[561.235]
u m u m u m u m u m u m u m u m a p p a r a m <lipsmack> a a ʋ a <hes> a ʋ a n t̪ i k k u e n n a eː ʤ u 
[565.945]
<no-speech> 
[573.135]
aː h i ʋ a n t̪ i k k u 
[574.305]
<no-speech> 
[577.015]
aː h aː h ʧ e ɾ i r i ʧ e ɾ i r i 
[578.365]
<no-speech> 
[579.255]
eː j eː s u m a n e p ʈ i ɾ u k k aː n a ʋ a n a k eː k k a ʋ eː i l l a 
[581.775]
<no-speech> 
[585.265]
n a l l aː ɾ u k k aː n aː <no-speech> 
[586.495]
<no-speech> 
[588.265]
i n n u m aː a ʋ a n a s k uː l m aː t̪ t̪ a p oː r eː n <sta> 
[589.855]
<no-speech> 
[590.865]
aː h aː m aː m aː s o n n aː ŋ k a s o aː h aː h aː h 
[593.655]
<no-speech> 
[595.155]
<no-speech> 
[595.525]
<no-speech> 
[597.575]
aː h aː h u m u m 
[598.495]
<no-speech> 
[600.195]
a p p a r a m i t̪ u m s u m a n ʋ eː r a s k uː l m aː t̪ t̪ u r aː ŋ k a ɭ aː <no-speech> 
[602.815]
<no-speech> 
[606.984]
