[0.000]
<no-speech> 
[2.615]
h a l oː 
[3.165]
<no-speech> 
[5.475]
aː h <int> 
[6.085]
<no-speech> 
[8.985]
aː h 
[9.505]
<no-speech> 
[12.315]
s k uː l l eː ɾ n t̪ u i p p a t̪ aː n ʋ a n t̪ oː m 
[13.495]
<no-speech> 
[16.145]
i n n u m s aː p p u ʈ l a 
[17.155]
<no-speech> 
[20.235]
i n n u m a ɳ ɳ eː ʋ a ɾ l a 
[21.365]
<no-speech> 
[22.275]
<int> ʋ iː ʈ l a e ʈ u t̪ t̪ u ʈ ʈ u ʋ a n ʈ ʈ i j aː ʧ aː p p aː ʈ u 
[24.485]
<no-speech> 
[31.375]
aː h <int> s a ɾ i 
[32.285]
<no-speech> 
[35.085]
aː h <int> 
[35.615]
<no-speech> 
[39.685]
aː h s a ɾ i <no-speech> h a l oː <no-speech> 
[45.615]
<no-speech> 
[47.545]
aː h <int> 
[48.035]
<no-speech> 
[52.865]
aː h s a ɾ i <no-speech> n iː e n n a p a ɳ ɳ i n u i ɾ u k k a 
[55.775]
<no-speech> 
[62.235]
aː h s a ɾ i 
[63.075]
<no-speech> 
[64.725]
aː h <no-speech> 
[66.615]
<no-speech> 
[67.585]
aː h <no-speech> 
[68.575]
<no-speech> 
[71.265]
aː h ʧ e ɾ i r i 
[72.465]
<no-speech> 
[76.065]
aː h 
[76.575]
<no-speech> 
[79.305]
aː h s a ɾ i 
[80.235]
<no-speech> 
[81.185]
<no-speech> 
[81.795]
<no-speech> 
[83.405]
aː h <int> 
[83.955]
<no-speech> 
[89.715]
<sta> aː h ʈ aː ʈ i e p p a ʋ a ɾ u ʋ aː r aː m 
[91.355]
<no-speech> 
[95.495]
u m u m 
[95.935]
<no-speech> 
[97.475]
aː h <int> 
[98.035]
<no-speech> 
[103.265]
aː h t̪ o ʋ a ʧ ʧ u <oov> <int> t̪ o ʋ a ʧ ʧ u p oː ʈ ʈ u k k u r eː n 
[105.405]
<no-speech> 
[107.995]
aː h p oː ʈ ʈ eː n <int> 
[108.995]
<no-speech> 
[110.265]
<no-speech> aː h s k uː l ʋ i ʈ ʈ u ʋ a n t̪ a ʋ o n n eː t̪ o ʋ a ʧ ʧ u p oː ʈ ʈ eː n 
[113.535]
<no-speech> 
[114.685]
<no-speech> aː h <no-speech> 
[118.985]
<no-speech> 
[120.195]
aː h ʧ e ɾ i r i ʧ aː p p u ɾ r eː n 
[121.365]
<no-speech> 
[123.525]
<no-speech> aː h <lipsmack> s a ɾ i 
[127.445]
<no-speech> 
[129.145]
u n t̪ u ɳ i e t̪ u n aː t̪ o ʋ a ʧ ʧ u p oː ʈ a ɳ u m aː 
[130.845]
<no-speech> 
[132.045]
<no-speech> 
[132.575]
<no-speech> 
[133.585]
<no-speech> aː h <no-speech> 
[136.545]
<no-speech> 
[138.925]
aː h <int> 
[139.495]
<no-speech> 
[145.155]
ʧ e ɾ i r i 
[145.815]
<no-speech> 
[149.605]
u m u m s k uː l l a n a l l aː n a ʈ a t̪ t̪ u n aː ŋ k a <sta> 
[151.585]
<no-speech> 
[153.575]
u m u m ʈ e s ʈ u <sta> i ɾ u k k u m eː k s u 
[156.475]
<no-speech> 
[157.405]
<no-speech> aː h s k uː l l a k u ʈ u t̪ t̪ u ʈ ʈ eː n 
[160.075]
<no-speech> 
[164.375]
aː h <sta> i n n i k k i m eː k s u ʈ e s ʈ u i ɾ u k k u n aː ɭ ai k k i 
[167.495]
<no-speech> 
[169.645]
aː h <int> n aː ɭ ai k k i i ɾ u k k u 
[171.315]
<no-speech> 
[174.145]
aː h s a ɾ i s a ɾ i <int> 
[175.265]
<no-speech> 
[177.915]
aː h <sta> ʧ e ɾ i r i 
[178.905]
<no-speech> 
[183.045]
aː h <int> 
[184.415]
<no-speech> 
[187.565]
i n n u m ʋ ai k k a l a ʋ e ʧ ʧ aː k eː k k u r eː n <int> 
[189.495]
<no-speech> 
[190.525]
<no-speech> aː h 
[191.895]
<no-speech> 
[193.135]
a p p a r a m e n n a 
[193.995]
<no-speech> 
[198.825]
a t̪ aː n ʋ a n t̪ u p aː t̪ t̪ eː n ʋ iː ʈ u <sta> p uː ʈ ʈ i ɾ u k k u ʧ e ɾ i r i t̪ u ɳ i m a ʈ ʈ u m t̪ o ʋ a ʧ ʧ u p oː ʈ ʈ u u k k aː n t̪ u ɾ u k k eː n 
[202.655]
<no-speech> 
[207.215]
a n n a k k i p oː ʈ ʈ u ɳ ʈ u p oː n oː m p u t̪ u s aː 
[209.115]
<no-speech> 
[212.415]
aː h a p p a r a m s a ɾ i 
[214.265]
<no-speech> 
[218.785]
aː h s a ɾ i <sta> s a ɾ i s a ɾ i 
[220.685]
<no-speech> 
[223.135]
u m u m ʋ eː r a e t̪ u m i l l a <sta> ʋ iː ʈ l a t̪ aː n ʋ e r u p p aː ɾ u k k u t̪ u 
[225.535]
<no-speech> 
[232.895]
u m u m <int> 
[233.345]
<no-speech> 
[235.905]
e ŋ k a <int> 
[237.065]
<no-speech> 
[238.605]
u n <sta> s e l l u l a f oː n p a ɳ ɳ a ɳ u m 
[240.115]
<no-speech> 
[242.965]
aː h <int> aː ɭ ai k aː ʈ ʈ a ʧ o l l u 
[244.305]
<no-speech> 
[246.965]
aː h <int> 
[247.555]
<no-speech> 
[251.505]
aː h 
[252.175]
<no-speech> 
[253.445]
k aː ʧ u i ɾ u k k u i ɾ u k k u i ɾ u k k u <int> 
[255.105]
<no-speech> 
[258.505]
aː h 
[259.025]
<no-speech> 
[260.125]
s a ɾ i 
[260.695]
<no-speech> 
[263.405]
k a ɾ a ɳ ʈ u i ɾ u k k aː a ŋ k a <int> 
[264.805]
<no-speech> 
[267.305]
<sta> i ɾ u k k u k eː ʈ ʈ eː n <no-speech> ʧ aː p ʈ i j aː 
[270.415]
<no-speech> 
[273.025]
aː h <sta> ʧ e ɾ i r i <no-speech> 
[274.505]
<no-speech> 
[276.965]
aː h p oː ʈ ʈ u ʋ ai k k i r eː n <no-speech> u m u m t̪ a ɳ ɳ i j eː eː r a m aː ʈ ʈ i ŋ k i t̪ u 
[280.255]
<no-speech> 
[281.645]
<no-speech> 
[282.215]
<no-speech> 
[284.375]
t̪ a ɳ ɳ i j eː eː r a m aː ʈ ʈ i ŋ k i t̪ u <int> 
[285.895]
<no-speech> 
[287.115]
<no-speech> 
[289.715]
<no-speech> 
[293.125]
aː h <sta> ʧ e ɾ i r i ʧ e ɾ i r i ʋ iː ʈ l a t̪ aː n i ɾ u k k a n 
[294.865]
<no-speech> 
[296.195]
<no-speech> u m u m 
[297.755]
<no-speech> 
[298.855]
<no-speech> 
[299.235]
<no-speech> 
[301.445]
u m u m 
[301.925]
<no-speech> 
[303.945]
s a ɾ i 
[304.595]
<no-speech> 
[308.485]
aː h e ɻ t̪ u r eː n e ɻ t̪ u r eː n <int> 
[309.795]
<no-speech> 
[311.375]
aː h e ɻ u t̪ u r eː m m aː 
[312.475]
<no-speech> 
[318.295]
<sta> aː h s a ɾ i <no-speech> 
[320.125]
<no-speech> 
[323.145]
u m u m 
[323.695]
<no-speech> 
[326.965]
ʋ iː ʈ ʈ u k k u j aː ɾ u m ʋ a ɾ l a f ɾ a ɳ ʈ u t̪ aː n i ɾ u k k aː n 
[330.075]
<no-speech> 
[332.675]
aː h 
[333.265]
<no-speech> 
[335.345]
aː h k aː l ai l a ʋ a ɾ u ʋ aː n l a e n n a k uː ʈ ʈ i n u p oː ʋ aː n 
[337.565]
<no-speech> 
[341.945]
a t̪ aː n i p p a i p p a ʋ a n t̪ u ɾ u k k u r aː n eː n 
[344.065]
<no-speech> 
[347.665]
aː h 
[348.325]
<no-speech> 
[354.165]
aː h ʧ e ɾ i r i p a ʈ i k k i r eː n <int> 
[355.445]
<no-speech> 
[359.545]
ʧ e ɾ i r i <int> 
[360.175]
<no-speech> 
[362.685]
u m u m <no-speech> ʋ eː r a e t̪ u ʋ u m i l l a <sta> 
[365.485]
<no-speech> 
[366.355]
i n n u m ʤ e k a t̪ iː s eː ʋ a ɾ l a <int> 
[368.015]
<no-speech> 
[368.965]
<no-speech> 
[369.475]
<no-speech> 
[370.695]
aː h 
[371.245]
<no-speech> 
[373.145]
s a ɾ i 
[373.745]
<no-speech> 
[378.025]
<sta> aː h aː h s a ɾ i <no-speech> 
[380.005]
<no-speech> 
[381.025]
<no-speech> aː h <no-speech> 
[382.935]
<no-speech> 
[384.685]
aː h p a ɳ r eː n p a ɳ r eː n 
[385.875]
<no-speech> 
[388.375]
u m u m 
[388.835]
<no-speech> 
[390.025]
<no-speech> 
[390.955]
<no-speech> 
[394.115]
aː h k eː k k u r eː n 
[395.135]
<no-speech> 
[397.685]
u m u m i n t̪ a m u ʈ ʈ ai <oov> <hes> m u ʈ ʈ ai k oː ɻ i p oː ʈ r u k k u k iː ɻ a ʋ a n t̪ u i ɾ u k k u 
[402.185]
<no-speech> 
[404.515]
<sta> i l l a n a m m a e ŋ k a ɾ uː m l a 
[407.095]
<no-speech> 
[410.315]
<no-speech> 
[410.815]
<no-speech> 
[412.275]
aː m aː <sta> u ɭ ɭ a p oː ʈ ʈ u u ʈ a ɲ ʧ u ʈ ʈ u ɾ u k k u <no-speech> a t̪ aː n e ʈ u t̪ t̪ u n u i ɾ u k k a n 
[416.305]
<no-speech> 
[417.335]
<no-speech> 
[417.735]
<no-speech> 
[419.165]
a t̪ aː n e ʈ u t̪ t̪ u n u i ɾ u k k a n 
[420.335]
<no-speech> 
[423.865]
e l l aː m <sta> s u t̪ t̪ a m aː u ʈ a ɲ ʧ u ʈ ʈ u i ɾ u k k u t̪ u 
[425.565]
<no-speech> 
[429.085]
u m u m 
[429.505]
<no-speech> 
[431.215]
ʋ aː ʃ i ŋ m e ʃ i n l a t̪ u ɳ i p oː ʈ ʈ i j aː 
[433.225]
<no-speech> 
[436.305]
k eː ʈ ʈ aː ŋ k a <int> 
[437.155]
<no-speech> 
[438.565]
aː h aː h s a ɾ i 
[440.145]
<no-speech> 
[444.645]
<sta> i ɾ u n t̪ aː i p p a p oː ʈ r eː n 
[445.815]
<no-speech> 
[446.635]
i ɾ u n t̪ aː <int> i p p a p oː r eː n 
[447.835]
<no-speech> 
[451.885]
aː h <no-speech> 
[453.355]
<no-speech> 
[454.275]
<no-speech> a p p a r a m <no-speech> 
[457.185]
<no-speech> 
[458.525]
aː h <sta> p a ɳ r eː n p a ɳ r eː n 
[460.445]
<no-speech> 
[462.545]
u m u m 
[462.955]
<no-speech> 
[467.035]
u m u m i n n ai k k u e ŋ k a s k uː l l a i t̪ u k aː ʈ n aː ŋ k a <sta> 
[469.795]
<no-speech> 
[471.365]
o ɾ u <sta> ʈ i ʋ i m aː r i p oː ʈ ʈ u 
[473.455]
<no-speech> 
[474.475]
<no-speech> <hes> i t̪ u m s ʈ aː ɾ a n i m eː ʃ a n s o l ʈ ʈ u o n n u 
[477.785]
<no-speech> 
[481.025]
<sta> u m u m 
[481.645]
<no-speech> 
[482.795]
<no-speech> a n t̪ a a n i m eː ʃ a n l aː m i ɾ u k k u l l a 
[485.865]
<no-speech> 
[487.345]
a t̪ u k k u k aː ʈ n aː ŋ k a 
[488.735]
<no-speech> 
[492.975]
i l l a i l l a oː ɾ f aː ɾ m <foreign> p a ɳ ɳ i t̪ a ɾ a s o n n aː ŋ k a 
[495.555]
<no-speech> 
[498.355]
a t̪ u a ŋ k a j eː <foreign> p a ɳ ɳ i t̪ a n t̪ u ʈ ʈ eː n 
[500.125]
<no-speech> 
[503.075]
aː m aː <int> 
[503.625]
<no-speech> 
[508.195]
a t̪ u ʋ aː a t̪ u e p p oː n n u t̪ e ɾ i l a au ŋ k a s o l s o l l u ʋ aː ŋ k a ɭ aː m 
[511.265]
<no-speech> 
[513.055]
<no-speech> u m u m 
[514.045]
<no-speech> 
[516.305]
ʧ e ɾ i r i <int> 
[516.975]
<no-speech> 
[519.655]
ʋ eː r a <sta> i ŋ k i l iː ʃ l a h oː m ʋ o ɾ k u m eː k s u i t̪ u m k a m p i j uː ʈ ʈ a ɾ k ɭ aː s u e ʈ u k k a s o n n aː ŋ k a 
[524.765]
<no-speech> 
[527.025]
u m u m <int> 
[527.435]
<no-speech> 
[529.355]
aː h s a ɾ i m u ʈ i k k i r eː n 
[531.085]
<no-speech> 
[536.695]
ʤ oː t̪ i k k u l aː m k aː m a n aː <int> 
[537.955]
<no-speech> 
[540.295]
aː h <int> 
[540.905]
<no-speech> 
[543.935]
p oː t̪ u e n n a 
[545.065]
<no-speech> 
[547.505]
<sta> a p p a r a m 
[548.385]
<no-speech> 
[552.515]
aː h <sta> a ʋ a n k oː ɻ i p i ʧ ʧ u p oː ʈ ʈ u ʈ ʈ u p oː l a j aː 
[555.415]
<no-speech> 
[557.335]
eː a ŋ k a t̪ aː n <no-speech> 
[558.885]
<no-speech> 
[560.845]
aː h <int> 
[561.385]
<no-speech> 
[562.255]
u m u m <int> 
[562.645]
<no-speech> 
[563.545]
u m u m 
[563.895]
<no-speech> 
[566.835]
u m u m 
[567.345]
<no-speech> 
[572.295]
aː h s a ɾ i <int> 
[573.085]
<no-speech> 
[576.915]
<no-speech> p i ʈ i l a ʋ e ɭ aː ʈ n eː n 
[579.005]
<no-speech> 
[580.015]
<no-speech> p i ʈ i l a ʋ e ɭ aː ʈ n eː n 
[582.665]
<no-speech> 
[586.365]
p i ʈ i l a ʋ e ɭ aː ʈ n eː n <int> 
[587.955]
<no-speech> 
[588.905]
<no-speech> 
[589.685]
<no-speech> 
[593.065]
aː h n a l l aː t̪ aː n i ɾ u k k u 
[594.595]
<no-speech> 
[598.015]
<sta> s a ɾ i aː h 
[599.465]
<no-speech> 
[600.260]
