[0.000]
<no-speech> 
[5.335]
<no-speech> 
[5.925]
<no-speech> 
[7.655]
h a l oː 
[8.275]
<no-speech> 
[10.095]
a ŋ k a t̪ aː n 
[10.845]
<no-speech> 
[17.695]
h a l oː 
[18.475]
<no-speech> 
[20.535]
k eː k k u t̪ aː ʈ aː 
[21.505]
<no-speech> 
[24.635]
ɾ o m p a n eː ɾ a m p eː s i ɾ aː t̪ eː ʧ o l r eː n n iː 
[26.785]
<no-speech> 
[29.155]
e ʋ ɭ oː n eː ɾ a m k a ɻ i ʧ ʧ i ʈ aː h a l oː n n u ʧ o l r eː n 
[31.495]
<no-speech> 
[32.315]
<no-speech> 
[32.665]
<no-speech> 
[36.815]
e l l aː m e n ʋ i t̪ i <sta> eː n a n t̪ a p eː p p a ɾ k e ʈ a ʧ ʧ i ʈ u ʧ ʧ i p eː p p a ɾ aː h a t̪ a t̪ aː n u n k i ʈ ʈ a s o l l aː m n u f oː n p a ɳ ɳ eː n 
[47.025]
<no-speech> 
[49.095]
<sta> a t̪ u eː n f a ɾ s ʈ u e ʈ u k k a l a ʋ eː s ʈ aː e n a k k u o ɾ u oː ɾ ɾ uː p aː p oː ʧ ʧ u ʈ aː n aː j eː 
[55.185]
<no-speech> 
[60.905]
a ʈ a n aː j eː 
[62.095]
<no-speech> 
[63.005]
u m u m <sta> a t̪ u t̪ aː n u n a k k u f oː n p a ɳ ɳ i s a ɾ i ʈ iː ʈ ʈ e j l aː s o l l a l aː m 
[67.755]
<no-speech> 
[71.345]
aː h <no-speech> ʋ iː ʈ ʈ u k k u ʋ a n ʈ ʈ i j aː 
[74.695]
<no-speech> 
[75.595]
<no-speech> 
[75.945]
<no-speech> 
[77.845]
aː n a n t̪ a n a ʋ a ŋ k a a ɳ ɳ a n u k k u k a l j aː ɳ a ŋ k a r aː ɳ ʈ aː 
[80.165]
<no-speech> 
[81.475]
<no-speech> 
[82.335]
<no-speech> 
[83.465]
a n n a k k i ʋ a n t̪ aː n u n a k k u f oː n p a ɳ ɳ aː n t̪ e ɾ i j u m aː 
[86.415]
<no-speech> 
[88.725]
<sta> a n n a k k i s o l l i ʈ ʈ u p oː n aː n a ŋ k a ɳ ɳ a n u k k u k a l j aː ɳ a m ʈ aː ʋ a n t̪ i ɾ u ʈ aː n ʈ ʈ u 
[92.955]
<no-speech> 
[96.105]
<sta> e ŋ k i ʈ ʈ a s o n n aː n e ŋ k a 
[102.685]
<no-speech> 
[104.485]
n a m m a ʋ iː ʈ ʈ aː ɳ ʈ a i ŋ k a j aː k o ɾ u k k u p eː ʈ ʈ a j aː 
[108.095]
<no-speech> 
[112.055]
u m u m a p ʈ i j aː aː h 
[113.525]
<no-speech> 
[117.015]
<no-speech> 
[118.025]
<no-speech> 
[119.895]
<sta> aː h e p p a ʋ a ɾ eː 
[124.075]
<no-speech> 
[126.635]
k aː t̪ a l ʋ i ɭ ai j aː ʈ ʈ u i p p a e ŋ k i ʈ ʈ a i ɾ u k k u e l l aː m k aː l eː ʤ l a s iː m aː n n u k uː ʈ a ʋ aː ŋ k i ʈ ʈ u p oː ʋ aː 
[131.625]
<no-speech> 
[132.515]
e ŋ k i ʈ ʈ a t̪ aː n ʈ aː i ɾ u k k u k a ʋ a l ai j i l l a e ŋ k i ʈ ʈ a t̪ aː n i ɾ u k k u 
[137.315]
<no-speech> 
[138.355]
p eː p p a ɾ n aː n ʋ e ʧ ʧ i k k i r eː n n iː e p p a ʋ eː ɳ ɳ aː ʋ a n t̪ u ʋ aː ŋ k i ʈ ʈ u p oː ʧ iː k k i ɾ a m aː ʋ a n t̪ u ʋ aː ŋ k i ʈ ʈ u p oː n aː k k uː ʈ a p oː 
[142.825]
<no-speech> 
[146.585]
u m u m ʧ e ɾ i r i n aː n ʋ a n t̪ u ʋ aː ŋ k i k k oː 
[150.175]
<no-speech> 
[152.965]
u m u m 
[153.395]
<no-speech> 
[155.295]
a ɳ ɳ eː i p p a j aː ʋ a t̪ u t̪ e ɾ i ɲ ʧ i ʧ ʧ aː u ŋ k a ɭ u k k u e n n a k k i l eː p ʈ aː p u t̪ a ɾ aː ŋ k a n ʈ ʈ u 
[158.165]
<no-speech> 
[160.285]
l eː p ʈ aː p u e p p a t̪ aː ɾ aː ŋ k a n n u t̪ e ɾ i ɲ ʧ i ʧ ʧ aː <sta> 
[163.715]
<no-speech> 
[165.245]
aː h <sta> l eː p ʈ aː p u e p p a 
[177.185]
t̪ a ɾ aː ŋ k a n u t̪ e ɾ i ɲ ʧ i ʧ ʧ aː u n a k k u <sta> 
[179.255]
<no-speech> 
[186.745]
<sta> k u ʈ u k k a r aː ŋ k a n n u t̪ e ɾ i ɲ ʧ i ʧ ʧ aː f aː ɾ m e l l aː m k u ʈ u t̪ t̪ aː ŋ k a ɭ eː oː ɾ f aː ɾ m f i l p a ɳ ɳ i i t̪ u ʋ e l l aː m i t̪ u ɾ eː ʃ a ɳ k aː ɾ ʈ e l l aː m s e k u p a ɳ ɳ i ʈ ʈ aː ŋ k a ɭ aː m 
[193.275]
<no-speech> 
[195.715]
ɾ eː ʃ a ɳ k aː ɾ ʈ u <sta> 
[197.565]
<no-speech> 
[200.575]
aː h 
[201.145]
<no-speech> 
[202.365]
<no-speech> 
[202.825]
<no-speech> 
[204.635]
aː h 
[205.385]
<no-speech> 
[213.565]
a t̪ a <foreign> i ʋ a ŋ k a ɾ eː ʃ a ɳ k aː ɾ ʈ e l l aː m s e k u p a ɳ ɳ a ʋ eː ɳ ʈ i j a t̪ u t̪ aː n eː <int> 
[217.275]
<no-speech> 
[219.775]
p a ɳ ɳ u ʋ aː ŋ k a a t̪ e l l aː m m e j i n aː s e k u p a ɳ ɳ i ʈ ʈ u t̪ aː n k u ʈ u k k i r aː ŋ k a u m u m u n ɾ eː ʃ a ɳ k aː ɾ ʈ u p aː j k a m j uː ɳ i ʈ ʈ i s a ɾ ʈ ʈ i f i k eː ʈ u u n ai ʈ i n ʈ i k aː ɾ ʈ u e l l aː m s e ɾ aː k s u e ʈ u t̪ t̪ u ʋ e ʧ ʧ u k k oː 
[229.785]
<no-speech> 
[231.365]
oː ɾ n aː ɭ s e k u p a ɳ ɳ u ʋ aː ŋ k a <sta> i n n ai k k u e n n a p a ɳ r eː n e l l aː t̪ t̪ ai j u m p a t̪ t̪ i ɾ a m aː p ai k l a ʋ e ʧ ʧ u e ʈ u t̪ t̪ u n u p oː e t̪ u n aː u ʈ ʈ u p oː n aː k k uː ʈ a o ɾ i ʤ i n a l e ʈ u t̪ t̪ u ʈ ʈ u p oː e l l aː t̪ t̪ u l eː j u m 
[238.375]
<no-speech> 
[241.925]
e n n a m uː n u o ɾ i ʤ i n a l m uː n u m uː n u m eː s e ɾ aː k s u e ʈ u t̪ t̪ u k i n u p oː e t̪ u n aː u ʈ ʈ u k i ʈ ʈ u p oː j ʈ ʈ a n n aː t̪ i ɾ u m p i e l l aː m ʋ a ɾ a m u ʈ i j aː t̪ u u n n aː l a <laugh> 
[248.405]
<no-speech> 
[251.625]
u m u m ʧ e ɾ i r i u m u m 
[253.555]
<no-speech> 
[254.935]
k e ʈ a ʧ ʧ i ʧ ʧ aː ʈ aː o n a k k aː u ŋ k a ɭ u k k u m 
[257.445]
<no-speech> 
[260.505]
e n n a ʈ aː 
[261.215]
<no-speech> 
[265.205]
e n a k k u e ŋ k a k u ʈ u t̪ t̪ u ʈ ʈ u a p ʈ i j eː ʋ iː ʈ l a t̪ aː n t̪ aː n k e ʈ a k k u t̪ u s u m m aː t̪ aː n 
[268.695]
<no-speech> 
[270.195]
<no-speech> 
[270.595]
<no-speech> 
[272.255]
e ɳ ɳ aː p a ɳ r a t̪ u o n n u m t̪ e ɾ i j a l a n e ʈ u i ɾ u n t̪ aː k uː ʈ a j uː s u p a ɳ ɳ a l aː m e ɳ ɳ aː p a ɳ ɳ a m u ʈ i j u m s u m m aː ʋ iː ʈ i j oː p aː k k a l aː m n aː k uː ʈ a ʈ i ʋ i l a p oː ʈ ʈ i p e ɳ <foreign> p oː ʈ ʈ u 
[282.785]
<no-speech> 
[289.745]
aː m aː 
[290.595]
<no-speech> 
[294.745]
k aː ɾ ʈ u ɾ e ʈ i j aː ʋ e ʧ ʧ u ɾ u k k a r a j aː i l l ai j aː 
[297.625]
<no-speech> 
[302.075]
aː m aː ʈ ai ʈ ʈ aː k aː ɾ ʈ u aː h 
[304.545]
<no-speech> 
[307.875]
<sta> a t̪ u ʋ e ʧ ʧ i ɾ u k k i j aː n iː 
[311.245]
<no-speech> 
[313.675]
a t̪ u m aː ɾ i e ʈ u t̪ t̪ aː n a l l aː t̪ aː n t̪ aː n i ɾ u k k u m a n t̪ a ʈ ai ʈ ʈ aː e ʈ u t̪ t̪ aː l eː aː j i ɾ a t̪ t̪ i ai n n uː r u ɾ uː p aː ʋ a ɾ u t̪ u 
[317.825]
<no-speech> 
[320.955]
<sta> aː m aː 
[324.255]
<no-speech> 
[326.425]
aː h 
[327.255]
<no-speech> 
[328.075]
<no-speech> 
[328.905]
<no-speech> 
[331.915]
ʈ uː p ɭ i k eː ʈ ʈ u n aː n <sta> ʧ o l r a t̪ u a n t̪ a s i m ʋ eː ɳ ɳ aː p oː ʈ ʈ u j uː s u p a n r a t̪ u k k u l aː ʋ aː l a u ʈ ʈ u k k i r aː n m ai k ɾ oː m eː k s u ɾ e ɳ ʈ u k a m p e n i u ʈ ʈ u ʋ e ʧ ʧ i ɾ u k k aː n a ʋ a n u ŋ k a i n n u m e n n a k eː k k a r a t̪ u aː j i ɾ a m ɾ uː p aː aː j i ɾ a t̪ t̪ i aː j i ɾ a m ɾ uː p aː ʋ a ɾ u t̪ u aː j i ɾ a m ɾ uː p aː 
[343.715]
a p ʈ i k eː k k a r aː n n u oː ɾ k eː ʈ ʈ aː k eː ɭ u a n t̪ a a ɭ au k k u o ɳ ɳ u m 
[347.155]
<no-speech> 
[348.255]
aː h 
[348.875]
<no-speech> 
[349.735]
<no-speech> 
[350.105]
<no-speech> 
[352.485]
n iː eː n l eː ʈ ʈ u 
[353.625]
<no-speech> 
[354.605]
<no-speech> 
[354.995]
<no-speech> 
[358.935]
a n t̪ a oː ɾ ʈ ai ʈ ʈ aː k aː ɾ ʈ u t̪ aː n ʋ e ʧ ʧ u j uː s u p a ɳ ɳ a p oː r aː ɾ l eː p l a p i n n a e n n a o j a ɾ l a j aː k a n e k ʈ u p a ɳ ɳ a p oː r aː ɾ p i e s u e n e l l eː n ʈ u l ai n l aː m ʋ eː l ai k k i aː k aː t̪ u l eː p ʈ aː p p u k k u ʈ ai ʈ ʈ aː k aː ɾ ʈ u a t̪ u ʋ aː ŋ k i 
[369.815]
i n n ai k k u ɾ i l ai j a n s u <sta> o ɳ ɳ u m p aː t̪ t̪ eː n aː j i ɾ a t̪ t̪ i i ɾ u n uː r u ɾ uː p aː j aː m t̪ i ɾ iː p aː j i ɳ ʈ u e m p i e s u s p iː ʈ u 
[375.515]
<no-speech> 
[379.895]
<sta> n iː n iː <oov> n iː ʋ aː ŋ k i ʈ u ʋ eː n n eː t̪ t̪ i 
[383.795]
<no-speech> 
[387.175]
<no-speech> e n n a ʈ aː 
[391.475]
<no-speech> 
[392.625]
<sta> aː h k aː l ai j i l a f i ɾ a ʃ ʃ aː k u ʈ u k k a p oː r aː ŋ k a u ŋ k a ɭ u k k u 
[399.535]
<no-speech> 
[400.455]
<no-speech> 
[401.775]
<no-speech> 
[402.855]
aː h 
[403.505]
<no-speech> 
[406.155]
<sta> ʋ aː ŋ k i ʈ ʈ u n iː j e l l aː m a p ʈ i j eː n iː p a r a p p eː a p ʈ i j eː f eː s u p u k u t̪ aː n s e ʈ ʈ i ŋ t̪ aː n a p ʈ i j eː p e ɾ i j a aː ɭ aː j i ʈ u ʋ eː n iː 
[417.095]
<no-speech> 
[418.355]
<sta> n iː p e ɾ i j a aː ɭ aː j i ʈ u ʋ eː f eː s u p u k u k i s u p u k u e l l aː m p oː j i ʈ ʈ u n aː ŋ k e l l aː m s i n n a p a s a ŋ k a 
[424.335]
<no-speech> 
[426.335]
aː h 
[427.005]
<no-speech> 
[430.265]
a t̪ aː n ʧ o l r eː n n iː j u m aː ɭ t̪ aː n p e ɾ i j a aː ɭ t̪ aː n 
[435.625]
<no-speech> 
[439.165]
oː a p ʈ i j aː 
[440.465]
<no-speech> 
[442.145]
<sta> ʋ iː ʈ l a j aː ɾ i ɾ u k k a r aː 
[444.885]
<no-speech> 
[447.705]
u m u m e n n a p a ɳ r eː n <sta> ʋ iː ʈ l a l au ʈ u s p iː k k a ɾ l eː eː n ʈ aː p eː ʧ a r eː 
[451.895]
<no-speech> 
[456.785]
a p ʈ i j aː ʧ e ɾ i r i <foreign> 
[458.425]
<no-speech> 
[459.225]
e n n a ʋ aː m 
[459.875]
<no-speech> 
[462.735]
<no-speech> 
[463.185]
<no-speech> 
[465.385]
<laugh> n aː n ʋ e ʧ ʧ i ɾ u ʋ eː n u n a k k u k a ʈ u p a ɳ ɳ i ɾ u p p i j aː k a ʈ u p a ɳ ɳ i ɾ u p p i j aː n iː 
[471.495]
<no-speech> 
[476.395]
u m u m n a l l aː t̪ aː n eː ʈ aː k eː k k u t̪ u e n a k k u 
[478.145]
<no-speech> 
[479.125]
n iː p eː ʧ a r a t̪ u e n a k k u k ɭ iː n aː k eː k k u t̪ u 
[480.905]
<no-speech> 
[481.725]
<no-speech> 
[482.395]
<no-speech> 
[484.525]
e ɳ ɳ aː s e l l u m j uː s u <oov> e n n a s i m i t̪ u m 
[486.355]
<no-speech> 
[489.135]
a t̪ u 
[490.975]
<no-speech> 
[493.235]
aː n aː oː ɾ eː ɾ ʧ e l oː ɾ eː ɾ ʈ e l ʋ aː ŋ k i ʋ e ʧ ʧ u k k oː n e ʈ u j uː s u p a n r a t̪ u k k u j uː s aː k u m 
[496.935]
<no-speech> 
[499.345]
i n n o ɾ s i m k aː ɾ ʈ u ʋ aː ŋ k i k k a ʈ aː n iː 
[501.415]
<no-speech> 
[503.635]
eː ɾ ʈ e l ʋ e ʧ ʧ i ɾ u k k i j aː 
[505.085]
<no-speech> 
[506.075]
<no-speech> 
[506.445]
<no-speech> 
[510.445]
a t̪ a j uː s u p a ɳ r a n n ai k k eː n iː j e l l aː m ʋ aː ŋ k i k k oː 
[513.675]
<no-speech> 
[515.265]
oː ɾ ʋ aː ɾ a m aː k u t̪ u aː k ʈ i ʋ eː ʃ a n u k k u n e ʈ u p oː ʈ a r a t̪ u k k u ʈ o k oː m aː ʋ a ʋ i ʈ a eː ɾ ʈ e l eː ɾ ʧ e l p oː ʈ ʈ u k oː <sta> eː ɾ ʧ e l p oː ʈ ʈ u k oː 
[523.695]
<no-speech> 
[526.075]
eː ɾ ʈ e l l a t̪ aː n n uː t̪ t̪ i j ai m p a t̪ u ɾ uː p aː j aː m ʈ ai ʈ ʈ aː k aː ɾ ʈ u s o n n eː n i l l ai j aː a n t̪ a <foreign> k a n e k ʈ u p a ɳ ɳ i oː ɾ <foreign> p oː ʈ a r a m aː ɾ i 
[531.635]
<no-speech> 
[533.815]
a t̪ u n uː t̪ t̪ i e m p a t̪ u ɾ uː p aː ʧ i ʧ iː n uː t̪ t̪ i ai m p a t̪ u ɾ uː p aː j aː m ʈ uː ʤ i <sta> 
[539.565]
<no-speech> 
[540.865]
<sta> t̪ i ɾ iː ʤ i ʋ a n t̪ u e r a n uː t̪ t̪ i ai m p a t̪ u ɾ uː p aː j aː m o n ʤ i p i t̪ aː n ʈ uː ʤ i n n aː oː n l i m i ʈ e ʈ ʈ aː m 
[547.705]
<no-speech> 
[550.755]
ʈ uː ʤ i j eː k u ʈ u a t̪ aː n p aː k k u r eː n n aː n k uː ʈ a p oː ʈ ʈ u p aː t̪ t̪ a t̪ i l l a oː ɾ m aː s a m j uː s u p a ɳ ɳ i p aː k k a l aː m e p p a ʈ i i ɾ u k k u t̪ u n u e ɳ ɳ aː ʧ o l r eː n 
[555.585]
<no-speech> 
[559.805]
a t̪ aː n k eː k k u r eː n oː ɾ ʋ aː ʈ ʈ i p oː ʈ ʈ u ʋ e ʧ ʧ u k k oː n aː n k uː ʈ a a t̪ u t̪ aː n <sta> p a ɳ ɳ a p oː r eː n i p p a ʈ uː ʤ i t̪ aː n k a n e k ʈ u p a ɳ ɳ a l aː m n u i ɾ u k k i r eː n oː n uː t̪ t̪ i j ai m p a t̪ u t̪ aː n eː ʋ iː ʈ l a e p ʈ i j u m k i ɭ i k k aː j i ʈ u m 
[569.805]
<no-speech> 
[571.575]
<sta> <no-speech> ʈ uː ʤ i n n aː ʈ uː p aː j i ɳ ʈ u e m p i e s u s p iː ʈ u ʋ a ɾ u t̪ aː m ʈ uː e m p i e s u s p iː ʈ u ʋ a ɾ u t̪ aː m 
[583.355]
<sta> a t̪ u t̪ aː n i ŋ k a s e l l u l a i p p a s i m o ɳ ɳ u m ʋ e ʧ ʧ u j uː s u p a n r eː n i n n ai k k u eː ɾ ʈ e l <foreign> aː j i ʈ u ʧ ʧ u i p p a i n i n eː t̪ t̪ u m t̪ aː n aː j i ʈ u ʧ ʧ u n eː t̪ t̪ i iː ʋ n i ŋ u aː j i ʈ u ʧ ʧ u i n n ai k k u <foreign> 
[594.295]
<no-speech> 
[595.835]
<no-speech> 
[596.225]
<no-speech> 
[598.075]
m u p p a t̪ u ɾ uː p aː i ɾ u n t̪ a t̪ u 
[599.585]
ɾ uː ʋ aː 
[600.020]
