[0.000]
<no-speech> 
[8.635]
<no-speech> 
[9.015]
<no-speech> 
[11.045]
<no-speech> 
[12.055]
<no-speech> 
[15.505]
<no-speech> 
[17.085]
<no-speech> 
[19.105]
s u ɾ eː ʃ u m aː m aː ʋ ai p aː t̪ t̪ aː ʈ aː 
[20.465]
<no-speech> 
[23.655]
p aː k k a l a j aː 
[24.645]
<no-speech> 
[27.335]
u m u m u m u m 
[27.985]
<no-speech> 
[31.845]
aː m aː m a t̪ u k eː k k a n u m t̪ aː n i ɾ u n t̪ eː n e n n aː ʧ ʧ u 
[33.975]
<no-speech> 
[37.305]
p u ɾ i j a l a 
[38.015]
<no-speech> 
[40.615]
ʋ a n t̪ u ʈ ʧ ʧ aː 
[41.655]
<no-speech> 
[44.855]
ʈ eː ʈ u aː f u p a ɾ t̪ u 
[45.735]
<no-speech> 
[49.945]
u m u m 
[50.555]
<no-speech> 
[54.505]
a p p a r a m e n n a t̪ aː n p i ɾ aː p i ɭ a m i p p a e t̪ aː ʋ a t̪ u <foreign> p a ɳ ɳ a m u ʈ i j u m aː i l l a m u ʈ i j aː t̪ aː 
[57.215]
<no-speech> 
[61.395]
aː n 
[62.095]
<no-speech> 
[66.135]

[66.855]
<no-speech> 
[72.595]
i n n u m o n ʋ iː k u aː k u m aː a t̪ u k k u 
[74.055]
<no-speech> 
[77.085]

[77.585]
<no-speech> 
[80.375]
ʋ i k ɾ a m m a j aː 
[81.165]
<no-speech> 
[86.115]
i l l a ʋ a ɾ a t̪ i ŋ k a k k i ɻ a m a j aː 
[87.585]
<no-speech> 
[89.965]
eː a t̪ u k k u p eː s aː m a n iː ʈ i s iː eː p i s i eː a ʈ i ʧ ʧ i ʈ ʈ u p oː j ʈ a l aː m l a 
[93.205]
<no-speech> 
[99.265]
aː n 
[99.995]
<no-speech> 
[103.695]
u m u m 
[104.285]
<no-speech> 
[109.855]
j aː ɾ s u ɾ eː ʃ u m aː m aː s o n n aː ɾ aː m 
[111.315]
<no-speech> 
[116.065]
aː n 
[116.655]
<no-speech> 
[119.245]
oː k eː j 
[119.935]
<no-speech> 
[127.065]
u m u m e n n oː ʈ a l ai s a n s l a j eː a p p aː ʋ u ʈ a j a n eː m ʋ a n t̪ u t̪ a p p aː t̪ aː n i ɾ u k k u a t̪ aː ʋ a t̪ u oː e l ai n n u p oː ʈ ʈ a t̪ u k k u oː e l p i aː ɾ eː a p ʈ i n n u p oː ʈ ʈ u ʋ a ʧ ʧ i ɾ u k k aː ŋ k a 
[134.665]
<no-speech> 
[137.685]
a t̪ u n aː n eː p ɭ aː k u p e n l a a p p i ʈ i j eː ai p oː ʈ ʈ u ɳ ʈ eː n 
[140.565]
<no-speech> 
[151.855]
aː n 
[152.505]
<no-speech> 
[156.655]

[157.020]
