[0.000]
<no-speech> 
[0.155]
<no-speech> h a l oː <no-speech> h a l oː 
[11.495]
<no-speech> aː h <oov> n aː n aː t̪ i p eː ʧ u r eː n 
[13.455]
<no-speech> 
[15.075]
<no-speech> aː h e n n a p a ɳ ɳ i k k u n u i ɾ u k k i r iː ŋ k a 
[16.715]
<no-speech> 
[18.025]
<no-speech> aː h 
[18.605]
<no-speech> 
[21.925]
<no-speech> n aː n t̪ aː n p eː s a ɳ u m a t̪ aː n a t̪ u a t̪ u a n t̪ a p ɾ aː ʤ a k ʈ k u k o ʃ a ɾ a m aː f iː s l a a t̪ aː t̪ u p a ɳ ɳ i j eː aː k a ɳ u m o ɾ u a ɲ ʧ u n i m i ʃ a m p eː s i j eː aː k a ɳ u m a t̪ aː n p eː s i ʈ ɾ u k k eː n a ŋ k a <no-speech> aː h m eː l a <no-speech> ʤ oː t̪ i j eː a ʈ i k k u r a p p a e n n a p a ɳ ɳ u ʋ eː n 
[32.315]
<no-speech> 
[34.705]
<no-speech> aː h 
[35.175]
<no-speech> 
[36.695]
<no-speech> aː h <no-speech> aː h aː n 
[39.785]
<no-speech> 
[41.685]
<no-speech> 
[42.675]
<no-speech> 
[45.925]
<no-speech> 
[46.325]
<no-speech> 
[47.685]
<no-speech> 
[48.765]
<no-speech> 
[51.015]
<no-speech> eː j e n n a ʈ aː p a ɳ r a 
[52.045]
<no-speech> 
[53.535]
<no-speech> aː h p e ɾ i j a n iː t̪ aː n a ʤ oː t̪ i p e r a n aː n aː n r a 
[56.255]
<no-speech> 
[58.535]
<no-speech> e n n a t̪ a ɳ ɳ i j aː s aː p ʈ u ɾ u k k a 
[59.725]
<no-speech> 
[62.175]
a t̪ u eː n k u ʈ i k aː ɾ a n m aː ɾ i p eː ʧ i k k u n u r a <no-speech> <oov> 
[65.695]
<no-speech> 
[67.065]
<no-speech> aː h 
[67.755]
<no-speech> 
[69.225]
<no-speech> e n n a ʋ i ʃ a j a m aː 
[72.075]
<no-speech> 
[74.865]
<sta> aː m aː a n t̪ a <foreign> k o ʃ a ɾ a m p eː s i n ʈ ɾ u k k oː m p a s a ŋ k a a n t̪ a p u ɾ aː ʤ e k ʈ u a t̪ u ʋ a n t̪ u e l l aː ɾ k i ʈ ʈ a j u m a ɲ ʧ u n i m i ʃ a m p a t̪ t̪ u n i m i ʃ a m p eː s a ɳ u m a p p a t̪ aː n a ʋ a n u k k u a n t̪ a <no-speech> n a m p a ɾ l a ʋ a n t̪ u a ʋ a n u k k u s eː ʋ aː k u m 
[83.685]
<no-speech> 
[87.385]
<sta> ʧ i ʧ iː <no-speech> a t̪ aː n i ʋ a n a n t̪ a <foreign> k o ʃ a ɾ a m f oː n l a p eː s u n a n aː a t̪ u a ʋ a n a ʋ a n k a m p j uː ʈ ʈ a ɾ l a ʋ a n t̪ u i t̪ t̪ i n a p eː ɾ k i ʈ ʈ a i ʋ ɭ oː p eː ɾ n i m i ʃ a t̪ t̪ u l a p eː s i ɾ u k k aː ŋ k a n u s o l l i a p ʈ i j eː s eː ʋ aː k u m <no-speech> aː m aː 
[98.845]
<no-speech> 
[100.135]
<no-speech> h a ɾ i e n n a p a ɳ r aː n <no-speech> <hes> 
[101.855]
<no-speech> 
[103.035]
<no-speech> 
[103.425]
<no-speech> 
[105.525]
<no-speech> i n n a t̪ u 
[106.205]
<no-speech> 
[108.135]
<no-speech> p eː ʈ ɾ i j aː n iː i n t̪ a p eː ʈ ɾ i j eː p oː ʈ ʈ u k oː a ʋ a n i n n u m ʋ a ɾ a ʋ eː i l l a i n n ai k k u ʋ eː l ai k k eː ʋ a ɾ l a a ʋ a n <no-speech> aː m aː 
[115.525]
<no-speech> 
[118.485]
<no-speech> e n t̪ a s e ʈ u 
[121.505]
<no-speech> 
[123.075]
<no-speech> n aː n ʋ a ɾ a ʋ eː ɳ aː p aː ʈ ʈ u k eː ʈ n u ʋ a ɾ u ʋ eː l l a n iː u ŋ k a ai p eː ʈ u e n n a n aː u ŋ k a oː n a ɾ u ŋ k a <hes> i t̪ u k i ʈ ʈ a k u ʈ u t̪ t̪ u ʈ ʈ a <no-speech> u ŋ k a m eː ʈ a m k i ʈ ʈ a k u ʈ u t̪ t̪ u ʈ ʈ a 
[131.595]
<no-speech> 
[133.095]
<no-speech> <hes> 
[136.495]
<no-speech> 
[138.355]
<no-speech> <oov> 
[139.725]
<no-speech> 
[140.775]
<no-speech> 
[141.265]
<no-speech> 
[147.735]
<no-speech> 
[148.365]
<no-speech> 
[149.645]
<no-speech> ʈ eː j h a ɾ i ʤ oː t̪ i 
[151.015]
<no-speech> 
[152.235]
<no-speech> h a l oː 
[152.765]
<no-speech> 
[153.585]
<no-speech> h a l oː 
[155.635]
<no-speech> 
[157.055]
<no-speech> eː j e n n a ʈ aː p a ɳ r a 
[158.565]
<no-speech> 
[159.835]
<no-speech> 
[160.205]
<no-speech> 
[161.305]
<no-speech> k u ɳ ʈ i j a n oː n ʈ i k i ʈ ʈ u i ɾ u k k i j aː 
[162.645]
<no-speech> 
[164.585]
<no-speech> aː h <no-speech> eː n ʈ aː ʈ eː j a ɲ ʧ u k ai j ai j u m ʋ a ʧ ʧ u n oː n ʈ i k i ʈ ʈ u i ɾ u k k i j aː ʈ aː 
[173.755]
<no-speech> 
[176.085]
<no-speech> m a ʧ ʧ aː n m a ʧ ʧ aː n a ʈ ʈ a k aː s a m t̪ aː ŋ k a m u ʈ i j a l a <laugh> m eː l a e n n a ʈ aː p a ɳ ɳ i k k u n u i ɾ u k k u r a <no-speech> ʈ i ʋ i p aː t̪ t̪ u ʈ ʈ u i ɾ u k k i j aː 
[187.045]
<no-speech> 
[188.665]
<no-speech> t̪ u ɾ ai <no-speech> t̪ u ɾ ai e n n a ʈ aː p a ɳ r aː n 
[191.065]
<no-speech> 
[194.165]
<no-speech> aː h 
[194.665]
<no-speech> 
[196.645]
<no-speech> s aː p ʈ iː ŋ k a ɭ aː 
[198.085]
<no-speech> 
[200.565]
<no-speech> aː n <sta> 
[201.575]
<no-speech> 
[202.525]
<no-speech> h a l oː 
[203.095]
<no-speech> 
[204.865]
<no-speech> ʧ aː p ʈ i j aː 
[205.775]
<no-speech> 
[208.725]
<no-speech> n aː n ʧ aː p ʈ eː n <no-speech> 
[210.295]
<no-speech> 
[213.095]
<no-speech> 
[213.535]
<no-speech> 
[214.525]
<no-speech> <oov> f oː n p a ɳ ɳ aː n 
[215.705]
<no-speech> 
[218.605]
<no-speech> aː m aː aː m aː 
[219.505]
<no-speech> 
[220.395]
<no-speech> a ʋ a n l au ʋ a ɾ u k k u ʋ a n t̪ u eː t̪ oː ʋ eː ɳ u n n u s o l l i k eː ʈ ʈ aː n <no-speech> a ʋ a n l au ʋ a ɾ u k k u eː t̪ oː ʋ eː ɳ u n n u s o l l i k eː ʈ ʈ aː n ʈ aː <no-speech> a t̪ u n aː l a ɾ e ʈ i p a ɳ ɳ i n ʈ ɾ u n t̪ eː n 
[232.035]
<no-speech> 
[234.775]
<no-speech> f oː n ʋ eː ɳ u m s o l l i ɾ u n t̪ aː n ʈ aː 
[236.875]
<no-speech> 
[238.885]
<no-speech> aː h <sta> 
[240.465]
<no-speech> 
[241.865]
<no-speech> a ʋ a n u k k u eː t̪ oː f oː n ʋ eː ɳ u m s o l l i ɾ u n t̪ aː n ʈ aː a ʋ a n 
[244.595]
<no-speech> 
[247.035]
<no-speech> aː h n oː k k i j aː f oː n 
[248.425]
<no-speech> 
[251.495]
aː m aː aː m aː <no-speech> aː h s a ɾ i s a ɾ i i t̪ u i t̪ u m m a m m i e n n a p a ɳ ɳ a k u ɳ ʈ u m a m m i <no-speech> aː h 
[261.525]
<no-speech> 
[263.585]
<no-speech> aː h 
[264.165]
<no-speech> 
[266.155]
<no-speech> aː h <no-speech> 
[267.975]
<no-speech> 
[269.215]
<no-speech> aː h h a m 
[269.865]
<no-speech> 
[271.375]
<no-speech> f ai ʋ o n s i k s u 
[272.035]
<no-speech> 
[275.665]
oː <int> e n n a t̪ u 
[276.705]
<no-speech> 
[277.565]
<no-speech> 
[277.915]
<no-speech> 
[278.975]
<no-speech> ʈ eː ʈ ʈ i j aː 
[279.705]
<no-speech> 
[280.825]
<no-speech> 
[281.305]
<no-speech> 
[283.445]
k i ɾ i k k e ʈ u <foreign> e t̪ u k k u n aː n a ŋ k a j eː i l l a n aː n u m n aː n a ŋ k a i l l a n aː n aː f iː s u ʋ eː r a ʈ aː a t̪ u n aː n e p p a ʈ i ʈ aː a ŋ k a p oː j k i ɾ i k k e ʈ u p eː ʈ ʈ u ʋ aː ŋ k i ʈ ʈ u ʋ a ɾ a t̪ u <no-speech> ʋ a ɾ u m p oː t̪ u e ŋ k a p oː j ʋ aː ŋ k i ʈ ʈ u ʋ a ɾ a t̪ u 
[292.615]
<no-speech> 
[293.965]
<no-speech> a ʈ u t̪ t̪ a m aː s a m <oov> ʋ aː ŋ k i n u ʋ a ɾ eː n u n a k k u p eː ʈ ʈ u <no-speech> p a s a ŋ k a ʈ ʈ a ʧ o l r eː n ʈ aː 
[301.535]
<no-speech> 
[303.375]
<no-speech> <hes> 
[303.915]
<no-speech> 
[304.755]
<no-speech> 
[305.235]
<no-speech> 
[306.495]
<no-speech> 
[316.745]
<no-speech> 
[317.745]
<no-speech> 
[318.105]
<no-speech> 
[319.115]
<no-speech> 
[320.505]
<no-speech> 
[322.175]
<no-speech> 
[322.555]
<no-speech> 
[323.475]
<no-speech> 
[324.025]
<no-speech> 
[324.825]
<no-speech> h a l oː 
[333.395]
<no-speech> 
[335.855]
<no-speech> i p p a t̪ aː n t̪ aː n t̪ uː ŋ k i e n t̪ i k k i j aː a m m aː 
[338.375]
<no-speech> 
[340.465]
<no-speech> e n n aː ʧ ʧ u <int> 
[341.595]
<no-speech> 
[343.315]
<no-speech> 
[343.665]
<no-speech> 
[345.025]
<no-speech> aː h 
[345.545]
<no-speech> 
[349.415]
<no-speech> j e m m aː t̪ uː ŋ k u n aː n e n n a m m aː s u m m aː a p ʈ i j eː ʋ aː k k i ŋ u ʋ aː k k i ŋ u p oː n e n aː t̪ uː ŋ k i k k i n eː i ɾ u n t̪ aː u n n u m u ʈ a m p u k u ɳ ʈ aː k u m m aː <no-speech> aː h n aː n ʧ aː p ʈ eː n 
[358.735]
<no-speech> 
[360.425]
<no-speech> 
[360.825]
<no-speech> 
[362.435]
<no-speech> p uː r aː a ʋ a n i t̪ aː 
[363.515]
<no-speech> 
[365.355]
<no-speech> e n n a p a ɳ ʈ ʈ u m m aː <int> 
[366.285]
<no-speech> 
[369.075]
<sta> n iː eː n i n n eː ɾ a t̪ t̪ u k k u t̪ uː ŋ k i n u i ɾ u k k u r a s u m m aː a p ʈ i j eː m eː l a ʋ aː k k i ŋ u m aː ʈ i n a ʈ a n t̪ u ʋ eː l a <no-speech> e k s eː s u m aː ʈ i p a ɳ ɳ a ʋ eː ɳ ʈ i t̪ aː n a t̪ aː n 
[374.695]
<no-speech> 
[377.565]
<no-speech> 
[378.035]
<no-speech> 
[379.575]
<no-speech> i n n u m t̪ uː ŋ k u n aː l u m t̪ uː ŋ k i n ɾ u p p eː n <no-speech> aː h 
[385.865]
<no-speech> 
[387.145]
<no-speech> 
[387.735]
<no-speech> 
[388.615]
<no-speech> h a l oː <no-speech> i l l a s u m m aː t̪ aː m m aː f oː n p a ɳ ɳ eː n e ɳ ɳ aː p a ɳ ɳ a f oː n p a ɳ ɳ eː n 
[394.735]
<no-speech> 
[398.245]
<no-speech> e ŋ k a m m aː f oː n p a ɳ ɳ aː f oː n a e ʈ u k k a m aː ʈ ʈ eː ŋ k u t̪ u f oː n a a ʈ i ʧ ʧ aː l u m e ʈ u k k a m aː ʈ ʈ i k k u t̪ u <no-speech> i l l a a n t̪ a p ai j a n k i ʈ ʈ a f oː n <hes> f oː n a e ʈ u k k a m aː ʈ ʈ i k k u t̪ u a n t̪ a p ai j a n eː f oː n e ʈ u k k a m aː ʈ ʈ eː n r aː n 
[409.875]
<no-speech> 
[410.835]
<no-speech> 
[412.945]
<no-speech> <oov> 
[413.575]
<no-speech> 
[414.515]
<no-speech> aː h ʋ a ɳ ʈ i oː ʈ r aː n 
[415.685]
<no-speech> 
[416.575]
<no-speech> 
[417.155]
<no-speech> 
[419.335]
<no-speech> e n n a ʈ aː ʈ ʈ aː eː s i oː ʈ r aː n 
[420.635]
<no-speech> 
[423.215]
aː h e ʈ u k k a m aː ʈ ʈ eː n r aː n <no-speech> i l l a i l l a ʈ aː ʈ ʈ aː eː s i ʋ a ɳ ʈ i oː ʈ r aː n a t̪ u n aː l a ʋ a n t̪ u f oː n a e ʈ u k k a m aː ʈ ʈ eː n r aː n 
[433.695]
<no-speech> 
[434.845]
<no-speech> 
[435.735]
<no-speech> 
[437.125]
<no-speech> i l l a i l l a ʋ aː ŋ k i ʈ u ʋ eː n o n n u m p i ɾ a ʧ ʧ a n a i l l a i l l a s i ʋ aː a t̪ aː n m a ɳ i ŋ k u r a p ai j a n i ɾ u k k u r aː n l a a ʋ a n ʋ iː ʈ ʈ aː n ʈ aː t̪ aː n i ɾ u k k u r aː n a ʋ a ŋ k i ʈ ʈ a s o l l i ʋ i ʈ ɾ u ʋ eː n n aː n u m a ʋ a n ʈ ʈ a <int> 
[443.175]
<no-speech> 
[444.235]
<no-speech> a n t̪ a m uː l i j a m aː t̪ aː n a i ʋ a ŋ k a ʋ a n t̪ aː ŋ k a a ʋ a ŋ k a ɭ u k k u t̪ e ɾ i ɲ ʧ u ɾ u m e n n a p a ɳ r aː n n u a ʋ a ŋ k a ɭ u k k u t̪ e ɾ i ɲ ʧ u ɾ u m 
[449.205]
<no-speech> 
[450.525]
<no-speech> 
[450.945]
<no-speech> 
[452.285]
<no-speech> e n n a s a m ai j a l p a ɳ ɳ iː ŋ k a i n n i k k u <no-speech> aː h 
[456.385]
<no-speech> 
[459.555]
<no-speech> aː h 
[460.125]
<no-speech> 
[461.295]
<no-speech> n ai n aː i l l a 
[462.115]
<no-speech> 
[463.285]
<no-speech> <hes> <int> n ai n aː i l l a 
[464.375]
<no-speech> 
[468.005]
<no-speech> oː n ai n aː u ɭ ɭ a t̪ uː ŋ k u r aː ɾ aː 
[469.505]
<no-speech> 
[472.675]
<no-speech> u uː m u uː m 
[473.755]
<no-speech> 
[475.505]
<no-speech> aː h 
[476.705]
<no-speech> 
[478.035]
<no-speech> 
[478.395]
<no-speech> 
[480.185]
<no-speech> i n n u m e n <no-speech> aː h n aː n ʧ aː p ʈ eː n s u m m aː <hes> e n f ɾ a ɳ ʈ u ʋ a n t̪ u <foreign> k o ʃ a ɾ a m a n t̪ a <foreign> ʋ a n t̪ u p a ɳ ɳ a s o n n aː n 
[488.705]
<no-speech> 
[490.285]
<no-speech> a t̪ u <foreign> k o ʃ a ɾ a m <sta> p a ɳ ɳ i ʈ ɾ u k k oː m <no-speech> aː h aː m aː 
[495.145]
<no-speech> 
[496.845]
<no-speech> <hes> m au ɳ ʈ ɾ oː ʈ u ʋ a n t̪ u ɾ u k k eː n 
[499.925]
<no-speech> 
[501.115]
<no-speech> aː h <sta> 
[503.265]
<no-speech> 
[504.185]
<no-speech> 
[504.725]
<no-speech> 
[505.745]
<no-speech> 
[506.155]
<no-speech> 
[507.015]
<no-speech> a t̪ eː p a s a ŋ k a s aː ɾ e l l aː m ʋ a n t̪ u ɾ u k k oː m s aː ɾ e ŋ k a <foreign> aː f u <foreign> s aː ɾ l aː e l l aː m ʋ a n t̪ u ɾ u k k oː m 
[511.095]
<no-speech> 
[512.845]
<no-speech> e l l aː m ʋ a n t̪ u ɾ u k k oː m 
[514.555]
<no-speech> 
[516.005]
<no-speech> aː h s aː p ʈ eː m m aː n aː n u m <no-speech> 
[518.525]
<no-speech> 
[521.915]
<sta> a p ʈ i j eː k iː ʧ ʧ i ʈ ʈ u k u ʈ u m m aː k o ɲ ʧ a m <no-speech> 
[533.905]
<no-speech> 
[537.005]
<no-speech> 
[538.055]
<no-speech> h a l oː 
[538.655]
<no-speech> 
[539.735]
<no-speech> k a n n a m <no-speech> aː h 
[543.575]
<no-speech> 
[545.005]
<no-speech> p u ɾ i j a l a 
[546.515]
<no-speech> 
[549.785]
aː m aː aː m aː p eː s a n u n aː ŋ k a n eː a t̪ u k k u ɭ ɭ a e n n a e n n a p eː s i s o l ʈ ʈ aː ŋ k a a ʋ a ŋ k a <sta> n aː n au ŋ k a ʈ ʈ a p eː ʧ i n u ɾ u k k u r eː n <no-speech> a t̪ u a n t̪ a p a s a ŋ k a p a ʈ i k k u r a p u ɾ aː ʤ e k ʈ u p u ɾ aː ʤ e k ʈ u a t̪ u a t̪ a n aː l a 
[559.445]
<sta> a t̪ aː n ʋ a n t̪ u a ŋ k a ʋ a n t̪ u <foreign> ʋ a n t̪ u e ʋ ɭ oː n i m i ʃ a m p eː s u m e ʋ ɭ oː p a ɳ r aː ŋ k a n n u <no-speech> <hes> t̪ e ɾ i j a n u m aː m 
[565.975]
<no-speech> 
[568.245]
<no-speech> a p ʈ i j aː e n a k k u i l l a i l l a a ʋ a ŋ k a p a ɳ r aː ŋ k a a n t̪ a m aː ɾ i p u ɾ aː ʤ e k ʈ u a t̪ u k k u t̪ aː n t̪ aː n i p p a f oː n l a p eː s i n u i ɾ u k k u r eː n a ʋ a ŋ k a ɭ u k k u n i m i ʃ a t̪ t̪ u k k u o ŋ k i l ʈ ʈ a p eː s a ɳ u m n u s o l l i i p p a aː n p a ɳ ɳ i k u ʈ u t̪ t̪ u ɾ u k k aː ŋ k a <no-speech> a t̪ aː n p eː s i ʈ ɾ u k k eː n n aː n u m 
[579.815]
<no-speech> 
[580.765]
<no-speech> 
[582.395]
<no-speech> aː h aː h n aː n ʧ aː p ʈ eː n <no-speech> h oː ʈ ʈ a l l a ʧ aː p ʈ eː n 
[584.945]
<no-speech> 
[586.165]
<no-speech> s aː m p aː ɾ p u ɭ i j oː t̪ a ɾ a <no-speech> a ʋ a ɾ a k k aː p o ɾ i j a l <no-speech> aː h 
[591.895]
<no-speech> 
[593.415]
<no-speech> 
[594.175]
<no-speech> 
[595.435]
<no-speech> s aː m p aː ɾ aː m aː aː m aː 
[596.305]
<no-speech> 
[599.185]
<no-speech> 
[599.385]
<no-speech> 
[599.840]
