[0.000]
<no-speech> 
[0.725]
<no-speech> 
[1.415]
<no-speech> 
[2.875]
<no-speech> 
[3.235]
<no-speech> 
[5.035]
<sta> h a l oː 
[5.655]
<no-speech> 
[9.255]
<no-speech> 
[9.625]
<no-speech> 
[10.455]
<sta> k o ɲ ʧ a m n eː ɾ a t̪ t̪ u m u n n aː ʈ i t̪ aː n p eː s u n oː m 
[12.605]
<no-speech> 
[14.275]
<no-speech> 
[14.625]
<no-speech> 
[15.855]
<no-speech> 
[16.315]
<no-speech> 
[17.155]
<sta> s a ɾ i 
[17.655]
<no-speech> 
[19.295]
<sta> s aː p ʈ eː n ʈ i n iː e n n a p a ɳ r a <no-speech> 
[22.125]
<no-speech> 
[26.255]
<sta> s a ɾ i j aː n a m a ɻ ai n aː n u m aː f iː s l a i ɾ u n t̪ u ʋ a n t̪ a n n aː a p p u r a m n a l l aː n a n a ɲ ʧ u ʈ ʈ eː ʋ a n t̪ u ʈ ʈ eː n 
[32.005]
<no-speech> 
[33.405]
<no-speech> aː m aː i ŋ k a s a ɾ i j aː n a m a ɻ ai ʈ i n aː n aː f iː s l a i ɾ u n t̪ u m k a ɾ e k ʈ aː 
[40.155]
<no-speech> 
[41.775]
j aː ɾ 
[43.225]
<no-speech> 
[44.215]
<sta> oː 
[45.195]
<no-speech> 
[50.185]
<sta> 
[50.785]
<no-speech> 
[56.585]

[57.395]
<no-speech> 
[60.865]
u m u m <int> 
[61.505]
<no-speech> 
[63.825]
<sta> p aː ɾ a t̪ i p aː ɾ a t̪ i e n n a p a ɳ r aː 
[65.855]
<no-speech> 
[69.165]
<sta> a p p a n iː e ŋ k a i ɾ u k k a 
[70.705]
<no-speech> 
[72.585]
<sta> n iː e ŋ k a i ɾ u k k a a p p a n iː j u m ɾ uː m l a t̪ aː n i ɾ u k k a 
[74.965]
<no-speech> 
[77.995]
oː s a ɾ i s a ɾ i <int> 
[79.285]
<no-speech> 
[86.005]
<sta> aː h n a l l aː ɾ u k k aː ŋ k a ʈ i n aː n i n t̪ a ʋ aː ɾ a m uː ɾ u k k u p oː r eː n n iː p oː r i j aː 
[90.185]
<no-speech> 
[92.935]
u m u m <sta> n aː n i n n ai k k u <foreign> h aː l i ʈ eː n n u t̪ e ɾ i j aː t̪ u e n a k k u 
[97.135]
<no-speech> 
[98.575]
<sta> a t̪ u n aː l a i n n ai k k u <foreign> h aː l i ʈ eː n n u e n a k k u t̪ e ɾ i j aː t̪ u ʈ i i l l a n aː l iː k u p oː ʈ ɾ u p p eː n 
[102.465]
<no-speech> 
[105.455]
<sta> aː h eː j l uː s u n aː n e n a k k u n a l l aː t̪ e ɾ i j u m n aː n k aː l e ɳ ʈ a ɾ l a p aː t̪ t̪ eː n aː k a s ʈ u 
[111.995]
<no-speech> 
[113.605]
<sta> a t̪ u t̪ e ɾ i j a l a aː n aː <foreign> h aː l i ʈ eː t̪ aː n eː n n aː e n f ɾ a ɳ ʈ u o ɾ u t̪ t̪ i p aː t̪ t̪ u a t̪ a <foreign> p a ɳ ɳ i ʈ ʈ u t̪ aː n uː ɾ u k k u p oː r eː n a p ʈ i n n u s o n n aː aː n aː a t̪ u i n n ai k k u ʈ aː n n u e n a k k u t̪ e ɾ i j a ʋ eː i l l a a t̪ u k k a p p u r a m t̪ aː n <hes> e n a k k u t̪ e ɾ i ɲ ʧ u ʧ ʧ u i n n ai k k u t̪ aː n <foreign> h aː l i ʈ eː n n u 
[124.505]
<no-speech> 
[125.845]
<no-speech> 
[131.555]
<sta> i l l i j eː aː k a s ʈ u ʈ u ʋ e n ʈ i e j i t̪ u t̪ aː n t̪ e ɾ i j u n ʈ i a t̪ u n aː l a t̪ aː n ʈ i a ʋ a i n n ai k k u l iː k u p oː ʈ ʈ aː n aː n a t̪ u k k a p p u r a m n aː n a ʋ a k i ʈ ʈ a k eː ʈ ʈ eː n eː n ʈ i i n n ai k k u l iː k u p oː ʈ ʈ eː n n u f oː n l a a ʋ a t̪ aː n s o n n aː i l l a i n n ai k k u <foreign> h aː l i ʈ eː l a a t̪ u n aː l a t̪ aː n n aː n a t̪ a <foreign> p a ɳ ɳ eː n n aː n p oː l a a p ʈ i n n u a ʋ a s o n n aː 
[143.435]
<sta> a t̪ u k k a p p u r a m t̪ aː n a p ʈ i j aː ɾ n e n a ʧ ʧ u k i ʈ ʈ eː n 
[148.405]
<no-speech> 
[149.255]
<sta> u m u m 
[149.945]
<no-speech> 
[153.635]
<sta> aː h t̪ e ɾ i j u n ʈ i p aː ɾ a t̪ i j u m s o n n aː k aː ɾ t̪ t̪ i k aː ʋ u m e ŋ k i ʈ ʈ a s o n n aː 
[157.565]
<no-speech> 
[164.255]
<sta> eː n 
[165.665]
<no-speech> 
[172.285]
<sta> u m u m 
[173.075]
<no-speech> 
[175.175]
<sta> s a ɾ i n iː e l l aː ɾ ai j u m ʋ a n t̪ u ʈ ʈ i j aː 
[177.785]
<no-speech> 
[183.745]
u m u m <int> 
[184.215]
<no-speech> 
[188.405]

[189.475]
<no-speech> 
[191.615]
<sta> aː m aː s o n n aː aː n a s u k oː j a m p u t̪ t̪ uː ɾ <no-speech> u m u m p aː t̪ t̪ u i ɾ u n t̪ u k k a 
[201.395]
<no-speech> 
[202.545]
<sta> ɾ uː m u k k u aː ɭ s iː k k i ɾ a m ʋ a n t̪ u ʈ u m aː n aː n iː p aː t̪ t̪ u i ɾ u n t̪ u k k a a p ʈ iː n n eː n 
[206.425]
<no-speech> 
[209.705]
<sta> u m u m <no-speech> s a ɾ i a p p u r a m e n n a ʈ i 
[213.265]
<no-speech> 
[214.555]
<sta> p a t̪ t̪ u n i m i ʃ a m aː t̪ t̪ aː e n n a 
[216.195]
<no-speech> 
[217.215]
<no-speech> p a t̪ t̪ u n i m i ʃ a m aː t̪ t̪ aː e n n a n n u k eː ʈ ʈ eː n 
[220.395]
<no-speech> 
[221.895]
<no-speech> 
[222.575]
<no-speech> 
[223.985]
<sta> eː j a p p a i t̪ e l l aː m p eː ʧ a k uː ʈ aː t̪ aː ʈ i n iː t̪ aː n a ʈ i ʧ o n n a e t̪ aː ʋ a t̪ u k a t̪ a p eː s a l aː n u s o l ʈ ʈ u 
[228.095]
<no-speech> 
[230.945]
<sta> <laugh> 
[236.505]
<no-speech> 
[238.145]
<sta> aː h 
[238.785]
<no-speech> 
[242.115]
<sta> eː j e ŋ k a a m m aː n aː k a p a ʈ ʈ i n a t̪ t̪ u l a t̪ aː n i ɾ u k k aː ŋ k a ʋ eː r a e ŋ k a p oː ʋ aː ŋ k a 
[245.065]
<no-speech> 
[247.965]
<sta> eː j a t̪ u e p p a ʋ oː m aː r i ʈ ʈ aː ŋ k a e ŋ k a a m m aː n aː k a p a ʈ ʈ i n a t̪ t̪ u l a i ɾ u n t̪ u m n aː k a p p a ʈ ʈ i n a t̪ t̪ u k k u 
[252.835]
<no-speech> 
[253.755]
<sta> n aː n a ŋ k a i ɾ u n t̪ a p p a j eː 
[256.065]
<no-speech> 
[256.915]
<sta> i l l a j eː e n t̪ a m p i p aː ɳ ʈ i ʧ ʧ eː ɾ i l a t̪ aː n i ɾ u k k aː n p e ŋ k a ɭ uː ɾ u k k u e t̪ u k k u 
[260.775]
<no-speech> 
[262.725]
<sta> h uː m h uː m 
[263.995]
<no-speech> 
[265.825]
<sta> aː m aː aː m aː a t̪ aː n p a ʈ i k k i r aː n 
[267.395]
<no-speech> 
[272.065]
<sta> aː h 
[273.135]
<no-speech> 
[275.575]
<sta> e n n a t̪ u p u ɾ i j a l a aː h 
[277.105]
<no-speech> 
[281.505]
<sta> aː m aː aː m aː i p p a u n a k k u p u ʈ i ʧ ʧ i ɾ u k k u n n u s o l l i ʈ ʈ aː 
[285.055]
<no-speech> 
[290.245]
<sta> eː j p eː s u n eː n ʈ i i p p a u n k i ʈ ʈ a k aː t̪ i l a ʋ i ɻ a l a j aː 
[293.455]
<no-speech> 
[296.955]
<sta> a p ʈ i j aː i p p a n aː n p eː s i n eː n u n k i ʈ ʈ a n iː t̪ aː n o n n u m eː p eː s a l i j eː n u n aː n e n n a ʈ i e n n a ʈ i n u i ɾ u n t̪ eː n aː m aː 
[302.315]
<no-speech> 
[304.785]
<sta> u m u m s a ɾ i a p p u r a m e n n a ʈ i 
[307.415]
<no-speech> 
[311.415]
<sta> aː h e p p a f oː n p a ɳ ɳ aː 
[314.115]
<no-speech> 
[315.115]
<sta> aː h 
[316.445]
<no-speech> 
[318.935]
<sta> aː h 
[319.815]
<no-speech> 
[322.295]
<sta> a t̪ u o ɾ u p a k k i n aː j ʈ i a t̪ u e n a k k u p eː ɾ t̪ ʈ eː a n n ai k k u <foreign> p a ɳ ɳ oː m oː a t̪ u k k u m u n n aː ʈ i n aː ɭ e n a k k u <foreign> p a ɳ ɳ i a ɾ ai m a ɳ i n eː ɾ a m e ŋ k i ʈ ʈ a p eː s u ʧ ʧ u ʈ i a t̪ u ʋ u m e t̪ t̪ a n a m a n i k k u n ai ʈ u 
[334.255]
<sta> aː h a t̪ u i n n ai k k u k eː k k u t̪ u i t̪ u m s uː ɾ a ʤ u ʋ a n t̪ u eː j s aː ɾ i p p aː <foreign> h eː p p i p eː ɾ t̪ ʈ eː <foreign> a p ʈ i s o n n aː u n a k k u e n n a aː m aː ʈ i <foreign> p a ɳ ɳ aː a t̪ u ʋ a n t̪ u p a t̪ t̪ u n aː ɭ ai k k u m u n n aː ʈ i <foreign> <sta> p a ɳ r a i l l a p e ɾ t̪ u p eː ɾ t̪ ʈ eː m u ʈ i ɲ ʧ u m uː n u n aː ɭ k a ɻ i ʧ ʧ u <foreign> p a ɳ r a a p ʈ iː n n eː n n eː t̪ t̪ eː ɲ aː p a k a m ʋ a n t̪ u ʧ ʧ u aː n aː n aː n k o ɲ ʧ a m p i s i j aː i ɾ u n t̪ a t̪ u n aː l a n aː n u n n a k uː p p i l l a a t̪ u n aː l a n aː n i n n ai k k u s eː ɾ i ɳ ʈ ʈ u 
[355.405]
<sta> <foreign> p a ɳ ɳ u ʋ oː m eː n u ʋ a n t̪ eː n i t̪ u k k u o n n u m e n t̪ a oː ɾ k o ɾ a ʧ ʧ a l u m i l l a a p ʈ i n n u n e n a ʧ ʧ u k i ʈ ʈ eː n 
[358.835]
<no-speech> 
[360.125]
<no-speech> 
[361.015]
<no-speech> 
[365.065]
<sta> aː h e l l aː ɾ u m eː n a l l aː ɾ u k k aː ŋ k a 
[367.195]
<no-speech> 
[368.325]
<sta> ʧ a k t̪ i <foreign> p a ɳ ɳ aː p eː ʧ u r a t̪ i l l a aː m aː n ʈ i 
[372.115]
<no-speech> 
[372.965]
<sta> aː m aː ʧ a k t̪ i k i ʈ ʈ a n aː n au ɭ a ʋ aː p eː ʧ u r a t̪ i l l a n aː n p uː ɾ ɳ i m aː t̪ i j aː k a ɾ aː ʤ a n a ʋ a ŋ k a k i ʈ ʈ a j eː t̪ aː n p eː ʧ u t̪ i n eː ʃ u u ŋ k a k i ʈ ʈ a t̪ aː n 
[381.795]
<no-speech> 
[384.195]
<sta> u m u m n iː n a m m a ɭ a m a r a n t̪ u ɾ u ʋ a e n a k k u t̪ e ɾ i j u m 
[386.285]
<no-speech> 
[389.755]
<sta> a ʋ a ŋ k a k i ʈ ʈ a p eː s u m s a k t̪ i k i ʈ ʈ a j u m m u t̪ t̪ u k i ʈ ʈ a j u m n aː n p eː s i ɾ o m p a n aː ɭ aː ʧ ʧ u n n u k i ʈ ʈ a j u m 
[394.085]
<no-speech> 
[395.305]
<sta> u m u m 
[396.035]
<no-speech> 
[397.485]

[397.945]
<no-speech> 
[400.845]
<sta> n aː n u m i ŋ k a f eː s p u k l a p aː t̪ t̪ eː n a ʋ a ɭ oː ʈ a f eː s p u k l a t̪ aː n a ʋ a ɭ u k k u n aː n <foreign> p a ɳ ɳ eː n h eː p p i p e ɾ t̪ u ʈ eː n 
[405.595]
<no-speech> 
[407.685]
u m u m <int> 
[408.065]
<no-speech> 
[410.265]
<sta> aː h 
[410.995]
<no-speech> 
[417.005]
<sta> aː h 
[417.795]
<no-speech> 
[420.075]
<sta> a t̪ u k k a p p u r a m p uː ɾ ɳ i m aː l aː m 
[423.195]
<no-speech> 
[425.645]
<sta> p a ɻ a ʧ a l aː m n aː n n e n ai k k i r a t̪ eː i l l a ʈ i ʋ eː r a aː ɭ e ŋ k a s e ʈ u aː k u r a t̪ u a t̪ a n aː l a 
[430.135]
<no-speech> 
[433.085]
<sta> s a ɾ i u n a k k u t̪ aː n j aː ɾ u m i l l a ʈ i 
[434.805]
<no-speech> 
[436.075]
<sta> e l l aː m eː i ŋ k a ʋ a n t̪ u n a l l a ʋ a j a s aː n a p aː ʈ ʈ iː s aː t̪ aː n i ɾ u p p aː ŋ k a n aː ŋ k a a ʋ a ŋ k a e l l aː m e t̪ u m eː i l l a 
[441.225]
<no-speech> 
[442.315]
<sta> 
[445.495]
<no-speech> 
[447.785]
<sta> i t̪ u m n a m m a ɭ u k k u l aː m a t̪ u e p ʈ i s e ʈ u aː k u ʋ aː ŋ k a a p ʈ i ŋ k u r eː n n aː n 
[450.505]
<no-speech> 
[453.845]
<sta> u m u m 
[455.735]
<no-speech> 
[457.695]
<sta> <laugh> a t̪ u e n n a k a ɾ e k ʈ u t̪ aː n p oː a n t̪ a ɾ uː m t̪ aː n i p p a n aː n t̪ aː n ʈ i s i ŋ k a m ʈ i j aː ɾ u k k u n eː ʈ au ʈ ʈ aː i ɾ u k k u t̪ u n r aː <laugh> 
[467.015]
<no-speech> 
[468.345]
<sta> aː n n u i l l a ʈ i aː ɳ u m j aː ɾ u ʈ ʈ a j u m p eː s u t̪ aː n n aː n i ɾ u n t̪ a ʋ a ɾ ai k a k u m n iː j u m p eː s i n e n a ʧ ʧ u ɾ u n t̪ eː n n iː j u m n aː n u m t̪ aː n i ɾ u k k a ɳ u m n iː j u m i p p a p aː ɾ u 
[479.335]
<sta> a t̪ u k k u oː ɾ 
[482.085]
<no-speech> 
[483.605]

[484.645]
<no-speech> 
[485.635]
<sta> i l l a ʈ i e n a k k u i p p a k o ɲ ʧ a m n eː ɾ a m ʧ a ɾ i j i l l a i p p a p aː k k a ʋ eː ɳ ʈ aː m n u ʧ o l l i ɾ u k k aː ŋ k a ɭ aː n 
[489.395]
<no-speech> 
[491.095]
<sta> aː h 
[493.065]
<no-speech> 
[494.205]
<sta> i ɾ u ʋ a t̪ t̪ a ɲ ʧ u ʋ a j a s u i ɾ u ʋ a t̪ t̪ a ɲ ʧ u ʋ a j a s u l a 
[497.925]
<no-speech> 
[501.275]
<sta> i ɾ u ʋ a t̪ t̪ a ɲ ʧ u ʋ a j a s u l a e n n a k a l j aː ɳ a m p a ɳ ɳ a ɳ u m s o l l i ɾ u k k aː ŋ k a ʈ i 
[504.155]
<no-speech> 
[505.765]
<sta> i ŋ k a ʤ aː t̪ a k a m l aː m p aː t̪ t̪ u ʈ ʈ aː ŋ k a <laugh> p uː ɾ ɳ i m aː t̪ aː n e ŋ k i ʈ ʈ a s o n n aː ʈ i ʋ i ɳ ɳ ai t̪ t̪ aː ɳ ʈ i ʋ a ɾ u ʋ aː j aː p a ʈ a m e p p a j oː a ʋ a s o n n aː a ʋ a ɭ u k k eː ɲ aː p a k a m i ɾ u k k aː e n n a n t̪ e ɾ i l a aː n aː e n a k k u n a l l aː ɲ aː p a k a m i ɾ u k k u ʈ i ʋ i ɳ ɳ ai t̪ t̪ aː ɳ ʈ i ʋ a ɾ u ʋ aː j aː p a ʈ a m p aː ɾ u ʈ i eː n ʈ i a p ʈ iː n n eː n eː j p oː ʈ i a t̪ u m uː n n aː l a e n a k k u <sta> p aː k k a p u ʈ i k k u m i p p a l aː m e n a k k u au ɭ a ʋ aː p u ʈ i k k i r a t̪ i l l a ʈ i n n eː i l l a ʈ i a t̪ u p aː ɾ u ʈ i a t̪ u n aː n o ɾ aː ʈ ʈ i p aː t̪ t̪ a p p a t̪ aː n e n a k k u k a ɳ eː ʃ u m aː m aː e n a k k u p eː s i n aː ŋ k a p aː ɾ u t̪ u ɾ k aː k uː ʈ a p aː t̪ t̪ u k k i ʈ ʈ eː i ɾ u n t̪ aː <foreign> a t̪ oː ʈ a k a l j aː ɳ a m n a ʈ a n t̪ u ɾ u ʧ ʧ u 
[529.415]
<sta> 
[532.905]
<no-speech> 
[534.955]
<sta> <laugh> e n n a ʈ i a t̪ u oː ɾ n e n a ʧ ʧ u n e n a ʧ ʧ u n aː n s i ɾ i ʧ ʧ i ʈ ʈ u i ɾ u n t̪ eː n a ʋ a ɭ u k k eː n e n ai k k i r eː n e n a k k u ʈ a k k u n u i t̪ u m ɲ aː p a k a m ʋ a n t̪ u ʧ ʧ u a p ʈ i ʧ o l r eː n n aː n j oː s i ʧ ʧ eː n 
[546.105]
<sta> oː ɾ ʋ eː ɭ a i p ʈ i k uː ʈ a i ɾ u k k u m oː ʈ i aː n aː l u m i t̪ u m ɲ aː p a k a m ʋ a n t̪ u ʧ ʧ u e p ʈ i t̪ e ɾ i j u m aː ɾ uː m l a n aː n i t̪ u m i n t̪ a ɾ uː m u k k u ʋ a n t̪ a ʋ o n n eː i p p a i t̪ u m ɾ o m p a p oː ɾ a ʈ i ʧ ʧ i ʧ ʧ u e n n a p a ʈ a m p aː k k u r a t̪ u n eː t̪ e ɾ l a ʈ i a p ʈ i s o n n eː n i n t̪ a m aː t̪ i ɾ i ʋ i ʈ i ʋ i p aː ɾ u ʈ i <breath> o n a k k aː <sta> ai j oː p oː ʈ i i ʋ a e n a k k u p oː ɾ a ʈ i k k i t̪ u n u p a ʈ a m p aː k k a 
[563.715]
<no-speech> 
[564.625]
<no-speech> 
[565.445]
<no-speech> 
[568.165]
<sta> <laugh> 
[572.155]
<no-speech> 
[573.555]

[574.815]
<no-speech> 
[579.985]
<sta> n aː n 
[581.305]
<no-speech> 
[584.165]
<sta> e n a k k u e n n a ʈ i e p p a ʈ aː l iː k u n aː n i n n ai k k u l iː k u p oː ʈ a l aː m n u n i n ai ʧ ʧ u ʈ ʈ u i ɾ u n t̪ eː n s a ɾ i n aː n l iː k u p oː ʈ ʈ u p eː s aː m a ɾ uː m l a i ɾ u n t̪ u ɾ u p p eː n ai j oː t̪ i ŋ k a ʈ k i ɻ a m a k aː l ai l a e n t̪ i ɾ i k k u m p oː t̪ u ai j a aː f iː s aː a p ʈ i n ɾ u k k u e ɾ i ʧ ʧ a l aː ʋ a ɾ u t̪ u 
[595.125]
<no-speech> 
[597.415]
<sta> s eː ɾ i n u a t̪ a f oː ɾ t̪ u 
[599.705]
<no-speech> 
[599.960]
