[0.000]
<no-speech> 
[0.575]
<no-speech> 
[1.375]
<no-speech> 
[2.755]
<no-speech> 
[4.085]
<no-speech> 
[5.535]
h a l oː 
[6.325]
<no-speech> 
[10.285]
aː h p oː ɳ u m p aː <sta> 
[11.365]
<no-speech> 
[12.225]
<no-speech> 
[12.895]
<no-speech> 
[13.725]
aː h <int> 
[14.315]
<no-speech> 
[17.975]
aː h 
[18.525]
<no-speech> 
[21.755]
j aː ɾ ʈ a i l l a 
[22.545]
<no-speech> 
[25.155]
aː h <int> 
[25.705]
<no-speech> 
[29.715]
p oː j i ʈ ʈ u n ai ʈ u ʋ a n t̪ u ʈ u ʋ eː n n e n a k k i r eː n 
[30.995]
<no-speech> 
[34.325]
aː h <int> 
[34.935]
<no-speech> 
[37.335]
a t̪ aː n ɾ e ʈ i p a ɳ ɳ i n ɾ u k k eː n p oː ʈ ʈ u ɾ e ʈ i p a ɳ ɳ a ʋ eː ɳ ʈ i t̪ aː n 
[40.895]
<no-speech> 
[43.035]
e n p a ɳ a m ʋ a n t̪ aː t̪ aː n ɾ e ʈ i p a ɳ ɳ a ɳ u m <int> u ʃ aː ɾ p a ɳ ɳ a ʋ eː ɳ ʈ i t̪ aː n ʋ iː ʈ l a p a ɳ ɳ i ʈ ʈ u 
[46.425]
<no-speech> 
[51.205]
s a n t̪ oː ʃ u a t̪ u ʋ eː ɳ aː k a m m i t̪ aː n ɾ o m p a l aː m p eː ʧ a l a a ʋ a n k i ʈ ʈ a 
[54.625]
<no-speech> 
[55.715]
k a m m i j aː t̪ aː n p eː s i ɾ u k k eː n <sta> 
[56.765]
<no-speech> 
[61.585]
aː h 
[62.255]
<no-speech> 
[64.205]
<sta> aː m aː a ɳ t̪ aː ɳ ʈ aː aː m aː a n n i k k eː i ɾ u ʋ a t̪ ɾ e ɳ ʈ u a ʋ a n t̪ u i ɾ u ʋ a t̪ t̪ i m uː n u a ʋ a ŋ k a ɭ u t̪ u 
[68.655]
<no-speech> 
[72.655]
m u ɻ u t̪ t̪ oː l a ʈ i ɾ au s a s u <int> t̪ a ɭ ɭ i p oː ʈ u ŋ k u ɾ i j aː 
[75.245]
<no-speech> 
[79.365]
u m u m 
[80.045]
<no-speech> 
[85.355]
oː k eː j oː k eː j 
[86.355]
<no-speech> 
[88.355]
aː h <int> 
[89.055]
<no-speech> 
[93.225]
s a ɾ i 
[94.065]
<no-speech> 
[95.085]
s a ɾ i e ɳ ɳ aː <sta> n ai ʈ ʈ i aː n aː p oː j ʈ u m i t̪ u ʋ a t̪ t̪ i m uː n u ʋ eː ɳ aː k aː l i l n iː p oː j i ʈ ʈ u i t̪ u k k u m p oː j i ʈ u t̪ u ʋ a n t̪ u ɾ u s aː j n t̪ a ɾ a m aː 
[101.405]
<no-speech> 
[103.465]
a p ʈ i t̪ aː n t̪ aː n p a ɳ ɳ i aː k a ɳ u m 
[104.615]
<no-speech> 
[107.075]
aː h <int> 
[107.575]
<no-speech> 
[110.005]
n aː ɭ ai k k u i t̪ u ʋ a ɾ i k k u m e t̪ u m t̪ e ɾ i l a <sta> a ŋ k a t̪ aː n i n n ai k k u t̪ aː n t̪ e ɾ i j u m e ʋ ɭ oː i ɾ u k k u n n u a t̪ u n aː p oː ʈ ʈ u ʋ i ʈ ʈ aː p aː ɾ u 
[116.945]
<no-speech> 
[118.965]
e ŋ k a 
[119.535]
<no-speech> 
[120.555]
e ŋ k a 
[121.165]
<no-speech> 
[124.295]
i l l a i l l a n aː ɭ ai k k i t̪ e ɾ i l a n aː ɭ ai k k i p oː n a ʋ a n t̪ aː t̪ aː n p oː ʋ eː n i l l a n aː p oː m aː ʈ ʈ eː n 
[127.595]
<no-speech> 
[129.175]
a ŋ k a f oː n ʋ a n t̪ aː k e ɭ a m p u ʋ eː n i l l a n aː p oː m aː ʈ ʈ eː n <sta> ʋ eː l a ʋ eː l a i ɾ u n t̪ aː f oː n p a ɳ ɳ u ʋ aː ŋ k a i l l a n aː p oː m aː ʈ ʈ eː n 
[132.995]
<no-speech> 
[137.525]
<no-speech> 
[137.955]
<no-speech> 
[138.915]
aː m aː 
[139.685]
<no-speech> 
[140.995]
<no-speech> 
[141.345]
<no-speech> 
[142.535]
p oː l a p oː n u n aː p oː l aː m e p p a k aː ɳ u m p oː l a j aː n iː t̪ aː n e ŋ k eː j oː ʋ e ɭ i l a p oː n u m ɾ a 
[145.825]
<no-speech> 
[150.905]
<int> aː h 
[151.515]
<no-speech> 
[152.515]
s a ɾ i <sta> aː h 
[154.485]
<no-speech> 
[156.105]

[156.515]
<no-speech> 
[157.505]
aː h 
[158.165]
<no-speech> 
[165.255]
aː m aː aː m aː <int> n iː k aː l eː l l a p oː j i ʈ ʈ u iː ʋ n i ŋ u t̪ aː n ʋ a ɾ i j aː 
[168.745]
<no-speech> 
[175.705]
aː m aː 
[176.505]
<no-speech> 
[184.415]
aː h 
[185.025]
<no-speech> 
[190.975]
aː n 
[191.605]
<no-speech> 
[196.795]
aː h 
[197.425]
<no-speech> 
[201.325]
k aː k a t̪ u l a n aː n iː a ŋ k a <sta> 
[204.825]
<no-speech> 
[207.705]
aː m aː <int> 
[208.675]
<no-speech> 
[213.225]
<no-speech> 
[213.575]
<no-speech> 
[216.025]
t̪ e ɾ i l a e ŋ k a n aː p aː k k a l aː m <sta> aː h 
[218.625]
<no-speech> 
[222.305]
aː h aː h <int> 
[223.275]
<no-speech> 
[224.355]
t̪ a m p i k k u <sta> aː h 
[227.545]
<no-speech> 
[233.935]
i l l a n iː a ŋ k a <foreign> <foreign> p a ɳ ʈ ʈ u s o n n i n aː n aː aː a t̪ u k k a p p u r a m s o l l a l aː m i p p a i n n u m p oː n a s u a t̪ u i t̪ u m k e ɭ a p p i ʋ u ʈ ʈ u a p p a r a m i l l a k eː n s a l aː j i ʈ u ʧ ʧ u n n aː ʋ a ʧ ʧ u k k aː p o r u m ai j a aː j i ʈ u ʋ aː ŋ k a e l l aː ɾ u m 
[241.685]
<no-speech> 
[244.205]
aː h <int> 
[244.885]
<no-speech> 
[247.915]
aː h 
[248.555]
<no-speech> 
[251.135]
aː h 
[251.785]
<no-speech> 
[257.405]
e ɳ ɳ aː 
[258.045]
<no-speech> 
[263.715]
u m u m 
[264.345]
<no-speech> 
[270.485]
p a t̪ i n a ɲ ʧ u p aː k k a l aː m <sta> a n n a k k i n e l a m a k k i 
[273.755]
<no-speech> 
[277.295]
s a ɾ i <sta> 
[278.135]
<no-speech> 
[282.765]
s a ɳ ʈ eː l a s a ɳ ʈ eː l a <sta> p aː k k a l aː m eː a n n a k k i a n n i k k eː p oː j aː k u n u m aː 
[286.185]
<no-speech> 
[287.145]
<no-speech> 
[287.495]
<no-speech> 
[291.565]
<no-speech> 
[291.915]
<no-speech> 
[292.715]
i t̪ u m p aː k k a l aː m <int> 
[293.735]
<no-speech> 
[296.855]
<sta> i t̪ u m i n n u m ʋ eː l a e t̪ u m k a m m i p a ɳ ɳ i k u ʈ u k k a l i j aː k u ʈ u t̪ t̪ aː t̪ aː n t̪ e ɾ i j u m e n n a k a ʈ a n 
[300.465]
<no-speech> 
[303.005]
aː h 
[303.545]
<no-speech> 
[307.185]
p oː ɳ u m s a ɾ i n aː k a ɭ a k k i <sta> n aː n ʋ a n t̪ u ʋ eː l ai k k i p oː j s o l l a ɳ u m 
[310.165]
<no-speech> 
[311.525]
<sta> aː h 
[312.745]
<no-speech> 
[313.685]
<sta> aː h 
[314.485]
<no-speech> 
[316.145]
aː h <sta> 
[317.195]
<no-speech> 
[319.705]
aː n <sta> 
[320.505]
<no-speech> 
[321.845]
<sta> aː h 
[322.705]
<no-speech> 
[323.655]
<sta> s a ɾ i k uː p ʈ ʈ u p oː r oː m 
[325.315]
<no-speech> 
[326.445]
aː h <no-speech> 
[328.735]
<no-speech> 
[330.195]
a t̪ aː n p ɭ aː n p a ɳ ɳ i k k a l aː m a t̪ u k k eː t̪ t̪ aː m aː r i p ɭ aː n p a ɳ ɳ i k k a l aː m e p ʈ i n n u 
[333.165]
<no-speech> 
[336.515]
n aː n <sta> i n n u m f oː n p a ɳ l a a ʋ a n u k k u f oː n p a ɳ ɳ aː t̪ aː n t̪ e ɾ i j u m a ʋ a n u m e n a k k u e t̪ u ʋ u m f oː n p a ɳ l a 
[341.015]
<no-speech> 
[343.615]
a t̪ u a p ʈ i j aː 
[344.705]
<no-speech> 
[347.205]
j aː ɾ s e l l u l a 
[348.235]
<no-speech> 
[350.105]
aː h <int> 
[350.625]
<no-speech> 
[353.905]
aː h 
[354.485]
<no-speech> 
[357.505]
l a k ʃ m a ɳ a n 
[358.295]
<no-speech> 
[360.075]
aː h e ɳ ɳ aː e n n a t̪ t̪ u k k u e ɳ ɳ aː m eː ʈ ʈ a ɾ t̪ iː ʈ iː ɾ n u a t̪ u ʋ a n t̪ u o n n u m p u ɾ i j a l a e n a k k u 
[365.535]
<no-speech> 
[366.665]
aː h <int> 
[367.145]
<no-speech> 
[368.435]
<no-speech> 
[369.015]
<no-speech> 
[373.125]
j aː ɾ s ʈ aː l i n ʋ iː ʈ ʈ u k k u p oː r eː n n u s o n n aː ɾ eː <sta> 
[374.995]
<no-speech> 
[376.135]
e ʋ ɭ oː p oː r aː n ʋ a ɾ i j u m 
[377.365]
<no-speech> 
[379.525]
aː h 
[380.155]
<no-speech> 
[384.715]
aː h 
[385.445]
<no-speech> 
[387.545]

[387.935]
<no-speech> 
[390.575]
a ʋ a n p u ɾ u s oː t̪ t̪ a m n a m p a ɾ aː h 
[392.795]
<no-speech> 
[394.165]
aː n <int> 
[394.655]
<no-speech> 
[395.775]
aː n 
[396.385]
<no-speech> 
[400.675]
s a ɾ i <sta> 
[401.435]
<no-speech> 
[403.965]
aː m aː s aː n t̪ a ɾ a m f i ɾ iː t̪ aː n <int> 
[405.345]
<no-speech> 
[410.105]
s a ɾ i i l l a i l l a n aː n n iː k a m m i p a ɳ ɳ u n aː n p aː t̪ t̪ u k k u r eː n a t̪ u o ɳ ɳ u m p i ɾ a ʧ ʧ a n a i l l a 
[414.255]
<no-speech> 
[415.215]
n aː n f oː n p a ɳ r eː n <sta> aː h n aː n f oː n p a ɳ r eː n 
[417.525]
<no-speech> 
[419.255]
e n n a ʧ o l r aː p aː k k u r eː n p aː t̪ t̪ u ʈ ʈ u n aː n a p p a r a m <sta> eː t̪ oː f oː n p a ɳ r eː n a ʋ a ŋ k a ɭ u k k u 
[423.615]
<no-speech> 
[426.085]
aː h 
[426.725]
<no-speech> 
[435.245]
aː h <int> aː h 
[436.915]
<no-speech> 
[441.225]
aː h 
[441.865]
<no-speech> 
[444.035]

[444.395]
<no-speech> 
[446.435]
j aː ɾ n a m m a m u t̪ t̪ aː <sta> 
[450.305]
<no-speech> 
[451.295]
aː h <sta> 
[452.895]
<no-speech> 
[456.615]
aː h <sta> 
[457.675]
<no-speech> 
[462.545]
<no-speech> aː h 
[464.295]
<no-speech> 
[466.645]
aː h aː h aː h <int> 
[467.605]
<no-speech> 
[471.265]
aː h aː h aː h <int> aː h 
[472.325]
<no-speech> 
[474.505]
aː h aː h 
[475.325]
<no-speech> 
[477.345]

[477.755]
<no-speech> 
[479.055]
<no-speech> 
[479.695]
<no-speech> 
[482.755]
aː h 
[483.395]
<no-speech> 
[486.135]
n iː a t̪ aː n m u t̪ t̪ u m u t̪ t̪ u p ai j a n ʋ eː l a k aː ʈ ɾ aː n aː m eː m a ɳ i m a ɳ i p a ɳ ɳ i ʈ ʈ i ɾ u k k a n iː j u m 
[490.885]
<no-speech> 
[492.495]

[492.905]
<no-speech> 
[494.265]
k a ɾ e k ʈ u i n t̪ aː <sta> f oː n f oː n f oː n m a ʈ ʈ u m p oː n aː s e l l u m 
[498.285]
<no-speech> 
[506.425]
aː h <sta> 
[507.125]
<no-speech> 
[514.545]
aː h 
[515.205]
<no-speech> 
[518.155]
aː h 
[518.775]
<no-speech> 
[522.145]
aː h 
[522.765]
<no-speech> 
[523.625]
aː h 
[524.205]
<no-speech> 
[527.355]
j aː ɾ u k k u 
[528.225]
<no-speech> 
[529.775]
<sta> aː m aː 
[532.085]
<no-speech> 
[533.795]
aː h aː h <int> 
[534.295]
<no-speech> 
[535.855]
aː h 
[536.495]
<no-speech> 
[540.835]
aː h 
[541.435]
<no-speech> 
[548.225]
aː h 
[548.905]
<no-speech> 
[553.205]
e ɳ l iː k u ʋ a ɾ a n u m e l l aː k a ɾ e k ʈ u s u m m aː s u m m aː ʋ a n t̪ u p aː t̪ t̪ u ʈ ʈ u p oː k a n u m s u m m aː u ʈ a n eː <sta> 
[559.755]
<no-speech> 
[560.855]
aː h 
[561.455]
<no-speech> 
[563.965]
aː h 
[564.635]
<no-speech> 
[567.305]
aː h 
[567.995]
<no-speech> 
[572.585]
<sta> aː h 
[573.605]
<no-speech> 
[580.815]
<sta> t̪ aː s u e n n a ʋ eː l a p a ɳ ɳ aː n 
[584.635]
<no-speech> 
[593.515]
aː h <int> 
[594.125]
<no-speech> 
[596.795]
s a ɾ i <sta> 
[598.035]
<no-speech> 
[600.060]
