[0.000]
<no-speech> 
[3.965]
<no-speech> e n n a ŋ k a 
[6.105]
<no-speech> 
[7.005]
<no-speech> aː h s o l l u ɳ aː 
[8.755]
<no-speech> 
[10.725]
a ʋ a n s e l a e n n e n n a k aː l e n n a n n u p eː s u ʋ aː ɳ ɳ aː 
[13.695]
<no-speech> 
[16.585]
<no-speech> aː h 
[17.075]
<no-speech> 
[18.275]
<no-speech> h a l oː 
[19.545]
<no-speech> 
[21.465]
<no-speech> eː n n aː 
[22.775]
<no-speech> 
[24.865]
<no-speech> oː k eː j 
[25.595]
<no-speech> 
[29.745]
<no-speech> ʧ e ɾ i r i 
[30.645]
<no-speech> 
[33.665]
<no-speech> aː h oː k eː j 
[34.685]
<no-speech> 
[35.835]
<no-speech> 
[36.605]
<no-speech> 
[42.535]
<no-speech> ʧ e ɾ i r i i n t̪ a k aː l k a ʈ ʈ aː j i ʈ u ʧ ʧ u ŋ k a <no-speech> a p ʈ i n n u 
[46.025]
<no-speech> 
[47.045]
i n t̪ a k aː l k a ʈ ʈ aː j i ʈ ʈ a p p u r a m p oː j <no-speech> a ʋ a ɾ oː ʈ a <int> 
[50.695]
<no-speech> 
[54.335]
<no-speech> a p ʈ eː ʃ a n p a ɳ ɳ a ɳ u m <no-speech> u m u m s a ɾ i n n aː 
[58.245]
<no-speech> 
[61.735]
aː n aː i ɾ u k k a r a t̪ u l a j eː ɾ o m p a k a ʃ ʈ a m aː n a ʋ eː l ai j aː p oː j i ɾ u n t̪ a t̪ u <hes> s e ŋ k a l p a ʈ ʈ u a t̪ u k k a p p u r a m k aː ɾ ai k k aː l u k k e l l aː m ʋ a n t̪ u <no-speech> p oː s o l ʈ ʈ aː ŋ k a 
[68.925]
<no-speech> 
[71.025]
a p ʈ i l aː m <oov> s o l l a ʋ eː m aː ʈ r aː ŋ k a a t̪ u e n n a m eː ʈ ɾ u n ʈ u au ɭ oː t̪ uː ɾ a m p oː j ʈ ʈ u ʋ a ɾ a ʧ o l r aː ŋ k a a t̪ au m p oː j o ɾ u t̪ a ʈ a ʋ a p oː n aː p oː t̪ aː t̪ aː m k a s ʈ a m a ɾ s u <foreign> i n n i k k u ʋ a ɾ a s o n n aː n a i n n i k k u p oː ɳ u m aː n aː ɭ ai k k i ʋ a ɾ a s o n n aː n aː ɭ ai k k u p oː ɳ u m aː <lipsmack> oː ɾ n aː l a ɲ ʧ u t̪ a ʈ a ʋ ai p oː j a l a j a ɳ u m p oː l i k k i t̪ eː 
[82.355]
<no-speech> 
[85.765]
<no-speech> aː h ʧ aː p p i r a t̪ u k k u ʧ aː p p i r a t̪ e l aː m t̪ a ɾ a m aː ʈ ʈ aː ŋ k a 
[87.765]
<no-speech> 
[90.595]
<no-speech> aː m aː a t̪ u k k u m a ʈ ʈ u m t̪ aː n t̪ aː n a t̪ u ʋ u m ʋ a n t̪ u ɾ o m p a k a ʃ ʈ a p p a ʈ ʈ u t̪ aː n k aː s u m t̪ a ɾ r aː ŋ k a <no-speech> a n t̪ a f i ɾ iː j aː m t̪ a ɾ a m aː t̪ i ɾ i j e l l aː m k e ʈ ai j aː t̪ u 
[95.595]
<no-speech> 
[97.465]
<no-speech> aː ʈ ʈ oː k e n n a ai m p a t̪ u ɾ uː ʋ aː 
[98.625]
<no-speech> 
[102.045]
<no-speech> i n n u m i l l a i n i m eː t̪ aː n s o l l a ɳ u m a ɳ ɳ aː 
[103.665]
<no-speech> 
[109.955]
<no-speech> a ŋ k eː k u ɾ oː m aː i ɾ u k k u l l a <no-speech> k u ɾ oː m aː k k u p a k k a t̪ t̪ u l a 
[116.765]
<no-speech> 
[119.015]
<no-speech> aː h a p p u r a m 
[119.675]
<no-speech> 
[124.015]
<no-speech> aː n i m aː ʈ i h iː ʈ u 
[125.585]
<no-speech> 
[127.855]
<no-speech> 
[128.495]
<no-speech> 
[136.545]
<no-speech> i t̪ u k k u e n n a ʋ a ʧ ʧ u ɾ u k k aː n aː m 
[138.725]
<no-speech> 
[140.475]
<no-speech> aː m aː <no-speech> aː h 
[141.995]
<no-speech> 
[143.685]
<no-speech> j aː ɾ u k k u 
[144.915]
<no-speech> 
[146.765]
<no-speech> eː j a t̪ u k k a l l aː m e n n a 
[148.875]
<no-speech> 
[155.945]
<sta> k a ɳ ʈ i p p aː n aː j a m m ai <no-speech> p i ɾ i j aː s i t̪ t̪ i p eː s u n iː ŋ k a ɭ aː 
[160.245]
<no-speech> 
[168.635]
<no-speech> oː ʧ e ɾ i r i ʧ e ɾ i r i <no-speech> a t̪ u s iː k k i ɾ a m ʋ a n t̪ u k a ɾ e k ʈ aː n a ʈ ai m ʋ a n t̪ u ʧ ʧ u n n aː k eː ʈ ɾ u ŋ k a ɳ ɳ aː 
[172.815]
<no-speech> aː h 
[180.932]
<no-speech> 
[189.048]
<no-speech> 
[197.165]
a t̪ a n aː l a t̪ aː n m a m m i k a ɾ e k ʈ aː u ŋ k a ɭ u k k u f oː n p a ɳ ʈ eː n n aː n u m ʋ a n t̪ a u ʈ a n eː u ŋ k a ɭ u k k u m u t̪ a a t̪ aː n p a ɳ ɳ eː m eː <no-speech> ʋ a ɳ ʈ i 
[201.975]
<no-speech> 
[210.955]
<no-speech> u m u m ʧ e ɾ i r i ʧ e ɾ i r i <no-speech> aː m aː i p p a a ʋ a ɾ u k k u m ʋ a ɳ ʈ i ʋ a n t̪ u n aː m s a ɾ ʋ iː s iː k k u k o ʈ u t̪ t̪ u ɾ u k k eː n 
[215.925]
<no-speech> 
[217.855]
<no-speech> oː k eː j <no-speech> i n t̪ a ʋ a ɳ ʈ i s a ɾ i j aː j i ʈ u ʧ ʧ u n aː u ʈ a n eː i ŋ k a ʋ i t̪ t̪ u n u p oː j ʈ u ʋ i ŋ k a ɭ aː i l l a e p ʈ i e ʈ u t̪ t̪ u ɳ ʈ u p oː ʋ i ŋ k a ɭ aː 
[222.525]
<no-speech> 
[229.975]
<no-speech> p u ɾ i j u t̪ u t̪ e k k u j aː a p p a a ʋ a ŋ k a ʋ a n t̪ u n aː ɭ ai k k u 
[232.545]
<no-speech> 
[237.765]
<no-speech> aː h ʧ e ɾ i r i s e ɾ i n 
[238.975]
<no-speech> 
[243.405]
<no-speech> aː h oː k eː j oː k eː j aː n aː i t̪ u m ʧ u <no-speech> s a ɳ ʈ eː k aː l eː ʤ u t̪ aː n e t̪ u k k u m t̪ eː ʋ a j i l l aː m a i n n ai k k u ʈ ai m ʋ eː ʃ ʈ ʈ u p a ɳ r aː ŋ k a 
[250.235]
<no-speech> 
[253.115]
<no-speech> a ʋ a ŋ k a ʋ a n t̪ u e n n a e t̪ u k k u m t̪ eː ʋ a j i l l aː m a aː n ʈ i ʈ ʈ a ʋ a n t̪ u k eː k k a s o l l i ɾ u k k aː ŋ k a 
[255.785]
<no-speech> 
[264.145]
<no-speech> oː ʧ e ɾ i r i ʧ e ɾ i r i 
[265.345]
<no-speech> 
[269.865]
u m u m 
[270.335]
<no-speech> 
[273.195]
<no-speech> a t̪ e l l aː m e n a k k u t̪ e ɾ i j u m 
[274.135]
<no-speech> 
[275.755]
<no-speech> 
[276.205]
<no-speech> 
[283.385]
<no-speech> 
[290.565]
<no-speech> a p ʈ i j aː a p p a n aː n a m m a m o t̪ t̪ a m aː m a ʈ i ɲ ʧ i ɾ u ʧ ʧ u n u t̪ oː n a ʋ eː j i l l a a ʋ a ŋ k a ŋ k a p oː j i ʈ u p oː j i ʈ u ʋ a ɾ a t̪ a n aː l a eː t̪ oː ʧ o l l a p oː r aː ŋ k a ʋ eː r a o n n u i l l a 
[297.095]
<no-speech> 
[298.665]
<no-speech> 
[299.425]
<no-speech> 
[304.385]
<no-speech> 
[304.755]
<no-speech> 
[307.225]
<no-speech> u m u m oː k eː j <no-speech> eː n n aː a ʋ a ŋ k a k a ʈ ai l a i ɾ u k k u r a t̪ a ɾ e ɳ ʈ ai ɾ e ɳ ʈ u aː ɭ m a ʈ ʈ u m t̪ aː n i ɾ u k k aː ŋ k a ʋ eː r a j aː ɾ u m i l l a p u t̪ u s aː oː p p a n p a ɳ ɳ a k a ʈ a n aː l a 
[313.925]
<no-speech> 
[321.245]
<no-speech> oː k eː j 
[321.995]
<no-speech> 
[329.645]
<no-speech> oː k eː ɳ ɳ aː 
[330.745]
<no-speech> 
[333.235]
oː 
[333.605]
<no-speech> 
[339.025]
<no-speech> oː k eː j 
[339.725]
<no-speech> 
[342.855]
u m u m 
[343.225]
<no-speech> 
[352.885]
<sta> u m u m 
[353.385]
<no-speech> 
[360.325]
<no-speech> oː k eː j 
[360.935]
<no-speech> 
[362.015]
<no-speech> 
[362.395]
<no-speech> 
[367.125]
<no-speech> oː a p p a i p p a e n n a p a ɳ r a t̪ u 
[368.545]
<no-speech> 
[370.855]
<no-speech> i p p a j eː a ʋ a ŋ k a ɭ u k k u f oː n p a ɳ ɳ i r a ʋ aː 
[372.195]
<no-speech> 
[376.575]
<no-speech> o n n u l l a 
[377.375]
<no-speech> 
[384.110]
<no-speech> 
[390.845]
<no-speech> h e l oː 
[391.515]
<no-speech> 
[399.355]
<no-speech> oː k eː j 
[399.985]
<no-speech> 
[402.655]
<no-speech> aː h s e ɾ i ɳ ɳ aː n aː m k eː ʈ ʈ u i n n aː n n u p aː t̪ t̪ u ʧ o l l a r eː n n aː 
[404.555]
<no-speech> 
[406.995]
<no-speech> i t̪ aː n oː ɾ a ɲ ʧ u n i m i ʃ a m aː j i ɾ u k k u m n e n a k k i r eː n 
[408.755]
<no-speech> 
[411.385]
<no-speech> oː ɾ n i m i ʃ a m a p ʈ i j eː i ɾ u ŋ k a p aː k k u r eː n 
[412.875]
<no-speech> 
[415.325]
<no-speech> eː ɻ n i m i ʃ a m aː j i ʈ u ʧ ʧ u n n aː <sta> 
[417.875]
<no-speech> 
[420.265]
<no-speech> aː m aː 
[421.225]
<no-speech> 
[422.395]
<no-speech> i t̪ u m e n n a <no-speech> e n n a p i ɾ aː s a s k k aː k a ʋ a ɾ u t̪ i t̪ u 
[425.225]
<no-speech> 
[430.275]
<no-speech> oː <no-speech> ʧ e ɾ i r i 
[431.125]
<no-speech> 
[437.935]
oː ʧ e ɾ i r i ʧ e ɾ i r i <no-speech> e n n a t̪ a m i ɻ 
[442.095]
<no-speech> 
[443.765]
<no-speech> e n n a ɳ ɳ aː 
[444.545]
<no-speech> 
[449.395]
<int> <laugh> <hes> t̪ a m i ɻ ʋ eː r a p a j a ŋ k a ɾ a m aː p eː ʧ u r iː ŋ k a 
[452.865]
<no-speech> 
[454.025]
<int> a l oː 
[454.815]
<no-speech> 
[464.115]
<no-speech> h a l oː 
[464.675]
<no-speech> 
[473.955]
<no-speech> 
[483.235]
<no-speech> 
[492.515]
<no-speech> aː h s o l l u ŋ k a ɳ ɳ aː 
[493.385]
<no-speech> 
[496.075]
<no-speech> aː h i l l a l l a i p p a t̪ aː n ʋ a n t̪ u f oː n l a p eː s u n i ŋ k a e n n a ɳ ɳ aː 
[498.335]
<no-speech> 
[505.225]
<no-speech> u m u m ʧ e ɾ i r i ʧ e ɾ i r i 
[507.005]
<no-speech> 
[510.605]
aː h s iː ɾ i j a l i s ʈ u <hes> a t̪ a ʋ i ʈ u ŋ k a e n n e n n a m oː ʧ o l r iː ŋ k a ʋ oː ʈ a f oː n <hes> k a m p e n i <hes> i t̪ u l a p eː ʧ a r a m aː ʈ i p eː ʧ u r iː ŋ k a 
[517.055]
<no-speech> 
[520.035]
<no-speech> aː m aː a ʋ a ŋ k a ɭ u k k u m s e m a u ŋ k a ɭ u k k u 
[524.505]
<no-speech> 
[526.885]
<no-speech> 
[527.275]
<no-speech> 
[530.825]
<no-speech> aː h i n i m eː l ʋ a n t̪ u oː ɾ n aː l a ɲ ʧ u t̪ a ʈ a ʋ ai ʋ a n t̪ u i l l aː m a p eː s i n aː t̪ a m i ɻ ʋ a n t̪ u a ɻ a k aː p eː s u ʋ aː ŋ k a e n n a m aː t̪ i ɾ i 
[535.785]
<no-speech> 
[541.075]
<no-speech> u m u m ʧ e ɾ i r i ʧ e ɾ i r i 
[542.285]
<no-speech> 
[543.305]
<no-speech> a ɳ ɳ aː j i n n a k k i p a t̪ ɾ a m ʋ a n t̪ u i n n o ɾ m u k k i j a m aː n a m eː ʈ ʈ a ɾ p eː ʧ a ɳ u m aː a t̪ a ʋ a n t̪ u n eː ɾ l a ʋ a n t̪ u ʧ o l r eː n 
[546.705]
<no-speech> 
[550.185]
<no-speech> a n t̪ a p i ɭ ɭ a k k i ʈ ʈ a n aː <int> p eː ʧ a p i ʈ i k k u m 
[553.575]
<no-speech> 
[556.105]
<no-speech> u m u m 
[557.215]
<no-speech> 
[560.735]
u m u m 
[561.125]
<no-speech> 
[563.065]
<no-speech> i l l a j i l l a n aː m n eː ɾ l a ʋ a n t̪ u ʧ o l r eː n ʋ aː ŋ k a i t̪ u m p e ɾ i j a m eː ʈ ʈ a ɾ i t̪ u m k aː l k a ʈ ʈ aː j i ʈ u m a t̪ i n n u ʋ eː r a o n n u l l a 
[568.685]
<no-speech> 
[571.015]
<no-speech> i l l a j i l l a i t̪ u m ʋ a n t̪ u a t̪ u <oov> 
[573.355]
<no-speech> 
[576.315]
<no-speech> aː h a t̪ u e n n a m oː <laugh> 
[578.925]
<no-speech> 
[581.605]
n eː t̪ t̪ u n aː m a p eː s i ʈ ʈ u i ɾ u n t̪ oː m n aː m s o l l i ʈ ʈ u ɾ u n t̪ eː l l a u ŋ k a k i ʈ ʈ a a t̪ a p p oː j t̪ aː n u ŋ k a k i ʈ ʈ a ʋ a n t̪ u k eː k k a ɳ u m oː ɾ s a ʤ ʤ a ʃ a n a t̪ u k k u n iː ŋ k a e p ʈ i ai ʈ i j aː t̪ a ɾ i ŋ k a n u n aː m p aː k k a ɳ u m <no-speech> a t̪ a 
[589.835]
<no-speech> 
[590.635]
aː h 
[591.105]
<no-speech> 
[593.585]
f i ɾ iː j aː m i ɾ u k k aː n aː m <no-speech> f ɾ i j aː m eː ʈ ʈ a ɾ ʋ a n t̪ u a t̪ u a p p a r a m p aː t̪ t̪ u k k u ʋ aː n aː m 
[596.525]
<no-speech> 
[597.615]
aː h 
[597.985]
<no-speech> 
[598.885]
<no-speech> aː h a t̪ eː t̪ aː ɳ ɳ aː a t̪ eː t̪ aː ɳ ɳ aː 
[600.045]
<no-speech> 
[600.200]
