[0.000]
<no-speech> 
[0.205]
<no-speech> h a l oː <no-speech> aː h ʈ eː j a ɾ u ɳ ʈ aː <no-speech> aː h <laugh> e n n a eː j <hes> i t̪ u p a ɳ r iː j aː e n n a <foreign> p a ɳ r iː j aː e n n a 
[11.615]
<no-speech> 
[12.865]
s a ɾ i n aː n i p p a 
[13.325]
<no-speech> 
[14.195]
<sta> s a m ai j a l e l l aː m ʋ a n t̪ u ʈ e s ʈ i ŋ u p a ɳ i 
[15.815]
<no-speech> 
[16.695]
eː j <no-speech> i l l a l l a s ʈ ɾ e j i ʈ ʈ aː e ŋ k a ʋ iː ʈ ʈ u k k u ʋ a n t̪ u ɾ u <no-speech> 
[20.475]
<no-speech> 
[21.465]
<sta> s p e ʃ a l aː o n n u k e ʈ a j aː t̪ u <laugh> n aː ɾ m a l aː ʋ e ʤ i ʈ e ɾ i j a n t̪ aː n <laugh> n iː n a m p a ɭ a eː m aː t̪ t̪ i <breath> n aː n ʋ e ʤ e l l aː e t̪ u ʋ u m i ɾ u k k aː t̪ u <no-speech> ʋ e ʤ i ʈ e ɾ i j a n t̪ aː n 
[29.855]
<no-speech> 
[31.745]
<sta> a ʈ aː p aː ʋ <laugh> ʋ e ɳ p o ŋ k a l n aː n k aː l l a t̪ aː n ʈ aː s aː p p i ʈ ʈ eː n <laugh> <sta> 
[36.115]
<no-speech> 
[37.635]
<sta> m a t̪ t̪ i j a t̪ t̪ u k k u ʋ a n t̪ u e n n a s aː m p aː ɾ s aː t̪ a m i ɾ u k k oː m <no-speech> ʋ a ʈ a a t̪ e l l aː m s e j ʋ aː ŋ k a <no-speech> 
[42.955]
<no-speech> 
[43.955]
m a ʧ ʧ aː n 
[44.725]
<no-speech> 
[46.415]
<sta> ʋ aː ʋ aː ʋ aː p o r u m ai j aː ʋ aː n aː n s e j s o l l i ʈ ʈ eː n e ŋ k a ʋ iː ʈ l a <no-speech> n iː ʋ aː 
[50.885]
<no-speech> 
[53.875]
<sta> t̪ aː ɾ aː ɭ a m aː t̪ aː ɾ aː ɭ a m aː n aː n ʋ a ɾ eː n <no-speech> a p ʈ i j eː i ŋ k a s aː p p i ʈ ʈ u k o ɲ ʧ a n eː ɾ a m i ɾ u n t̪ u ʈ ʈ u i n n i k k i k a ʈ ai l iː ʋ <foreign> i ɾ u k k aː t̪ u n aː n n e n a k k i r eː n aː m aː <no-speech> eː n ʈ aː p o ŋ k a l a n n i k k i e ʋ a n t̪ aː n ʋ a n t̪ u u n a k k u k a ʈ ai 
[65.805]
<no-speech> 
[65.955]
<no-speech> 
[70.825]
<no-speech> 
[71.845]
<no-speech> 
[72.875]
<sta> s aː ɲ ʧ eː i l l a ʋ a ɾ a m aː ʈ ʈ aː n <no-speech> eː n au ɭ oː p u k k aː ʈ aː ʋ e ʧ ʧ i n u k k i r a <no-speech> e l l aː m e t̪ u i ɲ ʧ i n i j a ɾ i ŋ u p u k k aː <no-speech> 
[81.975]
<sta> e n p uː ʈ ɾ i j aː e n n a a t̪ e l l aː m e n <hes> ʋ eː r a j aː ɾ u k k u m k u ʈ u k k a m u ʈ i j aː t̪ e n n aː <no-speech> 
[86.395]
<no-speech> 
[89.175]
<sta> m o k k a p u k k aː <no-speech> oː h oː k eː j oː k eː j oː k eː j s a ɾ i s a ɾ i ʋ a ɾ a ʋ a ɾ eː <no-speech> a h <no-speech> j u ʋ a n a <foreign> p a ɳ ɳ i j aː 
[98.985]
<no-speech> 
[101.345]
<no-speech> a h aː h <laugh> ʋ iː ʈ l a 
[105.425]
<no-speech> 
[107.285]
<sta> <hes> a t̪ u u n i ʃ ʈ a n t̪ aː n <no-speech> e ŋ k a ʋ eː n n aː l u 
[110.815]
<no-speech> 
[112.835]
<no-speech> e t̪ u <no-speech> 
[115.075]
<no-speech> 
[116.595]
<no-speech> p ai j a n a k uː p ʈ u ʈ ʈ aː <no-speech> eː j k uː p ʈ u n n u p oː j i ʈ a p oː r aː n p aː ɾ u a ʋ a n <no-speech> 
[122.055]
<no-speech> 
[123.325]
<no-speech> eː j e n n a ʈ aː n e n a ʧ ʧ i n u k i r aː n s u m m aː ʋ aː ʈ aː a t̪ u ai s i s i k i ɾ aː m s u e l l aː m p oː r a t̪ u <no-speech> 
[130.985]
<no-speech> 
[132.405]
<sta> s u m m aː i l l a ʈ aː oː ɾ ɾ uː m e l l aː m p a t̪ t̪ aː j i ɾ uː p aː ʈ aː 
[134.585]
<no-speech> 
[136.605]
e n n a <no-speech> n i ʤ a m aː ʋ aː ʧ o l r eː n <sta> a n t̪ a <foreign> ʃ iː ʈ ʈ e l l aː ʋ a ɾ u l l a e n a k k u <no-speech> oː ɾ ɾ uː m k i ʈ ʈ a t̪ t̪ a ʈ ʈ a oː ɾ n ai n t̪ au s a n k i ʈ ʈ a ʋ aː ɾ u m ʈ e k s u e l l aː m s eː t̪ t̪ i e l l aː m oː ɾ p a t̪ i n o ɾ aː j i ɾ u p aː oː ɾ ɾ uː m n aː ɾ m a l i ŋ k a t̪ e ɾ i j aː t̪ u 
[148.175]
ʧ o l r a t̪ u <sta> ʈ e l l i l a <no-speech> ʈ e l l i l a i ɾ u k k aː ɾ u a p p a a t̪ a p aː k k a m p oː t̪ u p aː t̪ t̪ eː n s u m m aː s aː t̪ aː ɾ a ɳ a ʋ i ʃ a j a t̪ t̪ u k k e l l aː p oː ʈ u ʋ aː ŋ k a ʈ aː i ʃ ʈ a t̪ t̪ u k k u <no-speech> ai n n uː r u p aː a t̪ u i t̪ u m 
[159.465]
<sta> aː h oː ɾ n aː ɭ i k k i ʈ aː n aː ɭ u n n aː a n t̪ a n aː ɭ k uː ʈ oː k a m p ɭ iː ʈ u aː k aː t̪ u a t̪ i l a j eː i ɾ u k k i r i j oː i l l i j oː <no-speech> p aː t̪ t̪ aː <hes> l e ʋ a n t̪ au s a ɳ ʈ u ʈ u ʋ a l ʋ t̪ au s a n aː ʋ u m <no-speech> ʈ oː ʈ ʈ a l aː 
[170.885]
<no-speech> 
[172.035]
<sta> a ʃ ʋ i n u k k u n aː n p a ɳ ɳ a ʋ eː j i l l a <no-speech> aː h e n n a aː n aː e n n aː n n eː t̪ e ɾ i l a a ʋ a n a p a ɳ l a ʈ aː n aː j ɾ e ɳ ʈ u n aː ɭ aː 
[179.455]
<no-speech> 
[180.395]
ɾ e ɳ ʈ u n aː ɭ aː <sta> 
[181.805]
<no-speech> 
[184.905]
<sta> a p ʈ i j aː <no-speech> aː m aː aː m aː l a a ʈ u t̪ t̪ a ʋ aː ɾ a m n i ʧ ʧ a j a t̪ aː ɾ t̪ t̪ a m ɾ ai ʈ u ɾ ai ʈ u ɾ ai ʈ u e n a k k u a t̪ u s u t̪ t̪ a m aː ɲ aː p a k a m eː i l l a a ʋ a n e ŋ k a ʈ aː n aː l n aː ɭ e t̪ u m <hes> n i ʧ ʧ a j a t̪ aː ɾ t̪ t̪ a m a p p a ʈ i a n t̪ a ʈ ai m l a i ɾ u k k u m p oː t̪ u eː t̪ oː i t̪ ɾ aː a t̪ ɾ aː n n u s o l l i 
[196.785]
s o n n aː n <sta> s u t̪ t̪ a m aː a ʋ a n s o n n aː n au ɭ oː t̪ aː n a ŋ k a a p ʈ i j eː p oː j ʈ ʈ aː n <no-speech> oː ɾ i t̪ u ʋ u m eː i l l aː m a a p ʈ i j eː i ɾ u k k u t̪ u i ŋ k a i ɾ u n t̪ u n t̪ aː n aː <no-speech> e n n a a t̪ u k k u ɭ ɭ a t̪ e ɾ i ɲ ʧ i ɾ u k k u m a ʋ a n a ŋ k i ɾ u k k aː n o n n u m eː t̪ e ɾ i j a m aː ʈ ʈ eː ŋ k i t̪ u 
[208.025]
<no-speech> f oː n p a ɳ l aː m aː a p ʈ i j oː ʧ i k k i r eː n s a ɾ i <no-speech> e t̪ u k k u m a ʋ a n f oː n p a ɳ ɳ a p i s i j aː ɾ u k k i r eː n ʈ aː i n n i k k e l l aː m ʋ a ɾ a m u ʈ i j aː t̪ u n n u ʋ aː n ʋ a ɾ a m aː ʈ ʈ aː n i ŋ k a k a ɳ ʈ i p p aː <no-speech> k a ɳ ʈ i p p aː ʋ a ɾ a m aː ʈ ʈ aː n a ʋ a n 
[219.955]
<no-speech> 
[220.105]
<no-speech> 
[221.825]
<no-speech> m u h u m e n n a t̪ u <no-speech> 
[226.725]
<no-speech> 
[228.865]
<sta> n aː ɭ ai k k u ʋ a n t̪ u t̪ aː n aː k a n u n aː ɭ eː k k u l iː k u <no-speech> ʋ a j a n aː ʈ u k k aː e ŋ k a aː k ʧ ʧ u ʋ a l aː p oː n aː a t̪ u ʋ u m e n u k k u t̪ e ɾ i j aː t̪ u ʋ ai n aː ʈ u t̪ aː n <no-speech> 
[239.135]
<no-speech> 
[243.355]
<no-speech> u m u m m ai s uː ɾ k uː ɾ k u ɾ o m p a i t̪ u ʋ aː ʧ ʧ eː ʈ aː ʈ ɾ aː ʋ a l i ŋ k aː s s eː ʈ aː <no-speech> 
[252.045]
<no-speech> 
[253.015]
<no-speech> 
[253.485]
<no-speech> 
[255.185]
<no-speech> aː h e l l aː t̪ t̪ ai j u m p aː t̪ t̪ u ʈ ʈ u ʋ a ɾ a m u ʈ i j a m aː eː n m ai s uː ɾ k uː ɾ k eː p oː r aː n i ʋ a n s e ɾ i j aː n a ʋ a n u ŋ k a ʧ i ʧ iː p aː t̪ t̪ a i ʈ a t̪ t̪ ai j eː p aː t̪ t̪ u k k i ʈ ʈ u 
[262.335]
<no-speech> 
[264.435]
<no-speech> u m u m a p ʈ i j aː <no-speech> 
[269.315]
<no-speech> 
[271.695]
<no-speech> 
[273.685]
<no-speech> 
[276.055]
<no-speech> 
[276.695]
<no-speech> 
[277.715]
<no-speech> u m u m i l l a ɾ e ɳ ʈ u ʋ aː ʈ ʈ i p oː j ʈ ʈ oː m n u n e n ai k k i r eː l l a o ɾ u ʋ aː ʈ ʈ i <hes> s k uː l oː ʈ a p oː n aː l l a f a ɾ s ʈ u ʈ ai m aː e n n a <no-speech> eː j n aː n e p p a f oː n eː eː j aː m aː m aː <no-speech> n aː n k uː ʈ a p oː n eː n m ai s uː ɾ k aː l eː ʤ l a f oː n eː <sta> 
[289.125]
<no-speech> aː m aː m aː p a ʈ i k k u m p oː t̪ u f oː n eː <no-speech> ɾ e ɳ ʈ u ʋ aː ʈ ʈ i p oː j ʈ eː n aː n u m <no-speech> 
[295.505]
<no-speech> 
[297.915]
<sta> j aː ɾ a ɳ ɳ i j aː ʋ a n t̪ u ʈ ɾ u k k aː ŋ k a a t̪ aː n n eː t̪ t̪ u n a m m a p aː t̪ t̪ a m o k k a p a ʈ a t̪ t̪ a p aː k k a p oː r aː ŋ k a <no-speech> a t̪ eː t̪ i j eː ʈ ʈ a ɾ l a <laugh> <sta> 
[309.585]
<no-speech> 
[311.375]
<sta> k eː n a ɾ aː ʤ aː l a t̪ aː n <no-speech> 
[314.165]
<no-speech> 
[315.055]
<no-speech> i l l a ʈ i k e ʈ u k e ʈ ai k k i t̪ u n u i l l a a ŋ k a e t̪ u ʋ oː a t̪ aː n k uː p ʈ ɾ u p p aː ŋ k a e n a k k u t̪ e ɾ u ɲ ʧ u <no-speech> s e ɾ i j i l l a ʈ aː aː n aː t̪ i j eː ʈ ʈ a ɾ i t̪ u m p a ɳ ɳ au ʈ a m aː ʈ ʈ aː ŋ k a p p aː a ŋ k a e l l aː m eː n i r ai j a p eː ɾ ʋ a n t̪ u p aː t̪ t̪ iː ŋ k a n n aː p aː t̪ t̪ iː ŋ k a n n aː <sta> a n t̪ a eː ɾ i j aː k k u ɭ ɭ a i ɾ u k k i r a ŋ k a n i r ai j a p eː ɾ ʋ a ɾ aː n u ŋ k a <no-speech> p i ɾ a ʧ ʧ a n ai l a oː ɾ p a t̪ t̪ u p eː ɾ a t̪ uː k k i n u p oː n aː n u ŋ k a p aː ɾ u <no-speech> a l u k k oː ʈ a a ʈ ʈ a k aː s a m p a ɳ ɳ aː m n u s o l ʈ ʈ u o ɾ u t̪ t̪ a n a t̪ e n n aː ʋ oː 
[337.785]
<no-speech> 
[339.145]
<no-speech> 
[339.535]
<no-speech> 
[340.415]
<sta> i l l a l l a a t̪ u ʋ a n t̪ u t̪ i j eː ʈ ʈ a ɾ <hes> l a i ɾ u k k i r a a ʋ a n a ŋ k a ʋ o ɾ k u p a ɳ r a aː ɭ k uː ʈ a k e ʈ ai j aː t̪ u eː t̪ oː ʈ e n ʈ l a m u n n aː ʈ i u k k aː n ʈ ʈ u k k i r a ʋ a n n e n a k k i r eː n p i ɾ a ʧ ʧ a n a p a ɳ ɳ i n t̪ u k k i r aː n <no-speech> a t̪ aː n t̪ uː k k i n u p oː j ʈ ʈ u k k i r aː n 
[351.595]
<no-speech> n aː n p aː t̪ t̪ a n eː a t̪ u <no-speech> n iː m o t̪ a l l a ʋ aː ʋ aː s o l l i ʋ a ʧ ʧ u i ʋ a ŋ k a ɭ eː k a m p ɭ ai ɳ ʈ u p a ɳ ɳ i ɾ u p p aː n i n t̪ a m aː ɾ i j e l l aː p a ɳ r aː a p p i ʈ iː n u <no-speech> a t̪ aː n ʋ a n t̪ u ɾ u k k u m <no-speech> i l l a n aː ʋ a n t̪ i ɾ u k k aː t̪ u aː n aː 
[363.475]
i l l a a n t̪ a ɭ au <hes> ʋ a n t̪ u ɾ o m p a s uː p p a ɾ l l aː m t̪ o l l ai m u ʈ i j aː t̪ u n aː ɾ m a l t̪ aː n aː n aː i n n oː n n u i ɾ u k k u n n u n e n a k k i r eː n m eː l a <no-speech> ɾ e ɳ ʈ u i ɾ u k k u <no-speech> ɾ e ɳ ʈ u s k ɾ iː n i t̪ u l a o ɳ ɳ u m i n n o ɾ m eː l a oː ɾ s k ɾ iː n i ɾ u k k u <sta> 
[375.325]
<no-speech> 
[376.225]
<no-speech> 
[377.145]
<no-speech> a t̪ u l a eː t̪ oː l ai f u aː f u f ai ʋ n e n a k k i r eː <no-speech> 
[382.185]
<no-speech> 
[383.755]
<no-speech> eː j a t̪ u o n n u m a ʈ ʈ u t̪ aː n ʈ aː a n t̪ a ʈ aː k k i a ʈ m aː s l a ɾ u k k u n iː p aː k k a ɳ u m n aː a n t̪ a m aː l ai m a ʈ ʈ u m t̪ aː n t̪ aː n p aː k k a m u ʈ i j u m s i ʋ aː ʤ i e ʈ u t̪ t̪ u ʈ ʈ aː n <sta> 
[391.685]
<no-speech> 
[392.595]
<no-speech> 
[393.945]
<no-speech> 
[395.555]
<no-speech> e t̪ u l a j u m n a l l a p a ʈ a m k i ʈ ai j aː t̪ u ʈ aː <no-speech> e l l aː m t̪ aː n <no-speech> a t̪ u oː ɾ a ɭ au k k u p aː k k a l aː m p aː k k a t̪ a ʋ a n p aː k k a l aː m n iː p aː t̪ t̪ u ʈ ʈ i j aː n iː a n t̪ a p a ʈ a m <no-speech> 
[407.415]
<no-speech> 
[407.565]
<no-speech> 
[409.745]
oː h <sta> aː m aː eː j n iː ʋ a n t̪ a j i l l a 
[411.675]
<no-speech> 
[413.625]
t̪ iː ʋ aː ɭ i k k e l l aː k e ʈ ai j aː t̪ u n aː n m u n n aː ʈ i j eː p oː j p aː t̪ t̪ oː m n iː ʋ eː r a t̪ iː ʋ aː ɭ i k k e l l aː e ŋ k a ʋ e ɭ i l a p oː n oː m <no-speech> a t̪ u k k u m u n n aː ʈ i n a ʋ a m p a ɾ a k ʈ oː p a ɾ a p p a ʈ i 
[421.055]
<no-speech> 
[425.395]
<no-speech> 
[427.275]
<no-speech> 
[428.255]
<no-speech> u m u m <no-speech> ʈ eː j p oː ʈ aː a p p a r a m <no-speech> 
[433.925]
<no-speech> 
[435.425]
<no-speech> 
[435.905]
<no-speech> 
[436.775]
<no-speech> 
[437.995]
<no-speech> 
[440.405]
<no-speech> 
[440.775]
<no-speech> 
[441.955]
<no-speech> a t̪ e l l aː m au ŋ k a ʋ iː ʈ l a t̪ aː n n a m p a ʋ iː ʈ l a o n n u m eː k e ʈ ai j aː t̪ u <no-speech> h aː s ʈ ʈ a l eː j <no-speech> e n a k k eː e t̪ t̪ a n a ʋ a n t̪ u k u ʈ u k k a m aː ʈ ʈ aː ŋ k a ʈ aː a ʋ a ŋ k a <laugh> 
[453.785]
<no-speech> 
[454.945]
<no-speech> 
[460.085]
<no-speech> 
[460.705]
<no-speech> 
[461.845]
<sta> a h aː h a ʋ a ŋ k a ɭ a p aː ɾ u <no-speech> p o ŋ k a l k uː ʈ a k u m p u ʈ ɾ u k k a m aː ʈ ʈ aː ŋ k a i n n eː ɾ a t̪ t̪ i k k u a ɻ a k aː p a ʈ a t̪ t̪ u k k u p oː r aː ŋ k a a ʋ a ŋ k e l l aː n a l l a <foreign> <laugh> <sta> n i m m a t̪ i j aː 
[471.835]
<no-speech> 
[473.045]
<no-speech> 
[473.475]
<no-speech> 
[475.365]
<sta> i ɾ u k k u m n e n a k k i r eː n <no-speech> <foreign> i ɾ u k k u m e n a k k u a t̪ i s i j a n ʈ aː i n t̪ a m aː t̪ i ɾ i oː ɾ i t̪ u m ʋ a n t̪ a t̪ eː k e ʈ a j aː t̪ u ʈ aː o ɾ u n aː ɭ o ɾ u n aː ɭ ʈ aː <sta> o ɾ eː oː ɾ n aː ɭ p oː ŋ k a l u k k u m a ʈ ʈ u m l iː ʋ u ʈ a l aː n n u u ʈ ʈ u a ʈ u t̪ t̪ a n aː ɭ aː f iː s u p oː j i ɾ u k k eː n n aː n u m <no-speech> a p ʈ i j eː u ʈ ʈ u <no-speech> i l l a a p ʈ i j eː n aː ɭ ai k k u l iː ʋ u ʈ ʈ aː l u e n a k k u ʋ a n t̪ u e n n a p a ɳ ɳ u ʋ aː ŋ k a n n aː oː ɾ k aː m a n s e ʈ u p a ɳ ɳ i s a ɳ ʈ eː 
[498.725]
<sta> <lipsmack> i n t̪ a l iː ʋ u ʈ ɾ u ʋ aː ŋ k a <no-speech> i p p a e n a k k u e t̪ u m eː <foreign> k e ʈ ai j aː t̪ u ɾ e ɳ ʈ u n aː ɭ l iː ʋ s aː l i ʈ aː m a ɳ ʈ eː ʈ j u s ʈ eː aː n aː s ɾ iː t̪ a ɾ ʋ a n t̪ a p aː t̪ t̪ eː n ʋ a ʧ ʧ i k k a oː ɾ 
[509.785]
<sta> s a ɳ ʈ eː ʋ a n t̪ u ʋ a ɾ a s o l l i j i ɾ u k k aː ŋ k oː ʈ o n ʈ i f i f t̪ u a n n i k k i s i k s ʈ i n t̪ t̪ oː l iː k u u ʈ ʈ aː ŋ k oː 
[514.235]
<no-speech> 
[515.825]
ʈ i j uː s ʈ eː ʋ u m <hes> l iː k u u ʈ ʈ aː ŋ k oː <sta> 
[517.345]
<no-speech> 
[518.235]
<sta> aː n aː n aː n a t̪ aː n e p p a m a n t̪ a <hes> j uː n i ʈ l a n t̪ u ʋ a n t̪ a n oː ʈ aː <no-speech> l iː ʋ aː ʋ aː ɾ i e r ai k k i ɾ aː ŋ k a ʈ aː <no-speech> 
[525.245]
<no-speech> 
[527.585]
<no-speech> k a ʃ ʈ oː n aː p p aː ɾ o m p a s u t̪ t̪ a m aː k e ʈ ai j aː t̪ u p u ɾ o ʈ a k ʃ a n <no-speech> ɾ o m p a i t̪ u ʋ aː ɾ u k k u t̪ u e l l aː m o ɾ u ʋ aː ɾ e l l aː l iː ʋ e ʈ u t̪ t̪ u ʈ ɾ u n t̪ aː ŋ k a ɭ aː <no-speech> i t̪ u l e n n aː f e s i l i ʈ ʈ i n aː 
[539.175]
<no-speech> 
[540.535]
u m u m k aː ɾ p i ɾ eː ʈ l a e p p au m eː ʋ a n t̪ u <hes> p aː t̪ t̪ eː n aː <lipsmack> ʋ eː l a i ɾ u n t̪ u ʈ ʈ u t̪ aː n ʈ aː i ɾ u k k u n aː n eː t̪ oː <hes> i ɾ u k k oː m a p ʈ i n n u p aː t̪ t̪ eː n i ɾ u n t̪ u ʈ ʈ u t̪ aː n i ɾ u k k u e t̪ a n aː o ɳ ɳ u m <sta> 
[551.045]
<no-speech> 
[552.205]
<sta> e t̪ u n aː o ɳ ɳ u m i ɾ u n t̪ u k i ʈ ʈ eː t̪ aː n i ɾ u k k u <no-speech> eː t̪ oː <no-speech> i p p a t̪ aː n 
[557.125]
<no-speech> 
[560.895]
<no-speech> j aː ɾ a ʋ a n u k k aː <no-speech> e p ʈ i ʈ aː 
[564.025]
<no-speech> 
[566.145]
<sta> <laugh> aː n aː n e r a j oː eː t̪ oː n a ʈ a n t̪ u k i t̪ u ɾ aː e l l aː t̪ t̪ ai j u m n e r a j oː m a r ai k k i ɾ aː n ʈ aː a ʋ a n 
[569.665]
<no-speech> 
[571.225]
a p p a <sta> i l l a ʋ a n t̪ u a n n ai k k i k o ɲ ʧ a m i t̪ u m p a ɳ ɳ i n t̪ aː s o l l i ɾ u p p aː n eː t̪ oː aː n aː i ʋ a i ʋ a n s ai ʈ l a n t̪ eː e t̪ u m p i ɾ a ʧ ʧ a n a i l l a a ʋ a n k uː ʈ a eː t̪ oː k eː ʈ r u k k aː ŋ k a p oː l a k iː t̪ u <no-speech> i l l a i t̪ e l l aː m e ŋ k i ʈ ʈ a e t̪ u ʋ u m s o l l a ʋ eː j i l l a ʈ aː a ʋ a ŋ k a m m aː p eː s i n a t̪ u <sta> a ʋ a ŋ k a m m aː ʋ eː ɳ aː a p ʈ i n n u s o n n a t̪ u m s o l l a ʋ eː j i l l a e ŋ k i ʈ ʈ a <no-speech> ʈ eː j a n n i k k i t̪ aː n ʧ o l r aː n a ʋ a ŋ k a m m aː l l aː k eː p eː s i n aː ŋ k a ʈ aː a p p i ʈ i i t̪ u m p a ɳ ɳ aː ŋ k a a ʋ a n 
[593.025]
i p ʈ i t̪ aː n <sta> a p ʈ i n l aː m ʧ o n n aː ŋ k a n r a t̪ e l l aː ʋ a n t̪ u <hes> e ŋ k i ʈ ʈ a i t̪ u ʋ a ɾ ai k k u m s o n n a t̪ u m k uː ʈ a k e ʈ ai j aː t̪ u <no-speech> a t̪ aː n ʧ o l r aː n eː a n n i k k eː t̪ aː n e ŋ k a ʋ iː ʈ l a k uː ʈ a 
[599.860]
