[0.000]
<no-speech> 
[4.955]
<no-speech> 
[5.315]
<no-speech> 
[8.745]
<no-speech> 
[9.175]
<no-speech> 
[11.745]
<sta> h a l oː 
[12.345]
<no-speech> 
[15.185]
m aː ŋ k aː m m aː ʋ a ɾ l a <no-speech> e ŋ k a ʋ iː ʈ ʈ u k k u ʋ a ɳ ʈ ʈ i j aː m m aː 
[17.685]
<no-speech> 
[21.005]
s iː s iː k k i ɾ a m ʋ a ɳ ʈ ʈ u k u r iː ŋ k a i n n ai k k u 
[24.595]
<no-speech> 
[31.205]
aː h 
[31.855]
<no-speech> 
[38.215]
p a t̪ t̪ eː k aː l aː ʧ ʧ aː u m u m 
[39.725]
<no-speech> 
[40.655]
<sta> ʧ e ɾ i r i a p p a r a m s aː p ʈ a p oː r eː n 
[42.855]
<no-speech> 
[45.165]
aː n <int> 
[45.655]
<no-speech> 
[46.465]
i ʈ l i 
[47.255]
<no-speech> 
[49.715]
<sta> t̪ a k k aː ɭ i s a ʈ n i 
[50.705]
<no-speech> 
[52.105]
aː h 
[52.655]
<no-speech> 
[53.675]
t̪ a k k aː ɭ i <sta> s a ʈ n i 
[54.645]
<no-speech> 
[55.915]
ai s u i n n ai k k u l iː k u t̪ aː n ʋ iː ʈ l a t̪ aː n i ɾ u k k u t̪ u n aː ɭ ai k k u ʋ o ɾ k k i ŋ u ʈ eː a t̪ u k k u n aː ɭ ai k k i s a ɳ ʈ eː ʋ u m 
[60.505]
<no-speech> 
[62.115]
<sta> n aː ɭ ai k k u m s a ɳ ʈ eː ʋ u m ʋ o ɾ k k i ŋ u ʈ eː u m u m 
[64.865]
<no-speech> 
[69.335]
i l l a e t̪ aː ʋ a t̪ u m aː t̪ t̪ i n eː i ɾ u p p aː ŋ k a e t̪ aː ʋ a t̪ u ʋ aː ɾ a t̪ t̪ u l a <int> ɾ e ɳ ʈ u n aː ɭ m aː t̪ t̪ i n eː i ɾ u p p aː ŋ k a 
[73.605]
<no-speech> 
[76.815]
a p p a r a m 
[77.475]
<no-speech> 
[79.185]
ʧ o l l u ŋ k a s aː j a n t̪ a ɾ a n t̪ aː n p aː t̪ t̪ eː n u ʈ a m p u o ɾ u k aː ɾ a m aː u ʈ a m p u ʧ a ɾ i j i l l a j aː m 
[82.425]
<no-speech> 
[84.155]
<sta> a t̪ a ʧ o l l a ʧ o n n aː ɾ u e l l aː m p aː ʋ a m ʋ e ʧ ʧ u ʈ u r eː n a p ʈ iː n n aː ɾ u ʧ e ɾ i r i n aː n ʧ o l r eː n 
[91.425]
<no-speech> 
[96.755]
u m u m <sta> f aː ɾ m e l l aː m p a ɳ ɳ i k uː ʈ a k o ʈ u k k i r eː n n aː ɾ eː 
[100.305]
<no-speech> 
[101.955]
a p ʈ iː n aː ɾ eː aː h a t̪ aː n ʧ e ɾ i r i a t̪ a k aː j a a n u ʧ ʧ u ʋ i ʈ u r eː n p a ɳ ɳ i k k a ŋ k a n aː ɾ eː a ʋ a ɾ k i ʈ ʈ a a ʋ a ɾ p o ɳ ɳ u e n n a m oː ʈ o k k oː m oː i t̪ u m ʋ e ʧ ʧ u ɾ u k k aː m i n t̪ a p i p i o m aː r i 
[112.275]
aː h <int> 
[113.215]
<sta> a t̪ u l a p i s i j aː i ɾ u k k u r aː ɾ u p oː l a ɾ u k k u ʋ eː r a o n n u l l a 
[115.945]
u m u m 
[116.955]
ʋ eː r a a t̪ a n aː l a t̪ aː n i n t̪ a aː n aː l t̪ aː n u ʈ a m p u s a ɾ i l l aː m a p oː ʧ ʧ aː m aː ɭ u ŋ k a i l l aː m a aː ɭ u ŋ k a l aː m ʋ eː ɳ u m <sta> k eː ʈ ʈ u ɾ u n t̪ aː ɾ u p i p i o i t̪ u k k u ʈ o k k oː m oː i t̪ u m s aː ɾ 
[126.395]
<no-speech> 
[127.535]
a ŋ k a p aː t̪ t̪ eː n 
[128.405]
<no-speech> 
[130.795]
i ŋ k a t̪ aː n n a m p a i t̪ u l a j eː k a ʈ ai ʧ i l a n a m m a ɾ oː ʈ l a j eː k a ʈ ai ʧ i l a 
[133.765]
<no-speech> 
[135.675]
oː ɾ s i n n a h aː l e ʈ u t̪ t̪ u ʋ eː r a e ŋ k eː j oː s aː f ʈ ʋ eː ɾ l a ʋ eː l a p a ɳ ʈ ʈ u i p p a i n t̪ a ʋ eː l a p i p i o t̪ a n i j aː e ʈ u t̪ t̪ u p a ɳ r aː ŋ k a p oː l a k k u t̪ u <int> 
[142.705]
<no-speech> 
[143.845]
<click> u m u m a t̪ eː n ʧ e ɾ i r i a n t̪ a m aː t̪ i ɾ i a t̪ u 
[148.235]
<no-speech> 
[150.785]
aː h s i ʋ a ɾ aː t̪ t̪ i ɾ i k k i ʋ a ɾ a m u ʈ i j aː t̪ u m m aː eː n n aː i t̪ u m aː ɾ ʈ a ɾ s u ʋ a n t̪ u ɾ u ʧ ʧ u 
[155.205]
<no-speech> 
[156.005]
p a ɻ ai j a p a ʈ i s a ɾ i j aː aː ɾ ʈ a ɾ ʋ a n t̪ u ʈ u ʧ ʧ u ɾ e ɳ ʈ u p eː ɾ u m eː <int> a k k aː ʋ u m a k k aː ʋ u m n aː n u m ɾ e ɳ ʈ u p eː ɾ u m eː p oː j i ʈ u ʋ oː m 
[162.755]
<no-speech> 
[163.565]
t̪ i ŋ k a k e ɻ a m a l a ɾ u n t̪ u ʋ a ɾ a s o l ʈ ʈ aː ɾ u <no-speech> aː f iː s k k u <no-speech> t̪ i ŋ k a k e ɻ a m a ɾ u n t̪ eː ʋ eː l a n n u ʈ ʈ aː ɾ u <no-speech> f eː k ʈ a ɾ i k k u 
[168.155]
<no-speech> 
[170.565]
<sta> a t̪ aː n t̪ i ŋ k a k e ɻ a m a l a ɾ u n t̪ eː ʋ eː l a n ʈ ʈ aː ɾ u i p p a j eː s o l ʈ ʈ aː ɾ u 
[174.085]
<no-speech> u m u m 
[175.135]
<int> i ɾ u k k u a t̪ u i ɾ u n t̪ aː e ŋ k a j u m p oː m u ʈ i j aː t̪ u 
[177.645]
s m oː k u 
[179.085]
<sta> s a n ʈ eː m a ʈ ʈ u m t̪ aː n t̪ aː n l iː ʋ s a n ʈ eː m a ʈ ʈ u m t̪ aː n l iː k u i ɾ u k k u m 
[181.845]
<no-speech> 
[187.055]
a ʈ u t̪ t̪ u e n n a ʋ eː l a p a ɳ ɳ u ʋ aː ŋ k a 
[188.665]
<no-speech> 
[190.855]
a t̪ t̪ ai t̪ aː n ʋ eː l a p a ɳ r aː ŋ k a 
[192.445]
<no-speech> 
[196.075]
u m u m a t̪ aː n a t̪ aː n a t̪ a t̪ aː n au ŋ k a t̪ aː n ʋ eː l a p a ɳ ɳ u ʋ aː ŋ k a 
[199.445]
<no-speech> 
[200.975]
<sta> 
[202.155]
<no-speech> 
[203.355]
k i ɾ a ɳ p i s i j aː i ɾ u k k u r aː n k aː l eː l a ɾ u n t̪ u i n t̪ a k i ɾ a ɳ p i s i j aː t̪ aː m p p aː i ɾ u k k aː n k aː l ai l a p oː j ʈ ʈ u n ai ʈ u t̪ aː n ʋ a ɾ r aː n k i ɾ a ɳ 
[210.605]
u m u m <no-speech> 
[218.405]
e t̪ u k k u m m aː 
[219.245]
<no-speech> 
[220.485]
<sta> j aː ɾ u k k u 
[221.245]
<no-speech> 
[227.545]
n iː ʋ eː r a a ʋ a n e ŋ k a ɭ ai ʋ i ʈ ʈ u t̪ a n i j aː ʋ a ɾ a m aː ʈ ʈ aː n i ŋ k a i ɾ u k k u r a t̪ i ɾ u ʋ a ɳ ɳ aː m a l a k k eː e ŋ k a ɭ ai ʋ i ʈ ʈ u ʋ a ɾ a m aː ʈ ʈ eː ŋ k u r aː n 
[232.195]
<no-speech> 
[233.805]
aː h <int> 
[234.225]
<no-speech> 
[236.485]
<int> u m u m u m u m 
[237.175]
<no-speech> 
[239.815]
<sta> s eː ɾ i ŋ u ɳ ɳ aː i p p a p i ɾ a p u ʋ a ɳ ʈ ʈ aː ŋ k a 
[241.695]
<no-speech> 
[242.715]
p i ɾ a p u <sta> ʋ a ɳ ʈ ʈ aː m p p aː 
[243.885]
<no-speech> 
[245.425]
<int> 
[245.855]
<no-speech> 
[246.675]
a t̪ u <int> n eː t̪ t̪ eː 
[247.715]
<no-speech> 
[249.225]
n iː n ai ʈ ʈ i ʋ a n ʈ ʈ i j aː s a ɾ i s a ɾ i s a ɾ i 
[251.635]
<no-speech> 
[255.255]
u m u m <int> 
[255.905]
<no-speech> 
[256.725]
i t̪ u l a a n t̪ a <sta> s iː n u ʋ oː ʈ a n a m p a ɾ t̪ e ɾ i j u m aː p i ʧ ʧ a m aː m aː p ai j a n n a m p a ɾ 
[259.535]
<no-speech> 
[261.265]
<int> s iː ɳ s iː ɳ 
[262.785]
<no-speech> 
[266.685]
s uː ɾ j aː ʋ oː ʈ a a ɳ ɳ eː t̪ u ʃ j a n i l l a m m aː aː h i t̪ u m ɾ aː m a s u p p u 
[270.375]
<no-speech> 
[272.105]
<int> n a ɳ p a ɾ i ŋ k a i ŋ k a ʋ eː ɭ a ʧ ʧ eː ɾ i k k i ʋ a ɾ eː n n aː p p u l a a ʈ i k k a ʈ i ʋ a ɾ eː n a p ʈ i n aː p l a 
[276.855]
<no-speech> 
[277.955]
p ai j a n <sta> p eː ɾ 
[279.075]
<no-speech> 
[284.765]
e ŋ k a a n t̪ a i ʋ a ŋ k a ʋ iː ʈ ʈ u k k u p oː r a t̪ u k k u ɭ ɭ a j eː e ŋ k a ɭ ai ʋ i ʈ ʈ u p oː j i ʈ ʈ aː ɾ u i ʋ a ɾ 
[287.375]
<no-speech> 
[292.725]
<no-speech> p a l l aː ʋ a ɾ a m 
[297.685]
<no-speech> 
[302.335]
i l l a <int> i l l a aː h ʋ a n t̪ u ʈ ʈ iː ŋ k a ɭ aː n u k eː k k u r a t̪ u k k u t̪ aː n au ŋ k a ɭ l aː m e n n a ʋ a n t̪ u p oː r a t̪ u k k u t̪ aː n ʋ eː r a o ɳ ɳ u m ʋ i ʃ a j a m i l l a 
[308.405]
<no-speech> 
[316.535]
u m u m a t̪ aː n s o n n aː p l a a ʈ i k k a ʈ i n aː n a ŋ k a ʋ a n t̪ u ʈ ʈ u oː ɾ n aː ɭ ɾ e ɳ ʈ u n aː ɭ i ɾ u n t̪ u ʈ ʈ u ʋ a n t̪ u ʈ u ʋ eː n a p ʈ iː n n aː p l a 
[321.315]
<no-speech> 
[322.675]
<no-speech> 
[323.035]
<no-speech> 
[325.315]
u m u m a t̪ aː n n iː <int> 
[326.215]
<no-speech> 
[327.945]
<no-speech> 
[328.315]
<no-speech> 
[330.195]
s o n n aː p ʈ i s o n n aː p ʈ i s iː ɳ ɾ aː m ʧ u p p eː s o n n aː p l a n eː t̪ t̪ eː <int> n eː t̪ t̪ eː k eː k k a ɳ u m n u n e n a ʧ ʧ eː n m a k aː i n t̪ a i t̪ u m e n n a m oː p aː l i s i p aː l i s i n i j eː e n n a p aː l i s i 
[340.345]
<no-speech> 
[342.305]
u m u m <int> 
[342.665]
<no-speech> 
[346.365]
aː m aː m aː <int> 
[347.575]
<no-speech> 
[350.855]
oː h oː n aː n n e n a ʧ ʧ eː n u ŋ k a ɭ u k k u s aː ɲ ʧ u k k u e t̪ aː ʋ a t̪ u ʋ a ɾ u t̪ eː aː h au ŋ k a ɭ l a j aː ɾ aː ʋ a t̪ u i n ʃ uː ɾ p a ɳ r iː j aː i p p a e n a k k u e l ai s i k k u k u ʈ u t̪ t̪ aː n a l l aː ɾ u k k u m eː n u p aː t̪ t̪ eː n 
[358.995]
<no-speech> 
[364.615]
l ai f u l ai f u l ai f u i n ʃ uː ɾ a n s u eː ʤ a n ʈ ʈ u a ʋ a n 
[367.825]
<no-speech> 
[369.775]
<no-speech> 
[370.125]
<no-speech> 
[374.865]
<int> a p ʈ i j aː <laugh> i t̪ u m u ŋ k a k a m p e n i j aː 
[378.125]
<no-speech> 
[381.645]
ʃ eː ɾ ai e n ʤ i ʋ ai s i j aː l a <sta> aː n 
[386.165]
<no-speech> 
[387.675]
e ŋ k a <int> 
[388.365]
<no-speech> 
[393.315]
u m u m 
[393.905]
<no-speech> 
[402.915]
u m u m ai j j a ɾ aː a n n ai k k u u n k uː ʈ a ʋ a n t̪ aː ɾ eː 
[405.455]
<no-speech> 
[408.885]
<no-speech> 
[409.495]
<no-speech> 
[413.115]
u m u m i t̪ u m e n n a n n a i t̪ e l l aː m i ɾ u k k u t̪ u i t̪ u m l ai f u i n ʃ uː ɾ a n s u i t̪ u l a ai e n ʤ i ʋ ai ʃ j aː l a 
[417.485]
<no-speech> 
[421.795]
aː h <int> 
[422.195]
<no-speech> 
[423.185]
<sta> a n t̪ a i p p oː m aː h i t̪ u l a oː ɾ ai m p a t̪ u ʋ a j a s u k k u p i ɾ iː m i j a m e ʋ ɭ oː k a ɳ ɳ aː 
[430.125]
<no-speech> 
[432.835]
ai m p a t̪ u ʋ a j a s u <foreign> p aː l i s i k k i 
[435.335]
<no-speech> 
[437.645]
<foreign> <sta> 
[439.905]
<no-speech> 
[445.205]
<sta> e t̪ u m eː k u ʋ aː ɾ ʈ ʈ a l i h aː f a l i k e ʈ aː j aː t̪ aː e t̪ u m k u ʋ aː ɾ ʈ ʈ a l i h aː f a l i k e ʈ aː j aː t̪ aː 
[450.065]
<no-speech> 
[459.085]
k o r a ɲ ʧ a p i ɾ iː m i j a m m u <int> a p p a ai m p a t̪ u ʋ a j a s u k k u ʤ aː s t̪ i i ɾ u k k u t̪ aː 
[463.155]
<no-speech> 
[465.365]
n a m m a ʋ iː ʈ ʈ u k k u a t̪ u ʤ aː s t̪ i i ɾ u k k u m 
[466.915]
<no-speech> 
[476.385]
aː m aː k a m i ʃ a n 
[479.695]
<no-speech> 
[486.325]
u m u m 
[486.835]
<no-speech> 
[488.065]
<sta> e ʋ ɭ oː p e ɾ ʃ a n ʈ eː ʤ u 
[489.855]
<no-speech> 
[491.075]
e ʋ ɭ oː p e ɾ ʧ e n ʈ eː ʤ u ŋ k a <hes> f a ɾ s ʈ u i j a ɾ e ʋ ɭ oː p e ɾ s e n ʈ e ʤ u 
[493.695]
<no-speech> 
[496.895]
m u p p a t̪ t̪ a ɲ ʧ u <hes> a p p a r a m a t̪ u k k u s e k a ɳ ʈ u i j a ɾ l a ɾ u n t̪ u 
[500.705]
<no-speech> 
[503.705]
a ŋ k a e l ai s i p aː l i s i 
[506.305]
<no-speech> 
[511.965]
a ŋ k a e l ai s i l a j u m a p ʈ i t̪ aː n e l ai s i l a j u m a p ʈ i t̪ aː n 
[514.665]
<no-speech> 
[516.835]
u m u m <int> 
[517.195]
<no-speech> 
[519.355]
i l l a ɳ eː a t̪ e l l aː m k e ʈ a j aː t̪ u f a ɾ s ʈ u i j a ɾ t̪ eː ɾ ʈ ʈ i f ai ʋ t̪ eː ɾ ʈ ʈ i p ɭ a s u f ai ʋ a p p a r a m f ai ʋ t̪ aː n p aː l i s i l e n t̪ u f ai ʋ t̪ aː n 
[526.095]
i l l a <no-speech> 
[530.425]
<int> aː m aː 
[530.865]
<no-speech> 
[531.965]
ʧ e ɾ i r i ʧ e ɾ i r i u m u m e t̪ t̪ a n a l ai f u e t̪ t̪ a n a k a m a ɾ ʃ i j a l e ʋ ɭ oː <int> ʋ a ɾ u ʃ a t̪ t̪ u k k u k a m a ɾ ʃ i j a l e ʋ ɭ oː l ai f s u e t̪ t̪ a n a m aː 
[539.995]
<no-speech> 
[550.125]
u m u m u m u m 
[551.275]
<no-speech> 
[552.765]
eː j 
[553.355]
<no-speech> 
[555.195]
aː h aː h i l l a m i n i m a m <sta> k u ʋ aː l i f ai aː k a ɳ u m k u ʋ aː l i f ai aː k a ɳ u l l a <hes> k u ʋ aː l i f ai aː k a ɳ u m <oov> k u ʋ aː l i f ai aː k a ɳ u m eː p a n n e ɳ ʈ u l ai f u oː t̪ u p u ʈ i k k a n u m 
[566.615]
<no-speech> 
[575.735]
i l l a i l l a p p aː oː ɾ aː r u <oov> aː r u m aː s a m aː t̪ t̪ aː 
[579.155]
<no-speech> 
[582.345]
a t̪ aː n k eː ʈ ʈ u k k u ʋ oː m oː ɾ ʋ a ɾ u ʃ a t̪ t̪ u k k u e ʋ ɭ oː l ai f u p u ʈ i k k a n u m e ʋ ɭ oː k a m a ɾ ʃ i j a l p u ʈ i k k a n u m 
[586.125]
<no-speech> 
[587.245]
<sta> e ʋ ɭ oː 
[587.835]
<no-speech> 
[591.455]
aː h aː h ʧ e ɾ i r i ʧ e ɾ i r i ʧ e ɾ i r i a t̪ u k k u t̪ aː n k eː ʈ ʈ eː n p a n n e ɳ ʈ u ɾ uː ʋ aː j aː m i n i m a m p a n n e n ʈ u n u n e n a k k i r eː n i l l a 
[596.325]
<no-speech> 
[597.140]
