[0.000]
<no-speech> 
[1.735]
h a l oː <int> 
[2.665]
<no-speech> 
[3.815]
h a l oː ʋ i k k i p eː ʧ u r eː n ʈ aː <no-speech> s a ɾ i a t̪ a <foreign> e n k uː ʈ a oː ɾ p a t̪ t̪ u n i m i ʃ a m p a t̪ i n a ɲ ʧ u n i m i ʃ a m p eː s u m <sta> 
[9.275]
<no-speech> 
[11.035]
eː n k uː ʈ a <int> 
[11.655]
<no-speech> 
[12.705]
e n n a ʈ aː <int> 
[13.425]
<no-speech> 
[16.465]
<no-speech> a t̪ aː n ʈ aː a ʋ a ɾ i t̪ u e ʈ u k k u r aː ɾ u iː ʋ a ɳ ʈ ʈ u k k u <laugh> a t̪ aː ʋ a t̪ u p a t̪ i m u ɳ u ʋ i ʃ a j a m p eː s i s a ɾ i a t̪ a <foreign> p aː l i ʈ i k s u e n n aː ʧ ʧ u <sta> 
[27.505]
<no-speech> 
[30.015]
ʈ eː j eː j i ɾ u ʈ aː ʈ eː j l uː s u <no-speech> p a t̪ t̪ u n i m i ʃ a m i ɾ u ʈ aː k a ʈ u p a ɳ ɳ i ʈ aː t̪ a f l i s ʈ aː ʈ eː j k aː p p a t̪ t̪ u ʈ aː <sta> 
[36.305]
<no-speech> 
[38.055]
e n n a ʈ aː <int> 
[38.785]
<no-speech> 
[41.715]
ʈ eː j ʈ eː j i ɾ u ʈ aː l uː s u 
[43.035]
<no-speech> 
[44.325]
i ɾ u oː ɾ n i m i ʃ a m i ɾ u ʈ aː <no-speech> eː j e ŋ k a i ɾ u k k a e ŋ k a ʈ aː i ɾ u k k a j aː ɾ k uː ʈ a <no-speech> j aː ɾ k uː ʈ a <no-speech> ʈ eː j ʈ eː j <sta> 
[55.575]
<no-speech> ʈ eː j m a ʧ ʧ aː n ʈ eː j i ŋ k a p aː ɾ u ʈ aː <sta> 
[58.435]
<no-speech> 
[59.475]
e n t̪ a ɾ uː m l a ʈ aː i ɾ u k k u <no-speech> ʈ eː j l uː s u oː ɾ ʈ e j ʤ i s a n k uː ʈ a p a n n i ʈ ʈ a m eː ʈ aː <sta> 
[70.945]
<no-speech> ʈ e j l i m i ʃ a n l a k uː ʈ a p a n n i t̪ t̪ a ɾ a m aː ʈ ʈ i ŋ k a ɭ aː <sta> 
[74.005]
<no-speech> 
[76.265]
ʋ i ʃ eː ɳ r aː ʋ i ʃ eː ɳ r aː 
[77.895]
<no-speech> 
[80.075]
p a ɳ ʈ aː n iː ŋ k a l l aː m i t̪ u k k u p a n n u ʋ i ŋ k a ʈ aː eː r k a n a ʋ eː a t̪ e l l aː m i ɾ u k k aː ɳ ʈ aː p u t̪ u s aː p a n n a ʧ o l r aː ɳ ʈ aː <sta> 
[86.485]
<no-speech> 
[87.775]
ʋ iː aː ɾ h aː p p i <no-speech> n iː ŋ k a a t̪ oː s o l l i ʈ ɾ u n t̪ i ŋ k a l l a p u t̪ u s aː e t̪ aː ʋ a t̪ u <sta> 
[92.375]
<no-speech> 
[94.795]
n a l l aː ɾ u <no-speech> eː r k a n a ʋ eː i t̪ u m i ɾ u k k u ʈ aː <no-speech> e n n a ʈ aː <sta> 
[99.045]
<no-speech> 
[101.065]
ʋ eː r a p aː t̪ t̪ i ɾ u k k i ŋ k a ɭ ɭ a ʈ aː i t̪ a t̪ aː n ʋ e j i l l a m eː n u p eː k ʧ ʧ a ɾ i ŋ u p a ɳ r a l l a <sta> 
[105.305]
<no-speech> 
[106.445]
a n t̪ a <foreign> ʋ a n t̪ u ʋ eː r a e t̪ aː ʋ a t̪ u p u t̪ u s aː <no-speech> k u ʈ u k k a ʋ eː k uː ʈ aː t̪ u <sta> 
[114.635]
<no-speech> 
[115.705]
a t̪ u m aː ɾ i <int> 
[116.455]
<no-speech> 
[117.315]
k aː l a j i l i j aː i t̪ u m p aː ʈ u r a ʋ a ɾ ai j i m p a t̪ t̪ u n i m i ʃ a m e ʈ u t̪ t̪ u k k a ŋ k a ʈ aː <sta> 
[120.955]
<no-speech> 
[122.805]
ʧ e ɾ i r i ʧ e ɾ i r i i l l a n aː p oː n a t̪ uː k k i p a t̪ t̪ i n i m i ʃ a m p aː k k a ʈ l a ʋ a ʧ ʧ i ʈ u <sta> 
[124.705]
<no-speech> 
[126.585]
ʈ eː j ʋ a ʧ ʧ u n u ʋ aː <int> 
[128.375]
<no-speech> 
[129.565]
ʈ eː j e n a k k eː t̪ e ɾ i j a l a ʈ aː s u n n i t̪ aː n ʈ aː f oː n p a ɳ ɳ i k u ʈ u t̪ t̪ aː n a m p a t̪ u ɾ u ʋ aː k i ʈ ai k k u m m a ʧ ʧ aː n a t̪ aː n p eː s i ʈ ɾ u k k eː n <sta> 
[134.785]
<no-speech> 
[135.625]
e n a k k i l l a ʈ aː a ʋ a n u k k u ʈ aː <no-speech> aː m aː m aː <laugh> s a ɾ i <sta> 
[145.485]
<no-speech> 
[146.805]
e n n a ʈ aː <int> 
[147.535]
<no-speech> 
[149.505]
ʈ i ɾ aː k ʈ ɾ u l a t̪ uː k k i ʈ ʈ u p oː r aː ŋ k a ɭ aː <sta> 
[150.985]
<no-speech> 
[153.805]
a p ʈ eː k a ʈ u p a n ɳ i k k oː <no-speech> a p ʈ eː ʋ a ʧ ʧ u k k i n eː i ɾ u k k i ŋ k a ɭ aː <sta> 
[156.205]
<no-speech> 
[162.485]
<no-speech> 
[164.745]
<no-speech> 
[167.065]
<no-speech> 
[168.505]
<no-speech> 
[169.965]
<no-speech> 
[171.555]
<no-speech> 
[172.805]
<no-speech> 
[174.865]
<no-speech> 
[176.145]
<no-speech> 
[177.515]
<no-speech> 
[181.380]
