[0.000]
<no-speech>
[3.135]
<no-speech>
[3.695]
<no-speech>
[8.695]
<no-speech>
[9.435]
<no-speech>
[11.225]
<no-speech>
[11.975]
<no-speech>
[13.655]
<sta> klausau
[14.395]
<no-speech>
[17.055]
<sta> klausau
[17.835]
<no-speech>
[19.615]
<sta> tai <hes> nu jau (()) <laugh> jau jau prie pabaigos jau beveik <breath>
[24.815]
<no-speech>
[26.295]
<sta> <lipsmack> nepabaigsiu
[27.445]
<no-speech>
[31.845]
<sta> galima gali- ne ne ne jau jau nuėjau atėjau į kitą kambarį tai jau <no-speech> jau dabar
[37.775]
<no-speech>
[38.945]
<sta> nu jo iki <click>
[40.175]
<no-speech>
[41.415]
<sta> iki <no-speech> čia dar mano pietūs <breath>
[44.425]
<no-speech>
[47.285]
<sta> <breath> sakau <no-speech> čia dar mano <click> pietūs
[49.525]
<no-speech>
[51.275]
<sta> pietūs <breath> čia
[52.205]
<no-speech>
[53.055]
<sta> čia mano pietūs <breath>
[54.215]
<no-speech>
[55.925]
<sta> <laugh> nu tai tai kadangi kadangi ir pusryčiai vėlyvi buvo <no-speech> <breath> tai tai valgo o be to (())
[63.535]
<no-speech>
[64.875]
<sta> <breath> darbo <no-speech> darbo turėjau čia tokio darbo tai aš tik nesenai baigiau tai va dabar <no-speech> dabar tiktai pietūs tai <no-speech> tai viskas normaliai
[73.635]
<no-speech>
[79.075]
<sta> ne vėliau kad tikrai jau kad ir nemiegi dar <breath> dar ir pamiegosi ir pagulėt gali sau leisti ne tik pamiegot <breath> ir po miego dar <laugh> nemiegodamas
[88.705]
<no-speech>
[89.905]
<sta> nu <hes> tai <no-speech> tai šitą <no-speech> (()) <breath> išsimiegot ir išsigulėt gali <no-speech> net <sta> kai nieko dabar juo labiau tokio <breath> užsiėmimo nėra nieko žiemą rimto tai žinai aš čia tokį šiandien sugalvojau darbelį tai <no-speech> tai va tai <no-speech> <hes> biskį čia <no-speech> užsiėmiau porą valandų (())
[112.605]
<no-speech>
[114.055]
<sta> tai taip o taip tai
[115.295]
<no-speech>
[119.065]
<sta> (()) kaip ten miega- miegasi <no-speech> neblo- neblogai bet <no-speech> užsimiega <breath> <laugh> blogai <no-speech> tai u- u- užmigt <laugh> svarbiausia <no-speech> o kai užmiegi tada jau miegu <no-speech> bet <sta> <breath> svarbiausia va ta pradžia visa išsimuši taip iš ritmo vėlai keliesi tada <no-speech> <hes> miego nesinori ilgai tai va <no-speech> žioplinėji televizorių kažką ir <no-speech> ir ta- taip nu
[142.085]
<sta> kol jau jau jauti kad <breath> <laugh> jau <no-speech> laikas žinai <no-speech> užsimerkt kad ir <no-speech> man vis- visą laiką visą gyvenimą taip buvo taip kad ir ir dabar nepasikeitė nieko u- <no-speech> užmigt problema ir atsikelt problema
[155.265]
<no-speech>
[161.455]
<no-speech>
[162.325]
<no-speech>
[165.975]
<no-speech>
[167.335]
<no-speech>
[178.935]
<sta> <hes> ne tai man tai ten neaišku kas ten
[183.425]
kiba <no-speech>
[190.605]
<no-speech>
[197.785]
(())
[198.135]
<no-speech>
[203.435]
ne ne o aš o aš (())
[205.415]
<no-speech>
[206.875]
<sta> ai nu jo jo kad visai nevalgyt tai aš irgi neišeina man dažnai biskį irgi per da- per daug <no-speech> bet aš vis tiek kadangi neužmiegu dar iškart tai man spėja suvirškint ten <laugh> (())
[218.855]
tai kad aš ir kokią dešimtą pusę dešimt ten kažkada nu (()) a taip nuo devynių iki dešimt valgau tai bet <breath> kadangi dar kai dabar tai be pusės dvylikos kokios
[230.835]
<sta> neužmiegu tai <laugh> man ten <no-speech> dar pora valandų praeina iki tol žinai tai <no-speech> tai irgi toks žinai ne- <no-speech> nelabai <hes> nelabai problema didelė
[240.705]
<no-speech>
[242.185]
aišku prisikimšt (())
[243.765]
<no-speech>
[253.615]
(()) <click>
[254.175]
<no-speech>
[262.990]
<no-speech>
[271.805]
<sta> tai jie <no-speech> jie taip iš ne- iš iš netur- <no-speech> iš neturėjimo <no-speech> ką veikt ar <no-speech> kažkas
[277.445]
<no-speech>
[279.235]
<sta> <lipsmack> ai <no-speech> a- <no-speech> ai tai va va nu
[281.765]
<no-speech>
[292.645]
<no-speech>
[303.525]
<no-speech>
[314.405]
nebus aš (())
[316.525]
<no-speech>
[317.505]
<sta> manau ne dėl <breath> stuburo ar ne
[319.515]
<no-speech>
[320.755]
<sta> ne <breath> stuburą manau
[322.135]
<no-speech>
[324.505]
(())
[325.015]
<no-speech>
[328.465]
<sta> ai <no-speech> čia šitą aš matai dabar <hes>
[330.805]
<no-speech>
[332.175]
nu jo žinau (())
[333.555]
<no-speech>
[334.855]
bet šiaip ai čia dabar daug kažkaip keista kad aš
[338.005]
<no-speech>
[339.105]
<sta> girdžiu <breath> kažkodėl tai nemažai yra tokių kur ten su ta skydliauke problemų turi
[344.485]
<no-speech>
[355.165]
<no-speech>
[365.845]
<sta> nu <click> jo
[366.675]
<no-speech>
[368.105]
ne ką
[368.965]
<no-speech>
[379.990]
<no-speech>
[391.015]
<sta> nu no- nor- nors <breath> ir apie tą dabar
[393.755]
<no-speech>
[394.995]
<sta> ir apie apendicitą dabar jau čia (()) skaičiau straipsnių kur <no-speech> kur irgi <no-speech> reiškia kitus net patarinėja kad va dėl visa ko profilaktiškai išoperuot <no-speech> tai čia skaičiau tai kategoriškai <sta> ne kadangi <hes> čia jau jei <no-speech> jau tiktai kada mirties pavojus tai reikia išpjaut nu <no-speech> (()) ir tas jeigu ponas Dievas sugalvojo tai reiškia viskas reikalinga
[416.845]
<sta> <breath> žmogui
[418.345]
<no-speech>
[420.265]
<sta> (())
[420.665]
<no-speech>
[423.985]
<sta> taip reikia <click>
[425.005]
<no-speech>
[434.455]
<no-speech>
[443.905]
<no-speech>
[444.295]
<no-speech>
[455.572]
<no-speech>
[466.848]
<no-speech>
[478.125]
<sta> nu <click>
[478.555]
<no-speech>
[487.795]
<sta> ai <no-speech> po kažkurio tai laiko
[489.935]
<no-speech>
[493.935]
<sta> ai jo nu jo <breath> kad
[495.435]
<no-speech>
[501.675]
m-hm
[502.235]
<no-speech>
[503.305]
nu (())
[503.945]
<no-speech>
[514.985]
<sta> m-hm ne nu tai žinai
[516.905]
<no-speech>
[526.535]
<sta> m-hm taip
[527.525]
<no-speech>
[534.495]
<no-speech>
[541.465]
ne ne
[542.275]
<no-speech>
[546.855]
<sta> nu tai
[547.635]
<no-speech>
[549.045]
tai jisai sako
[550.095]
<no-speech>
[554.255]
<sta> nu jo <no-speech> matai dar ži- žinių ir <no-speech> žinias <int> tai <no-speech> lyg tai yra turinčių bet ne visi dar (()) sugeba <laugh> pritaikyt (()) žinai <no-speech> baigia žiūrėk tą vienodą (())
[566.055]
tą universitetą lyg tai žinias turėjo įgyt panašiai vienodas <no-speech> bet vienas tas žinias sugebėjo pritaikyt o kitas kažkur tai žinai taip da- dar kitų gabumų turbūt (())
[576.965]
<no-speech>
[583.195]
tai taip bet vis tiek
[584.535]
<no-speech>
[587.675]
<sta> <breath> taip ir ir ir medi- medic- <no-speech> ir medicininės žinios taip <no-speech> nu <hes> ypač <laugh> reikalingos žinai kad <no-speech> (()) tai <no-speech> tai šitą
[598.555]
<no-speech>
[600.260]
