[0.000]
<no-speech>
[10.949]
<no-speech>
[21.898]
<no-speech>
[32.846]
<no-speech>
[43.795]
alio
[44.455]
<no-speech>
[45.775]
alio Liudai
[46.755]
<no-speech>
[49.855]
<int> a tai girdi mane
[52.055]
<no-speech>
[55.435]
tai pagaliau prisiskambinau tau <hes> vat o tai tai dėl ko girdi tu mane
[62.315]
<no-speech>
[66.325]
<no-speech> ai o gal su tokiu uždelsimu
[69.445]
<no-speech>
[73.755]
<laugh> ai nes aš irgi taip keistai tai vat o tai tu tu tu tu tu tu jau po paskaitų po visko šiandien
[81.295]
<no-speech>
[85.915]
ai čia tas ryšys nežinau gal gaunasi kaip racija kokia aš pakalbu tada tarpas tada tu gali kalbėt
[91.685]
<no-speech>
[95.925]
ai taip įdomiai gaunasi tai vat o tai tu tu šiandien ryte dėl ko laikei šviesą įjungtą
[101.815]
<no-speech>
[107.945]
šviesą laikei įjungtą kai kai aš dar mie- miegot bandžiau
[111.335]
<no-speech>
[117.315]
ką ką
[118.405]
<no-speech>
[124.305]
ai <no-speech> gerai gerai tai stalinė lempa ant palangės buvo
[129.025]
<no-speech>
[133.175]
ant ant palangės stalinė lempa buvo
[135.305]
<no-speech>
[139.165]
<no-speech> a-a nu tai va tai reikia mąstyt tai nie- nieko tokio nieko tokio <breath> oo dabar pas tave nėra svečių
[145.095]
<no-speech>
[148.325]
ai nes aš ten ant lovos kojines palikau ir šiaip tai <breath> tai jeigu ateitų kokių svečių ten (()) ar kas tai kad vėl dulkių man ne- ne- neprikeltų
[156.175]
<no-speech>
[163.665]
tu vis dar sergi ai tu vis dar sergi
[166.775]
<no-speech>
[168.235]
<lipsmack> vis dar sergi <sta> <no-speech> ai o tai sveikata jau taisosi <sta> <no-speech> jau taisosi sveikata
[174.995]
<no-speech>
[177.435]
<no-speech>
[177.785]
<no-speech>
[179.025]
ai nes aš uogienės naują pradariau tai gali <breath> gydytis su uogiene
[182.955]
<no-speech>
[188.125]
tik (()) tik nepilk labai karštu vandeniu nes uogienė yra su medum <no-speech> tai va
[192.625]
<no-speech>
[196.625]
oo o tu gal atsimeni kiek maždaug kainavo tavo lovos pakabinimo sąmata kiek gavosi
[201.975]
<no-speech>
[209.755]
čia su be- be- bet tai iš kur tokia kaina gavosi
[213.235]
<no-speech>
[219.315]
<no-speech>
[225.395]
o tai lentos ten t- ten tas ilgąsias tu iš Senukų ar iš kur pirkai lentas
[229.065]
<no-speech>
[232.435]
ai o tai tai tai tai ta viena lenta kiek kainuoja
[235.575]
<no-speech>
[241.225]
ai nu aišku o ten kur tie skersiniai tai iš stalo rėmo to kur po stalviršiu dedasi
[247.155]
<no-speech>
[251.045]
<no-speech>
[251.425]
<no-speech>
[253.005]
ai tai <hes> čia čia čia nuo <hes> nuo to to mano stalo ar ne tai tas rėmas
[258.115]
<no-speech>
[261.965]
ai <lipsmack> nu tai ką dabar nu tai svarbu jis gerai panaudotas bus
[264.855]
<no-speech>
[266.705]
va
[267.425]
<no-speech>
[272.165]
girdi
[273.135]
<no-speech>
[276.945]
<no-speech> girdi mane
[278.445]
<no-speech>
[282.085]
ai <breath> oo o tu jau moki elgtis su ta nauja dujine virtuvėj
[285.955]
<no-speech>
[292.345]
o tai kaip tu sakei
[293.665]
<no-speech>
[294.855]
šiaip man įdomu kaip tu gyveni
[296.485]
<no-speech> <breath> (())
[301.165]
man dar reikia su tavim pakalbėt ke- ma- man dar reikia tavim pasidomėt kelias minutes o po to aš grįšiu tau paaiškinsiu
[307.425]
<no-speech>
[311.645]
tai kaip šiandien sekėsi laboratorijoj
[313.405]
<no-speech>
[320.245]
(())
[320.705]
<no-speech>
[331.865]
tai vėl negerai išėjo
[333.495]
<no-speech>
[343.455]
o tai jau pusė baka- jau pusė bakalaurinio yra <no-speech>
[347.155]
<no-speech>
[349.875]
ne
[350.655]
<no-speech>
[351.985]
oo koks tavo tos laborantės vardas sakei
[355.045]
<no-speech>
[358.715]
tai Jelena nepyksta kad šūdus darai
[360.985]
<no-speech>
[365.265]
ai tai gerai o tai <no-speech> a nedarai
[368.785]
<no-speech>
[372.595]
o tai o tai kolbos jau n- jau jau jau irgi ne- nebedūžta
[376.795]
<no-speech>
[387.745]
filtrą tą keraminį sudaužei
[389.485]
<no-speech>
[398.425]
ai bet tai jis irgi su- su- sudėtingesnis brangesnis
[401.735]
<no-speech>
[407.345]
ai nu būna atsitinka nelaimės
[409.775]
<no-speech>
[411.195]
m-hm
[411.985]
<no-speech>
[414.435]
taigi taigi o <lipsmack> tai jeigu tokią lovą reiktų man padaryt pakabinamą tai tas tavo <hes> draugas rastų laiko kažin
[422.085]
<no-speech>
[427.205]
nes jis jau turi patirties
[428.845]
<no-speech>
[429.675]
<no-speech>
[430.045]
<no-speech>
[431.045]
o kodėl
[431.905]
<no-speech>
[436.965]
ai tai tu savo šone turi vietos aš iš tavęs tos vietos neatimu
[441.265]
<no-speech>
[444.545]
o tai tu ką nori daryt repeticijas ten <hes> sceną padaryt
[448.305]
<no-speech>
[454.575]
<lipsmack> ką ką ai šokių salę
[456.425]
<no-speech>
[458.925]
ai <lipsmack> tai manęs kai tris savaites nebuvo tai tai ten atsidžiaugei jau gal ta erdve
[463.705]
<no-speech>
[467.775]
m-m <no-speech> m-hm
[469.815]
<no-speech>
[472.875]
tai ką dar papasakosi
[474.155]
<no-speech>
[478.885]
<lipsmack> ai tai <hes> kai per perėją šiandien susitikom tai nepyk ten kad taip gavosi taip atsitinka
[483.955]
<no-speech>
[488.115]
<breath> jo
[489.805]
<no-speech>
[492.095]
<hes> mes į miestą ėjom <hes> skambinėt tau paskambint
[497.005]
<no-speech>
[499.505]
nu tai kitą kartą gal ir tave pasiimsim
[501.635]
<no-speech>
[506.115]
nu vat o tai o tai šiandien tavęs jau nesulijo gal skėtį nusipirkai
[509.965]
<no-speech>
[513.385]
<sta> <lipsmack> gal skėtį nusipirkai ar ar ne- nereikėjo šiandien kad nes kai vakar grįžai šlapias tai gal jau padarei išvadas
[520.485]
<no-speech>
[525.015]
<sta> ne
[525.765]
<no-speech>
[529.565]
į į į Ozą
[531.285]
<no-speech>
[535.125]
į į Ozo Prizmą
[537.025]
<no-speech>
[542.155]
nes ten akcija
[543.335]
<no-speech>
[546.455]
ai o tai su su su taksu važiuosi ar ne tiek daug pirksi kad pats pa- pasineši
[551.735]
<no-speech>
[557.455]
tai gal tau tau kuprinę mano paskolint nes su ja tai tikrai patogiai galėtum parsinešt
[562.025]
<no-speech>
[566.575]
<no-speech>
[567.065]
<no-speech>
[572.115]
ne tai ryžiai grikiai jie jie gali stovėt viskas gerai tik svarbiausia kad jie būtų skanūs kad tau patiktų ir tada jų gali di- didelį kiekį užsipirkt aš taip darau nu vat
[580.615]
<no-speech>
[584.565]
m-m jau pypti ai o tai <hes> gal matei mieste mies- mieste reklamas yra <breath> Pica Hat lyg tai <hes> kad Vilniuj atsidaro nematei
[596.535]
<no-speech>
[596.685]
<no-speech>
[601.125]
Pica Hat
[602.675]
<no-speech>
[605.245]
nematei reklamų
[607.065]
<no-speech>
[608.465]
o kur yra
[609.855]
<no-speech>
[610.715]
kur
[611.365]
<no-speech>
[619.615]
<lipsmack> ai nes aš mačiau reklamas tai gal nu ai tai čia gal tą patį matėm jo m-hm mh
[626.195]
<no-speech>
[628.045]
oo oo aš (()) tau sakė ką nors Vika apie su- susitikimą (()) klasės
[633.525]
<no-speech>
[638.765]
a- apie (()) klasės susitikimą tau ką nors sakė kas nors
[641.755]
<no-speech>
[648.403]
