[0.000]
<no-speech>
[7.655]
nu ir labuka
[8.845]
<no-speech>
[10.565]
alio
[11.345]
<no-speech>
[13.015]
Rolandai
[14.095]
<no-speech>
[15.725]
nu gerai tai va <breath> laba diena pabendrausim biskį <foreign> pamalsim
[20.655]
<no-speech>
[22.005]
nes <hes> čia prašo žinai žmonės <sta> (()) <breath> tai dar tu tą maketą darai
[27.285]
<no-speech>
[31.325]
m-hm
[32.085]
<no-speech>
[34.345]
(()) <no-speech> ai būsimai šeimai nu tai gerai
[37.335]
<no-speech>
[44.075]
ai tai paskui jau mažiau galėsi dirbt
[46.265]
<no-speech>
[47.955]
nu tai jau laikas tada ateis
[49.825]
<no-speech>
[50.975]
nu
[51.615]
<no-speech>
[59.005]
m-hm
[59.785]
<no-speech>
[66.445]
nu tai gerai
[68.495]
<no-speech>
[73.475]
ne tai aš <hes> šneku o tai kam jūs tą maketą darot
[76.975]
<no-speech>
[82.895]
ai
[83.685]
<no-speech>
[90.060]
<no-speech>
[96.435]
ai konkurse dalyvausit jo
[98.615]
<no-speech>
[102.875]
(()) ne konkursas žodinis
[105.585]
<no-speech>
[106.555]
tai aišku
[107.605]
<no-speech>
[108.895]
m-hm
[109.725]
<no-speech>
[112.965]
nieko <breath> oras nekoks o šiaip tai viskas gerai
[116.765]
<no-speech>
[118.295]
matai kad čia kasdie- <foreign> nelyja
[120.375]
<no-speech>
[121.465]
<sta> nu <no-speech> o Asta sakė naktį tiek žaibavo ir griaudėjo kad sakė <breath> apie antrą nakties tai prabudo ir galvojo kad kal- kalnai griūna virš jų jų
[130.645]
<no-speech>
[135.745]
nu tai sakė paskui <hes> nugriaudėjo nužaibavo ir pradėjo kruša krist
[140.525]
<no-speech>
[141.915]
o paskui jau atsikėlė tai sakė buvo nulis ir paskui pasidarė jau vienas šilumos
[146.785]
<no-speech>
[148.505]
tai va
[149.225]
<no-speech>
[154.525]
nu
[155.255]
<no-speech>
[160.535]
tai va (()) pensininkam dabar jau įves tą automobilių mokestį ir iš tų pačių pensininkų nupeš po šimtą litų <breath> kad jiem pensijas grąžintų
[169.805]
<no-speech>
[175.215]
jo tai susimokėk už automobilį ir gau-
[177.915]
<no-speech>
[179.395]
nu
[180.065]
<no-speech>
[181.525]
gudru
[182.465]
<no-speech>
[184.755]
(())
[185.475]
<no-speech>
[186.405]
tai va jie čia <hes> dabar pavarys <hes> (()) ir visi prezidentai galės pažiūrėsim ką jie čia pasiūlys
[194.165]
<no-speech>
[195.525]
(())
[196.055]
<no-speech>
[201.195]
ne <sta> <no-speech> ir man reikėjo sugalvot kaip užsidirbt kad namą pasistatyt taip
[206.965]
<no-speech>
[211.715]
<no-speech>
[212.375]
<no-speech>
[218.035]
<no-speech>
[218.605]
<no-speech>
[220.125]
jie pamiršę jau seniai
[221.885]
<no-speech>
[223.755]
tai vat
[224.655]
<no-speech>
[225.545]
<no-speech>
[225.905]
<no-speech>
[227.455]
o ką dar gero tau skambino Gintas sekmadienį nu šitas va kaimynas Štelkys
[233.635]
<no-speech>
[234.615]
ir norėjo čia su tavim pasi-
[236.775]
<no-speech>
[238.345]
bet jis buvo įpiešęs tai tu ten su juo būtum nesusišnekėjęs
[242.475]
<no-speech>
[244.255]
jis čia kokį garažą nori planuot ir nori su tavim pasišnekėt
[249.065]
<no-speech>
[250.335]
tai buvo atėjęs tai daviau numerį tai sakau žinok jis parvažiuoja tai sakau geriau <breath> kai parvažiavus ne ne į kad supranti <breath> kur nors <hes>
[260.575]
<no-speech>
[261.625]
kai tu vienoj vietoj jis kitoj tai va
[264.605]
<no-speech>
[266.895]
nu
[267.495]
<no-speech>
[269.865]
tai va o šiaip tai nieko gero va dabar dar pašnekėsiu čia susitvarkysim ir eisiu namo
[275.805]
<no-speech>
[276.915]
čia pas Liną atėjus <sta> <no-speech> dalyvau- dalyvaujam
[282.165]
<no-speech>
[283.355]
<breath> važiuoju Vilniaus raliui
[285.485]
<no-speech>
[288.475]
tai va
[289.235]
<no-speech>
[292.875]
<no-speech>
[293.245]
<no-speech>
[298.245]
ai tai tu <hes> su Laimiu skrisi
[300.715]
<no-speech>
[308.965]
o tai keliese jūs
[310.385]
<no-speech>
[316.955]
<no-speech>
[317.625]
<no-speech>
[318.625]
m-hm
[319.345]
<no-speech>
[320.975]
ir tik rankinis bagažas ar ne
[323.065]
<no-speech>
[324.685]
jis <foreign> skraido
[326.215]
<no-speech>
[328.045]
aišku
[328.945]
<no-speech>
[331.085]
(()) Eir <foreign>
[332.675]
<no-speech>
[334.255]
m-hm
[335.005]
<no-speech>
[337.735]
<sta> tai Asta šiandien sužiūrėjo pigus skrydis sako mama atskrisk balandį pas mane <breath> sakau nežinau kad visos kaimynės išskrenda tai nežinau kaip čia bus
[346.695]
<no-speech>
[348.205]
<no-speech> nu (()) Birutė iškrenta į Vokietiją Dana į Angliją (()) į Ameriką ir tuščias kaimas <no-speech> Lina lieka
[357.875]
<no-speech>
[361.245]
nu
[361.965]
<no-speech>
[367.285]
<sta> tai va ir šefą reik vesti <no-speech> jis čia labai su ja padraugavo labai laimingas bet jam bloga sveikata žinok trečia diena
[375.325]
<no-speech>
[376.735]
<sta> ji reiks vežt į ligoninę nu jam žinok <hes> <breath> širdies ritmas pabėgo šimtas čia dvidešimt buvo aną rytą <no-speech> <breath> ir ir va čia tas kaime bulves perrinkom vėl jam buvo negerai
[388.695]
<sta> ir dar šiandien jis toks bet jis čia jau krapštėsi tvarkėsi gal <breath> biškį atsigaus
[394.295]
<no-speech>
[400.435]
<sta> nu tai o va o šiaip tai ką aš žinau <breath> nieko gero nieko naujo o tai kiek jūs ten slidinėsit laiko
[407.725]
<no-speech>
[413.065]
ai savaitę
[414.275]
<no-speech>
[415.485]
<sta> <no-speech> o tai <no-speech> m-hm
[418.585]
<no-speech>
[425.175]
<no-speech>
[431.765]
<sta> m-hm
[432.795]
<no-speech>
[435.165]
<sta> aišku <no-speech> <breath> jau dvi dar dvi minutės liko baigsis mūs- laikas tai dar dabaigiam <no-speech> <breath> ką dar čia pasišnekėt reikia
[443.815]
<no-speech>
[446.235]
<int> tai va
[447.185]
<no-speech>
[450.025]
<sta> ai močiutė nieko gerai
[453.095]
<no-speech>
[454.555]
<no-speech>
[454.915]
<no-speech>
[455.765]
(()) ir viskas jinai labai laiminga kad savo namuose ir ją nereikia judint jinai (()) tegul gyvena
[463.165]
<no-speech>
[465.795]
jo
[466.535]
<no-speech>
[468.405]
<sta> susitvarkė žiūronus ir dabar <hes> viskas gerai kojines mezga ir <no-speech> <breath> ir viskas tvarkoj (()) grindis <no-speech> taip koj- išsisiurbliavo grindis sakė mačiau kad daug dulkių <sta> tai gerai sakau mama man nereiks <breath> gali ir tu biskį pajudėt sakau biskį svoris <laugh> <no-speech> nukris
[488.395]
<no-speech>
[490.265]
<sta> nu tai va
[491.725]
<no-speech>
[493.075]
<sta> <no-speech> o tie tai gal suodinasi abudu
[496.955]
<no-speech>
[497.825]
<no-speech>
[498.695]
<no-speech>
[499.735]
<sta> nu (())
[500.965]
<no-speech>
[505.045]
<sta> nu jo tai pasibaigs ir bus <foreign> spakaina galva
[508.665]
<no-speech>
[512.385]
(()) o tai tą maketą pasibaigsit
[514.945]
<no-speech>
[517.385]
ar ne
[518.115]
<no-speech>
[520.075]
m-hm
[520.815]
<no-speech>
[526.315]
(())
[526.915]
<no-speech>
[529.345]
o tai varai namo ar eini pas draugę
[532.365]
<no-speech>
[537.395]
<sta> m-hm tai o dabar Birutė gyvena pas jus ar ne
[540.865]
<no-speech>
[542.065]
viskas jau baigėsi mūsų
[543.915]
<no-speech>
[545.825]
pyptelėjo vieną kartą
[547.315]
<no-speech>
[548.285]
<sta> <no-speech> jo
[549.815]
<no-speech>
[552.675]
<sta> <no-speech> dar neatjungė tai dar (()) dar minutę sako kokią <breath> bus <hes> nes jau pyptelėjo tai tuoj nes buvo dvidešimt aštuonios o jau dabar
[564.405]
<sta> trisdešimt aštuonios matau <no-speech> <breath> tai va
[567.405]
<no-speech>
[570.415]
<sta> jo ir baigsim savo pokalbį
[573.695]
<no-speech>
[575.135]
ir tiek žinių <breath>
[576.465]
<no-speech>
[577.755]
tai va
[578.515]
<no-speech>
[584.475]
<sta> aš žinau kad tu neturi kada nu tai ką
[586.775]
<no-speech>
[589.415]
<no-speech>
[589.765]
<no-speech>
[590.995]
nu
[591.665]
<no-speech>
[596.435]
tai va
[597.155]
<no-speech>
[599.115]
pasibaigė žie-
[600.100]
