[0.000]
<no-speech>
[2.465]
nu labuka
[4.165]
<no-speech>
[6.075]
<no-speech> nu ką
[8.015]
<no-speech>
[9.265]
<laugh> ką nieko va sėdim prie kompo va neseniai grįžau po darbo pavalgiau biškį lovą aps- apsitvarkiau
[17.945]
<no-speech>
[20.195]
Andrius va neseniai neseniai iš vonios išlindo
[23.045]
<no-speech>
[24.585]
(())
[25.855]
<no-speech>
[28.115]
<sta> <no-speech> jo jo jo <cough> (()) grįžau žinai grįžau žinai po
[34.585]
<no-speech>
[35.505]
ką <breath> grįžau po darbo aš žinai čia kambary pas mus šviesa dega labas vakaras <hes> nu ta- tavo mama pasisveikino <breath> aš ir taip įlįsti į mamos kambarį turšia nieko nėra <laugh>
[47.155]
<breath> įlendu pas save į kambarį kad mama prie kompo sėdi <breath>
[51.595]
<no-speech>
[60.665]
m-hm
[61.255]
<no-speech>
[62.495]
(())
[63.075]
<no-speech>
[68.085]
<hes>
[68.765]
<no-speech>
[69.605]
dėl K- Kūčių ta prasme ar dėl pačių Kalėdų
[72.765]
<no-speech>
[78.045]
(())
[78.585]
<no-speech>
[85.530]
<no-speech>
[92.475]
<breath> aš turiu minčių <no-speech> <hes> žinau yra pirkt tie kur būna Magi idėja <no-speech> <hes> yra traškiai vištienai ten toksai <breath>
[104.365]
tai sakė man kad tipo su cukin- <hes> tipo su cukinija labai skanu tolyginai viską daryt kaip su vištiena tiktai kad vietoj vištienos cukiniją žinai dėt
[113.935]
<no-speech>
[117.485]
jo jo jo aš kaip tik namie turiu dvi dideles cukinijas ir turiu tos Magi Idėjos
[123.255]
<no-speech>
[125.205]
(()) ten gi ir padažas viskas yra <cough> ir turiu
[130.575]
<no-speech>
[131.755]
ir turiu nusipirkus to jogurto nes ten reikia ekologišką jogurtą dėt žinai į tą padažą turiu jogurto nusipirkus tik nepažiūrėjau iki kiek galioja nes galvojau aš vakar darysiu bet mus vakar ant cepelinų užkvietė <breath> tai žodžiu taip gavosi <no-speech> tai galėčiau atsivežt aš tą (())
[152.005]
<no-speech>
[153.025]
<no-speech>
[153.475]
<no-speech>
[154.995]
<int> tiesa <foreign>
[157.525]
<no-speech>
[160.085]
aha
[160.885]
<no-speech>
[162.465]
aha
[163.325]
<no-speech>
[165.165]
tai tikriausiai nu ne- nežinau dar kitą savaitę Andriaus draugelio ten kažkoks pusbrolis ar sūnėnas dar pažiūrės tą mašiną tai nežinau kaip čia bus ar ją
[177.085]
verta taisyt ar ne
[178.705]
<no-speech>
[180.865]
<no-speech>
[181.295]
<no-speech>
[189.545]
m-hm
[190.285]
<no-speech>
[200.275]
<no-speech>
[200.635]
<no-speech>
[202.425]
(()) kad nereiktų prie puodų stovėt vėl visą pusdienį
[206.795]
<no-speech>
[209.695]
<breath> (())
[211.135]
<no-speech>
[214.885]
m-hm
[215.555]
<no-speech>
[221.385]
mmm nu
[222.205]
<no-speech>
[228.265]
aha aišku <breath> tai k- ką aš žinau
[231.945]
<no-speech>
[239.865]
aha sup- supratau <breath> tai ką aš žinau <no-speech> visai čia neblogos tavo mintys
[247.165]
<no-speech>
[248.975]
<lipsmack> <hes> šita tiesa norėjau aha norėjau dar paklaust dėl dėl to tos tos tos <hes> kur Varėn- Varėnos rajone ten tas poilsio namai ar kas ten
[260.245]
<no-speech>
[261.515]
kaip kaip ten <hes> kas <breath>
[264.155]
<no-speech>
[265.095]
nes čia per <int> tą per tą Skaipas
[267.075]
<no-speech>
[271.745]
m-hm
[272.445]
<no-speech>
[281.725]
m-hm
[282.285]
<no-speech>
[294.285]
m-hm
[295.045]
<no-speech>
[302.325]
nu nu <no-speech> ką aš žinau (())
[305.285]
<no-speech>
[307.265]
<breath> šiaip tai va kas buvę Birštone tai nesiskundžia visai patiko m-hm
[313.855]
<no-speech>
[321.325]
nebuvus aš tam kampe visai niekur <sta> ne
[325.735]
<no-speech>
[334.405]
m-hm
[335.125]
<no-speech>
[342.585]
<no-speech>
[343.415]
<no-speech>
[347.465]
m-hm
[348.125]
<no-speech>
[353.345]
tai taip taip
[354.475]
<no-speech>
[364.945]
aha
[365.635]
<no-speech>
[373.065]
<breath> nu nu
[373.995]
<no-speech>
[379.345]
nu <sta> tai žiūrėsim kaip ten jo žiūrėsim kaip ten su tais atlyginimais nes man tai <breath> dirbu dirbu su baisuliniais viršvalandžiais o kai pažiūrėjau į atlyginimą tai praėjo noras ir
[390.875]
darbu (())
[391.735]
<no-speech>
[396.945]
(())
[397.345]
<no-speech>
[401.095]
<breath> šiaip tai planuoju nuo nuo nuo sausio antros
[404.705]
<no-speech>
[406.755]
nuo
[407.295]
<no-speech>
[410.645]
įsidarbint
[412.275]
<no-speech>
[414.535]
aha <breath> nežinau <hes> ten dar kaip ir svarsto nu ieško kad geresnės biškį vietos svarsto <breath> dėl apmušimo arba dėl kėdžių presavimo ten
[426.505]
prie kažkokio preso žinai ir šiaip dar norėtų visai kad aš eičiau į siuvėjas bet aš nenoriu eit į siuvėją
[433.675]
<no-speech>
[436.505]
(())
[437.215]
<no-speech>
[440.935]
(()) ap- apmušimas ir presavimas <breath> nežinau nu bus matyt
[447.195]
<no-speech>
[448.265]
nu bus matyt kur kur pastatys ten ir dirbsiu
[451.925]
<no-speech>
[453.305]
(())
[453.655]
<no-speech>
[458.265]
m-hm
[458.865]
<no-speech>
[460.325]
<breath> <hes> tarp kitko žinai ką pasakysiu mes jau Justukui dovaną turim tik niekam nesakyk
[467.145]
<no-speech>
[468.045]
aha
[468.895]
<no-speech>
[471.405]
<laugh> <no-speech> turim tokį kareivišką džipą su visa amunicija žmogeliukas ten palapinė žinai visi rinkiniai su kaltais visokiais su medicininiais (()) ten taip ir taip ten kuprinės visokios prie žmogeliuko nugaros prisisega
[490.455]
<no-speech>
[492.475]
(()) nu tai n- nežinom dabar svarstau patiks Justui ar nepatiks nes ten tai šiaip nuo trijų metų
[499.555]
<no-speech>
[502.935]
<no-speech>
[503.335]
<no-speech>
[504.185]
ai toks toks metas
[506.205]
<no-speech>
[507.485]
nu
[507.885]
<no-speech>
[511.175]
o ne
[511.765]
<no-speech>
[518.225]
<no-speech>
[518.795]
<no-speech>
[520.795]
<no-speech>
[521.415]
<no-speech>
[524.275]
aha
[525.015]
<no-speech>
[528.025]
nu nu nu
[528.895]
<no-speech>
[533.205]
nu tai ne- neturi jisai nieko panašaus į į į
[537.415]
<no-speech>
[538.555]
(()) tai labai gerai
[539.935]
<no-speech>
[551.505]
(()) aha <cough> nelabai
[554.705]
<no-speech>
[556.535]
tai labai gerai
[557.675]
<no-speech>
[561.255]
m-hm
[561.855]
<no-speech>
[569.835]
m-hm
[570.485]
<no-speech>
[572.785]
nu nu nu
[573.625]
<no-speech>
[578.295]
m-hm
[578.995]
<no-speech>
[581.315]
<no-speech>
[582.215]
<no-speech>
[584.745]
tai labai gerai
[586.275]
<no-speech>
[587.455]
(()) protingas tas jūsų (())
[589.475]
<no-speech>
[590.525]
<no-speech>
[591.665]
<no-speech>
[593.165]
<no-speech>
[597.375]
<no-speech>
[598.385]
uoj tikrai ne <breath>
[600.015]
<no-speech>
[600.020]
