[0.000]
<no-speech>
[3.715]
<no-speech>
[4.225]
<no-speech>
[6.425]
<no-speech>
[7.365]
<no-speech>
[13.695]
<no-speech>
[14.415]
<no-speech>
[16.865]
<no-speech>
[17.455]
<no-speech>
[21.845]
<no-speech>
[22.535]
<no-speech>
[25.685]
<no-speech>
[26.095]
<no-speech>
[29.695]
<no-speech>
[30.825]
<no-speech>
[34.175]
alio <breath>
[35.675]
<no-speech>
[37.855]
alio ar girdit
[39.205]
<no-speech>
[43.095]
oo <breath>
[44.525]
<no-speech>
[46.325]
nu kaip neblogai <breath> savaitgalis <breath>
[49.665]
<no-speech>
[52.065]
kažko ryšys labai prastas
[54.225]
<no-speech>
[56.135]
<int> alio
[58.585]
<no-speech>
[59.445]
<no-speech>
[59.815]
<no-speech>
[60.785]
kaip
[61.565]
<no-speech>
[63.815]
kažkaip labai <sta> <no-speech> labai sunkiai <breath>
[67.115]
<no-speech>
[68.665]
<no-speech>
[69.055]
<no-speech>
[72.115]
jo kažkaip labai toli ir (()) savo aidą girdžiu
[75.655]
<no-speech>
[79.715]
gal gal ta audra čia veikia <breath>
[83.745]
<no-speech>
[84.915]
<no-speech>
[85.455]
<no-speech>
[89.815]
rašom
[90.705]
<no-speech>
[93.315]
(()) va- valgyt darom miegam <breath> <int> <laugh>
[96.825]
<no-speech>
[97.805]
<no-speech>
[98.375]
<no-speech>
[99.815]
<int> ką jūs gero veikiat
[102.515]
<no-speech>
[106.345]
<no-speech>
[106.945]
<no-speech>
[109.905]
<no-speech>
[111.925]
<no-speech>
[114.065]
<int> aiš-
[115.015]
<no-speech>
[116.525]
<no-speech>
[117.035]
<no-speech>
[118.015]
nu jo čia <no-speech> nelengva nelengva
[120.765]
<no-speech>
[126.125]
čia kažkaip sunkiai sunkiai girdis <no-speech> kaip <int>
[132.105]
<no-speech>
[137.005]
jo suplanavom (()) į Palangą važiuot
[140.295]
<no-speech>
[141.625]
ten su draugais su pora dar viena <no-speech> <int>
[145.905]
<no-speech>
[150.945]
<laugh> <breath> nieko svarbu būtų nuoma pigi
[155.685]
<no-speech>
[157.745]
dviem parom išsinuomavom
[160.295]
<no-speech>
[162.165]
ten vien dviejų kambarių butas trys šimtai
[165.425]
<no-speech>
[170.595]
nu jo normaliai
[172.455]
<no-speech>
[175.095]
tai mes jau seniai norėjom
[177.155]
<no-speech>
[180.145]
seniai prie jūros buvom <laugh> <breath>
[183.395]
<no-speech>
[184.475]
o ką jūs namuose su vaikais
[186.625]
<no-speech>
[193.065]
<int> m-hm
[194.575]
<no-speech>
[196.265]
<no-speech>
[197.385]
<no-speech>
[198.575]
m-hm
[199.125]
<no-speech>
[200.805]
<no-speech>
[201.375]
<no-speech>
[204.135]
nu jo
[205.155]
<no-speech>
[206.325]
o kaip
[207.015]
<no-speech>
[208.015]
sveiki dabar
[209.405]
<no-speech>
[214.595]
m-hm
[215.335]
<no-speech>
[223.345]
nu jo visada ten su darželiais
[226.205]
<no-speech>
[230.565]
kažkodėl ryšys vėluoja keturiom sekundėm <laugh> <breath>
[235.545]
<no-speech>
[238.265]
kai pasakau ką nors reikia palaukt tris sekundes kad išgirst <laugh>
[243.315]
<no-speech>
[245.395]
<int> nieko šiaip gerais sekas
[248.325]
<no-speech>
[250.225]
<laugh> ką daryt
[251.835]
<no-speech>
[253.415]
<breath> jo puse etato Varėnoj <breath> ir čia Kaune mokslai <int>
[259.425]
<no-speech>
[263.115]
tai yra ką veikt <breath>
[265.045]
<no-speech>
[270.145]
<no-speech>
[271.135]
<no-speech>
[271.955]
gerai puikiai Justina klausia ką per šventes Kalėdas <no-speech> <int> ir panašiai veiksit
[279.975]
<no-speech>
[282.775]
<no-speech>
[283.315]
<no-speech>
[284.125]
<no-speech>
[284.615]
<no-speech>
[287.975]
<int> o dovanėlių sąrašą padarėt
[290.585]
<no-speech>
[291.855]
mes tai planuojam į namus kažkur į kaimą
[295.815]
<no-speech>
[300.855]
ką
[301.325]
<no-speech>
[303.225]
taigi <no-speech> Kalėdos šeimos šventė
[306.995]
<no-speech>
[308.345]
<breath> reikia su šeima būt
[311.225]
<no-speech>
[315.205]
tai dovanėlių
[316.865]
<no-speech>
[320.365]
nu užtenka ir tiek <no-speech> atveš <laugh> <breath> abiem ar bendrą <no-speech> vieną <laugh>
[329.185]
<no-speech>
[330.345]
<breath> gerai <breath>
[332.415]
<no-speech>
[335.375]
Justina valgo
[336.765]
<no-speech>
[339.375]
ką tokią <breath>
[340.625]
<no-speech>
[342.555]
ką tokią atvežt
[343.805]
<no-speech>
[346.265]
ne mes atskirai kiekvienam
[348.805]
<no-speech>
[349.905]
kiekvienam po vieną ir po dvi
[352.475]
<no-speech>
[360.895]
(()) gerai <int>
[363.255]
<no-speech>
[364.255]
<sta> šitą labai gerą receptą dabar vat išbandom
[367.945]
<no-speech>
[368.935]
koldūnai su šonine <no-speech> nežinot iš kur čia atsirado toks
[372.995]
<no-speech>
[378.825]
ir dar vieną gerą žinom su sriuba ten toks labai greitas <laugh>
[384.455]
<no-speech>
[386.065]
<no-speech>
[386.685]
<no-speech>
[392.965]
tai faktiškai šituos ir valgom dažniausiai
[396.375]
<no-speech>
[401.335]
jo <no-speech> labai patogu kai greitai va tokie <no-speech> ir dar <no-speech> skonis visai geras
[408.225]
<no-speech>
[410.545]
(())
[411.185]
<no-speech>
[418.235]
nu nereikia nei ten sėdėt ilgai nieko
[421.825]
<no-speech>
[426.445]
būtų gerai dar iki Naujų kokį
[428.705]
<no-speech>
[431.375]
kaip
[432.045]
<no-speech>
[437.115]
tai va sakau bent vienas dar būtų gerai trečią <breath>
[440.685]
<no-speech>
[446.705]
kaip <click>
[447.875]
<no-speech>
[454.505]
jo ma- su makaronais tai darom <int> su dešrelėm su mėsa tokį kaip kaip plovą kažką panašaus
[461.315]
<no-speech>
[468.495]
<laugh> <int> <breath> ir pomidorų padažas <no-speech> <laugh> <breath> pomidorų padažas svarbiausia <laugh> <breath>
[478.735]
<no-speech>
[483.205]
oo <int>
[484.345]
<no-speech>
[485.405]
(()) ilgiau užtrunka tau <int>
[487.555]
<no-speech>
[490.455]
<no-speech>
[492.105]
<no-speech>
[493.215]
<no-speech>
[493.785]
<no-speech>
[494.845]
<no-speech>
[495.205]
<no-speech>
[496.365]
makaronai kol išverda <no-speech> <int>
[499.485]
<no-speech>
[502.315]
nu tai atvažiuosim pasimokyt
[504.565]
<no-speech>
[509.875]
jo pradžiai reiks paragaut tada žiūrėsim
[513.095]
<no-speech>
[522.155]
normaliai jau galit atvažiuot į svečius <int> <no-speech> nebebijokit
[526.795]
<no-speech>
[534.535]
nu
[535.315]
<no-speech>
[536.315]
(())
[537.015]
<no-speech>
[537.855]
galit ir kitais metais nieko tokio bet planuokit <breath>
[542.125]
<no-speech>
[546.745]
<no-speech>
[547.165]
<no-speech>
[551.895]
<laugh> tai va
[553.535]
<no-speech>
[554.365]
nieko nebeliko jau
[556.155]
<no-speech>
[558.545]
o jūs ten pas save antram aukšte dabar darėt ką ar nieko kol kas
[563.315]
<no-speech>
[572.135]
aha
[572.845]
<no-speech>
[576.435]
tai ten kaip ir viskas baigta ar ne grindys gi jau sudėtos buvo <no-speech> ar dar ne <int>
[583.015]
<no-speech>
[587.175]
a-a
[588.075]
<no-speech>
[596.515]
m-hm
[597.105]
<no-speech>
[600.200]
