[0.000]
<no-speech>
[2.475]
(())
[2.905]
<no-speech>
[3.815]
<no-speech>
[4.865]
<no-speech>
[6.595]
<sta> <no-speech> o dabar nie- nekviečia
[11.335]
<no-speech>
[15.535]
<no-speech>
[15.895]
<no-speech>
[26.885]
nekvieč-
[27.655]
<no-speech>
[32.045]
<no-speech>
[33.625]
<no-speech>
[35.315]
alio alio alio alio ar girdi
[38.005]
<no-speech>
[39.425]
alio
[40.125]
<no-speech>
[41.035]
nu tai labas <sta>
[42.325]
<no-speech>
[43.195]
<no-speech>
[43.545]
<no-speech>
[45.365]
nu
[46.155]
<no-speech>
[48.755]
nu kaip gyveni <no-speech> kalbu
[51.755]
<no-speech>
[53.285]
girdi jau
[54.295]
<no-speech>
[56.215]
<no-speech>
[57.075]
<no-speech>
[58.575]
neįsijun-
[59.475]
<no-speech>
[61.205]
<breath> <int> <hes> nu tai ką veiki
[63.865]
<no-speech>
[68.805]
m-hm nieko irgi va
[72.265]
<no-speech>
[73.375]
dabar arbatą geriu
[74.805]
<no-speech>
[75.635]
<lipsmack> nu tai kada važiuosi
[77.245]
<no-speech>
[78.145]
žalia kada važiuosi
[79.835]
<no-speech>
[81.375]
po šešių (())
[82.345]
<no-speech>
[83.275]
aha tai kada Klai-
[84.955]
<no-speech>
[94.035]
<sta> m-hm nu tai <breath> išmokai psichologiją
[97.635]
<no-speech>
[98.585]
<no-speech>
[99.675]
<no-speech>
[104.795]
nu atrodo viską moki <sta> <no-speech> kai lengva lengva tai paskui neišlaikai kai sunku tai dar <hes> zubrini <laugh> nu tai ar ne
[115.465]
<no-speech>
[119.555]
nu tai o tai ten vėl gal testai bus ar ne
[122.355]
<no-speech>
[127.515]
<no-speech>
[127.935]
<no-speech>
[131.005]
a rašyt reikės <no-speech>
[134.435]
<no-speech>
[137.565]
<no-speech>
[137.925]
<no-speech>
[139.415]
tai <hes> būtų tau <hes> šiaip va <hes> žodžiu tai vėl (()) <no-speech> ar <no-speech> nu tai ne tai sakau bu-
[150.085]
<no-speech>
[151.355]
nu tai gerai <int> kad kad nebus <sta> <breath> nu tai kada kitas egzaminas
[155.995]
<no-speech>
[157.995]
<sta> <no-speech> pirmadienį <no-speech> tai tai kieno
[163.315]
<no-speech>
[165.455]
o pirma- čia <no-speech>
[169.105]
<no-speech>
[171.885]
tai rytoj ir vėl važiuosi tenai <no-speech> atgal
[177.165]
<no-speech>
[179.145]
ne tai iš Klaip-
[180.525]
<no-speech>
[182.505]
nu tai sakau
[183.605]
<no-speech>
[186.135]
n- nu nu tai kas taip gero pavalgius
[190.375]
<no-speech>
[192.625]
<no-speech>
[192.995]
<no-speech>
[194.215]
<sta> <no-speech> nu ką valgei
[196.605]
<no-speech>
[203.195]
nu tai pa- pa- pati dareisi <no-speech> ką
[207.955]
<no-speech>
[210.715]
ne pati
[211.545]
<no-speech>
[215.445]
sriubos
[216.155]
<no-speech>
[218.115]
(()) tai kokia verda
[220.235]
<no-speech>
[222.335]
<sta> ką kokią verdat sriubą
[224.775]
<no-speech>
[230.345]
<no-speech>
[230.835]
<no-speech>
[236.535]
m-hm
[237.265]
<no-speech>
[238.125]
aišku
[239.065]
<no-speech>
[242.905]
nieko va šiandien kepenėles dariausi tai dabar va ant dietos sėdau gri- grikių nusipirkau tai grikius valgau va antrą dieną <laugh>
[252.755]
<no-speech>
[255.535]
nu grikius nu grikių ko- <no-speech> (()) ką
[259.805]
<no-speech>
[261.785]
<no-speech>
[262.295]
<no-speech>
[264.315]
ką sakei
[265.175]
<no-speech>
[266.525]
a girdžiu girdžiu <sta>
[267.945]
<no-speech>
[269.705]
nu grikius (())
[271.065]
<no-speech>
[272.425]
nu
[273.045]
<no-speech>
[275.415]
vienus vienus su kopūstais raugintais
[278.665]
<no-speech>
[280.055]
<sta> <no-speech> nu
[283.055]
<no-speech>
[284.225]
ką
[284.865]
<no-speech>
[287.975]
nereikia <breath> reikia biškį kūdintis o tai (())
[292.485]
<no-speech>
[294.835]
(())
[295.745]
<no-speech>
[297.935]
ką
[298.585]
<no-speech>
[300.115]
<no-speech>
[300.665]
<no-speech>
[303.425]
nu ne- <breath> nestorėjam tai nuo grikių nestorėjama
[306.915]
<no-speech>
[310.645]
nu <breath> tai ryte kiaušinį su džiūvėsiais valgau
[313.985]
<no-speech>
[318.395]
oj tau tai fui viskas niekas tau neskanu o tai kiaušinienė tai jau skanu
[323.995]
<no-speech>
[328.525]
nieko <no-speech> aišku
[331.965]
<no-speech>
[336.725]
m-hm
[337.445]
<no-speech>
[340.475]
nieko tai va eik tu irgi va ten tą Muchtaras prasidėjo serialas žiūrėsiu
[347.175]
<no-speech>
[348.665]
nu tai (()) per Baltiją
[351.675]
<no-speech>
[354.895]
nu
[355.705]
<no-speech>
[356.855]
o šiaip tai ką čia nu močiutė skambino
[360.325]
<no-speech>
[365.645]
nu tai <hes> tai po vieną kartą (())
[368.245]
<no-speech>
[371.525]
kalbėjau
[372.495]
<no-speech>
[376.655]
nieko tai ką jinai gali papasakot sėdi namie ir viskas o ką jinai pasakos
[381.815]
<no-speech>
[382.935]
k- kad niekur šiaip neina
[385.315]
<no-speech>
[397.185]
ką
[397.755]
<no-speech>
[400.005]
(())
[400.405]
<no-speech>
[403.165]
aha <breath> nu tai sakė kad prišneku bele kiek
[406.165]
<no-speech>
[411.245]
nu tai kai kasdien skambina tai taip ir per mėnesį susidaro
[414.885]
<no-speech>
[416.335]
sakau jau jums sako jau neskambinsiu neskambinsiu ir vis tiek skambina
[420.475]
<no-speech>
[422.545]
nu tai (())
[423.685]
<no-speech>
[425.365]
tai o pasakojo kad Eglė egzaminus anglų išlaikė
[428.655]
<no-speech>
[432.195]
<no-speech> nu tai sakau kad <hes> taiso <breath> kad jinai anglų moka tai ko jinai negali išlaikyt
[439.005]
<no-speech>
[444.165]
nu tai taip tai gal ten kokį <breath> palauk į kurį jinai tą universitetą Vilniuj
[448.665]
<no-speech>
[453.555]
tai Vytauto Didžiojo tai Kaune
[455.285]
<no-speech>
[460.695]
a tai ar yra gi man atrodo kad tik Kaune
[463.405]
<no-speech>
[468.285]
tai kiba į kokį kitą kiba tu ne taip supratai žin- nu aš tiksliai nežinau negaliu ginčytis
[473.955]
<no-speech>
[475.005]
ką
[475.535]
<no-speech>
[479.445]
nu tai aš sakau tai kad <hes> Vytauto Didžiojo tai
[482.995]
<no-speech>
[483.895]
nu tai sakau kad Kaune *Vytauto* *Didžiojo*
[486.465]
<no-speech>
[487.295]
nu tai o kiek jai egzaminų nežinai
[489.885]
<no-speech>
[491.475]
ką
[492.035]
<no-speech>
[494.035]
(())
[494.735]
<no-speech>
[501.905]
<sta> tai kur jinai ten gyvens
[503.275]
<no-speech>
[504.915]
tai nevažinės pirmyn atgal
[506.925]
<no-speech>
[508.525]
ką
[509.125]
<no-speech>
[512.915]
kasdien
[513.795]
<no-speech>
[519.325]
<no-speech>
[519.675]
<no-speech>
[520.775]
mmm
[521.575]
<no-speech>
[524.195]
ko tokio
[525.045]
<no-speech>
[526.505]
studento
[527.655]
<no-speech>
[528.565]
mmm (()) <breath> tai jinai kaip neakivaizdinio
[531.945]
<no-speech>
[537.595]
nu tai <breath> oo tai <hes> Evelina kai aš mokinausi
[541.715]
<no-speech>
[547.555]
taigi aš kai mokinausi tai <hes> ne- nebuvo
[550.545]
<no-speech>
[551.775]
<sta> mmm ne man tai nedavė
[553.645]
<no-speech>
[563.195]
(())
[563.665]
<no-speech>
[566.295]
tai <no-speech> tai prie ko per internetą tai aš sakau <breath> šitą <breath> <hes> kai <hes> aš <sta> m- aš mokinausi tai sakau (()) kad
[576.045]
<no-speech>
[576.865]
<hes> man tai niekas nedavė to studento pažymėjimo kad aš <hes> mokinuosi neakivaizdiniam
[582.685]
<no-speech>
[590.545]
nu tai anksčiau taip nebuvo tai jau kada aš mokinausi dabar jau gal kitaip
[594.395]
<no-speech>
[600.020]
