[0.000]
<no-speech> <sta> nu <no-speech> girdi <cough> ach <int> <breath>
[10.045]
<sta> nes čia reikia šnekėt <no-speech> su <no-speech> laisvų <no-speech> rankų įranga <no-speech>
[14.835]
<no-speech>
[17.605]
ne <sta> tau nereikia mums reikia važiuojant mašinoj <no-speech> ir su laisvų rankų įranga
[21.805]
<no-speech>
[23.605]
<no-speech>
[23.965]
<no-speech>
[27.835]
<no-speech> <sta> ai tai važiuojam <no-speech> netoli Skirmantės namų <no-speech> pala <no-speech> Kauno kalną <no-speech> tai reikės
[39.075]
<no-speech>
[40.885]
<no-speech> <sta> ai <no-speech> ai <no-speech> kur tu važiavai <no-speech> aišku <no-speech> ai dabar pas Mindaugą m-hm
[52.095]
<sta> <no-speech> man Laimis parodė <hes> <no-speech> to filmo <no-speech> kur vakar žiūrėjom apie Misteik <no-speech> <foreign>
[62.475]
<no-speech>
[63.765]
ten <no-speech> nuk- klai- (()) klaida <no-speech> ir ten biški pamačiau kaip per <no-speech> jo jo <laugh> nors ten tik dviejų minučių
[73.925]
<no-speech>
[75.885]
jo jo jo <sta> <no-speech> man labai <laugh> ten labai daug <no-speech> žinok čia atsilieka truputį tas garsas <no-speech>
[82.455]
<no-speech>
[86.495]
jo
[87.035]
<no-speech>
[89.445]
<sta> tėrp-
[90.015]
<no-speech>
[93.205]
apie tą <sta> lazarą <no-speech> (())
[95.655]
<no-speech>
[103.115]
<no-speech>
[111.475]
ai jo <sta> aš klausiau <no-speech>
[114.140]
