[0.000]
<no-speech>
[1.715]
<no-speech>
[2.155]
<no-speech>
[9.605]
taip klausau
[10.565]
<no-speech>
[11.785]
labas rytas
[12.865]
<no-speech>
[13.915]
labas
[14.755]
<no-speech>
[15.625]
kaip laikaisi Danute
[17.135]
<no-speech>
[18.255]
jau seniai galvojau eit lapus grėbot
[20.965]
<no-speech>
[22.955]
kas čia negirdėt ai
[24.695]
<no-speech>
[25.885]
ne nebuvo kur tau bus nebuvo
[28.525]
<no-speech>
[29.685]
<breath> kodėl čia taip man aidas girdisi man <no-speech> ne
[34.625]
<no-speech>
[38.165]
šit
[38.745]
<no-speech>
[40.445]
o ką pas mums atvarysi
[42.355]
<no-speech>
[44.145]
tą
[44.755]
<no-speech>
[47.285]
o
[47.685]
<no-speech>
[49.725]
tai gerai (()) nuskinsiu valgyt daryt klausyk Danut tu tu <no-speech> aš norėjau tavęs paprašyt kad tu atei- atvažiuos donorai
[60.455]
<no-speech>
[61.645]
kad man praneštum
[63.035]
<no-speech>
[64.215]
kai kraują atei- atvažiuos imt
[66.565]
<no-speech>
[67.365]
kad man praneštum
[68.755]
<no-speech>
[69.855]
nes aš žinok niekad į miestą retai išeinu klausyk ir ir ir ir o man reikia duot
[75.795]
<no-speech>
[77.305]
dėl sveikatos
[78.405]
<no-speech>
[80.145]
ką
[80.735]
<no-speech>
[82.845]
nie- n- nie- nėra planuos imt
[85.445]
<no-speech>
[87.315]
ne
[87.945]
<no-speech>
[89.785]
nu tai (()) kambary ten
[92.295]
<no-speech>
[96.305]
nežinau nelabai išeinu aš į miestą
[100.535]
<no-speech>
[103.765]
<no-speech> nežinau tik mačiau savivaldybė lab-
[107.015]
<no-speech>
[108.915]
nieko gero
[110.185]
<no-speech>
[111.835]
nežinau aš nekaip
[113.895]
<no-speech>
[115.305]
bulvės labai prastos buvo
[117.405]
<no-speech>
[118.515]
gal ką tu prisikasei
[120.185]
<no-speech>
[127.665]
o klausyk (()) nu tai vis tiek reikia <cough> reikia
[133.765]
<no-speech>
[134.815]
o tai ką tu vėdarų pavyzdžiui nekepi
[137.065]
<no-speech>
[140.995]
tu žinok ir aš labai prastai girdžiu
[143.495]
<no-speech>
[147.915]
žin-
[148.915]
<no-speech>
[149.975]
burokai visai neužaugo bet gavau man kiti duoda <laugh> žinok Li- Lina atvežė nu dabar uodų
[161.345]
<no-speech>
[166.125]
mano Lina buvo dabar grįžus bet tai grįžta į metus gal kokius keturis kartus kaip reikia plaukus dėtis
[173.255]
<no-speech>
[175.715]
nes pas Renatą Bagdonienę žinai ten už kampo
[180.115]
<no-speech>
[181.595]
priešais
[182.425]
<no-speech>
[183.665]
o kur Vizija ir paskiau už kampo
[185.865]
<no-speech>
[187.075]
tenai ir aš einu ir jinai eina
[189.335]
<no-speech>
[191.065]
va
[191.745]
<no-speech>
[193.685]
nieko aš plikai kerpuosi
[197.145]
<no-speech>
[199.485]
<breath> (())
[200.555]
<no-speech>
[202.335]
aš tai nelabai <no-speech> tu tai negirdi aš tai girdžiu
[208.745]
<no-speech>
[211.175]
jo o klausyk ką tu te daugiau sodysi namuose (())
[215.365]
<no-speech>
[226.895]
a tai dar dabar nėra ar ne <laugh> dar neužaugę
[231.105]
<no-speech>
[235.475]
a ai kitam rudeniui <no-speech> tai gerai tai aš tau ir kupčius užrodysiu žinok nes daug kas nori ir nėr Kalvarijoj
[242.955]
<no-speech>
[243.845]
va galės nusipirkt
[245.975]
<no-speech>
[250.525]
m-hm
[251.505]
<no-speech>
[252.415]
ir ir ir Viknėj (()) pavasario jau nebestovi žinok
[256.335]
<no-speech>
[257.155]
o klausyk kada tą tiltą mūs pasta- pabaigs statyt
[260.515]
<no-speech>
[262.695]
negirdėjai kiba jo
[265.555]
<no-speech>
[275.435]
tai dar
[276.045]
<no-speech>
[277.215]
tai ten vienu momentu klausyk mes galvojom kad nebus <hes> kur <hes> kaip tuos numirėlius į kapus nuveža <no-speech> kad ten nei te nė gatvė neveikė ir paskiau pro degalinę ten nėjo pravažiuot
[288.145]
<no-speech>
[289.305]
sakė visur apkasta buvo
[290.965]
<no-speech>
[295.035]
tai (())
[296.165]
<no-speech>
[297.135]
ai tai vasarą tai dar ėjo pravažiuot
[299.665]
<no-speech>
[300.665]
o dabar tai ir čia vienu momentu (())
[303.095]
<no-speech>
[308.755]
a
[309.575]
<no-speech>
[312.005]
tai aš girdėjau kad dar ir pėsčiųjų taką nuims <cough>
[315.755]
<no-speech>
[317.565]
tai irgi neisiu
[318.815]
<no-speech>
[323.855]
žinok mačiausi čia tada
[326.825]
<no-speech>
[328.535]
ale žinok nenoriu bendra-
[330.835]
<no-speech>
[332.555]
kažkur
[333.265]
<no-speech>
[334.335]
tu žinai po kiek metų susitikau žinai atsimeni Nijolę Jonušienę
[338.915]
<no-speech>
[340.325]
iš mano klasės
[341.425]
<no-speech>
[342.575]
po po po vidurinės buvau nemačius
[345.035]
<no-speech>
[346.075]
ir ir buvo pas mus stovykloj (())
[348.255]
<no-speech>
[349.095]
nu
[349.785]
<no-speech>
[352.635]
<breath> jos dėdė ne jos dėdė aštuoniasdešimtmetis buvo
[358.205]
<no-speech>
[359.605]
tai aš ruošiau
[360.845]
<no-speech>
[361.745]
žinai Kavaliauskų Jūratė
[363.475]
<no-speech>
[365.795]
nu <no-speech> nu žinai kas jinai yra <laugh>
[368.605]
<no-speech>
[369.965]
o šiaip tai ką aš žinau atpažint eina
[373.585]
<no-speech>
[374.435]
ji manęs tai nepažinojo žvengiau susiriesdama o ją tai iš iš nežinau iš toli pažinosi
[380.445]
<no-speech>
[381.665]
o tai klausyk tu turi (()) kas mokinosi
[384.545]
<no-speech>
[388.865]
ai prieš tave dar
[390.335]
<no-speech>
[391.685]
a o tai Vitas kiek jaunesnis už mus
[394.185]
<no-speech>
[401.575]
tai aš šitą žinau
[403.205]
<no-speech>
[408.965]
<cough> (()) visąlaik čiudnesnis buvo
[411.635]
<no-speech>
[412.935]
nu tai ale ką aš žinau labai pasikėlęs vaidina mandrą ale jo nebuvo ten toj šventėj
[418.945]
<no-speech>
[420.635]
šiaip sau
[421.705]
<no-speech>
[429.035]
<no-speech>
[436.365]
o tu žinok o kaip mudvi su Lina susitinkam tai žinok nėr geriau
[441.875]
<no-speech>
[444.295]
mes kaip pasižiūrim
[445.875]
<no-speech>
[447.805]
ne tai aš norėčiau kad dažniau matytumėm bet tai <no-speech> jeigu jai laisva tai važiuoja į varžybas tai (())
[453.995]
<no-speech>
[455.955]
jinai gi a <no-speech> nu autoraly jinai apsigynus tarptautine tam teisėja
[462.925]
<no-speech>
[464.955]
tai važiuoja į ralius
[466.415]
<no-speech>
[469.645]
o jinai daug praėjus
[470.915]
<no-speech>
[471.725]
o dabar konduktore
[473.145]
<no-speech>
[477.745]
nu tai jis teisėjauna
[479.955]
<no-speech>
[480.755]
važiuoja teisėjaut kiekvieną syk <no-speech> va kai būna šeimų tie <no-speech> auto raliai visokie ten tie <no-speech> tai važiuoja
[489.835]
<no-speech>
[491.265]
ir labai dažnai ką
[493.455]
<no-speech>
[495.015]
Kazlų Rūdoj
[496.125]
<no-speech>
[496.935]
eik tu kur
[497.855]
<no-speech>
[499.435]
man skauda
[501.445]
<no-speech>
[502.685]
kur atvažinėjo
[503.935]
<no-speech>
[505.305]
ne ne (())
[507.565]
<no-speech>
[508.555]
per daug
[509.355]
<no-speech>
[510.965]
jei vaistų neišgeriu tai tep eidavau ką (()) paskiau ką aš norėjau tavęs dar paklaust nebuvai čia šitoj paskaitoj Kalvarijoj kaip buvo apie sąnarius ten tas pristatymas
[522.785]
<no-speech> (())
[524.195]
<no-speech>
[529.345]
vaje
[530.225]
<no-speech>
[532.165]
a tai tu ir su mano auklėtoja
[534.165]
<no-speech>
[535.715]
ir su auklėtojom
[537.015]
<no-speech>
[542.585]
eik tu <laugh> tai dar gražiai labai atrodo
[547.005]
<no-speech>
[548.945]
o kas jai daros
[549.905]
<no-speech>
[553.045]
nu
[553.615]
<no-speech>
[555.835]
o (())
[556.735]
<no-speech>
[557.795]
(())
[558.415]
<no-speech>
[565.195]
<no-speech>
[565.655]
<no-speech>
[567.505]
<cough> bet ji man niekad tokia nesenstanti <no-speech> be kita ko sakė dar žinok Kupčinskai gyvi
[574.505]
<no-speech>
[576.265]
žinau abudu
[578.455]
<no-speech>
[584.255]
ai
[585.035]
<no-speech>
[589.625]
eik tu
[590.825]
<no-speech>
[591.905]
sakė Patelčienė dar jie tep važiuoja
[595.575]
<no-speech>
[597.835]
bet sakė (())
[598.935]
<no-speech>
[600.240]
