[0.000]
<no-speech>
[11.547]
<no-speech>
[23.095]
nu tu čionai Jūrate
[24.585]
<no-speech>
[26.445]
Jūrate <no-speech> nu slūgina tu dar važiuoji
[29.945]
<no-speech>
[31.245]
važiuoji dar vis
[32.485]
<no-speech>
[33.285]
a-a nu tai kur randatės
[35.205]
<no-speech>
[36.005]
kurion vieton
[37.205]
<no-speech>
[41.495]
nu va <no-speech> jo mes tai dar žinok ant kapų <no-speech> važinėjam ant kapų <no-speech> žiūrėjom žvakių kiek kokių didelių žvakių privežta tu ten gal tą didelę atvežei
[53.285]
<no-speech>
[54.215]
vežei tokią didelė buvo
[56.405]
<no-speech>
[57.775]
ką
[58.425]
<no-speech>
[61.705]
ai tavo tenai <no-speech> a-a nu mes dar į Ratnyčio
[66.485]
<no-speech>
[68.045]
prastai girdi ar ne
[69.515]
<no-speech>
[71.225]
nu tai va dar su- su- <no-speech> a aha susitikom dar ir ir giminių ten žinai tai apėjom visus <no-speech> kapus kol taip gražu <no-speech> kiek daug
[82.835]
gėlių
[83.895]
<no-speech>
[84.775]
tai va dar ir ir susitikom Rimo brolį su broliene ir ir ir Rūta buvo <no-speech> nu jau pusseserė <no-speech> nu tai
[95.825]
nuėjom ant Navickų kapų <no-speech> ir <no-speech> nu gražu labai žinai gražu tikrai <breath> ir <no-speech> gražu nu <no-speech>
[106.055]
<no-speech>
[109.105]
a-a gi dar buvot pas Dalią
[111.265]
<no-speech>
[114.175]
(())
[114.585]
<no-speech>
[115.395]
aha <sta> <int> <no-speech> nu nu <no-speech> nu o šita
[119.485]
<no-speech>
[120.495]
tai va tai dar gi <no-speech> miškan gi buvom gi <no-speech> važinėjom <no-speech> nugi <no-speech> žiūrėt <laugh> <no-speech> medų <laugh>
[132.395]
<laugh> ar neiš- neišvogė tai sakau reiks pasiimt dar kaši- kašikų reikėjo pasiimt <no-speech> ir būtum dar pažiūrėję zelionkų gi
[144.075]
turėjo būt dar
[145.005]
<no-speech>
[146.845]
ar ne <click>
[147.585]
<no-speech>
[148.555]
nu tai kad mums visai ne-
[150.525]
<no-speech>
[152.055]
nu o gi ten būtum <no-speech> pasižiūrėję <laugh> ir Vitas sako reikėjo dar važiuot ir žuvų <no-speech> pasigaudyt
[161.885]
<no-speech>
[163.865]
nu
[164.505]
<no-speech>
[166.605]
<laugh> žinai vien taip pažiū- pažiūrėt vien į ežerą <no-speech> jau seniai buvom
[177.625]
<no-speech>
[179.085]
<laugh> nueit <no-speech>
[180.455]
<no-speech>
[183.015]
<laugh> neturėjom šitų <no-speech> nu meške- meškerių neturėjom <laugh> tai va
[194.175]
<no-speech> nu kas dar <no-speech> geresnio
[197.285]
<no-speech>
[198.775]
nu
[199.445]
<no-speech>
[200.295]
(())
[200.675]
<no-speech>
[202.305]
ką
[202.865]
<no-speech>
[204.105]
nu tai va kitą kartą
[206.115]
<no-speech>
[207.825]
m-hm nieko <no-speech> kaip ten pas <no-speech> šitą Oną Drapalio <no-speech> Almos nebuvot sutikę
[215.705]
<no-speech>
[217.675]
nebuvo Melanijos
[218.995]
<no-speech>
[219.925]
ne
[220.545]
<no-speech>
[223.705]
a-a
[224.515]
<no-speech>
[226.095]
aha tai <no-speech> tai nesidzyvino ji ten
[229.345]
<no-speech>
[230.165]
nesidzyvino nieko
[231.835]
<no-speech>
[233.845]
ką
[234.395]
<no-speech>
[235.785]
ne
[236.315]
<no-speech>
[237.945]
m-hm
[238.735]
<no-speech>
[239.645]
mmm tai gal ką pasakojo
[241.845]
<no-speech>
[242.805]
ką gal pasakojo daugiau
[244.945]
<no-speech>
[252.865]
mano veselios tai kad ji labai s- <no-speech> girdžiu girdžiu <no-speech> ar ne tai ko ji čia taip užsimanė
[259.525]
<no-speech>
[261.385]
matai
[262.345]
<no-speech>
[267.535]
a-a
[268.725]
<no-speech>
[269.745]
nu nu <no-speech> tai jo
[272.235]
<no-speech>
[275.665]
ar ne
[276.435]
<no-speech>
[278.475]
<laugh> oi buvom jauni ką jau diedai <laugh> seniai jau d- diedai jau esam
[288.475]
<no-speech>
[289.825]
<no-speech>
[290.505]
<no-speech>
[292.705]
nu sakau <laugh> ką jau čia <no-speech> tai va aha <no-speech> nu tai šnapso kokio ne- nepastatė
[301.985]
<no-speech>
[303.085]
kokio
[303.815]
<no-speech>
[305.905]
<laugh> tai diedie- dėdienė jau ji oho <laugh> jau ji <laugh> kaip jau <laugh>
[317.555]
nu jau jau nebūt diedie- dėdienė dėdienė <laugh> mūsų gi <laugh> m-hm <no-speech> m-hm <laugh>
[327.485]
<no-speech>
[330.625]
m-hm
[331.585]
<no-speech>
[334.435]
ar ne <sta> <laugh> aha <no-speech> ką
[338.615]
<no-speech>
[340.465]
a-a tai kitą kartą
[341.955]
<no-speech>
[345.235]
jo nu va va tai reikia pasakyt jo <no-speech> bandukę <no-speech> iškeps
[351.285]
<no-speech>
[352.715]
(())
[353.155]
<no-speech>
[355.365]
aha ba ba vis tiek žinai <no-speech> reikia <no-speech> perspėt <no-speech> <laugh> moteriškę
[362.545]
<no-speech>
[367.175]
nu <no-speech> jo <no-speech> nu <no-speech> tai va
[371.165]
<no-speech>
[373.215]
taip <no-speech> taip taip nu <no-speech> aš tai nu va jau vaikus išleidau aš <no-speech> jau išvažiavo mano <no-speech> vaikai
[383.655]
<no-speech>
[385.095]
į Vilnių
[386.235]
<no-speech>
[387.245]
m-hm jau išvažiavo <breath> tai šitą <no-speech> naktį išvažiavo tai sakau paskambinkit ba žinai gi <no-speech> labai jau pergyvenu o keliai tokie
[398.955]
žinai jau mašinų daug tai <no-speech> paskui labai jau žinai
[403.105]
<no-speech>
[404.095]
labai jau pergyvensiu <sta> <no-speech> nu <breath> kad kad vis- būt viskas nu tai ir ir nežinau ir <no-speech> nežinau jau ką ką
[415.785]
čia rytoj dar Vitas darys gal kals <no-speech> tai sakė dar nuvažiuot cviekų prisipirks cviekų nusipirks ir ir dar kals gi stogą tą žinai dengs
[427.175]
<no-speech>
[428.225]
dar šitą <no-speech> gi ten rytoj Vita važiuos su Albinu kaiman nu <no-speech> tai <no-speech> važiuos ir ir dar gi padarė man <lipsmack> prie
[439.955]
paminklo <hes> nu tuos <no-speech> padaryt nu <no-speech> plytukes tas iš- <no-speech> išpjovė <no-speech> meistras tas <no-speech> nu ir ir tik paskambino paskambino va <no-speech> kada čia užvakar <no-speech> tai ką jau jau <no-speech> jau Visi šventi tai jau
[458.165]
<no-speech>
[459.715]
nu tai jau <no-speech> nežinau tai gal jau <no-speech> dar orai jei būtų geri orai tai dar sudėtų bet <no-speech> bet šitą
[468.305]
<no-speech>
[469.165]
gal greičiausiai jau liks ant pavasario
[472.375]
<no-speech>
[473.485]
tai jau pavasarį susidės
[475.495]
<no-speech>
[476.755]
nu <no-speech> tai bet va vis tiek reikia nu tai jo ir <no-speech> bet važiuos parsiveš tegu <no-speech> dar reiks žinai <no-speech> dar gal važiuosiu ir aš nežinau pasižiūrėt
[488.395]
<no-speech>
[489.745]
ir man ten nuvažiuosiu kartu su jais
[492.765]
<no-speech>
[493.635]
nu tai <no-speech> tai va
[495.805]
<no-speech>
[497.575]
nu nu mes buvom šiandien ką
[500.865]
<no-speech>
[501.945]
degė gražu labai <no-speech> m-hm degė visos nu ne visos dar ten mažiukės ką pas tėtį nebuvom <no-speech> nebuvom
[512.525]
<no-speech>
[513.845]
ne nebuvom pas tėtį važiavom ant ant Audriaus <sta> <int> <no-speech> mes skubinomės <no-speech> aha dar į Ratnyčią skubinomės tai o Ernesta norėjo <no-speech> išvažiuot išvažiuot (()) <sta> <int> tai šitą
[528.835]
<no-speech>
[529.995]
tai dar <no-speech> nežinau dar
[531.995]
<no-speech>
[533.255]
nu <no-speech> dar <no-speech> šitą
[536.515]
<no-speech>
[537.625]
nu nežinau dar gal rytoj į svečius važiuosim pas draugus <no-speech> reiks lėksim <no-speech> nu gal pas Stasį dar važiuosim važiuosim
[548.555]
pas Stasį dar reiks <no-speech> žinai nulėkt pažiūrėt į svečius <no-speech> nusipirksim kokį tortuką <laugh> ir važiuosim nu tai buvo čia aplankyt
[559.725]
<no-speech> buvo jau ji čia atėjus
[562.535]
<no-speech>
[563.635]
bet nu žinai ma- mažai
[565.985]
<no-speech>
[567.235]
(()) trumpai buvo išvažiavo
[569.255]
<no-speech>
[569.260]
