[0.000]
<no-speech>
[2.175]
alio alio <no-speech>
[3.585]
<no-speech>
[5.345]
laba diena <no-speech>
[6.565]
<no-speech>
[7.575]
alio ar girdi <sta> <no-speech> girdi mane
[10.055]
<no-speech>
[11.195]
nu sveiki kaip sekasi <breath> <int>
[13.425]
<no-speech>
[15.635]
nu tai kaip jūs
[17.365]
<no-speech>
[19.215]
gerai girdi mane <int>
[20.505]
<no-speech>
[22.785]
<breath> nu tai papasakok man kaip jūs
[24.855]
<no-speech>
[25.655]
gerai viskas papasakok kaip jums sekasi <no-speech>
[28.585]
<no-speech>
[30.155]
<no-speech>
[31.455]
<no-speech>
[35.455]
<sta> <no-speech> koks oras pas jus šiandien
[38.255]
<no-speech>
[41.115]
<no-speech>
[41.725]
<no-speech>
[44.355]
<no-speech>
[44.715]
<no-speech>
[46.855]
<no-speech>
[47.575]
<no-speech>
[48.995]
o tai važiuosite į mišką <no-speech>
[51.165]
<no-speech>
[52.925]
<sta> <no-speech> m-hm <no-speech>
[54.205]
<no-speech>
[55.965]
<sta> o tai ką jinai daro tam miške <no-speech>
[58.605]
<no-speech>
[59.575]
<sta> šuniukus <no-speech>
[60.735]
<no-speech>
[65.535]
m-hm <no-speech>
[67.125]
<no-speech>
[68.305]
<no-speech>
[70.255]
<no-speech>
[71.105]
gyvates su kuo čia su šakaliu <no-speech>
[73.775]
<no-speech>
[74.955]
<no-speech>
[76.465]
<no-speech>
[79.515]
<no-speech>
[79.865]
<no-speech>
[81.715]
<no-speech> nu o tai
[83.735]
<no-speech>
[85.365]
<sta> <no-speech> o močiutė važiuos su jumis <no-speech> m-hm
[88.615]
<no-speech>
[94.065]
<sta> <no-speech> m-hm
[95.605]
<no-speech>
[99.185]
<no-speech>
[99.835]
<no-speech>
[106.105]
<no-speech>
[107.155]
<no-speech>
[108.825]
<no-speech>
[109.365]
<no-speech>
[110.515]
<no-speech>
[112.725]
<no-speech>
[115.005]
nu nu <breath> <no-speech>
[118.045]
<no-speech>
[121.845]
<no-speech>
[122.515]
<no-speech>
[125.365]
<no-speech>
[125.735]
<no-speech>
[127.395]
tavo draugą <breath> <no-speech>
[129.315]
<no-speech>
[130.645]
aha
[131.295]
<no-speech>
[135.955]
<no-speech>
[136.305]
<no-speech>
[140.705]
<no-speech>
[142.275]
<no-speech>
[145.105]
<no-speech>
[145.695]
<no-speech>
[152.135]
<no-speech>
[153.245]
<no-speech>
[158.275]
<no-speech>
[158.675]
<no-speech>
[159.505]
nu tai viskas gerai o tai naktis kaip pra-
[161.775]
<no-speech>
[162.815]
<no-speech>
[164.225]
<no-speech>
[166.235]
mmm <no-speech>
[167.335]
<no-speech>
[168.535]
m-hm <no-speech>
[169.745]
<no-speech>
[172.515]
<no-speech>
[172.935]
<no-speech>
[175.305]
<sta> <no-speech> sureguliavo <no-speech>
[179.725]
<no-speech>
[186.835]
<sta> <no-speech> nu siaubas <no-speech>
[190.625]
<no-speech>
[197.165]
<sta> <no-speech> m-hm <no-speech>
[199.615]
<no-speech>
[203.175]
<click> o Dieve kokia jinai
[204.535]
<no-speech>
[210.035]
miegi
[210.715]
<no-speech>
[215.115]
<no-speech>
[215.605]
<no-speech>
[217.385]
<sta> <no-speech> nuo pusės dviejų iki trijų ruošies <no-speech>
[221.755]
<no-speech>
[226.155]
<no-speech> <hes> žinai ką dar prisiminiau ar sudavėte vaistą <no-speech> ar sudavėte vaistą šiandien
[232.175]
<no-speech>
[235.475]
m-hm
[236.125]
<no-speech>
[238.105]
ai tai gerai <no-speech> ne tai gal nepamiršo
[241.605]
<no-speech>
[246.395]
<no-speech>
[246.765]
<no-speech>
[248.855]
nu tai gerai viskas <breath> žinok <hes> mašinos tavo nepridavė dar
[253.705]
<no-speech>
[256.125]
nes tas <no-speech> tas negali jo kažkaip paimti tai sakė <breath> <no-speech> sakė (()) važinėtis dabar kai jau galės paskambins kad privežtų
[266.005]
<no-speech>
[268.595]
bet kažkokį tai sakė
[270.475]
<no-speech>
[271.355]
ką <no-speech>
[272.185]
<no-speech>
[273.225]
<lipsmack> sakė kažkokiam buvo palikęs kitam meistrui
[275.945]
<no-speech>
[277.855]
tai kažkokį šarnyrą ar ką ten tvarkė nesupratau aš
[280.755]
<no-speech>
[283.905]
nu lyg tai žinok bet kažkaip taip <sta> visai ten smulkiai <breath>
[287.685]
<no-speech>
[291.625]
<no-speech>
[292.825]
<no-speech>
[296.895]
tai <breath> (()) žino
[298.865]
<no-speech>
[305.365]
<sta> <no-speech> nu tai gali būti tai dar mėnuo visas <no-speech>
[308.585]
<no-speech>
[310.325]
tai praeis jisai <hes> nu <int>
[312.285]
<no-speech>
[317.165]
<sta> <no-speech> tai jisai praeis turbūt žinok gal Vilniuje tavo tos <no-speech> mašinos <int>
[321.955]
<no-speech>
[325.785]
<sta> <no-speech> tu nepergyvenk jisai nesisiūlytų jeigu negalėtų <breath> <no-speech>
[330.165]
<no-speech>
[332.405]
ne ne viskas gerai o ką jisai čia <no-speech> ką
[335.915]
<no-speech>
[343.035]
nu taigi aš tau sakau jis jeigu negalėtų jis neapsiimtų
[346.385]
<no-speech>
[347.775]
nu
[348.255]
<no-speech>
[351.625]
taip <int>
[352.245]
<no-speech>
[356.685]
<breath> tai dar žinok nesusitarėm nes neaišku kada čia atiduosim tai gal aš su autobusu atvažiuosiu į darbą man čia gi labai tiesiai <int>
[363.985]
<no-speech>
[364.905]
nekalbėjom dar žinok apie tai <breath>
[367.015]
<no-speech>
[369.715]
bet tai čia neaišku kiek jis ten laikys gal (()) ant savaitgalio
[373.105]
<no-speech>
[379.245]
aš tai taip ir nesupratau ar tą detalę jau surado kažkokią <breath>
[382.845]
<no-speech>
[388.415]
mmm nu <int>
[389.535]
<no-speech>
[392.455]
o tai šnekėjot tai ką jis tau pasakojo
[394.695]
<no-speech>
[402.745]
m-hm
[403.355]
<no-speech>
[408.225]
<lipsmack> nu taip <int> taip
[409.235]
<no-speech>
[414.635]
m-hm <no-speech>
[415.855]
<no-speech>
[420.115]
<breath> <int> tai
[421.155]
<no-speech>
[422.665]
tai palauk žinai aš <breath>
[424.355]
<no-speech>
[425.555]
taip dabar nu nežinau per tą savaitę dar gal vis tiek kažką tai padarys
[430.305]
<no-speech>
[431.305]
a o paskui jau vis tiek (()) kitą savaitgalį tai mes atvažiuosim
[434.975]
<no-speech>
[436.015]
tai jau atvešim
[437.065]
<no-speech>
[440.645]
jo jo Kaziukas <int> kitą savaitgalį <breath> bet tai mes tada grįšim
[445.045]
<no-speech>
[446.365]
ką <breath>
[447.285]
<no-speech>
[455.925]
ne nu tai kiek jau tris savaites tai jau nu nesąmonė užteks <breath>
[460.435]
<no-speech>
[465.265]
tai pralinksmina bet paskui <breath> paskui žinai po to savaitgalio gi ten išeina kovo vienuolikta antradienis <hes> ne darbo diena
[473.285]
<no-speech>
[474.845]
tai aš kovo dešimtą atostogų pasiimsiu tai čia vėl pusę savaitės neis tai viskas gerai
[480.035]
<no-speech>
[483.905]
<breath> aišku nu <no-speech> jo bet man atrodo kad normaliai užteks jum čia per tas dvi savaites jum patiem jau atsibos
[490.925]
<no-speech>
[499.315]
aha
[500.135]
<no-speech>
[502.475]
jo žinok pas mus namie tai taip tuščia dabar <breath>
[505.175]
<no-speech>
[507.025]
sakau ir pas mus iš tikrųjų tuščia namie kai nėra jos
[510.245]
<no-speech>
[518.205]
<no-speech>
[526.165]
<no-speech>
[527.675]
<no-speech>
[536.675]
<no-speech>
[537.275]
<no-speech>
[541.265]
m-hm
[541.925]
<no-speech>
[547.495]
<no-speech>
[549.245]
<no-speech>
[551.915]
tikrai
[552.575]
<no-speech>
[556.405]
nu tai gerai nes pas mus tai džiūvo džiūvo jisai ir
[559.365]
<no-speech>
[563.125]
tai gerai labai kad nebegrįš jūs tiktai valgykit
[566.295]
<no-speech>
[574.325]
<sta> nejuokink <breath>
[575.865]
<no-speech>
[576.805]
nu baik <breath> eik tu tiktai valgykit nedžiovinkit irgi ten
[581.055]
<no-speech>
[585.315]
nereikia taip kalbėti ką tu čia šneki
[588.015]
<no-speech>
[590.115]
viskas gerai čia labai <no-speech> ne <breath> <no-speech> m-hm <no-speech> (()) <breath> viskas <foreign>
[596.725]
<no-speech>
[598.435]
palauk dar biškį dar
[599.905]
(())
[600.020]
