[0.000]
<no-speech>
[2.835]
alio
[3.505]
<no-speech>
[4.645]
sveikas
[5.565]
<no-speech>
[6.835]
girdi mane <int>
[7.865]
<no-speech>
[9.585]
girdi <no-speech> girdi mane
[11.375]
<no-speech>
[13.885]
<breath> tai kaip sekasi
[15.475]
<no-speech>
[16.295]
<no-speech>
[16.655]
<no-speech>
[19.605]
nu irgi ką veiki
[20.975]
<no-speech>
[25.315]
ką žiūri <int>
[26.355]
<no-speech>
[31.265]
kas lošia
[32.165]
<no-speech>
[37.255]
kas laimi
[38.685]
<no-speech>
[43.355]
o žiūrėjai vakar <hes> futbolą <breath>
[45.895]
<no-speech>
[49.065]
mmm <no-speech> geros rungtynės buvo nes aš nemačiau <no-speech> <breath> aš nemačiau geros rungtynės buvo
[54.515]
<no-speech>
[59.335]
o kas laimėjo <sta>
[61.005]
<no-speech>
[64.455]
ai nu <no-speech> o varysi gal ryt į ryto <hes> rungtynes <breath>
[70.795]
<no-speech>
[72.855]
<breath> tu- turiu bilietą į vieną gal nori su manim nueit
[75.795]
<no-speech>
[76.815]
<sta> o tipo <hes> <no-speech> skrisi į Italiją <int>
[84.655]
<no-speech>
[88.155]
<sta> nu tipo gi sakei skrisi ar tipo jau ne be
[90.975]
<no-speech>
[94.575]
<sta> ai <no-speech> nu aišku <no-speech> o k- tipo <hes> kaip kaip kaip dabar žiūri fūle geros rungtynės
[105.625]
<sta> ai nu o kas laimi
[108.265]
<no-speech>
[110.595]
<no-speech>
[110.955]
<no-speech>
[111.855]
ai nu <no-speech> supratau <sta> <no-speech> o (()) kyla
[115.965]
<no-speech>
[119.105]
<sta> <hes> šiandien ne <no-speech> tipo man intikas išsijungė <no-speech> tai dabar <no-speech> nežinau ką veikt
[127.105]
<no-speech>
[128.425]
<no-speech>
[129.325]
<no-speech>
[130.545]
<sta> <hes> nu jo tipo <foreign> ten kažkokios problemos <no-speech> nu tai
[136.665]
<no-speech>
[138.715]
nežinau vakar buvo buvo naktį <sta> atsijungė <no-speech> tai <no-speech> nežinau
[144.605]
<no-speech>
[146.545]
nu <no-speech> o kaip
[147.635]
<no-speech>
[150.025]
kas tau buvo <no-speech> <sta> o
[156.695]
<no-speech>
[158.735]
<sta> <laugh> tipo į taisyklą veši
[164.505]
<no-speech>
[166.415]
nu <no-speech> ką sakė <no-speech> ar dar nieko
[168.315]
<no-speech>
[174.425]
<sta> ai <no-speech> tai va <no-speech> ką veiksi šiandien
[184.195]
<no-speech>
[186.155]
gal nori šiandien į <hes> Akropolį
[188.405]
<no-speech>
[193.775]
<sta> užsiėmęs <int>
[196.145]
<no-speech>
[198.515]
<sta> ai ry- ryt tik į mokyklą eini <no-speech> aš tai ne
[207.275]
<no-speech>
[209.885]
<sta> nu <no-speech> gerklę skauda biškį sloga <no-speech> nu
[220.745]
<no-speech>
[225.005]
<sta> nu ką aš žinau nu <no-speech> normaliai <no-speech> o tau kaip
[229.175]
<no-speech>
[231.605]
<no-speech>
[232.525]
<no-speech>
[233.645]
<no-speech>
[234.725]
<no-speech>
[236.425]
rimtai pralaimėjo <no-speech> kokiu rezultatu
[238.665]
<no-speech>
[240.825]
<no-speech>
[241.175]
<no-speech>
[242.265]
prieš ką pralaimėjo
[243.385]
<no-speech>
[248.055]
o tai dėl ko jie pralaimėjo
[249.575]
<no-speech>
[255.075]
nu tai neblogai visai
[256.375]
<no-speech>
[257.255]
<sta> žiūrėsi U_F_A
[264.425]
<no-speech>
[265.575]
jo <int>
[266.125]
<no-speech>
[267.645]
nežinau nu tai <hes> dabar <hes> <no-speech> tikriausiai neloš <no-speech> <sta> dabar jau kitas ar ne lošia tas kitas ratas
[274.275]
<no-speech>
[282.255]
<no-speech>
[282.715]
<no-speech>
[284.455]
ai nu <no-speech> ai tai <no-speech> tikriausiai Madridas loš su <no-speech> Šalke ar ne
[289.185]
<no-speech>
[293.395]
ir <no-speech> Borusia su Zenitu <no-speech> <sta> jo
[300.125]
<no-speech>
[302.875]
<no-speech>
[303.225]
<no-speech>
[304.105]
<hes> man atrodo kad su Olimpiakosu
[306.765]
<no-speech>
[308.685]
<sta> tai va o <hes> žiūrėjai kai <hes> ry- Lietuvos Rytas laimėjo <no-speech> praeitas rungtynes <no-speech> Europos taurėj
[319.725]
<no-speech>
[324.575]
bet tai (()) neįmetė iš po krepšio (()) žiauru ten buvo
[327.615]
<no-speech>
[332.745]
žiūrėjai <no-speech> tai va bet geras buvo
[334.895]
<no-speech>
[338.395]
<sta> jo <no-speech> man irgi patiko
[341.235]
<no-speech>
[342.505]
<no-speech>
[343.005]
<no-speech>
[343.855]
tai va dabar dabar <no-speech> <sta> jo
[351.115]
<no-speech>
[354.145]
<no-speech>
[354.535]
<no-speech>
[355.825]
<sta> <breath> nieko sakau Einutį pašte susitikau <no-speech> kad kažką
[361.245]
<no-speech>
[363.955]
<breath> <sta> varysiu čia į <hes> tikriausiai į (()) su draugais nežinau tai tu sakei nevarysi
[369.595]
<no-speech>
[374.865]
<breath> a-a <sta> sk- skaitei įvartį taškas net ten <no-speech> Madrido Realas žiauriai tipo <no-speech> gerai lošia dabar geroj formoj rekordus muša
[383.065]
<no-speech>
[387.635]
<no-speech>
[388.095]
<no-speech>
[389.165]
<int> ai
[390.575]
<no-speech>
[391.765]
no
[392.575]
<no-speech>
[394.485]
tai <hes> <no-speech> kaip tau mašina nesugedo dar
[397.885]
<no-speech>
[402.865]
bet tai blogai dar negali vairuot tai <no-speech> padovanojo tau tą mašiną ką <no-speech> ką <no-speech> ką darai su ja
[407.415]
<no-speech>
[412.805]
o tai <no-speech> gerai tau <no-speech> visai
[415.095]
<no-speech>
[416.675]
<no-speech>
[417.035]
<no-speech>
[418.135]
<breath> (()) <no-speech> kokį tu ten filmą <no-speech> žiūrėjai vakar <no-speech> ir rašei man bet aš (()) tik šiandien pamačiau (())
[424.655]
<no-speech>
[430.785]
ai geras
[431.655]
<no-speech>
[436.335]
<sta> <laugh> ai nu
[442.265]
<no-speech>
[443.195]
<no-speech>
[444.225]
<no-speech>
[445.065]
<sta> šiandien Viktorijoj buvau <no-speech> geras ar ne <no-speech> nu <no-speech> mmm <no-speech> tai va
[454.965]
<no-speech>
[456.555]
<sta> kur
[461.555]
<no-speech>
[462.475]
<sta> ai ten normaliai
[464.895]
<no-speech>
[465.725]
<breath> <no-speech> tipo <hes>
[467.865]
<no-speech>
[469.755]
jo
[470.485]
<no-speech>
[473.595]
<sta> draugas <no-speech> jo jo vakar draugas skambino <no-speech> per treniruotę ran- ranką susilaužė
[485.305]
<sta> ži- žinai gal tą <no-speech> Jokūbą
[488.255]
<no-speech>
[492.755]
tas <no-speech> gerai gerai lošė <no-speech> lošė lošė nukrito susilaužė ranką dabar mėnesį <no-speech> negalės <no-speech> žaist
[498.825]
<no-speech>
[504.615]
ai nu <no-speech> nu tikriausiai <sta> <no-speech> nu <no-speech> nu
[511.775]
<no-speech>
[513.905]
<sta> o ką tu (()) kitą savaitgalį <no-speech> sakau ką (()) kitą savaitgalį veiksi
[519.695]
<no-speech>
[522.625]
<no-speech>
[522.985]
<no-speech>
[524.225]
<sta> nu aš ir <no-speech> mastau jei jei jau normaliai pasveiksiu tai irgi galvoju kažkur <no-speech> nuvaryt <breath>
[533.495]
<no-speech>
[536.715]
<no-speech>
[537.665]
<no-speech>
[538.665]
laukiu auto jau (()) minučių neatvaro <sta> turėjo jau prieš <no-speech> minutę būt
[542.325]
<no-speech>
[544.625]
<no-speech>
[544.985]
<no-speech>
[547.875]
<breath> tai va <int>
[549.855]
<no-speech>
[551.825]
tai <no-speech> no o kur tu šiandien būsi
[554.675]
<no-speech>
[556.075]
<sta> ai namie <no-speech> lo- lošia šiandien
[561.105]
<no-speech>
[565.695]
ai nu dar neprasidėjo rungtynės
[567.695]
<no-speech>
[572.425]
m-hm
[572.995]
<no-speech>
[575.085]
ai nu aišku
[576.785]
<no-speech>
[577.945]
<no-speech>
[578.435]
<no-speech>
[581.885]
<sta> mmm tai dabar vienas nulis <no-speech>
[588.875]
<no-speech>
[589.685]
<no-speech>
[590.045]
<no-speech>
[591.095]
nu tai o-o-o <sta>
[594.245]
<no-speech>
[595.205]
kaip <no-speech> Tomas gyvena
[596.815]
<no-speech>
[597.935]
<no-speech>
[598.165]
<no-speech>
[600.040]
