[0.000]
<no-speech>
[9.085]
taip
[9.815]
<no-speech>
[13.545]
taip girdžiu
[14.445]
<no-speech>
[20.075]
atrodo viskas gerai
[22.045]
<no-speech>
[31.675]
gerai aš buvau šiandien baliuj
[34.245]
<no-speech>
[35.165]
nu ne šiandien o vakar
[36.805]
<no-speech>
[38.795]
tai <hes> buvo mano su (()) susitikimas
[42.315]
<no-speech>
[43.185]
grupės susitikimas girdi
[45.135]
<no-speech>
[49.975]
jo mūsų <hes> grupės tai žo-
[52.265]
<no-speech>
[53.695]
jo <no-speech> tai žodžiu buvom baliuj
[56.985]
<no-speech>
[64.235]
a-a nieko ilgai <laugh> ilgai buvom <laugh> ir šiaip mane vakare parvežė <no-speech> bet dar būčiau ilgiau buvus tai smagu buvo labai
[75.545]
taip vakar nu <no-speech> šiandien galima sakyt ketvirtą ryto grįžau tai šiandien <no-speech>
[82.435]
<no-speech>
[92.555]
ir tau kaip <int>
[94.565]
<no-speech>
[103.035]
aišku
[103.635]
<no-speech>
[108.645]
autobusu važiavau
[110.315]
<no-speech>
[116.635]
<hes> ne devintą ryte *važiavau* į stotį tiktai <no-speech> šiaip važiavau <hes> dešimtą autobusas buvo <no-speech> bet žinai iki stoties valanda kelio beveik tai
[128.335]
(())
[128.795]
<no-speech>
[130.295]
<no-speech> tai teko anksčiau išvažiuot kad spėčiau
[133.915]
<no-speech>
[135.995]
ai gi rimtai <laugh> kaip nu bet žinai rytas bijo
[139.215]
<no-speech>
[141.955]
aš tai kai buvau (())
[143.355]
<no-speech>
[144.325]
buvo rytas tai bijojau kad bus kamščiai <no-speech> tai anksčiau išvažiavau
[149.065]
<no-speech>
[151.775]
tai laiku ir pataikiau
[153.195]
<no-speech>
[163.515]
<laugh> šeštą ryto
[165.285]
<no-speech>
[175.075]
a-a
[175.985]
<no-speech>
[179.465]
o aš važiavau <hes>
[181.005]
<no-speech>
[184.235]
o aš važiavau kitu <hes> maršrutu dabar
[187.335]
<no-speech>
[188.605]
nes šiaip važiuoju visada per Varėną nu kaip ir tu <no-speech> <hes> kitu maršrutu šiaip važiuoju per Varėną bet dabar važiavau <no-speech> per Marcinkonis
[197.765]
<no-speech>
[200.165]
žinai Marcink-
[200.975]
<no-speech>
[206.125]
taip ir aš galvojau kad aš jau pataikiau ant to kur važiuoja tris valandas <no-speech> o man sesę šiandien reikėjo vežt pas daktarus tai jau sakiau nespėsiu jos nuvežt <laugh>
[217.015]
<no-speech>
[217.875]
bet pasirodo kad važiavau dvi valandas ir penkiolika minučių jo nu ne pas daktarus pas dantistę <no-speech> tai nežinau čia vis tiek daktaras ar ne
[227.635]
<no-speech>
[229.415]
<no-speech>
[229.805]
<no-speech>
[239.695]
a-a
[240.595]
<no-speech>
[248.155]
man irgi patiko šiaip buvo smagu aš <no-speech> aš buvau miegojus tik tris valandas šiandien ir aš gi autobuse gi galėjau laisvai miegot bet kai važiavau kitu maršrutu
[259.585]
tai ne
[260.815]
<no-speech>
[261.635]
žiūrėjau pro langą ką matau
[264.065]
<no-speech>
[269.735]
ne gi <hes> pas Arūną darbe šiek tiek miegojau kai Živilę ten nuvežiau pas tą dantistę tai ji valandą visą užtruko
[277.655]
<no-speech>
[278.505]
jo nes aš ją atvažiavau pasitikti
[280.955]
<no-speech>
[283.125]
ach <laugh> įmanoma
[285.675]
<no-speech>
[287.295]
tai ten <hes> yra toks tipo sodas
[290.325]
<no-speech>
[292.405]
*Semiramidė* ten kažkas panašaus
[294.565]
<no-speech>
[295.715]
tai ten tam sode yra šiaip tokių (())
[298.515]
<no-speech>
[300.535]
nu ir šiaip ten yra tokiu sofyčių ir panašiai atsisėst nu tai aš ten ir atsigulu pamiegot truputį
[306.345]
<no-speech>
[308.485]
belaukdama jo kol darbą baigs
[310.485]
<no-speech>
[312.985]
jo ir visai dabar nebenoriu miego
[315.385]
<no-speech>
[317.805]
kaip
[318.355]
<no-speech>
[323.475]
ne nesupratai
[324.865]
<no-speech>
[326.995]
girdžiu
[327.825]
<no-speech>
[331.125]
aš miego nenoriu todėl kad
[332.915]
<no-speech>
[339.065]
ai aš miego nenoriu dabar sakiau <breath>
[342.405]
<no-speech>
[349.565]
o kaip tau sekėsi
[351.295]
<no-speech>
[359.705]
<hes> tu buvai darbe <hes> šią šį savaitgalį ar akademijoj
[364.315]
<no-speech>
[369.075]
jo darbe m-hm
[371.475]
<no-speech>
[375.225]
ai o važinėji pirmadieniais <no-speech> namo dabar visą laiką
[379.845]
<no-speech>
[383.045]
tu į Vilnių
[384.195]
<no-speech>
[390.400]
<no-speech>
[396.605]
a-a
[397.195]
<no-speech>
[398.645]
oo
[399.655]
<no-speech>
[404.065]
o aš va turiu naujieną skambinau dėl darbo girdžiu girdi mane
[408.235]
<no-speech>
[411.155]
tai va skambinau dėl darbo <no-speech> ten vienu numeriu
[414.965]
<no-speech>
[416.535]
tai žodžiu ten klausė ar turiu mašiną ar dirbau ten tam tikrom programom kurios priklauso mano specialybei <no-speech> tai sakė paskambins po kelių dienų bet aš šiek tiek vėlokai paskambinau nes prieš tai jau buvo paskambinęs mano grupiokas <no-speech> tai darbo nu ten <no-speech> ir jau jį priėmė <laugh> tai žodžiu kol kas darbo dar negausiu
[440.225]
šiaip tik norėjau pabandyt pažiūrėt kaip ten ką reiktų daryt
[444.645]
<no-speech>
[450.495]
tokiam
[451.215]
<no-speech>
[453.915]
ten žinai tie jo
[455.875]
<no-speech>
[459.455]
ten tų darbuotojų reikėjo nes <no-speech> <hes> šita <hes> dėka nu dir- dirbo ta dėstytoja seniau pas mus kolegijoj ir jinai noriai dabar priima į
[471.225]
savo darbovietę mūsų <hes> studentus
[474.965]
<no-speech>
[475.875]
tai dėl to ir pasakė mums
[477.615]
<no-speech>
[480.335]
jo Vilniuj
[481.235]
<no-speech>
[483.915]
girdžiu
[484.555]
<no-speech>
[489.165]
tai aš ir Vilniuj galvoju atlikinėt tą praktiką
[492.405]
<no-speech>
[494.065]
kartu <no-speech> nu jeigu man būtų priėmę jo jeigu būtų mane priėmę bet dabar tai ieškosiu Druskininkuose
[501.675]
<no-speech>
[504.055]
tai žinai vis tiek patogiau
[505.655]
<no-speech>
[508.415]
jo
[509.095]
<no-speech>
[510.955]
yra sakė ir gan daug yra
[513.585]
<no-speech>
[517.485]
nu
[518.095]
<no-speech>
[519.045]
<no-speech>
[519.895]
<no-speech>
[525.625]
kaip
[526.505]
<no-speech>
[535.605]
ne yra žinok ir Druskininkuose <hes> vienas grupiokas pažįsta <hes> nu ten jo tėtis pažįsta <hes> čia Druskininkuose va tų geodezininkų
[547.355]
tai yra žinok Druskininkuose jų
[549.345]
<no-speech>
[550.925]
tai <hes> reikia man tik susirast tas įmones <no-speech> man tos įmones reikia susirast nes atseit filialai Druskininkuose yra tiktai Kauno ir Vilniaus įmonių
[561.575]
tai žodžiu jų va šiaip ne- nerasi internete čia jų reikia ieškot kur nors Statistikos departamente ar panašiai
[569.865]
<no-speech>
[575.990]
<no-speech>
[582.115]
<breath> tai va kad kad <no-speech> bus bus sunku gali būt aha nu bet nieko dar turiu laiko dar man iki Kalėdų yra <hes> marios
[591.735]
<no-speech>
[594.575]
(())
[594.955]
<no-speech>
[596.065]
<hes> prasidės
[598.125]
(())
[598.400]
