[0.000]
<no-speech>
[0.005]
<no-speech>
[1.585]
<no-speech>
[2.405]
<no-speech>
[2.985]
<no-speech>
[4.775]
<no-speech>
[5.215]
<no-speech>
[12.345]
<no-speech>
[13.385]
<no-speech>
[16.645]
<no-speech>
[18.645]
<no-speech>
[20.655]
<no-speech>
[24.565]
<no-speech>
[34.455]
<sta> <breath> alio laba dėina <no-speech> taip klausom
[37.695]
<no-speech>
[41.055]
<sta> nu esu išvažiavęs <no-speech> kelionėje
[44.155]
<no-speech>
[46.565]
<sta> <no-speech> į Kėdainius išvažiavau
[48.825]
<no-speech>
[52.425]
ger
[53.215]
<no-speech>
[54.015]
nu je (()) <no-speech> nu
[56.595]
<no-speech>
[57.645]
nu nežinau iki kokių penkių valandų
[60.135]
<no-speech>
[63.855]
gė- <no-speech> <breath>
[65.355]
<no-speech>
[66.415]
jo kaip vasarą gali važiuoti tau ir ranka vairuodamas į nieko nekreipi dėmesį
[72.225]
<no-speech>
[73.265]
saulė švėit
[74.535]
<no-speech>
[76.035]
o kas namuos <no-speech> <int>
[77.855]
<no-speech>
[79.265]
nu ne <no-speech> ne ne nedaug nedaug maža kažko maža nu <no-speech> <breath> jo <no-speech> <breath> nieko taip
[87.675]
<no-speech>
[88.805]
no
[89.535]
<no-speech>
[94.675]
ar ne <no-speech> vo kaip ger- aha <no-speech> <breath> vo
[99.355]
<no-speech>
[101.675]
m-hm vo
[102.855]
<no-speech>
[103.865]
jo reiks (()) aplankyt kokią dien- kokią dieną ar ne
[107.105]
<no-speech>
[107.975]
(())
[108.805]
<no-speech>
[110.415]
no gera no <no-speech> <breath> gera gera būtina
[113.375]
<no-speech>
[114.205]
reikės važiuot aplankyt pažiūriet viską no
[117.075]
<no-speech>
[118.695]
jo <no-speech> <breath> <int>
[121.065]
<no-speech>
[122.055]
a-a nu ir gerai nu ir mausim ar ne <no-speech> <breath> o kaip namuos jau namuos esi
[126.595]
<no-speech>
[128.615]
<int> no
[129.415]
<no-speech>
[131.265]
ar aš nee (()) esu (()) <no-speech> nekuosiej nekuosiej išgijau jau
[136.975]
<no-speech>
[139.965]
nu <no-speech> <breath> g- geriau nu kaip be vaistų <no-speech> išgėriau visus vaistus kur (())
[147.835]
(()) <no-speech>
[149.915]
pakelė yra čia
[151.205]
<no-speech>
[152.205]
pakelie pakelie bar- bars yras no sakyk nori gali valgyt tik ta reik pinigų
[157.585]
<no-speech>
[160.865]
no (())
[161.835]
<no-speech>
[163.185]
no (()) daug telp kaip pas monis <breath> pora porcijų telp
[167.825]
<no-speech>
[170.885]
nu jau jau jau jau
[172.675]
<no-speech>
[173.745]
ne pares-
[174.905]
<no-speech>
[177.215]
pareisiu (()) <no-speech> pareisiu pareisiu
[179.935]
<no-speech>
[181.115]
ne (()) čia pat yra pašvilpaudamas žiūrėk jau namuos esu
[185.535]
<no-speech>
[187.805]
<breath> nu kad būtų (()) nu
[190.015]
<no-speech>
[191.355]
<int> (()) šeštadienį
[192.685]
<no-speech>
[193.875]
(())
[194.445]
<no-speech>
[195.925]
no nuvažiousem aplunkysem pažiūriesem <no-speech> <sta> no
[199.455]
<no-speech>
[201.265]
a
[201.745]
<no-speech>
[203.875]
(()) <no-speech> <breath> (()) <no-speech> rankoj sakysim <breath> <no-speech> nu kas kita <no-speech> kaip namuos ar jau namuos esi <no-speech> <breath> ar namuos esi
[215.705]
<no-speech>
[217.065]
<sta> ar namuos esi ne dar
[218.825]
<no-speech>
[220.765]
<no-speech>
[221.125]
<no-speech>
[222.525]
<breath> <no-speech> a-a nu gera nu kaip ką (())
[225.315]
<no-speech>
[227.265]
<int> o siaubas <no-speech> o siaubas <no-speech> siaubas nu vo
[232.285]
<no-speech>
[233.925]
nu vo
[234.805]
<no-speech>
[235.925]
nu bloga bloga nu kas ten kiti jauni (()) <no-speech> taip <no-speech> <breath> taip gydyk <breath> kad būtų visi sveiki <no-speech> kas ten dabar per (()) yra tokie nu
[247.325]
<no-speech>
[248.175]
no kas kita
[249.595]
<no-speech>
[250.705]
kaip nu kaip se- tava sesereli
[252.745]
<no-speech>
[253.835]
skombėna
[254.715]
<no-speech>
[257.495]
a-a <no-speech> <breath> nu kon
[260.065]
<no-speech>
[263.655]
o ko Pranas susirgo ar ne
[265.265]
<no-speech>
[266.735]
a Pranis serg
[267.855]
<no-speech>
[268.825]
a-a (()) <breath> anuo nie- a- anam nėra kada sirgt <no-speech> anas yra sveikas
[274.085]
<no-speech>
[277.185]
no <breath> anam nėra kada
[279.105]
<no-speech>
[280.005]
(()) <no-speech> <breath> nu taip svarbu yra pavalgyt o sirgt nebėra kada
[284.365]
<no-speech>
[285.425]
<breath> no
[286.535]
<no-speech>
[287.625]
(()) sveikas ką tą pavalgiau skaniai <no-speech> <breath> dirbam dirbam <no-speech> kur dingsi (()) dirbo dirba jei tik jei tik nori (()) tai jau daug darbą ui
[299.295]
<no-speech>
[301.065]
<breath> jo darbas yra visų (()) pagrindas <no-speech> <breath> neturi darbo ir nieko neturi <no-speech> <breath> a vo kad turi darbą visko turi
[309.925]
<no-speech>
[312.435]
ne nekas nedirba tas tik dej- dejuoja
[315.385]
<no-speech>
[317.085]
ne jau ant senatvės jau <no-speech> <breath> kad tik į priešlaikinę pensiją reikės <breath> <no-speech> nestavuos ilgą <no-speech> <breath> dar pora metų ir (()) priešlaikinę pailsėt
[329.885]
<no-speech>
[330.855]
no laiko laiko bet ga- galvelė keporis nebnulaika
[334.875]
<no-speech>
[338.445]
(()) <breath> <no-speech>
[339.725]
<no-speech>
[342.355]
ką
[342.895]
<no-speech>
[344.415]
nu bi- tor- toru dar
[346.015]
<no-speech>
[346.875]
jo tris valandas
[348.555]
<no-speech>
[349.655]
tris valandas reik palaukt
[351.125]
<no-speech>
[352.525]
jo atskira (()) nubuode nubuode
[356.005]
<no-speech>
[357.905]
<breath> ne žiūriu televizorių
[360.055]
<no-speech>
[361.505]
ne ne žiūriu televizorių žiūriu <no-speech> kabelėni
[365.075]
<no-speech>
[366.155]
(()) <no-speech> <breath> palydovinė tai palydovinė
[370.465]
<no-speech>
[371.335]
kuoki
[371.775]
<no-speech>
[372.655]
<sta> <no-speech> taip taip nueini (()) kavos puodelį didelį tokį
[377.045]
<no-speech>
[378.155]
kavos ir ar arbatas ko nori <no-speech> <breath> ir kiek nori
[381.705]
<no-speech>
[383.615]
ne nemok- ne- nemokama svarbiausi nemokama
[387.035]
<no-speech>
[388.185]
nesu mokiejis <no-speech> <breath> (())
[391.935]
<no-speech>
[393.695]
no
[394.305]
<no-speech>
[397.635]
(()) nu kam reik tų saldumynų dar prie kavos nu
[401.235]
<no-speech>
[403.045]
nu ir (()) <no-speech> taip taip taip taip taip taip <breath> tu jau viskas nieko negausi čia ne kavos arbatas ir (())
[410.985]
<no-speech>
[412.655]
vo kas kita pasakok kas kaip namuos <no-speech> <sta> <breath> (()) tariau klausti nu tu <no-speech> (()) turim irgi (()) tai Eglė
[424.445]
turi (())
[425.265]
<no-speech>
[426.135]
tuo (()) <no-speech> nu
[427.695]
<no-speech>
[428.575]
(()) nereik tik tą
[430.375]
<no-speech>
[432.565]
neskombėna ar ne
[433.945]
<no-speech>
[435.995]
no
[436.665]
<no-speech>
[437.625]
(()) <no-speech> nu gerai (()) <no-speech> <breath> pažiūrėsim kas nu kas per (()) <no-speech> <breath> nu ta must laisvesnis yra (()) E
[449.585]
visus darbus pradėjęs <no-speech> <breath> no
[452.445]
<no-speech>
[456.365]
<sta> suar- suari suari buvau nuvažiavęs žiūrėjau karvės nu <no-speech> <breath> (()) kaip pasakyt tau lyg ta nu <no-speech> <breath> jo <no-speech> visi <breath> vasarą ir kultivuosiu (()) sodinsim bulves (()) ten
[468.595]
<no-speech>
[471.525]
<breath> nu (()) pirma nupurkšt ir nukultivuot
[474.425]
<no-speech>
[475.305]
<breath> <no-speech> tep daryt
[476.425]
<no-speech>
[478.165]
reik reik
[479.065]
<no-speech>
[482.345]
nu ir kas <no-speech> reik reik (()) <breath> nu bus matyt
[486.295]
<no-speech>
[487.635]
gerai padėsim <no-speech> <breath> gerai pasakei ir viskas <no-speech> gerai <no-speech> gerai būtinai <no-speech> nu ir (()) esu bandęs (())
[496.665]
<no-speech>
[497.775]
(()) no tep <no-speech> <breath> gera no
[502.275]
<no-speech>
[503.225]
no a (()) <no-speech> (()) kulkšnį
[508.045]
<no-speech>
[509.475]
rytmety buvo trylika <no-speech> (()) <no-speech> po septynių buvo trylika <no-speech> <breath> nu čia dar nieko bus pa- paskiau parodys <no-speech> <breath> jo <no-speech> nieko parodys paskiau bus dvidešimt
[521.405]
<no-speech>
[521.555]
<no-speech>
[522.465]
virš dvidešimt dvidešimt penki bus ir nieko tai normaliai dar bet nedaug <no-speech> <breath> ot Amerikoj buvo trisdešimt keturiasdešimt
[530.685]
<no-speech>
[531.805]
nieko nenu- nenumirė
[533.775]
<no-speech>
[534.785]
tai mes (()) miegstam dejout <no-speech> no
[537.575]
<no-speech>
[540.125]
nu bet ne tiek keturiasdešimt laipsnių (()) o čia pas mūsų <no-speech> dešimt laipsnių jau
[545.445]
<no-speech>
[547.275]
bet išsibėgioji <no-speech> nu nieko bet anie išgyvena (()) <breath> dešimt laipsnių ir viskas nušąla galūnės aniem reik alkoholį kalt į veną <no-speech> anie ten negeria šnapšo (())
[559.195]
čia geram šnapšą <no-speech> <breath> o čia namuos ir gaunas antraip
[562.515]
<no-speech>
[563.855]
ne (()) <no-speech> ne viena (())
[567.345]
<no-speech>
[570.425]
nu tep
[571.165]
<no-speech>
[572.125]
<no-speech>
[573.615]
<no-speech>
[574.565]
nu vo <no-speech> vo <breath> nu tai gera
[577.425]
<no-speech>
[579.515]
<breath> at- ar ne <no-speech> vo <breath> aš (()) <no-speech> <breath> žiūriu ku- kokią komediją <no-speech> <breath> ko- kur nebaisi
[588.205]
<no-speech>
[589.565]
no
[590.295]
<no-speech>
[592.605]
nu (()) kuoki nežiūriu (()) palyduovs viską doud
[596.165]
<no-speech>
[597.475]
ne jau vėsk-
[598.435]
<sta> <no-speech> jau nebe-
[599.820]
