[0.000]
<no-speech>
[0.345]
<no-speech>
[4.405]
<no-speech>
[5.425]
labas
[6.345]
<no-speech>
[8.555]
<sta> <no-speech> blogai blogai mano koja ištinus raudona skauda
[20.005]
iškėlus reikia laikyt
[22.495]
<no-speech>
[23.525]
nežinau (())
[25.375]
<no-speech>
[27.585]
<breath> tai aš paskaičiau paskaičiau internete kad gali būt varikozė tai nežinau
[33.635]
<no-speech>
[35.035]
baisu n- <foreign> į pirtį eit
[37.625]
<no-speech>
[45.445]
tai va <foreign> nei į pirtį eit niekur gi
[47.985]
<no-speech>
[49.385]
nežinau kaip čia (())
[50.505]
<no-speech>
[56.745]
tai va dabar į pirštus perėjo taigi tai tepu medum (()) pasidarau karštą išsimirkinu kojas tada jau
[64.615]
<no-speech>
[65.655]
medų biskį pašildau ir ištepu
[67.885]
<no-speech>
[68.955]
tada celofaniniam maišiukan <no-speech> <breath> tada šilta kojine ir einu gult <no-speech> <laugh> pensininkė
[78.435]
<no-speech>
[79.295]
<no-speech>
[80.575]
<no-speech>
[81.825]
<no-speech>
[82.345]
<no-speech>
[84.195]
<breath> nu tai faina žinai nesupranta kame čia reikalas
[88.095]
<no-speech>
[90.575]
viena koja tokia kita tokia
[93.035]
<no-speech>
[94.405]
nu <breath>
[96.465]
<no-speech>
[99.515]
nežinau ale (()) tai kad tas daktaras matai
[102.895]
<no-speech>
[104.005]
<lipsmack> Vilniun reikia važiuot ar kur
[106.215]
<no-speech>
[109.855]
<no-speech>
[110.295]
<no-speech>
[115.235]
tai va (())
[116.345]
<no-speech>
[124.905]
nu tai aš einu pėsčiom nu tai va
[127.445]
<no-speech>
[128.835]
<no-speech>
[130.375]
<no-speech>
[134.125]
reikia kraujagyslių specialisto
[136.265]
<no-speech>
[138.545]
mmm <breath>
[140.605]
<no-speech>
[143.435]
tai lyg tai čia žinai žiūrėjau biškį bet tai vis jeigu <hes> su siuntimu nu tai laukt o jeigu su su mokėt tai pinigai ten žinai baisuliniai <cough>
[155.315]
<no-speech>
[157.725]
<no-speech>
[160.505]
nu tai aišku bet tai žinai ar ten gi dar žino kad ten geras specialistas
[165.225]
<no-speech>
[166.185]
dar irgi
[167.165]
<no-speech>
[169.635]
kaip čia į tą Medėją atvažiuoja kokie
[172.385]
<no-speech>
[173.225]
nu atvažiuoja atvažiuoja atseit geri o ten
[176.095]
<no-speech>
[176.995]
ot kad <no-speech> kas nori užsidirbt papildomai tas važinėja
[181.665]
<no-speech>
[183.785]
o ten tos (()) kompetencijos
[185.705]
<no-speech>
[188.175]
nu tai gali paklaust jeigu (())
[190.125]
<no-speech>
[190.995]
tai tu jei ji buvo pas ka- o jinai buvo pas kažkokį
[193.795]
<no-speech>
[200.905]
ai ji Lazdynuose net gulėjo ar ne
[203.085]
<no-speech>
[204.185]
mmm ir ilgai ar ne
[206.575]
<no-speech>
[207.555]
ilgai
[208.455]
<no-speech>
[214.685]
<no-speech>
[220.915]
tai va reikės nupirkt <breath> o tai klausyk (()) dabar jau jai nieko
[225.385]
<no-speech>
[231.855]
bet vaistinėj ne
[233.275]
<no-speech>
[237.325]
mmm
[238.145]
<no-speech>
[240.425]
m-m o tai (()) jau jai nieko ar ne
[244.135]
<no-speech>
[245.295]
ar ji dirba dar ar jau pensija
[247.055]
<no-speech>
[248.365]
ar jinai dirba (())
[250.455]
<no-speech>
[252.205]
mmm
[253.785]
<no-speech>
[261.925]
ir nieko ar ne
[263.145]
<no-speech>
[269.425]
m-hm <no-speech> nu nu
[272.355]
<no-speech>
[277.915]
<lipsmack> nu tai nieko viešbutis labai fainas ir ir karuselės vaikam ir ir viskas ten ir
[284.125]
<no-speech>
[284.955]
<breath> atrakcionų parkas didžiulis
[288.705]
<no-speech>
[291.235]
aš nežinau ten kaimas gal koks tik žinau kad tas ten koks Delfinas viešbutis
[296.015]
<no-speech>
[298.535]
ir pliaže guli ten viską nešioja vaisius valgyt ir agurkus pjausto ir
[304.665]
<no-speech>
[305.725]
ir kokteilius nešioja ir
[308.135]
<no-speech>
[310.825]
nu
[311.775]
<no-speech>
[313.685]
ne maistas nerealus ir skanus ir daug <no-speech> daug daug daug visko ir šnapso daug
[320.205]
<no-speech>
[321.205]
<no-speech>
[321.925]
<no-speech>
[326.465]
sakė šilta buvo apie trisdešimt laipsnių <no-speech> ai ar Viduržemio ar Juodoji <no-speech> gal Viduržemio
[333.335]
<no-speech>
[335.445]
tai Viduržemio jeigu čia Alanija
[337.535]
<no-speech>
[339.395]
nes jie tai skrido į Alaniją
[341.525]
<no-speech>
[343.475]
<no-speech>
[343.875]
<no-speech>
[346.585]
tai vienu žodžiu kas deginos kas gėrė kas valgė
[351.005]
<no-speech>
[352.695]
priaugo tris kilogramus
[354.505]
<no-speech>
[355.445]
tai ji ruda žinai pilvas tai kaip anglis
[357.875]
<no-speech>
[359.375]
tai tipo tris k- kilus priaugo
[361.985]
<no-speech>
[363.605]
Titas irgi pavarė prisipūtęs žinai vos eina <breath>
[368.095]
<no-speech>
[369.915]
<breath> o Agnė atseit irgi ten nėjo degintis tai žinai ten nuotaikos nebuvo
[374.755]
<no-speech>
[380.225]
tai gal drybsojo biškį
[381.845]
<no-speech>
[383.555]
tai kad aš (()) su tokiais bendravimas nu tipo bendravimas tik apie
[387.625]
<no-speech>
[388.825]
šį bei tą
[390.165]
<no-speech>
[391.815]
apie tai nešneka visai
[394.015]
<no-speech>
[395.265]
nes dabar buvo kada čia va <breath> kai tuos dokumentus žinai padaviau <no-speech> tai
[402.445]
<no-speech>
[404.255]
jinai užsuko ir jinai sėdėjo paskui žinai aš <no-speech> kai nuvežiau tą dėžutę paduot tai sako sakau tai iš kur tu čia su ta Agne tai tipo vežė blakstienų prisiaugint
[414.105]
<no-speech>
[415.015]
tai atseit nuvežiau į į šitą į nu
[418.545]
<no-speech>
[421.035]
tai (())
[422.615]
<no-speech>
[425.825]
nu
[426.615]
<no-speech>
[428.455]
tai tipo sako Audra nuvažiavo ten pas draugę tokią žinai sako pabūt o tai ten kepė šašlykus nu tai sako aš jai paskambinau jau jinai paskambino kad jau jau ji viskas nu tai sako tai atvažiuok žinai o čia soduose tai
[440.405]
<breath> uoj tai tipo tai kol aš čia atvažiuosiu nu tai sako taksą išsikviesk ir atvažiuok tai va čia autobusiukas važiuoja nei (()) žinai tai aš važiuoju nei pasako važiuok jei jau tu nori ten žinai
[451.535]
<no-speech>
[452.535]
bet sako atvarė su taksu
[454.345]
<no-speech>
[455.565]
tai paskui nuvežė dar (()) batus nupirko batus dar už tris šimtus žinai dar ten kažko
[461.575]
<no-speech> ir tipo eik jau namo (()) tu čia žinai tai sako parvežiau nei ko mane prie Aibės paleisk ir <no-speech> paleido ir nuėjo vėl pas (())
[471.245]
<no-speech>
[473.545]
nu
[474.365]
<no-speech>
[475.485]
ne namie <no-speech> kaip prie kultūrkės žinai (()) m-hm
[480.785]
<no-speech>
[483.355]
tai tėvas gal palikęs mamą tik mama
[486.065]
<no-speech>
[489.785]
ne yra dar brolis bet brolis tai labai fainas ir normaliai žinai gyvena Vilniuj
[494.605]
<no-speech>
[496.645]
tikrai labai žinai toks ir padorus ir dirba gi kažkur ten neblogai
[500.785]
<no-speech>
[503.235]
o šitas (()) pasiutęs
[504.895]
<no-speech>
[507.035]
nu tai taip ir žinok
[508.725]
<no-speech>
[511.485]
nežinau tai sakau tai kas ten yras žinai tai
[514.605]
<no-speech>
[515.545]
nežinau sako gal jis labai jau švelnus sako nu pabandė ir viskas
[520.385]
<no-speech>
[527.175]
nu nežinau tai ji ir nežino sako nežinau kas ten <breath>
[530.945]
<no-speech>
[532.035]
kame čia toj (())
[533.615]
<no-speech>
[536.745]
<lipsmack> niu o paskui ji sakė bušavojo taigi
[539.845]
<no-speech>
[540.685]
(()) sakė prisigėrus
[542.505]
<no-speech>
[543.635]
išdaužė ten pas juos <no-speech> nu <laugh>
[547.675]
<no-speech>
[550.655]
nežinau nu tai jokio gi Valdas viršus <breath>
[554.265]
<no-speech>
[555.505]
brolis jo
[556.675]
<no-speech>
[557.805]
kad jų pa- paskambino gal kad pasiimkit ten Valdą žinai tai p- pasiėmė gal ten vaikai nuvarė jį parsivežė jau pas nu kaimynystėj žinai kad brolis ten gyvena tai
[567.635]
<no-speech>
[568.565]
tai nieko sako atsikeliu o Valdas (()) jau jos ketvirtą valandą vėl iškuitus atgal
[574.275]
<no-speech>
[575.245]
nesusimaišęs protas normaliai <breath>
[577.785]
<no-speech>
[586.915]
jau išsinuomavo
[588.305]
<no-speech>
[597.785]
nu
[598.585]
<no-speech>
[600.180]
