[0.000]
<no-speech>
[5.805]
alio
[7.155]
<no-speech>
[10.695]
alio
[11.435]
<no-speech>
[12.445]
labas Sandruliukai
[13.675]
<no-speech>
[14.885]
čia Algis <no-speech> skambina
[16.625]
<no-speech>
[19.415]
nu nu nu
[20.645]
<no-speech>
[22.425]
kaip <hes> vakarą leidžiat
[24.585]
<no-speech>
[30.385]
a-a prie televizoriaus
[32.385]
<no-speech>
[33.305]
aha
[34.355]
<no-speech>
[38.565]
aš iš namų <no-speech> jo
[41.145]
<no-speech>
[46.175]
o tai po darbų
[47.755]
<no-speech>
[49.175]
parvažiavau vakarieniavom
[51.455]
<no-speech>
[53.645]
va
[54.425]
<no-speech>
[58.025]
a
[58.715]
<no-speech>
[60.545]
ką
[61.265]
<no-speech>
[64.335]
Vilkaviškyje buvau išvažiavęs
[66.865]
<no-speech>
[69.635]
į Vilkaviškį porą kartų <no-speech> suvažinėjau
[74.345]
<no-speech>
[75.415]
no
[76.295]
<no-speech>
[77.675]
no
[78.485]
<no-speech>
[80.215]
klausau
[81.095]
<no-speech>
[82.805]
alio
[83.595]
<no-speech>
[85.625]
jo (()) Jūratė vis nuvažiuoja mes čia buvom nuvažiavę
[89.365]
<no-speech>
[90.225]
<hes> <no-speech> sekmadienį buvom
[92.965]
<no-speech>
[94.185]
sekmadienį buvom <no-speech> nuvažiavę <no-speech> šeštadienį lyg tais <no-speech> dabar tiktai neatsimenu
[100.075]
<no-speech>
[105.775]
nu aha
[106.825]
<no-speech>
[109.235]
<breath> kaip sveikatos jūsų
[111.325]
<no-speech>
[112.745]
ak <no-speech> klausau
[113.805]
<no-speech>
[115.365]
gerai sveikatos ar ne
[117.335]
<no-speech>
[118.785]
vaistus <no-speech> vaistus geriat ar ne dar plaktuką
[122.575]
<no-speech>
[124.025]
ką
[124.635]
<no-speech>
[126.165]
a-a būtinai (())
[127.745]
<no-speech>
[129.025]
jo jo
[130.115]
<no-speech>
[131.475]
aš tai vis tas žoleles dar po biškį
[134.275]
<no-speech>
[136.195]
alio
[136.935]
<no-speech>
[140.285]
jo tru- <no-speech> trūkinėja labai kažkodėl
[142.915]
<no-speech>
[146.455]
no no no no
[147.525]
<no-speech>
[148.485]
bet <no-speech> girdėtis girdėtis <no-speech> normaliai eina
[153.295]
<no-speech>
[155.055]
kaip Andriukui sekasi
[156.815]
<no-speech>
[162.985]
į namus išvažiavo ar ne
[164.535]
<no-speech>
[166.575]
į Meliūnus dirba abudu ar ne
[168.685]
<no-speech>
[172.475]
a vienas dirba
[173.835]
<no-speech>
[175.385]
a-a
[176.715]
<no-speech>
[179.365]
o tai kodėl Melionas nedirba
[181.325]
<no-speech>
[185.125]
a-a
[185.945]
<no-speech>
[188.935]
dauba <no-speech> no
[191.385]
<no-speech>
[193.055]
alio alio <no-speech> girdžiu
[194.485]
<no-speech>
[196.545]
nu kai kada užsidedu
[198.145]
<no-speech>
[199.335]
kai kada užsidedu
[200.775]
<no-speech>
[206.215]
o kokia kaina
[207.595]
<no-speech>
[215.005]
a <no-speech> šimtai ar litai
[217.175]
<no-speech>
[218.565]
<laugh> litai <no-speech> ne
[220.405]
<no-speech>
[221.995]
tai labai pigiai labai pigiai
[223.775]
<no-speech>
[228.595]
a-a aš aš girdžiu girdžiu jo jo
[231.085]
<no-speech>
[232.595]
jo
[233.395]
<no-speech>
[239.785]
a-a jo jo jo eikit į kitą kambarį <laugh>
[243.585]
<no-speech>
[246.545]
normaliai ar ne
[248.005]
<no-speech>
[249.465]
o tai sakau labai pigūs akiniai buvo ar ne
[252.235]
<no-speech>
[257.885]
ir kaip kaip <no-speech> kaip per juos matyt eina
[260.885]
<no-speech>
[263.995]
normaliai ar ne
[265.355]
<no-speech>
[267.375]
aha
[268.255]
<no-speech>
[270.535]
nu nu
[271.495]
<no-speech>
[273.075]
Arūną išleidom šiandien į Vokietiją
[275.895]
<no-speech>
[277.505]
alio
[278.145]
<no-speech>
[279.205]
jo išvažiavo su (())
[281.295]
<no-speech>
[282.095]
ką
[282.735]
<no-speech>
[286.015]
(()) <no-speech> alio
[287.445]
<no-speech>
[288.795]
nu kažkaip tai čia taip trūkinėja
[291.265]
<no-speech>
[292.795]
čia yra (()) labai toli sujungtas ryšys mat- matyt biškį ne ne <no-speech> ne kontakte
[298.515]
<no-speech>
[299.775]
no
[300.485]
<no-speech>
[302.565]
<breath> tai va
[305.285]
<no-speech>
[307.055]
ką
[307.755]
<no-speech>
[312.455]
<breath> o tai namie
[313.905]
<no-speech>
[316.335]
namie švęsim
[317.735]
<no-speech>
[324.035]
aha
[325.005]
<no-speech>
[327.315]
nu tai močiutę biškį pasiimsim ant Kūčių ant Kalėdų
[330.915]
<no-speech>
[331.755]
vis tiek jau <no-speech> (())
[334.655]
<no-speech>
[335.835]
ką
[336.415]
<no-speech>
[340.645]
ai ant Kalėdų jo jo jo gerai tai pa- <no-speech> <breath> nu tai pasimatysim tada
[345.965]
<no-speech>
[347.905]
mudu turim dešimt minučių iš iš iš
[350.235]
<no-speech>
[351.225]
iškalbėti
[352.355]
<no-speech>
[354.405]
jo <no-speech> jo jo jo <no-speech> nu paskui paaiškinsim
[358.835]
<no-speech>
[360.415]
ne
[360.825]
<no-speech>
[362.775]
(())
[363.435]
<no-speech>
[366.875]
<no-speech>
[367.335]
<no-speech>
[368.855]
ką čia dar normaliai du reisus suvažinėjau
[371.865]
<no-speech>
[374.715]
normaliai
[375.965]
<no-speech>
[376.845]
ką
[377.545]
<no-speech>
[383.305]
<laugh> <breath> buvo gedimų visokių čia jam <no-speech> penktadienį va Jėzau
[389.725]
<no-speech>
[393.055]
jo
[394.255]
<no-speech>
[395.205]
ir <no-speech> sau <no-speech> sau
[396.685]
<no-speech>
[398.015]
jo elektra saugikliai
[400.445]
<no-speech>
[401.385]
ką
[401.975]
<no-speech>
[404.325]
saugikliai nudegė
[406.145]
<no-speech>
[407.435]
saugikliai nudegė tai vakar ieškojom visą dieną
[410.785]
<no-speech>
[413.185]
alio
[414.075]
<no-speech>
[415.265]
jo jo dėl kažko tai ten bet
[417.485]
<no-speech>
[418.555]
nu s- matyt senatvė jau
[420.385]
<no-speech>
[423.195]
tai
[424.105]
<no-speech>
[425.415]
tai buvo specialistas toks <hes> tai va paskui atkasėm <no-speech> šiaip taip atkasėm dabar eina jau šiandien važiavau
[434.215]
<no-speech>
[435.795]
tai va pašalinom gedimus
[437.885]
<no-speech>
[439.205]
<breath> jau reikės pareikalauti kitaip n- <no-speech> jo kitaip nebus <no-speech> <laugh>
[444.365]
<no-speech>
[445.825]
tai vat <no-speech> kaip <no-speech> kaip bitininkai <no-speech> a klausau
[453.755]
<no-speech>
[456.055]
kaip bitininkai ten
[457.665]
<no-speech>
[465.385]
si- sirupai užpilti jau žiemai ar ne
[468.325]
<no-speech>
[471.705]
viskas užpilta
[473.315]
<no-speech>
[474.165]
jo jo
[475.225]
<no-speech>
[484.835]
a ta koja lūžus buvo jai
[486.675]
<no-speech>
[488.215]
ar ne
[488.895]
<no-speech>
[490.135]
bet jau dabar be ramentų jau
[492.285]
<no-speech>
[495.505]
a tai gerai jau dabar
[497.615]
<no-speech>
[498.555]
jo jo jo
[499.715]
<no-speech>
[500.805]
o kur kur Antaniukas bastosi
[503.035]
<no-speech>
[504.195]
kur Antaniukas bastosi <no-speech> Greižiniukas
[507.265]
<no-speech>
[508.695]
ne ne <no-speech> Greižiniukas
[510.525]
<no-speech>
[514.575]
kur taip
[515.465]
<no-speech>
[519.015]
Leningrade
[520.355]
<no-speech>
[521.325]
oo <no-speech> oho
[523.935]
<no-speech>
[529.325]
bet <no-speech> statybose ar ne
[531.435]
<no-speech>
[537.035]
fabrike
[538.065]
<no-speech>
[539.455]
a-a
[540.535]
<no-speech>
[541.715]
jo jo
[542.635]
<no-speech>
[546.035]
no no no no
[547.355]
<no-speech>
[552.115]
tai gerą algą gauna matomai
[554.175]
<no-speech>
[558.155]
no
[558.945]
<no-speech>
[560.395]
aha
[561.235]
<no-speech>
[567.455]
tai bet <hes> bet vienišas
[569.845]
<no-speech>
[572.445]
vienišas ar ne
[573.995]
<no-speech>
[575.065]
a sukūrė jau
[576.415]
<no-speech>
[577.865]
ve ve <no-speech> a-a
[580.275]
<no-speech>
[582.285]
o tai tai gerai tada
[584.395]
<no-speech>
[586.055]
<breath> tai va o ką čia dar
[588.455]
<no-speech>
[591.400]
