[0.000]
<no-speech>
[0.095]
<no-speech>
[0.445]
<no-speech>
[1.685]
<no-speech>
[2.785]
<no-speech>
[4.505]
<no-speech>
[10.485]
<no-speech>
[13.545]
<no-speech>
[15.525]
<no-speech>
[16.735]
<no-speech>
[19.185]
<no-speech>
[20.295]
<no-speech>
[20.645]
<no-speech>
[22.895]
<no-speech>
[23.255]
<no-speech>
[24.175]
<no-speech>
[24.845]
<no-speech>
[26.065]
<no-speech>
[26.985]
<no-speech>
[29.845]
<no-speech>
[31.245]
<no-speech>
[34.665]
<no-speech>
[35.035]
<no-speech>
[37.355]
<int> <no-speech> alio <no-speech> labas Gintarai <no-speech> nu sveikas kaip laikais tu
[48.925]
<no-speech>
[51.565]
namuose <no-speech> a-a <breath> tau gerai nutariau aš tau pa- paskambint biškį patrukdyt
[61.945]
<no-speech>
[62.905]
<breath> aš t- aš aš tai buvau darbe tai dabar va parvažiavau namo tai ir noriu tau biškį <breath> kaip tu sakei painformuot biškį <breath> (())
[74.145]
apie vieną reikalą kurį tu prašei
[76.765]
<no-speech>
[78.415]
klausyk <breath> tu kažkada norėjai <hes> <breath> užsiimt bitėm <lipsmack> <breath> nu tai va aš tau noriu
[85.555]
<no-speech>
[88.775]
kas tave labiau domina <breath> girdi
[92.995]
<no-speech>
[95.755]
nu <breath> kas tave apie jas domina labiau
[98.985]
<no-speech>
[100.085]
<breath> tai va jeigu nori
[101.985]
<no-speech>
[104.355]
aha
[105.515]
<no-speech>
[106.325]
kai ateis p- vasara <breath> nuo gegužės mėnesį kažkur jeigu tu <breath> norėsi tai aš tau <breath> tada nu- nu- gausiu spiečių
[116.545]
<no-speech> tinka tau taip
[119.085]
<no-speech>
[120.595]
<no-speech>
[121.155]
<no-speech>
[125.095]
<no-speech> motinėl- motinėlė viena <no-speech> viena ten motinėlė <no-speech>
[130.305]
<no-speech>
[131.235]
nu <breath> tai va nusipirksi avilį <breath> <no-speech>
[135.635]
<no-speech>
[137.405]
ir duosiu spiečių ir pa- pradėsiu (()) tada <breath> gerai tinka taip
[143.105]
<no-speech>
[145.235]
<no-speech>
[145.595]
<no-speech>
[146.695]
ne
[147.325]
<no-speech>
[149.255]
nu tai aišku <breath> aš tai tau parodysiu kaip kaip ką kaip prižiūrėt <breath> viską nusipirksi įrankius jeigu nori
[158.245]
<no-speech>
[160.075]
o kur tu laikysi jas <no-speech>
[161.975]
<no-speech>
[163.385]
kur laikysi sode kokia- kaime <no-speech> aišku nu kaime kaime labai gerai
[170.165]
<no-speech>
[171.485]
kaime tinka <no-speech> mieste jo mieste <breath> išskris sakai pas kaimynus
[179.275]
<no-speech>
[181.085]
tai
[181.865]
<no-speech>
[188.775]
nu jo
[189.815]
<no-speech>
[191.405]
<laugh> (()) apkandžios žmones <breath> nu <breath> tai gi va <breath> <sta>
[199.775]
<no-speech>
[204.295]
nu <breath>
[206.295]
<no-speech>
[207.155]
<lipsmack> o pats nebijai nebijai įkandimo
[210.415]
<no-speech>
[217.095]
<laugh> atlyginimas <breath> sakai dar <breath> dar labiau kai nuims tai tada jau išvis bijosim ar ne <breath> aišku tai
[227.565]
<no-speech>
[228.705]
nu <breath> <int>
[230.435]
<no-speech>
[235.885]
<lipsmack> oi reikia dūminės <breath> turėt peilių <breath> rėmelių vaškų
[243.075]
<no-speech>
[244.185]
tai va tokio tinkliuko chalato reikia balto kad nekąstų taip stipriai
[251.025]
<no-speech>
[254.335]
visą aprangą kaip žinai kaip <no-speech> kaip dažytojai balti va <laugh> tokį va tokį va užsidėsi <breath>
[261.855]
<no-speech>
[262.855]
kepurę dar
[264.185]
<no-speech>
[267.985]
<no-speech>
[268.355]
<no-speech>
[269.995]
nu tai jei sukęs jei sukęs tai jau <lipsmack> jeigu sukęs tai jau žinai supratimą tada matęs kaip nors <laugh>
[278.215]
<no-speech>
[279.615]
tai va <breath>
[281.785]
<no-speech>
[284.455]
<no-speech>
[284.865]
<no-speech>
[287.535]
<no-speech>
[288.015]
<no-speech>
[291.305]
<hes> nu
[292.735]
<no-speech>
[294.295]
<laugh> už rankenos o kiek rėmelių dėdavo
[297.515]
<no-speech>
[300.725]
keturis
[301.755]
<no-speech>
[306.235]
aha
[307.075]
<no-speech>
[308.375]
po du mažus į vieną teisingai jo tu čia gerai <breath> dar didelis (()) pas tave medsukis buvo
[316.165]
<no-speech>
[321.145]
m-hm
[322.675]
<no-speech>
[330.955]
nu <laugh> aišku jo <breath> tai gerai kad va dar užsimanei <hes> užsiimt tai dar vis <breath> užsiėmimas geras <breath>
[340.535]
<no-speech>
[341.915]
laiką (())
[343.105]
<no-speech>
[344.155]
nu laiką praleist <breath> įdomiau <breath>
[349.105]
<no-speech>
[350.265]
jo <breath>
[351.305]
<no-speech>
[360.305]
<no-speech>
[360.685]
<no-speech>
[361.945]
<int> nu reikia t- (())
[363.885]
<no-speech>
[365.405]
trijų reikia
[366.955]
<no-speech>
[368.405]
ne po po vieną tai neapsimoka nes <breath> vienais metais numirs ir tada turėsi <breath> vėl iš naujo prasidėt tai geriau tris avilius tai jau žinai tada jau gali
[379.555]
<breath> gali kažką labi- daugiau jas daugint ar ką ar vienas vienos silpnesnės pr- iš kito avilio <breath> pastiprini tai va tai tris
[391.235]
tris avilius tai tau kaip tik būtų <no-speech> pradžiai <no-speech> užtektų vaikams ir žmonai ir <breath> ir šnapso nedėt galėtum <breath>
[402.745]
<no-speech>
[408.315]
<laugh> nu galėtum (()) <breath> tai va
[414.355]
<no-speech>
[424.295]
nu kur kur rami vieta labiau prie miško tinka nes su gėlės miške labai tai tos visos žydi arba lie- kur liepos žydi
[432.795]
<no-speech>
[433.975]
tinka jeigu liepų kur turi daugiau
[437.035]
<no-speech>
[438.325]
o l- prie miško tai labai gerai jeigu yra tokia <breath> pas tave teritorija laisva tai <no-speech> pasistačius prie <breath> miško tai jau va kai
[448.725]
pavasarį žydi gėlės visos uogos tai labai gerai neša iš miško
[454.125]
<no-speech>
[458.125]
<no-speech>
[458.505]
<no-speech>
[461.185]
<laugh> nu tai ten rasi <breath> kaime rasi dabar vietų yra tuščių laukų
[467.745]
<no-speech>
[471.345]
nu <no-speech> apsi- apsipjausi <no-speech> žolę <no-speech>
[478.525]
<no-speech>
[480.025]
nedaleisiu iki
[481.355]
<no-speech>
[482.975]
pas mane <breath> vienuolika avilių <breath>
[486.215]
<no-speech>
[487.975]
vienuolika avilių iš viso tai
[490.965]
<no-speech>
[492.005]
pas mane daug jų žinok vasarą debesys eina <breath> kai kai giedra
[496.895]
<no-speech>
[498.725]
debesiu eina <breath>
[501.275]
<no-speech>
[504.325]
oo tai pardavimui daug aš pasidarau kaip pavyzdžiui šiemet tai kažkur tai dvidešimt kibirų prisukau įsivaizduok
[512.685]
<no-speech>
[514.105]
iš šeimos po kibirą grubiai po du gavosi
[517.645]
<no-speech>
[520.245]
kibirus <breath>
[521.945]
<no-speech>
[523.715]
kaip kurie metai
[524.805]
<no-speech>
[526.105]
nu tas pats dar tik kyla kaina tai
[529.155]
<no-speech>
[530.945]
tai va <breath> cukraus nereikia pirkt <laugh> sutaupai ant cukraus
[538.005]
<no-speech>
[539.465]
<no-speech>
[539.855]
<no-speech>
[541.625]
<no-speech>
[541.975]
<no-speech>
[544.095]
<cough> nu <breath>
[545.575]
<no-speech>
[549.685]
nu jeigu jeigu dar savo vaškus gaminant tai išvis tada dar pigiau vaškai bi- matai biškį brangoka gaunasi
[556.445]
<no-speech>
[558.225]
kilogramas trisdeš- trisdešimt litų bet ten reikia dėt rėmelius nu tai va bet čia bet čia jau tau paskui kai kai apsiprasi
[567.175]
<no-speech>
[568.265]
<no-speech>
[569.105]
<no-speech>
[571.035]
nu <breath> <lipsmack> svarbu pirmais metais iš iš
[575.515]
<no-speech>
[580.345]
<no-speech>
[580.725]
<no-speech>
[586.125]
taip <breath> parduotuvė yra <hes> bitininkų parduotuvė ir ir perki viską
[590.925]
<no-speech>
[598.935]
<hes> ne ten dedi į rėmelius ir viskas tada
[602.065]
<no-speech>
[603.965]
(()) įklijuoji ir ir viskas nu
[606.655]
<no-speech>
[612.075]
nu
[613.355]
<no-speech>
[619.375]
ne tai jos po to po to daro pačios jos jo po to daro
[623.885]
<no-speech>
[626.195]
tai va <breath>
[627.795]
<no-speech>
[629.305]
<no-speech>
[629.765]
<no-speech>
[634.875]
nu <breath> <lipsmack>
[637.165]
<no-speech>
[645.745]
<no-speech>
[654.325]
<no-speech>
[654.725]
<no-speech>
[666.259]
