[0.0]
<no-speech>
[0.285]
(())
[0.975]
<no-speech>
[3.365]
hello <int>
[4.745]
<no-speech>
[5.665]
<sta> hello
[8.245]
<no-speech>
[11.415]
o <int> ano na
[12.635]
<no-speech>
[13.675]
<sta> hello kamusta <no-speech> kuwarta <no-speech> ha <no-speech> ha
[17.725]
<no-speech>
[19.065]
<sta> hindi ibang <hes> ibang network
[20.645]
<no-speech>
[22.295]
<sta> ha
[22.865]
<no-speech>
[24.465]
<sta> oo iba
[25.405]
<no-speech>
[26.245]
nakitawa- <int> nakitawag lang ako <int>
[28.175]
<no-speech>
[29.585]
kumusta ka ano ginagawa mo
[31.435]
<no-speech>
[32.815]
ha
[33.325]
<no-speech>
[34.645]
ano no <int>
[35.595]
<no-speech>
[36.875]
o <int>
[38.325]
<no-speech>
[40.665]
hindi hindi siya mobile <hes> parang ano parang <no-speech> basta company 'yan <hes> ewan basta ano naman 'to tina-try ko lang kung puwede
[48.685]
<no-speech>
[52.515]
o Internet ganoon
[53.915]
<no-speech>
[55.495]
<sta> oo <no-speech> saan ka ano ginagawa mo
[57.305]
<no-speech>
[58.425]
oo
[59.085]
<no-speech>
[61.425]
ng
[62.025]
<no-speech>
[63.565]
nilalaro mo
[64.475]
<no-speech>
[66.395]
ha <no-speech> bakit nasa work ka pa ba
[68.285]
<no-speech>
[70.805]
hello
[71.425]
<no-speech>
[72.755]
ha
[73.255]
<no-speech>
[75.415]
saan
[76.005]
<no-speech>
[77.435]
<sta> Nesby <no-speech> ah <no-speech> sino kasama mo
[81.705]
<no-speech>
[84.675]
ano
[85.325]
<no-speech>
[87.415]
ah
[88.085]
<no-speech>
[89.855]
o <hes> wala kang pasok ngayon
[92.255]
<no-speech>
[95.225]
ha <int>
[96.195]
<no-speech>
[98.185]
<sta> mayro'n
[98.885]
<no-speech>
[101.295]
<sta> hello
[101.985]
<no-speech>
[103.415]
'wag mong ibababa ha
[104.605]
<no-speech>
[105.855]
tatapusin natin ten minutes lang
[107.645]
<no-speech>
[112.405]
'andiyan asawa mo
[113.315]
<no-speech>
[115.125]
<int> <sta> hello baby <no-speech> kumusta na <no-speech> <laugh> <click> ayaw magsalita <laugh> ayaw magsalita ang anak mo
[125.225]
<no-speech>
[128.085]
(()) ha
[129.914875]
<no-speech>
[132.095]
ano 'no
[132.795]
<no-speech>
[136.425]
ah ni Goding 'asaan ka ba
[138.055]
<no-speech>
[141.405]
<no-speech>
[141.785]
<no-speech>
[143.105]
<sta> ah hawak ni Boding anak mo
[145.085]
<no-speech>
[146.325]
<sta> ah kaya pala ah di siya sumunod sa inyo
[150.965]
<no-speech>
[152.225]
<no-speech>
[155.105]
<no-speech>
[156.405]
<sta> <hes> ang asawa mo <no-speech> pumunta diyan
[159.055]
<no-speech>
[161.355]
ha <no-speech> pupunta ba diyan asawa mo <no-speech> hindi <no-speech> 'andiyan ngayon
[166.095]
<no-speech>
[167.535]
sige na o ano naman nag-usap na kayo
[169.765]
<no-speech>
[172.025]
ha
[172.545]
<no-speech>
[175.985]
noodles
[176.685]
<no-speech>
[177.875]
bakit ano 'yan merienda
[179.805]
<no-speech>
[182.165]
merienda <no-speech> merienda n'yo
[184.655]
<no-speech>
[186.655]
ha <int>
[187.235]
<no-speech>
[189.535]
<sta> ha
[190.125]
<no-speech>
[191.985]
<sta> kaya nga <hes> merienda n'yo 'yan
[194.005]
<no-speech>
[197.395]
merienda n'yo papamerienda mo sa ano mo sa kapatid mo
[200.435]
<no-speech>
[205.135]
hello <no-speech> sabi ko merienda n'yo ba 'yan noodles
[207.885]
<no-speech>
[211.575]
ah <laugh> bakit walang makain 'andito sa biyahe <no-speech> sa biyahe oo
[223.095]
<no-speech>
[224.595]
oo <int> Quirino
[228.075]
<no-speech>
[229.285]
<int> sa Quirino nga
[231.285]
<no-speech>
[233.275]
pupunta ako ng Quirino ngayon
[234.765]
<no-speech>
[236.035]
<no-speech> ha
[236.605]
<no-speech>
[238.915]
sa ano hindi 'yong kasamahan ko birthday ng anak niya dati kong kasamahan <no-speech> birthday kasi ng anak niya ngayon in-invite niya ako
[245.735]
<no-speech>
[246.975]
<hes> 'di ko na sinama 'yong anak ko may sakit pa <hes>
[248.645]
<no-speech>
[252.895]
<no-speech>
[253.445]
<no-speech>
[255.475]
<hes> may sakit nga <no-speech> kaya 'di ko sinama
[258.245]
<no-speech>
[259.235]
hindi naman puwede isama may sakit
[260.775]
<no-speech>
[261.754875]
may sakit 'yong anak ko <hes> <no-speech> may lagnat nagtutubo kasi ngipin tumutubo kasi ngipin kaya nilalagnat
[268.815]
<no-speech>
[271.005]
hirap nga <hes> palaging puyat <hes>
[272.815]
<no-speech>
[274.235]
lagi nga ako <int> ayun nagtatae siya ngayon
[276.745]
<no-speech>
[278.965]
oo <no-speech>
[279.665]
<no-speech>
[280.795]
uuwi rin naman ako kaagad <hes> <no-speech> hindi ako magtatagal doon
[283.025]
<no-speech>
[287.205]
si Buding ginagawa diyan
[288.675]
<no-speech>
[290.245]
<sta> o may ginagawa ka pa mismo <no-speech> oo
[294.735]
<no-speech>
[295.845]
ay sino ba
[296.725]
<no-speech>
[299.055]
sino nga <sta> ha
[302.275]
<no-speech>
[303.805]
sino <no-speech> <sta> ah anak ni Buding 'andiyan sa 'yo
[309.335]
<no-speech>
[312.395]
<hes> <hes> ba't nandidiyan ha
[316.095]
<no-speech>
[317.245]
ba't <no-speech> nandiyan anak ni Buding
[318.575]
<no-speech>
[319.635]
ba't <no-speech> nandidiyan anak ni Buding sa 'yo
[321.325]
<no-speech>
[323.425]
ano <sta> <no-speech> ah pinasyal lang <no-speech> sino si Kaycee
[330.535]
<no-speech>
[333.435]
hello <int> ah si Daisy
[335.515]
<no-speech>
[337.395]
oo nga si Jessie nga <no-speech> tangkad na niyan ano
[340.375]
<no-speech>
[341.725]
ha
[342.255]
<no-speech>
[344.765]
<int> kaya nga
[345.585]
<no-speech>
[346.585]
labas ka kaya <laugh>
[347.685]
<no-speech>
[348.675]
next week
[349.115]
<no-speech>
[350.985]
nawawala-wala <hes>
[352.235]
<no-speech>
[353.395]
bakit ano ba 'yong inuupahan mo apartment
[355.815]
<no-speech>
[358.225]
ha
[358.715]
<no-speech>
[359.785]
ba't ganoon nawawala (()) <int>
[362.005]
<no-speech>
[363.275]
<hes> ba't nawawala signal di mo pa (()) ha
[367.435]
<no-speech>
[371.935]
<hes> sabi ko a-attend ka <laugh>
[373.545]
<no-speech>
[375.205]
(())
[375.605]
<no-speech>
[376.755]
nag-cho-choppy-choppy ka
[378.235]
<no-speech>
[380.945]
uy baka may (()) sa inyo pasok mo naman asawa ko pagka ano four years grad 'yon
[386.485]
<no-speech>
[388.715]
ha <no-speech> wala bang hiring sa inyo
[391.245]
<no-speech>
[395.365]
sabi ko wala bang hiring sa trabaho mo
[397.305]
<no-speech>
[399.865]
ha
[400.375]
<no-speech>
[403.015]
<sta> o
[404.295]
<no-speech>
[405.435]
<sta> oo bayan lang naman 'yon <hes> galing naman siya ng Laguna <hes> <laugh>
[412.065]
<no-speech>
[413.305]
one ride lang yata 'yun mula Laguna <hes> <no-speech> ay two rides din pala
[417.565]
<no-speech>
[424.395]
<sta> ngayon nandito kami sa amin pero kung nagkatrabaho siya uwi siya ng Laguna kasama ang bata
[432.945]
<no-speech>
[434.615]
bale para magkahiwalay kami para makaipon <int>
[439.385]
<no-speech>
[441.525]
ang ganda <no-speech> ang ganda ng ano namin no ang ganda <no-speech> ha
[445.545]
<no-speech>
[446.845]
ano 'no
[447.525]
<no-speech>
[451.325]
kanino <no-speech> (()) mo sa
[453.655]
<no-speech>
[454.465]
sa 'yo <int> <no-speech> o sige ipapa-send ko na lang 'pag ano
[458.475]
<no-speech>
[460.865]
kaya nga 'pag ganito papa-send ko nga sa kanya sa F_B mo na lang <no-speech> ha
[467.375]
<no-speech>
[469.095]
(())
[469.635]
<no-speech>
[471.445]
pareho kami <sta> Bachelor in Public Administration <no-speech> oo
[477.745]
<no-speech>
[480.375]
pareho kaming four years grad <int>
[482.205]
<no-speech>
[483.465]
o sige pagka ano <no-speech> mamaya sabihin ko sa kanya
[486.355]
<no-speech>
[487.485]
oo
[488.095]
<no-speech>
[490.175]
o sige
[490.955]
<no-speech>
[493.315]
<sta> o sige dito na lang sa number ko 'pag ano
[495.945]
<no-speech>
[496.945]
oo nga sa <hes> may Globe kami kaso di ko pa nakukuha <hes>
[500.185]
<no-speech>
[501.325]
ha <int>
[502.175]
<no-speech>
[503.975]
ano 'no sabi mo
[504.975]
<no-speech>
[507.955]
<no-speech>
[509.095]
<no-speech>
[510.025]
<sta> o sige di doon na lang sa number ko sa Smart
[513.824875]
<no-speech>
[514.715]
hindi sa akin 'yon <hes> naki-text din lang ako <hes> nakitawag din lang ako no'n <hes> <no-speech> di mamaya di ibibigay ko na lang sa 'yo ano ko Globe number ko
[523.975]
<no-speech>
[525.715]
ah
[526.275]
<no-speech>
[527.545]
'yong Globe number ko na lang ti-text bibigay sa 'yo
[529.765]
<no-speech>
[531.925]
ilang taon na 'yang anak mo dalawang taon na di ba
[533.895]
<no-speech>
[535.505]
ha
[536.065]
<no-speech>
[537.545]
hello <sta>
[539.325]
<no-speech>
[540.125]
(()) naka- nakapagsalita naman na <no-speech> nakakausap na rin <int> madaldal naman
[547.525]
<no-speech>
[549.305]
<int> kaedad pala niya 'yong mga anak ko 'no
[551.255]
<no-speech>
[552.985]
<sta> 'yong unang baby ko <no-speech> sabi ko 'yong unang anak ko kaedad niyan
[557.185]
<no-speech>
[558.545]
<int> two years old na rin 'yong anak ko <hes> <int>
[560.285]
<no-speech>
[561.925]
mag-three-three years old ngayong <no-speech> December 'yon <no-speech> <hes> 'yan kailan ba birthday niyan
[565.305]
<no-speech>
[568.785]
ah
[569.325]
<no-speech>
[572.645]
December ano 'yong sa 'yo
[573.775]
<no-speech>
[577.095]
ha <sta> <no-speech> ah mauna 'yong sa 'yo fifteen (()) December four December thirteen 'yong sa akin
[583.565]
<no-speech>
[585.305]
four days lang <int>
[587.285]
<no-speech>
[588.825]
three years old sa 'kin three years old na rin 'yon <int> kaso hindi ko na nakikita <hes> <int>
[593.105]
<no-speech>
[596.655]
pumapasyal lang minsan sa bahay ni Loy kaso <no-speech> ano lang <no-speech> nahiya ako <hes>
[599.705]
<no-speech>
[600.02]
