[0.0]
<no-speech>
[0.895]
<sta> hello <no-speech> hello pare
[4.815]
<no-speech>
[7.005]
hello <sta>
[8.535]
<no-speech>
[10.385]
'andito ako sa Togato <hes> <sta>
[12.235]
<no-speech>
[13.405]
o <no-speech> na sa Togato ako
[16.195]
<no-speech>
[17.175]
<sta> kumusta line-up ng ano karera <no-speech> ha kumusta line-up ng karera
[24.035]
<no-speech>
[25.965]
<sta> ha <no-speech> hindi sa ano <no-speech> nasa <no-speech> nasa bahay <no-speech> tulog ng tulog
[34.115]
<no-speech>
[36.425]
<hes> <no-speech> kumusta line-up ng karera
[38.805]
<no-speech>
[40.725]
ha
[41.205]
<no-speech>
[43.015]
kumusta line-up <no-speech> <int> ha
[44.945]
<no-speech>
[46.255]
<sta> kumota line-up ng <no-speech> kumusta nga line-up ng karera <no-speech> panalo ba
[52.745]
<no-speech>
[56.245]
panalo ka ba panalo (()) lang
[59.005]
<no-speech>
[60.175]
wala hindi <no-speech> oo nandito papunta na rin sana ako diyan kaya lang
[64.154875]
<no-speech>
[65.115]
medyo ano <hes> <no-speech> traffic lang <sta>
[70.015]
<no-speech>
[71.365]
wala talo <hes> <no-speech> tatlong daan
[73.805]
<no-speech>
[76.025]
oo ikaw <int>
[77.695]
<no-speech>
[79.975]
tama tama nga sana ako pagtawag n'yo pa nga 'kin ni (()) <hes> <int> bakit job calling
[84.105]
<no-speech>
[86.715]
pagtatama sana 'yong tip ko
[88.835]
<no-speech>
[89.905]
ha
[90.445]
<no-speech>
[92.365]
o <sta> nasa Togato ako <no-speech> bakit pupunta ka ba
[95.075]
<no-speech>
[97.285]
ha
[97.815]
<no-speech>
[104.445]
'asaan na 'yong iba <no-speech> malayo pa nga 'yan
[106.405]
<no-speech>
[107.565]
<sta> contact mo na pagka 'pag gusto mong hanapin si Loloy nandiyan lang
[112.255]
<no-speech>
[115.395]
hello <no-speech> o
[117.065]
<no-speech>
[118.165]
ha <int>
[119.085]
<no-speech>
[120.625]
<sta> si Bernard lang saka si Bernard si Loloy ako <no-speech> si Louie
[125.245]
<no-speech>
[128.225]
oo tatlo kami <no-speech> ay apat kami
[130.335]
<no-speech>
[131.525]
<sta> ano
[134.285]
<no-speech>
[138.375]
oo sige sige <sta>
[141.365]
<no-speech>
[142.635]
<sta> o <no-speech> ano 'yon
[146.115]
<no-speech>
[147.365]
<sta> race three <no-speech> platinum lace keep cool <no-speech> platinum lang
[158.675]
Queen Noemi <int>
[160.995]
<no-speech>
[162.565]
<sta> sa platinum lang (())
[167.895]
<no-speech>
[170.765]
<sta> ano lang
[175.515]
<no-speech>
[177.495]
<sta> (()) four eighty pa four eighty
[180.215]
<no-speech>
[184.405]
<sta> ang forecast niyan nasa ano pa <no-speech> singkuwenta <no-speech> singkuwenta pesos lang forecast
[193.485]
<no-speech>
[197.405]
oo singkuwenta pesos pa
[199.575]
<no-speech>
[203.665]
<sta> o
[205.535]
<no-speech>
[207.845]
o nag-iinom pa sila <hes>
[209.205]
<no-speech>
[210.715]
oo nagpabili sa Kuya Enteng ng isang kahon kanina <hes>
[213.425]
<no-speech>
[216.165]
<int> nagpabili si <no-speech> o kanina nagpabili ng isang kahon <no-speech> si tinyente <no-speech> sige <no-speech> oo nag-iinom pa may tatlong <no-speech> bote pang <no-speech> malaki do'n <hes>
[226.445]
<no-speech>
[228.205]
<int> gusto mo pumunta ka na lang daw inom tayo
[230.775]
<no-speech>
[232.725]
<no-speech>
[233.635]
<no-speech>
[237.205]
<hes> sige tapos <no-speech> pupunta
[239.915]
<no-speech>
[240.865]
tapos punta ka na lang doon ah <int>
[242.295]
<no-speech>
[245.195]
okey sige para ano <no-speech> tapos
[248.165]
<no-speech>
[249.975]
o sige sige
[251.075]
<no-speech>
[252.105]
ha
[252.625]
<no-speech>
[255.665]
papunta na sana'y kaya lang <no-speech> tumawag ka na <hes> <sta>
[261.895]
<no-speech>
[263.075]
oo pupunta sana ako diyan kaya lang tumawag ka na
[266.265]
<no-speech>
[267.065]
kaya <no-speech> <sta> 'di ako mapag-ano <no-speech> ha
[271.935]
<no-speech>
[275.335]
o sige pupunta ako diyan <int>
[276.865]
<no-speech>
[277.755]
o sige sige sige <no-speech> tapos Jollibee tayo mamaya
[281.545]
<no-speech>
[283.925]
ha <no-speech> kumain ka na ba
[286.125]
<no-speech>
[287.995]
<no-speech>
[289.265]
<no-speech>
[290.725]
ang lakas nga manaya <hes>
[292.255]
<no-speech>
[295.765]
oo sige
[296.785]
<no-speech>
[298.465]
<no-speech>
[299.245]
<no-speech>
[302.145]
<sta> ang lakas niya kaya
[303.805]
<no-speech>
[306.505]
meron pa meron pa <no-speech> may ano pa may malaki pa ro'n <no-speech> anuhin mo na lang <no-speech> do'n ka do'n ka na lang kumain
[313.385]
<no-speech>
[314.645]
do'n ka na lang kumain
[315.995]
<no-speech>
[318.395]
ha
[318.935]
<no-speech>
[321.205]
ano ano <int>
[321.975]
<no-speech>
[328.425]
ano ano 'no <no-speech> <sta> ano ano 'no <no-speech> punta na lang ako diyan
[333.415]
<no-speech>
[336.805]
okey sige text mo ako ha <no-speech> text mo ako agad <no-speech> tapos kain tayo sa ano nagugutom na ako 'di pa ako kumakain <hes>
[342.985]
<no-speech>
[344.845]
may ulam Dong kaya lang ayaw ko <hes> <sta> ha
[348.365]
<no-speech>
[352.825]
sa crush ma- <no-speech> sino ba crush mo dito
[354.675]
<no-speech>
[356.235]
sino crush mo dito si <no-speech> Lovi Poe
[358.495]
<no-speech>
[361.035]
aagawan mo pa si Nene ha <sta> <no-speech> patitikman mo ng Big Mac <no-speech> puwede
[370.125]
<no-speech>
[371.775]
tapos sabihin mo toasted lang 'yong Patty kaya ganyan
[375.115]
<no-speech>
[377.715]
<no-speech>
[378.145]
<no-speech>
[379.805]
ano ano <sta>
[382.785]
<no-speech>
[384.515]
ano ano ano
[385.555]
<no-speech>
[390.155]
<no-speech>
[390.535]
<no-speech>
[392.395]
'yong sina ano big- Mac 'yon 'yong Patty <no-speech> 'yong sa hamburger siya 'yong pinaka <no-speech> burger <no-speech> 'yong Patty
[400.945]
<no-speech>
[403.715]
sige <int>
[405.605]
<no-speech>
[407.035]
na toasted lang
[408.355]
<no-speech>
[410.185]
na-toasted lang kaya gano'n 'yong Patty <sta> ha
[414.775]
<no-speech>
[419.905]
nandiyan na si Louie
[420.965]
<no-speech>
[427.915]
sarap no'n Big Mac with an egg <sta> <cough>
[431.175]
<no-speech>
[435.885]
<breath> <sta> ano at bakit
[438.795]
<no-speech>
[440.995]
ano <sta>
[442.875]
<no-speech>
[446.745]
o Big Mac nga <no-speech> gusto niya Big Mac
[449.135]
<no-speech>
[453.405]
<sta> maitim lang 'yan na-toasted lang 'yong Patty kaya ganyan pero masarap 'yan
[460.155]
<no-speech>
[461.885]
o sige
[462.765]
<no-speech>
[465.425]
'yong Patty
[466.415]
<no-speech>
[468.495]
<no-speech>
[469.215]
<no-speech>
[470.485]
<sta> oo na-toasted 'yong Patty kaya gano'n <no-speech> umitim
[475.705]
<no-speech>
[477.735]
na-toasted nga 'yong Patty kaya umitim <int>
[480.435]
<no-speech>
[483.495]
<no-speech>
[483.935]
<no-speech>
[484.815]
ano <sta>
[486.935]
<no-speech>
[487.895]
baka na- baka nanalo ka naman kunwari ka lang <no-speech> balatuhan mo naman ako
[493.795]
<no-speech>
[496.335]
<sta> sabi <no-speech> sabi nila nanalo ka raw <hes>
[500.395]
<no-speech>
[507.195]
oo sige sasabihin ko sa kanya <no-speech> <sta> huwag muna siya matulog
[512.194875]
<no-speech>
[514.065]
oo <no-speech> sige sabihin ko huwag muna siya matulog
[516.684875]
<no-speech>
[520.394875]
okey
[521.135]
<no-speech>
[523.654875]
<sta> ano ano
[526.775]
<no-speech>
[530.645]
okey sige <no-speech> pupunta ako diyan mamaya-maya <no-speech> <hes>
[534.285]
<no-speech>
[535.695]
medyo may pinapagawa pa sa akin si Bernard <hes>
[538.205]
<no-speech>
[540.165]
kaya ano <hes> <sta>
[542.795]
<no-speech>
[545.195]
okey sige sige pupunta ako diyan mamaya-maya <int>
[547.745]
<no-speech>
[549.025]
ano <sta>
[551.105]
<no-speech>
[554.165]
naglinis ng C_R <int>
[557.905]
<no-speech>
[559.525]
<sta> oo bubuhusan ko lang naman <hes> <no-speech> 'yon lang naman 'yon <no-speech> ha
[564.235]
<no-speech>
[569.265]
'di naman <no-speech> parang medyo ano lang <no-speech> <sta> mahirap lang buhusan <no-speech> pero <no-speech> umaano naman <no-speech> bumababa
[577.765]
<no-speech>
[579.805]
ano <no-speech> <sta> ano ano
[583.755]
<no-speech>
[588.125]
sayang dalawandaan din ibabayad niya
[590.525]
<no-speech>
[597.015]
<sta> sabagay puwede
[599.495]
<no-speech>
[600.48]
