[0.0]
<no-speech>
[0.465]
<no-speech>
[1.265]
<no-speech>
[2.175]
<no-speech>
[9.825]
<no-speech>
[10.735]
<sta> hello hello hello Del
[20.395]
<no-speech>
[21.285]
<sta> hello Del
[23.865]
<no-speech>
[24.955]
<sta> hello hindi pa 'ata hello hindi kita naririnig hello naririnig mo ako
[32.985]
<no-speech>
[34.535]
hello o <sta> kumusta
[37.815]
<no-speech>
[40.365]
ha <sta> ano
[43.115]
<no-speech>
[44.265]
<sta> ah kumusta ang trabaho
[45.675]
<no-speech>
[48.315]
kumusta <click> ang trabaho
[49.315]
<no-speech>
[52.325]
kumusta ang trabaho mo
[53.535]
<no-speech>
[54.925]
ha
[55.405]
<no-speech>
[56.755]
ah <hes> saan ka trabaho ngayon
[58.105]
<no-speech>
[59.925]
o
[60.385]
<no-speech>
[62.605]
ah 'di ka lilipat
[64.115]
<no-speech>
[65.505]
ha
[65.985]
<no-speech>
[66.835]
<int> hindi ka lilipat
[67.965]
<no-speech>
[71.255]
ah kumusta kumusta na sa Quiapo
[73.345]
<no-speech>
[76.695]
ha
[77.185]
<no-speech>
[78.905]
ano
[79.425]
<no-speech>
[81.195]
choppy ka pare ano
[82.775]
<no-speech>
[84.795]
ano
[85.295]
<no-speech>
[87.425]
Del <click>
[87.965]
<no-speech>
[89.975]
ha
[90.495]
<no-speech>
[91.635]
<sta> ha
[93.055]
<no-speech>
[95.395]
'di na kita marinig <click> tangek hina ng boses mo sabi ko kumusta sa Quiapo
[99.355]
<no-speech>
[103.015]
ah 'yon okey na malakas na
[104.845]
<no-speech>
[106.245]
kumusta tropa diyan kumusta tropa diyan
[108.895]
<no-speech>
[111.415]
ha
[111.855]
<no-speech>
[113.075]
ha dito ako sa ano Marikina <hes>
[115.205]
<no-speech>
[116.555]
boring nga rito <hes>
[117.535]
<no-speech>
[120.935]
ha
[121.425]
<no-speech>
[122.685]
tita ko 'yon
[123.465]
<no-speech>
[124.485]
tita ko
[125.125]
<no-speech>
[126.485]
tita ko
[127.175]
<no-speech>
[127.975]
<no-speech>
[128.345]
<no-speech>
[129.165]
hello sino kasama mo ngayon diyan
[130.504875]
<no-speech>
[132.605]
ha <int> sinong kasama mo ngayon diyan
[134.445]
<no-speech>
[135.605]
sinong kasama mo ngayon diyan
[136.775]
<no-speech>
[137.795]
<int> hello
[138.465]
<no-speech>
[140.115]
Del <click> sino
[141.605]
<no-speech>
[143.675]
sinong kasama <int> mo ngayon diyan
[144.705]
<no-speech>
[145.765]
ha
[146.245]
<no-speech>
[148.175]
ah si Aaron ha
[150.325]
<no-speech>
[151.325]
payat pa rin payat pa rin <int> payat pa rin
[153.735]
<no-speech>
[155.435]
payat pa rin
[156.235]
<no-speech>
[157.365]
ha <int>
[157.875]
<no-speech>
[159.755]
payat pa rin si Aaron
[160.755]
<no-speech>
[162.725]
<no-speech>
[163.195]
<no-speech>
[166.145]
payat pa rin Aaron
[167.175]
<no-speech>
[168.005]
hello
[168.495]
<no-speech>
[169.365]
o <click>
[169.875]
<no-speech>
[170.915]
hello <click> payat pa rin ba si Aaron
[172.375]
<no-speech>
[173.555]
rin ba si Aaron
[174.725]
<no-speech>
[176.625]
payat pa rin ba <int> si Aaron
[177.815]
<no-speech>
[180.675]
oo
[181.295]
<no-speech>
[182.205]
birthday mo na <click> <int>
[183.535]
<no-speech>
[184.675]
ha
[185.145]
<no-speech>
[186.195]
may laro kayo
[186.975]
<no-speech>
[187.835]
basketball
[188.545]
<no-speech>
[189.735]
sino <click> kalaban n'yo
[190.545]
<no-speech>
[192.455]
ha
[192.935]
<no-speech>
[194.745]
saan taga-saan
[195.755]
<no-speech>
[196.895]
maayos <click> tang-ina baka gulo na naman 'yan ha
[199.275]
<no-speech>
[201.535]
ha 'di wala ng gulo <hes> <sta> magkano ang pusta
[204.695]
<no-speech>
[207.805]
magkano ang pusta <int> ha
[209.145]
<no-speech>
[210.705]
walang pusta laro-laro lang
[211.935]
<no-speech>
[213.545]
ah malapit na birthday mo 'tol ah
[216.035]
<no-speech>
[217.185]
<int> ha malapit na birthday mo ah
[219.975]
<no-speech>
[222.415]
malapit na birthday mo <click>
[223.595]
<no-speech>
[225.325]
malayo pa ba <int> malapit na 'yan <int>
[227.575]
<no-speech>
[228.785]
punta ako diyan <int> pag-ano <sta> ha
[231.745]
<no-speech>
[233.845]
sabi ko malapit <int> na sabi ko malapit <int> na birthday mo
[236.525]
<no-speech>
[237.475]
<no-speech>
[237.885]
<no-speech>
[238.785]
<sta> oo punta ako papainom ka ba
[241.325]
<no-speech>
[243.385]
ha papainom ka <int> (())
[246.125]
<no-speech>
[247.435]
<no-speech>
[247.795]
<no-speech>
[248.865]
<int> bahala na kung anong alak diyan susunod ako bawal amoy alak pagpunta ko diyan
[253.375]
<no-speech>
[256.075]
<no-speech>
[256.645]
<no-speech>
[257.624875]
<sta> ha
[258.165]
<no-speech>
[261.705]
hayop bababa
[263.225]
<no-speech>
[264.145]
aba <sta> magkano nga
[267.085]
<no-speech>
[269.335]
hello <sta> big- time ka na ah
[271.695]
<no-speech>
[273.425]
ah <laugh>
[274.225]
<no-speech>
[277.065]
ah <hes> <sta> mga sila ano ng tropa kumusta diyan sila B_J
[282.305]
<no-speech>
[284.705]
<no-speech>
[285.095]
<no-speech>
[287.705]
oo (()) pa ako ah (()) hectic ang schedule mo pare
[292.565]
<no-speech>
[293.825]
masyadong busy ka na ngayon <int> ah
[295.085]
<no-speech>
[296.235]
masyadong <click> busy ka na ngayon
[297.525]
<no-speech>
[300.595]
ha <hes> iba ka na sipag mo ah <sta> big- time ka na 'ata <hes>
[306.345]
<no-speech>
[309.225]
<sta> ha
[310.855]
<no-speech>
[311.805]
<sta> ano
[312.365]
<no-speech>
[314.085]
anong sabi mo
[314.775]
<no-speech>
[316.495]
choppy ka pare
[317.355]
<no-speech>
[318.805]
ah <int>
[319.515]
<no-speech>
[321.605]
(())
[322.325]
<no-speech>
[324.275]
mas okey naman <click> okey naman okey naman
[325.805]
<no-speech>
[327.825]
'yong nakaraan
[328.665]
<no-speech>
[330.745]
ha
[331.245]
<no-speech>
[333.435]
'tol <sta> ha <no-speech> hello <no-speech> ano
[339.525]
<no-speech>
[340.595]
<sta> hello hinawakan
[342.235]
<no-speech>
[344.435]
uminom ka ngayon <no-speech> uminom ba kayo ngayon <int>
[348.435]
<no-speech>
[349.635]
ha
[350.145]
<no-speech>
[351.985]
sabi ko <int> sabi ko umiinom ka ngayon
[354.435]
<no-speech>
[358.305]
ah hindi <int>
[359.105]
<no-speech>
[360.145]
ha
[360.655]
<no-speech>
[362.465]
anong sabi mo
[363.095]
<no-speech>
[364.355]
(()) oo ba't araw-araw umiinom araw-araw
[367.045]
<no-speech>
[368.695]
<no-speech>
[369.245]
<no-speech>
[370.405]
<sta> hello
[371.605]
<no-speech>
[373.955]
mukhang inuubo ka na ah <int>
[375.635]
<no-speech>
[376.615]
may sakit na 'ata 'tol <hes>
[377.745]
<no-speech>
[378.575]
may sakit ka na 'ata
[379.515]
<no-speech>
[382.735]
<int> ha
[383.955]
<no-speech>
[384.905]
<int> may T_B ka na 'ata <laugh>
[387.225]
<no-speech>
[388.445]
ha
[388.935]
<no-speech>
[390.745]
ah
[391.535]
<no-speech>
[395.175]
ano
[395.695]
<no-speech>
[396.695]
hello
[397.195]
<no-speech>
[401.265]
baka sa ano sa Biyernes (())
[403.275]
<no-speech>
[406.055]
bahala kayo diyan <int> ah walang (())
[409.035]
<no-speech>
[409.885]
wala bang T_V diyan
[410.865]
<no-speech>
[414.245]
<int> ha
[414.755]
<no-speech>
[415.825]
marami <int>
[416.525]
<no-speech>
[419.055]
oo sali n'yo 'ko <int> sali n'yo 'ko
[420.885]
<no-speech>
[421.965]
kakampi 'yan <int> <cough> sali n'yo 'ko ah <int> ha
[425.945]
<no-speech>
[428.125]
<no-speech>
[428.615]
<no-speech>
[429.715]
twen- twenty nine par
[430.995]
<no-speech>
[432.415]
twenty nine <no-speech> oo may uniform ba may uniform
[435.675]
<no-speech>
[436.715]
ha <no-speech> may uniform <no-speech> ha <no-speech> hello
[442.775]
<no-speech>
[444.925]
may uniform tayo
[445.795]
<no-speech>
[448.215]
uy
[448.725]
<no-speech>
[450.185]
ha
[450.715]
<no-speech>
[451.635]
may uniform tayo
[452.555]
<no-speech>
[454.175]
ay
[454.765]
<no-speech>
[457.245]
ah <no-speech> walang sponsor
[459.565]
<no-speech>
[462.365]
<int> walang pondo
[465.225]
<no-speech>
[468.215]
ha
[468.735]
<no-speech>
[470.585]
<sta> hello ha
[472.775]
<no-speech>
[475.635]
wala <hes> (()) <hes> wala mga bakla wala
[478.825]
<no-speech>
[480.645]
ha <click>
[481.125]
<no-speech>
[482.525]
wala <click> 'yong mga bakla sponsor
[484.015]
<no-speech>
[487.035]
ano
[487.545]
<no-speech>
[490.645]
ano ano
[491.235]
<no-speech>
[493.465]
saan ka ba ngayon <sta> saan ka ba ngayon
[494.735]
<no-speech>
[496.865]
hello saan ka ba ngayon
[498.555]
<no-speech>
[500.395]
hello
[500.945]
<no-speech>
[503.275]
saan ka ba <hes> nasaan ka ba ngayon
[504.575]
<no-speech>
[507.385]
hello 'asaan ka ba ngayon <no-speech> <sta> 'asaan ka ba ngayon
[509.835]
<no-speech>
[513.095]
ah 'di na <int> ah
[515.564875]
<no-speech>
[517.644875]
<sta> anong sabi mo
[518.295]
<no-speech>
[519.125]
<sta> ano
[519.625]
<no-speech>
[521.575]
wala <no-speech> (())
[522.985]
<no-speech>
[526.455]
<sta> wala ka sa labas
[527.305]
<no-speech>
[531.545]
<sta> hoy Del <no-speech> ano
[534.185]
<no-speech>
[535.845]
he sobra ang hina ng boses mo
[537.885]
<no-speech>
[539.055]
baby rocket
[540.075]
<no-speech>
[541.955]
<no-speech>
[542.305]
<no-speech>
[543.615]
<sta> hello
[544.155]
<no-speech>
[545.115]
<no-speech>
[545.485]
<no-speech>
[546.545]
ano <click>
[547.105]
<no-speech>
[548.195]
<sta> kumusta mo 'ko diyan ha sa kanila kumusta mo 'ko sa kanila ha
[552.225]
<no-speech>
[554.595]
ano <click> uy
[556.275]
<no-speech>
[558.405]
<sta> oo ang mahina ng boses mo <hes>
[560.475]
<no-speech>
[563.055]
hello <click> <sta> ha
[565.575]
<no-speech>
[566.915]
ha <laugh> hindi nga grabe ka naman sobra naman 'yan bay
[572.785]
<no-speech>
[577.585]
ano <sta> wala <hes> wala bang chicks diyan Del
[579.255]
<no-speech>
[581.215]
Del <sta> walang chicks
[582.785]
<no-speech>
[585.115]
ha wala ba <hes> baka marami na chicks diyan 'tol ayaw mo mamigay
[591.085]
<no-speech>
[592.035]
ha <click>
[592.555]
<no-speech>
[594.865]
<sta> pinaalis <laugh> ni ate ha
[597.065]
<no-speech>
[598.495]
<hes> dami diyan ah
[599.575]
<no-speech>
[600.0]
