[0.0]
<no-speech>
[1.545]
hello
[2.205]
<no-speech>
[3.495]
<no-speech>
[4.895]
<no-speech>
[6.055]
hello <no-speech> <int> opo <hes> Merly <int>
[11.385]
<no-speech>
[12.325]
<sta> hello
[17.835]
<no-speech>
[18.985]
oo
[19.855]
<no-speech>
[22.125]
(()) oo nga
[25.735]
<no-speech>
[27.655]
<int> nagsasalita kaya ako
[29.815]
<no-speech>
[31.265]
mag-a-apply mag-a-apply
[34.135]
<no-speech>
[36.085]
(())
[36.935]
<no-speech>
[37.805]
(())
[38.605]
<no-speech>
[40.125]
anong oras ano 'pag ganitong oras
[41.855]
<no-speech>
[43.165]
anong oras nga
[44.305]
<no-speech>
[45.445]
oo
[46.305]
<no-speech>
[48.565]
bahala na lang bukas
[49.805]
<no-speech>
[52.085]
ha
[52.635]
<no-speech>
[56.685]
ha
[57.275]
<no-speech>
[60.895]
anong oras nga tayo bukas
[63.035]
<no-speech>
[64.125]
<no-speech>
[64.575]
<no-speech>
[65.815]
hello
[66.555]
<no-speech>
[68.535]
saan naman saan naman
[72.615]
<no-speech>
[74.075]
<no-speech>
[74.505]
<no-speech>
[75.845]
<laugh> kahit saan na nga lang
[78.225]
<no-speech>
[82.165]
sige basta tuloy na lang sige
[84.145]
<no-speech>
[87.065]
S_M siyempre oo nga basta bukas tuloy
[94.885]
<no-speech>
[96.325]
basta bukas tuloy
[97.935]
<no-speech>
[100.035]
ha
[100.635]
<no-speech>
[102.525]
siyempre nakapormal nakapormal
[105.965]
<no-speech>
[110.885]
ng nge wala ka pa non
[114.465]
<no-speech>
[115.785]
hindi bahala na bukas
[117.255]
<no-speech>
[118.125]
sige bahala na bukas ha
[120.175]
<no-speech>
[121.665]
ano
[123.185]
<no-speech>
[124.405]
sige
[124.945]
<no-speech>
[126.165]
oo nga pahiramin kita bukas
[128.795]
<no-speech>
[132.375]
oo sige
[133.325]
<no-speech>
[135.415]
dito nakaupo habang kausap ka
[137.995]
<no-speech>
[142.365]
<sta> ano pa nga bang ginagawa ko siyempre kausap ka
[146.685]
<no-speech>
[147.995]
<no-speech>
[148.375]
<no-speech>
[149.835]
<no-speech>
[150.255]
<no-speech>
[151.105]
oo
[151.875]
<no-speech>
[153.635]
<no-speech>
[154.095]
<no-speech>
[155.295]
<laugh> ba't parang hindi mo 'ko naintindihan hindi mo ba ako naintindihan
[160.015]
<no-speech>
[163.595]
ba't ano parang ano hindi mo 'ko naintindihan <no-speech> ha
[168.595]
<no-speech>
[170.605]
nagpuputol-pu- nagpuputol-putol kasi
[174.335]
<no-speech>
[175.725]
<int> ano kahit hindi na tayo magkaintindihan <int>
[180.585]
<no-speech>
[186.375]
paano na nga
[187.245]
<no-speech>
[188.175]
<laugh> puwede ba 'yon
[190.505]
<no-speech>
[191.495]
puwede ba 'yun <hes> paano mo maintindihan <hes> putol-putol nga 'yong linya putol-putol nga 'yong linya
[198.675]
<no-speech>
[201.345]
ikaw nga
[202.275]
<no-speech>
[203.135]
'asaan ka ba banda
[204.425]
<no-speech>
[207.065]
tindahan nino
[208.475]
<no-speech>
[212.555]
oo oo kailangan <hes> wala kasing pera <sta> <no-speech> 'yun pa ring ang D_V_D mo <no-speech> ay iyan ba mabenta <no-speech> iyan kasi ang mabenta
[224.475]
<no-speech>
[229.535]
<hes> 'yong sopas naman nalugi na ako doon pero sa pansit hindi ako marunong hindi ako marunong magluto
[236.235]
<no-speech>
[238.535]
ano pangit basta pangit pangit 'yong buena mano sa sopas kaya hindi ko na inulit
[247.395]
<no-speech>
[250.455]
ayoko na ayoko na <int> <no-speech> ayoko na
[255.115]
<no-speech>
[256.645]
ayoko na
[257.535]
<no-speech>
[259.335]
<sta> mhm <no-speech> cheese stick na lang
[262.945]
<no-speech>
[266.595]
nagtinda kaya ako ng hot cake hindi naman naben- hindi naman naubos <int>
[270.995]
<no-speech>
[276.205]
<int> ano ka ba may halo pa ngang gatas 'yun <hes> <no-speech> kaya cheese stick na lang
[281.185]
<no-speech>
[284.625]
oo nga kaya nga cheese stick na nga lang ako <hes> para mabenta
[289.815]
<no-speech>
[293.795]
'yong alin bakit
[295.695]
<no-speech>
[299.435]
bakit du'n sa ba't <no-speech>
[302.505]
nagtitinda dapat dinamihan mo na dapat dinamihan mo na bumili ka ng (()) di ba
[309.085]
<no-speech>
[310.305]
<sta> bumili ka ba kanina <no-speech> ah ay 'di hindi ko nakita
[319.475]
<no-speech>
[320.865]
oo baka iba lang
[322.085]
<no-speech>
[324.345]
champorado binili mo kaya
[326.315]
<no-speech>
[329.125]
<int> champorado kaya binili mo
[331.255]
<no-speech>
[333.025]
<no-speech>
[333.465]
<no-speech>
[337.475]
oo nga 'yon nga mama mo kanina (())
[339.635]
<no-speech>
[340.505]
oo 'yon ay oo nga pala nakalimutan ko mama mo nga pala 'yong bumili <no-speech> ano ba ba't kayo napunta du'n sa pagtitinda akala ko ba trabaho 'yong pinag-uusapan natin
[352.345]
<no-speech>
[354.525]
hello <sta> akala ko ba trabaho 'yong pag-uusapan natin nagpuputol-putol nga 'yong linya nagpuputol-putol 'yong linya
[363.625]
<no-speech>
[365.205]
ang pangit kaya hindi <int> kita maintindihan masyado
[367.415]
<no-speech>
[368.265]
kaya hindi kita masyadong maintindihan nagpuputol-putol 'yong <int> okey lang 'yon hindi nga tayo magkaintindihan
[374.835]
<no-speech>
[375.785]
<int> <laugh> bahala ka
[378.375]
<no-speech>
[380.255]
oo puwede rin 'yon
[381.675]
<no-speech>
[383.005]
<laugh> na-mi-miss kita <hes>
[386.875]
<no-speech>
[389.445]
ay ayaw ko nalugi nga rin ako doon <no-speech> may mga pautang pa nga ako one hundred plus <hes> may mga pautang pa nga ako one hundred plus
[397.975]
<no-speech>
[399.215]
wala naman akong itinutubo
[400.815]
<no-speech>
[404.785]
kaya ano
[405.845]
<no-speech>
[407.295]
siyempre gasino lang naman ang tubo ko sa all text ten 'di ba onse 'yon benta ko akin 'yong piso
[412.805]
<no-speech>
[414.855]
sa twenty naman sa twenty na sa twenty naman imbis na twenty two twenty lang kaya dos lang tubo ko doon
[424.685]
<no-speech>
[425.575]
kaya hininto ko na nanawa na ako ha
[429.285]
<no-speech>
[430.345]
wala nga sa 'kin nga sa 'kin nga walang patong
[434.285]
<no-speech>
[436.335]
kaya
[437.145]
<no-speech>
[438.745]
paano ba 'yong <no-speech> pero 'pag may utang <no-speech>
[443.885]
pero mag-lo-load ulit ako may 'pag may mangungutang ano may patong na halimbawa 'yong twenty uutang ka sa akin magiging twenty five kasi utang 'yon <hes>
[454.415]
<no-speech>
[455.295]
ang thirty magiging thirty five ganoon
[458.475]
<no-speech>
[459.345]
<hes> uhm ang sampung piso magiging kinse
[462.525]
<no-speech>
[463.725]
gano'n para ano <sta> <no-speech> para tumutubo din ako kahit papaano
[467.995]
<no-speech>
[468.975]
<sta> kung sakali lang
[472.135]
<no-speech>
[474.465]
<sta> kung sakali lang <no-speech> oo kung sakaling makakapag-load ulit
[478.455]
<no-speech>
[480.335]
<sta> ano <no-speech> bas- ha
[488.475]
<no-speech>
[492.545]
<sta> <laugh> <breath> <hes> masabi-sabi <hes> walang magawa <hes> <no-speech> ha
[499.045]
<no-speech>
[500.965]
wala nga akong kuwento kasi maganda walang kuwento kasi wala naman akong magandang ikukuwento about sa buhay ko
[507.815]
<no-speech>
[508.655]
<no-speech>
[509.655]
<no-speech>
[512.165]
ikaw magkuwento ikaw maraming ikaw magkuwento ikaw maraming dapat ikuwento
[517.975]
<no-speech>
[519.225]
<no-speech>
[519.615]
<no-speech>
[521.284875]
<laugh> gaga ano <laugh>
[526.115]
<no-speech>
[528.625]
tapos na nga <laugh>
[529.605]
<no-speech>
[531.235]
ano ba
[531.925]
<no-speech>
[533.365]
ano teka nga teka nga ano ba 'yong pinag-uusapan natin
[536.495]
<no-speech>
[537.455]
<hes> Mirley
[538.475]
<no-speech>
[539.425]
Merly Mirley
[541.735]
<no-speech>
[542.585]
Mirley
[543.595]
<no-speech>
[544.605]
kailan ba kayo uuwi ng Quezon
[547.635]
<no-speech>
[548.745]
ano anong kailan ba kayo uuwi ng Quezon <no-speech> oo ah pagkatapos no'n sa Pasa- Pasay
[555.585]
<no-speech>
[557.155]
pagtapos ng palaspasan punta ka sa palaspasan
[560.615]
<no-speech>
[562.985]
<no-speech>
[563.485]
<no-speech>
[564.345]
ah <int>
[565.195]
<no-speech>
[566.445]
<int> pagka ano pagkagaling ng mga taga-Que- (()) sa Quezon kami naman uuwi
[572.445]
<no-speech>
[575.215]
<int> para para solo namin 'yun dagat
[577.995]
<no-speech>
[579.445]
ha
[580.025]
<no-speech>
[584.425]
jeep ba't kayo ba jeep ba ay bus kami kayo ba jeep
[588.695]
<no-speech>
[590.905]
ha
[591.475]
<no-speech>
[594.845]
okey na ang jeep
[596.375]
<no-speech>
[597.385]
<no-speech>
[597.615]
<no-speech>
[599.88]
