[0.0]
<no-speech>
[2.625]
<sta> hello magandang tanghali <breath> anong ginagawa mo <laugh>
[7.005]
<no-speech>
[8.155]
<no-speech>
[9.805]
<no-speech>
[14.215]
ah <no-speech> 'andiyan ka lang sa bahay n'yo <no-speech> <sta> (()) 'andito rin ako sa bahay namin <hes>
[18.885]
<no-speech>
[20.975]
<sta> ha
[22.795]
<no-speech>
[24.695]
<sta> ay nanonood ako ng- 'andito nanonood ng T_V eat Bulaga na <hes>
[31.035]
<no-speech>
[33.035]
ba't hindi <no-speech> ikaw pumasok ka ba <no-speech> ah 'yong anak ko kasama ko dito
[37.365]
<no-speech>
[38.425]
<sta> ha wala kang pasok ngayon
[45.415]
<no-speech>
[46.895]
ha <sta> ah wala ako din wala
[55.285]
<no-speech>
[56.865]
<sta> heto <no-speech> nakukunsumi sa mga anak
[62.105]
<no-speech>
[64.385]
nagsasaway lang ako ng anak na makulit <hes> <int>
[67.315]
<no-speech>
[68.815]
ha
[69.435]
<no-speech>
[70.995]
<sta> hindi pa <hes> makulit mangungulit <hes> mangungulit 'yong bunso ko
[78.715]
<no-speech>
[80.705]
mangungulit <sta> ha
[84.785]
<no-speech>
[89.005]
<sta> sakit sa u- oo talaga masakit sa ulo uusap-usap hindi puwede 'nak Ranjay
[98.135]
<no-speech>
[101.075]
oo
[101.755]
<no-speech>
[104.225]
hello
[104.955]
<no-speech>
[106.295]
<sta> ah dito sa bahay kapatid ko kapatid ko kasama ko
[111.905]
<no-speech>
[118.745]
sino ay wala <sta> umalis sila ha nandoon sila sa Bicutan
[125.845]
<no-speech>
[126.905]
<sta> nasa Bicutan sila
[130.085]
<no-speech>
[132.095]
<sta> ano
[132.835]
<no-speech>
[137.395]
oo <sta> tutuloy-tuloy
[139.055]
<no-speech>
[139.965]
<no-speech>
[140.335]
<no-speech>
[141.445]
oo <sta> tuloy-tuloy 'yun oo nag-aaral nasa nasa school
[145.445]
<no-speech>
[148.595]
<no-speech>
[149.405]
<no-speech>
[150.905]
<no-speech>
[151.275]
<no-speech>
[152.215]
ah 'yong course niya ano 'yun <int>
[154.255]
<no-speech>
[155.115]
comtech <sta>
[159.515]
<no-speech>
[160.625]
oo sa <sta> computer siya ikaw anong course mo
[164.745]
<no-speech>
[171.405]
ah <sta> Engineering galingan mo para maging Engineer- ka talaga
[176.575]
<no-speech>
[177.945]
<breath> <laugh> <sta> alam mo lagi nandoon sila
[180.135]
<no-speech>
[182.855]
<laugh> <sta> (()) galingan mong mag-aral para maging Engineer- ka oo 'di ba
[192.475]
<no-speech>
[193.775]
<no-speech>
[194.525]
<no-speech>
[195.495]
ba- ay bakit Engineer- <hes> (()) 'yun hindi ka puwede do'n <breath> (()) 'yun <sta>
[204.665]
<no-speech>
[206.655]
ah gingineer ka na hindi na Engineer ha mag-iba ka na lang ng course pagpasok mo sa isang taon <sta> mayaman naman ninang mo <hes> 'yun nagpapaaral sa 'yo <hes> <laugh> <breath> sabihin mo ninang
[218.545]
mag-iiba na ako ng course <laugh>
[220.835]
<no-speech>
[222.075]
<no-speech>
[223.315]
<no-speech>
[224.755]
Engineer- Engineer- sabihin mo ayaw ko na ng- <sta> ano ang (()) Engineer- sawa na ako sa Engineer- <laugh>
[230.755]
<no-speech>
[232.475]
<no-speech>
[233.875]
<no-speech>
[236.845]
oo Engineer- 'yong ano lang 'wag na 'yong (()) <int>
[241.045]
<no-speech>
[243.285]
<no-speech>
[244.465]
<no-speech>
[246.505]
<sta> mhm mhm
[248.685]
<no-speech>
[250.275]
kailan bakasyon n'yo <sta>
[251.685]
<no-speech>
[253.035]
<no-speech>
[253.445]
<no-speech>
[254.495]
<sta> <breath> ah March three
[257.294875]
<no-speech>
[258.645]
ah March din ay first ano 'ma ano ano katapusan ng March
[263.495]
<no-speech>
[264.405]
ha <sta> ay siguro pupunta sila sa (())
[266.735]
<no-speech>
[269.105]
ha
[269.705]
<no-speech>
[274.305]
siguro doon pa rin sila sa Bicutan <sta>
[278.025]
<no-speech>
[278.945]
kasi walang kasama 'andodoon dila Calib <hes>
[281.615]
<no-speech>
[283.095]
<no-speech>
[284.445]
<no-speech>
[288.805]
ha <breath>
[289.325]
<no-speech>
[291.305]
<no-speech>
[292.765]
<no-speech>
[294.625]
<sta> 'yong 'yong ano
[299.075]
<no-speech>
[300.635]
<sta> oo
[301.355]
<no-speech>
[303.405]
<sta> Cavite
[304.265]
<no-speech>
[306.365]
<sta> Cavite malayo kasi Bicutan sila <hes>
[310.675]
<no-speech>
[312.485]
sasakay pa <sta> sila ng papuntang Baclaran
[314.855]
<no-speech>
[316.165]
<sta> malayo sila
[317.295]
<no-speech>
[319.385]
hindi
[320.295]
<no-speech>
[321.885]
<int> ha
[322.705]
<no-speech>
[325.435]
<sta> oo sa ano sa ano sa Holy week maliligo uli sila
[330.475]
<no-speech>
[331.345]
<sta> sa resort
[332.725]
<no-speech>
[334.895]
sa ano Villa Excellence
[337.245]
<no-speech>
[343.505]
<no-speech>
[344.175]
<no-speech>
[345.105]
Kalibo
[345.965]
<no-speech>
[349.005]
dalawa na saan
[350.875]
<no-speech>
[356.475]
<sta> dagat maya-maya may swimming pool din malis- ano siya talaga resort
[363.805]
<no-speech>
[365.575]
<int> ah maganda na roon
[367.125]
<no-speech>
[369.765]
sasama din kami <int>
[370.985]
<no-speech>
[372.365]
ano na lang sasama kami ngayon <sta> bakasyon sasama kami mag-swimming
[377.995]
<no-speech>
[381.695]
kami na sumama kami ngayon sa kanila 'pag may swimming <sta>
[386.595]
<no-speech>
[390.015]
<no-speech>
[390.465]
<no-speech>
[401.035]
oo <breath> <int>
[402.975]
<no-speech>
[403.785]
<no-speech>
[404.755]
<no-speech>
[407.845]
ah maganda na 'no <sta> maganda na ngayon
[411.245]
<no-speech>
[416.485]
ay mura <int> lang
[417.935]
<no-speech>
[420.415]
maganda kasi <hes>
[421.625]
<no-speech>
[424.965]
<no-speech>
[425.945]
<no-speech>
[426.895]
<no-speech>
[431.035]
<no-speech>
[432.325]
<no-speech>
[432.765]
<no-speech>
[434.975]
ha <sta>
[435.895]
<no-speech>
[438.445]
oo nga <hes> <int>
[439.435]
<no-speech>
[442.445]
<no-speech>
[443.435]
<no-speech>
[446.215]
ay (()) ano
[447.675]
<no-speech>
[449.725]
tumaas na yata ngayon <hes> <sta> tumaas ang bayad
[452.985]
<no-speech>
[454.265]
<no-speech>
[455.435]
<no-speech>
[457.115]
<int> mhm mhm
[458.215]
<no-speech>
[460.925]
oo <sta> kaya nga <hes> sarap sana mag-swimming ano kaso ang mahal na ng bayad
[465.945]
<no-speech>
[467.225]
tapos <sta> wala ka pang dalang kalan dala ka pang pagkain
[470.595]
<no-speech>
[479.135]
mhm ang dami marami kaya <sta> kasama mhm
[482.085]
<no-speech>
[483.395]
<no-speech>
[483.825]
<no-speech>
[486.715]
<no-speech>
[487.175]
<no-speech>
[487.985]
oo marami do'n
[489.555]
<no-speech>
[491.935]
<no-speech>
[492.405]
<no-speech>
[495.655]
<sta> oo <breath>
[497.265]
<no-speech>
[499.115]
mhm mhm <sta>
[501.095]
<no-speech>
[503.205]
mhm mhm <sta>
[504.505]
<no-speech>
[507.635]
<sta> sila ay baka ngayon baka kasi sumama kami 'pag may pera kami sasama kami
[513.845]
<no-speech>
[515.764875]
ah <int> sige
[516.635]
<no-speech>
[517.665]
doon sa kanila <sta>
[519.425]
<no-speech>
[521.225]
sa kanila sa ma- Cavite <sta> kina Jovie
[525.205]
<no-speech>
[526.755]
ah <sta> nag-swimming sila
[527.725]
<no-speech>
[528.675]
<no-speech>
[529.125]
<no-speech>
[530.365]
<sta> oo naliligo naman 'yon taon-taon naman 'di ba
[534.465]
<no-speech>
[535.445]
<sta> kung summer naman nagpupunta sila do'n
[538.695]
<no-speech>
[540.515]
<no-speech>
[542.005]
<no-speech>
[542.825]
<no-speech>
[547.765]
<no-speech>
[549.205]
<sta> sa Cavite
[551.835]
<no-speech>
[553.515]
<no-speech>
[554.165]
<no-speech>
[559.575]
<no-speech>
[559.955]
<no-speech>
[562.125]
ha <int>
[562.805]
<no-speech>
[563.795]
<no-speech>
[564.795]
<no-speech>
[565.715]
<sta> ano doon pa rin
[569.265]
<no-speech>
[570.645]
oo do'n pa rin
[571.755]
<no-speech>
[574.775]
<no-speech>
[575.725]
<no-speech>
[577.735]
oo <sta>
[579.155]
<no-speech>
[581.005]
<no-speech>
[582.125]
<no-speech>
[583.515]
<sta> hello
[584.485]
<no-speech>
[593.355]
ha
[594.005]
<no-speech>
[595.565]
<breath> oo nga <hes>
[596.405]
<no-speech>
[599.94]
