[0.0]
<sta> hello <no-speech> oh oh Gie hello
[5.245]
<no-speech>
[6.055]
oh kamusta na
[7.095]
<no-speech>
[7.924875]
<sta> ha <no-speech> ayos lang macho pa rin at cute <breath> gano'n pa din walang pagbabago <hes> ikaw <breath> ha
[18.935]
<sta> na nasa biyahe kasi ako ngayon <hes> may aasikasuhin ako <hes> ha <no-speech> ano
[30.155]
<no-speech>
[31.025]
<sta> sa biyahe ako ngayon wala 'kong <no-speech> nag-aasikaso kasi ako ng requirements ngayon <hes>
[42.575]
<sta> okey naman <no-speech> ikaw anong pinagkakaabalahan mo ngayon
[48.655]
<no-speech>
[49.455]
<sta> ay talaga naman <laugh> ha <no-speech> hello
[61.325]
<sta> nasa biyahe kasi kami <no-speech> an- ano ba ginagawa mo
[67.565]
<no-speech>
[70.385]
<sta> baka hindi <hes> bumibili pa kasi ako <no-speech> bumibili kasi ako ng ano rin bumibili ako ng kailangan ko sa requirement <laugh> oo
[82.245]
<sta> hindi mamaya
[88.305]
<sta> mamaya kasama ko si ano Dencio <no-speech> mayro'n nga daw <hes>
[96.675]
<no-speech>
[98.635]
<sta> mayro'n do'n nagkaproblema yata <hes> kaya baka hindi raw matuloy pero matutuloy yata ang inuman <hes> <no-speech> mga ano matutuloy 'yon
[110.535]
<sta> ano't- mayro'n 'yon sigurado 'yon nando'n nando'n pa 'yong (()) mo <no-speech> oo <laugh>
[121.315]
<sta> (()) <laugh>
[129.325]
<no-speech>
[130.144875]
<sta> 'di 'yon <no-speech> 'di si Ninoy puwede pa raw <hes> <laugh> ha oo kasama 'yon 'di naman mawawala 'yon <hes>
[141.925]
<no-speech>
[143.425]
<no-speech>
[144.415]
<sta> ha <no-speech> (()) <no-speech> kayo kayo kami-kami
[156.175]
<sta> kayo kayo kami-kami ang pupunta
[158.525]
<no-speech>
[159.475]
<sta> <laugh> oo <no-speech> oo <no-speech> pupunta pa yata dito 'yon <hes>
[170.805]
susunduin pa susunduin pa yata kayo <sta> hintay kayo't saka si Joshua kasi susunduin kayo
[182.435]
<no-speech>
[183.705]
<no-speech>
[185.625]
<sta> ah kanino kay Joshua
[188.865]
<no-speech>
[191.595]
<sta> <laugh> nasa'n na 'yong mga bakla mo anong ginagawa <no-speech> anong ginagawa ng mga bakla mo
[198.745]
<no-speech>
[200.815]
<laugh> <sta> 'di ba nag-aabang sa 'yo si Joel
[207.105]
<no-speech>
[209.205]
<sta> <laugh> ba't ayaw mong balikan 'yon Joel
[221.175]
<sta> 'di ba maraming nangyari sa inyo no'n
[224.455]
<no-speech>
[225.465]
<sta> ha
[226.235]
<no-speech>
[230.015]
<sta> ha na na <laugh> syota pala <hes> nauna nga kayo no'n <hes> bago ako <hes> <no-speech> nauna 'ko
[241.935]
<sta> ha sino naka- <sta> tambay diyan 'yong syota ko <no-speech> tingin ka sa kanan mo
[264.915]
<sta> kilala ko 'yon syota ko 'yon <laugh>
[275.515]
<sta> sa'n ba kayo pupunta <no-speech> ha <no-speech> bukas bukas
[287.405]
<no-speech>
[287.785]
<no-speech>
[289.195]
<sta> oo hindi tuloy ngayon bukas daw tuloy <no-speech> oo
[298.535]
<no-speech>
[300.765]
ha
[301.325]
<no-speech>
[303.385]
hello
[303.975]
<no-speech>
[306.615]
ah gano'n
[307.495]
<no-speech>
[309.655]
'di naman halatang na-mi-miss mo <hes>
[311.385]
<no-speech>
[315.555]
<sta> mukhang hindi mo naman na-mi-miss <hes> <no-speech> ano ba- anong balita pala kay ano kay Elaine okey na
[327.425]
<sta> ha <no-speech> buti buti na buti nahabol
[337.255]
<no-speech>
[339.245]
<no-speech>
[339.665]
<no-speech>
[342.195]
<sta> oh
[344.955]
<no-speech>
[349.555]
<no-speech>
[350.325]
<no-speech>
[351.205]
<sta> ah <no-speech> gano'n
[359.555]
<no-speech>
[361.275]
<sta> bu- buti naagapan 'no
[365.235]
<no-speech>
[366.095]
<sta> naku kung nagkataon <no-speech> ah
[377.755]
<sta> ah <no-speech> ba't di ka- depende sa lisensiya mo <laugh> depende sa lisensiya mo
[389.735]
<sta> hello <no-speech> <laugh> hello
[401.715]
<sta> ha
[406.925]
<no-speech>
[407.785]
<sta> (()) 'kala ko ba <laugh> gano'n ba
[419.555]
kasi 'yon nga- 'yon nga 'yong kay Dencio <hes>
[421.525]
<no-speech>
[422.705]
<sta> ba't 'di gumaya kay Dencio <no-speech> sustentando kahit sustentando kahit walang work
[434.605]
<sta> ha
[444.385]
<no-speech>
[448.085]
<sta> hmm <no-speech> nga- ngayon anong pinagkakaabalahan mo <no-speech> ha
[459.055]
<sta> anong pinagkakaabalahan mo <laugh> ngayon <no-speech> ha
[471.025]
<no-speech>
[471.175]
<no-speech>
[472.335]
<no-speech>
[473.575]
<no-speech>
[476.415]
<no-speech>
[477.055]
<no-speech>
[481.235]
<no-speech>
[481.655]
<no-speech>
[486.745]
<sta> adjo- <no-speech> dapat ngayon pa lang umalis na kayo habang mainit pa <no-speech> habang mainit pa umalis na kayo
[498.515]
<no-speech>
[499.585]
<no-speech>
[501.055]
<no-speech>
[503.345]
<no-speech>
[505.815]
anong nangyari sa pensiyon mo
[507.795]
<no-speech>
[510.195]
<sta> ba't may pera ba 'yon wala rin 'atang pera 'yon <hes>
[522.145]
<no-speech>
[533.495]
<sta> na-mi-miss na <no-speech> na-mi-miss ka na naman yata kayo ng ano ro'n <hes> ha ibang
[545.445]
<no-speech>
[547.195]
<sta> <hes> pinindot mo <hes> <no-speech> ha <no-speech> benta n'yo na lang kaya
[558.775]
Manong Ading para may pamasahe kang pauwi benta n'yo na lang 'yong mangga kukuhanin do'n <no-speech> 'yong mga mangga
[569.075]
<sta> benta mo na lang mga mangga ro'n <no-speech> oo benta n'yo na lang <no-speech> benta <laugh> n'yo sa Crossing
[580.415]
<sta> ha <no-speech> oo
[588.255]
<no-speech>
[589.855]
<sta> puwede dalawang libo pala <hes> <laugh>
[599.675]
<no-speech>
[599.68]
