[0.0]
<no-speech>
[4.225]
hello
[4.885]
<no-speech>
[5.865]
hello
[6.425]
<no-speech>
[7.435]
hoy
[8.035]
<no-speech>
[9.195]
ayos lang nasaan ka ngayon
[10.645]
<no-speech>
[13.265]
hello
[13.875]
<no-speech>
[15.045]
nasaan ka ngayon
[15.925]
<no-speech>
[17.305]
ano <cough>
[18.395]
<no-speech>
[20.475]
ano ano hindi kita marinig <hes>
[22.235]
<no-speech>
[23.615]
<int> hello
[27.345]
<no-speech>
[28.585]
hello hindi na kita marinig lipat ka ng puwesto mo
[32.815]
<no-speech>
[33.685]
ah
[34.305]
<no-speech>
[35.635]
punta ka sa may ano <no-speech> saan ba malapit diyan na may convenient store seven eleven doon ka para malakas signal
[45.325]
<no-speech>
[47.485]
<no-speech>
[47.895]
<no-speech>
[50.885]
nasaan ka ba ngayon
[52.025]
<no-speech>
[56.155]
<no-speech>
[57.315]
<no-speech>
[59.275]
<int> nag-swimming kayo <no-speech> hello
[64.635]
<no-speech>
[67.755]
ano hindi kita maintindihan <hes>
[70.565]
<no-speech>
[74.675]
ano
[75.375]
<no-speech>
[76.985]
ano
[77.715]
<no-speech>
[80.755]
hindi nga kita maintindihan <int>
[85.275]
<no-speech>
[86.995]
<int> teka pare choppy <int>
[91.145]
<no-speech>
[93.025]
<no-speech>
[93.385]
<no-speech>
[95.825]
<hes> hindi naman kita masyadong marinig <no-speech> oh
[102.275]
<no-speech>
[103.235]
oo <int> konti lang <hes> maingay <no-speech> ano
[108.115]
<no-speech>
[109.205]
<no-speech>
[111.015]
<no-speech>
[113.325]
<int> ano <int> nasa biyahe ako <hes>
[122.425]
punta akong Batangas <int>
[127.395]
<no-speech>
[129.345]
ano <int>
[132.665]
<no-speech>
[134.345]
ano ano hindi kita masyadong marinig <hes>
[136.805]
<no-speech>
[138.565]
<no-speech>
[139.625]
<no-speech>
[141.365]
magbabakasyon lang tapos ano swimming <int>
[150.915]
ano hindi kaya kita maintindihan <int>
[153.855]
<no-speech>
[158.085]
kailan kailan ikaw pupunta dito
[161.385]
<no-speech>
[165.965]
ah <no-speech> mag-be-beach kayo
[168.995]
<no-speech>
[170.395]
<no-speech>
[171.095]
<no-speech>
[174.545]
ano <int>
[178.905]
<no-speech>
[180.595]
saan
[181.225]
<no-speech>
[183.075]
sa bahay namin <no-speech> sa Batangas <no-speech>
[185.655]
<no-speech>
[186.005]
<no-speech>
[190.765]
<no-speech>
[191.115]
<no-speech>
[192.255]
hello hindi kita maintindihan masyado <int> hello
[198.705]
<no-speech>
[200.125]
oh hindi kita maintindihan masyado <hes>
[202.635]
<no-speech>
[203.895]
ano <int>
[205.975]
<no-speech>
[207.595]
ano ano ano <int>
[209.805]
<no-speech>
[211.525]
<no-speech>
[212.065]
<no-speech>
[213.715]
ano ayusin mo 'yong pagsasalita mo hindi kita marinig <hes>
[217.385]
<no-speech>
[222.195]
ano <int>
[223.625]
<no-speech>
[225.775]
<no-speech>
[227.015]
<no-speech>
[231.185]
oh <no-speech> anong gagawin n'yo anong gagawin n'yo doon mag-swi-swimming lang naman kayo doon 'di ba
[237.505]
<no-speech>
[238.685]
<no-speech>
[239.035]
<no-speech>
[240.315]
ano
[240.985]
<no-speech>
[243.585]
ano
[244.255]
<no-speech>
[246.725]
ah <int> <hes> ngayon <int>
[252.185]
<no-speech>
[254.465]
ha
[255.075]
<no-speech>
[255.934875]
<int> hello
[257.935]
<no-speech>
[259.045]
<int> hindi ko lang alam <no-speech> sino-sino ba kayo
[262.355]
<no-speech>
[263.165]
<no-speech>
[264.765]
<no-speech>
[266.755]
<no-speech>
[267.965]
<no-speech>
[271.355]
madami ba madami <no-speech> kumpleto
[274.275]
<no-speech>
[275.495]
<no-speech>
[275.925]
<no-speech>
[278.395]
<int> ah
[279.855]
<no-speech>
[282.625]
kasama mo diyan 'yong nanay mo
[285.155]
<no-speech>
[286.005]
<no-speech>
[286.475]
<no-speech>
[287.665]
<no-speech>
[288.465]
<no-speech>
[290.625]
bakit bawal sama mo na rin tatay mo ano ka ba para <no-speech> family reunion kayo
[295.875]
<no-speech>
[298.955]
<no-speech>
[299.425]
<no-speech>
[303.875]
ano ano ano hindi kita maintindihan <hes>
[305.845]
<no-speech>
[307.245]
<no-speech>
[307.645]
<no-speech>
[311.155]
ah <int> uy ikumusta mo naman ako sa nanay at tatay mo sabihin mo pasalubong ko <int>
[321.855]
<sta> mga ilang buwan ba doon ang nanay at tatay mo <no-speech> ano
[333.165]
<no-speech>
[334.635]
ano <int>
[338.385]
<no-speech>
[339.385]
<sta> 'di kita maintindihan <hes> <no-speech> ano
[351.305]
<no-speech>
[352.565]
<no-speech>
[353.875]
<int> hindi kita maintindihan pare <hes>
[357.255]
<no-speech>
[358.335]
<no-speech>
[359.595]
<no-speech>
[362.015]
<sta> basta <breath> <no-speech> saan ka ba ngayon ano ba ang pinagkakaabalahan mo ngayon
[367.695]
<no-speech>
[368.565]
<sta> ha
[369.145]
<no-speech>
[371.395]
<sta> ano ba pinagkakaabalahan mo ngayon
[373.145]
<no-speech>
[374.115]
<sta> ano <no-speech> ano ba ang pinagkakaabalahan mo ngayon
[379.705]
<no-speech>
[380.655]
<no-speech>
[381.195]
<no-speech>
[382.165]
<sta> ano <no-speech> kailan <no-speech> ha
[392.705]
<no-speech>
[395.265]
ano
[395.955]
<no-speech>
[397.385]
<sta> kailan nga
[398.225]
<no-speech>
[401.975]
ano hindi kita marinig hindi kita maintindihan ano ka ba
[404.555]
<no-speech>
[407.335]
<no-speech>
[407.885]
<no-speech>
[409.005]
hello
[409.725]
<no-speech>
[415.035]
saan 'yon <laugh> hindi ko alam 'yon <no-speech> 'yon 'yong nakita kita ah
[422.665]
<no-speech>
[423.475]
hello <no-speech> noong last week nakita kita ah
[426.105]
<no-speech>
[427.605]
'andoon ka sa may ano sa may sa may
[430.545]
<no-speech>
[431.615]
Bustillos nanghahablot ka ng sombrero <int>
[437.585]
<no-speech>
[439.895]
saan <no-speech> ano <int>
[443.695]
<no-speech>
[446.155]
<no-speech>
[446.825]
<no-speech>
[447.975]
sino ba kasama mo noong ano sa galaan last week <no-speech> noong nanghablot ka ng sombrero kumakain ka sa may lapag
[454.435]
<no-speech>
[457.995]
<no-speech>
[458.355]
<no-speech>
[459.925]
ah
[460.535]
<no-speech>
[462.545]
o
[463.155]
<no-speech>
[464.385]
<cough> ano
[465.975]
<no-speech>
[468.325]
ano ano ano <sta> (())
[476.535]
<no-speech>
[478.905]
hello
[479.595]
<no-speech>
[480.405]
<no-speech>
[481.495]
<no-speech>
[482.395]
<sta> hello hello (()) ngayon ah
[493.095]
<sta> hello (()) ka na daw kay Sheryl ha
[504.845]
<no-speech>
[505.715]
<no-speech>
[506.115]
<no-speech>
[509.165]
<sta> hello hindi kita maintindihan
[514.965]
<no-speech>
[519.195]
ano <int> hindi kita maintindihan masyado <hes> <int>
[529.165]
hindi kita masyado maintindihan <sta> sira yata iyang cellphone mo <hes>
[538.305]
<no-speech>
[540.775]
<sta> ano sira yata cellphone mo <hes> hindi kita masyado maintindihan <hes>
[550.765]
<no-speech>
[553.745]
sino <sta>
[554.865]
<no-speech>
[557.315]
<sta> sino
[559.325]
<no-speech>
[561.795]
<sta> sino nagsabi noon sino nagsabi
[566.805]
<no-speech>
[570.925]
hello
[571.585]
<no-speech>
[574.325]
tumatambay ka pa ba diyan sa Unstoppable
[576.865]
<no-speech>
[579.825]
ano <sta>
[580.885]
<no-speech>
[582.925]
<sta> hindi nga hindi nga kita maintindihan masyado <hes> ayusin mo 'yong pananalita mo
[587.665]
<no-speech>
[589.275]
oh
[589.995]
<no-speech>
[593.955]
<no-speech>
[594.335]
<no-speech>
[595.475]
<int> hello
[599.995]
<no-speech>
[600.02]
