[0.0]
<no-speech>
[4.845]
hello Nick
[5.965]
<no-speech>
[7.885]
hello oo kumusta naririnig mo ba ako
[11.685]
<no-speech>
[13.235]
hello naririnig mo 'ko
[14.665]
<no-speech>
[17.215]
hello oo ah happy Chinese New Year pala kumusta
[22.175]
<no-speech>
[23.385]
oo okey naman naririnig naman kita
[25.375]
<no-speech>
[27.615]
ah oo nga kahapon pala 'yon <laugh> so ano 'di ba walang ano walang trabaho kahapon
[33.495]
<no-speech>
[35.785]
or nag-duty ka pa rin
[37.215]
<no-speech>
[41.885]
<hes> kumusta naman ang marami na bang pasyente
[45.035]
<no-speech>
[45.855]
kahapon kasi water Dragon (())
[49.435]
<no-speech>
[52.295]
talaga bakit maraming nagkasakit <laugh>
[55.055]
<no-speech>
[57.205]
ah anong oras ba duty mo ano oras ba duty mo kahapon
[61.225]
<no-speech>
[68.335]
ah okey kahapon
[71.105]
<no-speech>
[72.545]
kahapon nagkayayaan kami nina ano ni Wen J_C 'tsaka ni Dan nag-Paradise kami pumunta kami nag-beach kami <laugh>
[79.715]
<no-speech>
[83.305]
oo kaming apat <hes> apat lang kami
[85.675]
<no-speech>
[86.755]
all boys ano
[88.105]
<no-speech>
[90.265]
oo medyo marami medyo maraming
[92.365]
<no-speech>
[93.345]
noon dumating kami do'n mga ala-una ng hapon tapos umuwi kami mga five gano'n alas-singko then si Wen ano umalis na kasi i-che-check pa daw niya 'yong tindahan niya <laugh> kami naiwan sa bahay then do'n na kami nag-dinner
[110.885]
<no-speech>
[114.075]
ano
[114.825]
<no-speech>
[116.215]
ah gano'n nagselos ka <laugh>
[118.495]
<no-speech>
[119.375]
<laugh> 'di <no-speech> ah bakit tinatawagan ka pa ba ni ano no'ng babae
[126.935]
<no-speech>
[128.285]
no'ng ano no'ng ex niya tinatawagan ka pa
[130.474875]
<no-speech>
[132.045]
ah okey okey pero text pa rin ng text sa 'yo
[135.185]
<no-speech>
[143.315]
ah baka gusto ka niyang kaibiganin <laugh>
[145.985]
<no-speech>
[146.825]
ah baka gusto niyang kaibiganin ka
[148.825]
<no-speech>
[150.655]
sabagay kasi may
[151.715]
<no-speech>
[154.275]
<no-speech>
[154.625]
<no-speech>
[156.085]
pa'no mo nasabi na gano'n
[157.945]
<no-speech>
[159.335]
kahit dalawang beses lang nga kami nagkita niyan <hes>
[162.265]
<no-speech>
[165.415]
oo
[167.185]
<no-speech>
[172.505]
<int> hindi after after niyan no'ng nagsabay tayo 'di ba nagsabay tayo
[177.895]
<no-speech>
[181.315]
baka nakikitsismis lang 'yon
[184.745]
<no-speech>
[186.085]
'di ba 'di ba nag-submit
[188.605]
<no-speech>
[190.425]
'di ba nag-sub- <no-speech>
[198.775]
ay 'di sabihin mo mas close tayo 'di ba
[201.035]
<no-speech>
[202.595]
ah hindi- <no-speech>
[209.875]
oo 'di good good answer 'yon <laugh>
[212.395]
<no-speech>
[219.325]
ah okey pero lately hindi naman nag-
[222.195]
<no-speech>
[230.245]
ah ba't ayaw niyang maging magkaibigan kayo <laugh>
[233.525]
<no-speech>
[235.415]
oo tama tama naman 'yong sinabi mo
[237.445]
<no-speech>
[239.015]
ah nagseselos lang siguro
[241.985]
<no-speech>
[243.095]
<no-speech>
[243.795]
<no-speech>
[249.715]
ah
[250.705]
<no-speech>
[252.215]
<no-speech>
[252.585]
<no-speech>
[257.225]
ah nandito pa ba sa Davao 'yan nag-ano nga- <no-speech>
[261.004875]
ano nga name niya Joy Joy 'di ba
[263.125]
<no-speech>
[264.765]
<no-speech>
[265.535]
<no-speech>
[267.765]
ah pre nurse rin ba 'yon
[270.295]
<no-speech>
[273.515]
nurse rin 'yon 'di ba <int>
[275.665]
<no-speech>
[277.525]
<sta> ah okey sige pabayaan mo na 'yon hindi pero alam mo
[284.345]
<no-speech>
[286.585]
nasa Davao ka no'ng ano no'ng Friday
[288.725]
<no-speech>
[292.555]
nasa Davao ka no'ng <foreign>
[294.265]
<no-speech>
[295.585]
hello nasa Davao ka no'ng Friday
[297.425]
<no-speech>
[300.165]
hindi kasi parang nag- I was driving nag-drive ako galing Ateneo galing ako sa office ni J_C may naglalakad na dalawang babae sabi ko parang si Monica 'yan ah
[311.225]
sa may along ano <hes> may may ano may may may Ateneo sa may Jacinto Ateneo-Jacinto
[319.585]
<no-speech>
[321.725]
may kasama kang naka-uniform 'ata uniform ba 'yon basta naka-shorts na naka-shorts na jeans tapos nakaano ka naka-flesh na parang blouse ikaw 'yon ano naka-shorts
[333.175]
<no-speech>
[336.335]
ah tama
[337.425]
<no-speech>
[338.235]
hindi parang nag-aalangan ako kung ikaw 'yon oo hindi kasi nakita ko lang nakatalikod tapos no'ng lumingon ako parang
[345.065]
<no-speech>
[346.185]
hindi (())
[347.095]
<no-speech>
[348.635]
ah
[349.115]
<no-speech>
[350.975]
hindi akala ko nga busy ka kasi
[353.165]
<no-speech>
[354.465]
<laugh> hindi
[356.685]
<no-speech>
[366.605]
ah bumalik ka rin kaagad <no-speech>
[374.085]
uwian
[374.805]
<no-speech>
[376.455]
oo medyo busy rin talaga ako pero ano balikan ka lang no'n or nag-overnight ka
[380.315]
<no-speech>
[382.165]
<no-speech>
[382.655]
<no-speech>
[387.355]
ah sa'n ka saan ka natulog <no-speech> saan ka natulog
[391.185]
<no-speech>
[394.015]
ah sa <int> ha sa (())
[397.355]
<no-speech>
[398.995]
do'n sa ano saan ba sa Matina oo sa El Rio sa Matina
[403.105]
<no-speech>
[406.385]
ah okey
[407.655]
<no-speech>
[411.265]
oo hin- kasi wala 'yon nga wala rin ako ginagawa <hes> 'pag gano'n bakante na 'ko ng mga around eight thirty or nine <hes>
[417.245]
<no-speech>
[418.305]
hindi kasi aka- <no-speech>
[421.655]
hindi ko rin alam na ikaw <laugh> 'di 'di ako sigurado ikaw 'yon <hes> oo kasi usually kapag nandito ka nag-te-text ka naman 'di ba so <hes> <no-speech>
[435.925]
ah sige may next time pa naman 'no <laugh> may next time pa naman ay kumusta pala 'yong ano 'yong interview mo
[444.225]
<no-speech>
[445.635]
'yong interview mo dito 'di ba nag-ano ka nag-interview para sa ano job kumusta na <hes> ano aalis ka na ano
[454.725]
<no-speech>
[460.505]
maganda ba 'yong offer
[461.825]
<no-speech>
[462.635]
<no-speech>
[463.055]
<no-speech>
[464.295]
maganda ba
[465.235]
<no-speech>
[469.995]
ah gano'n ah kapag nag- kapag alanganin ka 'wag na lang 'wag mo ng patulan <laugh>
[476.595]
<no-speech>
[477.875]
ah
[478.855]
<no-speech>
[480.695]
<hes> kapag alanganin ka 'wag na lang <hes> uhm ba't gusto mo na ba talaga umalis diyan sa ano sa hospital gano'n ginawa mo pa ako dahilan ah <laugh>
[490.785]
<no-speech>
[491.785]
ginawa mo pa akong dahilan <laugh>
[494.425]
<no-speech>
[498.195]
ah puwede naman ba't naman hindi
[499.975]
<no-speech>
[501.755]
ano ano
[502.725]
<no-speech>
[507.895]
yes as if naman kilala nila ako <laugh>
[511.245]
<no-speech>
[512.495]
ah puwede rin
[514.035]
<no-speech>
[515.205]
<hes> <int>
[516.324875]
<no-speech>
[518.125]
<no-speech>
[518.535]
<no-speech>
[520.835]
<no-speech>
[521.225]
<no-speech>
[522.045]
<no-speech>
[522.655]
<no-speech>
[524.555]
ah ba't maliit maliit ang ano maliit ang suweldo
[527.515]
<no-speech>
[538.785]
ah ano ano ba magiging trabaho mo kung saka-sakali
[543.195]
<no-speech>
[545.335]
ah ano ba <int> job description no'n
[547.165]
<no-speech>
[553.435]
<no-speech>
[559.705]
<no-speech>
[560.065]
<no-speech>
[565.315]
ah (())
[566.425]
<no-speech>
[567.835]
<no-speech>
[568.425]
<no-speech>
[575.335]
<no-speech>
[575.855]
<no-speech>
[577.065]
ah
[577.985]
<no-speech>
[579.325]
ah okey kung sakaling matutuloy ka <hes> iilan kayo may kasama ka rin galing ano galing do'n oo galing Pilipinas marami kayong pinoy na aalis if Ever
[587.915]
<no-speech>
[590.415]
<sta> ah sige ano ka lang just be patient marami pa namang offers diyan <laugh>
[597.655]
<no-speech>
[598.645]
ba't gusto mo <no-speech>
[599.38]
