[0.0]
<no-speech>
[1.435]
<no-speech>
[1.845]
<no-speech>
[3.355]
<sta> hello sino 'to
[7.185]
<no-speech>
[9.435]
<sta> sino 'to <no-speech> si
[12.345]
<no-speech>
[14.595]
o si Kuya Bong bakit o bakit
[16.514875]
<no-speech>
[18.955]
'andito- 'andito ako sa store
[20.625]
<no-speech>
[23.265]
<sta> sa store sa trabaho
[25.185]
<no-speech>
[29.765]
hindi naman bakit
[31.115]
<no-speech>
[32.094875]
hindi naman bakit
[33.075]
<no-speech>
[39.225]
o sige
[40.025]
<no-speech>
[49.895]
oh
[50.425]
<no-speech>
[52.695]
oh
[53.255]
<no-speech>
[54.055]
kanina (())
[54.785]
<no-speech>
[56.975]
fifty five nga 'yong kulay puti
[59.555]
<no-speech>
[61.825]
oo inayos namin kahapon 'yong isa <hes>
[64.415]
<no-speech>
[68.045]
oo bakit <sta> ha buyer
[72.855]
<no-speech>
[75.125]
o sige magkano natin ipapalo
[76.925]
<no-speech>
[82.905]
<sta> mayro'n nga <hes> mayro'n <hes> bakit para saan 'yon
[85.845]
<no-speech>
[88.515]
<sta> 'yong salita na 'yon ha
[92.015]
<no-speech>
[98.215]
ah okey (())
[100.775]
<no-speech>
[103.725]
<sta> hello
[106.595]
<no-speech>
[109.885]
baka
[111.305]
<no-speech>
[113.755]
<no-speech>
[114.735]
<no-speech>
[118.185]
'yong bibili
[119.115]
<no-speech>
[123.595]
oo 'yong kulay puti <sta> magkano magkano natin (())
[129.254875]
<no-speech>
[131.465]
<no-speech>
[131.835]
<no-speech>
[133.205]
magkano natin ano magkano magkano
[136.305]
<no-speech>
[139.425]
<no-speech>
[142.535]
<no-speech>
[146.125]
black
[146.685]
<no-speech>
[148.545]
tinesting tinesting nga ni Ryan tinesting nga ni Ryan kahapon <hes> ang lakas <hes>
[153.785]
<no-speech>
[161.035]
lakas 'no
[162.055]
<no-speech>
[169.585]
no
[169.995]
<no-speech>
[170.945]
o sige
[171.875]
<no-speech>
[173.695]
daan na 'ko hindi nga <hes> 'pag napadaan ako diyan pipitsuran ko
[178.465]
<no-speech>
[184.025]
<sta> ah sige sige
[185.955]
<no-speech>
[186.975]
o sige
[187.765]
<no-speech>
[192.185]
<no-speech>
[192.925]
<no-speech>
[193.865]
<sta> flat
[196.135]
<no-speech>
[196.995]
umuwi si papa kahapon <hes> nagpaalam na rin sa 'kin <hes> nag-inom nag-ano kami nando'n kami sa may ano sa may tindahan
[206.105]
<no-speech>
[207.805]
<sta> anong oras na ako nakauwi alas-diyes
[210.145]
<no-speech>
[214.385]
'yon umuwi na ako iniwanan ko na sila Kuya J_R du'n
[216.755]
<no-speech>
[222.675]
<sta> o 'andoon <no-speech> oo 'andoon 'yong motor ko kagabi dumaan pa nga kayo ni ate dumaan pa kami ni Ate Joan <hes>
[231.105]
<no-speech>
[233.085]
<no-speech>
[233.685]
<no-speech>
[237.115]
<sta> oo nga
[244.215]
<no-speech>
[254.135]
ah okey oo nga pala nakalimutan ko iano kahapon <int> itanong <hes>
[257.685]
<no-speech>
[259.684875]
mhm mhm
[260.304875]
<no-speech>
[261.595]
<no-speech>
[261.955]
<no-speech>
[266.645]
saan siya ngayon
[267.525]
<no-speech>
[274.535]
ah diyan ka natulog <int>
[275.635]
<no-speech>
[280.335]
<sta> ano 'to
[280.795]
<no-speech>
[283.445]
<sta> oo hapon pa lang nag-iinom na <hes> tanghali pagdating ko
[290.015]
<no-speech>
[295.335]
<no-speech>
[295.695]
<no-speech>
[297.475]
<sta> sa April
[299.025]
<no-speech>
[300.085]
<sta> itong April sa ano katorse
[302.105]
<no-speech>
[303.185]
<sta> oo ngayong April <no-speech> oo pero
[308.995]
<no-speech>
[309.825]
ano ano ano
[310.615]
<no-speech>
[313.385]
<no-speech>
[313.765]
<no-speech>
[315.605]
saan
[316.665]
<no-speech>
[320.885]
<no-speech>
[321.245]
<no-speech>
[323.745]
<sta> si Ate Joan
[328.085]
<no-speech>
[329.625]
hindi baka maano ako rito kay Bong
[331.595]
<no-speech>
[333.025]
baka <hes> ma-extend ako rito <int>
[336.395]
<no-speech>
[339.065]
<sta> oo
[340.145]
<no-speech>
[341.925]
oo
[342.465]
<no-speech>
[345.485]
oo 'pag ano
[346.625]
<no-speech>
[349.645]
<hes> <sta> trabaho oo ay (()) 'yong
[357.065]
<no-speech>
[358.475]
'yong tropa ko baka puwede
[360.045]
<no-speech>
[363.515]
pumasok diyan dahil kasi dating (()) ano din 'yon <hes> bagger <hes>
[366.945]
<no-speech>
[368.295]
pag-aplayin ko na lang din
[369.805]
<no-speech>
[371.105]
oo
[371.735]
<no-speech>
[376.295]
dati ring bagger
[377.795]
<no-speech>
[378.805]
ha
[379.315]
<no-speech>
[381.825]
ba't alas-dose pa ako
[384.195]
<no-speech>
[385.705]
<no-speech>
[386.195]
<no-speech>
[387.955]
<sta> oo twelve to twelve ako <hes>
[391.995]
<no-speech>
[393.145]
<no-speech>
[394.105]
<no-speech>
[396.195]
akala ko naibenta niya na ngayon <int>
[398.215]
<no-speech>
[399.755]
oo sa iaano ko sa Cubao
[401.715]
<no-speech>
[406.435]
oo
[407.025]
<no-speech>
[409.635]
<no-speech>
[412.065]
<no-speech>
[414.655]
<no-speech>
[415.475]
<no-speech>
[420.475]
malakas 'yong motor malakas <int>
[422.295]
<no-speech>
[424.075]
<sta> oo malakas 'yong motor niya
[426.355]
<no-speech>
[428.035]
<no-speech>
[428.905]
<no-speech>
[433.045]
oo <int>
[433.705]
<no-speech>
[435.065]
<sta> original 'yan <hes>
[436.835]
<no-speech>
[438.935]
buong-buo nga 'yun <int> <no-speech> buong-buo nga 'yong tunog <hes> <int>
[442.635]
<no-speech>
[445.555]
inayos na <sta>
[448.205]
<no-speech>
[450.825]
sa Makati <int>
[451.745]
<no-speech>
[453.545]
<int> oo
[454.185]
<no-speech>
[456.385]
<sta> inayos inayos kasi namin 'yong motor niya kahapon 'yong isa
[460.815]
<no-speech>
[463.935]
<sta> oo nag- nagpalit siya ng *bearings*
[466.035]
<no-speech>
[471.745]
<sta> oo tinulungan namin siyang magkabit dahil <no-speech> hindi ma- 'yong iba kap- kinakapos ng ano kailangan ipuwersa <hes> dalawang tao mag- mag- magsasara <hes>
[482.275]
<no-speech>
[486.255]
<int> saan
[486.885]
<no-speech>
[490.015]
<no-speech>
[490.815]
<no-speech>
[493.575]
<sta> ah
[494.685]
<no-speech>
[504.845]
<sta> oo
[507.125]
<no-speech>
[508.365]
<no-speech>
[509.165]
<no-speech>
[519.865]
spark plug lang 'yon 'tsaka karburador
[521.995]
<no-speech>
[524.485]
oo
[524.985]
<no-speech>
[526.945]
karburador lilinisin lang naman 'yon <hes>
[529.775]
<no-speech>
[535.165]
nagawa n'yo
[536.915]
<no-speech>
[539.275]
magkano
[540.135]
<no-speech>
[548.195]
<no-speech>
[548.775]
<no-speech>
[553.525]
o nagbigay
[555.075]
<no-speech>
[558.715]
pang merienda o di okey na at least kahit papa'no
[562.285]
<no-speech>
[564.815]
'yong bayad <sta> kaninong gamit
[568.105]
<no-speech>
[571.325]
oo kaninong gamit 'yon
[572.865]
<no-speech>
[574.795]
<no-speech>
[575.185]
<no-speech>
[576.055]
<sta> kaninong gamit
[577.435]
<no-speech>
[581.155]
hindi 'yong pinambukas n'yo <sta>
[585.585]
<no-speech>
[587.045]
ah <laugh>
[589.505]
<no-speech>
[590.835]
<no-speech>
[592.855]
<no-speech>
[593.655]
<no-speech>
[595.785]
<no-speech>
[596.875]
<no-speech>
[597.265]
<no-speech>
[598.325]
<no-speech>
[599.535]
<no-speech>
[600.22]
