[0.0]
<no-speech>
[1.255]
<no-speech>
[2.115]
<no-speech>
[3.235]
<no-speech>
[4.685]
hello
[6.705]
<no-speech>
[8.105]
<no-speech>
[9.805]
<no-speech>
[10.625]
hello <no-speech> <laugh> okey lang <sta> hello
[18.625]
<no-speech>
[19.535]
hala <laugh> wala nakaupo lang nakaupo lang
[26.055]
<no-speech>
[26.925]
hindi pa <no-speech> hindi pa <laugh> ayaw ko kumain <hes>
[32.705]
<no-speech>
[33.795]
ha
[34.405]
<no-speech>
[35.895]
si Liana si Liana si Liana <int>
[39.885]
<no-speech>
[40.825]
<sta> ikaw kumain ka na <no-speech> kumain ka na ba
[47.795]
<no-speech>
[50.595]
baka pagalitan ka <int>
[53.385]
<no-speech>
[55.475]
<int> binayaran <no-speech> hmm <sta> alam mo naman ayaw kong magsalita ng ano <hes> <laugh> bawal ang mga bad words dito 'di ba <no-speech> wow
[67.125]
<sta> ay <laugh> ang daming si <no-speech> hindi ikaw muna 'pa
[76.415]
<no-speech>
[77.795]
<sta> 'di
[80.265]
<no-speech>
[83.065]
uwi ka na lang mamaya-maya ha
[85.195]
<no-speech>
[87.025]
ang dami ko pang gagawin sa bahay <hes> maghuhugas pa 'ko <hes> <int>
[91.255]
<no-speech>
[92.235]
'di
[92.895]
<no-speech>
[94.855]
ha oo <no-speech> ano <no-speech> maghuhugas pa kasi ako <hes>
[99.685]
<no-speech>
[100.625]
<no-speech>
[103.035]
<no-speech>
[104.785]
hmm hmm
[105.495]
<no-speech>
[108.095]
ano
[109.515]
<no-speech>
[110.435]
'di makakain bahala sila diyan <no-speech> <sta> ano na kasi 'yong ano aalis ako ang dami pang mga gawain
[120.415]
<no-speech>
[121.245]
<no-speech>
[123.145]
<no-speech>
[124.395]
<sta> oo okey ha <no-speech> ano
[129.325]
<no-speech>
[130.295]
<no-speech>
[131.325]
<no-speech>
[132.175]
<sta> nasa bahay <no-speech> nasa bahay po
[137.435]
<no-speech>
[138.835]
paano mo kay Andy <no-speech> ha
[141.905]
<no-speech>
[142.825]
ano
[143.735]
<no-speech>
[146.855]
<int> wala <hes> baka sa loob
[148.765]
<no-speech>
[150.085]
ha <int> ano <no-speech> <sta> ano nagpunta siya 'di ba
[157.075]
<no-speech>
[157.955]
maghuhugas nga
[159.055]
<no-speech>
[161.075]
hmm hmm
[163.365]
<no-speech>
[165.615]
sige okey lang <no-speech> o sige sige sige <no-speech> <int> iba nga 'yong boses natin <laugh>
[171.685]
<no-speech>
[172.585]
hmm <no-speech> hmm
[174.505]
<no-speech>
[176.095]
<sta> hoy ano ba hindi mo ako naririnig
[179.205]
<no-speech>
[180.975]
iba ngayon 'yong boses natin <laugh> <sta> ano ba <no-speech> hmm
[187.125]
<no-speech>
[188.155]
'di <no-speech> <sta> ano okey lang okey lang <no-speech> ang laki <no-speech> parang hindi ikaw
[197.935]
<no-speech>
[198.845]
oo <sta> hindi
[200.195]
<no-speech>
[201.955]
iba ngayon <hes> <sta> hindi kaya <no-speech> ha <no-speech> ano
[209.865]
<no-speech>
[210.945]
oo <no-speech> <sta> 'wag na 'wag mong ibababa 'yan ha <no-speech> hanggang matapos
[215.605]
<no-speech>
[216.615]
<sta> baka pagalitan ka nga <hes> <no-speech> oo alam mo saka alas-nuwebe na kaya
[222.785]
<no-speech>
[223.865]
hindi five <sta> five ay nine na pala <no-speech> five hindi nine fifteen
[229.775]
<no-speech>
[231.505]
nine fifteen nga
[233.365]
<no-speech>
[236.725]
<no-speech>
[238.365]
<no-speech>
[240.065]
<hes> hindi ka naman kumakain <hes> <sta> hindi ako kumakain ayaw kong kumain <no-speech> saka ayaw kong kumain <hes>
[246.885]
<no-speech>
[248.405]
<int> ha
[251.345]
<no-speech>
[252.795]
ayaw ko <no-speech> ayaw ko <no-speech> ayaw ko nga
[256.705]
<no-speech>
[257.825]
hindi ako kaka- hindi nga ako kakain <hes> <no-speech> ha hindi
[261.465]
<no-speech>
[262.475]
<no-speech>
[262.835]
<no-speech>
[264.655]
ayaw ko <hes> <laugh> <sta> <hes> 'di maghanap ka <no-speech> wala
[270.545]
<no-speech>
[271.795]
maghanap ka <sta> wala kasi
[275.865]
<no-speech>
[276.715]
<no-speech>
[279.495]
<no-speech>
[280.715]
<sta> ha <laugh> ano <no-speech> ano <no-speech> ha
[291.435]
<no-speech>
[292.485]
<no-speech>
[292.875]
<no-speech>
[294.575]
ano
[295.145]
<no-speech>
[296.745]
ewan ko text mo siya mamaya <no-speech> i-text mo <sta> hindi ba kayo nabigyan <no-speech> ha
[305.745]
<no-speech>
[308.025]
oo babalik pa 'yon oo <no-speech> alam mo namang ang aga pa 'di ba
[312.375]
<no-speech>
[313.175]
<sta> anong sabi sa iyo ni kuya <laugh>
[318.755]
<no-speech>
[320.045]
anong sabi ni kuya (()) (()) naku naman ha anong sabi ni Kuya Darwin <no-speech> anong sabi ni kuya
[329.505]
<no-speech>
[331.945]
ha
[332.825]
<no-speech>
[334.985]
<no-speech>
[335.405]
<no-speech>
[337.795]
<no-speech>
[338.175]
<no-speech>
[340.605]
<no-speech>
[341.025]
<no-speech>
[341.875]
<no-speech>
[342.435]
<no-speech>
[343.755]
tapos
[344.635]
<no-speech>
[346.495]
<no-speech>
[346.955]
<no-speech>
[347.855]
ah pupunta magbibigay sabi mo
[349.895]
<no-speech>
[351.085]
<sta> ha <no-speech> ha
[353.595]
<no-speech>
[355.205]
<int> ano <int>
[357.865]
<no-speech>
[358.985]
<no-speech>
[359.545]
<no-speech>
[360.385]
<no-speech>
[360.925]
<no-speech>
[362.335]
ganiyan talaga 'yan ganiyan talaga 'yan <no-speech> bakit ka pa papansinin 'di ba kung galit
[367.435]
<no-speech>
[369.135]
nakipagkamayan naman sa iyo
[370.655]
<no-speech>
[371.765]
ano
[373.955]
<no-speech>
[375.285]
<sta> 'musta po <no-speech> 'musta po kasi <no-speech> 'musta po <no-speech> pino-po mo pa 'yon <no-speech> pino-po mo pa 'yon
[386.545]
<no-speech>
[388.025]
ah twenty <sta> nag-debut na 'yon <hes> <no-speech> nag-debut na 'yon
[393.845]
<no-speech>
[394.895]
<sta> oo oo 'di ba twenty three 'yong mga lalaki twenty two
[399.435]
<no-speech>
[401.235]
<sta> twenty two nga bingi <no-speech> oo <no-speech> <laugh>
[408.915]
<no-speech>
[410.875]
<no-speech>
[411.405]
<no-speech>
[412.545]
ha
[414.215]
<no-speech>
[419.155]
oo sa matanda oo 'wag ka ng mag-po <no-speech> hindi bagay ang pangit
[423.345]
<no-speech>
[424.555]
lalaki ka <hes> lalaki ka 'wag na
[426.795]
<no-speech>
[428.335]
po kasi <no-speech> napakagalang mo naman <laugh> kahit na 'wag ka ng kasi mag-po
[435.395]
<no-speech>
[436.485]
<no-speech>
[436.945]
<no-speech>
[438.455]
mhm daddy kasi <laugh> 'wag <laugh> alam mo namang alam mong bawal mag- <no-speech> sino
[448.305]
<no-speech>
[450.645]
ano <laugh> control 'yong voice
[454.485]
<no-speech>
[455.785]
ano
[456.765]
<no-speech>
[458.235]
ano
[458.905]
<no-speech>
[460.085]
anong sabi mo <no-speech> anong sabi
[462.505]
<no-speech>
[468.265]
<no-speech>
[469.185]
<no-speech>
[470.575]
weh <int>
[471.535]
<no-speech>
[475.385]
ano ano ano ano <no-speech> ano 'pa
[477.745]
<no-speech>
[482.765]
nag-iinom
[483.805]
<no-speech>
[484.825]
nag-iinom <no-speech> ano nag-iinom
[487.585]
<no-speech>
[489.525]
nag-iinom kayo
[490.745]
<no-speech>
[492.355]
ng alak <no-speech> ngayon <int> <no-speech> ngayon <no-speech> nasaan kayo <no-speech> nasaan nga kayo <no-speech> nasaan nga kayo <hes>
[502.315]
<no-speech>
[504.355]
umalis ka kila Bianca <no-speech> umalis ka nga kila Bianca <laugh>
[509.155]
<no-speech>
[511.155]
umalis ka nga kila Bianca
[513.454875]
<no-speech>
[514.675]
umalis ka ba
[516.184875]
<no-speech>
[517.735]
umalis ka kila Bianca
[519.255]
<no-speech>
[520.225]
<no-speech>
[521.045]
<no-speech>
[522.095]
tapat ng bahay 'di ba nandiyan ka <no-speech> nag-iinom kayo ni kuya <no-speech> 'di nga
[528.395]
<no-speech>
[530.385]
weh <no-speech> oo promise mo <no-speech> promise mo nga <no-speech> promise mo nga
[535.305]
<no-speech>
[537.155]
hindi nga <no-speech> hindi nga
[539.615]
<no-speech>
[542.425]
ha <no-speech> ano
[544.355]
<no-speech>
[547.835]
<no-speech>
[548.225]
<no-speech>
[549.205]
'andiyan kasi
[550.415]
<no-speech>
[551.765]
gusto niya gusto naman niya non
[553.795]
<no-speech>
[555.115]
<laugh> <no-speech> hala kawawa
[559.305]
<no-speech>
[560.765]
<no-speech>
[561.155]
<no-speech>
[562.605]
nino
[563.515]
<no-speech>
[564.735]
<no-speech>
[565.255]
<no-speech>
[566.315]
tapos
[567.005]
<no-speech>
[569.965]
ano
[570.625]
<no-speech>
[572.295]
(())
[573.245]
<no-speech>
[575.195]
ang daldal mo mamaya ka sa akin 'pag 'di ka tumigil ah <no-speech> oo wala na
[580.285]
<no-speech>
[581.705]
mamaya ka sa akin tingnan mo
[584.295]
<no-speech>
[585.465]
'pag 'di totoo 'yon mamaya ka sa akin <int> <no-speech> si
[589.655]
<no-speech>
[591.965]
ano
[592.665]
<no-speech>
[594.555]
ha <laugh> umalis na kanina pa <no-speech> umalis na
[599.945]
<no-speech>
[599.98]
