[0.0]
<no-speech>
[1.285]
<no-speech>
[3.415]
hello brod
[4.185]
<no-speech>
[7.845]
o hello kumusta pa <no-speech> <hes> okey lang
[11.625]
<no-speech>
[13.385]
ha
[14.175]
<no-speech>
[15.355]
<hes> hindi rin naman ako makakauwi <hes> <int>
[20.755]
<no-speech>
[21.565]
<no-speech>
[22.605]
<no-speech>
[23.555]
hello
[24.615]
<no-speech>
[26.125]
<int> oo nga <hes> pero <hes> babawi na lang <no-speech> babawi na lang ako bukas
[32.935]
<no-speech>
[33.805]
<breath> <breath> ha
[36.005]
<no-speech>
[37.795]
<hes> di ko rin naaayos Ne kailangan pala <hes> <no-speech> two months 'yong ano <hes> <breath> two months advance
[44.905]
<no-speech>
[46.375]
<int> hello
[48.415]
<no-speech>
[49.245]
<breath> ha <no-speech> kumusta <no-speech> <hes> 'yon nga kailangan mga April fourteen pa <no-speech> bago <hes>
[60.575]
<no-speech>
[62.175]
kailangan sa ano pa sa April fourteen pa I re- I renew sa April fourteen pa I renew
[67.205]
<no-speech>
[70.675]
hello <int>
[71.895]
<no-speech>
[73.715]
puputol ba <hes> 'andito ako ngayon sa Manila <hes> <no-speech> ikaw ba nasa'n ka ba
[78.485]
<no-speech>
[79.435]
<int> 'andito ako sa manila- <no-speech>
[82.905]
ah Nueva Ecija kumusta na
[84.975]
<no-speech>
[86.735]
ha
[87.255]
<no-speech>
[88.415]
<hes> baka next year na baka next year pa <no-speech> baka next year pa
[92.745]
<no-speech>
[93.615]
<sta> kumusta mga ba 'yong mga <no-speech> kumusta ba 'yong mga paalaga ko sa 'yong kambing <breath> hello
[103.025]
<no-speech>
[104.725]
<sta> oo nga kumusta ba paalaga kong kambing sa 'yo <no-speech> 'yong mga kambing kamusta na
[109.645]
<no-speech>
[111.505]
ha
[112.575]
<no-speech>
[114.355]
<breath> o ilang 'yong <hes> 'yong iba hindi pa nanganganak <no-speech> 'yong iba hindi pa
[120.285]
<no-speech>
[121.105]
<no-speech>
[122.495]
<no-speech>
[124.445]
<no-speech>
[124.915]
<no-speech>
[125.945]
<breath> a <no-speech> 'yong mga baka ba na nga <hes> na <hes> 'di pa nanganganak <no-speech> ha
[134.795]
<no-speech>
[135.785]
<breath> 'yong mga <no-speech> 'yong mga baka
[141.055]
<no-speech>
[142.755]
hello
[143.315]
<no-speech>
[144.855]
'di pa ba nanganganak 'yong mga baka <no-speech> ha <no-speech> <hes> bakit
[149.685]
<no-speech>
[151.145]
ah sino nag-aalaga ngayon <no-speech> <breath> ha
[157.575]
<no-speech>
[159.225]
mhm <no-speech> nabibigyan ba <no-speech> napapakain ba nang maayos <no-speech> ha <no-speech> ano ano ano 'no
[168.035]
<no-speech>
[170.395]
ah <no-speech> wala naman o <no-speech> <hes> kuwan <breath>
[176.725]
<no-speech>
[178.475]
sisipagan mo <no-speech> para sa 'yo din para sa 'yo din 'yan <no-speech> ha
[183.565]
<no-speech>
[189.245]
<no-speech>
[189.835]
<no-speech>
[190.845]
so <hes> kai- <hes> kailan ka ba lulu- <hes> kailan ka ba luluwas pagka ano dumalaw ka rito <no-speech> 'pag meron kang oras <no-speech> kailan ka ba may oras
[201.975]
<no-speech>
[203.535]
ah
[207.475]
<no-speech>
[210.625]
ah dapat lang tulungan <breath> tulungan <no-speech> <hes> tulungan mo 'yong mga <no-speech> ha
[220.235]
<no-speech>
[221.295]
tulungan mo 'yong mga ano mga <int>
[223.785]
<no-speech>
[226.175]
hello <no-speech> hello <no-speech> anong ginagawa mo ngayon
[229.735]
<no-speech>
[230.935]
<breath> hello ano ba ginagawa mo ngayon
[233.045]
<no-speech>
[235.065]
ah <int> 'di ba umuulan diyan
[239.505]
<no-speech>
[240.565]
dito kasi ang lakas ng ulan <hes> <no-speech> ha <no-speech> nada nadayo ba kayo kanina
[251.705]
dumayo ba kayo kanina ng basketball
[253.215]
<no-speech>
[254.905]
ah <breath>
[255.755]
<no-speech>
[258.265]
<hes> hindi sa gym <no-speech> sa gym sana
[263.885]
<no-speech>
[265.535]
sa gym <no-speech> sa gym sana <sta> mhm
[275.145]
<no-speech>
[277.225]
layo ba <hes> ano ba <no-speech> <hes> eto nag-aaral nag-re-review
[283.225]
<no-speech>
[284.455]
mayro'n kaming exam bukas <hes> <int>
[288.055]
<no-speech>
[289.095]
ha
[290.225]
<no-speech>
[291.585]
oo <hes> <no-speech> <hes> ano ba sa sa isang araw baka may ginagawa <no-speech> ha <no-speech> sa isang araw ba may lakad ka <no-speech> may lakad ka ba sa isang araw
[303.095]
<no-speech>
[304.315]
<no-speech>
[306.065]
hello <sta>
[310.305]
<no-speech>
[311.465]
o <hes> pagka wala kang ginagawa di lumapit ka rito <no-speech> lumipat ka rito 'pag a <hes> wala kang ginagawa
[319.525]
<no-speech>
[320.535]
<no-speech>
[321.615]
<no-speech>
[324.095]
o <hes> oo nga <no-speech> <hes> 'yong mga tinali natin diyan <hes> na <hes> kondisyon na ba
[331.285]
<no-speech>
[332.285]
<breath> <int> talo isa
[338.845]
<no-speech>
[340.775]
o magkano naman ang <no-speech> magkano parada <no-speech> 'tay din patay din <no-speech> mahinang klase pala iyan <hes>
[351.835]
<no-speech>
[353.585]
ha
[354.115]
<no-speech>
[355.285]
<no-speech>
[355.795]
<no-speech>
[357.175]
<breath> ah
[358.625]
<no-speech>
[360.435]
hmm <hes>
[362.565]
<no-speech>
[363.625]
ibenta mo 'yong dalawang baka diyan saka mo I pusta
[365.815]
<no-speech>
[367.305]
ibenta mo 'yong dalawang baka saka mo ipus- ipusta <no-speech> ibenta mo 'yong dalawang baka saka mo ipusta <no-speech> para makabawi
[375.745]
<no-speech>
[376.545]
<laugh> <hes> hindi para naman makabawi ka <hes>
[385.305]
<no-speech>
[386.415]
alam mo naman inaalala ko 'yong ka- kapakanan mo lagi
[389.155]
<no-speech>
[390.415]
<no-speech>
[391.765]
<no-speech>
[393.845]
o <no-speech> kailan ba 'yong graduation n'yo
[400.295]
<no-speech>
[401.175]
kailan graduation n'yo
[403.595]
<no-speech>
[404.795]
kailan graduation n'yo
[406.705]
<no-speech>
[409.025]
<no-speech>
[409.435]
<no-speech>
[410.615]
thirteen years <no-speech> thirteen years ka na sa grade six hindi ka pa ga-graduate
[419.945]
<no-speech>
[423.555]
ah
[425.135]
<no-speech>
[425.995]
<no-speech>
[430.615]
<no-speech>
[431.875]
o <no-speech> kumusta naman no'ng nag-ano ka nag-audition ka <breath> <int>
[436.495]
<no-speech>
[438.215]
ha
[440.755]
<no-speech>
[443.005]
'yong <no-speech> ano no no
[445.325]
<no-speech>
[449.465]
<hes> ikaw nga dumalaw dito <breath> oo
[453.665]
<no-speech>
[456.305]
<no-speech>
[457.725]
<no-speech>
[458.955]
<laugh> ha <no-speech> oo malaki na rin
[463.665]
<no-speech>
[465.975]
ha
[467.245]
<no-speech>
[468.295]
<hes> oo <hes> <no-speech> ayos naman na rin
[472.355]
<no-speech>
[473.295]
<no-speech>
[474.035]
<no-speech>
[474.985]
ay nga pala ano kumusta <no-speech>
[478.075]
tumawag sa akin 'yung <no-speech> tumawag sa akin 'yong nabuntis mo <no-speech> nagagalit sa 'yo
[485.135]
<no-speech>
[486.465]
ayaw mo raw panagutan <laugh> hello <int>
[495.045]
<no-speech>
[496.205]
o
[498.535]
<no-speech>
[500.435]
ilan <hes> ilan na ba ang inabot 'di ba tren <hes> trenta dati 'yan a
[506.835]
<no-speech>
[508.755]
'di <hes> 'di ba ba trenta dati 'yan nu'ng iniwan ko
[512.055]
<no-speech>
[513.654875]
'di ba trenta 'yan a nu'ng iniwan ko sa 'yo
[515.814875]
<no-speech>
[516.965]
trenta nu'ng iniwan ko sa 'yo
[519.865]
<no-speech>
[521.505]
ah ay ilan na lang ngayon
[523.875]
<no-speech>
[525.085]
ilan na bawas
[526.075]
<no-speech>
[527.305]
<no-speech>
[531.305]
<no-speech>
[532.385]
<laugh> <hes> di
[535.725]
<no-speech>
[537.345]
<hes> kapag na <hes> nasagasaan <hes> hayaan mo na <no-speech> ha
[540.875]
<no-speech>
[543.575]
ha <sta> beynte-singko na lang
[546.885]
<no-speech>
[548.005]
kaila ba birthday mo <no-speech> kailan 'yong birthday mo
[551.895]
<no-speech>
[554.505]
ah
[556.555]
<no-speech>
[557.995]
kakaunti naman ng <no-speech> kakaunti naman <breath> <no-speech> hello
[563.815]
<no-speech>
[565.325]
<no-speech>
[567.105]
<no-speech>
[568.285]
pagka <no-speech> pagka nalipat na rito pa- pakatay mo 'yong dalawa tapos magdala ka ng karne <no-speech> <int> hello
[575.625]
<no-speech>
[576.535]
<no-speech>
[577.975]
<no-speech>
[580.025]
ha <no-speech> <int> oo <no-speech> <int> oo natabing mask
[589.605]
<no-speech>
[591.645]
hello
[592.785]
<no-speech>
[593.665]
o nasa Dimas
[594.935]
<no-speech>
[596.075]
una tabi mas
[599.375]
<no-speech>
[599.76]
