[0.0]
<no-speech>
[0.065]
<no-speech>
[1.655]
<no-speech>
[2.725]
<int> hello wala
[6.935]
<no-speech>
[8.495]
wala <no-speech> <int> o <no-speech> ano pumunta ka ba <no-speech> pumunta ka bumalik ka <no-speech> ha <no-speech> bumalik ka ba ulit kina Pie
[17.865]
<no-speech>
[20.545]
hello
[21.325]
<no-speech>
[22.425]
hindi ka na pumunta
[23.575]
<no-speech>
[24.555]
hello <no-speech> <int> bumalik ka ba ulit <no-speech> <int> hindi na
[28.125]
<no-speech>
[30.995]
kailan <no-speech> <int> kanina
[33.375]
<no-speech>
[34.555]
nag- <no-speech> <int> nag-text ka kay ano kay Nympha na hindi ka na pupunta
[38.515]
<no-speech>
[41.305]
ha
[41.895]
<no-speech>
[43.125]
<int> o <no-speech> <int> <hes> sila ano <no-speech> hindi nga ako nakabalik 'di ba graduation kasi sa Magsaysay ng kambal <int>
[52.065]
<no-speech>
[53.655]
<hes> sila Bebe natuloy <int>
[55.365]
<no-speech>
[56.625]
<sta> ah <hes> sila Bebe anong balita nakapunta <no-speech> sila Bebe nakapunta
[65.335]
<no-speech>
[67.545]
o <no-speech> si Tess din
[69.505]
<no-speech>
[71.845]
ah <no-speech> si si Tess nagpunta rin <no-speech> <int> si Tess
[76.515]
<no-speech>
[81.045]
<int> mhm <hes> iyong jowa mo <laugh>
[85.785]
<no-speech>
[86.635]
<int> oo
[90.275]
<no-speech>
[91.965]
<hes> si ano <no-speech> si Edward nakarating
[94.495]
<no-speech>
[98.275]
<int> ah hindi ka pa nag-te-text kahit sino sa kanila wala ka pang naano <no-speech> pupunta ka ba kay ano kay Raymond <int>
[103.465]
<no-speech>
[106.095]
<int> oo pupunta ako <no-speech> pumayag <no-speech> pumayag na ang asawa mo
[111.785]
<no-speech>
[112.895]
<sta> ha
[114.875]
<no-speech>
[116.365]
pupunta 'yon <sta> oo sabi niya oo
[123.965]
<no-speech>
[124.885]
kasama mo asawa mo
[126.205]
<no-speech>
[127.815]
ikaw na 'yan <laugh> ikaw na 'yan kasama mo siya
[131.285]
<no-speech>
[134.725]
bakit
[135.415]
<no-speech>
[137.895]
bakit hindi kasama
[139.185]
<no-speech>
[144.625]
ah
[145.605]
<no-speech>
[147.735]
oo ewan ko basta 'pag ako isasama ko siya <hes> gusto ring namang sumama noon <hes>
[155.855]
<no-speech>
[157.295]
payag naman siyang sumama Bing
[158.905]
<no-speech>
[161.145]
kaya nga isasama ko siya para makapunta ako
[164.345]
<no-speech>
[166.535]
'di ba para kumpleto attendance
[168.525]
<no-speech>
[170.155]
o 'di ba o anong paanong nag-top iyong anak mo <no-speech> nagpakain ka <no-speech> nagpakain ka bakit
[182.055]
<no-speech>
[182.605]
<no-speech>
[183.775]
hoy grabe ka naman bakit naman
[185.755]
<no-speech>
[188.545]
ay
[189.415]
<no-speech>
[193.275]
binigyan mo
[195.435]
<no-speech>
[197.855]
ha niregaluhan mo
[199.905]
<no-speech>
[201.705]
<laugh> ang kuripot nito
[204.665]
<no-speech>
[205.725]
<laugh> anong grade na ng anak mo <no-speech> anong section
[211.315]
<no-speech>
[214.095]
anong section mo <sta> Paul
[216.735]
<no-speech>
[218.165]
<int> wala kami pinasa
[221.195]
<no-speech>
[223.215]
bakit anong average
[225.625]
<no-speech>
[226.775]
hala (()) taas niyan sana ikinard na <no-speech> ang laki ng itinaas niya
[233.165]
<no-speech>
[234.385]
oo 'di mabuti
[237.415]
<no-speech>
[240.195]
magaling magaling teacher niyang na sa section na mataas
[244.345]
<no-speech>
[246.325]
ah
[247.145]
<no-speech>
[249.015]
ah 'di mabuti
[252.565]
<no-speech>
[253.395]
maganda
[255.815]
<no-speech>
[256.725]
<no-speech>
[257.095]
<no-speech>
[258.635]
<laugh> oo ang laki ng itinaas noon ha ano gang naging average niya
[263.515]
<no-speech>
[265.295]
anong average niya
[266.405]
<no-speech>
[267.295]
aba mataas ha o aba matalino pala si Sebastian ha 'di mana kay Oya <laugh>
[274.895]
<no-speech>
[276.175]
saka
[276.875]
<no-speech>
[279.535]
<laugh> ay di laking tuwa ng papa niyan
[283.975]
<no-speech>
[284.825]
<no-speech>
[285.185]
<no-speech>
[286.105]
'di laking tuwa ng papa niya
[287.755]
<no-speech>
[289.805]
laking tuwa ng papa niya 'di ba 'di ba sinong kasama niyang kumuha ng card ikaw lang
[296.995]
<no-speech>
[299.485]
sinong kasama niyang kumuha ng card <int>
[303.225]
<no-speech>
[304.125]
<sta> mhm (())
[311.625]
<no-speech>
[313.565]
<sta> ha
[322.335]
<no-speech>
[323.785]
saan banda doon
[324.875]
<no-speech>
[328.825]
oo
[329.575]
<no-speech>
[333.315]
pangalawa sa kuwan <int> anong pangalan ng teacher
[337.285]
<no-speech>
[338.515]
(()) teacher niya <sta>
[343.885]
<no-speech>
[347.835]
ha <int> anong pangalan ng teacher niya
[350.605]
<no-speech>
[354.685]
oo
[355.625]
<no-speech>
[359.655]
<no-speech>
[360.005]
<no-speech>
[361.305]
o
[361.935]
<no-speech>
[363.675]
kung hindi mabait mabait iyong nasa section A mabait iyong teacher na 'yon
[370.135]
<no-speech>
[371.515]
magaling magturo din 'yon magaling din magturo ang teacher na 'yon
[376.125]
<no-speech>
[378.285]
iyon nga lang may pagkaestrikta 'ata 'yon <hes>
[380.995]
<no-speech>
[383.045]
ate i-text mo ako kapag pupunta ka kay Edward ha saka ano ha kay Raymond ha
[388.105]
<no-speech>
[389.235]
ha ano na
[391.385]
<no-speech>
[392.305]
sasabay tayo ulit sabay tayo ulit sabay tayo ulit
[396.205]
<no-speech>
[397.555]
<no-speech>
[397.975]
<no-speech>
[399.175]
ha sila Onsoy anong sabi sa iyo
[402.575]
<no-speech>
[405.335]
anong sabi sa iyo ng asawa mo
[407.905]
<no-speech>
[413.615]
magkano dinagdag mo
[416.005]
<no-speech>
[417.115]
magkano idinagdag mo
[418.315]
<no-speech>
[419.125]
'di ka naman ano kinotong noong taxi
[421.465]
<no-speech>
[423.195]
ha o talaga <laugh> taxi lang ha hindi ka naman pinagalitan ng asawa mo hindi ka naman pinagalitan ng asawa mo
[433.195]
<no-speech>
[434.395]
<hes> 'yong tatay mo <int> <hes> gabi ka na lang kaya umuwi
[436.875]
<no-speech>
[439.705]
mhm <hes> si Sebastian tulog na
[444.005]
<no-speech>
[446.145]
<laugh> matanda ka na pero nagmamadali ka pa ring umuwi ha
[451.365]
<no-speech>
[452.835]
<no-speech>
[453.465]
<no-speech>
[454.885]
matanda ka na pero nagmamadali ka pa ring umuwi ha
[460.265]
<no-speech>
[461.755]
bakit
[462.985]
<no-speech>
[467.065]
<hes> 'di sa susunod isama mo na <sta> isama mo kina ano kina Raymond sama mo kina Raymond
[474.335]
<no-speech>
[477.845]
<hes> 'andoon naman ang anak ni Ate Emma <hes> Melanie
[480.925]
<no-speech>
[482.415]
<sta> 'andoon 'yong anak ni Len <hes> 'di may kalaro siya oo <hes> alam mo naman iyong anak ni Len makulit din 'yon may pagkamaton din 'yon <hes> o ayaw mo no'n bonding sila
[494.075]
<no-speech>
[496.385]
<no-speech>
[500.675]
<no-speech>
[501.905]
<laugh> naku sana tuloy-tuloy na 'yan no
[508.915]
<no-speech>
[510.855]
<no-speech>
[511.715]
<no-speech>
[513.915]
sana tuloy-tuloy na 'yong ano ni Raymond 'yan pa man din kapag mababa ang sahod inaayawan kaagad
[520.255]
<no-speech>
[523.735]
<no-speech>
[525.725]
<no-speech>
[527.365]
<no-speech>
[527.725]
<no-speech>
[529.275]
<no-speech>
[529.625]
<no-speech>
[530.545]
o
[532.855]
<no-speech>
[534.135]
<no-speech>
[534.815]
<no-speech>
[537.265]
<hes> 'di <hes> bakit 'di ka pa bakit wala ka pa balita kay ano
[541.425]
<no-speech>
[542.315]
kay Tess
[543.645]
<no-speech>
[544.945]
ba't wala ka pa ring balita kina Tess
[546.785]
<no-speech>
[547.645]
ba't wala kang balita
[549.825]
<no-speech>
[553.755]
ah hindi ka na nagba- nag-o-open sa F_B niya hindi nag-co-comment
[557.935]
<no-speech>
[560.015]
hindi ka nag-co-comment
[561.285]
<no-speech>
[562.295]
'di mo alam kong matutuloy o hindi kasi
[565.285]
<no-speech>
[566.225]
<hes> kasi sabi nila 'di ba mag-o-overnight sila do'n
[570.855]
<no-speech>
[572.965]
<no-speech>
[573.315]
<no-speech>
[575.205]
<no-speech>
[575.885]
<no-speech>
[577.805]
<no-speech>
[578.295]
<no-speech>
[580.785]
sinong kasama mo diyan
[581.995]
<no-speech>
[583.545]
'yong tao mo
[584.605]
<no-speech>
[587.975]
ah <hes> si Sebastian
[591.865]
<no-speech>
[594.135]
uwi ba kayo sa ano
[595.515]
<no-speech>
[596.715]
<int> ah <no-speech> mhm kuwan
[600.0]
