[0.0]
<no-speech>
[0.365]
<no-speech>
[4.085]
<no-speech>
[5.455]
hello <int> hello
[8.635]
<no-speech>
[9.525]
oo pre (()) kumusta <no-speech> ayos lang
[18.915]
<no-speech>
[20.065]
<sta> ikaw okey lang anong balita ha
[25.595]
<no-speech>
[27.465]
ano
[31.175]
<no-speech>
[32.524875]
<no-speech>
[32.955]
<no-speech>
[34.435]
oo balita ko dito nakatayo balita chickboy ka daw A
[45.375]
<no-speech>
[46.875]
<sta> babaero ka daw ah <no-speech> babaero ka daw ah <no-speech> hello
[57.815]
<no-speech>
[61.495]
ako dapat bigyan mo <hes>
[62.945]
<no-speech>
[64.525]
<no-speech>
[66.725]
<no-speech>
[69.185]
<sta> ikaw ikaw ang marami
[72.055]
<no-speech>
[74.385]
sus maraming mga mas bata diyan <int> (())
[84.175]
<int> ano bigayan tayo bigayan tayo
[95.755]
<sta> o sige <no-speech> bigyan mo 'ko bigyan kita
[104.325]
<no-speech>
[106.615]
<int> oo o (()) 'no wala na
[117.905]
<no-speech>
[119.955]
sa eskuwelahan na hindi ano sa tingin mo saan ka nag-aaral <int> ha
[128.444875]
<no-speech>
[129.635]
<no-speech>
[130.905]
<no-speech>
[132.295]
<sta> Apol basta i-te-text kita
[141.105]
<no-speech>
[142.055]
anong ginagawa mo Eric nagtatrabaho ba ano ah kapal ka
[153.945]
<sta> tambay ka muna
[155.755]
<no-speech>
[157.035]
<int> sabay mo sa McDo <no-speech> ha
[163.745]
<no-speech>
[165.205]
<sta> ano
[166.605]
<no-speech>
[168.535]
<int> sa McDo nga <int>
[172.585]
<no-speech>
[174.185]
<no-speech>
[176.485]
<no-speech>
[177.405]
<sta> ano
[179.215]
<no-speech>
[181.505]
<int> <laugh> ano lakasan mo boses mo <no-speech> 'di kita maintindihan
[193.265]
<int> graduating ka na Tonette 'di ba ha
[205.235]
oo dapat (()) O_J_T
[209.505]
<no-speech>
[211.005]
<sta> ano
[222.285]
<no-speech>
[224.825]
<no-speech>
[226.005]
<int> ano ano ano <no-speech> ano
[237.265]
<no-speech>
[239.075]
<no-speech>
[240.765]
<no-speech>
[241.125]
<no-speech>
[243.415]
'di pa next sem pa or kaya summer
[245.965]
<no-speech>
[247.305]
<sta> oo
[251.355]
<no-speech>
[252.885]
summer ko
[253.725]
<no-speech>
[255.235]
oo <sta>
[258.095]
<no-speech>
[259.184875]
oo para (()) <hes> ano
[266.325]
<no-speech>
[267.125]
oo dalawang subject na lang ako ngayong sem <hes> <no-speech> o sige po pasok ako sa San Miguel
[278.245]
o sige <sta> <no-speech> sige <no-speech> magkitaan tayo do'n
[289.785]
halos
[291.295]
<no-speech>
[293.495]
sige sige
[295.365]
<no-speech>
[296.725]
oo
[297.625]
<no-speech>
[298.975]
<no-speech>
[300.105]
<no-speech>
[301.565]
sige diskartehan na lang doon
[304.445]
<no-speech>
[305.365]
<no-speech>
[305.905]
<no-speech>
[307.275]
(())
[310.395]
<no-speech>
[315.025]
ikaw din <hes> (())
[316.995]
<no-speech>
[318.965]
ano
[320.435]
<no-speech>
[321.315]
ano <no-speech> ano ano
[324.145]
<no-speech>
[325.035]
anong tunog
[327.885]
<no-speech>
[328.855]
<sta> may umuungol walang umuungol dito
[331.635]
<no-speech>
[333.415]
<no-speech>
[333.885]
<no-speech>
[334.745]
<sta> walang umuungol dito
[338.115]
<no-speech>
[339.085]
<no-speech>
[340.045]
<no-speech>
[341.835]
ano
[342.495]
<no-speech>
[345.945]
malaki na raw si Carla
[347.155]
<no-speech>
[351.655]
<no-speech>
[352.305]
<no-speech>
[353.985]
laki ano
[354.855]
<no-speech>
[356.525]
<no-speech>
[356.875]
<no-speech>
[358.495]
<sta> oo
[362.425]
<no-speech>
[364.245]
ano
[365.475]
<no-speech>
[367.275]
<no-speech>
[369.195]
<no-speech>
[370.835]
ano <sta>
[373.895]
<no-speech>
[374.805]
ano 'di kita maintindihan
[377.515]
<no-speech>
[379.535]
hello oo
[381.425]
<no-speech>
[382.225]
<int> hello
[385.475]
<no-speech>
[388.065]
ano
[389.565]
<no-speech>
[390.405]
delayed ka pre delayed
[392.485]
<no-speech>
[394.755]
<no-speech>
[395.125]
<no-speech>
[397.675]
<no-speech>
[398.595]
<no-speech>
[400.125]
<int> ano <no-speech> delay ka delay delay ka na delay
[406.005]
<no-speech>
[406.895]
choppy ka na
[407.765]
<no-speech>
[409.365]
<sta> oo oo naririnig kita
[418.915]
<no-speech>
[420.225]
ano
[420.965]
<no-speech>
[423.765]
hello
[424.365]
<no-speech>
[425.425]
ano
[428.765]
<no-speech>
[430.215]
wala akong na intindihan
[433.035]
<no-speech>
[435.005]
<no-speech>
[435.965]
<no-speech>
[436.875]
wala (()) wala akong na intindihan
[438.975]
<no-speech>
[439.785]
<no-speech>
[442.315]
<no-speech>
[445.875]
oo
[447.535]
<no-speech>
[450.665]
ha
[451.185]
<no-speech>
[452.085]
<no-speech>
[452.465]
<no-speech>
[457.905]
ano wala tulog kain alis
[461.725]
<no-speech>
[462.945]
(())
[463.995]
<no-speech>
[465.665]
kain <no-speech> kain tulog alis <int>
[470.415]
<no-speech>
[473.465]
ano
[474.045]
<no-speech>
[475.595]
kain tulog alis lang
[477.125]
<no-speech>
[479.585]
ang hirap kaya noon
[480.715]
<no-speech>
[482.945]
mahirap iyon
[484.745]
<no-speech>
[485.655]
ikaw ba naman laging matulog at laging kumain at laging umalis <hes>
[490.355]
<no-speech>
[493.335]
<no-speech>
[495.125]
<no-speech>
[496.245]
sobrang hirap kaya noon
[497.925]
<no-speech>
[499.425]
<no-speech>
[499.865]
<no-speech>
[502.205]
ano
[502.865]
<no-speech>
[504.255]
yo
[508.125]
<no-speech>
[509.955]
ano siguro nawawala ang payong (())
[513.084875]
<no-speech>
[517.024875]
'di mo maintindihan
[518.235]
<no-speech>
[524.695]
naghahanap nga ako <hes> kaya nga ako natutulog kumakain at umaalis <hes> naghahanap din ako <hes>
[529.305]
<no-speech>
[535.835]
wala pa nga <hes>
[536.805]
<no-speech>
[542.005]
<no-speech>
[542.625]
<no-speech>
[545.085]
hello
[545.825]
<no-speech>
[546.935]
ano pare <no-speech> hello <int>
[555.125]
<no-speech>
[556.415]
hello
[557.075]
<no-speech>
[559.105]
<no-speech>
[559.955]
<no-speech>
[562.335]
<int> hello
[565.195]
<no-speech>
[565.995]
<no-speech>
[568.055]
<no-speech>
[569.185]
ano na pare <no-speech> may laro daw ba mamaya
[574.765]
<no-speech>
[578.855]
may laro daw ba mamaya
[580.145]
<no-speech>
[581.205]
<no-speech>
[582.105]
<no-speech>
[583.755]
may laro ba ako
[585.045]
<no-speech>
[589.445]
lalaro ba ako
[590.555]
<no-speech>
[591.975]
kailangan daw ako
[595.285]
<no-speech>
[597.045]
<no-speech>
[597.275]
<no-speech>
[599.98]
