[0.0]
<no-speech>
[5.955]
hello <int> <no-speech> hello
[7.945]
<no-speech>
[9.535]
hello
[10.175]
<no-speech>
[11.565]
tayo na
[12.315]
<no-speech>
[14.825]
oo
[15.385]
<no-speech>
[16.265]
tayo na
[17.065]
<no-speech>
[19.625]
kailan
[20.435]
<no-speech>
[21.865]
<int> kailan
[23.195]
<no-speech>
[24.415]
<no-speech>
[25.025]
<no-speech>
[25.925]
saan naman do'n
[27.105]
<no-speech>
[32.505]
bukas umaga mga six
[35.225]
<no-speech>
[37.785]
oo mga six
[38.725]
<no-speech>
[40.565]
<no-speech>
[40.915]
<no-speech>
[41.815]
mga six nga <no-speech> oo six
[43.765]
<no-speech>
[46.215]
punta tayo do'n <no-speech> sinong pupuntahan natin do'n
[48.675]
<no-speech>
[51.725]
<sta> sinong pupuntahan natin do'n
[55.575]
<no-speech>
[58.075]
<no-speech>
[58.475]
<no-speech>
[59.705]
sa <no-speech> oo may pasok si Landin <sta> <hes> <no-speech> oo
[65.755]
<no-speech>
[66.725]
oo mukhang may pasok
[68.015]
<no-speech>
[69.255]
<no-speech>
[69.625]
<no-speech>
[73.005]
tanungin n'yo si Ana <sta> <no-speech> anu-ano anu-ano anu-ano <no-speech> iba na bahay nila Olin
[81.865]
<no-speech>
[84.245]
ano
[84.975]
<no-speech>
[85.855]
<no-speech>
[86.595]
<no-speech>
[90.095]
nasaan na saan ba bahay nila
[92.495]
<no-speech>
[94.435]
saan na sila nakatira
[95.965]
<no-speech>
[102.625]
hello
[103.245]
<no-speech>
[106.875]
(())
[107.815]
<no-speech>
[109.295]
(())
[114.785]
<no-speech>
[116.955]
<sta> sige alam ko na 'yon dati tange
[120.145]
<no-speech>
[121.765]
doon na sila nakatira dati <hes>
[123.555]
<no-speech>
[125.265]
<no-speech>
[126.125]
<no-speech>
[129.165]
hindi pa <no-speech> sinabi niya lang <int>
[132.355]
<no-speech>
[133.525]
<no-speech>
[134.015]
<no-speech>
[135.495]
<sta> <hes> saan tayo pupunta roon
[139.405]
<no-speech>
[141.885]
<no-speech>
[142.335]
<no-speech>
[144.825]
hello
[145.475]
<no-speech>
[148.535]
ulit
[149.405]
<no-speech>
[150.475]
sa printer sa Boni
[152.515]
<no-speech>
[155.225]
sa Boney
[156.145]
<no-speech>
[157.825]
oo sa Boney <sta>
[161.055]
<no-speech>
[163.775]
<sta> na ano <no-speech> sa Boney nga
[171.425]
<no-speech>
[172.685]
<no-speech>
[173.035]
<no-speech>
[174.005]
<no-speech>
[174.495]
<no-speech>
[176.235]
<hes> lang malapit lang diyan sa may ano <no-speech> sa may highway <no-speech> sa pinagtatrabahuhan ni Peria kilala of si Thelna
[185.505]
<no-speech>
[186.405]
kilala mo si Perla <sta> si Perla
[191.285]
<no-speech>
[193.375]
oo 'yon <no-speech> <sta> do'n do'n ako nagtatrabaho
[198.615]
<no-speech>
[199.425]
oo
[200.135]
<no-speech>
[203.235]
ginagawa <int>
[204.165]
<no-speech>
[206.325]
(())
[207.545]
<no-speech>
[208.885]
<no-speech>
[209.245]
<no-speech>
[212.485]
<no-speech>
[213.245]
<no-speech>
[214.375]
<sta> papainom ka <no-speech> papainom ka <no-speech> papainom ka
[221.475]
<no-speech>
[222.385]
wala nga ako kinikita <hes> ikaw na
[227.445]
<no-speech>
[231.065]
Je magpainom ka
[232.145]
<no-speech>
[232.945]
magpainom ka <sta>
[235.345]
<no-speech>
[238.065]
<hes> anong inumin natin
[239.495]
<no-speech>
[240.465]
<no-speech>
[243.485]
<no-speech>
[245.275]
kahit ano
[246.345]
<no-speech>
[247.415]
ano bang 'yong iniinom nila Joy umiinom ba sila Joy <no-speech> <sta> umiinom ba sila Joy <no-speech> umiinom sila Joy
[254.205]
<no-speech>
[255.135]
<hes> <no-speech> o sige <sta>
[258.765]
<no-speech>
[259.615]
'wag lang Red Horse mahal 'yon
[261.505]
<no-speech>
[265.415]
kahit ano 'wag lang Red Horse <laugh> <int>
[267.835]
<no-speech>
[269.625]
<no-speech>
[270.645]
<no-speech>
[271.675]
<no-speech>
[273.995]
<no-speech>
[275.105]
<sta> sino <no-speech> sino si Joy Joy gabi na <hes>
[284.795]
may pasok kaya si Rayeen bukas <no-speech> <sta> si Rayeen nag-aaral daw siya <hes> <no-speech> nag-aaral daw siya <no-speech> nag-aaral daw siya
[295.865]
<no-speech>
[297.185]
kaya nga hindi puwede na <hes> ano <sta>
[299.915]
<no-speech>
[302.925]
<sta> kaya nga <no-speech> kaya nga <hes> (())
[307.485]
<no-speech>
[309.135]
<sta> ah may trabaho na ako <hes> <no-speech> walang katuparan
[318.535]
<no-speech>
[320.695]
<sta> walang katuparan <laugh>
[326.445]
<no-speech>
[329.345]
<no-speech>
[329.875]
<no-speech>
[331.095]
<no-speech>
[331.905]
<no-speech>
[332.745]
<no-speech>
[333.185]
<no-speech>
[336.025]
<no-speech>
[336.835]
<no-speech>
[339.065]
saan nag-aaral
[340.145]
<no-speech>
[342.275]
saan saan <no-speech> saan ka nag-aaral
[344.735]
<no-speech>
[348.955]
<no-speech>
[349.515]
<no-speech>
[350.385]
<int> nakaisa muntik na <hes>
[352.135]
<no-speech>
[354.415]
si Raiza bibihis na
[355.865]
<no-speech>
[357.765]
kasama mo si Raiza
[359.015]
<no-speech>
[360.555]
si Raiza
[361.515]
<no-speech>
[362.935]
<hes> bibihis na
[364.275]
<no-speech>
[366.485]
bibihis na
[367.635]
<no-speech>
[370.655]
<no-speech>
[372.315]
<no-speech>
[374.865]
<hes> manganganak na <hes> si Lorie <no-speech> manganganak na <no-speech> manganganak na
[384.565]
<no-speech>
[385.615]
<no-speech>
[386.175]
<no-speech>
[387.065]
<laugh> hayaan mo sila hayaan mo sila mag-promise sila
[393.305]
<no-speech>
[395.725]
<no-speech>
[396.685]
<no-speech>
[398.525]
baliw <laugh>
[400.465]
<no-speech>
[402.305]
<hes> ba't ikaw <no-speech> napa'no
[404.905]
<no-speech>
[405.975]
nasa'n ka na <int> may asawa ka na <no-speech> oo
[409.585]
<no-speech>
[411.735]
may asawa
[412.885]
<no-speech>
[416.155]
asawahin mo na si Joy <no-speech> may asawa ka na
[420.515]
<no-speech>
[421.595]
may asawa ka na
[422.595]
<no-speech>
[424.385]
si Joy na lang <laugh>
[427.155]
<no-speech>
[428.525]
<laugh> Joy <no-speech> Joy
[432.065]
<no-speech>
[433.905]
oo
[434.665]
<no-speech>
[436.345]
asawahin mo
[437.555]
<no-speech>
[440.355]
sina ano sina Je
[441.785]
<no-speech>
[443.265]
kumusta naman 'yon
[444.315]
<no-speech>
[445.145]
<hes> sina Je <laugh>
[447.265]
<no-speech>
[448.365]
<hes> oo sila sila (())
[449.815]
<no-speech>
[451.845]
may anak na 'yon
[452.935]
<no-speech>
[455.805]
taba na
[456.645]
<no-speech>
[457.475]
sila pa rin <no-speech> sila pa rin ni Mark
[459.205]
<no-speech>
[460.175]
<no-speech>
[460.745]
<no-speech>
[461.915]
sila pa rin ni Mark <no-speech> wala na
[463.995]
<no-speech>
[464.795]
may anak ni si Je
[467.535]
<no-speech>
[468.965]
may anak na 'yon <no-speech> si Je <no-speech> ano
[472.365]
<no-speech>
[473.705]
wala <no-speech> wala <no-speech> akala ko una nabuntis
[477.555]
<no-speech>
[478.995]
akala ko nagbuntis
[482.605]
<no-speech>
[488.035]
si ano <no-speech> si Katrina <no-speech> may number ka
[492.625]
<no-speech>
[494.505]
Katrina <no-speech> Katrina Beatriz Mendoza <laugh> Katrina Beatriz Mendoza
[502.685]
<no-speech>
[503.635]
may number ka no'n
[504.935]
<no-speech>
[507.215]
ano ba 'yan sino lang may number
[509.005]
<no-speech>
[520.014875]
oo nga ako rin tigdadalawa lang <no-speech> kay Raiza <int>
[522.975]
<no-speech>
[525.145]
(()) lang
[526.065]
<no-speech>
[528.805]
si Jehan <no-speech> doon pa rin ba si Jehan
[531.855]
<no-speech>
[534.585]
wala na roon
[535.825]
<no-speech>
[538.705]
may asawa na siya <no-speech> may asawa na siya
[541.925]
<no-speech>
[544.265]
<no-speech>
[544.865]
<no-speech>
[545.935]
pero do'n pa rin nakatira
[547.265]
<no-speech>
[549.625]
doon pa rin nakatira <hes> hindi
[552.845]
<no-speech>
[554.685]
wala man lang ano reunion <no-speech> walang reunion
[558.735]
<no-speech>
[560.625]
walang reunion
[561.755]
<no-speech>
[562.555]
reunion
[564.215]
<no-speech>
[566.185]
ano ba 'yan <no-speech> oo
[568.395]
<no-speech>
[570.785]
<int> <hes> ano <no-speech> hindi ako nakapunta no'ng Halloween nga <hes> buwisit
[575.855]
<no-speech>
[582.465]
kaya nga <hes>
[583.625]
<no-speech>
[584.625]
'andoon 'yong mga classmate ko ano <no-speech> <sta> pumapasok kasi ako no'n <hes>
[590.965]
<no-speech>
[592.005]
naku <hes>
[593.345]
<no-speech>
[599.195]
<no-speech>
[599.405]
<no-speech>
[600.08]
