[0.0]
<no-speech>
[1.895]
hello
[4.795]
<no-speech>
[5.885]
ano ano sabihin mo sa 'kin
[10.305]
<no-speech>
[12.835]
ha
[13.505]
<no-speech>
[15.185]
ano sasabihin mo sa 'kin
[16.795]
<no-speech>
[18.705]
ha
[20.625]
<no-speech>
[22.755]
ano nga
[24.705]
<no-speech>
[27.055]
(()) oo
[29.505]
<no-speech>
[31.925]
ano
[32.565]
<no-speech>
[35.475]
ah
[36.065]
<no-speech>
[36.985]
bakit biglang um-attend
[38.645]
<no-speech>
[41.045]
ha
[41.615]
<no-speech>
[42.735]
masaya kaya 'yong loob ko
[44.205]
<no-speech>
[47.085]
ano ano
[48.475]
<no-speech>
[50.405]
hindi ano lang oo dapat pumunta pala kayo
[58.655]
<no-speech>
[60.685]
akala ko pag-uusapan natin 'yong boss mo
[62.945]
<no-speech>
[65.815]
<no-speech>
[66.275]
<no-speech>
[69.175]
ah (()) sa 'yo
[70.555]
<no-speech>
[73.295]
oo tapos ano na
[75.295]
<no-speech>
[76.335]
(()) ko sa 'yo
[77.715]
<no-speech>
[80.735]
nag-te-text sa 'kin huli lang gano'n lang ano sa 'yo
[84.405]
<no-speech>
[86.775]
ano tinext niya sa 'yo
[88.195]
<no-speech>
[89.425]
ano tinext niya sa 'yo
[92.935]
<no-speech>
[94.395]
<no-speech>
[94.815]
<no-speech>
[97.495]
hello
[98.955]
<no-speech>
[100.915]
hello ano tinext niya sa 'yo
[105.425]
<no-speech>
[107.015]
hello
[107.715]
<no-speech>
[111.965]
ano text niya sa 'yo ni ano ni Carl
[115.565]
<no-speech>
[119.685]
oo ang daya mo ha
[121.865]
<no-speech>
[126.015]
seryoso ka na talaga
[128.944875]
<no-speech>
[131.165]
sekreto n'yo
[132.375]
<no-speech>
[133.435]
<no-speech>
[133.915]
<no-speech>
[137.785]
pakamatay ka na
[138.995]
<no-speech>
[139.865]
wala umaawat
[140.955]
<no-speech>
[143.175]
okey lang
[144.285]
<no-speech>
[145.625]
sige okey lang 'di ka pinipigilan
[148.105]
<no-speech>
[149.255]
sige lang akin na at pag-uusapan natin ng magandang-maganda naman
[154.885]
<no-speech>
[157.585]
ah
[158.185]
<no-speech>
[159.175]
(()) buhay ko life ko
[162.405]
<no-speech>
[163.215]
ah wala 'yun matagal na kami nu'n
[166.985]
<no-speech>
[170.005]
'andiyan ba siya sa labas nakita mo siya sa labas
[172.735]
<no-speech>
[175.785]
nandiyan ba
[176.675]
<no-speech>
[177.575]
ah
[178.585]
<no-speech>
[181.055]
ano sabi sa 'yo
[182.335]
<no-speech>
[185.475]
baka agawin mo sa 'kin 'yun ha
[188.755]
<no-speech>
[190.385]
ah hindi sige okey lang o ano na ano na <int>
[200.065]
ano pag-usapan naman natin tungkol sa buhay mo
[204.125]
<no-speech>
[205.585]
<no-speech>
[206.165]
<no-speech>
[209.395]
ano ba 'yan private talaga oo sino na pag-uusapan natin Kim about kay Kim
[217.325]
<no-speech>
[218.795]
Kim
[219.805]
<no-speech>
[221.675]
bakit
[222.395]
<no-speech>
[224.045]
akala 'yun na ba si Tonet
[226.265]
<no-speech>
[227.875]
akala ko ba ay si Tonet akala ko ba ay si Tonet
[231.355]
<no-speech>
[235.845]
ah pa'no mo na sabi
[237.925]
<no-speech>
[242.795]
oo alam ko (())
[244.115]
<no-speech>
[245.435]
oo
[246.425]
<no-speech>
[248.525]
oo
[249.125]
<no-speech>
[250.535]
oo
[251.305]
<no-speech>
[253.065]
oo
[253.645]
<no-speech>
[255.105]
oo
[256.325]
<no-speech>
[257.885]
oo oo nga 'no tapos 'yong ano kanina nga <hes> 'yun sabi ko sabi ko Keith ano number mo sabi niya
[269.655]
ganda naman nang stocking (())
[272.855]
<no-speech>
[274.195]
sabi ko ah thank you nag-thank you ako sa kanya tapos 'yun
[279.235]
<no-speech>
[280.485]
ano ba kasing galit mo sa kanya bakit ayaw mo na siyang batiin
[283.895]
<no-speech>
[287.375]
ah
[287.965]
<no-speech>
[289.335]
(())
[291.175]
<no-speech>
[293.175]
ah gusto mong
[294.595]
<no-speech>
[296.125]
ah
[296.875]
<no-speech>
[299.895]
ah sige basta ano
[302.585]
<no-speech>
[303.455]
'pag nag-sorry siya batiin mo
[305.305]
<no-speech>
[307.975]
hello
[308.785]
<no-speech>
[311.545]
<no-speech>
[311.915]
<no-speech>
[313.155]
<no-speech>
[313.555]
<no-speech>
[315.095]
<no-speech>
[315.535]
<no-speech>
[317.825]
iwas ka talaga magpapasama ka ba sa 'kin mamaya magpapasama ka
[323.465]
<no-speech>
[326.985]
kaya nga <hes> kung magpapasama ka nga sa 'kin <hes> sasamahan kita
[331.755]
<no-speech>
[333.795]
<no-speech>
[334.175]
<no-speech>
[336.645]
ah si Ren-Ren nasaan
[339.055]
<no-speech>
[341.725]
si Ren-Ren
[342.805]
<no-speech>
[344.225]
si Ren-Ren
[345.225]
<no-speech>
[346.925]
(())
[348.035]
<no-speech>
[349.095]
oo <no-speech> another word
[351.505]
<no-speech>
[353.095]
may mga tao pa diyan
[354.935]
<no-speech>
[355.865]
<no-speech>
[356.265]
<no-speech>
[359.545]
nandito lang ako sa bahay namin at saka 'wag ka na magtanong okey oo nga ano pa pag-uusapan natin ano pa pag-uusapan natin
[369.925]
<no-speech>
[370.755]
hindi ah about sa Agency okey ano anong umpisa anong umpisa
[379.295]
<no-speech>
[381.515]
<no-speech>
[381.935]
<no-speech>
[383.035]
ano noong bago mo siya na kilala
[386.095]
<no-speech>
[386.915]
paano ko siya na kilala
[388.895]
<no-speech>
[389.855]
ah
[391.205]
<no-speech>
[392.005]
kasi na kilala ko siya nu'ng ano 'di ba tini-text niya si ano si Kim na kunyari hintayin si Carl 'yun 'yun
[403.415]
text si M_J tapos sabi niya sino nag-te-text sa 'yo Ate Kim gumanon siya tapos sabi ko si Carl 'yong ano 'yun nagsinungaling ako tapos 'yun na nakilala ko na siya
[415.395]
<no-speech>
[418.795]
oo 'yun na
[421.435]
<no-speech>
[423.605]
<no-speech>
[424.165]
<no-speech>
[425.265]
(())
[425.855]
<no-speech>
[426.665]
huwag mo ibibigay sa kanya kasi bawal ha
[429.195]
<no-speech>
[430.305]
oo sabihin mo sa kanya sorry ha
[432.275]
<no-speech>
[436.875]
sabihin mo sa kanya sorry ha
[438.735]
<no-speech>
[443.785]
sabihin mo sa kanya sorry ha
[445.625]
<no-speech>
[453.765]
oo
[454.345]
<no-speech>
[455.425]
oo
[456.075]
<no-speech>
[458.315]
huwag mong ibibigay huwag huwag huwag
[461.495]
<no-speech>
[463.085]
huwag mong ibibigay 'yong phone mo (()) ano sabi niya
[470.755]
<no-speech>
[472.795]
anong sabi niya
[476.875]
<no-speech>
[478.795]
sabihin mo sa kanya sorry na
[480.445]
<no-speech>
[481.785]
<int> ano
[484.815]
<no-speech>
[486.555]
<no-speech>
[487.415]
<no-speech>
[489.435]
sige
[489.995]
<no-speech>
[491.485]
sabihin mo nga sa kanya sorry na
[493.225]
<no-speech>
[495.185]
tinatawagan lang
[496.455]
<no-speech>
[502.865]
sabihin mo ako na lang sasama sa kanya mamaya
[505.985]
<no-speech>
[511.305]
<no-speech>
[512.235]
<no-speech>
[514.034875]
ah hayaan mo siya
[516.285]
<no-speech>
[517.555]
<no-speech>
[517.944875]
<no-speech>
[520.014875]
gusto niya 'yan <hes>
[523.805]
<no-speech>
[524.785]
gusto niya 'yan <hes> ayaw makipagbati ayaw makipagbati sa 'kin <hes>
[530.755]
<no-speech>
[533.535]
'wag na 'wag na hayaan mo na siya ayaw niya makipagbati sa 'kin <hes>
[540.905]
<no-speech>
[542.075]
<no-speech>
[542.435]
<no-speech>
[544.215]
basta mag-usap lang tayo mamaya
[547.885]
<no-speech>
[548.745]
sabihin mo sa kanya 'wag muna siyang umuwi paglabas ko na lang
[551.535]
<no-speech>
[554.055]
oo ano
[556.055]
<no-speech>
[557.625]
<no-speech>
[558.005]
<no-speech>
[559.655]
paano ko nakilala
[562.435]
<no-speech>
[564.345]
paano mo nakilala dahil sa 'kin
[568.305]
<no-speech>
[570.375]
'yun na lang sabihin mo sa kanya sabihin mo sa kanya sa 'kin mo nakilala
[575.005]
<no-speech>
[576.545]
oo
[577.145]
<no-speech>
[578.415]
<int> ano
[579.945]
<no-speech>
[585.525]
o ano sabi niya <int>
[589.035]
<no-speech>
[589.845]
wala lang
[590.685]
<no-speech>
[592.775]
wala lang ano lang
[594.205]
<no-speech>
[598.575]
oo sabihin mo sa
[599.98]
