[0.0]
<no-speech>
[0.875]
<no-speech>
[4.845]
<sta> hello 'te hello ate hello
[11.305]
<no-speech>
[12.315]
<sta> hello Rey
[14.315]
<no-speech>
[15.615]
<sta> nasa'n si mama bakit bakit hindi sinasagot ni mama ha
[19.595]
<no-speech>
[21.275]
nag-in <click>
[21.995]
<no-speech>
[23.205]
<sta> bakit
[25.795]
<no-speech>
[27.585]
<sta> kailan iyong salita ko
[29.365]
<no-speech>
[30.455]
parang ako nasa abroad yeah <laugh> (()) iyong nasa Dubai o ano hindi ano <no-speech> nadaya ka tuloy
[41.745]
ilan <int> 'te
[44.305]
<no-speech>
[46.035]
<sta> oo parang ka nga nasa abroad ikaw ako ang nasa abroad ay
[49.545]
<no-speech>
[55.215]
nasa'n ka ba <laugh> <click>
[57.545]
<no-speech>
[58.815]
<no-speech>
[59.985]
<no-speech>
[60.955]
<sta> <laugh> nasa'n si mama bakit 'di na sinagot iyong number
[66.695]
<no-speech>
[68.775]
ha
[69.325]
<no-speech>
[70.905]
<no-speech>
[71.535]
<no-speech>
[72.845]
<sta> nasa'n si mama bakit parang paputol-putol
[76.905]
<no-speech>
[77.775]
<sta> 'di ko na 'ma contact
[79.065]
<no-speech>
[82.585]
Gina
[83.175]
<no-speech>
[84.185]
<sta> ay nandiyan ka sa Camalig marami ka na yata inaani ay <no-speech> nagbibilad ka
[92.095]
<no-speech>
[93.845]
<sta> nagbibilad ka
[94.895]
<no-speech>
[96.605]
<sta> ay wow yummy ano ipapatimbang na oo kakainin <no-speech> ate
[105.235]
<no-speech>
[108.585]
wow <sta> parang naman ang dami niyan
[110.635]
<no-speech>
[114.495]
<sta> <laugh> para meron tayo kakainin ikaw pa ikaw nga maraming pautang
[123.045]
<no-speech>
[124.825]
<sta> ikaw na nga kausap
[134.915]
<no-speech>
[135.715]
<sta> si Allen kailan daw dating <breath> si Allen
[138.605]
<no-speech>
[144.075]
<sta> tinatanong ni Erickson nakita ko si Erickson
[146.545]
<no-speech>
[148.035]
<sta> dito
[148.785]
<no-speech>
[151.795]
<sta> ha
[154.225]
<no-speech>
[155.635]
<sta> hanep ha <no-speech> sa'n ka sasa- ay- kay 'pag punta kang Olongapo
[161.795]
<no-speech>
[162.625]
<sta> ah <no-speech> eight oo
[168.955]
<no-speech>
[171.465]
maka- na namin
[172.715]
<no-speech>
[177.475]
oo
[178.075]
<no-speech>
[181.395]
<no-speech>
[181.845]
<no-speech>
[182.765]
<sta> <hes> hiya na 'yan
[188.955]
<no-speech>
[191.365]
<sta> kailan ang dating ni Allen pagkatapos ng reunion
[194.105]
<no-speech>
[198.565]
<sta> pagkatapos ng reunion dating ni Allen
[200.655]
<no-speech>
[205.475]
<sta> ay naku tapos na nga tapos na nga 'kala ko'y abot pa sa reunion si Allen ay
[213.935]
<no-speech>
[216.465]
<no-speech>
[217.235]
<no-speech>
[218.205]
<sta> ma- <no-speech> mainit mabuti mainit diyan nakakapagbilad ka pa
[222.515]
<no-speech>
[224.235]
<sta> hello
[225.365]
<no-speech>
[227.865]
<sta> ay 'di ano ka diyan
[231.465]
<no-speech>
[232.435]
<sta> papasok-pasok ng binilad
[234.295]
<no-speech>
[236.875]
pabalik-balik na binilad
[238.405]
<no-speech>
[239.765]
<sta> ikaw lang yata pilit na binibilad ah
[243.395]
<no-speech>
[244.715]
marami ka
[246.475]
<no-speech>
[250.855]
ah <laugh>
[252.105]
<no-speech>
[253.965]
ang ingay <sta> ni Keroy si Kerwin iyon
[255.925]
<no-speech>
[263.955]
hiya na 'yan si Kira <click> nasa school
[265.955]
<no-speech>
[270.215]
<hes> kami nga uuwi naman dapat ng katapusan ng Marso <hes> ang dating naman ni Ate Tere ay sa dos pa
[277.565]
<no-speech>
[278.465]
susunduin ko sa airport
[279.935]
<no-speech>
[281.705]
mag-e-e-end ng ano daw
[283.235]
<no-speech>
[284.515]
Ate Cheryl iyong kasama ni kuya
[286.485]
<no-speech>
[288.595]
<sta> 'yong asawa ni kuya pupunta dito F_X lang sasakay ayaw mag-bus <no-speech> oo sabi ni kuya <hes> <no-speech> oo
[299.385]
<no-speech>
[300.205]
tumawag si kuya nu'ng minsan
[302.675]
<no-speech>
[304.735]
for reunion oo
[307.335]
<no-speech>
[308.355]
<hes> <sta> sabi niyan hindi kayo kaagad uuwi kasi hihintayin n'yo pa 'yun
[312.805]
<no-speech>
[314.145]
<hes> kung maigi din naman 'pag ano <no-speech> 'pag na 'andiyan naman gastos din 'yon magkano din diyan
[319.695]
<no-speech>
[322.635]
ha
[323.085]
<no-speech>
[325.755]
oo tumutulong oo
[328.285]
<no-speech>
[329.415]
<sta> kaya nga sabi ko nga be- bago ako
[332.595]
<no-speech>
[333.395]
<hes> <sta> may baboy naman si kuya <hes> sabi nga ni Elvis
[337.415]
<no-speech>
[338.915]
baka nga daw kulangin kasi hindi naman daw kasi 'yon malaki
[342.435]
<no-speech>
[344.145]
<sta> iyong baboy ni kuya may baboy daw si kuya alaga ha
[347.185]
good night
[348.495]
mhm mhm <hes> kulang
[350.925]
okey
[351.795]
<sta> oo may diyan sa tuktok
[354.635]
<no-speech>
[357.065]
ay ewan ko sabi nga ni <no-speech> mhm sabi nga ni Mae 'di naman gastos nang malaki <hes> baka daw kulangin
[364.395]
<no-speech>
[365.265]
<hes> sabi ko 'pag meron pera <hes> 'di padag- dagdagan na lang
[368.785]
<no-speech>
[370.985]
<hes> sabi nga ni mama
[372.125]
<no-speech>
[375.325]
<hes> sabi ko nga kay Mae bago umuwi ay dito na mamili ng gulay doon na lang sa Divisoria sa mga kapatid niya ni Sabado
[385.555]
<no-speech>
[388.865]
para hindi ano <sta> papara makatawad pa may dagdag pa 'yon
[393.885]
<no-speech>
[395.655]
mhm mhm
[396.425]
<no-speech>
[399.275]
<sta> iyon Weng magkano iyong rekado kay Ate Nene naman na daw ang bigas may bigas
[405.735]
<no-speech>
[408.955]
<sta> hayaan mo ay <no-speech> <laugh> naubos na 'yong load <laugh> bakit nandiyan si Kuya Epoy
[415.655]
<no-speech>
[416.735]
<sta> hello
[418.635]
<no-speech>
[419.455]
ay <no-speech> si Ness oo
[422.995]
<no-speech>
[425.215]
nasa'n si Kuya Epoy oo
[427.565]
<no-speech>
[429.355]
ano daw
[430.005]
<no-speech>
[431.055]
<no-speech>
[431.785]
<no-speech>
[433.475]
Epoy sa 'yo iyong bigas
[434.995]
<no-speech>
[438.015]
ilang tupa
[439.175]
<no-speech>
[441.775]
ha hello
[442.785]
<no-speech>
[444.045]
<no-speech>
[444.765]
<no-speech>
[446.635]
<sta> oo pahinging bigas
[449.565]
<no-speech>
[450.475]
<laugh> kumusta <sta> honey
[454.375]
<no-speech>
[456.915]
<laugh> mainit kaya dito dito magandang magbilad
[461.915]
<no-speech>
[462.945]
<sta> diyan nai- naulan
[465.215]
<no-speech>
[467.495]
ay dito init na init
[469.025]
<no-speech>
[471.625]
dami dito pagbibilaran
[473.425]
<no-speech>
[475.265]
<laugh> sabi ko Ate Jo meron na tayong bigas ay
[478.725]
<no-speech>
[479.765]
<laugh> 'pag bibilad
[482.545]
<no-speech>
[484.205]
<sta> sabi ko ingay-ingay ni Kerwin
[487.315]
<no-speech>
[489.555]
paputol-putol
[490.675]
<no-speech>
[493.145]
ayaw ko nga na
[494.395]
<no-speech>
[495.895]
<sta> kaya nga malabo pa ano nasa'n si Kerwin
[500.695]
<no-speech>
[503.475]
na nasa school pa si Kim
[505.095]
<no-speech>
[507.035]
hello
[507.665]
<no-speech>
[509.485]
<sta> nasa'n si Kerwin nasa'n nandiyan kanina nasigaw
[512.295]
<no-speech>
[513.175]
<no-speech>
[513.735]
<no-speech>
[514.735]
ha
[515.434875]
<no-speech>
[517.394875]
<laugh> hiya na 'yan Kerwin <sta> baka mamaya hindi niya kilala 'yong ina niya ano pagdating niya no
[526.165]
<no-speech>
[526.985]
<sta> hello
[529.525]
<no-speech>
[530.645]
ay nakita ko dito si Eric do'n kay Epoy
[533.375]
<no-speech>
[534.985]
<sta> <laugh> sabi ko yehey darating na si Allen sabi niya kailan mag-iinuman ulit tayo sabing gano'n <breath> konting <no-speech> pasalubong mo daw <no-speech> ay hindi naman ako galing abroad
[546.525]
O_A siya <sta> <laugh> niloloko ko si Erickson sabi ko'y magpainom pagdating ni Allen bakit daw siya magpapainom si Allen daw
[555.805]
<no-speech>
[557.235]
<sta> pangit na pangit nga baboy na baboy
[560.005]
<no-speech>
[561.315]
parang ano <hes> itim na itim pa
[563.565]
<no-speech>
[565.975]
<sta> nag-u-unwind din
[568.955]
<no-speech>
[570.035]
nawawala
[571.095]
<no-speech>
[572.005]
hello
[572.665]
<no-speech>
[573.865]
hello
[574.545]
<no-speech>
[575.725]
<hes> ilipat mo kay Ate Luming
[578.105]
<no-speech>
[581.385]
ha
[581.895]
<no-speech>
[583.285]
hello
[584.685]
<no-speech>
[587.085]
ah anong 'yong nakain nga ano daw ay
[590.105]
<no-speech>
[591.635]
napuputol
[593.365]
<no-speech>
[596.375]
pirman
[596.845]
lakas
[598.905]
ah ah
[599.505]
<no-speech>
[599.98]
