[0.0]
<no-speech>
[3.685]
hello
[4.295]
<no-speech>
[5.915]
hello
[6.635]
<no-speech>
[9.295]
hello
[10.055]
<no-speech>
[14.595]
hello
[15.325]
<no-speech>
[20.775]
hindi ikaw
[22.575]
<no-speech>
[26.235]
ika-
[26.655]
<no-speech>
[28.255]
<sta> dito nakahiga
[30.015]
<no-speech>
[31.225]
nag-sa-sound trip
[32.515]
<no-speech>
[34.295]
<int> sa bahay
[35.435]
<no-speech>
[39.105]
ano pangalan mo
[40.405]
<no-speech>
[41.935]
ha
[42.545]
<no-speech>
[46.725]
hindi ko narinig <no-speech> Thea <int> ha
[50.215]
<no-speech>
[52.755]
mhm
[53.345]
<no-speech>
[54.605]
(()) <sta>
[57.025]
<no-speech>
[57.825]
ilan taon ka na
[58.995]
<no-speech>
[60.015]
ha <sta>
[61.085]
<no-speech>
[63.165]
ilan taon ka na
[64.355]
<no-speech>
[66.015]
sixteen
[67.005]
<no-speech>
[71.315]
tanda mo na pala
[72.615]
<no-speech>
[74.435]
<no-speech>
[74.885]
<no-speech>
[76.295]
nag-aaral ka pa <int>
[78.735]
<no-speech>
[81.025]
<no-speech>
[81.405]
<no-speech>
[82.375]
anong year mo na
[83.475]
<no-speech>
[87.775]
ha
[88.345]
<no-speech>
[89.825]
fourth year <no-speech> graduating ka na pala
[93.085]
<no-speech>
[94.115]
<sta> saan saan ka nag-aaral
[97.255]
<no-speech>
[101.165]
ha <click>
[101.765]
<no-speech>
[104.685]
saan <click>
[105.355]
<no-speech>
[106.565]
ah
[107.215]
<no-speech>
[109.455]
<click> anong ginagawa mo ngayon
[111.565]
<no-speech>
[116.855]
nakatayo pa rin
[118.255]
<no-speech>
[121.255]
<no-speech>
[122.065]
<no-speech>
[123.905]
mhm mhm
[124.565]
<no-speech>
[136.245]
<click> ah
[136.885]
<no-speech>
[140.185]
hello <sta> sinong kasama n'yo diyan
[143.665]
<no-speech>
[146.905]
ha <breath>
[147.505]
<no-speech>
[148.795]
mhm <breath>
[149.375]
<no-speech>
[150.825]
<click> 'asaan kayo
[151.855]
<no-speech>
[155.975]
ha
[156.525]
<no-speech>
[159.665]
nasaan
[160.455]
<no-speech>
[162.695]
tabing-bahay
[163.885]
<no-speech>
[166.055]
oo nga sabi ko nga
[167.745]
<no-speech>
[168.685]
<int> 'di pa kayo natutulog
[170.425]
<no-speech>
[171.805]
gabi na ah <click>
[173.435]
<no-speech>
[177.315]
ha
[177.965]
<no-speech>
[180.835]
tulog na
[181.715]
<no-speech>
[183.075]
oo
[183.595]
<no-speech>
[185.005]
ba't ikaw hindi ka pa natutulog
[187.025]
<no-speech>
[191.255]
<breath> 'di ka pa inaantok
[192.635]
<no-speech>
[197.115]
mhm <breath>
[197.935]
<no-speech>
[199.155]
<no-speech>
[201.435]
<no-speech>
[202.895]
ha
[203.535]
<no-speech>
[205.075]
ano
[205.695]
<no-speech>
[207.665]
(())
[208.725]
<no-speech>
[210.305]
co-computer <sta>
[212.105]
<no-speech>
[214.985]
nag-co-computer
[216.285]
<no-speech>
[219.565]
sa shop sa triple H
[221.925]
<no-speech>
[230.945]
<no-speech>
[231.505]
<no-speech>
[239.935]
<breath> nakahinga nga
[241.605]
<no-speech>
[243.865]
nag-sa-sound trip
[244.975]
<no-speech>
[246.295]
sa bahay
[247.285]
<no-speech>
[253.845]
ha <sta>
[255.395]
<no-speech>
[259.345]
anong ikukuwento ko <int>
[260.825]
<no-speech>
[263.455]
ha
[264.065]
<no-speech>
[269.745]
wala
[270.575]
<no-speech>
[272.425]
ikaw bakit ayaw mo magkuwento
[274.375]
<no-speech>
[279.415]
mhm <breath> wala din akong alam <hes> <laugh> <int>
[283.385]
<no-speech>
[284.295]
<no-speech>
[285.095]
<no-speech>
[286.045]
<no-speech>
[286.715]
<no-speech>
[287.665]
<no-speech>
[288.265]
<no-speech>
[289.705]
kumus- kumusta naman 'yong pag-aaral mo
[293.195]
<no-speech>
[296.325]
ha <no-speech> mhm
[298.085]
<no-speech>
[298.955]
honor ka
[299.985]
<no-speech>
[302.465]
ha
[303.065]
<no-speech>
[304.455]
oo talino mo <int> pala <hes>
[306.475]
<no-speech>
[307.495]
<no-speech>
[308.105]
<no-speech>
[309.615]
talino ka pala <hes>
[310.925]
<no-speech>
[315.525]
hello
[316.115]
<no-speech>
[317.695]
hindi ka honor
[318.855]
<no-speech>
[322.515]
sabi mo kanina honor ka
[324.415]
<no-speech>
[329.855]
galing ah
[330.895]
<no-speech>
[335.665]
<no-speech>
[336.055]
<no-speech>
[337.585]
ha
[338.195]
<no-speech>
[339.285]
ano
[339.895]
<no-speech>
[342.035]
hindi na-stop ako <hes>
[343.815]
<no-speech>
[348.915]
<no-speech>
[349.355]
<no-speech>
[351.105]
bakit
[351.865]
<no-speech>
[353.795]
ni stopped ako
[355.015]
<no-speech>
[358.735]
<no-speech>
[359.845]
<no-speech>
[361.465]
mhm
[362.445]
<no-speech>
[366.045]
ano
[366.615]
<no-speech>
[370.325]
<int> nasa bahay nga <hes>
[372.325]
<no-speech>
[373.645]
<no-speech>
[374.465]
<no-speech>
[376.205]
ikaw 'asaan ka
[377.535]
<no-speech>
[381.995]
hello
[382.715]
<no-speech>
[387.055]
hello
[387.695]
<no-speech>
[389.345]
'asaan ka
[390.415]
<no-speech>
[392.075]
'asaan ka 'ka ko
[393.785]
<no-speech>
[395.975]
mhm mhm
[396.615]
<no-speech>
[400.135]
<sta> ba't ayaw mo pang matulog gabing-gabi na kaya <breath>
[408.915]
<no-speech>
[409.975]
<sta> mhm
[411.215]
<no-speech>
[412.935]
<no-speech>
[413.305]
<no-speech>
[415.685]
<no-speech>
[416.105]
para makat-
[417.06]
