[0.0]
<no-speech>
[5.955]
Ito po
[6.865]
<no-speech>
[13.075]
hello po
[13.895]
<no-speech>
[18.305]
sino 'to
[19.085]
<no-speech>
[22.275]
ha
[22.855]
<no-speech>
[24.375]
sandali po <sta> hello
[28.145]
<no-speech>
[30.375]
sino 'to
[31.215]
<no-speech>
[32.355]
bakit
[33.015]
<no-speech>
[38.555]
bakit nag-e-echo
[39.825]
<no-speech>
[42.655]
o nag-e-echo
[43.875]
<no-speech>
[47.775]
mhm <no-speech> hindi <no-speech> pangit
[50.275]
<no-speech>
[53.045]
anong oras ka aakyat <no-speech> pangit
[55.545]
<no-speech>
[56.985]
ha
[57.555]
<no-speech>
[58.785]
<sta> anong oras
[59.525]
<no-speech>
[61.425]
<no-speech>
[62.735]
<no-speech>
[64.885]
'yong iba 'yong iba hindi <no-speech> <sta> 'yong iba nga <no-speech> ang kulit mo
[70.285]
<no-speech>
[71.125]
oo <hes> napuputol 'yong salita utal (())
[74.655]
<no-speech>
[75.475]
<no-speech>
[76.815]
<no-speech>
[82.885]
<laugh> ano
[85.855]
<no-speech>
[86.825]
hindi pa <sta> ha
[90.655]
<no-speech>
[92.205]
hindi pa kumakain naglalaba nga kami
[94.745]
<no-speech>
[95.785]
naglalaba pa kami
[97.175]
<no-speech>
[98.495]
<int> dito-dito ka Omay
[101.815]
<no-speech>
[102.705]
ha
[103.345]
<no-speech>
[104.835]
hindi <no-speech> <sta> naglalaba nga kami
[106.695]
<no-speech>
[107.905]
<sta> naglalaba nga kami
[110.525]
<no-speech>
[111.685]
naglalaba kami naglalaba
[113.585]
<no-speech>
[114.885]
ano oras ka aakyat ala-una na <no-speech> may house ho <no-speech> oo
[118.595]
<no-speech>
[119.905]
pa (()) ka mong salita (())
[121.965]
<no-speech>
[123.265]
<sta> ha
[125.605]
<no-speech>
[128.305]
sino
[129.754875]
<no-speech>
[136.015]
<int> putol-putol naman 'yang salita mo
[138.175]
<no-speech>
[138.985]
putol-putol 'yong sa ano
[140.665]
<no-speech>
[148.745]
pangit ang <no-speech> signal 'di maganda
[151.175]
<no-speech>
[152.445]
putol-putol tapos nag-e-echo pa
[155.045]
<no-speech>
[157.275]
mabuti pa 'yong ano
[158.725]
<no-speech>
[160.365]
oo <sta> <no-speech> saka putol-putol <no-speech> 'di maintindihan <no-speech> hindi maganda ang signal
[165.785]
<no-speech>
[166.745]
re- tignan mo nawaw- <no-speech> <sta> maganda pa 'yong ano
[172.295]
<no-speech>
[175.955]
ha <sta>
[176.545]
<no-speech>
[178.695]
<sta> nawawala ka na
[180.005]
<no-speech>
[181.215]
<no-speech>
[181.585]
<no-speech>
[182.675]
mawawala ka na
[183.835]
<no-speech>
[185.175]
<int> ha
[186.985]
<no-speech>
[190.325]
<no-speech>
[190.675]
<no-speech>
[193.785]
ha <no-speech> sige
[194.845]
<no-speech>
[196.285]
ha <no-speech> nag- <no-speech> nag-ano
[198.555]
<no-speech>
[199.485]
nagpa-gas
[200.315]
<no-speech>
[202.885]
siyempre trenta lang 'yong ginastos mo <hes>
[204.855]
<no-speech>
[207.335]
kaya nga <sta>
[208.145]
<no-speech>
[211.125]
<no-speech>
[211.525]
<no-speech>
[213.765]
magkano binayad sa 'yo
[215.005]
<no-speech>
[216.085]
magkanong binayad sa 'yo
[217.205]
<no-speech>
[218.535]
beynte <no-speech> ha
[220.525]
<no-speech>
[222.415]
student <int> student
[223.665]
<no-speech>
[225.745]
<laugh> <int> negosyo
[228.025]
<no-speech>
[230.455]
beynte-otso
[231.495]
<no-speech>
[233.885]
first year <hes> second year si R_R <hes>
[235.935]
<no-speech>
[239.955]
si Boy iyan
[240.625]
<no-speech>
[241.495]
siyete siyete 'ka mo o 'di <no-speech> seven times four ilan may <no-speech> twenty eight
[246.315]
<no-speech>
[247.315]
seven times o <no-speech> seven times
[249.065]
<no-speech>
[251.965]
<sta> beynte-otso
[256.075]
<no-speech>
[257.215]
o <no-speech> beynte-otso daw <sta>
[259.095]
<no-speech>
[261.684875]
<sta> <hes> dapat 'di na mo sinakay <no-speech> <hes> ang layo-layo mur- mura-mura ng bigay dapat 'di mo na sinakay lugi ka lang do'n
[268.775]
<no-speech>
[269.855]
o <no-speech> 'musta na kung pagbaba mo may pasahero ka <sta>
[274.085]
<no-speech>
[275.155]
<sta> o <no-speech> si awa-awa ka walang mangyayari diyan
[279.715]
<no-speech>
[283.075]
(())
[283.975]
<no-speech>
[285.285]
hindi pa naayos <no-speech> <int> hindi pa naayos
[287.975]
<no-speech>
[289.765]
<sta> hindi pa naayos
[290.835]
<no-speech>
[295.095]
<sta> hindi pa naayos
[296.175]
<no-speech>
[305.175]
<no-speech>
[306.015]
<no-speech>
[307.775]
ha <no-speech> <int> ang tagal-tagal mo naman daw <int>
[311.355]
<no-speech>
[312.365]
magsampay ka na R_R <sta>
[315.405]
<no-speech>
[316.645]
ha
[317.215]
<no-speech>
[318.125]
anong sabi mo
[319.095]
<no-speech>
[325.815]
ha <no-speech> <laugh> wala akong maintindihan
[328.335]
<no-speech>
[335.015]
<sta> (())
[337.225]
<no-speech>
[338.765]
ayan na si R_R
[339.985]
<no-speech>
[340.825]
oo <sta>
[341.465]
<no-speech>
[342.585]
<sta> 'yan lagot ka R_R
[345.235]
<no-speech>
[346.095]
<sta> sige bastos ka <hes>
[348.435]
<no-speech>
[356.085]
'yan si R_R <no-speech> sisigaw-sigaw makulit <sta>
[361.045]
<no-speech>
[362.015]
ha
[362.555]
<no-speech>
[365.325]
kaya nga
[366.055]
<no-speech>
[368.395]
ha
[368.965]
<no-speech>
[370.555]
sa ano <no-speech> sa lumang palengke <no-speech> kila sis ano <no-speech> Lyn
[374.175]
<no-speech>
[376.465]
Labrad Rodel
[377.785]
<no-speech>
[380.355]
sa lumang palengke <sta>
[383.445]
<no-speech>
[385.965]
oo nga do'n nga
[387.025]
<no-speech>
[388.895]
one thirty
[390.015]
<no-speech>
[393.145]
flat <no-speech> oo nga bakit
[394.675]
<no-speech>
[396.885]
oo nga malapit nga lang
[398.425]
<no-speech>
[400.245]
ba't magkano akala mo
[401.605]
<no-speech>
[402.935]
<sta> hindi sa kanila tapos na lahat sa kanila lang hindi pa <hes>
[407.105]
<no-speech>
[409.395]
ha
[410.065]
<no-speech>
[414.735]
sa kanila lang hindi pa <no-speech> kaya nga sa kanila na lang
[418.135]
<no-speech>
[419.625]
sa <no-speech> sa kanila na lang kasi lahat natapos na <hes>
[422.695]
<no-speech>
[426.305]
sila <no-speech> Justia sa atin <no-speech> sa atin 'yong huling household <hes>
[430.795]
<no-speech>
[431.995]
tapos 'yan sa kanila
[433.345]
<no-speech>
[435.105]
o <no-speech> tapos na nga sa kanila mu- sa kanila naman ngayon
[437.915]
<no-speech>
[439.395]
nagpasikat na naman
[440.895]
<no-speech>
[443.755]
kila <no-speech> sis ma- <no-speech> Madie- ma- ma- <no-speech> Maby <no-speech> diyan sa may Fourteenth Street
[449.875]
<no-speech>
[450.965]
baka daw susunod <int>
[452.505]
<no-speech>
[455.665]
hindi <no-speech> kila sis Alma naman 'yon <hes> <no-speech> may Internet <no-speech> hindi 'yon iba 'yon <no-speech> susunod 'yong sa kanila
[462.745]
<no-speech>
[463.995]
hindi tayo um-attend do'n <no-speech> hindi pa tayo naka-attend
[467.095]
<no-speech>
[468.145]
hindi <no-speech> si sis Almang sinasabi mo
[470.725]
<no-speech>
[472.595]
hindi ka <no-speech> hindi tayo um-attend 'yong asawa niya nasa <no-speech> 'yong asawa niya nasa ano <no-speech> nasa ibang bansa
[479.315]
<no-speech>
[480.585]
diyan sa may Jack's <no-speech> sa may Fourteenth Street 'yon nakatira
[483.475]
<no-speech>
[486.465]
'yong maikli ang buhok <no-speech> <hes> kung minsan um-a-attend kung minsan hindi <sta> <no-speech> kasi ayaw mo <hes>
[492.945]
<no-speech>
[497.165]
ayaw um-attend no'n <hes>
[498.375]
<no-speech>
[500.975]
huh <no-speech> style mo ayaw mo lang um-attend
[503.255]
<no-speech>
[504.215]
huh <no-speech> sabi mo lang ayaw mo dahil ayaw mo um-attend dahil ayaw mo 'yong household leader
[508.835]
<no-speech>
[511.275]
kaya hindi ka um-attend <hes>
[512.564875]
<no-speech>
[515.045]
mhm kaya nga <no-speech> <hes>
[517.444875]
<no-speech>
[518.865]
<sta> kaya nga <hes> ano nga 'yong kung (())
[521.115]
<no-speech>
[522.485]
<hes> <no-speech> dapat matagal ka na <hes> ikaw lang naman ayaw <hes> <no-speech> <hes> ay saka ayaw ko mag-household leader
[527.825]
<no-speech>
[529.555]
ikaw gusto mo ako ayaw ko
[530.975]
<no-speech>
[534.395]
ayaw ko nga
[535.195]
<no-speech>
[536.785]
ayaw kong mag-household leader <sta>
[540.525]
<no-speech>
[542.855]
<no-speech>
[543.235]
<no-speech>
[544.275]
(()) <int>
[545.995]
<no-speech>
[546.835]
o <no-speech> kaya nga <no-speech> kaya nga <no-speech> kaya nga <no-speech> kaya nga <no-speech> tapos
[550.235]
<no-speech>
[551.285]
<sta> kaya nga <no-speech> pero naiinggit ka naman
[554.755]
<no-speech>
[556.835]
oo nga matrabaho nga 'te <no-speech> ib- oo pero naiinggit ka sa 'pag naunahan ka <no-speech> akala mo 'di ko alam <no-speech> inoobserbahan lang kita no
[565.615]
<no-speech>
[566.445]
<int> dapat 'di ka mainggit kung nauna man sila na mga na huli wew
[572.425]
<no-speech>
[583.545]
<no-speech>
[594.665]
(())
[595.375]
<no-speech>
[598.415]
akala mo lang
[599.305]
<no-speech>
[600.46]
