[0.0]
<no-speech>
[8.2825]
<no-speech>
[16.565]
<no-speech>
[17.565]
<sta> (())
[19.775]
Lyn
[20.335]
<no-speech>
[24.985]
<no-speech>
[25.845]
<no-speech>
[27.195]
<no-speech>
[27.695]
<no-speech>
[31.865]
hello
[32.434875]
<no-speech>
[34.445]
<int> hello
[35.025]
<no-speech>
[37.585]
<int> naririnig mo ba ako <breath>
[38.955]
<no-speech>
[41.315]
<breath> hello naririnig mo ba ako
[43.035]
<no-speech>
[44.245]
<no-speech>
[44.935]
<no-speech>
[46.045]
<sta> out
[46.465]
<no-speech>
[47.325]
talaga <breath>
[48.225]
<no-speech>
[49.305]
<hes> baka bingi ka lang <breath>
[51.225]
<no-speech>
[52.175]
hello <breath> <int>
[53.955]
<no-speech>
[55.155]
hello <no-speech> oo kumusta <breath>
[58.665]
<no-speech>
[59.975]
<no-speech>
[60.445]
<no-speech>
[62.555]
hello <breath>
[63.935]
<no-speech>
[64.975]
<no-speech>
[66.165]
<no-speech>
[66.975]
<sta> oo <breath>
[67.735]
<no-speech>
[70.885]
<no-speech>
[71.295]
<no-speech>
[73.105]
hello
[73.675]
<no-speech>
[75.185]
<int> <sta> hello <no-speech> oo <no-speech> hindi mo ako naririnig
[81.005]
tulog <int>
[82.235]
<sta> 'di mo ako naririnig baka bingi ka lang
[84.275]
<no-speech>
[87.125]
'di ka ba bilib <sta>
[88.365]
<no-speech>
[89.325]
ano
[89.915]
<no-speech>
[91.045]
<sta> (())
[91.965]
<no-speech>
[92.865]
baka bingi ka na <int>
[94.445]
<no-speech>
[96.515]
kumusta <int>
[98.585]
<no-speech>
[101.105]
<sta> ah <no-speech> ba't marami ka bang ginagawa
[105.705]
<no-speech>
[108.135]
<sta> okey lang ba't marami ka pa bang ginagawa
[111.475]
<no-speech>
[115.065]
<sta> (()) sila (())
[116.815]
<no-speech>
[118.105]
<sta> simutin mo nga 'yon
[121.205]
<no-speech>
[125.145]
<no-speech>
[125.525]
<no-speech>
[127.685]
<sta> matatag (())
[128.525]
<no-speech>
[129.335]
hello oo hindi <no-speech> 'di ba nasa bahay ka lang 'ata ngayon <hes> <int>
[134.075]
<no-speech>
[135.325]
'di ka ba hindi ka ba
[137.115]
<no-speech>
[138.045]
papasyal
[138.855]
<no-speech>
[143.665]
(()) <sta> ha
[147.015]
<no-speech>
[148.055]
hindi mo marinig <no-speech> ang lakas kaya ng <int>
[150.795]
<no-speech>
[153.005]
<int> ang lakas nga kasi ng boses ko <hes>
[155.705]
<no-speech>
[159.035]
<sta> Legacy
[162.685]
<no-speech>
[167.915]
oo <no-speech> sa'n ka ba nag-aaral <no-speech> hello <sta> sa'n ka ba nag-aaral
[174.755]
<no-speech>
[177.365]
ano 'yon
[178.165]
<no-speech>
[181.325]
<sta> ano 'yan anong anong <no-speech> anong (()) ni kuya
[185.275]
<no-speech>
[187.715]
<no-speech>
[188.785]
<no-speech>
[191.425]
'oy talaga <no-speech> magaling ka talagang magsalita ng Nihongo
[194.905]
<no-speech>
[197.775]
<no-speech>
[198.295]
<no-speech>
[199.515]
<int> ilang taon ka na ba
[201.795]
<no-speech>
[203.065]
<no-speech>
[203.655]
<no-speech>
[205.025]
<int> ano ilang taon ka na ba <laugh>
[208.425]
<no-speech>
[210.035]
<sta> <hes>
[216.395]
<no-speech>
[217.815]
<sta> ayos ah <no-speech> what
[220.245]
<no-speech>
[221.705]
mhm ang init 'no <sta>
[224.205]
<no-speech>
[225.095]
ako <no-speech> <sta> 'oy eto nag-te-text
[229.395]
<no-speech>
[230.295]
<sta> ilan twenty-two
[234.555]
<no-speech>
[237.225]
ikaw <int>
[238.165]
<no-speech>
[239.745]
<no-speech>
[240.505]
<no-speech>
[241.825]
<sta> ah <breath>
[244.505]
<no-speech>
[246.175]
iyon pa <breath>
[246.835]
<no-speech>
[247.705]
eto nakatambay na <breath>
[249.045]
<no-speech>
[250.675]
<no-speech>
[251.105]
<no-speech>
[251.955]
<no-speech>
[252.315]
<no-speech>
[253.955]
hindi <sta> nakatambay nga lang bukas naman ang trabaho <no-speech> Linggo kaya ngayon
[259.375]
<no-speech>
[260.765]
<no-speech>
[261.424875]
<no-speech>
[263.145]
ano <int>
[263.705]
<no-speech>
[265.045]
<no-speech>
[265.415]
<no-speech>
[266.645]
ano <sta>
[268.295]
<no-speech>
[269.725]
hindi naman kasi bukas pa 'ko magsisimula magtrabaho <hes> <sta> <no-speech> at saka walang trabaho ngayon Linggo ngayon <hes> mhm walang trabaho ngayon Linggo ngayon <no-speech> 'di ba bukas pa naman ang
[281.635]
<sta> ano
[283.115]
<no-speech>
[284.765]
hello <sta> kaya nga
[287.215]
<no-speech>
[288.305]
<sta> oo <no-speech> bukas pa 'ko magtatrabaho gaya n'yo 'di ba wala kayong pasok ngayon
[294.255]
<no-speech>
[297.115]
<sta> oo bakit <no-speech> ha
[302.265]
<no-speech>
[303.965]
<sta> <laugh> bakit wala kaming pasok ngayon
[308.185]
<no-speech>
[310.515]
<no-speech>
[312.405]
<no-speech>
[313.715]
<no-speech>
[314.595]
<no-speech>
[316.385]
ano 'yon <sta> mayro'n minsan 'pag kinakailangan
[322.675]
<no-speech>
[324.405]
ingot
[324.765]
<no-speech>
[326.215]
<int> oo <no-speech> ano bang mga sikat na paaralan dito sa <no-speech> sa'n ba 'to
[332.225]
<no-speech>
[333.325]
<cough> hello
[334.625]
<no-speech>
[335.645]
sige <int>
[336.315]
<no-speech>
[337.375]
ah am-
[338.375]
<no-speech>
[339.315]
anong <no-speech> pinakamagandang <int> costume sa school n'yo
[342.645]
<no-speech>
[345.735]
<no-speech>
[346.115]
<no-speech>
[348.415]
<no-speech>
[349.305]
<no-speech>
[350.115]
ano ngang course n'yo
[351.255]
<no-speech>
[352.285]
<no-speech>
[352.855]
<no-speech>
[353.735]
<int> mhm
[355.745]
<no-speech>
[357.005]
sulatan mo nga si (()) <sta> magaling magsalita ng Hapon <no-speech> wikang Hapon
[362.475]
<no-speech>
[365.785]
<no-speech>
[366.715]
<no-speech>
[368.685]
<sta> talaga <no-speech> bakit
[372.615]
<no-speech>
[374.135]
<no-speech>
[375.085]
<no-speech>
[375.945]
piko
[376.425]
<no-speech>
[377.525]
oo <int>
[378.445]
<no-speech>
[379.985]
<sta> an
[383.585]
<no-speech>
[385.275]
kandi ano 'yong kandi
[386.505]
<no-speech>
[388.635]
ano ba 'yon <sta>
[390.525]
<no-speech>
[392.415]
mhm <int>
[393.565]
<no-speech>
[396.665]
ah talaga <no-speech> <int> bilis ah
[398.795]
<no-speech>
[399.675]
parang si Charise
[400.905]
<no-speech>
[402.415]
kapareha lang sila 'di ba <int>
[404.825]
<no-speech>
[406.075]
pareha ba <sta>
[411.455]
<no-speech>
[412.795]
ah talaga <no-speech> ayos ah <sta> parang gusto ko talagang mag-ano mag-aral ng ano <no-speech> talaga iba akala ko ba pareha
[422.045]
<no-speech>
[425.705]
<no-speech>
[427.135]
<no-speech>
[428.275]
<no-speech>
[428.655]
<no-speech>
[429.565]
<int> mhm gano'n din <no-speech> hindi ba puwedeng pare-pareha na lang
[435.855]
<no-speech>
[436.815]
<no-speech>
[437.545]
<no-speech>
[439.515]
<sta> hindi ba puwedeng <no-speech> pareha pareha na lang
[442.665]
<no-speech>
[443.985]
'yong kapareha na lang
[445.215]
<no-speech>
[450.415]
ah
[451.385]
<no-speech>
[453.425]
<cough> ilan ba kayo sa klase n'yo
[455.035]
<no-speech>
[456.045]
<no-speech>
[456.405]
<no-speech>
[458.825]
ilan baga kaklase mo
[460.275]
<no-speech>
[468.675]
<sta> sampu
[471.235]
<no-speech>
[473.265]
ah <sta> ah <no-speech> (()) ayos ah
[480.395]
<no-speech>
[481.485]
kaingat-ingat ka <int>
[483.655]
<no-speech>
[484.485]
si Phillip hinintay n'yo
[485.675]
<no-speech>
[488.975]
<no-speech>
[491.175]
<no-speech>
[492.095]
ano <no-speech> dito ka daw sa labas <hes> <no-speech> labas ng bahay
[496.615]
<no-speech>
[497.625]
ano ano
[498.325]
<no-speech>
[499.605]
<sta> 'di kita marinig
[501.675]
<no-speech>
[502.525]
<no-speech>
[502.875]
<no-speech>
[504.415]
dito
[505.145]
<no-speech>
[509.885]
ako nandito ako sa ano <sta> <no-speech> sa may Cavite
[515.184875]
<no-speech>
[516.404875]
sa may Cavite <int> <no-speech> napakainit nga dito <hes>
[520.805]
<no-speech>
[523.045]
<int> diyan ba sa inyo mainit ba
[525.535]
<no-speech>
[528.485]
kaninang <int>
[530.505]
<no-speech>
[531.315]
kanina ay kanina nga <hes> <no-speech> lakas-lakas ng ulan dito <no-speech> tapos biglang ito ang sobrang init
[539.415]
<no-speech>
[541.085]
'di ko lang
[541.875]
<no-speech>
[543.055]
<no-speech>
[543.905]
<no-speech>
[544.815]
kailan 'yon <int>
[545.985]
<no-speech>
[548.825]
<int> sa inyo <no-speech> wala ng bagyo diyan
[550.705]
<no-speech>
[554.655]
wala bang bagyo diyan
[555.795]
<no-speech>
[558.505]
<sta> sabi ko wala bang bagyo diyan sa inyo
[565.325]
<no-speech>
[567.935]
<sta> bagyo
[569.905]
<no-speech>
[573.265]
<sta> ilang bagyo <no-speech> bagyo bagyo <breath>
[577.525]
<no-speech>
[578.645]
<no-speech>
[579.005]
<no-speech>
[580.385]
<int> sabi ko wala bang bagyo diyan sa inyo
[582.675]
<no-speech>
[583.595]
<no-speech>
[584.085]
<no-speech>
[586.585]
<sta> bagyo bagyo
[589.855]
<no-speech>
[593.725]
<sta> hindi mo marinig
[599.235]
<no-speech>
[599.88]
