[0.0]
ano (())
[2.105]
(())
[4.715]
hello hi
[5.705]
<no-speech>
[7.215]
oo si (()) 'to <int> 'musta
[9.945]
<no-speech>
[11.525]
<int> sa'n ba kayo mare
[13.965]
<no-speech>
[17.145]
nasaan ka ngayon <int> nasaan ka ngayon
[20.255]
<no-speech>
[22.735]
sa
[23.265]
<no-speech>
[26.315]
sa'n ba kayo sa may <int> Fairview ba 'yan
[29.055]
<no-speech>
[30.525]
<int> sa may Fairview ba 'yan (()) 'wag mo ibababa ha tapos 'yong pag-uusapan natin tapos 'yong pag-uusapan natin dapat Tagalog lang
[39.005]
<no-speech>
[40.275]
<sta> ha (()) okey lang medyo ha
[45.485]
<no-speech>
[46.995]
pare
[47.505]
<no-speech>
[48.725]
sabi ko ang pag-uusapan lang natin Tagalog <int> ang pag-uusapan lang natin Tagalog
[53.235]
<no-speech>
[55.615]
ha (()) sa samahan ko rin 'to <hes> <int> ha ha
[63.065]
<no-speech>
[65.305]
ah 'di ito pare itong (()) itong kalye na 'to dapat dire-diretso lang dapat hindi maputol
[73.015]
<no-speech>
[73.885]
<int> ha
[75.775]
<no-speech>
[77.125]
ano
[77.625]
<no-speech>
[79.835]
baka (()) lang pare <no-speech> ano
[83.015]
<no-speech>
[84.715]
basta 'wag mong 'wag mong ibababa ha kailangan <sta> kailangan na natin mag-usap dahil na-miss na rin kita
[90.885]
<no-speech>
[92.585]
ha
[93.095]
<no-speech>
[94.985]
<int> nag-a-apply ka na ba <int> pare nag-a-apply ka na ba
[102.325]
<no-speech>
[103.175]
<no-speech>
[104.075]
<no-speech>
[104.875]
sa'n
[105.375]
<no-speech>
[106.835]
<sta> <hes> pare 'yong mga ano oo 'yong mga dokyumento mo ba ayos na
[113.985]
<no-speech>
[115.715]
<int> pare 'yong mga dokyumento mo sa mga seaman's book meron ka na oo seaman's book meron ka na
[123.165]
<no-speech>
[125.575]
passport meron ka <int> passport meron ka na ayun <hes> pa'no 'yong mga transcript mo meron ka na ba
[133.585]
<no-speech>
[135.155]
<sta> mga transcript mo meron ka na transcript meron ka na
[139.855]
<no-speech>
[141.355]
ano ba transcript of Records sa eskuwelahan sa (())
[144.335]
<no-speech>
[145.465]
<no-speech>
[145.945]
<no-speech>
[147.155]
(()) <int> pare pumunta ka ng Kalaw pare
[151.235]
<no-speech>
[152.635]
(()) brod pumunta ka ng Kalaw <int> mag-apply ka ng cadete kung gusto mo <int> mhm ano ba aaplayan mo ngayon
[164.275]
sa'n ka ba mag-a-apply ng trabaho
[165.795]
<no-speech>
[168.435]
(())
[168.895]
<no-speech>
[170.905]
sa <int>
[171.755]
<no-speech>
[173.195]
Malate <int> anong anong trabahong aaplayan mo <int>
[177.525]
<no-speech>
[180.105]
pare <sta> ha ano mag-aano ka
[185.155]
<no-speech>
[188.095]
(())
[188.705]
<no-speech>
[189.965]
ah mag-u-utility ka rin (()) pare hoy pare mag-apply ka ng pare
[195.935]
<no-speech>
[197.575]
dito ako sa bahay bale lunch break ko ngayon sige po (()) <int>
[202.715]
<no-speech>
[204.175]
saka sa ano ha <int> sa birthday <int> ko ka ha
[207.495]
<no-speech>
[209.535]
sa birthday ko
[210.485]
<no-speech>
[211.945]
sa kaarawan ko
[213.565]
<no-speech>
[215.485]
<sta> pare punta kayo ha ha
[219.075]
<no-speech>
[221.035]
<int> siguro mga February na ang hirap (()) ha
[227.065]
<no-speech>
[228.955]
(()) oo
[230.275]
<no-speech>
[231.365]
<int> ha
[233.655]
<no-speech>
[234.775]
<laugh> gago ka talaga <int> basta pare ha 'pag si ano si (()) <int> si Paulo (()) si Paulo nakita ko sa Kalaw nag-a-apply
[243.955]
<no-speech>
[245.795]
si Paulo Farina
[247.065]
<no-speech>
[248.035]
<int> wala pa si Paulo
[251.065]
<no-speech>
[254.155]
wala pa pare (())
[255.885]
<no-speech>
[257.265]
si Paulo
[257.924875]
<no-speech>
[259.184875]
ano pare kung sakali sinama ka ni Paulo (()) kita
[262.845]
<no-speech>
[264.165]
<sta> marunong ka bang magmaneho ng sasakyan marunong ka bang magmaneho ng kotse marunong ka bang magmaneho ng kotse ha marunong ka
[275.685]
<sta> meron kang ano meron ka bang lisensiya lisensiya meron ka one two (())
[283.025]
<no-speech>
[285.025]
(()) meron ka <int> meron ka nga
[288.605]
<no-speech>
[289.585]
okey 'yon pare kasi kailangan <sta> saglit oo kasi kailangan saglit (()) kailangan sa (()) company kailangan daw magmaneho ng sasakyan
[300.895]
<no-speech>
[303.485]
<no-speech>
[304.645]
<sta> oo kahit sila ano sila pareng (()) ha nakakausap mo ba ha
[311.235]
<no-speech>
[313.075]
meron ka ba
[314.705]
<no-speech>
[315.625]
ha <sta> (()) ko darating birthday ko
[319.755]
<no-speech>
[321.415]
basta pare (()) kita <int> (()) silang puwedeng pumunta si Panjo si Ramos J_R hindi basta pare mag-te-text ako
[332.995]
<no-speech>
[334.015]
<no-speech>
[336.395]
<int> bakit may gagawin ka ba
[338.625]
<no-speech>
[342.795]
<int> puwede pare puwede may pupuntahan <int> ka ba
[346.725]
<no-speech>
[349.255]
<sta> bale bakit kailangan mo malaman 'yong date bakit ba kailangan mo malaman 'yong date may pupuntahan ka ba
[354.815]
<no-speech>
[356.105]
<int> ha
[357.705]
<no-speech>
[358.915]
<sta> sabi ko bakit mo kailangan malaman 'yong (()) ah sabi ko bakit kailangan mo malaman 'yong araw punta ka sa bahay ha
[370.175]
<no-speech>
[371.435]
para
[372.105]
<no-speech>
[378.475]
<int> oo mukha 'atang magsisimula pare ah
[381.085]
<no-speech>
[382.335]
ano bang nilalakad mo ngayon ano bang mga nilalakad mo ngayon <int> ano 'yang mga nilalakad mo ngayon
[390.805]
<no-speech>
[391.675]
<no-speech>
[392.055]
<no-speech>
[393.185]
ha ano 'yang mga inaasikaso mo
[395.425]
<no-speech>
[396.805]
ha
[397.325]
<no-speech>
[402.545]
wow <sta> ano (()) anong mga binebenta mo ngayon pare ano 'yong ano 'yong raket mo ngayon
[412.115]
<no-speech>
[413.045]
ano 'yong raket mo ngayon <int> ha
[417.825]
<no-speech>
[418.955]
<int> mga <int>
[421.345]
<no-speech>
[423.955]
astig ah (()) <int>
[426.265]
<no-speech>
[427.335]
magkano (()) magkano mga nakuha mong mga tubo
[430.195]
<no-speech>
[432.835]
<sta> pare <no-speech> naghahanap ka (()) kumusta na kayo ng ano sa asawa mo (())
[444.445]
sa'n na kayo ng asawa mo <breath>
[445.735]
<no-speech>
[446.895]
<no-speech>
[447.305]
<no-speech>
[448.145]
oo 'di ba (())
[450.445]
<no-speech>
[451.495]
saan
[452.015]
<no-speech>
[453.555]
ano <int>
[455.535]
<no-speech>
[457.255]
<int> (()) may ano
[458.935]
<no-speech>
[459.825]
do'n siya nagtatrabaho <int> oo
[463.775]
<no-speech>
[464.775]
<no-speech>
[465.125]
<no-speech>
[469.745]
grabe ka naman ako pa ang hindi mo ma-contact
[471.965]
<no-speech>
[474.285]
(()) talagang hindi mo ako matawagan pare talagang hindi mo ako matawagan
[481.245]
<no-speech>
[482.065]
<int> (())
[484.845]
<no-speech>
[488.215]
<int> oo <int>
[489.595]
<no-speech>
[491.425]
<int> ano ba ano 'yong cellphone mo
[496.555]
<no-speech>
[498.745]
<int> pare ano bang unit cellphone mo
[502.515]
<no-speech>
[503.565]
<no-speech>
[504.195]
<no-speech>
[506.465]
oo anong unit 'yong cellphone mo <int> ha
[510.935]
<no-speech>
[512.154875]
Samsung ah Samsung okey ah pangmayaman ah ikaw nang mayaman
[518.395]
<no-speech>
[520.245]
ay pare si J_R pala may (()) ano
[523.655]
<no-speech>
[524.635]
ano 'ka mo si pare Balbuena may trabaho na
[528.345]
<no-speech>
[530.165]
saka diyan sa (()) <int> sa may (()) siya nagtatrabaho
[534.745]
<no-speech>
[537.095]
<int> sige pa nga 'ko do'n
[538.445]
<no-speech>
[539.805]
ano pare ano (()) ano 'ka mo <int>
[545.395]
<no-speech>
[550.015]
<no-speech>
[550.365]
<no-speech>
[552.785]
<int> ayun pare kasi kailangan ng 'yong pangalan ng company pare (()) bale shipping company din 'yon 'tsaka kailangan nila 'yong cadete na marunong magmaneho
[564.515]
sakyan <int>
[565.785]
<no-speech>
[566.805]
sabi ko nga akala ko nga si J_R marunong <hes> hindi 'ata marunong magsasakyan 'yon <hes> 'kaw buti 'kaw meron ka ng lisensiya
[573.745]
<no-speech>
[574.555]
baka sakaling maipasok kita do'n (()) 'yong barkada ko (())
[579.085]
<no-speech>
[580.075]
<int> puwede ba 'yong (())
[581.585]
<no-speech>
[582.965]
<int> kaya pare puwede ba 'yang pang-ano
[585.625]
<no-speech>
[586.545]
pangkotse 'yong lisensiya mo <sta> 'yong lisensiya mo ba 'yong lisensiya mo ba puwede pangkotse
[593.975]
<no-speech>
[595.025]
ha
[595.525]
<no-speech>
[597.605]
'yon 'yon
[598.395]
<no-speech>
[599.295]
<no-speech>
[599.705]
<no-speech>
[599.98]
