[0.0]
<no-speech>
[3.785]
hello
[4.435]
<no-speech>
[6.805]
hello <int>
[7.855]
<no-speech>
[9.735]
hello
[10.375]
<no-speech>
[11.315]
<int> oo
[12.155]
<no-speech>
[12.955]
<int> 'musta <no-speech> hello
[15.175]
<no-speech>
[16.045]
oo <int>
[16.845]
<no-speech>
[17.925]
<no-speech>
[18.695]
<no-speech>
[19.615]
J_R <int>
[20.685]
<no-speech>
[23.015]
'musta 'yong ano diyan <int> 'musta 'yong mid-week
[25.735]
<no-speech>
[27.735]
<sta> sino nagturo
[32.434875]
<no-speech>
[34.315]
sino nagturo
[35.155]
<no-speech>
[37.645]
anong topic <sta> anong topic
[41.225]
<no-speech>
[46.835]
ng ano <int>
[47.535]
<no-speech>
[49.535]
ah <int>
[50.465]
<no-speech>
[57.64]
<no-speech>
[64.815]
ang daming um-attend
[65.875]
<no-speech>
[71.145]
'di mo kasama si Anna May
[72.495]
<no-speech>
[76.405]
bakit <int>
[77.365]
<no-speech>
[80.035]
diyan
[80.515]
<no-speech>
[82.845]
ah kaya pala tinext kaya pala tinext ko siya kanina nasa Barangka na daw siya
[88.185]
<no-speech>
[93.085]
<no-speech>
[93.435]
<no-speech>
[94.325]
(())
[95.545]
<no-speech>
[96.555]
sino ang um-attend
[97.625]
<no-speech>
[99.915]
sino lang ang um-attend diyan
[101.325]
<no-speech>
[105.345]
ah <int>
[105.915]
<no-speech>
[115.175]
<no-speech>
[115.525]
<no-speech>
[118.225]
si Bong <int>
[118.945]
<no-speech>
[124.595]
<sta> <hes> si Rich si Rich talaga ha tinext text mo kasi
[130.735]
<no-speech>
[133.315]
oo pa- <sta> para um-attend <hes>
[136.325]
<no-speech>
[137.425]
text mo 'yong ma- <no-speech> text mo 'yong mama Leyn niya
[139.875]
<no-speech>
[141.455]
text mo mama Leyn niya tapos hingiin mo
[143.725]
<no-speech>
[145.655]
wala <sta> hingiin mo kay pastora
[147.935]
<no-speech>
[149.615]
hingiin mo kay pastora
[151.015]
<no-speech>
[152.215]
oo ibibigay 'yon sa 'yo
[154.005]
<no-speech>
[157.405]
Cha <no-speech> <int> si Ate Bing um-attend
[160.075]
<no-speech>
[161.955]
si Ate Bing
[162.925]
<no-speech>
[164.135]
wow first time ha
[165.485]
<no-speech>
[167.185]
sino nagpakanta
[168.335]
<no-speech>
[171.095]
oo si- sino nagpakanta
[172.795]
<no-speech>
[176.645]
hello
[177.245]
<no-speech>
[178.555]
ah <sta>
[180.285]
<no-speech>
[183.475]
meeting na
[184.325]
<no-speech>
[188.075]
ah ano <int>
[188.745]
<no-speech>
[191.855]
ah <int>
[192.605]
<no-speech>
[196.455]
<int> <hes> 'yong oo 'yong ano
[198.495]
<no-speech>
[199.705]
<int> oo 'yon na 'yon 'yong be- be- ice breaker
[204.005]
<no-speech>
[204.995]
oo
[205.755]
<no-speech>
[207.075]
<sta> oo
[208.645]
<no-speech>
[211.425]
hinanap naman ba 'ko
[212.625]
<no-speech>
[214.275]
ha
[214.785]
<no-speech>
[215.975]
hinanap naman ba 'ko
[217.255]
<no-speech>
[223.755]
'asaan ka na ba- <no-speech>
[226.525]
oo <no-speech> aba ang daya niyan
[228.885]
<no-speech>
[233.615]
nasa'n ka na
[234.485]
<no-speech>
[237.415]
nasa'n <int>
[238.065]
<no-speech>
[240.475]
ah 'kala ko pauwi ka na <hes> <sta> 'kala ko pauwi ka na <hes>
[244.635]
<no-speech>
[247.395]
<sta> medyo lang alam ko alas-dose ka umuuwi <hes> <breath>
[251.515]
<no-speech>
[255.375]
<sta> ano alas-onse na lang
[257.245]
<no-speech>
[263.895]
oo <int>
[264.555]
<no-speech>
[269.905]
oo hindi
[270.745]
<no-speech>
[271.705]
<sta> ano
[273.705]
<no-speech>
[277.565]
ano 'yang
[278.915]
<no-speech>
[283.515]
nan- nandiyan si Josaya
[285.045]
<no-speech>
[286.895]
oo <no-speech> si Josaya nandiyan
[288.585]
<no-speech>
[292.915]
may pagkain ba diyan <sta> ha
[297.125]
<no-speech>
[299.635]
nagugutom kasi <no-speech> nagugutom kasi ko <hes>
[303.375]
<no-speech>
[306.285]
oo nagugutom kasi ko <hes> alam mo naman 'pag pumupunta tayo diyan 'di ba <int>
[310.835]
<no-speech>
[312.285]
tamang kain lang
[313.475]
<no-speech>
[315.635]
<hes> bawal teka lang
[319.585]
<no-speech>
[320.765]
<sta> hello
[323.765]
<no-speech>
[326.095]
ah
[326.965]
<no-speech>
[328.605]
<sta> 'musta naman 'yong ano <no-speech> school mo
[333.175]
<no-speech>
[337.955]
basta <sta>
[341.215]
<no-speech>
[344.615]
basta mamaya mamaya na lang <no-speech> hello
[348.995]
<no-speech>
[354.925]
sa 'kin
[355.695]
<no-speech>
[357.825]
oo
[358.445]
<no-speech>
[360.455]
choppy ka <hes> <sta>
[362.985]
<no-speech>
[365.675]
ah <no-speech> oo
[367.375]
<no-speech>
[369.375]
ah
[369.875]
<no-speech>
[374.155]
sa 'kin <laugh> joke joke basta ano
[377.935]
<no-speech>
[378.735]
<sta> an- ano sabi ni Ate Lea
[381.525]
<no-speech>
[382.435]
ha <sta>
[386.485]
<no-speech>
[388.205]
<no-speech>
[389.125]
<no-speech>
[391.435]
hindi pa 'ko nang-iipit
[392.695]
<no-speech>
[394.895]
ah
[395.445]
<no-speech>
[396.375]
hindi naman ba 'ko na miss niyan
[397.895]
<no-speech>
[399.415]
<sta> hindi ba ako na miss ng bestfriend ko <no-speech> weh
[405.055]
<no-speech>
[406.575]
oo 'di na miss niya 'ko <int>
[408.325]
<no-speech>
[412.585]
ha
[413.185]
<no-speech>
[420.215]
<sta> nandiyan si Ate May
[422.685]
<no-speech>
[424.155]
ha <no-speech> hello
[425.805]
<no-speech>
[428.465]
<int> nandiyan <no-speech> hello <int> nandiyan si Ate May
[432.655]
<no-speech>
[433.825]
um-attend
[434.615]
<no-speech>
[439.755]
oo pati si Tita Mel
[441.365]
<no-speech>
[446.275]
oo ba't hindi mo sinama kanina <int>
[449.485]
<no-speech>
[453.505]
hello
[454.085]
<no-speech>
[454.975]
<sta> ba't hindi mo sinabi siya kanina <no-speech> 'di ba tinatanong ko
[460.455]
<no-speech>
[462.345]
<no-speech>
[463.255]
<no-speech>
[464.135]
anong gamot sa limot <int>
[465.555]
<no-speech>
[468.485]
<sta> sabihin mo
[470.205]
<no-speech>
[472.675]
sabihin mo pakain sila
[474.125]
<no-speech>
[476.305]
<no-speech>
[476.675]
<no-speech>
[482.035]
<int> sabihin mo pakain diyan pupunta 'ko ngayon
[484.415]
<no-speech>
[486.755]
<sta> hello
[487.865]
<no-speech>
[490.805]
<hes> 'di ikaw na lang
[492.945]
<no-speech>
[495.495]
hello
[496.125]
<no-speech>
[497.115]
'kaw na magpakain punta ko ngayon
[498.985]
<no-speech>
[500.355]
ah <sta>
[502.085]
<no-speech>
[503.155]
ah walang pera
[504.255]
<no-speech>
[505.465]
benta muna natin 'yong laptop mo <sta>
[509.975]
<no-speech>
[512.235]
o- ibenta natin 'yong laptop mo para may pagkain tayo <int>
[516.395]
<no-speech>
[517.665]
may load ba 'yong <hes> laptop mo
[519.505]
<no-speech>
[520.375]
ha
[520.895]
<no-speech>
[521.904875]
<no-speech>
[522.255]
<no-speech>
[525.515]
benta mo para ano para may load ka <int>
[528.165]
<no-speech>
[533.575]
<no-speech>
[537.655]
<no-speech>
[538.785]
<no-speech>
[540.245]
<no-speech>
[542.555]
ha low batt ka na 'no <sta> <laugh> <no-speech> pa- pa'no mag-unli call
[552.895]
<no-speech>
[554.305]
<sta> oo nga
[560.625]
<no-speech>
[563.015]
<no-speech>
[563.675]
<no-speech>
[564.535]
<no-speech>
[568.705]
<no-speech>
[570.485]
<no-speech>
[571.475]
<no-speech>
[575.235]
hello <no-speech> tama na gets ko sige <no-speech> choppy ka
[579.495]
<no-speech>
[583.245]
<no-speech>
[584.645]
<no-speech>
[586.265]
T-twenty <no-speech> oo
[588.475]
<no-speech>
[589.775]
hello
[590.485]
<no-speech>
[592.665]
four five four seven <sta> umaga lang 'yon unli night
[598.045]
<no-speech>
[599.98]
