[0.0]
<no-speech>
[2.905]
hello
[3.765]
<no-speech>
[5.595]
hello
[6.805]
<sta> may naka-on
[10.265]
hello
[10.985]
<no-speech>
[12.005]
oh ano na <sta> malamig na ba ang Alaska
[16.565]
<no-speech>
[18.695]
malamig na ba diyan sa Alaska <laugh>
[20.355]
<no-speech>
[21.175]
<laugh> <sta> ano na oh magtiis ka ha four minutes na lang tayo ano ba sayang 'yon o pang-inom pa rin
[30.785]
<no-speech>
[31.755]
ano ba <laugh>
[33.715]
<no-speech>
[35.045]
nag-iinit na ba ang ulo mo <laugh>
[39.565]
<no-speech>
[41.775]
ano na <hes> asa nasaan ka na sa Alaska <laugh> evaporada ka na ba
[52.385]
<no-speech>
[55.405]
<hes> ganoon ba 'sus
[58.875]
<no-speech>
[59.825]
dalhan mo ako ng ano ha ng ano ba 'yong ice ano
[65.325]
<no-speech>
[66.525]
Tanduay Ice <laugh>
[69.955]
<no-speech>
[71.435]
<int> ano
[72.885]
<no-speech>
[73.855]
<laugh> dalhan mo ako ha mhm
[77.675]
<no-speech>
[79.585]
nahihilo na ako <no-speech> bitin bitin bitin 'yon ano ano ba <no-speech> matagal pa ba magbilang ka nga ng ano <no-speech> one hundred
[88.545]
<no-speech>
[89.695]
Diyos ko magsalita ka ano ba
[91.585]
<no-speech>
[94.565]
ha
[95.195]
<no-speech>
[97.265]
ano ano
[98.025]
<no-speech>
[99.945]
ay may ganoon
[101.335]
<no-speech>
[102.915]
<no-speech>
[105.495]
<no-speech>
[107.715]
'asaan ka bang lugar
[109.325]
<no-speech>
[110.605]
lumabas ka ba <no-speech> lumabas ka <no-speech> labas ka nga ang kulit naman talaga
[116.615]
<no-speech>
[117.865]
<no-speech>
[119.555]
<no-speech>
[120.545]
<hes> 'andito ako sa Mindanao <no-speech> ang gulo ng buhay ko rito <laugh>
[126.325]
<no-speech>
[127.345]
<breath> ano ba <no-speech> ano ba ang gagawin natin huh
[131.985]
<no-speech>
[133.425]
ano-ano
[134.195]
<no-speech>
[137.285]
ano
[137.875]
<no-speech>
[139.005]
'andito <hes> <hes> sabi ko nga sa 'yo
[142.335]
<no-speech>
[145.025]
nabitin ako <hes> sakit sa ulo ano ba 'to
[147.905]
<no-speech>
[150.685]
ilang ano 'yon mag <no-speech>
[152.92]
