[0.0]
<no-speech>
[6.355]
hello hello
[9.325]
<no-speech>
[10.375]
hello ate
[11.545]
<no-speech>
[13.015]
<no-speech>
[13.375]
<no-speech>
[15.245]
<laugh> ano pa kumusta kumusta
[22.065]
<no-speech>
[23.155]
kumusta
[24.555]
<no-speech>
[25.715]
ha
[26.405]
<no-speech>
[27.925]
<sta> oo recorded kaya ito recorded kaya ito ha
[35.845]
<no-speech>
[36.735]
baka Tagalog lang oo kasi ano 'to 'yon 'yon bang research ano work research work siya nag-aano hello Nel
[46.945]
<no-speech>
[48.095]
oo kaya ano kuwento ano lang ba kumusta ka na oo anong ginagawa hoy ang guwapo ng Baby ni Paul ha
[55.585]
<no-speech>
[57.415]
Jen
[57.975]
<no-speech>
[58.815]
guwapo ha <foreign> <laugh> guwapo nga nakikita ko <hes>
[70.105]
lagi kong iniistorya 'yong ano niya <hes> 'yong teacher niya <hes> <no-speech> kumusta na kayo I miss you virgin Tagalog ha <laugh> hahabaan natin 'yon
[82.015]
(()) <laugh>
[83.175]
<no-speech>
[84.305]
ha ay naintindihan mo ba
[89.505]
<no-speech>
[90.785]
nandiyan si Ann
[91.885]
<no-speech>
[92.855]
(())
[98.455]
<no-speech>
[99.645]
<sta> pasok ni J_C ha pa'no 'yong pagpasok ni J_C
[109.395]
<no-speech>
[110.645]
ah
[112.585]
<no-speech>
[113.985]
<sta> ah si J_C 'andodoon <cough> mhm
[121.455]
<no-speech>
[122.595]
<sta> oo nga uwi ka na mag-isa do'n saka ang lola si Miles nandadiyan ha <hes> kawawa naman mag-isa lang
[134.535]
ang Baby <laugh> ang ate
[138.005]
<no-speech>
[138.965]
<laugh> mhm
[139.885]
<no-speech>
[141.905]
okey na <int> mhm (()) magaling naman mhm (())
[150.785]
<no-speech>
[152.005]
(())
[152.865]
<no-speech>
[153.935]
ha <laugh>
[157.885]
<no-speech>
[159.015]
<breath> si Ate Anna siya kanina tinatawagan ko din hindi namin ma-reach <laugh> ang hindi maano hindi ko kuwan ma-contact sabi ko
[169.885]
kung sino ang ano kung sino ang unang mag-e- exit ha (()) oo nga hindi ko alam kung ilan 'yong gumagamit
[181.485]
<no-speech>
[182.395]
hindi ko alam kung sino 'yong ka-text ko oo si parang hindi siya <hes> kasi 'yong mga text iba <hes>
[188.175]
<no-speech>
[189.005]
tapos <hes> sabi ko kung sino 'yong unang mag-ano mag-reply sabi ko oo
[194.255]
<no-speech>
[195.435]
kasi ang tagal na kaming hindi nakikita 'yon <hes> 'di ba ang tagal na ang huli pa 'yong ano 'yong <hes> ano kita-kits tayo 'yon pa 'yon mula no'n wala
[205.905]
<no-speech>
[206.805]
<no-speech>
[207.985]
<no-speech>
[209.695]
oo
[212.115]
<no-speech>
[213.195]
<no-speech>
[214.695]
<no-speech>
[218.025]
oo <no-speech> <sta> hindi ko nga hindi nagpaparamdam kahit (())
[229.515]
(()) oo nga hindi naman <laugh>
[240.785]
wala na 'kong load kaya 'yong <hes> ano 'to 'yong ano 'yong i-mi-meet 'yong ano 'yong nagkukuwan na pumunta pa nga 'ko ng school <hes> kasi 'yong ha
[252.665]
oo nga la <laugh> ano 'to 'yong research work niya oo oo <laugh>
[264.145]
<laugh> <int> <laugh> hindi sa ano 'to sa trabaho yata ha
[275.995]
<sta> oo nga oo nga gusto ko makita guwapo niya sa picture <foreign>
[287.435]
<no-speech>
[288.375]
<no-speech>
[289.025]
<no-speech>
[289.935]
so <sta> Buboy daw Buboy Buboy ba hindi Bugoy <laugh> Bugoy
[299.325]
<no-speech>
[301.675]
Boy two oo Boy three hindi Boy si Boy 'yong original Boy two si Paul Boy three iyan <laugh>
[308.755]
<no-speech>
[310.245]
<breath> oo oo nga <laugh>
[320.395]
<no-speech>
[321.275]
o ano sa basketball dito 'yon
[324.015]
<no-speech>
[325.745]
nag- <no-speech>
[329.885]
<sta> ah oo sa Marikina papa'no anong kuwan niyan sabi high school ka pa ngayon <hes> ha
[341.215]
oo
[344.395]
<no-speech>
[351.035]
oo nga
[351.775]
<no-speech>
[353.325]
oo oo nga kasi oo
[358.185]
<no-speech>
[363.785]
<no-speech>
[366.615]
<no-speech>
[368.105]
<no-speech>
[369.055]
<no-speech>
[370.845]
ano sabi niya
[371.975]
<no-speech>
[374.765]
oo
[375.455]
<no-speech>
[376.465]
oo nga
[378.215]
<no-speech>
[381.195]
<sta> oo nga kasi hindi naman siya taga-diyan <hes> 'di Den siya botante
[385.245]
<no-speech>
[386.365]
<no-speech>
[387.065]
<no-speech>
[388.725]
oo dito taga-dito pa rin 'yon <int>
[390.665]
<no-speech>
[391.535]
oo kailangan talaga 'yong bonafide nang Marikina <int>
[395.205]
<no-speech>
[396.315]
residente
[397.525]
<no-speech>
[404.175]
oo <sta> <no-speech> (())
[407.565]
<no-speech>
[411.835]
oo nga pare
[413.515]
<no-speech>
[420.59]
<no-speech>
[427.665]
<no-speech>
[428.055]
<no-speech>
[430.105]
oo
[430.755]
<no-speech>
[434.475]
mhm 'pag bumalik 'yon magkukuwento 'yon dito
[437.975]
<no-speech>
[439.125]
ay ga-graduate pala si ano high school nga pala 'yong si Hannah
[442.655]
<no-speech>
[446.465]
mhm
[446.965]
<no-speech>
[449.095]
oo
[449.625]
<no-speech>
[452.575]
<no-speech>
[453.025]
<no-speech>
[455.195]
oo oo nga oo nga <laugh>
[459.885]
<no-speech>
[463.795]
(())
[464.645]
<no-speech>
[467.705]
ah
[468.365]
<no-speech>
[476.465]
mhm
[477.115]
<no-speech>
[483.295]
at least meron sila at least meron silang (()) 'di ba merong kuwan <no-speech> <int> malaking tulong 'yon
[489.265]
<no-speech>
[491.805]
oo may <hes> oo
[493.955]
<no-speech>
[495.615]
<foreign> pa niya
[496.955]
<no-speech>
[499.075]
<no-speech>
[500.005]
<no-speech>
[505.225]
bente kalapad
[506.455]
<no-speech>
[507.685]
<no-speech>
[508.115]
<no-speech>
[509.055]
hala ang laki no'n ah
[510.435]
<no-speech>
[511.965]
<no-speech>
[512.324875]
<no-speech>
[516.755]
<no-speech>
[517.105]
<no-speech>
[520.495]
marunong na kaya siyang mag-Koreano
[522.985]
<no-speech>
[523.915]
marami marami na siyang alam
[525.635]
<no-speech>
[526.755]
oo lalo't magaling din siyang mag-English magaling siyang mag-Korean nag-aaral na nag-aaral na siya
[534.025]
<no-speech>
[535.895]
sa
[536.895]
<no-speech>
[538.405]
<sta> ah kaya pala oo ah <no-speech>
[547.255]
oo nakakaikot pa
[551.135]
<no-speech>
[552.035]
mhm tama <laugh>
[555.865]
<no-speech>
[559.565]
oo
[560.355]
<no-speech>
[569.875]
pito lang sila
[570.725]
<no-speech>
[572.035]
(()) oo naman siyempre unahin mo 'yong ano niya siyempre naman unahin mo 'yon
[581.475]
<no-speech>
[586.565]
<no-speech>
[586.965]
<no-speech>
[595.155]
oo nga ewan ko nga magka-ano na naman 'yon magkapatid na 'yon kasi
[599.98]
