[0.0]
<no-speech>
[0.055]
hindi hindi ko maintindihan ulitin mo nga
[3.045]
<no-speech>
[7.455]
oo o
[9.105]
<no-speech>
[10.025]
oo kanina pa daw
[12.045]
<no-speech>
[15.435]
hello
[16.235]
<no-speech>
[17.225]
ay sunod na si Ann
[19.315]
<no-speech>
[20.415]
o
[21.165]
<no-speech>
[22.335]
si Ann ito
[23.285]
<no-speech>
[25.645]
<sta> eto okey naman kami nandito nandito naman kami ayos naman
[32.775]
<no-speech>
[35.625]
kasi kanina noong pagdampot pa lang namin nag-
[38.655]
<no-speech>
[40.465]
ha
[41.175]
<no-speech>
[44.185]
(())
[45.255]
<no-speech>
[49.425]
sino ba
[50.105]
<no-speech>
[54.945]
hoy
[55.635]
<no-speech>
[56.595]
o
[57.225]
<no-speech>
[64.265]
oo
[64.975]
<no-speech>
[66.435]
ah hindi n'yo nakita <no-speech> oh 'di
[69.225]
<no-speech>
[70.125]
ay 'di na bale
[71.545]
<no-speech>
[74.735]
oo kasi mayroon lang nasira din iyong dito sa amen <hes> kaya gusto ko sana kuhanan na lang ng piyesa iyon
[81.185]
<no-speech>
[82.425]
<no-speech>
[82.775]
<no-speech>
[84.005]
mhm nasira din 'yong sa amin
[85.975]
<no-speech>
[89.335]
nasaan ka <no-speech> saan ka ba ngayon nasa
[91.535]
<no-speech>
[92.415]
nasaan ka nasa bayan
[94.005]
<no-speech>
[97.365]
ha
[97.985]
<no-speech>
[100.115]
<no-speech>
[101.665]
<no-speech>
[106.655]
ah ganoon ba <no-speech> marami marami akong naririnig
[110.445]
<no-speech>
[113.235]
ha mari- marami kasing naririnig 'oy <no-speech> o
[116.865]
<no-speech>
[118.665]
ha
[119.305]
<no-speech>
[122.085]
ah ganoon
[122.885]
<no-speech>
[129.535]
oo mhm
[131.535]
<no-speech>
[134.215]
oh sige (())
[135.615]
<no-speech>
[136.825]
<laugh> ba mag-ano lang kayo mag-
[140.885]
<no-speech>
[142.715]
oo mag-text na lang kayo kung ano kung para masundo kayo
[146.885]
<no-speech>
[149.215]
ah oh
[150.655]
<no-speech>
[153.495]
<no-speech>
[153.845]
<no-speech>
[155.935]
<no-speech>
[157.225]
<no-speech>
[162.265]
<no-speech>
[162.805]
<no-speech>
[166.445]
oh
[167.145]
<no-speech>
[172.635]
mhm
[173.435]
<no-speech>
[178.125]
oh
[179.015]
<no-speech>
[185.555]
oh sabi naman niya mas maganda raw 'yong ano 'yong
[188.865]
<no-speech>
[190.545]
sabi niya mas maganda raw naman iyang roaming <no-speech> roaming tayo roaming number lang iyong kuwan
[196.145]
<no-speech>
[196.945]
ngayon iyong ginagamit <int> <no-speech> dahil mas mura raw
[200.735]
<no-speech>
[202.365]
<int> ano ba doon sa barangay <hes> sa barangay ba ito sa barang- <int>
[207.455]
<no-speech>
[208.705]
sa barangay ba ito <int>
[210.645]
<no-speech>
[212.545]
<hes> ano libre <int>
[214.165]
<no-speech>
[217.715]
<no-speech>
[218.065]
<no-speech>
[219.715]
ah <int> oo
[221.045]
<no-speech>
[223.275]
<no-speech>
[223.745]
<no-speech>
[227.985]
kailan ba mag- <hes> kailan ang bakasyon ng mga bata <int> Ann
[231.655]
<no-speech>
[233.465]
<int> Ann
[234.325]
<no-speech>
[239.225]
ay hindi ba ito ang Mark
[240.645]
<no-speech>
[241.695]
ah hindi bale sa next next month
[244.245]
<no-speech>
[247.515]
o para maka- <int> kung makakuwan
[251.145]
<no-speech>
[252.265]
o di magbakasyon para makapaligo kayo ng dagat <int>
[256.035]
<no-speech>
[263.245]
<no-speech>
[263.595]
<no-speech>
[264.785]
'yon saka ma- malayo
[266.515]
<no-speech>
[267.975]
<int> malayo kayo <int>
[269.385]
<no-speech>
[270.385]
(())
[271.695]
<no-speech>
[273.135]
<no-speech>
[273.935]
<no-speech>
[277.375]
<no-speech>
[277.815]
<no-speech>
[278.705]
<no-speech>
[279.935]
<no-speech>
[284.775]
mhm (()) <int>
[285.825]
<no-speech>
[288.425]
oo <hes> basta hoy kumusta ba iyang mga bata okey naman
[293.195]
<no-speech>
[295.345]
<hes> ah
[296.345]
<no-speech>
[297.595]
ano ba <hes> lahat ba sila pumasok a hindi no <hes> dalawa lang
[305.415]
<no-speech>
[310.715]
ah oo wala <int>
[312.005]
<no-speech>
[313.155]
<no-speech>
[313.505]
<no-speech>
[315.275]
oo <int> si sino doon 'yong
[318.485]
<no-speech>
[321.415]
ah oo <int>
[322.705]
<no-speech>
[323.885]
<int> ah (()) <hes> pangatlo
[326.575]
<no-speech>
[330.605]
<no-speech>
[331.365]
<no-speech>
[337.445]
<no-speech>
[338.555]
<no-speech>
[345.955]
matuto na sana 'yang <hes> si Johnrey matuto na sana ng motor para siya ng maghatid sa mga kapatid niya
[356.125]
<no-speech>
[359.165]
magsundo <int>
[360.245]
<no-speech>
[365.505]
ah oo
[366.855]
<no-speech>
[367.685]
oo <int>
[368.475]
<no-speech>
[370.485]
(())
[371.345]
<no-speech>
[372.535]
madali lang dito mas maano ditong mag-ano
[375.795]
<no-speech>
[377.915]
mas madaling mag-aral dito dahil patag hindi hindi kagaya diyan
[381.925]
<no-speech>
[383.515]
mas madaling mag-aral dahil patag
[385.985]
<no-speech>
[393.085]
oo saka commute dahil kuwan pa mag-agawan pa ng sasakyan <no-speech> maghihintay pa
[401.485]
<no-speech>
[402.455]
kailangan may kuwan
[404.215]
<no-speech>
[405.895]
kung apat silang mag-aaral di <no-speech> si John Rey ang mag-ano maghahatid magsundo
[412.835]
<no-speech>
[415.655]
ilang taon na ba 'yong si John Rey hindi pa pala makakuha ng <no-speech> hindi pa makakuha ng lisensiya iyon ano <no-speech> hindi bata pa
[422.985]
<no-speech>
[425.325]
ah
[425.985]
<no-speech>
[427.355]
oo hindi pa
[428.625]
<no-speech>
[433.535]
ay
[434.605]
<no-speech>
[436.505]
hin- <no-speech> hindi puwede diyan puwede lang diyan sa tabi-tabi
[440.995]
<no-speech>
[442.975]
ha
[443.695]
<no-speech>
[445.725]
nag-birthday siya
[446.915]
<no-speech>
[447.995]
kailan siya nag-birthday
[449.315]
<no-speech>
[454.855]
<no-speech>
[456.265]
<no-speech>
[457.295]
<no-speech>
[457.705]
<no-speech>
[459.205]
oo
[459.985]
<no-speech>
[464.925]
<laugh> iyon nga <laugh>
[469.095]
<no-speech>
[470.225]
'di bale hayaan mo munang kuwan sa <no-speech> sa susunod na lang <no-speech> sa susunod na lang maghahanda kung me- merong ihahanda na
[479.555]
<no-speech>
[480.415]
<hes> ngayon <hes> kuwan naman <hes> medyo broke muna tayo ngayon
[484.005]
<no-speech>
[487.175]
'di bale
[488.235]
<no-speech>
[495.095]
ha
[495.875]
<no-speech>
[502.955]
<no-speech>
[503.375]
<no-speech>
[505.245]
<no-speech>
[505.625]
<no-speech>
[506.525]
ano raw ba ang kuwan ano
[508.245]
<no-speech>
[513.355]
hindi <no-speech> hindi
[515.545]
<no-speech>
[516.904875]
hindi 'pag siya ang nag-text 'yan sasagot ng kami pero
[520.225]
<no-speech>
[521.625]
ha
[522.314875]
<no-speech>
[524.335]
(())
[525.015]
<no-speech>
[532.605]
akala ko ta- tapos na
[535.135]
<no-speech>
[537.735]
akala ko nakadalawang buwan na siyang
[539.545]
<no-speech>
[545.805]
ikadalawang buwan akala ko dalawang buwan na 'yong ano niya
[549.335]
<no-speech>
[551.485]
ah <sta>
[553.255]
<no-speech>
[555.155]
akala ko dalawang buwan pa ang training <no-speech> ha
[558.345]
<no-speech>
[562.155]
akala ko <no-speech> ha
[563.845]
<no-speech>
[572.385]
akala ko naka- dal- nakadalawang buwan na siya
[575.415]
<no-speech>
[577.695]
ha
[578.355]
<no-speech>
[583.115]
hoy
[583.765]
<no-speech>
[591.735]
oh
[592.165]
<no-speech>
[600.32]
