[0.0]
<no-speech>
[0.025]
<no-speech>
[0.555]
<no-speech>
[3.495]
<no-speech>
[5.335]
<no-speech>
[10.765]
hello <no-speech> nasaan <no-speech> kamusta na <int> kamusta na kayo diyan
[17.005]
<no-speech>
[18.385]
ha <hes>
[19.125]
<no-speech>
[19.935]
<int> ano ginagawa n'yo <no-speech> ha <hes>
[24.005]
<no-speech>
[25.185]
ano ginagawa n'yo diyan
[26.595]
<no-speech>
[27.945]
dumating na papa mo ha <hes> <no-speech> hindi pa dumarating ha <hes> nagluto-luto na ba kayo <int>
[39.505]
<int> nagluluto na kayo <no-speech> nagluluto na kayo <no-speech> ha <hes>
[46.985]
<no-speech>
[48.485]
si Bebe nasaan <int> nasaan si Bebe <no-speech> anong ginagawa
[55.675]
<no-speech>
[57.415]
ano nga ginagawa <int> naglalaro ng pog
[64.624875]
<no-speech>
[65.895]
ah <hes> si ate mo nasaan na
[67.705]
<no-speech>
[68.975]
ha <hes> <int> balik na <no-speech> saan nagpunta
[75.865]
<no-speech>
[78.885]
saan nagpunta ah <hes> sa palengke sino kasama
[82.305]
<no-speech>
[84.785]
ah <hes> may binili lang <sta>
[87.655]
<no-speech>
[88.845]
ano binibili niya <no-speech> sa palengke <sta>
[92.545]
<no-speech>
[94.015]
<sta> ah <hes>
[96.415]
<no-speech>
[98.145]
<int> sino kasama mo diyan
[99.325]
<no-speech>
[103.065]
ikaw lang si Mitch nasaan na <int> ha <hes> <hes> <hes> si Abegail si Abegail
[113.635]
<no-speech>
[114.515]
<int> ha <hes> sindihan mo na ang ilaw diyan <no-speech> ano ba ang ilaw <no-speech> sindihan mo na para maliwanag ka diyan
[126.365]
<int> ha <hes>
[128.605]
<no-speech>
[130.775]
hintayin mo hintayin mo si papa mo ha <hes>
[133.965]
<no-speech>
[135.135]
'pag dumating anuhin mo <no-speech> pakainin mo na siya <int> ha <hes> 'pag tinanong ako sabihin mo nandito lang ako sa ano
[143.685]
<no-speech>
[144.525]
hon ko ha <int>
[148.665]
<no-speech>
[150.095]
<int> ayon si Mary Jane ha <hes>
[154.005]
<no-speech>
[155.115]
'yon niluluto mo <no-speech> 'yong niluluto mo baka masunog na <sta>
[160.945]
<no-speech>
[164.165]
magpakulo ka ng mainit na tubig ha <hes> para magkakape si papa mo pagdating <no-speech> ha <hes>
[171.985]
<no-speech>
[173.825]
<laugh> manonood ka ng T_V
[177.925]
<no-speech>
[178.845]
ha <hes>
[179.505]
<no-speech>
[180.375]
<no-speech>
[181.085]
<no-speech>
[183.445]
ano pinanama- pinanonood mo <int>
[185.385]
<no-speech>
[187.855]
ha
[188.475]
<no-speech>
[191.665]
<no-speech>
[192.015]
<no-speech>
[192.885]
<sta> at saka ano pa
[194.475]
<no-speech>
[196.745]
magpakulo ka ng tubig na mainit ha
[198.685]
<no-speech>
[199.865]
oo magpakulo ka ha <no-speech> para may inumin ang kape si papa mo pagdating ha
[206.475]
<no-speech>
[208.475]
ano ba ginagawa mo
[209.785]
<no-speech>
[210.885]
<int> ah <hes>
[213.065]
<no-speech>
[214.185]
anong ginagawa mo
[215.395]
<no-speech>
[217.065]
<int> opo <int> 'yong pinapakulo mo <no-speech> sabi ko magpakulo ka na para ano <no-speech> ha <hes> <int>
[226.465]
<no-speech>
[228.065]
<int> para may matimplahan ng kape si papa mo pagdating <sta>
[234.875]
<no-speech>
[235.905]
'yong plato anuhin mo na iayos mo na <sta> ha
[240.895]
<no-speech>
[241.915]
ihagis mo ha <hes>
[243.235]
<no-speech>
[245.125]
<int> Byang tikman mo na bibili muna tayo ng ano ng kape 'yong ano ha 'yong <no-speech>
[256.595]
'yong mainit na tubig iano mo <no-speech> ha
[259.745]
<no-speech>
[260.665]
ano mo 'yong mainit na tubig i-ready mo <no-speech> pati asukal <no-speech> ha
[265.775]
<no-speech>
[267.085]
<int> 'yong baso 'yong kutsera ha <hes> 'yong higaan natin ayusin mo ha <hes>
[275.195]
<no-speech>
[277.125]
huwag mo pababayaan diyan huwag mong iwan ha <hes> huwag mong iwan 'yong ano natin diyan <no-speech> bahay mo
[282.635]
<no-speech>
[283.775]
ayusin mo 'yong mga ano diyan <no-speech> gamit
[286.015]
<no-speech>
[288.715]
<sta> ha <no-speech> ayusin mo 'yong mga gamit diyan ha <hes> 'yong darating na yata papa mo <hes> 'di 'yong ano dumaan na 'yong ano <hes>
[300.675]
tren <no-speech> 'yong tren dumating na <no-speech> baka ano parating na 'yong papa mo
[307.135]
<no-speech>
[308.465]
ayusin mo na 'yong mga ano roon mga gamit diyan
[310.825]
<no-speech>
[312.345]
ah miracle <int>
[313.285]
<no-speech>
[317.235]
'yong ano niya <no-speech> 'yong baso niya lalagyan ng ano ng kape
[320.215]
<no-speech>
[321.605]
dali baka uminom na naman 'yon <no-speech> 'pag hindi nakainom ng kape
[324.645]
<no-speech>
[325.555]
ayusin mo ha
[326.745]
<no-speech>
[328.115]
pati 'yong pagkain niya <int>
[329.725]
<no-speech>
[331.265]
ayusin <int> mo na rin <int>
[332.555]
<no-speech>
[335.145]
<sta> dumating na ba si ate mo
[337.725]
<no-speech>
[339.265]
ha <sta>
[339.905]
<no-speech>
[342.655]
hindi pa dumarating <int>
[344.175]
<no-speech>
[345.765]
ah
[346.745]
<no-speech>
[348.645]
<int> gaano pa ang inaano mo diyan
[350.485]
<no-speech>
[355.065]
<int> 'yong pinanonood na ano <int>
[356.565]
<no-speech>
[360.055]
tapos na 'yong pinanonood mo <no-speech> tapos na 'yong pinanood mo
[362.915]
<no-speech>
[363.785]
ha <hes>
[364.435]
<no-speech>
[365.435]
kaano-ano mo <int>
[366.035]
<no-speech>
[367.205]
tapos na 'yong pinanonood mo <sta> <laugh> sabi ni Ate Bebing mo
[378.125]
inaaway mo raw si Mi- si Bebe
[381.065]
<no-speech>
[382.005]
sasabihin <sta> para kang bata na unga ng unga
[387.345]
<no-speech>
[388.795]
nilalait mo pa raw si Bebe <int> <laugh> ah inaaway 'yong ano oh <hes>
[400.255]
<no-speech>
[401.165]
'andiyan na si papa mo <no-speech> o timplahan mo na ng kape niya <no-speech> baka ibang mainom niyan mahirap na <no-speech> o hello 'andiyan ka na pala <no-speech> kararating mo lang
[412.145]
<no-speech>
[413.075]
ha
[413.715]
<no-speech>
[414.695]
ha <hes> ano <no-speech> oo nandito lang ako sa kanto <int>
[420.485]
<no-speech>
[423.135]
<int> kumain na kayo diyan <int>
[424.495]
<no-speech>
[426.325]
ha <hes>
[427.005]
<no-speech>
[427.965]
kumain na kayo diyan <no-speech> <sta> huwag n'yo ako ubusan ng pagkain ha <no-speech> oo magwawala ako pag-ano <laugh> 'pag inubusan mo ako <laugh> ay ay
[439.645]
tingnan mo ang mga bata ha <hes> pasensiya ka na ha <hes> kasi nagchichika-chikahan ako <hes> <hes> dapat ako diyan ang nag-aayos <hes> <laugh>
[448.725]
<no-speech>
[449.575]
oh magtimpla ka na ng ng kape huwag ka muna uminom ha
[452.185]
<no-speech>
[453.985]
ha
[454.655]
<no-speech>
[456.065]
<sta> oo <no-speech> 'andiyan na rin si Bebe
[461.025]
<no-speech>
[462.365]
ah Miracle
[463.595]
<no-speech>
[464.955]
'andiyan na <no-speech> oh kumain na kayo sabay-sabay na kayo kumain
[468.345]
<no-speech>
[470.745]
sabay-sabay na kayo kumain <no-speech> ha <hes>
[473.785]
<no-speech>
[477.265]
<int> si ate mo
[478.275]
<no-speech>
[480.135]
basta titirhan mo ako ng pagkain ha
[482.095]
<no-speech>
[482.925]
ha huwag n'yo akong ubusan
[485.095]
<no-speech>
[489.665]
o tapos na pinanonood n'yo <int> ha
[493.585]
<no-speech>
[494.825]
tapos na pinanonood n'yo <int> hindi pa <no-speech> ano 'yong sumunod na pinanonood n'yo
[500.645]
<no-speech>
[501.825]
ah <hes> hindi pa <int> pagsapit niyan ano ang susunod
[506.475]
<no-speech>
[507.425]
ha <sta>
[509.575]
<no-speech>
[510.745]
ha ano
[512.645]
<no-speech>
[514.205]
<no-speech>
[515.265]
<no-speech>
[516.585]
ay hindi mo alam <int>
[518.204875]
<no-speech>
[520.075]
(())
[520.645]
<no-speech>
[522.125]
<int> si Bebe <no-speech> ano ano ginagawa ni Bebe kumakain na
[526.365]
<no-speech>
[527.585]
ha
[528.295]
<no-speech>
[531.685]
si ate mo tirhan mo rin ng pagkain ha <hes>
[533.795]
<no-speech>
[535.255]
<hes> miracle
[536.455]
<no-speech>
[538.265]
huwag ninyo ubusan dito ate mo <no-speech> pagtira kayo ng pagkain
[542.175]
<no-speech>
[543.285]
pati papa mo baka umiinom na naman 'yan
[545.645]
<no-speech>
[546.665]
hindi <no-speech> ano lang 'yan <no-speech> ligate na nga ako <hes> <laugh> hindi ayoko na <no-speech> ayoko na mabuntis ulit
[558.115]
<sta> ah si Ivan nandiyan
[562.485]
<no-speech>
[563.565]
ha
[564.245]
<no-speech>
[565.045]
'andiyan si Ivan wala tawagin mo <no-speech> tawagin mo
[568.98]
