[0.000]
<no-speech> 
[6.355]
ʔ o j g o w 
[7.155]
<no-speech> 
[9.085]
ʔ a j o s p o d t u ŋ d u w a ʔ n i n j o g a b i ʔ i b a ʔ o j 
[11.985]
<no-speech> 
[12.815]
t u ŋ d u w a ʔ n i n j o g a b i ʔ i b a <no-speech> ʔ a j o s p o d k a d t o 
[16.025]
<no-speech> 
[17.125]
ʔ u n s a m a n j ʔ i m o ʔ a t o ʔ ŋ ŋ ʔ i ɾ o ʔ k a d t o ŋ 
[19.335]
<no-speech> 
[20.985]
k a d t o ŋ n i m o b a k a d t o ŋ d i ʔ b a l a ʔ i n n a m a n k a ʔ a j o s j a g a m i t o n k a d t o ŋ s 
[28.435]

[32.385]
g o w 
[32.905]
<no-speech> 
[34.055]
l a ʔ i n n a m a n k a ʔ a j o s j a g a m i t o n w i k n a m a n k a ʔ a j o 
[36.775]
<no-speech> 
[38.455]

[38.985]
<no-speech> 
[39.955]
p ɛ ɾ o ʔ a j d i ʔ b a n a p i l d i m a n m o ʔ a t o ʔ ŋ 
[42.335]
<no-speech> 
[43.565]
j b a j b a 
[46.905]
<no-speech> 
[49.405]
h a 
[49.965]
<no-speech> 
[51.145]
j b a 
[52.655]
<no-speech> 
[53.665]
d i ʔ b a l a ʔ i n n a m a n k a ʔ a j o s j a <int> g a m i t o n s 
[55.765]
<no-speech> 
[56.625]
h a 
[57.185]
<no-speech> 
[59.845]
d i ʔ b a k a j 
[61.065]
<no-speech> 
[61.955]
ʔ o w s a k t o s a k t o b a 
[63.185]
<no-speech> 
[64.375]
d i ʔ b a l a ʔ i n n a m a n n a ŋ g a m i t o n j s ɛ ɾ d i ʔ p a ɾ ɛ h o s b a ŋ k i l ɛ ɾ k a ʔ a j o 
[70.465]
<no-speech> 
[73.355]
n a p i l d i m a n m o ʔ a t o ʔ ŋ n o w 
[74.765]
<no-speech> 
[75.745]
n a p i l d i m a n m o ʔ a t o ʔ ŋ n o w 
[77.135]
<no-speech> 
[78.775]
<no-speech> 
[79.335]
<no-speech> 
[81.195]
d i ʔ b a n a p i l d i m a n m o ʔ a t o ʔ ŋ 
[82.695]
<no-speech> 
[83.915]
ʔ a l a ŋ a n w a ʔ m a n w a ʔ m a n p o d m o t a ɾ o ŋ ŋ k ɛ ɾ i p o d ʔ a t o ʔ ŋ <no-speech> k i n s a m a n j m a k ɛ ɾ i ʔ a t o ʔ ŋ s i ʔ a t i k ŋ b a l a n a ɾ j k w a n ʔ o j 
[94.975]
h a 
[96.205]
<no-speech> 
[98.615]
d i ʔ r a m a n k a d t o ʔ i n j o ŋ ʔ o j t a k a r a k a 
[101.015]
<no-speech> 
[102.985]
ʔ o j s a k i t m a n j k u n k a ʔ o j j n a k a p a d u g a j j n a k a p a d u g a j l a ŋ g a l i ʔ ʔ a t o ʔ ŋ d i ʔ b a s a k i t p o d b a j k u n k a n i n j o 
[111.675]
<no-speech> 
[115.815]
p ɛ ɾ o d i ʔ m a n ʤ u d m o m a 
[117.525]
<no-speech> 
[121.745]
d i ʔ n a m a n d i ʔ m a n ʤ u d m o m u d a ʔ o g ʔ a t o ʔ ŋ ʔ o g k a j p a ŋ ɛ ɾ l i g i m m a n d a p a t k a d t o ʔ i n j u h a ŋ m a ŋ a h i ɾ o w 
[127.675]
<no-speech> 
[129.105]
l a l i m a n k a ŋ n a ʔ a j ʔ a l ʧ ɛ ʔ o g l u n a s k a l a b a n <no-speech> n o w d i ʔ b a l i s o d k a ʔ a j o ŋ l i s o d k a ʔ a j o m u t a b a ʔ j k w a n ʔ o j l u n a p o d 
[138.865]
<no-speech> 
[139.735]
l a b a w n a j ŋ p o d k a ʔ a j o 
[143.085]
<no-speech> 
[144.885]
j n a k a p a d u g a j l a ŋ ʤ u d s ʔ i n j u h a ʔ a t o ʔ ʔ i n j u h a l a ŋ w a ɾ l a k 
[147.675]
<no-speech> 
[151.215]
w a ɾ l a k b a <int> 
[152.545]
<no-speech> 
[155.335]
d i ʔ b a m a j o g a l i ʔ d a l i ʔ r a k a ʔ a j o n a k a p a ŋ k w a ɾ t a s i 
[158.165]
<no-speech> 
[160.835]
ʔ o w n a g t a n ʔ a w g a l i ʔ k o ʔ g a h a p o n ŋ j ʔ i j a ŋ ʔ a ɾ m l i t b a d i ʔ s j a j g a g a m i t <laugh> 
[167.105]
<no-speech> 
[168.065]
s a m o k k a ʔ a j o <laugh> 
[169.135]
<no-speech> 
[170.765]
w a ʔ k l a ɾ o m u g a m i t s i ʔ a t i k ʔ o j ʔ u n j a ʔ s i g ɛ p a ʤ u d s j a ʔ o g p a ŋ t i p i 
[174.925]
<no-speech> 
[176.705]
s d a p a t 
[177.845]
<no-speech> 
[178.655]
g i n a ʔ u n a ʤ u d t u ŋ m a ŋ a s u p o ɾ t ʔ a t o ʔ 
[180.945]
<no-speech> 
[183.365]
l a g i d i ʔ g a l i ʔ n j a g i n a ʔ o n g a l i ʔ 
[185.505]
<no-speech> 
[187.135]
n a l u g i ʔ ʤ u d m o ʔ a t o ʔ ŋ ʔ o j 
[188.545]
<no-speech> 
[190.545]
ʔ a t o ʔ 
[191.315]
<no-speech> 
[194.275]
ʔ a k o ʔ g a l i ʔ t u <no-speech> h a 
[196.665]
<no-speech> 
[200.455]
ʔ o w k a d t o ŋ s t u ŋ a ʔ d i ʔ a j ŋ 
[202.365]
<no-speech> 
[205.925]
s t u ŋ a ʔ d i ʔ a j ŋ k a d t o ŋ n a ʔ u n s a n i n j o ŋ d u h a b a <hes> <no-speech> n a t i ŋ a k o ʔ ŋ d a l i ʔ a n a k a ɾ ɛ k w ɛ s s j a n ɛ ʔ a t o ʔ ʔ o j 
[213.335]
<no-speech> 
[215.915]
ʔ u n j a ʔ <hes> g i ʔ a n a ʔ p a ʤ u d <no-speech> m a ʔ o r a m a n t u d i ʔ b a n a h u ɾ o t m a n t u <hes> s i l a 
[220.745]
<no-speech> 
[224.775]
<hes> 
[225.605]
<no-speech> 
[227.485]
w a ʔ m a n ʤ u d s j a n a g a s u p o ɾ t k a ʔ a j o ʔ a t o ʔ n o w 
[229.445]
<no-speech> 
[231.915]
s i <no-speech> <int> h a 
[234.515]
<no-speech> 
[238.265]
d i ʔ m a n k a ʔ a j o m a k a <no-speech> d i ʔ m a n ʤ u d k a ʔ a j o n a g a k w a n s i d i d o p o d n a g a p u l s u p o ɾ t b a n t o g n a k a k w a n p o d d a j o n s j a 
[245.575]
<no-speech> 
[248.395]
s i d u g i d u 
[250.355]
<no-speech> 
[251.465]
k a j n a h a n a ʔ a d i k n a k a ʔ a j o s i d u g i b a ʔ o w <no-speech> k a t a w ʔ a n a n k a ʔ a j o <laugh> ʔ o w g a b i ʔ i l a g i d u g a j a n i l a n a h u m a n ʔ o j 
[261.935]
<no-speech> 
[264.545]
ʔ o w s i g ɛ l a ŋ ʔ o g d u w a ʔ s i g ɛ r a b a ʤ u d ʔ o g ʔ i n b o k i ɾ <no-speech> b a g ʔ o p a g a l i ʔ n a g n a g d u w a ʔ b a g ʔ o p a g a l i ʔ n a g d u w a ʔ g a l i ʔ j ʔ i n b o k i ɾ n a j g i d a 
[271.155]
<no-speech> 
[272.455]
ʔ o w 
[273.105]
<no-speech> 
[274.165]
k u j a w k a ʔ a j o b a <laugh> n a ʔ i ŋ g a n j o k a ʔ a j o k o ʔ s ʔ i j a k a j 
[277.595]
<no-speech> 
[280.055]
h a 
[280.635]
<no-speech> 
[282.625]
n i d i ɾ i t s o ʤ u d j b u k ɛ ɾ b a 
[284.625]
<no-speech> 
[286.375]
h a 
[286.935]
<no-speech> 
[287.935]
ʔ u n s a 
[288.395]
<no-speech> 
[292.855]
ʔ o w 
[293.455]
<no-speech> 
[295.495]
d i ɾ i t s o ʤ u d s j a ʔ o g k a n a ʔ ŋ m a ŋ a l i s o d g a l i ʔ 
[297.835]
<no-speech> 
[298.985]
d a p a t d i ɾ i t s o ʔ a j m u k w a n ʔ u s a s j a ʔ o g m a ŋ a h i ɾ o w ŋ d a l i ʔ d a l i ʔ g a m i t o n b a 
[304.115]
<no-speech> 
[306.435]
ʔ a s a d i ʔ a j k a k a ɾ o n 
[307.445]
<no-speech> 
[312.505]
h a 
[312.985]
<no-speech> 
[315.685]
ʔ a s a l a g i k a k a ɾ o n d i ʔ l a g i k a m a k w a n a n <no-speech> ʧ a p i l a g i k a ʔ a j o k a 
[320.185]
<no-speech> 
[323.655]
s i d u g i b a 
[324.705]
<no-speech> 
[326.745]
ʔ a w n a g k w a n m o ʔ o g <no-speech> h a 
[329.335]
<no-speech> 
[331.815]
s i 
[332.435]
<no-speech> 
[335.675]
ʔ o w ʔ a j s i m a n n ɛ 
[337.645]
<no-speech> 
[340.105]
n a k a l a k a w n a s i <no-speech> n a k a l a k a w n a s i d i d o 
[343.025]
<no-speech> 
[344.025]
l a k a w n a ʔ i m o ŋ k u j a 
[346.145]
<no-speech> 
[347.945]
n a k a l a k a w n a ʔ i m o ŋ k u j a k a d t o 
[349.475]
<no-speech> 
[351.545]
<hes> 
[352.205]
<no-speech> 
[353.945]
ʔ u n j a ʔ d i ɾ i t s o t u s i l a d i h a ʔ r o n 
[355.535]
<no-speech> 
[356.995]
m u d i ɾ i t s o t u s i l a d i h a ʔ r o n 
[358.515]
<no-speech> 
[365.475]
l a m i ʔ ʔ u n t a ʔ ʔ i d u l a ʔ d i h a ʔ b a ʔ i n j u h a 
[367.745]
<no-speech> 
[368.625]
<int> h a 
[369.655]
<no-speech> 
[372.315]
ʔ a d t o ʔ u n t a ʔ k o ʔ d i h a ʔ ʔ u n j a ʔ 
[373.745]
<no-speech> 
[377.965]
<no-speech> 
[378.325]
<no-speech> 
[381.415]
ʔ a d t o g a l i ʔ k o ʔ ʔ u n j a ʔ d i h a ʔ 
[382.845]
<no-speech> 
[384.045]
k a j 
[384.685]
<no-speech> 
[385.845]
t ɛ s t i ŋ a n r a n a k o ʔ ʔ a k o ʔ ŋ k w a n b a 
[387.555]
<no-speech> 
[390.885]
h a <no-speech> ʔ a j 
[392.715]
<no-speech> 
[394.205]
k a g a b i ʔ i 
[395.205]
<no-speech> 
[398.595]
<hes> 
[399.295]
<no-speech> 
[406.385]
ʔ a w 
[407.035]
<no-speech> 
[409.795]
k a m o 
[410.445]
<no-speech> 
[419.305]
<hes> 
[420.205]
<no-speech> 
[421.285]
k a p u j a n m a n p o d ʤ u d k o ʔ ʔ o g s i ʔ i m k a p o j m a n ʤ u d m a g s i ʔ i m ʤ u d k a j k a s k a s k a ʔ a j o ʔ o g ʔ u ɾ a s 
[426.855]
<no-speech> 
[429.225]
k a l a s m a n ʤ u d k a ʔ a j o ʔ o g ʔ u ɾ a s s i ʔ i m g o w 
[431.005]
<no-speech> 
[434.325]
n o w 
[434.895]
<no-speech> 
[436.555]
ʔ u n j a ʔ ʔ a t o ʔ m a ŋ a k a ʔ u b a n p o d m a ŋ a 
[439.665]
<no-speech> 
[440.875]
w a ʔ t a ɾ o ŋ 
[441.785]
<no-speech> 
[444.205]
h a 
[444.725]
<no-speech> 
[455.355]
ʔ a w ʔ i ŋ o n ʔ a n a ʔ ʤ u d 
[457.115]
<no-speech> 
[460.855]
p w i d i m a n t a m a g ʤ i ʔ i m p ɛ ɾ o m a l u g i ʔ m a n p i ɾ m i 
[464.375]
<no-speech> 
[468.665]
m a l u g i ʔ m i s t a j m b a 
[470.325]
<no-speech> 
[474.175]
d i ʔ b a s t a j m b a 
[475.555]
<no-speech> 
[477.175]
m a l u g i ʔ m i 
[478.205]
<no-speech> 
[480.385]
ʔ u n j a ʔ j s i ʔ i m d u g a j k a ʔ a j o ʔ o j m a ʔ o t u ŋ g i s a m u k a n k o ʔ 
[483.865]
<no-speech> 
[486.175]
m a ŋ a p o d b a j a ʔ t u ŋ n a k a l a b a n n a k o ʔ n o w k a d t o ŋ n a g s i ʔ i m b a 
[490.015]
<no-speech> 
[493.125]
g o w 
[493.615]
<no-speech> 
[494.875]
ʔ o w 
[495.405]
<no-speech> 
[496.945]
ʔ u n s a j s u n o d ʔ u n s a j s u n o d 
[498.535]
<no-speech> 
[502.035]
d i ʔ b a k a d t o ŋ k a ʔ i l a n i n j o b a k a ʔ i l a n i n j o 
[505.355]
<no-speech> 
[508.645]
d i ʔ b a n a k a l a b a n n a k a d t o n a t o ʔ g o w ʔ u ʔ o 
[511.035]
<no-speech> 
[513.595]
<hes> w a ʔ n a s j a n a g a p a ŋ h a g i t 
[515.035]
<no-speech> 
[516.685]
ʔ a j o s p o d b a j a ʔ t u ʔ i l a ŋ k w a n n o w ʔ i l a ŋ k o m b o w n o w 
[519.615]
<no-speech> 
[520.975]
s <no-speech> ʔ a m o ʔ k a j n a ʔ a b a ɾ a b a <laugh> b a ɾ a 
[525.475]
<no-speech> 
[526.585]
b a ɾ a ʔ u n j a ʔ p a ŋ i t n a m a n d i ʔ a j k a ʔ a j o g a m i t o n k a ɾ o n j k w a n j m i k s t ʔ a s a s i n s d i ʔ a j 
[534.265]
<no-speech> 
[536.905]
n a k a k w a n k a ʔ a t o ʔ ŋ g o w 
[537.995]
<no-speech> 
[540.505]
s b a k a j g ɾ a w n d n a m a n d i ʔ a j 
[542.975]
<no-speech> 
[544.715]
k a d t o ŋ ʔ i s t a n d n j a b a g ɾ a w n d ʔ u n t a ʔ t u ŋ ʔ a j m u g ɾ a w n n a m a n t u d i ʔ n a m a n t u m u t u d l o ʔ s 
[549.865]
<no-speech> 
[551.845]
d a g h a n k a ʔ a j o k o ʔ ʔ o g n a p i l ʔ a t o ʔ ŋ ʔ o j 
[553.645]
<no-speech> 
[556.605]
h a 
[557.155]
<no-speech> 
[558.765]
ʔ u n s a 
[559.245]
<no-speech> 
[561.005]
h a 
[561.505]
<no-speech> 
[569.825]
ʔ u n s a g o w 
[570.485]
<no-speech> 
[573.115]
ʔ o w 
[573.685]
<no-speech> 
[577.565]
ʔ o w 
[578.225]
<no-speech> 
[580.315]
l i s o d n a k a ʔ a j o ʔ i k w a n s i k w a n ʔ o j 
[582.625]
<no-speech> 
[584.905]
g ɾ a w n d g ɾ a w n d n a m a n k a d t o ʔ i j a ŋ k w a n 
[587.425]
<no-speech> 
[591.215]
g ɾ a w n d r a m a n t u ʔ i j a ŋ k i l g ɾ a w n d g ɾ a w n d r a t u k a d t o ŋ p ɛ ɾ s k i l n j a 
[596.225]
<no-speech> 
[598.215]
d i ʔ n a m a t u d l o ʔ s k w a n ʔ o j 
[599.745]
<no-speech> 
[600.040]
