[0.000]
<no-speech> 
[2.025]
k a m u s t a ʔ u n s a m a n r o n s i 
[4.625]
<no-speech> 
[10.305]
ʔ o j k a m u s t a m a ɾ i ŋ 
[12.935]
<no-speech> 
[14.925]
h a 
[15.585]
<no-speech> 
[16.835]
h a 
[17.575]
<no-speech> 
[19.225]
ʔ a j ʔ a ɾ a ŋ ʔ a ɾ a ŋ m a j o m a n ʔ u n t a w o n ʔ a k o ʔ ŋ p a g k a b u t a ŋ d i n h i k a j n a g t a h i ʔ t a h i ʔ k o ʔ n a g t a h i ʔ t a h i ʔ k o ʔ ʔ o g m a ŋ a ɾ i p i ɾ u n o n r a m a n s a d t a n a n k a n a ʔ ŋ m a ŋ a s i p i ɾ b a 
[30.885]
p a ʔ a l i s d a n ʔ u n j a ʔ n a g p ɾ o b l ɛ m a k o ʔ k a j j ʔ u b a n ŋ m a ŋ a k a l ɛ ɾ w a ʔ d i n h i p a ʔ a d t o p a k o ʔ s l a j o ʔ m a g p a p a l i t s ʔ i k s i t 
[38.635]
<no-speech> 
[39.815]
j b l i d n a k o ʔ <hes> n a g k w a n m a n k o ʔ d i n h i k a j j ʔ a k o ʔ d i n h i ŋ p ɾ o b l ɛ m a h a n j ʔ a k o ʔ ŋ b l i d p ɛ ɾ t ɛ n a ʤ u d h a b w a n a m a g l i s o d k o ʔ p a g t a ŋ k a s ʔ u n j a ʔ p a g s u n o d n i ʔ a n h i d i n h i ʔ a k o ʔ ŋ k u m p a ɾ i ŋ n a g d a p o d ʔ o g ʃ o ɾ t ŋ ʔ i p a d a l i ʔ ʔ i p a ʔ u n a p a ʤ u d k a j j ʔ i j a h a ŋ g u s t o ŋ m a ʔ u n a ʔ u n j a ʔ ʔ u n s a ʔ o n n a k o ʔ p a g ʔ u n a ŋ p a g h i k a p n a k o ʔ s ʔ i j a ŋ ʃ o ɾ t p ɛ ɾ t ɛ m a ŋ 
[62.335]
ʔ u m o g m a n d i ʔ m a n m a d a l i ʔ ʔ o g d i ʔ m a n m u d a g a n j m a k i n a <oov> ʔ u m o g ʔ i ŋ o n k o ʔ k i n a h a ŋ l a n p a n a ʔ o g h a j 
[70.515]
<no-speech> 
[72.085]
n a g d a n a l a ŋ d a ʔ a n s j a ʔ o g h a 
[75.835]
<no-speech> 
[76.965]
n a g d a l a g i d a 
[78.395]
<no-speech> 
[79.465]
<no-speech> 
[79.825]
<no-speech> 
[81.525]
<no-speech> 
[82.485]
<no-speech> 
[83.605]
<hes> ʔ u s a h a j k a n a ʔ ŋ m a g d i s p l ɛ j k o ʔ ʔ u s a h a j d i h a ʔ s k a n t o d ɛ n s k a n t o m a ɾ u j a k o ʔ ŋ d i ʔ l a ŋ s a d m a g ʔ u l a n k a j k o ʔ ŋ m a g ʔ u l a n w a ʔ m a n k o ʔ j p a n d o ŋ 
[94.865]
<hes> t i n d a t i n d a k o ʔ l a b i n a ʤ u d k a n a ʔ ŋ p i s t a 
[98.735]
<no-speech> 
[101.025]
<no-speech> 
[101.425]
<no-speech> 
[102.695]
ʔ a n h a ʔ 
[103.305]
<no-speech> 
[104.195]
g a n h a n m a n k o ʔ s t a h i ʔ k a j 
[107.655]
<no-speech> 
[108.505]
g a n h a n m a n k o ʔ s t a h i ʔ k a j n a ʔ a l a ŋ k o ʔ s s u d ʔ u n j a ʔ k a n a ʔ ŋ m a g m a ɾ u j a k o ʔ k a j m a g p a s u p a s o m a n k o ʔ d i n h i s ʔ i n i t ʔ u n j a ʔ g a n h a n m a n s a d k o ʔ ʔ o g n a ʔ a j m a ŋ a p i s t a p i s t a k a j d a g h a n k a ʔ a j o ʔ o g 
[120.215]
ʔ o g h a l i n ʔ o g h i n a j k a ʔ a j o k o ʔ ŋ w a ʔ j p i s t a h i n a j m a n k a ʔ a j o m a j o p a ʔ o g m a n a h i ʔ n a l a ŋ k o ʔ <no-speech> k a j s k w a n 
[128.485]
<no-speech> 
[129.415]
<hes> k a j l i s o d k a ʔ a j o ʔ o g m a g ʔ u w a n ʔ u w a n w a ʔ k o ʔ j h a l i n m a j o p a ʔ o g m a n a h i ʔ n a l a ŋ p o d k o ʔ ʔ o g <int> <no-speech> k a w k a m u s t a k a d i h a ʔ 
[141.045]
<no-speech> 
[143.055]
h a 
[143.735]
<no-speech> 
[145.685]
<no-speech> 
[146.065]
<no-speech> 
[149.575]
<hes> n a g l a b a d a k a 
[151.005]
<no-speech> 
[155.285]
ʔ u n s a m a n ʔ u n s a m a n j ʔ i m u h a ŋ k w a n d i h a ʔ ʔ i n a d l a w ʔ o w p a k j a w a n l a ŋ 
[159.255]
<no-speech> 
[160.655]
k a n a ʔ ŋ m a g l a b a p a k j a w a n n a ʔ o w ʔ i n a d l a w <int> 
[163.695]
<no-speech> 
[169.395]
ʔ a j 
[169.925]
<no-speech> 
[171.905]
g a n h a n m a n k o ʔ n i ʔ a n a ʔ ŋ t a g a n h a n m a n s a d k o ʔ n i ʔ a n a ʔ ŋ t a ɾ b a h o 
[175.975]
<no-speech> 
[177.245]
k a n a ʔ ŋ l a b a m a k a d a ʔ o t ʔ a w <hes> <int> g a n h a n m a n s a d k o ʔ n i ʔ a n a ʔ ŋ t a ɾ b a h o ʔ u s a h a j m u d a w a t b i j a ʔ k o ʔ ʔ o g l a b a d a d i n h i k o ʔ ŋ m a k a l u g a ɾ b i s a n ʔ o g ʔ u n s a l a ŋ ʤ u d ŋ t ɾ a b a h u ʔ a b a s t a 
[188.925]
m a k a m a h u ʔ a n n a k o ʔ 
[190.055]
<no-speech> 
[190.985]
p a ʔ i l i n ʔ i l i n l a ŋ 
[192.315]
<no-speech> 
[193.625]
<sta> w a ʔ n a m a n k o ʔ j l a ʔ i n ŋ b u h a t o n <hes> m u d a w a t k o ʔ ʔ o g l a b a d a k a j n a ʔ a m a n ʔ u s a h a j ŋ m i n o s k a ʔ a j o j m a g p a ɾ i p i ɾ d i n h i k a n a ʔ ŋ m a ŋ a k w a n 
[205.445]
ʃ o ɾ t ŋ ʔ u s a h a j k u s o g p o d k a ʔ a j o <hes> k a n a ʔ l a ŋ p o d ʔ a k o ʔ ŋ l i ŋ k u d l i ŋ k u d a n s m a k i n a 
[212.375]
<no-speech> 
[213.405]
n a g p a ɾ a m a k a k w a ɾ t a p o d k i t a ʔ ʔ i n i g k a h u m a n n a ʔ a t a j p a m p a l i t ʔ o g ʔ u n s a ʔ a t o ʔ ŋ g i k i n a h a ŋ l a n k a j w a ʔ ʤ u d t a j l a ʔ i n ŋ t a ɾ b a h o m a d i s k a ɾ t i s ʔ i s a k a ʔ a d l a w p ɛ ɾ t ɛ ŋ p a ʔ i t 
[225.335]
ʔ o j k i n a h a ŋ l a n ʤ u d k i t a ʔ ʔ o g m a ŋ i t a ʔ k i t a ʔ ʔ o g m a k a k w a ɾ t a k i t a ʔ n i ʔ i n i ʔ o g 
[228.715]
<no-speech> 
[230.035]
k a ɾ o n ŋ ʔ a d l a w a ʔ a l k a n s ɛ k a ʔ a j o t a s ʔ a d l a w ŋ <int> w a ʔ t a j n a h i m o ʔ 
[236.315]
<no-speech> 
[237.145]
<hes> k a j k o ʔ ŋ m a g s i g ɛ l a ŋ 
[239.975]
<no-speech> 
[241.975]
ʔ u m k o ʔ ŋ 
[242.765]
<no-speech> 
[250.705]
<no-speech> 
[251.155]
<no-speech> 
[256.975]
m a ʔ o ʔ a k o ʔ ŋ ʔ a k o ʔ l a ŋ k w a n a n d i h a ʔ ŋ k w a n a n n a k o ʔ k o ʔ ŋ ʔ u w a n k a j h a s t a ŋ l a p u k a d i ɾ i s ʔ a m u ʔ a ʔ o j m a j o l a ŋ ʔ u n t a ʔ n a ʔ o g 
[267.855]
<sta> s i g ɛ l a ŋ ʔ o g ʔ i n i t ʔ o g m a g ʔ u l a n k a j h a s o l k a ʔ a j o 
[271.375]
<no-speech> 
[272.415]
s i g ɛ ʔ o g p a s u ʔ p a s o ʔ n i ʔ a n i ŋ l a p o k n a ʔ a k i t a ʔ j p a l i t o n d i d t o ŋ h i l o ʔ o g ʔ u n s a d i h a ʔ s i p i ɾ p ɛ ɾ t ɛ ŋ l a p u k a ʔ u n j a ʔ ʔ a k o ʔ ŋ t i ʔ i l b a w a l ʔ u n t a ʔ n a m a g h u g a s k a j n a g t a h i ʔ k i t a ʔ 
[283.895]
m a k a h u g a s t a k a j m a g k a l a p o k m a n ʔ a t o ʔ ŋ 
[286.765]
<no-speech> 
[287.705]
k w a n t i ʔ i l s l a p o k m a j o ʔ u n t a ʔ ʔ o g s ɛ m ɛ n t o p a n ɛ ʔ a t o ʔ ŋ d a n 
[293.225]
<no-speech> 
[294.185]
ʔ u n j a ʔ j ʔ a k o ʔ ŋ 
[295.215]
<no-speech> 
[299.525]
ʔ o j n a n a g h i m o ʔ b i j a ʔ k o ʔ ʔ o g k w a n d i n h i k a n a ʔ ŋ n a g ɾ i p i ɾ ʔ o g n a ʔ a b i j a ʔ p o d k o ʔ j p u n d a d i n h i ŋ g i t a h i ʔ h a n a k a b u s a n l a ŋ k o ʔ ʔ o g k a t s a ʔ u n j a ʔ t u w a n h a n d ɾ i d b i j a ʔ n ɛ ʔ a k o ʔ ŋ p u n d a 
[311.135]
ʔ i p a ʔ u t a ŋ n a k o ʔ n ɛ ʔ u n j a ʔ h u m a n m a n i ŋ i l k o ʔ k a d a d u m i ŋ g o n a ʔ a ʔ i n ʔ o ɾ d ɛ ɾ t a h i ʔ a n p a g w a ʔ j ʔ o ɾ d ɛ ɾ <hes> m a g ɾ i p i ɾ l a ŋ s <no-speech> ɾ i p i ɾ ɾ i p i ɾ l a ŋ s n a ʔ a m ɛ j d a g h a n d i n h i m a g p a ɾ i p i ɾ 
[323.005]
k a j s ʔ a k u ʔ a <hes> s a g a d ʤ u d d i n h i k a n a ʔ ŋ k w a n s i p i ɾ j k i n a h a ŋ l a n o n k a j m a ŋ a d a ʔ o t j m a ŋ a s i p i ɾ n i l a s ʃ o ɾ t p a n t a l o n n a ʔ a j p a p u t u l a n j k a l i s o d l a ŋ p o d k a j 
[334.615]
n a g k a l a ʔ i n l a ʔ i n ŋ j k a l ɛ ɾ s m a ŋ a ʃ o ɾ t ʔ u s a h a j n a ʔ a p o d j s i p i ɾ ŋ b l u ʔ u n j a ʔ b l u r a p o d ʔ a k o ʔ ŋ m a s a ŋ u n a n k a n a ʔ ŋ n a ʔ a j m a g p a t a h i ʔ ʔ o g p u t i ʔ w a ʔ p o d p u t i ʔ 
[346.225]
<hes> s t a m b a j l a ŋ s ʔ u n a h o n l a ŋ s n a k o ʔ k a t o ŋ t u ŋ ʔ a n a ʔ a d i n h i 
[350.955]
<no-speech> 
[351.765]
k a l ɛ ɾ k a j p a ɾ a l a ŋ ŋ m a t a h i ʔ ʔ u n j a ʔ j ʔ u b a n l a g i d i n a l i ʔ a n <hes> m a ʔ o l a g i ʔ u s a h a j m u ʔ a d t o k o ʔ ʔ o g s i t i 
[358.595]
<no-speech> 
[359.465]
p a l i t k o ʔ ʔ o g h i l o ʔ o g s i p i ɾ 
[363.255]
<no-speech> 
[365.825]
m a n k a j k w a n m a n h i l i g m a n n a n a k o ʔ p ɛ ɾ o ʔ o g d i ʔ n i m o n a h i l i g k a n a ʔ ŋ t ɾ a b a h u ʔ a p ɛ ɾ t ɛ k a p u j a n ʤ u d k a ʔ u n j a ʔ g a n h a n m a n k o ʔ m a n a h i ʔ k a n a ʔ g a l i ʔ ŋ k a n a ʔ g a l i ʔ ŋ l a b a d a ŋ g a n h a n 
[377.605]
k o ʔ ŋ m a g l a b a l a b a g u s t o ʔ u s a b k o ʔ ʔ o g n a ʔ a j m a g p a l a b a d a n a k o ʔ m u l a b a m a n ʔ u s a b k o ʔ b a s t a ʔ a k o ʔ ŋ h i l i g d i ʔ ʤ u d k o ʔ k a p u j a n p ɛ ɾ o k a n a ʔ n u ʔ o n j m a ŋ a l a ʔ i n ŋ t a ɾ b a h o ŋ d i ʔ k o ʔ ŋ g a n h a n <hes> d i ʔ ʤ u d k o ʔ n i ʔ a n a ʔ p ɛ ɾ o k a n a ʔ ŋ l a b a m a g t a h i ʔ g a n h a n k o ʔ n i ʔ a n a ʔ ŋ m a g h i n l u ʔ h i n l o ʔ ʔ o g b a j g a n h a n k o ʔ n i ʔ a n a ʔ p ɛ ɾ o k a n a ʔ ŋ ʔ u b a n ŋ t a ɾ b a h o d i ʔ k a ʔ a j o k o ʔ 
[400.755]
k o ʔ g a n h a n k a p u j a n ʤ u d k o ʔ k a j w a ʔ k o ʔ j h i l i g n i ʔ a n a ʔ 
[404.525]
<no-speech> 
[405.705]
<no-speech> 
[406.115]
<no-speech> 
[408.975]
<sta> n a g t a ŋ k a s m a n ʔ u n t a ʔ k o ʔ n a n a ŋ k a s g a l i ʔ k o ʔ d i n h i ʔ o g k w a n k a n a ʔ ŋ s i p i ɾ k a j m a ŋ a g u b a ʔ ʔ o g ʔ i l i s d a n n a k o ʔ ʔ o g d i ʔ g u b a ʔ ʔ a k o ʔ l a ŋ s g i b u t a ŋ k a j <oov> 
[420.945]
k o ʔ s ʔ a k u ʔ a ŋ b l i d d i n h i ŋ h a s t a ŋ h a b w a n a k i n i d i ʔ a j j b l i d n o w k a ʔ i s a l a ŋ d i ʔ a j g a m i t b a p a g ʔ i k a d u h a n a g a l i ʔ n i m o ʔ o g g a m i t n o w m u ɾ a ʔ o g m a h a b o l n a s j a m a g p a l i t n a ʔ a p o d k a ʔ o g l a ʔ i n k a l a s 
[432.775]
k a ʔ a j o ʔ o g b l i d d i ʔ n a ʔ a t o ʔ p a l i t n a s a d ʔ o g b a g ʔ o m a ʔ o ʔ a k o ʔ n a l a ŋ p o d g i b u t a ŋ g a p a p a l i t n a l a ŋ p o d k o ʔ d i d t o ʔ o g b l i d ʔ o j k a j t i ŋ k a p u j a ʤ u d ʔ o g t a ŋ k a s ŋ 
[444.015]
<no-speech> 
[444.905]
h a b o l j b l i d p ɛ ɾ o ʔ o g b a g ʔ o g a l i ʔ j b l i d <hes> h a s t a ŋ d a l i ʔ a l a ŋ m a h i w a ʔ j m a ŋ a d a j m a ŋ a k w a n s i p i ɾ l a b a j d a j o n t a ʔ o d d a j o n s j a 
[456.785]
<no-speech> 
[457.755]
k a j d i ʔ m a n p w i d i ʔ o g d i ɾ i t s u h o n n i m o ʔ o g t a ʔ o d n a 
[461.265]
<no-speech> 
[462.845]
ʔ u ʔ o n a ʔ a j n a g p a t a h i ʔ g a l i ʔ ŋ b a g ʔ o l a ŋ ʔ u s a b k a ɾ o n ʔ i s a k a b a g n a g k a l a ʔ i n l a ʔ i n l a ŋ n a ʔ a j ʃ o ɾ t s b a t a ʔ n a ʔ a j p a n t a l o n p a p u t u l a n <no-speech> ʔ i s a k a b a g p ɛ ɾ o ʔ u n j a ʔ n a d a w n j a 
[474.405]
k u h a ʔ o n k a ɾ o n ŋ 
[475.375]
<no-speech> 
[476.175]
m a ɾ t ɛ s <hes> d i ʔ k a ʔ a j o d i n a l i ʔ a n <hes> s i g ɛ <oov> ʔ u n j a ʔ l a ŋ s a d n ɛ ŋ m a ɾ t ɛ s n a k o ʔ d a l i ʔ l a ŋ m a n n ɛ k a j j ʔ a k o ʔ ŋ t a h i ʔ u n o n d i n h i ʔ i g o ʔ r a m a n p a m u t l a n p u t w a n ʔ o g p a 
[487.305]
t a h i ʔ b a j p a ʔ a p a ʔ a k u t o b ŋ p a n t a l o n ʔ u n j a ʔ ʔ u n a h o n l a ŋ s n a k o ʔ n ɛ ʔ u n j a ʔ m a ɾ t ɛ s p a m a n l u k a t o n t u ŋ k w a n k a t o ŋ k w a n ʔ i s a 
[498.825]
k a b a g d i d t o ŋ n a g k a l a ʔ i n l a ʔ i n l a ŋ j ɾ i p i ɾ u n o n 
[501.645]
<no-speech> 
[502.455]
ʔ u n j a ʔ n a l a ŋ n a k o ʔ k a d t o t a h i ʔ o n 
[504.155]
<no-speech> 
[505.555]
<hes> ʔ u n j a ʔ j ʔ a j ʔ a k o ʔ l a ŋ g i k a g u l ʔ a n n i ʔ a n i l a g i k o ʔ ŋ 
[509.805]
<no-speech> 
[511.655]
h ɛ l o w 
[512.335]
<no-speech> 
[515.395]
<hes> j ʔ a k o ʔ l a ŋ k a k u w a n a n n i ʔ a n i k a j m u b a ɾ o g p a k o ʔ k a j ʔ u ɾ a s n a ʔ a p o d t i ŋ l u t o ʔ m a g l u t o ʔ n a ʔ a p o d k o ʔ ʔ u n j a ʔ d i ʔ m a n ʔ u n t a ʔ k o ʔ b a g a j ʔ u n t a w o n m a g b a s a b a s a ʔ a n a ʔ ʔ o g 
[526.705]
t u b i g k a j b a w a l m a n ʤ u d n a s ʔ a t u ʔ a ŋ k a m o t ŋ m a b a s a ʔ u n j a ʔ j t i ʔ i l ʔ a j ʔ u s a h a j ʤ u d ʔ o g m a g k i l i s k o ʔ d i n h i ʔ o g m a ŋ l u ŋ ʔ a g ʔ a k o ʔ n a l a ŋ ʔ i j ʔ a k o ʔ ŋ g a m i t o n 
[538.315]
k a t o ŋ l u w a g ʔ u k a j o n n a k o ʔ ʔ u n j a ʔ h u m a n s u k u d o n n a k o ʔ t a k ʔ a ŋ ʔ u n j a ʔ ʔ a ɾ o n l a ŋ d i ʔ m a b a s a ʔ a k o ʔ ŋ k a m o t b a k a j ʔ a m p i ŋ ʔ u n t a w o n t a k a j s o s t i g w a ŋ n a ʔ a t o ʔ ŋ k a m o t b a s i ʔ o g 
[549.335]
m a ŋ w a n l a ŋ m a s u ʔ u t a n b a h a 
[555.065]
<no-speech> 
[555.865]
k a h o j m a n ʔ a m o ʔ ŋ g a m i t 
[557.765]
<no-speech> 
[559.225]
h a 
[561.615]
<no-speech> 
[565.165]
k a j 
[567.165]
<no-speech> 
[570.925]
<no-speech> 
[571.585]
<no-speech> 
[572.675]
<sta> j ʔ a k u ʔ a l a ŋ k a j p a g k a m a t a k ʔ a ŋ n a k o ʔ <hes> ʔ o k i n a l a ŋ n a s i l a ʔ o g m a l u t o ʔ p w i d i j m a ŋ u l i ʔ k a d t o ʔ a k o ʔ ŋ ŋ ʔ ɛ s t u d j a n t ɛ <hes> m a ŋ a ʔ o n n a l a ŋ n a s i l a d i h a ʔ d i ʔ n a k o ʔ m a g k w a n n i l a b a s t a l a ŋ <oov> 
[584.415]
<sta> ʔ u m k a j 
[587.235]
<no-speech> 
[589.895]
ʔ u ʔ o m u t a h i ʔ m a n ʔ u s a b k o ʔ k a j n a ʔ a b a j a ʔ j m u ʔ i ŋ o n d a j o n ŋ h u m a n a l a ŋ d a j o n n a ʔ o j k a j s u l ʔ u b o n n a k o ʔ ʔ u n j a ʔ ŋ h a p o n ʔ i ŋ o n k o ʔ ŋ n a ʔ a l a g i d i n a l i ʔ a n l a g i d i n h i ŋ g i ʔ i ŋ n a n n a k o ʔ ŋ d i ʔ n ɛ 
[601.805]
p w i d i ŋ m a d a l i ʔ k i n a h a ŋ l a n n ɛ ʔ i h a j l a ŋ s n ɛ k a j 
[605.115]
<no-speech> 
[605.280]
