[0.000]
<no-speech> 
[10.845]
h ɛ l o w 
[11.485]
<no-speech> 
[15.085]
h ɛ l o w ʔ o w k a m u s t a 
[18.305]
<no-speech> 
[20.195]
ʔ o w 
[20.905]
<no-speech> 
[24.105]
ʔ a j ʔ o k i l a ŋ g i h a p o n m a ʔ o l a ŋ g i h a p o n n a g k a n a ʔ ŋ h i n a j h i n a j ʔ o g k w a n p a ŋ i n a b u h i ʔ <no-speech> ʔ o w <no-speech> ʔ o w <no-speech> ʔ u m 
[33.265]
<no-speech> 
[34.415]
ʔ o w 
[35.145]
<no-speech> 
[36.925]
h a 
[37.605]
<no-speech> 
[40.825]
ʔ o w n a ŋ a n h i s i l a 
[42.215]
<no-speech> 
[43.945]
ʔ o w k a d t o ŋ k w a n n a n a g k o t k a m i 
[46.455]
<no-speech> 
[47.805]
ʔ a j ʔ o k i l a ŋ g i h a p o n n a ŋ a d t o k a m i n a g k u j o g k a m i k a m i n i l a 
[51.115]
<no-speech> 
[52.655]
n a g k u j o g k a m i <no-speech> m a ŋ a b a t a ʔ 
[55.395]
<no-speech> 
[56.245]
ʔ a m b o t w a ʔ m a n k a 
[57.645]
<no-speech> 
[59.745]
w a ʔ m a n n i ʔ a n h i ʔ o j ʔ a m b o t n a ʔ u n s a n a ŋ b a j h a n a w a ʔ n a m a n m u s u ɾ o j w a ʔ n a m a n k a ʔ a n h i k a m i l a ŋ ʔ a d t o d i d t o s k w a n m i n t i ɾ j o 
[66.595]
<no-speech> 
[68.605]
k u j o g m i s m a ŋ a b a t a ʔ 
[70.045]
<no-speech> 
[72.085]
w a ʔ w a ʔ m a n m u k w a n d i d t o 
[73.765]
<no-speech> 
[78.665]
w a ʔ m a n k a j w a ʔ m a n g a l i ʔ w a ʔ m a n w a ʔ m a n m a ŋ a b u w a k w a ʔ m a n m a ŋ a k a n d i l a ʔ w a ʔ m a n k w a n d i d t o p a g ʔ a d t o n a m o ʔ k a m i l a ŋ p a g k a m i l a ŋ ʤ u d n a ŋ a d t o k a j m a ʔ i l h a n b a j a ʔ n a ʔ o g k a n a ʔ ŋ k w a n ʔ o g k a n a ʔ ŋ n a ʔ a n i ʔ a d t o k a j n a k a ʔ u n a 
[90.375]
s ʔ a m u ʔ a ʔ u n j a ʔ w a ʔ m a n k a m i r a 
[92.075]
<no-speech> 
[93.705]
k a m i r a g i h a p o n <no-speech> ʔ u m 
[96.085]
<no-speech> 
[102.205]
ʔ o w n a ʔ a j p w ɛ ɾ t ɛ ŋ p w ɛ ɾ t ɛ ŋ 
[104.245]
<no-speech> 
[108.195]
ʔ o w m a ʔ o g a l i ʔ ʔ o w m a ʔ o t u k a m i ŋ k u j u g a ʔ u n j a ʔ k a j g i ʔ a n h i n a k o ʔ ʔ o j k a j n a g h a n d a ʔ h a n d a ʔ b a j a ʔ m i ʔ a t o ʔ g a m a j d i ɾ i s b a j <no-speech> ʔ u n j a ʔ g i p a ʔ a n h i n a k o ʔ g i p a t a b a ŋ n a k o ʔ ʔ o g k a n a ʔ ŋ k w a n 
[119.935]
t a ɾ b a h o d i n h i s k w a n ʔ u n j a ʔ n a l i p a j s a d s j a k a j g i p a k u j o g n a l a ŋ p o d n a m o ʔ n a ʔ a s j a s ʔ a k u ʔ a ʔ u m <breath> n a g h i s g u t h i s g o t m i d i ɾ i ʔ u n s a j m a j o ŋ k w a n p o d 
[130.465]
<no-speech> 
[132.365]
ʔ u m h u m 
[133.035]
<no-speech> 
[139.055]
ʔ o w p u h o n s u ɾ o j ʔ o j ʔ a n h i ʤ u d d i ɾ i ʔ o j k a j b a j a ʔ k a b a w b a j a ʔ p o d k a ʔ u m ʔ a n h i p o d k a 
[145.605]
<no-speech> 
[146.695]
ʔ a ɾ o n 
[147.235]
<no-speech> 
[148.095]
h a 
[148.745]
<no-speech> 
[151.405]
ʔ o j k a m u s t a m a n d i ʔ a j t u <no-speech> ʔ o j k a m u s t a m a n d i ʔ a j k a d t o ʔ i m o ŋ t i ʔ i l n a ʔ a j o n a 
[155.165]
<no-speech> 
[157.575]
n a ʔ a j o n a 
[158.455]
<no-speech> 
[165.595]
w a ʔ m a n p o d k a n a g h i n a j ʔ o j 
[167.105]
<no-speech> 
[171.405]
w a ʔ m a n p o d k a n a g h i n a j 
[172.935]
<no-speech> 
[176.555]
<laugh> l u ʔ u j a p o d n i m o ʔ o j ʔ o w l u ʔ u j a p o d n i m o 
[181.375]
<no-speech> 
[187.905]
ʔ u ʔ o k a j b a s t a m u h u b a g n a n a s j a s a k i t n a m a n n a k a ʔ a j o h i l u t o n 
[191.435]
<no-speech> 
[192.355]
b a s t a m u h u b a g <no-speech> n a k a h u b a g n o w 
[194.675]
<no-speech> 
[197.175]
ʔ u m g a l i ʔ n a k a h u b a g n o w n a k a h u b a g 
[199.735]

[202.915]
ʔ u m b a s t a k a n a ʔ ŋ m a k a h u b a g n a k a n a ʔ 
[205.475]
<no-speech> 
[207.105]
h a 
[207.725]
<no-speech> 
[209.415]
b a s t a m a k a h u b a g n a n a s j a 
[211.195]
<no-speech> 
[212.855]
<hes> ʔ o w m a ʔ o g a l i ʔ ʔ o w 
[215.975]
<no-speech> 
[218.115]
m a ʔ o g a l i ʔ t u 
[219.045]
<no-speech> 
[219.985]
ʔ o w t a ʔ u d t a ʔ o d n a l a k a w n a s j a 
[223.235]
<no-speech> 
[224.385]
t a ʔ u d t a ʔ o d n a 
[225.415]
<no-speech> 
[226.625]

[226.985]
<no-speech> 
[230.925]
ʔ a j 
[231.855]
<no-speech> 
[237.795]
d a ʔ l a g i d a ʔ ʔ o w n i s u l t i m a n s j a s ʔ a k u ʔ a d i ʔ a d i ɾ i s i 
[240.155]
<no-speech> 
[241.845]
ŋ a n i ʔ n i s u l t i m a n s i b ɛ b i s ʔ a k u ʔ a ŋ m i ŋ ʔ a n h i d a w k a ʔ a j <hes> b i ɾ t d i d a w n i k w a n m i s i g a h a p o n n i s u l t i m a n s i b ɛ b i s ʔ a k u ʔ a 
[248.295]
<no-speech> 
[249.505]
ʔ u m ʔ u n j a ʔ m a ŋ a b a t a ʔ k a m u s t a n a m a n d i h a ʔ 
[252.235]
<no-speech> 
[254.275]
m a ŋ a b a t a ʔ k a m u s t a n a 
[256.045]
<no-speech> 
[256.895]
ʔ a w <no-speech> ʔ a k o ʔ g a l i ʔ ʔ o j k a j 
[259.105]
<no-speech> 
[260.335]
<hes> <laugh> ʔ a n a ʔ ʤ u d n a s i l a ŋ m a ŋ a b a t a ʔ d i n a ʔ a k u ʔ a b i t a w d i ɾ i p o d m a ʔ o m a n g i h a p o n ʔ o j d a ʔ p a ɾ ɛ h a s r a m a n n ɛ s i l a <no-speech> p a ɾ ɛ h a r a n ɛ s i l a m a ŋ a b a t a ʔ m a ŋ a b a d l u ŋ o n <hes> k w a n k a ʔ a j o m a ʔ o n a ʔ a n t o s l a ŋ ʤ u d 
[272.275]
b i s a g h i n a j h i n a j ʔ o g k w a n s ʔ i l a h a b a d l u ŋ b a d l u ŋ o n l a ŋ p o d 
[274.765]
<no-speech> 
[276.945]
l a g i k a j d i 
[278.155]
<no-speech> 
[279.565]
ʔ u m h u m 
[280.175]
<no-speech> 
[281.295]
ʔ u m h u m ʔ u n s a n a m a n k a d i h a ʔ ʔ u m <int> 
[285.165]
<no-speech> 
[286.685]
<hes> 
[287.395]
<no-speech> 
[290.685]
ʔ o w s i g ɛ r a ʤ u d 
[291.795]
<no-speech> 
[294.495]
ʔ u m h u m 
[295.235]
<no-speech> 
[297.595]
h a 
[298.205]
<no-speech> 
[299.055]
ʔ o w k a l a k a w l a k a w n a p o d m a ʔ o p a p a g b a l i k ʔ o g t a ɾ b a h o 
[301.745]
<no-speech> 
[302.725]
ʔ o w m a ʔ o p a p a g b a l i k ʔ o g t a ɾ b a h o t a ʔ u d t a ʔ o d n a p o d <no-speech> ʔ u m h u m 
[306.545]
<no-speech> 
[307.675]
k a t ɾ a b a h o s j a ʔ o g k w a n h i n a j h i n a j ʔ o j k a j d a ʔ k a j b a g ʔ o p a b a j a ʔ k a ʔ o g d i ʔ p o d m u t ɾ a b a h o ʔ a s a m a n k i t a ʔ d i ʔ k i t a ʔ m a ŋ a b u h i ʔ ʔ a n i 
[313.375]
<no-speech> 
[314.725]
m a ʔ o ʤ u d 
[315.525]
<no-speech> 
[316.605]
h i n a j h i n a j ʔ o j k a j ʔ u m h u m k a j d i ʔ m u t ɾ a b a h o 
[319.715]
<no-speech> 
[321.235]
ʔ u m h u m <int> 
[322.235]
<no-speech> 
[324.325]
m a ʔ o ʤ u d l a g i k a j k w a n p a ʔ i t k a ʔ a j o 
[327.285]
<no-speech> 
[333.125]
d a ʔ m a m a ŋ a b a t a ʔ r a ʔ a k o ʔ d i ʔ a j d i ɾ i m a ŋ a 
[335.635]
<no-speech> 
[337.435]
ʔ u m <no-speech> d a ʔ ʔ u n j a ʔ b a m a ŋ a b a t a ʔ ʔ i s k u j l a b a j a ɾ a n a n s ʔ i s k w ɛ l a h a n <no-speech> d a g h a n a 
[343.175]
<no-speech> 
[344.805]
ʔ o w d a g h a n k a ʔ a j o ŋ b a j a ɾ u n o n m a ŋ a p a ʔ i t k a ʔ a j o 
[349.015]
<no-speech> 
[350.835]
ʔ u m h u m ʔ u m h u m 
[352.105]
<no-speech> 
[355.075]
ʔ u m h u m 
[355.695]
<no-speech> 
[356.735]
h a 
[357.325]
<no-speech> 
[358.485]
ʔ o j 
[359.095]
<no-speech> 
[363.845]
ʔ o j b i t a w g i k w a n b i t a w t u s k w a n ʔ o w k a k i t a ʔ k o ʔ s k a k i t a ʔ k o ʔ s t i b i ʔ a t o ʔ b a n i n d o t k a ʔ a j o k a d t o n o w 
[368.695]
<no-speech> 
[369.875]
n i n d o t k a ʔ a j o n i t a n ʔ a w n a m o ʔ ʔ a t o ʔ <no-speech> d i h a ʔ <no-speech> n i t a n ʔ a w d i ʔ a j m o ʔ a t o ʔ m a j o p a m o k a j n a ʔ a n a m o ʔ d a ʔ a n t a n ʔ a w t a n ʔ a w p a m o 
[378.225]
<no-speech> 
[379.135]
h a 
[379.645]
<no-speech> 
[382.595]
<hes> 
[383.415]
<no-speech> 
[384.615]
<hes> l a ʔ a g l a ʔ a g l a ŋ ʤ u d ʔ a w ʔ a n a ʔ ʤ u d k a j ʔ o w k a j n a ʔ a n a m a n k a m o d i h a ʔ ʔ a ŋ ʔ a ŋ m u ʔ a d t u ʔ a d t o k w a n p a d i ʔ l a ʔ a g l a ʔ a g p o d p a n a g s a ʤ u d k a j m a g s i g ɛ r a k i t a ʔ ʔ o g p u j o ʔ ʔ o g b a j ʔ u n j a ʔ k a h i b a w b a j a ʔ k a b a g ʔ o p a b a j a ʔ k i t a ʔ m a ŋ a k w a n 
[395.715]
s k i n a b u h i ʔ n a ʔ a j m a ŋ a p a g s w a j d i ʔ 
[397.805]
<no-speech> 
[399.435]
ʔ a n a ʔ ʤ u d k a n a ʔ 
[400.305]
<no-speech> 
[401.115]
ʔ u m h u m 
[401.665]
<no-speech> 
[410.195]
ʔ u ʔ o ʔ u n j a ʔ l a j o ʔ ʔ o j 
[411.495]
<no-speech> 
[413.515]
ʔ o w l a g i p o d <no-speech> ʔ u m 
[415.655]
<no-speech> 
[418.125]
ʔ u m h u m 
[418.565]
<no-speech> 
[422.125]
ʔ u m h u m 
[422.805]
<no-speech> 
[430.775]
ʔ o w l a g i m a ʔ a n a ʔ m a n ʤ u d n a k a j t a g s a r a b a j a ʔ t a m u ʔ a n h i ʔ u n j a ʔ <foreign> ʤ u d t a m a g d a t a b a s i ʔ o g b a s i ʔ o g m a ŋ a 
[437.335]
<no-speech> 
[438.645]
g i n a g m a j ʔ o w m a g d a ʤ u d k a ʔ o g <foreign> g i n a g m a j k a l u j ʔ a n s ʤ i n u ʔ o ʔ o g n a ʔ a p a n a l a ŋ i n <no-speech> p u h u n p u h o n ʔ o g m a k a ʔ a n h i k a ʔ o w 
[446.935]
<no-speech> 
[453.335]
g a l i ʔ p u h o n ʔ o g m a k a s u ɾ o j m a g d a k a ʔ o g k w a n ʔ o w h ɛ l o w <no-speech> d i 
[458.625]
<no-speech> 
[460.325]
ʔ u m h u m ʔ o w s i g ɛ ʔ o w 
[462.815]
<no-speech> 
[464.135]
k w a n t a ɾ b a h o <no-speech> t a ɾ b a h o s j a h a 
[468.055]
<no-speech> 
[469.135]
ʔ o w 
[469.915]
<no-speech> 
[475.425]
ʔ a j g i d a m a n n i k w a n n ɛ ʤ u n a t a n 
[478.325]
<no-speech> 
[488.755]
ʔ a j s i k w a n 
[489.755]
<no-speech> 
[491.225]
<hes> l a g i <no-speech> m a ʔ o l a g i p o d ʔ o j d a j d a j 
[495.045]
<no-speech> 
[498.785]
ʔ u ʔ o n a k a d a ʔ o g p a k o ʔ ʔ o g ʔ a j k w a n k a d t o ŋ k w a n b a k a d t o ŋ k a d t o ŋ s i l k a d t o ŋ s ɛ l p o n n a k o ʔ g a l i ʔ ŋ ʔ i m o g i n a t a w a g a n k w a n t u ʔ o j t u ʔ a s ʔ a k o ʔ ŋ ʔ a n a k ʔ u n j a ʔ k w a n d i k a n a ʔ ŋ k a m u s t a d i h a ʔ d i w a ʔ d i ʔ a j w a ʔ s i 
[510.375]
ʔ u w a n d i h a ʔ d i 
[511.235]
<no-speech> 
[515.555]
w a ʔ n a g s i g ɛ ʔ o g ʔ u w a n ʔ u w a n ʔ a n a ʔ ŋ m a j o j p a n a h o n m a j o n a j p a n a h o n d i h a ʔ 
[519.045]
<no-speech> 
[525.235]
m a j o n a b a j p a n a h o n d i h a ʔ w a ʔ n a b a j k w a n k a ʔ a j o 
[528.025]
<no-speech> 
[528.955]
j ʔ a m u ʔ a d i ɾ i s i g ɛ ʔ o g ʔ u w a n ʔ u w a n 
[530.675]
<no-speech> 
[532.685]
ʔ a m u ʔ a d i ɾ i m u k a l i t l a ŋ ʔ o g ʔ u w a n ʔ o g k a l i t ʔ u n j a ʔ t u g n a w p a ʤ u d 
[535.685]
<no-speech> 
[537.055]
ʔ o w t u g n a w k a ʔ a j o j p a n a h o n 
[538.425]
<no-speech> 
[543.195]
ʔ u m h u m m a ʔ o l a g i 
[544.975]
<no-speech> 
[547.605]
m a ʔ o p o d ʔ a m o ʔ 
[548.815]
<no-speech> 
[551.215]
<no-speech> 
[551.805]
<no-speech> 
[554.055]
ʔ a m b o t n j a s j a r a j ʔ a k o ʔ ʔ a g d o n ʔ o g k a n u s ʔ a s j a m u ʔ a n h i 
[556.805]
<no-speech> 
[559.345]
w a ʔ k o ʔ k a h i b a w ʔ o g k a n u s ʔ a s j a m u ʔ a n h i r a m a n n a ʔ o g k a l i t 
[562.315]
<no-speech> 
[568.595]
<hes> b a h a l a ʔ s j a 
[569.655]
<no-speech> 
[571.355]
m a ʔ o k a d u h a p a m a n s j a k a ʔ a d t o 
[573.925]
<no-speech> 
[574.875]
h a 
[575.465]
<no-speech> 
[580.175]
ʔ o w <hes> g i s u l t i ʔ a n n a l a ŋ n a k o ʔ 
[582.175]
<no-speech> 
[583.535]
ʔ u m h u m ʔ a k o ʔ ŋ g i ʔ i s t u ɾ j a h a n 
[585.745]
<no-speech> 
[589.505]
l a g i g i ʔ i s t u ɾ j a h a n m a n n a k o ʔ ʔ u m h u m 
[591.665]
<no-speech> 
[593.205]
g i ʔ i s t u ɾ j a h a n n a k o ʔ s j a ʔ o j p a ɾ a w a ʔ s a m o k 
[595.435]
<no-speech> 
[597.365]
<hes> ʔ o w m a ʔ o l a g i m a ʔ o l a g i d a ʔ n a ʔ a p a k i t a ʔ j d a g h a n k a ʔ a j o ŋ g i h u n a ʔ h u n a ʔ s ʔ a t o ʔ ŋ p a ŋ i n a b u h i ʔ ʔ u n j a ʔ n a ʔ a k a p a s ʔ a k o ʔ d a ʔ 
[603.615]
<no-speech> 
[605.280]
