[0.000]
<no-speech> 
[6.145]
<hes> k a ɾ k a ɾ <int> 
[7.155]
<no-speech> 
[9.675]
<hes> 
[10.825]
<no-speech> 
[12.125]
k a n a b a 
[12.995]
<no-speech> 
[15.255]
d i ʔ n a k o ʔ m a b a t i ʔ ʔ i m o ŋ ʔ i s t u ɾ j a 
[16.995]
<no-speech> 
[18.305]
<sta> <hes> 
[25.435]
<no-speech> 
[28.175]
<sta> ʔ u n s a d i ʔ a j ʔ a t o ʔ ŋ p a g a ʔ i s t u ɾ j a h a n ʔ a n i k a ɾ o n 
[30.445]
<no-speech> 
[33.555]
ʔ u n s a 
[34.275]
<no-speech> 
[35.805]
h i n a j k a ʔ a j o ʔ i j a ŋ t i ŋ o g b a 
[37.135]
<no-speech> 
[37.935]
k u s u g i <sta> ʔ i m o ŋ t i ŋ o g b a k u s u g i 
[39.685]
<no-speech> 
[41.855]
<sta> m a g k a m b j o m i 
[44.815]
<no-speech> 
[47.315]
h a 
[47.735]
<no-speech> 
[51.485]
m a g w a ŋ m a n k a d t o s ʔ a k u ʔ a 
[52.605]
<no-speech> 
[53.955]
<int> h ɛ l o w k a ɾ k a ɾ k u s u g a p o d n a ʔ i m o ŋ t i ŋ o g b a d i ʔ k o ʔ k a b a t i ʔ 
[58.185]
<no-speech> 
[60.345]
h i n a j k a ʔ a j o n a ʔ i m o ŋ t i ŋ o g b a k a n a ʔ ŋ p i n a s i ŋ k a ŋ ʔ i s t u ɾ j a g a l i ʔ 
[64.615]
<no-speech> 
[66.535]

[67.125]
<no-speech> 
[67.965]
<no-speech> 
[68.315]
<no-speech> 
[70.375]
k a w n a g ʔ i s t u ɾ j a d i h a ʔ w a ʔ k o ʔ k a b a w ʔ u n s a n a ʔ i m o ŋ g i ʔ i s t u ɾ j a <laugh> 
[73.395]
<no-speech> 
[75.625]
k u s u g a b a k u s u g a 
[76.995]
<no-speech> 
[79.105]
<no-speech> 
[79.875]
<no-speech> 
[86.475]
h a 
[87.035]
<no-speech> 
[89.745]
<sta> h ɛ l o w k a ɾ 
[93.185]
<no-speech> 
[95.305]
<oov> w a ʔ ʤ u d k o ʔ j n a b a t i ʔ a n ʔ a n i b a 
[97.955]
<no-speech> 
[101.185]
h a h a 
[101.905]
<no-speech> 
[103.135]
<no-speech> 
[103.545]
<no-speech> 
[106.565]
<no-speech> 
[108.015]
<no-speech> 
[110.885]
ʔ a k o ʔ ŋ m a b a t i ʔ a n <oov> m u ɾ a ʔ o g h i n a j m a n ʤ u d k a m u p ɾ o n a w n s b a 
[113.865]
<no-speech> 
[115.755]
<no-speech> 
[116.175]
<no-speech> 
[117.125]
<int> <hes> k a n a ʔ k a n a ʔ m ɛ d j o k u s u g a p a 
[120.185]
<no-speech> 
[122.165]
<hes> ʔ u n s a m a n <no-speech> <sta> h a 
[126.985]
<no-speech> 
[128.455]
ʔ u n s a ʔ u n s a 
[129.265]
<no-speech> 
[130.575]
<no-speech> 
[132.195]
<no-speech> 
[138.625]
m a t a j d i ʔ <laugh> n a k o ʔ m a k l a ɾ o <breath> d i ʔ n a k o ʔ m a k l a ɾ o ʔ i m o ŋ <oov> 
[142.565]
<no-speech> 
[143.765]
<sta> ʔ a n a ʔ ʔ i m o ŋ t i ŋ o g b a k a n a ʔ ŋ m u ɾ a ʔ o g k u s o g ʤ u d k a ʔ a j o b a m u ɾ a k a ʔ o g <oov> 
[148.495]
<no-speech> 
[150.565]
p i n a s i ŋ k a g a l i ʔ k u s o g n a <int> k a ʔ a j o 
[152.595]
<no-speech> 
[153.495]
<no-speech> 
[154.795]
<no-speech> 
[156.355]
h ɛ l o w h ɛ l o w <int> k a ɾ 
[157.405]
<no-speech> 
[160.445]
<sta> h a 
[161.375]
<no-speech> 
[166.565]
<no-speech> 
[167.975]
<no-speech> 
[168.805]
w a ʔ j k l a ɾ o w a ʔ ʤ u d k o ʔ j n a s a b u t a n s ʔ i m o ŋ ʔ i s t u ɾ j a b a 
[171.375]
<no-speech> 
[172.905]
ʔ a k o ʔ n a l a ŋ m a ŋ u t a n a s ʔ i m u h a 
[174.615]
<no-speech> 
[176.025]
m a s m a j o p a 
[176.965]
<no-speech> 
[180.255]
ʔ a k o ʔ ʔ i ŋ o n m a ŋ u t a n a 
[181.175]
<no-speech> 
[184.545]
m a t a j d i ʔ ʤ u d k o ʔ k a b a t i ʔ <sta> s ʔ i m o ŋ ʔ i s t u ɾ j a b a <no-speech> w a ʔ ʤ u d 
[187.875]
<no-speech> 
[189.285]
p u t u l p u t o l 
[190.265]
<no-speech> 
[193.485]
<hes> k a ɾ o n m a ŋ u t a n a n a k o ʔ s ʔ i m u h a 
[195.135]
<no-speech> 
[197.755]
ʔ o s k a ɾ 
[198.915]
<no-speech> 
[200.045]
<sta> ŋ u t a n a n a k o ʔ s ʔ i m u h a 
[201.325]
<no-speech> 
[202.375]
<hes> ʔ u n s a ʔ i n j o ŋ s u d ʔ a n r o n 
[204.035]
<no-speech> 
[205.885]
ʔ u n s a ʔ i n j o ŋ s u d ʔ a n <int> 
[209.105]
<no-speech> 
[209.955]
<hes> 
[210.485]
<no-speech> 
[212.465]
ʔ u n s a ʔ u n s a 
[213.245]
<no-speech> 
[216.125]
ʔ u n s a j 
[217.135]
<no-speech> 
[219.145]
<no-speech> 
[219.675]
<no-speech> 
[220.495]
<sta> d i ʔ ʔ u t a ŋ ʔ u t a n b a ʔ u t a n <no-speech> ʔ u n s a ʔ i n j o ŋ ʔ u t a n <no-speech> g u l a j <no-speech> g u l a j ʔ o w ʔ u t a n 
[228.905]
<no-speech> 
[229.715]
<hes> ʔ u n s a m a n 
[230.545]
<no-speech> 
[232.415]
<hes> ʔ a w g b a t i 
[233.425]
<no-speech> 
[237.805]
w a ʔ ʤ u d k o ʔ j n a s a b u t a n b a <int> 
[240.355]
<no-speech> 
[242.875]
<sta> ʔ u n s a ʔ u n s a ʔ u n s a 
[243.905]
<no-speech> 
[245.705]
h a 
[247.705]
<no-speech> 
[251.735]
m a g l i s o d m a n k o ʔ 
[252.875]
<no-speech> 
[253.825]
<no-speech> 
[255.315]
<no-speech> 
[256.485]
ʔ o g ʔ a k o ʔ j m a g ʔ i s t u ɾ j a s ʔ i m u h a k a n a ʔ ŋ k u s o g <int> k u s u g a ʤ u d b a k a n a ʔ ŋ s i ŋ k a g a l i ʔ 
[261.055]
<no-speech> 
[264.235]
p a ɾ ɛ h a ʔ a n a ʔ ʔ o s k a ɾ ʔ a n a ʔ b a 
[267.835]
<no-speech> 
[268.865]
ʔ u n s a m a n ʔ a n a ʔ b a <int> 
[270.395]
<no-speech> 
[272.325]
<no-speech> 
[273.525]
<no-speech> 
[275.165]
<hes> h ɛ l o w k a ɾ k a ɾ <no-speech> k a ɾ h o j 
[278.955]
<no-speech> 
[281.245]
ʔ i ŋ o n ʔ a n a ʔ ŋ s u l t i b a ʔ a ɾ o n m a b a t i ʔ a n n a k o ʔ 
[285.085]
<no-speech> 
[288.695]
h a 
[289.235]
<no-speech> 
[290.445]
<sta> w a ʔ g i h a p o n j u s l i s l a ŋ g i h a p o n ʔ i m o ŋ s i g ɛ k a ʔ o g p a ŋ u t a n a s ʔ a k u ʔ a <no-speech> <sta> d i ʔ k o ʔ k a ʔ a n s ɛ ɾ s ʔ i m o ŋ p a ŋ u t a n a k a j d i ʔ k o ʔ k a b a t i ʔ k a ʔ a j o 
[300.845]
<no-speech> 
[307.175]
<no-speech> 
[308.265]
<no-speech> 
[309.275]
<sta> w a ʔ l a ŋ g i h a p o n b a j d i ʔ g i h a p o n m a b a t i ʔ a n ʔ i j a ŋ t i ŋ o g b a <no-speech> h i n a j m a n ʤ u d 
[314.405]
<no-speech> 
[316.215]
<hes> ʔ a n a ʔ k a ɾ k a ɾ 
[317.705]
<no-speech> 
[320.205]
ʔ i j a ŋ t i ŋ o g k w a n b a m u ɾ a ʔ o g ʔ i ŋ o n ʔ a n a ʔ l a ŋ g a l i ʔ <sta> k a n a ʔ ŋ p i n a s i ŋ k a g a l i ʔ ʔ u n t a ʔ b a p a ɾ ɛ h a ʔ a n i r o n <hes> k a ɾ ʔ a n a ʔ b a <no-speech> ʔ o j <int> <laugh> 
[332.055]
j ʔ i j a ŋ ʔ i s t u ɾ j a m u ɾ a ʔ o g d i h a ʔ r a t a m a n b a k a n a ʔ ŋ k u s o g ʔ u n t a ʔ 
[335.315]
<no-speech> 
[336.735]
<sta> <hes> ʔ u n s a n a m a n k a d i h a ʔ m u ɾ a m a g d i ʔ n a m a n k a m u t i ŋ o g 
[340.495]
<no-speech> 
[341.675]
t i ŋ u g t i ŋ o g p o d 
[342.825]
<no-speech> 
[345.785]
h a <sta> 
[348.145]
<no-speech> 
[349.135]
<no-speech> 
[351.395]
<no-speech> 
[352.505]
n a ʔ u n s a m a n n a ʔ o j ʔ o w ʔ a s a n a m a n k a 
[354.715]
<no-speech> 
[359.965]
h a 
[360.525]
<no-speech> 
[362.095]
<sta> w a ʔ g i h a p o n d i ʔ l a ŋ g i h a p o n m a b a t i ʔ a n ʔ i m o ŋ ʔ i s t u ɾ j a 
[366.225]
<no-speech> 
[370.255]
<sta> <hes> ʔ u n j a ʔ ʔ u n s a m ɛ j ʔ i p a ŋ u t a n a k a ɾ o n b i ʔ a k o ʔ j m a ŋ u t a n a s ʔ i m u h a b i 
[373.255]
<no-speech> 
[374.295]
h a 
[375.755]
<no-speech> 
[377.445]
<sta> s j a r a m a n d i ʔ n a k o ʔ m a b a t i ʔ k a ʔ a j o n j a b a 
[384.315]
<no-speech> 
[387.085]
h i n a j k a ʔ a j o b a j a ʔ ʔ o g ʔ i s t u ɾ j a 
[388.545]
<no-speech> 
[392.655]
<sta> h ɛ l o w k a ɾ 
[395.515]
<no-speech> 
[396.325]
ʔ o j <no-speech> j ʔ i m o ŋ ʔ i s t u ɾ j a b a d i ʔ m a b a t i ʔ n a k o ʔ 
[400.105]
<no-speech> 
[406.475]
<no-speech> 
[408.025]
<no-speech> 
[410.795]
h a 
[411.355]
<no-speech> 
[416.605]
ʔ u n s a m a n n ɛ ʔ o j 
[417.595]
<no-speech> 
[420.245]
<sta> m a ʔ o l a ŋ g i h a p o n d i k o ʔ ŋ p a b a s a h o n n i ʔ a n a ʔ ʔ u n j a ʔ k w a n m a g t i n u b a g a j m i d i ʔ l a ŋ g i h a p o n 
[425.945]
<no-speech> 
[428.005]
<sta> h ɛ l o w k a ɾ k a ɾ 
[429.855]
<no-speech> 
[432.345]
<no-speech> 
[433.935]
<no-speech> 
[435.285]
<sta> h a 
[436.715]
<no-speech> 
[440.275]
ʔ u n s a ʔ u n s a <sta> 
[441.725]
<no-speech> 
[444.735]
ʔ u n s a ʔ i n j o ŋ p a ŋ u t a n a k a ɾ 
[446.125]
<no-speech> 
[447.655]
<hes> j ʔ a k o ʔ ŋ t i ŋ o g <no-speech> <hes> k u s o g n a k a ʔ a j o n ɛ ʔ a k o ʔ ŋ t i ŋ o g b a j ʔ i m o l a ŋ h i n a j 
[453.765]
<no-speech> 
[458.835]
<sta> h a 
[461.215]
<no-speech> 
[468.635]
m a t a j w a ʔ l a ŋ g i h a p o n j u s l i s l a ŋ g i h a p o n ʔ i m o ŋ p a ŋ u t a n a s ʔ a k u ʔ a <no-speech> <sta> d i ʔ l a ŋ m a b a t i ʔ a n k a ʔ a j o 
[473.875]
<no-speech> 
[476.155]
m a j o ʔ u n t a ʔ ʔ o g g i k u s u g k u s o g n i m o b a <sta> k a j m a b a t i ʔ a n n a k o ʔ 
[478.715]
<no-speech> 
[484.775]
ʔ o w 
[485.325]
<no-speech> 
[487.235]
<hes> 
[487.785]
<no-speech> 
[489.545]
<no-speech> 
[490.675]
<no-speech> 
[493.905]
ʔ u n s a j b u ʔ a ŋ 
[494.715]
<no-speech> 
[497.025]
ʔ o w <sta> 
[499.305]
<no-speech> 
[500.805]
<sta> m a ŋ u t a n a ŋ u t a n a k a s ʔ a k u ʔ a d i ʔ n a k o ʔ m a b a t i ʔ a n ʔ i m o ŋ ʔ i s t u ɾ j a 
[504.425]
<no-speech> 
[507.695]
h i n a j <sta> ʔ i m o ŋ t i ŋ o g d i ɾ i k a ɾ b a h i n a j 
[509.855]
<no-speech> 
[511.335]
n a ʔ a ʤ u d m o w t ɛ ɾ d i ɾ i g a ʔ a n d a ɾ ʔ u n s a ʔ o n n a k o ʔ p a g k a b a t i ʔ <int> 
[515.055]
<no-speech> 
[516.945]
<sta> m a j o ʔ u n t a ʔ ʔ o g k a w d i ɾ i k a j <no-speech> <int> m u s a m o t n a ʤ u d k a ʔ o g d i ʔ k a b a t i ʔ <laugh> 
[521.835]
<no-speech> 
[523.125]
<sta> <hes> ʔ u n s a ʔ o n n a k o ʔ p a g k a b a t i ʔ ʔ a n a ʔ k a ɾ o n b i 
[527.075]
<no-speech> 
[529.635]
<hes> w a ʔ g i h a p o n j u s l i s l a ŋ g i h a p o n 
[531.635]
<no-speech> 
[539.205]
m a t a j m u ɾ a ʔ o g d i ʔ t a m a g k a s i n a b o t ʔ a n i 
[541.205]
<no-speech> 
[542.635]
m a h u g k i t a ʔ ʔ a n i ʔ o g k a w ʔ i n s i k 
[544.295]
<no-speech> 
[545.585]
<sta> ʔ a k o ʔ k u ɾ j a n o 
[547.045]
<no-speech> 
[548.765]
<no-speech> 
[550.185]
<no-speech> 
[552.325]
h ɛ l o w k a ɾ 
[553.065]
<no-speech> 
[557.235]
w a ʔ l a ŋ t a g i h a p o n k a ɾ 
[558.525]
<no-speech> 
[560.175]
n a h u g l a ŋ g i h a p o n k i t a ʔ ʔ a n i ʔ o g p u ɾ o n a d a 
[562.015]
<no-speech> 
[569.295]
h a 
[569.845]
<no-speech> 
[570.655]
<sta> d i ʔ k a ʔ a j o n a k o ʔ m a b a t i ʔ a n l a g i ʔ i m o ŋ t i ŋ o g k a j n a ʔ a m a n m o w t ɛ ɾ ʤ u d 
[575.935]
<no-speech> 
[577.015]
<no-speech> 
[579.475]
<no-speech> 
[582.345]
m a j o m a n k a d i h a ʔ k a j w a ʔ j s a g a b a l s ʔ i m u h a ŋ l i n j a d i h a ʔ <no-speech> <sta> j ʔ a k u ʔ a n a ʔ a j s a g a b a l d i ɾ i <laugh> h a 
[591.595]
<no-speech> 
[594.285]
<sta> n a ʔ a p a m o w t ɛ ɾ n a ʔ a p a m a ŋ a b a t a ʔ <no-speech> s a m o t n a 
[598.345]
<no-speech> 
[599.880]
