[0.000]
<no-speech> 
[0.265]
<no-speech> 
[3.935]
h ɛ l o w 
[4.605]
<no-speech> 
[5.545]
h ɛ l o w d i 
[7.925]
<no-speech> 
[9.085]
<hes> k a m u s t a n a m a n 
[10.565]
<no-speech> 
[11.615]
k a m u s t a n a 
[12.665]
<no-speech> 
[13.655]
k a m u s t a n a 
[14.915]
<no-speech> 
[23.095]
<no-speech> 
[31.275]
<hes> 
[31.895]
<no-speech> 
[34.965]
<hes> d i ʔ a j 
[35.845]
<no-speech> 
[42.520]
<no-speech> 
[49.195]
<hes> 
[50.085]
<no-speech> 
[59.405]
<hes> d i ʔ a j 
[60.375]
<no-speech> 
[64.085]
d i ʔ b a s ʔ u n a 
[65.365]
<no-speech> 
[66.705]
d i ʔ b a s ʔ u n a m a n d i k a j 
[68.655]
<no-speech> 
[71.185]
d i ʔ b a s ʔ u n a m a n d i n a m a l i g j a ʔ k a ʔ o g m a ɾ u j a d a p i t s ʔ i n j o ŋ d a p i t s ʔ i n j o ŋ b a j d a p i t 
[76.935]
<no-speech> 
[78.165]
ʔ u n j a ʔ m a ɾ u j a m a n ʔ a s a m ɛ j k u s o g 
[80.765]
<no-speech> 
[84.155]
ʔ u m 
[85.755]
<no-speech> 
[89.145]
<hes> 
[90.075]
<no-speech> 
[91.225]
ʔ a s a m ɛ j k u s o g ʔ a s a m ɛ j k u s o g ʔ a s a m ɛ j k u s o g ŋ n i g u s j o d i j m a ɾ u j a ʔ o w j t a h i ʔ t a h i ʔ 
[98.455]
<no-speech> 
[100.575]
ʔ a s a m ɛ j k u s o g d i 
[101.975]
<no-speech> 
[107.245]
<hes> 
[108.795]
<no-speech> 
[111.325]
<hes> d i ʔ a j 
[112.495]
<no-speech> 
[116.905]
<hes> k u s o g 
[117.905]
<no-speech> 
[121.795]
<hes> m a ʔ o ʤ u d 
[122.935]
<no-speech> 
[125.195]

[127.065]
<no-speech> 
[128.775]
<no-speech> 
[129.225]
<no-speech> 
[130.595]
m a ʔ o ʤ u d 
[131.975]
<no-speech> 
[133.695]
m a ʔ o ʤ u d k a m u s t a n a m a n ʔ i m o ŋ 
[135.595]
<no-speech> 
[137.075]
ʔ a w ʔ o k i l a ŋ m a n ʔ a k o ʔ g a l i ʔ 
[139.535]
<no-speech> 
[140.365]
ʔ a k o ʔ l a ŋ g a l i ʔ k a j n a ŋ l a b a d a l a ŋ ʔ u n t a w o n k o ʔ m a ʔ o l a ŋ ʤ u d n a ʔ a k o ʔ ŋ p a ŋ i n a b u h i ʔ d i n h i <hes> l a b a d a l a b a l a b a l a ŋ ʔ u n t a w o n 
[149.775]
<no-speech> 
[150.985]
ʔ u n j a ʔ 
[151.515]
<no-speech> 
[155.445]
ʔ a w p a k j a w a n k a p o j g a l i ʔ k a ʔ a j o h a g o ʔ k a ʔ a j o 
[158.475]
<no-speech> 
[159.285]
h a g o ʔ k a ʔ a j o ʔ i l a b a k a j w a ʔ j w a ʃ i ŋ <laugh> n i ʔ a n a ʔ b a k w a n l a ŋ ʔ u n t a w o n k u s u k u s o 
[165.225]
<no-speech> 
[166.785]
p a ʔ i t k a ʔ a j o 
[168.055]
<no-speech> 
[172.415]
m a ʔ o g a l i ʔ ʔ u n j a ʔ 
[174.315]
<no-speech> 
[176.655]
ʔ u s a h a j g a l i ʔ k a j 
[177.875]
<no-speech> 
[181.695]
ʔ a w 
[183.235]
<no-speech> 
[186.675]
<no-speech> 
[187.125]
<no-speech> 
[189.145]
ʔ u n j a ʔ 
[190.195]
<no-speech> 
[198.955]
<hes> 
[199.555]
<no-speech> 
[204.675]
<no-speech> 
[205.415]
<no-speech> 
[211.335]
<no-speech> 
[211.795]
<no-speech> 
[213.655]
ʔ u m 
[214.355]
<no-speech> 
[217.255]
<hes> 
[218.155]
<no-speech> 
[224.575]
m a ʔ o ʤ u d 
[225.425]
<no-speech> 
[229.985]
n i ʔ a n a ʔ ʤ u d 
[230.975]
<no-speech> 
[231.995]
m a ʔ o ʤ u d s i g ɛ l a ŋ k a ʔ o g h i g d a ʔ h i g d a ʔ s b a j w a ʔ j g i b u h a t m a j o p a ʔ o g m a ŋ i t a ʔ k a ʔ o g t a ɾ b a h o m a k a k w a ɾ t a k a p a 
[238.965]
<no-speech> 
[239.775]
n i ʔ a n a ʔ ʤ u d p a ɾ a n a ʔ a j k a ʔ o n b a d i ʔ p a ɾ ɛ h a s s ʔ u n a d i ʔ ʔ u n j a ʔ s i g ɛ g i h a p o n k a ʔ o g p a n u g a l k a ɾ o n 
[247.595]
<no-speech> 
[248.445]
m u ɾ a k a ʔ o g p ɾ i n s i p i 
[249.895]
<no-speech> 
[258.635]
ʔ u m 
[259.375]
<no-speech> 
[263.545]
ʔ a w s i g ɛ l a ŋ ʔ o g ʔ u w a n n o w 
[266.095]
<no-speech> 
[267.665]
k a p o j ʤ u d 
[268.685]
<no-speech> 
[276.105]
<no-speech> 
[283.525]
ʔ u n j a ʔ 
[283.945]
<no-speech> 
[285.175]
ʔ u m 
[285.805]
<no-speech> 
[286.955]
m a ʔ o ʤ u d g a l i ʔ ʔ u n j a ʔ p i l a m a n p o d j ʔ i ŋ k a m s ʔ i m o ŋ t a h i ʔ t a h i ʔ 
[292.245]
<no-speech> 
[294.285]
ʔ u m 
[294.885]
<no-speech> 
[301.135]
<no-speech> 
[307.385]
ʔ u m 
[308.025]
<no-speech> 
[311.605]
<hes> 
[312.595]
<no-speech> 
[316.175]
ʔ a n d i ɾ t a j m 
[317.355]
<no-speech> 
[323.460]
<no-speech> 
[329.565]
ʔ u m 
[330.365]
<no-speech> 
[333.635]
<hes> 
[334.205]
<no-speech> 
[341.375]
<hes> 
[342.075]
<no-speech> 
[344.665]
<hes> s t a m b a j 
[345.885]
<no-speech> 
[347.175]
<hes> m a ʔ o ʤ u d 
[348.165]
<no-speech> 
[352.095]
ʔ u m 
[352.925]
<no-speech> 
[354.945]

[355.895]
<no-speech> 
[357.375]
ʔ u n j a ʔ d i ʔ p o d h a g o ʔ m a g t a h i ʔ t a h i ʔ 
[359.305]
<no-speech> 
[360.895]
d i ʔ p o d h a g o ʔ m a g t a h i ʔ t a h i ʔ 
[362.595]
<no-speech> 
[365.125]
ʔ u m 
[366.055]
<no-speech> 
[367.395]
ʔ a w 
[367.945]
<no-speech> 
[369.165]
m a ʔ o 
[369.695]
<no-speech> 
[372.575]
<hes> 
[373.255]
<no-speech> 
[376.865]
<hes> 
[377.605]
<no-speech> 
[379.105]
<hes> n i ʔ a n a ʔ ʤ u d 
[380.325]
<no-speech> 
[384.675]
ʔ u m 
[385.345]
<no-speech> 
[392.135]
ʔ u m 
[392.545]
<no-speech> 
[395.305]
ʔ u n j a ʔ 
[395.915]
<no-speech> 
[400.485]
ʔ u n j a ʔ n a g a t a h i ʔ p a k a k a ɾ o n 
[402.185]
<no-speech> 
[403.735]
n a g a t a h i ʔ p a k a k a ɾ o n 
[405.035]
<no-speech> 
[406.915]
<hes> 
[407.525]
<no-speech> 
[409.465]
<hes> 
[410.435]
<no-speech> 
[418.075]
<no-speech> 
[420.815]
<no-speech> 
[423.035]
ʔ u m 
[423.765]
<no-speech> 
[428.505]
<hes> <no-speech> g a l i ʔ 
[430.825]
<no-speech> 
[432.375]
<no-speech> 
[433.095]
<no-speech> 
[437.135]
<hes> 
[437.925]
<no-speech> 
[440.545]
m a ʔ o 
[441.185]
<no-speech> 
[442.095]
m a ʔ o ʤ u d 
[442.835]
<no-speech> 
[444.515]
ʔ a w 
[445.175]
<no-speech> 
[446.005]
d a l i ʔ l a ŋ k a ʔ a j o ʔ o j 
[447.205]
<no-speech> 
[448.785]
<hes> d a l i ʔ l a ŋ 
[449.895]
<no-speech> 
[453.255]
<hes> d a g h a n d a g h a n k a ʔ a j o ʔ i m o ŋ g i t a h i ʔ 
[456.035]
<no-speech> 
[457.945]
ʔ u m 
[458.555]
<no-speech> 
[463.055]
<hes> k a p o j p o d n i ʔ a n a ʔ ʔ o j 
[465.185]
<no-speech> 
[467.085]
k a p o j 
[467.845]
<no-speech> 
[469.445]
<no-speech> 
[469.945]
<no-speech> 
[473.275]
ʔ o w p a g d i n a l i ʔ a n 
[475.645]
<no-speech> 
[478.895]
<hes> 
[479.575]
<no-speech> 
[480.845]
<hes> 
[481.515]
<no-speech> 
[487.205]
<hes> 
[487.815]
<no-speech> 
[492.725]
<hes> 
[493.195]
<no-speech> 
[498.285]
ʔ a w d i ʔ a j 
[499.295]
<no-speech> 
[500.815]
<hes> 
[501.625]
<no-speech> 
[502.895]
ʔ u n j a ʔ 
[503.625]
<no-speech> 
[506.695]
ʔ u n s a m a n k a g u ʔ u l a n p o d <hes> ʔ u n s a m a n ʔ i m o ŋ g i k a g u l ʔ a n 
[511.045]
<no-speech> 
[512.815]
j ʔ i ŋ k a m 
[513.745]
<no-speech> 
[516.855]
<hes> 
[517.515]
<no-speech> 
[520.085]
<hes> m a ʔ o p o d 
[521.245]
<no-speech> 
[523.795]
ʔ a j <hes> 
[524.625]
<no-speech> 
[525.665]
ʔ a w b a w a l ʔ o j 
[527.255]
<no-speech> 
[528.875]
<hes> 
[529.475]
<no-speech> 
[535.105]
n a 
[535.665]
<no-speech> 
[536.695]
<no-speech> 
[537.895]
<no-speech> 
[541.535]
<hes> 
[542.345]
<no-speech> 
[543.185]
m a ʔ o m a ʔ o 
[544.165]
<no-speech> 
[546.065]
k a h o j m a n n a ʔ i n j o ŋ g i n a g a m i t n o w 
[548.005]
<no-speech> 
[548.955]
<hes> k a h o j m a n n a ʔ i n j o ŋ g i n a g a m i t n o w m a ʔ o p o d d i ʔ a j m a ʔ o p o d d i ʔ a j k a p o j k a ʔ a j o 
[558.105]
<no-speech> 
[559.165]
t a h i ʔ p a k a <hes> m a g l u ŋ ʔ a g p a k a m a ŋ l i m p j o p a ʔ o g b a j ʔ u n s a 
[563.635]
<no-speech> 
[564.675]
p a ʔ i t k a ʔ a j o 
[566.005]
<no-speech> 
[568.785]
<no-speech> 
[569.295]
<no-speech> 
[574.805]
<no-speech> 
[583.505]
<no-speech> 
[584.465]
m a ʔ o b a 
[585.205]
<no-speech> 
[587.145]
ʔ a w <hes> d i n a l i ʔ a n 
[589.575]
<no-speech> 
[593.135]
ʔ a w <hes> 
[593.935]
<no-speech> 
[600.020]
