[0.000]
<no-speech> 
[1.545]
<sta> <no-speech> h ɛ l o w 
[5.365]
<no-speech> 
[6.465]
<sta> <no-speech> h ɛ l o w 
[10.025]
<no-speech> 
[11.605]
<no-speech> 
[12.745]
<no-speech> 
[13.855]
<sta> <no-speech> h ɛ l o w <no-speech> 
[25.745]
<no-speech> 
[25.895]
<no-speech> 
[27.885]
<no-speech> 
[29.835]
<no-speech> 
[32.395]
<no-speech> 
[32.825]
<no-speech> 
[34.465]
h ɛ l o w <sta> <no-speech> 
[35.945]
<no-speech> 
[37.555]
ʔ u ʔ o <int> m a n 
[38.885]
<no-speech> 
[40.365]
h a <no-speech> h ɛ l o w 
[42.405]
<no-speech> 
[44.235]
<sta> ʔ u ʔ o ʔ u n j a ʔ p ɾ u b l i m a ʔ u n j a ʔ k w a n 
[47.595]
<no-speech> 
[48.675]
ʔ a s a n a m a n t a m a g k i t a ʔ <int> 
[49.965]
<no-speech> 
[52.395]
k w a n p a ɾ d s <int> k a n a ʔ ŋ k w a n b a k a n a ʔ ŋ <int> p ɾ u b l i m a <oov> <int> k a n a ʔ ŋ p ɾ u b l i m a b a <int> n a ʔ a k o ʔ p ɾ u b l i m a b a 
[60.045]
<no-speech> 
[62.275]
h ɛ l o w <int> 
[62.895]
<no-speech> 
[64.465]
n a ʔ a <oov> <no-speech> n a ʔ a p ɾ u b l i m a <int> <hes> ʔ u n s a m a <breath> k a w n a ʔ a m a n d a w k a j p ɾ u b l i m a d a w ʔ a b a w t s ʔ i m o ŋ p a m i l j a <int> 
[70.345]
<no-speech> 
[71.915]
<sta> <no-speech> n a ʔ a m a n d a w m o j p ɾ u b l i m a <int> p o d s ʔ i m o ŋ p a m i l j a 
[74.555]
<no-speech> 
[76.705]
k a j ʔ u n s a k a d t o <int> k a d t o ŋ g i k w a n ʔ i m o ŋ p a m i l j a k a d t o ŋ <no-speech> g i b i j a ʔ a n k a s ʔ i m o ŋ p a p a g i k w a n k a s ʔ i m u h a ŋ m a m a 
[85.025]
<no-speech> 
[87.565]
<int> d i ʔ b a 
[88.175]
<no-speech> 
[90.225]
<breath> 
[91.005]
<no-speech> 
[93.175]
ʔ u ʔ o k a d t o ŋ s ʔ u n a b a k a d t o ŋ <no-speech> k a d t o ŋ b a t a ʔ k a d t o ŋ <int> b a t a ʔ p a k a <int> 
[98.285]
<no-speech> 
[99.085]
ŋ g i b i j a ʔ a n k a s ʔ i m o ŋ g i n i k a n a n s ʔ i m o ŋ <breath> m a ŋ a <breath> m a ŋ a k a p a ɾ j ɛ n t ɛ h a n k a j n a ʔ a k a d i ɾ i s ʔ i m u h a ŋ ʔ a n t i k a ɾ o n 
[106.815]
<no-speech> 
[108.675]
ʔ u n j a ʔ <no-speech> ʔ u n s a m a n t u ʔ i s t o ɾ i p o d t u 
[111.185]
<no-speech> 
[113.475]
<int> p a ɾ t 
[113.975]
<no-speech> 
[115.435]
ʔ i s t o ɾ i p o d t u ʔ i m u h a ŋ 
[116.715]
<no-speech> 
[118.725]
ʔ u ʔ o 
[119.325]
<no-speech> 
[123.265]
t a p o s 
[123.915]
<no-speech> 
[126.495]
<int> ʔ i s t o ɾ i t u ʔ i s t u ɾ j a ʤ u d t u k a j n a ʔ a n d a m m a n ʔ a n d a m m a n p o d <int> t a m a m i n a w p o d ʔ i s t o ɾ i t u t a n a n <int> k a j <breath> p a ɾ a m a k a m a k a ʃ ɛ j ɾ ʃ ɛ j ɾ <int> d i d t o m a k a k w a n t a 
[136.525]
<no-speech> 
[139.905]
h ɛ l o w k w a n a l a ŋ k a n a ʔ k a n a ʔ ŋ ʔ i s t o ɾ i l a ŋ k a j ʔ a n d a m m a n k o ʔ m a m i n a w p o d 
[144.045]
<no-speech> 
[144.885]
l a g i m a m i n a w r a k o ʔ 
[146.575]
<no-speech> 
[147.605]
<int> ʔ i m u h a 
[148.225]
<no-speech> 
[149.215]
ʔ u n s a m a n k a d t o ʔ u n s a m a n j <int> p a g k a h i t a b o ʔ ʔ a t o ʔ 
[151.255]
<no-speech> 
[153.795]
ʔ u ʔ o 
[154.365]
<no-speech> 
[155.675]
d i ʔ m a n g a l i ʔ n a <no-speech> ʔ u n j a ʔ ŋ a n o ŋ m a g k w a n m a n k a m a g s u k u ʔ s u k o ʔ m a n k a <int> 
[160.165]
<no-speech> 
[161.755]
ʔ u n s a m a n d a w b a l i t a ʔ a n n a n a n a l a ʔ i n d a w k a 
[164.215]
<no-speech> 
[165.805]
n a l a ʔ i n k a ʔ u n j a ʔ d a k o ʔ k a ʔ o g k a s u k o ʔ s ʔ i l a d a k o ʔ k a ʔ o g k a s u k o ʔ s ʔ i l a 
[170.425]
<no-speech> 
[174.465]
t a p o s ʔ u n s a m a n ʔ u n s a m a n j m a h i t a b o ʔ ʔ a t o ʔ 
[177.255]
<no-speech> 
[183.215]
<no-speech> 
[183.575]
<no-speech> 
[185.695]
m a s u k o ʔ g a l i ʔ t a ʔ o g b i j a ʔ a n s ʔ i m o ŋ <int> g i n i k a n a n ʔ u n j a ʔ <no-speech> d i ʔ m a n p o d k a d t o t a n a n p o d n a m a s u k o ʔ p o d k a k a j <int> k w a n ʤ u d <int> g i n i k a n a n ʤ u d n a g i h a p o n n i m o <no-speech> <int> p a p a ŋ i t a ʔ o n l a ŋ g i h a p o n n a n i m o 
[197.515]
<no-speech> 
[201.095]
m a ʔ o g a l i ʔ k a n a ʔ 
[201.945]
<no-speech> 
[203.835]
m a ʔ o g a l i ʔ <int> ʔ u n j a ʔ d a p a t d i ʔ k a m a g d a p a t <int> d i ʔ 
[207.025]
<no-speech> 
[209.155]
d a p a t d i ʔ k a m a d a m a j d a p a t d i ʔ m a d a m a j ʔ i m o ŋ b a ɾ k a d a 
[212.355]
<no-speech> 
[213.435]
ʔ i m o ŋ m a ŋ a ʔ a m i g o m a ŋ a ʔ a m i g a k a j ʔ a p i l o n m a n n i m o ʔ o g k a s u k o ʔ ʔ i m o ŋ ʔ a m i g a ʔ o g ʔ a m i g o 
[218.615]
<no-speech> 
[220.045]
d a p a t k a n a ʔ ŋ k w a n l a ŋ k a k a n a ʔ ŋ 
[222.325]
<no-speech> 
[224.155]
ʧ i l l a ŋ b a <int> d i ʔ k a m a g s i g ɛ ʔ o g k a s u k o ʔ ʔ a n a ʔ <oov> m a g d u m o t k a ʔ o g t a w o k a j 
[229.845]
<no-speech> 
[231.525]
<int> k w a n l a h i ʔ m a n ʤ u d j <int> ʔ i m o ŋ k a n a ʔ ŋ <no-speech> k a b a w k a s u g o t m a n k o ʔ s ʔ i m u h a k a j <no-speech> s ʔ i m u h a ŋ k w a n g i b a t i ʔ k a j 
[239.235]
<no-speech> 
[240.115]
<int> <oov> d i ʔ p o d b a j a ʔ l a l i m n a ŋ m a b j a ʔ a n k a ʔ o g g i n i k a n a n 
[243.625]
<no-speech> 
[245.675]
b a k a j l i s o d p o d b a j a ʔ l i s o d p o d b a j a ʔ m a b u h i ʔ j t a w o p a g k a w r a j ʔ i s a w a ʔ k a j <int> w a ʔ j <oov> <oov> w a ʔ j <oov> <breath> k w a n s ʔ i m u h a <no-speech> w a ʔ j n a g a w a ʔ j n a g a 
[256.575]
<int> <no-speech> m u ɾ a ʔ o g w a ʔ j n a g a k w a n s ʔ i m u h a 
[259.355]
<no-speech> 
[261.765]
l i s o d <breath> l i s o d b a j a ʔ j k w a n p a n a h o n k a ɾ o n s a m o t n a k a ɾ o n ʔ o w n a <breath> s i g ɛ k a ʔ o g p a ŋ i t a ʔ ʔ o g t a ɾ b a h o p a ɾ a m a b u h i ʔ l a ŋ n i m o ʔ i m u h a ŋ k a ʔ u g a l i ŋ o n 
[271.025]
<no-speech> 
[272.685]
ʔ u n j a ʔ <int> k w a n p a ʔ i t p a ʤ u d s i g ɛ l a ŋ k a ʔ o g <breath> p a ŋ k o n s t ɾ a k ʔ u n j a ʔ s a k t o n a n a ʔ i m o ŋ s w i l d o s ʔ i m u h a ŋ p a ŋ k o n s t ɾ a k 
[280.325]
<no-speech> 
[282.495]
s a k t o n a k a n a ʔ ŋ s w i l d o s ʔ i m o ŋ p a g k o n s t ɾ a k 
[284.815]
<no-speech> 
[287.935]
p a ʔ i t g i h a p o n n o w 
[289.035]
<no-speech> 
[291.135]
ʔ u n j a ʔ l i s o d b a j a ʔ j k w a n b a j a ʔ <int> p a g k o n s t ɾ a k k a j ʔ i n i t ʔ u n j a ʔ t a n a n k a p o j <oov> <oov> ʔ a s w a t k a ʔ o g b u g ʔ a t ʔ u n j a ʔ 
[299.285]
<no-speech> 
[300.265]
k w a n p a ʤ u d 
[301.145]
<no-speech> 
[302.365]
ʔ u n j a ʔ l i s o d l i s o d ʤ u d b a j a ʔ 
[304.205]
<no-speech> 
[305.995]
l i s o d m a n p o d p a ɾ t k a j k o ʔ ŋ k w a n <no-speech> <oov> <int> k a n a ʔ ŋ <int> k a n a ʔ ŋ k o ʔ ŋ ʔ a k o ʔ p o d s ʔ i m o ŋ s ʔ i m u h a ŋ k w a n p o d b a h i n p o d <int> ʔ i ŋ o n ʔ a n a ʔ m a n p o d ʔ a k o ʔ ŋ h u n a h u n a ʔ o n s i g u ɾ o k a j 
[317.525]
<no-speech> 
[318.455]
p a s a l a m a t n a l a ŋ g a l i ʔ k o ʔ k a j n a ʔ a k o ʔ p a m i l j a <no-speech> ʔ u n j a ʔ k a m u s t a <int> m a n ʔ i m o ŋ b a ɾ k a d a d i h a ʔ 
[323.425]
<no-speech> 
[325.275]
<int> k a m u s t a m a n ʔ i m o ŋ m a ŋ a b a ɾ k a d a d i h a ʔ 
[326.895]
<no-speech> 
[327.695]
k a m u s t a m a n ʔ i m o ŋ m a ŋ a b a ɾ k a d a d i h a ʔ 
[329.435]
<no-speech> 
[331.125]
l i s o d p o d k a ʔ a j o ʔ o g k w a n <int> k a n a ʔ ŋ 
[333.265]
<no-speech> 
[334.265]
d u w a ʔ d u w a ʔ r a m o ʔ o g b a s k i t b o l 
[335.845]
<no-speech> 
[338.115]
<oov> d i ʔ <no-speech> k a j <no-speech> b a g ʔ o b a g ʔ o b a g b a g ʔ o n a ʔ i m o ŋ m a ŋ a b a g b a g ʔ o n a ʔ i m o ŋ m a ŋ a b a ɾ k a d a d i h a ʔ k a ɾ o n 
[344.555]
<no-speech> 
[345.895]
<sta> <no-speech> b a g ʔ o n a ʔ i m o ŋ m a ŋ a b a ɾ k a d a d i h a ʔ k a ɾ o n k a j l a h i ʔ n a m a n l a j o ʔ <no-speech> l a j o ʔ n a b a j a ʔ k a 
[352.675]
<no-speech> 
[353.565]
ʔ u n j a ʔ k w a n <no-speech> l i s o d <breath> l i s o d n a 
[356.915]
<no-speech> 
[359.695]
m a ʔ o k a n a ʔ ŋ k w a n <no-speech> k a n a ʔ ŋ p a g b a ɾ k a d a s ʔ i m u h a 
[363.315]
<no-speech> 
[364.655]
ʔ u n j a ʔ k w a n <oov> n a g ʔ i s k u j l a p a k a k a ɾ o n 
[367.185]
<no-speech> 
[369.625]
ʔ a j a w n a g ʔ i s k u j l a p a k a k a ɾ o n 
[371.525]
<no-speech> 
[372.475]
ʔ a j a w 
[373.035]
<no-speech> 
[374.205]
<hes> ŋ a n o ŋ ŋ a n o ŋ m i n i ʔ i s k u j l a k a 
[376.435]
<no-speech> 
[378.785]
<int> <hes> n a g ʔ i s k u j l a k a k a ɾ o n ŋ t u ʔ i g a 
[380.655]
<no-speech> 
[382.725]
<hes> l i s o d ʔ a j a w n a ʔ o g ʔ i s k u j l a ʔ o j n a g l i s o d 
[385.465]
<no-speech> 
[387.935]
<hes> m a g ʔ i ʔ i l ʔ i s k a <breath> <hes> ʔ ɛ k s a k t o ʤ u d n a ŋ ʔ a l s s ʔ i m o k a j w a ʔ m a n k a <int> k a g ɾ a d w i t p a ʔ u n j a ʔ <int> k w a n m a j o n a l a ŋ m a k a t a b a ŋ n a s ʔ i m u h a m a j o r a n a p a g ɾ a d w i t k a d i ʔ l a ŋ k u n s t ɾ a k ʃ o n ʔ i m o ŋ m a t ɾ a b a h o n a ʔ a 
[399.905]
k a s k w a n <no-speech> n a ʔ a n a ʔ a p o d k a s m a ŋ a m o l <int> m a ŋ a 
[403.765]
<no-speech> 
[404.815]
ʔ u n s a p a n a ŋ m a ŋ a <int> p w i d i n i m o m a t ɾ a b a h u ʔ a n d i h a ʔ n a ʔ a t l i s m a k a g ɾ a d w i t k a ʔ o g h a j ʔ i s k u l <int> p w i d i g a l i ʔ m a h i m o ʔ ŋ ʔ i s k u j l a k a ʔ o g k a l i ʤ 
[411.855]
<no-speech> 
[413.365]
k a j <no-speech> d i ʔ b a j a ʔ n a <breath> <int> l a l i m p o d <no-speech> ŋ n a g s a l i g l a ŋ k a s l a ʔ i n ŋ t a w o 
[419.485]
<no-speech> 
[420.365]
<int> n a m a g p a ʔ i s k u j l a s ʔ i m u h a 
[422.015]
<no-speech> 
[425.075]
ʔ u n j a ʔ <int> k w a n n a l a ŋ <sta> p o d ʔ a k o ʔ ŋ ʔ a d b a j s l a ŋ 
[428.445]
<no-speech> 
[429.495]
ʔ a d b a j s l a ŋ n o w <no-speech> ʔ a d b a j s l a ŋ n a k o ʔ s ʔ i m u h a p a ɾ t t a ɾ u ŋ a n a l a ŋ k a n a ʔ t a ɾ u ŋ a n a l a ŋ k a n a ʔ ʔ i m u h a ŋ ʔ a l s <no-speech> k a j <no-speech> d i ʔ b a j a ʔ k a n a ʔ d i ʔ b a j a ʔ k a n a ʔ p o d l a l i m k a n a ʔ ŋ ʔ a l s k a j <int> <breath> 
[441.245]
k w a n ʤ u d n a s j a d i ɾ i t s o ʤ u d k a h a j ʔ a j d i ɾ i t s o ʤ u d k a k a l i ʤ ʔ a n a ʔ <no-speech> k a j 
[446.215]
<no-speech> 
[447.295]
m a j o n a l a ŋ k a n a ʔ m a k a t a b a ŋ k a n a ʔ s ʔ i m u h a <int> 
[449.295]
<no-speech> 
[451.095]
b a s i ʔ o g m a k a <int> m a k a p a ŋ i t a ʔ p a 
[453.605]
<no-speech> 
[454.965]
<sta> m a j o n a l a ŋ m a p ɾ a w d ʔ i m o ŋ g i n i k a n a n s ʔ i m u h a <no-speech> <int> 
[458.775]
<no-speech> 
[459.575]
<sta> ʔ u n j a ʔ l i s o d b a j a ʔ j p a n a h o n k a ɾ o n m a ŋ i t a ʔ ʔ i m o ŋ g i n i k a n a n 
[463.115]
<no-speech> 
[466.905]
m a ʔ o g a l i ʔ m o 
[467.995]
<no-speech> 
[470.355]
m a ʔ o g a l i ʔ n a <int> m a n i ŋ k a m o t k a <int> k a j 
[472.895]
<no-speech> 
[474.245]
g a l i ʔ 
[474.855]
<no-speech> 
[478.345]
<int> m a ʔ o g a l i ʔ n a ŋ <no-speech> m a m a j o n a l a ŋ m a s k i w a ʔ w a ʔ k a j g i n i k a n a n m a k a b a w ʔ i m o ŋ g i n i k a n a n ŋ <breath> ʔ i ŋ o n ʔ a n a ʔ <oov> n a k a k w a n d i ʔ a j k a ʔ u n j a ʔ <no-speech> k w a n m a m a l i p a j ʔ i m o ŋ g i n i k a n a n 
[490.285]
s ʔ i m u h a 
[490.995]
<no-speech> 
[496.395]
ʔ u ʔ o m a n i ŋ k a m o t ʤ u d k a j p a ɾ a <int> 
[498.015]
<no-speech> 
[501.815]
m a ʔ o g a l i ʔ m a j o n a l a ŋ <int> n a g a t ɾ a b a h o k a ʔ o g <int> m a m u ʔ i s k u j l a ʤ u d k a <int> t a p o s n a g a t ɾ a b a h o k a ʔ o g k u n s t ɾ a k ʃ o n p w i d i m a n n a s a b a j o n d u m i ŋ g o w a ʔ m a n t a ɾ b a h o d u m i ŋ g o k a j 
[511.385]
<no-speech> 
[512.275]
k w a n m a n k a n a ʔ ŋ d u m i ŋ g o <no-speech> <cough> 
[514.655]
<no-speech> 
[515.815]
m a ʔ o g a l i ʔ <no-speech> d i ʔ d i ʔ n a l a ŋ ʔ a k o ʔ g a l i ʔ m u ʔ i s k u j l a g a l i ʔ k o ʔ <int> 
[520.115]
<no-speech> 
[521.355]
m a s k i 
[521.975]
<no-speech> 
[523.095]
<int> m u t ɾ a b a h o m u t ɾ a b a h o ʤ u d k o ʔ <int> 
[524.865]
<no-speech> 
[525.875]
t a ʔ u ʔ o t a ɾ b a h o k o ʔ <no-speech> t a ɾ b a h o t a 
[528.815]
<no-speech> 
[531.155]

[531.675]
<no-speech> 
[532.475]
s u n o g t u ʔ i g p a k o ʔ m u ʔ i s k u j l a k a j <no-speech> p a ʔ i t p a j p a n a h o n k a ɾ o n w a ʔ p a ʔ i k a b u h i ʔ <breath> p a b u h i ʔ ʔ a t o ʔ ŋ <breath> g i n i k a n a n s ʔ a k o ʔ ʔ u n j a ʔ k w a n 
[541.695]
<no-speech> 
[543.015]
ʔ i ʧ ʔ a ɾ ʔ i m k a j l u t o ʔ l u t o ʔ m a n ʔ a t u ʔ a ŋ 
[546.135]
<no-speech> 
[547.235]
l u t o ʔ l u t o ʔ m a n ʔ a t u ʔ a ŋ t i ɾ a d a d i ʔ k w a n 
[550.145]
<no-speech> 
[551.845]
ʔ u ʔ o l u t o ʔ l u t o ʔ m a n k a j 
[554.775]
<no-speech> 
[556.755]
ʔ u ʔ o <no-speech> ʔ a l a ŋ a n d i ʔ m a n p o d m u k w a n 
[560.005]
<no-speech> 
[561.135]
m a j o n a l a ŋ m a l i p a j ʔ a t o ʔ ŋ g i n i k a n a n <int> m a g k w a n t a <int> 
[564.545]
<no-speech> 
[567.615]

[568.565]
<no-speech> 
[569.755]
<int> ʔ a w 
[570.475]
<no-speech> 
[571.485]
<int> ʔ o k i k a ʔ a j o k a n a ʔ p a ɾ t k a j <int> 
[573.065]
<no-speech> 
[574.145]
s a k t o ʤ u d k a ʔ a j o <oov> s a k t o ʤ u d n a s ʔ i m u h a p a g k w a n n a l a ŋ <breath> k w a n n a l a ŋ p a g b i ʔ i s ʔ i m t i p a ɾ a s a b a j m o s ʔ i m o ŋ ʔ i g ʔ a g a w <int> ʔ i s k u j l a <int> m a n k a p u h o n <no-speech> ʔ u n j a ʔ <int> 
[585.915]
<int> s a k t o r a k a d t o ʔ o j d i ʔ p a k a ʔ a n a ʔ <no-speech> 
[589.905]
<no-speech> 
[591.375]
d i ʔ p a k a ʔ a n a ʔ b a ɾ k o ʔ u n j a ʔ k w a n 
[593.735]
<no-speech> 
[595.585]
ʔ u n j a ʔ b a ɾ k o ʔ u n j a ʔ h a j a h a j b a ɾ k o k a j <int> 
[599.005]
<int> t a ɾ b a h o k a j 
[600.040]
