[0.000]
<no-speech> 
[1.795]
<no-speech> 
[2.235]
<no-speech> 
[4.045]
h ɛ l o w 
[4.825]
<no-speech> 
[6.885]

[8.065]
<no-speech> 
[10.885]
<int> s i m i ʃ ɛ l d i ʔ a j ʔ a j 
[14.275]
<no-speech> 
[17.845]
<int> ʔ o j h ɛ l o w 
[20.495]
<no-speech> 
[21.685]
<no-speech> 
[22.045]
<no-speech> 
[23.005]
k a m u s t a n a m a n k a 
[24.815]
<no-speech> 
[26.745]
<breath> n a g k w a n l a g i g w a p a n a g l i m p j o 
[31.745]
<no-speech> 
[34.975]
<no-speech> 
[35.555]
<no-speech> 
[38.875]
<int> h u h <sta> <breath> ʔ u n s a 
[43.105]
<no-speech> 
[46.345]
ʔ o k i l a ŋ k a w k a m u s t a n a m a n 
[48.365]
<no-speech> 
[49.935]
<breath> ʔ o w k a m u s t a n a m a n k a 
[51.705]
<no-speech> 
[54.915]
h u h 
[55.525]
<no-speech> 
[58.645]
n a g ʔ u n s a 
[59.395]
<no-speech> 
[60.545]
ʔ o w ʔ u n s a m a n g w a p a 
[61.755]
<no-speech> 
[64.775]
ʔ o w ʔ u n s a m a n g w a p a n a m i n a w k o ʔ 
[66.845]
<no-speech> 
[69.485]
k a d t o ŋ 
[70.245]
<no-speech> 
[73.245]
n a ʔ a n a ʔ g u t o m 
[74.545]
<no-speech> 
[76.115]
n a ʔ a 
[76.965]
<no-speech> 
[80.705]
<no-speech> 
[81.085]
<no-speech> 
[84.405]
m u ɾ a ʔ o g d i ʔ l a g i s i l a ʔ o k i g w a p a 
[86.545]
<no-speech> 
[88.845]
ʔ o w 
[89.405]
<no-speech> 
[90.585]
s i g ɛ m a n g a l i ʔ m i ʔ o g t a w a g s ʔ i j a h a d i d t o 
[92.595]
<no-speech> 
[93.785]
h u h 
[94.375]
<no-speech> 
[99.735]
w a ʔ m a n n u ʔ o n n a g u b a ʔ ʔ o k i r a m a n ʔ i l a ŋ g i k w a n 
[102.265]
<no-speech> 
[103.785]
ʔ o w n a g u b a ʔ l a g i 
[105.225]
<no-speech> 
[108.475]
n a k a w w a ʔ k a j p a ɾ i n t i d i d t o 
[110.345]
<no-speech> 
[112.765]
<laugh> n a g u b a ʔ g a l i ʔ 
[115.275]
<no-speech> 
[118.905]
ʔ u n j a ʔ k a m u s t a m a n j d i d t o j k w a n j s a j t s ʔ i m u h a ŋ p a p a s b o h o l 
[122.255]
<no-speech> 
[123.765]
h u h 
[124.345]
<no-speech> 
[129.195]
m a g k w a n ʔ o w 
[131.095]
<no-speech> 
[132.685]
ʔ o w h ɛ l o w n a ʔ a r a k o ʔ 
[134.925]
<no-speech> 
[137.645]
n a n a 
[138.685]
<no-speech> 
[139.555]
l a g i 
[140.575]
<no-speech> 
[144.315]
ʔ o w ŋ a n o ŋ 
[144.885]
<no-speech> 
[147.985]
n a w a ʔ 
[148.605]
<no-speech> 
[150.145]
ʔ o w 
[150.755]
<no-speech> 
[153.535]
ʔ a s a n a g ʔ u n s a d i ʔ a j k a k a ɾ o n 
[155.695]
<no-speech> 
[158.455]
h u h 
[159.035]
<no-speech> 
[164.935]
<hes> 
[165.565]
<no-speech> 
[166.845]
ʔ a h a m a n d i ʔ a j k a m w a k a w 
[168.165]
<no-speech> 
[171.325]
<breath> n a ŋ u m u s t a l a ŋ k o ʔ n i m o b a k a j 
[173.495]
<no-speech> 
[175.295]
<int> n a ŋ u m u s t a l a ŋ k o ʔ n i m o b a m a ʔ o ŋ n i t a w a g k o ʔ n a ŋ u m u s t a l a ŋ k o ʔ n i m o m a ʔ o ŋ n i t a w a g k o ʔ n a m i s g i m i ŋ a w n a m a n ʤ u d k o ʔ s ʔ i m u h a ʤ u d 
[183.915]
<no-speech> 
[190.465]
<laugh> g i m i ŋ a w n a m a n ʤ u d k o ʔ s ʔ i m u h a g w a p a 
[192.885]
<no-speech> 
[193.915]
h u h 
[194.515]
<no-speech> 
[196.125]
m a g 
[196.695]
<no-speech> 
[198.035]
n a g k a ʔ o n 
[198.865]
<no-speech> 
[201.285]
<int> 
[203.145]
<no-speech> 
[204.785]
<breath> ʔ o w n a g k a ʔ o n n a k a w 
[206.325]
<no-speech> 
[208.245]
<no-speech> 
[208.665]
<no-speech> 
[209.875]
<laugh> ʔ a j 
[211.405]
<no-speech> 
[214.035]
ʔ u m h u m s a j a ŋ p a l i t t a g s u d ʔ a n 
[215.855]
<no-speech> 
[218.995]
<no-speech> 
[219.375]
<no-speech> 
[220.615]
ʔ a s a d i ʔ a j k a d a p i t n a g p u j o ʔ h u h 
[223.385]
<no-speech> 
[225.245]
ʔ u n s a g w a p a 
[226.035]
<no-speech> 
[227.655]
n a <oov> ʔ u n s a d i ʔ d i ʔ n i m o m a k l a ɾ o ʔ a k o ʔ ŋ t i ŋ o g g w a p a 
[231.415]
<no-speech> 
[234.835]
h u h n a n a w a g k a 
[236.125]
<no-speech> 
[238.035]
m a g w a ʔ w a ʔ m a n ʔ i m o ŋ t i ŋ o g g w a p a 
[240.065]
<no-speech> 
[251.135]
ʔ o w s i g ɛ ʔ o g p a n a w a g 
[252.575]
<no-speech> 
[254.115]
l u ʔ o j b i t a w k a ʔ a j o ŋ ʔ a n a ʔ l u ʔ o j l a g i k a ʔ a j o d i d t o g w a p a 
[257.205]
<no-speech> 
[259.415]
ʔ o w <sta> 
[262.525]
<no-speech> 
[264.385]
s ʧ o k l ɛ t h i l s m a n 
[266.055]
<no-speech> 
[267.025]
ʧ o k l ɛ t h i l s <int> ʔ o j 
[272.635]
<no-speech> 
[274.545]
d i ʔ m a n m a ʔ o r a n a 
[276.285]
<no-speech> 
[277.575]
<laugh> ʔ a n a ʔ ʔ i n j u h a ʔ a s a d a p i t 
[279.545]
<no-speech> 
[283.215]
h u h 
[283.815]
<no-speech> 
[287.065]
<no-speech> 
[287.505]
<no-speech> 
[290.765]
ʔ o w 
[291.215]
<no-speech> 
[292.835]
<breath> d i ʔ d i ʔ a j k a m u ʔ a d t o d i d t o 
[295.105]
<no-speech> 
[298.625]
h u h 
[299.195]
<no-speech> 
[301.475]
<no-speech> 
[301.895]
<no-speech> 
[303.675]
<laugh> m u ʔ a d t o m a n k i t a ʔ ŋ d u h a d i d t o 
[305.455]
<no-speech> 
[310.615]
<laugh> ʔ o w m w a ʔ a g p o d d i h a ʔ g w a p a 
[316.225]
<no-speech> 
[318.685]
g w a p a 
[319.355]
<no-speech> 
[320.995]
k a m u s t a n a m a n ʔ i m o ŋ <oov> ʔ u j a b k a ɾ o n 
[323.085]
<no-speech> 
[324.245]
ʔ o w h ɛ l o w <breath> d i ʔ n i m o m a k l a ɾ o ʔ a k o ʔ ŋ t i ŋ o g 
[327.955]
<no-speech> 
[330.355]
<int> h u h 
[331.345]
<no-speech> 
[334.515]

[335.945]
<no-speech> 
[337.035]
h u h m a d u ŋ o g g i h a p o n k o ʔ n i m o 
[339.855]
<no-speech> 
[340.995]
<breath> <hes> m a j o 
[342.985]
<no-speech> 
[347.735]
ʔ o k i l a ŋ m o 
[348.765]
<no-speech> 
[350.685]
d i ʔ n a l a g i ʔ o k i g w a ʔ d i ʔ l a g i ʔ o k i g w a p a 
[354.145]
<no-speech> 
[355.595]
h u h 
[356.185]
<no-speech> 
[360.295]
n a g k w a n <int> n a g l a k w a n l a g i m i g w a p a w a ʔ n a m i t a ɾ o ŋ ŋ k w a n 
[365.175]
<no-speech> 
[366.625]
k a n a ʔ ŋ <int> t ɛ k s t ɛ k s 
[368.985]
<no-speech> 
[373.575]
ʔ o w 
[374.235]
<no-speech> 
[378.135]
l a g i <hes> 
[379.575]
<no-speech> 
[380.485]
d i ʔ w a ʔ p a l a g i k a ʔ a j o g w a ʔ ʔ a w h u h 
[383.565]
<no-speech> 
[384.735]
w a ʔ p a l a g i g w a p a 
[386.045]
<no-speech> 
[389.695]
s a j a ŋ g w a p a 
[390.955]
<no-speech> 
[394.215]
ʔ o k i l a ŋ ʔ o k i l a ŋ <int> <oov> k a m o ʔ i m u h a ŋ m a m a ʔ o g p a p a k a m u s t a 
[402.535]
<no-speech> 
[406.055]
h u h 
[406.625]
<no-speech> 
[410.225]
<no-speech> 
[411.385]
<no-speech> 
[412.615]
<no-speech> 
[413.155]
<no-speech> 
[414.635]
n a m a g k w a n l a ŋ k i t a ʔ ʔ a n a ʔ g w a p a 
[416.465]
<no-speech> 
[418.325]
ʔ o w d a l i ʔ g w a p a ʔ o w l a ʔ a g 
[420.065]
<no-speech> 
[422.105]
ʔ o w l a ʔ a g l a ʔ a g l a ʔ a g m a n k i t a ʔ g a l i ʔ k o ʔ d i ɾ a ʔ 
[424.945]
<no-speech> 
[426.145]
ʔ o w 
[426.785]
<no-speech> 
[429.115]
<int> l a ʔ a g h a <oov> m a g k i t a ʔ r a k i t a ʔ d i d t o 
[433.255]
<no-speech> 
[435.885]
h u h <breath> d i ʔ n a m a n k a m u t i ŋ o g g w a p a 
[439.055]
<no-speech> 
[443.145]
<no-speech> 
[443.575]
<no-speech> 
[445.915]
w a ʔ m a n k o ʔ k a d u ŋ o g 
[447.155]
<no-speech> 
[451.565]
<no-speech> 
[452.465]
<no-speech> 
[453.775]
d i ʔ m a d u ŋ o g m a n n a k o ʔ m a d u ŋ o g n a k o ʔ ʔ i m u h a ŋ t i ŋ o g p ɛ ɾ o ʔ i m o ŋ t i ŋ o g m a g w a ʔ w a ʔ 
[459.195]
<no-speech> 
[461.685]
<int> s s i g n a l s i g u ɾ o n i m o n a 
[464.895]
<no-speech> 
[466.305]
h u h 
[466.915]
<no-speech> 
[469.885]
<hes> l a m i ʔ 
[470.605]
<no-speech> 
[473.305]
ʔ u m h u m ʔ a k o ʔ k a j m a g k w a n k o ʔ m a g l a h o g k o ʔ s ʔ a k o ʔ j ʔ o w h ɛ l o w 
[477.635]
<no-speech> 
[479.695]
m a g l a h o g k a ʔ o g m a n o k 
[480.915]
<no-speech> 
[482.705]
ʔ o j h ɛ l o w 
[483.525]
<no-speech> 
[491.705]
<int> <hes> 
[493.195]
<no-speech> 
[494.255]
ʔ a k o ʔ k a j g i s u g o ʔ p o d k o ʔ m a ŋ h u g a s ʔ o g p l a t o 
[497.475]
<no-speech> 
[498.535]
<no-speech> 
[498.905]
<no-speech> 
[499.825]
h ɛ l o w 
[500.455]
<no-speech> 
[502.735]
g i s u g o ʔ k o ʔ ʔ o g m a ŋ h u g a s k o ʔ ʔ o g p l a t o l a g i ʔ o w h ɛ l o w 
[506.085]
<no-speech> 
[508.755]
g i s u g o ʔ k o ʔ ʔ o g m a ŋ h u g a s p l a t o b a 
[510.475]
<no-speech> 
[512.065]
h u h 
[512.665]
<no-speech> 
[519.055]
m a ŋ h u g a s l a g i k o ʔ ʔ u n j a ʔ n a g t a w a g t a w a g p a m a n 
[521.425]
<no-speech> 
[522.445]
w a ʔ g a l i ʔ k o ʔ n a ŋ h u g a s k a j m a g t a g o ʔ g i m i ŋ a w n a m a n ʤ u d k o ʔ s ʔ i m o ʔ u n j a ʔ d i ʔ t u b a g t u b a g o n 
[527.945]
<no-speech> 
[531.065]
h u h 
[531.625]
<no-speech> 
[538.415]
<laugh> ŋ a n o m a n 
[539.885]
<no-speech> 
[546.285]
<laugh> n i h a w a ʔ n a k a p a ɾ a m a ŋ w a n n o w m a g k w a n 
[550.275]
<no-speech> 
[553.955]
h o j 
[554.535]
<no-speech> 
[556.665]
<no-speech> 
[557.065]
<no-speech> 
[558.715]
<no-speech> 
[559.075]
<no-speech> 
[560.115]
h o j g w a p a <oov> ʔ a k o ʔ n a l a ŋ j l a ʔ a g d i ɾ a ʔ s ʔ i n j u h a 
[563.555]
<no-speech> 
[566.345]
h u h 
[566.915]
<no-speech> 
[568.855]
ʔ a k o ʔ n a l a ŋ j l a ʔ a g d i ɾ a ʔ s ʔ i n j u h a 
[570.525]
<no-speech> 
[573.195]
h o j g w a p a 
[574.065]
<no-speech> 
[579.635]
ʔ o w m u ʔ u b a n k o ʔ 
[580.765]
<no-speech> 
[584.325]
ʔ u b a n g a l i ʔ k o ʔ ʔ o g d a b a w 
[585.845]
<no-speech> 
[587.885]

[588.515]
<no-speech> 
[590.015]
ʔ a k o ʔ m a n 
[590.995]
<no-speech> 
[592.245]
ʔ a k o ʔ m a n p l i t ɛ ʔ o w w a ʔ k a j a j k w a n w a ʔ m a n k a j a j 
[595.785]
<no-speech> 
[598.905]
m a ʔ o g a l i ʔ h a p i t n a j 
[600.005]
<no-speech> 
[600.020]
