[0.000]
<no-speech> 
[3.655]
h ɛ l o w 
[4.195]
<no-speech> 
[5.425]
<no-speech> 
[6.215]
<no-speech> 
[7.805]
h ɛ l o w 
[8.425]
<no-speech> 
[9.855]
ʔ u ʔ o 
[10.915]
<no-speech> 
[14.915]
ʔ u ʔ o 
[16.245]
<no-speech> 
[17.715]
m a d a j o n ʔ i l a ʔ i p o t 
[18.895]
<no-speech> 
[20.325]
<no-speech> 
[20.675]
<no-speech> 
[22.555]
<no-speech> 
[22.915]
<no-speech> 
[24.885]
<no-speech> 
[25.245]
<no-speech> 
[27.695]
g a l i ʔ n a n a n ʔ a w m o d i d t u ʔ a 
[29.895]
<no-speech> 
[31.505]
h a 
[32.075]
<no-speech> 
[34.355]
<sta> ʔ u n s a n i k ʔ u ʔ o 
[36.415]
<no-speech> 
[40.195]
w i k ʔ a w i k j ʔ a k o ʔ <int> 
[44.315]
<no-speech> 
[45.455]
ʔ u ʔ o p i l d i n a <sta> 
[47.175]
<no-speech> 
[48.095]
ʔ u n s a 
[48.715]
<no-speech> 
[49.615]
ŋ a n o m a n 
[50.475]
<no-speech> 
[52.885]
ʔ o w <foreign> m a n ʔ u n s a m ɛ j ʔ a t o ʔ ŋ d i ʔ a j n o w 
[54.435]
<no-speech> 
[55.585]
ʔ u ʔ o n i ʔ a r a m a n 
[56.665]
<no-speech> 
[58.965]
s u g o d ʔ a t o ʔ <int> s u g o d ʔ a t o ʔ <int> 
[61.485]
<no-speech> 
[63.875]
<no-speech> 
[64.225]
<no-speech> 
[66.695]
ʔ u n j a ʔ ʔ i n i ʔ o g m u ʔ a n s ɛ ɾ j 
[68.095]
<no-speech> 
[70.085]
<no-speech> 
[70.465]
<no-speech> 
[72.225]
k i l ɛ ɾ k a ʔ a j o 
[73.205]
<no-speech> 
[74.905]

[76.985]
<no-speech> 
[78.535]
h a 
[79.145]
<no-speech> 
[80.045]
ʔ o w n a p i l d i m i ʔ a t o ʔ p i l d i m i s p u s n a p i l d i m i s p u s 
[83.785]
<no-speech> 
[85.425]
ʔ u ʔ o 
[86.195]
<no-speech> 
[91.005]
w a ʔ ʤ u d b a ŋ a ʔ m a n k a ʔ a j o t u ʔ o g k u n t ɾ a 
[94.015]
<no-speech> 
[94.885]
m a n k a ʤ u d 
[96.825]
<no-speech> 
[98.705]
<hes> l u t o ʔ l u t o ʔ n a ʔ a p o d k a 
[100.965]
<no-speech> 
[103.545]
m a j o 
[104.315]
<no-speech> 
[105.645]
m a j o 
[106.365]
<no-speech> 
[107.405]
d i ʔ 
[108.015]
<no-speech> 
[110.105]
<int> ʔ a k o ʔ n a l a ŋ b i m <int> ʔ a k o ʔ n a l a ŋ b i m h u h 
[113.825]
<no-speech> 
[114.955]
<int> k a d t o n a l a ŋ g i m n a p ɛ ɾ o ʔ a t o ʔ ŋ ŋ s u g o d p u d s m a n s j a w a ʔ m a n s j a j k o n t ɾ i b j u ʃ o n 
[119.395]
<no-speech> 
[122.315]
d i ʔ 
[123.105]
<no-speech> 
[124.755]
h ɛ l o w n i k 
[125.405]
<no-speech> 
[130.925]
ʔ u ʔ o 
[131.615]
<no-speech> 
[136.675]
ʔ i ŋ o n ʔ a n a ʔ 
[138.095]
<no-speech> 
[140.135]
ʔ o w n a ʔ a m a n d i ʔ a j l i n a w s ʔ i l a h a n o w ʔ u n j a ʔ k a j s i g ɛ ʔ o g 
[143.205]
<no-speech> 
[147.005]
j a w a ʔ k a ʔ a j o s i ʔ a t i k k a j ʔ i s a r a j p a s i b ʔ i j a ŋ 
[149.025]
<no-speech> 
[152.495]
ʔ u ʔ o <int> 
[153.155]
<no-speech> 
[156.405]
p a s i b j j a w a ʔ k a ʔ a j o s i ʔ a t i k m u g a m i t ʔ o g b a l a n a ɾ ʔ o j p a s i b 
[159.615]
<no-speech> 
[161.785]
h a 
[162.395]
<no-speech> 
[164.465]
h ɛ l o w ʔ u ʔ o 
[166.145]
<no-speech> 
[168.785]
ʔ u ʔ o 
[169.365]
<no-speech> 
[172.245]
<int> <no-speech> ʔ o k i 
[173.815]
<no-speech> 
[176.435]
w a ʔ n a m i k l a ɾ o g a l i ʔ w a ʔ n a m i k l a ɾ o ʔ a s a s i ʔ a n i 
[180.935]
<no-speech> 
[184.525]
ʔ u ʔ o 
[185.295]
<no-speech> 
[186.365]

[186.865]
<no-speech> 
[188.765]
d u g a j p a ʤ u d d i ʔ a j s i l a d i ʔ p w i d i <int> 
[190.865]
<no-speech> 
[192.555]
d i ʔ b a l a m i ʔ k a ʔ a j o k a d t o ʔ a k o ʔ ŋ k o m b o w b a d i ʔ m a n s i l a k a s u d ʤ u d b i s a n ŋ m a g s a b a j s i l a n a g ʔ i s p l i t i ɾ s n a l a ŋ m i b a 
[198.575]
<no-speech> 
[199.845]
d i ʔ s i l a d i ʔ s i l a k a d a ʔ o g b a s t a b a s t a m a g <prompt> <int> ʔ o w n a g ʔ i s p l i t n a l a ŋ s i l a 
[207.475]
<no-speech> 
[216.065]
ʔ u ʔ o m a s d a l i ʔ ʤ u d 
[217.565]
<no-speech> 
[218.395]
ʔ a l a ŋ a n ʔ a k u ʔ a m a n t a n a n s u p o ɾ t w a ʔ w a ʔ m a n s j a j g a s t o ʤ u d <int> 
[222.195]
<no-speech> 
[223.955]
h a <int> <no-speech> h ɛ l o w n i k 
[226.885]
<no-speech> 
[228.975]
k a n a ʔ ŋ s i <foreign> n a p i ɾ m i n t i g i n a d u w a ʔ k a ɾ o n h u h 
[232.985]
<no-speech> 
[233.825]
<sta> h ɛ l o w 
[235.385]
<no-speech> 
[236.675]
n a g ʧ a p i m a n g a l i ʔ 
[237.815]
<no-speech> 
[239.645]
h ɛ l o w 
[240.355]
<no-speech> 
[245.355]
<no-speech> 
[245.775]
<no-speech> 
[248.535]
ʔ o w ʔ o w n a g ʔ u n t a ʔ s j a 
[251.385]
<no-speech> 
[252.335]
<int> s i d o g i <int> d o g i s i d o g i 
[257.435]
<no-speech> 
[258.505]
b a l i k k a <hes> d i h a ʔ 
[262.205]
<no-speech> 
[264.305]
<sta> l a ŋ ʔ i j a ŋ n a h i b a l ʔ a n 
[267.675]
<no-speech> 
[269.465]
l a ŋ 
[270.695]
<no-speech> 
[274.045]
l i s o d ʔ o j <int> d i ʔ ʤ u d 
[277.765]
<no-speech> 
[281.485]
m a l u p i g a n k a n i k m a l u p i g a n k a <int> 
[286.465]
<no-speech> 
[287.655]
<laugh> d i ɾ i t s o n a b a d i ɾ i t s o n a s j a b a 
[293.105]
<no-speech> 
[295.545]
h ɛ l o w <int> 
[297.375]
<no-speech> 
[298.185]
<no-speech> 
[298.715]
<no-speech> 
[300.775]
h a 
[301.385]
<no-speech> 
[303.875]
<no-speech> 
[304.225]
<no-speech> 
[306.775]
ʔ u ʔ o d a p a t j g i n a g a m i t s i l a ŋ b i g i n ɛ ɾ h a 
[311.425]
<no-speech> 
[312.645]
ʔ u n s a n i k <int> 
[313.355]
<no-speech> 
[314.705]
h ɛ l o w ʔ u n s a 
[316.695]
<no-speech> 
[322.675]
g a l i ʔ k a p o j p o d g a l i ʔ k o ʔ <hes> ʔ u n s a n a ŋ s i m g i g a m i t n i m o s a n s a n n a 
[326.815]
<no-speech> 
[327.745]
g a l i ʔ s a n n a ʔ i m o ŋ g a m i t n a s i m 
[329.535]
<no-speech> 
[331.565]
n i k s a n n a ʔ i m o ŋ g a m i t n a s i m 
[333.515]
<no-speech> 
[335.805]
m a j o n a <sta> s a n ʔ i m o ŋ g a m i t n a s i m s a n t i ʔ i m n a 
[341.305]
<no-speech> 
[342.465]
b a n t o g r a d i ʔ m a n p o d d i ʔ m a n k o m p a t i b o l h a 
[346.775]
<no-speech> 
[347.965]
ʔ u ʔ o w a ʔ p a n a ʔ u l i ʔ 
[349.175]
<no-speech> 
[351.115]
<sta> ʔ u n s a ʔ u n s a n i k 
[354.655]
<no-speech> 
[356.815]
<sta> <no-speech> ʔ u ʔ o d i ʔ <foreign> n a d i ɾ i ʔ a d i ʔ 
[360.465]
<no-speech> 
[361.755]
s i g u ɾ o 
[362.665]
<no-speech> 
[364.155]
ʔ u n j a ʔ k a n a ʔ ŋ s i <foreign> m a n ʔ a k o ʔ ŋ p i ɾ m i n t i g i n a d u w a ʔ 
[367.145]
<no-speech> 
[369.005]
<no-speech> 
[369.415]
<no-speech> 
[371.515]
ʔ u ʔ o n a ʔ a b a j a d n a ʔ a b a j a d <int> d j ɛ s j ʔ u ɾ a s 
[375.415]
<no-speech> 
[377.475]
p w i d i m a n 
[378.285]
<no-speech> 
[380.185]
<sta> h ɛ l o w n i k 
[381.385]
<no-speech> 
[382.325]
h ɛ l o w <int> h ɛ l o w ʔ o w s i ʔ i m n a m a n ʔ a k o ʔ ŋ g i n a d u w a ʔ p a g a b i ʔ i 
[388.945]
<no-speech> 
[390.045]
<sta> k a ʔ u b a n s i l a 
[392.445]
<no-speech> 
[393.825]
<int> n a p i ɾ m i n t i ʔ a k o ʔ ŋ g i n a d u w a ʔ 
[395.995]
<no-speech> 
[398.385]
ʔ u ʔ o s i ʔ i m b a b a s t a w a ʔ b a s t a w a ʔ s i l a <int> ʔ u ʔ o k a g a h a p o n g a l i ʔ n i h a w a ʔ m a n t u g a b i ʔ i ʔ i l a m a n n i d i ɾ i t s o n a g d u w a ʔ k o ʔ ʔ o g n a g t a m b a j k o ʔ ʔ i l a b a b i <int> 
[408.735]
p ɾ a k t i s b a j a ʔ k a p o j n a k a ʔ a j o s i g ɛ ʔ o g ʔ o j d i ʔ k a m u ʔ a s i n s o ʔ a n a ʔ k a n a ʔ ŋ k i n t a h a j ʔ a k o ʔ ʔ u n j a ʔ s i l a m i d o m u ʔ a p i l m a n ʔ o g 
[419.895]
k a d t o p a ɾ a p a g n a ʔ a j p a ɾ a p a g n a ʔ a j k a p u s t a ʔ a n a j b a <int> 
[426.185]
<no-speech> 
[428.745]
<sta> <hes> s i ʔ a n ʔ u ʔ o ʔ a k t w a l i l a g i ʔ u ʔ o p ɛ ɾ o <oov> g w a p o ʔ o j 
[435.575]
<no-speech> 
[437.035]
<hes> <oov> m a s l i ŋ a w j ʔ o j k a s o l a ŋ k a n a ʔ ŋ k i n t a h a j s u p o ɾ t k a 
[441.575]
<no-speech> 
[443.395]
s s u p o ɾ t ʔ u ʔ o k o ʔ ŋ p u l s u p o ɾ t ʤ u d k a k a n a ʔ ŋ <sta> t i g ʔ u n s a t i g d ɛ n a j l a ŋ k a t i g ʔ u n s a l a ŋ k a t i g w a ɾ d l a ŋ k a s i g u ɾ o k a w d i ʔ n a s i g u ɾ o k a m a l i ŋ a w ʔ a n a ʔ 
[453.065]
<no-speech> 
[454.095]
g u s t o m a n s i g u ɾ o k a k ɛ ɾ i k a j ʔ i ɾ i k a p w i d i m a n ʔ i ɾ i k a 
[458.405]
<no-speech> 
[460.135]
d a g h a n m a n k a ʔ a j o ʤ i n u ʔ o s n a b i ʤ u d d i ʔ b a s i ʔ i k s b a k s n a ʔ a m a n d i d t o 
[465.515]
<no-speech> 
[467.545]
h a 
[468.165]
<no-speech> 
[469.765]
ʔ u n s a n i k n a l u g i ʔ j k a n a ʔ ŋ s u p o ɾ t 
[471.905]
<no-speech> 
[474.125]
d i ʔ ʔ o j <int> 
[474.805]
<no-speech> 
[476.005]
ʔ a l a ŋ a n k a j m a j o m a n ʤ u d n u ʔ o n 
[477.635]
<no-speech> 
[479.085]
ʔ u n s a m ɛ j g i ʔ u n s a m a l u g i ʔ m o s 
[482.075]
<no-speech> 
[487.725]
s i g ɛ l a ŋ ʤ u d <int> s u n o d b a 
[489.845]
<no-speech> 
[490.805]
<sta> h ɛ l o w s u n o d b a s i l a <click> h a h ɛ l o w ʔ u ʔ o s i l a <foreign> j k a l a b a n 
[499.595]
<no-speech> 
[501.415]
<int> ʔ u n s a j s u n o d ŋ 
[502.465]
<no-speech> 
[504.375]
h ɛ l o w 
[505.025]
<no-speech> 
[506.225]
<int> <hes> k a d t o <sta> ʔ u ʔ o w a ʔ m a n ʔ u ʔ o w a ʔ n a m a n s i l a g a p a ŋ h a g i t w a ʔ n a m a n s i l a n a g a p a ŋ h a g i t 
[514.635]
<no-speech> 
[515.565]
<no-speech> 
[515.925]
<no-speech> 
[516.905]
<int> ʔ o w b i s i s i g u ɾ o 
[519.855]
<no-speech> 
[522.745]
ʔ a j ʔ a k o ʔ t u ŋ ʔ i l h o n n o w <int> 
[525.235]
<no-speech> 
[528.885]
m a ʔ o 
[529.715]
<no-speech> 
[537.115]
d i ʔ k a k a ʔ o w ŋ a n o m a n 
[538.515]
<no-speech> 
[540.505]
p a ŋ i t k a ʔ a j o t u ŋ ʔ i s t a n n a ʔ u n s a d i ʔ a j t u ʔ i j a ŋ ʔ i s t a n d i ʔ a j 
[542.575]
<no-speech> 
[543.815]
<int> ʔ u n s a j g i n a ʔ u n s a <int> 
[545.275]
<no-speech> 
[550.945]
<no-speech> 
[551.295]
<no-speech> 
[552.785]
ʔ a j d i ʔ n a n i m o p w i d i ʔ i p i n d o t s i h i ɾ o 
[554.425]
<no-speech> 
[555.605]
<no-speech> d i ʔ n a n i m o m a p i n d o t s i g u ɾ o 
[558.165]
<no-speech> 
[559.675]
d i ʔ n i m o p w i d i m a p i n d o t s i g u ɾ o d i ʔ n i m o p w i d i ʔ i p i n d o t s i g u ɾ o 
[563.745]
<no-speech> 
[564.585]
d i ʔ n i m o p w i d i ʔ i p i n d o t 
[566.465]
<no-speech> 
[568.575]
h ɛ l o w n i k 
[569.205]
<no-speech> 
[570.315]
n o w 
[570.995]
<no-speech> 
[572.455]
h ɛ l o w d i ʔ k a ʔ a j o k o ʔ p w i d i ʔ i p i n d o t s i h i ɾ o 
[574.835]
<no-speech> 
[576.345]
d i ʔ p w i d i 
[577.165]
<no-speech> 
[579.725]
h ɛ l o w ŋ a n o m a n 
[581.705]
<no-speech> 
[582.845]
l a ʔ i n a n a b a ʔ a n a ʔ 
[583.865]
<no-speech> 
[585.395]
ʔ i ʔ i ŋ o n n a b a t ɛ s t i ŋ a n d a w n a k o ʔ ʔ u n j a ʔ 
[587.185]
<no-speech> 
[589.865]
<int> h a 
[591.245]
<no-speech> 
[593.045]
h ɛ l o w 
[593.765]
<no-speech> 
[595.285]
<sta> 
[597.675]
<no-speech> 
[598.725]
ʔ u ʔ o 
[599.355]
<no-speech> 
[600.080]
