[0.000]
<no-speech> 
[2.755]
h ɛ l o w 
[3.365]
<no-speech> 
[11.505]
h ɛ l o w 
[12.005]
<no-speech> 
[21.685]
h ɛ l o w 
[22.285]
<no-speech> 
[25.025]
h ɛ l o w 
[25.625]
<no-speech> 
[29.205]
h ɛ l o w 
[32.285]
<no-speech> 
[36.785]

[37.555]
<no-speech> 
[42.855]

[43.605]
<no-speech> 
[44.885]
<no-speech> 
[45.605]
<no-speech> 
[47.515]
h ɛ l o w 
[48.085]
<no-speech> 
[51.925]
<no-speech> 
[52.525]
<no-speech> 
[53.455]
<no-speech> 
[53.825]
<no-speech> 
[55.055]
<no-speech> 
[55.675]
<no-speech> 
[57.715]
h a 
[58.305]
<no-speech> 
[59.665]
<no-speech> 
[60.085]
<no-speech> 
[61.105]
m a j o m a n k a w k a m u s t a m a n s a d k a 
[64.185]
<no-speech> 
[68.715]
<no-speech> 
[69.735]
<no-speech> 
[71.845]
<no-speech> 
[72.245]
<no-speech> 
[77.205]
h i n a j k a ʔ a j o ʔ i m o ŋ t i ŋ o g 
[78.555]
<no-speech> 
[80.755]
h i n a j k a ʔ a j o ʔ i m o ŋ t i ŋ o g 
[81.985]
<no-speech> 
[87.215]
n a n a ŋ n a ŋ l a b a k o ʔ ʔ o j d a g h a n k a ʔ a j o k o ʔ ʔ o g b u l i ŋ o n 
[89.795]
<no-speech> 
[96.925]
n a m a j o l a ŋ m a n m a ʔ o g i h a p o n b a d l u ŋ o n 
[99.195]
<no-speech> 
[103.095]
ʔ u n j a ʔ ʔ i m o ŋ b a n a 
[104.095]
<no-speech> 
[105.425]
k a m u s t a n a m a n ʔ i m o ŋ b a n a 
[107.395]
<no-speech> 
[109.915]
ʔ u n j a ʔ j ʔ i p a k a ʔ o n s ʔ i m o ŋ ʔ a n a k j ʔ i p a k a ʔ o n s ʔ i m o ŋ ʔ a n a k 
[113.475]
<no-speech> 
[117.735]
p a ʔ i t d i ʔ a j k a k a ʔ a j o ʔ o g k a h i m t a ŋ d i ʔ a j 
[119.425]
<no-speech> 
[123.795]
ʔ u n j a ʔ k i n s a s a d j l a ʔ i n ŋ m u t a b a ŋ t a b a ŋ n i m o ŋ a n h a ʔ 
[126.155]
<no-speech> 
[128.835]
<hes> s ʔ i m o ŋ m a ŋ a ʔ a n a k 
[130.145]
<no-speech> 
[132.525]
k i n s a j t i g p a l i t p a l i t n i m o ŋ a n h a ʔ b a 
[134.365]
<no-speech> 
[135.195]
k a ʔ o n n i n j o 
[136.185]
<no-speech> 
[137.695]
k a j d a g h a n m a n k a ʔ a j o k a ʔ o g ʔ a n a k 
[138.925]
<no-speech> 
[142.785]
<no-speech> 
[143.135]
<no-speech> 
[150.135]
<laugh> n i ʔ a n a ʔ ʤ u d 
[152.685]
<no-speech> 
[154.235]
t i n u ʔ o d ʤ u d n a h a 
[156.425]
<no-speech> 
[161.375]
ʔ u m b u ʔ o t a n b u ʔ o t a n 
[163.315]
<no-speech> 
[165.465]
<hes> n a k a k u h a ʔ ʤ u d ʔ u n t a w o n t a ʔ o g d i ʔ l a g i m a d i s g ɾ a s j a d i ʔ s a d m a b u ʔ u t a n 
[169.525]
<no-speech> 
[171.875]
ʔ a j s a d ʔ u s a h a j s a d ʔ o g ʔ u t o k t i 
[174.975]
<no-speech> 
[175.875]
k a p o j s i g ɛ ʔ o g s a b o t 
[176.975]
<no-speech> 
[183.715]
m a n i n d a n a k o ʔ ʔ o j 
[184.765]
<no-speech> 
[185.615]
m a n i n d a k o ʔ ʔ i n i g ʔ u g m a ʔ ʔ o g s a g i ŋ ʔ o j m a n i ŋ k a m o t s a d t a ʔ o g m a j o ʔ o j 
[189.285]
<no-speech> 
[193.705]
d i ʔ d i ʔ a j k a m a g l a b a m a ŋ l a b a k a ɾ o n ŋ k a d a ʔ a d l a w m a n k a s i g ɛ ʔ o g l a b a 
[197.675]
<no-speech> 
[201.845]
j ʔ i m o ŋ ʔ a n a k <hes> g a s i g i r a b a ʔ o g ŋ a n h i 
[204.025]
<no-speech> 
[206.435]
j ʔ i m o ŋ s i g ɛ ʔ o g k a ʔ o n ʔ o g 
[208.425]
<no-speech> 
[218.515]

[219.765]
<no-speech> 
[221.055]

[221.595]
<no-speech> 
[223.775]
n o w 
[224.525]
<no-speech> 
[225.495]
p a ʔ i t a l a g i l u ʔ o j ʤ u d k a ʔ a j o ʔ o g k a h i m t a ŋ 
[227.615]
<no-speech> 
[236.435]
<no-speech> 
[236.785]
<no-speech> 
[239.105]
ʔ o j b i t a w t i n u ʔ o d b i t a w g i l u ŋ k a b k u n o j ʔ i l a ŋ k w a n k u n o ʔ i l a ŋ b a j b i t a w g i k u h a ʔ a n k u n o s i l a ʔ o g m a ŋ a k w a n m a ŋ a t i n d a n i l a b a g i p a ŋ u h a ʔ m a n d a w k u n o 
[247.685]
<no-speech> 
[253.255]
<hes> ʔ a m b o t l a ŋ m a ŋ a k a w a t a n ʔ o j d i ʔ m a n k a b a w m u s a b o t k a b a w ŋ n a ʔ a j m a s a k i t o n 
[257.235]
<no-speech> 
[259.895]
m a l u ʔ o j ʤ u d k o ʔ ʔ o j m a l u ʔ o j m a n k o ʔ n ɛ k w a n ʔ o j ʔ a k o ʔ ŋ ʧ o ʔ 
[262.845]
<no-speech> 
[264.705]
ʔ a m b o t l a ŋ s a d k a h a n i ʔ a n a ʔ n j a 
[266.225]
<no-speech> 
[268.275]
ʔ a m b o t l a ŋ s a d k a h a h a ʔ u n s a 
[271.525]
<no-speech> 
[272.815]
j 
[273.445]
<no-speech> 
[277.645]
<hes> t a b a ŋ t a b a ŋ s a d n a s ʔ a k o ʔ ŋ m a m a s i l a <no-speech> j t a m b a l ʔ u n t a w o n p ɛ ɾ t ɛ ʔ u n t a w o n ŋ m a h a l a l u ʔ o j ʔ u n t a w o n k a ʔ a j o s t a n a n 
[284.625]
<no-speech> 
[285.875]
<no-speech> 
[286.225]
<no-speech> 
[287.145]
<no-speech> 
[287.765]
<no-speech> 
[290.355]
<no-speech> 
[290.945]
<no-speech> 
[292.255]

[293.175]
<no-speech> 
[295.415]
h a 
[296.025]
<no-speech> 
[298.355]
w a ʔ m a n d i n h i 
[299.465]
<no-speech> 
[300.455]
s ʔ i m o ŋ k w a n g i p a s u ɾ o j n j a ʔ i m o ŋ ʔ a n a k 
[303.885]
<no-speech> 
[305.595]
n a ʔ a p a j ʔ a k u ʔ a ŋ ʔ a n a k d i n h i b a d l u ŋ o n k a ʔ a j o s t a n a n n a b a d l u ŋ o n s i g ɛ ʔ o g d a g a n d a g a n g a h i ʔ k a ʔ a j o ʔ o g n a w o ŋ 
[310.895]
<no-speech> 
[312.265]
ʔ a m b o t n i ʔ a n i ŋ b a t a ʔ a ʔ o j m a j o m a n s u n t u k o n 
[314.335]
<no-speech> 
[317.185]
ʔ u n s a ʔ o n p a g ʔ a t i k ʔ a t i k d i ʔ ʤ u d n a g a d a g a n d a g a n n a s a l b a h i s l a g i k a ʔ a j o ŋ b a t a ʔ a 
[321.775]
<no-speech> 
[324.735]
n a ʔ a p a j ʔ a n a k ŋ s i ʤ i w i l s i g ɛ ʔ o g m i n a t a j s i g ɛ ʔ o g h i l a k s g a w a s 
[327.945]
<no-speech> 
[329.035]
<no-speech> 
[329.725]
<no-speech> 
[330.545]
s i g ɛ ʔ o g h i l a k s i g ɛ ʔ o g p a n a w a g s i g ɛ ʔ o g s i j a g i t 
[332.705]
<no-speech> 
[333.515]
h a 
[334.105]
<no-speech> 
[337.335]
s i ʤ a m ʤ a m 
[338.375]
<no-speech> 
[339.635]
s i ʤ a m ʤ a m j n a g k w a n n ɛ ʤ i w i l ʔ o j 
[341.595]
<no-speech> 
[343.785]
ʔ u n j a ʔ ʔ a t ɛ ʔ a l m i n s i k w a n r i m o n m a g h a t a g a n p a n i m o ʔ o g k w a n <breath> g i h a t a g a n m a n k a h a s j a n ɛ ʔ a j ɾ i s ʔ o g k w a ɾ t a 
[349.575]
<no-speech> 
[357.335]
ʔ o j m a b u h i ʔ n a m a g s i l b i d i ʔ a j ŋ p a k a ʔ o n s ʔ i j a ŋ ʔ a n a k p ɛ ɾ t ɛ ŋ d a g h a n a 
[361.115]
<no-speech> 
[364.685]
p a ʔ i t ʤ u d k a ʔ a j o k a ɾ o n m a h a l k a ʔ a j o j k i l o w b u g a s <breath> 
[366.785]
<no-speech> 
[369.965]
m a ʔ o ʤ u d t i n u ʔ o d ʤ u d n a t i ʔ a l m i n 
[372.655]
<no-speech> 
[374.785]
<sta> t i n u ʔ o d ʤ u d 
[376.565]
<no-speech> 
[377.715]
j ɛ s j ʔ i m o ŋ b a t a ʔ ʔ a s a n a g ʔ i s k u j l a s i l a ʔ a j ɾ i s 
[380.535]
<no-speech> 
[388.435]
ŋ a n o ŋ d u g a j m a n k a ʔ a j o n a s j a m u ʔ u l i ʔ ʔ a t ɛ ʔ a l m i n s i ʔ i j a n 
[391.185]
<no-speech> 
[392.825]
ŋ a n o ŋ g a b i ʔ i n a m a n n a s j a m u ʔ u l i ʔ 
[394.475]
<no-speech> 
[400.335]
ʔ u n j a ʔ p a g s w i l d o n ɛ p a g s w i l d o n i l a g i t a g a ʔ a n k a ʔ o g k w a ɾ t a 
[404.665]
<no-speech> 
[414.020]
<no-speech> 
[423.375]
ʔ u n j a ʔ m u h a t a g s a d s i l a t a g a ʔ a n s a d ʔ o g k w a ɾ t a ʔ i m o ŋ m a m a s a d 
[425.985]
<no-speech> 
[430.285]
ʔ u n s a d a k o ʔ ŋ ɾ a j s k u k i ɾ j g i p a l i t 
[432.265]
<no-speech> 
[435.175]
ʔ a w g a m a j 
[436.055]
<no-speech> 
[438.725]
ʔ u n j a ʔ ʔ i m o ŋ k i n s a n a g b i l i n d i d t o m a ŋ a b a t a ʔ n i m o d i d t o ŋ g a g m a j ŋ n a g k w a n m a n d i ʔ a j k a ŋ a d t o g a l u ŋ ʔ a g 
[444.885]
<no-speech> 
[448.505]
ʔ u n j a ʔ s i ʔ a j l i n n a ʔ a m a n d i n h i s g a w a s 
[450.165]
<no-speech> 
[451.645]
g a k w a n s ʔ i m o ŋ ʔ a n a k h a 
[453.905]
<no-speech> 
[458.985]
<hes> n a ʔ a d i ʔ a j p a p a n i m o d i ʔ a j w a ʔ d i ʔ a j s j a n i d ɾ a j b d i ʔ a j 
[461.365]
<no-speech> 
[464.625]
<no-speech> 
[465.155]
<no-speech> 
[468.705]
<hes> p a l i t s a d s j a g a d a s a d s j a ʔ o g s u d ʔ a n k a ɾ o n 
[470.835]
<no-speech> 
[472.565]
<no-speech> 
[473.135]
<no-speech> 
[477.425]
ʔ u n s a d i ʔ a j n a ʔ u ɾ a s a n a ʔ a ŋ a n h a ʔ s i ʔ a j l i n d i ʔ a j 
[479.495]
<no-speech> 
[485.365]
s a j o d i ʔ a j n a ʔ a ŋ a n h a ʔ s i ʔ a j l i n 
[486.625]
<no-speech> 
[488.755]
ʔ u n s a d i ʔ a j ʔ i j a ŋ g i ʔ a n h a ʔ ʔ u n s a d i ʔ a j ʔ i j a ŋ g i ʔ a n h a ʔ d i h a ʔ d i ʔ a j 
[493.165]
<no-speech> 
[495.435]
n a n i n d a s j a ʔ o g g i n a m o s 
[496.655]
<no-speech> 
[500.545]
d i ʔ i n m a n s j a n i ʔ a n a ʔ 
[501.585]
<no-speech> 
[502.505]
d i ʔ i n m a n s j a ʔ a t o ʔ ŋ g i n a m o s h a 
[504.995]
<no-speech> 
[506.975]
g i h i m o ʔ n j a k a b a w d i ʔ a j n a s j a d i ʔ a j 
[508.875]
<no-speech> 
[515.055]
ʔ a w 
[515.905]
<no-speech> 
[517.095]
<sta> k i n i l o j ʔ i j a ŋ g i k w a n h a k i n i l o 
[522.705]
<no-speech> 
[523.965]
h i l a w l a g i n o w 
[526.035]
<no-speech> 
[526.925]
k i n i l o ʔ i j a ŋ g i n a m o s d i ʔ 
[528.555]
<no-speech> 
[531.255]
k i n i l o j g i n a m o s n j a k w a n 
[533.265]
<no-speech> 
[539.125]
<hes> <hes> 
[540.545]
<no-speech> 
[542.795]
g a m a j g a m a j l a ŋ l a g i ʔ o g s u d 
[544.515]
<no-speech> 
[547.785]
g a m a j l a ŋ l a g i j s u d s ʔ i j a ŋ k w a n l a g i k a n a ʔ ŋ s u d l a n a n l a g i s p i n a t b a t i ɾ 
[551.925]
<no-speech> 
[557.685]
ʔ u n j a ʔ d i ʔ i n s j a ʔ a t o ʔ ŋ g i n a m o s 
[559.085]
<no-speech> 
[560.605]
ʔ a j k a n a ʔ ŋ ʔ i s d a ʔ b a d i ʔ i n s j a ʔ o g ʔ i s d a ʔ 
[562.385]
<no-speech> 
[572.565]
n o w m a j o s a d d i ʔ a j k a ʔ a j o ʔ o g 
[574.725]
<no-speech> 
[576.535]
m a j o d i ʔ a j s a d k a ʔ a j o n i g u s j o s i ʔ a j l i n d i ʔ a j 
[579.805]
<no-speech> 
[582.145]
<no-speech> 
[582.625]
<no-speech> 
[583.725]
s u ʔ o d n a s a d d i ʔ a j m o b a l i k 
[586.515]
<no-speech> 
[588.095]
s u ʔ o d n a s a d d i ʔ a j m o b a l i k n ɛ ʔ a j l i n 
[590.045]
<no-speech> 
[591.245]
s u ʔ o d n a s a d m o b a l i k n ɛ ʔ a j l i n 
[592.805]
<no-speech> 
[593.885]
<no-speech> 
[594.305]
<no-speech> 
[595.785]
m a g ʔ a ʔ a w a j m a n m o h a 
[598.205]
<no-speech> 
[601.035]
l a g i ʔ u n j a ʔ s i k w a n s i 
[604.865]
ʔ i m o ŋ 
[605.400]
