[0.000]
<no-speech> 
[5.085]
h ɛ l o w 
[5.705]
<no-speech> 
[9.925]
h ɛ l o w ʔ a t ɛ 
[13.705]
<no-speech> 
[14.635]
k a m u s t a m a n d i ɾ a ʔ <no-speech> ʔ o k i l a ŋ m a n 
[18.015]
<no-speech> 
[21.175]
ʔ o k i l a ŋ 
[21.975]
<no-speech> 
[23.175]
h a p i t n a b a j a ʔ p a s k o t i ʔ u n s a h a n d a ʔ n i n j o t i 
[25.165]
<no-speech> 
[27.975]
h a p i t n a p a s k o ʔ u n s a h a n d a ʔ n i n j o 
[29.325]
<no-speech> 
[33.905]
<no-speech> 
[34.685]
<no-speech> 
[37.215]
d i ɾ a ʔ l a ŋ g i h a p o n m u ʔ u l i ʔ m a n k o ʔ 
[39.245]
<no-speech> 
[43.275]
d i ɾ a ʔ s k w a n s b a n k ɛ ɾ o h a n 
[45.245]
<no-speech> 
[48.295]
ʔ o w 
[48.855]
<no-speech> 
[51.935]
ʔ o w s n u j i ɾ 
[53.045]
<no-speech> 
[58.625]
<no-speech> 
[59.385]
<no-speech> 
[60.295]
ʔ o k i l a ŋ m a n <foreign> 
[61.365]
<no-speech> 
[66.245]
ʔ u n s a l i ŋ a w n i m o d i ɾ a ʔ k a ɾ o n ʔ a t ɛ 
[67.805]
<no-speech> 
[71.305]
<no-speech> 
[72.185]
<no-speech> 
[74.405]

[74.875]
<no-speech> 
[78.115]
ʔ u ʔ o d i d t o 
[79.285]
<no-speech> 
[81.975]
ʔ o w 
[82.465]
<no-speech> 
[84.495]
d i ʔ ʔ i j a h a l a ŋ k w a n ʔ i j a h a l a ŋ ʔ a s a w a n j a 
[86.925]
<no-speech> 
[91.825]
d i ʔ k a j s k w a n m a n ʤ u d s i l a s s a m a l s i l a 
[94.285]
<no-speech> 
[98.685]
ʔ o w n a k w a n g a l i ʔ m i k a ɾ o n t a n a n <no-speech> n a k a n j a k a n j a m i t a n a n 
[102.645]
<no-speech> 
[108.305]
ʔ o w p a s k o <foreign> 
[109.495]
<no-speech> 
[111.485]
k a j m a g t a p o k t a p o k n a p o d m i p a s k o 
[113.595]
<no-speech> 
[121.545]
ʔ a w ʔ o w m a g 
[122.745]
<no-speech> 
[124.005]
ʔ o w p a s k o 
[125.215]
<no-speech> 
[126.285]
k a j m a g k w a n m a n m i p a s k o m a g 
[128.245]
<no-speech> 
[129.055]
ʔ o w m a g t a p o k t a p o k m a n m i t a n a n ŋ 
[131.365]
<no-speech> 
[132.355]
m a ŋ a k w a n d i ɾ a ʔ m a ŋ a <no-speech> k a b a t a ʔ a n 
[135.195]
<no-speech> 
[136.605]
<laugh> ʔ a p i l g i h a p o n j m a ŋ a k a t i g w a ŋ a n 
[139.395]
<no-speech> 
[142.155]
k a j m a g k w a n m a n m i m a g 
[143.665]
<no-speech> 
[145.045]
h a 
[145.705]
<no-speech> 
[150.795]
w a ʔ n a g ʔ i s t u ɾ j a ʔ i s t u ɾ j a l a ŋ m a n s i l a 
[152.795]
<no-speech> 
[157.265]
s 
[157.865]
<no-speech> 
[161.825]
k w a n l a ŋ m a ŋ a p a g k a ʔ u g m a ʔ u l i ʔ n a m i p a g k a ʔ u g m a 
[164.955]
<no-speech> 
[166.815]
k a j w a ʔ n a m a n b j a h ɛ ʤ u d d ɛ l i k a d o m a n ʤ u d j b j a h ɛ p a g p a ʔ u l i ʔ k a 
[171.225]
<no-speech> 
[179.265]
ʔ o w l a g i d a w d i d t o n a p o d d a w 
[180.945]
<no-speech> 
[182.065]
h a 
[183.065]
<no-speech> 
[186.135]
n a ʔ a m a n p o d m u ɾ a ʔ o g <no-speech> s u n o d ʔ u g m a ʔ p a <foreign> 
[189.445]
<no-speech> 
[195.025]
ʔ u m s m ɛ j m a l v a ɾ 
[196.415]
<no-speech> 
[200.485]
<laugh> n a ʔ a r a m a n s b a j 
[203.355]
<no-speech> 
[204.175]
<laugh> n a ʔ a r a s b a j <no-speech> h a 
[208.285]
<no-speech> 
[211.405]
m i ŋ t ɛ k s m a n k o ʔ s ʔ a k o ʔ ŋ m a ŋ h o d <no-speech> n a ʔ a d a w s j a d i d t o 
[214.675]
<no-speech> 
[217.945]
ʔ i ŋ o n s j a n a ʔ a d a w d i d t o n a g h i n u k t o k <laugh> 
[222.235]
<no-speech> 
[224.985]
k a t o l a ŋ k a g a b i ʔ i t a p o s <no-speech> w a ʔ n a n i l a k a w n a d a j o n k o ʔ d a l i ʔ r a m a n t u 
[229.305]
<no-speech> 
[233.835]
w a ʔ n a <no-speech> n a ʔ a p a m a n ʤ u d k o ʔ g i ʔ a d t o 
[236.795]
<no-speech> 
[244.075]
n a ʔ a r a m a n g i h a p o n d i d t o 
[245.535]
<no-speech> 
[249.155]
ʔ o w k i t ʔ a n g i h a p o n n a k o ʔ 
[250.815]
<no-speech> 
[255.145]
s k w a n s ʔ i l a h a m o <no-speech> b i s i t a b i s i t a r a m a n s j a d i d t o s b a j 
[259.005]
<no-speech> 
[263.135]
ʔ u m t a j m i ŋ a n l a ŋ ʤ u d k a g a b i ʔ i n a ʔ a s i l a 
[265.425]
<no-speech> 
[266.995]
n a k a ʔ a l a l a j p o d s i l a k a g a b i ʔ i 
[268.765]
<no-speech> 
[269.685]
h a 
[270.295]
<no-speech> 
[277.275]
ʔ o w b i t a w t a m a ʔ g w a p o b a j a ʔ k a n a ʔ 
[279.085]
<no-speech> 
[285.915]
ʔ a j h a h a ŋ t o d d i d t o ʔ i l a k w a n ʔ i l a ʔ a n t i ʤ i n a ʔ a b i l a 
[288.765]
<no-speech> 
[297.005]
ʔ o w b i t a w k a j p a ɾ a m a ʔ a p i l n a l a ŋ p o d j ʔ a m u ʔ a p o d <no-speech> p a ɾ a m a ʔ a p i l n a l a ŋ p o d 
[303.385]
<no-speech> 
[305.695]
g w a p o m a n p o d n a ʔ i ŋ o n ʔ a n a ʔ s a w s a w t a n a n m a ŋ a m a g s i l i ŋ a n a j b a 
[309.455]
<no-speech> 
[312.345]
p a ɾ a m a g k a s i n a b t a n a j m a g k a h i ʔ u s a j t a n a n 
[314.715]
<no-speech> 
[319.515]
k w a n n a p o d 
[320.255]
<no-speech> 
[321.635]
ʔ a j w a ʔ d i ʔ a j s i l a l a b o t 
[322.865]
<no-speech> 
[325.225]
m u ɾ a ʔ o g 
[325.705]
<no-speech> 
[329.255]
k a t o ŋ s ʔ u n a m u ɾ a ʔ o g <no-speech> n i ʔ u j o n m a n t u s i l a s ʔ u n a ŋ ʔ i ŋ o n ʔ a n a ʔ d a w 
[333.475]
<no-speech> 
[335.075]
ʔ i ŋ o n ʔ a n a ʔ d a w j b u h a t o n 
[336.235]
<no-speech> 
[337.145]
h a 
[337.825]
<no-speech> 
[341.415]
s ʔ u n a m a ʔ o m a n ʔ u n t a ʔ t u j p l a n o n a m o ʔ s ʔ u n a <no-speech> t a n a n ŋ m a g s i l i ŋ a n a j 
[346.425]
<no-speech> 
[349.905]
g i k a n ʔ u n t a ʔ t u s k w a n ʧ a p i l p a d u l o ŋ p a b a b a ʔ d i ɾ a ʔ s ʔ i n j o ʔ o g p a t a ʔ a s d i d t o p a d u l o ŋ ʔ i l a d o j d o j 
[355.515]
<no-speech> 
[359.785]
w a ʔ m a n ʤ u d n a d a j o n k a j j ʔ u b a n m a 
[361.455]
<no-speech> 
[362.495]
m u ɾ a ʔ o g m a t a h a ʔ p o d s i l a <no-speech> k a j w a ʔ s i l a n a ʔ a p i l s p a g ʔ i s t u ɾ j a 
[366.855]
<no-speech> 
[369.315]
m a ŋ a s a b u t s a b o t 
[370.495]
<no-speech> 
[374.345]
ʔ u m w a ʔ m a n p ɾ u b l i m a k o ʔ ŋ w a ʔ s i l a n a ʔ a p i l s s a b u t s a b o t 
[378.115]
<no-speech> 
[379.575]
w a ʔ g i h a p o n p ɾ u b l i m a k o ʔ ŋ w a ʔ s i l a n a ʔ a p i l 
[381.625]
<no-speech> 
[382.875]
ʔ a j m a ʔ o p o d w a ʔ b a j a ʔ n a s i l a n a g k a s i n a b u t a n a j 
[385.295]
<no-speech> 
[386.145]
<no-speech> 
[387.015]
<no-speech> 
[390.005]
<no-speech> 
[392.225]
<no-speech> 
[394.555]
m a ʔ o ʤ u d 
[395.225]
<no-speech> 
[397.335]
k w a n k a ʔ a j o n a s i l a d i ɾ a ʔ d i ʔ p o d s i l a m a g k a s i n a b o t 
[399.705]
<no-speech> 
[402.105]
p ɛ ɾ o ʔ o k i r a m a n g i h a p o n k o ʔ ŋ m a g ʔ a p i l s i l a 
[404.445]
<no-speech> 
[406.145]

[406.545]
<no-speech> 
[408.195]
ʔ u ʔ o k a j <no-speech> ʔ a t u ʔ a m a n p o d n a t a n a n 
[410.485]
<no-speech> 
[411.465]
ʔ a t u ʔ a m a n n a t a n a n p o d 
[412.645]
<no-speech> 
[414.185]

[414.575]
<no-speech> 
[419.095]
<laugh> ʔ o w 
[424.165]
<no-speech> 
[426.515]
ʔ o w 
[427.045]
<no-speech> 
[431.955]
ʔ u m k a j j ʔ a m u ʔ a ŋ p l a n o m a n ʤ u d 
[434.225]
<no-speech> 
[435.035]
k w a n m a n ʔ a m o ʔ ŋ p l a n o n a m o ʔ 
[436.495]
<no-speech> 
[437.305]
w a n h a n d ɾ i d p ɛ ɾ h i d m a n ʔ a m o ʔ ŋ p l a n o n a m o ʔ 
[439.495]
<no-speech> 
[441.115]
w a n h a n d ɾ i d s ʔ i s a k a t a ʔ o <no-speech> s k w a n p a l a ŋ s m a ŋ a g i p g i p <no-speech> m a ŋ a r i g a l o <no-speech> s k a ʔ o n k a n j a k a n j a n a m a n ʔ o g d a 
[451.415]
<no-speech> 
[452.355]
ʔ u n j a ʔ m a k w a n n a l a ŋ 
[453.585]
<no-speech> 
[455.145]
ʔ u m 
[455.645]
<no-speech> 
[456.955]
r i g a l o l a ŋ 
[457.905]
<no-speech> 
[459.945]
w a ʔ n a m a g k a n j a k a n j a n a l a ŋ ʔ o g d a k a j <no-speech> h a l o s j t a n a n n a ʔ a m a n m a ŋ a 
[464.605]
<no-speech> 
[465.955]
m a ŋ a g i n a g m a j p o d n a h a n d a ʔ 
[467.995]
<no-speech> 
[469.935]
k u t o b r a p o d s m a d a ʤ u d d i ʔ l a ŋ p u g s o n p o d j <foreign> b a 
[474.335]
<no-speech> 
[476.225]

[476.775]
<no-speech> 
[477.895]
<no-speech> 
[484.355]
<no-speech> 
[486.555]
w a ʔ p a <no-speech> w a ʔ n a t i k u k a p a t u k a ɾ o n 
[489.625]
<no-speech> 
[492.085]
<no-speech> 
[492.805]
<no-speech> 
[494.445]
ʔ o w m u ʔ u l i ʔ k o ʔ ʔ u n j a ʔ 
[495.575]
<no-speech> 
[496.775]
ʔ o w ʔ u n t a ʔ k o ʔ d i d t o ʔ u n j a ʔ <no-speech> k a j n a ʔ a n a m a n p o d ʔ a k o ʔ m a ŋ a m a ŋ h o d ʔ u n j a ʔ 
[501.515]
<no-speech> 
[502.395]
m u ʔ u l i ʔ m a n t u ŋ ʔ i s a 
[503.595]
<no-speech> 
[505.295]
s i ʤ ɛ s a s i ʤ ɛ s a n i ʔ a d t o p a ʔ o g k w a n k o t a b a t o 
[509.015]
<no-speech> 
[511.905]
<no-speech> 
[512.295]
<no-speech> 
[514.165]
n a ʔ a l a ŋ s i l a g i ʔ a d t o n j a j k w a n d i d t o ʔ a k o ʔ ŋ ʔ a n t i n a k o ʔ d i d t o 
[518.255]
<no-speech> 
[520.315]
k a j ʔ a k o ʔ ŋ 
[521.115]
<no-speech> 
[521.975]
ʔ o w 
[522.475]
<no-speech> 
[523.405]
n a ʔ a 
[524.245]
<no-speech> 
[525.695]
s m ɛ j p i s i h i l 
[527.175]
<no-speech> 
[530.665]
ʔ o w s i t i ʤ u d m i s m o 
[532.105]
<no-speech> 
[535.355]
ʔ u m <no-speech> m u ʔ u l i ʔ n a m a n t u ʔ u n j a ʔ k a j 
[538.995]
<no-speech> 
[540.925]
k w a n n a s i l a m a h u g ʔ o g m a ŋ a t u d i s m a ŋ a d u h a k a ʔ a d l a w <no-speech> n i l a b a j 
[546.675]
<no-speech> 
[552.015]
k w a n s i l a t u s i l a k a b u ʔ o k 
[553.695]
<no-speech> 
[562.215]
m u ɾ a ʔ o g w a ʔ p a <foreign> <no-speech> ʔ o w g i ʔ i ŋ n a n n a s i g u ɾ o ʔ a k o ʔ m a ŋ h o d ʔ i s a 
[566.875]
<no-speech> 
[569.795]
m a n p o d k o ʔ ŋ 
[571.195]
<no-speech> 
[572.155]
m a s g w a p o m a n ʤ u d k o ʔ ŋ ʔ i ŋ o n ʔ a n a ʔ k o m p l ɛ t o m i t a n a n b a k a j p a ɾ a 
[575.505]
<no-speech> 
[576.905]
m a b a d l o ŋ p o d n a m o ʔ j k w a n <no-speech> ʔ o w m a ʔ i s t u ɾ j a h a n ʤ u d n a m o ʔ ʔ o g m a j o b a 
[580.775]
<no-speech> 
[584.675]
<no-speech> 
[585.455]
<no-speech> 
[586.375]
b a d l u ŋ o n <laugh> 
[590.695]
<no-speech> 
[592.615]
<laugh> p u h o n <laugh> 
[594.705]
<no-speech> 
[595.985]
<no-speech> 
[596.645]
<no-speech> 
[598.665]
<laugh> g i p a ŋ k u t o j n a ʤ u d k a j <no-speech> p a s m o <laugh> w a ʔ n a 
[605.075]
<no-speech> 
[605.160]
