[0.000]
<no-speech> 
[4.505]
a l o 
[5.395]
<no-speech> 
[6.845]
e k ɔ m a~ u j e l a m a~ 
[8.695]
<no-speech> 
[10.735]
m p a p i m a l e s a~ t e a 
[13.485]
<no-speech> 
[16.555]
m e~ w i m e~ w i b ɔ~ b a~ m n u v ɛ l p a p a m 
[18.925]
<no-speech> 
[22.695]
<int> p ɔ~ j ɛ t j o p a f ɛ l m a l a~ k ɔ 
[25.285]
<no-speech> 
[26.575]
p ɔ~ j ɛ t j o p a p f ɛ l m a l 
[28.255]
<no-speech> 
[33.595]
m e z a~ m i o h g a d j ɔ~ n ɛ g g a d ʒ a~ n ɛ g m a~ d e o ɣ a~ 
[37.965]
<no-speech> 
[39.505]
a h a h s e s a l i d i m m e z a~ m i <hes> b a~ m b a~ m n u v ɛ l <hes> m a d a~ m d j e f ɔ m a t a~ t m w e~ <no-speech> w p a p ɣ a~ 
[46.455]
<no-speech> 
[50.395]
<int> l i t e ɣ e l e w a~ k ɔ 
[51.785]
<no-speech> 
[56.495]
o h o h m e z a~ m i l a p f ɛ l a p f ɛ b ɔ~ b a g a j 
[59.695]
<no-speech> 
[63.855]
<int> k i k i l ɛ l i t e ɣ e l e w l a m e~ m 
[65.885]
<no-speech> 
[68.055]
<int> e l i t u ʒ u a p v o j e l ɛ t b a j w w a d i l p a t v o j e a~ j e~ b a j w 
[71.175]
<no-speech> 
[74.295]
l ɛ t w t w ɔ p u l i 
[75.975]
<no-speech> 
[80.285]
p u k ɔ~ t m w e~ s a m a p f ɛ 
[82.185]
<no-speech> 
[83.595]
<int> s ɛ m a p t ɣ a v a j 
[85.375]
<no-speech> 
[88.935]
a~ a~ m e~ w i m e~ w i s ɛ m <hes> <no-speech> u p a p ɣ a~ n u v ɛ l a d l i n 
[94.565]
<no-speech> 
[96.745]
m h m <no-speech> 
[97.735]
<no-speech> 
[103.645]
s e v ɣ e k ɔ m a~ w w ɛ l m e~ m 
[105.385]
<no-speech> 
[111.105]
p a s k e <hes> g e~ j ɔ~ m u~ k i d i m l i t e w ɛ l ʒ u l i t a p t a~ n b a g a j j o <no-speech> l i d i m l i <int> l i w ɛ l p i t i w i 
[119.445]
<no-speech> 
[121.205]
m h m 
[122.155]
<no-speech> 
[129.410]
<no-speech> 
[136.665]
a~ j o t e d e s a~ n a k l ɔ t t i p i t i a u k w ɛ l i s e 
[139.955]
<no-speech> 
[147.445]
<no-speech> t a~ n m w e~ b a~ m d i w w k w e g e~ j ɔ~ b a g a j j ɔ~ s u l j e t a p b a j l i 
[151.895]
<no-speech> 
[153.235]
u k w ɛ j o t e g e~ j ɔ~ t e g e~ j ɔ~ j ɔ~ s u l j e j o t a p b a j l i p u p u t i b e b e a 
[157.085]
<no-speech> 
[158.935]
<int> t i s u l j e u t a p b a j l i p u t i b e b e a 
[161.855]
<no-speech> 
[165.305]
<laugh> p u k i <no-speech> p u k i s a u b a j 
[169.915]
<no-speech> 
[174.855]
e~ b e~ w k w ɛ m ʒ u ʒ u m m w ɛ m w ɛ f ɔ w s i s p ɛ k s i s p ɛ k 
[180.695]
<no-speech> 
[186.365]
<no-speech> 
[188.365]
<no-speech> 
[190.175]
l i t e d e v a~ k a j ɣ e n e l l a <no-speech> s e d e v a~ k a j ɣ e n e l l a l i j e l i t a p ʒ w e d o m i n o <no-speech> l i <no-speech> l i w ɛ l i s i s p ɛ k s i s p ɛ k j a p g a d e j a p f ɛ l k u d ɛ j 
[200.305]
<no-speech> 
[202.595]
u k ɔ~ n e~ u k ɔ~ n w ɛ u k ɔ~ n w ɛ l ɛ m u~ n a~ b a g a j a j <int> <no-speech> f ɔ m d e s a~ n g ɣ i f e s ɛ m p a g e~ m u~ k a p g a d e n ɔ~ 
[214.225]
p a g e~ m u~ k i s u <sta> <no-speech> p a g e~ j ɔ~ g ɣ e~ n m u~ k i w ɛ p u w t a w ɛ 
[218.875]
<no-speech> 
[220.755]
s e w ɛ p u w t a w ɛ <no-speech> p a g e~ m u~ k i t e m u~ a p p a s e w a p b a g a j k ɔ m s i w p a t w ɔ k ɔ~ n e~ <no-speech> u p a g e~ m u~ <int> u m e~ m m p a b e z e~ n d i p u j o b a j k a~ p e 
[229.265]
<no-speech> 
[233.875]
m w ɛ e l e~ n t a p d e s a~ n n a~ p w o b l ɛ m <no-speech> <laugh> m a ʃ i n n a~ v i n i l i t e g a d d ɛ j ɛ a l i w ɛ b a g a j j o d ɛ j ɛ p a s e p u l l a p g a d e p u w ɛ k i j ɛ s k i d e j ɔ a 
[245.505]
<int> p i t i m l ɔ~ ʒ e t ɛ t l i p u l k a w ɛ m v i n n ɛ t <no-speech> 
[253.345]
<no-speech> 
[255.065]
<int> a h o k e u k ɔ~ n e~ d a v i d l i j e 
[257.725]
<no-speech> 
[259.085]
s e d a v i d l i j e u k ɔ~ n s a 
[260.915]
<no-speech> 
[262.035]
<no-speech> e g z a k t e m a~ k ɔ~ n f ɛ d a v i d m e~ m w i o h o h <hes> j a p f ɛ t ɣ i p o t a ʒ <no-speech> m ɔ~ t ɣ e <int> 
[270.575]
<no-speech> 
[271.575]
a h a e~ b e~ s e s a l i j e m e~ m w i s e s a l i j e w i <no-speech> s i s e w ɛ p u w t a w ɛ ʒ a~ l ɔ t l a <no-speech> a~ w o a ʒ a~ l ɔ t l a a k b e t i a v ɛ k g a ɣ i 
[282.805]
a p p a l e <laugh> o h o h g e~ m a~ g o n a~ l a k u <breath> t ɛ l b a g a j s e s i <breath> ʃ a k ʒ i j ɛ l ɛ n u m e~ m p i t ɛ w i <int> p i t ɛ e d e w i 
[294.745]
o h <breath> l i v l e m a~ g o w i w a p p ɔ t d l o a <laugh> m a~ g o w a p p ɔ t d l o a l ɛ m p ɣ a l n a~ d l o a a~ v a~ w i g e~ d l o w i 
[305.925]
<int> l ɛ m v i n k ɔ~ n t i j o <laugh> l i m e~ m l i m e~ m m a t e~ a~ m d i l l e v e <laugh> l i p a ʒ a~ m p u l a k a j l i l a p 
[316.375]
a k w i n u v i n w ɛ v i n m a~ ʒ e w i n u m ɛ t p j e b a~ n a~ n g e~ j ɔ~ p a k ɛ t p j e b a~ n a~ n s e k ɔ~ s a l a p <no-speech> a h 
[325.665]
<no-speech> 
[326.845]
a h <no-speech> u k ɔ~ n e~ m e~ m a k p a p a l l a l i j e m e~ m b a g a j j o j e 
[330.045]
<no-speech> 
[331.685]
b a g a j <int> j o f ɔ~ s ɛ l j ɔ~ s ɛ l j o f ɛ f ɣ ɛ m m s e z i <sta> m s e z i w i f ɣ ɛ m <hes> u p a p ɣ a~ <no-speech> u p a p ɣ a~ n u v ɛ l <hes> p a ɣ e~ n m 
[343.615]
u 
[344.045]
<no-speech> 
[345.575]
p a ɣ e~ n m w e~ <sta> u p a p ɣ a~ n u v ɛ l l i 
[347.305]
<no-speech> 
[350.345]
p a ɣ e~ n m w e~ 
[351.725]
<no-speech> 
[353.305]
<hes> 
[353.945]
<no-speech> 
[358.765]
w i p a s k e l t e 
[359.855]
<no-speech> 
[361.165]
p a ɣ e~ n <no-speech> p a p a m t e d i l l i t e g e~ b a g a j p u l t e b a j l f ɛ p u l i 
[364.565]
<no-speech> 
[371.045]
<no-speech> 
[371.405]
<no-speech> 
[381.925]
a~ o h p u v o j e <hes> v o j e b a j l s i j e~ 
[384.875]
<no-speech> 
[387.155]
a~ p u~ g ɣ i j e k a f e a j i t i v o j e b a j l i l i p a d i w 
[390.605]
<no-speech> 
[395.535]
<no-speech> 
[395.895]
<no-speech> 
[396.905]
<int> k ɔ~ b j e~ k ɔ b l i t e v o j e p u g ɣ i j e k a f e a p u l i 
[400.705]
<no-speech> 
[406.275]
a~ a~ m p o k o 
[408.575]
<no-speech> 
[409.855]
m t e k w ɛ m t e k w ɛ l i t a l i t a l i t a k ɔ b j o w i f ɣ ɛ m 
[412.985]
<no-speech> 
[415.715]
a~ k u n j e a u l e v e m a t e~ a~ u m a~ ʒ e w i 
[420.405]
<no-speech> 
[423.835]
k i s a <int> 
[424.755]
<no-speech> 
[427.515]
<int> u k a m e t e 
[429.615]
<no-speech> 
[431.255]
o h d j e s w a l w e <no-speech> p a s k e m g e~ j ɔ~ <oov> g e~ j ɔ~ p a n j e s a l l a m p a k ɔ~ n s a m a p f ɛ a v ɛ l n ɔ~ m w e~ m e~ m 
[436.785]
<no-speech> 
[439.465]
<no-speech> 
[439.815]
<no-speech> 
[441.755]
g e~ d l o m e~ p a g e~ m u~ p u l a v e j o 
[443.895]
<no-speech> 
[449.255]
a h b ɔ~ m p a k ɔ~ n e~ m a p m a~ d e l 
[452.065]
<no-speech> 
[455.595]
a~ h a~ b ɔ~ 
[457.635]
<no-speech> 
[464.365]
o h m w e~ m w e~ m e~ m s ɛ k e~ n d i p a s e s a m d i l a l i m e~ p ɣ a l l a k a j l a j o t u t a p d e s a~ n k u n j e a m t e p a ɣ e p u j o m ɔ~ t e e p i m e t a p b a j l a v e p u m w e~ 
[476.005]
p a s k e m w e~ m e~ m m p a t g e~ t a~ p u m w e~ l a v e 
[478.215]
<no-speech> 
[479.555]
s a m t e d i m t a p f ɛ m w e~ m e~ m m p a k ɔ~ n e~ 
[482.045]
<no-speech> 
[483.895]
k ɔ~ s a t e j e p a s k e l i m e~ m l i m e~ m l i v i n g e~ m a ʃ i n k u n j e a 
[487.085]
<no-speech> 
[490.105]
<int> l i g e~ m a ʃ i n k u n j e p u s a l a p t ɣ a v a j 
[492.545]
<no-speech> 
[494.375]
<no-speech> 
[494.725]
<no-speech> 
[499.595]
s a u d i <no-speech> a~ 
[501.695]
<no-speech> 
[502.555]
a~ l a p p e j e k a j v ɣ e 
[505.915]
<no-speech> 
[506.825]
p e j e k a j m i l j ɔ~ v ɣ e p ɣ ɛ p u l a ʃ t e m a ʃ i n e l i m o t o s e s a 
[516.115]
<no-speech> 
[519.885]
a~ m p a l i m e n a m w e~ m e~ m 
[521.735]
<no-speech> 
[524.455]
<no-speech> 
[525.505]
<no-speech> 
[526.365]
<laugh> m p a l i m e n a s i s e p u s a m k ɔ~ n ʒ w e~ n m u~ l i m e n a ʃ e ɣ i 
[530.065]
<no-speech> 
[532.965]
a h e~ b e~ u k ɔ~ n e~ g ɣ a~ m u~ a p m a p g a d s u m a~ m a~ m <no-speech> g a d s u m a~ m a~ m a k p a p a m <laugh> w i 
[540.455]
<no-speech> 
[541.985]
w i m a p g a d s u m a~ m a~ m a k p a p a m s e k ɔ~ s a w i o h o h 
[545.255]
<no-speech> 
[546.485]
<no-speech> ɣ a d k i l a m e~ m p u k i s a s e p u j ɔ~ m u~ m a p t ɣ a v a j 
[550.415]
<no-speech> 
[556.675]
w i w i n a p u p a b e z w e~ d i s a m e~ m 
[559.425]
<no-speech> 
[562.145]
m ɔ~ ʃ ɛ o h <int> 
[563.135]
<no-speech> 
[566.065]
n ɔ~ m p a t a l e n ɔ~ m p a t a l e m p a w ɛ l l ɛ m t e s ɔ t i l a k a j w a m t e d e s a~ n l a k a j l a k i l ɛ m t a p g e~ t a~ m a~ m a~ 
[575.135]
<no-speech> 
[576.745]
m p a t a g e~ t a~ n ɔ~ 
[579.745]
<no-speech> 
[582.855]
l a v i l a~ p e~ j e~ f ɔ m p e~ j e~ 
[584.695]
<no-speech> 
[586.095]
p e~ j e~ f ɔ m p e~ j e~ 
[587.365]
<no-speech> 
[589.585]
w i t a~ m p a g a~ j e~ m p o k o g e~ a~ j e~ m p o k o k a w ɛ k a j p e j e s a k ɔ~ s a k ɔ~ s a s e ʃ a k ʒ u w a p 
[596.445]
<no-speech> 
[597.825]

[599.755]
<no-speech> 
[599.960]
