[0.000]
<no-speech> 
[6.853]
<no-speech> 
[13.705]
<no-speech> 
[14.135]
<no-speech> 
[15.345]
a l o 
[15.985]
<no-speech> 
[17.375]
e m a k i ʒ a~ w j e 
[18.605]
<no-speech> 
[19.635]
<sta> k i ʒ a~ w j e e m a m w e~ b j e~ d e p i a v a~ j ɛ m a p e s e j e ɣ e l e w <no-speech> p u m w e~ p a l e j ɔ~ b a g a j a v ɛ k u k u n j e a u k ɔ~ n k i s a m a p e k s p l i k e w l a p u w k a p a b b a~ m w e~ j ɔ~ i d e d e s a m p ɣ a l d i w l a 
[31.215]
u k ɔ~ n e~ s t e f a n j a t e n a~ s i z a k u n j e a l i d i m l i p a p ɣ e t e n a~ s i z a a a~ k ɔ l i v l e a l e n a~ <oov> e m t e g e~ t a~ p e j e j ɔ~ l a ʒ a~ d e ʒ a n a~ s i z a 
[41.875]
k u n j e l a p u m w e~ a l t u n e~ p e j e j ɔ~ l ɔ t n a~ <oov> <no-speech> k u n j e a l a m t e d i l p ɣ e f e ɣ e l f i n i n a~ s i z a l i g e~ j ɔ~ p a p j e e p i a p ɣ ɛ l a t ɣ a v ɛ s e n a~ <oov> <no-speech> d e p a p j e p a t w ɔ p k u n j e a m w ɛ s e l a ʒ a~ l a p f ɛ m d e p a~ s e 
[53.515]
s e l a ʒ a~ l a p f ɛ m d e p a~ s e p u g ɣ a~ m e s i u k ɔ~ n e~ k i ʒ a~ b a g a j j o j e b a g a j j o p a k l ɛ n u p a k ɔ~ n k i s a p u~ f ɛ n a p v i v n u p a k ɔ~ n e~ s e <foreign> ʒ u <foreign> b a g a j u k ɔ~ n e~ k i ʒ a~ t u b a g a j j o j e e p i m w e~ m e~ m 
[65.345]
u k ɔ~ n e~ t u b a g a j s a v l e d i m a p p a l e a v ɛ k u l a u k ɔ~ p ɣ a~ n s a v l e d i m ɣ e l e p u w b a~ m w e~ j ɔ~ i d e d i m k i s a p u m w e~ f ɛ ɛ s k e s e p u m w e~ a k s e p t e ɛ s k e s e p u m w e~ p a a k s e p t e u b j e~ s i p u l ʃ i t a t a p u l p ɛ d i a n e a m p a k ɔ~ n e~ k i s a p u m w e~ f ɛ t ɛ t m w e~ ʃ o m a p k ɔ~ n s i p u m w e~ m ɔ~ t e s i p u m w e~ d e s a~ n <no-speech> m p a k ɔ~ n e~ k i s a p u m w e~ f ɛ 
[83.255]
<no-speech> 
[92.910]
<no-speech> 
[102.565]
b ɔ~ s e s a m t e w ɛ t u m e~ u k ɔ~ n e~ ʒ ɛ n m u~ s a j o s e k ɔ~ s a j o j e s a j o v l e d e <foreign> ʒ u s e s a p u j o f ɛ b ɔ~ m k ɔ~ n e~ k i s a p u m w e~ f ɛ p a s k e t ɛ t m w e~ ʃ o m p a k ɔ~ n e~ k i s a p u m w e~ f ɛ 
[112.925]
m w e~ m d i w s a m w ɛ s a w s a w d i m n a~ s e s a m t e d i l m t a p f ɛ t u m e~ u k ɔ~ n e~ l i m e~ m s e p a s a l v l e s e p a s a l i d e s i d e k ɔ m s i k u n j e a l ɛ j o d i w f ɔ~ b a g a j 
[121.705]
<no-speech> 
[133.125]
e b j e~ o k e s a u d i a e l i m a p f ɛ m a p ɣ e l e l p u m w e~ d i l s a u d i a s e l i m a p f ɛ s i l p a v l e l l a ɣ e t e ʃ i t a b ɔ~ k u n j e a p i t i t a~ n u p a l e j ɔ~ l ɔ t b a g a j k ɔ m a~ w j e m e~ m 
[142.205]
<no-speech> 
[146.505]
a h m l a m p a p ɣ e g l e a~ j e~ m l a l a ʒ a p m ɔ~ t e n a p f e~ g ɣ a~ m u~ s a~ n u p a ɣ e g l e a~ j e~ k ɔ m a~ p i t i t u j e 
[153.085]
<no-speech> 
[155.185]
k i k l a s l i p ɣ a l f ɛ a n e s a l a 
[157.405]
<no-speech> 
[159.395]
o h o h 
[160.485]
<no-speech> 
[161.915]
m a~ t i m p a~ s e e t e j ɔ~ j ɔ~ m u~ k i p ɣ a l s ɛ t i f i k a b a g a j k u n j e a u p ɣ a l g e~ e l ɛ v s e g ɔ~ d ɛ e s a m t e p a~ s e w i 
[168.625]
<no-speech> 
[171.395]
u p o k o o h o h u m a~ v a~ e b j e~ a~ v a~ p u w ɣ i v e k o t e m j e a u g e~ a~ p i l k u t p a t p u f ɛ t u ʒ u 
[177.315]
<no-speech> 
[179.915]
a h n ɔ~ u p a b e z w e~ d e k u ɣ a ʒ e p a s k e s e k ɔ~ s a m t e j e t u m e~ k u n j e a m f i n i n a~ b a g a j s a j o m p a l a d a~ l a~ k ɔ 
[185.995]
<no-speech> 
[187.605]
e b j e~ k u n j e a p a l e m d e u d i m k i s a w f ɛ s a w ɣ e g l e 
[190.945]
<no-speech> 
[191.875]
a h t u m u~ t u m u~ b j e~ p i t i t a v a~ j ɛ m t e a~ s a~ m a v ɛ k l i m t e f ɛ ʒ u n e~ l a k a j l i u k ɔ~ n e~ n a l e n p a l e b a j b l a g p a l e p a w ɔ l w i b ɔ~ 
[202.485]
b ɔ~ d i m k i s a w a p f ɛ p u v a k a~ s l a~ l a m e~ m n ɔ~ 
[205.385]
<no-speech> 
[212.130]
<no-speech> 
[218.875]
<sta> p u w f ɛ j ɔ~ b ɔ~ ʃ e m e~ p i t i t m e~ t u ʒ u d e g a ʒ e w d e p o z e s e v e t u ʒ u m e~ w k ɔ~ n e~ w a p b a j j o n u d e p o z e j o n a~ b i w o m e~ n u <no-speech> w i n a p d e p o z e j o n a~ b i w o m e~ k a~ m e~ m p e t ɛ t j ɔ~ ʒ u 
[230.215]
n u p a k ɔ~ n k i s a b ɔ~ d j e a d i s i j a p ɣ a~ j o j a ɣ e l e n u n u p a k ɔ~ n e~ ʒ a~ s a u d i a e s a m a p f ɛ t u m w e~ m e~ m s i l a ʒ a p a v a~ s e f ɔ k u t ɣ a v a j m a p ʃ ɛ ʃ e t u m e~ m a p ʃ ɛ ʃ e p u m w e~ m a p ʃ ɛ ʃ e p u p i t i t m w e~ t u k o t e w w ɛ m a p p a l e a v ɛ k u l a 
[242.555]
<no-speech> 
[245.255]
<no-speech> 
[245.615]
<no-speech> 
[247.745]
w i 
[248.535]
<no-speech> 
[250.895]
w i <no-speech> w i <no-speech> w i w i s a u d i a s e s a m a p f ɛ 
[256.215]
<no-speech> 
[258.615]
w i <no-speech> w i 
[260.525]
<no-speech> 
[261.925]
<foreign> 
[262.725]
<no-speech> 
[265.065]
w i b ɔ~ k ɔ m a~ f ɣ e d l i n j e m e~ m 
[267.105]
<no-speech> 
[269.215]
l a p f ɛ w p a l e t u ʒ u 
[270.815]
<no-speech> 
[272.435]
a h e b j e~ u k ɔ~ n e~ e k ɔ~ s a b a g a j j o j e p ɣ a~ p a s j a~ s <no-speech> w i u p a b e z w e~ b a g a j a p ɣ ɛ s a k ɔ m a~ t u m u~ j e m a~ m a~ w f ɣ ɛ w s ɛ w ɛ s k e t u m u~ a~ f ɔ m 
[284.215]
k ɔ m a~ k ɔ m a~ <hes> <hes> k ɔ m a~ m a~ m a~ w j e 
[287.735]
<no-speech> 
[290.435]
m e~ <no-speech> m e z a~ m i p i t i t ɛ m <hes> w i e s a j o d i m t e g e~ j ɔ~ p w o b l ɛ m a v j ɔ~ s e s a j o d i m w i k u n j e a l a u k ɔ~ n e~ s e ʒ o d i a m u~ n a~ t e d i l p ɣ a l e k u n j e a m p a k ɔ~ n e~ s i l ɛ m ɣ i v e l a k a j m w e~ 
[301.295]
s i m p ɣ a l e ɣ e l e m u~ n a~ u b j e~ s i m p ɣ a l l a k a j l i p u m w e~ k ɔ~ n e~ k i s a k a p f ɛ b ɔ~ m p a k ɔ~ n e~ m j ɔ~ k o t e l a m k ɔ~ n k i l ɛ m a p s ɔ t i b a g a j s i m a p g e~ t a~ ɣ i v e l a b a~ k l ɛ f i n i u k ɔ~ n e~ k u n j e a t a~ a~ s e t a~ l a p l i l j e 
[312.365]
u p a k a s ɔ t i n a~ a p ɣ ɛ m i d i <foreign> l ɛ w t a f ɛ t i s ɔ t i a p u s j ɛ s o l ɛ j a h p i t i t b a g a j j o b a g a j j o d w ɔ l a~ p i l a~ p i l k u n j e a p i t i t n u p a k ɔ~ n e~ n u p a k ɔ~ n e~ <no-speech> k u n j e a l a k o t e w j e l a 
[324.115]
<no-speech> 
[329.035]
o o h o h e b j e~ b a g a j l a b ɔ~ p u u p i t i t 
[332.365]
<no-speech> 
[333.515]
o h <no-speech> o o k e o k e <no-speech> u p a a l e k i k o t e j a p f ɛ l l a a n e s a 
[339.195]
<no-speech> 
[342.185]
j o t e k ɔ~ n f ɛ l g ɣ a t i s j o p a f ɛ l g ɣ a t i s a~ k ɔ 
[344.925]
<no-speech> 
[352.435]
o h o h e b j e~ b ɔ~ p u k i s a u p a a l e l a p a g e~ l a ʒ a~ 
[355.735]
<no-speech> 
[359.705]
w i s e v ɣ e w i s i w a~ t ɣ e e p i p u w s ɔ t i <no-speech> w i <no-speech> s e v ɣ e <no-speech> w i <no-speech> e p i p u w a l s ɔ t i s a~ w p a a ʃ t e j ɔ~ g ɣ e~ n l i v l i p a p f ɛ s a~ s w a p ɣ a z 
[370.165]
k u n j e a w a p g a d e l u g e~ k u ɣ a~ l a k a j u l a 
[373.235]
<no-speech> 
[374.665]
o h o h e b j e~ m w e~ m e~ m p i t i t l a k a j m w e~ l a p a g e~ k u ɣ a~ n ɔ~ l a k a j l a m j e l a b ɔ~ p a g e~ k u ɣ a~ n ɔ~ m e~ u k ɔ~ n e~ m ʃ i t a s u g a l ɣ i a m a p 
[383.135]
<no-speech> 
[384.055]
a h l ɛ s a d ɔ m i k a g e~ t a~ n a~ ʒ e m s a k a p a b p a e~ t ɛ ɣ e s e m w e~ a p ɣ ɛ m k ɔ~ n e~ d e p i m m ɔ~ t e k a b a~ n m k u ʃ e d ɔ m i p ɣ a~ m w e~ m l a p u d e m e~ m a t e~ b a g a j b ɔ~ m p a k ɔ~ n e~ 
[394.515]
b ɔ~ p e t ɛ t m p a k ɔ~ n e~ l ɛ w w ɛ j a p b a j l i w a ɣ e l e m s i m n a~ d ɔ m i w a ɣ e v e j e m p u f ɛ m k ɔ~ n e~ m a l e v e p u m w e~ g a d e l i m e~ s a p a k ɔ~ n t ɛ l m a~ e~ t ɛ ɣ e s e m n ɔ~ b a g a j s a 
[403.115]
<no-speech> 
[406.345]
a h u k ɔ~ n e~ <no-speech> u k ɔ~ n e~ t u b a g a j f ɔ k u g e~ k ɔ b p u w a l l a d a~ l i b ɔ~ m p a g e~ k ɔ b t ɣ a~ n d o l a a~ t ɣ e m p a g e~ j e~ l <oov> t a a ʃ t e l i v p u m w e~ s ɔ t i <oov> t a a l e a k s t e f a n j a u k ɔ~ n e~ m 
[417.415]
m i k ɛ l a~ ʒ t u <oov> t a a l e a v ɛ k l i e p i l ɛ b a g a j s a l a g e p w o b l ɛ m m a ʃ i n n u p a p ʒ w e~ n m a ʃ i n p u n u m ɔ~ t e b a g a j s a v l e d i u k ɔ~ n e~ u p ɣ a l k a~ p e b ɔ l a ɣ i a p u w t a~ m a ʃ i n p j e w a p f ɛ w m a l 
[428.755]
l ɛ f i n i e m w a l a p l i <no-speech> m e z a~ m i p i t i t p u l a p l i a l b a ɣ e w a~ b a t a b a k u n j e a g w o d l o m ɔ~ t e d e v a~ a~ b a s a d l a m e~ w o t ɛ k u n j e a u p a k ɔ~ n s a p u w f ɛ u p a g e~ m u~ k o t e a p u w t a k u ɣ i 
[440.385]
p u w a l d ɔ m i b a g a j a h p a k ɛ t p w o b l ɛ m b a g a j t ɛ t ʃ a ʒ e n ɛ t p i t i t <no-speech> k u n j e a u p a a l l e g l i z a~ k ɔ 
[446.665]
<no-speech> 
[448.895]
<no-speech> 
[449.285]
<no-speech> 
[450.825]
m e~ f ɔ k u a l l e g l i z w i p i t i t p u l a p ɣ i j ɛ l e g l i z l a b ɔ~ l a p ɣ i j ɛ a b ɔ~ p u n u l a p e d e n u p u~ a l ʃ ɛ ʃ e ʃ e m e~ b ɔ~ d j e b a g a j u k ɔ~ n e~ t u b a g a j s a n p a k a ɣ e t e s a~ l a p ɣ i j ɛ o h w i 
[461.325]
g ɣ a s a d j e m t u ʒ u a l e ʒ e z i b e n i m w e~ m t u ʒ u a l e b a g a j u k ɔ~ n e~ f ɔ k u a l l a p ɣ i j ɛ p a s k e l a p ɣ i j ɛ a s e l i k a p e d e w f ɔ k u e s ɛ l ʃ e m e~ n u g e~ j e~ l i t e t ɣ a s e p u n u n u p a k a l a g e l i 
[472.645]
<no-speech> 
[474.245]
a h u k ɔ~ n e~ p i t i t 
[476.045]
<no-speech> 
[478.015]
a h p i t i t e b j e~ n u p a g e~ l ɔ t ʃ e m e~ n u p a g e~ l ɔ t ʃ e m e~ p u~ f ɛ s e s ɛ l ʃ e m e~ s a n u g e~ j e~ s e ʃ e m e~ l a p ɣ i j e p u~ ʃ ɛ ʃ e n u p a g e~ l ɔ t ʃ e m e~ p u~ f ɛ 
[485.965]
<no-speech> 
[487.225]
m a~ m a~ w t u ʒ u a p t ɣ a v a j a~ l ɛ a 
[489.035]
<no-speech> 
[491.055]
m e z a~ m i m a d a~ m s a n a~ d ʒ ɔ b s a l ɔ~ t a~ p a p a 
[493.875]
<no-speech> 
[494.835]
h e j <no-speech> l ɛ l m u ɣ i n a~ d ʒ ɔ b s a s e j ɔ~ k u w ɔ n s e j ɔ~ k u w ɔ n a~ a~ a~ n ɔ j a p b a l i 
[501.385]
<no-speech> 
[502.925]
m e z a~ m i <no-speech> k u n j e a k i ʒ u l g e~ j e~ p u l d e s a~ n 
[506.005]
<no-speech> 
[510.565]
m e z a~ m i l ɛ k ɔ~ s a f ɔ k u a l w ɛ l u k ɔ~ n s e j ɔ~ m a d a~ m k i g e~ d e f o s i w p a p a s e w ɛ l l i p ɣ a l p a l e a~ p i l l a p f a ʃ e s u u f ɔ k u p a s e w i m k ɔ~ n e~ u 
[518.085]
<no-speech> 
[519.315]
u t u ʒ u a l e 
[520.685]
<no-speech> 
[522.735]
o h o h b ɔ~ k u n j e a s i m p a s e l a k a j u l a ʒ o d i a s a m a p ʒ w e~ n 
[526.015]
<no-speech> 
[528.445]
s e v ɣ e p u w f ɛ m d e s a~ n p u g ɣ a~ m e s i <no-speech> s i t u k o t e w ɣ e t e a m a ʃ i n p a f a s i l p u m w e~ a l d e s a~ n p u g ɣ a~ m e s i <no-speech> e~ h 
[538.125]
<no-speech> 
[539.075]
m p a p d e s a~ n <no-speech> m a p ʒ w e~ n j ɔ~ b a g a j k a~ m e~ m <no-speech> s e v ɣ e 
[542.825]
<no-speech> 
[544.885]
a h <lipsmack> m p a k w ɛ m p a p k i t e l a k a j m w e~ p u m w e~ a l l a k a j u a m p a v l e p u l a p l i a l b a ɣ e m u k ɔ~ n l ɛ m s ɔ t i m p a p a~ t ɣ e <no-speech> m p ɣ a l n a~ f ɛ p i l t a~ l a k a j u n a p p ɣ a l n a~ ɣ e t e b a j b l a g p a l e a~ p i l p i l p a l e p a w ɔ l n u p a b e z w e~ a h s a p a e~ t ɛ ɣ e s e m 
[558.595]
<no-speech> 
[563.625]
o h o h <hes> m g e~ k a t p i t i t s a w g e~ l a w a p k u ɣ i a m g e~ k a t b ɔ~ e m w e~ k ɣ e l e w b ɔ~ s a w g e~ j e~ u p ɣ e s e a <no-speech> o h o h 
[570.555]
<no-speech> 
[571.465]
m e z a~ m i p i t i t s a f ɛ l ɔ~ t a~ v ɣ e w i p u v a k a~ s l a~ f ɔ k n u p ɣ e f ɔ k n u b a g a j p u~ ɔ g a n i z e j ɔ~ l a~ m ɛ p u~ k a a l k ɣ a z e j ɔ~ l a~ m ɛ p u~ k a p a l e p u~ k a b a g a j u <oov> u k ɔ~ n e~ 
[580.325]
<no-speech> 
[581.545]
m e z a~ m i l ɛ f i n i t u m g e~ j ɔ~ e~ t a~ s j ɔ~ <no-speech> m p a k ɔ~ n e~ p u m w e~ t a a l k u ɣ i s i w t e ɣ e t e p ɣ e m <foreign> n t a p l e v e n a l k u ɣ i l a f ɛ t i s p ɔ b a g a j b ɔ~ n u p a ɣ e t e p ɣ e 
[590.085]
<no-speech> 
[593.025]
m e z a~ m i p i t i t u m u p a b e z w e~ d i <no-speech> u p a b e z w e~ d i m m g e~ k ɛ k ʒ u m p a w ɛ w s a l ɛ m w ɛ w m a p w ɛ w <no-speech> m a p w ɛ w m e~ l a ʒ ɛ 
[601.435]
<no-speech> 
[602.635]
e~ h <no-speech> e p e d w o l i m e~ m ɛ s k e p e d w o g w o s i 
[605.945]
<no-speech> 
[608.285]
f ɛ w p a l e p a v l e m a~ ʒ e b a g a j l ɛ l s ɔ t i l e k ɔ l p a p p ɣ a~ l i v b a g a j t u ʒ u m e~ m b a g a j j o <no-speech> m e~ m e z a~ m i <no-speech> h e j 
[619.545]
<no-speech> 
[622.835]
