[0.000]
<no-speech> 
[1.915]
a l o 
[2.905]
<no-speech> 
[5.725]
a l o w i 
[8.715]
<no-speech> 
[10.325]
a u w ɛ m g e~ t a~ ɣ e l e w 
[12.495]
<no-speech> 
[15.055]
u w ɛ m <laugh> g e~ t a~ ɣ e l e w u m e~ m n a~ u p a g e~ t a~ ɣ e l e m 
[18.065]
<no-speech> 
[20.695]
<cough> s a m a ɣ j a ʒ k i j ɛ s <no-speech> a~ k ɔ m p a t w ɔ b ɔ~ m a ɣ j a ʒ k i j ɛ s 
[27.275]
<no-speech> 
[29.115]
a m a ɣ i j a~ ʒ 
[31.405]
<no-speech> 
[33.845]
s e v ɣ e t u b a g a j t e b j e~ p a s e <no-speech> t a~ d e w a p 
[39.195]
<no-speech> 
[40.355]
m p a b j e~ m a l a d a~ p i l 
[42.255]
<no-speech> 
[44.695]
m a l a d g w o m a l a d i m a l a d s i w w ɛ m a~ k e m u <no-speech> m a~ k e m u ɣ i 
[50.635]
<no-speech> 
[52.965]
a w ɛ p u~ t a w ɛ <foreign> n u w ɛ n u t a p a p a l e g w o b a g a j s i w w ɛ m m p i p i t i p a s e k e t l i w i n a~ k ɔ m n a~ t u k ɔ m e p a m a l a d i l e v e s u k ɔ m n ɔ~ m a l a d 
[63.085]
<no-speech> 
[64.425]
m g w o s ɛ k ɛ ɣ l a~ d i w i m g w o s ɛ k ɛ ɣ l a~ d i n ɔ~ m p a b w ɛ b a g a j s a j o u k ɔ~ n e~ m p a n a~ b a g a j s a j o m t a p d i w 
[74.735]
<no-speech> 
[76.925]
m a l a d m a l a d k i f ɛ m v i n ʒ a~ m j e a 
[79.545]
<no-speech> 
[81.675]
e <sta> 
[83.615]
<no-speech> 
[85.885]
t ɛ t k i s a 
[87.105]
<no-speech> 
[89.535]
t ɛ t k i s a 
[92.165]
<no-speech> 
[95.605]
a m p a a l n a~ b a g a j s a m e~ m s i u w ɛ m ʒ a~ m j e l a m p a b a t k ɔ m n a~ m t ɣ ɛ p ɣ i d a~ n a~ s a~ s s a j o k u n j e a s i w w ɛ m g w o s ɛ k ɛ ɣ l a~ d i a d a~ s i w w ɛ m 
[107.255]
e p i p ɣ e m j e ʒ u m s o t i <no-speech> p ɣ e m j e ʒ u m s o t i a~ j ɔ~ a p ɛ l m t a l f ɛ e p i s e w ɔ m t u f ɛ e p i m t u h w e~ n a d a m s i s i w w ɛ m p a k a k a~ p e m p a t k a <oov> 
[119.185]
<oov> s j e m f ɛ d i z w i ʒ u p a ʒ a~ m m a~ ʒ e <no-speech> m p a k ɔ~ n s a k a ɣ e l e m a~ ʒ e s ɛ l m a~ s ɛ l d l o m a p b w ɛ 
[126.065]
<no-speech> 
[127.085]
k ɔ~ s a m ɣ e t e ɛ m 
[128.945]
<no-speech> 
[131.445]
j ɔ~ f j ɛ v <no-speech> m g e~ j e~ e p i j ɔ~ t ɛ f ɛ m a l p a ʒ a~ m p a s e e p i d ɛ k u m a p k a s e k ɔ~ s a 
[139.575]
<no-speech> 
[144.225]
w i s e ɣ e j o e p a l i k t e d i m s a n ɔ~ s e j ɔ~ m u~ k i t e d i m s a e p i l ɛ m v i n w ɛ j o e p i j o k a l e e p i j o d i m m p a k a m u ɣ i e p i m d i s e v ɣ e m e~ m k e 
[155.465]
p i m a l ʒ a~ w a~ w e a a~ p a p a m t e g e~ t a~ m a l a d b j e~ m a l d e p i a v a~ a p a p u d a t m w e~ m a l a d w i s i w w ɛ m w i m g e~ j e~ m e~ m t e l e f ɔ n n a~ m p a g e~ t e l e f ɔ n 
[167.205]
s e j ɔ~ l ɛ m g e~ j ɔ~ v j e b w a m w e~ m e t e s i m l a~ l ɛ f i n i t u m p ɣ ɛ s k e p a i t i l i z e l a m p a g e~ m p a k a m e t e l k a t a~ j e~ m p a k a f ɛ a~ j e~ 
[176.745]
<no-speech> 
[179.385]
k ɔ m a~ e z a j i <int> n ɔ~ m t a~ d e w d i m k u p u d i j ɔ~ m u~ k ɔ~ s a o u ɣ e l e m t e l e f ɔ n m w ɛ s e u u m p a 
[190.925]
o m a p d i k i j ɛ s s a n a n i 
[193.385]
<no-speech> 
[196.525]
a~ u k ɔ~ n <no-speech> u ɣ e l e m p u m w e~ t e w ɛ s e u e p i p u m w e~ t e ɣ a k w o ʃ e 
[201.945]
<no-speech> 
[202.745]
<no-speech> 
[203.215]
<no-speech> 
[204.355]
u <int> u k ɔ~ n e~ m p a g e~ t a~ p e ɣ a m a~ s a u k ɔ~ n e~ 
[210.645]
<no-speech> 
[213.485]
e p a b ɔ~ u ɣ e l e m m a p d i k i j ɛ s s a u k ɔ~ n e~ m p a g e~ t a~ p e ɣ a m a~ s a l ɛ f i n i t u k i s a u t a <foreign> f ɛ k i s a w t a f ɛ m p u w t e k a ɣ e l e m <no-speech> p a 
[225.045]
n ɔ~ k i ʒ a~ w f ɛ k a f ɛ m m e~ m m e~ m m e~ m m e z a~ m i p u ʒ a~ t u m u~ k ɔ~ n e~ s e m w e~ m e~ m m w e~ t e k a d i s e p l i s k e j ɔ~ s ɛ p u m w e~ n i u n i m a ɣ a w l a~ t u w i s e s a w a 
[236.725]
k i m w e~ m e~ m u k ɔ~ n e~ m p a n a~ m u~ t ɣ ɛ t i p o k ɣ i t s a m a p d i w l a s e l i m a p d i w u k ɔ~ n e~ k ɔ m a~ m j e 
[241.175]
<no-speech> 
[242.075]
u k ɔ~ n e~ m 
[243.035]
<no-speech> 
[244.195]
o u k ɔ~ n e~ k ɔ m a~ m j e s a m a p p a l e m a p d i m a p d i d ɛ j ɛ d o w k u n j e a p u w t a k a ɣ e l e m n a~ t e l e f ɔ n <int> 
[251.725]
<no-speech> 
[253.695]
<int> a~ 
[255.155]
<no-speech> 
[256.275]
<int> n u p a <foreign> n ɔ~ 
[259.225]
<no-speech> 
[260.905]
n ɔ~ m p a <foreign> n u l a a k d e v e~ n 
[264.195]
<no-speech> 
[266.175]
w i l f ɛ j ɔ~ t i g a s ɔ~ 
[268.325]
<no-speech> 
[271.085]
<int> a~ <int> 
[274.215]
<no-speech> 
[276.185]
n ɔ~ m p a p o k i p e w u p a ɣ e l e j ɔ~ m u~ l a k a j m w e~ u p a ɣ e l e w a d i s e s e t e b u t z a~ m i w u t e b a j 
[282.835]
<no-speech> 
[283.935]
s i w t e b a j p l i s e~ p ɔ t a~ s p a s e m u p a ʒ a~ m ɣ e l e m u p a m a~ d e ʃ ɛ ʃ e f ɔ~ t ʃ e k e m a~ m a~ m a p m a~ d e <no-speech> m a~ m a~ m a p d i o s i m p a p a l e a v ɛ w s a m g e~ b a g a j s i e 
[294.175]
<no-speech> 
[296.955]
b ɔ~ v a~ t a~ d e n a n i k ɔ m a z a j i e a v a~ t u <no-speech> t a u p o a w ɛ s e j ɔ~ m u~ m a l a d m j e 
[304.645]
<no-speech> 
[308.295]
e z a j i p o k o a~ t ɣ e 
[310.635]
<no-speech> 
[312.855]
l i p a b ɔ k o t e w <no-speech> <sta> a~ m e z a~ m i w a s a l j e l p u m w e~ m p a k ɔ~ n s a m t e k a d i l m e~ m 
[319.585]
<no-speech> 
[321.075]
d i l e p a b l i j e m b l i j e l n ɔ~ m e~ m p a g e~ t e l e f ɔ n e m a l a d g ɣ a v s e k u n j e a m a p f ɛ j ɔ~ t i <no-speech> n ɔ~ 
[331.265]
s i w w ɛ m s e t a~ k u s e k ɛ l a~ d i v ɣ ɛ m a~ g w o s ɛ a k ɛ l a~ d i w i <no-speech> b ɔ~ d j e t a~ d e m u w ɛ m p a k a b a w m a~ t i <int> m p a ʒ a~ m s ɔ t i d e j ɔ n ɔ~ a u k ɔ~ n s e m a~ t i 
[342.565]
<int> n ɔ~ k ɔ m a~ m a p f ɛ a l e b ɔ~ m a l a d p u m a j l e k ɔ l 
[346.775]
<no-speech> 
[349.425]
<int> a~ 
[350.795]
<no-speech> 
[352.525]
b ɔ~ s e k u n j e a b ɔ~ m d i w ɛ m m j e <no-speech> m a p f ɛ e f ɔ m a p <foreign> u m w e~ s 
[360.585]
<no-speech> 
[362.165]
t ɛ t l a p a s e m e~ f j ɛ v l a t a~ k u l ɛ l a~ t ɣ e s u m w e~ l i l i l i s e k w e m <no-speech> l i s e k w e m l i s u k e m <cough> ɔ~ l ɛ m ʃ o ɔ~ l ɛ m f ɣ ɛ t <int> 
[371.915]
<no-speech> 
[374.335]
n ɔ~ e p a b a g a j s a e p a e p a ɣ e f w a d i s m a~ 
[379.355]
<no-speech> 
[381.475]
<no-speech> 
[382.255]
<no-speech> 
[383.575]
e m e~ k ɔ m a~ k a w ɛ <foreign> g w o ɣ a d l i s u a p ɣ e s a l ɛ m k a f ɛ d e z ɛ d t a~ t w a z ɛ d t a~ m ɣ e t e m s a~ t i ʃ a f ɣ e d i a p ɣ e s a ɔ~ a p ɣ e i n ɛ d t a~ ɛ m ɣ e 
[395.465]
t i ɣ e ɣ a d s u m w e~ s ɛ l a k k i l ɔ t m ɣ e t e t ɛ l m a~ m ʃ o 
[398.185]
<no-speech> 
[399.335]
<int> u t a~ d e e p i t ɛ t m w e~ f ɛ m m a l s a~ ɣ e t e s i t u k u n j a m p a d i w k u n j a m s a~ t i m j e m s a~ t i m k u n j e a h l a m w ɛ f j ɛ v l a p a p ɣ a~ m 
[410.335]
f j ɛ v l a p a p ɣ a~ m e p i t ɛ t m w e~ p a f ɛ m m a l m p l i z u m w e~ s i w w ɛ m p a ɣ a p ɔ d e ʒ a~ m t e j e m e~ m m u~ k a t j e a a p d i m o u k ɔ m a~ s e <foreign> n ɔ m a l 
[422.165]
m e~ j o d i m u p a ɣ e p a e~ k j e t e m d e g w o s ɛ a~ b a g a j <no-speech> j o d i f a~ m s e k a ʒ u p a e 
[428.605]
<no-speech> 
[429.805]
w i f a~ m s e k a ʒ u p a d e ʒ a~ m l ɛ d b a g a j f a~ m s e k a ʒ u j o p a m a l p u ɣ e p a ɣ e m a g e~ t a~ ɣ e p ɣ a~ n m w e~ ɛ m 
[440.155]
m e~ m n a~ l a ɣ i m p a s ɔ t i k ɔ m m p a s ɔ t i 
[449.215]
<no-speech> 
[450.655]
a s i w w ɛ p i t i t 
[452.275]
<no-speech> 
[453.615]
v j e b a g a j 
[454.945]
<no-speech> 
[455.945]
m t a~ d e j o m a~ ʒ e p a p a k ɛ t n a~ n d i d a~ g ɣ i j e~ 
[458.935]
<no-speech> 
[463.195]
j o d i m m i t i m u~ j o p a l e m j o d i m s e l e s t e~ s e t e j ɔ~ p ɔ b 
[467.715]
<no-speech> 
[468.885]
j o p a l e m j o t e p a l e m <no-speech> k ɛ l a~ d i p a l e m 
[473.115]
<no-speech> 
[475.025]
j o p a l e m j o t e d i m <no-speech> e m t a~ d e u b ɛ l w a p g w o w a p p i b ɛ l w a p p i g w o k ɔ m a~ t i m e s j e u j o j e t i m e s j e m n a~ e p a t i m e s j e u n ɔ~ j ɔ~ <foreign> w i 
[486.905]
<no-speech> 
[487.835]
<no-speech> 
[489.385]
u k ɔ~ n k i j ɛ s w i 
[490.795]
<no-speech> 
[492.155]
k i s a z 
[493.065]
<no-speech> 
[495.125]
l i t u ʒ u k o l a b o ɣ e w i 
[497.195]
<no-speech> 
[498.695]
m w e~ a v ɛ l n u t u ʒ u <hes> p i s e ɣ e w i 
[501.395]
<no-speech> 
[502.945]
n ɔ~ m p a o k i p e w 
[504.975]
<no-speech> 
[508.715]
w i w o m a ʒ ɣ e l e m w i 
[510.735]
<no-speech> 
[512.945]
<int> s u n i m e w o m n a~ 
[515.945]
<no-speech> 
[517.235]
a~ s a v l e d i u k ɣ a z e k i t e s a 
[522.875]
<no-speech> 
[523.725]
<int> m a g e~ j e~ 
[527.615]
<no-speech> 
[529.095]
u k k ɣ a z e k i <int> n ɔ~ 
[534.175]
<no-speech> 
[535.005]
<int> m k ɔ~ n e~ w p a k a p a l e <no-speech> m e z a~ m i m a p d i 
[541.135]
<no-speech> 
[542.485]
e~ b e~ o k e d a k ɔ ʃ e ɣ i <no-speech> j o k ɔ~ n e k i <int> w a z 
[546.755]
<no-speech> 
[548.935]
<no-speech> 
[549.900]
