[0.000]
<no-speech> 
[2.745]
a l o 
[3.565]
<no-speech> 
[5.315]
t i k u z i n 
[6.125]
<no-speech> 
[7.385]
<sta> k i ʒ a~ u j e l a a 
[9.155]
<no-speech> 
[11.295]
a u l a g e m m p a ʒ a~ m t a~ d e w m p a p ɣ a~ n u v ɛ l u m a p ɣ e l e w s u n a t k o m <sta> n a~ m p a ʒ a~ m ʒ w e~ n u 
[16.935]
<no-speech> 
[18.125]
<no-speech> 
[18.505]
<no-speech> 
[20.555]
<no-speech> 
[21.015]
<no-speech> 
[21.825]
m e~ n a t k o m n a~ a~ f ɔ m k u n j e a 
[23.715]
<no-speech> 
[24.895]
<no-speech> 
[25.255]
<no-speech> 
[27.115]
<no-speech> 
[27.715]
<no-speech> 
[31.575]
<sta> o h 
[32.455]
<no-speech> 
[35.915]
a~ u ʒ w e~ n d e g a ʒ e a~ w o a 
[37.805]
<no-speech> 
[40.715]
<no-speech> 
[41.075]
<no-speech> 
[43.285]
k i s a t ɛ t f ɛ m a l 
[44.505]
<no-speech> 
[46.145]
<int> k i s a u d i u g e~ j e~ t ɛ t f ɛ m a l 
[47.655]
<no-speech> 
[51.485]
<int> a~ h a~ 
[52.125]
<no-speech> 
[54.885]
<hes> m p a t a~ d e n ɔ~ 
[55.895]
<no-speech> 
[56.965]
<no-speech> 
[57.915]
<no-speech> 
[58.975]
a~ e~ b e~ o k e m k ɔ~ p ɣ a~ n u p ɣ a~ n u v ɛ l u p a d e s a~ n a~ b a a m e~ m k ɔ m a~ u w ɛ m a ɣ i ʒ o 
[64.385]
<no-speech> 
[66.975]
<hes> k ɔ m a~ <int> e d i t j e 
[68.905]
<no-speech> 
[69.765]
<no-speech> 
[70.405]
<no-speech> 
[72.975]
k a j k i j ɛ s k i t e m a l a d l a e d i t 
[74.515]
<no-speech> 
[76.565]
w i <hes> k ɔ m a~ e s a f l a t d i m a v a~ j ɛ l i d i m k ɔ~ s a t u t u g e~ l ɛ m t a~ d e t e g ɔ~ m u~ k i t e d i l v i n o k a j p a~ d a~ l v i n o k a j l a m t a~ d e j o g e~ l ɛ p a s e m e~ s u l i 
[87.945]
<no-speech> 
[91.095]
<int> m e~ k i ʒ a~ l j e k u n j e a 
[92.685]
<no-speech> 
[96.745]
p a s k e <no-speech> <sta> p a s k e l i d i m k ɔ~ s a l i a l e <hes> n a~ ʒ ɛ n <hes> j o a l a v ɛ l j o f ɛ t u b a g a j p u l i l a p f ɛ t i e f ɔ k u n j e a 
[105.105]
<no-speech> 
[107.975]
<no-speech> 
[108.385]
<no-speech> 
[113.205]
e s a j o d i m j o d i m <hes> e s a m e s j e ʃ ɛ f l a d i m l i d i m l i p a s e m e~ s u l i 
[117.825]
<no-speech> 
[119.195]
<int> t i k u z e~ k u n j e a l a a l i t u n e~ ɔ~ t i b e b e 
[122.785]
<no-speech> 
[126.705]
a~ 
[127.335]
<no-speech> 
[129.785]
o h o h l t u n e~ ɔ~ t i b e b e t i k u z e~ k u n j e a o h o h t u ʒ u n e~ l a a f ɔ l a p ɣ e l e m l a p m a~ d e m <hes> s i s ɔ t i s i m s ɔ t i a k k i j ɛ s m s ɔ t i s a m a l f ɛ 
[141.285]
<no-speech> 
[142.465]
b a g a j <sta> u k ɔ~ n e~ m w e~ m e~ m m p a t o l e ɣ e a~ 
[144.585]
<no-speech> 
[145.945]
<sta> s i l i t a k ɔ m s i l a s i l t a u w ɛ ʒ a~ m t e d i w k ɔ m s i m a p b a g a j l a k u n j e a l d i o h m e~ m ɣ e l e u p a p ɣ e l e m u~ a~ k ɔ l ɔ~ t a~ u t e k ɔ~ n t u ʒ u n e~ u t a p ɣ e l e m u~ k u n j e a m d i n ɔ~ m p a k a ɣ e l e w p a s k e l ɛ m ɣ e l e w 
[157.755]
l i d i m k ɔ~ s a <hes> m d i s ɔ~ ʒ e l ɔ w l ɛ m t e ɣ e l e w l a u t e d i u p ɣ a l m e t e a~ m ɛ d e z p u m w e~ s u t e l e f ɔ n u a~ ʃ a k f w a u w ɛ n ɔ~ m m ɔ~ t e ʃ a k f w a u w ɛ a~ m ɛ d e z m ɔ~ t e w a p t u f ɛ m e~ t e l e f ɔ n n a~ p u m w e~ p a 
[169.505]
<no-speech> 
[170.075]
<no-speech> 
[171.725]
k u n j e a m d i u p a k a d i k ɔ~ s a <hes> m p a ɣ e l e w m d i s a p u m w e~ f ɛ w b ɔ~ l ɛ m ɣ e l e w s e a~ m ɛ g d e m a~ m ɛ d e w e p a v ɣ e 
[177.615]
<no-speech> 
[178.995]
l ɛ m ɣ e l e w m a~ m ɛ d e w m p a g e~ ɣ e z ɔ~ p u m a p ɣ e l e w <sta> 
[182.055]
<no-speech> 
[183.545]
<sta> a~ 
[185.335]
<no-speech> 
[186.485]
<sta> o h o h m f ɛ k ɔ m s i m p a k ɔ~ p ɣ a~ n a~ j e~ a v a~ j ɛ p a~ d a~ l i t e l i t a l p ɔ t o p ɣ e~ s m p a k ɔ~ n s i s e v ɣ e a k s i s e p a v ɣ e l i d i m l i t a l p ɔ t o p ɣ e~ s 
[195.015]
<no-speech> 
[196.285]
<no-speech> 
[197.765]
<no-speech> 
[199.855]
l i p a t l i p a t ɣ e t e t u n ɔ~ l i a l l a l m a t e~ l t u n e~ a p ɣ ɛ m i d i 
[203.805]
<no-speech> 
[205.585]
e s a 
[206.225]
<no-speech> 
[207.635]
<int> a~ 
[208.215]
<no-speech> 
[213.065]
a~ 
[213.675]
<no-speech> 
[214.935]
<sta> a~ o k e u t e p a l e a v ɛ l m a t e~ a~ 
[217.435]
<no-speech> 
[219.195]
k u n j e a p a~ d a~ l a l p ɔ t o p ɣ e~ s l a~ m t e b e z w e~ s ɛ k e l i t a p ɣ a l e n a~ l i t e a l e p u l t e a l e n a~ a~ t ɛ m a~ d e p i t e a 
[226.365]
<no-speech> 
[227.755]
<sta> k u n j e a l a m e~ m a~ t ɛ m a~ g e~ l ɛ g e~ t a~ f ɛ t l i p a g e~ e p a g e~ t a~ f ɛ t n ɔ~ l i g e~ l ɛ t e v i n g e~ l ɔ t e~ k ɔ~ v e~ j a~ l i g e~ l ɛ p a t a l e l i p a t g e~ t a~ ɣ i v e p u a~ t ɛ m a~ k u n j e a l g e~ l ɛ t e g e~ b a g a j p o l i t i k l i l i g e~ l ɛ t e t u a p ɣ e 
[239.535]
<oov> <sta> b a g a j p o l i t i k l i k u n j e a p a~ d a~ l p ɔ t o p ɣ e~ s o h o h 
[243.505]
<no-speech> 
[244.435]
l i p a ʒ a~ m ɣ e l e m m p a ʒ a~ m ɣ e l e l t u <hes> e p a p a ʒ a~ m ɣ e l e n ɔ~ p a~ d a~ l p ɔ t o p ɣ e~ s a v a~ j ɛ l a~ l a p p l e d e ɣ e l e m a~ v a~ v i ɣ e <no-speech> <sta> k o t e m j e l a a s a w a p f ɛ <hes> b a~ m w ɛ ʒ o d i a~ k i 
[256.415]
<sta> ʒ o d i a~ ʒ e d i n a~ m ɛ k ɣ e m ɛ k ɣ e d i a~ l e a l e j ɛ m ɛ k ɣ e d i m a d i l e~ d i l e d i m l i p ɣ a l e n a~ l e~ d i <no-speech> k u n j e a m e~ m l ɛ l ɣ e l e l d i o h k o 
[267.905]
<oov> j e l a <sta> m d i o h m l a k a j l a m d i u t a l p ɔ t o p ɣ e~ s l a l i d i m w i m t a l e w i s e m e~ m n a~ l e~ d i a~ t u l a p d i m m e~ s a k i ɣ i v e t i t u t u k u n j e a m a~ d e m d i l k ɔ m a~ l w ɛ t i t u t u k u n j e a l d i m k ɔ~ s a l i p a t 
[279.785]
k o w ɛ l t i t u t u s e a k z ɛ a p ɣ ɛ ɔ~ l ɔ t a p ɣ ɛ ɔ~ d i m i n i t k ɔ~ s a <foreign> t ɣ a~ t m i n i t 
[285.375]
<no-speech> 
[286.425]
t e l e f ɔ n m w e~ s ɔ~ n e~ <oov> o h k o t e m j e l a a <sta> m d i m l a k a j l a o s ɔ t d e j ɔ m p a l e w k u n j e a l ɛ m s ɔ t d e j ɔ a m w ɛ l k a~ l p a k i n m a ʃ i n n i m d i o h m t e k w ɛ u t e u d i w a l p ɔ t o p ɣ e~ s 
[296.015]
<no-speech> 
[297.315]
<sta> b ɔ~ w a l p ɔ t o p ɣ e~ s k u n j e a w a p d i m <hes> k u n j e a s a w a p f ɛ l a a l i d i m a~ s e k ɔ~ s a m a p k e~ b e w w i m d i w a p k e~ b e m n a~ k i s a m n a~ v ɔ l ɛ 
[303.725]
<no-speech> 
[306.085]
k u n j e a m e~ m <sta> k u n j e a l i d i m e l ɛ s a a l k ɔ m a~ s e a p t ɔ~ b e l i p a b j e~ a k f i j a~ s n ɔ~ 
[311.065]
<no-speech> 
[314.205]
a~ 
[314.805]
<no-speech> 
[316.795]
o h <sta> d e p i l ɛ w t e <hes> d e p i l ɛ w t e l a a 
[320.005]
<no-speech> 
[321.285]
a~ 
[321.825]
<no-speech> 
[323.615]
<int> o h o h s a s e j ɔ~ d j ɛ l k i f ɛ t a v a~ j ɛ l a a l i m a~ d e f i j a~ s k a j l i 
[326.775]
<no-speech> 
[328.675]
<sta> l i d i f i j a~ s k ɔ~ s a l i b a l m w a d m w a d m w a d ʒ e~ m w a d m w a d ʒ e~ a~ p u f i j a~ s b a l k a j l i <no-speech> k u n j e a o h k i k i p a w ɔ l u k ɔ~ n e~ l b a~ m w e~ m w e~ m e~ m 
[338.715]
<no-speech> 
[339.665]
<sta> o h u k ɔ~ n e~ k e u s e j ɔ~ f i n a~ t u f i m j o s e u m e~ m m w e~ p l i s b e z w e~ ɣ e~ m e~ b a g a j o h 
[348.585]
<no-speech> 
[349.405]
k u n j e a l i d i o <sta> s i l t e p l ɛ b a~ m ɔ~ t i t a~ b a~ m j ɔ~ m w a e~ h e~ b a~ m ɔ~ t i t a~ b a~ m j ɔ~ m w a k ɔ~ s a j o p u m w e~ k a p u m w e~ k a m e t e l ɔ d n a~ p u m w e~ k a m e t e l ɔ d s a k n a~ l ɔ d p u m w e~ k a m e 
[361.145]
t e l ɔ d p a s k e <sta> a~ 
[364.065]
<no-speech> 
[365.525]
<sta> p u l k a m e t e l ɔ d p a s k e l b e z w e~ l i b e z w e~ 
[370.055]
<no-speech> 
[371.525]
<sta> l i b e z w e~ l i b e z w e~ m e t e l ɔ d p a s k e <hes> s e a v ɛ m p u l f ɛ v i l s e s e s i s e s e l a m d i o h o h m d i k i b u t p a w ɔ l s a w a p b a~ m w e~ l a a p i t i t u k ɔ~ n e~ m e~ m s a w 
[383.455]
d i m n a~ s e s a u p ɣ a l d i l ɔ t m e d a m j o t u <no-speech> k u j e a l d i m n ɔ~ p a <sta> p a~ s e l k ɔ~ s a m s ɔ~ k a e k s e p s j o n ɛ l m d i s a k f ɛ m e k s e p s j o n ɛ l l a m e~ m l i d i m n ɔ~ p a p a~ s e l k ɔ~ s a u s ɔ~ f i s e s i u s ɔ~ f i 
[394.965]
<sta> s e l a p a t a t i p a t a t a o e s ɛ l u m e~ m m w ɛ m k a v i v m d i e v ɣ ɛ m d i m e~ m p a t e s p e ɣ e m p a t p a~ s e s a n ɔ~ m d i d a j ɛ m d i k u n j e a m d i e ʃ ɛ l i s a w p ɣ a l f ɛ a k ʃ ɛ l i 
[405.745]
<no-speech> 
[406.625]
<sta> l i d i m o h o h t a l ɛ k ɔ~ s a m p a p <no-speech> o t a l ɛ k ɔ~ s a u p a p t a~ d e p a l e d e m u~ k ɔ~ s a j o m e~ m u p ɣ a l g e~ n ɛ g u p u k ɔ w m d i k i j ɛ s u m e~ m 
[416.595]
<no-speech> 
[418.045]
<int> a~ 
[419.125]
<no-speech> 
[422.725]
a p ɣ e s a m a p a l e w p u m w e~ p u m w e~ b a w e k s p l i k a s j ɔ~ m a p p a l e w b a g a j s e ɣ j e u m e~ m u l a w a p p o z e m k e s j ɔ~ s i s e t e l e f ɔ n k ɔ~ p a j i u t a~ d e <no-speech> k u n j e a m d i k u n j e a m e~ m <laugh> m a p b a w b ɔ~ z e~ u m e~ m w a p p a l e 
[434.335]
k u n j e a m d i u <no-speech> m d i u m e~ m k i p ɣ a l ʃ a~ ʒ e 
[438.705]
<no-speech> 
[441.005]
a~ 
[441.595]
<no-speech> 
[443.555]
<sta> d i m i n i t m t e d i w b a~ m d i m i n i t n a~ t a~ w s e d i m i n i t l a~ m b e z w e~ p u m w e~ a~ ɣ e ʒ i s t ɣ e ɔ~ b a g a j d i m i n i t l a m b e z w e~ p u m w e~ a~ ɣ e ʒ i s t ɣ e a p ɣ e s a m w e~ m e~ m p u ɛ m m a p ɣ e <hes> p i t a m a p ɣ e l e w p u m w e~ b a w e k s p l i k a s j ɔ~ s a m a p d i w l a s a m a p f ɛ a 
[454.395]
<no-speech> 
[455.945]
<sta> <laugh> w i k u n j e a l a a m d i k i j ɛ s s a u m e~ m k i p ɣ a l ʃ a~ ʒ e m d i f ɔ w t a m u ɣ i p u l e v e p u t a ʃ a~ ʒ e e p a u m e~ m 
[465.725]
<no-speech> 
[466.525]
p a s k e m u~ t a~ k u w m u~ m d i u m e~ m s ɔ~ k a p ɛ d i u j e <no-speech> k u n j e a l d i m n ɔ~ <no-speech> a~ 
[473.055]
<no-speech> 
[476.455]
k i s a l j e l a a 
[477.395]
<no-speech> 
[479.415]
<sta> s a k n a~ m e~ m n a~ 
[481.345]
<no-speech> 
[483.145]
<sta> m w e~ k a p k ɔ~ d w i l 
[485.245]
<no-speech> 
[487.145]
n ɔ~ w i e m w e~ k a p g u v ɛ n e l p a s k e <sta> l ɛ l l a t a~ p a l l a l t a p k ɔ~ d ɥi l l a l i p a s e k u n j e a <hes> k ɔ m a~ j o k ɔ~ n d i b a g a j l a k ɔ n n a~ n a~ m e~ m k u n j e a 
[497.765]
<no-speech> 
[498.925]
<sta> e~ h e~ o h p a~ d a~ l a p s ɔ t p ɔ t o p ɣ e~ s l a~ <hes> j ɛ l a a a v a~ j ɛ l a a l ɣ e l e m o m a p v i n i w i m a p v i n i ʃ e ɣ i o h o h s i l t e p l ɛ f ɔ w k a v i n f ɔ w v i n l a k a j l a w i m d i s a m a p v i n f ɛ l a k a j u 
[510.375]
<sta> m d i k i j ɛ s s a s a m a p v i n f ɛ l a k a j u m d i k ɔ~ s a s e p a s k e u m e~ m m e~ m u b e z w e~ t a~ p u ɣ e f l e ʃ i m d i e~ b e~ m b a w t a~ p u ɣ e f l e ʃ i u u d i k ɔ~ s a o b a w b a w t a~ w b a w t i t a~ p u ɣ e f l e ʃ i m d i 
[522.315]
m p a v l e m d i m p a v l e m p a v l e <sta> <no-speech> m w e~ v l e ɣ e s p e k t e d e s i z j ɔ~ w m p a v l e p u f ɛ j ɔ~ b a g a j a p ɣ e s a p u d i s e m w e~ k i t e <foreign> m a ʃ e p ɣ e s e n a~ k ɔ w m b a w t a~ p u ɣ e f l e ʃ i s i w p a w ɛ m 
[533.505]
<sta> m d i l ɛ w p a w ɛ m n u p a p a l e l a p a~ k ɔ m j e p u k a p u k a p u k a b j e~ k ɔ~ n s a w a p f ɛ p u <no-speech> p u t ɛ t p u p a d i k ɔ~ s a <hes> s e m w e~ m e~ m k i t e d i w s e s i 
[545.455]
<sta> s e m w e~ m e~ m k i t e d i s e l a s e m w e~ m e~ m k i t a p f ɛ s e s i s e m w e~ m e~ m k i t a p f ɛ s e l a k i p a t k a t a~ n m d i m b a w <hes> <foreign> <foreign> f o u m ɛ t p ɣ a~ a~ a~ s i m k a s i m t a p a g e~ t a~ ʒ w e~ n ɔ~ n ɛ g p a~ d a~ a~ a~ a~ u b j e~ m w a u b a~ m w e~ a~ m w a m b a u a s i 
[557.185]
m p a g e~ t a~ ʒ w e~ n ɔ~ n ɛ g 
[558.285]
<no-speech> 
[559.295]
a k ɔ~ t i n j e s i m g e~ t a~ ʒ w e~ n ɔ~ n ɛ g m d i b ɔ~ w e ʃ w e n ɛ t <sta> k u n j e a l d i o h k i b a g a j s a w a p d i l a a m d i k i b a g a j m a p d i m d i k o t s a u p a k ɔ~ p ɣ a~ n l a a 
[568.855]
<no-speech> 
[571.065]
<sta> s a w k ɔ~ n e~ k t e p l i s b a g a j a~ 
[573.045]
<no-speech> 
[573.975]
<no-speech> 
[574.325]
<no-speech> 
[575.515]
<no-speech> 
[576.095]
<no-speech> 
[578.065]
<sta> m p a t a~ d e 
[580.095]
<no-speech> 
[581.805]
<no-speech> 
[582.785]
<no-speech> 
[584.005]
a~ b e~ p a l e n ɔ~ b a~ m p a l e n ɔ~ k u n j e a b a~ m t a~ d e w <int> 
[586.955]
<no-speech> 
[589.305]
<no-speech> 
[590.155]
<no-speech> 
[591.825]
a k u n j e a l a a <hes> k u n j e a l a k i k i s a l p ɣ a l f ɛ j ɔ~ 
[595.375]
<no-speech> 
[596.175]
o n ɔ~ k a j l a s e k a j u l j e m d i k i k a j 
[599.915]
<no-speech> 
[599.960]
