[0.000]
<int> k i s a 
[0.825]
<no-speech> 
[1.855]
<no-speech> 
[2.685]
<no-speech> 
[5.225]
<sta> a e~ b e~ s e g a s p j e 
[7.665]
<no-speech> 
[10.695]

[11.295]
s i l a a s a l a p f ɛ k ɔ~ s a l a <int> 
[12.285]
ɔ~ a p ɛ l <hes> t a~ k u <hes> ɔ~ 
[14.705]
<no-speech> 
[15.535]
<no-speech> 
[15.975]
<no-speech> 
[16.935]
<int> <foreign> 
[17.855]
<no-speech> 
[19.225]
<sta> 
[21.505]
<no-speech> 
[22.655]
e k i k i <laugh> e k i <laugh> k i t e l b ɣ i l e <laugh> 
[28.955]
<no-speech> 
[31.395]
a~ b e~ e g z a m e~ a~ f a~ m i m s e s e s e <no-speech> e p a w p ɣ a l <no-speech> m s w e t e m s w e t e u p ɣ a l l a d a~ w a w ɛ <laugh> w a w ɛ k ɔ m a~ l a p j e <laugh> 
[39.305]
<no-speech> 
[41.035]
b ɔ~ s a m b ɔ~ s a m f ɛ d e ʒ a j o b ɔ~ m k a d i w <hes> b ɔ~ s e p l i s p l i s l a p f a s i l 
[46.545]
<no-speech> 
[47.675]
ɣ e z o a b ɔ~ m a~ t ɣ e d e <no-speech> n a~ ɣ e z o a m k a ɣ i v e n a~ s e~ k a~ t n ɛ f <no-speech> o l j e d e s w a s a~ t l a~ <no-speech> p a s k e m p a f ɛ p w o b l ɛ m n a~ <laugh> ʒ o d i a 
[55.635]
<no-speech> 
[56.975]
p a g e~ l ɔ t b a g a j a~ k ɔ b ɔ~ m ɔ~ ʃ ɛ m v i n w ɛ ɔ~ p l i s b ɔ~ b a g a j m ɔ~ ʃ ɛ n ɛ g j o b ɔ~ <no-speech> u w ɛ n a~ e g z a m e~ a~ m e~ m p e d e ʒ e m e~ m p e d e ʒ e a v i n s i v e j e w t u w i 
[65.495]
<no-speech> 
[67.105]
e~ h w o n i t u m u~ t u n ɛ g a~ n d a~ a~ b ɔ~ <no-speech> b ɔ~ <no-speech> t u t i m e s j e e~ h m e k a n i k j o 
[72.815]
<no-speech> 
[73.775]
b ɔ~ e t i m e s j e e t i m e s j e m e k a n i k j o m e~ m k i m e~ m s e <no-speech> s e m e~ m <hes> 
[77.625]
<no-speech> 
[78.995]
<hes> k i j ɛ s 
[79.805]
<no-speech> 
[85.595]
e p a s a k k u t k u t k u t k u t k u t k u t l a 
[87.435]
<no-speech> 
[89.875]
<hes> <no-speech> m i s j e e l i k i ɣ e s p ɔ~ s a b p a t i <hes> p a t i <no-speech> p a t i <hes> <hes> k o m ɛ s j a l l a w i 
[96.175]
<no-speech> 
[99.335]
<no-speech> 
[100.425]
<no-speech> 
[101.715]
e k i k i s a <hes> m e~ p w o b l ɛ m n a~ j o d i m m i m i s j e g a d e j o d i m m i s j e b ɔ~ n a~ d o m ɛ n n a~ m e~ l p a k a a~ s e j e 
[107.525]
<no-speech> 
[110.475]
w i <no-speech> m i s j e g e~ <oov> <hes> p w o b l ɛ m l a~ g a ʒ 
[113.035]
<no-speech> 
[116.045]
e g e~ l ɔ t b a g a j a~ k ɔ m k w ɛ g e~ j ɔ~ b ɔ~ g e~ a~ p i l b a g a j m t a~ d e d e l i 
[119.525]
<no-speech> 
[120.615]
s e s ɛ l m a~ <no-speech> b ɔ~ e t i m k w ɛ m k ɔ~ n w ɛ t i d a m n a~ a l f ɛ k ɔ~ g w o k ɔ~ t a b l i t e 
[124.425]
<no-speech> 
[125.565]
t i d a m k i n a~ m e~ m s a l a~ s a~ m a v ɛ l l a 
[127.115]
<no-speech> 
[129.495]
t i d a m k i n a~ m e~ m s a l a~ s a~ m a v ɛ l l a u k w ɛ m k ɔ~ n w ɛ l a l a~ s e j e <no-speech> l a l f ɛ <no-speech> l a l f ɛ k u k ɔ~ t a b l i t e t u <no-speech> g e~ j ɔ~ l ɔ t t i d a m m e~ s a~ <no-speech> m ɛ w i g e~ j ɔ~ l ɔ t t i d a m m e~ s a~ k ɔ 
[137.415]
<no-speech> 
[139.675]
w i l i f ɛ m ɛ w i j o d e <no-speech> m p a k ɔ~ n e~ s i l ɔ t l a s e a n a l i t i k <hes> k ɔ~ t a b l i t e a n a l i t i k l i f ɛ 
[146.525]
<no-speech> 
[149.545]
<sta> b ɔ~ m p a k ɔ~ n s i l l a d a~ j o k i s a l f ɛ m e~ m <no-speech> a l o <no-speech> a l o 
[157.515]
<no-speech> 
[159.095]
<no-speech> a l o 
[161.575]
<no-speech> 
[164.345]
a l o a l o a l o 
[166.065]
<no-speech> 
[169.465]
<no-speech> 
[169.875]
<no-speech> 
[171.985]
e~ h e~ 
[172.695]
<no-speech> 
[173.635]
<no-speech> 
[173.995]
<no-speech> 
[177.775]
<no-speech> m p a t a~ d e w m e~ m n ɔ~ 
[180.885]
<no-speech> 
[184.295]
m p a t a~ d e w 
[185.375]
<no-speech> 
[187.225]
o h <no-speech> k i p w o b l ɛ m u t e g e~ j e~ 
[189.065]
<no-speech> 
[190.015]
<foreign> <no-speech> 
[192.615]
<no-speech> 
[194.935]
<laugh> v a k a b ɔ~ u j e <no-speech> e~ b e~ <no-speech> m k ɔ~ p ɣ a~ n 
[205.725]
<no-speech> 
[211.245]
<sta> a~ b e~ k i t e k i t e l p u k i t e k i t e l p u l k u p e 
[218.875]
<no-speech> 
[219.705]
<no-speech> 
[220.275]
<no-speech> 
[221.315]
<no-speech> 
[222.105]
<no-speech> 
[223.115]
<int> m e t e <no-speech> m e t e l n a~ g ɣ a~ ɣ i p u l k u p e 
[225.525]
<no-speech> 
[227.295]
<no-speech> 
[227.675]
<no-speech> 
[231.535]

[232.425]
<no-speech> 
[236.525]
<no-speech> 
[237.615]
<no-speech> 
[239.415]
e~ h <laugh> <sta> 
[241.355]
<no-speech> 
[243.075]
<laugh> a m p a g e~ <hes> b ɔ~ b ɔ~ p i t a m a p ʒ w e~ n b a g a j j o n a~ m e~ w <no-speech> p i t a m k a b p ɣ e t e m a p ʒ w e~ n b a g a j j o n a~ m e~ w 
[249.945]
<no-speech> 
[252.175]
m e~ s a m p ɣ a l f ɛ m g e~ l ɛ p ɣ a l v i n m p ɣ a l b a w d ʒ ɔ~ p m p ɣ a l m p ɣ a l p ɣ a~ d ʒ ɔ~ p m w e~ a~ <no-speech> m a m a e~ s t a l e l s u <no-speech> m a e~ s t a l e l n a~ s e m ɛ n n a~ p a s k e m a p k a i t i l i z e n ɛ t l a p u m k a <foreign> ɔ p d e t l a 
[261.935]
<no-speech> 
[266.115]
<sta> b ɔ~ m p ɣ a l d e g a ʒ e m l a a m a ʃ t e ɔ~ d ʒ ɔ~ p s ɛ z ʒ i g a p a s k e m g ɔ~ p a k ɛ t p w o g ɣ a m l a a l e k ɔ l l a b a~ m w e~ f ɔ m f ɔ m k ɔ~ n s a f ɔ m m k a g e~ b a g a j <no-speech> g ɔ~ <oov> g ɔ~ p w o g ɣ a m j o b a~ m w i p w o g ɣ a m <no-speech> ɔ~ p w o g ɣ a m <hes> 
[277.875]
<no-speech> 
[279.055]
<sta> ɔ~ p w o g ɣ a m <hes> a p ɛ l e~ t ɛ n a s j o n a l 
[280.875]
<no-speech> 
[281.705]
<sta> p u ɣ e l e p u ɣ e l e e t a z i n i k a n a d a <no-speech> u p a b e z w e~ k a t n ɔ~ <no-speech> d e p i u f e~ e~ s t a l e l e p i <lipsmack> 
[290.365]
<no-speech> 
[291.945]
<sta> <laugh> e~ h e~ <no-speech> e~ h e~ 
[294.285]
<no-speech> 
[296.095]
k i j ɛ s k i t e b a~ m p w o g ɣ a m s a a e~ h p w o g ɣ a m s i s t ɛ m e k s p l w a t a s j ɔ~ a~ 
[298.655]
<no-speech> 
[300.685]
<sta> ɔ~ p a k ɛ t b a g a j <no-speech> b ɔ~ b ɔ~ g e~ l ɔ t p w o g ɣ a m l i m e~ m m b e z w e~ m b e z w e~ j ɔ~ p w o g ɣ a m n a~ m e~ n a~ m e~ a <no-speech> e~ h 
[308.645]
<no-speech> 
[310.525]
j a <hes> k a t i s p w o f e s ɛ ɣ e z o a 
[313.185]
<no-speech> 
[316.075]
<sta> t a~ k u l ɔ s e m ɛ n p a s e l ɛ l d i n u v i n i a v ɛ k e~ p ɣ i m a~ t p u m e t e a~ e t e p u n u 
[319.795]
<no-speech> 
[321.495]
<no-speech> 
[322.915]
<no-speech> 
[324.655]
m p a t m p a t <hes> m p a t a l e 
[326.035]
<no-speech> 
[327.375]
<no-speech> 
[327.965]
<no-speech> 
[333.485]
<sta> m p a b e z w e~ g e~ k a t 
[336.005]
<no-speech> 
[337.605]
<no-speech> 
[339.695]
<no-speech> 
[341.235]
<sta> d ɔ~ k l a ʃ t e n i m e w o a <no-speech> 
[343.325]
<no-speech> 
[346.435]
<no-speech> 
[347.625]
<no-speech> 
[348.565]
l i p o k o ɣ i v e 
[349.395]
<no-speech> 
[350.575]
<sta> 
[352.735]
<no-speech> 
[355.025]

[355.565]
<no-speech> 
[360.975]
k e~ z m i n i t 
[361.775]
<no-speech> 
[364.525]
k e~ z l a~ m a l l a k a j m w e~ 
[365.725]
<no-speech> 
[371.235]
<laugh> e~ h u p a k ɔ~ n e~ <hes> a l o ɣ a l <hes> 
[381.185]
<no-speech> 
[383.055]
<laugh> a l o ɣ a l <laugh> 
[387.755]
<no-speech> 
[390.005]
<no-speech> 
[392.255]
<no-speech> 
[393.145]
e m w e~ m e~ m m p a k a p a l e a~ p i l e m w e~ m e~ m m p a k a p a l e a~ p i l 
[396.455]
<no-speech> 
[399.475]
m w e~ s e <no-speech> m w e~ m w e~ m e~ m t u b a g a j m w e~ s e w i n ɔ~ w i 
[402.545]
<no-speech> 
[404.475]
s e w i n ɔ~ l i v l e l v l e 
[405.875]
<no-speech> 
[408.935]
a b ɔ~ b ɔ~ o k e b ɔ~ k i s a b ɔ~ k i s a <hes> u p a t d i m m e~ k e~ z m i n i t l a <laugh> m a a l l a k a j m w e~ a v ɛ l <laugh> 
[416.415]
<no-speech> 
[418.975]
<hes> s a v l e d i m t e k a m t e k a ʒ w e~ n j ɔ~ m u~ p u ɣ e t a v ɛ l p i t a 
[422.245]
<no-speech> 
[424.195]
a h e u k ɔ~ n e~ l i n d a k a~ p e s u t e~ t e~ <foreign> u k ɔ~ n s a l i n d a t e <no-speech> o h l i n d a d i m l i n d a d i m k ɔ~ s a o h <no-speech> o h ɛ s k e e f u m f u 
[431.485]
<no-speech> 
[433.925]
e~ h e~ l i d i m k ɔ~ s a k e o h ɛ s k e e w ɛ m p a w ɛ 
[437.605]
<no-speech> 
[438.425]
k u n j a k u n j a m d i m a~ m k u n j a m d i m a~ z ɛ l o k e b ɔ~ o k e m p a g e~ p w o b l ɛ m a v ɛ w n ɔ~ e p a l e m t e k ɔ~ n p a l e a v ɛ w a~ k ɔ k u n j a k u n j a l ɛ m w ɛ l m e p ɣ i z e l <no-speech> <foreign> a f ɛ ɣ e l e l s u v a~ a~ m p a m t e k ɔ~ n f ɛ s a m p a f ɛ s a a~ k ɔ 
[449.285]
<no-speech> 
[451.315]
a h m k ɔ m a~ s e <oov> m k ɔ m a~ s e ɣ a l a~ t i s u l i k u n j e a h l i m e~ m m e~ m l i g e~ m w a j e~ p u l k a a~ t ɣ e p j e 
[456.045]
<no-speech> 
[457.305]
a h l a p f ɛ ɣ a ɣ a m p a o k i p e l 
[458.845]
<no-speech> 
[460.625]
a h p u l i l g e~ l ɛ k ɔ~ n e~ k e <no-speech> p u l i l i g e~ l ɛ k ɔ~ n e~ e i d ɔ l l i j e 
[464.845]
<no-speech> 
[468.745]
m p a p o k i p e l m p a f u t o k i p e l m e~ m a~ k ɔ m p a p ɣ a~ s e a v ɛ l <no-speech> m a p k i t e l 
[472.205]
<no-speech> 
[476.205]
a h 
[476.775]
<no-speech> 
[478.045]
<int> m w e~ m u~ n a p ʒ e t e a m p a k ɔ~ t l i n ɔ~ 
[481.025]
<no-speech> 
[482.305]
k ɔ m s e m u~ <hes> <hes> <hes> <hes> m u~ k a k i n a~ b e~ j e~ ʃ e~ m w e~ m e~ m m o b l i ʒ e a p ʃ ɛ ʃ e 
[486.545]
<no-speech> 
[489.215]
a h <no-speech> s i l b ɔ~ p u l i l a w ɛ l 
[491.895]
<no-speech> 
[494.935]
p a p a s k e j ɔ~ s ɛ l b a g a j m t u ʒ u d i j o m d i j o m d i k ɔ~ s a <hes> m u~ k a l l e k ɔ l p a ʒ a~ m s u f ɣ i 
[499.855]
<no-speech> 
[500.795]
l i m ɛ t l i m ɛ t n a~ z o k a~ m ɛ m l i m ɛ t l i m ɛ t n a~ d ɛ n j e ʒ u a w a p ʒ w e~ n 
[504.025]
<no-speech> 
[505.735]
<hes> s i w l ɛ k ɔ~ p ɣ a~ n n a k ɔ~ p ɣ a~ n 
[507.265]
<no-speech> 
[508.955]
<no-speech> 
[509.375]
<no-speech> 
[512.365]
a h e~ h e~ 
[513.165]
<no-speech> 
[516.465]
<hes> m a~ z ɛ p a b a u l <no-speech> a~ a v ɣ i l a~ a v ɣ i l l a a l d ɛ j ɛ l n a~ m e~ l a~ a v ɣ i l 
[520.485]
<no-speech> 
[522.125]
w i a p a p a p g ɔ~ s e s j ɔ~ a~ a v ɣ i l l a 
[524.615]
<no-speech> 
[527.615]
e ʃ a k e ʃ a k t w a m w a 
[528.985]
<no-speech> 
[531.275]
ʃ a k t w a m w a ɣ e l e j ɔ~ s e s j ɔ~ 
[532.805]
<no-speech> 
[533.955]
u w ɛ k u n j a l a u p ɣ a l a p ɣ e m w a a v ɣ i l l a l a u p ɣ a l ʒ i s a~ o k t ɔ b 
[537.265]
<no-speech> 
[539.815]
n ɔ~ a~ n u l ɔ l ɛ w s ɔ t 
[541.455]
<no-speech> 
[544.975]
n ɔ~ s e p u e~ f ɔ m a t i k b i w o t i k d e p a n a ʒ ɣ e z o <no-speech> e n a~ s a l k a b a w d e m i b u s m e~ n a~ b a g a j <hes> t a~ k u s j a~ s e~ f ɔ m a t i k l a j o p a p b a u 
[552.595]
<no-speech> 
[554.965]
n ɔ~ p a s k e l i d e p a~ s e t w ɔ p k ɔ b 
[556.635]
<no-speech> 
[557.975]
l a b o ɣ a t w a a k u t e l t w ɔ ʃ ɛ 
[559.385]
<no-speech> 
[561.735]
s i s e p a t l a b o ɣ a t w a l t a p b a u l 
[563.895]
<no-speech> 
[567.345]
a h m k w ɛ l ɣ e s i f i n i w i 
[568.875]
<no-speech> 
[571.955]
a h <no-speech> k e~ z m i n i t s a a p a k o ɣ i v e t u ʒ u 
[574.255]
<no-speech> 
[577.075]
<no-speech> 
[577.455]
<no-speech> 
[581.555]
<no-speech> 
[582.865]
<no-speech> 
[590.625]
n ɔ~ a h m p a k a p a ʒ w e~ n j ɔ~ b a g a j k a~ m ɛ m <no-speech> <sta> s a k p a s e l a a m e~ m 
[597.275]
<no-speech> 
[598.335]
<sta> <no-speech> e~ h e~ 
[600.165]
<no-speech> 
[600.220]
