[0.000]
<no-speech> 
[1.125]
<no-speech> 
[1.485]
<no-speech> 
[4.155]
<no-speech> 
[4.505]
<no-speech> 
[5.375]
<no-speech> 
[5.725]
<no-speech> 
[14.165]
<sta> a l o 
[14.865]
<no-speech> 
[16.315]
w ɔ n a l 
[17.385]
<no-speech> 
[18.435]
<sta> k ɔ m a~ w j e k u z e~ 
[19.515]
<no-speech> 
[21.475]
<sta> <hes> k ɔ m a~ t u m u~ j e 
[23.375]
<no-speech> 
[26.395]
<sta> <hes> e~ b e~ o k e m ɣ e l e w ʒ o d i a p u n u p a l e k ɔ~ s ɛ n a~ t ɣ a v a j l a <breath> u l a u p a t ɣ a v a j ʒ o d i a 
[32.155]
<no-speech> 
[35.445]
<laugh> e~ b e~ t a~ d e n ɔ~ ɛ s k e w p a e s e j e f ɛ a~ j e~ m e~ m p u m e t e o k e~ l ɔ t b a g a j s u p j e p a ɣ a p ɔ a ʒ a~ n u t e p a l e s a w t a k a f ɛ <no-speech> e m i s j ɔ~ a~ 
[45.455]
l ɛ f i n i ʃ a ʃ e l ɔ t b a g a j p u m e t e s u p j e t a~ k u w ɛ s a k i a k t i v i t e k i a t i ɣ e l a ʒ e n ɛ s <no-speech> p u k ɔ~ n e~ s a p u f ɛ 
[53.955]
<no-speech> 
[58.585]
<no-speech> 
[59.295]
<no-speech> 
[60.545]
<no-speech> 
[61.845]
<no-speech> 
[66.805]
<int> n ɔ~ <no-speech> t a~ d e t a~ d e <no-speech> t a~ d e <no-speech> u p a k a d i w a p t a~ n l ɛ g ɣ a~ v a k a~ s s e b a g a j p u e k ɣ i p u <no-speech> p u e g z a k t e m a~ d e ʒ u a~ ʒ u 
[77.175]
a p e s e j e w ɛ k i ʒ a~ j a m a ʃ e p u k ɔ~ n e~ e g z a k t e m a~ d e m a~ d l a~ p l i s t u s a m u~ j a p d i <no-speech> k i ʒ a~ m u~ j o e k u t e l ɛ f i n i ʃ a s e n a~ p a s e n a~ t u z ɔ n n a~ t u 
[87.635]
k a t j e j o p u w ɛ k i e k u t ɣ a d j o a g e~ j e~ e s e j e <no-speech> m e~ m s i w p a p a l e a k t u m u~ m e~ ʃ ɛ ʃ e k ɛ k m u~ u k ɔ~ n e~ k ɛ k f i <no-speech> u k ɔ~ n e~ s i t u <no-speech> w a p k a ʒ w e~ n <no-speech> e~ f ɔ m a s j ɔ~ 
[98.155]
m e~ s i w p a ʒ a~ m f ɛ t a~ k u w w ɛ m t e d i w <no-speech> t a~ d e n ɔ~ <no-speech> t a~ k u w w ɛ m t e d i w m t a p e s e j e p a l e a k j u~ d e ʒ i p u u <no-speech> p u m w e~ k ɔ~ n e~ s a m a f ɛ <no-speech> m p a l e a v ɛ m i s j e 
[108.365]
m i s j e d i m l i p a g e~ o k e~ p w o b l ɛ m <no-speech> s i j o p e j e l <hes> s i j o b a l f ɣ ɛ d e d e p l a s m a~ <hes> l a p f ɛ o m w e~ j ɔ~ s e m ɛ n a p ʒ w e a p ɣ e s a n u n a k ɔ~ n e~ s a n a p d i l 
[120.335]
m e~ l a p ʃ ɛ ʃ e <oov> l i m e~ m p e t ɛ t <oov> k a a s i ɣ e d e p l a s m a~ l <no-speech> m e~ a~ k a k ɔ~ t ɣ ɛ m p a k ɔ~ n e~ s a w a p f ɛ <no-speech> p a s k e <hes> 
[129.605]
f ɔ w f ɔ w u p a k a ɣ e t e k ɔ~ s a p a s k e s i w p a f ɛ s a u p a p t ɣ a v a j <no-speech> s e ʃ a k ʒ u j o b a w p a s ɔ~ t a~ m e~ m d i ɣ e k t ɛ ɣ a d j o a t u a p v i n d i <int> 
[139.105]
b ɔ~ p a g a~ j e~ k a p f ɛ t a~ n u ʃ ɛ ʃ ɔ~ l ɔ t m u~ <no-speech> b a g a j j o s e ʃ ɛ ʃ e s u ʃ ɛ ʃ e e k ɣ e j e u b j e~ m o d i f j e <no-speech> t e g e~ d w a g ɔ~ e m i s j ɔ~ <no-speech> g e~ d w a ʃ ɛ ʃ ɔ~ e m i s j ɔ~ ʃ ɛ ʃ e k ɛ k m u~ m e~ m s i s ɔ~ e m i s j ɔ~ l e v a~ ʒ i l 
[150.955]
m u~ n a~ a p f ɛ u b j e~ k ɛ k b a g a j <no-speech> f ɔ w e s e j e ʃ ɛ ʃ e k ɣ e j e <no-speech> e~ h e~ 
[162.925]
<no-speech> 
[174.595]
<no-speech> e~ b e~ s e <oov> 
[186.435]
<no-speech> e~ b e~ t a~ d e n ɔ~ <no-speech> m e~ s e p a s k e 
[197.155]
s e p a s k e m i s j e v i n w ɛ <no-speech> l a a l i u g e~ p o t a~ s j ɛ l l a m e~ s i w p a s i w ɣ e t e u p a f a~ j e~ 
[209.095]
<no-speech> e~ b e~ o k e t a~ d e t a~ d e t a~ d e t a~ d e 
[220.885]
t a~ d e b j e~ s a n a p f ɛ <no-speech> ɛ s k e d i ɣ e k t ɛ ɣ a d j o a a a p a k s e p t e <no-speech> p u <no-speech> p u m i s j e p e j e f ɣ ɛ d e d e p l a s m a~ a~ t a~ k u w w ɛ b i s 
[231.755]
m p a k ɔ~ n e~ m a p f ɛ m i s j e l o ʒ e l a k a j l a <no-speech> <hes> p u j u~ s e m ɛ n <no-speech> p e t ɛ t m a~ ʒ e b a g a j m p a k ɔ~ n e~ s a k a k u t e o m w e~ <no-speech> j u~ 
[241.655]
j u~ d e m i l k a t s a~ s e~ k a~ t g u d k ɔ~ s a <no-speech> p e t ɛ t <hes> p u n u a ɣ a~ ʒ e s a <no-speech> w i p u t ɣ a~ s p ɔ a <foreign> j u~ f ɣ ɛ 
[250.655]
p u m i s j e ʒ i s m a~ ʒ e m w e~ m e~ m m a p b a j m i s j e <no-speech> m a p p a l e a v ɛ n ɛ l s i p u m i s j e ʒ w e~ n l o ʒ m a~ <no-speech> a~ n a t a~ d a~ m e~ m s i s ɔ~ s e m ɛ n m i s j e a p f ɛ n u m e~ m n a ʃ w a z i l ɛ p u~ b a j m i s j e ʒ w e n a~ ɣ a d j o a s i s e d e z ɛ d t a~ u b j e~ t w a z ɛ d t a~ 
[262.545]
p u ʒ i s g ɔ~ e m i s j ɔ~ d e ʒ i p u m i s j e w ɛ <no-speech> p e t ɛ t a p ɣ e j u~ s e m ɛ n k i e k u t ɣ a d j o a g e~ j e~ u m e~ m t u k i ʒ a~ w a p f ɔ~ k s j o n e <no-speech> n a p ʃ ɛ ʃ e p i b l i s i t e n a p ʃ ɛ ʃ e s p ɔ t <no-speech> u m e~ m 
[274.475]

[286.465]
<no-speech> 
[296.615]
b ɔ~ <hes> s a s e l ɛ w f e~ p a l e l ɛ w f e~ p a l a k d i ɣ e k t ɛ a w a p k ɔ~ n e~ s a p u f ɛ <no-speech> w a p k ɔ~ n e~ s a p u n u f ɛ <no-speech> s a n a p k ɔ~ <hes> <int> s a n a p m e t e a p ɣ ɛ s a p u n u k ɔ~ n e~ 
[306.295]
p a s k e m p a k a d i w s a v a~ n i a p ɣ e d i z ɥi m e p a s k e d i z ɥi m e e s a m d i l a a w i s i w d i a v a~ d i s a m d i s a s e b a g a j 
[318.205]
<no-speech> n ɔ~ b a~ m d i w <no-speech> s e p a p l a n i f j e p w o g ɣ a m v ɛ s a j l a s a a p ɣ e e k u t l a <no-speech> w a p ʒ i s m e t e 
[329.745]
l ɛ m u~ j o f e~ t a~ d e j u~ d e t w a ʒ u <no-speech> k i ʒ a~ d e ʒ i a a p ʒ w e k u n j e a u m e~ m <no-speech> u g e~ d w a p l a n i f j e v ɛ s a j p u m i s j e ʒ w e ʒ i s j u~ s w a u b j e~ m p a k ɔ~ n e~ s i s e a~ s a~ m a k n ɛ g <foreign> <foreign> j o <int> 
[341.495]
l a p ʒ i s p u~ d e b i t e m e~ m <no-speech> m e~ m m w e~ m e~ m l a a s e n u m e~ m k i f ɛ m p o k o k ɔ m a~ s e t ɣ a v a j p a s k e <no-speech> ʒ i s k a m e~ t n a~ n u p o k o ʒ a~ m b a~ m j u~ j u~ b ɔ~ e~ f ɔ m a s j ɔ~ s u t ɛ a m t e d i n u <int> ʃ ɛ ʃ e <no-speech> p u m w e~ a~ 
[352.045]
n i u n i t a l a b ɛ n u p a ʒ a~ m d i m a~ j e~ <no-speech> n ɔ~ t a~ d e t a~ d e b j e~ 
[363.595]
t a~ d e b j e~ b a~ m d i w <no-speech> b i z n i s l ɛ m d i w b i z n i s l a~ ʒ i s k a p ɣ e z a~ n u p o k o k ɔ~ n e~ e g z a k t e m a~ k i s a n a p m e t e n a~ b i z n i s l a~ t u s e~ p l e m a~ s e t ɛ a n u b e z w e~ <hes> d e p i n u f e~ ʒ w e~ n t ɛ a n a p k ɔ~ n e~ e g z a k t e m a~ 
[375.565]
k i s a n a p m e t e s u l i k i s a p a s k e s e p a m w e~ m e~ m k i a~ t ɛ t <no-speech> s e ʒ i s j o ʒ i s d i m ʃ a ʃ e <hes> ɣ ɛ s m u~ j o s e j o k i a p <hes> a~ ʃ a ʒ p u j o f ɛ s a <no-speech> s e p a m w e~ m e~ m <int> 
[386.815]
m e~ d ɛ k e n u f e~ d i m p a s k e m t e d i n ɛ g j o s e n a~ z ɔ n <no-speech> <hes> v o d ɣ ɛ j <no-speech> t a~ k u w w ɛ n a~ z ɔ n <hes> b l ɔ k m ɔ n w u ʒ j o d e p i j o ʒ w e~ n l i j o m ɛ t d i m s a b a~ m e~ f ɔ m a s j ɔ~ m a p ɣ e l e m u~ n a~ p u m w e~ p a l e 
[398.625]
p u n u k ɔ~ n s a n a p f ɛ m e~ ʒ i s k a p ɣ e z a~ <no-speech> n i t a l a b ɛ n i u n i k e~ n s i <no-speech> m e~ m n ɛ l s i m e~ m n ɛ l s i t e d i m s e n i m e w o p u l <hes> p u l ʒ w e~ n l i p a ʒ a~ m ʒ w e~ n o k e~ n n i m e w o <int> 
[410.615]
<breath> <hes> <no-speech> e~ b e~ u w ɛ p a~ d a~ w a p <no-speech> t a~ d e n ɔ~ <no-speech> p a~ d a~ w a p d i s a <no-speech> s e m e~ m <foreign> t u p u t a t u k ɔ m a~ s e m e t e b i z n i s a l k ɔ l l a d e j ɔ l ɛ s a w a p 
[422.475]
p e j e u p a p g e~ s p ɔ t p u p e j e n i a~ j e~ w a p ʒ i s k u n j e a e~ b e~ <no-speech> 
[434.265]
<no-speech> n ɔ~ t a~ d e b a~ m d i w i d a~ t i t e a u m e~ m s e s i s e u k t e g e~ t u 
[445.445]
k ɔ b l a p u m e t e t u k ɔ b j o d e j ɔ p u f ɛ b i z n i s l a~ m e~ d e p i w a p ʃ a ʃ e m u~ p u m e t e <no-speech> l ɛ f i n i u g e~ d w a <no-speech> n ɔ~ d e p i s e u k g e~ p w o ʒ ɛ a k u n j e a s e u k i a p <hes> a~ t ɛ t 
[457.145]
a p ɣ ɛ s a d ɛ k e u k ɔ m a~ s e ʒ w e~ n m u~ p u <foreign> a~ s a~ m a v ɛ w <no-speech> l a a o m w e~ k u n j e a w a p g e~ t a~ k ɔ~ n e~ k i s a p u f ɛ k i s a p u p a f ɛ m e~ s i w d i s e p w ɔ p b i z n i s u l a p j e m e~ m <no-speech> s e p a l a k e s j ɔ~ d e b i z n i s 
[469.135]
s e p a m w e~ <no-speech> s e s e s a p u f ɛ p a s k e <no-speech> b a~ m d i w <no-speech> m w e~ m p ɣ ɛ p a s k e d e p i <hes> b a~ m w ɛ d e p i k i ʒ u d e p i <hes> j ɛ d e p i d i m a~ ʃ 
[480.325]
m p a l e a k d e ʒ i a m d i m e~ s a n u g e~ a~ p w o ʒ ɛ m e~ s a n u g e~ a~ p w o ʒ ɛ m i s j e b j e~ a~ v i d e p l a s e p u l a l k ɔ~ n o k a p p a s k e m t e d i m i s j e n u t e g e~ p u~ a~ t ɣ e 
[488.415]
j ɔ~ l ɛ k ɔ~ s a k ɔ~ s a m e~ m l ɛ s e p a t b a g a j m t e d i m i s j e n a p f ɔ~ a~ t ɣ e k a~ m ɛ m m a f ɛ l p a s e n a~ w ɣ a d j o <no-speech> p u l a l b a j j u~ d e z ɛ d t a~ <no-speech> a~ t a~ k e d e ʒ i b a g a j k i p a s e n a~ v i l l a <no-speech> m e~ <int> 
[498.485]
f ɔ m d i w t u m i s j e p a j u~ g w o d e ʒ i b j e~ k e <no-speech> m i s j e p a j u~ g w o d e ʒ i k i ɣ e k o n i <no-speech> p e t j ɔ~ v i l m e~ <no-speech> m i s j e k a ʒ w e <no-speech> p a s k e s e s e n a~ w s e n a~ w n a~ w o t ɛ l m i s j e a p t ɣ a v a j k i g e~ 
[509.985]
t u b a g a j l a d a~ n d i s k o t u b a g a j n ɛ t <no-speech> <hes> m p a t a p <laugh> m p a t a p m e~ n e~ m i s j e w ɔ n a l m ɔ~ ʃ ɛ 
[519.075]
p a s k e m i s j e g e~ t u b a g a j n ɛ t s e p a l ɛ n u ɣ i v e o k a p n u p ɣ a l n a~ t i j e t ɛ t ʃ a ʃ e ʃ a ʃ e t i ɣ e n a~ a p a ɣ ɛ j p a s k e s e k ɔ~ s a m e~ m m w e~ t u l a p b ɔ~ p u m w e~ l ɛ l ɔ t s e m ɛ n l a a l a p ɣ e l e m v i n t ɣ a v a j o k a p 
[530.915]
s a w p ɣ a l b a~ m <no-speech> <hes> 
[535.645]
<no-speech> 
[536.615]
<no-speech> 
[539.185]
<no-speech> 
[540.035]
<no-speech> 
[540.385]
<no-speech> 
[541.185]
<no-speech> 
[542.485]
<no-speech> 
[545.195]

[545.995]
<no-speech> 
[551.815]
<no-speech> 
[552.665]
<no-speech> 
[554.335]
<no-speech> 
[554.695]
<no-speech> 
[556.665]
<no-speech> 
[557.015]
<no-speech> 
[559.605]
<no-speech> 
[562.805]
<no-speech> 
[563.825]
e b j e~ <hes> t a l ɛ t a l ɛ <no-speech> t a l ɛ <no-speech> s e p a <no-speech> j o p a p ʒ a~ m a k s e p t e f ɛ l k ɔ~ s a f ɔ j o t a g e~ e g z a k t e m a~ ɔ~ s p ɔ t 
[571.945]
l ɛ j o d i j o k ɔ~ n e~ j a p g ɔ~ s p ɔ t m e~ j a p d e l i v ɣ e s e p a a~ n i k a l e k ɔ~ s a d i <no-speech> m e~ s a p u j o f ɛ m e~ s a n a p d i j o p ɣ e m j ɛ m a~ n a p d i j o b ɔ~ 
[581.155]
m e~ k i p w o ʒ ɛ n u g e~ p u m w a m e a~ j a p g ɔ~ s e m ɛ n s p ɔ t m e~ a k ɔ~ d i s j ɔ~ j a p b a j j u~ b a g a j ʒ i s d e p i j ɔ~ m a~ m a~ ɣ e l e <no-speech> m a~ m a~ a p g e~ j e~ l k ɔ m k a d o <no-speech> s w a n e~ p ɔ t 
[590.845]
s e p a <no-speech> s e s a p u~ f ɛ <no-speech> m e~ s i n a l <hes> k i ʒ a~ p w o p o z e j o k e m e~ s a p u j o f ɛ m e~ s a p u j o f ɛ n ɔ~ <no-speech> d i j o e g z a k t e m a~ j a p g ɔ~ s e m ɛ n s p ɔ t n a~ ɣ a d j o p u 
[602.695]
m e~ t u s e~ p l e m a~ m e~ s a j a p f ɛ a~ e ʃ a~ ʒ f ɛ k ɔ m s i s ɔ~ e ʃ a~ ʒ n u t a p f ɛ <no-speech> p u n u f ɛ s a <no-speech> m e~ <no-speech> e~ b e~ s i s e p u d i <no-speech> w a l 
[614.385]
<no-speech> 
[617.765]
<no-speech> 
[618.024]
