[0.000]
<no-speech> 
[4.365]
a l o 
[4.905]
<no-speech> 
[7.305]
m a~ f ɔ m w i e u m e~ m 
[8.235]
<no-speech> 
[11.485]
<hes> m l a w i m p o z e u k ɔ~ n b a g a j j o k i b ɔ u j e l a a 
[14.005]
<no-speech> 
[18.165]
e 
[18.765]
<no-speech> 
[24.685]
e g z a m e~ ʒ e s j ɔ~ d p w o ʒ ɛ a s e d e m e~ l j e 
[26.295]
<no-speech> 
[28.795]
u f ɛ 
[29.195]
<no-speech> 
[30.435]
e~ h e~ 
[31.075]
<no-speech> 
[33.735]
o k e b a~ m d i w 
[34.845]
<no-speech> 
[35.705]
u g e~ t a~ f ɛ k o p i d o k i m a~ j o 
[37.325]
<no-speech> 
[39.385]
w i 
[39.895]
<no-speech> 
[45.405]
d o k i m a~ j o j o a~ p i l 
[46.655]
<no-speech> 
[50.405]
o h 
[50.865]
<no-speech> 
[53.265]
d ɔ~ k <no-speech> e g z a m e~ a~ w a w a p k ɔ~ p o z e a k t u d o k i m a~ w n a~ m e~ w t u b a g a j 
[56.665]
<no-speech> 
[61.855]
<hes> 
[62.515]
<no-speech> 
[63.805]
a h e~ b e~ u k ɔ~ n e~ t u m u~ l a j a p f ɛ e f ɔ <no-speech> e u m e~ m k ɔ m a~ f a~ m i w j e m e~ m 
[67.995]
<no-speech> 
[73.265]
u p a a l l o p i t a l a v ɛ l 
[74.345]
<no-speech> 
[77.625]
<sta> e~ h e~ 
[79.595]
<no-speech> 
[82.195]
s a m i s j e g e~ j e~ 
[83.105]
<no-speech> 
[86.955]
<hes> l a f j ɛ v s a k b a m i s j e l a f j ɛ v s a m e~ m 
[88.855]
<no-speech> 
[90.705]
s a k b a m i s j e l a f j ɛ v s a m e~ m 
[92.015]
<no-speech> 
[97.045]
m h m 
[97.695]
<no-speech> 
[99.505]
j ɛ 
[100.185]
<no-speech> 
[102.865]
e~ h e~ 
[103.475]
<no-speech> 
[106.435]
m i s j e m i s j e p a m i s j e p a p a s e ɣ e m ɛ d s u k l u a 
[108.925]
<no-speech> 
[112.565]
k ɛ t 
[113.275]
<no-speech> 
[114.075]
<hes> l ɔ 
[115.075]
<no-speech> 
[116.495]
e~ h e~ 
[117.105]
<no-speech> 
[118.665]
o h j o d i m s a w i m e~ m p a~ s e s e p u m a t ʃ l a k i f ɛ l p a v i n l e k ɔ l w i 
[122.115]
<no-speech> 
[126.675]
<foreign> <no-speech> <hes> m p a~ s e w a p w ɛ w e s n ɛ l l e k ɔ l l a p a v ɣ e 
[129.965]
<no-speech> 
[132.795]
<no-speech> 
[133.155]
<no-speech> 
[136.415]
w i ʒ a~ m d i w l a m e~ d e v w a d w a a <no-speech> e~ t w o a p a b ɔ~ d e v l o p m a~ a~ p a b ɔ~ ʃ a ʒ e m o k p a a k ɔ d e l a d a~ n s e p a d e t ɣ a v a j n u p ɣ a l g e~ p u~ f ɛ s u d e v w a s a a n ɔ~ 
[144.665]
<no-speech> 
[146.425]
w i 
[147.105]
<no-speech> 
[148.125]
k i l ɛ n a p 
[148.705]
<no-speech> 
[150.135]
k i l ɛ n a p f ɛ s a l a a 
[151.075]
<no-speech> 
[154.425]
v a~ d ɣ e d i 
[155.305]
<no-speech> 
[158.805]
<hes> k i l ɛ p u~ ɣ e~ m ɛ t l i l a a m e~ m 
[160.265]
<no-speech> 
[164.695]
l e~ d i a k a p v i n l a a 
[165.815]
<no-speech> 
[168.405]
o h 
[169.265]
<no-speech> 
[170.285]
w i <hes> f ɔ n t a p a~ s e s u l i l a a~ a~ a~ v a~ s e m ɛ n n a~ f i n i w i 
[174.225]
<no-speech> 
[176.985]
ʒ a~ m d i w l a <no-speech> e~ t w o d i k s j ɔ~ p a b ɔ~ d e v l o p m a~ k ɔ~ k l i z j ɔ~ b a g a j j o m e l a~ ʒ e 
[182.925]
<no-speech> 
[185.125]
w i 
[185.775]
<no-speech> 
[188.385]
s e <no-speech> ɣ e ʃ ɛ ʃ s e ɣ e ʃ ɛ ʃ p ɛ s o n ɛ l j o k i m a l a ʒ a~ s e a p ɣ e s a <breath> n ɔ t p w o f e s ɛ a t e b a j l a s a l m e t e k ɔ m n ɔ t p w o f e s ɛ a j o n ɔ m a l w i 
[196.665]
<no-speech> 
[198.355]
w i s e s ɛ l ɣ e ʃ ɛ ʃ 
[199.545]
<no-speech> 
[203.255]
e p i b a~ m b a w <no-speech> p u t ʃ i u p a n a~ s p e s j a l i z e 
[206.525]
<no-speech> 
[209.705]
o h <no-speech> f ɔ m t a w ɛ <oov> 
[212.745]
<no-speech> 
[214.255]
e~ h 
[214.825]
<no-speech> 
[215.995]
<no-speech> 
[216.375]
<no-speech> 
[217.185]
e p i u k ɔ~ n e~ l e k ɔ l l a m e~ a p t ɣ a k a s e m <int> m t e g ɔ~ b a g a j p u m w e~ t a l e d e m i s j e f ɛ s e m ɛ n p a s e a m t e o b l i ʒ e p a a l e a k o z l e k ɔ l l a 
[224.345]
<no-speech> 
[225.495]
u k ɔ~ p ɣ a~ n 
[226.195]
<no-speech> 
[228.325]
<foreign> <no-speech> a m ɔ~ ʃ ɛ s a w a p f ɛ l a a 
[230.555]
<no-speech> 
[235.475]
w i d ʒ i m i a l ɣ e g l e ɔ~ b a g a j p u m a~ m a~ l n a~ m e ɣ i a m t a~ d e j a p f ɛ v e ɣ i f i k a s j ɔ~ j a p v e ɣ i f j e e~ f ɔ m a s j ɔ~ m e s j e j o <no-speech> ɔ~ e k i p b a g a j <no-speech> m ɛ w i 
[244.485]
<no-speech> 
[246.675]
w i b a g a j k a j b a g a j p u a l p e j e p u a l p e j e l e t a 
[249.865]
<no-speech> 
[252.345]
m h m 
[253.035]
<no-speech> 
[258.315]
s e p a k a j l i n ɔ~ k a j <no-speech> k a j m a~ m a~ l 
[261.305]
<no-speech> 
[265.065]
<hes> m a~ m a~ d ʒ i m i o k a j s e s e s ɔ~ l ɛ k ɔ~ s a m a~ m a~ m i s j e a~ t ɣ e w i 
[269.505]
<no-speech> 
[271.175]
j ɔ~ l ɛ k ɔ~ s a m a~ m a~ m i s j e v i n p ɔ t o p ɣ e~ s w i 
[272.805]
<no-speech> 
[273.955]
w ɛ <no-speech> m a~ m a~ m i s j e ɣ e t o k a j n ɛ t s e ʒ i s v o j e m a~ ʒ e p u m i s j e a s ɛ l j o e p i <no-speech> v o j e k ɔ b t u 
[282.335]
<no-speech> 
[284.035]
s e s a k f ɛ d e p i j o b a j j ɔ~ t i v a k a~ s m i s j e t u p i k e 
[287.095]
<no-speech> 
[288.075]
p u s e b u ɣ i k l i l a l o k a j l a s e v ɣ e 
[289.915]
<no-speech> 
[291.755]

[292.365]
<no-speech> 
[293.445]
n ɔ~ d e p i j o b a j v a k a~ s b ɔ~ b ɔ~ <no-speech> d ɛ n j e v a k a~ s n u p ɣ a~ a~ m i s j e t e t u v i n a v a l i z l i l i p a m e~ m a~ t ɣ e l a k a j l i m e~ m l a~ n i k <no-speech> f i n i e p i <no-speech> l a l o k a j <no-speech> ɔ~ f w a 
[303.835]
<no-speech> 
[304.765]
w i 
[305.505]
<no-speech> 
[310.655]
a m ɔ~ ʃ ɛ m i s j e m i s j e m i s j e t u ʒ u d i s a w i m i s j e d i l i m e~ m s e n ɛ g n a~ m ɔ n l i j e l i m e~ m s e k o n e s a~ s l i v i n p ɣ a~ n a~ p ɔ t o p ɣ e~ s e p i a l t ɣ a v a j n a~ p e j i l 
[318.815]
<no-speech> 
[324.075]
<no-speech> 
[324.505]
<no-speech> 
[325.495]
a m w e~ m e~ m u k w ɛ e p a ʒ e ɣ e m i m s ɔ t i w i m u~ l a k a j m w e~ s e m u~ ʒ e ɣ e m i m e~ m w e~ m e~ m s e n a~ s e n a~ v i l l a m f ɛ t m w e~ m e~ m 
[331.115]
<no-speech> 
[333.725]
o h b ɔ~ s e p ɔ t o p ɣ e~ s m f ɛ t s e m u~ l a k a j m w e~ k i m u~ ʒ e ɣ e m i a~ w i s a v l e d i l ɛ j o v l e m e~ n e~ m j a m e~ n e~ m 
[338.475]
<no-speech> 
[346.505]
e~ h e~ 
[347.185]
<no-speech> 
[351.455]
o h l e b j e~ b ɔ~ p u u l a a w i 
[353.095]
<no-speech> 
[355.935]
m e~ m p a~ s e s i j o b ɔ~ m ɔ~ s i j o b a j j ɔ~ k a n a v a l ʒ e ɣ e m i m p a~ s e m a <no-speech> m a f ɔ~ k u t p j e m w e~ m e~ m 
[360.435]
<no-speech> 
[362.245]
<laugh> s i j o b a j 
[363.495]
<no-speech> 
[365.265]
ɔ~ f w a 
[366.045]
<no-speech> 
[367.465]
<no-speech> 
[367.935]
<no-speech> 
[368.965]
e~ h e~ 
[369.575]
<no-speech> 
[372.885]
m t e <no-speech> m i s j e t a p m i s j e t a p d i s a s e m ɛ n p a s e a w i <no-speech> m i s j e t a p d i s a s e m ɛ n p a s e a m e~ d ʒ ɔ~ n i s a t ɛ l m a~ b l o f ɛ 
[379.245]
<no-speech> 
[380.485]
<hes> p a w ɔ l m i s j e a k a k s j ɔ~ n p a m e~ m f a~ m i p ɣ e f a~ m i l w e~ n ɔ~ <no-speech> n ɛ g s a t ɛ l m a~ w i s e s a k f ɛ m d i w m e~ s i m i s j e f ɛ l m p ɣ a l e w i p a s k e m b j e~ b e z w e~ k ɔ~ n d ɛ j ɛ a 
[390.925]
<no-speech> 
[394.075]
s e f ɔ s e p u~ f ɔ s e m i s j e f ɛ l w i 
[395.715]
<no-speech> 
[396.605]
d ʒ i m i d i l k ɔ~ n d ɛ j ɛ a d e ʒ a <no-speech> p ɣ e m j e m e 
[399.355]
<no-speech> 
[402.625]
e~ h e~ 
[403.295]
<no-speech> 
[404.185]
<hes> e~ b j e~ <hes> <no-speech> s e p u m i s j e ɣ a~ ʒ e b a g a j j o d e p i k u n j e a p u m i s j e k ɔ m a~ s e ɣ a~ ʒ e s a e p i 
[409.805]
<no-speech> 
[411.305]
w ɛ s i l a p f ɛ l p u l f ɛ l 
[412.875]
<no-speech> 
[419.695]
d e p i d e p i l f ɛ l m a p p a t i s i p e 
[421.295]
<no-speech> 
[427.125]
e~ h e~ 
[427.785]
<no-speech> 
[428.825]
<foreign> 
[429.505]
<no-speech> 
[431.165]
b a~ m b a w 
[432.005]
<no-speech> 
[433.205]
s a k ɣ i s j a n o f ɛ l a a j ɛ 
[434.625]
<no-speech> 
[436.215]
k ɣ i s <no-speech> h e j k u p e s u f k u p e s u f 
[439.835]
<no-speech> 
[441.575]
m e s i a~ n i k f ɛ d e z j ɛ m g ɔ l l a m t a p g a d m a t ʃ l a m t u l e v e ɔ~ f w a m a l e 
[444.705]
<no-speech> 
[449.085]
w i 
[449.665]
<no-speech> 
[453.065]
s i m m a l d ɔ m i 
[454.135]
<no-speech> 
[455.505]
h e j b ɔ~ m p ɣ a~ m p a~ s e e k i p l a t e k a p ɛ d i m e~ m p a t p a~ s e j o t e k a m e~ n e~ t w a a z e w o s u l i m e~ 
[461.545]
<no-speech> 
[464.605]
<no-speech> 
[466.585]
<no-speech> 
[467.735]
s a m d i s i d j e v l e l k a p i m a l w i 
[469.155]
<no-speech> 
[472.855]
s a m d i 
[473.365]
<no-speech> 
[474.755]
o h <no-speech> ʒ a~ m w ɛ ɣ e j a l a~ ɣ a ʒ e l a a 
[477.505]
<no-speech> 
[481.445]
ɣ e j a l a p m ɔ~ t e b a s e l ɔ n a p d e s a~ n 
[483.145]
<no-speech> 
[487.205]
<laugh> b ɔ~ s i a s e n p a f ɔ~ ʒ a~ p u t i ʃ a~ p j o n a s a k n a~ m e~ l n a~ p u l t u k e~ b e l l a a l i p a n a~ a~ j e~ k b ɔ~ n ɔ~ 
[494.245]
<no-speech> 
[496.415]
l i g <foreign> ʃ a~ p j ɔ~ l i g <foreign> ʃ a~ p j ɔ~ s e <oov> m i l a~ a p b a l ʃ a~ s s a a <no-speech> ʃ a~ p j o n a d e s p a j l a p u l f ɔ~ ʒ a~ l ʒ e ɣ e l 
[502.735]
<no-speech> 
[507.915]
n a p s ɥi v 
[508.685]
<no-speech> 
[510.495]
<no-speech> 
[510.955]
<no-speech> 
[512.305]
m e~ a~ t u k a <hes> m p o k o w ɛ a v n i e k i p l a m e~ m 
[515.435]
<no-speech> 
[521.155]
ʒ a k i p a a k ɔ d e <no-speech> m e s i a p v o j e f l ɛ 
[524.905]
<no-speech> 
[527.185]
m w ɛ m a l ɛ 
[528.095]
<no-speech> 
[530.515]
m w ɛ m a l ɛ 
[531.365]
<no-speech> 
[532.775]
b l ɛ m 
[533.325]
<no-speech> 
[537.245]
w i m a p m a p l e k ɔ l l a d e m e~ w i 
[539.105]
<no-speech> 
[549.595]
m i s j e m i s j e p a t <hes> d w e b a~ n p ɔ~ j ɛ t l a n ɔ~ d a p ɣ ɛ m w e~ 
[551.975]
<no-speech> 
[553.475]
m i s j e p a t d w e b a~ n p ɔ~ j ɛ t l a n ɔ~ d a p ɣ ɛ m w e~ 
[555.215]
<no-speech> 
[559.335]
a <hes> m p a k ɔ~ n w ɛ l ɛ m u~ g e~ k l u j o b a~ d e l n ɔ~ 
[562.005]
<no-speech> 
[564.945]
m i s j e d i s e m e d i k m a~ l m e t e k i f ɛ j o f ɛ l b a~ d e l 
[568.505]
<no-speech> 
[573.835]
w i <hes> p a g e~ l e ʃ w a 
[575.375]
<no-speech> 
[576.635]
m e~ m i s j e d w ɔ l t u m i s j e a~ n i k w ɛ k l u a a p l e v e m p a k ɔ~ n s a l j e s i s e m e d s e~ f ɛ j l i j e l a~ n i k t u b a g a j <no-speech> l i t u d i l a p d e t u n e~ l k u n j e a~ a~ d e t u n e~ d e t u n e~ b a g a j l a v i n a~ f l e d ɛ j ɛ p ɔ~ j ɛ t m i s j e 
[587.765]
<no-speech> 
[591.265]
<no-speech> 
[592.605]
<no-speech> 
[593.485]
p u d i p u d i p u d i t i ʒ a~ a p v i n m a l a d n a~ ʒ u s a j o l a a 
[596.255]
<no-speech> 
[599.980]
