[0.000]
<no-speech> 
[8.925]
a l o 
[9.615]
<no-speech> 
[11.765]
w i 
[12.365]
<no-speech> 
[15.875]
<sta> w i o k e 
[17.235]
<no-speech> 
[19.445]
m h m 
[20.045]
<no-speech> 
[22.355]
k ɔ m a~ 
[22.975]
<no-speech> 
[25.415]
n ɔ~ <no-speech> n ɔ~ p a s e a l e m p ɣ a l e l a 
[28.675]
<no-speech> 
[30.895]
w i w i s e w i w i s e s a w i w i 
[33.505]
<no-speech> 
[36.415]
<sta> w i e~ b e~ o k e 
[37.965]
<no-speech> 
[41.265]
m h m 
[41.775]
<no-speech> 
[45.075]
<hes> j o k a f ɛ l n a~ ʒ u j o l a 
[46.555]
<no-speech> 
[50.425]
<no-speech> 
[50.955]
<no-speech> 
[52.105]
<hes> u p o k o a p f e~ a k s a n a~ t ɣ i b i n a l l a~ 
[53.985]
<no-speech> 
[63.115]
<sta> e~ h e~ 
[63.895]
<no-speech> 
[65.265]
<sta> m k ɔ~ p ɣ a~ n w i 
[66.065]
<no-speech> 
[68.105]
m h m 
[68.725]
<no-speech> 
[73.025]
m ɛ w i l i t u ʒ u l a w i 
[74.275]
<no-speech> 
[77.135]
<foreign> <no-speech> 
[77.715]
<no-speech> 
[80.015]
n ɔ~ m p a n a~ m a ʃ i n n ɔ~ n a~ l a ɣ i a m j e w i d e v a~ <no-speech> b a a j v ɛ t j ɛ a i n i b a~ k d e v a~ i n i b a~ k <int> l a~ m j e 
[85.935]
<no-speech> 
[87.895]
<sta> m h m 
[88.985]
<no-speech> 
[90.175]
k i m u~ 
[90.885]
<no-speech> 
[92.535]
ɛ l d a j ɛ m w ɛ l <no-speech> l ɛ j o v l e j o p a s e n a~ b i o a l ɛ j o v l e j o p a s e 
[97.445]
<no-speech> 
[98.465]
e~ h e~ 
[99.075]
<no-speech> 
[100.785]
m i s j e p a p a ɣ ɛ t m e~ m <int> 
[102.165]
<no-speech> 
[103.075]
m i s j e ɣ e t l a k a j <no-speech> e~ b e~ s a f ɛ k e <hes> a p a~ t a ʒ j o a p f ɛ a v a~ t ɣ i b i n a l l a u b j e~ 
[111.375]
<no-speech> 
[117.185]
<no-speech> 
[117.795]
<no-speech> 
[119.095]
<sta> m h m 
[119.765]
<no-speech> 
[124.615]
<no-speech> 
[125.325]
<no-speech> 
[126.315]
o k e 
[127.045]
<no-speech> 
[128.055]
<sta> p a g e~ p w o b l ɛ m n ɔ~ 
[129.055]
<no-speech> 
[132.295]
<int> e~ h 
[133.305]
<no-speech> 
[135.495]
<sta> o v w a w v w a w p a ɣ ɛ t k ɔ~ d i v o <no-speech> k ɔ~ v w a d i v o k u n j a l a m g ɔ~ ɣ a~ d e v u a k n o t ɛ d i v o m k ɔ~ n s e t e l i 
[145.245]
<no-speech> 
[147.195]
m h m m e~ l ɛ n a l ɛ n a p ɣ a l s u t ɛ a a v o k a k a k ɔ~ p a n j e m w e~ 
[152.075]
<no-speech> 
[155.385]
e~ h e~ l ɛ l ɛ m p ɣ a l f ɛ a p a~ t a z a~ 
[158.085]
<no-speech> 
[165.775]
<hes> o k e 
[166.415]
<no-speech> 
[167.545]
<hes> o k e o k e m k ɔ~ p ɣ a~ n 
[169.175]
<no-speech> 
[172.705]
<sta> m e~ e u k i m u~ w a p v o j e a~ s a~ m a v ɛ m 
[175.075]
<no-speech> 
[177.985]
<hes> u u k ɔ m m a~ d a t ɛ m a~ d a t ɛ a p l a 
[180.745]
<no-speech> 
[182.825]
e~ b j e~ p a g e~ p w o b l ɛ m 
[184.015]
<no-speech> 
[186.095]
m h m 
[186.525]
<no-speech> 
[192.375]
<sta> o k e d a k ɔ <no-speech> m e~ e <hes> n a p p ɣ a~ o t o ɣ i z a s j ɔ~ w i 
[198.315]
<no-speech> 
[201.635]
<sta> e~ h e~ n u t a s i p o z e p ɣ a~ o t o ɣ i z a s j ɔ~ p a k ɛ w i 
[204.205]
<no-speech> 
[207.745]
p a s e l u k a~ m e~ m u k ɔ~ n e~ l k ɔ~ f i k t j ɛ l l a i k ɔ~ f i k t j ɛ l l a f ɔ n u t a p ɣ a~ ɔ~ o t o ɣ i z a s j ɔ~ 
[212.915]
<no-speech> 
[216.845]
<sta> e~ b e~ o k e o f ɛ t s e m u~ j o w a p b a m u~ j o n i m e o t e l e f ɔ n a~ m 
[220.725]
<no-speech> 
[228.825]
e~ b e~ 
[229.335]
<no-speech> 
[230.655]
<sta> o k e o k e o k e 
[231.845]
<no-speech> 
[233.615]
m p a p m e~ n e~ j o n a~ b i w o m p a p m e~ n e~ j o n a~ a b i w o a b i w o a g e~ t w ɔ p a k a~ 
[237.625]
<no-speech> 
[240.095]
<sta> e~ h e~ <no-speech> 
[245.825]
<no-speech> 
[248.165]

[249.645]
<no-speech> 
[253.015]
<no-speech> 
[255.395]
<no-speech> 
[258.875]
o k e 
[259.565]
<no-speech> 
[266.695]
a h b ɔ~ a h b ɔ~ 
[268.175]
<no-speech> 
[270.665]
<sta> e s a m e~ m m ɔ~ ʃ ɛ s e s a m e~ m e~ b e~ s a p a g e~ m a~ t i l a d a~ n ɔ~ p a p a 
[275.535]
<no-speech> 
[282.415]
<sta> p a g e~ p w o b l ɛ m n ɔ~ 
[283.535]
<no-speech> 
[285.255]
<foreign> 
[285.765]
<no-speech> 
[293.265]
<sta> b ɔ~ m a j m i ʃ e m i ʃ e v i n f ɛ m t w ɔ p e m i ʃ e v i n f ɛ m t w ɔ p b a g a j 
[298.695]
<no-speech> 
[299.575]
m v i n p a f ɔ~ k s j o n e a k m i ʃ e m ɔ~ ʃ ɛ m i ʃ e f ɛ m p ɛ d i j ɔ~ d o s j e ɔ~ d o s j e m t a p f a~ p i l k ɔ b w i <foreign> 
[304.505]
<no-speech> 
[305.365]
l ɛ l ɛ m f i n i m t e k a p ɣ a~ ɔ~ t i ɣ a v k a t a~ s a~ m 
[310.185]
<no-speech> 
[311.455]
<sta> <hes> n ɔ~ l a l l a b a d i b ɔ k o t e l l a m e~ m w i <no-speech> 
[315.335]
<no-speech> 
[316.975]
a~ b a a~ b a n a~ b u n o 
[318.385]
<no-speech> 
[321.485]
n ɔ~ s e p a l i ɔ~ l ɔ t t ɣ ɛ 
[323.305]
<no-speech> 
[324.145]
u k ɔ~ p ɣ a~ n 
[324.795]
<no-speech> 
[326.575]
e l a l b a j l a l b a j m a~ t i l a l b a j p w o p ɣ i j e t ɛ a m a~ t i s u m w e~ u k ɔ~ p ɣ a~ n j o t e d e p a p j e i f ɛ p ɣ a~ p a p j e j o n a~ m a~ m 
[335.035]
<no-speech> 
[336.495]
u k ɔ~ p ɣ a~ n e p i 
[337.595]
<no-speech> 
[341.625]
u n ɔ~ ɔ~ s ɛ j j o t a p b a~ m 
[343.095]
<no-speech> 
[344.715]
<sta> <no-speech> m t a v a~ n t a~ m a l g ɣ e s a m t e f ɔ~ t i b a g a j m t e f ɔ~ k a ɣ a~ t m i l d o l a 
[349.785]
<no-speech> 
[352.455]
u k ɔ~ p ɣ a~ n w a k ɔ~ p ɣ a~ n 
[354.165]
<no-speech> 
[355.115]
m e~ <no-speech> m e~ m ɔ~ ʃ ɛ m t a p l w e~ m t a p l w e~ p u k u n j a 
[358.745]
<no-speech> 
[363.915]
b ɔ~ o o k ɔ~ t ɣ ɛ b a a j j o j ɔ~ t i ʒ a~ f ɣ ɛ t m e~ m w e~ p u m o m a~ s a m w ɛ j o ʃ o p a s e j o b a n u a k i z e d e ɣ e s e p s j ɔ~ a~ <no-speech> 
[372.805]
<no-speech> 
[373.885]
m i n i s t ɛ a b a j a k i z e d e ɣ e s e p s j ɔ~ a~ 
[375.745]
<no-speech> 
[376.595]
k u n j a l a n a p s w i v p u n u w ɛ 
[378.095]
<no-speech> 
[384.585]
<sta> m i ʃ e t e k a f ɛ l m e~ m a p ɣ a l b a w ɔ~ l ɔ t m u~ k i a~ n d a~ m i n i s t ɛ a p i t o 
[388.125]
<no-speech> 
[390.305]
<sta> k i a~ n d a~ m i n i s t ɛ l a ʒ i s t i s l a m e~ m m u~ s a l i w a p k a w ɛ l p ɔ t o p ɣ e~ s a v ɛ l n a p k a p a l e n a p k a f ɛ t u b a g a j 
[396.085]
<no-speech> 
[398.435]
<sta> e~ h e~ l a p p l i f a s i l k ɔ~ p ɣ a~ n 
[400.875]
<no-speech> 
[405.735]
<sta> w i s e s a m e~ m o k ɔ~ t ɣ ɛ m w e~ m e~ m m a p b a t m ɣ a~ t ɣ e p ɔ t o p ɣ e~ s m a p b a t p u m w e~ m u t e l a p u m w e~ w ɛ m i ʃ e d e d e p ɣ ɛ s e m i ʃ e k p ɣ a l f ɛ d o s j a~ m n a~ s ɔ t i p l i v i t k e p o s i b 
[414.555]
<no-speech> 
[416.995]
n ɔ~ l ɛ 
[417.555]
<no-speech> 
[418.455]
<sta> j a <no-speech> j a 
[420.215]
<no-speech> 
[422.155]
j a 
[422.525]
<no-speech> 
[424.235]
j ɛ k ɔ~ p ɣ a~ n ɔ~ n ɛ g u p a f ɔ~ n ɛ g g ɔ~ b i w o d e p i w n ɛ g g ɔ~ b i w o u f i n i w i m ɛ t 
[429.375]
<no-speech> 
[431.495]
<sta> m e~ s i m e~ m s i w p a ʒ w e~ n a~ j e~ m e~ u u m ɛ t ɣ a d a w s ɛ l m a~ a l ʃ i t a n a~ b i w o a w i 
[436.705]
<no-speech> 
[439.065]
s e s e u k a p ɣ a l d i m u~ u p a g e~ k ɔ b w i 
[441.495]
<no-speech> 
[443.115]
<sta> e~ h e~ 
[444.425]
<no-speech> 
[449.825]
e~ h e~ 
[450.545]
<no-speech> 
[453.595]
o k e u 
[454.395]
<no-speech> 
[458.225]
<sta> n ɔ~ m p a w ɛ m i ʃ e d e p ɣ ɛ m e~ m m p a ʃ a ʃ e w ɛ l e m p a w ɛ l d e p ɣ ɛ 
[461.685]
<no-speech> 
[464.475]
o s ɛ m n a~ b i w o a 
[465.745]
<no-speech> 
[467.435]
l i n a~ b i w o a 
[468.235]
<no-speech> 
[469.995]
<sta> w a p p ɛ d i ʒ o d i a e~ b e~ n u m ɛ t b u l e j s a f ɛ u p a t e v o j e e~ p e b a~ m 
[478.005]
<no-speech> 
[480.255]
<sta> f ɛ l l a m p a g a~ j e~ m e~ m n ɔ~ 
[482.955]
<no-speech> 
[486.135]
<sta> w ɛ m e~ g a d e n ɔ~ k ɔ~ b j e~ a p a~ t a ʒ j o k a j e d e u b j e~ t w a 
[489.365]
<no-speech> 
[492.425]
a h o k e 
[493.285]
<no-speech> 
[495.205]
<no-speech> 
[496.445]
<no-speech> 
[498.615]
<no-speech> 
[499.035]
<no-speech> 
[499.835]
<sta> b ɔ v ɛ t j ɛ b ɔ ʃ a ɣ j e 
[503.655]
<no-speech> 
[504.705]
<sta> w i t i z a~ m u w l a~ <no-speech> 
[508.755]
<no-speech> 
[509.565]
<no-speech> 
[513.355]
<no-speech> 
[516.675]
<sta> w ɛ m a p m a~ d e l d e m i l d o l a m ɔ~ ʃ ɛ o 
[518.915]
<no-speech> 
[522.495]
<sta> w i s e s a m e~ m w i <no-speech> a p ɣ ɛ s a l ɔ t l ɔ t t i f a~ m 
[528.235]
<no-speech> 
[529.845]
<sta> <laugh> m k ɔ~ n e~ s a p a p a 
[533.205]
<no-speech> 
[534.975]
<sta> e~ b e~ k ɔ m s e m u~ p a w j e k ɔ~ b a~ w w ɛ k ɔ~ b j e~ w g e~ t a~ w ɛ p u m w e~ t a p ɣ a~ n a~ <no-speech> 
[541.685]
<no-speech> 
[544.055]
<sta> m h m 
[544.895]
<no-speech> 
[546.145]
m t a~ d o w w i 
[546.995]
<no-speech> 
[548.805]
<no-speech> 
[549.165]
<no-speech> 
[553.005]
m h m 
[553.615]
<no-speech> 
[556.575]
<sta> a h m ɔ~ ʃ ɛ <laugh> m w ɛ w b a ɣ e <laugh> m w ɛ w ʒ e~ n e~ <laugh> a k b a a j s a 
[562.595]
<no-speech> 
[570.615]
e~ b e~ m a p p ɣ a~ ɔ~ ɥi s a~ n a~ m e~ l i w i 
[572.375]
<no-speech> 
[575.665]
<sta> e~ h <no-speech> 
[576.955]
<no-speech> 
[579.425]
<sta> e~ b e~ b ɔ~ m a p p ɣ a~ s ɛ t n a~ m a p p ɣ a~ s ɛ t u k ɔ~ n e~ l i m e~ m s i m a p f ɛ l m a p ɣ a l a~ t ɣ e l n a~ o t o ɣ i z a s j ɔ~ a~ t u 
[586.635]
<no-speech> 
[587.505]
e~ h 
[588.155]
<no-speech> 
[590.335]
<sta> n ɔ~ s a k f ɛ m o b l i ʒ e p ɣ a~ l s e p a s k e u k ɔ~ n e~ d e p i b a a j l a s ɔ t n a~ t ɣ i b i n a l u m e~ m k i a p a~ t ɛ u m e~ m f ɔ k u m e~ m u ɣ a~ p l i f ɔ m a l i t e s a 
[599.655]
<no-speech> 
[600.280]
