[0.000]
<no-speech> 
[4.595]
a l o 
[5.295]
<no-speech> 
[7.495]
w i a l o 
[8.925]
<no-speech> 
[10.005]
<sta> u f ɔ l t i f i e k a t u g e~ j e~ k ɔ~ s a 
[15.035]
<no-speech> 
[18.165]
e b j e~ m d i w ʃ a t 
[19.915]
<no-speech> 
[23.325]
<hes> o k e k ɔ m a~ w j e 
[26.645]
<no-speech> 
[28.455]
l i l a 
[29.315]
<no-speech> 
[31.205]
m e~ l l a w i b ɔ k o t e m n a~ p a s e w l i 
[34.385]
<no-speech> 
[36.445]
<sta> 
[38.865]
<no-speech> 
[39.995]
k i ʒ a~ w j e l a b a 
[42.195]
<no-speech> 
[43.395]
<sta> l i p a p l i m a l 
[46.795]
<no-speech> 
[48.185]
<sta> d j a z p a p l i m a l n ɔ~ 
[50.425]
<no-speech> 
[51.445]
e~ h e~ a p a m p a t a~ d e w 
[53.055]
<no-speech> 
[55.265]
<hes> u l a u u k a ʃ e 
[57.675]
<no-speech> 
[59.325]
<sta> <hes> o h <no-speech> <hes> e b j e~ o k e e~ h e~ <no-speech> b a~ m p a s e w w a t n a 
[66.675]
<no-speech> 
[69.445]
a l o b ɔ d a 
[70.385]
<no-speech> 
[71.335]
<sta> e l 
[72.015]
<no-speech> 
[74.485]
<sta> k i s a 
[76.385]
<no-speech> 
[79.355]
<sta> l i l a <no-speech> e~ h 
[85.055]
<no-speech> 
[87.055]
<sta> w i 
[89.155]
<no-speech> 
[91.765]
<sta> k i s a 
[93.285]
<no-speech> 
[96.095]
w i u s u d t i n i 
[98.215]
<no-speech> 
[99.945]
<sta> <laugh> l i s u o p a l ɛ w i l ɔ d <no-speech> l i s u o p a l ɛ 
[110.925]
<no-speech> 
[111.865]
<no-speech> 
[112.695]
<no-speech> 
[113.715]

[114.645]
<no-speech> 
[119.545]
l i p a p l i m a l 
[124.785]
<no-speech> 
[127.355]
v o j e n a~ t i k a t s a p u m w e~ n ɔ~ u g e~ a~ p i l 
[130.875]
<no-speech> 
[132.015]
<no-speech> 
[133.525]
<no-speech> 
[135.615]
<no-speech> 
[137.605]
<no-speech> 
[138.475]
k ɔ m a~ w a p f ɛ a l e k ɔ l l a l a 
[140.345]
<no-speech> 
[143.215]
<sta> w a p w a p l a p b a t u u b j e~ w a p b a t l i 
[146.895]
<no-speech> 
[150.565]
<sta> u p a p ʒ a~ m <no-speech> u p a p f i n i 
[154.225]
<no-speech> 
[155.235]
<no-speech> 
[156.425]
<no-speech> 
[158.285]
ɣ a ʃ ɛ l 
[159.985]
<no-speech> 
[160.805]
n u l a w i ɣ a ʃ ɛ l 
[162.705]
<no-speech> 
[164.735]
a l o 
[165.475]
<no-speech> 
[166.845]
<sta> a l o 
[167.495]
<no-speech> 
[168.825]
p e~ 
[169.285]
<no-speech> 
[170.205]
u m e~ m <laugh> 
[175.405]
<no-speech> 
[176.435]
<no-speech> 
[176.845]
<no-speech> 
[178.015]

[179.065]
<no-speech> 
[180.635]
<no-speech> 
[180.995]
<no-speech> 
[185.025]
p a v ɣ e 
[185.855]
<no-speech> 
[188.535]
<sta> k i l ɛ w a p v i n w ɛ m <no-speech> e~ h 
[191.105]
<no-speech> 
[192.015]
<sta> e~ h e~ <no-speech> l i p ɣ a l k ɔ~ p o z e <sta> k i s a e~ h e~ m w a j e~ d e 
[200.665]
<no-speech> 
[201.575]
e~ h e~ 
[203.045]
<no-speech> 
[203.995]
<sta> l i v p a l i 
[206.215]
<no-speech> 
[209.245]
<sta> p i t i t 
[212.185]
<no-speech> 
[213.575]
<no-speech> 
[213.925]
<no-speech> 
[215.395]
<sta> e~ h e~ e t u 
[218.535]
<no-speech> 
[220.575]
<sta> e~ h e~ 
[224.085]
<no-speech> 
[227.805]

[229.525]
<no-speech> 
[231.365]
<no-speech> 
[232.665]
<no-speech> 
[234.685]

[235.075]
<no-speech> 
[237.625]
<sta> <foreign> 
[238.255]
<no-speech> 
[240.405]
<sta> k i j ɛ s k a p p a l e b ɔ k o t e w l a l a 
[242.025]
<no-speech> 
[245.135]
<sta> u p a p v i n i 
[249.395]
<no-speech> 
[250.215]
<sta> w a l e 
[251.015]
<no-speech> 
[251.985]
<sta> e t u 
[255.755]
<no-speech> 
[257.675]
<sta> e~ h e t u <no-speech> h e j 
[263.495]
<no-speech> 
[264.415]
<no-speech> 
[265.325]
<no-speech> 
[266.225]
<sta> <foreign> <foreign> <foreign> 
[268.045]
<no-speech> 
[269.745]
<sta> u w ɛ m a p k u t e k i 
[273.495]
<no-speech> 
[275.295]
<sta> l a l <foreign> <no-speech> l a l <foreign> 
[278.325]
<no-speech> 
[279.275]
<sta> e~ h e~ h <foreign> <foreign> 
[282.875]
<no-speech> 
[283.935]
<sta> k i s a 
[286.385]
<sta> a l o 
[287.765]
e~ h e~ k e l p u d 
[290.345]
<no-speech> 
[296.395]
<no-speech> 
[296.745]
<no-speech> 
[297.905]
<sta> a k i j ɛ s w a p p a l e l a <no-speech> a k i j ɛ s w a p p a l e l a <no-speech> k i s a 
[303.665]
<no-speech> 
[304.575]
<no-speech> 
[307.135]
<no-speech> 
[309.555]
<no-speech> 
[310.435]
<no-speech> 
[312.745]
<no-speech> 
[313.125]
<no-speech> 
[316.195]
m a p k u t e w w i 
[317.325]
<no-speech> 
[319.975]
<no-speech> 
[320.335]
<no-speech> 
[323.775]
<sta> t i u a~ f ɔ m <no-speech> k i ʒ a~ w j e 
[329.065]
<no-speech> 
[330.015]
<no-speech> 
[331.505]
<no-speech> 
[334.145]
m h m 
[335.025]
<no-speech> 
[337.995]
<sta> t i p a j u t <no-speech> o h <no-speech> o k e <no-speech> w i 
[344.765]
<no-speech> 
[347.585]
w ɛ s i w p ɣ a l a 
[348.785]
<no-speech> 
[349.655]
<sta> t a~ n m w e~ <no-speech> t a l ɛ 
[352.385]
<no-speech> 
[355.815]
<sta> e~ h 
[356.555]
<no-speech> 
[357.555]
<sta> h e j 
[359.285]
<no-speech> 
[360.425]
<sta> h e j t a l ɛ m a p p a s e w s ɛ t 
[364.885]
<no-speech> 
[366.315]
<sta> t a l ɛ m a p ʃ ɛ ʃ e j ɔ~ k a p u l i 
[369.155]
<no-speech> 
[371.655]
m a p f ɛ w p a l e a ʃ a d l i 
[374.105]
<no-speech> 
[375.505]
<no-speech> 
[382.065]
<no-speech> 
[383.545]
<sta> 
[394.965]
<sta> m b j e~ w i 
[397.055]
<no-speech> 
[398.515]
<no-speech> 
[398.875]
<no-speech> 
[400.815]
<sta> a l o <laugh> 
[412.495]
<sta> m a k e p ɣ i 
[414.015]
<no-speech> 
[415.735]
<sta> a l o 
[421.485]
<no-speech> 
[422.895]
k ɔ m a~ w j e l a 
[423.915]
<no-speech> 
[424.995]
<sta> <hes> <hes> d a d a 
[428.085]
<no-speech> 
[429.225]
<sta> o h o h 
[431.345]
<no-speech> 
[433.405]
o h o h h e j <no-speech> <sta> w i t e l e f ɔ n u a~ g e~ p w o b l ɛ m 
[441.915]
<no-speech> 
[442.725]
<no-speech> 
[443.115]
<no-speech> 
[444.025]
<sta> l i p a p l i m a l n ɔ~ e u m e~ m <no-speech> l i p a p l i m a l e t ɔ~ t ɔ~ w m t a p m a~ d e p u u l ɔ t ʒ u l i d i m u g e~ j ɔ~ m a d m w a z ɛ l 
[455.995]
<no-speech> 
[456.145]
<no-speech> 
[457.445]
<no-speech> 
[459.935]
<no-speech> 
[460.825]
e~ h e~ l a p f ɛ d e z ɔ d w i t i m u~ n a~ m p a w ɛ w f ɛ b ɔ i s i t l a d i t u 
[467.925]
<no-speech> 
[468.775]
a l o 
[469.155]
<no-speech> 
[470.495]
<sta> <hes> o k e 
[472.135]
<no-speech> 
[475.245]
<sta> p a s e w d j e n a n o k e d j e n a n t e l e f ɔ n n a~ g e~ l ɛ g e~ p w o b l ɛ m <no-speech> k ɛ t 
[482.565]
<no-speech> 
[484.685]
e l i m e n a 
[487.475]
<no-speech> 
[488.325]
<hes> m l a w i s a k g e~ l a 
[490.185]
<no-speech> 
[491.555]
<no-speech> 
[491.925]
<no-speech> 
[493.345]
p a k o u b l i j e w u t k a j m w e~ 
[495.025]
<no-speech> 
[498.935]
<sta> h e j k i b ɔ w ɣ e t e 
[501.235]
<no-speech> 
[502.345]
<sta> b ɔ~ ʃ a k s a m d i m p a s e s i t e m i l i t ɛ w i <no-speech> w i 
[513.435]
<sta> l ɛ k ɔ~ v ɛ i n ɛ w i u k ɔ~ n l e k ɔ l l ɛ k ɔ~ s a 
[517.185]
<no-speech> 
[519.385]
<sta> <hes> e b j e~ l ɛ k ɔ~ s a s i m a~ t ɣ e l e k ɔ l u a m a p w ɛ w 
[527.065]
<no-speech> 
[529.975]
i n ɛ w i 
[530.715]
<no-speech> 
[531.515]
<sta> e~ h e~ 
[533.835]
<no-speech> 
[535.145]
<sta> e~ h 
[536.345]
<no-speech> 
[538.305]
<sta> e s e~ k ɛ <no-speech> e s e~ k ɛ 
[544.435]
<no-speech> 
[545.235]
e p 
[545.655]
<no-speech> 
[546.995]
<no-speech> 
[547.345]
<no-speech> 
[548.405]
<sta> e b j e~ o k e m a p w ɛ w t a~ d e <no-speech> e~ h e~ 
[553.735]
<no-speech> 
[557.345]
<no-speech> 
[558.265]
<no-speech> 
[559.295]
<sta> e b j e~ j ɔ~ g w o t u p a p a w a p f ɛ m s u d <no-speech> e~ h w a p f ɛ m s u d w i 
[565.385]
<no-speech> 
[567.135]
<sta> w a p f ɛ m s u d <no-speech> e~ h e~ 
[570.745]
<no-speech> 
[572.135]
<sta> b ɔ l a k ɣ a z 
[573.965]
<no-speech> 
[575.335]
<sta> <hes> <no-speech> t u b a g a j a~ f ɔ m 
[579.585]
<no-speech> 
[582.055]
<sta> s a w a p ɣ e g l e a l e k ɔ l l a l a 
[584.065]
<no-speech> 
[584.875]
<sta> u p ɣ a l k ɔ~ p o z e n e v j ɛ m n a~ l a w i 
[589.775]
<no-speech> 
[591.225]
<sta> u p a ɣ e 
[592.885]
<no-speech> 
[593.685]
<sta> u p a p ɛ <no-speech> u p a p ɛ <no-speech> a z i b e 
[600.085]
<no-speech> 
[600.220]
