[0.000]
<no-speech> 
[0.485]
a l o e f e ɣ a 
[1.535]
<no-speech> 
[2.545]
<sta> j ɛ w i j o <no-speech> <foreign> <no-speech> <foreign> <no-speech> e k ɔ m a~ u w ɛ m u~ j o l ɔ t b ɔ a 
[9.865]
<no-speech> 
[11.725]
a~ b e~ a~ b e~ s a v l e d i b ɔ b ɔ k i l ɛ u k a ɣ a~ t ɣ e k ɔ~ s a 
[15.025]
<no-speech> 
[21.125]
<sta> u b j e~ e b j e~ e b j e~ m w e~ m e~ m m p ɔ k ɔ m w e~ p ɔ k ɔ k ɔ~ n e~ k i l ɛ m a p a~ t ɣ e n ɔ~ p a p a 
[25.895]
<no-speech> 
[28.945]
b ɔ ʒ e d i <no-speech> <sta> e <oov> <no-speech> k ɔ m a~ u w ɛ p ɛ p ɛ p u m w e~ 
[34.015]
<no-speech> 
[36.545]
<sta> e~ h e~ 
[37.455]
<no-speech> 
[40.185]
<sta> a~ e b j e~ e b j e~ d i w e~ n d i k ɔ~ s a s i l p o t e b a g a j l a p u m w e~ t a~ d e 
[44.775]
<no-speech> 
[47.665]
e~ h e~ <int> 
[48.525]
<no-speech> 
[50.015]
<sta> k o t e k o t e k o t e k o t e k o t e m a~ m a~ m 
[53.895]
<no-speech> 
[56.305]
<sta> e b j e~ <no-speech> k i s a w a p f ɛ l a a 
[62.305]
<no-speech> 
[64.245]
<sta> e b j e~ <hes> e b j e~ s e s a p u f ɛ m w e~ m a p t a~ n l ɛ m f e~ k ɔ~ p o z e p u m w e~ k a p a b a~ t ɣ e 
[68.285]
<no-speech> 
[69.765]
<sta> e b j e~ <no-speech> d i l k ɔ~ s a m a p v i n i t a~ d e k i t e t u s a k i ʃ o 
[81.135]
<sta> j o j o s i m a p p a l e b a g a j s e ɣ j e a k e w f ɔ w p ɣ a~ l u s e ɣ j e <foreign> 
[86.245]
<no-speech> 
[87.185]
<no-speech> 
[87.685]
<no-speech> 
[88.665]
a~ s a u d i <sta> 
[90.355]
<no-speech> 
[92.675]
<sta> m ɔ~ ʃ ɛ m w ɛ m w e~ m w e~ w ɛ s a j i l l a w i p a s k e s a j i l a p f ɛ m a d i ʃ ɔ~ s a j i l p a v l e e t i d j e p u l a l k ɔ~ p o z e m i s j e p ɣ a l k ɔ~ p o z e n a~ b a k a l o ɣ e j a <foreign> m i s j e p a v l e e t i d j e m e~ m n ɔ~ n ɛ g 
[104.355]
<no-speech> 
[105.285]
<breath> a~ <sta> 
[107.355]
<no-speech> 
[108.465]
w e~ n d i 
[109.285]
<no-speech> 
[110.725]
<sta> d i d i m i s j e k ɔ~ s a s a j i l t e b a~ m d e s a~ d o l a p u m w e~ b a l m a p p ɣ e t e s a~ d o l a l a d a~ l 
[115.095]
<no-speech> 
[118.925]
<sta> a~ b e~ a~ b e~ 
[122.405]
<no-speech> 
[123.235]
b ɛ s o <int> 
[124.315]
<no-speech> 
[125.645]
d i b ɛ s o k ɔ~ s a <hes> <sta> d i b ɛ s o k ɔ~ s a <no-speech> d i b ɛ s o <no-speech> u t a~ d e w a p t a~ d e d i b ɛ s o z e l o d i k ɔ~ s a p a p a p a l e a k l i d e b a g a j k ɔ~ s a a~ k ɔ 
[137.135]
<sta> u t a~ d e <no-speech> j a a~ o k e s a v l e d i s a v l e d i u w ɛ u w ɛ l ɔ t b ɔ a n ɔ m a l 
[144.585]
<no-speech> 
[150.435]
<int> v a v a v a 
[151.925]
<no-speech> 
[153.045]
v a v a a j ʃ a~ p e~ 
[154.255]
<no-speech> 
[158.125]
s a k i g e~ 
[158.985]
<no-speech> 
[162.705]
e m w e~ <no-speech> g e~ k u ɣ a~ g e~ k u ɣ a~ l ɔ t b ɔ a 
[165.815]
<no-speech> 
[167.565]
<no-speech> 
[168.695]
<no-speech> 
[169.785]
e~ b e~ s a v l e d i t u b a g a j n ɔ m a l <sta> 
[171.935]
<no-speech> 
[175.245]
<sta> j o 
[177.055]
<no-speech> 
[180.855]
<sta> m a ʃ i n m a ʃ i n m a ʃ i n ʒ o a v i n i 
[183.845]
<no-speech> 
[185.455]
<breath> e~ b j e~ o k e 
[187.765]
<no-speech> 
[194.825]
d i d i <sta> g i ʃ a k ɔ~ s a d i g i ʃ a k ɔ~ s a k i t e k i t e p u m w e~ l a d a~ t a~ d e <no-speech> d i g i ʃ a p u m w e~ d i g i ʃ a p u m w e~ k i t e l a d a~ p u m w e~ 
[203.475]
<no-speech> 
[209.165]
<no-speech> 
[210.105]
<no-speech> 
[211.045]
d i t i p a p u <sta> k ɔ~ d i t i p a p u k ɔ~ s a g ɔ~ s e ɣ i d e b a g a j f ɔ l p a f ɛ p a s k e e g ɣ a~ m u~ l i j e 
[215.175]
<no-speech> 
[217.345]
s a s a v l e d i f ɔ n u p o z e a k ɔ~ s e ɣ i d e b a g a j w i m e s j e 
[220.755]
<no-speech> 
[225.305]
j a <no-speech> j a <int> 
[227.415]
<no-speech> 
[228.955]
a~ b e~ 
[229.575]
<no-speech> 
[230.755]
a~ b e~ <sta> a~ b e~ l ɛ m f e~ k ɔ~ p o z e m a p v i n i w i 
[233.585]
<no-speech> 
[236.145]
<no-speech> 
[237.075]
<no-speech> 
[237.945]
e s a n a p k i t e <no-speech> <sta> s a n a p k i t e 
[241.135]
<no-speech> 
[250.055]
e k o m i n j ɔ~ <no-speech> e k o m i n j ɔ~ <no-speech> e 
[252.345]
<no-speech> 
[254.305]
j a 
[255.015]
<no-speech> 
[256.945]
<no-speech> 
[257.545]
<no-speech> 
[260.505]
a~ b e~ 
[261.285]
<no-speech> 
[262.425]
p a g e~ p w o b l ɛ m 
[263.545]
<no-speech> 
[265.055]
s a v l e d i t u s a k i ʃ o n a p f ɛ j o <no-speech> <sta> l a b a d i 
[269.305]
<no-speech> 
[271.065]
e b j e~ 
[271.805]
<no-speech> 
[273.045]
<sta> e b j e~ s i ʃ u ʃ u b a j p i b ɔ~ n a p ɣ a l e 
[278.775]
<no-speech> 
[281.625]
m i ʃ e <no-speech> m i ʃ e d i d e p i d e p i d e p i m a p m e t e g a z <sta> l a p b ɔ~ m m a ʃ i n n a~ s a v l e d i 
[286.635]
<no-speech> 
[288.315]
s a v l e d i l ɛ m a p a~ s a v l e d i l ɛ m a p a~ t ɣ e m a p t u v i n a k m a ʃ i n n a~ ɔ~ f w a w i 
[291.525]
<no-speech> 
[292.805]
j a 
[293.365]
<no-speech> 
[295.175]
ɔ~ p a t f e~ n d ɛ 
[296.165]
<no-speech> 
[299.095]
p a t p a t f e~ n d ɛ l i <no-speech> a~ 
[301.485]
<no-speech> 
[304.745]
s a v l e d i 
[305.395]
<no-speech> 
[307.155]
<laugh> e b j e~ o <no-speech> e b j e~ <sta> a~ b e~ a~ b e~ s a v l e d i d e p i d e p i u v l e d e p i w v l e s e m i z i k s a a n u p a s e n a p p a s e l 
[314.355]
<no-speech> 
[316.545]
<hes> e k ɔ m a~ u w ɛ n ɛ g j o p u m w e~ 
[319.695]
<no-speech> 
[322.895]
<sta> e~ h e~ 
[324.765]
<no-speech> 
[327.445]
b ɛ s o <no-speech> e~ b e~ d i b ɛ s o <sta> e~ b e~ d i b ɛ s o l ɛ m a~ t ɣ e n a f ɛ t u s a k i b ɔ~ 
[332.505]
<no-speech> 
[334.865]
s a v l e d i s a v l e d i f ɔ n u p o z e n u ɔ~ ʒ a~ l a a p u n u w ɛ k ɛ k ʒ u w i p a p a 
[338.085]
<no-speech> 
[342.105]
<sta> a m w e~ m p a t ʃ e k e b ɔ b a g a j s a j o m ɔ~ ʃ ɛ k u n j e a u k ɔ~ n e~ <hes> u k ɔ~ n e~ m a l k ɔ~ p o z e 
[346.035]
<no-speech> 
[347.105]
m a p ɣ a l k ɔ~ p o z e n a~ b a k a l o ɣ e j a m ɔ~ ʃ ɛ e g z a m e~ e g z a m e~ ɣ a~ m m a p <sta> p ɣ e p a ɣ e m ɔ~ ʃ ɛ 
[351.585]
<no-speech> 
[353.325]
s a v l e d i u k ɔ~ n t u s a j o b ɔ~ p u ɣ e g l e <sta> s a j i l s a j i l l i l i p a ʒ a~ m v l e e t i d j e t u l a ʒ u n e~ m a p g u m e~ a k m i s j e m i s j e p a ʒ a~ m v l e e t i d j e n ɔ~ n ɛ g 
[359.745]
<no-speech> 
[361.325]
m i s j e <oov> <no-speech> v a k a b ɔ~ m i s j e j e m ɔ~ ʃ ɛ m a p d i m i s j e b a t p u l i e t i d j e p u w ɛ s i l a k i t e s a <sta> m i s j e s e m w ɛ l a p k u ɣ i d ɛ j ɛ j 
[369.335]
<no-speech> 
[372.115]
t a j e l w i 
[372.965]
<no-speech> 
[374.035]
e~ b e~ d i m i s j e e s e j e p o z e l n a~ ɔ~ s a~ s p u w ɛ k i ʒ a~ l a ʒ e ɣ e b a g a j j o <int> 
[377.635]
<no-speech> 
[383.225]
s a v l e d i <sta> s a s a s a <oov> s a v l e d i m w e~ w ɛ v a v a l a m w e~ p a k ɔ~ n m w e~ p a k ɔ~ n s a l a p f ɛ 
[388.955]
<no-speech> 
[390.345]
m w ɛ v a v a l a w i 
[391.535]
<no-speech> 
[394.125]
<sta> a~ b e~ d i m a a~ b e~ l ɛ m w e~ w ɛ l ɛ m ɣ i v e l a k a j l a m a p d i m i s j e p a g e~ k u ɣ a~ 
[398.965]
<no-speech> 
[404.265]
<sta> a~ b e~ s a v l e d i s a v l e d i l ɛ m v i n a k e k ɔ b l a s a n a p f ɛ m e~ m 
[409.605]
<no-speech> 
[411.465]
<no-speech> 
[412.305]
<no-speech> 
[417.705]
<no-speech> 
[418.755]
<no-speech> 
[420.505]
p e j e m a ʃ i n n a~ <sta> 
[423.095]
<no-speech> 
[424.005]
<no-speech> 
[424.365]
<no-speech> 
[425.375]
m w e~ g e~ m w e~ m w e~ m w e~ g e~ j ɔ~ m a ʃ i n w i 
[428.705]
<no-speech> 
[429.585]
j a <sta> 
[430.945]
<no-speech> 
[435.515]
<no-speech> 
[436.965]
<no-speech> 
[439.105]
a a~ b e~ a~ b e~ s a v l e d i s i s i s i l a p d i s a v l e d i b a g a j l a p a s e ɣ j e 
[444.125]
<no-speech> 
[447.995]
<sta> s a u d i 
[449.825]
<no-speech> 
[451.305]
<sta> <foreign> k ɛ s b j ɛ a~ b e~ e~ b j e~ p a g e~ p w o b l ɛ m a~ b e~ e b j e~ p a g e~ p w o b l ɛ m s a v l e d i t u s a n a p f ɛ a n a p f ɛ j o a~ t ɛ t f ɣ ɛ t p u w ɛ k ɔ m a~ n a ʒ e ɣ e j o <breath> 
[460.265]
<no-speech> 
[462.185]
a~ <no-speech> j a 
[463.685]
<no-speech> 
[467.095]
<sta> e b j e~ v a v a v a v a d i m a d a~ m l i m a d a~ m a j l a w i s a v l e d i l a p f ɛ l a p ɣ a l e l a p ɣ a l e a k m a d a~ m a j w i 
[475.255]
<no-speech> 
[479.005]
m i s j e d i k ɔ~ s a s e j ɔ~ e ɣ ɛ s a v l e d i s a p a p p a s e a~ k ɔ <sta> 
[483.525]
<no-speech> 
[486.505]
e m t a~ d e m i s j e d i t a l ɛ k ɔ~ s a l a p ɣ a l m a ɣ j e w i 
[489.595]
<no-speech> 
[492.165]
<no-speech> 
[493.225]
<no-speech> 
[494.395]
s a u d i 
[495.125]
<no-speech> 
[496.325]
a k a s a~ 
[497.285]
<no-speech> 
[498.185]
<sta> a~ b e~ d i m w e~ l ɛ m l e v e ʃ a k m a t e~ l ɔ t b ɔ a n a p b w ɛ a k a s a~ m ɔ~ ʃ ɛ 
[502.825]
<no-speech> 
[505.215]
s a v l e d i 
[506.025]
<no-speech> 
[507.405]
j a 
[507.985]
<no-speech> 
[509.635]
p a p g e~ p w o b l ɛ m m a~ ʒ e 
[511.375]
<no-speech> 
[512.345]
<sta> u w ɛ a k t j ɛ l m a~ l a a <no-speech> u w ɛ u w ɛ a k t j ɛ l m a~ l a a 
[516.055]
<no-speech> 
[516.865]
m w ɛ m w ɛ <hes> m w ɛ s a j i l a p p a s e ʒ i s b ɔ l ɔ t b ɔ a a k e m a d a~ m a j 
[521.815]
<no-speech> 
[523.835]
<no-speech> 
[524.315]
<no-speech> 
[527.805]
ɛ p ɔ t l a j o d e m e~ s i d j e d e m e~ s i d j e v l e m a p p ɣ a~ v ɔ l s a v l e d i 
[531.885]
<no-speech> 
[532.705]
m a~ m a~ m m a~ m a~ m m a~ m a~ m f e~ f ɛ ɣ e z ɛ v a s j ɔ~ p u m w e~ m p a k a p a a l e <foreign> 
[536.795]
<no-speech> 
[538.005]
<no-speech> 
[538.955]
<no-speech> 
[541.865]
a~ 
[542.515]
<no-speech> 
[544.265]
s a v l e d i m w e~ p ɔ k ɔ m w e~ p ɔ k ɔ m w e~ p ɔ k ɔ k ɔ~ f i m e <no-speech> s a v l e d i s e l ɛ s e l ɛ m s e l ɛ m ɣ i v e m a p k ɔ~ n e~ n a~ k i a v j ɔ~ 
[551.525]
<no-speech> 
[555.145]
k i s a u d i 
[556.795]
<no-speech> 
[560.145]
o k e <sta> m w e~ g e~ j ɔ~ t a <no-speech> m w e~ g e~ j ɔ~ t a <no-speech> m w e~ g e~ 
[564.715]
<no-speech> 
[565.585]
m a p m w e~ g e~ j ɔ~ t a b l ɛ t m w e~ t a p <sta> s ɛ v i a~ s a~ m a v ɛ l m a p p o t e l p u u t a~ d e 
[569.415]
<no-speech> 
[572.645]
m a p p o t e t u s a k i ʃ o s a v l e d i 
[574.355]
<no-speech> 
[575.385]
k i s a u d i <no-speech> a~ 
[577.495]
<no-speech> 
[580.695]
<sta> s a v l e d i b ɔ~ <hes> s e p a k u z e~ a~ m u j e 
[583.815]
<no-speech> 
[586.185]
<sta> a~ b e~ <no-speech> a~ a~ b e~ d o u k ɔ~ n e~ k u z e~ a~ m u j e m ɔ~ ʃ ɛ d e p i l ɔ~ t a~ n u t e n u t e a l ɛ z a j i t i m ɔ~ ʃ ɛ s a v l e d i 
[593.215]
<no-speech> 
[596.445]
m ɔ~ ʃ ɛ s a v l e d i m p a g a~ p i l k ɔ b s a v l e d i u k ɔ~ n e~ n ɛ g t u ʒ u a p ɣ a l n a~ t i 
[600.020]
