[0.000]
<no-speech> 
[0.625]
<sta> j ɛ <no-speech> w i k ɔ m a~ w u j e ʃ ɛ f 
[9.975]
<no-speech> 
[11.345]
<sta> 
[16.215]
<no-speech> 
[18.395]
a h <no-speech> m p a v i n <no-speech> m p a t a~ d e w u m e~ m 
[24.685]
<no-speech> 
[25.875]
w i <sta> 
[27.425]
<no-speech> 
[29.745]
<sta> s e u k p u k ɔ~ n e~ m p a n a~ p a l e a k n e~ n e~ s e a v ɛ w m p a l e l ɛ f e~ w a p d i n e~ n e~ t a p v l e p a l e a v ɛ m 
[36.695]
<no-speech> 
[39.055]
<no-speech> 
[41.325]
<no-speech> 
[43.745]
e <hes> k ɔ m a~ <hes> k ɔ m a~ b e b e a j e 
[49.375]
<no-speech> 
[50.245]
<sta> l i f i n t i ɣ e t u l ɛ t k i n a~ m a~ m a~ a~ 
[57.285]
<no-speech> 
[58.375]
<no-speech> 
[58.725]
<no-speech> 
[60.055]
<sta> f i n t i ɣ e t u l ɛ k i n a~ m a~ m a~ a~ <laugh> 
[67.405]
<no-speech> 
[69.305]
<no-speech> 
[70.445]
<no-speech> 
[71.615]
<sta> a~ k ɔ m a~ s a f ɛ t 
[74.875]
<no-speech> 
[81.665]
g a d e ɛ s k e w a p k a a l e d e m f ɛ <hes> s ɛ t i f i k a d e b ɔ n v i e m ɛ s l a 
[90.915]
<no-speech> 
[93.365]
<sta> s ɛ t i f i k a d e b ɔ n v i e m ɛ s l a <no-speech> p a s k e <no-speech> m g e~ j ɔ~ 
[99.795]
<no-speech> 
[100.985]
m w e~ g e~ m w e~ g e~ <no-speech> p u m ɣ e t u n e~ f ɛ p j ɛ s j o a~ k ɔ <no-speech> s a v l e d i m p ɣ a l b e z w e~ p u w e d e m n a~ s a~ s s a <no-speech> <sta> 
[112.835]
<no-speech> 
[113.555]
<no-speech> 
[115.985]
<foreign> 
[116.455]
<no-speech> 
[117.515]
m w e~ p a p ɣ a l a v ɛ k n ɛ g n ɔ~ <no-speech> s o f s i w a p k a ɣ a~ n m w e~ s ɛ v i s l a <no-speech> p u w u ɣ a~ n m w e~ l 
[122.155]
<no-speech> 
[125.525]
e~ b e~ o k e 
[126.585]
<no-speech> 
[127.485]
<sta> e k ɔ m a~ k a w a ʃ l a a p m a ʃ e 
[134.385]
<no-speech> 
[138.015]

[138.505]
<no-speech> 
[139.925]
k ɔ~ b j e~ d w u m d l o w u p ɣ a~ d e ʒ a p u k a w a ʃ l a 
[146.955]
<no-speech> 
[151.745]
<no-speech> 
[152.115]
<no-speech> 
[153.355]
<sta> <hes> <hes> u n a~ n ɛ g s a t u ʒ u 
[156.915]
<no-speech> 
[160.605]
<sta> <laugh> a m t u ʒ u a p ɣ a~ s e 
[168.515]
<no-speech> 
[169.905]
<sta> e~ h 
[173.335]
<no-speech> 
[174.405]
<no-speech> 
[174.835]
<no-speech> 
[176.185]
<sta> w i ɛ s k e w u t u ʒ u a p ɣ a~ s e 
[179.515]
<no-speech> 
[180.785]
<no-speech> 
[181.205]
<no-speech> 
[182.525]
<no-speech> 
[182.915]
<no-speech> 
[183.905]
e k i l ɛ w a p f ɛ j ɔ~ v i ɣ e l ɔ t b ɔ a <no-speech> p ɔ t o p ɣ e~ s 
[189.555]
<no-speech> 
[194.745]
e <sta> s e p l i s a k o z d e f i a u k a a l e o s j ɔ~ <laugh> d i m n ɔ~ 
[199.155]
<no-speech> 
[200.125]
<no-speech> 
[200.545]
<no-speech> 
[201.655]
ɛ s k e s e a v ɛ k ɛ s k e s e a k o z d e f i a k f ɛ u p a p k a a l e o s i n ɔ~ s a k i f ɛ u p a p k a a l e <no-speech> ɛ s k e s e f i k t e m a~ d e w u b a g a j l a k i f ɛ l a k i f ɛ u p a k a a l e m d i w u 
[213.045]
<no-speech> 
[213.865]
<no-speech> 
[215.815]
<no-speech> 
[216.585]
<no-speech> 
[218.195]
<no-speech> 
[219.145]
<no-speech> 
[220.915]
<sta> p a d i m u g e~ t a~ ɣ e t i ɣ e k ɔ w u n ɔ~ <no-speech> e~ h <no-speech> o k e 
[232.715]
<sta> <no-speech> o k e m e~ <no-speech> s e p u s i s p a~ n b a j m a~ t i w i p a p a 
[244.435]
<int> w a p m a w ɔ~ <hes> u p a~ s e s e k ɔ~ s a <no-speech> ʃ a k t a~ b a j <hes> ʃ a k t a~ b a j m u~ m a~ t i a p ɣ e s a u m a w ɔ~ 
[254.035]
<no-speech> 
[255.485]
<sta> <no-speech> m a~ t i <no-speech> ɔ u p a k ɔ~ n b a j m u~ m a~ t i <no-speech> a h m ɔ~ ʃ ɛ p a f ɛ s a n ɔ~ p a t n ɛ 
[262.855]
<no-speech> 
[263.765]
<no-speech> 
[265.385]
<no-speech> 
[266.375]
<sta> <hes> <no-speech> ɛ s k e s e l a v i d i a k f ɛ <no-speech> ɛ s k e s e l a v i d i a k f ɛ s a o s i n ɔ~ <no-speech> s e <hes> 
[274.525]
n ɛ g n u t e v i n <sta> 
[283.275]
<no-speech> 
[284.735]
<no-speech> 
[285.185]
<no-speech> 
[286.245]
<no-speech> 
[286.605]
<no-speech> 
[289.985]
b a g a j s a j o k a ʃ a~ ʒ e 
[291.865]
<no-speech> 
[295.015]
<no-speech> 
[295.455]
<no-speech> 
[300.205]
<sta> o k e 
[301.045]
<no-speech> 
[303.405]
<no-speech> 
[308.015]
<no-speech> 
[309.185]
a h b ɔ~ <no-speech> m e~ s e s a n u s e s a t u m u~ t a s w e t e 
[313.295]
<no-speech> 
[314.595]
m e~ l ɛ u g a d e s e p a s a l j e 
[317.485]
<no-speech> 
[318.455]
<no-speech> 
[321.135]
<no-speech> 
[322.895]
<no-speech> 
[324.015]
<no-speech> 
[325.895]
<no-speech> 
[326.935]
<no-speech> 
[328.105]
<no-speech> 
[329.725]
<no-speech> 
[330.855]
<no-speech> 
[331.205]
<no-speech> 
[332.005]
<no-speech> 
[332.375]
<no-speech> 
[335.735]
<hes> 
[336.295]
<no-speech> 
[337.215]
<sta> f ɣ a~ ʃ m a~ ʃ a k f w a m ɣ e f l e ʃ i a k b a g a j s a j o t ɛ t m w e~ f ɛ m m a l 
[348.285]
<no-speech> 
[360.195]
<sta> <no-speech> j a j ɔ~ t i j ɔ~ t i ʒ a~ a m e l j o ɣ e 
[364.945]
<no-speech> 
[365.965]
<sta> p a s k e m p a k a ʃ e d i w u p a t i z a~ <no-speech> l ɛ j ɔ~ n ɛ g 
[376.995]
t u u p a g e~ a~ j e~ w a p f ɛ b a g a j l a d i u p a k ɔ~ n e~ b ɔ~ u n ɛ g u ʒ ɛ n g a s ɔ~ ʃ a k ʒ u w l e v e w ʃ i t a u p a p f ɛ a~ j e~ b a g a j l a d i <no-speech> e g e~ b u ʃ 
[387.185]
f ɛ w u m a~ ʒ e g e~ d e s e ɣ i d e b a g a j f ɛ w u f ɛ j o 
[389.955]
<no-speech> 
[392.935]
<no-speech> 
[396.415]
<no-speech> 
[397.325]
e p i s a k p i d i a d ɛ f w a n ɛ g k a t ɣ a v a j s e ʒ w e~ n u p a ʒ w e~ n 
[401.915]
<no-speech> 
[404.355]
<sta> w ɛ 
[406.715]
<no-speech> 
[411.265]
w i 
[411.885]
<no-speech> 
[412.775]
<no-speech> 
[414.215]
<no-speech> 
[415.595]
<sta> m a p ɛ s k e j ɔ~ l ɛ b a g a j s a a p ʃ a~ ʒ e k i j ɛ s k a p <no-speech> k a p e s e j e p a~ s e a k ʒ ɛ n j o <no-speech> a~ t u l ɛ k a m p a v l e f ɛ <prompt> 
[427.515]
t w ɔ p k ɔ m a~ t ɛ s u s a <no-speech> p a s k e <sta> 
[436.605]
<no-speech> 
[439.955]
<sta> <no-speech> b ɔ~ m t a s w e t e s a <no-speech> p a s k e m p a k a ʃ e d i u b ɔ~ m w e~ m e~ m p u t ɛ t p a m m ɔ~ ʃ ɛ s e b a g a j u w ɛ s e m w e~ s ɛ l k a p l i t e p u t ɛ t p a m <foreign> 
[451.645]
<sta> b ɔ~ <no-speech> w i s e k i s a 
[463.005]
k i s a <hes> n ɛ g j o a p f ɛ b ɔ l a k a j l a l a <no-speech> j o p a p f ɛ a~ j e~ <no-speech> o k e 
[473.665]
a h a~ b e~ <no-speech> n ɛ g o b l i ʒ e <no-speech> p a o k i p e u m ɛ t t a~ n m w e~ w i <no-speech> m p ɣ a l v i n <no-speech> p u s e d e t w a b u w ɛ t d l o <no-speech> m a p v i n i 
[484.935]
<sta> u t a~ d e 
[487.045]
<no-speech> 
[488.015]
o k e <no-speech> <foreign> <no-speech> p a s k e f ɔ k u t ɣ a v a j w i <no-speech> p u w u m a~ ʒ e 
[492.735]
<no-speech> 
[493.715]
<no-speech> 
[499.555]
<no-speech> 
[502.005]
<sta> a h <no-speech> n ɛ g j o n ɛ g j o p a~ s e ʃ a k ʒ u l e v e b w ɛ k l e ɣ e~ p a b a g a j p a <prompt> p a ʒ a~ m ɣ e g l e a~ j e~ 
[513.415]
<no-speech> 
[518.765]
<no-speech> 
[519.115]
<no-speech> 
[521.645]
s e p i g w o <oov> <no-speech> j a s e p i g w o <no-speech> s e p i g w o p w o b l ɛ m p e j i a s a w i <sta> 
[533.295]
<sta> b ɔ~ ʒ ɛ n j o d ɛ f w a j o l a g e <no-speech> t a~ k u n a~ b w ɛ k l e ɣ e~ f i m e~ j o p a g e~ j o p a g e~ a~ j e~ j a p f ɛ s e t u n ɔ m a l 
[542.105]
<no-speech> 
[543.365]
<sta> a h <no-speech> m e~ <no-speech> f ɔ k u p o t e k ɔ~ s ɛ j b a j n ɛ g j o w i 
[555.165]
<no-speech> 
[557.715]
<no-speech> 
[558.895]
<sta> a p l i k e j o <no-speech> o k e <no-speech> p a s k e l i p a b ɔ~ d i t u l ɛ j ɔ~ n ɛ g l e v e ʃ a k ʒ u 
[570.375]
<foreign> u p a p f ɛ a~ j e~ s i w u g e~ j ɔ~ p o s i b l i t e s e k l e ɣ e~ w u b w ɛ u p a p a~ s e a v ɛ k j ɔ~ a v n i <no-speech> <foreign> b a g a j s a j o p a b ɔ~ d i t u <no-speech> f ɔ k n ɛ g j o ʃ a~ ʒ e m a~ t a l i t e <no-speech> p a s k e 
[581.815]
<sta> a v n i p e j i a s e n a~ ʒ e n ɛ s l a ɛ l j e 
[588.125]
<no-speech> 
[592.555]
<no-speech> 
[592.925]
<no-speech> 
[595.105]
<sta> m e~ m ɣ e t <no-speech> m e~ m ɣ e t 
[600.000]
