[0.000]
<sta> <no-speech> a l o <no-speech> w i <no-speech> b ɔ~ s w a 
[11.375]
<sta> m w e~ <hes> k ɔ m a~ <no-speech> m w e~ b j e~ m ɛ s i e u m e~ m <no-speech> 
[22.245]
<sta> w i <no-speech> s e n o w a w i s e k i j ɛ s <no-speech> s e n o w a <no-speech> s e k i j ɛ s <no-speech> 
[34.115]
<sta> <no-speech> a h b ɔ~ <hes> <hes> o k e <no-speech> k ɔ m a~ 
[46.075]
<sta> <no-speech> m p a t a~ d e s a w u d i m n a~ p a l e p i f ɔ <no-speech> <sta> n ɔ~ 
[57.835]
<sta> <overlap> <foreign> <foreign> ʒ e <foreign> a~ <foreign> m e~ ɔ~ <foreign> <no-speech> <overlap> n u k a p a l e w i <prompt> m w e~ m e~ m a k m ɛ l n u k a p a l e w i 
[68.325]
<sta> <no-speech> m n a~ b i s <no-speech> w i <no-speech> w ɛ <no-speech> u k a p a l e w i 
[80.055]
<sta> <no-speech> k ɔ m a~ <no-speech> 
[91.955]
<overlap> <hes> o k e <overlap> <no-speech> b j e~ m ɛ s i u p a d i m k i ʒ a~ w u ɣ e l e n ɔ~ u m e~ m 
[103.265]
<sta> <overlap> u p a d i m k i ʒ a~ w u ɣ e l e g e~ e~ f ɔ m a s j ɔ~ d e m w e~ u k ɔ~ n n ɔ~ ɛ m <no-speech> k ɔ m a~ <hes> d e ʒ a u g e~ a~ p i l e~ f ɔ m a s j ɔ~ d e m w e~ p i s k e w u k ɔ~ n n ɔ~ ɛ m <hes> <foreign> k ɔ~ t <no-speech> m w e~ m e~ m s e d i f e ɣ a~ 
[115.235]
<sta> m w e~ m p a k ɔ~ n n ɔ~ w u <no-speech> k ɔ m a~ <no-speech> 
[126.295]
ɛ s k e <no-speech> u m a~ d e ɛ m k i s a <no-speech> ɛ <foreign> <foreign> <foreign> n ɔ~ <prompt> <foreign> k ɔ~ n e~ m ɔ~ n ɔ~ ʒ e t e k ɔ~ n e~ <sta> 
[137.845]
<overlap> <overlap> <foreign> <foreign> ʒ a~ t i d e m e <foreign> <prompt> <sta> 
[149.685]
<sta> <foreign> p a t a~ d e d ɔ~ k <foreign> <foreign> p a l e <foreign> f ɔ <no-speech> <foreign> p a t a~ d e <foreign> <foreign> t e <foreign> d e d i 
[158.425]
<no-speech> 
[159.395]
<sta> <hes> ɛ n s t i ɣ e~ <foreign> p a <foreign> f ɣ ɛ d e v a l e ɣ i <no-speech> <sta> a h b ɔ~ b ɔ~ <no-speech> 
[171.045]
n ɔ~ <overlap> <no-speech> p a t ɣ i k <no-speech> n ɔ~ m p a p ɣ e n ɔ~ s e p a s k e m e t o n e u ɣ e l e ɛ m u d i m k ɔ~ n 
[182.215]
<sta> w i <foreign> <foreign> f ɣ ɛ d e v a l e ɣ i <no-speech> d ɔ~ k k a <foreign> a~ <foreign> n ɥi <no-speech> 
[193.495]
<sta> o k e ʒ e <foreign> <no-speech> ʒ e <foreign> <no-speech> w i u t e s a~ b l e l w i <no-speech> 
[203.615]
<sta> <hes> o k e ʒ e <foreign> <sta> k ɔ m a~ <sta> 
[215.155]
<sta> <no-speech> w ɛ <no-speech> m w e~ s o t n a~ l a k u <no-speech> 
[226.595]
<sta> k i a~ k ɛ t l a p m e~ n e~ 
[238.015]
<sta> k i a~ k ɛ t l a p m e~ n e~ <no-speech> <sta> 
[249.465]
<sta> <no-speech> <hes> <hes> o k e o k e <no-speech> w i m <hes> t a~ d e s a v ɣ ɛ m a~ <no-speech> 
[260.815]
<sta> <no-speech> o k e <no-speech> 
[269.835]
<sta> <no-speech> d a k ɔ <no-speech> <hes> <no-speech> m w e~ m e~ m <no-speech> <hes> 
[281.565]
<sta> a j i t i a j i t i <no-speech> a j i t i <no-speech> a j i t i <no-speech> w i a j i t i m l e k ɔ l <no-speech> 
[293.535]
<sta> <overlap> u w ɛ <no-speech> <hes> <hes> m w e~ p e a p d i w u n a~ l e k ɔ l l a <sta> 
[305.095]
m w e~ p e a p d i w u n a~ l e k ɔ l l a <no-speech> <sta> n ɔ~ m p a p d i w u <no-speech> p u a~ j e~ m ʒ i s p a p d i w u 
[315.505]
<no-speech> 
[316.455]
<sta> <no-speech> <hes> <no-speech> k ɔ m a~ 
[327.415]
<sta> <overlap> m p a d i s a ʒ i s k a p ɣ e z a~ <no-speech> s o n e p u m w e~ <foreign> <foreign> <foreign> <female-to-male> m p a d i n ɔ~ 
[337.355]
v a l e ɣ i p a k ɔ~ n e~ <no-speech> p a s k e m p a t d i l <no-speech> k u t e a l o 
[348.145]
<sta> <no-speech> e k u t <foreign> <foreign> ɣ a k w o ʃ e e m e <foreign> 
[353.485]
ɛ <foreign> <foreign> <foreign> <foreign> ɣ a k w o ʃ e e <foreign> <foreign> <foreign> <foreign> d e <foreign> ɛ s k e u k a f ɣ e m e ɣ a p ɣ e j ɔ~ t i t a~ w a ɣ e l e m w u a p ɣ e l e m 
[364.675]
<sta> o h s ɔ~ n e~ m w e~ s i l v u p l ɛ <no-speech> 
[372.885]
<no-speech> 
[372.980]
