[0.000]
<no-speech> 
[4.245]
a l o 
[5.005]
<no-speech> 
[7.155]
m i l ɛ n 
[7.915]
<no-speech> 
[9.595]
ɛ m k ɔ m a~ w j e l a 
[11.235]
<no-speech> 
[13.045]
<no-speech> 
[13.595]
<no-speech> 
[15.285]
w i e u 
[16.705]
<no-speech> 
[19.295]
<sta> s a w a p f ɛ l a 
[20.915]
<no-speech> 
[22.585]
s i m w ɛ k i s a 
[23.665]
<no-speech> 
[24.505]
a l o 
[24.885]
<no-speech> 
[26.515]
a~ h a~ k o t e ɣ i k a <sta> <no-speech> <hes> <no-speech> k i j ɛ s k a p p a l e b ɔ k o t e w l a k ɔ~ s a 
[34.295]
<no-speech> 
[37.335]
<sta> ɛ m <no-speech> k o t m a~ m a~ m 
[40.255]
<no-speech> 
[41.515]
o h u p a p a s e ɛ m l i 
[43.585]
<no-speech> 
[45.095]
<no-speech> 
[46.155]
<no-speech> 
[47.355]
a~ n u p a b e z w e~ p a s e m l i n ɔ~ 
[49.285]
<no-speech> 
[51.575]
<sta> w i 
[54.065]
<no-speech> 
[57.635]
<laugh> l i p a p l i m a l n ɔ~ 
[59.435]
<no-speech> 
[61.575]
ɛ m 
[62.285]
<no-speech> 
[63.195]
<sta> w i 
[65.205]
<no-speech> 
[67.455]
ʒ e d i s i d j e v l e a s i z e k e~ z d i m a t e~ j o d i m p u m w e~ l e v e 
[71.035]
<no-speech> 
[72.835]
w i p u m w e~ k a a l <no-speech> n ɔ~ p u m w e~ k a a l n a~ m ɛ s 
[75.595]
<no-speech> 
[82.445]
<sta> w i m w ɛ s a u m e~ m t u 
[84.855]
<no-speech> 
[86.735]
ɛ m <no-speech> s a w t e m a~ ʒ e ʒ o d i a 
[89.705]
<no-speech> 
[90.595]
<no-speech> 
[91.065]
<no-speech> 
[93.145]

[93.625]
<no-speech> 
[95.485]
<sta> e~ h e~ 
[96.555]
<no-speech> 
[98.635]
<sta> <hes> m e~ m t i k a l u p a t k i t e p u m w e~ 
[101.295]
<no-speech> 
[104.255]
a~ <no-speech> ʒ i s e ɣ i z a k k i s a a~ k ɔ <no-speech> a h ʒ o d i a m t e p ɣ a l k ɔ~ p o z e e~ f ɔ m a t i k m t ɛ l m a~ w ɛ 
[112.755]
<no-speech> 
[113.955]
m t ɛ l m a~ w ɛ s a m p ɣ a l s a <no-speech> m t ɛ l m a~ e t i d j e t ɛ t m w e~ t ɛ l m a~ b w u j e m d i k ɔ~ s a m p a p m a~ ʒ e ʒ o d i a <no-speech> p e t ɛ t m a b l i j e l e s ɔ~ a~ j o <laugh> 
[122.975]
<no-speech> 
[126.655]
e~ h e~ <no-speech> w e j <no-speech> t u ʒ u k ɔ~ s a <no-speech> <hes> 
[131.725]
<no-speech> 
[132.875]
<sta> <cough> w e j <no-speech> e~ h e~ <laugh> 
[139.145]
<no-speech> 
[140.125]
<sta> s e v ɣ e <no-speech> <hes> 
[142.215]
<no-speech> 
[144.555]
<laugh> <int> g a d e w j ɔ~ p i t i t k i p a k a f i n i 
[147.675]
<no-speech> 
[152.175]
<laugh> u s a w g e~ l a 
[154.585]
<no-speech> 
[155.995]
<sta> a~ a~ 
[158.195]
<no-speech> 
[160.095]
<no-speech> 
[162.755]
<no-speech> 
[166.055]
o h e~ b e~ u p a p u p a p k a f ɛ l k u n j e a 
[168.315]
<no-speech> 
[171.515]
<sta> m h m m k w ɛ w <laugh> o h o h <laugh> u u <laugh> u k ɔ~ n e~ w s e j ɔ~ m u~ k i ɣ e~ m e~ t ɣ a v a j <laugh> s e~ d i k a l w i 
[180.405]
<no-speech> 
[181.925]
<sta> e~ h e~ 
[183.335]
<no-speech> 
[184.175]
<sta> <hes> <no-speech> k o t <laugh> k u n j e a u g e~ u p l e~ m u~ b ɔ k o t e w <no-speech> <sta> b ɔ~ u p ɣ a l <foreign> 
[195.985]
<sta> t e l e f ɔ n n a~ s u f u 
[198.295]
<no-speech> 
[200.195]
<sta> <laugh> e~ h e~ <no-speech> k i s a a~ k ɔ 
[207.865]
<no-speech> 
[210.175]
<sta> a~ p u w m a~ d e <no-speech> t ɛ t ʒ a~ m p a ʃ a ʒ e 
[213.675]
<no-speech> 
[218.915]
o h p w o b l ɛ m p a ʒ a~ m f i n i n ɔ~ 
[220.795]
<no-speech> 
[222.595]
<sta> l ɛ t u m u~ m u ɣ i 
[225.205]
<no-speech> 
[227.875]
w u j <no-speech> w e j u ʒ w e~ n m w e~ <no-speech> e~ h e~ u ʒ w e~ n m w e~ l a k p u b a w b l a g p u w ɣ i 
[233.765]
<no-speech> 
[235.585]
<laugh> m p a t m a~ ʒ e p a t a t a k d l o n ɔ~ 
[238.535]
<no-speech> 
[240.365]
<laugh> m p a t ʒ w e~ n 
[242.085]
<no-speech> 
[244.195]
<sta> w u j ʒ o d i a <hes> d a p a t p o t e <no-speech> d a p a t p o t e 
[251.275]
<sta> m h m 
[255.415]
w i o h o h l i v o e m w e~ e m w e~ l v o j e a l d ɛ j ɛ t u b a g a j l a j o n ɛ t 
[259.155]
<no-speech> 
[263.525]
e~ h e~ <laugh> e s a k a f ɛ w t a p f ɛ s i j b a m a~ m a~ m n a~ <cough> 
[268.315]
<no-speech> 
[269.945]
w i t a~ k l i f ɛ m a l e t a~ k l i f ɛ m v i n i m a l e m t u n e~ m a l e m t u n e~ 
[273.795]
<no-speech> 
[274.895]
<sta> a~ e k ɔ~ s a w i f ɔ t ɣ a v a j <no-speech> f ɔ w t ɣ a v a j 
[280.115]
<no-speech> 
[281.125]
w i l i m e ɣ i t e s a 
[282.375]
<no-speech> 
[284.535]
<sta> <hes> <no-speech> k i m a~ ʒ e w p ɣ a l f ɛ l a 
[287.245]
<no-speech> 
[290.175]
p u k i j ɛ s 
[291.065]
<no-speech> 
[293.755]
<int> ɛ m 
[294.655]
<no-speech> 
[296.855]
a~ n 
[297.805]
<no-speech> 
[298.675]
<int> u m f ɛ k k a ɣ e ɣ e t e l a 
[300.425]
<no-speech> 
[301.295]
<sta> u f ɛ k k a ɣ e ɣ e t e <no-speech> u f ɛ k k a ɣ e ɣ e t e l a <no-speech> w i 
[305.185]
<no-speech> 
[307.235]
j o b a~ n u t ɣ a v a j p u~ f ɛ l a <no-speech> g w o t ɣ a v a j 
[312.995]
<no-speech> 
[313.995]
<laugh> k u n j e a j o s ɔ t p a s e b ɔ l a k a j l a j a p j o t ɔ~ b e g ɣ i j e~ d a~ s u m w e~ w i 
[322.495]
<no-speech> 
[323.675]
m b ɔ l a k a j l a 
[324.825]
<no-speech> 
[326.845]
<laugh> <cough> <oov> o h w i m k ɔ~ n s a 
[332.055]
<no-speech> 
[333.935]
w i m a p v i v <laugh> t u o t a~ m k a v i v f ɔ w <laugh> 
[338.805]
<no-speech> 
[342.135]
w i <no-speech> d i d i n m a~ m a~ m k i j ɛ s a~ k ɔ f a f a <no-speech> j a p g a d e 
[349.705]
<no-speech> 
[351.725]
ɛ m h m 
[352.435]
<no-speech> 
[353.315]
<breath> w u j <no-speech> m h m 
[356.715]
<no-speech> 
[357.875]
w i <no-speech> w a g e~ u p a g e~ l ɛ w p a g e~ o f i s e k ɔ~ s a w i 
[361.545]
<no-speech> 
[363.755]
<sta> <foreign> 
[364.955]
<no-speech> 
[366.535]
<laugh> m p a g e~ j e~ u t a a ʃ t e j u~ p u m w e~ <laugh> 
[370.385]
<no-speech> 
[371.685]
n ɔ~ m p a g e~ j e~ <laugh> m s ɔ t w ɛ <no-speech> m w ɛ m a k o m ɛ w k i ʃ i t a w i 
[376.915]
<no-speech> 
[378.545]
<sta> m h m <no-speech> m w ɛ l ʃ i t a 
[382.675]
<no-speech> 
[383.885]
<int> w i 
[385.035]
<no-speech> 
[387.875]
<sta> w i t u t o t a~ l i k a v i v s e v i v <no-speech> a~ 
[392.655]
<no-speech> 
[394.055]
<sta> h m <no-speech> k u n j e a w a p t ɣ a v a j e p i w a p p a l e 
[397.745]
<no-speech> 
[399.725]
<sta> m ɣ e~ m e~ s a 
[401.525]
<no-speech> 
[406.045]
<sta> k i s a 
[408.235]
<no-speech> 
[410.675]
<no-speech> 
[412.965]
<no-speech> 
[413.975]
<sta> a l o 
[419.145]
<no-speech> 
[420.795]
<sta> w i <no-speech> k o t e <no-speech> k o t g ɣ a m ɛ 
[425.685]
<no-speech> 
[427.345]
k o t g ɣ a m ɛ k ɣ e j ɔ l l a 
[428.795]
<no-speech> 
[431.735]
g ɣ a m ɛ e g ɣ a m ɛ k ɣ e j ɔ l l a <int> 
[434.425]
<no-speech> 
[436.315]
l i l a w i 
[437.205]
<no-speech> 
[439.175]
e~ h e~ <no-speech> w e j <no-speech> w i <no-speech> k o t e <no-speech> k o t e <no-speech> k i ʒ a~ l ɣ e l e a~ k ɔ ʒ i v e~ n s k i 
[448.245]
<no-speech> 
[449.065]
<no-speech> 
[449.445]
<no-speech> 
[453.315]
<sta> <foreign> e p i j a p t a~ d e 
[456.035]
<no-speech> 
[458.855]
o h o h b ɔ~ e g w o k o z e <sta> 
[462.335]
<no-speech> 
[463.555]
<sta> a~ 
[466.125]
<no-speech> 
[469.105]
<sta> a~ e~ h e~ m a p v i v v ɣ e <laugh> 
[472.365]
<no-speech> 
[473.335]
<breath> w i m a p v i v v ɣ e s e v ɣ e 
[475.525]
<no-speech> 
[476.495]
<sta> w i <no-speech> m h m 
[482.225]
<no-speech> 
[483.265]
<hes> k o t e u k ɔ~ u k ɔ~ n e~ u k ɔ~ n e~ l i p a ɣ e m e~ f ɔ n p a l e <no-speech> <oov> n e~ p ɔ t b a g a j v i n p u p a l e o h m s ɔ t m a~ ʒ e j ɔ~ ɣ a f a l m a~ g o 
[492.685]
<no-speech> 
[494.825]
<sta> w i m s ɔ t m a~ ʒ e j ɔ~ d u z ɛ n <no-speech> m t u n e~ ʒ i d l a~ n 
[498.965]
<no-speech> 
[500.535]
<sta> s e v ɣ e <no-speech> e m 
[502.725]
<int> ɛ m 
[503.755]
<sta> m w e~ m e~ m m k i t e ɣ ɛ s 
[506.745]
<no-speech> 
[507.715]
<sta> w i <no-speech> t u e~ p e ɛ m m a~ ʒ e j ɔ~ p a k ɛ t l a <no-speech> m a~ g o l a b i ʃ t u f e 
[514.755]
<no-speech> 
[516.615]
o h a p ɣ e <no-speech> a p ɣ e s a m p ɣ a l m a~ ʒ e d i ɣ i o d j ɔ~ d j ɔ~ <no-speech> e~ h e~ a p ɣ e s a m p ɣ a l m a~ ʒ e d i ɣ i o d j ɔ~ d j ɔ~ 
[524.445]
<no-speech> 
[525.865]
<int> w i 
[527.725]
<no-speech> 
[528.895]
<sta> <laugh> a p u f ɛ l 
[531.785]
<no-speech> 
[534.255]
p u w k a f ɛ j ɔ~ d e t w a s o m ɛ j 
[535.645]
<no-speech> 
[538.195]
<sta> <hes> 
[540.465]
<no-speech> 
[543.565]
<sta> s e v ɣ e k i b ɔ w p ɣ a l ɣ e t e k u n j e a 
[547.595]
<no-speech> 
[550.855]
<sta> o h l w e~ l k ɔ~ s a <no-speech> o h u t w ɔ l w e~ l 
[556.515]
<no-speech> 
[558.375]
<sta> <laugh> w u j e~ b e~ m e~ u p a k o f e~ f ɛ k ɔ m a~ w ɣ e l e a 
[563.955]
<no-speech> 
[565.535]
<sta> e ʃ i t a j l a 
[567.395]
<no-speech> 
[571.055]
<sta> e v ɣ e <no-speech> e~ h e~ <no-speech> w i 
[577.565]
<no-speech> 
[579.495]
o h o h <no-speech> e p 
[581.405]
<no-speech> 
[583.355]
t ɛ t <oov> 
[584.335]
<no-speech> 
[587.435]
<no-speech> 
[589.885]
<no-speech> 
[591.145]
<sta> m h m 
[594.965]
<no-speech> 
[597.215]
b ɛ l m a~ ʒ e n ɛ t 
[598.105]
<no-speech> 
[600.020]
