[0.000]
<sta> w ɛ <no-speech> l a k a j l a a w i <no-speech> 
[11.935]
<sta> a~ h a~ a~ <no-speech> <sta> j a j a j a <no-speech> e~ h e~ n ɛ g j o l a k a j l a l a w i j o p o z e w i 
[23.015]
<no-speech> 
[26.195]
<sta> p a g e~ p w o b l ɛ m n ɔ~ m a~ p a s k e b a g a j l a v i n 
[28.845]
<no-speech> 
[29.935]
l ɛ l ɛ l ɛ ɛ m <sta> l a k a j l a m ɔ~ ʃ ɛ l ɛ m d i w s a a m s a~ t i m a p k a l k i l e a~ s a~ m l a w i p a p a a 
[36.395]
<no-speech> 
[37.865]
<no-speech> 
[38.215]
<no-speech> 
[39.525]
<sta> e~ h e~ <no-speech> e~ h e~ <no-speech> w i w i <no-speech> p a s k e 
[47.415]
<no-speech> 
[49.775]
<sta> e~ h e~ <no-speech> 
[51.975]
<no-speech> 
[53.445]
<sta> o k e 
[54.725]
<no-speech> 
[55.635]
<sta> o k e o k e <no-speech> o k e 
[58.515]
<no-speech> 
[59.365]
<no-speech> 
[62.635]
<no-speech> 
[63.845]
<no-speech> 
[64.385]
<no-speech> 
[65.285]
<sta> n ɔ~ b ɔ~ w o b l i ʒ e f ɛ j ɔ~ t i k a~ p e p a s k e u w ɛ p ɣ e s k e p a g e~ m u v m a~ n a~ l a ɣ i a s e n ɛ g k i g e~ b a z k i o b l i ʒ e b ɣ a s e l k a~ m e~ m u k ɔ~ p ɣ a~ n 
[73.325]
<no-speech> 
[74.285]
<sta> e n ɛ g k i g e~ b a z k i b ɣ a s e l <no-speech> <sta> m w e~ m e~ m p w o b l ɛ m m a p k a l k i l e l a a a v l e d i k e u k ɔ~ n e~ l ɛ w u ʃ i t a l a a p a g e~ m u v m a~ p u w u p e j e k a j b a j s a a j o w a p k a l k i l e u k ɔ~ p ɣ a~ n t u m u v m a~ s a j o u k ɔ~ p ɣ a~ n 
[84.515]
<no-speech> 
[86.825]
e ʒ u j o a p m a ʃ e <no-speech> e <hes> k a l k i l e w i p a p a u ʃ i t a n a~ p ɔ t o p ɣ e~ s p a ʒ w ɛ t 
[91.755]
<no-speech> 
[93.015]
o h 
[93.585]
<no-speech> 
[97.455]
e~ h e~ <sta> 
[98.875]
<no-speech> 
[100.885]
e~ h e~ 
[101.435]
<no-speech> 
[106.195]
e~ h e~ 
[106.775]
<no-speech> 
[108.035]
<sta> e~ h e~ 
[112.095]
<no-speech> 
[113.345]
<sta> o k e o k e o k e <no-speech> o k e <no-speech> <sta> o k e p a ɣ ɛ j <no-speech> n ɔ~ n a p n a p p ɣ i j e u k ɔ~ p ɣ a~ n s a m d i w l a 
[122.245]
<no-speech> 
[123.265]
j ɛ 
[123.815]
<no-speech> 
[125.855]
<foreign> 
[126.315]
<no-speech> 
[128.585]
<sta> m ɔ~ ʃ ɛ n ɛ g p a a u k ɔ~ n e~ b a g a j j o e l a ʒ a~ l j o p a g e~ m u v m a~ m a~ u k ɔ~ n e~ s i t u d e p i o t ɣ e ʒ u m p a t b j e~ m p a t t w ɔ n ɔ m a l m e~ m m e~ m m e~ m u k ɔ~ p ɣ a~ n 
[136.835]
<no-speech> 
[137.855]
<foreign> 
[138.495]
<no-speech> 
[139.835]
<no-speech> 
[140.235]
<no-speech> 
[142.505]
<hes> o k e <sta> <no-speech> o k e o k e <no-speech> <hes> o h <no-speech> n ɔ~ m ɔ~ ʃ ɛ <no-speech> m a p m b e z w e~ m i s j e m e~ m m ɔ~ ʃ ɛ u k ɔ~ p ɣ a~ n 
[150.145]
<no-speech> 
[153.185]
o k e o k e <sta> 
[154.735]
<no-speech> 
[156.235]
e~ h e~ 
[156.915]
<no-speech> 
[158.125]
j ɛ 
[158.725]
<no-speech> 
[161.225]
o k e <sta> 
[162.075]
<no-speech> 
[164.435]
e~ b e~ o k e p a g e~ p w o b l ɛ m <no-speech> m i s j e s e w u <hes> s e j ɔ~ n ɛ g s o l i d m i s j e j e m a~ ɛ m <sta> s i s p ɛ k s a a w i <no-speech> <foreign> 
[172.145]
<no-speech> 
[174.015]
<no-speech> 
[174.415]
<no-speech> 
[175.825]
<no-speech> 
[176.425]
<no-speech> 
[178.385]
a h a h <sta> m ɔ~ ʃ ɛ <no-speech> a n ɛ g l a u p a ʒ a~ m k ɔ~ n e~ m a~ u k ɔ~ p ɣ a~ n <no-speech> u p a ʒ a~ m k ɔ~ n e~ <no-speech> <no-speech> a~ a~ p i l m ɔ~ ʃ ɛ u k ɔ~ p ɣ a~ n s a m d i w l a <no-speech> p a s k e t u t o t a~ w u ʒ w e~ n a~ m e~ n ɛ g j o u p a 
[190.365]
u v i n p i b ɔ~ u p a k ɔ~ n k o t e w a p <sta> t ɔ~ b e u k ɔ~ p ɣ a~ n <no-speech> f ɔ w m e t e g ɣ a m s u u 
[195.845]
<no-speech> 
[196.835]
<no-speech> 
[197.345]
<no-speech> 
[198.195]
<no-speech> 
[200.835]
<no-speech> 
[201.655]
<sta> e~ h e~ 
[204.625]
<no-speech> 
[206.245]
<sta> o k e <no-speech> n ɔ~ m ɔ~ ʃ ɛ d a p ɣ ɛ <hes> <no-speech> d a p ɣ ɛ ʒ a~ m w ɛ t u e~ s t ɣ i m a~ l a k a j m i s j e j o <no-speech> u k ɔ~ p ɣ a~ n s a m d i w l a~ <no-speech> m g e~ t a~ w ɛ k i n ɛ g m i s j e j e m ɔ~ ʃ ɛ j ɔ~ n ɛ g k a p t ɣ a v a j 
[217.165]
<no-speech> 
[219.225]
<sta> w i <no-speech> e~ h e~ <no-speech> <sta> o h a m ɔ~ ʃ ɛ m e~ m w ɛ n ɛ g l a s e j ɔ~ n ɛ g k i s o l i d 
[230.605]
<sta> u k ɔ~ p ɣ a~ n s a m d i w l a~ <no-speech> a l <hes> <sta> <no-speech> o h j ɛ s a v e ɛ l s a v l e d i <no-speech> d a p ɣ ɛ ʒ a~ m w ɛ m i s j e m a~ <no-speech> m a p m a p k o l a b o ɣ e a~ s a~ m a m i 
[241.295]
s j e u <sta> k ɔ~ p ɣ a~ n s a m d i w l a a <no-speech> m a p k o l a m a p <no-speech> m a p m a p p ɣ a~ p a s j a~ s <no-speech> <sta> a ɣ i ʒ a~ m w ɛ m i s j e u d i m i s j e g e~ j ɔ~ g ɣ e~ n b a f l a n a~ m e~ ɛ l <no-speech> a <oov> 
[251.925]
<sta> s a a u m e~ m w a l p ɣ a~ <no-speech> e~ h <sta> <no-speech> n ɔ~ m p a g e~ p w o b l ɛ m <no-speech> m a p ʒ w e a m i 
[263.065]
s j e <sta> m ɔ~ ʃ ɛ m a p ʒ w e a m i s j e <no-speech> t u s e~ p l e m a~ m p ɣ a l l a k a j l a k ɔ m m g e~ g i t a l a a u k ɔ~ p ɣ a~ n s a m d i w l a~ <no-speech> <sta> m g e~ g i t a l a m a p v i n m a p v i n ʒ w e~ m i s j e <no-speech> e p i n a p t ɣ a v a j 
[274.615]
<no-speech> 
[275.245]
<no-speech> 
[276.055]
<sta> o h a h m ɔ~ ʃ <laugh> m g e~ g i t a b a l e g l i z l a t u w i <no-speech> <hes> e l a m w e~ ʒ w e m ɔ~ ʃ ɛ u k ɔ~ p ɣ a~ n s a m v l e d i w u l a 
[287.295]
<sta> e~ h e~ s ɛ l m a~ s e <hes> g i t a s o l o m n a~ k i j ɔ~ ʒ a~ b a j s ɛ l m a~ <sta> <no-speech> a h m ɔ~ ʃ ɛ e l ɛ m a p v i n i m a p <hes> k ɔ m m a p v i n i a v ɛ g i t i t u m a p d e p o z e p u m i s j e u k ɔ~ p ɣ a~ n <no-speech> <sta> 
[298.985]
<sta> u k ɔ~ p ɣ a~ n s a m d i w l a~ n a p ʒ w e a~ s a~ m e p i n a p p a s e a k ɔ u k ɔ~ p ɣ a~ n s a m d i w u l a~ <no-speech> <sta> m a p m ɔ~ t ɣ e m i s j e t u l i v m g e~ j e~ j o u k ɔ~ p ɣ a~ n <no-speech> e p i n a p p a t a ʒ e i d e k ɛ k s ɔ l f ɛ ʒ t u u k ɔ~ p ɣ a~ n <no-speech> <sta> 
[310.855]
<sta> u k ɔ~ p ɣ a~ n s a m d i w l a~ <no-speech> w i ɛ m l i p a t i s j ɔ~ m ɔ~ ʃ ɛ <no-speech> <sta> p a s e d e p i w ʒ w e <hes> ʒ w e v a~ u p a k a s e v a~ s e ɛ l <hes> d e p i w w ɛ v a~ k ɔ~ n e~ s e p a t i s j ɔ~ s ɔ l f ɛ ʒ n ɛ t <no-speech> <sta> u k ɔ~ p ɣ a~ n 
[321.345]
p a s e s e p a j ɔ~ b a g a j k i k a ʒ w e p a w u t i n <sta> l i j e <no-speech> u k ɔ~ p ɣ a~ n <no-speech> n ɔ~ m ɔ~ ʃ ɛ <laugh> 
[330.455]
n ɔ~ m ɔ~ ʃ ɛ d e p i <sta> m n a~ b a g a j k ɔ~ s a m a~ u p a k a n a~ <hes> u p a k a p a s ɔ l f j e m e~ m u k ɔ~ p ɣ a~ n <sta> <no-speech> <foreign> s a v l e d i <no-speech> u k ɔ~ n e~ d e p i m ɣ i v e n a p p a l e u k ɔ~ p ɣ a~ n s a m v l e d i w u l a~ 
[342.415]
<sta> m ɔ~ ʃ ɛ <no-speech> <sta> m ɔ~ ʃ ɛ <breath> n a~ m i z i k l a k u m i z i k l a m p a l f ɛ k u m i z i k l a a~ k ɔ s a v l e d i s a k f ɛ s a a m i s j e <hes> l ɛ m f ɛ d e m w a m a~ m i s j e 
[354.005]
<sta> a p ɣ a t e p u l p e j e ɛ m m a~ u k ɔ~ p ɣ a~ n <no-speech> m o b l i ʒ e m p a a l e l ɛ m g a d e k ɔ b m i s j e ɣ a~ t ɣ e a s e s t i d j o m i s j e f ɛ a~ s a~ m a v ɛ l <no-speech> m w ɛ t a~ b u a p a ɣ ɛ j l a k a j e~ h e~ 
[365.685]
t a~ b u <sta> a p a ɣ ɛ j <no-speech> b a~ m d i w u e <hes> m k a v i n k o t e w l a p i t a n a p n a p p a l e <foreign> p a s k e m g e~ j ɔ~ m u~ k i v i n k o t e m n a~ u k ɔ~ p ɣ a~ n <sta> <no-speech> o k e p a f ɛ m e~ o k e p a g e~ p w o b l ɛ <no-speech> n ɔ~ 
[377.455]
<sta> n ɔ~ n ɔ~ o k e <no-speech> p a g e~ p w o b l ɛ m 
[380.575]
<no-speech> 
[381.485]
<sta> e~ h e~ <no-speech> u k ɔ~ n e~ <laugh> <sta> n ɔ~ m ɔ~ ʃ ɛ m p a p f ɛ s a a m ɔ~ ʃ ɛ 
[393.045]
<sta> m p a p f ɛ s a a m a p 
[394.295]
<no-speech> 
[395.705]
<sta> m ɔ~ ʃ ɛ m i s j e <hes> u k ɔ~ n e~ m i s j e u k ɔ~ p ɣ a~ n s a m d i w l a~ <no-speech> e~ h e~ <no-speech> s a v l e d i k e <no-speech> <sta> 
[407.345]
<sta> b ɔ~ m ɔ~ ʃ ɛ m p a l n a~ t ɛ a n ɔ~ p a p a <no-speech> <hes> p a l n a~ t ɛ a <no-speech> b ɔ~ <foreign> <foreign> e <hes> <sta> m t a~ d e j o d i 
[419.295]
<sta> u k ɔ~ p ɣ a~ n s a m d i w u l a~ <no-speech> <hes> <sta> b a~ m d i w f ɔ m t a p a l e a~ s a~ m a v ɛ w a p ɣ e m a p p a s e b a w l i g ɣ a t i s <no-speech> u k ɔ~ p ɣ a~ n <no-speech> o k e 
[431.065]
<sta> o k e 
[432.795]
<no-speech> 
[434.655]
<sta> a~ n o k e p a g e~ p w o b l ɛ <no-speech> p a s k e <no-speech> s a k f ɛ m d i s a a <no-speech> <sta> a~ h a~ 
[442.795]
<no-speech> 
[443.705]
<sta> e~ h e~ <no-speech> o k e <no-speech> <sta> o k e <no-speech> o k e 
[455.505]
<sta> e~ h e~ <no-speech> p a p a g e~ p w o b l ɛ m <no-speech> <sta> n ɔ~ m k a~ p e w i 
[467.325]
<sta> m k a~ p e p a s k e <hes> <no-speech> u k ɔ~ n b a g a j j o <no-speech> j ɛ u k ɔ~ p ɣ a~ n <no-speech> <sta> 
[478.795]
<sta> e~ h e~ <no-speech> 
[485.945]
<no-speech> 
[487.785]
<sta> <lipsmack> a~ <no-speech> e~ h e~ <no-speech> <sta> 
[497.515]
<no-speech> 
[500.385]
<no-speech> 
[501.425]
<sta> n ɔ~ <foreign> <foreign> <hes> ɥi t l ɛ e d m i j o <no-speech> <sta> n ɔ~ 
[512.905]
<sta> <hes> l ɛ m ɣ i v e a m w e~ m e~ m <hes> <no-speech> <foreign> n u ɣ a~ t ɣ e a~ s a~ m <no-speech> u k ɔ~ p ɣ a~ n <no-speech> n u ɣ a~ t ɣ e <oov> 
[521.625]
<no-speech> 
[522.755]
<sta> a~ <hes> w i d ʒ ɔ~ n i 
[525.465]
<no-speech> 
[526.345]
<sta> e~ h e~ <no-speech> m i s j e t e l ɔ t b ɔ a k o t e <no-speech> <sta> e~ h e~ <no-speech> k u n j e a l a m i s j e t e o b l i ʒ e <no-speech> l a g e a~ s a~ m a v ɛ n u u k ɔ~ p ɣ a~ n <no-speech> 
[538.225]
<no-speech> 
[539.415]
<sta> b ɔ~ j o b a~ m j ɔ~ p a w ɔ l k e~ b e m p a k ɔ~ n s i s e v e ɣ i t e <no-speech> u k ɔ~ p ɣ a~ n 
[545.865]
<no-speech> 
[546.695]
<sta> m e~ <hes> <no-speech> w ɛ n u p a m w e~ m p a t a l e n ɔ~ <no-speech> <sta> p a s k e <no-speech> <hes> u k ɔ~ n e~ m p a t t w ɔ b ɔ~ u k ɔ~ p ɣ a~ n s a m v l e d i w u l a~ <no-speech> p a s e f i z i k m w e~ p a t 
[558.675]
<sta> p ɛ m ɛ t m w e~ u k ɔ~ p ɣ a~ n <no-speech> e~ h e~ e s a f ɛ ʒ i s k a p ɣ e z a~ ɛ m <no-speech> ʒ i s k a p ɣ e z a~ m p a k a f ɛ g ɣ a~ e f ɔ u k ɔ~ p ɣ a~ n <no-speech> m p a k a f ɛ g ɣ a~ e f ɔ s a f ɛ ɛ m <sta> 
[570.575]
<sta> w i <no-speech> m p a k a m p a k a p a b m ɔ~ ʃ ɛ u k ɔ~ p ɣ a~ n s a m d i w l a~ <no-speech> e s a k a f ɛ m e~ m n a~ b a g a j n a t k o m n a~ m o b l i ʒ e k a~ p e 
[582.425]
<no-speech> 
[583.345]
<no-speech> 
[585.495]
<no-speech> 
[587.075]
<sta> <cough> o k e <no-speech> o k e <no-speech> b a~ m d i w b a~ m d i w <hes> f ɛ d e t w a m u~ 
[598.985]

[599.535]
<sta> 
[600.220]
