[0.000]
<no-speech> 
[11.645]
<no-speech> 
[23.435]
<no-speech> 
[34.855]
<sta> <hes> <cough> m a p k u t e w m k u t e w 
[42.335]
e~ h e~ <sta> m d i w m a p k u t e w <no-speech> m a p k u t e w m a p k u t e w <no-speech> m a p k u t e w 
[52.395]
k i s a <no-speech> k i s a <no-speech> o h w i 
[64.115]
s e~ d i <no-speech> s e~ d i <no-speech> k i s a l e j e <no-speech> s a l t e j e 
[75.905]
m h m <no-speech> m p a k ɔ~ p ɣ a~ n u n ɔ~ <no-speech> <hes> m p a t f ɛ n ɔ~ 
[87.855]
m h m <no-speech> w i <no-speech> o k e <no-speech> k i l ɛ 
[99.245]
v a~ d ɣ e d i <no-speech> n ɔ~ <no-speech> n ɔ~ 
[108.875]
m p a p ɣ a l e <no-speech> w i <no-speech> u k ɔ~ n e~ u k a a l e k i t e m w e~ <no-speech> 
[119.505]
<int> m p a k ɔ~ n e~ 
[129.415]
m g e~ m u~ l a k a j m w e~ <no-speech> m g e~ m u~ l a k a j m w e~ <no-speech> m g e~ m u~ l a k a j m w e~ <no-speech> k i b ɔ 
[149.875]
<sta> m p a k ɔ~ n e~ <no-speech> m p a k ɔ~ n e~ <no-speech> 
[159.225]
<sta> <no-speech> <foreign> 
[169.905]
<sta> d i m k i b ɔ k i b ɔ <no-speech> k i b ɔ <no-speech> k i b ɔ 
[181.735]
<sta> m p a p ɣ a l e <no-speech> m p a p ɣ a l e <no-speech> w i 
[193.725]
m h m <sta> <no-speech> m p a p p ɣ a l e <no-speech> m p a p p ɣ a l e 
[202.665]
<hes> m d i w m p a p p ɣ a l e <no-speech> m p a p p ɣ a l e <no-speech> m p a p p ɣ a l e m d i w 
[213.855]
<sta> m w e~ p a p p ɣ a l e <no-speech> e~ b e~ m a p t a~ n u 
[225.675]
<sta> n ɔ~ s e p a v ɣ e <no-speech> s e p a v ɣ e <no-speech> m h m <no-speech> 
[235.855]
<sta> u m e~ m <no-speech> w i 
[243.505]
<sta> e~ b e~ o k e <no-speech> <no-speech> t u s a w d i m 
[255.215]
<sta> t u s a u d i b ɔ~ <no-speech> m a~ t i 
[265.065]
<sta> <no-speech> a k i j ɛ s <no-speech> a k i j ɛ s 
[275.135]
a k i j ɛ s <no-speech> a k i j ɛ s <no-speech> n ɔ~ n ɔ~ 
[286.275]
a s e p t e j o <no-speech> m h m <no-speech> o k e 
[298.125]
w i <no-speech> 
[309.855]
w i e~ b e~ o k e m a ʒ w e~ n a v ɛ l 
[321.755]
e~ b e~ m a a l k o t e l <no-speech> e~ h e~ <hes> 
[331.095]
a~ <no-speech> m p a t a~ d e n ɔ~ 
[342.655]
s e u m k ɔ~ n e~ s e u m d i <no-speech> s e u m k ɔ~ n e~ s e u m d i <no-speech> w i 
[354.255]
s e u m k ɔ~ n e~ <no-speech> w i u m e~ m m w e~ ɣ e~ m e~ a~ <no-speech> a <no-speech> a s e 
[365.845]
w i <no-speech> p a s k e s e a v ɛ w m t e <int> p ɣ e m j e f ɛ l 
[377.735]
m t e <foreign> a <foreign> <foreign> s e a v ɛ w m t e p ɣ e m j e f ɛ l <no-speech> o h o h <no-speech> u p a t a~ u p a t a~ d e 
[387.535]
<int> w i m d i w p a s k e s e a v ɛ w m t e v l e p ɣ e m j e f ɛ l <no-speech> a~ u t e v l e m e~ m b a g a j 
[398.085]
<int> u t e v l e m e~ m b a g a j <no-speech> t a l ɛ 
[406.735]
p a s k e a v ɛ w m t e v l e ɣ e s i f ɛ l 
[413.995]
m w e~ d i w p a s k e s e a v ɛ w m t e d e s i d e f ɛ l <no-speech> u p a t a~ d e <no-speech> n ɔ~ 
[425.615]
n ɔ~ <no-speech> e~ b j e~ o k e <no-speech> <sta> a~ m p a p d i w k i l ɛ <no-speech> m p a p d i w k i l ɛ 
[437.215]
<int> w i <no-speech> a~ <int> ɔ~ b a g a j 
[447.285]
<int> ɔ~ b a g a j <no-speech> j ɔ~ b a g a j <no-speech> n ɔ~ 
[458.225]
<sta> <lipsmack> e m w e~ k a p e m w e~ k a p p ɛ e m w e~ k a p p ɛ d i e m w e~ k a p p ɛ d i ɛ s k e e m w e~ k a p p ɛ d i 
[469.785]
<int> a~ n ʃ a~ ʒ e <no-speech> a~ n ʃ a~ ʒ e 
[480.125]
<int> 
[490.805]
<int> e p a u <no-speech> <hes> 
[501.305]
<int> w i m ɛ s i <no-speech> o k e p a g e~ p w o b l ɛ m 
[512.025]
<sta> s a p u m w e~ d i w <no-speech> m p a d i s a n ɔ~ <no-speech> 
[521.695]
<sta> <no-speech> m h m 
[532.585]
<sta> <no-speech> 
[543.755]
<sta> a~ j e~ n a ʃ a~ ʒ e <no-speech> a~ j e~ n a ʃ a~ ʒ e 
[552.635]
<laugh> a~ j e~ n a ʃ a~ ʒ e <no-speech> n ɔ~ <no-speech> n ɔ~ p u k i s a 
[562.265]
p ɔ t l a f ɛ m e~ <no-speech> p ɔ t l a f ɛ m e~ <no-speech> p ɔ t l a f ɛ m e~ 
[574.035]
b ɔ~ a k i s a <no-speech> <sta> a k i s a <no-speech> o k e 
[585.085]
w i <no-speech> m p a t a~ d e m e~ m n ɔ~ <no-speech> m h m 
[593.795]
w i 
[600.200]
