[0.000]
<no-speech> 
[2.505]
<sta> w i <no-speech> w i a l o <no-speech> m a p g a d e <no-speech> w i w i 
[12.105]
<no-speech> 
[14.185]
<int> n ɔ~ m w e~ p a n a~ k l a s n ɔ~ 
[16.415]
<no-speech> 
[18.295]
<no-speech> 
[18.845]
<no-speech> 
[20.975]
m w e~ 
[21.685]
<no-speech> 
[23.175]
b ɔ~ t u a k t i v i t e n ɔ m a l w i p u k i s a 
[25.685]
<no-speech> 
[30.745]
t u a k t i v i t e m a~ f ɔ m m w e~ ɣ e g l e t u b a g a j b j e~ g ɣ a s a d j e 
[34.285]
<no-speech> 
[42.365]
n ɔ~ m a p f e~ t ɣ a v a j d i ɣ ɛ t e m a~ <no-speech> a d e z ɛ <no-speech> l ɛ m f e~ t ɣ a v a j a d e z ɛ <hes> m a p ɣ a~ t ɣ e d i ɣ ɛ k t e m a~ l a k a j m w e~ <no-speech> o h a v a~ s a m g e~ ɣ a~ d e v u a k j ɔ~ p w o f e s ɛ k i k a a~ p e ʃ e <int> 
[54.285]
k i k a a~ p e ʃ e m ɣ a~ t ɣ e a <foreign> <foreign> 
[55.665]
<no-speech> 
[57.715]
<sta> u t e b e z w e~ m p a~ d a~ a p ɣ ɛ m i d i a~ 
[59.435]
<no-speech> 
[70.295]
a 
[70.865]
<no-speech> 
[74.395]
n ɔ~ a p ɣ ɛ m i d i a m a p t u ʒ u f ɛ l <sta> p a s k e m a p f i n i v ɛ z ɔ n <hes> v ɛ z ɔ n t w a z ɛ j o <no-speech> <hes> o t o m a t i k m a~ m f i n i a v ɛ k p w o f e s ɛ a d ɔ~ k <hes> a t o m a t i k m a~ m a p f i n i m a p f ɛ l p a s e k e 
[86.015]
<sta> s u a~ v i a l e t u m p ɣ a l a v ɛ w 
[89.305]
<no-speech> 
[92.925]
a~ o k e s e v ɣ e u p ɣ a l l e k ɔ l v ɣ e o k e 
[95.595]
<no-speech> 
[102.660]
<no-speech> 
[109.725]
<hes> <sta> n ɔ~ d ʒ e ɣ i b ɔ~ m p a k w ɛ s ɔ~ e ɣ ɛ k e l i j e p a s k e k ɣ e j ɔ l n u a~ m e l a~ ʒ e a k f ɣ a~ s ɛ s ɔ~ <oov> s ɔ~ k e s j ɔ~ a b i t i d l i j e a v ɛ k a~ p i l a b i t i d m p a~ s e k e w a p v i n f a s i l i t e w a v ɛ k m o k ɣ e j ɔ l j o 
[121.235]
<no-speech> 
[122.955]
a~ 
[123.755]
<no-speech> 
[127.605]
n ɔ~ m w e~ m p a g e~ p w o b l ɛ m a <no-speech> w i m k ɔ~ p ɣ a~ n s a u d i a w i l i p a o b l i ʒ e g e~ s i ʒ ɛ s i f i k e u f ɛ d i m i n i t w a p p a l e 
[133.715]
<no-speech> 
[137.615]
<sta> w i <hes> n a p ɣ e g l e t u b a g a j p a e~ k j e t e w 
[142.295]
<no-speech> 
[145.195]
<no-speech> 
[146.005]
<no-speech> 
[146.915]
<no-speech> 
[148.915]
<no-speech> 
[152.725]
<no-speech> 
[153.175]
<no-speech> 
[155.125]
<no-speech> 
[156.025]
<no-speech> 
[157.055]
<sta> e~ h e~ 
[158.885]
<no-speech> 
[161.795]
<breath> <hes> e~ b e~ p a g e~ p w o b l ɛ m n ɔ~ w a p f ɛ s a m w e~ m e~ m ɣ e g l e l <sta> ʒ a~ m t e d i w m t a p f ɛ b a g a j l a 
[168.135]
<no-speech> 
[169.735]
w i s a m t e d i w m t a p f ɛ <no-speech> <hes> s a m t e d i w m t a p m a~ d e a <no-speech> m p a l e a k d i ɣ e k t ɛ a l i v o j e m p u <foreign> <foreign> 
[177.085]
<no-speech> 
[179.095]
l i v o j e m p u <foreign> <foreign> m a s 
[181.085]
<no-speech> 
[182.925]
<sta> w i l i v o j e m p u <foreign> m a s k u n j e a l ɛ m a l e p u <foreign> m a s k u n j e a s a m p ɣ a l f ɛ m a p p ɣ a~ l i m ɣ e g l e s a u t e s i p o z e ɣ e g l e a k k ɔ b u a m w e~ m e~ m m a p ɣ e g l e l a v ɛ l o k e 
[192.585]
<sta> n a p k ɔ~ n e~ ʃ a ʒ s a j o n u f i n i a v ɛ j o o k e t i m a d a~ m <no-speech> w i <no-speech> 
[199.225]
<no-speech> 
[201.055]
<sta> s e n a~ t ɣ a~ n d e a m p ɣ a l t ʃ e k e j o g ɔ~ m u~ k i d i m n a~ t ɣ a~ n d e a g e~ p l i z j ɛ d ɔ~ k m p ɣ a l n a~ t ɣ a~ n d e a <no-speech> m a p f ɛ m u~ n a~ m w e~ m e~ m p u m w e~ w ɛ s i j o g e~ j e~ <no-speech> o t o m a t i k m a~ m w ɛ j o g e~ j e~ m w ɛ j u~ k i n a~ g u m m a p 
[212.275]
<sta> p ɣ a~ w m p ɣ a l f ɛ w w ɛ l o k e <no-speech> a~ v a~ k e m d i n e~ p ɔ t s a m d i a l ɛ f i n i 
[216.085]
<no-speech> 
[217.585]
<sta> u k ɔ~ p ɣ a~ n s a m d i w <no-speech> k ɔ m s i g ɔ~ k e s j ɔ~ d e 
[220.355]
<no-speech> 
[221.505]
w i e~ b e~ s e s a m a p e s e j e s a m a p e s e j e e m p a v l e p u z ɔ n n a~ t w ɔ l w e~ m a~ m a~ w t u <no-speech> u k ɔ~ p ɣ a~ n s a m d i w l a e f ɔ k l i a k s e s i b p u n u t u l ɛ d e t u a k o z d e l e k ɔ l u t ɣ a v a j m w e~ 
[232.645]
<sta> u k ɔ~ p ɣ a~ n s a m d i w l a 
[234.245]
<no-speech> 
[240.325]
k i b ɔ 
[241.085]
<no-speech> 
[242.675]
o h k a f u t w ɔ l w e~ t i m a d a~ m k a f u t w ɔ l w e~ 
[245.135]
<no-speech> 
[246.475]
<sta> o k e <no-speech> k a f u t w ɔ l w e~ p a s k e l i p a p b ɔ~ p a s k e l p a p b ɔ~ p u n u a s w a j ɔ~ s e ɣ j e p u m w e~ s ɔ t i k a f u p u m w e~ a l f ɛ k u a ɥi t ɛ s e t ɛ f ɔ m t a l e v e d e p i d e z ɛ d i m a t e~ 
[258.415]
<no-speech> 
[261.285]
<no-speech> 
[261.925]
<no-speech> 
[263.755]
m a~ m a~ t ɣ ɛ b j e~ w i m a t e~ a~ m p a l e a v ɛ l w i b ɔ~ m e~ m s i l ɛ m a m a t e~ a~ l ɣ e l e m <no-speech> m ɔ~ ʃ ɛ d ɔ m i a~ t ɛ l m a~ n a~ ʒ e m k i f ɛ <no-speech> m a t e~ a~ l ɣ e l e m <hes> d ɔ m i a~ t ɛ l m a~ n a~ ʒ e m m f ɛ m e~ t e l e f ɔ n n a~ <laugh> 
[275.435]
k u n j e a l ɛ m v i n p ɣ a~ 
[276.805]
<no-speech> 
[278.935]
m t e ɣ e m a k e s a w i s e s a k f ɛ m p a t s e p a s k e <no-speech> j ɛ s w a s a k f ɛ m t e ɣ e l e w s e p a s k e n t e f ɛ k a p p a l e m t e v o j e n i m e w o a b a j s ɔ~ s ɔ~ n l ɔ t n i m e w o k ɔ~ t l a~ d ɔ~ k <no-speech> m t a p e s e j e ɣ e g l e s a a v ɛ l 
[290.195]
<no-speech> 
[293.695]
<sta> a~ b e~ o k e p a g e~ p w o b l ɛ m 
[295.085]
<no-speech> 
[297.495]
w i t a l ɛ a l i <sta> ɣ e l e m l i d i m l i f ɛ s a d ɔ~ k <no-speech> m p a~ s e k e <no-speech> s i l i m e~ m l i d i m l i f ɛ s a <no-speech> m w e~ p a~ s e d ɔ~ k n e~ p ɔ t m o m a~ m k a p a s e 
[309.355]
<int> m p a p m e~ m v e ɣ i f j e m e~ m <no-speech> e~ h e~ 
[312.645]
<no-speech> 
[316.245]
n ɔ~ <sta> m p a o b l i ʒ e a l p ɣ a~ l i m a t e~ a~ t i m a d a~ m n u p o k o m e~ m w ɛ <no-speech> s a n p ɣ a l f ɛ a 
[321.655]
<no-speech> 
[324.235]
<no-speech> 
[324.835]
<no-speech> 
[325.715]
<sta> w i m k ɔ~ p ɣ a~ n s a u d i a m e~ p a e~ k j e t e w s a m p a v l e m p a v l e a l ɣ e t i ɣ e l d ɔ~ k m a p t ʃ e k e b a g a j j o a~ v a~ d e p i m ʒ w e~ n j o m a p a~ n i k p a s e t ʃ e k e l m ɣ e g l e t u d o s j e n ɛ t o k e t i m a d a~ m 
[337.275]
<sta> <hes> a~ s ɥi t g a d e <no-speech> ɛ s k e m a t a~ t u d i m o t o m a t i k m a~ m ʒ w e~ n b a g a j j o p u m w e~ e s e j e p u m w e~ ɣ e l e l p u m w e~ f ɛ l k ɔ~ n e~ <no-speech> s a w 
[348.755]
<sta> k a j l a s a w p a~ s e <no-speech> <sta> 
[360.455]
<no-speech> 
[362.765]
<sta> e~ h e~ 
[364.945]
<no-speech> 
[366.825]
<sta> <no-speech> a h s e u k l a g e ʃ a ʒ l a s u d o m n a~ 
[370.445]
<no-speech> 
[372.115]
<no-speech> 
[375.635]
<no-speech> 
[376.675]
<sta> n u k ɔ~ n e~ p a e~ k j e t e w m p a t a p d i a~ j e~ 
[378.815]
<no-speech> 
[379.675]
<no-speech> 
[380.385]
<no-speech> 
[381.825]
<sta> n ɔ~ p a e~ k j e t e w s e p l e z a~ t e m a p p l e z a~ t e p a e~ k j e t e w e s e s i k i t j o p a t f ɛ l t u m w e~ m e~ m m w e~ t a p ʃ ɛ ʃ e j ɔ~ f a s ɔ~ k i l e g a l p u m w e~ f ɛ l p a s k e m w e~ d w e 
[393.635]
f ɛ l u k ɔ~ p ɣ a~ n s a m d i w l a <no-speech> d ɔ~ k p ɥi s k e m t e v l e f ɛ m a t a~ t u p l e z i p a s k e s e m a t a~ t u l j e <no-speech> d ɔ~ k l i t a t u ʒ u ɣ e~ m e~ k ɔ~ t ɣ i b j e n a~ t u s a w a p f ɛ d ɔ~ k <no-speech> m p a~ s e k e s e <oov> 
[405.505]
<no-speech> <sta> e~ h e~ <no-speech> <hes> u p a m e~ m k i t e m f e~ p a l e m e~ m 
[413.045]
<no-speech> 
[413.975]
<sta> u p a m e~ m u p a m e~ m k i t e m f e~ p a l e m d i w k e n ɔ m a l m a~ s e <no-speech> s e z a f ɛ p a l u j e s e a f ɛ p a w l a p ɣ e g l e d ɔ~ k <no-speech> s e n ɔ m a l s i l v l e k ɔ~ t ɣ i b j e n ɔ m a l 
[425.685]
<sta> ɔ~ a k t i v i t e k i k ɔ~ s ɛ n e w d ɔ~ k n ɔ~ s ɛ l m a~ p u f ɛ l p l e z i t u e l t u f ɛ m p l e z i t u p a s k e s e j ɔ~ ʃ a ʒ l i ɣ e t i ɣ e s u d o m d ɔ~ k l i f ɛ t m e~ s i l t e ʃ w a z i p a f ɛ l 
[436.595]
<sta> e k e ɔ~ f a s ɔ~ k a~ m ɛ m n u m e~ m m w e~ m e~ m a v ɛ w n u t a p e s e j e ʃ ɛ ʃ e ɔ~ f a s ɔ~ p u~ f ɛ l ɛ s k e w k ɔ~ p ɣ a~ n s a m d i w l a 
[442.795]
<no-speech> 
[443.845]
<sta> d ɔ~ k e <foreign> ʒ e <foreign> t ɣ ɛ ɣ e k o n e s a~ p a s k e s ɔ~ ʃ a ʒ k a~ m ɛ m k i a l e ʒ e p u n u e a~ s ɥi t <hes> k ɔ m a~ m t e k a d i s a <no-speech> o t o m a t i k m a~ n u ɣ e g l e s a <no-speech> <sta> n a p k ɔ m a~ s e p ɣ e p a ɣ e <no-speech> e s p a s l a w i u k ɔ~ n s a 
[460.555]
<no-speech> 
[462.215]
n a p k ɔ m a~ s e p ɣ e p a ɣ e e s p a s <sta> l a n a p <foreign> t u u k ɔ~ p ɣ a~ n s a m d i w l a 
[465.775]
<no-speech> 
[469.025]
e~ h e~ <foreign> b ɔ~ m d i w w a p p a l e a v ɛ m l a a p a g e~ m u~ a~ f a s u a k a p t a~ d e w <sta> <no-speech> 
[475.765]
<no-speech> 
[476.835]
<no-speech> 
[478.165]
<no-speech> 
[480.245]
n ɔ~ m p a g e~ p w o b l ɛ m p a m s e~ p l e m a~ m a~ d e w s i p a g e~ m u~ k a p t a~ d e n u <no-speech> m w e~ m p a v l e p a l e t w ɔ p t u 
[487.255]
<no-speech> 
[488.375]
m p a v l e p a l e t w ɔ p p u j o p a d i k e s e m u~ n a~ k p a l e u m e~ m u p a p a l e d ɔ~ k <no-speech> m t e v l e b a w 
[493.685]
<no-speech> 
[496.495]
<no-speech> 
[496.845]
<no-speech> 
[499.195]
<sta> e~ b e~ p a g e~ p w o b l ɛ m ʒ a~ m d i w l a <hes> n a~ s e m p a d i n a~ s e m ɛ n n a~ n ɔ~ p a s k e m g e~ e t i d j e m a p e t i d j e <no-speech> d ɔ~ k m p a~ s e k e d i s i l ɔ t s e m ɛ n n a p ɣ e g l e t u b a g a j o k e t i m a d a~ m 
[511.005]
s a w f ɛ <no-speech> <sta> e p u k i s a 
[513.465]
<no-speech> 
[515.675]
e w i k a t l a l i <no-speech> m ɔ~ ʃ ɛ m g ɔ~ t i p w o b l ɛ m m a ʃ i n l a <foreign> 
[519.875]
<no-speech> 
[520.945]
g e~ l ɛ s e n a~ l a b o ɣ a t w a l e k ɔ l l a m a p e s e j e f ɛ l m e t e l s u <foreign> <no-speech> p a s k e <foreign> m w e~ p a b ɔ~ e a~ p a l a~ s a a k i l ɛ u p ɣ a l l e k ɔ l ʒ o d i a m g ɔ~ b a g a j n a~ m e~ m m b e z w e~ b a w l a d a~ n w i 
[530.925]
<no-speech> 
[533.295]
<sta> w i m p a k ɔ~ n s i s e ʒ o d i a m e~ n e~ p ɔ t l ɛ u k ɔ~ n e~ d e p i k ɔ b n a~ m e~ m t u t o t a~ m b a u l p i ɣ a p i d s e t u t a~ l p i b ɔ~ p a s k e m p a f ɛ t ɛ t m p a f ɛ m e~ m k ɔ~ f j a~ s 
[540.045]
<no-speech> 
[541.725]
<sta> e~ b e~ a k i l ɛ w a p d e s a~ n l a 
[543.755]
<no-speech> 
[545.165]
a k i l ɛ w a p d e s a~ n 
[546.625]
<no-speech> 
[549.575]
a~ b e~ o k e m p a k ɔ~ n e~ <no-speech> a~ b e~ o k e p e t ɛ t p i p i t a m p a k ɔ~ n e~ 
[554.345]
<no-speech> 
[558.675]
s a u d i l a m a~ m a~ w p a i s i t u m ɛ t ɣ e t d e m e~ d e m e~ w a p ʒ w e~ n n i o k e 
[562.565]
<no-speech> 
[564.445]
d ɔ~ k t i m a d a~ m <no-speech> d e m e~ s i d j e v l e 
[567.575]
<no-speech> 
[569.655]
<sta> d e m e~ s i b ɔ~ d j e v l e n a w ɛ d a k ɔ 
[573.025]
<no-speech> 
[574.075]
a l o 
[575.065]
<no-speech> 
[576.575]
<sta> w i t u b a g a j a~ f ɔ m b e b i u p a b e z w e~ b a j t ɛ t u p w o b l ɛ m d ɔ~ k 
[580.275]
<no-speech> 
[583.145]
e~ h 
[583.935]
<no-speech> 
[588.865]
<sta> e b j e~ e b j e~ o k e k ɔ m k ɔ m u d i l 
[591.875]
<no-speech> 
[592.945]
o k e <no-speech> m d i w k ɔ m u d i l l i g e~ t a~ <foreign> m i n i t w i <sta> k ɔ m u d i l u ɣ e t <foreign> m i n i t ɥi t s e g ɔ~ d 
[599.465]
<no-speech> 
[600.160]
