[0.000]
<no-speech> 
[4.325]
a l o 
[5.695]
<no-speech> 
[6.535]
m h m 
[8.045]
<no-speech> 
[9.315]
m w e~ g e~ j ɔ~ e~ s p e k s j ɔ~ w i <no-speech> a~ 
[11.625]
<no-speech> 
[13.605]
a l o 
[15.145]
<no-speech> 
[16.705]
m w ɛ l g e~ j ɔ~ e~ s p e k s j ɔ~ s u l i w i <no-speech> m t a~ d e o h j ɔ~ m e s a ʒ k i p a ɣ ɛ t a v a~ s a 
[21.285]
<no-speech> 
[26.385]
w i u t e d i m s a s e p u s a k f ɛ w d i m s a 
[28.495]
<no-speech> 
[36.195]
n a~ 
[37.085]
<no-speech> 
[39.055]
m p a t a~ d e s a u d i 
[40.175]
<no-speech> 
[44.515]
j ɔ~ k ɔ b j o p ɣ a l p ɣ e t e w 
[46.305]
<no-speech> 
[47.935]
ɛ m 
[48.485]
<no-speech> 
[53.525]
v i n i n a p a l e 
[55.675]
<no-speech> 
[56.865]
<no-speech> 
[57.635]
<no-speech> 
[60.485]
e~ h e~ 
[62.145]
<no-speech> 
[64.175]
m a p t a~ n u 
[65.095]
<no-speech> 
[68.275]
a~ s e p u s a k f ɛ w ɣ e l e m l a 
[69.795]
<no-speech> 
[74.355]
s e v ɣ e <no-speech> e h 
[77.215]
<no-speech> 
[80.025]
k i s a w p ɣ a l f ɛ k i f ɛ s a m e~ m e~ ʃ e ɣ i m w e~ m w e~ m s e u m t e a~ v i w ɛ w a p u f ɛ e~ s p e k s j ɔ~ s u m w e~ u ɣ e l e m 
[88.425]
<no-speech> 
[89.295]
b ɔ~ s e u m t e a~ v i w ɛ e p a p a l e m t e a~ v i p a l e a~ s a~ m a v ɛ w s ɛ l m a~ n ɔ~ 
[93.185]
<no-speech> 
[95.675]
s e p a p a l e m t e a~ v i p a l e a v ɛ w s ɛ l m a~ m a~ v i w ɛ w t u 
[99.355]
<no-speech> 
[104.105]
ɛ m 
[104.965]
<no-speech> 
[110.475]
<hes> <no-speech> a l ɔ n a p b a j b l a g l a w i n u n a~ n e~ p ɔ t d i m i n i t l a p a v ɣ e 
[115.735]
<no-speech> 
[119.705]
a~ e k ɔ~ b e j j e k ɔ~ s a 
[122.465]
<no-speech> 
[123.825]
<no-speech> 
[124.215]
<no-speech> 
[129.845]
<no-speech> 
[130.305]
<no-speech> 
[132.695]
ɛ m <no-speech> e~ b e~ o k e <no-speech> e s i j o p ɣ e t e w k ɔ b s a s a w a p f ɛ a v ɛ l 
[137.495]
<no-speech> 
[146.315]
m h m <no-speech> ɛ s k e o h t e g e~ j ɔ~ ɣ ɛ s k ɔ b p u j o t e b a w j o t e b a u l 
[149.625]
<no-speech> 
[154.205]
ɛ m 
[155.405]
<no-speech> 
[156.695]
ɛ m <no-speech> e p a s a n ɔ~ m w e~ m d i ɛ s k e j o t e v o j e l p u u p a~ d a~ j o t a p f ɛ b i s n i s n a~ 
[163.955]
<no-speech> 
[164.935]
<no-speech> 
[165.325]
<no-speech> 
[168.595]
<no-speech> 
[169.005]
<no-speech> 
[171.245]
<no-speech> 
[171.595]
<no-speech> 
[175.125]
m d a k ɔ <no-speech> o h p u k i s a w p a t u m a~ d e l p u l e d e w f ɛ l p u l e d e w p e j e l 
[181.025]
<no-speech> 
[183.175]
a~ <no-speech> d i l s a p u w t a~ d e k i s a l a p d i w d i l u p a g e~ a~ j e~ m e~ m <no-speech> k ɔ m a~ l k a f ɛ e d e w f e~ p e j e s a u k ɔ~ p ɣ a~ n z a~ m i w l i j e 
[193.685]
<no-speech> 
[195.485]
<no-speech> 
[195.945]
<no-speech> 
[197.565]
a~ 
[199.015]
<no-speech> 
[201.115]
s e v ɣ e e k ɔ~ b j e~ k ɔ b k i ɣ e t e w l a k u n j e a 
[203.375]
<no-speech> 
[204.325]
<no-speech> 
[204.845]
<no-speech> 
[210.045]
k ɔ~ b j e~ 
[210.835]
<no-speech> 
[216.175]
ɛ m <no-speech> a p ɣ ɛ s a s i w t a p g ɣ a d j e k ɔ~ b j e~ k ɔ b k i ɣ e t e w l a 
[221.165]
<no-speech> 
[224.565]
s e~ m i l 
[225.455]
<no-speech> 
[228.755]
a~ o k e 
[229.725]
<no-speech> 
[230.725]
d a k ɔ <no-speech> m e~ d i l e d e w <no-speech> o m w e~ l t e k a v o j e j p u u ʃ a k m w a <no-speech> j ɔ~ t i b a g a j p u u ʃ a k ʃ a k m w a s a w w ɛ <no-speech> k i l ɛ g ɣ a d j a s j ɔ~ a~ 
[240.535]
<no-speech> 
[245.985]
s e v ɣ e 
[246.735]
<no-speech> 
[248.765]
a~ t u k a m b j e~ k ɔ~ t a~ e k ɔ~ b j e~ a n e a p e j e m e~ m 
[251.925]
<no-speech> 
[255.215]
b ɔ~ b ɔ~ m p a t k a p e j e p u u ʃ e ɣ i m p a o b l i ʒ e m a~ d e w <no-speech> e s a m k a f ɛ s e l i m o b l i ʒ e f ɛ w i 
[261.785]
<no-speech> 
[262.645]
<no-speech> 
[263.085]
<no-speech> 
[265.075]
<no-speech> 
[265.575]
<no-speech> 
[267.935]
d i m w e~ b e b e s e s a m k a f ɛ m e~ t e ɣ e s e d e l i <no-speech> m e~ s i m p a k a f ɛ a~ j e~ p u u s ɛ l m a~ e k o k ɔ~ b j e~ s a j e k ɔ~ b j e~ s a j e k ɔ~ b j e~ s a j e e p i m p a k a f ɛ a~ j e~ p u u <no-speech> m o b l i ʒ e w ɔ~ t m p a d i a~ j e~ 
[279.925]
<no-speech> 
[280.075]
<no-speech> 
[283.395]
m h m 
[284.065]
<no-speech> 
[285.235]
m w e~ m t e t ɣ ɛ w ɔ~ t d e b a g a j s a 
[289.755]
<no-speech> 
[290.705]
e k ɔ~ b j e~ l t e j e 
[291.835]
<no-speech> 
[297.325]
<no-speech> 
[299.015]
<no-speech> 
[299.875]
b a~ m d i w j ɔ~ b a g a j <no-speech> b a~ m d i w j ɔ~ b a g a j <no-speech> m p a d w e d e k u ɣ a ʒ e w n ɔ~ m p a t d i w p a b e z w e~ a l e n ɔ~ <no-speech> ɛ s k e m t e ʒ a~ m d i j ɔ~ b a g a j k ɔ~ s a j ɔ~ m o k ɔ~ s a j ɔ~ m o k ɔ~ s a t e s o t i n a~ b u ʃ 
[310.515]
a~ <no-speech> ɛ s k e j ɔ~ m o k ɔ~ s a t e s ɔ t n a~ b u ʃ m w e~ <no-speech> a~ <no-speech> m e~ m p a t a p m t a p ʒ a~ m d i w p a a l e <no-speech> m k ɔ~ n a p f ɛ d i s k i s j ɔ~ a~ s a~ m a v ɛ w p a ɣ a p ɔ a m e t j e m a m e t j e w l a 
[322.085]
m e~ m p a k ɔ~ n d i w p a a l e <no-speech> o k ɔ~ t ɣ ɛ <no-speech> p u w p a p a s e a n e a v i d 
[329.625]
<no-speech> 
[334.735]
m p a d i s a n ɔ~ 
[335.575]
<no-speech> 
[340.935]
b l a g 
[342.215]
<no-speech> 
[346.325]
a p ɣ ɛ s a 
[347.165]
<no-speech> 
[348.165]
ɛ m 
[349.705]
<no-speech> 
[350.815]
k i s a 
[352.995]
<no-speech> 
[354.325]
<no-speech> 
[354.705]
<no-speech> 
[361.315]
m w e~ m e~ m 
[362.045]
<no-speech> 
[363.735]
<laugh> u w ɛ b a g a j s a u d i l a <no-speech> p u m w e~ t a <foreign> d i l s e ʒ i s l ɛ m v i n s e ʒ i s b ɔ z ɔ n s e p t a~ m j o 
[372.355]
<no-speech> 
[374.925]
s i m t e k a f ɛ l m t a p f ɛ l w i <no-speech> ɛ m 
[377.915]
<no-speech> 
[379.585]
a~ 
[380.235]
<no-speech> 
[381.735]
<no-speech> 
[382.105]
<no-speech> 
[382.945]
ʒ a k s ɔ~ n d w a w i m k w ɛ 
[384.635]
<no-speech> 
[387.365]
a~ d w a w i m k w ɛ 
[390.325]
<no-speech> 
[391.495]
<foreign> n a~ i n i ʒ e d 
[395.085]
<no-speech> 
[396.605]
<no-speech> 
[397.995]
<no-speech> 
[400.815]
n a~ i n i ʒ e d l i j e n a~ w u t p u m ɔ~ t e a~ w o b ɛ l ɛ a 
[404.735]
<no-speech> 
[405.605]

[407.985]
<no-speech> 
[410.965]
ɛ m 
[412.805]
<no-speech> 
[414.245]
ɛ m <no-speech> b ɔ~ u p a k ɔ~ n o k a p 
[416.125]
<no-speech> 
[417.145]
<no-speech> 
[418.285]
<no-speech> 
[420.105]
u p a k ɔ~ n o k a p 
[421.345]
<no-speech> 
[424.715]
w i a~ n a l e 
[425.585]
<no-speech> 
[428.935]
a~ 
[431.515]
<no-speech> 
[432.595]
<no-speech> 
[432.945]
<no-speech> 
[436.035]
a~ s e p t a~ m p w o ʃ e~ 
[437.135]
<no-speech> 
[439.335]
n a~ m w a s e p t a~ m 
[440.355]
<no-speech> 
[442.915]
b ɔ~ b e b e e m e~ m b a g a j l a w i m e~ m l ɛ w f i n i t u d e p i w p a ʒ w e~ n d ʒ ɔ b s e k ɔ~ s a l a p t u ʒ u j e w i 
[448.975]
<no-speech> 
[454.075]
<no-speech> 
[454.595]
<no-speech> 
[457.885]
h m 
[458.305]
<no-speech> 
[459.195]
m p a p g e~ p w o b l ɛ m n ɔ~ w a p k a g e~ t a~ f ɛ s e~ k a~ t d o l a s e p a <foreign> <foreign> l a p u w f ɛ <no-speech> k ɔ b p a ʒ a~ m t w ɔ p <no-speech> a~ 
[470.675]
<no-speech> 
[471.595]
k ɔ b p a ʒ a~ m t w ɔ p <no-speech> w a p f ɛ j ɔ~ l ɔ t b a g a j a v ɛ l <no-speech> p e t ɛ t l i p a p d e p a~ s e l t a~ k u n a~ b a g a j s a <no-speech> m e~ w a p f ɛ j ɔ~ l ɔ t b a g a j a v ɛ l w e g a ɣ e t w ɔ p 
[481.135]
<no-speech> 
[483.115]
l a p b ɔ~ w i <no-speech> m e~ e p a s e~ m i l d o l a w a p b e z w e~ n ɔ~ 
[489.965]
<no-speech> 
[491.065]
<no-speech> 
[491.445]
<no-speech> 
[496.565]
<no-speech> 
[496.965]
<no-speech> 
[498.395]
<no-speech> 
[499.185]
<no-speech> 
[500.525]
<no-speech> 
[500.905]
<no-speech> 
[510.705]
<no-speech> 
[512.765]
<no-speech> 
[514.025]
m e~ m a~ n u p a p ɣ a l f ɛ l a 
[515.665]
<no-speech> 
[523.935]
<lipsmack> o h <no-speech> s a w a p d i k ɔ~ s a <no-speech> s a w a p d i k ɔ~ s a 
[527.885]
<no-speech> 
[528.925]
ɛ m 
[529.445]
<no-speech> 
[530.345]
a~ <no-speech> m w e~ m e~ m 
[532.275]
<no-speech> 
[534.595]
m p a d i w n ɔ~ m p a e k z i ʒ e w n ɔ~ s ɛ m 
[536.985]
<no-speech> 
[538.335]
<no-speech> 
[539.205]
<no-speech> 
[542.525]
ɛ m 
[544.355]
<no-speech> 
[546.315]
e p a m w e~ n ɔ~ <no-speech> l i p o k o k a l i p o k o k a n a~ <no-speech> l i p o k o k a v a~ n 
[550.915]
<no-speech> 
[554.695]
p a g e~ 
[555.205]
<no-speech> 
[558.075]
n u p a g e~ a~ k ɔ 
[559.265]
<no-speech> 
[561.875]
ɛ m ɛ m 
[562.485]
<no-speech> 
[564.185]
ɛ s k e w ɛ s k e w a p b a~ n u j ɔ~ m u~ 
[565.895]
<no-speech> 
[570.275]
o k e u m ɛ t ʃ ɛ ʃ e l k u n j e a 
[571.565]
<no-speech> 
[575.405]
t a l ɛ w a p g a d e p u m w e~ 
[576.475]
<no-speech> 
[579.935]
m p a k a w ɛ m i n i t m w e~ m p a k a m e t e s e b u ʃ b a g a j l a 
[583.995]
<no-speech> 
[589.595]
e k u n j e a l a 
[590.575]
<no-speech> 
[591.735]
ɛ m 
[592.315]
<no-speech> 
[593.915]
s a u d i 
[594.895]
<no-speech> 
[596.995]
b ɔ~ m k ɔ~ n e~ m d i m a p t a~ n u 
[598.265]
<no-speech> 
[600.220]
