[0.000]
<no-speech> 
[5.315]
a l o 
[5.885]
<no-speech> 
[7.485]
a l o 
[8.005]
<no-speech> 
[8.865]
a l o <no-speech> w i 
[10.175]
<no-speech> 
[11.875]
k ɔ m a~ w j e l a m e~ m 
[12.835]
<no-speech> 
[14.715]
m p a <foreign> n ɔ~ m p a t a~ d e w <foreign> t u f w a m a p e s e j e ɣ e l e w m p a t k a ʒ w e~ n u 
[17.855]
<no-speech> 
[19.425]
w a p m e~ n e~ 
[20.275]
<no-speech> 
[23.385]
k i p w o b l ɛ m u t e k ɔ~ n e~ m w e~ t e g e~ j e~ ʃ e ɣ i 
[26.275]
<no-speech> 
[28.485]
a k p a p a w 
[29.215]
<no-speech> 
[32.755]
e~ b e~ p ɔ t o p ɣ e~ s p a p a w j e a~ s a~ m a 
[34.475]
<no-speech> 
[36.025]
p ɔ t o p ɣ e~ s p a p a w j e a~ s a~ m a v ɛ w k u n j e a 
[37.785]
<no-speech> 
[39.135]
p ɔ t o p ɣ e~ s p a p a w j e k u n j e a a~ s a~ m a v ɛ w 
[40.785]
<no-speech> 
[44.675]
m a~ t i 
[45.385]
<no-speech> 
[47.855]
k o t t i m u~ j o 
[48.915]
<no-speech> 
[51.645]
w a p m e~ n e~ d e p i w k e~ j ɔ~ k ɔ b <hes> d e p i w g e~ k ɔ b k ɔ~ s a m k ɔ~ n e~ d e p i w g e~ k ɔ b k ɔ~ s a m a p k ɔ~ n e~ 
[57.925]
<no-speech> 
[60.685]
d e p i w g e~ k ɔ b m a p k ɔ~ n e~ m w e~ d i w 
[62.365]
<no-speech> 
[64.895]
<no-speech> 
[65.555]
<no-speech> 
[67.995]
o h m p a b e z w e~ k ɔ~ n e~ g e~ <no-speech> u k ɔ~ n e~ s i w f ɛ j ɔ~ b a g a j k ɔ~ s a m a p k ɔ~ n e~ j o 
[72.605]
<no-speech> 
[74.575]
e p a v ɣ e 
[75.285]
<no-speech> 
[76.385]
w i w i 
[78.215]
<no-speech> 
[79.885]
g a d e p u w j ɛ p a s k e g e~ <no-speech> u p a ʒ a~ m ɣ e l e m 
[82.605]
<no-speech> 
[84.585]
t a~ d e 
[85.195]
<no-speech> 
[88.815]
m t a~ d e w i 
[89.755]
<no-speech> 
[94.405]
e p a ʒ o d i a h m ɣ e s i e p a ʒ o d i a h ɛ m m a p m e t e k a t p u m w e~ p a l e a v ɛ w 
[98.285]
<no-speech> 
[100.865]
a~ 
[101.385]
<no-speech> 
[106.085]
e~ b j e~ m p a k ɔ~ 
[107.295]
<no-speech> 
[108.455]
e b j e~ ʃ e ɣ i d e p i w p a g e~ k ɔ b n a~ m e~ w u s i p o z e u s i p o z e <no-speech> f e b l i w i s e d i l i v m a p 
[114.185]
<no-speech> 
[115.305]
e d i m i n i t m a p f ɛ m a p p a l e a v ɛ w 
[116.825]
<no-speech> 
[118.375]
e d i m i n i t m a p f ɛ m a p p a l e a v ɛ w p a s k e ɛ m k ɔ b l a s e p u d i m i n i t l i l a 
[121.775]
<no-speech> 
[124.575]
w i 
[125.145]
<no-speech> 
[126.805]
<no-speech> 
[127.255]
<no-speech> 
[128.305]
e~ b e~ m k w ɛ m k w ɛ u t e d i m u t e g e~ p u w a l e 
[130.685]
<no-speech> 
[132.455]
k ɔ m a~ 
[132.985]
<no-speech> 
[138.295]
f ɔ w ɣ e j i s i a k p a p a w a~ v a~ m w e~ k ɔ~ n e~ f ɔ w ɣ e j i s i a k p a p a w p ɣ e m j e <no-speech> p ɣ e m j e s a k e 
[142.245]
<no-speech> 
[144.955]
m e~ k i s a 
[145.755]
<no-speech> 
[153.385]
l i p a k a t w a l ɛ t t u 
[154.365]
<no-speech> 
[155.325]
<hes> j o p ɣ a l b a l t u b 
[156.795]
<no-speech> 
[158.575]
e t u b j o p ɣ a l b a l i l a <breath> 
[160.905]
<no-speech> 
[165.455]
k i j ɛ s 
[165.925]
<no-speech> 
[169.375]
e~ b e~ o p ɣ e s j ɔ~ t u s w i t j o o ɣ a l f ɛ 
[171.155]
<no-speech> 
[172.945]
l i l i p o s t u m e 
[174.815]
<no-speech> 
[175.745]
<int> w i e k o s t u m e l k o s t u m e l i k o s t u m e l i f ɛ k ɔ~ b j e~ ʒ u l i p a m a~ ʒ e 
[181.615]
<no-speech> 
[185.795]
e~ b e~ s i l m a~ ʒ e k ɔ m a~ l f ɛ b a g a j e~ f e k k i ʒ a~ l g e~ b a g a j s a 
[188.395]
<no-speech> 
[194.425]
e~ b e~ <hes> e~ b e~ e f i g l a e f i g b a~ l a p u w b a l i m e~ m w i p u b a g a j s a 
[198.175]
<no-speech> 
[200.935]
v a~ t l i d i l i p a l i p a k a p i p i 
[202.425]
<no-speech> 
[209.645]
<no-speech> 
[210.265]
<no-speech> 
[218.525]
e~ b e~ l i s i p o z e p i p i n ɔ m a l p a s e k e t w a l ɛ t l a~ l i p a k a t w a l ɛ t t w a l ɛ t l a~ <foreign> 
[222.165]
<no-speech> 
[229.975]
a <no-speech> a d o k k t ɛ p u <hes> b ɔ~ a k d o k k t ɛ a~ p u w t a ʒ w e~ n ʃ e ɣ i u p a k a u p a k a b a l p ɣ a~ t u b a g a j 
[234.795]
<no-speech> 
[238.705]
e p a d o k k t ɛ a k i p u 
[239.515]
<no-speech> 
[240.435]
a~ <no-speech> s a k f ɛ l p i p i e <hes> e d ɔ~ k p a m u~ k i t e p o t e s u p p u l i 
[243.605]
<no-speech> 
[245.055]
s e p a t m u~ k i t e v o j e s u p p u l i 
[246.395]
<no-speech> 
[250.015]
a~ 
[250.665]
<no-speech> 
[256.375]
n ɔ~ e <oov> <hes> e s ɛ l u m e~ m l i g e~ j e~ k ɔ m p i t i t l i u <hes> l i t a s i p o z e l i t a s i p o z e e d e w w i 
[261.915]
<no-speech> 
[264.105]

[264.715]
<no-speech> 
[266.425]
e~ b e~ f ɔ k g e~ s a n a~ l a v i 
[267.825]
<no-speech> 
[272.375]
a~ 
[272.755]
<no-speech> 
[275.665]

[281.915]
<no-speech> 
[284.055]
p u k ɔ~ b j e~ k ɔ b o p e ɣ a s j ɔ~ a~ 
[285.365]
<no-speech> 
[287.105]
p u k ɔ~ b j e~ k ɔ b e o p e ɣ a s j ɔ~ a~ k ɔ~ s a 
[289.705]
<no-speech> 
[292.385]
l i n a~ d e m i l k ɔ~ b j e~ j o e k ɛ k j o 
[294.265]
<no-speech> 
[300.315]
n a~ k i l o p i t a l u j e <int> n a~ k i l o p i t a l u <hes> n a~ k i l o p i t a l u j e l a n a~ s a~ t o v e~ n s e~ k 
[304.805]
<no-speech> 
[306.195]
n a~ s a~ t o v e~ n s e~ k ɛ m <hes> u w a k a m ɔ~ t e a~ l ɛ s a p i t o 
[308.755]
<no-speech> 
[310.405]
ɔ~ l o p i t a l <foreign> l i j e w i 
[311.765]
<no-speech> 
[313.765]
k ɔ m a~ d a j a n a j e k ɔ m a~ d a j a n a j e 
[316.185]
<no-speech> 
[317.105]
<no-speech> 
[317.555]
<no-speech> 
[319.295]
a v a~ j ɛ m t e ɣ e l e w e j o 
[320.885]
<no-speech> 
[326.455]
a~ u v o j e j o <hes> u v o j e j o b u t ɛ j p e t j ɔ~ v i l 
[328.685]
<no-speech> 
[332.595]
u t a p k i t e j o n a~ k a j l a p u k ɔ l 
[334.305]
<no-speech> 
[335.435]
o m u~ p a k ɔ~ n s u f ɣ i k ɔ~ s a n ɔ~ ʃ e ɣ i m u~ p a k ɔ~ n s u f ɣ i n ɔ~ ʃ e ɣ i 
[338.305]
<no-speech> 
[339.965]
m u~ p a k ɔ~ n s u f ɣ i 
[341.175]
<no-speech> 
[347.265]
s a w t e p a~ s e t u s a k a ɣ i v e 
[349.465]
<no-speech> 
[352.795]
a u v o j e b a j b a j f a~ m i b a j p a j o 
[354.925]
<no-speech> 
[356.635]
k ɔ m a~ m a~ m a~ w j e l a m e~ m 
[357.895]
<no-speech> 
[360.265]
u t e ɣ e~ m e~ b a g a j u a j o 
[361.655]
<no-speech> 
[364.765]
s a s a k p u d i w m w e~ p a p m w e~ p a p v i n ʒ w e~ n u n a~ m w a d n a~ m w a k a p v i n i a~ j o 
[369.215]
<no-speech> 
[371.555]
m g e~ p u m w e~ v i n i w i m p a m p a k ɔ~ k i ʒ u m a p m ɔ~ t e k i ʒ u m a p d e s a~ n n a~ 
[375.045]
<no-speech> 
[377.065]
s a k p u d i w s e p a b ɔ l a k a j u m a p d e s a~ n a~ p ɣ e m j e l j e 
[379.535]
<no-speech> 
[381.825]
<no-speech> 
[382.355]
<no-speech> 
[384.125]
n ɔ~ m p a p ɣ a l l a p l ɛ n k o t e m a l k o t e m a l p u w p a s e n a~ 
[387.785]
<no-speech> 
[391.185]
k o t e p u w m a ʃ e n a~ 
[392.335]
<no-speech> 
[395.205]
a~ 
[395.745]
<no-speech> 
[400.065]
n ɔ~ m a ʃ ɛ u k ɔ~ n k o t e m a p d e s a~ n u p a k ɔ~ n k o t e m a p d e s a~ n d i ɣ ɛ k 
[402.865]
<no-speech> 
[405.825]
n ɔ~ s a k p u d i w m p a p <hes> a p a m a p 
[407.995]
<no-speech> 
[408.865]
n ɔ~ ʃ e ɣ i <laugh> m k ɔ~ n s a m k ɔ~ n s a w i e p a v ɣ e 
[413.485]
<no-speech> 
[416.585]
s e v ɣ e 
[417.155]
<no-speech> 
[420.645]
n ɔ~ m p a k w ɛ w a p k ɔ~ w a p k ɔ~ n e~ a~ b j a~ s l a~ 
[422.315]
<no-speech> 
[429.285]
e p a v ɣ e p a g e~ m u~ k i k ɔ~ n k i l ɛ <no-speech> p a g e~ m u~ k i k ɔ~ n k i l ɛ m a p m u t e p ɔ t o p ɣ e~ s p a g e~ m ɔ~ k a p <hes> k a p k ɔ~ n k i l ɛ m a p d e s a~ n s ɔ t p ɔ t o p ɣ e~ s 
[435.575]
<no-speech> 
[437.705]
<cough> k i s a 
[438.725]
<no-speech> 
[442.255]
u k w ɛ m k w ɛ w e~ b e~ k i l ɛ m a p w ɛ w l a ʃ e ɣ i 
[445.015]
<no-speech> 
[447.805]
s a k f ɛ s a a~ s a~ m a v ɛ w <laugh> 
[451.035]
<no-speech> 
[452.245]
a~ s a~ m a v ɛ w s e u k i f ɛ m m ɛ t d a m k ɔ~ s a w i 
[454.585]
<no-speech> 
[456.295]
e m w e~ k k ɣ a ʃ e s u u 
[457.405]
<no-speech> 
[458.685]
u d e t ɛ n s u m w e~ u m e~ m 
[459.975]
<no-speech> 
[462.515]
u d e t ɛ n s u m w e~ 
[463.605]
<no-speech> 
[465.445]
u d e t ɛ n s u n u <no-speech> k ɛ w k ɔ~ t a~ o k e k ɛ w k ɔ~ t a~ ʒ o d i a u w ɛ m a ɣ i w m a ɣ i w a p p a l e f ɛ a~ p i l t a~ a v ɛ w 
[473.085]
<no-speech> 
[474.805]
a~ 
[475.305]
<no-speech> 
[477.805]
b ɔ~ m m w ɛ a~ v a~ j ɛ u t a p e s e j e ɣ e l e m b ɔ~ m p a t k a p ɣ a~ a p ɛ l u d e p i w w ɛ m l e g l i z m u~ p a ɣ e l e p a s k e m p a p k a p ɣ a~ l 
[483.785]
ʃ e ɣ i 
[486.005]
<cough> u g e~ d w a p a t u m e~ m <no-speech> u g e~ d w a e t a p u m e~ m t u m p a k ɔ~ n e~ s a k a ɣ i v e 
[491.065]
<no-speech> 
[494.455]
t ɛ l m a~ m g e~ k i s a e n ɔ~ w k i t e m ɔ~ t e s u t e l e f ɔ n m w e~ a~ m p a g e~ m u~ g e~ l ɔ t m u~ k i m ɔ~ t e e n ɔ~ p a w k i t u ʒ u a~ 
[500.905]
<no-speech> 
[503.455]
e k a t g u d m a ʃ i n l i d w e m w i 
[505.245]
<no-speech> 
[506.635]
b a 
[507.125]
<no-speech> 
[508.195]
<cough> ɛ s k e m a ʃ t e j ɔ~ k a t g u d p u m w e~ b i p e w 
[511.195]
<no-speech> 
[513.025]
<oov> g a d e p u w w ɛ m a~ v i w ɛ w w i 
[516.595]
<no-speech> 
[520.115]
t u ʃ e ɣ i 
[522.265]
<no-speech> 
[525.575]
h e j n a~ k i m w a v w a j a ʒ u a ɛ s k e n a~ k i m w a k i b ɔ w t a p ɣ a l l a m e~ m 
[528.435]
<no-speech> 
[532.805]
p u k i z ɔ n u p a t p ɣ a l e 
[533.925]
<no-speech> 
[536.645]
a l o 
[537.205]
<no-speech> 
[539.935]
k i ʒ a~ w t a p ɣ e m ɛ t u 
[541.015]
<no-speech> 
[543.735]
u k o <hes> n a~ k i k o t e j o p o k o ɣ e m ɛ t u l a 
[545.595]
<no-speech> 
[547.775]
k i s a k i s a j o p o k o ɣ e m ɛ t u a 
[549.445]
<no-speech> 
[552.535]
k i p a p j e 
[553.305]
<no-speech> 
[555.935]
a e k s t ɣ ɛ d a ʃ i v l a t e f ɛ t d e ʒ a 
[557.705]
<no-speech> 
[560.275]
e k s t ɣ ɛ d a ʃ i v f ɛ t p a s p ɔ f ɛ 
[562.005]
<no-speech> 
[568.105]
w a p t a~ n w a p t a~ n p u a~ b a s a d ɣ e l e w k u j o ɣ e l e w w a p v i ɣ e 
[571.565]
<no-speech> 
[574.685]
e b j e~ u m e~ m k i ʒ a~ u m e~ m k i ʒ a~ w a p k ɔ~ n e~ k i ʒ a~ w a p f ɛ b a~ m ʒ u a u p u m w e~ t a <no-speech> p u m w e~ t a k i ʒ a~ w a p f ɛ b a~ m w e~ a~ 
[581.925]
<no-speech> 
[582.925]
k i ʒ a~ u t a f ɛ b a~ m w e~ n i m e w o t e l e f ɔ n <hes> m w e~ k i p u t a b a~ m p a w l a~ p u m w e~ k ɔ~ n s i w ɣ i v e 
[588.455]
<no-speech> 
[591.545]
w a p t u p a m l a~ 
[592.585]
<no-speech> 
[597.505]
e~ b e~ m t a k ɔ~ s e j e s a ʃ e ɣ i p a s k e m w e~ m e~ m m t u <oov> 
[599.960]
