[0.000]
<no-speech> 
[7.525]
<no-speech> 
[7.875]
<no-speech> 
[8.795]
a l o 
[9.375]
<no-speech> 
[11.955]
<no-speech> 
[17.735]
<no-speech> 
[18.955]
e b j e~ s a p u m t e f ɛ <laugh> s a w a p f ɛ l a w i 
[27.895]
<no-speech> 
[29.105]
<no-speech> 
[29.475]
<no-speech> 
[30.885]
o h o h m e~ m s a <no-speech> s a w u s ɔ t n ɔ~ <hes> m a~ v i b w ɛ j ɔ~ t i a k a s a~ <no-speech> a~ 
[41.815]
<no-speech> 
[46.415]
l i g e~ l ɛ a l l o p i t a l l a l l a l l o p i t a l f i g i a p a b ɔ~ m e~ m n ɔ~ 
[53.935]
<no-speech> 
[55.425]
m h m 
[56.325]
<no-speech> 
[57.545]
f i g i a p a b ɔ~ m e~ m e l o p i t a l l a l e l a <no-speech> g e~ l ɛ n a~ l a p ɛ a 
[63.865]
<no-speech> 
[64.915]
u b j e~ j ɔ~ l ɔ t k o t e k ɛ l k ɔ~ k <laugh> k ɛ m f ɛ m a l w i 
[76.715]
ʃ a k l ɛ m g a d e ɛ l m s a~ t i d l o <foreign> p u k u l e n a~ ʒ e ɛ m 
[79.425]
<no-speech> 
[83.025]
w i 
[88.315]
<no-speech> 
[89.345]
ɛ m m e z a~ m i b ɔ~ e k w ɛ b ɔ~ e k w ɛ u s ɔ t m ɔ~ t e a~ l ɛ a v ɛ l u d i l i p a g e~ ʃ a ʒ 
[100.025]
<no-speech> 
[101.185]
<no-speech> 
[101.545]
<no-speech> 
[103.675]
m p ɣ a l f ɛ b ɔ s l a b a~ n u ɛ l 
[106.355]
<no-speech> 
[107.225]
k ɔ b l a p u n a ʃ t e a k a s a~ 
[109.045]
<no-speech> 
[111.345]
<no-speech> 
[112.925]
<no-speech> 
[113.745]
t a~ d e <foreign> e d i m k ɔ~ s a l i d i k u n j a l a s e t o n i k i b a w 
[121.735]
<no-speech> 
[123.805]
<no-speech> 
[124.665]
<no-speech> 
[125.575]
w i 
[126.635]
<no-speech> 
[127.735]
<no-speech> 
[129.855]
<no-speech> 
[131.525]
w i 
[134.595]
<no-speech> 
[136.255]
w i 
[140.215]
<no-speech> 
[141.305]
<laugh> k i t e m a l e ɣ e a p u m w e~ 
[147.085]
<no-speech> 
[149.095]
g a d ɔ~ p w o b l ɛ m m e z a~ m i w a p p a l e u p a k a ʒ w e~ n a~ j e~ p u d i <laugh> w i 
[156.865]
<no-speech> 
[157.865]
m h m 
[162.305]
<no-speech> 
[163.315]
<no-speech> 
[163.685]
<no-speech> 
[165.865]
a~ 
[166.535]
<no-speech> 
[168.525]
a h k i s a w a p ʃ a~ ʒ e a v ɛ j o a 
[171.635]
<no-speech> 
[173.815]
p u ʃ a~ ʒ e a v ɛ j o 
[176.525]
<no-speech> 
[177.575]
a b a g a j l a k ɔ~ p l i k e <no-speech> k ɔ m a~ u ʃ a~ ʒ e a v ɛ j o 
[185.995]
<no-speech> 
[187.435]
b ɔ~ m a p b u ɣ i k e l a v e f ɛ m a~ ʒ e p u u 
[198.335]
m g e~ e~ p ɣ e s j ɔ~ s i l t e d i s a d e v a~ t i m u~ j o j o t e k a d e m a~ t i j o 
[202.205]
<no-speech> 
[203.925]
m p a~ s e s i j o d i s a d e v a~ t i m e s j e j o j a p d e m a~ t i j o p a s k e u k ɔ~ n f i k u ʃ e a s e p a p a o k i p e j o u b j e~ g e~ l ɛ p u k i s a 
[215.745]
s a p u t ɛ t b a g a j e b a g a j m a ɣ j a ʒ l a l i d i u ʃ a~ ʒ e a v ɛ j o p u t ɛ t u b j e~ s w a u d a k ɔ u b j e~ u p a d a k ɔ 
[223.385]
<no-speech> 
[224.225]
<no-speech> 
[225.145]
<no-speech> 
[227.265]
o h o h 
[229.345]
<no-speech> 
[239.905]
u b j e~ s e p a s k e u p a m ɔ~ t e u b j e~ m p a k ɔ~ n e~ 
[243.945]
<no-speech> 
[246.815]
m e z a~ m i 
[248.195]
<no-speech> 
[254.605]
<no-speech> 
[254.965]
<no-speech> 
[257.045]
u p a m w e~ 
[259.675]
<no-speech> 
[262.085]
<no-speech> 
[262.435]
<no-speech> 
[264.495]
m b ɔ~ u t u ʒ u ɣ e t e 
[269.465]
<no-speech> 
[272.505]
m h m 
[273.325]
<no-speech> 
[276.765]
b ɔ~ l i f ɛ k s ɔ t m ɔ~ t e a~ l ɛ a a v ɛ l 
[280.305]
<no-speech> 
[284.215]
<no-speech> 
[284.645]
<no-speech> 
[286.935]
<no-speech> 
[287.505]
<no-speech> 
[292.735]
n ɔ~ m p a k a ʒ w e~ l i p i t i t s i m t e ʒ w e~ n l i t a p b ɔ~ p u m w e~ a~ p i l <laugh> ɛ m 
[303.975]
<no-speech> 
[310.680]
<no-speech> 
[317.385]
<no-speech> 
[318.255]
<no-speech> 
[322.365]
<no-speech> 
[322.725]
<no-speech> 
[323.985]
<no-speech> 
[328.475]
<no-speech> 
[331.555]
w i s ɛ ɛ m 
[332.685]
<no-speech> 
[335.565]
b ɔ~ m p a k ɔ~ n e~ s i <no-speech> m b j e~ k w ɛ s a p a s k e l i t e v o j e m a~ d e w o j 
[347.055]
l i v o j e m a~ d e k ɔ b g e~ l ɛ e 
[349.665]
<no-speech> 
[351.115]
<oov> n ɔ~ g e~ l ɛ l o p i t a l l a 
[355.035]
<no-speech> 
[358.065]
m e~ k o z e 
[359.785]
<no-speech> 
[361.095]
w i 
[362.405]
<no-speech> 
[363.865]
w i s a v l e d i l a f ɔ w t ɣ a v a j 
[375.835]
k o t e s a e p u m a l a d i s a p u l a~ m ɔ j ɔ~ k o t e p u m b l i j e w i k ɔ m s i p u m b l i j e k a n ɛ s a j o ʃ e ɣ i s ɛ l m e t e m a p m e t e s u j o ʒ a m ɛ p ɣ a~ s u j o 
[387.735]
k ɔ~ n e~ u p a ʒ a~ m k ɔ~ n e~ s a k a ɣ i v e j ɔ~ b a g a j v i n ɣ i v e 
[393.475]
<no-speech> 
[394.345]
<no-speech> 
[396.445]
<no-speech> 
[397.475]
<no-speech> 
[397.825]
<no-speech> 
[398.785]
l a p b e z w e~ ɛ l 
[399.875]
<no-speech> 
[401.535]
m e z a~ m i w i 
[405.205]
<no-speech> 
[407.095]
<no-speech> 
[408.455]
<no-speech> 
[409.395]
m w e~ m e~ m t u w i 
[411.265]
<no-speech> 
[412.465]
m w e~ m t e p a k a m a~ ʒ e s i s e t e p i t i t m w e~ m p a t a p k a m a~ ʒ e n ɔ~ 
[417.215]
<no-speech> 
[418.755]
g e~ j ɔ~ s t ɣ ɛ s k a p b a t m w e~ l a p u b a g a j k w a f s a 
[426.605]
<no-speech> 
[427.625]
s e t a~ k u s e m a ɣ j e m p ɣ a l m a ɣ j e w i 
[429.745]
<no-speech> 
[431.635]
t ɛ l m a~ m s t ɣ e s e 
[435.245]
<no-speech> 
[436.145]

[437.275]
<no-speech> 
[441.265]
t w a ʒ i j ɛ m w e~ m a~ d e k i l ɛ l i g e~ t a~ t w a s a 
[443.775]
<no-speech> 
[444.615]
w i <no-speech> s e l ɛ ʒ i j ɛ a ɣ i v e m p ɣ a l s t ɣ e s e <no-speech> v e~ t ɥi t <no-speech> m g e~ t a~ m h m m g e~ t a~ d e v a~ m t u ʒ u w i 
[456.375]
<no-speech> 
[461.635]
w i 
[463.275]
<no-speech> 
[464.155]
m p ɣ a l k ɔ m a~ s e m a p k ɔ~ p o z e m a p 
[466.225]
<no-speech> 
[467.485]
w i m p a k ɔ~ m p a k ɔ~ p o z e p u <foreign> <foreign> ʒ e~ l a 
[473.185]
<no-speech> 
[474.315]
j o b a~ m v a k a~ s t w ɔ t a k i l ɛ w a p g e~ v a k a~ s 
[476.725]
<no-speech> 
[478.155]
<no-speech> 
[478.665]
<no-speech> 
[481.815]
<breath> m w e~ m e~ m t u w i a~ n o v a~ m w i m p ɣ a l n a~ s t a ʒ 
[485.125]
<no-speech> 
[488.895]
n ɔ~ m g e~ t a~ m w e~ m g e~ t a~ k ɔ~ n e~ s e a~ u t m a p a~ v a k a~ s k l ɛ a p ɣ e s a b a g a j m t e d i w u l a k a~ j a p f ɛ p u n u a l e k ɔ l l a a~ s e p t a~ m 
[500.325]
<no-speech> 
[502.815]
a~ 
[503.415]
<no-speech> 
[505.565]
s a w u k ɔ~ n s a k a p a s e 
[517.155]
l a 
[517.885]
<no-speech> 
[521.575]
p ɔ d e p ɛ m a d a~ m n a~ g e~ j ɔ~ l o p i t a l d i ɣ e k t ɣ i s l e k ɔ l l a g e~ 
[531.945]
<no-speech> 
[532.985]
k u n j a l a m e~ m j o t a p f ɛ n u f ɛ l a ʒ a~ p a~ d a~ p a d a~ n u a~ v a k a~ s l a~ l i d i s i n u v l e m u~ k i v l e 
[539.745]
<no-speech> 
[541.445]
u k ɔ~ p ɣ a~ n u g e~ d w a w ɛ n e~ p ɔ t k ɔ~ b j e~ k ɔ b j o p ɣ a l m a~ d e w u l a 
[547.225]
<no-speech> 
[549.275]
w i j o p ɣ a l ʒ i s k o t e s a a~ s a~ m a v ɛ w 
[552.745]
<no-speech> 
[554.655]
m p a k ɔ~ n e~ t u 
[561.345]
<no-speech> 
[563.795]
k i j ɛ s 
[568.855]
<no-speech> 
[571.495]
<breath> a p a g e~ s a n ɔ~ 
[575.315]
<no-speech> 
[583.055]
s e s a m e~ m e l i d i 
[585.775]
<no-speech> 
[588.015]
e p a k w a f e 
[599.905]
<no-speech> 
[600.020]
