[0.000]
<no-speech> 
[8.775]
<no-speech> 
[11.055]
<no-speech> 
[18.615]
<no-speech> 
[19.975]
<no-speech> 
[28.375]
w i a l o 
[29.235]
<no-speech> 
[30.895]
w i w i s e m w e~ 
[32.245]
<no-speech> 
[38.555]

[41.105]
<no-speech> 
[43.535]
k i l ɛ u d i j a p ɣ a~ t ɣ e t a 
[46.685]
<no-speech> 
[48.375]
k i l ɛ u d i j a p ɣ a~ t ɣ e t a 
[49.895]
<no-speech> 
[51.415]
<no-speech> 
[51.815]
<no-speech> 
[57.445]
a~ h a~ 
[58.195]
<no-speech> 
[61.335]
m w e~ m p a t a~ d e n u v ɛ l a u m e~ m n ɔ~ p a s e t e b a~ m ɔ~ n i m e w o t e l e f ɔ n m p a ʒ a~ m p a l e a k e u a~ k ɔ 
[68.165]
<no-speech> 
[71.295]
s e v ɣ e m e~ u p a ʒ a~ m b a~ m b w i a~ k ɔ p a s k e m t e g e~ n i m e w o t e l e f ɔ n a u m d i a h b ɔ~ j o p a ɣ e l e ɛ m m p a ɣ e l e j o t u 
[78.505]
<no-speech> 
[79.695]

[80.485]
<no-speech> 
[81.775]
a h j ɔ~ p w o b l ɛ m 
[83.565]
<no-speech> 
[85.515]
ɔ~ p w o b l ɛ m m u~ s a j o j e m e~ m 
[87.315]
<no-speech> 
[89.295]
s e v ɣ e l a~ ŋ a j l u a~ p i l l a~ ŋ a j l u a~ p i l 
[94.605]
<no-speech> 
[103.025]

[103.555]
<no-speech> 
[104.645]
e~ h e~ 
[105.555]
<no-speech> 
[107.515]

[108.555]
<no-speech> 
[110.165]
<hes> u k w ɛ n i z u a p ɣ a~ t ɣ e a j i t i v ɣ e 
[114.765]
<no-speech> 
[118.905]
s e v ɣ e s i e l i z k i d i w u s a l i z s e p a w ɔ l l i b j ɛ 
[123.545]
<no-speech> 
[125.485]

[126.845]
<no-speech> 
[127.875]
o h u p a t ʒ a~ m k ɔ~ n e~ s a 
[130.505]
<no-speech> 
[134.075]
u p o k o w ɛ d e p i u p o k o w ɛ d e p i l ɛ m ɔ~ t e a 
[137.015]
<no-speech> 
[140.715]
e~ h e~ l i k a p o k o v l e u w ɛ t u 
[144.495]
<no-speech> 
[146.485]

[148.575]
<no-speech> 
[149.715]
l i f ɛ d e n a~ p e~ t u j o j u~ n a~ p e~ t u 
[153.175]
<no-speech> 
[154.135]

[158.705]
<no-speech> 
[160.935]
s e v ɣ e <no-speech> m s i s p ɛ k s i m a~ d e m w ɛ l i p a ʒ a~ m f ɛ ɣ e p ɔ~ s m p a k ɔ~ n e~ t u 
[167.145]
<no-speech> 
[168.375]
ɛ m t e u w ɛ m t e e k ɣ i l m t e d i s a 
[172.905]
<no-speech> 
[174.055]
m e~ k ɔ m a~ b a g a j j o j e d ɛ j ɛ a l a 
[178.685]
<no-speech> 
[181.115]
m h m 
[182.065]
<no-speech> 
[184.575]
s e v ɣ e n a p b a g a j j o k u s i k u s a 
[188.115]
<no-speech> 
[190.035]
m w e~ m e~ m m p a k ɔ~ n m p a p ɣ a~ n u v ɛ l a m e m i n m e~ m n ɔ~ 
[193.345]
<no-speech> 
[196.275]
m h m 
[197.205]
<no-speech> 
[198.735]
o k e 
[200.065]
<no-speech> 
[201.265]
o k e 
[204.155]
<no-speech> 
[205.525]
e k ɔ m a~ t u m u~ j e a~ f ɔ m p a t ɣ i k b l a~ 
[208.735]
<no-speech> 
[209.815]
<int> j o e ʒ o w e k ɔ m a~ l j e 
[216.105]
<no-speech> 
[219.125]
s e v ɣ e m e~ m e l ɔ t b l a~ a~ 
[223.975]
<no-speech> 
[227.515]
s e v ɣ e 
[228.845]
<no-speech> 
[229.925]
l i p a v l e w ɛ m ʒ a~ m a~ v i w ɛ b l a~ m p a k ɔ~ n e~ m e~ 
[236.845]
<no-speech> 
[237.835]
d ɛ j ɛ a~ m p u p a s e 
[239.445]
<no-speech> 
[240.385]
h e~ 
[242.585]
<no-speech> 
[244.085]
w i n a~ m e~ m ʒ u l i t e f ɛ t l a w i m t e k i t e m t e m t a p k i t e p ɔ t o p ɣ e~ s 
[248.235]
<no-speech> 
[251.365]
s e v ɣ e m p a k ɔ~ n e~ t u p u v a k a~ s p a k l a t u d e p i m f e~ k ɔ~ p o z e p u s e s j ɔ~ a~ 
[255.885]
<no-speech> 
[257.245]
m a p w ɛ s i m k a e s e j e a~ t ɣ e f ɛ k ɛ k ʒ u 
[261.685]
<no-speech> 
[262.935]
u k ɔ~ n e~ b a g a j j o d e u k ɔ~ n e~ b a g a j j o d e ʒ a n u p a k a b a w ɣ e f i f ɔ k u k ɔ~ t i n j e w a 
[270.755]
<no-speech> 
[272.385]
a h t ɛ t ʃ a ʒ e t ɛ t ʃ a ʒ e s e k ɔ~ s a o k a p l a t u <no-speech> h m m i ʃ l i n l i t a w i l a~ f ɔ m 
[283.165]
<no-speech> 
[284.575]
m a p f ɣ a p e 
[285.745]
<no-speech> 
[288.635]
k i m u~ 
[289.815]
<no-speech> 
[292.635]
<no-speech> 
[293.005]
<no-speech> 
[294.115]
s e v ɣ e 
[296.845]
<no-speech> 
[299.035]
m h m 
[300.165]
<no-speech> 
[303.195]
m h m 
[304.075]
<no-speech> 
[305.655]
b a g a j j o s e k a l k i l j o j e a v a~ w i 
[309.795]
<no-speech> 
[310.725]
e k a l k i l j o j e a v a~ 
[314.045]
<no-speech> 
[319.095]
<no-speech> 
[319.765]
<no-speech> 
[320.635]
w ɛ w ɛ 
[322.495]
<no-speech> 
[324.795]
j a s a v l e d i l i p a p k a l i p a p k a m o v e k ɔ l i p a p k a m o v e k ɔ a 
[329.005]
<no-speech> 
[333.045]
a h m p a p k a g e~ j e~ m d i w m p a p k a k ɔ~ t w o l e b ɔ n s a m e~ m m e~ m m e~ m m e~ m 
[338.355]
<no-speech> 
[340.765]
a d ʒ e 
[342.305]
<no-speech> 
[344.255]
<no-speech> 
[344.625]
<no-speech> 
[345.425]
a h k a n a v a l l a ɔ~ k a n a v a l <no-speech> t ɛ t ʃ a ʒ e 
[349.965]
<no-speech> 
[351.835]
m p a p f ɛ j ɔ~ p a n ɔ~ p a s k e m w ɛ k ɔ m s i ʒ a~ m w ɛ b a g a j j o t e j e a m p a t t w ɔ ɣ e~ m e~ f a s ɔ~ j o ɔ g a n i z e b a g a j b a g a j j o 
[360.035]
<no-speech> 
[363.895]
<hes> m a~ m a~ m a ɣ i m p a n a~ k u z e~ a~ k ɔ <no-speech> m p a ʒ a~ m w ɛ l m p a ʒ a~ m w ɛ l l i p a ʒ a~ m m a~ d e p u m w e~ m p a ʒ a~ m m a~ d e p u l i 
[374.285]
<no-speech> 
[377.085]
<foreign> <no-speech> n ɔ~ p a l ɛ m w ɛ m u~ m a~ d e p u l i l i l i p a ʒ a~ m m a~ d e m u~ m u~ j o d i l i p a ʒ a~ m m a~ d e p u m w e~ k u n j e a m d i a h b ɔ~ 
[388.685]
<no-speech> 
[389.625]
m p o z e m p a n a~ ɣ e l e a~ k ɔ m p a n a~ m a~ d e p u l i b a g a j s a j o m p a n a~ p a l e a v ɛ l m e~ m 
[398.145]
<no-speech> 
[399.475]
<no-speech> 
[399.835]
<no-speech> 
[400.935]
m p a n a~ p a l a k e j m e~ m m e~ m m e~ m m e~ m m e~ m m e~ m e m ʒ a~ m b e z w e~ n a~ p a l e a k e j a~ k ɔ 
[406.435]
<no-speech> 
[409.405]

[410.195]
<no-speech> 
[412.405]
e b j e~ e b j e~ 
[414.045]
<no-speech> 
[415.605]
e~ b j e~ b e~ l a ʒ w e~ n ɔ~ n ɛ g k i ɣ e~ m e~ l <no-speech> u k ɔ~ p ɣ a~ n s a m d i w l a 
[420.985]
<no-speech> 
[422.285]
h m 
[423.055]
<no-speech> 
[423.915]
<no-speech> 
[424.415]
<no-speech> 
[425.785]
m p a k ɔ~ n e~ 
[427.255]
<no-speech> 
[429.535]
m p a k ɔ~ n e~ m w e~ <hes> m w e~ p a p ɣ a~ n u v ɛ l j a m e~ m 
[433.105]
<no-speech> 
[437.515]
a h t ɛ t ʃ a ʒ e a~ j e~ n ɔ~ a~ j e~ d e b ɔ~ a~ j e~ k s e ɣ j e n ɔ~ 
[443.005]
<no-speech> 
[446.475]
a h 
[447.635]
<no-speech> 
[449.295]
a h u k ɔ~ n e~ p e j i s a s e j ɔ~ v j e p e j i k ɔ~ t a k l i j e <no-speech> d e p i w p a g e~ k ɔ~ t a k p a g e~ a~ j e~ k i k a m a ʃ e p u u 
[458.665]
<no-speech> 
[460.015]
s i t u s u s i t u s u u p a s i t u s u p a <foreign> a k e k ɔ w u 
[465.385]
<no-speech> 
[467.665]

[470.385]
<no-speech> 
[472.715]
w i 
[473.175]
<no-speech> 
[474.305]
h m <no-speech> d e m i l k e~ z w i 
[479.865]
<no-speech> 
[482.035]
w i 
[484.165]
<no-speech> 
[485.335]
w i 
[486.585]
<no-speech> 
[487.755]
d e m i l k e~ z 
[490.585]
<no-speech> 
[492.295]
n ɔ~ m p o k o n ɔ~ <no-speech> m t e f ɛ k ɔ~ t a k m t a p ʃ a ʃ e k ɛ k k ɔ~ t a k j o p o k o d i m a~ j e~ m a p t a~ n m w ɛ 
[501.345]
<no-speech> 
[503.755]
a h s e s a m a p e s e j e f ɛ l a a 
[508.245]
<no-speech> 
[509.615]
w i <no-speech> w i a h u p a b ɔ~ d e p i w p a d e p i w p a ʒ a~ m u p a p k a t ɣ a v a j n ɔ~ n a~ p e j i s a a 
[518.825]
<no-speech> 
[520.595]
d e t u f a s ɔ~ m a p m a p f ɣ a p e k a~ m ɛ m u k ɔ~ p ɣ a~ n s a m d i w l a m e~ m s i b a g a j j o e k ɔ~ s a j o j e n a~ p e j i s a a 
[532.125]
<no-speech> 
[535.745]
<no-speech> 
[537.045]
t u m u~ l a w i <sta> a p ɣ e s a t u m u~ l a <no-speech> t u m u~ p o z e p o z e j o l a v i n a~ v j e p e j i s a 
[547.225]
<no-speech> 
[549.595]
u k ɔ~ p ɣ a~ n s a m d i w l a 
[552.645]
<no-speech> 
[553.675]
t ɛ t ʃ a ʒ e <no-speech> u p a p ɣ a~ n u v ɛ l k ɔ m a~ t ɔ~ t ɔ~ n a~ m j e 
[558.105]
<no-speech> 
[559.765]
w i t a~ ʒ a k l i n 
[562.285]
<no-speech> 
[563.475]
m h m 
[564.555]
<no-speech> 
[567.775]
m h m 
[568.935]
<no-speech> 
[571.035]
m h m 
[572.295]
<no-speech> 
[575.705]
m h m 
[576.525]
<no-speech> 
[578.085]
m h m 
[579.275]
<no-speech> 
[583.945]
t a~ t a~ a~ m n a~ b a g a j <no-speech> w i t a~ t a~ a~ m n a~ b a g a j s a j o a~ k ɔ t a~ t a~ a~ m s e l a g ɣ a s a k ʒ e z i w i 
[594.115]
<no-speech> 
[595.325]
<no-speech> 
[596.345]
<no-speech> 
[597.825]

[598.325]
l a g ɣ a s l a l i v i n l e v e k ɔ~ <oov> 
[600.120]
