[0.000]
<no-speech> 
[6.125]
<sta> a l o <no-speech> w i <no-speech> e~ h e~ 
[11.805]
<no-speech> 
[13.185]
<sta> k i j ɛ s 
[13.885]
<no-speech> 
[17.325]
<sta> o h l i m e~ n a s a k p a s e m a~ m a~ 
[21.825]
<no-speech> 
[25.665]
k i <hes> v e l ɛ n <sta> 
[28.465]
<no-speech> 
[29.575]
<sta> a h b ɔ~ d a t m p a t a~ d e w p a p a s e s e z i m s e z i w i 
[34.555]
<no-speech> 
[37.785]
<sta> e~ h 
[39.655]
<no-speech> 
[40.775]
<sta> o h w i u f ɛ m s e z i p a p a s a k p a s e 
[45.655]
<no-speech> 
[48.745]
<sta> <hes> m p a t a~ d e u m e~ m 
[50.825]
<no-speech> 
[54.305]
<sta> <hes> 
[54.965]
<no-speech> 
[61.595]
<sta> a l o 
[62.705]
<no-speech> 
[64.085]
<sta> s a k p a s e m d i w 
[67.345]
<no-speech> 
[71.105]
<sta> 
[71.655]
<no-speech> 
[72.765]
<sta> k ɔ m a~ m i z ɛ a 
[74.065]
<no-speech> 
[78.265]
<sta> <laugh> 
[82.825]
<no-speech> 
[84.435]
<sta> u n a~ ɔ~ g w o p ɔ t o p ɣ e~ s e p i u n a~ m i z ɛ 
[86.925]
<no-speech> 
[90.635]
<sta> o h o h ʒ a~ p ɔ t o p ɣ e~ s g e~ v i ɣ e t u n e~ s a a 
[93.995]
<no-speech> 
[95.765]
<sta> ʒ a~ p ɔ t o p ɣ e~ s g e~ <hes> a k t i v i t e s a a u p a u p a g e~ a~ p i l b a g a j p u f ɛ k u n j e a 
[103.075]
<no-speech> 
[111.185]
<sta> <hes> 
[111.895]
<no-speech> 
[116.515]
<sta> <hes> a p ɣ e s a s a w ɣ e g l e <no-speech> 
[123.245]
<no-speech> 
[124.795]
<sta> <hes> 
[125.825]
<no-speech> 
[129.215]
<sta> <hes> k ɔ m s i u p a u p a u p a a~ j e~ 
[132.865]
<no-speech> 
[136.515]
<sta> s e p a v ɣ e u p a k a f i n i p u d i m u 
[139.415]
<no-speech> 
[144.175]
<sta> <hes> s a s a w a p ɣ a~ n l a a 
[146.025]
<no-speech> 
[148.925]
<sta> k i s a 
[150.955]
<no-speech> 
[153.465]
<sta> o h <foreign> w a p i m i t e p a ɣ e~ n u <laugh> w a p i m i t e p a ɣ e~ n u k u n j e a d e p i p a ɣ e~ n u d e p i w b ɔ~ l a a 
[163.895]
<no-speech> 
[168.215]
<no-speech> 
[168.565]
<no-speech> 
[170.365]
<sta> e~ h e~ 
[171.415]
<no-speech> 
[173.325]
<int> <hes> o k e p a p a <no-speech> o k e m a~ m a~ 
[177.145]
<no-speech> 
[180.115]
<sta> m p a w ɛ m l a m n a~ m n a~ m n a~ b a g a j l a l a a a n e s a a m p ɣ a~ <no-speech> s e k ɣ e t a ɣ j a 
[189.275]
<no-speech> 
[192.335]
<sta> <sta> <foreign> <no-speech> e~ h e~ <no-speech> m p ɣ a~ s e k ɣ e t a ɣ j a 
[200.035]
<no-speech> 
[201.455]
<sta> k i s a w d i 
[203.275]
<no-speech> 
[206.215]
m a t a~ t m w e~ <sta> j o s a <no-speech> 
[209.365]
<no-speech> 
[211.275]
l i k ɔ~ n l i k ɔ~ n v i n i w i <no-speech> n a~ n a~ k i m w a l i t e i s i m e~ m <no-speech> m b l i j e n a~ k i m w a w i <no-speech> l i l i k ɔ~ n v i n w ɛ m <no-speech> u k ɔ~ n e~ l i t e k i t e a~ s a~ m a m e s j e a l i p a ʒ a~ m a l p ɔ t o p ɣ e~ s 
[223.145]
<no-speech> 
[223.615]
<no-speech> 
[226.925]
<sta> w i 
[228.825]
<no-speech> 
[229.775]
<sta> <no-speech> 
[231.605]
<no-speech> 
[242.635]
<no-speech> 
[243.165]
<no-speech> 
[244.345]
<sta> 
[246.185]
<no-speech> 
[250.295]
<sta> l i g e~ t i m u~ t w a z a~ <no-speech> 
[254.815]
<no-speech> 
[255.765]
<sta> l i g e~ t i m u~ t w a z a~ w i 
[257.305]
<no-speech> 
[261.075]
n a~ l a ɣ i m t e j e e~ h <int> 
[264.255]
<no-speech> 
[265.555]
<sta> t w a z a~ 
[266.835]
<no-speech> 
[272.625]
<sta> <laugh> t w a z a~ p i t i t l i a g e~ j e~ 
[275.385]
<no-speech> 
[278.475]
m h m 
[279.205]
<no-speech> 
[282.855]
<sta> o h o h m w e~ m e~ m s a a a t ɔ p u m t a m a ɣ j e u p a t k ɔ~ n e~ m 
[286.645]
<no-speech> 
[289.415]
p u m w e~ t a m a~ ʒ e p u m w e~ p a t v o p u m w e~ p a t d i w s a p u m w e~ p a t e~ v i t e w m e~ m s i w p a t a p v i n i 
[293.735]
<no-speech> 
[297.275]
<sta> m h m m t a p v i n i m a ʃ ɛ p a d i s a m p o k o p i t i t 
[300.475]
<no-speech> 
[301.415]
m p o k o k ɔ~ n e~ g e~ m u~ g e~ m u~ s u w u t l a 
[304.285]
<no-speech> 
[308.365]
<sta> e~ h 
[309.095]
<no-speech> 
[309.905]
<no-speech> 
[310.595]
<no-speech> 
[312.255]
<sta> <foreign> 
[313.185]
<no-speech> 
[314.275]
<sta> p o k o n ɔ~ 
[315.155]
<no-speech> 
[317.595]
<sta> m p a t a~ d e v w a l m p a p a p a m p a t a~ d e l l i s e~ d o m e ŋ t u ʒ u w i 
[321.565]
<no-speech> 
[323.835]
l i f i n i w i m e~ l g e~ l ɛ l i g e~ l ɛ g e~ m e m w a p u l ɣ e m ɛ t l i p o k o ɣ e m ɛ t m e m w a <no-speech> e~ h e~ 
[329.935]
<no-speech> 
[331.165]
<no-speech> 
[331.515]
<no-speech> 
[335.355]
<sta> 
[335.985]
<no-speech> 
[337.855]
m a~ m a~ 
[338.685]
<no-speech> 
[340.365]
<sta> o h k i k o t e ʒ w e~ n k o t e l a a 
[342.515]
<no-speech> 
[353.055]
<sta> e~ h e~ 
[354.225]
<no-speech> 
[359.485]
<no-speech> 
[359.905]
<no-speech> 
[361.285]
m h m 
[361.945]
<no-speech> 
[366.105]
m h m 
[366.645]
<no-speech> 
[368.795]
t i f ɣ ɛ 
[369.865]
<no-speech> 
[374.715]
m h m 
[375.425]
<no-speech> 
[377.885]
<hes> o k e m p a ʒ a~ m p ɣ a~ n u v ɛ l m u~ s a j o p a p a 
[380.635]
<no-speech> 
[386.085]
<sta> t a l ɛ n 
[386.835]
<no-speech> 
[388.615]
k i b a g a j s a m k ɔ~ n n i m e w o t e l e f ɔ n t a l ɛ n m p a k ɔ~ n n i m e w o t e l e f ɔ n t a l ɛ n n ɔ~ 
[392.435]
<no-speech> 
[396.475]
<int> p i t i t o h b a~ m d i w ɔ~ b a g a j 
[398.375]
<no-speech> 
[399.315]
k o t e u w ɛ m k o t e u w ɛ m j e l a a m g ɔ~ m g ɔ~ m g ɔ~ m g ɔ~ l e s i v k i p a s t a b 
[404.165]
<no-speech> 
[406.025]
m e~ s i m p a s t a b k o t e u w ɛ m j e l a a <hes> m v ɣ ɛ m a~ m a~ ʒ e a~ p i l p a s e s a m p a k ɔ~ n e~ 
[409.835]
<no-speech> 
[412.735]
m d i w k ɔ~ s a m a~ v i a~ t ɣ e p ɔ t o p ɣ e~ s 
[415.055]
<no-speech> 
[416.615]
<sta> t a~ k u l a a p u m w e~ p u m w e~ p u m w e~ k a a l n a~ p u m w e~ k a p u m k a a l n a~ a k t i v i t e m v l e v i ɣ e n a~ s a m j e a m v l e v i ɣ e n a~ s a m j e a <hes> 
[426.905]
<no-speech> 
[428.735]
<hes> m a~ v i a~ t ɣ e p ɔ t o p ɣ e~ s l a a s ɛ m p u m w e~ p u m w e~ k a a l b ɣ a s e u w ɛ u s ɔ~ ʒ e d j e n a n 
[434.755]
<no-speech> 
[437.055]
d j e n a n p i t i t m w e~ k o t e u w ɛ l l a l a p t ɣ a v a j p i t i t m w e~ <no-speech> l a p t ɣ a v a j <no-speech> w i <laugh> 
[443.335]
<no-speech> 
[446.685]
d j e n a n 
[447.505]
<no-speech> 
[448.905]
<sta> n ɔ~ 
[449.905]
<no-speech> 
[454.895]
ɔ ɔ s a l j e 
[456.825]
<no-speech> 
[457.895]
<sta> 
[460.635]
<no-speech> 
[461.655]
d j e n a n p a t t ɛ l i p a t t ɛ m i n e n ɔ~ 
[464.025]
<no-speech> 
[467.325]
<sta> l a p t ɣ a v a j k u n j a m t a~ d e m a t a~ t m w e~ d i l a p t ɣ a v a j <hes> t i n ɛ g l i f ɛ p i t i t a~ s a~ m a v ɛ l l a <hes> t e a l m a~ d e l m a ɣ j a ʒ k u n j a m p a k ɔ~ n e~ 
[478.505]
<no-speech> k u n j a l m a~ d e 
[480.145]
<no-speech> 
[481.705]
<sta> e~ h e~ 
[482.695]
<no-speech> 
[486.365]
w i t i n ɛ g l a a p t ɣ a v a j w i <no-speech> t i n ɛ g l a a p t ɣ a v a j 
[490.335]
<no-speech> 
[492.645]
<hes> p i t i t t i n ɛ g l a a p t ɣ a v a j p i t i t l a p m a~ d e m a ɣ j a ʒ s e l i m e~ m k a p f ɛ p ɔ z k u n j a 
[498.295]
<no-speech> 
[501.175]
w i s e l i m e~ m k a p f ɛ p ɔ z k u n j e o h l p o k o v l e m a ɣ j e <laugh> n ɔ~ <no-speech> e~ h e~ u w ɛ k o z e p i t i t m w ɛ m ɣ e t e m w e~ m w ɛ m ɣ e t e n a~ b w a g o n a j i v s a a l a m w e~ m e~ m m p a w ɛ s a m a p 
[512.905]
<no-speech> b a g a j b a g a j s a m p a 
[515.215]
<no-speech> 
[516.675]
<hes> 
[517.395]
<no-speech> 
[524.165]

[524.965]
<no-speech> 
[526.645]
<no-speech> 
[527.075]
<no-speech> 
[532.155]
k i m u~ 
[533.055]
<no-speech> 
[536.375]
m w e~ m e~ m 
[536.935]
<no-speech> 
[537.180]
