[0.000]
<no-speech> 
[6.925]
<sta> ɔ~ d i ɣ e ɔ~ d i ɣ e m w ɛ m p i k w e~ s e d o k t ɛ a m a~ d e k i b ɔ m j e 
[12.225]
<no-speech> 
[20.465]
a l o 
[21.065]
<no-speech> 
[23.065]
w i 
[23.665]
<no-speech> 
[24.675]
w i <no-speech> m a~ f ɔ m w i 
[26.595]
<no-speech> 
[29.165]
<sta> a~ f ɔ m w i <no-speech> t u b a g a j a~ f ɔ m w i l a g ɣ a s a d j e s a e s a e <oov> u n a~ b i w o 
[33.835]
<no-speech> 
[36.825]
<hes> m w ɛ w p l e d e 
[37.995]
<no-speech> 
[39.995]
<hes> o k e l i p a s e m ɔ~ s ɔ~ f i k s 
[41.875]
<no-speech> 
[43.385]
<sta> <no-speech> e p a s k e m w ɔ~ s ɔ~ t e l e f ɔ n f i k s 
[46.125]
<no-speech> 
[49.075]
o k e 
[49.535]
<no-speech> 
[50.805]
<sta> <no-speech> t u b a g a j o k e w i m u~ m t e d i w j o j o d a k ɔ w i <no-speech> e~ h e~ s a v l e d i t w a m u~ j o p l i s m w e~ m e~ m f ɛ k a t e n a~ w u t m j e m v i n p ɔ t o p ɣ e~ s 
[60.535]
<no-speech> 
[62.945]
e~ h e~ e n a~ w u t m w e~ j e w i 
[64.115]
<no-speech> 
[66.005]
e~ b e~ <no-speech> <sta> 
[68.885]
<no-speech> 
[69.845]
b ɔ~ m t e ɣ e l e l i v ɣ ɛ m a~ m e~ l ɛ m v i n i n a p a l e u k ɔ~ p ɣ a~ n l ɛ m v i n i m a p e k s p l i k e w <hes> <no-speech> e~ h 
[77.775]
<no-speech> 
[81.785]
m h m m e~ k ɔ m s i m p a l a v ɛ l i <no-speech> m w e~ d i l k e p u l p a e s e j e d e f a~ n i u k ɔ~ p ɣ a~ n <no-speech> p u l p a e s e j e d e f a~ n i p a s k e n ɔ m a l m a~ 
[90.455]
<no-speech> 
[91.685]
<no-speech> 
[92.095]
<no-speech> 
[93.465]
<sta> b ɔ~ e g z a k t e m a~ b ɔ~ m w e~ m e~ m <hes> m k ɔ~ p ɣ a~ n k a l j e~ s e~ s ɛ m a~ m k ɔ~ p ɣ a~ n n i p a s e s e f ɣ ɛ l l i j e s i t u s i m i s j e p a t k ɔ~ n f ɛ a k s j ɔ~ s a d e ʒ a s e p ɣ e m j e f w a l g e~ d w a f ɛ l l i g e~ d w a k ɔ~ n 
[105.295]
<sta> f ɛ l d e ʒ a l i t e g e~ d w a p a t k ɔ~ n l i p a t k ɔ~ n o k u ɣ a~ l i p a t k ɔ~ n k e~ b e l u k ɔ~ p ɣ a~ n <no-speech> b ɔ~ k u n j a p ɥi s k e l k e~ b e l k u n j a 
[111.745]
<no-speech> 
[113.035]
<no-speech> 
[113.885]
<no-speech> 
[115.145]
<no-speech> 
[115.555]
<no-speech> 
[117.865]
e~ h 
[118.255]
<no-speech> 
[119.165]
<no-speech> 
[119.995]
<no-speech> 
[121.985]
<sta> o k e <no-speech> 
[126.945]
<no-speech> 
[129.735]
b ɔ~ s a k a s a k a <sta> s a k a ɣ i v e n e~ p ɔ t m u~ u k ɔ~ p ɣ a~ n 
[133.655]
<no-speech> 
[135.275]
b ɔ~ n u l a n a p <sta> <no-speech> e~ h e~ w i m g e~ t a~ f i n i l a s e j o m e~ m m p ɣ a l p ɔ t o p ɣ e~ s p u m w e~ k a a l p o t e j o a l e l a <no-speech> 
[145.375]
<no-speech> 
[146.805]
<sta> e b j e~ l a k a j u k p a v i n i 
[148.845]
<no-speech> 
[152.355]
<sta> n ɔ~ ɣ a p w o ʃ m a~ s e s e p ɔ t o p ɣ e~ s n a p f ɛ s a <no-speech> e~ h e~ s e s a j o t e d i m s e p ɔ t o p ɣ e~ s n a p f ɛ l n a~ b i w o s a~ t ɣ a l <no-speech> e~ h e~ 
[164.185]
<no-speech> 
[166.145]
<no-speech> 
[169.755]
<hes> l i p o k o d i n ɔ~ p a s k e g e~ d e s e m ɛ n l a l i p a t ɣ a v a j <sta> 
[174.225]
<no-speech> 
[175.205]
<sta> t i m u~ j o k a p m a~ f e s t e j a p d i k e <hes> j o p a d a k ɔ k ɔ~ s t i t i s j ɔ~ a~ p a s k e ʒ i s k a m e~ t n a~ j o p o k o g e~ b a d ʒ <no-speech> e ɣ e z i l t a j o b a j t w ɔ t a b ɔ~ m d a k ɔ a v ɛ j o m e~ u k ɔ~ n e~ <sta> s ɔ~ t i m i n o ɣ i t e z ɥi t k a p m a n i f e s t e p a v ɣ ɛ m a~ g a~ j e~ k i s o t i 
[190.985]
<no-speech> 
[191.915]
<sta> <no-speech> w i <no-speech> w i 
[199.465]
<no-speech> 
[200.345]
a l o <sta> 
[203.455]
<no-speech> 
[206.595]
<sta> <no-speech> <hes> 
[207.665]
<no-speech> 
[209.305]
<no-speech> 
[210.555]
<no-speech> 
[211.845]
<sta> w i 
[214.585]
<no-speech> 
[216.285]
m w e~ m e~ m m a p ɣ e l e w w ɛ m f ɛ n i m e w o w l a m v o j e <foreign> k ɔ b b a u <int> 
[219.935]
<no-speech> 
[221.055]
<hes> 
[221.465]
<no-speech> 
[224.085]
e g z a k t e m a~ <sta> d e t u f a s ɔ~ m 
[226.455]
<no-speech> 
[229.125]
s a l d i m l a 
[230.075]
<no-speech> 
[231.405]
<sta> e~ h e~ <no-speech> u p a b e z w e~ d i m p i t i t 
[243.395]
<sta> <no-speech> m w e~ m e~ m p o k o f ɛ v e ɣ i f i k a s j ɔ~ p u n a~ n ɔ~ m w e~ m e~ m m a p f ɛ s a l ɛ m a~ t ɣ e p a s k e p o k o ʒ a~ m ʒ w e~ n m u~ d i s p o n i b p u s a <no-speech> m o m a~ k e m d e s i d e p u m w e~ a l e b o n ɛ p u m w e~ a l f ɛ l l a b ɔ~ j o 
[254.945]
d e s i d e p u j o t e b l o k e l s i g ɔ~ p w o f e s ɛ k a~ t ɣ e n a~ s a l l a k p a p t ɣ a v a j j o v i n i j o m e t e l d e j ɔ <no-speech> <sta> 
[259.815]
<no-speech> 
[260.685]
w i <sta> <no-speech> k i j ɛ s 
[265.425]
<no-speech> 
[266.535]
e~ h 
[267.065]
<no-speech> 
[268.295]
s a g e~ l ɛ e p u m w e~ 
[269.355]
<no-speech> 
[271.315]
<sta> m h m <no-speech> 
[277.485]
<no-speech> 
[280.735]
<sta> e g z a k t e m a~ 
[281.845]
<no-speech> 
[284.125]
<sta> o h 
[285.165]
<no-speech> 
[287.495]
l e l e j o n ɛ l m e s i <laugh> <sta> k ɣ i s j a n o <no-speech> w o n a l d o 
[294.065]
<no-speech> 
[297.405]
w i 
[298.055]
<no-speech> 
[301.635]
a h g a g ɔ t n ɛ t g a g ɔ t 
[303.695]
<no-speech> 
[309.725]
s e s a l j e w i 
[310.595]
<no-speech> 
[313.735]
<no-speech> 
[314.125]
<no-speech> 
[315.145]
k i j ɛ <hes> w i o h t u ʒ u t u ʒ u n a~ u m a l m p a k ɔ~ n s i j a ʃ a~ ʒ e 
[319.165]
<no-speech> 
[325.225]
e g z a k t e m a~ <no-speech> <sta> 
[327.425]
<no-speech> 
[329.085]
e g z a k t e m a~ e s a w i 
[330.385]
<no-speech> 
[336.505]
w i s e s a 
[337.465]
<no-speech> 
[342.625]
e g z a k p a s k e m u~ n a~ p a p k a ʒ w e~ n 
[344.665]
<no-speech> 
[347.865]
<hes> <no-speech> a h a h <no-speech> l ɛ n v i n i n a p p a l e <laugh> <sta> l ɛ n v i n i o h l i a l e w i k o t e n t e d i l l a k o t e n t e p w o p o z e l l a 
[357.695]
<no-speech> 
[360.785]
<hes> a j i t i t e k e g z a k t e m a~ ʃ e ɣ i a <laugh> w a p m a~ d e s i m k ɔ~ t a~ l ɛ t e b a~ m n u v ɛ l s a s e p a t i k ɔ~ t a~ m p a k ɔ~ t a~ 
[368.335]
<no-speech> 
[371.195]
o h o h 
[372.415]
<no-speech> 
[376.045]
e t e l e k o m i n i k a s j ɔ~ 
[377.335]
<no-speech> 
[381.685]
e g z a k t e m a~ 
[382.925]
<no-speech> 
[386.505]
e~ h b ɔ~ p u m w e~ d i w m o d l i n m e~ g e~ <hes> b a g a j 
[390.285]
<no-speech> 
[391.805]
<sta> n ɔ~ m e~ s a p a a~ p e ʃ e k ɔ w g e~ s a p a a~ p e ʃ e k ɔ w g e~ s e ɣ i d e b a g a j k ɔ m s i k ɔ~ t i ʒ a~ m e l a~ ʒ e u k ɔ~ p ɣ a~ n <no-speech> l a l e t ɣ ɛ t m e~ m e s p e ɣ e l a p ɣ e t e 
[400.585]
<no-speech> 
[409.525]

[410.885]
<no-speech> 
[411.785]
m h m 
[412.315]
<no-speech> 
[414.105]
k i j ɛ s 
[414.565]
<no-speech> 
[416.945]
u p a ʒ a~ m 
[417.405]
<no-speech> 
[419.625]
<oov> <no-speech> n ɔ~ t i s a j o m a p f ɛ s ɔ t i 
[422.455]
<no-speech> 
[427.525]
<sta> e g z a k t e m a~ 
[428.825]
<no-speech> 
[432.685]
e~ h e~ s e s a 
[433.685]
<no-speech> 
[437.455]
w i s e s a w i 
[438.535]
<no-speech> 
[442.305]
ɛ m ɛ m m p a t a p m p a t a p ʒ a~ m f ɛ e ɣ ɛ s a 
[444.565]
<no-speech> 
[446.425]
a h a h <laugh> m p a t a p ʒ a~ m f ɛ e ɣ ɛ s a l ɛ k u m v i n i n a p w ɛ t a~ d e 
[451.845]
<no-speech> 
[453.745]
<sta> d a k ɔ s a m ɛ s i p u a p ɛ l l a 
[456.315]
<no-speech> 
[458.205]
<sta> m h m 
[459.255]
<no-speech> 
[460.785]
o k e <no-speech> <sta> 
[462.425]
<no-speech> 
[466.285]

[467.215]
<no-speech> 
[468.595]

[469.035]
<no-speech> 
[470.005]
<sta> e~ b j e~ s a l p ɣ a~ s e p a l m t e d i m a~ m a~ m s a d e ʒ a m a~ m a~ m d i m a~ m a~ m d i d e p i l m u ɣ i j a p f a~ t ɛ m a~ l 
[474.375]
<no-speech> 
[478.645]
s a w a p f ɛ l a <no-speech> m b u k e p a l a v ɛ l 
[481.075]
<no-speech> 
[482.035]
<no-speech> 
[482.385]
<no-speech> 
[483.545]
s e s a k b ɔ~ a~ l a p m a ʃ e 
[484.435]
<no-speech> 
[487.775]
s a m i s j a p d i l a 
[488.505]
<no-speech> 
[489.435]
m h m 
[489.895]
<no-speech> 
[491.505]
<sta> <no-speech> e~ h e~ s a l g e~ j e~ 
[494.875]
<no-speech> 
[499.465]
t a~ d e <no-speech> <sta> 
[501.245]
<no-speech> 
[503.535]
e~ h e~ <no-speech> <sta> o k e o k e l i m a~ d e w ɛ s k e l m ɛ t ɣ e l e k i j ɛ s ʃ a ɣ i t a 
[510.735]
<no-speech> 
[511.605]
<hes> ɛ s k e l m ɛ t ɣ e l e l l i m e~ m <no-speech> 
[513.905]
<no-speech> 
[514.865]
k ɔ m s i p u l k e s j o n e l s u s i ʒ ɛ a 
[517.735]
<no-speech> 
[521.465]
m e z a~ m i w ɛ s i s e m a~ m a~ m 
[524.175]
<no-speech> 
[528.645]
<sta> m o d l i n b a~ m d i w <no-speech> m p a p p l e d e p u m u~ a s a~ p u s a~ k a l e~ s e z a~ m i m l i j e <no-speech> m p a t a p ɣ e~ m e~ p u j o m e l a~ ʒ e l n a~ ɔ~ b a g a j k e l i m e~ m l i p a k ɔ~ n a~ j e~ d e l i 
[539.015]
<no-speech> 
[539.925]
s e v ɣ e s e f ɣ ɛ l l i j e <no-speech> s e f ɣ ɛ l l i j e <no-speech> m e~ n ɔ m a l m a~ l i p a t a p v i v m e~ m k o t e a v ɛ k <sta> <hes> p ɔ l 
[548.295]
<no-speech> 
[549.425]
j a p d i e g z a k t e m a~ j o p a t a p ʒ a~ m d i j o p a t a p v i v m e~ m k o t e a v ɛ l s a v l e d i m p a w ɛ ɣ e z ɔ~ k ɔ m s i p u j a p o b l i ʒ e m e l a~ ʒ e l j o k a t u ʒ u k e s j o n e l i m a~ d e l ɛ s k e l k ɔ~ n k o t e l j e s a s e d e v w a j o m e~ p u j o t w ɔ e s e j e m e l a~ ʒ e 
[561.415]
t i f i a n a~ b a g a j j o l i p a k ɔ~ n a~ j e~ 
[563.305]
<no-speech> 
[564.365]
<sta> <no-speech> b ɔ~ 
[566.495]
<no-speech> 
[568.235]
b ɔ~ 
[568.775]
<no-speech> 
[574.725]
w i m d a k ɔ m d a k ɔ 
[576.585]
<no-speech> 
[577.855]
<hes> 
[578.375]
<no-speech> 
[579.725]
<hes> 
[580.255]
<no-speech> 
[583.165]
w i 
[583.655]
<no-speech> 
[585.505]
w i <int> m e~ 
[586.295]
<no-speech> 
[588.605]
<sta> b a~ m d i w t u b a~ m d i w t u e m i s j e k a f ɛ s a l i k a p o z e l k e s j ɔ~ w i m e~ s a p ɣ a l d e p a~ n s u k i ʒ a~ l p ɣ a l p o z e l g ɔ~ f a s ɔ~ l k a p o z e l l i l i k a p o z e l l i l i k a ɣ a~ n l i t ɛ l m a~ f ɣ i s t ɣ e u k ɔ~ p ɣ a~ n 
[597.825]
<no-speech> 
[600.140]
