[0.0]
<no-speech>
[2.965]
هلو
[3.375]
<no-speech>
[6.405]
هلو
[6.985]
<no-speech>
[11.715]
هلو ښه صحیح شو
[12.845]
<no-speech>
[15.325]
ښه یمه ته څنګه یې
[16.494875]
<no-speech>
[17.515]
ښه ده کاکا څنګه ده کاني څنګه
[19.695]
<no-speech>
[21.445]
ټول ښه دي السلامونه کوي
[23.085]
<no-speech>
[24.695]
<no-speech>
[25.245]
<no-speech>
[27.155]
<no-speech>
[27.755]
<no-speech>
[28.725]
<no-speech>
[29.265]
<no-speech>
[35.805]
ښه صحیح شو له
[37.705]
<no-speech>
[39.345]
<int> ته څنګه یې <breath> نفیسه څنګه ده نفیسه څنګه ده
[43.485]
<no-speech>
[44.945]
<hes> اجیره څنګه ده
[47.135]
<no-speech>
[49.485]
الله د هغه هم پاکه کړې
[50.855]
<no-speech>
[51.985]
اغا جان بوټ <breath> نه اغا جان بوټان مې رنګ
[55.345]
<no-speech>
[56.225]
<no-speech>
[56.855]
<no-speech>
[59.065]
څه دې وویل <no-speech> چا نه خفه کېږې
[61.235]
<no-speech>
[63.605]
ښه زه اوس صحیح شو
[64.815]
<no-speech>
[66.525]
نه نه ښه خوشحاله ده <laugh> او لږ دغه څنګه ده <no-speech> اوس اواز څنګه شو
[71.815]
<no-speech>
[73.945]
پاس مړه پاس ناست
[75.935]
<no-speech>
[77.795]
او اوس څنګه شو
[78.995]
<no-speech>
[81.345]
هلو
[82.005]
<no-speech>
[85.125]
نور څومره جیګ کړمه داسې تیز مې په خوا
[88.355]
<no-speech>
[90.755]
ښه دغه زکیه څنګه ده ملالۍ څنګه ده
[93.545]
<no-speech>
[99.025]
او غټ امه مجیب ته ډېر په قهر وو رښتیا تللی دی ور پسې
[102.345]
<no-speech>
[109.475]
<no-speech>
[116.605]
هغه ته ما وویل وایي مجیب دې ما سره مخامخ شي وایي که تللی وو وایي بیا به وایي ما نه ګېله نه کوي زه ور نه بیا ډېر زیات خفه کېږم خفه به شم
[123.635]
<no-speech>
[130.26]
<no-speech>
[136.885]
ښه یې تاسو نه را ځې مړې یو دانه کس خو را شې چکر ووهې که نه <hes> موږ له همدلته څوک وایي چې دوی نه را ځي تاسو څه کوې
[144.395]
<no-speech>
[151.855]
<no-speech>
[152.365]
<no-speech>
[158.205]
او ولې نشته دی نو تاسو
[160.205]
<no-speech>
[161.085]
هو عابده وه زاهده وه مریم وه درې واړه راغلي وو بیا عابده او مریم لاړه <no-speech> او زاهده پاتې شوه <hes> عابده پاتې کېده خو ویل یې هغه دوران سر کلي یې وو که نه او وراره سر سر کلي
[172.955]
سر کلي وو وایي که زه چېرته پاتې شومه نو سر کلي
[175.155]
<no-speech>
[176.075]
<no-speech>
[176.595]
<no-speech>
[178.535]
تاسې
[179.595]
<no-speech>
[183.035]
وی خو خیر دی تاسو کره به یم صحیح
[186.365]
<no-speech>
[187.405]
<hes> او زکیه سر کلي هم کوې تاسو
[189.965]
<no-speech>
[193.255]
وایم زکیه سر کلي هم کوې
[194.985]
<no-speech>
[196.755]
<hes> زما اواز در ځي
[198.235]
<no-speech>
[201.625]
بیا موږ هم وغواړې ګورې پټ یې ونه کړې
[204.135]
<no-speech>
[205.215]
یه فقط سطح وکړې والله چې در ځو
[207.405]
<no-speech>
[209.445]
ځه ځه ورکه شه تاسو هم
[211.145]
<no-speech>
[213.755]
وې هو که نه هغه بل ورځ ما ویل زه به نفیسه ته زنګ وهم مبارکي به ور کړم
[217.355]
<no-speech>
[218.535]
<laugh> ډینګ په ده کښې څه
[221.695]
<no-speech>
[224.035]
هو ځه ور سره ناست دي <no-speech> او هغه د وخت هغه او صفي لاړل مکتب له داسې بد خالي نښلولې وه صفي ما ویل وختي لاړل مکتب ته
[232.985]
<no-speech>
[235.555]
<no-speech>
[236.225]
<no-speech>
[240.515]
ځې ور سره لاړ شې که نه
[241.985]
<no-speech>
[249.405]
<laugh> نه ورته وایه موږ بیان داسې لرو چې واده کښې ښه بیانونه را ته شته دی چې چالان یې کړو خپل یې اورو
[255.965]
<no-speech>
[258.095]
<no-speech>
[258.475]
<no-speech>
[266.675]
<no-speech>
[267.425]
<no-speech>
[269.695]
ور ته وایه دا ښه دی چې تا ته خو د غیبت
[271.465]
<no-speech>
[273.675]
<laugh> ورته وایه غیبت خو هم ستا نه واورېد
[275.925]
<no-speech>
[276.925]
<laugh> نه مړه هسې خلک ور ځي هم د دې بس یاستئ
[280.225]
<no-speech>
[282.495]
<no-speech>
[282.895]
<no-speech>
[288.875]
<no-speech>
[289.465]
<no-speech>
[292.765]
بالکل یې ده
[293.745]
<no-speech>
[297.475]
<no-speech>
[298.695]
<no-speech>
[300.415]
<no-speech>
[300.885]
<no-speech>
[304.325]
هغې دوی خو درس ته ځي که نه
[305.915]
<no-speech>
[308.475]
هماغه تور بخمل دی که نه
[310.315]
<no-speech>
[312.205]
ښه ښه <click> ته نه بیایې دلته ورته
[315.655]
<no-speech>
[323.465]
هغه بل
[324.055]
<no-speech>
[327.705]
نه هغه بل ورځ زیاتي
[328.955]
<no-speech>
[330.665]
د والله رښتیا هم شرم دی کور دی که نه چې دا یو مکتب وای ښه به وای <hes>
[336.155]
<no-speech>
[345.615]
هغه <no-speech> هغه د تور لالا ماما هغه توره لور نه ده
[348.755]
<no-speech>
[350.815]
هغه تور لالا ماما هغه توره لور هم ور پسې ځي هغه حسینه
[353.655]
<no-speech>
[355.505]
<no-speech>
[356.155]
<no-speech>
[362.135]
<no-speech>
[362.885]
<no-speech>
[363.825]
یو زموږ زموږه کورنۍ خلک چې دي هغه څوک نه پرېږدي چې هر څومره زاري ور ته وکړې
[369.225]
<no-speech>
[378.125]
<no-speech>
[387.025]
<laugh> نه مړه
[388.715]
<no-speech>
[393.975]
هو که نه د هر چا زړه وي
[395.935]
<no-speech>
[397.765]
هو اغا جان هم مخکې وویل وایي چې
[399.955]
<no-speech>
[401.075]
هو ما هم اغا جان ته ویلي ویل یې هېڅ ته ورېنداره هم در له را ولمه او بیا څه را ته وایي خبره یې وایي دغه ده حنیفه به همغلته کامه کښې اوسېږي تا او غټه ببو سره هسې موږ به ښار کښې یو وایي هغې ته به هغه به هلته انجونو ته درس وایي ما ویل <hes> داسې شی کامه کښې پرېږدې چې هغې کامه بدې را ځي <laugh> بل څوک هم نه هغه
[420.645]
<no-speech>
[421.985]
<no-speech>
[422.365]
<no-speech>
[427.675]
نه لکه موږ
[428.965]
<no-speech>
[432.185]
<no-speech>
[432.845]
<no-speech>
[438.205]
<no-speech>
[439.735]
<no-speech>
[441.945]
څوک
[442.615]
<no-speech>
[447.615]
نه اوس دې اواز صحیح رانغللو څوک ښاېسته ښکاري
[450.815]
<no-speech>
[452.725]
<no-speech>
[453.255]
<no-speech>
[458.625]
ریحانه خبرې کولی شي
[460.255]
<no-speech>
[461.805]
ریحانه خبرې کولی شي
[463.435]
<no-speech>
[469.975]
<no-speech>
[470.685]
<no-speech>
[474.565]
<no-speech>
[475.165]
<no-speech>
[480.295]
<hes> د
[481.515]
<no-speech>
[482.635]
هو هو بېګا یې آغا جان ته هم زنګ وهلې وو که نه زرغونې داسې ډېرې خبرې ور سره وکړې بیا (()) ښاېسته خبرې وکړې <breath> زرغونه د چا واسطه وه آغا جان وایې زرغونه هم اوس واسطه کوي <laugh>
[494.435]
<no-speech>
[495.115]
<no-speech>
[497.705]
<no-speech>
[498.385]
<no-speech>
[501.075]
<hes> هو
[502.555]
<no-speech>
[509.535]
<hes> هو
[511.665]
<no-speech>
[514.705]
ښه بیا هغه دی
[515.465]
<no-speech>
[517.825]
<no-speech>
[518.505]
<no-speech>
[526.595]
هو
[527.145]
<no-speech>
[531.175]
<no-speech> بیا آغا جانور ته <hes> ښه بیا آغا جانور ته وویل ویل ځه ته یې هغه دې را شي او نوم دې دغه کړي امتحان دې ور کړي وایي زه یې کامیابوم نور دې خلاص اوسي خو فقط امتحان دې ور کړي وایي بیا یې زه کامیابوم
[543.175]
<no-speech>
[545.155]
نفیسه چېرته ده څه شی کوي
[546.775]
<no-speech>
[555.175]
<no-speech>
[563.575]
<no-speech>
[564.045]
<no-speech>
[569.885]
<no-speech>
[570.265]
<no-speech>
[574.275]
<no-speech>
[575.025]
<no-speech>
[578.535]
<no-speech>
[579.205]
<no-speech>
[581.365]
<no-speech>
[581.985]
<no-speech>
[586.035]
<no-speech>
[586.545]
<no-speech>
[588.435]
<no-speech>
[588.795]
<no-speech>
[590.185]
هو دا ده چې غټ سړی <hes>
[593.025]
<no-speech>
[594.355]
او دا داسې غټ سړی دی ما ورته وویل وایم داسې خراب دی ما ور ته وویل چې ته کامې ته ځې زه هم در سره
[599.365]
ځم وایي نه زه بي
[600.32]
