[0.0]
<no-speech>
[3.825]
هلو <breath> ښه یم ته څنګه یې څنګه ده خاله جان څنګه ده <laugh> خورګانې دې ښه دي
[13.165]
<no-speech>
[14.125]
<no-speech>
[14.485]
<no-speech>
[16.255]
<laugh> ټول ښه دي سلام وایې مور مې ټول
[19.975]
<no-speech>
[22.095]
وایې <laugh> <breath> بس لګیا یو که نه مصروفه یم ډېره په همدې کښې
[27.465]
<no-speech>
[28.285]
<no-speech>
[29.485]
<no-speech>
[33.445]
<breath> هو لږ لږ ټول وم خو یقین وکړه زما هېڅ زړه ور ته نه کېږي داسې زړه مې خفه یې <breath> چې ګورم ورته نه مې کېږي زړه چې د دې ځای نه لاړه شم
[43.345]
<no-speech>
[47.015]
<no-speech>
[47.365]
<no-speech>
[48.195]
هو (())
[49.505]
<no-speech>
[50.715]
هو دا خو ده <breath> خو زمونږ معلومات هم نه شته چې ځو نه ځو بل ځای ته ځو خو دې ځای نه په خیر <breath> خو کابل ته
[59.615]
<no-speech>
[61.175]
هو نو
[63.175]
<no-speech>
[67.485]
<breath> ښه نه زه بیا نه خبر مقصد همدلته فقیرآباد کښې ونیسو ښه دی <breath> ځکه (()) دومره ماته ګرانې دي <breath> او هغې دې ته هم زه ډېره ګرانه یم
[79.105]
څه وخت نه خبر شوي چې دوې ځي <breath> داسې خفه دي یو ملګرې مې څه وایې چې زه ختم کوم چې لاړ نه شئ وایې <laugh> ما له
[86.465]
<no-speech>
[87.745]
<no-speech>
[89.285]
<no-speech>
[90.165]
<no-speech>
[90.895]
<no-speech>
[93.155]
نه کور خو نه دی پیدا نه پیدا کېږي یو میاشت لپاره <breath> شلو ورځو لپاره خو نه پیدا کېږي <breath> او هغه ورځ پلار <hes> هو
[101.375]
<no-speech>
[103.075]
<breath> پلار مې فون کړې وو دغه ته <breath> <hes> خاله ته <breath> چې مونږ ته کور پیدا کړئ که نه یو شلو ورځو لپاره یو میاشت لپاره <breath> خیر دی که قیمته هم وي
[114.575]
هر څومره پیسې غوښتې مجبوري ده که نه <breath> بیا خاله مې ویل وایې نه شته دی هغې لکه لکه چې کوشش یې کړې نه وو <no-speech> نو بیا را شئ مونږ کره نو که ونه شو
[126.485]
<no-speech>
[126.635]
<no-speech>
[131.165]
<hes> هو لږ سامان خو به دلته چېرته <breath> دوکان ور ته ونیسو دوکان کښې به یې کیږدو
[137.645]
<no-speech>
[138.935]
<hes> <breath> خو بیا هم مشکل- <hes>
[143.375]
<no-speech>
[145.455]
هو نه پیدا کېږي اوس خو دومره ډېر دي خو څه وکړو یو میاشت لپاره وایې ډېره مشکله ده
[151.315]
<no-speech>
[157.945]
(()) او مشکل هم دی چې مینې نیسې بیا بجلۍ او ګېس دا بېلونه دا خلک سم جنجال کښې نښلوي
[166.645]
<no-speech>
[173.355]
<hes> هو دا خبره نو <breath> والله زه ډېره خفه مور مې دومره نه مور خو مې خوشحاله ده
[182.415]
خو زه ډېره خفه یم داسې یم سم مې زړه خفه وایم چې دې ځای نه ځو اوف خدایه څومره مشکل دی یو دوه (()) چې ټول عمر مې شو
[193.565]
<no-speech>
[195.615]
هو <hes> د کابل نه چې راغلې یو مونږ ډېر واړه وو <breath> او تللو به چکري داسې یو میاشت درې میاشتو د پاره <breath>
[204.375]
<no-speech>
[205.385]
<breath> نو
[207.235]
<no-speech>
[208.235]
<no-speech>
[209.135]
<no-speech>
[211.465]
خو دغلته مور ته مې وایو که نه زما ملګرې وایې هم که نه وایې مور ته دې ووایه چې هلته <breath> چې څوک ښه پیسه‌دار نه وي نه دې ځې او په ډالرو یې معاش مور مې (())
[221.905]
<no-speech>
[224.925]
<breath> نه نه یې ده اخېستلې
[227.365]
<no-speech>
[229.335]
خو <breath> خو دغه مونږه هم وایو که نه بس مور مې وایې <breath> یو دا ګرمې چې ګرمۍ ته ګورم سمه تنګېږم زه وایم بس ځو د خیره <breath> او
[241.125]
<breath> نو د ادریس دغه ادریس فاکولته ده ورور مې
[246.425]
<no-speech>
[249.935]
نه <laugh> افرین هو هو نه شي اوسېدای شي ولې نه <breath> خو مور مې وایې وایې چې زه هم در سره ځم <laugh>
[261.714875]
<laugh> او واده له ځې به ور سره نو <breath> <hes>
[265.345]
<no-speech>
[266.375]
یوه نو اوسېږي به ور سره <breath>
[269.535]
<no-speech>
[275.205]
<hes> خو نه پرېږدي مور وایې نه <breath> مونږه ته ښه <breath> (()) لالا نه مې پوښتنه وکړه دومره خاندې الله وایې ته چې ادریس ته وایې ته چې
[286.925]
کوم مکتب کښې فاکولته کښې داخل شوې هملته ځه مور دې خاله‌ګکه ونیسه <laugh> داسې خاندې <laugh> مور مې وایې هو زما قبول دی
[297.075]
<no-speech>
[302.025]
<no-speech>
[302.505]
<no-speech>
[303.915]
نو څومره ښه ده زما مور <breath> پوهېږئ پرون لږ ناوخته راغلو بهر وتلې <breath> مور مې مور مې لاندې دروازې ته ولاړه ده اوس <hes> خدایه (()) خو را ځې وایې نه
[314.905]
فون مې ور ته بیا وکړه بیا سخته غصه وه <breath> <hes>
[320.365]
<no-speech>
[323.245]
هو ګران دی نو هر څوک به ځامن لري <breath> ماته خو ګران دی ولې نه خو <breath> مور ته یې بېخي <breath> نه مړه یم ور ته ولې نه
[334.215]
هو هو <breath> داسې مه وایه <laugh> ادریس ور ته ډېر ګران دی
[340.325]
<no-speech>
[342.145]
هغه خو ما نه خو ډېر ګران دی ور ته <sta>
[347.225]
<no-speech>
[348.705]
(())
[350.665]
<no-speech>
[351.775]
<no-speech>
[352.145]
<no-speech>
[354.395]
<hes> څومره ښه (()) وو
[357.195]
<no-speech>
[360.475]
<no-speech>
[361.195]
<no-speech>
[362.915]
ښه دی ښه دی واده ته ځه چکر وهه مړه څه کوو دلته خو هسې هم زمونږ څوک خپلوان نه وي <breath> <hes>
[369.495]
<no-speech>
[372.035]
(()) <hes> ښه ته تللې مور دې او بل
[378.735]
<no-speech>
[380.125]
ښه <no-speech> څنګه ده انیسه
[386.585]
<no-speech>
[387.815]
<breath> اوس خو زمونږ به همدغه شوه زمونږ هم باجي شوه نه <laugh>
[396.425]
<no-speech>
[397.255]
<laugh> هو څنګه دی نامزادی <hes>
[407.145]
<no-speech>
[408.945]
ښه <breath> نو دغه خو راغلې نه دی خاله کره خو مېلمانه نه دي راغلې <int>
[416.625]
<no-speech>
[420.805]
<no-speech>
[421.155]
<no-speech>
[422.485]
کشره لمسۍ ښه
[425.535]
<no-speech>
[426.935]
ښه هغه راغلی وو او بل څوک <breath>
[430.235]
<no-speech>
[431.705]
<no-speech>
[433.025]
<no-speech>
[434.745]
هو زېبا دوی ویل را ځي نو نن یې خو-
[438.885]
<no-speech>
[445.455]
ښه کابل کښې لکه چې ښه یخني ده
[448.235]
<no-speech>
[449.145]
<no-speech>
[449.515]
<no-speech>
[451.385]
هو ښه ښه صحیح ده ما ویل چې راغلی به وي <breath>
[456.075]
<no-speech>
[459.725]
او هغه <no-speech> ښه هو خو ولي د څه لپاره راغلې
[464.195]
<no-speech>
[466.975]
<no-speech>
[468.155]
<no-speech>
[469.295]
دا خبره ومه چې مریضه خو به نه وي
[472.435]
<no-speech>
[476.775]
ښه صحیح ده صحیح ده <breath> ښه ته وایه مړه هو څه <laugh> څنګه به خوشحاله وه خو دا بېچاره <breath> خور یې ده ښه
[488.665]
<no-speech>
[488.815]
<no-speech>
[489.705]
<hes> څنګه مکتب ته ځې <hes> څنګه
[498.745]
<no-speech>
[500.425]
<no-speech>
[500.815]
<no-speech>
[502.145]
مکتب ته ځې څنګه
[503.595]
<no-speech>
[507.585]
نه ځې که نه سبا ته خو به ځو <breath>
[511.065]
<no-speech>
[513.685]
هو <laugh> څنګه یې ښه والله چې ښه <breath> زنده دل شوي یې ښه
[520.875]
<no-speech>
[523.935]
<no-speech> هو والله څه کوې لاړه شه <breath>
[527.185]
<no-speech>
[529.595]
ځان نو خیر دی یو ورځ رخصت وکړه <breath>
[532.775]
<no-speech>
[537.565]
<laugh> ما ته دې ولې راغلی <laugh>
[542.885]
<no-speech>
[546.625]
<laugh> افرین زما خپله داسې بده راغلې شاګردان څه وکړم کله ور ته کنځلې شروع کړم بېخي اعصاب مې خراب شوي <breath> <hes>
[557.175]
<no-speech>
[559.175]
<no-speech>
[559.765]
<no-speech>
[561.515]
<no-speech>
[562.545]
<no-speech>
[566.835]
<no-speech>
[567.225]
<no-speech>
[568.065]
<no-speech>
[569.295]
<no-speech>
[571.575]
<laugh> هو دغسې کنځلې زه هم کوم داسې خو زه هم یم <breath> څه وکړو (()) <breath>
[579.725]
<no-speech>
[580.535]
هو
[581.195]
<no-speech>
[583.475]
<breath> <hes> پروسږکلنۍ اصلاً <hes> اول کال دې وو حوصله دې لرله <breath> حوصله ختمېږي که نه نور <breath>
[592.965]
<no-speech>
[596.935]
ښه <breath> او ولې زه مور ته وایم که نه
[600.02]
