[0.0]
<no-speech>
[2.325]
<no-speech>
[3.265]
<no-speech>
[4.065]
<sta> وعلیکم السلام <no-speech> ټیک‌ټاک قراري دی قاري صاحب
[11.425]
<no-speech>
[12.425]
شکر الحمد الله
[13.865]
<no-speech>
[16.735]
<no-speech>
[17.095]
<no-speech>
[19.285]
حاضر ته خو د خدای فضل دی بالکل ښه دی <int>
[22.745]
<no-speech>
[23.555]
<no-speech>
[24.265]
<no-speech>
[25.475]
<int> موږ خو دلته <hes> لاجورد کار وو <hes> حقیق فېروزه <no-speech> او داسې لکه مختلف کاڼې کار وو
[37.445]
<no-speech>
[37.595]
<no-speech>
[38.675]
<int> هو موږ ته هم د دې رقم ته مختلف شیان جوړ وو لکه مثال ډبي شو شترنجونه شو <int> مېزونه شو دی پاتې داسې
[50.585]
خلک دغه ور کړي چې هغې نه مجسمه جوړه کړو <int> هو
[57.735]
<no-speech>
[59.155]
هو دا همدلته دوکانداران یې دی لکه واپس زموږ نه اخلي او هغې له بس بیا څوک یې بهر وړي څوک یې یو ځای ته وړي او څوک یې بل ځای ته وړي
[67.745]
<no-speech>
[70.955]
<no-speech>
[71.325]
<no-speech>
[72.535]
زموږ دوکان په اندړ شېر کښې دي
[77.965]
<no-speech>
[81.565]
<sta> نن سبا چې دی د دې <hes> دغې لاجورد نن سبا لکه ډیمانډ ډېر کېږي او زیات کر- لکه او بازار یې ګرم دی او زیات کر- لکه اوس نن سبا چې کوم دی که نه (())
[93.405]
ته وایي ډیکورېشن پیسو نه دي هغه زیات چاینا ته ځي
[97.685]
<no-speech>
[99.695]
<no-speech>
[100.915]
<no-speech>
[103.405]
دا خو لکه مختلف ملکونو کښې لګېږي د دې شوګانې لږېږي جرمني کښې لږي <hes> لندن ته ځي مړه افریقې ته ځي اسټرالیا ته ځي دا ډېرو ملکونه ته ځي
[115.165]
<no-speech>
[118.885]
<no-speech>
[119.245]
<no-speech>
[121.615]
لکه را ځي د کوم ملک نه
[123.855]
<no-speech>
[127.945]
ښه ملک <sta> خو د افغانستان دی افغانستان نه بغیر بل کوم ملک کښې شته هم نه دي
[133.185]
<no-speech>
[134.185]
دا بدخشان کښې دي بدخشان نه بغیر سواد افغانستان نه لاجورد بل ځای کښې نه شته دي
[142.905]
<no-speech>
[143.775]
<no-speech>
[146.815]
<no-speech>
[150.075]
او تجارتي دلته یې را وړي نمک منډۍ ته نمک منډۍ کښې یې بیا زموږ غوندې کاریګر یې اخلي
[155.125]
<no-speech>
[157.975]
<no-speech>
[158.375]
<no-speech>
[159.995]
<no-speech>
[160.415]
<no-speech>
[161.245]
<no-speech>
[161.615]
<no-speech>
[164.805]
<no-speech>
[165.175]
<no-speech>
[167.105]
<int> هو دا خو لکه په ټنونو را ځي نو اوس هغې له خو په دې ښکته کوي چې خلک چې دی ګاډو کښې یې را وړي <hes> مثال سل ټنه هم را وړي زر ټنه هم را وړي
[178.865]
ټنونو حساب دی هغې ځای نه یې را وړي
[181.135]
<no-speech>
[184.545]
هو هو دلته دی خلک اخلي سل کیلو مثال زر کیلو دوه زر کیلو مثال هغوی لکه خپل لارډ جوړ کړی وي زر کیلو دوه زره کیلو ځېنې خلک یې ور نه بیا داسې اخلي او زموږ غوندې کاریګر چې وي
[196.525]
هغه دوه سوه کیلو دری سوه کیلو ترې اخلي <int> هو هو لکه خپل وس مطابق ترېنه لږ لږ اخلي
[204.885]
<no-speech>
[206.485]
<no-speech>
[206.875]
<no-speech>
[209.675]
هو دلته دلته بیا بس بیا موږ مختلف شیونه جوړ کړو
[213.025]
<no-speech>
[215.495]
<no-speech>
[218.825]
<no-speech>
[221.225]
<no-speech> نه لکه موږ دلته دوکاندار باندې موږ لکه مثال اوس
[232.765]
لکه دې کښې زړونه وي قلبونه ورته وایي هغه د کیلو په حساب خرڅوو غمي د کیلو په حساب خرڅېږي دا ډبی چې دی دا د دانې په حساب خرڅېږي شطرنج هم دانې په حساب
[242.915]
خرڅېږي او میز هم د دانې په حساب دا خو لکه موږ چې مثال د پېنځوسو روپو مال خرڅ کړو مثال پېنځه‌ویشت زره نغدې را کړي او باقي چې دی دا پېنځه‌ویشت زره دا بیا مثال ټیم را کړي یا به هفته بعد
[254.895]
خو وایې یا میاشت بعد یا دوه میاشت بعد لکه داسې ټاېم را کړي <sta>
[262.135]
<no-speech>
[264.845]
بس حاضر ساعت مړه بس ښه دي ګوزاره کوي شکر دی ښه دي
[268.805]
<no-speech>
[269.705]
<no-speech> هو ګوزاره بس شکر دی روانه ده <int>
[276.085]
<no-speech>
[278.385]
<int> <no-speech> دا خو لکه مختلف ملکونه دي که نه ما خو مخکې مې هم در ته وویل دا لکه اوس زیات تر جرمني کښې <foreign> ورته وایي هغې ته هم ځي داسې لکه مختلف مړه ملکونه دي هر یو ځای کښې خپله خپله شو لګېږي زیات هغې ته ځي لکه جرمني ته هم زیات ځي لندن ته هم زیات ځي <hes> چاینا ته نن سبا زیات ډیمانډ د چاینا دی
[300.295]
<no-speech>
[302.065]
<int> هو بازار یې ګرم دی هلته هغه یې زیات دی <int>
[309.355]
<no-speech>
[310.915]
د هغه لکه د دې نه غیر لکه د لاجورد نه نور قیمتي کاڼې چې دي یاقوت دي زمرود دی بیورت دي <no-speech> دي کښې اکومرین دی (()) دی فلورایډ دی دی کښې لکه مختلف
[322.635]
نامې دي نور
[324.225]
<no-speech>
[325.835]
<hes> دې کښې لکه کوارټس کوارټس ورته وایي کوارټس لکه <hes> کوراټس بلور ورته وایې هغه دي مړه خو لکه مختلف دي <hes> مختلف لکه نامې دي ډېرې نامې دي
[337.555]
کاڼو
[338.545]
<no-speech>
[339.665]
<no-speech>
[340.085]
<no-speech>
[341.925]
<int> نه اوس لکه نن سبا چې ښه شی چې دی یاقوت شو مثال زمرود شو بیروت شو دا خو د افغانستان دي
[350.585]
<no-speech>
[351.835]
<no-speech>
[352.305]
<no-speech>
[353.335]
اه او دلته چې دا نور کوم دې بازار ته اوس دا کوم یو نوی مال را ځي لکه دا مارکه دی ته وایي <no-speech> هغه بیا د دغه نه را ځي د <hes>
[363.105]
<no-speech>
[364.245]
دې بهر ملک کښې مړه یو ځای دی زما لا اوس د ذهن نه نامه یې ووتله <int> تایلنډ نه لکه را ځي بنکاک نه
[373.475]
<no-speech>
[375.985]
هو هو
[376.935]
<no-speech>
[378.825]
<no-speech>
[379.175]
<no-speech>
[380.115]
<no-speech>
[380.515]
<no-speech>
[383.545]
<no-speech>
[383.895]
<no-speech>
[387.915]
هغه خو یاقوت دی <no-speech> یاقوت او زمرود دی هو لکه ښه قیمت <sta> ګران شی او ښه شی لکه دا دی خو چې صحیح شی میلاو شي دې نن سبا وخت کښې خو یاقوت ښه میلاو شي
[399.815]
قیمتي د هغې نه نور قیمتي بره نه وي او بله خبره دا ده چې دې کښې بیا هیره او ډایمنډ دی هغه هم بیا ګران دی <int> هو
[410.555]
<no-speech>
[411.505]
<int> ای <no-speech> یاره هغه چې دی که نه هغه چې کړوړه <hes> روپۍ نه وي دا زموږ غوندې دا پېنځوس زره او دا مثال شل زره او لس زره روپو والا هغه
[423.195]
نشي کولای
[423.825]
<no-speech>
[424.725]
<no-speech>
[426.695]
<no-speech>
[427.985]
هو هو
[428.965]
<no-speech>
[434.625]
او د هغې غټ تجاران دا کاروبار کوي چې غټ تجار نه وي او د دنیا په <int> سطح باندې ښه دغه نه وي نو د هغې کاروبار څوک نشي کولای لکه هېره شوه ډایمنډ شو ښه یاقوت شو
[446.515]
ښه زمرود شو لکه دا شی چې ښه پیسه چا سره نه وي څوک یې نشي کولای
[451.645]
<no-speech>
[458.485]
<int> یاره نن سبا چې دی که نه لکه هغه د رېټ په حساب باندې لکه غمی خرڅېږي او اړه په زرګر پورې لري چې هغه ګوتمه مثال که په لس زره جوړه کړي په شل زره یې جوړه کړي او غمی که په یو لک وشو او که په لس لکه وشوه نو هغه بیا کاڼې کاڼې پورې هغه یې وزن پورې
[481.565]
<no-speech>
[483.025]
<no-speech>
[483.695]
<no-speech>
[486.435]
<no-speech>
[488.795]
<no-speech>
[490.425]
<no-speech>
[490.795]
<no-speech>
[492.995]
الماس خو هم دا هم یو کاڼې دی که نه <int>
[497.485]
<no-speech>
[498.545]
<int> یاره دې کښې به در ته لږ <hes> دروغجن شمه د دې کښې علم لکه دومره ما سره نه شته دی <no-speech> نو الماس
[509.395]
<no-speech>
[510.545]
الماس خو <hes> دغه دی دا زیاتر دا لکه دلته ما د خلکو نه اورېدلې دی چې چېرته کوم ځای کښې دا تندر وغورځېږي دې کښې وایي دا الماس وي بیا دې پسې خلک ګرځي <no-speech> د دې لکه خپل
[522.284875]
<int> اه خپل کسان یې دي هغوی بس ځای معلوموي هغه <int>
[528.565]
<no-speech>
[529.495]
<no-speech>
[529.945]
<no-speech>
[530.845]
<int> هو
[533.775]
<no-speech>
[534.755]
<int> نه
[538.485]
<no-speech>
[539.645]
<no-speech>
[540.015]
<no-speech>
[541.355]
<no-speech>
[541.705]
<no-speech>
[543.645]
یاره چې هلته <breath> یو خپل ځای میلاو شی ښه دغه میلاو شي یاره بالکل اراده مو ولې نشته چې سړی هلته خپل کاروبار شروع کړي بل خبره دا ده چې خپل ملک خپل وطن دی
[555.615]
<no-speech>
[555.765]
<no-speech>
[558.995]
<no-speech>
[559.345]
<no-speech>
[560.165]
خپل ملک کښې استعمال شي نو بلکل خپل ملک کښې استعمال شي نو دا خو ډېره ښه خبره ده <hes> د ملک هم فایده وي او خلکو ته هم فایده وي
[570.305]
<no-speech>
[574.615]
بالکل هو
[576.425]
<no-speech>
[583.155]
نن سبا خو هلته ټول د ډالرو خبرې دي کلدارې او افغانې څوک پېژني هم نه نن سبا خو مثال چې دکان نیسي د هغې دوه زره یو نیم زر ډالر مخکې پېشکي غواړي او نن سبا وخت کښې یو نیم زر یو یو نیم سل
[599.475]
سل او دېرش ډالر
[600.3]
