[0.0]
<no-speech>
[3.925]
هلو
[4.325]
<no-speech>
[5.495]
<cough> پروس کال کوم هغه هم ایښې وو
[7.955]
<no-speech>
[10.295]
<no-speech>
[10.645]
<no-speech>
[21.64]
<no-speech>
[32.635]
<no-speech>
[33.705]
<no-speech>
[36.285]
هو <click>
[37.745]
<no-speech>
[46.415]
نو دا څنګه نه تللو
[47.645]
<no-speech>
[56.87]
<no-speech>
[66.095]
نو
[66.585]
<no-speech>
[69.135]
نو موږ که لکه اوس غنمو طریقه <no-speech> کوم ځای ښه را ځي او کوم ځای وکرل شي او څه په کوم سسټم سره او په کوم دې دغه سره
[76.495]
<no-speech>
[87.305]
<no-speech>
[98.115]
<no-speech>
[108.925]
ګرځم
[109.555]
<no-speech>
[114.425]
خو دا پېښور نه راغلی یم هو
[116.245]
<no-speech>
[120.545]
بس دا ساعت خو خیر خیریت وو د خدای فضل دی اوس خو لا <no-speech> تر اوسه خو خیر وو
[124.485]
<no-speech>
[129.005]
<cough> وروره غریبي ده ډېره سخته
[131.095]
<no-speech>
[133.325]
<int> کلک هغه خښتې‌مښتې ودرول او را غورځول دي ګوزاره پرې نه کېږي خو خپل ساعت دی تېروو یې څه وکړو نور
[139.465]
<no-speech>
[142.445]
هو خپل وخت پاس کوو هېڅ هم نور
[144.205]
<no-speech>
[146.335]
<no-speech>
[146.885]
<no-speech>
[154.885]
<no-speech>
[155.455]
<no-speech>
[161.555]
ښه
[162.085]
<no-speech>
[172.735]
هو شته دی واحد د کار سړی په کښې نه شته مړه زما اووم صنف کښې د پاره په دې حال دی بس څه کوم غریبي ده بل زما را تګ همدې ځای پورې نه کېږي پېسې هم والله که زه زیاتې لرم
[180.405]
<no-speech>
[189.33]
<no-speech>
[198.255]
هو هو هو
[199.255]
<no-speech>
[201.115]
نور څنګه وکړم زه
[202.265]
<no-speech>
[203.435]
ښه کور دی د هغه <no-speech> وایم بیا څه وکړم څه چل باندې به هغه شم را شم په خیر
[208.215]
<no-speech>
[214.245]
ولې نه ځم
[215.125]
<no-speech>
[216.375]
ښه یې اورم
[217.135]
<no-speech>
[220.765]
هو
[221.295]
<no-speech>
[233.085]
هو بالکل
[233.965]
<no-speech>
[235.615]
نو څه وکړم زه
[236.555]
<no-speech>
[244.645]
ښه
[245.215]
<no-speech>
[246.115]
ته ستا خیر امید دی چې را شم په خیر
[248.275]
<no-speech>
[249.585]
را شم په خیر
[250.535]
<no-speech>
[257.64]
<no-speech>
[264.745]
<no-speech>
[265.275]
<no-speech>
[267.315]
پوخ همدا سړی شو که نه (())
[270.705]
<no-speech>
[273.505]
یاره بالکل ښه خبره کوي دا <no-speech> او په همدې ابادي مې په ګډه باندې
[277.665]
<no-speech>
[278.865]
<hes> <no-speech> نو هېڅ <int>
[281.755]
<no-speech>
[285.575]
هو
[286.125]
<no-speech>
[291.875]
هو
[292.405]
<no-speech>
[296.675]
هو هو
[297.325]
<no-speech>
[298.725]
هو پېژنم یې <hes>
[300.375]
<no-speech>
[308.705]
هو خدمت خو وایو
[309.855]
<no-speech>
[311.395]
یاره انشاءلله اراده خو مې د خیره ده که خدای پرې رضا شوی وو
[314.335]
<no-speech>
[316.655]
<no-speech>
[317.145]
<no-speech>
[321.365]
وایم چې دا ځل له خیره را ځه انشاءلله را ځم چې د وطن د ابادۍ <no-speech> کوښښ کول په کار دي که نه
[326.535]
<no-speech>
[330.505]
ولې
[331.075]
<no-speech>
[338.045]
یاره بس مړه د وجود نه هم لږ کمزوری شوی یم اقتصاد کښې هم کمزوری یم مړه ډېر لانجې دي نو بس <hes> څه به ووایم نور <hes> لانجې ډېرې دي <no-speech> ځکه غریبي ده که نه <no-speech> هو که نه
[349.975]
<no-speech>
[350.835]
<no-speech>
[351.345]
<no-speech>
[357.555]
<no-speech>
[363.765]
ښه
[364.295]
<no-speech>
[365.945]
ډېر ښه
[366.655]
<no-speech>
[370.035]
<hes> <no-speech> هو
[371.755]
<no-speech>
[375.425]
نو شپږ اووه‌سوه کلدارې شوې
[377.075]
<no-speech>
[380.305]
<click> هو
[381.165]
<no-speech>
[384.205]
یاره زه خو وایم چې یو موافقه هم پیدا شي
[386.295]
<no-speech>
[387.675]
<no-speech>
[388.165]
<no-speech>
[389.495]
بالکل
[390.205]
<no-speech>
[397.575]
وایم د زراعت سره مې هم شوق شته د ماموریت سره مې هم شته د معلمې سره مې هم شته دی خو چې په لاس را شي یا کوښښ په کار دي <no-speech> موږ سره دومره شی نه وي چې یو ځای پورې پرې ځان هغه ځای له ورسوو که نه
[408.135]
<no-speech>
[409.765]
<no-speech>
[410.305]
<no-speech>
[413.955]
هو
[414.485]
<no-speech>
[416.205]
<no-speech>
[416.735]
<no-speech>
[422.685]
هو
[423.215]
<no-speech>
[424.315]
انشاءلله
[425.755]
<no-speech>
[426.855]
نو ستا کار
[427.765]
<no-speech>
[429.295]
وایم بې‌تعلیمه در نه پاتې دي د کمپیوټر (()) اقتصادي کار دی ښه لاندې کښې روان دی په ژوره
[435.075]
<no-speech>
[436.585]
اقتصادي حال چې دې ډېر کمزوری دی
[438.515]
<no-speech>
[439.695]
<no-speech>
[440.165]
<no-speech>
[443.345]
نه
[443.865]
<no-speech>
[448.205]
بالکل را شي
[449.205]
<no-speech>
[450.755]
ښه پوهېږم
[451.635]
<no-speech>
[455.375]
شکر الحمد الله <hes>
[457.535]
<no-speech>
[459.205]
وړ کړ
[459.845]
<no-speech>
[463.235]
نه دی ور کړئ
[464.125]
<no-speech>
[472.415]
دا ډېر ډېر ډېر نو زما خو له خیره یا دا اخریني دا ده انشاءلله او انشاءلله <hes> که په را تلونکي دغه لږ وخت کښې زه له خیره را ځم بې‌واقعه الهي
[482.535]
<no-speech>
[484.245]
<hes> له خیره را ځم
[486.395]
<no-speech>
[488.185]
<hes> نو زه له خیره را ځم او بس امید د خپل وطن عاشقمند یم زه دا نه شم کولای دې نه منکرېدلی نه شم د خپلې خاورې نه <no-speech> زه دا شکر وباسم چې زما خاوره دومره په مخکې لاړه زه دې باندې غټ فخر او
[499.995]
او <hes> خوشحالي ښکاره کوم
[501.965]
<no-speech>
[510.085]
بالکل
[510.935]
<no-speech>
[514.295]
بالکل <no-speech> ځم
[515.934875]
<no-speech>
[523.374938]
<no-speech>
[530.815]
ودود به چېرې پراته خو د خیره را ځم که نه
[533.265]
<no-speech>
[534.805]
خو داسې کوم
[535.755]
<no-speech>
[537.495]
بالکل په کار دي
[538.435]
<no-speech>
[539.255]
بالکل په کار دي
[540.295]
<no-speech>
[542.785]
بالکل خاورین کمپ ده
[544.095]
<no-speech>
[548.995]
بالکل
[549.725]
<no-speech>
[552.015]
<no-speech>
[552.415]
<no-speech>
[555.195]
بالکل <no-speech> هو <no-speech> <hes>
[558.485]
<no-speech>
[561.585]
بالکل غوښتونکې
[562.715]
<no-speech>
[569.195]
هو بالکل دې نه مخکې
[570.745]
<no-speech>
[574.395]
لکه کتابچې
[575.445]
<no-speech>
[578.535]
ډېر کتو
[579.355]
<no-speech>
[583.665]
انشاءلله دا مې اراده ده <no-speech> د خیره
[585.895]
<no-speech>
[592.9675]
<no-speech>
[600.04]
