[0.0]
<no-speech>
[2.935]
هلو
[3.515]
<no-speech>
[4.635]
السلام علیکم
[6.905]
<no-speech>
[8.145]
<no-speech> څنګه یې <no-speech> ښه یم شکر ته خپله څنګه ښه یې مور دې څنګه ده خوریان دې وروڼه دې
[16.315]
<no-speech>
[20.335]
ښه ده شکر ټول ښه دي
[21.835]
<no-speech>
[22.885]
<no-speech> ښه چېرته یې
[24.425]
<no-speech>
[25.865]
ښه یمه چېرته یې <no-speech> کور کښې یې
[28.265]
<no-speech>
[29.225]
ښه
[29.905]
<no-speech>
[31.225]
ښه زه هم کور کښې یم بس ناسته یم تا ته زنګ ووهم تا سره خبرې وکړمه <no-speech>
[36.325]
<no-speech>
[38.095]
هو <no-speech> خیر دی <no-speech> خپله نور <no-speech> څه کار لرې
[44.335]
<no-speech>
[45.155]
ښه یمه
[46.265]
<no-speech>
[47.615]
<no-speech> هو
[50.425]
<no-speech>
[51.225]
<no-speech>
[51.605]
<no-speech>
[52.985]
<breath> زړه مې تنګ دی ما ویل تا ته زنګ ووهم تا سره خبرې وکړمه <no-speech> کور کښې هم څوک نه وو
[57.685]
<no-speech>
[61.865]
هو ګورمه
[62.945]
<no-speech>
[65.445]
<breath> زه ګورمه سسپنس ګورم نور خوشي ډرامه ګورمه <no-speech> نور <foreign> ګورم نتاشا نه ګورمه
[73.985]
<no-speech>
[76.295]
<no-speech>
[77.005]
<no-speech>
[79.335]
پکتیکا هم ګورې <no-speech> زه پکتیکا نه ګورمه خوشي ګورمه بس همدا ډارامې ګورمه <breath> چې وزګار شمه ګورمه که وزګار نه شمه کور کښې کار هم ده کار کومه نه وزګارېږم
[91.225]
<no-speech>
[91.555]
<no-speech>
[92.465]
<breath> کوو وخت که وزګار شو <no-speech> هو
[96.625]
<no-speech>
[98.285]
اوس کور کار ده <hes>
[100.435]
<no-speech>
[101.365]
<no-speech>
[102.155]
<no-speech>
[103.895]
ښه
[104.535]
<no-speech>
[105.595]
<no-speech> ښه یمه بس څنګه ده خوریان دې ښه دي
[108.845]
<no-speech>
[109.715]
<no-speech>
[110.065]
<no-speech>
[112.725]
ښه شو بس <no-speech>
[114.495]
<no-speech>
[117.615]
<no-speech>
[118.345]
<no-speech>
[119.975]
ښه ده شکر ټول ښه دي <no-speech> سیند ته خو نه ځې <no-speech> بازار ته خو نه ځې
[125.165]
<no-speech>
[130.385]
هو ګرمي راغلله <laugh> زه هم پرون تللې وم ځان ته مې جوړه واخېسته ګرمیانو <no-speech> بس ګرمي راغلله
[138.675]
<no-speech>
[140.155]
<no-speech>
[141.175]
<no-speech>
[142.415]
<no-speech>
[142.895]
<no-speech>
[145.735]
سکول ته ځمه هو
[147.395]
<no-speech>
[148.425]
<no-speech>
[148.805]
<no-speech>
[150.175]
اتم کښې <no-speech>
[152.055]
<no-speech>
[153.305]
هو ته <no-speech>
[155.865]
زه انګلېسي <breath>
[158.055]
<no-speech>
[159.915]
<no-speech>
[160.705]
<no-speech>
[163.045]
<breath> خپله سکول ته ځې <breath>
[165.885]
<no-speech>
[167.505]
څو وم صنف کښې یې
[168.355]
<no-speech>
[171.645]
دوولسم <no-speech> ښه ښه شکر ده خلاصوې
[174.525]
<no-speech>
[176.905]
ښه <no-speech> بس بیا به نور هغې نه بعد به وایې
[180.385]
<no-speech>
[185.915]
ښه
[186.655]
<no-speech>
[187.575]
ستا څه اراده ده څه کوښښ کوي چې څه هغې نه بعد ووایې <breath> انګلیسي کورس وایې نور څه وایې
[193.205]
<no-speech>
[202.895]
څو شي
[203.625]
<no-speech>
[206.335]
غرق یې کړل <laugh> ښه <breath> ښه بس ارمان به دې خدای پوره کړی <breath> څو وم کلاس کښې یې هو <breath> زه هم دا اتم پورې وایم بس موږ هم خوشې
[217.885]
شوق لرم سکول ووایمه خلاص کړم مکتب خلاص کړم <breath> نه مو پرېږدي کور واله
[222.035]
<no-speech>
[224.315]
وایي بس دی نور مه وایه غټه شولې <laugh>
[227.595]
<no-speech>
[231.335]
<no-speech>
[231.735]
<no-speech>
[236.705]
بس ده وایي غټه شولې نور مه ځه <breath>
[238.885]
<no-speech>
[243.675]
<no-speech> مور مې پرېږدي <hes>
[246.285]
<no-speech>
[249.015]
<breath> مور مې وروڼه مې نه پرېږدي بس وروڼه مې <no-speech> یو ورور مې غټ ده هغه وایي چې مه ځه بس ده
[254.655]
<no-speech>
[258.085]
هسې زه وایم چې زه خو هلک یم زه وایم بس ته مه ځه وایي <breath> زه ژاړم خیر ده مور ته وایم <hes> لسمه خو پورې خو ووایم چې وایي نه بس د څه شې کوې دا اتم ووایې بس <no-speech> نه
[269.795]
پرېږدي
[270.325]
<no-speech>
[272.015]
څه خبر یم
[272.965]
<no-speech>
[278.605]
<no-speech>
[279.955]
<no-speech>
[288.755]
هو که نه خو نه پرېږدي خو زه اوس هم کوښښ وایم <breath> ځه خیر ده
[292.985]
<no-speech>
[297.635]
<no-speech>
[298.165]
<no-speech>
[304.775]
<no-speech> هو <no-speech> کوښښ کوم ورته وایم ځه خیر دی زه دا لسمه پورې وایم بیا مې چې بیا نه مو پرېږدئ ځه
[311.475]
<no-speech>
[314.465]
<no-speech> کوښښ کوم تلم خو نه مې پرېږدي که نه <no-speech> هو
[320.275]
<no-speech>
[321.885]
څو وکړم نه مې پرېږدي
[323.535]
<no-speech>
[324.665]
هو
[325.255]
<no-speech>
[330.705]
ښه
[331.415]
<no-speech>
[332.225]
هو <no-speech> نه مو پرېږدي <hes>
[334.985]
<no-speech>
[343.97]
<no-speech>
[352.955]
<no-speech>
[353.745]
<no-speech>
[357.855]
هو <no-speech> کوښښ کومه ورته خیر دې را پرېږدئ چې مکتب خلاص کړم (()) چې نیمه هم ووایم خیر ده <breath> همدغه اتم پورې ووایه بس ده یوه بله خور مې هم نور ټول وړې وړې ځي خو ما نه پرېږدي وایي نه ضرور نه ده چې ځې
[369.415]
<no-speech> مه ځه همدې کور کښې بس صحیح کار وکړه
[372.395]
<no-speech>
[373.415]
او اوس زه غټه هم کور کښې مشره یم که نه ځکه ما نه پرېږدي نور خو ټول وړې وړې دي
[377.115]
<no-speech>
[387.125]
هو
[387.835]
<no-speech>
[389.015]
کوښښ کوم ورته وایم خیر ده پرېږ مې ده
[391.055]
<no-speech>
[392.325]
هو
[393.025]
<no-speech>
[395.055]
<no-speech> ستا نور خوریان مکتب ته ځي
[397.375]
<no-speech>
[400.445]
<no-speech>
[401.135]
<no-speech>
[404.975]
ښه <no-speech> هغوی دې مکتب خلاصوي سکول
[408.045]
<no-speech>
[411.025]
ښه <no-speech> فامیل مو سختګیر نه ده چې مه ووایئ مه یا ووایئ څنګه <hes> څومره پورې وایې یا نه وایې
[416.935]
<no-speech>
[423.53]
<no-speech>
[430.125]
هو که نه
[431.005]
<no-speech>
[432.635]
هو که نه <hes> کور کښې هم که نه بس انسان زړه تنګېږي <breath> نو سکول سره شي ساعت مو سم تېر شي سبق سره <no-speech> اوس نه پرېږدي خپله زه شوق لرم وایم مکتب خلاص کړم
[444.515]
هو ووایم <no-speech> انګلیسي کورس ته مو خو نه پرېږدي
[447.555]
<no-speech>
[449.435]
<no-speech> همدغه ووایه خلاص <breath> ښه دا خلاص کړم بیا <hes> به ګورمه سره چې څومره وایم
[454.455]
<no-speech>
[461.605]
<no-speech>
[462.125]
<no-speech>
[463.185]
<no-speech>
[465.295]
<no-speech>
[466.405]
<no-speech>
[466.805]
<no-speech>
[469.955]
<no-speech>
[470.325]
<no-speech>
[472.175]
هو <no-speech> کوښښ وکړم چې ما پرېږدي
[475.235]
<no-speech>
[476.985]
سپېن کره نه را ځي
[478.075]
<no-speech>
[480.365]
یو کال مه را ځئ
[481.345]
<no-speech>
[485.105]
ښه صحیح ده بیا به لړ شو دواړه
[486.705]
<no-speech>
[487.835]
<no-speech> هو <no-speech> موږ کره بیا را شئ بیا به دواړه درې واړه یو ځای لړ شو بیا به هلته خور به دې هم لړ شي ته به لړ شې را شې زه به هم لړ شم ځان ته به کالي واخلو څه شې واخلو <no-speech> عمه ځوی واده مې هم ده
[498.115]
<no-speech>
[499.545]
بیا څومره وخت کښې هو <no-speech> هغې د پاره هم کالي شیان اخلمه
[502.985]
<no-speech>
[504.045]
کابل ته بیا ځم <no-speech> هو
[506.245]
<no-speech>
[507.225]
نه کابل کښې
[508.185]
<no-speech>
[511.884875]
<no-speech>
[512.355]
<no-speech>
[514.835]
هو بیا کابل ته ځمه
[516.025]
<no-speech>
[519.335]
مکتب نه به رخصت به واخلمه څنګه وکړمه عمه ځوی واده مو ده که نه هغه خو هم نه شم پري ښودلای واده او مکتب ته هم سودا مې ده <breath> لږ شپې کوم ژر را ځمه
[528.205]
<no-speech>
[529.575]
درې څلور شپې کومه مکتب د پاره
[531.835]
<no-speech>
[535.285]
<hes> څلور یا درې به <no-speech> څه وکړمه را به شم زر مکتب د پاره درسونه مو پاتې نه شي که نه <no-speech> هو
[543.035]
<no-speech>
[545.935]
<no-speech>
[546.475]
<no-speech>
[547.475]
<no-speech>
[547.825]
<no-speech>
[553.405]
که نه
[554.785]
<no-speech>
[558.455]
<no-speech>
[558.915]
<no-speech>
[561.185]
<no-speech>
[563.555]
<no-speech>
[570.035]
هو نو
[571.145]
<no-speech>
[580.015]
هو
[580.765]
<no-speech>
[581.695]
<no-speech>
[582.065]
<no-speech>
[588.61]
<no-speech>
[595.155]
<no-speech>
[595.675]
<no-speech>
[600.06]
