[0.0]
<no-speech>
[0.795]
<no-speech>
[2.745]
<no-speech>
[4.535]
وعلیکم <no-speech> <foreign> <no-speech> ټیک‌ټاک
[11.035]
<no-speech>
[12.155]
څنګه یې
[12.855]
<no-speech>
[15.105]
شکر دې <hes> څنګه یې نوره
[17.515]
<no-speech>
[19.395]
داسې کله
[20.495]
<overlap>
[21.625]
ته خو را هم نغلي
[22.605]
<no-speech>
[25.525]
نو ست خبره دا خو دست خبره نه ده چې مطلب <hes> دا خو خلک خپله را ځي نو
[29.585]
<no-speech>
[32.484875]
کله ویلې <no-speech> چا ویلې <no-speech> څنګه دروغ وایي دروغجنه ده <no-speech> غټه جنۍ ده او دروغ وایي <no-speech> ښه د څه شي پارټي ده بیا
[43.215]
<no-speech> وایم د څه شي پارټي د څه شي پارټي ده
[46.355]
<no-speech>
[47.805]
د څه شي
[48.585]
<no-speech>
[52.585]
نو <hes> کوم سوټ به اچوي
[54.975]
<no-speech>
[61.275]
یاره خو نو ته په جامونه مړ کېږي <int>
[63.915]
<no-speech>
[65.555]
خپل وایټ کلر سوټ وا اچوه
[67.585]
<no-speech>
[70.455]
نو ښه نه دې چې سره بګوه ښکاري
[72.405]
<no-speech>
[74.085]
ښه ځه نو ګرځه مزې کوه
[76.085]
<no-speech>
[77.565]
<no-speech>
[77.965]
<no-speech>
[80.555]
مړه موږ کوم <hes> عاجزانان غریبانان خلک وي سوټونه خو ستاسو وي <no-speech> مالداران استۍ
[86.975]
<no-speech>
[88.365]
هو <no-speech> ښه نور وایې که نه مور څنګه ده انم باجي څنګه ده
[93.115]
<no-speech>
[95.495]
خېریت خېریت دې نور څه نوي تازه
[98.655]
<no-speech>
[102.815]
<no-speech> پیر په ورځ هفتې په ورځ <no-speech> څوک به در سره ځي
[109.705]
<no-speech>
[110.515]
کومې ښه دی دغه غټې بشرا سره <no-speech> ګډې سره
[114.615]
<no-speech>
[116.095]
نو غټې سره که نه <no-speech> دا کالج واله یادوم در ته که نه
[120.105]
<no-speech>
[120.945]
او ته خو ماته د بشرا نه فراک هم را نه وړه
[123.205]
<no-speech>
[124.875]
<no-speech>
[126.625]
<no-speech>
[130.364875]
پټیاله‌مټیاله والله زموږ در سره نشته نو
[132.915]
<no-speech>
[133.985]
<no-speech>
[134.375]
<no-speech>
[135.765]
ښه بازار له خو نه ځئ <hes>
[137.305]
<no-speech>
[138.805]
ښه <hes>
[140.595]
<no-speech>
[143.225]
منتها مدرسې له کله ځي
[144.635]
<no-speech>
[146.745]
<hes> دی اتوار له
[148.135]
<no-speech>
[149.065]
نن څه ورځ ده
[150.115]
<no-speech>
[151.185]
ښه سبا جمع ده هفته اتوار ښه ښه ښه ځه خیر دې ځه ل په کښې ورځې شته
[155.615]
<no-speech>
[157.175]
<hes> <int>
[159.775]
<no-speech>
[160.825]
در به شو
[161.415]
<no-speech>
[162.555]
دا له ګوله ختمه شي مطلب <no-speech> دا سمینه راغلې دا لړه شي سبا بیا خلک را ځي <no-speech> سبا <no-speech> <hes>
[172.075]
<no-speech>
[173.005]
هو هو وایي ابراهیم دا توشک را وړه چې یوسم هو ښه مزو کښې ده راهبه څنګه ده
[178.445]
<no-speech>
[180.995]
ښه خوشحاله ده وایي ډېره
[182.435]
<no-speech>
[183.825]
تاسو ورغلي وې
[185.765]
<no-speech>
[187.205]
ولیمې نه بس بیا نه یې ورغلې
[188.655]
<no-speech>
[190.385]
اې ریښتیا دغه تاسو سره د هغې نمبر شته
[192.915]
<no-speech>
[194.675]
د <hes> دغې دي څه یې نوم دی دغه نجلۍ
[198.145]
<no-speech>
[200.365]
د راهبې د هغه کور نجلۍ څه نه ده
[202.655]
<no-speech>
[204.115]
هو
[204.745]
<no-speech>
[205.815]
هو
[206.355]
<no-speech>
[208.205]
<hes> بس هغه خو پاک شو بس ختم <no-speech> هو نشته هو منیه نمبر تاسو سره شته
[214.985]
<no-speech>
[216.495]
لږ یې ورته ووایه ماته <hes> په دغه کښې را سنډ کړه
[219.165]
<no-speech>
[220.165]
مېسج کښې فون ور ته کوم
[222.335]
<no-speech>
[225.135]
نو مړه نو هغې سره مې خپل مطلب دی که نه ګوره که نه
[227.825]
<no-speech>
[229.915]
هغه ټوټکه تپوس ترېنه کوم د مخ د پاره
[232.975]
<no-speech>
[234.275]
هو که نه سمه خرابه شوې وه سم مخ به یې خراب وي نه مړې اخوا یې کړه <no-speech> بس <no-speech> هو راجکماري سمینې واده شروع شوې ده نه مو ده
[246.265]
کتلې
[246.755]
<no-speech>
[249.015]
<no-speech>
[249.365]
<no-speech>
[250.375]
اوس <hes> هغه هغې سره ملګرې شوه نو
[252.845]
<no-speech>
[254.415]
راج کمار سره <no-speech> هو
[260.195]
<no-speech>
[261.494875]
<int> مامي ته <int> نه لکه پرېښې نه دی خو هسې لکه دی ور سره دوستانه واچوله که نه <no-speech> فرنډشپ یې ور سره سټارټ کړو هو ښه ما له بیا نمبر را سنډ کړه ښه
[273.245]
خوشي خوشي هغې خو ادنا سره واده وکړو
[277.305]
<no-speech>
[278.665]
نه یې ګورم صرف پارټونو چې کښې ګورو کله کله اوس خو (()) خو جبریل دوی مونځ کله داسې نه دی کړې نو <breath> مهمه مه مه ما اوړه اغږل کچن ته را غو <no-speech> نو څه وایي ما ته وایي مهمه ماتیکو ما ویل څه شی ماتیکو خدای خبر شه
[290.425]
مهمه موت ماتیکو او داسې مات کړې چې یقین به دې هم را نه شي دا دی ورکوټي هلک کړې دی ته وایي دا ښه غټ سړې په غصه کښې <breath> چوره چوره دی <no-speech> لکه ګاډۍ چې پرې اوښتې وي
[301.075]
<no-speech>
[303.305]
سبا در ځي در سره غم مه کوه پلار سره یې در لېږم پلار یې چوټي ده هغې ویل ځه هغه خوا ورځو <no-speech> بېګا ویل وایي هلته ناني مې وه وایم نور څوک وو وایي مچۍ هم وه پرون څه وو راغلې <no-speech> سوچ یې کوو کوو ما ورته نه ویل
[315.225]
څه ور ته مه وایه که نه هغې <breath> ته مې ویلې بای جان ته دی وایي چې وروسته شو وایي باجې راغلې وو وایي پبي مې هم وو او باجي هم وو نم باجي یادوي که نه او <hes> بډا هم وو
[326.645]
د خانده ما ویل <hes> څومره ور ته ټول یاد دي
[330.465]
<no-speech>
[334.475]
بس دونه پروا پرې نه کوي
[336.375]
<no-speech>
[337.785]
<no-speech>
[338.145]
<no-speech>
[339.135]
سمینه داسې ووهي وایي یو دم دا په ژړا شي وایي دا خو اوس ما له نه را ځي ما ویل والله وایم موږه څه وکړو نو <breath> نه یې یادوي نه ور له ور ځي نه یې زانګو ته کښیني نه یې هېڅ هم نه بس پروا پرې دونه نه کوي سمینه وایي <hes> د دې ما ته یو هم
[350.925]
څنګه زړه صبر کړم ما ویل بس دا د الله‌تعالی بس دغه دی نو <no-speech> کوي
[355.555]
<no-speech>
[356.395]
څنګه چې <hes> او که نه هني څنګه راهبې نه زړه صبر شو
[359.825]
<no-speech>
[361.595]
<hes> سمه یخني ده
[362.915]
<no-speech>
[365.155]
زه پاس بام باندې
[366.535]
<no-speech>
[370.625]
خاورې ختمه شوه کوم دی یخني خو شته <no-speech> ختمه شوه خو دا بادونه خو شته
[377.115]
<no-speech>
[379.175]
<no-speech>
[379.975]
<no-speech>
[381.315]
<no-speech>
[381.765]
<no-speech>
[382.995]
<no-speech>
[383.575]
<no-speech>
[384.935]
نو اوس کوم کوم دی ته یې ما ته ووایه <no-speech> او هغه شین او سور
[388.475]
<no-speech>
[389.815]
هو <hes>
[391.665]
<no-speech>
[392.675]
د چره یادوم که نه
[394.135]
<no-speech>
[398.305]
هو هو هغه دې بل
[399.755]
<no-speech>
[403.105]
ښه <hes>
[404.195]
<no-speech>
[406.395]
<no-speech>
[406.905]
<no-speech>
[407.765]
پنک کلر واچوه پنک کلر
[409.325]
<no-speech>
[413.565]
مړې بس هغه خپله در سره واچوه
[415.625]
<no-speech>
[417.225]
هغه خپله <no-speech> هو
[421.055]
<no-speech>
[422.655]
تا ته یې تاسو
[423.385]
<no-speech>
[426.255]
ښه ځه نو <breath> دیدي اوس دیدي هم بېزار نه شته نم باجې هم وشو زموږ هم هېڅ سم نه شته دی چې څه در وې لېږو
[432.785]
<no-speech>
[434.345]
<no-speech>
[434.745]
<no-speech>
[436.005]
ځه غم مه کوه ځه خدای به را باندې وخت را ولي ځه ماښام ټایم دی غم مه کوه دعا وکړه چې الله را باندې ورحمېږې
[441.935]
<no-speech>
[443.055]
ځای په ځای کوترې دي الوځي هغه وګوره دا وګوره دغه وګوره <hes>
[447.855]
<no-speech>
[449.105]
<no-speech>
[450.365]
<no-speech>
[451.335]
<no-speech> ښه نور
[453.995]
<no-speech>
[455.005]
هو
[455.625]
<no-speech>
[456.765]
د چا <foreign>
[457.875]
<no-speech>
[462.395]
هو په یو مخ خرڅولې دا دی په یوه مخه خرڅې شوې <laugh> <no-speech> عالیه مړې عالیه غریبه داسې <hes> څه پته ده بس کېدای شي موږ سبا کښې را شو بیا به ورځو بیا به پته لګېږي
[473.235]
چې څه څومره اوبه کښې ده
[475.015]
<no-speech>
[478.545]
ښه او <hes> هغه دغه دا <hes> مجمې دغه را وړې وې بشرا
[483.875]
<no-speech>
[485.675]
هو ښایسته دي <no-speech> هو سم ښکلي دي <no-speech> نه <no-speech> مجمې <no-speech> هو څلور غټې
[494.535]
<no-speech>
[498.665]
نه سم ښایسته دي دوی وویلې وایي سم ښکلي دي ټول سم ښایسته وو ټولو خوښ شو فراد خو دوی داسې ښایسته ګلاسونه را وړي دي دوولس ګلاسونه دي دوولسو سره پتنوسونه دي او بهای جان ملګري دي
[509.945]
بل هغه دغه <hes> واله نه یې هغه نټ واله هغه شیشه چې وي <no-speech> لندې هغه سیم سیم دار لګېدلې وي که نه
[517.084875]
<no-speech>
[518.945]
ودې‌کتل یاد دی شي هغه داسې دغه غوندې <breath> ور سره چاینک هم وي او ور سره پیالې هم وي هغه یې را وړي دي <hes> هو <no-speech> هو <no-speech> او <hes>
[528.805]
<no-speech>
[529.845]
نورو څلور جینکو خو چا څه نه دي او <hes> دغه ور ته نه دې سعیدې ور ته دوه غټ غټ ګلدانونه را وړي وو او عابده او ماریه خو نه دي راغلي نور خو څوک نه وو نو صرف تاسو وئ <no-speech> نور خو چا څه نه
[541.015]
او صرف د بهر نه دوه ګفټونه نور راغلي لکه همداسې <breath> ټي سټ دې یو په کښې <no-speech> او هغه روبینه روبینه موږه ورته نه کوو چې هغه ډېر مالدار دي هغوی ور کښې جګ ګلاسونه را وړي دي سم ښایسته دي
[552.255]
که نه غمي دی پرې <no-speech> ښایسته په هر څه باندې جګ باندې دوه درې غمي دي <breath> ښایسته <hes> پرنټنګ دی ښایسته دی ډېر ښکلې دی هغه شرابو شان ګلاسونه دي سم ښکلي دي <breath> او دلته زموږ محاصلین کښې یو بل کور کښې دی که نه د بابو دوستان دي هغوی همداسې جګ ګیلاسونه را وړي دي هغه <foreign> دي خو عام ګیلاسونه جګ ګیلاسونه نه وي <breath> هغه چې ګلونه پرې وي <no-speech> هغه یې را وړي <breath> نور چا څه نه دي را وړي بس نور چا (()) او سل او ګوهر
[576.075]
<hes> موږ له روټې یې کړې وه
[577.925]
<no-speech>
[579.735]
<no-speech> بس نور چا څه نه وو
[583.545]
<no-speech>
[584.815]
شکیل د په سلم پېنځه سوه روپۍ ور کړې دی همداسې پېنځه سوه روپۍ ور کړې
[589.635]
<no-speech>
[590.575]
هو بس دا وې نو <sta>
[595.615]
<no-speech>
[596.495]
خود <hes> سمه تا نه خود به هم خفه وي ته ورته لږ فون وکړه که نه
[600.085]
<no-speech>
[600.34]
