[0.0]
<no-speech>
[3.465]
السلام علیکم
[4.345]
<no-speech>
[6.745]
څنګه چل دې مولوي صاحب ښه یې
[7.985]
<no-speech>
[9.795]
صحت ښه دې خیر د
[11.535]
<no-speech>
[12.395]
ما ویل خبره به دغه باندې وکړو که نه کتاب <no-speech> کتاب باندې
[16.334875]
<no-speech>
[17.745]
او نو ما ویل چې هغه هدای څنګه <no-speech> صورت نه جوړه وه
[21.735]
<no-speech>
[25.755]
نو ما ویل ک- کت- کتاب به ما ویل <no-speech> کله شروع کړو څنګه به وي که نه
[30.275]
<no-speech>
[36.115]
<no-speech>
[36.765]
<no-speech>
[38.175]
نو خبره داسې ده چې د له که په دې باندې لږه خبره کول غواړي که نه یو لس منټه <no-speech> هغه نور طالبان څنګه <hes> <no-speech>
[45.755]
<no-speech>
[47.065]
<no-speech> نو ما تا ته وختي تېلېفون کړی وو که نه
[49.155]
<no-speech>
[50.765]
او که نه ما ویل چې یو لس منټه ګپ لګوو که نه
[53.025]
<no-speech>
[56.375]
او که نه موذن مفتې صاحب یمه که نه <no-speech> پو- پېژنې مې نه
[60.815]
<no-speech>
[63.215]
<no-speech> او که نه نو <no-speech> نه چې کتابونه له که طالبانو څنګه چل دی څنګه نه دی که نه
[68.375]
<no-speech>
[69.485]
<no-speech> او له که <no-speech> <hes> طالبان او د ملګري په را ځې نه به را ځي
[75.725]
<no-speech>
[76.685]
<no-speech>
[79.145]
<no-speech>
[80.545]
<no-speech>
[81.025]
<no-speech>
[81.975]
نو یو هغه بل دغه نه دی هغه قاري صاحب تا چې ویل څه نوم دی اخېستلو
[85.505]
<no-speech>
[86.665]
او او
[87.445]
<no-speech>
[89.275]
هغه به وي
[90.085]
<no-speech>
[91.045]
<no-speech>
[91.395]
<no-speech>
[93.085]
<no-speech>
[95.255]
<no-speech>
[96.275]
ښه نو د <hes> داسې چل دې <no-speech> <breath> له که دلته خو ما تا ته ویلې ول کچې هغه ځای کښې یم که نه حاضر وخت <no-speech> ښه نو هلته ما د دغه شروع کړې وه د نمبر خو تا ته د دغه درغلو که نه
[107.755]
<no-speech>
[108.605]
<no-speech> نو اوس اوس ما ویل چې یو لس منټه په دې باندې خبرې وکړو که نه <no-speech>
[113.795]
<no-speech>
[115.005]
<no-speech> نه که نه هغه دې د <no-speech> ما تا ته وه نه ویل چې یو ټاپک باندې خبره کړو <no-speech>
[121.895]
<no-speech>
[122.805]
<no-speech> او که نه <no-speech> نو خبره داسې د چې ما ویل دغه کتابونه په باره کښې ما ویل څنګه ووایم <no-speech>
[130.765]
<no-speech>
[132.135]
<no-speech> ښه
[133.475]
<no-speech>
[134.625]
او نو بس <hes> بیا به څنګه وکړو هغه <no-speech> خبره بیا <no-speech> کتابونه نحوه کتاب ور سره شروع کړو شروع نه کړو
[143.015]
<no-speech>
[144.915]
<no-speech>
[145.445]
<no-speech>
[146.295]
<no-speech>
[147.155]
<no-speech>
[150.835]
نه که نه نو ما تا نه مخکې در ته دغه وکړو که نه ما تا ته ونه ویل چې یو لس منټه به ما ته را کړې
[155.845]
<no-speech>
[158.005]
او که نه <laugh> ته دا اوس ظاهره یې کړه که نه دا <breath> نو چې ته اوس په دې ما ته خبره وکړې څنګه کتاب څنګه وکړو کوم کتاب شروع کړو په دې باندې مستقل ته ما ته خبره وکړه که نه یو شپ- پېنځه منټه شپږ منټه
[171.615]
<no-speech>
[172.895]
<no-speech>
[173.275]
<no-speech>
[174.785]
<no-speech>
[175.505]
<no-speech>
[177.235]
ښه
[177.985]
<no-speech>
[179.285]
<hes> نو بس ښه ځه نور خیر دی که نه
[183.505]
<no-speech>
[184.805]
ښه پیر صاحب اوس اوازونه کوي <no-speech>
[187.205]
<no-speech>
[188.445]
<no-speech>
[188.795]
<no-speech>
[189.735]
<no-speech>
[190.285]
<no-speech>
[193.655]
نه بس هغه به بل دغه وکړي که نه اوس ما له ښه ښه دا به اوس نه کېږي <no-speech> هو بس دلته دغه بل ځای نه (())
[203.425]
<hes> نو ما ویل چې یو دوه درې منټه خبره را له په دې وکړي که نه چې کوم کتاب شروع کړو کوم شروع نه کړو داسې یو دوه درې منټه را له پرې خبره وکړه که نه
[210.815]
<no-speech>
[211.685]
<no-speech>
[212.035]
<no-speech>
[215.825]
او
[216.535]
<no-speech>
[217.555]
او
[218.505]
<no-speech>
[225.855]
<no-speech> ښه <hes> <no-speech> ښه <no-speech> او <hes>
[230.375]
<no-speech>
[231.205]
<no-speech>
[231.795]
<no-speech>
[232.775]
<no-speech> ښه همدلته زمونږ دې زمونږ دې ځای کښې به یې بیا وکړو
[237.375]
<no-speech>
[238.535]
ښه ښه ښه صاحب ښه صاحب ښه صحیح ده <breath> او نور داسې دغه څنګه دی ذکی قاري صاحب څنګه دی
[244.145]
<no-speech>
[245.565]
<no-speech> او بل قاري صاحب څنګه دی هغه دغه <breath> <no-speech>
[249.935]
<no-speech>
[251.105]
<no-speech> ښه زمونږ دغه صدر صاحب که نه <hes> د
[254.245]
<no-speech>
[255.115]
نه او که نه شکیل وو قاري صاحب <no-speech> ښه لا نه دی راغلی <no-speech> ښه بس بېګا بیا مونږ ترې ووتلو بس مولوي صاحب او دوی مو سره پرېښودل
[266.905]
<no-speech>
[268.005]
<no-speech>
[268.405]
<no-speech>
[269.495]
نو څوک خو نه وو بس زه ترې بهر دغه شوم که نه دوی او پیر صاحب چې دي بس دننه بس دغه وو <cough> ویده شوم ترې ناوخته ویده وم <hes>
[277.765]
<no-speech>
[280.765]
ناوخته پورې څه ټایم زه وایم کېدلی شي سهر بس لمونځ ترېنه پاڅېدلی وي یا <no-speech>
[285.635]
<no-speech>
[287.055]
او که نه ته اوس چېرته یې <no-speech>
[288.905]
<no-speech>
[293.645]
ښه ښه نه بس ښه یې چې نه یې ورغلی پرېږده چې لږ قد- قدر دې ور سره معلوم شي که نه لږ
[299.025]
<no-speech>
[300.355]
او که نه دا خو چې دی بس که نه <breath> ټولې پیسې‌میسې چې دي هغې ته یې ور لېږي او <no-speech> او که نه <no-speech> اوس خو هغه اخلاص ختم شو که نه
[310.435]
<no-speech>
[311.735]
<no-speech>
[312.085]
<no-speech>
[313.225]
<no-speech> که نه
[314.305]
<no-speech>
[315.315]
او اوس هغه کتابونه وایي نو بس هغه وایي که نه چې زکات او خیرات په همدې کېږي که نه
[320.475]
<no-speech>
[328.275]
ښه ځایېږي خو
[329.585]
<no-speech>
[331.445]
<hes> نه ځه بس اوس چې هغه خوشحاله وي مونږ هم خوشحاله یو
[335.035]
<no-speech>
[336.265]
<hes> نور خیر دی مولوي صاحب <no-speech> <breath> دا بس دلته ملګري سره راغلی وم دلته <hes> صدر کښې یم <no-speech> ښه <hes> صدر کښې یم
[348.025]
<breath> ښه داسې یو دغه مو وو استاذ وو <no-speech> زمونږ ملګری وو حیات‌الله استاذ که نه هغوی سره راغلی یم دلته دېخوا وایي څه کار به وي ور ته <breath>
[359.275]
نه ځه بس یو چکر به ولګوو بس <no-speech> <hes> نو دېخوا مو چکر را ووهو <hes> دا دغه داسې دی که نه <breath> <hes> خبرې کېږي اوري
[369.985]
<no-speech>
[371.505]
او نو اذان دی
[372.795]
<no-speech>
[374.025]
<no-speech> ښه وایي یوه بجه شوه څه
[376.345]
<no-speech>
[377.895]
ښه والله ما هلته کلیم مدرسه کښې په تمه وو <no-speech> هغه کلیم له مې ټایم ور کړی وو ما ویل ډاکتر له به یې بوځم هغه زمونږ مخه را دېخوا شول هغې ویل بادشاه صاحب له ځو <no-speech> <hes> چې
[389.365]
<no-speech>
[390.405]
نه در ځم انشاءالله <no-speech>
[391.915]
<no-speech>
[393.115]
ښه اوس ځان در رسوم بس دلته هغه خبرې لږ ضرور وې که نه <no-speech> ښه نو بس دا چې دوی ویل چې یو موضوع باندې تاسو دغه وکړی
[402.385]
چې داسې یو ملګری وي او که نه چې داسې یو لس منټه دوولس منټه ور کولی شي که نه <no-speech> او نو ځکه مې ته دغه کړی یې بس
[411.775]
ما ویل زه به بل څوک <hes> استاذ د لېسې داسې څوک وو هم نه چې هغې ته مې دغه کړی وئ <no-speech>
[417.015]
<no-speech>
[419.005]
نه <hes> <breath> او خیر دی انشاءالله بس هلته هلته هم خیر دی جومات کښې <no-speech> نوې او زړه خو نه شته دا دغه دی دا پروګرام وو زمونږ جومات کښې روټۍ‌موټۍ مو ور کړل
[430.235]
<no-speech>
[431.045]
<hes> هغه د واده دغه یې وو که نه چای‌مای مو ور کولې <breath> چا بس خپل لوښې‌موښې غونډ کړي وي نه یې وي غونډ کړي
[440.315]
<no-speech>
[441.915]
ښه ښه نو اوس <no-speech> نوې او زړه خو نه شته که نه
[445.355]
<no-speech>
[446.945]
<breath> ښه بس <hes> <breath> صحیح ده مولوي صاحب بس انشاءالله زه کوښښ کوم که نه <no-speech> ګورم لږ کلیم ته هلته مدرسې له حاضري کوم چې خفه نه وي هسې چې زړه کښې یې څه را نه شي
[458.615]
<no-speech> او <no-speech> نو دلته اوس <no-speech> پیر صاحب خو در ته اوازونه کړو تا ته <no-speech>
[465.625]
<no-speech>
[467.135]
<no-speech>
[467.485]
<no-speech>
[468.785]
ښه یو منټ نور نیم هم ما ته را کړه بس تنګېږه مه <breath>
[472.935]
<no-speech>
[473.765]
<laugh> <breath> صحیح <breath> صحیح ځه بس بیا به انشاءالله سبا نه بله ورځ به بیا دغه شروع کړو که نه
[481.545]
<no-speech>
[482.735]
<no-speech>
[483.745]
<no-speech>
[484.585]
<no-speech> هدایه شریفه که نه
[487.325]
<no-speech>
[490.615]
<hes> <no-speech> <breath> او بس بره چت کښې به ناست یو بس خپل سبق به وایو
[496.145]
<no-speech>
[499.195]
ښه <laugh> <breath> <hes> نور بس داسې <no-speech> څه ووایم نو
[505.755]
<no-speech>
[509.075]
<no-speech>
[509.815]
<no-speech>
[513.865]
ښه نو ته څه ووایه چې زه یې هم واورم که نه ما خو در له ډېرې غټې کیسې وکړې <no-speech>
[517.485]
<no-speech>
[518.705]
<breath> <no-speech> څنګه یې
[520.045]
<no-speech>
[521.975]
نه نه دلته یمه <no-speech>
[524.135]
<no-speech>
[525.505]
او د شپې دلته وم بیا <hes>
[527.945]
<no-speech>
[532.025]
څنګه ولې <no-speech>
[533.365]
<no-speech>
[537.855]
نه که نه بس ورته وایه کور نه وو یا دغه نه وو داسې ور ته ونه ووایه <no-speech> هو دلته وو ما ته دوی اشاره را کړه که نه
[547.245]
<no-speech>
[548.575]
<hes> اوس کېدلی شي <no-speech> دلته دا یا خپله بند شي یا څه وایي ما ته که بیا بند هم شو که نه
[555.045]
<no-speech>
[556.285]
او نو بس دا بیا دوی د طرف نه بندېږي
[558.845]
<no-speech>
[560.405]
او <hes> څه پیر صاحب څه وایي نه اواز خو نه کوي
[563.475]
<no-speech>
[564.375]
<no-speech>
[564.735]
<no-speech>
[566.145]
زه چې اواز یې نه دی در کړی چې اواز یې در ته وکړو بس ور ته وایه خاص دغه وو نو بس
[570.435]
<no-speech>
[572.045]
یاره ضروري میټنګ وو که نه <no-speech>
[573.925]
<no-speech>
[575.775]
داسې به ور ته ووایې که نه <no-speech> هو <hes> هغه دغه څنګه دغه دې مولوي صاحب خو اوس ښه شوی دی که نه
[582.145]
<no-speech>
[583.175]
<no-speech> پرون ور ته په سر
[585.105]
<no-speech>
[587.935]
ښه دي والله نو بس هغوی ښه دي <no-speech> <breath> هغه قاري صاحب خو هغه بله ورځ بس <hes> <no-speech> کور کښې څه خبرې راغلې تا ته مې لکه چې نه وې ویلي
[595.995]
<no-speech>
[600.04]
