[0.0]
<no-speech>
[1.075]
<no-speech>
[2.095]
<no-speech>
[3.195]
السلام علیکم
[4.035]
<no-speech>
[7.195]
<no-speech> څنګه چل دی څنګه یې تاسو
[10.795]
<no-speech>
[12.495]
ولې دې موبایل بند وو
[13.885]
<no-speech>
[15.595]
ولې نه
[16.735]
<no-speech>
[17.575]
<no-speech> څنګه <no-speech> ما سره <no-speech> هو
[23.475]
<no-speech>
[24.475]
ولې دې را نه ووهلو موبایل کښې پیسې
[26.735]
<no-speech>
[32.365]
څنګه
[33.935]
<no-speech>
[37.255]
هو شته را سره
[38.855]
<no-speech>
[44.285]
څو روپۍ دي در سره
[45.795]
<no-speech>
[48.755]
څومره در سره شته
[50.225]
<no-speech>
[54.405]
ښه نو
[54.995]
<no-speech>
[55.865]
یو پېنځه سوه خو نن ما خرڅه کړي
[58.005]
<no-speech>
[60.565]
یو پېنځه سوه روپۍ خو وایم نن ما خرڅه کړي
[63.055]
<no-speech>
[66.135]
خور بي_بي راغلې وه دلته بیا مې یو چرګ مې یو را وغوښتلو درې سوه روپۍ یې چرګ را وړی وو سل روپیو مې سلاد را وړه مستې مې را وړې
[74.135]
<no-speech>
[77.265]
بس خور بي_بي ده او بچي یې دي
[80.985]
<no-speech>
[84.425]
هو دلته دي که نه
[85.755]
<no-speech>
[89.215]
هو ښه دي شکر ماښام کښې مو اوس مکروني او لوبیا پوخ کړي دي بس دوه شیان مو ورته را وړه
[94.745]
<no-speech>
[98.705]
<no-speech>
[100.315]
<no-speech>
[102.605]
(())
[103.025]
<no-speech>
[104.405]
نه شته را سره اوس هم را سره شته دی یو اتلس سوه روپۍ
[107.785]
<no-speech>
[110.045]
هغه مل- هغه ملګری دې راغی
[112.245]
<no-speech>
[116.685]
ښه صحیح ده
[117.705]
<no-speech>
[121.365]
ښه ځه صحیح ده ښه خپله ښه یې بیمار شوی خو نه یې صحیح ده
[126.195]
<no-speech>
[129.085]
څنګه
[129.905]
<no-speech>
[135.235]
<no-speech>
[135.595]
<no-speech>
[136.395]
پوه نه شوم
[137.175]
<no-speech>
[143.015]
ښه صحیح ده
[144.215]
<no-speech>
[145.135]
<laugh> ښه صحیح ده صحیح ده <breath> ما ته خو اوس داسې غصه راغله زنګ مې در ته وختي هم ووهلو هغه دفتر نمبر نه میلاو کړلو هغه تا ته چې مې زنګ ووهلو وایي نمبر یې بند ده
[156.545]
<no-speech>
[158.515]
بېګاه مې در ته ناوخته پورې <breath> مسکال مې در کړو سیم دې نه وو بدل بس بیا زه ویده شوم نن چې را جګه شوم مری مې داسې خوږېده نو هغه لیلا او خور بي_بي را ته وایي دا دې وایي جبۍ دې غورځېدلې وایي هغه سره غوښه وي مری کښې
[170.485]
که نه وایي هغه سمه لاندې راغلې ده وایي په ژبه باندې یې ځان ته جګه کړه ما ویل وای دا به مې بېګاه غورځېدلي وي چې ده سیم بدل نه کړو زه همداسې ویده شوم <laugh> خندل یې
[181.195]
ما ویل دا به مې بېګاه ده پسې غورځېدلي وي چې ما ده سره خبرې ونه کړې همداسې ویده شوم
[185.085]
<no-speech>
[190.935]
څنګه
[191.705]
<no-speech>
[194.665]
بچی مې ښه دی والله بس نن لږ غلی غلی کېدلو پی یې هم نه خوړلې نو خو سیریلاک مې ورته جوړ کړه هغه یې وخوړه داسې ورو وروجنګېږي لکه وېرېدلی چې وي هسې والله که پوهېږم
[206.225]
دې کور کښې هم
[207.315]
<no-speech>
[209.355]
څنګه
[209.985]
<no-speech>
[214.465]
ښه صحیح ده
[215.495]
<no-speech>
[218.385]
څنګه
[220.055]
<no-speech>
[225.455]
ښه
[226.205]
<no-speech>
[227.485]
ښه
[228.055]
<no-speech>
[230.505]
هو هو
[231.505]
<no-speech>
[233.465]
پاو کم رو- اووه هم روا دي پاو کم اووه پورې هم کېږي
[237.655]
<no-speech>
[240.805]
وعلیکم السلام والله دې کور کښې هم عجیبه خبرې خلک کوي
[246.505]
<no-speech>
[252.635]
ښه
[253.265]
<no-speech>
[255.185]
<no-speech>
[255.665]
<no-speech>
[257.595]
<no-speech>
[258.315]
<no-speech>
[264.895]
<laugh> نذیر یاره خفه کېږه مه خوشحالېږه خیر دی
[269.215]
<no-speech>
[270.035]
په خفګان دې خفه کېږو
[271.625]
<no-speech>
[281.005]
نه نه خفه کېږم ما ته دې څه ویلي دي چې زه خفه شم
[284.055]
<no-speech>
[286.675]
ما ته خو دې څه نه دي ویلي چې یاره زه دې یو خبره همداسې ذهن کښې نه ساتم هر وخت مې ستا مینه یادېږي
[291.645]
<no-speech>
[293.965]
اوس یې ذهن کښې (())
[295.475]
<no-speech>
[298.625]
(())
[299.415]
<no-speech>
[301.665]
زه خپلې کوټې مخې ته ګرځم کوټه کښې ساجده ده او مرسل ده زه دلته یم کوټې مخې ته ګرځم
[310.015]
<no-speech>
[313.155]
هو هغوی خور بي_بي سره ناستې دي زه دباندې را ووتلم
[315.885]
<no-speech>
[317.985]
<no-speech> خپله ډوډۍ دې خوړلې ده
[321.625]
<no-speech>
[324.805]
<laugh> ښه ځه صحیح ده ځه صحیح ده
[329.145]
<no-speech>
[331.435]
صحیح هغه زوی یې داسې مریض دی بېچاره
[333.785]
<no-speech>
[339.175]
هو اوس فیضان ته یې زنګ وهلی وو وایه ته را پسې را شه وایه دا کور ته بیا یو وار دا بوځې بیا به زه بېرته دلته را شم (()) کېدای شي پسې را شي
[348.575]
<no-speech>
[353.875]
څنګه
[354.595]
<no-speech>
[359.355]
نه ماشومان هسپتال (()) وایي مخکې مې د اسما لور چې مې وایي وه هغه مې بوتلله وایي هغه هم سم دوایي ورته نه لیکله وایي سم مخکې پړسولې وه وایي بیا هسپتال مې بدې را ځي
[370.715]
<no-speech>
[372.035]
نو وایي سم بل ډاکتر ته بو-
[373.435]
<no-speech>
[377.085]
هو هغه ښه ډاکتر دی
[378.605]
<no-speech>
[379.765]
ښه خپله دې څنګه
[380.995]
<no-speech>
[384.335]
خپله دې څنګه یې
[385.545]
<no-speech>
[389.055]
ما ویل خپله څنګه یې
[390.525]
<no-speech>
[393.935]
څومره ښه یې
[394.825]
<no-speech>
[397.315]
<laugh> ښه وایم څومره ښه یې
[399.275]
<no-speech>
[404.095]
ولې
[404.815]
<no-speech>
[412.625]
ته څه شي ته
[413.995]
<no-speech>
[415.365]
<no-speech>
[416.935]
<no-speech>
[421.025]
<no-speech>
[421.415]
<no-speech>
[422.485]
ښه ښه ستاسو پته نه لګېږي چې کله را ځئ
[425.885]
<no-speech>
[432.385]
ښه صحیح ده پرون دې پرون ساجده پوښتنه کوله وایي دا به کله را ځي ما ته ویل اتوار په شپه بیا یې ویل را ته ته خو اوس ور پسې هېڅ نه خفه کېږي وایي زه نه خفه کېږم وایي ته ولې خفه کېږې وایي ستا خو
[443.855]
ګوره ژر ژر را ځي
[445.265]
<no-speech>
[446.175]
ما ویلې ساجده ویلې وایي بې‌غیرتې وایي ته پرې څنګه خفه کېږې
[449.225]
<no-speech>
[450.645]
اواز مې نه در ځي
[451.785]
<no-speech>
[455.165]
ما ویل ساجده ویلې چې ته بې‌غیرته یې ته ولې خفه کېږې ستا خو ژر ژر را ځي بیا هم ته خفه کېږې (()) وایي ته ولې خفه کېږې ته خو هسې کم (()) یې
[463.645]
<no-speech>
[464.945]
اواز مې نه در ځي
[466.085]
<no-speech>
[470.725]
ما ویل ساجده ویلې وایي ته کم (()) یې هسې چې هغه پسې خفه کېږې ولې ور پسې خفه کېږې هغه خو ژر ژر را ځي ما ته وګوره څومره ډېر وخت وشو چې نه دی راغلی چې زه نه ژاړم ته ولې ژاړې
[481.305]
<no-speech>
[482.715]
وایي کله را ځي ما ویل جمعې پورې به را شي وایي که جمعې پورې رانغللو نو کېدای شي بیا بلې دوشنبې سه شنبې ته را شي وایي <hes> تا خو ویلې چې شپېته ورځ پس را ځي وایي دا خو بیا ژر را ځي
[494.555]
<no-speech>
[506.535]
کېږي ما ویل پرېږده چې ژر ژر را شي په دې ډېره مسافرۍ خاندي (()) <laugh> ما ویل دغه مزه نه ورکوم چې دېره مسافري را نه وکړي
[516.855]
<no-speech>
[523.195]
<no-speech>
[529.535]
ښه نور ښه صحیح دی ګوزاره کوي
[532.365]
<no-speech>
[535.875]
<no-speech>
[536.475]
<no-speech>
[543.57]
<no-speech>
[550.665]
صحیح ده که نه
[551.635]
<no-speech>
[555.065]
ښه صحیح ده که نه کاش کښې یو ځای مونږ هغه یو ځل کتلی وای
[559.735]
<no-speech>
[567.545]
څنګه
[568.175]
<no-speech>
[576.085]
د ورځې خو نه وېرېږم خو وایم د شپې وېرېږم شپې خو به را سره وي که نه
[579.765]
<no-speech>
[583.175]
اوس را سره د شپې په دې کوټه کښې یواځې یم یو ورانې ورانې خبرې هم کوي ټول وایي پېریان دي په کښې او داسې دي داسې دي زه داسې وېرېږم ټوله شپه چې لږ څه شي شي نیمه ګېنټه مې زړه <laugh> زړه ځای ته نه را ځي زه داسې رپېږم
[595.115]
ټوله هسې نه خدای مه کړه د وېرې نه کله مړه یم
[598.625]
<no-speech>
[600.04]
