[0.0]
<no-speech>
[0.565]
<no-speech> هلو لورې څنګه یې جوړ یې <breath>
[3.915]
<no-speech> <no-speech>
[5.145]
<no-speech>
[5.555]
<no-speech>
[7.635]
<no-speech> ښه بچې ښه ېې جوړ ېې (()) مور دې څنګه <no-speech>
[11.135]
<no-speech>
[15.355]
<no-speech>
[16.885]
<no-speech>
[17.685]
<no-speech> لورې مونږ خو پېنځه کاله همدلته یو که نه (()) <laugh> <no-speech>
[23.615]
<no-speech>
[30.585]
(())
[42.275]
(())
[44.555]
<no-speech>
[53.118333]
<no-speech>
[61.681667]
<no-speech>
[70.245]
<no-speech> ښه
[71.155]
<no-speech>
[72.065]
(())
[75.385]
<no-speech>
[81.305]
<no-speech> چې شې
[82.105]
<no-speech>
[85.205]
سرخي در ته واخلم بس <no-speech> صحیح ده هغه شونډو تا باندې یې خلک وایې شونډو کښې سرخا وهې <hes> <breath>
[90.795]
<no-speech>
[95.415]
<no-speech> صحیح ده بس در ته یې را وړم مور دې څه شې غواړې هغې ته څه شې را وړم
[98.765]
<no-speech>
[105.495]
سفیده دې مور اوس نه استعمال وې ورته وایه بس دې که نه اوس خو زړه خزه ېې که اوس هو هغه شان ځوانه د <no-speech>
[111.785]
<no-speech>
[119.125]
<no-speech> ښخ خوشحاله ېې چې (()) مې خارج کښې د <hes> <no-speech>
[122.195]
<no-speech>
[128.215]
<no-speech> ښه ښه بازار ته خو نه وزې را وځې <no-speech>
[131.665]
<no-speech>
[142.69]
<no-speech>
[153.715]
<no-speech>
[154.065]
<no-speech>
[155.295]
<no-speech> هغه تره دې څنګه <hes> کاکا دې شپې کور تا را ځې که نه
[158.525]
<no-speech>
[167.405]
<no-speech>
[176.285]
<no-speech>
[176.675]
<no-speech>
[178.465]
<sta> <no-speech> ښه ښه نیا ورته څه مور ورته ادې ورته څه نه وایې <no-speech>
[182.895]
<no-speech>
[190.75]
<no-speech>
[198.605]
ودرېږه زه در شم زه به ېې تا په لاره کړم
[201.115]
<no-speech>
[202.885]
چې راغلو ماښام ته ورته وایې پلار <no-speech> چې ماښام ته راغلو ورته وایې ورته وایې ورته وایې آغا جان تر تا په قهر وه <no-speech>
[209.715]
<no-speech>
[213.315]
(())
[214.385]
<no-speech>
[220.195]
<no-speech> ښه (()) <no-speech>
[221.385]
<no-speech>
[222.495]
<no-speech>
[222.875]
<no-speech>
[224.835]
<no-speech> ښه
[225.495]
<no-speech>
[234.345]
<no-speech>
[243.195]
ولې (()) دغه <hes> دغه په وهي <no-speech> <breath> څه وایې ورته <no-speech> شرطونه په وهي
[248.695]
<no-speech>
[254.095]
(())
[255.195]
<no-speech>
[257.585]
<no-speech>
[258.135]
<no-speech>
[260.304875]
(()) مې واچوو لورې <breath> دغه دې ما ویل <hes> دغه ورته کاکا به دې ور سره (()) که نه د دواړه لوفران دې که نه
[267.035]
<no-speech>
[275.675]
<breath> ودرېږه زه به پېنځه کاله باد سفر (()) در ځم بیا به (()) له خیره
[280.805]
<no-speech>
[286.995]
<no-speech>
[293.185]
نه اوس را ځمه داسې روانه میاشت کښې را ځم د خیره <no-speech>
[296.975]
<no-speech>
[304.505]
<no-speech>
[305.805]
<no-speech>
[309.725]
<no-speech> ښه
[310.535]
<no-speech>
[312.465]
ښه ماته وایې <no-speech> نو یو ورځ دغه وه
[315.875]
<no-speech>
[316.775]
ورځ به مې چې (()) کړل <no-speech> (()) کښې درس ور کړو (()) هغه ته پوهې شوې
[323.105]
<no-speech>
[326.115]
بس یو ځل درس کښې (()) <no-speech> درس کښې ونښتم نو <no-speech> نو شاګردان را ته ټول په خندا شول بیا چې ټول په خندا شول نو <no-speech> ما ته دې وخت کښې ذهن
[336.875]
د شې راغلو نو زه غلې شوم په قهر شوم (())
[348.435]
ډېرې زیاتې خبرې مې ورته وکړې ډېر بیا مایوس شوم په (())
[359.995]
<no-speech>
[366.495]
(())
[367.655]
<no-speech>
[376.89]
<no-speech>
[386.125]
<no-speech>
[387.035]
<no-speech>
[388.095]
<laugh> <no-speech> عجیبه خاطره <laugh> <breath>
[393.805]
<no-speech>
[397.795]
<no-speech>
[406.035]
<no-speech>
[410.955]
(())
[413.205]
<no-speech>
[417.795]
<no-speech>
[418.145]
<no-speech>
[421.175]
وه دومره ډېر (()) زمونږ مخې ته چای پراته دې پلې پراته دې بادام پراته دې <breath>
[426.855]
<no-speech>
[429.935]
<no-speech>
[430.625]
<no-speech>
[434.015]
<no-speech> څنګه
[434.565]
<no-speech>
[437.345]
<no-speech> نظر محمد
[438.445]
<no-speech>
[440.305]
(()) په کښې خبر هم نه دې که نه نو <no-speech>
[443.285]
<no-speech>
[452.938333]
<no-speech>
[462.591667]
<no-speech>
[472.245]
ښه ښه بیا خو مو مزې دې نو <no-speech> خوشحالې د ځان ته ېې (()) کړې مونږ هسې په کښې نه یو
[480.675]
<no-speech>
[487.525]
دور کاکا واده کړې د حاجي ګل کاکا <no-speech>
[490.455]
<no-speech>
[496.045]
او (()) دلته چې څنګه دې ښه دې
[498.445]
<no-speech>
[505.535]
(())
[509.805]
<no-speech>
[512.675]
(())
[513.215]
<no-speech>
[515.085]
(()) ګلپاڼه <hes> او میمونه څنګه دې
[523.684875]
<no-speech>
[530.515]
(())
[532.665]
<no-speech>
[533.465]
(()) هغه هم نوکر شو <no-speech> نو (()) ور پسې کړې وه
[539.455]
<no-speech>
[544.695]
(()) دلته خو ښه خوشحاله <no-speech> (()) که نه
[550.475]
<no-speech>
[552.125]
مونږ تا ېې دلته (())
[553.665]
<no-speech>
[557.035]
(())
[558.295]
<no-speech>
[559.555]
<no-speech> هغه د چایبر والا ولې
[560.975]
<no-speech>
[562.105]
(())
[565.555]
<no-speech>
[567.265]
<no-speech> څنګه یې ولي <no-speech> او ولي سایکل ماما بوځو را سره
[570.075]
<no-speech>
[581.965]
ښه ښه <breath> نو هغه اوس چې د هغه (()) هغوی باندې وکړل که حاجي ډانس حاجي ډانس ښه فلم دی <no-speech>
[590.985]
<no-speech>
[600.3]
