[0.0]
<no-speech>
[0.975]
<no-speech>
[2.005]
<no-speech>
[3.085]
هو خانزاده ستړی مه شې
[5.615]
<no-speech>
[7.435]
جوړ یې په خیر یې خېریت دی ښه یاستۍ پښتو ده ګوره
[10.765]
<no-speech>
[12.285]
په خیر راغلې
[14.795]
<no-speech>
[16.054875]
ډېر کړو خان سړی یې ته والله <no-speech> مجاهده هغه څه وایي <no-speech> وایي
[23.195]
<no-speech>
[24.335]
ښه دی <hes> مجاهد مجاهد وایي ډېر نا ځوانه سړی یې وایي پټ را ځي او پټ ځې
[28.615]
<no-speech>
[32.454875]
دېخوا نه خو په عذاب نه وې خو دېخوا نه به مخکې راغلې وې یو دوه شپې به موږ سره به دی چکر وهلې وو
[37.185]
<no-speech>
[44.745]
ښه پرې ور واوښتې
[46.475]
<no-speech>
[48.075]
ښه
[48.825]
<no-speech>
[51.265]
ښه
[51.955]
<no-speech>
[52.825]
هو <no-speech> ښه
[57.165]
<no-speech>
[59.915]
<no-speech>
[62.965]
<no-speech>
[63.785]
نور ژر
[64.575]
نور خېریت
[65.445]
<no-speech>
[66.835]
<no-speech>
[67.745]
<no-speech>
[69.905]
<no-speech>
[71.595]
<no-speech>
[71.975]
<no-speech>
[73.715]
نه څه په عذابېدو اوس څنګه یې <cough>
[79.515]
<no-speech>
[81.475]
<no-speech>
[82.355]
<no-speech>
[84.295]
<no-speech>
[85.295]
<no-speech>
[89.175]
لږ استراحت وکړه ګرد‌مرد نه یې وساته پرهېز وکړه مرچ مرچ دا شیان مه خوره
[94.415]
<no-speech>
[97.765]
<no-speech>
[98.515]
<no-speech>
[100.665]
هو ترشي یخ شې دغه
[103.315]
<no-speech>
[105.155]
<hes> هو عملیات دی <cough> عملیات <cough> په تکلیف خو نه شوې
[112.265]
<no-speech>
[115.495]
<no-speech>
[116.285]
<no-speech>
[119.105]
<no-speech>
[126.165]
<no-speech>
[126.985]
ښه
[127.965]
<no-speech>
[131.255]
<no-speech>
[132.245]
<no-speech>
[133.715]
اووه اوه خیر دا خو ته خو یې غورځولی یې نو <sta>
[136.775]
<no-speech>
[137.615]
<no-speech>
[138.045]
<no-speech>
[139.395]
<no-speech>
[140.835]
<no-speech>
[143.815]
<no-speech> ځه خدای دی اجر در کړي
[146.705]
<no-speech>
[147.995]
ځه خدای دې صحت در کړي خدای دې اجر در کړي <no-speech>
[151.615]
<no-speech>
[154.615]
دلته دی محمد همدلته دی نجات هم را سره موټر کښې دی محمد هم ناست دی السلامونه وایي مولوي صاحب خو هماغه وظیفې ته ځي او را ځي <no-speech> ډېر بد پرهېزي ونه کړې دی وخت کښې خوار زاده <hes>
[164.505]
<no-speech>
[167.435]
<laugh> <cough> راغلو ښار ته راغلو دوکان ته راغلو
[176.775]
<no-speech>
[177.585]
هو <no-speech> نو هغه معلم شوی دی هو هلته یو مکتب کښې
[182.435]
<no-speech>
[186.585]
<no-speech> اته نیمې بجې ځي دوولس بجې بیرته را ځي کور ته هم هلته نږدې دی <hes> دغلته مکتب دی هغه د فردوس دوی شاړه نه ده
[195.125]
<no-speech>
[196.975]
<no-speech> هو هغه ځای کښې یم
[199.145]
<no-speech>
[201.595]
پېښور ته نو دوه درې هفتې وروسته چې کله دی زړه وه هماغسې ځو
[204.815]
<no-speech>
[210.745]
محمد په وظیفه کښې دی
[212.635]
<no-speech>
[215.815]
<no-speech> هو هماغه موسسه کښې کار کوي موسسې له خوا نه جلل‌آباد ته یې را لېږلې دی کېدای شي یو میاشت دلته کښې پاتې شي
[221.715]
<no-speech>
[226.775]
شکر دی خاله دی مې ښه وو
[229.595]
<no-speech>
[233.245]
والله نه ده ښه پرون بیا وایي سوزاک وو هغه بېچاره هم سپین ګیرې یو پنډ دوا ور کړې ور وه <no-speech> اوری <cough> په دواګانو کښې
[245.035]
پوښ دی بېخي
[246.585]
<no-speech>
[248.285]
<no-speech>
[248.675]
<no-speech>
[251.615]
<no-speech> نه څلور ور ځي د خوځېدلو نه دی <no-speech> ما ویل د خوځېدلو نه دی
[258.885]
<no-speech>
[261.025]
<no-speech> والله بیرون تشناب ته چې وځي په تکلیف وځي
[265.565]
<no-speech>
[269.745]
<no-speech>
[270.095]
<no-speech>
[271.855]
هو <hes> هماغه دوا خوري خوري خوري سپین ګیرې دی که عملیات وکړي والله که عملیات نه هم وځي
[276.485]
<no-speech>
[278.435]
اوری
[279.135]
<no-speech>
[281.475]
اسد دوی پېښور کښې وو ښه وو سره
[283.425]
<no-speech>
[287.645]
نوراغا حاجي لالا
[288.945]
<no-speech>
[296.805]
هو یو دوه درې شپې خو تا کړې وو
[298.735]
<no-speech>
[300.175]
ښه <no-speech> ما ویل یو دوه درې شپې خو به دی کړی وو چکر خو به دی وهلې وو
[303.595]
<no-speech>
[309.415]
<no-speech>
[309.775]
<no-speech>
[311.705]
ښه هوا څنګه ده
[313.205]
<no-speech>
[319.635]
ښه ښه پسرلی ده وو هو اوړی او ژمی یو ځل <hes> پسرلی په کښې لکه چې وخوړل شو منځ کښې یو دم اوړی شو
[325.965]
<no-speech>
[329.505]
<cough> نورآغا دوی ښه دي
[331.065]
<no-speech>
[333.505]
ماشومان یې حاجي لالا که وایې دا دوکانداري غم دی د دی نه خلاص شو لږ <no-speech> دا څو ور ځي نور هم هغه ده سیزن ده وایي
[341.695]
<no-speech>
[342.845]
<no-speech> د بوټو سیزن ده
[344.815]
<no-speech>
[347.195]
ښه خیر اوسېږي قند مو ښه دی
[349.165]
<no-speech>
[351.795]
<no-speech>
[352.265]
<no-speech>
[353.255]
کابل کښې دی ښه دا یخ <cough> ټول یې غورځولې داسې یخ نه دی
[357.155]
<no-speech>
[359.055]
<cough> بېګا می یو نسخه دوا واخېسته والله
[362.785]
<no-speech>
[366.575]
ګولۍ ګانې را کړي هشت هزار ملي ګرامه نه دي قوي ګولۍ دي والله
[370.295]
<no-speech>
[371.735]
<no-speech>
[372.145]
<no-speech>
[374.005]
<no-speech> چېرته روانه یې په مور دې غین کېږدم <no-speech>
[379.745]
<no-speech>
[382.035]
هو (()) کړه هو <int>
[384.225]
<no-speech>
[389.135]
هو نه ته خو <hes> بې‌اودس نه یې بااودس سړی یې که نه
[392.665]
<no-speech>
[394.815]
که نه <cough> هو والله ښه ده بېخي جوړ یم
[400.905]
<no-speech>
[405.995]
چې لس دقیقې دی نه وي پوره شوي نې- نه شې تلای کمپیوټر در ته بیا ځواب در کوي وایي ځه چې وخت دی پوره شو
[410.765]
<no-speech>
[413.235]
هو ما ویل کمپیوټر
[414.795]
<no-speech>
[416.185]
مولوي صاحب نشته
[417.765]
<no-speech>
[418.875]
مولوي صاحب خو تلې دی <no-speech> نه حق نه لري بل څوک دی در سره خبرې وکړي دا ځه در سره فیکس لس دقیقې خبرې وکړمه پروګرام دی
[426.045]
<no-speech>
[428.285]
ځه بیا بیا مجاهد به در ته زنګ ووهي <cough> یو سېستم دی ښه
[435.165]
<no-speech>
[436.915]
دا یو سېستم دی چې <hes> هر یو کس کولی شي چې یو کس سره لس لس دقیقې خبرې وکړي
[441.585]
<no-speech>
[444.655]
هو هو
[445.695]
<no-speech>
[447.445]
هو هو کمپیوټر مصارف نه لري بس فقط دی کمپیوټر رخ کړي بس خبرې در سره هغه کوي
[452.935]
<no-speech>
[454.705]
<no-speech> هو دا ښه یو سېستم دی د یو شرکت د خوا نه دی
[462.785]
<no-speech>
[466.185]
<no-speech> نه نه نه <no-speech> هېڅ مصارف نه لري فقط <hes> نمبر ورته ورکوي چې دغه نمبر سره زه غواړمه لږ خبرې وکړمه لږ قصې ور سره وکړمه هغه بیا تا ته زنګ در وهي
[477.635]
کمپیوټر در ته وایي چې غواړی چې دی سره خبرې وکړې ته وایي هو هغه یو به (()) که غواړې چې خبرې وکړې بس په خپله روغ کېږي بیا کیسې وکړه او که نه غواړی بیا هېڅ مه (()) (())
[489.075]
<no-speech>
[494.165]
هو <cough> حاجي مامور صاحب دوی چېرته دي
[505.405]
<no-speech>
[507.345]
<no-speech>
[509.815]
هو
[510.435]
<no-speech>
[512.024875]
<no-speech>
[513.535]
<no-speech>
[516.185]
هو (()) زنګ وهلو ما سره
[518.905]
<no-speech>
[522.425]
<no-speech>
[522.785]
<no-speech>
[526.835]
<no-speech> ما ویل حاجي محمود دوی څنګه دي میدان کښې چې دي
[533.425]
<no-speech>
[538.655]
ښه <no-speech> ښه
[540.815]
<no-speech>
[544.845]
<no-speech>
[545.485]
<no-speech>
[551.345]
<no-speech>
[552.635]
<no-speech>
[560.735]
را و- را ووتلې دا ښه دی چې ماشومان در سره وو <no-speech>
[566.785]
<no-speech>
[569.555]
<no-speech>
[571.795]
<no-speech>
[575.115]
<no-speech> وایم ښه ده چې ماشومان در سره وو
[577.905]
<no-speech>
[580.215]
که ماشومان در سره نه وای زه دې پلې کولم <cough>
[590.835]
<no-speech> کارونه څنګه دي د شرکت
[596.005]
<no-speech>
[600.02]
