[0.0]
<no-speech>
[3.145]
هلو
[3.745]
<no-speech>
[7.345]
هلو
[7.945]
<no-speech>
[9.765]
هلو رام داسې وعلیکم السلام ورېندار
[12.495]
<no-speech>
[14.915]
هلو ورېندار
[15.775]
<no-speech>
[17.285]
زه چاچي ورېندار ته ورکړه
[19.215]
<no-speech>
[22.055]
هلو ورېندار څنګه یې
[23.365]
<no-speech>
[24.445]
ورېندار څنګه یې
[25.565]
<no-speech>
[27.385]
ښه یم شکر تاسو څنګه یئ
[28.805]
<no-speech>
[33.305]
ښه دي شکر ماشومان دې څنګه دي
[36.325]
<no-speech>
[41.255]
خدای دې وبخښه <laugh> ستاسو دې مبارک شي <laugh>
[45.365]
<no-speech>
[46.465]
څنګه وو
[47.525]
<no-speech>
[50.415]
<laugh> څنګه یې <laugh>
[53.255]
<no-speech>
[58.615]
(())
[59.085]
<no-speech>
[59.915]
ښه دي ټول ښه دي حلیمه څنګه ده امینه
[62.265]
<no-speech>
[68.935]
ښه دی هغه هم ښه دی
[70.295]
<no-speech>
[74.645]
هغه هم ښه دی خالد څنګه دی
[76.595]
<no-speech>
[83.135]
ښه
[83.685]
<no-speech>
[85.835]
هو هو ځان سره یې راوستلې سهار یې بیا ور کړې
[88.205]
<no-speech>
[89.325]
هلو
[89.965]
<no-speech>
[90.905]
یخني سره څنګه یې یخني سره
[93.255]
<no-speech>
[99.565]
ښه دلته را شئ که نه
[101.445]
<no-speech>
[103.445]
<hes> یخني به په ارام تېره کړئ
[105.275]
<no-speech>
[111.855]
هو نه نه هسې نه هم تیاره ډوډۍ او تیار دغه را ځي بس زاهد یا عزت‌الله سره خورو (())
[118.575]
<no-speech>
[126.075]
<no-speech>
[126.475]
<no-speech>
[129.885]
<laugh> او نن خو یو ژمی یواځې تیر کړی هم دی کمال سره یې چې تیر کړی وو
[134.335]
<no-speech>
[136.245]
<int> وایم کمال سره یې هم یواځې یو ژمی تیر کړی وو که نه
[139.875]
<no-speech>
[142.425]
هغه وخت کښې یې څه کول
[143.605]
<no-speech>
[145.265]
هغه
[146.875]
<no-speech>
[150.085]
بند <no-speech> ښه
[152.725]
<no-speech>
[154.715]
ښه وایم څنګه چل دی هو اوس صحیح شو اواز
[158.345]
<no-speech>
[163.475]
هو
[164.155]
<no-speech>
[164.985]
هغه اوس بهر وو ته
[166.255]
<no-speech>
[167.555]
بهر وو ته اوس اوس بهر وو ته
[169.845]
<no-speech>
[172.525]
سهار
[173.195]
<no-speech>
[175.455]
زه زه
[176.445]
<no-speech>
[179.425]
وعلیکم السلام هغه هم در باندې السلامونه وایي
[181.715]
<no-speech>
[185.195]
هو ولې نه را ځي را کره هغه هم
[187.665]
<no-speech>
[188.705]
هو را ځي
[189.775]
<no-speech>
[191.315]
وعلیکم السلام
[192.465]
<no-speech>
[198.325]
هغه هم ښه دی هو هغه بل ورځ مې مور راغلې وه دلته
[201.055]
<no-speech>
[202.115]
نه دوه درې ورځې کېږ- دوه ورځې کېږي چې مور مې ولاړه
[205.415]
<no-speech>
[206.965]
هلک مبارکۍ ته راغلې هو هلک مبارکۍ ته راغلې وه دلته
[210.365]
<no-speech>
[213.675]
هو ښه
[214.695]
<no-speech>
[217.535]
ښه
[218.125]
<no-speech>
[220.095]
کوټې نه بهر یې ته
[221.335]
<no-speech>
[227.495]
<no-speech>
[233.655]
<no-speech>
[234.045]
<no-speech>
[238.215]
<no-speech>
[238.565]
<no-speech>
[239.46]
