[0.0]
<no-speech>
[1.555]
<no-speech> هلو
[3.755]
<no-speech>
[6.335]
وعلیکم السلام په خیر جوړ تکړه <no-speech> جوړ یې ښه یې طبعیت دې ښه دی څه احوال دی
[14.695]
<no-speech>
[17.165]
خدای فضل دی اواز دې ولې بند بند را ځي یار
[21.415]
<no-speech>
[23.275]
<no-speech>
[23.645]
<no-speech>
[24.945]
مریض خو نه یې
[26.285]
<no-speech>
[29.475]
ښه څنګه یې نور درسونه سره <no-speech> ملګري څنګه دي
[36.485]
<no-speech>
[39.845]
ښه نور څه احوال دی خیریتي ده
[43.185]
<no-speech>
[44.935]
والله بس بس مونږ هم پراته یو (()) دا خو نن چې خدای مهربان شوی په تاسو (()) څنګه یې نور
[53.245]
<no-speech>
[60.075]
ښه
[60.695]
<no-speech>
[64.415]
اوس
[64.855]
<no-speech>
[66.325]
اوس هلته دغه کښې یې
[67.485]
<no-speech>
[69.095]
ما ویل که حسین لالا سره یې
[71.235]
<no-speech>
[72.955]
<hes> اثریه کښې یې
[75.245]
<no-speech>
[76.865]
څنګه نن دا تېلېفون څنګه پرېښی در سره
[79.515]
<no-speech>
[82.725]
ښه رخصتي ده تېلېفون دا نمبر ستا خپل دی
[85.375]
<no-speech>
[90.265]
ښه عطاءالرحمن دی صحیح شوه ستا ورور
[92.435]
<no-speech>
[94.745]
صحیح ده صحیح ده څنګه یې نور ته
[96.455]
<no-speech>
[97.965]
تنګ شوی خو نه یې
[99.015]
<no-speech>
[102.265]
(()) کال (()) صنف کښې یې
[103.495]
<no-speech>
[107.715]
دویم کښې یې
[108.815]
<no-speech>
[109.905]
سالانه امتحان پاتې دی که نه
[111.455]
<no-speech>
[114.405]
<hes> صحیح شو مقصد کوشش کوه اورې
[117.555]
<no-speech>
[119.935]
څنګه یې نور ته
[121.185]
<no-speech>
[122.055]
کور ته کور خو دې نه یادېږي
[123.775]
<no-speech>
[124.705]
<no-speech>
[125.305]
<no-speech>
[129.725]
ښه
[130.335]
<no-speech>
[137.205]
ښه ورکړه خبرې کېږي
[139.305]
<no-speech>
[141.195]
خبرې کېږي دوه نفره
[142.495]
<no-speech>
[152.285]
څه شی
[152.925]
<no-speech>
[155.105]
<no-speech>
[155.725]
<no-speech>
[157.005]
نه ته خبره ته خپل شي وایه ته واخله بیا ما ته ووایه
[160.095]
<no-speech>
[165.195]
غږ کړه ورته ورته وایه څه څه ویل غواړې هر څه چې وایې ور ته ووایه
[169.035]
<no-speech>
[175.515]
<no-speech> پیسې به ولېږم ورته وایه پیسې څه مشکل دی
[180.495]
<no-speech>
[182.035]
<no-speech> ژر ورته وایه نور دې څه په کار دی <laugh>
[185.425]
<no-speech>
[186.585]
<no-speech>
[187.155]
<no-speech>
[194.385]
<no-speech>
[194.935]
<no-speech>
[196.995]
بس خیر دی درس ووایه درس که زړه دې نه وي نو بیا بل خبره ده ورته وایه
[200.975]
<no-speech>
[202.405]
اورې ورته وایه درس کښې کوشش کوه دا بیا دا وانه‌ورم چې والله درس نه وایي او الیاس داسې ګرځي او
[208.365]
<no-speech>
[209.225]
اورې
[209.935]
<no-speech>
[212.175]
پیسې څه قرض کړو اوس خو ورته پیسې خو مقصد درس وایه ورته ووایه
[215.555]
<no-speech>
[217.445]
کوشش وکړه دا اتم ورته وایه عطاءالرحمن ته هم ووایه ورته وایه دا بل کال له (()) کښې داخل کړي دغه هلک صحیح دی
[223.285]
<no-speech>
[226.035]
نو دغه بدبختي ده کور ناوخته راغی کور کښېناست وو که نه که بل کال بیا داخل نه شو بیا به زه وګورم ځه بیا څه کېږي
[232.815]
<no-speech>
[235.105]
صحیح دی
[235.795]
<no-speech>
[238.115]
څنګه درسونه څنګه دي څه مشکل خو نه لرې ته
[240.455]
<no-speech>
[242.275]
<no-speech> کم خرڅ
[244.235]
<no-speech>
[246.435]
<no-speech>
[247.055]
<no-speech>
[249.965]
وایم څه کم خرڅ خو نه یې
[251.595]
<no-speech>
[253.815]
والله صحیح خبره کوم
[255.275]
<no-speech>
[259.075]
ښه درسونه څنګه دي څه مشکل خو نه دي
[261.015]
<no-speech>
[264.685]
صحیح صحت الرحمان څنګه دی مریض خو نه وي
[266.795]
<no-speech>
[271.605]
ښه
[272.215]
<no-speech>
[274.495]
صحیح ته څنګه یې درسونه سره
[276.645]
<no-speech>
[279.115]
هوا څنګه ده
[280.075]
<no-speech>
[286.665]
زمونږ داسې یو پېنځوس سانتي متره واوره ورېدلې ده
[290.065]
<no-speech>
[290.895]
داسې یو متر یو متر ونیسه نو
[292.915]
<no-speech>
[296.965]
ښه
[297.595]
<no-speech>
[302.465]
صحیح صحیح صحیح
[303.805]
<no-speech>
[308.095]
پېښور یخني پرېږده مړه د دې ځای دا دا واوره ده داسې یو قسم واوره ده چې واوره ډېر ښایسته راغلې ده خو لږ هوا هم یخه شوې ده یار <breath> چې اسمان بس دغه وي بس بیا لږ هوا یخه وي او
[319.345]
اسمان چې شین هوا ډېر یخېږي بیا
[321.015]
<no-speech>
[323.195]
<no-speech>
[323.565]
<no-speech>
[324.755]
نه نه چې دا اسمان شین شپې او بیا سهار ډېر یخني وي
[328.455]
<no-speech>
[332.485]
څنګه نور او هغه وضعیت څنګه دی دا پولیسان‌مولیسان څه ډېر په عذابوي خو نه
[337.505]
<no-speech>
[345.535]
ښه
[346.495]
<no-speech>
[348.065]
یاره که دا عمر که دا عمر اثریې نه ولاړ شي زه به واپس اثریې کښې اول کښې داخله واخلم <laugh> هغه د وېرې نه نه را ځم
[357.405]
<no-speech>
[360.595]
سېټ څه کړي وو
[363.205]
<no-speech>
[374.935]
هو
[375.545]
<no-speech>
[383.865]
صحیح صحیح شو نور څه (()) څه احوال دی ستاسو طرف ته صنوبر لالا څنګه دی
[390.255]
<no-speech>
[392.435]
<no-speech>
[392.875]
<no-speech>
[394.075]
<no-speech>
[395.535]
<no-speech>
[396.825]
<no-speech> حسین برابر لالا
[399.455]
<no-speech>
[401.055]
هو
[402.235]
<no-speech>
[405.105]
صحیح شو صحیح شو څنګه نور ماشومان څنګه دي ذکي
[407.975]
<no-speech>
[416.625]
صحیح ده صحیح ده بلکل
[417.955]
<no-speech>
[418.945]
ذکي درس (()) صنف کښې دی
[421.205]
<no-speech>
[427.945]
ښه ښه صحیح شو
[429.245]
<no-speech>
[431.415]
ښه برکت‌الله څنګه دی برکت
[433.205]
<no-speech>
[438.715]
څنګه هغې هغې څه پیسې شته که نه <no-speech> که کم خرڅ وي بیا ته حسین لا حسین برابر لالا ته ووایه که کم خرڅ وي بیا ما ته ووایه که زه به ولېږم
[450.415]
پروا نه کوي هغه ماما همداسې لږ دغه اخوا دېخوا کارونو کښې بند دی هغه واده پروګرام کښې <no-speech> ښه څنګه ته نه کوې
[459.375]
<no-speech>
[461.065]
<no-speech> عطاءالرحمن خو وایې زه خو لا ماشوم یم وایي واده نه کوم وایي <laugh>
[468.295]
<no-speech>
[470.455]
<no-speech>
[471.015]
<no-speech>
[472.535]
<no-speech>
[472.965]
<no-speech>
[473.865]
ښه
[474.415]
<no-speech>
[475.885]
ځه ځه صحیح دی ډېر ښه ځه مړه خدای به خیر کړي پروا مه کوه چې مونږ ژوندي یو
[480.415]
<no-speech>
[486.105]
ځه خو مونږ تاسو دعاګانو مستحق خو مونږ یو مړه تاسو ستاسو دعا‌ګانې قبلېږي دغه تاسو یاستئ
[491.615]
<no-speech>
[496.885]
ښه ځه مقصد دعاګانو کښې مونږ مه هېروئ تاسو هغه نیکان یئ د چا خبره ستاسو دعا قبلېږي
[504.005]
<no-speech>
[505.135]
اورې
[508.305]
<no-speech>
[509.455]
صبغت‌الله څنګه دی صبغت او هغه بل هغه یونس دوی څنګه دي
[512.925]
<no-speech>
[516.225]
یونس څه درس وایي اوس
[517.584875]
<no-speech>
[522.144875]
<no-speech>
[522.725]
<no-speech>
[524.195]
څه درس وایي
[524.815]
<no-speech>
[526.765]
حفظ کښې مو لږ کوشش کوئ هېر نه شي در نه تکرار کوئ ښه
[529.975]
<no-speech>
[532.135]
څنګه هېر کړی دې دی که کوشش کوې
[534.725]
<no-speech>
[538.855]
او لږ مشکلات خو زیات وي هلته اثریه کښې دغه لږ دغه دی یو طرف نه درس وي که بعد له هغه دوه بجې بیا مکتب وایي مکتب کښې (()) کښې یې
[547.655]
<no-speech>
[549.215]
<no-speech> (()) کښې یې
[550.865]
<no-speech>
[555.875]
<no-speech> یو ځای یې مد- مدرسه سره یو ځای دغه شوی یې که نه
[559.305]
<no-speech>
[560.655]
ځه ځه ښه دی کوشش کوه مقصد ځان دغه مه کوئ ښه <no-speech> زمونږ هلکان نه وو صنف کښې یواځې یې
[566.935]
<no-speech>
[570.375]
<no-speech>
[571.495]
<no-speech>
[574.305]
ښه
[574.985]
<no-speech>
[580.515]
هاشم هغه <no-speech> هاشم هغه دغه <hes> عالم‌چنا <no-speech> هغه هم هلته دی <no-speech> صحیح شو صحیح شو ډېر ښه نور څه حساب دی
[592.345]
(())
[592.985]
<no-speech>
[593.965]
ما سره یحی دی هغه هم السلامونه کوي یحی خو پېژني که نه کوټه ګل نه
[597.205]
<no-speech>
[599.725]
<no-speech>
[599.935]
<no-speech>
[600.36]
