[0.0]
<no-speech>
[1.845]
هلو
[2.385]
<no-speech>
[9.385]
<no-speech>
[9.855]
<no-speech>
[11.365]
<no-speech>
[11.755]
<no-speech>
[14.265]
<no-speech>
[15.805]
<no-speech>
[17.025]
<no-speech>
[21.125]
<no-speech>
[22.135]
بیا ریکارډنګ پسې ولاړ شه
[23.805]
<no-speech>
[33.845]
ما ور سره څه بد کړي
[35.935]
<no-speech>
[41.305]
<breath> څنګه
[42.865]
<no-speech>
[45.295]
څه نه
[45.945]
<no-speech>
[53.38]
<no-speech>
[60.815]
<no-speech>
[61.605]
<no-speech>
[68.715]
<no-speech>
[69.395]
<no-speech>
[77.325]
<no-speech>
[77.895]
<no-speech>
[79.265]
<no-speech>
[79.855]
<no-speech>
[81.835]
<breath> څوک
[85.395]
<no-speech>
[89.955]
<no-speech>
[90.745]
<no-speech>
[92.415]
<no-speech>
[93.335]
<no-speech>
[95.365]
<no-speech>
[95.985]
<no-speech>
[97.155]
چې زه اوس څنګه شوم هماغه شان را له ثابت کړه
[100.355]
<no-speech>
[103.305]
<no-speech>
[103.805]
<no-speech>
[111.535]
<no-speech>
[112.215]
<no-speech>
[118.865]
<no-speech>
[119.265]
<no-speech>
[126.275]
پلار
[127.035]
<no-speech>
[129.475]
پرېښان هم دی
[130.545]
<no-speech>
[135.995]
(()) ما ته را ځي
[137.595]
<no-speech>
[149.298333]
<no-speech>
[161.001667]
<no-speech>
[172.705]
داسې اوس د ګاډي نه را کوز شوې
[174.265]
<no-speech>
[176.445]
وایم زه چې اوس د ګاډي نه را کوز شوم همداسې ورغلو
[178.975]
<no-speech>
[184.065]
چې اوس زه را کوز شوم هسې یې هم ولیدم
[187.435]
<no-speech>
[189.385]
(())
[190.395]
<no-speech>
[196.515]
ما ورته ویل هغه وایي چې (()) جوړ کړو
[200.305]
<no-speech>
[202.185]
<no-speech>
[202.775]
<no-speech>
[203.695]
<no-speech>
[204.185]
<no-speech>
[207.855]
نه مړه هسې یې ویل چې (()) نه را اخلې
[210.685]
<no-speech>
[215.775]
<no-speech>
[216.325]
<no-speech>
[221.635]
ولې
[222.295]
<no-speech>
[231.858333]
<no-speech>
[241.421667]
<no-speech>
[250.985]
ته نشه یې زه نه منې کوم
[252.475]
<no-speech>
[260.778333]
<no-speech>
[269.081667]
<no-speech>
[277.385]
نه ورته مې ویلي وو <breath>
[280.175]
<no-speech>
[287.35]
<no-speech>
[294.525]
<no-speech>
[297.085]
<no-speech>
[299.565]
<no-speech>
[300.245]
<no-speech>
[306.605]
<no-speech>
[312.965]
<no-speech>
[313.405]
<no-speech>
[316.135]
<no-speech>
[316.715]
<no-speech>
[318.665]
<no-speech>
[319.415]
<no-speech>
[320.935]
<no-speech>
[321.395]
<no-speech>
[322.215]
<no-speech>
[322.775]
<no-speech>
[325.125]
<no-speech> زه یې نه پېژنم
[329.145]
<no-speech>
[331.255]
<no-speech>
[331.765]
<no-speech>
[332.675]
<no-speech>
[333.235]
<no-speech>
[336.145]
<no-speech>
[336.495]
<no-speech>
[344.58]
<no-speech>
[352.665]
<no-speech>
[353.115]
<no-speech>
[360.805]
<no-speech>
[368.495]
<no-speech>
[369.045]
<no-speech>
[373.685]
<no-speech>
[374.305]
<no-speech>
[375.505]
<no-speech>
[375.935]
<no-speech>
[377.195]
<no-speech>
[378.395]
<no-speech>
[381.895]
<no-speech>
[382.805]
<no-speech>
[384.485]
<no-speech>
[388.725]
<no-speech>
[392.815]
<no-speech>
[393.885]
<no-speech>
[395.845]
<no-speech> تاسې <no-speech> پوه نه شولې
[405.595]
<no-speech>
[409.875]
(())
[413.055]
<no-speech>
[415.785]
<no-speech>
[416.235]
<no-speech>
[418.255]
وګوره <dtmf>
[420.625]
<no-speech>
[423.455]
<no-speech>
[423.965]
<no-speech>
[424.895]
<no-speech>
[426.835]
<no-speech>
[429.345]
<no-speech>
[431.035]
<no-speech>
[433.315]
<no-speech>
[433.715]
<no-speech>
[434.605]
<no-speech>
[435.545]
<no-speech>
[438.125]
هېڅ هم نه شته
[438.935]
<no-speech>
[444.465]
<no-speech>
[445.055]
<no-speech>
[446.285]
<no-speech>
[446.715]
<no-speech>
[448.035]
<no-speech>
[448.455]
<no-speech>
[449.295]
<no-speech>
[449.905]
<no-speech>
[452.705]
<no-speech>
[453.385]
<no-speech>
[457.585]
<no-speech>
[457.935]
<no-speech>
[458.835]
<no-speech>
[461.375]
<no-speech>
[463.885]
<no-speech>
[464.395]
<no-speech>
[466.895]
<no-speech>
[468.515]
<no-speech>
[469.365]
دا خو
[471.745]
<no-speech>
[477.175]
<no-speech>
[477.525]
<no-speech>
[480.425]
<no-speech>
[481.325]
<no-speech>
[487.845]
<no-speech>
[493.665]
<no-speech>
[494.555]
<no-speech> څه وایې
[495.695]
<no-speech>
[497.105]
مومي
[499.725]
<no-speech>
[501.185]
<no-speech>
[501.945]
<no-speech>
[504.565]
<no-speech>
[506.245]
<no-speech>
[512.965]
<no-speech>
[519.685]
<no-speech>
[520.465]
<no-speech>
[522.215]
<no-speech>
[526.735]
<no-speech>
[529.435]
<no-speech>
[530.285]
<no-speech>
[531.845]
<no-speech>
[533.545]
<no-speech>
[534.445]
<no-speech>
[539.895]
<no-speech>
[540.845]
<no-speech>
[541.635]
<no-speech>
[543.175]
<no-speech>
[546.515]
<no-speech>
[547.605]
(())
[552.985]
<no-speech>
[556.205]
<no-speech>
[558.985]
<no-speech>
[560.755]
<no-speech>
[565.385]
<no-speech>
[567.905]
<no-speech>
[568.365]
<no-speech>
[570.075]
<no-speech>
[571.765]
<no-speech>
[572.875]
<no-speech>
[579.155]
<no-speech>
[580.415]
<no-speech> هېلپ
[583.645]
<no-speech>
[585.145]
<no-speech> هېلپ
[587.885]
<no-speech>
[590.365]
(()) څه ته حاجت دی
[594.955]
<no-speech>
[596.595]
تا ته څه وایي چې زما څه ته حاجت دی
[600.025]
<no-speech>
[600.14]
