[0.0]
<no-speech>
[3.095]
هلو <cough> وعلیکم السلام
[8.335]
<no-speech>
[10.495]
الحمدلله ستاسو دعا دي
[12.955]
<no-speech>
[17.025]
نن <foreign> وو دا اېم فیل د پاره په اسلامیه کالج <foreign> کښې <lipsmack> نو <hes> هغې کسان زیات شوي وو نو هغې ویل چې مونږ
[28.785]
<foreign> کېږدو بس څه څه <foreign> کسان وو او څه <foreign> سیټونه وو
[33.345]
<no-speech>
[35.485]
نو هغې <foreign> کښې هم
[37.395]
<no-speech>
[38.615]
<foreign> خو داسې
[40.125]
<no-speech>
[41.545]
داسې ډېر ډېر خوند یې <hes> ځکه نه وو چې هلته ډېر سینیر سینیر کسان راغلي وو
[48.045]
<no-speech>
[50.165]
او ډېر خو دلشاد صاحب <foreign> کښې هم وو
[53.395]
<no-speech>
[56.705]
<no-speech>
[62.385]
<no-speech>
[69.355]
نو خو دا <hes> دا قبر ته به ځان سره وړي که نه دا <foreign> هلته <laugh> به ور ته ښایئ چې زه پي_اېچ_ډي افسر یم چې ما سره لږ <foreign>
[81.015]
<laugh>
[83.425]
<no-speech>
[86.875]
<no-speech>
[87.605]
<no-speech>
[93.745]
<no-speech>
[99.885]
هو هو
[100.835]
<no-speech>
[106.015]
او بیا هغې نه پس بیا شروع شوه
[108.255]
<no-speech>
[109.225]
بلکل هو
[111.195]
<no-speech>
[112.015]
همدا خبره ده
[113.565]
<no-speech>
[116.885]
<laugh> خو هسې <hes> دا خو ما خو خپل لکه ما <hes> ما نه یې چې تپوس وکړو زمونږ یو مېډم وه که نه <breath> هو نو هلته زمونږ باندې ډیوټي هم وه او هلته لږ
[128.735]
چې در ځم ما ته ویل چې څه کوې نو څه ما ور ته وویل چې <foreign> دومره په کښې <foreign> نه یم خو صرف زه وایم چې زوړ نه شم لږ بیا <hes> مخې ته را شم که نه یونیورسټي ته <laugh>
[140.715]
نو ډېر یې وخندل <laugh> وایي <laugh> ښه ته یې دې د پاره دغه ما ور ته ویل چې بیا لږ ما ته <foreign> شي چې زه <foreign> کښې یې ناست یم
[150.915]
<no-speech>
[160.845]
<no-speech>
[161.655]
<no-speech>
[164.735]
ډېر زیات خوند کوي زه ډېر زیات وران وم که نه په خپل سټوډنټ لایف کښې بې انتهایي وران وم <breath> نو نن ما لکه نن <foreign>
[175.075]
که نه مونږ هغه ما بیا زه یې را وغوښتم سټاف روم ته نو ډېر ګپ مو ولګولو نو ما نه یې ټېسټ باره کښې تپوس کولو هغې کښې یو <foreign> والا یو هغه وو که نه
[186.625]
نو ما ته یې څه داسې یو <foreign> وو چې <foreign>
[198.045]
که څه د <foreign> که نه نو دې ته وایي چې <foreign> کښې دا هغه کړئ نو ما ور ته <foreign> لیکلی وو که نه نو هغې ویل چې دا (())
[209.905]
<foreign> <breath> نو ما ور ته ویل چې <foreign> اذین خو هم ډېر ښه <hes> ښه <foreign> دی که نه هغې ویل چې ما ته خو ویل د دې مطلب هم پته نه شته <breath> نو ما بیا ور ته لږ <foreign> وکړو که نه ما ور ته
[221.735]
ویل چې یاد شي در ته هغه زمونږ <hes> اېم_ډي چې کوم وو کرنېل صاحب د هغه په دروازې باندې ما <foreign> لیکلي وو <laugh> (()) <foreign>
[233.705]
چې وشي که نه <hes>
[235.465]
<no-speech>
[236.885]
<no-speech>
[237.395]
<no-speech>
[246.945]
ښه
[248.075]
<no-speech>
[249.145]
<laugh>
[250.595]
<no-speech>
[253.115]
ډېر واقعي چې هو <breath> نو <hes> خوند کوي که نه ډېر خوند کوي یو لکه څه <foreign> نه وي در باندې که نه وړوکي هلک
[264.935]
غوندې تا <foreign> کوي که نه بیا ما ور ته وویل چې ستاسو په <foreign> په دروازې ما <foreign> لیکلي وو که نه وایي چې مونږ ته خو نه دي یاد خو <foreign> څه مطلب دی
[275.845]
ما ور ته ویل چې نن خفه نه شې اوس خو ډېر ټایم ووتو د دې دا مطلب دی <foreign> <laugh> خدای دې دې کور وران
[287.495]
سړی هغې وایي چې زه زه به <foreign> کوم او <foreign> که نه <foreign> ما ور ته وویل چې دا ونه کړې <laugh>
[297.335]
وایي چې مونږ د پاره څه له <foreign> جوړوې چې بیا دلته را شې <laugh>
[301.775]
<no-speech>
[303.595]
<no-speech>
[304.195]
<no-speech>
[313.605]
خامخا خامخا هو
[315.795]
<no-speech>
[322.335]
ښه
[323.405]
<no-speech>
[329.445]
<no-speech>
[330.125]
<no-speech>
[337.825]
<no-speech>
[339.245]
<no-speech>
[340.105]
<no-speech>
[341.205]
<no-speech>
[346.705]
هو بس سهار چې ځې د هغه نه به هېر چې چا نه تپوس کړی وي خو ته به ور ته ووایې چې تا ته یاد دي پرون تا ما نه یو شي تپوس کړی وو <laugh> بیا ما ته (()) دا مونږ سره اوسي
[358.495]
<no-speech>
[359.405]
<no-speech>
[360.405]
<no-speech>
[366.565]
هو <laugh>
[367.635]
<no-speech>
[374.265]
<no-speech>
[380.895]
بلکل هو
[382.385]
<no-speech>
[390.985]
هو
[391.815]
<no-speech>
[392.965]
هو
[393.935]
<no-speech>
[397.115]
ډېر ډېر (())
[399.325]
<no-speech>
[407.765]
هو او بل یو <foreign> وي که نه چې <foreign> دې هم وي او بیا <foreign> کښې هم ناست وې نو هسې خوند کوي که نه <no-speech> دا دا
[419.315]
دا لکه یو د آرم والا چې په ټرېننګ باندې بوځې نو <foreign> یې هم لګولي وي او ښه <foreign> هم وي نو هسې بس سړي له خپل ځان خوند ورکوي که نه
[430.805]
او بل هغه ټیچر دی هم لږ داسې لایټ غوندې غږوي که نه یار دا دا هم دا هم دی زمونږ <hes> برادرۍ یو رکن دی <laugh>
[442.375]
<no-speech>
[450.445]
هغې کښې ټول دوه کسان یې اخېستو او دواړه یې هغه پي_اېچ_ډي والا واخېستو اصل کښې دا اوس ترېن داسې شروع شوی دی <breath> چې دی <foreign> خو یونیورسټي به چې کوم وو هغه به یې
[462.135]
<foreign> وو که نه
[463.345]
<no-speech>
[465.115]
نو <hes> خو هغه <foreign> دي د هغې <foreign> پوخ نه وي
[469.425]
<no-speech>
[470.955]
خو د <foreign> چې کوم <foreign> دي <foreign> لکه دا مونږ چې یو دی به په <foreign> کښې یو خو د دوی <foreign> چې کوم وي هغه پوخ وي اوس دی داسې
[481.795]
سسټم شروع کړی دی چې دی کالج والا چې کوم دي دوی ور ته وویل چې مونږ خو <foreign> بي_اېس سټارټ کوو نو یعنې یونیورسټیانو کورس مونږ ور ته افر کوو نو مونږ هم تاسو اپګرېډ کړئ اېټین ته اوس دوی اېټین ته اپګرېډ کېږي لګیا دی خو اېټین چې کله پوخ ګرېډ وي <foreign> ګورنمنټ والا هغه بیا ټول غټ ګرېډ وي هغې سره لکه پوره
[505.245]
هغه <foreign> او ډېر څیزونه ور سره دغه شوي نو اوس دا دوی دغه هغه ور ته هغه کوي چې مونږ به <foreign> والا مخکې نه په <foreign> کښې
[517.115]
وو خو هغې د پاره لږ دوی <foreign> اوچت کړو چې اېم_فل ور ته بیا ضروري شو
[522.715]
<no-speech>
[524.635]
نو دوی بیا هم (())
[526.205]
<no-speech>
[532.735]
<no-speech>
[533.165]
<no-speech>
[535.965]
هو
[537.145]
<no-speech>
[541.625]
<no-speech>
[541.995]
<no-speech>
[553.995]
ما (()) که نه <breath> ځکه چې اوس دوی <foreign> کړل هر څه ډېر څیزونه اوس په اېجوکېشن سسټم کښې را وو ته لکه اوس <foreign> دی
[564.685]
په هغې باندې دېر یونیورسټیانې دغه کوي دې نه علاوه اوس دوی <foreign> ځای نه برتي کوي <foreign> برتي کوي هغې نه دوی کار هم اخلي
[576.125]
<foreign> ور کړي او ور سره ور سره هغه اېم_فل پي_اېچ_ډي هم کوي <lipsmack> لکه لین چې کوم دی اوس اوس ډېر زیات <foreign> شو ډېر زیات <foreign> راغی
[587.435]
ځکه چې دا <foreign> چې کوم دي <foreign> اوس ډېر زیات <foreign> شول دا <foreign> والا
[593.205]
<no-speech>
[600.1]
