[0.0]
<no-speech>
[3.375]
وعلیکم السلام رحمت‌الله څنګه یې وروره ښه یې *خیریتی* ده
[6.285]
<no-speech>
[7.345]
ښه صحت دې ښه ده خیر یاستئ ماشومان ښه دي خپله
[9.725]
<no-speech>
[10.605]
پښتو- پښتو ابوجي څنګه ده ښه ده
[12.985]
<no-speech>
[15.185]
<laugh> ښه <breath> هغه د دغه د
[18.505]
<no-speech>
[20.305]
ښه
[20.865]
<no-speech>
[24.335]
ښه اوس هغوی ولاړل هغه خپ- خفه به یې نو
[27.165]
<no-speech>
[28.465]
<no-speech>
[28.825]
<no-speech>
[30.215]
ښه
[30.755]
<no-speech>
[31.635]
<no-speech>
[32.025]
<no-speech>
[33.645]
چوټیانې نه وو چې تا را لېږلی دی دلته را سره
[35.725]
<no-speech>
[38.575]
ښه
[39.115]
<no-speech>
[42.215]
ښه <no-speech> ښه
[43.755]
<no-speech>
[46.465]
ښه
[46.965]
<no-speech>
[52.115]
ښه
[52.615]
<no-speech>
[54.435]
خو بېګاه <hes> دغه راغلی وو امام شاه راغلی وو
[57.225]
<no-speech>
[58.745]
او <hes> مه- مونږ طرف ته هغه <hes> هغه عبیدالرحمن دوی دی دغه دوی مدیر چې دی که نه خلیل‌الله دوی مدیر چې دی که نه
[65.915]
<no-speech>
[67.275]
د هغوی <hes> مو- مور مړه شوې وه هغه بله ورځ
[70.155]
<no-speech>
[71.485]
هغه هغه مور یې مړه شوې وه بیا هغې نه خبر شوی وو <hes> نه هغه خو د- درې څلور ور ځي وشوې چې <hes> مخکې مړه شوې وه بس بیا <hes> بېګاه تعزیت ته راغلی وو
[80.545]
<no-speech>
[81.405]
بیا ما له یې تېلېفون وکړو <hes> وایي چېرته یې ما ویل زه خو <hes> دوکان کښې یم
[85.325]
<no-speech>
[86.395]
وایي چې خیر زه هم هلته را ځم خیر ما ویل ځه زه به وختلې را شم دوکان نه وایي نه وختلې مه را ځه
[91.075]
<no-speech>
[92.025]
خو دغه وکړه
[93.105]
<no-speech>
[93.905]
هماغه خپل دغه باندې را شه زه ځم ماښام هغوی سره ماښام لمونځ هلته کوم او بس بیا هغوی ته تعزیت به وکړم
[98.845]
<no-speech>
[100.025]
بیا را ځم <hes> مولوي صاحب کره را ځم او بس <hes> ته به هم هلته را شې
[104.055]
<no-speech>
[105.795]
رښتیا <hes> چې زه هم راغلم ماسخوتن لمانځه ته وروسته نو <hes> ما- ماسخوتن لمانځه نه وروسته بس بیا راغلو بیا کښېناستو ډېر شیبه هغه پخوانۍ کیسې یې را یاد کړه <laugh> هو هغه تګ را تګ
[116.555]
<no-speech>
[117.615]
ښه ده هو تقریباً دغه وویل چې زه تللی وم <hes> تقریباً یو پېنځوس لکه روپۍ مال مې په دوکان کښې پروت دی که نه
[124.225]
<no-speech>
[125.415]
نو هو نو هغه توصیه کاوه چې ته دومره مال مه اچوه کېدلې شې چې حادثه یا دغه وشي نو ما ویل نه مال خو چې څومره ډېر وي بیا ګاک نه شي تلای
[133.915]
<no-speech>
[135.275]
هو چې هر څوک را شې
[136.435]
<no-speech>
[137.785]
هو <hes> الله بچ کړو دی که نه د دې هغه مال هم بچ شو <breath> نو دا چې ما ویل مال را شې نو یو نه یو خو یې خوښ شې نو تش نه ځي او چې داسې ښه مال نه وي یا کا
[149.755]
خراب وي نو بیا نه اخېستل څه به یې خوښ شي نو <breath> نو دا خو ما د دوکاندارۍ دا <hes> د دوکاندارۍ دا دغه ده <breath> دا طریقه ده چې څومره مال ډېر وي نو هر څه بیا ګاک تش نه ځي خامخا د ورځې سودا کېږي
[160.875]
هو ډېر خوښ شو ډېر ښه را ځي او که نه لږ ده نو دغه کېږي <breath> نو هغه زړې کیسې بیا مو ډېره زړې دغه ناوخته پورې د شپې ناست وو <breath> که نه هغه پخوانۍ کیسې هغه <laugh> را یادې شوې
[172.405]
بیا سهار هم سهار هم بس بیا تقریباً نهه نهه نیمې پورې بیا <hes> ناست وو او (()) نهه نهه نیمې بجي هغه بیا خپل دوکان ته ولاړ <breath> بیا زه کور ته راغلم ما
[184.395]
زه ځمه بیا زه خو ما مونږ خو ناوخته ځو تقریباً لس بجي لس نیمې یو هغه ځای نه روان شو که نه <breath> دغه ته
[190.285]
<no-speech>
[192.835]
<hes> دوکاندارې خو داسې بازارونه ټول دغه دي لکه نن یو حادثه
[198.525]
<no-speech>
[200.135]
نن هم یو دغه وشوه <int> بازار کښې
[202.565]
<no-speech>
[203.565]
هغه <hes> مي- مینه بازار کښې بس د دوکاندار د یو بل کس سره کاریګر سره په درې زره روپۍ باندې څه مسله راغلې وه
[211.605]
<no-speech>
[213.335]
هغه درې زره روپۍ باندې مسله راغلې وه هغه اېسته دغه وکړو هلته څه بدمعاشان وو هغوی له یې ویلي وو <breath> بس هغوی تمانچې را اخېستې وو راغلل دلته که نه
[220.225]
<no-speech>
[221.615]
تمانچې را واخېستلې سره (()) ووهه اېسته بس هغه یو دوه دوکانداران وروڼه وو (()) سره <breath> دواړه یې وویشتل یو مړ شو یو زخمي شو
[229.205]
<no-speech>
[230.635]
بیا تره زوی تره زوی منډه کړه هغه یې هم وویشلو پسې یو بل کس هلته <hes> چولې‌مولې خرڅول هغه بېچاره هم <breath> یعنې په درې زره روپۍ باندې <breath> درې کسان زخمیان او یو مړ شو
[241.195]
<no-speech>
[242.475]
او بیا (()) وتښتېدل بیا د هغې نه ورسته پولیس راغلل غوبل یې جوړ کړو که نه <breath> نو هغه بېچاره هسپتال ته دغه شو هغه <no-speech> هسپتال ته ولاړو <breath> هغه چې هسپتال ته ولاړو بیا
[253.695]
بیا هغه مړی یې د هسپتال نه را وړه بیا هلته روډ یې بند کړو
[256.864875]
<no-speech>
[257.825]
<int> روډ یې بند کړو بس یو دم مینه بازار ټول بند شو دوکانونه بند
[262.185]
<no-speech>
[263.625]
دوکانونه بند شو خلک هرتال وکړو چې بس دا کس ګرفتار نه شې بس مونږ به نور هم هرتال کوو (()) د هغې نه وروسته خلک ټول مشتریان وتښتېدل ښه
[271.235]
<no-speech>
[272.245]
مشتریان چې څه وو هغه هغه ټول وتښتې- ووېرېدل که نه چې دا داسې یو حادثه ده ډزې وو <breath> نو داسې یو حالت وو په دې دغه حالت په دې بازار باندې ډېر <hes> داسې خراب اثر کوي نو کله یو جوړه خرڅه شي کله دوه جوړه کله کله پېښې خرڅ نه شي داسې حالات دې که نه
[288.675]
<no-speech>
[289.565]
نو د ور ځي زه او هغه
[291.015]
<no-speech>
[294.285]
(()) داسې ورځ نه ده عام ښه
[298.795]
<no-speech>
[300.515]
<no-speech>
[300.875]
<no-speech>
[302.715]
<no-speech>
[303.475]
<no-speech>
[305.315]
<no-speech>
[305.765]
<no-speech>
[306.675]
هو
[307.335]
<no-speech>
[310.605]
نو ټول داسې یو عام دغه ده که نه وایي هغه بلا بلا چې عام یې نو (()) یو مصیبت چې عام وي نو اسان وي که نه نو داسې عام دغه ټول بېچاره‌ګان (()) شکایت کوي چې ناست وي بازار
[322.385]
(()) روپۍ دغه ده <breath> نو نن آغا سره مې دغه وکړو نن هم ور ته وایم چې را شه لږ کارونه دي وایي س- سبا که ماسپښین نه وروسته در شم ما ویل را شه <breath> ځکه چې ما لږ مال هم را وړې که نه <breath> دا م- مال چې تازه نه کړې دا زوړ مال نه ځې وځې
[339.125]
<no-speech>
[340.015]
ما ویل چې مال <hes> تازه کړې لږ مال را وړې لاهور نه که نه نو انشاءلله چې کېدلې شي سبا ماسپښین نه را شي که دې ځل ونه شو نو د هفتې په ورځ خو به را شې نو انشاءلله جمعې ته یا هفتې ته هفتې ته به را شې
[351.585]
<no-speech> هغه د نه انشاءلله هغه ګوړه‌موړه به دغه کړو <hes> وایم هغه که خپله در ته خپله به یې هلته در وړې تاسو له لاس په لاس به یې را وړې
[358.625]
<no-speech>
[359.935]
هو هو نو خو خپله کېدلې شې
[362.445]
<no-speech>
[365.065]
هو زما د ترور هغه هغه چې را شې زه ځم ان- انشاءلله که نه هغه را شې زه ځمه هو کېدلې که هغه را هم نه شې جمعې په ورځ ماسپښین نه وروسته زه ځم
[375.085]
<no-speech>
[376.675]
هو زه ځم چې ځکه چې بیا هغه دغه مې خرابېږي هغه کار مې خرابېږي که نه او
[382.175]
<no-speech>
[383.345]
نو زه تقریباً د یو میاشت نه کېدلې شې ما ته هغه تنخوا مقرر وي یا مخکې نه که نه ځکه چې ما ته تنخوا مقرر <hes> دغه لیکل شوې دي د هغه وخت نه تنخوا مقرر ده
[392.775]
<no-speech>
[393.765]
نو زه وایم چې دا یو یو نیم یو یو دا یو میاشت یو نیم میاشت تېر کړم که نه دا تقریباً (()) تقریباً کېدلې شې لکه د یو ځل تنخوا را ته پېنځوس زره روپۍ را کړې
[402.885]
<no-speech>
[404.055]
نو وایي نو یو ځای خو به ونیسې که نه
[406.395]
<no-speech>
[407.505]
او او بیا ور سره بیا دویم قرارداد کوو
[410.375]
<no-speech>
[412.085]
هو دې حمل کښې بیا دلته کېدلې شې تنخوا زیاته شې نو هغوی وویل چې مونږ بیا کوښښ کوو چې <breath> پېنځه دېرشو ته یا څلوېښتو ته یا اووه دې
[419.105]
<no-speech>
[422.665]
یاره دا
[423.445]
<no-speech>
[424.515]
نه نه د دغه نه دا سکول ښه ده هغه دغه سکول ښه ښه وي مدرسو کښې دغه داسې نه شته دا سکول ښه دی بس دې (()) وړو ماشومانو سره دغه سره هم <breath> لږ دې کښې خدمت ډېر کېږي که نه
[436.295]
<no-speech>
[437.175]
ځکه چې دا وا- واړه <hes> سکولونه داسې دا واړه ما شاګردان داسې کسانو ته ور کړي وي که نه <breath> چې هغوی په ټکی نه پوهېږي
[444.355]
<no-speech>
[445.495]
<hes> او مونږ خو تقریباً دا شل کلن شل کلن تجربه ده نو ما ویل ځه داسې به وکړو چې هغه سر معلم ته به ووایو چې ته زما درس ګوره که نه زما درس ګوره او استاد به
[457.085]
کښېنو زه به ور ته صرف هغه طریقه به ور ته ښایم <breath> چې استادانو طریق وښودل شي او شاګردانو (()) نو سړی څه خدمت وکړې نو چا ته څه خیر ورسېږي که نه نور خو هسې دنیا پېښې پاتې ده
[468.715]
سړی شل کاله <breath> شل کاله سبق ویلی وي شل کاله یې تجربه وي نو یو څه خو چا ته وښایې که نه
[473.395]
<no-speech>
[474.215]
نو د همدې وجې <int> نه زه اوس ډېر تنګ شوی یم دغه کښې <breath> په دې اوزګاري باندې
[479.225]
<no-speech>
[480.635]
نو اوس دلته هغه هم ولاړه د دې وجې نه کور کښې څوک نه شته زه د کور د خاطره دا پاتې یم که نه
[485.685]
<no-speech>
[486.685]
چې هغه هم نه وي او زه هم نه یم نو بیا کور کښې مسله یې که نه <breath> او رښتیا هغه شمس‌الدین مولوي صاحب دغه هم شوې که نه هغه <hes> ترور یې مړه شوې ده <hes>
[494.855]
<no-speech>
[495.955]
<laugh> د شمس‌الدین <hes> ترور مړه شوې ده هغه نن تللی جلال‌آباد ته
[500.085]
<no-speech>
[502.725]
د پلار یې خور ده کومه یو دا نه هلته
[504.825]
<no-speech>
[506.185]
د پلار یې خور وو <no-speech> هو د پلار یې دوه خویندې دي
[509.405]
<no-speech>
[510.795]
هو (()) او ترونه یې نن
[512.814875]
<no-speech>
[514.065]
تللي دي اوس شپې نه دی راغلی نن سهار وختلې تللي دي نن یې <hes> جنج- جنازه وه
[518.305]
<no-speech>
[519.915]
بس ترونه یې تللي وو دی تللی دی بس <hes>
[522.324875]
<no-speech>
[523.274875]
هو (()) که نه وي سبا سبا ته یا بل سبا ته را شې بیا هسې تعزیت ور ته وکړه نو تېلېفوني
[528.265]
<no-speech>
[531.855]
<laugh> هو که نه <laugh> نو بیا خو خامخا ترور یې ده که نه <int> هو
[541.745]
<no-speech>
[543.175]
رښتیا هم هغه دا هم د هغې چې هغه اوس د هغې تېلېفون مفت وي که نه نو اکثر خپله هغه تېلېفون لګوي مونږ ته په ګېنټو ګېنټو لګیا یې <breath> په ګېنټو ګېنټو مونږ سره هم لګیا یې خو که
[555.055]
خپله (()) ور ته یاد کړو که نه <breath> او که هغې ونه کړو یاره بس ثواب چې ګټې نو لږ به <hes> پیسې به مصرف وې به که نه
[562.395]
<no-speech>
[563.255]
پوه شوې <laugh> لږ پیسې لږ پیسې ته مصرف که نو
[566.275]
<no-speech>
[567.125]
څنګه <hes> طیب خان طیب څنګه ده
[569.455]
<no-speech>
[570.505]
سبق ته ځې
[571.265]
<no-speech>
[573.205]
ښه <no-speech> ښه
[574.945]
<no-speech>
[577.315]
<no-speech>
[577.745]
<no-speech>
[580.335]
ښه
[580.865]
<no-speech>
[584.205]
(()) ښه خو ده انشاءلله
[586.305]
<no-speech>
[587.115]
ساعت یې ښه دی
[587.965]
<no-speech>
[590.005]
عبید سلطان څنګه دی
[591.255]
<no-speech>
[597.005]
ښه دلته راغلې ده
[597.925]
<no-speech>
[600.02]
