[0.0]
<no-speech>
[2.065]
السلام علیکم
[4.025]
<no-speech>
[5.905]
څنګه یې یحی وروره څنګه یې ښه یې جوړ یې
[8.165]
<no-speech>
[10.265]
<laugh> الحمدلله خیر او خیریت دی کار مو څنګه دی
[14.585]
<no-speech>
[18.055]
ټول الحمدلله خیر او خیریت دی تاسو خیر غواړو ملګري انډیوالان څنګه دي ښه دي ټول
[23.445]
<no-speech>
[27.015]
خیر او خیریت دی الحمدلله <breath>
[29.205]
<no-speech>
[31.075]
ټول ښه دي مکتب ته ځې او که نه
[35.045]
<no-speech>
[38.345]
ښه هدایت ورور مې څنګه دی
[40.515]
<no-speech>
[45.835]
ښه ښه
[46.915]
<no-speech>
[48.565]
ښه نور
[49.815]
<no-speech>
[52.785]
والله دا څو ورځې کېږي امتحانونه مو وشول والله ښه یو پرچې مېښې ور کړې بس دا نن خلاص شو
[60.885]
<no-speech>
[61.805]
هو نو بس کو- کور ته راغلو <int>
[65.305]
<no-speech>
[69.545]
<hes> انګلش امتحان او کمپیوټر ساینس دغه وو کمپیوټر کښې که نه نن هو <int>
[76.335]
<no-speech>
[77.915]
هو دا <hes> دا کو- کورسونه دي هو دا شارټ کورسونه دي دغه وایو هو <breath> بس
[85.755]
<no-speech>
[87.595]
بس ګزاره کوو نو
[89.125]
<no-speech>
[91.215]
او تا خپله څنګه ته خپله خپله څه کار کوې ته
[94.325]
<no-speech>
[99.495]
<no-speech>
[99.985]
<no-speech>
[101.995]
ښه صحیح هغه بله ورځ را ته چا وویل چې تاسو دغه کړی دی اکسیډنټ کړی دی څنګه دا خبره رښتیا ده که نه
[109.445]
<no-speech>
[111.985]
ښه نو ته <hes> خیر خو به وي ژوبل شوي خو به نه وئ
[116.805]
<no-speech>
[122.095]
ښه الله اکبر
[124.285]
<no-speech>
[125.435]
<hes> بس الله مو روغ او خوشحاله لره کار کار مو څنګه دی
[130.075]
<no-speech>
[135.535]
<hes> هدایت <hes> افغانستان نه کله را ځي
[138.515]
<no-speech>
[145.395]
<no-speech>
[145.875]
<no-speech>
[148.545]
<no-speech>
[148.965]
<no-speech>
[150.105]
ښه والله زه خو زه خو افغانستان ته تللی وم دغه <hes> مساله مړي باره کښې که نه نو زه والله ډېر دغه شو تېلېفون مې ور ته وکړ ډېر زیات مصروف وم نو د هغې نه وجې نه
[161.865]
تېلېفون پاتې شو بېرته چې راغلم بیا ډېر خفه وم زه ما ویل <hes> هغه نږدې ځای کښې سره کتلي مو وای سره ښه وه ډېره <breath> یا لږ خبرې مو سره کړې وای
[171.025]
<no-speech>
[172.195]
هو
[172.985]
<no-speech>
[177.645]
والله د یاده مې ووتل بیا چې دلته راغلم ډېر زیات خفه وو <breath> چې کاشکې مو سره کتلي وای
[183.245]
<no-speech>
[185.225]
<no-speech>
[185.645]
<no-speech>
[186.835]
<int> هو دا خو ژوند دی بیا به ور شو بیا به ور شو دا څه خبره نه ده خو هغې مړه ما ته دلته چې راغلی افغا- پاکستان ته ما ته یې تېلېفون کړی وو که نه چې دغه دی دا بیا چې هلته
[198.645]
کله را شې نو ما سره خبرې لږې وکړه تماس را سره ونیسه که نه که مخامخ شې نو ډېره به ښه وي
[204.605]
<no-speech>
[205.565]
<hes> بیا موږ نه هم <laugh> <hes> هو ته هغې ما ته پاکستان ته چې را شي ما ته بیا تېلېفون کوو خو زه چې ګوره افغانستان ته ته ولاړم ما نه هېر شو دغه دغه دغه وو نو
[216.235]
<no-speech>
[217.275]
هو
[218.285]
<no-speech>
[219.465]
ښه
[220.755]
<no-speech>
[226.025]
<hes> دغه دی دا هغه مش- مشر ورور دې اوس چېرته دی <hes>
[231.555]
<no-speech>
[235.355]
نه والله هغه خو مې پرېښود <no-speech> بس دی <laugh> بس دی دوولسم پورې پوهنتون مو وویل نور یې څه کوو
[242.495]
<no-speech>
[244.785]
هو د د
[245.795]
<no-speech>
[246.665]
<hes> نه چکر د پاره نه یم تللی
[249.885]
<no-speech>
[252.105]
هو
[252.855]
<no-speech>
[257.184875]
هو بس دا خو ښه <hes> اوس لږ مخکې را ته ملګرو تېلېفونونه کړي وو ویل یې څنګه چل دی وایي چکر خو به <hes> راغلی یې موږ ور ته وویل ما ویل چې لږ دلته دغه یو
[268.355]
که نه نو نااوزګاره یې نو چې کله لږ اوزګار شي کېدلی شي یکشنبې په ورځ چکر ور شم که نه <breath> امتحانونه یې هم ختم شوي دي
[275.695]
<no-speech>
[276.645]
هو
[278.125]
<no-speech>
[281.915]
ښه <no-speech> ښه ښه دا خو بیا ډېر ښه کار کړی دی
[285.685]
<no-speech>
[286.745]
عصمت استاد څنګه دی
[288.115]
<no-speech>
[297.785]
<hes> هغه ما چې ور ته هغه بله شپه
[299.525]
<no-speech>
[300.565]
هغه ما چې ور ته هغه بله شپه تېلېفون کړی وو څه خو یې نه ویل <breath>
[304.005]
<no-speech>
[306.875]
<no-speech>
[307.225]
<no-speech>
[313.005]
<no-speech>
[317.525]
<no-speech>
[320.125]
<sta> عص- عصمت استاد په خپله دا اوطاق کښې نټ لري
[325.205]
<no-speech>
[327.425]
<no-speech>
[327.845]
<no-speech>
[330.525]
<no-speech>
[330.895]
<no-speech>
[332.085]
<sta> هو
[334.945]
<no-speech>
[338.685]
<no-speech>
[339.575]
<no-speech>
[340.695]
<breath> ښه ښه <breath> دا دغه دی دا <no-speech> هو دا خو ښه خبره ور ته کړې <no-speech> ښه سلام استاد څنګه دی
[350.005]
<no-speech>
[350.875]
قمر‌الدین استاد څنګه دی نور
[352.325]
<no-speech>
[354.025]
<no-speech>
[354.665]
<no-speech>
[357.255]
<sta> <breath> ښه څوک
[360.275]
<no-speech>
[362.735]
<breath> ښه هغه سعودي ته تللی دی ښه هغه بله ورځ مې دغه پوښتنه هغه دغه پوښتنه مې کوله څه ور ته وایي د
[370.345]
<no-speech>
[371.235]
هغه یو استاد وو هغه اوس نه شته دی ما ور سره لږ کار هم وو <no-speech> بیا تللی وو چېرته اسد څنګه دی اسد
[377.205]
<no-speech>
[379.205]
<no-speech>
[379.575]
<no-speech>
[380.375]
اس- اسد اسد نه وو
[381.995]
<no-speech>
[383.075]
په <foreign> کښې چې
[384.545]
<no-speech>
[387.125]
<no-speech>
[387.725]
<no-speech>
[388.795]
ښه څه کار روزګار کوي
[391.005]
<no-speech>
[395.955]
ښه
[396.715]
<no-speech>
[402.765]
<no-speech>
[408.815]
<hes> نو هغه خو ما ته ویلي وو چې کانکور ورکوم که نه
[413.215]
<no-speech>
[421.495]
هو
[422.195]
<no-speech>
[423.335]
دا ښه خبره ده هغې ګوره کورسونه هم ویلي وو
[426.225]
<no-speech>
[427.355]
هغه ته ښه کار پیدا کېده نو دا د هغه قسمت دی نو
[430.285]
<no-speech>
[431.965]
ښه
[432.575]
<no-speech>
[436.055]
که نه <no-speech> تا تا څه <hes> تا څه کار پیدا کړی تا
[441.495]
<no-speech>
[447.615]
ښه <no-speech> ډېر ښه <breath> او هدایت در سره دی که نه
[453.215]
<no-speech>
[457.965]
<no-speech> ښه صحیح ده صحیح ده
[460.995]
<no-speech>
[462.365]
<no-speech>
[462.755]
<no-speech>
[466.035]
هو هو هغه ځای خو هم سخت ځای دی
[468.095]
<no-speech>
[469.225]
هو <breath> والله زه غواړم والله چې ما ویل چې لږ چکر ور ووهو افغانستان ته <no-speech> (()) <no-speech>
[481.115]
نه (()) د خیر اوزګار یو ځه اوزګار شو ور ته بس یو چکر ور ځم د هغې یا ستا ځای ته در شم یا به هغې د هغې ځای ته ور شم که نه
[491.165]
<no-speech>
[492.975]
<no-speech>
[493.365]
<no-speech>
[495.585]
که نه
[496.265]
<no-speech>
[497.565]
هو زما ورور مې هغه بله ورځ راغلی وو <hes> هغه ما نه چې لږ مشر دی که نه هغه ویل ویل چې زه ځم افغانستان ته <int>
[507.295]
<no-speech>
[509.375]
نو پلار مې ور ته وویل لږ صبر وکړه ته دې دا خپل دا پوهنتون ووایه نو بیا به ولاړ شې <int>
[515.545]
<no-speech>
[516.534875]
نو هغه ویل <hes> خو خیر دی ویل پوهنتون به بیا <hes> پوهنتون به سره وایو که نه افغانستان کښې خپل کار به هم سره کوو <no-speech> نو پلار مې ور سره بیا او <hes>
[528.285]
پلار مې ور سره ناموافق شو هغه ور ته وویل چې خپل پوهنتون ووایه بیا ولاړ شه نو هغه هلته بیا بېرته یې دغه کړو <no-speech> پوهنتون ته یې کړو ولاړ نه
[538.575]
<no-speech>
[540.445]
هو
[541.195]
<no-speech>
[544.875]
<int> هو که نه (()) صرف دا په کښې پاتې نور <laugh> ټول وروڼه خو مخکې <hes> تعلیمونه وکړل که نه غټ تعلیمونه ټولو کړي دي یو دا په کښې پاتې وو دا هم
[556.715]
پلار را <hes> کلک کړو ور ته تعلیم ته <breath> جمال سره خو دې کتل نه دي کړي جمال سره
[563.915]
<no-speech>
[565.295]
<no-speech>
[565.745]
<no-speech>
[567.545]
هو
[568.405]
<no-speech>
[571.145]
<no-speech>
[571.715]
<no-speech>
[575.935]
ښه
[576.715]
<no-speech>
[579.755]
<no-speech>
[581.685]
<no-speech>
[584.815]
ښه هو
[586.785]
<no-speech>
[589.915]
ښه هو
[590.995]
<no-speech>
[592.865]
هو خوشحاله دی په کښې ما ته یې ویلي وو پرون را ته هغه بله ورځ یې را ته وویل ویل را شه چېرته خو به تللی نه وي کور ته <no-speech> دیر ته <int>
[599.765]
<no-speech>
[600.02]
