[0.0]
<no-speech>
[4.565]
<no-speech>
[4.965]
هغه په خپله وینا باندې خوښ نه دی
[6.615]
ښه
[7.465]
<no-speech>
[8.685]
ښه
[9.255]
<no-speech>
[14.375]
<hes> روبینه څنګه یې
[15.635]
<no-speech>
[16.625]
<no-speech>
[17.005]
<no-speech>
[18.215]
ښه یم ښاده شې څنګه چل دی
[20.145]
<no-speech>
[23.955]
هو ولاړل
[24.995]
<no-speech>
[28.065]
غازي ته ولاړل هو
[29.415]
<no-speech>
[30.285]
څنګه ده نسیمه څنګه ده
[31.805]
<no-speech>
[35.785]
او ته څنګه یې
[36.805]
<no-speech>
[38.555]
<no-speech>
[38.915]
<no-speech>
[40.215]
<laugh> ښه او ترېنه او زه اخلې
[43.835]
<no-speech>
[46.535]
خیالۍ اخلې
[47.735]
<no-speech>
[50.305]
هو ابراهیم اخلې کن- بختمینه وایي اخلې که نه
[54.035]
<no-speech>
[57.895]
<no-speech>
[58.265]
<no-speech>
[61.865]
نه او چې ده که نه
[63.205]
<no-speech>
[66.495]
<no-speech>
[66.885]
<no-speech>
[67.935]
غوا
[68.535]
<no-speech>
[72.565]
نه ما ویل وچه ده دغه دی بس دغه یې که دا وایي بختمینه یې اخلې راز ګل وویل <sta>
[77.475]
<no-speech>
[79.435]
<no-speech>
[79.805]
<no-speech>
[82.765]
ښه
[83.545]
<no-speech>
[85.325]
هغه زیاتونه راغلې ده
[86.805]
<no-speech>
[90.175]
زیاتونه د کاکا لور دې پېښور نه
[92.855]
<no-speech>
[95.345]
هو
[96.115]
<no-speech>
[97.345]
السلامونه در باندې کوي <no-speech> ښه دي واړه یې هم ښه دي زوی
[101.085]
<no-speech>
[101.895]
ښه دې واړه یې هم ښه دي زوی ور سره دي هغې را ته میلاو کړو دا د هغې موبایل دی
[106.545]
<no-speech>
[110.295]
<laugh> لاره یې غلطه کړه لالا ته دې راغله که نه
[113.645]
<no-speech>
[117.965]
<laugh> ښه دی لالا دې هم ښه دی
[120.505]
<no-speech>
[124.585]
والله دا دوه ور ځي یې لږې پښې دغه شوي دي مخکې به جومات ته تللو اوس داسې چالاک نه شي ګرځېدلی
[129.525]
<no-speech>
[133.765]
<no-speech>
[134.135]
<no-speech>
[137.155]
نه کوي اودس خو نه کوي تمیم وهې
[139.205]
<no-speech>
[144.205]
ښه ده بادر هم ښه دی مرزیه هم ښه ده ټول ښه دي
[147.795]
<no-speech>
[148.605]
هو ښه دي
[149.525]
<no-speech>
[151.055]
ستاسو کور کښې څنګه چل دی
[152.445]
<no-speech>
[157.635]
ښه ځکه کراري ده
[159.165]
<no-speech>
[160.095]
او <no-speech> شعیب سر څنګه دی
[162.285]
<no-speech>
[166.255]
ښه عادل
[168.135]
<no-speech>
[173.995]
ښه
[174.825]
<no-speech>
[175.945]
ښه دا ښه دا پري خبرې دي ښه
[178.785]
<no-speech>
[183.345]
<laugh> هو پېنځه لس منټه چې ته یې بند نه کړې ښه په خپله بندېږي بیا ښه
[187.675]
<no-speech>
[189.985]
<no-speech>
[190.635]
<no-speech>
[193.115]
<breath> نه نه څه یې نه دې ویلې ولې
[195.485]
<no-speech>
[196.355]
<no-speech>
[197.215]
<no-speech>
[198.685]
نه
[199.935]
<no-speech>
[201.295]
<no-speech>
[201.645]
<no-speech>
[202.545]
<sta> نه نه څه یې نه دې ویلې <no-speech> څه یې نه دې ویلې
[208.305]
<no-speech>
[209.795]
<hes> دې دعا ته راغلي وو که نه
[212.015]
<no-speech>
[217.135]
ښه
[217.835]
<no-speech>
[218.655]
ښه ما ویل چې په بله خبره کښې خو به نه وو
[220.485]
<no-speech>
[223.345]
هو <hes> زیات دی سو روپۍ
[226.275]
<no-speech>
[229.765]
یو نیم یو نیم شل روپۍ
[231.355]
<no-speech>
[236.345]
ما ته او مرزیه
[237.825]
<no-speech>
[240.515]
<no-speech>
[241.175]
<no-speech>
[244.375]
<hes> هغه هم
[246.155]
<no-speech>
[247.115]
هغه بله خبره کښې خو به نه وه څه خو به یې نه ویل
[249.595]
<no-speech>
[254.135]
ښه
[254.795]
<no-speech>
[258.545]
ښه ماښام کړی وو که نه
[260.375]
<no-speech>
[262.735]
<no-speech>
[263.095]
<no-speech>
[265.175]
ښه
[266.045]
<no-speech>
[270.015]
والله داسې یوولس بجې وې نو
[273.555]
<no-speech>
[277.185]
<no-speech>
[277.565]
<no-speech>
[278.895]
یوولس بجې وې تقریباً
[280.585]
<no-speech>
[283.625]
ښه دی ټینا هم ښه دی هوټل کښې دی
[285.385]
<no-speech>
[286.655]
<no-speech>
[287.215]
<no-speech>
[288.105]
<no-speech>
[288.755]
<no-speech>
[293.445]
<int> تا له یې ویلې وو چې نه
[295.985]
<no-speech>
[297.055]
<no-speech>
[297.405]
<no-speech>
[298.235]
<no-speech>
[298.805]
<no-speech>
[301.675]
نو چا در ته وویل
[302.885]
<no-speech>
[308.445]
<sta> نه نه پیری خو نه ګرځېږي خامخا به در ته ویلې <laugh> وي هغه خو منکره شو
[313.455]
<no-speech>
[315.005]
ټینا منکره شوه که نه
[316.515]
<no-speech>
[319.345]
نه نه مړې بل څوک خو یې در ته نه وایي
[321.125]
<no-speech>
[326.135]
نه ولې هغه بل به ناست وي د دې به ضرور وي <laugh>
[328.565]
<no-speech>
[331.555]
<laugh> هغه چې بیا ته را شې نو
[334.075]
<no-speech>
[335.855]
که نه
[336.525]
<no-speech>
[337.955]
نه مړې نه نه چې ته بیا را شې په خپله
[341.265]
<no-speech>
[344.305]
ښه
[344.935]
<no-speech>
[345.945]
هغې کښې <laugh>
[346.875]
<no-speech>
[348.955]
هغې کابل ته هم ویلې وو
[350.435]
<no-speech>
[352.865]
<hes> کابل بیا ما ته وویل وایي را ته یې ویل چې په مخه
[356.575]
<no-speech>
[357.455]
کابل به در سره ښه بس ټینا کابل ته ویلي وو چې که ته نه خفه کېږې
[360.715]
<no-speech>
[364.465]
<laugh> هغې ته ما وویل ما ویل دا هم څه خبره ده ما ویل د دې دې خدای پوزه ورکه کړې د ټینا
[369.825]
<no-speech>
[371.955]
هو ما ویل اول به ما ویل ته به ناست یې او دې له به غم کوم
[375.145]
<no-speech>
[378.125]
ښه
[378.845]
<no-speech>
[381.415]
<laugh> ما ور ته وویل ما ویل چې اول حق ستا دی بیا ما ویل چې تا له مې نه یې کړې ما ویل یو به یې هم را نه ونه ګورې
[386.915]
<no-speech>
[387.895]
<no-speech>
[389.375]
<no-speech>
[393.025]
اوس یې
[393.645]
<no-speech>
[396.185]
<no-speech>
[396.585]
<no-speech>
[398.115]
<no-speech>
[398.735]
<no-speech>
[399.545]
<no-speech>
[400.185]
<no-speech>
[402.875]
ښه
[403.635]
<no-speech>
[411.695]
نو هغه چې تاسو را شئ که نه تاسو به خپله ور سره وګورئ که نه نو زه به څنګه ور ته ووایم
[415.935]
<no-speech>
[423.325]
نو ښه دی <laugh> ما ته خو د خبرو نه را تلو <no-speech> ما ته خو د خبرو نه را ځي خو چې تاسو را شئ نو تاسو به ور سره وګورئ
[431.475]
<no-speech>
[436.775]
هو که نه
[438.395]
<no-speech>
[440.815]
<no-speech>
[441.245]
<no-speech>
[445.785]
خو دا خیال خو زما همداسې را ځي خو خبره دا ده چې دا <no-speech> ما ویل دې هریپور ته دې هریپور ته روبینه یو چکر وهلی وی
[453.025]
<no-speech>
[455.335]
د قادر د پاره
[456.495]
<no-speech>
[460.775]
نه نه په پیسو
[462.395]
<no-speech>
[465.275]
هو
[465.935]
<no-speech>
[474.515]
خلک خو سخت دي خو ته لږ د خبرو تکړه <laugh> یې که نه ما ویل چې تا ور سره لیدلی وی نو
[478.345]
<no-speech>
[489.965]
<no-speech>
[490.615]
<no-speech>
[498.815]
هغه خو خبره صحیح ده هغه خبره خو د مخکې نه ور سره خلاصېږي که نه
[502.835]
<no-speech>
[503.705]
چې <hes> که نه وي نو داسې بلا خور دی که نه
[506.135]
<no-speech>
[513.865]
<no-speech>
[521.595]
نه مړه خو دې یو لکه پورې که خبره ور سره کېدی نو کړی به مو وی
[524.965]
<no-speech>
[533.895]
ما ویل که د یو لکه پورې خ- خبره ور سره کېدی خو سړې به کړی وی ور سره که نه قادر د پاره
[538.575]
<no-speech>
[543.105]
نو قادر خو ما ته څه نه وایي نو وایي هغه خو قادر خو څه نه وایي قادر خو وایې چې ستا چېرته خوښه وي
[547.525]
<no-speech>
[552.265]
هو قادر خو ما ته څه نه وایي قادر وایي چې ستا چېرته خوښه وي
[555.365]
<no-speech>
[559.785]
خو ما ویل چې سړې به یې خوله ګ- ګړولی وی که نه <int>
[562.755]
<no-speech>
[567.875]
نو چې هغه بیا <int> زوی ته بدل کوي خو بیا بله هم شته که نه خیر دی
[571.255]
<no-speech>
[574.325]
هو که نه بله یې هم شته دی <int>
[576.345]
<no-speech>
[578.795]
<no-speech>
[580.655]
<no-speech>
[581.625]
بي_بي ګل
[582.465]
<no-speech>
[584.145]
<no-speech>
[585.035]
<no-speech>
[585.955]
<no-speech>
[586.515]
<no-speech>
[587.495]
<int> <hes> نجیب‌الله ته نه مړې ما ویل که په پیسو یې را کوي
[592.455]
<no-speech>
[593.315]
<no-speech>
[594.345]
<no-speech>
[595.315]
<no-speech>
[596.575]
<no-speech>
[598.965]
<no-speech>
[599.195]
<no-speech>
[600.04]
