[0.0]
<no-speech>
[1.995]
<sta> هلو السلام علیکم (()) ښه یې جوړ یې
[8.515]
<no-speech>
[11.725]
<no-speech> اوس څنګه ده اواز
[13.055]
<no-speech>
[14.825]
<no-speech>
[15.265]
<no-speech>
[17.585]
اواز څنګه شو اوس یاره
[19.315]
<no-speech>
[23.965]
بس له دغه ځای نه را لرې شوم هغه تا چې هغه را ته وایي تېلېفون مونږ هم ما له ده سره په موبایل باندې هغه کوله سودا
[35.805]
<no-speech> هغه د تا هغه راغلی
[37.175]
<no-speech>
[41.965]
اوس له دې یاره دومره لرې شوم یو شل متره به ځینې لرې شوی یم
[49.385]
<no-speech>
[59.805]
هو بس سمه ده دا دی په وار په وار له ده دغه کېږم اسدالله راغلی
[66.855]
<no-speech>
[72.685]
ښه لا نه ده راغلی
[74.845]
<no-speech>
[82.015]
یه هلکان خو فلحال نه شته له دې بعد به را ځي دې <int> صنفیان اوس ذاتي به بیا را ځي لوبې لپاره
[90.755]
<no-speech>
[94.475]
والله خاص ټایم یې نه ده معلوم کله په څلور بجې ترې را وځي کله په پېنځه بجې باندې را وځي کله څلور نیمې وي
[105.565]
<no-speech>
[110.655]
هو کله کله برخه ما <hes> اسدالله کښې وه
[115.505]
<no-speech>
[120.805]
<no-speech>
[121.165]
<no-speech>
[123.355]
یه تر ما- تر ماښام پورې په لوبه باندې اخته یو چې لوبه پا- پای ته ورسېږي ذاتي مونږ هم پرېږدو
[133.595]
<no-speech>
[141.335]
<no-speech> دا
[141.935]
<no-speech>
[145.425]
یه دا لوبه خو مونږ د دې لپاره کوو چې یو خو د بدن لپاره ډېره ګټه ده بل یې مونږ دا لوبه دې کښې خوند را کوي چې څوک
[157.225]
خوند یې څه رقم
[158.065]
<no-speech>
[168.855]
دا لوبه کښې <hes> مونږ سره دا کلیوال هلکان وي نور هغه پرې کېږدو ټورنمنټ دا د سرکاري دا د
[180.735]
ښارو خلک <hes> را غواړو مېچ چې وکاته بیا دلته له مونږ سره (()) ټول اووه اته ټیمان یو
[189.525]
<no-speech>
[199.185]
هو خو دا لوبه کښې <hes> هم یې یا ګټو هم یې یا هارو دا خو ور سره تړلي دي یاره
[208.145]
<no-speech>
[218.325]
<no-speech>
[218.745]
<no-speech>
[221.985]
یوه لوبه د هغه وه د کرېکټ وه د مستوفیت له طرفه وه هغه لوبه مونږ وګټله او اوس داسې دوه بجو
[233.845]
ډېر خوند هغه را کوي دا فوټبال
[237.265]
<no-speech>
[245.915]
<no-speech>
[254.565]
هو دا خو مخکې بیا د د یوه
[258.815]
<no-speech>
[259.684875]
موسسه وه دغلته لاندې د <no-speech> فوټبال لوبه یې را ته را وویستله هغه مونږ <no-speech> وګټل (())
[270.435]
<no-speech>
[277.155]
د موسسې والا مو هم ګټلي دي دا دا نورې چې په خپل مابین کښې کوو دغه مو هم ګټلي دي
[287.015]
<no-speech>
[293.305]
یه <hes> که کرېکټ وي که فوټبال وي لویان وي ټول کوچنیان په کښې لږ شته دی کوچنیان دي لویېږي
[305.285]
<no-speech>
[317.268333]
<no-speech>
[329.251667]
<no-speech>
[341.235]
دغه دغه لوبې که کرېکټ وي که فوټبال وي هر هره لوبه هغه لري مشران لري کپتانان
[352.955]
<no-speech> لري هر یو په نوبت باندې جلا کوي بیا
[357.005]
<no-speech>
[358.135]
په <hes> نمبر نمبر باندې (()) ولاړ وي
[361.095]
<no-speech>
[369.995]
زه فلحال خو نه یم (()) شوی
[374.165]
<no-speech>
[378.825]
<hes> <sta> یه <hes> تر اوسه پورې نه دی (()) یه
[384.445]
<no-speech>
[389.06]
