[0.0]
<no-speech>
[1.475]
<no-speech>
[1.825]
<no-speech>
[4.185]
هلو
[4.735]
<no-speech>
[6.465]
<no-speech>
[6.825]
<no-speech>
[7.815]
السلام علیکم السلام (()) جوړ تکړه په خیر <no-speech> ښه یې جوړ یې قراري ده
[13.215]
<no-speech>
[14.085]
ته چېرته یې هلکه
[15.225]
<no-speech>
[17.645]
<no-speech>
[18.085]
<no-speech>
[19.855]
والله زه خو په دې ننګرهار ښار کښې بس ګرځم <breath> هو
[25.265]
<no-speech>
[26.125]
<laugh> ځه هلکه دلته بس ښایسته دې باغ کښې ګرځم را ګرځم چمن دې ګرځم په دې شنو بوټو کښې
[34.185]
<no-speech>
[35.025]
نو <cough>
[36.425]
<no-speech>
[38.485]
نه والله ځان ته یم
[39.975]
<no-speech>
[40.785]
<breath> هو را ځه
[42.905]
وکړه
[45.345]
<hes> والله څنګه یې کوې بس دغه را ووتلو چکر ته چکر ووهو ما ویل <breath> پوه شوې <hes> چېرته یې ته څه شی کوې
[53.955]
<no-speech>
[55.375]
<hes> هو تفریح وکړه
[57.135]
<no-speech>
[63.305]
ښه کله تللی یې
[65.374875]
<no-speech>
[68.085]
<hes> کله تللی یې هلته
[69.685]
<no-speech>
[74.335]
ښه
[75.105]
<no-speech>
[76.155]
ښه پروګرامونه دې څنګه روان دي <breath>
[79.315]
<no-speech>
[80.325]
تا بس کړي څه <int>
[81.975]
<no-speech>
[83.245]
<no-speech>
[83.845]
<no-speech>
[84.885]
<breath> ښه
[86.145]
<no-speech>
[87.515]
<breath> او کله را ځې به <hes> زه
[91.335]
<no-speech>
[93.735]
<no-speech>
[95.485]
<no-speech>
[97.035]
<laugh> هلکه نه رښتیا هغه شیخ نه خبرېږې که نه چېرته دی
[103.505]
<no-speech>
[105.125]
<hes> شیخ
[107.125]
<no-speech>
[108.475]
شیخ شیخ شیخ المحمدي <no-speech> <hes>
[113.465]
<no-speech>
[118.425]
ښه تماس ور سره نیسې که نه
[120.765]
<no-speech>
[122.205]
<no-speech>
[122.565]
<no-speech>
[125.305]
<no-speech>
[128.865]
<no-speech>
[131.585]
ښه مسکالونه هم یو بل ته ور کوئ زه ښه دی چې یو بلنه احوال خو اخلئ خبرېږئ ترې <breath> په مسکال که نه
[137.245]
<no-speech>
[143.805]
<hes> څه وخت
[145.675]
<no-speech>
[146.985]
<no-speech>
[147.505]
<no-speech>
[151.665]
صحیح ده که نه
[152.515]
<no-speech>
[153.705]
هو
[154.315]
<no-speech>
[159.835]
هو والله دا هم ښه خبره ده صحیح ده <hes> هو
[164.225]
<no-speech>
[166.155]
خامخا ښکارې ولې هغه کیسه دې نه ده اورېدلې وایي سړې وایي چې تر پلار <hes> ځوی نه پوښتنه کړې وه وایي ځویه <lipsmack> وایي لمر لرې دی که مزار لرې دی پلار یې ور ته ویلې که نه
[177.855]
وایي چې هغه دی وایي تا ته وایي لمر سترګه ښکاري وایي هو وایي تا ته مزار ښکاري وایي نه نو کم عقله لمر لرې شو که مزار لرې شو خو مزار لرې دې که نه کنه خو <laugh>
[189.655]
<no-speech>
[190.015]
<no-speech>
[191.615]
<laugh> ور ته ووایه ډېر مه اوچتېږه <laugh>
[194.455]
<no-speech>
[195.975]
څنګه
[196.615]
<no-speech>
[197.865]
<hes> <lipsmack> نه تشناب کښې څوک وو مړه هر څه دې زنګ دې را ووهلو هر څه دې را کښې وچ کړل
[203.555]
نه
[204.905]
پوه شوې
[205.595]
<no-speech>
[207.895]
نه نه خیر دې خبرې کوه مړه ګپ لګوه <hes> وحید نه خبرېږې وحید څه وایي څه غورو کښې دی وحید څه غورو کښې دی
[214.405]
<no-speech>
[219.245]
که نه ور ته ووایه انتحاري وکړه
[221.235]
<no-speech>
[222.225]
څنګه
[222.805]
<no-speech>
[225.505]
<laugh> ټولې خانې یې تورې کړي خامخا به <laugh> کمپیوټر والا به هم حیران شي چې دې کښې اوس څه وکړم اورې د دې دا فورم چې دغه چې کمپیوټر ته ورکړه کمپیوټر فورمه به هم بېخي بس کار به پرېږدي کمپیوټر وایم که نه چې دا یې څه شی کړي
[240.325]
<no-speech>
[246.285]
که نه <laugh> نو ځان ډایرکټ ترې فارغوې
[250.325]
<no-speech>
[251.465]
<no-speech>
[251.975]
<no-speech>
[254.185]
<no-speech>
[254.545]
<no-speech>
[257.955]
هو ډایرکټ یې فارغوي خامخا څارنوالۍ کښې هم مقرر وي ته خو لا هغه ښایې ډېپلوم
[263.025]
<no-speech>
[263.905]
پوه شوې
[264.455]
<no-speech>
[266.725]
هو خامخا نو ټول مقامات ده نیولي دي
[269.935]
<no-speech>
[270.815]
پوه شوې
[271.525]
<no-speech>
[276.875]
څنګه
[277.505]
<no-speech>
[281.785]
تین سو وایم ځه ورک کړه دا خبرې پرېږده عتیق‌الله څنګه دی خبرېږئ ترې
[285.655]
<no-speech>
[287.275]
<no-speech>
[287.755]
<no-speech>
[290.875]
نه مړه ما ته یې نه دی هغه کړی هو
[293.895]
<no-speech>
[296.295]
نه قسم دی که یې زنګ را وهلی وي بې ګپ در ته وایم
[299.715]
<no-speech>
[300.885]
پوه شوې نه والله که یې زنګ را وهلی وي هماغه چې تا سره یې خبرې کړې وې بیا یې زنګ نه دی را وهلی ما ته هو
[307.235]
<no-speech>
[308.675]
نه در ځي لږ ځان وخوځوه
[311.325]
<no-speech>
[314.085]
لږ ځان وخوځوه <breath>
[316.115]
<no-speech>
[316.985]
<no-speech>
[317.485]
<no-speech>
[321.625]
چا ته <lipsmack>
[323.465]
<no-speech>
[324.805]
ښه
[325.495]
<no-speech>
[333.295]
<hes> لکه چا
[334.375]
<no-speech>
[335.485]
لکه چا
[336.745]
<no-speech>
[337.785]
د کوم ځای نه
[338.715]
<no-speech>
[339.985]
نو بیا خو لکه کومې علاقې نه
[341.965]
<no-speech>
[342.855]
<no-speech>
[343.325]
<no-speech>
[345.105]
ښه ښه ښه هو ښه
[347.205]
<no-speech>
[348.725]
ښه ښه
[349.545]
<no-speech>
[353.025]
هو پوه شوم <click> که نه مېسج یې کله کولې
[355.225]
<no-speech>
[356.365]
<no-speech>
[356.925]
<no-speech>
[357.745]
نه مړه څه یې ویلې
[359.685]
<no-speech>
[363.145]
<no-speech>
[363.605]
<no-speech>
[371.345]
څه وایي خفه نه وه هغه یې هم غټ سنډا خره ته ور کړې ده که نه
[374.475]
<no-speech>
[376.795]
که نه
[377.415]
<no-speech>
[378.695]
<laugh> نه اوس
[379.825]
<no-speech>
[381.215]
زه خو وایم چې لږ شانتې کېږي له شپې له خوا
[383.695]
<no-speech>
[384.565]
<no-speech>
[385.115]
<no-speech>
[386.955]
<no-speech>
[387.535]
<no-speech>
[392.445]
دا نو خو سم انتن همکار نه ورکوي
[394.475]
<no-speech>
[395.415]
<no-speech>
[396.855]
<no-speech>
[397.745]
<breath> که څنګه ما ویل څه شی دې لګولي دي د خره ځویه <laugh> ما ویل څه شی دې لګولي دي
[404.005]
<no-speech>
[406.485]
<no-speech>
[407.065]
هلو
[409.605]
ښه
[410.725]
<no-speech>
[411.725]
<breath> والله بچی ګرمي هم ډېره شوې ده
[413.895]
<no-speech>
[415.045]
که نه
[415.855]
<no-speech>
[417.825]
اورې
[418.595]
<no-speech>
[419.775]
ګرمي ډېره نه ده
[420.925]
<no-speech>
[422.815]
<no-speech>
[423.285]
<no-speech>
[424.405]
<hes> ګرمي ده هو والله ډېره زیاته ګرمي ده په خدای <lipsmack> پوه شوې ما کورتۍ اغوسته مړه زړه مې ور ته تنګ شو
[432.055]
<no-speech>
[433.045]
<sta> ښه <no-speech> څنګه <no-speech> که نه پېسې چې ډېرې خ-
[438.215]
<no-speech>
[440.415]
<breath> خامخا نو چې پېسې وي زړه دي یخ وي او چې زړه دې یخ وي نو ټول هر څه بدن به دې یخ وي <breath> دا خو هر څه د یو بل په مطابق روان دي <breath> پوه شوې
[448.815]
<no-speech>
[449.08]
