[0.0]
<no-speech> هلو <no-speech> هلو السلام علیکم <no-speech>
[7.435]
<no-speech>
[8.605]
څنګه یې وروره صحتونه ښه دې والله لږ څه دا <foreign> مشکلات وه هغه پایه اخوا دېخوا څه ما او ستا خبرې قطع شوې <no-speech> څنګه ئ صحتونه دې ښه دې <int>
[20.115]
<no-speech> هو هغه قصه دې کوله نو هغې ته دمه ورکه نو مونږ به ئ واورو <no-speech> <int> ستاسو
[30.375]
کیسه کوله که نه هم هغه ته ادامه ورکړه هغه د وردګانو باره کښې کیسه کوله که نه <int> <no-speech> بله یې تا ویل چې کانې در ته کومه بله
[42.175]
<no-speech>
[43.515]
<no-speech>
[46.525]
خبرې باید قطع نه شې باید خبرې همدا وم وکړې صحیح ده <int> <no-speech> اوس چېرته یې <no-speech>
[58.135]
ته سرنګ وهې <no-speech> څه سورنګ وهي <no-speech>
[69.935]
<no-speech> <int> تا څه شې ووهلو <no-speech>
[74.815]
<no-speech>
[75.715]
تا څه شوې وهل ته خپله خبره کړه <int> <no-speech> وایه ته
[85.425]
هو <no-speech> <int>
[91.695]
<no-speech>
[92.515]
<int> <no-speech> چه حال لرې <no-speech> <int> هو هو <no-speech>
[100.465]
<no-speech>
[101.805]
<int> <no-speech> ښه <int> <no-speech>
[113.425]
<int> <no-speech> ښه <no-speech>
[121.075]
<no-speech>
[122.025]
ته خپله خبره کوه زه اورمه <int> <no-speech>
[133.245]
<no-speech> ښه <no-speech> هو هو <int> <no-speech>
[138.865]
<no-speech>
[140.195]
ښه <int> <no-speech> <hes>
[149.635]
<no-speech>
[150.655]
<int> <no-speech> چاه <no-speech>
[156.315]
<no-speech>
[157.235]
<no-speech> چه تا ئ ویلې <no-speech> <int>
[164.195]
<no-speech>
[165.815]
<hes> <no-speech> <int> <laugh> آی یو خبره
[177.805]
کومه یو خبره وکړم یو خبره در ته وکړم دا ته ولې ستا ټولې فکاهیانې ستا ټولې فکاهیانې ولې <foreign> وي
[189.195]
<no-speech> څومره خطرناکې خطرناکې په
[192.555]
<no-speech>
[193.585]
<no-speech> نه خو بل شې سړې ووایي نورې کیسې سړې وکړي نورې وکړي ته بس همدا یو ته نښتلی یې
[199.065]
<no-speech>
[200.415]
<no-speech> بله دې بله
[202.175]
<no-speech>
[203.825]
<no-speech>
[205.145]
<no-speech>
[205.92]
