[0.0]
<no-speech>
[4.475]
اسلام علیکم
[5.575]
<no-speech>
[8.695]
څنګه چل دي سلیمه
[9.885]
<no-speech>
[12.895]
خیر دي بس <no-speech> مسېج خو دي را ځي هلکه
[15.675]
<no-speech>
[17.855]
وایم مسېج خو دي را ځي
[19.265]
<no-speech>
[20.585]
هو که نه
[21.365]
<no-speech>
[22.345]
نور <no-speech> څه دي کښې
[24.375]
<no-speech>
[27.015]
نور سور کښې خو یې که نه
[28.615]
<no-speech>
[30.585]
<no-speech>
[30.935]
<no-speech>
[35.425]
ښه
[36.095]
<no-speech>
[38.815]
بس <no-speech> حجره کښې پراته یو یاره نو <no-speech> <laugh> او که نه (()) <laugh>
[44.585]
<no-speech>
[45.895]
هیلو وایم بس حجره کښې پراته یو
[49.075]
<no-speech>
[51.415]
<no-speech>
[51.775]
<no-speech>
[53.685]
په ایمان په تا باندې خو <no-speech> وایم په تا باندې خو حجره ډېره دغه شوه اوري <laugh> خو (()) خو (())
[59.705]
<no-speech>
[64.125]
کله به را ځي
[64.984875]
<no-speech>
[69.795]
ښه ښه
[70.635]
<no-speech>
[71.755]
<no-speech>
[72.225]
<no-speech>
[74.945]
را شه مړه لوی ډرامې دي اوري
[76.885]
<no-speech>
[78.785]
او که نه <no-speech> ظالمه بېګاه یو پېنځه لس شپاړلس هلکان راغلي وه اوري
[83.555]
<no-speech>
[85.455]
سمه جرګه وه
[86.585]
<no-speech>
[89.675]
او <laugh>
[90.775]
<no-speech>
[97.125]
<no-speech>
[97.505]
<no-speech>
[100.415]
<laugh> هو که نه ظالمه زه وایم سمي لوی ډرامې شروع دي اوري
[106.775]
<no-speech>
[113.045]
لالا دي پخپله <laugh> لالا دي په کښې خپله هم هغه بل ورځ پیسې ور کولې ور ته یې ویلي په دي باندې کباب وخوره
[119.745]
<no-speech>
[121.125]
ورته وایئ کبان په وخوره کبان
[122.985]
<no-speech>
[125.355]
اه واوره نه عثمان هم وه هغوی را ته وویل وایي په دي باندې په کبان وخوره او
[130.515]
<no-speech>
[137.085]
ښه نه لالا ته مه وایه مونږ ورته مه یا دوه
[139.805]
<no-speech>
[142.785]
نور
[143.455]
<no-speech>
[144.265]
ښه
[144.905]
<no-speech>
[146.335]
<laugh> او که نه (())
[150.485]
<no-speech>
[151.955]
<laugh> او که نه
[154.155]
<no-speech>
[156.515]
مړه بس ته ولاړي ظالمه ډېره ډېره مزه یې دلته کښې اوري
[159.755]
<no-speech>
[161.845]
او که نه
[163.935]
<no-speech>
[165.115]
<no-speech>
[165.685]
<no-speech>
[170.375]
<no-speech>
[170.895]
<no-speech>
[172.495]
<laugh> ښه
[173.715]
<no-speech>
[175.765]
نه نه مړه زړه مه وهه
[177.275]
<no-speech>
[180.295]
او او
[181.175]
<no-speech>
[183.805]
بس دا بچي دي یاره
[185.095]
<no-speech>
[186.215]
مردان ته یاره بس نن سبا کښې به ځمه
[188.605]
<no-speech>
[193.005]
دا مزمل ډیوټي نه دي راغلی لا
[194.945]
<no-speech>
[198.105]
او
[198.615]
<no-speech>
[201.125]
ما ته سهار زاهد رنګ وکړ وایي را شه وایي حجره کښې لږ کښېنه دغه را شي بیا (())
[206.215]
<no-speech>
[207.585]
مزمل دی
[208.485]
<no-speech>
[211.195]
مړه پرې ویده هغه هغه چېرته هم ښه نه شو اوري <no-speech> ته به ښه شي خو هغه به ښه نه شي
[215.555]
<no-speech>
[219.315]
او
[220.175]
<no-speech>
[221.875]
او هو
[222.815]
<no-speech>
[228.745]
هو
[229.815]
<no-speech>
[230.735]
<hes> واده یې خو را روان دی که نه
[234.495]
<no-speech>
[235.405]
کله وایي مړي په کښې وشوه <no-speech> کله وایي مړي په کښې وشوه مړه د هغه په حساب‌کتاب هم نه پوهېږو اوري
[240.755]
<no-speech>
[246.205]
<laugh>
[246.965]
<no-speech>
[253.035]
<no-speech>
[259.105]
بلکل یاره د مزمل واده نه کېږي <no-speech> دا دي <no-speech> چې دي هجري ته راغلي <no-speech> چې دي هجري ته راغلي که نه دي وایي په دي میاشت کښې مې واده دي په دي میاشت کښې مې واده دي او په پته یې
[271.025]
پوه نه شوو چې دا څنګه واده دي
[272.465]
<no-speech>
[275.835]
<laugh> او کله وایې وایې المارۍ مې ټک وهلې کله وایې شوکېس مې جوړ کړو بس دغه کیسې‌میسې دي یاره
[282.485]
<no-speech>
[287.585]
نه مړه داسې پته نه ده چې کپ لګي چې څه کیسه ده ځکه ما ویل زه د واده دغه نه کوم
[293.535]
<no-speech>
[295.215]
<no-speech>
[295.595]
<no-speech>
[298.125]
او که نه
[299.095]
<no-speech>
[304.155]
اه هو <laugh>
[305.145]
<no-speech>
[312.265]
او مړه <no-speech> ته په ښه پوهېږي اوري
[316.135]
<no-speech>
[317.845]
هو
[318.595]
<no-speech>
[320.395]
عثمان هم ښه پوره موج کښې دي
[322.675]
<no-speech>
[327.915]
دواړه را ځي دواړه هغه <laugh> هغه بل هم را ځي <no-speech> هو
[332.435]
<no-speech>
[334.805]
<laugh> هو که نه
[336.245]
<no-speech>
[339.695]
او او <laugh>
[341.055]
<no-speech>
[347.445]
او هو <laugh>
[348.585]
<no-speech>
[354.345]
باران یاره لږ لږ شروع دي لالا په ګاډي کښې کښېناستم بهر را ووتم هغوی دننه ناست دي په هغه کمره کښې
[359.225]
<no-speech>
[361.195]
بس هغې کښېناست یم ما ویل هسې هم څوک نه شته په دې کښې به کښېنو
[364.195]
<no-speech>
[370.745]
او که نه عثمان زما پسې ګرځي او زه موټر کښېناست یم نه یم لیدلي
[374.065]
<no-speech>
[376.515]
اه هو
[377.215]
<no-speech>
[379.745]
<laugh>
[380.865]
<no-speech>
[381.825]
یو خوا بل خوا ګوري چې سړي څه شو
[383.815]
<no-speech>
[386.475]
او هو
[387.255]
<no-speech>
[388.225]
(()) مړه خدای دي دي تباه کړي مونږ یې ټوله کوڅه یې وشرموله <no-speech> پرون را ته یوم کس بازار کښې وایي هلکه وایي ستاسو کوڅې والا خو ټول بچه بازان دي ما ته وایي چې ته هم بچه باز یې
[397.785]
<no-speech>
[401.765]
سخت یې خراب کړو <laugh> هو نو
[403.485]
<no-speech>
[407.425]
<laugh>
[408.935]
<no-speech>
[410.115]
دا را پسې ګرځي یاره خاندي را خاندي
[412.645]
<no-speech>
[414.525]
وي اوس یې ولیدمه اوس یې ولیدمه
[416.785]
<no-speech>
[417.885]
او
[418.465]
<no-speech>
[419.785]
دا دي راغی ګاډي کښې
[420.935]
<no-speech>
[422.205]
دغه پرېږده هو <no-speech> وایي که نه
[425.725]
<no-speech>
[427.255]
هلکه هغه <no-speech> هغه کار سیټ شو که نه
[430.535]
<no-speech>
[434.025]
هغه هغه خپله دي څه وه
[437.595]
<no-speech>
[439.015]
وایم هغه حسیني سره کار کښې یې که نه (())
[442.005]
<no-speech>
[443.105]
<no-speech>
[443.605]
<no-speech>
[450.085]
<no-speech>
[450.645]
<no-speech>
[451.625]
مړه بس خدای دي ټیک کړي چې ته هم د دي مسلې نه دغه شي اوري
[455.395]
<no-speech>
[457.095]
هم <no-speech> <laugh> هم در وغواړه اوري
[461.145]
<no-speech>
[462.145]
ښه خو عثمان دي چې مزي یې وکړي
[463.705]
<no-speech>
[465.575]
<no-speech>
[466.105]
<no-speech>
[467.715]
عثمان هو <hes> زاهد زاهد ور پسې اوس لوی دغه را اخېستي دي هو کله ور پسې یو کس را ولي او کله بل کس ورور ته ډېر سفارشونه دي <laugh> هو د عثمان نو هر یو ځان ته هغه کوي اورې
[479.615]
<no-speech>
[482.925]
زاهد دا زاهد ډېر غټ حرامي دي وای چې د نهرو سپي ور ځي نه خوري دا (()) وخوري
[488.575]
<no-speech>
[491.955]
پوه شوي <laugh>
[493.055]
<no-speech>
[494.085]
او که نه دغه چل دي بېګاه هغه د عثمان هغه اشنا نه دي
[499.165]
<no-speech>
[500.515]
هغه ذیشان <no-speech> هغه یې ځان سره خوا ته کښېنه ولي وو داسې سور کښې وو <no-speech> هغه چې ولاړي که نه <no-speech> بیا یې مونږ یې ته سم صفتونه کول وایئ هلکه دا خو سم ښکلي دي دا دا چل دي او هغه چل دي وایي یاره
[512.044875]
عثمان چې یې ځان سره خوشي کړ عثمان او (()) غټ حرامیان دي که نه
[515.135]
<no-speech>
[516.945]
اي اوس (()) او عثمان نه دي
[519.055]
<no-speech>
[520.774875]
دوی دواړه اوس خپلي کښې اچوې دا د ظالم بچي
[523.265]
<no-speech>
[526.535]
هغه خو هم هوښیار دي که نه بېګاه هم مېسجونه (()) ته هم کړي دي عثمان ته یې هم کړي دي یاره او دا خو چې راغله هم که نه نو دواړو یو بل ته مېسجونه وښودل چې ما ته یې دا مېسجونه کړي دي او عثمان ورته ورته وایي ما ته یې دا کړي دي او مغیر را واده وي ما ته یې دا کړي
[540.885]
<no-speech>
[543.255]
او او سم وه
[545.525]
<no-speech>
[551.815]
او نه بس مونږ یې خو په همدغه خاندو را خاندو مونږ یې خو نور څه نه شوای کولي
[555.045]
<no-speech>
[558.265]
او <laugh>
[559.155]
<no-speech>
[561.885]
<no-speech>
[562.415]
<no-speech>
[564.315]
هو نو <laugh>
[565.545]
<no-speech>
[569.835]
او که نه
[571.215]
<no-speech>
[572.375]
(()) نه هغه <no-speech> هغه
[576.115]
<no-speech>
[576.925]
هغه خو به را تللو خو یاره دېخوا به دلته به نه را تللو یاره هېرېدو
[581.585]
<no-speech>
[583.805]
اه او <no-speech> اوس ورته دا بل اشنا دغه کړي دي نو د هغه له وجې نه دلته را ځي <no-speech> که نه اوس هم نه (()) خو
[589.565]
<no-speech>
[591.095]
هغه هغه خپل اشنا پسې را ځي <no-speech> هغه هغه خپل اشنا پسې را ځي
[595.175]
<no-speech>
[600.04]
