[0.0]
<no-speech>
[5.965]
السلام علیکم
[6.765]
<no-speech>
[9.665]
ښه یم ته څنګه یې
[10.795]
<no-speech>
[12.925]
سکول ته ځې
[13.915]
<no-speech>
[16.155]
څو هم کښې یې
[16.845]
<no-speech>
[19.615]
ښه ملګرې دې څنګه دي د سکول ملګرې
[22.365]
<no-speech>
[27.005]
ښه <no-speech> <cough> څو هم <hes> دغه کله ځې سهار څه ټایم <no-speech> سکول ته ځې
[32.555]
<no-speech>
[38.075]
ښه <no-speech> ما ویل مدرسې ته ځئ مدرسې سبق وایئ
[41.605]
<no-speech>
[49.915]
ښه
[50.415]
<no-speech>
[52.205]
ښه <breath> <no-speech> نور څه وایئ مدرسه کښې یوازې ترجمه وا-
[56.265]
<no-speech>
[59.195]
<no-speech> ښه
[59.765]
<no-speech>
[62.565]
مدرسې ملګرې دې څنګه دي
[64.195]
<no-speech>
[66.535]
(())
[67.025]
<no-speech>
[68.305]
هو زه سبق وایم مدرسه کښې
[70.105]
<no-speech>
[71.065]
ترجمه ښییم
[72.065]
<no-speech>
[73.085]
نه <no-speech> نه سکول ته اوس نه ځو چټیانې دي
[76.805]
<no-speech>
[80.315]
زه نهم کښې
[81.825]
<no-speech>
[86.725]
ولې نو
[87.445]
<no-speech>
[88.585]
دا څو ورځې چټیانې را کړي بیا دې نه بس پرچې شروع کېږي امتحانونه
[92.275]
<no-speech>
[94.395]
ښه
[94.905]
<no-speech>
[97.165]
ښه
[97.735]
<no-speech>
[98.815]
ته نه <no-speech>
[100.655]
هو پرېوځي <no-speech> ته نن سکول ته ځې
[103.585]
<no-speech>
[105.725]
هو
[106.295]
<no-speech>
[108.595]
ښه
[109.205]
<no-speech>
[111.645]
مدرسه څه ټایم شروع کېږي
[113.265]
<no-speech>
[117.445]
<hes> <no-speech> کوم ځای کښې کښېنئ مدرسه <no-speech> مدرسه کښې
[122.045]
<no-speech>
[123.015]
<no-speech>
[123.415]
<no-speech>
[124.845]
ښه <no-speech> نو بیا دغه ګاډي کښې به ځئ نو
[127.905]
<no-speech>
[130.845]
ښه <no-speech> <breath> نو لیرې ده که نژدې
[133.305]
<no-speech>
[137.665]
ښه <no-speech> او سکول ته بیدل ځئ که په ګاډو کښې
[141.005]
<no-speech>
[144.865]
ښه <breath> او ختم دې کړی د قرآن‌شریف
[147.575]
<no-speech>
[149.585]
ښه
[149.965]
<no-speech>
[151.135]
کله دې ختم وکړ
[152.215]
<no-speech>
[156.015]
ښه <no-speech> چا ته دې دعوت ور کړی وو
[158.175]
<no-speech>
[161.545]
ښه <no-speech> د سکول استادانې راغلې وې
[164.015]
<no-speech>
[166.665]
ښه څه دې پخ کړي وو په کښې
[168.075]
<no-speech>
[171.695]
<hes> او بیا نور څه څه ور کړل
[174.805]
<no-speech>
[180.465]
ښه
[181.105]
<no-speech>
[183.115]
کسان ډېر راغلي وو
[184.295]
<no-speech>
[187.555]
ښه ما ته دې خو دې دعوت نه دی را کړی دا ولې
[190.145]
<no-speech>
[196.735]
نو ول- اوس در نه خفه یم را- دعوت دې را ته نه دی را کړی
[199.665]
<no-speech>
[203.335]
<no-speech>
[203.845]
<no-speech>
[206.195]
ښه <no-speech> ستاسو پته را ته وښایه چې کوم ځای کښې ستاسو کور دی
[210.495]
<no-speech>
[215.025]
ښه <no-speech> کوم کوڅه کوم ځای کښې کوم کوڅه کښې
[217.985]
<no-speech>
[222.935]
ښه
[223.445]
<no-speech>
[225.595]
ښه مېکپ دوکان څه
[227.055]
<no-speech>
[229.075]
ښه <no-speech> څنګه په کور <no-speech> هو پته را ته وښایه چې بیا در شم در کره
[233.915]
<no-speech>
[236.965]
(())
[237.435]
<no-speech>
[238.415]
ښه <breath> قصه‌خوانۍ کښې اوسېږې
[240.715]
<no-speech>
[242.605]
قصه‌خوانۍ څنګه ده یخني زیاته وه که څنګه
[245.325]
<no-speech>
[250.625]
ګېسونه لګوئ
[251.805]
<no-speech>
[255.245]
هو کولاو مړې داسې یخني ده چې
[257.145]
<no-speech>
[261.535]
هو که نه داسې یخني ده چې <breath> هغلته به بند وي د هغه کور هم
[264.985]
<no-speech>
[266.015]
<no-speech>
[266.375]
<no-speech>
[268.195]
<no-speech>
[268.695]
<no-speech>
[270.115]
<hes> څو چته دی
[271.935]
<no-speech>
[274.475]
ښه بره به خېژې <hes>
[275.985]
<no-speech>
[278.555]
ښه
[279.025]
<no-speech>
[280.545]
ښه ګرځې را ګرځې په کښې
[282.465]
<no-speech>
[286.005]
مونږ یو چت باندې د غریبۍ کور <breath>
[288.565]
<no-speech>
[291.895]
<no-speech>
[292.345]
<no-speech>
[296.865]
اواز دې څنګه ګټ کټ را ځي
[298.455]
<no-speech>
[301.625]
څه ښه وایئ
[302.395]
<no-speech>
[303.535]
څنګه شو
[304.275]
<no-speech>
[307.185]
ښه <no-speech> هو صحیح شو <no-speech> او سکول ته ځې اوس
[310.615]
<no-speech>
[315.285]
د سکول کتابونه څنګه دي ګران دي که اسان
[317.615]
<no-speech>
[320.455]
ښه
[321.035]
<no-speech>
[324.865]
ښه
[325.345]
<no-speech>
[328.345]
د مدرسې سبقونه څنګه دي ګران دي که اسان
[331.085]
<no-speech>
[336.225]
ښه <no-speech> ترجمه څنګه ده ګرانه ده که اسانه
[339.415]
<no-speech>
[342.475]
ښه <breath>
[343.585]
<no-speech>
[346.135]
ښه
[347.445]
<no-speech>
[348.575]
<no-speech>
[349.075]
<no-speech>
[350.015]
مدرسې ته نور ماشومان را ځي <cough>
[353.345]
<no-speech>
[356.605]
ښه
[357.135]
<no-speech>
[358.685]
هغه هم دوه بجې را ځي
[359.915]
<no-speech>
[363.605]
زه څلور بجې <cough> څلور بجو نه تر شپږ بجو پورې
[367.905]
<no-speech>
[370.205]
هو ډېرې بس غټې نجلۍ دي ترجمه ور ته ښییم ترجمه کښې ډېر وخت اوړي <no-speech> تفسیر سره
[375.355]
<no-speech>
[386.045]
ښه <no-speech> هو استاذ هم را نه پیسې اخلی فیس اخلي نن <cough>
[390.845]
<no-speech>
[393.745]
د میاشتې
[394.685]
<no-speech>
[397.145]
ښه ماشومانو ته
[398.395]
<no-speech>
[399.725]
نور نجلۍ به هم در سره وي <no-speech> نور نجلۍ به هم در سره وي
[403.035]
<no-speech>
[407.575]
ملګرې دې شاوخوا پراته دي که لیرې دي
[409.845]
<no-speech>
[412.375]
ښه ور کره ځې را ځې
[413.885]
<no-speech>
[419.805]
ښه دعوت در کوي در ته
[421.235]
<no-speech>
[424.255]
ښه <no-speech> هغوی در کره در ځي
[426.655]
<no-speech>
[431.195]
ښه <no-speech> تا ور ته دعوت ور کړی که څنګه
[433.655]
<no-speech>
[439.515]
ښه
[440.045]
<no-speech>
[441.005]
<cough> ګاز مو خو نه کمېږي ژمي کښې
[444.275]
<no-speech>
[451.285]
<hes> بجلي هم هغلته هم بجلي ځي
[453.615]
<no-speech>
[455.925]
ښه دلته همداسې څه بد حال یې ایښی چې ځي او را ځي
[458.805]
<no-speech>
[462.225]
نه هو که نه نوښار وو نوم یې ښار وو نو <no-speech> قصه‌خوانۍ ما ویل که هغلته به نه ځي
[466.785]
<no-speech>
[472.635]
ښه
[474.105]
<no-speech>
[476.375]
یخي شته دی باد لګېږي هغلته او که نه
[478.715]
<no-speech>
[482.995]
هو داسې یخه هوا ده چې
[484.575]
<no-speech>
[486.445]
باران خو نه شته هغلته
[487.675]
<no-speech>
[490.635]
دلته خو وریځ وریځ ښکاري
[492.145]
<no-speech>
[499.595]
ښه
[500.195]
<no-speech>
[501.575]
ښه <no-speech> <cough> او ګاز به مو کمېږي نو دې یخنۍ کښې
[504.575]
<no-speech>
[506.245]
<no-speech>
[506.735]
<no-speech>
[508.495]
نو سکول ته څو بجې ځې
[509.885]
<no-speech>
[512.295]
هو
[512.895]
<no-speech>
[516.014875]
ښه <no-speech> او تفریح څو بجې کېږي
[518.285]
<no-speech>
[521.425]
ښه
[522.005]
<no-speech>
[524.735]
بیا څه خورئ تفریح کښې
[525.885]
<no-speech>
[528.615]
<no-speech>
[529.145]
<no-speech>
[530.535]
ښه
[531.005]
<no-speech>
[531.845]
<hes> همدې سکول کښې خرڅېږي دا څیزونه
[535.065]
<no-speech>
[539.305]
ښه
[539.895]
<no-speech>
[542.385]
او بیا تفرېح نه بس څه کوئ سبقونه وایئ
[544.655]
<no-speech>
[548.605]
ښه
[549.115]
<no-speech>
[553.155]
ښه <no-speech> ګپ‌شپ لګوي <no-speech> ښه <breath> ګپ‌شپ به ملګرو لګوې
[558.785]
<no-speech>
[562.775]
ښه <no-speech> لطیفې او کیسې
[565.055]
<no-speech>
[566.455]
<no-speech>
[566.835]
<no-speech>
[569.295]
<breath> نور څنګه ده ستا خویندې څنګه دي
[571.705]
<no-speech>
[574.795]
خویندې وروڼه دې څنګه دي مور پلار
[576.905]
<no-speech>
[579.915]
زما دوه <no-speech> ستا څو وروڼه دي
[582.545]
<no-speech>
[583.695]
هو
[584.155]
<no-speech>
[585.055]
ښه
[586.165]
<no-speech>
[586.965]
تا نه مشران دي که کشران
[588.525]
<no-speech>
[591.605]
ښه
[592.245]
<no-speech>
[593.555]
مونږ خویندې څلور یو
[594.955]
<no-speech>
[598.305]
ښه
[598.675]
<no-speech>
[599.24]
