[0.0]
<no-speech>
[3.005]
هلو
[3.555]
<no-speech>
[5.935]
وعلیکم السلام <no-speech> ښه نور څنګه یې
[9.345]
<no-speech>
[10.145]
<no-speech> <laugh> هو
[11.115]
<no-speech>
[13.195]
<no-speech>
[14.065]
<no-speech>
[17.115]
شکر <no-speech> یه یه والله شکر دی ښه یو د الله پاک فضل دی
[21.535]
<no-speech>
[22.675]
ستا څه حال دی
[23.935]
<no-speech>
[28.435]
انډیوالان ښه دي نو داسې نو اوس ته هم انډیوال یې دا دی شکر دی چې ښه یې <no-speech> شپې او ورځې مو په خیر تېرېږي
[35.585]
<no-speech>
[36.645]
ښه دا څنګه کېږي دا د انټرنېټ څخه کال
[39.305]
<no-speech>
[44.085]
<no-speech>
[44.745]
<no-speech>
[45.945]
ښه ښه دا فري دی که یه په دې باندې هم څه خرڅه را ځي
[50.455]
<no-speech>
[55.925]
وېش وېش
[56.755]
<no-speech>
[61.745]
هو
[62.395]
<no-speech>
[69.905]
ښه ښه ښه <no-speech> صحیح ده یار سمه ده باره به یې بیا را وښایې
[73.845]
<no-speech>
[76.085]
هو داسې هو شکر دی د الله پاک فضل دی
[79.615]
<no-speech>
[83.215]
هو <no-speech> <laugh> سټډي مو کوله اوس دا دی لګیا وو دا <hes> کتاب مو را اخېستې وو ته را شه وې ګوره <no-speech> زده به یې کړې د سبا د پاره <no-speech> هو
[94.365]
<no-speech>
[97.945]
<no-speech> هو
[98.625]
<no-speech>
[101.975]
<hes> لوبه کښې خو نو یاره یو څو مهال مخکې مو دغه کوله فوټبال کوله خو <hes> اوس ما هم پرېښې دي اوس په دغه انټرنېټ باندې کله‌ناکله دا یوه جمعه لرو هغه په دا انټرنېټ باندې
[113.005]
لګیا یو
[114.235]
<no-speech>
[120.835]
یاره چې رښتیا شي خپله نو فوټبال په خوښه <no-speech> ستا به کرېکټ خوښ وی <laugh> هو
[127.855]
<no-speech>
[130.715]
هو
[131.415]
<no-speech>
[134.235]
هو <no-speech> یو وخت مو فوټبال کول فوټبال مې خوښ وو
[137.945]
<no-speech>
[139.105]
مګر کرېکټ نه دی کړی
[140.775]
<no-speech>
[144.915]
هو <no-speech> هو سړی ښه وي بدن یې چست وي
[148.705]
<no-speech>
[152.445]
کلب ته <no-speech> کلب هم بیا یو څو مل- <hes> کراټو کلب وکړه کله دا دغه باندې دا اوس دا ورزش کلب چې دی دا ستاسو کور په مخامخ باندې نه وو دا اغاز کلب
[163.785]
<no-speech>
[165.985]
<no-speech> <hes> دا
[166.975]
<no-speech>
[168.635]
یار اوس مو نه دی اخېستی دا مخکې د کراټو کلب وو کراټې مو کولی او اوس ورزش ته واوښتو یاره اوس یې والله نه کوو
[175.745]
<no-speech>
[180.405]
یاره ورزش هم ښه دی والله خوښ مې هم دی ښه بدن جوړوي مګر دا دی چې نو وخت به هم ورکوې کار هم کوو سټډي هم ور سره کوو هغه ورزش هم چې باره بجې <laugh> ګرده کارونه مو په کښې پاتي شوي وي
[192.275]
<no-speech>
[193.185]
نو بیا به مو په سرونه رسېږي
[196.175]
<no-speech>
[197.885]
<no-speech> هو
[198.825]
<no-speech>
[200.235]
سکول نه وایي والله <no-speech> وایي زه خپله <hes> کار کوم یه دا ده زه خو په کار
[211.935]
دوکان نه را رخصتېدلم نو دا چې (()) تا ته ګوره ویلي وو که نه مې وو ویلی (()) اوس چېرته یو څه وخت تېراوه بس سړی ته را ځه دا یو ګېنټه یوه نیمه ګېنټه ده دا به هم په کښې وایې
[223.345]
هغه سنټر ویلای شو نور داسې خاص فارغت نه ورته لرو نور چې بېرته سکول کښې سبق ووایو یا مدرسه ووایو
[230.845]
<no-speech>
[232.275]
نه خبر یم
[233.465]
<no-speech>
[234.405]
هو
[235.135]
<no-speech>
[238.195]
هو صحیح ده
[239.285]
<no-speech>
[240.895]
هو داسې دوه مشران زما شته او یو کشر شته <breath>
[244.885]
<no-speech>
[246.595]
هو
[247.445]
<no-speech>
[250.485]
یاره والله نه یې دي کړي تر دا اوسه پورې <no-speech> هغه یو چې دی افغانستان کښې دی یه دا یو دلته خاص کار یې نه دی جوړ دا وایي ته ودرېږه یو وار کار جوړ کړو او هغه بل تللی دی افغانستان هغه نو دا مشر چې دی ده مخه نیولې دی اوس <laugh> نو ده ته مو اوس سترګه ده د ده کار جوړ شو نو باره بیا نور هم ور پسې وکړي له خیره
[269.045]
<no-speech>
[271.755]
هو الله مهربانه دی <no-speech> هو هو
[274.695]
<no-speech>
[275.575]
تاسو نور داسې <no-speech> <hes> نوره څه <hes> سکول یا شی وایئ که یه
[280.045]
<no-speech>
[285.665]
ښه ښه ښه <no-speech> یاره نوم مې اورېدلي دي دا په کوم ځای باندې دی <hes> لیدلي مې ګوره دي او که نه دي
[292.075]
<no-speech>
[295.565]
هو
[296.125]
<no-speech>
[298.695]
صحیح شو دا مسجد کښې دي هو
[300.595]
<no-speech>
[304.005]
بیا مې نو لیدلي دي هو پام مې نه دی پرې کړی لیدلی مې دی بیا نو
[307.875]
<no-speech>
[311.965]
هو هو
[312.925]
<no-speech>
[314.415]
ښه کوم سبق وایي په کښې <no-speech> پښتو فارسي
[317.905]
<no-speech>
[320.765]
پښتو وایئ
[321.735]
<no-speech>
[328.215]
ښه ولې دا دغه ته نه را ځې دا کوم یو ورته وایي دا دا ستاسو د کور څنګ ته دا کوم یو دی حضرت بلال
[335.215]
<no-speech>
[338.055]
هو دا فارسي هم وایي ور ته وایي پښتو هم ور ته وایي ګرده زبانونه ور ته وایي
[342.435]
<no-speech>
[343.655]
او دلته دې ټایم هم پاس کېږي
[345.525]
<no-speech>
[351.545]
<hes> نو ولیدل یار فارسي ښه زبان دی ښه وي سړی یې زده کړي
[355.305]
<no-speech>
[358.875]
<laugh> <no-speech> نه شې زده کولای دغه څه زمونږ د وطن زبانونه دي پښتو او فارسي
[365.305]
<no-speech>
[367.725]
هو باید دواړه زده شي
[369.365]
<no-speech>
[374.105]
<no-speech>
[374.475]
<no-speech>
[375.785]
<laugh> <sta> ښه والله ما چې خپله وخت درلودل ما دا بلال کښې شروع کولو <no-speech> دلته د سړي ټایم پاس کېږي
[383.735]
<no-speech>
[388.525]
هو
[389.325]
<no-speech>
[393.745]
هو
[394.415]
<no-speech>
[395.905]
هو وبه یې ګورو هلته هغه دی که نه
[397.985]
<no-speech>
[403.795]
هو دا هم ښه خبره ده <no-speech> دا هم ښه خبره ده سړی به ور شي هلته
[408.605]
<no-speech>
[409.495]
اوس یې دلته ویلي که هلته ویلي <no-speech> خلک وایي چې د هغه ځای ډېر ښه سبقان دي
[413.925]
<no-speech>
[419.905]
هو هغه وایي اخبار دی که چې شی اخبار هم ور ته وایي بک هم ور ته وایي غزل هم ور ته وایي <laugh> یوه یوه غزله هم ورته وایي (())
[428.275]
<no-speech>
[430.605]
<laugh> <no-speech> والله که چې دا به اوس څنګه غزلې وایي چې ور شې اول وار غزل در ته وایي <no-speech> ځه حیران یم چې دا به څه حساب وی (()) غزلې غواړې ته پرې
[442.545]
چا را ګډوئ
[443.575]
<no-speech>
[446.945]
<no-speech> هو
[447.685]
<no-speech>
[453.325]
<laugh> <no-speech> ښه <laugh> یعنې مونږ (()) هم نه شو ویلای دا هم ښه خبره ده باره به یو څه شی وکړو خو به ورته پاڅم دغه به ور ته وایم
[463.185]
<no-speech>
[464.915]
زمونږ نو څه شی ځي <laugh> ښه ښه اوازونه مو دی ته ودرېږه منځ به یې وګورو <no-speech> زه خپله بس ګانې ور ته وایمه هر رقم ګانه چې غواړي غوښتي وي ور ته وایم
[475.285]
<no-speech>
[477.195]
<no-speech> بس ور ته وایمه چې ته باره مازې کښېنه <laugh>
[481.475]
<no-speech>
[484.415]
<laugh> هسې بس هغه سردار علي ټکر اواز سره په را خطا کړم <laugh>
[491.085]
<no-speech>
[491.925]
<hes> داسې یو شی ور ته وایه
[493.975]
<no-speech>
[495.515]
<no-speech> د دغه سره خو هم لګیا یې
[498.035]
<no-speech>
[500.615]
<no-speech>
[501.045]
<no-speech>
[502.285]
<no-speech> <laugh> بس زه دغه در ته وایمه هم په دغه اواز کښې ور ته وایه
[507.065]
<no-speech>
[508.315]
<no-speech>
[508.875]
<no-speech>
[512.014875]
ذبیح خو والله د سهار راهیسې داسې دنیا سره لګیا دی داسې انټرویوګانې کوي <laugh>
[516.775]
<no-speech>
[520.784875]
<no-speech> هو
[521.485]
<no-speech>
[524.945]
هو هغه به ور ته واخلو (()) را سره کوي خو دی را ته وایي <hes> ځان را ته وپېژنه یا ته به داسې یا هغسې زه هم بس دا ده چې ستا نه یو نمبر را کړه
[535.925]
<no-speech>
[541.085]
هو <no-speech> هو صحیح خبره ده
[543.875]
<no-speech>
[546.705]
<no-speech> هو
[547.615]
<no-speech>
[548.425]
<no-speech> ما ور ته وویلې ما ویل داسې نه چې (())
[551.295]
<no-speech>
[556.665]
هو هو والله چې د ماسپښینه را سره لګیا دی خپل تعارف یې را ته وکړه <no-speech> وایي زه د استاد نظر ورور یمه ولي
[565.005]
<no-speech>
[566.565]
<no-speech>
[566.955]
<no-speech>
[569.445]
<no-speech> ښه
[569.995]
<no-speech>
[571.475]
ښه <laugh> هو دا صحیح دی
[574.385]
<no-speech>
[579.755]
<laugh> والله دا سوچ به کوي
[583.085]
<no-speech>
[584.245]
دا خبره ده
[585.575]
<no-speech>
[589.395]
<no-speech>
[589.765]
<no-speech>
[590.975]
هو
[591.645]
<no-speech>
[593.345]
<no-speech> هو
[594.155]
<no-speech>
[595.265]
یاره ډېر ښه مېسجونه هم کوي
[597.085]
<no-speech>
[600.06]
