[0.0]
<no-speech>
[4.075]
<no-speech>
[4.445]
<no-speech>
[6.525]
<no-speech>
[7.285]
<no-speech>
[8.425]
<no-speech>
[9.375]
<no-speech>
[10.225]
ښه یم ته څنګه یې
[12.645]
<no-speech>
[15.854875]
کور کښې ټول ښه دي مور دې پلار دې <no-speech> نیا دې نېکه دې ټول ښه دي <int>
[27.555]
<sta> ښه دي ټول ښه دي <sta> مکتب ته ځئ
[39.535]
<sta> <hes> امتحانونه دې خلاص شو
[44.675]
<no-speech>
[47.955]
بال پېن واخېسته
[49.225]
<no-speech>
[50.535]
<hes> بال پېن واخېسته
[52.355]
<no-speech>
[55.655]
څووم نومره شوې
[56.735]
<no-speech>
[60.435]
<no-speech>
[61.945]
<no-speech>
[63.515]
اول نومره شوې
[64.904875]
<no-speech>
[68.235]
<no-speech>
[68.585]
<no-speech>
[69.985]
(())
[70.785]
<no-speech>
[78.095]
(())
[79.695]
<no-speech>
[81.945]
<no-speech>
[82.555]
<no-speech>
[84.915]
او شایمه
[86.925]
<no-speech>
[90.355]
او سمیر را ځي
[92.045]
<no-speech>
[94.415]
سمیر
[95.025]
<no-speech>
[102.055]
د هغې یواځې بیل ده
[103.685]
<no-speech>
[105.865]
<hes> اوس را ځي مکتب ته
[108.175]
<no-speech>
[109.545]
<no-speech>
[111.815]
<no-speech>
[113.465]
او استادان مو پوره دي
[114.925]
<no-speech>
[116.675]
(()) بل څوک راغله <click>
[119.945]
<no-speech>
[122.735]
(()) بل څوک راغله بله معلمه
[125.635]
<no-speech>
[130.535]
<hes> درس صحیح ښودلی شي
[132.785]
<no-speech>
[140.235]
هو هو مدینې السلام علیکم مونږ ته یې دومره درس ښودلی وو <breath> (())
[148.275]
<no-speech>
[153.625]
<no-speech>
[154.175]
<no-speech>
[156.515]
هغې یو دري اخېستلې وه
[158.005]
<no-speech>
[160.195]
<no-speech>
[161.465]
<no-speech>
[162.715]
مینه <hes> اخېستلې دري
[164.325]
<no-speech>
[165.375]
او غنچې د مدینې مضمونونه اخېستلي
[168.785]
<no-speech>
[172.415]
<no-speech>
[173.025]
<no-speech>
[174.285]
او د مدینې په ځای څوک راغلې
[177.165]
<no-speech>
[181.275]
هغه درس ښودلی شي صحیح
[183.005]
<no-speech>
[184.485]
<no-speech> لایق ده
[186.495]
<no-speech>
[189.245]
<hes> دوولسم صنف ته یې هم ښایې
[192.075]
<no-speech>
[193.705]
<no-speech>
[195.025]
<no-speech>
[200.225]
د <no-speech> د څووم صنف ښایې
[203.135]
<no-speech>
[206.015]
<no-speech>
[206.385]
<no-speech>
[208.975]
نهم هم نه ښایې
[210.295]
<no-speech>
[213.025]
هو هو غنچه څووم
[214.595]
<no-speech>
[221.535]
<hes> هغې ته یې دوولسم ور کړی
[223.345]
<no-speech>
[224.655]
<no-speech>
[225.085]
<no-speech>
[229.065]
هو ښودلی یې شي
[230.305]
<no-speech>
[235.655]
<no-speech>
[236.345]
<no-speech>
[244.135]
څنګه یې رخصتي کښې چېرته تللی وې
[245.925]
<no-speech>
[250.935]
<hes> څو شپې دې وکړې
[252.445]
<no-speech>
[256.135]
<hes> چېرته دی کور یې
[258.445]
<no-speech>
[260.804875]
<no-speech> ماشومان یې شته
[264.855]
<no-speech>
[267.015]
<sta> <hes> ښه وران وران دي
[272.845]
<no-speech>
[273.985]
<no-speech> په تنګه شوې خو نه وې هلته <sta> <no-speech> وایې خراب ځای دی
[283.835]
<no-speech>
[285.735]
<hes> <sta> هغوی خو تاسو کره نه وو راغلې
[290.545]
<no-speech>
[292.835]
<no-speech>
[293.545]
<no-speech>
[295.115]
<no-speech>
[295.635]
<no-speech>
[297.585]
ښه څو شپې یې وکړې <sta>
[301.875]
<no-speech>
[303.255]
<no-speech>
[304.075]
<no-speech>
[306.855]
ښه ولې څوک مریض وو چې راغلې وو
[309.405]
<no-speech>
[314.225]
<no-speech>
[316.115]
<no-speech>
[317.635]
<sta> ښه
[319.765]
<no-speech>
[320.715]
<no-speech> اپرېشن ور له <hes> اپرېشن ور له چېرته وکړو
[328.015]
<no-speech>
[329.625]
<no-speech>
[330.075]
<no-speech>
[331.055]
نه کومه شفاخانه کښې یې وکړو
[333.075]
<no-speech>
[337.155]
ښه هلته لایق لایق ډاکتران دي
[340.545]
<no-speech>
[344.545]
ډېرې پیسې یې اخېستلې
[345.935]
<no-speech>
[350.275]
<hes> بیا ښه شوې وو
[352.005]
<no-speech>
[354.985]
<no-speech>
[355.525]
<no-speech>
[359.365]
<no-speech>
[359.775]
<no-speech>
[363.025]
ستا کامیابه شو که نه
[364.475]
<no-speech>
[366.095]
<no-speech>
[366.925]
<no-speech>
[367.935]
<no-speech> ستاسو کور کښې د نورو هم شوې دی که نه د ورور دې هم شوې
[372.435]
<no-speech>
[377.825]
او ستا نه شو کامیاب
[379.225]
<no-speech>
[382.635]
<no-speech>
[383.005]
<no-speech>
[383.815]
<no-speech>
[384.375]
<no-speech>
[385.365]
اسانه وي که سخت
[386.895]
<no-speech>
[388.365]
<no-speech>
[389.885]
<no-speech>
[391.915]
بې‌هوښه کوي نو بیا خو خلکو ته نه معلومېږي
[396.055]
<no-speech>
[397.365]
<no-speech>
[397.835]
<no-speech>
[399.925]
<hes> تاسو کوم هغه ډاکتر کړئ
[402.635]
<no-speech>
[407.355]
<no-speech>
[407.975]
<no-speech>
[411.235]
<hes> نور څوک څوک تللې وو تا سره چارسدې ته
[414.275]
<no-speech>
[418.905]
<no-speech>
[419.425]
<no-speech>
[422.265]
<no-speech>
[422.895]
<no-speech>
[424.865]
پلار دې هم تللې وو در سره
[426.595]
<no-speech>
[429.165]
<hes> خو بیا خو بیا بېرته راغلی یې کور ته
[432.035]
<no-speech>
[436.125]
<hes> ورور دې څنګه دی دوکان ته ځي
[438.875]
<no-speech>
[442.825]
<hes> سودا خرڅېږي که نه
[445.615]
<no-speech>
[449.845]
<hes> هغه بل ورور دې مکتب ته ځي
[452.005]
<no-speech>
[456.975]
<hes> څووم صنف کښې دی
[458.715]
<no-speech>
[462.565]
<hes> امتحانونو کښې څووم نومره شو پارټي ورکړه ور ته
[466.515]
<no-speech>
[469.845]
<no-speech>
[470.715]
<no-speech>
[471.665]
څه
[472.215]
<no-speech>
[473.705]
شپږم نومره شو
[475.015]
<no-speech>
[476.175]
<no-speech>
[476.525]
<no-speech>
[477.915]
<hes> او بل خورګانو دې مکتب خلاص کړې
[481.155]
<no-speech>
[485.075]
<hes> معلمان دې که نه
[487.165]
<no-speech>
[491.205]
<hes> کور کښې دي
[493.375]
<no-speech>
[495.765]
مدرسې خو نه وایې بس کور کښې بېکاره وي
[498.365]
<no-speech>
[500.175]
<no-speech>
[500.575]
<no-speech>
[506.815]
ښه ته کورس ته خو نه ځې
[508.775]
<no-speech>
[512.245]
ښه
[512.834875]
<no-speech>
[514.394875]
زه هم <hes> زه هم کمپیوټر کورس وایم
[517.235]
<no-speech>
[523.865]
<no-speech>
[524.434875]
<no-speech>
[525.835]
زه بیا اې_ډبلیو_ډبلیو_ډي ته ځم کابل سنټر ته نه ځم
[529.835]
<no-speech>
[531.885]
بل کورس دی هلته ابدره روډ کښې دی هلته ځمه زه
[535.745]
<no-speech>
[537.925]
دومره لایق استاذ مو دی
[539.805]
<no-speech>
[547.345]
فارغ یې
[548.195]
<no-speech>
[549.155]
ښه زمونږه هم زمونږه هم سړی دی
[552.315]
<no-speech>
[553.765]
<no-speech>
[554.125]
<no-speech>
[558.685]
درس دې زده کړې څه
[560.325]
<no-speech>
[564.705]
بېګنر کلاس کښې یې که لېوال ون کښې
[566.805]
<no-speech>
[570.265]
ښه
[570.665]
<no-speech>
[572.945]
<no-speech>
[573.485]
<no-speech>
[574.555]
اول مکتب ته ځې بیا هغه ځای نه به کورس ته ځې
[577.175]
<no-speech>
[586.325]
ښه
[586.825]
<no-speech>
[588.34]
