[0.0]
<no-speech>
[3.035]
<no-speech>
[4.695]
هلو السلام علیکم
[7.675]
<no-speech>
[10.375]
وروره شي یې
[13.945]
<no-speech>
[17.025]
الحمدلله روغه جوړه یم ته څنګه یې کور کښې کرار ده
[21.385]
<no-speech>
[22.935]
الحمدلله
[24.305]
<no-speech>
[25.375]
څنګه یې
[25.995]
<no-speech>
[27.225]
والله چې اوس ښه یم دا مخکېني حالات نه اوس ډېره ښه شوې یم
[31.695]
<no-speech>
[34.455]
<no-speech>
[34.825]
<no-speech>
[35.905]
الحمدلله تاسو ښه یئ ته خو مې بیا پوښتنې ته هم را نه غلې
[40.195]
<no-speech>
[46.255]
ښه
[47.025]
<no-speech>
[58.515]
ما خو ویل چې ته به دې سر درد سره او دوکان سره اموخته شوی یې مړه
[63.285]
<no-speech>
[65.335]
سر درد او دوکان سره
[67.245]
<no-speech>
[69.195]
ځکه چې ته خو ډېر په عذاب کړی یې په کلونو کلونو دې د سر درد ته پام دی
[75.425]
<no-speech>
[76.515]
<no-speech>
[76.875]
<no-speech>
[80.465]
<no-speech>
[80.945]
<no-speech>
[82.225]
ځه خدای دې (())
[83.825]
<no-speech>
[84.665]
الحمدلله بس خیروخیریت دی
[87.075]
<no-speech>
[90.685]
<no-speech>
[91.045]
<no-speech>
[97.115]
والله زه خپله هم ډېره په تمه وم خبره شوې وم وایي دوی در ځي داسې په تمه وم چې دا دوه درې ګنټې انتظار خو مې وباسلو
[105.615]
<no-speech>
[107.055]
بیا مو پته را ونه لګېدله بیا ښه وو دېخوا ته چې ډاکتر صاحب چې راغلو بیا خبره شولم چې هغه خو بېرته دغه شوی (())
[114.425]
<no-speech>
[115.315]
<no-speech>
[115.695]
<no-speech>
[120.565]
ښه
[121.195]
<no-speech>
[131.195]
<no-speech>
[132.115]
<no-speech>
[133.675]
اوس خو یخني هم ده که نه د یخني وجه نه هم ګاډي کښې سي_اېن_جي نه وي (())
[139.765]
<no-speech>
[141.375]
همدغه چې
[142.245]
<no-speech>
[153.155]
نه ښه وو الحمدلله ښه ده چې هغو راغلو ګنې ستاسو په تمه به (()) او هغو به هم نه ول راغلي بیا به مې بېخي سر مات شوی وو
[161.795]
<no-speech>
[168.485]
ځه ښه دا نن نه (()) سبا به شي بله ورځ به شي د خیره سره (())
[173.965]
<no-speech>
[176.615]
<no-speech>
[177.585]
<no-speech>
[178.495]
<no-speech>
[178.905]
<no-speech>
[181.535]
الحمدلله ټول ښه دي څنګه ده نیا مې څنګه ده ښه ده ترور مې ښه ده (())
[187.165]
<no-speech>
[193.795]
پښه دې څنګه دې خپلې دوایي سره دې لږ فرق نه دی شوی
[197.465]
<no-speech>
[205.855]
<no-speech>
[206.265]
<no-speech>
[207.065]
<sta> ښه بس خیر دی دا خو را ځي په کښې که نه همدغه را ځي زندګي ده بس تېروو به یې څه به کوو
[218.595]
<hes> (()) دوکان ته را وړي (()) څنګه خفه وم ما ویل (()) واړه هم را سره دي سخته شي بېخي که نه
[228.925]
<no-speech>
[230.475]
<no-speech>
[230.975]
<no-speech>
[233.715]
<hes> <sta>
[235.375]
<no-speech>
[236.265]
څنګه
[236.745]
<no-speech>
[238.595]
اوس <hes> تېلېفون یې کړی وو
[241.805]
<no-speech>
[243.425]
تېلېفون کوي درې څلور ځلې ورځ کښې تېلېفون کوي خبر مو اخلي
[250.535]
<no-speech>
[253.825]
نه اوسه پورې لا نه دی تللی
[256.685]
<no-speech>
[260.765]
<no-speech>
[261.135]
<no-speech>
[262.715]
بس والله چې پیسې ډېرې خوږې دي
[267.245]
<no-speech>
[269.095]
<no-speech>
[270.195]
<no-speech>
[273.615]
<cough> هغه وایي دغه وخت دی د دې نه پس بیا بوډا کېږم او وایي بیا به ګټي پسې چېرته ګرځم څه
[284.595]
ځامن خو مې نه شته یو ورځ (()) بس (()) ګټم ځان ته بودیجه جمع کړم
[293.515]
<no-speech>
[295.015]
<no-speech>
[295.605]
<no-speech>
[297.325]
نه بچت خو نه دی دلته زه یم که نه نو بچت ته خو یې نه پرېږدم
[302.315]
<no-speech>
[305.165]
او صرف ګټې ته یې پرېږدم چې ته یې کوه ګټه کوه او ماته یې را وړه
[309.755]
<no-speech>
[312.235]
<hes>
[313.095]
<no-speech>
[316.025]
هغه ګټه د هغه ده <no-speech> ما ویل ګټه
[318.995]
<no-speech>
[320.725]
ما ویل
[321.215]
<no-speech>
[323.415]
ما ویل ګټه ته کوه زه به یې در ته (()) خیر دی
[326.965]
<no-speech>
[330.245]
او ما ویل زه به یې در ته (()) او ته یې ګټه
[334.695]
<no-speech>
[340.605]
امین
[341.385]
<no-speech>
[344.755]
د را تګ
[346.855]
<no-speech>
[350.845]
او والله چې دې له یو میاشت پس ورسته را ځم او یو میاشت ورسته را ځم دا دویمه میاشت ده
[358.125]
<no-speech>
[358.945]
<no-speech>
[359.465]
<no-speech>
[364.335]
<no-speech>
[364.915]
<no-speech>
[370.635]
بس ښه یو دا هم ښه یې وروره داسې یې چې انسان ور سره اموخته شي لږ ښځه تکړه کېږي ور سره که نه هر طرف ته یې پام یې
[378.805]
<no-speech>
[385.735]
(())
[386.655]
<no-speech>
[390.895]
ځه خدای پاک دې ورحمېږي د خیره سره اراده مو کړې ده د خیره سږکال د خیره یو ځل چې د خیره سره مزار ته لاړه شمه هم هغلته کور نیسم د خیره
[401.495]
<no-speech>
[405.905]
<no-speech>
[406.295]
<no-speech>
[409.855]
هلو
[410.535]
<no-speech>
[412.075]
او وو رزق او روټي الله تعاله هر ځي کښې انسان ته رسوي خو د هغه خپل فکر او سوچ یې دی نو
[419.535]
<no-speech>
[427.015]
زه خو الحمدلله اوس ښه یم او واړه هم ښه دي شکر دی واره خو نه دي مریضان دوایي مې هم شروع کړې ده د هغې سره مې لږ فرق شوی دی
[435.975]
<no-speech>
[438.885]
هو والله چې زما هم ستا غوندې <foreign> ده که نه دغسې بس یو ځل مې د سینې مرض را وپارېږي بیا خو نه سمېږم چې ښه یو درې میاشتې دوه میاشتې مې تیر کړی نه وي
[449.455]
<no-speech>
[457.445]
<hes> الحمدلله ښه دی چې شته را سره چې په ځان یې ولګوو چې دومره پسخاک کښې غورځېدلې وم او دغه به هم نه وای را سره بیا هغه سخته وه شکر دی شکر دی
[469.435]
<no-speech>
[476.135]
څنګه تللی وې چا بابا ته تللی وې مېچنۍ ته تللی وې هلته ټول ښه وو
[480.775]
<no-speech>
[483.185]
ما ویل چا بابا ته تللی وې مېچنۍ ته تللی وې هلته ټول ښه وو
[487.105]
<no-speech>
[494.975]
<no-speech>
[495.365]
<no-speech>
[503.79]
<no-speech>
[512.215]
او وو خبرېدی شم خبرېدی شم هغه سمې خټې دي انسان په کښې یو ځلې ونښلي بیا نه شي را وتلی ترې
[519.105]
<no-speech>
[521.805]
خو خیر ته خو لږ دغه خوندي یې ورته هغو ته د ټینګې نه یې داسې خلکو سره بیا خلک چل کوي
[528.105]
<no-speech>
[531.235]
<no-speech>
[531.725]
<no-speech>
[536.235]
او نیکه ته دې څنګه وو نیکه دې ښه وو
[539.175]
<no-speech>
[542.905]
<no-speech>
[543.595]
<no-speech>
[548.515]
کابل ته خو به داسې زر نه ځې د خیره خو که نه
[551.395]
<no-speech>
[554.245]
<no-speech>
[554.765]
<no-speech>
[556.495]
او کومه یوه خور دې بوځې د ځان سره
[559.455]
<no-speech>
[562.975]
کوم یوه بوځې
[564.375]
<no-speech>
[567.895]
ښه ځه ښه ده چې لا معلومه نه ده ګنې یوه معلومه وي بیا بله خفه کېږي چې بله معلومه وي بیا بله خفه کېږي
[575.545]
<no-speech>
[582.655]
(())
[583.915]
<no-speech>
[584.825]
نو اتفاق در سره وکړي
[587.785]
<no-speech>
[592.915]
وو او ستاسو مکتبونه خو به لا نه وي شروع شوې که نه
[596.135]
<no-speech>
[600.02]
