[0.0]
<no-speech>
[0.585]
<no-speech>
[1.015]
<no-speech>
[2.005]
<no-speech>
[3.385]
<no-speech>
[4.445]
<no-speech>
[4.805]
<no-speech>
[6.985]
<no-speech>
[7.775]
<no-speech>
[9.855]
<sta> ښه دي شکر هلو څنګه یې ښه یې ستا مور او پلار څنګه دي فامیل ستا څنګه دي وروڼه خوریان ټول ښه دي خپله څنګه یې ښه یې
[18.735]
<no-speech>
[22.535]
<no-speech>
[24.415]
<no-speech>
[25.985]
<no-speech>
[26.395]
<no-speech>
[30.025]
<no-speech>
[30.375]
<no-speech>
[32.315]
<sta> ښه دي شکر ټول ښه دي ته څنګه یې ښه یې فامیل نه احوال اخلې ښه یې ښه دي ټول
[38.705]
<no-speech>
[41.485]
<no-speech>
[41.855]
<no-speech>
[42.765]
<no-speech>
[43.225]
<no-speech>
[46.405]
<no-speech>
[47.345]
<no-speech>
[48.945]
<no-speech>
[52.815]
<no-speech>
[53.945]
<sta> زمونږ <no-speech>
[56.875]
<no-speech>
[57.695]
<no-speech>
[58.505]
<no-speech>
[59.425]
<sta> هو زمونږ ډېر زیات فامیل چې ده جلل‌آباد کښې ده دلته بېخي نه شته ده که نه صرف مونږ یو او څو څو فامیله نور دي او ماماګانو مې ټول شکر تعلیم کړي ده ښه ده وروڼه مې هم کړي ده وروڼه مې اوس سکول کښې ده دواړه وروڼه مې
[71.015]
<sta> او ماماګانو مې ټولو تعلیم کړي ده هو زیات تره ټول افغانستان کښې ده زمونږ فامیل
[77.165]
<no-speech>
[78.265]
<no-speech>
[78.665]
<no-speech>
[81.495]
<sta> او هو مونږ ما خپله تعلیم کړي ده او اتم صنف کښې یم اوس <no-speech> سکول وایمه او او اوس پرچې مې شوي دي هو
[93.115]
<sta> څلورم راغلم <no-speech>
[98.695]
<no-speech>
[99.655]
<sta> <no-speech> هو <no-speech>
[111.465]
ولي نه شته ده کاکا مو بېخي نه پرېږدي مونږ <sta> مونږ د هغې نه پټ را ځو مونږ ته وایې تاسو مه ځې پلار مې څه شي نه وایې ولاړ شئ مور مې هم وایې ولاړ شه صرف کاکا مو وایې مه ځې بس هغې وجه نه
[123.415]
<sta> پلار مې وایې وایې لاړ شم
[125.005]
<no-speech>
[125.935]
<no-speech>
[132.485]
<no-speech>
[133.315]
<sta> او <no-speech>
[145.085]
<sta> او او پلار خو مې <no-speech> <hes>
[153.915]
<no-speech>
[155.235]
<sta> <no-speech> او که نه <hes>
[164.475]
<no-speech>
[166.655]
<sta> او <no-speech> او که نه مونږ کاکا مې بېخي نه پرېږدي
[178.485]
<no-speech>
[180.105]
<no-speech>
[181.115]
<sta> هو <no-speech>
[187.345]
<no-speech>
[188.315]
<sta> هو <no-speech>
[196.465]
<no-speech>
[197.735]
<sta> <no-speech> نه ورونو ته مې څه شي نه وایې جینکیانو زمونږ لږ ډېر قید ګیره فامیل ده که نه وایې نه پوهېږي جینکیاني <hes>
[207.675]
اتمه پورې نور نور فامیل مو چې وګورې اتمه پورې جینکیانې <sta> وایې نور یې وباسي یا لسمه پورې اتمه پورې نیمه کښې پرېښې ده مونږ هم اتم کښې یو مونږ ته وایې تاسو ووځې هغې نه پټ را ځو سکول ته نه مو پرېږدي صحیح هو
[219.665]
<no-speech>
[221.055]
<sta> <no-speech> او وایې تاسو میعاد دي خلاص ما ویل خیر دې پرېږده چې دا دوولسم خو ووایو که نه بیا دا لسم خو ووایو که نه چې څه خو پوه شو ور باندې خو نه مو پرېږدي
[232.645]
<no-speech>
[234.285]
<no-speech>
[235.495]
<no-speech>
[237.435]
<sta> او که نه مونږ ورته ویل ما ویل خیر ده مونږ ورته ویل ما ویل خیر ده څ- څلور کاله دي چې دا هم ووایو <hes> بیا خیر دې نور څه شي نه معلمي کوو نه بل څه کوو هم دا دوولسم
[248.775]
پوره ووایو نه مو پرېږدي <sta> <no-speech>
[253.895]
<no-speech>
[255.345]
<sta> <no-speech> او
[266.695]
<no-speech>
[267.895]
<no-speech>
[269.585]
<no-speech>
[270.355]
<no-speech>
[271.855]
<sta> ولي نه کوښښ خو کوو چې مونږ پرېږدي <no-speech>
[280.275]
<no-speech>
[281.405]
<sta> <no-speech> کاکا مې څوک وغواړي
[283.725]
<no-speech>
[284.625]
<sta> <no-speech> هو ولي نه شته
[291.375]
<no-speech>
[294.025]
<no-speech>
[296.305]
<no-speech>
[297.885]
<sta> نه زما خپله ماما ګانې مې په خارج کښې دي عمه مې خارج کښې ده ټول خارج کښې دي مو لکه نیم فامیل مو خارج کښې ده که نه خو نه غواړي څوک که نه داسې ده
[309.625]
<sta> نه که نه نه غواړي دا خپله نه غواړي چې لاړ شي که نه کابل کښې کار کوې یو میاشت بل میاشت باندې را ځې خو چې هغه را ځې هم مونږ سکول ته
[321.465]
هم مونږ سکول ته را ځو سکول وایو <sta> <no-speech>
[330.795]
<no-speech>
[331.815]
<sta> <no-speech> او <no-speech> او
[343.435]
<no-speech>
[350.495]
<no-speech>
[351.465]
<no-speech>
[354.195]
<no-speech>
[355.165]
<sta> <no-speech> او او <no-speech> او که نه
[366.475]
<sta> دا خو ډېر سخت کار ده <no-speech>
[375.535]
<no-speech>
[377.205]
<no-speech>
[388.575]
<no-speech>
[390.105]
<no-speech>
[390.945]
<no-speech>
[396.785]
<no-speech>
[399.695]
<sta> <no-speech> او ولي نه <no-speech>
[411.295]
<no-speech>
[415.885]
<no-speech>
[417.085]
<sta> <no-speech> او <no-speech>
[428.995]
<no-speech>
[439.775]
<no-speech>
[440.605]
<sta> <no-speech> <hes> نه نه هغه مونږ بیا هغسې نه اخلو <no-speech> او
[452.565]
<no-speech>
[459.525]
<no-speech>
[460.895]
<no-speech>
[461.285]
<no-speech>
[463.145]
<sta> ښه او
[466.815]
<no-speech>
[467.715]
<no-speech>
[469.045]
<no-speech>
[469.855]
<no-speech>
[471.535]
<no-speech>
[473.765]
<no-speech>
[475.735]
<no-speech>
[477.345]
<sta> <no-speech> ښه
[479.185]
<no-speech>
[480.275]
<sta> <no-speech> <breath> او او ښه سهولت په کښې ده <breath>
[488.905]
<no-speech>
[490.295]
<sta> <no-speech> <hes> او
[499.425]
<no-speech>
[500.575]
<sta> <no-speech> هو ولي نه شته ښه ښه د سپورټ ځای هم ج دا ده درس ځای هر ځای ج دا ده ښه سهولت په کښې ده صحیح درس هم معلمان ښییو یې
[510.015]
<no-speech>
[510.975]
<no-speech>
[522.875]
<sta> <no-speech> نه ډېر ښه استادان دي او ښه درس هم ورکوې او ښه ښه درس ورکوې او سم صحیح صحیح سبق ښییو یې
[534.735]
<no-speech>
[537.515]
<no-speech>
[538.885]
څنګه <sta> <no-speech> او ولي نه پوهېږو ښایسته سبق ورکوې ښه صحیح ښه استادان دي صحیح سبق ورکوې او پوهېږو ور باندې مونږ هم چې درس را کوې
[550.695]
<sta> <no-speech> او <no-speech>
[562.155]
<no-speech>
[563.015]
<no-speech>
[565.535]
او <sta> <no-speech>
[576.885]
<no-speech>
[584.245]
<no-speech>
[585.555]
<no-speech>
[591.045]
<no-speech>
[593.235]
<no-speech>
[594.185]
<no-speech>
[595.665]
<no-speech>
[599.735]
<no-speech>
[600.08]
