[0.0]
<no-speech>
[0.825]
<sta> هلو <no-speech>
[3.265]
<no-speech>
[4.645]
وعلیکم السلام څنګه یې خیریت دی <no-speech>
[8.314875]
<no-speech>
[9.235]
نه
[9.665]
<no-speech>
[10.675]
<sta> ښه یې جوړ یې تکړه یې نا جوړه شوی خو نه یې کور کښې خېریت دی علاقه کښې کلي کښې وخت ښه تېرېږي ملګري ښه دي <no-speech> <hes> ستا څنګه یې
[21.995]
<sta> برابر یې نور څه خو شته نه نو ته ته څنګه یې
[24.705]
<no-speech>
[25.565]
<sta> غټ خو مو نه دی کړی کور خیریت دی سره <no-speech> ملګري څنګه دي
[30.175]
<no-speech>
[32.725]
<sta> یاره ښه دی لګیا دی
[34.435]
<no-speech>
[36.185]
<no-speech> چېرې <no-speech> څه کوې <no-speech>
[47.655]
<no-speech>
[48.955]
<no-speech>
[49.895]
<no-speech>
[51.115]
<no-speech>
[62.885]
<no-speech> ښه نو ولې خو مجیب له صدیق چې ور کړو هغه به وي
[68.515]
<no-speech>
[70.835]
<no-speech>
[71.515]
<no-speech>
[72.385]
<sta> <no-speech> <hes> ښه <no-speech> نو خو
[80.225]
<no-speech>
[81.995]
<no-speech>
[82.445]
<no-speech>
[83.685]
څنګه رحمت <click>
[85.295]
<no-speech>
[87.735]
یه ما ته یې نه دي داسې خاص را کړي هو <hes> پرون یې را کړي وو یو دوه وارې مېسېج را کړی وو بیا یې داسې دوه مسکال را کړل <int> ما کار نه دي کړي والله مېسجونه مې ډیلیټ کړل ماښام یې هم بیا مسېج را کړی وو چې څو دې وکړل ما ما مسېج ډیلیټ
[99.655]
کار نه را تلو دغلته
[100.685]
<no-speech>
[102.195]
<no-speech>
[103.085]
<no-speech>
[104.645]
<no-speech> هو بس <hes> ښه ده ګزاره کوي
[110.905]
<no-speech>
[117.075]
<no-speech>
[119.775]
<no-speech>
[121.175]
ما والله که یو هم په چا کړی وي پخپله مې ټول وکړل
[124.245]
<no-speech>
[125.065]
<no-speech>
[126.815]
<no-speech>
[129.595]
<no-speech>
[129.965]
<no-speech>
[133.205]
<sta> ما ټول شیان په خپله کړي <no-speech>
[137.285]
<no-speech>
[139.485]
<hes> <sta> هو اول څه پوهېږي <laugh> <no-speech>
[149.415]
<int> یاره دلته نه دوه ورځې ګڼېږه پرون همداسې ښه غوندې وو <int> او نن ورځ برابره ده
[155.755]
<no-speech>
[158.175]
<no-speech>
[159.015]
<no-speech>
[165.295]
یا دلته بازار کښې یم <click> زما ماما په میډیکل کښې یم <int>
[169.005]
<no-speech>
[169.825]
<no-speech>
[171.925]
<no-speech>
[175.585]
هو هو څنګه ده <int>
[178.015]
<no-speech>
[179.315]
<no-speech>
[179.985]
<no-speech>
[185.295]
<sta> هو هو ډېر ګرمه دې وه ډېره ګرمه <no-speech>
[190.645]
<no-speech>
[191.545]
<no-speech> څنګه <click>
[195.035]
<no-speech>
[196.085]
<no-speech>
[196.985]
<no-speech>
[198.725]
<no-speech>
[200.725]
<no-speech>
[202.415]
هو هم هغسې هلته په کمره کښېناست وي بیا کار نه کوي کله څنګلي کله نه وي <breath> د کمرې چې بهر را ووځې سړی چې بیا کار کوي مکمل
[210.325]
<no-speech>
[211.555]
<no-speech>
[212.465]
<no-speech>
[214.065]
<int> هو بیا که نه هلته کښې ولاړ وي چې هلته نه ب- کمرې بهر را ووځې بیا کار کوي سم <int>
[220.405]
<no-speech>
[221.215]
<no-speech>
[221.565]
<no-speech>
[224.305]
<no-speech> <hes> څنګه
[226.065]
<no-speech>
[229.465]
<no-speech> <breath> <laugh> هو هو دغسې ده ښه هلته غږ ثبت کوي <int>
[236.775]
<no-speech>
[238.415]
غرمه <sta>
[239.465]
<no-speech>
[241.385]
یاره نن به (()) سره نور څوک وو هغه ص- صنف کښې وو ماما ځوی زما صنف ته تللی ما ویل چې را <no-speech>
[248.835]
<no-speech>
[249.675]
او هغه یې تېلېفون را سره وشو ویل چېرې یې ما ور ته ویل ما ویل زه دوبۍ کښې یم لا ویل څه وخت را ځې <sta> ما ور ته ویل ما ویل سبا یا بله ورځ بیا در سپرېږم در ځم <int> میلاوټ یې کوم بیا لا دښمن بیا در ځم <hes> هوکې
[261.394875]
ویل لا نه یې راغلی ما ور ته ویل ما ویل یه <int> ویل یې لا زه خو نن در چکر کېږم ماسپښین مازیګر <no-speech> سبا یا بله ورځ ویل بیا در رسېږم کویټې ته هو
[271.345]
<no-speech>
[273.185]
<hes> ته ما هلته پرېږده بس بیا ته را ځه <no-speech> څنګه <int>
[278.145]
<no-speech>
[279.105]
<no-speech> یه نو خو <hes> تللی وم هغه شپه چې هغه بل تاسو کره هلته وم داسې لس زره (()) بیا ما تېلېفون را وکړ ویل چېرې یې ما ویل زه لور لایی کښې یم
[290.975]
<int> لږ داسې بهر را شه خور به دې را رسولې وه کویټې ته <int> کویټې کښې مو شپه کړې وه بیا تللې وئ سنده ته دې هغه رسولې وه کور ته سنده خوا ته هو کور دې سنده خوا ت دی <int>
[301.125]
<breath> هلته رسولې دا دوه درې شپې دې ورور سره کړې وې اوس به نن روانېږي <click>
[305.105]
<no-speech>
[309.015]
<no-speech>
[309.365]
<no-speech>
[314.855]
بس د دې مو نه یم داسې خاص ور سره لږ یاره والله کښې بد وي ځان نه خود فلم دی اصلي فلم دی اصلي
[319.905]
<no-speech>
[320.945]
نه یم تللی <int>
[322.155]
<no-speech>
[326.505]
د کوم یو شوق مو اوس یو وارې بوکا بولي بیا به مو شوق چېرې وکړي <no-speech>
[332.635]
<no-speech>
[333.815]
ښه هو نو
[334.855]
<no-speech>
[340.525]
ډېر ډېر ډېر ډېر
[343.425]
<no-speech>
[344.805]
<no-speech>
[348.235]
<no-speech>
[351.985]
<no-speech>
[352.375]
<no-speech>
[353.815]
<no-speech>
[354.185]
<no-speech>
[359.215]
<no-speech>
[359.615]
<no-speech>
[361.555]
یاره اوس هم فټبال کوي هلته
[363.735]
<no-speech>
[375.455]
<no-speech> پرون لاړم هغه د
[378.385]
<no-speech>
[380.705]
پرون لاړم ډورې له بس لاړم بلوک‌لوسی خوا ته لاړم چکر مې وواهه نو بیا بېرته راغلم چې را تللم هغه مازیګر ماښام وو هو
[388.885]
<no-speech>
[390.215]
<no-speech>
[390.785]
<no-speech>
[391.935]
نو تا هغه خیرن ته ولې لاس میلاو کړ
[393.905]
<no-speech>
[401.805]
<no-speech>
[402.415]
<no-speech>
[406.095]
<sta> ولې
[407.655]
<no-speech>
[408.565]
<no-speech>
[409.075]
<no-speech>
[411.305]
<no-speech>
[411.935]
<no-speech>
[413.705]
<no-speech>
[414.845]
<no-speech>
[417.505]
څوک <int>
[418.095]
<no-speech>
[420.375]
<no-speech>
[421.255]
<no-speech>
[423.905]
<no-speech>
[424.505]
<no-speech>
[430.675]
<no-speech>
[431.255]
<no-speech>
[432.555]
<no-speech>
[432.915]
<no-speech>
[437.395]
<no-speech>
[438.455]
<no-speech>
[440.905]
ښه
[441.715]
<no-speech>
[444.425]
<no-speech> دغه دی وایي ستا ویل څه پاتي دي <int>
[448.535]
<no-speech>
[454.405]
<no-speech>
[454.925]
<no-speech>
[457.285]
<no-speech>
[457.775]
<no-speech>
[465.895]
<no-speech>
[466.705]
<no-speech>
[474.445]
(())
[475.225]
<no-speech>
[481.465]
ښه
[482.315]
<no-speech>
[487.585]
یاره خامخا نو
[488.995]
<no-speech>
[496.135]
<no-speech>
[496.775]
<no-speech>
[499.355]
<no-speech>
[499.915]
<no-speech>
[503.285]
<no-speech>
[503.675]
<no-speech>
[506.045]
<no-speech>
[506.485]
<no-speech>
[508.175]
<no-speech>
[508.565]
<no-speech>
[511.165]
ښه
[511.805]
<no-speech>
[513.894875]
نو بیا لا داسې ده وایي ځه ګوره آی څه کار یې بیا اسدالله ځه تېلېفون کړی وو
[518.454875]
<no-speech>
[519.575]
<no-speech>
[520.454875]
<no-speech>
[521.805]
نو دلته <hes> دغه چېرته کار کوي بیا را ته (())
[525.875]
<no-speech>
[535.16]
<no-speech>
[544.445]
ښه
[545.075]
<no-speech>
[547.915]
ښه ځه صحیح ده
[549.145]
<no-speech>
[550.085]
نو ته چېرې یې دا وخت
[551.265]
<no-speech>
[553.835]
ته چېرې یې
[555.045]
<no-speech>
[559.825]
<no-speech>
[560.405]
<no-speech>
[569.185]
<no-speech>
[570.155]
<no-speech>
[573.845]
<no-speech>
[574.395]
<no-speech>
[578.205]
<no-speech>
[579.345]
<no-speech>
[583.405]
ښه
[583.985]
<no-speech>
[586.385]
څه شی بوس یې ته وړې
[588.115]
<no-speech>
[593.485]
ښه دا خو ګرځي لږ شوده کوي سید نبي دوی <no-speech>
[600.08]
