[0.0]
<no-speech>
[3.525]
<no-speech>
[5.695]
<no-speech>
[6.685]
وعلیکم سلام <lipsmack> څنګه یې باجي ښه یې ښه یم ښه یم ښه ښه دي ټول تاسو څنګه یئ
[17.035]
<no-speech>
[19.215]
ښه ښه دي ته ښه یې
[21.025]
<no-speech>
[23.015]
هلو
[23.645]
<no-speech>
[24.895]
<hes> ښه دې شکر
[27.165]
<no-speech>
[28.565]
تاسو ښه دي ښه
[30.955]
<no-speech>
[31.845]
ښه هغه زما ورور چې درغلی وو
[34.635]
<no-speech>
[36.065]
هغه را رخصت کړی مو نه دی
[38.135]
<no-speech>
[41.425]
دا لا څوک وو <sta> ورور دا بل نن درغلی دی درغلی دی ښه
[48.465]
<no-speech>
[49.445]
ښه
[50.135]
<no-speech>
[51.355]
او ته ته ناسته یې هغوی هم ناست دي
[56.075]
<no-speech>
[58.775]
او هغه ته پته ولګېده چې دې تېلېفون کړی
[61.355]
<no-speech>
[64.005]
ښه ځه ووځه بهر ووځه
[65.585]
<no-speech>
[68.745]
ښه ځه شکر
[69.885]
<no-speech>
[71.035]
ښه ښه صحیح ده څنګه یې نور خور دې څنګه ده ښه شوې نه ده
[77.445]
<no-speech>
[80.535]
<lipsmack> ښه ښه هم هغسې ده هو
[84.075]
<no-speech>
[87.185]
هغه هم ښه ده ټول ښه دي
[89.235]
<no-speech>
[90.085]
<no-speech>
[90.455]
<no-speech>
[91.525]
او زه ولله نه یم ښه که نه
[93.465]
<no-speech>
[98.245]
کوم دې نو <lipsmack> کوم علاج
[102.555]
<no-speech>
[104.835]
ښه <hes> څه علاج دی اوس را ته ووایه که نه
[108.955]
<no-speech>
[111.575]
ولې
[112.355]
<no-speech>
[114.925]
<hes> ووایه <hes> په تمه دې کړم
[118.815]
<no-speech>
[120.355]
<hes> ولې
[121.285]
<no-speech>
[122.275]
څوک
[123.015]
<no-speech>
[127.145]
نه نه نه نه ده تللې
[129.015]
<no-speech>
[131.215]
او او ما زه اوس تللي وم <hes> دا نن ځي کېدلی شي نن نه نن ځي کور ته
[137.985]
<no-speech>
[140.065]
او او
[140.955]
<no-speech>
[143.005]
دوه د ورور ښځه مې وه که نه
[146.435]
<no-speech>
[148.925]
او د مصباح ښځه وه
[151.145]
<no-speech>
[153.275]
د مصباح
[154.495]
<no-speech>
[156.855]
د قرآن‌شریف
[158.095]
<no-speech>
[161.065]
او
[161.655]
<no-speech>
[164.155]
د هغه ځای نه
[165.185]
<no-speech>
[168.895]
<hes> مصباح
[170.355]
<no-speech>
[173.745]
<lipsmack> ختم مې وکړو او ولې تا ختم نه دی کړی
[179.535]
<no-speech>
[183.755]
او ولله ودې ویلي دا چې څوک دغه کوي دا څه شی ورته وایي
[188.435]
<no-speech>
[190.315]
<hes>
[192.395]
<no-speech>
[195.365]
هغه دغه
[196.905]
<no-speech>
[198.475]
او <lipsmack> هغه جامې چې مو مینځلې
[201.075]
<no-speech>
[202.725]
هغه جامې چې مو مینځلې
[204.405]
<no-speech>
[205.285]
او هغې کښې د
[206.815]
<no-speech>
[207.795]
هو هو <laugh>
[209.455]
<no-speech>
[210.515]
<no-speech>
[211.145]
<no-speech>
[214.875]
را
[215.435]
<no-speech>
[217.125]
<no-speech>
[217.835]
<no-speech>
[219.185]
<laugh> ښه <hes>
[223.395]
<no-speech>
[226.745]
<lipsmack> او قسم په خدای ما دې وویلې ما ویل واپس څوک ما خو دې سره ګپ لګولو
[234.395]
<no-speech>
[237.555]
<no-speech>
[238.245]
<no-speech>
[241.665]
ښه ښه مریم دې یاده کړه وه
[243.905]
<no-speech>
[245.505]
ښه <lipsmack>
[247.335]
<no-speech>
[248.725]
<lipsmack> ځه ښه دی
[251.375]
<no-speech>
[252.845]
او څنګه چل دې ښه <lipsmack>
[255.515]
<no-speech>
[256.835]
<lipsmack> ښه نور څوک خو نه شته
[260.065]
<no-speech>
[264.585]
ښه
[265.105]
<no-speech>
[267.585]
ښه ښه ښه
[268.565]
<no-speech>
[273.665]
مونږه ولې خیر خو دی
[275.215]
<no-speech>
[276.835]
کله
[277.395]
<no-speech>
[278.235]
بلکل
[279.255]
<no-speech>
[280.705]
نه ولې در ځو په کومه خوشحالۍ کښې په
[283.455]
<no-speech>
[284.585]
چې خوشحالي ده در کره <hes>
[287.045]
<no-speech>
[289.415]
چې خپله خوشحالي خو وشي که نه ودرېږه چې هلک او نجلۍ چای ته به در شو که نه
[294.495]
<no-speech>
[297.795]
نورې
[298.485]
<no-speech>
[299.995]
<lipsmack> وو ولله خو ته همداسې راغلې که نه داسې مې زړه خفه وو ما ویل ته اوس دې ته وګوره که نه داسې وخت کښې راغله او بیا لاړه
[307.525]
<no-speech>
[312.565]
بیا نه را ځې
[313.525]
<no-speech>
[316.105]
کله
[316.715]
<no-speech>
[318.215]
نه شته څوک که نه نه شته
[319.625]
<no-speech>
[320.885]
<hes>
[322.035]
<no-speech>
[326.535]
ښه
[327.075]
<no-speech>
[328.095]
دې ولې ژړل او او نو دې ولې ژړل چې بس ترې لاړو
[331.015]
<no-speech>
[333.715]
قاري لالا او
[335.425]
<no-speech>
[338.655]
ښه
[339.275]
<no-speech>
[340.385]
ښه
[341.035]
<no-speech>
[342.185]
نو هلته تاسو چې کور جوړ کړې بیا به ځئ ورته
[345.065]
<no-speech>
[348.775]
مونږ هلته خپل کور جوړو خیر به شي
[350.995]
<no-speech>
[355.645]
<hes> زه چې اوس در شم دومره غټه یم چې نه را ځم دې ځای کښې
[361.135]
<no-speech>
[363.965]
<no-speech>
[364.695]
<no-speech>
[366.085]
<hes> خدای دې مړه کړه <lipsmack> مستقیم مستقیم نه شته کښېنه خوب دی
[372.045]
<no-speech>
[375.645]
<hes>
[376.175]
<no-speech>
[378.945]
<hes> خدای دې مړه کړه <hes> چپ شه چپ شه لیونۍ یې <laugh> نه <foreign> <hes>
[386.755]
<no-speech>
[390.435]
<no-speech>
[390.815]
<no-speech>
[396.885]
نو ولې زه به دومره ډېرې شپې تاسو کره کوم
[399.125]
<no-speech>
[401.365]
<hes> او تاسو ته
[403.985]
<no-speech>
[405.515]
<hes>
[406.135]
<no-speech>
[408.565]
<hes> <lipsmack>
[410.305]
<no-speech>
[412.065]
ښه
[413.045]
<no-speech>
[418.805]
<hes> هغه نه شته خوب دی خوب
[423.175]
<no-speech>
[427.305]
بیا به را ته ووایې خوب دی که نه
[429.085]
<no-speech>
[431.535]
او دا ته خوب وینې نه <lipsmack> <hes> ښه <lipsmack>
[438.435]
<no-speech>
[439.465]
هو
[440.995]
<no-speech>
[443.155]
ښه
[443.825]
<no-speech>
[449.505]
ښه <hes>
[450.905]
<no-speech>
[452.765]
<hes>
[453.465]
<no-speech>
[455.835]
ښه
[456.395]
<no-speech>
[458.605]
نو بله نه شته
[460.165]
<no-speech>
[466.645]
زه
[467.255]
<no-speech>
[469.465]
او فضیله چېرته ده
[470.985]
<no-speech>
[474.985]
ښه
[475.805]
<no-speech>
[483.055]
خبرې کوم <lipsmack> نو ته را ته زه خطرناکې خبرې کوي غلې دې کړم <lipsmack>
[489.585]
<no-speech>
[491.565]
<hes>
[492.165]
<no-speech>
[493.365]
دا خبرې خو خوږېدې خپلې خبرې کوو بیا دا خوږې دي د ځان ښه یم داسې یم غټه شوې یم جوټه شوې یم
[502.705]
<no-speech>
[504.165]
او
[504.605]
<no-speech>
[505.595]
او او اوس هم ټوخېږې
[507.835]
<no-speech>
[511.705]
ښه <lipsmack>
[512.755]
<no-speech>
[514.305]
ښه <laugh> دا وو بس چې ستا صحت <hes>
[518.475]
<no-speech>
[523.665]
او نه نو هغه مو ولې نه را پرېښودو څومره ډېر وخت یې تیر کړو
[527.475]
<no-speech>
[529.345]
ورور مې
[530.385]
<no-speech>
[531.425]
<hes> او دوه شپې یې وکړي
[534.215]
<no-speech>
[538.805]
ښه ویي ویل که نه بیا مونږ به هم در ځو تاسو ته به نږدې یو تاسو کره به نه در ځو <lipsmack> نه او نیکه ته مې در ځم
[547.905]
<no-speech>
[549.065]
لکه نیکه دادا کره نیکه دادا کره او باړې ته راغلې یې
[554.225]
<no-speech>
[555.865]
بس باړې ته بیا ځو که نه
[557.665]
<no-speech>
[559.655]
او
[560.485]
<no-speech>
[561.395]
ګاډي ته ښه
[562.675]
<no-speech>
[564.945]
وایم پرون لږ دا ختم وو که نه
[567.125]
<no-speech>
[568.485]
او ښایسته هغه جامې مې واخېستلې هغه دا چې ورته د کوچیانو جامې ویلي
[573.555]
<no-speech>
[575.425]
او صاحبه او بس هر شې مېکپ وو <hes>
[580.355]
<no-speech>
[582.195]
<hes>
[582.745]
<no-speech>
[585.585]
ولې
[586.305]
<no-speech>
[588.875]
<no-speech> ښه دا
[590.705]
<no-speech>
[593.685]
او او او
[594.765]
<no-speech>
[596.905]
<hes>
[597.475]
<no-speech>
[598.595]
او
[599.105]
<no-speech>
[600.04]
