[0.0]
<no-speech>
[6.295]
هلو
[6.975]
<no-speech>
[8.105]
<hes> بي_بي ښه یم بي_بي څنګه یې
[10.995]
<no-speech>
[15.395]
ښه دي خدای دې وبخښه دغه څنګه ده <hes> یاسمین مور یې
[20.115]
<no-speech>
[23.825]
ببۍ څنګه ده
[25.255]
<no-speech>
[26.855]
ټول ښه دي وعلیکم السلام دغه دی څه ور ته وایي هغه ځوی یې څنګه دی اوس ګرځي که نه
[32.965]
<no-speech>
[36.785]
کښېناستی نه شي
[38.155]
<no-speech>
[42.975]
ور ته وایه ویې‌ګرځوئ که نه چې لږ وګرځېږي ور ته وایه په ګرځېدو یې را ولئ
[47.555]
<no-speech>
[51.085]
<no-speech>
[52.085]
<no-speech>
[53.625]
<hes> څنګه دی
[55.565]
<no-speech>
[56.565]
ښه دی
[57.365]
<no-speech>
[58.265]
<sta> ټول ښه دي
[59.645]
<no-speech>
[61.995]
<sta> ښه ده تسلیمه هم ښه ده ته ببۍ دوی کره تللې وې پروین ببۍ دوی کره
[67.415]
<no-speech>
[68.315]
او څو شپې به کوې کله به را ځې <sta>
[72.355]
<no-speech>
[76.715]
چا <int>
[77.555]
<no-speech>
[78.795]
<no-speech>
[79.555]
<no-speech>
[80.825]
<no-speech>
[82.145]
<no-speech>
[83.115]
<no-speech>
[83.685]
<no-speech>
[84.485]
<int> ښه نه بخمل هغه (()) سره چې بخمل وو
[88.445]
<no-speech>
[90.045]
<no-speech>
[91.175]
<no-speech>
[92.235]
ښه ور ته وایه بخمل هم را ولېږه
[94.535]
<no-speech>
[95.625]
<no-speech>
[96.665]
<no-speech>
[97.495]
هو ما ور ته ویلي وو <hes> شا ګلې هغې ویل په هغې باندې تنګ دی که لنډ دی څه شی یې وویل ویل په تا به ښه جوړ وي
[104.595]
<no-speech>
[105.995]
<hes> وایي ښایسته کار یې پرې کړی دی <hes>
[108.855]
<no-speech>
[111.965]
<int> ذاهد واده به یو دوه میاشتې بعد وي
[114.995]
<no-speech>
[117.285]
(()) خو خلاصې شي که نه غریبي ده
[120.015]
<no-speech>
[121.815]
<no-speech>
[122.185]
<no-speech>
[123.395]
وایې‌خله که نه جامې واخله جامې اخېستل ښه دي
[126.465]
<no-speech>
[129.965]
ښه دي ټول ښه دي ببۍ دوی سره خبرې نه کوم <laugh>
[132.705]
<no-speech>
[135.085]
<no-speech>
[135.445]
<no-speech>
[136.845]
<laugh> ښه نور
[138.875]
<no-speech>
[141.695]
<laugh> ښه <laugh>
[145.405]
<no-speech>
[149.665]
ښه سمیر مازدیګر هم یادولې ویل بي_بي مې یادېږي وایي (()) ور کره مې بوځئ <breath> هغه حسین راغلو چې حسین راغلو کلک یې را ونیولو
[160.055]
<no-speech>
[161.195]
وایي (()) ژر کوه بي_بي ته مې بوځه هغه ور ته ویل بي_بي خو نه شته په پېښور کښې ده که نه بس پېښور ته مې ور ته بوځه
[166.865]
<no-speech>
[171.685]
وعلیکم السلام زما السلامونه هم پرې کوه <laugh>
[174.625]
<no-speech>
[177.305]
ښه نور
[178.095]
<no-speech>
[181.025]
هو اوس ماښام حسین ولاړ ور ته مې وویل ډوډۍ وخوره بیا ولاړ شه وایي نه ځم موړ یې زړه ته مې نه کېږي او هغه بله ورځ <hes> ملکي جانه یې ور ته پخوي
[191.705]
<no-speech>
[196.005]
هغه تاسو کره دوه وو دلته اوس یوه شپه یې دلته اوس کېدلی شي را شي هلته تسلیمې ور ته ډوډۍ کړې
[202.165]
<no-speech>
[204.455]
<no-speech>
[205.105]
<no-speech>
[207.775]
نه سبا ته که دغې حسن شاه لالا دوی کره ځي او بل سبا ته بیا سبا غرمه به یې هلته وي ماسپښین کښې به بیا ځي پېښور ته
[215.635]
<no-speech>
[217.945]
نه وو تللي ور کره هغه ور پسې نه وو راغلی اوزګار نه وو <int>
[222.555]
<no-speech>
[223.555]
هو
[224.275]
<no-speech>
[228.665]
نه هغه خو دلته ښه شو مړې هغه ځای نه چې راغی داسې (()) یې خاته دلته سړی روغ او جوړ شو
[234.705]
<no-speech>
[237.405]
یخني نه هلته (()) هم شیدو چای هم څښي دلته شین چای مو ور سر کړی دی لږ یې سینه پرې را ښه شوه مه اچوه پوستکي وهمه دې ښه دغه دی عادلې ماڼۍ دوی کره تللې وې
[248.955]
<no-speech>
[252.555]
هغه څنګه وه بچي یې څنګه وو
[254.315]
<no-speech>
[257.365]
ښه نور هغه دغې دوی <hes> حسین <hes> خبره به دې ور ته کړې وه که نه فاتح ګل دوی ته
[264.285]
<no-speech>
[265.545]
حسین ته ښځه نه کوې
[266.925]
<no-speech>
[269.045]
<no-speech>
[269.695]
<no-speech>
[271.605]
<no-speech>
[272.275]
<no-speech>
[273.475]
<no-speech>
[273.935]
<no-speech>
[278.015]
<sta> چا ته افغانستان ته مو چا ته ځواب لېږلی
[281.955]
<no-speech>
[282.845]
<sta> پرېږده مړې افغانستان‌مفغانستان دلته به دې دوی ته ویلی وی که نه
[287.835]
<no-speech>
[289.705]
<no-speech>
[290.265]
<no-speech>
[293.725]
نه فاتح ګل ماما ته دې ونه ویلې
[295.825]
<no-speech>
[298.575]
<no-speech>
[298.975]
<no-speech>
[300.515]
ښه
[301.185]
<no-speech>
[302.845]
<laugh> <hes> د صبر‌ګل ببۍ څنګه ده ماما خو به اوس ناروغه کېږي نه
[310.425]
<no-speech>
[315.415]
<hes> ښه <no-speech>
[319.255]
<no-speech>
[320.885]
او دغې د رحیمې ببۍ اوس همدلته دي
[323.305]
<no-speech>
[327.165]
او دغې د څه ور ته وایي همېشه ګل کومه یوه خو نه وه راغلې
[331.045]
<no-speech>
[336.625]
او دغه <hes>
[337.955]
<no-speech>
[338.915]
<no-speech>
[339.355]
<no-speech>
[341.365]
د چا واده دی
[342.465]
<no-speech>
[352.175]
ښه او د شازیه خو څه خبر نه را ځي
[355.225]
<no-speech>
[362.735]
ښه څه شی یې کړي دي
[364.335]
<no-speech>
[373.635]
اوس خو یې خواښې هم مړه شوه بیا همداسې
[376.115]
<no-speech>
[379.915]
واده خو یې وایي شوی دی که نه
[381.735]
<no-speech>
[388.365]
دا څه شی ټکوې
[389.275]
<no-speech>
[390.225]
ښه <hes> بس دی <laugh>
[393.545]
<no-speech>
[399.505]
ښه
[400.195]
<no-speech>
[402.185]
ښه نور
[402.955]
<no-speech>
[404.685]
<no-speech>
[405.295]
<no-speech>
[407.455]
<no-speech>
[407.845]
<no-speech>
[411.835]
<no-speech>
[413.255]
<no-speech>
[414.445]
<no-speech>
[419.025]
<no-speech>
[425.355]
بخمینه څو شپې کوي <sta>
[429.275]
<no-speech>
[430.235]
<sta> <hes> نو چې هغې خاوند کله هغه راوسته خو ته به هم ور سره راغلې وې
[435.805]
<no-speech>
[438.005]
<no-speech>
[442.815]
<no-speech>
[444.035]
<no-speech>
[444.835]
<no-speech>
[446.495]
<no-speech>
[447.835]
<no-speech>
[449.165]
ښه
[449.815]
<no-speech>
[452.145]
ښه ښه نور <int>
[453.795]
<no-speech>
[463.275]
<hes> وایې‌خله ور سره تورور سره را ته واخله څه رقم رنګ کښې کمیس یې کړی
[467.355]
<no-speech>
[469.655]
<hes> ښه ځه صحیح ده وایې‌خله <sta> ښایسته رنګ ور سره هما- ببۍ <hes> ته ووایه هغه په ټوټو ښه پوهېږي
[479.095]
<no-speech>
[484.255]
<laugh> ښه
[486.025]
<no-speech>
[488.375]
ښه ځه صحیح ده نو
[489.485]
<no-speech>
[499.305]
<hes> څو روپۍ پرې لګولي
[502.315]
<no-speech>
[512.585]
تا سره نه شته چې ور یې کړې
[514.184875]
<no-speech>
[518.215]
ښه ښه ځه صحیح ده ځه بیا چې څوک تللو احمد شاه خو جومه کښې یو وار خامخا ځي بیا به یې ور ولېږم
[524.055]
<no-speech>
[529.935]
اسمان نن شین وو (()) ویستلې
[532.085]
<no-speech>
[533.885]
کاني چې
[534.645]
<no-speech>
[535.475]
کاني چې ایساره هم ده پیسو ته ایساره ده وایي پیسې را ته را کړئ
[539.015]
<no-speech>
[543.475]
یاسین وایي السلامونه مې پرې کوه
[545.675]
<no-speech>
[549.215]
هو ځي
[550.425]
<no-speech>
[555.495]
<no-speech>
[556.135]
<no-speech>
[565.245]
ته <hes> ته یې بند کړه بیا زه یې در ته پسته وایم
[567.535]
<no-speech>
[572.685]
ښه ځه صحیح
[573.645]
<no-speech>
[576.145]
<no-speech>
[576.795]
<no-speech>
[580.955]
نه زه ور ته کافي یم
[582.805]
<no-speech>
[586.025]
ما نه نه دي تېرې
[587.635]
<no-speech>
[590.755]
پرېږده یې
[591.685]
<no-speech>
[593.475]
هغه پرېږده هغه چې چېرته ده هلته زه هم بیا ور ځم
[597.015]
<no-speech>
[599.585]
<no-speech>
[599.865]
<no-speech>
[600.1]
