[0.0]
<no-speech>
[4.315]
هلو السلام علیکم
[5.865]
<no-speech>
[10.125]
خیر دی جي ټیک‌ټاک تاسو وایئ
[12.255]
<no-speech>
[17.215]
(())
[19.245]
<no-speech>
[20.735]
دا څه وایې دا <sta>
[23.045]
<no-speech>
[30.365]
کوم دی مړه غرق شوو یاره
[32.165]
<no-speech>
[34.365]
نو بس دغه خبره ده (()) او موږ چې په چالان کښې هغه را ته ګوري نه نو بس ځان ته زړه خورو
[41.565]
<no-speech>
[44.615]
<no-speech>
[45.185]
<no-speech>
[46.075]
<breath> <laugh> نور څه وخورو <breath> نور څه وخورو نور خو څه نه شته که نه
[51.145]
<no-speech>
[54.525]
<breath> نه <laugh> یاره
[56.365]
<no-speech>
[57.755]
<no-speech>
[58.275]
<no-speech>
[60.055]
<no-speech>
[61.125]
<no-speech>
[62.025]
<no-speech>
[62.615]
<no-speech>
[64.865]
اوس په پیسو باندې نه دی پیسه را ته را ځي نه دله مال <laugh> او په تاسو باندې باران دی او په تاسو باندې باران دی د هر طرف نه را ځي <sta>
[76.855]
<sta> لکه دا د باران در باندې را ورېږي
[79.435]
<no-speech>
[81.785]
<laugh> نو وګوره <laugh> <breath> خدای پاک دې په مونږ همدغه رحم وکړي نو
[85.955]
<no-speech>
[88.995]
<laugh> یاره دېخوا بل شان (()) دی په موږ باندې سپېشل صرف په موږ باندې
[95.595]
<no-speech>
[96.685]
هو <laugh> والله سوچه په مونږ <breath> چې سوچه په مونږ باندې <int>
[102.195]
<no-speech>
[103.575]
<laugh> قاید قایداعظم بابا دغه
[108.085]
<no-speech>
[109.105]
قایداعظم بابا دغه ماشین را سره وي که نه اوس بس تش یې را ته جوړوي
[112.965]
<no-speech>
[116.645]
<laugh> نه که نه چې سوچه بس هر څه خپل کار وي
[120.995]
<no-speech>
[122.535]
*هو* <laugh> *هو* *هو* *خپل* *کرو* *کې* *او* *په* *خپله* *یې* *رېبو* *چې* *هر* *څه* *د* *خپله* *لاسه* *وی*
[128.265]
<no-speech>
[132.125]
<laugh> ځه بس خیر دی لږ ډېر تاسو سره به هم اخوا دېخوا کوو که نه
[138.105]
<no-speech>
[139.665]
هو هو
[140.645]
<no-speech>
[143.115]
<no-speech>
[143.475]
<no-speech>
[145.655]
نه یاره <int>
[147.515]
<no-speech>
[149.185]
<no-speech>
[149.765]
<no-speech>
[153.335]
زما سره به لکه دغه یو وي <hes>
[155.205]
<no-speech>
[156.825]
<no-speech>
[157.205]
<no-speech>
[158.695]
<no-speech>
[159.295]
<no-speech>
[161.395]
<no-speech>
[161.955]
<no-speech>
[166.655]
هو هو
[167.385]
<no-speech>
[172.215]
ښه ښه ښه
[173.155]
<no-speech>
[176.465]
<no-speech>
[176.945]
<no-speech>
[178.275]
بس
[178.905]
<no-speech>
[181.875]
<hes> نو بیا
[182.995]
<no-speech>
[187.755]
ښه
[188.275]
<no-speech>
[190.845]
هو
[191.435]
<no-speech>
[193.595]
د یو فارم
[194.695]
<no-speech>
[198.205]
<laugh> یاره <laugh> *چمچې* په کښې وهئ که نه <breath> ځان ته په کښې (()) وهئ دغلته که نه <laugh>
[211.405]
<no-speech>
[212.235]
<laugh> <breath> <sta> ځه مړه
[217.035]
<no-speech>
[218.075]
<no-speech>
[218.885]
<no-speech>
[220.265]
<breath> <hes> نه خیر دی که نه وایم
[222.755]
<no-speech>
[227.845]
<no-speech>
[228.215]
<no-speech>
[229.015]
بس ځه بیا صحیح ده مړه <hes> دغه هم زمونږ <laugh> قبول وي
[232.365]
<no-speech>
[234.475]
<no-speech>
[234.845]
<no-speech>
[235.755]
<laugh> او بس تاسو به په وچه وچه پنج سو پنج سو واخلئ <hes> <laugh> ځه مړه خیر دی هو هو ستاسو نه ګران
[246.895]
ګرانې نه دي دغه <foreign> روپۍ <breath>
[249.165]
<no-speech>
[251.335]
<no-speech>
[252.045]
<no-speech>
[256.115]
هغه خو په لسو منټو کښې مړه په شپه کښې نه <breath>
[259.734875]
<no-speech>
[260.775]
<breath> کوم دی <breath>
[263.105]
<no-speech>
[264.285]
<breath> <laugh> <int> ټیوب و- ټیو- ټیوبویل به وي او په دوه حصو کښې به تقسیم وي نیم به یو نالۍ یو نالۍ به ستاسو طرف ته وي یو به زمونږ طرف ته وي
[274.415]
<no-speech>
[275.945]
<no-speech>
[276.695]
<no-speech>
[277.625]
<no-speech> بس کار به توله وي
[279.485]
<no-speech>
[282.045]
<laugh> بس نه هغه سر به پرې ور کښېږدې که نه
[286.255]
<no-speech>
[287.065]
<laugh> نه نه مړه د دغه ضرورت به په کښې نه را ځي
[294.765]
<no-speech>
[300.545]
<no-speech>
[301.175]
<no-speech>
[305.765]
ښه په سطحه اوس کاروبار دی
[308.175]
<no-speech>
[311.615]
<no-speech>
[313.615]
<no-speech>
[316.975]
<hes> لکه بس همدردي مو را سره شته <hes> <breath>
[321.855]
<no-speech>
[323.305]
<laugh> هو بلکل ولې نه
[326.445]
<no-speech>
[330.225]
بس تش په <no-speech> اي- ایمرجنسي کښې به ور ته کال کوو تش <hes>
[334.155]
<no-speech>
[336.865]
هو هو بس تشې خبرې دي <hes>
[339.015]
<no-speech>
[341.295]
<hes> لکه کاته به منځ کښې بدله وي
[344.725]
<no-speech>
[348.995]
نو شی به اخلي نو بس کار ټولوي <hes> بس ټیوبویل به بیا بدلېږي که نه هماغه به وي <no-speech> که نه بند به وي <int> ټیوبویل به بیا بند وي که نه هماغه به وي یا به کیسه‌میسه وي بدلېږي به
[360.255]
<no-speech>
[363.835]
<no-speech>
[364.465]
<no-speech>
[368.365]
ښه لکه بیا به <foreign> به شي
[371.515]
<no-speech>
[374.695]
<no-speech>
[375.045]
<no-speech>
[377.355]
هو
[377.975]
<no-speech>
[379.355]
بلک- هو بلکل به ګران وي
[381.755]
<no-speech>
[384.945]
<hes> بلکل
[387.185]
<no-speech>
[389.955]
او بجلي هم نه وي نو بیا به بتري هم تشه وي نو دا به څه کوو
[392.795]
<no-speech>
[393.775]
<no-speech>
[394.135]
<no-speech>
[396.165]
نه را روانه ګرمي ده
[398.095]
<no-speech>
[402.155]
<laugh> او دا تا تاسو څه کیسه را اخېستې وه زاهد پسې
[407.555]
<no-speech>
[409.035]
زاهد
[409.545]
<no-speech>
[410.565]
<laugh> هو که نه دغسې ګاډي پسې چیاسي پسې دی که وهي
[414.595]
<no-speech>
[415.895]
<laugh> (())
[417.085]
<no-speech>
[418.335]
<laugh> هو که نه چیاسي را وباسي
[421.455]
<no-speech>
[426.085]
ښه هو هو
[428.095]
<no-speech>
[429.255]
<no-speech>
[430.105]
<no-speech>
[433.715]
<no-speech>
[434.325]
<no-speech>
[435.325]
ښه <laugh> ما ویل ځئ که نه ویل یې بېګاه له نه ورځو وایي سبا له به ور شو
[439.095]
<no-speech>
[441.185]
هو <hes> ځه
[442.465]
<no-speech>
[443.305]
ځه مړه
[444.065]
<no-speech>
[446.945]
<hes> بس اوس به تاسو ته پروت وي
[449.135]
<no-speech>
[450.995]
<no-speech>
[451.345]
<no-speech>
[452.395]
ښه <no-speech> ډېرې (()) وهې یاره
[455.145]
<no-speech>
[458.345]
ښه داغ- داغونه خیر دی خو ډېر یې مه سوځوئ
[461.155]
<no-speech>
[463.365]
داغونو سره هم سړی سیټ کېږي که نه
[465.405]
<no-speech>
[467.855]
هو هو بس دغه بیا صحیح ده <sta> هو هو <hes>
[471.815]
<no-speech>
[474.765]
عثماني خو پروت دی کټ کښې پروت وو <breath> زه خو بهر ته را ووتم
[478.475]
<no-speech>
[480.015]
<no-speech>
[480.395]
<no-speech>
[481.765]
(())
[482.435]
<no-speech>
[485.245]
<sta> عثمان
[486.675]
<no-speech>
[487.985]
نه که نه کوم *ځای*
[489.155]
<no-speech>
[490.575]
دا خو
[491.235]
<no-speech>
[492.235]
نه نه دا خو
[492.995]
<no-speech>
[494.465]
دا خو چې
[495.175]
<no-speech>
[496.125]
<laugh> <breath> دا خو چې سهار ستا دا خو چې سهار تا <foreign> مېسج وکړو ما ویل هلکه دا په ده باندې نن څه چل شوی دی <breath> نو ب- <laugh> <breath>
[508.045]
<sta> <laugh> تا ویل <foreign> که نه نو ما ویل چې څه کیسه‌میسه ده څه لوبه ده
[514.345]
<no-speech>
[515.154875]
څه خو شته (()) تا ویل ګېر شوې ما ویل ځه بیا ګېر شوې <laugh> نه نه ولې مې نه کول مسلمانه نو ته چې نور کله څه ټایم
[527.005]
مېسج وکړې نو هغه ټایم باندې یا زه کالج کښې یم او یا زما موبایل چارج ته پروت وي <breath>
[531.025]
<no-speech>
[532.905]
هو نو بس بیا ناوخته وي بیا داسې ګېنټه نیمه پس ما ویل ځه زه وایم ځه <foreign> به بس اوس به کار شوی وي نو ځکه در ته <foreign> نه کوم <int>
[540.015]
<no-speech>
[540.925]
یاره چې موبایل را سره وي نو بیا خو نېکه تابعدار دا ټیوبویل کښې زموږ حصه ده نو خامخا به بیا ریپلای کوو که نه
[546.755]
<no-speech>
[548.675]
<no-speech>
[549.155]
<no-speech>
[550.345]
<laugh> نو ګوره بس بیا به مې کور کښې ځای نه وي نو <no-speech> هو <sta>
[557.975]
<no-speech>
[561.615]
<hes> زما هغه سره نه لګېږي مړه *پرېږده*
[565.135]
<no-speech>
[570.265]
د هغه نه
[571.065]
<no-speech>
[573.055]
د دې د دې (()) نه که نه نه پوهېږو پرې مړه
[578.525]
<no-speech>
[581.425]
نه که نه نو نو نو لګیا یو بس په خپله لګیا یو را شي وایي هله را شه ژر ژر دا دغه پرون یې هم یو را کړ شی یې میلو کړو وایي هله ژر ژر دا څیزونه ووایه
[589.895]
<no-speech>
[593.875]
<no-speech>
[594.475]
<no-speech>
[595.825]
مړه یاره پرېږده چې هم هغه یې کوي غایه مه
[599.275]
<no-speech>
[600.28]
