[0.0]
<no-speech>
[5.225]
هلو
[5.725]
<no-speech>
[7.635]
هلو
[8.175]
<no-speech>
[11.085]
څنګه چل دې <hes> چېرې لاړې <hes> اورې
[13.495]
<no-speech>
[17.325]
<hes> فدا جان خبرې کوم
[19.235]
<no-speech>
[21.995]
فدا جان خبرې کوم د دوبۍ نه
[23.825]
<no-speech>
[24.705]
اورې <hes>
[25.745]
<no-speech>
[27.855]
جوړ یې څنګه یې ټیپ حاجي څه حال احوال دی ټیپ حاجي وایم څه حال احوال دی ټیپ حاجي څنګه دې ټرت حاجي غرت حاجي ډک حاجي حاجي شونډې حاجي بابړ
[39.435]
حاجي پتنوس <sta> حاجي چاینک حاجي پیاله
[42.225]
<no-speech>
[43.185]
<no-speech>
[43.815]
<no-speech>
[46.705]
<hes> هغه ترورګانې څنګه دي نازکه خونجکه سپوږمی پلمې تر ټک کارټن او دغه څنګه دي
[53.595]
<no-speech>
[60.245]
ډېره
[61.085]
<no-speech>
[62.175]
<no-speech>
[62.905]
<no-speech>
[66.385]
ابې څنګه ده ابې
[67.715]
<no-speech>
[72.785]
<hes> دا څه <laugh>
[74.185]
<no-speech>
[75.505]
<laugh> <hes> کلې کښې هم هغه یو ابې وه هغه هم برقه شوه <laugh>
[80.655]
<no-speech>
[81.885]
<no-speech>
[83.625]
<no-speech>
[85.615]
<breath> ماښام لیټۍ مو ور پسې کړې وه <sta>
[88.155]
<no-speech>
[89.595]
<sta> <no-speech> نه یې مني که نه د وهابي پنج پیري پیاله <breath>
[94.295]
<no-speech>
[97.285]
<laugh> څنګه یې
[100.565]
<no-speech>
[102.975]
څنګه بیا لکه چې تشناب کښېناست یې <hes>
[105.425]
<no-speech>
[111.415]
والله زه ودرېږه دا دغه وکړو دا دا فورمه ډکه کړو بیا ځو
[115.215]
<no-speech>
[120.745]
<no-speech>
[121.445]
<no-speech>
[123.245]
څنګه <hes> <no-speech> ما ویل ته څه وایې
[126.945]
<no-speech>
[132.335]
صحیح ده مورده کش زویه
[134.065]
<no-speech>
[137.775]
زه خو ورته پیسې ورکوم که ته <sta> یې ورکوې که نه یې ورکوې
[140.225]
<no-speech>
[143.495]
مجبور یم نو مجبور یم نو څه مفته خو یې ترېنه نه شو وړې
[146.705]
<no-speech>
[148.715]
<no-speech>
[148.965]
<no-speech>
[151.02]
