[0.000]
<sta> j u t o k g u d n aɪ t g u d n aɪ t <no-speech> j u o ɾ aɪ t h a 
[11.475]
m i p l a s t o p l o d e l ɔɪ t j e <no-speech> n oʊ m i p l a eɪ m j e a s t e a s t e j u p l a w a n e m a s t e j u p l a k a m l o h iɐ t u h a 
[23.245]
m i h a ɾ i m o l s e m j u p l a k a m k a t i m k a m n a ɾ i k o d j a <no-speech> h a n a j u n oʊ s a l i m s a m p l a f l e k s k a m l o m i n a n aʊ j u e k s p e k t i m m i l o s a l i m f l e k s l o j u 
[35.075]
<laugh> j u m a s t ɾ aʊ n d j e j u m a s t ɾ aʊ n d k a m j u m a s t ɾ aʊ n d k a m l o m a n u n a m b aʊ t <no-speech> s t u z eɪ m eɪ m 
[46.035]
<hes> n aʊ eɪ m eɪ m b i g p l a b a g a ɾ a p n a eɪ m s t o p l o h aʊ z <no-speech> eɪ m o l d o l d t o k l o eɪ m b aɪ k a m b a θ eɪ m b a g a ɾ a p <laugh> n a eɪ m s t o p l o h aʊ z h eɪ j u m eɪ k i m w a n e m s t o p <lipsmack> 
[57.635]
oʊ eɪ m <hes> a s t e j u ɾ i n j e j u k a m l o h iɐ n a j u ɾ i n h a <no-speech> w a ɾ i w a ɾ i w a ɾ i s k e l <no-speech> ʃ a m i p l a m i p l a 
[68.805]
j e f oʊ n b l o m i i d aɪ j e <no-speech> f oʊ n b l o m i i d aɪ a s t e 
[75.075]
<no-speech> 
[76.205]
s oʊ eɪ m o l s e m ʃ a i f n o g a t eɪ m b aɪ m i t o k <no-speech> o l g e t a ʃ a o l d o l d l eɪ z j a o l g e t a eɪ m j a d i l o l aɪ n j a o l d t o k l o k a m t a s o l o l d 
[87.445]
<hes> j e h eɪ n a j u m eɪ k i m w a n e m s t o p 
[94.585]
<no-speech> 
[95.795]
k e n s h a k e n s eɪ m m i p l a s t o p w a n t aɪ m j e <no-speech> j e k e n s eɪ m m i t o k m i p l a s t o p w a n t aɪ m 
[102.915]
<no-speech> 
[104.335]
m i p l a k e n s s t o p l o d e l ɔɪ t s 
[108.765]
<no-speech> 
[110.695]
j e k ɾ i s m a s eɪ m o l s e m b i g p l a b i g p l a b a g a ɾ a p j e <no-speech> m i t o k k ɾ i s m a s n a m b aʊ t eɪ m b i g p l a b a g a ɾ a p <no-speech> oʊ eɪ m s t e ɾ e t 
[122.565]
j e j e j e <no-speech> h a eɪ m b aɪ j u o g e n aɪ z j e j u m i i d aɪ <no-speech> aɪ b aɪ m i t o k s a v e l o o l g e t a m a n k i 
[133.925]
o l d b ɾ u k l i n b ɔɪ z j e b aɪ m i b aɪ t o k o l s e m <no-speech> b aɪ m i p l a s a n a p i m w a n p l a eɪ t θ aʊ a z n a m b aʊ t 
[145.525]
<hes> <laugh> b aɪ m i l a f l o s k u l <no-speech> j e ʃ a n aʊ eɪ m s t o p b o ɾ i n n a m i k a m m i k a m n a o l d o l d a s k i m m i l o k a m j e m i t o k ʃ a m i l eɪ z 
[157.155]
m i k i ɾ a p n a t o k m i l eɪ z n a o l d b aɪ i m b u a i s m o k b l o m i n a m i k a m <laugh> 
[169.125]
<no-speech> 
[170.235]
<no-speech> 
[171.065]
<no-speech> 
[171.865]
<no-speech> 
[172.765]
j e o l d m a k e t <no-speech> h aʊ z n a ɔɪ <no-speech> j u j u j u k eɪ n h a ɾ i m m i h a <no-speech> eɪ m w a n e m b u m b o k s p aɪ ɾ a p l o b e k s aɪ t h a 
[184.745]
<laugh> n a h u s aɪ t j e t i ʧ a b ɔɪ j e <no-speech> eɪ m eɪ m a n t a p j e <no-speech> t i ʧ a m a n t j e 
[196.665]
eɪ m t i ʧ l o g ɾ a m a j a <no-speech> h a m i <oov> m i a s k i m eɪ m l o j u n a eɪ m t o k eɪ m i n oʊ l u k i m j u <no-speech> eɪ m t o k j u p l a eɪ m o l d d aʊ n b i l o s t ɾ i t m a n k i 
[208.195]
<laugh> j e eɪ m n oʊ s a ɾ aʊ n ɾ aʊ n j e <no-speech> h u s aɪ t m i 
[219.145]
j e j e m i j u s i m ʃ eɪ m n a m b a j e <no-speech> j e t a s o l o l d l aɪ n w a n e m j e p a s t aɪ m eɪ m f oʊ n b l o m i i d aɪ j e 
[227.795]
<no-speech> 
[229.415]
m a k b l o <no-speech> d i s l a eɪ m m i k e n s j e j e b a ɾ a b e l h a t w o n t j e 
[238.395]
<no-speech> 
[239.775]
<hes> a s t e <no-speech> n a n o g a t m a k e t l o t aʊ n h a 
[250.295]
j u j u p l a b aɪ i m s a m p l a b u a i l o h iɐ t u <no-speech> l o <no-speech> l o a n t a p h a 
[261.465]
oʊ j e s s k e l s k e l <no-speech> oʊ j e <no-speech> oʊ j e eɪ m s t e ɾ e t eɪ m s t e ɾ e t <no-speech> j e 
[273.185]
a s t e eɪ m b aɪ m eɪ k i m b i g p l a ɾ aʊ n d l o m a n u j e <no-speech> j e m i ʤ oʊ n a j e s i n j a b l o j u j e w a n e m n eɪ m b l o j u j e b o s k o n i a n j e 
[285.105]
d i l o j e <no-speech> j e s i n j a b l o j u j e <laugh> j e s o n j e 
[297.045]
b ɔɪ eɪ m k a ɾ i m b u m b o k s ʃ eɪ d n a m i p l a b aɪ ɾ aʊ n ɾ aʊ n n a m b aʊ t n aʊ j e 
[300.355]
<no-speech> 
[301.465]
h a 
[302.325]
<no-speech> 
[304.315]
i z i h a <no-speech> n oʊ j e ʃ a i z i n aʊ eɪ m eɪ m n aʊ eɪ m l i d a j e eɪ m w o k l o k a m a p l i d a t u m a s 
[312.535]
<no-speech> 
[314.115]
o l s e m n a m i p l a w o k l o g i v a p l o eɪ m i z i i z i s t o p <laugh> t u d i s l a k aɪ n d b l o k a m a p l i d a j e <no-speech> o k eɪ eɪ m m a s t 
[325.625]
j e s t o p h a i z i l aɪ n j e 
[337.585]
<lipsmack> m eɪ k i m w a n e m k aɪ n d k ɾ u z n a m b aʊ t <no-speech> j e <sta> 
[349.475]
oʊ n o g a t eɪ m m i p l a k a m j a m i m i h u s aɪ t b aɪ m i s l i p s t o p n a o l d k a m k i ɾ a p i m m i <lipsmack> o l d t o k k e n s p aɪ n i m p aɪ n i m m i s t o p n a m i k a m <no-speech> m i k a m b ɾ o s n a t i n a n t a p g o d aʊ n g o d aʊ n n a w e ɾ i m w a n p l a ʃ e t n a k a m 
[361.415]
h u s aɪ t j e 
[369.185]
<no-speech> 
[370.265]
oʊ j e o l d s t o p <no-speech> v e v e j u n i t j u n i t b l o v e v e j e <no-speech> j e o l d s t o p o l d s t o p o l d s t o p o l d l eɪ z l o g o l o h aʊ z <laugh> v e v e v e v e f l aɪ z <int> 
[382.165]
o l d l eɪ z l o g o l o h aʊ z b l o o l d <laugh> o l d o l d m a s t s k i n i d aɪ l o g o l o h aʊ z b l o o l d j e 
[388.895]
<no-speech> 
[389.775]
v e v e n a k e m k e m n a 
[392.265]
<no-speech> 
[393.475]
o l d s t o p l o ʃ eɪ m h a p t u j e h a <laugh> u m h u m m a n t t aɪ p j e <laugh> o l d t o o l d t o k b e θ d eɪ b l o j u o l d b aɪ k a m j e 
[405.415]
o l d b aɪ k a t i m k eɪ k b l o j u <laugh> o l d t o k b e θ d eɪ b l o j u o l d b aɪ <laugh> k a m k a t i m k eɪ k b l o j u <breath> 
[412.245]
<no-speech> 
[413.095]
<laugh> <laugh> 
[425.015]
<laugh> m i h a ɾ i m o l s e m j u w o k l o k o f i p a n ʧ f e k t ɾ i s t o p 
[430.895]
<no-speech> 
[432.225]
h a t u ɾ u m i h a ɾ i m o l s e m j u w o k l o k o f i p a n ʧ f e k t ɾ i j e 
[436.065]
<no-speech> 
[437.335]
t u ɾ u <laugh> b aɪ m i p l a k i s i m d i s k aʊ n t b o k s k o f i p a n ʧ l o n eɪ m b l o j u t a s o l 
[449.195]
<sta> s t i l i m <no-speech> ʤ i m i g aʊ g e h a <no-speech> n o g a t j e <no-speech> n o g a t n o g a t 
[460.645]
n a o l d i n oʊ k i s i m b i g p l a w a ɾ a l o b ɾ u k l i n 
[465.195]
<no-speech> 
[466.625]
w a n e m j u l aɪ k n aʊ m i t o k n aʊ a v i n u n o l d k i s i m b i g p l a w a ɾ a l o b ɾ u k l i n s t o p 
[472.865]
<no-speech> 
[473.955]
ʤ i m i l aɪ n h a j e b l a k b oʊ n z l aɪ n j e 
[476.815]
<no-speech> 
[478.345]
o l d h o l i m eɪ m j e aɪ s j e n j u p l a w o n t j e s i l v a k eɪ n j e <no-speech> h o l i m j e t n a s a n a p s t o p m i k a m j e t eɪ m o l s e m ʃ e k h a n ʃ e k h a n n aʊ j e 
[490.165]
j e j e <no-speech> b i g p l a b a g a ɾ a p m i θ i n k 
[499.505]
<no-speech> 
[501.005]
j e k i s i m d i s l a n a ɾ a p l a s o l ʤ a b ɔɪ n a j u p l a ɾ aʊ n d k a m <no-speech> ɔɪ eɪ m j e n a ɾ a p l a b a ɾ a t a b l o j u j e i z i i z i 
[512.935]
i z i i z i s o l ʤ a b ɔɪ j e 
[516.055]
<no-speech> 
[517.425]
<sta> j e n a m a n t j e b eɪ s t l o w eɪ t aʊ ɾ a m a <no-speech> h a 
[528.915]
n a eɪ m i n oʊ s a k a m l u k i m f e m i l i b l o eɪ m o l d b u k a l o s e k ʃ e n <laugh> j e eɪ m s a l eɪ t d aʊ n l o o l d <no-speech> j e 
[540.705]
j u t o k j e j u t o k j e <no-speech> j e j u p l a k a m j e 
[552.425]
m i h a ɾ i m s t o p m i h a ɾ i m s t o p j u t o k eɪ m h u s aɪ t b aɪ i m b iɐ j e eɪ m i z i b aɪ i m h a 
[563.455]
w o k l o i z i i z i t u m a s n a <hes> eɪ m ʃ eɪ m h a <hes> m a n k i b l o ʃ eɪ m j e 
[575.055]
<no-speech> 
[577.835]
<laugh> i z i i z i j e j e j e <lipsmack> m i t i n i m m i t i n i m t u d e eɪ m b a t a j e s i k l i k l i k n a m i k a m g o l o h aʊ z 
[589.485]
<no-speech> 
[591.245]
<no-speech> 
[591.6]
