[0.000]
<no-speech> 
[0.075]
h e l o 
[6.835]
ɔɪ j u t o k <no-speech> m i s t o p l o f ɾ a n t b l o s k u l j a 
[18.275]
o l d m i θ i n k o l d t o k <int> b aɪ m i k a m <no-speech> eɪ m j a d i s l a t a s o l m i p l a b aɪ w eɪ t <int> 
[27.775]
<no-speech> 
[29.505]
m i s a n a p w a n t aɪ m f i l o s t o p m aɪ k e l e s k o t i m m i p l a n a m i p l a k a m 
[33.155]
<no-speech> 
[36.135]
<no-speech> 
[36.725]
<no-speech> 
[37.775]
n a b aɪ j u k a m p ɾ e k t i s l o h aʊ z 
[39.965]
<no-speech> 
[42.245]
s a ɾ e ɾ e w a n e m 
[45.135]
<no-speech> 
[45.975]
s a ɾ e ɾ e j u p l a k a m p ɾ e k t i s n a o l s e m w a n e m <no-speech> h a s a ɾ e ɾ e j u p l a k a m p ɾ e k t i s n a h u s aɪ t h u s aɪ t k a m 
[55.105]
<no-speech> 
[56.315]
<no-speech> 
[60.055]
<no-speech> 
[61.295]
k e t s i l aɪ n <no-speech> n a n aʊ n o g a t l aɪ n <no-speech> h a 
[65.935]
<no-speech> 
[67.825]
j e n aʊ s t i l o p h a <no-speech> h a h eɪ m o n i n m i g o a n t a p l o ɾ e n b o 
[77.555]
<no-speech> 
[78.545]
m o n i n m i g o a n t a p l o ɾ e n b o s t o p e n d ʃ a p j a <no-speech> m i k a m b eɪ k n a m i k a l a p l o b u s w a n t aɪ m h u s aɪ t j a ʤ o ʤ i n a l aɪ n j a 
[85.525]
<no-speech> 
[87.125]
n a m i a s k i m l o j u n a o l d t o k eɪ m m a s t s t o p l o h aʊ z ʤ o ʤ i n a 
[95.655]
<no-speech> 
[96.555]
m i a s k i m l o j u n a o l d t o k eɪ m m a s t s t o p l o h aʊ z m i t o k m i w o k l o a s k i m l o p ɾ e k t i s w a n e m a s t e n aɪ t eɪ m n oʊ t o k t o k g u d aɪ m i n m i n oʊ t o k d i s l a p a t 
[105.465]
<no-speech> 
[107.285]
h a w a n e m 
[116.315]
<no-speech> 
[117.745]
m i a s k i m j u a s t e n aɪ t j a m i a s k i m j u l o p ɾ e k t i s j a h a j u t o k <no-speech> w a n e m 
[128.995]
<no-speech> 
[130.965]
f ɾ e n d j u t o k t o k l aʊ d m i h a d l o h a ɾ i m j u m i h a d l o h a ɾ i m j u t o k t o k l aʊ d 
[136.695]
<no-speech> 
[140.285]
h a <no-speech> n o g a t o l d k i s i m b u n i m 
[151.055]
<no-speech> 
[151.995]
j e n a m i b u n i m o l d l aɪ n j a o l d t o k m a n d eɪ g u t p l a t aɪ m b i k o z m a n d eɪ w a n e m p a b l i k h o l i d eɪ s oʊ b aɪ j u m i k a m p ɾ e k t i s 
[163.495]
j e eɪ m d i s l a t a s o l n a o l g e t a l aɪ n f aʊ l b a θ j u p l a k a m l o s a ɾ e ɾ e j u p l a ʃ u t t o k t o k m i n oʊ i n a p k a m l o m a n d eɪ 
[169.345]
<no-speech> 
[171.765]
b i k o z n o g a t t aɪ m n aʊ <no-speech> w a n e m 
[177.305]
<no-speech> 
[179.375]
n a b l o j u 
[180.775]
<no-speech> 
[182.195]
j e s <no-speech> m i k eɪ n p u t i m 
[185.295]
<no-speech> 
[188.955]
n a b aɪ j u p u t i m b l o j u <no-speech> h a 
[193.425]
<no-speech> 
[194.345]
oʊ m i p l a w o k a b aʊ t g o a n t a p l o h aʊ z n aʊ <no-speech> w a n e m 
[200.125]
<no-speech> 
[205.555]
w a n e m 
[206.345]
<no-speech> 
[207.215]
j u t o k j u t o k <no-speech> h a s oʊ b aɪ m i w o k a b aʊ t g o a n t a p l o h aʊ z n a b aɪ m i s t o ɾ i w a n t aɪ m j u <no-speech> h a 
[218.565]
f ɾ a n k <no-speech> w a n e m <no-speech> m i t o k b aɪ m i w o k a b aʊ t g o l o h aʊ z j a b aɪ m i s t o ɾ i w a n t aɪ m j u 
[228.095]
w a n e m <no-speech> j u t o k 
[233.035]
<no-speech> 
[234.425]
n oʊ k eɪ n g o l o 
[235.535]
<no-speech> 
[236.725]
j u t o k 
[238.255]
<no-speech> 
[239.365]
n oʊ k eɪ n g o l o h aʊ z <no-speech> w aɪ 
[242.695]
<no-speech> 
[244.735]
oʊ m i p l a w o k a b aʊ t m i l aɪ k g o a n t a p l o h aʊ z 
[246.465]
<no-speech> 
[247.945]
g o a n t a p l o h aʊ z 
[250.935]
<no-speech> 
[251.745]
h a 
[253.195]
<no-speech> 
[257.265]
g e ɾ e h u 
[258.315]
<no-speech> 
[259.835]
g e ɾ e h u m i s t o p l o g e ɾ e h u j e n a m i p l a w o k a b aʊ t g o a n t a p l o h aʊ z n aʊ n oʊ g e ɾ e h u i n oʊ ɾ e n b o 
[270.875]
d i s l a j u m i j u m i e s t eɪ t oʊ w a n e m j u m i j e t e s t eɪ t oʊ w a n e m j a 
[282.595]
ɾ iɐ l e s t eɪ t oʊ w o t e v a h a h aʊ z b l o b i g m a m z m i m aɪ k s n a s k o t 
[293.755]
n a f i l o 
[296.305]
<no-speech> 
[297.225]
h a <no-speech> t o k t o k l aʊ d m i s t o p aʊ t s aɪ d 
[307.155]
<no-speech> 
[309.005]
j u t o k w a n e m 
[310.025]
<no-speech> 
[311.725]
b i l a s <no-speech> j u g o t 
[315.635]
<no-speech> 
[316.665]
j u k i s i m 
[318.405]
<no-speech> 
[319.545]
o l d o l d s a l i m k a m l o p l eɪ s 
[321.085]
<no-speech> 
[322.575]
h a n a t o k i m o l d l o m eɪ k i m <no-speech> b l o m i eɪ m j a b u b u m e ɾ i a n t a p l o 
[332.805]
eɪ m k a m a n t a p l o w a n e m j a f ɾ aɪ d eɪ f ɾ aɪ d eɪ h a θ e z d eɪ 
[338.045]
<no-speech> 
[339.575]
<no-speech> 
[339.975]
<no-speech> 
[341.815]
h a n oʊ o l s e m eɪ m k a m a n t a p l o s a n d eɪ eɪ m k i s i m g ɾ a s s k e t b l o m i k a m <no-speech> n a b l o j u <no-speech> j e o l g e t a 
[353.675]
eɪ m k i s i m o l g e t a s a m θ i n k a m <no-speech> n a t o k i m o l d l o m eɪ k i m <no-speech> o l d k eɪ n j u s i m o l d b u a i w a n e m j a 
[363.015]
<no-speech> 
[364.245]
h a 
[366.795]
<no-speech> 
[368.355]
<no-speech> 
[370.445]
<no-speech> 
[371.365]
<no-speech> 
[371.785]
<no-speech> 
[372.635]
h aʊ h a d i n oʊ h a d ʤ a s t m eɪ k i m t a s o l <no-speech> o l s e m k aɪ n d j u j u <no-speech> h a 
[380.945]
<no-speech> 
[383.655]
<no-speech> 
[384.265]
<no-speech> 
[385.695]
b aɪ m i p l a w a n e m k eɪ m aʊ t 
[387.855]
<no-speech> 
[389.215]
eɪ m d i s l a m i n oʊ s a b aɪ m i p l a w a n e m j a s t ɾ e t i m t o k t o k n a 
[393.285]
<no-speech> 
[394.825]
s a p oʊ z d o l d t o k l o s k u l o k eɪ s k u l <no-speech> j u θ i n k o l s e m w a n e m s k u l eɪ m o ɾ aɪ t <no-speech> h a 
[406.595]
<no-speech> 
[407.945]
n a b aɪ j u m i g o w eɪ 
[410.265]
<no-speech> 
[411.335]
o k eɪ h aʊ z b l o h u s aɪ t <no-speech> b a θ n aʊ h u s aɪ t s t o p k l o s t u l o g e ɾ e h u <no-speech> h a 
[418.985]
<no-speech> 
[421.695]
h u s aɪ t <no-speech> k e t s i j u a s k i m o l d t u <no-speech> l o n p l a m e ɾ i j a 
[428.655]
<no-speech> 
[430.285]
eɪ m t o k o ɾ aɪ t <no-speech> h a eɪ m t o k o ɾ aɪ t b aɪ j u m i g o a n t a p l o h aʊ z b l o eɪ m 
[436.415]
<no-speech> 
[437.825]
k eɪ m aʊ t 
[439.325]
<no-speech> 
[441.575]
h a 
[442.165]
<no-speech> 
[443.465]
<sta> eɪ m a s k i m m a m z b l o eɪ m l aɪ n <no-speech> o k eɪ n a d i s l a m a n t j a k a m h a <no-speech> m i t o k m a n t j a k a m l e n i m m i eɪ m w a n e m <no-speech> eɪ m t o k w a n e m 
[462.005]
<no-speech> 
[464.115]
b a θ eɪ m a s k i m o l d <no-speech> h a 
[469.005]
<no-speech> 
[470.815]
n a m i θ i n k j u t o k eɪ m a s k i m o l d <no-speech> o l d b aɪ t o k s a v e l o j u m i h a 
[480.735]
b a θ m i h a ɾ i m o l s e m eɪ m eɪ m b aɪ o k eɪ 
[483.545]
<no-speech> 
[484.735]
o l d t o k o l s e m w a n e m b aɪ w a n e m 
[491.085]
<no-speech> 
[491.935]
u m <no-speech> j e o l s e m k aɪ n d eɪ m eɪ m ʃ u t o k eɪ h a m i t o k o l s e m k aɪ n d o k eɪ b i k o z o l d g o t d i n a 
[503.865]
s oʊ aɪ m i n l aɪ k j u m i f i n i ʃ w a n e m j a aɪ m i n k eɪ m oʊ v a n a m o n i n j a m eɪ b i o l g e t a l aɪ n ʤ a s t d ɾ e s a p n a k a l a p l o d i n a n a k a m d aʊ n 
[515.575]
<no-speech> 
[524.745]
n aʊ w a n e m m a n d eɪ n a s a ɾ e ɾ e j u g o p l eɪ s p o t s oʊ <no-speech> j u s a p l eɪ ɾ a g b i j e t h a <no-speech> h a 
[535.875]
w a n e m w a n e m 
[541.815]
<no-speech> 
[543.285]
b aɪ j u p l a p l eɪ w a n e m 
[548.275]
<no-speech> 
[549.385]
f aɪ n o l z l o w eɪ 
[551.885]
<no-speech> 
[553.955]
t o k s oʊ b aɪ m i p l a k a m m eɪ k i m f a n d ɾ eɪ z i n <no-speech> p i a ɾ e l n a h aʊ m a s l o g eɪ t 
[563.905]
h a <int> 
[575.855]
m i t o k <int> b aɪ j u p l a g o p l eɪ f aɪ n o l z h a 
[582.105]
<no-speech> 
[583.945]
h a j e o l s e m n a o l s e m n a m i w o k l o t o k i m j u j a j u p l a l aɪ n j u p l a p l eɪ s p o t s j a t o k s a v e l o m i p l a n a b aɪ m i p l a w a n e m j a 
[595.595]
k a m m eɪ k i m f a n d ɾ eɪ z i n l o h a p n a n o g a t w a n p l a l aɪ n t u 
[600.025]
<no-speech> 
[600.100]
