[0.000]
<no-speech> 
[6.315]
h e l o 
[6.985]
<no-speech> 
[10.305]
<sta> o k eɪ s t a b i <no-speech> j e s j u t o k t o k 
[14.375]
<no-speech> 
[15.185]
g a d e n 
[15.805]
<no-speech> 
[25.925]
<hes> m i s a p o t i m m a ɾ u n z 
[27.375]
<no-speech> 
[29.635]
o ɾ i ʤ i n e l m a ɾ u n z s a p o t a j a 
[31.935]
<no-speech> 
[33.245]
j e 
[33.845]
<no-speech> 
[36.175]
<sta> j e j e 
[37.385]
<no-speech> 
[40.985]
l o l eɪ j a 
[42.385]
<no-speech> 
[45.295]
h a j e o l d m a n t k i s i m w a ɾ a n a o l d a m a m a s n a <no-speech> w a n w a n o l d f aɪ t w a n w a n m a n t o l d f aɪ t 
[51.945]
<no-speech> 
[54.185]
o l d b e l h a t l o t i m b l o l u z n aʊ eɪ m o l s e m o l d f aɪ t j a 
[59.165]
<no-speech> 
[65.735]
<sta> <hes> n o g a t n o g a t o l d f aɪ t t a s o l l o k i s i m p eɪ n t n a o l d s t o p 
[71.075]
<no-speech> 
[81.285]
d a n i z j a n 
[82.215]
<no-speech> 
[83.475]
k aɪ n d o l s e m o l d m a n t o l d a m a m a s l eɪ t l aɪ n j a o l d s a o l d l aɪ n l o h iɐ k i s i m p eɪ n t n a t i n n a t i n l o 
[91.405]
<no-speech> 
[92.745]
d ɾ i n k b l o n a ɾ a p l a l aɪ n 
[94.145]
<no-speech> 
[96.245]
eɪ m i s a p oʊ z d t i m b l o p i e n ʤ i s t e ɾ e t i p l eɪ n a o l d m a n t k i s i m b a g a ɾ a p eɪ m b aɪ o ɾ aɪ t j a n a d i s l a j a eɪ m o l d l aɪ n l o oʊ v a s i z j a eɪ m o l d k i s i m m o n i l o n l o n n a o l d i s t o p l o l aɪ k b l o o l d n a j u m i j a k i s i m p eɪ n t n a t i n n a t i n n a j u m i s t o p 
[107.885]
<no-speech> 
[111.605]
eɪ m t a s o l a m a m a s j u l aɪ k ʧ e k i m l o d i s l a h a <sta> 
[115.455]
<no-speech> 
[116.635]
<sta> m i t o k d i s l a t a s o l j u l aɪ k s t o ɾ i h a 
[119.795]
<no-speech> 
[120.885]
m i t o k d i s l a t a s o l n a j u l aɪ k s t o ɾ i h a 
[123.025]
<no-speech> 
[125.155]
o k eɪ o k eɪ 
[126.385]
<no-speech> 
[127.445]
o k eɪ <sta> 
[128.295]
<no-speech> 
[131.875]
a h a 
[132.615]
<no-speech> 
[144.075]
o k eɪ 
[144.875]
<no-speech> 
[148.165]
o k eɪ o k eɪ o k eɪ b i g p l a f aɪ t l o h a p j a 
[150.745]
<no-speech> 
[154.855]
eɪ m s t e ɾ e t s i t i j a eɪ m p l eɪ s eɪ m p l eɪ s b l o k i s i m b a g a ɾ a p j a <no-speech> o l s e m w a n e m 
[159.505]
<no-speech> 
[162.125]
m i t o k s i t i j a eɪ m p l eɪ s b l o <no-speech> 
[165.155]
oʊ o k eɪ n aʊ h aʊ z l aɪ n j e t h a 
[167.295]
<no-speech> 
[169.185]
h aʊ z l aɪ n h a 
[170.115]
<no-speech> 
[175.085]
oʊ o k eɪ o k eɪ j u t o k o l d f aʊ l p o ɾ o n a m b aʊ t 
[178.395]
<no-speech> 
[180.835]
i n oʊ f e m i l i s t e ɾ e t eɪ m o l d m i t o k i n oʊ f e m i l i s t e ɾ e t eɪ m o l d f aʊ l p o ɾ o j a j u t o k 
[185.625]
<no-speech> 
[186.685]
<no-speech> 
[188.555]
<no-speech> 
[189.655]
<no-speech> 
[190.595]
<no-speech> 
[193.075]
h a o l s e m n a m i t o k o l s e m eɪ m o l d f aʊ l p o ɾ o j a 
[195.855]
<no-speech> 
[198.395]
e n i h aʊ 
[199.185]
<no-speech> 
[200.855]
h a 
[201.895]
<no-speech> 
[205.035]
aɪ t e l ð e m 
[205.945]
<no-speech> 
[212.055]
a h a 
[212.765]
<no-speech> 
[222.875]
j e j u 
[223.695]
<no-speech> 
[226.805]
eɪ m k aɪ n d o l s e m m i t o k 
[228.265]
<no-speech> 
[230.395]
k i s i m p eɪ n t n a t i n 
[231.575]
<no-speech> 
[233.515]
m i t o k m o n i b l o n a ɾ a p l a l aɪ n n a k i s i m p eɪ n t n a t i n 
[237.465]
<no-speech> 
[239.215]
eɪ m s t e ɾ e t m i p l a w o ʧ f i n i ʃ n aʊ 
[241.465]
<no-speech> 
[242.865]
m i p l a w o ʧ f i n i ʃ n aʊ o l i v i a j a k a m s i n d aʊ n s t o ɾ i s t o ɾ i g o θ ɾ i o k l o k n a m b aʊ t eɪ m m i p l a i s l i p 
[248.385]
<no-speech> 
[251.685]
θ ɾ i o k l o k s t e ɾ e t n a m i p l a i s l i p 
[253.275]
<no-speech> 
[261.405]
<no-speech> 
[262.045]
<no-speech> 
[271.235]
h a o k eɪ 
[272.425]
<no-speech> 
[276.635]
o k eɪ 
[277.565]
<no-speech> 
[284.575]
h a o k eɪ g u t p l a g u t p l a 
[286.655]
<no-speech> 
[288.705]
<hes> o ɾ aɪ t t a s o l t a s o l <no-speech> j e m i p l a o l g e t a o ɾ aɪ t o l g e t a b ɔɪ z j a eɪ m o ɾ aɪ t t a s o l 
[294.505]
<no-speech> 
[295.565]
eɪ m o l d t u o l d s t o p o ɾ aɪ t o ɾ aɪ t t a s o l 
[297.705]
<no-speech> 
[300.855]
j a <no-speech> n a j u p l a s t o p o ɾ aɪ t h a 
[304.645]
<no-speech> 
[315.465]
w a n e m j a 
[316.185]
<no-speech> 
[318.895]
<hes> 
[319.945]
<no-speech> 
[323.795]
j e 
[324.475]
<no-speech> 
[327.525]
oʊ o k eɪ o k eɪ l o h iɐ eɪ m <no-speech> n o g a t g u t p l a o l d l aɪ n i n oʊ s a n a p w a n t aɪ m m i p l a eɪ m o l d i s a m p l a b l o o l d i l u z l aɪ n n a m b aʊ t b l o o l d j e t n aʊ 
[337.485]
<no-speech> 
[338.605]
s a m p l a p a s t a b l o o l d i g o n a m b aʊ t n aʊ eɪ m o l s e m j u j u o l d i i n oʊ k o n t e k t g u d w a n t aɪ m m i p l a n aʊ 
[345.475]
<no-speech> 
[348.815]
<sta> n a m i p l a t a s o l <no-speech> m i p l a i s t o p 
[352.225]
<no-speech> 
[355.865]
o l g e t a o l d n a ɾ a p l a l aɪ n j a j u l u k i m <no-speech> 
[359.435]
j u p l a k a m n a l u k i m o l d j a <no-speech> o l d n a ɾ a p l a s t eɪ t j u p l a k a m l u k i m o l d j a o l d n o g a t n aʊ eɪ m o l d n oʊ o p e ɾ eɪ t n aʊ eɪ m o l d i d aɪ f i n i ʃ 
[367.535]
<no-speech> 
[370.965]
h a ɾ i m h a m a d a 
[372.045]
<no-speech> 
[376.145]
aɪ j o 
[377.075]
<no-speech> 
[380.015]
j e eɪ m o l s e m n a m i p l a n oʊ h a ɾ i m eɪ m p ɾ oʊ g ɾ e m i s t o p l o h a n t b l o p a s t a d eɪ v i d w a n t aɪ m m e ɾ i b l o eɪ m o l d i n oʊ w o k l o i n f o m i m m i p l a t u 
[390.425]
<no-speech> 
[398.135]
j a 
[398.895]
<no-speech> 
[400.035]
<sta> n a m a d a 
[403.245]
<no-speech> 
[405.135]
h e l o <int> 
[406.665]
<no-speech> 
[411.665]
j e j u m a s t g o t p l e n t i j u n i t n a b aɪ m i t o k j u m a s t g o t p l e n t i j u n i t j a j u s a l i m w o n t k i n a l o m i 
[417.335]
<no-speech> 
[420.125]
eɪ m t o k j u s a l i m w o n t eɪ m t o k j u m a s t g o t p l e n t i j u n i t n a m i t o k j u s a l i m w o n t k i n a l o m i 
[425.315]
<no-speech> 
[429.065]
<no-speech> 
[429.455]
<no-speech> 
[431.265]
o k eɪ o k eɪ 
[432.385]
<no-speech> 
[433.725]
h a 
[434.365]
<no-speech> 
[436.515]
o k eɪ o k eɪ θ e n k j u θ e n k j u l o k oʊ l d 
[439.215]
<no-speech> 
[442.885]
j a 
[443.455]
<no-speech> 
[452.945]
o k eɪ j u m a s t k i s i m p a s w e d b l o h a i g o t 
[456.235]
<no-speech> 
[457.705]
j e eɪ m s t o p o ɾ aɪ t <no-speech> j e 
[460.575]
<no-speech> 
[462.455]
eɪ m o ɾ aɪ t 
[463.325]
<no-speech> 
[466.555]
<no-speech> 
[467.885]
<no-speech> 
[470.185]
j e j e m i p l a s t o p o ɾ aɪ t t a s o l o l d n a ɾ a p l a l aɪ n j a eɪ m o l s e m o l d k aɪ n d o l s e m o l d i i n o g a t k i s i m p ɾ e ʃ a l o g o k o k o d a ʤ a n k ʃ e n 
[481.855]
d i s l a n a ɾ a p l a o l d d i n o m i n eɪ ʃ e n h a eɪ m o l d s t o p l o o l d j e t n aʊ 
[486.765]
<no-speech> 
[490.245]
j e 
[491.135]
<no-speech> 
[492.235]
<no-speech> 
[492.625]
<no-speech> 
[496.245]
j e s j e s 
[497.145]
<no-speech> 
[499.865]
h a eɪ m o l d o l d 
[501.145]
<no-speech> 
[503.125]
aɪ j e eɪ m o l d s t o p o ɾ aɪ t o ɾ aɪ t o l g e t a <no-speech> j e s 
[506.645]
<no-speech> 
[510.235]
n a m a d a j u b aɪ k i s i m p a s w e d b l o 
[513.265]
<no-speech> 
[514.975]
s a m p l a k aɪ n d p a s w e d n a j u t o k t o k l o n p l a t aɪ m oʊ <no-speech> m i t o k j u t o k t o k l o n p l a t aɪ m j a j u m a s t g o t b i g p l a j u n i t oʊ j u j u s i m p a s w e d oʊ <int> 
[523.235]
<no-speech> 
[531.195]
<no-speech> 
[533.115]
<no-speech> 
[537.015]
h a n a j u m a s t ʃ oʊ i m m i ʃ oʊ i m m i n a b aɪ m i k i s i m 
[539.935]
<no-speech> 
[543.425]
m i t o k j u ʃ oʊ i m m i l o w a n e m p a s w e d w a n e m w a n e m p a s w e d j u j u s i m j a j u ʃ oʊ i m m i n a m i t u b aɪ m i j u s i m n a e n i t aɪ m b aɪ m i k eɪ n ɾ i n n a t o k t o k l o n p l a t aɪ m 
[553.005]
<no-speech> 
[554.535]
h a m a d a m a d a 
[556.105]
<no-speech> 
[562.825]
a h a 
[563.705]
<no-speech> 
[564.965]
j e 
[565.615]
<no-speech> 
[567.195]
w aɪ 
[568.025]
<no-speech> 
[573.305]
o k eɪ 
[574.225]
<no-speech> 
[575.195]
aɪ j o j u s t o ɾ i l o m i b i h aɪ n n aʊ b aɪ j u n i t b l o j u f i n i ʃ n aʊ b aɪ j u n oʊ i n a p ɾ i n i m m i g e n <laugh> 
[580.325]
<no-speech> 
[583.355]
h a 
[584.305]
<no-speech> 
[587.205]
o k eɪ n aʊ j u ʃ oʊ i m m i w a n e m p a s w e d <no-speech> 
[591.275]
j e j u ʃ oʊ i m m i w a n e m p a s w e d o l d t o k j u j u s a l i m w o n t k i n a n aʊ j u ʃ oʊ i m m i l o w a n e m p a s w e d j u j u s i m n aʊ b aɪ m i k eɪ n ɾ i n 
[599.975]
<no-speech> 
[600.260]
