[0.000]
g oʊ ɾ e θ i <no-speech> g oʊ ɾ e θ i <no-speech> g u t p l a a v i n u n l o j u <no-speech> j e s g u t p l a a v i n u n l o j u m i s a m i s a <int> o l s e m b e θ d eɪ b l o j u j a 
[11.365]
j e s n a 
[12.715]
<no-speech> 
[13.565]
n aʊ n aʊ j a j u s t o p l o j u s t o p l o w eɪ 
[15.905]
<no-speech> 
[19.145]
<no-speech> 
[22.845]
<no-speech> 
[23.805]
<no-speech> 
[25.585]
<no-speech> 
[28.285]
t o k p i s i n p l i z d 
[29.755]
<no-speech> 
[33.775]
<no-speech> 
[35.245]
<no-speech> 
[36.365]
<no-speech> 
[36.795]
<no-speech> 
[37.785]
<no-speech> 
[38.145]
<no-speech> 
[41.905]
<no-speech> 
[43.235]
<no-speech> 
[44.935]
s oʊ j u g o l u k i m o l d b aɪ j u p l a s e l e b ɾ eɪ t oʊ a m a m a s n a m b aʊ t l o t u n aɪ t oʊ k aɪ n d o l s e m 
[52.255]
<no-speech> 
[55.395]
<no-speech> 
[56.745]
<no-speech> 
[58.965]
o l s e m j u b aɪ g i m s a m p l a i n v e t eɪ ʃ e n l o m i oʊ k aɪ n d o l s e m l o b aɪ m i k a m l u k i m j u oʊ n o g a t oʊ 
[65.215]
<no-speech> 
[70.505]
<no-speech> 
[72.395]
<no-speech> 
[75.995]
p l i z d m i m i a m a m a s t u ɾ u l o k a m j a n a m i g o t w a n p l a l i k l i k s a m θ i n o l s e m m i l aɪ k k a ɾ i m k a m g i m l o j u t u n a m i ʤ a s t p i l i m o l s e m m i m a s t k a m l u k i m j u 
[86.405]
<no-speech> 
[88.345]
o l s e m n a m i ʤ a s t ʧ e k i m j u b i k o z m i a n d a s t e n d o l s e m <sta> 
[92.225]
<no-speech> 
[94.735]
j e s 
[95.565]
<no-speech> 
[97.045]
<no-speech> 
[101.855]
<no-speech> 
[102.755]
o k eɪ p l i z d s oʊ j u eɪ m m a s t <lipsmack> j u t e n t t w e n t i j iɐ z oʊ t w e n t i w o n t 
[110.665]
<no-speech> 
[113.925]
<sta> t w e n t i o k eɪ s a p oʊ z d j u l aɪ k i m j u w a n b e l n a m i b aɪ i m w a n p l a m i b aɪ i m w a n p l a k a t e n n a m i ɾ aʊ s i m f o p l a g o p u t i m n a t w e n t i p e l a m i k a m g i m j u oʊ n o g a t 
[125.025]
<no-speech> 
[127.855]
<int> m i t o k j u w a n b e l l o m i n a m i b aɪ i m w a n p l a k a t e n w aɪ t k eɪ n o k eɪ m i ɾ aʊ s i m f o p l a g o p u t i m n a t w e n t i p e l a m i k a m g i m j u h a <int> m i t o k j u w a n p l a n a b aɪ b aɪ i m b aɪ m i m eɪ k i m <int> o l s e m 
[138.315]
oʊ j u l aɪ k i m <sta> o l g e t a o l d b o k s <no-speech> oʊ n oʊ 
[144.845]
<no-speech> 
[145.775]
o k eɪ 
[146.565]
<no-speech> 
[149.435]
o ɾ aɪ t o k eɪ b aɪ m i b aɪ m i m eɪ k i m t aɪ m b l o m i a v eɪ l a b e l a f t a f oɐ o k l o k n a j u s t o p l o w a n e m h a p j a b aɪ m i k a m p aɪ n i m j u 
[159.125]
<no-speech> 
[161.845]
<sta> j e s s oʊ n aʊ j u n oʊ j u n oʊ b i s i t u m a s h a 
[167.965]
<no-speech> 
[173.225]
o k eɪ j u s t o p w a n e m h a p j u s t o p l o h o h o l a b a z s t o p n aʊ s oʊ f ɾ o m h o h o l a b aɪ j u g o l o g o aʊ t l o s a m p l a k l a b oʊ 
[181.765]
<no-speech> 
[183.635]
<no-speech> 
[184.165]
<no-speech> 
[185.905]
<sta> n o g a t h a 
[190.535]
<no-speech> 
[194.335]
s oʊ n o n g u t m i k a m l o h aʊ z b aɪ o l d k ɾ o s oʊ k aɪ n d o l s e m n o g a t o l s e m m i n oʊ k a m l o m i s t o p b a θ o l s e m a m a m a s i m ð eɪ b l o j u m a m a k a ɾ i m <int> ð eɪ b l o j u 
[205.335]
<no-speech> 
[206.725]
<sta> h a o k eɪ eɪ m o ɾ aɪ t s oʊ j u m i n i m o l s e m m i p l a k eɪ n b u n aʊ t s aɪ d n a m b aʊ t n a 
[212.795]
<no-speech> 
[218.625]
o ɾ aɪ t s oʊ n aʊ m i a n d a s t e n d j u m a s t s t o p w a n t aɪ m o l d f ɾ e n d z b l o j u o l d m e ɾ i n a m b aʊ t 
[223.285]
<no-speech> 
[226.325]
<no-speech> 
[226.725]
<no-speech> 
[231.125]
<no-speech> 
[232.075]
<no-speech> 
[234.385]
<no-speech> 
[235.245]
<no-speech> 
[236.995]
o k eɪ m i b aɪ o l s e m m i ɾ aʊ n d i g o b aɪ m i θ i n k t aɪ m b aɪ m i ʧ e k a p w a n t aɪ m j u s oʊ b aɪ a f t a f oɐ oʊ f aɪ v n a m b aʊ t f oɐ oʊ f aɪ v n a m b aʊ t b aɪ m i b aɪ m i ʧ e k i m j u n a b i f oɐ l o j u g o l o h aʊ z a d l i s t m i k a m g i m j u w a n p l a s a m θ i n n a m i g o l o h aʊ z t u 
[253.345]
<no-speech> 
[255.655]
<no-speech> 
[256.005]
<no-speech> 
[256.815]
o k eɪ <hes> n a 
[259.315]
<no-speech> 
[261.595]
j u θ i n k w a n e m t aɪ m s t e ɾ e t b aɪ j u g o l o h aʊ z 
[263.735]
<no-speech> 
[267.665]
<no-speech> 
[269.025]
<no-speech> 
[270.025]
<no-speech> 
[270.405]
<no-speech> 
[271.865]
<no-speech> 
[272.215]
<no-speech> 
[277.895]
f aɪ v o k l o k s i k s o k l o k o k eɪ 
[280.235]
<no-speech> 
[284.215]
o k eɪ j u j u g o t s a m p l a ɾ i k w e s t o k eɪ j u p u t i m n a m i h a ɾ i m o l s e m 
[288.745]
<no-speech> 
[290.195]
m i m i w i l i n l o a m a m a s i m j u <int> 
[293.525]
<no-speech> 
[297.295]
<no-speech> 
[299.825]
<no-speech> 
[302.305]
<no-speech> 
[305.165]
<no-speech> 
[307.605]
<no-speech> 
[308.775]
<no-speech> 
[311.315]
<no-speech> 
[313.515]
<no-speech> 
[316.555]
s oʊ b aɪ j u k i s i m k a t e n b iɐ b l o j u l o h a p n a b aɪ j u k a ɾ i m g o l oʊ n h aʊ z oʊ b aɪ j u s t o p d ɾ i n k l o h a p b i f oɐ j u g o l o h aʊ z 
[324.955]
<no-speech> 
[326.045]
<sta> o k eɪ o k eɪ <no-speech> o k eɪ o k eɪ 
[331.065]
<no-speech> 
[332.975]
b a θ m i b aɪ s t i l k a m l u k i m j u 
[335.375]
<no-speech> 
[340.035]
b a θ j u m a s t t i n i m t aɪ m eɪ m i m p o t e n t s oʊ 
[343.035]
<no-speech> 
[344.135]
t aɪ m eɪ m i m p o t e n t s oʊ b i f oɐ l o s i k s o k l o k <no-speech> j u m a s t g o l o h aʊ z 
[350.335]
<no-speech> 
[353.035]
<no-speech> 
[353.425]
<no-speech> 
[357.585]
o l s e m 
[358.275]
<no-speech> 
[359.205]
a n d a s t e n d i n s t o p eɪ m o l s e m b e θ d eɪ b l o j u j u l aɪ k a m a m a s j u t u m a n t t u j a n a <int> 
[366.645]
<no-speech> 
[367.885]
b a θ a n d a s t e n d i n s t o p l o n a ɾ a p l a s aɪ t j a eɪ m h a d l o j u b aɪ h o l i m t aɪ m j a 
[373.245]
<no-speech> 
[376.765]
s oʊ m i m i n oʊ θ i n k b aɪ m i k a m s t o p oʊ w a n e m b aɪ m i ʤ a s t k a m d ɾ o p i m o p b i k o z m i θ i n k o l s e m n o n g u t n aɪ t n a m b aʊ t j u b aɪ f ɾ i l o g o aʊ t oʊ d i s l a k aɪ n d b a θ j u t o k n o g a t s oʊ 
[386.395]
<no-speech> 
[387.465]
eɪ m o ɾ aɪ t 
[388.605]
<no-speech> 
[390.495]
<lipsmack> j u t w e n t i j iɐ z s oʊ o l s e m <sta> 
[394.545]
<no-speech> 
[399.975]
eɪ m k l o s t u n aʊ eɪ m o l s e m j u n i t b l o m i b aɪ f i n i ʃ n a 
[404.265]
<no-speech> 
[406.275]
eɪ m l a s t <hes> t u m i n i t s <int> j e 
[409.465]
<no-speech> 
[410.365]
m i s t o p j e t s oʊ 
[411.435]
<no-speech> 
[412.545]
<no-speech> 
[412.925]
<no-speech> 
[415.795]
<no-speech> 
[417.065]
<no-speech> 
[419.045]
<no-speech> 
[419.435]
<no-speech> 
[423.065]
j u s t o p w a n t aɪ m o l d g e l z oʊ b ɔɪ z 
[425.555]
<no-speech> 
[427.345]
b ɔɪ z e n d g e l z oʊ j u p l a j u w a n p l a t u p l a oʊ j u p l a p l e n t i 
[431.065]
<no-speech> 
[433.995]
<oov> 
[434.375]
<no-speech> 
[435.615]
oʊ n oʊ 
[436.355]
<no-speech> 
[438.625]
o l s e m k aɪ n d eɪ m m a s k i n aʊ j u p l a p l e n t i eɪ m b aɪ h a d l o m i k a m j a m i t u m i p i l i m ʃ eɪ m <int> l i k l i k j a 
[444.405]
<no-speech> 
[447.835]
<no-speech> 
[448.605]
<no-speech> 
[453.205]
n a <sta> 
[454.825]
<no-speech> 
[457.065]
m i n oʊ l eɪ z l o k a m b aɪ m i k a m j a b a θ p l e n t i p l e n t i b ɔɪ z n a g e l z j a <hes> aɪ m i n s o ɾ e p l e n t i g e l z j a 
[463.575]
<no-speech> 
[466.785]
m i m i p i l i m ʃ eɪ m l i k l i k j a 
[468.865]
<no-speech> 
[470.875]
h aʊ b aɪ m i k a m n a m e l l o o l d m e ɾ i <no-speech> oʊ n oʊ 
[476.905]
<no-speech> 
[478.045]
i n oʊ g u t p l a l o j u w o k i m o l s e m <int> 
[480.835]
<no-speech> 
[483.095]
<no-speech> 
[483.465]
<no-speech> 
[487.145]
o l d w a n e m o l d o l d l i k l i k b l o j u oʊ o l d b i g p l a b l o j u oʊ o l s e m n o n g u t j u ɾ aʊ s i m o l d b i g p l a b l o j u o l s e m b aɪ i n oʊ i n a p g u t p l a t u m a s 
[494.255]
<no-speech> 
[495.885]
b a θ eɪ m o ɾ aɪ t l a ɾ i m m i n oʊ i n a p k a m s i n z p l e n t i m e ɾ i t u m a s s oʊ 
[501.275]
<no-speech> 
[503.345]
eɪ m o ɾ aɪ t t u m o ɾ o h a p t u m o ɾ o s a n d eɪ j a b aɪ j u m i g o l o t u n a j u m i b u n l o h a p 
[507.985]
<no-speech> 
[509.535]
<no-speech> 
[509.885]
<no-speech> 
[512.075]
<sta> j e a d l i s t m i k eɪ n t o k i m p a d ɾ eɪ l o b l e s i m j u 
[516.035]
<no-speech> 
[518.335]
n oʊ n i d <int> l o b aɪ i m b iɐ t u 
[519.875]
<no-speech> 
[520.795]
s oʊ a d l i s t m i k eɪ n t o k i m p a d ɾ eɪ l o <int> b l e s i m j u n a 
[523.375]
<no-speech> 
[525.835]
eɪ m b l e s i m j u eɪ m <int> eɪ m k aɪ n d o l s e m eɪ m m i b aɪ i m b iɐ j a 
[529.305]
<no-speech> 
[532.675]
<no-speech> 
[533.355]
<no-speech> 
[540.985]
m i k eɪ n h a ɾ i m o l s e m p l e n t i t u ɾ u j a d i s l a t a s o l j a j u s a o l s e m m i m a n t b l o ʃ eɪ m j a <sta> 
[547.535]
<no-speech> 
[557.645]
<no-speech> 
[567.755]
<no-speech> 
[567.985]
<no-speech> 
[579.62]
