[0.000]
<no-speech> 
[1.515]
<no-speech> 
[3.515]
<no-speech> 
[6.555]
h e l o 
[7.095]
<no-speech> 
[8.605]
h e l o 
[9.175]
<no-speech> 
[10.825]
h e l o 
[11.405]
<no-speech> 
[12.945]
h e l o 
[13.515]
<no-speech> 
[15.445]
h e l o 
[16.035]
<no-speech> 
[17.185]
h eɪ b a ɾ a t a g u t p l a a v i n u n a v i n u n 
[19.765]
<no-speech> 
[20.955]
h eɪ j u h a 
[21.805]
<no-speech> 
[22.635]
n aʊ j u n aʊ j u a v i n u n n a j u s t o p w eɪ 
[25.295]
<no-speech> 
[28.205]
j u s t o p l o w a n e m a p <no-speech> h a 
[30.765]
<no-speech> 
[31.745]
h a 
[32.435]
<no-speech> 
[33.685]
o k eɪ f ɾ aɪ d eɪ h a n a h a ɾ i m <no-speech> j e j u t o k 
[37.785]
<no-speech> 
[45.235]
h a 
[45.805]
<no-speech> 
[48.715]
o ɾ aɪ t n a j u g o k i s i m w a n e m j a f i n i ʃ h a j u j u k a ɾ i m 
[51.595]
<no-speech> 
[52.945]
h a <no-speech> j u k a ɾ i m g o g i m o l d f i n i ʃ oʊ i n oʊ j e t 
[56.505]
<no-speech> 
[66.315]
o k eɪ w a n e m n eɪ m b l o eɪ m j a 
[67.865]
<no-speech> 
[69.035]
w a n e m n eɪ m b l o eɪ m 
[69.965]
<no-speech> 
[72.805]
<sta> b a ɾ a t a d i s l a eɪ m b aɪ o l s e m w a n e m b aɪ j u p l a s k u l o l s e m w a n e m 
[76.585]
<no-speech> 
[77.775]
j u k i s i m w a n e m j u k i s i m w a n e m w a n e m p eɪ p a 
[80.415]
<no-speech> 
[82.015]
b aɪ j u k i s i m w a n e m p eɪ p a j u b aɪ a p l aɪ l o w a n e m p eɪ p a 
[84.145]
<no-speech> 
[85.645]
<int> h a o k eɪ eɪ m g u t p l a 
[87.345]
<no-speech> 
[88.585]
n a w a n e m t aɪ m s t e ɾ e t j u w a n e m w a n e m t aɪ m s t e ɾ e t j u k a m l o m o z b i 
[91.645]
<no-speech> 
[97.105]
t u w i k s h a 
[98.115]
<no-speech> 
[99.065]
h a j u w a n e m j u f u d n a k a m oʊ j u f u d n a k a m h a 
[103.425]
<no-speech> 
[105.895]
b a l u s h a o k eɪ o ɾ aɪ t 
[108.765]
<no-speech> 
[111.045]
o k eɪ b a θ o l d m a n t j a o l d k a m o l d b aɪ k a m g o i n s aɪ t s eɪ f o l d b aɪ k a m i n s aɪ t h a l o o l d k a m l o s k u l oʊ o l d k a m l o w o k i m w a n e m 
[117.425]
<no-speech> 
[121.905]
oʊ o l g e t a k a m l o s k u l <no-speech> b a θ s a m p l a o l d n oʊ k a m j e t 
[124.935]
<no-speech> 
[128.775]
o k eɪ o k eɪ 
[129.875]
<no-speech> 
[136.055]
h aʊ o l d b a g a ɾ a p i m o l d s a m θ i n o l d n oʊ s k u l g u d h a 
[138.785]
<no-speech> 
[139.815]
h a 
[140.355]
<no-speech> 
[143.155]
h a 
[143.915]
<no-speech> 
[145.685]
h a t ɾ u t ɾ u eɪ m t u eɪ m n a ɾ a p l a s a m θ i n t u eɪ m n i d i m o l s e m j u m a s t k o n s e n t ɾ eɪ t g u d n a d i s l a k aɪ n d j u k a m eɪ m j u s t o p g u d w a n t aɪ m o l d f e m i l i b l o j u d i s l a k aɪ n d eɪ m o ɾ aɪ t n a j u k a m 
[157.305]
s t o p w a n t aɪ m n a ɾ a p l a m a n t eɪ m j u t i n i m j u m a s t s t a d i n a a d l i s t j u k i s i m w a n p l a g u t p l a m a k j a <no-speech> h a 
[162.275]
<no-speech> 
[166.155]
d i s l a eɪ m w a n p l a k aɪ n d s a m θ i n t u j a j u t i n i m 
[168.365]
<no-speech> 
[173.005]
<no-speech> 
[173.615]
<no-speech> 
[175.105]
j e m i eɪ m w a n e m j a h a ɾ i m o l d m a n k i o l d m a n k i 
[177.795]
<no-speech> 
[180.015]
j u h a ɾ i m m i o l d m a n k i eɪ m o l d t o k s a v e l o m i t u l o k a m k i s i m p eɪ p a n a o l d m a n k i t o k s a v e l o m i l o k a m k i s i m p eɪ p a t u j a <no-speech> h a m i w o k l o t i n t i n s t o p b aɪ m i k a m d aʊ n n a k i s i m p eɪ p a 
[190.775]
<no-speech> 
[191.705]
h a 
[192.415]
<no-speech> 
[194.155]
n aʊ j a n aʊ j e t m i s i n d aʊ n w a n t aɪ m j e m i s i n d aʊ n w a n t aɪ m o l g e t a m a n k i m i p l a w o k l o l u k i m w a n e m b l o o l d s t o p j a <no-speech> a t i n n aʊ j a o l d m a s t p u t i m o l d o ɾ i e n t eɪ ʃ e n o l d t aɪ m w eɪ o l d b aɪ g o s t a t w o k i m o l s e m l i k l i k b ɾ eɪ k 
[205.575]
b l o o l d n a m b aʊ t l o s aɪ t b l o w a n e m o l d o l s e m k oʊ t h aʊ z l aɪ n n a m b aʊ t l o s a b ʤ e k t b l o o l d j a o l d w o k l o o l d w o k l o d i s k a s l o d i s l a s t o p j a eɪ m m i p l a s t o p o l d k i s i m f i n i ʃ p eɪ p a b l o o l d o l d k a m l o h aʊ z n a m i p l a s i n d aʊ n s t o p 
[217.475]
<no-speech> 
[217.625]
<no-speech> 
[219.685]
u m 
[220.415]
<no-speech> 
[221.915]
o k eɪ g u t p l a 
[222.745]
<no-speech> 
[223.615]
n a n aʊ j u s l i p l o w eɪ 
[224.895]
<no-speech> 
[227.145]
o k eɪ g u t p l a <no-speech> n a j u s l i p l o w eɪ 
[229.455]
<no-speech> 
[232.345]
s t o p l o w a n e m a t s h a 
[233.835]
<no-speech> 
[235.035]
h a <no-speech> eɪ t m aɪ l oʊ a t s 
[237.275]
<no-speech> 
[238.605]
o ɾ o b l o g j a v i l i s j a o ɾ o v i l i s h a 
[242.285]
<no-speech> 
[243.685]
o k eɪ 
[244.565]
<no-speech> 
[245.755]
n a j u l u k i m s a m p l a g ɾ aʊ n s t o p l o h a p m i l aɪ k k a m s a n a p i m p oʊ s t j a 
[248.995]
<no-speech> 
[250.865]
o k eɪ 
[251.685]
<no-speech> 
[255.115]
o k eɪ 
[255.765]
<no-speech> 
[257.025]
n a i g o t o l d f l e k s e b e l m oʊ d b l o d i s l a s k u l j u p l a b aɪ s k u l t u 
[260.615]
<no-speech> 
[261.945]
h a 
[262.545]
<no-speech> 
[264.605]
i g o t s a m p l a k aɪ n d o l d f l e k s e b e l m oʊ d n a m b aʊ t b l o s k u l d i s l a t u h a 
[268.225]
<no-speech> 
[271.965]
oʊ n aɪ t k l a s t a s o l h a 
[274.015]
<no-speech> 
[276.595]
m i t o k i m eɪ m f l e k s e b e l w a n e m n a m b aʊ t l o o l d 
[278.785]
<no-speech> 
[280.295]
i g o t h a 
[281.175]
<no-speech> 
[284.815]
o l s e m k aɪ n d o l s e m <no-speech> o k eɪ 
[287.035]
<no-speech> 
[290.275]
oʊ i g o t oʊ p e n k e m p e s s t o p 
[292.665]
<no-speech> 
[293.935]
oʊ 
[294.625]
<no-speech> 
[296.715]
o k eɪ 
[297.635]
<no-speech> 
[301.995]
o l d w o k m a n t h a 
[303.045]
<no-speech> 
[304.465]
o k eɪ m i b aɪ t ɾ aɪ i m k a m i n s aɪ t n a t ɾ aɪ i m k i s i m p eɪ p a t u j a o l d m a n k i w o k l o s t o ɾ i l o d i s l a n a 
[309.815]
<no-speech> 
[312.605]
m i θ i n k m i g o t b i g p l a i n t e ɾ e s t j a m i g o t b i g p l a i n t e ɾ e s t s t e ɾ e t j a 
[315.835]
<no-speech> 
[319.595]
n a j u w a n b e l l o d i s l a k oʊ s t j u b aɪ k i s i m h a j u w a n b e l l o d i s l a k oʊ s t b l o j u h a b aɪ j u k i s i m j a 
[324.705]
<no-speech> 
[327.525]
o k eɪ 
[328.265]
<no-speech> 
[329.145]
<no-speech> 
[329.555]
<no-speech> 
[333.495]
o k eɪ eɪ m g u t p l a eɪ m o l s e m i n t e ɾ e s t b l o j u s t o p l o ʃ e l z e n d m a k i t i n s oʊ eɪ m g u t p l a 
[338.855]
<no-speech> 
[340.515]
u m 
[341.025]
<no-speech> 
[342.765]
h a n a m i h a ɾ i m n a j u h a ɾ i m w i l z k i s i m w a n e m w a n e m k oʊ s t t u w i l z 
[347.325]
<no-speech> 
[350.925]
m i t o k w i ʧ <no-speech> 
[352.955]
eɪ m k i s i m k o m p j u t i n h a h a eɪ m g u t p l a m i p l a n i d i m <sta> o l d m a n k i l o o l s e m m i p l a n i d i m o l d i t n a d i s l a k aɪ n d s oʊ eɪ m g u t p l a m i t u m i w a n b e l b i h aɪ n eɪ m k a m b aɪ m i ʃ e k h a n l o eɪ m 
[363.235]
<no-speech> 
[366.515]
j e m i h a ɾ i m o l s e m <no-speech> w a n e m 
[368.135]
<no-speech> 
[369.655]
j e 
[370.245]
<no-speech> 
[372.155]
j e m a s k i m eɪ m g u t p l a eɪ m m a s t g o b eɪ k k eɪ n n a p u t i m o l d t aʊ a l o p o p o n d e t a n a s e t i m a p o l d k o m p j u t a l o p o p o n d e t a t u 
[377.975]
<no-speech> 
[380.205]
<no-speech> 
[380.575]
<no-speech> 
[381.415]
<no-speech> 
[381.765]
<no-speech> 
[383.625]
<no-speech> 
[384.105]
<no-speech> 
[385.195]
j e 
[385.845]
<no-speech> 
[389.775]
j e n a 
[390.715]
<no-speech> 
[393.745]
j e g u t p l a n a m i h a ɾ i m m i h a ɾ i m o l s e m m i h a ɾ i m o l s e m t aɪ m o l g e t a m a n k i g o ɾ e ʤ i s t a f i n i ʃ n aʊ eɪ m s e k ɾ e t e ɾ i b aɪ k a m n a eɪ m b aɪ s i n d aʊ n s t o ɾ i w a n t aɪ m o l d m a n k i eɪ m t u ɾ u oʊ n o g a t 
[403.095]
<no-speech> 
[407.535]
<no-speech> 
[407.935]
<no-speech> 
[409.975]
n o g a t eɪ m o ɾ aɪ t eɪ m m i t u m i w a n b e l 
[411.785]
<no-speech> 
[413.655]
n o g a t eɪ m g u t p l a eɪ m o l g e t a m a n k i n i d l o s t o ɾ i w a n t aɪ m eɪ m t u j a j u t i n i m b i k o z eɪ m b aɪ m a k i m m aʊ s b l o o l d o l d l i d a b l o j u m i h a o k eɪ eɪ m n i d l o k a m 
[425.185]
o l d m a n k i o l d b aɪ g i m o l s e m t o k t o k o l d b aɪ g i m eɪ m eɪ m o l s e m n aʊ eɪ m o l s e m m i p l a t o k θ e n k j u t u ɾ u l o j u k a m p u t i m m i p l a i n s aɪ t f i n i ʃ b a θ b i h aɪ n b aɪ m i p l a 
[436.815]
t i n i m o l s e m m i p l a k i s i m d i s l a p eɪ p a j a m i p l a b aɪ g o b eɪ k k eɪ n l o p l eɪ s b l o m i p l a n a m i p l a l aɪ k g o k i ɾ a p i m w o k l o p l eɪ s n a j u s a f i n i ʃ t o k i m o l d l a p u n o l d s t o p i n s aɪ t l o o l d g a v e m e n t o f i s n a m b aʊ t j a m i p l a l aɪ k ɾ aʊ s i m 
[448.265]
o l d n a m b aʊ t ɾ aʊ s i m ɾ aʊ s i m n a n aʊ t aɪ m b l o m i p l a d i s l a l aɪ n j a m i p l a l aɪ k g o b eɪ k k eɪ n n a ɾ a n i m eɪ m t a s o l 
[454.895]
<no-speech> 
[458.315]
<int> b aɪ j u m i w o k i m o l s e m l o h a p 
[459.775]
<no-speech> 
[462.365]
n o g a t w a n p l a m a n t b aɪ k a m n a g i m w a n p l a j u t i n i m 
[465.495]
<no-speech> 
[466.575]
n o g a t w a n p l a m a n t b aɪ k a m g i m f ɾ i m o n i n a m b aʊ t l o j u 
[469.295]
<no-speech> 
[470.615]
n a g i m o l d a n t a p l o w a n p l a g oʊ l d e n p l eɪ t eɪ m b aɪ g i m w a n e m t aɪ m eɪ m b aɪ g i m n o g a t 
[474.905]
<no-speech> 
[475.865]
eɪ m eɪ m m o n i b l o o l d p i p e l j a j u t i n i m m o n i b l o p i p e l l o p ɾ o v i n s n a m o n i b l o j u j u t i n i m s oʊ j u m i m a s t g o b eɪ k k eɪ n n a w o k i m s a m p l a g u t p l a s a m θ i n n a o l d p i p e l b aɪ b e n e f i t n a o l d b aɪ h aʊ m a s n a s t o p 
[485.495]
<no-speech> 
[488.515]
eɪ m d i s l a k aɪ n d t o k t o k w eɪ eɪ m k a m eɪ m b aɪ m i p l a t ɾ aɪ i m e d i m s a m p l a k aɪ n d h a 
[492.805]
<no-speech> 
[496.205]
n a o l d m a n k i m a s t t ɾ aɪ i m n a s k u l g u d h a n oʊ k eɪ n k a m n a o l s e m m i h a ɾ i m o l s e m o l d f e s t l aɪ n t u k a m j a o l d b a g a ɾ a p i m s k u l n a o l d g o b eɪ k k eɪ n n a d i s l a i eɪ m m o n i eɪ m w eɪ s t j a m o n i b l o o l d p i p e l eɪ m w eɪ s t 
[506.885]
t u ɾ u 
[509.695]
<no-speech> 
[512.515]
d i s l a k aɪ n d 
[513.155]
<no-speech> 
[514.275]
u m 
[514.935]
<no-speech> 
[519.285]
u m n a j u s a n a p j e t j e m i o ɾ aɪ t b a ɾ a t a m i o ɾ aɪ t m i t u 
[524.505]
<no-speech> 
[526.375]
h a m i t i n t i n l o g o l u k i m w i l z j a m i t i n t i n l o ɾ aʊ n d g o l u k i m w i l z j a eɪ m h o l i m s a m p l a p eɪ p a b l o m i t u n a 
[531.985]
<no-speech> 
[535.655]
n a eɪ m j u t o k h a b o s m a n j a eɪ m w eɪ t i m j u p l a s t o p j a 
[539.085]
<no-speech> 
[540.725]
j u s t o ɾ i 
[541.405]
<no-speech> 
[545.095]
o k eɪ 
[545.805]
<no-speech> 
[552.845]
oʊ b aɪ j u p l a s t o ɾ i w a n t aɪ m eɪ m 
[554.395]
<no-speech> 
[565.465]
<no-speech> 
[565.835]
<no-speech> 
[566.955]
o k eɪ 
[567.595]
<no-speech> 
[570.325]
<no-speech> 
[570.745]
<no-speech> 
[571.865]
w a n e m j a j u p u t i m f o t o b l o j u t u h a f o t o 
[574.355]
<no-speech> 
[575.915]
m a n t j u h a ɾ i m m i j u p u t i m f o t o b l o j u t u j u p u t i m f o t o b l o j u l o p eɪ p a b l o j u t u e p l i k eɪ ʃ e n b l o j u j a oʊ n o g a t 
[583.385]
<no-speech> 
[585.935]
j e j u p u t i m h a 
[587.095]
<no-speech> 
[588.145]
oʊ eɪ m o k eɪ m i p u t i m n a ɾ a p l a s aɪ t b i k o z m i l u k i m i g o t a p b l o p u t i m f o t o n a m i w o k l o t i n t i n p l e n t i m i n o g a t w a n p l a f o t o n a m i f aʊ l j a t a s o l eɪ m o ɾ aɪ t 
[596.415]
<no-speech> 
[599.195]
o k eɪ 
[599.705]
<no-speech> 
[600.120]
