[0.000]
<no-speech> 
[3.425]
<no-speech> 
[3.805]
<no-speech> 
[12.002]
<no-speech> 
[20.198]
<no-speech> 
[28.395]
<no-speech> 
[30.185]
<no-speech> 
[32.035]
<no-speech> 
[32.385]
<no-speech> 
[39.075]
<no-speech> 
[39.525]
<no-speech> 
[40.895]
h a j u s t o p o ɾ aɪ t h a 
[42.205]
<no-speech> 
[45.385]
a m o k eɪ j u g o l o h aʊ s i k t u oʊ n o g a t 
[48.785]
<no-speech> 
[53.985]
j e aɪ t e s t b l o j u j a 
[55.405]
<no-speech> 
[59.245]
j u g o ʧ e k i m 
[60.035]
<no-speech> 
[62.055]
h a j u s i n d aʊ n j e t l o h aʊ s i k h a 
[64.045]
<no-speech> 
[67.635]
n a j u w o k i m a ɾ eɪ n ʤ m e n t l o k a m l o d o k t a t u oʊ n o g a t 
[70.855]
<no-speech> 
[80.125]
o k eɪ j u p u t i m p eɪ p a oʊ w a n e m j a g o i n s aɪ t f i n i ʃ h a 
[84.515]
<no-speech> 
[89.355]
h a 
[89.995]
<no-speech> 
[94.635]
o k eɪ g u t p l a n a 
[96.045]
<no-speech> 
[97.035]
l o t aɪ m j u b i n ʧ e k i m l o w a n e m j a t u oʊ n o g a t aɪ p ɾ o b l e m b l o j u 
[100.455]
<no-speech> 
[104.675]
p a s t aɪ m j u b i n l u k i m d o k t a t u oʊ n o g a t m i t o k 
[107.255]
<no-speech> 
[112.075]
o k eɪ n a d i s l a j a eɪ m g ɾ oʊ θ h a g ɾ oʊ θ l o aɪ b l o j u h a 
[117.005]
<no-speech> 
[121.455]
o k eɪ n a o l d t o k w a n e m j u b aɪ l u k i m eɪ m n aʊ oʊ j u w o k i m s a m p l a w a n e m j a a p ɔɪ n t m e n t n a m b aʊ t oʊ 
[131.265]
<no-speech> 
[139.695]
o k eɪ g u t p l a 
[141.185]
<no-speech> 
[142.705]
o k eɪ n a a n t i n a a n k o l n a o l g e t a l aɪ n 
[146.075]
<no-speech> 
[152.015]
o k eɪ a m a s t e m i k a m v i s i t j a o l d t o k w a n e m 
[157.005]
<no-speech> 
[162.345]
h a <laugh> o k eɪ 
[165.715]
<no-speech> 
[166.865]
o n e s t m i eɪ m m eɪ k i m d i s l a 
[168.785]
<no-speech> 
[169.715]
h a 
[170.495]
<no-speech> 
[173.675]
m i s t o p l o d e l ɔɪ t 
[174.775]
<no-speech> 
[176.475]
d e l ɔɪ t 
[177.365]
<no-speech> 
[180.565]
j e s oʊ o n e s t m i w a n e m j a m i t i m s n eɪ k j a n a o l d 
[185.985]
<no-speech> 
[186.805]
b i g b ɾ o b i g p l a b a ɾ a t a s t o p l o o s t ɾ eɪ l i a eɪ m t o k o l s e m 
[190.585]
<no-speech> 
[191.685]
j u g o l o ɾ o n a p j a 
[195.075]
<no-speech> 
[199.375]
eɪ m j a 
[200.395]
<no-speech> 
[202.245]
h a 
[203.095]
<no-speech> 
[207.545]
j e eɪ m t o k o l s e m k aɪ n d n a 
[208.995]
<no-speech> 
[210.645]
m i t o k h a l i k l i k s a m θ i n n a m b aʊ t j a m a s k i m i t o k 
[214.335]
<no-speech> 
[221.435]
j e n a s m o l s i z d t o k w a n e m 
[224.035]
<no-speech> 
[228.945]
s m o l 
[229.465]
<no-speech> 
[230.635]
j e k aɪ n d o l s e m eɪ m w o k i m s a m p l a o l d t o k t o k n a m b aʊ t oʊ 
[235.015]
<no-speech> 
[241.085]
h a 
[241.745]
<no-speech> 
[243.755]
j e eɪ m m a s t g u t p l a <no-speech> 
[248.505]
oʊ o k eɪ 
[249.605]
<no-speech> 
[250.765]
s o ɾ e m i p l a i n oʊ t o k h e l o oʊ w a n e m t o k b aɪ l o eɪ m n a k a m g o 
[254.435]
<no-speech> 
[259.285]
o k eɪ n a a n t i a n t i t a w a l e t u h a 
[262.805]
<no-speech> 
[268.055]
a n t i a n t i t o k w a n e m m i t o k 
[269.935]
<no-speech> 
[273.575]
h a 
[274.245]
<no-speech> 
[276.885]
n oʊ m i t o k 
[277.735]
<no-speech> 
[280.695]
<int> j u o ɾ aɪ t oʊ n oʊ a n t i t o k w a n e m m i t o k a n t i 
[285.525]
<no-speech> 
[290.055]
h a 
[290.615]
<no-speech> 
[292.225]
o k eɪ 
[293.455]
<no-speech> 
[296.175]
g u t p l a s t e ɾ e t n a o k eɪ j u s a l aɪ k l o p l eɪ i m w a n e m j a w a n e m s p o t s b l o j u aɪ m i n l aɪ k o l d g eɪ m z n a m b aʊ t 
[303.295]
<no-speech> 
[309.235]
h eɪ b aɪ j u g o ʤ a s t f i n i ʃ i m t o k t o k b l o m i p a s t aɪ m 
[312.625]
<no-speech> 
[318.245]
b aɪ j u g o j a n a j u t o k s oʊ j u t o k t o k w a n t aɪ m n a g o 
[321.905]
<no-speech> 
[325.975]
h a 
[326.565]
<no-speech> 
[331.275]
j e ʤ a s t aɪ m i n eɪ m t e n t m i n i t t a s o l j a f i n i ʃ i m p a s t aɪ m p l i z d 
[335.845]
<no-speech> 
[339.115]
o k eɪ a m w a n e m s p o t s b l o j u m i t o k h a j u s a l aɪ k p l eɪ w a n e m k aɪ n d g eɪ m n a m b aʊ t 
[344.515]
<no-speech> 
[347.885]
b a s k e t b o l h a 
[349.095]
<no-speech> 
[352.245]
eɪ m s t e ɾ e t eɪ m f e v e ɾ i t b l o m i t u j a 
[354.745]
<no-speech> 
[357.675]
n a n a ɾ a p l a n o g a t ɾ a g b i n a m b aʊ t j u s a l aɪ k p l eɪ oʊ n o g a t 
[360.765]
<no-speech> 
[364.815]
n o g a t h a o n e s t o l d m e ɾ i s a p l eɪ ɾ a g b i j a n e t b a l n a m b aʊ t 
[369.945]
<no-speech> 
[375.125]
n o g a t s t e ɾ e t h a 
[376.425]
<no-speech> 
[381.305]
s oʊ j u s a l aɪ k i m b a s k e t b o l t a s o l h a 
[383.345]
<no-speech> 
[387.305]
o k eɪ 
[388.245]
<no-speech> 
[393.115]
n a o l g e t a t aɪ m j u s a l eɪ z l o p l eɪ b a s k e t h a e n i g eɪ m z h a 
[396.865]
<no-speech> 
[399.065]
o l d n a ɾ a p l a 
[399.695]
<no-speech> 
[400.685]
n a n a ɾ a p l a g eɪ m n a m b aʊ t 
[402.325]
<no-speech> 
[405.135]
s o k a 
[405.935]
<no-speech> 
[408.055]
o k eɪ <no-speech> g u t p l a 
[411.055]
<no-speech> 
[412.355]
n a o l d f e v e ɾ i t m u v i m u v i b l o j u n a m b aʊ t w a n e m w a n e m w a n e m 
[417.335]
<no-speech> 
[420.945]
o l d f e v e ɾ i t m u v i b l o j u m i t o k m u v i j u s a l aɪ k j u s a l aɪ k l o w o ʧ i m w a n e m m u v i 
[425.735]
<no-speech> 
[430.575]
h a 
[431.155]
<no-speech> 
[438.445]
t w aɪ l aɪ t h a 
[439.605]
<no-speech> 
[442.185]
t w aɪ l aɪ t t w aɪ l aɪ t m u v i h a 
[444.365]
<no-speech> 
[445.475]
o k eɪ n a n a ɾ a p l a n a ɾ a p l a 
[448.135]
<no-speech> 
[450.545]
<no-speech> 
[451.645]
<no-speech> 
[452.485]
eɪ m t a s o l h a t u p l a t a s o l h a 
[454.135]
<no-speech> 
[457.845]
o k eɪ <no-speech> h a n oʊ i n oʊ t u p l a n a ɾ a p l a t u j u s a l aɪ k i m j a j u t o k 
[463.895]
<no-speech> 
[470.045]
n oʊ t i n i m n a ʤ a s t t o k t o k j a l aɪ k w a n e m k aɪ n d o l d m u v i o l d t i n eɪ ʤ m u v i oʊ o l d b i g p l a l aɪ n m u v i oʊ d i s l a k aɪ n d n a m b aʊ t 
[479.795]
<no-speech> 
[484.355]
h a 
[485.045]
<no-speech> 
[488.825]
j e j e m i k l iɐ m i k l iɐ 
[490.345]
<no-speech> 
[495.035]
o k eɪ 
[496.575]
<no-speech> 
[499.225]
j e o k eɪ n a j u s a l aɪ k h e v i m o l d f ɾ e n d z n a m b aʊ t oʊ n o g a t 
[502.475]
<no-speech> 
[506.045]
j u s a l aɪ k l o h e v i m o l d f ɾ e n d z n a m b aʊ t oʊ n o g a t h aʊ m a s k aɪ n d o l s e m l o l aɪ p b l o j u h aʊ m a s p e l a f ɾ e n d z j u g o t n aʊ 
[512.705]
<no-speech> 
[520.445]
h a 
[521.095]
<no-speech> 
[524.165]
h aʊ m a s p e l a 
[525.005]
<no-speech> 
[530.065]
n oʊ i n oʊ n eɪ m m i n oʊ t o k m i n oʊ t o k i m j u l o k o l i m n eɪ m ʤ a s t t o k h a m i g o t d i s l a f ɾ e n d k aɪ n d o l s e m 
[536.485]
<no-speech> 
[538.715]
j e o l s e m m i ʤ a s t a s k i m t a s o l 
[540.525]
<no-speech> 
[541.995]
t ɾ i p l a f ɾ e n d j u s a l aɪ k i m s t e ɾ e t h a 
[544.045]
<no-speech> 
[545.315]
h a 
[545.885]
<no-speech> 
[548.045]
t ɾ i p l a f ɾ e n d j u <no-speech> o k eɪ n a o k eɪ n a j u s a l aɪ k l o w o k i m o l d n j u p l a n j u p l a f ɾ e n d oʊ n o g a t 
[557.485]
<no-speech> 
[562.325]
h a 
[563.095]
<no-speech> 
[564.255]
h a 
[564.895]
<no-speech> 
[567.475]
j e s h a <laugh> o k eɪ g u t p l a n a 
[575.465]
<no-speech> 
[576.945]
o k eɪ n a o k eɪ n aʊ 
[579.235]
<no-speech> 
[580.355]
w a n e m j a h a j u s a h a ɾ i m l o t u l o w a n e m j a 
[583.105]
<no-speech> 
[589.655]
j e l o t u j u s a h a ɾ i m l o w a n e m ʧ e ʧ j a 
[591.795]
<no-speech> 
[593.145]
j u s a 
[593.925]
<no-speech> 
[594.925]
j e j e 
[595.645]
<no-speech> 
[600.020]
