[0.000]
<no-speech> 
[0.615]
<no-speech> 
[2.195]
<no-speech> 
[3.335]
h e l o 
[3.975]
<no-speech> 
[6.265]
<no-speech> 
[6.685]
<no-speech> 
[7.875]
m eɪ 
[8.625]
<no-speech> 
[13.175]
j u t o k 
[13.975]
<no-speech> 
[23.315]
aɪ j o o n e s t t u p l a l e g b l o m i j a i d aɪ s t e ɾ e t m i p l a p l eɪ g o g o n a 
[27.395]
<no-speech> 
[34.235]
g eɪ m i n t e ɾ e s t i n j a j u p l a n oʊ k a m h a 
[37.175]
<no-speech> 
[44.995]
aɪ j a j u p l a ʃ u t k a m m i p l a p l eɪ g o g o g o g o w o n t o k l o k oʊ t u o k l o k n a m b aʊ t m i p l a f i n i ʃ 
[50.615]
<no-speech> 
[52.975]
<no-speech> 
[54.015]
<no-speech> 
[56.565]
j e o l d t o k 
[57.575]
<no-speech> 
[58.445]
o l d t o k n e k s g eɪ m t u b aɪ m i p l a p l eɪ 
[60.575]
<no-speech> 
[62.595]
<no-speech> 
[62.965]
<no-speech> 
[67.805]
b a θ j u p l a m i s i m ʧ e n s b l o j u p l a o l d t u m aɪ l t u k a m p l eɪ w a n t aɪ m m i p l a j u n i g e ɾ e h u j a o l d k a m o l d p l eɪ w a n t aɪ m m i p l a 
[75.895]
<no-speech> 
[79.835]
j e 
[80.455]
<no-speech> 
[82.355]
<no-speech> 
[82.745]
<no-speech> 
[86.825]
m i p l a p l eɪ v o l i b o l b a s k e t b o l 
[91.695]
<no-speech> 
[93.065]
s o k a n a ɾ a g b i 
[96.175]
<no-speech> 
[97.335]
<no-speech> 
[97.745]
<no-speech> 
[100.725]
j e k aɪ n d m e ɾ i l o n p l a m e ɾ i o l s e m j u j a j u s a p oʊ z d l o k a m n a p l eɪ j a 
[104.435]
<no-speech> 
[105.575]
<no-speech> 
[106.115]
<no-speech> 
[110.305]
<int> j u ʃ u t k a m j u n a h u s aɪ t j a ʤ o l i n j a j u p l a l eɪ z l o k a m h a t u p l a l o n p l a l e g h a n t l aɪ n eɪ 
[117.195]
<no-speech> 
[123.405]
aɪ j a j u ʃ u t t o k i m m a d a l aɪ n t u o l d f a ð a n a m a d a t u p l eɪ j a 
[126.885]
<no-speech> 
[128.195]
o l d p l eɪ t i n t <oov> t i n t <oov> m i <oov> m i l u z t i n t i n j a o l d p l eɪ t i n t g eɪ m t u 
[131.985]
<no-speech> 
[134.435]
j e 
[135.145]
<no-speech> 
[138.595]
n a s i k a ɾ a p i m k o k o n a s 
[140.455]
<no-speech> 
[142.525]

[142.955]
<no-speech> 
[143.775]
<no-speech> 
[145.055]
<no-speech> 
[150.105]
i n oʊ t i n t j a b a l u n j a w a ɾ a w a n t aɪ m b a l u n j a m i s k aʊ t j a 
[153.925]
<no-speech> 
[155.045]
m i s k j u l o <no-speech> s e n t n a m i p u n d aʊ n 
[158.305]
<no-speech> 
[160.235]
<no-speech> 
[161.125]
<no-speech> 
[162.215]
n a m i b i ɾ u k i m l e g b l o m i 
[163.685]
<no-speech> 
[169.345]
n o g a t j a n aɪ t o l d ɾ a ʃ i m m i p l a g o l o h aʊ s i k j a n a m i p l a f i n i ʃ n a k a m t a s o l l e g i n oʊ b i ɾ u k <no-speech> t w i s t i m t a s o l 
[176.705]
<no-speech> 
[177.545]
m i s t o p l o h aʊ z n aʊ 
[178.935]
<no-speech> 
[179.835]
j e 
[180.475]
<no-speech> 
[182.255]
<no-speech> 
[182.615]
<no-speech> 
[190.395]
<hes> j u p l a w o ʧ i m w a n e m k aɪ n d m u v i g e n 
[192.545]
<no-speech> 
[195.925]
eɪ <sta> h e ɾ a n a m i g a n 
[198.795]
<no-speech> 
[199.855]
<sta> j e m i p l a p l eɪ g o g o g o g o n a h u s aɪ t j a l i d a j a s e l a s t i n l aɪ n o l d t u p l eɪ b a s k e t b o l 
[211.795]
<no-speech> 
[212.385]
<no-speech> 
[213.555]
j e eɪ m p l eɪ b a s k e t b o l 
[215.215]
<no-speech> 
[216.405]
eɪ m eɪ m eɪ m k oʊ ʧ b l o o l d b a s k e t b o l l aɪ n 
[218.895]
<no-speech> 
[222.705]
<sta> u m h e m 
[223.695]
<no-speech> 
[228.785]
eɪ m s a p l eɪ m i t u n aʊ t a s o l a s k j e a s t e t a s o l m i l u k i m eɪ m p l eɪ n a 
[233.925]
<no-speech> 
[234.905]
m i t o k aɪ m i n oʊ s a l u k i m m a n t j a p l eɪ n a n aʊ t a s o l eɪ m p l eɪ <no-speech> b a s k e t b o l 
[239.185]
<no-speech> 
[244.845]
<int> <no-speech> o l d p l eɪ b a θ l o n p l a m a n t b l o g o ɾ o k a j u m a s t s a 
[248.525]
<no-speech> 
[253.835]
j e eɪ m b l o g o ɾ o k a 
[255.205]
<no-speech> 
[256.755]
<int> u m h u m 
[259.655]
<no-speech> 
[269.245]
j u <no-speech> <oov> f e v e ɾ i t g eɪ m b l o j u b a s k e t b o l 
[272.175]
<no-speech> 
[282.575]
u m h u m 
[283.305]
<no-speech> 
[287.365]
j e m i p l a p l eɪ g o g o n a m i p l a w o k a b aʊ t k a m d aʊ n 
[289.685]
<no-speech> 
[290.495]
j e 
[291.035]
<no-speech> 
[292.065]
<sta> m i eɪ m s k i n i d aɪ m i n oʊ 
[293.295]
<no-speech> 
[294.285]
m i t o k j a t u o k l o k n a m b aʊ t 
[296.065]
<no-speech> 
[297.365]
<no-speech> 
[297.715]
<no-speech> 
[299.345]
u m h u m 
[300.135]
<no-speech> 
[306.625]
<sta> m i p l a w o k a b aʊ t k a m j a h aʊ z k l o s t u s oʊ m i p l a w o k a b aʊ t 
[310.355]
<no-speech> 
[312.895]
<no-speech> 
[315.675]
<no-speech> 
[317.935]
n a j u p l a o ɾ aɪ t t a s o l <sta> 
[319.815]
<no-speech> 
[321.625]
j e m i p l a o ɾ aɪ t 
[322.735]
<no-speech> 
[324.005]
j e j u t o k j u p l a o l s e m w a n e m 
[325.425]
<no-speech> 
[334.555]
m a m i l aɪ n 
[335.505]
<no-speech> 
[340.295]
<no-speech> 
[340.935]
<no-speech> 
[342.715]
w eɪ s t <no-speech> m i p l a ʤ a s t e n ʤ ɔɪ s t e ɾ e t l o g eɪ m j a 
[346.545]
<no-speech> 
[352.635]
m i p l a e n ʤ ɔɪ s t e ɾ e t 
[354.035]
<no-speech> 
[357.855]

[358.215]
<no-speech> 
[359.115]
j e p l e n t i g e l z o l d g e l z l o a n t a p j a 
[363.635]
<no-speech> 
[364.645]
a n t a p p a g a 
[365.575]
<no-speech> 
[367.865]
u m h u m 
[368.575]
<no-speech> 
[376.695]
u m h u m 
[377.695]
<no-speech> 
[378.525]
m i p l a p l eɪ p l eɪ p l eɪ <sta> j e 
[381.855]
<no-speech> 
[382.895]
m i p l a p l eɪ i g o i g o n a <no-speech> m i p l a w o k a b aʊ t k a m d aʊ n w o k a b aʊ t l o t aʊ n k a m d aʊ n j a 
[389.355]
<no-speech> 
[390.385]
k a m l o h aʊ z 
[391.195]
<no-speech> 
[394.095]
h u s aɪ t 
[394.495]
j u s t o p w eɪ 
[395.505]
m i p l a s t o p l o t aʊ n j a p a g a h i l j a 
[397.385]
<no-speech> 
[400.015]
<sta> u m h e m 
[401.855]
<no-speech> 
[405.305]
n o g a t j a eɪ m m i p l a m i p l a g o p l eɪ j a o l d t u m aɪ l t u k a m t u m aɪ l ʧ e ʧ j a o l d k a m n a p l eɪ w a n t aɪ m m i p l a 
[411.555]
<no-speech> 
[413.225]
j e t u m aɪ l n a o l d j u n i 
[415.545]
<no-speech> 
[417.255]
j u p l a m i s i m n aɪ s p l a <oov> s oʊ ʃ e l g eɪ m s t e ɾ e t 
[420.335]
<no-speech> 
[424.905]
<hes> 
[425.755]
<no-speech> 
[431.345]
<no-speech> 
[431.815]
<no-speech> 
[435.605]
n a o l d t o k n e k s a f t a w o n t m a n t n a m b aʊ t b aɪ m i p l a p l eɪ g e n 
[439.265]
<no-speech> 
[443.305]
<no-speech> 
[443.725]
<no-speech> 
[445.495]
b i k o z e n d o v e v ɾ i t e m p eɪ m m i p l a s a p l eɪ 
[447.805]
<no-speech> 
[450.795]
j e 
[451.625]
<no-speech> 
[456.795]
n a o l d s a a n aʊ n s i m j a 
[458.605]
<no-speech> 
[463.805]
o k eɪ n e k s t aɪ m o l d k a m t o k n aʊ b aɪ m i p l a t o k i m j u p l a n aʊ b aɪ j u m i g o <no-speech> p l eɪ 
[468.145]
<no-speech> 
[470.615]
u m h u m 
[471.415]
<no-speech> 
[477.695]
<no-speech> 
[478.065]
<no-speech> 
[479.015]
j e b a s k e t b o l <oov> n a j u g o t b a s k e t b o l b o l t u 
[481.795]
<no-speech> 
[486.225]
oʊ o k eɪ 
[487.335]
<no-speech> 
[493.375]
h a o l d b aɪ k i s i m k a m b a s k e t b o l b o l v o l i b o l b o l ɾ a g b i 
[498.605]
<no-speech> 
[500.295]
<no-speech> 
[500.645]
<no-speech> 
[506.295]
m i f e v e ɾ i t g eɪ m b l o m i eɪ m s t o p n a t i n l o h aʊ z 
[510.135]
<no-speech> 
[513.485]
s t o p n a t i n l o h aʊ z m i s a s k i n i d aɪ s k i n i d aɪ j a 
[515.765]
<no-speech> 
[519.605]
<hes> j e s p o t l e s m i p l a g o a s t e m i n oʊ p l eɪ m i s i n d aʊ n n a t i n m i n a n a ɾ a p l a m a n k i l e n s j a j u t i n i m 
[524.995]
<no-speech> 
[531.645]
j a j u p l a l eɪ z l o k a m h a ʧ e n s b l o j u p l a f i n i ʃ m i p l a ʤ a s t g o s i n d aʊ n k aɪ k aɪ s i z d p o p n a t i n n a t i n ɾ aʊ n ɾ aʊ n n a m i p l a k a m 
[537.185]
<no-speech> 
[544.345]
u m h e m 
[545.195]
<no-speech> 
[547.185]
j e <int> 
[548.855]
<no-speech> 
[552.695]
<no-speech> 
[553.435]
<no-speech> 
[558.615]
b aɪ j u p l a g o p l eɪ l o w eɪ 
[559.855]
<no-speech> 
[560.875]
<no-speech> 
[562.465]
b aɪ m i p l a g o p l eɪ l o <oov> 
[564.375]
j u n i 
[565.755]

[567.665]
<breath> t e s k j u p l a f i t l o w i n i m o l d h a o l d eɪ m o l d s t a z j a <no-speech> <breath> p l e n t i j u n i s t a z l o h a p j a 
[577.035]
<no-speech> 
[581.885]
<no-speech> 
[582.445]
<no-speech> 
[583.685]
<int> h a <int> 
[590.075]
<no-speech> 
[592.105]
t e s k b aɪ m i t ɾ aɪ i m k a m d aʊ n n a l u k i m <oov> s a n d eɪ j u p l a s a t ɾ eɪ n i n n a w a n e m t aɪ m j u p l a s a p l eɪ 
[596.595]
<no-speech> 
[598.375]
<no-speech> 
[599.315]
<no-speech> 
[600.100]
