[0.000]
<no-speech> 
[6.375]
h e l o 
[6.915]
<no-speech> 
[8.915]
h e l o 
[9.405]
<no-speech> 
[13.405]
h e l o j u t o 
[14.165]
<no-speech> 
[16.445]
j e j u t o k j e 
[18.765]
<no-speech> 
[20.305]
h e l o 
[20.895]
<no-speech> 
[27.435]
j e o l s e m w a n e m j u w a n e m 
[28.965]
<no-speech> 
[29.865]
<sta> a s k i m a s t e o l d l aɪ n j a k a m 
[32.415]
<no-speech> 
[34.465]
h u s aɪ t 
[35.055]
<no-speech> 
[36.565]
h u s aɪ t 
[37.215]
<no-speech> 
[44.435]
m i i s t o p l o h aʊ z 
[45.605]
<no-speech> 
[52.415]
j e o l d o l g e t a i g o s k u l o l g e t a i o ɾ aɪ t n aʊ m o n i n o l d m a n t i n oʊ k aɪ k aɪ n a o l d i g o n a m b aʊ t n a m b aʊ t 
[58.315]
<no-speech> 
[65.305]
k w i n eɪ m m i i n oʊ k l iɐ a t i n eɪ m m a s t ð i s w i k oʊ n e k s w i k n a m b aʊ t o k eɪ eɪ m b aɪ i k a m l o h aʊ z 
[69.575]
<no-speech> 
[73.905]
j e s 
[75.085]
<no-speech> 
[76.175]
h u s aɪ t 
[76.815]
<no-speech> 
[79.945]
h u s aɪ t l aɪ n 
[80.655]
<no-speech> 
[83.095]
<no-speech> 
[83.935]
<no-speech> 
[85.035]
o l d t o k l o i g o a n t a p j a t a s o l m i l eɪ z j a b i k o z eɪ m h aʊ z k a ɾ aɪ j a l o ð i s w i k e n d j a 
[90.795]
<no-speech> 
[95.515]
<hes> 
[95.975]
<no-speech> 
[99.425]
o l d t o k o l d b aɪ <oov> k a ɾ i m k a m l o s a t a d eɪ j a s a t a d eɪ l o m o n i n s t o p i g o t u l aɪ t g o i i n a p s a n d eɪ n a o l d b aɪ k a ɾ i m 
[107.305]
<no-speech> 
[109.825]
j e h a t u m o ɾ o m i h a ɾ i m l o m a m z o l s e m θ e z d eɪ eɪ m o l d v e ɾ a t aʊ f e m i l i b aɪ i g o l o h aʊ z k a ɾ aɪ 
[116.405]
<no-speech> 
[120.045]
j e 
[120.685]
<no-speech> 
[124.415]
j e o l d o l g e t a m a n k i b aɪ i k a m m i t e k s t i m o l d n a m i t o k s a v e s oʊ 
[128.645]
<no-speech> 
[130.965]
o l d t u b aɪ i g o 
[132.055]
<no-speech> 
[132.985]
o l d t u b aɪ i g o 
[134.055]
<no-speech> 
[136.495]
h a d i s l a o l d l aɪ n j a m i i n oʊ k l iɐ 
[138.695]
<no-speech> 
[141.245]
<no-speech> 
[141.675]
<no-speech> 
[143.235]
j e 
[143.965]
<no-speech> 
[144.855]
<int> j e s s k u l b l o m i o ɾ aɪ t <int> p l e n t i f ɾ e n d z n a p l e n t i w a n t o k t u n a k aɪ n k aɪ n f eɪ s n a 
[155.315]
<no-speech> 
[157.235]
<no-speech> 
[157.585]
<no-speech> 
[160.765]
j e o l d i s t o p o ɾ aɪ t 
[162.175]
<no-speech> 
[164.495]
m i p l a s a i g o p aɪ n i m o l d g e l z 
[166.425]
<no-speech> 
[172.415]
o l d g e l z p l e n t i o l d g e l z t u m a s o n e s t 
[175.615]
<no-speech> 
[184.565]
s oʊ n aʊ n aʊ j e t j u i s t o p l o w eɪ 
[186.355]
<no-speech> 
[192.935]
<no-speech> 
[193.335]
<no-speech> 
[197.665]
h a 
[198.495]
<no-speech> 
[199.715]
o k eɪ m i j a m i i s t o p l o d aʊ n t aʊ n m i i s t o p l o d e l ɔɪ t 
[204.125]
<no-speech> 
[207.775]
j e 
[208.545]
<no-speech> 
[209.575]
m i k a m l u k i m ɾ eɪ l i n n a m i l aɪ k i g o b eɪ k k eɪ n j a 
[212.295]
<no-speech> 
[213.365]
j e 
[213.995]
<no-speech> 
[216.785]
j e i g o t s a m p l a o l d w o k l o m eɪ k i m t u s oʊ 
[219.225]
<no-speech> 
[226.275]
<int> n eɪ m b l o a k aʊ n t l e k ʧ a b l o m i eɪ m j a n eɪ m 
[230.005]
<no-speech> 
[231.495]
n eɪ m b l o eɪ m m i s t a aɪ h a 
[233.445]
<no-speech> 
[237.735]
j e n a n aʊ l eɪ t e s t w o n t eɪ m m i s t a m aɪ j e n a n aʊ l eɪ t e s t w o n t eɪ m m i s t a m aɪ 
[243.585]
<no-speech> 
[252.905]
j e o l d l a p u n o l d f a ð a o l d o l d s a <oov> 
[255.985]
<no-speech> 
[257.805]
o l d l a p u n t u o l d l aɪ n w eɪ o l d s a w o k a b aʊ t w a n t aɪ m w e k i n s t i k 
[260.705]
<no-speech> 
[265.715]
j e eɪ m j a p l e n t i p l e n t i s t e ɾ e t 
[268.665]
<no-speech> 
[270.035]
h a n a b aɪ m i t o k w a n e m k eɪ n 
[272.055]
<no-speech> 
[275.065]
<int> s oʊ eɪ m j a 
[276.965]
<no-speech> 
[280.255]
s oʊ s a t a d eɪ eɪ m s oʊ s a t a d eɪ eɪ m d i s l a o l d m a n k i p l eɪ s m a n k i b aɪ k a m d aʊ n n a b aɪ m i p l a s i n s i n l o h aʊ z k a ɾ aɪ t u oʊ 
[286.095]
<no-speech> 
[293.315]
j u n oʊ k l iɐ b a θ 
[294.815]
<no-speech> 
[296.715]
m i i n oʊ t o k i m o l d l o k a m t a s o l o l s e m o l d l aɪ k o l d j e t l aɪ k k a m s oʊ 
[300.305]
<no-speech> 
[302.435]
j e s t a d i w o k l o k oʊ l d i s t o p j a t a s o l 
[304.795]
<no-speech> 
[308.265]
t a d i w o k l o k oʊ l d i s t o p j a 
[310.205]
<no-speech> 
[319.235]
ʤ e s i eɪ m ʤ e s i eɪ m eɪ m i n oʊ k oʊ l d j a b i k o z m i p l a t u p l a m i p l a k ɾ o s l o m i p l a j e t s oʊ m i i n oʊ s a w e ð a eɪ m b aɪ i k a m oʊ n o g a t 
[327.105]
<no-speech> 
[333.585]
b a θ s a g i eɪ m m i t o k i m 
[335.045]
<no-speech> 
[337.435]
n a a n t o n 
[338.515]
<no-speech> 
[339.635]
l aɪ s i 
[340.535]
<no-speech> 
[343.525]
j e m i t o k i m s a g i o l d m e ɾ i eɪ m o l d i s t o p 
[346.295]
<no-speech> 
[347.465]
j e eɪ m j a a s t e n aɪ t o l d k o l i m m i n a o l d t o k o l d <oov> 
[350.455]
<no-speech> 
[351.345]
o l d t o k 
[352.105]
<no-speech> 
[355.935]
h u s aɪ t 
[356.755]
<no-speech> 
[363.215]
oʊ eɪ m j a o l s e m n a m i t o k 
[364.885]
<no-speech> 
[369.835]
eɪ m b aɪ s a g i b aɪ s a g i n a <no-speech> s a g i n a 
[374.135]
<no-speech> 
[375.415]
l aɪ s i s t o p l o p l eɪ s j a eɪ m s a ɾ i v a n a h u s aɪ t j a v e ɾ a t aʊ t a s o l b aɪ i k a m d aʊ n 
[379.255]
<no-speech> 
[384.455]
j e m i t o k i m o l d 
[385.925]
<no-speech> 
[387.205]
m i n oʊ k l iɐ b a θ o l s e m o l s e m w a n e m w o t w o t j e t j a 
[390.355]
<no-speech> 
[391.935]
ɾ eɪ d i m b a s f eɐ b l o o l d j u 
[393.735]
<no-speech> 
[404.695]
h aʊ z k a ɾ aɪ b l o j u p l a s oʊ 
[406.655]
<no-speech> 
[413.145]
<int> n a w aɪ j u p l a <laugh> i s t o p l o h a p 
[415.795]
<no-speech> 
[421.315]
o k eɪ s oʊ p a p s l aɪ n o l d i s t o p l o w eɪ n aʊ 
[423.655]
<no-speech> 
[431.485]
o k eɪ 
[432.345]
<no-speech> 
[435.435]
<hes> w a n p l a h aʊ z 
[437.815]
<no-speech> 
[439.845]
w a n p l a h aʊ z k a ɾ aɪ l o w a n e m j a t o k a ɾ a ɾ a j a 
[442.465]
<no-speech> 
[443.835]
a s t e n aɪ t 
[444.725]
<no-speech> 
[448.415]
j e n a o l d m a n k i o l d m a n k i g o d aʊ n n a o l d i g o s i n s i n l o h a p 
[452.235]
<no-speech> 
[456.275]
j e s oʊ n aʊ m o n i n eɪ m o l d i g o a n t a p l o p l eɪ s j a 
[459.835]
<no-speech> 
[463.915]
s a g i t a d i ɾ a k a 
[466.095]
<no-speech> 
[469.175]
m i i n oʊ s a j a eɪ m m a s t ʤ u m a oʊ 
[471.235]
<no-speech> 
[479.325]
<no-speech> 
[487.415]
<no-speech> 
[495.505]
<hes> 
[496.355]
<no-speech> 
[505.865]
j e 
[506.735]
<no-speech> 
[507.895]
o l s e m o l s e m o l d i g o s i n s i n l o h aʊ z k a ɾ aɪ i g o t u l aɪ t n a n aʊ m o n i n o l d i g o a n t a p l o p l eɪ s j a 
[512.035]
<no-speech> 
[515.915]
j e 
[516.565]
<no-speech> 
[519.225]
g o 
[519.705]
<no-speech> 
[522.175]
d e d i 
[522.855]
<no-speech> 
[524.025]
<oov> h e n t a s n a v e ɾ a t aʊ 
[525.975]
<no-speech> 
[527.535]
h e n a ɾ i n a v e ɾ a t aʊ 
[528.935]
<no-speech> 
[534.235]
j e 
[534.895]
<no-speech> 
[536.905]
h e n ɾ i h e n ɾ i 
[538.025]
<no-speech> 
[545.095]
j e s o l s e m w a n e m eɪ m ʧ a ʤ n o g a t k a ɾ b aɪ k a ɾ i m o l d i k a m d aʊ n eɪ m b aɪ ʤ a s t m i t o k i m v e ɾ a t aʊ n a s a ɾ i v a l o k a m d aʊ n m a s k i l o o l g e t a m a n t 
[553.345]
<no-speech> 
[561.975]
j e b aɪ m i ʤ a s t t ɾ aɪ a s k i m o l d t a d i w o k l o k o l i m m i b a θ j u m i t u p l a w o k l o t o k t o k l o f oʊ n i s t o p s oʊ 
[567.515]
<no-speech> 
[573.555]
j e b a θ o l s e m w a n e m eɪ m b aɪ m i k o l i m o l d b i h aɪ n n a t ɾ aɪ a s k i m o l d s a p oʊ z d n o g a t b a s f eɐ eɪ m s a p oʊ z d o l d n o g a t k a ɾ eɪ m eɪ m n a v e ɾ a t aʊ t a s o l b aɪ k a m d aʊ n 
[584.155]
<no-speech> 
[588.445]
<int> j e 
[589.465]
<no-speech> 
[592.455]
ʃ a n o g a t j a m i b i s i t u m a s j a b aɪ m i i n oʊ i i n a p k a m 
[595.065]
<no-speech> 
[596.035]
n o g a t t u m o ɾ o o k eɪ 
[597.715]
<no-speech> 
[600.080]
