[0.000]
<no-speech> 
[0.895]
<no-speech> 
[1.495]
<int> 
[7.735]
h e l o 
[8.345]
<no-speech> 
[11.395]
<int> n i s e n 
[13.405]
<no-speech> 
[15.305]
h e l o 
[15.885]
<no-speech> 
[16.775]
u w aɪ m j u h a ɾ i m m i 
[18.785]
<no-speech> 
[21.275]
j u t o k 
[24.495]
<no-speech> 
[26.595]
<int> o k eɪ 
[31.905]
<no-speech> 
[34.045]
<laugh> j e h e l o j u p l a k a m f i n i ʃ l o m o z b i h a <cough> w a n e m t aɪ m j u p l a i k a m 
[43.185]
s a b e θ b u b u k a ɾ aɪ eɪ m l eɪ z l o d i s l a h a p 
[45.485]
<int> 
[46.345]
t a 
[46.745]
<no-speech> 
[50.055]
<int> w a n e m t aɪ m j u p l a i k a m 
[53.455]
<no-speech> 
[54.255]

[55.305]
<no-speech> 
[56.305]
j e m i h a ɾ i m j u g u d j e θ e z d eɪ n aɪ t h a m i t o k θ e z d eɪ n aɪ t f i f t i n m a n t s θ e z d eɪ n aɪ t 
[64.065]
a n k o l 
[65.745]
j u h a 
[66.295]
<no-speech> 
[68.245]
m i t o k l o k e ɾ e m a h aʊ j u i s t o p j u i s t o p g u d oʊ 
[71.455]
<no-speech> 
[75.795]
j u h a ɾ i m m i h a j e m i i s t o p o ɾ aɪ t 
[78.755]
<no-speech> 
[79.635]
oʊ o k eɪ o l d <no-speech> 
[82.435]
j e j u t o k s t o ɾ i j u s t o ɾ i <int> 
[85.195]
<no-speech> 
[86.735]
j u s t o ɾ i l o k e ɾ e m a j u m i t u p l a b aɪ s t o ɾ i 
[89.495]
<no-speech> 
[91.705]
<no-speech> 
[92.065]
<no-speech> 
[94.205]
<int> n o g a t j a j u i n oʊ k eɪ n l u s i m d a l i p u t i m <hes> eɪ m p u t i m s k u l l o j u 
[102.865]
<no-speech> 
[103.665]
p u t i m t a m b i l eɪ m b aɪ p u t i m j a j u m i t u p l a b aɪ i s t o ɾ i l o f i f t i n m i n i t s 
[109.025]
<no-speech> 
[113.615]
m i t u p l a b aɪ i s t o ɾ i l o f i f t i n m i n i t s m i n i t s 
[117.235]
<no-speech> 
[120.605]
j u m i t u p l a b aɪ 
[122.185]
<no-speech> 
[123.695]
j u s a l i m w a n e m s a m θ i n b u a i oʊ w a n e m <int> 
[127.135]
<no-speech> 
[128.515]
<int> <laugh> 
[131.565]
<no-speech> 
[135.515]
<int> o k eɪ j u h a ɾ i m m i h a 
[140.025]
<no-speech> 
[140.925]
<int> h a 
[142.065]
<no-speech> 
[142.945]
oʊ o k eɪ m i s a n aʊ 
[145.985]
<no-speech> 
[147.275]
j u m i t u p l a b aɪ s t o ɾ i j u s a l i m w a n e m s a m θ i n 
[150.695]
<no-speech> 
[153.065]
j u s a l i m b u a i s t o p j u s a l i m b u a i h a 
[156.335]
<no-speech> 
[158.825]
<no-speech> 
[159.335]
<no-speech> 
[160.365]
b u a i n a w a n e m s a m θ i n m a k e t s a m θ i n m a k w a n e m m a k e t s a m θ i n j u s a l i m 
[164.735]
<no-speech> 
[167.875]
b u a i t a s o l b u a i t a s o l p l e n t i h a 
[170.665]
<no-speech> n o g a t j a 
[174.695]
j e s 
[175.145]

[176.865]
n a j u b aɪ ɾ i n i m m i eɪ m m i k a m k i s i m b u a i j a m i i i d aɪ l o b u a i 
[181.195]
<no-speech> 
[185.215]
j u h a ɾ i m h a 
[186.365]

[189.715]
oʊ 
[190.235]

[191.525]
j e 
[192.205]
<no-speech> 
[193.365]
<int> j u s a o l s e m d e d i i k a m f i n i ʃ 
[195.485]
<no-speech> 
[197.615]
h a 
[198.195]
<no-speech> 
[199.245]
d e d i i k a m f i n i ʃ f ɾ aɪ d eɪ eɪ m i k a m h a 
[203.105]
<no-speech> 
[204.975]
<int> h a 
[207.665]
<no-speech> 
[210.695]
<no-speech> 
[211.065]

[212.745]
m i j a 
[213.375]

[216.295]

[216.655]
<no-speech> 
[217.595]
w a n e m eɪ m j a i n oʊ w a n p l a m a n t j a m i t o k i m j u f i n i ʃ 
[222.555]
<no-speech> 
[224.235]
m i g o t s t o ɾ i w a n t aɪ m l o f i f t i n m i n i t s 
[226.955]
<no-speech> 
[231.295]
m i l u a s t e d e d i o l d l aɪ n g o l o p l eɪ s a s t e d e d i n a m a m i t u p l a g o l o p l eɪ s j a a s t e o l d i g o s l i p l o h a p j a b ɾ aʊ n ɾ i v a n aʊ o l d b aɪ k a m 
[242.585]
<int> n a n aʊ o l d b aɪ k a m j a m i l aɪ k i g o b a θ m i a s t e m i e s k o t i m m e ɾ i i k a m l o k o n e j a 
[249.775]
<no-speech> 
[250.835]
s oʊ m i i n oʊ g o 
[251.975]
<no-speech> 
[253.185]
n aʊ o l d o l d ɾ i n i m m i p l a m o n i n n a o l d i t o k o l s e m o l d b aɪ k a m j a 
[257.425]
<no-speech> 
[259.305]
n a m i i n oʊ g o ʧ e k i m h u s aɪ t j a n a n s i 
[262.645]
<no-speech> 
[263.645]
m i i g o l o h a p n a m i b aɪ i g o ʧ e k i m n a n s i 
[266.235]
<no-speech> 
[272.885]
h a 
[273.475]
<no-speech> 
[275.935]
b e s i <cough> 
[276.785]
<no-speech> 
[277.995]
j e h u s aɪ t j a i g o w eɪ l a k s i w eɪ m a n t b l o j u w eɪ 
[283.155]
<no-speech> 
[286.655]
n a j u s t o ɾ i l o m i h aʊ j u i s t o p l o e n d j u s t o ɾ i j u k aɪ k aɪ f i ʃ oʊ p i g m i d oʊ w a n e m k aɪ n d a b u s j u s t o ɾ i 
[294.245]
<no-speech> 
[295.115]
k aɪ k aɪ j u k aɪ k aɪ b u a i oʊ s a k s a k oʊ p i g m i d oʊ j u s t o ɾ i h aʊ j u i s t o p l o k e ɾ e m a eɪ m j u s t o ɾ i j u m i t u p l a s t o ɾ i i s t o p f i f t i n m i n i t s s t o ɾ i 
[305.075]
<no-speech> 
[313.645]
<no-speech> 
[313.995]
<int> 
[319.105]
<no-speech> 
[319.455]
<no-speech> 
[323.575]
<no-speech> 
[323.925]
<no-speech> 
[326.555]
<no-speech> 
[327.125]
<no-speech> 
[335.755]
<no-speech> 
[336.535]
<no-speech> 
[338.645]
j e m i h a ɾ i m i s t o p j u s t o ɾ i 
[340.985]
<no-speech> 
[342.885]
j e 
[343.235]
<no-speech> 
[350.425]
<laugh> l o h iɐ 
[352.275]
<cough> 
[362.535]
<cough> j e p l i z d 
[363.475]
<no-speech> 
[369.825]
o k eɪ n aʊ j u p l a i s t o p w eɪ t aɪ k o n e 
[373.935]
<no-speech> 
[376.325]
h a o k eɪ 
[378.125]
j oʊ 
[379.375]
s a p oʊ z d j u m i i oʊ l o o l s e m m i 
[382.345]
<no-speech> 
[383.475]
m i i g o t b a s f eɐ b aɪ m i k a m l u k i m j u t u p l a m o ɾ i 
[385.905]
<no-speech> 
[389.175]
i n a p 
[389.665]
<no-speech> 
[390.775]
b aɪ m i k a m ʧ e k i m j u p l a m i l aɪ k b u a i m i b aɪ k a m k aɪ k aɪ i s t o p 
[394.985]
<no-speech> 
[398.235]
n aʊ n aʊ m i b aɪ i k a m h a 
[402.395]

[404.245]
<cough> j e <cough> 
[405.465]
<no-speech> 
[406.835]
j e b aɪ m i w eɪ ʧ e k i m n a n s i n a k a m ʧ e k i m j u p l a 
[410.845]
<no-speech> 
[412.585]
n aʊ 
[413.195]
<no-speech> 
[416.175]
h e m h a 
[417.905]

[421.025]
oʊ m i i s t o p l o 
[422.395]
<no-speech> 
[424.825]
h a 
[425.445]
<no-speech> 
[426.815]
w a n e m k aɪ n d t o k j a 
[427.955]
<no-speech> 
[432.495]
n o g a t j a m i p l a l aɪ k k aɪ k aɪ b u a i o l s e m n a m i p l a l aɪ k i k a m ʧ e k i m 
[436.705]
<no-speech> 
[440.265]
m i p l a i d aɪ l o b u a i s o ɾ e b u a i 
[443.155]
<no-speech> 
[446.285]
m i t o k m i b aɪ i m b u a i n a n s i b aɪ ʧ eɪ n ʤ i m 
[449.705]
<no-speech> 
[452.435]
n a n s i b aɪ p u t i m m i i i d aɪ l o b u a i 
[455.225]
<no-speech> 
[464.475]
p l i z d k a m 
[466.185]
<no-speech> 
[467.685]
j e 
[468.435]
<no-speech> 
[469.385]
<int> eɪ n a p i k i n i n i b ɔɪ b l o j u s t ɾ e t i m h u s aɪ t 
[473.015]
<no-speech> 
[475.675]
d i s l a g e l j a eɪ m s t o p l o h a p j a 
[477.495]
<no-speech> 
[478.575]
p i k i n i n i g e l b l o m i p l a eɪ m k a ɾ i m f i n i ʃ 
[481.505]
<no-speech> 
[486.995]
b ɔɪ oʊ <no-speech> 
[489.055]
<no-speech> 
[491.765]
<no-speech> 
[493.075]
h a 
[493.515]
<no-speech> 
[496.225]
<int> b ɔɪ h a 
[497.805]
<no-speech> 
[499.285]
j e s 
[499.725]
<no-speech> 
[500.745]
<no-speech> 
[501.095]
<no-speech> 
[501.975]
g e l eɪ m i n o n g u t 
[502.805]
<no-speech> 
[505.185]
g u t p l a p a s i n 
[506.615]
<no-speech> 
[509.685]
h u s aɪ t t o k i m j u p l a h a 
[510.885]
<no-speech> 
[514.635]
<int> b e n s t o p w a n t aɪ m j u p l a 
[516.945]
<no-speech> 
[520.985]
b aɪ j a k u k i m w a n e m s a m θ i n 
[523.615]
<no-speech> 
[529.455]
n a 
[530.705]
<no-speech> 
[531.765]
a n t i b l o j u p l a w a n t aɪ m m a m i eɪ m t u i s t o p o l d i g o l o p l eɪ s oʊ o l d i s t o p 
[537.725]
<no-speech> 
[541.315]
<int> h a 
[542.155]
<no-speech> 
[547.865]
j e b aɪ 
[549.035]
<no-speech> 
[549.845]

[551.575]
<no-speech> 
[554.975]
m i t o k i m j u f i n i ʃ m i t o k m i t o k i m j u f i n i ʃ n oʊ k eɪ n 
[559.285]
<no-speech> 
[560.435]
n oʊ k w e s ʧ e n i m m i 
[561.865]
<no-speech> 
[567.455]
b i h aɪ n b aɪ m i k a m k i s i m s t o ɾ i l i k l i k j a 
[570.015]
<no-speech> 
[573.425]
n a b l o d i s l a a n t i j a eɪ eɪ m i g o l o p l eɪ s h a 
[577.575]
<no-speech> 
[580.855]
s u s a 
[581.545]
<no-speech> 
[583.505]
o l d i s t o p j e t h a 
[584.665]
<no-speech> 
[588.665]
o l d i s t o p j e t h a 
[590.015]
<no-speech> 
[594.955]
<no-speech> 
[595.325]
<no-speech> 
[597.365]
t u p l a m a ɾ i t o l d i s t o p j e t oʊ 
[599.405]
<no-speech> 
[600.020]
