[0.000]
<no-speech> 
[3.905]
h a b ɾ o j u o ɾ aɪ t h a 
[5.485]
<no-speech> 
[7.945]
<foreign> 
[8.585]
<no-speech> 
[10.095]
<foreign> 
[10.815]
<no-speech> 
[13.155]
<foreign> <no-speech> m i j a 
[14.905]
<no-speech> 
[15.745]
h a <no-speech> h eɪ m i j a b a t a j a j u l u z t i n t i n l o m i oʊ <no-speech> j e j e 
[20.845]
<no-speech> 
[21.785]
j u p l a o l d m a n k i i p l eɪ i s t o p h a 
[23.105]
<no-speech> 
[24.905]
h a 
[25.495]
<no-speech> 
[29.505]
<no-speech> 
[29.895]
<no-speech> 
[34.035]
oʊ o k eɪ 
[34.875]
<no-speech> 
[35.755]
u m <breath> n a 
[37.165]
<no-speech> 
[38.365]
o l d m a n k i i s i n d aʊ n i s t o p oʊ 
[40.015]
<no-speech> 
[41.415]
oʊ o k eɪ eɪ m s t e ɾ e t eɪ m s t e ɾ e t 
[42.985]
<no-speech> 
[44.655]
<no-speech> 
[45.855]
<no-speech> 
[47.635]
<sta> h eɪ n a <no-speech> j u o l s e m w a n e m k aɪ n d b l o j u p l a j a a t i n j u p l a i m a s t 
[51.525]
<no-speech> 
[52.575]
j u t u p l a i m a s t s t o p j u t o k 
[54.105]
<no-speech> 
[54.955]
<no-speech> 
[55.435]
<no-speech> 
[59.605]
eɪ m s t e ɾ e t 
[60.495]
<no-speech> 
[61.935]
<sta> j e n a <no-speech> o l d l i k l i k o l d <oov> o l d l i k l i k m a n k i l o d aʊ n b i l o o l d k a m a n t a p t u 
[68.365]
<no-speech> 
[72.545]
o l d o l d l i k l i k o l d m a n k i j a o l d ɾ aʊ n d k a m a n t a p o l s e m t u <no-speech> l o h a p j u p l a p eɪ n t j a 
[77.495]
<no-speech> 
[83.255]
h a o k eɪ o k eɪ 
[84.615]
<no-speech> 
[85.435]
s oʊ w e s t e n d eɪ b aɪ o l s e m w a n e m 
[88.345]
<no-speech> 
[94.085]
<no-speech> 
[94.505]
<no-speech> 
[96.725]
<int> j e m i i a s k i m <no-speech> w e s t e n d eɪ b aɪ i o l s e m w a n e m s a m p l a p l e n z oʊ 
[100.865]
<no-speech> 
[105.975]
o l s e m w a n e m b aɪ j u m i i d ɾ i n k s t i m n a m b aʊ t oʊ <no-speech> o l d m a n k i i s p i n i m s a m p l a t u oʊ 
[109.365]
<no-speech> 
[111.245]
<no-speech> 
[112.095]
<no-speech> 
[115.425]
<sta> w e z l i 
[116.165]
<no-speech> 
[117.125]
j u i t o k j u i t o k 
[118.135]
<no-speech> 
[122.325]
h a <no-speech> h a 
[124.195]
<no-speech> 
[129.765]
m i i t o k o l d m a n k i i s p i n i m s a m p l a t u oʊ <no-speech> l o w e s t e n d eɪ 
[132.805]
<no-speech> 
[137.525]
h a <no-speech> oʊ 
[139.935]
<no-speech> 
[140.805]
h a eɪ m <no-speech> p l e n z b aɪ b a g a ɾ a p j a <no-speech> n a <no-speech> j u i b i n p ɾ e k t i s n a m b aʊ t l o s a m p l a d e n s t u oʊ 
[146.605]
<no-speech> 
[153.595]
<no-speech> 
[156.465]
h a 
[156.985]
<no-speech> 
[158.855]
m i i s t o p l o t aʊ n j a n a j u 
[160.035]
<no-speech> 
[161.185]
l o h aʊ z h a 
[161.925]
<no-speech> 
[163.565]
j e 
[164.185]
<no-speech> 
[167.975]
h a h a 
[168.715]
<no-speech> 
[170.135]
s oʊ 
[170.995]
<no-speech> 
[172.725]
j u p l a i p ɾ e k t i s l o s a m p l a d e n s t u oʊ n o g a t 
[175.525]
<no-speech> 
[176.845]
m i t u p l a n oʊ j u m i s t o ɾ i h a 
[179.885]
<no-speech> 
[181.265]
m i p l a i p ɾ e k t i s l o s a m p l a d e n s t u oʊ 
[182.905]
<no-speech> 
[184.715]
h a <breath> m j u s i k w a n t aɪ m <no-speech> m i i h a ɾ i m o l s e m <no-speech> o l d m a n k i b aɪ i g o p l eɪ l aɪ v b e n t t u j a 
[190.295]
<no-speech> 
[191.685]
g a d a f i l aɪ n j a 
[192.655]
<no-speech> 
[197.785]
<no-speech> 
[199.635]
<no-speech> 
[200.625]
n a <breath> b a l a l aɪ n 
[202.165]
<no-speech> 
[203.105]
b a l a l aɪ n <cough> 
[205.055]
<no-speech> 
[206.925]
b a l a b a l a j u n oʊ l u k i m o l d h a 
[209.235]
<no-speech> 
[210.615]
h a n a j u i s t o p l o h aʊ z j a h a 
[212.235]
<no-speech> 
[214.905]
o k eɪ n a <breath> 
[216.585]
<no-speech> 
[218.425]
o l d m a n k i i g o a n t a p o l s e m l o f i l j a 
[219.985]
<no-speech> 
[221.035]
o l d i p eɪ n t i s t o p l o h a p j a <no-speech> n o n g u t eɪ m b aɪ i s t o p l o h a p 
[224.065]
<no-speech> 
[228.685]
u m <breath> 
[230.205]
<no-speech> 
[235.245]
<no-speech> 
[235.625]
<no-speech> 
[243.255]
n a m a m z p a p s l aɪ n s t o p oʊ 
[245.565]
<no-speech> 
[247.355]
<no-speech> 
[247.795]
<no-speech> 
[253.925]
<no-speech> 
[254.375]
<no-speech> 
[256.985]
m a m aɪ eɪ m j a <no-speech> m a m z p a p s l aɪ n i s t o p t u oʊ h a 
[260.065]
<no-speech> 
[265.105]
<no-speech> 
[265.585]
<no-speech> 
[266.605]
h a j u w eɪ t p a s t aɪ m j u w eɪ t p a s t aɪ m <no-speech> m i t u p l a 
[268.865]
<no-speech> 
[269.845]
<int> s t o ɾ i l i k l i k d i s l a t e n t m i n i t s o k eɪ eɪ m j a m i t u p l a i s t o ɾ i i s t o p t e n t m i n i t s o k eɪ j u oʊ p i m f oʊ n <hes> j u b aɪ m i i t o k f oʊ n eɪ m j e t b aɪ i o p 
[277.575]
<no-speech> 
[279.475]
u m 
[280.085]
<no-speech> 
[280.895]
j u h a ɾ i m h a <no-speech> g a d a f i <no-speech> f oʊ n eɪ m j e t b aɪ i o p f oʊ n b l o j u <sta> m i t u p l a h a <foreign> <no-speech> <breath> j e m i t u p l a i s t o ɾ i l i k l i k t aɪ m p a s t aɪ m 
[290.245]
<no-speech> 
[292.915]
eɪ m i m a s t l a s t <no-speech> f oɐ m i n i t s n a m b aʊ t j a 
[295.735]
<no-speech> 
[300.575]
<hes> j u s t o ɾ i j u s t o ɾ i <no-speech> l o h a p o l s e m w a n e m 
[304.645]
<no-speech> 
[305.555]
<no-speech> 
[306.005]
<no-speech> 
[307.335]
h a 
[307.885]
<no-speech> 
[308.985]
s t o ɾ i l o o l d m a n k i j a <no-speech> o l d i o ɾ aɪ t oʊ <sta> 
[312.265]
<no-speech> 
[319.945]
o l d i s t o p l o k a d z p l eɪ s j a <no-speech> o l d i m a s t p l eɪ k a d z i s t o p j a 
[322.755]
<no-speech> 
[327.135]
h a <int> 
[328.735]
<no-speech> 
[332.215]
u m <no-speech> m i b aɪ i k a m j a <no-speech> m i i t o k t o k f i n i ʃ w a n t aɪ m j u o k eɪ m i b aɪ i k a m j a 
[336.295]
<no-speech> 
[337.195]
n a b aɪ m i i k i s i m f aɪ v l u z b l o j u n a i k a m o l s e m n a j u <hes> w eɪ t p a s t aɪ m f oʊ n j a eɪ m j e t b aɪ i o p s oʊ m i t u p l a i s t o ɾ i <no-speech> m i b aɪ i k i s i m f aɪ v l u z b l o j u i k a m 
[343.685]
<no-speech> 
[344.895]
h a 
[345.545]
<no-speech> 
[347.445]
w a n e m 
[348.095]
<no-speech> 
[350.185]
aɪ j e i n oʊ k eɪ n w a ɾ i i n oʊ k eɪ n w a ɾ i 
[354.595]
<no-speech> 
[356.655]
h a h a 
[357.385]
<no-speech> 
[361.745]
o k eɪ j u s i n d aʊ n l o h aʊ z i s t o p b aɪ m i p l a i k a m 
[363.615]
<no-speech> 
[365.215]
b aɪ m i p l a i k a m o l s e m l o h aʊ z a v i n u n n a m b aʊ t 
[366.825]
<no-speech> 
[368.565]
oʊ j u i g o oʊ 
[369.915]
<no-speech> 
[372.335]
o k eɪ j u i g o i s t o p <hes> p eɪ n t m a n t n a b i h aɪ n j u i ɾ aʊ n d i k a m d aʊ n l o ɾ e n t ɾ i 
[375.635]
<no-speech> 
[377.405]
b aɪ j u m i i m i d l o ɾ e n t ɾ i j u i h a ɾ i m h a <no-speech> j e b i h aɪ n j u i ɾ aʊ n d i k a m d aʊ n l o ɾ e n t ɾ i 
[382.145]
<no-speech> 
[386.015]
a h a <no-speech> j e o k eɪ <int> 
[390.035]
<no-speech> 
[392.175]
h a n oʊ j u w eɪ t j u 
[393.905]
<no-speech> 
[394.935]
m i t u p l a i s t o ɾ i j e t <no-speech> eɪ m j a <no-speech> m i 
[398.135]
<no-speech> 
[399.805]
<sta> j u i h a n g ɾ e h a 
[402.495]
<no-speech> 
[403.545]
j u i l aɪ k k u k t h a 
[404.425]
<no-speech> 
[408.475]
oʊ ɾ aʊ n d b l o m i p l a h a h a n aʊ j a 
[410.345]
<no-speech> 
[411.395]
oʊ m i p l a i s t o p l o h aʊ z i g o eɪ m 
[412.965]
<no-speech> 
[414.055]
w a n p l a f oʊ n k oʊ l d eɪ m i k a m a p n aʊ eɪ m <no-speech> m i p l a f aɪ v p l a m a n k i m i p l a i ɾ aʊ n d i k a m o l s e m l o t aʊ n 
[418.765]
<no-speech> 
[420.795]
<sta> n a n aʊ t a s o l m i p l a i k a m <no-speech> k a m a p n a m i p l a i s i n d aʊ n 
[423.135]
<no-speech> 
[424.775]
m i p l a i f aɪ v p l a j a m i p l a f aɪ v p l a m a n k i m i <no-speech> i e n <no-speech> s aɪ d a <no-speech> a n d i n a 
[431.665]
<no-speech> 
[433.245]
t u s oʊ 
[433.945]
<no-speech> 
[435.395]
n a ʤ o d a n 
[436.275]
<no-speech> 
[437.265]
<no-speech> 
[440.005]
<no-speech> 
[441.855]
u m 
[442.565]
<no-speech> 
[444.855]
h eɪ b a ɾ a m i p l a i k a m j a d i s l a <no-speech> h a j e j e 
[448.505]
<no-speech> 
[449.435]
a h a <breath> i n oʊ k eɪ n w a ɾ i 
[451.635]
<no-speech> 
[457.615]
h a 
[458.195]
<no-speech> 
[461.905]
<no-speech> 
[462.255]
<no-speech> 
[464.325]
j e eɪ m <sta> m i t u p l a i s t o ɾ i <no-speech> eɪ m b aɪ i f i n i ʃ k l o s t u n aʊ eɪ m b aɪ i f i n i ʃ k l o s t u n aʊ m i t u p l a i s t o ɾ i 
[469.365]
<no-speech> 
[470.195]
h a 
[471.015]
<no-speech> 
[474.155]
w a n e m <no-speech> j u i t o k b aɪ h a <no-speech> <lipsmack> h aʊ j u i t o k b aɪ j a m i t u p l a i s t o ɾ i j a 
[478.775]
<no-speech> 
[483.855]
<sta> i n o g a t eɪ m j a 
[485.765]
<no-speech> 
[486.755]
o l d i t o k <no-speech> w e s t e n d eɪ eɪ m <no-speech> b aɪ m i p l a i s a n a p t u l o g eɪ t oʊ 
[491.505]
<no-speech> 
[493.395]
j u i l aɪ k i g o p eɪ n t h a 
[494.525]
<no-speech> 
[496.195]
<sta> o k eɪ m i k a m o k eɪ b aɪ m i k a ɾ i m w a n p l a ʤ i n z k a m n a b aɪ m i i g i m l o j u ɔɪ j u h a ɾ i m h a b aɪ m i k a ɾ i m w a n p l a ʤ i n z k a m n a g i m l o j u b aɪ j u p l a p eɪ n t h a 
[504.735]
<no-speech> 
[506.175]
j e b aɪ m i k a ɾ i m k a m <no-speech> a h a 
[508.435]
<no-speech> 
[512.755]
j e <no-speech> h a 
[514.245]
<no-speech> 
[517.275]
n aʊ t a s o l j u i k a m l o w eɪ 
[518.395]
<no-speech> 
[520.135]
j u i s t o p l o w eɪ n a j u i k a m 
[521.345]
<no-speech> 
[522.385]
h a 
[522.875]
<no-speech> 
[523.785]
<no-speech> 
[524.295]
<no-speech> 
[527.415]
j u i s t o p l o k a d z p l eɪ s h a 
[528.855]
<no-speech> 
[530.435]
j u p l a p l eɪ w a n e m w a n e m <foreign> 
[532.485]
<no-speech> 
[535.375]
b o m <no-speech> k w i n h a 
[537.575]
<no-speech> 
[540.295]
b o m n a k w i n h a 
[542.275]
<no-speech> 
[543.585]
o k eɪ eɪ m j a m i t u p l a s t o ɾ i eɪ m k l o s t u t aɪ m n aʊ eɪ m b aɪ f i n i ʃ n aʊ 
[546.965]
<no-speech> 
[548.845]
o k eɪ j u m i i g o t w a n p l a <breath> t u m oɐ m i n i t s i s t o p s oʊ m i t u p l a i s t o ɾ i h a 
[551.975]
<no-speech> 
[553.895]
j u i h a ɾ i m h a 
[554.645]
<no-speech> 
[555.955]
t u t u <no-speech> eɪ m b aɪ i f i n i ʃ n aʊ <no-speech> t u j a t u m i n i t s i n oʊ b i g p l a j a eɪ m i l i k l i k j a s e k e n d z i ɾ o n f a s t eɪ m eɪ m i f i n i ʃ j a j e <int> <cough> 
[564.585]
<no-speech> 
[571.665]
aɪ j e b a ɾ a t a eɪ m j a a s t e j a a s t e m i s t o p i n s aɪ t l o s k u l p l eɪ s l o k o k i j a <no-speech> k o k i t eɪ k j a 
[579.345]
<no-speech> 
[580.515]
h a v oʊ k eɪ ʃ e n e l 
[581.995]
<no-speech> 
[582.965]
m i i s i n d aʊ n l o h a p i s t o p j a eɪ m m i i l u k i m s m o k f aɪ a eɪ m i k i ɾ a p j a l o h a p eɪ m m i p l a i g o f aʊ l h eɪ h u s aɪ t eɪ m i k u k t j a l o h a p o l d i t o k o l d <no-speech> l o g s t o l oʊ w a n e m <no-speech> w a n p l a l i k l i k k u k t j a 
[592.215]
<no-speech> 
[593.615]
eɪ m j u i s t o p l o w eɪ <breath> j u i s t o p l o h a p t u j a h a 
[595.705]
<no-speech> 
[596.505]
<no-speech> 
[596.805]
<no-speech> 
[600.040]
