[0.000]
<no-speech> 
[11.895]
h e l o 
[12.595]
<no-speech> 
[17.775]
j e o k eɪ l aɪ k i m j u s t e ɾ e t 
[19.375]
<no-speech> 
[20.655]
j e s 
[21.275]
<no-speech> 
[24.685]
<int> oʊ n e g i a v i n u n t u ɾ u 
[27.215]
<no-speech> 
[35.865]
h a m i ɾ aʊ n ɾ aʊ n n a m b aʊ t l o s t ɾ i t n a s t o p 
[37.965]
<no-speech> 
[41.645]
j e 
[42.265]
<no-speech> 
[49.015]
<no-speech> 
[55.765]
s oʊ h u 
[56.385]
<no-speech> 
[57.345]
h a j u n oʊ s a 
[58.275]
<no-speech> 
[60.035]
<no-speech> 
[60.395]
<no-speech> 
[67.735]
<click> j e j u t o k k l iɐ l i k l i k n a m i h a ɾ i m h a m i 
[70.575]
<no-speech> 
[77.695]
j u h u s aɪ t 
[78.545]
<no-speech> 
[81.205]
j e ɾ e f j u ʤ i z j e eɪ m aɪ ɾ i k e p 
[83.855]
<no-speech> 
[92.185]
<no-speech> 
[92.645]
<no-speech> 
[93.505]
j e eɪ m o l d o l d s t o ɾ i o l s e m n a m i h a ɾ i m j a m i t u m i s o ɾ e t u ɾ u l o o l d d i s l a ɾ e f j u ʤ i z j a a t i n o l d k a m l o o s t ɾ eɪ l i a m a s t ɾ aʊ s i m o l d n a p ɾ aɪ m m i n i s t a t o k o ɾ aɪ t n a o l d k a m g o l o m a n u s oʊ 
[104.685]
b i h aɪ n j u s t o p n a m b aʊ t l o t aʊ n n a j u h a ɾ i m g u d n a t o k s a v e l o m i g u d 
[108.265]
<no-speech> 
[119.950]
<no-speech> 
[131.635]
oʊ 
[132.265]
<no-speech> 
[143.045]
j e b a ɾ a t a eɪ m 
[144.195]
<no-speech> 
[147.115]
h a eɪ m t u ɾ u j a 
[149.475]
<no-speech> 
[159.195]
<no-speech> 
[168.915]
j e 
[169.565]
<no-speech> 
[170.825]
eɪ m s a d i s l a p ɾ aɪ m m i n i s t a b l o m i p l a g e n h a l v i m o l d n a s i n d aʊ n b l o d i s l a ɾ e f j u ʤ i z j a m i s o ɾ e n o n g u t t u ɾ u l o o l d j a o l d s t o ɾ i l o m i l o n j u s p eɪ p a b l o n aʊ 
[180.525]
<no-speech> 
[184.655]
g o l o t aʊ n 
[185.325]
<no-speech> 
[196.315]
<no-speech> 
[207.305]
<no-speech> 
[218.295]
j e eɪ m b aɪ w eɪ t l i k l i k l o h a n t b l o b o s m a n l o 
[221.525]
<no-speech> 
[222.635]
p ɾ aɪ m m i n i s t a b l o m i p l a t ɾ aɪ i m l o l u k aʊ t i m o l d oʊ s a m p l a k aɪ n d w eɪ s t w eɪ o l d g e n s t o p l o n p l a t aɪ m l o h iɐ oʊ o l d b aɪ g o b eɪ k oʊ eɪ m t a s o l eɪ m m i n oʊ k l iɐ g u d t u 
[231.375]
<no-speech> 
[234.015]
<no-speech> 
[234.445]
<no-speech> 
[238.615]
j e 
[239.225]
<no-speech> 
[243.115]
<no-speech> 
[243.535]
<no-speech> 
[246.175]
<no-speech> 
[246.605]
<no-speech> 
[247.735]
k w o l i t i 
[248.195]
<no-speech> 
[249.145]
j e b a ɾ a t a 
[250.845]
<no-speech> 
[260.205]
<no-speech> 
[260.595]
<no-speech> 
[270.535]
b i h aɪ n b aɪ m i p l a m eɪ k i m o l s e m s oʊ m i t ɾ a n g u m i s o ɾ e g e n l o d i s l a k aɪ n d o l d 
[275.515]
<no-speech> 
[276.545]
o l d s i ʧ u eɪ ʃ e n i n oʊ o ɾ aɪ t n a o l d m u v o l d k a m n a m b aʊ t n a m b aʊ t j a 
[280.455]
<no-speech> 
[288.285]
<no-speech> 
[296.115]
j e eɪ m t u ɾ u b a ɾ a t a eɪ m s t o p l o h a n t b l o b o s m a n b l o m i p l a b l o k a n t ɾ i 
[301.255]
<no-speech> 
[311.275]
j a o l d f e m i l i o l d s t o p o ɾ aɪ t 
[313.065]
<no-speech> 
[314.175]
<no-speech> 
[314.705]
<no-speech> 
[316.055]
m i p l a s t o p o ɾ aɪ t t a s o l 
[317.785]
<no-speech> 
[318.635]
j u s a j u s a eɪ m m a m a i n oʊ s t o p o ɾ aɪ t t u eɪ m b i k h e t b i k h e t n a i n oʊ s i n d aʊ n g u d s t o p n a m i n oʊ s i n d aʊ n g u d m i t u m i f aʊ l f aʊ l n a m b aʊ t i s t o p l o ɾ oʊ t s t o p 
[325.945]
<no-speech> 
[335.255]
oʊ b a ɾ a t a j u t o k w a n e m m i n oʊ h a ɾ i m j u g u d j a 
[337.505]
<no-speech> 
[345.555]
aɪ b a ɾ a t a t u p l a j a m a n t m i l i k l i k m a n t m i d ɾ aɪ p l a m a n t j a 
[349.025]
<no-speech> 
[359.975]
<no-speech> 
[362.405]
<no-speech> 
[365.195]
oʊ 
[365.975]
<no-speech> 
[377.072]
<no-speech> 
[388.170]
<no-speech> 
[399.267]
<no-speech> 
[410.365]
h a 
[411.345]
<no-speech> 
[415.415]
b a ɾ a t a eɪ m p i k i n i n i m eɪ k i m o l d d i s l a w o k j a n a m i eɪ m j u s a 
[418.815]
<no-speech> 
[420.045]
m i eɪ m m i n oʊ m eɪ k i m w a n p l a ɾ o n t a s o l l o m i o l s e m m i ɾ aʊ n ɾ aʊ n n a m b aʊ t n a h aʊ m i k i s i m t u p l a n a w a n p l a l u s i m i g o n a w a n p l a t a s o l m i l u k aʊ t i m i s t o p 
[429.745]
<no-speech> 
[440.257]
<no-speech> 
[450.768]
<no-speech> 
[461.280]
<no-speech> 
[471.792]
<no-speech> 
[482.303]
<no-speech> 
[492.815]
o l g e t a b a ɾ a t a b l o j u 
[494.645]
<no-speech> 
[498.005]
o k eɪ o k eɪ j u p l a 
[500.105]
<no-speech> 
[508.325]
<no-speech> 
[516.545]
o k eɪ j u w o k i m d i s l a w o k j a n a m i w o k i m d i s l a w o k s oʊ l a s t p e l a s t e ɾ e t j u m eɪ k i m s t o p n a m i s t o p b i h aɪ n m i s t o p l i k l i k o l d p i k i n i n i t u p l e n t i o l d f e m i l i t u 
[527.745]
m i ɾ aʊ n d n a m b aʊ t n a m b aʊ t s t o p h a p l i k l i k w o k j a j u m eɪ k i m g u d n aʊ o k eɪ j u t a s o l j u k a m h a l v i m m i p l a l o o l g e t a s a m θ i n 
[534.075]
<no-speech> 
[544.242]
<no-speech> 
[554.408]
<no-speech> 
[564.575]
h a o k eɪ 
[565.375]
<no-speech> 
[570.615]
o k eɪ b a ɾ a t a 
[571.875]
<no-speech> 
[580.975]
o k eɪ 
[581.685]
<no-speech> 
[589.280]
<no-speech> 
[596.875]
l o h a p 
[597.355]
<no-speech> 
[600.140]
