[0.0]
<no-speech> 
[11.275]
h æ l̪ o 
[11.845]
<no-speech> 
[13.895]
h æ̃ k i h o e ʧh e ɾ e 
[14.905]
<no-speech> 
[18.145]
<sta> h æ̃ h æ̃ k a ʈ b o n̪ a b ɔ l̪ 
[20.015]
<no-speech> 
[23.405]
<sta> h æ̃ h æ̃ k a ɾ ʃ a t̪h e k ɔ t̪h a b o l̪ b o a m i 
[25.445]
<no-speech> 
[27.525]
<sta> o k i k ɔ t̪h a b o l̪ b o k æ n̪ o k i k i ʃ ɔ m a ʧ a ɾ k i k i a m i b u ʤh i n̪ a k i ʧh u k æ n̪ o 
[32.835]
<no-speech> 
[36.035]
k a ɾ a k o m p a n̪ i t̪h e k e k o ɾ ʧh e t̪ o t̪ u i a b a ɾ <sta> k o ɾ ʧh e k e 
[39.585]
<no-speech> 
[46.075]
<sta> o <hes> k ɔ d̪ ɔ m ʈ a t̪ u i kh a b i a ɾ k ɔ t̪h a ʈ a a m i k o m u ʈ a i m n̪ ɔ ʃ ʈ o k o ɾ i n̪ i <laugh> 
[51.625]
<no-speech> 
[53.945]
k ɔ k ɔ 
[54.615]
<no-speech> 
[57.035]
t̪ a k a m k o ɾ t̪ e ʧh e b ɔ l̪ a ʧ ʧh e n̪ n̪ e k e 
[58.855]
<no-speech> 
[63.205]
t̪ a i n̪ a k i kh a l̪ i a m i æ k a i k ɔ t̪h a b o l̪ b o <int> 
[65.905]
<no-speech> 
[67.735]
t̪ a æ k ʈ u a ʧh e k ɔ 
[69.325]
<no-speech> 
[71.135]
ʃ o m a ɾ e z ə l̪ ʈ a n̪ e n̪ a i i s k u l̪ e æ ɖ m i ʃ ə n̪ k o ɾ b a ɾ g e ʧh i l̪ o n̪ a k a l̪ k e n̪ ə m b ə ɾ n̪ a i g æ ʧh e p o ɾ e ʃ o m b a ɾ e ʤ a b o 
[77.185]
<no-speech> 
[81.555]
n̪ a ʃ i b a n̪ i ph o n̪ k o ɾ b e n̪ ə m b ə ɾ ʈ a h a ɾ a i ʧh e a m a ɾ h a t̪ a m a ɾ k a ʧh t̪h e k e ɖ i l̪ e ʈ h o e g æ ʧh e g ɔ e a k a ɾ 
[85.135]
<no-speech> 
[87.815]
a g e ɾ b a ɾ t̪ o ɖ i l̪ e ʈ h o e g æ ʧh e n̪ ə m b ə ɾ 
[89.525]
<no-speech> 
[91.805]
<sta> t̪ o ɾ ʈ a o ɖ i l̪ i ʈ h o e g æ ʧh e n̪ ə m b ə ɾ 
[94.275]
<no-speech> 
[96.055]
ph ɔ <sta> oi m a n̪ oi m a n̪ u ʃ ʈ a k e ɾ e 
[98.015]
<no-speech> 
[99.795]
oi m a n̪ u ʃ ʈ a k e ɾ e 
[100.785]
<no-speech> 
[104.395]
o ɾ e k ɔ p a l̪ a ɾ k ɔ m p j u ʈ ə ɾ t̪h e k e ʤ e k ɔ t̪h a b o l̪ ʧh e oi m a n̪ u ʃ ʈ a k e ɾ e 
[107.955]
<no-speech> 
[111.105]
o t̪ a ɾ m a n̪ e o kh a n̪ e k ɔ kh o n̪ o k ə n̪ e k ʃ ə n̪ a ʧh e n̪ a k i 
[113.495]
<no-speech> 
[115.205]
<sta> o a m i b o l̪ ʧh i 
[118.255]
<no-speech> 
[127.595]
h æ̃ h æ̃ 
[128.265]
<no-speech> 
[132.935]
h æ̃ h æ̃ 
[133.665]
<no-speech> 
[136.805]
<int> o k a ɾ a a b a ɾ k o m p a n̪ i ɖh u k a b o <laugh> 
[141.685]
<no-speech> 
[142.785]
t̪ a i a ʧ ʧh a t̪ o ʈh i k a ʧh e t̪ a a g e k o o oi k ɔ t̪h a ʈ a a b a ɾ 
[146.645]
<no-speech> 
[151.535]
h æ̃ h æ̃ b u ʤh e ʧh i b u ʤh e ʧh i ʃ e ʈ a k a l̪ a g b e n̪ a t̪ o t̪ a i b u ʤh e ʧh i 
[155.225]
<no-speech> 
[159.435]
h æ̃ <int> 
[161.475]
<no-speech> 
[162.565]
<sta> a ɾ 
[163.245]
<no-speech> 
[164.085]
h æ̃ <sta> 
[166.195]
<no-speech> 
[169.215]
n̪ a n̪ a d̪ i b o n̪ a d̪ i b o n̪ a k a u k e i d̪ i b o n̪ a b o l̪ t̪ e t̪h a k t̪ u m i 
[172.225]
<no-speech> 
[175.725]
<sta> d̪ a n̪ a d̪ e ɾ e i ʤ ɔ l̪ a n̪ a ʃ e ʃ b o i a n̪ a ʃ e ʃ e ɖ m i ʃ ə n̪ h o o a ʃ e ʃ ʃ ɔ b k i ʧh u h o e g æ ʧh e 
[180.915]
<no-speech> 
[181.775]
<no-speech> 
[182.155]
<no-speech> 
[183.645]
h æ̃ <sta> 
[184.725]
<no-speech> 
[186.065]
<sta> k i 
[187.455]
<no-speech> 
[189.135]
<sta> i s k u l̪ e 
[190.715]
<no-speech> 
[195.465]
h æ̃ ʃ ɔ b a i bh a l̪ o a ʧh e ʈ i p ʈ ɔ p 
[197.355]
<no-speech> 
[200.975]
o s i k s e t̪ o ɾ a bh a l̪ o a ʧh i ʃ 
[204.305]
<no-speech> 
[207.075]
b a ʃ u n̪ d̪h a ɾ a i s k u l̪ e 
[208.325]
<no-speech> 
[210.885]
h u 
[211.475]
<no-speech> 
[212.705]
<sta> k i h æ̃ ʃ ɔ b k i ʧh u ʧ o l̪ e 
[216.955]
<no-speech> 
[218.485]
ʃ ɔ b k i ʧh u i ʧ o l̪ e <sta> 
[219.995]
<no-speech> 
[227.045]
e i k ɔ m p j u ʈ ə ɾ e ɖh u k a b o e g u l̪ a k ɔ t̪h a e g u l̪ a k ɔ t̪h a k æ n̪ o ʤ i g g e ʃ k o ɾ ʧh i ʃ ɾ e 
[230.525]
<no-speech> 
[233.245]
<sta> <laugh> ʃ a l̪ a <breath> t̪ u i a g e i k ɔ kh ɔ ʧ ɾ a m i <laugh> h æ̃ oi t̪ o ɾ ʃ a m n̪ e k e k e e ʈ a b ɔ l̪ <laugh> 
[245.065]
k i 
[245.485]
<no-speech> 
[246.395]
t̪ o ɾ ʃ a m n̪ e k e k e 
[247.535]
<no-speech> 
[248.905]
b a t̪ i ɾ b ɔ e ou b a t̪ i h ɔ ʃ ʃ u 
[251.125]
<no-speech> 
[254.095]
g a ɾ i ɖh u k e g æ ʧh e n̪ e 
[255.425]
<no-speech> 
[259.705]
<no-speech> 
[263.345]
<no-speech> 
[264.335]
o a k a ʃ ʈ a t̪ o bh a l̪ o a ʧh e <int> 
[266.565]
<no-speech> 
[270.275]
<no-speech> 
[270.625]
<no-speech> 
[272.745]
h ɔ 
[273.355]
<no-speech> 
[275.805]
<sta> h æ̃ b o i 
[278.635]
<no-speech> 
[282.835]
n̪ a 
[283.355]
<no-speech> 
[284.155]
<sta> p ɔ ɾ a i ʧh e 
[285.055]
<no-speech> 
[287.175]
oi ʤ e t̪ o ɾ ʤ a o ɾ a 
[288.495]
<no-speech> 
[291.755]
i ʈ u p a i t̪ e ʧh i 
[292.755]
<no-speech> 
[295.095]
<sta> æ k ʃ o ʈ a k a k o ɾ e h u 
[296.975]
<no-speech> 
[298.685]
a ɾ ʧ u k t̪ i ʧ u k t̪ i h a ʤ a ɾ 
[301.115]
<no-speech> 
[302.865]
<sta> æ k ʃ o 
[304.245]
<no-speech> 
[309.155]
<sta> h æ l̪ o e i m a m t̪ o m o n̪ e h ɔ e d̪ e ɾ ʃ o ʈ a k a ɾ b e ʃ i d̪ e b e n̪ a h u 
[311.455]
<no-speech> 
[314.355]
a m a g o oi d̪ i k e d̪ e ɾ ʃ o ʈ a k a k o ɾ e 
[315.985]
<no-speech> 
[318.565]
a m i ʤ e n̪ i e b a ɾ o n̪ k o ɾ i n̪ a i 
[320.065]
<no-speech> 
[324.235]
æ kh o n̪ p ɔ ɾ a ʧ ʧh e æ kh o n̪ p ɔ ɾ a e 
[325.345]
<no-speech> 
[329.745]
h ɔ ʃ ʃ u <sta> <no-speech> h æ l̪ o <no-speech> k i k ɔ 
[334.365]
<no-speech> 
[336.425]
o d̪ e ɾ o d̪ i n̪ k e ph o n̪ k o ɾ ʧh i l̪ o æ kh o n̪ n̪ a n̪ a i ɔ m ɔ ɾ g æ ʧh e o d̪ e ɾ e d̪ i k e ʤ a m a i b a b u ɾ a k æ m o n̪ a ʧh e <int> 
[341.485]
<no-speech> 
[342.725]
e k a m a ʧh e d̪ i l̪ e 
[343.885]
<no-speech> 
[347.965]
h ɔ h ɔ l̪ a g e <int> 
[350.825]
<no-speech> 
[355.485]
<sta> o o 
[359.675]
<no-speech> 
[360.935]
<no-speech> 
[361.525]
<no-speech> 
[364.255]
<sta> k e a 
[365.595]
<no-speech> 
[369.435]
<sta> k o n̪ o ʈ a k a d̪ a ɾ i 
[370.285]
<no-speech> 
[373.985]
k a k i k u n̪ d̪ o k a d̪ a ɾ i 
[375.215]
<no-speech> 
[376.285]
æ 
[376.745]
<no-speech> 
[380.535]
h æ̃ h æ̃ 
[381.285]
<no-speech> 
[385.585]
b i a h o i ʧh e 
[386.565]
<no-speech> 
[388.655]
<sta> m o b a i l̪ e ɾ d̪ o k a n̪ e ɾ i k ɔ n̪ k o ɾ e ɾ i k ɔ n̪ e ɾ bh a i 
[390.685]
<no-speech> 
[392.755]
t̪ a h o l̪ e 
[393.265]
<no-speech> 
[394.775]
<sta> b a p i g o b a ɾ i <no-speech> o b a p i g o b a ɾ i ɾ ʃ a m n̪ e 
[397.275]
<no-speech> 
[401.195]
<sta> ʧ i n̪ i n̪ a a m i <no-speech> b a p i g o b a ɾ i ɾ ʃ a m n̪ e k o n̪ b a ɾ i oi t̪ o ʧh ɔ k k a ʈ a m a ʈ i ɾ b a ɾ i ɾ ʃ a m n̪ e d̪ ã ɾ i e 
[405.835]
<no-speech> 
[411.105]
oi p a ʃ e oi t̪ o ʤ e ʃ o n̪ ʤ i b d̪ e ɾ b a ɾ i o p a ʃ e 
[413.205]
<no-speech> 
[414.405]
ph ɔ ɾ ʃ a k o ɾ e ʤ a ʧ æ ŋ ɾ a a ʧh e ʤ e 
[415.865]
<no-speech> 
[417.775]
o 
[418.595]
<no-speech> 
[421.755]
o o 
[423.385]
<no-speech> 
[424.785]
<sta> h ɔ e m n̪ i bh a l̪ o a ʧh i ʃ ɔ b a i t̪ o ɾ a bh a l̪ o a ʧh i ʃ n̪ a <breath> oi t̪ o ʃ o n̪ h i m a n̪ i ph o n̪ k o ɾ l̪ e p o ɾ e k ɔ ʃ b a ɾ i t̪ e ph o n̪ k o ɾ e k æ n̪ o a m a ɾ n̪ ə m b ə ɾ ʈ a ʃ e d̪ i n̪ n̪ a k i n̪ o t̪ u n̪ s i m n̪ i ʧh e n̪ a 
[433.375]
<no-speech> 
[435.665]
n̪ a i a m i ʤ i g g e ʃ k o ɾ e d̪ i ʧh i p u ɾ a n̪ a s i m e ʧh i l̪ o a ɾ e p u ɾ a n̪ a n̪ ə m b ə ɾ ʈ a n̪ o t̪ u n̪ n̪ ə m b ə ɾ ʈ a e ʃ ʧh i l̪ o h a ɾ ɖ i l̪ e ʈ h o e g æ ʧh e ʃ e d̪ i n̪ k e t̪ o o ʤ o d̪ i ph o n̪ k o ɾ e k ɔ ʃ k i t̪ u i d̪ i p a l̪ i ʤ e n̪ o ph o n̪ k o ɾ e k ɔ ʃ t̪ a h o l̪ e n̪ ə m b ə ɾ ʈ a p a i a ʤ a b e ʤ a n̪ i <int> 
[445.935]
<no-speech> 
[447.385]
h ɔ ʃ ʃ u 
[447.835]
<no-speech> 
[448.665]
<sta> h ɔ e e k a ɾ o i g u l̪ o d̪ æ kh e o g u l̪ a k o o b o l̪ e k ɔ m p j u ʈ ə ɾ e k ɔ t̪h a k o i t̪ e ʧh e 
[454.855]
<no-speech> 
[455.725]
<sta> o i d̪ æ kh o d̪ e kh o o i ʃ a l̪ a k ɔ t̪h a k ɔ e h æ̃ k i 
[463.705]
<no-speech> 
[464.985]
ʃ ɔ ɾ e ɔ 
[465.655]
<no-speech> 
[466.875]
h æ̃ h ɔ h ɔ k o i ʧh i 
[468.245]
<no-speech> 
[471.055]
<int> h æ̃ 
[471.845]
<no-speech> 
[473.195]
<sta> h æ̃ 
[474.185]
<no-speech> 
[477.335]
k i k o ɾ b i n̪ a 
[478.005]
<no-speech> 
[479.105]
ɔ n̪ n̪ e k e k e k e 
[482.895]
<no-speech> 
[486.695]
o 
[487.245]
<no-speech> 
[489.495]
a ɾ o k o ɾ e k ɔ t̪h a b ɔ l̪ a <int> l̪ a g e o ɾ ɔ k o m k o ɾ e ʃ u n̪ t̪ e ʧh e o ɾ a o i g u l̪ a 
[493.015]
<no-speech> 
[495.625]
n̪ a k ɔ k ɔ m p j u ʈ ə ɾ e ʧ e k k o ɾ e b o d̪h h ɔ e e i g u l̪ o k ɔ t̪h a 
[498.505]
<no-speech> 
[500.545]
o t̪ o ɾ a o a ʤ a m a ɾ a o a ʤ ʧ e k k o ɾ t̪ e ʧh e m a n̪ e k a ɾ a o a ʤ bh a l̪ o b u ʤh ʧh o ʃ 
[503.735]
<no-speech> 
[505.945]
<sta> t̪ o t̪ u i b u ʤh a s n̪ a i k æ n̪ o t̪ a ɾ m a n̪ e t̪ u i æ kh o n̪ a ʧh i ʃ n̪ a t̪ u i t̪ a ɾ e k ɔ l̪ o m t̪ o k o ɾ l̪ a m t̪ o a m i t̪ a h o l̪ e p a b o n̪ a <laugh> h æ̃ 
[515.005]
<no-speech> 
[517.764875]
<sta> k i 
[518.245]
<no-speech> 
[521.335]
h o e ʧh e d̪ u i m a ʃ 
[523.245]
<no-speech> 
[525.885]
h o e ʧh e m o ʈ a 
[527.135]
<no-speech> 
[530.455]
ɔ t̪ o g u l̪ o k ɔ b e ɾ h ɔ n̪ n̪ a æ kh o n̪ 
[531.685]
<no-speech> 
[536.865]
k æ m o n̪ ʤ a n̪ ɔ ʃ n̪ a 
[538.065]
<no-speech> 
[540.285]
t̪ a ɾ ʤ e m o n̪ ph ɔ l̪ m o n̪ 
[542.165]
<no-speech> 
[545.045]
h ɔ ʃ ʃ u 
[545.785]
<no-speech> 
[548.335]
m o n̪ 
[548.745]
<no-speech> 
[549.615]
<sta> h ɔ m ɔ n̪ a ɾ b i e t̪ e a ɾ o g ɔ e a k a ɾ gh o ɾ a ɾ b i e æ e g ɔ e a k a ɾ gh o ɾ a m o ɾ ʧh e <laugh> 
[556.935]
<no-speech> 
[558.085]
<sta> g ɔ e a k a ɾ gh o ɾ a m o ɾ ʧh e k a l̪ k e <hes> m ɔ n̪ a ɾ b i e a ʈ t̪ a ɾ i kh e <no-speech> m u n̪ i a ɾ d̪ i d̪ i m a ɾ ʈh æ ŋ l̪ æ ŋ ɾ a h o e ʧh e 
[564.975]
<no-speech> 
[567.205]
<sta> m u n̪ i a ɾ d̪ i d̪ i m a ɾ u t̪ t̪ ɔ m e ɾ b i a ɾ o b i ɾ b e ʈ i ɾ b i a h o i ʧh e 
[572.125]
<no-speech> 
[574.105]
<sta> ɾ o b i ɾ ɾ o b i ɾ b e ʈ i ɾ b i a h o i ʧh e 
[576.555]
<no-speech> 
[578.885]
<sta> n̪ a a m i ʤ a i n̪ i m a g e ʧh i l̪ o 
[581.595]
<no-speech> 
[583.865]
<sta> h u 
[584.415]
<no-speech> 
[585.285]
<sta> h æ̃ 
[586.575]
<no-speech> 
[588.875]
<sta> t̪ a h o l̪ e k i <breath> oi d̪ i k e oi d̪ i k e k ɔ m p i u ʈ a ɾ e ɾ m a n̪ u ʃ g u l̪ o k i t̪ o d̪ e ɾ n̪ a k i æ k ʈ u k o ɾ e a o a ʤ ʧ e k k o ɾ b e ʃ u n̪ e k a ɾ k a ɾ a o a ʤ ʧ e k k o ɾ l̪ o 
[595.025]
<no-speech> 
[599.62]
