[0.0]
<no-speech> 
[2.615]
<no-speech> 
[2.995]
<no-speech> 
[6.175]
h æ l̪ o 
[7.035]
<no-speech> 
[7.935]
<no-speech> 
[8.285]
<no-speech> 
[9.125]
<no-speech> 
[9.505]
<no-speech> 
[10.305]
h æ̃ t̪ u i 
[11.555]
<no-speech> 
[15.225]
h æ l̪ o 
[15.935]
<no-speech> 
[17.775]
oi ʤ e ʈ i v i d̪ e kh t̪ e ʧh i <breath> 
[20.945]
<no-speech> 
[22.365]
h æ̃ 
[23.295]
<no-speech> 
[26.945]
oi ʤ e p a ʃ e ɾ b a ɾ i ɾ 
[28.835]
<no-speech> 
[31.075]
e i ɾ a n̪ n̪ a h o ʧ ʧh e æ kh o n̪ o 
[32.445]
<no-speech> 
[34.805]
h æ l̪ o h æ̃ 
[36.085]
<no-speech> 
[38.565]
h æ l̪ o <int> h æ̃ 
[40.705]
<no-speech> 
[46.765]
n̪ a n̪ a ɾ a g b o n̪ a 
[48.405]
<no-speech> 
[51.395]
h u 
[52.095]
<no-speech> 
[52.995]
<sta> t̪ u i k o n̪ ʤ a e g a e a ʧh i ʃ b a ɾ i t̪ e n̪ a k i 
[57.145]
<no-speech> 
[61.115]
h u m <no-speech> p u ʧ k a k æ m o n̪ a ʧh e 
[63.735]
<no-speech> 
[64.714875]
p u ʧ k a k æ m o n̪ a ʃ e 
[66.535]
<no-speech> 
[67.385]
<no-speech> 
[67.825]
<no-speech> 
[70.025]
<no-speech> 
[71.645]
<no-speech> 
[73.495]
<no-speech> 
[74.515]
<no-speech> 
[77.145]
oi ʤ a e l̪ o n̪ a <sta> 
[80.545]
<no-speech> 
[85.145]
n̪ a ʤ a o a ɾ k ɔ t̪h a <int> ʧh i l̪ o t̪ o p o ɾ e m a t̪ o ʤ a i t̪ o <hes> p o ɾ e m a m i ph o n̪ k o ɾ l̪ o n̪ a <no-speech> <int> m a ʤ a b e t̪ o h u m <sta> b a b a k e b o l̪ e n̪ a i a g e æ k ʈ u <no-speech> 
[97.085]
ʤ a o a ɾ n̪ e i n̪ a h o l̪ e m a t̪ o ʤ a i t̪ o 
[101.345]
<no-speech> 
[109.125]
<no-speech> 
[109.515]
<no-speech> 
[113.375]
<sta> 
[115.175]
<no-speech> 
[117.885]
t̪h e k e k e u ʤ a e n̪ a i 
[119.565]
<no-speech> 
[122.085]
h u m <int> 
[123.415]
<no-speech> 
[133.385]
o h 
[134.105]
<no-speech> 
[135.195]
b a ɾ i ɾ ʃ ɔ b a i bh a l̪ o a ʧh e 
[136.595]
<no-speech> 
[139.695]
h u m <sta> 
[141.555]
<no-speech> 
[143.635]
oi bh a l̪ o m a ʤh kh a n̪ e ʤ ɔ ɾ h o i l̪ o 
[145.795]
<no-speech> 
[147.175]
<sta> ou ʃ ɔ d̪h kh a i ʧh e 
[149.425]
<no-speech> 
[152.055]
h u m <no-speech> ʤ ɔ ɾ h o i ʧh e oi ʤ e h o o a ɾ p o ɾ e <sta> <no-speech> h æ̃ 
[158.765]
<no-speech> 
[160.915]
<sta> a ʧh e bh a l̪ o i a ʃ l̪ o n̪ a m a m a ɾ b a ɾ i g e ʧh i l̪ o n̪ a k ɔ e d̪ i n̪ a g e 
[167.685]
<no-speech> 
[168.765]
oi ʤ a g a ɾ t̪h e k e a ʃ a ɾ p o ɾ e ʤ e p a e p a ph u l̪ ʧh e p a b æ t̪h a <no-speech> t̪ o ɾ e g u l̪ a n̪ i e k ɔ e d̪ i n̪ 
[175.165]
<no-speech> 
[179.165]
oi ʤ e e kh a n̪ t̪h e k e g æ ʧh e n̪ a t̪ o ʤ a o a ɾ p o ɾ e o d̪ e ɾ o kh a n̪ e g æ ʧh e t̪ a ɾ p ɔ ɾ e m a m a ɾ p i ʃ i b a ɾ i g æ ʧh e <no-speech> o kh a n̪ t̪h e k e a i l̪ e e i ʤ e b a ɾ i t̪ e e i ɔ b o s t̪h a 
[188.955]
<no-speech> 
[190.695]
k i h o i ʧh e 
[191.765]
<no-speech> 
[194.265]
kh a i ʧh e ou ʃ ɔ d̪h æ kh o n̪ æ k ʈ u k ɔ m e ɾ d̪ i k e m a ʤh kh a n̪ e h ã ʈ t̪ e p a ɾ e n̪ i 
[197.965]
<no-speech> 
[201.925]
h æ̃ k e b o l̪ l̪ o 
[203.465]
<no-speech> 
[208.325]
<sta> h æ̃ oi ʤ e oi p a ʃ e ɾ gh ɔ ɾ ʈ a e m n̪ i ʈh i k k ɔ ɾ t̪ a ʧh i 
[212.445]
<no-speech> 
[216.175]
n̪ a n̪ a e i ʤ e p a ʃ e ʤ e æ k ʈ a gh ɔ ɾ ʧh i l̪ o n̪ a bh a ŋ g a oi ʈ a 
[219.425]
<no-speech> 
[222.675]
<no-speech> 
[224.165]
<no-speech> 
[226.815]
i ʃ ʃ e i ʈ a k i a ɾ h ɔ b e æ kh o n̪ 
[229.965]
<no-speech> 
[231.185]
<no-speech> 
[231.765]
<no-speech> 
[233.045]
<sta> æ kh o n̪ h ɔ b e n̪ a a ɾ 
[235.135]
<no-speech> 
[237.545]
<hes> oi ʈ a t̪ o p o ɾ e d̪ æ kh a ʤ a b e æ kh o n̪ k i a ɾ h ɔ e 
[241.555]
<no-speech> 
[246.875]
<no-speech> 
[247.435]
<no-speech> 
[249.895]
<laugh> t̪ a i <laugh> e i b u d̪ d̪h i 
[255.355]
<no-speech> 
[257.494875]
<no-speech> 
[258.025]
<no-speech> 
[264.185]
h ɔ ʃ ʃ u a m i a ɾ k i b u d̪ d̪h i d̪ i b o a m a ɾ b u d̪ d̪h i k ɔ ɾ a ɾ m o t̪ o k i ʧh u n̪ e i <laugh> 
[268.575]
<no-speech> 
[276.325]
oi ʤ e h u m d̪ e ɾ h o i e g æ ʧh e ʤ a i t̪ e b o l̪ ʧh e 
[279.705]
<no-speech> 
[281.855]
<sta> h u m ʤ a i t̪ e b o l̪ ʧh e t̪ a ɾ p ɔ ɾ e æ kh o n̪ 
[287.135]
<no-speech> 
[288.515]
n̪ a ʤ a o a ɾ k ɔ t̪h a ʧh i l̪ o oi ʤ e b ɾ i h o ʃ p o t̪ i b a ɾ e p o ɾ e ʤ e o d̪ e ɾ o kh a n̪ e ɔ ʃ u b i d̪h a k i ʃ e ɾ <no-speech> ʧh e l̪ e ɾ b o u d̪ i ɾ m a ɾ ʧ o kh ɔ p ə ɾ e ʃ ə n̪ k o ɾ b e 
[296.455]
<no-speech> 
[297.825]
p o ɾ e ph o n̪ k i ɾ a b o l̪ t̪ e ʧh e k ɔ e d̪ i n̪ p o ɾ e ʤ a o a ɾ ʤ o n̪ n̪ o 
[300.835]
<no-speech> 
[301.645]
kh ɔ b o ɾ d̪ i b e <int> 
[302.625]
<no-speech> 
[304.575]
æ kh o n̪ a ɾ k i <no-speech> ʤ a o a h ɔ b e n̪ a 
[307.375]
<no-speech> 
[309.445]
h æ̃ 
[310.075]
<no-speech> 
[313.915]
d̪ e kh t̪ e a ʧh e <int> k o n̪ o ɾ ɔ k o m 
[317.315]
<no-speech> 
[321.115]
h u 
[321.935]
<no-speech> 
[325.485]
<no-speech> 
[325.985]
<no-speech> 
[327.205]
ʈh i k h o i l̪ e i t̪ o kh a i t̪ e i p a ɾ b i <int> 
[330.355]
<no-speech> 
[333.445]
<sta> <hes> ʈh i k h ɔ b e n̪ a h ɔ b e k i a m i ʤ a n̪ i a m i æ kh o n̪ k i b o l̪ i b o l̪ t̪ o h u m a m a ɾ k i b æ b o s t̪h a k ɔ ɾ a ɾ a m a ɾ 
[344.945]
<no-speech> 
[345.705]
<no-speech> 
[346.615]
<no-speech> 
[346.995]
<no-speech> 
[348.345]
h u m n̪ a <no-speech> 
[354.485]
n̪ a a m i b o l̪ l̪ e i k i oi kh a n̪ t̪h e k e ʤ o d̪ i n̪ a t̪h a k e k ɔ t̪h a ɾ k ɔ t̪h a <int> 
[360.085]
<no-speech> 
[362.025]
t̪ a i l̪ e oi kh a n̪ t̪h e k e h o i l̪ e t̪ a i l̪ e i t̪ o <no-speech> h o i l̪ e <int> 
[365.635]
<no-speech> 
[369.115]
<int> æ kh o n̪ ʤ a o a h ɔ b e n̪ a m a n̪ e ʃ a m n̪ e ɾ m a ʃ e <no-speech> <int> ʤ a o a ɾ i ʧ ʧh a a ʧh e 
[373.875]
<no-speech> 
[376.175]
<sta> h u m <no-speech> e i m a ʃ ʈ a ʤ a k t̪ a ɾ p ɔ ɾ d̪ e kh i k i h ɔ e e i d̪ i k e kh ɔ b o ɾ 
[385.985]
<no-speech> 
[387.745]
<sta> h u m t̪ o d̪ e ɾ oi kh a n̪ e t̪ o ʤ a i h ɔ ʃ ʃ i <no-speech> oi kh a n̪ e i g e l̪ e i n̪ a ʤ a i n̪ a 
[395.655]
<no-speech> 
[397.025]
h æ̃ <int> 
[398.325]
<no-speech> 
[402.375]
<sta> bh i t̪ o ɾ e n̪ a 
[408.165]
<no-speech> 
[411.165]
ʤ a i ou ʃ ɔ d̪h a ʧh e i n̪ a k i 
[413.115]
<no-speech> 
[415.755]
<no-speech> 
[416.745]
<no-speech> 
[420.905]
a ʧ ʧh a 
[421.655]
<no-speech> 
[422.935]
a ʧ ʧh a a m a ɾ ʃ a t̪h e ʤ e d̪ i n̪ ʤ a b e p o ɾ e ʃ e i d̪ i n̪ k e a m i a m i b a d̪ d̪ i e 
[427.335]
<no-speech> 
[430.715]
h u m a ʧ ʧh a <no-speech> n̪ a a m i ʧ e ʃ ʈ a k o ɾ b o b o l̪ ʧh i n̪ a h ɔ e 
[434.535]
<no-speech> 
[438.385]
oi <no-speech> h æ̃ 
[440.535]
<no-speech> 
[442.095]
b o l̪ l̪ a m b a ɾ i ʤ a i b e k ɔ b e 
[443.865]
<no-speech> 
[445.395]
<no-speech> 
[445.955]
<no-speech> 
[448.185]
n̪ a n̪ a a m i b o l̪ t̪ e ʧh i d̪ i t̪ e ʧh i n̪ a t̪ o 
[450.555]
<no-speech> 
[452.475]
ɔ e b o l̪ t̪ e ʧh i b a ɾ i ɾ ʃ ɔ b a i bh a l̪ o a ʧh e 
[454.425]
<no-speech> 
[457.755]
h u m k i k o ɾ e o ɾ a 
[459.255]
<no-speech> 
[464.735]
<laugh> <sta> m i ʈ i ŋ k i ʃ e ɾ 
[467.855]
<no-speech> 
[473.475]
<no-speech> 
[474.065]
<no-speech> 
[476.115]
<no-speech> 
[476.485]
<no-speech> 
[482.415]
o o i gh ɔ ɾ e o t̪ o k ɔ t̪h a b o l̪ l̪ a m <sta> 
[485.895]
<no-speech> 
[490.045]
<no-speech> 
[490.605]
<no-speech> 
[493.185]
h u m <no-speech> h u 
[494.645]
<no-speech> 
[495.775]
b ɔ l̪ 
[496.355]
<no-speech> 
[499.595]
k i h o i e ʧh e 
[500.585]
<no-speech> 
[503.315]
<no-speech> 
[503.975]
<no-speech> 
[508.505]
<laugh> n̪ a d̪ ɔ ʃ m i n̪ i ʈ a m a ɾ e ʤ a e g a e t̪ o d̪ æ kh a ʤ a e n̪ a t̪ o ɾ oi ʤ a e g a e d̪ æ kh o 
[512.735]
<no-speech> 
[514.365]
<no-speech> 
[515.105]
<no-speech> 
[516.514875]
h æ̃ 
[517.235]
<no-speech> 
[518.345]
b ɔ l̪ 
[519.204875]
<no-speech> 
[524.134875]
k e <no-speech> k i ʃ e 
[525.645]
<no-speech> 
[531.745]
n̪ a n̪ a ʃ u n̪ i n̪ a i 
[533.305]
<no-speech> 
[537.485]
<no-speech> 
[537.835]
<no-speech> 
[539.805]
t̪ ɔ b e l̪ a g ʧh e 
[540.705]
<no-speech> 
[542.395]
<no-speech> 
[542.925]
<no-speech> 
[544.515]
<int> k i bh a b e l̪ a g ʧh e 
[547.185]
<no-speech> 
[550.285]
d̪ a d̪ u o ɾ a k ɔ kh o n̪ a ʃ ʧh e <sta> 
[552.705]
<no-speech> 
[558.775]

[559.975]
<no-speech> 
[562.715]
k e a ʃ ʧh e æ kh o n̪ ʃ a t̪h e 
[564.095]
<no-speech> 
[571.985]
h u m ʃ ɔ b a ɾ b a ɾ i t̪ e g i e u ʈh t̪ i ʧh e n̪ a k i 
[574.265]
<no-speech> 
[585.405]
h u m m a n̪ e ʤ a ɾ ʤ a ɾ m o b a i l̪ a ʧh e ʃ ɔ b a ɾ i n̪ a 
[588.505]
<no-speech> 
[590.545]
a ɾ e k i k o ɾ b i oi ʈ a n̪ i e 
[591.865]
<no-speech> 
[593.725]
<sta> p o ɾ e k i h ɔ b e e i ʈ a t̪h i k e 
[596.315]
<no-speech> 
[598.885]
p o ɾ e k i h ɔ b e e i e i ʈ a d̪ i e 
[600.06]
