[0.0]
<no-speech> 
[0.715]
h æ̃ h æ l̪ o <int> 
[2.125]
<no-speech> 
[3.595]
h æ̃ 
[4.255]
<no-speech> 
[5.115]
<no-speech> 
[5.525]
<no-speech> 
[8.004875]
h æ̃ ɔ k kh ɔ e a m i b o l̪ ʧh i 
[11.185]
<no-speech> 
[13.335]
<no-speech> 
[15.455]
h æ̃ 
[15.935]
<no-speech> 
[18.125]
h æ̃ g i e ʧh i l̪ a m g i e ʧh i l̪ a m 
[20.485]
<no-speech> 
[22.865]
<sta> o kh a n̪ e t̪ o o n̪ n̪ o <hes> ɖ a k t̪ ə ɾ l̪ i kh e d̪ i e ʧh e 
[29.045]
<no-speech> 
[31.984875]
h u m ʃ ɔ b a i g i e ʧh i l̪ o 
[33.465]
<no-speech> 
[36.935]
<sta> h æ̃ d̪ e kh i e ʧh i l̪ a m ɖ a k t̪ ə ɾ ɾ a e k e 
[39.385]
<no-speech> 
[42.655]
<sta> oi b o l̪ l̪ o o n̪ n̪ o <hes> ɖ a k t̪ ə ɾ e ɾ n̪ a m d̪ i l̪ o u n̪ i t̪ o p o ɾ e u n̪ i t̪ o <hes> ʤ i <hes> e s h a s p ə t̪ ə l̪ e p a ʈh i e ʧh i l̪ o 
[53.995]
<no-speech> 
[56.225]
<sta> oi t̪ o <hes> ʈh a k u ɾ ʤ a e 
[58.485]
<no-speech> 
[61.295]
o kh a n̪ <hes> u n̪ i u n̪ a ɾ ʤ e h a s p ə t̪ ə l̪ u n̪ i ʃ e i h a s p ə t̪ ə l̪ t̪h e k e a b a ɾ o n̪ n̪ o a ɾ e k ʈ a h a s p ə t̪ ə l̪ e p a ʈh i e ʧh e <sta> 
[69.255]
<no-speech> 
[71.115]
u n̪ i b o l̪ l̪ o a m i t̪ o s ə ɾ ʤ ə n̪ a m i e ʃ ɔ b k e s d̪ e kh i n̪ a 
[74.055]
<no-speech> 
[74.895]
p e ʈ e ʤ ɔ l̪ ʤ o m e g æ ʧh e ʤ ɔ l̪ <int> 
[77.915]
<no-speech> 
[79.375]
ʈh i k a ʧh e 
[80.045]
<no-speech> 
[82.695]
h æ̃ 
[83.185]
<no-speech> 
[84.105]
o <breath> k o ɾ b e 
[86.065]
<no-speech> 
[89.815]
h æ̃ 
[90.425]
<no-speech> 
[93.365]
o t̪ o a m a ɾ p a ʃ e i a ʧh e ʈh a k u ɾ i a ɾ p a ʃ e i ɖ a k t̪ ə ɾ e ɾ 
[96.465]
<no-speech> 
[99.165]
h æ̃ g i e ʧh i l̪ a m 
[100.245]
<no-speech> 
[102.915]
oi b o l̪ ʧh e <hes> oi oi ɖ a k t̪ ə ɾ e ɾ b u k i ŋ k ɔ ɾ a h o e ʧh e æ kh o n̪ o d̪ æ kh a n̪ o h ɔ e n̪ i 
[107.605]
<no-speech> 
[109.815]
<hes> n̪ a 
[110.595]
<no-speech> 
[113.225]
<hes> p o ɾ ʃ u d̪ i n̪ <hes> t̪ o m a ɾ t̪ o m o ŋ g o l̪ b a ɾ d̪ i n̪ <hes> b u k k ɔ ɾ a h o e ʧh e m o ŋ g o l̪ b a ɾ 
[117.775]
<no-speech> 
[120.835]
n̪ a d̪ u i ʃ o ʈ a k a u n̪ i bh i ʤ i ʈ n̪ i e ʧh e d̪ u i ʃ o ʈ a k a <int> h u m 
[126.085]
<no-speech> 
[130.225]
n̪ a n̪ e i 
[131.245]
<no-speech> 
[132.565]
a ɾ kh ɔ b o ɾ ʃ ɔ b <sta> a ɾ t̪ u m i m e d̪ n̪ a p u k u ɾ t̪h e k e k ɔ b e ʤ a b e 
[137.415]
<no-speech> 
[139.345]
b ɔ l̪ o 
[139.945]
<no-speech> 
[144.435]
<int> h æ̃ 
[145.185]
<no-speech> 
[148.205]
<int> h æ̃ 
[149.095]
<no-speech> 
[154.335]
h æ̃ 
[154.865]
<no-speech> 
[156.675]
h æ̃ <no-speech> 
[159.365]
h æ̃ 
[160.025]
<no-speech> 
[161.885]
h æ̃ 
[162.475]
<no-speech> 
[165.725]
h æ̃ h æ̃ <breath> h æ̃ 
[168.125]
<no-speech> 
[169.785]
h æ̃ 
[170.485]
<no-speech> 
[176.695]
h æ̃ h æ̃ <int> 
[178.115]
<no-speech> 
[187.775]
h æ̃ 
[188.385]
<no-speech> 
[191.095]
a m i t̪ o m a k e <sta> d̪ i e m e d̪ n̪ a p u ɾ ʈ a d̪h o ɾ t̪ e ʧ a i ʧh i t̪ u m i æ k ʈ a k ɔ t̪h a 
[195.525]
<no-speech> 
[199.765]
a ʧ ʧh a 
[200.405]
<no-speech> 
[206.775]
a ɾ e <hes> o d̪ e ɾ ʃ a t̪h e t̪ o k ɔ t̪h a <sta> b o l̪ ʧh i o ɾ a t̪ o ʃ e i <hes> k e u b o l̪ ʧh e h ɔ b e k e u b o l̪ ʧh e kh u b a ɾ e n̪ o t̪ u n̪ n̪ o t̪ u n̪ l̪ o k d̪h o ɾ t̪ e h ɔ b e 
[217.145]
<no-speech> 
[221.715]
a ʧ ʧh a <no-speech> 
[224.725]
h æ l̪ o 
[225.155]
<no-speech> 
[230.625]
t̪ u m i a s a ʃ o t̪ u m i b æ ɾ a k p u ɾ e a ʃ o <sta> n̪ i e ʤ a o ʈh i k a ʧh e <no-speech> b æ ɾ a k p u ɾ e a ʃ o <no-speech> 
[243.335]
k o l̪ k a t̪ a e a ʃ t̪ e h ɔ b e 
[245.695]
<no-speech> 
[247.165]
<no-speech> 
[251.085]
h æ̃ 
[251.665]
<no-speech> 
[253.285]
<no-speech> 
[253.675]
<no-speech> 
[255.885]
h æ̃ 
[256.435]
<no-speech> 
[262.535]
<no-speech> 
[263.015]
<no-speech> 
[264.895]
a ʧ ʧh a ʃ e t̪ o a m a ɾ o d̪ ɔ ʃ ʈ a ɾ o a g e a m i ɖh u k t̪ e p a ɾ ʧh i n̪ a 
[269.025]
<no-speech> 
[274.635]
<int> h æ̃ 
[275.285]
<no-speech> 
[277.515]
<no-speech> 
[277.865]
<no-speech> 
[281.825]
o <no-speech> 
[284.165]
k o n̪ o ʈ a 
[284.805]
<no-speech> 
[287.715]
k o n̪ a g e ɾ ʈ a <sta> 
[290.445]
<no-speech> 
[291.355]
h æ̃ h o ʧ ʧh e 
[292.325]
<no-speech> 
[296.035]
<no-speech> 
[296.465]
<no-speech> 
[297.765]
h u m 
[298.325]
<no-speech> 
[301.985]
<sta> h æ̃ 
[303.215]
<no-speech> 
[307.365]
<sta> <hes> ʃ ɔ b ʧh e l̪ e m e e 
[309.075]
<no-speech> 
[313.405]
a ɾ e ʃ ɔ b n̪ i e k a ʤ e ʧ o l̪ e e ʃ e ʧh e ʃ ɔ b n̪ i e <sta> 
[318.425]
<no-speech> 
[319.815]
h u m <int> 
[321.555]
<no-speech> 
[323.695]
<sta> o g u l̪ o ʤ oi n̪ k o ɾ e ʧh e t̪ o v ou ʧ a ɾ b e ɾ h ɔ b e t̪ a ɾ p ɔ ɾ t̪ o 
[328.405]
<no-speech> 
[330.625]
<sta> h æ̃ 
[332.775]
<no-speech> 
[335.525]
t̪ o m a ɾ a n̪ ɖ a ɾ e i h ɔ b e 
[336.775]
<no-speech> 
[341.355]
h u m 
[341.955]
<no-speech> 
[345.535]
h u m b a ɾ i t̪ e a ʧh i <int> 
[347.455]
<no-speech> 
[349.205]
h u m h æ̃ 
[351.445]
<no-speech> 
[353.505]
h æ̃ kh a ʧ ʧh i 
[354.535]
<no-speech> 
[359.945]
a m a ɾ m e e ɾ ʧh e l̪ e ʃ ɔ b i ʈh i k a ʧh e 
[362.445]
<no-speech> 
[366.195]
<sta> a m a ɾ ʈ w e n̪ ʈ i 
[369.065]
<no-speech> 
[370.045]
ʈ w e n̪ ʈ i 
[370.765]
<no-speech> 
[372.415]

[373.795]
<no-speech> 
[378.805]
b o i ʃ ɔ b k e n̪ a h o e g æ ʧh e a m a ɾ 
[381.365]
<no-speech> 
[383.735]
h u m 
[384.325]
<no-speech> 
[388.205]
h u m 
[388.725]
<no-speech> 
[390.595]
h æ̃ a m i <hes> ʤ e d̪ i n̪ g i e ʧh i l̪ a m <sta> p o ɾ ʃ u d̪ i n̪ g i e ʧh i l̪ a m 
[395.865]
<no-speech> 
[396.745]

[397.445]
<no-speech> 
[398.375]
<no-speech> 
[398.875]
<no-speech> 
[399.695]
h æ̃ <breath> h o e g æ ʧh e ʃ ɔ b 
[401.315]
<no-speech> 
[405.035]
h æ̃ 
[405.605]
<no-speech> 
[409.055]
h u m ʃ ɔ b k e n̪ a h o e g æ ʧh e 
[411.305]
<no-speech> 
[414.645]
<sta> <hes> p ɾ o k a ʃ ɔ n̪ i 
[417.985]
<no-speech> 
[418.985]

[420.505]
<no-speech> 
[422.685]
a m i <hes> b e g u n̪ i kh e l̪ a m 
[425.905]
<no-speech> 
[428.455]
<no-speech> 
[428.895]
<no-speech> 
[430.585]
h æ̃ h æ̃ 
[431.335]
<no-speech> 
[432.555]
<sta> h æ̃ 
[433.565]
<no-speech> 
[435.375]
<int> ʧ o l̪ e a ʃ o 
[436.755]
<no-speech> 
[437.925]
ʧ o l̪ e a ʃ o 
[439.065]
<no-speech> 
[443.245]
a ɾ e <hes> ɔ p ɾ i o b a b u a m i k ɔ t̪ o b a ɾ d̪ e kh e ʧh i t̪ u m i ʤ o d̪ i n̪ a a ʃ l̪ e k i k o ɾ b o 
[448.375]
<no-speech> 
[455.625]
<sta> <hes> ʧ o l̪ e a ʃ o 
[456.725]
<no-speech> 
[460.495]
h u m 
[460.985]
<no-speech> 
[464.425]
h æ̃ h æ̃ t̪ o ʧ o l̪ e a ʃ o <no-speech> 
[470.415]
<no-speech> 
[470.785]
<no-speech> 
[472.645]
<hes> n̪ a n̪ a 
[473.835]
<no-speech> 
[477.685]
h u m 
[478.295]
<no-speech> 
[479.635]
ʧ o l̪ e a ʃ o ʧ o l̪ e a ʃ o <int> 
[481.675]
<no-speech> 
[485.355]
<sta> h æ̃ h æ̃ a ʤ k e b a k ũ ɾ a t̪h e k e l̪ o k e ʃ e ʧh e 
[489.835]
<no-speech> 
[490.855]
k a l̪ k e b a k ũ ɾ a <sta> t̪h e k e b a k ũ ɾ a t̪h e k e ʃ ɔ b e ʃ e ʧh i l̪ o t̪ o 
[494.465]
<no-speech> 
[496.185]
<sta> o d̪ u ʤ o n̪ e <int> 
[499.435]
<no-speech> 
[501.235]
<no-speech> 
[501.595]
<no-speech> 
[506.895]
<sta> h u m h æ̃ bh a l̪ o a ʧh e 
[509.305]
<no-speech> 
[515.795]
h u m 
[516.334875]
<no-speech> 
[520.175]
<no-speech> 
[520.655]
<no-speech> 
[522.755]

[523.145]
<no-speech> 
[524.735]
h æ̃ h æ̃ 
[525.235]
<no-speech> 
[527.135]
h æ̃ h æ̃ 
[527.885]
<no-speech> 
[530.345]
<sta> o ʈ a <hes> ʃ e i <hes> i e ɾ t̪ o t̪ o m a ɾ oi ʤ e <hes> a m a d̪ e ɾ n̪ ɔ e a h a ʈ i ɾ 
[539.365]
<no-speech> 
[542.695]
h u m <sta> 
[543.715]
<no-speech> 
[545.455]
h u m 
[546.155]
<no-speech> 
[548.335]
h æ̃ h æ̃ o oi ʤ e e l̪ k e s i ŋ 
[552.325]
<no-speech> 
[553.645]
e i b e n̪ a ɾ ɔ s ʤ a b e b e n̪ a ɾ ɔ s ʤ a b e ʈ i k i ʈ d̪ i ʧ ʧh e ʤ a b e b ɔ l̪ o <int> 
[558.035]
<no-speech> 
[559.645]
h æ̃ b e n̪ a ɾ ɔ s 
[561.915]
<no-speech> 
[563.965]
<no-speech> 
[564.345]
<no-speech> 
[565.185]
gh u ɾ t̪ e 
[566.015]
<no-speech> 
[568.615]
<sta> ph ɾ i ʈ i k i ʈ 
[570.245]
<no-speech> 
[573.615]
ʃ ɔ b ʃ ɔ b o d̪ e ɾ 
[575.015]
<no-speech> 
[577.825]
<sta> k o m p a n̪ i k o m p a n̪ i a ʧh e 
[580.375]
<no-speech> 
[582.525]
h æ̃ n̪ i e <no-speech> 
[584.875]
h æ̃ ʤ oi n̪ k ɔ ɾ a k o ɾ i n̪ a d̪ e kh t̪ e ʤ e t̪ e h ɔ b e b e n̪ a ɾ ɔ s e t̪ o a m a ɾ o b o n̪ d̪h u b a n̪ d̪h ɔ b e ɾ b a ɾ i a ʧh e 
[590.405]
<no-speech> 
[592.035]

[592.645]
<no-speech> 
[594.485]
h æ̃ o ɾ a b o l̪ ʧh e ʤ u n̪ e a ʃ o ʤ u n̪ e ʈ i k i ʈ d̪ i b e n̪ a h o l̪ e e ɾ ʈ i k i ʈ d̪ i b e 
[599.315]
<no-speech> 
[600.08]
