[0.0]
<no-speech> 
[0.435]
<sta> h æ l̪ o 
[6.285]
<no-speech> 
[7.215]
<no-speech> 
[7.575]
<no-speech> 
[9.835]
<sta> h æ̃ ɾ a ʤ u t̪ o <hes> h æ̃ ɾ a ʤ u o ɾ a ʤ u ɾ ʃ o ŋ g e e b a ɾ k ɔ t̪h a b o l̪ b o a m i t̪ o <hes> h æ̃ h æ̃ ʃ o n̪ e i a m i k ɔ m o l̪ b o l̪ ʧh i ɾ a ʤ u 
[15.395]
<no-speech> 
[17.005]
h æ̃ <laugh> e i b o l̪ ʧh i t̪ o ɾ k i b o l̪ ʧh i t̪ o ɾ k i kh ɔ b o ɾ k a ʤ e ɾ k ɔ t̪ o d̪ u ɾ <hes> k i h ɔ l̪ k ɔ ʈ a h ɔ l̪ 
[22.065]
<no-speech> 
[24.025]
<sta> b o l̪ ʧh i t̪ u i o kh a n̪ e ʤ e g e l̪ i ʃ ɔ k a l̪ e k ɔ ʈ a e <oov> p oũ ʧh a l̪ i o kh a n̪ e 
[30.745]
<no-speech> 
[35.335]
<no-speech> 
[35.685]
<no-speech> 
[36.855]
<no-speech> 
[39.235]
h æ̃ <int> h æ̃ 
[40.905]
<no-speech> 
[43.135]
h æ̃ 
[43.575]
<no-speech> 
[45.785]
<no-speech> 
[47.535]
<sta> 
[48.145]
<no-speech> 
[50.875]
<sta> h æ̃ <no-speech> 
[54.615]
<sta> t̪ u i ʃ i a l̪ d̪ a h o e g e l̪ i n̪ a t̪ o ɾ e kh a n̪ t̪h e k e e i h a b ɾ a t̪h e k e n̪ oi h a ʈ i h o e g e l̪ i 
[59.045]
<no-speech> 
[61.845]
<sta> a ʧ ʧh a a ʧ ʧh a n̪ oi h a ʈ i n̪ oi h a ʈ i <hes> n̪ oi h a ʈ i t̪h e k e 
[68.105]
<no-speech> 
[69.545]
<no-speech> 
[71.635]
<sta> b æ n̪ ɖ e l̪ t̪ a i b ɔ l̪ b æ n̪ ɖ e l̪ t̪h e k e 
[74.335]
<no-speech> 
[76.385]
h æ̃ <sta> 
[80.015]
<no-speech> 
[81.995]
<sta> o a ʧ ʧh a a ʧ ʧh a t̪ a b o l̪ ʧh i ʤ e ʈ a t̪ u i æ kh o n̪ t̪ o <hes> e i t̪ o ɾ ʃ a t̪h e a m i k ɔ t̪ o d̪ i n̪ d̪h o ɾ e ʈ ɾ a i k o ɾ e ʤ a ʧ ʧh i t̪ o ɾ s w i ʧ ɔ ph ʧh i l̪ o k æ n̪ o o i d̪ u ʈ o ph o n̪ d̪ u ʈ o s w i ʧ ɔ ph k æ n̪ o ʧh i l̪ o 
[93.415]
<sta> h æ l̪ o <no-speech> h æ̃ 
[100.395]
<no-speech> 
[101.375]
<no-speech> 
[102.645]
<no-speech> 
[104.965]
<sta> t̪ a i <no-speech> n̪ a t̪ o k e a m i t̪ o ʃ e i k ɔ b e t̪h e k e k ɔ d̪ i n̪ d̪h o ɾ e ʈ ɾ a i k o ɾ e ʤ a ʧ ʧh i k i n̪ t̪ u k o n̪ m ɔ t̪ e i p a ʧ ʧh i n̪ a 
[112.775]
<no-speech> 
[115.525]
<sta> h æ̃ t̪ a ɾ p ɔ ɾ e a ʤ k e t̪ o ɾ bh a i k e ph o n̪ k o ɾ l̪ a m o i a ɾ æ k ʈ a o n̪ n̪ o n̪ ə m b ə ɾ d̪ i e e b a ɾ bh a i b o l̪ l̪ o e i ʈ ʤ i ɾ o w a n̪ t̪h ɾ i e i ʈ a ɾ k ɔ t̪h a i t̪ a a m i b o l̪ l̪ a m a m i e i ʈ a i <sta> ph o n̪ k o ɾ e i ʤ a ʧ ʧh i k ɔ d̪ i n̪ d̪h o ɾ e t̪ a o o k e p a ʧ ʧh i n̪ a s w i ʧ ɔ ph k o ɾ e ʃ ɔ k a l̪ e d̪ æ kh o k o t̪h a e a ʧh e b a k i ʧh u t̪ a i b o l̪ l̪ o ʤ a i h o k t̪ a ɾ p ɔ ɾ e a m i a b a ɾ ʈ ɾ a i k o ɾ l̪ a m a ʤ k e e i d̪ u p u ɾ b æ l̪ a e i kh a n̪ e e ʃ e a ɾ k i t̪ ɔ kh o n̪ ph o n̪ k o ɾ e d̪ e kh l̪ a m h æ̃ ʈh i k a ʧh e o 
[138.395]
<sta> ʤ a i h o k k i n̪ a m ʃ ɔ ph ɔ ɾ d̪ a 
[141.075]
<no-speech> 
[142.375]
<sta> h æ̃ o ɔ n̪ e k k i ʧh u h o ʧ ʧh e ɔ n̪ e k k i ʧh u ɔ n̪ e k k i ʧh u e ʈ a <hes> t̪ u i b o l̪ ʧh e ʤ e e ʈ a ph i ɾ b i k ɔ kh o n̪ 
[148.715]
<no-speech> 
[154.115]
k a l̪ k e o <no-speech> 
[156.285]
<sta> k a l̪ k e ʃ ɔ k a l̪ e a b a ɾ ʤ e t̪ e h ɔ b e 
[158.845]
<no-speech> 
[162.105]
h æ̃ <sta> p a ɾ t̪h o ɾ o kh a n̪ e t̪h a k b i n̪ a 
[165.005]
<no-speech> 
[169.175]
h æ̃ 
[169.765]
<no-speech> 
[171.085]
h æ̃ <no-speech> 
[172.915]
h æ̃ a ʧ ʧh a a ɾ b o l̪ ʧh i <sta> ɾ o b i b a ɾ a ʃ l̪ e t̪ a h o l̪ e d̪ æ kh a k o ɾ b o t̪ o ɾ ʃ a t̪h e ɔ n̪ e k d̪ i n̪ d̪ æ kh a h o ʧ ʧh e n̪ a h æ̃ <no-speech> p ɾ o b a l̪ p ɾ o b a l̪ d̪ e ɾ b a ɾ i b o ʃ e æ k ʃ ɔ ŋ g e a ɖ ɖ a d̪ e b æ k ʈ u ɾ o b i b a ɾ 
[183.325]
<no-speech> 
[184.655]
ʈh i k a ʧh e <sta> ɾ o b i b a ɾ æ k ʃ a t̪h e <hes> a m ɾ a t̪ i n̪ ʤ o n̪ e m i l̪ e a ɖ ɖ a d̪ e b k a ɾ ɔ n̪ t̪ o k e e ɾ m o d̪ d̪h e a m i ph o n̪ k o ɾ l̪ a m ph o n̪ k o ɾ e p a e n̪ i t̪ a n̪ a ʤ e t̪ a m ʧ o l̪ e ʤ e t̪ a m s e ʈ a i b o l̪ ʧh i a ɾ e ʧh a ɾ a ʧ o l̪ ʧh e k i ɾ ɔ k o m k i ɾ ɔ k o m o n̪ n̪ æ n̪ n̪ o <sta> b i e ɾ p o ɾ i s t̪h i t̪ i k i b a ɾ i t̪h e k e k o n̪ k i ʧh u o i ʃ ɔ b <hes> o i b i ʃ ɔ e p ɾ e ʃ ə ɾ d̪ i ʧ ʧh e n̪ a k o n̪ <no-speech> h æ̃ h æ l̪ o 
[204.985]
<no-speech> 
[205.845]
ʧ o l̪ ʧh e d̪ e kh a ʃ u n̪ o ʧ o l̪ ʧh e k i <int> 
[207.265]
<no-speech> 
[208.895]
h æ̃ d̪ æ kh a ʃ o n̪ a ʧ o l̪ ʧh e t̪ a i b ɔ l̪ 
[210.615]
<no-speech> 
[213.765]
<sta> a ɾ e o ʃ e t̪ o d̪ e kh a ʃ u n̪ o h o ʧ ʧh e b a ɾ i t̪ e k i n̪ t̪ u a m i t̪ o a p a t̪ o t̪ o <hes> ɖ i n̪ a i k o ɾ e ʤ a ʧ ʧh i m a n̪ e n̪ a b o l̪ e d̪ i ʧ ʧh i n̪ a 
[219.475]
<no-speech> 
[224.785]
<no-speech> 
[226.985]
<no-speech> 
[228.545]
h æ̃ 
[229.075]
<no-speech> 
[230.255]
d̪ æ kh o h æ̃ ʃ e ʈ a t̪ o ʈh i k i e b a ɾ m a t̪h a ɖh u k ʧh e n̪ a b o l̪ l̪ e t̪ o h ɔ b e n̪ a t̪ o m a k e t̪ o k o ɾ t̪ e t̪ o h ɔ b e i e b a ɾ k o ɾ t̪ e ʤ ɔ t̪ o kh o n̪ h ɔ b e i <sta> ʃ ɔ b e i l̪ a i n̪ e t̪h e k e i k o ɾ b a n̪ a o n̪ n̪ o l̪ a i n̪ e g i a k o ɾ b a a g e ʃ e i ɖ i s i ʃ ə n̪ ʈ a n̪ i t̪ e h ɔ b e a ɾ t̪ u m i ʤ o d̪ i e i l̪ a i n̪ e i t̪h a k t̪ a h o l̪ e æ kh o n̪ i k o ɾ e n̪ a o ɔ ʃ u b i d̪h e k i 
[243.465]
<no-speech> 
[245.125]
<no-speech> 
[245.495]
<no-speech> 
[249.935]
<sta> h æ̃ 
[252.325]
<no-speech> 
[254.565]
<sta> h æ̃ 
[258.195]
<no-speech> 
[259.304875]
<sta> <laugh> a ɾ e bh a i a ɾ e bh a i e b a ɾ d̪ æ kh e ʃ u n̪ e æ k ʈ a ʧ a l̪ i e d̪ e æ k ʈ a ʧ a l̪ i e d̪ e h æ̃ 
[268.045]
<no-speech> 
[268.845]
<sta> k æ n̪ o b o n̪ d̪h u ɾ b i e d̪ i ʧ ʧh i <laugh> ʃ o n̪ bh a i a ɾ d̪ e ɾ i k o ɾ i ʃ n̪ a æ kh o n̪ ʧ a l̪ i e d̪ e a ɾ k ɔ b e h ɔ b e e n̪ ʤ oi k ɔ ɾ a ɾ b ɔ e ɔ ʃ t̪ o e ʈ a i n̪ a 
[280.135]
<no-speech> 
[281.395]
t̪ a i n̪ a 
[281.925]
<no-speech> 
[284.545]
<sta> t̪ a h o l̪ e h æ̃ k a k i m a ɾ a b a ɾ k i h o e ʧh e 
[288.145]
<no-speech> 
[294.305]
<sta> h æ̃ 
[295.025]
<no-speech> 
[300.015]
h æ̃ 
[300.585]
<no-speech> 
[304.655]
<int> k i k i k i h o e t̪h a k b e a b a ɾ b ɔ l̪ 
[306.195]
<no-speech> 
[308.405]

[308.825]
<no-speech> 
[310.465]
h æ̃ 
[311.075]
<no-speech> 
[315.105]
h æ̃ 
[315.675]
<no-speech> 
[318.045]
k ɔ t̪ o <sta> k ɔ m <hes> k o t̪h a e a ʧh e 
[320.315]
<no-speech> 
[321.435]
e i ʈ e 
[322.115]
<no-speech> 
[323.435]
<sta> e i ʧ e s d̪ e b e e i ʧ e s d̪ e b e 
[324.875]
<no-speech> 
[326.915]
<sta> t̪ a h o l̪ e e i ʧ e s d̪ e b e ɔ ʃ u b i d̪h e k i b ɔ e ɔ ʃ k i ʃ e ɾ k ɔ m k o n̪ k ɔ m n̪ a ʃ ɔ b b ɔ e ɔ ʃ ʈh i k a ʈ a ɾ o <hes> e i ʈ i n̪ p l̪ ə s h o e g e l̪ e ʃ ɔ b æ k h o e ʤ a e 
[333.615]
<no-speech> 
[334.605]
<sta> ʈh i k a ʧh e 
[335.315]
<no-speech> 
[336.195]
h æ l̪ o 
[336.755]
<no-speech> 
[338.525]
e i ʈ i n̪ e i ʈ i n̪ p l̪ ə s h o l̪ e g e l̪ e ʃ ɔ b æ k h o e ʤ a e ʃ ɔ b e i ʈ i n̪ o ʤ a <sta> a ɾ <laugh> t̪h ə ɾ ʈ i o t̪ a ʈh i k a ʧh e 
[346.805]
<no-speech> 
[348.235]
<sta> t̪ ɔ kh o n̪ ʃ ɔ b ʃ ɔ m a n̪ a ɾ a ɾ 
[353.205]
<no-speech> 
[355.265]
<sta> b a b a 
[357.555]
<no-speech> 
[358.805]
<sta> k a ʤ k o ɾ t̪ e g i e 
[360.645]
<no-speech> 
[362.175]
b o l̪ ʧh i <sta> k a ʤ k o ɾ t̪ e g i e n̪ a o n̪ n̪ o k o n̪ s o ɾ s e k a ʤ k o ɾ t̪ e g i e n̪ a o n̪ n̪ o k o n̪ s o ɾ s e 
[365.915]
<no-speech> 
[366.725]
<no-speech> 
[367.205]
<no-speech> 
[368.055]
<sta> o b a b a t̪ a i d̪ æ kh o ʃ o n̪ ɾ a ʤ u <no-speech> 
[377.855]
<sta> h æ̃ <no-speech> 
[383.725]
oi h æ l̪ o 
[384.945]
<no-speech> 
[386.195]
<sta> a ɾ b o l̪ ʧh i b o l̪ ʧh i e i ʃ ɔ b t̪ a o ʤ o g a ʤ o g k o ɾ e n̪ i e n̪ e e i ʃ ɔ b t̪ a o ʤ o g a ʤ o g k o ɾ e n̪ i e n̪ e t̪ a n̪ a h o l̪ e p ɔ ɾ o b o ɾ t̪ i t̪ e <hes> d̪ e kh t̪ e g e l̪ e t̪ ɔ kh o n̪ e o p a w ə ʤ a b e n̪ a ʈh i k m ɔ t̪ 
[396.835]
<no-speech> 
[398.225]
<sta> p ɔ ʧh o n̪ d̪ o h ɔ b e n̪ a t̪ a ɾ ʤ o n̪ n̪ o ʤ e g u l̪ o p ɔ ʧh o n̪ d̪ o h ɔ e t̪ u m i ʤ e kh a n̪ t̪h e k e p a ɾ 
[402.795]
<no-speech> 
[405.725]
<sta> o i d̪ æ kh o a m a ɾ bh a i a m a ɾ ʈ a æ kh o n̪ b o l̪ t̪ e h ɔ b e n̪ a a m a ɾ ʈ a a m a ɾ m ɔ t̪ ʧh e ɾ e d̪ e n̪ a a m i æ kh o n̪ o d̪ æ kh e n̪ i n̪ a d̪ æ kh e k i t̪ a h o l̪ e ʧ ɔ l̪ æ k d̪ i n̪ g i e d̪ æ kh e a ʃ i 
[413.355]
<no-speech> 
[415.215]
k i <sta> æ k d̪ i n̪ t̪ a h o l̪ e g i e <hes> d̪ æ kh e d̪ æ kh e a ʃ t̪ e h ɔ b e o i m u kh e b o l̪ l̪ e h ɔ b e n̪ a <no-speech> h æ l̪ o 
[421.245]
<no-speech> 
[422.335]
<sta> a m a ɾ ʈ a ʃ u n̪ e a m a ɾ ʈ a 
[424.775]
<no-speech> 
[427.215]
<sta> a ʧ ʧh a k i k o ɾ e 
[431.385]
<no-speech> 
[432.305]
<sta> k e 
[433.575]
<no-speech> 
[435.895]
h æ̃ <sta> s æ l̪ ə ɾ i k ɔ t̪ o <no-speech> s æ l̪ ə ɾ i k ɔ t̪ o 
[441.635]
<no-speech> 
[443.225]
<sta> h æ̃ 
[446.715]
<no-speech> 
[448.485]
<sta> a ʧ ʧh a a ʧ ʧh a ʈh i k a ʧh e ʧ ɔ a g e d̪ e kh i t̪ a ɾ p ɔ ɾ e a m i æ k d̪ i n̪ g i e d̪ e kh b o <hes> h ɔ ʃ ʃ u t̪ ɔ ʃ u n̪ e t̪ o h ɔ b e n̪ a æ k d̪ i n̪ ʤ e t̪ e h ɔ b e æ k d̪ i n̪ g i e d̪ e kh t̪ e h ɔ b e d̪ æ kh a k o ɾ t̪ e h ɔ b e t̪ a ɾ p ɔ ɾ e 
[460.375]
<no-speech> 
[461.495]
<sta> t̪ a i t̪ o 
[462.795]
<no-speech> 
[465.765]
<sta> h æ̃ g o p a l̪ e ɾ ʤ o n̪ n̪ o h o ʧ ʧh e ʃ ɔ b i h o ʧ ʧh e ʃ ɔ b h o e ʤ a b e k e u b a k i t̪h a k b e n̪ a <no-speech> h u m t̪ o ɾ a i <no-speech> 
[478.535]
<sta> h æ̃ 
[479.765]
<no-speech> 
[482.805]
<sta> n̪ a n̪ a h æ l̪ o n̪ a ʧh a ɾ e n̪ i a ʤ k e p ɾ a e ʧh e ɾ e d̪ e b a ɾ m o t̪ o i a ɾ k i t̪ a ʤ a i h o k o n̪ n̪ o k a ʤ ʧ e ʃ ʈ a a ʧh e b a e ʈ a i k o ɾ b e p o ɾ e ɾ b æ p a ɾ ʃ e ʈ a æ kh o n̪ e ʈ a ʧh a ɾ a o t̪ o <sta> ʃ o n̪ æ kh o n̪ ʤ e ʈ a k ɔ t̪h a h ɔ l̪ bh a i d̪ æ kh e ʃ u n̪ e ʤ e ʈ a bh e b e ʧh i ʃ p ɔ ʧh o n̪ d̪ o h o l̪ e ʈh i k n̪ i e n̪ e k a ɾ ɔ n̪ <hes> d̪ æ kh e ʃ u n̪ e t̪ ɔ kh o n̪ k o ɾ t̪ e g e l̪ e a ɾ p a w ə ʤ a b e n̪ a ʈh i k m ɔ t̪ ɔ n̪ e k kh ũ ʤ t̪ e h ɔ b e t̪ ɔ kh o n̪ 
[505.285]
<sta> t̪ a i n̪ a 
[506.345]
<no-speech> 
[507.475]
<sta> a ɾ e m n̪ i b a ɾ i t̪h e k e <hes> h ɔ e n̪ i h æ l̪ o 
[511.855]
<no-speech> 
[514.875]
<sta> a ɾ e bh a i a m a ɾ kh ɔ b o ɾ t̪ o b a ɾ i t̪h e k e m a ʤh e m o d̪ d̪h e d̪ æ kh a ʃ u n̪ a h o ʧ ʧh e ʧ o l̪ e t̪ ɔ kh o n̪ a m i a b a ɾ n̪ a b o l̪ e d̪ i i t̪ ɔ kh o n̪ a b a ɾ t̪h e m e ʤ a e e ɾ ɔ k o m b æ p a ɾ h o ʧ ʧh e 
[521.215]
<no-speech> 
[523.375]
<sta> ph ɔ ɾ t̪h ɾ i n̪ a i n̪ w a n̪ n̪ a i n̪ 
[527.075]
<no-speech> 
[529.225]
<sta> a m i l̪ a i n̪ n̪ a bh u ɾ i e o ʈ a k o ɾ b o n̪ a ʤ a b o n̪ a a ɾ k i ʈh i k a ʧh e <no-speech> h æ l̪ o h æ̃ a m i l̪ a i n̪ n̪ a bh u ɾ i e o ʈ a ʤ a b o n̪ a 
[540.875]
<sta> h æ̃ 
[543.135]
<no-speech> 
[544.455]
<no-speech> 
[545.035]
<no-speech> 
[545.835]
<sta> h æ̃ 
[547.725]
<no-speech> 
[550.735]
h æ̃ h æ̃ h æ̃ 
[551.645]
<no-speech> 
[552.945]
h æ̃ <sta> 
[553.545]
<no-speech> 
[555.025]

[555.455]
<no-speech> 
[556.775]

[557.395]
<no-speech> 
[558.695]
k e kh õ ʤ d̪ i e ʧh e k e <sta> t̪ o k e m a n̪ e k a ɾ ʃ a t̪h e <hes> k o ɾ e ʤ a ʧ ʧh i ʃ a ɾ k i s e ʈ a i a ɾ k i 
[564.015]
<no-speech> 
[566.535]
<no-speech> 
[567.305]
<no-speech> 
[568.385]
<sta> ʃ e i a ʧ ʧh a h æ̃ 
[570.895]
<no-speech> 
[576.115]
<no-speech> 
[576.515]
<no-speech> 
[579.205]
h æ̃ <sta> 
[581.675]
<no-speech> 
[583.455]
h æ̃ <sta> ʃ e kh a n̪ e ʃ e kh a n̪ e t̪ o k e k i k o ɾ t̪ e h ɔ b e ʃ e kh a n̪ e t̪ o k e k i k o ɾ t̪ e h ɔ b e 
[588.025]
<no-speech> 
[588.855]
<no-speech> 
[589.235]
<no-speech> 
[590.425]
k i k o ɾ t̪ e h ɔ b e t̪ o k e b ɔ l̪ 
[591.665]
<no-speech> 
[594.805]
<sta> æ kh o n̪ o b o l̪ e n̪ i o ɾ ɔ k o m i m u kh e b o l̪ b e ɔ n̪ e k k i ʧh u 
[598.345]
k a ʤ e ɾ <sta> ʃ o m ɔ e <oov> 
[599.0]
