[0.0]
<no-speech> 
[0.125]
<sta> h æ l̪ o h æ l̪ o <no-speech> h æ l̪ o 
[5.855]
æ 
[7.155]
<sta> 
[8.245]
<no-speech> 
[9.635]
ʃ u n̪ t̪ e <no-speech> <sta> ʃ u n̪ t̪ e p a ʧ ʧh e n̪ 
[13.095]
<no-speech> 
[14.425]
h æ̃ h æ̃ ʃ u n̪ t̪ e p a ʧ ʧh i 
[17.255]
<no-speech> 
[19.985]
h æ̃ <int> k i h æ̃ 
[23.315]
<no-speech> 
[25.425]
ɔ i d̪ ɔ e ɾ o ʃ ʃ i 
[26.115]
<no-speech> 
[29.885]
m a m a d̪ e kh i n̪ i ʃ u b ʃ u b ɔ ɾ n̪ o l̪ ɔ t̪ a d̪ e kh e ʧh i a ɾ <int> h o ʧ ʧh e k ɔ ɾ n̪ o k a n̪ ʤ ɔ l̪ i d̪ e kh e ʧh i t̪ a ɾ p ɔ ɾ e h o ʧ ʧh e oi ʤ e 
[39.405]
<no-speech> 
[40.265]
k e 
[40.725]
<no-speech> 
[43.295]
<no-speech> 
[43.725]
<no-speech> 
[44.705]
k e a p a t̪ a k e a p a t̪ a ɾ n̪ ou k a ʈ a d̪ e kh i 
[46.905]
<no-speech> 
[51.515]
h æ̃ 
[52.145]
<no-speech> 
[55.725]
o 
[56.415]
<no-speech> 
[60.535]
o <int> h æ̃ a ɾ a m a d̪ e ɾ t̪ o <hes> t̪ i n̪ ʃ o k ɔ t̪ o ʈ a ʧ æ n̪ e l̪ 
[65.645]
<no-speech> 
[66.755]
h æ̃ 
[67.345]
<no-speech> 
[68.455]
h æ̃ 
[69.165]
<no-speech> 
[72.225]
h æ̃ 
[75.655]
<no-speech> 
[76.835]
n̪ a æ kh o n̪ a ɾ o kh a n̪ e <int> o d̪ e ɾ o kh a n̪ e n̪ a m k i ɾ t̪ o n̪ h ɔ b e t̪ o ʤ e l̪ a k i ɾ t̪ o n̪ h ɔ b e m a n̪ e o kh a n̪ e ʤ a b o h æ̃ 
[85.395]
<no-speech> 
[86.945]
n̪ a gh u m a b o n̪ a ʃ o n̪ d̪h e d̪ e b o <no-speech> ʃ o n̪ d̪h e d̪ i e t̪ a ɾ p ɔ ɾ e o kh a n̪ e ʤ a b o m æ l̪ a e h æ̃ 
[92.835]
<no-speech> 
[97.195]
n̪ a æ kh o n̪ ʃ u l̪ e n̪ a a ɾ o ʃ o ɾ i ɾ kh a ɾ a p l̪ a g b e ɾ e ʧ a ɾ ʈ a <int> b a ʤ e t̪ o o ɾ ʤ o n̪ n̪ o æ kh o n̪ a ɾ ʃ o b o n̪ a t̪ a ɾ p ɔ ɾ e p ã ʧ ʈ a ɾ ʃ o m ɔ e t̪ o ɾ h ɔ ʃ ʃ i ʈ a h ɔ e n̪ a ɾ a n̪ n̪ a ɾ a n̪ n̪ a gh ɔ ɾ ʈ a 
[106.415]
<no-speech> 
[107.845]
h æ̃ oi ʈ a h æ̃ oi ʈ a <int> d̪ e kh b o t̪ a ɾ p ɔ ɾ e d̪ i d̪ i n̪ ə m b ə ɾ w a n̪ ʈ a d̪ e kh b o h æ̃ 
[113.455]
<no-speech> 
[114.305]
<int> d̪ e kh t̪ e d̪ e kh t̪ e d̪ e kh t̪ e ʃ o n̪ d̪h a h o e ʤ a b e ʃ o n̪ d̪h a b a t̪ i d̪ i e t̪ a ɾ p ɔ ɾ e oi h æ̃ h æ̃ 
[123.445]
<no-speech> 
[124.555]
<int> n̪ a n̪ a k a l̪ k e a m a d̪ e ɾ bh i m æ k a d̪ o ʃ i a ʧh e t̪ o 
[127.175]
<no-speech> 
[128.394875]
<int> h æ̃ <no-speech> oi ʤ o n̪ n̪ e k a l̪ k e ɾ a ʤ k e h ɔ ʃ ʃ i k o ɾ l̪ a m ʃ ɔ ŋ ʤ ɔ m k o ɾ l̪ a m k a l̪ k e <int> u p o ʃ k o ɾ b o a ɾ p o ɾ ʃ u d̪ i n̪ b a ɾ o n̪ 
[140.175]
k i k o ɾ b o 
[141.125]
<no-speech> 
[142.245]
h æ̃ <int> 
[142.905]
<no-speech> 
[145.435]
<int> o o a m ɾ a oi b æ l̪ a e m ɔ h a bh o g kh e l̪ a m <no-speech> <int> h æ̃ 
[151.015]
<no-speech> 
[151.825]
a ɾ ɾ a t̪ ɾ i ɾ e d̪ o i kh o i kh a b o 
[154.065]
<no-speech> 
[155.295]
b a ʈ d̪h o ɾ o k a l̪ k e t̪ o ʃ a ɾ a d̪ i n̪ u p o ʃ t̪h a k b o 
[157.775]
<no-speech> 
[158.785]
ʃ o n̪ d̪h e b a b i k e l̪ b æ l̪ a e 
[160.135]
<no-speech> 
[166.755]
h æ̃ 
[167.265]
<no-speech> 
[169.995]
h æ̃ 
[170.505]
<no-speech> 
[174.595]
<int> h u 
[174.965]
<no-speech> 
[177.125]

[177.645]
<no-speech> 
[183.525]
a ɾ e b i n̪ d̪ a b o n̪ e 
[184.535]
<no-speech> 
[185.805]
o a ɾ b i b d̪ a b ɔ n̪ e k i d̪ æ e b o l̪ t̪ o b i b d̪ a b ɔ n̪ e d̪ ɔ n̪ t̪ e ʃ ɔ e a k a ɾ ʃ a k a ɾ k o ɾ e ʃ ɔ b a n̪ a ʤ d̪ i e ʃ i d̪ d̪h o k o ɾ e <no-speech> o i ʈ a e o ɾ a h æ̃ ʃ i d̪ d̪h o k o ɾ e g o l̪ m o ɾ i ʧ e ɾ g u ɾ o 
[197.345]
d̪ æ e oi g u l̪ o i <int> b ɾ i n̪ d̪ a b o n̪ e a m ɾ a oi æ k a d̪ o ʃ i ɾ d̪ i n̪ e oi g u l̪ o e kh e t̪ a m a ɾ ɾ a t̪ ɾ e ɾ b æ l̪ a e 
[204.015]
<no-speech> 
[205.855]
h æ̃ h æ̃ ɾ a t̪ ɾ i b æ l̪ a e t̪ a ɾ p ɔ ɾ e <int> t̪ o ɾ h ɔ e t̪ o d̪ u d̪h ʈ u d̪h e i ʃ ɔ b h a l̪ k a k i ʧh u kh e t̪ a m p o ɾ e ɾ d̪ i n̪ k e <int> ʤ o m u n̪ a e s n̪ a n̪ k o ɾ e t̪ a ɾ p ɔ ɾ e a m ɾ a o kh a n̪ e ʃ ɔ k a l̪ b æ l̪ a e o d̪ e ɾ kh a b a ɾ t̪ o ʃ e i kh e e t̪ a ɾ p ɔ ɾ e a m ɾ a ʃ ɔ b gh u ɾ t̪ e b e ɾ h o t̪ a m 
[220.685]
<no-speech> 
[222.205]
<int> 
[222.835]
<no-speech> 
[225.205]
h æ̃ <int> h æ̃ 
[226.565]
<no-speech> 
[230.445]
<int> h æ̃ 
[230.865]
<no-speech> 
[232.655]
h æ̃ 
[233.035]
<no-speech> 
[234.605]
h æ̃ 
[235.105]
<no-speech> 
[235.915]
o o ɾ a <no-speech> 
[241.935]
<no-speech> 
[242.295]
<no-speech> 
[245.415]
h æ̃ h æ̃ h æ̃ 
[246.865]
<no-speech> 
[248.065]
<sta> a ɾ e kh a n̪ e t̪ o ʃ æ m a ʧ a l̪ ʈ a l̪ t̪ o b u kh a o a ʤ a e o kh a n̪ e t̪ o <no-speech> 
[253.195]
<int> h æ̃ h æ̃ 
[254.965]
<no-speech> 
[258.175]
h æ̃ <int> o 
[259.445]
<no-speech> 
[260.525]
h æ̃ <int> <no-speech> 
[264.755]
<sta> o 
[265.705]
<no-speech> 
[268.675]
h æ̃ 
[269.105]
<no-speech> 
[270.505]
<sta> h æ̃ 
[271.965]
<no-speech> 
[272.925]
<sta> o 
[273.965]
<no-speech> 
[274.855]
a ɾ a m a ɾ <int> ɖ a k t̪ ə ɾ ph ɾ i 
[276.365]
<no-speech> 
[277.275]
a m a ɾ ʤ e ʈh a t̪ o d̪ i d̪ i n̪ a kh u b a m a ɾ n̪ i ʃ ʈh a bh a b e k o ɾ e ʤ a n̪ i ʃ t̪ o <no-speech> e i ʈ a e i ʤ e b ɾ i n̪ d̪ a b o n̪ e ʤ a b e k u ɾ i t̪ a ɾ i kh e ʤ a b e h æ̃ o kh a n̪ e t̪ o ɾ <sta> o i h ɔ ʃ ʃ i k o ɾ b e o i <lipsmack> a ɾ e 
[289.255]
k i ʤ e n̪ o b ɔ l̪ e n̪ a o i ʃ ɔ b p o ɾ i k ɾ ɔ m a k o ɾ e n̪ a <no-speech> h æ̃ h æ̃ p ɔ ɾ i k ɾ ɔ m a e <int> t̪h a k b o h æ̃ t̪ a b a b a ʤ i e ʃ ʧh i l̪ o ʃ e d̪ i n̪ k e t̪ a b o l̪ l̪ o ʤ e m a i a ʧ ɔ l̪ o 
[300.765]
o kh a n̪ e g i e a m ɾ a b a ɾ i d̪ e b <int> 
[302.465]
<no-speech> 
[303.405]
<sta> h æ̃ ʤ a o a ɾ k ɔ t̪h a b o l̪ e ʧh e æ kh o n̪ b a ɾ i t̪ e d̪ e kh i k i b o l̪ e g ɔ t̪ o b a ɾ g i e t̪ o ʈ a k a ʈh a k a h a ɾ i e e l̪ a m 
[314.595]
<no-speech> 
[315.915]
h æ̃ <no-speech> a m a ɾ t̪ o <int> m o b a i l̪ ʈ a k a 
[320.565]
<no-speech> 
[323.445]
<int> h æ̃ 
[324.645]
<no-speech> 
[327.665]
a m ɾ a d̪ u i b o n̪ e g e ʧh i a ɾ a ɾ <int> ʃ a t̪h e a ʃ ɾ ɔ m e ɾ æ k ʤ o n̪ ʧh i l̪ o t̪ a ɾ k a ʧh e ʈ a k a ɾ b æ g ʈ a d̪ i e a m ɾ a ɾ a ʤ a k u n̪ ɖ e ɾ 
[334.725]
<no-speech> 
[335.705]
a ɾ e ɾ m o d̪ d̪h e k ɔ t̪ o g u l̪ i ʧh e l̪ e b o ʃ e ʧh i l̪ o b æ g ʈ a k e t̪ u l̪ e n̪ i e h ɔ e a k a ɾ p a l̪ i e g æ ʧh e t̪ a ɾ p ɔ ɾ e o kh a n̪ e <sta> o kh a n̪ e t̪h a n̪ a e t̪h a n̪ a e g e l̪ a m g e l̪ a m o k i a ɾ p a w ə ʤ a e n̪ a k i a ɾ p a w ə g e l̪ o n̪ a ʤ a n̪ i ʃ t̪ o 
[347.605]
<sta> oi ʤ o n̪ n̪ e e b a ɾ a ɾ <hes> bh a b ʧh i ʤ e ʤ a b o k i n̪ a t̪ a i ʧ i n̪ t̪ a k o ɾ ʧh i t̪ u i b æ g ʈ a t̪ o d̪ i b i o ʈh i k n̪ e i ʤ a b e k i n̪ a ʤ a b e 
[354.895]
<no-speech> 
[355.975]
oi <int> ʤ o n̪ n̪ e n̪ a 
[357.045]
<no-speech> 
[359.055]
<no-speech> 
[363.755]
h æ̃ 
[364.415]
<no-speech> 
[368.345]
h æ̃ <int> 
[368.895]
<no-speech> 
[371.375]
h æ̃ <sta> 
[373.825]
<no-speech> 
[377.685]
b a b a k i b o l̪ i ʃ ɾ e æ k ʈ a p ɔ e ʃ a n̪ e i <int> ʃ a t̪h e t̪ a ɾ p ɔ ɾ b a b a ʤ i a m a d̪ e ɾ ʈ a k a d̪ i l̪ o t̪ ɔ b e ʈ ɾ e n̪ e ɾ ʈ i k i ʈ ʈ a kh a l̪ i ʧh i l̪ o ʈ ɾ e n̪ e ɾ ʈ i k i ʈ ʈ a b a ɾ i 
[386.375]
<no-speech> 
[387.645]
ʃ o n̪ t̪ a ɾ p ɔ ɾ b a b a ʤ i t̪ a <no-speech> 
[390.475]
h æ̃ k i ɔ b o s t̪h a æ k ʈ a b e ʈ a n̪ e i k a ʧh e d̪ u i b o n̪ t̪ o kh u b k ã d̪ ʧh i t̪ a ɾ p ɔ ɾ <sta> b a b a ʤ i ʈ a k a d̪ i l̪ o b o l̪ l̪ o m a i a t̪ o m ɾ a b a ɾ i ʤ a o b a ɾ i g i e t̪ a ɾ p ɔ ɾ e e i t̪ i n̪ ʧ a ɾ m a ʃ a g e e ʃ ʧh i l̪ a t̪ ɔ kh o n̪ a m ɾ a d̪ u i 
[402.285]
<int> p o ɾ e ʃ ɔ b ʈ a k a d̪ i e d̪ i l̪ a m ʤ e ɔ ʃ ɔ m ɔ e d̪ i e ʧh e h æ̃ 
[406.215]
<no-speech> 
[410.855]
h æ̃ h æ̃ ʃ e i t̪ o 
[413.365]
<no-speech> 
[414.725]
h æ̃ a ɾ a m ɾ a a ʃ ɾ ɔ m e ʧh i l̪ a m b o l̪ e a m a d̪ e ɾ m a n̪ e b ã ʧ o a a ɾ ʤ o d̪ i o n̪ n̪ o k o t̪h a o t̪h a k t̪ a m k o n̪ o h o ʈ e l̪ ph o ʈ e l̪ e 
[420.225]
<no-speech> 
[422.885]
<int> b a ɾ i i t̪ o a ʃ t̪ e p a ɾ t̪ a m n̪ a 
[424.715]
<no-speech> 
[432.325]
h æ̃ h æ̃ 
[433.225]
<no-speech> 
[434.595]

[435.185]
<no-speech> 
[440.555]
h æ̃ oi ʤ o n̪ n̪ e i n̪ a e i b ɔ ʧh o ɾ <int> h æ̃ 
[444.905]
<no-speech> 
[446.875]
ʃ e t̪ o d̪ e b o i oi ʤ o n̪ n̪ e e b a ɾ m a n̪ e a h ʧ i n̪ t̪ a k o ɾ ʧh i ʤ e k i k o ɾ b o d̪ i d̪ i ʤ a b e k i n̪ a ʤ a b e d̪ i d̪ i ɾ o æ kh o n̪ o ʈh i k h ɔ e n̪ i d̪ i d̪ i ɾ n̪ a t̪ n̪ i a h d̪ i d̪ i ɾ ʤ a m a i ʈ a m a ɾ a g e l̪ o n̪ a ʃ e n̪ a t̪ n̪ i ɾ p o ɾ i k kh a 
[458.535]
k i p o ɾ i k kh a h æ̃ oi <int> s a b s i ɖ i a ɾ i 
[462.205]
<no-speech> 
[463.645]
a m a ɾ ʤ æ ʈh t̪ o t̪ o d̪ i d̪ i ɾ 
[464.965]
<no-speech> 
[466.365]
h æ̃ e i g ɔ t̪ o m a ʃ e m a ɾ a g æ ʧh e 
[468.555]
<no-speech> 
[469.785]
<sta> oi ʤ e m e e ʈ a ɾ m a d̪ d̪h o m i k p o ɾ i k kh a d̪ i d̪ i k e æ kh o n̪ o kh a n̪ e t̪h a k t̪ e b o l̪ ʧh e <no-speech> æ kh o n̪ k i k o ɾ b o h æ̃ ʃ e ʈ a e ʧ i n̪ t̪ a k o ɾ ʧh i i ʧ ʧh e t̪ o ʧh i l̪ o ʤ a b a ɾ 
[478.885]
<no-speech> 
[479.905]
kh ũ ʤ i t̪ o <int> 
[480.635]
<no-speech> 
[483.575]
<int> h æ̃ 
[484.325]
<no-speech> 
[485.175]
a ʧ ʧh a g e l̪ e o t̪ o d̪h o ɾ t̪ o ɾ d̪ ɔ p ã ʧ ʃ a t̪ d̪ i n̪ e h ɔ b e n̪ a k ɔ m k o ɾ e o 
[490.195]
<no-speech> 
[491.275]
h æ̃ gh u ɾ t̪ e i l̪ a g b e 
[494.015]
<no-speech> k o ɾ t̪ e i p o n̪ e ɾ o d̪ i n̪ t̪ a ɾ p ɔ ɾ e a ʃ ɾ ɔ m e t̪h a k a <sta> a ʃ a ʤ a o a oi t̪ o a ɾ k u ɾ i p ɔ̃ ʧ i ʃ d̪ i n̪ m o t̪ o l̪ e g e ʤ a b e <no-speech> h æ̃ oi ʤ o n̪ n̪ o i n̪ a k i k o ɾ b o ʧ i n̪ t̪ a k o ɾ ʧh i a b a ɾ k a ʤ e ɾ m e e ʈ a o 
[507.265]
<int> o ɾ o ɾ ʤ e ʈh a m a ɾ a g æ ʧh e 
[509.855]
<no-speech> 
[510.795]
<int> h æ̃ 
[512.105]
<no-speech> 
[513.255]
oi ʤ o n̪ n̪ e i n̪ a 
[514.194875]
<no-speech> 
[516.185]
ʃ e i t̪ o 
[517.055]
<no-speech> 
[519.175]
h æ̃ <int> h æ̃ 
[521.375]
<no-speech> 
[527.235]
o <int> 
[527.885]
<no-speech> 
[529.235]
<int> h æ̃ 
[530.135]
<no-speech> 
[531.105]
<sta> <laugh> h æ̃ 
[533.765]
<no-speech> 
[535.725]
h æ̃ 
[536.475]
<no-speech> 
[538.555]
<int> o 
[540.075]
<no-speech> 
[542.605]
h æ̃ 
[543.295]
<no-speech> 
[547.135]
<no-speech> 
[547.485]
<no-speech> 
[548.485]
<no-speech> 
[548.875]
<no-speech> 
[552.075]
<no-speech> 
[552.445]
<no-speech> 
[553.265]
<int> o ʧh u ʈ i p a b e n̪ a 
[554.225]
<no-speech> 
[556.195]
ʧh u ʈ i p a b e n̪ a 
[556.955]
<no-speech> 
[558.445]
o ʤ o d̪ i ʧh u ʈ i p a e t̪ a h o l̪ e ʧ o l̪ e ʤ a b i 
[561.715]
<no-speech> 
[570.555]
<no-speech> 
[579.395]
<no-speech> 
[580.025]
<no-speech> 
[583.595]
<no-speech> 
[583.955]
<no-speech> 
[584.865]
h æ̃ 
[585.385]
<no-speech> 
[587.105]
h æ̃ <int> 
[587.605]
<no-speech> 
[589.415]
ʃ ɔ ɾ e ɔ <int> 
[589.955]
<no-speech> 
[592.355]
e i <no-speech> 
[594.835]
e i b a b u d̪ a d̪ a ɾ gh ɔ ɾ e ʤ e ʧh o ʈ o n̪ ɔ n̪ ɔ d̪ ʧh i l̪ o o a ʃ b e 
[597.235]
<no-speech> 
[598.86]
