[0.0]
<no-speech> 
[3.535]
h æ̃ b ɔ l̪ o <oov> <no-speech> 
[6.135]
e i b o l̪ u n̪ <int> h æ̃ ʃ u n̪ t̪ e p a ʧ ʧh i ʃ u n̪ t̪ e p a ʧ ʧh i b ɔ l̪ o <no-speech> æ t̪ o k kh o n̪ e <int> l̪ ə v b ɾ i d̪ d̪h i 
[11.335]
<no-speech> 
[12.475]
<no-speech> 
[14.725]
o e i ʈ a a ʧh e n̪ o k i a 
[16.505]
<no-speech> 
[19.255]
<sta> e i n̪ o k i a 
[20.255]
<no-speech> 
[23.375]
k a ɾ ʃ o ŋ g e 
[24.165]
<no-speech> 
[27.585]
<int> h u m k i b a ŋ l̪ a e b o l̪ b o b a g ɔ b e ʃ o n̪ a ɾ ʤ o n̪ n̪ o ʤ ɔ kh o n̪ ɾ e k ɔ ɾ ɖ h ɔ b e t̪ o ʃ e ʈ a k i b a ŋ l̪ a e b o l̪ b o n̪ a i ŋ ɾ e ʤ i t̪ e 
[35.005]
<no-speech> 
[38.565]
<int> b a ŋ l̪ a i ŋ l̪ i ʃ b u ʤh l̪ a m k i n̪ t̪ u <int> e i ʤ e b o l̪ l̪ o g ɔ b e ʃ o n̪ a ɾ ʤ o n̪ n̪ o ɾ e k ɔ ɾ ɖ ɾ e k ɔ ɾ ɖ e ɾ t̪ o b a ŋ l̪ a b ɔ l̪ a u ʧ i t̪ ʧh i l̪ o k a ʤ a p n̪ a d̪ e ɾ k æ m o n̪ ʧ o l̪ ʧh e ʃ e ʈ a b o l̪ u n̪ a g e 
[48.455]
<no-speech> 
[49.765]
<no-speech> 
[50.205]
<no-speech> 
[51.855]
e i 
[52.345]
<no-speech> 
[56.065]
e i <int> ʃ e i t̪ o b a ɾ i t̪ e m a n̪ e k o n̪ b a ɾ i t̪ e k o t̪h a e a ʧh e n̪ a p n̪ a ɾ a 
[59.515]
<no-speech> 
[64.695]
o ʃ e i g a ɾ i t̪ e i ʧ o l̪ ʧh e 
[66.645]
<no-speech> 
[67.815]
<int> k a k e p ɔ l̪ i k a l̪ k e n̪ a k ɔ b e æ k ʈ a p ɔ l̪ i ph o n̪ k o ɾ e ʧh i l̪ o a m i t̪ ɔ kh o n̪ p ɾ o ʧ u ɾ æ k ʈ a k a ʤ e ʧh i l̪ a m d̪h o ɾ t̪ e p a ɾ i n̪ i m i ʈ i ŋ e ʧh i l̪ a m t̪ a ɾ p ɔ ɾ <breath> ʃ e d̪ i n̪ ɾ a t̪ ɾ i t̪ e a m i l̪ i kh e d̪ i e ʧh i l̪ a m ph e ɾ a ɾ p ɔ t̪h e <breath> h u m 
[79.635]
e i <hes> d̪ i p t̪ o d̪ a ɾ n̪ a k i m a ʤh kh a n̪ e kh u b ʃ o ɾ i ɾ kh a ɾ a p ʧh i l̪ o ʃ u n̪ l̪ a m <int> 
[84.005]
<no-speech> 
[84.855]
i e b e ɾ e g e ʧh i l̪ o <breath> a p n̪ a d̪ e ɾ g a ɾ i ʈ a k ɔ kh o n̪ ʧh a ɾ b e n̪ k ɔ kh o n̪ g a ɾ i ʈ a 
[89.445]
<no-speech> 
[91.745]
b a ɾ i t̪ e t̪h a k 
[92.625]
<no-speech> 
[96.585]
e i 
[97.145]
<no-speech> 
[99.275]
e ɾ p ɔ ɾ a ɾ e k ʈ a m a n̪ e k ɔ ʈ a e b e ɾ i e ʧh i l̪ e n̪ k ɔ ʈ a e 
[102.545]
<no-speech> 
[111.145]
ʃ a ɾ e a ʈ ʈ a a ʧ ʧh a a ɾ b a ɾ i ɾ kh ɔ b o ɾ k i 
[113.415]
<no-speech> 
[117.495]
m o ʈ a m u ʈ i m a n̪ e k i æ kh o n̪ o m e ɖ i s i n̪ g u l̪ o ʧ o l̪ ʧh e n̪ a 
[120.645]
<no-speech> 
[124.425]
<no-speech> 
[124.905]
<no-speech> t̪ a t̪ o h ɔ b e k i ɾ ɔ k o m h o ʧ ʧh e æ kh o n̪ a p n̪ a d̪ e ɾ m a ʃ e 
[132.565]
<no-speech> 
[134.165]
<int> h u m 
[135.675]
<no-speech> 
[138.475]
<no-speech> 
[139.195]
<no-speech> 
[141.265]
d̪ u i a ɾ a i e ɾ u p o ɾ e u ʈh ʧh e n̪ a <int> 
[143.125]
<no-speech> 
[144.275]
t̪ o ʧ o l̪ ʧh e k i k o ɾ e 
[145.525]
<no-speech> 
[148.345]
a p n̪ a ɾ o i ʤ e ʃ o ʃ u ɾ b a ɾ i <sta> o kh a n̪ e ʤ e p ɾ o m o ʈ a n̪ t̪ e ʤ a o a ɾ k ɔ t̪h a ʧh i l̪ o ʃ e ʈ a ɾ k i ʧh u h ɔ l̪ 
[152.825]
<no-speech> 
[154.845]
ʃ o ʃ u ɾ b a ɾ i o i ʤ e p ɾ o m o ʈ a ɾ k e d̪ e o a ɾ k i æ k ʈ a b æ p a ɾ ʧh i l̪ o ʃ e ʈ a h o e ʧh e 
[158.675]
<no-speech> 
[163.895]
<sta> p ɾ o ʧ u ɾ a g e ɾ t̪h e k e i ʃ u n̪ ʧh i l̪ a m ʤh a m e l̪ a 
[167.625]
<no-speech> 
[168.625]
æ kh o n̪ o ʃ e ʃ h ɔ e n̪ i 
[169.965]
<no-speech> 
[172.505]
e i 
[173.035]
<no-speech> 
[174.555]
<no-speech> 
[175.045]
<no-speech> 
[178.295]
h u m 
[178.705]
<no-speech> 
[184.435]
a p n̪ a ɾ o i p ɾ ɔ ʤ e k ʈ k ɔ b e ʃ e ʃ h ɔ b e <int> 
[186.405]
<no-speech> 
[189.135]
ũ ŋ ɔ <sta> ũ ŋ ɔ 
[191.005]
<no-speech> 
[193.805]
ũ ŋ ɔ 
[194.295]
<no-speech> 
[196.915]
<sta> ʤ e ʈ a ʧ o l̪ ʧh e ʤ e ʈ a ʧ o l̪ ʧh e <sta> <cough> 
[200.545]
<no-speech> 
[202.505]
h æ̃ h æ̃ h æ̃ 
[203.755]
<no-speech> 
[213.195]
<no-speech> 
[213.655]
<no-speech> 
[215.135]
<no-speech> 
[217.225]
k ɔ t̪ o s æ m s ə ŋ s e ʈ 
[219.235]
<no-speech> 
[223.995]
<sta> ʃ u d̪h u k i ʃ u d̪h u e i ʈ a m a n̪ e e i k ɔ l̪ ʈ a m a n̪ e g ɔ t̪ o b a ɾ t̪ o a ɾ e k ʈ a k ɔ l̪ ʧh i l̪ o ʃ e i g a ɾ i t̪ e k o ɾ e p a ʈh k ɔ ɾ a h o ʧ ʧh i l̪ o ʃ e ʈ a <sta> 
[233.375]
<no-speech> 
[239.625]
<no-speech> 
[240.145]
<no-speech> 
[241.435]
e i k ɔ l̪ ʈ a <cough> k o ɾ t̪ e g e l̪ e k i n̪ t̪ u m a n̪ e ʤ o d̪ i e i n̪ ə m b ə ɾ e k o ɾ t̪ e a b a ɾ ʃ e i k a l̪ k e ɾ a t̪ ɾ i t̪ e k i n̪ t̪ u 
[246.935]
<no-speech> 
[248.555]
<int> h æ l̪ o <no-speech> b o l̪ ʧh i e i n̪ a m b a ɾ e i t̪ o a ɾ e k ʈ a k ɔ l̪ k o ɾ t̪ e h ɔ b e a p n̪ a k e 
[253.565]
<no-speech> 
[255.185]
h æ l̪ o <int> 
[255.675]
<no-speech> 
[256.874875]
<int> a ʧ ʧh a a ʧ ʧh a a ʧ ʧh a h æ̃ e i n̪ ə m b ə ɾ e h o l̪ e 
[261.604875]
<no-speech> 
[262.505]
e i n̪ ə m b ə ɾ e h o l̪ e ɾ a t̪ <no-speech> 
[266.805]
<no-speech> 
[267.375]
<no-speech> 
[270.175]
<no-speech> 
[270.675]
<no-speech> 
[271.745]
<sta> a ʧ ʧh a a m a ɾ ʈ a e a m a ɾ ʈ a e a m a ɾ ʈ a e k æ n̪ o h o ʧ ʧh i l̪ o n̪ a b o l̪ u n̪ t̪ o 
[275.885]
<no-speech> 
[276.885]
k a l̪ k e æ k b a ɾ <no-speech> 
[279.025]
<no-speech> 
[279.425]
<no-speech> 
[281.905]
o ɾ a a ʃ b e 
[282.865]
<no-speech> 
[286.185]
o ʈ a ɾ s i ʈ b e l̪ ʈ <sta> ph i ʈ k ɔ ɾ a a ʧh e ʃ e ʈ a æ k ʈ a k a ɾ o n̪ h ɔ e t̪ o 
[289.495]
<no-speech> 
[296.245]
<no-speech> 
[296.615]
<no-speech> 
[298.045]
h æ̃ e i ʈ a t̪ o æ k ɔ ʈ i bh h o e g e l̪ o 
[300.155]
<no-speech> 
[301.005]
a ŋ ʈ i ʈ a i 
[301.855]
<no-speech> 
[305.445]
<no-speech> 
[305.915]
<no-speech> 
[309.945]
<no-speech> 
[310.375]
<no-speech> 
[311.885]
a ʧ ʧh a <sta> ʈh i k e i n̪ ə m b ə ɾ e i k o ɾ b e h u m 
[315.245]
<no-speech> 
[318.565]
k o n̪ o ʈ a <no-speech> n̪ a o ʈ a t̪ o m a ɾ ʧ e <hes> h o ʧ ʧh e <hes> e p ɾ i l̪ t̪h e k e n̪ o t̪ u n̪ ʈ a <cough> ʃ u ɾ u h ɔ b e m a ɾ ʧ o b d̪h i e i ʈ a a ɾ <no-speech> 
[330.015]
<no-speech> 
[330.365]
<no-speech> 
[331.345]
h æ̃ <breath> e i a p n̪ a d̪ e ɾ e ɾ ɔ k o m l̪ a i n̪ k e ʈ e k e ʈ e ʤ a ʧ ʧh e k æ n̪ o kh u b p o ɾ i ʃ k a ɾ ʃ o n̪ a ʤ a ʧ ʧh e n̪ a 
[336.075]
<no-speech> 
[339.335]
k i n̪ t̪ u a p n̪ a ɾ ʈ a <sta> k i ɾ ɔ m k e ʈ e k e ʈ e ʤ a ʧ ʧh e m o n̪ e h ɔ e <no-speech> 
[349.425]
<sta> a p n̪ i k o n̪ o ʈ a d̪ i e k o ɾ ʧh e n̪ 
[351.805]
<no-speech> 
[356.805]
o t̪ a i n̪ a 
[357.685]
<no-speech> 
[359.695]
<no-speech> 
[361.115]
<no-speech> 
[363.825]
k o n̪ kh a n̪ e 
[364.525]
<no-speech> 
[367.655]
<no-speech> 
[368.655]
<no-speech> 
[369.695]
k i b o l̪ u n̪ t̪ o m a n̪ e m a ɾ ʧ o b d̪h i n̪ a h o l̪ e k i ʧ ʧh u b ɔ l̪ a ʤ a ʧ ʧh e n̪ a <int> 
[373.735]
<no-speech> 
[376.745]
<sta> h æ̃ o i b æ p a ɾ ʈ a e i ʈ a t̪ o ʃ ɔ ɾ k a ɾ i k e s n̪ a <breath> m a ʤh e m o d̪ d̪h e ʤh u l̪ e d̪ u m a ʃ ʧh a ɾ e <breath> a b a ɾ t̪ i n̪ m a ʃ ʤh u l̪ a e e ɾ ɔ k o m æ k ʈ a b æ p a ɾ a ɾ k i 
[385.835]
<no-speech> 
[386.745]
t̪ ɔ b e ʧh e ɾ e d̪ i l̪ e ʤ e m o n̪ <hes> t̪ i n̪ m a ʃ ʧh a ɾ l̪ o t̪ i n̪ m a ʃ ʈh i k t̪h a k ʧh e n̪ a a b a ɾ d̪ u a ɾ æ k m a ʃ h ɔ e t̪ o ʤh u l̪ l̪ o e ɾ ɔ k o m b æ p a ɾ d̪ u m a ʃ ʤh u l̪ l̪ o 
[395.045]
<no-speech> 
[396.485]

[397.395]
<no-speech> 
[399.305]
h æ l̪ o 
[399.805]
<no-speech> 
[401.105]
<no-speech> 
[401.865]
<no-speech> 
[402.875]
h æ̃ 
[403.365]
<no-speech> 
[404.275]
<no-speech> 
[404.785]
<no-speech> 
[407.765]
<sta> 
[411.185]
<no-speech> 
[413.705]
a ɾ a i m a ʃ <sta> n̪ o t̪ u n̪ bh a g g e n̪ e i a p n̪ a d̪ e ɾ ʤ ɔ t̪ o bh ɔ e ʤ a ʧ ʧh i l̪ o o i ʤ o n̪ n̪ o a p n̪ a d̪ e ɾ b ã ʧ o a n̪ ɔ e t̪ o e m n̪ i i l̪ a g e o ɾ ʈ a t̪ o o n̪ n̪ o p ɾ o ʤ e k ʈ t̪ o t̪ a i 
[425.665]
h ɔ e <no-speech> <int> 
[427.065]
<no-speech> 
[431.185]
<hes> bh ɔ e a ɾ i n̪ j u k o ɾ b e <int> <no-speech> ũ ŋ ɔ 
[435.085]
<no-speech> 
[436.875]
bh ɔ e a t̪ e ɾ i n̪ n̪ u k o ɾ l̪ e k i h ɔ b e b o l̪ u n̪ t̪ o <int> <no-speech> ɔ n̪ t̪ o t̪ o a p n̪ a d̪ e ɾ æ k ʈ a ʤ a e g a ʈh i k h ɔ b e t̪ a i n̪ a 
[443.975]
<no-speech> 
[446.085]
<hes> ʧh e l̪ e ɾ p o ɾ i k kh a h o e g æ ʧh e 
[448.025]
<no-speech> 
[449.985]
ʧh e l̪ e ɾ p o ɾ i k kh a h o e g æ ʧh e 
[451.505]
<no-speech> 
[452.715]
<no-speech> 
[453.205]
<no-speech> 
[457.325]
e i b a ɾ <sta> p o ɾ i k kh a ʧh i l̪ o k o n̪ k l̪ a s h ɔ l̪ 
[460.035]
<no-speech> 
[461.335]
h u m k o n̪ k l̪ a s h ɔ l̪ 
[463.175]
<no-speech> 
[465.825]
<sta> b a b a b ɔ ɾ o h o e g i e ʧh e t̪ o 
[467.905]
<no-speech> 
[469.845]
ũ ŋ ɔ b ɔ ɾ o h o e g æ ʧh e ɔ n̪ e k <int> 
[471.355]
<no-speech> 
[472.975]
<no-speech> 
[474.495]
<sta> e i m a n̪ e ʃ a m n̪ e <hes> e i t̪ o ʃ o m ɔ e æ kh o n̪ 
[479.315]
<no-speech> 
[480.665]
<no-speech> 
[482.335]
<no-speech> 
[483.705]
ũ ŋ ɔ a p n̪ a ɾ g ɔ l̪ a æ k d̪ o m <sta> ph e ʈ e ph e ʈ e a ʃ ʧh e 
[486.145]
<no-speech> 
[487.875]
h æ l̪ o <sta> 
[488.865]
<no-speech> 
[491.205]
h æ̃ m a ʤh e m o d̪ d̪h e k e ʈ e k e ʈ e a ʃ ʧh e k æ n̪ o 
[493.445]
<no-speech> 
[496.835]
<no-speech> 
[497.995]
<no-speech> 
[498.885]

[499.945]
<no-speech> 
[501.205]
<no-speech> 
[501.635]
<no-speech> 
[503.325]
e i ʃ ɔ b b o l̪ l̪ o a ʧh e k i n̪ t̪ u a p n̪ a ɾ k ɔ t̪h a a m i p u ɾ o k e ʈ e k e ʈ e ʃ u n̪ ʧh i p o ɾ i ʃ k a ɾ æ k d̪ o m ʃ u n̪ ʧh i n̪ a <sta> <no-speech> t̪ a ɾ p ɔ ɾ d̪ e kh b o a m i p a ɾ t̪ e ʧh i e i 
[511.995]
<no-speech> 
[513.595]
<sta> a m i b o l̪ ʧh i t̪ a ɾ p ɔ ɾ o a m i n̪ i u ʤ p e p ə ɾ t̪h e k e æ k n̪ a g a ɾ e p a ʈh k o ɾ e ʤ a b o k a ɾ o n̪ a p n̪ a ɾ k ɔ t̪h a t̪ o p o ɾ i ʃ k a ɾ ʃ u n̪ ʧh i n̪ a k e ʈ e ʤ a ʧ ʧh e <breath> k æ m o n̪ e m n̪ i æ k n̪ a g a ɾ e n̪ i u ʤ p e p a ɾ ʈ a k e p o ɾ e ʤ a i e i a m a ɾ <oov> k i b a b u 
[526.285]
<no-speech> 
[528.715]
<no-speech> 
[529.255]
<no-speech> 
[532.415]
p e n̪ a ʤ k e p e n̪ ʈ a a p n̪ i i n̪ i e n̪ e b e n̪ ʧh ɔ e ɾ o ʃ ʃ i ʧh ɔ e ɾ o ʃ ʃ i e i d̪ u ɾ ɔ b o s t̪h a o n̪ a g ɔ t̪ o b ɔ ʧh o ɾ o t̪ o p e n̪ i ʧh i l̪ o a ɾ k i ʧh i l̪ o <breath> a ɾ o t̪ o k i ʧh u <sta> b a ɾ i k ɔ kh o n̪ æ kh o n̪ k i ɔ ph i s e ɖh u k ʧh e n̪ 
[543.425]
<no-speech> 
[548.895]
o a m i a m i ʧ i n̪ t̪ a k o ɾ ʧh i l̪ a m ʈ ɾ a i a ŋ g u l̪ ə ɾ p a ɾ k e æ kh o n̪ m o n̪ e h ɔ l̪ t̪ a t̪ o n̪ ɔ e æ kh o n̪ t̪ o ʤ a d̪ ɔ b p u ɾ e ʤ a b e n̪ 
[556.985]
<no-speech> 
[560.505]
t̪ a b o l̪ l̪ e h æ̃ 
[561.865]
<no-speech> 
[563.825]
<int> p i ʤ u ʃ ʧ ɔ n̪ d̪ ɾ e ɾ kh ɔ b o ɾ k i g o 
[565.895]
<no-speech> 
[573.115]
<no-speech> 
[573.545]
<no-speech> 
[576.205]
h æ̃ <no-speech> 
[580.845]
<sta> m o n̪ e t̪ o h o ʧ ʧh e bh a l̪ o h o ʧ ʧh e 
[582.285]
<no-speech> 
[583.365]
<no-speech> 
[584.025]
<no-speech> 
[588.225]
o m a t̪ a i n̪ a k i 
[589.315]
<no-speech> 
[592.815]
<no-speech> 
[593.165]
<no-speech> 
[594.675]
<no-speech> 
[595.085]
<no-speech> 
[596.705]
ũ ŋ ɔ <int> 
[597.195]
<no-speech> 
[599.8]
