[0.0]
<no-speech> 
[3.515]
h æ l̪ o 
[4.095]
<no-speech> 
[6.265]
h æ l̪ o h æ̃ <int> 
[9.335]
<no-speech> 
[11.245]
<int> k i k o ɾ ʧh i ʃ æ kh o n̪ k i k o ɾ ʧh i ʃ 
[13.005]
<no-speech> 
[17.185]
o ʃ ɔ ɾ o ʃ ʃ o t̪ i p u ʤ o <int> 
[18.455]
<no-speech> 
[23.325]
a h <int> 
[24.955]
<no-speech> 
[26.435]
a ɾ e a m i <hes> b a i ɾ e b e ɾ i e ʧh i æ k ʈ u kh a n̪ i <int> h æ̃ b o l̪ ʧh i <no-speech> 
[34.945]
<int> a ɾ e a m i k i b o l̪ ʧh i ʤ e <hes> ʧh ɔ e d̪ i n̪ e ɾ d̪ i n̪ ʤ a ʃ n̪ i k æ n̪ o i s k u l̪ e 
[41.385]
<no-speech> 
[45.455]
a h <sta> p ɾ o t̪ i ʃ ʈh a d̪ i b ɔ ʃ e ɾ i s k u l̪ e ɾ p ɾ o t̪ i ʃ ʈh a d̪ i b ɔ ʃ e ɾ d̪ i n̪ ʤ a ʃ n̪ i 
[48.315]
<no-speech> 
[51.505]
<hes> ɔ m i t̪ e ɾ ɔ m i t̪ e ɾ t̪ o ɾ e t̪ o t̪ o k e ph o n̪ k o ɾ ʧh i l̪ a m t̪ o ɾ ph o n̪ m a n̪ e s w i ʧ ɔ ph ʧh i l̪ o a m i ɔ m i t̪ k e b o l̪ l̪ a m ʤ e bh a i <no-speech> 
[63.755]
o <sta> a ɾ <hes> a m i ɾ ɔ ʤ o n̪ i k e b o l̪ l̪ a m ʤ e ɾ ɔ ʤ o n̪ i k i <int> <hes> k i k o ɾ ʧh i ʃ m a n̪ e m a kh b i k i n̪ a ɾ ɔ ʤ o n̪ i k e ph o n̪ k o ɾ l̪ a m m a n̪ e ɾ ɔ ʤ o n̪ i a m a k e a g e ɾ d̪ i n̪ ph o n̪ k o ɾ e ʧh e b u ʤh l̪ i t̪ o 
[75.645]
<sta> ɾ a t̪ ɾ e b æ l̪ a ph o n̪ k o ɾ e b o l̪ ʧh e ʤ e <breath> <hes> k i ɾ e ʤ a b i t̪ o k a l̪ k e ʧh ɔ e ʈ a e a m i b o l̪ l̪ a m h æ̃ ʤ a b o <hes> a ɾ a m a ɾ i s k u l̪ e ɾ p æ n̪ ʈ ʈ a o ɾ k a ʧh e a m a ɾ ʃ a d̪ a i s k u l̪ e ɾ p æ n̪ ʈ ʈ a 
[86.785]
<sta> a ɾ <hes> ʃ a d̪ a i s k u l̪ e ɾ p æ n̪ ʈ ʈ a o ɾ k a ʧh e a m i b o l̪ ʧh i ʈh i k a ʧh e oi p æ n̪ ʈ ʈ a n̪ i e a m a d̪ e ɾ b a ɾ i t̪ e a ʃ i ʃ a m a ɾ b a ɾ i o ʧ e n̪ e b u ʤh l̪ i t̪ o h æ l̪ o a m a ɾ b a ɾ i ʧ e n̪ e t̪ u i a m a ɾ b a ɾ i 
[98.075]
b a ɾ i t̪ e a ʃ i ʃ a m i æ k b a ɾ e p æ n̪ ʈ ʈ a p o ɾ b o p æ n̪ ʈ ʈ a p o ɾ e ʤ a b o <sta> ʈh i k a ʧh e t̪ a ɾ p ɔ ɾ ʃ ɔ k a l̪ b æ l̪ a d̪ æ kh o a b a ɾ b o l̪ ʧh i ʃ a ɾ e æ g a ɾ o ʈ a b a ɾ o ʈ a ɾ m o d̪ d̪h e ɖh u k e ʤ a b o i n̪ k o ɾ e ʤ a b o ʈh i k a ʧh e a m a ɾ b a ɾ i t̪ e i n̪ k o ɾ e ʤ a ʃ e b a ɾ o a m i d̪ e kh i æ g a ɾ o ʈ a 
[109.695]
ʃ a ɾ e æ g a ɾ o ʈ a b e ʤ e g æ ʧh e o a ʃ ʧh e n̪ a a m i æ k ʈ a k ɔ l̪ l̪ a g i e k ɔ l̪ k o ɾ e ʧh i ɾ ɔ ʤ o n̪ i k e k i ɾ e k o t̪h a e a m d̪h u ɾ a m a ɾ n̪ a <sta> ʃ o ɾ i ɾ kh a ɾ a p h o e g æ ʧh e a m i b a ɾ i t̪ e a m i ʤ a b o n̪ a a ɾ e ʤ a b b a b a k æ n̪ o ʤ a b i n̪ a <int> m a n̪ e 
[118.935]
<no-speech> 
[120.205]
o m a n̪ e b i ɾ a ʈ v ə ɾ ʃ ə n̪ o ɾ <sta> ɔ m i t̪ g e ʧh i l̪ o g e ʧh i l̪ o 
[124.015]
<no-speech> 
[125.855]
<no-speech> 
[130.424875]
o æ e æ e <sta> p ɔ e ɾ o ʃ ʃ u p u ʃ ɔ n̪ a ʤ k e g æ ʧh e 
[132.205]
<no-speech> 
[135.075]
<sta> h æ̃ a ɾ t̪ u l̪ e n̪ i t̪ a ɾ p ɔ ɾ ʃ e i i s k u l̪ e g e ʧh i l̪ a m a m i o g e ʧh i l̪ a m o ɾ b a b a m a g e ʧh i l̪ o i s k u l̪ e g e ʧh i l̪ a m s i s ʈ a ɾ e ɾ k i ʈ e m p a ɾ b o l̪ ʧh e ʤ e <hes> p ɔ ɾ a ʃ u n̪ a ʈ ɔ ɾ a ʃ u n̪ a k o ɾ b e n̪ a t̪ o a ʈ k a b e n̪ a t̪ o k i h ɔ b e 
[146.435]
<sta> a m ɾ a t̪ a ɾ p ɔ ɾ b o l̪ l̪ a m ʤ e o ɾ m a k e kh a t̪ a ʈ a ɾ i n̪ j u k ɔ ɾ a k <hes> o ɾ m a o m a n̪ e ɔ t̪ o ʈ a i e k o ɾ l̪ o n̪ a m a b o l̪ l̪ o ʤ e ʈh i k a ʧh e o p ɔ ɾ a ʃ u n̪ a ʈ ɔ ɾ a ʃ u n̪ a k o ɾ e n̪ a b a ɾ i t̪ e ʈh i k i a ʧh e oi oi b o l̪ e ʧh e a ɾ e k b ɔ ʧh o ɾ d̪ e b e 
[157.205]
<no-speech> 
[159.545]
<sta> o h h æ̃ t̪ a ɾ p ɔ ɾ e <hes> h æ̃ h æ l̪ o 
[162.675]
<no-speech> 
[165.745]
h æ̃ h æ̃ æ e ʃ o n̪ n̪ a a m i k i b o l̪ ʧh i <int> 
[168.025]
<no-speech> 
[169.325]
<int> ʃ ɔ ɾ ʃ ɔ ɾ o ʃ ʃ o t̪ i p u ʤ a k i p a ɾ a e k o ɾ ʧh i ʃ n̪ a k i <int> 
[171.635]
<no-speech> 
[174.905]
o ʃ o n̪ n̪ a k i b o l̪ ʧh i ʃ ɔ ɾ o ʃ ʃ o t̪ i p u ʤ a ɾ d̪ i n̪ i s k u l̪ e a ʃ b i t̪ o <int> 
[177.555]
<no-speech> 
[178.475]
<no-speech> 
[179.555]
<no-speech> 
[182.285]
<sta> æ e i e ʈ a g ɔ l̪ p o d̪ i b i t̪ o 
[186.415]
<no-speech> 
[187.505]
<sta> æ e ʃ o n̪ n̪ a a m i k i b o l̪ ʧh i a m i a m i b o l̪ ʧh i ʤ e n̪ a a m a d̪ e ɾ e i ʃ ɔ ɾ o ʃ ʃ o t̪ i p u ʤ a ɾ d̪ i n̪ æ k ʈ a h o l̪ o m a n̪ e p l̪ æ n̪ k o ɾ e ʧh i b u ʤh l̪ i t̪ o <hes> p o ɾ i k kh a ɾ p o ɾ e m a n̪ e a m a d̪ e ɾ e p ɾ i l̪ e ɾ d̪ u i t̪ a ɾ i kh e 
[199.485]
<int> p o ɾ i k kh a ʃ e ʃ h o e ʤ a ʧ ʧh e ʈh i k a ʧh e e b a ɾ h o l̪ o d̪ u t̪ a ɾ i kh e ɾ p o ɾ e k o ɾ b o m a n̪ e <hes> e p ɾ i l̪ e ɾ d̪ ɔ ʃ d̪ ɔ ʃ t̪h a k e p o n̪ e ɾ o t̪ a ɾ i kh e ɾ m o d̪ d̪h e e i æ k ʈ a m a n̪ e ʃ ɔ b b o n̪ d̪h u b a n̪ d̪h ɔ b m i l̪ e p i k n̪ i k e ɾ æ k ʈ a h o l̪ o i e k o ɾ b o 
[211.325]
<no-speech> 
[212.395]
p l̪ æ n̪ i ŋ <int> k o ɾ b o b u ʤh l̪ i t̪ o m a n̪ e a m ɾ a d̪ u i æ k ʤ o n̪ b o n̪ d̪h u b a n̪ d̪h ɔ b a ʧh i a m i a m i ʤ e ɾ ɔ k o m a m i a ʧh i ɔ m i t̪ b o l̪ ʧh e ɔ m i t̪ o ɾ a ʤ i t̪ u i ʤ o d̪ i o b a ɾ a ʤ i t̪h a k i s <int> <hes> ɾ ɔ ʤ o n̪ i b o l̪ ʧh e ɾ ɔ ʤ o n̪ i ɾ a ʤ i 
[223.755]
k ɔ e ʤ ɔ ph ɔ l̪ a a k a ɾ ʃ ou m e n̪ o b o l̪ ʧh e ɾ a ʤ i t̪ a a m a d̪ e ɾ p ɾ o ʃ e n̪ ɾ a ʤ i <int> 
[227.685]
<no-speech> 
[228.795]
p ɾ o d̪ i p ɾ a ʤ i h æ̃ 
[229.995]
<no-speech> 
[231.785]
<int> ʤ a e g a æ k ʈ a n̪ a h ɔ e ph i k s ɖ k ɔ ɾ a <int> ʃ ɔ b a ɾ m ɔ t̪ n̪ i e æ k ʈ a h o l̪ o ph i k s ɖ k ɔ ɾ a g e l̪ o ʤ e <hes> ʃ ɔ b a i ʤ e ʈ a b o l̪ b e e i ʤ a e g a ʈ a bh a i bh a l̪ o oi ʤ a e g a ʈ a e ʤ a b o 
[240.475]
<no-speech> 
[244.905]
d̪ i gh a ʃ ɔ h o p a ɾ ʈ i k ɔ ɾ a ʤ a e k i n̪ t̪ u d̪ i gh a d̪ i gh a ɾ k a ʧh e o ɔ n̪ e k <sta> kh ɔ ɾ ʧ a m o ɾ ʧ a b e ʃ i l̪ a g b e t̪ o ɾ ʈ ɾ e n̪ e ʤ a b i t̪ o d̪ i gh a e 
[250.155]
<no-speech> 
[252.265]
e k e <sta> w a n̪ w a n̪ n̪ a i ʈ t̪ o o kh a n̪ e i s ʈ e k o ɾ t̪ e i h ɔ b e 
[255.115]
<no-speech> 
[258.975]
k o ɾ b i <int> 
[260.195]
<no-speech> 
[264.835]
h æ̃ h æ̃ ʃ e a m i b a ɾ i t̪h e k e p ə ɾ m i ʃ ə n̪ n̪ i e n̪ i i ʈ a k a p ɔ e ʃ a ɾ o b æ p a ɾ a ʧh e ʈ a k a p ɔ e ʃ a ʤ o g a ɾ ph o g a ɾ k o ɾ e n̪ i i <int> 
[270.435]
<no-speech> 
[271.475]
h æ̃ ʈ a k a p ɔ e ʃ a <no-speech> 
[273.875]
h æ̃ m i n̪ i m ə m t̪ o h a ʤ a ɾ d̪ e ɾ e k ʈ a k a t̪ o l̪ a g b e i <int> 
[277.635]
<no-speech> 
[281.325]
h æ̃ 
[281.965]
<no-speech> 
[282.795]
h æ̃ e ʈ a t̪ o ʈh i k k ɔ t̪h a e b o l̪ ʧh i <no-speech> 
[284.905]
h æ̃ <int> 
[285.595]
<no-speech> 
[286.835]
h æ̃ <sta> <hes> ʈ ɾ e n̪ e k o ɾ e i ʈ ɾ e n̪ e k o ɾ e i ʤ a b o o kh a n̪ e h o l̪ o æ k ʈ a n̪ a m a ɾ p ɔ ɾ d̪h o ɾ o b a ɾ o p o n̪ e ɾ o ʤ ɔ n̪ h o e g e l̪ o t̪ a h o l̪ e d̪ u ʈ o b a ʃ <hes> m a n̪ e b u k k o ɾ t̪ e h o l̪ o e i b a ɾ o p o n̪ e ɾ o n̪ a h ɔ e e i ʧh ɔ e ʃ a t̪ a ʈ ʤ ɔ n̪ e ɾ m o d̪ d̪h e h o e g e l̪ o æ k ʈ a gh ɔ ɾ e ɾ m o d̪ d̪h e b u k k o ɾ e d̪ e b o k i ʧh e l̪ e m a <no-speech> 
[305.635]
n̪ a n̪ a b a ɾ o t̪ æ ɾ o ʤ o n̪ t̪h a k l̪ e æ k ʈ a gh ɔ ɾ d̪ e b e n̪ a ɾ e ɔ t̪ o ʃ o ʤ a n̪ a k i b a ɾ o t̪ æ ɾ o ʤ ɔ n̪ k e æ k ʈ a gh ɔ ɾ d̪ i e d̪ e b e 
[311.415]
<no-speech> 
[316.285]
<no-speech> 
[318.145]
k o t̪h a e <no-speech> 
[319.535]
b ɔ ʃ e n̪ p ɾ o d̪ i p <int> 
[320.405]
<no-speech> 
[322.515]
p ɾ o ʃ ɔ n̪ p ɾ o d̪ i p p ɾ o d̪ i p <int> 
[324.485]
<no-speech> 
[327.025]
h æ̃ a ɾ h o l̪ o t̪ o ɾ d̪h o ɾ a m a ɾ a m a ɾ e i kh a n̪ t̪h e k e d̪h o ɾ a m a ɾ d̪ u ʈ o b o n̪ d̪h u a ʧh e o ɾ a d̪ u ʤ o n̪ ʤ e t̪ e p a ɾ e <int> d̪ u ʈ o b o n̪ d̪h u a ʧh e 
[333.175]
<no-speech> 
[339.735]
h æ̃ 
[340.215]
<no-speech> 
[343.635]
h æ̃ k i n̪ t̪ u m a n̪ e kh a o a d̪ a o a h ɔ b e æ k ʈ a gh ɔ ɾ e ɾ m o d̪ d̪h e m a n̪ e ʃ u d̪h u a m ɾ a m a n̪ e <breath> ʃ u d̪h u m a n̪ e n̪ a m e d̪ u ʈ o gh ɔ ɾ n̪ e b o t̪h a k a ɾ ʤ o n̪ n̪ o ɾ a t̪ ɾ e b æ l̪ a i s ʈ e k ɔ ɾ a ɾ ʤ o n̪ n̪ o <breath> ʃ u d̪h u d̪ u ʈ o gh ɔ ɾ k i n̪ t̪ u a m ɾ a n̪ a m e m a t̪ ɾ o n̪ i t̪ e h ɔ b e a m a d̪ e ɾ æ k ʈ a gh ɔ ɾ e i 
[355.555]
ʃ ɔ b a i h o e ʤ a b e k i n̪ t̪ u <breath> o kh a n̪ e ɾ u l̪ s <int> o n̪ u ʤ a i o kh a n̪ e t̪ o æ k ʈ a m a n̪ e d̪h o ɾ <breath> b a ɾ o ʧ ou d̪ d̪ o ʤ ɔ n̪ h o e g e l̪ e æ k ʈ a gh ɔ ɾ t̪ o d̪ e b e n̪ a t̪ o t̪ o oi ɾ u l̪ o n̪ u ʤ a i a m a d̪ e ɾ d̪ u ʈ o gh ɔ ɾ n̪ i t̪ e h ɔ b e n̪ a h o l̪ e k i n̪ t̪ u a b a ɾ <breath> ɾ a t̪ ɾ e b æ l̪ a i s ʈ e o k o ɾ b o æ k ʈ a ɾ u m e a ɾ 
[367.515]
ʃ ɔ b k i ʧh u k o ɾ b o a m ɾ a æ k t̪ a ɾ i kh e k i 
[370.025]
<no-speech> 
[371.385]
a l̪ a d̪ a a l̪ a d̪ a g ɾ u p k o ɾ e <sta> a l̪ a d̪ a a l̪ a d̪ a æ k ʈ a g ɾ u p k o ɾ e t̪ o m a n̪ e b ɔ ʃ a ʤ a b e n̪ a ʤ e <hes> t̪ o ɾ a a l̪ a d̪ a a l̪ a d̪ a b o ʃ a m ɾ a a l̪ a d̪ a b o ʃ i ʃ ɔ b t̪ e b o ʃ t̪ e g e l̪ e t̪ o æ k ʃ a t̪h e i b o ʃ t̪ e h ɔ b e 
[383.135]
<no-speech> 
[385.285]
<no-speech> 
[388.595]
<sta> d̪ u ɾ a t̪ d̪ u ɾ a t̪ i s ʈ e k ɔ ɾ a ʈ a kh u b ʈ a ph b æ p a ɾ h o e ʤ a b e æ t̪ o ʤ o n̪ m a n̪ e d̪ u ɾ a t̪ i s ʈ e k ɔ ɾ a t̪ o m a n̪ e d̪h o ɾ k e ɾ ɔ k o m b o l̪ t̪ o bh o ɾ b æ l̪ a b e ɾ o l̪ a m bh o ɾ b æ l̪ a b e ɾ o l̪ a m 
[396.655]
<no-speech> 
[397.675]
h æ̃ a ɾ d̪h o ɾ <hes> ʃ e d̪ i n̪ ɾ a t̪ ɾ i ʈ a i s ʈ e k o ɾ e ʃ ɔ k a l̪ ʃ ɔ k a l̪ d̪h o ɾ æ g a ɾ o ʈ a ʃ a ɾ e æ g a ɾ o ʈ a n̪ a g a d̪ b e ɾ i e g e l̪ a m k i b o l̪ i ʃ ʃ e i d̪ i n̪ p u ɾ o ʈ a i s ʈ e k o ɾ l̪ a m <sta> 
[405.965]
<no-speech> 
[406.765]
b a ɾ i ɾ u d̪ d̪ e ʃ ʃ e ʃ a ɾ e æ g a ɾ o <int> ʃ a ɾ e æ g a ɾ o ʈ a n̪ a g a d̪ o kh a n̪ t̪h e k e b e ɾ i e g e l̪ a m 
[410.955]
<no-speech> 
[411.915]
b e ɾ i e g e l̪ a m b a ɾ i t̪h e k e b a i ɾ e <no-speech> 
[415.005]
<sta> h æ̃ b a ɾ i t̪ e b a ɾ i t̪ e d̪ u p u ɾ b æ l̪ a ʧ o l̪ e e l̪ a m a ɾ m a n̪ e <breath> d̪ æ kh o n̪ a t̪ u i ʃ o n̪ d̪h e b æ l̪ a a m ɾ a h o l̪ o m a n̪ e gh o ɾ a ɾ g a ɾ i m a n̪ e gh u ɾ b o ph u ɾ b o o kh a n̪ t̪h e k e p u ɾ o ʈ a gh u ɾ b o <breath> e i ʃ ɔ k a l̪ b æ l̪ a t̪ o a m ɾ a k i k ɔ m ʃ o m ɔ e p a b o n̪ a k i ʃ ɔ k a l̪ b æ l̪ a e t̪ o p ɾ o t̪ t̪ e k ʃ o m ɔ e t̪ e 
[427.735]
<no-speech> 
[431.985]
<int> h æ̃ t̪ a ɾ p ɔ ɾ e h o l̪ o m a n̪ e ʃ o n̪ d̪h e b æ l̪ a ɾ d̪ i k e <breath> d̪ u p u ɾ b æ l̪ a e æ k ʈ u kh a n̪ i gh u m i e n̪ i l̪ a m ʃ o n̪ d̪h e b æ l̪ a ɾ d̪ i k e æ k ʈ u kh a n̪ i gh u ɾ t̪ e b æ ɾ a l̪ a m e i gh u ɾ t̪ e gh u ɾ t̪ e b e ɾ i e k o n̪ o k i ʧh u ʤ i n̪ i ʃ k e n̪ a ʈ e n̪ a h o l̪ o t̪ e k i n̪ l̪ o ph i n̪ l̪ o gh u ɾ l̪ a m ph u ɾ l̪ a m gh u ɾ e ph u ɾ e t̪ a ɾ p ɔ ɾ a b a ɾ ɾ a t̪ ɾ e b æ l̪ a p oũ ʧh a t̪ e p a ɾ l̪ a m 
[446.405]
<no-speech> 
[448.615]
h u m <sta> a ɾ h o l̪ o p ɾ i p ə ɾ e ʃ ə n̪ k i ɾ ɔ k o m k i ɾ ɔ k o m h o ʧ ʧh e 
[451.285]
<no-speech> 
[455.455]
æ k a a m a ɾ o <hes> e i ʃ u n̪ n̪ a a m a ɾ o æ k ʈ a i s a b ʤ e k ʈ h o l̪ e bh a l̪ o h o ʧ ʧh e 
[459.575]
<no-speech> 
[460.885]
i ŋ l̪ i ʃ i ŋ l̪ i ʃ m i ɖ i ə m e p ɾ o ʧ ɔ n̪ ɖ o ʧ a p bh a i i ŋ l̪ i ʃ e g ɾ æ m ə ɾ n̪ i e ʃ ɔ b ʧ e e b e ʃ i ʧ a p ʈh i k a ʧh e ʤ o d̪ i o <sta> m a n̪ e oi p o e m b a n̪ i e d̪ i l̪ a m ʈh i k a ʧh e g ɾ æ m ə ɾ t̪ o bh a i ʤ a n̪ a ʤ e k ɔ ʈ a n̪ ə m b ə ɾ a ʧh e ɾ a i ʈ i ŋ a ɾ g ɾ æ m ə ɾ t̪ o a m a k e <hes> n̪ ə m b ə ɾ ʈ a æ k d̪ o m m o n̪ e m o n̪ e h o ʧ ʧh e ʤ e m i s ʤ a b e 
[481.275]
<no-speech> 
[483.435]
<no-speech> 
[483.805]
<no-speech> 
[487.635]
<no-speech> 
[499.235]
<no-speech> 
[500.055]
k o ɾ e ʧh i ʃ n̪ a k i 
[503.975]
<no-speech> <sta> b u ʤh ʧh i a m i o ʈ a a m i o ʈ a t̪h i o ɾ i p o ɾ ʧh i ɖ i p ɾ i ʃ i e ʃ ə n̪ a ɾ i n̪ k ə m e k s p e n̪ ɖ i ʧ a ɾ e i d̪ u ʈ a t̪h i o ɾ i p o ɾ ʧh i a ɾ b a k i ʃ ɔ b 
[512.465]
<no-speech> 
[516.065]
ɖ i p ɾ i ʃ i e ʃ ə n̪ a m i t̪h i o ɾ i p o ɾ e ʤ a ʧ ʧh i a ɾ h o l̪ o i n̪ k a m e ɾ e k s p e n̪ ɖ i ʧ a ɾ e ɾ <sta> t̪h i o ɾ i p o ɾ ʧh i i n̪ k a m e ɾ e k s p e n̪ ɖ i ʧ a ɾ n̪ a m a n̪ e ɔ ŋ k o n̪ a m a n̪ e a m a ɾ k o n̪ o ɾ ɔ k o m bh a b e m a t̪h a e ɖh u k ʧh e n̪ a <breath> ʃ ɔ b a i b o l̪ ʧh e i n̪ k a m e ɾ <no-speech> 
[527.225]
h æ̃ ɾ e <int> bh a i a ɾ e ʃ ɔ b a i b o l̪ ʧh e s ə ɾ t̪h e k e ʃ u ɾ u k o ɾ e ʃ ɔ b a i b o l̪ ʧh e a m a k e i n̪ k a m e ɾ e k s p e n̪ ɖ i ʧ a ɾ <breath> æ t̪ o ʃ o ʤ a ɔ ŋ k o t̪ u i b u ʤh t̪ e a m a ɾ k ɔ m p ə n̪ i m a n̪ e a m a ɾ ʤ ɔ l̪ bh a t̪ k ɔ m p ə n̪ i a ɾ s i ŋ g ə l̪ e n̪ ʈ ɾ i <int> a m a ɾ ʤ ɔ l̪ bh a t̪ k o n̪ o ɾ ɔ k o m m a n̪ e k o n̪ o ɔ ʃ u b i d̪h a h ɔ b e n̪ a 
[538.775]
<int> a m i i n̪ k a m e ɾ e k s p e n̪ ɖ i ʧ a ɾ m a n̪ e b u ʤh t̪ e i p a ɾ ʧh i n̪ a k i b o l̪ b o t̪ o k e m a n̪ e ʃ o t̪ t̪ i <hes> m i t̪ t̪h a k ɔ t̪h a b o l̪ ʧh i n̪ a 
[544.655]
<no-speech> 
[548.785]
o h æ̃ <int> 
[549.435]
<no-speech> 
[550.245]
n̪ a m a n̪ e ʤ e ʈ a t̪ u i b o l̪ l̪ i ʃ e ʈ a k i n̪ t̪ u a m a ɾ kh u b i n̪ ʈ ə ɾ e s ʈ a ʧh e <hes> a m i k i n̪ t̪ u bh a i ʃ i o ɾ a m a k e k i ʃ o m ɔ e d̪ i t̪ e h ɔ b e <int> ʈh i k a ʧh e a m a d̪ e ɾ p o ɾ i k kh a ʃ e ʃ h o l̪ o t̪ o a m a e bh a i ʈ a k a p ɔ e ʃ a ʃ ɔ b a i ʤ ɔ m a k o ɾ t̪ e h ɔ b e k a ɾ o n̪ gh ɔ ɾ d̪ i e t̪ o a ɾ <breath> ɔ t̪ o ʈ a k a t̪ o d̪ e b e n̪ a gh ɔ ɾ d̪ i e h ɔ e t̪ o ʤ a o a a ʃ a t̪h a k a kh a o a m a n̪ e t̪h a k a kh a o a ɾ <int> kh ɔ ɾ ʧ a ʈ a d̪ i l̪ o t̪ e e b a ɾ ʤ e b a k i ʤ e kh ɔ ɾ ʧ a ʧh i l̪ o oi a d̪h a kh ɔ ɾ ʧ a ʈ a m a n̪ e a m a ɾ k o ɾ t̪ e h ɔ b e 
[573.435]
<int> oi kh ɔ ɾ ʧ a ʈ a t̪ o a m a e 
[575.335]
<no-speech> 
[577.325]
h æ̃ o kh a n̪ e p a w ə ʤ a e o kh a n̪ e p a w ə ʤ a e e kh a n̪ t̪h e k e n̪ i e ʤ a b o bh a b ʧh i o kh a n̪ e d̪ a m b e ʃ i <int> 
[581.675]
<no-speech> 
[584.695]
<sta> k i m a ɾ e ɾ ɔ ʤ o n̪ i ph ɔ ʤ ɔ n̪ i k e b ɔ l̪ a m i t̪ o ɔ m i t̪ ph ɔ m i t̪ e ɾ ɔ m i t̪ ph ɔ m i t̪ ɔ k e p l̪ æ n̪ i ŋ b o l̪ e ʧh i l̪ a m k a ɾ o n̪ a m i b o l̪ e ʧh i l̪ a m ʤ e d̪ æ kh ʃ u d̪h u a m a ɾ b a b a ɾ g a ɾ i ʈ a ɾ t̪ e l̪ kh ɔ ɾ ʧ a ʈ a d̪ i l̪ e h o e ʤ e t̪ o b a b a ɾ g a ɾ i n̪ i e ʧ o l̪ e ʤ e t̪ a m ʈh i k a ʧh e 
[596.565]
t̪ a ɾ m o d̪ d̪h e a m a ɾ a m a ɾ æ k ʈ a b ɔ <oov> 
[598.36]
