[0.0]
<no-speech> 
[0.075]
<sta> ph o n̪ d̪h o ɾ e ʧh e 
[0.925]
<no-speech> 
[2.335]
h æ l̪ o 
[2.885]
<no-speech> 
[4.755]
h æ̃ <hes> oi kh a n̪ t̪h e k e k ɔ l̪ e ʃ e ʧh i l̪ o 
[7.775]
<no-speech> 
[10.395]
a ʧ ʧh a <sta> gh u m a ʧ ʧh i ʃ n̪ a k i æ kh o n̪ 
[12.735]
<no-speech> 
[15.665]
<sta> h æ̃ h æ l̪ o 
[18.715]
<no-speech> 
[21.265]
o n̪ a e i t̪ o p i k n̪ i k k æ m o n̪ k a ʈ l̪ o ʃ e d̪ i n̪ k e 
[24.025]
<no-speech> 
[29.615]
e i 
[30.395]
<no-speech> 
[34.825]
g e ʧh i l̪ o h æ̃ <sta> 
[36.795]
<no-speech> 
[38.585]
k i 
[38.995]
<no-speech> 
[40.485]
<no-speech> 
[46.405]
<sta> o o a ʧ ʧh a a ʧ ʧh a b o l̪ e ʧ o l̪ e g æ ʧh e 
[51.705]
<no-speech> 
[52.845]
<sta> a m i ʤ a n̪ i a m i t̪ o ɾ a t̪ ɾ i b æ l̪ a o kh a n̪ e d̪ ã ɾ i e ʧh i l̪ a m ʃ ɔ b a i a ʃ ʧh e t̪ u i n̪ e i a b a ɾ b o l̪ l̪ o ʤ e ʃ ɔ b a i a ʃ b e <hes> ʈ ɾ e n̪ e k o ɾ e ʈ ɾ e n̪ e ɾ o kh a n̪ e a ʧh e ph i ɾ b e ʃ ɔ b 
[62.555]
<sta> t̪ o a m i a b a ɾ b a ɾ i ʧ o l̪ e g e ʧh i l̪ a m g i e a b a ɾ ph i ɾ e a ʃ l̪ a m ʤ e t̪ u i a ʃ b i ʃ o n̪ a ʧ o n̪ u a ʃ b e <breath> b o n̪ n̪ a a ʃ b e ʃ e kh ɔ ɾ ʃ ɔ b a i a ʃ b e a m i a b a ɾ ph i ɾ e a ʃ ʧh i l̪ a m ph i ɾ e a ʃ l̪ a m d̪ e kh l̪ a m ʃ ɔ b a i k e d̪ e kh l̪ a m e b a ɾ a ɾ d̪ e kh t̪ e p e l̪ a m n̪ a 
[74.435]
<sta> <no-speech> t̪ a ɾ p ɔ ɾ e oi m ɔ e m ɔ n̪ s i ŋ p a ɾ a ɾ æ k ʈ a b o u k e d̪ e kh l̪ a m o ʈ a k e g o oi ʈ a k e d̪ o s t̪ o 
[79.325]
<no-speech> 
[80.565]
<sta> e i 
[80.995]
<no-speech> 
[82.165]
<sta> k e <no-speech> 
[85.315]
<no-speech> 
[86.435]
<no-speech> 
[87.245]
<sta> o h o d̪ e ɾ ʧh e l̪ e ʈ a k i i ʈ a æ b n̪ ɔ ɾ m ə l̪ <no-speech> h æ̃ h æ̃ <no-speech> o a ʧ ʧh a a ʧ ʧh a æ m e n̪ u k i k o ɾ e ʤ e n̪ o 
[99.105]
<no-speech> 
[99.255]
<no-speech> 
[101.015]
<no-speech> 
[101.665]
<no-speech> 
[106.745]
<no-speech> 
[107.285]
<no-speech> 
[108.985]
<no-speech> 
[109.535]
<no-speech> 
[110.955]
<no-speech> 
[111.475]
<no-speech> 
[113.075]
<no-speech> 
[113.495]
<no-speech> 
[115.585]
<no-speech> 
[116.015]
<no-speech> 
[116.865]
<no-speech> 
[117.875]
<no-speech> 
[121.665]
o a ʧ ʧh a a ʧ ʧh a 
[122.905]
<no-speech> 
[124.125]
a ɾ m a ŋ ʃ o k i <sta> h æ̃ 
[129.224875]
<no-speech> 
[131.335]
<sta> b a h b ɔ æ t̪ o a i ʈ e m <no-speech> h æ̃ 
[135.725]
<no-speech> 
[137.055]
m i ʃ ʈ i k ɔ t̪ o ɾ ɔ k o m e ɾ k o ɾ l̪ o 
[138.995]
<no-speech> 
[143.625]
<sta> o o k æ n̪ o kh a ʃ n̪ i k æ n̪ o k i <hes> t̪ o ɾ k i a b a ɾ ʃ u g a ɾ d̪h o ɾ l̪ o n̪ a k i n̪ a t̪ o ɾ k i t̪ o ɾ k i a b a ɾ ʃ u g a ɾ d̪h o ɾ e ʧh e ʤ e m i ʃ ʈ i kh e l̪ i n̪ a 
[153.285]
<no-speech> 
[154.115]
<sta> h æ̃ 
[155.325]
<no-speech> 
[157.915]
<sta> n̪ i e a ʃ t̪ e p a ɾ t̪ i ʃ t̪ o a m a d̪ e ɾ ʤ o n̪ n̪ o k i ʧh u a ɾ k i ʧh u n̪ a p ɔ ʈ k o ɾ e k i ʧh u b o l̪ l̪ o n̪ a t̪ o ɾ a ʤ a ʤ a b i t̪ a o ʤ a n̪ i t̪ a h o l̪ e t̪ o a m ɾ a ʤ e t̪ a m ʤ e t̪ a m ʤ a n̪ i i n̪ a 
[169.605]
<no-speech> 
[179.675]
h u m 
[180.265]
<no-speech> 
[181.765]
h u m h u 
[182.505]
<no-speech> 
[185.415]
o o a ʧ ʧh a a ʧ ʧh a a ʧ ʧh a h æ̃ ʃ e t̪ o a m a k e b o l̪ e ʧh i l̪ o p i k n̪ i k ʈ a h ɔ b e n̪ a b o l̪ ʧh e a b a ɾ k æ n̪ s e l̪ h o e g æ ʧh e t̪ a t̪ o a m i ʤ a n̪ i n̪ a <sta> p o ɾ e ʤ e t̪ a a b a ɾ h o e t̪ a a b a ɾ oi h ɔ ʈh a t̪ k o ɾ e ʃ ɔ k a l̪ b æ l̪ a b o l̪ ʧh e ʤ e ʃ ɔ b p i k n̪ i k e ʤ a b e k i n̪ t̪ u a m a k e t̪ ɔ kh o n̪ b o l̪ l̪ e a ɾ h ɔ e 
[197.145]
<sta> t̪ a o ɾ a ʧ o l̪ e g e l̪ o a m i t̪ o a ɾ b u ʤh t̪ e i p a ɾ l̪ a m n̪ a t̪ a m a n̪ e æ k ʃ a t̪h e g e l̪ e m ɔ ʤ a h o t̪ o a ɾ k i e i ʤ a 
[202.375]
<no-speech> 
[206.575]
a h <sta> t̪ ɔ b e ʤ e g a n̪ ʈ a n̪ h ɔ e n̪ i ʤ e n̪ a ʧ g a n̪ h ɔ e n̪ i k i ʧ ʧh u 
[211.285]
<no-speech> 
[217.025]
<sta> o b a h b a h b a h æ t̪ o e i t̪ o e i e ɾ ɔ k o m k o ɾ e ʤ a e a m a d̪ e ɾ b a ʃ a e <no-speech> b o u o a ʧ ʧh a b o u k e t̪ o a m i d̪ e kh t̪ e p a ɾ l̪ a m n̪ a b o u m a n̪ e ʧh i l̪ o ɔ n̪ e k g u l̪ o n̪ e m e ʧh i l̪ o 
[228.605]
<sta> e i k i ʃ a ɾ i p ɔ ɾ a 
[230.115]
<no-speech> 
[232.005]
n̪ a 
[232.515]
<no-speech> 
[234.125]
o <sta> o ʈ a t̪ o ʧh i l̪ o k i n̪ t̪ u m u kh ɖh a k a ʧh i l̪ o a m i ʧ i n̪ t̪ e i p a ɾ i n̪ i h æ̃ h æ̃ h æ̃ a m i bh a b ʧh i l̪ a m o n̪ n̪ o k e u b o d̪h h ɔ e 
[243.875]
<no-speech> 
[244.795]
a m i bh a b ʧh i l̪ a m o n̪ n̪ o k e u t̪ a <sta> d̪ æ kh a g e l̪ o n̪ a m u kh ʈ a i d̪ æ kh a h ɔ e n̪ i æ æ 
[251.555]
<no-speech> 
[255.775]
e i k i ɾ ɔ k o m 
[257.614875]
<no-speech> 
[259.965]
h æ l̪ o 
[260.495]
<no-speech> 
[264.155]
o m a n̪ e k i <hes> t̪ ɾ i ʃ b ɔ ʧh o ɾ ʈ ɔ ʧh o ɾ h o e g æ ʧh e n̪ a k i t̪ o ɾ b u ɾ o <sta> 
[269.585]
<no-speech> 
[270.865]
<sta> h æ̃ 
[271.785]
<no-speech> 
[274.285]
<sta> o b a b a t̪ ɾ i ʃ b ɔ ʧh o ɾ e ɾ u p o ɾ e h o e g æ ʧh e t̪ a h o l̪ e a ɾ k i ɔ n̪ e k b ɔ e ɔ ʃ 
[282.035]
<no-speech> 
[283.105]
t̪ a e m n̪ i <hes> i e ʈ i e k e u w a i n̪ ʈ o o a i n̪ k e u kh a e n̪ i o kh a n̪ e 
[286.945]
<no-speech> 
[290.885]
e i p i k n̪ i k e ɾ b i ʃ e ʃ ɔ t̪ t̪ o oi <sta> e i p i k n̪ i k e ɾ b i ʃ ɔ e ʈ a p i k n̪ i k e g i e ʤ o d̪ i æ k ʈ u n̪ a i kh e t̪ e p a ɾ l̪ a m t̪ a h o l̪ e a ɾ k i h ɔ l̪ <no-speech> æ 
[299.115]
<no-speech> 
[303.685]
<sta> t̪ o t̪ o ɾ t̪ o p e ʈ oi t̪ o ɾ t̪ o p e ʈ oi kh a n̪ i ʧh o ʈ ʈ o 
[308.945]
<no-speech> 
[309.825]
æ 
[310.465]
<no-speech> 
[312.975]
o ɾ e b a b a 
[314.075]
<no-speech> 
[314.955]
h o l̪ d̪ i ɾ a m e ɾ l̪ a ɖ ɖ u a b a ɾ 
[316.405]
<no-speech> 
[321.095]
<no-speech> 
[321.505]
<no-speech> 
[322.535]
h æ̃ <sta> <no-speech> t̪ a k ɔ ʈ a l̪ a ɖ ɖ u t̪ o e n̪ e ɾ a kh t̪ e p a ɾ t̪ i h o l̪ d̪ i ɾ a m e ɾ l̪ a ɖ ɖ u g u l̪ a <hes> ɾ a t̪ t̪ i ɾ e ph ɾ i ʤ e ɾ e kh e d̪ i l̪ e ɾ a t̪ ɾ i b æ l̪ a kh e t̪ e p a ɾ t̪ a m n̪ a 
[331.215]
<no-speech> 
[332.145]
<sta> h æ̃ 
[333.255]
<no-speech> 
[336.425]
k ɔ ʃ ʈ o <int> h ɔ b e b o l̪ ʧh o k i ʧ ʧh u kh a i n̪ i ʤ a n̪ i ʃ t̪ o ʃ a ɾ a ʃ o n̪ n̪ a a m i kh a i n̪ i a m i ʧ a n̪ k o ɾ e e ʃ e <hes> t̪ o ɾ a ʧ o l̪ e g e l̪ i t̪ a ɾ p ɔ ɾ a m i ʃ u e p o ɾ e gh u m p o ɾ e ʧh i l̪ a 
[347.055]
<sta> o t̪ i n̪ ʈ e b a ʤ e ʤ ɔ kh o n̪ t̪ ɔ kh o n̪ gh u m e ɾ t̪h e k e u ʈh e ʧh i t̪ a ɾ p ɔ ɾ e a ɾ kh a o a h ɔ e t̪ a ɾ p ɔ ɾ e ʃ e i ɾ a t̪ t̪ i ɾ e ʃ e i m a n̪ e ɾ a t̪ t̪ i ɾ e ʃ a ɾ e d̪ ɔ ʃ ʈ a æ g a ɾ o ʈ a ɾ ʃ o m ɔ e t̪ a l̪ b ɔ ʃ ɔ e o k a ɾ a b a ɾ ɖ e k e n̪ i e g i e a b a ɾ m a ŋ ʃ o kh e e ʧh i l̪ a m 
[357.855]
<sta> <no-speech> ph a i n̪ t̪ o 
[360.465]
<no-speech> 
[364.605]
h æ̃ a m i m a ŋ ʃ o kh e e a m a ɾ p ɾ ɔ b l̪ e m h o e ʧh e b o l̪ ʧh e d̪ u ɾ ɔ k o m e ɾ m a ŋ ʃ o kh e e a m a ɾ g ɔ n̪ ɖ o g o l̪ <sta> h o e g æ ʧh e a ɾ b ɔ l̪ o n̪ a t̪ o m a ɾ kh a b o n̪ a kh a b o n̪ a ʤ o ɾ k o ɾ e a m i n̪ i e g e ʧh i ʤ e n̪ a m a ŋ ʃ o <no-speech> t̪ u i t̪ o ʧ o l̪ e g e ʧh i l̪ i t̪h a k l̪ e n̪ a 
[376.495]
t̪ o k e n̪ a h ɔ e ɖ e k e n̪ i e ʤ e t̪ a m a h 
[378.435]
<no-speech> 
[383.155]
<laugh> a h ʧh a g o l̪ e ɾ <oov> ʧh a g o l̪ e ɾ m a ŋ ʃ o oi kh a ʃ i ɾ m a ŋ ʃ o a ɾ k o ʧ ʧh o p e ɾ m a ŋ ʃ o d̪ u ʈ o k u d̪ o k u d̪ i k o ɾ e ɾ a t̪ ɾ e p e ʈ kh a ɾ a p h o e ʧh e ɾ a t̪ ɾ e o <sta> k a l̪ k e t̪ i n̪ kh a n̪ a ʈ æ b l̪ e ʈ d̪ i e ʧh e kh e e d̪ e e 
[395.135]
e i ɔ ph i s e ʤ a ʧ ʧh e ʤ e b i k a l̪ b æ l̪ a e g e l̪ o b o l̪ l̪ o t̪ o m a d̪ e ɾ t̪ o m a ɾ <hes> k ɔ t̪h a ʃ u n̪ b o n̪ a kh a ʃ i ɾ m a ŋ ʃ o kh e e ʧh i m i ʃ ʈ i ph i s ʈ i kh e e ʧh i ʃ ɔ k a l̪ b æ l̪ a æ k g a d̪ a kh e e ʧh i t̪ a ɾ p ɔ ɾ e a b a ɾ ɾ a t̪ ɾ i b æ l̪ a k o ʧ ʧh o p e ɾ m a ŋ ʃ o kh e e ʧh o kh a i e ʈ a i e æ k e b a ɾ e ʃ ɔ k a l̪ b æ l̪ a e ʃ e a m a ɾ æ k e b a ɾ e ʧh ɔ e ʃ a t̪ b a ɾ p a e kh a n̪ a k o ɾ e ʧh e <sta> t̪ a i b o l̪ l̪ o t̪ a ɾ p ɔ ɾ e oi ʈ æ b l̪ e ʈ ʈ æ b l̪ e ʈ kh e e t̪ a ɾ p ɔ ɾ e g æ ʧh e æ kh o n̪ t̪ u i k o n̪ kh a n̪ e ʤ a <hes> k o n̪ b a ʃ d̪h o ɾ b i 
[417.445]
<no-speech> 
[423.175]
h æ̃ <sta> 
[424.355]
<no-speech> 
[425.605]
<sta> k ɔ ʈ a t̪h e k e t̪ o ɾ n̪ a i ʈ k ɔ ʈ a t̪h e k e <no-speech> a ʈ ʈ a t̪h e k e e i t̪ u i t̪ u i æ kh o n̪ e d̪ i k t̪h a k i s n̪ a k æ n̪ o ɾ e t̪ o k e t̪ o d̪ e kh i n̪ a t̪ o ɔ n̪ e k d̪ i n̪ d̪h o ɾ e a m i oi ʃ e d̪ i n̪ k e p i k n̪ i k e ɾ 
[438.785]
<no-speech> 
[439.885]
h æ̃ 
[440.415]
<no-speech> 
[446.185]
n̪ i e b a ɾ i ph i ɾ l̪ i t̪ a a m i k o t̪h a e ʧh i l̪ a m a m i k o t̪h a e ʧh i l̪ a m <sta> t̪ o k e d̪ e kh l̪ a m n̪ a ʤ e 
[450.235]
<no-speech> 
[453.365]
<int> ph u l̪ e ɾ b a ɾ i ʧh i l̪ i n̪ a e i b a ɾ i ʧh i l̪ i 
[455.655]
<no-speech> 
[457.805]
h æ̃ 
[458.365]
<no-speech> 
[460.715]
<sta> ʃ ɔ ɾ e a <no-speech> a m i t̪ o <hes> e i ɾ a s t̪ a e gh u ɾ e b æ ɾ a ʧ ʧh i 
[466.155]
<no-speech> 
[468.765]
<sta> e ʈ a æ kh o n̪ k o t̪h a e e ʈ a k e k i b o l̪ b o e ʈ a k e n̪ a ʤ a d̪ o b p u ɾ ʤ a d̪ o b p u ɾ d̪h o ɾ e <oov> ʃ u l̪ e kh a ɾ e kh a n̪ ʈ a e 
[475.945]
<no-speech> 
[478.465]
h u m h u m h u m a ɾ p ɔ ɾ a ʃ u n̪ o k o ɾ e æ 
[482.695]
<no-speech> 
[487.345]
<sta> ʃ u l̪ e kh a t̪ o ɾ kh u b ʧ e n̪ a p o ɾ i ʧ i t̪ t̪ u i t̪ o e d̪ i k e p o ɾ e ʧh i ʃ n̪ a k o n̪ ʤ a e g a t̪ e ʤ e n̪ o <no-speech> e i ʤ a e g a e k o t̪h a e ʤ e n̪ o p o ɾ t̪ i ʃ ʤ a d̪ o b p u ɾ e p o ɾ t̪ i ʃ n̪ a t̪ u i 
[494.735]
<no-speech> 
[496.645]
t̪ a h o l̪ e t̪ a h o l̪ e ʃ u l̪ e kh a t̪ o ɾ ʧ e n̪ a h ɔ b e i ʃ a bh a b i k b æ p a ɾ e i ʤ o n̪ n̪ o i t̪ o ʧ e n̪ a ʃ u l̪ e kh a t̪ u i k i e i d̪ i k d̪ i e ʃ u l̪ e kh a h o e b ɾ i ʤ p a p a ɾ k o ɾ e oi i s ʈ e ʃ ə n̪ e u ʈh e t̪ o a b a ɾ ʧ o l̪ e ʤ e t̪ i t̪ a i 
[507.885]
<no-speech> 
[509.275]
oi ʃ u l̪ e kh a h o e ʤ e t̪ i ʃ n̪ a k i e g ɾ i h o e ʧ o l̪ e ʤ e <no-speech> 
[513.625]
<sta> oi t̪ ɔ kh o n̪ h æ̃ h æ̃ 
[516.834875]
<no-speech> 
[517.894875]
<no-speech> 
[518.285]
<no-speech> 
[519.185]
oi t̪ o e g ɾ i ɾ o kh a n̪ d̪ i e ʃ o ʤ a ʃ o ʤ a ʧ o l̪ e g i e o kh a n̪ d̪ i e ʈ ɾ e n̪ d̪h o ɾ t̪ i t̪ a i t̪ o <int> 
[523.305]
<no-speech> 
[526.655]
oi t̪ o h æ̃ t̪ a oi t̪ o j u n̪ i v ə ɾ s i ʈ i h o e t̪ o e g ɾ i o b d̪h i a ʃ ʧh i ʃ <int> n̪ a j u n̪ i v ə ɾ s i ʈ i ɾ k æ m p a s e ɾ bh i t̪ o ɾ d̪ i e 
[533.405]
<no-speech> 
[539.475]
<sta> o 
[542.045]
<no-speech> 
[544.485]
a ʧ ʧh a <no-speech> 
[546.915]
a ʧ ʧh a 
[547.595]
<no-speech> 
[548.485]
a ʧ ʧh a a ʧ ʧh a <no-speech> 
[550.045]
ʈh i k a ʧh e t̪ a h o l̪ e t̪ o ɾ p i k n̪ i k ʈ i k n̪ i k a ʧh e n̪ a k i ʃ a m n̪ e e ɾ m o d̪ d̪h e a ɾ <sta> 
[554.485]
<no-speech> 
[555.905]
<sta> h u m n̪ a n̪ a ɔ ph i s p i k n̪ i k <int> n̪ a t̪ o ɾ ɔ ph i s p i k n̪ i k 
[561.865]
<no-speech> 
[562.805]
<no-speech> 
[563.285]
<no-speech> 
[566.465]
t̪ o d̪ e ɾ n̪ o d̪ i ɾ ʧ ɔ ɾ e oi ʤ a e g a ʈ a æ k ʈ u bh a l̪ o p i k n̪ i k e ɾ s p ɔ ʈ ʃ ɔ b e i d̪ i k g i e oi d̪ i k e g e l̪ o <sta> a ɾ t̪ u i t̪ o oi kh a n̪ e i t̪h a k i s o kh a n̪ t̪h e k e o kh a n̪ e p i k n̪ i k e ʤ a ʃ n̪ a ʃ ɔ b m ɔ ʤ a ɾ b æ p a ɾ t̪ o oi ʤ a e g a e m ɔ d̪ kh a ʧ ʧh e a ɾ n̪ a ʧ a n̪ a ʧ i k o ɾ ʧh e <sta> e i t̪ o b æ p a ɾ <no-speech> 
[580.695]
æ <sta> 
[581.865]
<no-speech> 
[583.455]
<sta> m a n̪ e t̪ u i t̪ o ɾ <hes> ɔ ph i s ʧh u ʈ i h o e g æ ʧh e 
[586.065]
<no-speech> 
[587.285]
<int> æ 
[588.715]
<no-speech> 
[590.015]
æ 
[590.505]
<no-speech> 
[591.865]
<no-speech> 
[594.305]
<no-speech> 
[596.665]
<no-speech> 
[596.9]
