[0.0]
<no-speech> 
[6.215]
h æ l̪ o 
[6.645]
<no-speech> 
[8.135]
h æ l̪ o 
[8.555]
<no-speech> 
[12.105]
h æ l̪ o <int> 
[12.525]
<no-speech> 
[16.995]
h æ l̪ o <sta> 
[18.195]
<no-speech> 
[19.715]
h æ̃ b ɔ l̪ <int> 
[20.665]
<no-speech> 
[22.685]
<breath> h æ̃ b ɔ l̪ b ɔ l̪ l̪ ə n̪ ʧ h o e g æ ʧh e <int> 
[25.655]
<no-speech> 
[27.815]
l̪ ə n̪ ʧ h o e g æ ʧh e 
[29.215]
<no-speech> 
[32.895]
<sta> o i e k i b o l̪ e l̪ a s ʈ k i ʧh u d̪ e kh l̪ i t̪ o ɾ m a d̪ d̪h o m i k e ɾ ɾ e z ə l̪ ʈ ʈ a k ɔ t̪ o o b d̪h i d̪ i l̪ o ʈ i v i t̪ e 
[41.955]
<no-speech> 
[48.345]
<sta> ʃ i ʃ i ɾ k i p i t̪ l̪ a m o d̪ æ kh a ʧ ʧh e n̪ a m a 
[50.775]
<no-speech> 
[52.955]
<breath> t̪ a ɾ p ɔ ɾ e b ɔ l̪ <int> 
[54.245]
<no-speech> 
[57.205]

[58.055]
<no-speech> 
[59.675]
o <sta> b a h t̪ a o bh a l̪ o 
[61.675]
<no-speech> 
[64.125]
<breath> h æ̃ b ɔ l̪ a ʤ b i k a l̪ e p ɔ ɾ a a ʧh e t̪ o 
[66.855]
<no-speech> 
[68.955]
b i k e l̪ e p ɔ ɾ a a ʧh e 
[70.235]
<no-speech> 
[75.165]
<int> o h æ̃ h æ̃ 
[76.335]
<no-speech> 
[77.355]
h æ̃ h æ̃ h æ̃ 
[78.325]
<no-speech> 
[79.515]
o a m i bh a b ʧh i a m i k i k o ɾ b o b ɾ i h o ʃ p o t̪ i b a ɾ æ k d̪ i n̪ p o ɾ i k kh a d̪ i l̪ a m ʃ e ʈ a o a m i ʤ a n̪ i n̪ a m a n̪ e b ɾ i h o ʃ p o t̪ i b a ɾ d̪ i n̪ k e m i s ʈ ɾ i ʃ u k ɾ o b a ɾ e ɾ d̪ i n̪ k e ʧh u ʈ i 
[88.785]
<no-speech> 
[93.555]
<cough> a ɾ e ʃ u bh o m ɔ e a ʤ k e i e t̪ e g i e ʧh i l̪ o i ɖ e n̪ e g i e ʧh i l̪ o 
[97.935]
<no-speech> 
[100.495]
h æ̃ a m a k e ʈ æ k s ʈ o k i æ kh o n̪ a m i i ɖ e n̪ e ɾ o e ʧh i a m i b o l̪ l̪ a m b a h b e ʃ bh a l̪ o 
[105.845]
<no-speech> 
[109.375]
h u m k ɔ t̪ o l̪ o k ʤ e g æ ʧh e <sta> k ɔ t̪ o l̪ o k ʤ e g æ ʧh e o kh a n̪ e 
[117.665]
<no-speech> 
[119.365]
<no-speech> 
[120.925]
<no-speech> 
[125.515]
<sta> k i h o ʧ ʧh i l̪ o 
[126.305]
<no-speech> 
[128.155]
a ɾ e b a b a t̪ a i t̪ o 
[129.905]
<no-speech> 
[133.545]
o b a b a t̪ a i n̪ a k i <int> 
[135.545]
<no-speech> 
[136.785]
<sta> h ɔ e a k a ɾ ʧ ɔ n̪ d̪ ɾ o b i n̪ d̪ u h ɔ e a k a ɾ ʧ ɔ n̪ d̪ ɾ o b i n̪ d̪ u 
[138.285]
<no-speech> 
[139.945]
e i g u l̪ o t̪ o kh a ɾ a p bh a b e h ɔ b e n̪ a ɔ t̪ o d̪ ɔ ɾ k a ɾ k i ʧh i l̪ o e i g u l̪ o k ɔ ɾ a ɾ k i n̪ t̪ u d̪ ɔ ɾ k a ɾ i ʧh i l̪ o n̪ a <sta> n̪ i t̪ e ʤ e t̪ o <no-speech> h æ̃ s i ɾ i ə s l̪ i b a b a 
[151.925]
<no-speech> 
[152.245]
<no-speech> 
[154.865]
o g u l̪ i <sta> 
[156.995]
<no-speech> 
[157.885]
<sta> o k i h o l̪ o p a ɾ l̪ o h æ̃ k i 
[168.965]
<no-speech> 
[170.405]
<no-speech> 
[170.845]
<no-speech> 
[175.365]
<sta> b a b a a m i ʤ a n̪ t̪ a m a f ʈ ə ɾ o l̪ e ʈ a k o l̪ k a t̪ a n̪ a k i 
[186.305]
<sta> s i ɾ i ə s l̪ i k i ʤ e p a e a m i t̪ o b u ʤh e p a i n̪ a <cough> k o m o l̪ i k a a ʃ b e ʃ ɔ k a l̪ t̪h e k e kh u b h e k ʈ i k s i ɖ i u l̪ ʃ ɔ k a l̪ t̪h e k e t̪ i n̪ ʈ a n̪ a k i p ɔ ɾ a m a n̪ e ʃ ɔ k a l̪ ʧh ɔ e ʈ a t̪h e k e d̪ ɔ ʃ ʈ a 
[195.725]
ʈ a <sta> t̪ a ɾ p ɔ ɾ k i b a ɾ o ʈ a t̪h e k e ʃ u n̪ ʧh i b a ɾ o ʈ a n̪ a d̪ ɔ ʃ ʈ a t̪h e k e n̪ a æ g a ɾ o ʈ a t̪h e k e æ k ʈ a <breath> t̪ a ɾ p ɔ ɾ b i k e l̪ b æ l̪ a æ k ʈ a ʈ j u ʃ ə n̪ p ã ʧ ʈ a o b d̪h i bh i ʃ o n̪ p o ɾ ʧh e 
[206.285]
<sta> k i ɔ ŋ k o k o ɾ ʧh i ʃ æ kh o n̪ 
[214.025]
<no-speech> 
[214.945]
<no-speech> 
[215.395]
<no-speech> 
[216.505]
o a ʧ ʧh a a m a k e b i k e l̪ b æ l̪ a e a b a ɾ p o ɾ t̪ e ʤ e t̪ e h ɔ b e bh a l̪ o l̪ a g e n̪ a n̪ a a m a ɾ p o ɾ t̪ e 
[227.845]
<no-speech> 
[232.395]
kh æ l̪ o oi p ou n̪ e ʧh ɔ e ʈ a ʃ a ɾ e p ã ʧ ʈ a ʃ a ɾ e p ã ʧ ʈ a p ɾ o t̪h o m e b o l̪ ʧh i l̪ o ʃ o a p ã ʧ ʈ a t̪h e k e p ɔ ɾ a a b a ɾ ʃ e ʈ a p e ʧh a t̪ e p e ʧh a t̪ e ʃ a ɾ e p ã ʧ ʈ a h o l̪ o e b a ɾ ʃ a ɾ e p ã ʧ ʈ a p ou n̪ e ʧh ɔ e ʈ a t̪h e k e ʃ u ɾ u k o ɾ e p ɔ ɾ a n̪ o 
[241.685]
<no-speech> 
[242.655]
<no-speech> 
[243.175]
<no-speech> 
[247.455]
p ou n̪ e ʧh ɔ e p ou n̪ e ʧh ɔ e ʈ a t̪h e k e ʃ o a ʃ a ʈ ʈ a o b d̪h i 
[250.385]
<no-speech> 
[252.555]
<male-to-female> a m a ɾ t̪ o u ʤ ʤ ɔ l̪ s ə ɾ e ɾ p ɔ ɾ a <cough> b a ŋ l̪ a <sta> 
[264.535]
<sta> n̪ a m ʧh i l̪ i t̪ o k a l̪ i 
[275.685]
<sta> <laugh> h u m s i ɾ i ə s l̪ i k i b o k a b o k a b a b a æ k k ɔ t̪h a b o l̪ e ʤ a e ʧ ou d̪ d̪ o b a ɾ p ã ʧ b ɔ ʧh o ɾ e æ k b a ɾ ʤ i t̪ e ʧh e 
[287.555]
<sta> h u m <hes> p ã ʧ b ɔ ʧh o ɾ e æ k b a ɾ ʤ i t̪ e ʧh e t̪ a i n̪ i e k i 
[299.325]
<sta> i ʃ k i ɔ b o s t̪h a 
[306.955]
<sta> ʤ a n̪ a n̪ o ɾ d̪ ɔ ɾ k a ɾ ʧh i l̪ o n̪ a m a n̪ e e i bh a b n̪ a ʧ i n̪ t̪ a ʈ a i t̪ o bh u l̪ ʤ e l̪ o k e ʃ a n̪ t̪ o ʃ i ʃ ʈ o bh a b e t̪h a k b e 
[318.905]
<sta> h u m b a b a æ t̪ o æ t̪ o kh i s t̪ i bh a l̪ o l̪ a g e n̪ a a ɾ ʃ a h ɾ u kh k e æ t̪ o bh a l̪ o b a s e l̪ o k ʤ o n̪ 
[326.155]
<no-speech> 
[327.655]
h u 
[328.255]
<no-speech> 
[329.235]
<int> ʃ a h ɾ u kh b o l̪ e 
[332.785]
<no-speech> 
[334.665]
<cough> <breath> t̪ u i k i k o ɾ b i t̪ a h o l̪ e 
[338.965]
<no-speech> 
[342.575]
oi <int> 
[343.205]
<no-speech> 
[345.275]
b i k e l̪ b æ l̪ a k i k o ɾ b i t̪ a h o l̪ e p o ɾ t̪ e t̪ o ʤ a b i n̪ a o ɔ ŋ k o 
[349.625]
<no-speech> 
[355.295]
a h 
[358.325]
<no-speech> 
[361.145]
b a b a a m a ɾ ɔ ŋ k o n̪ e i b a k i k e m i s ʈ ɾ i <sta> 
[370.535]
<no-speech> 
[371.985]
h u m s e ʈ a i t̪ o 
[374.485]
<no-speech> 
[375.435]
<sta> ɔ ŋ k o 
[381.395]
<no-speech> 
[382.495]
<sta> o h u m <cough> b a b a ʈ a b e ʃ bh a l̪ o 
[394.455]
<sta> h æ̃ 
[400.705]
<sta> h æ̃ a ʧ ʧh a ʃ u n̪ o n̪ a t̪ a ɾ p ɔ ɾ e k a l̪ k e ɾ a t̪ ɾ i b æ l̪ a b ɔ l̪ ph ɾ i t̪ e k ɔ t̪h a b a ɾ t̪ a 
[411.645]
<sta> k i b u ʤh l̪ i k ɔ t̪h a b a ɾ t̪ a ʃ u n̪ e 
[421.335]
<sta> k i b u ʤh l̪ i k ɔ t̪h a b a ɾ t̪ a g u l̪ i ʃ u n̪ e <no-speech> <breath> a ɾ e o i ʤ e k o m o l̪ i k a a ɾ a m a ɾ k a l̪ k e o i ʤ e n̪ a m n̪ a b i k a l̪ b æ l̪ a <sta> 
[441.555]
<sta> a ɾ t̪ u i a t̪ k ɔ t̪h a g u l̪ o b o l̪ i ʃ n̪ a h æ̃ k ɔ l̪ k e ʤ a ʤ a b o l̪ ʧh i l̪ i ʃ t̪ a i t̪ a i h o ʧ ʧh i l̪ o b a b a k i b æ p a ɾ ʃ æ p a ɾ 
[453.255]
<sta> k o i n̪ s i ɖ e n̪ ʈ t̪ u i a m a k e ʤ ɔ kh o n̪ p a ʈh i e ʧh i l̪ i ʃ t̪ ɔ kh o n̪ k ɔ m o l̪ i k a k e d̪ e kh i e ʧh e ʃ u bh o ʤ i t̪ b o l̪ e ʧh e t̪ u m i 
[462.125]
<sta> b o l̪ l̪ a m ʤ e n̪ ɔ ʈ j u o a m a k e æ k ʈ a ph ɾ e n̪ ɖ k e n̪ i e 
[472.945]
<no-speech> 
[474.375]
<sta> h æ̃ s e ʈ a i o t̪ o 
[479.595]
<no-speech> 
[480.585]
<sta> h æ̃ <laugh> t̪ a ɾ p ɔ ɾ e b ɾ e k ph a s ʈ k i k o ɾ l̪ i 
[492.125]
<sta> ʤ o ɾ e b ɔ l̪ ʤ o ɾ e b ɔ l̪ <no-speech> k i k o ɾ l̪ i <no-speech> k i k o ɾ l̪ i ʃ ɔ k a l̪ b æ l̪ a 
[503.725]
<no-speech> 
[504.875]
a ɾ e b ɾ e k ph a s ʈ <int> 
[508.885]
<no-speech> 
[511.495]
<sta> i a m i a m n̪ j u ʈ ɾ i s ph u ɖ <no-speech> æ n̪ ɖ 
[522.945]
ɖ e l̪ i 
[525.035]
<no-speech> 
[527.115]
oi n̪ a <sta> 
[527.875]
<no-speech> 
[529.805]
<cough> <sta> <lipsmack> h æ l̪ o 
[532.575]
<no-speech> 
[535.265]
<sta> h æ̃ h æ̃ ʤ e ʈ a b o l̪ b e o ʈ a b ɔ l̪ 
[537.325]
<no-speech> 
[540.875]
a p a t̪ o t̪ o k i ʧh u n̪ ɔ e 
[542.675]
<no-speech> 
[545.965]
k i ʧh u n̪ a k æ n̪ o b a ɾ i t̪ e æ k g l̪ a s g u l̪ o k ɔ n̪ ɖ i kh e e ʧh i l̪ a m t̪ a ɾ p ɔ ɾ e æ k ʈ a b i s k i ʈ kh e e ʧh i l̪ a m 
[551.845]
<no-speech> 
[554.805]
<laugh> æ t̪ o b ɔ ɾ o ʈ a i e ɾ ʤ o n̪ n̪ e i b a n̪ i e ʧh e <sta> p e ʈ bh ɔ ɾ e n̪ i a ɾ e b i s k i ʈ kh e e ʧh i l̪ a m a ɾ o a ʃ l̪ e o ɾ ʤ o n̪ n̪ o b a n̪ i e ʧh i l̪ o t̪ o a m i h o ʧ ʧh e k e ʈ e k e ʈ e kh e e n̪ i l̪ a m 
[566.395]
<sta> 
[568.755]
<no-speech> 
[569.885]
<sta> k i a n̪ o n̪ d̪ o k i a n̪ o n̪ d̪ o 
[580.525]
<sta> l̪ o k e ɾ gh u m b a ɾ i g i e ʧh i l̪ o 
[592.445]
<sta> o k i m ɔ ʤ a h ɔ b e ʃ a h ɾ u kh a ʃ b e h a t̪ p a n̪ a ɾ a b e 
[599.76]
