[0.0]
<no-speech> 
[1.635]
h æ l̪ o 
[2.215]
<no-speech> 
[5.775]
h æ l̪ o b ɔ l̪ 
[7.575]
<no-speech> 
[10.125]
k æ n̪ o 
[10.815]
<no-speech> 
[14.925]
<no-speech> 
[16.565]
e i b a b a t̪ a l̪ e k i h ɔ b e e b a ɾ e 
[18.635]
<no-speech> 
[24.605]
a ʧ ʧh a a ʧ ʧh a <laugh> i ʧ ʧh e m o t̪ o k ɔ t̪h a b o l̪ e n̪ e b o <laugh> t̪ a h o l̪ e ʃ o n̪ b o l̪ i h æ l̪ o 
[32.975]
<no-speech> 
[35.435]
k o t̪h a e 
[36.135]
<no-speech> 
[38.415]
a ɾ m a m a ɾ b a ɾ i t̪ e ʤ e d̪ i n̪ ʤ a b o t̪ o k e ph o n̪ k o ɾ b o b u ʤh e ʧh i ʃ t̪ o <breath> h u 
[42.485]
<no-speech> 
[43.695]
ph o n̪ k o ɾ b o <breath> a ɾ t̪ u i æ k k a ʤ k ɔ ɾ t̪ o ɾ a ɾ o b i b a ɾ d̪ i n̪ a ʃ b i t̪ o 
[49.025]
<no-speech> 
[50.725]
b o n̪ o a ʃ b e 
[51.775]
<no-speech> 
[55.925]
o i ʤh u m a i k e ʤh u m a ɾ k ɔ t̪h a b o l̪ ʧh i 
[57.625]
<no-speech> 
[60.855]
ʃ o m a t̪ o ʧh e l̪ e m e e ɾ o i t̪ o ʃ ɔ b æ k ʤ a e g a e o ʃ ɔ b ph o n̪ e i k o ɾ t̪ e d̪ i e ʧh e m ɔ l̪ a ʈ k o ɾ t̪ e d̪ i e g æ ʧh e <laugh> a ɾ p a ʃ k ɔ ɾ b a b a b a b a t̪ o p ɾ o t̪ i b ɔ ʧh o ɾ h ɔ ʃ ʃ i k o ɾ e d̪ æ e <laugh> <breath> k ɔ ʈ a ʤ a n̪ i ʃ t̪ o <breath> <hes> b o i h o ʧ ʧh e ʃ a ʈ ʈ a m a t̪ ɾ o k i n̪ t̪ u <breath> e i h o ʧ ʧh e kh a t̪ a h o ʧ ʧh e <breath> k ɔ t̪ o k ɔ ʈ a t̪ e i ʃ ʈ a n̪ a k ɔ ʈ a m a n̪ e kh a t̪ a <breath> <hes> h u 
[84.275]
ɔ n̪ e k kh a t̪ a ɔ n̪ e k æ æ 
[87.335]
<no-speech> 
[89.245]
ɾ a n̪ i e b a ɾ m o n̪ e h ɔ e t̪h ɾ i t̪ e u ʈh l̪ o 
[90.895]
<no-speech> 
[92.135]
<no-speech> 
[92.555]
<no-speech> 
[93.835]
a ɾ ʧh e l̪ e ʈ a o e i t̪ e u ʈh l̪ o æ w a n̪ e e b ɔ ŋ h æ̃ n̪ a n̪ a p ɾ e p w a n̪ m a n̪ e i n̪ ph æ n̪ ʈ w a n̪ b o d̪h h ɔ e ʤ a n̪ i n̪ a o i b o n̪ u ʤ a t̪ e p o ɾ e o ʈ a t̪ e æ h æ̃ h æ̃ ɾ i ʧ a a ɾ o æ k ɾ i ʧ a o æ k 
[105.575]
h æ̃ h æ̃ 
[106.925]
<no-speech> 
[109.125]
<laugh> bh a l̪ o k o ɾ e ʧh e ɾ e ʃ o n̪ n̪ a æ k d̪ i n̪ k i h o e ʧh e <breath> d̪ ã ɾ i e a ʧh e ɾ a s t̪ a ɾ m o d̪ d̪h e d̪ ã ɾ i e a ʧh e t̪ a a m i <breath> æ k d̪ i k e b e ʃ m a n̪ e o ɾ m a b e ʃ bh a l̪ o ʤ a m k a p o ɾ ʤ a m a b e ʃ ʧ a d̪ o ɾ ʈ a d̪ o ɾ g a e d̪ i e 
[120.875]
d̪ ã ɾ i e a ʧh e <breath> a ɾ o ɾ b o n̪ p o ʈ a <breath> t̪ a d̪ e ɾ o b e ʃ bh a l̪ o k o ɾ e ʃ a ʤ a n̪ o g o ʤ a n̪ o a ʧh e <breath> ɾ a s t̪ a ɾ o p o ɾ e d̪ ã ɾ i e ʃ e t̪ a d̪ e ɾ b a ɾ i ɾ k a ʧh e d̪ ã ɾ i e a ʧh e b u ʤh e ʧh i ʃ e i b a ɾ e k i h o e ʧh e <breath> a m i k i k o ɾ e ʧh i 
[132.795]
<hes> b o n̪ b o l̪ ʧh e t̪h a m m a t̪h a m m a <breath> t̪ a a m i b o l̪ ʧh i a e b o n̪ u ʧ ɔ l̪ n̪ a a h m a d̪ e ɾ b a ɾ i ʤ a i ʧ ɔ l̪ t̪ a b o l̪ ʧh e k i <hes> ʤ a b o ʧ ɔ l̪ o <breath> t̪ a æ kh o n̪ æ k ʈ u ʤ e m a n̪ o ŋ ɾ a k i ɾ ɔ k o m p o ɾ e a ʧh e a m i b o l̪ ʧh i k i 
[144.175]
t̪ o ɾ m a n̪ e i <laugh> b o l̪ t̪ e <breath> ɾ e g e g æ ʧh e ɾ e g e g i e ʧ o l̪ e g æ ʧh e a ɾ <laugh> a ɾ p a ʈh a e n̪ i 
[150.465]
<no-speech> 
[151.655]
k a ʤ h o e g æ ʧh e 
[152.915]
<no-speech> 
[154.635]
<no-speech> 
[155.935]
h æ̃ h æ̃ ʃ e i bh a l̪ o d̪ ɔ ɾ k a ɾ n̪ e i o g æ ʧh e bh a l̪ o h o e ʧh e t̪h a k 
[159.855]
<no-speech> 
[164.675]
h æ̃ h æ̃ h æ̃ ʃ e i 
[167.515]
<no-speech> 
[168.685]
a ʧ ʧh a ɾ a h u l̪ æ p a ɾ ʈ m e n̪ ʈ ʃ u n̪ e ʧh i ʃ h æ l̪ o h æ̃ 
[172.545]
<no-speech> 
[175.305]
o t̪ o l̪ e n̪ i t̪ a ɾ m a n̪ e ʤ o d̪ i a b a ɾ t̪ u i b o l̪ i ʃ ʤ e <breath> e i k o ɾ t̪ e p i ʃ i e ʃ ʧh i l̪ o ʤ a n̪ i ʃ t̪ o 
[181.825]
<no-speech> 
[183.505]
p i ʃ i p i ʃ i 
[184.455]
<no-speech> 
[188.105]
n̪ a a m i n̪ a h ɔ e t̪ o b o n̪ i b o l̪ e ʧh e p i ʃ i e ʃ e ʧh i l̪ o t̪ a ɾ p ɔ ɾ e a m a k e b o l̪ l̪ o o i j u ɾ i n̪ ʈ e s ʈ k o ɾ b e t̪ o <breath> t̪ a a ʃ o l̪ k ɔ t̪h a ʃ e i t̪ a ɾ p o ɾ e bh e b e k i n̪ t̪ u a ʃ e n̪ i t̪ o <hes> k i ʤ a n̪ i k i k o ɾ e ʧh e ʤ a n̪ i n̪ a 
[200.035]
<sta> d̪ u ʈ o ʃ a ɾ i d̪ ɔ e ɾ o ʃ ʃ i h æ l̪ o d̪ u ʈ o ʃ a ɾ i d̪ ɔ e ɾ o ʃ ʃ i h æ l̪ o 
[206.585]
<no-speech> 
[207.755]
<sta> <hes> ʃ a ɾ i d̪ i e ʧh i d̪ u ʈ o d̪ u ʈ o ʃ a ɾ i p i ʃ i k e 
[213.205]
<no-speech> 
[214.065]
o i ʃ e i ʤh u m a ɾ e kh e ʧh i l̪ o n̪ a æ k ʈ a k ɔ m o l̪ a k ɔ m o l̪ a l̪ e b u <oov> e ɾ 
[217.075]
<no-speech> 
[217.885]
<sta> a ɾ e k ʈ a m e ʈ e ɾ d̪ u ʈ o ʃ a ɾ i ʧh i l̪ o n̪ a <breath> o i d̪ u ʈ o ʃ a ɾ i i d̪ i e ʧh i d̪ u ʈ o ʃ a ɾ i d̪ i e ʧh i 
[226.205]
<no-speech> 
[228.045]
b ɔ l̪ 
[228.655]
<no-speech> 
[233.225]
a ʧ ʧh a a ʧ ʧh a ʈh i k a ʧh e <breath> t̪ a i d̪ i l̪ a m <breath> d̪ u ʈ o n̪ a ɾ k e l̪ d̪ i e ʧh i a ʧ ʧh a n̪ a ɾ k e l̪ g u l̪ o æ k d̪ i n̪ n̪ i e ʤ a b o t̪ o d̪ e ɾ o kh a n̪ e æ 
[240.165]
<no-speech> 
[242.425]
a ʧ ʧh a ɔ t̪ o n̪ i e ʤ a b i t̪ u i k i k o ɾ e <breath> h æ l̪ o 
[245.725]
<no-speech> 
[253.395]
h æ̃ æ kh o n̪ k i ʧh u b o l̪ i ʃ n̪ a a h 
[256.185]
<no-speech> 
[258.025]
a m i o i ɖh a k u ɾ i a o b d̪h i d̪ i e ʤ a b o æ kh o n̪ b u ʤh e ʧh i ʃ 
[260.604875]
<no-speech> 
[264.195]
<laugh> æ kh o n̪ k i k o ɾ ʧh i ʃ k i k o ɾ i ʃ 
[267.495]
<no-speech> 
[270.175]
<no-speech> 
[270.565]
<no-speech> 
[273.525]
<laugh> e kh a n̪ e ɾ m o t̪ o n̪ e kh a n̪ e ɾ m o t̪ o ʃ ɔ bh a b ʤ a e n̪ i <laugh> 
[282.655]
<no-speech> 
[285.525]
<laugh> b ɔ l̪ a m ɾ a e ɾ ɔ k o m h e ʃ e kh e l̪ e i t̪h a k i <laugh> a m ɾ a ʃ ɔ b ʃ o m ɔ e ɾ a g k o ɾ i o n̪ a b o b a h o e o t̪h a k i n̪ a b ɔ l̪ 
[294.075]
<no-speech> 
[294.935]
h æ̃ 
[295.345]
<no-speech> 
[297.735]
h æ̃ h æ̃ ʃ e i t̪ o ʈh i k <laugh> a ʧ ʧh a ʃ o m a ɾ o i b a b a ʃ u e a ʧh e ɾ e b a b a t̪ o ʃ u e p ɔ ɾ o b e o b a b a <breath> b a b a ɾ æ k d̪ o m gh o ɾ i d̪ e kh b e a ɾ kh a b e 
[309.505]
<breath> æ m o n̪ k i p a e kh a n̪ a o ʤ e t̪ e ʧ a e n̪ a ʤ e ʈ a i m h o e ʤ a ʧ ʧh e ʃ o a ɾ <laugh> kh e e n̪ i e a ɾ d̪ ou ɾ d̪ e b e <laugh> 
[316.245]
<no-speech> 
[317.285]
<laugh> n̪ a ʤ o d̪ i p a e kh a n̪ a p a e o ʃ o m ɔ e h o e ʤ a e gh u m o b a ɾ t̪ a h o l̪ e p a e kh a n̪ a o ʤ a b e n̪ a ʃ u e p ɔ ɾ o b e 
[323.265]
<no-speech> 
[324.785]
<laugh> ʃ o a ʈ a i a g e a b a ɾ d̪ o k a n̪ kh u l̪ b e ʃ e i ʤ o n̪ n̪ o b o l̪ ʧh e a g e ʃ u e n̪ i t̪ a ɾ p ɔ ɾ p a e kh a n̪ a e ʤ a b o <laugh> <hes> 
[336.735]
b ɔ l̪ 
[337.655]
<no-speech> 
[339.345]
a ʧ ʧh a 
[340.085]
<no-speech> 
[343.105]
a ʧ ʧh a a ʧ ʧh a <breath> o t̪ o ɾ a ʃ e d̪ i n̪ e b o l̪ l̪ a m t̪ o ʤ e ʤh u m a t̪ u i <breath> ph o n̪ t̪ u l̪ i ʃ n̪ i k æ n̪ o b u ɾ i ph o n̪ k o ɾ l̪ o <breath> d̪ i d̪ i ph o n̪ k o ɾ l̪ o b o l̪ e k i <hes> k æ n̪ o o t̪ o kh a l̪ i m i s ɖ k ɔ l̪ d̪ i ʧ ʧh e a m i ʤ e <laugh> m a n̪ e o kh a l̪ i <int> <laugh> 
[358.155]
<no-speech> 
[360.155]
o <laugh> a ʧ ʧh a a ʧ ʧh a ɾ a h u l̪ p a ʃ k o ɾ e ʧh e ʤ a n̪ i ʃ t̪ o 
[364.305]
<no-speech> 
[366.275]
a ʧ ʧh a a ʧ ʧh a <breath> ɾ a h u l̪ p a ʃ k o ɾ e ʧh e ʃ ɔ b a i p a ʃ k o ɾ e ʧh e m e gh a kh a l̪ i b a k i a ʧh e a ɾ 
[372.835]
<no-speech> 
[376.015]
h æ̃ h æ̃ a m i o b o l̪ l̪ a m t̪ o b ɔ ɾ o b o n̪ o b a k i a ʧh e ʃ ɔ b a ɾ t̪ o h o e g æ ʧh e <breath> t̪ a e i <breath> b ɔ ɾ o b o n̪ b a k i a ʧh e ʃ ɔ b a i p a ʃ h o e ʧh e bh a l̪ o o o t̪ o p a ʃ k o ɾ b e a ɾ k o n̪ o b æ p a ɾ n̪ a u h n̪ a h 
[387.895]
<no-speech> 
[390.155]
<laugh> n̪ a n̪ a p o ɾ i k kh a k i ɾ ɔ m d̪ i e ʧh e 
[392.695]
<no-speech> 
[396.665]
h æ̃ h æ̃ 
[397.385]
<no-speech> 
[398.565]
a ʧ ʧh a ʈh i k a ʧh e p a ʃ k o ɾ l̪ e i h ɔ l̪ b æ ʃ a ɾ k i ʧh u d̪ ɔ ɾ k a ɾ n̪ e i b a b a 
[402.125]
<no-speech> 
[403.105]
h æ̃ 
[403.655]
<no-speech> 
[405.215]
h æ̃ h æ̃ <breath> t̪ a e kh a n̪ e t̪ o ʤ a t̪ ɾ a h ɔ b e a ʤ k e ʤ a n̪ i ʃ 
[408.875]
<no-speech> 
[411.455]
o i ʤ ɔ e o k a ɾ k i oi kh a n̪ a k i ʃ o ʃ u ɾ e ɾ l̪ o bh e <laugh> ʃ o ʃ u ɾ e ɾ l̪ o bh e <breath> ʃ o ʃ u ɾ e ɾ l̪ o bh e <breath> a ɾ m a n̪ e p u t̪ ɾ o b o d̪h u <hes> p u t̪ ɾ o b o d̪h u 
[422.635]
<breath> <laugh> n̪ a n̪ a ʃ o b u ʤ ʃ ɔ ŋ gh e ʃ o b u ʤ ʃ ɔ ŋ gh e 
[429.645]
<no-speech> 
[430.495]
h æ̃ <no-speech> 
[435.115]
h æ̃ 
[435.615]
<no-speech> 
[436.945]
a ɾ o ʤ a e <laugh> o ʤ a e g a t̪ o bh a l̪ o n̪ a 
[439.335]
<no-speech> 
[440.315]
o ʤ a e g a ʈ a t̪ o o ʤ a e g a ʈ a bh a l̪ o n̪ a t̪ o 
[442.275]
<no-speech> 
[444.765]
h æ̃ 
[445.335]
<no-speech> 
[448.065]
<laugh> k ɔ t̪ o k o ɾ e ʈ i k i ʈ b ɔ l̪ t̪ o 
[449.855]
<no-speech> 
[451.845]
p ɔ̃ e t̪ ɾ i ʃ ʈ a k a a b a ɾ ʃ e i i e ɾ ɔ e a k a ɾ k i g a ʤ o n̪ h ɔ b e g a ʤ o n̪ <laugh> 
[458.985]
<no-speech> 
[459.975]
h æ̃ a ɾ o i d̪ ɔ ɾ k a ɾ n̪ e i b a b a æ kh o n̪ ɔ t̪ o o i g a ʤ o n̪ ʃ u n̪ e o d̪ ɔ ɾ k a ɾ n̪ e i a ɾ ʃ a ɾ a d̪ i n̪ ʤ e n̪ o e i a m a d̪ e ɾ e i ɾ a s t̪ a ʈ a e ʤ e n̪ o m a i k ʈ a n̪ i e <breath> ʤ e n̪ o k a n̪ e ɾ m a t̪h a æ k d̪ o m kh e e n̪ i ʧ ʧh e e i ɾ ɔ k o m i h o e ʧh i l̪ o 
[471.595]
k ɔ d̪ i n̪ d̪h o ɾ e e ɾ ɔ k o m i k o ɾ ʧh e e ɾ ɔ k o m i k o ɾ ʧh e <breath> <hes> æ kh o n̪ a ʤ k e ɾ o æ kh o n̪ p o n̪ e ɾ o m i n̪ i ʈ k ɔ t̪h a b o l̪ t̪ e h ɔ b e 
[478.025]
<no-speech> 
[480.565]
a ʧ ʧh a a ʧ ʧh a t̪ a ʃ o n̪ ʃ o n̪ æ 
[482.605]
<no-speech> 
[484.145]
<laugh> ʃ u n̪ b o l̪ ʧh i k i ʤ e <breath> t̪ u i t̪ o d̪ e ɾ n̪ i m ɔ n̪ t̪ ɾ o n̪ k o ɾ l̪ e ʤ a b i t̪ o 
[489.065]
<no-speech> 
[492.935]
<no-speech> 
[493.325]
<no-speech> 
[495.045]
k i n̪ t̪ u <breath> i e t̪ o g ɔ ŋ g a p a ɾ h o t̪ e h ɔ b e t̪ o 
[498.115]
<no-speech> 
[500.985]
<laugh> d̪h u ɾ æ kh o n̪ <breath> æ kh o n̪ n̪ a b o l̪ e ʃ e i <hes> b ɾ i ʤ h o e ʧh e n̪ a k i b ɾ i ʤ d̪ i e o ʤ a o a ʤ a e <breath> t̪h a k s e ʈ a i bh a l̪ o 
[509.825]
<no-speech> 
[511.245]
e i 
[511.705]
<no-speech> 
[513.195]
a m ɾ a t̪ o a m ɾ a t̪ o ʤ e t̪ e p a ɾ b o n̪ a 
[515.245]
<no-speech> 
[516.534875]
a m a ɾ <breath> ʃ e i g o a n̪ s o l̪ e k i k o ɾ e ʤ a b o b a b a a ɾ a m i 
[519.775]
<no-speech> 
[522.465]
t̪ o ɾ a ʤh u m a ʤh u m a k e t̪ o æ k b a ɾ ɔ n̪ i b a ɾ ʤ o b o l̪ b e 
[525.095]
<no-speech> 
[527.255]
h æ̃ h æ̃ æ <breath> 
[529.345]
<no-speech> 
[531.545]
<laugh> h æ̃ h æ̃ h o o ɾ ɖ a n̪ h a t̪ b ã h a t̪ <hes> o ʤ a e t̪ o b e ʃ i o ɾ ʤ o n̪ n̪ e <breath> a ɾ ʃ o m a k e n̪ a b o l̪ l̪ e t̪ o k e n̪ a b o l̪ l̪ e a m ɾ a a m ɾ a t̪ o ʤ e t̪ e i p a ɾ b o n̪ a æ k e b a ɾ e ʃ o k t̪ i d̪ a d̪ a ɾ a t̪ o ʤ a b e 
[543.035]
<no-speech> 
[543.905]
b ɔ ɾ d̪ a m e ʤ d̪ a 
[545.125]
<no-speech> 
[546.375]
æ 
[546.845]
<no-speech> k i b o l̪ e 
[548.595]
<no-speech> 
[550.165]
e i k i g e l̪ e e i ʃ i t̪ e 
[551.705]
<no-speech> 
[554.265]
e i ʃ i t̪ k a l̪ e t̪ o ʤ a o a i bh a l̪ o <breath> a m ɾ a t̪ a h o l̪ e e m n̪ i gh u ɾ e a ʃ i n̪ ɔ e <breath> b o n̪ a ɾ t̪ u i e kh a n̪ e t̪h a k 
[559.525]
<no-speech> 
[560.625]
b o n̪ a ɾ t̪ u i t̪h a k b i a m ɾ a ʤ e ʈh i m a ɾ ʃ o ŋ g e gh u ɾ e a ʃ i ʤ e ʈh i m a a m i 
[563.905]
<no-speech> 
[568.285]
o e i d̪ u t̪ a ɾ i kh t̪h e k e <breath> <laugh> æ kh o n̪ t̪ o 
[571.655]
<no-speech> 
[572.895]
æ kh o n̪ t̪ o p ɔ ɾ a h ɔ b e n̪ a <breath> a ɾ b o n̪ t̪ o æ k a t̪h a k <no-speech> 
[577.095]
æ 
[577.525]
<no-speech> 
[578.485]
a m ɾ a g e l̪ a m oi <hes> p ã ʧ d̪ i n̪ ʧh ɔ d̪ i n̪ h ɔ b e 
[581.705]
<no-speech> 
[583.665]
h æ̃ h æ̃ æ k ʃ ɔ p t̪ a ʃ a l̪ e t̪ u i b o n̪ t̪h a k t̪ e h ɔ b e 
[587.185]
<no-speech> 
[588.045]
<hes> 
[590.025]
<no-speech> 
[592.905]
ʤ e ʈh i m a ɾ ʃ o ŋ g e k ɔ t̪h a b o l̪ t̪ e h ɔ b e 
[594.545]
<no-speech> 
[595.525]
h æ l̪ o 
[596.095]
<no-speech> 
[598.035]
ʤ o d̪ i ʤ a e ʤ e ʈ i m a 
[599.3]
