[0.0]
<no-speech> 
[2.155]
<no-speech> 
[3.455]
<overlap> h æ l̪ o 
[4.575]
<no-speech> 
[5.575]
<sta> h æ l̪ o <no-speech> 
[9.875]
<no-speech> 
[11.045]
<sta> t̪ u m i k æ m o n̪ a ʧh o 
[12.685]
<no-speech> 
[16.255]
<sta> h æ̃ t̪ u m i k æ m o n̪ a ʧh o 
[18.945]
<no-speech> 
[20.165]
k i k o ɾ ʧh o æ kh o n̪ 
[21.205]
<no-speech> 
[24.115]
a ʧ ʧh a k i k o ɾ ʧh o æ kh o n̪ kh a o a h o e g æ ʧh e 
[26.355]
<no-speech> 
[30.265]
o s i n̪ e m a d̪ e kh e ʧh o n̪ o t̪ u n̪ m o ɾ a 
[33.205]
<no-speech> 
[36.425]
k i s i n̪ e m a d̪ e kh l̪ e <int> 
[38.965]
<no-speech> 
[42.835]
<no-speech> 
[43.255]
<no-speech> 
[44.685]
k i d̪ e kh e ʧh o b ɔ l̪ 
[47.275]
<no-speech> 
[51.425]
h ə n̪ ɖ ɾ e ɖ p ə ɾ s e n̪ ʈ d̪ e kh b e 
[53.475]
<no-speech> 
[54.565]
<no-speech> 
[54.915]
<no-speech> 
[56.155]
a ʧ ʧh a <int> 
[57.325]
<no-speech> 
[59.365]
ʈh a n̪ ɖ a k æ m o n̪ p o ɾ e ʧh e <int> 
[62.205]
<no-speech> 
[64.365]
<no-speech> 
[65.005]
<no-speech> 
[66.085]
d̪ a o n̪ i l̪ o k n̪ a t̪h b a b a ɾ p u ʤ o <int> 
[68.765]
<no-speech> 
[70.115]
t̪ a h o l̪ e p ɾ o ʃ a d̪ a n̪ t̪ e ʤ a b e n̪ a 
[71.665]
<no-speech> 
[72.745]
<sta> t̪ a h o l̪ e p ɾ o ʃ a d̪ a n̪ t̪ e ʤ a b e n̪ a 
[76.545]
<no-speech> 
[84.795]
<int> ʤ o g g o ɾ e kh e ʧh o 
[86.685]
<no-speech> 
[88.175]
ʤ o g g o ʤ o g g o 
[89.395]
<no-speech> 
[90.395]
<no-speech> 
[90.755]
<no-speech> 
[93.215]
e i 
[95.515]
<no-speech> 
[96.975]
<no-speech> 
[97.785]
<no-speech> 
[101.035]
<no-speech> 
[101.565]
<no-speech> 
[103.565]
ʃ ɔ ɾ e ɔ ʃ ɔ b n̪ i e ʤ a b e t̪ o b a ɾ i 
[107.285]
<no-speech> 
[109.055]
b a ɾ i ɾ ʃ ɔ b a i bh a l̪ o a ʧh e t̪ o 
[111.905]
<no-speech> 
[112.955]
s i ɾ i ə l̪ d̪ æ kh o 
[114.185]
<no-speech> 
[120.615]
<no-speech> 
[127.045]
m a d̪ æ kh o n̪ a m a 
[129.784875]
<no-speech> 
[132.195]
<no-speech> 
[132.595]
<no-speech> 
[135.215]
ɔ l̪ o k kh i d̪ æ kh o n̪ a 
[136.445]
<no-speech> 
[137.315]
<no-speech> 
[137.985]
<no-speech> 
[140.135]
ɔ l̪ o k kh i d̪ æ kh o n̪ a ɔ l̪ o k kh i 
[141.665]
<no-speech> 
[149.045]
<int> a h 
[150.085]
<no-speech> 
[152.015]
ɾ o ʤ d̪ i n̪ b a ɾ i g i e s i ɾ i ə l̪ d̪ æ kh o 
[153.935]
<no-speech> 
[157.665]
a h 
[158.325]
<no-speech> 
[161.795]
ɾ a n̪ n̪ a k ɔ ɾ k ɔ kh o n̪ b a ɾ i t̪ e g i e ɾ a n̪ n̪ a k ɔ ɾ 
[164.305]
<no-speech> 
[169.865]
<sta> ʃ ɔ ɾ e ɔ bh a l̪ o 
[173.335]
<no-speech> 
[174.685]
a ɾ k i kh æ l̪ e a ʤ k e d̪ u p u ɾ e 
[177.285]
<no-speech> 
[178.805]
k i kh e e ʧh o a ʤ k e d̪ u p u ɾ e 
[180.855]
<no-speech> 
[190.795]
<sta> a h 
[195.875]
<no-speech> 
[197.375]
ɾ a t̪ ɾ e o k i bh a t̪ kh a o <int> 
[200.915]
<no-speech> 
[202.545]
b a ɾ i g i e k i ɾ a n̪ n̪ a k o ɾ b e n̪ a k i ɾ a n̪ n̪ a k o ɾ e a ʧh e 
[205.235]
<no-speech> 
[216.675]
<no-speech> 
[217.135]
<no-speech> 
[220.605]
<no-speech> 
[221.175]
<no-speech> 
[222.105]
ʃ ɔ ɾ e ɔ <sta> m a ŋ ʃ o kh a o n̪ a m a ŋ ʃ o 
[225.665]
<no-speech> 
[230.325]
<no-speech> 
[231.245]
<no-speech> 
[236.235]
h æ̃ 
[236.855]
<no-speech> 
[240.105]
<int> bh a l̪ o bh a l̪ o 
[242.165]
<no-speech> 
[251.875]
<no-speech> 
[252.245]
<no-speech> 
[257.295]
<no-speech> 
[257.645]
<no-speech> 
[259.054875]
<no-speech> 
[259.415]
<no-speech> 
[260.985]
<no-speech> 
[261.375]
<no-speech> 
[262.465]
h æ̃ ʤ a b o b o l̪ e k a l̪ k e k ɔ l̪ e ʤ e g i e ʃ ɔ ɾ o ʃ ʃ o t̪ i p u ʤ o a ʧh e ʃ a m n̪ e ʃ ɔ ɾ o ʃ ʃ o t̪ i p u ʤ o ɾ k a ʤ k o ɾ t̪ e h ɔ b e 
[269.185]
<no-speech> 
[270.835]
a ʈ a ʃ t̪ a ɾ i kh e ʃ ɔ ɾ o ʃ ʃ o t̪ i p u ʤ o k ɔ l̪ e ʤ e k ɔ l̪ e ʤ e n̪ i m ɔ n̪ t̪ ɾ o n̪ k o ɾ t̪ e ʤ e t̪ e h ɔ b e 
[274.865]
<no-speech> 
[276.205]
k ɔ l̪ e ʤ e ɾ gh ɔ ɾ ʃ a ʤ a t̪ e h ɔ b e 
[278.125]
<no-speech> 
[281.235]
t̪ a ɾ p ɔ ɾ b a ʤ a ɾ k ɔ ɾ a ʃ ɔ b k i ʧh u k o ɾ t̪ e h ɔ b e 
[284.985]
<no-speech> 
[289.565]
h æ̃ ʃ a ɾ i p o ɾ t̪ e h ɔ b e 
[291.435]
<no-speech> 
[297.665]
h æ̃ 
[299.105]
<no-speech> 
[301.635]
a m a ɾ b o n̪ d̪h u ɔ n̪ e k g u l̪ o a ʧh e k ɔ l̪ e ʤ e 
[303.815]
<no-speech> 
[307.425]
b a n̪ d̪h o b i a ʧh e k ɔ m k i n̪ t̪ u b o n̪ d̪h u b e ʃ i f ə ɾ s ʈ i a ɾ f ə ɾ s ʈ i a ɾ a m a ɾ s i n̪ i ɔ ɾ o a m a ɾ b o n̪ d̪h u ʤ u n̪ j ə ɾ o a m a ɾ b o n̪ d̪h u 
[314.755]
<no-speech> 
[318.175]
h æ̃ ʧh e l̪ e b o n̪ d̪h u b e ʃ i 
[319.775]
<no-speech> 
[326.585]
n̪ a n̪ a oi m o ŋ g o l̪ b a ɾ d̪ i n̪ k e i ʤ a i b u d̪h b a ɾ d̪ i n̪ k e ʤ a b o s i n̪ e m a e 
[330.305]
<no-speech> 
[333.525]
kh o k a b a b u kh o k a b a b u 
[334.725]
<no-speech> 
[336.265]
kh o k a b a b u d̪ e kh t̪ e kh o k a b a b u d̪ e kh t̪ e ʤ a b o d̪ e b e ɾ 
[339.305]
<no-speech> 
[341.485]
h æ̃ 
[342.345]
<no-speech> 
[346.875]
h æ̃ d̪ e b a ʧh e ʃ u bh o s ɾ i a ʧh e 
[349.395]
<no-speech> 
[350.305]
<no-speech> 
[350.825]
<no-speech> 
[351.745]
ph i ɾ d̪ ou s a ʧh e 
[353.105]
<no-speech> 
[354.665]
o ɾ a i t̪ o m o n̪ e <int> 
[358.615]
<no-speech> 
[361.065]
t̪ u m i d̪ e kh b e n̪ a kh o k a b a b u 
[362.525]
<no-speech> 
[363.515]
<no-speech> 
[364.015]
<no-speech> 
[369.505]
d̪ e kh b e d̪ e b n̪ a ʧ e 
[372.095]
<no-speech> 
[375.175]
b u ʤh l̪ e 
[376.105]
<no-speech> 
[377.865]
h æ̃ 
[378.545]
<no-speech> 
[381.575]
<no-speech> 
[382.445]
<no-speech> 
[384.805]
<no-speech> 
[385.205]
<no-speech> 
[386.115]
h a ʃ ʧh o k æ n̪ o 
[387.125]
<no-speech> 
[388.865]
<no-speech> 
[389.275]
<no-speech> 
[392.235]
a h o 
[393.175]
<no-speech> 
[394.285]
bh a l̪ o bh a l̪ o t̪ a l̪ o k n̪ a t̪h b a b a ɾ o kh a n̪ e ʤ a b e k ɔ kh o n̪ 
[399.535]
<no-speech> 
[404.325]
<no-speech> 
[404.715]
<no-speech> 
[405.705]
h æ̃ kh a o a b o ʧ o l̪ e ʤ e o a m a d̪ e ɾ k ɔ l̪ e ʤ e 
[408.015]
<no-speech> 
[409.775]
a m i k i ʃ a ɾ i p o ɾ b o 
[411.055]
<no-speech> 
[412.505]
<int> m a ɾ æ k ʈ a ʃ a ɾ i p o ɾ b o 
[414.995]
<no-speech> 
[419.325]
n̪ a a m i t̪ o ʃ a ɾ i k i n̪ i n̪ a n̪ a 
[421.115]
<no-speech> 
[429.305]
n̪ a n̪ a o ʃ ɔ b p o ɾ i n̪ a 
[431.465]
<no-speech> 
[436.165]
h u 
[436.635]
<no-speech> 
[438.175]
<no-speech> 
[438.565]
<no-speech> 
[440.105]
a ʧ ʧh a ph a l̪ t̪ u ph a l̪ t̪ u k ɔ t̪h a b o l̪ ʧh i b o l̪ e h a ʃ ʧh o t̪ u m i 
[443.405]
<no-speech> 
[445.435]
m a ɾ æ k ʈ a k i n̪ o t̪ u n̪ ʃ a ɾ i a ʧh e p u ʤ o e p e e ʧh e o ʈ a p o ɾ b o 
[448.765]
<no-speech> 
[453.315]
<no-speech> 
[453.785]
<no-speech> 
[459.805]
æ kh o n̪ ʧ u ɾ i d̪ a ɾ p o ɾ ʧh e <int> 
[462.215]
<no-speech> 
[463.875]
t̪ i n̪ ph i g a ɾ t̪ o a b a ɾ k i 
[465.395]
<no-speech> 
[471.745]
t̪ i n̪ ʈ a ʈ ɔ p p ɔ ɾ o b e ph a s ʈ e k i 
[473.825]
<no-speech> 
[475.725]
t̪ o m a ɾ b ɔ ɾ k e b ɔ l̪ æ k ʈ a ʤ i n̪ s k i n̪ e d̪ i t̪ e 
[478.755]
<no-speech> 
[480.255]
t̪ a k a k e b o l̪ b e 
[481.225]
<no-speech> 
[486.645]
t̪ o m a ɾ <hes> 
[487.705]
<no-speech> 
[489.935]
h æ̃ a ʧh e 
[491.915]
<no-speech> 
[494.305]
h æ̃ o ɾ a i k e ʈ e d̪ e b e t̪ a ɾ a g e ʃ ɔ b k a ʤ 
[498.245]
<no-speech> 
[499.405]
ʈh i k a ʧh e <laugh> <int> 
[500.425]
<no-speech> 
[503.725]
p a ɾ l̪ a ɾ e ph e ʃ i a l̪ o k o ɾ e n̪ i o <sta> 
[505.795]
<no-speech> 
[510.835]
<no-speech> 
[511.215]
<no-speech> 
[513.715]
<sta> h æ̃ t̪ a t̪ u m i ʤ i n̪ s p ɔ ɾ o b e t̪ u m i æ t̪ o d̪ i n̪ ʃ a ɾ i p o ɾ e ʧh o a m ɾ a <breath> æ kh o n̪ ʃ a ɾ i p o ɾ b o t̪ u m i ʤ i n̪ s p ɔ ɾ o b e 
[518.645]
<no-speech> 
[519.665]
<no-speech> 
[520.095]
<no-speech> 
[522.514875]
h u 
[523.105]
<no-speech> 
[525.565]
k a n̪ e o k i ʤh o l̪ a n̪ o ʤh o l̪ a n̪ o d̪ u l̪ p ɔ ɾ o b e 
[528.075]
<no-speech> 
[528.995]
<no-speech> 
[529.565]
<no-speech> 
[532.085]
<no-speech> 
[532.505]
<no-speech> 
[535.265]
<no-speech> 
[535.665]
<no-speech> 
[538.565]
æ k ʈ a p e n̪ s i l̪ h i l̪ p ɔ ɾ o b e p a e 
[540.535]
<no-speech> 
[541.925]
<no-speech> 
[542.285]
<no-speech> æ k a 
[546.565]
<no-speech> 
[547.805]
<no-speech> 
[548.205]
<no-speech> 
[553.025]
<no-speech> 
[553.405]
<no-speech> k i b a ɾ i b a ɾ i k ɔ kh o n̪ ʤ a b e 
[558.295]
<no-speech> 
[569.355]
a ʧ ʧh a a ʧ ʧh a bh a l̪ o bh a l̪ o 
[571.135]
<no-speech> 
[572.745]
<sta> ʧ o kh e æ k ʈ u a i l̪ a i n̪ a ɾ k a ʤ ɔ l̪ d̪ i e d̪ i o t̪ a ɾ a g e 
[575.515]
<no-speech> 
[578.815]
o t̪ a o ʤ o d̪ i <laugh> 
[580.965]
<no-speech> 
[582.065]
<no-speech> 
[582.545]
<no-speech> 
[584.175]
<no-speech> 
[585.635]
<no-speech> 
[587.415]
<breath> <laugh> k e k e e ʃ ʧh e t̪ o m a ɾ p a ʃ e <int> 
[590.485]
<no-speech> 
[591.555]
<no-speech> 
[592.355]
<no-speech> 
[593.885]
t̪ o m a ɾ p a ʃ e a b a ɾ k e e ʃ ʧh e <int> 
[596.375]
<no-speech> 
[597.455]
<no-speech> 
[598.425]
<no-speech> 
[598.68]
