[0.0]
<no-speech> 
[2.855]
h æ l̪ o 
[3.525]
<no-speech> 
[5.855]
h ũ bh a l̪ o a ʧh i ʃ 
[7.165]
<no-speech> 
[11.575]
bh a l̪ o a ʧh i ʃ t̪ o n̪ a k i 
[13.085]
<no-speech> 
[14.205]
e ɾ m o d̪ d̪h e k o ɾ i e ʧh i n̪ a 
[15.695]
<no-speech> 
[18.825]
k i k o ɾ t̪ e ʧh i l̪ i 
[19.875]
<no-speech> 
[23.685]
h u m n̪ a n̪ a t̪ u i ph o n̪ ʈ o n̪ k ɔ ɾ i ʃ n̪ a a m i k o ɾ b o a m i æ k ʈ u kh õ ʤ kh ɔ b o ɾ n̪ i i 
[27.545]
<no-speech> 
[31.245]
k i h ɔ b e 
[32.145]
<no-speech> 
[33.325]
i s ʈ a i l̪ e ʃ ɔ b i s ʈ a i l̪ e 
[35.365]
<no-speech> 
[36.745]
h æ̃ e ʈ a p ɾ a i v e ʈ n̪ ə m b ə ɾ 
[38.305]
<no-speech> 
[41.345]
h æ̃ 
[42.095]
<no-speech> 
[44.365]
a m a ɾ a m a ɾ 
[45.485]
<no-speech> 
[47.865]
kh e e ʧh e 
[48.705]
<no-speech> 
[50.765]
æ 
[51.355]
<no-speech> 
[55.065]
n̪ a p ɾ a i v e ʈ n̪ ə m b ə ɾ t̪ o ʃ ɔ b a i k e d̪ i b o n̪ a e ʈ a t̪ o b u ʤh t̪ e h ɔ b e t̪ a i n̪ a 
[59.155]
<no-speech> 
[62.345]
<breath> h æ̃ t̪ a ɾ p ɔ ɾ ʃ ɔ k a l̪ e k i d̪ i e kh a o a d̪ a o a h o l̪ o 
[66.655]
<no-speech> 
[70.565]
h æ̃ 
[71.015]
<no-speech> 
[74.845]
h ũ b a ɾ o n̪ t̪ o 
[76.995]
<no-speech> 
[79.905]
a m i e i e ɾ ɔ k o m i ɖ a l̪ bh a t̪ 
[82.465]
<no-speech> 
[84.785]
t̪ a ɾ p ɔ ɾ kh ɔ b o ɾ ʃ ɔ b o ɾ k i k ɔ l̪ e ʤ ʈ ɔ l̪ e ʤ k æ m o n̪ ʧ o l̪ ʧh e p ɾ e m t̪h e m o k æ m o n̪ ʧ o l̪ ʧh e 
[90.035]
<no-speech> 
[93.945]
h æ l̪ o 
[94.795]
<no-speech> 
[96.615]
k i h ɔ ʃ ʃ i 
[97.315]
<no-speech> 
[101.125]
k i n̪ a e d̪ i k e a ʃ e n̪ a k i a m i ʤ a n̪ i n̪ a 
[103.935]
<no-speech> 
[104.925]
b æ p a ɾ ʈ a k i b o l̪ i ʃ n̪ i t̪ a ɾ m a n̪ e n̪ a 
[106.955]
<no-speech> 
[109.715]
<int> a m a k e 
[111.955]
<no-speech> 
[115.725]
<int> n̪ a m o n̪ e h ɔ e b o l̪ t̪ i ʧh i t̪ u m i m o n̪ e h ɔ e ʤ a n̪ n̪ a 
[118.965]
<no-speech> 
[124.525]
h æ̃ t̪ a i n̪ a k i <sta> t̪ a ɾ p ɔ ɾ e a m a ɾ d̪ a d̪ a ph o n̪ k o ɾ e ʧh i l̪ o d̪ a d̪ a bh a i ph o n̪ k o ɾ e ʧh i l̪ o a m a d̪ e ɾ 
[130.685]
<no-speech> 
[133.155]
k ɔ l̪ o n̪ i ɾ 
[134.065]
<no-speech> 
[139.325]
k æ n̪ o 
[140.165]
<no-speech> 
[144.925]
t̪ u i ʧ i n̪ t̪ e p a ɾ i ʃ n̪ a <int> 
[146.845]
<no-speech> 
[148.125]
a ʧ ʧh a ʃ o n̪ t̪ u i n̪ e k s ʈ k ɔ b e k ɔ l̪ e ʤ ʤ a b i 
[150.795]
<no-speech> 
[154.615]
h æ̃ 
[155.135]
<no-speech> 
[156.985]
k a l̪ k e 
[158.085]
<no-speech> 
[160.235]
k ɔ ʈ a e b e ɾ o b i 
[161.145]
<no-speech> 
[164.415]
h ũ m 
[164.975]
<no-speech> 
[169.365]
h u m 
[170.105]
<no-speech> 
[171.905]
ʃ ɔ ɾ e ɔ a ʧ ʧh a ʈh i k a ʧh e 
[174.505]
<no-speech> 
[176.405]
h ũ o a ɾ æ k ʈ a k ɔ t̪h a ʧh i l̪ o h ũ 
[179.045]
<no-speech> 
[180.555]
a ɾ e n̪ a æ k o ʧ u a l̪ t̪ o k e d̪ ɔ ʃ m i n̪ i ʈ a m i k ɔ t̪h a b o l̪ b o t̪ a o n̪ n̪ o n̪ ə m b ə ɾ t̪h e k e k o ɾ ʧh i t̪ o e i n̪ ə m b ə ɾ t̪h e k e d̪ ɔ ʃ m i n̪ i ʈ k ɔ t̪h a b o l̪ t̪ e h ɔ b e 
[187.125]
<no-speech> 
[189.355]
t̪ u i æ kh o n̪ b o l̪ ʧh i ʃ d̪ u ɾ e ɾ m a n̪ u ʃ k e k æ n̪ o k o ɾ b o a m i t̪ o k e i k o ɾ i 
[191.895]
<no-speech> 
[193.405]
ʤ a n̪ a 
[194.005]
<no-speech> 
[195.695]
a ʧ ʧh a gh ɔ ʈ o n̪ a h o ʧ ʧh e a m a k e <lipsmack> ɾ a ʤ u ʃ ɔ ɾ k a ɾ b o l̪ e ʧh i l̪ o k i ʤ e <hes> t̪ o ɾ k a ʧh e ʤ e e s e m e s g u l̪ o a ʧh e o i ɖ i l̪ i ʈ k o ɾ t̪ e 
[205.115]
<no-speech> 
[208.255]
t̪ o ɾ k a ʧh e ʤ e e s e m e s g u l̪ o a ʧh e o g u l̪ o ɖ i l̪ i ʈ k o ɾ t̪ e b o l̪ e ʧh e 
[211.735]
<no-speech> 
[213.225]
a m a k e a ɾ k i b o l̪ e ʤ a n̪ i ʃ a m a k e b o l̪ ʧh e a m i ʤ e n̪ i ʤ e h a t̪ e g i e ʤ i g g e ʃ k o ɾ i a m a ɾ h a ʃ i p e e ʧh e ʃ u n̪ e 
[219.115]
<no-speech> 
[222.625]
a m a k e n̪ i ʤ e ɾ h a t̪ e ʤ i g g e ʃ k o ɾ t̪ e b o l̪ ʧh e 
[224.675]
<no-speech> 
[227.955]
<no-speech> 
[229.725]
<no-speech> 
[230.595]
k i 
[231.075]
<no-speech> 
[232.065]
h æ̃ h æ̃ 
[232.815]
<no-speech> 
[234.305]
<no-speech> 
[234.655]
<no-speech> 
[236.775]
o ʤ i g g e ʃ k o ɾ b e 
[238.065]
<no-speech> 
[240.265]
o ʤ i g g e ʃ k o ɾ b e n̪ i ʤ e t̪ e 
[241.995]
<no-speech> 
[244.155]
b o l̪ e d̪ e kh i b o l̪ e d̪ e kh i b o l̪ b o n̪ i k i d̪ ã ɾ a e a ɾ æ k b a ɾ d̪ e kh i 
[247.195]
<no-speech> 
[252.605]
<no-speech> 
[253.365]
<no-speech> 
[254.255]
h ũ t̪ a i t̪ o 
[255.545]
<no-speech> 
[257.975]
t̪ u i t̪ a h o l̪ e æ k k a ʤ k o ɾ b i o k e o k e i ʃ e k o ɾ b i m o b a i l̪ ʈ a d̪ i e d̪ i b i k o ɾ e d̪ i b e 
[262.415]
<no-speech> 
[263.335]
t̪ a e kh a n̪ i ʧ o l̪ e a e æ k ʈ u p o ɾ e a m i a m i o k e ɖ a k i t̪ a h o l̪ e 
[266.665]
<no-speech> 
[269.195]
k i s æ kh o n̪ n̪ a 
[270.785]
<no-speech> 
[272.305]
<sta> <laugh> <breath> a ɾ e ʈh i k a ʧh e ʃ e n̪ a h ɔ e p o ɾ e h ɔ b e 
[276.155]
<no-speech> 
[277.635]
a m a k e k i <sta> b o l̪ t̪ e ʧh i l̪ o ʤ a n̪ i ʃ <breath> b ɔ l̪ e k i <laugh> æ k ʈ a m æ s e ʤ ɖ i l̪ i ʈ k o ɾ l̪ e d̪ i b o 
[284.245]
<no-speech> 
[285.135]
<laugh> ɾ a ʤ i h o e ʧh e <lipsmack> æ k ʈ a k o ɾ e m æ s e ʤ ɖ i l̪ i ʈ k o ɾ l̪ e æ k ʈ a k o ɾ e d̪ i b e <laugh> 
[291.965]
<no-speech> 
[293.425]
<no-speech> 
[296.875]
m æ s e ʤ g u l̪ o ɖ i l̪ i ʈ æ k ʈ a æ k ʈ a k o ɾ e ɖ i l̪ i ʈ k o ɾ b i æ k ʈ a k a ʃ ɔ b m æ s e ʤ ɖ i l̪ i ʈ k o ɾ b i ʤ ɔ t̪ o g u l̪ o ʈ a k a t̪h a k b e ɔ t̪ o g u l̪ o m æ s e ʤ p a b i d̪h æ t̪ ʤ ɔ t̪ o g u l̪ o m æ s e ʤ t̪h a k b e ɔ t̪ o g u l̪ o ʈ a k a p a b i 
[307.655]
<no-speech> 
[309.035]
<laugh> <breath> k a l̪ k e t̪ o k o ɾ i i ɖ i l̪ i ʈ e i ʤ o n̪ n̪ o d̪h o ɾ l̪ o k i n̪ t̪ u k o ɾ t̪ e k ɔ ʃ ʈ o h ɔ b e æ k ʈ a k a k o ɾ e d̪ i b o d̪ i e t̪ a ɾ i e d̪ i b e <laugh> 
[316.335]
<no-speech> 
[317.865]
ʧh ɔ ʈ a b i e e ɾ a n̪ ɔ e e m n̪ i b o l̪ ʧh e 
[319.245]
<no-speech> 
[320.705]
t̪ i n̪ ʈ i 
[321.395]
<no-speech> 
[322.245]
æ 
[322.715]
<no-speech> 
[326.135]
d̪ u ʈ a k a p a b i k i ʃ e ɾ 
[328.105]
<no-speech> 
[331.275]
k i b o l̪ l̪ i o t̪ o t̪ u i d̪ i b i o k e 
[334.335]
<no-speech> 
[338.565]
<no-speech> 
[338.925]
<no-speech> 
[340.155]
e p a w ə ɾ f u l̪ k o ɾ b i 
[341.865]
<no-speech> 
[342.685]
t̪ o t̪ u i d̪ i b i o k e t̪ o k e k o ɾ t̪ e t̪ o k e e s e m e s ɖ i l̪ i ʈ k o ɾ t̪ e d̪ i l̪ o b o l̪ e t̪ u i d̪ i b i d̪ u i ʈ a k a 
[347.705]
<no-speech> 
[348.995]
a ɾ t̪ u i o ɾ e s e m e s i u ʤ k o ɾ b i o i ʤ o n̪ n̪ o d̪ i b e ʈ a k a o d̪ i b e ʈ a k a 
[353.065]
<no-speech> 
[355.405]
<laugh> <breath> t̪ o ɾ p a g o l̪ e ɾ p a l̪ l̪ a e p ɔ ɾ a g æ ʧh e 
[358.465]
<no-speech> 
[360.195]
h ũ h æ̃ 
[360.925]
<no-speech> 
[364.315]
ʈ a k a ɾ n̪ a b a b a ʈ a k a ɾ g a ʧh l̪ a g a ʃ n̪ a i n̪ a ʈ a k a n̪ a h o i l̪ e kh u ʧ ɾ a p ɔ e ʃ a l̪ a g a i l̪ e o h ɔ b e b o l̪ e d̪ i e ʧh e <laugh> 
[369.545]
<no-speech> 
[370.655]
<breath> h æ l̪ o 
[371.945]
<no-speech> 
[373.755]
t̪ a ɾ p ɔ ɾ e b ɔ l̪ p ɔ ɾ a ʃ u n̪ a k æ m o n̪ ʧ o l̪ ʧh e 
[375.755]
<no-speech> 
[379.465]
h ũ 
[380.045]
<no-speech> 
[380.885]
k æ n̪ o ɾ e 
[381.645]
<no-speech> 
[382.905]
p ɔ ɾ a ʃ o n̪ a k o ɾ t̪ e h ɔ b e t̪ o 
[384.145]
<no-speech> 
[386.805]
k æ n̪ o o 
[387.785]
<no-speech> 
[389.085]
æ 
[390.245]
<no-speech> 
[393.465]
d̪ e kh t̪ e p a ɾ b o 
[394.395]
<no-speech> 
[396.315]
p ɔ ɾ a ʃ o n̪ a kh a ɾ a p ʧ o l̪ ʧh e d̪ æ kh e t̪ a l̪ e d̪ e kh t̪ e p a ɾ b o k æ m o n̪ k o ɾ e d̪ e kh t̪ e p a ɾ b o 
[399.145]
<no-speech> 
[404.425]
o n̪ a n̪ a b o l̪ t̪ e ʧh i k æ n̪ o kh a ɾ a p ʧ ɔ l̪ t̪ e ʧh e k æ n̪ o 
[406.885]
<no-speech> 
[411.905]
h u m 
[412.735]
<no-speech> 
[413.535]
t̪ a ɾ p ɔ ɾ e æ kh o n̪ k i k ɔ ɾ a h ɔ b e gh ɔ ɾ m u ʧh e s n̪ a n̪ 
[415.735]
<no-speech> 
[420.205]
k o t̪h a o gh u m a b e n̪ a k i 
[421.625]
<no-speech> 
[425.825]
kh a b e n̪ n̪ a 
[426.435]
<no-speech> 
[429.145]
o k ɔ ʈ a t̪h e k e 
[430.955]
<no-speech> 
[436.795]
n̪ a k ɔ ʈ a ɾ ʃ o m ɔ e p ɔ ɾ a n̪ o 
[438.275]
<no-speech> 
[442.645]
<no-speech> 
[443.455]
<no-speech> 
[446.265]

[447.085]
<no-speech> 
[450.005]
a m a ɾ a ɾ a i ʈ a t̪h e k e p ɔ ɾ p ɔ ɾ t̪ i n̪ ʈ a ʈ j u ʃ ə n̪ 
[453.065]
<no-speech> 
[456.825]
n̪ a k æ n̪ o 
[457.885]
<no-speech> 
[462.655]
t̪ a i o i k ɔ m p i u ʈ a ɾ e ɾ b æ p a ɾ n̪ a o i ʤ o n̪ n̪ o 
[464.925]
<no-speech> 
[470.715]
h ũ t̪ a ɾ p ɔ ɾ k o n̪ k o n̪ ʧh a t̪ ɾ o b ɔ l̪ k o n̪ k o n̪ k l̪ a s a ʧh e e i ʈ a ʧh e n̪ a 
[475.175]
<no-speech> 
[478.165]
t̪ a h o l̪ e b ɔ l̪ e p l̪ ə s b ɔ e d̪ i ɾ gh o i h ɔ l̪ s k o e a ɾ e ɾ ʃ u t̪ ɾ o b ɔ l̪ 
[480.255]
<no-speech> 
[482.865]
e p l̪ ə s b ɔ e d̪ i ɾ gh o i h ɔ l̪ s k o e a ɾ e ɾ ʃ u t̪ ɾ o 
[484.625]
<no-speech> 
[489.015]
e p l̪ ə s b ɔ e d̪ i ɾ gh o i h ɔ l̪ ɔ s k o a ɾ e ɾ ʃ u t̪ ɾ o b ɔ l̪ 
[491.175]
<no-speech> 
[493.665]
h ũ 
[494.215]
<no-speech> 
[495.875]
e m a ʧh ɔ e ɾ o ʃ ʃ i ʧh ɔ e ɾ o ʃ ʃ i ʧh ɔ e ɾ o ʃ ʃ i k i k ɔ t̪h a 
[497.995]
<no-speech> 
[499.345]
p a ɾ i n̪ a b o l̪ l̪ e ʧ o l̪ b e n̪ a t̪ o <int> 
[501.885]
<no-speech> 
[504.385]
a m i t̪ o n̪ a i a m a ɾ ʧh a e i n̪ e i <laugh> 
[507.855]
<no-speech> 
[508.775]
<int> h æ l̪ o 
[510.735]
<no-speech> 
[513.264875]
a m a ɾ ʧh a t̪ ɾ o n̪ e i t̪ o 
[514.925]
<no-speech> 
[519.175]
<no-speech> 
[519.605]
<no-speech> 
[520.755]
a m i ʃ u ɾ e ʃ u ɾ e k ɔ t̪h a ʃ i kh a i <laugh> 
[523.175]
<no-speech> 
[526.305]
<no-speech> 
[526.865]
<no-speech> 
[528.155]
k i k ɔ e <laugh> t̪ o d̪ e ɾ ʤ a ʤ l̪ a bh a i 
[531.915]
<no-speech> 
[533.155]
<laugh> e ɾ ɔ k o m k o ɾ l̪ e h ɔ b e m æ ɖ a m d̪ e ɾ <int> 
[536.355]
<no-speech> 
[541.505]
a m i b a ɾ i n̪ a e ph e m ʤ ɔ kh o n̪ t̪ ɔ kh o n̪ ʃ e ʃ h o i a ʤ a i t̪ e p a ɾ e k ɔ l̪ ʈ a b u ʤh ʧh i ʃ 
[544.865]
<no-speech> 
[547.735]
h ũ d̪ ɔ ʃ m i n̪ i ʈ h o i a g e l̪ e k a ʈ h o e ʤ a b e 
[550.135]
<no-speech> 
[550.975]
t̪ o ɾ n̪ a ɾ a t̪ ɾ e b æ l̪ a a m i ph o n̪ k o ɾ e t̪ ɔ kh o n̪ n̪ a i t̪ o t̪ ɔ kh o n̪ m a ɾ b o 
[553.905]
<no-speech> 
[558.425]
<breath> b o ɾ u n̪ ʤ o d̪ i k e ʈ e ʤ a e h ɔ ʈh a t̪ k o ɾ e t̪ a h o l̪ e b a k i ʃ ɔ e t̪ a n̪ i ʈ a a m i ɾ a t̪ ɾ e b æ l̪ a ph o n̪ k o ɾ e m a ɾ b o 
[564.365]
<no-speech> 
[567.245]
h ũ 
[567.785]
<no-speech> 
[569.875]
n̪ a ʧ b e p o ɾ e 
[570.695]
<no-speech> 
[572.045]
o k i a m a ɾ ʧh o ʈ o 
[573.145]
<no-speech> 
[581.245]
o 
[581.945]
<no-speech> 
[584.285]
æ kh o n̪ ʧ a n̪ k o ɾ b o t̪ a ɾ p ɔ ɾ e kh a b o d̪ a b o m o n̪ e h ɔ e gh u m h ɔ b e n̪ a gh u m e ɾ ʈ a i m ʧ o l̪ e ʤ a ʧ ʧh e 
[589.775]
<no-speech> 
[591.375]
kh e t̪ e a ʃ b e a ɾ a i ʈ a e 
[592.715]
<no-speech> 
[597.755]
b u ʤh l̪ e n̪ 
[598.455]
<no-speech> 
[599.66]
