[0.0]
<no-speech> 
[3.175]
h æ l̪ o t̪ ɔ n̪ ɔ e 
[4.145]
<no-speech> 
[6.535]
a ʧ ʧh a ʃ o n̪ o k a l̪ k e t̪ o m a ɾ ʧ e h a ɾ a a g e b ɔ l̪ t̪ o t̪ o m a ɾ k i h o e ʧh e 
[10.445]
<no-speech> 
[17.885]
k ɔ b e t̪h e k e 
[18.665]
<no-speech> 
[20.495]
<no-speech> 
[20.975]
<no-speech> 
[21.955]
k ɔ b e t̪h e k e 
[22.645]
<no-speech> 
[26.245]
a ʤ k e k i ɔ b o s t̪h a 
[27.455]
<no-speech> 
[30.785]
<no-speech> 
[31.395]
<no-speech> 
[42.235]
h æ̃ 
[42.675]
<no-speech> 
[48.435]
ɖ a k t̪ ə ɾ d̪ e kh i e ʧh o 
[49.505]
<no-speech> 
[51.425]
<no-speech> 
[52.135]
<no-speech> 
[54.015]
<oov> <no-speech> 
[61.495]
b o l̪ ʧh i ʤ a d̪ o b p u ɾ e ʃ u l̪ e kh a a ʧh e n̪ a ʃ u l̪ e kh a 
[63.685]
<no-speech> 
[66.125]
ʃ u l̪ e kh a ɾ o kh a n̪ e æ k ʈ a l̪ o k n̪ a t̪h m o n̪ d̪ i ɾ a ʧh e ɾ a s t̪ a ɾ o p o ɾ e 
[69.325]
<no-speech> 
[72.395]
<sta> oi l̪ o k n̪ a t̪h m o n̪ d̪ i ɾ e t̪ e a m i k a l̪ k e ʤ a b o 
[75.105]
<no-speech> 
[76.055]
d̪h o ɾ b a ɾ o ʈ a ʃ a ɾ e b a ɾ o ʈ a n̪ a g a d̪ a m i p oũ ʧh e ʤ a b o 
[78.665]
<no-speech> 
[80.905]
o kh a n̪ e i k a l̪ k e ʧ e n̪ ʤ k o ɾ b o 
[82.415]
<no-speech> 
[86.775]
a ɾ t̪ u m i ʤ a b e a ɾ ʃ ou bh i k ʤ a b e a ɾ ʃ ou m i t̪ t̪ ɾ o ʤ a b e 
[91.435]
<no-speech> 
[92.415]
<sta> a ɾ t̪ u m i æ k ʈ u ʃ u d̪ i p t̪ a k e ph o n̪ e b o l̪ e d̪ i t̪ e p a ɾ b e ʃ u d̪ i p t̪ a æ k ʈ u n̪ ɔ kh ɾ a ʧ ɔ k ɾ a k o ɾ ʧh e o ɾ i p o ɾ ʈ i ŋ ʈ a i m e a ʃ ʧh e n̪ a k a ʤ k ɔ ɾ e n̪ i k i ʃ ɔ k a l̪ b æ l̪ a ph o n̪ k ɔ ɾ a a m a k e ph o n̪ 
[104.305]
k ɔ ɾ a ɾ k ɔ t̪h a ʧh i l̪ o a m a k e o ph o n̪ k o ɾ t̪ e bh u l̪ e g æ l̪ o e b a ɾ b i k e l̪ b æ l̪ a ɾ i p o ɾ ʈ i ŋ ʈ a i m e ɔ ph i s e e l̪ o n̪ a t̪ a ɾ p ɔ ɾ e ɾ a t̪ ɾ i b æ l̪ a ph o n̪ k o ɾ e æ k ʈ u a g e b o l̪ ʧh e <sta> a m a d̪ e ɾ ʧh ɔ ʈ a ɾ p o ɾ e æ kh o n̪ a ɾ ɾ i p o ɾ ʈ k ɔ ɾ a ʤ a ʧ ʧh e n̪ a ɔ ph i s e 
[116.115]
<sta> æ k ʈ u p o ɾ e ph o n̪ k o ɾ e b o l̪ ʧh e a m i t̪ o a ʤ k e ph i l̪ ɖ k o ɾ i n̪ i ph o n̪ k o ɾ t̪ e bh u l̪ e g e ʧh i a m i ʤ a b o k w e s ʧ e n̪ g u l̪ o d̪ e b e n̪ ʈ ɔ p i k e u ʈh b o n̪ a t̪ ɔ l̪ a e a m i b o l̪ l̪ a m t̪ ɔ l̪ a e t̪ o k e k e d̪ e b e 
[125.515]
<no-speech> 
[126.325]
t̪ ɔ l̪ a t̪ e t̪ o k e k o s ʧ e n̪ e a ɾ ʈ a k e d̪ e b e b ɔ l̪ a m i t̪ o d̪ e b n̪ a e b a ɾ t̪ o k e d̪ e b o b ɾ o t̪ o b a t̪ ɔ m a l̪ d̪ a k e ph o n̪ k ɔ ɾ o ɾ a ʤ o d̪ i b o l̪ e ʃ u d̪ i p t̪ a t̪ ɔ l̪ a e a ʧh e o k e k o s ʧ e n̪ e a ɾ d̪ a o t̪ a h o l̪ e a m i d̪ e b n̪ a h o l̪ e t̪ o a m i d̪ i t̪ e p a ɾ b o n̪ a 
[137.815]
k æ n̪ o a m a k e ʧ a k ɾ i n̪ i e ʈ a n̪ a ʈ a n̪ i k o ɾ e d̪ e kh ʧh e b o l̪ ʧh e ʤ e ʧ a ɾ ʈ e ɾ m o d̪ d̪h e ɾ i p o ɾ ʈ i ŋ ɾ a kh b e <sta> ʧ a ɾ ʈ e t̪h e k e ʧh ɔ ʈ a m æ k s i m ə m t̪ a ɾ p ɔ ɾ e b e ɾ i e ʃ a ɾ e ʧh ɔ ʈ a ɾ p o ɾ e 
[147.975]
<no-speech> 
[150.545]
<sta> n̪ a k a l̪ t̪ o m ɾ a ɔ ph i s e a ʃ b e n̪ a t̪ o m ɾ a ɔ ph i s e a ʃ b e p o ɾ ʃ u d̪ i n̪ 
[157.145]
<no-speech> 
[159.745]

[160.455]
<no-speech> 
[165.715]
a m i æ kh o n̪ ɔ ph i s t̪h e k e ʤ a s ʈ b e ɾ i e ʧh i ʤ a s ʈ <sta> æ kh o n̪ b i ʃ ɔ e ʈ a h o ʧ ʧh e t̪ o m a ɾ k a ʧh e k ɔ t̪ o b l̪ æ ŋ k p e p ə ɾ a ʧh e b ɔ l̪ 
[171.305]
<no-speech> 
[174.285]
k ɔ ʈ a 
[174.865]
<no-speech> 
[176.795]
k ɔ ʈ a 
[177.265]
<no-speech> 
[183.935]
u n̪ i ʃ k u ɾ i ʈ a a ʧh e 
[185.025]
<no-speech> 
[187.795]
ʃ e m o ʈ a m u ʈ i b ɔ l̪ u n̪ i ʃ n̪ a <sta> k i 
[190.945]
<no-speech> 
[193.555]
m a n̪ e k a l̪ p o ɾ ʃ u m ɔ t̪ ph i l̪ ɖ k ɔ ɾ a ɾ p e p ə ɾ a ʧh e t̪ o 
[196.055]
<no-speech> 
[197.345]
k a l̪ p o ɾ ʃ u e b ɔ ŋ t̪ a ɾ p o ɾ e ɾ d̪ i n̪ t̪ i n̪ d̪ i n̪ e ɾ m ɔ t̪ p e p ə ɾ a ʧh e t̪ o 
[200.745]
<no-speech> 
[203.175]
ʈh i k a ʧh e t̪ a h o l̪ e i h ɔ b e t̪ i n̪ d̪ i n̪ e ɾ m ɔ t̪ p e p ə ɾ t̪h ɔ e a k a ɾ <no-speech> 
[208.865]
k a l̪ k e ʃ u l̪ e kh a e ʤ a b o o t̪ u m i æ k ʈ u a g e g i e k i ʧh u i n̪ ʈ ə ɾ v j u k o ɾ e n̪ e b e 
[213.945]
<no-speech> 
[214.805]
ʈh i k a ʧh e a m a ɾ ʤ o n̪ n̪ o <hes> æ k ʈ a k a ʤ k o ɾ b e a m i g e l̪ e e ʈ a k o ɾ b e n̪ a t̪ u m i ʃ ɔ k a l̪ b æ l̪ a e ʤ e ɾ ɔ m ʤ a o a ɾ ʤ a b e g i e k i ʧh u i n̪ ʈ ə ɾ v j u k o ɾ e n̪ e b e d̪h o ɾ e ɾ a kh b e b a ɾ o ʈ a ʃ a ɾ e b a ɾ o ʈ a ɾ m o d̪ d̪h e a m i p oũ ʧh o b o <sta> ʃ ou bh i k k e o a m a ɾ t̪ a i b ɔ l̪ a a ʧh e 
[226.225]
t̪ o ɾ a t̪ o d̪ e ɾ m ɔ t̪ k o ɾ b i <sta> a m a ɾ k ɔ e k ʈ a i n̪ ʈ ə ɾ v j u t̪ u l̪ e ɾ e kh e d̪ i b i 
[229.715]
<no-speech> 
[230.725]
b a k i ʈ a t̪ o ɾ a k ɔ ɾ o n̪ a ʃ ɔ k a l̪ b æ l̪ a e g i e a ɾ o m bh o k ɔ ɾ k i ʧ ʧh u ʤ a e a ʃ e n̪ a 
[233.905]
<no-speech> b ɔ e ʃ u n̪ n̪ o ɾ ɔ m o d̪ d̪h e ʤ ɔ t̪ o g u l̪ o e m ʈ i e s p a b o ʈ a ʈ a i n̪ ɖ i k ɔ m p a b o ʤ a p a b o ʃ e t̪ u m i bh a ɾ a e d̪ i t̪ e h o l̪ e d̪ e kh t̪ e e s <sta> e m ʈ i e s k o ɾ e ʧ o l̪ e e s ʈ a ʈ a i n̪ ɖ i k ɔ m k o ɾ e ʧ o l̪ e a ʃ t̪ e p a ɾ k o n̪ o ɔ ʃ u b i d̪h e n̪ e i 
[243.055]
<no-speech> 
[245.365]
kh a l̪ i æ k ʈ a ʃ u d̪ i p t̪ a k e æ k b a ɾ ph o n̪ k o ɾ e b o l̪ e d̪ i o ʤ e a m ɾ a k a l̪ k e ʃ u l̪ e kh a e ʤ a b o l̪ o k n̪ a t̪h m o n̪ d̪ i ɾ a ɾ d̪ u p u ɾ b æ l̪ a e o kh a n̪ e kh i ʧ u ɾ i ʈ i ʧ u ɾ i kh a o a e a m a d̪ e ɾ æ k ʤ o n̪ i n̪ ʈ a ɾ v j u a ɾ kh ɔ b o ɾ d̪ i e ʧh e k a l̪ k e o kh a n̪ e kh i ʧ u ɾ i ʈ i ʧ u ɾ i kh a o a b e l̪ o k ɾ a 
[256.225]
<sta> t̪ o d̪ u p u ɾ b æ l̪ a ʈ a o kh a n̪ e kh a b o bh a b ʧh i 
[259.294875]
<no-speech> 
[261.345]
a b a ɾ e i ʃ ɔ b k o ɾ t̪ e k o ɾ t̪ e i a m a d̪ e ɾ b e ʃ k i ʧh u ʈ a ʃ o m ɔ e ʧ o l̪ e ʤ a b e a m a d̪ e ɾ ʃ o m ɔ e ʤ e i n̪ ʈ ə ɾ v j u a ʧh e ʃ e g u l̪ o h o e ʤ a b e p o ɾ e b i k e l̪ b æ l̪ a ʈ a o a m a ɾ h a t̪ e a ʧh e b i k e l̪ b æ l̪ a ʈ a ʤ a h ɔ l̪ h ɔ l̪ 
[272.905]
k o ɾ e t̪ o m a d̪ e ɾ ʧh e ɾ e d̪ e b a m i o kh a n̪ t̪h e k e <sta> oi p ã ʧ n̪ ə m b ə ɾ ph ã ʧ n̪ ə m b ə ɾ k i ʧh u æ k ʈ a b a ʃ d̪h o ɾ e ɔ ph i s e t̪ o ɖh u k ʧh i n̪ a ʃ e ʈ a b a ʃ d̪h o ɾ e ʃ o ʤ a b a ɾ i ʧ o l̪ e 
[281.725]
<no-speech> 
[282.665]
a ɾ t̪ o m a ɾ o ʈ a m i ɖ i l̪ p oi n̪ ʈ ʃ ou bh i k e ɾ o m i ɖ i l̪ p oi n̪ ʈ ʃ ou m i t̪ ɾ o ɾ o m i ɖ i l̪ p oi n̪ ʈ k a ɾ u ɾ b a ɾ i ɾ d̪ o ɾ g o ɾ a d̪ i l̪ a m n̪ a 
[290.025]
<no-speech> 
[292.655]
<sta> o ɾ a b e h a l̪ a t̪h e k e a ʃ b e ʃ ou m i t̪ t̪ ɾ o t̪h a k e ʃ o d̪ p u ɾ e ʃ o d̪ p u ɾ t̪h e k e ʤ a d̪ o b p u ɾ e a ʃ b e ʃ ou bh i k t̪h a k b e a ɾ n̪ i t̪ a a ʧh e o h ɔ e t̪ o b i k e l̪ e ɾ d̪ i k e s ou t̪h e k o t̪h a o ʤ o d̪ i k o n̪ o k a ʤ t̪h a k e b i k e l̪ e ɾ d̪ i k e o ʤ a d̪ o b p u ɾ e ɖh u k b e 
[304.565]
<sta> ʈh i k a ʧh e <no-speech> a ɾ d̪ e kh i e i ɾ ɔ k o m æ k ʈ a p l̪ æ n̪ k o ɾ l̪ a m a ɾ m o ʈ a m u ʈ i ʤ a b æ k ʧ e k p e p ə ɾ h ɔ b e ʃ e g u l̪ o ʧ e ʃ ʈ a k o ɾ b e ʤ e k ɔ ɾ a t̪h a k b e a ɾ oi k e s 
[316.345]
kh a b o n̪ a b o h u t̪ b ɔ ɾ o k e s d̪ i t̪ o m a n̪ e d̪ æ kh e kh e ʈ e g e ʧh i b i ɾ a ʈ k e s p e e ʤ e t̪ a m t̪ o m ɾ a p u ɾ o n̪ o ʧh e l̪ e n̪ i ʤ e ɾ n̪ i ʤ e ɾ ʃ a b d̪h a n̪ e n̪ i ʤ e ɾ a k a ʤ k o ɾ b e 
[325.615]
<no-speech> 
[326.625]
<sta> a ɾ k i b o l̪ b o ʃ o ɾ i ɾ e ɾ æ k ʈ u ʤ ɔ t̪ n̪ o ph ɔ t̪ n̪ o n̪ a o 
[329.355]
<no-speech> 
[330.385]
<sta> m a ɾ k e ʈ ph a ɾ k e ʈ e k a ʤ k o ɾ t̪ e g e l̪ e ʃ o ɾ i ɾ a g e 
[333.035]
<no-speech> 
[334.795]
t̪ a i n̪ a 
[335.395]
<no-speech> 
[338.265]
<sta> h æ̃ æ kh o n̪ t̪ o æ k d̪ i n̪ ɔ n̪ t̪ o ɾ æ k d̪ i n̪ ɾ i p o ɾ ʈ i ŋ a m i a b a ɾ b e ʃ i k o ɾ e k o ɾ ʧh i n̪ a ɾ o ʤ d̪ i t̪ e p a ɾ b o n̪ a d̪ u d̪ i n̪ e ɾ m o d̪ d̪h e a m a e k o ɾ t̪ e a ʃ ʧh i l̪ o 
[344.935]
<no-speech> 
[346.415]
<sta> k o s ʧ e n̪ e a ɾ o ɾ a d̪ i ʧ ʧh e i n̪ a b o l̪ ʧh e ʤ e t̪ o ɾ ɾ i p o ɾ ʈ i ŋ ɖ e ʈ e t̪ o k e ʤ e k ɔ ʤ o n̪ a ʃ b e t̪ a d̪ e ɾ e i k ɔ ʈ a k o s ʧ e n̪ e a ɾ d̪ u d̪ i n̪ e ɾ ph i l̪ ɖ k ɔ ɾ a ɾ 
[354.025]
<no-speech> 
[354.825]
<sta> e b a ɾ t̪h a k b e d̪ u d̪ i n̪ ph i l̪ ɖ k o ɾ e ʤ e ɔ ph i s e a ʃ b e t̪ a ɾ k o s ʧ e n̪ e a ɾ h ɔ b e e b a ɾ a m a k e t̪ o m a n̪ e ʃ u d̪h u a m a k e b o l̪ e n̪ a ʃ ɔ b a i k a ɾ i e ɾ ɔ k o m bh a b e h a t̪ p a m e ɾ e d̪ i k 
[362.565]
<no-speech> 
[363.375]
a m a ɾ p e ʧh o n̪ e ʤ o d̪ i d̪ u d̪ i n̪ e ɾ k a ʤ k o ɾ e d̪ ɔ ʃ ʈ a h ɔ e t̪ a h o l̪ e p ɔ n̪ ʧ a ʃ ʈ a p e p ə ɾ d̪ i l̪ a m k ɔ ʤ o n̪ ɾ i p o ɾ ʈ i ŋ e ʃ ʧh e d̪ æ kh o <int> b æ l̪ e n̪ s p e p ə ɾ a m a e ph e ɾ o t̪ d̪ e 
[369.485]
<no-speech> 
[370.375]
k a k e k ɔ ʈ a d̪ i e ʧh i ʃ t̪ o ɾ a l̪ i kh e ɾ a kh e i m a n̪ e p i k j u l̪ j a ɾ ʃ ɔ b k i ʧh u i ʈ a n̪ a ʈ a n̪ a k o ɾ ʧh i <int> æ kh o n̪ k i ʧh u i k ɔ ɾ a ɾ n̪ e i k i s i s ʈ e m e ɾ b a i ɾ e t̪ o k e u n̪ ɔ e ɔ n̪ e k h a u ʤ e e ɾ ɔ k o m bh a b e i k a ʤ h ɔ e ʈh i k a ʧh e a m i bh a b b o 
[382.185]
ʤ e e i n̪ o t̪ u n̪ h a u ʤ e e ʃ ʧh i ʤ e <oov> ʤ a n̪ i o m a m i m e n̪ e ʧ o l̪ b o t̪ o m a k e o m e n̪ e ʧ o l̪ t̪ e h ɔ b e 
[386.785]
<no-speech> 
[388.165]
t̪ o k i ʧh u k ɔ ɾ a ɾ n̪ e i t̪ o t̪ a ɾ m a ʤh kh a n̪ e ʃ o ɾ i ɾ ph ɔ ɾ i ɾ ʈh i k n̪ a ɾ a kh l̪ e k a ʤ k ɔ ɾ a kh u b m u ʃ k i l̪ t̪ o m a ɾ kh e t̪ ɾ e a m a ɾ kh e t̪ ɾ e ʃ ɔ b a ɾ a ɾ g ɔ n̪ ɖ o ʃ o ɾ i ɾ e ɾ g ɔ n̪ ɖ ɔ g o l̪ h o l̪ e t̪ u m i a g e a g e kh ɔ b o ɾ d̪ i e d̪ e b e 
[397.835]
<no-speech> 
[398.805]
m a n̪ e ʃ o n̪ d̪h e b æ l̪ a e p a ɾ i p o ɾ ʈ i ŋ e i e l̪ o n̪ a ph o n̪ k o ɾ ʧh i t̪ ɔ kh o n̪ b o l̪ ʧh e ʃ o ɾ i ɾ kh a ɾ a p e ʈ a ʤ e n̪ o n̪ a h ɔ e <sta> a m a ɾ ʃ o ɾ i ɾ kh a ɾ a p h o t̪ e p a ɾ e a m a ɾ b a ɾ i ɾ p a ʃ e k e u m a ɾ a ʤ e t̪ e p a ɾ e a m a ɾ a m i n̪ a o b e ɾ o t̪ e p a ɾ i a m i ʤ e ʈ a b o l̪ ʧh i ʃ o n̪ o n̪ a 
[410.495]
k i ɾ ɔ m b o l̪ ʧh i e i ʤ e ʃ ɔ k a l̪ b æ l̪ a e t̪ u m i e ʈ a i n̪ ph ɔ ɾ m k o ɾ e d̪ a o ʤ e a m a ɾ ʃ o ɾ i ɾ kh a ɾ a p b o l̪ e a m i b e ɾ o t̪ e p a ɾ i n̪ i g ɔ t̪ o k a l̪ o p a ɾ i n̪ i a ʤ k e o p a ɾ i n̪ i k i n̪ t̪ u ɾ i p o ɾ ʈ i ŋ ʈ a i m e ʃ e e l̪ o n̪ a b o l̪ e ph o n̪ k o ɾ e ʤ a n̪ b o e ʈ a <sta> ʤ e n̪ o n̪ a h ɔ e t̪ o m a ɾ kh e t̪ ɾ e a m a ɾ kh e t̪ ɾ e ʃ ɔ b a ɾ kh e t̪ ɾ e a m a ɾ k o n̪ o p ɾ ɔ b l̪ e m h o t̪ e i p a ɾ e h o t̪ e i p a ɾ e e i i n̪ ph ɔ ɾ m ʈ a ʤ e n̪ o æ k ʈ a bh ɔ d̪ ɾ o s t̪h o ʈ a i m e ʃ ɔ k a l̪ b æ l̪ a e d̪ i e d̪ e o a h ɔ e 
[433.395]
<no-speech> 
[434.805]
<sta> t̪ a h o l̪ e ʃ e i o n̪ u ʤ a i p l̪ æ n̪ k o ɾ e n̪ e o a ʤ a b e ʤ e o t̪ o a ʃ b e n̪ a b o l̪ e i d̪ i e ʧh e a ɾ p ɾ o t̪ t̪ e k ʈ a b i ʃ ɔ e o ɾ a t̪h ə ɾ ɖ p a ɾ ʈ i ʧ e k k o ɾ i e l̪ o k b o ʃ i e ʧ e k k o ɾ ʧh e k ɔ ʤ o n̪ k a ʤ k o ɾ ʧh e a ʤ k e k ɔ ʤ o n̪ e ʃ e ʧh e k æ n̪ o b a k i ɾ a <sta> a ʃ e n̪ i t̪ u i k ɔ ʤ o n̪ k e ph o n̪ k o ɾ e ʧh i ʃ k æ n̪ o t̪ u i ph o n̪ k o ɾ i ʃ n̪ i t̪ a ɾ a k æ n̪ o ph o n̪ k ɔ ɾ e n̪ i t̪ a d̪ e ɾ ʤ o n̪ n̪ o æ t̪ o g u l̪ o k o s ʧ e n̪ e a ɾ d̪ i e ʧh i b a k i ʈ a a m a k e ph e ɾ o t̪ d̪ i e ʤ a e bh a b e t̪ o k a ʤ k ɔ ɾ a 
[457.935]
kh u b m u ʃ k i l̪ h a t̪ p a b ẽ d̪h e d̪ i l̪ e æ kh o n̪ k i ʧh u k i ʧh u h a u ʤ e n̪ a k i e ɾ ɔ k o m bh a b e i <sta> k a ʤ h ɔ e a ɾ ʈh i k a ʧh e a m i bh a b b o ʤ e e i h a u ʤ e a m i n̪ o t̪ u n̪ e ʃ e ʧh i e kh a n̪ k a ɾ n̪ i o m a m a k e m a n̪ t̪ e i h ɔ b e a m a ɾ t̪ o k i ʧh u k ɔ ɾ a ɾ n̪ e i 
[468.095]
<no-speech> 
[469.455]
n̪ i o m e ɾ t̪ o b a i ɾ e a m i n̪ a <int> t̪ u m i o n̪ a e i b ɔ e d̪ i ɾ gh o i s i ɖ ɔ e d̪ i ɾ gh o i k e u n̪ a 
[473.475]
<no-speech> 
[474.445]
<sta> b o l̪ e ɾ a kh l̪ a m ʤ e e i w i k ʈ a a m a ɾ p o k kh e k ɔ ɾ a kh u b k ɔ ʃ ʈ o k ɔ ɾ b o d̪h h ɔ e p a ɾ b o n̪ a p e m e n̪ ʈ ʤ o d̪ i n̪ a ɖh o k e k a l̪ p o ɾ ʃ u m o d̪ d̪h e 
[482.455]
<no-speech> 
[484.245]
a m a k e ʤ e m o n̪ ʧ a p m a ɾ b e a m i o u l̪ ʈ o d̪ i k d̪ i e ʧ a p m a ɾ b o 
[486.755]
<no-speech> 
[487.725]
b o l̪ l̪ o n̪ a k a l̪ p o ɾ ʃ u m o d̪ d̪h e p e m e n̪ ʈ e ʃ e ʤ a b e a m i b o l̪ l̪ a m ʃ e ʈ a t̪ o a m i ʤ a n̪ i n̪ a a m i k a l̪ k e a ʃ b o p o ɾ ʃ u d̪ i n̪ ʤ o d̪ i p e m e n̪ ʈ a ʃ e a m i ɔ ph i s e ɖh u k b o a d̪ a ɾ w a i z <sta> a ɾ a m i k i n̪ t̪ u ɖh u k b o n̪ a k a l̪ k e ʤ o d̪ i p e m e n̪ ʈ n̪ a a ʃ e a m i k i n̪ t̪ u p o ɾ ʃ u d̪ i n̪ p e m e n̪ ʈ a ʃ l̪ e 
[499.325]
ɖh u k b o a d̪ a ɾ w a i z a m i ɖh u k b o n̪ a a m a ɾ k a ʧh e <sta> p ɔ e ʃ a k o ɾ i n̪ e i a m i ph i l̪ ɖ e a ʃ b o bh ɔ d̪ ɾ o bh a b e b o l̪ e d̪ i l̪ a m b o l̪ ʧh e t̪ u m i ʧ i n̪ t̪ a k o ɾ e p l̪ æ n̪ k o ɾ e n̪ a o k e k i k o ɾ e ʧh e n̪ a k o ɾ e ʧh e t̪ u m i k o n̪ o kh ɔ b o ɾ 
[509.455]
<no-speech> 
[510.575]
b o l̪ e n̪ a n̪ a k a l̪ k e e ʃ e ʤ a b e a m i b o l̪ ʧh i ʈh i k a ʧh e k a l̪ k e a ʃ l̪ e a ʃ b e <sta> p o ɾ ʃ u a ʃ l̪ e a ʃ b e p o ɾ ʃ u n̪ a a ʃ l̪ e a m i a ʃ b o n̪ a k a l̪ k e a m i ɔ ph i s e a ʃ b o n̪ a p e m e n̪ ʈ e l̪ e ɔ ph i s e a ʃ b o p e m e n̪ ʈ n̪ e o a ɾ ʤ o n̪ n̪ e k o n̪ o ɔ ʃ u b i d̪h e n̪ e i 
[521.285]
<no-speech> 
[522.445]
<no-speech> 
[522.855]
<no-speech> 
[525.095]
<sta> t̪ u m i a m a ɾ ʃ o ŋ g e k ɔ t̪h a b a t̪ ɾ a h o e ʤ a o a ɾ p ɔ ɾ t̪ u m i ʃ u d̪ i p t̪ a k e b o l̪ b e k a l̪ k e a m ɾ a ʃ u l̪ e kh a e ph i l̪ ɖ k o ɾ b o ʃ ɔ k a l̪ b æ l̪ a e ʧ o l̪ e a ʃ b i ʃ u bh a ʃ i ʃ b o l̪ e ʧh e ʃ a ɾ e b a ɾ o ʈ a t̪h e k e æ k ʈ a ɾ m o d̪ d̪h e ʧ o l̪ e a e 
[534.175]
<no-speech> 
[535.555]
<sta> a ɾ oi ʃ ɔ b d̪ i n̪ n̪ e i t̪ u i ɾ i p o ɾ ʈ i ŋ ʈ a i m e ʤ o d̪ i n̪ a ʤ e t̪ e p a ɾ i ʃ t̪ a h o l̪ e a g e t̪h e k e b o l̪ e d̪ i b i a ɾ k a ɾ o n̪ o ɾ k i ʧh u k ɔ ɾ a ɾ n̪ e i o k e bh u l̪ b u ʤh e l̪ ə v n̪ e i t̪ u i k a ʤ n̪ a k o ɾ l̪ e 
[547.435]
<sta> t̪ o ɾ l̪ ɔ s t̪ u i k o ɾ l̪ e t̪ o ɾ l̪ ə v t̪ u i n̪ a k o ɾ l̪ e o n̪ n̪ o k e u k o ɾ e d̪ e b e bh a b i ʃ n̪ a k a u ɾ k i ʧh u k ɔ ɾ a ɾ n̪ e i a m a ɾ kh e t̪ ɾ e o ʤ a t̪ o ɾ kh e t̪ ɾ e o t̪ a ʃ ɔ b a ɾ kh e t̪ ɾ e o t̪ a i 
[555.805]
<no-speech> 
[558.755]
p ɔ̃ ʧ i ʃ ʈ a i n̪ ʈ ə ɾ v j u e ɾ ʤ o n̪ n̪ o a m a ɾ ɔ t̪ o m a t̪h a k a m ɾ a b a ɾ d̪ ɔ ɾ k a ɾ n̪ e i a m i æ k ʈ a l̪ o k k e d̪ i e e m n̪ i i p ɔ̃ ʧ i ʃ kh a n̪ a k o ɾ i e n̪ i t̪ e p a ɾ i <sta> a m i n̪ i t̪ a k e b o l̪ b o p ɔ̃ ʧ i ʃ e ɾ ʤ a e g a e p ɔ n̪ ʧ a ʃ ʈ a k o ɾ e d̪ e b e o k e d̪ i ɾ gh o d̪ i n̪ d̪h o ɾ e a m i p ɔ̃ ʧ i ʃ ʈ a i n̪ ʈ ə ɾ v j u d̪ ɔ e ɾ o ʃ ʃ i o e k d̪ i n̪ o 
[570.685]
b ɔ l̪ e n̪ a 
[571.095]
<no-speech> 
[576.025]
n̪ a n̪ a b æ p a ɾ ʈ a k i h o ʧ ʧh e ʃ o n̪ o b æ k l̪ ɔ g t̪ u m i b u ʤh t̪ e p a ɾ ʧh o n̪ a b æ k l̪ ɔ g e ʧ o l̪ ʧh e t̪ o t̪ a o ɾ a b o l̪ ʧh e ɖ e ɖ l̪ a i n̪ ʈ a k e k o m i e d̪ i ʧ ʧh e e b a ɾ ɖ e ɖ l̪ a i n̪ k o m i e k i k o ɾ e ʧh e l̪ o k b a ɾ i e d̪ i e ʧh e t̪ a l̪ o k b e ɾ e g e l̪ e ɖ e ɖ l̪ a i n̪ i n̪ e ɾ a g e k a ʤ ʃ e ʃ h ɔ b e ʃ ɔ b a i ʤ a n̪ e 
[587.065]
<no-speech> 
[588.205]
e i p o ɾ ʤ o n̪ t̪ o t̪ o e i p o ɾ ʤ o n̪ t̪ o t̪ o t̪ u m i ʈ e b ə l̪ w ə ɾ k k o ɾ ʧh o a ɾ a ʤ k e t̪ o a m i d̪ e kh i e ʧh i n̪ o t̪ u n̪ l̪ o k g u l̪ o k a ʤ i k o ɾ ʧh e n̪ a 
[593.485]
<no-speech> 
[594.365]
<sta> a ɾ a m a ɾ p u ɾ o n̪ o ʧh e l̪ e d̪ e ɾ k e t̪ u m i ʈ a i m k o m i e d̪ i e ʧh o 
[596.855]
<no-speech> 
[596.92]
