[0.0]
<no-speech> 
[0.835]
<no-speech> 
[1.185]
<no-speech> 
[2.405]
<no-speech> 
[3.835]
<no-speech> 
[5.545]
h æ l̪ o 
[6.235]
<no-speech> 
[8.004875]
<no-speech> 
[9.045]
<no-speech> 
[10.495]
k i k o ɾ ʧh i ʃ 
[11.855]
<no-speech> 
[13.755]
<no-speech> 
[15.185]
<no-speech> 
[16.855]
ʈ i v i d̪ e kh ʧh i 
[17.995]
<no-speech> 
[23.735]
e i t̪ o 
[24.415]
<no-speech> 
[25.945]
k o ɾ ʧh i l̪ a m t̪ o k o ɾ e ʈ ɔ ɾ e t̪ o ʈ i v i ʈ a d̪ e kh ʧh i l̪ a m t̪ o t̪ u i i ŋ l̪ i ʃ e <no-speech> 
[35.305]
i ŋ l̪ i ʃ e ʃ ɔ b k ɔ m p l̪ i ʈ h o e g æ ʧh e 
[37.015]
<no-speech> 
[43.115]
e i h o e ʧh e w ə ɾ ɖ m i n̪ i ŋ g u l̪ o h ɔ e n̪ i k w e s ʧ e n̪ g u l̪ o m o ʈ a m u ʈ i h o e ʧh e 
[47.295]
<no-speech> 
[50.125]
ʈh i k a ʧh e o i ʃ u k ɾ o b a ɾ ʧ a ɾ ʈ a ɾ ʃ o m ɔ e p ɔ ɾ a 
[55.775]
<no-speech> 
[58.575]
d̪ e kh ʧh i ʃ e i d̪ i n̪ a m a ɾ o æ k ʈ a e k s a m a ʧh e d̪ e kh ʧh i k i h ɔ e 
[63.145]
<no-speech> 
[64.324875]
b i o b i o bh i o 
[68.425]
<no-speech> 
[70.015]
h æ̃ 
[70.955]
<no-speech> 
[73.185]
k i h ɔ b e k e ʤ a n̪ e 
[74.255]
<no-speech> 
[76.855]
<sta> d̪ e kh ʧh i ʤ ɔ t̪ o kh a n̪ i p a ɾ b o p o ɾ e ʧh i t̪ o k o s ʧ e n̪ 
[81.145]
<no-speech> 
[82.015]
ʧ a ɾ ʈ e <sta> ʧ a ɾ ʈ e ɾ ʃ o m ɔ e t̪ a ʤ a b o k ɔ ʈ a ɾ ʃ o m ɔ e ʤ a b o k a l̪ k e 
[85.765]
<no-speech> 
[87.475]
d̪ e kh ʧh i a m i ʤ o d̪ i p a ɾ i ʤ a b o <no-speech> <int> t̪ u i ʤ a b i ʃ i o ɾ t̪ o 
[91.695]
<no-speech> 
[94.365]
p o ɾ t̪ e 
[95.215]
<no-speech> 
[98.445]
t̪ u i k i k i p o ɾ e ʧh i ʃ 
[100.845]
<no-speech> 
[104.355]
k i k i p o ɾ e ʧh i ʃ 
[105.225]
<no-speech> 
[106.415]
<no-speech> 
[106.765]
<no-speech> 
[116.345]
<no-speech> 
[116.825]
<no-speech> 
[118.585]
<no-speech> 
[119.655]
<no-speech> 
[121.215]
<no-speech> 
[121.655]
<no-speech> 
[123.875]
h æ̃ <hes> a m i o i d̪ æ kh e n̪ e b o æ k b a ɾ t̪ u i p u ɾ o ʈ a l̪ i kh e ʧh i ʃ n̪ o ʈ ʈ a 
[130.045]
<no-speech> 
[135.115]
a m i t̪ o æ k ʈ u æ k ʈ u b u ʤh l̪ a m m a ʤh kh a n̪ e ʃ ɔ b b ou n̪ s a ɾ ʧ o l̪ e g æ l̪ o <int> 
[139.035]
<no-speech> 
[141.175]
o i g æ ʧh e b ou n̪ s a ɾ 
[142.355]
<no-speech> 
[144.115]
i a ɾ k i m a ɾ ʧh i l̪ a m <sta> b ou n̪ s a ɾ ʧ o l̪ e g æ ʧh e ʃ ɔ b 
[147.235]
<no-speech> 
[149.545]
<no-speech> 
[149.895]
<no-speech> 
[151.005]
a ɾ e s ə ɾ a m a ɾ u p o ɾ kh o ʧ e g æ ʧh e o i ɔ bh i k b o l̪ e ʧh e n̪ a s ə ɾ d̪ e kh i a m a ɾ d̪ i k e g ɔ ʈ g ɔ ʈ k o ɾ e t̪ a k i e a ʧh e <laugh> 
[157.045]
<no-speech> 
[161.055]
a m i o k e <hes> o d̪ e kh i s ə ɾ k i æ k ʈ a b o l̪ e a p n̪ i n̪ i l̪ ɔ e d̪ e ɾ b a ɾ i ɾ ʃ a m n̪ e d̪ i e l̪ a ph a t̪ e l̪ a ph a t̪ e <laugh> b o l̪ e t̪ o s ə ɾ d̪ e kh i a m a ɾ d̪ i k e h ɔ ʈ k o ɾ e t̪ a k i e a ʧh e b o l̪ e k i b o l̪ l̪ e <no-speech> 
[178.955]
o b e ʃ i p a k a ʃ ɔ b k i ʧh u t̪ e i ʃ a h o ʃ <int> 
[182.835]
<no-speech> 
[187.275]
ʧ ɔ l̪ <sta> t̪h ə ɾ ʈ i f ə ɾ s ʈ ʈ i k e ʈ k o ɾ e ʧh i ʧ ɔ l̪ 
[189.675]
<no-speech> 
[191.185]
t̪h ə ɾ ʈ i ph a ɾ s ʈ e k i k o ɾ ʧh i ʃ <int> 
[193.845]
<no-speech> 
[196.245]
ʧ ɔ l̪ n̪ i k o p a ɾ k e ʤ a b i 
[197.485]
<no-speech> 
[200.305]
ʧ ɔ l̪ a m i t̪ u i ɾ ɔ m i t̪ b a b l̪ i 
[203.045]
<no-speech> 
[207.065]
b o n̪ d̪h u ɾ a m i l̪ e i ʤ a b o ʧ ɔ l̪ 
[208.735]
<no-speech> 
[210.345]
b o n̪ d̪h u ɾ a i ʤ a b o 
[212.345]
<no-speech> 
[214.615]
<no-speech> 
[215.135]
<no-speech> 
[217.855]
k i k o ɾ b i 
[218.825]
<no-speech> 
[219.625]
d̪ e kh ʧh i ʃ ɔ b a ɾ ʃ a t̪h e a g e ɖ i s k ə s k o ɾ e n̪ e i h æ̃ b a ɾ i t̪ e k o ɾ l̪ e o h ɔ e a b a ɾ ph i s ʈ k ɔ ɾ a h ɔ b e 
[225.125]
<no-speech> 
[228.325]
h æ̃ 
[228.915]
<no-speech> 
[231.185]
a m a ɾ b a ɾ i <no-speech> ɔ m i t̪ d̪ e ɾ b a ɾ i t̪ o h ɔ b e i n̪ a ɔ m i t̪ d̪ e ɾ b a ɾ i t̪ e p a ɾ ʈ i a ʧh e a m a d̪ e ɾ o b a ɾ i o m o n̪ e h ɔ e h ɔ b e n̪ a 
[239.135]
<no-speech> 
[239.935]
<sta> d̪ e kh ʧh i k i k ɔ ɾ a ʤ a e ʧ a p a ʧh e b u ʤh t̪ e p a ɾ ʧh i ʃ n̪ a <no-speech> a m a d̪ e ɾ b a ɾ i <no-speech> 
[250.265]
n̪ a n̪ a ʃ o n̪ a ɾ k o n̪ m ɔ t̪ e i n̪ a k æ n̪ s e l̪ e <int> p a g o l̪ n̪ a k i 
[254.555]
<no-speech> 
[257.895]
n̪ a n̪ a b o n̪ d̪h u k i n̪ t̪ u ɔ n̪ e k g u b l̪ e ʈ kh e e t̪h a k e 
[260.725]
<no-speech> 
[264.945]
<no-speech> 
[266.175]
<no-speech> 
[266.545]
<no-speech> 
[267.665]
ph ɾ i ʤ kh o l̪ a k e <sta> <no-speech> a ɾ e b o l̪ ʧh i ph ɾ i ʤ kh o l̪ a k e 
[274.615]
<no-speech> 
[276.465]
ph ɾ i ʤ ph ɾ i ʤ kh o l̪ a k e 
[278.445]
<no-speech> 
[282.255]
o i ʤ o n̪ n̪ e a m ɾ a ʧ a ɾ ʤ o n̪ i ʧh i l̪ a m 
[285.565]
<no-speech> 
[294.945]
<no-speech> 
[295.605]
<no-speech> 
[297.815]
<no-speech> 
[298.365]
<no-speech> æ k ʃ a t̪h e h o l̪ e t̪ o æ k ʈ u u t̪ ʃ a h i t̪ o h ɔ b e i 
[303.995]
<no-speech> 
[305.825]
h æ̃ ɔ m i t̪ e ɾ <laugh> p l̪ e n̪ e ʤ a o a k æ n̪ s e l̪ h o e g æ ʧh e 
[310.305]
<no-speech> <sta> h æ̃ ʤ a b e ʤ a b e 
[313.435]
<no-speech> 
[314.885]
h ɔ b a ɾ a g e b e ʃ i l̪ a ph a e o i ʤ o n̪ n̪ o õ ɾ k i ʧh u h ɔ e n̪ a 
[318.235]
<no-speech> 
[320.235]
<sta> h æ̃ 
[323.445]
<no-speech> 
[325.535]
i s k u l̪ <no-speech> k ɔ b e æ k t̪ a ɾ i kh e m o n̪ e h ɔ e ʤ a b o n̪ a a ɾ i s k u l̪ e <sta> p o ɾ e ɾ b ɔ ʧh o ɾ ʤ a b o a b a ɾ <laugh> m a n̪ e e i b ɔ ʧh o ɾ e a ɾ ʤ a b o n̪ a 
[337.445]
d̪ e kh i <no-speech> 
[340.145]
h æ̃ <no-speech> a ɾ i s k u l̪ e g i e k i h ɔ b e d̪ u m a ʃ b a k i a ɾ p o ɾ i k kh a ɾ k i ʧh u p ɔ ɾ a i h ɔ e n̪ i 
[349.635]
<no-speech> 
[353.955]
ʧh a b b i ʃ e ɖ i s e m b ə ɾ k i h o e ʧh i l̪ o 
[356.315]
<no-speech> 
[359.065]
k i h o e ʧh i l̪ o ʧh a b b i ʃ e ɖ i s e m b ə ɾ ʤ a n̪ i n̪ a t̪ o k i ʧh u 
[363.305]
<no-speech> 
[364.105]
<sta> ʧh a b b i ʃ e ɖ i s e m b ə ɾ k i <no-speech> 
[367.215]
h æ̃ 
[367.765]
<no-speech> 
[370.895]
<no-speech> 
[371.255]
<no-speech> 
[372.755]
h æ̃ 
[373.395]
<no-speech> 
[374.525]
h æ̃ <sta> 
[376.915]
<no-speech> 
[377.985]
<no-speech> 
[378.365]
<no-speech> 
[379.765]
t̪ o ɾ k æ m p e ɾ p i k ʧ a ɾ g u l̪ a a h <no-speech> 
[382.875]
<no-speech> 
[383.425]
<no-speech> 
[388.525]
k o ɾ l̪ e h ɔ e <int> 
[390.705]
<no-speech> 
[391.585]
k i n̪ t̪ u <hes> t̪ o ɾ ph æ ʈ t̪h e k e ɔ b ʤ e k ʃ ə n̪ ʤ a n̪ a b e n̪ a 
[394.795]
<no-speech> 
[396.355]
<no-speech> 
[397.485]
<no-speech> 
[403.165]
<no-speech> 
[409.695]
<no-speech> 
[416.225]
ʧ ɔ l̪ n̪ a k o t̪h a o ʤ a i n̪ i k o p a ɾ k e ʤ a b i ʧ ɔ l̪ 
[419.065]
<no-speech> 
[420.055]
<no-speech> 
[420.435]
<no-speech> 
[429.345]
<no-speech> 
[430.245]
a ɾ e ʤ e ʈ a b o l̪ ʧh i 
[431.025]
<no-speech> 
[431.845]
f ə ɾ s ʈ ʤ a n̪ w a ɾ i n̪ i k o p a ɾ k t̪h ə ɾ ʈ i ph a ɾ s ʈ e e m n̪ i a m ɾ a a ɖ ɖ a m a ɾ b o b o n̪ d̪h u ɾ a m i l̪ e 
[435.925]
<no-speech> 
[436.855]
<no-speech> 
[437.365]
<no-speech> 
[438.465]
e i i k o a m a d̪ e ɾ b a ɾ i ʧ o l̪ e a ʃ b e t̪ a h o l̪ e ɔ m i t̪ d̪ e ɾ b a ɾ i ph a k a t̪h a k b e n̪ a h o l̪ e k i ʧh u æ k ʈ a k o ɾ b o <no-speech> ʃ e ʈh i k h o e ʤ a b e a ɖ ɖ a m a ɾ b o 
[445.565]
<no-speech> 
[447.875]
t̪ a h o l̪ e a m a d̪ e ɾ b a ɾ i ʧ o l̪ e a ʃ b i 
[449.325]
<no-speech> 
[450.305]
t̪h ə ɾ ʈ i ph a ɾ s ʈ e 
[451.275]
<no-speech> 
[452.135]
h æ̃ 
[452.845]
<no-speech> 
[456.065]
ʃ ɔ k a l̪ t̪h e k e a ɾ k i k o ɾ b o d̪ e kh i k i k ɔ ɾ a ʤ a e a g e ʃ ɔ b a ɾ ʃ a t̪h e ɖ i s k ə s k o ɾ i 
[461.775]
<no-speech> 
[463.815]
a n̪ o n̪ d̪ o t̪ o k o ɾ t̪ e i h ɔ b e æ kh o n̪ i t̪ o a n̪ o n̪ d̪ o k ɔ ɾ a ɾ ʃ o m ɔ e 
[467.735]
<no-speech> 
[472.895]
h æ̃ t̪ u l̪ l̪ e t̪ u l̪ t̪ e p a ɾ i ʃ a m i a ɾ t̪h a k b o n̪ a <int> <no-speech> 
[478.215]
a m a k e t̪ u i ʈ a k a ɾ k e s kh a i e d̪ i e ʧh i ʃ a m i a ɾ ʈ a k a ɾ d̪ a i t̪ t̪ o n̪ e b o n̪ a ʤ a n̪ i b i t̪ u i n̪ i b i ʈ a k a ɾ d̪ a i t̪ t̪ o 
[483.485]
<no-speech> 
[489.885]
ʤ a i <int> 
[490.955]
<no-speech> 
[493.705]
<no-speech> 
[494.065]
<no-speech> 
[499.515]
k ɔ t̪ o k o ɾ e i e k i k o ɾ b i t̪ a h o l̪ e <no-speech> 
[507.735]
a m a d̪ e ɾ b a ɾ i t̪ e d̪ e kh ʧh i b a b a m o n̪ e h ɔ e t̪h a k b e n̪ a 
[511.205]
<no-speech> 
[515.855]
d̪ e kh ʧh i k i k ɔ ɾ a ʤ a e 
[518.055]
<no-speech> 
[520.355]
a ɾ k i k o ɾ b o <hes> n̪ i k o p a ɾ k e ʧ ɔ l̪ t̪h ə ɾ ʈ i ph a ɾ s ʈ e ʧ ɔ l̪ 
[525.375]
<no-speech> 
[526.535]
h æ̃ <no-speech> 
[530.355]
t̪ a h o l̪ e k o t̪h a e ʤ a b i <int> <no-speech> 
[537.735]
ʈh i k 
[538.285]
<no-speech> 
[540.775]
d̪ u d̪ i n̪ i b a ɾ i t̪ e a ɖ ɖ a m a ɾ b o t̪h ə ɾ ʈ i ph a ɾ s ʈ e f ə ɾ s ʈ ʤ a n̪ w a ɾ i <sta> 
[544.435]
<no-speech> 
[545.845]
d̪ u d̪ i n̪ i a ɖ ɖ a m a ɾ b o b a ɾ i t̪ e <no-speech> æ k d̪ i n̪ t̪ o b e ɾ u b o 
[550.805]
<no-speech> 
[558.895]
h æ̃ p u ɾ o ɾ i l̪ æ k s ʧh i l̪ a m s ə ɾ n̪ a <sta> ʧ a ɾ ʈ a ɾ ʃ o m ɔ e ph e l̪ e d̪ i l̪ a m a ɾ n̪ a p u ɾ o p ẽ ʧ i e g æ l̪ o 
[563.055]
<no-speech> 
[564.015]
<no-speech> 
[564.455]
<no-speech> 
[565.495]
a ɾ e i ŋ l̪ i ʃ e ɾ æ k ʈ a p o ɾ i k kh a ʈ a ph e l̪ e d̪ i l̪ æ m o n̪ ʈ a i m e <no-speech> ɾ i l̪ æ k s e ʧh i l̪ a m d̪ u ʈ o p o ɾ i k kh a a ʧh e ʧ a ɾ ʈ e t̪h e k e t̪ a o ʧh ɔ e ʈ a ʃ a ʈ ʈ a p o ɾ ʤ o n̪ t̪ o t̪ o p ɔ ɾ a b e i s ə ɾ a b a ɾ ʃ a ɾ e ʃ a ʈ ʈ a t̪h e k e p o l̪ l̪ i m o ŋ g o l̪ e ɾ b i e p o ɾ i k kh a p u ɾ o ʃ e i d̪ i n̪ ʈ a p u ɾ o h o e g æ l̪ o æ k d̪ o m 
[578.885]
<no-speech> 
[584.075]
<sta> b i ʃ ʃ o ʤ i t̪ s a ɾ ʈ a k e a b a ɾ 
[585.985]
<no-speech> 
[588.945]
<no-speech> o ʃ e i <hes> ɔ ʃ i m ph ɔ ʃ i m 
[594.315]
<no-speech> 
[595.325]
ɾ u m i <int> <no-speech> 
[598.875]
ɔ ʃ i m ɾ u m i o ɾ a p o ɾ ʧh e 
[600.215]
<no-speech> 
[600.28]
