[0.0]
<no-speech> 
[3.465]
<no-speech> 
[5.095]
<no-speech> 
[7.285]
h u m h æ l̪ o 
[8.355]
<no-speech> 
[10.835]
h æ̃ b ɔ l̪ 
[11.735]
<no-speech> 
[12.815]
k æ m o n̪ a ʧh o <int> 
[13.835]
<no-speech> 
[22.515]
k i ʃ e ɾ b æ p a ɾ e b ɔ l̪ 
[23.695]
<no-speech> 
[29.305]
e i ɾ e p ɾ o t̪h o m k ɔ t̪h a h o ʧ ʧh e g a ɾ g e l̪ k ɔ ɾ <breath> a ɾ <laugh> b æ t̪h a ʤ o d̪ i h ɔ e t̪ a h o l̪ e t̪ u i i e k ɔ ɾ l̪ a bh ɔ s i p ɾ a i ɾ i n̪ kh ɔ e a k a ɾ æ k ʈ a n̪ a h ɔ e t̪ o ɖ a k t̪ ə ɾ d̪ æ kh a t̪ i n̪ ʈ e ɾ m o d̪ d̪h e æ k ʈ a k o ɾ t̪ e p a ɾ i ʃ 
[40.515]
<no-speech> 
[41.525]
b u ʤh e ʧh i ʃ 
[42.295]
<no-speech> 
[49.395]
k ɔ ɾ n̪ a 
[50.165]
<no-speech> 
[52.985]
o ɔ ɖ i ʃ ɔ n̪ a m i t̪ o k e b o l̪ l̪ a m t̪ o a m i t̪ o k e k ɔ t̪ o g u l̪ o n̪ ə m b ə ɾ d̪ i e d̪ e b o t̪ o k e ʤ e t̪ e h ɔ b e <breath> t̪ o k e ɖ i ɾ e k ʈ ʤ e t̪ e h ɔ b e ʈh i k a ʧh e t̪ o k e ɔ ɖ i ʃ ə n̪ e ɾ k ɔ t̪h a b o l̪ l̪ a m t̪ o k e 
[62.165]
<no-speech> 
[63.985]
h æ̃ 
[64.404875]
<no-speech> 
[66.695]
k a k e n̪ a ɔ m n̪ a ʃ ɔ b a ɾ ʤ o n̪ n̪ o b o l̪ i ʃ n̪ a ɾ e a m a ɾ n̪ i ʤ e ɾ i h ɔ e n̪ i a ʤ p o ɾ ʤ o n̪ t̪ o 
[71.535]
<no-speech> 
[74.985]
a m a ɾ d̪ e t̪ o i s ʈ a ɾ ʤ ɔ l̪ ʃ a ɾ t̪ u i ph o n̪ n̪ ə m b ə ɾ ʈ a n̪ i e o k e ph o n̪ k o ɾ t̪ e b ɔ l̪ n̪ a ʤ e k o ɾ t̪ e ʧ a i b e t̪ a k e b o l̪ b i ɖ i ɾ e k ʈ ph o n̪ k ɔ ɾ 
[81.345]
<no-speech> 
[82.915]
t̪ u i ʃ ɔ b a ɾ d̪ a i t̪ t̪ o n̪ i ʃ n̪ a a m a d̪ e ɾ kh ɔ m o t̪ a k ɔ t̪ o ʈ u k u b ɔ l̪ a m i n̪ i ʤ e ɾ ʈ a i k o ɾ t̪ e p a ɾ ʧh i <int> h æ̃ t̪ o k e a m i kh ɔ b o ɾ p e l̪ e i p a ʈh i e d̪ e b t̪ u i g i e k ɔ t̪h a b o l̪ b i ʤ e d̪ i n̪ ɔ ɖ i ʃ ɔ n̪ t̪h a k b e 
[93.875]
a m a ɾ k a ʧh e kh ɔ b o ɾ e l̪ e i a m i t̪ o k e b o l̪ e d̪ e b t̪ u i g i e k ɔ t̪h a b o l̪ b i n̪ i ʤ e g i e k ɔ t̪h a b o l̪ b i 
[99.535]
<no-speech> 
[101.815]
h u m kh u b bh a l̪ o m a m a i e ɾ ɾ e z ə l̪ ʈ k i n̪ t̪ u ɔ n̪ e k d̪ i n̪ a g e b e ɾ i e ʧh e ɾ e k l̪ a s ʃ u ɾ u h o e g æ l̪ o e i t̪ o e l̪ a m 
[107.335]
<no-speech> 
[109.015]
<no-speech> 
[109.415]
<no-speech> 
[110.535]
h æ̃ m a m a i ɾ e z ə l̪ ʈ bh a l̪ o k o ɾ e ʧh e b e ʃ bh a l̪ o ɾ e z ə l̪ ʈ k o ɾ e ʧh e h u m a ɾ n̪ o t̪ u n̪ k l̪ a s e h æ̃ b ɔ l̪ 
[118.465]
<no-speech> 
[121.145]
ũ t̪ a o o ɾ <breath> f a i n̪ ə l̪ e kh u b bh a l̪ o e ʃ ʧh e i e t̪ e æ k ʈ u k ɔ m ʧh i l̪ o oi s e v e n̪ ʈ i e i ʈ m o t̪ o n̪ h ɔ b e o t̪ o i e t̪ e k ɔ m ʧh i l̪ o m a n̪ e ʤ e k l̪ a s ʈ e s ʈ g u l̪ o ʧh i l̪ o o t̪ e k ɔ m ʧh i l̪ o 
[132.935]
f a i n̪ ə l̪ e kh u b bh a l̪ o kh u b 
[134.785]
<no-speech> 
[138.765]
h u 
[139.295]
<no-speech> 
[149.605]
h u 
[150.015]
<no-speech> 
[160.515]
n̪ i ʃ ʧ ɔ e i a m i t̪ o t̪ o k e b o l̪ e ʧh i l̪ a m ʤ e t̪ ɔ e ɾ o ʃ ʃ u t̪ u i ʧh ɔ e e k a ɾ ph e ʃ i a l̪ ʈ a t̪ ɔ e ɾ o ʃ ʃ u t̪ u i ʤ o d̪ i ʤ a n̪ i ʃ t̪ a h o l̪ e 
[165.545]
<no-speech> 
[170.325]
k a l̪ k e i s k u l̪ e t̪ o ɾ k a ʧh e t̪h a k l̪ o h æ̃ t̪ u i t̪ a h o l̪ e p u ɾ o ʈ a k o ɾ t̪ e p a ɾ t̪ i ʃ h æ̃ 
[174.885]
<no-speech> 
[176.115]
h u 
[176.735]
<no-speech> 
[179.605]
h æ̃ t̪ u i a m i ʃ o n̪ t̪ o k e a m i b o l̪ ʧh i t̪ u i æ k ʈ a i s k ɾ a b a ɾ k i n̪ l̪ i æ k ʈ a i s k ɾ a b a ɾ n̪ i l̪ i æ k ʈ a f e s w a ʃ n̪ i l̪ i æ k ʈ a ʈ o n̪ a ɾ n̪ i l̪ i æ k ʈ a k ɾ i m n̪ i l̪ i b æ ʃ e i ʧ a ɾ ʈ e 
[191.195]
<no-speech> 
[200.05]
<no-speech> 
[208.905]
h æ̃ t̪ u i b i k e l̪ e a e ɾ a t̪ a ʈ ʈ a ɾ p ɔ ɾ a e n̪ a b e s ʈ h ɔ e ʤ a n̪ i ʃ t̪ o a m i t̪ ɔ kh o n̪ ph ɾ i 
[213.075]
<no-speech> 
[213.975]
kh u b bh a l̪ o h ɔ e a ʈ ʈ a ɾ p ɔ ɾ a ʈ ʈ a ɾ a t̪ a ʈ ʈ a ɾ a n̪ n̪ a b a n̪ n̪ a k o ɾ e ʧh e l̪ e k e kh e e d̪ e e n̪ i e a e 
[221.445]
<no-speech> 
[224.635]
h æ̃ h æ̃ 
[225.105]
<no-speech> 
[226.535]
h æ̃ 
[226.965]
<no-speech> 
[227.965]
b e s ʈ h ɔ e ʤ a n̪ i ʃ t̪ o t̪ a h o l̪ e a m a ɾ oi ʃ o m ɔ e ʈ a a m i kh u b ph ɾ i n̪ a h o l̪ e ʃ a ɾ a d̪ i n̪ i a m a ɾ t̪ o ʧh u ʈ t̪ e h ɔ e n̪ a t̪ u i t̪ o ʤ a n̪ i ʃ 
[233.265]
<no-speech> 
[234.155]
u m t̪ a i <int> 
[235.265]
<no-speech> 
[242.045]
e i k ɔ n̪ ɔ k a n̪ ʤ o l̪ i k ɔ n̪ ɔ k a n̪ ʤ o l̪ i a ʤ k e i d̪ e kh i e m a n̪ e d̪ e kh i e d̪ i e ʧh e a ʤ k e ɾ i p i ʈ t̪ a l̪ b ɔ ʃ ɔ e o k a ɾ d̪ e kh i e d̪ i l̪ b a ɾ o ʈ a e <breath> a b a ɾ ɾ a t̪ ɾ i b æ l̪ a e a ʧh e a ʈ ʈ a ɾ ʃ o m ɔ e a m a d̪ e ɾ h ɔ e t̪ o a ɾ o b a k i a ʧh e k i ʧh u ʈ a b a k i a ʧh e o ʈ a d̪ æ kh a b e ʈh i k a ʧh e a ɾ m u k t̪ o d̪h a ɾ a e 
[254.015]
e ʈ a o ʈ a t̪ o s i n̪ e m a 
[255.275]
<no-speech> 
[256.865]
o ʈ a o ʈ a s i n̪ e m a h æ̃ o ʈ a h o ʧ ʧ e ʤ e m o n̪ m u k t̪ o d̪h a ɾ a 
[260.975]
<no-speech> 
[262.535]
o ʈ a h æ̃ o ʈ a a ʃ l̪ e o b i ɖ i e n̪ ʈ 
[264.485]
<no-speech> 
[266.345]
k e a ʧh e ɾ i t̪ u p ɔ ɾ n̪ a a ʧh e kh ɔ ɾ a ʤ a ʧh e t̪ o ɾ <hes> a ɾ k e a ʧh e ʤ e n̪ o kh ɔ ɾ a ʤ a ʧh e t̪ o ɾ <breath> <hes> a ɾ b ɾ a t̪ t̪ o b o ʃ u a ʧh e 
[277.225]
<no-speech> 
[278.385]
d̪ e b ʃ ɔ ŋ k ɔ ɾ h a l̪ d̪ a ɾ a ʧh e 
[280.045]
<no-speech> 
[281.455]
h u 
[282.055]
<no-speech> 
[285.835]
o a ʧ ʧh a <laugh> <breath> h æ̃ b a ʧ ʧ a t̪ o ʧh i l̪ o 
[288.785]
<no-speech> 
[290.585]
æ ʃ ɔ b ʃ o m ɔ e t̪ o a m a ɾ o kh u b bh a l̪ o l̪ a g e kh u b m æ n̪ l̪ i 
[294.025]
<no-speech> 
[296.485]
n̪ a h 
[296.965]
<no-speech> 
[298.305]
ɾ i t̪ u p ɔ ɾ n̪ a t̪ o k o l̪ k a t̪ a e k ɔ t̪ o ʈ a t̪h a k e o t̪ o b o m b e t̪ e i b e ʃ i t̪h a k e o k e t̪ u i k i bh a b e d̪ e kh b i 
[302.405]
<no-speech> 
[304.095]
b ɾ a t̪ t̪ o b o ʃ u k e a ʤ k e o d̪ e kh e ʧh i a m i æ k a ɖ e m i t̪ e b ɾ a t̪ t̪ o g ɔ l̪ p o k o ɾ t̪ o a m ɾ a ʤ e t̪ a m æ k a ɖ e m i t̪ e ʃ a ɾ a k kh o n̪ t̪h a k t̪ a m <breath> b ɾ a t̪ t̪ o k e t̪ o a m i ɔ n̪ e k ɔ l̪ p o b ɔ e ʃ t̪h e k e i d̪ e kh e ʧh i 
[312.175]
<no-speech> 
[313.545]
ɖ a k t̪ ə ɾ ɔ n̪ e k <cough> ɖ a k t̪ ə ɾ ou ʃ u d̪h t̪ o ph æ k ʈ ɔ ɾ n̪ ɔ e 
[316.735]
<no-speech> 
[319.175]
h u m o t̪ o a m a d̪ e ɾ o l̪ a g e n̪ a 
[321.675]
<no-speech> 
[325.725]
b a b b a h a h h ɔ e a k a ɾ h ɔ e a k a ɾ b o l̪ i ʃ n̪ a t̪ o ɾ b o n̪ d̪h u k e b ɔ ɾ o n̪ ʧ o ɔ n̪ e k ʃ u n̪ d̪ o ɾ ʤ a k e b ɔ l̪ a ʧ o l̪ e ɔ n̪ e k ʃ u n̪ d̪ o ɾ i d̪ o l̪ a kh u b i ʃ u n̪ d̪ o ɾ i 
[332.825]
<no-speech> 
[333.905]
ɔ t̪h o ʧ o k i d̪ æ kh o k i ʃ u n̪ d̪ o ɾ l̪ ɔ m b a b o l̪ t̪ o 
[336.245]
<no-speech> 
[337.105]
h æ̃ 
[337.565]
<no-speech> 
[339.865]
h æ̃ b ɔ l̪ n̪ a 
[340.705]
<no-speech> 
[348.145]
h u m e l̪ i n̪ a t̪ o 
[349.795]
<no-speech> 
[355.495]
kh u b bh a l̪ o d̪ e n̪ a a m a e k i ʧh u k a ʤ d̪ e e ɾ ɔ k o m 
[358.305]
<no-speech> 
[369.775]
h u m h u m h u m a ʧh e 
[371.875]
<no-speech> 
[376.965]
h u m t̪ a b o l̪ t̪ e p a ɾ b o n̪ a a m i e n̪ ʤ i o b ɔ e ʃ u n̪ n̪ o ɾ ɔ ʧh e l̪ e ɾ ɔ ʤ o t̪ e ɾ ʃ a t̪h e t̪ o ɾ a l̪ a p k o ɾ i e d̪ i t̪ e p a ɾ i t̪ a t̪ e t̪ o ɾ d̪ ɔ ɾ k a ɾ 
[384.155]
<no-speech> 
[387.045]
h u m k o ɾ i e d̪ e b <oov> <no-speech> 
[391.065]
h æ̃ a m a k e ʤ e k ɔ m p j u ʈ ə ɾ ʃ e kh a t̪ o m a l̪ ʈ i m i ɖ i a ʤ a ɾ k a ʧh e ʃ i kh t̪ a m a ɾ k i ɾ ɔ ʤ ɔ t̪ ɾ ɔ ʤ ɔ t̪ m o l̪ l̪ i k ɾ o n̪ ʤ i t̪ m o l̪ l̪ i k e ɾ b a ɾ i ɾ ʧh e l̪ e h æ̃ o a ʃ t̪ o t̪ o o a ʃ e 
[402.795]
o ɾ æ k ʈ a e n̪ ʤ i o a ʧh e 
[404.535]
<no-speech> 
[406.845]
<no-speech> 
[407.955]
<no-speech> 
[410.425]
h æ̃ 
[411.645]
<no-speech> 
[413.445]
k o ɾ e d̪ e b h u m t̪ u i a e a ʃ l̪ e i p e e ʤ a b i 
[416.115]
<no-speech> 
[420.135]
a ʤ t̪h e k e t̪ u i a e a m i n̪ ə m b ə ɾ ʈ a <hes> a m a ɾ ɾ e kh e d̪ i ʧ ʧh i m a n̪ e ʤ o g a ɾ k o ɾ e ɾ a kh ʧh i d̪ e kh ʧh i <breath> o d̪ u ʈ o k a ɾ ɖ a m a e d̪ i e ʧh i l̪ o k o t̪h a e a ʧh e a m i b e ɾ k o ɾ e ɾ a kh ʧh i ʈh i k a ʧh e t̪ u i a e n̪ a 
[428.995]
<no-speech> 
[432.075]
h æ̃ t̪ a k i h ɔ b e 
[433.075]
<no-speech> 
[435.035]
h æ l̪ o 
[435.525]
<no-speech> 
[436.665]
h u m ʤ a n̪ i t̪ o b u ʤh t̪ e p a ɾ ʧh i t̪ o 
[439.235]
<no-speech> 
[442.455]
ʤ a n̪ i t̪ o t̪ o t̪ u i æ t̪ o i e k o ɾ ʧh i ʃ k æ n̪ o <int> a m a ɾ t̪ o ʤ a n̪ a i a ʧh e 
[445.815]
<no-speech> 
[447.075]
t̪ u i e i k ɔ t̪h a g u l̪ o b o l̪ ʧh i ʃ k æ n̪ o 
[448.725]
<no-speech> 
[449.895]

[450.845]
<no-speech> 
[451.765]
a ɾ t̪ o ɾ b æ ʈ a k e k o t̪h a e ɾ e kh e ʤ a ʧ ʧh i ʃ b o l̪ ʧh i t̪ o ɾ b æ ʈ a k e k o t̪h a e ɾ e kh e ʤ a ʧ ʧh i ʃ k a ʤ e 
[458.015]
<no-speech> 
[463.015]
t̪h a k 
[463.435]
<no-speech> 
[466.215]
a ʧh e b o l̪ b o <laugh> a m a ɾ i t̪ o ʃ e i m a n̪ e æ m o n̪ ʤ a e t̪ u i t̪ o ʤ a n̪ i ʃ k æ m o n̪ ʤ a e p a ɾ a ʤ a e 
[472.775]
<no-speech> 
[474.845]
ʃ a ɾ a d̪ i n̪ 
[475.565]
<no-speech> 
[477.715]
bh a l̪ o i t̪h a k e bh a l̪ o i a b a ɾ k i t̪h a k l̪ e i <oov> <no-speech> 
[483.475]
h ɔ b e a b a ɾ k i ɾ e a ɾ k i e ʈ a i t̪ o k ɔ p a l̪ n̪ a e ʈ a i m a ɾ k ɔ p a l̪ 
[488.855]
<no-speech> 
[493.525]
h u m h u m h u m h u m ʈh i k k ɔ t̪h a ʃ e ʤ ɔ t̪ n̪ o k o ɾ u k h æ̃ ɔ b o ʃ ʃ o i t̪ a t̪ e i m o n̪ bh o ɾ e ʤ a b e <breath> a ʤ k e a m i k ɔ t̪h a b o l̪ ʧh i l̪ a m a m a ɾ m a m a ɾ ʧh o ʈ o m e e m a n̪ e ʧh o ʈ o m e e m e e ʈ a k e m a m a i ɾ i s k u l̪ e bh o ɾ t̪ i k o ɾ l̪ a m t̪ a k e 
[505.215]
b u ʤh l̪ i t̪ o 
[506.095]
<no-speech> 
[510.565]
ph o ʈ o d̪ i t̪ e p a ɾ i ʃ ʧ o kh b o n̪ d̪h o k o ɾ e 
[512.564875]
<no-speech> 
[513.585]
t̪ oi ɾ i h o e h æ̃ s ou t̪h p oi n̪ ʈ e d̪ i t̪ e p a ɾ i ʃ s ou t̪h p oi n̪ ʈ e d̪ i l̪ e ɔ n̪ e k ʈ a d̪ u ɾ h o e ʤ a b e 
[519.285]
<no-speech> 
[524.745]
t̪ o i ŋ l̪ i ʃ m i ɖ i ə m h æ̃ s ou t̪h p oi n̪ ʈ t̪ o i ŋ l̪ i ʃ m i ɖ i ə m i s k ɔ ʈ i ʃ e o i ŋ l̪ i ʃ m i ɖ i ə m a ʧh e <breath> t̪ ɔ b e p a ɾ a ɾ i s k u l̪ e d̪ e a ɾ t̪h e k e e g u l̪ o e ɔ n̪ e k bh a l̪ o d̪ e a ɔ n̪ e k bh a l̪ o p a ɾ a ɾ i s k u l̪ e ʤ a d̪ e kh l̪ a m 
[536.145]
h æ̃ 
[536.915]
<no-speech> 
[539.415]
h a ɾ i a n̪ a a m i h a ɾ i a n̪ a p ɔ ɾ a ʧ ʧh i i n̪ d̪ i ɾ a g a n̪ d̪h i p ɔ ɾ a ʧ ʧh i ʤ a ɔ b o s t̪h a 
[543.695]
<no-speech> 
[544.745]
ʤ a ɔ b o s t̪h a 
[547.185]
<no-speech> 
[551.065]
n̪ a n̪ a æ k d̪ o m ʤ ɔ gh o n̪ n̪ o ʃ u d̪h u p ɔ e ʃ a g u l̪ o n̪ æ e n̪ a kh a t̪ a ʧ e k i ŋ n̪ a p ɔ ɾ a ʃ u n̪ a ɾ k o n̪ o l̪ e v ə l̪ a ʧh e <breath> o t̪ i ʤ ɔ gh o n̪ n̪ o 
[557.935]
<no-speech> 
[560.025]
h u m h u m p ɾ o ʧ u ɾ h u m æ k d̪ o m 
[565.925]
<no-speech> 
[567.645]
æ k æ k 
[568.655]
<no-speech> 
[570.555]
ʈh i k ʃ ɔ ɾ e a a ʧ ʧh a 
[572.005]
æ k d̪ o m ʈh i k k ɔ t̪h a 
[572.995]
<no-speech> 
[574.905]
ʈh i k b o l̪ e ʧh i h u m b ɔ l̪ 
[577.095]
<no-speech> 
[580.145]
<no-speech> 
[580.625]
<no-speech> 
[584.065]
h ɔ ʃ ʃ u ph ɔ ɾ m t̪ o b o d̪h h ɔ e e b a ɾ bh o ɾ t̪ i h o e i g æ l̪ o <breath> t̪ o ɾ t̪ o o ɾ b ɔ e ʃ o h ɔ e n̪ i i s k ɔ ʈ i ʃ e d̪ e a ɾ b ɔ e ʃ o h ɔ e n̪ i h æ̃ 
[591.365]
<no-speech> 
[593.465]
ph a i bh p l̪ ə s e n̪ æ e b o d̪h h ɔ e 
[594.505]
<no-speech> 
[599.46]
