[0.0]
t̪ o k e d̪ i e e ʃ ʧh e d̪ i e e ʃ ʧh e a ɾ e 
[1.675]
<no-speech> 
[4.715]
<sta> h æ l̪ o 
[5.795]
<no-speech> 
[8.625]
h æ̃ p oũ ʧh i e ʧh i <sta> e i kh a n̪ e t̪ o <hes> e i ʧ o l̪ ʧh e a h 
[12.935]
<no-speech> 
[13.855]
<no-speech> 
[14.215]
<no-speech> 
[20.155]
<no-speech> 
[20.595]
<no-speech> 
[21.395]
<sta> m o b a i l̪ e ʃ e ʃ ʧ a ɾ ʈ e n̪ ə m b ə ɾ 
[24.885]
<no-speech> 
[27.495]
<sta> k o n̪ o ʈ a 
[28.925]
<no-speech> 
[32.234875]
<no-speech> 
[33.335]
<no-speech> 
[37.035]
<no-speech> 
[37.395]
<no-speech> 
[38.345]
m o b a i l̪ e <sta> bh o ɖ a ph o n̪ 
[39.865]
<no-speech> 
[47.315]
o s e ʈ ʈ a <sta> s e ʈ ʈ a ʤ i e l̪ e k s 
[50.035]
<no-speech> 
[52.145]
ʤ i e l̪ e k s <sta> 
[53.975]
<no-speech> 
[56.395]
ʤ i ʤ i ʤ i ʤ i ph ɔ ɾ g a ɾ ɖ e n̪ <no-speech> <sta> ʤ i e l̪ e k s 
[61.565]
<no-speech> 
[69.175]
<sta> a h 
[69.645]
<no-speech> 
[76.975]
a ʧ ʧh a a ʧ ʧh a 
[77.505]
<no-speech> 
[81.685]
<no-speech> 
[82.065]
<no-speech> 
[91.63]
<no-speech> 
[101.195]
n̪ a a m i t̪ o d̪ e kh i ʃ a t̪ a ʃ t̪ a ɾ i kh e d̪ e kh i ʤ a b o a ɾ o i d̪ i n̪ g i e d̪ e kh t̪ e h ɔ b e <no-speech> <sta> ʃ a t̪ a ʃ t̪ a ɾ i kh e 
[107.235]
<no-speech> 
[111.655]
<no-speech> 
[112.035]
<no-speech> 
[113.025]
<sta> h æ̃ 
[114.105]
<no-speech> 
[114.905]
<no-speech> 
[115.275]
<no-speech> 
[116.645]
<sta> n̪ a k a ʤ e ɾ m a ʃ i a ʃ e n̪ i k a ʤ e ɾ m a ʃ i a ʃ e n̪ i k a ʤ e ɾ <no-speech> 
[121.605]
<no-speech> 
[121.975]
<no-speech> 
[123.085]
<no-speech> 
[123.465]
<no-speech> 
[126.085]
<sta> h ɔ e a k a ɾ ʧ ɔ n̪ d̪ ɾ o b i n̪ d̪ u h ɔ e a k a ɾ ʧ ɔ n̪ d̪ ɾ o b i n̪ d̪ u h ɔ e a k a ɾ ʧ ɔ n̪ d̪ ɾ o b i n̪ d̪ u 
[127.175]
<no-speech> 
[128.495]
<sta> h æ̃ 
[129.064875]
<no-speech> 
[135.205]
<sta> o 
[135.745]
<no-speech> 
[142.185]
<sta> a h b a ɾ o ʈ a ʤ o d̪ i h æ̃ b a ɾ o ʈ a e ʤ o d̪ i b e ɾ o o t̪ a l̪ e k ɔ ʈ a e b e ɾ u b e æ g a ɾ o ʈ a b a ɾ o ʈ a n̪ a g a t̪ b e ɾ o n̪ o ʤ a b e 
[150.035]
<no-speech> 
[151.025]
<sta> ɾ a t̪ ɾ e k ɔ ʈ a <hes> b o l̪ e d̪ a o æ k d̪ o m kh e e ʈ e e i ʧ o l̪ e a ʃ b o 
[156.875]
<no-speech> 
[163.095]
<no-speech> 
[169.315]
<sta> ʃ ɔ k a l̪ e ɾ ʈ ɾ e n̪ d̪h o ɾ a ʈ a i bh a l̪ o h e k ʈ i k 
[173.475]
<no-speech> 
[175.375]
<sta> æ k t̪ ɾ i ʃ t̪ a ɾ i kh æ k <no-speech> 
[180.925]
<sta> t̪ i ɾ i ʃ 
[181.345]
<no-speech> 
[186.835]
<sta> a m a ɾ k i k i ʤ a n̪ o e m n̪ i a ɾ æ k ʈ u t̪ o g ɔ ɾ o m e ɾ ʤ a m a k a p o ɾ k i ʧh u t̪ o n̪ i t̪ e i h ɔ b e 
[193.635]
<no-speech> <sta> ʤ a m a k a p o ɾ ʤ e m o n̪ e i a ʤ k e a ʤ k e a m i ʤ a p o ɾ e e ʃ ʧh i a m i t̪ o ɔ l̪ ɾ e ɖ i gh e m e n̪ e e ʧ a n̪ æ k ʈ u kh a n̪ i h æ̃ 
[202.165]
<no-speech> 
[208.045]
<sta> d̪ i l̪ l̪ i t̪h e k e b a ʧ ʧ u d̪ a ɾ n̪ a d̪ i l̪ l̪ i t̪ e 
[212.195]
<no-speech> 
[213.805]
<sta> n̪ a k o ɾ e n̪ i h ɔ e t̪ o k o ɾ b e ʤ a n̪ e a ʤ k e a m a ɾ e ɾ ɔ k o m ɖ j u ʈ i a ʧh e h ɔ e t̪ o ʃ e ʤ o n̪ n̪ e i k o ɾ e n̪ i <cough> 
[220.505]
<no-speech> 
[223.185]
h æ̃ h æ̃ h æ̃ ʧ o l̪ e g æ ʧh e 
[224.645]
<no-speech> 
[225.715]
<sta> ʃ e kh a n̪ e d̪ u ʈ o d̪ u ʈ o ʧh o ʈ o kh a ʈ o d̪h o ɾ e ʧh e 
[227.965]
<no-speech> 
[228.905]
<sta> æ k l̪ a d̪ u ʈ o ʤ a e g a e b o ʃ t̪ e h o ʧ ʧh e d̪ u ʈ o ʤ a e g a e 
[231.755]
<no-speech> 
[232.845]
<sta> e i kh a n̪ e 
[233.465]
<no-speech> 
[234.485]
a e <sta> e i ʤ e a m a d̪ e ɾ e i kh a n̪ e i d̪ u ʈ o i s k u l̪ e d̪ u ʈ o i s k u l̪ e d̪ u ʈ o p a ɾ ʈ a m a k e d̪ i e d̪ i e ʧh e ʈh i k <no-speech> 
[241.895]
<sta> t̪ a æ k ʈ a ʤ a e g a e æ k ʈ a ʤ a e g a e g i e ɔ l̪ ɾ e ɖ i d̪ i e e l̪ a m k i ʧh u <no-speech> ʈh i k a ʧh e ʃ e kh a n̪ k a ɾ h e ɖ m a s ʈ a ɾ d̪ i e ʃ o i k o ɾ i e n̪ i l̪ a m a ɾ e i b a ɾ a ɾ æ k ʈ a ʤ a e g a e e ʃ e b o ʃ e a ʧh i e kh a n̪ e i m e i n̪ bh ɔ ɾ t̪ o m a ɾ kh ɔ ɾ o ʧ 
[254.515]
<no-speech> 
[255.335]
<sta> l̪ o k a ʃ ʧh e ɔ l̪ p o ɔ l̪ p o a ɾ t̪ o m a ɾ o i ʃ ɔ ɾ o ʃ ʃ o t̪ i p u ʤ o ɾ ʤ o n̪ n̪ o ʃ ɔ b ʤ a e g a t̪ e i ʃ a ʤ a n̪ o ph a ʤ a n̪ o ɾ b æ p a ɾ a ʧh e ʃ ɔ b b ɔ ʃ a ɾ b ɔ ʃ a ɾ t̪ o æ k ʈ u ɔ ʃ u b i d̪h a h ɔ b e æ k ʈ u 
[265.715]
<no-speech> 
[268.055]
h æ̃ <sta> 
[268.635]
<no-speech> 
[272.115]
<no-speech> 
[272.515]
<no-speech> 
[274.815]
k a ʤ ʃ e ʃ t̪ o a m a d̪ e ɾ e i kh a n̪ e l̪ e kh a a ʧh e p ã ʧ ʈ a e <hes> o b d̪ i b ɔ ʃ a a m i p ã ʧ ʈ a o b d̪ i b o ʃ b o n̪ a æ k ʈ u a g e i b e ɾ i e ʤ a b o <no-speech> <sta> <cough> 
[282.345]
<no-speech> 
[287.295]
<no-speech> 
[287.705]
<no-speech> 
[290.035]
<no-speech> 
[290.765]
<no-speech> 
[293.765]
<no-speech> 
[294.165]
<no-speech> 
[296.205]
<sta> a h 
[296.625]
<no-speech> 
[301.635]
<sta> a h 
[302.085]
<no-speech> 
[302.955]
<sta> k i ʧh u m o n̪ e k ɔ ɾ e n̪ i t̪ o <no-speech> k i ʧh u m o n̪ e <no-speech> 
[308.425]
<sta> n̪ a n̪ a k i ʧh u m o n̪ e <no-speech> 
[312.015]
<no-speech> 
[312.385]
<no-speech> 
[314.055]
<sta> a h a 
[314.515]
<no-speech> 
[316.545]
<sta> h u m h u m h u m h u m a ʤ k e ɔ ph i s ʤ a b o k i n̪ a bh a b ʧh i a ʤ k e ʤ a ʧ a p h ɔ b e a ɾ m o n̪ e h ɔ e n̪ a ɔ ph i s ʤ e t̪ e p a ɾ b o 
[326.725]
<no-speech> 
[329.065]
<sta> kh u ɾ i d̪ e ɾ b a ɾ i ʤ a b o k i t̪ o m a ɾ k ɔ kh o n̪ l̪ a g b e <no-speech> ph i ɾ t̪ e 
[334.165]
<no-speech> 
[340.255]
h æ̃ <sta> 
[340.875]
<no-speech> 
[342.305]
t̪ a a m i ʤ o d̪ i e kh a n̪ t̪h e k e f ə ɾ s ʈ b e ɾ o t̪ e p a ɾ i 
[344.535]
<no-speech> 
[351.445]
o <sta> t̪ a h o l̪ e t̪ o t̪h a k 
[353.875]
<no-speech> 
[358.455]
<no-speech> 
[358.845]
<no-speech> 
[363.035]
<no-speech> 
[363.445]
<no-speech> 
[365.395]
h ɔ e a k a ɾ ʧ ɔ n̪ d̪ ɾ o b i n̪ d̪ u h ɔ e a k a ɾ ʧ ɔ n̪ d̪ ɾ o b i n̪ d̪ u h ɔ e a k a ɾ ʧ ɔ n̪ d̪ ɾ o b i n̪ d̪ u n̪ a a m i k i t̪ a h o l̪ e æ k b a ɾ ph o n̪ k o ɾ e ʤ e n̪ e n̪ e b o <no-speech> æ k b a ɾ k i ph o n̪ k o ɾ e ʤ e n̪ e n̪ e b o o k e <sta> 
[372.305]
<no-speech> 
[378.315]
æ k b a ɾ ph o n̪ k o ɾ e ph o n̪ k o ɾ e ʤ e n̪ e n̪ e b o ʤ o d̪ i o t̪h a k e t̪ a h o l̪ e g i e k o ɾ e d̪ e b o <no-speech> <sta> ʈh i k a ʧh e 
[383.975]
<no-speech> 
[390.715]
d̪ æ kh o ʃ e ʈ a t̪ a t̪ a p o ʃ d̪ a ɾ a ɔ ph e n̪ ɖ e ɖ h ɔ b e n̪ a 
[392.965]
<no-speech> 
[396.735]
h æ̃ d̪ ɔ ʃ ʤ o n̪ t̪ o d̪h o ɾ e i ʤ a b e <sta> <no-speech> d̪ ɔ ʃ ʤ o n̪ t̪ o ʤ a b o <no-speech> 
[402.435]
<sta> h æ̃ 
[403.185]
<no-speech> 
[406.195]
<sta> h ɔ e a k a ɾ ʧ ɔ n̪ d̪ ɾ o b i n̪ d̪ u h ɔ e a k a ɾ ʧ ɔ n̪ d̪ ɾ o b i n̪ d̪ u h ɔ e a k a ɾ ʧ ɔ n̪ d̪ ɾ o b i n̪ d̪ u h ɔ e a k a ɾ ʧ ɔ n̪ d̪ ɾ o b i n̪ d̪ u 
[407.245]
<no-speech> 
[417.635]
<no-speech> 
[419.055]
<no-speech> 
[420.025]
<no-speech> 
[420.385]
<no-speech> 
[427.535]
<sta> h æ̃ h æ̃ 
[429.745]
<no-speech> 
[431.265]
e i ʈ a ʃ e i ʈ a <sta> d̪ e kh t̪ e p a b e <no-speech> 
[440.715]
h ɔ e a k a ɾ 
[441.165]
<no-speech> 
[443.295]
h ɔ e a k a ɾ t̪ ɔ kh o n̪ k a ɾ 
[444.975]
<no-speech> 
[445.955]
<sta> t̪ ɔ p o n̪ d̪ a k e t̪ ɔ p o n̪ d̪ a ɾ n̪ ə m b ə ɾ a m a ɾ k a ʧh e t̪ o n̪ e i ʃ ɔ b t̪ o t̪ o m a ɾ m o b a i l̪ e h æ̃ 
[455.155]
<no-speech> 
[458.145]
<sta> k a k e 
[458.765]
<no-speech> 
[461.865]
<sta> h æ̃ h æ̃ h o e g æ ʧh e k a ʤ o oi d̪ i k e ɔ l̪ ɔ k d̪ a ɾ gh ɔ ɾ e k a ʤ k o ɾ ʧh e h æ̃ bh a ɾ a d̪ e b e b a i ɾ e bh a ɾ a b ẽ d̪h e ʧh e 
[473.705]
<no-speech> 
[474.765]
bh a ɾ a b e ɖ e ɾ b a i ʃ ʈ a <sta> k a ʤ ʃ e ʃ 
[477.045]
<no-speech> 
[479.125]
<sta> h æ̃ b a i ɾ e t̪ o p a i p ʈ a k e k a ʈ b e k e ʈ e t̪ a ɾ p ɔ ɾ k e ʈ e a b a ɾ ʤ u ɾ b e o i ʧh o ʈ o ʧh o ʈ o ʃ ɔ b p a i p e n̪ e ʧh e ʃ e i p a i p d̪ i e m a n̪ e t̪ o m a ɾ k ɔ n̪ s i l̪ ɖ ʤ e ʈ a a ʧh e <oov> <sta> ʈ a k e p u ɾ o k e ʈ e b o n̪ d̪h o k o ɾ e d̪ e b e ʈh i k a ʧh e d̪ i e b a t̪h ɾ u m e ɾ bh e t̪ o ɾ e b a i ɾ e d̪ i e a b a ɾ p a i p ʈ a ʤ u ɾ b o 
[496.825]
<no-speech> 
[497.665]
ʈh i k a ʧh e t̪ a h o l̪ e o i t̪ a h o l̪ e o i ʤ e ʈ a l̪ i k k o ɾ ʧh e ʃ e i l̪ i k ʈ a b o n̪ d̪h o h o e ʤ a b e <sta> 
[502.475]
<no-speech> 
[505.805]
<sta> h æ̃ b o l̪ ʧh e t̪ o t̪ a i ɖ æ m p ʈ a k o m e ʤ a b e o a b a ɾ b o u d̪ i ph o n̪ k o ɾ e ʧh i l̪ o a m a ɾ ph æ n̪ b o u d̪ i a b a ɾ ʃ e n̪ g u p t̪ o d̪ a k e ph o n̪ k o ɾ e ʧh e k o ɾ e a b a ɾ ʤ a n̪ t̪ e ʧ a i l̪ o k i h o ʧ ʧh e k i h o ʧ ʧh e n̪ a h o ʧ ʧh e <sta> <cough> o ɾ a t̪ ɔ kh o n̪ o b e ɾ o e n̪ i ph o n̪ k o ɾ e ʧh e t̪ ɔ kh o n̪ o b æ ɾ a t̪ e b e ɾ o e n̪ i 
[523.385]
<no-speech> 
[533.955]
<sta> <laugh> n̪ a n̪ a o t̪ o a m a ɾ a ʧh e æ k n̪ ə m b ə ɾ <cough> a m a ɾ ɖ a i ɾ i ɾ kh a t̪ a e a ʧh e l̪ e kh a a ʧh e 
[542.465]
<no-speech> 
[547.625]
<no-speech> 
[548.035]
<no-speech> 
[550.135]
<sta> b u ɾ i k e 
[552.665]
<no-speech> 
[553.695]
<sta> b u ɾ i ʧh ɔ e e k a ɾ n̪ a 
[554.915]
<no-speech> 
[556.075]
<sta> ʈh i k a ʧh e 
[558.835]
<no-speech> 
[564.185]
k o t̪h a e 
[564.795]
<no-speech> 
[569.595]
<sta> n̪ a o i ʤ a e g a e d̪ i e ʧ o l̪ e e ʃ ʧh i ʃ o i k o ɾ i e n̪ i e ʧ o l̪ e e s <no-speech> 
[574.605]
<no-speech> 
[575.015]
<no-speech> 
[576.535]
<sta> e i kh a n̪ e b o ʃ t̪ e h ɔ b e b o ʃ e t̪ a ɾ p ɔ ɾ n̪ a ʤ o d̪ i i l̪ e k ʃ ə n̪ t̪h e k e k e u a ʃ e k ə m i ʃ ə n̪ t̪h e k e 
[581.045]
<no-speech> 
[582.435]
<sta> g a ɾ i m o n̪ e h ɔ e h æ̃ g a ɾ i n̪ i e 
[583.605]
<no-speech> 
[587.545]
<sta> k a l̪ o k a l̪ n̪ ɔ e p o ɾ ʃ u h æ̃ ʃ a t̪ a ʃ t̪ a ɾ i kh 
[590.735]
<no-speech> 
[594.425]
<sta> ʃ a t̪ a ʃ t̪ a ɾ i kh e 
[596.005]
<no-speech> 
[597.085]
h æ̃ t̪ a h o l̪ e m a ʤh <oov> 
[597.84]
