[0.0]
<no-speech> 
[0.955]
h æ l̪ o <sta> 
[4.745]
<no-speech> 
[5.815]
<sta> h æ̃ h e b i a ʧh i ʃ t̪ u i bh a l̪ o a ʧh i ʃ t̪ o <no-speech> k i k o ɾ ʧh i <no-speech> 
[13.515]
h æ̃ 
[14.285]
<no-speech> h e b i h e b i h e b i h o e ʧh e o g n̪ i p ɔ t̪h b o i ʈ a h e b i h o e ʧh e h æ̃ d̪ e kh t̪ e ʤ a b i 
[25.925]
<no-speech> 
[29.115]
k æ n̪ o d̪ e kh b i n̪ a k æ n̪ o <sta> 
[30.945]
<no-speech> 
[33.095]
æ 
[33.715]
<no-speech> 
[35.975]
h æ̃ a ʤ k e ɾ i l̪ i ʤ h o ʧ ʧh e ʧh o b i 
[37.425]
<no-speech> 
[41.375]
h æ̃ ʤ ɔ e a t̪ e g e ʧh i l̪ a m h a u ʤ ph u l̪ ʧh i l̪ o t̪ a ɾ p ɔ ɾ e b l̪ æ k e k e ʈ e ɖh u k e ʧh i l̪ a m 
[45.295]
<no-speech> 
[46.185]
<no-speech> 
[46.595]
<no-speech> 
[47.815]
h æ̃ b l̪ æ k e d̪ e kh i æ kh o n̪ <no-speech> 
[51.275]
æ <no-speech> 
[52.885]
h æ̃ a ʈ <no-speech> h æ̃ a ʈ a e a ʈ a e 
[55.545]
<no-speech> 
[56.865]

[57.515]
<no-speech> 
[58.315]
d̪ ɔ ʃ ʤ o n̪ d̪ ɔ ʃ ʤ o n̪ <no-speech> d̪ ɔ ʃ ʤ o n̪ e ɾ 
[60.775]
<no-speech> a m i t̪ u i l̪ a l̪ ʈ u d̪ a b a b a i d̪ a b u ɾ o <sta> 
[68.355]
<no-speech> 
[69.435]
k ou ʃ i k a ɾ ʤ a n̪ i n̪ a <no-speech> e i ʧh ɔ e ʤ o n̪ a ʃ b e <no-speech> 
[74.485]
æ 
[75.045]
<no-speech> 
[76.595]
ʧh e l̪ e d̪ e ɾ p e a ɾ a b a g a n̪ e ɾ ʧh e l̪ e d̪ e ɾ ʃ a t̪h e 
[79.045]
<no-speech> 
[83.075]
e m a ʤ i k w a ɾ ʈ ə ɾ e e m a ʤ i k w a ɾ ʈ ə ɾ e e ʃ ʧh i l̪ o e m a ʤ i k w a ɾ ʈ ə ɾ e 
[85.935]
<no-speech> 
[89.505]
æ g a ɾ o ʈ a <sta> 
[92.275]
<no-speech> 
[94.025]
h æ̃ p e e ʧh i <sta> h æ̃ a m ɾ a p ɔ n̪ e ɾ o v ə ɾ æ k ʃ o ʧ u ɾ a n̪ o b b o i ʈ a ɾ g e ʈ d̪ i e ʧh i l̪ a m o ɾ a æ k ʃ o ʃ ɔ t̪ t̪ ɔ ɾ e i ɔ l̪ ou ʈ h o e g æ ʧh e 
[102.405]
<no-speech> 
[104.235]
h æ̃ 
[104.945]
<no-speech> 
[107.155]
e i n̪ i e ʧ a ɾ ʈ e kh e l̪ e ʧh i ʧ a ɾ ʈ e n̪ a t̪ i n̪ ʈ e 
[110.115]
<no-speech> 
[113.515]
d̪ u ʈ o ʤ i t̪ e ʧh i æ k ʈ a h e ɾ e ʧh i <sta> 
[116.585]
<no-speech> 
[118.905]
ʃ e i t̪ o æ kh o n̪ t̪ o e i kh a n̪ e b o ʃ e ɾ o e ʧh i <sta> 
[121.675]
<no-speech> 
[124.115]
<no-speech> 
[124.555]
<no-speech> 
[125.525]
n̪ a a ʤ k e p ɔ ɾ a n̪ e i 
[127.095]
<no-speech> 
[131.245]
k æ n̪ o ʤ a ʃ n̪ i k æ n̪ o gh u ɾ t̪ e 
[132.595]
<no-speech> 
[137.565]
n̪ a ʧ o l̪ e ʤ a p o ɾ t̪ e b e k a ɾ b o ʃ e a ʧh i ʃ 
[139.735]
<no-speech> 
[143.455]
h e b i h e b i 
[144.465]
<no-speech> 
[146.825]
h æ̃ b o l̪ ʧh i <no-speech> 
[149.995]
<sta> s e n̪ ʈ m e ɾ i ʤ e g æ ʧh e b a ʤ i a ʧh e n̪ a a ʤ k e b a ʤ i ʈ a ʤ i ph a ʈ a b e s e n̪ ʈ m e ɾ i ʤ e 
[154.185]
<no-speech> 
[156.935]
h æ̃ s e n̪ ʈ m e ɾ i ʤ e s e n̪ ʈ m e ɾ i ʤ e 
[158.565]
<no-speech> 
[160.955]
e i t̪ o a ʈ ʈ a d̪ i e i s ʈ a ɾ ʈ h ɔ b e <sta> 
[162.515]
<no-speech> 
[165.145]
h æ̃ h æ̃ 
[165.775]
<no-speech> 
[168.025]
<sta> h æ̃ h e v i h o e ʧh e 
[172.175]
<no-speech> 
[174.055]
k a ɾ a k o ɾ ʧh e ʤ a n̪ i n̪ a a m i ʈh i k 
[175.795]
<no-speech> 
[178.825]
o h æ̃ h æ̃ o ʈ a kh u b bh a l̪ o h o ʧ ʧh e d̪ e kh t̪ e g e ʧh i l̪ a m p æ n̪ ɖ e l̪ ʈ a d̪ e kh l̪ a m 
[184.015]
<no-speech> 
[187.255]
h æ̃ e i b a ɾ ʤ a n̪ i n̪ a k e a ʃ b e 
[188.885]
<no-speech> 
[191.275]
<no-speech> 
[191.665]
<no-speech> 
[193.055]
æ h æ̃ 
[196.275]
<no-speech> 
[198.405]
h æ̃ p a ɾ a e a ʧh i 
[200.835]
<no-speech> 
[202.835]
h æ̃ n̪ a n̪ a 
[203.945]
<no-speech> 
[204.755]
<sta> n̪ a ɾ e b o l̪ ʧh i t̪ u i k ɔ kh o n̪ a ʃ ʧh i ʃ æ p a ɾ a ɾ ɔ b o s t̪h a <no-speech> 
[212.055]
p a ɾ a e k ɔ kh o n̪ a ʃ b i 
[213.505]
<no-speech> 
[216.825]
k æ n̪ o b ɔ ɾ o b a ʤ a ɾ g i e ʧh i l̪ i ʃ n̪ a k i 
[218.415]
<no-speech> 
[223.745]
o k a l̪ k e k i k a ʤ a ʧh e k a l̪ k e k i k a ʤ a ʧh e 
[225.845]
<no-speech> 
[226.695]
<no-speech> 
[227.295]
<no-speech> 
[230.375]
<no-speech> 
[233.775]
<int> <hes> a ɾ a ɾ k ɔ b e ʧh u ʈ i a ʧh e e ɾ m o d̪ d̪h e 
[238.045]
<no-speech> 
[243.515]
æ kh o n̪ o p æ n̪ ɖ e l̪ kh o l̪ a i h o l̪ o n̪ a k o t̪h a d̪ i e h ɔ b e 
[247.485]
<no-speech> 
[251.435]
a ɾ e a ʤ <sta> 
[254.375]
<no-speech> 
[255.865]
æ <no-speech> h æ̃ h æ̃ ʤ a n̪ i ʤ a n̪ i b o l̪ ʧh i ʤ a n̪ a ʈ a b ɔ ɾ t̪ o n̪ a ʈ a b o u p a ʧ ʧh e n̪ a t̪ o 
[263.695]
<no-speech> 
[268.925]
b o u e ɾ n̪ a m ʃ i p ɾ a 
[270.185]
<no-speech> 
[272.375]
o a ʧ ʧh a a ʧ ʧh a e i <hes> p u p a i d̪ e ɾ ʤ e kh a n̪ e p æ n̪ ɖ e l̪ h o e ʧh e o kh a n̪ e i h ɔ b e n̪ a k i 
[277.735]
<no-speech> 
[279.785]
n̪ a p æ n̪ ɖ e l̪ g u l̪ o t̪ o æ kh o n̪ o kh o l̪ a i h ɔ e n̪ i 
[282.175]
<no-speech> 
[289.385]
k a l̪ k e ʃ ɔ k a l̪ e m o n̪ e h ɔ e kh u l̪ b e p æ n̪ ɖ e l̪ 
[292.065]
<no-speech> 
[296.425]
k o t̪h a e <sta> 
[298.505]
<no-speech> 
[299.885]
o k i <hes> o i kh a n̪ e o i ʤ e s a i e n̪ s s i ʈ i 
[302.145]
<no-speech> 
[304.025]
<no-speech> 
[304.585]
<no-speech> 
[305.805]
<no-speech> 
[306.175]
<no-speech> 
[307.165]

[307.955]
<no-speech> 
[309.745]
k e k e ʤ a b e 
[310.905]
<no-speech> 
[314.615]
<no-speech> 
[314.985]
<no-speech> 
[320.495]
o a ʧ ʧh a a ʧ ʧh a <no-speech> 
[325.025]
ʃ a n̪ u ɾ a ʤ a e n̪ a 
[325.925]
<no-speech> 
[331.365]
<no-speech> 
[331.745]
<no-speech> 
[333.615]
b o l̪ ʧh i n̪ a o i ʃ ɔ ɾ o ʃ ʃ o t̪ i p u ʤ o ʈ a k o ɾ b i n̪ a m i ʈ i ŋ ʈ a k ɔ b e k o ɾ b i <sta> 
[339.815]
<no-speech> 
[342.445]
<sta> n̪ a n̪ a t̪ o k e t̪ o <hes> d̪ a i t̪ t̪ o ʈ a d̪ i l̪ o t̪ u i a ʃ b i t̪ a ɾ p ɔ ɾ e t̪ o m i ʈ i ŋ ʈ a h ɔ b e 
[346.255]
<no-speech> 
[350.225]
n̪ a l̪ a i ʈ ph a i ʈ <no-speech> 
[357.435]
<no-speech> 
[357.785]
<no-speech> 
[358.585]
l̪ a l̪ ʈ u p o ɾ e <hes> l̪ a l̪ ʈ u b o l̪ ʧh e æ kh o n̪ p a ɾ b e n̪ a 
[361.595]
<no-speech> 
[366.975]
<no-speech> 
[367.675]
<no-speech> 
[369.645]
p æ n̪ ɖ e l̪ ɾ a t̪ ɾ e h o e ʤ a b e ʈh a k u ɾ a ɾ <no-speech> ʈh a k u ɾ e b a ɾ e ʤ o d̪ i ʧ ã d̪ a ph ã d̪ a ʤ o d̪ i t̪ o l̪ a ʤ a e e b a ɾ e n̪ i ʤ e d̪ e ɾ m e m b ə ɾ ʃ i p t̪h e k e d̪ i t̪ e h ɔ b e 
[375.845]
<no-speech> 
[377.545]
h æ̃ h æ̃ 
[378.905]
<no-speech> 
[381.815]
n̪ a a m i bh e b e ʧh i l̪ a m o i b u ɾ o d̪ e ɾ m a t̪ o æ k ʈ u p æ n̪ ɖ e l̪ ʈ a k o ɾ b o b u ɾ o ɾ a p i ʧh o n̪ e kh u b bh a l̪ o p æ n̪ ɖ e l̪ ʈ a k o ɾ e ʧh e 
[386.365]
<no-speech> 
[390.555]
k æ n̪ o <hes> bh a l̪ o k e k o ɾ ʧh i l̪ o k a ʧh e m a n̪ e l̪ a l̪ d̪ a l̪ a l̪ d̪ a kh u b bh a l̪ o k a ʤ k o ɾ ʧh i l̪ o <sta> 
[397.195]
<no-speech> 
[398.355]
h æ̃ l̪ a l̪ d̪ a k e e b ɔ ʧh o ɾ i b o l̪ b i k o ɾ e d̪ i t̪ e <sta> 
[401.445]
<no-speech> 
[404.485]
h æ̃ l̪ a l̪ d̪ a h æ̃ l̪ a l̪ d̪ a e ʃ e ʧh i l̪ o a ʤ k e 
[408.085]
<no-speech> 
[409.215]
k e 
[409.635]
<no-speech> 
[410.955]
o 
[411.695]
<no-speech> 
[414.085]
h æ̃ h æ̃ e ʃ e ʧh i l̪ o 
[415.435]
<no-speech> 
[417.125]
<sta> e i t̪ o ʧ a ɾ ʈ e ʃ a ɾ e ʧ a ɾ ʈ e n̪ a g a d̪ 
[419.205]
<no-speech> 
[423.275]
<no-speech> 
[427.415]
<no-speech> 
[429.815]
h æ̃ e i m u kh d̪ i e g ɔ n̪ d̪h o b e ɾ o ʧ ʧh e ʃ a l̪ a h a ɾ a m ʤ a d̪ a e i m e kh e ʧh e m u kh d̪ i e k i g ɔ n̪ d̪h o b e ɾ o ʧ ʧh e <sta> 
[439.405]
<no-speech> 
[441.295]
<sta> a ɾ e a m i æ k a i æ k a i k ɔ t̪h a b o l̪ ʧh i 
[444.605]
<no-speech> 
[447.245]
h æ̃ t̪ o ɾ e i 
[448.965]
<no-speech> 
[452.815]
<sta> 
[456.045]
<no-speech> 
[456.915]
<no-speech> 
[457.995]
<no-speech> 
[459.345]
h æ l̪ o 
[460.275]
<no-speech> 
[462.855]
d̪h o ɾ d̪ ɔ ɾ ʤ a ph ɔ ɾ ʤ a a ɾ o b o l̪ ʧh e ʤ e æ k kh a n̪ a n̪ i e e ʃ e ʧh i l̪ o o b o l̪ ʧh e a ɾ d̪ e b e n̪ a k a u k e <sta> 
[468.655]
<no-speech> 
[469.615]
<sta> b o l̪ ʧh e æ k ʈ a ɾ b e ʃ i k a u k e d̪ e b e n̪ a 
[475.095]
<no-speech> 
[480.885]
a ɾ e æ k kh a n̪ a g ɔ ʤ a d̪ i e b o l̪ ʧh e ʃ ɔ b a i k e d̪ i e d̪ i t̪ e <sta> 
[485.545]
<no-speech> 
[489.425]
h æ̃ ʈh i k i b o l̪ e ʧh i ʃ b a b a ɾ <sta> h æ̃ ʈh i k i b o l̪ e ʧh i ʃ 
[495.545]
<no-speech> 
[498.695]
k i b o l̪ ʧh i ʃ <int> 
[499.705]
<no-speech> 
[502.005]
a m a ɾ e i ʧ e s ʃ e ʃ h o e g æ ʧh e 
[504.945]
<no-speech> 
[506.105]
h æ̃ 
[506.765]
<no-speech> 
[508.115]
<no-speech> 
[508.545]
<no-speech> 
[510.195]
e i t̪ o a ʤ k e ʃ ɔ k a l̪ e ʃ e ʃ h o e ʧh e <no-speech> h æ̃ h æ̃ <sta> <laugh> k a l̪ k e a m i k a l̪ k e ɾ a t̪ e d̪ u ʈ o ʧh i l̪ o a ʤ ʃ ɔ k a l̪ e ʃ e ʃ h o e ʧh e 
[519.625]
<no-speech> 
[523.284875]
<no-speech> 
[523.635]
<no-speech> 
[524.825]
h æ̃ h æ̃ h æ̃ <sta> 
[527.735]
<no-speech> 
[529.835]
a ɾ e <hes> b o l̪ ʧh i b ɔ l̪ ʈ a t̪ o k i n̪ e n̪ i e a ʃ b i b ɔ l̪ ʈ a n̪ i e t̪ o m æ ʧ ʈ a kh e l̪ t̪ e ʤ a b o b ɔ l̪ ʈ a k i n̪ e n̪ i e <no-speech> 
[537.505]
a ɾ e k i n̪ e n̪ i e a e <sta> t̪ a ɾ p ɔ ɾ e t̪ a ɾ p ɔ ɾ e kh æ l̪ a h ɔ b e 
[545.545]
<no-speech> 
[549.955]
o ɾ t̪h e k e k o n̪ o b ɔ l̪ n̪ e i t̪ u i a g e æ k ʈ a b ɔ l̪ k i n̪ e n̪ i e a e t̪ a ɾ p ɔ ɾ t̪ o kh æ l̪ a h ɔ b e <sta> 
[554.765]
<no-speech> 
[557.605]
<no-speech> 
[558.025]
<no-speech> 
[559.135]
h æ̃ ʃ u ʤ ɔ e b æ g n̪ i e ʤ a b e 
[560.885]
<no-speech> 
[561.935]
<no-speech> 
[562.315]
<no-speech> 
[564.495]
h æ̃ o b o l̪ ʧh i <hes> a ɾ k ɔ t̪ o k kh o n̪ p o ɾ e a ʃ b i t̪ u i p a ɾ a e <sta> 
[570.325]
<no-speech> 
[573.565]
h æ̃ a ʧ ʧh a a ʧ ʧh a ʈh i k a ʧh e <sta> 
[576.075]
<no-speech> 
[577.365]
<no-speech> 
[579.495]
<sta> h æ̃ k a ʈ e n̪ i b o l̪ ʧh i t̪ u i k ɔ kh o n̪ a ʃ b i æ k ʈ a e k s s æ k ʈ ʈ a i m ʈ a a m a k e b ɔ l̪ 
[584.125]
<no-speech> 
[586.595]
h æ̃ <no-speech> ʈh i k a ʧh e <hes> n̪ o ʈ k i ɖ a n̪ o ɾ n̪ o ʈ k o ɾ e ʧh i ʃ <sta> 
[590.475]
<no-speech> 
[593.845]
a ɾ e n̪ o t̪ u n̪ bh a l̪ o g a n̪ a m a k e b o l̪ l̪ a m k i ʧh u d̪ e a ɾ t̪ u i d̪ i ʧ ʧh i s i n̪ a 
[598.135]
<no-speech> 
[598.36]
