[0.0]
<no-speech> 
[0.365]
<no-speech> 
[2.325]
k ɔ t̪h a b o l̪ l̪ e 
[4.905]
<no-speech> 
[6.225]
h æ̃ <no-speech> k i k ɔ ɾ t̪ i ʧh i ʃ 
[7.415]
<no-speech> 
[8.935]
æ h ɔ ʃ ʃ i k i k ɔ ɾ ɔ ʃ 
[10.555]
<no-speech> 
[14.565]
h ɔ w a ɾ e n̪ ʈ i 
[15.685]
<no-speech> 
[17.305]
a m i <int> a g u n̪ a g u n̪ t̪ a p a i 
[19.865]
<no-speech> 
[22.725]
æ m a m a b a ɾ i t̪h i k e k ɔ kh o n̪ a i l̪ i 
[24.835]
<no-speech> 
[27.015]
m a m a ɾ b a ɾ i ɾ t̪h i k a k ɔ kh o n̪ a i l̪ i 
[28.565]
<no-speech> 
[32.355]
ɾ a i k i kh a i l̪ i 
[33.565]
<no-speech> 
[37.505]
ɖ a l̪ <sta> d̪ i a e i m a ʧh bh a t̪ k e u ɖ a l̪ d̪ i e kh a e n̪ a k i 
[40.675]
<no-speech> 
[45.265]
<int> a m a g o k o i s n̪ a a m i bh a l̪ o m o n̪ d̪ o kh a i kh a ɾ a p kh a b o k æ n̪ o <sta> p o ɾ e k i k i b o i d̪ e kh l̪ i s i n̪ e m a 
[50.345]
<no-speech> 
[53.695]
k i d̪ e kh l̪ i n̪ a m g u l̪ a ɾ k ɔ ʃ 
[55.075]
<no-speech> 
[57.405]
n̪ a m g u l̪ a k ɔ ʃ u n̪ i 
[58.485]
<no-speech> 
[61.155]
ɾ a m k i k i b o i d̪ e kh ʧh o ʃ n̪ a m g u l̪ a k ɔ ʃ u n̪ i 
[63.375]
<no-speech> 
[69.57]
<no-speech> 
[75.765]
a m a ɾ a g e o ɾ 
[76.525]
<no-speech> 
[78.885]
<hes> t̪ o m a ɾ m a t̪h a t̪ e 
[80.175]
<no-speech> 
[82.085]

[82.545]
<no-speech> 
[84.465]
ɔ ɾ m a ɾ k i h o i ʧh e ɾ e 
[85.655]
<no-speech> 
[86.825]
ɔ ʤ o n̪ ɔ l̪ 
[87.575]
<no-speech> 
[89.255]
<hes> æ kh o n̪ o i ʤ e m a s i ɾ i ə l̪ k æ m o n̪ h o i t̪ e ʧh e ɾ e 
[92.885]
<no-speech> 
[97.175]
a n̪ b a d̪ i 
[98.085]
<no-speech> 
[101.115]
a ʤ k a p a g o l̪ b o i d̪ i ʧh i l̪ o ʤ e 
[102.275]
<no-speech> 
[103.855]
d̪ u p u ɾ e 
[104.625]
<no-speech> 
[106.185]
d̪ e kh i ʤ e <hes> m a ʧh e ɾ <hes> ʤh o l̪ b e g u n̪ bh a ʤ i ɖ a l̪ 
[110.195]
<no-speech> 
[112.755]
<breath> t̪ u i d̪ æ kh a l̪ i 
[115.395]
<no-speech> 
[119.965]
k a i 
[120.675]
<no-speech> 
[122.455]
e i ʃ e i kh a o a t̪ a ɾ e ɖ a l̪ d̪ i a k ɔ ph i bh a ʤ a d̪ i a 
[125.385]
<no-speech> 
[131.045]
kh a i b o h æ̃ 
[133.155]
<no-speech> 
[136.545]
<int> a ʤ k e m a ʤ a ɾ e ʤ a b i n̪ a 
[139.065]
<no-speech> 
[142.075]
ʤ a b o 
[142.655]
<no-speech> 
[145.515]
e i b o n̪ 
[146.415]
<no-speech> 
[148.225]
<hes> v æ ʈ k u m ɾ a e ɾ ɔ k o m d̪ e kh ʧh i ʃ k a u 
[150.335]
<no-speech> 
[151.165]
a m i e ɾ ɔ k o m d̪ e kh ʧh o 
[152.225]
<no-speech> 
[153.395]
k o i l̪ a m k a l̪ k e ɖ ɔ ʈ k ɔ m d̪ e kh ʧh i ʃ n̪ a k i 
[155.125]
<no-speech> 
[157.815]
k i d̪ i e l̪ g ɔ e a k a ɾ 
[158.725]
<no-speech> 
[162.135]
k o i l̪ a m k a l̪ k e d̪ i ʧh e 
[163.615]
<no-speech> 
[168.935]
æ 
[169.475]
<no-speech> 
[173.225]
t̪ a i 
[173.815]
<no-speech> 
[175.495]

[175.945]
<no-speech> 
[180.455]
h æ̃ 
[181.035]
<no-speech> 
[187.515]
<no-speech> 
[193.995]
a e 
[194.625]
<no-speech> 
[205.985]
<no-speech> 
[217.345]
o 
[217.995]
<no-speech> 
[221.335]
k a l̪ <hes> k a l̪ k e t̪ o ɾ o b i b a ɾ 
[223.545]
<no-speech> 
[227.725]
<no-speech> 
[229.315]
<no-speech> 
[231.265]
g u l̪ e ʃ ɔ b h ɔ e n̪ a p a p a g l̪ u d̪ e kh ɔ ʃ n̪ a i 
[234.425]
<no-speech> 
[237.025]
p a g l̪ u <no-speech> p a g l̪ u d̪ e 
[238.645]
<no-speech> 
[241.985]
d̪ e kh ɔ ʃ n̪ a i 
[242.775]
<no-speech> 
[243.935]
e i <no-speech> t̪ a i l̪ e ʃ e i h o i ʧh e 
[245.775]
<no-speech> 
[248.555]
t̪ a i l̪ e 
[249.205]
<no-speech> 
[253.885]
t̪ o ɾ m a k o i 
[254.775]
<no-speech> 
[256.485]
<sta> æ 
[259.174875]
<no-speech> 
[262.095]
b i e ɾ 
[262.795]
<no-speech> 
[267.575]
e i <no-speech> t̪ o ɾ m a m a g u l̪ o a i l̪ o n̪ a t̪ o ɾ m a m a g u l̪ o 
[272.415]
<no-speech> 
[275.795]
a m 
[276.855]
<no-speech> 
[278.515]
<sta> s e ʈ a i n̪ a i 
[280.105]
<no-speech> 
[282.545]
<laugh> æ k ɔ k ɔ k ɔ 
[293.515]
<no-speech> 
[294.475]
<laugh> h a ʃ i k æ n̪ o 
[296.795]
<no-speech> 
[297.895]
<laugh> a ɾ e o 
[300.185]
<no-speech> 
[301.475]
<no-speech> 
[302.805]
ʃ ɔ ɾ e ɔ h ɔ ʃ ʃ i 
[303.625]
<no-speech> 
[305.315]
<sta> 
[308.905]
<no-speech> 
[310.785]
h æ̃ ʤ a i 
[312.285]
<no-speech> 
[315.215]

[316.285]
<no-speech> 
[317.585]
a m a a m a ɾ d̪ i k e a e 
[318.685]
<no-speech> 
[319.975]
t̪ u i k o n̪ kh a n̪ e k o n̪ kh a n̪ e k ɔ t̪h a b o l̪ ʧh i ʃ ɾ e 
[322.505]
<no-speech> 
[329.675]
t̪ a i ɔ m i k ɔ t̪ o k o i 
[330.955]
<no-speech> 
[333.415]
a ɾ e d̪ i k e 
[334.335]
<no-speech> 
[336.085]
a h o i ʤ e e d̪ i k e 
[338.305]
<no-speech> 
[341.775]
a e kh o ɾ a e m a e 
[342.915]
<no-speech> 
[344.215]
a n̪ ʧh ɔ e ɾ o ʃ ʃ i 
[344.905]
<no-speech> 
[346.205]
h æ̃ ʃ u n̪ ʧh o i t̪ o a g e h æ̃ 
[348.015]
<no-speech> 
[353.135]
æ̃ i 
[353.985]
<no-speech> 
[355.885]
æ p o ɾ e a b a ɾ k i n̪ b o a ʃ i ʃ 
[358.145]
<no-speech> 
[361.555]
b o l̪ l̪ a m k i ɾ ɔ k o m a ʧh i ʃ 
[363.205]
<no-speech> 
[365.345]

[367.875]
<no-speech> 
[369.645]
æ 
[370.275]
<no-speech> 
[374.525]
k o i l̪ a m <no-speech> t̪ a ɾ a t̪ a ɾ i a e 
[376.395]
<no-speech> 
[378.225]
u m <laugh> <breath> ʃ e i k ɔ t̪h a k o i t̪ e p a ɾ i ʃ n̪ a 
[380.785]
<no-speech> 
[383.695]
o k e ʃ e i k ɔ t̪h a b o l̪ t̪ e b ɔ l̪ e n̪ 
[384.905]
<no-speech> 
[392.065]
e i 
[392.945]
<no-speech> 
[395.985]
t̪ a t̪ a ɾ p ɔ ɾ e k o n̪ m a ʃ e t̪ e 
[398.065]
<no-speech> 
[401.595]
h æ̃ <no-speech> 
[402.495]
<no-speech> 
[407.975]
o h æ̃ 
[409.865]
<no-speech> 
[421.395]
<breath> k ɔ e ʈ a e u ʈh l̪ i 
[422.745]
<no-speech> 
[427.185]

[427.995]
<no-speech> 
[429.905]
k e k e ʃ e i <laugh> 
[431.835]
<no-speech> 
[433.275]
h a e 
[433.725]
<no-speech> 
[436.515]
h æ̃ k ɔ 
[437.275]
<no-speech> 
[440.535]
a ʤ k e n̪ a ɾ e a m a ɾ ɖ ɾ e s b a n̪ a n̪ o h ɔ e n̪ a i ɖ ɾ e s b a n̪ a i t̪ e d̪ i e ʧh i 
[443.385]
<no-speech> 
[446.835]
n̪ a b a n̪ a t̪ e d̪ i e ʧh i d̪ æ e n̪ a 
[448.875]
<no-speech> 
[452.265]
k ɔ b e d̪ i ʧh i <hes> b u d̪h b a ɾ e d̪ i ʧh i 
[455.575]
<no-speech> 
[457.845]
<no-speech> 
[458.265]
<no-speech> 
[459.305]
n̪ a ʃ e i ʤ e o i b u d̪h b a ɾ e d̪ i b o ʧh a b b i ʃ t̪ a ɾ i kh 
[461.435]
<no-speech> 
[466.755]
<sta> n̪ ɔ n̪ o d̪ e 
[468.885]
<no-speech> 
[470.765]
ɔ t̪ o k o i ʧh i 
[471.775]
<no-speech> 
[474.385]
o k o t̪h a e <hes> k o t̪h a e g e ʧh i b o l̪ t̪ o 
[476.925]
<no-speech> 
[479.795]
o i ʤ e a ʧh e n̪ a 
[481.915]
<no-speech> 
[483.055]
<int> æ 
[484.115]
<no-speech> 
[486.395]
o i d̪ e b n̪ a m ʤ a n̪ i n̪ a o i b ɔ ɾ t̪ ɔ l̪ a ɾ o i ʧ e ŋ ɾ a ʈ a a ʧh e n̪ a a m a d̪ e ɾ o i ʤ e ʃ ɔ b i t̪ a ɾ e æ k d̪ i n̪ 
[490.505]
<no-speech> 
[491.425]
<no-speech> 
[491.775]
<no-speech> 
[493.795]
h æ̃ m u n̪ n̪ a d̪ i <no-speech> ʈh i k a ʧh e <no-speech> ʈh i k a ʧh e ɾ a kh t̪ a ʧh i 
[498.065]
<no-speech> 
[499.105]
o i ʤ e h a i ɾ o ɖ e ɾ oi p a ʃ e 
[501.065]
<no-speech> 
[504.375]
ʃ ɔ ɾ e ɔ 
[505.935]
<no-speech> 
[509.745]
<int> d̪h ɔ h ɔ h ɔ 
[511.435]
<no-speech> 
[512.365]
o i o i <no-speech> 
[515.735]
k a l̪ i g ɔ n̪ ʤ 
[516.324875]
<no-speech> 
[521.245]
ũ <lipsmack> k ɔ k æ m o n̪ <no-speech> 
[524.355]
h æ̃ 
[525.035]
<no-speech> 
[528.285]
a ɾ e ʃ ɔ b a ɾ b a n̪ i e ʧh e o ʈ a k æ m o n̪ k o ɾ e d̪ i e ʧh i ʃ 
[530.465]
<no-speech> 
[532.205]
n̪ i ʧ e t̪h a k b o n̪ i l̪ a ɾ h o i l̪ o k ɔ e ɾ n̪ i ʧ e t̪h a k b o 
[536.965]
<no-speech> 
[540.105]
e i 
[540.505]
<no-speech> 
[541.765]
ʃ ɔ ɾ e ɔ 
[542.245]
<no-speech> 
[545.985]
h æ̃ 
[546.525]
<no-speech> 
[547.405]
h ũ 
[547.755]
<no-speech> 
[549.645]
h ũ 
[550.335]
<no-speech> 
[552.025]
a ɾ k a l̪ k e p ɾ a i v e ʈ <no-speech> 
[554.725]
k a l̪ k e p ɾ a i v e ʈ a ʧh e n̪ a p ɔ ɾ a a ʧh e 
[556.905]
<no-speech> 
[561.775]
k a l̪ k e ʃ ɔ k a l̪ ʃ a t̪ 
[562.955]
<no-speech> 
[563.955]
k a l̪ k e ʃ ɔ k a l̪ ʃ a ʈ ʈ a e ʤ a b e n̪ ʃ i o ɾ 
[565.465]
<no-speech> 
[568.895]
ʃ ɔ k a l̪ ʃ a ʈ ʈ a e b a n̪ e ʃ ʃ ɔ ɾ a ʧh e æ k ʈ a 
[571.225]
<no-speech> ʃ a ɾ e d̪ ɔ ʃ ʈ a e p ɔ ɾ a b e 
[574.935]
<no-speech> 
[578.445]
o g o æ kh o n̪ 
[579.835]
<no-speech> 
[581.905]
æ kh o n̪ k o i 
[582.635]
<no-speech> 
[585.125]
h æ l̪ o 
[585.545]
<no-speech> 
[587.425]
n̪ a k i 
[588.655]
<no-speech> 
[590.615]
<laugh> k o n̪ gh ɔ ɾ e ʧ æ̃ ʧ a ʧ ʧh e 
[592.405]
<no-speech> 
[595.515]
<no-speech> 
[595.955]
<no-speech> 
[598.035]
<no-speech> 
[599.605]
<no-speech> 
[599.8]
