[0.0]
<no-speech> 
[5.585]
h æ l̪ o 
[6.215]
<no-speech> 
[10.495]
a m i ʃ i kh a 
[11.555]
<no-speech> 
[12.725]
t̪ u m i k i ɾ ɔ k o m a ʧh o 
[13.875]
<no-speech> 
[15.755]
<no-speech> 
[16.105]
<no-speech> 
[18.725]
a m i ʈh i k i a ʧh i t̪ o m a ɾ m a b a b a k i ɾ ɔ k o m a ʧh e 
[23.405]
<no-speech> 
[26.085]
a m i ʃ u n̪ e ʧh i t̪ o m a ɾ m a e ɾ ʃ o ɾ i ɾ kh a ɾ a p h o e ʧh e 
[28.485]
<no-speech> 
[34.565]
t̪ o m a ɾ æ k ʈ a b o n̪ d̪h u b o l̪ e ʧh i l̪ o ʃ o m o 
[36.765]
<no-speech> 
[40.055]
k ɔ l̪ e ʤ e a ʃ i ʃ n̪ i 
[43.585]
<no-speech> 
[50.585]
k o t̪h a e ʤ a ʧ ʧh i ʃ b a b a k e n̪ i e 
[52.045]
<no-speech> 
[54.575]
k o t̪h a e ʤ a ʧ ʧh i l̪ i b a b a k e n̪ i e 
[56.265]
<no-speech> 
[61.765]
o kh a n̪ e k i k i ʤ i b ʤ o n̪ t̪ u d̪ e kh e ʧh i ʃ 
[63.575]
<no-speech> 
[65.715]
o kh a n̪ e k i k i ʤ i b ʤ o n̪ t̪ u d̪ e kh e ʧh i ʃ 
[67.755]
<no-speech> 
[74.105]
ʤ a ʃ n̪ i 
[74.885]
<no-speech> 
[81.425]
t̪ o ɾ m a e ɾ æ kh o n̪ ʃ o ɾ i ɾ k i ɾ ɔ k o m a ʧh e 
[83.305]
<no-speech> 
[90.755]
p o ɾ ʃ u t̪ u i k ɔ l̪ e ʤ e a ʃ b i t̪ o 
[92.505]
<no-speech> 
[94.345]
p o ɾ ʃ u d̪ i n̪ k ɔ l̪ e ʤ e a ʃ b i t̪ o 
[96.295]
<no-speech> 
[104.73]
<no-speech> 
[113.165]
a m ɾ a ʤ e t̪ e i p a ɾ i n̪ i <hes> t̪ ɔ kh o n̪ b ɔ ɾ ʃ a h o e ʧh i l̪ o 
[117.125]
<no-speech> 
[122.595]
a m a ɾ b a b a m a bh a l̪ o a ʧh e 
[124.015]
<no-speech> 
[126.575]
ʃ ɔ ɾ e a b ɔ ɾ o d̪ i d̪ i æ kh o n̪ <hes> æ kh o n̪ n̪ a m a n̪ e k ɔ l̪ e ʤ e e ɖ m i ʃ ə n̪ h o ʧ ʧh e 
[133.085]
<no-speech> 
[143.445]
a m i <hes> <int> a m i ɔ t̪ o l̪ o k kh o k o ɾ i n̪ i d̪ e kh ʧh i ʤ a b o a m i æ k d̪ i n̪ 
[148.075]
<no-speech> 
[154.925]
k i b o l̪ ʧh i ʃ 
[155.655]
<no-speech> 
[158.485]
h æ̃ d̪ e kh e ʧh i 
[159.505]
<no-speech> 
[165.265]
t̪ u i e b a ɾ k o t̪h a o ʤ a b i n̪ a m o n̪ e h o ʧ ʧh e k ɾ i s m a s e t̪ o ʧ o l̪ e g æ ʧh e <hes> m a n̪ e k ɾ i s m a s e k o t̪h a e ʤ a ʧ ʧh i l̪ i 
[171.505]
<no-speech> 
[178.685]
<no-speech> 
[185.865]
n̪ j u i a ɾ e k o t̪h a e ʤ a b i e b a ɾ 
[187.405]
<no-speech> 
[194.095]
t̪ o ɾ b a b a ɾ h o e ʧh e k i ʤ ɔ ɾ a ʧh e 
[195.875]
<no-speech> 
[202.705]
t̪ o ɾ m a ɾ m a n̪ e ʤ e ʤ ɔ ɾ ʈ a h o e ʧh i l̪ o ʈh i k h o e ʧh e 
[205.525]
<no-speech> 
[216.995]
h æ̃ t̪ o ɾ b a b a ɾ <hes> p e ʈ e k i h o e ʧh e 
[219.765]
<no-speech> 
[226.775]
<no-speech> 
[233.785]
a m a ɾ b a b a bh a l̪ o i a ʧh e æ kh o n̪ 
[235.515]
<no-speech> 
[239.835]
k i p o ɾ ʧh i o 
[242.105]
<no-speech> 
[244.515]
t̪ u i ʃ u d̪h u oi g u l̪ o d̪ æ kh e k i p o ɾ ʧh i ʃ e ʃ ɔ b 
[247.355]
<no-speech> 
[253.375]
l̪ a s ʈ e k s a m t̪ o d̪ e ɾ k ɔ l̪ e ʤ e 
[256.015]
<no-speech> 
[264.105]
h æ̃ ʈh i k b o l̪ e ʧh i ʃ bh a l̪ o bh a l̪ o p ɔ ɾ 
[266.045]
<no-speech> 
[269.525]
a m a ɾ ʃ ɔ b bh a l̪ o ʧ o l̪ ʧh e 
[270.895]
<no-speech> 
[274.055]
t̪ o ɾ b o i a m a e k ɔ kh o n̪ d̪ i b i 
[276.235]
<no-speech> 
[279.235]
t̪ o ɾ b o i <hes> a m a e k ɔ kh o n̪ d̪ i b i a m a k e 
[281.435]
<no-speech> 
[287.955]
p o ɾ ʃ u d̪ i n̪ ʃ i o ɾ t̪ o a m a k e ʤ i o l̪ ɔ ʤ i d̪ i b i t̪ o 
[290.395]
<no-speech> 
[296.275]
<no-speech> 
[296.685]
<no-speech> 
[297.825]
e b a ɾ k ɔ l̪ e ʤ e a e n̪ a a ʃ l̪ e t̪ o a b a ɾ ʃ ɔ b k i ʧh u m i s k o ɾ e d̪ i b i t̪ a h o l̪ e t̪ u i 
[302.095]
<no-speech> 
[309.375]
k i a ʃ b i n̪ a k ɔ l̪ e ʤ e e b a ɾ 
[310.795]
<no-speech> 
[312.935]
e b a ɾ k ɔ l̪ e ʤ e a ʃ b i n̪ a 
[314.275]
<no-speech> 
[319.525]
b a b a æ t̪ o d̪ e b e 
[320.785]
<no-speech> 
[324.835]
ʈh i k a ʧh e t̪ u i e b a ɾ <int> bh a l̪ o a ʧh i ʃ t̪ o æ kh o n̪ 
[326.995]
<no-speech> 
[335.205]
s i n̪ e m a d̪ e kh t̪ e ʤ a b i n̪ a 
[336.625]
<no-speech> 
[340.915]
ʈh i k a ʧh e a ʤ h a s p ə t̪ ə l̪ e n̪ i e ʤ a ʃ n̪ a o k e 
[344.225]
<no-speech> 
[346.505]
h a s p ə t̪ ə l̪ e n̪ i e ʤ a ʈh i k h o e ʤ a b e 
[348.495]
<no-speech> 
[355.355]
ʈh i k a ʧh e t̪ u i k i b o l̪ ʧh i l̪ i ʃ a m a k e 
[357.595]
<no-speech> 
[362.615]

[363.345]
<no-speech> 
[366.865]
h æ̃ d̪ i d̪ i k e ʃ u d̪h u ʃ u k ɾ o b a ɾ ʃ o n̪ i b a ɾ a n̪ t̪ e p a ɾ b o 
[370.095]
<no-speech> 
[374.395]
n̪ a n̪ i ʤ e ɾ o k ɔ l̪ e ʤ e e k s a m h o ʧ ʧh e 
[377.445]
<no-speech> 
[385.26]
<no-speech> 
[393.075]
a ʧ ʧh a ʃ o n̪ a m a d̪ e ɾ <hes> m a n̪ e k i b o l̪ ʧh e a m a d̪ e ɾ k ɔ l̪ e ʤ ɾ a m a n̪ e p ɾ i n̪ s i p a l̪ ɾ a b o l̪ e ʧh e p i k n̪ i k e ʤ e t̪ e t̪ u i a ʃ b i n̪ a p i k n̪ i k e 
[404.045]
<no-speech> 
[410.225]
a ɾ m æ m b o l̪ ʧh e <no-speech> ʤ e ʧh ɔ e ʃ a t̪ d̪ i n̪ æ k s i ɖ e n̪ ʈ h o ʧ ʧh e b e ʃ i ɾ bh a g <breath> o d̪ e ɾ o ph e l̪ k ɔ ɾ a t̪ e p a ɾ e 
[418.575]
<no-speech> 
[428.455]
h æ̃ b ɔ l̪ 
[429.095]
<no-speech> 
[433.405]
b ɔ l̪ 
[434.055]
<no-speech> 
[435.595]
<no-speech> 
[436.045]
<no-speech> 
[441.855]
h æ̃ a m i d̪ e kh i n̪ i ʃ u d̪h u g a n̪ ʈ a ʃ u n̪ e ʧh i b ɔ ɖ i g a ɾ ɖ e ɾ 
[444.175]
<no-speech> 
[450.365]
t̪ u i p i k ʧ ə ɾ ʈ a b ɔ l̪ 
[451.535]
<no-speech> 
[457.465]
t̪ u i k i p i k ʧ a ɾ d̪ e kh e ʧh i ʃ t̪ a h o l̪ e 
[459.025]
<no-speech> 
[464.345]
ɾ a w ə n̪ d̪ e kh e ʧh i ʃ 
[465.515]
<no-speech> 
[468.795]
h æ̃ 
[469.265]
<no-speech> 
[472.175]
t̪ u i ʃ o n̪ a k i d̪ e kh e ʧh i ʃ 
[473.885]
<no-speech> 
[475.765]
ɾ a o a n̪ e k i k i d̪ e kh e ʧh i ʃ 
[477.205]
<no-speech> 
[486.535]
<no-speech> 
[495.865]
p ɾ o ʧ u ɾ ʤ ɔ l̪ oi <hes> m a n̪ e p ɾ o ʧ u ɾ ʤ ɔ l̪ 
[501.685]
<no-speech> 
[507.085]
ʤ a n̪ i ʃ a n̪ d̪ a m a n̪ e e b a ɾ ʈh a n̪ ɖ a p o ɾ e ʧh e kh u b i ʈh a n̪ ɖ a p o ɾ e ʧh e 
[512.395]
<no-speech> 
[514.205]

[515.615]
<no-speech> 
[524.305]
t̪ u i p o ɾ ʃ u d̪ i n̪ a m a ɾ gh ɔ ɾ a ʃ b i 
[526.795]
<no-speech> 
[532.145]
a m i ʤ a n̪ i n̪ a t̪ u i k ɔ b e k ɔ l̪ e ʤ e a ʃ b i t̪ o ɾ d̪ æ kh e d̪ æ kh e a m i b o ʃ e t̪h a k t̪ e h ɔ b e m o n̪ e h o ʧ ʧh e 
[538.145]
<no-speech> 
[542.105]
a m a ɾ <hes> d̪ i d̪ i æ kh o n̪ k ɔ l̪ e ʤ e g æ ʧh e b o l̪ ʧh i t̪ o æ ɖ m i ʃ ə n̪ n̪ i t̪ e 
[546.705]
<no-speech> 
[550.715]
h u 
[551.245]
<no-speech> 
[553.935]
k i 
[554.475]
<no-speech> 
[561.585]
h u 
[562.115]
<no-speech> 
[565.335]
h æ̃ ʈh i k a ʧh e t̪h a k b o 
[566.545]
<no-speech> 
[573.705]
a m ɾ a <hes> a m ɾ a ʤ a n̪ i ʃ a m ɾ a p l̪ æ n̪ k o ɾ ʧh i e b a ɾ a m ɾ a ʤ a b o <hes> 
[577.715]
<no-speech> 
[578.555]
a m ɾ a e b a ɾ <hes> bh a b ʧh i e b a ɾ a m ɾ a o kh a n̪ e ʤ a b o k i b o l̪ e <no-speech> ph a s ʈ e m a n̪ e <hes> ʈ e m m o n̪ d̪ i ɾ e ʤ a b o m o n̪ d̪ i ɾ p o ɾ e <hes> m a n̪ e ʧ i ɾ i a <hes> 
[588.885]
<no-speech> 
[590.025]
m o n̪ d̪ i ɾ p o ɾ e m a n̪ e ʤ i b ʤ o n̪ t̪ u d̪ e kh t̪ e ʤ a b o 
[593.285]
<no-speech> 
[598.355]
n̪ a m o n̪ d̪ i ɾ e 
[599.585]
<no-speech> 
[599.96]
