[0.0]
<no-speech> 
[0.305]
<no-speech> 
[12.245]
<no-speech> 
[13.165]
<sta> h æ l̪ o ɾ a kh ʧh i 
[17.475]
<no-speech> 
[18.545]
<int> h æ l̪ o h æ̃ 
[20.465]
<no-speech> 
[21.745]
h æ̃ h æ̃ 
[22.475]
<no-speech> 
[26.285]
h æ̃ k æ n̪ o 
[27.365]
<no-speech> 
[33.875]
<no-speech> 
[36.035]
<no-speech> 
[37.345]
<breath> a ɾ e ʈ a w ə ɾ d̪ i ʧ ʧh e n̪ a ʈ a w ə ɾ ʈ a w ə ɾ 
[40.875]
<no-speech> 
[43.685]
<no-speech> 
[44.225]
<no-speech> 
[47.135]
h æ̃ h æ̃ t̪ a i k o ɾ ʧh e 
[48.905]
<no-speech> 
[52.405]
<no-speech> 
[53.715]
<no-speech> 
[57.335]
n̪ a n̪ a k e ʃ ɔ k a l̪ b æ l̪ a a ʃ ʧh e <hes> k ɔ t̪ o g u l̪ o p ɾ o ʃ n̪ o a ʃ ʧh e k o m p a n̪ i t̪h e k e e ʃ ʧh e k o ɾ ʧh e p ɾ o ʃ n̪ o k o ɾ ʧh e a m i n̪ a o g u l̪ o p o ɾ e p o ɾ e d̪ i e ʧh i o i kh a n̪ t̪h e k e m a n̪ e 
[69.285]
h u m <sta> d̪ ɔ ʃ m i n̪ i ʈ ph ɾ i k ɔ l̪ d̪ i e ʧh e t̪ a i <cough> <breath> m a m i a ɾ a m i d̪ i e ʧh i <breath> t̪ a i p o ɾ e ʃ ɔ k a l̪ b æ l̪ a ʈ ɾ a i k o ɾ ʧh e l̪ a g e n̪ i e i t̪ a i æ kh o n̪ l̪ a g l̪ o <cough> t̪ a i 
[81.045]
h u m b a ɾ i t̪ e k i k ɔ ɾ 
[83.525]
<no-speech> 
[84.495]
h u m b a ʤ a ɾ e k i k ɔ ɾ b a ʤ a ɾ e k i k ɔ ɾ <int> 
[88.475]
<no-speech> 
[96.085]
k i k ɔ t̪h a a m i t̪ o ʧh ɔ e ɾ o ʃ ʃ i 
[97.705]
<no-speech> 
[109.365]
k i <no-speech> 
[113.155]
<int> a m a ɾ t̪ o æ kh o n̪ n̪ i e ʤ a e m a o ph o n̪ k o ɾ l̪ o t̪ ɔ kh o n̪ m a ɾ t̪ o ʃ e i k a n̪ n̪ a a m a ɾ t̪ o ʃ e i k a n̪ n̪ a m a ʃ i ɾ b a ɾ i t̪ e o ʃ e i k a n̪ n̪ a ʈ a n̪ n̪ a k o ɾ i a b o ʃ i a a ʧh o t̪h a k t̪ e i ʧ ʧh e k o ɾ ʧh e n̪ a a ɾ a m i e d̪ i k e k a n̪ n̪ a k o ɾ t̪ e ʧh e b ɔ ɾ o ph kh a i a ʧh e b o l̪ e e ʃ e ʃ e i b ɔ k a d̪ i t̪ e ʧh e <cough> 
[130.155]
<no-speech> 
[132.965]
h æ̃ k æ n̪ o 
[134.895]
<no-speech> 
[137.155]
h æ̃ h æ̃ 
[138.165]
<no-speech> 
[143.915]
k æ n̪ o 
[144.615]
<no-speech> 
[147.835]
k æ n̪ o 
[148.585]
<no-speech> 
[150.895]
<hes> n̪ a n̪ a n̪ a k æ n̪ o 
[152.475]
<no-speech> 
[157.705]
<int> a ɾ e a m i t̪ o e d̪ i k e l̪ u k i e l̪ u k i e ph o n̪ k o ɾ t̪ e ʧh i b ɔ ɾ o m a m a ɖ j u ʈ i t̪h e k e m a t̪ ɾ o a ʃ l̪ o b ɔ ɾ o m a m a ʤ o d̪ i ʤ a n̪ e n̪ a a m i ʤ e t̪ o m a k e ph o n̪ k o ɾ ʧh i t̪ a h o l̪ e i a m a ɾ b a ɾ o ʈ a b a ʤ a b e a m a ɾ e m n̪ i t̪ e i b ɔ ɾ o m a m a k e d̪ e kh t̪ e ʧh i bh ɔ e l̪ a g e k a ʧh e i ʤ a i n̪ a a ɾ k o n̪ d̪ i n̪ <breath> <int> 
[173.165]
<no-speech> 
[175.125]
<breath> a ɾ e a m a ɾ t̪ o e kh a n̪ e b ɔ ɾ o m a m a m e ʤ o m a m a ʧh o ʈ o m a m a ʃ ɔ b a i e k kh a n̪ i i m a n̪ e b a ɾ i a l̪ a d̪ a a l̪ a d̪ a 
[180.765]
<no-speech> 
[188.315]
<breath> h æ̃ oi kh a n̪ e i t̪ o ʃ ɔ b a ɾ i b a ɾ i o d̪ i k e b ɔ ɾ o m a m a d̪ e ɾ b a ɾ i <breath> p i ʧh o n̪ e ʧh o ʈ o m a m a ɾ b a ɾ i 
[193.925]
<no-speech> 
[204.645]
a ɾ e a p n̪ i i k a ʈ b e t̪ u m i k ɔ t̪h a b ɔ l̪ n̪ a d̪ ɔ ʃ m i n̪ i ʈ h o k d̪ ɔ ʃ m i n̪ i ʈ h o l̪ e t̪ o m a ɾ k a ʈ t̪ e h ɔ b e n̪ a a m a ɾ o k a ʈ t̪ e l̪ a g b e n̪ a e m n̪ i t̪ e i k e ʈ e d̪ e b e 
[211.565]
<no-speech> 
[212.905]
h æ̃ <no-speech> bh a l̪ o k ɔ t̪h a 
[215.125]
<no-speech> 
[216.925]
h u m <int> 
[217.695]
<no-speech> 
[220.045]
m a m i a ʤ k e ʃ ɔ k kh a i ʧh e m a m i h u 
[222.845]
<no-speech> 
[224.365]
h æ̃ <no-speech> 
[230.905]
k i ʧh u i b ɔ l̪ a ɾ n̪ e i ʃ e i b o l̪ e g ɔ l̪ p o k o ɾ ʧh e e ʈ a i b o l̪ ʧh e 
[234.575]
<no-speech> 
[236.155]
<laugh> a ɾ b o l̪ ʧh i t̪ o m a d̪ e ɾ k ɔ l̪ ʈ a bh a l̪ o n̪ a ʃ ɔ k t̪ o <sta> 
[239.555]
<no-speech> 
[241.835]
h u 
[242.415]
<no-speech> 
[246.065]
<laugh> o ʈ a i t̪ o b o l̪ t̪ e ʧh i o ʈ a i h o ʧ ʧh e k i bh a b e ʈh ɔ k a b i o i k ɔ l̪ ʈ a g u l̪ o ʃ ɔ k t̪ o 
[251.865]
<no-speech> 
[253.775]
<no-speech> 
[255.465]
<no-speech> 
[256.374875]
<no-speech> 
[256.725]
<no-speech> 
[261.465]
h u 
[262.035]
<no-speech> 
[271.135]
t̪ u m i æ kh o n̪ i a m i a ɾ a m i a ɾ p o ɾ e ph o n̪ k ɔ ɾ e t̪ e p a ɾ b o n̪ a bh a i b a ɾ i t̪ e n̪ a i t̪ a ɾ m o d̪ d̪h e b ɔ ɾ o m a m a a ʧh e b a ɾ i t̪ e ʤ o d̪ i ʤ a n̪ t̪ e p a ɾ e n̪ a a m a ɾ b a ɾ o ʈ a b a ʤ a b e <no-speech> æ kh o n̪ i b ɔ l̪ 
[282.115]
<no-speech> 
[288.265]
a m i a m a ɾ b ɔ ɾ o m a m a k e d̪ e kh l̪ e a m a ɾ e m n̪ i i bh ɔ e l̪ a g e 
[291.235]
<no-speech> 
[298.935]
e i ʈ a t̪ o o i ʤ e m a m a ʈ a g o 
[301.865]
<no-speech> 
[303.715]
<lipsmack> n̪ a ʤ e ʃ e i k o m p a n̪ i t̪h e k e a ʃ ʧh e n̪ a 
[306.735]
<no-speech> 
[308.545]
o i m a m a ʈ a ɾ m a m a i h ɔ e o ɾ a o i ʤ e ʈ a w ə ɾ e ɾ ɖ i s ʈ ə ɾ b h ɔ e n̪ a k i t̪ a ɾ ʤ o n̪ n̪ o o ɾ a o i i ʃ u k ɔ ɾ t̪ a ʧh e 
[313.965]
<no-speech> 
[316.495]
<no-speech> 
[317.145]
<no-speech> 
[319.085]
<no-speech> 
[319.645]
<no-speech> 
[324.455]
e ə ɾ ʈ e l̪ m o n̪ e h ɔ e a m i ɔ t̪ o k i ʧh u ʤ a n̪ i n̪ a a m i ʤ a n̪ i n̪ a <breath> <no-speech> k i 
[329.445]
<no-speech> 
[333.675]
a m i ɔ t̪ o k i ʧh u ʤ a n̪ i n̪ a a m i ʃ ɔ k a l̪ b æ l̪ a æ k ʤ o n̪ <hes> ɾ a n̪ n̪ a k o ɾ ʧh i t̪ o m e ʤ o m a m i ɖ a k t̪ a ʧh e a m a k e a m i o kh a n̪ e g e l̪ a m g i e p ɾ o ʃ n̪ o k o ɾ l̪ o a m i o g u l̪ o ɾ u t̪ t̪ o ɾ ʈ u t̪ t̪ ɔ ɾ d̪ i l̪ a m æ kh o n̪ b o l̪ l̪ o d̪ ɔ ʃ m i n̪ i ʈ ph ɾ i k ɔ l̪ 
[345.315]
<int> t̪ a i <cough> 
[348.955]
<no-speech> 
[353.895]
h u m a ɾ h æ̃ t̪ u m i b o l̪ e ʧh i l̪ e n̪ e i t̪ o t̪ u m i b o l̪ e ʧh i l̪ e n̪ e i t̪ o t̪ u m i b o l̪ e ʧh i l̪ e n̪ e i t̪ o 
[360.645]
<no-speech> 
[364.715]
a h b u ʤh ʧh i t̪ o m a ɾ ʤ e ʤ ɔ ɾ h ɔ l̪ n̪ a k i h ɔ l̪ t̪ u m i b o l̪ e h æ ŋ l̪ a h o i ʧh o 
[369.255]
<no-speech> 
[370.485]
m a m i e ʃ e b o l̪ t̪ e ʧh e k e k e ʃ u bh ɾ o k e 
[373.165]
<no-speech> 
[377.045]
o 
[377.765]
<no-speech> 
[379.245]
h æ̃ <no-speech> 
[384.005]
h æ̃ 
[384.675]
<no-speech> 
[387.885]
a ɾ e <hes> t̪ o m a ɾ k i b ɔ l̪ a ɾ a ʧh e 
[390.175]
<no-speech> 
[396.715]
a ʧ ʧh a 
[399.315]
<no-speech> 
[402.435]
<no-speech> 
[406.225]
<no-speech> 
[407.215]
<sta> h æ̃ h æ̃ h æ̃ <breath> 
[408.745]
<no-speech> 
[409.625]
k i <sta> 
[411.185]
<no-speech> 
[413.445]
<sta> h æ̃ h æ̃ <breath> 
[414.745]
<no-speech> 
[421.845]
h æ̃ <no-speech> 
[423.815]
a ɾ e a m i 
[424.895]
<no-speech> 
[425.945]
k i k i k i 
[426.955]
<no-speech> 
[428.105]
k i 
[428.665]
<no-speech> 
[437.385]
n̪ a n̪ a ʃ e ʈ a n̪ a o i ʤ e ph o n̪ ʈ a k a ʈ a ɾ p o ɾ e n̪ a p ã ʧ ʃ ɔ ŋ kh a ɾ æ k ʈ a n̪ ə m b ə ɾ b o l̪ b e o i ʈ e d̪ æ kh a ɾ ʤ o n̪ n̪ o m a m a a m a k e kh a t̪ a ʈ a d̪ i e g æ l̪ o t̪ a i <no-speech> æ kh o n̪ k i b o l̪ b e b ɔ l̪ 
[448.215]
<no-speech> 
[456.155]
a ɾ t̪ o m a ɾ <hes> t̪ o m a ɾ b a ɾ i t̪ e k i ɾ ɔ k o m h ɔ l̪ k i ʧh u i h ɔ l̪ n̪ a k i ʧh u i <cough> 
[460.885]
<no-speech> 
[462.555]
<no-speech> 
[462.985]
<no-speech> 
[466.425]

[468.095]
<no-speech> 
[471.655]
a ʧh e a m i m a m i ɾ ʤ o n̪ n̪ o o d̪ e ɾ ʃ ɔ b k ɔ t̪h a i b o l̪ b o n̪ i ʃ ʧ ɔ e i 
[475.495]
<no-speech> 
[476.505]
<breath> h æ l̪ o 
[477.975]
<no-speech> 
[487.075]
<no-speech> 
[496.175]
a m i æ kh o n̪ b o l̪ i h æ̃ t̪ o m a ɾ <hes> b a b a a ʧh e t̪ u m i a ʧh o t̪ u m i <hes> t̪ a i b o l̪ t̪ e ʧh o k i bh a b e ʃ a m a l̪ d̪ e b a ɾ a m a d̪ e ɾ b a ɾ i t̪ e a m a ɾ m a æ k a i t̪ a h o l̪ e a m a ɾ m a ɾ k i h ɔ b e ɔ b o s t̪h a 
[506.875]
<no-speech> 
[514.379938]
<no-speech> 
[521.884875]
<no-speech> 
[522.324875]
<no-speech> 
[523.245]
<no-speech> 
[523.655]
<no-speech> 
[531.495]
<no-speech> 
[539.335]
k i 
[539.865]
<no-speech> 
[545.185]
h u 
[545.775]
<no-speech> 
[556.945]
<no-speech> 
[568.115]
h u m h u 
[568.665]
<no-speech> 
[569.845]
h ɔ ʃ ʃ u 
[570.445]
<no-speech> 
[574.795]
<no-speech> 
[575.285]
<no-speech> 
[579.455]
h ɔ ʃ ʃ u 
[580.075]
<no-speech> 
[587.305]
t̪ o m ɾ a l̪ i s ʈ b a n̪ a b a ʤ e e i b a ɾ i t̪h e k e æ t̪ o ʤ o n̪ <hes> b a ɾ i b a ɾ i m a n̪ e t̪ o m a d̪ e ɾ ʤ o d̪ i ɔ t̪ o b ɔ ɾ o bh a i g u ʃ ʈ i h ɔ e t̪ a h o l̪ e p ɾ o t̪ i b a ɾ i æ k ʤ o n̪ æ k ʤ o n̪ k o ɾ e n̪ i l̪ e h ɔ e ʤ o d̪ i p ɾ o t̪ i b a ɾ i t̪ e t̪ u m i ʤ o d̪ i t̪ i n̪ ʧ a ɾ ʤ ɔ n̪ k o ɾ e n̪ a o t̪ a h o l̪ e t̪ o p o ɾ e <int> 
[599.685]
<no-speech> 
[599.72]
