[0.0]
<no-speech> 
[3.525]
h æ l̪ o 
[4.995]
<no-speech> 
[6.835]
<no-speech> 
[7.225]
<no-speech> 
[8.065]
t̪ o b u o ɾ e k ɔ ɾ ɖ i ŋ t̪ o d̪ u æ k ʈ a p a ɾ l̪ e æ k ʈ u a ɾ o d̪ e b o h æ l̪ o 
[11.245]
<no-speech> 
[12.355]
n̪ e ʈ w ə ɾ k p a s k ɔ ɾ o 
[13.805]
<no-speech> 
[15.725]
n̪ e ʈ w ə ɾ k ʃ a ɾ p k ɔ ɾ o 
[17.045]
<no-speech> 
[24.475]
t̪ o m a ɾ t̪ o a m a ɾ ʧ e e æ k i ʃ ɔ b ʤ a e g a e i b a ɾ i t̪ e ʃ ɔ b a ɾ i 
[29.625]
<no-speech> 
[32.985]
k o m p a n̪ i ɾ n̪ ə m b ə ɾ k o m p a n̪ i ɾ 
[35.805]
<no-speech> 
[37.505]
h u m <int> 
[39.755]
<no-speech> 
[43.255]
k i b o l̪ b o <int> 
[44.555]
<no-speech> 
[47.935]
h u m b a ɾ a s a t̪ e k æ m o n̪ k a ʈ e ʤ a e 
[51.765]
<no-speech> 
[52.885]
b a ɾ a s a t̪ e k æ m o n̪ k a ʈ e ʤ a e 
[54.565]
<no-speech> 
[56.595]
<sta> b o l̪ l̪ a m k o l̪ k a t̪ a e k æ m o n̪ k a ʈ a l̪ ɔ e a k a ɾ 
[59.875]
<no-speech> 
[64.955]
æ 
[65.505]
<no-speech> 
[68.595]
<sta> k o l̪ k a t̪ a e t̪h a k n̪ a i 
[71.505]
<no-speech> 
[74.375]
<no-speech> 
[74.755]
<no-speech> 
[76.425]
<no-speech> 
[77.165]
<no-speech> 
[78.005]
<no-speech> 
[80.205]
<no-speech> 
[81.275]
o h o ʃ e d̪ i n̪ k o l̪ k a t̪ a e 
[84.045]
<no-speech> 
[85.555]
ʤ e d̪ i n̪ k o l̪ k a t̪ a e ʧh i l̪ e o d̪ i n̪ a m i k o l̪ k a t̪ a e ʧh i l̪ a m 
[87.605]
<no-speech> 
[89.105]
<no-speech> 
[89.495]
<no-speech> 
[90.525]
h u m <int> a m i ʃ i a l̪ d̪ ɔ h e ʧh i l̪ a m 
[94.255]
<no-speech> 
[96.115]
a m i ʃ i a l̪ d̪ ɔ h e ʧh i l̪ a m 
[97.725]
<no-speech> 
[100.595]
<sta> kh ɔ b o ɾ a ʧh e t̪ o ʃ e i ʤ o n̪ n̪ e t̪ o b o l̪ l̪ a m d̪ e kh b o k o i t̪ e p a ɾ b o n̪ a k i n̪ a m 
[108.015]
<no-speech> 
[108.915]
n̪ a m b o l̪ t̪ e p a ɾ b o n̪ a k i <no-speech> 
[112.655]
n̪ a a m i i b o l̪ l̪ a m b ɔ l̪ a ʤ a b e n̪ a 
[115.035]
<no-speech> 
[124.805]
h u 
[125.425]
<no-speech> 
[128.954875]
<sta> k i b o l̪ l̪ i a m a ɾ <oov> a m a ɾ p ɔ ʧh o n̪ d̪ o h o e ɾ o e i ʧh e <laugh> k i k o ɾ b o b ɔ l̪ a ɾ ʃ e i k i ʧh u t̪ o k ɔ ɾ a ɾ n̪ e i 
[140.365]
ʃ e d̪ a d̪ u k o i <hes> d̪ i d̪ i 
[142.565]
<no-speech> 
[143.915]
a ʤ k e n̪ a ʃ o n̪ i b a ɾ k ɔ t̪h a b o l̪ b i k i k o ɾ e 
[146.615]
<no-speech> 
[151.075]
ɔ i ʃ o n̪ i b a ɾ h a ph n̪ e i 
[152.535]
<no-speech> 
[159.835]
<no-speech> 
[160.885]
<no-speech> 
[162.555]
ɾ a t̪ ɾ e b æ l̪ a m a t̪ o k e ph o n̪ k o ɾ b e n̪ e <hes> ɾ a ʤ u ɾ d̪ i k t̪h e k e ɾ a ʤ u b i k e l̪ b æ l̪ a e ph o n̪ k o ɾ b e <int> 
[169.235]
<no-speech> 
[171.025]
<sta> h æ̃ ɾ a ʤ u ɾ m o b a i l̪ e i ph o n̪ k o ɾ b e b ɔ ɾ d̪ i ɾ a t̪ ɾ i b æ l̪ a e o k ɔ kh o n̪ ɖh o k e ɖh u k e æ k ʈ a m i s ɖ k ɔ l̪ d̪ i e ʧh e a m a ɾ m o b a i l̪ e 
[176.995]
<no-speech> 
[179.325]
<sta> h æ̃ k æ n̪ o a m a ɾ n̪ ə m b ə ɾ n̪ a i n̪ a k i 
[181.305]
<no-speech> 
[183.725]
<sta> h æ̃ n̪ o t̪ u n̪ t̪ o n̪ ə m b ə ɾ 
[186.785]
<no-speech> 
[187.735]
<sta> n̪ a n̪ o t̪ u n̪ k o n̪ o n̪ ə m b ə ɾ n̪ e i h u 
[190.115]
<no-speech> 
[191.615]
<no-speech> 
[192.355]
<no-speech> 
[193.395]
<sta> kh ɔ n̪ t̪h e k e e i kh a n̪ e t̪ o h æ̃ 
[196.475]
<no-speech> 
[198.255]
<sta> n̪ a n̪ ʈ u d̪ i e i kh a n̪ e 
[200.515]
<no-speech> 
[202.375]
<sta> n̪ a n̪ ʈ u d̪ i e i kh a n̪ e 
[203.605]
<no-speech> 
[205.325]
<no-speech> 
[205.855]
<no-speech> 
[207.785]
<sta> h u 
[208.745]
<no-speech> 
[211.745]
<sta> h u m k o ɾ b o æ k gh ɔ n̪ ʈ a p o ɾ e ph o n̪ k o ɾ b o 
[214.105]
<no-speech> 
[215.875]
æ k gh ɔ n̪ ʈ a p o ɾ e ph o n̪ k o ɾ b o 
[217.885]
<no-speech> 
[219.425]
<sta> b u ʤh e ʧh o 
[221.265]
<no-speech> 
[223.085]
h u 
[223.935]
<no-speech> 
[226.525]
h æ̃ n̪ a h ɔ e n̪ a i e ɾ m o d̪ d̪h e i k e ʈ e d̪ i l̪ e 
[228.725]
<no-speech> 
[229.755]
<no-speech> 
[230.405]
<no-speech> 
[231.525]
<sta> h æ̃ a g e k a ʈ l̪ e h o i t̪ e <hes> k i b i p o d̪ e p o ɾ ʧh i 
[238.875]
<no-speech> 
[241.215]
n̪ a k i ʧh u n̪ a i ʃ e ɾ a n̪ n̪ a k i h o e ʧh e a ʤ k e <int> 
[244.625]
<no-speech> 
[245.465]

[245.895]
<no-speech> 
[247.715]
e i h æ̃ 
[248.375]
<no-speech> 
[253.775]
o h 
[254.465]
<no-speech> 
[256.804875]
w a n̪ t̪h ə ɾ ʈ i 
[257.804875]
<no-speech> 
[259.845]
kh o l̪ e n̪ h u m 
[261.005]
<no-speech> 
[270.185]
ʃ e i æ k gh ɔ n̪ ʈ a p o ɾ e m u kh kh u l̪ i ʃ <int> æ k gh ɔ n̪ ʈ a p o ɾ e æ k ʈ u m u kh kh o l̪ a b o 
[275.355]
<no-speech> 
[277.985]
h æ̃ h æ̃ 
[278.705]
<no-speech> 
[282.485]

[287.305]
<no-speech> 
[289.795]
t̪ o ɾ i s k u l̪ p o ɾ i k kh a h o e ʧh e 
[291.095]
<no-speech> 
[293.095]
l̪ o k kh i ɾ 
[293.905]
<no-speech> 
[296.995]
<sta> h o e g e ʧh i l̪ o h æ̃ 
[299.705]
<no-speech> 
[301.995]
<no-speech> 
[302.395]
<no-speech> 
[306.055]
h æ̃ h æ̃ ʈh i k 
[308.205]
<no-speech> 
[310.245]
h u m 
[310.855]
<no-speech> 
[313.385]
<sta> ʧ o l̪ ʧh e ʃ e i æ k i k o l̪ k a t̪ a e g æ l̪ o e i d̪ i k d̪ i e 
[317.465]
<no-speech> 
[318.305]
<no-speech> 
[318.795]
<no-speech> 
[320.245]
<sta> n̪ a 
[321.705]
<no-speech> 
[324.535]
<sta> t̪ a ɾ p ɔ ɾ t̪ a ɾ p ɔ ɾ e k i ʃ ɔ m o ʃ ʃ a 
[326.635]
<no-speech> 
[329.855]
<sta> ʈh i k a ʧh e 
[332.965]
<no-speech> 
[336.265]
<sta> h æ̃ 
[340.175]
<no-speech> 
[341.535]
n̪ a h 
[342.025]
<no-speech> 
[344.125]
u h u m a ʃ a ɾ k ɔ t̪h a ʧh i l̪ o t̪ o æ k a i a g e t̪ o t̪ o ɾ a ʃ a ɾ k ɔ t̪h a t̪ o ɾ a g e a ʃ a ɾ k ɔ t̪h a ʧh i l̪ o t̪ o n̪ a e kh a n̪ e a ʃ a ɾ k ɔ t̪h a ʧh i l̪ o n̪ a t̪ o ɾ a g e 
[351.715]
<no-speech> 
[355.285]
k ɔ b e k o l̪ k a t̪ a ʤ e t̪ e p a ɾ ʧh o e i d̪ i k e n̪ a m t̪ e p a ɾ o n̪ a i 
[359.985]
<no-speech> 
[360.905]
k o l̪ k a t̪ a ʤ e t̪ e p e ɾ e ʧh o e i kh a n̪ e n̪ a m t̪ e p a ɾ o n̪ a i 
[364.375]
<no-speech> 
[367.185]
u t̪ ʃ ɔ b e t̪ o ʈh i k ʤ ɔ m a d̪ i e ʧh o a ɾ e b a b a u t̪ ʃ ɔ b e e i ʈ a b ɔ l̪ o 
[373.485]
<no-speech> 
[375.465]
i ʧ ʧh e t̪h a k l̪ e ʈh i k m ɔ e d̪ i ɾ gh u <no-speech> 
[381.385]
ʤ a n̪ i t̪ o 
[385.975]
<no-speech> 
[387.295]
a m i kh ɔ b o ɾ n̪ a n̪ i e g e ʧh i k i k i n̪ t̪ u kh ɔ b o ɾ a ʧh e b o l̪ ʧh i 
[390.355]
<no-speech> 
[392.185]
a m i t̪ o ʃ ɔ b kh ɔ b o ɾ ʤ a n̪ i 
[393.635]
<no-speech> 
[400.375]
<no-speech> 
[400.745]
<no-speech> 
[406.315]
<hes> ʧ ɔ l̪ o 
[408.095]
<no-speech> 
[410.595]
a h ʃ o ɾ d̪ i <cough> a m i ʤ ɔ kh o n̪ ph i ɾ i t̪ ɔ kh o n̪ b ɾ i ʃ ʈ i h ɔ l̪ ɔ b o ʃ ʃ o 
[416.625]
<no-speech> 
[418.455]
u h æ kh o n̪ o k a l̪ a ɾ i ʤ a e n̪ i m u kh e ɾ t̪h e k e m u kh e ɾ æ kh o n̪ o k ə l̪ ə ɾ 
[422.945]
<no-speech> 
[427.885]
h u m t̪ a h o l̪ e i kh u ʃ <int> 
[430.695]
<no-speech> 
[431.945]
h u 
[432.585]
<no-speech> 
[434.585]
<sta> h u m h u ʈ k o ɾ e k i n̪ t̪ u k e ʈ e ʤ a b e h u ʈ k o ɾ e k i n̪ t̪ u k e ʈ e ʤ a b e h æ̃ h u ʈ k o ɾ e k e ʈ e ʤ a b e k i n̪ t̪ u h u ʈ k o ɾ e k e ʈ e ʤ a b e ph o n̪ ʈ a k i n̪ t̪ u 
[444.405]
<no-speech> 
[446.325]
ʈh i k a ʧh e 
[447.105]
<no-speech> 
[448.675]
h u 
[449.485]
<no-speech> 
[454.655]
<sta> h æ̃ k i 
[456.815]
<no-speech> 
[462.095]
<sta> o 
[462.905]
<no-speech> 
[464.855]

[465.905]
<no-speech> 
[468.115]
<sta> h u m ʃ ɔ b 
[469.805]
<no-speech> 
[471.885]
<sta> h u m b i a k o ɾ l̪ e i n̪ a ʃ e ʃ 
[478.035]
<no-speech> 
[478.955]
<sta> b i a k o ɾ l̪ e i n̪ a ʃ e ʃ 
[480.335]
<no-speech> 
[482.285]
<sta> ʤ ɔ d̪ d̪ i n̪ b i a n̪ a k o ɾ e t̪h a k a ʤ a e 
[485.175]
<no-speech> 
[487.035]
<sta> ʤ ɔ d̪ d̪ i n̪ b i a n̪ a k o ɾ e t̪h a k a ʤ a e 
[497.895]
<no-speech> 
[499.265]
<sta> h u 
[500.035]
<no-speech> 
[502.685]
<sta> h u 
[503.675]
<no-speech> 
[507.975]
<sta> h u m b i a n̪ a k o ɾ l̪ e i m ɔ ʤ a 
[509.635]
<no-speech> 
[511.715]
h u m h u m h u 
[513.255]
<no-speech> 
[515.065]
<sta> h u 
[516.454875]
<no-speech> 
[518.534875]
h u m oi ʈ a i t̪ o 
[520.064875]
<no-speech> 
[521.255]
m e ʈ ɾ i k d̪ e b o 
[522.415]
<no-speech> 
[523.644875]
b i a n̪ a k o ɾ l̪ e i ʧ a h i d̪ a 
[525.305]
<no-speech> 
[529.285]
h u m h u m h u m <int> 
[532.875]
<no-speech> 
[536.635]
k i <int> 
[538.705]
<no-speech> 
[542.675]
h u m p o ɾ e b o l̪ b o o g u l̪ a 
[544.115]
<no-speech> 
[547.535]
æ kh o n̪ ʤ a s ʈ æ k gh ɔ n̪ ʈ a p o ɾ e 
[549.115]
<no-speech> 
[551.275]
h æ̃ 
[552.095]
<no-speech> 
[554.975]
<sta> h æ̃ 
[556.605]
<no-speech> 
[559.875]
<sta> h u m h u m m o n̪ e k ɔ ɾ i s ʈ e ʃ ə n̪ e ɾ d̪ i k e i 
[563.265]
<no-speech> 
[565.935]
n̪ a h 
[566.845]
<no-speech> 
[567.675]
<no-speech> 
[568.165]
<no-speech> 
[569.355]
n̪ a h <int> 
[572.235]
<no-speech> 
[579.285]
a ɾ e k o n̪ t̪ a l̪ e ɾ t̪h e k e t̪ o k o n̪ t̪ a l̪ e ɾ t̪h e k e e g u l̪ o e ʃ e ʤ a b e e a m a ɾ o æ k ʤ o n̪ b o n̪ d̪h u n̪ i e a ʃ ʧh e t̪ o e g u l̪ o k o l̪ k a t̪ a ɾ t̪h e k e ʃ ɔ b e g u l̪ o k a ʤ d̪ i a ʤ u ʈ e o g u l̪ a ʃ ɔ b b a ɾ i ʧ o l̪ e ʤ e t̪ e k o ɾ e o ɾ a oi ʤ ɔ n̪ n̪ o m a n̪ t̪h l̪ i ʈ i k i ʈ ʈ a k o ɾ b e t̪ a ɾ 
[590.945]
p o ɾ e e i a m a d̪ e ɾ p a ʃ e ɾ b a ɾ i ɾ o d̪ e ɾ k o ɾ b e ʃ ɔ b a i k e <no-speech> 
[595.775]
k i k o ɾ e o g u l̪ o 
[596.775]
<no-speech> 
[599.355]
<no-speech> 
[599.755]
<no-speech> 
[599.98]
