[0.0]
<no-speech> 
[0.065]
<no-speech> 
[2.695]
<no-speech> 
[3.495]
<sta> h æ l̪ o 
[5.145]
<no-speech> 
[6.875]
<sta> a m i d̪ ã ɾ i e a ʧh i 
[9.255]
<no-speech> 
[10.095]
<no-speech> 
[10.595]
<no-speech> 
[11.415]
<sta> h æ̃ ʃ a l̪ i n̪ i d̪ e ɾ b a ɾ i 
[13.505]
<no-speech> 
[16.465]
t̪ u i k o t̪h a e 
[17.295]
<no-speech> 
[18.545]
<sta> h æ̃ h æ̃ <breath> a m i t̪ o k ɔ t̪h a kh ũ ʤ e p a ʧ ʧh i n̪ a t̪ u i k o t̪h a e <no-speech> m a m a ɾ b a ɾ i ʧ o l̪ e e ʃ e ʧh i ʃ 
[27.975]
<no-speech> 
[31.355]
<sta> m a m a ɾ b a ɾ i 
[32.214875]
<no-speech> 
[33.535]
<sta> ʃ i o ɾ t̪ o 
[36.275]
<no-speech> 
[37.135]
<sta> a ɾ 
[38.085]
<no-speech> 
[40.105]
<sta> n̪ a ɾ e e m n̪ i p u ɾ o p u ɾ i t̪ o m a a ʤ k e ʃ ɔ b a m ʃ ɔ t̪ t̪ o k i ʃ m i ʃ ʈ i ʃ m i s e n̪ e ɾ e kh e ʧh e m a ʧ a ʈ n̪ i k o ɾ b e b o l̪ e a m ʃ ɔ t̪ t̪ o k i ʃ m i ʃ ʃ ɔ b 
[50.965]
<no-speech> 
[52.445]
<sta> m a ʧ a ʈ n̪ i k o ɾ b e b o l̪ e a m ʃ ɔ t̪ t̪ o k i ʃ m i ʃ ʃ ɔ b a m ʃ ɔ t̪ t̪ o k i ʃ m i ʃ ʃ ɔ b k i n̪ e e n̪ e ʧh e 
[63.445]
<sta> a m ʃ ɔ t̪ t̪ o k i ʃ m i ʃ ʃ ɔ b k i n̪ e e n̪ e ʧh e <no-speech> a ɾ e b o l̪ ʧh i m a ʧ a ʈ n̪ i k o ɾ b e b o l̪ e ʃ ɔ b k i n̪ e e n̪ e ʧh e b o l̪ e ʧh e k o ɾ b e t̪ o k e 
[74.385]
<no-speech> 
[75.715]
<sta> h æ̃ <breath> ɔ n̪ e k d̪ i n̪ <laugh> t̪ u i k i k o ɾ ʧh i ʃ e i t̪ o d̪ e ɾ k a ɾ b i e 
[85.525]
<no-speech> 
[90.145]
<sta> k i ɾ e <no-speech> n̪ a a m i n̪ i ʤ e t̪h e k e k i n̪ t̪ e p a ɾ i n̪ a 
[96.755]
<no-speech> 
[97.985]
<sta> a m i ʤ a n̪ i n̪ a d̪ e kh i 
[101.605]
<no-speech> 
[104.875]
<sta> n̪ a e i t̪ u i k ɔ b e a ʃ b i n̪ a e i b i e b a ɾ i t̪h e k e 
[108.355]
<no-speech> 
[109.155]
<sta> <breath> b i e b a ɾ i ʈ a k a ɾ k i ʃ e ɾ k o n̪ <hes> 
[113.795]
<no-speech> 
[114.715]
<sta> k a ɾ b i e <no-speech> k a ɾ b i e 
[120.545]
<no-speech> 
[122.555]
<sta> o k i p ɔ ɾ b i k i p ɔ ɾ b i k i b o l̪ ʧh i ʃ 
[131.565]
<no-speech> 
[132.905]
<sta> k i p ɔ ɾ b i 
[136.255]
<no-speech> 
[138.375]
<sta> oi ʤ e t̪ o ɾ gh a gh ɾ a ʈ a o o ʈ a l̪ e h e ŋ g a n̪ a gh a gh ɾ a o ʈ a l̪ e h e ŋ g a n̪ a gh a gh ɾ a 
[147.575]
<no-speech> 
[151.915]
<sta> k e ʤ a n̪ i ʃ ʧ u l̪ t̪ o a m i ʧ u l̪ k e ʈ e d̪ i e ʧh i <no-speech> a m i ʧ u l̪ k e ʈ e d̪ i e ʧh i 
[159.515]
<no-speech> 
[161.145]
<sta> e m n̪ i g ɔ ɾ o m e p a ɾ a ʤ a e n̪ a 
[164.135]
<no-speech> 
[165.095]
g ɔ ɾ o m e 
[166.045]
<no-speech> 
[167.065]
æ k d̪ o m e i ʈ u k u n̪ i t̪ u i d̪ e kh l̪ e b u ʤh t̪ e p a ɾ b i 
[169.875]
<no-speech> 
[171.445]
h æ̃ 
[172.995]
<no-speech> 
[174.485]
<int> 
[175.365]
<no-speech> 
[179.005]
æ 
[179.725]
<no-speech> 
[183.815]
<sta> a m i e m n̪ i b o l̪ i a m i t̪ o ɾ n̪ a m e i b o l̪ i 
[188.125]
<no-speech> 
[189.155]
<sta> h æ̃ <breath> e i ʈ u k ʈ u k i a m a e b o l̪ ʧh e ʤ e a m i ʧ a i n̪ a t̪ o ɾ k o n̪ o kh o t̪ i h o k t̪ u i a m a ɾ b o n̪ h o ʃ a m i b o l̪ i b a b a 
[197.055]
<no-speech> 
[198.825]
<sta> t̪ o ɾ a m i ʧ a i n̪ a t̪ o ɾ k o n̪ kh o t̪ i h o k 
[202.835]
<no-speech> 
[204.945]
<sta> a m i ʧ a i n̪ a t̪ o ɾ k o n̪ o kh o t̪ i h o k <no-speech> 
[210.235]
<sta> e i e m n̪ i b o l̪ ʧh e a m a k e g æ n̪ d̪ i ʧ ʧh e a m i k i b o l̪ b o a m a k e g æ n̪ d̪ i ʧ ʧh e 
[217.355]
<no-speech> 
[218.595]
<sta> oi ʃ o n̪ u 
[222.325]
<no-speech> 
[224.615]
<sta> oi ʤ e ʃ o n̪ u ʃ o n̪ u 
[228.145]
<no-speech> 
[230.175]
<sta> ʃ o n̪ u ʃ o n̪ u k a n̪ ɾ e 
[233.505]
<no-speech> 
[235.165]
<sta> i ʧ ʧh a k o ɾ e b e ʧ e ʧh i ʧ u p k ɔ ɾ 
[237.945]
<no-speech> 
[242.645]
<sta> h æ̃ a m a ɾ p a ʃ e m i l̪ i ɾ m a d̪ ã ɾ i e n̪ a 
[247.175]
<no-speech> 
[250.205]
<sta> e i t̪ o k e a m i k ɔ kh o n̪ t̪ o ɾ m a e ɾ ph o n̪ e ph o n̪ k o ɾ b o t̪ o ɾ m a e ɾ ph o n̪ e i ph o n̪ k o ɾ b o t̪ o ɾ m a e ɾ ph o n̪ e i ph o n̪ k o ɾ b o e i ʤ e m a n̪ e e i m o d̪ d̪h e 
[263.075]
<no-speech> 
[266.055]
<sta> e i <hes> k a l̪ k e t̪ o k e ph o n̪ k o ɾ e ʧh i ph o n̪ b i ʤ i p e e ʧh i a m i 
[271.015]
<no-speech> 
[272.005]
<sta> h u m ʤ a n̪ i n̪ a ph o n̪ b i ʤ i ʧh i l̪ o a ɾ a ɾ t̪ o k e a m i e i a ʤ k a l̪ e ɾ m o d̪ d̪h e i k ɔ l̪ k o ɾ b o t̪ o ɾ m a e ɾ ph o n̪ e i k o ɾ b o 
[282.745]
<no-speech> 
[285.215]
<sta> s p i k a ɾ 
[285.805]
<no-speech> 
[286.685]
<sta> a ʤ k e n̪ a <hes> a ʤ k e ɾ p ɔ ɾ i 
[289.565]
<no-speech> 
[291.275]
<sta> t̪ o ɾ m a e ɾ ph o n̪ e i k o ɾ b o 
[293.435]
<no-speech> 
[296.945]
<sta> ʈh i k a ʧh e 
[299.985]
<no-speech> 
[301.075]
<sta> <laugh> ʈh i k a ʧh e k o ɾ b o 
[303.375]
<no-speech> 
[304.345]
n̪ a ɾ e b a b a <int> 
[308.465]
<no-speech> 
[309.945]
<sta> a m i ʃ a ɾ i i ʤ e p a i 
[311.925]
<no-speech> 
[314.785]
<no-speech> 
[315.175]
<no-speech> 
[316.255]
<no-speech> 
[318.665]
<no-speech> 
[319.555]
<sta> h æ̃ ʈh i k <breath> a ɾ e e e ʈ a t̪ e k i b o l̪ t̪ o d̪ ɔ ʃ m i n̪ i ʈ ʤ a ɾ ʃ a t̪h e h o k g e ʤ a t̪ e h ɔ b e 
[325.985]
<no-speech> 
[327.805]
<sta> ʤ a ɾ ʃ a t̪h e kh u ʃ i 
[329.135]
<no-speech> 
[332.245]
<sta> a ɾ e k i k o ɾ b o a m a ɾ bh ɔ e l̪ a g ʧh i l̪ o l̪ i n̪ i ɾ m a a ʧh e t̪ o <no-speech> a m i ʤ e t̪ o k e ʧh a ɾ t̪ u m i t̪ u m i k o ɾ e k ɔ t̪h a b o l̪ l̪ o n̪ a 
[341.745]
<no-speech> 
[343.605]
<no-speech> 
[344.075]
<no-speech> 
[345.915]
a ɾ <no-speech> 
[347.635]
<sta> e b a b a o b o n̪ b u ʤh t̪ e p a ɾ b e n̪ a k æ ʧ a k æ ʧ a k o ɾ b e k o n̪ ʧh e l̪ e ɾ ph o n̪ t̪h e k e ph o n̪ k o ɾ ʧh i e k o ɾ ʧh i h a ʤ a ɾ ʈ a p ɾ o ʃ n̪ o <no-speech> bh a l̪ o h o e ʧh e a m i m o n̪ e h ɔ e ɾ e 
[359.485]
b ɔ ɾ d̪h o m a n̪ ʧ o l̪ e ʤ a b o b ɾ i h o ʃ p o t̪ i b a ɾ <sta> 
[361.355]
<no-speech> 
[363.575]
<sta> k i <no-speech> b ɾ i h o ʃ p o t̪ i b a ɾ ʤ a b o ʃ u k ɾ o b a ɾ ʧ o l̪ e a ʃ b o b ɔ ɾ d̪h o m a n̪ t̪h e k e h æ̃ b ɔ l̪ 
[370.655]
<no-speech> 
[371.945]
<no-speech> 
[372.385]
<no-speech> 
[374.525]
<sta> e i t̪ u i k i p a g o l̪ n̪ a k i a m i <hes> a m a ɾ b a b a ʧ o l̪ e a ʃ b e n̪ a a m i æ k a i ʤ a b o a m a ɾ m a t̪h a k b e n̪ a e kh a n̪ e 
[380.345]
<no-speech> 
[381.515]
<sta> h æ̃ bh a l̪ o k ɔ t̪h a h æ̃ t̪ u i ʤ o d̪ i n̪ a a ʃ i ʃ t̪ a h o l̪ e a m a k e b a ɾ ɖ e w i ʃ k o ɾ b e n̪ a 
[388.985]
<no-speech> 
[392.615]
<sta> ʧ a ɾ ʈ e 
[393.715]
<no-speech> 
[395.695]
<sta> k æ n̪ o a m i o kh e t̪ e g e ʧh i l̪ a m 
[397.945]
<no-speech> 
[400.085]
a m i ʤ a b o n̪ a t̪ o <int> 
[402.555]
<no-speech> 
[404.575]
<sta> t̪ o t̪ o k e o d̪ e ɾ b a ɾ i t̪ e p a ʈh i e d̪ e b d̪ i e a ɾ ʤ a b o n̪ a 
[408.565]
<no-speech> 
[412.395]
<sta> a m i ʤ a b o n̪ a t̪ o ʤ a b o i n̪ a 
[415.645]
<no-speech> 
[419.465]
<sta> a m i ʤ a b o i n̪ a ɔ ʃ ɔ m bh ɔ b 
[422.485]
<no-speech> 
[424.025]
<no-speech> 
[424.485]
<no-speech> 
[426.335]
<sta> w i ʃ k o ɾ b e n̪ a k o ɾ b e n̪ a a m a ɾ k o n̪ o ʤ a e a ʃ e n̪ a a m i ʤ a b o n̪ a 
[432.365]
<no-speech> 
[434.055]
<sta> a m i k i k o ɾ b o a m i ʤ a b o n̪ a k i b ɔ l̪ 
[440.145]
<no-speech> 
[442.655]
<sta> t̪ u i ɔ ɾ n̪ o b k e m æ n̪ e ʤ k ɔ ɾ t̪ a ɾ p ɔ ɾ b o l̪ b i a m i ɾ e g e g e ʧh i 
[445.945]
<no-speech> 
[446.765]
<sta> t̪ u i b o l̪ b i ʤ e a m i ɾ e g e g e ʧh i 
[450.715]
<no-speech> 
[453.975]
<sta> oi t̪ o k e e i e i k ɔ t̪h a ʈ a ɾ ʤ o n̪ n̪ e 
[457.865]
<no-speech> 
[458.785]
<sta> o ph t̪ u i b o l̪ b i ʤ e a m i ɾ e g e g e ʧh i ʃ u n̪ e ʤ e <hes> m a n̪ e <no-speech> 
[465.875]
<sta> a m a ɾ m a k e k æ n̪ o d̪ u ɾ t̪h e k e m æ n̪ e ʤ k o ɾ b i ph o n̪ <no-speech> 
[471.185]
<sta> a ɾ e ph o n̪ k o ɾ e b o l̪ b i o h 
[472.885]
<no-speech> 
[476.165]
<sta> b o l̪ b i a g e ʤ o d̪ i m æ n̪ e ʤ h ɔ e t̪ a h o l̪ e a m i ʤ a b o n̪ ɔ e t̪ o ʤ a b o n̪ a 
[482.555]
<no-speech> 
[484.045]
<sta> <breath> a ɾ e o k e a m i ʤ a i b o l̪ i t̪ a i b o l̪ e o k e a m i b o l̪ e ʧh i t̪ u m i ph o n̪ k ɔ ɾ e k ɔ ɾ e ʃ ɔ b n̪ i e b o l̪ e ʧh i a m i t̪ o a g e ɾ d̪ i n̪ i kh e e ʧh i m a n̪ e ʤ e d̪ i n̪ k e ph o n̪ k ɔ ɾ t̪ a ɾ a g e ɾ d̪ i n̪ i ʃ e g u l̪ o ʧh a ɾ e 
[496.025]
<sta> e i t̪ o ɾ ʃ a t̪h e ʈ u k a i ʤh ɔ g ɾ a k o ɾ ʧh i l̪ o n̪ a ʃ i d̪ d̪h a ɾ t̪h o n̪ i e <breath> <no-speech> æ b u ʤh t̪ e p e ɾ e ʧh i b ɔ l̪ b ɔ l̪ o ɾ l̪ a i ph e ʃ u d̪h u ʃ i d̪ d̪h a ɾ t̪h o ɾ i o d̪h i k a ɾ a ʧh e 
[507.955]
h æ̃ a m a ɾ ʃ a m n̪ e i 
[509.065]
<no-speech> 
[512.355]
<sta> a m i o kh e t̪ e g e ʧh i a m a k e a b a ɾ ʃ a n̪ u k e n̪ i e b o l̪ e ʧh e <breath> a b a ɾ e b o l̪ ʧh e ʈ u k a i b o l̪ ʧh e ʃ a n̪ u ʤ e d̪ i n̪ t̪ o k e p ɾ o p o ʤ k o ɾ b e u d̪ o m g a l̪ a g a l̪ i d̪ i b i a m a ɾ t̪h e k e d̪h a ɾ n̪ i e d̪ i b i a m i b o l̪ ʧh i k e k a ɾ ʃ o n̪ e 
[523.315]
<sta> k i a ɾ e n̪ a b u ʤh l̪ i k i b o l̪ l̪ a m b o l̪ l̪ o ʤ e ʃ a n̪ u ʤ o d̪ i a m a e p ɾ o p o ʤ k o ɾ e <breath> 
[534.925]
<sta> t̪ a h o l̪ e a m i o ɾ t̪h e k e d̪h a ɾ n̪ i e g a l̪ a g a l̪ i d̪ e b o k e 
[538.705]
<no-speech> 
[542.065]
<sta> k i b ɔ l̪ 
[544.635]
<no-speech> 
[546.765]
<sta> k i b o l̪ b i bh a l̪ o l̪ a g ʧh e 
[550.455]
<no-speech> 
[553.335]
<sta> a m i b o l̪ e ʧh i ʤh a l̪ l̪ a g b e o ɾ ʃ a t̪h e a m i g ɔ l̪ p o k o ɾ ʧh i l̪ a m a g e ɾ d̪ i n̪ 
[558.975]
<no-speech> 
[559.995]
<sta> <laugh> k i 
[565.345]
<no-speech> 
[567.415]
k i <sta> k i 
[568.715]
<no-speech> 
[572.325]
<sta> h æ̃ ʤ a n̪ i a m i <breath> b o l̪ ʧh e ʃ o t̪ t̪ o n̪ a ʃ h o g e a <laugh> 
[577.485]
<no-speech> 
[578.415]
<sta> a m a ɾ ʃ u d̪h u k ɔ t̪h a b o l̪ ʧh e a ɾ k i <breath> a ɾ k i p i ʃ i b o l̪ ʧh e a m i ph o n̪ k a ʈ b o p i ʃ i k e b o l̪ ʧh e t̪ o k e a m i ph e l̪ e k a ʈ b o a ɾ k i ʧh u i ʃ a h a ʤ ʤ o k o ɾ b o n̪ a <breath> t̪ a ɾ p ɔ ɾ b o l̪ e ʃ o n̪ a b o n̪ k o ɾ i ʃ <sta> kh u b <laugh> 
[591.205]
<no-speech> 
[592.535]
<sta> <laugh> a ɾ p i ʃ i e i ʃ o n̪ p i ʃ i k e a m i æ k ʈ a m e s e ʤ p a ʈh i e ʧh e k i a ɾ t̪ o m a k e p e e a m i a ʤ 
[599.805]
<no-speech> 
[599.9]
