[0.0]
<no-speech> 
[1.065]
<int> h æ l̪ o 
[2.665]
<no-speech> 
[6.275]
<male-to-female> h æ̃ <no-speech> h æ l̪ o 
[8.365]
<no-speech> 
[10.995]
e i ʈ a k i e a ʧh e s p i k ə ɾ e h æ l̪ o ʃ e i æ k ʈ a s ə ɾ v e h o ʧ ʧh e t̪ o b o l̪ ʧh e m a n̪ e a m ɾ a n̪ i k ɔ ʈ æ k ʤ o n̪ ph o n̪ k o ɾ t̪ e m a n̪ e k ɔ t̪h a b ɔ l̪ a ɾ ʤ o n̪ n̪ o d̪ ɔ ʃ m i n̪ i ʈ <no-speech> k ɔ t̪h a ʈ a 
[22.985]
<sta> æ 
[24.645]
<no-speech> 
[26.475]
æ k ʈ a m a n̪ e n̪ i k ɔ ʈ k a u k e ph o n̪ k o ɾ e m a n̪ e b o n̪ d̪h u b a n̪ d̪h ɔ b k e ph o n̪ k o ɾ e k ɔ t̪h a b o l̪ u n̪ m a n̪ e g i ph ʈ a ʧh e æ k ʈ a 
[32.305]
<no-speech> 
[34.435]
h æ̃ <no-speech> oi ʤ ɔ n̪ n̪ o t̪ o ɾ n̪ ə m b ə ɾ ʈ a d̪ i e ʧh i t̪ o a m i d̪ ɔ ʃ m i n̪ i ʈ k ɔ t̪h a b o l̪ e n̪ i i o ɾ ʃ a t̪h e 
[39.145]
<no-speech> 
[40.775]
<no-speech> 
[42.675]
h æ̃ 
[43.265]
<no-speech> 
[45.835]
a m i gh ɔ ɾ e t̪ e i a ʧh i 
[47.265]
<no-speech> 
[50.185]
h æ̃ h æ̃ 
[51.135]
<no-speech> 
[54.215]
t̪ a b o l̪ t̪ e p a ɾ b o n̪ a a m i ʈh i k 
[55.515]
<no-speech> 
[56.355]
æ k e k <no-speech> 
[59.815]
h æ̃ k e b o l̪ l̪ o 
[61.025]
<no-speech> 
[65.605]
h u 
[66.175]
<no-speech> 
[68.925]
h u 
[69.485]
<no-speech> 
[75.055]
<no-speech> 
[75.605]
<no-speech> 
[81.235]
<no-speech> 
[81.665]
<no-speech> 
[89.975]
<no-speech> 
[98.285]
<sta> oi ʤ e ʧ oi t̪ a l̪ i e ʃ ʧh e n̪ a 
[101.155]
<no-speech> 
[103.215]
h æ̃ ʧ oi t̪ a l̪ i e ʃ ʧh e e i ʃ i l̪ a d̪ e ɾ b a ɾ i t̪ e o k e gh u ɾ t̪ e n̪ i e g e ʧh i l̪ a m 
[106.565]
<no-speech> 
[108.435]
ʧ oi t̪ a l̪ i e ʃ ʧh e e i ʧ oi t̪ a l̪ i e ʃ ʧh e ɔ n̪ e k d̪ i n̪ m a ʃ i m a ɾ b a ɾ i t̪ e ʧh i l̪ e n̪ a m a ɾ m a ʃ i b a ɾ i t̪h e k e e i p o ɾ ʃ u d̪ i n̪ k e a m a d̪ e ɾ b a ɾ i t̪ e e ʃ ʧh e 
[115.015]
<no-speech> 
[115.835]
a p 
[117.865]
<no-speech> 
[119.695]
h æ̃ <hes> a b a ɾ k a l̪ k e ʃ i l̪ a d̪ e ɾ b a ɾ i t̪ e n̪ i m ɔ n̪ t̪ ɾ ɔ n̪ a ʧh e k a l̪ k e a b a ɾ ʤ a b o <sta> 
[124.655]
<no-speech> 
[127.995]
h æ̃ oi ɾ ɔ k o m i oi h æ̃ b o l̪ e ʧh e a m a k e n̪ i e ʤ e t̪ e b o l̪ e ʧh e 
[131.935]
<no-speech> 
[133.155]
h æ̃ 
[133.725]
<no-speech> 
[136.755]
n̪ a n̪ a ɔ gh ɾ a n̪ m a ʃ e 
[137.785]
<no-speech> 
[140.415]
h u 
[141.325]
<no-speech> 
[147.155]
ʃ u n̪ e ʧh i t̪ o ʃ u n̪ e ʧh i 
[149.145]
<no-speech> 
[151.955]
h u m ʤ a i ʤ o d̪ i ʤ a g ɔ ɾ o m a ɾ ʃ ɔ ʃ ʈ i m ɔ ʃ ʈ i bh a l̪ o l̪ a g e n̪ a 
[155.515]
<no-speech> 
[157.065]
b o l̪ ʧh i ʤ a g ɔ ɾ o m p o ɾ e ʧh e a ɾ ʃ ɔ ʃ ʈ i m ɔ ʃ ʈ i bh a l̪ o l̪ a g e n̪ a 
[159.575]
<no-speech> 
[166.135]
<no-speech> 
[172.695]
h u 
[173.505]
<no-speech> 
[183.595]
h æ̃ d̪ a d̪ a s e ʈ a i b o l̪ ʧh e b o l̪ ʧh e a m a ɾ o ɾ b ɔ l̪ a ɾ t̪ o b o l̪ e ʧh i e i b a ɾ o e l̪ o n̪ a e l̪ o o ɾ b æ p a ɾ 
[188.685]
<no-speech> 
[190.515]
h u m d̪ a d̪ a a m a k e o t̪ a i b o l̪ ʧh e 
[192.395]
<no-speech> 
[196.525]
<no-speech> 
[196.895]
<no-speech> 
[202.705]
k e d̪ i d̪ i k o ɾ e ʧh i l̪ o 
[203.765]
<no-speech> 
[206.525]
<int> o g ɔ l̪ a b æ t̪h a 
[208.415]
<no-speech> 
[209.875]
<no-speech> 
[211.245]
<no-speech> 
[212.975]
o h 
[213.745]
<no-speech> 
[218.305]
o 
[218.915]
<no-speech> 
[225.385]
m ɔ n̪ a d̪ a k i ʧh u b o l̪ ʧh i l̪ o <int> 
[226.595]
<no-speech> 
[234.755]
<no-speech> 
[242.915]
ʤ a n̪ e d̪ i d̪ a b o l̪ e ʧh e t̪ o 
[244.315]
<no-speech> 
[246.265]
h u m <int> 
[247.735]
<no-speech> 
[251.865]
<no-speech> 
[252.425]
<no-speech> 
[258.485]
h u 
[259.205]
<no-speech> 
[260.325]
o a m i kh e t̪ e g e l̪ a m h u m t̪ u i b ɔ l̪ a m i <hes> b o l̪ i ph o n̪ k e ʈ e g e l̪ e a b a ɾ p o ɾ e k o ɾ b o s e l̪ s m æ n̪ ɾ a ʧ o l̪ e g e l̪ e b ɔ l̪ h u m <sta> 
[268.985]
<no-speech> 
[271.415]
d̪ ɔ ʃ m i n̪ i ʈ 
[272.555]
<no-speech> 
[276.825]
<no-speech> 
[277.445]
<no-speech> 
[282.465]
h u 
[283.065]
<no-speech> 
[293.915]
<sta> 
[295.705]
<no-speech> 
[303.175]
o kh a n̪ e p ɾ o t̪ i g g a i k ɔ ɾ a ʤ a b e n̪ a o kh a n̪ e a t̪ t̪ i o ʃ ɔ ʤ o n̪ e ɾ b a ɾ i t̪ e n̪ i e ʤ a b e n̪ a m a n̪ e e i ɾ ɔ k o m b æ p a ɾ a m a d̪ e ɾ b a ɾ i t̪ e t̪ o e k d̪ i n̪ o a ʃ e n̪ i m a n̪ e b a p e ɾ b a ɾ i t̪ e 
[309.325]
<no-speech> 
[319.595]
<no-speech> 
[329.865]
h u m <sta> 
[332.075]
<no-speech> 
[333.635]
<sta> ɾ i a k e o ph o n̪ k o ɾ e n̪ a æ k b a ɾ o ph o n̪ k o ɾ e n̪ a <no-speech> b o l̪ ʧh i ɾ i a ɾ b a b a k e d̪ i e o æ k b a ɾ o k a u k e ph o n̪ k ɔ ɾ a e n̪ a 
[343.455]
<no-speech> 
[344.605]
ʤ e t̪ o ɾ a k ɔ ɾ ɔ n̪ t̪ o t̪ o 
[346.075]
<no-speech> 
[355.525]
h u m <sta> b o l̪ e k a k u o ph o n̪ ʈ o n̪ k o ɾ e k i ʧh u b o l̪ e n̪ a n̪ a 
[358.585]
<no-speech> 
[364.985]
<no-speech> 
[365.375]
<no-speech> 
[368.085]
<no-speech> 
[368.565]
<no-speech> 
[372.665]
h u m <no-speech> 
[375.235]
<sta> ɔ m ɔ l̪ k e p a ʈh i e d̪ e 
[376.985]
<no-speech> 
[378.375]
b a ɾ i t̪ e ɖh u k e e ʃ ʧh i ʃ <sta> h æ l̪ o 
[383.885]
<no-speech> 
[384.815]
b o l̪ i b a ɾ i ʈ a d̪ æ kh e e ʃ e ʧh i ʃ ɾ ɔ e ɔ n̪ u ʃ ʃ ɔ ɾ k ɔ ɾ a ɾ p o ɾ e 
[387.265]
<no-speech> 
[398.575]
k o t̪h a e k i m o n̪ e k o ɾ l̪ a m k i ʤ a n̪ i ph o n̪ ʈ a d̪h o ɾ e ʧh i l̪ o o ʧh o ʈ o bh a i a g e ph o n̪ ʈ a d̪h o ɾ e ʧh i l̪ o o k i m o n̪ e k o ɾ l̪ o k e ʤ a n̪ e a g e a m i k ɔ t̪h a b o l̪ t̪ e p a ɾ i n̪ i k æ n̪ o oi ʧh e l̪ e ʈ a ɾ ʃ a t̪h e m a n̪ e t̪ o k e k ɔ t̪h a b ɔ l̪ a b e b o l̪ e h ɔ e t̪ o 
[408.695]
<no-speech> 
[420.435]
o h 
[420.995]
<no-speech> 
[427.555]
h u 
[428.155]
<no-speech> 
[429.375]
o h <int> 
[430.965]
<no-speech> 
[434.105]
h u 
[434.705]
<no-speech> 
[435.765]
k o t̪h a e oi g e l̪ i a b a ɾ <sta> 
[438.665]
<no-speech> 
[442.555]
o ʈh a k u ɾ e ɾ <sta> ou ʃ ɔ d̪h o h 
[445.675]
<no-speech> 
[453.995]
<no-speech> 
[454.405]
<no-speech> 
[464.135]
<no-speech> 
[464.835]
<no-speech> 
[466.565]
ʃ i m a bh a l̪ o a ʧh e 
[467.585]
<no-speech> 
[475.625]
e ʈ a i d̪ a d̪ a æ k ʈ a k a ʤ e ɾ k a ʤ i k o ɾ e ʧh e 
[477.305]
<no-speech> 
[479.475]
d̪ a d̪ a æ k ʈ a k a ʤ e ɾ k a ʤ i k o ɾ e ʧh e 
[481.245]
<no-speech> 
[487.955]
<no-speech> 
[488.515]
<no-speech> 
[496.085]
<sta> h u m t̪ a l̪ e i h o e g æ ʧh e 
[499.205]
<no-speech> 
[506.795]
<sta> ʤ e ʈ a k a e ʃ ɔ ʃ ʈ i 
[514.415]
<no-speech> 
[515.615]
h æ̃ oi s p i k ə ɾ e d̪ e o a a ʧh e t̪ o <breath> a m i b o l̪ ʧh i ʤ e a m i b o l̪ l̪ a m ʃ ɔ ʃ ʈ i k ɔ ɾ a ɾ k i d̪ ɔ ɾ k a ɾ ʧh i l̪ o ʤ e ʈ a k a ʃ ɔ ʃ ʈ i t̪ e kh ɔ ɾ ʧ a k o ɾ b i ʃ e ʈ a k a e t̪ u i ɖ a k t̪ ə ɾ d̪ æ kh a <sta> <no-speech> 
[532.205]
ʃ e i t̪ o g ɔ ɾ o m e ɾ m o d̪ d̪h e ʃ o t̪ t̪ i a m a ɾ ʤ a o a ɾ m a n̪ e e i g ɔ ɾ o m e t̪ e a m a ɾ ʃ ɔ ʃ ʈ i ph ɔ s ʈ i k ɔ ɾ a ɾ <int> 
[536.775]
<no-speech> 
[544.635]
h u 
[545.215]
<no-speech> 
[550.425]
<no-speech> 
[550.775]
<no-speech> 
[553.965]
h u 
[554.735]
<no-speech> 
[557.825]
h u 
[558.375]
<no-speech> 
[559.895]
o <int> 
[561.255]
<no-speech> 
[567.375]
o n̪ a o t̪ o b o l̪ ʧh e g ɔ ɾ o m e t̪ e t̪ o m a ɾ ʤ a m a i b a b u <sta> ʤ ɔ kh o n̪ a ʃ b e n̪ a d̪ i d̪ i ʤ a m a i b a b u <breath> k ɔ ɾ a ɾ d̪ ɔ ɾ k a ɾ k i a ʧh e 
[572.945]
<no-speech> 
[575.815]
m a o b o l̪ ʧh e b a ɾ i t̪ e <sta> 
[578.345]
<no-speech> 
[580.165]
h u 
[581.205]
<no-speech> 
[582.155]
<sta> e i ʧ oi t̪ a l̪ i e ʃ ʧh e ʧ oi t̪ a l̪ i k e n̪ i e e d̪ i k ʃ e d̪ i k gh u ɾ ʧh i e i k a l̪ k e ʤ a b o a b a ɾ ʃ i l̪ a d̪ e ɾ b a ɾ i t̪ e ʃ i l̪ a n̪ i m ɔ n̪ t̪ ɾ ɔ n̪ k o ɾ e ʧh e k a l̪ k e ʤ a o a ɾ ʤ o n̪ n̪ o k a l̪ k e ʤ a b o a b a ɾ a b a ɾ p o ɾ ʃ u d̪ i n̪ k e m a m a m a m i a ʃ b e b ɔ ɾ o m a m i b ɔ ɾ o m a m a a ʃ b e 
[593.885]
<no-speech> 
[598.765]
h æ̃ 
[599.195]
<no-speech> 
[599.3]
