[0.0]
<no-speech> 
[8.575]
h æ l̪ o 
[9.265]
<no-speech> 
[11.245]
h æ l̪ o p i ʃ i <sta> h æ̃ p i ʃ i d̪ ɔ ʃ m i n̪ i ʈ k ɔ t̪h a b ɔ l̪ o a m a ɾ ʃ a t̪h e h æ̃ 
[16.555]
<no-speech> 
[18.665]
<int> <breath> h æ̃ k i k o ɾ ʧh o <int> 
[20.325]
<no-speech> 
[22.795]
<lipsmack> p i ʃ i 
[23.535]
<no-speech> 
[25.815]
<sta> ʃ o n̪ m a n̪ e k i <no-speech> m a n̪ e k i h o e ʧh i l̪ o b æ p a ɾ ʈ a ʤ a n̪ o t̪ o m a n̪ e d̪ ɔ ʃ m i n̪ i ʈ ph ɾ i p a i ʧh i ʈ a k a e 
[32.985]
<no-speech> 
[34.055]
æ k ʈ a k o m p a n̪ i t̪h e k e b u ʤh ʧh o 
[36.075]
<no-speech> 
[37.215]
<int> æ k ʈ a ph ɔ ɾ m ph i l̪ a p k o ɾ i d̪ ɔ ʃ m i n̪ i ʈ <hes> ph ɾ i p a w ə ʤ a e b u ʤh ʧh o <int> oi t̪ o d̪ ɔ ʃ o h æ̃ d̪ ɔ ʃ m i n̪ i ʈ ph ɾ i p a w ə ʤ a e t̪ a i a ɾ k i <breath> oi d̪ ɔ ʃ m i n̪ i ʈ k ɔ t̪h a b ɔ l̪ a ɾ ʤ o n̪ n̪ o a ɾ k i æ kh o n̪ k a ɾ k a ʧh e ph o n̪ k o ɾ i 
[49.025]
<sta> ʈ u m p a m a m i k e ʧh a ɾ a æ kh o n̪ k a k e ph o n̪ ʈ i k o ɾ t̪ a m m a m o n̪ i k e æ k b a ɾ ʧ e ʃ ʈ a k o ɾ l̪ a m <breath> m a m o n̪ i k e p e l̪ a m n̪ a <breath> t̪ a i k i n̪ a t̪ o m a ɾ k a ʧh e ph o n̪ k o ɾ l̪ a m a ɾ k i 
[56.085]
<no-speech> 
[58.715]
o i t̪ o k i d̪ ɔ ʃ ʈ a 
[60.095]
<no-speech> 
[62.315]
h æ̃ e ɾ p ɔ ɾ t̪ u m i k i k o ɾ ʧh o <int> 
[63.975]
<no-speech> 
[67.175]
k i n̪ i a b o ʃ ʧh o kh a o a d̪ a o a h o e g æ ʧh e 
[69.685]
<no-speech> 
[70.495]
kh a o a d̪ a o a h o e g æ ʧh e 
[71.555]
<no-speech> 
[72.935]
æ <sta> kh a o a d̪ a o a h o e g æ ʧh e 
[75.185]
<no-speech> 
[76.525]
<no-speech> 
[76.915]
<no-speech> 
[78.205]
<sta> p u ʤ a i s k u l̪ e g æ ʧh e n̪ a 
[79.965]
<no-speech> 
[82.995]
o <breath> <int> a m i bh a b ʧh i l̪ a m k i p u ʤ a b ɔ e ʃ u n̪ n̪ o ɾ ɔ ʃ a t̪h e i k ɔ t̪h a b o l̪ b o a m i bh a b ʧh i l̪ a m p u ʤ a b ɔ e ʃ u n̪ n̪ o ɾ ɔ ʃ a t̪h e k ɔ t̪h a b o l̪ b o 
[90.085]
<no-speech> 
[90.925]
<sta> b u ʤh ʧh o 
[91.825]
<no-speech> 
[93.915]
h æ̃ 
[94.715]
<no-speech> 
[95.765]
h æ̃ 
[96.835]
<no-speech> 
[100.595]
h æ̃ h æ̃ 
[101.605]
<no-speech> 
[104.555]
a ʧ ʧh a <int> 
[105.365]
<no-speech> 
[109.105]
o h æ̃ 
[110.765]
<no-speech> 
[114.895]
k i h o i ʧh e k i h o i ʧh e k i h o i ʧh e 
[116.585]
<no-speech> 
[118.925]
k i ʃ ɔ ɾ b o n̪ a ʃ a a ʃ ʧh e <breath> k i h ɔ s p i ʈ ə l̪ e bh o ɾ t̪ i k ɔ ɾ a i ʧh o 
[123.025]
<no-speech> 
[124.235]
h ɔ s p i ʈ ə l̪ e <sta> bh o ɾ t̪ i k ɔ ɾ a i ʧh o 
[125.885]
<no-speech> 
[129.275]
o <breath> a m i bh a b l̪ a m a ɾ oi t̪ o p u ʤ a ɾ ʃ a t̪h e d̪ ɔ ʃ m i n̪ i ʈ k ɔ t̪h a b o l̪ i <breath> ph ɾ i t̪ e ʤ ɔ kh o n̪ p a i l̪ a m t̪ o k ɔ t̪h a b o l̪ i a m i bh a b l̪ a m ʤ e m a m a b a ɾ i t̪ e ph o n̪ k o ɾ i t̪ o m a m a b a ɾ i t̪ e t̪ o ph o n̪ p a i l̪ a m n̪ a 
[139.595]
<no-speech> 
[140.845]
p o ɾ e k ɔ t̪h a b o l̪ i p u ʤ a b ɔ e ʃ u n̪ n̪ o ɾ ɔ ʃ a t̪h e k ɔ t̪h a b o l̪ i <breath> p u ʤ a a m a k e <hes> p u ʤ a e m n̪ i i b o l̪ e ʤ e t̪ u i ph o n̪ ʈ o n̪ k o ɾ i ʃ n̪ a <breath> t̪ a i a m i bh a b l̪ a m t̪ a h o l̪ e d̪ ɔ ʃ m i n̪ i ʈ ʤ ɔ kh o n̪ ph ɾ i p e l̪ a m ph o n̪ k o ɾ i 
[149.445]
<no-speech> 
[155.055]
h æ̃ t̪ a i t̪ o <sta> a m i a b <hes> a m i o e i k a ɾ o n̪ e <breath> a m i e i ʈ a o bh a b ʧh i ʤ e p i ʃ i ʤ e d̪ ɔ ʃ m i n̪ i ʈ a m a ɾ ʃ a t̪h e k ɔ t̪h a b o l̪ b e <breath> d̪ ɔ ʃ m i n̪ i ʈ e h ɔ e t̪ o k a ʤ p o ɾ e a ʧh e <breath> æ kh o n̪ p i ʃ i a m a ɾ ʃ a t̪h e d̪ ɔ ʃ m i n̪ i ʈ k ɔ t̪h a b o l̪ b e <breath> p i ʃ i ɾ ʤ o d̪ i k o n̪ 
[167.035]
<sta> k a s ʈ ɔ m a ɾ e ɾ ʃ o m ɔ e e ʃ e b o ʃ e t̪h a k e <breath> e ʈ a o ʧ i n̪ t̪ a k o ɾ ʧh i n̪ a <breath> p o ɾ e a b a ɾ bh a b l̪ a m t̪h a k n̪ a k o ɾ i 
[172.515]
<no-speech> 
[175.865]
o 
[177.295]
<no-speech> 
[178.235]
<sta> t̪ a i l̪ e p i ʃ i ʃ o n̪ 
[179.625]
<no-speech> 
[180.495]
<int> o p i ʃ i kh e e t̪ u m i i ʃ e <hes> k i b o l̪ e <hes> k ə s ʈ ɔ m ə ɾ k i <hes> ʤ i n̪ i ʃ b a n̪ a ʧ ʧh o 
[187.335]
<no-speech> 
[190.775]
h æ̃ p u ʤ a k e d̪ a o 
[191.675]
<no-speech> 
[196.745]
o h u 
[198.225]
<no-speech> 
[200.025]
h æ l̪ o p u ʤ a 
[201.095]
<no-speech> 
[203.145]
k i k o ɾ t̪ e ʧh i ʃ 
[204.585]
<no-speech> 
[208.415]
m e e h o l̪ e o d̪ o ʃ ʧh e l̪ e h o l̪ e d̪ o ʃ <int> a ɾ t̪ o m a ɾ ʤ o n̪ n̪ o t̪ o m a ɾ ʃ o ŋ g e a m i d̪ ɔ ʃ m i n̪ i ʈ e ɾ ʤ o n̪ n̪ o k ɔ t̪h a b o l̪ u k <hes> ʈ ɔ k ʈ a i m p a i b o b o l̪ i a ɾ t̪ u m i e kh a n̪ e i ʃ e i s k u l̪ e g e ʧh o g ɔ e a k a ɾ 
[217.045]
<no-speech> 
[219.425]
e ʈ a i t̪ a i t̪ u m i i s k u l̪ e ʧ o l̪ e g e ʧh o 
[222.235]
<no-speech> 
[224.485]
<breath> a ʧ ʧh a ʃ o n̪ p u ʤ a <int> e i p u ʤ a 
[227.005]
<no-speech> 
[227.985]
ɔ i 
[228.655]
<no-speech> 
[229.845]
<sta> ʃ o n̪ a m i k i b o l̪ t̪ e ʧh i 
[232.195]
<no-speech> 
[233.215]
a m i b o l̪ ʧh i k i ʤ e ʤ a n̪ i ʃ b i b e k a ʧh e n̪ a b i b e k 
[236.825]
<no-speech> 
[238.015]
h æ l̪ o 
[238.715]
<no-speech> 
[239.595]
h æ l̪ o 
[240.255]
<no-speech> 
[241.265]
<lipsmack> h æ̃ b i b e k a ʧh e n̪ a b o l̪ t̪ e ʧh i l̪ o k i <breath> oi p u ʤ a ɾ n̪ ə m b ə ɾ ʈ a d̪ æ e n̪ a p u ʤ a ɾ n̪ ə m b ə ɾ ʈ a d̪ æ e n̪ a a m i k i a m ɾ a k o t̪ t̪h e k e a m i k o t̪ t̪h e k e p a b o p u ʤ a ɾ n̪ ə m b ə ɾ t̪ o a m a ɾ k a ʧh e n̪ a i 
[248.875]
<no-speech> 
[250.245]
<int> p o ɾ e a m i k o i l̪ a m k i <int> t̪ a a m a ɾ a m a ɾ a m a ɾ k a ʧh e p u ʤ a ɾ n̪ ə m b ə ɾ n̪ a i a ɾ k o i k i o p u ʤ a ɾ n̪ ə m b ə ɾ n̪ a i m i t̪ t̪h a k ɔ t̪h a b o l̪ i ʃ n̪ a a m i k o i n̪ a a m i k o n̪ k i ʧh u m i t̪ t̪h a k ɔ t̪h a b o l̪ i n̪ a i 
[259.044875]
<no-speech> 
[260.885]
<sta> o ɾ e ʃ o n̪ 
[261.685]
<no-speech> 
[262.485]
<sta> t̪ o ɾ p a p a k æ m o n̪ a ʧh e p a p a 
[264.015]
<no-speech> 
[266.135]
p a p a k æ m o n̪ a ʧh e p a p a 
[267.615]
<no-speech> 
[271.195]
o h <hes> <breath> a ɾ e ʃ ɔ b k i ʤ a n̪ i o i s k u l̪ e ɾ ɖ ɾ e s o ʧh a ɾ i ʃ n̪ a i 
[275.925]
<no-speech> 
[277.495]
<sta> ɖ ɾ e s o ʧh a ɾ i ʃ n̪ a i 
[279.785]
<no-speech> 
[281.105]
a ʧh i ph ɾ i 
[282.315]
<no-speech> 
[283.235]
<sta> b u ʤh t̪ e p a ɾ ʧh i t̪ u i o ʧh i l̪ i a ʤ i s k u l̪ e k i k ɔ ɾ a l̪ o 
[287.285]
<no-speech> 
[290.065]
ʃ o n̪ p o ɾ e a ɾ ph o n̪ k ɔ ɾ a ʤ a b e n̪ a d̪ ɔ ʃ m i n̪ i ʈ a m a ɾ ʃ a t̪h e p æ̃ ʧ a l̪ p a ɾ ʤ ɔ t̪ o i h o u k 
[293.795]
<no-speech> <sta> h æ̃ 
[299.455]
<no-speech> 
[301.195]
k i b o l̪ ʧh i ʃ 
[302.665]
<no-speech> 
[303.725]
<int> h æ l̪ o 
[304.585]
<no-speech> 
[305.915]
<sta> p u ʤ a p u ʤ a k a ʈ i ʃ n̪ a ph o n̪ ʈ a k a ʈ l̪ e a m i æ k ʈ a ʤ i n̪ i ʃ p a b o n̪ a b u ʤh ʧh i ʃ d̪ ɔ ʃ m i n̪ i ʈ k ɔ t̪h a b o l̪ t̪ e i h ɔ b e 
[312.385]
<no-speech> 
[316.915]
m a m a gh ɔ ɾ e 
[318.315]
<no-speech> 
[321.585]
<int> ɾ a n̪ n̪ a ʈ a n̪ n̪ a h o e ʧh e m a ɾ k i ʃ o ɾ i ɾ kh a ɾ a p a ʤ k e p u ɾ a ʈ a kh e a l̪ k o ɾ e ʧh i 
[324.825]
<no-speech> 
[328.715]
<sta> a ɾ b o l̪ i o n̪ a g o <hes> ʃ ɔ k a l̪ b æ l̪ a e s n̪ a n̪ m a n̪ e p a e kh a n̪ a t̪h e k e e ʃ e <breath> h a t̪ p a d̪h u t̪ e ʧh i <breath> d̪h u i a t̪ u i a a m i bh a b t̪ e ʧh i k ɔ l̪ e ʃ a b a n̪ ʈ a b a n̪ n̪ i a gh ɔ ɾ æ k b a ɾ s n̪ a n̪ k o ɾ e gh ɔ ɾ e d̪ i e æ k b a ɾ e <breath> i s k u l̪ e ʤ a b o p o ɾ e d̪ e kh i 
[340.685]
k i <breath> ʤ e m a b o l̪ t̪ e ʧh e <breath> p a e kh a n̪ a p a e kh a n̪ a h o i ʧh e ʤ u t̪ a k æ n̪ o d̪h u i d̪ i i n̪ a i a m a ɾ t̪ o kh e a l̪ n̪ a i ʤ u t̪ a d̪h o a ɾ k ɔ t̪h a b u ʤh ʧh o p i ʃ i 
[348.875]
<no-speech> 
[350.245]
b u ʤh ʧh o 
[351.095]
<no-speech> 
[351.895]
<sta> ʤ u t̪ a d̪h o a ɾ t̪ a ɾ p ɔ ɾ h æ̃ <breath> kh e a l̪ n̪ a i t̪ a ɾ p ɔ ɾ e ʤ u t̪ a ɾ t̪ o <hes> m a n̪ e k i b o l̪ i a ɾ <breath> ʤ u t̪ a d̪h u i n̪ a p o ɾ e a i ʃ a p o ɾ ʧh i ʃ ɔ ɾ a ʃ o ɾ i gh ɔ ɾ e ɾ m o d̪ d̪h e <breath> p o ɾ e k i k o ɾ ʧh i o 
[363.395]
<int> k i ɾ e ʤ u t̪ o d̪h u i ʃ n̪ a a m i k o i n̪ a m a t̪ o m a a m i ʤ u t̪ o d̪h u i n̪ a i <breath> t̪ u i ʤ u t̪ o d̪h u i ʃ n̪ a i t̪ u i p a e kh a n̪ a ɾ t̪h e i k e a i ʃ a a m a ɾ <hes> ʤ u t̪ o p i n̪ d̪ a æ k b a ɾ e ʃ o ʤ a gh ɔ ɾ e ɾ bh i t̪ o ɾ ɖh u i k a p o ɾ l̪ i <breath> p o ɾ e b o l̪ t̪ e ʧh e <breath> h æ̃ p o ɾ e b o l̪ t̪ e ʧh e k i ʤ e h ɔ ʃ ʃ u oi e ʤ e g u ɖ ɖ i d̪ e kh t̪ e ʧh e k i h ɔ b e <breath> oi e ɾ p o ɾ e b o l̪ t̪ e ʧh e i ʃ e <hes> <breath> e i t̪ o m a ɾ oi ʤ e <hes> ʤ u t̪ o d̪h u i ʃ n̪ a i e b a ɾ t̪ o ɾ a t̪ o t̪ o ɾ a k i p a i ʧh i ʃ a m a ɾ k a ʧh e t̪ o ɾ a k i ʧ a i ʧh i ʃ <breath> t̪ o ɾ a a m a ɾ h a ɾ p i n̪ ɖ i ʤ a l̪ a e ph e l̪ l̪ i h æ n̪ o t̪ æ n̪ o <breath> a ɾ t̪ o ɾ m a t̪ o d̪ e ɾ ʤ a ʈ ʈ a i æ m o n̪ t̪ o ɾ <breath> æ k d̪ i k e d̪ e kh l̪ a m t̪ o ɾ m a m o n̪ i d̪ i d̪ i æ k d̪ i k e d̪ e kh l̪ a m t̪ o ɾ ʤ o t̪ s n̪ a p i ʃ i e g u l̪ o k o i t̪ e ʧh e <breath> a l̪ t̪ u ph a l̪ t̪ u k ɔ t̪h a 
[398.895]
b u ʤh ʧh o p i ʃ i b u ʤh ʧh o 
[401.165]
<no-speech> 
[402.305]
p i ʃ i <int> p o ɾ e o g u l̪ a k ɔ t̪h a b o l̪ t̪ e g i e <hes> p u ɾ a k æ ʧ a l̪ h o e g æ ʧh e ʃ ɔ k a l̪ b æ l̪ a t̪ e p u ɾ a l̪ o k t̪ o k ʤ ɔ m a h o e g e ʧh i l̪ o 
[407.815]
<no-speech> 
[409.435]
<sta> b ou m a e ʃ e k ɔ t̪ o k kh o n̪ b u ʤh a l̪ o a m a k e <breath> t̪ a ɾ p ɔ ɾ m a k e b u ʤh a l̪ o k ɔ t̪ o k kh o n̪ <breath> p u ɾ a b u ʤh ʧh o t̪ a æ kh o n̪ a b a ɾ e i ʤ e æ k ʈ a <hes> g a ɾ i n̪ i e m a n̪ e a m a ɾ d̪ i k e ʧ e n̪ a k a k u h ɔ e t̪ ɔ p o n̪ k a k u <breath> t̪ ɔ p o n̪ k a k u g a ɾ i n̪ i a oi ʤ e m o b a i l̪ e ɾ p ɔ l̪ i s i k o ɾ t̪ e b a ɾ h o ʧ ʧh e a ɾ k i b u ʤh ʧh o <breath> t̪ o m o b a i l̪ e ɾ p ɔ l̪ i s i k o ɾ t̪ e b a ɾ h o i ʧh e p o ɾ e e i ʤ e <breath> k ɔ t̪ o g u l̪ o ph ɔ ɾ m ph i l̪ a p k o ɾ t̪ e h ɔ e d̪ ɔ ʃ m i n̪ i ʈ ph ɾ i p a w ə 
[432.815]
ʤ e m o n̪ b u ʤh ʧh o <breath> t̪ a ɾ p ɔ ɾ d̪ ɔ ʃ m i n̪ i ʈ æ k ʈ a ph ɔ ɾ m ph i l̪ a p k o ɾ l̪ a m e i t̪ o t̪ o m a ɾ ʃ o ŋ g e d̪ ɔ ʃ m i n̪ i ʈ k ɔ t̪h a b ɔ l̪ a ɾ ʧ a n̪ s p a i l̪ a m b u ʤh ʧh o 
[439.635]
<no-speech> 
[440.935]
k i <int> e e ɾ ʤ o n̪ n̪ o k ɔ t̪h a b o l̪ t̪ e ʧh i æ kh o n̪ <hes> d̪ i a ɾ b a ɾ i t̪ e ph o n̪ k o ɾ ʧh i d̪ i a ɾ b a ɾ i t̪ e k e u t̪ u l̪ e n̪ a <breath> æ kh o n̪ d̪ i a b a ɾ i t̪ e ʃ e <hes> <breath> k ɔ t̪h a b o l̪ t̪ e p a ɾ t̪ a m b i e b a ɾ i ɾ ʃ o ŋ g e æ kh o n̪ d̪ æ kh o a m a ɾ t̪ o k o n̪ kh a n̪ e ʤ a e g a o n̪ a i <int> ph o n̪ k o ɾ b o ʤ e 
[452.145]
<no-speech> 
[453.185]
æ kh o n̪ t̪ u m i <breath> t̪ u m i æ k ʈ a a ɾ h o ʧ ʧh e p i ʃ i <hes> i ʃ e d̪ i p u n̪ <hes> b i ɾ e n̪ bh a i æ k ʈ a b u ʤh ʧh o 
[459.075]
<no-speech> 
[460.365]
<sta> t̪ a i p o ɾ e i ʃ e <hes> k a k i m o n̪ i ɾ a k æ m o n̪ a ʧh e 
[463.565]
<no-speech> 
[473.385]
m a k e p a b o k o i a m i æ kh o n̪ g a ɾ i t̪ e b ɔ ʃ a 
[475.805]
<no-speech> 
[478.445]
h æ̃ 
[479.375]
<no-speech> 
[480.785]
<lipsmack> p i ʃ i <int> t̪ u m i e ɾ m o d̪ d̪h e a ʃ b a n̪ a 
[483.675]
<no-speech> 
[488.515]
t̪ u m i a ʃ b a i n̪ a 
[490.225]
<no-speech> 
[491.145]
p u ʤ a b ɔ e ʃ u n̪ n̪ o ɾ ɔ p u ʤ a p o ɾ i k kh a ɾ <breath> ʤ e e i ʤ e ʧh ɔ e m a ʃ p o ɾ e p u ʤ a b ɔ e ʃ u n̪ n̪ o ɾ ɔ ʤ e p o ɾ i k kh a ʈ a h ɔ b e n̪ a e m ʈ e s ʈ ʈ a s a i ʈ e <breath> s a i ʈ e ɾ m o d̪ d̪h e ʤ e e m ʈ e s ʈ ʈ a h ɔ b e 
[499.425]
<no-speech> 
[500.585]
<sta> oi w i n̪ ʈ e s ʈ ʈ a ɾ oi w i n̪ ʈ e s ʈ ʈ a ɾ p o ɾ e t̪ u m i a i ʃ a p ɔ ɾ p u ʤ a k e n̪ i a <breath> g u p t̪ a ɾ k i m o n̪ kh a ɾ a p p i ʃ i 
[508.105]
<no-speech> 
[509.435]
b ɔ l̪ o <int> 
[510.225]
<no-speech> 
[511.085]
<sta> e i ʤ e ʃ ɔ ɾ o ʃ ʃ o t̪ i p u ʤ o t̪ e a ʃ a ɾ k ɔ t̪h a ʧh i l̪ o a ʃ l̪ e n̪ a 
[513.925]
<no-speech> 
[518.105]
æ <breath> <sta> a ɾ p u ʤ a ɾ p u ʧ k a ʤ a n̪ o k i k o ɾ ʧh e p i ʃ i <breath> p u ʤ a ɾ p u ʧ k a a ʧh e n̪ a p u ʤ o ɾ ʤ o n̪ n̪ o <breath> a l̪ a d̪ a k o ɾ e ʤ ɔ g m ɔ g æ k b a ɾ e k ɔ l̪ o m ʈ ɔ l̪ o m k u i ʤ ʈ w i z ʃ ɔ b l̪ e kh a ʃ e ʃ a m i b o l̪ ʧh i 
[529.795]
k i ɾ e d̪ a d̪ a <breath> t̪ u i ʤ ɔ g ʈ ɔ g ʃ ɔ b a l̪ a d̪ a k o ɾ e ɾ a kh ʧh i ʃ k æ n̪ o <breath> t̪ o k i t̪ o d̪ e ɾ d̪ u ʤ o n̪ e ɾ ʤ o n̪ n̪ o ɾ a kh ʧh i <int> æ kh o n̪ p u ʤ o t̪ o æ kh o n̪ o a ʃ t̪ e ʧh e n̪ a ɾ e o b o l̪ l̪ o <breath> ʃ ɔ k a l̪ e n̪ a a ʃ t̪ e p a ɾ l̪ e d̪ u p u ɾ e a ʃ b e k o i a ʃ l̪ o n̪ a t̪ o a m i k o i æ kh o n̪ 
[541.565]
ph o n̪ k o ɾ b o t̪ o d̪ e ɾ a m a ɾ m o b a i l̪ e t̪ o b æ l̪ a n̪ s n̪ a i ph o n̪ k o ɾ i k i bh a b e 
[544.505]
<no-speech> 
[546.075]
b u ʤh ʧh o <sta> a m i bh a b ʧh i l̪ a m <breath> a m i b o l̪ ʧh i ʤ e a ʃ b e a ʃ b e k ɔ e k i n̪ a ɾ e a ʃ b e a m i k o i k i h o i t̪ e p a ɾ e k o n̪ ʤh a m e l̪ a t̪ e a ʧh e 
[554.955]
<no-speech> 
[555.775]
<int> b u ʤh ʧh o 
[556.635]
<no-speech> 
[558.915]
h æ̃ 
[559.635]
<no-speech> 
[563.145]
<no-speech> 
[563.545]
<no-speech> 
[565.735]
<laugh> m a m m i m a m i ɾ kh u b ʃ o ɾ i ɾ kh a ɾ a p 
[568.255]
<no-speech> 
[569.695]
h æ̃ <int> 
[570.335]
<no-speech> 
[572.965]
a m i g a ɾ i ɾ m o d̪ d̪h e b o ʃ e a ʧh i a ɾ a m k o ɾ e t̪ o d̪ e ɾ ʃ a t̪h e k ɔ t̪h a b o l̪ ʧh i 
[576.495]
<no-speech> 
[578.405]
<no-speech> 
[578.945]
<no-speech> 
[581.065]
a m i <sta> a m i <hes> m e ʤ o ʈh a m m i d̪ e ɾ b a ɾ i ɾ ʃ a m n̪ e 
[584.565]
<no-speech> 
[587.065]
b u ʤh ʧh o <breath> b a ɾ i ɾ ʃ a m n̪ e b a ɾ i ɾ u ʈh o n̪ ʈ a a ʧh e n̪ a 
[590.205]
<no-speech> 
[591.685]
<sta> o kh a n̪ ʈ a e g a ɾ i ʈ a l̪ a g a i ʧh e o kh a n̪ ʈ a i a ʧh i 
[594.225]
<no-speech> 
[597.125]
<breath> a m i b a ɾ i t̪ e t̪ o a m i o n̪ n̪ o k o t̪h a o ʤ a i n̪ a i 
[599.425]
<no-speech> 
[599.82]
