[0.0]
<no-speech> 
[2.555]
h æ l̪ o k æ n̪ o b o l̪ t̪ o k e ʈ e g e ʧh i l̪ o k æ n̪ o b o l̪ t̪ o 
[9.725]
<no-speech> 
[11.295]
t̪ o m a k e m o h i l̪ a n̪ a bh e b e p u ɾ u ʃ bh e b e ʧh e <laugh> ʃ u n̪ t̪ e bh u l̪ k o ɾ e ʧh e b u ʤh e ʧh o o i ʤ o n̪ n̪ o 
[17.015]
<no-speech> 
[17.965]
k i ʧ ʧh u h ɔ b e n̪ a a b a ɾ o ʈh i k k o ɾ e d̪ i e ʧh e o t̪ u m i ʤ ɔ t̪ o i ʧ ʧh e a b a ɾ k ɔ t̪h a b o l̪ e n̪ a o b u ʤh t̪ e p e ɾ e ʧh o i ʧ ʧh e m ɔ t̪ k ɔ t̪h a b o l̪ e n̪ a o <laugh> k o n̪ b æ p a ɾ n̪ a <laugh> 
[27.645]
<no-speech> 
[28.575]
h æ̃ a ɾ b o l̪ ʧh i t̪ u i k ɔ b e ʤ a b i 
[31.665]
<no-speech> 
[33.465]
t̪ u m i k ɔ b e ʤ a b e 
[34.675]
<no-speech> 
[36.715]
m a m a b a ɾ i 
[37.515]
<no-speech> 
[41.615]
a ʧ ʧh a ʈh i k a ʧh e h æ̃ h æ̃ 
[43.775]
<no-speech> 
[45.605]
a ʧ ʧh a <no-speech> 
[49.455]
h æ̃ 
[50.095]
<no-speech> 
[52.455]
b o n̪ b o l̪ t̪ e p a ɾ ʧh i n̪ a k i ʤh u m a o t̪ o ʤ a b e 
[55.265]
<no-speech> 
[58.155]
h æ̃ ʃ o m a k i b o l̪ ʧh e ʃ o m a a ʃ b e n̪ a n̪ a 
[60.135]
<no-speech> 
[67.005]
k e k o ɾ b e b a b a 
[68.385]
<no-speech> 
[69.235]
h æ̃ 
[70.525]
<no-speech> 
[71.485]
<no-speech> 
[72.145]
<no-speech> 
[74.135]
h æ̃ 
[74.705]
<no-speech> 
[77.695]
a ʧ ʧh a <no-speech> 
[81.745]
b a b a <int> o b a b a ɾ a n̪ i k i k o ɾ l̪ o m a 
[86.055]
<no-speech> 
[87.075]
ɾ a n̪ i k i ʃ e u ʈh l̪ o ɾ a n̪ i 
[89.525]
<no-speech> 
[91.145]
o a ɾ <hes> ʧh e l̪ e ʈ a 
[93.965]
<no-speech> 
[101.145]
ɾ i t̪ a o t̪ o æ k 
[102.315]
<no-speech> 
[103.385]
h æ̃ 
[103.875]
<no-speech> 
[105.175]
<hes> k i ɾ ɔ k o m k o ɾ l̪ o p u t̪ u l̪ ʈ a ɾ e z ə l̪ ʈ 
[108.415]
<no-speech> 
[111.045]
bh a l̪ o t̪ o h æ̃ 
[112.695]
<no-speech> 
[113.795]
h æ̃ 
[114.295]
<no-speech> 
[120.355]
<no-speech> 
[126.415]
h æ̃ 
[126.795]
<no-speech> 
[128.435]
h æ̃ h æ̃ h æ̃ 
[129.985]
<no-speech> 
[135.855]
h æ̃ 
[136.265]
<no-speech> 
[138.395]
<no-speech> 
[139.315]
<no-speech> 
[145.495]
h æ̃ 
[146.005]
<no-speech> 
[149.225]
a ʧ ʧh a <hes> <int> h æ̃ b a d̪ d̪ a o e ʃ ɔ b k ɔ t̪h a h æ̃ ʃ ɔ b bh u l̪ e ʤ a o b a d̪ d̪ a o 
[156.955]
<no-speech> 
[158.935]
n̪ i ʤ e ɾ ʈ a n̪ i ʤ e ʧ i n̪ t̪ a k ɔ ɾ a ʤ k a l̪ b a ʧ ʧ a d̪ e ɾ o n̪ i ʤ e ɾ ʈ a n̪ i ʤ e ʧ i n̪ t̪ a k o ɾ t̪ e h ɔ e k e k a ɾ k e u k a ɾ o n̪ ɔ e p o ɾ i ʃ k a ɾ k ɔ t̪h a b a d̪ d̪ a o 
[164.455]
<no-speech> 
[166.525]
ʤ ɔ t̪ o ʤ e n̪ a a ʃ b e t̪ ɔ t̪ o bh a l̪ o a m i ph o n̪ k o ɾ e ʧh i l̪ a m h æ̃ a m i ph o n̪ k o ɾ e ʧh i l̪ a m bh a i k e bh a i t̪ o l̪ e n̪ i 
[174.305]
<no-speech> 
[176.585]
n̪ a 
[177.155]
<no-speech> 
[178.915]
h æ̃ h æ̃ h æ̃ oi ʤ ɔ n̪ n̪ e 
[181.275]
<no-speech> 
[182.145]
æ 
[182.705]
<no-speech> 
[184.605]
h æ̃ h æ̃ <hes> b o n̪ b o l̪ l̪ o n̪ a t̪ u m i b o l̪ l̪ e t̪ o 
[187.375]
<no-speech> 
[190.235]
h æ̃ h æ̃ ʈh i k <no-speech> 
[194.335]
h æ̃ 
[194.815]
<no-speech> 
[198.505]
o k æ n̪ o k i h o e ʧh e k i ʃ e ɾ ʤ ɔ ɾ 
[201.515]
<no-speech> 
[202.375]
h æ̃ h æ̃ k i ʃ e ɾ ʤ ɔ ɾ 
[204.515]
<no-speech> 
[206.305]
h æ̃ b ɔ l̪ 
[207.645]
<no-speech> 
[210.845]
h æ̃ <hes> 
[213.005]
<no-speech> 
[217.215]
h æ̃ h æ̃ h æ̃ 
[218.165]
<no-speech> 
[220.115]
<no-speech> 
[220.755]
<no-speech> 
[221.625]
h æ̃ h æ̃ 
[222.455]
<no-speech> 
[224.725]
æ a m i ʤ o d̪ i p a ɾ i a m i ʤ o d̪ i æ 
[227.085]
<no-speech> 
[228.895]
a m i ʤ o d̪ i ʤ a i a m i t̪h ɔ l̪ e n̪ i e ʤ a b o ʈh i k a ʧh e ʤ o d̪ i a m a ɾ t̪h a k e ʈh i k a ʧh e 
[232.535]
<no-speech> 
[234.325]
<no-speech> 
[234.865]
<no-speech> 
[238.185]
<no-speech> 
[238.565]
<no-speech> 
[240.315]
a m i t̪ o ɾ o b i b a ɾ ʤ a ʧ ʧh i 
[241.985]
<no-speech> 
[242.855]
a m i t̪ o ʤ a ʧ ʧh i a m i k ɔ e k ʈ a n̪ i e a ʃ i h æ̃ a m i k ɔ e k ʈ a n̪ i e a ʃ b o ʈh i k a ʧh e b e ʃ i a n̪ a ɾ k o n̪ d̪ ɔ ɾ k a ɾ n̪ e i ʤ a h ɔ b e t̪ o m a k e d̪ i e d̪ e b b e ʃ i a n̪ a ɾ k o n̪ d̪ ɔ ɾ k a ɾ n̪ e i ʈh i k a ʧh e a b a ɾ ʤ o d̪ i b o l̪ e t̪ ɔ kh o n̪ a b a ɾ d̪ i e ʤ a b o 
[252.795]
<no-speech> 
[254.235]
a m i ʤ ɔ t̪ o ʈ a p a ɾ b o t̪ ɔ t̪ o ʈ a n̪ i e a ʃ b o 
[257.275]
<no-speech> 
[259.814875]
o ʈh i k a ʧh e t̪ o m a k e a m i ʃ ɔ b g u l̪ o d̪ i e d̪ e b a m a ɾ k o n̪ d̪ ɔ ɾ k a ɾ n̪ e i ʈh i k a ʧh e 
[263.475]
<no-speech> 
[264.975]
<no-speech> 
[265.865]
<no-speech> 
[267.225]
a m i k i ʧ ʧh u k o ɾ i n̪ a b o ʃ e i t̪h a k i gh ɔ ɾ e gh ɔ ɾ e b o ʃ e i t̪ o o ɾ b a b a ɾ k a ʧh e k ɔ t̪ o p ɔ e ʃ a i n̪ k ə m k o ɾ t̪ e p a ɾ i <laugh> a ʧ ʧh a a ʧ ʧh a <laugh> h æ̃ 
[279.185]
<no-speech> 
[280.685]
n̪ a a m i t̪ o e kh a n̪ e t̪h a k i b o l̪ e i t̪ o a m a k e ʃ ɔ b a i b o l̪ ʧh e k i k o t̪h a e æ t̪ o h a ʃ i k o t̪h a d̪ i e a ʃ e <laugh> h æ̃ 
[286.895]
<no-speech> 
[289.915]
æ kh o n̪ b o l̪ e ʧh e <no-speech> 
[293.795]
h æ̃ ʃ e ʃ k i h ɔ b e a ʤ m o ɾ l̪ e k a l̪ d̪ u d̪ i n̪ <laugh> <int> 
[299.035]
<no-speech> 
[300.575]
h æ̃ b a b a k i k o ɾ ʧh e 
[303.005]
<no-speech> 
[304.395]
b a h o 
[306.595]
<no-speech> 
[307.525]
h æ̃ 
[308.215]
<no-speech> 
[313.215]
o <hes> <laugh> p a e kh a n̪ a ʧ e p e ʃ u e p o ɾ e ʧh e 
[317.065]
<no-speech> 
[320.815]
h æ̃ s e ʈ a i b o l̪ ʧh i p a e kh a n̪ a ʧ e p e ʃ u e p o ɾ e ʧh e <laugh> 
[325.115]
<no-speech> 
[325.925]
<no-speech> 
[326.495]
<no-speech> 
[327.655]
h æ̃ 
[328.365]
<no-speech> 
[332.105]
a ʧ ʧh a 
[332.625]
<no-speech> 
[333.525]
ph o n̪ k o ɾ e ʧh i l̪ a m ʤ a n̪ æ 
[336.295]
<no-speech> 
[337.325]
b o n̪ k e ph o n̪ k o ɾ e ʧh i l̪ a m 
[338.755]
<no-speech> 
[340.355]
b o n̪ t̪ o l̪ e n̪ i b o l̪ e i t̪ o m a e k o ɾ e ʧh i 
[342.475]
<no-speech> 
[350.045]
h æ̃ 
[350.495]
<no-speech> 
[353.435]
h æ̃ h æ̃ h æ̃ <laugh> oi ʤ o n̪ n̪ e i t̪ o æ kh o n̪ t̪ o o a m a k e m i s ɖ k ɔ l̪ d̪ i e ʧh e a m i t̪ o k o ɾ b o n̪ a t̪ o o i a b a ɾ k o ɾ b e k i ʤ o n̪ n̪ e k o ɾ e ʧh i <laugh> 
[362.465]
<no-speech> 
[363.415]
h æ̃ b o n̪ b o l̪ e ʧh e 
[365.565]
<no-speech> 
[366.405]
<no-speech> 
[366.905]
<no-speech> 
[371.825]
h æ̃ oi ʤ o n̪ n̪ e i b o n̪ b o l̪ e ʧh e m e e ɾ a kh a l̪ i t̪ a k i e a ʧh e k a l̪ k e k i h ɔ e 
[375.555]
<no-speech> 
[379.375]
h æ̃ 
[379.875]
<no-speech> 
[385.245]
b ɔ l̪ a ʤ a e n̪ a d̪ ã ɾ a o ʧ u p k ɔ ɾ æ kh o n̪ k i h ɔ e ʈh i k n̪ e i p a ʃ k o ɾ b e <laugh> 
[390.465]
<no-speech> 
[391.535]
<no-speech> 
[391.935]
<no-speech> 
[393.245]
b o l̪ ʧh e t̪ o o bh a l̪ o æ kh o n̪ o ɾ k ɔ t̪h a b a d̪ d̪ a o æ kh o n̪ ɾ e z ə l̪ ʈ ʃ u n̪ l̪ e p o ɾ e b u ʤh t̪ e p a ɾ b o n̪ a <hes> 
[398.895]
<no-speech> 
[401.125]
h æ̃ o ʈ a i h o ʧ ʧh e k ɔ t̪h a p a ʃ k ɔ ɾ a n̪ i e k ɔ t̪h a k l̪ a s ʈ u t̪ e ʤ a k ʤ a h ɔ b e 
[404.505]
<no-speech> 
[409.375]
k i ʃ e ɾ ʤ a t̪ ɾ a 
[410.345]
<no-speech> 
[411.835]
<no-speech> 
[412.205]
<no-speech> 
[414.875]
h æ̃ k i 
[416.115]
<no-speech> 
[417.105]
<no-speech> 
[417.535]
<no-speech> 
[418.775]
h æ̃ 
[419.235]
<no-speech> 
[420.955]
h æ̃ 
[421.465]
<no-speech> 
[423.065]
h æ̃ k o t̪h a e h o ʧ ʧh e ʃ o ŋ gh o s ɾ i ɾ m a ʈh e 
[425.885]
<no-speech> 
[426.855]
<sta> ʃ o b u ʤh ʃ ɔ ŋ gh e o h æ̃ ʃ i t̪ k a l̪ e ʤ a t̪ ɾ a d̪ e kh t̪ e ʤ a b e o kh a n̪ e ʤ a ʈh a n̪ ɖ a ʃ e t̪ o gh ɔ ɾ e ʃ u e p ɔ ɾ l̪ e p e ɾ t̪ ɔ l̪ a e <laugh> 
[437.425]
<no-speech> 
[439.525]
h æ̃ <hes> 
[440.415]
<no-speech> 
[442.605]
h æ̃ d̪ ɔ ɾ k a ɾ n̪ e i ʧ u p ʧ a p kh e e ʈh a n̪ ɖ a ɾ m o d̪ d̪h e l̪ e p e ɾ t̪ ɔ l̪ a e ʃ u e p ɔ ɾ ʤ a t̪ ɾ a m a t̪ ɾ a d̪ e kh t̪ e h ɔ b e n̪ a <laugh> 
[448.185]
<no-speech> 
[450.015]
k ɔ t̪ o k o ɾ e 
[450.795]
<no-speech> 
[453.145]
<no-speech> 
[455.315]
<no-speech> 
[455.715]
<no-speech> 
[456.805]
o d̪ ɔ ɾ k a ɾ n̪ e i b a d̪ d̪ a o 
[460.175]
<no-speech> 
[464.205]
h æ̃ 
[464.645]
<no-speech> 
[467.365]
o 
[468.135]
<no-speech> 
[470.125]
h æ̃ 
[471.915]
<no-speech> 
[474.015]
<no-speech> 
[474.625]
<no-speech> 
[478.425]
e i t̪ o h o e e ʃ ʧh e m o n̪ e h ɔ e d̪ ã ɾ a o d̪ ɔ ʃ m i n̪ i ʈ h o e g æ ʧh e 
[480.975]
<no-speech> 
[481.885]
<laugh> b ɔ l̪ o 
[484.145]
<no-speech> 
[485.735]
h æ̃ 
[486.655]
<no-speech> 
[489.515]
h æ̃ ʤ a b o b a b a o ɾ b a b a ɾ kh u b i ʧ ʧh e ʤ a b a ɾ b i e ɾ p ɔ ɾ d̪ i e ʤ a e n̪ i n̪ a ɖ ɾ e s p o ɾ e n̪ i ɖ ɾ e s p ɔ ɾ o b e <laugh> 
[495.775]
<no-speech> 
[498.295]
g ɔ ŋ g a p a ɾ h ɔ b e t̪ o k i h o e ʧh e bh u ʈ bh u ʈ i t̪ o a b a ɾ k i n̪ a t̪ o <laugh> 
[502.765]
<no-speech> 
[508.575]
ʃ ɔ b a i m i l̪ e æ k ʃ ɔ ŋ g e ʤ a b o ʃ ɔ b a i m i l̪ e ʤ a b o æ k ʃ ɔ ŋ g e æ k a t̪ o a ɾ ʤ a b o n̪ a ʃ ɔ b a i m i l̪ e æ k ʃ ɔ ŋ g e <no-speech> 
[515.774875]
k æ n̪ o 
[516.395]
<no-speech> 
[520.274875]
t̪h ɔ l̪ e a m i k a ɾ ʃ o ŋ g e ʤ a b o 
[521.444875]
<no-speech> 
[525.495]
ʤh u m a k e t̪ o b o l̪ b e i o ɾ ɖ a n̪ h a t̪ b ã h a t̪ 
[527.905]
<no-speech> 
[529.035]
<laugh> o ɾ ɖ a n̪ h a t̪ b ã h a t̪ 
[531.175]
<no-speech> 
[533.065]
<no-speech> 
[533.565]
<no-speech> 
[536.135]
h æ̃ 
[536.775]
<no-speech> 
[542.125]
h ɔ m 
[542.565]
<no-speech> 
[543.875]
h æ̃ <sta> o d̪ e ɾ ʤ a o a ɾ k ɔ t̪h a ʧh i l̪ o ʤ e ʈh i m a b o l̪ ʧh i l̪ o ʤ e ʈh i m a b o l̪ ʧh i l̪ o ʤ a b e 
[549.035]
<no-speech> 
[552.155]
b o l̪ ʧh i l̪ o t̪ o 
[553.065]
<no-speech> 
[556.305]
h æ̃ 
[556.815]
<no-speech> 
[558.675]
ʤ a k h æ̃ 
[560.435]
<no-speech> 
[563.675]
ʤ a o ʤ a o a m a ɾ m e e ɾ t̪ o a b a ɾ i s k u l̪ kh u l̪ e ʤ a b e t̪ o d̪ u t̪ a ɾ i kh d̪ i e t̪ o 
[568.845]
<no-speech> 
[570.215]
h æ̃ e i ʤ o n̪ n̪ e ʃ ɔ b t̪ o k a l̪ i h o e ʤ a ʧ ʧh e 
[572.875]
<no-speech> 
[574.595]
<sta> a ɾ n̪ a k ɔ d̪ i n̪ ʤ a b e <hes> t̪ o m ɾ a k ɔ d̪ i n̪ ʤ a b e t̪ o m ɾ a k ɔ d̪ i n̪ ʤ a b e 
[579.145]
<no-speech> 
[582.015]
o i æ k ʃ ɔ p t̪ a d̪h o ɾ 
[583.145]
<no-speech> 
[584.295]
æ k 
[585.335]
<no-speech> 
[587.535]
h æ̃ s e ʈ a i a m i t̪ a i b o l̪ ʧh i 
[589.145]
<no-speech> 
[589.975]
ʈh i k a ʧh e a m i a ɾ b o n̪ t̪h a k b o t̪ a l̪ e 
[592.025]
<no-speech> 
[593.615]
h æ̃ ʤ a k h æ̃ b ɔ l̪ o 
[597.205]
<no-speech> 
[599.12]
