[0.0]
<no-speech> 
[1.975]
h æ l̪ o 
[2.495]
<no-speech> h æ l̪ o ʃ u n̪ t̪ e p a ʧ ʧh o t̪ o 
[6.395]
<no-speech> 
[9.335]
t̪ o ɾ a ɖ i s i ʃ ə n̪ n̪ e 
[10.585]
<no-speech> 
[11.535]
h æ̃ b o l̪ ʧh i e ʈ a ɾ h æ n̪ ɖ s e ʈ ʈ a k i a ʧh e 
[13.645]
<no-speech> 
[14.745]

[15.095]
<no-speech> 
[17.155]
e ʈ a n̪ o k i a a ʧh e t̪ a i t̪ o a ʧ ʧh a <sta> a ʧ ʧh a k a ʤ k ɔ ɾ m e ɾ kh ɔ b o ɾ k i b ɔ l̪ o 
[22.175]
<no-speech> 
[24.675]
k a ʤ k ɔ ɾ m e ɾ kh ɔ b o ɾ k i k i ɾ ɔ k o m k a ʤ h o ʧ ʧh e 
[27.715]
<no-speech> 
[35.195]
b a ŋ l̪ a e b a ŋ l̪ a e p u ɾ o p u ɾ i b a ŋ l̪ a e ʤ a b o l̪ b e n̪ b a ŋ l̪ a i ŋ l̪ i ʃ ʤ a <sta> 
[40.465]
<no-speech> 
[48.615]
e i ʤ e ʧ o l̪ ʧh e ɖh ɔ k e ɾ ʧ ɔ k <sta> b i ʤ ɔ l̪ i b a t̪ i ɖh ɔ k e ɾ ʧ ɔ k ʧ o l̪ ʧh e æ kh o n̪ o b o d̪h h ɔ e g a ɾ i t̪ e ɖh ɔ k e ɾ ʧ ɔ k ʧ o l̪ e ʤ a ʧ ʧh e 
[57.455]
<no-speech> 
[59.835]
e i a m i a ʧh i e i ʃ u ʤ a t̪ a ɾ e kh a n̪ e e i g a ɾ i h a i ə ɾ k ɔ ɾ a h o e ʧh e ɔ n̪ e k k a ʤ <no-speech> 
[66.945]
æ 
[69.645]
<no-speech> 
[78.305]
<no-speech> 
[78.675]
<no-speech> 
[83.125]
h æ̃ 
[83.635]
<no-speech> 
[84.455]
a h 
[84.875]
<no-speech> 
[87.115]
<no-speech> 
[87.505]
<no-speech> 
[90.175]
æ g a ɾ i ʈ a ʧh a ɾ t̪ e æ k ʈ u p o ɾ e i e i <hes> e ʈ a ɾ e ɾ p o ɾ e æ k ʈ a k ɔ l̪ h ɔ b e m o n̪ e h ɔ e 
[95.735]
<no-speech> 
[96.925]
<no-speech> 
[100.455]
<no-speech> e i a m i t̪ o b a ɾ i t̪h e k e b e ɾ i e ʧh i e i ɔ n̪ e k <hes> ʃ ɔ k a l̪ b æ l̪ a a ɾ ʃ a ɾ e a ʈ ʈ a ɾ ʃ o m ɔ e b e ɾ i e ʧh i 
[110.055]
<no-speech> 
[114.275]
b a ɾ i ɾ kh ɔ b o ɾ o i m a e ɾ ʃ o ɾ i ɾ m o ʈ a m u ʈ i a ʧh e kh u b æ k ʈ a bh a l̪ o n̪ e i 
[117.395]
<no-speech> 
[120.925]
ʃ ɔ m o s t̪ o ʃ ɔ m o s t̪ o ʃ ɔ m o s t̪ o m e ɖ i s i n̪ ʈ e ɖ i s i n̪ m a n̪ e ʤ a kh ɔ ɾ ʧ a m e ɖ i s i n̪ e n̪ a e i a m i b u ʤh t̪ e p a ɾ ʧh i ɔ b o s t̪h a p u ɾ a h a l̪ p a g l̪ a k o ɾ e d̪ i ʧ ʧh e p ɾ o t̪ t̪ e k m a ʃ e p ɾ a e ʧ ou d̪ d̪ ɔ ʃ o ʈ a k a 
[130.525]
<no-speech> 
[134.905]
e i b o l̪ e l̪ ə v n̪ e i <sta> d̪ u i a ɾ a i t̪ a ɾ t̪h e k e b e ʃ i ʤ a ʧ ʧh e n̪ a t̪ a ɾ 
[142.355]
<no-speech> 
[143.435]
n̪ a 
[143.955]
<no-speech> 
[145.865]
k a ʤ e ɾ ph l̪ o n̪ e i k i ʧh u n̪ e i 
[147.475]
<no-speech> 
[148.605]
<no-speech> 
[150.515]
<no-speech> 
[153.165]
k i ɾ e <sta> 
[153.815]
<no-speech> 
[158.685]
ʃ e b æ p a ɾ e g ɔ n̪ ɖ o g o l̪ l̪ e g e g æ ʧh e æ kh o n̪ ʃ e ʈ a n̪ i e o a b a ɾ ʤh a m e l̪ a æ k ʈ a ʧ o l̪ ʧh e <sta> d̪ æ kh a ʤ a k a ɾ t̪ e m o n̪ k o n̪ 
[165.265]
<no-speech> 
[168.795]
æ k e b a ɾ e d̪ o ɾ g o ɾ a e e ʃ e g æ ʧh e o d̪ o ɾ g o ɾ a e e ʃ e g æ ʧh e t̪ o d̪ o ɾ g o ɾ a e e ʃ e g e l̪ e æ kh o n̪ o d̪ æ kh a ʤ a k k i h ɔ e <sta> e b a ɾ ʧ e ʃ ʈ a ʧ o ɾ i t̪ ɾ o t̪ o k o ɾ ʧh i 
[179.165]
ʤ e ʈ a æ k ʈ a ʤ a e g a e s æ ʈ e l̪ k ɔ ɾ a e i h o ʧ ʧh e g i e b æ p a ɾ ʈ a a ɾ k i ʧh u i n̪ a 
[184.785]
<no-speech> 
[188.335]
a m a ɾ p ɾ ɔ ʤ e k ʈ a m a ɾ p ɾ ɔ ʤ e k ʈ m a n̪ e s i k e k o m p a n̪ i p ɾ ɔ ʤ e k ʈ 
[192.525]
<no-speech> 
[194.065]
<sta> k o n̪ p ɾ o ʤ e k ʈ ʃ e ʈ a t̪ o b o l̪ t̪ e h ɔ b e 
[197.045]
<no-speech> 
[199.975]
ʤ e ʈ a æ kh o n̪ k ɔ t̪h a b o l̪ ʧh i 
[202.495]
<no-speech> 
[204.175]
ʤ e ʈ a æ kh o n̪ k ɔ t̪h a b o l̪ ʧh i ʃ e ʈ a æ kh o n̪ l̪ ɔ e ɔ n̪ u ʃ ʃ ɔ ɾ ʈ a i m <sta> æ kh o n̪ o m o ʈ a m u ʈ i p ɾ a e a m a d̪ e ɾ ʈ a i m d̪ i e ʧh e ɖ e ɖ l̪ a i n̪ d̪ i e ʧh e t̪ e i ʃ t̪ a ɾ i kh t̪ e i ʃ e ʧ o b b i ʃ e ɾ p o ɾ e ɖ e ɖ l̪ a i n̪ d̪ i e ʧh e a ʃ a k o ɾ i e ɾ m o d̪ d̪h e h ɔ b e n̪ a 
[215.785]
<no-speech> 
[216.555]
<no-speech> 
[220.075]
p ã ʧ ʃ o 
[221.905]
<no-speech> 
[223.215]
ʃ ɔ b m i l̪ i e k o l̪ k a t̪ a ʃ i l̪ i g u ɾ i ʈ u ɾ i ʃ ɔ m o s t̪ o <no-speech> 
[232.595]
h æ̃ e ʈ a i e ʈ a i a p n̪ a ɾ k a ʧh e ʃ e ʃ k ɔ l̪ m a n̪ e t̪ o k e æ k ʈ a l̪ o k k e d̪ u ʈ o k ɔ l̪ k o ɾ t̪ e h o ʧ ʧh e e i h o ʧ ʧh e b æ p a ɾ ʈ a a h ʤ a i h o k a ɾ m a n̪ e 
[242.085]
<no-speech> 
[248.295]
b u ʤh t̪ e p a ɾ l̪ a m n̪ a k i h o e ʧh e 
[249.515]
<no-speech> 
[250.325]
æ 
[250.815]
<no-speech> 
[254.475]
n̪ a n̪ a t̪ a ɾ k o n̪ o m a n̪ e n̪ a i <int> t̪ a ɾ k o n̪ o m a n̪ e n̪ a i 
[257.205]
<no-speech> 
[258.225]
t̪ a ɾ k o n̪ m a n̪ e n̪ a i <no-speech> e i n̪ ɔ m b o ɾ e <int> 
[260.905]
<no-speech> 
[262.545]
e i n̪ ɔ m b o ɾ e <lipsmack> æ k ʈ a k ɔ l̪ e i n̪ ɔ m b o ɾ e æ k ʈ a k ɔ l̪ a ɾ æ k ʈ a ph i k s ɖ k ɔ ɾ a ʧh i l̪ o æ k ʈ a ʃ e ʈ a k o ɾ e n̪ i e ʧh i ʃ e ʈ a o i k ɔ ɾ a i ʧh i l̪ o 
[274.525]
<no-speech> 
[275.305]
<no-speech> 
[276.365]
o i <sta> m o n̪ t̪ ɾ o p a ʈh k ɔ ɾ a ɾ m o t̪ o a g e ɾ ʈ a e h o ʧ ʧh i l̪ o n̪ a a p n̪ a ɾ h æ n̪ ɖ s e ʈ e k o n̪ o p ɾ ɔ b l̪ e m a ʧh e m o n̪ e h o ʧ ʧh e h æ n̪ ɖ s e ʈ e ɾ o i æ k n̪ ə m b ə ɾ b o t̪ a m ʈ a e k i ʧh u p ɾ ɔ b l̪ e m a ʧh e m o n̪ e h ɔ e 
[287.055]
<no-speech> 
[290.425]
ʃ e ʈ a h o l̪ e o h o t̪ e p a ɾ e p a ɾ l̪ e o h o t̪ e p a ɾ e ʃ e ʤ o n̪ n̪ e i h ɔ e t̪ o k e ʈ e ʤ a ʧ ʧh i l̪ o e ɾ ɔ k o m ɔ n̪ e k e ɾ i k a ʈ ʧh e ʤ a i h o k e ʈ a t̪ o æ k ʧ a n̪ s e d̪h o ɾ e g æ l̪ o n̪ a k i <sta> 
[297.565]
<no-speech> 
[300.495]
ʤ a i h o k a m ɾ a k ɔ t̪h a b o l̪ t̪ e b o l̪ t̪ e <int> a m ɾ a k ɔ t̪h a b o l̪ t̪ e b o l̪ t̪ e e ʈ a k e ʈ e ʤ a b e l̪ a i n̪ ʈ a ʈh i k a ʧh e a ʧ ɔ m k a k e ʈ e ʤ a b e t̪ ɔ kh o n̪ l̪ a s ʈ e a p n̪ a k e k i b ɔ l̪ a ɾ a p n̪ i d̪ e kh b e n̪ a m i p o ɾ e a p n̪ a k e ɔ ph i s e g i e a b a ɾ k ɔ l̪ b æ k k o ɾ ʧh i ʈh i k a ʧh e t̪ o ʤ a i h o k ɔ d̪ bh u t̪ 
[313.325]
<no-speech> 
[314.475]
a p n̪ a ɾ a p n̪ a ɾ a p n̪ a ɾ p ɾ ɔ ʤ e k ʈ <hes> k ə n̪ ʈ i n̪ j u k o ɾ e ʧh e 
[317.605]
<no-speech> 
[324.515]
<no-speech> 
[324.945]
<no-speech> 
[326.895]
h æ̃ ʈh i k a ʧh e 
[327.875]
<no-speech> 
[328.985]
b a e n̪ a k o ɾ e ʈh i k a ʧh e p e m e n̪ ʈ 
[330.285]
<no-speech> 
[336.885]
k o i a m i t̪ o kh u b ʃ u n̪ d̪ o ɾ ʃ u n̪ t̪ e p a ʧ ʧh i t̪ a h o l̪ e a p n̪ a ɾ o kh a n̪ e a p n̪ a ɾ l̪ a i n̪ <no-speech> 
[343.655]
n̪ a n̪ a k e ʈ e k e ʈ e k o t̪h a e a ʃ ʧh e a m i ʃ u n̪ d̪ o ɾ ʃ u n̪ t̪ e p a ʧ ʧh i k o n̪ o p ɾ ɔ b l̪ e m n̪ e i 
[347.985]
<no-speech> 
[348.865]
n̪ ɔ e o k a ɾ p ɾ ɔ b l̪ e m 
[349.715]
<no-speech> 
[352.505]
ʤ a i h o k a m i o i <hes> a m a ɾ ɾ i l̪ a e n̪ s ʈ a <hes> ʤ a i h o k ʤ e ʈ a b o l̪ ʧh i l̪ a m a p n̪ a k e b o l̪ ʧh i l̪ a m a p n̪ a ɾ k o n̪ <hes> p o z i ʃ ə n̪ k i ɾ ɔ k o m o kh a n̪ e 
[362.545]
<no-speech> 
[364.135]
<int> k a ʤ e ɾ p o z i ʃ ə n̪ k i ɾ ɔ k o m o kh a n̪ e a p n̪ a ɾ o kh a n̪ e a p n̪ a ɾ o kh a n̪ e 
[368.185]
<no-speech> 
[369.315]
h æ̃ 
[369.825]
<no-speech> 
[373.945]
n̪ a æ kh o n̪ p e m e n̪ ʈ ʈ e m e n̪ ʈ ʈh i k ʈh a k a ʃ ʧh e 
[375.735]
<no-speech> 
[386.365]
h u m 
[386.935]
<no-speech> 
[393.645]

[394.215]
<no-speech> 
[398.815]
ʤ a i h o k ʤ e ʈ a h o ʧ ʧh e g i e h æ l̪ o 
[401.175]
<no-speech> 
[402.005]
h æ̃ b u ʤh i <cough> <sta> a m a d̪ e ɾ e kh a n̪ e t̪ o p e m e n̪ ʈ ʈ e m e n̪ ʈ ʤh u l̪ e g æ ʧh e p u ɾ o æ k d̪ o m 
[406.725]
<no-speech> 
[407.615]
p u ɾ o p e m e n̪ ʈ ʤh u l̪ e g æ ʧh e <no-speech> 
[410.045]
a ɾ e <hes> a ɾ a i m a ʃ l̪ e g e ʤ a ʧ ʧh e p e m e n̪ ʈ a ʃ t̪ e 
[412.725]
<no-speech> 
[414.115]
<no-speech> 
[414.545]
<no-speech> 
[425.195]
ʃ u n̪ ʧh i a b a ɾ n̪ a k i ʃ u n̪ ʧh i a b a ɾ n̪ a k i ɾ i n̪ j u k o ɾ b e æ kh o n̪ d̪ æ kh a ʤ a k ɾ i n̪ j u k o ɾ l̪ e p o ɾ e æ k ʈ u b ã ʧ b o <sta> ɾ i n̪ j u k o ɾ l̪ e p o ɾ e æ k ʈ u b ã ʧ b o <no-speech> 
[433.465]
h æ̃ k o ɾ b e t̪ a ɾ i kh ʈ a d̪ i e ʧh e 
[435.785]
<no-speech> 
[439.925]
h æ̃ 
[440.455]
<no-speech> 
[443.075]
h æ̃ s e ʈ a i m a n̪ e <sta> <no-speech> 
[448.415]
<no-speech> 
[448.795]
<no-speech> 
[450.125]
<no-speech> 
[450.605]
<no-speech> 
[451.615]
<sta> ʧh e l̪ e ɾ p o ɾ i k kh a h æ̃ ʧh e l̪ e t̪ o k l̪ a s e u ʈh e g æ ʧh e 
[455.675]
<no-speech> 
[456.715]
ʧh e l̪ e k l̪ a s e u ʈh e <no-speech> 
[459.285]
<int> h æ̃ 
[461.035]
<no-speech> 
[463.875]
s e ʈ a i 
[464.475]
<no-speech> 
[468.375]
h æ̃ 
[468.915]
<no-speech> 
[469.725]
a h 
[470.285]
<no-speech> 
[472.145]
h æ̃ k i æ k ʈ a bh u l̪ h o e g e l̪ o 
[474.435]
<no-speech> 
[478.665]
o h 
[479.215]
<no-speech> 
[480.125]
a h 
[480.625]
<no-speech> 
[484.165]
<no-speech> 
[488.795]
h æ̃ ʃ u n̪ t̪ e p a ʧ ʧh i a m i b o l̪ u n̪ b o l̪ e ʤ a n̪ a m i ʃ u n̪ t̪ e p a ʧ ʧh i <no-speech> 
[494.135]
kh u b p o ɾ i ʃ k a ɾ ʃ u n̪ t̪ e p a ʧ ʧh i a m i a m a ɾ k o n̪ o p ɾ ɔ b l̪ e m h o ʧ ʧh e n̪ a <int> a m a ɾ m o n̪ e h ɔ e a p n̪ a ɾ o kh a n̪ e m o n̪ e h ɔ e d̪ ɔ ɾ ʤ a ʤ a n̪ a l̪ a b o n̪ d̪h o a ʧh e ʃ ɔ b 
[501.485]
<no-speech> 
[502.915]
<no-speech> 
[503.325]
<no-speech> 
[509.295]
<sta> ʈh i k a ʧh e ʧ ɔ l̪ ʤ a i 
[510.765]
<no-speech> 
[512.894875]
h æ̃ 
[513.365]
<no-speech> 
[520.14]
<no-speech> 
[526.915]
æ k ʈ a g i ph ʈ g i ph ʈ t̪ o <hes> æ k ʈ a p e n̪ a ʧh e d̪ i e d̪ e b o 
[531.695]
<no-speech> 
[539.815]
<no-speech> 
[540.295]
<no-speech> 
[544.195]
æ kh o n̪ ɔ ph i s e ɖh u k b o a ɾ k i e i ɔ ph i s e ɾ k a ʧh a k a ʧh i ʃ a m n̪ e i d̪ ã ɾ i e a ʧh i e i h o ʧ ʧh e g i e b æ p a ɾ ʈ a 
[549.215]
<no-speech> 
[556.175]
n̪ a æ kh o n̪ t̪ o m a ɾ o i ʤ a d̪ o b p u ɾ e e i e i t̪ o <hes> i e ɾ o kh a n̪ e t̪ o ʤ a i h o k <sta> b æ p a ɾ ʈ a 
[564.845]
<no-speech> 
[566.625]
i n̪ d̪ u bh a l̪ o a ʧh e o æ k d̪ o m m a n̪ e d̪ i e ʧh ɔ e l̪ a kh æ k d̪ o m <sta> o ɾ ɔ b o s t̪h a kh u b bh a l̪ o 
[576.855]
o ɾ a ɾ g u ɾ u ɾ a ʤ e ɾ ɔ b o s t̪h a æ kh o n̪ kh u b t̪ u ŋ g e æ k d̪ o m o i d̪ u ʤ o n̪ e ɾ <no-speech> 
[582.585]
g u ɾ u ɾ a ʤ e ɾ o ɾ o g bh a l̪ o g u ɾ u ɾ a ʤ e ɾ <hes> ʤ e ʤ e p ɾ ɔ ʤ e k ʈ a ʧh e bh a l̪ o bh a l̪ o b a ʤ e ʈ a ʧh e p ɾ o t̪ t̪ e k <sta> t̪h e k e a ʃ e 
[590.605]
<no-speech> 
[591.635]
a ɾ o ɾ a kh t̪ e p a ɾ e n̪ a e ʈ a ʈh i k k ɔ t̪h a <sta> o m ɔ d̪ kh e e u ɾ i e d̪ i ʧ ʧh e <no-speech> 
[596.395]
o t̪ o h o l̪ e p o ɾ e e kh a n̪ e ʃ u ɾ ʤ o ɖ u b b e 
[598.735]
<no-speech> 
[599.42]
