[0.000]
<no-speech>
[9.065]
<int> অঁ
[9.975]
<no-speech>
[11.435]
অঁ ক <int>
[12.315]
<no-speech>
[14.655]
<sta> হে আছো কাৰ নাম্বাৰ এইডাল
[16.365]
<no-speech>
[19.735]
<sta> কি বস্তু কচোন
[21.365]
<no-speech>
[23.905]
<sta> এই ৰুমতে আছো ভাত খাব লৈছো এতিয়া টিউচন যাম <no-speech> এই ওচৰতে ড্ৰইংৰ টিউচন
[31.435]
<no-speech>
[32.395]
কি <int>
[32.965]
<no-speech>
[38.135]
কোন মানুহে <sta>
[40.025]
<no-speech>
[42.745]
মই হেৰি পাহৰিলো এতিয়া <sta>
[45.315]
<no-speech>
[46.155]
দে পাহৰিছো <int>
[48.175]
<no-speech>
[52.865]
<sta> নাই (()) <breath> নাই সেইবোৰ সেইবোৰ আৰু মনত পেলাব মন নাই আৰু পাহৰাৰ
[58.415]
<no-speech>
[60.995]
<sta> ওঁ এনে এনে কাম (())
[65.715]
<no-speech>
[69.305]
<int> কৰ
[70.045]
<no-speech>
[71.565]
কৰ <int>
[72.245]
<no-speech>
[79.045]
ওঁ নামতো কি ছোৱালীজনীৰ <int> ছোৱালীজনীৰ নামতো কি <int>
[83.535]
<no-speech>
[86.085]
কৰ <int>
[87.695]
<no-speech>
[88.565]
ক'ত পঢ়ে <int>
[89.825]
<no-speech>
[92.455]
<sta> তই পটোৱাজনীৰ নামতো কি <no-speech> হাঁ
[98.415]
<no-speech>
[100.995]
<sta> কি
[102.155]
<no-speech>
[104.515]
নিকিতা <int>
[105.515]
<no-speech>
[108.355]
(()) হুঁ
[109.685]
<no-speech>
[113.875]
<int> কি সুধিছ <int>
[115.315]
<no-speech>
[120.465]
<sta> যা ফেচবুকত হেৰি কৰিব ক
[124.455]
<no-speech>
[126.695]
হুঁ <int>
[127.185]
<no-speech>
[128.825]
<int> হুঁ
[129.555]
<no-speech>
[131.795]
<int> অঁ ফেচবুক নাই জানো আছে ছাগে <int>
[133.735]
<no-speech>
[135.855]
ওঁ তাৰপিছত তই মোক কথা পতাই দে আকৌ <int>
[138.255]
<no-speech>
[139.405]
কি <int>
[139.995]
<no-speech>
[141.895]
তোৰ ফ্ৰেণ্ড লিষ্টত আছে <int>
[143.205]
<no-speech>
[147.415]
<sta> অঁ (())
[148.785]
<no-speech>
[151.545]
ওঁ ক'ত পঢ়ে ছোৱালীজনী <int>
[152.905]
<no-speech>
[156.105]
<sta> বাম্পাৰ ডাঙৰ মোতকে (())
[157.835]
<no-speech>
[159.445]
মোতকে ডাঙৰ হ'ব কলো <int>
[160.875]
<no-speech>
[164.585]
অঁ <int>
[165.165]
<no-speech>
[166.305]
<sta> (()) অঁ যদি কোৱা নাই ঠিকে আছে ক'ত নগাওঁত ঘৰ
[170.605]
<no-speech>
[173.065]
<sta> অঁ ঐ এইতো কিহৰ (()) নাম্বাৰ এইতো কচোন
[175.385]
<no-speech>
[177.715]
<int> এইতো কি চিম <int>
[178.655]
<no-speech>
[179.775]
ওঁ নাকাটো কি চিম কচোন <int>
[181.735]
<no-speech>
[183.315]
মোৰ গোটেইখিনি পিছা যাব নেকি আকৌ <int>
[185.325]
<no-speech>
[190.515]
অঁ কি চিমটো কিনো কিহৰ কচোন <int>
[192.675]
<no-speech>
[197.435]
<no-speech>
[197.955]
<no-speech>
[199.225]
<int> অঁ এই কৰ ছোৱালী কৰ ছোৱালী ছোৱালীজনী কৰ
[202.965]
<no-speech>
[203.875]
ছোৱালীজনী <int>
[204.565]
<no-speech>
[206.065]
অঁ কথা পতাই দে আকৌ <int>
[207.495]
<no-speech>
[209.025]
<sta> কথা পতাই দে (()) তোৰ তোৰ লগত নহয় তোৰ লগৰটো
[213.205]
<no-speech>
[214.225]
<sta> নহয় তোৰ লগৰটো (()) নহয় জানো
[216.645]
<no-speech>
[218.675]
অঁ তেনেহ'লে কথা <int> পতাই দে আকৌ কি কি নিকিতা কি বামুণ ছোৱালী
[222.415]
<no-speech>
[223.225]
<sta> অঁ তেনেহ'লে কথা পতাই দে আকৌ
[227.345]
<no-speech>
[228.785]
<no-speech>
[229.135]
<no-speech>
[231.195]
<int> তালৈ
[231.845]
<no-speech>
[235.485]
<sta> অঁ কেইটা বজাত
[240.315]
<no-speech>
[242.855]
<int> টিউচন ছয়টামানত আছে ৰ'ব
[244.565]
<no-speech>
[246.925]
<int> চাৰে চাৰিটাৰ পৰা <int>
[248.335]
<no-speech>
[249.785]
ড্ৰইংৰ <no-speech> ড্ৰইংৰ ড্ৰইংৰ <no-speech> হাঁ <sta>
[257.285]
<no-speech>
[258.825]
<sta> নাই কৰা অঁ তই কছম ক কথাতো সঁচানে
[262.665]
<no-speech>
[264.485]
<sta> ওহো নিকিতা
[266.685]
<no-speech>
[271.655]
নহয় যদি আৰু কিবা উল্টা পুল্টা কিবা নাক (()) চকু কৰো ওলাই <int>
[278.055]
<no-speech>
[285.155]
অঁ বিয়া পাতো দে <int>
[287.255]
<no-speech>
[289.535]
<sta> কি খুৱাবি মানে (()) ফেচবুকত থাকিব লাগিব ভাই নহ'লে মই হেৰি (()) ফেচবুকত হেৰি কৰিব নহ'লে
[301.145]
অঁ অঁ <int>
[302.505]
<no-speech>
[305.265]
অঁ ফেচবুকত থাকিব <int>
[307.065]
<no-speech>
[309.335]
অঁ ফেচবুক নাথাকিলে আৰু কিনো <int>
[312.975]
<no-speech>
[313.795]
<sta> (()) তই তই পিছত দিবি ঐ (()) গম নাপাওঁ বুলি ভাবিছ তই পিছত উল্টা পুল্টা নাম দিবি গৈ
[322.605]
<no-speech>
[323.615]
<sta> পিছত উল্টা পুল্টা দিবি গৈ নহয়
[325.625]
<no-speech>
[328.245]
সঁচাকেতো <int>
[329.145]
<no-speech>
[331.305]
ওঁ সঁচাকেতো <sta>
[336.595]
<no-speech>
[337.935]
<sta> ক'ত আছ ক'ত এতিয়া কলেজত
[340.365]
<no-speech>
[343.575]
<sta> অঁ সি
[346.045]
<no-speech>
[347.345]
<sta> দিবিনে <no-speech> নহয় তোক হাঁ
[352.255]
<no-speech>
[353.195]
<no-speech>
[353.575]
<no-speech>
[355.555]
<int> হুঁ <int>
[356.975]
<no-speech>
[358.185]
<sta> ছ- ছয় মিনিট
[364.045]
<no-speech>
[366.415]
<sta> কচোন দিবিনে নেকি তোৰ নামতো কি তোৰ মালৰ নামতো কি
[372.485]
<no-speech>
[375.475]
কি নিকিতা কি লিখে <int>
[376.635]
<no-speech>
[379.755]
<sta> ডিচিতা নিকিতা বাপৰে পিছত আকৌ মেনকা চেনকা হ'লেহে হ'ব আকৌ
[386.115]
<no-speech>
[387.595]
<sta> পিছত মেনকা হ'লেহে হ'ব আকৌ
[391.235]
<no-speech>
[393.955]
<sta> (()) অঁ নহয় পিছত আকৌ মেনকা হৈ গ'লে হে প্ৰবলেম হ'ব
[403.075]
<no-speech>
[404.195]
<int> অঁ চিয়ৰটো <int>
[406.105]
<no-speech>
[408.095]
অঁ তেনেহ'লে কথা এটা দে কি হেৰি <int> বি বৰুৱাত পঢ়ে <int>
[411.855]
<no-speech>
[413.875]
অঁ অঁ দূৰ অলপ <int>
[416.185]
<no-speech>
[416.995]
<sta> বামুণিমৈদাম বামুণিমৈদাম পৰা অলপ দূৰ হ'লেও একো নহয় দে
[421.265]
<no-speech>
[424.795]
অঁ অঁ বা কেতিয়া কথা পতাই দিবি <int>
[427.735]
<no-speech>
[431.145]
<sta> অঁ অঁ কি তাই তোক কৈছে হাঁ কি তাই তোক কৈছে
[437.895]
<no-speech>
[439.285]
কি তোৰ লগৰ অঁ তোৰ ফ্ৰেণ্ড এটা আছে বুলি কৈছেনেকি কি কৈছে পাতিম বুলি কৈছেনে <int>
[446.165]
<no-speech>
[448.925]
<sta> অঁ ছাবি আকৌ পিছত দে (()) এইবোৰ যাতে নহয় আৰু
[453.785]
<no-speech>
[456.265]
অঁ <int> চলিত নে <int>
[458.285]
<no-speech>
[459.955]
চলিত নে <int>
[460.825]
<no-speech>
[465.125]
এই বাবুৱাৰী কথা আৰু নক'বি <int>
[467.505]
<no-speech>
[468.925]
বুলি সেইজনীৰটো কথা নক'বি <int>
[471.255]
<no-speech>
[474.045]
<sta> সেইজনী মই দেখিব ভাল নাপাওঁ ন <no-speech>
[480.415]
<sta> অঁ আগতে ক'ত গুৱাহাটীতেনে ঘৰ
[484.365]
<no-speech>
[485.895]
<int> নগাওঁত
[487.115]
<no-speech>
[488.485]
<int> নগাওঁত তাত <int>
[489.355]
<no-speech>
[492.455]
<sta> ওঁ হ'বদে (()) ট্ৰেন্ফাৰৰ কাৰণে (()) দুটা জাগাত দিম নগাওঁ নাইবা গুৱাহাটী
[498.355]
<no-speech>
[499.195]
<no-speech>
[499.565]
<no-speech>
[500.375]
অঁ <int>
[500.945]
<no-speech>
[504.235]
কি ক <int>
[505.265]
<no-speech>
[508.585]
হাঁ <int>
[509.125]
<no-speech>
[510.255]
<int> অঁ
[510.925]
<no-speech>
[513.455]
কি <int>
[513.915]
<no-speech>
[522.535]
<int> কি
[523.165]
<no-speech>
[528.015]
এ তই ওলাইছে পোলোটা <int> পিছত তই ওলাইছে পোলোটা কৰিবি জানো ন <int>
[532.205]
<no-speech>
[535.215]
<sta> অঁ যদি যদি (()) যদি ভাল যদি ভাল ছোৱালী তেতিয়া কথা পতাই দে আৰু এনেই যদি (()) কি
[544.395]
<no-speech>
[547.125]
<sta> অঁ সেইটোতো হ'বই আৰু অঘাইতং ছোৱালী সেইবোৰ মোৰ পাল্লাত নেপেলাবি ভাই অঁ মেনকা চেনকা নপঠিয়াবি মোৰ ওচৰত
[559.005]
<no-speech>
[559.155]
<no-speech>
[561.125]
<sta> পাইছো মেনকা সেইফালে নপঠাবি ভাই বাকী নিকিতা নিকিতা হওক জেচিকা হওক চব পথাবি জেচিকা কিন্তু মেনকাক নপঠাবি
[571.275]
<no-speech>
[575.005]
<sta> অঁ অঁ এ <hes> হ'বদে (()) হাঁ অঁ
[579.555]
<no-speech>
[581.465]
অঁ ক <int>
[583.135]
<no-speech>
[586.375]
অঁ <int>
[586.975]
<no-speech>
[589.675]
<sta> অঁ এ তই কি কেতিয়া কথা পতাই দিবি আজি
[593.925]
<no-speech>
[595.805]
অঁ অঁ হ'বদে <int>
[597.215]
<no-speech>
[598.125]
এ কি কৰ পাবি সেই <int>
[599.765]
তোৰ লগত <int>
[600.060]
