[0.000]
<no-speech>
[2.725]
<no-speech>
[3.075]
<no-speech>
[6.275]
হেল্লো
[6.985]
<no-speech>
[9.915]
অঁ মুন
[10.695]
<no-speech>
[11.925]
<no-speech>
[13.215]
<no-speech>
[15.495]
হেৰি হ'ল নহয় (())
[17.635]
<no-speech>
[21.865]
ক'ত আছা তই
[24.265]
<no-speech>
[25.965]
অঁ তই বিয়াখন কৰালিনে
[27.595]
<no-speech>
[33.265]
(()) কিমান চনত কৰালি
[35.185]
<no-speech>
[39.065]
মোৰ ল'ৰা এতিয়া চিক্সত পঢ়ি আছেনে
[41.275]
<no-speech>
[43.015]
অঁ সেই তাতে (())
[45.345]
<no-speech>
[46.875]
এই নুনমাটিখন যে নুনমাটিৰ
[49.025]
<no-speech>
[50.915]
আৰু ভন্টিজনীৰ কৰ্চ কেইটা হোৱা নাই এতিয়ালৈকে
[53.925]
<no-speech>
[56.565]
বাকী তোমাৰ
[58.595]
<no-speech>
[64.925]
কিয় বিয়া কৰাইছা বুলি শুনিছোতো মই তোমালোকৰ ঘৰত যাই পেলাই তোমাৰ মায়ে লাড়ু দিলেতো যোৱাকালি আৰু বোৱাৰী আছিল ভাল মাল লৈছা দেখোন
[74.055]
<no-speech>
[76.085]
অঁ ধুনীয়া
[77.705]
<no-speech>
[80.985]
লোভ বাৰু কি এইটোতো থাকিবই নে
[83.175]
<no-speech>
[84.535]
(())
[85.135]
<no-speech>
[88.845]
হয় নেকি নহয় তাৰমানে লোভ লাগে অলপ আৰু কিমান আৰু বুজিছানে
[93.855]
<no-speech>
[97.375]
হয় <sta> নহয় সেইবিলাক লোভ নাই সেইবিলাক লোভ নাই অঁ ধুনীয়া লগৰীয়াই ধুনীয়া পালে ভাল লাগে আৰু কবলৈ গোটেইকেইটা ধুনীয়া হ'লে ভাল লাগিলে হয়নে
[106.645]
<no-speech>
[109.255]
(()) দেখাই নাই ৰ'বা অঁ নাই নাই নহয় তাতে আছে বিজি ল'ৰা ছোৱালীৰ বিলাকৰ লগত বিজি থাকে গম পাইছানে নাই <int>
[120.405]
বিয়াতযে চিনাকী কৰি দিছিলো তোমাক (()) চিনাকী কৰি দিছিলো মনত আছেনে নাই একো
[126.845]
<no-speech>
[129.405]
অঁ ঠিকেই বাকী কি আছা এতিয়া
[132.855]
<no-speech>
[137.765]
(())
[138.375]
<no-speech>
[139.285]
আজিকালি (()) খোৱা বাদ দিলা নেকি
[141.485]
<no-speech>
[143.435]
হিন্দীবোৰ কোৱা বাদ দিলা নেকি বিহাৰী দেচুৱালি ভাষা বিলাক <sta>
[147.625]
<no-speech>
[149.345]
কি খাৱ
[150.085]
<no-speech>
[152.135]
কোৱানা এবাৰ
[153.115]
<no-speech>
[156.805]
<laugh> ব'লনা ভায়া
[158.775]
<no-speech>
[159.845]
<no-speech>
[160.275]
<no-speech>
[164.275]
অঁ নাই ক'ব লাগে হিন্দী চিন্দি কৈ থাকিলে ভাল লাগে না
[167.425]
<no-speech>
[170.345]
<no-speech>
[170.815]
<no-speech>
[173.635]
<no-speech>
[174.125]
<no-speech>
[175.285]
অঁ অহ'
[176.115]
<no-speech>
[179.455]
হাঁ হাঁ
[180.175]
<no-speech>
[182.415]
কইনা আছে দিয়া ঠিকে আছে
[184.075]
<no-speech>
[186.535]
দি আছো মুটামুটি আৰু এবাৰ এবাৰ দিওঁ কিমান আৰু সেইটোও আৰু নে
[190.625]
<no-speech>
[191.435]
বতৰ (()) ঠিকে থাকিলে ভাল লাগে আৰু
[194.365]
<no-speech>
[197.005]
আছে (()) সেইবিলাক বস্তু পাহৰা সাতোৰা চাইকেল চলোৱা এইবিলাক বস্তু পাহৰা নাযায়তো
[202.025]
<no-speech>
[203.205]
<no-speech>
[203.785]
<no-speech>
[207.565]
অঁ আমাৰ মানে যৌৱন থাকিবই আৰু আমাৰ আমি মানে আৰু বুঢ়া নহ'ম কেতিয়া বুজিছনে নাই
[213.045]
<no-speech>
[216.585]
অঁ নাই আমিতো আৰু কি হয় আমি সোনকালে বিয়া কৰাইছো তোমালোকৰ দৰে নহয়তো থাৰ্টি নাইন থাৰ্টি ফ'ৰত বিয়া কৰাই আমি টুৱেণ্টি নাইনতে কৰাইছো নে
[228.405]
<no-speech>
[233.715]
<int> তোমালোকৰ এই বিলাক চব শুকাই যোৱাৰ পিছত সেই কৰিছা আৰু <laugh>
[238.275]
<no-speech>
[249.115]
<laugh> (())
[251.535]
<no-speech>
[253.665]
<no-speech>
[254.155]
<no-speech>
[257.945]
কিয় আগতে দেখোন লগাই দিয়াৰ লগে লগে হৈছে ছা
[262.205]
<no-speech>
[268.405]
হয় নেকি
[269.185]
<no-speech>
[270.305]
দিয়া হৈ যাব একো নাই তই এইবিলাক শাক চাক খায় থাকিলে কনি চণী খাবা হাঁহৰ কনি চণী খাবা <int>
[278.545]
<no-speech>
[280.365]
নাই একো নাই বোৱাৰী যৌৱন আছেনে হৈ যাব আহি যাব
[284.775]
<no-speech>
[288.235]
(())
[288.835]
<no-speech>
[290.045]
(()) ভাত_পানী বহাই দিবা আৰু
[292.095]
<no-speech>
[296.435]
<hes> হেৰি কৰিবা তোমালোকে অলপ কিবা কিবি খোৱা কৰিবা
[303.115]
<no-speech>
[304.555]
ঠিকে আছে বাৰু এনে মালখন ঠিকে আছে
[306.715]
<no-speech>
[307.645]
শিকিলো সেই দিনা ভালে লাগিল
[310.515]
<no-speech>
[313.945]
আহিবা আমাৰ ফালে কেতিয়াবা আমাৰ ফালে কেতিয়াবা লৈ আহিবা
[319.085]
<no-speech>
[323.385]
অঁ অহ'
[324.125]
<no-speech>
[326.175]
এতিয়া কি মই তোমাক লগ নাপাওঁ নে
[328.765]
<no-speech>
[330.035]
আজি বোলে মুকলি বিহু আছে তোমালোকৰ ফালে ইয়াতে
[333.445]
<no-speech>
[335.295]
আহিবা মানে মই এতিয়া ডিউটীকে যাব লাগেনে মই মানে কইনা গাৱৰ পৰা আহিলো ইয়াতে ঘৰতে ঘৰতে আছে যাব
[342.165]
<no-speech>
[344.275]
ডিউটীকে যাব ল'গা হ'ল নহয় কইনা যায় যদি যায় আৰু তোমাৰ মিছেচক দেখা পালে দেখা দিবা আৰু হাঁ
[350.665]
<no-speech>
[354.175]
কিয়
[354.835]
<no-speech>
[359.155]
ছাবি আৰু ধুনীয়া মাল হ'লেতো ছাবি না বেছি সেইকাৰণে (())
[366.435]
<no-speech>
[368.955]
(())
[369.565]
<no-speech>
[371.425]
ধুনীয়া ফুল হ'লেতো ছাবি না
[373.225]
<no-speech>
[375.105]
সোন্দৰ্য্যটো সেইকাৰণে দিছে ভগৱানে চোৱাৰ কাৰণে দিছে
[378.185]
<no-speech>
[379.205]
আৰু মানুহক (()) বস্তু উপভোগ কৰে
[382.585]
<no-speech>
[384.975]
(())
[385.615]
<no-speech>
[391.335]
হাঁ হাঁ
[392.045]
<no-speech>
[395.895]
অঁ তুমিও যে আগতে সোমাইছিলা নে
[399.215]
<no-speech>
[401.915]
অঁ এইবিলাক একেই তোমালোকৰ বিধান এইবিলাক
[405.905]
<no-speech>
[408.115]
<no-speech>
[409.135]
<no-speech>
[411.585]
<no-speech>
[412.195]
<no-speech>
[413.195]
আজি কি ল'ৰাবিলাকে জুৱা খেলা কৰিছে আজি ইয়াতে জুৱা খেলা কৰিছে বোলে ইয়াতে
[420.785]
<no-speech>
[423.215]
ইয়াতে ইয়াতে
[424.165]
<no-speech>
[428.025]
হয় নেকি
[428.735]
<no-speech>
[430.045]
<no-speech>
[430.795]
<no-speech>
[432.145]
তাৰ পাচত
[432.805]
<no-speech>
[436.595]
হয় নেকি
[437.245]
<no-speech>
[438.705]
আচ্ছা এই সি ফোনতো ৰাখিছে নাৰাখো মই মানে কথা পাতিব আছে মই ঘৰত যাওঁ অলপ তাৰপিছত (())
[449.155]
<no-speech>
[451.345]
<no-speech>
[451.955]
<no-speech>
[454.195]
মই মানে ভাত খাব লাগে ডিউটি আছে আজি আগত গ'লে (()) মিছ কল দি আছো গম পাইছনে নাই
[461.505]
<no-speech>
[462.485]
<no-speech>
[462.855]
<no-speech>
[464.255]
অঁ ভোক লাগি আছে কি বনাইছে বোৱাৰীয়ে
[466.835]
<no-speech>
[468.095]
<no-speech>
[468.545]
<no-speech>
[471.365]
অঁ বাকী মাছ চাচ খায় আছানে
[474.305]
<no-speech>
[476.905]
কাৱৈ মাছ খোৱা নে
[478.645]
<no-speech>
[480.825]
কাৱৈ কাৱৈ
[482.165]
<no-speech>
[484.575]
<laugh> হয় নেকি (()) লাগে
[487.735]
<no-speech>
[488.625]
এ দাম কিমানহে ইয়াতে
[490.825]
<no-speech>
[492.645]
(())
[493.295]
<no-speech>
[495.375]
মাত্ৰ
[496.195]
<no-speech>
[497.485]
আমাৰ ইফালে দাম কমতো গুৱাহাটীত
[499.555]
<no-speech>
[502.915]
<no-speech>
[503.845]
<no-speech>
[505.875]
তই ক'ত
[506.605]
<no-speech>
[509.455]
<sta> ৰৈ মই ঘৰ আহিলোৱে
[511.845]
<no-speech>
[514.985]
(()) হাঁ হাঁ <sta>
[521.685]
<no-speech>
[524.755]
নাই নাভাবে
[525.935]
<no-speech>
[530.335]
হাঁ <int>
[532.205]
<no-speech>
[535.495]
নাভাবে নাভাবে কি টোপনি মাৰিছা নেকি
[537.655]
<no-speech>
[540.825]
হয় নেকি
[542.405]
<no-speech>
[544.375]
অঁ মিচেচৰ লগত কথা পাতিবা নেকি
[546.105]
<no-speech>
[548.925]
মিচেচৰ লগত কথা পাতিবা খুড়া
[550.515]
<no-speech>
[553.995]
অঁ অঁ দে (())
[556.285]
<no-speech>
[557.715]
কথা পাতিবা
[558.535]
<no-speech>
[560.475]
<no-speech>
[561.075]
<no-speech>
[563.085]
হেল্লো
[563.765]
<no-speech>
[565.265]
(()) এই ইয়াতে মাংস বনাই <sta> এই এইতো পথা আনিছো পথা
[576.985]
অঁ সেই মিক্সি চলাই আছে
[582.565]
<no-speech>
[584.165]
অঁ মচলা খুন্দিছে (()) হাঁ <sta>
[595.495]
তাইয়ে মিক্সি চলাইছে
[598.385]
<no-speech>
[599.615]
<no-speech>
[599.86]
