[0.000]
<no-speech>
[1.575]
<no-speech>
[1.935]
<no-speech>
[3.725]
হেল্লো অঁ কি কৈ আছে মই <laugh> হেল্লো
[7.755]
<no-speech>
[8.955]
কি কৈ আছে <int>
[9.755]
<no-speech>
[12.965]
নহয় মানে এটা ছোৱালী মানুহৰ মাত কি কৈ আছে তাই
[15.395]
<no-speech>
[17.125]
আছা নেকি <int>
[18.075]
<no-speech>
[22.165]
<int> মই ভাত খাব বহিছো মই আৰু মই আছো ভাত খাব বহিছো ৰ আমি এনেকে কৈছো <laugh>
[27.685]
<no-speech>
[29.315]
<int> আছে ভালে আছে <int>
[31.095]
<no-speech>
[36.095]
<int> হয় নেকি
[37.485]
<no-speech>
[39.115]
মই কিন্তু <int>
[39.705]
<no-speech>
[41.095]
<int> হাঁ হাঁ
[41.935]
<no-speech>
[44.825]
<int> হয় নেকি মই ভাত খাব বহিছো দুই টেপা খালো মানে গোটেইখিনি খায় ল'ম নেকি
[48.265]
<no-speech>
[50.765]
গোটেইখিনি ভাত খায় যাম নেকি
[52.135]
<no-speech>
[58.135]
<sta> (()) অঁ হাঁ
[63.055]
<no-speech>
[64.685]
<no-speech>
[65.065]
<no-speech>
[67.045]
<int> নাই দিলো আৰু গোটেইকেইটা গ'ল নহয় এতিয়া এই এতিয়া খাব পাইছো বহুত মানুহ তাৰমানে এতিয়া <int>
[72.145]
<no-speech>
[73.195]
<sta> (()) হাঁ
[76.355]
<no-speech>
[78.145]
আঁ <int>
[78.585]
<no-speech>
[81.085]
মাংস মাছ
[82.185]
<no-speech>
[83.325]
মচুৰৰ দালি <laugh> এইবিলাক
[85.495]
<no-speech>
[88.865]
হাঁ হাঁ <int>
[89.505]
<no-speech>
[93.155]
দুয়ো দুয়োটা আছে <int>
[95.465]
<no-speech>
[96.385]
অঁ দুটাতে পাম দুয়োটায়েই
[98.265]
<no-speech>
[102.325]
হাঁ
[102.825]
<no-speech>
[104.975]
হেল্লো
[105.485]
<no-speech>
[106.585]
কি <int>
[107.035]
<no-speech>
[108.785]
অঁ
[109.245]
<no-speech>
[110.755]
দুয়োটাই (()) মাহঁত তাৰ এটা <laugh>
[114.025]
<no-speech>
[116.745]
মাফ খুজিছে আৰু <int>
[118.185]
<no-speech>
[122.575]
নহয় সেইটোকাৰণে কি জানানে হেৰি আমাৰ এই <int> আমাৰ বাই ডাঙৰ বাইদেউৰ <hes> হেৰি হয় <hes> জমাক বুলি ক'ব জমাক
[129.645]
<no-speech>
[130.535]
বয়
[131.195]
<no-speech>
[132.715]
আমাত আমাৰ সেইফালে আমাৰ ঘৰৰ আলহীও হয় মানে বাইদেউহঁতৰ পৰা আলহী আৰু মাৰ ফালৰ পৰাও আলহী হয় দাদা হয় আমাৰ
[138.045]
<no-speech>
[139.945]
<sta> মানে আহিছিলে আহোতে মানে মোবাইলটো এৰি গৈছে এটা ম'বাইল এৰি গৈছে মোক ফোন মাৰি আছে কৈছে (()) মোবাইলটো আছে নেকি মই কৈছো আছে তাৰপিছত দিব গ'লো
[147.015]
<no-speech>
[152.765]
<no-speech>
[153.125]
<no-speech>
[155.125]
নাই আহিবি দেই জিৰাই মানে কালি মামাহঁতৰ কাম আছে নহয়
[157.765]
<no-speech>
[160.405]
<int> আজি মাতিছে আৰু
[161.525]
<no-speech>
[165.375]
মই অসমীয়া (()) একো ক'ব নোৱাৰো <laugh>
[169.085]
<no-speech>
[169.935]
আজি (()) <int>
[170.855]
<no-speech>
[173.815]
<int> আজি আজি ভিনদেউ মানে আমাৰ হাতৰ পৰা নাযায়
[176.415]
<no-speech>
[177.775]
আজি আছিলো মই ইয়াতে কালিও কাম কালিও যাম <breath> যোৱা (()) আছিল আমাৰ ভণ্টী নাখাই মাছ মাংস একো মই খাওঁ
[185.995]
<no-speech>
[188.135]
<int> মই একো বাৰে নাবাছো
[189.715]
<no-speech>
[191.945]
<sta> (()) মাত্ৰ শিৱ ৰাত্ৰি হওক বা দেউল হওক তেতিয়া হ'লে সেই কৰো (())
[203.515]
<sta> (()) বহুত বেয়া কৰিছে মাইনাই ডাঙৰ বাইদেউ মাইনাই আহি
[207.695]
<no-speech>
[210.205]
<no-speech>
[211.595]
<no-speech>
[213.865]
<sta> হাঁ ৰেল বুলি গাম মই <laugh> ৰেল আহিছে
[217.435]
<no-speech>
[219.235]
<sta> (()) শুনি বহুত বেয়া লাগে ন গাৱলীয়া যে
[223.665]
<no-speech>
[226.645]
মোৰ কথা শুনিলে বহুত বেয়া লাগে ন
[228.685]
<no-speech>
[231.255]
<sta> এনে হয় তাৰমানে সেইদিনাও মানে কলেজত কৈছিল দুটা দুজনমান ছোৱালী সিহঁতো গাৱলীয়া হয় কিন্তু ইমান লিখিত মাৰে মোক কৈ আছে তই আজিকালি যিমানবিলাক (()) নহয়েই এনেকে কৈছে ইমান তোৰ মানে লিখিত নামাৰাই ইমান কথিত মাৰা
[242.855]
<int> কেনে কেনে ভাষা কওঁ <laugh> ভাষা মানে আৰু <breath> মই গাৱঁৰ <foreign> কওঁ মই এনেকে মানে কথা ক'ব নোৱাৰো <int> বেয়া লাগে বোলে সিহঁতৰ মই কৈছো শিকাবি মোক এক মাহ
[254.575]
ক'লে হ'বদে এনেকে কৈছে
[255.635]
<no-speech>
[265.965]
আঁ
[266.375]
<no-speech>
[267.665]
অঁ <int>
[268.065]
<no-speech>
[269.715]
আমাৰ ডাঙৰ এখন গাঁৱত <int> (()) ভাষা নকয়েই
[274.315]
<no-speech>
[276.635]
অঁ অঁ <int>
[277.185]
<no-speech>
[280.985]
<no-speech>
[281.585]
<no-speech>
[282.875]
মানে মোৰ মানে বান্ধৱী কেইজনী ইমান লিখিত মাৰে <sta> <laugh> মই সিহঁতৰ লগত হ'বৰ কাৰণে (()) <breath> সিহঁতে কয় অঁ মোৰ <laugh>
[292.375]
<no-speech>
[294.345]
মই মানে ঘৰত মতা নাম অনিতা <no-speech> আৰু ওপৰত মতা নাম মানে খোৱাৰ নাম হ'ল দুলুমণি
[299.015]
<no-speech>
[301.015]
তুমি মোক অনিতা বুলিয়েই জানা পিছে <int>
[302.805]
<no-speech>
[307.145]
মই দুলুমণি ভালে অনিতা ভালেই নাপাওঁ <int>
[309.215]
<no-speech>
[312.825]
অনিতা ভাল <int> নাপাওঁ দুলুমণি
[314.375]
<no-speech>
[317.155]
অনিতা <int>
[317.795]
<no-speech>
[319.385]
আঁ
[319.835]
<no-speech>
[324.135]
অঁ অঁ <int>
[324.995]
<no-speech>
[326.345]
অনিতাতো ভাল নাপাওঁ অনিতাতো <int> মানে সেই আৰু এনেই থোৱা এই মাজু বাইদেউৰ নাম প্ৰণীতা সেইকাৰণে মোৰ নাম অনিতা থৈ দিছে <int> আৰু মই ডাঙৰ হৈছে এতিয়া খাড়া হ'ব পৰা গৈছে
[335.075]
<no-speech>
[336.725]
নাই মানে গোটেই কৰাই হৈছে তাৰপিছত কিবা ভণ্টী জন্ম হোৱাৰ পিছত ভন্টিলেও আখৰা কৰা হৈছে মোৰ সেইকাৰণে আখৰা তাৰমানে
[343.105]
<no-speech>
[344.585]
কান্দি কান্দি তেতিয়াহে আমৰ দেউতাকক কান্দি কান্দি বহুত মানে চবৰে কৰিলে মোৰ <int> নকৰা বহুত কান্দিছো সেইকাৰণে সেই কৰি দ্বিতীয়ত আছিলো বোধহয় দ্বিতীয়মানত
[353.395]
<no-speech>
[357.705]
কিয় বনাইছো কোষ্ঠিয়ো বনাই বনোৱা নাইযে <int>
[360.175]
<no-speech>
[362.685]
কোষ্ঠি চোষ্ঠি চব বনাইছো <int>
[364.205]
<no-speech>
[370.755]
<int> (()) লাগিব এইয়া বিছন চিছনা একদম বেয়া কৰি দিছে মাইনাই <int>
[376.405]
<no-speech>
[381.265]
আঁ হয় নেকি
[382.625]
<no-speech>
[384.945]
(()) কি কাৰণে (()) কি কাৰণে কি কিয় মানে ফ্ৰীতে কথা পাতি আছা মই কিয় কি দিছা মানে ফ্ৰীতে যে কথা পাতি আছা মানে <hes> কেনেকে ফ্ৰীতে কথা পাতিব পাৰিছা
[394.765]
<no-speech>
[396.895]
<no-speech>
[397.265]
<no-speech>
[399.495]
অঁ হয়নে হয় নেকি
[401.265]
<no-speech>
[402.875]
<laugh> <int> হাঁ
[405.075]
<no-speech>
[408.465]
অঁ অঁ
[409.215]
<no-speech>
[415.405]
ওঁ হুঁ হু হু
[416.175]
<no-speech>
[418.405]
<no-speech>
[419.315]
<no-speech>
[422.375]
ওঁ হুঁ
[423.185]
<no-speech>
[425.585]
<no-speech>
[425.825]
(())
[428.240]
