[0.000]
<no-speech>
[6.535]
অঁ <int>
[7.245]
<no-speech>
[9.685]
হেল্লো <int>
[10.325]
<no-speech>
[12.545]
<sta> অঁ দিয়া কওঁক (()) আপোনালোকৰ হেৰিতো
[15.705]
<no-speech>
[18.515]
<sta> অঁ অঁ অঁ
[19.905]
<no-speech>
[23.695]
<sta> অঁ অঁ (()) ঘৰত হৈছে নেকি
[26.595]
<no-speech>
[27.835]
(())
[28.265]
<no-speech>
[30.045]
<sta> এক দিনৰ কাৰণে
[31.325]
<no-speech>
[33.275]
<sta> আমাৰ তাতেতো ল'ব পাৰিলে হয় <laugh>
[36.845]
<no-speech>
[38.845]
<sta> অঁ আমাৰ দেখোন (()) খালি আছে ইয়াতেই ল'ব পাৰিলে হয় ওচৰতে
[42.395]
<no-speech>
[43.665]
(())
[44.135]
<no-speech>
[45.995]
<int> ভাত তাত খায় গৈছেনে <int>
[47.685]
<no-speech>
[50.435]
দুপৰীয়া খোৱা নাই <int>
[51.455]
<no-speech>
[54.885]
<sta> এ নাই মীনা নাই দিয়ক সময় নিমিলে যাবা
[57.725]
<no-speech>
[58.755]
<sta> মই এতিয়া ওলাই যাম তাৰমানে এই
[61.405]
<no-speech>
[67.025]
কোন কোন *গৈছে* আপোনালোক
[68.195]
<no-speech>
[72.265]
অঁ অঁ <int>
[73.225]
<no-speech>
[74.585]
(())
[75.015]
<no-speech>
[76.015]
<sta> অঁ অঁ অঁ মইনাহঁত মাকও আছেনে ইয়াতে (())
[79.215]
<no-speech>
[80.665]
<no-speech>
[81.235]
<no-speech>
[82.625]
<sta> অঁ মইনাহঁতক মইনাহঁতে চবেই যাব পাৰে তাৰমানে (())
[89.145]
<no-speech>
[90.465]
(())
[92.645]
<no-speech>
[94.595]
<int> হাঁ
[95.235]
<no-speech>
[97.055]
<sta> কি কৈছে
[97.845]
<no-speech>
[99.455]
অঁ ভাত খালো ভাত খায় আজৰি হৈছো ৰ'ব বাকী কাম চব হ'লেই আৰু <no-speech> হাঁ
[104.825]
<no-speech>
[105.825]
<sta> অঁ (()) এই মা- হেৰি (()) হোমিওৰ যে ক্ৰীম আনিছিল
[110.775]
<no-speech>
[111.595]
<sta> তাইৰ শে- শে- শেষ হৈছে তাই তাইৰ আৰু মুখখন ভাল হৈছিল আৰু মই কৈছো তাই আৰু কিবা বেলেগ ঘঁহা <click> কৰি দিবনে সেইকাৰণে মই (()) সেই ক্ৰীমটোৱে আৰু লৈ আহোঁ যায় পেলাই
[119.215]
<no-speech>
[120.475]
<sta> (()) সেইদিনাখনে কিবা মচলা আনোতে একে একে মচলা আহিছে সেইখিনিও সলাই লৈ আহোঁ (()) তাৰপৰাই আনিছে
[127.405]
<no-speech>
[128.975]
(())
[129.485]
<no-speech>
[130.545]
<sta> আজিও ধানো ৰাতিপুৱা আহিছে আহি পেলাই দেখোন সেই ৰূপাৰ তাৰপৰা দুইযোৰ কাপোৰ লৈ গৈছে আৰু (())
[136.985]
<no-speech>
[138.235]
<sta> অঁ (()) অঁ আজি (())
[142.695]
<no-speech>
[145.765]
(())
[146.705]
<no-speech>
[149.335]
<sta> এক দিন যাম দিয়কচোন চাব (())
[153.235]
<no-speech>
[155.845]
অঁ <int>
[156.605]
<no-speech>
[161.165]
<sta> ওঁ ওঁ
[161.925]
<no-speech>
[162.995]
অঁ অঁ <int>
[164.005]
<no-speech>
[167.575]
<sta> অঁ (()) কাপোৰ নিব (()) ৰ হেৰি <hes> পমিলাই বোলে খুড়ীক বোলে কৈছে বোলে কিবা খোৱা বস্তু যদি বনাই দিয়ে যদি খুড়ী দিব সিহঁতৰ বোলে তে আমাৰ পাঁচ তাৰিখৰ পৰা খোৱা হ'ব বোলে খোৱাৰ এবিলাকৰ দিব
[184.535]
<no-speech>
[186.075]
(())
[188.595]
<no-speech>
[191.575]
<sta> অঁ সেয়াতো তিনি দিন নে চাৰি দিন কিবা খোৱা হেৰি আৰু (()) বনাই দিলো দিয়ক পইছাখিনি পামনে এনেই যাব
[199.825]
<no-speech>
[200.795]
<sta> হয়নে
[201.405]
<no-speech>
[202.855]
এনেই যাব তেল পিঠা চেলপিঠা এনে দিব পাৰিলো হয় কিন্তু লগে লগে পিছা দিবনে কোনোবাই কোনেও নিদিয়ে কৰি লাভ নাই
[208.835]
<no-speech>
[214.005]
<sta> দিয়া নাই যাম দিয়ক কালি কালি নহয় দিয়ক পৰহি দিনা যাম দিয়কচোন ৰূপৰ তাত
[218.935]
<no-speech>
[223.155]
<sta> সোধাই নাই মই ৰূপ
[225.215]
<no-speech>
[226.905]
<sta> (()) অঁ লৈ আহিব নহ'লে
[231.245]
<no-speech>
[232.295]
<sta> আজি নহ'লে (()) যাব সময়ে নহয় নহ'লে আপুনি লৈ যাব চান্দমাৰীৰ *দোকানলৈকে* তাকে
[238.045]
<no-speech>
[241.095]
এ তাইক মাতি <sta> আনিলে তাইৰ কাৰ্ডখনে দি সোমাব পৰা যাব ৰূপাক মাতি আনি বাহিৰত
[245.295]
<no-speech>
[247.515]
<sta> অঁ তাইক ফোন কৰি দিলে তাই ওলাই আহিব নহয় কাৰ্ড লৈ তেতিয়া সোমায় যাব পৰা যাব
[251.815]
<no-speech>
[252.875]
<no-speech>
[253.335]
<no-speech>
[256.705]
<sta> হাঁ
[257.265]
<no-speech>
[260.055]
<sta> কাৰ লগত কথা কৈ আছা <laugh> (())
[264.025]
<no-speech>
[267.795]
<int> অঁ অঁ <int>
[268.965]
<no-speech>
[273.255]
অঁ <int>
[273.825]
<no-speech>
[275.905]
<sta> অঁ মই মাহীক কৈছো মাইনু যোৱাগে সৰু মায়েৰৰ লগত যোৱা যায় পেলাই দিনতো (()) সৰুমাইক কবা কি এশ টকা হাজিৰা দিবা সৰুমাই (()) <laugh> সঁচাকে দিবনে সৰুমাই
[287.005]
<sta> <laugh> এনেই (()) আছে হু
[291.625]
<no-speech>
[292.775]
কি <int>
[293.205]
<no-speech>
[294.525]
ময়ো যোৱাই নাই ৰ'ব শুধাই নাই তাইক আজি ৰাতিপুৱা শুধাই নাই আছে গোটেইকেইটাই আছে বহুত ডাঙৰকে দিছে বোলে নহয় ইহঁতে
[303.635]
<no-speech>
[304.625]
(())
[306.195]
<no-speech>
[307.195]
<sta> দুখন দিছে বোলে দুখন দিছে অঁ (()) আমিতো খায়েই দিব পাৰিলোহেঁতেন এ পৰঠা চৰঠা
[319.055]
<no-speech>
[319.205]
<no-speech>
[320.495]
(())
[321.065]
<no-speech>
[322.795]
(())
[326.025]
<no-speech>
[327.955]
<sta> তাকেই কোৱা
[329.115]
<no-speech>
[331.125]
<sta> অঁ সেয়ে হৈছে
[332.135]
<no-speech>
[334.155]
<sta> (()) নাই ওলোৱা নাই এই মই *লাকিহতৰ* তাতে নামি আহিছো ৰ'ব (()) ওলোৱা নাই (()) নামি আহিছো
[342.695]
<no-speech>
[343.825]
<sta> (()) এই বান্দৰে একদম গোটেই বুলি থেৰ টিঙত গোটেই দিদি তিল টিলাই দৌৰি আছে
[348.455]
<no-speech>
[351.715]
<sta> ওঁ (()) ঘৰতে আছে
[354.365]
<no-speech>
[363.145]
অঁ <int>
[363.725]
<no-speech>
[365.935]
অঁ <int>
[366.445]
<no-speech>
[368.185]
<sta> (()) কামতে বোলে যায় আমি ক'ত (())
[373.065]
<no-speech>
[374.295]
<int> হাঁ <int>
[375.305]
<no-speech>
[376.595]
<sta> কি
[377.075]
<no-speech>
[379.205]
<sta> (()) কালিয়েই আহিছে কালি খুড়াই কৈছে <no-speech>
[385.235]
<sta> পৰহি আহিছে সি দেখোন কালি ফোন কৰোতে কৈছে বেলতলাতে থকা বুলি কৈছে হাঁ
[389.585]
<no-speech>
[390.765]
(())
[391.225]
<no-speech>
[393.255]
(()) আজিকালি যাব নোৱাৰো পৰহি যাম দিয়ক দুয়ো
[395.755]
<no-speech>
[397.225]
<sta> হয়নে
[397.845]
<no-speech>
[406.825]
ওঁ <int>
[407.515]
<no-speech>
[408.385]
<sta> (()) বোলে আজি যাম ঊষা মই হেৰিতে আছো <hes> ইয়াতে আছো আমি এনেকে কৈছে (()) মাতিম নেকি কালি
[420.245]
(())
[422.865]
<no-speech>
[425.435]
<sta> থৈ গৈছে
[426.325]
<no-speech>
[428.085]
<sta> পালে
[428.695]
<no-speech>
[430.055]
<sta> পালে পাইছে
[432.605]
<no-speech>
[440.625]
<no-speech>
[441.015]
<no-speech>
[442.695]
<sta> হাঁ
[444.055]
<no-speech>
[448.055]
ওঁ <int>
[448.555]
<no-speech>
[454.795]
<sta> এ কোনোপধ্যেই মাটিখিনি এতিয়া নাযাবি নেকি তেনেকুৱা হৈছে সেই মিছ কলতোৱে কি কয়
[461.035]
<no-speech>
[467.880]
<no-speech>
[474.725]
(())
[478.835]
<no-speech>
[480.105]
(())
[480.705]
<no-speech>
[482.925]
<int> হু
[483.635]
<no-speech>
[484.815]
<sta> ওঁ <click>
[487.095]
<no-speech>
[492.205]
<sta> আপুনি লগ পাইছে বোলে পাঠকনী (()) ফোনৰ ওপৰতে ফোন কৰি আছে এতিয়া ৰ'বই দিয়া নাই আপোনাক কি কয় কি কয় কি কয় খুড়ী
[501.355]
<no-speech>
[505.125]
<sta> ই খালি চাওঁ চাওঁ চাওঁ কে থাকে (())
[507.865]
<no-speech>
[509.715]
খুড়া আছিলেনে <int>
[511.645]
<no-speech>
[514.685]
<no-speech>
[515.035]
<no-speech>
[521.885]
<no-speech>
[522.385]
<no-speech>
[524.855]
<no-speech>
[525.595]
<no-speech>
[526.455]
<int> কি যে কৰিব নহয় মোৰতো গৰম হৈ যায়
[529.695]
<no-speech>
[531.165]
<sta> (()) বোলো মাথাতো গৰম হৈ যোৱা হৈছে
[533.925]
<no-speech>
[534.805]
<sta> ধানো বোলে ধানো বিজু বোলে বিজু মেধি থে বোলে মেধি থে বিজু (()) এঘাৰ *তাৰিখলৈকে* এটা আশা দিছে বাৰু ৰ'বাচোন
[543.335]
<no-speech>
[544.195]
<sta> (()) বিজু
[545.735]
<no-speech>
[547.145]
(())
[547.645]
<no-speech>
[552.845]
<sta> কি
[553.285]
<no-speech>
[554.305]
কি কৈছে
[555.015]
<no-speech>
[561.175]
<no-speech>
[567.335]
ওঁ <int>
[567.945]
<no-speech>
[569.385]
<int> ওঁ <int>
[570.295]
<no-speech>
[571.405]
অঁ (()) টিকিলিৰ মাকে কৈছে
[573.335]
<no-speech>
[574.275]
<sta> টিকিলিৰ মাকে (())
[575.745]
<no-speech>
[577.545]
অঁ অঁ <int>
[578.785]
<no-speech>
[579.815]
অঁ <int>
[580.505]
<no-speech>
[582.335]
<sta> আছে <click> (()) চাব অহা নাই (()) আৰু গিৰিয়েকে
[585.765]
<no-speech>
[586.985]
<sta> (()) আহি আছে বাৰে বাৰে
[589.205]
<no-speech>
[590.135]
<sta> (()) বিজুৰ আপীয়ে গিৰিয়েকে আমাক চাব আহি থকা নাই
[595.685]
<no-speech>
[596.745]
(())
[599.085]
<no-speech>
[599.680]
