[0.000]
<no-speech>
[0.585]
<no-speech>
[0.945]
<no-speech>
[2.415]
<no-speech>
[3.145]
<no-speech>
[5.545]
এই
[6.645]
<no-speech>
[8.745]
ক
[9.485]
<no-speech>
[10.425]
<no-speech>
[10.845]
<no-speech>
[12.335]
ভাবিছো কোন ছোবালী হয় এইজনী
[14.075]
<no-speech>
[20.975]
কেতিয়া
[21.805]
<no-speech>
[22.645]
<no-speech>
[23.015]
<no-speech>
[26.425]
কাৰ
[27.075]
<no-speech>
[29.235]
কি কি বস্তু <int> খোৱা বস্তু
[34.385]
<no-speech>
[36.595]
হয় বা মোৰ কাৰণে আনিবি
[38.455]
<no-speech>
[39.785]
ঐ তই ইয়াতে আহ তই আহ যদি এটা কাম কৰিবিচোন তহঁতৰ দেউতাই মানে আমাৰ দেউতাক এটা গড দিছিল সেই গডটো লৈ আহিবিচোন
[49.535]
<no-speech>
[50.785]
দে দেউতা <no-speech>
[53.545]
দেউতায়ে দিছিলে দেউতাই আনিব পাহৰি থাকিলে তহঁতৰ <int> দেউতাই কৈছিলে মানে যাওঁতে পাহৰি যাব আপুনি ভৰাই ৰাখক বুলি কৈছিলে পলিথিনত দেউতাই কৈছিলে হ'ব আৰু মই লৈ যাম দিয়ক মনত
[65.495]
থাকিব বুলি কওতে কওতে থাকিয়ে আহিলে বোলে
[68.795]
<no-speech>
[72.375]
আৰু কোননো আৰু বেলেগ কোনোবা আহিব নেকি
[74.575]
<no-speech>
[79.375]
অঁ
[79.925]
<no-speech>
[83.275]
অঁ
[83.975]
<no-speech>
[90.145]
অঁ অঁ
[91.145]
<no-speech>
[92.925]
অঁ <no-speech> আৰু ৰেকৰ্ডিং চিষ্টেম এইতো কি হৈ আছে তাৰমানে
[98.835]
<no-speech>
[105.725]
অ'কে
[107.405]
<no-speech>
[110.465]
এইতো কি মই এনেই কিতাপ চাই আছিলো ৰৈ
[114.385]
<no-speech>
[115.415]
কিতাপ পঢ়ি আছিলো অঁ
[118.255]
<no-speech>
[121.135]
ক'ত ঊনত্ৰিশ তাৰিখে পৰীহ্মা দেখোন <hes> এইকেইদিন পঢ়াই নাই মই
[126.145]
<no-speech>
[128.235]
আলহীয়ে আলহী <no-speech> কালি আহিছিল নহয় তহঁতৰ এই মৃণাল
[134.185]
<no-speech>
[137.525]
হয়
[138.235]
<no-speech>
[140.505]
এ আহিয়েই থাকে দে তই জানি দেখোন তই থাকোতে আহিয়েই থাকে
[144.475]
<no-speech>
[148.025]
কালি দেউতাহঁতৰ প্লেটোনৰ মানোহ বিলাক আহিছিলে
[151.325]
<no-speech>
[152.345]
অঁ নহয়ে প্লেটোনৰ
[156.015]
<no-speech>
[158.585]
মৃণালো আহিছিল কালি গৈছিল নেকি তহঁতৰ ঘৰত ৰাতি
[161.095]
<no-speech>
[163.645]
হাঁ
[164.235]
<no-speech>
[166.865]
অঁ
[168.105]
<no-speech>
[171.105]
এইতো কাৰ পইছাটো কাৰ গৈ আছে
[173.115]
<no-speech>
[179.595]
অঁ ফ্ৰি
[181.025]
<no-speech>
[182.935]
অঁ
[184.615]
<no-speech>
[185.825]
<laugh> এইতো বেলেগ কষ্ট এফিচিয়েন্ট চোন একেবাৰে হাঁ
[190.755]
<no-speech>
[192.705]
গম পাইছো
[193.805]
<no-speech>
[195.335]
আৰ পিছা পালিনে
[198.445]
<no-speech>
[203.375]
পিছা চাইছা পালিনে
[204.725]
<no-speech>
[208.425]
আৰু সেই যে পইছাটো
[210.225]
<no-speech>
[213.585]
আঁ সেইটোও নিদিবি নেকি
[215.095]
<no-speech>
[222.535]
অঁ
[223.205]
<no-speech>
[227.755]
অঁ
[228.185]
<no-speech>
[230.635]
ওঁ
[231.305]
<no-speech>
[236.395]
আঁ
[237.645]
<no-speech>
[245.515]
অঁ সিহঁতৰ বিজনেছ কেনেকুৱা চলিছে
[247.525]
<no-speech>
[249.615]
এই জুৰী আৰু এই ভনীৰ
[251.845]
<no-speech>
[259.795]
আৰু হেৰি কষ্টলী প্ৰডাক্টহে উঠাইছে ছালে তাই হেৰি মুনুবে
[263.465]
<no-speech>
[267.605]
অঁ
[268.745]
<no-speech>
[272.435]
অঁ
[273.255]
<no-speech>
[275.005]
(()) হেৰি নকৰে
[276.805]
<no-speech>
[278.655]
ঐ ঐ
[279.485]
<no-speech>
[280.975]
দশ মিনিট হোৱাৰ পাচত কাটি যাব নেকি নিজে নিজে
[283.495]
<no-speech>
[290.615]
<laugh> তামাম দেখোন
[293.265]
<no-speech>
[295.055]
তাকে আৰু ৰেকৰ্ডিং হৈ থকা বুলি কৈছিলি দেখোন ৰেকৰ্ডিং সঁচায়ে হৈ আছে নেকি
[299.075]
<no-speech>
[303.075]
হ হ
[304.505]
<no-speech>
[305.935]
আঁ
[306.605]
<no-speech>
[309.215]
আছে পিতাজী
[310.555]
<no-speech>
[314.665]
পিতাজী এনেই এনেই আছে
[316.845]
<no-speech>
[321.115]
কাৰ মোৰ
[322.045]
<no-speech>
[323.305]
দম আছে
[324.255]
<no-speech>
[326.825]
মোক দিব দম নাই গম পালি
[330.665]
<no-speech>
[332.135]
ওঁ
[333.015]
<no-speech>
[334.915]
তাহাতে ফেঞ্চি বজাৰ যাম বুলি ওলাইছিলে কিন্তু ফেন্সিবজাৰটো বন্ধ আজি দেওবাৰ
[339.455]
<no-speech>
[341.895]
এই <cough> কিবা কিবি আনিব দিম বুলি ভাবিছিলো <cough>
[347.865]
<no-speech>
[349.525]
এ কাপোৰ কানি নহয় অঁ চিচাৰ গিলাছ গোটেই ভাঙি ভাঙি শেষ হৈছে সেইবিলাক আনিব দিলো হয়
[354.235]
<no-speech>
[357.065]
<no-speech>
[357.415]
<no-speech>
[358.955]
এতিয়া সোমাইছে আজি সোমাব পাৰিছে এইকেইদিন ময়ে বনাই আছিলো <no-speech>
[365.385]
আঁ সেইকাৰণে আজি গা চা ধুলে আৰু চাফা হ'ল
[369.565]
<no-speech>
[370.725]
নাই
[371.285]
<no-speech>
[372.655]
অঁ আহিছিলে মানে ভাবিছিলো আমি তহঁতৰ ঘৰত যাম আবেলি সময়ত মাক ফোন কৰিলো <int> মায়ে কৈছে হ'ব বুলি ক'লে তাইকো ফোন কৰি ল বুলি কৈছে <int>
[383.975]
<no-speech>
[386.685]
তই নাই যেতিয়া আৰু মই কি কৰিম গৈ আৰু সিও বেয়া পাব নহয় <dtmf>
[393.185]
<no-speech>
[395.855]
সেইটোও হয় হয় তথাপিতো আৰু
[398.955]
<no-speech>
[400.705]
অঁ একো নহয় তই থাকোতে গ'লে বেছি ভাল লাগিব নহয় সেইকাৰণে তই থাকিলে যাব আৰু দে
[406.885]
<no-speech>
[409.835]
<hes> হয়দে আলহী আহিছে তহঁতৰ ঘৰত আলহী আহিছে নেকি তহঁতৰ ঘৰত
[418.185]
<no-speech>
[423.805]
অঁ
[424.645]
<no-speech>
[427.005]
ওঁ
[427.905]
<no-speech>
[431.775]
অঁ
[433.705]
<no-speech>
[437.265]
অঁ সেইয়া মাহী গাবঁৰ
[438.855]
<no-speech>
[442.245]
অঁ অঁ
[443.175]
<no-speech>
[445.615]
<no-speech>
[446.375]
<no-speech>
[448.975]
হেঁ
[450.905]
<no-speech>
[454.325]
এই যাম দে যাম তিনি তাৰিখৰ পিছত যাম দে তিনি তাৰিখৰ পিছত মোৰ তিনি তাৰিখে শেষ হৈ যাব
[463.485]
<no-speech>
[467.025]
অঁ
[467.535]
<no-speech>
[469.005]
অঁ
[470.125]
<no-speech>
[473.095]
অঁ
[473.885]
<no-speech>
[474.965]
ভাত ছাত হ'ল নেকি
[477.265]
<no-speech>
[481.535]
<laugh> অঁ চিনি পোৱাৰ কাৰণে একদম তামাম কথা পাতিছ অঁ হুঁ
[489.475]
<no-speech>
[490.755]
কি
[491.355]
<no-speech>
[494.045]
অঁ লাওঁ লাওঁ
[495.375]
<no-speech>
[497.165]
গম পাইছো <no-speech> মই গমেই পায় গ'লো দে
[500.335]
<no-speech>
[502.045]
<no-speech>
[503.935]
<no-speech>
[506.095]
<no-speech>
[507.155]
<no-speech>
[508.605]
ওঁ
[509.465]
<no-speech>
[514.035]
এই কৰা তিনি দিন আজি সৈতে মানে তোৰ কৰাই নাছিলো অলপ আগৰপৰা চুৰু কৰিছো কিতাপ চোবাটো
[521.985]
<no-speech>
[523.025]
একেৰাহে হেৰি কৰি থাকিলেও ভাল নালাগে
[525.835]
<no-speech>
[526.815]
চাই থাকিলেও ভাল নালাগে <laugh>
[531.155]
<no-speech>
[533.125]
এই লাগি আছে হাৰামীটো
[534.975]
<no-speech>
[537.345]
ভাইটিয়ে
[538.105]
<no-speech>
[541.675]
আজি আমাৰ ভাইটিৰ হেপি বাৰ্থডে নহয়
[545.645]
<no-speech>
[546.565]
অঁ আমাৰ ভাইটি আজি বুঢ়া হৈ গ'ল আৰু এক বছৰ
[549.905]
<no-speech>
[551.585]
ওঁহো
[552.145]
<no-speech>
[554.225]
এই ই মই কৈ আছো গধূলিকে চিংৰা চাওঁ চাওঁ এইবিলাক কিবা কিবি আনিবি <int> (()) এইয়া (()) সুধি আছে
[562.145]
<no-speech>
[564.335]
নানে বোলে আনিবিনে ভাইটি <int>
[567.815]
<no-speech>
[568.885]
<no-speech>
[569.365]
<no-speech>
[570.235]
নানে নানে এইবিলাকে বেলেগকহে খুৱাব
[572.885]
<no-speech>
[575.325]
ওঁ এনেকাই ঘৰৰ মানোহ
[578.005]
<no-speech>
[579.745]
এনেকাই ঘৰৰ মানোহ বিলাক
[581.075]
<no-speech>
[582.005]
<no-speech>
[582.485]
<no-speech>
[587.275]
ওঁ
[589.725]
<no-speech>
[590.665]
<no-speech>
[591.055]
<no-speech>
[594.545]
ওঁ
[595.205]
<no-speech>
[597.995]
<no-speech>
[599.535]
<no-speech>
[599.620]
