[0.000]
<no-speech>
[1.385]
<int> হেল্লো
[1.895]
<no-speech>
[3.275]
হেল্লো <int>
[3.845]
<no-speech>
[5.005]
<sta> অঁ কওঁক হাঁ
[7.485]
<no-speech>
[9.915]
<int> খবৰ ভাল দিয়া <int>
[11.095]
<no-speech>
[15.575]
<int> হাঁ হাঁ
[16.225]
<no-speech>
[18.025]
<no-speech>
[18.395]
<no-speech>
[19.905]
হেল্লো <int>
[20.565]
<no-speech>
[23.745]
অঁ ফোন <int> ফোন মানে নাই মই সময় পোৱা নাই ফোন কৰিবলৈ এই ডিউটিত থাকো যে কেতিয়াবা টাইমেই নাপাওঁ <int>
[29.655]
<no-speech>
[33.425]
অঁ <int>
[34.715]
<no-speech>
[37.475]
অঁ হয় হয় ল'ম দিয়ক মাজে মাজে ল'ম দিয়ক <int> আপোনাৰ খবৰ ভাল আপোনাৰ (())
[42.105]
<no-speech>
[45.685]
হয় নেকি <int>
[46.415]
<no-speech>
[47.405]
<no-speech>
[47.775]
<no-speech>
[49.505]
মই ঘৰৰ পৰা আজি আহিছো <int>
[52.265]
<no-speech>
[53.085]
আপুনি এক ছেকেণ্ড এক <hes> ৰ'ব নেকি এক ছেকেণ্ড <int>
[57.005]
<no-speech>
[60.175]
<no-speech>
[60.935]
<no-speech>
[71.555]
<int> হেল্লো
[72.655]
<no-speech>
[74.045]
<int> অঁ হেল্লো হাঁ অঁ অঁ শুনি আছো
[78.265]
<no-speech>
[83.135]
<sta> অঁ অঁ অঁ কৰিম দিয়ক এই ডিউটিত থাকিলে অলপ প্ৰবলেম হয় ডিউটিত এনে ফ্ৰি টাইমত কৰিব পাৰো
[90.125]
<no-speech>
[91.285]
<int> আপুনি ক'ত আছে এতিয়া <int>
[92.595]
<no-speech>
[93.925]
<int> অঁ <int>
[94.795]
<no-speech>
[98.575]
হাঁ <int>
[99.085]
<no-speech>
[99.975]
নাই নাই নাই গ'লেই এই অঁ ঘৰত এখন শ্ৰাদ্ধ আছিলে তাৰ কাৰণে গুছি গ'লো ঘৰত
[104.845]
<no-speech>
[108.015]
<int> হাঁ
[108.665]
<no-speech>
[111.225]
অঁ নাই নাই মই বিয়া পাতা নাই দেই <int>
[114.655]
<no-speech>
[117.355]
অঁ আছে আছে আছে <laugh> <int>
[119.425]
<no-speech>
[121.635]
অঁ হয় নহয় সেই বুলি নধৰো মা দেউতা <laugh>
[125.125]
<no-speech>
[130.925]
অঁ হয় নেকি নহয় আমি মোৰ আমি এনেকুৱা নাভাবো আৰু ধেমালি কৰি বুলি আমি আৰু <int> হেৰি বেলেগ বুলি কোৱা <laugh> <int>
[141.665]
<no-speech>
[144.685]
অঁ ডাইৰেক্ট ডাইৰেক্ট ওৱাই ফাই ওৱাই ফাই কোৱা যেন পাওঁ <int>
[148.855]
<no-speech>
[154.905]
অঁ নহয় নহয় তুমিতো বুলি ক'লে মানে তোক কোৱা যেন পাওঁ
[158.785]
<no-speech>
[160.175]
<sta> হাঁ
[163.075]
<no-speech>
[166.385]
অঁ ধৰি আছে <int> মুটামুটি মোৰ কিছুমান মোৰ কিছুমান কাম বাকী আছে কামখিনি হ'লে আৰু কৰিম বুলি ভাবিছো
[174.225]
<no-speech>
[177.615]
<int> নহয় নহয় পাতালত নহয় মোৰ ঘৰ মীৰ্জাত
[180.275]
<no-speech>
[182.735]
<int> অঁ অঁ
[183.425]
<no-speech>
[185.705]
নাই মই কুৱাটাৰতে ৰাখো <int> হয়নে কুৱাটাৰতে ৰাখো <int> হুঁ
[191.595]
<no-speech>
[196.585]
হাঁ <int>
[197.065]
<no-speech>
[198.355]
হাঁ <int>
[198.885]
<no-speech>
[202.525]
<int> হেল্লো
[203.185]
<no-speech>
[210.105]
অ'ভাৰ দিব নালাগে <int>
[211.515]
<no-speech>
[212.695]
অঁ ভাড়া ভাড়া দিব ভাৰ দিব নালাগে <int>
[215.735]
<no-speech>
[218.365]
ওঁ <int> বাকী আপোনাৰ আপোনাৰ ঘৰ ক'ত আছিলনো হেল্লো <int> হেল্লো
[227.235]
<no-speech>
[231.015]
<int> হেল্লো
[231.615]
<no-speech>
[233.055]
হেল্লো <int>
[233.705]
<no-speech>
[236.425]
অঁ নলবাৰী নলবাৰী কোন জাগা <int>
[238.405]
<no-speech>
[243.975]
অঁ অঁ বৰমা জানো <int> অঁ হয় নেকি <int>
[248.945]
<no-speech>
[250.205]
<sta> আচ্ছা <no-speech> ৰাস্তাত
[254.585]
<no-speech>
[259.175]
অঁ <int>
[259.685]
<no-speech>
[261.015]
কি ভাড়া ভাড়া ঘৰৰ <int>
[262.175]
<no-speech>
[265.025]
ভাৰ ঘৰৰ (())
[265.865]
<no-speech>
[267.785]
অঁ <int>
[268.405]
<no-speech>
[269.465]
<no-speech>
[269.815]
<no-speech>
[271.175]
<int> বাকী খবৰ পাতিতো ভালেই <int>
[272.755]
<no-speech>
[276.445]
হেল্লো <int>
[276.915]
<no-speech>
[278.905]
হেল্লো <int>
[279.545]
<no-speech>
[280.615]
অঁ আপোনাৰ কথা ব্যস্ত <int> আছে নেকি আপুনি <int>
[283.065]
<no-speech>
[285.955]
আপুনি ব্যস্ত আছে নেকি কৰবাত <int>
[287.615]
<no-speech>
[293.395]
অঁ <int>
[294.085]
<no-speech>
[295.825]
<int> অঁ <int>
[296.535]
<no-speech>
[298.335]
আচ্ছা <int>
[299.055]
<no-speech>
[301.535]
মই এই মই ই আচাম এই ৰ্টিবিউনৰ ওচৰতে ৰৈ আছো <sta>
[306.445]
<no-speech>
[308.225]
অঁ <int>
[308.935]
<no-speech>
[314.145]
হাঁ হাঁ <int>
[314.805]
<no-speech>
[316.495]
<sta> তাত মানে গাড়ী আছিলে ৰাস্তাত তাত মানে গাড়ীখন চাইট কৰিব দেখোলো মই গাড়ীখন দি তাৰ কাৰণে আহিছিলো ইয়াতে
[326.105]
<no-speech>
[328.495]
ওঁ <int>
[329.755]
<no-speech>
[334.785]
<no-speech>
[335.225]
<no-speech>
[336.125]
ঠিকে আছে <int>
[337.045]
<no-speech>
[342.495]
<no-speech>
[342.855]
<no-speech>
[344.885]
অঁ মই ডিউটি আছো এতিয়া <sta>
[349.415]
<no-speech>
[350.345]
<int> হাঁ
[350.875]
<no-speech>
[354.085]
অঁ কেতিয়ামানে অই ডিউটিয়ে মোৰ চৌব্বিশ ঘন্টা থাকে <int>
[358.855]
<no-speech>
[360.595]
অঁ <sta> টুওৱানটি ফ'ৰ আৱাৰচ চিচটাম আছে আমাৰ হাঁ
[365.005]
<no-speech>
[367.315]
অঁ মানে আমাৰ এনে ডিউটি নাই আৰু লাগিলে আমাৰ যাব লাগে দৌৰি <no-speech> চব জাগাতে মাতি থাকে আৰু এনে হাঁ <int>
[376.885]
<no-speech>
[377.915]
<sta> মানে নামাতিলে আমাৰ ডিউটি নাই আৰু ঘূৰি থাক ক'ব কৰবাত লাগিলে নহয় তেতিয়া আৰু ডিউটি লাগা হৈ যায় কৰবাত গাড়ী একচিডেন্ট হ'লে বা যদি কৰবাত ধৰ ন পাৰ্কিঙত গাড়ী থাকে
[388.805]
<sta> এনেকুৱাই (()) হাঁ ক'ত অঁ চান্দমাৰী খানাত
[396.425]
<no-speech>
[403.255]
অঁ আচ্ছা ঠিক আছে মিছ কল কৰিলে হ'ল <int>
[405.025]
<no-speech>
[408.935]
অঁ অঁ <int>
[410.515]
<no-speech>
[411.425]
আচ্ছা কৰিম কৰিম মিছ কল <int>
[412.945]
<no-speech>
[414.225]
বাৰু হেল্প পাব মোৰ তাতে <int>
[415.595]
<no-speech>
[419.335]
মোৰ ভিতৰতে আমাৰ ভাৰতৰে আছে আমাৰ মানে (()) ডাঙৰ ৰুম <int> ডাঙৰ ৰুম এটা আছে
[426.875]
<no-speech>
[428.225]
সেইধৰ একজন দুই জন নহয় বহুত মানুহ বহুত মানুহ থাকে <int>
[431.185]
<no-speech>
[431.985]
<no-speech>
[433.075]
<no-speech>
[434.585]
<int> তাতে বহুত মানুহ থাকে একেলগে থাকো গোটেইবিলাক <int>
[436.935]
<no-speech>
[440.275]
<int> হাঁ
[442.085]
<no-speech>
[444.925]
নাই নাই সৰু দেখোন নাইয়েই সৰুটো ময়েই <int>
[447.985]
<no-speech>
[449.095]
(())
[451.465]
<no-speech>
[454.225]
অঁ নাই নাই বিয়া <int> পাতিলে ইয়াত ৰাখিব নোৱাৰে বিয়া পাতিলেতো ভাড়াঘৰত ৰাখিব লাগিব
[458.195]
<no-speech>
[462.415]
কোৱাটাৰ <int> নাই কোৱাটাৰত ক'ত ৰাখিম আৰু নিজৰ ভাড়া অলপ মাৰো
[466.905]
<no-speech>
[467.905]
ভাৰতো পায় যাম চৰকাৰৰ পৰা <int>
[469.545]
<no-speech>
[473.305]
<int> অঁ
[474.055]
<no-speech>
[475.155]
(()) <sta> অঁ
[478.185]
<no-speech>
[483.635]
<no-speech>
[484.085]
<no-speech>
[485.205]
অঁ মানে (()) ৰাস্তাত আছো যে গাড়ী গাড়ীৰ মাত
[488.475]
<no-speech>
[491.295]
ওঁ <int>
[492.115]
<no-speech>
[495.005]
মই <int> অলপ দুমাহমান পিছত যাম আৰু
[497.725]
<no-speech>
[501.465]
অঁ দুমাহমান দুমাহ মান পিছত যাম <int>
[504.505]
<no-speech>
[508.025]
নাই নাই <int> নাই নাই হোৱা নাই <int>
[510.095]
<no-speech>
[512.225]
নাই নাই অঁ ঠিকে আছে এই এনেই পেটৰ চেটৰ হৈ থাকে এইতো আৰুতো <hes> বেছি ইমান ডাঙৰ নহয়
[520.005]
<no-speech>
[521.355]
অঁপেচাৰ হৈ থাকে আৰু মাজে মাজে পেচাৰটো উঠি থাকেচেক কৰি থাকো <int>
[525.195]
<no-speech>
[527.965]
এ ল প্ৰেচাৰো হয় কেতিয়াবা আৰু <int> খাওঁতে খাওঁতে বেছি হৈ যায় <int>
[531.865]
<no-speech>
[533.515]
<sta> অঁ
[534.975]
<no-speech>
[538.905]
ওঁ <int>
[539.305]
<no-speech>
[540.875]
অঁ <int>
[542.365]
<no-speech>
[544.945]
অঁ <int> অঁ হ <int>
[547.065]
<no-speech>
[551.195]
অঁ হয় <int> হয় হয় <int>
[552.895]
<no-speech>
[555.655]
অঁ <int>
[556.325]
<no-speech>
[560.955]
হয় দিয়ক (()) হয়দে <int>
[564.415]
<no-speech>
[565.605]
(())
[566.095]
<no-speech>
[568.195]
(())
[569.335]
<no-speech>
[570.285]
অঁ এনেকুৱা <int> চলিব নোৱাৰা হৈ গৈছে আৰু গুৱাহাটীত
[573.045]
<no-speech>
[576.945]
হেই চববিলাক লাগে <int>
[578.585]
<no-speech>
[580.875]
<no-speech>
[581.265]
<no-speech>
[583.375]
<int> হাঁ
[584.475]
<no-speech>
[586.315]
<int> অঁ অঁ
[586.895]
<no-speech>
[587.765]
<int> অঁ
[589.005]
<no-speech>
[589.885]
হাঁ <int>
[591.765]
<no-speech>
[595.565]
নাই নাই নিজৰ গৰু <int>
[596.995]
<no-speech>
[599.285]
<no-speech>
[599.605]
<no-speech>
[599.860]
