[0.000]
<no-speech>
[0.345]
<no-speech>
[1.225]
<no-speech>
[2.165]
<sta> হেল্লো <sta>
[9.115]
<no-speech>
[10.105]
অঁ <no-speech> হুঁ <sta> <no-speech> অঁ কোৱা <no-speech> হে <no-speech> অঁ বাহিৰত আহিছো এতিয়া
[20.195]
<no-speech>
[23.085]
হুঁ <int>
[23.595]
<no-speech>
[26.255]
খবৰ আছো দিয়া <sta>
[28.035]
<no-speech>
[31.715]
আছো দিয়া তোমাৰ কি খবৰ <int>
[33.325]
<no-speech>
[37.295]
<sta> অঁ তেনে মোৰো খবৰ দেখিছাই তুমি
[39.605]
<no-speech>
[41.725]
হয়নে <int>
[42.315]
<no-speech>
[46.135]
মানে <int>
[46.785]
<no-speech>
[47.645]
<int> কোনটো প্ৰবলেম
[48.595]
<no-speech>
[52.155]
<int> হাঁ হাঁ হাঁ
[53.145]
<no-speech>
[55.375]
অঁ মাটিৰ প্ৰব্লেমতো <no-speech> মাটিৰ প্ৰব্লেমতো তোমাৰ কিবা হ'ল মানে যোৱা কালিতো মানে সিহঁতে মাতি কাটিলেই <no-speech> এতিয়া আমাৰ মানুহখিনিয়ে জানো কিবা কৰে <no-speech> গমপোৱা নাই এতিয়ালৈকে
[66.835]
<no-speech>
[68.185]
ৰাতিতো মিটিং খন নহ'ল <no-speech> মানুহ নাহিলেই কোনো
[70.995]
<no-speech>
[73.625]
<sta> এতিয়া কিবা হয় আৰু
[75.085]
<no-speech>
[79.205]
<int> অঁ এতিয়া গমপোৱা নাই আজিতো মই এইপিনে নগ'লোৱে
[81.795]
<no-speech>
[82.795]
কাকো লগো নকৰিলো ন <int>
[84.095]
<no-speech>
[88.275]
<int> ওঁ
[89.095]
<no-speech>
[91.555]
আজি দেখোন মোৰ কম্পিউটাৰ ক্লাচ <no-speech> এ যোৱাকালি হে এডমিশন কৰিলো আজি খতিয়ে হ'ল দেখোন হে
[96.405]
<no-speech>
[98.595]
<int> অঁ
[99.235]
<no-speech>
[102.255]
হেয় নহয় সদায় <sta>
[104.215]
<no-speech>
[105.545]
ওঁ <int>
[106.075]
<no-speech>
[107.095]
<sta> হে
[108.795]
<no-speech>
[110.915]
হেল্লো
[111.475]
<no-speech>
[112.795]
অঁ <no-speech> কি কলা
[114.825]
<no-speech>
[118.465]
<int> কিয়
[119.095]
<no-speech>
[121.545]
<int> অঁ সদায় যাব লাগে <int>
[122.815]
<no-speech>
[123.945]
মানে মই মোৰ চিনাকী যে চিনাকীৰ হেৰিতহে গৈছো যে <no-speech> তাৰমানে হেৰি হিচাপত আৰু টাইম টেবল নাই আৰু যেতিয়ালৈকে থাকো দিনতো থাকি পেলাই শিকো দিনতো থাকিও শিকিব পাৰো
[135.515]
<no-speech>
[137.575]
(())
[138.105]
<no-speech>
[140.075]
অঁ ৰাতিপুৱা আঠটাত শুলে <sta>
[141.735]
<no-speech>
[145.905]
হে <int>
[146.425]
<no-speech>
[150.065]
বাপৰে আঠটা বজাত মই কেনেকৈ যামহে <int>
[152.165]
<no-speech>
[155.075]
<int> আঠটা বজাত যোৱা সম্ভব নহয়
[156.795]
<no-speech>
[158.935]
<sta> ল'ৰা_ছোৱালীক চম্ভালি কিনে (()) আজি আজি চাৰে এঘাৰটাত ওলায় আহিছো ঠিক তেনেকুৱা আৰু
[164.145]
<no-speech>
[166.875]
<int> হুঁ
[167.415]
<no-speech>
[170.665]
অঁ <hes> নহয় গধুলি সাতা লৈকে সিহঁতৰ সেইতো খোলা থাকে দোকানখন
[175.415]
<no-speech>
[177.485]
(())
[178.635]
<no-speech>
[180.615]
সাতটা লৈকেতো থাকিব নোৱাৰো কিন্তু <int>
[182.735]
<no-speech>
[183.555]
দিনতো থাকিব নোৱাৰো মোৰ আৰু কিবা কিবি কাম থাকে নহয় <int>
[186.435]
<no-speech>
[188.755]
<int> হুঁ
[189.265]
<no-speech>
[192.345]
হে <int>
[192.825]
<no-speech>
[194.015]
হে <int>
[194.535]
<no-speech>
[196.465]
হেল্লো <int>
[197.015]
<no-speech>
[199.285]
অঁ <no-speech> কি কাৰোবাৰ লগত কথা পাতিলা নেকি
[201.755]
<no-speech>
[203.965]
<sta> অঁ (()) অঁ
[206.415]
<no-speech>
[207.555]
<int> কৈ থাকা (())
[208.305]
<no-speech>
[211.375]
<int> হে
[211.905]
<no-speech>
[213.255]
তোমাৰ মাততো <no-speech> তোমাৰ মাততো কিয় ফাটি ফাটি আহি আছে <no-speech> ডাবোল ডাবোল ওলাই
[217.155]
<no-speech>
[220.595]
<int> হয় নেকি
[221.465]
<no-speech>
[223.015]
<sta> এইয়া
[225.455]
<no-speech>
[226.765]
<sta> মানে তুমি কোৱাৰ পিছত আকৌ এবাৰ আহি যায়
[230.225]
<no-speech>
[232.255]
অঁ সেইকাৰণে সুধিছো আৰু কাৰোবাৰ লগত কথা পাতিছা নেকি বুলি <int>
[235.265]
<no-speech>
[238.165]
হুঁ <sta>
[239.745]
<no-speech>
[241.665]
<sta> অঁ এতিয়া ঠিকে আছে <sta> <no-speech> হেই বাহিৰত আছো
[248.565]
<no-speech>
[249.985]
ওঁ <no-speech> চোতালত
[251.615]
<no-speech>
[255.305]
ভাত কৰ পৰা খাম <no-speech> ঘৰতটো যোৱা নাই এতিয়াওঁ
[260.055]
<no-speech>
[260.855]
ওঁ <int>
[261.485]
<no-speech>
[263.385]
ভাত খোৱাবানে <int>
[264.315]
<no-speech>
[265.345]
<int> হে
[265.875]
<no-speech>
[267.495]
ভাত খুৱাবা নেকি <int>
[268.665]
<no-speech>
[269.515]
<no-speech>
[269.905]
<no-speech>
[271.995]
হুঁ <int>
[272.535]
<no-speech>
[275.815]
<int> ভাত নোখোৱা নেকি
[276.885]
<no-speech>
[278.865]
<int> ওঁ
[279.405]
<no-speech>
[280.725]
<sta> তেনেহ'লে ক'ত যাম
[281.775]
<no-speech>
[282.845]
<int> হুঁ
[283.335]
<no-speech>
[287.015]
<int> হে হে হে <int>
[287.935]
<no-speech>
[291.705]
<int> অঁ পৰঠা অঁ অঁ
[293.235]
<no-speech>
[296.715]
তুমি কি কৰি আছা এতিয়া <int>
[298.105]
<no-speech>
[300.535]
<sta> এতিয়া কি কৰি আছা ক'ত আছা
[302.215]
<no-speech>
[305.525]
<int> হুঁ
[306.055]
<no-speech>
[306.855]
<no-speech>
[307.205]
<no-speech>
[308.965]
<int> হয় নেকি
[309.785]
<no-speech>
[311.765]
অঁ <no-speech> কোনফালে গ'লা
[313.825]
<no-speech>
[314.795]
<no-speech>
[315.845]
<no-speech>
[319.085]
অঁ অঁ <int>
[320.005]
<no-speech>
[323.155]
<sta> এ কেইটালৈকে থাকিবা ইয়াতে
[325.075]
<no-speech>
[328.115]
<sta> হুঁ
[329.675]
<no-speech>
[332.295]
চটা মান <sta> ওঁ
[335.385]
<no-speech>
[336.345]
<int> হাঁ
[337.205]
<no-speech>
[340.545]
<int> অঁ অঁ অঁ <int>
[341.675]
<no-speech>
[342.815]
<sta> উঠিছে আৰু <no-speech> কেইটালৈকে থাকা
[346.985]
<no-speech>
[347.975]
ঐ <int> ৰুণুমীক ফোন কৰিছিলা নেকি <int>
[349.595]
<no-speech>
[351.945]
<int> নাই কৰা ন
[352.885]
<no-speech>
[354.185]
হে <int>
[354.715]
<no-speech>
[356.245]
অঁ নাই মই তাত গৈছিলো <no-speech> যোৱাকালিয়ে গৈছিলো
[360.015]
<no-speech>
[361.495]
অঁ (()) কেছেটৰ কাৰণে আহিব নোৱাৰে তাৰমানে <int>
[364.055]
<no-speech>
[365.825]
ওঁ <int>
[366.665]
<no-speech>
[368.085]
<sta> হেই কেছেটতো লৈ য'ত পত নে
[370.895]
<no-speech>
[373.355]
পাৰ্ট উঠা নমা <no-speech> থৈ দিয়াচোন সেইকাৰণে মই কলো আৰু নালাগে দিয়া বোলি কলো
[377.515]
<no-speech>
[379.185]
ওঁ <int>
[379.835]
<no-speech>
[381.575]
<sta> মই তুমি ফোন কৰাৰ পিছতে গৈছিলো
[383.585]
<no-speech>
[384.725]
<sta> ওঁ
[386.115]
<no-speech>
[389.105]
হুঁ
[389.625]
<no-speech>
[391.825]
<no-speech>
[392.205]
<no-speech>
[393.105]
ৰাতিপুৱাই তুমি যে ফোন কৰিছিলা <sta> তাৰে পিছতে
[396.125]
<no-speech>
[397.985]
ওঁ <int>
[398.665]
<no-speech>
[400.155]
<sta> গৈ পেলে দেৰি হ'ল দেৰি হওঁতে আকৌ <hes> হাজবেণ্ডে থ'ব গ'ল আকৌ মোক
[404.935]
<no-speech>
[406.015]
<sta> ওঁ
[407.925]
<no-speech>
[410.345]
ৰাতি <no-speech> ৰাতি হৈছিলতো কালি তুমি ফ'ন কৰোতে ৰাতি হোৱা নাছিলে <sta> <no-speech> চাৰে ছয়টা চাৰে ছয়টামান হৈছিলে <sta>
[418.575]
<no-speech>
[420.015]
তাৰপিছতে <no-speech> থ'ব গ'ল আকৌ <no-speech> চম্পাৰ হাজবেণ্ডে <no-speech> ওঁ
[424.945]
<no-speech>
[426.655]
<int> ওঁ
[427.475]
<no-speech>
[428.585]
<sta> তুমি কালি কেইটাত ঘৰ পালা ৰাতি
[430.785]
<no-speech>
[431.605]
<no-speech>
[431.955]
<no-speech>
[436.415]
<sta> হয় নেকি
[437.255]
<no-speech>
[438.065]
<sta> ৰাতি কি ওঁ গাড়ীতো পোৱা নাই বাইকত গৈছানে কি
[441.045]
<no-speech>
[443.035]
<int> অঁ অঁ
[443.835]
<no-speech>
[445.925]
হে হে <sta>
[448.125]
<no-speech>
[450.295]
অঁ অঁ অঁ <sta>
[452.025]
<no-speech>
[455.775]
ওঁ <int>
[456.435]
<no-speech>
[466.865]
অঁ অঁ <no-speech> তুমি এই হেৰি <no-speech> কিবা ক'ব খুজিছিলো <no-speech> ওঁ কালিয়ে যদি মোক হেৰি কৰি কলা হেঁতেন <no-speech> মইতো ৰাতিপুৱা আজি
[477.735]
তাৰমানে কি মোৰ দোধোৰ মোধোৰ লাগি থাকিলে ৰাতিপুৱা হাঁ <no-speech> তুমিতো মানে ৰুমতো সেইপিনে লৈ লোৱা বোলি কলা কালি <no-speech> মন্দিৰ কালি মন্দিৰলৈকে আৰু মানে <no-speech> সইতো চাইড আমাৰ একষ্ট্ৰা
[489.085]
<sta> ফ্লেট হৈ যায় তাৰমানে
[491.005]
<no-speech>
[492.405]
<sta> গম পইছানে
[495.685]
<no-speech>
[496.725]
ওঁ <int>
[497.375]
<no-speech>
[500.435]
হে <no-speech> অঁ <no-speech> তাৰপিছত আকৌ ৰাতিপুৱা যেতিয়া ফ'ন কৰি কলা নবজ্যুতিক মাত বোলি তেতিয়াতো আৰু বেছি
[506.285]
<no-speech>
[507.145]
আৰু লাগি ধৰিলো <no-speech> নবজ্যুতিৰ পৰাতো আৰু দূৰত <no-speech> হয়নে <sta>
[515.245]
<no-speech>
[516.665]
<sta> দশ মিনিট হ'লনে হোৱা নাই হে <no-speech> দশ মিনিট হ'লনে হোৱা নাই
[522.915]
<no-speech>
[525.365]
হে <int>
[526.295]
<no-speech>
[527.325]
হেল্লো <int>
[528.185]
<no-speech>
[529.885]
অঁ <sta>
[531.565]
<no-speech>
[535.435]
<int> হাঁ হাঁ অঁ <int>
[536.785]
<no-speech>
[539.715]
অঁ <sta>
[540.755]
<no-speech>
[544.205]
<sta> টোটেল ওৱান থাওজেন
[547.145]
<no-speech>
[548.235]
<int> একহাজাৰ <int>
[549.475]
<no-speech>
[550.775]
হে <int>
[551.305]
<no-speech>
[557.005]
হে হে হে কি কলা <sta>
[560.385]
<no-speech>
[561.785]
<no-speech>
[562.165]
<no-speech>
[563.285]
<no-speech>
[563.735]
<no-speech>
[564.665]
<no-speech>
[565.115]
<no-speech>
[566.005]
অঁ অঁ অঁ <sta> <no-speech> এতিয়া অকল বেছিকটোতে ল'লো যে
[572.725]
<no-speech>
[574.365]
ওঁ <int>
[575.175]
<no-speech>
[576.055]
তাৰপিছত কৰিব পাৰিম ন <no-speech> টেলিতো
[578.355]
<no-speech>
[581.055]
ওঁ <int>
[581.505]
<no-speech>
[583.085]
<sta> অঁ অঁ ওঁ
[584.205]
<no-speech>
[585.665]
<sta> ওঁ ওঁ
[586.515]
<no-speech>
[588.675]
তাকেতো <no-speech> গম নাপালো ন নাজানিলোৱেই
[590.985]
<no-speech>
[596.155]
ওঁ আছে <int>
[596.985]
<no-speech>
[599.520]
