[0.000]
<no-speech>
[1.035]
<sta> অঁ হেল্লো কি খবৰ
[6.825]
<no-speech>
[11.615]
<sta> এই <click> মনত পৰিল আৰু কি ক'ব আৰু
[14.185]
<no-speech>
[17.555]
এই নক'বা আজি কিন্তু বহুত ব্যাস্তনে <sta> এই খবৰ কওঁকচোন
[21.215]
<no-speech>
[22.355]
<no-speech>
[23.175]
<no-speech>
[24.705]
(()) আপুনি আৰু নকৰে আৰু ময়ো আৰু এনেকে সেই নকৰো আজি কিবা এটা (()) মই বলো চাই আছো কাকলৈ মনত পৰে কাকলৈ মনত পৰে <sta> তাৰপিছত আপোনাৰ নম্বৰতো বোলে এই এখেতক বহুতদিন ফোন কৰা নাই এবাৰ ফোনেই কৰিব লাগিব
[36.685]
<no-speech>
[38.175]
(())
[38.755]
<no-speech>
[43.265]
অঁ ছাগে মই সেই দিনা ফাংশন চাই আছিলো <int> এই জো তিনিআলিত <int>
[47.055]
<no-speech>
[47.905]
<sta> আছিলো এই খবৰ কওঁক আপোনাৰ কি চলি আছে এইবিলাক ক'ত কি
[53.075]
<no-speech>
[55.265]
<no-speech>
[55.775]
<no-speech>
[56.895]
(())
[59.175]
<no-speech>
[61.035]
হাঁ <int>
[61.615]
<no-speech>
[64.545]
এই ডিউটি যে <sta> নক'ব আৰু ডিউটি মানে মাথা গৰম হৈ যায় (()) ৰাতিপুৱাৰপৰা ওলাওঁ ৰাতিপুৱা নটা চাৰে নটা মানত যাওঁ এই <hes> আজি এই মাত্ৰ আহি পাইছো এতিয়া অলপ টিউচন আছে
[76.255]
টিউচন কৰিব লাগিব নকওঁ আৰু পিছা মানে কি নালাগে নালাগে হৈ গৈছে (())
[80.895]
<no-speech>
[84.045]
<hes> ইমান পিছা ইমান বিয়া কৰাব নালাগিব পিছা (()) নালাগিব <sta>
[89.115]
<no-speech>
[91.135]
<sta> লাগিবতো নলগা আৰু (()) কামত দিব নহয় আজি কিয় মোক লাগেঅঁদেউতা আজি কিন্তু মোক দিয়া অঁ পাপা আজি কিয় অমুক নাই
[98.665]
<no-speech>
[103.385]
নাই নাই নাই ইমান ভাবিব পৰা হোৱা নাই বৰ্তমান মানে (()) সৰুৰপৰা অলপমান আৰম্ভ কৰিছো আৰু কিজানি চাওঁ আৰু কি হয় দেখা যাওঁক জীৱনতো তাৰমানে যুদ্ধ কৰোতে যাব দিয়কচোন <sta>
[115.355]
<no-speech>
[115.875]
<no-speech>
[121.245]
নাই অলপমানে কি (()) নাই <sta>
[124.355]
<no-speech>
[126.255]
<sta> নাই ভাব এটা আছিলে চাই আছিলো (()) ধৰিছে না এই অলপ চাওঁ কি কৰিব পৰা যায় বাকী ঘৰৰ ফালে কেনেকুৱা
[138.075]
(())
[138.605]
<no-speech>
[141.725]
বাকী এনেই <sta> আমাৰো এনেই গোটেই বেয়া নহয় দিয়ক আমাৰো এনেই (()) বেয়া নহয় আপোনাৰ ফেমেলিত কোন কোন (())
[149.835]
<no-speech>
[154.585]
অঁ অঁ অঁ ঠিক <int> এই ঘৰৰ খবৰ খাতি ভালনে <int>
[157.815]
<no-speech>
[161.665]
আমাৰ ফালে আহিব কেতিয়াবা ফেন নহ'লে (()) বস্তিটোত কেনেক থাকিব
[165.615]
<no-speech>
[169.725]
<no-speech>
[170.155]
<no-speech>
[170.955]
<sta> কেতিয়ামানে আহিব
[173.055]
<no-speech>
[177.545]
<sta> ঠিকে আছে (()) মোক ফোন চোন কৰিবা আহোতে মোক মই যাম বাৰু
[182.435]
<no-speech>
[185.955]
<sta> ফোন কৰি দিব (()) ব্যৱসায় কেনেকুৱা বিজনেচৰ কথা কওঁকচোন আপোনাৰ
[191.835]
<no-speech>
[197.335]
<sta> হয় নেকি এই মোৰও এনেকে মুটামুটি মুটামুটি আৰু আপোনাৰ সদায় ইমান ঠিক নহয়
[203.065]
<no-speech>
[204.145]
মোৰো সিমান ঠিক নহয় গোটেই মুটামুটি আৰু (()) আৰু চলি আছো আৰু
[209.255]
<no-speech>
[211.885]
<sta> এই ক'ত ভালে আপোনালোকতে ভাল কৰিবৰ অলপমান চাই আছো (()) গম নাপাওঁ (())
[221.635]
<no-speech>
[223.625]
বিয়া চাই আছো ৰ'ব কইনাই পোৱা নাই না <sta> চাবচোন (()) এটা
[228.315]
<no-speech>
[230.925]
<sta> এই এনেই আৰু চলি আছে কিন্তু (()) কি হয় গম নাপাওঁ আৰু দিয়েনে নিদিয়েনে
[237.465]
<no-speech>
[239.955]
<sta> <laugh> ডাইৰেক্টও নহয় টাইম পাঁচো নহয় না কিবা কিবা এটা মাজত পৰি আছো অলপ (())
[246.395]
<no-speech>
[247.425]
<sta> হাঁ
[248.225]
<no-speech>
[249.345]
<sta> হ'ব মানে কোৱা হৈছে নাইন্টি পাৰ্চেণ্ট কোৱা হৈছে (()) টেন পাৰ্চেণ্ট সেইখিনি নকওঁ বুলি ভাবিছো <laugh> সোভ কথা কোৱা (())
[257.445]
<no-speech>
[260.505]
(())
[261.105]
<no-speech>
[263.225]
<sta> <laugh> গম পাইছো গম পাইছো কথাতো <breath> চাওঁ ৰ'বাচোন এতিয়া কিবা হয় *এতিয়ানে* বিয়া বাৰুৰ কথা ভবা নাই আগতে অলপ পিছা চাইছা বনাই লওঁ তাৰপিছত আৰু বাকী আৰু লাহে লাহে (()) <hes> দে ভাইটিয়েতো আমাৰ বাহিৰত পঢ়ি আছে সিয়ো আহিব লাগিব (()) <sta> এই বি টেক মেকানিকেল ইন্ঞ্জিনীয়াৰিং
[284.015]
<no-speech>
[286.005]
<sta> (()) গুৰু গোবিন্দ সিং কলেজ অফ ইন্ঞ্জিনীয়াৰিং <no-speech> গুৰু গোবিন্দ গুৰু গোবিন্দ সিং কলেজ অফ ইন্ঞ্জিনীয়াৰিং টেকনোলজি
[295.825]
<no-speech>
[298.135]
(()) বুলি কয়
[300.265]
<no-speech>
[301.065]
(())
[301.885]
<no-speech>
[304.975]
<int> অঁ বেয়া নহয় ন ভালে দিয়ক গোটাই মেলি চাইলৈ দিছো না <int>
[307.825]
<no-speech>
[308.685]
<sta> (()) গৈছে নেকি আপুনি এনেকে কেতিয়াবা ফাংশন চাঞ্চন চাব যোৱা নাই <no-speech> ফাংশন চাব গৈছে (())
[318.055]
<no-speech>
[320.345]
<no-speech>
[320.905]
<no-speech>
[324.605]
অঁ বাহিৰ (())
[325.955]
<no-speech>
[327.495]
(()) বাহিৰত চাব যোৱা নাই বাহিৰত ক'তো বাহিৰত ক'তো
[330.825]
<no-speech>
[334.555]
<sta> দিল্লী চিল্লী এনেকে দিল্লী আপোনাৰ পাঞ্জাৱ (()) এই বিলাক চাই আহিলো ইণ্ডিয়া গেট চেট ভাল লাগিছে যাব লাগে মাজে মাজে (()) পইছাই বিছাৰি থাকিলে নহয়তো গম পাইছেনে নাই
[346.425]
<no-speech>
[355.985]
(())
[361.085]
<no-speech>
[362.965]
এই (()) লাগিছে মোৰ <sta> (())
[367.425]
<no-speech>
[368.885]
<sta> ঘৰত আহিলো সেইদিনাখনে আৰু যাম বুলি ভাবিছো
[373.515]
<no-speech>
[374.625]
<sta> হেৰি মানে যাওঁ নেকি দে <hes> দিপাৱলীতে যাওঁ নেকি (())
[380.385]
<no-speech>
[382.875]
অঁ অঁ (())
[384.895]
<no-speech>
[386.325]
(())
[386.965]
<no-speech>
[388.205]
অঁ পাৰো পাৰো সদায় একজনে কৰিব পাৰো তাৰপিছত (()) ধৰে না বাইক চলাই থকা ধেমালি নহয় না সদায় সদায় এনিটাইম
[395.395]
<no-speech>
[396.285]
<no-speech>
[396.705]
<no-speech>
[398.295]
<int> অঁ এতিয়া ক'ত বৰ্তমান ৰুমতনে বাহিৰত <int>
[400.455]
<no-speech>
[404.275]
(())
[405.665]
<no-speech>
[410.545]
(())
[412.255]
<no-speech>
[414.795]
<sta> চবৰে দাম বাঢ়িছ (()) চবৰে দাম বাঢ়িছে
[421.575]
<no-speech>
[423.035]
<no-speech>
[423.875]
<no-speech>
[425.235]
<int> হাঁ <int>
[427.905]
<no-speech>
[430.675]
অঁ <int> সেইটোও হয় <int>
[432.465]
<no-speech>
[434.325]
(())
[435.175]
<no-speech>
[436.235]
<sta> তেলৰ দাম বাঢ়িছে কিবা আমাৰ চেলাৰিয়ে নাবাঢ়ে দেখোন (()) চাকৰি
[440.715]
<no-speech>
[442.165]
<int> তাকেতো চলা মুচকিলে হৈছেহে <int>
[443.995]
<no-speech>
[448.065]
তাকেতো তেতিয়া কথা নাছিল <int> গম পাইছেনে
[451.515]
<no-speech>
[452.485]
<sta> সেইটোও এনি তোমাৰ তাক টকা পালে তাক টুককে চলিব লাগিব দে আৰু একদম ইমান আৰু <foreign> চলিব নোৱাৰো গম পাইছনে কিছুমানৰ দৰে বাকী এনেই
[464.445]
<no-speech>
[468.105]
<no-speech>
[469.675]
এই আছে আছে দেউতা ওঁ মানে কি অলপমানে সেই নহয় অলপমান <hes> দিউটিৰ পৰা আহেঁ যায় কষ্ট হয় মানুহজনৰ মা এতিয়া বৰ্তমান অকলে দিয়ক ঘৰত ভাইটিতো তাৰমানে কি <int> হেৰিত থাকে এইতো মাজু ভাইটিতোৰ দোকানত আছে না এই দোকানৰ পৰা যাওঁতে দেৰি হয় মায়ে
[481.635]
(()) এ গৰু ছাগলী এইবিলাক হাবি যাবই আৰ নাইয়ে কৰিব লাগে <int> <no-speech> উপাই নাই আৰু (()) কৰি যাওঁ নেকি বিয়াখন পাতো
[490.885]
<no-speech>
[494.365]
<int> ছোৱালী এটা চাব না
[496.955]
<no-speech>
[497.905]
(())
[499.985]
<no-speech>
[503.065]
<sta> খেল চাব লগত গ'লে চাব হ'ব লাগিব (()) লগত গ'লে কয় আৰু (()) যাতে আৰু বেয়া নেদেখি আৰু গোটেই একদম <foreign> নালাগে
[510.855]
<no-speech>
[512.285]
(()) এনেই আৰু মানে কি ইহঁতৰ লগত <hes> ইহঁতৰ লগত গ'লে বেয়া লাগিছে আৰু এনেহেন আৰু <int>
[519.415]
<no-speech>
[521.295]
(()) মাজে মাজে (()) বাবা <int>
[526.475]
<no-speech>
[528.775]
<int> এই বেছি নালাগে দে হাইছেকণ্ডেৰী পাচ কৰিলে হ'ল <int>
[531.185]
<no-speech>
[533.305]
ডিগ্ৰী (()) আমাৰ আৰু ডিগ্ৰী কমপ্লিট হৈছে আৰু (()) হাঁ নাই নাই <sta>
[542.765]
<no-speech>
[544.045]
নাই নাই প্ৰবলেম নাই প্ৰবলেম নাই <int> প্ৰবলেম নাই
[547.015]
<no-speech>
[549.595]
<sta> (()) পতি যাব পাৰে ভাল চাই আৰু যাতে আৰু মনে মিলে আনিব
[557.045]
<no-speech>
[561.155]
<lipsmack> বা মহ (()) থাকিব পৰা নাই কি ম'হে ধৰিছে গুৱাহাটীত তামাম হাঁ
[568.645]
<no-speech>
[570.395]
(()) গাঁৱতে অলপ কম (()) গম পাইছানে <sta>
[574.775]
<no-speech>
[575.715]
<no-speech>
[577.495]
<no-speech>
[579.885]
<sta> সেইটোও হয় মানুহৰ জীৱনৰ পৰা শান্তি ক'ত আছেহে মানুহৰ জীৱনত শান্তিয়ে নাই ভাই চব (()) ক'ত একজেগাত শান্তিয়ে নাপাওঁ
[589.255]
<no-speech>
[592.665]
<sta> আমি গুৱাহাটীত কিমান (()) হ'ল (()) অঁ
[599.88]
