[0.000]
<no-speech>
[0.175]
<no-speech>
[0.545]
<no-speech>
[1.385]
হেল্লো <int>
[1.935]
<no-speech>
[4.175]
<breath> অঁ
[5.675]
<no-speech>
[6.705]
অঁ ক <int>
[7.455]
<no-speech>
[8.345]
কৈ থাক
[9.435]
<no-speech>
[12.785]
তোৰ কাষ্ট'মাৰ আছেনে দোকানত
[14.115]
<no-speech>
[17.905]
(()) অঁ কালি কালি বাইক এখনলৈ (())
[23.625]
<no-speech>
[24.485]
<int> ভাত খাবিনে এতিয়াই <int>
[27.315]
<no-speech>
[28.855]
হেল্লো <int>
[29.355]
<no-speech>
[30.645]
অঁ <int>
[31.535]
<no-speech>
[33.185]
ওঁ <int>
[34.275]
<no-speech>
[35.345]
<no-speech>
[35.705]
<no-speech>
[36.645]
<no-speech>
[38.135]
<no-speech>
[39.265]
বাকী ভাল
[40.135]
<no-speech>
[41.775]
ভাল
[42.235]
<no-speech>
[43.035]
বাকী ভাল <sta>
[44.115]
<no-speech>
[48.295]
<hes> (())
[50.245]
<no-speech>
[51.715]
<no-speech>
[52.075]
<no-speech>
[53.185]
অঁ <int> ভাবি আছো
[56.565]
<no-speech>
[58.405]
<no-speech>
[58.875]
<no-speech>
[60.805]
হেল্লো
[61.375]
<no-speech>
[67.275]
<no-speech>
[67.685]
<no-speech>
[70.685]
<no-speech>
[71.575]
<no-speech>
[73.835]
<no-speech>
[74.365]
<no-speech>
[75.225]
<no-speech>
[78.105]
<no-speech>
[79.255]
<no-speech>
[79.695]
<no-speech>
[82.805]
(()) নক'বি <no-speech> নকবিৱে <no-speech> হেৰি নকবিৱে <no-speech> আৰু কিবা ক'ব (()) <no-speech>
[94.885]
<no-speech>
[95.925]
কি কৰি আছে বন্ধ কৰি দিছে (())
[100.685]
<no-speech>
[101.495]
<no-speech>
[101.945]
<no-speech>
[102.945]
<int> হাঁ
[104.755]
<no-speech>
[106.505]
<no-speech>
[106.955]
<no-speech>
[108.515]
ঘৰতো আমাৰ ৰং কৰি আছেনে নাই <int>
[109.955]
<no-speech>
[111.865]
<no-speech>
[112.315]
<no-speech>
[113.165]
<no-speech>
[115.645]
<no-speech>
[122.975]
<no-speech>
[123.735]
<no-speech>
[127.385]
অপাৰেশন কৰিছিল (())
[128.525]
<no-speech>
[130.635]
অপাৰেশন কৰিছিল <int>
[131.515]
<no-speech>
[134.705]
অঁ <int>
[135.235]
<no-speech>
[141.985]
<no-speech>
[148.735]
<sta> হেৰি অঁ সেই <breath> অঁ কি কি লাগিব এতিয়া দোকানত কি কি লাগিব মাল আৰু
[152.995]
<no-speech>
[155.815]
(()) ধূপ আনিব লাগিব আৰু
[158.505]
<no-speech>
[162.385]
<no-speech>
[162.885]
<no-speech>
[164.035]
<int> কিমান বা লাগিব আৰু <int>
[164.965]
<no-speech>
[166.565]
<laugh> (())
[167.925]
<no-speech>
[170.295]
(())
[170.915]
<no-speech>
[172.135]
(()) ধূপ আৰু
[173.945]
<no-speech>
[181.610]
<no-speech>
[189.275]
(()) এ ৱাঠাই
[190.915]
<no-speech>
[195.515]
ধূপ লাগিব চিগেৰেট লাগিব ফ্লেক লাগিব- গ'ল্ড ফ্লেক লাগিব শিখৰ লাগিব আৰু
[201.175]
<no-speech>
[205.035]
হাঁ
[205.555]
<no-speech>
[208.615]
ফ্লেক এটাও নাই <int>
[209.435]
<no-speech>
[212.055]
হেলো
[212.645]
<no-speech>
[214.125]
হেলো
[214.645]
<no-speech>
[217.405]
হয় নেকি
[218.135]
<no-speech>
[220.235]
(()) কি কৰি আছে
[221.435]
<no-speech>
[224.385]
(()) মামা কি কৰি আছে
[227.355]
<no-speech>
[228.225]
(()) ৰং কৰি আছে নেকি (()) মামা ইয়াত দেখোন
[236.705]
<no-speech>
[238.165]
<int> অঁ <int>
[239.935]
<no-speech>
[241.825]
হেৰি এ (()) ভাজিছো <laugh> মই আলু ভাজিছো দালি বনাও
[246.475]
<no-speech>
[247.325]
(())
[247.975]
<no-speech>
[249.435]
<no-speech>
[250.235]
<no-speech>
[251.455]
<hes> হাঁ
[252.975]
<no-speech>
[256.265]
অঁ <sta>
[258.015]
<no-speech>
[259.335]
(())
[259.905]
<no-speech>
[264.045]
হেল্লো <int>
[264.565]
<no-speech>
[267.635]
আহিম দে
[268.275]
<no-speech>
[273.635]
(())
[274.525]
<no-speech>
[276.365]
<no-speech>
[276.825]
<no-speech>
[277.745]
<no-speech>
[278.235]
<no-speech>
[279.455]
হাঁ <int>
[282.375]
<no-speech>
[284.165]
(()) <hes> (())
[287.405]
<no-speech>
[289.965]
<no-speech>
[291.255]
<no-speech>
[292.175]
কনি এটা ভাঙি দিছো (()) <breath> <no-speech> <hes>
[303.795]
কনিটো গোন্ধাইছে <no-speech> ঐ বতাহ সোমাইছে কনীকেইটা গোন্ধ হ'ব
[309.275]
<no-speech>
[311.595]
(()) <breath> আমাৰ কনীকেইটা কালি
[317.855]
<no-speech>
[318.985]
<no-speech>
[319.545]
<no-speech>
[320.665]
হাঁ <int>
[321.195]
<no-speech>
[322.015]
(()) যে আনিছিল <int>
[326.165]
<no-speech>
[328.165]
<no-speech>
[328.725]
<no-speech>
[329.555]
<int> অঁ হেৰি ঐ (()) কনি কেতিয়া দিছিল
[333.875]
<no-speech>
[337.915]
<no-speech>
[338.455]
<no-speech>
[341.065]
হেলো
[341.545]
<no-speech>
[342.795]
<int> বকি কিয় আছ তই
[346.105]
<no-speech>
[347.335]
<int> ক'ব হাক দিছে
[348.185]
<no-speech>
[355.805]
হেলো <int>
[357.465]
<no-speech>
[360.535]
<no-speech>
[361.725]
<no-speech>
[363.045]
<no-speech>
[363.435]
<no-speech>
[366.695]
কি হৈছে <int>
[368.205]
<no-speech>
[369.875]
কি হৈছে বাবু <int>
[371.375]
<no-speech>
[374.495]
<no-speech>
[375.525]
<no-speech>
[376.985]
<int> কিবা ক'ব খুজিছিলো পাহৰি গ'লো
[380.035]
<no-speech>
[381.285]
<no-speech>
[385.785]
<no-speech>
[386.945]
<no-speech>
[392.155]
<no-speech>
[393.945]
<no-speech>
[396.075]
<no-speech>
[397.305]
<no-speech>
[397.825]
<no-speech>
[399.015]
<no-speech>
[399.565]
<no-speech>
[400.405]
<int> হেল'' <no-speech> অঁ বাবু <no-speech> অঁ কনি (())
[407.025]
<no-speech>
[409.355]
কনি ঢাকা আহি আছে <no-speech> কনি ঢাকা আহি আছে
[412.445]
<no-speech>
[416.175]
অঁ হেৰি কৰিছো চক্ৰবৰ্তীক লগ পাইছিলো ফোন কৰিছিলো <int>
[419.375]
<no-speech>
[422.775]
<no-speech>
[423.205]
<no-speech>
[426.305]
<no-speech>
[426.725]
<no-speech>
[429.055]
<no-speech>
[429.465]
<no-speech>
[431.515]
<no-speech>
[432.665]
<no-speech>
[434.545]
<no-speech>
[436.555]
<no-speech>
[437.635]
<int> কোন আহিছে
[439.035]
<no-speech>
[443.055]
(())
[443.755]
<no-speech>
[446.505]
অঁ <int>
[446.945]
<no-speech>
[449.665]
(())
[450.045]
<no-speech>
[454.475]
(())
[456.295]
<no-speech>
[462.335]
ৰাখি নথৱ কিয় পইছাটো কি আছে <no-speech> ৰাখি দে
[466.465]
<no-speech>
[469.975]
কোনোবা দিনা পাহৰি যাবি (()) ৰাখি নথৱ কিয় (()) পিছা আমাক ল'গা হৈ আছে পিছা আকৌ ঘূৰাই (()) <no-speech>
[477.255]
(())
[477.625]
<no-speech>
[479.035]
(()) ৰাখি থ
[479.995]
<no-speech>
[488.555]
(())
[489.615]
<no-speech>
[492.325]
<no-speech>
[492.785]
<no-speech>
[502.295]
<no-speech>
[502.715]
<no-speech>
[511.135]
অঁ বাবু <int>
[511.695]
<no-speech>
[513.535]
কি
[513.945]
<no-speech>
[517.475]
(())
[518.515]
<no-speech>
[521.635]
পইছাটো ৰাখি দে
[522.505]
<no-speech>
[531.565]
<no-speech>
[531.915]
<no-speech>
[541.055]
(())
[542.545]
<no-speech>
[544.015]
(())
[545.005]
<no-speech>
[546.915]
(())
[549.475]
<no-speech>
[552.585]
<no-speech>
[552.955]
<no-speech>
[556.155]
অঁ শুনচোন <int>
[557.085]
<no-speech>
[557.945]
(()) কৰিব গৈছে নেকি
[559.305]
<no-speech>
[566.225]
<no-speech>
[566.615]
<no-speech>
[568.975]
<no-speech>
[569.375]
<no-speech>
[572.495]
(())
[573.135]
<no-speech>
[575.045]
পিয়নে কি সুধি আছে দিয়া নাই
[576.295]
<no-speech>
[579.285]
<no-speech>
[579.685]
<no-speech>
[589.485]
<no-speech>
[599.285]
<no-speech>
[599.515]
<no-speech>
[600.480]
