[0.000]
<no-speech>
[0.395]
<no-speech>
[1.135]
<no-speech>
[3.635]
ওঁ নাপাওঁ নাপাওঁ <int>
[5.135]
<no-speech>
[9.685]
এইতো ভালেই গৈছে <int>
[10.955]
<no-speech>
[13.585]
<sta> সন্ধ্যা নাথাকিম
[15.675]
<no-speech>
[18.525]
অঁ <sta> সময় নহ'ব সময় নহ'ব অলপ মই পিছত মই মৰিগাঁও যাম অঁ ৰাতিপুৱা (()) আছিল ৰাতিপুৱা এই প্ৰব্লেমতো হৈ গল না
[28.505]
<no-speech>
[30.305]
ওঁ
[30.905]
<no-speech>
[32.675]
<sta> নাই যোৱা ৰাতিপুৱা সি মাৰা গ'লনে ৰাতি
[35.755]
<no-speech>
[36.875]
<no-speech>
[38.245]
<no-speech>
[40.205]
(())
[44.735]
<no-speech>
[46.035]
<int> ইয়াতে আছেতো
[47.275]
<no-speech>
[48.675]
<no-speech>
[49.685]
<no-speech>
[52.795]
<sta> মৰিগাঁও যাম তোমাৰ মোৰ <hes> ছেকেণ্ড ৰাস চাবলৈ
[60.865]
<no-speech>
[62.525]
<sta> ওঁ ওঁ ইফালে ৰাতিপুৱা পাঁচটা বজাত গুছি যাম হেৰি (())
[67.015]
<no-speech>
[70.545]
<hes> নাপাওঁ মই জাগীৰ'ড ক্ৰচ কৰিলেই মোৰ গাওঁ পাম <sta>
[74.335]
<no-speech>
[76.015]
<sta> ওঁ ওঁ চবে আনি পেলাই বিশ দিন পিছত দিম তোমাক
[80.475]
<no-speech>
[81.975]
<no-speech>
[82.475]
<no-speech>
[83.455]
(()) মই বিশ দিনৰ কাৰণে আকৌ কালি গুছি যাম মৰিগাঁও হেৰি কি মানস <sta>
[89.695]
<no-speech>
[93.495]
<no-speech>
[97.955]
<no-speech>
[99.805]
<hes> আমাৰ কাষতে দুয়ো থাকে ওঁ
[104.035]
<no-speech>
[106.685]
<no-speech>
[108.435]
<no-speech>
[111.425]
আঁ কাম আৰম্ভ কৰিব নাজানো মোৰ (())
[116.265]
<no-speech>
[117.345]
<sta> অঁ যাম আৰু লগ ধৰি আহিম
[119.525]
<no-speech>
[123.415]
(()) আঁ একো নাই গুৱাহাটী আজি ৰাতি থাকিম <sta>
[129.835]
<no-speech>
[130.805]
(())
[133.975]
<no-speech>
[135.655]
ওঁ নাই নাই <foreign> নহ'ব <int>
[141.015]
<no-speech>
[141.905]
ওঁ বাকী চব ভাল <int>
[143.135]
<no-speech>
[147.305]
<sta> ওঁ ঘৰত কোৱা নাই মানে কিয় দহটাৰ পিছত ডিছটাৰ্ব কৰে কাৰোবাক
[151.275]
<no-speech>
[153.475]
<no-speech>
[154.025]
<no-speech>
[155.545]
<no-speech>
[156.265]
<no-speech>
[157.105]
<sta> কিবা কৈছ নেকি কিবা কৈছেনেকি তাই
[159.245]
<no-speech>
[164.085]
<no-speech>
[164.715]
<no-speech>
[166.215]
<no-speech>
[166.575]
<no-speech>
[167.965]
<no-speech>
[168.775]
<no-speech>
[171.555]
<no-speech>
[172.995]
<no-speech>
[174.995]
<sta> ওঁ অঁ অঁ
[176.645]
<no-speech>
[177.755]
<no-speech>
[178.695]
<no-speech>
[179.545]
<no-speech>
[180.175]
<no-speech>
[181.545]
ওঁ ওঁ <sta> (()) ষ্টেটত টপ কৰো
[184.745]
<no-speech>
[189.595]
<int> (()) ক'ত লগ পাম
[191.885]
<no-speech>
[196.585]
(()) যাবলগীয়া হৈছে <sta>
[198.465]
<no-speech>
[200.085]
<no-speech>
[201.215]
<no-speech>
[202.725]
এই ফালে <sta> নাথাকে নহয় আজিকালি তাই ক'ত থাকে মই কেনেকে কম এই ফালে থাকিলেতো দেখাই পালি হয়
[209.045]
<no-speech>
[213.315]
<sta> গম নাপাওঁ সলাব পাৰে গনেশগুৰি ফালে যাব পাৰে
[217.035]
<no-speech>
[219.835]
ওঁ
[220.625]
<no-speech>
[222.105]
<sta> নহ'লে বয়ফ্ৰেণ্ডক লগ ধৰিব নোৱাৰে না সদায় সদায়
[226.405]
<no-speech>
[229.495]
ওঁ মই চলাইছো তাকে কাৰণ তাক কৈ আছো ৰুমটো (())
[233.795]
<no-speech>
[235.485]
<no-speech>
[235.935]
<no-speech>
[237.245]
<no-speech>
[237.755]
<no-speech>
[242.475]
<no-speech>
[243.185]
<no-speech>
[244.985]
ওঁ <sta> ভালেই
[246.805]
<no-speech>
[249.145]
<no-speech>
[249.875]
<no-speech>
[251.185]
<sta> ওঁ
[252.695]
<no-speech>
[257.595]
কিয়
[258.405]
<no-speech>
[262.485]
(())
[267.865]
<no-speech>
[269.725]
ওঁ ওঁ <sta> কেইদিনমান গেপ
[273.675]
<no-speech>
[274.925]
কেইদিনমান গেপ <sta>
[276.785]
<no-speech>
[277.705]
<sta> ওঁ আৰু
[280.845]
<no-speech>
[283.615]
<sta> ঠাণ্ডা নকমে ঠাণ্ডা নকমে ঠাণ্ডা ইমানেই থাকিব ৰাতি
[289.375]
<no-speech>
[291.815]
ভূটানৰ কাৰণে <sta> ভূটানৰ কাৰণে ওঁ
[297.135]
<no-speech>
[300.395]
ওঁ ওঁ নহয় তাত গৰম নহয় <foreign> ঠাণ্ডাই থাকে <sta>
[304.735]
<no-speech>
[306.575]
ওঁ ওঁ ওঁ <int>
[307.765]
<no-speech>
[309.015]
<no-speech>
[309.685]
<no-speech>
[311.915]
<int> হুঁ <int>
[313.085]
<no-speech>
[314.955]
অঁ এই <sta> বিশ কিলোমিটাৰমান হ'ব
[317.705]
<no-speech>
[318.915]
<no-speech>
[319.445]
<no-speech>
[322.245]
<sta> মানসটো ক্ৰচ কৰিলেই ভূটান ওঁ পাহৰাতো ক্ৰচ কৰিলেই ভূটান পাহাৰৰ ওপৰত ভূটান পাহাৰৰ তলত অসম
[331.635]
<no-speech>
[333.325]
অঁ পাৰ্মিচন মানে কি তাত লিখি পেলাই গুছি গ'লেই হ'ল আৰু <sta>
[337.825]
<no-speech>
[338.695]
<no-speech>
[339.515]
<no-speech>
[340.835]
<no-speech>
[342.495]
<no-speech>
[346.645]
<sta> অঁ
[348.555]
<no-speech>
[350.735]
<no-speech>
[354.155]
<no-speech>
[356.065]
ওঁ <sta> দুই তিনি দিনমান
[361.125]
<no-speech>
[363.505]
<sta> ওঁ ভূটানত মই কুকুৰ আনিব যাম
[370.075]
<no-speech>
[373.675]
ওঁ ওঁ <sta> <no-speech> ওঁ
[377.205]
<no-speech>
[379.435]
<no-speech>
[380.305]
<no-speech>
[383.555]
ওঁ <sta> যাম যাম নিশ্চয় যাম
[389.125]
<no-speech>
[393.745]
<no-speech>
[394.105]
<no-speech>
[395.115]
<no-speech>
[395.785]
<no-speech>
[398.265]
<sta> তাৰপৰা গাড়ী আছে নহয় মেধি চেধিৰ ডেকাৰ মেধিৰ মোৰ চব আছে চব আছে (())
[406.635]
<no-speech>
[408.335]
<no-speech>
[409.035]
<no-speech>
[411.095]
<no-speech>
[411.665]
<no-speech>
[413.145]
<no-speech>
[413.565]
<no-speech>
[415.045]
<no-speech>
[416.575]
<no-speech>
[419.615]
<no-speech>
[422.225]
<no-speech>
[423.605]
(())
[426.665]
<no-speech>
[427.515]
চব <int> হৈ যাব
[429.055]
<no-speech>
[431.845]
ওঁ চবৰে ভাল <sta>
[434.015]
<no-speech>
[435.205]
<sta> ইয়াতে আছে
[436.615]
<no-speech>
[439.375]
<sta> নাই আৰু কোনো যোৱা নাই মৰিলে
[442.805]
<no-speech>
[444.355]
<no-speech>
[445.045]
<no-speech>
[446.695]
<sta> কালি ৰাতি আঠটা চাৰে আঠটা
[451.075]
<no-speech>
[451.975]
নহয় ঘৰত আছো নহয় শুনাৰ লগে লগে মেডিকেল গ'লো <sta>
[455.975]
<no-speech>
[460.435]
<no-speech>
[461.325]
<no-speech>
[464.125]
(())
[464.775]
<no-speech>
[467.115]
<no-speech>
[467.465]
<no-speech>
[469.445]
ওঁ <sta> হয় হয়
[473.975]
<no-speech>
[476.265]
মই আজি কৰিলো
[477.575]
<no-speech>
[479.815]
<no-speech>
[480.475]
<no-speech>
[482.735]
<sta> বেছি কষ্ট নিদিয়া হৈছে
[487.505]
<no-speech>
[490.235]
<sta> এই তিনি দিনমান কালি ধৰি ছয় দিন
[494.645]
<no-speech>
[495.935]
<sta> ওঁ এই নহয় একেলগেত ইমান বছৰৰ আছিল এতিয়া অলপ মানিব লাগিব <int> হয়
[505.395]
<no-speech>
[506.415]
<no-speech>
[506.925]
<no-speech>
[510.775]
ওঁ <sta> সেইতোৱে কথা
[514.595]
<no-speech>
[516.395]
<no-speech>
[519.055]
<no-speech>
[519.935]
<no-speech>
[520.325]
<no-speech>
[522.295]
<no-speech>
[522.895]
<no-speech>
[526.195]
<int> ওঁ ওঁ ওঁ <int>
[530.165]
<no-speech>
[532.140]
