[0.000]
<no-speech>
[1.035]
চেক ডা মেনু <int>
[2.295]
<no-speech>
[3.235]
<no-speech>
[5.175]
<no-speech>
[6.885]
দিয়া তেন্তে <int>
[10.425]
<no-speech>
[12.135]
<no-speech>
[13.175]
<no-speech>
[14.765]
হেলৌ <int> হেলৌ অঁ নাথু
[18.365]
<no-speech>
[19.695]
<int> ভাল ভাল ভাল ক'ত আছা তুমি
[20.965]
<no-speech>
[24.785]
<int> অঁ ঘৰত আছানে ভাত বনালা
[26.895]
<no-speech>
[29.945]
<laugh> <int> ভাত বনোৱা বুজিছা <int> পানী তোলা বাচন ধোঁৱা আজি মই মানে চাউল
[36.895]
<no-speech>
[38.135]
নাই মই কালি বনালো কাঁহী বাতিয়ো মই ধুলো আজি মই একো নকৰো অকল খাম বুজিছা <sta> চ' ভাত বনোৱা চব ৰেদি কৰি দিয়া মই ভাত খাম দেই
[45.655]
<no-speech>
[48.215]
<int> অঁ আমাৰ মানে ফৰেইনাৰ ক'ত আছে ফৰেইনাৰ
[50.015]
<no-speech>
[54.155]
<lipsmack> <laugh> ফৰেইনাৰৰ ভয়তো দেখিলিনে নাই
[55.985]
<no-speech>
[60.945]
<int> অঁ আজি তোক কামুৰিবলে পইন্ট এটা পালো
[64.165]
<no-speech>
[65.345]
<int> নিজৰ নামত তাৰ চিমটো <int> ইন্ডিয়াৰ নামত আছেনে বাহিৰৰ নামত আছে তাৰমানে সি নাম্বাৰ দিবলে ভয় কৰিলে <int>
[71.105]
<no-speech>
[73.215]
তাৰ চিম- তাৰ চিমটো ইয়াৰ হয়নে নে বাহিৰ ৰৈ হয় এইতো কথা সুধিব লাগিছিলে <int>
[78.005]
<no-speech>
[79.395]
অঁ বাকী দাৰু কচোন
[80.655]
<no-speech>
[84.175]
অঁ <int> পিছে আজিও ক'ত ওলাই যোৱা নাই
[87.715]
<no-speech>
[88.795]
<no-speech>
[89.155]
<no-speech>
[90.945]
তহঁত ক'তো ওলাই যোৱা নাই <int>
[92.295]
<no-speech>
[93.135]
<no-speech>
[93.505]
<no-speech>
[95.375]
<lipsmack> অঁ যাবা আৰু কি পাৰ্টি চাৰ্টি নাই <int>
[97.825]
<no-speech>
[106.525]
সুবিধাজনক হয়নে <no-speech> <sta> বস্তুটোৰ বিষয়ে মানে আমি মানে কিবা এটা ল'ব লাগিছিলে উচিতধৰণৰ কিবা এটা মানদণ্ড এটা উন্নত উপনীত হ'ব পাৰিব লাগিছিলে আমি বুজিছা
[115.155]
<no-speech>
[116.775]
হেলৌ <int>
[117.415]
<no-speech>
[118.725]
(()) অঁ <sta> নাই সেই মানে (()) ব্যৱস্থা গ্ৰহণ কৰিব লাগিছিলে বুইছানে
[124.855]
<no-speech>
[126.945]
অঁ কিন্তু এতিয়ালৈকে হোৱা নাই কি ক'ব আমি বহুত দুখিত হৈ গৈছো <int>
[132.015]
<no-speech>
[133.445]
<int> তুমি ক'ত আছা মই দেখা নাই তুমি তলতে আছা নেকি
[135.815]
<no-speech>
[140.865]
<no-speech>
[141.255]
<no-speech>
[142.785]
কি কামত গ'ল
[143.415]
<no-speech>
[147.235]
<int> অঁ ঠিক আছে ভালকে কৰিবা বিচনাখনো ভালকে পাৰিবা <dtmf>
[151.415]
<no-speech>
[154.935]
অঁ নহয় সেইটোও আজিকালি মানে আজিকালি <int> নতুন টেকন'লজি ইউজ হৈছেতো তোমালোকে কানত তুমি এটা হে মানে কি তুমি মানে <hes> কি বুলি কয় এইতো <lipsmack> এটা টেকন'লজি তুমি কানতো লগাই লৈ বেলেগৰ লগত কথা
[166.695]
পাতি পাতি তুমি কাম কৰিবা (()) <int>
[168.225]
<no-speech>
[171.585]
আলাপ যন্ত্ৰনে অঁ বাৰ্তালাপ যন্ত্ৰ বুলি কোৱা হয়
[174.165]
<no-speech>
[176.765]
আৰু কোৱা
[177.465]
<no-speech>
[184.485]
কিহৰ কিহৰ
[185.345]
<no-speech>
[186.875]
<int> কিশোৰ
[188.635]
<no-speech>
[190.005]
<no-speech>
[190.355]
<no-speech>
[191.715]
কিশোৰ <sta> কিশোৰক কোনে কি কৰিলে
[196.025]
<no-speech>
[198.415]
কিশোৰ ৰৈ লগত মোৰ একো নাই কালি কিশোৰে মোক কৈছিলে ফোন কৰিছিলে সুধিছিলে যে তুমি এনেকে কি কৰিলা <sta>
[203.455]
<no-speech>
[207.885]
<int> মই যিটো দিওঁ মানে মই কামোৰ দিলে সহ্য কৰিব (()) <int> আৰু কওঁক পাৰ্টি চাৰ্টি নোহোৱা হৈছে
[216.255]
<no-speech>
[217.315]
<no-speech>
[218.035]
<no-speech>
[223.605]
আমাৰ মাৰ্চ এন্ডিং চলে আছে বুজিছা মানে পাৰ্টিৰ কাৰণে মোৰ মানে কন্ট্ৰিবিউত কৰিব নোৱাৰিমতো
[227.825]
<no-speech>
[230.225]
<no-speech>
[230.585]
<no-speech>
[232.655]
তোমাৰ লগতলৈ কি আছে তুমি থাকা এটা ফৰেইনাৰ ৰৈ লগত ওচৰত তোমাৰ এটা ফৰেইনাৰ ৰখি আছে (())
[238.725]
<no-speech>
[240.735]
<int> শুনাচোন বহুত পিছা বহুত পিছা কি <sta> কৰিবা আৰু কওঁক
[248.655]
<no-speech>
[250.605]
হেলৌ <int>
[251.505]
<no-speech>
[253.955]
<int> অঁ কৰ <int>
[257.195]
<no-speech>
[258.545]
আৰু কিবা ক'বলগীয়া আছে তোমাৰ <int>
[261.315]
<no-speech>
[263.105]
অঁ তুমি তুমিতো এইবাৰ বোলে বিহুত বোলে বহুত ষ্টেজ প্ৰগ্ৰেম কৰিবা শুনিবলে পাইছো তুমি বহুত মানে হেৰি পাইছা
[268.245]
<no-speech>
[269.375]
কোনোবা এদিন
[269.755]
<no-speech>
[276.575]
<int> হেলৌ
[280.245]
<no-speech>
[281.525]
অঁ কোৱা কোৱা কোৱা <int>
[284.325]
<no-speech>
[286.615]
আজি ভাত বনোৱাতো মোৰ নহয়
[288.235]
<no-speech>
[292.235]
হয়নে <sta> ভাত বনোৱা নাই আজি
[294.095]
<no-speech>
[296.055]
আজি বঙাল নহ'লে আমাৰ ডিমাপুৰে ভাত বনাব <int> বুজিছ দুইজনৰ পিছত আৰু
[302.625]
<no-speech>
[304.775]
আঁ <int>
[305.245]
<no-speech>
[311.965]
অঁ <int> ঠিক আছে যোনেই নবনাওঁক কিন্তু খাবলে পাব লাগিব <int> টাইমত নাপাওঁতে দিগদাৰ হ'ব
[317.715]
<no-speech>
[320.475]
<sta> অঁ নাই নাই নাই মই সুধি চাব লাগিব হয় আহ যদি আহেঁ তেতিয়া হ'লে হ'ব বাৰু একো নাই
[328.035]
<no-speech>
[329.625]
<sta> যদি নাহে তেতিয়া হ'লে আমাৰ মাজতে কিবা এটা বিহীত ব্যৱস্থা গ্ৰহণ কৰিব লাগিব <no-speech> আৰু কোৱা তুমি এই ফোনতো কিহৰ কাৰণে কৰিছা তুমি কোৱাচোন মোক
[339.425]
<no-speech>
[341.065]
ওঁ <sta> তুমি এই ফোনতো কিহৰ কাৰণে কৰি আছা বুলি ভাবিছা তুমি কোৱাচোন বাৰু
[344.795]
<no-speech>
[347.895]
<int> নহয় নহয় নহয় মোৰ তোমাৰ লগত ফোন কৰি কথা পাতি থাকিবলে একো দৰকাৰ পৰা নাই মই তোমাৰ লগত কথা পাতি একদম ভাল নাপাওঁ বুজিছা কিন্তু এনেকুৱা এটা মানে আজি গিফট্ এটাৰ কাৰণে তোমাৰ লগতে কথা পাতি আছো বুজিছা দশ মিনিট সময় মই ৱেষ্ট কৰিছো তোমাৰ লগত কথা পাতি <int>
[358.805]
<no-speech>
[368.035]
অসমীয়া কথা অসমীয়াটো অসমীয়া বাক্য ব্যৱহাৰ কৰি পেলাই মোৰ লগত কথা পাতা <int> তুমি মাজে মাজে যে ইং- ইংৰাজী শব্দ কিয় ব্যৱহাৰ কৰিছা <int>
[377.015]
<no-speech>
[378.625]
শুনা
[379.105]
<no-speech>
[382.035]
<int> চৰি চিচিমান
[384.075]
<no-speech>
[385.475]
হেল্লো
[386.075]
<no-speech>
[388.365]
অঁ কওঁক কওঁক আৰু কওঁক
[389.955]
<no-speech>
[392.245]
<int> আহক
[393.085]
<no-speech>
[396.695]
অঁ বিৰাজ কহলি পাওঁ পাওঁ পাওঁ পাওঁ লগ পাওঁতো
[399.665]
<no-speech>
[402.735]
অঁ মোক প'ষ্ট তাৰিখ তাত
[404.185]
<no-speech>
[406.955]
<int> অঁ অঁ অঁ
[409.425]
<no-speech>
[410.315]
তোৰ (()) <int> হাঁ
[413.335]
<no-speech>
[415.195]
<no-speech>
[415.545]
<no-speech>
[417.535]
অঁ <int> ব'ম টেঙা দিছে বুজিছনে ইমান দেৰি ফোনতো কটা নাই <int> হেলৌ নাথু একদম থুৰিয়া ফোন আৰু বে <int>
[428.585]
<no-speech>
[429.745]
এ অঁ <laugh> টানেল তোমাৰ নম্বৰৰ ওপৰত চলি আছে ছাগে গতিকে মই যি_টি ক'ব পাৰো এতিয়া মোৰ যি মন যায়
[436.295]
<no-speech>
[437.655]
হেল্লো নাথু
[438.485]
<no-speech>
[439.715]
অঁ <int>
[440.565]
<no-speech>
[443.475]
<no-speech>
[443.955]
<no-speech>
[445.725]
আৰু তোমাৰ গাৰ্লফ্ৰেণ্ডৰ খবৰ কেনেকুৱা
[447.165]
<no-speech>
[449.325]
<no-speech>
[449.745]
<no-speech>
[452.955]
(())
[453.395]
<no-speech>
[456.715]
অ'উ <int> তেনে বোলে মানুহ আকৌ জীয়াই থাকিব <dtmf>
[460.775]
<no-speech>
[462.425]
<int> অঁ মই ভাবিছো তেনে মানুহৰ জীয়াইতো কিন্তু মই মৰি পোৱা নাই আজিলৈকে কৈহে পাইছো
[467.465]
<no-speech>
[468.525]
<no-speech>
[468.925]
<no-speech>
[471.405]
(()) প্ৰেমে মাথো বুজি পায় প্ৰেমৰ ঠিকনা <sta> আমা- আমৰ প্ৰেমে সেই কথাতো ধুনীয়াকে ক'ব লাগে
[478.745]
<no-speech>
[481.145]
প্ৰেমে বুজি পায় (()) প্ৰেমে নামানে বয়সৰ সীমনা সেইটোও বৰ ধুনীয়াকে গান আছে এ
[488.615]
<no-speech>
[492.405]
ওঁ <int> চৰ কে আই অঁ চলিম কি গ'লি <laugh>
[498.225]
<no-speech>
[499.305]
<int> তাইক
[500.555]
<no-speech>
[502.415]
মানুহে মানুহৰ বাবে <int> বুজিছা
[507.455]
<no-speech>
[509.865]
<int> নহয় মই ইমানটোৱেই গাওঁ মই সদায় ডেম দিওঁ ফুল ভাৰছন দিবলে গ'লে মোৰ দিমাণ্ডতো কমি যাবতো
[514.615]
<no-speech>
[515.495]
<no-speech>
[515.885]
<no-speech>
[517.395]
চোৱা মই সদায় ফুল ভাৰছন বিলাক সদায় এভইদ কৰি ৰাখো মই সদায় <int>
[520.535]
<no-speech>
[525.865]
<lipsmack> ধূপকাঠি জ্বলাইছা তুমি
[526.975]
<no-speech>
[530.565]
(()) জ্বলাইছা নে
[531.915]
<no-speech>
[532.945]
ঠিকেই তুমি ছপিঙত গৈ পেলাই ধূপকাঠি গ্ৰহণ কৰিছা ময়ো গৈ পিনে সেইয়া অকলে অকলে মানুহ চাই চাই <sta> কথা পাতি আছো <no-speech> আৰু <int>
[543.515]
<no-speech>
[544.475]
ওঁ <sta> কোৱা
[546.885]
<no-speech>
[548.695]
<cough> আৰু কোৱা আৰু কি
[550.025]
<no-speech>
[550.965]
<int> <dtmf> ওঁ <int> হেলৌ
[556.235]
<no-speech>
[559.425]
আপোনাৰ ফোনতোত কল সামাৰি ওলাইনে
[561.375]
<no-speech>
[562.235]
কল দিবচোন
[563.065]
<no-speech>
[564.255]
<int> অঁ কিমান মিনিট ফ্ৰি আছে বাৰু এনেই চায় দিয়কচোন
[566.395]
<no-speech>
[567.775]
দিবা <int> ওঁ <int> অঁ তুমি ফোনতো নাকাটিবা খালি হাঁ <int> <cough>
[579.695]
<no-speech> অঁ অঁ অঁ তুমি সেই টাইম পাচ কৰি থাকা মোৰ লগত এতিয়া <int> বুজিছা নাই আৰু তোমাৰ লগত অলপ কথা পতি যে ইমান বৰ হৈছো মই বুজিও পোৱা নাই বুইছানে <int> তোমাৰ লগত
[591.375]
তই কিবা ৰচিদলৈ ফোন কৰাহেঁতেনেই ভাল আছিল
[593.185]
<no-speech>
[595.415]
<no-speech>
[595.975]
<no-speech>
[596.785]
<int> ইমান ভাল লাগিছে মানে কি
[600.225]
<no-speech>
[600.320]
