[0.000]
<no-speech>
[2.225]
ঘূৰি আ তই ইমান ঠাণ্ডাত জুই ফুৱাই আছ মোৰ কাৰণে খৰি কেইডাল মান আনি দিবিচোন
[6.345]
<no-speech>
[10.605]
<no-speech>
[11.735]
<no-speech>
[12.565]
ছামুখ কেইটা ন
[13.405]
<no-speech>
[14.685]
<no-speech>
[15.115]
<no-speech>
[16.625]
<no-speech>
[17.095]
<no-speech>
[18.755]
<no-speech>
[19.715]
<no-speech>
[22.485]
<sta> কৰিলি
[23.795]
<no-speech>
[26.105]
দুবৰী কেইডাল মান লাগে
[27.495]
<no-speech>
[30.125]
খৰি লাগে জুই ফুৱাবৰ কাৰণে তই আনি দিবিনে নিদিয় <sta>
[33.785]
<no-speech>
[35.835]
<sta> জুই ফুৱাবৰ কাৰণে খৰি
[38.235]
<no-speech>
[39.465]
<sta> কি
[40.735]
<no-speech>
[43.515]
<sta> কিয় তই যে ঘৰত জুই ফুৱাই আছ
[46.435]
<no-speech>
[48.085]
<no-speech>
[48.585]
<no-speech>
[49.815]
নহ'ব তইয়ে আনিব লাগিব
[51.565]
<no-speech>
[54.125]
<foreign> কৰিব নালাগে
[56.085]
<no-speech>
[58.265]
(())
[59.705]
<no-speech>
[62.265]
একো নাই হোৱা <int>
[63.445]
<no-speech>
[64.585]
হে মোৰ কি কৰি আছা সেই দিনা <int>
[66.935]
<no-speech>
[69.345]
<sta> আহিবিনে নাহ
[70.495]
<no-speech>
[73.435]
কেতিয়া অঁ (()) আজি অলপ (()) দুষ্ট কৰিবৰ মন গৈছো (()) বতৰতো তই গম পাৱ ইমান ঠাণ্ডা
[81.175]
<no-speech>
[83.475]
<sta> হাঁ
[83.985]
<no-speech>
[86.265]
এই <sta> ই মানে শুইছে নহয় মানুহ পৃথিৱীত মই এনেকুৱা ব'ৰিং মানুহ কেতিয়াও দেখা নাছিলো কেতিয়াও দেখা নাই
[92.995]
<no-speech>
[99.705]
অলপ মানেতো কৰিম নালাগে সময় কাৰণে
[102.025]
<no-speech>
[103.495]
<no-speech>
[103.845]
<no-speech>
[106.685]
<no-speech>
[107.095]
<no-speech>
[108.535]
ওঁ কোন মাইনাতোৰ মাইনা (())
[110.515]
<no-speech>
[111.965]
কোন মাইনা হয় কোন মাইনা হয়
[114.395]
<no-speech>
[116.695]
আছা (()) কণা
[119.625]
<no-speech>
[121.885]
<sta> কি কওঁ কি ক না
[123.065]
<no-speech>
[126.055]
অঁ যি (()) ক
[127.335]
<no-speech>
[133.415]
(()) <sta> বাট মই তোক সুধিছো তই কি খুৱাবি <foreign>
[144.585]
<no-speech>
[148.025]
<sta> অঁ
[150.095]
<no-speech>
[152.505]
ধেৎতেৰিকা <sta> শুন মানুহ নথকা দিনাখন বেছি কামুৰি থাকো ন তোক মই আজি কৈ থোৱা আছে মোক আজি খাব মন যোৱাৰ কাৰণে তোক কৈ আছো ভোক লাগিছে কিবা এটা খোৱা
[163.195]
<no-speech>
[164.265]
নাখাওঁ নাখাওঁ নাখাওঁ নাখাওঁ মই চিংৰা নাখাওঁ প্লিজ নানিবি মোৰ এইতো এনেই গেছটিক হয় <hes> অ'ভাৰ গেছটিক হয় ইয়াৰ একদমে নোৱাৰো <int>
[171.415]
<no-speech>
[172.485]
<no-speech>
[173.465]
<no-speech>
[175.745]
ভাত খাবৰ মন গৈছে দহী (()) <sta>
[180.515]
<no-speech>
[182.105]
অঁ
[182.825]
<no-speech>
[185.405]
কিয় (()) তাই ইমান টেনচন কিয় লৈ আছ
[188.045]
<no-speech>
[191.225]
<no-speech>
[191.735]
<no-speech>
[192.755]
পায় <hes> দহী বঢ়া পায় চাহ পায় চব <sta> (()) এনেই এনেই এবাৰ মাত লগাব আহিবি তই কেতিয়া আহিবি ক
[204.105]
<no-speech>
[207.675]
তাৰে <int> বাচ্ছা অঁ ঠিক আছে আৰু কি ক'ব ওলাইছিলো কিহেৰে ভাত খালি
[214.235]
<no-speech>
[219.275]
তই খাইছ হয়নে তই বিশ্বাস কৰিবি আজিলৈকে এতিয়ালৈকে দানা (()) ৰাতিপুৱা ওলাই আহিলো যে অঁ ৰাতিপুৱা মানে অলপ দেৰিকে আহিছো ৰুটী খায় আহিছো আজি ভাত ছাত চব বন্ধ মাছ মাংস (()) নোৱাৰিলো ভাত খাব টাইমে নিমিলিল
[231.125]
<sta> এতিয়া আৰু ক'ত ভাত খাবি ৰাতি
[233.245]
<no-speech>
[235.125]
<int> এই ঘৰ পাম আৰু
[236.415]
<no-speech>
[239.775]
<sta> কৈ আছো ৰ ৰ তই মোৰ লগত কথা পাতি থাকচোন ঘৰ গৈ আছো মই অঁ তাৰপিছত কি ক'ব ওলাইছিলো অই তই যে গাড়ী কিনাৰ কথা আছিলে কেতিয়া কিনিবি
[248.895]
<no-speech>
[251.445]
ওঁ <sta>
[254.095]
<no-speech>
[255.555]
অঁ তই ৰাতিপুৱা এম চিল লোৱাৰ কথা আছিল ন
[259.485]
<no-speech>
[261.505]
বাপৰে <int>
[265.795]
<no-speech>
[268.435]
(()) বেয়া জাননে সেইকাৰণে ভাল নালাগে
[271.495]
<no-speech>
[276.885]
এই নালাগে পাৰ্চেল <sta> লৈছে যেতিয়া বেলেগ এখন ল কিবা মোৰ মোৰ মতে বাইক
[283.775]
<no-speech>
[284.715]
কোনো দিশ নাই
[285.745]
<no-speech>
[287.285]
কি ল'বি <int>
[288.055]
<no-speech>
[291.235]
বাপৰে ইমান দাম ডাঙৰ লোৱাতকে আৰু অলপ পিছা দি পেলাই নেন' এখন লোৱাই ভাল
[295.295]
<no-speech>
[296.155]
<sta> কৰিব লোৱাতকে অলপ পিছা দি কিনে নেন' এখন লোৱাই ভাল
[302.585]
<no-speech>
[305.535]
<int> অঁ কৰীশ্মা লোৱাঁত
[306.825]
<no-speech>
[308.465]
কি কৰিছা
[309.465]
<no-speech>
[311.385]
<no-speech>
[311.895]
<no-speech>
[312.705]
অঁ
[313.325]
<no-speech>
[317.025]
ওঁ <int>
[317.575]
<no-speech>
[321.245]
ওঁ <int>
[321.825]
<no-speech>
[323.265]
অঁ <int> সেইটোও হয়
[324.345]
<no-speech>
[327.015]
<int> নহয় দে অলপমান এতিয়া পিছা অলপমান জমা চমা কৰি থৈ দিব লগীয়া হৈছে ইমাৰজেন্চি কেতিয়া ফতককে লাগি যায় কবতো নোৱাৰি <int>
[334.405]
<no-speech>
[340.625]
<hes> ঠিকেই
[343.125]
<no-speech>
[344.915]
ওঁ <int>
[345.545]
<no-speech>
[347.235]
<no-speech>
[347.775]
<no-speech>
[351.045]
ওঁ <int>
[351.635]
<no-speech>
[352.695]
সেইটোও ভালেই <hes>
[354.415]
<no-speech>
[359.845]
<sta> ঐ শুনচোন আজি আজি আমাৰ ঘৰত মাংস লৈ আহিবি নেকি
[366.185]
<no-speech>
[367.005]
<sta> এনেই কৈছো এনেই কৈছো তোৰ গালি খাবৰ মন খালি তই বেলেগ আনিব নালাগে দহী বৰা আনিলে চাৰ্ট আনিলে হ'ল
[378.865]
অঁ শুন না (()) ন
[381.805]
<no-speech>
[382.915]
<no-speech>
[383.445]
<no-speech>
[384.265]
ডোগলা
[385.045]
<no-speech>
[387.805]
ওঁ
[388.445]
<no-speech>
[392.045]
এইতো কৰবাত পায় কিন্তু আমাৰ এইখিনি দোকানত কতোৱে নাই <breath> অঁ বাদ দে সেইবিলাক <int>
[396.895]
<no-speech>
[398.085]
<sta> অঁ ফেঞ্চীত পায় এই এইখনত পায় এই তোৰ কি নাম আছিল এইখনত দোকানখনৰ নাম
[403.665]
<no-speech>
[405.015]
মাখন ভোকো মাখন ভোকো (())
[409.495]
<no-speech>
[411.815]
<int> ক'ত পায়অঁতই মোক সেইবিলাক আনি দিব নালাগে তই মোক এটা বস্তু আজি কিন্তু খুৱাবি কেকচেক একদম সঁচাকে কেকচেক খাবৰ বহুত মন গৈ আছে তই মোক
[420.625]
<no-speech>
[422.865]
<sta> অঁ আৰু শুন না দহী বুঢ়া দুটা লৈ আহিবি হাঁ লগতে
[425.955]
<no-speech>
[428.805]
<int> হাঁ হাঁ
[429.655]
<no-speech>
[432.505]
<int> অঁ আচ্ছা ঠিক আছে আৰু শুন না তই হাঁহৰ মাংস খায় ভাল পাৱনে <int>
[436.005]
<no-speech>
[436.845]
<no-speech>
[437.265]
<no-speech>
[438.385]
তই <int> হাঁহৰ মাংস খায় ভাল পাৱনে
[440.085]
<no-speech>
[444.185]
অঁ আৰু গৰু মাংসওঁ ভাল পাৱ নেকি <int>
[447.055]
<no-speech>
[453.775]
<int> হয় নেকি একো নাই (()) একো ডাঙৰ কথা
[460.455]
<no-speech>
[461.295]
<sta> আজিকালিনো কেইটাত ধৰ্ম থাকে তই কচোন
[463.845]
<no-speech>
[467.295]
আছা এইবিলাক চব ফকতীয়া বস্তু মানুহৰ (()) একো
[473.395]
<no-speech>
[476.435]
<no-speech>
[476.965]
<no-speech>
[477.815]
<sta> এইবিলাক মানুহৰ ধৰ্ম চৰ্ম লৈ কোনো কথা নাই আজিকালি কোনেও একো নামানে গম পাইছ
[482.855]
<no-speech>
[491.445]
চম্পা (())
[494.845]
<no-speech>
[495.945]
হেল্লো <sta>
[497.765]
<no-speech>
[498.645]
আজিকালি ধৰ্মৰ কোনো (()) গম পাইছ তই
[501.125]
<no-speech>
[504.505]
তই কি মানুহ কচোন <sta> কি ধৰ্ম আছে
[507.225]
<no-speech>
[509.605]
হয় নেকি <int>
[510.575]
<no-speech>
[511.615]
নকওঁ কথা এইবিলাক ধৰ্ম চৰ্ম বেয়া বস্তু চব এটাই বস্তু হয়
[515.685]
<no-speech>
[516.965]
নম্বৰতো
[517.585]
<no-speech>
[518.585]
<sta> হাঁ
[519.385]
<no-speech>
[520.455]
<no-speech>
[520.805]
<no-speech>
[521.675]
<sta> কি হৈছে
[524.585]
<no-speech>
[525.635]
<sta> কি বস্তু বেয়াকে কৈছে ফেচতো
[528.165]
<no-speech>
[530.005]
<no-speech>
[531.545]
<no-speech>
[533.085]
<sta> কি কি তোমাক বুজি পোৱা নাই
[536.635]
<no-speech>
[539.565]
অঁ
[540.235]
<no-speech>
[543.705]
অঁ তই ইমান শকত হৈছ সেইকাৰণে মই কৈছো বেছি ফেট নহ'বি <breath> ইমান <sta> শকত হ'লেতো মানুহক বেয়া দেখিবয়েই ন
[551.435]
<no-speech>
[557.215]
হয় নেকি অঁ খোৱা লোৱাতো কমাই দিবি তেতিয়া তোৰ ভাল হ'ব ইমান বেছিকে নাখাবি
[561.395]
<no-speech>
[564.865]
<sta> অঁ মানুহ বেছি খাব নালাগে গম পাইছনে খালে চব বেয়া তই যে একেবাৰে
[570.215]
<no-speech>
[572.325]
গাহৰি খাৱ নহয় তই গাহৰি খাব নালাগে
[574.635]
<no-speech>
[581.725]
<sta> অঁ ম'ম খাৱ ন খুব ঢেৰ খাৱনে ম'মটো
[588.835]
<no-speech>
[590.735]
ক'ত আঁ
[591.405]
<no-speech>
[592.595]
<no-speech>
[593.275]
<no-speech>
[594.565]
<sta> মইতো একদম নোৱাৰো তহঁতে ভাত নাখাব বাহিৰৰ বস্তুবিলাক খায় থাক মোৰতো কেতিয়া
[600.0]
