[0.000]
<no-speech>
[0.135]
<sta> হেল্লো
[3.575]
<no-speech>
[4.465]
<sta> হেল্লো অঁ দেউতা ঘৰতে আছা না ঘৰতে আছা
[10.775]
<no-speech>
[12.955]
<sta> গম পাইছনে মই নাচো দে
[14.885]
<no-speech>
[16.785]
<sta> তাকেতো ঘৰতে আছে নেকি বজাৰত গ'লি নেকি
[19.165]
<no-speech>
[21.505]
তাকেতো কিয় অঁ কি ক'ত গৈছিলে আজি দিনতো ঘৰতনে কিয় <int>
[25.315]
<no-speech>
[27.345]
হাঁ <int>
[27.815]
<no-speech>
[30.975]
(())
[34.985]
<no-speech>
[36.045]
মিটিং আছিল নেকি কিবা <int>
[37.275]
<no-speech>
[38.155]
কিবা মিটিং আছিল নেকি <sta> মিটিং আছিল নেকি <no-speech> অঁ নাই
[43.515]
<no-speech>
[44.535]
<sta> অঁ বাবু ক'ত বাবু ভালে আছে
[47.545]
<no-speech>
[49.015]
<sta> ঠাণ্ডা ঠাণ্ডা পৰিছে নেকি আমাৰ তাতে এনেকে
[52.385]
<no-speech>
[55.545]
<sta> অঁ তাৰপিছত কি চুৱেটাৰ তুৱেটাৰ লগোৱা হৈছে না
[59.325]
<no-speech>
[62.745]
<sta> অঁ এইবিলাক হ'বদে তই খালি কথা পাতি থাকচোন আছো এনে আৰু কথা পাতি থাক দে বাকী ঘৰৰ কথা পাতিম ঘৰুৱা কথা পাতিম দে অলপ এই কথা পাতি এই আছোদে আৰু কৰবাত তেওঁ
[74.645]
<sta> তাৰমানে কি এয়েই অঁ কিবা খেতি_বাতি কি কৰিলি কবি ছবি জ্বলা তলা ৰুলি নেকি
[81.615]
<no-speech>
[85.755]
<no-speech>
[86.465]
<no-speech>
[89.915]
<sta> তাতে কি কবি ছবি নলগাই কি কৰিছ এই বিলাক
[92.165]
<no-speech>
[95.295]
অঁ ল কবি বা বেলেগ আলু ৰুবী আলু ৰুবী <sta>
[100.545]
<no-speech>
[101.375]
আলু ৰুবী নেকি এতিয়া (()) জ্বলা চলা ৰুৱা নহ'ব নেকি <sta>
[108.245]
<no-speech>
[109.885]
<sta> কিয় নহয় কি শুনা নাই
[113.815]
<no-speech>
[114.785]
<sta> বা ওলকবি <int> ওলকবি
[119.835]
<no-speech>
[120.825]
<sta> অঁ ল কবি অলপ (()) অঁ ল কবি অঁ ল কবি কবি
[125.305]
<no-speech>
[129.415]
<no-speech>
[129.785]
<no-speech>
[132.735]
<sta> অঁ ল কবি কি তানা টানি অঁ ল কবি পেলাব পাৰিলি (()) দি
[137.975]
<no-speech>
[142.015]
<sta> দাম আছে চবজি বিলাকৰ
[145.805]
<no-speech>
[149.775]
<sta> অঁ ডাঙৰ হৈছিল আলুৰ আলু কিমান ল'লে আলুৰ খেতি কৰক
[154.955]
<no-speech>
[156.765]
<no-speech>
[157.135]
<no-speech>
[161.045]
অঁ গৰু হাল কি তাকেতো মই সিদিনা গম (()) ক'ত কিমান দূৰ উঠিলি
[165.975]
<no-speech>
[172.405]
কিহেৰে নিছে দালালে <int>
[174.735]
<no-speech>
[177.855]
<sta> পাঁচশ মান টকা খাইছে (())
[179.795]
<no-speech>
[182.965]
এটা <int>
[183.715]
<no-speech>
[184.575]
<no-speech>
[184.945]
<no-speech>
[186.675]
অঁ ইয়া ল সৰু আনিছ এটা অঁ <int>
[188.575]
<no-speech>
[190.355]
আঁ দুই হাজাৰ টকা পাইছা চাৰে চাৰে হাজাৰ ধৰি চাৰে আঠ এটা বেলেগত আনিছা আৰু
[195.355]
<no-speech>
[197.355]
ভালনে দমৰা এইতো দমৰা কৰ পৰা আনিছা <int>
[199.535]
<no-speech>
[200.395]
<sta> জাতৰ ভাল জাৰত হেৰিতো হাঁ বোলো গৰুটো ভাল জাতৰ না কাৰ পৰা আনিছা মিয়াৰ পৰা আনিছা নেকি
[209.885]
<no-speech>
[214.155]
<sta> এই বজাৰৰ পৰা আনিছা
[215.855]
<no-speech>
[218.595]
<sta> কেই কি কি আছে তাতে হেৰি এই বাটটোৰ কামটো অলপ আৰম্ভ কৰিব লাগিছিলে নাই কি নেকি কৰিব সুজিছা
[226.895]
<no-speech>
[233.835]
ধান পকিছে নেকি (()) কাটিছে নেকি <sta>
[238.915]
<no-speech>
[239.875]
<sta> (()) আনিলি
[242.455]
<no-speech>
[243.815]
হাঁ <int>
[244.215]
<no-speech>
[245.355]
<sta> আৰু আমাৰ এই ফালে ধান কাটিছেনে আমাৰ (())
[248.975]
<no-speech>
[253.405]
<sta> অঁ
[255.465]
<no-speech>
[256.355]
<sta> এতিয়া মাৰাতো কি (()) এতিয়া <hes> মৰণা মাৰাতো নহ'ব আগতে
[261.625]
<no-speech>
[263.805]
<sta> কোবাই কোবাই লাষ্টত অলপ মাৰি থবি (()) হাঁ
[267.875]
<no-speech>
[271.255]
<sta> এৰাতি এনেকে ভালকে নোথোৱা পানী চানি নষ্ট হৈছে অলপ ভালকে থবি (()) লাগেতো
[277.425]
<no-speech>
[280.925]
<sta> অঁ
[282.735]
<no-speech>
[284.545]
<sta> পইছাখিনি খৰছ নকৰিবি এতিয়া পিছা কামত লাগিবতো সেইকাৰণে বাথৰুমটো হেৰি কৰিব লাগে
[290.715]
<no-speech>
[295.325]
তাকেতো <sta> কামটো ইয়াতে এই থান চান মাৰাতো টাইম লাগিব অলপ নেকি
[301.745]
<no-speech>
[302.645]
থান চান মাৰাতো টাইম লাগিব নেকি <sta>
[306.355]
<no-speech>
[308.745]
নাই অফিচত (())
[311.875]
<no-speech>
[313.555]
<sta> অঁ তাৰমানে যে কথা হ'ল কি চেনাই কিবা ফোন কৰিছিল নেকি তোক চেনাই কৰা নাই ফোন
[322.425]
<no-speech>
[326.845]
<sta> তাকেতো <no-speech> পোন্ধৰ তাৰিখে আহিবি হাঁ
[334.175]
<no-speech>
[339.865]
<sta> এ সি লগৰ ল'ৰাৰ লগত আছেতো কিয় হোটেল লাগে তাক
[344.055]
<no-speech>
[348.555]
<sta> লৈছে ৰুম ল'লে সি এটা লগৰ তাতে আছে লগৰ এটা আছে
[352.685]
<no-speech>
[353.895]
<sta> মোকে কোনে দিলে আগতে এইতো আৰু (()) তাতে ডেট পালিনে নাপালি
[359.435]
<no-speech>
[360.605]
চাহ চামোচ
[361.305]
<no-speech>
[362.295]
<no-speech>
[362.845]
<no-speech>
[365.545]
<sta> তেনে এনে লৈছে সেইখিনিতে ল'ব আৰু সেই ব্ৰেকত ল'ব আজিকালি ব্ৰেকত গেছ লোৱা মানে কি বাৰশ টকা হৈছে এতিয়া পোন্ধৰশ টকাকৈ লৈছে আৰু হেৰি এই
[376.195]
<no-speech>
[382.205]
<sta> এই এটা ঘটনা গম পাইছনে নাই আমাৰ যে গেছখন আমাৰ যে গেছতো আছে ঘৰৰ তাৰে কাগজ পত্ৰ জমা দিব ল'গা হৈছে (()) আমাৰ তাতে এটা হৈছে লৈছেনে লৈ আছে গমপোৱা নাইনে নাপাৱ
[394.035]
<no-speech>
[397.705]
দি দে নহয় আমাৰে জমা দিব লাগিব ঘৰৰ কাগজ পত্ৰ দি দিবি <sta>
[403.105]
<no-speech>
[407.015]
<sta> আজিয়ে নহয় এইতো পোন্ধৰ তাৰিখ <foreign> (()) এই অহা পোন্ধৰ তাৰিখে <foreign> তাৰ আগতে দিবি নহ'লে কৰ্ডখন কটা যাব সেইকাৰণে দিবা
[418.905]
(()) তাৰিখ এই আমাৰ ইয়াতে মোৰতো নানেই এই <foreign> দিলা তাতে জমা কালি যোৱাকালি দিলে সিয়েওঁ নহ'লে পুৰণা কাট কটা যাব
[430.585]
<sta> কিমান ল'ব
[432.885]
<no-speech>
[437.805]
<sta> এইতো <foreign> কাৰণে ফটো দিবি বা হেৰি দিব লাগে ৰেচন কাৰ্ড ভোটৰ আই_ডি কাৰ্ড দিলে হয় এতিয়া মামণি নামতে আছে ন সেইখন
[449.355]
<no-speech>
[450.695]
<no-speech>
[454.125]
তাত বেঙ্কৰ তাতে বেঙ্কৰ পাচবুক আছে নহয় বেঙ্কৰ পাচবুক আছে নহয় <sta>
[458.555]
<no-speech>
[460.015]
বেঙ্কৰ পাচবুক দিলে হ'ব তাত এখন ফটোষ্টেট কৰি দিবি চব চব বস্তু ফটোষ্টেটে দিবি <sta>
[465.285]
<no-speech>
[466.815]
<sta> এতিয়া তাৰমানে জমা লৈ আছে এই পোন্ধৰ তাৰিখে লাষ্ট ডেট সোনকালে দিবা দি
[476.055]
<no-speech>
[477.645]
<sta> অঁ দি দিয়ে সেইটোকাৰণে মই তাকে মই সুধিব লৈছিলো আৰু এনেকুৱাই কথা
[483.725]
<no-speech>
[484.865]
<sta> এই কৰিবি কাগজখিনি দি গলু (()) ধান কেনেকুৱা হৈছে বোলো ভালে হৈছেনে
[492.135]
<no-speech>
[493.535]
<no-speech>
[493.885]
<no-speech>
[496.805]
<sta> পিছে তে তোৰো (()) পানী চানি বা হেৰিতো ভালে হ'ব লাগে না <no-speech> তাকে আৰু সেইকাৰণে বোলো
[505.415]
<no-speech>
[506.475]
<sta> এইকেইদিন আৰু হেৰি কৰিব হাঁ
[509.125]
<no-speech>
[512.745]
<sta> অঁ তাকেতো
[514.135]
<no-speech>
[517.885]
<sta> এতিয়া ধানখিনি ভালকে শুকাই চুকাই শুকাই চুকাই থবি কাঠে কাঠে নথবি
[523.795]
<no-speech>
[524.665]
<sta> অঁ এনে শুকাই চুকাই থ'ব লাগে আৰু এনেইতো বৰতো ভালে ন এতিয়া অঁ ল কবি অলপ দিব পৰা হ'লে ভাল আছিল অঁ ল কবিৰ মাতি কি নাইয়ে নেকি
[533.745]
<no-speech>
[534.755]
<no-speech>
[535.255]
<no-speech>
[536.575]
এতিয়া আহিলি <int>
[538.545]
<no-speech>
[542.925]
<no-speech>
[543.815]
<no-speech>
[546.005]
<no-speech>
[546.765]
<no-speech>
[548.495]
<sta> এইটোতো হৈয়েই হেৰি অলপ হেৰি কৰা হ'লে ভালে আছিল আৰু ক'লে কবি তই যদি একো নকৰ বেলেগে চবে কৰিছে কবি গ'লে চবে কৰে আমাৰতো একো নকৰে
[559.475]
<no-speech>
[562.885]
<no-speech>
[563.395]
<no-speech>
[564.855]
<int> এতিয়া ভালকে কৰ খেতি বিলাক তেতিয়া হ'লে ভাল হ'ব
[568.075]
<no-speech>
[570.905]
<sta> অঁ
[572.675]
<no-speech>
[574.805]
তাকেতো গৰু দুটা হেৰি কৰিবি ঘাঁহ খুৱাবি দমৰা দুটা আৰু (()) এই দুটা গাইটো হেৰি দিব পৰা হোৱা নাই একো <no-speech> দেৰি আছে
[586.625]
<no-speech>
[590.605]
<sta> অঁ এতিয়াতো ঘাঁহ চাহ হৈছে ঘাঁহ চাহতো ঘাঁহ চাহ
[598.075]
<no-speech>
[600.020]
