[0.000]
<no-speech>
[2.415]
<sta> আজি কিহেৰে ভাত খালা
[3.915]
<no-speech>
[4.955]
<int> <lipsmack> আজি কিহেৰে ভাত খালা
[7.015]
<no-speech>
[10.725]
<sta> ইয়ে ৰাম আজি ৰবিবাৰে কিয় নিৰামিষ
[13.025]
<no-speech>
[15.265]
হয় নেকি <int> অঁ আমিও কনি খাইছো অৱশ্যে
[19.045]
<no-speech>
[21.635]
হেল্লো আজি <hes> পেহা আহিছে ন
[23.495]
<no-speech>
[25.395]
আজি সুধিছিল
[26.365]
<no-speech>
[28.445]
<sta> এই কি আজি আহি পাইছে
[30.085]
<no-speech>
[32.015]
<sta> হয় নেকি দুদিনমান থাকিবনে
[33.605]
<no-speech>
[36.195]
অঁ <cough> বাকী আজৰি হ'লা
[39.185]
<no-speech>
[41.365]
<sta> হয় নেকি আজি কি
[42.725]
<no-speech>
[44.195]
<int> অঁ মাহঁতে গাই আছে আজি কোনে ভাত বনাইছে
[46.905]
<no-speech>
[48.855]
মাহী আছেনে গ'লগৈ
[50.215]
<no-speech>
[53.765]
অঁ অঁ <breath> বাকী আজি এইক আনিলে ন ঘৰত
[57.565]
<no-speech>
[58.835]
<int> এইক আনিলে ন ঘৰত
[60.565]
<no-speech>
[62.195]
<int> এইক পুত পুত- পুত পুতিক আনিলে ন
[64.175]
<no-speech>
[66.065]
<cough> গৈছিলানে তুমি ঘৰত
[67.705]
<no-speech>
[69.895]
অঁ গৈছিলানে সিহঁতৰ ঘৰলৈকে <int> যোৱাই নাই
[72.225]
<no-speech>
[76.935]
<sta> অঁ
[77.525]
<no-speech>
[81.905]
<no-speech>
[82.315]
<no-speech>
[83.225]
অঁ এতিয়া থাকিব আৰু এতিয়া চেলাইন টেলাইন পৰি আছে যেতিয়া চিন্তা নাই <int> <cough> বাকী আৰু কি ক'ব ওলাইছিলো ৰ'বা এই <hes> বাবু কি কৰি আছে
[91.295]
<no-speech>
[93.875]
হয় নেকি <int> তোমালোকৰো ক্লাচ চলি আছে ন
[97.435]
<no-speech>
[100.105]
অঁ ঠিকেই আছে দিয়া <breath> পৰীক্ষা কেতিয়ানো
[102.775]
<no-speech>
[108.605]
অঁ আৰু এইতো এই ফাইনেলতো <cough>
[111.105]
<no-speech>
[112.715]
অঁ জুনত হ'ব ন <breath> এইবাৰতো তুমি ছেকেণ্ড চেমিষ্টাৰ পাবা ছাগে ন
[116.295]
<no-speech>
[118.565]
<int> অঁ ঠিকে আছে দিয়া আৰু <hes> <cough> ৰুমটোৰ কামতো শেষ হোৱা নাই ছাগে ন অঁ
[125.455]
<no-speech>
[126.925]
বাকী সেই আমাৰ <int>
[128.575]
<no-speech>
[129.875]
<int> অঁ
[130.505]
<no-speech>
[132.045]
<sta> এই আমাৰ ভাত বনাব গৈছেহে এতিয়ালৈকে মায়ে মানে গৈছে আৰু বনোৱাই নাই
[137.905]
<no-speech>
[139.315]
আছে আজি তাৰমানে সিহঁত দুটাই মা আৰু চিম্পী সেইত গৈছিলে তোমাৰ দৌলগোবিন্দ মন্দিৰত গৈছিলে <int>
[144.195]
<no-speech>
[146.325]
তাৰপিছত আহোতে দেৰি হৈ গ'ল আজি বোলে বহুত মানুহ আছিল মাঘৰ মাহ যে <breath> তাৰপিছত সেইকাৰণে ভাত_পানী আহোতে আহি কিনে ভাত ছাত খাইছে দৈৰি হৈছে এতিয়া শুই আছে আহি কিনে মই আফিচ <breath> মোৰ কাম আছিলে অলপমান ওলাই গ'লো
[158.305]
স্কুলত আহি কিনে শুই আছে <breath> এই অলপ আগতে উঠিছে এতিয়া উঠি কিনে ভাত বনাব আৰু
[163.015]
<no-speech>
[165.215]
<sta> এইয়া বাকী পেহী কি কৰি আছে
[167.165]
<no-speech>
[170.155]
অঁ তাতে <breath> এই আইতা আছে ন
[172.255]
<no-speech>
[177.465]
<sta> হয় নেকি অসুখ কাৰণে গৈছে
[179.365]
<no-speech>
[181.045]
অঁ <int>
[181.545]
<no-speech>
[185.185]
<sta> অঁ অঁ
[185.955]
<no-speech>
[188.265]
<int> ওঁ
[188.815]
<no-speech>
[190.865]
ঠিকে আছে
[191.815]
<no-speech>
[194.075]
<sta> আৰু বাকী খবৰ পাতি কোৱা কি খবৰ হেৰি বায়ে ফোন কৰিছিলে নে কৰা নাই
[199.525]
<no-speech>
[202.285]
<sta> তাৰপিছত আছে
[203.415]
<no-speech>
[205.365]
এতিয়া কিবা প্ৰজেক্ট চলি আছে নেকি মানে কি <hes> হেৰি কলেজৰ
[209.765]
<no-speech>
[215.215]
ওঁ <breath> অহা নাই দেখোন আমাৰ ফালেও দেখোন অহা নাই
[219.075]
<no-speech>
[222.825]
<sta> অঁ টাইম পোৱা নাই নেকি
[224.465]
<no-speech>
[226.525]
<lipsmack> সেইয়া আৰু বাকী কি ক'ব ওলাইছিলো ইহঁতে আছে ঠিকেই <hes> পংকজ খুড়াহঁত
[230.825]
<no-speech>
[232.515]
<sta> পংকজহঁত আছে ঠিকেই
[233.875]
<no-speech>
[236.345]
<sta> গৈছনে তই যোৱা নাই
[237.535]
<no-speech>
[240.085]
<sta> <laugh> (()) হয় দিয়া কতনো যোৱা <breath> এই পঢ়াশুনা (())
[246.635]
<no-speech>
[249.375]
<int> চিঞঁৰ বাখৰ হুলস্থূল হৈ যায় ন
[251.405]
<no-speech>
[252.305]
<int> জমনিও লাগে কিন্তু ভালো লাগে কিন্তু ন টাইম পাচ হৈ যায় <int> কেতিয়াবা তোমাৰ যদি মন চন বেয়া লাগি থাকে তাতে যাই যদি অলপ সময় বহী আহা মাইণ্ডতো এণ্টাৰটেইনমেণ্ট এটা হৈ যায়নে সঁচাকে কোৱাচোন
[263.175]
<no-speech>
[265.015]
জমনি জমনি হৈ যায় আৰু একেবাৰে কাৰ কথা চাবাচোন <int>
[268.245]
<no-speech>
[270.485]
<sta> অঁ ই ভগৱান চিঞঁৰ বাখৰ চূপ চূপ চূপ হেই হাল্লা কৰক হাল্লা কৰক বাপৰে বাপ (())
[276.425]
<no-speech>
[278.275]
<no-speech>
[279.205]
<no-speech>
[280.145]
<breath> অঁ কিবা শুনিলো কিন্তু কিবা কিহৰ বন্ধ কোৱাচোন বন্ধ হ'লেতো ভালেই পাওঁ ৰ'বা
[284.785]
<no-speech>
[289.245]
<sta> হয় নেকি
[290.205]
<no-speech>
[291.115]
মানে <hes> ইফালে গুৱাহাটীৰ ফালে গুৱাহাটীৰ ফালে বা বন্ধতো আকৌ হয়নে নহয়
[295.925]
<no-speech>
[296.745]
<no-speech>
[297.455]
<no-speech>
[298.985]
বন্ধ হ'লে বন্ধ হ'লেতো ভালেই হয় <breath> তোমালোকৰ ক্লাছবিলাক হৈয়ে আছে ন
[302.815]
<no-speech>
[305.085]
অঁ <int>
[305.605]
<no-speech>
[307.615]
অঁ তোমাৰ টি_ভিতো বন্ধ হৈ আছে ভয়ো লাগে দিয়া আজিকালি হয়নে <breath> এই কি সেইদিনাখন (()) কিবা হুলস্থূল লাগিছিলে
[314.105]
<no-speech>
[317.205]
<sta> ওঁ চলে ন
[318.345]
<no-speech>
[322.755]
<sta> অঁ বাপুজী নগৰতো নছলে বাপুজী নগৰ ন- বাপুজী নগৰত নছলে
[327.575]
<no-speech>
[332.435]
<sta> অঁ ওঁ
[334.455]
<no-speech>
[335.605]
অঁ <int> <lipsmack> <breath> এই এইকেইদিন যে বন্ধতো আছিল যে বাসত্তৰ ঘন্টীয়া তে সেইটোও বন্ধত চলিছিলেনে চলা নাই তোমালোকে কি কলেজত গৈছিলানে
[344.545]
<no-speech>
[347.015]
<sta> অঁ কম চলিছে ন
[348.355]
<no-speech>
[349.565]
<sta> অঁ মানে কলেজতো যোৱা নাই ছাগে
[351.345]
<no-speech>
[354.235]
অঁ বন্ধ তাকেতো সেইটোও কাৰণেতো পূজাত যাব নোৱাৰিলো বন্ধ কাৰণে ভয় লাগে এদিন গ'লে আৰু দশদিন ফচি যাব লাগে <breath> নহ'লে পূজাত গ'লোয়ে হেঁতেন
[361.615]
<no-speech>
[362.655]
ইমান বন্ধ দি থাকে নহয় একেবাৰে ভাল নালাগে <int>
[366.585]
<no-speech>
[370.355]
<sta> কিহৰ বন্ধ আকৌ বন্ধ দিব
[371.995]
<no-speech>
[374.475]
<no-speech>
[377.525]
<no-speech>
[379.365]
অঁ <breath> তাকেতো সেইদিনাখনেই দ্বাৰকাতো বোলে তামাম হুলস্থূল গ'ল একেবাৰে নিউজ লাভতে আহি গৈছে
[384.925]
<no-speech>
[386.105]
<int> নিউজ লাভতে আহি গৈছে বোলো হুলস্থুলৰ কথা
[389.295]
<no-speech>
[390.875]
ইমান হুলস্থূল হৈ <int> গৈছে
[392.515]
<no-speech>
[394.565]
<sta> অঁ অঁ কালি কৰবাত সেইফালে ইমান মানে এই জাগাখন সঁচাই (()) খন ইমান ফাল্টু হৈ গৈছে নহয় অশান্তি ল'গা হৈ গৈছে আৰু
[401.295]
<no-speech>
[402.255]
একদম লেতেৰা হৈ গৈছে চবফালৰ পৰা ভাল নালাগে
[405.325]
<no-speech>
[408.535]
অঁ কিয়বা <int> অত্যাচাৰী হৈ গৈছে সিহঁতে ইমান ভাল নালাগে
[412.455]
<no-speech>
[413.575]
<sta> খং উঠি আহেঁ
[414.725]
<no-speech>
[416.005]
<int> লাগে
[416.545]
<no-speech>
[419.485]
অঁ গাড়ী চাড়ী জ্বলাই দিয়ে যে সেইটোও এটা বেয়া লাগে মানে গাড়ী চাড়ী জ্বলাই দিলে একেবাৰে অঁ সেইটোও কাম কৰিব নালাগে ন বেলেগ যি কৰ কৰ গাড়ী চাড়ী কিয় জ্বলাই দিব লাগে <int>
[429.555]
<no-speech>
[432.775]
অঁ সেইটোয়েইতো গতিকে যায় কি লাভ কেইটামান ল'ৰা_ছোৱালীক লৈতো মানুহে ক্লাচ নকৰে অঁ কিয় হ'ব <breath> ওচৰত কেইটা ল'ৰা_ছোৱালী আহেঁ দূৰৰ পৰাহে <foreign> ল'ৰা_ছোৱালী আহেঁ আৰু তোমাৰ সেই দশ বাৰটা ল'ৰা
[444.555]
ছোৱালীক লৈতো কোনেও ক্লাচ নকৰে <int>
[446.245]
<no-speech>
[447.355]
আৰু <breath> প্ৰফেচাৰ বিলাক যদি দূৰৰপৰা আহেঁ সিহঁতেওতো অলপ আহিব ভয় কৰে হয়নে <hes> বন্ধৰ দিনত
[452.605]
<no-speech>
[453.805]
কাৰণ গাড়ী চাড়ী লৈ অহাৰ কথাতোতো অলপ ভয় ল'গা কথা আৰু <sta> অঁ সেইটোয়েই চবেই ভয় খায় ইয়াতে যি উগ্ৰ মূৰ্ত্তি ধৰে গাড়ী চাড়ী যদি জ্বলাই দিয়ে
[462.665]
<no-speech>
[464.185]
<breath> সেইটোকাৰণে <dtmf> সিহঁতেও নাহে
[466.285]
<no-speech>
[467.835]
সেইয়া আৰু সেইটোৰ কাৰণে ভয় খায় অৰু চবেই <breath> বাকী বায়ে কেতিয়া যাম বুলি কৈছে আৰু
[472.625]
<no-speech>
[474.335]
<int> বায়ে আৰু ঘৰত যাম বুলি কৈছে
[476.265]
<no-speech>
[480.845]
অঁ তাৰো ক্লাচ চ্লাছ <lipsmack> হৈ আছে নহয় পৰীক্ষা পাতি হ'ব ছাগে আৰু <int>
[486.615]
<no-speech>
[487.925]
ঠিকে আছে বাকী পেহাই ভাত খালেনে খোৱা নাই <dtmf>
[492.085]
<no-speech>
[493.275]
<lipsmack> অঁ ঠিকে আছে দিয়া তুমি <hes> তুমি সেই <hes> কি খায় ভালপোৱা চয়াবিন খায় তুমি চয়াবিন খায় চয়াবিন খায় ভালপোৱা
[501.765]
<no-speech>
[505.255]
মইও ভাল নাপাওঁ একদম ভাল নালাগে খায় কেনে <int>
[507.695]
<no-speech>
[508.565]
<no-speech>
[508.925]
<no-speech>
[510.635]
<sta> ওঁ অঁ আজি তাৰমানে পেহা আহি কিনে বজাৰ কৰিব যোৱা নাছিলে
[514.495]
<no-speech>
[516.595]
<sta> অঁ
[517.305]
<no-speech>
[518.755]
<sta> এতিয়া মানে ইংলিছ মাছখোৱা নহ'ল আৰু ন
[521.605]
<no-speech>
[522.465]
<no-speech>
[523.115]
<no-speech>
[523.915]
<int> ৰ
[525.165]
<no-speech>
[526.365]
<breath> আতাৰ মানে <breath> আহি কিনেতো একদম বজাৰত যাবি ওলায় কিবা এটা খায় কিনে
[531.855]
<no-speech>
[533.305]
<int> আজি আৰু নগ'ল আৰু
[534.765]
<no-speech>
[536.695]
<sta> ঠিকে আছে দিয়া বেছি ইংলিছ মাছ খুৱাও বেয়া
[538.985]
<no-speech>
[540.115]
পেটলী হৈ যাবা <dtmf> <breath> তুমি খীণাইছা নে শকত হৈছা
[543.955]
<no-speech>
[546.315]
ওঁ <int>
[546.925]
<no-speech>
[547.925]
<int> হয় নেকি <breath> তোমাৰ যদি ক্লাচ <hes> কি পৰীক্ষা যদি <hes> দেৰিকে আছে কেইদনমান ফুৰিব আহিবা আমাৰ ঘৰত থাকিবাহি
[553.795]
<no-speech>
[557.745]
ই হয় তেনেকে নালাগে আহিব কাৰণে এদিনৰ কাৰণে <int> <dtmf> এই এদিনৰ কাৰণে কি আৰু আহি অকল ৰাতিতো থকাৰ নিচিনাহে হয় থাকি কিনে গুছি যোৱা হয় ভাল নালাগে আমাৰ
[567.975]
অঁ আমাৰো ভাল নালাগে ন এনেকে আহিলে <int>
[570.635]
<no-speech>
[573.185]
<lipsmack> আৰু তুমি এনেকুৱা কৰিবা তোমাৰ যদি কিবা এনেকুৱা বন্ধ থাকি যায় তুমি তেতিয়া গুছি আহিবা আমি লাগে থ'ব <hes> থ'ব যোৱাত আপত্তি নাই গুছি যাম
[579.985]
<no-speech>
[585.715]
<sta> এনেই নিদিয়ে ন আজিকালি কলেজ বিলাক অলপমান ষ্ট্ৰিক্ট হৈ গৈছে ন বন্ধ চন্ধ নিদিয়ে
[591.105]
<no-speech>
[593.095]
<sta> ওঁ
[593.815]
<no-speech>
[594.785]
<sta> অঁ নাই আজিকালি ষ্ট্ৰিক হৈছে আৰু ৰুল ৰেগুলেচন বিলাক চব বদলাই বদলাই দিছে
[598.74]
