[0.0]
<no-speech>
[2.545]
<sta> <no-speech> nghe được chưa <no-speech> cười cái gì mà cười <no-speech>
[14.185]
<sta> a lô <no-speech> ư <no-speech> mãi không thấy nói <no-speech> vừa anh a lô mãi chả thấy ai nói gì <no-speech> thế giờ đang ở chỗ nào <no-speech>
[25.665]
<sta> <no-speech> anh giờ mới đang <no-speech> ơi <no-speech> ơi <no-speech> hử <no-speech>
[37.565]
<sta> <no-speech> anh vẫn đang nghe mà <no-speech> ư sao <no-speech> sao tự nhiên khó nghe thế <no-speech>
[49.535]
<no-speech> <sta> thế thì em máy em có vấn đề rồi <no-speech> nói tiếng được tiếng không <no-speech> anh chả nghe thấy em nói <no-speech> tiếng kèn kẹt ra <no-speech> giờ nghe rõ ra một tí rồi <no-speech>
[61.335]
<sta> <no-speech> anh giờ bắt đầu đang <no-speech> về đi uống cà phê với bạn <hes> hôm nay bạn nó <hes> được *lộc* nên là <hes> nó mời uống cà phê <no-speech> giờ đang đi *lang* thang <no-speech> đi về đây
[72.415]
<sta> thế mấy giờ em về <no-speech> khoảng mấy giờ em về <no-speech> chín rưỡi mới được về á
[84.135]
<sta> <no-speech> úi giời sao nghe khó nghe lắm <no-speech> cái máy cái máy này là máy bàn à
[96.115]
máy bàn <sta> <no-speech> à ừ ừ ừ <no-speech> ừ hỏi như thế
[107.505]
ừ <sta> <no-speech> ừ <cough>
[118.695]
<sta> ơi <no-speech> ừ <no-speech> ừ <no-speech> đây đây đợi đợi anh khoảng nửa tiếng nữa đang về trên đường làng rồi
[130.095]
<sta> ừ <no-speech> đợi anh đúng một phút nữa thôi <hes> anh đang đi xe máy <no-speech>
[140.365]
ừ anh không tắt đi đâu <no-speech> <sta> anh vẫn để mà <no-speech> nhưng mà <no-speech> trong độ <no-speech> độ khoảng một phút nữa là <hes> không có người nữa <no-speech> vợ hắn đang ngồi trên xe đây này <no-speech> sắp về đến đầu làng rồi <no-speech>
[151.435]
<sta> giờ độ khoảng hai trăm mét nữa thôi <no-speech> nhé đợi anh một tí nhé <no-speech> ừ <no-speech> ừ giờ giờ nghe mới rõ m-
[163.285]
<sta> thi phải giải thích chậm chà chậm chịch <no-speech> tao tao tao xuống là tao xuống <no-speech> sắp về về tới đầu làng rồi <no-speech>
[175.225]
<no-speech>
[176.195]
<no-speech>
[177.605]
<sta> ừ <no-speech> đây <no-speech> hả cháy rồi
[189.555]
<sta> ừ <no-speech>
[192.885]
<no-speech>
[194.855]
sáng sớm anh đi <no-speech> anh làm gì có chương trình gì <hes> xuống người này người kia một tí <sta> <cough>
[206.585]
sang đấy mà ngồi <hes> chuyện lâu lắm chứ
[209.655]
<no-speech>
[210.785]
sang tí <hes>
[211.525]
<no-speech>
[212.895]
<sta> đi với người yêu thì phải ngồi lâu chứ <no-speech> đi với bạn đâu mà
[220.575]
<no-speech>
[221.645]
ứ ví dụ đi với người yêu thì phải ngồi lâu chứ <no-speech> ngồi bọn <sta> con trai em một tí lại chán lại về
[228.535]
<no-speech>
[229.625]
về ngồi đầu làng tí cho nó mát mát chốc rồi đi bộ về nhà <no-speech> ngủ <no-speech> <sta> tí
[241.605]
<sta> hôm nay chắc có thằng Linh về <no-speech> ít ít muỗi rồi <no-speech> nhà trên giờ ít ít muỗi rồi
[248.435]
<no-speech>
[249.355]
<no-speech>
[249.875]
<no-speech>
[251.585]
<sta> hử <no-speech> thì thằng Linh nhà ở bên cạnh nhà ừ <hes> <cough>
[262.475]
nhà gần đấy <no-speech> chó <hes> <sta> thấy người nó cắn <no-speech> <int> mà anh cứ ra <no-speech> anh đứng <no-speech> anh đứng ở đường <no-speech> mỗi lúc căng thẳng anh đứng <no-speech> anh ra đây ngồi
[274.305]
<sta> thế <hes> thế mày <hes> nói chuyện bao nhiêu thì mày cắt đi <no-speech> à <hes>
[285.985]
<sta> hử <no-speech> à <no-speech>
[289.585]
<no-speech>
[293.225]
<no-speech> ơ <hes> <sta>
[294.235]
<no-speech>
[296.375]
<sta> <laugh> nghỉ được rồi <no-speech> cái Hảo nó cho tớ
[306.855]
<no-speech>
[308.325]
<no-speech>
[312.365]
<no-speech>
[313.805]
<sta> cái gì
[316.065]
<no-speech>
[317.775]
<no-speech>
[318.245]
<no-speech>
[319.325]
làm những gì đấy
[320.595]
<no-speech>
[321.475]
<no-speech>
[322.115]
<no-speech>
[323.365]
cứ làm như nhiều tiền <hes> bẩy chục bẩy chục mà cũng khoe <sta>
[331.235]
<no-speech>
[333.885]
<no-speech>
[334.235]
<no-speech>
[337.145]
ba người lĩnh lương có hai thế <hes>
[338.415]
<no-speech>
[339.555]
ba người <no-speech> ba người lĩnh lương có hai <no-speech> còn nhiều tiền như anh ấy <no-speech> bây giờ ở nhà đi làm chỉ có trăm hai một ngày thôi <sta>
[347.545]
<no-speech>
[348.925]
mà ở nhà giờ đi làm chỉ chỉ có trăm hai một ngày thôi <hes> nhưng em đi làm trăm tư một ngày thế là ngon quá <no-speech> còn gì
[355.195]
<no-speech>
[357.035]
<no-speech>
[357.665]
<no-speech>
[362.785]
à <no-speech> em tưởng lĩnh lương <no-speech> cả tháng <no-speech> em tưởng <no-speech> ừ thế mà nếu mà nửa ngày thế thì <hes> việc nó có đều không
[369.825]
<no-speech>
[371.905]
<no-speech> việc nó có đều không
[373.195]
<no-speech>
[377.815]
<no-speech>
[378.225]
<no-speech>
[379.885]
<no-speech>
[380.345]
<no-speech>
[382.185]
<sta> coi như tháng có được <hes> chục buổi không <no-speech> <laugh> thì anh thấy <hes>
[394.035]
<no-speech> ừ <sta>
[396.885]
<no-speech>
[400.955]
ừ <hes> thí dụ <no-speech> cứ đi như em đã học thế <no-speech> thì <no-speech> người nào cũng chỉ học nửa ngày thôi <no-speech> đúng không
[410.335]
<no-speech>
[412.215]
<sta> có vài kinh nghiệm nhé <no-speech> lần trước ờ <hes> anh thấy thằng Khánh <cough> anh thấy thằng Khánh nó đi học ấy <no-speech> nó toàn làm thêm suốt <no-speech> thế cho nên rằng là <no-speech> tháng nó cũng kiếm thêm được một vài triệu
[423.975]
<no-speech>
[425.905]
<no-speech>
[427.085]
<sta> thì ở ngoài đấy anh cũng thấy <hes> ở gần đình <no-speech> thành phố thì thấy thành thị rồi <no-speech> <hes>
[438.905]
<no-speech>
[442.405]
<no-speech>
[443.275]
<sta> nhưng ở ngoài đấy <no-speech> ở ngoài đấy <no-speech> chắc là <no-speech> chắc là lắm sinh viên nhỉ <int>
[449.275]
<no-speech>
[450.465]
<no-speech>
[452.695]
<no-speech>
[456.175]
<sta> ừ <no-speech> cái trường ấy thực ra chỉ toàn con gái học <no-speech> chứ làm gì có con trai <no-speech> hôm nao <hes> học xong thì <no-speech> ra ngoài tha hồ <no-speech> đầy con trai
[467.955]
<no-speech>
[471.125]
<no-speech>
[472.325]
<no-speech>
[472.735]
<no-speech>
[477.175]
<no-speech>
[477.875]
<no-speech>
[481.485]
<no-speech>
[481.895]
<no-speech>
[482.825]
<no-speech>
[485.045]
<no-speech>
[493.21]
<no-speech>
[501.375]
<no-speech>
[501.735]
<no-speech>
[502.605]
<no-speech>
[503.465]
<no-speech>
[505.715]
<no-speech>
[506.195]
<no-speech>
[508.195]
<no-speech>
[509.675]
<no-speech>
[512.845]
<no-speech>
[513.665]
<no-speech>
[514.534875]
<no-speech>
[515.385]
<no-speech>
[516.505]
<no-speech>
[520.875]
<no-speech>
[521.904875]
<no-speech>
[522.314875]
<no-speech>
[532.365]
<sta> thế đi học <no-speech> học sắp thi hết <hes> kì chưa
[537.405]
<no-speech>
[538.625]
<no-speech> thế tháng mấy tháng mấy nghỉ ôn thi
[540.055]
<no-speech>
[543.435]
<no-speech> mùng một tháng sáu á <no-speech>
[544.765]
<no-speech>
[546.085]
mùng một tháng sáu năm nay <hes> là ba mấy tháng tư nhỉ <no-speech> à hôm nay hai mấy rồi
[550.875]
<no-speech>
[554.275]
hôm nay mùng bẩy <no-speech> mùng bẩy <hes> thế thì còn tháng rưỡi nữa cơ à
[557.655]
<no-speech>
[561.625]
<no-speech> học xong <hes>
[562.875]
<no-speech>
[564.035]
học xong thi <hes> thi hết <hes> hết kì xong là có được nghỉ hè không
[569.415]
<no-speech>
[571.025]
<no-speech> nghỉ hè
[571.545]
<no-speech>
[577.705]
<no-speech>
[578.175]
<no-speech>
[582.405]
ừ <no-speech> thế là bây giờ em <no-speech> năm thứ hai rồi <cough> <sta> <no-speech> năm nay <no-speech> năm nay năm thứ hai <no-speech> thế còn một năm nữa ra trường
[593.535]
<sta> thế thì <hes> <cough> thế em học em học
[600.025]
<no-speech>
[600.08]
