[0.0]
<no-speech>
[5.165]
<no-speech>
[5.555]
<no-speech>
[7.245]
<sta> a lô
[7.865]
<no-speech>
[10.375]
ừ <sta> <no-speech> Hoàn à
[12.475]
<no-speech>
[15.835]
tao <sta> Ánh đây
[16.925]
<no-speech>
[17.945]
<sta> <no-speech> ừ
[19.385]
<no-speech>
[20.185]
<no-speech>
[20.565]
<no-speech>
[22.005]
<no-speech>
[22.595]
<no-speech>
[25.005]
<sta> <hes> sạc pin á
[26.605]
<no-speech>
[28.315]
<sta> <no-speech> ừ được rồi <no-speech> <breath>
[36.355]
<no-speech>
[37.625]
<no-speech>
[37.985]
<no-speech>
[40.725]
<no-speech>
[41.265]
<no-speech>
[47.345]
<sta> <no-speech> ngồi đấy
[54.055]
<no-speech>
[54.925]
ừ <int>
[55.455]
<no-speech>
[56.535]
<no-speech>
[56.905]
<no-speech>
[57.975]
<sta> dậy rồi thế đang ở chỗ nào ấy
[60.125]
<no-speech>
[61.905]
<sta> <no-speech> đ- ừ
[63.105]
<no-speech>
[65.055]
<no-speech>
[66.705]
<no-speech>
[68.675]
<sta> <no-speech> ui thế thì xuống đấy cơ à
[70.965]
<no-speech>
[74.145]
<sta> <no-speech> tức bọn thằng ấy đâu
[76.635]
<no-speech>
[79.175]
<no-speech>
[80.535]
<no-speech>
[81.925]
<sta> <no-speech> à <no-speech> ừ <breath> <no-speech> mày với thằng Hoàn hả <no-speech>
[90.445]
<no-speech>
[91.285]
<sta> ừ <no-speech>
[94.735]
<no-speech>
[98.255]
<sta> ừ thế mấy giờ thì được về
[100.455]
<no-speech>
[103.025]
<sta> ờ <no-speech> ờ ờ <no-speech> hả <no-speech>
[109.685]
<no-speech>
[110.505]
<sta> thông <no-speech>
[112.375]
<no-speech>
[114.075]
<no-speech>
[114.715]
<no-speech>
[116.615]
<no-speech>
[117.485]
<no-speech>
[118.325]
<sta> <no-speech> <breath> tối hôm nay á thằng Minh béo
[126.155]
<no-speech>
[129.614875]
<sta> <no-speech> <breath> ừ <no-speech>
[133.635]
<no-speech>
[135.105]
<sta> <no-speech> <hes> nó đang <hes> nghe điện thoại của <hes> thằng nào ấy mà <no-speech> chắc chắc đợi chắc <no-speech> <breath> tao cũng không biết chắc vậy đi ừ
[146.545]
<sta> đúng rồi như của Linh già gọi gọi gọi cho vào máy thằng Linh béo
[149.845]
<no-speech>
[151.135]
<sta> <no-speech> thế tối nay lại mua mận nhé
[153.965]
<no-speech>
[155.575]
<sta> <no-speech> tối nay mày mua mận nhé
[157.045]
<no-speech>
[158.795]
(()) <sta> <no-speech> tối nay về mua mận nhé <no-speech> ừ
[166.535]
<no-speech>
[168.845]
ừ <sta> tao <no-speech> ừ <no-speech> tí nữa chắc <hes> tao cũng đi để xem thế nào <hes> <lipsmack> rồi về anh em lại làm một quả vậy <no-speech>
[180.435]
<sta> <no-speech> <lipsmack> xe có đông không
[186.615]
<no-speech>
[188.385]
xe <sta> có đông không <no-speech> mày đi xe bao nhiêu vậy <no-speech> ừ
[197.155]
<no-speech>
[199.925]
<sta> nắng này chết thôi <no-speech> nắng này thì có mà chết ngồi trên xe buýt thì nóng lắm
[206.155]
<no-speech>
[207.595]
<sta> <no-speech> <laugh> ơ thế có ai đi cùng không
[211.885]
<no-speech>
[213.545]
<sta> có ai đi cùng không
[214.815]
<no-speech>
[217.165]
<sta> à ừ
[217.995]
<no-speech>
[219.595]
<no-speech>
[220.075]
<no-speech>
[223.835]
<no-speech>
[224.195]
<no-speech>
[225.205]
ứ giời <sta> lại có cái gì đâu thế mày có buôn với <int> thằng Linh béo không <no-speech>
[228.715]
<no-speech>
[229.885]
có <sta> buôn với thằng Linh béo không <no-speech> ờ
[235.115]
<no-speech>
[237.675]
<sta> <no-speech> này Linh béo ơi có <hes> xuống nghe điện thoại nó này
[241.165]
<no-speech>
[242.015]
<sta> Nghĩa <no-speech> xuống nghe điện thoại nó này
[244.375]
<no-speech>
[245.325]
nghĩ đi tao hết chuyện nói rồi <sta> <laugh> <breath>
[249.655]
<no-speech>
[253.575]
<no-speech>
[254.535]
<no-speech>
[258.275]
<sta> <laugh> nó đang xem phim ma ấy mà phim <hes> trưa nay phim cá hổ <no-speech>
[264.705]
<no-speech>
[265.615]
<sta> ừ <no-speech> qua rồi có mỗi tí phần cuối nữa <no-speech>
[273.645]
<no-speech>
[274.885]
<sta> ừ <no-speech>
[277.995]
<no-speech>
[279.485]
<sta> đánh cái gì <no-speech> à có phim ấy thì <hes> nọ bữa hôm nọ tao xem nhưng mà <breath> không biết làm sao nó có cái phần cái phần cuối đang xem tự dưng nó nó lại thôi nó hết
[291.085]
<sta> như kiểu làm sao ấy mà <no-speech> kiểu xem tuần như kiểu còn một phần nữa ấy
[295.495]
<no-speech>
[301.085]
định làm <hes> Youtube xem <int>
[304.385]
<no-speech>
[305.345]
<sta> <no-speech> ừ <no-speech>
[309.295]
<no-speech>
[310.905]
<no-speech>
[312.535]
<no-speech>
[313.615]
<sta> <no-speech> thế trưa mày vô định cái gì à
[316.135]
<no-speech>
[317.615]
<sta> đã ôn <hes> đại số đã ôn được gì à giải tích đã ôn được gì chưa
[321.395]
<no-speech>
[323.235]
<no-speech>
[324.505]
<no-speech>
[326.145]
<sta> <no-speech> ơi
[328.385]
<no-speech>
[329.375]
<sta> không ăn nữa
[330.185]
<no-speech>
[331.465]
<no-speech>
[333.215]
<no-speech>
[334.815]
<no-speech>
[335.815]
<no-speech>
[336.625]
<sta> <no-speech> ừ lấy bưu phẩm đi à đang xem Picachu mà <no-speech> nó ra phần mới thì ngồi xem lúc vậy bảo <hes> <no-speech>
[346.715]
<no-speech>
[348.045]
<no-speech>
[349.355]
<no-speech>
[350.605]
<sta> <no-speech> <breath> đang ngồi xem <hes> Picachu với nhắn tin <breath> người yêu <no-speech> <breath>
[358.885]
<no-speech>
[359.745]
<sta> <breath> phần bảy <no-speech> <breath>
[371.145]
<sta> <breath> <no-speech> ơi
[381.795]
<no-speech>
[383.085]
<sta> Dũng ơi mày ra nói chuyện ra nói chuyện với nó này
[385.795]
<no-speech>
[387.085]
<sta> <no-speech> (()) trời hình như nước tràn rồi kìa
[392.075]
<no-speech>
[393.995]
<sta> <no-speech> bảo thằng Dũng ra nói chuyện với mày mà nó đéo ra <no-speech>
[401.125]
<no-speech>
[403.825]
<sta> <no-speech> có cái gì mà không đạt yêu cầu bữa nào đang tính anh em đang tính là hết <hes> thi xong về nhà chú đi tắm biển một bữa
[413.485]
<no-speech>
[416.405]
<sta> <no-speech> thế vậy từ chỗ mày ra chỗ biển Quất Lâm có xa không
[420.665]
<no-speech>
[422.955]
<int> tắm rồi hả <no-speech> ui vậy thì đi cũng độ tầm mười lăm hai mươi phút là cùng chứ
[427.955]
<no-speech>
[430.485]
<sta> ờ để
[431.315]
<no-speech>
[432.445]
<sta> ờ để xem tình hình thế nào <hes> về cứ tắm biển bữa <no-speech> mà biển ở Quất Lâm cũng bẩn lắm <no-speech>
[440.235]
<no-speech>
[441.995]
<sta> ừ <no-speech> ừ
[443.595]
<no-speech>
[444.705]
<sta> thế có có ấy không có có <hes> ở đấy nó có có cái bãi chơi riêng không
[448.315]
<no-speech>
[450.895]
hả <int>
[451.405]
<no-speech>
[453.575]
<sta> không nghĩa là có phải bãi biển nó riêng ấy <hes> người ta quản lý ấy
[457.115]
<no-speech>
[460.355]
<no-speech>
[460.915]
<no-speech>
[461.815]
<no-speech>
[462.425]
<no-speech>
[464.315]
<sta> kiếm chỗ sạch sạch mà tắm cái đã <no-speech>
[467.435]
<no-speech>
[470.805]
<sta> về chỗ nhà tắm
[472.185]
<no-speech>
[474.715]
<sta> <no-speech> về chỗ nhà thằng thằng Hoàn thì hơi xa á ừ thôi chắc là về chỗ nhà mày <no-speech>
[486.165]
<sta> <no-speech> ờ <no-speech>
[492.495]
<no-speech>
[493.485]
<no-speech>
[494.045]
<no-speech>
[494.945]
<no-speech>
[496.805]
<no-speech>
[497.675]
<no-speech>
[498.075]
<no-speech>
[498.895]
<sta> <no-speech> ừ về chỗ mày xong <lipsmack> chơi xong thì tao cũng tiện đấy thì tao cũng về nhà luôn
[505.985]
<no-speech>
[507.615]
<no-speech>
[508.285]
<no-speech>
[509.375]
<no-speech>
[510.115]
<no-speech>
[511.095]
<sta> <no-speech> cùng <no-speech> cùng tỉnh mới tao <hes> cùng tỉnh mà bây giờ mà bảo tao đi ra nhà ra chỗ nhà mày chắc tao cũng chịu luôn thành phố Nam Định còn
[522.585]
<sta> chưa ra lần nào à <breath> <no-speech> tao đã ra thành phố Nam Định lần nào đâu <no-speech> có đợt lần này thì mới đi <no-speech> con người yêu ở đấy thì <no-speech> mới mới <breath>
[534.035]
<sta> <no-speech> cái gì <breath>
[536.235]
<no-speech>
[537.645]
<sta> ừ <no-speech> hôm con <no-speech> người yêu bảo lai ra <no-speech> thành phố Nam Định nhưng bảo anh không biết đường
[544.815]
<no-speech>
[545.715]
<no-speech>
[546.145]
<no-speech>
[550.035]
<no-speech>
[550.425]
<no-speech>
[552.085]
<no-speech>
[552.435]
<no-speech>
[553.685]
<sta> không ừ <no-speech>
[555.625]
<no-speech>
[557.655]
<sta> ơi <breath> thằng Linh béo nó vừa trêu ấy mà <breath>
[561.585]
<no-speech>
[562.585]
<no-speech>
[563.325]
<no-speech>
[565.345]
<sta> <breath> <no-speech> học thêm được mấy phút đấy <no-speech>
[570.415]
<no-speech>
[571.405]
<no-speech>
[572.635]
<no-speech>
[574.585]
<sta> ô thế sao mày không mang máy mày đi <no-speech> hả sao mày không mang cái máy này của mày đi tí về sim này là sim của ai <no-speech>
[584.745]
<sta> mày không sao mày không mang cái máy này đi vậy sim này là sim của ai
[588.095]
<no-speech>
[588.905]
<no-speech>
[589.315]
<no-speech>
[591.135]
<sta> <no-speech> không đây đây là đang là tao đang <hes> nghe máy mày chứ <no-speech>
[599.965]
<no-speech>
[600.2]
