[0.0]
<no-speech>
[2.555]
a lô
[3.335]
<no-speech>
[5.875]
<no-speech> được rồi
[6.655]
<no-speech>
[13.445]
<int> thôi <no-speech> đã nói không có biết đường lên *trên* mà kêu đi gì trời
[17.825]
<no-speech>
[23.395]
thôi đi lên *trên* cái lạc luôn rồi cái mất tiêu luôn à
[26.545]
<no-speech>
[27.565]
<no-speech>
[27.935]
<no-speech>
[29.905]
<breath> ai ai biết được <sta>
[32.214875]
<no-speech>
[36.775]
gì
[37.345]
<no-speech>
[39.305]
<no-speech> <breath> cái gì anh cái gì anh ở đây nữa
[41.865]
<no-speech>
[45.965]
<no-speech> bạn chứ gì <no-speech> bộ hơn tuổi là phải làm anh hả <int>
[49.275]
<no-speech>
[51.205]
đau răng hả
[52.125]
<no-speech>
[53.305]
<no-speech>
[53.775]
<no-speech>
[54.585]
<no-speech> ở đâu ra vậy <no-speech> <breath> ở đâu ra luật đó vậy <int>
[58.495]
<no-speech>
[59.835]
<sta> thôi thôi kêu bằng bạn à không kêu bằng anh
[64.455]
<no-speech>
[66.215]
<no-speech> <sta> đã nói rồi <no-speech> nói kêu bằng bằng bạn hà chứ không có kêu bằng anh <no-speech> <laugh>
[75.195]
<no-speech>
[76.045]
<no-speech>
[76.785]
<no-speech>
[81.725]
<no-speech> <breath> ừ muốn nghĩ sao cũng được hết á <no-speech> <sta> ừ <no-speech>
[86.165]
<no-speech>
[87.245]
<no-speech>
[87.675]
<no-speech>
[90.595]
không bữa nay <breath> Duyên được nghĩ hồi hôm qua thi rồi bữa nay được nghĩ mai thi tiếp
[94.595]
<no-speech>
[97.135]
<no-speech> không mai thi tin mà đâu biết gì đâu mà học
[99.605]
<no-speech>
[103.615]
<no-speech>
[104.805]
<no-speech>
[109.635]
<no-speech> <breath> ở ba <no-speech> ở chung ba <hes> ủa ở phòng trọ ở được ba người <no-speech> ở chung hai đứa bạn <no-speech>
[114.725]
<no-speech>
[116.205]
<no-speech>
[116.615]
<no-speech>
[117.715]
hả
[118.245]
<no-speech>
[121.455]
ai cho ở ké ở đây người ta cho nữ thuê không à ai cho trai thuê đâu mà vô ké
[125.865]
<no-speech>
[127.655]
trời ơi à <cough> làm trai không muốn muốn làm gái muốn làm pê đê hả
[132.155]
<no-speech>
[134.855]
<breath> thôi đi à
[136.145]
<no-speech>
[145.915]
<no-speech> thôi lên <hes> không được tại <no-speech> ngày mai thi xong á cái về quê rồi về quê nghỉ một tuần lận mới lên <no-speech> <int>
[151.985]
<no-speech>
[156.165]
<no-speech>
[157.615]
<no-speech>
[159.185]
<no-speech>
[159.535]
<no-speech>
[162.665]
<no-speech> <breath> nhưng mà <hes> hồi bữa mẹ điện thoại lên hứa với mẹ là chiều thứ sáu về rồi <no-speech> không về bị chửi <sta>
[171.365]
<no-speech>
[173.545]
<no-speech> hả
[174.135]
<no-speech>
[176.235]
<no-speech> ừ thì chừng nào rảnh rảnh thì lên à
[178.295]
<no-speech>
[184.815]
<no-speech>
[185.255]
<no-speech>
[188.745]
<no-speech> sao không <no-speech> hỏi người ta <no-speech>
[191.265]
<no-speech>
[198.865]
<no-speech> thôi không đi đâu <no-speech> lên trển bị lạc nữa mất công
[201.685]
<no-speech>
[208.375]
<no-speech>
[208.815]
<no-speech>
[209.885]
<no-speech> thôi <no-speech> thôi không đi đ-
[211.935]
<no-speech>
[215.515]
<no-speech> chừng nào rảnh thiệt là rảnh đi rồi đi
[217.365]
<no-speech>
[221.105]
<sta> tại tại qua học kỳ hai á học nhiều dữ lắm
[224.805]
<no-speech>
[227.025]
<sta> hả
[229.675]
<no-speech>
[231.725]
<sta> <no-speech> thì đã nói <hes> mai mốt lên rảnh à thì đi <no-speech> thôi kéo nguyên binh đoàn phòng phòng phòng em lên luôn nhe
[239.955]
<no-speech>
[241.695]
<no-speech> ba đứa luôn nè
[242.725]
<no-speech>
[244.645]
ừ
[245.205]
<no-speech>
[247.335]
<no-speech>
[247.725]
<no-speech>
[251.815]
<no-speech> sao
[252.605]
<no-speech>
[259.564875]
<no-speech> hồi nãy giờ đâu nói ai đâu <no-speech> mấy nhỏ bạn nó tự nói chuyện với nhau mà
[262.795]
<no-speech>
[265.915]
<no-speech>
[266.355]
<no-speech>
[268.575]
ờ mốt lên ba đứa đó
[270.015]
<no-speech>
[273.195]
rồi nhóm nhóm nhóm đuôi nhỏ bị bắt cóc <sta>
[277.795]
<no-speech>
[278.715]
<no-speech>
[279.125]
<no-speech>
[282.425]
ờ
[283.055]
<no-speech>
[285.415]
<no-speech> do có đi hồi kỳ thi đại học á
[287.585]
<no-speech>
[290.835]
hả <no-speech> <int>
[292.155]
<no-speech>
[293.795]
a thi thi ba trường luôn rớt hết trơn <int>
[296.905]
<no-speech>
[300.155]
ừ
[300.695]
<no-speech>
[303.405]
<sta> vậy hả <breath> <hes> học Long An nè
[306.805]
<no-speech>
[312.335]
ừ
[313.035]
<no-speech>
[319.205]
<no-speech> ngủ <no-speech> trời gọi điện không nghe luôn á <no-speech> không nghe chuông reo luôn á
[323.355]
<no-speech>
[327.955]
<sta> trời ơi hôm qua biết ngủ mấy giấc không
[330.345]
<no-speech>
[331.455]
<breath> <int> ba giấc luôn
[332.955]
<no-speech>
[335.005]
<no-speech>
[335.725]
<no-speech>
[337.355]
<int> ờ <breath> trưa đi học về ủa hồi sáng đi thi về á cái về ăn cơm leo lên ngủ một giấc tới tới một giờ <breath> cái chiều <no-speech> chiều mưa xong á cái cái leo lên trùm mền ngủ tới sáu giờ luôn mới dậy
[348.875]
<no-speech>
[357.365]
không ngủ mất tiêu có biết gì đâu
[359.125]
<no-speech>
[366.295]
không
[366.875]
<no-speech>
[369.845]
ừ
[370.525]
<no-speech>
[376.045]
<no-speech> <sta> chưa <no-speech> xíu nửa mới ăn <no-speech>
[378.875]
<no-speech>
[380.545]
<int> <breath> có
[382.325]
<no-speech>
[384.255]
lên đây
[384.945]
<no-speech>
[386.805]
<no-speech> <sta> thôi mà chắc lên không được đâu để để ăn giùm luôn cho <no-speech> ăn giùm phần của Lâm luôn cho ha
[391.235]
<no-speech>
[393.905]
<no-speech>
[396.945]
<no-speech>
[408.385]
thôi <no-speech> <int>
[410.225]
<no-speech>
[413.715]
<breath> thôi để đó đi người ta ăn giùm cho không chịu
[416.315]
<no-speech>
[420.055]
<no-speech> <int> ơ thì no giùm luôn
[421.855]
<no-speech>
[426.145]
<no-speech> <sta> hả <no-speech> không
[427.585]
<no-speech>
[432.415]
<int> thì kệ
[433.895]
<no-speech>
[435.965]
<no-speech>
[436.695]
<no-speech>
[438.195]
<breath> cái gì <int>
[439.485]
<no-speech>
[441.645]
<breath> trời ác đó giờ mới biết hả
[443.675]
<no-speech>
[445.795]
thì giờ biết rồi đó tránh xa ra đi ta ác lắm đó
[449.235]
<no-speech>
[455.185]
<no-speech> ai ai <no-speech> ai trả đâu mà tính <sta> <no-speech> đòi tui cũng không có trả đâu <no-speech>
[459.805]
<no-speech>
[462.005]
không trả đó
[463.155]
<no-speech>
[465.645]
ừ thì thì ráng đòi đi mà không trả á
[467.725]
<no-speech>
[472.315]
ừ <no-speech> <int>
[474.055]
<no-speech>
[480.025]
<no-speech>
[480.415]
<no-speech>
[482.455]
hả thì nói đi bên đây nghe
[484.915]
<no-speech>
[488.615]
<no-speech> thôi nói một hồi mất công cái lòi ra tội ác cái hồi ta chửi mình ác nữa <no-speech> nên hỏng nói
[493.925]
<no-speech>
[497.065]
<no-speech> <breath> thôi chửi ác nửa mất công lắm <no-speech> nhiều người chửi rồi
[501.265]
<no-speech>
[505.665]
<no-speech> hắn
[506.285]
<no-speech>
[508.165]
<laugh> ngoài ngoài ác ra còn có tội dữ nữa đó dữ lắm á
[513.355]
<no-speech>
[515.595]
<no-speech> dữ lắm luôn á
[516.814875]
<no-speech>
[520.105]
<no-speech> ừ ừ <no-speech> ừ heo rừng vậy đó mà cũng có người nói chuyện với tui
[525.215]
<no-speech>
[531.235]
<no-speech> mà sao về phi <laugh> <no-speech> <breath> mới nói gì đó hả
[536.135]
<no-speech>
[537.045]
<no-speech> giận đi giận luôn <no-speech> không thèm nói chuyện nữa ghét
[539.245]
<no-speech>
[541.175]
<no-speech> nói gì <no-speech> nói gì <no-speech> <int>
[543.375]
<no-speech>
[546.225]
<no-speech> thôi <sta> <no-speech> chửi người ta hôi đã rồi nói gì nữa <no-speech>
[549.425]
<no-speech>
[551.695]
<no-speech>
[553.755]
<no-speech>
[556.215]
<no-speech>
[556.705]
<no-speech>
[557.955]
<int> <no-speech> hả
[559.385]
<no-speech>
[560.975]
<sta> giận rồi <no-speech> bắt đền đi
[563.265]
<no-speech>
[564.435]
<no-speech>
[566.265]
<no-speech>
[567.685]
<no-speech>
[568.035]
<no-speech>
[569.795]
<no-speech>
[570.755]
<no-speech>
[571.965]
<no-speech> <breath> thôi giờ giận rồi bắt đền đi <no-speech> bắt đền đi <no-speech> <int>
[574.915]
<no-speech>
[576.815]
<no-speech> đền hả <no-speech> đền kẹo đi <no-speech> nguyên cây kẹo bự đi <no-speech> <sta>
[581.035]
<no-speech>
[583.335]
<no-speech> không <no-speech> ai kêu nãy làm ta giận chi giờ đền khác
[585.865]
<no-speech>
[589.605]
<no-speech> không biết <no-speech> <int> mua cây kẹo bự tổ luôn đó
[591.865]
<no-speech>
[596.355]
<sta> trời ơi không <hes> đừng có để dành mỗi ngày mua một cục
[599.425]
mỗi ngày mua một cục một cụ- ~
[600.32]
