[0.0]
<no-speech>
[1.445]
<sta> a lô <no-speech> mẹ hả
[4.275]
<no-speech>
[5.255]
<no-speech> <sta> à à <no-speech> mẹ đang ở đâu vậy
[8.675]
<no-speech>
[11.815]
<no-speech> đi làm hả <int>
[12.645]
<no-speech>
[15.125]
<no-speech> làm được không
[15.985]
<no-speech>
[18.735]
<no-speech> <sta> bình thường à <no-speech> nghỉ hôm qua <no-speech> không nay nghỉ nay đang đi làm
[25.335]
<no-speech>
[27.535]
mai nghỉ nữa tuần rồi rồi tuần sau cũng <hes> thứ bảy chủ nhật thứ hai được nghỉ luôn <cough> <no-speech> tuần sau giỗ tổ Hùng Vương mà
[34.345]
<no-speech>
[36.775]
<no-speech> <int> ờ
[37.465]
<no-speech>
[40.675]
<no-speech> <sta> là sao
[41.765]
<no-speech>
[44.615]
để coi nếu mà <hes> nếu mà <sta> thật sự nghỉ mấy ngày thì về nhà <no-speech> nguyên mấy ngày liên tiếp á <no-speech> về dưới phụ ba-
[51.905]
<no-speech>
[54.055]
chứ trên đây cũng đi chơi <int> chán lắm
[56.095]
<no-speech>
[59.565]
<sta> à <no-speech> ủa mà Khoa bây giờ ở ngoài chỗ bà Bảy hay ở đâu
[62.815]
<no-speech>
[66.775]
<no-speech> giờ ở có có trả tiền không <lipsmack>
[68.685]
<no-speech>
[69.825]
<no-speech>
[70.725]
<no-speech>
[72.975]
đưa cho ai <sta> <no-speech> là đưa làm sao đưa đưa chưa đưa mười triệu á hả
[79.755]
<no-speech>
[82.035]
<no-speech> <sta> vậy là bả bán chưa
[83.795]
<no-speech>
[92.805]
<no-speech>
[93.165]
<no-speech>
[94.295]
<no-speech> thì nãy nãy con gọi cho ba cái con nghe ba nói đi lấy giấy tờ gì đó
[97.685]
<no-speech>
[100.255]
<no-speech> <sta> mười mấy triệu á hả
[102.365]
<no-speech>
[103.785]
ủa là bây giờ bả lấy đất luôn á hả hay là tới <hes> <sta> bả nói tết thanh minh mới mới lấy lại mà đều chưa <no-speech> ờ cũng như bây giờ tiền bạc đồ xong trước đi ha <no-speech> ờ
[114.855]
à giờ lậm rồi tới đó cũng được <int> chỉ đưa thêm mười mấy triệu nữa chứ gì
[117.775]
<no-speech>
[119.315]
<cough> ừ <no-speech> nãy <hes> gọi ba mà <hes> đâu <hes> ba đang bận nên thôi <int> giờ gọi qua cho mẹ nè
[126.345]
<no-speech>
[127.465]
<no-speech>
[128.455]
<no-speech>
[129.514875]
còn <sta> <no-speech> mai <no-speech> lãnh lương hổm đóng tiền nhà đó
[135.675]
<no-speech>
[137.355]
<no-speech> <sta> thôi kệ <no-speech> còn <hes> được <hes> lai rai mà
[142.735]
<no-speech>
[143.665]
mai mốt có lương nữa rồi <cough> <no-speech>
[146.875]
<no-speech>
[150.475]
<no-speech> ờ thì giờ mới vô học thì còn khỏe chứ <hes> thì làm <no-speech> hết tháng này
[156.095]
<no-speech>
[158.905]
<no-speech> ư từ giờ từ giờ thì đóng tới tháng năm hai tháng nữa
[162.505]
<no-speech>
[165.025]
<no-speech> ừ <breath> lâu mà
[166.505]
<no-speech>
[168.275]
<no-speech> hai triệu mấy à
[169.135]
<no-speech>
[175.205]
<no-speech> tới đó rồi tính thì chắc cỡ hai triệu <hes> sáu hai triệu bảy gì đó
[178.325]
<no-speech>
[182.195]
<no-speech> <breath> rồi <int> <hes> làm xong cái đó rồi qua Bình Thuận hay là sao
[185.405]
<no-speech>
[188.325]
<no-speech> <sta> chừng nào về <no-speech> hổm rày làm <no-speech> làm được thì cứ ở lại làm đi
[193.655]
<no-speech>
[196.375]
<no-speech> <int> ủa con bé ở dưới gởi chưa mẹ
[198.045]
<no-speech>
[199.465]
<no-speech>
[199.875]
<no-speech>
[201.245]
<no-speech>
[201.615]
<no-speech>
[205.315]
<no-speech>
[205.775]
<no-speech>
[207.825]
<no-speech> ừ <no-speech> <int>
[210.315]
<no-speech>
[212.805]
<no-speech> ừ mệt quá giữ không nổi thì gởi cũng được
[214.825]
<no-speech>
[217.265]
<no-speech> <sta> ờ thì thôi chịu cực chứ sao giờ
[219.775]
<no-speech>
[221.445]
<no-speech>
[221.985]
<no-speech>
[222.915]
<no-speech> <sta> nào hổm rày <hes> <no-speech> không biết chị Gấm chừng nào về nữa
[225.865]
<no-speech>
[227.165]
<no-speech>
[227.775]
<no-speech>
[230.535]
<no-speech>
[230.885]
<no-speech>
[232.055]
<no-speech> (()) khoảng <no-speech> ừ giờ tới cuối tháng nè <no-speech> hình này cuối tháng á
[236.325]
<no-speech>
[239.765]
<no-speech> về coi hên xui thôi <int>
[241.235]
<no-speech>
[243.205]
<no-speech>
[243.575]
<no-speech>
[244.375]
<no-speech> thì lấy xong hổm cúng giao thông hết đó
[246.395]
<no-speech>
[249.085]
<no-speech> qua đưa xong giờ thì <hes> cũng <hes> ăn uống đồ đó rồi <no-speech> <breath> giao thông rồi xăng cộ gì hết luôn <no-speech> xong rồi <hes>
[258.225]
<no-speech>
[261.275]
<no-speech> mua rồi <no-speech> trăm mấy
[262.695]
<no-speech>
[264.875]
<no-speech> mua luôn <int>
[265.605]
<no-speech>
[266.455]
<no-speech>
[266.825]
<no-speech>
[270.045]
<no-speech>
[270.405]
<no-speech>
[275.475]
<no-speech> thì đó giờ kẹp vô cái trong cái yên đó <int>
[277.825]
<no-speech>
[278.915]
<no-speech> <hes> bác Ba nói <hes> giờ nó cắt luôn à <no-speech> nó cắt xong rồi nó thay dây nón <laugh> <no-speech> dữ lắm
[285.315]
<no-speech>
[287.445]
<no-speech>
[287.805]
<no-speech>
[289.475]
<sta> <no-speech> thì kệ nó
[291.455]
<no-speech>
[292.625]
<no-speech> ừ thì <hes>
[293.735]
<no-speech>
[294.565]
<no-speech> <int> cẩn thận nó chứ sao giờ
[296.165]
<no-speech>
[305.265]
<no-speech> <sta> bị phạt hả
[306.055]
<no-speech>
[307.625]
<cough> sao sao bị phạt hay có bị phạt chưa
[310.705]
<no-speech>
[316.715]
<no-speech> <sta> phạt chứ cái nón nó đâu
[319.625]
<no-speech>
[320.555]
<sta> cái nón đó đâu có đúng tiêu chuẩn đâu cái nón đó y như là nón kết vậy đó
[323.755]
<no-speech>
[325.305]
<sta> thì nó không có miếng móp ở trong là cái thứ nhất thứ hai nữa là nó <hes> nó không có tem đồ đó bữa hổm nó bắt quá trời luôn mà công an Đồng Nai ở Sài Gòn thì chưa bắt mà ở Đồng Nai thì thì nó bắt hàng loạt luôn đó nó bắt
[337.045]
<no-speech> biết thì mốt cũng phải sợ rồi chừa thôi
[338.815]
<no-speech>
[340.435]
<no-speech>
[341.115]
<no-speech>
[343.155]
<no-speech> <sta> thì đó thành coi ra phải <hes> gấp đôi lên <no-speech>
[345.555]
<no-speech>
[347.245]
<sta> ăn không dám ăn chứ gặp rồi phải <hes> năn nỉ <no-speech>
[352.025]
<no-speech>
[354.285]
<no-speech> ô thì <hes> sắp xếp được thì về <no-speech>
[356.485]
<no-speech>
[357.765]
<sta> không không ừ <no-speech>
[360.685]
<no-speech>
[361.565]
<no-speech>
[361.955]
<no-speech>
[363.685]
thì về hổm rảnh về được chứ <no-speech> nó mà nó đâm ngay giữa tuần thì thôi
[369.705]
<no-speech>
[372.055]
nay chắc ở dưới lên nữa chứ gì năm nào cũng vậy
[374.925]
<no-speech>
[376.405]
<no-speech>
[376.785]
<no-speech>
[378.455]
<no-speech> năm ngoái lên riết (()) ở dưới <sta> <no-speech>
[380.645]
<no-speech>
[383.275]
<no-speech>
[383.625]
<no-speech>
[386.675]
<no-speech>
[387.085]
<no-speech>
[388.215]
<no-speech> <sta> <laugh> ừ nghe
[390.475]
<no-speech>
[391.585]
<no-speech> <int> nghe nói cũng ngon lắm đó
[393.845]
<no-speech>
[396.285]
<no-speech> <sta> giờ cái đó là làm sao
[398.565]
<no-speech>
[401.955]
<no-speech> giống như ấp <no-speech> à <sta> <no-speech> giống như ấp Phong vậy á hả
[404.725]
<no-speech>
[408.905]
<no-speech> <sta> làm được không <no-speech>
[411.935]
<no-speech>
[412.855]
<no-speech>
[413.235]
<no-speech>
[415.625]
<no-speech> <sta> hả <no-speech> cái miệng của ông
[417.315]
<no-speech>
[421.205]
<no-speech>
[421.605]
<no-speech>
[423.265]
<no-speech> ờ
[423.825]
<no-speech>
[424.765]
<no-speech>
[425.125]
<no-speech>
[428.675]
<no-speech> <sta> thì đó cái miệng ổng dẻo lắm <no-speech> mà <hes> nói chung cũng phải cần một bà đi theo <no-speech> <breath> tại vì là hồi lúc trưởng ấp ấp Phong gì đó cũng dẫn bà kia đi theo vậy đó cũng như dạng đại diện cho công ty
[440.605]
còn <hes> ấp Phong là nhân viên thì cái dạng ông này thì cũng vậy <no-speech> bán một cái bảo hiểm như vậy thì cũng như ăn phần trăm năm phần trăm hay nhiêu đó mấy chục triệu thì ăn được nhiêu đó <int> mà thấy cũng khó khăn lắm
[451.915]
không phải dễ đâu <no-speech> <int>
[454.855]
<no-speech>
[455.685]
<laugh> <no-speech> nay nghĩ ra được trò đó nữa hả <no-speech> <int>
[458.745]
<no-speech>
[461.995]
<no-speech>
[462.565]
<no-speech>
[466.575]
<no-speech>
[466.925]
<no-speech>
[468.485]
<no-speech>
[468.965]
<no-speech>
[470.025]
<no-speech> ừ
[470.725]
<no-speech>
[474.205]
<no-speech>
[476.805]
<no-speech>
[477.96]
