[0.0]
<no-speech>
[0.925]
<no-speech>
[1.405]
<no-speech>
[3.775]
<no-speech>
[4.305]
<no-speech>
[5.215]
a lô
[5.985]
<no-speech>
[7.775]
dạ
[8.405]
<no-speech>
[10.005]
ờ cậu khỏe không
[11.165]
<no-speech>
[12.515]
dạ <no-speech> bà ngoại sao rồi
[14.595]
<no-speech>
[18.225]
mà chưa mà ngày mai mới đi làm
[20.055]
<no-speech>
[21.785]
ngày mai mới đi <no-speech> bữa nay con đi chơi trên Đồng Nai rồi
[24.275]
<no-speech>
[25.925]
<laugh> sướng rồi <no-speech> làm tại công ty cho nghỉ mấy ngày mà
[30.085]
<no-speech>
[34.045]
dạ
[34.605]
<no-speech>
[36.825]
đi đi với mối <laugh> công ty đâu có cho đi đâu
[40.135]
<no-speech>
[41.625]
<laugh> rồi <no-speech> bữa nay cậu có đi vườn không
[45.615]
<no-speech>
[47.755]
vậy hả <no-speech> rồi kêu cậu gởi cái số điện thoại của mợ Hồng hay cậu Giản qua cậu <no-speech> quên hoài
[52.815]
<no-speech>
[57.945]
vậy hả
[59.055]
<no-speech>
[59.995]
Lễ không dẫn bà nhỏ đi chơi trời
[61.845]
<no-speech>
[65.345]
lên trển ở đâu lận
[66.795]
<no-speech>
[67.995]
Bình <no-speech> ở Bình Địa hả
[69.895]
<no-speech>
[70.985]
<laugh> chứ không vô thành phố làm à
[73.495]
<no-speech>
[76.325]
rồi <no-speech> bây giờ mấy đứa kia sao rồi cậu
[78.675]
<no-speech>
[79.715]
con Thúy con đồ <no-speech> mấy đứa rồi
[81.405]
<no-speech>
[84.325]
à Thúy Bi đồ Ty được đứa hết trơn hả <no-speech> cậu
[89.715]
<no-speech>
[90.985]
<no-speech>
[91.405]
<no-speech>
[93.145]
cậu có thêm nữa không
[94.265]
<no-speech>
[96.095]
cậu có thêm nữa không hay làm bây nhiêu đó thôi
[97.855]
<no-speech>
[98.845]
<no-speech>
[99.205]
<no-speech>
[101.205]
<laugh> mợ đi vườn hay ở nhà giữ mấy đứa nhỏ
[104.125]
<no-speech>
[107.245]
vậy hả <no-speech> à bà ngoại có đi còn ở nhà chứ
[110.575]
<no-speech>
[114.705]
à <no-speech> dì <hes> dì Nhung đồ giờ còn ở gần đó không hay là ở đâu
[118.405]
<no-speech>
[121.075]
à <no-speech> bả còn đi mua la ghim nữa không
[123.155]
<no-speech>
[125.935]
nghỉ luôn hả <no-speech> rồi con <hes> con dì Nhung hai đứa có vợ <hes> có vợ có chồng hết rồi phải không
[130.175]
<no-speech>
[132.645]
con của dì Nhung á hai đứa con <hes> con gì đó <no-speech> con My với thằng gì đó cũng có vợ <no-speech> con bé My chắc chưa hả
[138.805]
<no-speech>
[142.305]
à <no-speech> rồi chắc cũng có con rồi chứ gì
[145.525]
<no-speech>
[148.325]
thời bây giờ lâu quá không có <hes> có lên được đất hồi lên <no-speech> trển chơi
[152.845]
<no-speech>
[154.325]
con còn
[154.995]
<no-speech>
[157.245]
không có tiền <no-speech> phải có tiền nhiều tiền mới đi được <laugh>
[160.795]
<no-speech>
[162.325]
không phải <no-speech> giờ <no-speech> cậu biết rồi làm ở phòng trọ phòng đồ tùm lum tùm la hết trơn mà <no-speech> đâu phải như đó ở nhà
[169.395]
<no-speech>
[170.465]
Đạt
[170.925]
<no-speech>
[172.395]
<laugh> dạ
[177.125]
<no-speech>
[180.895]
thì đó
[181.555]
<no-speech>
[184.775]
tiền tiền phòng không mà <no-speech> dạ
[187.585]
<no-speech>
[188.455]
tiền phòng tiền điện không là cả triệu rồi đó
[190.825]
<no-speech>
[192.645]
ừ
[193.375]
<no-speech>
[194.605]
ghê
[195.235]
<no-speech>
[196.385]
dạ <no-speech> rồi rồi <hes> thằng cu em hồi lâu lâu cậu gặp không
[200.095]
<no-speech>
[201.435]
<laugh> vậy hả
[202.905]
<no-speech>
[205.275]
<no-speech>
[205.635]
<no-speech>
[207.985]
à <no-speech> ở chung đó luôn
[209.335]
<no-speech>
[211.645]
rồi con Nô nồ có một đứa hả cậu
[213.895]
<no-speech>
[216.675]
cậu giờ nhà đó sửa xây lại chưa hay là để nguyên như cũ
[220.025]
<no-speech>
[223.985]
xây lên lầu rồi hả <no-speech> rồi <no-speech> sướng há
[228.245]
<no-speech>
[229.855]
con nghe <no-speech> trước nghe con Mỹ nói cậu <no-speech> làm ra lắm mà
[233.015]
<no-speech>
[235.045]
<laugh> ăn nên làm ra lắm
[237.525]
<no-speech>
[238.765]
dạ
[239.375]
<no-speech>
[241.165]
<laugh> rồi <hes> rồi cậu Danh là là <hes> giờ sao rồi cậu
[245.805]
<no-speech>
[249.635]
ừ
[250.255]
<no-speech>
[253.285]
vậy hả <no-speech> rồi hai vợ chồng nó thôi luôn rồi hả
[255.825]
<no-speech>
[258.165]
hai đứa con <hes> bà Hồng nuôi
[260.275]
<no-speech>
[263.025]
à <no-speech> ổng nghi chắc đi <no-speech> tùm lum tà la bà chứ gì
[266.635]
<no-speech>
[268.345]
<no-speech>
[268.845]
<no-speech>
[269.805]
ừ <laugh> tại vì <no-speech> biết mà anh em máu máu <laugh> một máu mà ra mà <no-speech> hử
[278.085]
<no-speech>
[280.825]
<laugh> vậy là có tính cậu hiền nhất phải không
[283.715]
<no-speech>
[287.285]
<no-speech>
[287.695]
<no-speech>
[288.875]
<laugh> thì đúng rồi sao bằng ở nhà được
[291.215]
<no-speech>
[292.505]
rồi <no-speech> rồi cậu Thành <no-speech> cũng <no-speech> cũng như vậy cậu Thành mợ Yến cũng như vậy hả cậu
[296.595]
<no-speech>
[298.815]
ờ <no-speech>
[300.285]
<no-speech>
[302.095]
còn con bé có mình con bé Lan với thằng con cu <no-speech> cu Bảo là chưa cái gì phải không
[306.745]
<no-speech>
[308.275]
bé Lan nó học bên ngành gì
[309.555]
<no-speech>
[313.355]
vậy hả
[313.995]
<no-speech>
[318.345]
bán nhà hả <no-speech> mở tiệm hả
[320.605]
<no-speech>
[324.185]
à <no-speech> tự nhiên không đi học ở nhà bán điện thoại vậy trời
[327.625]
<no-speech>
[330.715]
nhưng mà nhà bà Hồng mua ở <hes> ở đâu xây ở đâu
[333.115]
<no-speech>
[338.085]
đường vô nhà thằng cu anh <hes> cu anh đó hả
[339.875]
<no-speech>
[341.845]
<no-speech>
[342.345]
<no-speech>
[344.045]
ờ đường ngoài chợ mát đó hả
[345.425]
<no-speech>
[347.005]
nghe bữa trước con Mỵ nói mua đất ngay chỗ gần nhà <no-speech> dưới cái phía chỗ chùa chứ gì chỗ nhà <no-speech> cu anh cu gì đó <no-speech> xây đó
[354.625]
<no-speech>
[356.755]
vậy hả <no-speech> giờ bà ngoại giờ bả cũng khỏe bả đi ra đi vô bình thường vậy hả cậu
[361.595]
<no-speech>
[365.315]
ờ <no-speech> con cậu chắc nay lớn dữ hé
[367.935]
<no-speech>
[370.695]
<no-speech>
[371.045]
<no-speech>
[371.945]
cậu lật con bé lên con bé được một tuổi hả
[373.905]
<no-speech>
[376.595]
mau hen
[377.325]
<no-speech>
[378.215]
mới đó mà <hes> thôi đợt trả sao mấy năm rồi ta năm sáu năm gì rồi
[381.685]
<no-speech>
[383.565]
vẫn còn làm bông đồ bình thường hả cậu cậu giảng đó
[386.625]
<no-speech>
[389.885]
ghê vậy hả
[390.745]
<no-speech>
[392.145]
ông nè cậu Thành nè cậu Thành cậu giảng
[395.615]
<no-speech>
[396.925]
rồi <no-speech> dì Hằng đồ sao rồi
[399.045]
<no-speech>
[402.795]
<no-speech> vậy hả <no-speech> còn <hes> dì Bé
[405.445]
<no-speech>
[408.385]
hai đứa thôi hả chưa đẻ đứa nào nữa hả
[410.155]
<no-speech>
[411.855]
<no-speech>
[412.295]
<no-speech>
[413.445]
<laugh> cậu vẫn vậy hay là <hes> già hơn hay là trẻ hơn hả
[421.545]
<no-speech>
[424.495]
vậy hả
[425.205]
<no-speech>
[426.545]
mợ thì sao mợ ốm hay mập
[428.005]
<no-speech>
[430.405]
mợ đó
[431.115]
<no-speech>
[433.005]
ừ
[433.685]
<no-speech>
[436.015]
ốm hả <no-speech> ốm cao thì cao hồi nào giờ rồi mà <laugh> vậy hả
[441.985]
<no-speech>
[446.505]
<laugh> chê hả <no-speech> gái ba con bốn con nói chưa chồng hả <laugh>
[450.655]
<no-speech>
[452.095]
vậy hả
[453.215]
<no-speech>
[458.335]
vậy hả <laugh>
[460.545]
<no-speech>
[461.905]
trời ơi <laugh> mi nhon hơn đợt trước luôn đó hả
[465.265]
<no-speech>
[468.975]
rồi <no-speech> giữ chăm sóc dữ hé
[470.775]
<no-speech>
[475.185]
<laugh> có không đó
[479.215]
<no-speech>
[482.165]
ờ nước da thì trắng hồng hồi nào tới giờ rồi
[484.385]
<no-speech>
[485.965]
ừ <breath> <no-speech>
[488.395]
<no-speech>
[489.985]
à <no-speech> hồi Lễ cậu có ở nhà cũng đi vườn hả
[493.275]
<no-speech>
[494.415]
Lễ mà cũng ra <no-speech> không ở nhà đi chơi cũng vô vườn trời
[498.195]
<no-speech>
[500.425]
<no-speech>
[500.955]
<no-speech>
[501.965]
mà đúng rồi trên đó con <no-speech> con thấy <hes> thấy chú Tư gì đâu thì cũng đi làm hết trơn chứ có ngày nào ở nhà đâu
[508.265]
<no-speech>
[509.645]
ừ
[510.425]
<no-speech>
[512.005]
ừ <no-speech> làm vườn ngày nào cũng làm hết
[515.204875]
<no-speech>
[517.215]
dám mua luôn đó
[518.395]
<no-speech>
[519.255]
<int> rồi cháu <no-speech> tính <no-speech> chừng nào có tiền đi lên <no-speech> lên trển chơi đó mà
[523.395]
<no-speech>
[526.855]
thì để coi đã <no-speech> để chừng nào có tiền đã
[529.135]
<no-speech>
[534.035]
để phải kiếm <no-speech> năm bảy chai mới đi được
[536.445]
<no-speech>
[537.845]
<no-speech>
[538.575]
<no-speech>
[539.445]
<laugh> con khoái anh cả Lê có <no-speech> cậu giảng bây giờ cũng còn trồng bông ở trong
[546.815]
trong nhà lồ- ~
[547.12]
