[0.0]
<no-speech>
[5.595]
<no-speech> a lô
[6.305]
<no-speech>
[7.685]
<no-speech> ờ
[8.325]
<no-speech>
[15.944875]
<no-speech> hả
[16.514875]
<no-speech>
[22.405]
<no-speech> à
[22.925]
<no-speech>
[25.505]
<laugh> <no-speech> tội chưa <laugh>
[27.445]
<no-speech>
[28.595]
<no-speech>
[29.105]
<no-speech>
[31.585]
Phượng về mới hôm qua <hes> hôm qua <no-speech> chiều hôm qua <no-speech> ừ
[36.925]
<no-speech>
[39.485]
ừ thì công ty <hes> Phượng xin nghỉ hai ngày á
[42.415]
<no-speech>
[43.805]
<no-speech> ừ
[44.405]
<no-speech>
[48.745]
thì <hes> coi thử nếu mà cơ sở mà hắn có tuyển thì <hes> học cũng học tiếp á làm nó rồi học tiếp còn không Phượng đi học
[56.895]
<no-speech>
[58.695]
<no-speech> ừ
[59.335]
<no-speech>
[62.095]
<no-speech> ờ
[62.925]
<no-speech>
[70.44]
<no-speech>
[77.955]
ừ <no-speech> hơi buồn lắm tí nghe
[80.755]
<no-speech>
[82.255]
<no-speech> ừ
[82.645]
<no-speech>
[85.345]
<no-speech> ờ
[86.105]
<no-speech>
[87.365]
ờ thì Phượng Phượng làm nơi con hè ngành của Phượng á
[90.305]
<no-speech>
[100.025]
Phượng đi xe máy chứ chi
[101.345]
<no-speech>
[107.425]
Phượng chờ tới gần ngay chỗ phòng trọ của Yến Yến vừa chạy ra tới quẹo qua đường hàm Nghi kìa
[112.105]
<no-speech>
[113.745]
ờ vừa thấy vừa kêu không kịp cái Yến chạy luôn mới tới đâu Phượng đi luôn
[117.165]
<no-speech>
[120.465]
Yến đi học mà tự nhiên điện
[122.335]
<no-speech>
[128.954875]
đi mình mấy <no-speech> Yến mặc áo áo khoác ngoài hồng hồng hồng chi đó <no-speech> hình yêu <hes> chi đó <no-speech> ừ
[134.515]
<no-speech>
[137.605]
kêu ai nay có liên lạc cho đứa mô lớp mình không
[139.675]
<no-speech>
[145.84]
<no-speech>
[152.005]
ờ thì hắn cũng gọi cho Phượng miết rứa chọc nó kêu Yến bị mất điện thoại <laugh> rồi <laugh> <no-speech> tội dễ sợ <no-speech> hồi trưa <no-speech> Đào cũng ở ở Bình Dương miết rứa
[161.995]
<no-speech>
[164.965]
<no-speech> ờ Phượng
[165.785]
<no-speech>
[169.665]
<no-speech> ờ
[171.485]
<no-speech>
[176.925]
ờ Phượng quậy như điên chụp hình như khùng rứa rứa
[180.065]
<no-speech>
[181.095]
<laugh> <no-speech> ổng cứ biểu cho hình cho ổng thôi á
[184.865]
<no-speech>
[185.895]
<no-speech> ổng có biểu cho hình cho ổng kìa
[188.005]
<no-speech>
[189.595]
<no-speech> ừ
[190.285]
<no-speech>
[197.9]
<no-speech>
[205.515]
<laugh> <no-speech> nó tìm Ngọc mà đúng không
[208.495]
<no-speech>
[214.055]
<no-speech> ờ
[214.685]
<no-speech>
[218.555]
<no-speech> ờ
[219.275]
<no-speech>
[227.545]
<no-speech> ờ
[228.165]
<no-speech>
[238.475]
<no-speech> ờ
[239.055]
<no-speech>
[242.345]
<no-speech> ờ
[242.885]
<no-speech>
[250.575]
ờ <no-speech> tội chưa
[252.275]
<no-speech>
[261.304875]
<no-speech> ờ
[261.815]
<no-speech>
[266.015]
<no-speech> ờ
[266.585]
<no-speech>
[270.155]
<no-speech> u trời <no-speech> ờ
[272.365]
<no-speech>
[275.575]
<no-speech>
[275.985]
<no-speech>
[278.035]
<no-speech> ờ
[278.755]
<no-speech>
[288.245]
<no-speech>
[291.875]
<no-speech>
[297.525]
ừ <no-speech> Phượng hồi đó <no-speech> Phượng hồi đó đi thực tập đi cũng đuối
[300.835]
<no-speech>
[302.265]
<no-speech> ừ
[302.945]
<no-speech>
[314.445]
<no-speech>
[315.235]
<no-speech>
[316.735]
<laugh> <no-speech> Phượng <no-speech> Phượng để râu Phượng <no-speech> Phượng để râu cho mọc xí mọc không nổi á
[323.735]
<no-speech>
[334.065]
<no-speech> ừ <no-speech> hiểu lắm đó
[335.495]
<no-speech>
[337.265]
<no-speech> ừ
[337.895]
<no-speech>
[339.975]
<laugh> <no-speech> thôi mập đẹp chứ <no-speech> mập đẹp ốm dễ thương <no-speech> lồi cương như Phượng là quyến rũ <laugh>
[349.305]
<no-speech>
[354.095]
ê <no-speech> ê nó ốt rứa trời <no-speech> <laugh> ờ
[360.025]
<no-speech>
[361.325]
<no-speech> ừ
[362.055]
<no-speech>
[362.975]
<no-speech> rứa mà chưa có bồ đây nè buồn quá đi
[365.495]
<no-speech>
[368.755]
<no-speech> ờ
[370.045]
<no-speech>
[371.165]
<no-speech>
[371.635]
<no-speech>
[374.875]
<no-speech> ừ
[375.485]
<no-speech>
[377.975]
<no-speech> ờ
[378.565]
<no-speech>
[380.015]
<no-speech> ờ
[380.585]
<no-speech>
[384.655]
<no-speech> ờ
[385.195]
<no-speech>
[390.445]
<no-speech>
[390.805]
<no-speech>
[399.395]
<no-speech>
[402.635]
<no-speech>
[406.975]
<laugh> ờ <no-speech> Phượng cũng hay liên lạc thằng Phi cũng hay điện cho Phượng mà chừ là hắn thôi không điện nữa
[416.365]
<no-speech>
[418.215]
<no-speech> thấy nó tội
[418.985]
<no-speech>
[419.955]
thấy cũng mô phô tô trường họ biết rồi đó
[421.905]
<no-speech>
[423.605]
<no-speech> hả
[424.135]
<no-speech>
[431.055]
<no-speech>
[437.975]
<no-speech> ờ
[438.615]
<no-speech>
[443.735]
<no-speech> hả
[444.425]
<no-speech>
[450.365]
<laugh> <no-speech> vậy á <no-speech> thôi tội ổng kinh nói chuyện không biết nói răng Yến ơi
[456.395]
<no-speech>
[457.755]
<no-speech> tùy á
[458.725]
<no-speech>
[460.455]
thì hắn hắn hắn hắn rứa hắn thích Phượng Phượng đâu có chấp nhận mô tự nhiên bạn bè mà chừ làm rứa thấy khó chịu kinh
[466.695]
<no-speech>
[468.915]
<no-speech> hãy
[469.455]
<no-speech>
[472.735]
<no-speech> ờ
[473.625]
<no-speech>
[475.575]
<no-speech> lâu quá rồi Yến
[478.115]
<no-speech>
[481.745]
Tuyết là với ai không Tết năm ngoái đó <no-speech> nghe tới chừ á
[484.855]
<no-speech>
[490.945]
<no-speech> hãy
[491.535]
<no-speech>
[495.035]
nói thích hồi năm ngoái rồi chứ
[496.755]
<no-speech>
[502.055]
mà đừng có nói chi hết nghe đừng có nói cho đứa mô hết nghe tội hắn lắm cái <hes> hắn nhắn tin với Phượng hắn kêu thôi bữa ni đừng có liên lạc với hắn nữa <no-speech> hắn <hes> làm như rứa hắn mới quên được Phượng hắn kêu mà tự nhiên rứa bạn
[513.855]
mà hèn mắc chi phải đến mức độ như rứa kìa <int> nhưng mà hắn kêu ôi chừ hắn có nói mấy Phượng cũng không hiểu hết cái thôi <no-speech> <int> mệt quá
[520.795]
<no-speech>
[522.315]
chừ làm răng Kha <int> bỏ được tình cũ trời <no-speech> đúng không
[525.025]
<no-speech>
[527.015]
<no-speech>
[528.115]
<no-speech>
[530.025]
<no-speech>
[530.475]
<no-speech>
[532.205]
hắn kêu <hes> giống như ngày trước đừng cho hắn gặp Phượng đừng học chung một lớp thì chừ hắn thấy <hes> <laugh> tốt quá hỷ
[538.715]
<no-speech>
[542.465]
<no-speech> đâu hình như hắn mới thích đây chứ mấy <no-speech> hồi năm ngoái e chết
[546.415]
<no-speech>
[549.345]
đâu hồi đừng học chung một lớp đừng có biết nhau ấy
[552.655]
<no-speech>
[555.085]
Tết vừa rồi Phượng cũng có lên nhà hắn
[556.805]
<no-speech>
[558.545]
<no-speech> ừ
[559.295]
<no-speech>
[564.255]
hãy <no-speech> ờ
[565.585]
<no-speech>
[571.045]
<laugh> <no-speech> hồi lúc tin nổi luôn
[574.145]
<no-speech>
[575.795]
<no-speech>
[576.225]
<no-speech>
[579.175]
tội <no-speech> nói chung cũng thấy cũng tội ổng kinh lắm
[581.205]
<no-speech>
[582.925]
<no-speech>
[583.345]
<no-speech>
[586.635]
<no-speech>
[586.985]
<no-speech>
[590.435]
<no-speech>
[591.305]
<no-speech>
[594.295]
<no-speech> ờ tự dưng Yến thiệt Hùng cái nói Phượng vui kinh á <laugh>
[598.215]
<no-speech>
[599.195]
<no-speech>
[599.625]
<no-speech> cứ mất
[599.98]
