[0.0]
<no-speech>
[0.955]
<no-speech>
[5.805]
<no-speech>
[7.335]
<no-speech>
[10.355]
<no-speech>
[11.895]
<no-speech> <sta> a lô
[13.855]
<no-speech>
[14.685]
<no-speech> <sta> a lô mẹ hả đang làm cái gì vậy <no-speech> đang ăn cơm với gì vậy
[24.735]
<no-speech>
[26.975]
<no-speech>
[27.365]
<no-speech>
[30.045]
nghe <sta> nghe nghe thấy mắm cái thấy nổi bọt ủa bác kho ở đâu vậy <no-speech> ủa sao có vậy sao không cho con
[41.655]
<no-speech> <sta> sao không cho con <no-speech>
[46.295]
<no-speech>
[48.335]
<no-speech>
[49.855]
<no-speech>
[53.595]
<no-speech>
[54.335]
<no-speech>
[55.315]
<sta> <no-speech> à mắc cười lắm để kể mẹ nghe sư phụ con á mới có Facebook á cái kêu con <foreign> Facebook của sư phụ nữa chứ <laugh> sư phụ nói sư phụ <foreign> nhiều hình trên đó lắm nhớ vô coi nhe <laugh>
[66.755]
<sta> <no-speech> dạ <no-speech>
[72.915]
<no-speech>
[74.415]
<sta> nhưng mà Facebook chứ không phải là Yahoo <no-speech> máy mẹ đâu có vô Facebook được <no-speech>
[82.615]
thấy up hình cái thấy ốm cái hôm bữa con mở webcam cho sư phụ coi cái sư phụ kêu <hes> sao dạo này con ốm quá vậy cái nói ồ yeah cái sư phụ kêu trời ơi
[93.375]
kêu nó ốm mà nó ù vậy <laugh> nói thì hồi sư phụ kêu con mập bây giờ sư phụ kêu con ốm mừng quá <laugh>
[103.325]
<no-speech> <sta> không được rồi sư phụ tối ngày ở trong chùa mà hỏi có đi du lịch nữa không có đi một vài chỗ <no-speech>
[114.805]
<no-speech> <sta> tối ngày thấy sư phụ <foreign> suốt luôn á <no-speech>
[125.655]
<sta> <no-speech> năm lăm mà mà đủ lạnh <no-speech> chưa
[133.465]
<no-speech>
[134.365]
<sta> <no-speech> có trưa đừng có mưa <no-speech>
[137.995]
<no-speech>
[140.015]
<sta> <no-speech> sao
[140.885]
<no-speech>
[143.965]
<sta> <no-speech> ghê quá vậy không biết ghê quá vậy
[148.385]
<no-speech>
[151.425]
<sta> <no-speech> thôi đừng kể nghe gớm quá à <no-speech> thôi đừng kể gớm quá
[155.835]
<no-speech>
[157.715]
<no-speech>
[159.035]
<no-speech>
[160.095]
<sta> <no-speech> dạ <cough> <no-speech>
[165.615]
<no-speech>
[167.555]
<sta> <no-speech> ghê quá à <no-speech>
[178.955]
<no-speech>
[180.855]
<no-speech>
[182.175]
<sta> thôi <no-speech> đừng kể gớm gớm quá <no-speech> ủa mà chừng nào con Quyên nó mới thi <no-speech>
[190.475]
<no-speech>
[192.305]
<no-speech>
[193.195]
<no-speech>
[195.615]
<sta> <no-speech> ờ <no-speech> mốt
[198.245]
<no-speech>
[199.915]
<sta> <no-speech> ờ <no-speech>
[205.195]
<no-speech>
[207.795]
<sta> không sáng có ăn chay thôi <no-speech> <laugh> con gái mẹ ngoan lắm tối bữa đó con gái mẹ còn đi tối mười bốn còn đi ăn chơi với mấy đứa trong lớp nữa <laugh> ở trên này lớn lắm á <sta> ở trên này người ta đi diễu hành rần rần rần rần luôn <no-speech> ở dưới Trà Vinh tí xíu xìu xiu ở trên này người ta đi diễu hành xe hoa quá trời luôn
[228.975]
<sta> xe xe máy đi kẹt nguyên một đường luôn không đi được luôn <no-speech> ghê chưa hồi trưa con mới kể cho sư phụ nghe không hề <no-speech>
[240.465]
không hề <sta> ở trên đây người ta làm lớn lắm <no-speech> không đi được chùa nào hết <no-speech> con bữa đó con mắc phải làm bài
[252.215]
<sta> con không có đi được <no-speech>
[256.585]
<no-speech>
[257.655]
<sta> con bị bệnh rồi con thức khuya mấy bữa để con làm bài với lại thi con bị trúng mưa nên giờ con bệnh rồi <no-speech>
[268.715]
<sta> thôi đừng con kêu uống sủi bọt uống sủi bọt gớm lắm không thích uống uống cái đó mắc ói lắm <no-speech>
[279.855]
<no-speech> <sta> thôi uống không được khó uống lắm uống ghê lắm <no-speech>
[288.655]
<no-speech>
[289.695]
<sta> lên trước đi lên trước đi <no-speech> sư phụ hả sư phụ kêu chừng nào có tiền sư phụ về <no-speech> chờ thêm mấy chục năm nữa <no-speech>
[301.215]
<no-speech>
[302.395]
<no-speech>
[303.725]
<no-speech> <sta> chưa biết hên xui <no-speech> thấy ra chụp hình quá trời
[308.695]
<no-speech>
[310.125]
<sta> gớm không <no-speech> ai cho nó cưới trước con <no-speech> giờ con không cho nó cưới <laugh>
[318.015]
<no-speech>
[319.265]
<sta> nhưng mà người ta chưa có hỏi <no-speech> để mất công nó nói con ế <no-speech> không <no-speech>
[329.345]
<no-speech> <sta> nhưng mà người ta chưa có xuống hỏi mà tự nhiên à <no-speech>
[337.415]
<no-speech>
[339.965]
<sta> cái gì <cough> mẹ nói thiệt chơi vậy <no-speech> mà mẹ nói thiệt chơi vậy
[351.605]
<no-speech> <sta> cái gì <no-speech> người ta có qua chưa <no-speech> người ta có qua chưa <no-speech> người ta có qua chưa
[363.395]
<no-speech>
[365.935]
<sta> thì chừng nào xong người ta qua đi rồi tính <no-speech> ừ
[371.375]
<no-speech>
[372.935]
<no-speech> <sta> con bảo nói chuyện không chịu
[374.215]
<no-speech>
[375.135]
<sta> thôi yên tâm đi đã nói là Tú nó cưới trước con thì nó cưới trước con đi <no-speech> con còn yêu đời lắm <no-speech>
[382.425]
<no-speech>
[384.535]
<sta> màu gì chứ bằng cái gì
[385.955]
<no-speech>
[387.885]
<sta> <no-speech> cái gì <no-speech> sa- thì đúng rồi thì bằng em
[396.055]
<no-speech>
[397.215]
<sta> ủa thôi thôi không chịu đâu thôi không chịu tự nhiên nó kêu nó kêu bé Bình bằng chị xong rồi tự nhiên kêu con bằng em ôi thôi
[405.525]
<no-speech>
[408.035]
<sta> không bây giờ mình theo Việt Nam mình không theo người Hoa nữa <no-speech> theo người Việt là ai <no-speech> <hes>
[414.855]
<no-speech>
[416.885]
<sta> thôi con không chịu đâu <no-speech>
[419.405]
<no-speech>
[423.135]
<no-speech>
[423.505]
<no-speech>
[428.015]
<sta> <no-speech> ờ chấp nhận chấp nhận
[432.835]
<no-speech>
[434.975]
<no-speech>
[435.475]
<no-speech>
[437.185]
<sta> <no-speech> trời ơi buồn chắc mốt chắc mốt con nó mấy tuổi rồi con <cough> còn chưa có nữa <cough>
[444.795]
<no-speech>
[447.245]
<no-speech>
[448.785]
<no-speech>
[451.505]
<sta> <no-speech> dễ à dễ nó giữ cho à <no-speech> có bé Bình nó giữ á <no-speech>
[459.695]
<no-speech>
[461.875]
<sta> ủa bé Bình ở đâu rồi <no-speech>
[463.865]
<no-speech>
[465.065]
<sta> ủa sao vậy nó bị bệnh hả nó ngủ sớm vậy <no-speech>
[468.635]
<no-speech>
[474.265]
<sta> thôi mẹ ơi mẹ nói chuyện ghê quá rồi vậy sao con dám giao <no-speech> tự nhiên nhưng mà nó lớn rồi nó biết nghĩ sao em bé mà nó làm như búp bê nó đem lặt đầu lặt tay gớm không
[484.035]
<no-speech>
[486.425]
<sta> thôi dẹp chọc giọng cười đó đi nha bạn mua đứt cái giọng cười đó đó nha <no-speech>
[491.295]
<no-speech>
[492.415]
<sta> bạn mua cái giọng cười đó nha không có được cười giọng đó nữa nghe chưa
[496.115]
<no-speech>
[497.705]
<no-speech>
[498.815]
<no-speech>
[504.785]
không có <foreign>
[506.475]
<no-speech>
[509.895]
<no-speech>
[511.715]
<no-speech>
[513.355]
<no-speech> <sta> đêm qua quợt với chị Thanh <no-speech>
[522.745]
<no-speech>
[523.815]
<sta> <no-speech> gặp chị Hoa <no-speech>
[526.625]
<no-speech>
[527.695]
<no-speech> <sta> <laugh> không thèm nói <no-speech>
[531.335]
<no-speech>
[532.405]
<no-speech>
[538.455]
<no-speech>
[541.335]
<no-speech> <sta> rời rạc <no-speech> nhưng mà <no-speech> nhưng chưa nhưng mà chưa có đủ <no-speech> tháng này bả không có đi là-
[553.175]
<no-speech>
[556.255]
<sta> thông báo cho bạn thông báo cho bạn biết là bạn còn đang thiếu thiếu mình đấy nhé <no-speech>
[563.955]
<no-speech>
[564.815]
<no-speech>
[565.345]
<no-speech>
[566.155]
<sta> chứ gì nữa lên hả <no-speech>
[570.665]
<no-speech>
[573.225]
<sta> thôi <no-speech> má mi khỏi cho con cái phần đó má mi lấy cái đó má mi <hes> mua thùng sữa cho hai đứa nó giùm con đi <no-speech> kêu The mua á thùng sữa á thùng sữa Cô Gái Hà Lan á hai trăm bảy tám á
[584.815]
<no-speech>
[585.655]
<sta> <no-speech> mua thùng sữa <no-speech> chín tây tháng sáu hả chưa biết <no-speech> ủa quên nữa sinh nhật The mấy tháng năm quên rồi mười tây sinh nhật ba phải không <no-speech>
[596.595]
<no-speech> <sta> Thi tới hai ba lận hả ôi còn lâu ba- ~
[600.1]
