[0.0]
<no-speech>
[2.825]
<no-speech>
[4.865]
<no-speech>
[9.045]
a lô <sta> <no-speech>
[16.514875]
<no-speech>
[25.185]
ừ
[25.755]
<no-speech>
[37.22]
<no-speech>
[48.685]
ừ
[49.375]
<no-speech>
[58.575]
<sta> có
[59.195]
<no-speech>
[60.745]
ơi
[61.415]
<no-speech>
[62.955]
mau quá ha
[64.045]
<no-speech>
[65.575]
ờ cái nó chịu hoành hành
[67.885]
<no-speech>
[78.045]
có <no-speech>
[79.055]
<no-speech>
[84.115]
có nộp hai trường đó thôi <breath>
[86.115]
<no-speech>
[88.725]
không biết <no-speech> chưa biết <no-speech> chắc (()) vào á
[92.045]
<no-speech>
[100.205]
có
[100.805]
<no-speech>
[108.995]
đi chơi mà có gì đâu mà học đâu
[110.935]
<no-speech>
[113.505]
<no-speech>
[114.215]
<no-speech>
[115.635]
chủ yếu là thi thi khối A
[117.105]
<no-speech>
[122.735]
hử
[123.425]
<no-speech>
[124.715]
<no-speech>
[125.205]
<no-speech>
[128.695]
đều đều
[129.525]
<no-speech>
[132.645]
ừ
[133.315]
<no-speech>
[142.345]
<no-speech>
[143.005]
<no-speech>
[151.27]
<no-speech>
[159.535]
<no-speech>
[159.905]
<no-speech>
[166.125]
<no-speech>
[172.345]
nộp ảnh
[173.325]
<no-speech>
[176.585]
hả <int> <no-speech> gần nhà á mà <no-speech> chạy xuống (()) cô tám chạy xuống một tí
[181.405]
<no-speech>
[186.075]
không <int> <no-speech>
[187.635]
<no-speech>
[189.975]
<no-speech> <int> không
[190.565]
<no-speech>
[194.635]
<no-speech>
[195.185]
<no-speech>
[197.245]
<no-speech> không <no-speech> ủa tuần sau rồi dì Ty có tiền hả
[199.735]
<no-speech>
[206.615]
<no-speech>
[208.075]
<no-speech>
[211.805]
ừ <no-speech> ừ <no-speech> tháng nào tháng này á hả <no-speech>
[216.245]
<no-speech>
[217.785]
<sta> <no-speech> đâu tháng này là chưa đóng <no-speech> chỉ có đóng môn Hóa à
[222.625]
<no-speech>
[224.355]
đợt học xong tháng nào đóng tháng đó đó
[226.195]
<no-speech>
[227.355]
<sta> <no-speech> học xong tháng nào đóng tháng đó <no-speech>
[229.625]
<no-speech>
[231.685]
<no-speech> thì cũng giống vậy
[234.185]
<no-speech>
[235.065]
<no-speech>
[235.805]
<no-speech>
[238.625]
ừ tháng sáu chắc nghỉ học thêm ở nhà <no-speech> tháng sáu chắc đi học môn toán thôi môn toán với môn ờ môn toán thôi <no-speech>
[245.605]
<no-speech>
[246.515]
Toán Lý <int>
[247.495]
<no-speech>
[248.805]
<no-speech> ừ
[249.955]
<no-speech>
[250.925]
môn Toán tại tháng sáu cô mới làm đề nhiều
[253.245]
<no-speech>
[254.155]
<no-speech>
[254.525]
<no-speech>
[261.265]
<sta> mơ <no-speech> không
[264.585]
<no-speech>
[267.735]
<sta> không <no-speech>
[268.625]
<no-speech>
[270.145]
<no-speech>
[270.505]
<no-speech>
[273.375]
có đợt hổm qua giờ á
[275.125]
<no-speech>
[280.115]
đợt nào nó qua
[281.495]
<no-speech>
[286.195]
hả
[286.735]
<no-speech>
[288.315]
<sta> <no-speech> con mới thấy mặc đồ con gái
[292.035]
<no-speech>
[300.645]
ờ đợt này hết thấy <no-speech>
[302.595]
<no-speech>
[304.775]
hết thấy rồi
[305.625]
<no-speech>
[314.515]
<no-speech> bả tưởng ai mày nói cái nó tưởng ai nó bỏ <no-speech> <breath> mẹ nó kêu xuống cái nó xuống
[319.545]
<no-speech>
[321.085]
ừ hư
[321.905]
<no-speech>
[327.235]
thôi đi bà cố <int>
[328.585]
<no-speech>
[338.375]
<no-speech>
[338.775]
<no-speech>
[347.805]
<no-speech>
[356.835]
<no-speech>
[357.415]
<no-speech>
[359.165]
<no-speech>
[359.525]
<no-speech>
[361.295]
làm có giống tao có con vô trỏng leng hoen không
[364.455]
<no-speech>
[370.325]
hơ đang kiếm bạn ở <breath>
[372.025]
<no-speech>
[375.945]
<no-speech>
[376.455]
<no-speech>
[377.905]
trời ơi con mà toàn ngồi gần thằng bạn ngồi kế một con nè
[382.445]
<no-speech>
[386.575]
không nó thi kinh tế nhưng mà <hes> nếu mà mình than hàng đầu hết thì nó ở gần lắm
[391.435]
<no-speech>
[393.215]
<hes> tại vì có chị nó ở đó nữa
[397.155]
<no-speech>
[401.145]
hả
[401.725]
<no-speech>
[407.905]
y nhưng mà được cái này mất cái khác
[409.805]
<no-speech>
[411.005]
<no-speech>
[411.395]
<no-speech>
[414.085]
<no-speech>
[414.895]
<no-speech>
[421.165]
thích nghi
[422.135]
<no-speech>
[429.445]
ủa lỡ thi không đậu sao trời
[431.285]
<no-speech>
[435.185]
lỡ thi không đậu thì sao
[436.655]
<no-speech>
[440.475]
<no-speech> ở ở chỗ đó ôn hả
[441.845]
<no-speech>
[447.375]
ờ <hes> phải tính cái đường xa chứ tính cái đường hợp thôi
[452.975]
<no-speech>
[456.985]
<no-speech> ừ
[458.285]
<no-speech>
[460.635]
tính phải tính hai đường chứ
[462.035]
<no-speech>
[468.975]
<no-speech>
[469.865]
<no-speech>
[471.635]
<no-speech> con là còn mục tiêu không có về dưới đó
[473.445]
<no-speech>
[477.515]
chứ con là mục tiêu không có về dưới đó
[479.535]
<no-speech>
[487.055]
<no-speech>
[487.405]
<no-speech>
[489.025]
ủa <hes> Đồng
[491.205]
<no-speech>
[492.135]
con Đồng nó <hes> ở chỗ kia học à
[494.565]
<no-speech>
[497.385]
<no-speech>
[497.755]
<no-speech>
[500.755]
<no-speech>
[501.105]
<no-speech>
[508.275]
nó <no-speech> nó học lên tới trung cấp luôn hả
[511.135]
<no-speech>
[512.165]
<no-speech>
[512.704875]
<no-speech>
[518.595]
<no-speech> <int> đóng tiền không
[519.595]
<no-speech>
[524.195]
không lấy tiền
[525.085]
<no-speech>
[526.895]
<no-speech> <lipsmack> trời ơi vô đó chắc toàn thứ dữ thôi
[529.145]
<no-speech>
[532.205]
<no-speech>
[532.585]
<no-speech>
[543.145]
ừ <no-speech> <lipsmack>
[544.235]
<no-speech>
[552.255]
<no-speech>
[552.835]
<no-speech>
[560.875]
<no-speech>
[568.915]
từ trung cấp là được rồi chứ gì
[570.715]
<no-speech>
[571.665]
<no-speech> học
[572.335]
<no-speech>
[574.285]
<no-speech>
[574.635]
<no-speech>
[577.005]
thì có nghề thôi
[578.185]
<no-speech>
[583.015]
nếu <hes> nếu học như nó tổng cộng phải cần có mười năm à
[585.915]
<no-speech>
[590.845]
<no-speech>
[591.275]
<no-speech>
[593.635]
<breath> <no-speech> giờ nó kêu nó kêu nó học bình thường mà
[597.395]
<no-speech>
[600.16]
