[0.0]
<no-speech>
[0.725]
<no-speech>
[3.015]
<no-speech>
[8.095]
<no-speech>
[8.655]
<no-speech>
[9.475]
<sta> Thiện hả <no-speech>
[11.515]
<no-speech>
[13.665]
gì đang ở trên trường chơi à <no-speech> xíu <int> xíu mới về trời này sắp mưa rồi <no-speech> hôm qua hỏi hỏi hôm qua đăng ký sao
[22.265]
<no-speech>
[23.715]
<no-speech> mấy môn rồi <no-speech>
[25.235]
<no-speech>
[28.115]
thì sao đăng ký nhiều vậy
[29.685]
<no-speech>
[30.795]
<no-speech>
[31.165]
<no-speech>
[32.815]
<no-speech>
[34.515]
<no-speech>
[36.435]
<no-speech>
[36.785]
<no-speech>
[40.335]
<sta> vậy đó ờ chưa <no-speech> chưa tính nữa
[42.985]
<no-speech>
[44.205]
<no-speech> thiện thiện
[45.185]
<no-speech>
[46.955]
ừ <sta> thì tao cũng tính học luôn mà vô năm tao học Quốc Phòng giùm nó thôi
[52.315]
<no-speech>
[58.485]
<no-speech> không tao muốn là tao làm thôi <no-speech> không có tiền cũng phải lo hết
[61.875]
<no-speech>
[63.865]
<no-speech> chịu nổi không mày
[64.555]
<no-speech>
[68.665]
<no-speech> thôi thôi dẹp dẹp <no-speech> <sta>
[70.655]
<no-speech>
[71.945]
giờ có cho đăng ký bổ sung không
[74.785]
<no-speech>
[79.475]
<no-speech>
[81.915]
<no-speech>
[83.235]
<sta> coi thử giùm coi <no-speech> coi thử giùm
[85.885]
<no-speech>
[94.595]
<no-speech>
[95.355]
<no-speech>
[96.475]
<no-speech>
[96.825]
<no-speech>
[100.115]
<no-speech> bây giờ nói chung là tới đâu rồi thì cứ kể ra <no-speech> thì mới biết mà tính tiếp
[104.295]
<no-speech>
[108.295]
<no-speech>
[109.055]
<no-speech>
[111.775]
<sta> mày một ngày phải điện thoại rồi mày hỏi nó <no-speech> rồi làm bài tập
[115.655]
<no-speech>
[117.665]
<no-speech> nghỉ tin đi <int>
[118.475]
<no-speech>
[121.005]
mà máy <sta> mày tập tới đâu rồi
[122.665]
<no-speech>
[124.515]
<no-speech> mới đầu phải
[125.265]
<no-speech>
[128.984875]
<no-speech> ui nói đang nói chủ đề này sao nhảy sang chủ đề nói xong cái này đi
[132.945]
<no-speech>
[137.075]
<no-speech> rồi <sta> <no-speech> chưa chưa chưa kịp sửa <no-speech>
[140.935]
<no-speech>
[141.825]
<no-speech>
[142.205]
<no-speech>
[144.175]
<no-speech>
[144.525]
<no-speech>
[148.685]
<no-speech>
[149.465]
<no-speech>
[153.585]
rồi nhảy chủ đề nữa rồi <laugh>
[156.875]
<no-speech>
[164.895]
nịnh hả <int>
[165.775]
<no-speech>
[167.475]
con Hạnh <int> hả hay sao
[168.585]
<no-speech>
[172.225]
<no-speech> trời ơi <no-speech> thì mày phải <no-speech> mì-
[174.375]
<no-speech>
[176.705]
<no-speech> mình mày con trai trong nhóm <no-speech> mày phải ga lăng lên xíu <no-speech>
[181.425]
<no-speech>
[183.055]
<no-speech> thì mày cứ <no-speech> làm mày điện mày hối nó <no-speech> rồi hỏi nó làm được không rồi <no-speech> giúp thôi chứ sao làm hết chi
[191.815]
<no-speech>
[196.815]
<sta> ông chép bài thằng Huy đúng không
[198.285]
<no-speech>
[200.845]
<no-speech>
[201.195]
<no-speech>
[202.395]
<no-speech> đang
[202.935]
<no-speech>
[204.535]
thôi đi mày (()) gì
[206.525]
<no-speech>
[208.055]
<sta> nghe hiền hiền <no-speech>
[210.465]
<no-speech>
[212.315]
thấy nó hiền hiền rồi <int> xin bài <sta> nó nhục mày
[214.365]
<no-speech>
[218.515]
rồi mày thấy nó hiền hiền mày cứ <hes> lấy bài của nó hoài vậy
[221.645]
<no-speech>
[224.805]
<no-speech> nó hiền hiền nó không có <no-speech> mày xạo mày <no-speech>
[226.905]
<no-speech>
[229.775]
<no-speech> <sta> nó <hes>
[231.205]
<no-speech>
[234.375]
nó <sta> nó nó cũng ít nói thôi
[236.325]
<no-speech>
[237.455]
X <sta> A A A
[238.825]
<no-speech>
[240.015]
<no-speech> vậy <hes> <no-speech>
[241.135]
<no-speech>
[242.245]
<no-speech> chơi không <no-speech>
[244.125]
<no-speech>
[244.965]
(()) <no-speech> hả
[247.665]
<no-speech>
[250.245]
<no-speech>
[250.635]
<no-speech>
[252.105]
<no-speech>
[252.475]
<no-speech>
[253.865]
<sta> ở chơi <no-speech> ở đây chơi đi đừng có về <int>
[256.484875]
<no-speech>
[258.955]
<no-speech> không
[259.455]
<no-speech>
[260.655]
<no-speech>
[261.205]
<no-speech>
[262.355]
<no-speech>
[263.185]
<no-speech>
[267.095]
<no-speech>
[267.465]
<no-speech>
[271.255]
<no-speech> (())
[271.885]
<no-speech>
[272.845]
(()) đi
[273.535]
<no-speech>
[276.535]
<no-speech> ba mươi tháng tư này về hả <no-speech>
[278.155]
<no-speech>
[285.145]
<no-speech> (()) <sta> đi ăn party không hát karaoke luôn
[288.515]
<no-speech>
[290.585]
<no-speech>
[291.115]
<no-speech>
[292.965]
<no-speech> thì <no-speech> bữa <int>
[294.915]
<no-speech>
[296.545]
<no-speech> ba mẹ nó cho mà <no-speech>
[297.715]
<no-speech>
[299.165]
<no-speech> <sta> ba mẹ nó cho rồi <no-speech>
[303.015]
<no-speech>
[304.935]
<no-speech> <sta> được được được <no-speech> mười tháng
[308.735]
<no-speech>
[309.905]
<no-speech>
[311.515]
<no-speech>
[312.805]
nó học lớp mười hai <sta> <no-speech>
[313.885]
<no-speech>
[320.315]
<no-speech> n- nó lên mày lên tao cũng lên
[322.235]
<no-speech>
[328.735]
<no-speech> đang ngoài đường nói lớn lên
[330.545]
<no-speech>
[337.035]
<no-speech> thôi vậy cứ kệ chết mồ nó đi <no-speech>
[339.455]
<no-speech>
[342.295]
<no-speech>
[342.785]
<no-speech>
[347.615]
<no-speech> m- mày hỏi em thằng Huy cái gì
[350.345]
<no-speech>
[352.325]
<no-speech> mà thằng Khôi nói gì <no-speech>
[353.655]
<no-speech>
[354.535]
<no-speech>
[355.085]
<no-speech>
[356.375]
<no-speech> <sta> ừ <no-speech> em
[359.295]
<no-speech>
[360.125]
<sta> thấy rồi <no-speech>
[361.195]
<no-speech>
[362.455]
<no-speech> <sta> ba mươi tháng tư này lên đi <no-speech>
[366.925]
<no-speech>
[371.175]
<no-speech> <hes> <sta> <no-speech> ga lăng tí muốn nhìn thì phải <hes> đi chứ <no-speech> giờ cứ hỏi hỏi thì
[377.105]
<no-speech>
[381.735]
<no-speech> thì bây giờ ba mươi tháng tư nè qua ăn party <no-speech>
[384.805]
<no-speech>
[388.715]
<no-speech> <sta> <no-speech> (()) làm gì <no-speech> nhớ má ha
[393.085]
<no-speech>
[396.125]
<no-speech> về làm nũng <sta> <laugh>
[397.655]
<no-speech>
[398.695]
<no-speech> thôi mày
[399.455]
<no-speech>
[401.305]
<no-speech> về <no-speech> về <no-speech>
[402.665]
<no-speech>
[403.985]
đây <hes> má ở nhà má đi (())
[406.555]
<no-speech>
[408.005]
<no-speech> ở nhà tự nhiên cứ mày về chi vậy <no-speech>
[410.825]
<no-speech>
[414.265]
thôi đừng có xạo mày về m- mày mày phá <int> má mày
[417.885]
<no-speech>
[418.875]
<no-speech> tốn tiền chợ má mày hả <no-speech> ê <no-speech> ở đây số cô mày mày
[425.905]
<no-speech>
[430.395]
<no-speech>
[431.775]
<no-speech>
[433.445]
ở lại nha <int>
[434.415]
<no-speech>
[436.815]
lại
[437.225]
<no-speech>
[439.065]
<no-speech> lại đằng mình đi
[439.945]
<no-speech>
[441.675]
<no-speech>
[442.085]
<no-speech>
[444.395]
nhậu không
[444.985]
<no-speech>
[447.355]
<no-speech> sạch boong
[447.985]
<no-speech>
[449.075]
<no-speech> (()) tính đi
[451.685]
<no-speech>
[452.585]
<no-speech> <int> Huy có kèo nhậu nè
[454.445]
<no-speech>
[458.335]
<no-speech> s- s- sao mày kêu mày thích <int> mà
[460.275]
<no-speech>
[463.885]
đi đi <no-speech> chơi chơi có gái nữa đừng lo
[466.835]
<no-speech>
[469.855]
<no-speech> không có dụ thiệt <no-speech> có nói có là có <no-speech>
[474.245]
<no-speech>
[478.755]
<sta> thì đi đi <no-speech> lớp có năm đứa à <no-speech> còn nhiêu đứa
[484.965]
<no-speech>
[487.995]
<no-speech> bữa qua nhà Huy có năm sáu đứa à <no-speech> mày không đi nữa <no-speech>
[491.875]
<no-speech>
[494.555]
<no-speech>
[495.695]
<no-speech>
[499.775]
gì t- sao tao thấy <int> mày ít đi chơi quá vậy
[502.375]
<no-speech>
[504.345]
<no-speech> ai mà cho mày chục con
[505.735]
<no-speech>
[507.865]
m- người ta kêu mày dê con á mày ơi suốt ngày ăn mà ở nhà hoài à
[511.135]
<no-speech>
[514.205]
<no-speech> mày công tử bột chứ công tử cái gì
[517.755]
<no-speech>
[519.935]
<no-speech> phải không rồi tao nói đúng rồi <no-speech>
[521.865]
<no-speech>
[525.775]
<no-speech>
[526.765]
<no-speech>
[527.665]
<no-speech> đi bar cha <no-speech> vậy hả <no-speech> đi bar <no-speech> công tử đi bar <no-speech>
[533.265]
<no-speech>
[535.575]
mà tao đã thấy gì đâu <int>
[538.135]
<no-speech>
[548.245]
<no-speech> <sta> hả
[548.905]
<no-speech>
[556.735]
rồi <hes> bây giờ sao giờ <int> <no-speech> vậy tóm lại <hes> <int> họp nhóm
[562.895]
<no-speech>
[564.485]
<no-speech>
[564.995]
<no-speech>
[566.335]
<int> <no-speech> Công không đi thì thôi nhưng mà <hes> cái <hes> <no-speech> còn cái vụ họp nhóm của <hes> Nghiệp Vụ Ngân Hàng nè <no-speech> (())
[575.015]
<no-speech>
[581.555]
<no-speech> thì bây giờ phải <hes> tìm tìm trước để lúc đó lên nói <no-speech> nói tụi nó là <no-speech> tập trung vô chỗ này chỗ nọ rồi mới bắt đầu phân chứ <no-speech> bây giờ tới lúc lên <no-speech> lên thì làm sao mà kịp
[593.305]
<no-speech>
[594.375]
<no-speech> bây giờ phải phân phải <no-speech> phải xem tổng quát trước rồi lên chỉ cần nói tụi nó <no-speech> ông về
[599.98]
