[0.0]
<no-speech>
[9.385]
a lô
[10.175]
<no-speech>
[12.795]
ừ thế <breath> <hes> mai thì <hes> mai thì thứ bảy thì <no-speech> ở trên này hôm nay là là chùa trên này thầy <hes> Thọ Bắc con trai tu một ngày cho các già trên này <no-speech> thế mà
[24.035]
hai tức là ngày kia đấy là <breath> thầy Thích Thông Phó thầy Phó ở dưới <hes> <breath> dưới tao cũng mời <hes> Phật tử xuống để dự Phật Đản của chùa thầy nhưng tôi bảo với cái Đông cái Đông nó bảo vậy nhưng mà tôi
[36.015]
tôi bàn với cái Đông là thôi <breath> để đến hôm mùng chín <hes> mùng chín âm lịch này ở bên chùa <breath> chùa thầy Nguyện đấy thì thầy tổ chức Phật Đản của cả huyện thế thì chắc chắn Phật tử mình phải đi rồi phải <hes> <breath> tầm
[47.155]
chung <hes> phát âm cúng đường đưa hết cho thầy tôi bảo cái Đông ấy bảo là báo với lại mọi người là ai phát tâm tùy ý ừ cứ đưa hết cho thầy để thầy phong bì <breath> vì hôm này là Phật đản
[59.065]
của cả huyện <no-speech> đấy thế phần bàn tán của cả huyện thì chắc chắn là mình cũng phải qua rồi thì ai đi được thì đi rồi <no-speech> thế thì <hes> <no-speech> ừ thế thì <hes>
[69.535]
hôm này thì bà có sang được không
[71.885]
<no-speech>
[73.255]
<no-speech>
[73.665]
<no-speech>
[76.245]
ừ <int>
[76.875]
<no-speech>
[77.865]
<no-speech>
[78.215]
<no-speech>
[82.465]
<no-speech>
[82.885]
<no-speech>
[83.735]
<no-speech>
[84.265]
<no-speech>
[88.175]
<no-speech>
[88.595]
<no-speech>
[95.435]
hôm qua đi được có đông không <no-speech> ờ thế mọi người thế đi kiểu gì thuê taxi à
[99.225]
<no-speech>
[109.255]
ừ ừ thế nhưng mà hôm qua <no-speech> hôm qua là thầy buổi chia sẻ thầy nói về <breath> phát thoại về vấn đề gì
[117.435]
<no-speech>
[127.96]
<no-speech>
[138.485]
<no-speech>
[138.845]
<no-speech>
[140.155]
<no-speech>
[142.515]
<no-speech>
[147.115]
<no-speech>
[150.725]
<no-speech>
[158.13]
<no-speech>
[165.535]
ừ <no-speech> <breath> thế mà ngày kia chủ nhật ngày kia là nhà bà là việc nhà bà là vẫn như như cũ đấy hử như thế hử vẫn thế hử <no-speech> mời <no-speech> thầy
[175.825]
<no-speech>
[180.865]
<no-speech> ừ ừ
[181.615]
<no-speech>
[183.145]
ừ
[183.585]
<no-speech>
[185.725]
<no-speech> ừ <no-speech> ừ
[187.485]
<no-speech> ừ <no-speech>
[191.845]
ừ thế <no-speech> nếu mà đến <hes> đến lần sau mà đi thì bà cũng cứ giáo háo nếu tôi đi được thì <hes> tôi đủ tiền thì tôi đi nhé <breath> vì là <no-speech> chứ mai mà đi tác phong đi lỡ vì là <breath> gì là thằng
[203.415]
con nhỏ này là giờ nó đang ốm thế này thì cũng phải đỡ cho mẹ nó chút chứ không thì không làm cái gì được <no-speech> nhé
[209.905]
<no-speech>
[211.715]
ừ ừ nó nó bị cảm viêm phế quản thế thì <no-speech> <breath> nếu mà lần sau mà có đi thì cứ giáo hóa nếu mà tôi đủ duyên tôi đi được thì tốt vì tôi cũng đang mong mỏi đi ra tham quan vãn cảnh chùa
[223.195]
nhé
[223.885]
<no-speech>
[226.175]
ừ
[226.695]
<no-speech>
[228.685]
ừ
[229.045]
ừ
[231.895]
ừ
[232.285]
<no-speech>
[238.87]
ừ
[245.455]
<no-speech>
[245.805]
<no-speech>
[248.305]
thế <hes> <breath> thế thế ông Hợi nhà bà về chưa
[251.955]
<no-speech>
[252.835]
chắc là hả
[253.855]
<no-speech>
[261.585]
<no-speech>
[269.315]
(())
[269.715]
<no-speech>
[271.085]
ừ <no-speech> thế không phải là mua đồ mang ra à mà lại chỉ gửi ấy xong mà ra ngoài đấy mới mua à
[276.165]
<no-speech>
[280.235]
này <no-speech> nhà bà nhà bà ơi bà bà thử nếu về bà về quê trên quê đấy giờ tôi ở đây tôi ngồi đây tôi chả đi được đến đâu cả <breath> nếu bà về trên quê bà xem có ai có chim già hay là gì đấy chim bồ câu cơ
[291.395]
mua hộ tôi với xong hẹn với họ là để hôm mùng chín Phật đản này để để phóng sinh nhé <no-speech> ừ tôi tôi tôi muốn phóng sinh <no-speech> phóng sinh chim bồ câu với hôm Phật đản ở bên chùa thầy Nguyện đó cơ nhé
[303.265]
giờ bà cứ đi hỏi hộ tôi xem nhé <no-speech> nghe thấy chưa
[307.535]
<no-speech>
[310.405]
<hes> mua được <hes> nếu mà mua ba bốn con càng tốt còn không thì cứ mua hai con thôi cũng được <no-speech> nhé
[316.875]
<no-speech>
[318.985]
ừ đấy phải chim già chứ không như cái hôm mà ở chùa La Tỉnh đấy thì <breath> có ai đấy họ họ mua chim nó còn non thì nó không <no-speech> nó không bay được thì <no-speech> rồi sợ nó chết
[330.335]
nó không được mớm map ừ mẹ nó thì <breath> rồi nó chết thì phí nhé <no-speech> thế bà cứ đi bà cố gắng bà thế giờ bà đi lên trên An Phòng ấy xem nà cứ hỏi hộ tôi xem dáo dác xem thế nào nhé
[342.165]
mua hộ tôi nhé <no-speech> từ nay đến hôm đấy nhé
[344.335]
<no-speech>
[345.265]
<no-speech> dạ <int>
[345.835]
<no-speech>
[351.955]
<no-speech>
[358.075]
<sta> ai bảo hôm nay trên chợ thế thì nay ba mươi làm gì có chợ nào
[360.865]
<no-speech>
[361.855]
hử <no-speech> đâu <sta> mai mới mùng mùng một nay ba mươi
[365.655]
<no-speech>
[366.605]
ừ
[366.975]
<no-speech>
[368.035]
đâu <sta> nay tháng đủ mà <no-speech> tháng này tháng đủ
[370.915]
<no-speech>
[377.625]
cứ cứ dáo dác xem thế nào nhé <no-speech> chả cừ quan trọng nhất rồi cứ mua lấy hai con thôi cũng được <no-speech> hiểu chưa <no-speech> ừ hôm chưa <no-speech> ừ chứ
[389.505]
chứ <no-speech> chứ chứ cứ mua lấy hôm nọ không cho gửi thì mình mang về mình <breath> bắt về rồi mình nuôi đến hôm đấy cũng được <no-speech> hiểu chưa <no-speech> chứ <hes> chứ
[400.455]
tôi muốn là giả sử hôm này hôm này thì <breath> làm lễ bên đấy thì chủ yếu là phóng sinh chim thôi chứ những cái đồ kia thì không không có đủ thời gian mà mà <breath> làm làm làm đâu ừ <breath> thế với lại để
[412.225]
<no-speech> (()) sợ nó chết hả
[413.745]
<no-speech>
[417.135]
để cho nhưng mà <breath> riêng cái chim sẻ thì thực ra cái chim sẻ thì <breath> <hes> mình làm thì cứ làm thôi chứ còn nếu mà không có không có cầu thì nó không có cung tức là <breath> mình mà không
[428.445]
không bảo người ta bắt thì lấy mua thì lấy đâu ra người ta bắt chứ còn chim sẻ thì không phải là như là <hes> cái chim bồ câu người ta nuôi nhốt trong lồng người ta xẻ thịt người ta ăn <breath> nó không ấy
[439.875]
ừ thì cứ mua chim bồ câu nhớ mua cố gắng mua lấy hai con <no-speech> thế <no-speech> ừ thế giờ đang bận làm gì đấy không thấy lên đây chơi đi
[449.285]
<no-speech>
[450.175]
hả
[450.715]
<no-speech>
[459.465]
à <breath> thế được rồi thế thế thế thế thằng Kiên là nó nó học <hes> đại học <hes> thông tin hay đại học gì
[466.905]
<no-speech>
[468.115]
à
[468.475]
<no-speech>
[472.905]
<no-speech>
[473.255]
<no-speech>
[474.895]
ơi
[475.415]
<no-speech>
[484.03]
<no-speech>
[492.645]
một bên thằng vất
[493.385]
<no-speech>
[494.985]
đây là gấp từ hai nơi thế còn nếu mà cứ chắc chả vào một phía thì chắc là á bao bao nhiêu đời chả đi được đến đâu
[501.135]
<no-speech>
[503.305]
thế rồi thế rồi bà Thanh hôm qua bà Thanh có đi không
[505.985]
<no-speech>
[509.505]
ừ
[509.945]
<no-speech>
[511.515]
ừ
[511.975]
<no-speech>
[513.825]
ừ <no-speech> hết thời mà
[515.485]
<no-speech>
[519.355]
trời <no-speech> à
[520.785]
<no-speech>
[522.284875]
rồi thế nhé chào nhà bà nhé <no-speech> ừ <no-speech> bai bai
[526.495]
<no-speech>
[529.36]
