[0.0]
<no-speech>
[0.035]
<sta> <no-speech> a lô
[2.545]
<no-speech>
[4.665]
có điểm chưa
[5.465]
<no-speech>
[7.555]
sao chưa có chịu rồi số báo danh số hả
[11.425]
<no-speech>
[15.245]
chắc có điểm không số báo danh số mấy
[16.625]
<no-speech>
[18.615]
<no-speech>
[18.985]
<no-speech>
[19.975]
hai bốn không bốn sáu hả <no-speech> rồi chiều chiều có điểm có đi không
[23.575]
<no-speech>
[25.695]
<no-speech> đi đâu
[26.675]
<no-speech>
[30.745]
<int> <no-speech> lát có đi kiếm nhà với tao không
[32.434875]
<no-speech>
[34.955]
không biết nữa <hes> tao mới cúp học về Bích Vân thì đi đóng nộp phạt rồi
[40.865]
<no-speech>
[44.335]
ừ nó đi <hes> nộp phạt lấy giấy tờ về rồi nó <hes> kêu là đợi đợi hơi lâu đợi hơi lâu
[49.335]
<no-speech>
[54.275]
<no-speech>
[55.075]
<no-speech>
[57.375]
ờ ờ nói khi nào lát mà nghe cái <hes> bíp là biết tao hết t- hết pin nha <int>
[61.645]
<no-speech>
[63.785]
hết pin
[64.525]
<no-speech>
[66.195]
<no-speech>
[67.235]
<no-speech>
[68.405]
ừ
[69.345]
<no-speech>
[70.985]
<hes> khoảng một lát bây giờ là mấy giờ bây giờ là gần mười một giờ phải không thì <hes>
[76.635]
<no-speech>
[79.365]
hôm nay đi nữa không qua đây đi nguyên ngày nữa được không
[81.605]
<no-speech>
[82.685]
tại hồi tối mới <hes> mới search một đống <hes> đống địa chỉ thì lát tao tính đi chung với thằng Luân
[88.575]
<no-speech>
[93.575]
thôi chắc đi hai thằng thôi không biết <hes> thằng Luân Luân nó kêu nó về nó về trễ không biết có
[100.385]
<no-speech>
[101.335]
biết có đi kịp không
[102.615]
<no-speech>
[104.495]
với lại phải phải phải chở đồ qua nhà mày nữa tại vì <hes> chiều nay tao qua ký hợp đồng rồi
[112.325]
<no-speech>
[115.305]
<no-speech> ký hợp đồng là cầm tám chai rưỡi liền <no-speech> he he
[118.345]
<no-speech>
[121.285]
ừ là lượm tiền liền
[122.705]
<no-speech>
[126.595]
<hes> mấy giờ
[129.835]
<no-speech>
[132.965]
mấy giờ ta
[133.795]
<no-speech>
[134.975]
ờ không không tao không tao thằng Luân nó nói nó nó nghỉ nguyên ngày hôm nay <breath> hồ- lát đi hai xe rồi rồi mày nói hôm mày nói hôm mày nói ba mày chưa là
[145.935]
tao gửi đồ không thôi ba mày bán ve chai nữa
[148.275]
<no-speech>
[152.235]
<no-speech>
[153.765]
<no-speech>
[155.025]
vậy dù gì cũng phải qua qua thôi vậy về thôi thôi thôi thôi giấc nữa mày chở đồ qua nhà mày thôi mày khỏi cần qua nhà tao phải không
[161.815]
<no-speech>
[165.425]
chứ qua rồi lát phải chở mày về nữa <no-speech> nhưng mà đáng lẽ phải là bốn thùng lận á
[170.155]
<no-speech>
[173.445]
bốn bốn thùng lận đó
[174.875]
<no-speech>
[179.335]
ừ
[179.865]
<no-speech>
[180.905]
<no-speech>
[181.995]
<no-speech>
[182.975]
<no-speech>
[183.335]
<no-speech>
[186.335]
<int> không vậy mày hai thùng Luân một thùng một thùng để bên nội
[189.315]
<no-speech>
[198.575]
<no-speech> ừ <no-speech> chắc hôm nay có không
[200.525]
<no-speech>
[203.075]
rồi đi đâu tính đi đâu <int> <no-speech>
[205.375]
<no-speech>
[208.715]
<no-speech> phố phố nữa hả giống hôm qua nữa hả
[210.805]
<no-speech>
[214.705]
anh đi kiếm nhà nữa đi <laugh>
[217.505]
<no-speech>
[220.945]
ba kêu ba tao kêu <hes> cứ thong thả ừ thì thong thả nhưng mà phải kiếm
[225.895]
<no-speech>
[227.225]
tại tao không muốn ở bên nội
[228.535]
<no-speech>
[233.625]
cái gì
[234.275]
<no-speech>
[237.495]
không tao cũng thì tạm thời là ở một hai ngày bên nội thôi tao nghĩ là cuối tuần cũng phải có nhà chứ
[242.915]
<no-speech>
[245.845]
<no-speech>
[246.375]
<no-speech>
[250.665]
trời kiếm kiếm thì mang tiếng kiếm vậy thôi chứ ai biết <hes> thấy chọn căn nào ba tao cũng ưng hết á
[256.705]
<no-speech>
[263.505]
cái căn cái căn cái căn kia hấp dẫn lắm á mà không không được <int> <no-speech> không mà hồi nãy tao tao nói bạn tao cái căn đó đó thì bạn tao nói ừ ở trong khu đó toàn vậy không đó
[273.295]
<no-speech>
[276.655]
<no-speech>
[277.015]
<no-speech>
[278.375]
<sta> vậy là đi phải đi vòng vòng trong khu đó kiếm còn cái căn nào <hes> ngon hơn một chút
[284.665]
<no-speech>
[291.055]
hèn gì ba ba- tao ba tao rao là hai triệu trở xuống đó <no-speech> mới đầu là ghi để <hes> <no-speech> triệu triệu hai thôi <no-speech> mà thấy chị tao hai cái phòng gớm quá <no-speech> <hes> nâng lên hai triệu
[302.275]
<no-speech>
[304.265]
<no-speech>
[306.445]
<no-speech>
[307.895]
căn triệu rưỡi thôi không được không được cái căn cái căn đó không có chỗ để xe
[311.665]
<no-speech>
[314.205]
<sta> tao thấy là ở bên muốn để xe mà đâu để xe ngoài đường được đâu
[318.185]
<no-speech>
[319.275]
cái đường ở đó vắng hoe
[320.465]
<no-speech>
[325.045]
mà tao đi đi đi suốt mà đi ra đi vô đi ra đi vô hoài thì đồng ý căn đó ở gần trường thiệt
[331.375]
<no-speech>
[340.085]
<no-speech> khu Quang Trung á hả
[341.275]
<no-speech>
[343.135]
<hes> ừ thì
[345.205]
<no-speech>
[346.655]
chắc chiều chiều tối tối gì con bạn tao nó cũng dẫn tao đi coi gần nhà nó
[350.105]
<no-speech>
[356.295]
<int> thì
[357.025]
<no-speech>
[360.355]
đang chơi cái gì vậy
[361.205]
<no-speech>
[364.855]
gì Warcraft hay Võ Lâm
[366.855]
<no-speech>
[369.335]
thi thi thi xong rồi <hes> giờ game hả quay lại game hả
[374.675]
<no-speech>
[379.385]
ở ngoài này ngày nào tao chả qua nhà mày chơi
[381.345]
<no-speech>
[388.605]
<no-speech>
[388.955]
<no-speech>
[391.035]
ờ
[392.035]
<no-speech>
[394.755]
<int> ba bốn giờ chiều hả thì khoảng <hes> một lát lát bác Luân <hes> đi nộp phạt xong rồi về ăn trưa rồi mười hai giờ qua nhà tao rồi bắt đầu cỡ
[405.625]
ngủ nghỉ rồi tới một giờ tao xuất phát kiếm kiếm tới <hes> ba giờ <int> rồi dọn đồ qua nhà hai tụi bay
[414.305]
<no-speech>
[415.145]
rồi xong tới năm giờ kêu gọi điện kêu người ta qua ký hợp đồng
[418.695]
<no-speech>
[419.815]
ba tao giao hợp đồng cho tao luôn rồi giờ tao đứng tao đứng tên tao đứng tên ký luôn
[423.665]
<no-speech>
[431.425]
không thì như ờ cái cái căn cho thuê là tao quản lý còn cái căn cái căn mà tao tao đi thuê lại á thì lại là ba tao quản lý
[438.765]
<no-speech>
[440.925]
<no-speech>
[441.295]
<no-speech>
[442.385]
<sta> chứ muốn chứ mà cái căn mà tao đi thuê lại mà tao quản lý được tao mướn căn nào chả được
[448.065]
<no-speech>
[449.065]
chứ đi học mà thì đâu có tiền tài sản gì quý giá đâu mà cần phải nhà kiên cố gì
[454.525]
<no-speech>
[458.765]
làm phách ừ thì thì thì đồng ý là cái căn cái căn hồi hôm qua coi là ván ép thiệt còn tệ hơn bên quận tư nữa <int> cái <hes>
[466.535]
<no-speech>
[468.105]
cái cái địa điểm thì tương tự quận tư thôi nhưng mà cái
[470.825]
<no-speech>
[472.535]
cái phòng nó tệ
[474.175]
<no-speech>
[477.635]
<no-speech> ấy nhưng mà nhưng mà cái môi trường xung quanh rất là tốt
[479.755]
<no-speech>
[480.835]
<no-speech>
[482.035]
<no-speech>
[486.865]
thì bạn tao nói khu trong đó toàn vậy không đó
[488.715]
<no-speech>
[494.125]
thì <sta> rảnh rảnh thì lên lên đó lùng thêm một lần nữa
[496.975]
<no-speech>
[503.125]
<breath> mày mày mày mày mày mày còn rát không <int> giờ tao đang rát lắm luôn
[507.145]
<no-speech>
[508.565]
nhả nhả nắng lẹ thiệt chứ
[510.255]
<no-speech>
[518.014875]
ừ thì mày cứ nói chuyện đi chừng nào <hes> nghe kêu nghe cái tiếng là biết máy tao hết pin vậy thôi
[524.275]
<no-speech>
[528.965]
ừ
[529.595]
<no-speech>
[539.085]
mười lăm mười bốn lăm hăm lăm mười bốn hả
[541.215]
<no-speech>
[542.335]
hôm nay mười bốn
[543.255]
<no-speech>
[546.695]
<no-speech> không có đâu mười tám mới có mày ơi <int> <no-speech>
[549.425]
<no-speech>
[550.525]
<no-speech>
[551.185]
<no-speech>
[553.155]
vậy là sáng mai hả
[554.135]
<no-speech>
[556.285]
<no-speech> gì lẹ vậy
[557.035]
<no-speech>
[561.815]
ghê vậy
[562.585]
<no-speech>
[563.435]
<no-speech> toàn đồ quay cóp không <laugh>
[565.125]
<no-speech>
[568.745]
<sta> toàn đồ quay cóp không đó mày ơi <no-speech>
[571.785]
<no-speech>
[577.175]
gì giờ mày ngồi ở đó tới chiều luôn hả
[578.935]
<no-speech>
[583.195]
bốn giờ về tao tiêu hả <laugh> <breath>
[585.315]
<no-speech>
[587.475]
<no-speech>
[587.825]
<no-speech>
[589.235]
nhắn nhắn cái tin đó lên mạng search nó thí dụ nhắn cái tin đó khi nào có điểm nó gửi về máy
[593.535]
<no-speech>
[598.085]
r- rồi nhắn chưa rồi rồi đăng ký chưa
[599.955]
