[0.0]
<no-speech>
[9.515]
(())
[10.455]
<no-speech>
[14.545]
rồi em nghe rồi
[15.875]
<no-speech>
[19.695]
khỏe chào anh
[20.885]
<no-speech>
[25.845]
(())
[27.055]
<no-speech>
[29.205]
(()) hôm mười hai đó <no-speech> hôm mười hai
[35.025]
<no-speech>
[36.125]
dạ
[36.675]
<no-speech>
[37.485]
(()) hôm mười hai (())
[39.485]
<no-speech>
[40.435]
dạ
[40.945]
<no-speech>
[42.945]
hôm mười hai dương
[44.375]
<no-speech>
[45.545]
em nghe này
[46.505]
<no-speech>
[51.265]
dạ vâng
[52.165]
<no-speech>
[53.935]
dạ khỏe
[54.995]
<no-speech>
[57.485]
dạ
[58.125]
<no-speech>
[59.685]
xong rồi bây giờ là về nhà ăn chơi nhảy múa
[62.445]
<no-speech>
[65.665]
thích chứ sao không thích
[66.815]
<no-speech>
[72.415]
sáu rưỡi tàu chạy đúng không
[74.115]
<no-speech>
[78.245]
bữa nay về đón em được không
[79.905]
<no-speech>
[83.795]
eo ơi đồ linh tinh em bắt xe buýt em đi mệt quá say xe
[87.955]
<no-speech>
[91.435]
bữa em về là đã bữa em về là đã đã gần chết rồi đó
[94.645]
<no-speech>
[103.925]
trời ơi bữa em đi em đã mệt gần chết rồi chừ bắt xe buýt xuống đấy nữa chắc chết luôn quá
[108.345]
<no-speech>
[113.645]
<lipsmack> mệt lắm (())
[116.765]
<no-speech>
[119.725]
gì thế bữa nay coi đã thì kêu <no-speech> để bữa đó em coi đã thì có chi không thì em <no-speech> nhắn cho anh Tâm chắc em xuống được thì em chào anh Tâm chứ
[125.995]
<no-speech>
[129.435]
vâng
[130.045]
<no-speech>
[134.335]
anh Tâm không có bằng lái hả
[135.645]
<no-speech>
[137.375]
thôi thế thì em bắt xe buýt cũng được tại anh đón thì em mang ít đồ thôi
[140.425]
<no-speech>
[147.355]
em bữa thứ hai học rồi <no-speech> mười ba tháng <no-speech> hai hoặc mười ba dương <no-speech> vô trễ mất <hes> hai ngày
[154.275]
<no-speech>
[163.265]
tắt hả <no-speech> hay sao
[165.315]
<no-speech>
[166.615]
anh nói chi
[167.605]
<no-speech>
[174.865]
có đang mưa to mưa lâm râm mà dày hột lắm
[177.545]
<no-speech>
[180.965]
dạ <no-speech> thôi có chi bữa sau em bắt xe buýt xuống cũng được em tại <hes> em mang va li mình va li thôi nên em bắt xe buýt cũng được
[187.535]
<no-speech>
[191.635]
có *thỉnh* thoảng cũng xuống
[193.115]
<no-speech>
[196.305]
ừ tại mấy nay đi cũng mệt (()) tại mấy nay em mệt quá em *chả* xuống được nhiều
[203.225]
<no-speech>
[205.265]
bữa trước bữa nay mới *chở* mẹ đi khám bệnh
[208.415]
<no-speech>
[210.905]
em ạ chở mẹ em á <no-speech> chở mẹ em <no-speech> dạ
[215.975]
<no-speech>
[219.005]
đi khám bệnh mới á tại mẹ hay đau đầu với đau đau sống lưng nên đi khám coi có bệnh không
[223.355]
<no-speech>
[227.065]
ừ
[227.815]
<no-speech>
[229.315]
không tức nghĩa là bữa nay thấy mệt *mỏi* trong người đi khám coi có bệnh gì không
[232.885]
<no-speech>
[235.975]
không
[236.725]
<no-speech>
[238.465]
nói chung bị rối loạn tuần hoàn não rồi
[241.195]
<no-speech>
[252.315]
dạ vâng Anh Trâm nói nè
[253.885]
<no-speech>
[257.215]
em không thích đi mấy mấy nay đang ở nhà mà chưa đi
[259.995]
<no-speech>
[262.975]
chưa <no-speech> đang ở nhà
[265.225]
<no-speech>
[267.595]
<no-speech>
[268.055]
<no-speech>
[272.365]
<no-speech>
[272.915]
<no-speech>
[279.685]
mị á vậy đi từ mùng chín
[281.735]
<no-speech>
[284.975]
nơm
[285.735]
ừ
[288.275]
vậy hả
[289.195]
<no-speech>
[293.345]
vệ vệ vệ đi bữa mùng chín mùng mười bắt đầu cấy đấy
[296.275]
<no-speech>
[305.375]
không bệnh chi nói chung không được chi hết
[307.405]
<no-speech>
[310.575]
không
[311.255]
<no-speech>
[313.465]
thế á
[314.095]
<no-speech>
[316.085]
bữa nay nhà mình
[317.035]
<no-speech>
[319.135]
(())
[321.585]
<no-speech>
[326.525]
chỗ em nhắn cho số ba hai tám cuối cùng với
[329.485]
<no-speech>
[332.625]
vậy hả
[334.385]
<no-speech>
[337.315]
không một hai bảy không không không chín tám tư
[342.985]
<no-speech>
[346.135]
ừ
[346.725]
<no-speech>
[348.855]
trời ơi dùng cả năm nay mà kêu mới anh đúng là
[351.995]
<no-speech>
[357.275]
ai em á
[358.335]
<no-speech>
[360.085]
năm sau
[360.985]
<no-speech>
[362.245]
năm sau <no-speech> năm sau
[364.415]
<no-speech>
[368.535]
là sao
[369.635]
<no-speech>
[373.555]
<int> tùy
[374.865]
<no-speech>
[377.035]
đâu lấy lấy người thanh hóa mình mà
[379.015]
<no-speech>
[382.105]
lấy người thanh hóa mình mà
[384.125]
<no-speech>
[389.445]
chắc là ở trong kia
[390.675]
<no-speech>
[391.685]
(())
[394.735]
<no-speech>
[395.785]
cũng hên xui à <no-speech> chưa biết
[397.625]
<no-speech>
[398.925]
sao
[399.495]
<no-speech>
[402.405]
<hes> nó đi cùng em
[403.545]
<no-speech>
[405.155]
thằng nào mà đi cùng em
[406.425]
<no-speech>
[410.305]
không <no-speech> thằng đó thì nó <no-speech> ư <no-speech> nói chung thằng đó nó cũng <no-speech> thích em nhưng mà em không yêu em không lấy <no-speech> thằng khác cơ <no-speech> thằng này anh chưa gặp mặt
[420.015]
<no-speech>
[422.565]
thằng này nó ở thọ xuân kia
[424.185]
<no-speech>
[428.135]
ừ
[428.635]
<no-speech>
[430.015]
gì <no-speech> thằng làm công an á
[432.405]
<no-speech>
[437.415]
dạ vâng hôm em nói chuyện với anh là thằng làm công an đó
[440.175]
<no-speech>
[443.575]
dạ <no-speech> ư hư <no-speech> hì
[445.695]
<no-speech>
[449.855]
em không biết nó làm sao chứ tại công việc của nó cũng vất nó làm công an nó đi tối ngày cũng chán
[459.475]
<no-speech>
[465.035]
ừ <no-speech> cứ để đó rồi lúc nào tính <no-speech> mà biết đâu được cứ thử xem xem sao đã
[470.665]
<no-speech>
[481.545]
sao
[482.215]
<no-speech>
[483.975]
anh nói gì <no-speech> ai
[485.595]
<no-speech>
[487.275]
Dũng hả
[488.215]
<no-speech>
[489.295]
Dũng đi rồi
[490.555]
<no-speech>
[493.405]
ừ
[494.135]
<no-speech>
[495.425]
chị đi từ bữa <hes>
[497.715]
<no-speech>
[498.875]
Chị đi từ bữa ư (()) rằm đó
[501.355]
<no-speech>
[506.365]
ừ
[507.055]
<no-speech>
[510.685]
anh Thọ đi sau chứ
[512.295]
<no-speech>
[518.205]
Anh Thọ đi sau Dũng đi trước
[520.064875]
<no-speech>
[528.475]
Thì hôm nay đã là mười bảy âm rồi thằng Dũng nó đi từ hôm rằm mà hôm mười năm âm mà
[532.895]
<no-speech>
[536.195]
nó đi từ hôm mười năm âm <no-speech> rằm xong cái là nó đi luôn
[539.905]
<no-speech>
[543.095]
nó đi hôm rằm luôn ấy chứ hôm mười năm là nó đi rồi
[545.655]
<no-speech>
[549.205]
còn anh Thọ mãi mấy hôm sau mới đi mà
[550.875]
<no-speech>
[554.005]
dạ em nghe này
[555.125]
<no-speech>
[564.975]
rồi O_K
[566.145]
<no-speech>
[568.635]
ừ
[569.155]
<no-speech>
[570.195]
dạ vâng
[570.935]
<no-speech>
[572.295]
dạ dạ
[572.815]
<no-speech>
[577.12]
