[0.0]
<no-speech>
[6.555]
<no-speech>
[7.355]
<no-speech>
[8.255]
<no-speech>
[11.615]
<no-speech> a lô
[12.395]
<no-speech>
[13.425]
à trời ơi sao êm ru vậy
[15.665]
<no-speech>
[20.715]
a lô <no-speech> Hiếu nè
[22.435]
<no-speech>
[24.915]
<no-speech> gì
[25.625]
<no-speech>
[27.865]
sao <hes> sao bắt máy rồi lại êm ru vậy <no-speech> a lô
[31.275]
<no-speech>
[34.305]
<no-speech> a lô
[35.015]
<no-speech>
[40.305]
<no-speech> a lô
[41.655]
<no-speech>
[45.745]
sao không có nghe được nè <int> ừ a lô
[49.705]
<no-speech>
[51.16]
