[0.0]
sao
[0.255]
mày <sta> không bằng mày gầm mồm mày đi
[1.485]
như vậy à <no-speech> mày có tin tao đạp một phát mày bắn vào tường không
[4.625]
<no-speech>
[5.565]
<int> lấy đồ chơi của bạn bạn nào lấy đồ chơi xong hòn gạch lá to bằng này này <no-speech> rồi đòi ném ai bảo lấy của bạn cháu anh Học hơn cháu rồi
[15.325]
<no-speech>
[19.675]
đồ chơi của mày mày <int>
[20.395]
không biết giữ <no-speech>
[21.525]
<sta> <no-speech> a lô <no-speech> ừ
[31.335]
<no-speech>
[35.635]
ừ <int> <no-speech>
[37.295]
<no-speech>
[38.835]
<no-speech>
[39.185]
<no-speech>
[40.155]
<int> làm vậy vậy thì bình thường thôi
[41.745]
<no-speech>
[48.075]
ờ <no-speech>
[48.725]
<no-speech>
[54.105]
<no-speech> Đồng Nai (()) tao vẫn ở Đồng Nai mà
[56.355]
<no-speech>
[65.465]
à tao tao nghỉ đấy rồi giờ <hes> làm thời vụ ấy mà giờ về đây chỗ Đồng Nai đây rồi <int>
[70.485]
<no-speech>
[74.085]
làm chỗ nó công ty <hes> cao su ấy mà <no-speech> <sta> cao su Vina đó
[79.075]
<no-speech>
[81.385]
ừ <no-speech> ừ
[83.085]
<no-speech>
[85.195]
hút đờm à phải hơn trăm à
[86.945]
<no-speech>
[91.455]
thời vụ à <no-speech>
[92.415]
<no-speech>
[94.435]
ừ <no-speech> ôi nhưng mà mày dưới khỏe không <no-speech> <int>
[98.465]
<no-speech>
[100.835]
<int> ôi
[101.215]
<no-speech>
[103.325]
<no-speech> sao (())
[104.105]
<no-speech>
[112.235]
<no-speech>
[112.595]
<no-speech>
[120.135]
à
[120.855]
<no-speech>
[128.64]
<no-speech>
[136.425]
à Yên rút đinh ra ấy gì <int>
[138.275]
<no-speech>
[140.515]
<no-speech> à
[141.155]
<no-speech>
[142.615]
<no-speech> ờ cái đấy em biết rồi
[143.975]
<no-speech>
[145.085]
thế ấy tháo ra coi giờ là khỏe rồi chứ gì
[148.065]
<no-speech>
[158.685]
<no-speech> <int> ờ
[159.105]
<no-speech>
[160.075]
<no-speech> (())
[160.615]
<no-speech>
[169.29]
<no-speech>
[177.965]
<sta> <no-speech> ờ thì nằm ở bệnh viện <hes> Nam Định chứ gì
[180.795]
<no-speech>
[184.735]
à Sài Gòn Nam Định à đéo biết <no-speech> thường người ta viết <sta> Big_C đấy thôi
[189.425]
<no-speech>
[194.755]
ừ <int>
[195.315]
<no-speech>
[200.055]
<sta> ừ
[200.475]
<no-speech>
[204.105]
<no-speech> ừ <int>
[205.355]
<no-speech>
[209.975]
chưa bán <sta> được <no-speech> chưa bán được mày ạ
[212.415]
<no-speech>
[214.295]
ừ
[214.855]
<no-speech>
[218.005]
giờ cái Linh nó đéo lấy nó cũng đang xây nhà mà <hes> giờ cái đất cái đấy sang năm nó lại chuyển đổi
[225.745]
<no-speech>
[227.665]
làm thủ tục chuyển đổi đất lên <hes> thổ cư thì người ta cũng đang chuẩn bị tiền <hes> ta lên
[232.315]
<no-speech>
[241.305]
mà nếu bán thì chắc gì huề hả đéo mẹ có khi lỗ đấy
[245.345]
<no-speech>
[247.375]
<no-speech> ừ <int>
[247.935]
<no-speech>
[256.235]
<sta> vẫn liên lạc vẫn chỗ đất ấy thì thỉnh thoảng vẫn liên lạc
[259.495]
<no-speech>
[262.305]
ờ vẫn đang bảo là liên lạc xem đất đai thế nào ấy mà
[264.995]
<no-speech>
[276.005]
<sta> bán <hes>
[277.485]
<no-speech>
[283.315]
<sta> chưa bao giờ đồ bắt nó lấy lấy bảo nó lấy bằng vốn <laugh>
[286.065]
<no-speech>
[287.855]
ừ nó lấy thì như giá cũ thì thế ông mà ông tính <sta> xem địt mẹ hay là bán mẹ để lại cho nó cũng được ấy nhỉ <no-speech>
[296.055]
<no-speech>
[298.055]
<no-speech>
[298.575]
<no-speech>
[308.535]
<no-speech>
[318.495]
<sta> ừ <no-speech>
[323.915]
<no-speech>
[329.435]
<no-speech>
[332.045]
<no-speech>
[334.645]
<sta> ừ <no-speech> cái đất <hes> cái cái đất ở tôi (()) đỗ lại thì cái đấy thì hơn cả cái đất ở chỗ hộ của ông ấy (())
[341.025]
<no-speech>
[342.255]
nhưng mà ừ mỗi c- mỗi cái là vì giờ cái đường dân nó ở đông rồi <no-speech> mà đấy bây giờ cái đường đấy vào nó cũng xây biệt thự biệt thiếc giời có mấy thằng dân ở đấy nó cũng giàu nó về xây biệt thự nhiều rồi
[353.645]
<no-speech>
[354.665]
ừ mỗi cái là tương lai tương lai thì không bằng đất của ông rồi
[358.135]
<no-speech>
[359.475]
tương lai không bằng chỗ đất của mày dưới góc Nam <no-speech> vì chỗ mày gần khu công nghiệp <sta> ấy thì là dân nó ở thôi
[364.275]
<no-speech>
[366.095]
<no-speech> ừ <int>
[366.485]
<no-speech>
[369.385]
<no-speech> ấy
[369.925]
<no-speech>
[379.91]
<no-speech>
[389.895]
<no-speech> ừ
[390.295]
<no-speech>
[394.035]
<no-speech>
[394.775]
<no-speech>
[403.795]
ừ
[404.415]
<no-speech>
[413.835]
<no-speech>
[423.255]
<no-speech> ờ
[423.905]
<no-speech>
[434.741667]
<no-speech>
[445.578333]
<no-speech>
[456.415]
vì chính vì tôi mới tính bảo địt mẹ giờ tự dưng bán trong khi đó mình phải đi lại quá trời lần đi lại <sta> <no-speech> bao nhiêu thời gian đâu phải là chỉ một vài lần là xuống mà mua được đất đâu
[467.325]
<sta> đang tí- tao đang tao đang tính đợt tao mua là một triệu <no-speech> đợt tao mua là trăm
[474.505]
<no-speech>
[475.325]
<sta> trăm <hes>
[476.925]
<no-speech>
[477.765]
trăm sáu bảy mươi trăm bảy tám
[480.465]
<no-speech>
[481.625]
à trăm <hes> trăm trăm sáu tám
[483.765]
<no-speech>
[484.655]
năm trăm sáu tám <int> <no-speech> sáu trăm sáu tám
[487.605]
<no-speech>
[488.595]
giờ tao đang <hes> kêu ông kia <no-speech> tao cũng bảo ông kia rồi trước chủ <no-speech> mình mua đất đó
[494.465]
<no-speech>
[495.805]
ông bảo ông là bán rồi mà mà chưa thấy điện lại
[498.725]
<no-speech>
[501.145]
mà đang tính chắc tầm khoảng tầm <hes> mình nói lên chắc tầm hai trăm quá
[506.065]
<no-speech>
[508.745]
ừ <no-speech> xem có thằng nào ấy thì nó giả
[511.765]
<no-speech>
[521.185]
<no-speech>
[530.605]
<no-speech>
[540.025]
<no-speech>
[549.445]
<no-speech>
[549.735]
<no-speech>
[552.22]
