[0.0]
<no-speech>
[0.295]
<no-speech> <sta> ờ <no-speech> ờ về đến đâu rồi <no-speech>
[10.285]
<no-speech>
[11.095]
<no-speech> <sta> về đến đâu <no-speech> ơ giờ mới đến Đồng Văn à <no-speech> à về đến dốc Văn á <no-speech>
[22.385]
<no-speech>
[23.215]
<sta> thế à <no-speech> thế thì ra cái đường cao tốc được ba ra đến <hes> đến đồng <hes> đến cái giờ chỗ <hes> hội hội gì đấy á
[31.235]
<no-speech>
[34.885]
<int> à giờ mới ra đến cầu Pháp <hes> Pháp Vân á
[38.165]
<no-speech>
[39.125]
<no-speech>
[39.575]
<no-speech>
[40.715]
à thế à ở nhà đang ăn cơm rồi
[42.765]
<no-speech>
[44.245]
ừ đang ăn rồi ăn cho các chú các thím còn về
[46.895]
<no-speech>
[48.235]
ừ <int> thế về đến nhà thì phải tầm tám giờ nhỉ <no-speech> <int>
[53.965]
<no-speech>
[55.565]
ừ chắc tám giờ mới về đến nhà thế lúc bấy giờ về thì sáu giờ à
[59.765]
<no-speech>
[63.295]
<int> thế à <no-speech> <sta> thế à thế ấy à thế thế thế thế xe của thằng Hòa à
[68.405]
<no-speech>
[70.535]
<sta> à thế à ừ
[72.125]
<no-speech>
[74.725]
ừ chuẩn bị mũ mã là đưa hết về chùa rồi <no-speech> thế <int> còn một cái xe lôi với lại năm cái xe máy nữa là mười người
[85.695]
<no-speech>
[86.685]
thế mới lại một cái xe đòn là mười hai người đi hả mười người đi
[89.955]
<no-speech>
[91.105]
đi <sta> mang hả
[92.215]
<no-speech>
[93.675]
mang tất về chùa rồi
[95.245]
<no-speech>
[97.385]
<int> ừ tất cả ba mươi hai ấy cơ mà <no-speech> <breath> ba mươi hai hử
[103.795]
<no-speech>
[105.585]
ừ ba hai nhưng mà đại khái là lên chùa thì độc có có ông mới lại bác Bình thôi <breath> <int> còn những các cụ kia thì coi như là ba mươi vong là quần áo từ bốn <breath>
[115.685]
<breath> từ <hes> bốn năm đời giở xuống <int> thế kể cả những chị Chuyền nhà bác Lý nhé nhà bác Lý ông Cẩm bà thau ghiếc là <breath> mấy lại từ ông các cụ ở đống dù diết để mà còn có cụ ngày <int>
[127.335]
xưa các cụ ấy hai ba bốn vợ
[129.155]
<no-speech>
[130.165]
thế nên ừ <laugh> <sta> thế là ấy thế là tất cả là ba hai cơ mà <no-speech> đi mang
[137.005]
<no-speech>
[137.835]
à cái Vân với cái Nhung thì đang trên đường về chắc hả <int>
[141.285]
<no-speech>
[143.605]
có sáng mai bác trai mới bác gái về <breath>
[145.875]
<no-speech>
[146.885]
chắc sáng mai thế còn các chú ngoài ông Vượng thì cũng về tất <hes> cũng về tất nhưng mà <hes> hôm nay thì mấy ngoài thím mới bà về còn các chú ấy thì các
[158.415]
chú ấy mới đang trên đường về
[159.995]
<no-speech>
[161.715]
các chú ấy chỉ có mỗi chú Hinh không chứ còn về tất
[164.025]
<no-speech>
[165.205]
chú Hưởng hả <breath> chú Hưởng cũng về <breath> hả <no-speech> <breath> chú Hưởng ừ chú Hưởng cũng về thế nhưng chú về nhưng mà chú ấy về chú ấy thắp hương ông xong rồi chú ấy lại đi chiều hôm qua rồi
[176.725]
<no-speech>
[177.835]
<sta> chứ còn các còn <hes> năm chú kia thì <no-speech> ai
[181.595]
<no-speech>
[184.075]
Thuấn thì thím về <no-speech> <int> <sta> <breath> Doanh cũng về Bằng cũng về
[187.905]
<no-speech>
[188.885]
ừ mấy lại Doanh cũng là về Bằng cũng về vợ Thuấn về ừ <no-speech> về tất <no-speech> Tiến về ừ <no-speech> <lipsmack> <breath> ừ thế thì còn bây giờ thì đang ăn hôm nay
[200.165]
tối nay ăn năm mâm
[201.325]
<no-speech>
[202.625]
<int> ừ thế đang ăn rồi
[203.945]
<no-speech>
[211.375]
bảo ông Quân sao
[212.445]
<no-speech>
[213.505]
bảo ông Quân sao
[214.435]
<no-speech>
[215.335]
<breath> bảo cái là bảo
[216.275]
<no-speech>
[219.295]
<int> cái gì
[220.065]
<no-speech>
[222.595]
mua trứng gà đây á
[224.065]
<no-speech>
[226.115]
ừ thế mai ta ấy sau mai hỏi sau
[228.735]
<no-speech>
[233.325]
ừ <breath> hơi nực <lipsmack>
[235.245]
<no-speech>
[236.965]
mua cho Nhung cái gì
[238.185]
<no-speech>
[239.605]
ừ <no-speech> <breath> mua được nhưng mà có cái điều là mùa nắng thế này thì nó không được ấy lắm thôi kệ nó quả nào ấy thì thôi ừ <breath> nhưng mà ở đây mà mua mua mua phải trả phải
[251.515]
trứng gà mình nếu mà ngày mùa người ta không bán là trứng vịt ở đây á nó ngon nó đỏ <breath> nó đỏ lòng nó đỏ như là lòng trứng gà <int> mà trứng vịt
[258.955]
<no-speech>
[260.184875]
trứng vịt ở đây ngon lắm ừ nếu mà ấy thì
[262.705]
<no-speech>
[265.965]
<no-speech> mai <hes> bắt đầu cúng từ sáng
[268.465]
<no-speech>
[269.425]
cúng từ sáng thì ờ thì cúng ấy thôi còn <hes> các cụ già ra <breath> ấy kinh ấy lại các già <int> ở làng <hes> các cụ ra là bắt đầu vào khoa cúng từ
[279.235]
<no-speech>
[280.185]
sáng thì sáng thì người ta <int> sáng thì ông thầy về nhà mình cúng thế xong về sau bắt đầu cả nhà mấy lại <breath> <hes> đưa ông ra chùa rước ảnh của ông đi ấy rước <hes> ảnh của ông đi xong rồi
[292.165]
xong rồi ra đấy <breath> bắt đầu người ta mấy lại cúng <hes> Phật xong về sau cúng gia tiên thì đến chiều mới vào <int> cúng mới lập đàn
[299.055]
<no-speech>
[300.555]
thì tầm một giờ mới bắt đầu vào đàn hả
[302.875]
<no-speech>
[305.435]
ôi về cũng lên tối bằng tầm giờ mai chưa chắc đã xong
[308.665]
<no-speech>
[309.525]
<no-speech> <int> <sta> hả <no-speech>
[312.725]
<no-speech>
[313.785]
ừ <hes> hôm nọ thì đám nhà bà Tịch thế nhưng mà nhà mình thì bởi vì cũng nhiều <breath> ờ nhà mình thì cũng nhiều các cụ quần áo *lắm* nên cái lúc ấy người ta đọc thì cũng *lâu*
[323.115]
<no-speech>
[324.335]
<int> nó còn phụ thuộc vào nhiều mới lại ít cơ con ạ cũng chưa biết được <no-speech> nhưng mà chắc cũng phải đến tối
[329.855]
<no-speech>
[332.095]
hả
[332.785]
<no-speech>
[334.445]
<breath> Trình mấy Trượng mấy lại cánh nhà bác Trình với bác <hes> Trượng <no-speech> <int> ừ cánh mà nhà <hes> những người ngày trước làm cho bà ấy
[343.295]
<no-speech>
[344.745]
ừ <no-speech> mấy vừa xong <hes> gần xong <hes> bác Trình bác cũng lên để bốc bát <hes> hương cho bác Bình để mai bác ấy lên chùa <breath> thế Trình là cũng vừa lên về ừ thế <int>
[355.075]
ừ thế phải bốc bát hương bác ấy chứ
[357.685]
<no-speech>
[358.535]
thế mà lại buồn hả
[360.155]
<no-speech>
[363.705]
<no-speech>
[364.205]
<no-speech>
[366.545]
ừ thì chắc thì cũng chỉ đến <hes> gần gần tối gì đấy áng chừng như vậy <breath> kể mà đám nhà bà Tịch thì hôm nọ chắc cái tầm muộn <int> thì xong tối à là đám nhà Tình à <lipsmack> đám nhà ấy đám nhà <hes> nhà bà Tịch không phải là cánh
[378.435]
Trượng <sta> cánh thằng cánh thằng nhuần
[380.845]
<no-speech>
[381.685]
<lipsmack> <breath> cạnh chánh thằng nhuần ừ <breath> <int> cánh thằng Trượng người ta làm ấy người ta làm nhanh lắm ừ chắc cũng chỉ gần tối là xong <breath> cánh <hes> thằng Trượng làm nhanh lắm
[390.225]
<no-speech>
[391.395]
dạ ừ <hes> thì mình cũng mượn cánh thằng Trượng
[393.755]
<no-speech>
[394.855]
không hôm nay đi mua ở chợ chứ không thịt thịt thì nó nó mỡ ấy <int> hôm nay <hes> sáng lại đánh tiết canh cho đặc
[401.115]
<no-speech>
[403.365]
<breath> không phương án ấy nhưng mà bảo là nhà ăn ít rồi lãng phí vất đi thế thì lãng phí <sta> <breath> hôm qua cũng cũng mua giò thịt rẻ thì đấy người ta giết <hes> người ta giết thì lấy luôn là vài
[414.585]
cỗ lòng ngon ở ngay thịt người ta lấy thì lấy nay <int> ngay cả tim cả <breath> ấy là lấy luôn thôi không giết thủ thiếc thì ăn vào đâu thế mà giò toàn là <breath> mua tí giò cái thịt
[425.585]
<sta> ngon gói thôi chứ còn thịt toàn
[427.635]
<no-speech>
[428.845]
mua tất ở chợ <sta> ừ thế là <breath> các thứ gà ghiếc tất rồi <no-speech> <int> mò thì <lipsmack> thôi thì cũng làm cho bình thường cũng trung bình chứ cũng không ấy lắm ừ
[439.485]
<no-speech>
[442.145]
ờ giỗ thì anh <hes> chị Khả Công với Khả hẹn về nhưng mà vừa xong chị ấy điện về bảo anh anh anh Khả người ta lại <breath> đi du lịch <int> ở bên Trung Quốc bởi vì anh ấy là trưởng đoàn còn <hes> <breath> chị Công thì cái con thằng
[453.855]
Khánh nó ốm nó độc sốt đến mấy tháng nay mai phải đi cho đi Hà Nội
[457.705]
<no-speech>
[458.675]
<sta> cái thằng con của thằng Khánh ấy ừ
[460.745]
<no-speech>
[461.815]
<no-speech> <sta> con nhà thằng Khánh đấy nó sốt đến mấy tháng nay rồi nó cứ sốt nó không khỏi <no-speech> hả <no-speech> <int> ừ bảo <hes> cứ quanh quẩn ở Thái Bình nó không
[473.285]
khỏi mai phải cho nó đi Hà Nội
[474.915]
<no-speech>
[477.555]
ừ nhưng mà cứ để nó sốt vậy <sta> ừ
[480.825]
<no-speech>
[481.865]
<int> ấy nó ừ thế mới phải ấy mẹ bọn chúng nó ở đây nó chủ quan lắm <breath> cái cái <hes> hôm qua tao đi lại đi mời khắp cả <breath> cái Hà cái Hà Hà <hes>
[493.625]
Hà con mợ Cừ á <breath> nó cũng có chửa năm tháng rồi mà nó cúm đến hơn tháng nay rồi <laugh> <breath> nó bảo cúm đến hơn tháng nay nhưng mà vẫn chẻ gỗ vẫn thay iếc bảo ăn được thì ăn không ăn được thì thôi làm bát
[505.285]
cháo rồi đi ngủ <breath> nó bảo thế mà nó bị cúm đến hơn tháng nay rồi
[508.955]
<no-speech>
[510.845]
ôi đéo mẹ bố chúng nó chúng nó liều lắm <no-speech> thế lại con cái <breath> <hes> thế con cái Việt thì nhà đang sửa nhà làm nhà ông vừa mới rót phích nước ra thì <breath> cháu giật ngay cái phích thế là bỏng mẹ cái phích nước
[522.515]
vừa rót xong vào chân gớm chạy chạy mẹ khóc con <sta> con cái con cái Việt đấy <no-speech> bố tiên nhân nó <breath> hả bị hôm qua hôm kia thế thì hôm qua tao lại mời thì thấy <breath> thấy cái <hes> cái cái cái Hà nó kể
[534.285]
chuyện <int> thế
[534.885]
<no-speech>
[536.885]
thế
[537.465]
<no-speech>
[538.285]
không biết lúc đấy tao mời gớm mời nhanh nhanh chóng chóng thì chạy vào làng không thì <breath> cái Cừ nó bảo là nó vào thì lúc bấy giờ nó đang ngủ lúc gần gần tối nó vào thì nó đang ngủ <no-speech> <breath> chả ấy đéo mẹ thế là cái con <hes> cái
[550.145]
con <hes> <no-speech> <lipsmack> <breath> cái con Việt ấy thế là vội vàng đổ ngay nước mắm vào chân ối giờ ơi nó khóc khóc chết cha chết lặng người lên mẹ khóc con khóc rồi chạy <breath> thế xong về sau chẳng biết ngâm chân chẳng biết
[562.085]
dì này lại <breath> lại ai người ta cho mật gấu lại bôi vào <no-speech> <int> ôi nó chẳng biết cái gì nó đúng là khổ trẻ
[570.195]
<no-speech>
[571.255]
khéo <sta> bảo là thiện quá cái Rolex phích nước vừa mới rót xong
[574.915]
<no-speech>
[577.285]
mẹ chúng nó ở nhà con <breath> ở nhà con cái mới lại chúng nó chủ quan lắm chúng nó không ấy đâu chúng nó chủ quan lắm ừ ừ <sta> <breath> chúng nó không ấy đâu nó không cẩn thận được
[586.365]
<no-speech>
[587.925]
hả
[588.535]
<no-speech>
[589.455]
<no-speech> <int> <breath> ở viện <hes> hôm <hes> xưa thấy <hes> bảo hôm xưa ông mất nó không <hes> về thế là thấy <hes> nó làm ở chỗ gần chú Hưởng đấy thế là thôi để <breath> bốn
[600.395]
<no-speech>
[600.44]
