[0.0]
<no-speech>
[5.065]
ờ <no-speech> ờ a lô
[7.145]
<no-speech>
[8.655]
<no-speech> a lô
[9.345]
<no-speech>
[10.325]
<no-speech> ờ <no-speech> a lô
[12.465]
<no-speech>
[13.865]
<no-speech> à <no-speech> nghe nghe
[15.495]
<no-speech>
[17.485]
<no-speech> ờ
[18.165]
<no-speech>
[20.515]
<no-speech> hả
[21.105]
<no-speech>
[23.975]
<no-speech> không
[24.805]
<no-speech>
[28.265]
<no-speech> ừ
[29.035]
<no-speech>
[32.675]
ờ ăn cơm <int>
[34.115]
<no-speech>
[37.825]
<no-speech>
[39.105]
<no-speech>
[40.215]
gì <laugh> cái gì nữa
[42.165]
<no-speech>
[45.375]
chưa
[46.295]
<no-speech>
[47.995]
bài vở gì <breath>
[49.515]
<no-speech>
[50.345]
giờ đang <hes> <no-speech> coi *phim*
[53.255]
<no-speech>
[55.375]
coi *phim*
[56.265]
<no-speech>
[58.735]
gia đình là số một <int>
[60.415]
<no-speech>
[61.805]
<breath> <breath> <breath> rồi
[65.475]
<no-speech>
[68.395]
<no-speech> cái gì
[69.085]
<no-speech>
[74.585]
ờ dạng cung cấp việc vui chơi giải trí cho con <laugh>
[78.755]
<no-speech>
[80.085]
phục vụ cho mục đích <hes> cao cả <laugh>
[82.565]
<no-speech>
[84.075]
<no-speech> <breath> ghê lắm <laugh> ngỡ ngàng luôn <laugh>
[88.855]
<no-speech>
[89.705]
<no-speech>
[90.275]
<no-speech>
[91.405]
ờ <no-speech> rồi
[93.275]
<no-speech>
[94.165]
cái gì nữa không
[95.205]
<no-speech>
[97.755]
<no-speech> sao
[98.465]
<no-speech>
[100.325]
nói cho hết luôn
[101.455]
<no-speech>
[103.115]
ờ vui quá ha
[104.665]
<no-speech>
[106.505]
<no-speech> ờ
[107.245]
<no-speech>
[108.525]
<laugh> mày dã man rợ quá
[113.065]
<no-speech>
[114.145]
<laugh> cuối cùng không biết nói gì hết á <laugh>
[116.645]
<no-speech>
[119.675]
<no-speech> <breath> sao *vậy*
[120.755]
<no-speech>
[122.795]
ờ ờ ờ ờ ờ ờ ờ ờ <int>
[125.055]
<no-speech>
[126.165]
<breath> mày ăn cơm chưa <laugh>
[128.095]
<no-speech>
[130.805]
ăn cơm với gì vậy <laugh>
[131.995]
<no-speech>
[136.445]
<no-speech>
[137.885]
<no-speech>
[138.865]
sướng quá <laugh>
[139.815]
<no-speech>
[141.225]
<breath> ơ <no-speech> có cái <hes> ăn cơm sướng quá quá ta ăn cơm với hột gà với nước tương <int> <laugh>
[148.285]
<no-speech>
[151.695]
ta ăn cơm với hột gà với nước tương nè sướng không <laugh>
[154.415]
<no-speech>
[156.625]
<no-speech>
[157.175]
<no-speech>
[159.025]
bị cái gì vậy
[159.965]
<no-speech>
[168.755]
à a á <int>
[169.715]
<no-speech>
[170.815]
ngày mai á hả
[171.765]
<no-speech>
[175.205]
ờ <hes>
[176.445]
<no-speech>
[177.345]
dạ <no-speech> <laugh>
[178.975]
<no-speech>
[180.435]
<no-speech>
[183.405]
<no-speech>
[184.315]
ờ <hes> có chuyện gì để nói với Thư nữa không
[187.525]
<no-speech>
[193.255]
ờ <int>
[193.915]
<no-speech>
[194.945]
<no-speech> rồi <laugh> biết rồi <breath> mày nói đi không có chuyện gì để nói hết đó gặp nhau hằng ngày hả
[200.225]
<no-speech>
[201.955]
nhớ <hes> nhớ
[202.955]
<no-speech>
[204.365]
<no-speech> <laugh> nhớ <no-speech> nhớ <laugh> tao phải không
[206.215]
<no-speech>
[208.965]
<no-speech> <breath> <laugh> nhớ <no-speech> nhớ cỡ <laugh> nào <no-speech> <breath> nhớ cỡ nào <no-speech> <laugh>
[214.545]
<no-speech>
[216.525]
<laugh> nhiều <no-speech> <breath> thấy mà mà nghe nghe là thấy cái mức độ tin cậy không được cao <laugh> rồi <no-speech> <breath> mới gặp tao hồi nãy <no-speech> mới gặp tao nãy mày nói nhớ tao xạo
[230.315]
<no-speech>
[231.695]
ớ
[232.145]
<no-speech>
[234.925]
trời ơi <breath> đang ở ngoài đường hả
[238.615]
<no-speech>
[242.935]
<no-speech> ờ trời ơi rảnh quá há <no-speech> tưởng mày ra Hồ Con rùa nói chuyện với tao chứ
[248.405]
<no-speech>
[249.425]
Phương
[250.025]
<no-speech>
[250.925]
tưởng <laugh> ra Hồ Con rùa <no-speech> nói chuyện với Thi chứ <no-speech> làm rớt điện thoại xuống dưới rồi tao không biết sao nữa
[257.875]
<no-speech>
[259.374875]
<sta> ai ai <no-speech> ai vớt cho Phương ta <no-speech> <laugh> lội xuống dưới vớt <laugh> luôn
[266.255]
<no-speech>
[267.425]
<breath> chết đuối Hồ Con <sta> <no-speech> <breath> gì tao nói mày đừng có ra Hồ Con Rùa nói chuyện với tao lỡ lỡ rớt điện thoại xuống dưới không có ai không ai vớt giùm mày
[275.645]
<no-speech>
[279.795]
<laugh> <breath> *hero* của lòng mày hả <no-speech> <laugh> <breath> có gì nhảy xuống dưới vớt luôn sẵn bắt mấy con cá vàng về chiên xù luôn
[288.555]
<no-speech>
[294.325]
<no-speech>
[301.335]
<no-speech>
[304.175]
<no-speech>
[313.805]
<no-speech>
[315.985]
<no-speech>
[317.065]
<no-speech>
[318.225]
<no-speech>
[319.065]
<no-speech>
[321.275]
<no-speech>
[322.555]
<no-speech>
[323.945]
<no-speech>
[325.465]
<no-speech>
[326.685]
<no-speech>
[328.855]
<no-speech>
[332.185]
<no-speech>
[334.865]
<no-speech>
[335.675]
<no-speech>
[336.225]
<no-speech>
[338.335]
<no-speech>
[340.445]
<no-speech>
[343.735]
<no-speech>
[345.765]
<no-speech>
[348.575]
<breath> đồ xúc chưa bà
[350.415]
<no-speech>
[352.485]
<no-speech>
[353.415]
<no-speech>
[357.745]
<no-speech>
[358.995]
<no-speech>
[359.845]
<no-speech>
[363.355]
<no-speech>
[364.755]
<no-speech>
[368.535]
<no-speech>
[371.645]
<no-speech>
[376.075]
<no-speech>
[377.015]
<no-speech>
[383.575]
<no-speech>
[385.435]
<no-speech>
[391.495]
<no-speech>
[395.675]
<no-speech>
[403.135]
<no-speech>
[404.685]
<no-speech>
[406.085]
<no-speech>
[407.505]
<no-speech> à
[408.625]
<no-speech>
[410.625]
<no-speech>
[414.315]
<no-speech>
[418.305]
<no-speech>
[419.115]
<no-speech>
[423.045]
<no-speech>
[429.405]
<no-speech>
[431.505]
<no-speech>
[435.525]
<no-speech>
[436.885]
<no-speech>
[437.955]
<no-speech>
[439.665]
<no-speech>
[442.065]
<no-speech>
[444.095]
ờ vậy là đám mây đó nó bay qua đến bên đây rồi đó <breath> trời ơi bên đây tao <no-speech> bên tao giờ mưa lớn rồi nè
[450.775]
<no-speech>
[451.595]
<no-speech>
[460.925]
<no-speech>
[464.025]
<no-speech>
[469.275]
<no-speech>
[471.485]
<no-speech>
[476.165]
<no-speech>
[478.375]
<no-speech>
[490.225]
<no-speech>
[495.025]
<no-speech>
[495.615]
<no-speech>
[497.765]
<no-speech> nhạc hả
[498.645]
<no-speech>
[503.575]
<no-speech>
[508.675]
<no-speech>
[509.855]
<no-speech>
[510.685]
<no-speech>
[514.305]
<no-speech>
[518.595]
<no-speech>
[519.805]
<no-speech>
[525.015]
<no-speech>
[525.875]
<no-speech>
[529.375]
<no-speech>
[530.405]
<no-speech>
[533.715]
<no-speech>
[535.985]
<no-speech>
[541.545]
<no-speech>
[543.285]
<no-speech>
[546.055]
<no-speech>
[548.835]
<no-speech>
[558.105]
<no-speech>
[560.895]
<no-speech>
[561.965]
<no-speech>
[564.565]
<no-speech>
[565.035]
<no-speech>
[566.165]
<no-speech>
[569.585]
<no-speech>
[570.515]
<no-speech>
[573.955]
<no-speech>
[574.795]
<no-speech>
[575.265]
<no-speech>
[576.625]
<no-speech>
[577.875]
<no-speech>
[579.425]
<no-speech>
[580.595]
<no-speech>
[581.755]
<no-speech>
[586.635]
<no-speech>
[592.045]
<no-speech>
[599.835]
<no-speech>
[600.28]
