[0.0]
<no-speech>
[1.225]
<no-speech>
[5.125]
<no-speech>
[6.825]
<no-speech>
[8.325]
<no-speech>
[9.445]
<sta> <no-speech> a lô <no-speech> lô
[13.525]
<no-speech>
[15.345]
<no-speech>
[15.725]
<no-speech>
[17.555]
<no-speech>
[17.915]
<no-speech>
[20.175]
ừ nghe rồi <sta>
[22.345]
<no-speech>
[26.125]
<no-speech>
[26.495]
<no-speech>
[27.925]
ừ <sta> em đây <no-speech> a lô <no-speech> nghe rõ không
[33.795]
<no-speech>
[35.165]
nghe rõ không <sta> <no-speech> hử
[38.375]
<no-speech>
[39.345]
vẫn khỏe <sta> <no-speech> nghe rõ rồi gì
[42.455]
<no-speech>
[44.275]
ừ
[44.735]
<no-speech>
[46.665]
ừ <sta> em vẫn ổn định được rồi anh
[48.555]
<no-speech>
[49.505]
ừ <sta> biết anh làm
[51.135]
<no-speech>
[53.175]
thế anh sao <sta> <no-speech> công việc sao
[54.885]
<no-speech>
[61.605]
ừ cũng ổn <sta> bình thường vợ con ăn đủ thôi chứ còn
[64.825]
<no-speech>
[67.225]
vâng
[67.685]
<no-speech>
[69.095]
thế bây giờ <sta> anh anh vẫn lái xe gì
[71.075]
<no-speech>
[72.835]
<sta> anh vẫn lái xe gì
[74.135]
<no-speech>
[75.795]
<no-speech>
[76.425]
<no-speech>
[80.715]
<sta> ờ vẫn bình thường anh ạ Cò nó khỏe
[86.465]
<no-speech>
[87.725]
vâng <sta> thế bây giờ đợt này anh vẫn lái xe gì <no-speech> dạ <no-speech> ừ thế ổn không
[95.795]
<no-speech>
[97.305]
à ừ
[98.135]
<no-speech>
[100.025]
ừ thế con bé <hes> vẫn khỏe nhỉ
[103.755]
<no-speech>
[105.795]
ừ
[106.405]
<no-speech>
[109.955]
à vậy à
[111.035]
<no-speech>
[115.085]
hử <no-speech> (()) cũng phải từ từ cứ từ từ đã cứ từ từ bây giờ để phấn đấu đã
[122.225]
<no-speech>
[124.315]
thế bây giờ thế là <int>
[125.875]
<no-speech>
[129.734875]
kinh tế bây giờ bây giờ mình cũng phải kinh tế đi lên hàng đầu đã xong rồi <hes> tính tiếp
[135.205]
<no-speech>
[136.015]
thế xe cộ bây giờ lái đâu <int>
[137.855]
<no-speech>
[139.385]
<no-speech>
[139.825]
<no-speech>
[140.755]
<no-speech> <sta> à vậy à à thế thì
[144.775]
<no-speech>
[147.065]
lương thì nó cũng tàm tạm thôi chứ nó không không nhiều thì không nhiều ít nó cũng chả ít cũng cũng đủ ăn đủ <hes> tiêu vâng
[154.935]
<no-speech>
[156.385]
hử <breath> màu mè bây giờ thì nói chung là <lipsmack> cũng cũng cũng tàm tạm thôi
[162.355]
<no-speech>
[163.185]
cũng <no-speech> ừ
[164.835]
<no-speech>
[167.875]
đâu nói vậy đồn vậy nó đồn vậy chứ còn <hes> mình <lipsmack> <breath> mình cứ thường thường dân thôi
[173.845]
<no-speech>
[174.845]
ờ <int>
[175.395]
<no-speech>
[181.365]
à trưởng phòng đời sống thì hôm nọ bầu rồi
[183.815]
<no-speech>
[185.135]
<laugh> trưởng phòng đời sống hôm nọ bầu rồi nhưng không không lên
[188.485]
<no-speech>
[189.615]
ờ <laugh> hử <int> <no-speech> ôi giời thế rắc rắc rối lắm
[194.335]
<no-speech>
[196.605]
rắc rối lắm rắc rối lắm
[198.205]
<no-speech>
[199.375]
ừ ăn ăn nhậu nhiều cũng chán lên rắc rối lắm nhiều thứ lắm anh ơi <no-speech> khó lắm
[204.535]
<no-speech>
[205.925]
vâng <no-speech> thế giờ bây giờ vẫn đang vẫn đang ở Nam Định gì
[209.125]
<no-speech>
[214.865]
à <hes> vâng thế hôm hôm hôm
[217.105]
<no-speech>
[218.355]
<sta> hôm nào qua nhà em chơi <no-speech> em em <hes> quê rồi
[222.185]
<no-speech>
[223.285]
vâng
[223.845]
<no-speech>
[224.695]
vâng
[225.285]
<no-speech>
[229.085]
ối giời ôi vườn cây ao cá nhiều lắm anh ơi <breath> thoải mái riêng về nhà em vườn cây ao cá
[234.255]
<no-speech>
[236.315]
ừ
[236.695]
<no-speech>
[239.185]
em <hes> được khoảng <int>
[240.915]
<no-speech>
[242.045]
cũng phải bây giờ
[243.095]
<no-speech>
[248.685]
to thì thì to thì không có nhưng mà bốn năm cân là có
[251.855]
<no-speech>
[256.744875]
ui <int>
[257.315]
<no-speech>
[262.895]
<int> thoải mái đi thế thế đợt chỗ chỗ ông Dương diết vẫn ở chỗ anh chứ vẫn làm cho anh chứ
[267.525]
<no-speech>
[272.625]
lười á <int>
[273.435]
<no-speech>
[276.425]
<int> trước bảo làm trước bảo làm ấy được lắm mà trước trước thấy bảo làm ở đấy được lắm mà
[281.665]
<no-speech>
[291.005]
à à <int> cái đợt đợt này lại hư vậy à
[293.455]
<no-speech>
[300.345]
<no-speech> em em em có
[301.935]
<no-speech>
[302.975]
có thằng cháu thôi có thằng cháu ở chỗ chỗ đường hàng Theo ý cái thằng thằng thằng Vũ lùn trước nó làm dệt lụa ấy <no-speech> đấy <no-speech> vâng
[312.145]
<no-speech>
[313.285]
<no-speech> anh Hải Anh biết nó rồi đúng không
[314.695]
<no-speech>
[316.135]
anh biết nó rồi còn gì nữa thằng Vũ anh biết rồi còn gì nữa
[318.455]
<no-speech>
[319.265]
thằng ấy
[319.925]
<no-speech>
[326.655]
nói chung là <no-speech> nó lanh lợi vì là thằng đấy hoạt bát có vẻ khỏe mạnh anh ạ <no-speech> nó đi theo em một thời gian thấy nó cũng được
[333.055]
<no-speech>
[337.435]
à vâng
[338.455]
<no-speech>
[340.115]
<no-speech> à không nó hiền lành thật thà
[341.745]
<no-speech>
[345.935]
à à
[346.655]
<no-speech>
[349.085]
rồi rồi rồi
[350.275]
<no-speech>
[357.885]
rồi
[358.595]
<no-speech>
[362.815]
<sta> à
[363.435]
<no-speech>
[366.425]
rồi rồi rồi <int> rồi được rồi
[368.875]
<no-speech>
[370.125]
à không cái nó đi theo em
[372.455]
<no-speech>
[373.855]
không sức khỏe thì nó thoải mái rồi nó đi theo em thời gian là thấy nó cũng được
[377.415]
<no-speech>
[379.075]
thì sức khỏe sức khỏe phải sức khỏe phải thoải mái rồi <breath> thế cái chỗ chỗ <hes> ông mà ông Mệt ông Khanh ở đấy sao
[385.865]
<no-speech>
[390.135]
nghỉ hả
[390.735]
<no-speech>
[391.705]
không làm được à
[392.365]
<no-speech>
[395.415]
ờ ừ
[396.355]
<no-speech>
[398.435]
hai hai già trước thấy cũng được ấy chứ <no-speech> chắc chắc là <int>
[403.535]
<no-speech>
[405.415]
chắc là bây giờ chắc lại lại rượu chè à
[407.525]
<no-speech>
[408.405]
có rượu chè không <int>
[409.275]
<no-speech>
[417.315]
<int> rồi
[417.855]
<no-speech>
[422.195]
à <int>
[423.115]
<no-speech>
[424.515]
rồi rồi thế thì kiếm bây giờ kiếm cái lớp trẻ thì nó nó khỏe mạnh bây giờ nó khỏe mạnh mà bây giờ nó nó làm bây giờ phải kiếm lấy anh chứ chỗ anh phải kiếm thằng nào nó thật thà <breath> nó khỏe rồi phải nó thật thà <no-speech> đấy
[435.755]
<int> chứ còn thế nhé thế hôm nào mà mà mà mà gì thì cho cả vợ con sang nhé
[442.295]
<no-speech>
[446.335]
a lô <int>
[446.895]
<no-speech>
[454.205]
à không ch- anh sang anh sang thì anh sang nó phải chuẩn rồi yên tâm đi cái chỗ chỗ chỗ
[459.555]
<no-speech>
[460.465]
chỗ thằng Dương hôm nọ cũng mới mới <hes> <int>
[462.455]
<no-speech>
[463.605]
Dương hôm hôm vừa rồi <int>
[465.285]
<no-speech>
[466.935]
ừ <int>
[467.525]
<no-speech>
[473.905]
ui giời anh ơi hả không nói vậy không
[477.115]
<no-speech>
[479.325]
anh ơi lúc nào cũng chỉ mười phút
[482.015]
<no-speech>
[482.875]
mười phút là là có cá mười phút là có cá đến lên mâm luôn <no-speech> không không phải nghĩ cái đấy nó chỗ ông Dương ông Dương hôm nọ cái đợt trước ý Dương sang sang nhà em ý
[492.815]
<no-speech>
[493.915]
Dương ý Dương say ý
[495.585]
<no-speech>
[496.395]
thằng thằng thằng em thằng em ấy
[499.175]
<no-speech>
[503.125]
à <no-speech> nó đều đều nó
[505.445]
<no-speech>
[510.095]
à
[510.815]
<no-speech>
[512.205]
rồi rồi rồi nó cũng đều đều nhau ấy mà
[515.805]
<no-speech>
[519.615]
<int> ui giời ơi
[521.035]
<no-speech>
[522.904875]
thỏa mái thỏa mái đi
[524.095]
<no-speech>
[525.575]
hết ý luôn
[526.485]
<no-speech>
[529.355]
không thửa chứ anh
[530.395]
<no-speech>
[532.145]
thửa thửa <int>
[533.095]
<no-speech>
[535.225]
đấy <no-speech> ừ thì mình
[536.935]
<no-speech>
[540.165]
à được rồi <int> được rồi <int>
[542.395]
<no-speech>
[544.325]
à <int> à vậy à
[545.565]
<no-speech>
[549.485]
ừ ừ ừ <int>
[550.565]
<no-speech>
[556.575]
à ừ đúng rồi <int> vẫn nó vẫn vẫn thì nó gọi nó gọi như vậy mà tên của nó như vậy mà
[562.135]
<no-speech>
[562.995]
ừ <int>
[564.325]
<no-speech>
[565.665]
thế h- hội <int>
[566.715]
<no-speech>
[572.255]
<sta> <no-speech> à rồi <no-speech> của nhà mà
[575.985]
<no-speech>
[577.875]
<no-speech>
[578.495]
<no-speech>
[582.365]
hử hử
[584.465]
<no-speech>
[589.395]
<no-speech>
[589.885]
<no-speech>
[590.795]
của nhà <no-speech> của nhà
[592.935]
<no-speech>
[594.135]
đúng rồi ừ thế này thế hôm nào sang thì thì
[597.375]
<no-speech>
[598.785]
hả <no-speech> cái gì
[599.895]
