[0.0]
<no-speech>
[6.515]
<no-speech> a a lô Minh hả con
[8.205]
<no-speech>
[10.605]
à chào Minh <hes> Minh ngủ chưa
[14.235]
<no-speech>
[15.115]
<no-speech>
[15.485]
<no-speech>
[17.605]
<int> <no-speech> còn nhiều bải dữ lắm hả hôm nay làm bài gì vậy
[22.025]
<no-speech>
[23.535]
hôm nay làm làm văn hả văn nói về chủ đề gì vậy
[27.975]
<no-speech>
[29.345]
à
[29.935]
<no-speech>
[32.695]
rồi làm sao làm tới đâu rồi
[35.175]
<no-speech>
[38.745]
hả có <hes> ý tưởng gì chưa
[41.105]
<no-speech>
[45.535]
kiếm kiếm đâu
[47.015]
<no-speech>
[48.195]
ừ
[49.335]
<no-speech>
[51.595]
về văn mình đô thị mình có <hes> mấy cái <hes> chủ đề về cái gì nè thi dụ như là văn minh đô thi thì ra đường thì sao
[62.885]
không xả rác nè hoặc là <hes> mình phải <hes> đối xử <hes> lịch sự gì đó xong cái điều kiện làm việc nó <hes> <hes>
[74.715]
<hes> học hành thì trong môi trường <hes> trường học thì mình làm sao hay là <hes> từ khi đi <hes> ra ngoài phố ngoài đường thì sao
[86.675]
đúng không
[87.535]
<no-speech>
[89.865]
ừ vậy con giờ giờ mới làm thì chừng nào mới xong mới đi ngủ
[95.435]
<no-speech>
[101.245]
(())
[101.735]
<no-speech>
[103.005]
vậy hả mai mấy giờ đi học
[104.985]
<no-speech>
[106.115]
mai mấy giờ dậy đi học
[107.525]
<no-speech>
[108.805]
sáu giờ rưỡi dậy hả
[110.175]
<no-speech>
[111.145]
trời ơi giờ này còn chưa chịu <hes> lo làm bài rồi <hes> mai đi <hes> học tối mấy giờ mới về
[117.945]
<no-speech>
[125.545]
à vậy hả làm bài văn còn làm cái gì nữa không
[127.855]
<no-speech>
[130.805]
làm bài văn xong đi ngủ hả dự tính làm trong bao lâu
[134.235]
<no-speech>
[138.525]
tiếng rưỡi tới hai tiếng luôn <no-speech> vậy là là là là là làm coi như là bằng kiểm tra trong lớp vậy đó
[147.155]
<no-speech>
[148.585]
trong lớp kiểm tra có bao nhiêu một trăm hai mươi phút hả
[151.715]
<no-speech>
[153.125]
trăm hai mươi phút
[154.245]
<no-speech>
[155.275]
à trăm hai chục phút là <hes> bằng hai tiếng rồi đó mà <hes> làm <hes> học mấy cái bài kia xong hết rồi phải không
[166.385]
<no-speech>
[167.585]
<no-speech>
[169.305]
vậy hả làm <hes> ủa <no-speech> coi như là à giờ mới vô đầu học kì hai chứ gì đúng không
[177.185]
<no-speech>
[182.415]
ủa ủa mốt thi giữa kỳ rồi sao đầu học kỳ hai mà mốt thi giữa kỳ rồi
[187.695]
<no-speech>
[188.895]
thi mấy môn
[189.925]
<no-speech>
[192.705]
thì mấy môn hết thảy
[194.105]
<no-speech>
[197.875]
văn toán anh hả
[199.275]
<no-speech>
[200.295]
ờ <hes> có cô thầy trên lớp có <hes> tổ chức ôn bài gì không
[208.335]
<no-speech>
[211.055]
<no-speech>
[211.455]
<no-speech>
[213.175]
vậy hả ôn bài rất nhiều rồi hả vậy là <hes> cũng yên tâm rồi phải không
[218.755]
<no-speech>
[221.785]
<no-speech> ừ
[222.475]
<no-speech>
[223.635]
môn văn chưa yên tâm lắm hả môn văn có gì đâu mà chưa yên tâm thì cứ <hes> suy nghĩ sao viết vậy chứ gì đâu
[232.705]
<no-speech>
[233.625]
đúng không <no-speech> <laugh>
[237.575]
<no-speech>
[240.515]
<laugh> khác với cô suy nghĩ cũng không được hả <laugh> vậy mà mà mà mà mà học mấy cái
[252.375]
kia thì được môn văn thì hơi lộn xộn
[254.715]
<no-speech>
[256.754875]
ư hôm nay là <hes> có <hes> tìm ra được những cái bí ẩn gì của của của của cái điện thoại nữa không
[266.365]
<no-speech>
[267.715]
Galaxy <hes>
[269.155]
<no-speech>
[273.315]
thế nào
[274.115]
<no-speech>
[279.605]
ghê vậy đó hả <laugh> có có trên bản đồ luôn ghê vậy ta ừ
[290.465]
rồi có có có thấy <hes> nhà con không
[294.665]
<no-speech>
[301.085]
à vậy hả <no-speech> bữa hôm <hes> dì bảy hôm mà đi ra ngoài Long Khánh á
[309.385]
<no-speech>
[310.415]
dì bảy <hes> mở Google của dì bảy á mở cái cái cái định vị toàn cầu của dì bảy á <no-speech> đứng ở ngoài đúng ở ngoài nghĩa trang mà thấy hết nghĩa trang luôn thấy đã
[322.045]
kệ nó <no-speech> <breath> rồi cái <hes> cái máy của <hes> của ba chắc cũng cũng làm được chứ gì
[329.525]
<no-speech>
[331.555]
<no-speech> à
[332.165]
<no-speech>
[334.525]
chưa có làm được hả
[336.135]
<no-speech>
[337.035]
trời ơi sao không tìm thử coi có chức năng giống vậy không mà nó chạy có nhanh bằng mấy cái cái cái cái kia không chắc không bằng mấy cá kia đâu há
[347.495]
<no-speech>
[353.255]
ủa vậy hả phần cứng cũng
[356.125]
<no-speech>
[357.205]
bằng luôn hả
[358.335]
<no-speech>
[359.805]
bao nhiêu mà <hes>
[361.195]
<no-speech>
[365.945]
vậy á hả à thế cái <hes> iPhone cái của ba là tới <hes> gì á nó là ba G mấy mấy ghi
[376.795]
<no-speech>
[378.915]
à bai mươi hai ghi ủa của dì bảy cũng ba hai ghi à của dì bảy đâu có đâu tới ba hai cũng ba hai ghi hả
[387.655]
<no-speech>
[389.745]
à vậy hả trời vậy mà rồi con có dọc cái máy của ba không
[394.555]
<no-speech>
[397.955]
<laugh> có cỗ máy của con rồi dọc gì nữa <laugh> dọc gì trên đó nữa phải không giờ tính lấy
[408.925]
sắm cho mẹ một cái nữa luôn là vừa rồi
[411.095]
<no-speech>
[412.305]
<laugh> để về coi <breath> để có gì <foreign> với <laugh> nhau
[416.655]
<no-speech>
[417.845]
<laugh> có gì chat với nhau cho nó vui khỏi cần <laugh>
[427.755]
<no-speech>
[429.525]
à ngồi chọt chọt với nhau cho nó vui
[431.855]
<no-speech>
[432.825]
ủa cái của Minh đâu có <hes> định vị hả
[437.595]
<no-speech>
[438.685]
đúng không
[439.285]
<no-speech>
[442.195]
có không có định vị không
[443.425]
<no-speech>
[445.575]
à vậy à cũng có nữa hả thôi vậy thôi vậy thôi cần cần gì iPhone <hes> Galaxy cũng được rồi chứ cần gì iPhone phải không
[457.065]
<no-speech>
[459.565]
<no-speech>
[460.805]
hả Galaxy nó cũng có thương hiệu vậy cần gì cần gì iPhone làm chi cho nó mắc tiền <no-speech> <breath>
[472.725]
ủa mà cái cái của ba mua bao nhiêu vậy
[474.615]
<no-speech>
[478.275]
vậy hả thử hỏi ba ba- ngủ chưa hả ba ngủ chưa
[484.555]
<no-speech>
[487.285]
à vậy hả à ba ngủ mất tiêu rồi hả vậy <hes>
[493.605]
<no-speech>
[495.175]
chưa cậu năm còn <hes> coi tivi còn làm một mớ công chuyện nữa
[503.725]
<no-speech>
[504.535]
ừ thành thử ra là đầu năm (())
[507.215]
<no-speech>
[508.625]
có <laugh> con có coi không hả hôm qua con có
[513.265]
<no-speech>
[516.735]
<no-speech> (())
[517.265]
<no-speech>
[518.284875]
à à
[519.345]
<no-speech>
[520.455]
<no-speech>
[521.064875]
<no-speech>
[522.355]
ừ <laugh> mà chửi ì xèo luôn mà cũng tội nghiệp cho nó chứ đúng không con người ta đang hát <no-speech> ờ
[531.275]
<no-speech>
[532.135]
<sta> tại vì đúng rồi trước khi hát cũng nổ nữa ba mẹ rồi anh nó lên nổ nữa đó <no-speech> ờ
[540.795]
ờ <sta> trước khi hát ba nó rồi anh nó nổ ỳ xèo thành thể ra là à
[549.725]
<sta> nhưng mà cũng tội nghiệp ban giám khảo cũng chơi ác con người ta đang hát bấm cái reng làm con người ta hoảng hồn <laugh>
[560.135]
hết hồn luôn rồi nhỏ <hes> mất tinh thần chứ chơi ban giám khảo chơi kì quá bữa hôm qua có coi hết không
[568.535]
<no-speech>
[569.495]
<no-speech> <int> quà Minh đâu
[571.085]
<no-speech>
[574.925]
vậy hả coi tới phút mà cái ông mà ông đóng kịch câm đó
[577.985]
<no-speech>
[578.905]
có cái ông mà ông đóng kịch câm á Minh có coi không
[581.165]
<no-speech>
[586.435]
<laugh> ông đóng cái gì mà ban gán khảo cũng kì nữa ban giám khảo làm như là chế giễu
[597.995]
<laugh> bó tay
[599.98]
