[0.0]
<no-speech>
[4.185]
<no-speech> a lô
[4.755]
<no-speech>
[6.525]
<no-speech> đang <no-speech> buồn quá chị ạ mất ngủ
[9.395]
<no-speech>
[10.785]
<no-speech> mẹ <no-speech> tại
[11.995]
<no-speech>
[13.105]
à <lipsmack> hai ngày cuối tuần này vất vả quá <no-speech> toàn thiếu ăn thiếu ngủ <no-speech> <int> à
[21.475]
<no-speech>
[23.645]
à vì mục đích tương lai con em chúng ta mà thì phải cố gắng chứ làm sao <no-speech> <int> <breath>
[30.035]
<no-speech>
[31.125]
<no-speech>
[32.865]
<no-speech>
[34.505]
<no-speech> ừ
[35.015]
<no-speech>
[36.945]
là thì ông giáo sư nói bon em cũng nói bảo là đàn ông thì có tiền thì mới đổ đốn còn đàn bà thì đổ đốn trước thì mới có tiền <laugh> <breath> đàn ông mà cứ nhiều tiền là y rằng đổ đốn ngay <laugh>
[48.785]
<no-speech>
[50.425]
<no-speech>
[52.325]
<no-speech> à thì triết lý <hes> đúng chị ợ
[54.155]
<no-speech>
[55.755]
<no-speech> mà <no-speech> kệ
[56.865]
<no-speech>
[64.244875]
<no-speech>
[64.635]
<no-speech>
[65.585]
à tất nhiên làm thế thì đến lúc <hes> lâu lâu mệt mệt lại bùng cho cái bây giờ cũng chết <no-speech> cái gì nó phải vừa vừa thôi chứ nếu nhịn <no-speech> nhịn lâu đến lúc lại bùng cái thì cũng vỡ nợ
[75.535]
<no-speech>
[83.581667]
<no-speech>
[91.628333]
<no-speech>
[99.675]
<no-speech> <hes> gọi <hes> gọi là chịu làm ăn chi tiêu đấy à làm ăn được phải tiêu được đấy à
[105.035]
<no-speech>
[114.255]
<no-speech>
[114.655]
<no-speech>
[116.915]
<no-speech> (())
[117.325]
<no-speech>
[118.495]
<no-speech> <int> khổ <no-speech> khổ <no-speech> khổ <no-speech> khổ nỗi <no-speech> khổ nỗi rỗi nhiều nhưng tiền lại không rỗi
[124.935]
<no-speech>
[125.995]
thường người ta rỗi người ta lại đi mua sắm này nọ đây mình rỗi chỉ nằm nhà <hes> gặm nhấm xem tivi
[130.485]
<no-speech>
[131.305]
mà đời sống nó phải <no-speech> rỗi nó phải rủ nhau đi siêu thị <no-speech> mua đồ mua đạc ăn uống tụ tập <no-speech> đấy mới sướng
[138.165]
<no-speech>
[147.195]
<no-speech> <sta> ừ gọi <no-speech> gọi là chắt bóp để cho một ngày đi giải trí thôi à <no-speech> <int> thế <hes> chị Triều <hes> đi chợ mua gì đấy
[156.205]
<no-speech>
[158.105]
<no-speech> à
[158.585]
<no-speech>
[162.935]
<no-speech> à xuống đấy
[163.865]
<no-speech>
[165.175]
<no-speech>
[165.585]
<no-speech>
[167.155]
à thế à xem chanh mà rẻ rẻ thì làm cho em khoảng tầm nửa cân một cân chắc nhiều không nhỉ
[171.915]
<no-speech>
[172.835]
<no-speech> nếu mà cân nó <no-speech> chanh
[174.685]
<no-speech>
[175.845]
<no-speech> nếu mà cân <no-speech> <cough>
[177.355]
<no-speech>
[179.785]
<no-speech> tưởng từ bốn mươi nếu mà dưới bốn mươi bốn lăm nghìn đổ xuống thì lấy cho em nửa cân <no-speech> còn nếu mà sáu mươi thôi
[184.865]
<no-speech>
[188.435]
không mà nếu mà như thế hôm trước <no-speech> mấy hôm trước em đi ra chợ Đồng Xuân đấy nhiều quá nhưng mà đang đi làm ngại không muốn mua <no-speech> ngoài nếu mà <no-speech> giá nó cứ tầm khoảng năm mươi nghìn đổ xuống thì lấy em nửa cân <no-speech> còn nếu hơn năm mươi nghìn thôi <no-speech> rẻ rẻ
[199.695]
<no-speech>
[203.745]
ờ thì lúc nào cũng được bây giờ đi làm <hes> nắng nôi phải làm cốc nước chanh cho giã thôi chứ còn uống cái gì nó cũng <no-speech> không ăn thua <int> <no-speech> mà ra ngoài cứ giã ba nghìn quả
[212.165]
<no-speech>
[214.825]
ờ <no-speech> hôm trước mua hai quả sáu nghìn
[217.405]
<no-speech>
[221.705]
nó nó bóp vẫn phải vẫn phải chịu chứ biết *làm* sao <no-speech> <int>
[226.195]
<no-speech>
[229.165]
<no-speech>
[230.125]
<no-speech>
[231.605]
<no-speech>
[231.955]
<no-speech>
[235.485]
nhà <no-speech> <sta> nhà bây giờ xung quanh đây tìm được chỗ mua mua buôn khó nhỉ hầu như biết giờ này buổi chiều thì c- mua buôn toàn bọn bán lẻ
[244.405]
<no-speech>
[245.515]
<no-speech> toàn bọn bán lẻ
[246.425]
<no-speech>
[247.895]
không dạng như đợt trước nó bên chợ Phùng khoang kia kìa <no-speech> thì nó nhiều lúc nó vẫn kiểu bán buôn không <no-speech> <sta> bán theo <no-speech> cân kiết bán nhiều ấy <no-speech> nhưng bây giờ làm gì <no-speech> sang Phùng khoang làm gì có hàng nào như thế <no-speech> nó toàn mua về bán lại
[258.245]
<no-speech>
[263.375]
<no-speech>
[263.745]
<no-speech>
[267.265]
<no-speech> ờ <no-speech> thế mà
[268.585]
<no-speech>
[275.565]
<no-speech>
[275.965]
<no-speech>
[276.805]
<no-speech>
[277.545]
<no-speech>
[278.755]
à (()) cua nhà em không bao giờ thích ăn cua <no-speech> cua kiết là <no-speech> không khoái
[283.385]
<no-speech>
[288.005]
<no-speech> mẹ <no-speech> ăn giờ ăn thì ăn được nhưng em không không không khẩu vị không thích cho lắm <no-speech> bình thường
[292.605]
<no-speech>
[295.645]
ờ cho nó ăn ăn ăn giờ ăn dặm rồi nhưng mà nằm toàn nôn <no-speech> ăn tí nó nghịch xong lại nôn ra nó chứ hết
[303.335]
<no-speech>
[309.065]
<no-speech> <int> đâu
[310.135]
<no-speech>
[311.875]
bây giờ mới chỉ cho ăn bột trắng không thôi chứ làm gì đã cho ăn cua cá gì đâu <no-speech> mới vào cho ăn dặm để cho học ăn thôi
[319.305]
<no-speech>
[326.215]
<no-speech> à <no-speech> ờ
[327.215]
<no-speech>
[328.805]
<no-speech> à gọi tầng trên tí gì
[330.895]
<no-speech>
[331.715]
<no-speech> à <no-speech> tưởng mới đâu cho nó ăn bột không xong về sau cứng cứng tí thì mấy làm mấy cái đấy cho nó
[337.065]
<no-speech>
[344.245]
<no-speech>
[351.425]
<no-speech> làm mệt
[352.055]
<no-speech>
[363.45]
<no-speech>
[374.845]
<no-speech>
[375.205]
<no-speech>
[381.945]
<no-speech>
[388.685]
gọi là có nó cứ căn ti nó <no-speech> nhưng mà bây bây giờ ở nhà còn đi làm ở ở ngoại em bây giờ thì <no-speech> con vợ nó ở đấy nó còn mết hơn bên đây còn có khi nó còn ít việc hơn
[399.425]
về ngoại ông bà đi làm hết <no-speech> có ai ở nhà đâu chỉ mỗi mình nó lại vừa bế con vừa nấu cơm cho cả nhà này lọ rồi <no-speech> về đấy khiến bận hơn ở trên này
[407.495]
<no-speech>
[408.525]
<no-speech> lên trên này đi làm rồi tí tranh thủ về <no-speech>
[411.505]
<no-speech>
[413.195]
<no-speech> con á
[413.965]
<no-speech>
[420.845]
<no-speech>
[422.415]
<no-speech>
[425.565]
<no-speech>
[425.915]
<no-speech>
[430.205]
<no-speech>
[430.635]
<no-speech>
[431.495]
<sta> điên <no-speech> việc này mọc cái gì mà mọc <no-speech> mới có ba tháng nó đã đòi mọc răng
[438.695]
<no-speech>
[440.625]
<no-speech> <laugh> <sta> thằng đấy nó quái vật <no-speech> mọc gì mà một <no-speech> một tháng ba cái răng
[446.105]
<no-speech>
[449.085]
<no-speech>
[449.435]
<no-speech>
[450.585]
<no-speech> <int> em không để ý cho lắm nhưng nhìn thấy nó cười <hes> mẹ thằng <no-speech> <sta> thằng cu nó cười <hes> móm sếu sáo toàn thấy thịt chứ chả thấy cái gì
[457.755]
<no-speech>
[461.865]
<no-speech>
[462.215]
<no-speech>
[464.655]
<no-speech>
[465.065]
<no-speech>
[466.135]
<no-speech> chín <no-speech> <sta> chín tháng mọc răng
[467.715]
<no-speech>
[468.695]
<no-speech>
[469.075]
<no-speech>
[471.415]
<no-speech>
[471.765]
<no-speech>
[474.815]
<sta> <no-speech> đấy thì đỡ
[478.315]
<no-speech>
[480.075]
em thì mẹ <no-speech> ngại mỗi thằng cu nó khóc không dỗ được ra đây là <no-speech> mẹ nó còn không dỗ được nữa thì ai dỗ được <no-speech>
[486.735]
<no-speech>
[489.255]
<sta> ừ hờn kinh khủng đến mẹ dỗ còn không dỗ phải chịu gọi là cho khóc cho khóc chán chê khóc đỏ người mệt xong xong về sau là mới đỡ đỡ một tí <no-speech> còn bình thường á vừa khóc bắt dỗ luôn là hơi khó
[499.355]
<no-speech>
[500.395]
<no-speech> nó hờn dỗi này nọ khóc kinh lắm
[502.395]
<no-speech>
[504.535]
vì vì căn bản nó tức một phần là ngủ nó không đủ giấc thì thành ra nó quấy <no-speech> nếu ngủ một lúc nó lại tưởng <no-speech> buổi trưa ngủ nửa tiếng <no-speech> xong nó lại dậy <no-speech> <int> phía dưới đấy nó cũng kiểu ầm ầm kiểu
[516.434875]
xe máy phi vào phát biết ngay nó không kiểu kín như trên nhà em <no-speech> trên nhà em kiểu kín hơn
[520.535]
<no-speech>
[521.904875]
<no-speech> ấy <int> <no-speech>
[523.235]
<no-speech>
[528.515]
ôi bảo <hes> dọn ra <hes> ra này thì <no-speech> con của ông anh <no-speech> kia thì vẫn chưa đi gửi được <no-speech> đang suy dinh dưỡng thì phải để ở nhà để chăm cho nó hết thuốc đã mới đi gửi <no-speech> mà mấy hôm <no-speech> tuần
[539.485]
sau vợ em ra rồi thì mẹ hai đứa một lúc thì bà <no-speech> bà nội có mà chóng mặt
[543.175]
<no-speech>
[543.995]
em may <hes> vợ em nó nghỉ hết tháng năm <no-speech> đầu tháng sáu nó mới đi làm
[547.565]
<no-speech>
[552.015]
<no-speech> <sta> nhìn chung là công việc này nó <lipsmack> nó đơn giản không mà mình cứ đến có mặt ăn tiền đấy mà chứ ai bắt đi làm đâu mà mà xin nghỉ ăn <hes> không ăn lương <no-speech> mà cái này không được phép xin nghỉ không ăn lương ấy vì nó đi <no-speech> đi làm thì
[563.415]
trường làm gì đồng ý chuyện đấy nó đuổi mẹ luôn
[565.575]
<no-speech>
[568.365]
<no-speech> à thuê bà <no-speech> tiền bao nhiêu cho đủ
[571.365]
<no-speech>
[572.615]
<no-speech>
[573.525]
<no-speech>
[574.355]
<no-speech> mẹ thuê <hes> có tiền mà
[576.055]
<no-speech>
[578.335]
có tiền mà thuê thì nói làm cái gì <no-speech> không có tiền phải thuê <hes> thì mới phải trông coi này nọ
[584.425]
<no-speech>
[585.775]
<no-speech>
[586.495]
<no-speech>
[590.945]
ờ <no-speech> <sta> thì kiểu gì thằng cu phải ra thì thằng <no-speech> thằng con cu ông Hiếu thì cũng mang đi gửi mà thôi <no-speech> nhưng mà <no-speech> ra đây sợ kiểu là ít ít ít
[600.12]
