[0.0]
<no-speech>
[2.675]
<sta> a lô
[6.725]
<no-speech>
[9.295]
bày trò gì vậy không hiểu gì trơn á <no-speech> <int>
[12.385]
<no-speech>
[14.995]
đang mua đồ ăn nè
[16.435]
<no-speech>
[18.795]
đâu có đâu đi mua đồ <no-speech> ừ mà nói gửi quà gì xuống cho em sao không thấy gì hết trơn vậy trời <no-speech> <int> nói á anh gửi quà gì xuống cho em
[27.495]
<no-speech>
[28.295]
xạo em
[29.315]
<no-speech>
[32.035]
hả
[32.735]
<no-speech>
[34.825]
<sta> không
[35.465]
<no-speech>
[37.355]
<sta> nhưng mà em không có nhận đồ <no-speech> bây giờ em không biết em bắt đền gửi lại đi
[44.205]
<no-speech>
[47.845]
<sta> <no-speech> anh điện anh hỏi lại đi nha em không biết đâu em bắt đền rồi đó bây giờ em không có quà
[52.915]
<no-speech>
[54.265]
<no-speech>
[55.925]
<no-speech>
[58.095]
<sta> em hả rớt môn một là đủ chết rồi rớt thêm môn một chắc chết luôn quá <no-speech> ờ tại vì từ bữa tết đến giờ thi có môn một đó
[69.865]
<no-speech>
[71.795]
<sta> ờ cái môn thể dục mà môn thể dục đó hả em thi đậu là cái chắc rồi tại thi nhảy cao mà
[77.965]
<no-speech>
[80.225]
<sta> <no-speech> hỏi môn điền kinh trong này nè
[85.555]
<no-speech>
[86.485]
<no-speech>
[86.835]
<no-speech>
[87.695]
<sta> hả
[90.185]
<no-speech>
[92.205]
<sta> có chứ <no-speech> em là đội tuyển bóng chuyền của lớp đó <no-speech>
[102.675]
<no-speech>
[105.575]
<sta> trời <no-speech> bây giờ em không biết bây giờ anh đi <hes> mua quà gửi lại cho em đi
[113.395]
<no-speech>
[114.275]
<no-speech>
[115.355]
<no-speech>
[117.205]
<sta> <no-speech> hả
[122.285]
<no-speech>
[124.185]
<sta> <no-speech> trời <no-speech> mà không bây giờ em nói anh nghe nè <no-speech> bây giờ em nói anh nghe nè nói chung á đơn giản á là anh <no-speech> phải đi coi lại cái đó sau đó gởi lại con gấu khác
[134.925]
<sta> cho em không lại bắt đền đơn giản vậy thôi <no-speech> cái gì
[144.865]
<no-speech>
[145.945]
<sta> hồi em nhắn tin qua cho <no-speech> ờ vậy chứ giờ sao đọc được địa chỉ <int> <no-speech> thì nhắn tin qua cho hay
[157.445]
<no-speech>
[159.635]
<no-speech>
[161.975]
<sta> cái số nãy anh điện cho em đó <int>
[166.095]
<no-speech>
[167.095]
<sta> <no-speech> thì <no-speech> hả <no-speech> ờ ờ
[179.045]
<sta> <no-speech> mà em nói anh nghe nè <no-speech> anh đó một hồi em gởi em gởi cái ấy qua cho anh em gửi địa chỉ lại cho anh thế là anh đi coi lại đi em nói anh gởi lộn rồi tại hôm bữa em cứ nhớ em coi mà nhưng không có
[190.685]
<sta> mà anh nói anh gởi quà xuống cho em mà anh không gởi là anh thất hứa thất hứa là em hổng muốn nói chuyện với anh đâu
[195.765]
<no-speech>
[202.155]
gấu bông
[202.915]
<no-speech>
[208.625]
em đâu biết <no-speech> em đâu biết em lấy gấu bông à <breath> <no-speech> gấu bông đó anh muốn mua con bao lớn thì bao lớn mà càng bự càng tốt <laugh>
[215.525]
<no-speech>
[224.405]
vậy thì anh thấy cái gì coi được đó anh mua em đâu có biết <sta> em đâu có quyền đòi hỏi anh mua cái gì cho em nhưng mà đơn giản là phải có quà thôi
[230.225]
<no-speech>
[233.075]
dạ
[233.635]
<no-speech>
[236.385]
gì thành phố <laugh>
[238.245]
<no-speech>
[241.035]
<sta> ờ nhưng mà em ghi địa chỉ ký túc xá cho anh em ghi địa chỉ ký túc xá cho anh gửi <no-speech>
[248.565]
<no-speech>
[250.605]
ừ <int>
[251.085]
<no-speech>
[252.015]
<no-speech>
[252.375]
<no-speech>
[254.095]
<sta> không
[257.965]
<no-speech>
[259.314875]
không có
[260.315]
<no-speech>
[261.684875]
<no-speech>
[262.075]
<no-speech>
[266.365]
<breath> thì <sta> em ghi em đọc cho anh ghi nè
[270.315]
<no-speech>
[272.965]
ừ <no-speech> <sta> hả <no-speech>
[276.095]
<no-speech>
[277.745]
thì lấy viết anh ghi đi <no-speech> <sta> thấy đường ghi không biết nữa
[281.495]
<no-speech>
[283.985]
<no-speech>
[284.335]
<no-speech>
[286.395]
<no-speech>
[287.035]
<no-speech>
[292.715]
ghi coi chừng hồi mất tiêu miếng giấy nháp đó nha <int>
[295.545]
<no-speech>
[297.465]
<sta> <hes> <no-speech> ban quản lý ký túc xá
[301.995]
<no-speech>
[305.535]
phòng A ba trăm mười <no-speech> phòng A ba trăm mười
[308.735]
<no-speech>
[313.595]
<no-speech>
[313.945]
<no-speech>
[314.985]
khu cơ sở một trường đại học Bạc Liêu
[317.455]
<no-speech>
[325.355]
đường Võ Thị Sáu thành phố Bạc Liêu
[327.195]
<no-speech>
[329.305]
đường Võ Thị Sáu thành phố Bạc Liêu
[331.595]
<no-speech>
[334.145]
<no-speech>
[334.525]
<no-speech>
[337.335]
<sta> đường Võ Thi Sáu đó thành phố Bạc Liêu <breath> thì anh ghi vậy đó nhưng mà phòng phòng ba ba- trăm mười <breath> trường đại học ký túc xá trường đại học Bạc Liêu đường Võ Thị Sáu thành phố Bạc Liêu
[347.465]
<no-speech>
[348.645]
vậy là được rồi <no-speech> hết rồi
[350.435]
<no-speech>
[353.865]
vậy anh tên gì
[354.955]
<no-speech>
[357.715]
hả
[358.645]
<no-speech>
[366.595]
<sta> thì anh ghi anh ghi chữ đó đi
[367.965]
<no-speech>
[369.505]
<laugh> đơn giản á <no-speech> là
[371.805]
<no-speech>
[375.865]
chứng minh của anh thôi <no-speech> đâu cần chứng minh của em đâu
[378.845]
<no-speech>
[380.685]
tại vì á <breath> nhận á là nhận ở trong <int> ký túc xá nhận á rồi em lấy còn nếu như anh chuyển tận tay em thì em đọc tên cho anh nghe
[387.225]
<no-speech>
[393.035]
à
[393.695]
<no-speech>
[396.175]
à <no-speech> Nguyễn <no-speech> Thị <no-speech> Ngọc
[399.135]
<no-speech>
[400.075]
(())
[400.595]
<no-speech>
[403.335]
<no-speech>
[403.815]
<no-speech>
[410.145]
Sơn <laugh>
[412.075]
<no-speech>
[413.285]
chữ S chữ O chữ N
[415.645]
<no-speech>
[421.175]
<no-speech> ờ
[421.935]
<no-speech>
[424.345]
ờ
[425.265]
<no-speech>
[427.455]
N
[428.345]
<no-speech>
[430.395]
ờ
[431.305]
<no-speech>
[433.575]
ờ <int>
[434.555]
<no-speech>
[436.525]
<sta> ừ tên con trai rồi sao <no-speech> rồi sao rồi sao
[440.305]
<no-speech>
[443.535]
không dám đâu nhe nhà em có một thằng con trai <laugh>
[447.395]
<no-speech>
[449.905]
<int> dạ
[450.515]
<no-speech>
[452.305]
đâu có đâu <no-speech> tại hồi đó em khó nuôi mới đặt tên vậy đó
[457.125]
<no-speech>
[463.785]
hử
[464.365]
<no-speech>
[470.365]
<int> ừ <no-speech> kệ em đi mà <no-speech> cái tên của ngửi ta
[472.975]
<no-speech>
[473.805]
thắc mắc chi nhiều vậy <no-speech> mà nói anh nghe nè nha <no-speech> <breath> gửi thì gửi sớm sớm nha <laugh>
[480.845]
<no-speech>
[481.885]
<sta> chứ hôm bữa anh làm em quê rồi đó em giận anh luôn rồi đó
[484.945]
<no-speech>
[491.055]
chờ tới tuần hai <int> tuần lận hả
[492.405]
<no-speech>
[496.915]
<lipsmack> <int> trời
[499.585]
<no-speech>
[503.285]
chắc em nghi quá à
[504.585]
<no-speech>
[508.835]
thì em đâu nói anh xạo đâu ủa mà đang ở đâu vậy <sta> mà nghe xe um sùm um sèm hết trơn vậy
[512.725]
<no-speech>
[517.955]
hả
[518.485]
<no-speech>
[523.195]
bả không muốn về nhà hả
[524.334875]
<no-speech>
[531.785]
về thăm con chứ gì
[532.985]
<no-speech>
[534.475]
<no-speech>
[534.935]
<no-speech>
[538.475]
<no-speech>
[538.825]
<no-speech>
[541.635]
<no-speech>
[542.305]
<no-speech>
[543.735]
<no-speech>
[545.515]
<no-speech>
[546.595]
<int> vậy hả
[547.625]
<no-speech>
[554.135]
ủa mà nói nghe nè <no-speech> <sta> nói nghe nè sao mà hồi nãy sao tổng đài nó điện xuống được vậy hay vậy anh làm cách nào vậy
[561.425]
<no-speech>
[564.695]
<no-speech>
[565.925]
<no-speech>
[567.505]
<no-speech> <sta> nói em nghe với <no-speech> nói em nghe đi vài bữa em làm em học theo
[572.695]
<no-speech>
[578.905]
tại sao lại bữa nào
[580.125]
<no-speech>
[587.805]
vậy làm cách nào người ta mới kết nối được vậy <int>
[590.025]
<no-speech>
[593.295]
(())
[594.185]
<no-speech>
[597.725]
phải nói chứ tự nhiên anh muốn biết làm cái gì
[599.985]
<no-speech> dạ <int>
[600.06]
