[0.0]
<no-speech>
[1.965]
a lô
[2.385]
<no-speech>
[3.405]
ủa
[4.035]
<no-speech>
[5.725]
ờ <no-speech> Trâm nè
[7.295]
<no-speech>
[10.805]
mới đi học về <breath>
[11.905]
<no-speech>
[13.825]
ừ
[14.325]
<no-speech>
[16.045]
sáng chứ <no-speech>
[16.935]
<no-speech>
[18.555]
ừ
[19.205]
<no-speech>
[21.645]
đó
[22.315]
<no-speech>
[24.875]
<no-speech>
[25.515]
<no-speech>
[27.095]
<no-speech> cô điểm danh qua tới việc của của lì thì cô bỏ qua
[31.605]
<no-speech>
[41.935]
ông Mẫn ha cái ông đó <no-speech> <laugh> ông Sơn đó đã làm cho mình đó là có tám tiếng đồng hồ <no-speech> cái xong hắn dài quá ba mươi lăm phút là ông Sơn là ổng <hes> mà thuyết trình có năm phút thôi <breath> <no-speech> cái ông Sơn ổng kêu là ấy <no-speech> nó kêu là ngắn quá bây giờ không có phần mềm để cắt ra <breath> cái xin video của Tâm <breath> <no-speech> xin xong cái <hes> ông Mẫn ổng không chịu lên thuyết trình điên không
[65.775]
<no-speech>
[67.685]
ừ
[68.235]
<no-speech>
[76.005]
ừ
[76.765]
<no-speech>
[78.205]
con đó số hên mà
[79.375]
<no-speech>
[82.125]
ừ <no-speech> <int> <no-speech> hả
[83.915]
<no-speech>
[87.505]
nín đi <no-speech> hồi trước gì <laugh> bữa <hes> hôm bữa nó về cái xong cái nghe chị Nga điện ra <no-speech> chị Nga kêu là nó xuống nhà ngoại chơi
[98.775]
<no-speech>
[99.885]
cái thì Trang hỏi ủa <no-speech> xuống đó chơi hả <no-speech> cái chị Nga kêu thì lần nào về hắn chẳng ghé chơi <no-speech> mà kêu hắn quen cái con nào chẳng biết nữa <no-speech> thôi kệ hắn
[108.445]
<no-speech>
[109.715]
còn <no-speech> còn cái thằng <breath> thằng Ngữ khùng đó nữa
[112.245]
<no-speech>
[113.845]
<laugh> ổng kêu sẽ đợi <no-speech> bé Trang nó chi ớ <no-speech> trời ơi nó ế ròng ớ toàn mấy thằng chi đâu không đó
[120.285]
<no-speech>
[125.195]
ừ <no-speech> lì với ổng đến đâu rồi
[126.745]
<no-speech>
[133.195]
răng là răng
[134.045]
<no-speech>
[135.525]
<no-speech>
[136.245]
<no-speech>
[138.145]
<breath> ờ
[139.415]
<no-speech>
[146.405]
ờ
[146.935]
<no-speech>
[149.225]
nghĩ răng rứa <no-speech> có bồ rồi mà ế ròng <no-speech> nói chuyện với mi kêu tao mà gì nói thích tiếng nữa ba-
[154.575]
<no-speech>
[157.665]
ờ <no-speech> không nói chung á <laugh> phải nói á Liễu là
[163.275]
<no-speech>
[164.135]
đối thủ <hes> <no-speech> cái chi phải kêu là gặp đối thủ nặng ký <laugh> <no-speech>
[169.615]
<no-speech>
[170.575]
<no-speech>
[172.155]
<no-speech>
[175.085]
<breath> kệ kẻ tám lạng người nửa cân
[178.005]
<no-speech>
[179.885]
ờ ờ
[180.615]
<no-speech>
[183.495]
kẻ năm lạng người nửa cân chứ hả <laugh>
[187.705]
<no-speech>
[196.355]
<no-speech> hả mà thích ổng lắm lắm hả
[197.685]
<no-speech>
[205.505]
ờ <no-speech> vậy đó hả
[206.935]
<no-speech>
[209.665]
mày nghĩ sao <breath>
[210.675]
<no-speech>
[219.845]
không
[220.365]
<no-speech>
[222.345]
<no-speech>
[222.765]
<no-speech>
[225.165]
ờ
[225.735]
<no-speech>
[235.375]
<int> <no-speech> <laugh> yên tâm <no-speech> đi bói ông thầy còn kêu là cưới mà nghĩ gì đâu
[240.475]
<no-speech>
[244.695]
thì ai biết <no-speech> người ta kêu nhất gái <breath> nhất gái hơn gì nhất trai hơn một gì đó
[248.575]
<no-speech>
[251.675]
<no-speech>
[252.085]
<no-speech>
[254.315]
<laugh> ờ cũng hay <laugh> <no-speech> hên xui <no-speech> thì mày bây giờ cứ quen đi chứ có sao đâu
[260.614875]
<no-speech>
[267.429938]
<no-speech>
[274.245]
ờ
[274.825]
<no-speech>
[276.575]
<no-speech>
[276.925]
<no-speech>
[277.775]
ờ
[278.345]
<no-speech>
[286.805]
ờ
[287.345]
<no-speech>
[292.355]
<no-speech> ờ
[293.005]
<no-speech>
[301.615]
<laugh> <no-speech> chịu đi
[303.625]
<no-speech>
[306.305]
đâu phải <no-speech> té ra <no-speech> hèn chi <no-speech> rứa mà kêu tự Yến nói ra té ra là là do <breath> do ổng nói câu đó nên mới được đà tới luôn đó chi <laugh> <int> mới can đảm để nói chi nữa
[317.745]
<no-speech>
[318.775]
<no-speech>
[323.375]
ổng buồn đó hả ổng hụt hẫng đó hả <no-speech> <int>
[325.635]
<no-speech>
[330.225]
ừ
[330.755]
<no-speech>
[338.72]
<no-speech>
[346.685]
ừ <no-speech> hồi sáng đó hả
[348.915]
<no-speech>
[351.945]
ừ
[352.605]
<no-speech>
[353.435]
<int> <no-speech> hả hẹn nhau hả
[355.535]
<no-speech>
[359.655]
ủa chiều nay Tiến
[361.195]
<no-speech>
[362.425]
ờ
[363.105]
<no-speech>
[365.005]
mà ủa mà chiều nay Tiến không đi học Tiến ở đâu rứa <no-speech> đi đâu hả
[368.125]
<no-speech>
[371.855]
<no-speech> ừ ghê nghe gọi cho ai rứa
[373.715]
<no-speech>
[376.935]
hả <no-speech> ghê ta <no-speech> ả Tấn nhớ không ta
[379.935]
<no-speech>
[381.985]
áo tắm
[382.625]
<no-speech>
[384.945]
ừ
[385.475]
<no-speech>
[387.025]
<no-speech>
[387.705]
<no-speech>
[389.325]
<no-speech>
[390.065]
<no-speech>
[392.175]
ừ
[392.785]
<no-speech>
[398.135]
ừ
[398.595]
<no-speech>
[407.685]
sao
[408.215]
<no-speech>
[411.905]
ờ
[412.625]
<no-speech>
[415.265]
ờ
[415.955]
<no-speech>
[418.245]
ờ
[418.845]
<no-speech>
[423.175]
ờ ờ
[423.975]
<no-speech>
[426.155]
ờ
[426.765]
<no-speech>
[428.105]
<laugh> kệ <laugh> <no-speech> có không đó
[431.575]
<no-speech>
[432.415]
<no-speech>
[433.005]
<no-speech>
[433.995]
<sta> <no-speech> thiệt hay là giả rứa <laugh> có giả không rứa giả hồn hột không rứa <no-speech> <laugh>
[443.885]
<no-speech>
[445.705]
ờ <no-speech> ờ
[447.365]
<no-speech>
[452.825]
ờ ờ
[453.505]
<no-speech>
[456.545]
ờ
[457.105]
<no-speech>
[467.705]
ừ <laugh> không nhận ra luôn hà
[471.625]
<no-speech>
[473.465]
ủa mấy bữa thấy đã ba mươi phần trăm bữa nay chắc <breath> lên bảy mươi chứ
[476.955]
<no-speech>
[479.215]
à hay là <hes> hay là bây giờ nó đang cân bằng ở mức năm mươi năm mươi <laugh>
[483.175]
<no-speech>
[484.655]
<laugh> chắc vậy quá
[486.945]
<no-speech>
[492.525]
ừ
[493.125]
<no-speech>
[496.945]
<no-speech> trăm
[497.525]
<no-speech>
[498.975]
ờ <no-speech> hiền lắm <no-speech> hiền như cọp á <laugh> không cái này nói giỡn ha đừng có tưởng thiệt nghe <laugh>
[507.725]
<no-speech>
[509.365]
ừ
[509.815]
<no-speech>
[516.125]
ừ
[516.745]
<no-speech>
[519.695]
ừ
[520.355]
<no-speech>
[525.345]
ừ ừ
[526.065]
<no-speech>
[527.955]
ừ <no-speech> thế chân đó hả
[529.445]
<no-speech>
[531.035]
ờ thì hắn hắn giữ để hắn làm của riêng sau ni về chứ <hes> <no-speech> <int> coi chi mà thầy kêu vợ lều gì đó <no-speech> <laugh>
[539.985]
<no-speech>
[541.555]
<laugh> à <no-speech> à <no-speech> bồ là là lều hả <no-speech> vợ là nhà <no-speech> gió thổi lều bay nhà vẫn còn đó
[548.525]
<no-speech>
[550.535]
à <no-speech> đâu <no-speech> vợ là nhà
[553.265]
<no-speech>
[554.235]
<no-speech> <laugh> vợ là nhà lều vợ là lều <laugh>
[559.295]
<no-speech>
[560.545]
<no-speech>
[560.985]
<no-speech>
[564.565]
<laugh> ừ <laugh> đồ <laugh> quỷ <laugh>
[569.965]
<no-speech>
[571.045]
<laugh> bị nghén rứa lưỡi bữa nay nói cho cố vô bây giờ bị <no-speech> chị Thi có bị gì không đó <breath> <no-speech> bữa nay hai chị líu lưỡi dễ sợ luôn
[580.625]
<no-speech>
[584.075]
cười người hôm trước hôm sau người cười <laugh> hay hay <no-speech> hả
[589.535]
<no-speech>
[596.105]
<no-speech> nghỉ thì răng <no-speech> đồ án Trang vắng năm buổi rồi nè
[599.155]
<no-speech>
[600.34]
