[0.0]
<no-speech>
[9.62125]
<no-speech>
[19.2425]
<no-speech>
[28.86375]
<no-speech>
[38.485]
<no-speech> ấy á
[39.045]
<no-speech>
[45.835]
(())
[47.265]
<no-speech>
[48.295]
<no-speech> nhắn tin
[49.005]
<no-speech>
[54.755]
<no-speech> cái gì mà quá gay gắt thế nhỉ
[56.185]
<no-speech>
[58.885]
xe này mà phanh cả phanh đĩa
[60.415]
<no-speech>
[64.135]
<no-speech> máy á
[64.825]
<no-speech>
[66.355]
<no-speech> nay chủ nhật mà
[67.485]
<no-speech>
[69.745]
<no-speech>
[71.335]
<no-speech>
[73.005]
<no-speech> hả
[73.475]
<no-speech>
[76.665]
ừ ở quê lên <sta> sao
[78.465]
<no-speech>
[83.275]
chưa <no-speech> quên không mang về xin dấu rồi
[86.195]
<no-speech>
[88.685]
quên <no-speech> quên không mang về quê để xin dấu rồi không phải là xin dấu rồi
[96.415]
<no-speech>
[100.095]
<no-speech> <int> thế sao lại để được cái số này ở đâu ra đây số máy bàn mà
[104.105]
<no-speech>
[108.475]
<no-speech> hử
[109.005]
<no-speech>
[114.565]
<no-speech> à thế à
[115.365]
<no-speech>
[117.665]
<laugh> lạ quá thôi vì đấy cứ có cảm giác như là nó <no-speech> nó nó <hes> <no-speech> kìa nhìn kìa biểu diễn lại đi
[128.465]
<no-speech>
[130.864875]
<no-speech>
[132.845]
<no-speech>
[137.625]
<no-speech> ừ
[138.205]
<no-speech>
[139.525]
<no-speech>
[139.905]
<no-speech>
[141.345]
mai ngày kia
[142.385]
<no-speech>
[148.095]
thôi phòng tớ thuê ô tô mà <no-speech> <laugh>
[152.085]
<no-speech>
[152.935]
<no-speech> hả
[153.455]
<no-speech>
[165.265]
ờ ớ
[166.655]
<no-speech>
[167.985]
trong sáng cơ
[169.205]
<no-speech>
[170.865]
khu biệt thự ấy
[172.155]
<no-speech>
[177.135]
<cough> ở đấy ai người ta cho mình thuê cái khu đấy á cậu có tiền tiền tiền gì chứ mỗi tháng á <no-speech> cái khu đấy là khu làm ăn ai người ta cho cậu thuê
[188.265]
<no-speech> vừa ra đấy
[189.595]
<no-speech>
[190.805]
<no-speech>
[191.855]
<no-speech>
[193.425]
nhưng mà người ta không cho thuê được chưa
[196.975]
<no-speech>
[198.405]
hứ lăm mươi triệu một tháng cậu có tiền thuê không
[201.695]
<no-speech>
[204.555]
hứ cái khu ấy mặt bằng của nó làm ăn hơi bị được đấy một tháng người ta tính tiền trăm không thì hoặc là vài chục triệu một tháng độc có thuế
[213.885]
<no-speech>
[214.685]
ừ à <no-speech> <sta> <cough> ừ khi nào tớ trúng xổ số nhé
[222.125]
<no-speech>
[223.765]
ấy nhé ừ khi nào trúng xổ số tớ chả ra đấy
[226.755]
<no-speech>
[227.805]
<no-speech> hả
[228.265]
<no-speech>
[229.855]
<laugh> <sta> <no-speech> thế chỉ cần như thế nào
[232.505]
<no-speech>
[235.825]
ừ có tiền ừ vấn đề là có tiền ở đâu ra ấy chứ
[238.605]
<no-speech>
[240.085]
<sta> <no-speech> ừ chỉ có trúng xổ số mới có tiền bây giờ thôi
[244.705]
<no-speech>
[246.245]
<sta> ừ <no-speech>
[248.155]
<no-speech>
[249.735]
ối giời ơi làm móc đâu ra lăm mươi triệu một tháng hả cậu
[253.175]
<no-speech>
[256.365]
<no-speech> tí xỉu
[257.145]
<no-speech>
[258.045]
tiền âm phủ
[259.185]
<no-speech>
[261.494875]
<no-speech>
[265.355]
<no-speech>
[269.775]
nó đi đi vệ sinh mới về
[271.015]
<no-speech>
[273.22]
