[0.0]
<no-speech>
[0.345]
<no-speech>
[1.845]
<no-speech>
[2.195]
<no-speech>
[5.725]
<no-speech> a lô <no-speech> được chưa
[8.705]
<no-speech>
[10.655]
<int> <no-speech> đâu có gì đâu <no-speech> đang làm gì đó
[14.195]
<no-speech>
[15.365]
<no-speech>
[15.875]
<no-speech>
[17.175]
đi ăn hả
[17.925]
<no-speech>
[22.115]
<no-speech> sao <no-speech> quà hả <laugh>
[26.975]
<no-speech>
[27.825]
ờ quà <no-speech> gửi rồi <no-speech> gửi rồi mệt quá <no-speech> ủa em chưa nhận được hả
[34.065]
<no-speech>
[35.375]
<no-speech> anh có gửi em gấu bông bự lắm <no-speech> ô-
[38.965]
<no-speech>
[42.085]
ông <hes> anh anh còn mã mã số <no-speech> gửi mà có gì anh chạy ra bưu điện anh hỏi coi
[48.385]
<no-speech>
[51.095]
<laugh> <int> <no-speech> ở đấy học hành sao rồi rớt mấy môn chưa rớt mấy môn rồi
[57.655]
<no-speech>
[62.975]
trời bữa nào gi- <hes> giả <sta> bộ rớt đúng không đâu rớt thiệt đâu
[67.045]
<no-speech>
[70.165]
trời <no-speech> môn đầu tiên luôn đó hả
[73.075]
<no-speech>
[77.385]
ủa <no-speech> chứ <hes> thường thường mấy trường đại học cao đẳng học bóng chuyền sao em học nhảy cao
[82.515]
<no-speech>
[86.755]
hả <no-speech> trường không có sân bóng chuyền hả
[88.945]
<no-speech>
[90.325]
<int> <laugh> trường không có sân bóng chuyền hả
[92.885]
<no-speech>
[96.715]
<sta> <no-speech> khiếp thật <no-speech> ừ <no-speech> đá banh không có bóng chuyền nhưng bóng đá là trùm <no-speech> hay không
[106.285]
<no-speech>
[108.495]
<no-speech>
[108.875]
<no-speech>
[109.905]
<no-speech>
[110.305]
<no-speech>
[113.325]
<no-speech> không <no-speech> em em ghi cho địa chỉ anh gửi lại cho <no-speech> thiệt đó anh gửi thiệt lần này anh gửi thiệt <laugh> <no-speech> xong xong <no-speech> xong cái vụ này anh có quà gửi
[123.905]
cho em liền <int> <no-speech> thiệt mà
[128.065]
<no-speech>
[129.185]
<int> ừ
[129.754875]
<no-speech>
[133.025]
<no-speech>
[133.405]
<no-speech>
[136.785]
<no-speech>
[137.325]
<no-speech>
[138.495]
rồi rồi <no-speech> em em em <no-speech> em ghi địa địa địa <no-speech> địa chỉ lại đi
[141.745]
<no-speech>
[143.925]
em đọc địa chỉ đi anh ghi cho rồi mai anh gửi qua cho
[146.045]
<no-speech>
[148.865]
khỏi có nhắn tin hả
[149.755]
<no-speech>
[153.565]
<no-speech> sao đọc được <no-speech>
[155.765]
<no-speech>
[157.625]
<no-speech> ờ <no-speech> để nhắn tin <hes> lưu trong <no-speech> máy đúng không đỡ mất
[162.145]
<no-speech>
[165.905]
sa- <no-speech> sao
[166.735]
<no-speech>
[171.075]
k- ký túc xá đông đủ quá ha <sta> <no-speech> ký túc xá đâ- đông <no-speech> người quá ha
[177.095]
<no-speech>
[178.565]
<no-speech>
[179.125]
<no-speech>
[180.035]
<no-speech>
[180.695]
<no-speech>
[181.665]
<int> ờ
[182.325]
<no-speech>
[192.315]
<no-speech>
[192.975]
<no-speech>
[194.625]
<laugh> <no-speech> không bây giờ em thích cái gì rẻ rẻ thôi nha anh sinh viên nghèo đâu có tiền mua quà mắc đâu em thích cái gì anh gửi qua cho cái đó
[201.555]
<no-speech>
[203.285]
ấu <no-speech> rẻ rẻ thôi nha chừng cỡ khoảng <hes> trăm trăm rưỡi trở xuống thôi <no-speech> lên nhiều quá không có tiền mua đâu <laugh>
[210.625]
<no-speech>
[212.225]
Châu
[212.805]
<no-speech>
[215.855]
không <no-speech> nếu nếu mà gấu bông để cồng kềnh quá <no-speech> mất phí gửi nhiều lắm <no-speech> tiền tiền phí gửi nhiều mắc hơn gấu bông đó
[223.265]
<no-speech>
[228.835]
ờ
[229.185]
<no-speech>
[230.435]
ở chỗ em là thành phố đúng không <sta> <no-speech> chỗ em là thành phố đúng không <no-speech> chỗ em là trung <hes> trung tâm thành phố đúng không chỗ em ở đó
[240.845]
<no-speech>
[242.845]
ờ vậy thì- <no-speech>
[244.435]
<no-speech>
[246.745]
<no-speech> vậy là anh sẽ <hes> lên mạng á <no-speech> anh dò xem khu đó á <no-speech> có cái <hes> trung tâm mua <hes> hàng qua mạng nào không <no-speech> anh chuyển <no-speech> có chứ sao không có trên mạng thiếu gì
[258.505]
<no-speech>
[259.915]
<no-speech>
[260.535]
<no-speech>
[261.705]
ờ để mai anh dò <no-speech> cứ cứ em cứ nhắn tin địa chỉ đi
[265.305]
<no-speech>
[270.685]
ờ <hes> anh ghi đúng không <no-speech> giờ anh lấy viết ghi nha
[273.265]
<no-speech>
[274.375]
<no-speech> ờ lấy viết ghi
[276.745]
<no-speech>
[281.505]
<sta> tẩy tẩy tẩy
[282.465]
<no-speech>
[283.915]
cho em xin tờ giấy đi <no-speech> giấy nháp á
[285.415]
<no-speech>
[287.605]
<no-speech>
[288.505]
<no-speech>
[291.175]
<no-speech>
[291.535]
<no-speech>
[292.605]
ờ đọc đi
[293.425]
<no-speech>
[295.435]
ờ rồi rồi biết rồi
[296.575]
<no-speech>
[303.205]
<int> đâu
[303.735]
<no-speech>
[305.675]
phòng nhiêu
[306.535]
<no-speech>
[309.235]
a ba trăm một không <no-speech> rồi
[311.415]
<no-speech>
[314.555]
tiếp
[315.015]
<no-speech>
[318.605]
<no-speech>
[318.955]
<no-speech>
[319.805]
cơ sở một đúng không <no-speech> đại học
[322.735]
<no-speech>
[323.955]
rồi
[324.545]
<no-speech>
[327.865]
gì
[328.335]
<no-speech>
[331.375]
<int> đường đó hả <no-speech> rồi
[335.245]
<no-speech>
[340.135]
rồi
[340.825]
<no-speech>
[348.085]
<click> rồi tiếp
[348.915]
<no-speech>
[351.255]
tên <laugh>
[353.245]
<no-speech>
[354.365]
<no-speech>
[354.735]
<no-speech>
[355.995]
ừ không biết <no-speech>
[357.945]
<no-speech>
[358.995]
<laugh> quên rồi <laugh> ủa đâu có đưa <no-speech> chỉ biết tên hà mã dễ thương chứ đâu biết tên gì đâu
[366.045]
<no-speech>
[369.915]
cho chắc <no-speech> không cái này cái c- không cái này phải có tên với chứng minh người ta mới gửi được
[374.425]
<no-speech>
[378.195]
không
[378.745]
<no-speech>
[388.765]
không <no-speech> phải ghi tên để người ta khi em nhận quà á <no-speech> người ta sẽ hỏi chứng minh của em nếu mà đúng <no-speech> đúng chủ mới người ta mới đưa chứ
[395.445]
<no-speech>
[401.625]
Nguyễn Thị Ngọc gì <no-speech> Nguyễn <no-speech> Thị <no-speech> Ngọc <no-speech> Ngọc gì
[409.415]
<no-speech>
[411.425]
Thành ấy hả
[412.145]
<no-speech>
[413.315]
Thành
[413.885]
<no-speech>
[416.225]
S
[416.735]
<no-speech>
[418.365]
sau nữa là S nữa đúng không
[419.925]
<no-speech>
[422.495]
S rồi O
[423.665]
<no-speech>
[425.855]
<sta> S O
[427.275]
<no-speech>
[428.985]
<sta> sơn đó hả
[429.975]
<no-speech>
[432.005]
Sơn đúng không <no-speech> <laugh> tên con trai hả <no-speech> <laugh> <hes> nhà nhà em không có con trai đúng không
[443.115]
<no-speech>
[444.815]
<no-speech>
[445.195]
<no-speech>
[446.185]
<no-speech> ờ út đúng không
[449.155]
<no-speech>
[450.945]
<sta> từ út đúng không
[451.935]
<no-speech>
[457.965]
ờ <sta> có luôn là tên con <laugh> trai đó hả để nhà rồi con trai (()) con trai có đặt con tên Sơn không
[462.495]
<no-speech>
[464.795]
<int> ở nhà không có con trai
[466.605]
<no-speech>
[467.495]
khoái là con trai có đặt con tên Sơn không <int>
[469.565]
<no-speech>
[471.285]
<no-speech>
[471.715]
<no-speech>
[475.655]
<no-speech>
[476.995]
<no-speech>
[480.155]
<no-speech>
[480.525]
<no-speech>
[481.455]
không khoảng <hes>
[482.705]
<no-speech>
[485.525]
khoảng <hes> từ từ đã <no-speech> để khi nào <no-speech> rảnh đã một tuần hai tuần gì đó
[489.845]
<no-speech>
[493.335]
<sta> ừ <no-speech> để xem đã chứ <hes> rảnh rảnh mới đi được chứ
[496.485]
<no-speech>
[498.215]
lâu lâu mới có cơ hội mà đúng không <no-speech> có ý nghĩa một chút
[501.065]
<no-speech>
[503.375]
tìm khắp thành phố đi <no-speech> địt mẹ nó <no-speech> ai sợ làm gì <no-speech> khùng quá <no-speech> <cough>
[510.745]
<no-speech>
[513.255]
ừ ngay ở quán cà phê ven đường á <no-speech> mà hôm nay xe chủ nhật xe nó đi nhiều quá
[519.495]
<no-speech>
[523.425]
<no-speech>
[524.155]
<no-speech>
[525.505]
hôm nay hả <no-speech> ờ không <hes> tại nhà xa quá <no-speech> mới về cách đây hai ba tuần à
[529.895]
<no-speech>
[531.845]
<int> làm biếng về quá
[532.765]
<no-speech>
[534.795]
không hôm bữa là về đi đám cưới <no-speech> đám cưới với lại <no-speech> đầy tháng <hes> con thằng bạn á <sta>
[542.215]
<no-speech>
[543.305]
<no-speech>
[544.605]
<no-speech>
[546.815]
ờ không
[547.365]
<no-speech>
[548.185]
ờ
[548.745]
<no-speech>
[550.885]
hôm bữa tại mới đầy tháng con anh nó không đi
[552.965]
<no-speech>
[553.765]
giờ đầy tháng con nó thì mình <int> không đi đi
[555.345]
<no-speech>
[557.395]
<int> ờ
[557.945]
<no-speech>
[560.315]
<no-speech> ai biết được thôi kệ người ta đi
[564.215]
<no-speech>
[565.125]
<no-speech>
[565.655]
<no-speech>
[567.675]
<no-speech> với ai anh không biết nữa
[569.325]
<no-speech>
[573.505]
ờ có gì để bữa nào anh nói cho nghe <no-speech> anh cũng chưa biết nữa <no-speech> <laugh> không anh <no-speech> anh bên bưu chính viễn thông biết người ta kết nối được người ta kết nối chứ <no-speech> liên quan gì
[585.065]
(()) anh đâu biết được đâu
[586.135]
<no-speech>
[590.635]
ở để bữa nào đi điều tra coi <no-speech> xem làm cách nào ta kết nối được hay vậy
[594.575]
<no-speech>
[596.775]
<no-speech>
[597.395]
<no-speech>
[599.94]
