[0.0]
<no-speech>
[4.785]
<no-speech> a lô
[6.755]
<no-speech>
[8.195]
mày đang làm gì vậy <no-speech> <int>
[11.085]
<no-speech>
[12.505]
<no-speech> ừ lên đây đá banh
[13.875]
<no-speech>
[15.025]
<no-speech> <breath> lên đây đá banh chơi
[17.125]
<no-speech>
[20.435]
<no-speech> chạy lên đại đi
[21.625]
<no-speech>
[22.575]
đang căng thẳng trên này nè ba đang căng thẳng trên này <laugh> chạy lên đi
[25.505]
<no-speech>
[29.135]
<no-speech> phim gì phim gì
[30.135]
<no-speech>
[33.915]
<no-speech> ngồi kì kênh gì kênh gì mở tao coi coi
[37.005]
<no-speech>
[42.635]
S C T V mấy giờ mà ngồi rà <no-speech> mày quởn không
[45.615]
<no-speech>
[48.115]
<no-speech> ừ mai đá banh không <no-speech> ừ
[51.905]
<no-speech>
[56.665]
cái gì <no-speech> mai <hes> ờ
[60.465]
<no-speech>
[69.055]
<no-speech> ờ ờ ờ
[70.065]
<no-speech>
[71.905]
<no-speech> đây nè
[72.565]
<no-speech>
[75.345]
<no-speech> thì mai tụi nó rủ đi đá kìa
[77.525]
<no-speech>
[82.865]
thằng Khoa nói chuyện với mày nè <no-speech> thằng Khoa nói chuyện với mày nè <no-speech> <int>
[87.735]
<no-speech>
[90.405]
<no-speech> a lô
[91.005]
<no-speech>
[92.975]
<no-speech> nó không chịu nói
[94.865]
<no-speech>
[97.535]
<no-speech>
[97.945]
<no-speech>
[98.815]
ai biết nó nói nói nó định nói gì ai biết nó đang đá banh
[102.135]
<no-speech>
[102.975]
<no-speech> <int> ai biết nó đang chụp gôn
[105.245]
<no-speech>
[107.935]
<no-speech> cái gì <int>
[108.895]
<no-speech>
[111.485]
<no-speech> <int> ai biết đây ồn quá à
[113.705]
<no-speech>
[115.525]
<no-speech>
[116.195]
<no-speech>
[118.065]
<sta> chú nạo quá <no-speech>
[121.695]
<no-speech>
[122.975]
<no-speech> <sta> không có giỡn đâu bà ơi đang đá banh mà <no-speech> sân đông người lắm
[128.735]
<no-speech>
[130.995]
ở đây đông người lắm không có chỗ nào vắng hết ớ <int>
[132.995]
<no-speech>
[133.855]
<no-speech> <sta> cái gì <no-speech>
[139.225]
<no-speech>
[141.185]
<no-speech>
[141.545]
<no-speech>
[145.575]
<no-speech> <int> giờ gì
[147.775]
<no-speech>
[150.355]
<no-speech> khỏe khỏe <int>
[152.015]
<no-speech>
[155.255]
mày nói cái gì mày nói lớn lên coi
[156.825]
<no-speech>
[159.815]
mẹ chưa có bồ nữa có con <int>
[162.065]
<no-speech>
[165.595]
<no-speech>
[165.945]
<no-speech>
[168.175]
<no-speech> <sta> tao chưa có bồ nữa có con <laugh>
[171.785]
<no-speech>
[176.535]
<no-speech>
[178.555]
<no-speech>
[179.705]
<no-speech> gì gì gì
[180.645]
<no-speech>
[182.655]
<no-speech> mày nói gì mày nói lớn lên coi
[185.075]
<no-speech>
[186.675]
<no-speech> <sta> ai biết đâu nãy không coi thì thôi
[192.845]
<no-speech>
[199.785]
<no-speech> a lô mày đâu rồi
[200.905]
<no-speech>
[205.355]
ra đá banh nè ba mấy đứa rủ nãy giờ kìa
[207.535]
<no-speech>
[212.985]
<no-speech> gì
[213.475]
<no-speech>
[219.55]
<no-speech>
[225.625]
<no-speech> ai biết
[226.295]
<no-speech>
[232.405]
<no-speech> giờ đi đâu
[233.255]
<no-speech>
[237.335]
<no-speech>
[237.705]
<no-speech>
[239.985]
<no-speech>
[240.685]
<no-speech>
[242.745]
ai biết tùy mấy chú thôi
[244.695]
<no-speech>
[253.015]
<no-speech>
[253.415]
<no-speech>
[262.945]
<no-speech> từ từ từ từ ba-
[264.085]
<no-speech>
[266.995]
<no-speech>
[267.395]
<no-speech>
[270.325]
<no-speech> lên đá banh ba-
[271.515]
<no-speech>
[274.025]
<no-speech> vui lên
[274.565]
<no-speech>
[276.595]
O_K O_K nói tiếng Tây Ban Nha đúng không
[278.745]
<no-speech>
[283.075]
<sta> ờ O_K <no-speech>
[286.085]
<no-speech>
[287.055]
<no-speech>
[287.425]
<no-speech>
[288.685]
<no-speech> lên đây chơi ba-
[289.755]
<no-speech>
[292.485]
<no-speech>
[292.835]
<no-speech>
[300.535]
<no-speech> O_K O_K
[301.585]
<no-speech>
[305.215]
<no-speech> O_K
[306.015]
<no-speech>
[307.695]
<no-speech> bình luận tao nghe coi
[308.775]
<no-speech>
[315.995]
<no-speech> ờ vào không sút vào không
[317.975]
<no-speech>
[319.035]
<no-speech>
[321.295]
<no-speech>
[324.135]
<no-speech> mày đâu rồi
[325.535]
<no-speech>
[330.625]
<no-speech> bình luận tao nghe coi
[331.825]
<no-speech>
[332.825]
<no-speech> bình luận tao nghe coi <laugh>
[334.425]
<no-speech>
[338.275]
<no-speech>
[338.635]
<no-speech>
[342.335]
<no-speech>
[342.925]
<no-speech>
[349.785]
<no-speech> a lô
[350.415]
<no-speech>
[352.135]
<no-speech> cái gì
[353.515]
<no-speech>
[355.895]
O_K giờ thì bình luận tiếp đi <no-speech> căng thẳng không
[358.905]
<no-speech>
[360.305]
<no-speech>
[360.745]
<no-speech>
[361.815]
<no-speech> bên nào đá thắng bên nào đá thắng
[364.605]
<no-speech>
[368.935]
bên nào đang thắng bên nào đang <hes> dẫn trước
[371.325]
<no-speech>
[376.595]
hồi chú nào đang giữ banh vậy chú nào đang giữ banh
[379.095]
<no-speech>
[385.085]
<no-speech>
[385.435]
<no-speech>
[388.725]
<no-speech> <int> ừ vậy mà không vô chứ giờ khó quá trời luôn không vô
[392.835]
<no-speech>
[396.975]
<no-speech> O_K
[397.725]
<no-speech>
[404.185]
<no-speech> ờ ờ đừng
[405.275]
<no-speech>
[407.755]
<no-speech>
[408.135]
<no-speech>
[418.725]
<no-speech>
[419.105]
<no-speech>
[420.405]
<no-speech>
[421.095]
<no-speech>
[424.935]
ừ <no-speech> vậy cướp banh rồi thằng nào đang giữ banh vậy
[429.225]
<no-speech>
[433.915]
<no-speech> <sta> O_K O_K
[437.795]
<no-speech>
[442.145]
<no-speech> bình luận tiếp coi căng thẳng giữ vậy
[444.455]
<no-speech>
[450.79]
<no-speech>
[457.125]
<no-speech> a lô a lô còn còn còn đang nghe còn nghe bình luận
[461.855]
<no-speech>
[463.065]
<no-speech>
[463.435]
<no-speech>
[465.135]
<no-speech> O_K
[466.335]
<no-speech>
[472.165]
<no-speech> giờ đi đâu
[474.135]
<no-speech>
[477.735]
<no-speech>
[478.155]
<no-speech>
[479.485]
<no-speech> câu ở đâu <no-speech> trên núi hả
[481.985]
<no-speech>
[485.675]
<no-speech> lên núi câu cá ba-
[487.025]
<no-speech>
[490.195]
<no-speech> vậy mới hay
[491.005]
<no-speech>
[495.885]
<no-speech>
[496.285]
<no-speech>
[499.475]
<no-speech> ờ ờ ờ <no-speech> nướng ăn chắc ngon lắm mày ha
[502.195]
<no-speech>
[507.065]
<no-speech>
[507.425]
<no-speech>
[509.035]
gì chú <no-speech> gì gì
[510.865]
<no-speech>
[513.075]
<no-speech> O_K <no-speech> mai bắn chim mai đá banh về xong lên núi hả
[516.725]
<no-speech>
[522.665]
<no-speech> ờ bắn chim đi đâu nữa
[523.845]
<no-speech>
[527.195]
<no-speech> nói lớn lên coi
[529.275]
<no-speech>
[531.135]
<no-speech>
[533.255]
<no-speech>
[534.525]
đang làm gì vợ con mà la ghê vậy ba-
[536.965]
<no-speech>
[538.605]
<no-speech> đang làm gì vợ con mà la ghê vậy
[540.525]
<no-speech>
[549.175]
<no-speech> a lô
[550.625]
<no-speech>
[551.465]
còn đó không vậy <no-speech> còn còn còn
[554.015]
<no-speech>
[557.455]
ai mà biết đâu <no-speech> cái cống miếu ớ
[559.925]
<no-speech>
[564.245]
<no-speech> không không
[564.915]
<no-speech>
[566.295]
<no-speech> đang ngồi trong phòng kín
[567.545]
<no-speech>
[571.215]
<no-speech> <sta> O_K
[573.955]
<no-speech>
[574.875]
<no-speech> thôi mai có gì mày rước tao đi
[576.375]
<no-speech>
[578.455]
mai mày rước tao đi <no-speech> <int>
[581.605]
<no-speech>
[584.055]
xe tao hư rồi rước đi không có ai hết ớ
[586.255]
<no-speech>
[594.325]
<no-speech>
[595.055]
<no-speech>
[600.18]
