[0.0]
a lô
[2.765]
<no-speech>
[4.595]
a lô tôi đây
[5.915]
<no-speech>
[7.695]
đang ở đâu đấy
[8.815]
<no-speech>
[11.075]
chắc về đi tắm biển
[12.335]
<no-speech>
[13.795]
hôm trước về hết bao nhiêu tiền
[15.465]
<no-speech>
[17.095]
hôm trước đi về ấy
[18.675]
<no-speech>
[21.145]
đù cái gì <no-speech> bao nhiêu tiền từ Thanh Hóa ra đấy mà năm lít
[26.855]
<no-speech>
[35.655]
<laugh> về về đến <hes> Mỹ Đình à
[39.115]
<no-speech>
[42.185]
về đến đâu
[43.735]
<no-speech>
[45.985]
<sta> ô bến xe (())
[47.725]
<no-speech>
[48.665]
(())
[50.305]
<no-speech>
[52.225]
<sta> hay đến đây nghĩa là bắt xe máy ra
[54.175]
<no-speech>
[60.715]
a lô đừng hỏi cái thằng này
[62.905]
<no-speech>
[64.824875]
(())
[65.395]
<no-speech>
[68.055]
chứ sao rồi nay nay <hes> người yêu đâu rồi có được có mua quà sao rồi
[72.525]
<no-speech>
[76.215]
đi đi đấu đấy trên trên mà có chỗ đi à lên núi làm việc à
[80.355]
<no-speech>
[81.385]
<no-speech>
[81.935]
<no-speech>
[85.105]
đi đâu là đi đâu
[86.575]
<no-speech>
[88.035]
đi đâu đi đâu
[89.055]
<no-speech>
[92.155]
hoành tráng thế đi với người yêu hay đi với lớp
[94.535]
<no-speech>
[96.295]
đi một mình hay đi với lớp
[98.035]
<no-speech>
[99.715]
chứ mấy hôm trước đi à bảo đi biển đi với người yêu hay đi với lớp
[104.445]
<no-speech>
[106.715]
ông bảo người ta bảo đi đẹp hơn biển sần Sơn
[110.855]
<no-speech>
[116.595]
chứ hè có về không
[118.085]
<no-speech>
[120.285]
<laugh> tao về hoài
[123.885]
<no-speech>
[125.425]
ừ mẹ hôm trước mẹ tôi hôm thứ sáu ấy vừa mới ra xong mẹ thi cả lớp nộp giấy trắng sợ luôn
[131.095]
<no-speech>
[133.285]
<sta> chỉ tại gặp phải Linh sát thủ địt mẹ cái con hôm trước thu cái hai của tôi con mẹ hắn nữa gặp phải con chó nó kinh khủng luôn Linh sát thủ mẹ chó chết
[144.145]
<no-speech>
[145.065]
cả lớp nộp giấy trắng sợ luôn
[146.835]
<no-speech>
[148.255]
chưa bao giờ
[149.325]
<no-speech>
[150.905]
lớp ông bao nhiêu người <no-speech> hả
[154.175]
<no-speech>
[156.185]
cái gì
[156.965]
<no-speech>
[159.115]
thật a
[160.105]
<no-speech>
[162.405]
à thế ông học học trong hội trường à
[164.435]
<no-speech>
[168.825]
<laugh> <sta> chà <no-speech> à cái gì nhả mới cưa được em thằng đó giới thiệu <laugh> đang tán <no-speech> hồi trước học Hàm Rồng <no-speech> lên Face- mà
[180.355]
xem Hàn Ngọc Trinh bạn tôi ấy <no-speech> nhìn con này cũng được nhưng mà chụp ảnh ngoài <hes> chụp ảnh nó không ăn ảnh lắm xấu lắm
[187.545]
<no-speech>
[190.165]
chú xem <no-speech> mẹ xinh hơn người yêu chú nhiều
[193.635]
<no-speech>
[196.805]
thế chú <no-speech> Cảnh đây
[200.095]
<no-speech>
[201.785]
lên xem đi
[203.675]
<no-speech>
[206.635]
<no-speech>
[207.045]
<no-speech>
[207.845]
cái gì
[208.485]
<no-speech>
[209.335]
<int> mua một ít <no-speech> <int>
[210.795]
<no-speech>
[211.885]
nhìn ngày trước là hoa khôi trường Hàm Rồng đấy
[216.785]
<no-speech>
[218.495]
địt mẹ chú chú tuổi gì theo chú chứ gì chú khinh chú khinh thiệt
[225.355]
<no-speech>
[228.145]
chú cứ lên xem đi <no-speech> mẹ (())
[231.055]
<no-speech>
[234.625]
căng như Tommy luôn trời
[237.935]
<no-speech>
[239.945]
ời
[240.495]
<no-speech>
[242.485]
trắng hơn con Zip của chú nhiều
[246.995]
<no-speech>
[247.845]
tao tưởng văn hoa
[249.195]
<no-speech>
[250.975]
<no-speech>
[251.345]
<no-speech>
[253.505]
cái gì
[256.674875]
<no-speech>
[258.445]
<int> người yêu chú làm việc chưa <no-speech>
[260.674875]
<no-speech>
[263.865]
<sta> (()) nó khiêu chiến hai thằng luôn (()) <no-speech>
[269.385]
<no-speech>
[270.185]
<sta> bảo ui nhưng mà phải nể hắn <laugh> lên Face- mà xem <no-speech> coi nó hắn xoắn tao với thằng Quý <no-speech> lên mà xem mẹ hắn ngựa <no-speech> hắn với con người yêu hắn
[281.575]
<sta> tao với thằng Quý <no-speech> nó xoắn tôi với thằng Quý lên mà xem <no-speech> nó bảo chấp hết ba thằng luôn <no-speech> người yêu
[292.995]
thằng ở Úc ấy <no-speech> người yêu hắn với hắn
[297.685]
<no-speech>
[299.075]
nó bảo xứ lý về lúc nào về xử lý nó xử đẹp luôn <sta> <no-speech>
[303.915]
<no-speech>
[305.625]
thế nay học sao rồi thi lại mấy môn kỳ một thi lại mấy môn
[310.215]
<no-speech>
[315.055]
nghe nghe nghe nói chú học trên đấy mẹ giỏi lắm à hả
[318.565]
<no-speech>
[319.895]
nghe nói chú nay học giỏi lắm mà
[323.705]
<no-speech>
[325.195]
<int> địt mẹ suốt ngày lên bảo ngày trước nhắn tin ngại gọi điện anh em hỏi thăm
[330.525]
<no-speech>
[333.885]
không nói chuyện với anh em <no-speech> hôm trước lên Face- nhắn tin nó hại nói chuyện suốt mà đéo nói chuyện với anh em gì con chó này
[343.475]
<no-speech>
[345.525]
lâu rồi <no-speech> <int>
[347.205]
<no-speech>
[351.245]
số ô tô số dùng mà lâu nay toàn dùng số này mà
[355.405]
<no-speech>
[356.545]
ừ đây à đây không phải <no-speech> đây số ngoài Hà Nội số kết nối là <no-speech> <int>
[362.175]
<no-speech>
[363.135]
<no-speech>
[363.515]
<no-speech>
[364.805]
đợi tí tí nói sau
[368.045]
<no-speech>
[371.625]
không <no-speech> đây là tí tí nói tí nói cái khác
[377.185]
<no-speech>
[380.035]
<sta> để anh lên Face- đọc <no-speech> anh xem nào <no-speech> đọc tên Face- của người yêu chú để anh lên xem nào <no-speech> hay là có thằng kia đúng
[390.165]
<no-speech>
[391.265]
đúng con
[391.955]
<no-speech>
[395.155]
hả
[395.725]
<no-speech>
[398.535]
có phải con hôm trước không
[400.475]
<no-speech>
[402.955]
không chú mẹ mắt chú sao chọn con béo thế
[407.525]
<no-speech>
[411.855]
<sta> <no-speech> vậy thì anh biết sẽ nói chú như thế nào thôi <no-speech> (())
[421.435]
<no-speech>
[423.825]
thà cả lớp không còn gái còn hơn
[427.775]
<no-speech>
[430.455]
<no-speech>
[431.475]
<no-speech>
[434.835]
(())
[440.065]
<no-speech>
[444.945]
<int> con đó nó theo tui mà <no-speech>
[446.755]
<no-speech>
[448.335]
sao không đi ô tô
[449.925]
<no-speech>
[452.085]
ừ đang ra Thường Tín đi lấy kem
[455.005]
<no-speech>
[457.645]
đi lấy kem về để bán kem mà
[460.295]
<no-speech>
[462.485]
ừ
[463.205]
<no-speech>
[464.495]
còn đi rồi đi về xong (())
[469.065]
<no-speech>
[469.865]
tàu qua
[470.795]
<no-speech>
[472.785]
(())
[474.855]
<no-speech>
[478.145]
ừ chú về Thanh Hóa đi anh cho chú một chân phát tờ rơi
[481.815]
<no-speech>
[482.975]
<no-speech>
[483.925]
<no-speech>
[486.335]
cho về tính một ngày đi phát ngày hai trăm
[489.345]
<no-speech>
[494.145]
răng về không
[496.225]
<no-speech>
[500.595]
bao nhiêu phút rồi
[501.665]
<no-speech>
[503.305]
bao nhiêu phút rồi
[504.335]
<no-speech>
[506.745]
<no-speech>
[507.275]
<no-speech>
[509.135]
ồ vậy còn bảy phút ngựa thôi à cố mà chém gió đi
[514.965]
<no-speech>
[517.625]
(()) nói chuyện đi
[519.684875]
<no-speech>
[521.185]
<no-speech>
[521.574875]
<no-speech>
[524.105]
(())
[528.835]
<no-speech>
[530.345]
không
[530.905]
<no-speech>
[531.755]
chém gió đi hát cho anh <no-speech> hát cho anh nghe bài nào <laugh>
[535.235]
<no-speech>
[536.715]
<sta> <dtmf> <no-speech> cái gì
[542.415]
<no-speech>
[545.955]
(())
[549.625]
<no-speech>
[552.175]
(())
[558.055]
<no-speech>
[560.415]
đi không
[561.015]
<no-speech>
[563.025]
(())
[563.915]
<no-speech>
[566.295]
<no-speech>
[566.875]
<no-speech>
[568.655]
<no-speech>
[569.045]
<no-speech>
[569.935]
bửa hôm trước à
[570.795]
<no-speech>
[573.315]
(())
[574.255]
<no-speech>
[576.465]
ăn cơm chưa
[577.555]
<no-speech>
[582.165]
<no-speech>
[584.195]
<no-speech>
[585.465]
(())
[586.495]
<no-speech>
[588.225]
(())
[588.905]
<no-speech>
[591.245]
(())
[593.365]
<no-speech>
[598.785]
(())
[599.295]
<no-speech>
[600.1]
