[0.0]
<no-speech>
[4.995]
<no-speech>
[7.965]
<no-speech> a lô anh nghe chưa <no-speech> a lô <no-speech> vâng <no-speech> anh nghe rõ chưa <laugh>
[18.705]
<laugh> anh nghỉ rồi ạ
[23.885]
<no-speech>
[25.305]
<int> ăn tối bây giờ mà bây giờ mới có năm giờ hơn mà
[30.085]
<no-speech>
[31.095]
<int> ờ đúng rồi nhỉ <no-speech> hôm nào dắt xem <no-speech> dạ <no-speech> thế á <laugh>
[43.015]
em
[43.655]
<no-speech>
[44.475]
em tưởng là <no-speech> nó ở trong nhà mà
[48.985]
<no-speech>
[49.795]
à thế à <laugh> vất vả quá đi <laugh>
[55.155]
<no-speech>
[55.985]
<no-speech>
[56.595]
<no-speech>
[57.655]
được rồi bây giờ thì anh đã bị <hes> trả đũa rồi đấy <no-speech> em sẽ về em sẽ về <no-speech> em gọi anh lên gọi anh là em
[64.005]
<no-speech>
[65.655]
<no-speech>
[67.755]
<no-speech>
[70.325]
không hỏi giải thích sau <laugh> mọi việc thuận lợi chứ ạ <no-speech> vâng <no-speech> mọi việc thuận lợi
[80.525]
<no-speech>
[83.475]
năm mươi phần trăm <int> ừ dạ
[89.655]
<no-speech>
[91.385]
ừ thế anh có đi tắm biển không <no-speech> thế á
[98.785]
<no-speech>
[100.005]
<int> ba lít <no-speech> trời ơi chia buồn cùng anh <laugh>
[107.205]
<no-speech>
[108.545]
<no-speech>
[108.935]
<no-speech>
[109.945]
<no-speech>
[110.635]
<no-speech>
[111.705]
thế á <int> <no-speech> ừ à thế à <no-speech> thế à
[119.985]
<no-speech>
[120.865]
tiếc thế <no-speech> ở trong đấy có đẹp không hả anh
[124.545]
<no-speech>
[125.405]
ừ <int>
[131.675]
<no-speech>
[132.565]
<no-speech>
[137.405]
<no-speech>
[138.205]
ừ ừ <no-speech> càng ngày đen nhẻm
[144.475]
<no-speech>
[145.925]
<no-speech>
[148.455]
<no-speech>
[149.765]
<no-speech>
[150.355]
<no-speech>
[152.775]
à thế á
[153.775]
<no-speech>
[154.755]
<no-speech> nhưng <hes> làm bữa làm bữa họ làm trong đấy ấy ạ <sta> <no-speech> ừ <no-speech> ừ
[165.535]
<no-speech>
[168.135]
<no-speech>
[170.915]
<no-speech>
[171.915]
<no-speech>
[172.725]
<no-speech>
[174.505]
<no-speech> dạ
[177.215]
<no-speech>
[178.065]
<sta> <no-speech> à thế á <no-speech> không phải giúp <no-speech> em tưởng là anh vào đấy <no-speech>
[185.445]
<no-speech>
[187.245]
à <sta> <no-speech> ngồi ngồi trên ô tô khi nào nó tự ngắt thì nó tự ngắt nhé anh không được tắt nhé <no-speech> vâng <no-speech> để tự ngắt thôi
[198.955]
<sta> <no-speech> vâng <no-speech> thế Nguyên <no-speech> vâng thế <hes> hôm qua anh đi tàu anh có ngủ được không
[210.885]
<sta> <no-speech> thế á <no-speech> không được tí nào <no-speech> không được tí nào á
[218.125]
<no-speech>
[219.105]
<no-speech>
[219.735]
<no-speech>
[220.735]
<no-speech>
[221.095]
<no-speech>
[222.055]
<no-speech>
[224.715]
<no-speech>
[225.655]
<no-speech> ôi thế á
[228.785]
<no-speech>
[229.755]
<no-speech>
[230.715]
<no-speech>
[231.595]
<no-speech>
[233.915]
<no-speech>
[235.275]
<sta> <no-speech> thế á <no-speech> <breath>
[241.105]
<no-speech>
[242.855]
<no-speech>
[243.475]
<no-speech>
[244.955]
ừ
[246.715]
<no-speech>
[248.765]
<no-speech>
[249.145]
<no-speech>
[250.245]
<sta> ừ ừ <no-speech>
[255.485]
<no-speech>
[256.374875]
<no-speech>
[257.245]
<no-speech>
[258.525]
<no-speech> vâng <no-speech> uầy <laugh>
[264.565]
<no-speech>
[268.545]
<sta> <no-speech> xong ừ <no-speech> xong rồi đế- đến sáng luôn <no-speech>
[274.165]
<no-speech>
[278.015]
<sta> vâng <no-speech>
[279.345]
<no-speech>
[281.445]
<no-speech>
[281.815]
<no-speech>
[282.975]
<no-speech> năm của <cough>
[288.025]
<no-speech>
[289.915]
<no-speech>
[290.545]
<no-speech>
[290.78]
