[0.000]
<no-speech>
[0.125]
<sta> (())
[6.655]
<no-speech>
[7.855]
(())
[8.385]
<no-speech>
[10.345]
<sta> హలో <no-speech>
[11.935]
<no-speech>
[14.025]
<sta> ఆఁ గుడ్ ఈవ్నింగ్ <no-speech> సుహాసిని ఎలా ఉన్నారు
[18.045]
<no-speech>
[19.195]
<sta> ఆఁ బాగున్నా మీరు ఎలా ఉన్నారు <no-speech> మమ్మీ ఆఁ ఆఁ
[27.935]
<no-speech>
[29.425]
<sta> ఆఁ అందరు బాగున్నారు <no-speech>
[33.005]
<no-speech>
[33.875]
<no-speech> <sta> ఏం చేస్తున్నారు <no-speech>
[37.775]
<no-speech>
[40.885]
<no-speech> <sta> అవునా (()) <no-speech>
[44.035]
<sta> టీ తాగినావా <no-speech>
[47.175]
<no-speech>
[48.585]
<no-speech> <sta> ఆఁ ఆఁ <no-speech>
[51.305]
<no-speech>
[52.975]
<sta> చికెన్ వండుకున్నాము
[54.735]
<no-speech>
[56.565]
<sta> ఆఁ <no-speech> ఆఁ అంతే మీరేం స్పెషల్
[61.585]
<no-speech>
[64.175]
<sta> ఆఁ
[64.605]
<no-speech>
[65.455]
ఓహో
[66.355]
<no-speech>
[67.775]
<sta> ఓహో అదే మీరు మాలాంటి బ్రెయిన్ తినటానికే ఉంటారు కదా
[72.435]
<no-speech>
[75.865]
<sta> అదే <no-speech> కొంతమంది జీవితాలు అందుకే రాసి ఉంటాయి
[80.495]
<no-speech>
[82.075]
<no-speech> <sta> అవును
[88.735]
<no-speech>
[91.165]
(())
[91.705]
<no-speech>
[92.685]
<no-speech> <sta> అవును మొన్ననే అయింది పెళ్ళి ఫిక్స్ దానికి
[97.005]
<no-speech>
[99.485]
<sta> ఆఁ బాగున్నాడు <no-speech> చాలా <no-speech> (())
[107.915]
<no-speech>
[109.145]
<sta> అవును
[110.655]
<no-speech>
[112.645]
<sta> ఆయన వండి పెడతే తింటాం (())
[117.205]
<no-speech>
[119.955]
<sta> ఆఁ సరి <no-speech> ఊఁ
[123.235]
<no-speech>
[124.725]
<sta> ఆఁ ఏం (()) <no-speech> ఊఁ
[133.965]
<no-speech>
[135.995]
<no-speech> <sta> ఏంటి <no-speech>
[138.865]
<no-speech>
[139.725]
<no-speech> <sta> ఆఁ సరే
[142.535]
<no-speech>
[145.735]
<no-speech> <sta> ఆఁ సరే <no-speech>
[148.855]
<no-speech>
[151.185]
<sta> ఆఁ ఏమో తెలియదు ఇంకా ఇంకా టైం పడతాది షాపింగ్‌కు
[156.485]
<no-speech>
[157.895]
<sta> ఆఁ ఇంకా ఇచ్చేసా (()) మీరు చెప్పినా రావాలి కంపల్సరీగా
[163.975]
<no-speech>
[167.275]
<no-speech> ఆఁ
[168.775]
<no-speech>
[169.955]
<no-speech> <sta> (()) <no-speech>
[173.645]
<sta> ఆఁ ఆఁ <no-speech>
[175.425]
<no-speech>
[176.875]
<sta> రీసెంట్ అసలు నేను మూవీకే వెళ్ళేంత టైం ఎక్కడుంది జాబ్ (()) మూవీ చూసే అంత టైం లేదు
[185.805]
<no-speech>
[187.575]
<sta> ఆఁ <no-speech>
[189.805]
<no-speech>
[192.195]
<no-speech> <sta> అవును <no-speech>
[197.405]
<no-speech>
[198.495]
<sta> ఆఁ ఆఁ <no-speech> ఇంకా ఏం కొనలేదు <no-speech> (()) ఇంకా స్టార్టింగ్ చెయ్యలేదు షాపింగ్ అది
[210.365]
<sta> అవన్ని ఇంకా మంచి రోజు చూసి స్టార్ట్ చెయ్యాలి
[213.285]
<no-speech>
[213.340]
