[0.000]
నించుంది వేసినా
[0.775]
<no-speech>
[1.775]
హలో <int> వినపడుతుందా
[4.225]
<no-speech>
[5.065]
<no-speech>
[5.445]
<no-speech>
[6.615]
ఎక్కడున్నావు <no-speech>
[8.085]
<no-speech>
[9.255]
<no-speech> <sta> ఇంట్లో ఉన్నావా <breath> ఓకే ఏమి చేస్తున్నావు నేను ఆఫీసు దగ్గరున్నా ఆఫీసు దగ్గరున్నా నేను ఆఫీసులో <no-speech> ఆఁ (())
[20.955]
పనికివాచ్చినరా పనికొచ్చి ఇక్కడ ఆఫీస్‌లోనే కూర్చున్నా
[23.635]
<no-speech>
[25.705]
ఆఁ రేపు భాయి
[27.905]
<no-speech>
[29.275]
ఆ వెళ్తున్నా వెళ్తున్నా పనిలోనే ఉన్నా ఇప్పుడు <sta> పని కాడనే ఉన్నా ఇప్పుడు హలో
[37.325]
<no-speech>
[38.165]
వెళ్ళినారా పని కదనే ఉన్నా
[39.765]
<no-speech>
[41.555]
<sta> <lipsmack> ఊఁ <no-speech> ఆఁ అప్పుడు మధ్యాహ్నం లంచ్ అయిపొయింది హలో వినపడుతుందా
[49.445]
<no-speech>
[50.245]
భాయ్ మూవీయా రేపా <int> యమ్మ సాంగ్స్ ఐతే బాగున్నాయి మళ్ళా రేపు ఎన్నింటికి వెళ్ళాలి
[56.615]
<no-speech>
[63.285]
రేపు ఈవెనింగా
[64.265]
<no-speech>
[65.145]
<int> ఓకే వెళ్దాం కాని ఆ ఓకే వెళ్దాం ఈవెనింగ్ వెళ్దాం కాని ఎక్కడ
[69.425]
<no-speech>
[70.585]
<no-speech> ఎక్కడ ఏ దియేటర్‌కి వెళ్దాం
[73.235]
<no-speech>
[74.185]
ఉమ్
[74.845]
<no-speech>
[76.225]
ఎక్కడికి వెళ్దాం ఎక్కడికి వేల్దామో చెప్పు
[78.555]
<no-speech>
[80.315]
<no-speech> <sta> ఆ
[82.055]
<no-speech>
[83.015]
ఆఁ ఓకే <int> రేపు ఈవెనింగ్ ఫస్ట్ షో కదా ఊఁ రేపు ఈవెనింగ్ కదా
[87.055]
<no-speech>
[88.505]
<breath> రేపు ఈవెనింగ్ వెళ్దాం కదా
[90.275]
<no-speech>
[93.325]
ఓకే ఇంటికాడ ఏం చేస్తున్నావు ఆఁ మధ్యాహ్నం తిన్నా కాని ఇంటికాడ ఏం చేస్తున్నావు
[97.975]
<no-speech>
[99.435]
<no-speech>
[99.795]
<no-speech>
[100.885]
గేమ్స్ ఆడుకుంటూ కూర్చున్నా
[102.145]
<no-speech>
[104.015]
అవునా సరేలే మనోజ్‌గాడు వచ్చిండా ఆఫీసు నుంచి
[108.185]
<no-speech>
[111.955]
ఇంకా రాలేడా
[113.885]
<no-speech>
[117.455]
అవునా ఇందాకా నాకు కాల్ చేసిండు వస్తున్నాడంట బయలుదేరిండంట ఆఫీసుకాడ నుంచి ఇంటికొస్తున్నాడంట వాడు
[122.505]
<no-speech>
[125.065]
(()) నువ్వు తిన్నావా లేదా మధ్యాహ్నం
[126.695]
<no-speech>
[129.505]
తిన్నావా
[130.205]
<no-speech>
[132.335]
ఇంకేం చేయలే నాకు నాకు హరీష్‌గాడు అయితే కాల్ చేయలేదు నేనే వాడికి చెయ్యాలి చేసేమో అడగాలి ఏం అయింది ఏం అన్నట్టు
[139.725]
<no-speech>
[140.825]
వాడు ఏమంటే (()) డబ్బులు ప్రాబ్లం ఉన్నాయిరా బే వెళ్దామా వద్దా అని అలోచిస్తుండు
[144.845]
<no-speech>
[145.655]
<no-speech> పైసలు ప్రాబ్లం ఉంటే నేను అన్నా <breath> మేము అన్నాము అరే నేను పెట్టుకుంటా రారా అందు- అందులో ఏం లేదు నేను పెట్టుకుంటా వచ్చేయి సినిమాకి అన్నా
[154.765]
<no-speech>
[156.865]
ఆఁ అంటే వస్తావా మరి రేపు వెళ్దాము వస్తే వెళ్దాం బాయ్ మూవీకి అంటే <int> ఆఁ వెళ్దాం రేపు వస్తా ఈశ్వర్‌లో అని చెప్పా
[162.245]
<no-speech>
[164.265]
<breath> రేపు ఐతే వస్తారు కదా వినోద్‌గాడు అయితే వస్తుండుగా
[166.675]
<no-speech>
[170.655]
ఆ కాదు రేపు సినిమాకయితే వస్తాడు కదా
[172.525]
<no-speech>
[174.725]
<no-speech> <sta> ఆఁ
[176.485]
<no-speech>
[177.675]
ఊఁ <lipsmack> పిలువు సుదర్శన్‌గాడిని అందరం కలిసి వెళ్ళేసి వద్దాం
[180.055]
<no-speech>
[181.325]
అందరు కలిసే వెళ్ళేసి వద్దాంరా
[182.895]
<no-speech>
[186.505]
ఇంకేంటి ఏం చేస్తున్నావు
[187.755]
<no-speech>
[190.235]
ఇప్పుడు నాకు ఇంటికి వెళ్ళడానికి ఒక హాఫ్ ఆన్ అవర్ పడతాది హాఫ్ ఆన్ అవర్ అయితాది
[193.415]
<no-speech>
[194.445]
హాఫ్ ఆన్ అవర్ అవుతాది ఇంటికి వెళ్ళడానికి ఆఁ
[196.785]
<no-speech>
[197.835]
ఇంటికొచ్చేసి మీ ఇంటికొచ్చేస్త డైరెక్ట్
[200.125]
<no-speech>
[202.775]
ఎందుకంటే మళ్ళా అక్కడ రేషన్ దుకాణంకి వెళ్ళాలి కదా అందుకని
[205.375]
<no-speech>
[208.185]
సరేనా ఇంకేంది <no-speech> హరీష్‌గాడు నీకు ఏమైనా కాల్ చేసిండా
[212.965]
<no-speech>
[214.995]
హరీష్‌గాడు నీకు ఏమైనా కాల్ చేసాడా హరీష్‌గాడు
[218.365]
<no-speech>
[220.495]
ఇంకా చేయలేదా ఏమి
[221.795]
<no-speech>
[222.785]
<int> సిద్దుగాడు వచ్చి వుండింటే సిద్దుగాడు వచ్చిండే (()) పొద్దునే కాల్ చేసిండు సిద్దుగాడు ఫోన్ చేసి అరేయ్ పాండుగాడి ఇంటికి వెళ్తున్నా *అన్నాడు*
[230.995]
<no-speech>
[232.815]
<sta> రాలేడా
[235.835]
<no-speech>
[237.375]
ఊఁ <sta> కాని నాతో అదే అన్నాడు ఎగ్జామ్స్ ఎప్పుడు నుంచిరా సిద్దు అంటే ఇంకా మా కాలేజ్‌లో డేట్ ఏమి ఇవ్వలేడు దివాళీ తరువాత ఎగ్జామ్స్ డేట్ వస్తున్నాయి అని చెప్పిండు
[245.975]
అదే అన్నా అరె అన్ని కాలేజీల్లో ఎగ్జామ్స్ కూడా అయిపోతున్నాయా మీ కాలేజీలో ఎందుకు ఇంకా ఇవ్వలేదురా అంటే ఏమో ఏమో అర్ధమయితాలే ఇప్పుడైతే హాలిడేస్ ఇచ్చారు దీవాలీ తరువాత ఎగ్జామ్స్ డేట్ ఇస్తారు అని చెప్పిండు
[255.845]
<no-speech>
[258.035]
ఆ
[258.675]
<no-speech>
[260.215]
నేను అన్నా <no-speech> మొన్న ఎగ్జామ్ ఫీజు కట్టినావ నువ్వు (()) కట్టినా ఎగ్జామ్ ఫీజు
[268.075]
<no-speech>
[269.325]
ఫైన్ తోటా
[270.225]
<no-speech>
[271.545]
అవునా <int> టూ ఫిఫ్టీ రూపీస్
[274.235]
<no-speech>
[275.185]
ఓకే మరి నీకు ఎప్పటి నుంచి ఎగ్జామ్స్ <no-speech>
[278.115]
<no-speech>
[286.325]
ట్వంటీ సెవనా
[287.325]
<no-speech>
[288.225]
ట్వంటీ సెవెన్ నుంచా ఎగ్జామ్స్
[289.625]
<no-speech>
[291.755]
ఆ
[292.465]
<no-speech>
[295.855]
ట్వంటీ సెవనా
[296.845]
<no-speech>
[297.745]
ఓకే మీ తమ్ముడు వెళ్తుండా స్కూలుకి
[299.415]
<no-speech>
[303.555]
ఓకే ఇప్పుడు టెన్త్ <int>
[305.405]
<no-speech>
[307.985]
అవునా
[308.715]
<no-speech>
[309.625]
ఓకే ఇక స్కూల్ నుంచి వచ్చేడుగా ఇప్పుడైతే
[311.575]
<no-speech>
[316.535]
<no-speech>
[317.015]
<no-speech>
[318.515]
వచ్చి ట్యూషన్‌కి వెళ్దాం ఆఁ
[321.095]
<no-speech>
[324.205]
<no-speech>
[325.515]
<no-speech>
[326.435]
<no-speech>
[327.685]
<no-speech>
[329.435]
ఉమ్
[329.985]
<no-speech>
[331.875]
ఊఁ
[332.475]
<no-speech>
[333.475]
అప్పుడు కలుస్తా అయితే నీకు ఇప్పుడు మీ తమ్ముడు ట్యూషన్‌కి వెళ్ళిపోవాలని మాట ఇప్పుడు
[337.725]
<no-speech>
[338.785]
మీ పవన్‌గాడు ట్యూషణ్‌కి వెళ్ళాలి అనమాట ఇప్పుడు
[340.885]
<no-speech>
[347.285]
నేను ఇక్కడే బేగంపేటలో
[348.905]
<no-speech>
[349.975]
<no-speech>
[350.335]
<no-speech>
[351.795]
ఆ <int> ఇంకేంది
[353.625]
<no-speech>
[355.315]
హలో వినపడుతుందా ఏమయింది కట్- వాయిస్ కట్ అవుతుంది ఎందుకు అట్లా
[358.455]
<no-speech>
[360.985]
వాయిస్ వాయిస్
[362.845]
<no-speech>
[364.565]
అవునా కో- ఓకే ఇంటిలోనించ్చి కొంచెం బయటకిరా
[368.285]
<no-speech>
[372.695]
అవునా
[373.565]
<no-speech>
[374.425]
<breath> ఓకే మళ్ళా ఇంకేంది మళ్ళా రేపు టికెట్స్ నువ్వు తీసుకుని వస్తావా లేదా డైరెక్ట్ వెళ్ళి తీసుకుందామా <no-speech>
[382.385]
<no-speech>
[383.225]
<no-speech> <sta> రేపు డైరెక్ట్ వెళ్ళి టికెట్ తీసుకోవాలా <no-speech> ఓకే మళ్ళా రేపు సుదర్శన్‌గాడికి కూడా చెప్పు రమ్మని మూవీకి
[392.675]
<no-speech>
[394.935]
నువ్వు కాల్ చేసి చెప్పు సుదర్శన్ గానికి
[397.275]
<no-speech>
[398.715]
(()) చెప్పు రారా వెళ్దాంరా అని చెప్పు నువ్వు
[401.735]
<no-speech>
[403.695]
నాకే ఉమ్ నేను చెప్పినా ఐతే వస్తాన్నాడు నువ్వు కూడా ఒక్కసారి కాల్ చేసి చెప్పు సిద్దురా వెళ్దాం మూవీకి అని
[409.455]
<no-speech>
[412.045]
ఓకేనా <no-speech>
[414.205]
<no-speech>
[416.015]
<no-speech>
[417.505]
<no-speech>
[418.495]
<no-speech>
[420.645]
<no-speech>
[427.985]
అవునా <int>
[428.795]
<no-speech>
[430.415]
చెప్పు రేపు మంచి గట్టిగా చెప్పు (()) నువ్వు ఇంటికాడికి వెళ్ళి తీసుకునిరా అట్లాకదురా భై <hes> డ్రెస్ ఇట్లా వేసుకునిరా అని చెప్పు వానికి
[437.955]
<no-speech>
[438.815]
నువ్వు ఇంకా చిన్న పిల్లడులగా టీ షర్టులు నైట్ ఫాంట్లు వేసుకుని రాకని చెప్పు (())
[442.265]
<no-speech>
[444.805]
సరేనా
[445.545]
<no-speech>
[447.385]
చెప్పుతావా లేదా రేపు వెళ్ళి వాని ఇంటికాడికి రేపు మార్నింగ్ వెళ్ళి చెప్పుతావా చెప్పవా
[452.005]
<no-speech>
[458.385]
ఫోన్ చేసి చెప్పుతావా
[459.555]
<no-speech>
[460.835]
చెప్పు ఫోన్ చేసి నేను కూడా రేపు <lipsmack> మా ఫ్రెండ్ లోకి గానిది బండి తీసుకుని వచ్చేస్తా మనం వెళ్ళిపోదాం ఇంటికాడ నుంచి నువ్వు నేను వెళ్దామా లేకుంటే నువ్వు నేను సిద్దుగాడు వెళ్దాం వినోద్‌గాడు హరీష్‌గాడు (()) ఆఫీసు నుంచి వచ్చేస్తాడు డైరెక్ట్
[472.765]
<no-speech>
[475.315]
ఓకేనా
[476.105]
<no-speech>
[478.965]
ఇంకా
[479.755]
<no-speech>
[483.625]
ఆ ఆ ఇప్పుదోచ్చేస్తా నువ్వు కేసింగా లైన్
[487.575]
<no-speech>
[489.835]
ఉమ్ ఏదోకటి సిమ్ ఇస్తే చాలుగా
[493.165]
<no-speech>
[495.905]
సరే *నేను* <laugh> సరే ఉమ్ సరే ఇప్పుడే నిన్న రెండు సిమ్‌లు తీసుకున్నా డోకోమో ఇస్తా ఒకటి దానిలో
[504.215]
<no-speech>
[505.385]
ఉమ్
[506.185]
<no-speech>
[507.255]
అవును చేసుకున్నా
[508.295]
<no-speech>
[509.875]
రెండు డోకోమో సిమ్‌లు తీసుకున్నా <hes> అది ఉట్టినే ఫ్రీ సిమ్ ఫ్రీగా ఇచ్చేరు ఆఁ ఫ్రీ సిమ్‌రా
[518.975]
<no-speech>
[520.165]
హలో ఉమ్
[521.685]
<no-speech>
[522.925]
అవును థర్టీ థర్టీ రూపీస్ మెయిన్ బ్యాలెన్స్ వస్తాది థర్టీ
[526.805]
<no-speech>
[528.195]
ముప్పై రూపాయలు వస్తాది ఆ
[529.805]
<no-speech>
[530.835]
హండ్రెడ్ యమ్_బి నెట్
[531.995]
<no-speech>
[534.945]
హండ్రెడ్ యమ్_బి నెట్ బ్యాలెన్స్ వస్తాది ముప్పై రూపాయలు మెయిన్ బ్యాలెన్స్ వస్తాది
[537.665]
<no-speech>
[541.005]
హలో
[541.675]
<no-speech>
[542.815]
నీకు వచ్చి ఇచ్చేస్తా ఇప్పుడు ఒక సిమ్ అది
[544.645]
<no-speech>
[546.505]
నీకు ఇప్పుడు ఇంటికాడికి వచ్చి ఒక సిమ్ ఇస్తా తీసుకో నువ్వు సరేనా నువ్వు బయట ఏమి కొనుకోకు
[550.735]
<no-speech>
[551.645]
వచ్చిండా ఆడు ఆఁ ఓకే వానికి ఏమి ఫోన్ ఇయ్యకు నువ్వే మాట్లాడు ఓకే వానికి ఏమి ఫోన్ ఇయ్యకు నువ్వే మాట్లాడు
[559.015]
<no-speech>
[560.825]
సరేనా
[561.825]
<no-speech>
[562.635]
మళ్ళా వాడొచ్చి ఏదోక సోది పెదతుంటాడు
[564.765]
<no-speech>
[566.955]
హలో
[567.655]
<no-speech>
[569.905]
ఆఁ ఓకే నేను వచ్చి ఈవెనింగ్ వచ్చి సిమ్ ఇచ్చేస్తా ఒకసారి వినోద్ గాడికి గిట్టా కాల్ చేస్తే చెప్పు నాకు రానీయకు <hes> వన్ అవ్వ వన్ అవ్వ వన్ అవర్ లేట్ అయితాదని ఆఫీసు నుంచి అని చెప్పేసేయ్
[579.275]
వినోద్ గానికి ఇంకేం చెప్పేలే నేనేమో మూవీకి వెళ్దామని ఏం చెప్పలేను నువ్వురాంగానే చెప్పు అరె ఇట్లా సిరి గాడు కాల్ చేసి చెప్పిండు రేపు వెళ్దామని రెడిగా ఉండు రేపు ఆఫీసు నుంచి తొందరగా రమ్మని వానికి కూడా చెప్పు రేపు
[588.485]
<no-speech>
[589.435]
మళ్ళీ లేట్ అయితే ప్రాబ్లం అవుతాది మనకే
[591.355]
<no-speech>
[593.375]
సరేనా
[594.165]
<no-speech>
[596.465]
వచ్చుంటాడు ఇప్పుడు ఆన్ ది వే
[598.055]
<no-speech>
[599.645]
<no-speech>
[602.025]
<no-speech>
[603.125]
<no-speech>
[603.345]
<no-speech>
[603.485]
