[0.000]
<no-speech>
[7.075]
<no-speech>
[7.475]
<no-speech>
[17.180]
<no-speech>
[26.885]
ఆఁ హలో
[27.695]
<no-speech>
[30.515]
ఆఁ చెప్పు ఏం చేస్తున్నాడు
[32.245]
<no-speech>
[37.855]
ఏం చేస్తాలేదు పండుగాన్ని ఇప్పుడే పండుకోపెట్టినా
[40.475]
<no-speech>
[43.425]
ఆఁ స్నానం అయిపోయింది (()) అయింది సతాయించుతున్నాడు బాగా
[47.075]
<no-speech>
[50.215]
<int> ఆఁ
[50.975]
<no-speech>
[53.905]
ఆఁ ఉన్నాడు ఇంట్లోనే ఇదిగో ఇప్పుడే వంట అయిపోయింది
[56.225]
<no-speech>
[57.275]
<no-speech>
[57.625]
<no-speech>
[59.055]
ఆఁ వంట అయిపోయింది తిన్నారా మీరు
[60.805]
<no-speech>
[68.395]
ఆఁ డ్యాడీ పోయిండా
[69.755]
<no-speech>
[72.755]
<sta> (()) పెళ్ళి షాపింగ్ ఎంత వరకు వచ్చింది
[75.465]
<no-speech>
[81.575]
(())
[82.635]
<no-speech>
[86.435]
రేపు మాట్లాడేకి వస్తాన్నారా <no-speech>
[88.825]
<no-speech>
[90.655]
ఆఁహా (()) వాళ్ళు కూడా వస్తాన్నారా (()) మనమేనా వెళ్ళడం
[93.885]
<no-speech>
[99.235]
(())
[100.575]
<no-speech>
[103.845]
<sta> అదే షాపింగ్‌కి (())
[106.395]
<no-speech>
[109.495]
హలో
[110.105]
<no-speech>
[112.545]
ఆ షాపింగ్‌కి ఎవరెవరు వెళ్తున్నారు
[114.235]
<no-speech>
[120.595]
(()) సికింద్రాబాద్‌లో మంచిగానే ఉంటాయి కదా
[122.515]
<no-speech>
[124.375]
సికింద్రాబాద్‌లో <int> మంచిగానే ఉంటాయి కదా శారీస్
[126.305]
<no-speech>
[130.575]
ఆఁహా అక్కడ కూడా బాగానే ఉంటాయంట చాలా మంది <int> అన్నారు
[133.065]
<no-speech>
[134.035]
<no-speech>
[134.435]
<no-speech>
[139.485]
(()) దగ్గర బాగుంటాయంట (())
[141.305]
<no-speech>
[149.115]
ఆఁ ఆఁ
[150.065]
<no-speech>
[151.295]
(()) మొత్తం ఎన్ని శారీస్ తెప్పిస్తారంట
[154.915]
<no-speech>
[160.225]
(()) అనుకొంటా <no-speech>
[162.885]
<no-speech>
[164.155]
ఆఁ ఫైన్ సిక్స్ పడతాయి శారీస్ మొత్తం
[166.315]
<no-speech>
[173.335]
ఆఁ (()) ఇక ఖచ్చితంగా తీసుకొస్తా
[175.815]
<no-speech>
[177.695]
హసీనా అక్కను తీసుకెళ్తున్నారా
[179.245]
<no-speech>
[185.065]
అవునవును
[186.065]
<no-speech>
[187.485]
*సంపత్‌నా* <int>
[188.505]
<no-speech>
[190.225]
<int> అమ్మ వచ్చిందా ఇంటికి
[191.685]
<no-speech>
[198.665]
(())
[200.615]
(())
[204.945]
ఎక్కడ చేసుకొంది ఇప్పుడు
[206.335]
<no-speech>
[212.725]
ఆఁహా ఎంతంట శాలరీ దాంట్లో
[214.585]
<no-speech>
[220.345]
ఆఁ వాడే (()) శాలరీ గురించి కాని హేమ చెప్పింది (()) తగ్గిందా
[225.385]
<no-speech>
[232.155]
<no-speech>
[232.525]
<no-speech>
[233.565]
రెండు (()) సెట్ (()) సెట్ కాదేమో అంటానా మొన్న చేసినావా
[236.565]
<no-speech>
[240.765]
ఆఁహా మళ్ళీ సెట్ చేసి <no-speech>
[248.905]
<sta> (())
[250.845]
<no-speech>
[252.495]
స్వప్నక్క ఫోన్ నిన్న స్వప్నక్క ఫోన్ చేసింది <no-speech> ఆఁ చేసింది
[258.205]
<no-speech>
[260.235]
ఉత్తిగానే ఏం చేస్తోందో ఎట్లున్నాదో <int> అని నీకు చేసిందా నీకు చేస్తానన్నది నీకు చేసిందా నీకు ఫోన్
[264.685]
<no-speech>
[271.275]
అవును (()) చేసి మాట్లాడింది బాగానే <no-speech>
[274.575]
<no-speech>
[279.105]
<int> (()) ఫైవ్ డేస్ ముందే పంపిస్తానని చెప్పిండు
[283.645]
<no-speech>
[286.125]
<no-speech>
[286.535]
<no-speech>
[287.375]
ఆఁ <int> (()) *పంపిస్తాండంట* దాన్ని ఒక్కదాన్ని
[289.635]
<no-speech>
[294.435]
<sta> (()) రాలేదు కదా (()) అక్క ఒకేసారి వస్తారు అని చెప్పిండు <no-speech>
[299.335]
<no-speech>
[302.965]
<int> ఆఁ
[303.485]
<no-speech>
[308.125]
ఆఁ అంతే దానికేమౌ పిల్లొళ్ళ పిచ్చి (())
[310.585]
<no-speech>
[313.015]
నిన్న పూజ అక్క వచ్చినప్పుడు చెప్తి ఇక పూజ ఉంది కదా వెన్స్‌డే
[315.745]
<no-speech>
[319.985]
ఆఁ అదే (()) అదే రోజు లాస్ట్ అంటానా పూజ చేపీయటం వానికి
[323.575]
<no-speech>
[329.295]
(()) ఇంకా మళ్ళీ ఏ మంట్‌లి అవుతాయో ఏమో తెలవదు ఇక అది
[332.405]
<no-speech>
[333.235]
<no-speech>
[333.655]
<no-speech>
[336.385]
<int> మమ్మీ కాలు తగ్గిందా
[338.155]
<no-speech>
[343.245]
(()) తీయంచుకోమన్నానుగా <int>
[345.215]
<no-speech>
[352.085]
చూపించుకుందో లేదో (()) చేంజ్ చేసుకోమని చెప్పేదుండే మమ్మీకి మళ్ళీ (())
[357.325]
<no-speech>
[360.225]
అవును
[361.015]
<no-speech>
[365.905]
<int> నాకు (()) కాని మ్యారేజ్ టైంలో వస్తే మమ్మీకే ప్రాబ్లమ్ కదా అని
[369.265]
<no-speech>
[372.515]
ఆఁ చిన్ను పోయిండా స్కూల్‌కి
[374.195]
<no-speech> <int> (()) స్కూల్‌కి పోయిండా <int>
[377.565]
<no-speech>
[383.645]
*ఎంత* *వరకు* హాలిడేస్ ఫెస్టివల్‌వి
[385.355]
<no-speech>
[387.315]
ఫెస్టివల్‌వి ఎప్పుడంట హాలిడేస్ చిన్ను వాళ్ళకి
[389.335]
<no-speech>
[395.755]
(())
[397.335]
<no-speech>
[399.585]
(())
[400.385]
<no-speech>
[405.065]
ఆఁ (()) రాత్రంతా ఫుల్ (()) ఏడుస్తున్నాడు (()) అయింది
[410.905]
<no-speech>
[413.005]
(())
[414.035]
<no-speech>
[415.025]
(())
[416.425]
<no-speech>
[418.025]
ఆఁ ముందు బాగా వంట (()) వాడు
[420.425]
<no-speech>
[424.035]
(()) ఒక ఫైవ్ మంత్స్ అయితే మంచిగా ఉంటాదేమో చూడాలిక
[427.095]
<no-speech>
[431.295]
<no-speech>
[431.675]
<no-speech>
[433.195]
ఏమో ఫైవ్ మంత్స్ తర్వాత అనుకొంటున్నాం వస్తున్నాయి హెయిర్స్ వచ్చినాయి
[436.565]
<no-speech>
[440.665]
అదే ఫైవ్ మంత్స్ తర్వాత ఫైవ్ మంత్స్ అనుకొంటా మాకు తెలవదు
[444.005]
<no-speech>
[447.465]
ఆఁ అది (()) చూడాలిక ఎట్లా అయితాదో <no-speech>
[451.685]
<no-speech>
[454.435]
(()) ఇప్పుడు వెంట్రుకలు అప్పుడు అప్పుడంత లేవు ఇప్పుడు వచ్చినాయి వెంట్రుకలు బాగానే వెనకాల వచ్చినాయి
[459.355]
<no-speech>
[460.155]
<int> (())
[462.565]
<no-speech>
[464.245]
వెన్స్‌డే రోజు వస్తాం
[465.385]
<no-speech>
[468.305]
ఆఁ
[468.895]
<no-speech>
[471.235]
(())
[472.375]
<no-speech>
[475.515]
(()) ఇదిగో మామయ్య దాంట్లో వేకెన్సీస్ ఉన్నాయంట చూస్తుంది చూస్కుంటుంది దాంట్లోనే
[480.195]
<no-speech>
[483.415]
<int> (())
[485.515]
<no-speech>
[488.675]
ఆఁ ఈ వన్ మంత్ ఇందులోనే ఉండమన్నా ఇక
[490.335]
<no-speech>
[493.515]
ఆఁ (())
[496.655]
<no-speech>
[497.655]
<no-speech>
[498.005]
<no-speech>
[499.715]
ఆఁ (()) నెక్ట్స్ మంత్ నుంచి వెళ్ళమని చెప్పినా (())
[503.135]
<no-speech>
[506.005]
<int> (())
[508.085]
<no-speech>
[509.875]
ఎవరు నేనా
[510.895]
<no-speech>
[512.015]
(())
[512.475]
<no-speech>
[516.795]
ఏంటది <int>
[517.745]
<no-speech>
[521.505]
ఆఁ ఆఁ
[522.445]
<no-speech>
[527.565]
(()) ఎంత పడిందంట
[528.995]
<no-speech>
[536.255]
అవునా నేను మమ్మీకి ఎంత ఇవ్వమని చెప్పితో తెలుసా టూ ఫైవ్ ఇవ్వమని చెప్పినా (()) నేను దాంట్లో తీసుకొంటా అని చెప్పినా మమ్మీకి <no-speech>
[543.755]
<no-speech>
[545.295]
టూ ఫైవ్ ఇవ్వమని చెప్పినా <no-speech> నాకు ఒక్క దానికే
[551.595]
<no-speech>
[556.195]
ఆఁ (()) చెప్పు
[558.775]
<no-speech>
[560.675]
<sta> (()) <no-speech>
[565.755]
<no-speech>
[570.455]
లేదు (()) దానికి కూడా తౌజండ్ రూపీస్ <no-speech> <hes> వచ్చినాక చెప్తా దానికి ఎంత పైసలు అని <no-speech>
[581.995]
<no-speech>
[582.875]
ఆఁ
[583.675]
<no-speech>
[586.785]
చూడాలి మరి ఎప్పుడు కుదురుతాదో అప్పుడు మేము వెళ్ళినప్పుడు (()) అమ్మ అన్నది మేము వెళ్తాం కదా మేమే తీసుకొంటాం అని చెప్పింది మొన్న
[592.635]
<no-speech>
[597.325]
(())
[598.065]
(())
[599.620]
