[0.000]
<no-speech>
[8.162]
<no-speech>
[16.325]
<no-speech>
[17.265]
<no-speech>
[18.095]
<no-speech> <int> హలో
[19.055]
<no-speech>
[20.365]
హలో
[21.005]
<no-speech>
[21.855]
ఆ నేను మాట్లాడుతున్న ఆ ఏమి చేస్తున్నావు
[25.185]
<no-speech>
[26.565]
<sta> ఏ ఆ ఆ అవునా అన్నం తిన్నారా
[33.695]
<no-speech>
[35.235]
<no-speech>
[36.735]
<no-speech>
[37.635]
<no-speech> <sta> ఆఁ ఇంకేమి చేస్తున్నావు నువ్వు తిన్నావా <no-speech> హలో ఊఁ ఆఁ చెప్పు <no-speech>
[48.705]
<no-speech> <sta> మరి తిను మరి అన్నం
[51.925]
<no-speech>
[53.015]
<sta> ఎందుకు <no-speech> అవునా ఊఁ డ్యాడీకి చెప్పినావా <no-speech> ఊఁ
[64.965]
<sta> ఇంకా
[66.015]
<no-speech>
[67.015]
<no-speech> హలో ఊఁ ఆఁ చెప్పు చెప్పు <no-speech> హలో <no-speech>
[77.595]
ఆఁ ఇక్కడ ఫోన్ మాట్లాడుతున్నా <no-speech> అదే ఇక్కడ నేను చెప్పినా కదా ఊఁ <no-speech> మరి అన్నం ఎప్పుడు తింటావు మరి
[88.755]
<no-speech>
[90.465]
<no-speech> <int> ఉమ్ నేను కాఫీ తగిన ఇప్పుడే
[94.095]
<no-speech>
[95.115]
ఊఁ ఇంకా ఆఁ అయిపోతాది ఒక హాఫ్ ఆన్ అవర్ (()) <no-speech> ఊఁ ఊఁ పెట్టేయకు ఇప్పుడే ఆఁ చెప్పు ఇంకా
[107.075]
<no-speech> <sta> ఆ సరే ఇంకేమైనా మాట్లాడు
[111.605]
<no-speech>
[113.095]
<sta> ఆ ఫోన్ మాట్లాడుతున్న ఉమ్
[120.375]
<no-speech>
[121.495]
<sta> ఆఁ రీడింగ్ అవుతుంది టెన్ మినిట్స్ ఊఁ ఇంకా <no-speech> నేను ఇక్కడ గంగ ఆంటీ
[132.305]
జయ ఆంటీ వాళ్ళందరూ ఉన్నారు <no-speech> ఊఁ ఊఁ మీనా ఆంటీ ఊఁ మీ ఫ్రెండ్ వచ్చిందా <no-speech>
[144.265]
<no-speech> ఉమ్ ఎప్పుడు పోదాంమరి ఎప్పుడు పోదాం
[152.555]
<no-speech>
[153.385]
<no-speech>
[153.745]
<no-speech>
[154.795]
<no-speech> ట్యూషన్‌కి వెళ్ళి వాళ్ళు ఎప్పుడు వస్తారు <no-speech> <sta> ఊఁ పక్కన ఎవరు మాట్లాడేది <no-speech>
[166.655]
ఆఁ సరే మరి ఎన్నింటికి వెళ్దాం <no-speech> ఊఁ రెడీ అయినావా మరి *సర్దుకున్నావా* అన్ని <no-speech>
[177.925]
ఊఁ నా- <no-speech> అదే చూడు మరి ఏదన్నా పెట్టు ఊఁ ఊఁ అది పాలు వేడి చేస్తావా <no-speech>
[189.525]
హలో <no-speech> <sta> వేడి చేసిపెట్టు ఊఁ హలో ఎప్పుడు చేసినావ్ ఆఁ ఎప్పుడు చేసినావ్ <no-speech>
[201.225]
<no-speech> <sta> ఆఁ వేడి చేసి పె- ఆఁ వేడి చేసిపెట్టు <no-speech> అదే సన్నీకి అందులో చపాతి ఉంది తినమంటావా
[213.165]
<no-speech> <sta> అన్నం తినకపోతే <no-speech> కూర ఉంది కదా <no-speech> సెనగపప్పు టమాటా ఆఁ వాడికి పెట్టు తినడానికి
[224.825]
<no-speech> ఊఁ ఇంకా చెప్పు ఏదైనా ఇంకా ఏదైనా చెప్పు <no-speech> ఆఁ అయిపోయింది <no-speech>
[236.665]
ఆఁ ఇంకా నువ్వు ఏం తిన్నావు మరి ఏం వేసుకుని తిన్నావు <no-speech> హలో బ- <no-speech>
[244.825]
<no-speech>
[246.145]
ఆఁ మంచిగా అయినాయా అవి <no-speech> <sta> మరి నువ్వు తిను మరి లేట్ అవుతాదా <no-speech>
[257.535]
ఏం సినిమా చూస్తున్నావ్ <no-speech> <sta> అవునా ఎప్పుడు స్టార్ట్ అయింది <no-speech> అవునా ఊఁ
[269.495]
<no-speech> <int> ఇంకా చెప్పు హలో <no-speech> ఎవరది <no-speech>
[281.355]
<no-speech> అవునా ఏ- ఎక్కడ నుంచి వచ్చింది <no-speech> ఆఁ ఆఁ టోకన్స్ వచ్చినాయా
[292.345]
గిఫ్ట్ వచ్చిందా గిఫ్ట్ వచ్చిందా <no-speech> <sta> ఆఁ అదే తెలుసు కట్టమన్నాడా తీసుకున్నావా మరి <no-speech>
[304.155]
<no-speech> ఆఁ <no-speech> అవునా ఏం వచ్చింది ఏం పార్సిల్ <no-speech>
[316.055]
<no-speech> <sta> అవునా వట్టి స్లిప్స్ ఇచ్చిండా <no-speech> ఆఁ <no-speech>
[327.185]
<no-speech> <sta> ఆ ఆ అప్పుడు వరకు కట్టమన్నాడు <no-speech>
[339.045]
<no-speech>
[339.625]
<no-speech>
[340.625]
<no-speech> బేగంపేట ఊఁ మళ్ళీ ఎప్పుడు వస్తా అన్నాడు ఆయన <no-speech> ఆఁ ఆఁ <no-speech>
[352.585]
ఆయనా వచ్చిన అవునా ఊఁ <no-speech> ఇంకా <no-speech> డ్యాడీ పోయిండ్రా <no-speech>
[364.355]
<no-speech> <sta> అవునా ఊఁ ఇంకా పెద్దయ్య ఏం చేస్తుండు <no-speech>
[376.345]
<no-speech> <sta> అయిపోలే <no-speech> ఆఁ ఏంటి <no-speech> ఆఁహా నీకే చేస్తానని చెప్పినాను కదా <no-speech> ఆఁ
[388.275]
ఆఁ ఇంకా అయిపోయిందా పూజ <no-speech> <sta> ఊఁ తినలేదా పెద్దయ్య <no-speech>
[400.245]
ఊఁ నానం- <no-speech> ఊఁ <no-speech> పెట్టిలే మరి <no-speech>
[409.315]
<no-speech>
[410.235]
ఊఁ పడుకుందా నానమ్మ <no-speech> నానమ్మ పడుకుందానే <no-speech>
[418.695]
<no-speech>
[419.645]
ఊఁ ఊఁ సన్నీ ఏం చేస్తుండు
[422.715]
<no-speech>
[423.555]
<no-speech> <sta> మరి అన్న తినడా స్వీట్ తింటున్నాడు <no-speech>
[435.515]
<sta> అవునా ఆఁ <no-speech> మరి నువ్వు తిను మరి <no-speech> ఆఁ ఇంకా చెప్పు <no-speech>
[447.315]
నేనా ఇక్కడ కాఫీ తాగిన <no-speech> <sta> పొద్దున్న చపాతి తిన్నా అయినా ఊఁ ఇంకా <no-speech> సంజు రెడీ అవుతున్నాడా సంజు ఫంక్షన్‌కి
[459.235]
<no-speech> సంజు సంజుకు చెప్పినావా ఉమ్ చెయ్యి మరి ఆ
[470.865]
వాణి అత్తకు చెప్పు లేకపోతే <no-speech> ఊఁ <no-speech> ఊఁ <no-speech> ఇంకా <no-speech> ఊఁ <no-speech>
[482.855]
<no-speech> ఊఁ సరే చెప్పినావు కదా <sta> ఊఁ ఏంలే ఆహా చెప్పినావు కదా అంటున్న <no-speech>
[494.745]
ఊఁ శ్రీదేవి పిన్ని ఉందా ఇంట్లో <no-speech> ఊఁ వంశీ <no-speech> వంశీ వచ్చిండా <no-speech>
[506.365]
<no-speech> రాలేదా ఊఁ సన్నీ రాత్రికి వస్తాడంటావా ఫంక్షన్‌కి <no-speech>
[517.835]
ఫంక్షన్‌కి వస్తాడంటనా రాత్రికి <no-speech> <sta> ఊఁ (()) అక్కడ నుంచి ఆఫీసు నుంచి వస్తానన్నది అక్కడికి
[529.785]
<no-speech> ఊఁ మన ఇద్దరం పోదాములే <no-speech> ఊఁ ఊఁ మళ్ళీ రాత్రి వరకు వచ్చేదాం సరే చూద్దాంలే అక్కడ లేట్ అయితే రేపు పొద్దున్నే వద్దాం
[541.575]
<no-speech> <sta> ఊఁ సరే చూద్దాంలే అన్నం ఐతే ఉంది కదా వాళ్ళకి రాత్రి <no-speech>
[553.125]
ఉమ్ ఉమ్ సరే ఇంకా <no-speech> హలో <int> ఉమ్
[563.025]
ఊఁ (()) వస్తున్నాదా (()) <no-speech> అవునా మీ ఫ్రెండ్స్ అందరు వస్తుండ్రా <no-speech>
[574.575]
<no-speech> అవునా ఊఁ నూరా వస్తుందా <no-speech> ఊఁ ఇంకా
[585.225]
ఎన్నింటికి స్టార్ట్ అవుతాది <sta> <no-speech> అవునా ఉమ్
[595.185]
అంటే అయిపోతాదా తొందరగా ఫంక్షన్ మరి <no-speech> <sta> అవునా అంటే లేడీస్ సెపరేట్ ఉంటాది కదా *ఏదైనా*
[606.995]
<no-speech> <sta> అదే అంటున్న ఉహు ఇంకా వెజ్ ఉంటాంటన
[618.755]
<no-speech>
[624.435]
<no-speech>
[624.445]
