[0.000]
<no-speech>
[0.005]
<no-speech>
[0.395]
<no-speech>
[4.845]
హలో <int> చెప్పండి
[7.035]
<no-speech>
[10.075]
(())
[11.425]
<no-speech>
[12.445]
<no-speech>
[12.815]
<no-speech>
[16.745]
(())
[19.555]
<no-speech>
[20.675]
<sta> (())
[23.245]
<no-speech>
[26.145]
<no-speech>
[27.565]
<no-speech>
[28.675]
ఎక్కడిదాక (()) <int>
[30.135]
<no-speech>
[30.975]
<no-speech>
[31.335]
<no-speech>
[33.555]
భోజనం చేశావా తిన్నావా (()) ఏం తిన్నావు
[36.425]
<no-speech>
[39.735]
(()) చేసినావా <no-speech> నిన్న మిస్ కాల్ చేసినా
[43.025]
<no-speech>
[43.955]
<no-speech>
[44.375]
<no-speech>
[45.355]
(()) అమ్మకి కాల్ చేసినా నిన్న <int>
[49.225]
<no-speech>
[50.865]
ఆ బాబు ఏం చదువుకున్నాడో చెప్పలేదేం నాకు
[53.215]
<no-speech>
[56.105]
ఆ బాబు ఏం చదివిండా చెప్పలేదురా <no-speech>
[59.445]
<no-speech>
[61.975]
నువ్వు చెప్పలేదు కదా అన్న
[65.295]
<no-speech>
[69.465]
<no-speech>
[70.105]
<no-speech>
[72.865]
(())
[73.845]
<no-speech>
[74.995]
<sta> ఇవ్వకపోతే
[77.805]
<no-speech>
[81.525]
బాగానే ఉంది
[82.445]
<no-speech>
[87.375]
ముగ్గు
[88.035]
<no-speech>
[93.885]
ఊఁ <int> ఇంకా
[95.755]
<no-speech>
[98.725]
ఇప్పుడేం చేయమంటావు
[100.005]
<no-speech>
[102.535]
ఊఁ <int>
[103.335]
<no-speech>
[105.795]
(())
[106.505]
<no-speech>
[111.245]
ఓకే
[112.075]
<no-speech>
[114.545]
కరీంనగర్‌కి వెళ్ళిన తర్వాత ఫోన్ చేస్తావా <int>
[118.135]
<no-speech>
[119.925]
హలో
[120.965]
<no-speech>
[123.615]
ఊఁ సరే ఇంకా మీ ఆఫీస్‌లో ఎలా ఉంది <no-speech>
[127.765]
<no-speech>
[131.705]
(())
[132.845]
<no-speech>
[133.725]
<int> చందన హెల్త్ బావుందా చందన హెల్త్ బావుందా
[138.435]
<no-speech>
[141.655]
ఊఁ మళ్ళీ చెకప్‌కి ఎప్పుడు వెళ్తున్నావు
[144.275]
<no-speech>
[149.565]
ఊఁహు
[150.375]
<no-speech>
[155.825]
<int> ఊహు అసలు ప్రాబ్లం ఏంటి
[159.785]
<no-speech>
[165.795]
అవునా ఓకే <sta>
[168.875]
<no-speech>
[169.735]
<no-speech>
[171.815]
<no-speech>
[172.645]
ఇంకా మీ ఫ్రెండ్స్ ఎలా ఉన్నారు
[174.215]
<no-speech>
[176.125]
<int> మీ ఫ్రెండ్స్ ఎలా ఉన్నారు లావణ్య కాల్ చేసిందా ఏమంటుంది
[180.585]
<no-speech>
[185.495]
<sta> ఇప్పుడు
[187.155]
<no-speech>
[190.275]
ట్వల్థ్‌కా ఎంగేజ్‌మెంట్ ఈ ట్వల్థా నెక్ట్స్ మంత్ ట్వల్థా
[193.345]
<no-speech>
[194.465]
<no-speech>
[194.815]
<no-speech>
[197.785]
(()) నేను ఇంటికి వెళ్తా <int> (()) వెళ్తున్నావు <int>
[202.535]
<no-speech>
[205.415]
ఊఁహు పెళ్ళి ఎప్పుడు
[206.925]
<no-speech>
[212.855]
అవునా
[213.595]
<no-speech>
[215.295]
<no-speech>
[216.085]
<no-speech>
[220.005]
ఊఁ ఇంకా <no-speech> (())
[222.695]
<no-speech>
[226.605]
నిన్న నాకు (())
[227.705]
<no-speech>
[228.975]
అయితే ఇప్పుడు (()) హలో ఒక అమ్మాయి వన్ థర్టీ టూ చేసిందంట
[232.905]
<no-speech>
[235.735]
వన్ థర్టీ టూ వన్ త్రీ టూ
[238.235]
<no-speech>
[243.675]
(()) కోచింగ్‌కొచ్చే అమ్మాయి <int>
[247.815]
<no-speech>
[249.955]
(()) కొందరు బాగానే (()) ఉంటారు కదా
[253.485]
<no-speech>
[255.065]
<no-speech>
[255.415]
<no-speech>
[259.605]
ఊఁ (()) <sta> ఉంది ఆమె ఆల్రెడీ వేరే ఎగ్జామ్స్‌కి ఇలా ఇంటర్వ్యుస్‌కి అటెండ్ అవుతుంది కాబట్టి <foreign> రీజన్ చేసే ఉంటుంది ఆమెకు ఒక జనరల్ <foreign>
[271.585]
ఊఁ (()) చదువుకుంది <int> జనరల్ <foreign> మా దగ్గర మా క్లాసులో చెప్పినాయి వచ్చినాయి అవి ఫాలో అయిపోతే సరిపోతుంది ఇంకా కంప్యూటర్స్ వాళ్లకు అంతా వచ్చి- (())
[283.445]
(()) <foreign> అన్నారు <foreign> ఇంగ్లీష్ మీడియం అయితే ఇంకే ప్రాబ్లమే ఉండదు
[287.505]
<no-speech>
[289.815]
ఊఁ <int> (()) అంట అయినా సాటిస్‌ఫాక్షన్ లేదు అంటాడు
[295.555]
<no-speech>
[301.585]
ఊఁ
[302.375]
<no-speech>
[303.235]
ఇంకా ఏమి <no-speech>
[305.085]
<no-speech>
[305.435]
<no-speech>
[306.885]
వాళ్లు ప్రైవేటు కంపెనీస్‌కి ట్రై చేస్తున్నారు మళ్ళీ దీనికి కూడా గూగుల్‌లో వచ్చింది ఆ అమ్మాయికి ఆల్రెడీ
[312.365]
<no-speech>
[315.885]
ఊఁ <int> ఇంకా క్లాస్‌కి వెళ్తే (()) తెలుస్తుంది ఎవరు ఎలా రాసారు
[322.005]
<no-speech>
[323.175]
<no-speech>
[323.535]
<no-speech>
[326.485]
ఊఁ లేదు (()) రేపు చూస్తా ఆఫీస్‌లో టైం (())
[329.845]
<no-speech>
[335.365]
<no-speech>
[335.725]
<no-speech>
[336.585]
ఊఁ ఊఁ <no-speech> ఉందా ఆఁ (())
[339.635]
<no-speech>
[341.225]
<no-speech>
[341.895]
<no-speech>
[342.765]
ఉండదు
[343.695]
<no-speech>
[344.525]
<sta> (())
[353.065]
<no-speech>
[353.965]
<int> ఆఁ నేను <sta> నెక్ట్స్ నెక్ట్స్ వీక్ <no-speech> ఈ మధ్య హాలిడేస్ (()) పండక్కి వచ్చిన
[365.725]
(())
[366.665]
<no-speech>
[369.945]
<int> ఈ మధ్య ఫెస్టివల్స్ ఏం లేవు కదా <int>
[374.265]
<no-speech>
[375.215]
(()) కూడా అయిపోయినాయి ఇంకా ఏం లేవు ఇంకా (()) అంతే <int>
[381.955]
<no-speech>
[383.605]
నెక్ట్స్ మంత్ క్రిస్టమస్‌కే ఉంటాది అంతే ఇంకేం ఫెస్టివల్స్ లేవు కదా
[389.115]
<no-speech>
[390.095]
<no-speech>
[391.045]
<no-speech>
[395.915]
<int> అదేంలేదు ఎందుకంటే ఆల్రెడీ టూ వీక్స్ తీసుకున్నాను కదా ఒకవేళ చేసినా దానికి సరిపోతాయా
[401.205]
<no-speech>
[403.725]
<no-speech>
[404.805]
<no-speech>
[405.605]
<sta> సరే ఇంకా మధ్యాహ్నం లంచ్ ఇంటికెళ్ళిన తరువాతేనా
[416.205]
<no-speech>
[419.615]
<sta> బాగుందా
[423.905]
<no-speech>
[425.195]
<sta> ఆఁ ఇవాళ పేపర్‌లో వంటలు చాలా వెరైటీస్ వచ్చాయా ఆఁ ఆఁ
[434.845]
<no-speech>
[437.845]
<no-speech>
[438.335]
<no-speech>
[439.495]
<sta> ఈనాడు పేపర్‌లో లడ్డు డిఫరెంట్ టైప్‌ఆఫ్ అంటే డిఫరెంట్ లడ్డూసు ఇచ్చారు
[450.895]
(()) లడ్డు బేసిన్ లడ్డు క్యారెట్ లడ్డు అంట <sta>
[458.155]
<no-speech>
[460.145]
<int> ఆఁహా లాస్ట్ టైం (()) ట్రై చేస్తా అన్నావు ట్రై చేసావా
[465.845]
<no-speech>
[468.685]
<sta> (()) ఈ పిల్లకూడ ఏమంతా స్పెషల్ లేదు ఆమె (())
[479.385]
<no-speech>
[480.555]
ఇంకా అంటే అంత స్పెషల్‌గా ఏం (()) <int>
[484.365]
<no-speech>
[487.115]
<no-speech>
[488.395]
<no-speech>
[490.835]
ఏరా <int>
[492.805]
<no-speech>
[494.885]
(()) లేదు (()) పిన్ని వాళ్లు వచ్చారు <sta> (()) చెప్పి పిన్ని కాకా వచ్చిండ్రంట పిన్ని కాకా పెద్ద (()) బాబాయి
[506.135]
వాళ్లొచ్చారంటా <int>
[507.925]
<no-speech>
[510.215]
వచ్చి చూసి వెళ్ళాడు అని చెప్పింది
[512.255]
<no-speech>
[516.415]
<no-speech>
[517.225]
<no-speech>
[520.335]
నాకు బాగానే ఉంది <int> అమ్మాయి (())
[525.295]
<no-speech>
[528.065]
ఆ మెడిసిన్ రోజు వేసుకుంటున్నా
[530.225]
<no-speech>
[536.425]
<int> అదే ఆఁ వేసుకుంటున్నా (())
[539.265]
<no-speech>
[542.725]
<no-speech>
[543.195]
<no-speech>
[544.215]
హూఁ
[545.065]
<no-speech>
[546.075]
ఇంకా ముందే చెప్తే (())
[548.115]
<no-speech>
[550.595]
ఎప్పుడు (()) వచ్చేస్తయ్ <int>
[553.595]
<no-speech>
[563.905]
ఊఁ ఓకే ఓకే
[565.885]
<no-speech>
[567.235]
(())
[571.095]
<no-speech>
[576.575]
ఊఁహు సరే ఇంకా
[580.515]
<no-speech>
[586.415]
(()) ఇంకా (()) ఉండనా మరి <int>
[591.365]
<no-speech>
[593.735]
<no-speech>
[594.595]
<no-speech>
[600.320]
