[0.000]
<no-speech>
[3.915]
హలో
[4.505]
<no-speech>
[8.115]
హలో
[8.745]
<no-speech>
[9.615]
<no-speech> <sta> ఆ మధు భాయ్
[12.905]
<no-speech>
[14.815]
<hes> బయట ఉన్నావా ఏడ ఉన్నావ్ <int>
[17.555]
<no-speech>
[20.505]
(()) భాయ్
[22.025]
<no-speech>
[25.615]
ఏమి ఊరు (()) <no-speech>
[27.905]
<no-speech>
[29.085]
మీవోడు లేడా ఇంట్లో
[30.355]
<no-speech>
[34.815]
వెయిటింగ్ దేనికి
[35.925]
<no-speech>
[39.705]
వెయిటింగ్
[40.575]
<no-speech>
[43.845]
ఆఁ <no-speech> పోయిండా ఏంది
[45.875]
<no-speech>
[49.915]
ఏ ఫోన్ చేయాలే నేను మీ వాడు చేసి చాలా రోజులు అయింది
[53.905]
<no-speech>
[57.535]
<hes>
[58.345]
<no-speech>
[61.355]
(())
[62.455]
<no-speech>
[65.095]
<hes> నువ్వు మరి <sta> ఎన్ని రోజులు అయింది ఫోన్ ఆడికి ఫోనే (()) చేయలేదు మనం
[71.745]
<no-speech>
[73.995]
ఆఁ
[74.725]
<no-speech>
[76.315]
(())
[76.995]
<no-speech>
[78.275]
ఆల్రెడీ ఆల్రెడీ <int> చెప్పి రమ్మని చెప్పినా అక్కలా కాడికి ఏం అయింది ఫోనే చేయలే మరి
[82.895]
<no-speech>
[89.395]
(())
[91.735]
<no-speech>
[93.835]
(()) ఏం చేస్తున్నావు నువ్వు
[95.585]
<no-speech>
[100.405]
ఏడికి
[101.155]
<no-speech>
[105.145]
నల్కొండకి పోయినావా
[106.345]
<no-speech>
[111.185]
(())
[111.575]
<no-speech>
[112.515]
ఏడికి
[113.365]
<no-speech>
[115.095]
<no-speech> <sta> ఆల్రెడీ (()) రేపు అత్తయ్య పాపకు అన్నం పెట్టాలంట మరి
[122.395]
<no-speech>
[123.975]
పదమూడు ఆఁ పదమూడో తారీఖు బుధవారం అన్నం పెట్టాలంట పాపకి
[128.885]
<no-speech>
[132.185]
ఆ పాపకి అన్నం తీనిపియలంటారా
[134.385]
<no-speech>
[136.505]
<hes> *వాళ్ళు* ఫంక్షన్ చేస్తామంటారు బావ వాళ్ళు ఇంకా తప్పదు ఇక పోవాలి వస్తాలే నువ్వు
[141.155]
<no-speech>
[145.085]
<no-speech> మీ అన్న కూతురుకి ఇప్పుడు ఎన్నో నెల
[148.265]
<no-speech>
[151.255]
పాపకు ఎన్నో నెల (())
[152.865]
<no-speech>
[156.165]
మీ *వానికి* కూతురుకి <no-speech> ఆఁ
[160.975]
<no-speech>
[162.255]
(())
[163.055]
<no-speech>
[165.515]
(())
[166.085]
<no-speech>
[167.305]
ఆఁ
[167.945]
<no-speech>
[171.375]
ఆఁ చూస్తున్న ఐతే మంచిగా కనపడుతుంది ఐతే
[175.145]
<no-speech>
[180.205]
<hes> రే నీ దగ్గరకి వస్తాదా
[182.845]
<no-speech>
[187.015]
<no-speech> (())
[191.805]
<no-speech>
[194.965]
<laugh> (()) మేము వస్తే అప్పుడు మొత్తము ఎట్లా చేసింది (()) మహారాణి లెక్క చేసిండు
[201.325]
<no-speech>
[202.795]
పొద్దున్న మీ సగం సగం కొంటుందా లేదంటే ఏమన్నా సర్ లెక్కలు చేస్తుండా
[207.405]
<no-speech>
[210.155]
ఈసారి లెక్కలు చేస్తే రఫ్ అని ఇచ్చేసై ఒకటి
[212.525]
<no-speech>
[215.895]
ఏమని
[216.845]
<no-speech>
[219.535]
ఏమని
[220.355]
<no-speech>
[223.385]
<hes> (()) నల్కొండ నించి మనోడు ఆడ జాబ్ దొరికినప్పటినించి ఇక కలుస్తాలేదు మనం
[234.245]
<no-speech>
[235.465]
(())
[236.385]
<no-speech>
[238.705]
<int> ఆ పెద్దోడు అయిపోయిండు మీవోడు ఆఖరికి ఫోన్ కూడా చేస్తాలేడు
[242.825]
<no-speech>
[244.005]
కొత్తగా ఒక కూతురు పుట్టింది (()) భాయ్ నమస్తే అని అప్పుడు ఒక్కసారి ఫోన్ చేసిండు <int>
[248.935]
<no-speech>
[253.895]
తక్కువోడు అంటావా
[255.005]
<no-speech>
[258.885]
మరి నువ్వు వేరే బండి తీసుకోవచ్చుగా మీ వోనికి జాబ్ విప్పి చేసింది మీ అమ్మ కల్లెక్టరేట్‌లో నువ్వు ఇంకొక్కటి తీసుకోచ్చుగాదా మరి
[266.785]
<no-speech>
[268.145]
<no-speech>
[269.735]
<no-speech>
[270.675]
(()) నువ్వు ఏదోక పెళ్ళి చేసుకుని ఏదోకటి మరి సెటిల్ ఉండే
[276.685]
<no-speech>
[279.515]
పెళ్ళి చేసుకున్నావ్ కదా నువ్వు పెళ్ళి చేసుకుని ఏదో జాబ్ ట్రై చేసేది ఉండేగా
[283.675]
<no-speech>
[287.135]
(()) ఇప్పుడు ఖాళీగా ఉండి ఏం చేస్తావ్ చెప్పు నువేమో ఏదోక పనికి పోయినా కంపల్సరీ పది వేలు వస్తున్నాయి
[293.815]
<no-speech>
[297.245]
ఖాళీగా ఉండే పదులు ఏదోకటి మరి
[299.905]
<no-speech>
[301.145]
నీ ట్యాలెంట్‌కి మస్త్‌గా వస్తాయి బావ జాబులు
[303.705]
<no-speech>
[305.265]
(()) <no-speech>
[307.885]
<no-speech>
[308.845]
<no-speech>
[309.305]
<no-speech>
[311.165]
(()) నువ్వు చూసుకోబడలే
[313.455]
<no-speech>
[314.815]
<hes> <no-speech> ఎంటిరా
[317.815]
<no-speech>
[318.705]
<int> ఇది మన ఎవరు మా ఆఫీసుది
[322.385]
<no-speech>
[323.185]
<no-speech>
[323.645]
<no-speech>
[324.755]
<no-speech>
[325.125]
<no-speech>
[326.085]
డిస్టర్బ్ వస్తుందా <no-speech>
[328.445]
<no-speech>
[329.485]
<sta> ఆ డిస్టర్బెన్స్ (()) డిస్టర్బ్ వచ్చినా (())
[336.735]
<no-speech>
[338.015]
<no-speech>
[338.365]
<no-speech>
[339.605]
(()) పడిపోతాది మళ్ళా మాట్లాడకపోతే <int>
[342.135]
<no-speech>
[343.505]
మీ అన్న ఎక్కడకి పోయిండు ఆడు ఆఫీసులో ఉన్నాడా <int>
[346.365]
<no-speech>
[348.345]
<int> మరి మీ అమ్మ ఏడకి పోయింది
[350.475]
<no-speech>
[353.485]
మీ అమ్మ <no-speech>
[355.155]
<no-speech>
[356.215]
<no-speech> నువ్వు బయటకు వచ్చినావా
[358.695]
<no-speech>
[361.595]
<no-speech>
[361.995]
<no-speech>
[362.805]
<int> మరి మీ వోడిని ఒకసారి ఫోన్ చేయమనరా ఎన్ని రోజులు అయింది చాలా రోజులు అయింది అసలు
[367.765]
<no-speech>
[371.125]
ఆఁ మీ అక్క కాడికి పోతాలేను
[373.095]
<no-speech>
[375.605]
అక్క కాడికి వస్తాలేదా (())
[377.365]
<no-speech>
[380.295]
<no-speech> <sta> మళ్ళీ ఏమన్నా అన్నాడా మీ బావ <no-speech> ఏం ఆనలే
[387.205]
<no-speech>
[388.985]
ఫస్ట్ నువ్వు ఇక్కడిరా నువ్వు ఎప్పుడు పదమూడో తారీఖు <int>
[394.855]
<no-speech>
[395.805]
ఆఁ బుధవారం వస్తుంది ఎల్లుండే
[397.765]
<no-speech>
[400.585]
<int> ఎల్లుండికి రేపు నైట్ ఐనా బండి మీద వెళ్ళిపోతా లేదంటే మళ్ళా (()) ఎల్లుండి పొద్దున్న వెళ్ళిపోతారు స్వామిలు వెంట వెళ్తే అడ ఫంక్షన్ ఉందంట
[409.835]
<no-speech>
[411.985]
ఆఁ అది చూసుకుని వస్తాం వస్తే వచ్చేసేయ్ మరి నువ్వు
[415.035]
<no-speech>
[416.245]
<no-speech> వస్తే వచ్చేసేయ్ భాయ్ ఆడికి <int>
[419.835]
<no-speech>
[421.335]
<no-speech>
[421.705]
<no-speech>
[422.515]
ఆఁ
[423.145]
<no-speech>
[423.955]
<no-speech>
[424.445]
<no-speech>
[426.085]
ఆఁ ట్రై చేసాడు ఏం ఉంది వచ్చేసేయ్ నీకు ఏమైనా గిఫ్ట్‌లు గిఫ్ట్‌లు కావాలంటే విప్పి చేస్తా
[430.785]
<no-speech>
[433.835]
ఆఁ వచ్చేసేయ్ ఏం ఉంది
[435.745]
<no-speech>
[438.725]
ఛార్జీలు ఏమైనా కావాలంటే ఇస్తావా
[440.785]
<no-speech>
[441.915]
<no-speech> ఆఁ టికెట్ బస్ బస్ ఛార్జీలు టికెట్లు
[446.695]
<no-speech>
[449.805]
ఆఁ ఇస్తా వచ్చేసేయ్ ఎంజాయ్ చేద్దాం మరి చాలా రోజులు అయిందిగా మీవోడు ఎట్లాగా కలుస్తలేడు
[455.645]
<no-speech>
[458.065]
ఆఁ నువ్వున్నా ఇక వచ్చి ఇక
[460.275]
<no-speech>
[462.375]
మరి ఏం అయింది అప్పుడు అది పెళ్ళి చూపులు చెప్పినావు కదా బావ
[465.225]
<no-speech>
[468.025]
ఆఁ పిల్ల ఉంది అక్కడ చూసుకుంటా బాబాయ్ అంటే ఏం మాట్లాడటలేవు మరి
[471.835]
<no-speech>
[476.235]
(()) నీ యమ్మ ఈ ఏజ్‌లో చేసుకో బావ నేనే చేసుకుంటున్నా రేపో ఎల్లుండో
[480.655]
<no-speech>
[483.555]
<hes>
[484.645]
<no-speech>
[486.005]
చూసినాంక ఆ పిల్లా- పిల్ల నచ్చకుండా ఉంటాది
[489.465]
<no-speech>
[490.555]
ఆఁ
[491.165]
<no-speech>
[493.275]
(())
[494.945]
<no-speech>
[496.515]
<no-speech>
[496.865]
<no-speech>
[498.435]
ఆఁ బెంగుళూరులో ఏమో అమ్మాయి చూసారు
[500.945]
<no-speech>
[502.535]
<sta> చూసి- చుట్టాలమనే
[504.045]
<no-speech>
[505.495]
వాళ్ళ చిన్న అన్న ఉన్నాడుగా
[506.855]
<no-speech>
[508.035]
<int> ఆ చిన్న వదిన వాళ్ళ వాళ్ళ అన్న కూతురు
[511.725]
<no-speech>
[513.895]
అన్న కూతురు ఏమో అయితదేమో ఇక ఎట్లానో సంబంధం మాట్లాడారు బాగా నచ్చిండు ఆఁ
[520.945]
<no-speech>
[523.025]
నా- నాకు ఇదా కాదు
[524.985]
<no-speech>
[526.915]
<sta> ఇదా నాకు వరంగల్‌లో చుసిరు
[529.385]
<no-speech>
[531.925]
వరంగల్‌లో <hes> ఆడ చూస్తే బాగా మాట్లాడిండు
[536.325]
<no-speech>
[538.765]
ఇక చూడాలి ఇక ఎట్లా అయితదో ఏమో ఇక మనది కూడా
[542.715]
<no-speech>
[544.165]
(())
[544.655]
<no-speech>
[545.565]
ఆఁ
[546.255]
<no-speech>
[548.635]
<no-speech> <sta> పిల్లనా <no-speech> ఆ మా బావనే చూసిండు
[553.705]
<no-speech>
[556.575]
చేసుకోవాలి మరి ఇప్పుడా ఇప్పుడు చేసుకోకపోతే ఇంకా ఎప్పుడు చేసుకుంటారు బావ
[560.795]
<no-speech>
[563.085]
ఆఁ నీకంటే నీకు ఆరు లేదు సూరి లేదు
[565.985]
<no-speech>
[566.885]
<int> మాకు లేవా
[567.945]
<no-speech>
[569.965]
<no-speech> మరి <laugh>
[571.845]
<no-speech>
[573.685]
ఉమ్ <no-speech> (())
[576.675]
<no-speech>
[578.005]
అది మరి మాదాంట్లో అంటే జాబ్ చేస్తావా మరి సూపర్‌వైజర్‌గా
[581.435]
<no-speech>
[584.175]
ఆ సూపర్వైజర్ ఇస్తాడంటా (())
[587.335]
<no-speech>
[590.115]
ఆఁ
[590.825]
<no-speech>
[593.805]
ఆఁ
[594.375]
<no-speech>
[595.945]
మా- మాట్లాడు
[597.705]
<no-speech>
[599.225]
<no-speech>
[599.425]
<no-speech>
[599.620]
