[0.000]
(())
[0.735]
<no-speech>
[4.275]
<int> హలో
[5.075]
<no-speech>
[7.505]
ఆఁ (()) <int> కనుక్కున్నావా <no-speech>
[10.315]
<no-speech>
[12.145]
ఊఁ అదే (()) చెప్పారు కదా
[15.315]
<no-speech>
[20.445]
<int> అంటే మరి (()) కదా (())
[23.745]
<no-speech>
[27.175]
ఆఁ ఆల్రెడీ మా ఫ్రెండ్ కూడా ఉందంట నేనే చెప్పినా ఆమెకి (()) చెప్పినావు కదా <no-speech>
[33.035]
<no-speech>
[34.365]
<no-speech> మా ఫ్రెండ్‌కి కూడా చెప్పాను నేను (()) ఆమె ఆల్రెడి జాబ్ చేస్తుంది ట్వెల్వ్ తౌజండ్ అంట శాలరీ
[40.155]
<no-speech>
[43.225]
ఊఁ
[43.875]
<no-speech>
[49.515]
ఆఁ
[50.025]
<no-speech>
[56.875]
ఎగ్జామ్ అయిపోతుంది <sta> ఇంటర్వ్యూలకి పోతున్నాది
[60.165]
<no-speech>
[64.835]
(())
[66.685]
<no-speech>
[74.635]
అవునా <int> హిందీ బాగానే వచ్చు కాని ఆడ పోయినాక ఇంగ్లీష్ అడుగుతున్నారు <int> ఇంగ్లీష్ అంటే మరి అంత ఫ్లూయంట్ రాదు <foreign> వచ్చు మరి మీ ఫ్రెండ్‌ని అడగరాదు
[85.025]
<no-speech>
[87.325]
హలో <no-speech> ఆఁ <int>
[89.765]
<no-speech>
[90.825]
అడిగి నాకు ఫోన్ చేయవా (()) పోతాలేను <no-speech>
[95.315]
<no-speech>
[98.905]
ఊఁ మరి నాకు ఐ_డి ప్రూఫ్ వచ్చింది జెన్‌ప్యాక్‌లో మరి మీరు వెళ్ళి అడుగుతారా మరి ఇంటర్వ్యూస్ జరుగుతున్నాయా <no-speech>
[106.245]
<no-speech>
[110.175]
ఆ రెండింటిలో ఏదో ఒకటి మరి నాకు ఎప్పుడు చెప్తావు ఈవెనింగ్ వరకు చెప్తావా <no-speech>
[115.405]
<no-speech>
[117.715]
బాబు అన్న ఇచ్చాడా మరి మీకు మీకు మేడం <no-speech>
[121.225]
<no-speech>
[123.605]
మరి ఎట్లా గట్టిగా అడగవా నువ్వు నర్సింగ్ (()) <no-speech>
[128.285]
<no-speech>
[132.675]
మా (()) కూడా చూస్తా ఉన్నాడు
[134.715]
<no-speech>
[140.315]
<no-speech> <sta> ఆఁ ఇంకా తిన్నారా
[144.095]
<no-speech>
[148.165]
ఎక్కడన్నావు
[148.815]
<no-speech>
[154.065]
అన్ని అయిపోయి (()) <int> కాల్ కాల్ వాయిస్ రికార్డింగ్‌ది
[157.615]
<no-speech>
[163.515]
ఏమంటున్నాది <int> జ్వరం వచ్చిందా నీకు <no-speech>
[167.015]
<no-speech>
[169.125]
మరి వాయిస్ ఎందుకంత <sta> స్లోగా మాట్లాడుతున్నావు <no-speech>
[173.185]
<no-speech>
[175.725]
పడుకున్నావా
[176.635]
<no-speech>
[181.135]
ఆఁహా <sta> ఇంకా నేను రాత్రి అక్కడకి వచ్చినా ఊఁ దాన్నేమంటారు (()) వచ్చినా ప్రశాంత్ కలిసాడు విజయ్ కలిసాడు <no-speech>
[190.095]
<no-speech>
[191.655]
ఏమంటారు ఏమి అనలేదు చాలా రోజుల తర్వాత (()) అంటుండ్రు <no-speech>
[196.165]
<no-speech>
[197.985]
ఊఁ
[198.475]
<no-speech>
[202.375]
<int> ఊఁ
[203.225]
<no-speech>
[208.285]
ఏంటి
[208.825]
<no-speech>
[214.065]
అవును <no-speech>
[217.065]
<no-speech>
[222.745]
రోజుకు రోజు చేస్తుంది ఆమె ఆమె <lipsmack> గ్రేట్ అనుకోవాలి (())
[226.775]
<no-speech>
[227.575]
<no-speech> నిన్న మీర్ <no-speech>
[231.335]
మీ- మీర్ <sta> ఉందా మీర్ మేడం వాళ్ళ పి_ఏ ఈమె పర్సనల్ అసిస్టెంట్
[235.455]
<no-speech>
[236.345]
<no-speech>
[236.815]
<no-speech>
[238.795]
ఆఁ
[239.305]
<no-speech>
[242.105]
<no-speech> ఆఁ
[243.885]
<no-speech>
[244.845]
వి_పి_ఏ వెరీ వెరీ <laugh> పర్సనల్ అసిస్టెంట్ <no-speech>
[250.695]
<no-speech>
[255.165]
ఆఁ <no-speech>
[257.075]
<no-speech>
[262.095]
ఆఁ ఆఁ ఆఁ <sta> పెద్ద అసిస్టెంట్ ఫస్ట్ ఏమో మెర్సీ
[265.625]
<no-speech>
[270.885]
ఆమె వేరే వాళ్ళతో మాట్లాడుతుంది ఫోన్‌లో <no-speech>
[273.395]
<no-speech>
[277.775]
<int> ఊఁ <no-speech>
[280.805]
<no-speech>
[281.685]
(()) మూడు (()) పెట్టించేసింది <no-speech>
[286.455]
<no-speech>
[287.605]
ఊఁ
[288.095]
<no-speech>
[289.905]
ఇంకొక్క ఫోన్ ఖాళీగానే ఉంది నా చేతులో <no-speech>
[294.155]
<no-speech>
[298.535]
<sta> ఆఁ నేను మాట్లాడినా ఇంకొక్క ఫోన్‌కి కరెన్సీ ఇక్కడ ఇట్లా <no-speech>
[302.495]
<no-speech>
[306.495]
ఫిఫ్టీ
[307.105]
<no-speech>
[308.265]
(())
[309.485]
<no-speech>
[310.695]
ఊఁ ఎంత బాగుందో <int> (())
[313.215]
<no-speech>
[317.425]
ఆమె తీసుకుంటాది <sta> మనకి ఎందుకు ఇస్తాది మనకేమో ఫ్రీ మాట్లాడుకోండి ఎంతైనా అంటాది <no-speech>
[323.195]
<no-speech>
[332.125]
ఆఁ వేయిస్తుంది
[333.175]
<no-speech>
[334.525]
(())
[335.225]
<no-speech>
[338.825]
<no-speech> <sta> ఇస్తాది ఇదిగో ఇప్పుడు ఫైవ్ తౌజండ్ అయినాయి అసలు డబ్బులు ఫైవ్ తౌజండ్ కంటే ఎక్కువనే అయినాయి
[344.615]
<no-speech>
[349.655]
<no-speech> <sta> ఏమో ఇస్తాలేదు నాకే ఇస్తాలేదు <no-speech>
[354.485]
<no-speech>
[360.675]
<no-speech> <sta> ఊఁ సరే సరే ఆ ఇంకా చెప్పాలి ఏమైంది కాల్ చేయకుండే నువ్వు
[366.935]
<no-speech>
[369.825]
కాల్ చేయకుండే నువ్వు <no-speech>
[372.045]
<no-speech>
[374.755]
అంటే ఫోన్ చేయకుండా అయినావు అంటున్నా
[376.475]
<no-speech>
[382.215]
<no-speech> అబ్బా
[384.425]
<no-speech>
[385.325]
ఆఁ
[385.825]
<no-speech>
[389.935]
<no-speech> <sta> ఊఁ చాలా మారిపోయినావు అయితే నువ్వు
[392.965]
<no-speech>
[396.735]
నేను ఎట్లా మారిపోయినా చెప్పు <no-speech>
[400.145]
<no-speech>
[405.435]
సర్లే మరి జాతరకి <sta> తీసుకు వెళ్తున్నావా లేదా సమ్మక్క సారక్క జాతరకి <no-speech>
[409.715]
<no-speech>
[412.325]
ఊఁ <no-speech>
[413.375]
<no-speech>
[416.125]
<int> నాకు మంచి జాబ్ రావాలి అని మొక్కుకుంటా <no-speech>
[419.805]
<no-speech>
[421.715]
ఎందుకు <no-speech>
[424.645]
<no-speech>
[427.335]
ఆఁ <sta> ఎవడో ఒక్కడు పనికిమాలిన వాడు వస్తూనే ఉంటాడులే దానికి మొక్కాలనా ఏమైనా
[430.955]
<no-speech>
[436.275]
<no-speech> <sta> కాదు ఎట్టానో ఇదో పే- అది అద్రుష్టం ఎట్టాగా ఉంటే అట్టా అవుతాది జాబ్ ఉంటే వాడు చూడకపోయినా మన అంతటా మనం బతకొచ్చు కదా
[445.925]
<no-speech>
[450.035]
(())
[450.655]
<no-speech>
[454.565]
అవును మరి మా అమ్మ ఎస్_సి మా డ్యాడీ బి_సి <no-speech>
[459.135]
<no-speech>
[461.395]
<no-speech> (()) ఏం మాట్లాడుతున్నావు ఇవి మా పర్సనల్ డీటెయిల్స్
[472.095]
మా ఫ్యామిలీకి సంబంధించినవి నువ్వు జోక్యం చేసుకోవద్దు <sta> సరేనా <no-speech>
[476.365]
<no-speech>
[484.265]
<breath> అంటే (()) ఏమి అనుకుంటున్నావు మా ఫ్యామిలీ గురించి <no-speech>
[489.175]
<no-speech>
[498.015]
<int> ఊఁ
[498.795]
<no-speech>
[502.175]
<no-speech> <sta> ఏమి (()) ఇంకొకసారి (()) మా ఫ్యామిలీ గురించి <no-speech>
[507.605]
<no-speech>
[514.745]
సర్లే పోనీ కాని మాది అయితే (()) ఎందుకంటే మా డ్యాడీ కదా మెయిన్ మాకు వచ్చేది <no-speech> కాకపోతే (()) <sta> ఏదైనా కొంచెం రిజర్వేషన్ ఉంటాది అని ఎస్_సి అని రాయించినాము స్కూల్‌లో అందులో
[526.355]
<no-speech> (())
[527.325]
<no-speech>
[531.745]
అవునా <sta> అంత అవసరం లేపకు ప్రకాష్ చెప్పు <no-speech>
[537.005]
<no-speech>
[539.165]
ఎవ్వరిని కాదు <int> ఎవ్వరిని నేను <no-speech> హలో ఎవ్వరిని మా ఫ్యామిలీ డీటెయిల్స్‌లో ఆఁ ఇన్వాల్వ్ చేయదల్చుకోలేదు
[549.165]
<no-speech>
[554.005]
<no-speech> <sta> ఏమో ఫ్యూచర్‌లోనా మ్యారేజ్‌కి పిలుస్తాను <no-speech>
[559.235]
<no-speech>
[561.575]
<no-speech> <sta> ఊఁ <no-speech>
[564.115]
<no-speech>
[567.565]
<no-speech>
[567.925]
<no-speech>
[572.615]
జాబ్ రాగానే చేసేసుకుంటా
[574.295]
<no-speech>
[580.975]
<no-speech> జాబ్ వచ్చిన (()) చేసుకుంటా ప్రసాద్ <no-speech>
[586.515]
<no-speech>
[590.215]
<no-speech> ఏయ్ ఎత్తొద్దు
[592.615]
<no-speech>
[596.125]
<no-speech>
[596.325]
<no-speech>
[600.020]
