[0.000]
<no-speech>
[1.625]
<no-speech>
[2.115]
<no-speech>
[7.595]
<no-speech>
[15.585]
<no-speech>
[16.875]
హలో
[17.645]
<no-speech>
[21.975]
చెప్పం-
[23.075]
<no-speech>
[25.585]
హలో
[26.545]
<no-speech>
[29.835]
ఆపు నా పేరు సతీష్ అండి
[31.535]
<no-speech>
[36.185]
ఆ లాన్
[37.875]
<no-speech>
[40.535]
హలో
[41.255]
<no-speech>
[42.605]
ఎలా ఉన్నాడు
[43.775]
<no-speech>
[46.135]
<no-speech>
[46.485]
<no-speech>
[47.585]
<no-speech> ఓకే బాగానే ఉన్నాను
[51.495]
<no-speech>
[52.535]
ఏ ఏం చేస్తున్నావు
[54.215]
<no-speech>
[57.455]
ఆఁ
[57.965]
<no-speech>
[60.445]
ఓకే ఓకే
[61.435]
<no-speech>
[62.375]
ఓకే ఓకే ఇంకా <no-speech> వెళ్ళలా ఇవాళ ఆఫీసుకి
[67.015]
<no-speech>
[69.195]
ఆఫీసుకి వెళ్ళావా అంటున్నా
[70.595]
<no-speech>
[73.665]
ఊమ్ ఇంకా
[77.085]
<no-speech>
[80.225]
<no-speech>
[80.995]
<no-speech>
[83.305]
ఏమీలే
[84.245]
<no-speech>
[86.805]
ఇంకా <no-speech>
[88.725]
<no-speech>
[89.535]
ఇక్కడే భీమిలిలో ఉన్నాము
[90.985]
<no-speech>
[93.665]
(())
[95.145]
<no-speech>
[97.585]
ఆఁ
[98.315]
<no-speech>
[101.945]
<no-speech> ఇంకా
[103.645]
<no-speech>
[104.745]
ఏమీలే <breath>
[105.905]
<no-speech>
[107.265]
<sta> ఏదన్నా జాబ్ చేస్తున్న ఆయన
[109.685]
<no-speech>
[112.445]
ఊఁ
[113.405]
<no-speech>
[114.255]
ఊఁ టెలికాంలో
[115.525]
<no-speech>
[118.255]
ఆఁ
[119.185]
<no-speech>
[120.605]
ఇంకా నువ్వు ఏం చేస్తున్నావు
[123.815]
<no-speech>
[125.315]
<no-speech> తేజ టెక్నికల్
[127.305]
<no-speech>
[129.595]
తేజ టెక్నికల్
[131.135]
<no-speech>
[134.195]
ఆఁ
[135.045]
<no-speech>
[137.475]
టైమింగ్స్ టూ డేస్ ఒకసారి చేయాలి
[140.105]
<no-speech>
[142.185]
టూ డేస్ ఒకసారి చేంజ్ అవుతాది
[144.115]
<no-speech>
[147.905]
ఒకసారి చేంజ్ అవుతాది అన్నానా షిఫ్ట్లు చేంజ్ అవుతాయి (())
[151.565]
<no-speech>
[154.255]
ఊఁ ఇంకా
[156.235]
<no-speech>
[158.975]
ఊఁ
[159.935]
<no-speech>
[163.835]
ఏంది
[164.845]
<no-speech>
[168.275]
<sta> శాలరీ మామూలే టెన్నే
[170.535]
<no-speech>
[171.405]
<no-speech> ఊఁ
[173.495]
<no-speech>
[174.965]
ఇంకా నువ్వేంజేస్తున్నావ్
[176.515]
<no-speech>
[178.455]
<no-speech>
[178.895]
<no-speech>
[179.965]
<sta> ఆఁ <no-speech> ఊఁ
[183.655]
<no-speech>
[184.525]
ఊఁ నీకెంతిస్తున్నారు
[186.455]
<no-speech>
[187.355]
ఊఁ
[188.355]
<no-speech>
[191.745]
వేకెన్సీ ఏం లేవు ప్రస్తుతానికి
[193.885]
<no-speech>
[196.375]
ఊఁ
[197.215]
<no-speech>
[201.225]
ఇంకా
[202.025]
<no-speech>
[203.775]
ఊఁ బిజీగున్నావా చాలా అందుకే
[206.935]
<no-speech>
[209.445]
ఊఁ
[210.355]
<no-speech>
[212.435]
*ఇంకా* *చెప్పాలె*
[213.705]
<no-speech>
[215.235]
రంజిత్
[216.215]
<no-speech>
[217.245]
ఊఁ
[218.225]
<no-speech>
[220.405]
ఏ ఒక రవి ఫోను చేసెనా
[224.455]
<no-speech>
[226.075]
రంజిత్
[227.155]
<no-speech>
[229.485]
రంజిత్‌రా
[230.875]
<no-speech>
[233.085]
ఊఁ
[234.085]
<no-speech>
[236.725]
సేయలే <no-speech>
[238.145]
<no-speech>
[239.485]
ఊఁ <breath> <no-speech> ఊఁ చెప్పు
[246.045]
<no-speech>
[249.105]
రంజిత్తా
[250.305]
<no-speech>
[252.575]
ఊఁ
[254.245]
<no-speech>
[255.065]
చెప్పు ఇంకా
[256.085]
<no-speech>
[258.745]
లేదా ఆఫీసుకు వెళ్ళవా
[260.945]
<no-speech>
[263.115]
ఆఫీసులో ఉన్నావా
[264.865]
<no-speech>
[266.385]
ఆఫీసులో ఉన్నావా ఇప్పుడు
[267.865]
<no-speech>
[270.715]
బయటున్నావా <no-speech> ఊఁ
[273.685]
<no-speech>
[274.985]
ఓకే
[275.745]
<no-speech>
[277.415]
<no-speech>
[277.775]
<no-speech>
[278.785]
<no-speech> <sta> ఏంలే తరువాత చెప్తా కాని <no-speech>
[281.955]
<no-speech>
[284.925]
<no-speech> లైనులో ఉండు <no-speech> మాట్లాడవేం
[289.585]
<no-speech>
[293.265]
ఇవాళ నైట్ ఉంది
[294.795]
<no-speech>
[296.985]
ఊఁ
[297.945]
<no-speech>
[300.635]
<no-speech>
[301.715]
<no-speech>
[302.555]
ఇంకా <no-speech>
[304.045]
<no-speech>
[305.935]
బాగానే ఉంది అంటాను
[307.985]
<no-speech>
[309.365]
ఊఁ
[310.385]
<no-speech>
[315.795]
ఏమో తెలీదు చేశారేమో
[318.395]
<no-speech>
[319.265]
తెలీక చేశాడు వాడు (())
[321.465]
<no-speech>
[322.615]
ఓకే వేరే దాంట్లో ట్రై చేస్తున్నాం
[324.795]
<no-speech>
[327.275]
ఊఁ
[328.115]
<no-speech>
[330.595]
ఊఁ
[331.655]
<no-speech>
[336.305]
ఏ కష్ఠంమరి చూద్దాం
[339.365]
<no-speech>
[340.955]
చూద్దాంలే
[342.245]
<no-speech>
[343.155]
ఆఁ వేరే దాంట్లో ట్రై చేస్తా
[345.995]
<no-speech>
[348.445]
ఊఁ
[349.435]
<no-speech>
[354.055]
అందులో జనవరి వరకు ఉంటాయేమో <breath>
[356.495]
<no-speech>
[358.905]
ఊఁ
[360.235]
<no-speech>
[362.635]
ఓకే <breath>
[364.015]
<no-speech>
[364.875]
<no-speech>
[365.255]
<no-speech>
[366.815]
ఇంకేమున్నాయి చెప్పాలి నువ్వే <breath>
[368.705]
<no-speech>
[370.575]
అందులోనా పర్మినెంట్ చేశావా నువ్వు
[372.295]
<no-speech>
[373.765]
<no-speech>
[374.115]
<no-speech>
[374.925]
పర్మినెంటె అందులోననా జాబ్ అంటున్నా
[377.245]
<no-speech>
[381.765]
ఓకే
[382.755]
<no-speech>
[386.105]
ఊఁ
[387.175]
<no-speech>
[391.165]
ఓకే
[391.905]
<no-speech>
[392.905]
ఉంటే చెప్పు నాకు వేకెన్సీ
[394.705]
<no-speech>
[396.695]
వేకెన్సీ ఉంటే చెప్పు అంటున్నా
[398.575]
<no-speech>
[402.995]
ఆఁ *వస్తు-*
[404.285]
<no-speech>
[405.795]
<no-speech>
[406.255]
<no-speech>
[409.565]
ఓ <lipsmack>
[410.495]
<no-speech>
[411.475]
<int> ఓకే
[412.295]
<no-speech>
[415.405]
ఆఁ
[416.225]
<no-speech>
[417.495]
<no-speech>
[417.905]
<no-speech>
[420.025]
వర్కుంది
[421.705]
<no-speech>
[423.705]
ఊఁ
[424.645]
<no-speech>
[428.895]
ఊఁ ఓకే
[430.785]
<no-speech>
[435.215]
ఆఁ ఓ
[436.155]
<no-speech>
[442.245]
ఆఁ
[443.025]
<no-speech>
[443.885]
<no-speech>
[444.425]
<no-speech>
[446.245]
శాలరీ ఎంత
[447.515]
<no-speech>
[451.115]
ట్వెల్వ్
[451.925]
<no-speech>
[452.945]
<no-speech>
[453.295]
<no-speech>
[455.765]
ఊఁ
[456.765]
<no-speech>
[458.325]
ఓకే
[459.025]
<no-speech>
[460.435]
ఇంకా
[461.375]
<no-speech>
[462.925]
<no-speech>
[463.275]
<no-speech>
[464.615]
ఊఁ
[465.365]
<no-speech>
[468.095]
చెప్పు ఇంకా
[469.155]
<no-speech>
[472.275]
<sta> ఇంకేముంది <breath>
[475.015]
<no-speech>
[476.675]
ఊఁ
[477.625]
<no-speech>
[479.005]
ఆఁ చెప్పు చెప్పు
[480.185]
<no-speech>
[482.905]
<no-speech> <sta> ఆఁ వెళ్లాను
[485.455]
<no-speech>
[487.435]
ఏ ఫిలిమ్
[488.745]
<no-speech>
[491.235]
ఆఁ సరే బావుందా
[493.485]
<no-speech>
[496.105]
ఓకే
[497.315]
<no-speech>
[499.415]
సరే <breath> ఇంకా
[500.995]
<no-speech>
[504.285]
<no-speech>
[505.815]
<no-speech>
[506.875]
ఆఁ చెప్పు
[508.055]
<no-speech>
[510.175]
<no-speech> ఆఁ వెళ్ళాను వెళ్ళాను
[512.645]
<no-speech>
[516.165]
ఆఁ
[517.195]
<no-speech>
[518.395]
ఆఁహా
[519.335]
<no-speech>
[522.695]
ఆఁ అయిపోద్ది
[523.955]
<no-speech>
[525.945]
ఆఁ అయిపో-
[527.035]
<no-speech>
[530.575]
ఆఁ సరే
[531.835]
<no-speech>
[534.345]
ఇంకా ఎవరు మనం ఇద్దరిమేనా ఇంకా ఎవరైనా *వస్తుండ్రా*
[536.935]
<no-speech>
[541.495]
ఆఁ
[542.495]
<no-speech>
[543.655]
ఇంకొకరా ఇంకొకరా
[545.535]
<no-speech>
[547.925]
ఓకే
[548.845]
<no-speech>
[552.325]
<no-speech>
[553.985]
<no-speech>
[556.365]
<int> ఇంకేమున్నాయి చెప్పాలి
[558.215]
<no-speech>
[562.155]
ఊఁ వేరే ట్రై చేస్తున్నావా అందులోనే ఉంటున్నావా
[564.985]
<no-speech>
[566.725]
అందులోనే ఉంటావా వేరే ట్రై చేస్తావా *అంటున్నా* <breath>
[569.145]
<no-speech>
[571.975]
(())
[573.345]
<no-speech>
[577.235]
<hes> <no-speech> ఇంకా
[582.185]
<no-speech>
[585.185]
(())
[586.455]
<no-speech>
[587.495]
<no-speech>
[587.845]
<no-speech>
[590.855]
కొత్తగా ఏం లేవు
[592.505]
<no-speech>
[595.095]
కొత్తగా ఏం లేవురా
[596.585]
<no-speech>
[598.985]
ఊఁ
[599.795]
<no-speech>
[602.295]
<no-speech> చెప్పు ఇంకా
[604.525]
<no-speech>
[606.325]
ఏం లేదులే అది తరువాత చెప్తాను <no-speech>
[608.965]
<no-speech>
[610.545]
తరువాత చెప్తాలే
[612.145]
<no-speech>
[620.955]
<no-speech>
[621.165]
<no-speech>
[622.995]
