[0.000]
<no-speech>
[1.645]
(())
[3.655]
<no-speech>
[6.035]
<no-speech> హలో <no-speech> హలో అక్క ఆఁ మాట్లాడు (())
[11.275]
<no-speech>
[13.165]
ఆఁ
[13.725]
<no-speech>
[16.755]
(())
[17.835]
<no-speech>
[18.815]
ఆఁ (())
[19.865]
<no-speech>
[21.395]
(()) ఊఁ <int> ఆఁ బాగున్నారా
[24.925]
<no-speech>
[27.575]
ఊఁ ఎన్ని గంటలకు వచ్చాడు <int> నిన్న బావ
[29.335]
<no-speech>
[30.805]
ఆఁ <int> నేను మాట్లాడుతున్నా కాసేపు మాట్లాడుతానే ఉండు
[33.595]
<no-speech>
[36.675]
ఊఁ
[37.345]
<no-speech>
[39.355]
ఊఁ నిన్ననా ఏడు అయింది మాకు <int> ఊఁ ఉదయ్ వాళ్ళ వెంబడి వచ్చినాము కాని
[44.085]
<no-speech>
[46.975]
ఉదయ్ వెంబడి <no-speech> నిన్న
[49.195]
<no-speech>
[50.775]
(())
[51.905]
<no-speech>
[53.615]
(()) <int> ఆఁ (())
[58.985]
<no-speech>
[61.385]
ఆఁ <no-speech>
[63.265]
<no-speech>
[65.645]
(())
[66.215]
<no-speech>
[70.395]
ఊఁ <int> అదే
[71.105]
<no-speech>
[74.445]
ఊఁ అదే ఇంకా రమ్మన్నారు (()) రమ్మంటే ఇంకా వాళ్ళ వెంబడే వచ్చినాం
[78.165]
<no-speech>
[80.145]
<no-speech>
[80.515]
<no-speech>
[81.605]
ఉదయ్ వెంబడి
[82.565]
<no-speech>
[85.515]
ఏహే ఉదయ్
[86.615]
<no-speech>
[90.415]
ఊఁ ఉదయ్ వెంబడి వచ్చినా
[91.725]
<no-speech>
[93.285]
(()) ఉదయ్ ఒక్కటే వచ్చింది ఇంకా
[95.415]
<no-speech>
[99.425]
<no-speech> <sta> ఇంకా తె- తెచ్చామన్నాది తెచ్చినారంట కాని ఇంకా మళ్ళీ ఆడ పోనీకి కాలేదు మాకు పోలేదు
[105.565]
<no-speech>
[106.625]
ఊఁ
[107.295]
<no-speech>
[108.505]
<sta> కాలేదు తెచ్చినాము తీసుకుపొమ్మని అన్నారు మళ్ళా ఆడకి ఎవరు పోయేటి వాళ్ళు లేరు నువ్వే వచ్చినప్పుడు పట్టుకు రమ్మని చెప్పినా ఇంకా
[113.735]
<no-speech>
[115.015]
ఇంకా అంటే సరే (())
[116.145]
<no-speech>
[119.535]
ఆఁ ఏం తెచ్చినారంట అక్క మరి ఏం చేయాలి నాకు (()) ఇంకా ముందేమో తెచ్చినాము అన్నారు తర్వాత తేలేదు అన్నారు
[126.345]
<no-speech>
[127.785]
ఆఁ ఇంకా అట్లా అని ఇంకా తేలేదు ఇంకా <int> ఇంకా వచ్చేటప్పుడు <int> పట్టుకుని ఎట్లానయినా చేయమని చెప్పింది (())
[133.685]
<no-speech>
[134.745]
ఊఁ
[135.345]
<no-speech>
[136.335]
ఆఁ
[136.935]
<no-speech>
[140.665]
<no-speech>
[141.105]
<no-speech>
[143.675]
ఏయ్ అట్లా చెప్పిండంట శ్రీధర్ మంచిగా లేదంట పిల్ల
[146.015]
<no-speech>
[149.395]
ఆఁ శ్రీధర్ పోయి చూసి వచ్చిండంట
[151.145]
<no-speech>
[152.475]
ఊఁ <no-speech> చూసి వస్తే మంచిగా లేదంట పిల్ల (()) వద్దు మంచిగా లేదు అని అన్నడంట
[159.035]
<no-speech>
[161.415]
నల్లగా ఉందంట కాని (())
[163.295]
<no-speech>
[164.695]
ఊఁ
[165.345]
<no-speech>
[166.535]
ఊఁ (())
[167.995]
<no-speech>
[169.495]
ఆఁ (())
[170.525]
<no-speech>
[172.095]
ఆఁహా రెండు <int>
[172.915]
<no-speech>
[173.725]
ఈడనే ఉన్నే ఆ అన్న
[174.865]
<no-speech>
[179.245]
మరి <sta> అట్లా అయి ఊరుకున్నా
[181.285]
<no-speech>
[182.705]
ఊఁ ఇంకా వాళ్ళు (()) శైలజా నేను మీ మరిది ఆఁ మేము ముగ్గురం వచ్చినాము ఇంకా వాళ్ళతోని
[188.825]
<no-speech>
[191.945]
ఆఁ (())
[193.685]
<no-speech>
[194.665]
పిల్లలను పెంచుతారా లేరా వాళ్ళు
[196.135]
<no-speech>
[201.215]
మొత్తం సిటీకే వచ్చినాం మొత్తం కలిసే వచ్చినాం
[203.495]
<no-speech>
[206.375]
ఆఁ (()) ఆఁ (())
[210.125]
<no-speech>
[212.815]
<no-speech> ఊఁ
[214.205]
<no-speech>
[215.085]
ఇంకా ఆయన వచ్చేవరకు లేట్ అయింది
[216.535]
<no-speech>
[218.255]
ఏడు ఈ ఏడు అయింది అక్క
[219.765]
<no-speech>
[220.935]
ఊఁ (())
[223.375]
<no-speech>
[224.755]
ఆఁ
[225.465]
<no-speech>
[228.615]
(()) ఊఁ <no-speech>
[234.445]
<no-speech>
[239.115]
అందుకనే మాట్లాడు మరి అట్లానే మాట్లాడు
[241.195]
<no-speech>
[242.775]
<no-speech>
[243.235]
<no-speech>
[244.325]
(()) నిన్న మంచిగానే అయింది బాగానే చేసిండ్రు వాళ్ళు మంచిగానే అయింది
[248.695]
<no-speech>
[249.495]
(())
[250.635]
<no-speech>
[252.535]
ఆఁ మంచిగానే చేశాడు
[253.755]
<no-speech>
[255.365]
ఆఁ మంచిగానే చేశాడు
[256.905]
<no-speech>
[258.955]
<no-speech>
[259.325]
<no-speech>
[262.425]
మంచిగానే వచ్చిండ్రు అందరూ మంచిగానే (()) ఊఁ మంచిగానే వచ్చిండ్రు (()) అన్ని ప్రోగ్రాములు మంచిగానే చేసిండ్రు మంచిగానే అన్ని అయినాయి
[271.355]
<no-speech>
[273.455]
మంచిగానే జరిపిండ్రు అన్ని
[274.845]
<no-speech>
[276.435]
(()) వచ్చిన వాళ్ళు అందరూ బాగానే వచ్చిండ్రు
[278.775]
<no-speech>
[279.955]
శేషక్క వాళ్ళ ఇంట్లో వాళ్ళు వచ్చిండ్రు లక్ష్మీ అక్క వాళ్ళు వచ్చిండ్రు హరి వాళ్ళు అందరూ వచ్చిండ్రు అందరూ మంచిగానే వచ్చిండ్రు వచ్చిన కాడకి అన్ని మంచిగానే అయినాయి
[288.025]
<no-speech>
[290.355]
అక్క
[290.925]
<no-speech>
[293.635]
ఎరుకనే
[294.375]
<no-speech>
[295.655]
వెంటనే (()) ఆఁ మా కోడలు వెంట పోయింది వానికి (()) ఊగుతూ ఉరుకతా ఉంటారు ఉరుకలాడుతుంటారు ఇద్దరు
[302.625]
<no-speech>
[303.655]
మళ్ళా ఎందుకు పోయింది అక్క ఊరుకుంటే అయిపోవు కదా మంచిగా (())
[307.705]
<no-speech>
[309.505]
(()) <sta> కింద పడదా చిన్న పిల్లనా జారి పడ్డాదంట మస్త్ దెబ్బలు తగిలినాయి బట్టలు అన్ని గలీజు అయినాయి చీర అంతా గలీజు గలీజు అయింది
[316.725]
<no-speech>
[318.295]
ఆఁ <no-speech> వీళ్ళ (())
[321.315]
<no-speech>
[322.655]
<sta> అమ్రుతాంజనం పెట్టి బాగానే రాసిండ్రు
[324.545]
<no-speech>
[326.015]
ఊఁ (()) <sta> కట్టుకున్నా అన్న రాత్రి ఫోన్ చేసినా మళ్ళా ఫోన్ చేస్తే జర లైన్‌లో ఉన్నా చెల్లి అని అన్నది ఆఁ ఏం చేస్తున్నావు అక్క
[336.555]
<no-speech>
[337.355]
<no-speech> (())
[341.135]
<no-speech>
[347.525]
(())
[348.115]
<no-speech>
[349.885]
ఆఁ
[350.505]
<no-speech>
[352.085]
(())
[352.765]
<no-speech>
[353.885]
<foreign> లేకుండా నడుస్తున్నావా <no-speech> (())
[358.215]
<no-speech>
[360.805]
<sta> అమ్మో మరి ఎట్లా మరి ఇంకా ఎన్ని రోజులంట అట్లా <no-speech>
[364.445]
<no-speech>
[368.155]
<sta> ఆఁహా ఆఁ సరే అయితే తర్వాత <no-speech>
[370.735]
<no-speech>
[371.955]
<no-speech>
[372.395]
<no-speech>
[373.395]
ఆఁహా <sta> మళ్ళా ఇవాళ పోయినావా (())
[376.995]
<no-speech>
[378.785]
(()) అక్కడకి పోతా అన్నావు కదా కుట్లు విప్పుతా అన్నది ఇవాళ ఆఁ <int>
[382.755]
<no-speech>
[385.645]
ఆఁహా (()) మరి
[387.455]
<no-speech>
[389.085]
(())
[389.805]
<no-speech>
[390.775]
<sta> రేపు విప్పుతారంటనా ఆఁహా మళ్ళా రేపు (())
[394.615]
<no-speech>
[396.165]
వాళ్ళే వస్తారా పోయి విప్పాలనా పోయి (())
[398.935]
<no-speech>
[400.755]
<no-speech> ఓ (()) తీసుకురావాలనా <int>
[403.865]
<no-speech>
[404.965]
(())
[405.935]
<no-speech>
[406.975]
వాళ్ళే వస్తారా <sta> ఊఁహు ఊఁ <no-speech>
[409.375]
<no-speech>
[410.525]
ఊఁ <int> ఏమి చేస్తున్నారు పిల్లలు పిల్లలు ఏమి చేస్తున్నారు
[413.745]
<no-speech>
[415.115]
ఆఁ (())
[416.395]
<no-speech>
[419.455]
అట్లానే ఉంటాది అట్లానే మాట్లాడు <int> పిల్లలు ఏమి చేస్తున్నారు <no-speech>
[423.775]
<no-speech>
[427.265]
<no-speech> ఊఁ ఇంకా అక్క <int> బాగున్నారుగా అందరూ
[432.685]
<no-speech>
[433.525]
<no-speech>
[434.235]
<no-speech>
[436.665]
నేనా వస్తా
[437.975]
<no-speech>
[439.065]
నాకు నిన్న పోయి వచ్చే సరికి మస్త్ చూసుకున్నారు మంచిగా తెలుసా ఆడ
[442.365]
<no-speech>
[443.395]
(()) ఆఁ అంత జ్వరం వచ్చినట్టు ఎట్లానో ఉండే ప్రాణం అంతా
[446.875]
<no-speech>
[449.955]
(())
[450.635]
<no-speech>
[451.695]
అక్క పోయిందంటనా హాస్పిటల్‌కి
[453.155]
<no-speech>
[456.625]
ఆఁ అక్కనా ఇంకా పోలే ఇంకా
[458.635]
<no-speech>
[460.705]
<no-speech>
[461.105]
<no-speech>
[462.685]
ఊఁ <sta> పోలేదు నువ్వు ఇంకా అయితే
[465.085]
<no-speech>
[466.235]
ఊఁ <no-speech> ఊఁ <no-speech>
[468.445]
<no-speech>
[472.465]
ఎవరితో నీతోనే మాట్లాడుతున్నా ఎవరితోని మాట్లాడుతాలేను
[474.815]
<no-speech>
[476.205]
ఆఁ
[476.845]
<no-speech>
[478.645]
ఆఁ మంచిగానే ఉన్నారంట అక్క
[480.025]
<no-speech>
[481.175]
మంచిగానే ఉన్నారంట ఫోన్ చేసింది ఆడనే ఉన్నాడంట మూడు రోజులు అయిందంట వచ్చి
[484.865]
<no-speech>
[485.905]
<int> ఊఁ
[486.565]
<no-speech>
[487.405]
సురేష్ <no-speech>
[488.595]
<no-speech>
[489.435]
మూడు రోజుల
[490.185]
<no-speech>
[491.155]
ఆఁ (())
[492.885]
<no-speech>
[493.815]
ఏమో పని మీద వచ్చిండంటనే అక్క
[495.365]
<no-speech>
[496.775]
పని మీద వచ్చిండంట ఈడనే ఉన్నాడంట రాత్రి ఫోన్ చేసింది ఈడనే ఉన్నాము అమ్మా మంచిగానే ఉన్నాము <int> రెండు మూడు రోజులు అయింది ఫోన్ చేయక (()) మంచిగానే ఉన్నాము అని చెప్పింది
[506.885]
<no-speech>
[509.465]
మంచిగానే ఉన్నాము అని చెప్పింది (()) ఇవాళ పోతాడా అని అంటే ఇవాళ పోతాడంట <int> ఇవాళ పోతాడేమో మంచిగానే ఉన్నారంట అందరూ
[517.515]
<no-speech>
[518.785]
(())
[520.015]
<no-speech>
[522.355]
ఆఁ వచ్చిందంట ఆమె కూడా వచ్చిందంట అక్క
[524.265]
<no-speech>
[525.705]
(())
[526.365]
<no-speech>
[527.635]
ఆమె లేదా నాగేశ్వరమ్మ
[529.765]
<no-speech>
[531.495]
(())
[532.245]
<no-speech>
[533.565]
ఆఁ ఊఁ <sta> నాగేశ్వరమ్మ ఉంది కదా
[536.915]
<no-speech>
[538.045]
<int> నాగేశ్వరమ్మ ఉంటే ఇంకా ఇద్దరు ఉన్నారు అవ్వ మనుమరాలు ఇద్దరు
[541.365]
<no-speech>
[542.885]
(()) ఆఁ అవ్వ మనుమరాలు ఇద్దరు ఉన్నారు
[545.395]
<no-speech>
[546.995]
ఆఁ
[547.685]
<no-speech>
[550.825]
పెన్షన్ తీసుకోడానికంట అక్క
[552.535]
<no-speech>
[554.015]
పెన్షన్ (())
[554.855]
<no-speech>
[556.015]
<no-speech> ఊఁ పెన్షన్ తీసుకుంటాదంట వచ్చింది
[558.695]
<no-speech>
[559.885]
(()) రెండు నెలలు అయిందంట తీసుకోక <int>
[562.975]
<no-speech>
[566.195]
ఏమో మరి వాళ్ళు
[567.495]
<no-speech>
[568.955]
వాళ్ళ ఇష్టము
[569.845]
<no-speech>
[571.045]
ఆఁ
[571.585]
<no-speech>
[572.705]
(())
[574.165]
<no-speech>
[575.165]
<no-speech> మరి నీకు అయితే మంచిగానే ఉంది కదా
[578.625]
<no-speech>
[581.455]
ఊఁ
[582.085]
<no-speech>
[582.885]
(())
[584.755]
<no-speech>
[586.545]
లక్ష్మీ లేదా
[587.365]
<no-speech>
[588.715]
లక్ష్మీ లేదా
[589.895]
<no-speech>
[592.155]
<no-speech> ఏమి ఇవ్వకు నువ్వే మాట్లాడుతుండు అట్లానే మాట్లాడు కట్ అయ్యేదాక మాట్లాడు
[596.475]
<no-speech>
[597.815]
ఊఁ
[598.315]
<no-speech>
[599.920]
