[0.000]
<no-speech>
[1.005]
<no-speech>
[1.365]
(())
[2.925]
alo
[3.785]
(())
[5.555]
menm alo wè kòm on ye
[12.535]
<no-speech>
[13.695]
m_byen wi
[14.765]
<no-speech>
[16.005]
(())
[17.015]
<no-speech>
[18.745]
en
[19.365]
<no-speech>
[21.665]
m_pa tande non
[22.695]
<no-speech>
[24.495]
lakay man wi e ou
[25.925]
<no-speech>
[29.245]
ou menm sèl
[30.115]
<no-speech>
[32.445]
en
[33.115]
<no-speech>
[34.605]
a kiyès
[36.065]
<no-speech>
[40.855]
hmm um sa w_ap fè la
[42.265]
<no-speech>
[45.175]
en
[45.855]
<no-speech>
[48.235]
ou pa prale legliz ay
[51.235]
<no-speech>
[52.355]
(())
[52.805]
<no-speech>
[53.665]
sò fè_m la yè_w di_m ou bezwen m_ m_ale kote_w m_pa wòw ou pa_t konn yon pa t_ap la
[59.025]
<no-speech>
[61.545]
wi yè menm o ale
[64.375]
<no-speech>
[65.715]
<no-speech>
[66.065]
<no-speech>
[68.965]
en
[69.505]
<no-speech>
[70.665]
m_pa tande non
[71.565]
<no-speech>
[72.945]
(())
[73.305]
<no-speech>
[75.535]
kote m_t_ale m_pa_t ale lwen non
[77.405]
<no-speech>
[79.905]
m_di_w m_pa_t ale lwen
[81.435]
<no-speech>
[82.365]
(()) en
[86.225]
(())
[87.495]
non
[89.175]
<no-speech>
[91.795]
hmm (())
[93.935]
<no-speech>
[97.065]
<int> en
[100.855]
<no-speech>
[101.905]
<no-speech>
[102.375]
<no-speech>
[103.245]
lè_w vle ou pa janm disponib epi w_ap mande m_si n_ap wè pita
[108.105]
<no-speech>
[109.125]
<no-speech>
[110.635]
<no-speech>
[111.635]
en
[113.435]
<no-speech>
[115.195]
hmm m_dakò
[116.415]
<no-speech>
[118.575]
en
[120.835]
<no-speech>
[121.715]
<no-speech>
[122.115]
<no-speech>
[123.995]
m_pa tande non
[125.975]
<no-speech>
[128.285]
ou renmen_m m_pa renmen lò w_ap di bagay sa yo vre non
[131.535]
<no-speech>
[133.515]
en
[135.365]
<no-speech>
[137.595]
<laugh> kòm on renmen_m nan m_pa renmen lò w_ap di ba_ay sa yo vre <no-speech> kòm on kòm on renmen_m nan
[149.375]
<laugh> ay se vre
[156.295]
<no-speech>
[157.725]
(())
[158.965]
<no-speech>
[160.925]
m_mèt kwè w_
[162.535]
<no-speech>
[164.115]
e poukisa tout chanjman sa yo antre nou
[166.205]
<no-speech>
[167.925]
poukisa tout chanjman sa yo antre nou
[173.675]
<no-speech>
[174.615]
en
[175.235]
<no-speech>
[176.415]
<no-speech>
[177.085]
<no-speech>
[177.925]
pa gen chanjman ou pa wè chanjman an
[182.315]
<no-speech>
[184.575]
sèlman wè nou pa wè sèlman
[186.485]
<no-speech>
[187.315]
<no-speech>
[187.665]
<no-speech>
[188.835]
<laugh> wè
[192.375]
<no-speech>
[193.465]
<no-speech>
[194.155]
<no-speech>
[195.145]
kòman
[196.375]
<no-speech>
[199.035]
hmm oke
[200.645]
<no-speech>
[204.925]
a kè lè w_ap desann ri sèt <no-speech> talè
[210.905]
<no-speech>
[212.305]
wi bò kilè n_ap wè
[215.165]
<no-speech>
[215.965]
<no-speech>
[216.375]
<no-speech>
[217.685]
katrè bonè konsa
[222.195]
<no-speech>
[223.175]
en
[224.625]
<no-speech>
[225.795]
m_pa tande
[228.185]
<no-speech>
[229.555]
hmm enben oke
[231.465]
<no-speech>
[233.245]
enjen
[235.365]
<no-speech>
[236.315]
en
[236.945]
<no-speech>
[239.275]
ou (()) anpeche yon moun ki ban_m f_on bagay pou_m pale douz minit a yon moun
[245.855]
<no-speech>
[247.045]
(()) en
[248.675]
<no-speech>
[250.565]
m_di_w konsa son moun ki ban_m e fè yon bagay li di_m konsa pou_m relon moun pou_m fè douz minit ap pal_avè_l <no-speech> hmm
[260.865]
<no-speech>
[262.955]
w_ap toujou ale <foreign> de a <no-speech> en <no-speech> m_pa tande
[274.315]
<no-speech>
[275.115]
en
[276.055]
<no-speech>
[278.315]
hmm oke
[280.345]
<no-speech>
[282.595]
<laugh> kibò pou fè
[286.165]
<no-speech>
[287.265]
kounya w_ap pase m_nan tenten e pa vre
[289.425]
<no-speech>
[290.645]
e pa tenten se ye (()) betiz
[293.945]
<no-speech>
[296.165]
anhan (())
[298.645]
<no-speech>
[302.675]
hmm um
[303.515]
<no-speech>
[305.265]
hmm um
[307.105]
<no-speech>
[311.585]
hmm oke
[312.905]
<no-speech>
[317.795]
oke
[320.265]
<no-speech>
[321.235]
hmm um
[322.025]
<no-speech>
[323.105]
<no-speech>
[323.745]
<no-speech>
[326.495]
en
[328.225]
<no-speech>
[331.925]
m_pa tande non
[333.885]
<no-speech>
[338.105]
menm lò pati ou vle nou rete konsa
[340.855]
<no-speech>
[342.705]
oh oh
[344.315]
<no-speech>
[345.435]
hmm <int> ou anvi sa vrèman hmm
[353.105]
<no-speech>
[358.045]
hmm um
[360.225]
<no-speech>
[361.195]
hmm oke mwen depi_w vle m_p_ap gen pwoblèm non
[367.835]
<no-speech>
[369.815]
ou tande
[370.635]
<no-speech>
[372.795]
en
[373.455]
<no-speech>
[375.855]
hmm
[376.745]
<no-speech>
[380.975]
en
[381.615]
<no-speech>
[385.055]
a tout kè_w <laugh> ou toujou ap di ba_ay pou fè_m ri ou menm
[395.545]
<no-speech>
[396.635]
en
[397.695]
<no-speech>
[400.125]
an oke
[402.345]
<no-speech>
[404.335]
hmm um
[405.895]
<no-speech>
[409.725]
hmm
[410.415]
<no-speech>
[412.875]
en
[413.475]
<no-speech>
[416.545]
m_pa tande
[417.355]
<no-speech>
[420.785]
nan ki fèt
[421.815]
<no-speech>
[423.645]
en
[425.585]
<no-speech>
[427.945]
mwen k_te di w_ sa a
[431.605]
<no-speech>
[433.165]
kilè m_te di w_ sa a
[434.535]
<no-speech>
[437.725]
an toupatou gen kominyon an oke (())
[440.805]
<no-speech>
[442.065]
m_g_on moun kite envite_m m_komi non kominyon menm m_pa prale
[445.525]
<no-speech>
[447.965]
(())
[448.685]
<no-speech>
[451.775]
n_a wè onzè
[453.195]
<no-speech>
[454.525]
ki kote
[456.145]
<no-speech>
[457.325]
<int> en
[458.765]
<no-speech>
[460.635]
m_pa tande
[462.545]
<no-speech>
[465.445]
oke
[467.665]
<no-speech>
[469.545]
hmm um
[471.935]
<no-speech>
[473.235]
en
[473.835]
<no-speech>
[474.645]
sim pral avè_w
[477.245]
<no-speech>
[478.255]
m_pa prale
[479.875]
<no-speech>
[482.675]
en an e pa pou anyen non m_pa prale
[487.935]
<no-speech>
[492.355]
(())
[495.775]
<no-speech>
[496.945]
en
[498.535]
<no-speech>
[499.395]
<no-speech>
[499.755]
<no-speech>
[500.845]
m_pa tande
[502.805]
<no-speech>
[506.425]
kisa
[508.445]
<no-speech>
[509.485]
mesaj m_te voye bò la
[512.015]
<no-speech>
[513.105]
poukisa m_te voye yo
[514.785]
<no-speech>
[515.795]
poukisa se ch- kounya ou chwazi mande m_sa
[519.015]
<no-speech>
[519.865]
<no-speech>
[520.985]
<no-speech>
[524.585]
chak lè pou di_m sa ou bliye
[527.505]
<no-speech>
[528.845]
<foreign> <no-speech> mhm
[532.885]
<no-speech>
[533.725]
enjen <no-speech> en
[545.655]
<no-speech>
[547.085]
alo
[547.735]
<no-speech>
[549.655]
hmm um
[550.605]
<no-speech>
[553.585]
m_pa tande
[554.525]
<no-speech>
[557.725]
o paske se vre
[559.965]
<no-speech>
[561.745]
se vre men
[562.785]
<no-speech>
[564.525]
hmm
[568.365]
(())
[569.195]
<hes> m_konnen gade pou wè konbyen minit m_pale avè_w
[574.795]
<no-speech>
[575.695]
konbyen
[579.495]
<no-speech>
[580.495]
nè- nèf <no-speech> konbyen ou di
[584.415]
<no-speech>
[585.275]
oke wi m_di_w paske m_santi sa e pa paske m_santi sa paske m_konnen m_wè sa
[592.715]
<no-speech>
[593.525]
<no-speech>
[593.895]
<no-speech>
[595.675]
kote m_wè sa nan zye m_ kote moun konn wè oh oh
[599.075]
<no-speech>
[599.940]
