[0.000]
<no-speech>
[2.465]
alo
[3.035]
<no-speech>
[5.285]
talè tann mwen
[6.415]
<no-speech>
[7.265]
<sta> kouzin sa k_ap fèt la
[9.905]
<no-speech>
[12.555]
kòman w_ ye Felo Felo Felo <breath>
[14.405]
<no-speech>
[17.465]
m_pa pli mal m_ap fè yon di minit pale avè_w la pou pou <hes> magay Jan-Wonal yo apre tout bagay anfòm
[23.775]
<no-speech>
[27.525]
ya <click> (()) gen pwoblèm avè_w <breath>
[30.035]
<no-speech>
[31.915]
ou wè lòt wè wè (())
[33.715]
<no-speech>
[35.005]
(())
[35.585]
<no-speech>
[36.575]
non ye ye (()) n_antre la <no-speech> jis a minwi wi <no-speech> a minwi nou te ale nan yon rankont
[42.505]
<no-speech>
[43.355]
rankont nou te ale ladan nan tout moun anndan k_te nan rankont lan nou te oblije pran yon <no-speech> ventèn de fi ki pou te <no-speech> moute dosye
[49.945]
<no-speech>
[50.915]
ou konprann sa_k te vin (())
[52.255]
<no-speech>
[53.345]
wi nou pa_t gen tan pou bagay konsa yo m_konnen depi sa ap fèt telefòn yo okipe
[56.635]
<no-speech>
[57.625]
tout telefòn okipe nèt
[58.705]
<no-speech>
[65.165]
n_ap je- n_ap je- n_ap jere
[66.995]
<no-speech>
[68.015]
n_ap <int> jere bagay sa yo (())
[69.555]
<no-speech>
[71.605]
<no-speech>
[72.055]
<no-speech>
[74.615]
tande m_ non <no-speech> e <breath> <hes> kouzin ou an <no-speech> lòt la (())
[79.725]
<no-speech>
[81.665]
sa w_ pale avè_l ye swa kote_l kounye a kote_l
[83.925]
<no-speech>
[86.015]
l_ale lekòl
[86.855]
<no-speech>
[88.165]
li menm l_al lekòl
[89.125]
<no-speech>
[92.465]
<int> man m_vle m_vle pale avè_l pita
[95.145]
<no-speech>
[97.945]
m_di_w m_vle pale avè_l pita <no-speech> pou m_wè_l pou m_rankontre l_ pita
[101.175]
<no-speech>
[103.205]
enhen
[103.835]
<no-speech>
[106.695]
oke <no-speech> kouman w_ ye sa w_ fè
[108.715]
<no-speech>
[112.395]
non non nou te ka rele tou pou n_konn sa k_ap fèt
[115.255]
<no-speech>
[124.605]
kòman mennaj a_w ye
[125.755]
<no-speech>
[128.645]
li anfòm
[129.425]
<no-speech>
[131.405]
ah bon si se vre
[132.985]
<no-speech>
[134.995]
si se vre
[135.955]
<no-speech>
[138.405]
si ou pa si ou pa bay manti
[140.115]
<no-speech>
[142.895]
si ou pa bay manti m_di_w
[144.285]
<no-speech>
[146.105]
si ou pa nan manti
[147.005]
<no-speech>
[150.055]
èske ou pa nan manti
[151.465]
<no-speech>
[159.455]
dakò nan ki lopital w_ale a <no-speech> (()) ki lopital w_ale (())
[162.655]
<no-speech>
[165.885]
veye ou pran kat deja
[167.085]
<no-speech>
[169.135]
ou pran kat deja
[170.225]
<no-speech>
[174.995]
ki nimewo ki nan men w_
[176.105]
<no-speech>
[178.835]
<no-speech>
[179.215]
<no-speech>
[182.205]
ki nimewo k_nan (())
[183.595]
<no-speech>
[186.745]
ah ban_m nimewo a k_nan men w_ lan pou m_ (())
[188.805]
<no-speech>
[191.345]
ah ban_m nimewo a m_di_w
[192.695]
<no-speech>
[194.955]
ban_m nimewo k_nan men w_ lan
[196.255]
<no-speech>
[199.075]
kounye a w_ap ban_m manti ou pa wè
[200.795]
<no-speech>
[202.445]
w_ w_ap bay w_ap bay manti
[204.975]
<no-speech>
[206.285]
w_ w_ap di e mennaj a kouzen m_ ou ye epi w_ gen lòt mennaj a_w <no-speech> depi_w wè w_ nan bagay sa yo m_p_ap di w_anyen <no-speech> oke
[211.775]
<no-speech>
[212.895]
oke <no-speech> m_ap m_ap dekouvri w_
[216.565]
<no-speech>
[218.125]
m_poko j- (())
[218.945]
<no-speech>
[220.405]
ah bon
[221.215]
<no-speech>
[225.705]
<lipsmack> eskize nan randevou <no-speech> nan randevou w_vini oubyen w_ te <hes> <hes> <hes>
[230.195]
<no-speech>
[233.105]
e kòman w_ fè ap malad dri konsa
[234.655]
<no-speech>
[239.305]
piga w_al kite lòt nèg ba_w gwòs non
[240.865]
<no-speech>
[243.095]
<no-speech>
[243.845]
<no-speech>
[245.965]
ah bon <int>
[246.965]
<no-speech>
[250.795]
<int> ou pa gen lòt nèg
[252.605]
<no-speech>
[253.935]
kòman w_ fè viv <no-speech> oh <no-speech> epi epi
[256.675]
<no-speech>
[257.985]
epi Maken <int> gen lòt fanm ou pa gen lòt nèg
[259.885]
<no-speech>
[261.785]
Maken gen lòt fanm ou pa gen yon gason konn gen yon sèl fanm <no-speech> yon fanm konn gen yon sèl nèg <no-speech> pa vin ban_m sa kenbe <no-speech> sa w_ pran
[268.055]
<no-speech>
[270.575]
en
[271.165]
<no-speech>
[273.595]
<no-speech>
[274.085]
<no-speech>
[275.485]
<lipsmack> bon ye swa
[277.575]
<no-speech>
[278.765]
ye swa nèg la dòmi ka yon fanm epi epi li gen sèl ou kòm fanm
[283.025]
<no-speech>
[285.525]
<foreign>
[286.125]
<no-speech>
[288.015]
ye swa nèg la dòmi anba yon fanm <no-speech> epi w_ap di <no-speech> li gen_w ou ou <hes> gen sèl li tou
[293.855]
(())
[294.685]
en <no-speech> pa ban_m sa menm <no-speech> paske m_p_ap kwè
[297.925]
<no-speech>
[299.685]
<int> ou pa renmen pozisyon
[301.855]
<no-speech>
[306.845]
<no-speech>
[307.195]
<no-speech>
[309.625]
<no-speech>
[311.735]
<no-speech>
[312.685]
tout se lougawou pa vin ban_m sa menm <no-speech> tout jèn aktyèlman la se lougawou <no-speech> tout moun ap kouri lougawou nèt <no-speech> kòman w_ t_ap fè viv
[318.815]
<no-speech>
[319.805]
ou t_ap fen mouri sa_k t_ap fen touye_w
[321.825]
<no-speech>
[323.005]
kiyès k_t_ap kiyès k_t_ap fen tiye w_ <no-speech> mwen m_gen nenpòt m_gen nenpòt douz fanm <lipsmack>
[328.365]
<no-speech>
[329.595]
m_gen nenpòt douz fanm (())
[331.725]
<no-speech>
[334.095]
(()) m_dòmi anba yon fanm ye swa anba anba yon grimèl
[337.645]
<no-speech>
[341.915]
an mwen menm se kiyès
[343.145]
<no-speech>
[345.095]
m_pa ka al pale bagay konsa li nèg la jis Pòtoprens <no-speech> ou jis Okap mwen m_Okap
[350.995]
<no-speech>
[360.555]
m_ap poze w_ yon kesyon
[361.645]
<no-speech>
[362.925]
m_ap m_ap poze w_ yon keksyon èske
[365.735]
<no-speech>
[367.645]
non <no-speech> nan yon depa yo ye la wi <no-speech> (())
[370.545]
<no-speech>
[372.745]
wi y_ansanm avè_m <no-speech> menm nan yon chanm li nan yon chanm <no-speech> <hes> <hes> <hes> Manouchka
[378.305]
<no-speech>
[380.195]
Manouchka
[381.035]
<no-speech>
[384.465]
apre Maken ou pa gen lòt nèg <no-speech> <sta> wi ou non <no-speech> non m_a pral pale avè_w pase mwen m_serye sou bagay yo tou
[393.035]
<no-speech>
[394.775]
m_pral wè apre misye ou pa gen lòt nèg menm
[397.135]
<no-speech>
[400.305]
paske m_dwe poze w_ kesyon an
[401.745]
<no-speech>
[404.265]
en <no-speech> bon se yon bagay yon bagay m_ap konsilte m_te poze l_ kesyon sa yo tou
[408.635]
<no-speech>
[412.055]
sa sa <hes> l_ap fè pou mwen <int>
[413.415]
<no-speech>
[415.775]
wi m_a pral konsilte yon bagay m_a pral mete n_sou balans <no-speech> pou_m wè *èske* n_ap èske n_ap (()) fè bagay yo oubyen si l_ap kanpe w_a pral wè sa
[422.125]
<no-speech>
[423.655]
enhen
[424.175]
<no-speech>
[427.535]
an an <no-speech> ou te vle ou te vle gen *misye* ou menm sèl
[431.265]
<no-speech>
[437.015]
ah <no-speech> bon m_marye m_gen m_gen m_gen m_gen plizyè misye poko marye l_pa ka nèg la pa ka jwi lavi a_l
[443.515]
<no-speech>
[445.305]
wi
[446.105]
<no-speech>
[447.715]
(())
[448.935]
<no-speech>
[450.395]
wè wè wè w_ap koute m_ <no-speech> ou wè ou wè madanm an_m
[453.335]
<no-speech>
[454.945]
madanm <no-speech> wi <no-speech> ou fou pou yon moun (()) fi depi m_wè_l ou li gen yon zanmi l_al l_gen kèk moun la depi m_di_l m_vle moun nan <no-speech> degaje l_la pral <int> plenyen men l_ap ban mwen_l kanmenm <no-speech> pase l_konnen mari_y deja kin ay
[466.665]
<no-speech>
[468.895]
l_ap ban_m m- (()) <no-speech> ah l_ap di <int> oh bagay m_toujou ki sesi eksetera Era apre l_ap di m_men al <int> rilaks ou
[476.315]
<no-speech>
[477.935]
<no-speech>
[478.355]
<no-speech>
[480.165]
ou tande
[480.925]
<no-speech>
[483.025]
ou gen zanmi bay nèg la kraze kèk zanmi mari w_ <int> deja nèg ou nèg a_w deja kin an_w deja <int>
[488.155]
<no-speech>
[489.655]
ba nèg la kraze medam yo
[491.265]
<no-speech>
[494.885]
se sa_k fè_l pa se sa_k
[495.975]
<no-speech>
[496.805]
sa k_fè pa (()) devwa
[498.415]
<no-speech>
[500.755]
e sa e sa w_ panse (()) devwa <no-speech> lè w_ gen nèg a_w ou alèz ak li ala bèl bagay
[505.585]
<no-speech>
[508.255]
ah ou pa alèz ak nèg la
[509.555]
<no-speech>
[510.565]
nèg (()) pa ta sipoze nan chache fanm non e ou k_ta sipoze di l_ men yon piti kenbe sa nan men w_ <no-speech> sèl pou sware a m_ba ou li <no-speech> men pou jounen an la men m_bò
[519.065]
<no-speech>
[520.535]
en
[521.115]
<no-speech>
[523.895]
chèche
[524.685]
<no-speech>
[528.035]
<int> li mèt chèche e ou_k pou ba_l
[529.715]
<no-speech>
[530.835]
sa ki pa kouzin ou an lòt ti gason an <no-speech> lòt lòt ti gason an Woudlin kòman yo rele l_menm menm menm nan
[535.795]
<no-speech>
[536.935]
en
[537.505]
<no-speech>
[539.535]
Woudlin <no-speech> kòman l_rele <no-speech> en <int>
[542.295]
<no-speech>
[544.205]
kòman yo rele_l menm sa_k lòt tèt ti gason an
[546.565]
<no-speech>
[547.405]
enben e pou ba misye misye fè yon bagay avè_l pou ou
[549.505]
<no-speech>
[552.525]
<sta> <hes> <hes> madi
[555.385]
<no-speech>
[559.685]
bon misye k_ap retounen <no-speech> wikenn k_ap vini
[562.475]
<no-speech>
[563.605]
<no-speech>
[564.005]
<no-speech>
[568.945]
menm mwen m_reponn pou li (()) degaje w_ ba misye Woudlin pita pou l_ka rilaks li
[573.775]
<no-speech>
[579.445]
tande
[580.045]
<no-speech>
[581.505]
<no-speech>
[583.025]
<no-speech>
[584.855]
misye <no-speech> ah tchwip nèg la ap tchwip se sèl ou l_renmen li pa renmen tout fanm <no-speech> ah <breath> tout gason se gason (()) ou pa ka ap renmen <foreign> fanm <no-speech> nèg la e ou l_genyen
[593.965]
<no-speech>
[595.205]
apa_l bezwen li vini li rele w_
[596.875]
<no-speech>
[599.145]
degaje w_ ba- (())
[599.980]
