[0.000]
<no-speech>
[0.835]
<no-speech>
[1.355]
<no-speech>
[9.175]
alo
[9.795]
<no-speech>
[12.205]
<foreign> cheri
[13.455]
<no-speech>
[15.655]
sa wè l_di
[16.905]
<no-speech>
[20.045]
anyen
[22.985]
<no-speech>
[24.955]
Ah <no-speech> e ou menm tou
[27.035]
<no-speech>
[28.175]
<hes> <no-speech> vi n_fè ti bo pou mwen
[30.555]
<no-speech>
[32.405]
vi n_fè ti bo pou mwen <laugh>
[35.035]
<no-speech>
[37.925]
<laugh> ou pa wè m_toujou
[40.105]
<no-speech>
[43.495]
(()) fè_l kounye a la a <no-speech> kounye a pou fè_l
[48.425]
<no-speech>
[49.535]
<laugh> Ah
[52.515]
<no-speech>
[56.045]
<hes>
[56.685]
<no-speech>
[58.665]
<hes> m_tande_l wi mèsi <no-speech> men si_l te si_w te pre_m li t_ap pi bon
[63.785]
<no-speech>
[68.005]
an an
[68.795]
<no-speech>
[71.775]
an an
[72.645]
<no-speech>
[75.615]
oke
[76.685]
<no-speech>
[78.495]
<hes> <no-speech> sa w_ap fè la
[81.935]
<no-speech>
[86.465]
oke kisa w_ t_ap di_m nan
[88.055]
<no-speech>
[90.965]
Alo <no-speech> kisa w_ t_ap di_m nan
[92.655]
<no-speech>
[96.765]
kilè w_ vle m_ale
[98.005]
<no-speech>
[99.915]
<no-speech>
[100.455]
<no-speech>
[101.625]
<laugh> non m_pa prè pou m_ale <no-speech> yon lòt
[105.405]
<no-speech>
[106.615]
fòk se pa jodi a manje a ye
[108.625]
<no-speech>
[111.675]
<hes>
[112.205]
<no-speech>
[114.875]
non m_paka ale lakay ou konsa
[117.025]
<no-speech>
[117.875]
kite (()) pou ka wè mwen ale konsa
[119.525]
<no-speech>
[123.045]
m_dwe pi bèl
[124.425]
<no-speech>
[126.335]
mhm dwe pi bèl pou m_ka wè sè w_ la
[129.705]
<no-speech>
[132.205]
wi men pi bèl toujou pou m_ka eksite w_ <no-speech> pou m_ka epate w_
[136.455]
<no-speech>
[143.555]
m_ap toujou <no-speech> m_ka ale konsa men m_vle pi bèl pou ou
[146.285]
<no-speech>
[150.055]
<no-speech>
[151.475]
<no-speech>
[155.845]
<hes>
[156.425]
<no-speech>
[159.515]
ou ban_m kisa
[161.385]
<no-speech>
[164.035]
ki komisyon li ye la a
[165.185]
<no-speech>
[168.835]
ki nimewo <no-speech> nimewo lòt tifi
[170.965]
<no-speech>
[177.365]
Lòt sè l_la <no-speech> m_konn lòt sè l_la wi
[179.665]
<no-speech>
[182.125]
<hes>
[182.715]
<no-speech>
[184.745]
hen hen
[185.495]
<no-speech>
[191.285]
oke <no-speech> je <foreign> m_ap fè sa pou ou
[193.855]
<no-speech>
[197.185]
<hes>
[197.775]
<no-speech>
[201.875]
kòman ou di sa a w_ap manke tiye m_lè ou manke tiye m_nan kote_w ap jwenn mwen
[205.905]
<no-speech>
[211.105]
anh oke
[212.745]
<no-speech>
[218.525]
dakò
[219.685]
<no-speech>
[221.015]
m_p_ap okipe_w
[221.825]
<no-speech>
[224.355]
<hes>
[224.915]
<no-speech>
[227.645]
pou mwen vin <foreign> zo wi men lapli ap tonbe se pou_l te mouye_w
[231.445]
<no-speech>
[235.425]
ah
[237.145]
<no-speech>
[238.275]
oke
[239.285]
<no-speech>
[240.365]
<hes>
[240.995]
<no-speech>
[241.815]
(()) <laugh>
[245.175]
<no-speech>
[248.125]
<laugh> ah wi
[251.655]
<no-speech>
[254.735]
an an
[255.485]
<no-speech>
[260.675]
kòman
[261.325]
<no-speech>
[263.845]
nenpòt lè_w vle <no-speech> fò manman_m la paske manman_m pa chita lakay
[268.905]
<no-speech>
[272.355]
kòman
[272.975]
<no-speech>
[275.005]
(())
[275.945]
<no-speech>
[279.795]
<no-speech>
[280.185]
<no-speech>
[285.025]
ah
[285.645]
<no-speech>
[289.365]
enh koze avè_l
[292.415]
<no-speech>
[293.225]
<laugh> koze menm
[297.575]
<no-speech>
[300.315]
<hes>
[300.925]
<no-speech>
[303.645]
non
[304.235]
<no-speech>
[310.385]
hmm hmm
[311.065]
<no-speech>
[313.115]
non
[314.195]
<no-speech>
[316.045]
<foreign>
[316.935]
<no-speech>
[317.755]
tout sa yo y_ap ka fen pale toujou
[320.915]
<no-speech>
[322.455]
pou dat sa a ou poko janm ka fen pale toujou konbyen minit <foreign> minit lan poko fen pase toujou
[326.535]
<no-speech>
[329.145]
<laugh> (())
[333.295]
<no-speech>
[336.925]
oh <foreign> <foreign> <no-speech> yon konpliman
[339.975]
<no-speech>
[347.195]
ah bon
[348.235]
<no-speech>
[350.195]
anh mh
[351.035]
<no-speech>
[354.885]
kòman
[355.595]
<no-speech>
[358.765]
yèswa
[359.695]
<no-speech>
[361.855]
<laugh> ou satisfè
[365.705]
<no-speech>
[367.395]
ah (())
[368.755]
<no-speech>
[371.265]
mhm m_trè satisfè dat sa a ou poko janm ka fini toujou <foreign> minit lan poko pase toujou (()) <laugh>
[381.395]
<no-speech>
[383.695]
Paske m_te anvi al jwenn ou
[386.535]
<no-speech>
[388.885]
m_bezwen al jwenn ou
[389.925]
<no-speech>
[394.435]
ah ou pa kontwole
[396.265]
<no-speech>
[399.695]
<no-speech>
[400.115]
<no-speech>
[402.375]
<no-speech> enh <no-speech> non Wanchkrit ki bagay sa a m_anfas ou m_ap pale avè_w nan telefòn <laugh>
[413.775]
oh <foreign> <foreign> <laugh>
[418.135]
<no-speech>
[420.365]
<int> non
[421.945]
<no-speech>
[427.125]
wi oke sa <foreign> men sa pa bon m_anfas ou w_ap pale avè_m <laugh>
[438.675]
<no-speech>
[444.075]
konbyen <no-speech> ah bon pandan de minit sa kisa_w vle di_m
[448.245]
<no-speech>
[449.895]
nan de minit sa yo
[451.065]
<no-speech>
[453.805]
kòman
[454.415]
<no-speech>
[457.235]
m_p_ap janm souri ankò m_ap move
[460.225]
<no-speech>
[463.715]
<no-speech>
[465.035]
<no-speech>
[470.115]
<no-speech>
[470.465]
<no-speech>
[471.395]
m_p_ap souri ankò
[473.655]
<no-speech>
[474.485]
<no-speech>
[474.845]
<no-speech>
[476.415]
wi
[477.095]
<no-speech>
[480.845]
non w_ap souri <laugh>
[483.025]
<no-speech>
[485.715]
<no-speech>
[486.105]
<no-speech>
[487.135]
m_ka eseye
[488.405]
<no-speech>
[491.365]
(())
[492.195]
<no-speech>
[494.715]
mèsi
[495.965]
<no-speech>
[499.395]
de minit la poko ka fini toujou
[501.165]
<no-speech>
[502.785]
de minit la li poko ka fini toujou
[504.385]
<no-speech>
[508.225]
ah <foreign> a <foreign> kòman m_te ka di ou pa ta ka imajine m_te vle kòmsi se sou kabann mwen lakay mwen an pou mwen kouche pou m_ap pale avè_w paske m_pa renmen lè_m kanpe a tout sa
[519.875]
<no-speech>
[521.465]
<no-speech>
[521.815]
<no-speech>
[527.535]
<hes>
[528.095]
<no-speech>
[531.165]
paske m_pre w_
[532.155]
<no-speech>
[534.205]
si m_te lwe w_ m_pa t_ap fè sa
[535.545]
<no-speech>
[537.525]
Alo
[538.165]
<no-speech>
[547.075]
<no-speech>
[547.635]
<no-speech>
[552.885]
an
[553.675]
<no-speech>
[556.595]
<no-speech>
[557.195]
<no-speech>
[560.775]
ou wè m_ kout <no-speech> èske ou wè m_ kout
[562.865]
<no-speech>
[564.405]
èske ou wè m_ kout
[565.205]
<no-speech>
[568.265]
li fini
[568.895]
<no-speech>
[574.045]
<no-speech>
[576.575]
<no-speech>
[579.145]
<no-speech>
[583.495]
<no-speech>
[584.495]
mèsi paske ou di m_pa t_ap gen wotè
[586.345]
<no-speech>
[592.805]
<no-speech>
[593.025]
<no-speech>
[600.160]
