[0.000]
<no-speech>
[8.602]
<no-speech>
[17.205]
<no-speech>
[20.575]
<no-speech>
[22.315]
alo
[23.075]
<no-speech>
[28.875]
n_ap kenbe wi e ou menm
[30.445]
<no-speech>
[35.165]
<hes> ou konnen nèg pa_m tout bagay ap mache trè byen
[38.525]
<no-speech>
[45.415]
ou konnen fanmi an kanpe djanm tout moun ap boule
[48.815]
<no-speech>
[55.515]
non mwen pa_t ale non e ou menm
[57.755]
<no-speech>
[66.655]
<hes> ou konnen nèg ap boule a lekòl la epi tout bagay ap mache byen
[73.195]
<no-speech>
[82.065]
<hes> pou mwen mwen wè tout videyo yo trè bèl wi men sa_m t_ap pran_k t_ap pi bèl la se Zatrap
[87.825]
<no-speech>
[89.605]
e ou menm
[90.305]
<no-speech>
[95.415]
wi_l pi bèl pase tout lòt yo paske se li ki pale sou jenès la epi li plis pale sou anviwònman an
[103.585]
<no-speech>
[109.995]
<no-speech>
[110.365]
<no-speech>
[119.845]
wi mwen dakò avè_w paske gendwa se li ou pi renmen
[123.025]
<no-speech>
[125.155]
men pale_m de fanmi_w yo <no-speech> kijan yo ye
[127.025]
<no-speech>
[133.875]
<hes>
[134.405]
<no-speech>
[135.375]
jan_m te eksplike_w la deja tout moun ap boule trè byen e ti zanmi yo menm kijan yo ye
[140.055]
<no-speech>
[151.545]
wi mwen pral gade la a wi paske
[154.735]
<no-speech>
[157.555]
paske tout sa tout sa mwen wè k_ap bay nan televizyon yo se bagay ki trè enpòtan pou mwen ta gade e gen anpil bagay k_ap pale sou anviwònman an tou nan *karaval* la
[167.565]
<no-speech>
[174.385]
enben se sa k_fè aswè a la a mwen deside gade_l mwen ta vle mwen ta renmen pou pou mwen gade tout sa k_ap *bat* pandan rès jou yo rès jou gra a
[183.575]
<no-speech>
[193.775]
mwa pwochen
[194.405]
<no-speech>
[195.555]
enben enben oke fò_n ta ale tou wi paske nenpòt lè li t_ap fèt nan nenpòt nan nenpòt pwovens mwen ta renmen kwaze avè_w la paske mwen wè mwen pa janm wè_w
[205.915]
<no-speech>
[216.715]
wi
[217.465]
<no-speech>
[224.535]
non mwen wè_l trè bèl paske li gen yon gran egzanp
[227.015]
<no-speech>
[228.305]
li g_on gran egzanp kisa li g_on gwo egzanp sa k_fè yo di_l <no-speech> paske mwen t_ap gade gen yon pyebwa mwen wè ki tou gen tout bagay kilti lakay yo ladan_l <no-speech> mwen panse se poutèt
[239.585]
sa ki fè yo rele_l yon Ayisyen yon pyebwa
[242.095]
<no-speech>
[250.425]
<no-speech>
[258.755]
wi se sa_m t_ap panse tou men si toutfwa se pa ta sa ou mèt panse se sa_m di_w la
[265.075]
<no-speech>
[272.795]
wi <int> yo gen travay
[273.955]
<no-speech>
[276.775]
<no-speech>
[277.165]
<no-speech>
[279.945]
wi mwen dakò_l wi paske li nan Nò men mwen ta renmen yon lè l_ale nan nan zòn pa_m nan tou nan Grandans paske mwen ta espe- mwen ta espere sa pou_l ta al nan zòn pa_m nan
[290.805]
<no-speech>
[297.455]
<no-speech>
[297.905]
<no-speech>
[303.835]
<no-speech>
[304.215]
<no-speech>
[314.215]
non mwen panse nan Nò a gen plis kote ke Grandans lan paske Grandans lan gen kote k_poko fen fèt pako fen gen wout nan Grandans lan men enben pale_m de bò lakay ou yo menm kijan moun bò lakay ou yo menm ap vire
[326.145]
a zòn nan
[327.215]
<no-speech>
[333.760]
<no-speech>
[340.305]
<hes> bò lakay pa_m nou mete ti anbyans nan ti zòn kote nou ye a men ou konnen depi pa gen aktivite sa k_pou ta fèt pa ka fèt
[349.345]
<no-speech>
[350.175]
e bò lakay ou menm
[351.245]
<no-speech>
[360.810]
<no-speech>
[370.375]
enbyen ou fè menm jan avè_m paske se sa m_ap fè la a tou ak tout gen anbyans bò lakay *men* men mwen menm mwen nan televizyon
[377.305]
<no-speech>
[386.920]
<no-speech>
[396.535]
<int> pou mwen
[397.375]
<no-speech>
[398.475]
ane sa a mwen ta renmen swete pou Kanaval la byen pase pa gen blese tèt fè mal pa gen okenn moun ki nan lopital epi pou tout *ba_ay* ta trè byen pase nan Nò a
[410.185]
<no-speech>
[419.425]
<no-speech>
[419.795]
<no-speech>
[424.765]
<no-speech>
[425.285]
<no-speech>
[428.345]
enben pale_m de politik la menm kijan_w wè politik la ye la a <no-speech> ann Ayiti
[432.445]
<no-speech>
[440.675]
<hes> paske gen de enfòmasyon_m tande ke_m pa ke_m ka ke_m pa fen konnen se sa k_fè mwen *poze_w* kesyon sa a
[448.705]
<no-speech>
[453.355]
enben
[453.895]
<no-speech>
[456.245]
enben
[456.725]
<no-speech>
[461.685]
bon kilti a s_on bagay ki trè ki vrèman enpòtan vre paske *mwen* m_renmen_l paske_l gen bèl bagay ladan_l m_renmen wè kilti lakay la kijan moun yo ap defile nan lari <no-speech> e bèl anbyans k_ap kreye pandan Kanaval la tout bèl dekorasyon k_ap fèt
[479.375]
<no-speech>
[480.225]
nan vil Okap mwen t_ap gade yo nan televizyon mwen wè yo yo trè bèl
[484.505]
<no-speech>
[485.505]
mwen pa konn si_w dakò a- sa_m di_w la
[487.115]
<no-speech>
[495.635]
ah p_ap pa manke nan Kanaval la ou konnen gen anpil bagay k_ap pale sou menm *bagay* kilti yo chèf Deta a ka pa dakò ka vin gen gran diskisyon
[505.525]
<no-speech>
[507.175]
tout sa se li ka kreye pwoblèm nan Kanaval la ki fè_l pa jan_l ta dwe ye
[511.035]
<no-speech>
[519.595]
<hes> ou konnen mwen *menm* mwen *menm* m_pa tèlman fè nouvèl se sa k_fè mwen pa konn anpil enfòmasyon
[525.815]
<no-speech>
[531.945]
<no-speech>
[538.075]
mwen *menm* m_panse pou Kanaval la ta pi bèl ane k_ap vin la a
[540.815]
<no-speech>
[541.645]
fòk fòk ta gen pi bèl dekorasyon e jan_m ta di_w la pou mwen mwen ta renmen_l rive nan zòn pa_m nan nan Grandans
[549.485]
<no-speech>
[550.295]
bèl plezi san frape
[552.585]
<no-speech>
[553.645]
epi tout moun ap byen <foreign> yo nan Kanaval la byen vire
[558.315]
<no-speech>
[559.265]
se sa_m ta swete pou mwen
[560.565]
<no-speech>
[564.155]
e pou ou menm kisa_w ta swete ou <int> swete_k ta fè Kanaval la vin pi bèl
[568.145]
<no-speech>
[573.805]
<no-speech>
[574.225]
<no-speech>
[584.115]
konsa_l t_ap bon vre wi men
[586.395]
<no-speech>
[587.545]
se se paske ou konnen te vin gen gwo dega nan peyi a kilti a genlè vin pa ka byen mache nan kapital la se s_ap fè yo rive byen lwen avè_l konsa
[597.405]
<no-speech>
[600.180]
