[0.000]
<no-speech>
[0.715]
<sta> alo
[5.755]
<no-speech>
[7.655]
<sta> ou wè m_rele_w ou wè m_rele_w m_wè ou te prèske mouri paske m_pa rele_w
[15.595]
<no-speech>
[17.845]
ban_m di_w non e tati Mito ki te voye on ti kòb pou mwen non se pa on ti kòb m_voye mande_l kòb pou mwen te peye lekòl la
[25.545]
<no-speech>
[26.745]
kounye a l_voye_l ban mwen yè kounye a pa Edwin <sta> kounye a Edwin desann a kòb la Pòtapiman se jis an aprè maten an l_sove <no-speech> se maten an l_pote kòb la li pa menm pote_l bon_m non maten an l_sonje l_rele_m kounye a lè l_rele_m kounye a l_di_m konsa tann ni vin tann ni lè_m te di_w m_t_ap benyen an li di vin
[49.845]
tann ni
[50.735]
<no-speech>
[52.635]
<hes> nan estasyon <sta> pou_l ka bon_m ni kounye a l_bon_m ni
[57.035]
<no-speech>
[57.845]
lè_m gade <sta> m_wè tati Mito voye kòb la won pitit <no-speech> pa on goud hey ou te bay senkant Dola pou mwen
[69.095]
<no-speech>
[70.185]
<sta> e depi tann dat sa sa_w t_ap fè toujou
[72.405]
<no-speech>
[75.765]
en <no-speech> depi tann dat sa sa w_ap fè oh oh ou poko genyen_l kisa oh
[80.575]
<no-speech>
[82.065]
<no-speech>
[82.445]
<no-speech>
[83.755]
<sta> mwen m_pa bezwen konn sa w_ap di_m nan oh oh depi tann dat sa e si s_on moun ki t_ap arete pou tisenkant Dola ou ta kite_l arete_m
[93.725]
<no-speech>
[95.785]
<no-speech>
[96.405]
<no-speech>
[102.395]
oh oh <hes> e pa arete y_ap arete_m degaje_w sou <no-speech> oh m_a gen tan eksplike_w
[109.055]
<no-speech>
[110.065]
<no-speech>
[110.755]
<no-speech>
[111.775]
e pa m_rele_w sou on nimewo yon moun m_mande yon minit kounye a li di_m li chaje minit <int> kounye a la kounye a m_pale
[118.735]
<no-speech>
[122.745]
<no-speech>
[123.615]
<no-speech>
[124.865]
ou tande sa_m di_w la
[126.165]
<no-speech>
[129.385]
<sta> <hes> kòman men ou a
[131.075]
<no-speech>
[133.115]
<sta> kounye a si_m rele_w fòk se bezwen pou mwen bezwen_w pou mwen g_on bagay pou mwen di_w
[137.015]
<no-speech>
[138.355]
<no-speech>
[140.455]
<no-speech>
[142.465]
<sta> oke <no-speech> (())
[144.595]
<no-speech>
[145.505]
<sta> m_pa al lekòl jodi a <no-speech> m_pa al lekòl epi m_te g_on grangou
[155.055]
<no-speech>
[156.015]
<sta> m_te g_on grangou se sa k_fè m_pa al lekòl <ring>
[160.885]
<no-speech>
[162.495]
<sta> oh oh grip sa poko ale toujou mwen menm grip pa_m yo m_te kwè e twa jou yo konn fè sou mwen
[167.855]
<no-speech>
[175.535]
<no-speech>
[176.035]
<no-speech>
[179.655]
e di minit wi m_ap fè pa <sta> fèmen sou mwen non ou konnen w_frekan <laugh>
[187.835]
<no-speech>
[188.765]
m_di_w pa fèmen sou mwen ou konnen <int> w_frekan <laugh>
[191.385]
<no-speech>
[195.755]
<sta> oumenm on mal pase_w la on moman ou fèmen
[199.525]
<no-speech>
[203.175]
<no-speech>
[203.705]
<no-speech>
[204.825]
<sta> an m_ta fè_w on bagay la ou fache ou en
[207.575]
<no-speech>
[210.065]
<sta> sa w_ap fè la epi <hes> m_sone_w pa aza wi m_konnen m_p_ap jwenn ou
[217.915]
<no-speech>
[219.195]
<sta> an
[221.335]
<no-speech>
[223.005]
<sta> an enben e Natcom nan menm
[225.735]
<no-speech>
[227.425]
<sta> e Natcom nan
[229.455]
<no-speech>
[231.975]
<no-speech>
[232.345]
<no-speech>
[238.815]
<sta> an oke ban_m di_w non <no-speech> ou te enskri a
[242.865]
<no-speech>
[245.385]
<sta> poukisa
[247.045]
<no-speech>
[248.925]
en
[249.515]
<no-speech>
[253.165]
<sta> ki- <no-speech> kiyès w_ap vin bay kenbe pawòl sa la pou ou <no-speech> oumenm ki <hes> e pa mwen depi ou wè ou pa enskri <hes> ou pa bezwen byen_m konsidere_m kòm
[264.735]
<sta> byen avè_m <no-speech> <hes> ou mèt bliye_m depi ou wè ou pa enskri ou mèt bliye_m
[270.505]
<no-speech>
[274.075]
<sta> ou te kòmanse
[275.695]
<no-speech>
[277.005]
<sta> enben wi m_ap kòmanse bliye_w m_ap fen bliye_w kounye a
[281.485]
<no-speech>
[283.775]
<sta> m_di_w konsa depi ou wè ou pa enskri ou mèt genlè ou konnen e bay *bagay* blag m_ap pale avè_w <no-speech> enben m_di_w sa wi m_di_w m_pa nan blag avè_w
[295.355]
<sta> ou di konsa li mèt en me ou ka enskri on vye on vye papye pou pran ou refize pran papye a pou
[303.675]
<no-speech>
[304.515]
<sta> byennere SenJanBatis dyòl dore kitoye
[307.795]
<no-speech>
[311.775]
m_di_w *konsa* <no-speech> enben m_di_w *konsa* m_di_w *konsa* (())
[315.975]
<no-speech>
[317.845]
<sta> depi ou pa enskri ou mèt bliye_m
[322.105]
<no-speech>
[324.635]
<int> wi
[325.285]
<no-speech>
[326.105]
<no-speech>
[327.125]
<no-speech>
[328.035]
poukisa
[328.815]
<no-speech>
[331.995]
en
[332.635]
<no-speech>
[334.275]
<no-speech>
[334.625]
<no-speech>
[336.145]
li desann avè_l m_di_w e maten an <sta> l_pote_l ban_m ou di l_pa desann avè_l <no-speech> oh oh
[341.805]
<no-speech>
[343.785]
non enhen <no-speech> lè yo lè lè lè yo voye lajan pou mwen yo ban_m lajan_m nan men lè yo voye lajan pou manman_m yo ba manman_m lajan_l nan men li te mèt <no-speech> li te mèt de la
[354.795]
<no-speech>
[355.765]
m_te mèt pa_t la m_te fè konbyen jou Edwin pa_t janm vin isit li pa t_ap ba manman_m kòb la si se pa mwen l_rele pou te di_l bay manman_m ni <no-speech> oh oh
[364.215]
<no-speech>
[367.225]
<no-speech>
[368.255]
<no-speech>
[369.405]
m_wè w_ap vire pawòl la
[371.125]
<no-speech>
[372.835]
<no-speech>
[373.185]
<no-speech>
[374.235]
epa_m di_w
[375.245]
<no-speech>
[376.425]
<sta> yon minit m_mande m_jwenn m_jwenn on pakèt minit
[379.545]
<no-speech>
[382.515]
<sta> pou mwen te rele_w se minit Natcom wi a minit Digicel wi
[387.135]
<no-speech>
[389.475]
sa_k pase_w la a oh oh
[390.995]
<no-speech>
[393.625]
<sta> ou kou <no-speech> enben w_a di_m si_w vle menm lè lè ou konn bon_m manti yo
[400.145]
<no-speech>
[406.105]
<sta> tou manti_w tèlman f_on <no-speech> tou manti_w f_on
[415.355]
<no-speech>
[417.045]
<sta> m_di_w tou manti_w f_on <no-speech> tout jounen w_ap bay manti kòmsi ou pa janm bay
[422.725]
<no-speech>
[425.085]
mèsi poukisa
[426.355]
<no-speech>
[430.245]
mèsi poukisa
[431.525]
<no-speech>
[433.555]
<sta> en
[435.365]
<no-speech>
[438.925]
kiyès
[439.545]
<no-speech>
[442.665]
<no-speech>
[443.015]
<no-speech>
[445.305]
<hes> <sta> apa w_ap vini <hes> w_ap vini <no-speech> en <no-speech> en
[452.185]
<no-speech>
[454.195]
*enben* <sta> e sa_m di_w m_di w_ap vini
[456.335]
<no-speech>
[459.575]
<sta> oh oh <laugh> ou p_ap vini <no-speech> mwen menm vant mwen plen <no-speech> m_pa gen kòb ditou non tati Miwo voye sisan Dola lekòl ban_m li tou won menm ven Dola
[470.765]
<sta> menm ven Dola l_pa <foreign> sou li
[474.435]
<no-speech>
[475.895]
en <sta>
[477.065]
<no-speech>
[478.545]
<sta> ki mwa sa e sisan Dola m_te ret pou mwen bay lekòl la wi m_pa ou konnen m_konn nan kontwole pa mwa
[485.245]
<no-speech>
[488.445]
<sta> m_tande yo di o depi ou pa vini a lajan pa gen afè de dwe se swa ou chita lakay ou oubyen ou tou po lajan an
[495.655]
<no-speech>
[497.165]
<sta> mèt Gadi m_te tande k_ap di sa wi mwen menm <hes> sa_m ba_l regle pou mwen
[501.885]
<no-speech>
[503.575]
m_pa gen kont <sta> pou mwen rann a mèt Gadi
[505.675]
<no-speech>
[507.485]
en
[508.145]
<no-speech>
[509.255]
en
[509.885]
<no-speech>
[511.265]
kisa
[511.935]
<no-speech>
[514.145]
kisa <int>
[515.085]
<no-speech>
[516.795]
oumenm menm <sta> depi w_ap pale avè_m ou toujou gen a on lòt moun pou ap
[519.825]
pale
[521.615]
<sta> kijan mennaj ou ye
[523.675]
<no-speech>
[528.035]
kisa
[528.665]
<no-speech>
[532.275]
<sta> bon m_mande_w kijan mennaj ou ye ou pa ka reponn
[534.835]
<no-speech>
[536.875]
<sta> pitit <no-speech> w_a fè_m fè konesans
[541.025]
<no-speech>
[542.735]
w_ap fè_m <sta> fè konesans
[544.055]
<no-speech>
[546.415]
<sta> èske w_ap fè_m fè konesans
[548.365]
<no-speech>
[550.125]
a <int> mennaj ou
[551.145]
<no-speech>
[555.795]
en <sta> <no-speech> en
[557.285]
<no-speech>
[558.915]
<sta> kòman si_m nan rèv la
[560.185]
<no-speech>
[566.475]
<int> gen tan
[567.155]
<no-speech>
[568.275]
li bonè
[569.155]
<no-speech>
[572.115]
li <sta> granmmaten w_ap gen tan
[574.025]
<no-speech>
[577.775]
tanpri *pou* mwen wi <int> papa_m nan
[579.465]
<no-speech>
[582.465]
<sta> m_konnen_w
[585.545]
<no-speech>
[593.265]
depi kilè <int> la a
[594.315]
<no-speech>
[596.495]
<sta> depi kilè konsa <no-speech> konbyen tan ou genyen
[599.435]
<no-speech>
[599.960]
