[0.000]
<no-speech>
[5.445]
<no-speech>
[6.115]
<no-speech>
[8.525]
wi madanm <laugh> ou degaje_w pou vòlò kat la vre
[19.635]
<no-speech>
[22.015]
<laugh> a fè de kat ou gen a m_ap fè la telefòn mwen m_gentan ap chèche la m_pa wè kote m_ depoze l_ non
[30.735]
<no-speech>
[35.745]
<no-speech>
[36.135]
<no-speech>
[39.285]
voye lajan vini voye lajan an vini kot malen malen al Malpas la
[47.675]
<no-speech>
[49.225]
<no-speech>
[49.995]
<no-speech>
[51.935]
men koze (())
[54.215]
<no-speech>
[55.045]
se vre m_pa gentan wè_l maten an non
[57.845]
<no-speech>
[59.825]
nan lapè a
[61.975]
<no-speech>
[69.605]
krazòt la men timoun sa yo
[73.295]
<no-speech>
[74.575]
<no-speech>
[75.855]
<no-speech>
[78.785]
enben se sa k_fè lè timoun nan ap f_on bagay ki pa bon e pou bat li menm
[84.335]
<no-speech>
[86.225]
e sa k_ fè lè ti (())
[88.715]
<no-speech>
[90.565]
kote m_ depoze telefòn nan la a
[93.325]
<no-speech>
[94.365]
e li m_ap chèche la wi
[96.315]
<no-speech>
[99.885]
wi m_gentan moute lè a wi sou machin nan genlè e nan
[106.785]
<no-speech>
[108.375]
(()) enben kite minit lan fini non
[113.785]
<no-speech>
[115.335]
<no-speech>
[116.115]
<no-speech>
[118.335]
<no-speech>
[119.015]
<no-speech>
[120.865]
<no-speech>
[121.425]
<no-speech>
[122.415]
kòman an grip la
[125.605]
<no-speech>
[126.425]
<no-speech>
[127.395]
<no-speech>
[128.535]
li gentan an e sa k_ fèy di_m kote m_pran grip la
[131.695]
<no-speech>
[133.185]
<hes> m_di_l sa_l t_ap di Lilin la li di_m si_l ret avè_m
[137.505]
<no-speech>
[138.865]
frekan
[141.745]
<no-speech>
[146.035]
frekan
[147.685]
<no-speech>
[154.815]
(())
[155.615]
<no-speech>
[158.055]
katimod k_ap di_m konsa
[160.315]
<no-speech>
[162.485]
katifi di m_chanje timoun yo m_sezi
[168.905]
<no-speech>
[171.415]
m_pa konnen non (()) sè (()) nan
[175.005]
<no-speech>
[176.175]
menm a timoun yo m_chanje
[178.235]
<no-speech>
[183.835]
m_pa konn a kisa m_chanje ti (())
[185.595]
<no-speech>
[186.425]
mande m_ non m_pa konn a kisa m_chanje
[188.765]
<no-speech>
[190.865]
a kisa m_pa chanja m_pa okipe li
[194.025]
<no-speech>
[195.335]
m_tandem chanjavè
[198.515]
<no-speech>
[199.605]
<no-speech>
[200.575]
<no-speech>
[202.435]
en
[204.455]
<no-speech>
[205.535]
<no-speech>
[206.255]
<no-speech>
[208.175]
<no-speech>
[211.635]
<no-speech>
[214.155]
Lilin okipe
[215.935]
<no-speech>
[220.675]
bon m_paka
[221.565]
<no-speech>
[223.105]
m_pa konnen genlè e jod- katimod ki di_m sa yè sòm
[226.545]
<no-speech>
[228.415]
(()) m_pa konnen (()) kòm yo di granmoun pa konn bay manti m_pa fouti di e manti
[237.185]
<no-speech>
[238.675]
m_pa konnen
[239.365]
<no-speech>
[244.655]
m_paka di
[245.645]
<no-speech>
[247.115]
bon pa moute a menm menm pa moute a menm son bagay m_pa_t ka moute yè (()) sim g_on bagay m_ap fè si_m pa ka moute m_pa moute
[258.725]
<no-speech>
[259.835]
m_pa moute
[261.135]
<no-speech>
[262.115]
m_pa kwè se ta sa
[264.395]
<no-speech>
[267.035]
lò fen
[267.975]
<no-speech>
[269.615]
lò fen pal_avè_l sone telefòn nan pou mwen tande
[272.365]
<no-speech>
[274.055]
lò fen lè minit lan fen boule
[276.365]
<no-speech>
[277.615]
<no-speech>
[278.005]
<no-speech>
[278.855]
kounya_l
[279.675]
<no-speech>
[281.655]
m_pa m_pa wè kote m_mete_l non m_pa ta renmen_l gentan dechaje paske l_ap pèdi chaj kounya la ou pral g_on lòt kat ankò ou pral rele lilika
[292.725]
<no-speech>
[295.795]
<no-speech>
[297.605]
<no-speech>
[301.675]
<no-speech>
[302.185]
<no-speech>
[303.905]
mwenmenm moun m_sot grenn moun m_sot rele a m_pa jwenn ni e li m_te ka pal_anpil avè_l apresa Dafne m_rele Dafne pa ka nan pale paske <hes> li okipe li nan ba_ay tra- ba_ay famasi
[315.535]
li pa ka nan pal_anpil
[316.525]
<no-speech>
[317.725]
moun m_te ka ki epav m_te ka pal_anpil avè_l la e mesaj yo di_m kite m_te ka (()) lòt kat tou wi
[325.435]
<no-speech>
[327.665]
<no-speech>
[328.035]
<no-speech>
[329.115]
kisa se lopital malen al la maten an
[331.665]
<no-speech>
[332.995]
sa vle di Malpas la transfòman lopital
[336.415]
<no-speech>
[338.595]
<no-speech>
[338.945]
<no-speech>
[340.175]
<no-speech>
[340.725]
<no-speech>
[351.055]
Malpas l_ale
[353.195]
<no-speech>
[356.305]
<no-speech>
[357.705]
<no-speech>
[358.515]
sa wi lò manman pitit
[359.815]
<no-speech>
[361.535]
ou pa konn demen
[362.815]
<no-speech>
[366.235]
<no-speech>
[366.605]
<no-speech>
[368.385]
<no-speech>
[368.775]
<no-speech>
[369.875]
<no-speech>
[371.115]
<no-speech>
[371.975]
w_ap tann
[376.425]
<no-speech>
[377.925]
<no-speech>
[378.275]
<no-speech>
[379.135]
wouy ka enprevu
[382.835]
<no-speech>
[387.485]
enprevu
[389.895]
<no-speech>
[391.375]
(())
[392.025]
<no-speech>
[394.615]
bon l_e gendwa f_on ba_ay ki pi grav sa son ba_ay ki anfle l_ap dezanfle talè a pral bal ba_ay poul dezanfle bon l_e gendwa pi mal (())
[405.705]
te bon yè m_di_w chak lè m_gad ti pope kè_m fè jip
[409.135]
<no-speech>
[413.725]
<no-speech>
[414.805]
<no-speech>
[416.735]
kè_m fè jip
[418.035]
<no-speech>
[427.545]
ou pa (())
[428.835]
<no-speech>
[430.295]
ou pa bezwen di pitit
[433.745]
<no-speech>
[437.895]
sa vle di jodi a kat jiyè twa konbyen jiyè l_ye la twa
[442.005]
<no-speech>
[443.305]
twa jen
[444.415]
<no-speech>
[445.455]
twa jen a vle di
[448.165]
<no-speech>
[449.075]
konbyen jiyè menm
[450.435]
<no-speech>
[452.405]
an li on bon ti lè tou wi
[454.945]
<no-speech>
[456.915]
ou gen tan devan w_ toujou men pitit mwen depi_w wòw gentan nan kenz jen la a mwa jen an fini wi
[462.535]
<no-speech>
[464.195]
konn Jòj depi kenz rive
[466.155]
<no-speech>
[473.485]
a vle di egzamen nan bouda_w mwenmenm (()) kwè m_ap gen vakans menm paske m_pral nan staj
[481.455]
<no-speech>
[484.275]
<no-speech>
[484.685]
<no-speech>
[485.775]
<int> vakans lan se aprè staj
[490.775]
<no-speech>
[492.065]
<no-speech>
[492.475]
<no-speech>
[496.375]
<no-speech>
[496.835]
<no-speech>
[498.975]
kibò kan sa a nou pa ka mennen lòt moun
[502.485]
<no-speech>
[503.675]
nou pa ka mennen lòt moun nan kan an
[506.155]
<no-speech>
[507.105]
<no-speech>
[507.495]
<no-speech>
[514.365]
<no-speech>
[515.055]
<no-speech>
[519.135]
g_on kote k_bay bon moun (()) k_ap Pòdepè
[521.545]
<no-speech>
[523.865]
<no-speech>
[524.975]
<no-speech>
[527.095]
<no-speech>
[527.485]
<no-speech>
[531.895]
<no-speech>
[532.255]
<no-speech>
[533.075]
(()) sa
[533.905]
<no-speech>
[538.045]
<no-speech>
[541.165]
<no-speech>
[543.025]
(())
[544.985]
<no-speech>
[547.375]
<int> deja konnen
[550.295]
<no-speech>
[551.245]
<no-speech>
[551.685]
<no-speech>
[554.685]
se sè (())
[556.215]
<no-speech>
[559.475]
<no-speech>
[559.855]
<no-speech>
[560.905]
enben li pa obligatwa
[562.355]
<no-speech>
[564.715]
li pa obligatwa
[566.405]
<no-speech>
[569.245]
anpou di ou pa konn sou prale a sou pa prale pa gen sa non
[572.715]
<no-speech>
[573.875]
<int> se degaje w_ fè kòb ou <foreign> la se pa ti strès non apre strès (()) pou degaje w_ fè kòb ou pou ale
[583.065]
<no-speech>
[584.935]
bon poukisa yo pa_t gradye nou nan dezyèm ane pito
[587.635]
<no-speech>
[589.625]
(()) li t_ap pi bon ou t_ap gentan nou nou
[597.785]
<no-speech>
[598.915]
nou t_ap nou ta vale nan
[600.275]
<no-speech>
[600.420]
