[0.000]
<no-speech>
[6.985]
wi alo
[7.845]
<no-speech>
[9.615]
alo
[10.225]
<no-speech>
[11.945]
wi
[12.495]
<no-speech>
[19.585]
en
[20.155]
<no-speech>
[24.675]
e la m_ap rete m_p_ap fè m_p_ap leve non
[27.165]
<no-speech>
[28.815]
kote m_ ye a bon
[29.875]
<no-speech>
[31.755]
<int> (())
[33.065]
<no-speech>
[35.355]
(())
[36.155]
<no-speech>
[37.215]
en
[37.735]
<no-speech>
[41.595]
anba bra_m
[42.305]
<no-speech>
[43.855]
(())
[47.735]
<no-speech>
[48.765]
m_ap tande w_ wi m_di_w wi
[50.965]
<no-speech>
[52.355]
Kenkenn m_di_w wi
[53.775]
<no-speech>
[56.145]
<no-speech>
[56.515]
<no-speech>
[58.045]
en
[58.875]
<no-speech>
[61.625]
en
[62.115]
<no-speech>
[64.765]
mwen e pa mwen m_pa gen minit non
[66.555]
<no-speech>
[68.905]
non pa gen <foreign> (()) genyen
[72.215]
<no-speech>
[73.125]
swa maten an oubyen yè m_ekri w_ m_wè ou pa fè_m
[75.815]
<no-speech>
[79.415]
(())
[81.095]
(())
[82.515]
(())
[82.935]
<no-speech>
[85.755]
mwen di w_ sèl ou ki di sa
[87.495]
<no-speech>
[90.935]
sèl ou ki di_l
[91.905]
<no-speech>
[94.575]
alo m_di_w sèl ou menm ki di bagay sa sèl ou menm ki di_l
[99.705]
<no-speech>
[101.315]
sò di a
[102.295]
<no-speech>
[104.115]
(())
[108.135]
<no-speech>
[111.285]
(())
[112.865]
<no-speech>
[114.975]
(())
[116.045]
<no-speech>
[118.465]
(())
[118.835]
<no-speech>
[120.365]
talè a menm bòn fèt ou pa_t voye menm
[122.195]
<no-speech>
[123.655]
(())
[124.095]
<no-speech>
[125.225]
pa menm voye di_m bòn fèt
[126.335]
<no-speech>
[131.545]
mwen di konsa
[132.805]
<no-speech>
[134.215]
alo
[134.805]
<no-speech>
[135.755]
mwen di konsa yè_w pa menm (())
[139.365]
<no-speech>
[141.215]
ou pa menm di_m bòn fèt
[142.355]
<no-speech>
[147.185]
en
[147.825]
<no-speech>
[149.465]
enjen m_pa bezwen ankò m_pa bezwen ankò
[151.805]
<no-speech>
[153.295]
m_pa bezwen ankò
[154.405]
<no-speech>
[158.885]
enjen
[159.565]
<no-speech>
[163.955]
pou_m te di w_ mwen k_pou te di sa
[165.375]
<no-speech>
[167.035]
kite lè pa_w la rive (()) m_ap di bòn fèt (())
[169.625]
<no-speech>
[175.325]
(())
[175.705]
<no-speech>
[176.725]
en-en
[177.725]
<no-speech>
[181.755]
hmm um mè wi
[183.065]
<no-speech>
[184.925]
mè wi
[185.665]
<no-speech>
[186.525]
(()) santi sa kiyès ki ba ou_l
[188.735]
<no-speech>
[189.975]
kiyè kibò
[190.645]
<no-speech>
[191.915]
kiyès kibò minit sa a
[193.135]
<no-speech>
[195.575]
enjen
[196.175]
<no-speech>
[200.745]
sa pa telefòn ou non
[201.895]
<no-speech>
[203.635]
(()) telefòn w_an
[204.605]
<no-speech>
[206.865]
non
[207.345]
<no-speech>
[212.585]
moun nan pa gen non
[213.455]
<no-speech>
[215.635]
moun nan pa gen
[216.125]
(())
[218.905]
m_mande w_ si_l pa gen non
[220.075]
<no-speech>
[222.495]
m_mande si_l pa gen non enjen
[224.315]
<no-speech>
[225.895]
en
[226.405]
<no-speech>
[228.845]
m_pa tande
[229.505]
<no-speech>
[232.015]
(())
[232.515]
<no-speech>
[234.445]
en
[236.095]
<no-speech>
[237.355]
<no-speech>
[237.745]
<no-speech>
[239.175]
wi fò_m konnen kòman m_pa konnen
[240.595]
<no-speech>
[241.895]
sa g_on fòk pou_m konnen_n
[243.175]
<no-speech>
[245.065]
en sa g_on fòk pou_m konnen_n
[246.515]
<no-speech>
[248.575]
(()) sa g_on fòk pou_m konnen
[250.825]
<no-speech>
[253.105]
mwen di w_ konsa èske sa g_on fòk pou_m konnen
[255.735]
<no-speech>
[258.265]
en
[258.805]
<no-speech>
[259.655]
an enpi w_ap
[260.465]
<no-speech>
[264.475]
epi w_ap (()) bezwen konnen
[266.285]
<no-speech>
[270.095]
epi w_ap di e sim bezwen konnen en
[272.645]
<no-speech>
[274.105]
epi w_ mande m_ eskim bezwen
[275.195]
konnen
[278.455]
mwen di w_ konsa epi w_ap di_m eskim bezwen konnen
[281.635]
<no-speech>
[283.355]
èske mwen bezwen konnen wi
[284.895]
li
[288.735]
an (())
[290.555]
<no-speech>
[294.505]
<no-speech>
[295.275]
<no-speech>
[297.385]
(())
[298.035]
<no-speech>
[305.115]
alo
[305.535]
<no-speech>
[308.305]
(())
[308.675]
<no-speech>
[311.275]
alo wi alo
[313.685]
<no-speech>
[314.515]
(())
[314.905]
<no-speech>
[317.385]
(())
[317.835]
<no-speech>
[320.015]
m_pa konnen si g_on lòt
[321.375]
<no-speech>
[323.125]
se vre
[323.655]
<no-speech>
[326.765]
ebyen oke
[327.765]
<no-speech>
[330.385]
en
[330.845]
<no-speech>
[334.485]
o m_g_on bagay pou_m di_w
[337.145]
<no-speech>
[338.845]
m_g_on bagay pou_m di_w men e pa kounya non
[341.055]
<no-speech>
[343.195]
o pa fè_m sa (())
[345.985]
<no-speech>
[351.775]
enjen
[352.595]
<no-speech>
[353.785]
<no-speech>
[358.665]
<no-speech>
[360.505]
<no-speech>
[361.415]
<no-speech>
[362.445]
<no-speech>
[363.395]
<no-speech>
[364.295]
en
[364.775]
<no-speech>
[368.115]
<sta> oh oh non <no-speech> ou mèt pale
[370.065]
<no-speech>
[371.135]
ou mèt pale (())
[373.415]
<no-speech>
[375.275]
ou mèt pale lèfini m_a di_w li
[376.545]
<no-speech>
[378.755]
(())
[379.175]
<no-speech>
[383.375]
fini mwen a di_w li ou mèt pale
[385.205]
<no-speech>
[386.365]
<no-speech>
[386.725]
<no-speech>
[388.295]
alo
[388.655]
<no-speech>
[389.895]
mwen di_w konsa ou mèt pale lè (())
[391.785]
<no-speech>
[392.735]
<sta> <no-speech> se vre (())
[396.175]
<no-speech>
[397.525]
<sta> mwen di konsa <no-speech> mwen di konsa (())
[404.835]
<no-speech>
[406.095]
mwen di_w konsa lèfini m_a gentan di_w li ou mèt di_m sa w_ap di_m nan
[409.395]
<no-speech>
[411.915]
enben o pa fè_m (())
[412.775]
<no-speech>
[413.875]
on bagay m_ap di_w tann <hes> mwen_k gen pou_m di_w ou pa ka tann mwen e mwen_k di m_ap di_w tann mwen
[419.435]
<no-speech>
[421.905]
wi tann mwen <laugh>
[423.255]
<no-speech>
[424.805]
pa anyen (())
[427.105]
<no-speech>
[430.835]
pa di_w w_ap konnen enben si_m pa ta sim pa_t vle_w konnen m_pa t_ap di m_pa t_ap di_w m_g_on ba_ay m_ap di_w
[435.205]
<no-speech>
[438.515]
<no-speech>
[438.905]
<no-speech>
[440.795]
m_ap toujou di nou ki moun (())
[442.435]
<no-speech>
[445.025]
(())
[446.035]
<no-speech>
[451.765]
wi m_ap tande w_ wi
[452.675]
<no-speech>
[455.075]
m_ap tande_w
[455.965]
<no-speech>
[458.105]
<no-speech>
[460.215]
<no-speech>
[462.515]
m_ap tande w_ wi (())
[467.475]
<no-speech>
[468.815]
ou pa ka pi prese pase m_ e mwen k_di w_
[470.785]
<no-speech>
[472.825]
en
[473.355]
<no-speech>
[476.765]
(())
[477.515]
<no-speech>
[481.755]
(()) en
[484.355]
<no-speech>
[486.425]
(()) ou konn sa_l ye
[490.125]
<no-speech>
[491.055]
(())
[491.505]
<no-speech>
[492.955]
(())
[493.415]
<no-speech>
[494.715]
<laugh> kè_w sou biskèt
[496.955]
<no-speech>
[497.955]
wi son bagay m_ap en
[500.105]
<no-speech>
[503.445]
se vre
[504.165]
<no-speech>
[505.875]
e (())
[507.055]
<no-speech>
[510.555]
ou pa konn
[511.135]
<no-speech>
[512.665]
<laugh> hey sò konnen m_ (()) pandan m_chita lakay la men g_on
[519.005]
<no-speech>
[519.925]
ou wè m_p_ap sere_w m_pa konn pou ou menm si w_ap sere m_pa g_on bagay m_konnen mwen menm m_fè pou m_pa rele_w pou m_pa di w_ sa
[525.395]
<no-speech>
[526.180]
