[0.000]
<no-speech>
[4.365]
alo
[4.905]
<no-speech>
[7.305]
m_anfòm wi e oumenm
[8.235]
<no-speech>
[11.485]
<hes> m_la wi m_poze ou konn *bagay* yo kibò ou ye la a
[14.005]
<no-speech>
[18.165]
e
[18.765]
<no-speech>
[24.685]
egzamen jesyon d_pwojè a se demen l_ye
[26.295]
<no-speech>
[28.795]
ou fè
[29.195]
<no-speech>
[30.435]
enhen
[31.075]
<no-speech>
[33.735]
oke ban_m di_w
[34.845]
<no-speech>
[35.705]
ou gentan fè kopi dokiman yo
[37.325]
<no-speech>
[39.385]
wi
[39.895]
<no-speech>
[45.405]
dokiman yo yo anpil
[46.655]
<no-speech>
[50.405]
oh
[50.865]
<no-speech>
[53.265]
donk <no-speech> egzamen an w_a w_ap konpoze ak tout dokiman_w nan men_w tout bagay
[56.665]
<no-speech>
[61.855]
<hes>
[62.515]
<no-speech>
[63.805]
ah enben ou konnen tout moun la y_ap fè efò <no-speech> e ou menm kòman fanmi_w ye menm
[67.995]
<no-speech>
[73.265]
ou pa al lopital avè_l
[74.345]
<no-speech>
[77.625]
<sta> enhen
[79.595]
<no-speech>
[82.195]
sa misye genyen
[83.105]
<no-speech>
[86.955]
<hes> lafyèv sa_k ba misye lafyèv sa menm
[88.855]
<no-speech>
[90.705]
sa_k ba misye lafyèv sa menm
[92.015]
<no-speech>
[97.045]
mhm
[97.695]
<no-speech>
[99.505]
yè
[100.185]
<no-speech>
[102.865]
enhen
[103.475]
<no-speech>
[106.435]
misye misye pa misye pa pase remèd sou klou a
[108.925]
<no-speech>
[112.565]
kèt
[113.275]
<no-speech>
[114.075]
<hes> lò-
[115.075]
<no-speech>
[116.495]
enhen
[117.105]
<no-speech>
[118.665]
oh yo di_m sa wi men m_panse se pou match la ki fè l_pa vin lekòl wi
[122.115]
<no-speech>
[126.675]
<foreign> <no-speech> <hes> m_panse w_ap wè Wesnèl lekòl la pavre
[129.965]
<no-speech>
[132.795]
<no-speech>
[133.155]
<no-speech>
[136.415]
wi jan_m di_w la men devwa dwa a <no-speech> entwo a pa bon devlopman an pa bon chaje mo k_pa akòde ladann se pa de travay nou pral gen pou_n fè sou devwa sa a non
[144.665]
<no-speech>
[146.425]
wi
[147.105]
<no-speech>
[148.125]
kilè n_ap
[148.705]
<no-speech>
[150.135]
kilè n_ap fè sa la a
[151.075]
<no-speech>
[154.425]
vandredi
[155.305]
<no-speech>
[158.805]
<hes> kilè pou_n renmèt li la a menm
[160.265]
<no-speech>
[164.695]
lendi a k_ap vin la a
[165.815]
<no-speech>
[168.405]
oh
[169.265]
<no-speech>
[170.285]
wi <hes> fò_n ta panse sou li la an an anvan semèn nan fini wi
[174.225]
<no-speech>
[176.985]
jan m_di_w la <no-speech> entwodiksyon pa bon devlopman konklizyon bagay yo melanje
[182.925]
<no-speech>
[185.125]
wi
[185.775]
<no-speech>
[188.385]
se <no-speech> rechèch *se* rechèch pèsonèl yo ki mal ajanse apre sa <breath> nòt pwofesè a te bay la sa l_mete kòm nòt pwofesè a yo nòmal wi
[196.665]
<no-speech>
[198.355]
wi se sèl rechèch
[199.545]
<no-speech>
[203.255]
epi ban_m ba_w <no-speech> Poutchi ou pa nan spesyalize
[206.525]
<no-speech>
[209.705]
oh <no-speech> fò_m ta wè nè-
[212.745]
<no-speech>
[214.255]
enh
[214.825]
<no-speech>
[215.995]
<no-speech>
[216.375]
<no-speech>
[217.185]
epi ou konnen lekòl la men ap trakase_m <int> m_te g_on bagay pou mwen t_al ede misye fè semèn pase a m_te oblije pa ale akoz lekòl la
[224.345]
<no-speech>
[225.495]
ou konprann
[226.195]
<no-speech>
[228.325]
<foreign> <no-speech> a monchè sa w_ap fè la a
[230.555]
<no-speech>
[235.475]
wi Djimi al regle on *bagay* pou manman_l nan meri a m_tande y_ap fè verifikasyon y_ap verifye enfòmasyon mesye yo <no-speech> on ekip bagay <no-speech> mè wi
[244.485]
<no-speech>
[246.675]
wi *bagay* kay *bagay* pou al peye pou al peye leta
[249.865]
<no-speech>
[252.345]
mhm
[253.035]
<no-speech>
[258.315]
*se* pa kay li non kay <no-speech> kay manman_l
[261.305]
<no-speech>
[265.065]
<hes> manman Djimi Okay se se s_on lè konsa manman misye antre wi
[269.505]
<no-speech>
[271.175]
yon lè konsa manman misye vin Pòtoprens wi
[272.805]
<no-speech>
[273.955]
wè <no-speech> manman misye ret Okay nèt se jis voye manje pou misye a sè_l yo epi <no-speech> voye kòb tou
[282.335]
<no-speech>
[284.035]
(()) se sa k_fè depi yo bay yon ti vakans misye tou pike
[287.095]
<no-speech>
[288.075]
pouse bourik li l_al Okay la se vre
[289.915]
<no-speech>
[291.755]
(())
[292.365]
<no-speech>
[293.445]
non depi yo bay vakans bon bon <no-speech> dènye vakans nou pran an misye te tou vin a valiz li li pa menm antre lakay li menm l_annik <no-speech> fini epi <no-speech> l_al Okay <no-speech> on fwa
[303.835]
<no-speech>
[304.765]
wi
[305.505]
<no-speech>
[310.655]
a monchè misye misye misye toujou di sa wi misye di li menm se nèg nan mòn li ye li menm se konesans li vin pran nan Pòtoprens epi al travay nan peyi_l
[318.815]
<no-speech>
[324.075]
<no-speech>
[324.505]
<no-speech>
[325.495]
a mwen *menm* ou kwè epa Jeremi m_sòti wi moun lakay mwen *se* moun Jeremi men mwen *menm* *se* nan *se* nan vil la m_fèt mwen *menm*
[331.115]
<no-speech>
[333.725]
oh bon se Pòtoprens m_fèt *se* moun lakay mwen ki moun Jeremi an wi savledi lè yo vle mennen_m ya mennen_m
[338.475]
<no-speech>
[346.505]
enhen
[347.185]
<no-speech>
[351.455]
oh l_e byen bon pou ou la a wi
[353.095]
<no-speech>
[355.935]
men m_panse si yo *bon_m* on si yo bay yon Kanaval Jeremi m_panse m_a <no-speech> m_a f_on kout pye mwen menm
[360.435]
<no-speech>
[362.245]
<laugh> si yo bay
[363.495]
<no-speech>
[365.265]
on fwa
[366.045]
<no-speech>
[367.465]
<no-speech>
[367.935]
<no-speech>
[368.965]
enhen
[369.575]
<no-speech>
[372.885]
m_te <no-speech> misye t_ap misye t_ap di sa semèn pase a wi <no-speech> misye t_ap di sa semèn pase a men Djonni sa tèlman blofè
[379.245]
<no-speech>
[380.485]
<hes> pawòl misye ak aksyon_n pa menm fanmi pre fanmi lwen non <no-speech> nèg sa tèlman wi se sa_k fè_m di_w men si misye fè_l m_prale wi paske m_byen bezwen konn dèyè a
[390.925]
<no-speech>
[394.075]
se fòse pou_n fòse misye fè_l wi
[395.715]
<no-speech>
[396.605]
Djimi di_l konn dèyè a deja <no-speech> premye me
[399.355]
<no-speech>
[402.625]
enhen
[403.295]
<no-speech>
[404.185]
<hes> enbyen <hes> <no-speech> *se* pou misye ranje bagay yo depi kounye a pou misye kòmanse ranje sa epi
[409.805]
<no-speech>
[411.305]
wè si l_ap fè_l pou_l fè_l
[412.875]
<no-speech>
[419.695]
depi depi l_fè_l m_ap patisipe
[421.295]
<no-speech>
[427.125]
enhen
[427.785]
<no-speech>
[428.825]
<foreign>
[429.505]
<no-speech>
[431.165]
ban_m *ba_w*
[432.005]
<no-speech>
[433.205]
sa Krisyano fè la ayè
[434.625]
<no-speech>
[436.215]
Kris <no-speech> hey koupe souf koupe souf
[439.835]
<no-speech>
[441.575]
Mesi annik fè dezyèm gòl la m_t_ap gad match la m_tou leve on fwa m_ale
[444.705]
<no-speech>
[449.085]
wi
[449.665]
<no-speech>
[453.065]
si_m mal dòmi
[454.135]
<no-speech>
[455.505]
hey bon m_pran m_panse ekip la te ka pèdi men m_pa_t panse yo te ka mennen twa a zewo sou li men
[461.545]
<no-speech>
[464.605]
<no-speech>
[466.585]
<no-speech>
[467.735]
samdi sidyevle l_ka pi mal wi
[469.155]
<no-speech>
[472.855]
samdi
[473.365]
<no-speech>
[474.755]
oh <no-speech> jan_m wè Reyal anraje la a
[477.505]
<no-speech>
[481.445]
Reyal ap monte Baselòn ap desann
[483.145]
<no-speech>
[487.205]
<laugh> bon si Asenn pa f_on jan pou ti chanpyona sa k_nan men_l nan pou_l tou kenbe_l la a li pa nan anyen k_bon non
[494.245]
<no-speech>
[496.415]
Lig <foreign> chanpyon Lig <foreign> chanpyon *se* Mi- Milan ap ba_l chans sa a <no-speech> chanpyona d_Espay la pou_l f_on jan l_jere_l
[502.735]
<no-speech>
[507.915]
n_ap suiv
[508.685]
<no-speech>
[510.495]
<no-speech>
[510.955]
<no-speech>
[512.305]
men antouka <hes> m_poko wè avni ekip la menm
[515.435]
<no-speech>
[521.155]
Jaki pa akòde <no-speech> Mesi ap voye flè
[524.905]
<no-speech>
[527.185]
m_wè malè
[528.095]
<no-speech>
[530.515]
m_wè malè
[531.365]
<no-speech>
[532.775]
blèm
[533.325]
<no-speech>
[537.245]
wi m_ap m_ap lekòl la demen wi
[539.105]
<no-speech>
[549.595]
misye misye pa_t <hes> dwe ban_n ponyèt la non daprè mwen
[551.975]
<no-speech>
[553.475]
misye pa_t dwe ban_n ponyèt la non daprè mwen
[555.215]
<no-speech>
[559.335]
a <hes> m_pa konn wè lè moun gen klou yo bande_l non
[562.005]
<no-speech>
[564.945]
misye di se medikman l_mete ki fè yo fè_l bande_l
[568.505]
<no-speech>
[573.835]
wi <hes> pa gen lechwa
[575.375]
<no-speech>
[576.635]
men misye dwòl tou misye annik wè klou a ap leve m_pa konn sa l_ye si se medsen fèy li ye l_annik tou bagay <no-speech> li tou di l_ap detounen_l kounye an an detounen detounen bagay la vin anfle dèyè ponyèt misye
[587.765]
<no-speech>
[591.265]
<no-speech>
[592.605]
<no-speech>
[593.485]
pou di pou di pou di Tijan ap vin malad nan jou sa yo la a
[596.255]
<no-speech>
[599.980]
