[0.000]
<no-speech>
[3.105]
<int> wè
[4.435]
<no-speech>
[5.815]
alo
[6.615]
<no-speech>
[8.645]
enhen sa_k ap fèt <sta> <laugh> (())
[15.525]
<no-speech>
[17.385]
(()) nimewo pou (()) tann ou rete sou liy lan pou_w di_m li (())
[22.925]
<no-speech>
[24.755]
(())
[34.055]
poze_m kesyon pale bagay
[37.215]
<no-speech>
[38.295]
<no-speech>
[38.685]
<no-speech>
[41.435]
<int> kisa
[42.545]
<no-speech>
[46.085]
(())
[47.845]
<no-speech>
[49.275]
<int> (())
[52.585]
<no-speech>
[55.995]
en m_poko konnen
[57.695]
<no-speech>
[59.485]
<no-speech>
[61.935]
<no-speech>
[63.225]
<int> w_ap gentan konnen
[65.475]
<no-speech>
[66.765]
(())
[71.355]
<no-speech>
[73.675]
(())
[75.025]
<no-speech>
[78.595]
(())
[79.485]
<no-speech>
[82.735]
(())
[89.805]
<no-speech>
[91.065]
<no-speech>
[91.885]
<no-speech>
[92.965]
<no-speech>
[94.025]
<no-speech>
[99.595]
(())
[101.255]
<no-speech>
[104.485]
kibò
[105.135]
<no-speech>
[107.355]
an wi (())
[111.205]
<no-speech>
[114.785]
(())
[115.545]
<no-speech>
[116.635]
<no-speech>
[117.045]
<no-speech>
[118.875]
<no-speech>
[119.275]
<no-speech>
[121.705]
<no-speech>
[122.415]
<no-speech>
[123.375]
<no-speech>
[124.245]
<no-speech>
[126.475]
<foreign> <int>
[128.135]
<no-speech>
[130.385]
(())
[131.235]
<no-speech>
[133.435]
<sta> kisa <no-speech> sou telefòn mwen an mwen an m_ ye se fason pou fè_l la ki konsa
[140.145]
<no-speech>
[143.015]
(())
[144.165]
<no-speech>
[146.475]
non se pa pou sa e pa konsa bagay la ye <no-speech> sa se yon lòt bagay an oke <int>
[153.245]
<no-speech>
[154.595]
(())
[155.165]
<no-speech>
[157.105]
(())
[162.605]
<no-speech>
[165.415]
wi li m_ap tann wi
[168.165]
<no-speech>
[171.245]
mwen pa prale <no-speech> sa_m pran si_m pa jwenn li
[174.265]
<no-speech>
[177.265]
<sta> priye pou mwen jwenn (()) priye pou mwen jwenn sa_w vle a
[182.175]
<no-speech>
[186.045]
an <hes> priye Bondye pou mwen m_poko konnen antouka (())
[192.695]
<no-speech>
[197.175]
lè ki lè k_pase a <int> ah e menm jan yo ye wi
[202.325]
<no-speech>
[204.775]
(())
[207.655]
<no-speech>
[218.735]
(())
[219.455]
<no-speech>
[220.775]
<no-speech>
[221.185]
<no-speech>
[222.455]
<no-speech>
[222.885]
<no-speech>
[223.915]
<no-speech>
[224.895]
<no-speech>
[225.975]
(())
[229.345]
<no-speech>
[232.555]
<sta> (())
[234.555]
<no-speech>
[236.155]
(())
[238.085]
<no-speech>
[239.345]
<sta> (())
[243.795]
<no-speech>
[246.695]
m_ta byen (())
[248.035]
<no-speech>
[253.315]
<no-speech>
[254.135]
<no-speech>
[257.825]
<no-speech>
[259.055]
<no-speech>
[260.755]
m_pa kwè
[261.785]
<no-speech>
[265.815]
<int> (())
[268.285]
<no-speech>
[271.565]
<sta> m_ap di_w
[273.435]
<no-speech>
[276.625]
non <int>
[278.095]
<no-speech>
[280.595]
<no-speech>
[281.685]
<no-speech>
[284.095]
<sta> e ou menm <foreign>
[285.695]
<no-speech>
[289.945]
(()) <sta>
[291.985]
<no-speech>
[293.175]
(())
[294.075]
<no-speech>
[298.545]
<no-speech>
[298.925]
<no-speech>
[300.095]
(())
[300.685]
<no-speech>
[304.175]
(())
[305.075]
<no-speech>
[310.635]
<no-speech>
[311.925]
<no-speech>
[312.845]
<foreign>
[313.575]
<no-speech>
[314.545]
<int> bon m_te di_w
[316.025]
<no-speech>
[317.235]
(()) epa_w (())
[319.475]
<no-speech>
[320.285]
kot *bagay* la
[321.715]
<no-speech>
[324.275]
o <no-speech> e bagay la
[327.655]
<no-speech>
[328.475]
<int> <int> e bagay la
[331.415]
<no-speech>
[337.355]
(())
[342.145]
<no-speech>
[344.295]
<int> (())
[345.585]
<no-speech>
[348.565]
konprann
[349.625]
<no-speech>
[353.175]
(())
[353.655]
<no-speech>
[357.615]
(())
[358.335]
<no-speech>
[362.255]
<no-speech>
[363.035]
<no-speech>
[364.955]
kisa <int>
[365.915]
<no-speech>
[371.765]
wi an li fini
[374.435]
<no-speech>
[378.855]
an
[379.585]
<no-speech>
[381.655]
(())
[382.435]
<no-speech>
[391.875]
an <laugh>
[393.805]
<no-speech>
[394.835]
(())
[396.395]
<no-speech>
[402.305]
<no-speech>
[403.185]
<no-speech>
[405.235]
<no-speech>
[406.225]
<no-speech>
[415.600]
<no-speech>
[424.975]
<breath> sa ap fè la a sa ap gade la a kounya
[428.565]
<no-speech>
[430.635]
gade la a kounya
[431.865]
<no-speech>
[432.685]
sa w_ap fè la kounya
[434.315]
<no-speech>
[436.015]
(())
[436.675]
<no-speech>
[438.005]
a m_panse_l fini wi
[440.035]
<no-speech>
[444.465]
an oke (())
[448.355]
<no-speech>
[450.865]
<no-speech>
[451.335]
<no-speech>
[452.745]
<no-speech>
[453.115]
<no-speech>
[455.805]
<no-speech>
[456.265]
<no-speech>
[457.595]
en
[458.245]
<no-speech>
[459.905]
<laugh> (()) li te rive e <foreign> li wi l_ye
[465.795]
<no-speech>
[468.155]
(()) <int>
[471.625]
<no-speech>
[474.195]
(())
[481.385]
<no-speech>
[483.715]
li di w_ale w_ale <sta> w_ale wè_l
[488.335]
<no-speech>
[489.185]
w_al pete bagay moun yo w_ap pral fè (()) <laugh>
[494.305]
<no-speech>
[495.175]
<no-speech>
[499.295]
<no-speech>
[501.015]
(())
[501.965]
<no-speech>
[503.095]
<no-speech>
[505.345]
<no-speech>
[506.165]
(())
[506.835]
<no-speech>
[510.185]
<no-speech>
[512.895]
<no-speech>
[516.525]
a wè <no-speech> m_ (())
[521.365]
<no-speech>
[523.305]
<no-speech>
[524.415]
<no-speech>
[526.925]
yo bezwen al di (())
[529.395]
<no-speech>
[532.575]
(())
[533.445]
<no-speech>
[539.965]
<no-speech>
[540.335]
<no-speech>
[541.445]
(())
[542.815]
<no-speech>
[545.525]
di alo
[546.865]
<no-speech>
[556.245]
en
[557.265]
<no-speech>
[559.985]
<foreign>
[560.675]
<no-speech>
[565.155]
kiyès
[565.845]
<no-speech>
[570.485]
an
[571.615]
<no-speech>
[576.795]
<no-speech>
[577.465]
<no-speech>
[585.295]
<no-speech>
[585.695]
<no-speech>
[591.905]
<no-speech>
[592.405]
<no-speech>
[596.875]
kòman
[597.365]
<no-speech>
[600.020]
