[0.000]
<no-speech>
[0.105]
(())
[2.685]
<no-speech>
[4.275]
alo <no-speech> ehen_m la wi
[8.585]
<no-speech>
[14.425]
mhm
[15.165]
<no-speech>
[16.075]
kiyès
[16.775]
<no-speech>
[22.995]
pa fè_l sibi ehen
[25.025]
<no-speech>
[31.475]
<hes> kilè w_ap vini
[33.235]
<no-speech>
[35.215]
<hes> mèkred-
[37.125]
<no-speech>
[41.685]
vini avè_l
[42.905]
<no-speech>
[46.795]
yo pa pi mal non ou byen
[48.775]
<no-speech>
[51.325]
tout byen
[52.245]
<no-speech>
[56.995]
a bon
[57.815]
<no-speech>
[59.855]
m_konte tounen touswit pastè pa touswit
[63.615]
<no-speech>
[65.325]
<no-speech>
[65.875]
<no-speech>
[66.875]
<no-speech>
[67.275]
<no-speech>
[68.745]
wi
[69.505]
<no-speech>
[71.735]
mhm
[72.305]
<no-speech>
[76.375]
ebyen oke
[78.695]
<no-speech>
[80.915]
dakò
[82.205]
<no-speech>
[85.105]
ebyen oke m_ap dat ou
[86.995]
<no-speech>
[87.795]
m_ap tande mhm
[89.935]
<no-speech>
[91.745]
li la wi <no-speech> non li pa ale li pral <hes> yè ankò li t_ale bon
[101.215]
<no-speech>
[102.025]
li t_ale se maten an li soti nan travay paske li <hes> li te fè de nuit
[107.055]
<no-speech>
[108.985]
petèt li ka
[109.985]
<no-speech>
[113.145]
li te de nuit maten an li vini maten li vini petèt li ka tounen pita
[119.275]
<no-speech>
[126.055]
an bon li pa pi mal non m_pran nouvèl li toujou pale avè_m toujou rele_l
[131.375]
<no-speech>
[132.175]
li pa pi mal <no-speech> wi m_pran nouvèl tout moun yo yo tout byen yo toujou rele m-m toujou pale nan telefòn avè yo yo byen
[144.145]
<no-speech>
[144.295]
<no-speech>
[149.015]
<hes> Beyatris bon koulye a m_te fè yon mezantant avè_l m_di konsa m_pa_t vle pale avè_l <foreign> <foreign> li <hes> paske li <hes> <hes> <hes> pa
[160.745]
anyen m_te gen avè_l vrèman se vle m_pa_t vle pale sa m_te bezwen e de prè pou_m te pale avè_l m_pa_t vle pale nan telefòn avè_l koulye a nou fè yon mezantant epi tout bagay fini
[171.655]
<no-speech>
[180.115]
a wi ebyen se sa k_fè m_te bezwen pale avè_l de prè m_pa_t vle m_pa_t vle al pale nan telefòn avè_l pou_m te ka jis diskite avè_l
[190.145]
<no-speech>
[192.155]
<sta> mhm
[194.535]
<no-speech>
[198.735]
kòman kiyès
[202.115]
<no-speech>
[205.085]
an bon
[205.955]
<no-speech>
[207.545]
wi
[208.375]
<no-speech>
[210.785]
ehen
[212.125]
<no-speech>
[213.975]
wi sa sa sa wi e sa m_ap eseye fè <int>
[219.175]
<no-speech>
[220.615]
se sa m_ap eseye fè
[221.975]
<no-speech>
[223.415]
<no-speech>
[223.775]
<no-speech>
[224.845]
<int> wi
[226.145]
<no-speech>
[229.065]
a bon Dafne Dafne la
[231.435]
<no-speech>
[232.835]
li la li bon
[233.965]
<no-speech>
[238.085]
wi yo yo yo y_ap boule trè byen wi y_ap boule trè byen
[242.325]
<no-speech>
[246.305]
wi se manman_m ki toujou ap degaje_l avè yo
[248.485]
<no-speech>
[249.445]
(())
[250.355]
<no-speech>
[251.525]
non yo pa yo pa reponn oken <sta> bezwen <no-speech> a
[255.635]
<no-speech>
[256.985]
<sta> ebyen an an an an bon li pa li pa yo pa
[268.085]
li pa mete yo te retire_l nan kay la yo te bay yon lòt moun ki sou li paske li menm li pa_t konn bay li bay kòb la vrèman
[279.145]
s_on moun ki ki ki pa serye
[280.995]
<no-speech>
[282.405]
koulye a yo retire l_nan men_l yo bay
[284.195]
<no-speech>
[285.045]
<no-speech>
[285.515]
<no-speech>
[286.465]
mhm
[287.085]
<no-speech>
[289.785]
a moun ki sou li a plizoumwen paske manman_m li te pale a manman_m li te plizoumwen li te plizoumwen li pale a manman_m manman m_wè li plizoumwen yon moun ki responsab paske
[301.655]
se yon moun se yon pwotestan se yon se yon sèvitè li ye k_ap sèvi Bondye li plizoumwen pale a manman_m li di
[311.025]
<no-speech>
[315.965]
<no-speech>
[317.025]
<no-speech>
[318.015]
oke
[318.745]
<no-speech>
[319.685]
wi kòman
[323.015]
<no-speech>
[326.465]
a oke <no-speech> ebyen oke
[333.395]
<no-speech>
[336.695]
<sta> wi y_a y_ap ban_m ladan <no-speech> y_ap ban_m ladan pou mwen sa pou mwen sa al degaje <no-speech> kèk bagay y_ap fè
[348.575]
<sta> (()) <no-speech> enh
[353.915]
<no-speech>
[356.805]
kòman
[357.625]
<no-speech>
[361.185]
<hes> ebyen <hes> <hes> m_ta prale kote Sonsonn pou Sonsonn te ka
[368.375]
<no-speech>
[369.465]
pou koulye a m_a pral rele Sonsonn la a pou Sonsonn ka ki ka ban_m
[375.935]
<no-speech>
[376.855]
ka ban_m koulwa li konnen lè li pral achte bagay Malpas yo epi
[383.525]
<no-speech>
[385.545]
koulye a menm menm menm
[387.275]
<no-speech>
[388.075]
m_ta koulya m_ta pral fè <no-speech> m_te m_te vle fè_l men_m wè ti kòb m_genyen an te twò piti
[393.715]
<no-speech>
[395.065]
li twò piti pou_m te ka kòmanse paske
[397.865]
<no-speech>
[398.695]
ou konnen
[399.565]
<no-speech>
[401.025]
m_pa_t vle kòmanse_l avèk on ti kòb m_te vle menm menm si m_al nan achte pou_m te toujou gen yon ti kòb la <no-speech> ou konprann
[409.275]
<no-speech>
[410.255]
jis pou_m te ka
[411.555]
<no-speech>
[413.345]
koulye a se ti kòb la m_ap dat koulye a pou_m ka fè pou m_rele Sonsonn pou Sonsonn ka al montre_m koulwa yo epi pou_m wè kisa m_ka achte pou m_vin vann
[422.545]
<no-speech>
[429.295]
ebyen wi sa sa sa te sa li menm m_pa vle kòmanse ak piti a se pi gwo ou konnen se sèl li menm m_genyen m_pa gen m_pa gen lòt ou konprann
[439.195]
<no-speech>
[440.305]
m_pa enh m_pa vle m_pa ta vle sa_k nan men_m lan ale
[443.395]
<no-speech>
[444.455]
ou konprann
[445.265]
<no-speech>
[454.925]
wi bon e sa wi e sa men ou konnen reflechi a se youn men ou konnen se sèl li menm ou genyen aktyèlman la manje a
[466.575]
tèlman la se ladann li gentan ye si ou pa gen yon bagay ou gen yon je pou al chèche on entansyon ladan toujou ou konprann
[475.405]
<no-speech>
[486.555]
wi
[487.225]
<no-speech>
[489.745]
wi
[490.505]
<no-speech>
[492.905]
ebyen m_ta swete sa
[495.505]
<no-speech>
[499.565]
a bon ebyen koulye a m_pral koulye a m_ap fè apèl avèk Bondye paske si Bondye m_gen yon ti kapasite ki bagay pou Bondye te ka elaji_l pou mwen
[511.215]
e pou_m te ka
[512.775]
<no-speech>
[516.025]
koulye pou_m di ebyen fò fò fò oblije mande Bondye yon yon yon kòman kòman m_te ka di jis pou ka fè ou kenbe vrèman pou pa lage
[527.945]
<no-speech>
[528.095]
<no-speech>
[528.965]
piske lekòl lekòl nan nan senk ou sis mwa
[533.135]
<no-speech>
[533.985]
<hes> <hes> <hes> pitit la pral lekòl
[535.745]
<no-speech>
[537.065]
fò fò fò fò ka revann e_m pa gen ou pa gen yon lòt kote m_pral se sèl mwen menm ki ka fra- m_pa gen yon pòt m_ka frape
[546.525]
<no-speech>
[549.385]
<no-speech>
[550.085]
<no-speech>
[559.025]
mhm
[567.965]
wi
[568.535]
<no-speech>
[573.915]
wi
[574.465]
<no-speech>
[575.805]
dakò
[576.525]
<no-speech>
[579.105]
a wi a wi wi
[581.155]
<no-speech>
[588.180]
<no-speech>
[595.205]
a <foreign> dekwa
[596.155]
<no-speech>
[600.180]
