[0.000]
<no-speech>
[1.315]
<sta> oke <no-speech> sa fè konbyen la
[4.715]
<no-speech>
[6.045]
<sta> oh oh <no-speech> wi
[11.795]
<no-speech>
[13.615]
<sta> mwen byen e ou menm
[16.065]
<no-speech>
[17.385]
<sta> mè wi sa_k pase
[19.675]
<no-speech>
[20.745]
<sta> tout bagay anfòm sa_w regle menm
[22.855]
<no-speech>
[26.155]
<sta> wi m_Ayiti wi
[28.925]
<no-speech>
[31.505]
<sta> wi m_al lekòl m_an vakans aktyèlman la <no-speech> sa fè_m vin Ayiti <no-speech> mhm
[36.935]
<no-speech>
[38.665]
<sta> non Sendomeng <no-speech> e kwè_m te di_w sa ou bliye
[42.035]
<no-speech>
[45.625]
<sta> enhen e ou menm menm sa_w regle
[47.595]
<no-speech>
[53.265]
<sta> ah <no-speech> oke sa w_ap pran la menm
[57.705]
<no-speech>
[61.405]
oh <no-speech> la bon wi yon bèl ide wi menm mwen m_anvi pran dwa la wi
[66.165]
<no-speech>
[67.765]
an m_nan touris lan m_ ye wi <no-speech> non m_ pra- m_gen pou mwen pran li
[71.085]
<no-speech>
[73.185]
enhen
[73.915]
<no-speech>
[77.545]
<laugh> <breath> tèt chaje <int>
[80.665]
<no-speech>
[81.645]
sa e sa k_ regle menm
[82.965]
<no-speech>
[84.355]
<sta> <breath> non m_poko non m_ap tcheke djòb la <no-speech> byen ke m_sou <foreign> ou konnen
[88.705]
<no-speech>
[91.715]
<sta> mhm e ou menm menm
[93.785]
<no-speech>
[100.915]
<no-speech>
[101.545]
<no-speech>
[102.805]
<laugh> <breath> wey m_a byen rele_w pou_w vin plede pou mwen
[106.395]
<no-speech>
[110.395]
<sta> wi men e kounye m_wè touris ap mache Ayiti wi m_pa konnen
[116.635]
<no-speech>
[117.455]
kòmanse wi kòmanse
[119.165]
<no-speech>
[120.175]
<sta> paske m_wè gen otèl bagay sa yo y_ap konstwi
[123.015]
<no-speech>
[126.655]
<sta> ki ki kou
[128.575]
<no-speech>
[129.615]
<sta> touris lan <no-speech> se vre
[132.035]
<no-speech>
[135.095]
<sta> wi e non ou kwè e pa tchiketchin yon bagay konsa (()) <no-speech> mhm
[141.065]
<no-speech>
[142.675]
<no-speech>
[143.855]
<no-speech>
[145.195]
<laugh> tèt chaje <no-speech> aprè sa
[149.245]
<no-speech>
[151.395]
wi m_renmen_l wi (()) pitit ekspozisyon k_ap tiye moun
[154.985]
<no-speech>
[156.055]
<sta> eh_p- pil leson nan kò_w pitit <no-speech> lè_m di_w sa tèt chaje
[160.025]
<no-speech>
[164.925]
<sta> oh (()) <no-speech> tèt fèmal yo ba moun
[168.545]
<no-speech>
[169.555]
<no-speech>
[169.915]
<no-speech>
[171.695]
<sta> pitit w_ap pale espanyòl <laugh> lang pa tèlman lang ou <laugh>
[178.035]
<no-speech>
[179.405]
<sta> wouy <no-speech> aprè sa <no-speech> wi <no-speech> wi e sa m_ap fè wi la m_bezwen fini la
[189.945]
<no-speech>
[191.715]
<sta> wi <no-speech> m_bezwen fini la m_pa ka tann pitit <no-speech> wi <no-speech> e Pòtigè a k_ap bat mwen la pitit m_pa konn sa <no-speech> Pòtigè a yon ti jan difi-
[203.655]
-sil
[204.225]
<no-speech>
[207.315]
li wi yo bay li wi <no-speech> nan touris lan ou konnen (())
[211.285]
<no-speech>
[212.405]
<sta> mwen menm mwen pran mwen pran <no-speech> wi
[217.045]
<no-speech>
[218.085]
<sta> m_ <no-speech> aprè sa yo di yo fè_w pran ti chinwa tou pitit <laugh>
[222.605]
<no-speech>
[223.635]
<sta> woy <no-speech> wi
[225.765]
<no-speech>
[226.625]
<sta> m_poko ap fè bagay sa m_poko kab <no-speech> m_poko kapab
[229.335]
<no-speech>
[231.345]
<no-speech>
[232.525]
<no-speech>
[234.225]
<sta> pitit <no-speech> m_
[238.255]
<no-speech>
[245.305]
<sta> wi se sa wi
[246.645]
<no-speech>
[248.035]
<sta> m_
[249.735]
<no-speech>
[251.605]
<sta> hmm <no-speech> wi lè_w chita konsa ou p_ap fè anyen en
[256.325]
<no-speech>
[260.885]
<sta> wi <no-speech> en <no-speech> ah
[263.545]
<no-speech>
[267.265]
<sta> oke kisa_w pran la dwa jiridik lan oubyen
[269.915]
<no-speech>
[271.075]
<sta> <hes> oke
[272.535]
<no-speech>
[273.585]
<no-speech>
[273.935]
<no-speech>
[274.915]
<sta> <hes> oke dakò m_konprann
[281.425]
<no-speech>
[282.825]
<sta> mezanmi m_kontan tande_w wi
[286.165]
<no-speech>
[287.425]
<sta> sa fè lontan lontan mezanmi <no-speech> wi ou konnen <no-speech> non non san edikasyon_w pa anyen pitit
[298.455]
<no-speech>
[300.465]
<sta> wi <no-speech> m_
[305.745]
<no-speech>
[306.605]
<sta> mè wi n_ap pran san nou toujou <no-speech> n_ap pran san_n n_ap pran tan nou <no-speech> m_
[314.835]
<no-speech>
[315.725]
<no-speech>
[316.355]
<no-speech>
[318.705]
<sta> wi
[320.685]
<no-speech>
[321.615]
<sta> se sa wi
[325.395]
<no-speech>
[326.575]
<sta> wi <no-speech> pa gen lòt edikasyon se baz baz <no-speech> la san liw_pa ka anyen
[337.265]
<no-speech>
[338.805]
<sta> non ah
[341.885]
<no-speech>
[343.055]
<no-speech>
[344.895]
<no-speech>
[346.295]
<sta> wi m_ap retounen wi <no-speech> bon vakans lan prèske fini la e de semèn yo te ban mwen <no-speech> men m_ap pran yon semèn ou konnen <no-speech> nou renmen ti vakans nou
[356.245]
<no-speech>
[357.445]
<sta> <hes> <laugh> mè wi kilè kilè_w panse n_ka wè la menm <no-speech> ou toujou ret Dèlma <no-speech> oh oh oh
[368.985]
<sta> ebyen oke <no-speech> n_a pran randevou paske m_byen anvi wè_w <no-speech> dat m_pa wè_w
[374.795]
<no-speech>
[377.305]
<no-speech>
[378.755]
<no-speech>
[380.625]
<sta> oke <no-speech> ou rele_l tou
[382.675]
<no-speech>
[384.885]
<hes>
[385.625]
<no-speech>
[387.665]
<sta> oke
[392.065]
<no-speech>
[393.245]
<no-speech>
[393.775]
<no-speech>
[394.795]
<sta> anhan <no-speech> anhan wi yo privatize yo <no-speech> enhen
[405.495]
<no-speech>
[407.515]
wi
[408.255]
<no-speech>
[409.685]
<no-speech>
[411.125]
<no-speech>
[412.165]
<sta> non non <no-speech> jan_w di a si se pa si se pa yon moun pa_w ki mete_w
[416.295]
<no-speech>
[417.265]
m_
[417.745]
<no-speech>
[420.735]
<no-speech>
[421.085]
<no-speech> (())
[421.945]
gen kote oh e yon peyi touristik li ye
[424.465]
<no-speech>
[429.895]
<no-speech>
[431.055]
<no-speech>
[432.625]
<sta> enben <laugh> oke m_t_ap byen kontan
[435.135]
<no-speech>
[436.905]
<sta> kisa
[439.335]
<no-speech>
[441.505]
<sta> an wi tanzantan chak <no-speech> prèske chak de semèn wi pitit pou_w al yon kote <no-speech> lè se pa kibò sa e kibò
[448.965]
<no-speech>
[450.895]
<sta> tèt chanje pil depans pitit <no-speech> wi yon bèl esperyans ou konn ou konn kote yo <no-speech> bèl bagay wi
[457.025]
<no-speech>
[458.235]
<sta> e m_renmen sa <no-speech> pou m_ap dekouvri kote_m pa_t konnen <laugh>
[462.575]
<no-speech>
[464.445]
<sta> mhm
[466.325]
<no-speech>
[467.975]
m_
[468.475]
<no-speech>
[474.225]
wi se sa wi
[475.605]
<no-speech>
[479.865]
<sta> Venis <no-speech> oh wi li di_m l_al lekòl wi aktyèlman la kibò l_lekòl ankò <no-speech> m_bliye non lekòl la wi <no-speech> li di_m l_ap aprann <hes> administrasyon anhan ann Ayiti wi
[488.815]
<no-speech>
[491.345]
<no-speech>
[491.695]
<no-speech>
[494.305]
(())
[494.995]
<no-speech>
[495.805]
mhm
[496.445]
<no-speech>
[498.385]
<no-speech>
[498.855]
<no-speech>
[500.555]
<sta> oke <no-speech>
[502.295]
<no-speech>
[503.405]
(())
[503.925]
<no-speech>
[510.085]
(())
[510.775]
<no-speech>
[512.355]
<sta> (())
[515.535]
<no-speech>
[516.745]
<no-speech>
[518.365]
<no-speech>
[520.685]
<sta> wi
[522.505]
<no-speech>
[527.365]
<no-speech>
[527.835]
<no-speech>
[529.815]
<sta> mhm
[530.955]
<no-speech>
[531.925]
(())
[532.855]
<no-speech>
[534.325]
mhm
[535.045]
<no-speech>
[536.145]
m_
[536.825]
<no-speech>
[538.555]
<no-speech>
[538.995]
<no-speech>
[539.995]
mwen menm tou cheri a
[541.305]
<no-speech>
[545.135]
<no-speech>
[545.745]
<no-speech>
[547.795]
<sta> kiyès
[549.535]
<no-speech>
[551.565]
<sta> Anns oke Edwa
[554.815]
<no-speech>
[556.315]
<sta> enhen enhen
[557.425]
<no-speech>
[558.275]
<sta> enhen sa_l genyen
[559.495]
<no-speech>
[562.125]
<sta> non <no-speech> non kounye a la li di_m l_ap pran ang a
[565.695]
<no-speech>
[566.795]
li poko al nan inivèsite non li gen ti pwoblèm papye enhen
[569.335]
<no-speech>
[570.525]
<sta> Dominiko (()) mhm Dominiko
[573.335]
<no-speech>
[574.785]
<sta> wi ou konnen bagay pou_w <no-speech> kòman legalize pyès yo sa sa pran di tan bagay sa yo
[580.445]
<no-speech>
[581.935]
<sta> ou pa wè_l te fè yon ban_n tan li pa janm vin Ayiti
[584.475]
<no-speech>
[585.675]
<sta> en
[587.675]
<no-speech>
[588.665]
<sta> wi se <no-speech> oh oh non bagay yo <no-speech> nan inivèsite_l ye a <no-speech> pa konsa non
[594.065]
<no-speech>
[598.525]
<no-speech>
[598.725]
<no-speech>
[600.380]
