[0.000]
<no-speech>
[1.135]
<no-speech>
[2.655]
wi alo <no-speech>
[3.595]
<no-speech>
[6.275]
<sta> wi alo <no-speech> wi m_ap koute <no-speech>
[10.635]
<no-speech>
[13.805]
<sta> <hes> se Wilsonn
[16.135]
<no-speech>
[16.965]
<sta> <no-speech> Mod Mod Mod Mod kiyès Mod <foreign> jis
[23.175]
<no-speech>
[24.935]
kiyès Mod <no-speech>
[26.625]
<no-speech>
[27.555]
<no-speech>
[27.995]
<no-speech>
[30.595]
Mona <no-speech> bon gen plizyè Mona m_pa konnen_l kòm mwen m_Milo m_pa konnen <hes> <sta> kiyès ou <no-speech> wi se Milo <no-speech>
[42.315]
<hes> <no-speech> non sa vle di m_wè apèl m_wè on mesaj monte (()) m_kwè konpayi ah pale l_di ke yo pral anrejistre <no-speech> nimewo ah <no-speech> men Mona sa se Mo-
[53.535]
dat mwen Mona se Okap <sta> Okap <no-speech> <hes> non si te Mona Okap
[59.585]
<no-speech>
[60.745]
se kiyès
[61.475]
<no-speech>
[63.615]
<hes> non ban_m ba_w nimewo ah Mona si se Mona Okap
[66.965]
<no-speech>
[68.615]
enhen <no-speech>
[70.435]
<no-speech>
[72.195]
Wilsonn
[72.985]
<no-speech>
[75.015]
<no-speech>
[75.405]
<no-speech>
[76.955]
anben <foreign> <foreign> <foreign> byen sa li_l è vwe <no-speech> men sèke se ou konnen n_gen kèk jou vrèman depi nou pa wè
[82.655]
<no-speech>
[84.235]
enhen <no-speech>
[85.125]
<no-speech>
[88.275]
m_pa pre Mona non li menm se lavil li ye mwen se mwen se Milo
[91.565]
<no-speech>
[93.565]
<sta> enhen
[94.435]
<no-speech>
[97.835]
<no-speech>
[98.315]
<no-speech>
[100.415]
non m_pa anyen pou li sa vle di s_on s_on sipèvizè n_ap travay nan menm pwogram
[104.745]
<no-speech>
[106.295]
pase li menm l_ap travay nan pwogram lopital Sakrekè Milo ah
[110.305]
<no-speech>
[111.525]
enhen men m_pa kwè_l
[113.265]
<no-speech>
[116.275]
s_on zanmi s_on zanmi konsa sa vle di pase nou n_ap travay nan menm pwogram
[119.645]
<no-speech>
[120.815]
<int> <hes> pwogram sante kominotè nan sante kominotè
[125.215]
<no-speech>
[129.135]
enhen Milo
[130.175]
<no-speech>
[131.795]
n_al <no-speech> padon
[134.545]
<no-speech>
[136.755]
wi m_rekonèt man Peti lòtbò pon <int>
[140.535]
<no-speech>
[141.815]
<sta> enben m_wè s_on s_on ban_n ak on pil <no-speech> alo <foreign>
[153.545]
<no-speech>
[155.625]
<no-speech>
[156.905]
<sta> non pase pou kounya la sa vle di se jis bò zòn mache a la sa vle di se yon <no-speech> s_on enjeksyon m_pral fè pou yon moun la m_desann sa vle di si_m te pi wo menm m_te ka fò_w pale ake youn nan lòt moun yo
[166.825]
<no-speech>
[168.275]
(()) bò mache m_ye la pase m_ap desann m_al fè yon enjeksyon pou yon moun nan diyite ah
[172.915]
<no-speech>
[175.375]
<sta> enben nou la n_ap gade piti piti <no-speech>
[182.065]
<no-speech>
[186.145]
<hes> m_konprann *sa_w* di oke m_konprann <sta> <no-speech> pase vrèman m_wè yo sòt voye mesaj la ban mwen yo di_m *ke* yo pral anrejistre nimewo ah si_m aksepte <no-speech> si_m aksepte m_met ka m_ka rete sou liy nan
[198.105]
<sta> si_m pa aksepte rakroche <no-speech> enhen
[201.845]
<no-speech>
[203.045]
<no-speech>
[205.665]
<no-speech>
[206.565]
<sta> <no-speech> non setè <no-speech> mhm sètèdi yo ka g_on ti pwoblèm nan <hes> nimewo yo pase anpil fwa <no-speech> m_te genyen yon nèg ki te g_on nimewo konsa *bagay* malgre li menm sete yon <foreign>
[218.525]
ke_l te ye se te moun se te moun Limonad
[221.575]
<no-speech>
[222.595]
donk <hes> lè yon moun rele misye se mwen k_pran apèl pou li <sta> lè_m wè sa s_on pwoblèm ki vin ye pou li <no-speech> kounya m_t_oblije fè_l rele konpayi a pou yo yo eseye rezoud pwoblèm nan sa pou yo di
[234.435]
ke se yon <sta> <hes> <foreign> dapèl ki te monte sou telefòn nan se sa k_fè <no-speech> se mwen k_resevwa apèl pou li
[241.515]
<no-speech>
[245.635]
li kapab
[246.355]
<no-speech>
[247.355]
enh <no-speech> enhen li kapab sa vrèman
[250.145]
<no-speech>
[251.835]
oh
[252.205]
<no-speech>
[253.755]
m_konprann petèt byen sa
[255.445]
<no-speech>
[257.135]
mhm
[257.855]
<no-speech>
[259.375]
<sta> wi li kapab sa <no-speech>
[261.515]
<no-speech>
[263.115]
<int> non e yon <hes> *piki* *piki* enjeksyon *piki* <no-speech> *piki* enhen <foreign> <no-speech> enhen
[274.795]
<no-speech>
[275.865]
<no-speech>
[276.335]
<no-speech>
[277.265]
wi ou konnen nan ajan sante sa vle di w_ap travay lopital sa vle di ou konnen tout pwogram yo nou di se nou ki kòdone <no-speech> a lopital la sa vle di si lopital la gen nenpòt bezwen <sta> se nou yo oblije rele
[289.065]
<sta> <no-speech> enhen <no-speech>
[292.315]
<no-speech>
[293.655]
<no-speech>
[295.085]
<no-speech>
[301.155]
wi enhen pase
[302.495]
<no-speech>
[305.485]
oke biwo la kwa Wouj ou konn (()) yo toujou ap g_anpil siveyans gen lòt bagay k_ap pase yo toujou ap ede moun yo nan nenpòt ki domèn gen sa ki gen pwogram nan *men* yo yo g_on ti
[317.145]
èd yo bay moun yo <no-speech> yo toujou ap ede yo <no-speech> nou menm tou nan kad pwogram lopital yo sa vle di si gen timoun yo konn gen manje moun PAM yo bay manje
[329.035]
<sta> nou kapab ede paran e timoun yo <no-speech> hmm enhen <no-speech>
[340.505]
<no-speech>
[341.255]
<no-speech>
[342.665]
<sta> enhen <no-speech>
[344.615]
<no-speech>
[345.475]
<sta> oke <no-speech>
[348.105]
<no-speech>
[351.995]
enhen
[352.755]
<no-speech>
[354.785]
oke wè wè
[356.515]
<no-speech>
[357.825]
<no-speech>
[358.315]
<no-speech>
[361.495]
m_konprann oke
[363.185]
<no-speech>
[365.965]
wi wi <no-speech> <sta>
[368.175]
<no-speech>
[369.105]
<sta> enhen oke <no-speech>
[373.685]
<no-speech>
[375.055]
<sta> m_konprann <no-speech>
[376.065]
<no-speech>
[376.925]
<sta> oke <no-speech>
[378.025]
<no-speech>
[380.455]
<sta> <no-speech> se se sa e sa vrèman pase mwen mesaj la monte avan yo di_m ke <no-speech> m_tande telefòn nan sonnen epi_m pran_l <no-speech> lè_m di alo yo di_m ke <hes> eh eh èske_w vle pale ansanm avè moun yo di ke gen <no-speech> yo pral anrejistre nimewo_w la sou enhen <foreign>
[401.345]
<no-speech>
[402.955]
<foreign>
[403.525]
<no-speech>
[406.505]
<int> enhen <no-speech>
[407.305]
<no-speech>
[408.325]
m_konprann <int>
[409.445]
<no-speech>
[412.175]
oke oke
[413.395]
<no-speech>
[416.525]
li resanb
[417.325]
<no-speech>
[418.785]
<foreign> <no-speech> <sta> sanble jisteman jisteman
[422.245]
<no-speech>
[423.335]
mhm <no-speech> anben nou pou la nou la n_ap gade kon di ah moun yo depi nou pa kouche malad
[428.105]
<no-speech>
[429.125]
nou la mizè mi- mi- enh
[431.615]
<no-speech>
[433.075]
òh wi m_gen kat <sta> <laugh> non non sa s_on *bagay* m_prèske kanpe nèt <laugh> *prèske* an nou di se kanpe menm pase dènye se kat se sèl
[444.495]
m_te di Bondye m_te fè <sta> m_deja rive ladan_l aprè se fini <no-speech> enhen <laugh>
[456.335]
<sta> wi <no-speech> enhen <no-speech> wi se sa
[462.045]
<no-speech>
[463.405]
<sta> nòmalman <no-speech> (())
[466.255]
<no-speech>
[468.895]
<sta> <hes> m_gen twa gason yon fi <no-speech> bon dè dè dènye an an sèz an
[474.205]
<no-speech>
[475.835]
enhen
[476.585]
<no-speech>
[478.525]
òh wi <sta> <laugh> gwo jènjan nèt <no-speech> <hes> gwo
[486.995]
<no-speech>
[489.035]
fen sove sa se <sta> <no-speech> ka se kash <laugh> jodi a moun yo se <no-speech> se jan peyi an nou ye <no-speech> jan peyi an nou ye ou konnen vrèman pa *genyen* avansman sa vle di fò_w
[500.875]
<sta> sò_w yè a s_ake_y w_ap bat <no-speech> se sa k_fè <no-speech> petèt byen an nou di ke ou wè se lite w_ap lite tout sa_w ta vle petèt pou_w ta fè wout timoun nan ou ka pa ka rive fè_l vrèman mhm
[512.535]
si_w tand_on ti bri si_w tand_on ti bri <sta> pase_m tou prè bò yon mache m_ap pase la <no-speech> enhen <laugh>
[524.285]
<sta> <no-speech> enhen <no-speech>
[529.675]
<no-speech>
[530.765]
<no-speech>
[532.455]
<no-speech>
[533.395]
<sta> <no-speech> wi wi anpil
[535.765]
<no-speech>
[536.855]
<sta> mhm <no-speech> wi wi <no-speech> mhm
[545.885]
<no-speech>
[546.745]
<sta> <no-speech> wi se sa ou bat fè edikasyon an nòmalman
[553.975]
<no-speech>
[555.595]
<sta> <no-speech> wi se sa l_ye
[563.705]
<no-speech>
[564.825]
<sta> oke <no-speech> anben an nou ka an nou espere petèt yon jou pase sa ka rete pou fòk yon ide konsa epi w_al di m_ale tèl kote san ke san yon bezwen
[576.525]
<sta> <no-speech> kanmenm ap gen yon moman ke petèt w_ap gen yon bezwen epi
[580.815]
<no-speech>
[582.845]
<sta> enhen <no-speech> wi se sa pase
[588.575]
<no-speech>
[589.445]
<no-speech>
[591.535]
<no-speech>
[594.905]
wi <int> wi <no-speech> anpil anpil anpil
[597.675]
<no-speech>
[598.655]
anpil
[599.095]
<no-speech>
[600.220]
