[0.000]
<sta> alo
[4.705]
<no-speech>
[6.095]
alo
[6.855]
<no-speech>
[7.855]
<sta> cheri kòman w_ ye la a
[11.485]
<no-speech>
[13.835]
ay <no-speech> sa k_ap fèt *kòman* timoun yo ye <sta>
[18.035]
<no-speech>
[19.785]
ah bon m_pa tande nouvèl nou menm <no-speech> konsa_n ban_m vag
[23.715]
<no-speech>
[27.205]
ah ou konnen_m pa t_ap kite jou arive pou m_pa ta swetw w_ bòn fèt manman
[32.355]
<no-speech>
[34.795]
<sta> oke <no-speech> ah ou konnen cheri doudou m_pa ka fè w_ sa
[38.945]
<no-speech>
[41.515]
(()) e sa timoun yo ap fè la a
[44.805]
<no-speech>
[49.775]
oke oke e <hes> Devèli anfòm <sta>
[53.495]
<no-speech>
[57.305]
<sta> <hes> <hes> ou konnen ou p_ap ka pase_m yo paske kounye a la moun moun sou yon aktivite serye <no-speech> tande non
[66.655]
<no-speech>
[67.535]
kòman kòman w_ap boule a lekòl la la a
[70.105]
<no-speech>
[75.185]
oke oke
[76.045]
e
[77.655]
bon <hes> ou konnen depi m_te kite afè *ansèyman* an <no-speech> m_te eseye pase a lòt <foreign> m_gen vye kamyonèt mwen an la k_ap plede ban_m traka
[86.505]
<no-speech>
[87.995]
ou sonje Patrik Aleksi
[89.625]
<no-speech>
[92.025]
ou konnen nonm sa *se* *yon* gwo vòlè nonm sa a ye
[94.535]
<no-speech>
[96.275]
nonm sa m_pa kwè m_pa kwè m_pa kwè <hes> genlè *se* lanmò sèlman k_bay manti pase_l
[100.195]
<no-speech>
[111.535]
ah nonm sa nonm sa *se* *yon* gwo vòlè <no-speech> lè m_vini ou konnen Okay la lè_m vini ou konnen_m pral jwenn pikòp la gentan ranje <no-speech> men jan_l ye la a m_bay m_pa m_te bay Blan kòb la pou al fè
[121.155]
<no-speech>
[122.065]
<sta> bagay motè a <no-speech> demen
[124.435]
<no-speech>
[125.345]
men m_pa t- jwenn tout kòb la e <hes> se mil dola_m ba li
[128.105]
<no-speech>
[129.615]
*se* mil dola_m ba li <sta> kounye a la <no-speech> <sta> kounye a la e <hes>
[136.655]
<no-speech>
[141.745]
<hes> ou kon- kounye a la vòlè a menm m_panse l_pral ban_m de mil dola kounye a *se* san dola amerikenn sèlman l_ ban mwen <no-speech> yon vòlè
[147.615]
<no-speech>
[148.895]
li fin fè_m al- depoze l_èpòt avan wi yon gang misye ye wi <no-speech> m_ap fout m_ap fout m_fout kite l_èpòt lè_l tounen
[155.105]
<no-speech>
[159.995]
*yon* gang li ye l_ap rele_m li konnen li konnen *se* mwen <hes> <hes> (()) ki patnè_l
[163.465]
(())
[165.425]
ou konprann <no-speech> kounye a la <hes> m_ap m_ap fout blo li <no-speech> si gen si m_la <no-speech> m_ap fout blo_l <no-speech> si m_si m_la m_ap mete <hes>
[173.305]
<no-speech>
[174.675]
<sta> <hes> <foreign> sèt
[176.405]
<no-speech>
[178.695]
<foreign> sèt
[179.415]
<no-speech>
[181.945]
(())
[182.385]
<no-speech>
[183.825]
<hes> <hes> ban_m yon segond bebe efase sa
[186.635]
<no-speech>
[187.665]
<sta> <hes> (())
[189.445]
(())
[191.045]
(()) gason pa vre
[194.445]
<no-speech>
[195.255]
(())
[196.605]
<no-speech>
[199.035]
an oke ou mèt fè sa ou mèt
[200.305]
fè sa (())
[201.425]
<no-speech>
[201.835]
(())
[203.455]
(()) m_pa ka (())
[206.105]
(())
[207.015]
wi <no-speech> tande non cheri <no-speech> kounye a la m_oblije
[211.885]
<no-speech>
[213.155]
aranje kou mèt Janjak pou_m bay demil dola pou_l ka al bay blòk motè a nan chòp la pou mwen
[219.515]
<no-speech>
[220.605]
kounye a la e <hes> men m_bay Blan Mati m_di_l m_ap rele w_ pou m_fè_l <hes> pou w_ ba l_ kòb la rès kòb la pou l_al pran_l <sta> men pou_l ka entèrese al bay li lè_m vini
[232.005]
<no-speech>
[232.845]
w_a degaje m_ kou mèt Janjak
[234.725]
<no-speech>
[235.835]
pou m_jwenn lòt mil dola a m_ba li pou l_al chèche blòk motè a <no-speech> paske se sèlma sa k_ap rete m_achte tout pyès yo deja
[241.745]
<no-speech>
[244.155]
ou konprann <no-speech> epi (()) menm si_l kòmanse ap ban_m bri <no-speech> m_ap vin m_ap manke l_dega <no-speech> oh ban_m *bò_w* blag non
[250.745]
<no-speech>
[252.235]
<sta> k_rele m_maten an
[254.005]
<no-speech>
[255.355]
bon li pa rele non (()) l_ tèks mwen <no-speech> epi l_di mwen <hes>
[259.795]
<no-speech>
[261.215]
<hes> Pabit m_wè ke ou <hes> on <foreign> <foreign> ou bliye
[264.565]
<no-speech>
[265.475]
e <foreign> rès (()) lan
[267.445]
<no-speech>
[269.205]
(())
[271.295]
<no-speech>
[272.205]
bagay pa bon nan men men *se* pa bliye_m bliye <no-speech> motè machin nan anpàn
[276.015]
<no-speech>
[277.575]
e se rezoud m_ap rezoud la pou_m ka remedye a sitiyasyon an
[281.295]
<no-speech>
[282.495]
<hes> se vrè ke m_te di w_ m_ Mijèn <no-speech> men se <foreign> <foreign> Mijèn p_ap ka remedye a sitiyasyon an <no-speech> *paske* sabotay la sanse fini la a <sta>
[292.185]
<no-speech>
[293.485]
se <hes> *yon* lòt men pou_m pran
[295.285]
<no-speech>
[296.435]
osito ke nou kòmanse <no-speech> m_kapab e <hes> bay sa m_rete a <no-speech> e m_konnen m_kapab libere m_nan istwa sa
[304.965]
<no-speech>
[306.235]
<sta> <hes> <hes> bon li reponn mwen ou konnen natirèlman <hes> <hes> *se* *yon* nonm san pwoblèm li ye
[310.935]
<no-speech>
[312.055]
men <hes> m_toujou sinyale l_tou men vòlè yo bay pou (()) Anntoni a
[315.715]
<no-speech>
[317.055]
<hes> <hes> machin li an se pa de anmède y_ap anmède_m la <no-speech> si l_ta fout anmède_m pou twa san dola a m- ap fout di_l li mèt vin pran_l
[324.085]
<no-speech>
[327.715]
men ban mwen ban mwen kòman bagay yo nan kay la rakonte_m *non*
[330.935]
<no-speech>
[335.815]
anben ban_m enfòmasyon
[337.795]
<no-speech>
[338.745]
<no-speech>
[339.105]
<no-speech>
[341.065]
<no-speech>
[341.725]
<no-speech>
[342.685]
ban mwen sa w_ k_ nesesè tout sa ou wè k_ nesesè <sta> pou w_ ban mwen ban mwen
[347.495]
<no-speech>
[353.935]
oh oh ou tèlman gen anpil <no-speech> oke oke <hes> ou mèt pale wi
[358.565]
<no-speech>
[360.515]
<no-speech>
[360.895]
<no-speech>
[363.285]
<hes> <hes> alò talè a la m_ap plenyen grangou mwen m_ap di lakay mwen lè konsa genyen bèl manje k_ap flannen sou tab la epi mwen menm k_ap grangou nan bwa a
[372.165]
<no-speech>
[375.595]
m_pa di ou se andeyò m_ye
[376.945]
<no-speech>
[379.555]
wi kote_m ye a la *se* bèl pye bwa_m ap gade bon van m_ap pran la a <no-speech> <sta> m_nan machin m- ap woule machin *se* kòmsi machin nan pa t_ap <hes> pa t_ap woule paske se bèl se bon van ou menm menm de twa machin ou pa tande
[391.535]
k_ap pase
[392.015]
<no-speech>
[397.255]
<sta> *ou* *konnen*
[397.975]
<no-speech>
[401.815]
ou pitit oh marengwen fini ak e m_
[404.875]
<no-speech>
[408.235]
<sta> ouh marengwen se sakaje yo sakaje m_bon <hes>
[412.375]
<no-speech>
[414.095]
bon jan_m wè a la marengwen genlè p_ap kite anyen nan mwen
[416.435]
<no-speech>
[422.075]
<hes> <hes> misye misye te benyen ta <sta>
[423.825]
<no-speech>
[428.955]
anben si si_l pa benyen ta *bagay* *sa* pa ta sipoze nan kò_l konsa <sta>
[432.885]
<no-speech>
[436.765]
<hes> <sta> ou pa mennen misye kay doktè a <no-speech> (()) tout moun la tout moun la m_wè Magali <no-speech> (()) Magali pale anpil men a Michèl <no-speech> gad yon fanm mesye
[448.165]
<no-speech>
[449.405]
ouh <sta>
[450.305]
<no-speech>
[451.405]
menm jan ak Michèl Magali di w_ yon sèl bagay menm twa kat fwa
[454.275]
<no-speech>
[455.805]
menm bagay a Michèl
[457.455]
<no-speech>
[461.935]
ouh <sta> yon sèl grenn *bagay* la Magali di ou li twa kat senk fwa <no-speech> m_pa <laugh> konprann sa menm
[468.005]
<no-speech>
[469.485]
<foreign>
[469.915]
<no-speech>
[474.515]
(())
[475.095]
<no-speech>
[479.085]
e alo
[479.945]
<no-speech>
[483.485]
alo
[484.125]
<no-speech>
[485.725]
(()) t_ap fè yon bagay
[487.485]
<no-speech>
[494.045]
<no-speech>
[494.765]
<no-speech>
[496.805]
<sta> tout fout li yon dezyèm wi pou fèt dè mè a
[499.865]
<no-speech>
[503.345]
kite l_bat bouda li
[504.705]
<no-speech>
[505.955]
yo t_ap fout li yon dezyèm <sta>
[507.605]
<no-speech>
[508.585]
Bondye fè <hes> li pa menm sou lekòl
[510.275]
<no-speech>
[516.295]
lapli ap tonbe toujou <sta>
[517.745]
<no-speech>
[523.415]
ah Pòtoprens lan genlè vin anmèdan
[525.655]
<no-speech>
[529.935]
<hes>
[530.425]
<no-speech>
[538.585]
bon
[539.025]
<no-speech>
[540.125]
<sta> non anben natirèlman ou pa vle manje
[542.595]
<no-speech>
[546.775]
anben lè konsa bay yon lòt moun fè manje a
[549.365]
<no-speech>
[552.385]
<hes> <hes> Fafàn pa fè manje ankò nan kay la
[555.045]
<no-speech>
[558.825]
<no-speech>
[559.235]
<no-speech>
[561.845]
mhm <sta>
[562.715]
<no-speech>
[566.115]
oke oke men <hes> <hes> pa bay Serèt fè anyen nan kay la pou tout moun Serèt ap fè w_ wont wi
[572.055]
<no-speech>
[573.235]
nanpwen sèl fanm konn fè manje sal konsa non
[575.855]
<no-speech>
[578.945]
wouh ou ou <hes> fanm sa fout mwen yon makawoni mezanmi wo <no-speech> tansyon m_moute disèt pa swasanntwa
[585.535]
<no-speech>
[586.425]
gad yon fanm mesye
[587.685]
<no-speech>
[590.595]
m_pa vle_l ankò papa
[591.825]
<no-speech>
[593.955]
<laugh> premyè l_fè_l la li fè_l sal <no-speech> dezyèm fwa_l fè_l la li fè_l san sèl
[599.215]
<no-speech>
[600.020]
