[0.000]
<no-speech>
[8.775]
<no-speech>
[11.055]
<no-speech>
[18.615]
<no-speech>
[19.975]
<no-speech>
[28.375]
wi alo
[29.235]
<no-speech>
[30.895]
wi wi se mwen
[32.245]
<no-speech>
[38.555]
(())
[41.105]
<no-speech>
[43.535]
kilè ou di y_ap rantre ta
[46.685]
<no-speech>
[48.375]
kilè ou di y_ap rantre ta
[49.895]
<no-speech>
[51.415]
<no-speech>
[51.815]
<no-speech>
[57.445]
anhan
[58.195]
<no-speech>
[61.335]
mwen m_pa tande nouvèl a ou menm non pase (()) te ban_m on nimewo telefòn m_pa janm pale ake ou ankò
[68.165]
<no-speech>
[71.295]
se vre men ou pa janm ban_m bwi ankò paske m_te gen nimewo telefòn a ou m_di ah bon yo pa rele m_ m_pa rele yo tou
[78.505]
<no-speech>
[79.695]
(())
[80.485]
<no-speech>
[81.775]
ah yon pwoblèm
[83.565]
<no-speech>
[85.515]
on pwoblèm moun sa yo ye menm
[87.315]
<no-speech>
[89.295]
se vre lang ay lou anpil lang ay lou anpil
[94.605]
<no-speech>
[103.025]
(())
[103.555]
<no-speech>
[104.645]
enhen
[105.555]
<no-speech>
[107.515]
(())
[108.555]
<no-speech>
[110.165]
<hes> ou kwè Nizou ap rantre Ayiti vre
[114.765]
<no-speech>
[118.905]
se vre si e Liz ki di w_ sa Liz se pawòl li byè
[123.545]
<no-speech>
[125.485]
(())
[126.845]
<no-speech>
[127.875]
oh ou pa_t janm konnen sa
[130.505]
<no-speech>
[134.075]
ou poko wè (()) depi ou poko *wè* (()) depi *lè* (()) monte a
[137.015]
<no-speech>
[140.715]
enhen (()) li ka poko vle ou wè tou
[144.495]
<no-speech>
[146.485]
(())
[148.575]
<no-speech>
[149.715]
li fè de nan pentu yo youn nan pentu (())
[153.175]
<no-speech>
[154.135]
(())
[158.705]
<no-speech>
[160.935]
se vre <no-speech> m_sispèk si m_mande (()) m_wè li pa janm fè repons m_pa konnen tou
[167.145]
<no-speech>
[168.375]
m_ te- ou wè m_te ekri_l m_te *di* (()) sa
[172.905]
<no-speech>
[174.055]
men kòman bagay yo ye dèyè a la
[178.685]
<no-speech>
[181.115]
mhm
[182.065]
<no-speech>
[184.575]
se vre n_ap (()) bagay yo kousi kousa
[188.115]
<no-speech>
[190.035]
mwenmenm m_pa konn m_pa pran nouvèl a Memin menm non
[193.345]
<no-speech>
[196.275]
mhm
[197.205]
<no-speech>
[198.735]
oke
[200.065]
<no-speech>
[201.265]
oke
[204.155]
<no-speech>
[205.525]
e kòman tout moun ye anfòm Patrik Blan
[208.735]
<no-speech>
[209.815]
<int> yo e Jowe kòman l_ye
[216.105]
<no-speech>
[219.125]
se vre menm e lòt Blan an
[223.975]
<no-speech>
[227.515]
se vre
[228.845]
<no-speech>
[229.925]
li pa vle wè_m jan_m anvi wè Blan m_pa konnen men
[236.845]
<no-speech>
[237.835]
dèyè an_m pou pase
[239.445]
<no-speech>
[240.385]
hen
[242.585]
<no-speech>
[244.085]
wi nan menm jou li te fèt la wi m_te kite m_te m_t_ap kite Pòtoprens
[248.235]
<no-speech>
[251.365]
se vre m_pa konnen tou pou vakans Pak la tou depi_m fen konpoze pou sesyon an
[255.885]
<no-speech>
[257.245]
m_ap wè si_m ka eseye antre (()) fè kèk jou
[261.685]
<no-speech>
[262.935]
ou konnen bagay yo de- ou konnen bagay yo deja nou pa ka ba_w refi fòk ou kontinye w_a
[270.755]
<no-speech>
[272.385]
ah tèt chaje tèt chaje se konsa Okap la tou <no-speech> hmm Michlin li ta wi l_anfòm
[283.165]
<no-speech>
[284.575]
m_ap frape
[285.745]
<no-speech>
[288.635]
ki moun
[289.815]
<no-speech>
[292.635]
<no-speech>
[293.005]
<no-speech>
[294.115]
se vre
[296.845]
<no-speech>
[299.035]
mhm
[300.165]
<no-speech>
[303.195]
mhm
[304.075]
<no-speech>
[305.655]
(()) bagay yo se *kalkil* yo ye avan wi
[309.795]
<no-speech>
[310.725]
e kalkil yo ye avan
[314.045]
<no-speech>
[319.095]
<no-speech>
[319.765]
<no-speech>
[320.635]
wè wè
[322.495]
<no-speech>
[324.795]
ya (()) sa vle di li p_ap ka li p_ap ka move kò li p_ap ka move kò a (())
[329.005]
<no-speech>
[333.045]
ah m_p_ap ka genyen m_di_w m_p_ap ka kontwole bòn sa menm menm menm menm
[338.355]
<no-speech>
[340.765]
adje
[342.305]
<no-speech>
[344.255]
<no-speech>
[344.625]
<no-speech>
[345.425]
ah kanaval la on kanaval <no-speech> tèt chaje
[349.965]
<no-speech>
[351.835]
m_p_ap fè yon pa non paske m_wè kòmsi janm wè bagay yo te ye a m_pa_t twò renmen fason yo òganize bagay bagay yo
[360.035]
<no-speech>
[363.895]
<hes> manman Mari m_pa nan kouzen ankò <no-speech> m_pa janm wè_l m_pa janm wè_l li pa janm mande pou mwen m_pa janm mande pou li
[374.285]
<no-speech>
[377.085]
<foreign> <no-speech> non pa- lè m_wè moun m_mande pou li li li pa janm mande moun moun yo di li pa janm mande pou mwen kounye a m_di ah bon (())
[388.685]
<no-speech>
[389.625]
(()) m_poze (()) m_pa nan rele ankò m_pa nan mande pou li bagay sa yo m_pa nan pale *avè_l* menm
[398.145]
<no-speech>
[399.475]
<no-speech>
[399.835]
<no-speech>
[400.935]
m_pa nan pal_akey menm menm menm menm menm menm e m_janm bezwen nan pale akey ankò
[406.435]
<no-speech>
[409.405]
(())
[410.195]
<no-speech>
[412.405]
ebyen ebyen
[414.045]
<no-speech>
[415.605]
enbyen ben la jwenn on nèg ki renmen_l <no-speech> ou konprann sa m_di_w la
[420.985]
<no-speech>
[422.285]
hmm
[423.055]
<no-speech>
[423.915]
<no-speech>
[424.415]
<no-speech>
[425.785]
m_pa konnen
[427.255]
<no-speech>
[429.535]
m_pa konnen mwen <hes> mwen pa pran nouvèl *ya* menm
[433.105]
<no-speech>
[437.515]
ah tèt chaje anyen non anyen de bon anyen k_serye non
[443.005]
<no-speech>
[446.475]
ah
[447.635]
<no-speech>
[449.295]
ah ou konnen peyi sa se yon vye peyi kontak li ye <no-speech> depi_w pa gen kontak pa gen anyen ki ka mache pou ou
[458.665]
<no-speech>
[460.015]
sitou sou sitou sou ou pa sitou sou pa <foreign> ake kò w_
[465.385]
<no-speech>
[467.665]
(())
[470.385]
<no-speech>
[472.715]
wi
[473.175]
<no-speech>
[474.305]
hmm <no-speech> demil kenz wi
[479.865]
<no-speech>
[482.035]
wi
[484.165]
<no-speech>
[485.335]
wi
[486.585]
<no-speech>
[487.755]
demil kenz (())
[490.585]
<no-speech>
[492.295]
non m_poko non <no-speech> m_te fè kontak m_t_ap chache kèk kontak yo poko di_m anyen m_ap tann m_wè
[501.345]
<no-speech>
[503.755]
ah se sa m_ap eseye fè la a
[508.245]
<no-speech>
[509.615]
wi <no-speech> wi ah ou pa bon depi_w pa depi_w pa janm ou p_ap ka travay non nan peyi sa a
[518.825]
<no-speech>
[520.595]
de tout fason m_ap m_ap frape kanmèm ou konprann sa m_di_w la menm si bagay yo e konsa yo ye nan peyi sa a
[532.125]
<no-speech>
[535.745]
<no-speech>
[537.045]
tout moun la wi <sta> apresa tout moun la <no-speech> tout moun poze *poze* yo lavi (()) nan vye peyi sa
[547.225]
<no-speech>
[549.595]
ou konprann sa m_di_w la
[552.645]
<no-speech>
[553.675]
tèt chaje <no-speech> ou pa pran nouvèl (()) kòman tonton nanm ye
[558.105]
<no-speech>
[559.765]
wi tan Jaklin
[562.285]
<no-speech>
[563.475]
mhm
[564.555]
<no-speech>
[567.775]
mhm
[568.935]
<no-speech>
[571.035]
mhm
[572.295]
<no-speech>
[575.705]
mhm
[576.525]
<no-speech>
[578.085]
mhm
[579.275]
<no-speech>
[583.945]
(()) tantan an_m nan bagay <no-speech> wi tantan an_m nan bagay sa yo ankò tantan an_m se lagras ak Jezi wi
[594.115]
<no-speech>
[595.325]
<no-speech>
[596.345]
<no-speech>
[597.825]
(())
[598.325]
(()) lagras la li vin leve kon ~
[600.120]
