[0.000]
<no-speech>
[0.005]
<sta> èske w_ap koute_m <foreign>
[1.225]
<sta> (())
[2.955]
gade (()) te rele_m <int>
[4.655]
(())
[5.705]
<sta> (()) wèh
[11.905]
(())
[12.905]
<no-speech>
[13.265]
<no-speech>
[14.135]
<sta> (()) te rele_m
[16.505]
(())
[17.875]
di (()) l_ tele m_ <no-speech> apre sa <hes> li di_m konsa <hes> li <prompt> lè_l pran foto yo <no-speech> apre sa <no-speech> gen yon lòt patnè <hes> ki ekri_w
[29.675]
misye te rele m_ankò m_pa_t ka tande <no-speech> m_ <hes> pale ak misye <no-speech> di_m konsa <no-speech> moun <no-speech> gen yon moun <no-speech> ou te di *pou* chèche nimewo a <no-speech> li pa jwenn nimewo a moun nan
[38.815]
<no-speech>
[39.745]
w_ap tande <no-speech> kounye a la mèt Franns di ou te di <hes> ki ta pral rele w_ pou te ba_w <hes> mèt Franns di ou di ki ta pral rele w_ pou te ba_w <sta>
[51.105]
nimewo a <hes> te ban_m (()) li di (()) yo
[56.755]
<no-speech>
[57.615]
<sta> aprè sa m_pa jwenn moun ankò menm <no-speech> *sa* *vle* *di* kounye a la lòt patnè ki te rele_m ekri_m didje fòk bay foto yo <no-speech> m_di_m ap regle yon *bagay* la pita <no-speech> m_ap (())
[67.705]
(())
[68.545]
enh <sta>
[69.395]
(()) <sta>
[71.785]
pa gen moun ki bipe_w (()) ou menm <no-speech> e m_pa gen <foreign> e m_pa gen m_minit
[74.875]
<no-speech>
[76.865]
enh <sta>
[77.625]
<no-speech>
[81.255]
<sta> m_pa gen S_M_S e m_pa gen anyen pou m_ekri (()) la menm
[84.595]
<no-speech>
[86.865]
<no-speech>
[88.075]
<no-speech>
[91.415]
<sta> wèh
[93.885]
(())
[95.035]
<no-speech>
[95.395]
<no-speech>
[96.235]
<sta> enhen
[97.275]
<no-speech>
[100.555]
enhen m_p_ap (()) enhen
[103.575]
<no-speech>
[104.925]
(())
[105.275]
<no-speech>
[107.095]
<sta> enhen
[108.665]
<no-speech>
[113.145]
<sta> enhen
[113.935]
<no-speech>
[115.905]
<no-speech>
[116.745]
<no-speech>
[121.195]
<sta> m_ p_ ap koupe mizik la menm non
[124.575]
<no-speech>
[127.325]
oke <sta>
[129.045]
<no-speech>
[130.495]
<no-speech>
[131.705]
<no-speech>
[137.485]
<no-speech>
[138.705]
<no-speech>
[139.715]
(()) <sta>
[142.885]
<no-speech>
[145.605]
<no-speech>
[147.295]
<no-speech>
[152.315]
<sta> enhen
[154.675]
<no-speech>
[156.035]
<no-speech>
[156.385]
<no-speech>
[159.185]
<sta> enhen
[160.615]
<no-speech>
[162.775]
<no-speech>
[163.345]
<no-speech>
[165.085]
<sta> enhen
[166.225]
<no-speech>
[168.215]
<sta> enhen
[172.765]
<no-speech>
[174.445]
<sta> kisa
[176.965]
<no-speech>
[178.285]
<sta> m_pa tande pale pi fò_m paske m_pa m_pa
[181.345]
<no-speech>
[183.955]
<sta> waw <no-speech> m_pa tande w_ byen non menm e pa pa (()) enh
[187.965]
<no-speech>
[189.485]
<sta> kisa
[190.825]
<no-speech>
[193.325]
<sta> m_pa tande sa ou di a menm
[197.035]
<no-speech>
[198.835]
<sta> wèh
[199.705]
<no-speech>
[200.895]
<no-speech>
[202.005]
<no-speech>
[203.635]
<sta> m_pa tande w_ byen menm
[206.515]
<no-speech>
[207.925]
<sta> non m_p_ap (()) telefòn nan <no-speech> e kibò_w ye ou lakay la
[215.765]
<no-speech>
[220.695]
enhen <sta>
[223.195]
<no-speech>
[228.455]
<sta> enhen
[230.005]
<no-speech>
[235.485]
<sta> (())
[236.095]
<no-speech>
[238.485]
<sta> anben oke m_pa la m_pa la <no-speech> kòm ou di ou bay ou bay ou bay nimewo_m <no-speech> lè nèg yo bigòp mwen *m_* *ap* *bagay*
[246.305]
<no-speech>
[253.515]
<sta> <hes> anben oke
[255.475]
<no-speech>
[256.405]
se yon *bagay* *m_* *ap* fè *la* *a* <no-speech> se yon *bagay* *m_* <hes>
[259.225]
<no-speech>
[260.025]
m_ap fè lavil la la a <no-speech> *sa* *vle* *di* m_poko ap vini m_ka vin bò <hes> bò katrè m_ka desann la
[265.815]
<no-speech>
[268.225]
<sta> m_ale_m ale <hes> avèk manman_m men <no-speech> m_pa wè moun nan menm
[276.125]
<no-speech>
[277.185]
pa gen anyen ki di menm <sta> (())
[280.405]
<no-speech>
[282.575]
m_p_ap koupe monchè
[286.285]
<no-speech>
[289.465]
(())
[290.855]
<no-speech>
[292.455]
<no-speech>
[297.495]
<no-speech>
[298.415]
(())
[298.905]
(())
[301.435]
non m_pa nan boul la menm mayestwo
[303.935]
<no-speech>
[308.095]
<no-speech>
[308.445]
<no-speech>
[311.575]
<no-speech>
[312.105]
<no-speech>
[313.455]
(())
[313.975]
<no-speech>
[323.265]
<no-speech>
[323.615]
<no-speech>
[324.565]
<sta> m_la wi <foreign>
[326.915]
<no-speech>
[329.445]
<sta> non m_pa sou plas la kot Senndi a m_ye
[331.425]
<no-speech>
[332.765]
<sta> kot Senndi a m_ye
[335.155]
<no-speech>
[336.265]
mhm
[336.975]
<no-speech>
[338.555]
<no-speech>
[340.305]
<no-speech>
[341.125]
<sta> misye pa la non <hes> yon *bagay* misye ap regle pou mwen kèk *bagay* m_bay misye fèmen pou mwen m_pa wè misye la a
[346.465]
<no-speech>
[347.795]
<sta> m_pa wè l_
[350.035]
<no-speech>
[351.045]
<sta> enh <no-speech> kiyès kisa
[358.325]
<no-speech>
[360.675]
(()) bouch li pou mwen <foreign> <no-speech> non
[365.205]
<no-speech>
[369.635]
<no-speech>
[372.325]
<no-speech>
[375.555]
<sta> mhm
[380.495]
<no-speech>
[383.215]
<sta> m_pral gade m_wè
[390.965]
<no-speech>
[392.075]
<no-speech>
[398.235]
<no-speech>
[401.255]
<no-speech>
[407.825]
<no-speech>
[409.965]
<no-speech>
[410.325]
<no-speech>
[414.315]
<sta> mach la poko fini non <foreign> <no-speech> premye mitan an k_fini wi <foreign>
[423.135]
<no-speech>
[424.515]
<no-speech>
[425.005]
<no-speech>
[431.715]
<no-speech>
[443.495]
<sta> an match la w_ap gade la <no-speech> Baselòn nan konbyen l_fini <no-speech> de de <no-speech> anben oke <no-speech> yon mizik k_ap woule la
[455.445]
<sta> ou di *anyen* kiyès ki make pou Baselòn
[467.315]
<sta> a kiyès
[469.655]
<no-speech>
[470.735]
<sta> enh <no-speech> an <no-speech> an oke
[474.395]
<no-speech>
[477.295]
Mesi fè yon bèl gòl <no-speech> Mesi fè yon bèl gòl
[484.995]
<no-speech>
[487.735]
èske Mesi fè yon bèl gòl
[490.075]
<no-speech>
[491.045]
<no-speech>
[495.315]
<no-speech>
[496.295]
<no-speech>
[497.295]
<no-speech>
[499.195]
<no-speech>
[501.445]
<no-speech>
[503.955]
<hes> <sta>
[505.705]
<no-speech>
[507.675]
<no-speech>
[509.835]
<no-speech>
[510.715]
<sta> (()) m_pa_t gade match la
[516.875]
<no-speech>
[517.765]
<sta> yo pa pral jwe pita
[529.685]
<no-speech>
[537.335]
<no-speech>
[538.365]
<sta> (()) m_pa pral jwe ankò non <no-speech>
[550.205]
<no-speech>
[562.085]
<no-speech>
[573.635]
<no-speech>
[577.765]
<no-speech>
[578.575]
<sta> gade (()) la a (()) tankou se de (())
[590.285]
<no-speech>
[599.215]
<no-speech>
[600.340]
