[0.000]
(())
[0.595]
<int> (())
[3.715]
<int> <prompt> wi alo <no-speech> dat dat youn moman dat youn moman <no-speech> (()) <int> wi alo
[15.325]
<no-speech>
[16.585]
wi chè
[17.365]
<no-speech>
[18.975]
(()) <int> ou mèt pale wi oke n_anfòm enhen e manmi kouman manmi ye kouman manmi ye
[26.085]
<no-speech>
[26.965]
(())
[27.545]
<no-speech>
[28.955]
(()) <int> wi wi li toujou kontinye ap pran medikaman an <int>
[34.295]
<no-speech>
[35.155]
<int> enh enhen li fè ti manje
[38.065]
<no-speech>
[40.045]
<sta> mhm li bwè ti Jili dòmi li dòmi trè byen mhm mhm
[47.385]
<no-speech>
[48.465]
<no-speech>
[48.845]
<no-speech>
[51.165]
<hes> sa ou di
[52.215]
<no-speech>
[55.685]
enhen
[56.425]
<no-speech>
[57.755]
<sta> (()) dòmi (()) li t_ap reveye lanwit kanmenmen *paske* fò l_al nan twalèt bagay sa yo <no-speech> nou ta prefere
[65.215]
<no-speech>
[67.405]
<sta> li konstipe <no-speech> enh
[70.445]
<no-speech>
[72.605]
wi <sta> doktè a ba_l <hes> doktè ba_l bagay pou konstipasyon an
[77.245]
<no-speech>
[78.695]
<sta> enhen mhm
[80.015]
<no-speech>
[82.325]
<sta> enhen
[83.005]
<no-speech>
[84.435]
(()) <sta> wi <no-speech> enh <no-speech> enhen se pou n_ba_l ti ji zoranj ti ji zoranj prèske san dlo <foreign>
[92.055]
(())
[92.935]
<sta> enben ba li li yon ti jan fre <no-speech> ti ji zoranj prèske san dlo <no-speech> mhm <no-speech> <foreign> enhen l_ap ede li l_ap ede li al a la sèl mhm ba_l ti ji d_orange <hes> enhen san dlo
[104.165]
<sta> (()) nou fè l_fre <foreign> menm wi <no-speech> nou pa ba li_l cho non men nou fè l_fre <foreign> menm <no-speech> ou wè <no-speech> epi li
[112.085]
<no-speech>
[115.155]
enhen
[115.765]
<no-speech>
[117.915]
<int> enhen
[118.935]
<no-speech>
[122.105]
<sta> wi fò l_al a la sèl <no-speech> paske si <hes> si_l manje youn bagay <foreign> byen ke fò l_al a la sèl
[127.525]
<no-speech>
[128.495]
paske <sta> kounye a lè konsa w_oblije w_ap veye <hes> w_ap veye tout bagay kounye a li pa <hes> li pa bwè lèt li pa bwè labouyi
[135.345]
<no-speech>
[137.015]
<no-speech>
[138.505]
<no-speech>
[140.355]
<no-speech>
[141.075]
<no-speech>
[141.915]
<int> (()) sa ou di
[144.145]
<no-speech>
[146.785]
(())
[147.425]
<no-speech>
[149.045]
li pa <hes> li pa renmen ji zoranj
[151.205]
<no-speech>
[152.795]
<sta> wi men
[154.415]
<no-speech>
[155.655]
ou wè paske m_te ap <hes> enhen paske se sa_m <hes> enhen se sa_m ta pral di pou mwen eksplike l_menm ji zoranj lan se pou ede l_al a la sèl la sitou <foreign>
[165.915]
<no-speech>
[167.315]
li pa okipe_w <no-speech> ou konnen
[168.825]
<no-speech>
[172.255]
<no-speech>
[174.165]
<no-speech>
[175.215]
enhen
[175.935]
<no-speech>
[181.485]
Jowèl vle eat kisa <no-speech> vyann
[183.835]
<no-speech>
[185.805]
<sta> mezanmi Jowèl konn vyann
[189.665]
<no-speech>
[191.815]
sèl pou_l li manje
[193.095]
<no-speech>
[194.775]
sèl pou_l
[195.555]
<no-speech>
[196.745]
enben ou wè <hes> ou wè pou_l la nou gen dwa achte blan poul pou li wi <no-speech> <foreign> egzanp nan <foreign> la nou achte blan poul pou li nou fè_l ti bouyi nou bouyi li nou fè_l fè youn sòs blanch
[208.385]
<sta> l_ap manje li paske nou fè l_trè byen (())
[211.195]
<no-speech>
[213.475]
enh
[213.985]
<no-speech>
[215.995]
<hes> pou_l peyi <no-speech> wi sistèm granmoun yo se pou_l peyi
[220.955]
<no-speech>
[222.905]
wi
[223.555]
<no-speech>
[224.365]
<no-speech>
[225.245]
<no-speech>
[226.505]
<sta> enhen wi genyen li men kanmenm
[229.165]
<no-speech>
[232.645]
<sta> men <foreign> menm menm peyi a genyen blan an
[235.415]
<no-speech>
[238.425]
<no-speech>
[243.785]
<no-speech>
[244.905]
<sta> ou wè
[245.555]
<no-speech>
[247.025]
<sta> <hes> ou wè blan pou_l la blan pou_l la kòmsi li menm li yon ti jan menm si se pou_l peyi men blan an nou gen dwa kuit li pou li (()) lòt la li soti lòt peyi se li
[259.025]
<sta> ki pi mou
[259.835]
<no-speech>
[260.695]
blan pou_l la donk nou kapab fè_l bouyi
[263.475]
<no-speech>
[264.875]
li manje <hes> li manje tout *pati* nan pou_l la <no-speech> li vale_l tout bagay <no-speech> li pa gen pwoblèm pou_l vale_l
[271.165]
<no-speech>
[272.525]
<no-speech>
[272.875]
<no-speech>
[274.845]
ba_l kuit li tout jan ou ba li_l kuit manke kuit l_ap manje_l wi li renmen ni <laugh>
[282.005]
<no-speech>
[284.595]
li pa bezwen sa yo
[285.685]
<no-speech>
[287.285]
li pa bezwen vyann sa yo
[288.675]
<no-speech>
[290.465]
<sta> men <hes> ki lòt tiju nou wè_l ren- nou remake ke l_renmen
[294.825]
<no-speech>
[301.305]
kouman ou ye
[302.005]
<no-speech>
[303.685]
<no-speech>
[304.345]
<no-speech>
[308.515]
pire <no-speech> e ti <hes> e ti bouyon <hes> e ti bouyon an li bwè ti bouyon
[313.115]
<no-speech>
[316.105]
(())
[316.985]
<no-speech>
[318.625]
wi wi n_ap fòse_l pou l_pran detwa kilè
[322.325]
<no-speech>
[325.915]
Tchad
[326.495]
<no-speech>
[333.415]
<sta> wi kite manje <no-speech> wi kite manje (()) ap vin talè
[338.605]
<no-speech>
[339.755]
monchè manman_m mezanmi anvan l_e mouri tout ti sa_l te renmen m_fè pou li
[344.555]
<no-speech>
[345.715]
<sta> tout ti sa_l te renmen <no-speech> m_fè li renmen diriwolè m_fè diriwolè pou li Bondye pou li l_pa_t konn gen dyare li pa_t konn gen gwo pwoblèm sa yo donk m_fè ti bouyon m_fè bouyon m_fè
[357.565]
<sta> tèt kabrit lè_l vle m_fè ti bouyon tèt kabrit m_fè pou li <no-speech> m_fè ti diriwolè li renmen diriwolè m_fè pou li tout ti sa l_renmen mwen fè pou li ou wè tout
[368.905]
<sta> ti diri manje l_vin mande_w pou kuit pou li a ou kuit li <no-speech> m_ <no-speech> li manje li manje li manje li manje tout ti bagay jiskaske ou wè li <hes> li vin <hes> li vin ap
[379.575]
wi menm lè l_ale a l_pa_t gentan pa manje tou <no-speech> pou moun nan leve yon sèl jou lopital la yon sèl jou a l_ale tou
[385.635]
<no-speech>
[387.085]
<sta> yon sèl jou menm jou a l_ale
[390.665]
<no-speech>
[391.475]
<sta> lè konsa fè *tiju* a *tiju* a pou nou bali_l
[397.235]
<no-speech>
[398.545]
mhm chak jou chak jou nou gen dwa al chanje ji a pou li
[402.425]
<no-speech>
[403.425]
nou gen dwa <foreign> *ji* a pou li enhen chanje li chak jou nou gen dwa ba_l *tiju* chadèk genlè se zoranj
[411.385]
<no-speech>
[414.275]
enhen enhen enhen <no-speech> paske chadèk la (()) bon li pa li pa gen pwoblèm li pa endijès li pa <hes> zoranj lan li menm li g_on lè
[421.825]
<no-speech>
[427.295]
wi m_konn sa m_konnen sa m_konnen sa dayè <hes> m_ chanje_m men_m chanje men wi
[434.095]
<no-speech>
[435.245]
<no-speech>
[435.725]
<no-speech>
[436.975]
mhm
[437.705]
<no-speech>
[438.865]
wi <laugh> enhen enhen li mare li chanje min ni <no-speech> wi wi li di li di kareman pa g_anyen k_ap desann
[449.495]
<sta> mhm enhen li di_m enhen li di ou sou kapab vini <laugh> kantapousa menm menm menm
[458.395]
<no-speech>
[459.985]
<no-speech>
[460.335]
<no-speech>
[468.465]
se sa se sa
[469.925]
<no-speech>
[471.025]
enhen paseke l_ka manje ti papay tou l_e ka manje li ou wè
[475.095]
<no-speech>
[476.515]
mhm l_ka manje ti papay enhen
[478.765]
<no-speech>
[480.195]
<no-speech>
[480.775]
<no-speech>
[483.105]
<no-speech>
[483.465]
<no-speech>
[484.815]
<no-speech>
[485.175]
<no-speech>
[487.065]
enhen
[487.825]
<no-speech>
[490.175]
<no-speech>
[491.795]
<no-speech>
[493.125]
(()) tout sa manman m_di_w lan tout sa yo papa mwen menm bon (()) sa yo mwen toujou tolere yo <no-speech> paske yo manman m_di_w sa si m_pa_t gentan fè tout sa
[504.875]
l_e renmen m_ta regrèt paske li pa gentan kouche ou konprann <no-speech> li pa gentan kouche menm <hes> menm kote l_pa byen an l_al ka doktè se nan wikenn nan m_wè_l
[515.225]
pa byen nan lendi a nou mennen l_al ka doktè li mouri nan lendi a <no-speech> donk ou wè ke se yon <no-speech> li pa gentan kouche li pa gentan <no-speech> li pa gentan bay pwoblèm li pa bay pwoblèm m-m li pa bay pwoblèm
[526.885]
(()) epi pandansetan kòm <hes> kòm epòk enhen kòm epòk la m_te an konje donk tout sa_l renmen m_fè_l lèzaprèmidi gen yon jou li di konsa la a m_pran sant yon bagay ki santi
[538.675]
bon mwen di kisa l_ye manman epi <hes> li di <hes> li di konsa ke <hes> <hes> se m_di konsa m_pa konnen li di <hes> se sant diwolè m_pran sant
[550.055]
<laugh> enhen <breath> se sa m_te ap fè pou li vre wi lè sa a <no-speech> li pran sant diriwole_m (()) m_di ou gentan pran sant li enhen li pran sant kanèl la kanèl la ak diri a k_t_ap bouyi a (())
[561.935]
(()) <sta> antouka lè konsa ou santi_w <no-speech> ou santi_w yon ti jan_w pa gen tèlman regrè ou satisfè ou wè ke li
[573.345]
li viv_l <hes> ale byen
[575.195]
<no-speech>
[578.985]
<sta> enh enhen <no-speech> enhen hen <no-speech> wi
[582.655]
<no-speech>
[583.755]
<sta> enhen
[586.975]
<no-speech>
[589.845]
<sta> enhen <no-speech> enhen
[591.865]
<no-speech>
[593.555]
men èske li pa <hes> li pa renmen li pa renmen lèt <hes> lèt likid (()) lèt nan ti galon yo lèt likid nan (())
[599.960]
