[0.000]
<sta> ou fè mwayèn
[1.155]
(())
[1.515]
<no-speech>
[2.465]
ki *dyalòg* ou jwenn
[3.235]
<no-speech>
[5.405]
alo
[6.945]
<no-speech>
[8.015]
wi kòman ou ye menm
[9.355]
<no-speech>
[11.985]
<sta> kòman_w fè <no-speech> jounen an menm <breath> <int> m_
[18.915]
<no-speech>
[20.165]
oh byen gras a Dye
[21.905]
<no-speech>
[23.415]
*sa* *w_ap* fè la w_ap manje
[24.885]
<no-speech>
[27.605]
m_
[28.185]
<no-speech>
[31.195]
epa_w pa al nan etid la sè_m
[32.715]
<no-speech>
[36.575]
e kwè e dòmi_w t_ap dòmi
[37.835]
<no-speech>
[41.705]
<hes>
[42.605]
<no-speech>
[45.305]
kòman zanmi_w lan ye
[46.625]
<no-speech>
[51.815]
fò_w pale tou wi oh oh fò_w poze kesyon *paske* se yon bagay m_ap m_ap ede yon moun la
[55.735]
<no-speech>
[57.145]
<no-speech>
[57.875]
<no-speech>
[59.435]
<hes> ou *pran* pòz
[60.625]
<no-speech>
[61.775]
m_
[62.125]
<no-speech>
[63.155]
<laugh> ah
[65.525]
<no-speech>
[68.415]
wi
[68.975]
<no-speech>
[71.485]
<hes> <no-speech> ah Bòb jis yon bagay pale pandan di minit li te di_m
[76.275]
<no-speech>
[77.305]
m_pale avè_w <laugh>
[79.695]
<no-speech>
[80.955]
mhm <breath> li pale avè_m m_ <no-speech> <hes> w_a- w_al lòtbò a
[88.785]
<no-speech>
[90.995]
<sta> w_al lòtbò a l_wè demen si Dye vle oubyen jedi en
[94.855]
<no-speech>
[98.765]
anhan
[99.525]
<no-speech>
[100.635]
demen aprè midi
[101.625]
<no-speech>
[104.575]
<sta> <hes> mè wi mè wi mè wi chak premye madi
[109.385]
<no-speech>
[110.685]
a kilè_w prale menm an twa ze yo reyini <int>
[114.165]
<no-speech>
[122.615]
mhm
[123.155]
<no-speech>
[124.375]
<int> <hes>
[125.445]
<no-speech>
[127.225]
enben kòman fè kòman yè ou te rete nan
[130.265]
<no-speech>
[131.525]
leson
[132.255]
<no-speech>
[133.215]
an ou pa <hes> kounye a ou pa pran li menm <no-speech> a vrè *sa* fè nenpòt kat dimanch depi_w pa pran enfòmasyon
[137.725]
<no-speech>
[140.425]
<int> fatig
[141.555]
<no-speech>
[145.555]
en
[146.065]
<no-speech>
[147.855]
yo pa_t fè
[148.605]
<no-speech>
[149.875]
<sta> pa_t di
[150.715]
<no-speech>
[154.055]
ou pran yon echantiyon
[154.845]
<no-speech>
[156.125]
ou pran yon echantiyon
[157.275]
<no-speech>
[159.635]
ou gentan achte twal la
[160.735]
<no-speech>
[163.545]
m_poko <no-speech> oh konbyen konbyen kòb twal la vann
[166.575]
<no-speech>
[168.675]
<sta> konbyen kòb twal la vann
[170.275]
<no-speech>
[171.895]
Dawouli prepare_w
[172.885]
<no-speech>
[174.775]
li vann konbyen
[175.885]
<no-speech>
[184.115]
<sta> non <hes> bon <hes> bon bagay la m_bezwen mwen menm lonn nan
[189.315]
<no-speech>
[193.435]
lonn nan
[194.285]
<no-speech>
[197.665]
konbyen konbyen kòb konbyen konbyen chemiz lonn nan ka ba_w
[200.985]
<no-speech>
[207.295]
enben li p_ap ban_m <lipsmack> sis chemiz long
[208.855]
<no-speech>
[209.875]
a vle di yon sèl chemiz lan
[211.115]
<no-speech>
[212.065]
ou pa konbyen konbyen konsa yo bezwen <breath>
[214.925]
<no-speech>
[216.355]
enhen w_a di *konsa*
[217.465]
<no-speech>
[222.985]
<no-speech>
[223.405]
<sta> pa fèmen non
[228.835]
<sta> an yo yo mande man- yo mande chemiz manch long
[232.695]
<no-speech>
[234.295]
<no-speech>
[236.185]
<no-speech>
[242.645]
non tankou la yo
[243.875]
<no-speech>
[246.015]
yo *mande* <no-speech> kòsaj kout tou pou fi yo
[248.855]
<no-speech>
[252.545]
<sta> <hes>
[253.885]
<no-speech>
[257.705]
<hes> oke
[258.775]
<no-speech>
[260.855]
<sta> men ki lè m_wè m_wè <no-speech> a vre di la pou a vre di sa kounye a la fò sa ap *estab* nèt
[267.315]
<no-speech>
[270.825]
Èlda
[271.435]
<no-speech>
[274.065]
ah <int> monchè men mayo blan m_gen pwoblèm avè_l nèt mwen menm
[278.455]
<no-speech>
[285.495]
w_a pral w_a pral nan antèman nwa e blan w_al pral nan antèman nwa e w_a pral nan maryaj nwa e blan
[290.405]
<no-speech>
[291.325]
<no-speech>
[291.725]
<no-speech>
[294.715]
m_ Gistav la
[296.815]
<no-speech>
[298.205]
oh <no-speech> oh w_ap gentan prè <no-speech> pou w_ale w_ap gentan prè
[304.205]
<no-speech>
[305.675]
ah ap gentan vini <int>
[307.365]
<no-speech>
[309.925]
en
[310.555]
<no-speech>
[313.895]
e pa nwa e blan y_ap ye
[315.125]
<no-speech>
[317.675]
<hes>
[318.415]
<no-speech>
[319.605]
wi yo fè nou (()) yo fè nou (()) nan legliz la
[323.035]
<no-speech>
[325.915]
<hes>
[326.925]
<no-speech>
[329.295]
oke
[330.145]
<no-speech>
[333.235]
<no-speech>
[334.995]
<no-speech>
[337.345]
<hes> oke
[338.525]
<no-speech>
[340.055]
e ou menm ki lè ki lè w_ap marye la
[342.425]
<no-speech>
[343.675]
<cough> <hes>
[345.575]
<no-speech>
[348.405]
<no-speech>
[348.855]
<no-speech>
[350.395]
e *sa* *vle* *di* pa ou menm
[352.215]
<no-speech>
[355.565]
*sa* *vle* di ou poko gen fiyanse pou_w marye <no-speech> ou poko gen fiyanse a
[359.475]
<no-speech>
[361.215]
oh oh
[362.365]
<no-speech>
[364.535]
m_ <no-speech> m_panse se sèl mwen
[367.745]
<no-speech>
[368.855]
ou poko
[369.285]
<no-speech>
[372.465]
m_panse m_panse m_panse e sèl mwen k_t_ap dòmi nan liy nan wi
[375.555]
<no-speech>
[376.915]
<no-speech>
[377.395]
<no-speech>
[378.975]
<no-speech>
[380.105]
<no-speech>
[381.245]
<no-speech>
[381.755]
<no-speech>
[382.785]
en
[383.425]
<no-speech>
[384.595]
<no-speech>
[384.945]
<no-speech>
[385.995]
woy gade
[387.295]
<no-speech>
[388.645]
<no-speech>
[389.375]
<no-speech>
[391.835]
<breath> an anben oh
[394.685]
<no-speech>
[395.915]
gade ou wè bon m_p_ap ba_w *manti* ba_w verite
[398.095]
<no-speech>
[398.955]
ban_m ba_w plis verite m_t_ap pale avè_l
[401.765]
<no-speech>
[402.765]
*oke*
[403.385]
<no-speech>
[405.115]
enhen m_t_ap pale avè_l ou ou ou janm wè_l ankò <no-speech> <sta> en
[410.605]
<no-speech>
[412.575]
<sta> ah bon <no-speech> te_m vin di_m <no-speech> non se pa_t legliz la l_e mache <no-speech> men ou konnen <sta> <no-speech> lè moun nan *vrèman* *vre* te ka pran chans renmen avè_w li plis tankou_w wè ba_w ti vizit
[424.455]
<sta> epi_l di_m konsa <no-speech> *Jezi* *Kri* pa vle Letènèl pa vle bagay sa yo <no-speech> m_ <foreign> epi_m poze_m nan mwen menm <no-speech> m_pa ka fòse anyen
[436.005]
konsa_m ye m_pa janm fòse m_pa janm fòse anyen ditou
[438.795]
<no-speech>
[439.685]
<int> ou konprann <no-speech> wi m_rete nan mwen menm e konsa m_ye wi <no-speech> m_pa e konsa_m ye wi ou wè sa <no-speech> ou wè sa yon pakèt moun gen pwoblèm ansanm avè_m mwen depi moun nan di_m non m_pa pral nan poze_w kesyon pou
[451.445]
ki non
[452.065]
<no-speech>
[453.155]
non m_pa e konsa m_ye m_pa janm pèsiste moun <no-speech> pase tankou blan_m m_ wi mwen m_gen yon tanperaman se wi non
[459.845]
<no-speech>
[460.765]
depi_w wè moun nan te gentan di_m non pou yon bagay m_pa gen ankenn pou mwen pèsiste_w pou kesyon <no-speech> moun nan konn pou ki rezon w_a mande pou ki rezon la kounye a si moun nan vle esplike_m pou ki rezon l_ap esplike_m men m_pa pral mande_w pou ki rezon m_p_ap ensiste moun
[471.085]
<no-speech>
[473.595]
<no-speech>
[473.955]
<no-speech>
[475.885]
ah wi
[476.515]
<no-speech>
[478.085]
m_
[478.635]
<no-speech>
[481.585]
Anou oh mwen k_ta pou mande_w pou Anou m_pa jan_n wè Anou pafwa <foreign> dimanch li konn vini
[486.475]
<no-speech>
[489.375]
ah bon m_pa konnen
[490.745]
<no-speech>
[491.835]
an_m
[492.525]
<no-speech>
[493.935]
m_ mwenmenm mwen menm mwen menm m_pa
[495.735]
<no-speech>
[502.125]
mwen <no-speech> mwen m_gen yon seri de bagay m_p_ap ka fè ou wè mwen menm m_p_ap la m_ m_ (()) sou sa epi m_di papi (()) sa a vle di m_di ah m_gen de semèn m_p_ap ka epi yo p_ap wè_m vrèman vre nan ministè a pandan de semèn nan
[512.925]
<no-speech>
[513.985]
ou wè <no-speech> *sa* vle di epi m_di enpe zanmi sa (()) moun ki pwòch mwen m_di sa e pa tout moun ki konnen moun ki pwòch mwen m_di ah m_p_ap la non sè_m tankou la si_w pa wè_w ou konnen depi_w depi moun nan te konn wè m_pral mande (())
[525.875]
sa_l genyen èske_l malad ou konprann
[527.735]
<no-speech>
[528.995]
kounye a menm nan <no-speech> lè yo vin rele_m èske_m ka bay manti pou mwen di_m m_malad
[533.295]
<no-speech>
[535.475]
ou ou konprann a vle di m_pa ka bay manti pou mwen di_m m_malad <no-speech> e sa k_fè
[539.455]
<no-speech>
[540.875]
kisa_w vle
[541.355]
<no-speech>
[544.055]
m_ <no-speech> non tankou la kounye a menm nan <no-speech> lè_m vini kounye a pa pa gen moun ki pral di_m Kis e pa yo pa_t janm wè_m ou konprann
[551.195]
<no-speech>
[552.845]
ah vle di moun nan te gentan konnen ou pa_t la kounye a lè lè w_ap repran aktivite_m <no-speech> ou konprann
[558.375]
<no-speech>
[559.175]
<no-speech>
[559.635]
<no-speech>
[564.025]
<sta> tankou la e pa lwen nou tankou la <no-speech> tankou la <foreign> pli souvan mwen
[568.895]
<no-speech>
[570.295]
mwen m_ m_mwen m_mwen tankou la <hes> e lezaprèmidi m_travay e sa k_ fè_m pa ka *patisipe* nan ankenn aktivite
[577.525]
<no-speech>
[578.405]
ou konprann <no-speech> ah
[580.575]
<no-speech>
[581.705]
m_kòmanse sis ze
[583.005]
<no-speech>
[585.245]
<sta> ou konprann e sa k_fè sa wi
[588.365]
<no-speech>
[589.525]
oh apa_m tande bebe ap rele ou gen bebe lakay ou
[592.105]
<no-speech>
[595.435]
<sta> mè wi ou wè ou wè jan_w ye
[600.020]
