[0.000]
<no-speech>
[4.055]
<sta> alo
[4.635]
<no-speech>
[6.485]
<sta> alo
[7.215]
<no-speech>
[9.895]
<sta> bonswa
[10.635]
<no-speech>
[11.585]
se kiyès <no-speech> m_pa *plimal* non
[13.525]
<no-speech>
[16.065]
anhan oke li la wi m_ap pase_w li
[17.775]
<no-speech>
[18.985]
alo cheri kòman ou ye la a
[20.785]
<no-speech>
[22.585]
sa k_ap regle menm <sta>
[24.635]
<no-speech>
[25.735]
<sta> m_pa tande_w menm <no-speech> mè wi m_la wi pitit m_poze sa_w fè nan sa_w fè la a menm sa_w regle pou lekòl la
[33.485]
<no-speech>
[36.365]
oke ki nan ki faz ou ye la a menm avè_l
[38.965]
<no-speech>
[41.445]
ennan wi
[42.425]
<no-speech>
[43.655]
kisa w_ap kisa w_ap regle nan Petyonvil kisa w_ap regle nan Petyonvil la la a
[46.775]
<no-speech>
[49.735]
anhan oke <hes> <no-speech> enben fò_w ta pase wè_m jodi a wi paske m_anvi wè_w m_pa janm wè_w
[55.075]
<no-speech>
[58.135]
enhen ki <no-speech> enhen
[59.715]
<no-speech>
[65.005]
mè wi oke <sta> <no-speech> oke w_ap w_ap w_ap <foreign> ou
[69.455]
<no-speech>
[72.375]
<foreign> kisa kis- <no-speech> a mwen la pitit n_ap gade ansanm avè_l ou konnen *e* la l_pral lekòl m_te fè enskripsyon pou li apresa tout bagay oke kòman fami yo ye pou ou anba la a menm
[82.045]
<no-speech>
[84.795]
wi ki <hes> ki <sta> <no-speech> yo trè byen wi <hes> kisa ou fè anba a la a menm lè w_anba a ka Kèlèt la ou konn tigason an degoutan sa_w fè avè_l
[92.455]
<no-speech>
[96.865]
mè wi men kisa ou fè sa_w fè ki aktivite_w
[99.925]
<no-speech>
[104.325]
nan ki kou ou ye la a
[105.495]
<no-speech>
[108.875]
an Anglè enfòmatik biwotik <no-speech> ki ki kote ou nan kou sa la a
[113.375]
<no-speech>
[115.465]
an nan ki kote
[116.885]
<no-speech>
[119.365]
an Dèlma senkannsis m_konprann ou t_ap pran_n nan <foreign> paske <foreign> pi pre_w
[122.775]
<no-speech>
[124.515]
poukisa ou pa renmen <foreign> la
[126.105]
<no-speech>
[127.785]
kisa l_genyen poukisa ou pa renmen_l
[129.795]
<no-speech>
[138.335]
<breath> <sta> yo pa konn anyen nan Anglè a
[140.875]
<no-speech>
[142.545]
an oke w_al pran li on lòt kote
[144.395]
<no-speech>
[145.975]
nan konbyen konbyen sesyon ou ye la a
[148.105]
<no-speech>
[151.135]
an ou gentan gen nèf mwa enben talè ou pral gradye
[153.425]
<no-speech>
[155.755]
a lòt semèn nan la a w_ap fann moun sou teren an
[158.135]
<no-speech>
[159.385]
kòman ou ye kòman ou ye Benbenn la wi kòman ye kilè ou pral dòk ka doktè a paske m_konnen ou malad nan zye kòman ou ye la a menm
[165.605]
<no-speech>
[169.585]
an *e* rele y_ap rele_w ki kote ki kote ou konn al ka doktè a
[172.435]
<no-speech>
[174.125]
Brennda ki zòn
[175.305]
<no-speech>
[178.325]
an Okay *e* la ou konn al ka doktè a enben nan ki faz ou ye avèk zye a la a menm kisa yo di_w si y_ap ba_w medikaman ki ma- kisa_w fè ki <hes> ki kijan de kijan de si se enfeksyon ou fè nan zye a *paske*
[190.175]
zye a pa bon
[191.175]
<no-speech>
[193.365]
an oke men ou pa wè trè byen
[195.285]
<no-speech>
[197.955]
en
[198.555]
<no-speech>
[201.695]
yo ede_w avèk zye a
[203.115]
<no-speech>
[205.075]
enhen
[205.715]
<no-speech>
[207.505]
anhan
[208.325]
<no-speech>
[209.385]
anhan oke <breath> konsa tou pitit m_bezwen suiv Brennda tou paske yèswa pitit m_g_on sèl je anfle m_pa ka wè *e* kouri m_kouri al kouche maten an m_leve bonè wi
[218.575]
<no-speech>
[221.365]
non non m_poko an konje m_ap tann lè_m an konje paske ou konnen m_ap travay kounye a <no-speech> wi m_ap aranje_m lè_m gen konje pou mwen ou wè sa_m di_w la pou mwen ka al ansanm avè_w ou konprann
[230.335]
<no-speech>
[231.155]
*paske* m_ta renmen pou
[231.975]
<no-speech>
[233.185]
enhen
[233.905]
<no-speech>
[236.635]
an oke pou ka ale pou al pou al pran medikaman pou al fè egzamen tou
[240.315]
<no-speech>
[242.135]
<int> an oke pou konnen ki- si se enfeksyon ou fè nan zye a
[244.725]
<no-speech>
[245.845]
èske k_ap èske ou panse se enfeksyon ou te ka fè ladan <sta>
[249.035]
<no-speech>
[253.515]
oke oke apresa tout bagay anfòm
[255.875]
<no-speech>
[257.645]
a m_prèske pa tande_w m_ta pral rele Wodni pou_l te vin pase *bagay* la ou wè sa_m di_w la <no-speech> men m_di nan si y_ap bezwen moun m_a rele Wodni epi *e* sa k_fè m_rele_w jodi a ou wè sa_m di_w la non
[267.895]
<no-speech>
[269.205]
oke apresa tout bagay poze m_pa f_anyen <sta> <no-speech> oke m_pa m_pa f_anyen ou konnen ou konnen deja ti travay la apresa pa gen tan m_pa gen tan pou f_anyen ankò
[278.625]
<no-speech>
[279.925]
kilè w_ap moute anlè a menm
[281.265]
<no-speech>
[284.155]
wi <hes> *e* Gregori Gregori la men Gregori voye je sou li <no-speech> wi Gregori ansanm avè_l men kilè w_ap moute lakay menm
[292.125]
<no-speech>
[294.535]
en
[295.105]
<no-speech>
[297.965]
oke w_ap monte
[299.135]
<no-speech>
[300.655]
<sta> enben nan wikenn nan *e* sèl nan aprè midi wi lematen ou konnen m_pa la m_pa antre bonè
[305.975]
<no-speech>
[308.395]
w_al nan klèb ki klèb dans
[309.835]
<no-speech>
[311.295]
ki klèb an an oke oke savledi ke nou gen klèb Anglè tou
[315.035]
<no-speech>
[316.305]
konsa pitit <no-speech> <sta> enben konsa tou pitit m_bezwen pran èske pa gen kou tankou de sis lè pou uit lè
[321.605]
<no-speech>
[323.345]
pa <no-speech> sèt uit
[324.875]
<no-speech>
[326.135]
setè diswa pou <int>
[327.655]
<no-speech>
[329.105]
wi men se <foreign> se lè m_sot travay pou mwen ale a sizè m_relache
[332.935]
<no-speech>
[334.995]
èski m_ap jwenn
[336.165]
<no-speech>
[338.165]
m_pa m_pa
[339.045]
<no-speech>
[341.765]
an oke savledi m_ap jwenn on kou de sizè aprè midi pou uitè diswa <no-speech> oh oke li t_ap bon pou mwen tcheke_l pou mwen non Baz
[349.425]
<no-speech>
[351.165]
oke tcheke_l pou mwen lè_m sòt lek- lè_m sòt la a si_m te ka al nan kou a
[354.745]
<no-speech>
[356.465]
oke cheri pa bliye_m non
[357.955]
<no-speech>
[359.945]
oke <no-speech> oke m_pa m_pa ta renmen w_bliye_m paske mwen menm m_pa biye_w
[364.375]
<no-speech>
[366.145]
*e* paske pa g_anyen paske depi g_on bagay m_ap rele_w
[368.415]
<no-speech>
[370.765]
wi oke cheri apresa tout bagay anfòm bò kote pa_w
[373.595]
<no-speech>
[375.265]
oke kouman <sta> <no-speech> oke apresa pwoblèm zye a apresa m_wè ou pa gen anyen ankò m_wè_w m_wè_w byen djanm
[381.585]
<no-speech>
[383.285]
<sta> en mè wi oke m_byen kontan wi ou ou pa pran nouvèl kouzin ou yo ou pa al lakay yo
[388.275]
<no-speech>
[392.115]
mhm
[392.715]
<no-speech>
[395.005]
oh men oh ou ta kòm kòmsi m_tande Edme t_ale
[398.535]
<no-speech>
[401.065]
non li t_al ka kouzin ou
[402.855]
<no-speech>
[406.235]
enben Edme ale men kòman fè oumenm yo pa vle mennen_w <sta> <no-speech> oh <hes> ou <hes> ou tande manman Nadya mouri
[413.175]
<no-speech>
[415.905]
wi men ou pa t_al nan antèman an non
[417.515]
<no-speech>
[419.425]
an oke ou pa_t ka ale a monchè m_sezi <foreign> *bagay* sa a terib manman tifi a mouri la a apèn tipitit li g_on ennan <foreign> m_sezi *bagay* sa a
[427.955]
<no-speech>
[429.185]
wi
[429.805]
<no-speech>
[432.115]
oke <no-speech> w_a apresa tout bagay anfòm
[434.875]
<no-speech>
[436.405]
ki ko- ki kote w_ap travay la menm
[438.445]
<no-speech>
[439.705]
oh oh <laugh> <sta>
[441.625]
<no-speech>
[442.525]
en <no-speech> <sta> wi ki kote ou ye wi <hes> apresa tout bagay an- <no-speech> anhan oke wi enben *e* sa_m di_w wi men poukisa yo pa vle mennen_w la a menm
[451.825]
<no-speech>
[453.465]
m_gen pou mwen <no-speech> bon m_pa konn poukisa yo pa vle men men_w men m_di m_gen pou mwen voye Ivi Okay ansanm avè_w pou mwa_d jiyè
[458.885]
<no-speech>
[461.805]
an Djenmse prale
[462.975]
<no-speech>
[464.365]
oh m_ta
[465.005]
<no-speech>
[466.775]
oh m_ta byen kontan m_ap voye Ivi an Jiyè <hes> lekòl Ivi a ap fè kan men ou konnen m_fèk enskri_l yo mande pou mwen peye kan pou li m_p_ap voye_l nan okenn kan epi l_poko menm al lekòl pou mwen gentan nan ap peye kan pou li m_ap voye_l andeyò ane pwochèn ane pwochèn si Dye vle m_a
[478.515]
voye_l nan kan
[479.285]
<no-speech>
[481.195]
wi oke cheri <no-speech> aprè sa m_gentan enskri_l deja m_ap regle afè lekòl la pou li ou pa konprann
[487.385]
<no-speech>
[488.795]
wi wi
[489.985]
<no-speech>
[492.105]
wi *e* sa m_ap fè m_ap prepare pou li cheri pandan l_pa la a ou wè sa_m di_w la <no-speech> apresa ou pa pral nan fèt Jele non
[498.155]
<no-speech>
[501.485]
an ou p_ap gen vakans ditou
[503.235]
<no-speech>
[504.915]
en
[505.495]
<no-speech>
[506.495]
<no-speech>
[506.875]
<no-speech>
[509.285]
an oke savledi ou p_ap gentan ale paske *bagay* sa a se pa an mwa_d out <int>
[512.615]
<no-speech>
[513.635]
anhan
[514.505]
<no-speech>
[516.165]
<hes> fèt Pòsali oubyen Jele
[518.095]
<no-speech>
[522.095]
an oke Wodlòsa te di_m li prale <int> savledi oumenm ou p_ap dèyè a konsa tou m_bezwen ale men m_pa konn kilè m_prale
[527.695]
<no-speech>
[528.795]
<no-speech>
[529.145]
<no-speech>
[530.695]
wi men m_p_ap gentan gen konje sou ennan wi y_ap bon_m konje
[533.675]
<no-speech>
[535.115]
sou ennan y_ap bon_m konje kenz jou ou wè sa_m di_w la nan kenz jou sa a m_ka fè sa_m vle men kounye a m_poko gen ennan ou wè sa_m di_w la m_poko ka nan konje
[542.795]
<no-speech>
[544.805]
enbyen oke dakò
[545.895]
<no-speech>
[547.915]
<hes> èske èske tout bagay fen anfòm yo pa di_w anyen
[552.985]
<no-speech>
[555.925]
<hes> èski ou wè mesye a anlè a
[558.225]
<no-speech>
[560.435]
an enben li pral monte lè lè_w fini gen yon nimewo ki pral ki pwa pale fò tout bagay ou wè sa_m di_w la
[568.615]
<no-speech>
[569.835]
fò tout bagay ka oke apresa m_ap aranje_m m_ap aranje pou mwen wè si_m si_m ka wè_w men m_pa konn kilè ou wè sa_m di_w la
[577.105]
<no-speech>
[578.855]
en
[579.315]
<no-speech>
[581.105]
anben oke <int> cheri m_ta swete sa
[583.075]
<no-speech>
[584.985]
<no-speech>
[586.025]
<no-speech>
[586.945]
<sta> enhen
[589.725]
<no-speech>
[590.585]
<sta> enhen tout apresa tout bagay oke
[593.495]
<no-speech>
[594.705]
<sta> Micha la wi cheri m_wè_l la toujou menm jan wi
[598.885]
<no-speech>
[600.260]
