[0.000]
<no-speech>
[1.225]
<no-speech>
[2.355]
<no-speech>
[8.715]
иә <int> <no-speech> алло
[11.295]
<no-speech>
[12.605]
<int> иә
[13.465]
<no-speech>
[15.075]
иә иә
[15.945]
<no-speech>
[17.165]
ааа Эльмира қалай жағдайың
[18.995]
<no-speech>
[19.995]
иә жақсы
[21.275]
<no-speech>
[22.425]
аха
[23.125]
<no-speech>
[25.395]
балалар бәрі жақсы Айзере демалып жатыр
[28.595]
<no-speech>
[29.995]
өздерің қалайсыңдар
[31.295]
<no-speech>
[34.585]
бірінші тоқсанды өте жақсы аяқтады <no-speech> алло
[38.115]
<no-speech>
[42.695]
ааа
[43.445]
<no-speech>
[47.285]
ааа
[48.245]
<no-speech>
[53.275]
ааа айтпақшы анау күні
[55.155]
<no-speech>
[58.135]
ааа анау күнгі күні айтып жатыр едің ғой кім Мағжан
[61.105]
<no-speech>
[62.055]
алло <no-speech> Мағжанды бір конкурсқа қатысады деп
[66.315]
<no-speech>
[67.585]
қатысты ма
[68.605]
<no-speech>
[75.995]
ааа
[77.185]
<no-speech>
[84.755]
ааа
[85.675]
<no-speech>
[86.605]
иә дұрыс жақсы болған екен
[89.405]
<no-speech>
[90.985]
Думан жақсы
[92.395]
<no-speech>
[94.075]
үйде Думан
[95.355]
<no-speech>
[97.375]
ау
[98.055]
<no-speech>
[99.565]
иә ауырмайды жақсы ғой қазір
[101.685]
<no-speech>
[102.825]
ауырмайды қазір жақсы
[105.135]
<no-speech>
[108.565]
Батырханның жұмысы болатын болды
[110.645]
<no-speech>
[111.475]
онынан бастап жұмысқа кетеді
[113.385]
<no-speech>
[114.625]
иә <no-speech> жүргізуші
[117.195]
<no-speech>
[118.495]
иә иә
[119.395]
<no-speech>
[120.805]
жүргізуші
[121.965]
<no-speech>
[123.415]
жеңіл көлік иә
[124.825]
<no-speech>
[126.875]
жеңіл көлік
[128.145]
<no-speech>
[129.885]
пикап деген машина екен ғой
[132.515]
<no-speech>
[134.115]
соны жүргізеді
[135.325]
<no-speech>
[136.325]
иә
[136.845]
<no-speech>
[138.495]
<breath> басқа ешқандай жаңалық жоқ бүгін <no-speech> папамның туған күні
[144.445]
<no-speech>
[149.915]
иә ертеңге қаражат болған <hes> туған күні
[153.695]
<no-speech>
[155.525]
иә <no-speech> соған
[157.385]
<no-speech>
[158.765]
соған қонақ келеді кешке жақын апам өзі балалары келеді немерелері шөберелері <no-speech> соған дайындалып жатырмыз
[170.205]
жайымен деп
[171.175]
<no-speech>
[177.585]
иә <no-speech> аха Дархан қайда
[181.425]
<no-speech>
[183.755]
Батырхан үйде ғой иә
[185.355]
<no-speech>
[186.855]
сол үйдегі анау-мынау тірлікті істеп жүрміз ғой
[188.955]
<no-speech>
[196.305]
ааа
[197.005]
<no-speech>
[208.945]
ааа
[210.075]
<no-speech>
[213.275]
ааа <no-speech> жақсы иә солар
[216.405]
<no-speech>
[218.675]
ау
[219.335]
<no-speech>
[220.665]
иә да
[221.285]
<no-speech>
[232.195]
ааа
[233.265]
<no-speech>
[236.365]
<no-speech>
[236.835]
<no-speech>
[239.605]
ааа
[240.265]
<no-speech>
[244.185]
<no-speech>
[244.545]
<no-speech>
[246.295]
қазақ ем ба ол
[247.675]
<no-speech>
[251.785]
иә иә
[252.715]
<no-speech>
[254.045]
иә иә
[254.895]
<no-speech>
[258.075]
ааа сөйтші иә иә
[259.535]
<no-speech>
[262.145]
иә
[262.765]
<no-speech>
[265.285]
иә иә білемін ғой <no-speech> біліп отырмын ғой
[268.335]
<no-speech>
[269.275]
ааа
[270.125]
<no-speech>
[271.105]
<int> ааа <no-speech> <int> мен сол сен айтқаннан кейін
[275.895]
<no-speech>
[277.305]
ааа <int>
[278.655]
<no-speech>
[279.545]
<int> сен айтқаннан кейін бермей қойдық
[283.045]
<no-speech>
[284.395]
<no-speech>
[284.785]
<no-speech>
[285.635]
<int> иә
[287.195]
<no-speech>
[289.475]
иә иә бұрасай
[290.755]
<no-speech>
[292.055]
ой қайда үйіміз қашық қой
[294.195]
<no-speech>
[295.665]
менің қолым тимейді күнде жұмыс
[297.965]
<no-speech>
[300.185]
ааа <no-speech> иә
[301.715]
<no-speech>
[302.755]
білемін ғой соны бір күні апарып ойнатуым керек еді иә
[305.835]
<no-speech>
[310.895]
<no-speech>
[311.525]
<no-speech>
[312.785]
ааа
[313.435]
<no-speech>
[319.385]
ааа
[320.425]
<no-speech>
[321.325]
аха <no-speech> Ұлжандар су келді
[323.995]
<no-speech>
[325.725]
<int> ау
[327.325]
<no-speech>
[329.065]
ау иә иә <int>
[331.605]
<no-speech>
[333.825]
иә сол дейді
[335.045]
<no-speech>
[336.745]
<int> пысық қой қызы жақсы
[339.815]
<no-speech>
[341.535]
Ұлжан сол кезде келе ме деп жатырмын ғой саған
[344.355]
<no-speech>
[346.125]
ааа бармайды ма ааа <no-speech> соны келеді ме деп
[350.655]
<no-speech>
[352.465]
ааа <int> <no-speech> дұрыс иә сол
[357.555]
<no-speech>
[358.915]
<int> жақсы иә ауырмай жүр жақсы ғой <no-speech> жақсы
[363.545]
<no-speech>
[366.685]
апам ба
[367.785]
<no-speech>
[370.725]
апам отыз жетінші жылғы ғой
[373.545]
<no-speech>
[378.025]
иә иә иә естіп тұрмын
[379.345]
<no-speech>
[380.255]
иә
[380.915]
<no-speech>
[383.935]
<no-speech>
[384.395]
<no-speech>
[385.655]
иә сол
[386.605]
<no-speech>
[388.395]
иә иә жақсы
[389.825]
<no-speech>
[392.215]
<no-speech>
[392.585]
<no-speech>
[395.125]
Думан жақсы сөйлейді бәрін айтады <no-speech> бірақ р-ға тілі келмейді болды
[400.295]
<no-speech>
[401.565]
кейбір сөздеріне түсінбейміз біз <int>
[404.125]
<no-speech>
[404.985]
<no-speech>
[405.405]
<no-speech>
[406.225]
азаннан кешке дейін
[408.205]
<no-speech>
[409.985]
ау
[410.645]
<no-speech>
[416.325]
иә оған ешқандай ренжіп жүрген жоқпыз <no-speech> жақсы бәрін біледі ағылшынша санайды <no-speech> ағылшынша санайды <no-speech> кітап кітап ермегі <no-speech> кітапты көрсетсең отыра береді неше сағат көрсетсең сонша сағат отыра береді
[434.965]
<no-speech>
[436.945]
<no-speech>
[437.315]
<no-speech>
[438.385]
иә әліппе оқиды
[439.885]
<no-speech>
[444.445]
ааа
[445.515]
<no-speech>
[447.115]
ааа атпен
[448.845]
<no-speech>
[451.085]
<no-speech>
[451.765]
<no-speech>
[453.255]
иә иә <laugh>
[456.385]
<no-speech>
[457.345]
иә сол
[458.935]
<no-speech>
[460.645]
<int> үйде кітап көп қой
[462.575]
<no-speech>
[464.265]
кітап көп үйде
[465.415]
<no-speech>
[466.565]
сол кімге де (())
[468.675]
<no-speech>
[470.755]
иә отырады ғой әжесі кешке сол Думанмен ғой бірыңғай сонымен айналысады
[476.995]
<no-speech>
[480.915]
сосын жаңа (())
[482.145]
<no-speech>
[483.455]
иә <no-speech> сосын жаңа құрастырмалы ойыншықтары бар
[487.875]
<no-speech>
[488.805]
сол ермегі бірыңғай түске дейін үндемей отыра береді дейді ғой өзі
[494.195]
<no-speech>
[496.885]
<int> иә <no-speech> сосын кім
[500.325]
<no-speech>
[506.145]
ааа
[507.345]
<no-speech>
[509.045]
иә <int> <no-speech> жақсы ол <no-speech> былайынша екеуі де былайынша кітап құмар болып тұр ғой <hes> тек менің қолым тимейді бұларға қарауға онша
[519.725]
<no-speech>
[520.775]
көп айналыса алмаймын <no-speech> былайынша жақсы Айзерені де мақтап жатыр апайы <no-speech> айттым ба
[527.765]
<no-speech>
[529.545]
математикадан сайысқа қатысты
[532.195]
<no-speech>
[533.225]
математикадан сайысқа қатысты <no-speech> ааа жиырма оқушының ішінде ең
[539.165]
<no-speech>
[540.055]
жиырма оқушы ішінен ең үлкен балды алды
[543.205]
<no-speech>
[546.485]
ааа сонымен зерек есте сақтау қабілеті өте жақсы деп тұр ғой апайы <no-speech> <int> ей
[557.585]
<no-speech>
[558.435]
<int> иә әй мен сол осыған қанағаттанбай жүрмін ғой мен ше өзім <no-speech> сөйтсем апайы мақтап отыр ойбай ол <no-speech> мә мен негізі (())
[569.385]
<int> ау
[571.875]
<no-speech>
[574.365]
Қыдыргүл апай ғой
[577.495]
<no-speech>
[579.055]
Үмбетаева <no-speech> иә жақсы <no-speech> <breath> соны Ақнұр әпкелер
[585.165]
<no-speech>
[586.235]
<no-speech>
[586.635]
<no-speech>
[587.555]
иә ашылып келе жатыр мінезі де <no-speech> деп сол дейді <no-speech> сонымен жақсы классында үш қызы
[596.495]
<no-speech>
[597.575]
иә классында үш қызы ең
[600.185]
(())
[600.300]
