[0.000]
<no-speech>
[1.345]
<no-speech>
[2.015]
<no-speech>
[4.815]
<int> алло <int> қалай ей жақсы өзің
[16.675]
қалай естіліп тұр ей орысша орысша қоспа дедім ғой (())
[24.355]
<no-speech>
[26.605]
жай сол отырғанбыз ав- троллейбуста кетіп бара жатырмыз <sta>
[33.075]
<no-speech>
[34.195]
<no-speech>
[34.565]
<no-speech>
[36.525]
сабақ сабақ деген жақсы өзіңдікі ше <int>
[40.255]
<no-speech>
[43.755]
<int> не істеп жатырсың <sta>
[49.185]
<no-speech>
[50.865]
<int> иә <no-speech> не болды қаншаға (()) болдың бүкіл параграф бүкіл параграф
[61.315]
<no-speech>
[62.335]
<sta> қаншаға шығатын болдың
[64.135]
<no-speech>
[65.025]
<no-speech>
[69.535]
<no-speech>
[70.545]
қандай
[71.795]
<no-speech>
[73.205]
<no-speech>
[73.845]
<no-speech>
[75.685]
ааа сенде ме <sta>
[78.245]
<no-speech>
[79.345]
дұрыс
[79.975]
<no-speech>
[81.425]
<no-speech>
[81.775]
<no-speech>
[83.535]
<no-speech>
[88.065]
<no-speech>
[88.905]
бізде қаншасыншы параграф (()) арғы шетіндегі (())
[96.215]
<no-speech>
[98.435]
<no-speech>
[100.605]
<no-speech>
[102.605]
ааа
[103.095]
<no-speech>
[104.645]
сонымен әңгіме айт <int>
[109.015]
<no-speech>
[110.365]
<no-speech>
[110.715]
<no-speech>
[112.025]
ааа
[112.525]
<no-speech>
[114.145]
<no-speech>
[114.515]
<no-speech>
[116.805]
иә тіршілікпен шығып кеткенсің ғой үйдегілер
[118.575]
<no-speech>
[120.395]
<no-speech>
[122.605]
<no-speech>
[124.365]
ау
[125.455]
<no-speech>
[126.665]
<sta> (()) сенікі шығып тұр <int> сенікі шығып тұр
[134.705]
<no-speech>
[135.745]
<no-speech>
[141.625]
<no-speech>
[142.665]
кім Бейбарыс <sta> ау
[148.365]
<no-speech>
[151.945]
мамаларымыз әй- әйбәт жақсы ғой өзіңдікі <sta> ммм хабарласып тұрасың иә
[163.535]
<sta> хабарласып тұрасың ба
[167.545]
<no-speech>
[171.365]
ммм <int> немене <no-speech> ааа дұрыс <int>
[182.645]
<no-speech>
[183.805]
бағана қаншада тұрдың маған звондап хабарласқан кезде маған хабарласқан кезде қаншада тұрдың
[189.945]
<no-speech>
[191.765]
<int> ей (()) сабаққа келген кезде
[195.805]
<no-speech>
[198.615]
<int> сабаққа келген кезде деймін
[201.085]
<no-speech>
[202.165]
<no-speech>
[202.545]
<no-speech>
[204.725]
сабақ сабақ колледж
[206.985]
<no-speech>
[208.745]
келер кезде маған таңертең таңертең звондадың ғой деймін <int>
[213.095]
<no-speech>
[218.465]
ммм иә білмеймін <int>
[225.325]
<no-speech>
[226.635]
<int> бұйыртса жиырма бірінші
[230.435]
<no-speech>
[231.595]
өзің ше барасың ба (())
[233.825]
<no-speech>
[239.065]
<no-speech>
[239.705]
<no-speech>
[241.115]
барамын
[242.655]
<no-speech>
[244.965]
(())
[246.245]
<no-speech>
[247.745]
<no-speech>
[248.105]
<no-speech>
[253.025]
<laugh> жақсы жақсы болса болды (())
[258.285]
<no-speech>
[261.505]
сен қалай өткіздің
[262.525]
<no-speech>
[266.025]
сен қалай өткіздің <int> ағаларыңмен қыдырдың ба <laugh> <sta>
[277.915]
<no-speech>
[278.435]
<no-speech>
[281.345]
мен де сол ауылға барып (()) бардым <laugh>
[289.365]
<no-speech>
[290.175]
<no-speech>
[291.445]
<no-speech>
[292.705]
<no-speech> сол жа- <cough> білмеймін енді көреміз ғой уақытысында <sta>
[304.215]
әңгіме айтшы бір нормальный
[308.405]
<no-speech>
[310.075]
<hes> ой соны (()) адам тапсырмау керек еді <int>
[317.585]
<no-speech>
[318.385]
<int> тапсырмау білмеймін соны көрген жоқпын иә көрсем айтар едім сен қанша алып жүрсің сен уже
[329.635]
<no-speech>
[330.865]
қайдағы ей
[332.065]
<no-speech>
[332.885]
қайдағы (()) білмеймін нақтысың білмеймін әлі <int>
[336.445]
<no-speech>
[337.495]
<no-speech>
[338.035]
<no-speech>
[339.305]
сен өзің қанша алып жүрсің
[340.225]
<no-speech>
[342.365]
<no-speech>
[342.715]
<no-speech>
[344.875]
<sta> иә сен алдың
[346.445]
<no-speech>
[347.785]
<no-speech>
[348.735]
<no-speech>
[349.825]
білмеймін
[351.265]
<no-speech>
[352.995]
менде бесеу <int>
[355.475]
<no-speech>
[362.455]
<int> біледі ме ааа демалыс білмеймін сол бір-екі үш күнге беретін шығар
[369.485]
<no-speech>
[372.555]
<int> бір-екі үш күнге деймін бір-екі үш күнге <int> мә жиырма алтысына дейін берсе қызық болайын деп тұр ғой
[382.635]
<no-speech>
[388.575]
майда майда бір-ақ келеміз <sta>
[391.315]
<no-speech>
[392.175]
<int> сол майда не болады ғой
[395.615]
<no-speech>
[396.615]
не үшін барасың ааа
[398.315]
<no-speech>
[399.235]
<hes> (()) шығар содан кейін шығамыз <int>
[404.725]
<no-speech>
[410.775]
сонымен не істеп жатырсыңдар
[413.765]
<no-speech>
[415.205]
<no-speech>
[417.025]
<no-speech>
[419.365]
артында ма <int>
[422.445]
<no-speech>
[426.135]
ауылда шығатын күні бірге шығайық
[428.735]
<no-speech>
[431.705]
<no-speech>
[432.065]
<no-speech>
[438.775]
<no-speech>
[439.225]
<no-speech>
[440.265]
мә ұйықым келіп кетті <int> ұйықым келіп кетті
[445.915]
<no-speech>
[448.075]
<int> (()) жақсы бір әңгіме айт іш пыспайтын
[457.285]
<no-speech>
[460.575]
<no-speech>
[460.925]
<no-speech>
[462.125]
(())
[463.995]
<no-speech>
[465.705]
сен қай жерде келе жатырсың
[466.895]
<no-speech>
[468.655]
<int> ммм концерт дедіңіз бе концерт мәдениет залында болады
[476.305]
<no-speech>
[479.195]
<no-speech>
[479.555]
<no-speech>
[482.205]
иә оқып жатырмыз сендердікі ше
[485.035]
<no-speech>
[487.485]
<no-speech>
[487.895]
<no-speech>
[489.375]
<no-speech>
[489.735]
<no-speech>
[494.795]
<no-speech>
[496.505]
<no-speech>
[499.865]
ммм
[500.905]
<no-speech>
[503.455]
<int> сендердің шеберлерінің аты кім
[506.615]
<no-speech>
[509.195]
шеберлерінің аты кім деймін шебер шебер <sta>
[520.355]
<sta> ааа <sta> біздің шебердің аты ма <hes>
[530.815]
Беркінбаев Серік <laugh> <int>
[542.715]
<cough> <sta> жақсы барлық жерде (())
[551.995]
<sta> (()) сен қаншасыншы курссың <sta> ау
[563.825]
ау <no-speech> өздерін ше нені ше <sta>
[575.755]
он төрт қой он төрт жақында бір бала қосылды жүр әйтеуір жыбырлап жүр <sta>
[587.665]
<sta> ау <sta>
[597.845]
<sta> немерелері қанша
[602.880]
