[0.000]
<no-speech>
[5.845]
алло
[6.615]
<no-speech>
[8.235]
не болды жақсы
[10.185]
<no-speech>
[12.555]
нормально
[13.425]
<no-speech>
[14.415]
нормально
[15.695]
<no-speech>
[19.115]
иә алып кетті
[20.525]
<no-speech>
[23.325]
иә ааа
[25.845]
<no-speech>
[27.095]
иә тастады тастады тастады
[30.185]
<no-speech>
[31.125]
<no-speech>
[31.585]
<no-speech>
[36.945]
ей сенікін сен среда келеді ғой тәтем тәтем деген саған қалдырып қойды мынау жақта
[42.215]
<no-speech>
[43.375]
<no-speech>
[44.535]
<no-speech>
[45.725]
Шынарға айтты ғой келген кезде ашып берсін деді ғой
[48.385]
<no-speech>
[49.435]
<no-speech>
[51.205]
<no-speech>
[52.145]
<no-speech>
[53.465]
<no-speech>
[54.775]
<no-speech>
[55.255]
<no-speech>
[56.385]
<no-speech>
[56.945]
<no-speech>
[58.175]
Шынар екеуміз ет жайып жатырмыз <hes> холодильникті босатып жатырмыз
[62.525]
<no-speech>
[64.085]
<no-speech>
[65.175]
<no-speech>
[65.975]
<cough> сен не істеп жатырсың сен жұмыстасын ба
[69.835]
<no-speech>
[71.585]
ааа
[72.175]
<no-speech>
[75.805]
шал неғып жатырған жоқ па ештеңе деп жатырған жоқ па
[79.195]
<no-speech>
[80.945]
ааа
[81.445]
<no-speech>
[85.785]
ааа
[86.505]
<no-speech>
[88.085]
<no-speech> еее ақшаны төлемеді неғылмады
[91.265]
деп <no-speech>
[92.745]
<no-speech>
[94.095]
<no-speech>
[96.775]
(())
[98.225]
<no-speech>
[99.505]
сол өткенде мен Нұрзинеге мектебіне барып келгенмін
[103.945]
<no-speech>
[104.945]
<no-speech>
[105.505]
<no-speech>
[106.685]
ааа анау мұғалімдерге сөз қайтарды сөз қайтарды деген кезде барып келгенмін
[111.855]
<no-speech>
[114.855]
иә
[116.215]
<no-speech>
[117.115]
<no-speech>
[117.855]
<no-speech>
[120.155]
<no-speech>
[120.895]
<no-speech>
[122.145]
<no-speech>
[122.515]
<no-speech>
[123.485]
<no-speech>
[124.515]
<no-speech>
[125.455]
<no-speech> енді бала ғой балаларым да кетті аха <no-speech>
[134.975]
<no-speech>
[135.865]
<hes> февральдің он үші он төрті келеді ғой
[139.915]
<no-speech>
[140.815]
<no-speech>
[141.935]
<no-speech>
[143.465]
средаға дейін болады екен ғой Қуандық
[147.055]
<no-speech>
[148.295]
<no-speech>
[149.245]
<no-speech>
[150.295]
аха
[151.505]
<no-speech>
[152.545]
Ербосын аға да кетті ей Ербосын аға да кетіпті бірге
[158.555]
<no-speech>
[159.545]
<no-speech>
[160.585]
<no-speech>
[161.385]
мен қайдан білейін
[162.765]
<no-speech>
[164.235]
сен сағынып қалыпты саған кетті
[166.455]
<no-speech>
[167.445]
<no-speech>
[168.195]
<no-speech>
[170.795]
білмеймін ей сені ей сені кім Барсик сағынып отыр Жаду қайда деп
[176.795]
<no-speech>
[178.945]
<no-speech>
[179.345]
<no-speech>
[180.365]
Барсик өткенде келіп кеткен аха
[182.695]
<no-speech>
[183.625]
Анора Анора жүрді
[185.735]
<no-speech>
[187.055]
ой Бакош жүр ел-
[188.415]
<no-speech>
[191.625]
<int> ммм
[193.145]
<no-speech>
[194.715]
Бакош жүр елдің бәрін боқтап аха вообще жыламайды оған анау қазір Бакош жылаңқы болып қалған
[202.655]
<no-speech>
[204.025]
Айдос Айдосты қатыным дейді
[208.715]
<no-speech>
[209.725]
<no-speech>
[210.165]
<no-speech>
[213.345]
сөйлескен жоқпын папам больницада жатыр ауырып жатыр
[216.815]
<no-speech>
[218.515]
жүре- өткенде өткенде жүрегінен приступ ұстап больницада жатыр
[223.865]
<no-speech>
[224.735]
<no-speech>
[225.655]
<no-speech>
[227.595]
ааа
[228.105]
<no-speech>
[229.915]
ааа
[230.425]
<no-speech>
[232.135]
ей жақсы болыпты
[233.005]
<no-speech>
[236.055]
<no-speech>
[236.495]
<no-speech>
[238.125]
ааа
[239.375]
<no-speech>
[241.365]
<no-speech>
[241.715]
<no-speech>
[243.115]
ммм от жағып жатырсың ба
[245.425]
<no-speech>
[247.355]
от жағып жатырсың ба от жағып жатырсың ба
[250.695]
<no-speech>
[253.285]
<no-speech>
[253.865]
<no-speech>
[255.905]
ааа
[256.445]
<no-speech>
[257.995]
ааа
[258.735]
<no-speech>
[263.575]
ааа
[264.385]
<no-speech>
[267.195]
иә иә
[268.365]
<no-speech>
[270.165]
<no-speech>
[271.405]
<no-speech>
[273.235]
<no-speech>
[273.885]
<no-speech>
[274.985]
<no-speech> иә
[277.885]
<no-speech>
[281.745]
<hes> ааа үйде
[283.255]
<no-speech>
[284.675]
<no-speech>
[285.565]
<no-speech>
[286.795]
ұйықтап жатыр олар әлі
[288.305]
<no-speech>
[289.985]
<no-speech> иә ол қазір он бір он екіге дейін ұйықтайды
[295.045]
<no-speech>
[298.765]
аха Анар алып кетті аха
[300.585]
<no-speech>
[305.785]
<cough> кеше Мейрамгүл тәтелер келіп кеткен
[308.685]
<no-speech>
[312.135]
ммм сол соғымға ке- қуырдаққа келіп кеткен
[315.465]
<no-speech>
[320.425]
нормально қанша екі елі шықты ма
[323.565]
<no-speech>
[324.725]
ааа
[325.455]
<no-speech>
[328.505]
аха
[329.225]
<no-speech>
[331.005]
иә иә
[331.885]
<no-speech>
[333.475]
<no-speech>
[334.695]
<no-speech>
[336.145]
<no-speech> басқа жаңалық жоқ
[338.455]
<no-speech>
[340.475]
Жасар аға ол Рыскүл тәтенің үйінде деді иә Жасар аға Рыскүл тәтенің үйінде
[345.585]
<no-speech>
[346.615]
<no-speech>
[346.965]
<no-speech>
[350.865]
өткенде жиырма тоғызы күні жиырма тоғызы күні кімнің Дәуреннің туған күні болды ғой
[356.165]
<no-speech>
[359.045]
ей жоқ-ей
[359.905]
<no-speech>
[365.205]
ммм Шынар күріш басты
[367.125]
<no-speech>
[369.285]
<no-speech>
[369.635]
<no-speech>
[370.825]
<no-speech>
[371.225]
<no-speech>
[377.235]
<no-speech>
[377.775]
<no-speech>
[381.305]
<cough> Мелспен сөйлестің бе
[383.655]
<no-speech>
[392.305]
ааа
[393.025]
<no-speech>
[394.385]
өткенде де менімен сөйлескен не <hes> тәтем нөмер Activ номер тәтеме звондап сөйлесіп тұрсаң болады
[402.305]
<no-speech>
[407.625]
мхм номері (()) номері қандай еді соның
[410.875]
<no-speech>
[412.985]
Қуандықтан аласың ғой Қуандықта бар ғой
[415.085]
<no-speech>
[416.185]
<no-speech>
[417.295]
<no-speech>
[426.095]
ой қойшы ей мен отырамын ба Шынармен сөйлес
[429.545]
<no-speech>
[439.005]
аха
[439.685]
<no-speech>
[441.125]
иә деймін
[442.855]
<no-speech>
[444.555]
<no-speech>
[445.825]
<no-speech>
[447.555]
тағы ештеңе істеп жатырған жоқпын
[448.915]
<no-speech>
[450.985]
<int> қар жауып жатыр ма
[453.245]
<no-speech>
[455.625]
Алматыда қар жауып жатыр ма
[457.115]
<no-speech>
[458.435]
қар ма жауып жатыр ма кереңсің бе тегі қанымды іштің ғой сен де
[461.705]
<no-speech>
[462.935]
<no-speech>
[463.695]
<no-speech>
[465.645]
иә
[466.555]
<no-speech>
[467.935]
мынау жақта да қар әлі жауып жатыр
[470.045]
<no-speech>
[471.115]
<no-speech>
[471.765]
<no-speech>
[476.965]
Қуандыққа ааа кеше Қуандыққа бөліп бердім ғой
[479.395]
<no-speech>
[480.725]
<no-speech> ммм
[482.335]
<no-speech>
[483.915]
білмеймін ей
[485.225]
<no-speech>
[487.535]
<no-speech>
[488.005]
<no-speech>
[490.665]
иә <laugh> саған
[491.785]
<no-speech>
[495.645]
ей сен келесің ғой
[497.005]
<no-speech>
[503.480]
<no-speech>
[509.955]
ммм аха
[511.725]
<no-speech>
[513.515]
<no-speech>
[514.245]
<no-speech>
[515.965]
иә
[516.485]
<no-speech>
[518.255]
иә иә
[519.065]
<no-speech>
[524.285]
<cough> суық болып тұр бүгін қазір он- кешегідей суық емес кеше вообще суық болатын аяз болып
[531.725]
<no-speech>
[533.155]
кеше ещё біз
[534.085]
<no-speech>
[536.375]
кеше біз ещё Шынар екеуміз сол суықта ішек-қарын (()) қой тәтемді шығармай далаға
[542.425]
<no-speech>
[549.125]
ааа
[549.635]
<no-speech>
[551.385]
не дейсің
[552.095]
<no-speech>
[553.535]
жоқ
[554.135]
<no-speech>
[556.445]
жоқ (()) әкелгенде ме (())
[558.175]
<no-speech>
[559.455]
алып келген жоқ алып келген жоқ
[561.035]
<no-speech>
[565.945]
енді тұра берсін
[567.105]
<no-speech>
[569.995]
аха иә иә
[571.895]
<no-speech>
[575.275]
(()) документ бар келмесем Қуандықтан беріп жіберемін дейді
[578.465]
Шынар <no-speech>
[582.535]
өткендегі Шынар айтқанды да беріп жіберсін дейді саған
[585.545]
<no-speech>
[587.065]
<no-speech>
[587.525]
<no-speech>
[590.455]
<no-speech> иә иә
[592.205]
<no-speech>
[598.195]
<no-speech>
[598.875]
<no-speech>
[599.865]
ааа
[601.185]
<no-speech>
[602.640]
