[0.000]
<no-speech>
[2.405]
алло
[3.215]
<no-speech>
[4.155]
алло
[4.645]
<no-speech>
[6.015]
ассалаумалейкум
[7.315]
<no-speech>
[8.185]
қалйсың иә қалайсың
[11.425]
<no-speech>
[12.815]
болады деймін жұмыс жайлы сұрайын деп едім ааа
[16.025]
<no-speech>
[17.805]
(())
[19.945]
<no-speech>
[22.085]
ааа
[23.095]
<no-speech>
[24.045]
ой <no-speech> ой біреу тауып берді ғой өзің қалай жұмыстасын ба
[29.385]
<no-speech>
[30.695]
ау
[31.165]
<no-speech>
[34.305]
ааа
[35.035]
<no-speech>
[40.045]
(())
[41.715]
<no-speech>
[45.245]
если что айтамын ғой
[46.675]
<no-speech>
[47.615]
келесің бе
[48.485]
<no-speech>
[50.395]
айтамын айтамын келесің бе деймін айтамын деймін
[53.315]
<no-speech>
[54.655]
иә
[55.125]
<no-speech>
[57.405]
ааа
[58.285]
<no-speech>
[59.335]
иә (()) базарға жай бардың
[62.095]
<no-speech>
[62.935]
білмеймін соны мен сол қай жақтан болыр тұрғаның
[64.965]
<no-speech>
[69.415]
ааа ой баған да сондай болған
[72.855]
<no-speech>
[74.815]
<hes> ааа үй жақта ба- балалармен жүрсің бе
[77.685]
<no-speech>
[80.265]
ау <int>
[82.385]
<no-speech>
[84.225]
ой не не (()) тауып берген анау жоғарыда (()) Радок тауып берген Радокты білесің бе
[92.535]
<no-speech>
[94.015]
<no-speech>
[94.695]
<no-speech>
[95.555]
(()) берген бір жұмыс
[97.485]
<no-speech>
[98.935]
(()) жақта
[100.865]
<no-speech>
[103.425]
ммм (()) қалды
[106.135]
<no-speech>
[107.715]
жоқ
[108.615]
<no-speech>
[109.525]
жаңа барып қайтқанмын сол жаққа жаңа барып қайтқанмын сол жаққа деймін
[113.005]
<no-speech>
[114.865]
сол жаққа документтерді апарып
[116.665]
<no-speech>
[120.035]
иә осы осы жұмыста отырмын
[122.165]
<no-speech>
[123.995]
сенің жұмысын қалай
[125.105]
<no-speech>
[127.285]
ау иә құжаттарды апарып тастадым сонымен қайтқанмын
[131.205]
<no-speech>
[134.675]
басқа не жаңалық
[135.595]
<no-speech>
[138.465]
басқа не жаңалық деймін
[139.815]
<no-speech>
[143.365]
(()) ғой деймін
[144.675]
<no-speech>
[145.885]
ау
[146.575]
<no-speech>
[148.435]
алло
[149.185]
<no-speech>
[154.425]
айтып (()) мен айтмын
[155.955]
<no-speech>
[160.105]
(()) басқа күтуші беремін сосын беремін күтуші беремін
[164.835]
<no-speech>
[166.815]
жұмысқа жұмысқа
[167.955]
<no-speech>
[170.655]
ау ау
[172.005]
<no-speech>
[174.445]
<no-speech>
[174.805]
<no-speech>
[179.015]
<no-speech>
[180.195]
<no-speech>
[181.115]
ол қай жақта ей
[182.535]
<no-speech>
[183.805]
иә солай болып тұр ғой күн суыққа солай болып тұр
[186.255]
<no-speech>
[187.305]
естілмейді
[188.135]
<no-speech>
[189.155]
күн суыққа солай болып тұр деймін
[191.125]
<no-speech>
[193.465]
ау
[193.915]
<no-speech>
[197.365]
естідім ғой енді мен емес мен ем- мен ем- мен емес қой сол отырған ол жақта
[203.495]
<no-speech>
[205.335]
<no-speech> мен емес қой-ей отырған ол жақта деймін
[208.385]
<no-speech>
[215.805]
(())
[216.445]
<no-speech>
[217.525]
<no-speech>
[217.885]
<no-speech>
[218.985]
(())
[219.415]
<no-speech>
[221.345]
ааа
[222.255]
<no-speech>
[223.985]
енді анау жақтан шығар ол <no-speech>
[227.535]
<no-speech>
[228.605]
(()) шығарады ма Жанден
[230.745]
<no-speech>
[233.465]
иә (()) ма деймін
[235.555]
<no-speech>
[237.215]
(())
[237.905]
<no-speech>
[240.355]
(()) келді ме деймін
[243.345]
<no-speech>
[246.315]
алло
[246.825]
<no-speech>
[248.835]
ааа (()) нені қанша деді
[252.755]
<no-speech>
[255.475]
жеңге жұмысқа кірді ме деймін
[259.545]
<no-speech>
[261.095]
жеңгеміз жұмысқа кірді ме
[262.885]
<no-speech>
[266.195]
ааа үйде ме ммм
[268.075]
<no-speech>
[271.345]
еее анау жұмысқа бармады ма
[273.675]
<no-speech>
[275.125]
жоқ анау Нәзипа айтып еді ғой анау бір жұмысқа бар- барған жоқ па
[278.385]
<no-speech>
[281.435]
(()) деді бір жұмысқа <hes> беріп еді ғой бір жұмыстан
[284.845]
<no-speech>
[288.175]
(()) жұмысты берді ғой сол <hes> бар деп берді ғой жеңгеге
[293.995]
<no-speech>
[296.495]
алло (()) иә иә
[298.865]
<no-speech>
[300.265]
иә иә барды ма
[301.625]
<no-speech>
[303.645]
<no-speech>
[304.025]
<no-speech>
[305.045]
ааа барған жоқ па не ғой неғып
[309.155]
<no-speech>
[311.675]
болмайды дейді <no-speech> ааа <no-speech> ммм <no-speech> солай
[320.505]
<no-speech>
[322.825]
ау
[323.495]
<no-speech>
[327.425]
қазір шығамын <hes> жарты сағаттан кейін шығамын
[329.955]
<no-speech>
[332.675]
<no-speech>
[333.045]
<no-speech>
[335.145]
жаңағы неде ғой анау Сейфуллин
[338.455]
<no-speech>
[339.405]
Сейфуллин көшесі бар ғой
[340.685]
<no-speech>
[342.585]
Сей- Сейфуллин көшесі бар ғой Төле Төле Сейфуллин
[346.245]
<no-speech>
[347.325]
сол сол жақта сол
[349.495]
<no-speech>
[350.915]
<no-speech> алло
[353.345]
<no-speech>
[355.425]
Сейфуллин көшесінде деймін
[357.505]
<no-speech>
[361.065]
Сейфуллин көшесінде
[363.065]
<no-speech>
[364.955]
ау
[365.395]
<no-speech>
[368.595]
айттым ғой жаңағы
[370.115]
<no-speech>
[371.765]
(()) ей
[373.025]
<no-speech>
[374.465]
<no-speech>
[374.955]
<no-speech>
[377.045]
күтуші күтуші ше
[378.655]
<no-speech>
[379.825]
бақша (()) бақша
[381.305]
<no-speech>
[383.775]
ау
[384.225]
<no-speech>
[385.465]
ей (()) Абзал апарды сол жаққа кірдім <hes> не бар ғой анау (())
[392.605]
<no-speech>
[395.435]
сол жерге енді документ тапсырдым бүгін
[398.945]
<no-speech>
[399.815]
ау
[400.505]
<no-speech>
[401.875]
иә (())
[403.665]
<no-speech>
[404.995]
(())
[405.665]
<no-speech>
[407.835]
ааа
[408.295]
<no-speech>
[413.025]
ааа <no-speech>
[414.715]
<no-speech>
[415.735]
<no-speech>
[416.095]
<no-speech>
[417.085]
<no-speech> алло
[418.615]
<no-speech>
[422.565]
(())
[423.695]
<no-speech>
[425.715]
ааа <no-speech> алло
[428.725]
<no-speech>
[432.385]
(())
[432.775]
<no-speech>
[439.635]
алло
[440.525]
<no-speech>
[442.265]
ммм <no-speech> алло
[447.405]
<no-speech>
[449.785]
ей ертең жұмыс <hes> жұмыс қашан қашан жұмыс істейсің
[452.995]
<no-speech>
[456.915]
бітті ааа
[458.405]
<no-speech>
[459.435]
ей неше күн отырдың екі күн бе үш күн бе
[462.155]
<no-speech>
[464.905]
екі күн бе үш күн бе отырасың ба
[466.615]
<no-speech>
[467.655]
қанша күн отырасың
[468.755]
<no-speech>
[470.155]
екі күн
[470.625]
<no-speech>
[471.485]
алло
[472.045]
<no-speech>
[473.935]
ааа Мұхтар звондаған жоқ па
[476.765]
<no-speech>
[477.875]
ааа
[478.645]
<no-speech>
[482.845]
(()) ше жұмыстары болмады ма не
[485.505]
<no-speech>
[489.685]
жұмыстары деймін
[490.785]
<no-speech>
[494.635]
<no-speech> ммм
[496.655]
<no-speech>
[497.945]
телефон соқ- соқпайсың
[499.485]
<no-speech>
[500.795]
ей бәрі жақсы сол док- <hes> нелерімді құжаттарымды дайындап
[505.585]
<no-speech>
[506.655]
бәрінен өттім
[507.765]
<no-speech>
[511.365]
<no-speech> иә документ нені құжаттарымды бердім
[515.025]
<no-speech>
[516.915]
<no-speech>
[517.375]
<no-speech>
[520.035]
<no-speech> естімедім
[524.185]
<no-speech>
[525.985]
ааа
[526.445]
<no-speech>
[529.505]
жоқ басқа
[530.805]
<no-speech>
[534.995]
иә иә
[536.215]
<no-speech>
[539.805]
иә үйге барған соң немен қазақ қазақ тілі не қазақ
[546.365]
<no-speech>
[547.225]
қазақ тілі
[548.295]
<no-speech>
[550.895]
иә сөйле (())
[553.785]
<no-speech>
[557.205]
ау
[557.805]
<no-speech>
[559.585]
ааа
[560.025]
<no-speech>
[561.525]
не (()) жоқ сен
[562.965]
<no-speech>
[564.605]
нені
[565.395]
<no-speech>
[567.185]
иә
[567.875]
<no-speech>
[569.725]
<no-speech>
[570.075]
<no-speech>
[571.785]
иә қазақша сөйле деп тұрмын ғой
[573.375]
<no-speech>
[577.795]
ау
[578.425]
<no-speech>
[584.935]
түсінбедім
[585.715]
<no-speech>
[589.425]
<no-speech>
[590.545]
<no-speech>
[592.985]
жоқ-ей ей қай жақтағы қазақша сөйлейміз ғой енді <hes> білмейміз ғой ондай тілдерді
[597.005]
<no-speech>
[600.120]
