[0.000]
<no-speech>
[1.635]
<no-speech>
[2.045]
<no-speech>
[3.785]
<no-speech>
[4.145]
<no-speech>
[5.735]
<no-speech>
[6.175]
<no-speech>
[8.545]
<no-speech> сәлем қалайсың
[11.475]
<no-speech>
[13.355]
Гүлмира мен ғой Мақпал
[15.185]
<no-speech>
[16.905]
жақсы не істеп жатырсыңдар
[18.845]
<no-speech>
[20.395]
алло қалдарың қалай
[22.295]
<no-speech>
[25.015]
қалдарың қалай
[26.165]
<no-speech>
[27.285]
<no-speech> жақсы Сұлтан не істеп жатыр
[30.535]
<no-speech>
[31.675]
Сұлтан не істеп жатыр
[32.905]
<no-speech>
[37.835]
Жәнібек жақсы бүгін садикке бармаған Жәнібек жақсы садикке бармаған ғой ұйықтап қалды уже
[44.245]
<no-speech>
[46.595]
<int> алло
[47.625]
<no-speech>
[51.245]
иә жұмыстан мен бүгін түстен кейін келгенмін
[53.905]
<no-speech>
[55.275]
бүгін ерте келгенмін жұмыстан сол отырмын үйде <no-speech> алло
[60.265]
<no-speech>
[61.515]
мамам қалай
[62.425]
<no-speech>
[65.425]
Жандос үйде
[66.535]
<no-speech>
[67.755]
<no-speech>
[68.145]
<no-speech>
[72.015]
не жаңалық <no-speech>
[75.135]
<no-speech>
[78.245]
не жаңалық деймін
[80.305]
<no-speech>
[82.345]
<no-speech>
[82.785]
<no-speech>
[89.855]
жұмысым жақсы үйреніп қалдым
[92.525]
<no-speech>
[93.815]
<int> жұмысым жақсы үйреніп қалдым кішкене
[96.655]
<no-speech>
[98.905]
бағана сөйлескенмін тоже дұрыс естілмейді былай
[102.385]
<no-speech>
[105.085]
ааа онша жақсы естілмейді бағана сөйлескенмін Әлішермен
[108.185]
<no-speech>
[109.285]
<int> аса жақсы естілмеді Әлішермен сөйлес-
[112.715]
<no-speech>
[116.985]
Сұлтан не істеп жатыр тып-тыныш қой
[118.905]
<no-speech>
[128.225]
алло Австралия арқылы сөйлесіп жатырмыз екеуміз сол үшін осы дұрыс естілмей жатыр
[133.745]
<no-speech>
[137.115]
алло
[137.645]
<no-speech>
[139.265]
ммм Сәбит қалай
[140.405]
<no-speech>
[142.415]
Сәбит қалай
[143.375]
<no-speech>
[148.775]
қайда шығып кетті
[149.865]
<no-speech>
[154.405]
молодец құтты болсын қандай телефон
[156.805]
<no-speech>
[158.065]
қандай телефон алып берді
[159.485]
<no-speech>
[163.045]
қандай
[163.675]
<no-speech>
[165.845]
iPhonе шесть пе
[167.235]
<no-speech>
[169.545]
ааа
[170.495]
<no-speech>
[171.395]
<no-speech>
[171.775]
<no-speech>
[172.575]
iPhonе шестой <hes> шығыпты ғой соны iPhonе алты ше соған сондай алып берді ме екен деп ойлап қалыппын
[178.195]
<no-speech>
[180.935]
алло
[181.535]
<no-speech>
[183.785]
iPhonе шестой деген шығыпты ғой
[185.945]
<no-speech>
[187.025]
алло <int>
[188.495]
<no-speech>
[193.345]
алло
[194.025]
<no-speech>
[198.245]
иә алтыншысы шығыпты
[199.845]
<no-speech>
[211.145]
<int> сенікімен өзі сөйлесіп жүр ме
[214.755]
<no-speech>
[217.465]
<int> алло
[218.535]
<no-speech>
[219.765]
сенікімен өзі сөйлесіп жүр ме
[221.445]
<no-speech>
[223.245]
сенің телефоныңды өзі алды ма деймін
[225.025]
<no-speech>
[228.605]
сенің өзіңнің телефоның қайда
[230.585]
<no-speech>
[232.825]
ааа
[233.735]
<no-speech>
[236.415]
ааа дұрыс болыпты
[237.865]
<no-speech>
[240.445]
ааа <laugh> дұрыс
[242.915]
<no-speech>
[244.485]
сол
[245.275]
<no-speech>
[246.905]
не жаңалық
[247.845]
<no-speech>
[254.475]
қайда
[255.105]
<no-speech>
[258.735]
алло не үшін
[261.045]
<no-speech>
[264.195]
не үшін не үшін шақырды дейді
[266.095]
<no-speech>
[268.435]
бір <hes> естідім не үшін шақырды дегенім ғой
[271.335]
<no-speech>
[273.915]
соғым басын берейін деп жатыр ма
[275.815]
<no-speech>
[278.735]
ааа неге Құдай шай
[280.555]
<no-speech>
[281.885]
қандай Құдай шай
[282.955]
<no-speech>
[286.035]
қандай Құдай шай ааа машиналарына ма
[290.225]
<no-speech>
[291.265]
ааа түсінікті енді түсіндім
[293.105]
<no-speech>
[294.495]
ааа
[295.215]
<no-speech>
[297.135]
ммм мама не істеп ааа мама не істеп жатыр
[301.195]
<no-speech>
[304.505]
мамам не істеп жатыр
[305.595]
<no-speech>
[307.705]
ааа Назымдар келіп пе
[310.515]
<no-speech>
[311.735]
мамам ааа Назымдар келіп пе
[313.315]
<no-speech>
[315.865]
Назымдар келіпті ме
[317.045]
<no-speech>
[324.385]
Назымдар келеді ме екен
[325.695]
<no-speech>
[328.205]
Назымдар келеді ме екен
[329.825]
<no-speech>
[333.635]
<no-speech>
[334.045]
<no-speech>
[335.885]
ааа
[336.735]
<no-speech>
[340.495]
ммм
[341.325]
<no-speech>
[344.205]
ммм
[345.035]
<no-speech>
[346.595]
ммм
[347.635]
<no-speech>
[349.325]
солай
[350.095]
<no-speech>
[352.845]
сол
[353.495]
<no-speech>
[362.375]
пісірдім <sta>
[364.085]
<no-speech>
[365.645]
сен пісірдім дейсің бе бүгін
[366.985]
<no-speech>
[370.725]
ааа үйден пісіріп апара жатырсың ба енді бәрін
[373.295]
<no-speech>
[376.365]
алло
[376.935]
<no-speech>
[379.705]
ааа айтып па еді Сәуле тәте сұрап па еді сенен
[383.135]
<no-speech>
[386.775]
пісіріп әкелші деп сұрап па еді
[388.125]
<no-speech>
[390.165]
ааа
[391.385]
<no-speech>
[393.195]
(())
[394.155]
<no-speech>
[394.955]
<no-speech> алло
[396.785]
<no-speech>
[398.925]
ааа
[399.855]
<no-speech>
[402.225]
Сұлтан қайда жүр дейсің
[403.575]
<no-speech>
[405.145]
<no-speech>
[405.545]
<no-speech>
[406.565]
алло
[407.135]
<no-speech>
[408.565]
иә
[409.175]
<no-speech>
[411.685]
Сұлтан қайда жүр
[412.805]
<no-speech>
[414.455]
Сұлтан қайда жүр деймін естілмейді ғой даусы
[417.065]
<no-speech>
[421.955]
<no-speech>
[422.315]
<no-speech>
[428.780]
<no-speech>
[435.245]
ммм
[435.795]
<no-speech>
[438.595]
ау
[439.175]
<no-speech>
[442.445]
осы сен Сымбатпен сөйлестің бе
[443.995]
<no-speech>
[447.885]
(()) Сымбатпен сөйлестің бе
[449.945]
<no-speech>
[451.385]
<no-speech>
[451.735]
<no-speech>
[457.335]
ммм
[458.125]
<no-speech>
[459.005]
Әсел қашан қайтамын дейді
[460.515]
<no-speech>
[464.965]
Әсел қашан қайтамын дейді
[466.555]
<no-speech>
[467.975]
<no-speech>
[468.325]
<no-speech>
[472.955]
ааа
[473.795]
<no-speech>
[474.945]
<int> ммм
[477.405]
<no-speech>
[485.505]
ауа райы <hes> жақсы
[487.685]
<no-speech>
[489.655]
кеше аздап қар жауған қазір
[492.265]
<no-speech>
[493.595]
иә қар жауған салқын енді суық (())
[496.445]
<no-speech>
[502.775]
ммм
[503.745]
<no-speech>
[507.885]
бағана неге барайық магазиндерге барайық дегенбіз ғой бутик аралайық деп не
[511.775]
<no-speech>
[513.795]
қыстық Жәнібекке аяқ киім алайық дегенбіз
[515.575]
<no-speech>
[516.865]
<hes> жолға шықсақ машина көп
[521.925]
<no-speech>
[522.865]
кептелісте тұр барлық жер сонымен қайтып кеттік жарты жолдан
[526.495]
<no-speech>
[529.515]
Жәнібек ұйықтап қалды жолда
[531.155]
<no-speech>
[534.185]
ешқайда бармадық
[535.195]
<no-speech>
[536.985]
бір-ақ күн ғой демалыс ше
[538.565]
<no-speech>
[547.295]
мхм
[547.975]
<no-speech>
[549.985]
ау
[550.505]
<no-speech>
[553.185]
алло не дейсің
[554.015]
<no-speech>
[556.805]
ааа (())
[557.805]
<no-speech>
[558.915]
не үшін не үшін
[560.755]
<no-speech>
[569.455]
ааа
[570.375]
<no-speech>
[573.595]
жасайды ма екен қайда жасайды екен
[574.995]
<no-speech>
[578.935]
қай жерде жасайды екен
[580.215]
<no-speech>
[586.065]
жарайды
[586.665]
<no-speech>
[590.055]
<no-speech>
[590.445]
<no-speech>
[591.415]
<no-speech> қалмай қоямын десей
[593.625]
<no-speech>
[597.435]
он бесіне воскресенье ғана демаламын ғой
[599.465]
<no-speech>
[600.020]
