[0.000]
<no-speech>
[3.895]
ей мынау бірдеңе дейді ғой ей <sta>
[7.785]
<no-speech>
[8.935]
жүйеде қалады дейді ме естілмейді <male-to-female> ау немене
[12.125]
<no-speech>
[14.165]
ей ей мә Еркінбек қой алло деп жатыр ғой <male-to-female> ммм алло алло
[19.355]
<no-speech>
[21.755]
ааа жақсы жақсы жақсы
[23.925]
<no-speech>
[24.835]
Анар жоқ
[25.645]
<no-speech>
[30.185]
ауылда жаңалық жоқ
[31.805]
<no-speech>
[32.755]
бәрі тыныш <sta>
[35.805]
<no-speech>
[37.465]
<no-speech> өткенде бір күн қондым ғой
[40.295]
<no-speech>
[41.555]
алло ей бір күн қон- қондым ғой
[44.275]
<no-speech>
[45.465]
<no-speech>
[46.045]
<no-speech>
[48.075]
<hes> бір күн қондым ғой
[49.845]
<no-speech>
[54.075]
ау
[54.705]
<no-speech>
[55.985]
ей ақша- ақша- ақшаларың алады екен сол анау праздник болып ақшасын бермей қалды да сосын ертесіне алдым ғой ақшасын
[62.705]
<no-speech>
[64.035]
а- айлық (()) айлықтарын да
[65.745]
<no-speech>
[66.605]
ертесіне бәрін алып қайттым ғой сразу
[68.545]
<no-speech>
[69.425]
мынау (()) бәрі
[71.175]
<no-speech>
[73.085]
ааа <sta> ааа сол ертесіне қайттым ғой бір күн қондым да
[77.885]
<no-speech>
[80.085]
енді біреу екі-үш күнде барамын ғой Құдай қаласа
[83.155]
<no-speech>
[85.925]
барайын ба
[86.755]
<no-speech>
[87.765]
ааа сен дайындасаң егер де
[89.435]
<no-speech>
[101.155]
бүгін қанша бүгін не ғой иә <sta> бүгін бүгін бесінші күн ғой иә
[105.525]
<no-speech>
[109.665]
жұма ғой ааа ааа ааа ей бірінші күні бармаймын ба бірінші күн
[114.835]
<no-speech>
[117.145]
ааа жұмыс күні болмайды ма
[118.805]
<no-speech>
[120.795]
иә келесі аптаның басында барамын ба қалай жұмыс жұмыс күні болады ма
[124.525]
<no-speech>
[126.825]
жұмыс күні де болады ма деймін ааа
[129.365]
<no-speech>
[134.535]
<no-speech> не алдағы ма
[136.215]
<no-speech>
[138.415]
ааа
[139.345]
<no-speech>
[142.155]
ааа онда оны келесі аптаға барамын да субботаға иә
[146.895]
<no-speech>
[148.995]
алтыншы күнге
[149.885]
<no-speech>
[155.975]
<no-speech> ей бір бие бар бірақтан ол (()) мал болып тұр тоже жаман семіз жасы үлкен де бірақтан әкең
[163.595]
<no-speech>
[165.435]
оны апара алмаймын ғой деймін ол болмайтын да ол иә болады ма болмайды ма
[168.755]
<no-speech>
[170.185]
семіз бірақтан
[172.115]
<no-speech>
[173.145]
иә жасы үлкен (()) жасы үлкен оның (()) қазір бір жердегі ертең барып көремін
[179.165]
<no-speech>
[180.865]
иә <laugh>
[182.205]
<no-speech>
[183.615]
иә
[184.295]
<no-speech>
[185.135]
иә
[185.845]
<no-speech>
[187.915]
иә мен
[188.785]
<no-speech>
[189.705]
<no-speech> қолы бос дейсің ғой иә қолы бостығы иә
[193.335]
<no-speech>
[195.145]
ммм ей онда сол жасын апарамын ғой енді анау күндегідей иә бес бесті өткендегідей де
[203.245]
<no-speech>
[205.485]
сол сияқты бесті (()) бесті
[208.685]
<no-speech>
[209.795]
ей бір жерде бір бесті бар дейді соны барып көрейін деп жатырмын енді барып <sta> иә
[214.705]
<no-speech>
[216.025]
бір <hes>
[217.215]
<no-speech>
[218.125]
ааа (()) анау
[220.345]
<no-speech>
[223.345]
анау неде ненің алдында (()) Кентаудың бергі жағында
[228.325]
<no-speech>
[231.305]
олар ммм анау бір құдамыз бар еді сол семіз көр деп жатыр да келіп
[237.275]
<no-speech>
[239.085]
ммм жақтырып жүрсең беремін дейді ммм
[241.925]
<no-speech>
[242.785]
соның нақты алу керек болып тұр ғой ааа так ақшам бар нақты алатын
[246.305]
<no-speech>
[247.485]
соған ертең <hes> алтыншы күні барамын соған алтыншы күні ме или демалыс күні ме барамын
[252.135]
<no-speech>
[254.435]
<hes> биесі семіз дейді ғой әйтеуір соны ал десе соны аламын
[257.485]
<no-speech>
[259.405]
<hes> бесі дейді үлгеремін ғой бәрін көріп иә ол жақтікі ол жақта жусаң ғой иә ол жердің (()) болса
[268.315]
<no-speech>
[269.245]
барып көремін ғой
[270.295]
<no-speech>
[271.475]
тә- тәтті болады ол жақтікі де біздікі сияқты таудың етегі ғой Кентаудың бергі жағы мынау (()) арғы жағы
[277.655]
<no-speech>
[280.385]
сол келіп көр алтыншы күні көр деп жатыр келіп
[282.755]
<no-speech>
[283.735]
болмаса базарға апарамын дейді соны көр дейді
[285.715]
<no-speech>
[286.985]
соған барып көремін енді ертең Құдай қаласа
[289.625]
<no-speech>
[290.945]
ұнаса соны әкеліп қоямын ба демалыста анау машиналар болады сонымен әкеліп қоямын үйге
[295.365]
<no-speech>
[298.525]
ммм сөйтіп өзім тағы бір апта ұстаймын енді
[301.225]
<no-speech>
[302.855]
бір апта ұстаймын <hes> тағы өзім байлап отырғанымды ол жиырма бестеріне дайын болады ол әкең әлі толмай жатыр да әлі (()) толмай жатыр
[312.565]
<no-speech>
[313.825]
екі ай байлаймын ғой болмағанда мен
[315.505]
<no-speech>
[316.675]
оны (()) толмай жатыр
[317.955]
<no-speech>
[318.775]
ол жиырма бестерінде бұл құнан ол өзімде тұр ол
[322.975]
<no-speech>
[325.085]
ааа анау жиырма бестеріне толатын да құнан
[327.825]
<no-speech>
[328.695]
ммм ол жиырма (()) келеді де жиырма бір
[332.445]
<no-speech>
[333.535]
ааа жаңағы бесті болса ол жиырма бесіне (())
[336.245]
<no-speech>
[338.345]
жиырма бес жиырма алты
[339.825]
<no-speech>
[341.905]
анау күнгі сияқты болады да енді (()) анау күні денесі ірі тұғын енді ол
[346.765]
<no-speech>
[347.595]
дәл ондай болмайтын шығар бірақ жиырма бес жиырма алты болады
[350.255]
<no-speech>
[351.715]
ммм сондай (()) менікі енді дұрыс па
[355.925]
<no-speech>
[357.455]
а то жаманын апарамаймын ғой мен ол жаққа өзім үшін
[360.485]
<no-speech>
[361.815]
өзім үшін жақсысың апарамын ғой ол жаққа мен
[363.735]
<no-speech>
[364.735]
жаманын апарсаң қайта бара бара алмай қаласың ғой бара алмай қаламын ғой қайтып
[368.155]
<no-speech>
[370.135]
<no-speech> (()) жатыр
[371.655]
<no-speech>
[374.665]
иә иә жай-жай клиенттер неғылып жатыр ғой нетіп иә жай-жай <laugh> сол бизнес болып кетсе жақсы болады ғой сол (()) ең болмаса айына бір рет (())
[385.315]
<no-speech>
[387.235]
жаман болмас еді ммм
[389.515]
<no-speech>
[390.715]
шөп пе берсең тағы анау анау (())
[394.105]
<no-speech>
[395.065]
иә ұялмай сатқан жақсы ғой
[396.635]
<no-speech>
[397.825]
иә анау биелер (()) былай неғылмайды (()) үйде болған соң қатты болады
[402.605]
<no-speech>
[403.465]
(()) жақсы да ол да жаңағы ертесіне қайнатқан кезде ойбай деп саған айтады ғой әуелі әй немене бәле әкелгенсің анау өтпейді ғой піспейді піспейтін бәлені әкеліпсің ғой <laugh> дейді ғой
[415.355]
иә иә
[416.525]
<no-speech>
[417.345]
соны ойлап жатырмын оны ауылға сатсаң ауылға сол Құдай қаласа кеше айттым ауылға
[422.265]
<no-speech>
[423.215]
қайнатып қойып жейсіңдер өздерін (()) бірақтан семіз болғанда тым жаман кеше көрдік қой анау (()) Алматыға тоже (()) апарғанмын кеше
[432.175]
<no-speech>
[433.205]
ол да шамалы қатты былай
[434.565]
<no-speech>
[436.545]
ол ол аналардан қайта аналардан қайта жастау тұғын
[439.565]
<no-speech>
[440.825]
байланбаған ғой таудан әкелдік қой (()) өзім өзімнің жылқым анау үш жылқының біреуі ғой біреуін саттым ғой оның
[446.255]
<no-speech>
[447.365]
ол кішілеу тұғын жиырма екі келідей қылды жиырма екі келі қылды
[450.805]
<no-speech>
[452.915]
соны өткіздім де анау жаққа
[454.125]
<no-speech>
[456.325]
ммм
[457.355]
<no-speech>
[459.125]
(()) айтып едім ол барасыз ба десем
[461.265]
<no-speech>
[463.425]
Оразхан ол әбден байып алды ғой ол әбден байып алды ғой ол Әлматтан Әлмаштан бес бие алды ма өзінің екі екі биесі бар иә жеті биесі бар (())
[474.565]
<no-speech> үйінде жеті құлын байлаулы тұр
[477.085]
<no-speech>
[478.205]
бәрі (()) кеше (())
[480.695]
<no-speech>
[481.905]
Базархан айтады
[482.885]
<no-speech>
[484.275]
ой (()) бәрі бәрі ұрғашы дейді жаңағы құлындарының байитын адамға сөйтеді ғой ол
[489.575]
<no-speech>
[490.625]
жеті алты құлынның
[492.385]
<no-speech>
[493.295]
бесеуі ұрғашы дейді
[494.945]
<no-speech>
[496.585]
біреу ғана еркек дейді
[497.845]
<no-speech>
[499.315]
ааа жаман емес Оразхан анау балалары істеп
[502.845]
<no-speech>
[504.385]
анау солар екі баласы істейді ғой Алматыда сол екі баласы (()) бір баласы мынау жақта (()) істеп жатыр
[510.925]
<no-speech>
[512.025]
Самат дегені
[513.015]
<no-speech>
[514.335]
Самат Нұрмат екі баласы екі баласы істеп солар (()) биені солар төледі ғой бес биені
[519.285]
<no-speech>
[520.525]
өзінің бір-екі биесі бар тұғын
[522.125]
<no-speech>
[523.965]
Астанада ғой олар *Астанада* Астанада
[526.965]
<no-speech>
[528.395]
ааа (()) деген бар ғой (()) көтеріп жатырған сол (()) ғой
[532.235]
<no-speech>
[534.895]
(()) малдарды сол жақтан сол жақтан істеп
[536.995]
<no-speech>
[540.065]
ммм
[541.035]
<no-speech>
[541.925]
кім
[542.455]
<no-speech>
[546.795]
<laugh> Көпен үйінде бизнес жасап жатыр ол анау машинасы бар газелі
[551.345]
<no-speech>
[552.675]
сонымен анау Қарабұлақ деген жер бар мынау жақта ақшасы бар ғой енді Қарабұлақта мал апарады ол жақтан ол жақтан бері қарай мал әкеледі әтеуір оныкі де бизнес базарға барып жатады тікелей
[563.525]
<no-speech>
[566.195]
мынау жақтан мынау жақтан ол жаққа апарады ол жақтан мынау жаққа келеді әйтеуір кейде
[569.725]
<no-speech>
[570.635]
кейде жақсы дейді кейде не ей боқтап келеді машинаны (()) жөні болмай қалды деп
[575.765]
<no-speech>
[577.245]
әлі әлі жақсы түсіне алмай жатыр ғой ол да сауданы сауда ғой (()) сауда деген
[581.235]
<no-speech>
[583.795]
жаман емес анау баласы екеуі ол да тірлік істеп жатыр
[586.235]
<no-speech>
[587.385]
сиыр әкеледі әйтеуір
[588.775]
<no-speech>
[591.005]
иә Ербол Ербол Ерболы <sta> ей Заңғар Заңғар Заңғар ма не <sta> Заңғар барып жүр ме ааа Заңғар екеуі жүр ғой
[599.575]
<no-speech>
[600.260]
