[0.000]
<no-speech>
[2.695]
<no-speech>
[5.395]
<no-speech>
[6.195]
алло
[9.805]
<no-speech>
[11.285]
иә иә сәлеметсіз бе
[16.645]
<no-speech>
[19.545]
жақсы рақмет
[21.685]
<no-speech>
[22.525]
өзіңіз
[23.695]
<no-speech>
[24.635]
иә жұмыстамын өзіңіз
[26.085]
<no-speech>
[28.525]
<no-speech>
[30.105]
<no-speech>
[33.765]
ааа
[34.765]
<no-speech>
[35.965]
бәрі жақсы рақмет иншалла өзіңнің ата-анаңның қалы қалай
[42.185]
<no-speech>
[50.135]
ааа рақмет (()) саламат болсын (()) қалай екен орнында ма екен
[56.585]
<no-speech>
[59.575]
<no-speech>
[60.785]
<no-speech>
[62.645]
<no-speech>
[63.145]
<no-speech>
[63.975]
ааа жиырма екінші наурызда ата-анам Алматыға келеді солармен бірге боламын өзің
[74.345]
<no-speech>
[76.475]
жоқ кешке мүмкін барармын
[80.685]
<no-speech>
[82.785]
өзің өзіңде қандай
[84.835]
<no-speech>
[85.855]
<no-speech>
[92.265]
<no-speech>
[93.225]
(()) қалай <no-speech> ааа өзіңде жиырма екінші наурызда не істейсің
[103.615]
<no-speech>
[108.965]
<no-speech>
[109.375]
<no-speech>
[110.475]
<int> иә бос болсам саған хабарласармын <int> <hes> оқу
[121.235]
<int> иә <int>
[125.035]
<no-speech>
[128.715]
<no-speech>
[130.035]
<no-speech>
[132.525]
ыыы
[139.465]
<no-speech>
[141.205]
(())
[146.665]
<no-speech>
[149.395]
<no-speech>
[149.915]
<no-speech>
[150.775]
<no-speech> ааа жақсы болыпты құттықтаймын <int>
[157.115]
<no-speech>
[157.915]
өзіңнің дипломдық жұмысың қалай
[159.935]
<no-speech>
[161.815]
<no-speech>
[168.965]
ааа менде де сол дипломдық жұмыс жазып
[180.585]
қазір мен <no-speech> үлгермей жатырмын өзің ше
[186.005]
<no-speech>
[189.325]
<no-speech>
[189.745]
<no-speech>
[191.395]
<no-speech>
[192.155]
<no-speech>
[194.155]
иә
[194.925]
<no-speech>
[196.035]
иә (())
[197.405]
<no-speech>
[203.995]
<breath> шынымен бе қуаныштымын бақытты болсын
[207.895]
<no-speech>
[208.775]
<no-speech>
[210.415]
<no-speech>
[219.575]
ааа керемет жаңалықтар
[221.595]
<no-speech>
[225.815]
иә суреттеріңді көрдім отырыстарыңның
[230.175]
<no-speech>
[232.355]
жақсы бәрің Әдемі Әдемі болып отырсыңдар
[236.365]
<no-speech>
[237.435]
<no-speech>
[237.785]
<no-speech>
[238.765]
<no-speech>
[239.125]
<no-speech>
[241.595]
<no-speech>
[241.955]
<no-speech>
[243.035]
<no-speech>
[243.425]
<no-speech>
[244.455]
<no-speech>
[245.965]
<no-speech>
[253.805]
<no-speech>
[261.645]
ммм
[262.525]
<no-speech>
[264.105]
ол жақсы ғой керемет қой тұрмыс құрған енді мен бақыт тілеймін жақсы мейрамхана тауып жақсы той өтсін
[272.725]
<no-speech>
[274.685]
ааа таңдаған жігіті қай жердікі
[278.545]
<no-speech>
[285.715]
<no-speech> ааа
[287.665]
<no-speech>
[288.555]
молодец
[290.295]
<no-speech>
[297.455]
ол жақсы ғой ерке келіні болады
[299.995]
<no-speech>
[302.365]
ол жақсы ғой деймін ерке келіні болады
[304.975]
<no-speech>
[306.935]
<no-speech>
[307.335]
<no-speech>
[309.675]
ерке келіні болады үйінде
[311.825]
<no-speech>
[315.045]
<no-speech>
[315.445]
<no-speech>
[318.475]
ааа Айсұлулар қалай көп болды көрмегелі
[322.625]
<no-speech>
[325.515]
жақсы Әйгерім ыыы сол оқуында жүр кішкене қиналып жүр оқуы қиындау
[332.805]
<no-speech>
[333.765]
Мәди
[335.145]
<no-speech>
[336.155]
сол
[336.715]
<no-speech>
[337.675]
иә Әйгерімдер сабақтары ағылшынша ғой сол кішкене қиналып жүр себебі Қазақстан тарихы да математикасы бәрі иә бәрін жақсы тапсырды сексен-тоқсан пайызға
[349.645]
және бірақ енді кішкене осы неде рақмет қиналып жүр себебі история деген математика деген сабақтар ағылшын тілінде өтіп жатыр да
[360.355]
<no-speech>
[364.495]
иә тарих сабағы
[366.155]
<no-speech>
[368.135]
сол
[369.065]
<no-speech>
[372.605]
Мәди жақсы <hes> жүр ол <hes> сол неге барып жүр күреске
[378.825]
<no-speech>
[381.155]
<no-speech>
[381.525]
<no-speech>
[382.635]
аха <int> өзің <no-speech>
[388.545]
<no-speech>
[389.855]
<no-speech>
[390.375]
<no-speech>
[391.225]
<no-speech>
[391.935]
<no-speech>
[394.205]
<no-speech> кірмедіңдер ме
[396.225]
<no-speech>
[401.075]
менің мейрамханамда өкінішке орай той жасауға болмайды себебі бізде ыыы несі зал кішкентай и ондай банкет жасайтын
[412.925]
үйде жоқ
[413.705]
<no-speech>
[416.315]
тек отырыс болмаса
[417.875]
<no-speech>
[419.385]
<hes> жүз жүз отыз адамға арналған
[424.385]
<no-speech>
[427.245]
<no-speech>
[427.615]
<no-speech>
[429.225]
кешке бүгін мен жұмыста боламын кешке дейін сосын үйге қайтамын наверное демалуға
[437.265]
<no-speech>
[440.275]
аха жарайды күтемін
[441.885]
<no-speech>
[446.235]
<no-speech>
[447.705]
<no-speech>
[449.475]
алло <no-speech> Гүлназбен көп болды сөйлеспегелі тек <hes> суретін көрдім суретінен өте жақсы
[461.315]
(()) ағасы ағасының қарындасы сияқты
[469.495]
<no-speech>
[475.455]
иә Гүлназ барып еді ғой иә былтыр жазда соларға демалуға иә Испанияға
[481.865]
<no-speech>
[484.545]
негізі олар келеді иә
[487.375]
<no-speech>
[489.305]
күшті
[490.845]
<no-speech>
[493.125]
да күшті ғой Гүлназ наверное қуанып жүрген шығар
[497.495]
<no-speech>
[501.905]
ыыы
[503.075]
<no-speech>
[505.915]
аха
[506.455]
<no-speech>
[508.015]
шашы (()) ма көзі үлкен
[510.655]
<no-speech>
[511.965]
ммм
[512.945]
<no-speech>
[516.755]
мхм
[517.285]
<no-speech>
[518.185]
ерте иә бірақ бізде де қазір қанша бес барады тоже
[524.085]
<no-speech>
[530.275]
<no-speech> иә алты жастан да болады
[533.405]
<no-speech>
[535.735]
балаға былай қарасаң қиындау сияқты иә бес жастағы бала мектепке барған қызық көрінеді
[543.325]
<no-speech>
[547.445]
ау ааа мен сенен сұрайын дегенім
[550.585]
<no-speech>
[552.885]
алло
[553.485]
<no-speech>
[556.485]
ааа Назеркені сұрайын дегенмін Назерке қалай ол биыл бітіреді ғой иә магистратурасын
[561.395]
<no-speech>
[570.425]
ааа одан кейін ол ыыы не істейді докторантураға түсемін деген сияқты еді ғой или жұмыс істейтін болды ма
[577.755]
<no-speech>
[582.425]
семьясымен бірге Астанаға көше ме
[584.405]
<no-speech>
[585.225]
<no-speech>
[587.075]
<no-speech>
[587.965]
<no-speech>
[588.345]
<no-speech>
[594.185]
ааа жаман болған екен олар Астанаға көшіп кетсе
[598.355]
<no-speech>
[600.555]
көп көре алмаймын
[601.535]
<no-speech>
[602.800]
