[0.0]
<no-speech> 
[2.155]
<no-speech> <sta> aː l o k əʊ̪ aː 
[4.105]
<no-speech> 
[5.735]
th oɪ̪ <no-speech> th e th e t iə̪ p <hes> t iə̪ p t u k s ɛ m t iə̪ p t u k s ɛ m 
[9.365]
<no-speech> 
[10.465]
ɗ aː ŋ ŋ oɪ̪ o t o ʂ ɨə̪ ŋ x o ŋ ɛ m 
[12.065]
<no-speech> 
[14.325]
l aːɪ̪ m aɪ̪ m aɪ̪ m aː j ɨə̪ t oɪ̪ m aː ŋ oɪ̪ o t o ɛʊ̪ əːɪ̪ tɕ əː k m ə k th oɪ̪ m ɛ n o ŋ ɔɛ m ɛ t ɔɛ t ɛ l ɔɛ tɕ a ŋ n ɔɪ̪ ŋ a ŋ ɟ i 
[19.795]
<no-speech> 
[23.395]
<no-speech> 
[24.035]
<no-speech> 
[24.905]
ɨ əː <hes> k ɔ m əɪ̪ ɗ ɨə̪ n ɔ v ə ŋ ɗ aː ŋ ɓ uə̪ ŋ m ə n k ɨ ɓ uə̪ ŋ ɗ i <no-speech> ɟ əːɪ̪ əːɪ̪ m ɨə̪ɪ̪ f u k tɕ ɨ m əɪ̪ x o ŋ l ɔ ɗ əʊ̪ 
[30.255]
<no-speech> 
[32.375]
ɨ m ɨə̪ɪ̪ f u k th oɪ̪ ɟ i 
[33.595]
<no-speech> 
[34.745]
<sta> th oɪ̪ m aɪ̪ ɗ ɨ ŋ k ɔ n ɔɪ̪ l aː t aːʊ̪ x o ŋ th ɛ m ɗ əʊ̪ ʂ aʊ̪ n aɪ̪ ʂ o t aːʊ̪ l aː f aːɪ̪ ɗ i m uɪ̪ tʂ ə n ɲ ɛ <no-speech> oɪ̪ s i ŋ l oɪ̪ ɗ i <no-speech> s i ŋ l oɪ̪ ɗ i 
[41.585]
<no-speech> 
[42.575]
oɪ̪ s i ŋ l oɪ̪ ɗ i ʂ aʊ̪ n aɪ̪ ɲ ɛ tɕ i ɲ əː f aːɪ̪ ɗ i <no-speech> n aɪ̪ ɲ əː tɕ i ʂ əː v iə̪ k n aː m x o ŋ k ɔ ŋ ɟ əɪ̪ <hes> ɟ əɪ̪ ɗ iə̪ ŋ j ɨə̪ ŋ th oɪ̪ ɲ ɛ ʂ aʊ̪ n aɪ̪ tɕ i ɗ i tʂ ɨ k th a ŋ ɲ ɛ tɕ i ɗ i m aɪ̪ ɓ aɪ̪ ɲ ɛ j iə̪ k ɟ i tɕ i f aːɪ̪ ɗ i ŋ oɪ̪ o t o ɣ ɛ k uə̪ m aɪ̪ <laugh> 
[52.605]
<no-speech> 
[55.255]
uɪ̪ ɟ əːɪ̪ <laugh> ɗ e s ɛ m ʂ o tɕ i f aːɪ̪ ɗ i m uɪ̪ tʂ ə n aː x o ŋ v iə̪ k n aː m ɓ uɪ̪ x o ŋ ɗ i ɗ ɨə̪ k m uɪ̪ tʂ ə n x o ŋ ʂ ə n ɓ aɪ̪ f aːɪ̪ ɗ i m uɪ̪ tʂ ə n <no-speech> h iə̪ʊ̪ tɕ ɨə̪ <no-speech> h iə̪ʊ̪ tɕ ɨə̪ 
[63.175]
<no-speech> 
[64.345]
<no-speech> 
[66.395]
<no-speech> 
[67.255]
<no-speech> <laugh> s i ŋ l oɪ̪ ɗ i ɲ ɛ s i ŋ l oɪ̪ ɗ i ɲ ɛ ɣ əː m ɓ aː k uə̪ k ɓ o k uə̪ k ɓ o l uə̪ ŋ ɗ i l a ŋ ɲ a ŋ 
[72.385]
<no-speech> 
[75.675]
<no-speech> <int> k ə m ɗ e k ə p k ə m ɗ e k ə p <laugh> 
[80.135]
<no-speech> 
[84.205]
tʂ aːɪ̪ k i ɟ i <no-speech> aː t oɪ̪ x o ŋ ɓ iə̪ k ɗ ɨə̪ k ɗ əʊ̪ k ɔ ɓ aː ŋ l aː ɲ ɨ th e n aɪ̪ əː th oɪ̪ n ɔɪ̪ v ə ŋ ɗ e n aɪ̪ n ɨə̪ ɗ i əɪ̪ k i x aː k ɗ i əː ɹ o k k uə̪ k l aː m aːɪ̪ ɲ ɨ th e n aːʊ̪ t oɪ̪ l aːɪ̪ w e ŋ m ə k ɹ oɪ̪ <laugh> 
[93.575]
<no-speech> 
[96.885]
ɨ <no-speech> ɨ <int> 
[98.475]
<no-speech> 
[103.585]
əː t oɪ̪ ɓ iə̪ k ɹ oɪ̪ <no-speech> ɨ ɨ ɗ u ŋ ɹ oɪ̪ t oɪ̪ ɓ iə̪ k ɹ oɪ̪ h o m h o m tʂ ɨə̪ k l iə̪ ŋ ɲ a ŋ t i ŋ n a m m ɨə̪ɪ̪ t i ŋ tɕ ɔ t oɪ̪ m aː <no-speech> th e l aː h o m ɗ əɪ̪ tʂ a m t i ŋ t oɪ̪ m əːɪ̪ ɲ a ŋ t i ŋ tɕ ɔ n ɔ h aːɪ̪ ɗ ɨə̪ ɲ a ŋ t i ŋ tɕ ɔ ɲ aʊ̪ n ɔ k u ŋ k e ɹ oɪ̪ s ɔ ŋ m aːɪ̪ ʂ aʊ̪ l aː m aɪ̪ x o ŋ k ɔ j aɪ̪ l əː p ɓ aː aːɪ̪ k u ŋ k ɔ j aɪ̪ ɗ ɛ p l aː m t ɔ k m aː k u p 
[115.445]
m aɪ̪ x o ŋ k ɔ ɟ i <no-speech> <int> 
[117.695]
<no-speech> 
[119.835]
<no-speech> k ə ŋ ɓ aː t iə̪ ŋ s uə̪ k h iə̪ ŋ <no-speech> əː e m ə n m ə n l aː m ɓ aː t iə̪ ŋ ɗ i <no-speech> m ə n l aː m ɓ aː t iə̪ ŋ ɗ i ɓ aːʊ̪ ɲ aː ɛ m 
[127.055]
<no-speech> 
[129.625]
<no-speech> <sta> t oɪ̪ s i ŋ l oɪ̪ ɗ i əː j e ɛ m h ɔaː l u k t u ɓ o l u k t u ɓ o m ɛ l əɪ̪ j aː ŋ s ɔ ŋ ɹ oɪ̪ tɕ o ŋ tɕ o ŋ t iə̪ ŋ <laugh> j aːʊ̪ n aː m m uə̪ m aɪ̪ s ɛ m th u th a n th a n ɓ aː t iə̪ ŋ h ɔaː l aː m ɗ i h ɔaː th a n ɓ aː t iə̪ ŋ ɗ əɪ̪ h ɔaː aː 
[141.165]
<no-speech> 
[144.375]
<no-speech> 
[145.195]
<no-speech> 
[146.125]
<no-speech> ɨ 
[146.655]
<no-speech> 
[156.575]
th u th ə k ɗ əɪ̪ ɲ ə ŋ j ɨə̪ f aːɪ̪ th oɪ̪ k ɔ m əɪ̪ ɓ aː o th e n ɔ n ɔɪ̪ l aː th e aː n ɔ x o ŋ n ɔɪ̪ tɕ uɪə̪ ŋ j əːɪ̪ t oɪ̪ ɲ ɨ k i k iə̪ʊ̪ əɪ̪ ɗ əʊ̪ n ɔ tɕ i ɓ aːʊ̪ k əː ɓ aː ŋ n ɔ x o ŋ k ɔ j aɪ̪ x o ŋ k ɔ ɗ o th oɪ̪ tɕ ɨ n ɔ x o ŋ n ɔɪ̪ k i k iə̪ʊ̪ ɗ əɪ̪ <breath> m aː k ɔ ŋ n aɪ̪ n ɔ ɓ i l aː m ʂ aːʊ̪ əɪ̪ ɲ i ɓ aː m o k l ə ŋ k i m ɓ e ŋ k a n ʂ aʊ̪ n aɪ̪ ɓ aː k ɨə̪ɪ̪ k u ŋ m o k l ə ŋ ɓ aː m uə̪ j aɪ̪ tɕ u k 
[168.535]
tʂ iə̪ʊ̪ j e ɓ aː th əː aː 
[169.485]
<no-speech> 
[175.475]
<no-speech> k i ɟ i k əː 
[176.055]
<no-speech> 
[178.835]
o k e k ɨ n ɔɪ̪ ɗ i k e tɕ u ŋ n ɔ tɕ ɨ l aː m ʂ aːʊ̪ ɓ aː f aːɪ̪ w aː ŋ t ə m ɗ e ŋ k i ɗ əɪ̪ l aː m k i ɟ i 
[182.015]
<no-speech> 
[182.955]
k e tɕ u ŋ n ɔ tɕ ɨ <no-speech> m ə n l aː m m ə k k o ŋ m ə n k ɔ k o t ə n ɗ əʊ̪ <no-speech> 
[186.825]
<no-speech> 
[188.925]
<no-speech> k ɔ ŋ h ə p 
[189.495]
<no-speech> 
[190.825]
əː k i ɟ i ɲ i th e aː n ɔ ɗ ə n m uə̪ j aɪ̪ aː ɓ aː ɓ i h ə p aː t oɪ̪ ɗ əɪ̪ n aɪ̪ ɓ ə n th ɨə̪ ŋ ɲ ɛ ɗ əɪ̪ th u̪e aːʊ̪ ɟ aːɪ̪ əː m əɪ̪ k i t iə̪ m j aɪ̪ k ɨə̪ɪ̪ əɪ̪ aːʊ̪ ɟ aːɪ̪ th oɪ̪ k u ŋ ɗ aː h əː ŋ m o k tʂ a m ɹ oɪ̪ t oɪ̪ h ɔɪ̪ ɓ aː ɲ ɛ ɓ əɪ̪ ɟ əː ɗ i th u̪e ɲ ɨ ŋ k i j aɪ̪ j aɪ̪ <sta> ɟ aː ŋ ɗ əɪ̪ k iə̪ʊ̪ ɟ aː ŋ ɟ aː ŋ ɗ o m a k 
[202.625]
t aːʊ̪ th əɪ̪ ɗ əɪ̪ <no-speech> th i j əː j aː j əː v ə ŋ ɗ əɪ̪ k u ŋ f aːɪ̪ ɗ e ŋ h əː ŋ h aːɪ̪ tʂ a m s ɔ ŋ k aː tʂ aː ŋ ɗ iə̪ m l aː m t ɔ k n ɨə̪ ɓ aː k ɔ ɓ iə̪ k tʂ aː ŋ ɗ iə̪ m tʂ aː ŋ ɗ iə̪ m 
[208.635]
<no-speech> 
[211.865]
aː ɗ u ŋ ɹ oɪ̪ ɗ ɨə̪ m o k tʂ iə̪ʊ̪ tʂ iə̪ʊ̪ ɹ ɨə̪ɪ̪ th e s ɔ ŋ s ɔ ŋ k aː ŋ ɨə̪ɪ̪ k aː m a k m o k tʂ iə̪ʊ̪ tʂ iə̪ʊ̪ ɹ ɨə̪ɪ̪ ɗ əɪ̪ ɓ aː aː tɕ ɨ x o ŋ f aːɪ̪ m əɪ̪ tʂ a m ɗ əʊ̪ <no-speech> th e ɗ əɪ̪ m aː ɓ aː əɪ̪ ɗ ɔɪ̪ m uə̪ j aɪ̪ ɹ oɪ̪ tʂ aː ŋ ɗ iə̪ m l aː m t ɔ k n ɨə̪ 
[220.615]
<no-speech> 
[222.925]
<no-speech> th e <no-speech> ɲ ɨ k ɔ ŋ h ə p əɪ̪ <no-speech> n ɔɪ̪ ɟ i ɗ i tɕ ɨ m ə n t oɪ̪ n ɔɪ̪ aː 
[226.395]
<no-speech> 
[233.595]
aː tɕ u p t ɨ ʂ ɨə̪ ŋ t i tɕ ɔ t oɪ̪ tɕ ɔ l e ŋ <oov> ɓ əɪ̪ ɟ əː əɪ̪ m aː t aːʊ̪ ɓ iə̪ k k iə̪ʊ̪ əɪ̪ ɹ oɪ̪ <no-speech> 
[237.745]
<no-speech> 
[239.105]
<no-speech> 
[239.505]
<no-speech> 
[242.075]
<no-speech> ɨ 
[242.625]
<no-speech> 
[243.435]
aː <no-speech> aː t oɪ̪ n aɪ̪ ŋ oaɪ̪ ɓ i k s i ŋ eʊ̪ m aː ɓ i ɟ əː ɟ aː ʂ ɨ v ə ŋ ɗ e əɪ̪ l aː ɗ o ŋ əɪ̪ th i ɓ aː ɗ ə n l aː m ɲ ɨ th e n aːʊ̪ 
[248.475]
<no-speech> 
[250.985]
<no-speech> ɨ <no-speech> th uə̪ ŋ ɗ əʊ̪ 
[252.675]
<no-speech> 
[253.795]
<no-speech> k i ɟ i 
[254.375]
<no-speech> 
[257.135]
oɪ̪ ɓ aː əːɪ̪ h o m ɗ əɪ̪ m əːɪ̪ l aː ɗ o ŋ ɗ əɪ̪ tɕ əː k ɟ əː k əː <no-speech> aː ɗ u ŋ ɹ oɪ̪ ɣ ə ŋ tʂ ɨə̪ ŋ t oɪ̪ k ɔ aː n aː n aː ɗ ə n m əːɪ̪ m əː əɪ̪ ŋ ɛ ɓ aːʊ̪ n ɔ k u ŋ x o ŋ f aːɪ̪ ɹ ɛ l a m ɗ əʊ̪ ɲ ɨ ŋ k əː ɓ aː ŋ n ɔ ɗ ɛ p ɗ ɛ p h əː ŋ aː l aː ɗ i ŋ k u ɲ iə̪ʊ̪ 
[266.595]
<no-speech> 
[268.265]
<no-speech> <sta> h aː 
[271.375]
<no-speech> 
[274.935]
tɕ o f ɨə̪ ŋ m aːɪ̪ tɕ o k i ɟ i f ɨə̪ ŋ ɟ i ɗ əɪ̪ 
[277.175]
<no-speech> 
[282.635]
<no-speech> t e ŋ l aː ɟ i t oɪ̪ x o ŋ ɓ iə̪ k <no-speech> t oɪ̪ tɕ i ɓ iə̪ k tɕ o k i tɕ o tʂ ɔ ŋ tɕ əː ɗ o əɪ̪ tʂ ɔ ŋ tɕ əː ɗ o l aː k ɔ m o k k i 
[288.985]
<no-speech> 
[296.085]
tɕ ɨə̪ <no-speech> ɓ aː h aː j əːɪ̪ m aɪ̪ t ə n tɕ ɔ m aː ɓ iə̪ k ɹ oɪ̪ k ɔ ŋ ɟ i n ɨə̪ m oɪ̪ l ə ŋ j aːʊ̪ m ɛ h aːɪ̪ l a m ɓ aː m ɨə̪ɪ̪ ŋ i ŋ m o k k o k th oɪ̪ t oɪ̪ ʂ ɔ k t iə̪ ŋ l a m t oɪ̪ x o ŋ ɟ aː m j aːʊ̪ ɗ əʊ̪ <no-speech> t oɪ̪ th aː uə̪ ŋ ʂ ə m ɓ o ŋ k u k k ɔ ŋ h əː ŋ 
[305.235]
<no-speech> 
[309.285]
<sta> th i ɗ əɪ̪ <no-speech> th i ɗ əɪ̪ 
[310.975]
<no-speech> 
[315.915]
<no-speech> ɨ 
[316.495]
<no-speech> 
[317.475]
ɨ ɗ əː k n aɪ̪ ɗ a k ɓ iə̪ k ɗ ɨ ŋ ɲ iə̪ʊ̪ m ə k ɲ iə̪ʊ̪ th əːɪ̪ ɟ aː n ɲ əː əɪ̪ ɗ əɪ̪ <no-speech> əː əɪ̪ ɗ əɪ̪ <no-speech> ɨ th i ɗ əɪ̪ <no-speech> ʂ aːʊ̪ m aːɪ̪ k ɨ th e m aː l ɨə̪ ŋ l əː th oɪ̪ x o ŋ l aː m ʂ aːʊ̪ k aː <no-speech> ɨ m aːɪ̪ ɲ ɛ ɨ th e th i m aːɪ̪ ɗ i m aːɪ̪ ɗ i th aː 
[329.465]
f a n ɗ i <no-speech> s ɛ x o ŋ f aːɪ̪ l a ŋ t a ŋ ɗ u ŋ x o ŋ 
[331.425]
<no-speech> 
[334.775]
t oɪ̪ j əːɪ̪ ɓ aː ɲ ɛ m ə n k ɨ ɗ i m iə̪ ŋ m aː ŋ m iə̪ ŋ m aː ŋ m ə n l ɨə̪ ŋ l əː l əː l əː m ə n k ɨ ɗ i j ɨə̪ ɓ uə̪ ŋ k aː j əːɪ̪ k ɔ ŋ th a n f o əɪ̪ m ɛ k e k aː tɕ i ŋ ɹ ɨə̪ɪ̪ m ɨə̪ɪ̪ ɟ əː k u ŋ ɗ ɨə̪ k l aːɪ̪ ɲ ɨ k i h o m tʂ ɨə̪ k ɗ əɪ̪ k i h oɪ̪ l əʊ̪ ɹ oɪ̪ ɗ əɪ̪ ɓ aː k ɔ ŋ tʂ əːɪ̪ m ɨə̪ m aː v ə ŋ ɹ aː h ɛ v ɛ ŋ ŋ oɪ̪ ɗ əɪ̪ 
[344.655]
<no-speech> 
[347.945]
t əː k ɗ əʊ̪ m aː t əː k t oɪ̪ ɲ əː h o m ɗ əɪ̪ t oɪ̪ ɲ əː h oɪ̪ ɗ əɪ̪ l aː t iə̪ ŋ x o ŋ s o ŋ s əː n m aː l aː m ɟ i m aː k ɔ t əː k 
[351.925]
<no-speech> 
[358.385]
ɓ o ɹ ə k th oaɪ̪ m aːɪ̪ l a m tɕ i k ə ŋ ɓ o m ɛ t oɪ̪ ɲ aː l aː ɗ ɨə̪ k t oɪ̪ n aɪ̪ ɓ o t oɪ̪ l aː m x aː ŋ a ŋ t oɪ̪ m aːɪ̪ ɓ o t oɪ̪ əː ɲ aː ɓ o t oɪ̪ m aː əː ɲ aː t oɪ̪ m uə̪ ŋ ɗ i ɗ e ŋ m əɪ̪ ɟ əː k u ŋ ɗ ɨə̪ k <no-speech> m iə̪ ŋ l aː ɗ ɨ ŋ ɗ i w aː ɗ e m l aː ɗ ɨə̪ k 
[366.795]
<no-speech> 
[367.745]
<no-speech> h aː 
[368.215]
<no-speech> 
[369.605]
<no-speech> k i ɟ i k əː <no-speech> k i ɟ i k əː 
[371.585]
<no-speech> 
[373.685]
ɨ k u ŋ ɗ ɨə̪ k t oɪ̪ ɓ aː ɗ i l uə̪ ŋ ʂ aː ŋ ɓ iə̪ ŋ ɟ əːɪ̪ <no-speech> m aː m ə n x o ŋ ɗ i ɗ ɨə̪ ŋ j e n ɨə̪ əː ɓ e ŋ ɗ əɪ̪ l uə̪ ŋ k ɨə̪ɪ̪ tɕ o ŋ l uə̪ ŋ m aː t i t i tɕ o ŋ l uə̪ ŋ ɗ əɪ̪ ɟ aː m əː x o ŋ 
[379.965]
<no-speech> 
[381.825]
<no-speech> m ɛ m aɪ̪ n ɔ tɕ a ŋ m aɪ̪ n ɔ ɲ ɛ k j aːʊ̪ k i ɲ aː n aːʊ̪ m ɛ m aɪ̪ ɗ e ɹ aː ɗ ɛ k ɔ ŋ ɹ aː ɗ ɛʊ̪ ɓ iə̪ k ɓ o l aː th a ŋ n aːʊ̪ 
[386.725]
<no-speech> 
[389.415]
s i ŋ l oɪ̪ ɗ i <breath> s i ŋ l oɪ̪ ɗ i <breath> ɲ əː tɕ a ŋ m aɪ̪ ɛ m w ə n m aː l aː m o tɕ a ŋ m aɪ̪ ɛ m w ə n m aː l aː m o ʂ i ŋ ɟ ɔ n ɟ ɛ p ɗ ɔ th i ɛ m h ɔaː f aːɪ̪ l aː m o ʂ i ŋ ɹ ɨə̪ tɕ ə ŋ ŋ ɛ ɹ ɔ tɕ ɨə̪ h ɨ 
[397.785]
<no-speech> 
[399.325]
<no-speech> ɔɛ 
[399.955]
<no-speech> 
[401.155]
k i ɟ i n ɨə̪ ɲ i <no-speech> t oɪ̪ ɓ aːʊ̪ k i ɟ i ɓ aːʊ̪ ɓ aːʊ̪ k i ɟ i m aː t oɪ̪ w e ŋ m ə k ɹ oɪ̪ ŋ aɪ̪ m aːɪ̪ k ɨ l ɨə̪ ŋ ɗ ɨə̪ ŋ əː tɕ o ɗ ɨə̪ ŋ ɓ i k s i h aɪ̪ tɕ o n aːʊ̪ m aɪ̪ s ɔ ŋ l ɨə̪ ŋ ɗ ɨə̪ ŋ əː tɕ o n aːʊ̪ s ɔ ŋ m aɪ̪ j e aː <no-speech> h aɪ̪ ɲ ɨ n aːʊ̪ 
[408.745]
<no-speech> 
[413.305]
aː ɨ ɗ u ŋ ɹ oɪ̪ th i l aː m ə n l aːɪ̪ əɪ̪ j aːʊ̪ <no-speech> m ə n l aːɪ̪ ɲ əː th i m ə n ɣ i j aːʊ̪ 
[416.585]
<no-speech> 
[418.385]
ɨ v ə ŋ ɲ ɨ j ɨə̪ n aɪ̪ m aː ɟ e ɲ əː m aː 
[420.405]
<no-speech> 
[421.235]
s ɔ ŋ m aɪ̪ k ɔ ŋ ŋ eʊ̪ x o ŋ ŋ eʊ̪ m aː <no-speech> ŋ eʊ̪ m aː ɓ aː w e ŋ əɪ̪ ɓ aː k ɔ th e ə ŋ ʂ o m o k ɗ e ŋ ɛ l aːɪ̪ m aː 
[425.415]
<no-speech> 
[427.225]
<no-speech> ɗ u ŋ x o ŋ 
[427.875]
<no-speech> 
[431.245]
əː <no-speech> th oɪ̪ ɗ ɨ ŋ k ɔ ɗ e k ə p n ɨə̪ h o m n ɔ t aːʊ̪ ɣ i l ə m ʂ o ɓ aː ɲ əː ɗ ɨə̪ k m aː s ɔ ŋ l aː t i n ɨə̪ s ɔ ŋ ɓ aː ɹ aː ɓ aː əɪ̪ l aːɪ̪ n ɔ ɓ aːʊ̪ l aː <no-speech> x o ŋ əɪ̪ n ɨə̪ th i m ə n l aːɪ̪ əɪ̪ ɗ i k ɔ ŋ iə̪ l aː l u k əɪ̪ x o ŋ ɣ i ə m n ɨə̪ m ə n n ɔɪ̪ ɟ i tɕ aː ɗ ɨə̪ k 
[439.645]
<no-speech> 
[441.225]
ɨ ɗ əɪ̪ <no-speech> əː th i h əː ŋ ɗ əɪ̪ x o ŋ f aːɪ̪ k ɨ ɗ u ŋ m ɨə̪ɪ̪ f u k ɗ əʊ̪ m ə n k ɨ əɪ̪ th oɪ̪ ɟ u ɓ aːʊ̪ th i ɓ aːʊ̪ th oɪ̪ ɗ ɨ ŋ ŋ i ŋ əːɪ̪ n ɨə̪ <no-speech> əː k i ɟ i n ɨə̪ ɲ i ɓ aː l i ɓ aː n ɔɪ̪ k i ɟ i ɗ i j e k ɔ ŋ ɗ aːʊ̪ j əːɪ̪ k ɔ ŋ ʂ i ɲ tɕ a ŋ h aː ŋ 
[451.485]
<no-speech> 
[454.765]
<no-speech> ʂ i ɲ m aː 
[455.515]
<no-speech> 
[456.395]
<no-speech> k i ɟ i k əː 
[457.045]
<no-speech> 
[459.155]
<no-speech> ɟ ɨə̪ ŋ aː o ɗ o ŋ l a m 
[460.645]
<no-speech> 
[461.635]
n ɔ ŋ ɟ aː m aː ŋ k ɔ ŋ ŋ aː ŋ l uə̪ ŋ ɗ əɪ̪ 
[463.085]
<no-speech> 
[470.095]
<no-speech> <int> ɨ 
[470.975]
<no-speech> 
[472.135]
<no-speech> h o m n ɔ ɨ h o m n ɔ <no-speech> ŋ oɪ̪ aː t ɔaː k m o h oɪ̪ l uə̪ ŋ k əː m ɛ ɗ o ŋ x o ŋ ɓ ɨə̪ k m o k ɲ aː k m əːɪ̪ j aːʊ̪ h ɛ m aː ɗ aː ɲ ɨ n aɪ̪ <no-speech> x o ŋ ɓ iə̪ k ɓ iə̪ k ʂ aʊ̪ h ɛ x o ŋ ɓ iə̪ k v ə k j aː ɲ ɨ n aːʊ̪ k əː 
[480.995]
<no-speech> 
[485.885]
<no-speech> o th e aː 
[486.665]
<no-speech> 
[488.095]
<no-speech> 
[488.595]
<no-speech> 
[489.595]
<sta> <no-speech> j aːɪ̪ m ɛ tʂ ɨə̪ ŋ ɓ aː tʂ ɨə̪ ŋ ɓ aː ʂ aːʊ̪ n o p t o t oɪ̪ t oɪ̪ tɕ aː ɓ iə̪ k k ɔ k i ɟ i h aɪ̪ m aː ʂ aːʊ̪ n ɔ n ɔ h a n h ɔ k ʂ i ɲ ɟ aː m aː ŋ k ɔ ŋ ŋ aː ŋ ɗ əɪ̪ aː <oov> ɗ u ŋ ɹ oɪ̪ ɗ əː k tʂ ɨə̪ k j u tɕ əːɪ̪ h aɪ̪ tɕ əːɪ̪ h aɪ̪ 
[499.675]
<no-speech> 
[501.635]
<no-speech> 
[502.175]
<no-speech> 
[503.185]
<no-speech> 
[503.585]
<no-speech> 
[505.475]
<no-speech> <sta> ɨ 
[506.775]
<no-speech> 
[508.485]
<no-speech> 
[509.375]
<no-speech> 
[512.735]
<no-speech> ɨ ɗ ɨə̪ k ɹ oɪ̪ <no-speech> əː 
[514.324875]
<no-speech> 
[517.774875]
əː <hes> əː <hes> j ə ŋ <laugh> t oɪ̪ h aː k ɓ aː ŋ ɛ ɲ əː t oɪ̪ h aː k ɓ aː ŋ ɛ <laugh> t oɪ̪ h aː k ɓ aː ŋ ɛ ɲ əː ɓ aː k ɔ ŋ ɛ x o ŋ <laugh> ɗ o ɗ iə̪ ŋ n aːʊ̪ ɗ əɪ̪ 
[528.735]
əː <no-speech> <sta> k i ɟ i n ɨə̪ ɲ i <no-speech> aː t aːʊ̪ k e m aɪ̪ ŋ ɛ j u k ɔ ŋ ʂ i ɲ h o m tʂ ɨə̪ k tɕ ɨə̪ n ɔ n ɔ n ɔ n ɔ n ɔ ɗ aː ŋ ɟ oɪ̪ t oɪ̪ ɗ əɪ̪ ɟ oɪ̪ ɟ aː j əː əɪ̪ h oɪ̪ ɟ oɪ̪ ɟ aː j əː x o ŋ ɓ iə̪ k ɟ oɪ̪ th ə k ɟ oɪ̪ ɟ aː j əː n ɨə̪ <no-speech> t ɨ k l aː h o m ɗ əɪ̪ k iə̪ m <no-speech> t ɨ k l aː h o m ɗ əɪ̪ k iə̪ m <hes> tʂ aː 
[540.315]
<sta> ʂ ɨ əɪ̪ k iə̪ m tʂ aː ʂ ɨ ɹ oɪ̪ ɗ u ŋ x o ŋ k iə̪ m tʂ aː ʂ ɨ th i l aː ɲ ɨ ŋ m aː k ɔ ŋ iə̪ l aː n ɔ <oov> n ɔ n ɔ ɓ aːʊ̪ t oɪ̪ l aː m s ɔ ŋ əɪ̪ th i l aː ɗ ɔ k ɗ aː p aː ŋ h ɔaː tɕ ɔ n ɔ ɲ ɨ ŋ m aː h o m ɗ əɪ̪ k iə̪ m tʂ aː ʂ ɨ əɪ̪ <breath> th i <lipsmack> k iə̪ʊ̪ l aː ɛ l əː f ɔ ŋ əɪ̪ k iə̪ʊ̪ l aː ɲ ɨ tɕ ɛ p tɕ ɛ p 
[552.005]
s əʊ̪ ɲ ɨ ŋ ɗ aː tɕ a k s ɔ ŋ əɪ̪ ɹ aː ʂ əː m l u k m aː n ɔ ɣ ɔɪ̪ ɗ iə̪ ŋ tɕ ɔ t oɪ̪ əɪ̪ t oɪ̪ v ə ŋ ɗ aː ŋ k iə̪ m tʂ aː ɓ aː h iə̪ʊ̪ x o ŋ t oɪ̪ v ə ŋ ɗ aː ŋ ɗ aː ŋ k ɔ ŋ m aːɪ̪ m iə̪ k ɓ a k k ɔ ŋ ɓ aː ŋ tʂ ɨə̪ k tɕ ɔ tɕ ɛ p n ɔ ɗ ɔ k tɕ ɔ m ə n tɕ ɛ p m aː ɗ əɪ̪ <no-speech> ɗ əɪ̪ <no-speech> th e l aː n ɔ ɣ ɔɪ̪ m ə n x o ŋ x o ŋ tɕ aː l əːɪ̪ 
[563.875]
s ɔ ŋ m ə n s ɔ ŋ m ə n ɹ aː ŋ oaɪ̪ m o k t i s ɔ ŋ m ə n j aːʊ̪ th i h ɔaː th i s ɔ ŋ ɹ oɪ̪ ɹ aː ɹ oɪ̪ ʂ aʊ̪ ɗ ɔ ɹ aː ɹ aː m əːɪ̪ ɣ a p n ɔ ɓ aːʊ̪ n ɔ <sta> ɓ ɔ p k o m ə n n ɔ ɓ aːʊ̪ tɕ aʊ̪ x o ŋ tɕ əːɪ̪ j əːɪ̪ ɓ aː k n ɨə̪ ʂ aːʊ̪ tɕ aʊ̪ ɣ ɔɪ̪ ɓ aː k x o ŋ tɕ aː l əːɪ̪ ɓ aː k th e j əːɪ̪ tɕ aʊ̪ l aː ɓ aː k ɗ aː ŋ l aː m ʂ ɨ ɓ aː k tɕ ɨə̪ th e ɹ aː 
[575.685]
f ɔ ŋ ɓ aː k f ɔ ŋ tɕ aʊ̪ ɹ aː ʂ əː m s ɔ ŋ l aː k ɨ m oɪ̪ l ə ŋ n ɔ ɲ i ŋ th əɪ̪ m ə n ɓ əɪ̪ ɟ əː n ɔ k ɨ ɓ aːʊ̪ <no-speech> ɓ aː k əːɪ̪ ɓ aː k x o ŋ tɕ əːɪ̪ j əːɪ̪ ɓ aː k n ɨə̪ m ɛ m aɪ̪ 
[583.475]
<no-speech> 
[588.695]
ɗ əɪ̪ t ɨ k l aː ɲ ɨ n aɪ̪ ɓ ɔ ŋ ɓ ɔ ŋ t oɪ̪ th i ɲ ɨ ŋ k i m o ŋ m aː ʂ aʊ̪ m o ŋ m aː th i t o k ŋ iə̪ p əɪ̪ th i n ɔ ɓ a k th i h ɔ k k i l uə̪ ŋ ɓ aː h iə̪ʊ̪ x o ŋ aː th i h ɔ k k i l uə̪ ŋ ɗ əɪ̪ <no-speech> th i ʂ ɨ ɗ iə̪ th i th i k i k iə̪ʊ̪ əɪ̪ ɗ əɪ̪ th i k aː l əː p 
[600.295]
tɕ iʊ̪ 
[600.52]
