[0.0]
<no-speech> 
[0.675]
<no-speech> 
[1.405]
<no-speech> 
[4.595]
aː aː l o a n n ɛ <no-speech> <cough> 
[6.665]
<no-speech> 
[9.005]
aː ɟ aːʊ̪ n aɪ̪ k u ŋ x ɔɛ l aː m a ŋ k u ŋ ɓ ə n th ɨə̪ ŋ th oɪ̪ ɟ aːʊ̪ n aɪ̪ a n ʂ aːʊ̪ ɹ oɪ̪ k ɔ ŋ tɕ aʊ̪ n ɔ th e n aːʊ̪ 
[13.305]
<no-speech> 
[18.055]
th i ɟ aːʊ̪ n aɪ̪ ɛ m k u ŋ ɓ ə n th ɨə̪ ŋ j əː k ɔ ŋ ɛ m v ə ŋ m a n x ɔɛ j əɪ̪ th oɪ̪ k ɔ ŋ ɛ m n ɔ ɗ aː ŋ h ɔ k ɗ aːɪ̪ h ɔ k 
[22.555]
<no-speech> 
[24.225]
m əːɪ̪ ɗ əʊ̪ ɗ əɪ̪ a n <no-speech> m əːɪ̪ ɗ əʊ̪ ɗ əɪ̪ a n m əːɪ̪ ɗ əʊ̪ m əːɪ̪ ɗ əʊ̪ ɗ əɪ̪ ɟ aː m əːɪ̪ 
[28.045]
<no-speech> 
[31.935]
<sta> ɟ aː k ɔ h o m n aɪ̪ t o tɕ ɨ k n ɛ a n <no-speech> ɟ aː 
[34.365]
<no-speech> 
[40.975]
ɟ aː th i ɛ m v ə ŋ ɓ uə̪ ŋ ɓ aː ŋ ɓ ə n th ɨə̪ ŋ j əɪ̪ aː a n t oɪ̪ k u ŋ j aːɪ̪ tʂ iə̪ʊ̪ ɟ i th oɪ̪ tɕ ɨ ɗ əʊ̪ k ɔ ɟ i 
[45.645]
<no-speech> 
[49.895]
ɟ aː k u ŋ ɲ əː <hes> k u ŋ ɲ əː tʂ əːɪ̪ a n əːɪ̪ k u ŋ ɗ ɨə̪ k k u ŋ x aː aː a n <no-speech> <int> ɟ aː 
[54.955]
<no-speech> 
[55.805]
ɟ aː <int> 
[56.585]
<no-speech> 
[58.705]
ɟ aː <laugh> k u ŋ l aː m əːɪ̪ m uə̪ m əːɪ̪ <laugh> ɟ aː h o m n aɪ̪ <hes> ɟ aː t oɪ̪ h o m n aɪ̪ <hes> a n k ɔ ɹ ɛ ɲ əː a n w aː ɲ aː w aː ɲ aː ɛ m tɕ əːɪ̪ n ɛ t oɪ̪ n aɪ̪ ɛ m ɗ aːɪ̪ t iə̪ k tɕ ɔ tɕ ɔ n ɔ n ɛ a n ɗ ɔ ɹ oɪ̪ ɛ m ɹ ɨə̪ s ɛ l uə̪ ŋ a n ɟ aː 
[70.515]
ɟ aː 
[70.915]
<no-speech> 
[74.415]
ɟ aː ɹ oɪ̪ k ɔ ɟ i t oɪ̪ a n w aː aː m aː <no-speech> əː k ɔ ɟ i a n tɕ əː j əː k ɔ ŋ a n th ɛʊ̪ l uə̪ ŋ 
[80.595]
<no-speech> 
[82.675]
<sta> <no-speech> ɟ aː <no-speech> 
[85.795]
<no-speech> 
[87.035]
<int> ɟ aː ʂ aʊ̪ ɟ əː a n <no-speech> ɟ aː 
[89.155]
<no-speech> 
[93.885]
ɹ oɪ̪ ɟ aː j əɪ̪ l aː x ɔaː ŋ <hes> ɓ aɪ̪ ɟ əː a n t əːɪ̪ k u ŋ ɗ ɨə̪ k ɟ aː m iə̪ ŋ ʂ aːʊ̪ a n t əːɪ̪ l aː ɟ aː ɗ a n ɛ m j uɪ̪ ɹ oɪ̪ a n 
[100.015]
<no-speech> 
[102.335]
<laugh> th i ɟ aː ɟ u ɟ i k u ŋ a n ɛ m <int> ɹ oɪ̪ ɟ aː 
[105.275]
<no-speech> 
[112.975]
ɟ aː <int> n ɔ ɗ əʊ̪ k ɔ n ɔɪ̪ ɟ i j əːɪ̪ ɛ m ɗ əʊ̪ a n 
[115.135]
<no-speech> 
[120.715]
aː 
[121.705]
<no-speech> 
[123.505]
ɟ aː x o ŋ ɟ aː m əɪ̪ ɓ ɨə̪ n aɪ̪ ɓ ə ŋ ɹ o n w aː x o ŋ k ɔ x o ŋ k ɔ l iə̪ ŋ l aː k ɟ i ɗ ɨə̪ k <no-speech> h əː k a n 
[127.735]
<no-speech> 
[131.445]
aː uə̪ n ɔ k ɔ n ɔɪ̪ a n h aː 
[133.175]
<no-speech> 
[137.485]
<laugh> <cough> tɕ a k ɗ i ŋ i m aː k aː m aː ɟ aːʊ̪ n aɪ̪ n ɔ l aː m a ŋ ɟ ɨ l a m 
[141.275]
<no-speech> 
[145.575]
aː ɟ aː <laugh> <breath> ɟ aːʊ̪ n aɪ̪ n ɔ l aː m a ŋ l e ŋ ɟ ɨ l a m <no-speech> <int> ɟ aː 
[149.905]
<no-speech> 
[152.805]
ɛ m k u ŋ k ɔ ɓ iə̪ k ɗ əʊ̪ <no-speech> <int> 
[154.665]
<no-speech> 
[164.675]
ɟ aː <laugh> <no-speech> ŋ ɛ n ɔɪ̪ ɟ aː <no-speech> x o ŋ ɓ iə̪ k ɟ əː j əː n aɪ̪ j əː k ɔ ŋ n ɔ ʂ aːʊ̪ n ɨə̪ <laugh> 
[170.635]
<no-speech> 
[178.515]
tʂ əːɪ̪ əːɪ̪ <no-speech> ʂ u ŋ ʂ ɨə̪ ŋ w aː ɲ aː n ɔ ɟ əː ɟ aːʊ̪ n aɪ̪ <int> x o ŋ ɓ iə̪ k t iə̪ ŋ əː ɗ əʊ̪ ɹ aː <laugh> <cough> m uə̪ ŋ ɗ ɨə̪ k ɲ ɨ n ɔ m aː <int> <no-speech> ɟ aː 
[187.235]
<no-speech> 
[190.945]
<no-speech> ɟ aː 
[191.525]
<no-speech> 
[193.915]
<int> ɟ aː 
[194.405]
<no-speech> 
[199.625]
ɟ aː th a ŋ k ɔ ŋ ɛ m n ɔ j e ɹ oɪ̪ n ɛ a n <no-speech> ɟ aː 
[202.785]
<no-speech> 
[203.915]
<no-speech> ɟ aː k ɔ ŋ ɛ m n ɔ j e ɹ oɪ̪ a n 
[205.255]
<no-speech> 
[208.525]
<no-speech> əː j e 
[209.455]
<no-speech> 
[210.935]
ɟ aː <int> 
[211.455]
<no-speech> 
[213.075]
ɟ aː ɟ əː n aɪ̪ aː <int> uə̪ m əɪ̪ ɟ əː x ɔaː k ɔ ŋ 
[216.315]
<no-speech> 
[217.895]
m əɪ̪ ɟ əː ɹ oɪ̪ k ɔ ŋ 
[218.765]
<no-speech> 
[220.545]
aː m ɨə̪ɪ̪ m o k ɟ əː ɓ aː m ɨə̪ɪ̪ ɹ oɪ̪ a n 
[222.115]
<no-speech> 
[226.315]
ɟ aː ɓ e ŋ ɲ aː ɛ m tɕ ɨə̪ a ŋ n ɨə̪ a n əːɪ̪ ɟ əː <int> <hes> th a ŋ k ɔ ŋ ɛ m n ɔ m əːɪ̪ j e tɕ u k tɕ u k n ɨə̪ ɛ m m əːɪ̪ ɟ ɔ n 
[231.975]
<no-speech> 
[237.065]
<int> ɹ oɪ̪ n ɔɪ̪ ɟ i ɲ iə̪ʊ̪ x o ŋ a n 
[238.215]
<no-speech> 
[239.075]
<int> <laugh> ɟ aː th oɪ̪ k aː m əː ŋ a n 
[242.335]
<no-speech> 
[243.355]
<no-speech> ɟ aː 
[243.975]
<no-speech> 
[247.675]
<hes> ɟ aː ɟ aː ɟ aː <sta> ɗ e l aː k <hes> ɗ e k ɔ l əɪ̪ ɟ i k ɔ ɟ i ɛ m tɕ əː tɕ ɔ aː k ɔ ŋ tɕ aːʊ̪ ɓ aː k ɗ i k ɔ ŋ 
[253.315]
<no-speech> 
[256.845]
<laugh> ɟ aː <laugh> <no-speech> 
[258.734875]
<no-speech> 
[259.915]
<no-speech> 
[260.375]
<no-speech> 
[267.555]
ɟ aː <no-speech> th i k u ŋ <int> k u ŋ f aːɪ̪ ɹ aː ŋ f aːɪ̪ n uə̪ɪ̪ tɕ ɔ n ɔ a ŋ h ɔ k tɕ ɨ a n <no-speech> ɟ aː 
[272.325]
<no-speech> 
[275.555]
<no-speech> 
[275.905]
<no-speech> 
[277.345]
th i th i j əɪ̪ ɛ m ɓ iə̪ k ɹ oɪ̪ <laugh> <breath> ɟ əː k u ŋ ɹ aː ŋ l ɔ tɕ ɔ n ɔ a ŋ h ɔ k aː m əːɪ̪ ɗ əʊ̪ n ɛ <no-speech> ʂ aʊ̪ n aɪ̪ ŋ eʊ̪ m aː h ɔ k ɗ ɨə̪ k k ɔ ɟ i tɕ ɔ n ɔ ɗ i ɟ u h ɔ k l uə̪ ŋ 
[284.575]
<no-speech> 
[287.225]
ɟ aː <no-speech> t aːɪ̪ l u k ɗ ɔ <int> <no-speech> tɕ a k l u k ɗ ɔ f aːɪ̪ <hes> <int> <no-speech> ɟ aː 
[291.405]
<no-speech> 
[293.925]
th i <sta> tɕ a k tɕ ɔ w aː m i h ɔ k a n 
[295.685]
<no-speech> 
[296.945]
<int> <no-speech> ɟ aː 
[298.535]
<no-speech> 
[301.165]
ɟ aː k u ŋ k ɔ ɟ aː k o tɕ u n ɔ k u ŋ ɓ e ŋ ɗ ɔ <int> l aː m a ŋ əː ɓ e ŋ ɗ ɔ aː 
[305.735]
<no-speech> 
[314.135]
<sta> <laugh> ɟ aː ɟ aː <breath> ɟ aː ɟ aː k ɔ ɟ i <hes> ɛ m ɲ əː aː ɟ aː 
[318.475]
<no-speech> 
[319.725]
ɟ aː ɟ aː k ɔ ɟ i ɛ m ɲ əː a n ɟ aː <no-speech> <laugh> 
[321.965]
<no-speech> 
[323.285]
<no-speech> 
[324.725]
<no-speech> 
[329.555]
ɟ aː <sta> ɟ aː <hes> 
[331.875]
<no-speech> 
[332.725]
<no-speech> 
[334.065]
<no-speech> 
[339.495]
<sta> ɟ aː ʂ aːʊ̪ a n 
[340.275]
<no-speech> 
[343.305]
ɟ aː a n a n k ɨ n ɔɪ̪ ɗ i <int> <no-speech> ɟ aː <no-speech> ɟ aː k u ŋ ɟ əː th i k u ŋ ɗ aː ŋ ɹ ɛ ɲ ɟ aː k ɔ ɟ i x o ŋ a n 
[349.495]
<no-speech> 
[355.125]
ɟ aː ɗ i ɗ əʊ̪ j əɪ̪ a n 
[356.295]
<no-speech> 
[360.755]
ɟ aː <int> 
[361.355]
<no-speech> 
[365.045]
aː ɟ aː <int> ɟ aː 
[366.305]
<no-speech> 
[372.735]
<int> <no-speech> aː ɟ aː th i <hes> <no-speech> ɛ m k u ŋ tɕ ɨə̪ ɓ iə̪ k n ɨə̪ a n əːɪ̪ th i ɗ e ɟ əː ɛ m k u ŋ ɗ aː ŋ ʂ a p s e p n ɛ ŋ eʊ̪ m aːɪ̪ ɗ i th i a n a n k ɨ <hes> a n k ɨ n ɔɪ̪ ŋ aɪ̪ <no-speech> a n k ɨ n ɔɪ̪ ŋ aɪ̪ ɗ i ɹ oɪ̪ 
[384.565]
<no-speech> 
[385.235]
<no-speech> 
[391.635]
əː ɟ aː <no-speech> ɹ oɪ̪ ɹ oɪ̪ <hes> <int> 
[394.075]
<no-speech> 
[397.055]
<no-speech> ɟ aː <int> 
[397.755]
<no-speech> 
[399.655]
<no-speech> 
[400.005]
<no-speech> 
[405.045]
<hes> <sta> ɟ aː ɟ aː <laugh> <breath> ɟ aː th i <no-speech> ɟ aː th i a n t ə n ʂ aːʊ̪ ɟ aː a n a n t ə n ʂ aːʊ̪ th i ɛ m ŋ ɛ j əɪ̪ ɟ aː ɟ aː ɹ oɪ̪ <no-speech> 
[412.825]
<no-speech> 
[415.345]
<no-speech> 
[415.705]
<no-speech> 
[416.885]
ɟ aː <int> <cough> 
[418.675]
<no-speech> 
[424.335]
ɟ aː x o ŋ ɓ ɨə̪ ɛ m ɗ əʊ̪ k ɔ ɓ iə̪ k ɗ əʊ̪ ɛ m ɗ əʊ̪ k ɔ ŋ ɛ aːɪ̪ n ɔɪ̪ ɗ əʊ̪ ɟ aːʊ̪ n aɪ̪ ɛ m l aː m ɲ iə̪ʊ̪ w aː <int> ɗ əʊ̪ k ɔ ŋ ɛ aːɪ̪ n ɔɪ̪ <no-speech> ɟ aː 
[431.555]
<no-speech> 
[435.045]
<no-speech> ɟ aː <int> 
[435.635]
<no-speech> 
[439.165]
ɟ aː <int> 
[439.705]
<no-speech> 
[442.415]
tʂ əːɪ̪ əːɪ̪ ɟ aːʊ̪ n aɪ̪ ʂ aːʊ̪ a n ɛ m ɗ o t ɨ ɲ iə̪ ŋ ʂ u ŋ ʂ ɨə̪ ŋ ɗ i ɲ iə̪ʊ̪ w aː <no-speech> ɛ m ɓ əɪ̪ ɟ əː <int> 
[447.355]
<no-speech> 
[450.025]
ɛ m ɓ əɪ̪ ɟ əː ɟ aːʊ̪ n aɪ̪ l ɔ l aː m a ŋ n uə̪ɪ̪ n uə̪ɪ̪ j əː n ɨə̪ 
[452.835]
<no-speech> 
[454.375]
<no-speech> 
[454.735]
<no-speech> 
[461.215]
<no-speech> 
[461.825]
<no-speech> 
[462.735]
<sta> ɟ aː ɹ aː ŋ k aɪ̪ n ɛ <no-speech> k iə̪ m m o k m əː <no-speech> m əː ɟ əː ɟ aː ɛ m k u ŋ <no-speech> ɟ aː <no-speech> ɟ əː ɛ m k u ŋ ɹ aː ŋ k aɪ̪ j əːɪ̪ ɟ əː m əːɪ̪ ŋ ɛ th a ŋ k ɔ ŋ n ɔ ɗ əʊ̪ <hes> t o k ŋ iə̪ p ɹ oɪ̪ ɟ əː 
[472.955]
<no-speech> 
[474.825]
ɟ əː m ɨ ŋ l a m tɕ ɨ a n ɟ əː l ɔ tɕ ɔ n ɔ ɲ iə̪ʊ̪ j iə̪ k l a m a n 
[477.995]
<no-speech> 
[480.345]
<int> <no-speech> ɟ aː h o m n aɪ̪ h o m n aɪ̪ ɛ m ɗ aːɪ̪ t iə̪ k l əː ŋ l a m k ɔ ɟ i m aːɪ̪ <hes> k ɔ ɟ i <hes> l aː k <hes> t oɪ̪ n aɪ̪ a n w aː ɲ aː ɛ m 
[487.095]
<no-speech> 
[490.345]
ɟ aː ɛ m ɗ aːɪ̪ ʂ aʊ̪ ɓ aː ŋ a n 
[491.945]
<no-speech> 
[495.265]
ɟ aː <laugh> ɟ aː ɲ aː ɛ m k u ŋ m əːɪ̪ ɗ oɪ̪ h əʊ̪ a n əːɪ̪ 
[498.035]
<no-speech> 
[504.675]
ɟ aː ɲ aː ɛ m k ɔ k i ɓ aːɪ̪ ɟ ɨ s ɛ ɗ a ŋ tʂ ɨə̪ k aː a n j əːɪ̪ k i h o ɓ əːɪ̪ aː <int> 
[508.035]
<no-speech> 
[512.154875]
ɟ aː th i k e k e ɓ e ŋ k i h o ɓ əːɪ̪ ɲ aː ɛ m ɗ ɔ k ɔ k i ɓ aːɪ̪ ɗ ə k tʂ o ŋ ɗ ɔ 
[516.035]
<no-speech> 
[518.865]
<no-speech> ɟ aː 
[519.215]
<no-speech> ɟ aː 
[520.455]
aː ɨ 
[521.184875]
<no-speech> 
[525.625]
<int> tʂ əːɪ̪ əːɪ̪ a n a n əːɪ̪ ɲ aː ɛ m ɓ ə ŋ ɹ o n l a m ʂ aːʊ̪ m aː k ɔ th əːɪ̪ ɟ aː n m aː n əʊ̪ n ɨə̪ ŋ əː ɲ aː a n ɛ m ɗ a k t iə̪ k əː ŋ oaɪ̪ ɲ aː h aː ŋ h əː k ɹ oɪ̪ l aː k ʂ aʊ̪ <oov> ɟ əː ŋ ɨə̪ɪ̪ t aː ɗ ɛ m j o a ŋ 
[534.495]
<no-speech> 
[537.915]
ɟ aː th oɪ̪ a n əːɪ̪ tɕ əːɪ̪ əː tʂ ɔ ŋ ɲ aː m ə n tɕ ɔ ə m k u ŋ ɹ aː ɲ aː h aː ŋ ɓ ə k t iə̪ ŋ l a m a n <no-speech> ɟ aː <no-speech> <cough> 
[543.665]
<no-speech> 
[545.445]
<laugh> ɟ aː ɟ aː k u ŋ ɣ ɔɪ̪ k əɪ̪ ɲ aː l aː v ɨə̪ ŋ j əɪ̪ th oɪ̪ a n əːɪ̪ <no-speech> <sta> 
[550.745]
<no-speech> 
[552.365]
<sta> <no-speech> ɟ aː ɟ aː t iə̪ ŋ t iə̪ ŋ ɓ aː k k ɔ ɟ i ɗ əʊ̪ a n l əʊ̪ l əʊ̪ k ɔ ŋ m ə n m aː <cough> 
[559.365]
<no-speech> 
[563.925]
<no-speech> ɟ aː 
[564.625]
<no-speech> 
[570.235]
ɟ aː ʂ aːʊ̪ a n <int> <no-speech> th a ŋ th a ŋ <no-speech> th a ŋ th ɨ h aːɪ̪ aː ɟ aː ɟ aː ɟ aː ɟ əː n ɔ n ɔ k u ŋ ɗ aː ŋ ɗ i h ɔ k j əɪ̪ th oɪ̪ a n əːɪ̪ 
[578.135]
<no-speech> 
[580.315]
ɟ aː l əː p m ɨə̪ɪ̪ a n 
[581.305]
<no-speech> 
[583.395]
ɟ aː tʂ ɨə̪ ŋ ŋ uɪə̪ ŋ h ɨʊ̪ k əʊ̪ a n 
[585.575]
<no-speech> 
[590.215]
ɟ aː <laugh> ɹ oɪ̪ <int> k u ŋ f aːɪ̪ ɹ aː ŋ tɕ ɔ k ɔ ŋ ɛ m n ɔ h ɔ k th oɪ̪ ɟ aː 
[594.035]
<no-speech> ɟ aː 
[597.685]
<int> ɟ aː <breath> ɟ aː ɟ əː ɛ m 
[599.985]
