[0.0]
<no-speech> 
[3.305]
<no-speech> aː l o 
[4.025]
<no-speech> 
[5.925]
<no-speech> tɕ i tʂ aː ŋ aː 
[6.705]
<no-speech> 
[8.335]
<no-speech> ɗ aː ŋ əː m o ɹ ɨə̪ <no-speech> ɲ aː 
[10.225]
<no-speech> 
[13.025]
<no-speech> ɲ aː ɹ ɨə̪ aːɪ̪ k u ŋ ɗ i th e aː 
[14.565]
<no-speech> 
[17.975]
<no-speech> h aː 
[18.465]
<no-speech> 
[19.455]
<no-speech> h aː <no-speech> j o l aː m tɕ i 
[22.075]
<no-speech> 
[24.705]
<no-speech> h aː 
[25.115]
<no-speech> 
[27.405]
<no-speech> j o l aː m tɕ i 
[28.225]
<no-speech> 
[32.155]
<no-speech> h aː <no-speech> j o j əːɪ̪ tɕ o ŋ th oɪ̪ h aː 
[33.685]
<no-speech> 
[37.475]
<no-speech> t oɪ̪ tɕ o ŋ j o tɕ əːɪ̪ əː h aː 
[38.965]
<no-speech> 
[39.905]
<no-speech> aː tʂ o n tɕ o ŋ j o tɕ əːɪ̪ aː h aː 
[41.545]
<no-speech> 
[42.675]
<no-speech> tʂ əːɪ̪ əːɪ̪ th iə̪ k x o ŋ 
[44.725]
<no-speech> 
[49.285]
th i <no-speech> ɹ ɨə̪ <no-speech> 
[52.665]
<no-speech> 
[55.835]
<no-speech> ɨ 
[56.355]
<no-speech> 
[58.295]
<no-speech> h aː 
[58.815]
<no-speech> 
[60.335]
<no-speech> ŋ ɛ x o ŋ h əː k ɗ ɔ 
[61.655]
<no-speech> 
[67.995]
<laugh> th i k ɔ tɕ i j o tɕ əːɪ̪ th i j uɪ̪ th oɪ̪ 
[72.035]
<no-speech> 
[74.155]
<laugh> ɗ aː ŋ l aː m tɕ i ɗ ɔ ɹ ɨə̪ 
[75.705]
<no-speech> 
[78.785]
ɨ <no-speech> aː <hes> 
[81.055]
<no-speech> 
[82.225]
<no-speech> tɕ i <hes> m aː ɓ aː k u ŋ ɓ aː m ɨə̪ɪ̪ th aː ŋ t ɨ n i k u ŋ j e n i 
[86.645]
<no-speech> 
[88.375]
<no-speech> ɓ aː ɓ aː m ɨə̪ɪ̪ th aː ŋ t ɨ n i k u ŋ j e 
[90.005]
<no-speech> 
[92.125]
<no-speech> k ɔ 
[92.765]
<no-speech> 
[96.385]
<no-speech> k ɔ tɕ ɨ ɓ aː j e 
[97.595]
<no-speech> 
[100.095]
<no-speech> h aː ɛ m k u ŋ j e <no-speech> h aː 
[102.815]
<no-speech> 
[105.365]
<hes> th i m ɛ n ɔɪ̪ <no-speech> m ɛ ɗ aː ŋ m ɛ tɕ ɨ ɗ aː ŋ əː ɟ ɨə̪ɪ̪ w e aː 
[110.005]
<no-speech> 
[111.215]
<no-speech> ɨ m aːɪ̪ ɛ m j e w e 
[112.585]
<no-speech> 
[113.545]
<no-speech> k ɔ m aːɪ̪ ɛ m j e 
[114.595]
<no-speech> 
[116.985]
x o ŋ tɕ i th u əː l aːɪ̪ j i h aːɪ̪ tɕ i ŋ n i tɕ i th u <hes> h ɔ k ɹ oɪ̪ 
[121.215]
<no-speech> 
[122.755]
<no-speech> tɕ i th u m a k h ɔ k ɨ 
[124.385]
<no-speech> 
[129.174875]
<no-speech> tɕ i 
[129.675]
<no-speech> 
[138.195]
<no-speech> ɹ ɨə̪ h aː 
[139.235]
<no-speech> 
[140.435]
<no-speech> 
[140.785]
<no-speech> 
[144.005]
<no-speech> ɗ ɨə̪ k k ə p h ɔ k ɓ o ŋ ɗ i m o 
[146.535]
<no-speech> 
[150.255]
th aː k ʂ i əː h aː <no-speech> ɹ ɨə̪ h aː h ɔ k m iə̪ ŋ f i aː 
[153.845]
<no-speech> 
[155.095]
aːɪ̪ tɕ ɔ ɹ ɨə̪ <no-speech> aːɪ̪ tɕ ɔ ɹ ɨə̪ 
[157.105]
<no-speech> 
[162.505]
h aː ɹ a ŋ m aː ɛ m tɕ aː k tɕ i th uːɪ̪ tɕ i th uːɪ̪ k ɔ n ɔɪ̪ tɕ i m o 
[165.345]
<no-speech> 
[168.145]
<no-speech> ɨ ɛ m s i ŋ 
[170.355]
<no-speech> 
[172.665]
<no-speech> ɹ ɨə̪ m aː x i tɕ iə̪ʊ̪ ɛ m tɕ aː k tɕ i th uːɪ̪ tɕ i th uːɪ̪ x o ŋ n ɔɪ̪ tɕ i h əː k aː 
[174.985]
<no-speech> 
[177.525]
<laugh> ɗ aː ɹ ɨə̪ aːɪ̪ tɕ ɔ m aː h aɪ̪ ɹ ɨə̪ 
[180.795]
<no-speech> 
[183.875]
h aː ɟ əː t ɨ ɲ iə̪ ŋ ɗ ɨə̪ k h ɔ k ɓ o ŋ ʂ ɨə̪ ŋ tɕ ɨə̪ 
[186.275]
<no-speech> 
[189.895]
<no-speech> h aː 
[190.525]
<no-speech> 
[191.945]
tɕ i k ɔ ɣ ɨɪ̪ k ɛ m j e tɕ i th uːɪ̪ ɗ i x o ŋ <no-speech> tɕ i k ɔ ɣ ɨɪ̪ k ɛ m j e tɕ i th uːɪ̪ ɗ i x o ŋ 
[196.505]
<no-speech> 
[201.475]
<no-speech> 
[202.045]
<no-speech> 
[205.935]
<int> ɛ m tɕ ɨə̪ tʂ aː t iə̪ ŋ tɕ i n əːɪ̪ w e ŋ ɗ i n ɔɪ̪ ɗ i l aː m j e tʂ aː m aː w e ŋ ɗ i ɗ i m uə̪ aːʊ̪ w ə ŋ h əː k ɹ oɪ̪ 
[211.015]
<no-speech> 
[212.685]
<no-speech> 
[213.445]
<no-speech> 
[214.515]
<laugh> aː <no-speech> ɗ e ɗ ɔ l ə ŋ ʂ aʊ̪ l ə ŋ ʂ aʊ̪ <hes> ɗ i l aː m j e <no-speech> m uə̪ m əːɪ̪ m uə̪ k i j aɪ̪ j əːɪ̪ k i t uɪ̪ 
[225.495]
<no-speech> 
[227.675]
<no-speech> ɹ a ŋ 
[228.155]
<no-speech> 
[232.235]
<no-speech> ɨ <no-speech> th oɪ̪ 
[233.925]
<no-speech> 
[235.035]
ɗ ɨ ŋ ɟ u ŋ ɟ u ŋ h aː t p e ɟ u ŋ h aː t p e n ɔ ŋ m aɪ̪ l a m 
[237.535]
<no-speech> 
[239.415]
<no-speech> ɨ ɟ u ŋ m aʊ̪ n ɔ ŋ m aɪ̪ l a m 
[241.105]
<no-speech> 
[245.625]
<hes> tɕ i m uə̪ m aɪ̪ tɕ i h ɛ 
[247.855]
<no-speech> 
[248.845]
<no-speech> tɕ i m uə̪ m əɪ̪ k i m aɪ̪ n ɔ l aː tɕ i f aːɪ̪ ɓ iə̪ k ɟ ɨ t e 
[251.445]
<no-speech> 
[253.115]
tɕ i tɕ i m uə̪ m əɪ̪ k i n ɔ l aː tɕ i f aːɪ̪ ɓ iə̪ k ɟ ɨ <hes> ɟ ɨ m aɪ̪ t e 
[259.125]
<no-speech> 
[261.385]
tɕ o x aː k ŋ oɪ̪ th oɪ̪ o ŋ w aː ɗ i 
[263.165]
<no-speech> 
[264.165]
<no-speech> 
[264.695]
<no-speech> 
[266.155]
<laugh> ŋ aɪ̪ m o k u ŋ ŋ oɪ̪ h aː k h ɔ ɹ ɨə̪ h əː k 
[268.915]
<no-speech> 
[271.025]
tɕ i <no-speech> ɨ <hes> tɕ i m uə̪ m əɪ̪ k i <hes> m aɪ̪ <hes> h aː t p e ʂ aː m ʂ u ŋ ɗ o ɹ ɨə̪ l aː tɕ i f aːɪ̪ ɓ iə̪ k ɟ u ŋ tɕ i f aːɪ̪ ɓ iə̪ k ɟ ɨ t e 
[281.185]
<no-speech> m ə n ɟ ɨ tɕ ɔ h a ŋ m ə n n ɔ tɕ ɨ k ɔ ŋ <no-speech> ɓ əːɪ̪ ɹ ɨə̪ tɕ i m uə̪ ɗ ɛʊ̪ j əːɪ̪ ɗ o ɹ ɨə̪ ɟ u ŋ tɕ ɔ x ɔɛ ɗ ɛʊ̪ k ɔ l oaɪ̪ m ɨə̪ɪ̪ tʂ iə̪ʊ̪ n əːɪ̪ aː 
[288.245]
<no-speech> 
[290.575]
<no-speech> m ɨə̪ɪ̪ 
[291.225]
<no-speech> 
[295.705]
ɹ ɨə̪ th i m uə̪ m aː k ɓ u k ɟ u ŋ tɕ i k u ŋ x o ŋ ɟ u ŋ m əɪ̪ f aːɪ̪ x o ŋ 
[298.305]
<no-speech> 
[300.625]
<hes> x o ŋ m uə̪ m aː k ɓ u k aː m əɪ̪ k i m aɪ̪ ɲ ɔ ɲ ɔ ɲ ɔ ɲ ɔ t e 
[304.435]
<no-speech> 
[313.005]
<no-speech> h aː 
[314.405]
<no-speech> 
[317.755]
<no-speech> 
[318.465]
<no-speech> 
[321.585]
ɹ ɨə̪ th i <no-speech> ɹ ɨə̪ th i tɕ i m uə̪ l aːɪ̪ th i tɕ i f aːɪ̪ m uə̪ <hes> ɟ o ŋ m uə̪ <hes> th i h ɔɪ̪ a ɲ k u aː x o ŋ h ɔɪ̪ ɲ əː a n k u t i m tɕ ɔ t e 
[330.545]
<no-speech> 
[335.595]
<no-speech> ɨ <no-speech> ɨ 
[337.605]
<no-speech> 
[339.635]
<no-speech> 
[339.995]
<no-speech> 
[342.195]
<no-speech> 
[343.265]
<no-speech> 
[345.505]
<no-speech> 
[348.805]
<no-speech> 
[352.105]
x o ŋ x o ŋ k ɔ k i tɕ uɪə̪ ŋ k ɔ ɗ ɨə̪ k m o f aːɪ̪ ɣ ɨɪ̪ j e ɗ e <hes> x o ŋ th i x ɔaː ŋ 
[358.025]
<no-speech> 
[358.945]
x ɔaː ŋ x o ŋ <no-speech> f aːɪ̪ x ɔaː ŋ m o ŋ ɓ aː m o ŋ ɓ o ŋ aː tɕ i ɣ ɨɪ̪ k u ŋ ɗ ɨə̪ k j i tɕ i f aːɪ̪ ɣ ɨɪ̪ j e ɗ e tɕ ɔ ɛ m j əːɪ̪ tɕ i th u l iə̪ ŋ l aː k j əːɪ̪ tɕ i th uːɪ̪ ɓ e ŋ n ɔ tɕ i th uːɪ̪ k ɔ ŋ ɣ ɨɪ̪ h aː ŋ j e tɕ ɔ ɛ m k ɔɪ̪ n ɨə̪ 
[368.745]
<no-speech> 
[374.975]
m aɪ̪ a n ɓ i m o ɹ oɪ̪ 
[378.255]
<no-speech> 
[383.165]
<no-speech> 
[383.665]
<no-speech> 
[386.115]
<no-speech> 
[386.665]
<no-speech> 
[387.885]
<hes> ɹ ɨə̪ th i <hes> m uə̪ ɗ ɨə̪ k <no-speech> m uə̪ m aʊ̪ ɗ i ɲ aː 
[392.195]
<no-speech> 
[396.125]
<no-speech> 
[396.525]
<no-speech> 
[397.905]
<no-speech> 
[398.325]
<no-speech> 
[399.615]
<no-speech> əː 
[400.455]
<no-speech> 
[402.795]
<no-speech> 
[403.145]
<no-speech> 
[410.765]
<no-speech> l aː m a ŋ tɕ i ɹ ɨə̪ 
[411.685]
<no-speech> 
[416.845]
<no-speech> aː 
[417.485]
<no-speech> 
[418.515]
<no-speech> 
[418.865]
<no-speech> 
[420.655]
<no-speech> m aː tɕ i l aː m tɕ i ɹ ɨə̪ ɹ a ŋ tɕ i x o ŋ m əː k o ŋ t i ɟ u l ə c 
[423.125]
<no-speech> 
[426.185]
<no-speech> tɕ i ɗ aː ŋ m əː aː 
[427.145]
<no-speech> 
[428.835]
<no-speech> ɛ m l aː m 
[429.685]
<no-speech> 
[433.865]
<no-speech> ɹ ɨə̪ h aː 
[434.545]
<no-speech> 
[441.865]
<no-speech> ɨ 
[442.395]
<no-speech> 
[452.095]
ɹ ɨə̪ ɗ əʊ̪ t ɨ tɕ ɨ ɗ əʊ̪ t ɨ tɕ ɔ ɛ m ɗ i h ɔ k t iə̪ ŋ a n ɟ aːʊ̪ t iə̪ p ɗ i <hes> ɹ oɪ̪ ɛ m j o l aː m tɕ ɔ 
[457.065]
<no-speech> 
[464.65]
<no-speech> 
[472.235]
aː tɕ i tʂ aː ŋ ɛ m n ɔɪ̪ n i <hes> n ɔɪ̪ n i tɕ ɔ h ɔ k k i ɗ e z i n ɔ t e <no-speech> ɛ m w ɛ ŋ a n n ɔ ɗ əɪ̪ ɲ aː 
[482.935]
ɛ m n ɔɪ̪ tɕ ɔ ŋ ɛ ɛ m w ɛ ŋ k i a n n ɔ ɗ əɪ̪ ɲ aː <no-speech> a n n ɔ l aː ɗ e ŋ ɗ e z i tɕ ɔ k i ɓ aː <hes> əː ɗ əɪ̪ ɛ m m əːɪ̪ w ɛ ŋ <hes> ɗ əɪ̪ th oɪ̪ h aɪ̪ ɹ aː w aː ŋ k aː f e tɕ i th u ŋ oɪ̪ uə̪ ŋ ɓ əː h aɪ̪ ɓ əː ɹ aː ɓ əː tɕ a p 
[494.325]
w ɛ ŋ ɓ əː k u ŋ tɕ əːɪ̪ tɕ əːɪ̪ j əːɪ̪ a n n ɔ aː <no-speech> j əːɪ̪ a n n ɔ l aː ɲ ə ŋ ɟ aɪ̪ a n n ɔ n ɔɪ̪ ŋ eʊ̪ m aː ɛ m ɨ ŋ əː l aː tɕ o ŋ tɕ ɔ a n m ɨə̪ɪ̪ tʂ iə̪ʊ̪ l aː a n tʂ ɨə̪ k tɕ ɔ m aː th iə̪ k ɹ aː t iə̪ ŋ h ɔ k f i l aː h aːɪ̪ m ɨə̪ɪ̪ l a m tʂ iə̪ʊ̪ l a ŋ m aː a n n ɔɪ̪ tɕ o ŋ tɕ ɔ a n m ɨə̪ɪ̪ 
[506.115]
tʂ iə̪ʊ̪ ɹ oɪ̪ ʂ aʊ̪ n i t iə̪ ŋ k ɔ ŋ l aːɪ̪ l aː a n l aː tʂ aː ʂ aʊ̪ aː m aː tɕ i ɓ iə̪ k l ɨə̪ ŋ th aː ŋ k uə̪ a n n ɔ m əɪ̪ x o ŋ 
[512.025]
<no-speech> 
[513.675]
m o k th aː ŋ m ɨə̪ɪ̪ m əɪ̪ tʂ iə̪ʊ̪ aː l aː m o k n əːɪ̪ m aː m o k t oɪ̪ ɗ e ŋ h aːɪ̪ t iə̪ ŋ ɗ o ŋ h o th oɪ̪ <no-speech> 
[518.855]
<no-speech> 
[524.715]
<no-speech> m əɪ̪ 
[525.285]
<no-speech> 
[530.125]
x o ŋ <no-speech> h ɔ k th əɪ̪ l aː h ɔ k h ɔ k th əɪ̪ aː l aː h aːɪ̪ m ɨə̪ɪ̪ l a m tʂ iə̪ʊ̪ l aː ɗ u ŋ ɹ oɪ̪ k ɔ ŋ h ɔ k tʂ ɔ ŋ k i tɕ o m aː t uɪ̪ h a ŋ ɟ aɪ̪ tɕ u ŋ tɕ u ŋ l aː m ɨə̪ɪ̪ tʂ iə̪ʊ̪ th oɪ̪ 
[538.705]
<no-speech> 
[546.405]
əː th i ɟ u ŋ k u a n n ɔ k u ŋ n ɔɪ̪ a n n ɔ k u ŋ n ɔɪ̪ j əːɪ̪ ɛ m ɹ oɪ̪ ɟ u ŋ k u tɕ ɨ m uə̪ ʂ əː ʂ əː ʂ əː w aː l aː ɓ aɪ̪ tʂ iə̪ʊ̪ 
[551.655]
<no-speech> 
[556.225]
<no-speech> 
[556.585]
<no-speech> 
[561.385]
<no-speech> 
[561.805]
<no-speech> 
[563.185]
<no-speech> th i k u ŋ 
[564.785]
<no-speech> 
[566.185]
<no-speech> 
[566.545]
<no-speech> 
[568.715]
<no-speech> ɛ m 
[569.385]
<no-speech> 
[570.875]
ɛ m k ə ŋ f aːɪ̪ l aː m k i k i n ɔ ɗ e tɕ ɔ k ɔ t iə̪ ŋ k i ɗ aː ɹ oɪ̪ m əːɪ̪ o ŋ ɗ ə n m əɪ̪ k i ɗ a ŋ ʂ aʊ̪ ɗ ɨə̪ k tɕ ɨ 
[575.335]
<no-speech> 
[583.596667]
<no-speech> 
[591.858333]
<no-speech> 
[600.12]
