[0.0]
<no-speech> 
[1.135]
<no-speech> 
[1.505]
<no-speech> 
[3.175]
<no-speech> 
[4.085]
<no-speech> 
[7.935]
<no-speech> 
[8.345]
<no-speech> 
[16.305]
aː l o 
[21.225]
<no-speech> 
[22.545]
x ɔaː ŋ ɗ aː 
[23.605]
<no-speech> 
[26.825]
ɓ o v ə ŋ x ɔɛ 
[27.695]
<no-speech> 
[28.545]
th e t ə n h ə n h ɔ k h a n th e n aːʊ̪ k ɔ ŋ 
[30.285]
<no-speech> 
[33.565]
əː th e tɕ iʊ̪ x ɔ h ɔ k ɲ ɛ th e əː 
[35.485]
<no-speech> 
[36.665]
ɨ th e k ɔ ŋ əːɪ̪ <no-speech> tɕ iʊ̪ x ɔ m aː h ɔ k ɓ aː ŋ ɓ ɛ tɕ əːɪ̪ ɓ əːɪ̪ j ɨə̪ th oɪ̪ ɲ ɛ 
[42.665]
<no-speech> 
[44.065]
k ɔ ŋ aː 
[44.605]
<no-speech> 
[46.265]
k o ɣ a ŋ <no-speech> ɨ k o ɣ a ŋ l aː m th e 
[48.955]
<no-speech> 
[50.625]
th e ɗ əː k n aɪ̪ k ɔ h aɪ̪ ɗ i l aː m th e m x o ŋ 
[52.465]
<no-speech> 
[54.065]
v ə ŋ ɗ i l aː m th e m 
[54.915]
<no-speech> 
[56.455]
əː th e 
[57.595]
<no-speech> 
[60.805]
ɓ ə ŋ ɓ ə ŋ 
[61.545]
<no-speech> 
[62.635]
ɓ aː ŋ ɓ ɛ th i tɕ əːɪ̪ ɓ əːɪ̪ j ɨə̪ th oɪ̪ <no-speech> ɨ ɓ aː ŋ ɓ ɛ tɕ əːɪ̪ ɓ əːɪ̪ j ɨə̪ th oɪ̪ <no-speech> h aː ɨ 
[68.255]
<no-speech> 
[70.805]
əː <no-speech> th e th e ɹ oɪ̪ k ɔ ŋ ɗ aː <hes> 
[72.975]
<no-speech> 
[74.245]
ɓ uə̪ɪ̪ <oov> ɓ uə̪ɪ̪ tʂ ɨə̪ <no-speech> ɓ uə̪ɪ̪ tʂ ɨə̪ ɓ o v ə ŋ ɗ aː ŋ ɗ i l aː m <no-speech> əː 
[79.295]
<no-speech> 
[80.705]
<no-speech> 
[82.345]
<no-speech> 
[83.625]
ɨ m ɛ j əːɪ̪ ɛ m v ə ŋ x ɔɛ k ɔ ŋ <no-speech> əː 
[86.075]
<no-speech> 
[87.235]
th e <hes> 
[87.975]
<no-speech> 
[91.465]
th e <hes> k ɔ ŋ ɗ i h ɔ k 
[93.245]
<no-speech> 
[95.305]
th e v ə ŋ ɗ i ɓ a ŋ ɓ a ŋ s ɛ m aɪ̪ h aɪ̪ l aː ɗ i s ɛ ɓ uːɪ̪ k 
[98.855]
<no-speech> 
[104.285]
th e tɕ iʊ̪ x ɔ h ɔ k th e ɲ ɛ <no-speech> k ɔ ŋ aː 
[108.095]
<no-speech> 
[112.615]
ɹ oɪ̪ m əɪ̪ h o m n ɨə̪ ɓ o əɪ̪ ɓ o tɕ ɔ <no-speech> ɨ <no-speech> th e 
[117.545]
<no-speech> 
[120.125]
<int> th e l əʊ̪ n aɪ̪ k ɔ k ɔ <hes> ɗ iə̪ ŋ tɕ ɔ th a ŋ t u ŋ x o ŋ <no-speech> th a ŋ ɛ m x o ŋ 
[124.445]
<no-speech> 
[125.365]
n ɔ v ə ŋ v ə ŋ l aː m th e 
[127.285]
<no-speech> 
[129.894875]
k o ɣ a ŋ ɗ o ŋ v iə̪ ŋ ɛ m ɗ e tɕ ɔ n ɔ l aː m ɲ ɛ <int> th e 
[134.385]
<no-speech> 
[136.915]
th e h ɔ k ɓ əɪ̪ ɟ əː m o k t uə̪ ŋ m əɪ̪ ɓ uə̪ɪ̪ 
[138.675]
<no-speech> 
[145.685]
ɨ 
[146.245]
<no-speech> 
[147.365]
<int> f iə̪ tʂ ɔ ŋ əɪ̪ v ə ŋ n a ŋ 
[148.555]
<no-speech> 
[150.665]
tʂ ɔ ŋ əɪ̪ v ə ŋ n a ŋ ɗ əɪ̪ 
[151.505]
<no-speech> 
[152.705]
ŋ oaɪ̪ n aɪ̪ ɗ aː ŋ v ə ŋ l a n 
[154.015]
<no-speech> 
[155.265]
v ə ŋ v ə ŋ ʂ ɛ ʂ ɛ l a n <hes> m ɨə̪ l a n l a m 
[157.805]
<no-speech> 
[159.935]
<no-speech> 
[160.955]
<no-speech> 
[162.215]
ɓ o th i th ɔaː ŋ th oɪ̪ <no-speech> ɓ o ɓ ə ŋ ɗ i l aː m 
[166.325]
<no-speech> 
[167.735]
ɹ oɪ̪ ɹ oɪ̪ 
[168.455]
<no-speech> 
[169.355]
ɨ th i th ɔaː ŋ ɓ o m əːɪ̪ j aːʊ̪ th oɪ̪ ɓ o ɓ ə ŋ l a m 
[171.295]
<no-speech> 
[173.085]
th e 
[173.825]
<no-speech> 
[175.495]
<int> <no-speech> n aɪ̪ th e th e th e th e ʂ aː c j əː h ɔ k h a n ɲ ɨ th e n aːʊ̪ ɗ əɪ̪ <no-speech> v ə ŋ ɗ u tɕ ɨ 
[181.195]
<no-speech> 
[184.635]
<no-speech> 
[185.195]
<no-speech> 
[189.595]
th e ɟ aːʊ̪ n aɪ̪ k ɔ h aɪ̪ ɗ i ɗ aː ɓ ɔ ŋ x o ŋ 
[191.175]
<no-speech> 
[192.485]
<sta> <no-speech> ɟ aːʊ̪ n aɪ̪ k ɔ h aɪ̪ ɗ i ɗ aː ɓ ɔ ŋ 
[194.055]
<no-speech> 
[195.065]
<no-speech> k u ŋ f aːɪ̪ th e ɟ u k th e th aːʊ̪ <no-speech> tɕ ɨ 
[197.515]
<no-speech> 
[199.115]
<no-speech> 
[199.465]
<no-speech> 
[204.485]
t ə p t ə p tɕ ɔ n ɔ x ɔɛ k ɔ ŋ aː 
[205.855]
<no-speech> 
[207.005]
j ɨə̪ h ɔ k m aː j ɨə̪ f aːɪ̪ 
[208.085]
<no-speech> 
[209.345]
<no-speech> 
[209.705]
<no-speech> 
[210.815]
th e <no-speech> k ɨ iə̪ ŋ tɕ i h ɔ k h a n k ɔ ŋ ɗ əʊ̪ ɓ o ʂ ɛ l ɔ tɕ ɔ <no-speech> ɲ ɛ 
[214.535]
<no-speech> 
[218.095]
th e th e ɹ oɪ̪ tɕ i l iə̪ ŋ l əʊ̪ n aɪ̪ tɕ i k ɔ ɗ iə̪ ŋ tɕ ɔ k ɔ ŋ x o ŋ 
[222.435]
<no-speech> 
[228.175]
ɨ th e th i th ɔaː ŋ th oɪ̪ th i tɕ i ɟ u p ɗ əː m ə n th i ɓ əɪ̪ ɟ əː m ə n tɕ ɨ k ɔ ŋ 
[235.355]
<no-speech> 
[238.035]
th e <no-speech> ɓ əɪ̪ ɟ əː ɗ aː k əː m n ɨə̪ k ɟ i tɕ ɨə̪ ɗ əɪ̪ 
[241.315]
<no-speech> 
[242.635]
ɗ aː a ŋ k əː m n ɨə̪ k ɟ i tɕ ɨə̪ 
[243.935]
<no-speech> 
[245.195]
h o m n aɪ̪ ɗ i h ɔ k <no-speech> h o m n aɪ̪ ɗ i h ɔ k tɕ iə̪ʊ̪ aː 
[247.605]
<no-speech> 
[250.815]
aː k aː ŋ aɪ̪ <no-speech> h ɔ k j əɪ̪ t oɪ̪ j e th ɨ k x uɪə̪ 
[254.185]
<no-speech> 
[255.675]
ɨ <no-speech> th ɨ k x uɪə̪ j ɨə̪ th oɪ̪ 
[258.635]
<no-speech> 
[259.865]
tɕ ɨ x o ŋ th ɨ k x uɪə̪ w aː <int> <no-speech> ɗ aːʊ̪ ɗ əʊ̪ ɹ aː ʂ ɨ k x ɔɛ 
[263.085]
<no-speech> 
[267.425]
əː ɓ o ɗ aː ŋ ɗ i əː ɗ ɨə̪ ŋ th oɪ̪ əː k ɔ k ɔ ɓ o ɗ aː ɗ aː ŋ ɗ i l aː m ɗ aː ŋ ɗ i 
[271.465]
<no-speech> 
[272.595]
s ɛ k o n ɔ o ŋ aːʊ̪ 
[273.825]
<no-speech> 
[277.335]
th e th e ɓ aː ŋ ɓ ɛ ŋ oaɪ̪ n aɪ̪ n ɔ k ɔ h aɪ̪ ɗ iə̪ ŋ j aːʊ̪ tɕ ɔ k ɔ ŋ x o ŋ <no-speech> m əɪ̪ th a ŋ əː tʂ ɨə̪ ŋ k u ɗ əɪ̪ 
[281.545]
<no-speech> 
[288.595]
th e l aː <hes> 
[290.515]
<no-speech> 
[292.095]
th e l aː n ɔ v ə ŋ h ɔ k v ə ŋ th i ɗ aːɪ̪ h ɔ k v ə ŋ ɗ iə̪ ŋ a n ɛ m v ə ŋ ɟ aːʊ̪ l ɨʊ̪ j əːɪ̪ ɲ aʊ̪ tɕ ɨ ɟ i 
[296.995]
<no-speech> 
[298.725]
th e ɲ ɛ <no-speech> f aːɪ̪ ɣ a p <no-speech> ɲ aʊ̪ m əːɪ̪ ɗ ɨə̪ k 
[300.905]
<no-speech> 
[301.835]
ɨ ʂ aʊ̪ n aɪ̪ j e th i a n ɛ m <hes> n ɔ ɟ u p ɗ əː tɕ ɔ 
[304.965]
<no-speech> 
[305.935]
tɕ ɨ x o ŋ m ə n ɓ əɪ̪ ɟ əː h ɔ k s aː th i <no-speech> <int> 
[307.835]
<no-speech> 
[309.275]
ɨ 
[309.825]
<no-speech> 
[313.175]
m oɪ̪ tɕ o f aːɪ̪ k ɔ ə k ɓ aː ŋ ɗ e m aː ɟ aːʊ̪ l ɨʊ̪ <laugh> 
[315.535]
<no-speech> 
[316.475]
ɨ 
[317.155]
<no-speech> 
[323.145]
th e th e h o m n aːʊ̪ tɕ u ɲ ə k s uə̪ ŋ ɟ ɨə̪ɪ̪ j u ŋ t aʊ̪ tɕ əːɪ̪ j əːɪ̪ tɕ i h ɔaː k ɔ ŋ aː 
[327.125]
<no-speech> 
[332.365]
ɹ oɪ̪ x o ŋ ɓ iə̪ k tɕ əːɪ̪ ɓ əːɪ̪ 
[333.805]
<no-speech> 
[336.235]
ɹ oɪ̪ <no-speech> th e l aː 
[338.465]
<no-speech> 
[340.815]
ɨ th i f aːɪ̪ h ɔ k th i tɕ ɨ ɓ əɪ̪ ɟ əː ɓ o ɗ əʊ̪ t ɨ ɗ i h ɔ k th i f aːɪ̪ k o ɣ a ŋ m aː h ɔ k ɓ iə̪ k ʂ aːʊ̪ ɗ ɨə̪ k <no-speech> ɨ ɗ e l u k n aːʊ̪ ɓ o <hes> ɛ m v ə ŋ ɗ i h ɔ k ɗ i h ɔ k k aː ŋ aɪ̪ 
[351.505]
ɨ 
[353.005]
<no-speech> 
[356.435]
h aː 
[356.925]
<no-speech> 
[358.965]
h ɔ k f i əː ɗ əɪ̪ k aːʊ̪ <no-speech> k aːʊ̪ ɹ aː f əː k ɗ əɪ̪ th aː ŋ m əɪ̪ tʂ a m 
[364.465]
<no-speech> 
[366.175]
m oɪ̪ th aː ŋ h əː ŋ 
[366.865]
<no-speech> 
[368.955]
x o ŋ ɛ m th i n ɔ v ə ŋ j e n ɔ v ə ŋ <hes> ɓ o ɗ i l aː m <no-speech> tʂ ɨə̪ n ɔ j e v ə ŋ k əː m n ɨə̪ k ɨ <no-speech> v ə ŋ f aːɪ̪ l aː m 
[375.315]
<no-speech> 
[376.915]
j əɪ̪ n ɔ m əːɪ̪ 
[377.745]
<no-speech> 
[379.615]
ɹ oɪ̪ 
[380.185]
<no-speech> 
[381.655]
ɹ oɪ̪ ɹ oɪ̪ 
[382.345]
<no-speech> 
[385.075]
th e x i h aːɪ̪ a n ɛ m k ɔ x i th i th ɔaː ŋ ɗ iə̪ ŋ th oaɪ̪ j e ɗ o ŋ v iə̪ ŋ ɛ m ɓ aːʊ̪ tɕ ɔ n ɔ h ɔ k h a n th oɪ̪ <no-speech> ɓ o th i ɟ u k m o k f ə ŋ th oɪ̪ 
[391.275]
<no-speech> 
[392.255]
ɨ th e ɟ a n ɟ ɔ ɛ m ɹ oɪ̪ ɗ ɔ <no-speech> ɗ ɔ j i a n ɗ aː tʂ aːɪ̪ w aː ɹ oɪ̪ th i ɛ m k u ŋ f aːɪ̪ ɟ i tɕ ɨ <no-speech> n ɔ f aːɪ̪ ɓ iə̪ k 
[398.175]
<no-speech> 
[403.975]
ɨ th i <no-speech> ɓ o v ə ŋ th ɛʊ̪ ɟ ɔɪ̪ <int> 
[406.835]
<no-speech> 
[407.635]
ɨ <no-speech> th e ɲ ɨ ŋ m aː th i th ɔaː ŋ <no-speech> ɛ m f aːɪ̪ <no-speech> əɪ̪ tɕ ɔ n ɔ h ɔ k h a n 
[412.115]
<no-speech> 
[413.935]
ɨ x o ŋ ɛ m x o ŋ ɗ a n ɗ iə̪ ŋ t ɨ ɗ əʊ̪ <no-speech> ɛ m n ɔ th i th ɔaː ŋ tɕ u ɲ ə k th ɨ ɓ aɪ̪ n ɔ ɗ i tɕ əːɪ̪ m o k t i th oɪ̪ tɕ ɨ n ɔ x o ŋ ɗ a n ɗ iə̪ ŋ t ɨ 
[420.685]
<no-speech> 
[425.995]
ɨ 
[426.355]
<no-speech> 
[429.465]
ɨ th i <no-speech> th i th i <int> 
[431.025]
<no-speech> 
[432.015]
th i th ɔaː ŋ k ɔ ŋ ɣ ɔɪ̪ ɗ iə̪ ŋ j e k ɔ ŋ h ɔɪ̪ th a m k aː k ɓ aː k <no-speech> ɲ ɛ <no-speech> <int> j əːɪ̪ ɓ aː ŋ oaɪ̪ ɓ aː ŋ ɨ ŋ tɕ ɨ x o ŋ <no-speech> ɓ əɪ̪ ɟ əː k aː k ɓ aː ɟ aː ɹ oɪ̪ <no-speech> k ɔ ŋ aː <no-speech> n əː ŋ <hes> k ɨ <hes> ɗ o ŋ v iə̪ ŋ ɗ i <no-speech> tɕ ɨ ʂ aːʊ̪ <no-speech> m ə n l əː ŋ ɹ oɪ̪ m ə n f aːɪ̪ ɓ iə̪ k 
[443.395]
<no-speech> 
[444.525]
<no-speech> 
[445.735]
ɨ k ɨ h ɔ k <no-speech> tɕ ɔ n ɔ ɗ e ŋ n əːɪ̪ ɗ e ŋ 
[447.705]
<no-speech> 
[448.935]
ɨ 
[449.485]
<no-speech> 
[451.125]
th e ɟ əː <hes> ɟ əː a n 
[453.445]
<no-speech> 
[454.975]
a n tɕ a n a n t ə m a n k ɨ h ɔɪ̪ <hes> m aː m aɪ̪ x o ŋ ɗ iə̪ ŋ j e tɕ ɔ a n ɗ əɪ̪ 
[458.395]
<no-speech> 
[459.455]
ŋ aɪ̪ h o m n aːʊ̪ ɹ oɪ̪ ɹ oɪ̪ th i <no-speech> ɗ iə̪ ŋ tɕ ɔ a n a n ɛ m n ɔɪ̪ tɕ uɪə̪ ŋ ɲ ɛ a n ʂ a p l əɪ̪ j əː ɹ oɪ̪ ɗ əɪ̪ 
[464.935]
<no-speech> 
[466.205]
ɨ 
[466.555]
<no-speech> 
[467.975]
əː 
[468.725]
<no-speech> 
[473.665]
ɓ iə̪ k ɹ oɪ̪ 
[474.585]
<no-speech> 
[476.195]
ɨ 
[476.825]
<no-speech> 
[478.685]
ŋ ɛ tɕ ɨ x o ŋ əɪ̪ ɗ ɨə̪ k ɹ oɪ̪ 
[480.195]
<no-speech> 
[489.115]
ɨ th e th e <hes> 
[490.735]
<no-speech> 
[493.535]
t ɨ t ɨ tɕ o k ɔ ŋ ɗ i j u ŋ t aʊ̪ s aː ɲ i <no-speech> t ɨ tɕ o k ɔ ŋ ɗ i j u ŋ t aʊ̪ s aː x o ŋ 
[497.625]
<no-speech> 
[499.335]
o <no-speech> əː tʂ ɔ ŋ 
[500.195]
<no-speech> 
[502.365]
aː 
[502.895]
<no-speech> 
[510.365]
aː <no-speech> k u ŋ s aː ɹ aː f əː k ɲ i 
[512.635]
<no-speech> 
[514.014875]
<no-speech> 
[514.545]
<no-speech> 
[518.365]
ɗ ɨə̪ k k i th əːɪ̪ t iə̪ k tʂ ɔ ŋ ɗ əɪ̪ ŋ ɔ ŋ l a n <no-speech> n ɔ x o ŋ ɲ ɨ ŋ oaɪ̪ ɓ a k m ə n 
[521.405]
<no-speech> 
[522.745]
ɓ a k l a n 
[523.425]
<no-speech> 
[526.005]
aː m ɨə̪ m əɪ̪ th aː ŋ l iə̪ ŋ 
[527.245]
<no-speech> 
[528.715]
ɨ 
[529.265]
<no-speech> 
[534.595]
<no-speech> 
[534.945]
<no-speech> 
[536.925]
ɨ 
[537.555]
<no-speech> 
[543.515]
<no-speech> 
[543.945]
<no-speech> 
[550.035]
th e aː 
[551.015]
<no-speech> 
[553.335]
m əɪ̪ 
[553.835]
<no-speech> 
[557.265]
ɨ th e th e l aː ɗ əː k n aɪ̪ k ɔ ɹ aː k əʊ̪ ʂ aːɪ̪ ɣ ɔ ŋ ŋ a m x o ŋ <no-speech> ɗ e m k ɔ h aɪ̪ ɹ aː k əʊ̪ ʂ aːɪ̪ ɣ ɔ ŋ ŋ a m x o ŋ <no-speech> <laugh> h aː 
[563.795]
<no-speech> 
[568.015]
tɕ a m <no-speech> m aː tɕ a m ʂ ɔ k 
[568.745]
<no-speech> 
[569.775]
ɨ <no-speech> <int> n a m th ɨ h aːɪ̪ th i f aːɪ̪ <no-speech> n a m th ɨ h aːɪ̪ th i f aːɪ̪ ɲ iə̪ʊ̪ ɹ oɪ̪ <no-speech> ɨ <sta> ɲ iə̪ʊ̪ <no-speech> ɲ iə̪ʊ̪ ɓ aːɪ̪ <no-speech> ɓ aːɪ̪ k aː ŋ ŋ aɪ̪ k aː ŋ k aː ŋ əɪ̪ h ɔ k h ɔ k ɲ iə̪ʊ̪ əɪ̪ tɕ ɨ <no-speech> tɕ ɨ x o ŋ f aːɪ̪ ə k ɲ ɨ n a m ɗ əʊ̪ ɗ əʊ̪ 
[580.695]
<no-speech> 
[582.195]
ɨ 
[582.695]
<no-speech> 
[585.405]
t ɨ h ɔ k 
[585.885]
<no-speech> 
[587.605]
ɹ oɪ̪ <no-speech> m ə n t ɨ o ŋ tɕ o t ɨ h ɔ k l əɪ̪ <int> ɨ k u ŋ ɲ ɨ ɲ aʊ̪ aː 
[592.795]
<no-speech> 
[595.875]
th e h aː <laugh> 
[596.895]
<no-speech> 
[598.625]
<int> t uɪ̪ m ə n 
[598.995]
<no-speech> 
[599.84]
