[0.0]
<no-speech> 
[0.475]
<no-speech> 
[1.525]
<no-speech> 
[2.685]
<no-speech> aː l o 
[3.335]
<no-speech> 
[5.065]
əː <no-speech> v ə ŋ ɗ əɪ̪ h aː 
[7.345]
<no-speech> 
[8.575]
ɛ m x ɔɛ tɕ i ɗ aː ŋ l aː m ɟ i ɗ əɪ̪ 
[10.225]
<no-speech> 
[13.485]
aː th e aː th e m u ŋ m o k th aː ŋ n a m j ɨə̪ ɹ oɪ̪ k ɔ ɗ i ɗ əʊ̪ x o ŋ 
[16.905]
<no-speech> 
[20.025]
n a ŋ l a m h aː <no-speech> th e t iə̪ʊ̪ ɗ ɨə̪ ŋ 
[22.285]
<no-speech> 
[23.375]
t iə̪ʊ̪ ɗ ɨə̪ ŋ k uə̪ tɕ i ɟ əː ɲ ɨ th e n aːʊ̪ 
[24.905]
<no-speech> 
[26.375]
<no-speech> th e aː 
[29.015]
<no-speech> 
[29.835]
j ɨə̪ ɹ oɪ̪ k ɔ ɗ i th ɨ m aʊ̪ x o ŋ 
[31.315]
<no-speech> 
[33.935]
ʂ aʊ̪ f əɪ̪ ʂ aʊ̪ aː 
[34.965]
<no-speech> 
[35.765]
uɪ̪ th e m aʊ̪ m əː th i ʂ aːʊ̪ <no-speech> 
[37.755]
<no-speech> 
[39.395]
<no-speech> aː th e aː 
[42.225]
<no-speech> 
[43.175]
<no-speech> ɗ əɪ̪ th e ɟ əː f aːɪ̪ a ŋ k iə̪ ŋ ɲ ɛ 
[45.005]
<no-speech> 
[46.095]
<no-speech> ɗ ɨ ŋ a ŋ ɗ ɨə̪ ŋ ɲ ɛ 
[47.475]
<no-speech> 
[48.555]
th e k ɔ uə̪ ŋ th uə̪ k m aʊ̪ m əː x o ŋ <no-speech> 
[52.455]
<no-speech> 
[54.195]
<no-speech> ɨ <no-speech> th e aː 
[56.045]
<no-speech> 
[57.305]
ɛ m ɛ m <hes> ɗ əː k n aɪ̪ ɛ m k u ŋ <hes> ɓ aːʊ̪ l aː h o m n aːʊ̪ m aː k tʂ əːɪ̪ th i ɛ m m əːɪ̪ ɗ i th ɨ k əː tɕ i v ə ŋ aː <no-speech> ɨ ɨ ɨ <no-speech> ɛ m m aː k ɔ th ɨ 
[66.105]
<no-speech> 
[75.025]
a ŋ t ɔɪ̪ aː <no-speech> a ŋ t ɔɪ̪ aː 
[78.095]
<no-speech> 
[80.855]
th e n ɔ ɗ e n ɔ 
[81.715]
<no-speech> 
[85.825]
th e uə̪ ŋ n ɔ ɗ e n ɔ l aː m tɕ o ŋ tɕ o ŋ <hes> m aʊ̪ m əː aː <no-speech> 
[89.935]
<no-speech> 
[92.955]
<no-speech> aː th e aː 
[93.945]
<no-speech> 
[95.095]
ɨ ɛ m ɓ aːʊ̪ ɛ m ɗ i <hes> x aː m m aː ɛ m ɗ aː x aː m ɗ əʊ̪ ɣ əː m m əɪ̪ h o m n aɪ̪ n ɔ ŋ l a m m aː ɛ m m əɪ̪ h o m n aɪ̪ ɛ m f aːɪ̪ th aːɪ̪ th ə k ɲ iə̪ʊ̪ l a m <no-speech> ɨ ɨ k i h ɨə̪ ŋ əː tʂ e ŋ ɗ əɪ̪ n ɔ n ɔ o m 
[104.895]
<no-speech> 
[106.015]
th e l aː ɛ m f aːɪ̪ l aː m n əː ŋ ɛ m x o ŋ x o ŋ <no-speech> ɨ <no-speech> th e k ɔ ŋ h iə̪ ŋ n ɔ k ɔ ɓ əʊ̪ tɕ ɨə̪ <no-speech> 
[112.725]
<no-speech> 
[116.735]
<no-speech> th e aː th e ɟ aːʊ̪ n aɪ̪ l ɨə̪ ŋ l əʊ̪ k uə̪ n ɔ ɲ ɨ th e n aːʊ̪ 
[119.405]
<no-speech> 
[122.115]
n ɔ v ə ŋ l aː m h aːɪ̪ n əːɪ̪ h aː <no-speech> aː th e aː 
[125.435]
<no-speech> 
[126.575]
ɛ m l əʊ̪ l a m ɹ oɪ̪ k i h o m l əʊ̪ ɣ a p n ɔ m aː n ɔ k u ŋ tɕ aː ɲ ə ŋ ɹ aː tɕ aʊ̪ k aː n ɔ ɟ aːʊ̪ n aɪ̪ n ɔ ɲ i tɕ i ɲ i 
[130.865]
<no-speech> 
[133.815]
ɗ əɪ̪ <no-speech> ɟ aːʊ̪ n aɪ̪ n ɔ x aː k w aː k o th i x a ŋ ɓ ə k k i ŋ m ə k m a k k ɔ ɲ ə ŋ ɹ aː tɕ aʊ̪ ɗ əʊ̪ 
[138.875]
<no-speech> 
[140.825]
n ɔ th i ɨ th i h o m ɗ əɪ̪ th i ɛ m th əɪ̪ n ɔ ɲ ə ŋ ɹ aː ɛ m ɗ əɪ̪ ɲ ɨ ŋ ɟ aːʊ̪ n aɪ̪ tʂ o ŋ n ɔ ɓ ɛʊ̪ ɲ i tɕ i ɲ i <no-speech> ɨ <no-speech> ɨ th e tɕ o ŋ n ɔ ɟ aːʊ̪ n aɪ̪ l aː m a ŋ ɲ ɨ n aːʊ̪ <no-speech> 
[149.735]
<no-speech> 
[152.065]
<no-speech> aː 
[152.415]
<no-speech> 
[153.665]
<no-speech> əː th e aː 
[154.605]
<no-speech> 
[155.755]
th e <hes> th e th e ɗ aː k ɔ p t iə̪ ŋ ɗ e m uə̪ ɲ aː h aː <no-speech> 
[160.055]
<no-speech> 
[160.895]
<no-speech> ɨ th oɪ̪ th oɪ̪ k ɨ j aːɪ̪ n a m ɗ ɛ <hes> m uə̪ ŋ m uə̪ ŋ k u ŋ ɗ ɨə̪ k tɕ i aː <no-speech> ɣ əː m ɓ i ɓ əɪ̪ ɟ əː th a n n iə̪ ŋ tɕ u ŋ n ɔ ɟ əː tɕ u ŋ n ɔ t uə̪ɪ̪ tʂ ɛ tɕ u ŋ n ɔ x o ŋ ɗ ɛ ʂ əː m ɗ əʊ̪ <no-speech> tɕ u ŋ n ɔ k ɨ f aːɪ̪ l aː m a ŋ k ɔ 
[172.745]
k ə n t e ɓ a k ɗ əʊ̪ tɕ u ŋ n ɔ m əːɪ̪ ɗ ɛ <no-speech> ɨ <no-speech> ɛ m ɓ aːʊ̪ l əʊ̪ l a m ɛ m x o ŋ ɣ a p j əːɪ̪ tɕ i <no-speech> ɨ ɟ aːʊ̪ n aɪ̪ ɛ m v ə ŋ x ɔɛ 
[181.715]
<no-speech> 
[182.755]
j ɨə̪ ɹ oɪ̪ th i <hes> ɛ m ɓ i j iə̪ m h ɔ ŋ uə̪ ŋ m ə k m əɪ̪ h o m x aː ŋ ʂ i ɲ th oɪ̪ 
[187.055]
<no-speech> 
[188.905]
ɨ <no-speech> əː 
[190.115]
<no-speech> 
[191.255]
ɛ m k ɔ t uə̪ ŋ tʂ ɨə̪ k j e th a m o ŋ m uə̪ tɕ ɔ o ŋ h aːɪ̪ w aː ɟ ɨə̪ <no-speech> <laugh> ɨ m uə̪ tɕ ɔ o ŋ h aːɪ̪ w aː ɟ ɨə̪ th e l aːɪ̪ 
[199.265]
m aː ŋ <hes> ɓ o w ə ŋ aːʊ̪ j e ɓ aːʊ̪ ɓ aː x u̪e ɓ aː əɪ̪ ʂ ɨə̪ tɕ ɔ th i ɓ aː l əɪ̪ m ɛ ɓ o aːʊ̪ ɹ oɪ̪ 
[203.955]
<no-speech> 
[204.875]
k i k i th ɔaː n ɔ tɕ ɔ ɛ m ɓ o w ə ŋ aːʊ̪ ɗ ɛ p l a m tɕ i aː <no-speech> th e l aː j e ɓ aːʊ̪ m aɪ̪ tɕ ɨə̪ h o tɕ i əɪ̪ th e l aː ɓ aː əɪ̪ th ə c w aː ɓ aː əɪ̪ l əɪ̪ m ɛ ɹ oɪ̪ 
[212.105]
<no-speech> 
[213.005]
th e t uə̪ ŋ n aɪ̪ ɛ m k ɔ j e ɗ əʊ̪ <no-speech> ɛ m ɓ aːʊ̪ n ɔ ŋ ɓ ɨ k l aː ɛ m x o ŋ j e h ɨ <no-speech> aː <no-speech> tɕ i əːɪ̪ l u k n aːʊ̪ tɕ i ɓ aːʊ̪ n ɔ m uə̪ tɕ ɔ ɛ m m o k l ɔ <hes> th uə̪ k <hes> h uɪə̪ k aː p ɗ i <no-speech> ɲ ɛ 
[223.985]
<no-speech> 
[225.625]
<no-speech> ɨ ɛ m tɕ i k ɔ ŋ <hes> x ɔaː ŋ h aːɪ̪ v iə̪ ŋ n ɨə̪ l aː ɛ m h əː k th oɪ̪ 
[228.575]
<no-speech> 
[229.605]
ŋ eʊ̪ m aː <hes> ŋ aɪ̪ m aːɪ̪ m aː ɛ m l aː m <no-speech> ɨ <no-speech> 
[234.225]
<no-speech> 
[235.255]
aː n ɔ k ɔ ɓ aːʊ̪ h aː tɕ i <no-speech> ɨ th i 
[237.895]
<no-speech> 
[242.395]
th e tɕ i ɓ aːʊ̪ k ɔ ŋ x u̪e n ɔ m uə̪ tɕ ɔ <no-speech> aː th e aː 
[248.135]
<no-speech> 
[248.945]
əː m aːɪ̪ əɪ̪ m aːɪ̪ m aː ɛ m m aː l aː m th əːɪ̪ t iə̪ k n ɔ m aː m aː k th i ɛ m l aː m s ɔ ŋ ɛ m j e tʂ e ŋ ɲ aː 
[253.975]
<no-speech> 
[255.075]
ŋ eʊ̪ m aː n a ŋ ɲ ɨ m ɔɪ̪ x i th i ɛ m x o ŋ j e ɗ əʊ̪ tɕ i v ə ŋ əː <no-speech> ɗ e ɛ m ɓ aːʊ̪ l aː ɗ e h o m <hes> tɕ i ɓ iə̪ k th ɨ ɓ aː l aː t uə̪ ŋ ɓ aː k uə̪ a n l e ɛ m ɹ oɪ̪ ɗ əɪ̪ th i 
[262.585]
<no-speech> 
[263.885]
th i ɛ m ɓ aːʊ̪ th ɨ ɓ aː n aɪ̪ th i <hes> ɓ uə̪ɪ̪ tʂ ɨə̪ th i ɛ m <hes> j e ɗ əɪ̪ m o k t i tɕ i aː <no-speech> ɗ əɪ̪ ŋ eʊ̪ m aː m aːɪ̪ m aː m aː k ɟ əːɪ̪ th i ɛ m j e 
[271.635]
<no-speech> 
[273.155]
m aː n a ŋ th i th oɪ̪ ɛ m th e tɕ i k ɨ ɓ aːʊ̪ j əːɪ̪ tɕ u ŋ n ɔ ɲ ɨ th e ɲ ɛ th e k ɔ th əɪ̪ k i x u̪e n ɔ n ɔɪ̪ ŋ a ŋ ɟ i x o ŋ 
[278.115]
<no-speech> 
[279.365]
k i x u̪e k ɔ n ɔɪ̪ ŋ a ŋ ɟ i ɛ m j e x o ŋ <no-speech> 
[283.015]
<no-speech> 
[284.075]
th e th e h aːɪ̪ k ɔ ŋ h ə m ɓ aː l aː ŋ ɗ aː h ɔɪ̪ ɲ aʊ̪ tɕ ɨə̪ 
[286.495]
<no-speech> 
[288.225]
v ə ŋ tɕ ɨə̪ h ɔɪ̪ ɲ aʊ̪ aː 
[289.325]
<no-speech> 
[290.615]
<no-speech> <laugh> th e aː th oɪ̪ m ɨ ŋ tɕ i əːɪ̪ m a k k e tɕ u ŋ n ɔ tɕ i ɛ m m ə n k ɨ v u ŋ j aːʊ̪ tɕ ɔ tɕ u ŋ n ɔ ɲ ɛ 
[296.395]
<no-speech> 
[297.385]
ɨ ɛ m ɛ m k u ŋ tɕ i m uə̪ ŋ tɕ ɔ tɕ i ɛ m tɕ u ŋ n ɔ ɗ ɔaː ŋ k e k th oɪ̪ ɛ m k ɨ v u ŋ j aːʊ̪ k i th ɔaː n ɔ k ɔ f aː ŋ n aː ŋ j əːɪ̪ ɛ m k ɨ ɟ u ŋ h ɔaː th oɪ̪ tɕ i aː <no-speech> ɨ th e <oov> ŋ eʊ̪ m aː m aːɪ̪ m aː m aː k ɟ əːɪ̪ th i 
[309.015]
th i ɛ m <hes> ɛ m j aːʊ̪ m aː n a ŋ th i th oɪ̪ ɲ ɛ 
[311.745]
<no-speech> 
[313.025]
k ɔɪ̪ k ɔɪ̪ k ɔɪ̪ ɲ ɨ tɕ i x o ŋ ɓ iə̪ k ɟ i 
[314.775]
<no-speech> 
[315.845]
tɕ i k ɔɪ̪ ɲ ɨ x o ŋ x o ŋ ɛ m x o ŋ n ɔɪ̪ ŋ a ŋ ɟ i k aː tɕ i ɗ ɨ ŋ n ɔɪ̪ l aː m aːɪ̪ ʂ ɨ j aːʊ̪ ɓ iə̪ k tɕ ɨə̪ 
[320.485]
<no-speech> 
[321.465]
ɨ th e th e o ŋ k ɔ n ɔɪ̪ ɟ i ɛ m x o ŋ 
[323.705]
<no-speech> 
[328.095]
<no-speech> aː o ŋ h ɔɪ̪ th e h aː <no-speech> tɕ i <laugh> x o ŋ l ə ŋ tʂ ɨə̪ k ɛ m j e ɛ m m uə̪ tɕ ɔ o ŋ h aːɪ̪ w aː ɟ ɨə̪ 
[335.815]
<no-speech> 
[336.985]
tɕ a k l aː o ŋ l aː m ɔ ŋ ɛ m <no-speech> a ŋ h əː k ɹ oɪ̪ <no-speech> tɕ a k l aː m ɔ ŋ j e ɗ e m uə̪ ɟ ɨə̪ tɕ ɔ ɓ o ɗ əɪ̪ <no-speech> <laugh> ɲ ɨ ŋ m əː x o ŋ n ɔɪ̪ j əːɪ̪ tɕ i 
[347.305]
<no-speech> 
[348.475]
ɓ o ɓ aːʊ̪ l aː tɕ ɨ tɕ u ŋ n ɔ k ɔ m uə̪ tɕ ɔ ɓ o ɗ əʊ̪ tɕ i k ɔ k ɔ ŋ l aː k ɔ ŋ m uə̪ tɕ ɔ ɓ o th oɪ̪ tɕ ɨ tɕ u ŋ n ɔ k ɔ m uə̪ tɕ ɔ ɓ o ɗ əʊ̪ <no-speech> th e l aː k i h o m ɛ m j e ɛ m m uə̪ tɕ ɔ h aːɪ̪ w aː ɟ ɨə̪ th ə k t ɔ ɛ m x o ŋ tɕ ɔ tɕ u ŋ n ɔ 
[359.475]
<no-speech> 
[360.425]
ɛ m ɓ aːʊ̪ ɗ əɪ̪ t aːʊ̪ l e ŋ tɕ ɔ o ŋ th e ɛ m ɓ o ɗ əɪ̪ m o k k i h o p ɲ ɨə̪ əɪ̪ <no-speech> ŋ eʊ̪ m aː m aːɪ̪ j e m aː k ɔ th i ɛ m m uə̪ tɕ ɔ ɓ o h aːɪ̪ w aː ɟ ɨə̪ ɓ o a ŋ ɲ i tɕ i ɲ i 
[369.045]
<no-speech> 
[371.125]
ɨ th e tɕ u ŋ n ɔ x o ŋ m uə̪ ɗ əʊ̪ tɕ i aː <no-speech> ɨ tɕ u ŋ tɕ u ŋ n ɔ x o ŋ m uə̪ ɗ əʊ̪ <no-speech> l ə ŋ tʂ ɨə̪ k ɛ m k ɔ <no-speech> x o ŋ <no-speech> tɕ u ŋ tɕ u ŋ n ɔ k ɨ ɓ aːʊ̪ l aː o ŋ ɗ i j əːɪ̪ k i ɓ aː ɗ əɪ̪ th i tɕ u ŋ n ɔ ɣ ɛ k 
[382.475]
<no-speech> 
[383.795]
tɕ i ŋ ɛ th əɪ̪ x o ŋ 
[384.915]
<no-speech> 
[386.185]
th e th e l əʊ̪ l a m ɹ oɪ̪ tɕ i k ɔ ɣ a p k i k i ɓ aː əɪ̪ x o ŋ h aː tɕ i v ə ŋ 
[388.955]
<no-speech> 
[389.755]
<no-speech> aː th e aː tɕ i ɓ iə̪ k x o ŋ k i h o m m aː tʂ uːɪ̪ ɗ iə̪ʊ̪ a n l aː ɛ m ɓ aː əɪ̪ k u ŋ ɗ e ŋ ɗ əɪ̪ th əɪ̪ 
[395.055]
<no-speech> 
[396.205]
ɓ aː əɪ̪ ɗ e ŋ ɓ aː əɪ̪ m aː ŋ m o k k i l aː ŋ h ɔaː <no-speech> ɗ e ŋ <hes> ɗ e ŋ ɗ e ŋ ɓ uə̪ɪ̪ tɕ iə̪ʊ̪ <no-speech> ɨ ɗ e m aː ŋ ɗ i k u ŋ m o k ɓ aː n ɨə̪ th i ɓ o ɛ m ɓ aːʊ̪ l aː ɓ aː əɪ̪ m aː ŋ m o k l aː ŋ h ɔaː m əːɪ̪ k aː ɓ aː əɪ̪ j iə̪ ŋ m o k k i f ɔ ŋ ɓ i l aː 
[408.145]
<no-speech> ɓ aː tʂ a m ŋ i ŋ tɕ i aː 
[409.695]
<no-speech> 
[410.605]
ɓ o x ɔɛ j əːɪ̪ ɛ m ɲ ɨ th e th e l aː k i h o m ɓ aː əɪ̪ ɗ e ŋ th i ɛ m m əːɪ̪ s uə̪ ŋ ɛ m m əːɪ̪ t iə̪ p t iə̪ p ɓ aː əɪ̪ th i l u k əɪ̪ k i s ɨ n ɔ s uə̪ ŋ ɹ oɪ̪ 
[417.085]
<no-speech> 
[417.995]
k i s ɨ n ɔ ɗ aː ŋ m əːɪ̪ n ɨə̪ k th i ɛ m m əːɪ̪ j aːʊ̪ s ɔ ŋ m o k l u k ʂ aʊ̪ ɓ o ɛ m k u ŋ j aːʊ̪ 
[421.635]
<no-speech> 
[422.615]
th e l aː ɛ m m əːɪ̪ ɗ i ɹ aː th i tʂ o ŋ ɟ aːʊ̪ n aɪ̪ tʂ o ŋ ɓ aː əɪ̪ ɓ ɛʊ̪ n u k tɕ i aː <no-speech> ɨ tɕ i ɓ iə̪ k x o ŋ t aːɪ̪ j i ʂ aː ŋ ɹ aː th i o ŋ ɛ m t ɔaː ŋ <hes> ɗ i l aː <no-speech> m aː ŋ tɕ ɔ ɓ aː a ŋ n ɨə̪ ɗ əɪ̪ h aː 
[432.595]
<no-speech> 
[433.605]
h aːɪ̪ o ŋ ɓ aː a ŋ h aː <no-speech> aː th e aː ɟ aːʊ̪ n aɪ̪ tʂ o ŋ ɓ ɛʊ̪ l a m th e k i h o m m aː m aː ɗ ɨə̪ a n l aː ɛ m s uə̪ ŋ ŋ iə̪ tʂ aː ŋ th i ɓ aː k u ŋ əː ɗ əɪ̪ ɹ oɪ̪ 
[441.465]
<no-speech> 
[442.385]
ɨ th e ɲ ɨ ŋ m aː tʂ o ŋ ɛ m j uɪ̪ j ɛ l a m <no-speech> th e ɟ aːʊ̪ n aɪ̪ tɕ i th əɪ̪ ɓ o k ɔ x ɔɛ x o ŋ 
[446.925]
<no-speech> 
[448.445]
aː th e h aː th e ʂ aː ŋ k ɔ ɗ i t ə p ɗ i t ə p th e ɟ u k ɗ eʊ̪ aː <no-speech> aː th e aː <no-speech> ɨ th oɪ̪ ŋ eʊ̪ m aː m aːɪ̪ m aː m aː k ɟ əːɪ̪ ɲ ɨ h o m n aɪ̪ th i ɛ m j aːʊ̪ ɲ ɛ <no-speech> ɛ m k u ŋ ɲ əː o ŋ l a m 
[459.975]
<no-speech> m ə k h aː <no-speech> h aː 
[464.605]
<no-speech> 
[465.645]
uɪ̪ th e k ɔ ŋ ɗ i ɗ əʊ̪ m aː l əʊ̪ th e k ɔ aː 
[467.465]
<no-speech> 
[468.535]
uɪ̪ ɟ əːɪ̪ əːɪ̪ th e aː tɕ a k h aːɪ̪ o ŋ ɓ aː l aːɪ̪ ɗ i ɗ əʊ̪ ɗ i tɕ əːɪ̪ ɗ i ɓ əːɪ̪ ɗ əɪ̪ tɕ i aː 
[471.545]
<no-speech> 
[472.495]
m əɪ̪ k i l ə ŋ m aː ɓ uə̪ɪ̪ ʂ aː ŋ ɛ m ɗ i ʂ əː m əɪ̪ k i t ə m ɓ əɪ̪ ɹ ɨə̪ɪ̪ ɛ m th əɪ̪ h aːɪ̪ o ŋ ɓ aː h aɪ̪ ŋ oɪ̪ tɕ o k i h ɔ n ɗ aː ɗ əɪ̪ 
[477.215]
<no-speech> 
[478.235]
ɓ əɪ̪ ɟ əː l aːɪ̪ ŋ oɪ̪ th e m m o k k i ɓ aː n aːʊ̪ n ɨə̪ əɪ̪ 
[480.585]
<no-speech> 
[481.805]
k i k i k i ɓ aː m aː ɓ aː əɪ̪ ɗ oɪ̪ k i m u ɛ m th əɪ̪ th əɪ̪ ŋ oɪ̪ ɗ əɪ̪ ɓ aː ŋ ɨə̪ɪ̪ k əː th e l aː tʂ o ŋ th əɪ̪ ɛ m s ɔ ŋ k ɨ j əɪ̪ t aɪ̪ 
[488.385]
<no-speech> 
[489.305]
<no-speech> th e tɕ i ɗ i k i t ə m əɪ̪ l aː h aɪ̪ ɣ a p h aː 
[490.955]
<no-speech> 
[492.485]
aː aː tɕ i v ə ŋ əːɪ̪ ɓ i ɟ əː ɓ ɔ ŋ tɕ i ɗ ɨə̪ k t a ŋ l ɨə̪ ŋ ɗ əɪ̪ <no-speech> k ɔ h o m ɟ i ɛ m s ɛ m 
[498.145]
<no-speech> 
[499.515]
<no-speech> tɕ ɨ ɟ əː l ɨə̪ ŋ k uə̪ tɕ i ɗ ɨə̪ k ɓ aːʊ̪ ɲ iə̪ʊ̪ t iə̪ ŋ 
[501.705]
<no-speech> 
[507.015]
th e aː uɪ̪ ɟ əːɪ̪ oɪ̪ tɕ i ɲ iə̪ʊ̪ ɲ i <no-speech> ɛ m ɨ ɛ m tɕ aː k ɔ ɛ m ɓ uə̪ ŋ l a m ɛ m tɕ aː k ɔ ɗ əʊ̪ tɕ i aː 
[513.675]
<no-speech> 
[514.815]
əː tʂ e ŋ tɕ əː ɟ əː th i n ɔ ŋ ɓ ɨ k n aɪ̪ n ɔ t a ŋ th e m tɕ ɔ ɛ m ɗ ɨə̪ k m o k tʂ a m n ɨə̪ 
[518.684875]
<no-speech> 
[519.795]
ɓ əɪ̪ ɟ əː ɛ m tɕ ɨə̪ tɕ əː ɛ m ɗ ɨə̪ k l aː m o k tʂ iə̪ʊ̪ m o k n a m tɕ u k <no-speech> ɗ əɪ̪ ɓ əɪ̪ ɟ əː j e th ɔaː n ɔ k u ŋ tɕ ɔ ɛ m th e m l aː m o k tʂ a m n ɨə̪ tɕ i aː 
[526.605]
<no-speech> 
[527.705]
th e m aː ɛ m k e tɕ i ŋ ɛ t ɨ t əː k ɟ əː ɛ m tɕ aː ɗ e ɗ ɨə̪ k ɗ o ŋ ɗ ɛʊ̪ n aːʊ̪ ɗ əʊ̪ tɕ i v ə ŋ əː 
[531.305]
<no-speech> 
[532.315]
ɨ tɕ aː ɗ e ɗ ɨə̪ k k ɨ t iə̪ʊ̪ ɗ əʊ̪ ɗ e ŋ ɗ əʊ̪ t iə̪ʊ̪ h əː k ɗ e ŋ ɗ əɪ̪ <no-speech> th e ɓ aːʊ̪ l aː 
[537.615]
<no-speech> 
[538.585]
ɛ m k e tɕ ɔ tɕ i ŋ ɛ <no-speech> tɕ ɨ <no-speech> l aː 
[541.705]
<no-speech> 
[542.515]
tɕ i əːɪ̪ <no-speech> x o ŋ ŋ ɛ th əɪ̪ ɟ i aː <no-speech> ɲ əː m o k th aː ŋ ɛ m ɗ aː m ə k <hes> m ə k ɓ o ŋ tʂ a m ŋ i ŋ h uɪə̪ k aː p m əːɪ̪ k aː t iə̪ ŋ <hes> t iə̪ ŋ əɪ̪ ɹ oɪ̪ 
[552.025]
t iə̪ ŋ ɗ iə̪ ŋ t iə̪ ŋ n ɨə̪ k m ə k m ɛ ɓ o ŋ tʂ a m ɹ oɪ̪ <no-speech> th e k ɔ ŋ th a m h ɔɪ̪ n ɨə̪ k aː k th ɨ n ɨə̪ tʂ iə̪ʊ̪ l aː m ʂ aːʊ̪ m aː ɗ e ɹ aː ɗ ɨə̪ k <no-speech> ɗ u ŋ x o ŋ 
[561.235]
<no-speech> 
[562.325]
ɗ u l aː t o k l a m 
[563.785]
<no-speech> 
[565.225]
<no-speech> h aː 
[565.995]
<no-speech> 
[568.335]
ɗ əɪ̪ n a m n aɪ̪ ɛ m f aːɪ̪ k o ɣ a ŋ t iə̪ k k iə̪ m j aːʊ̪ k o ɣ a ŋ ʂ aːʊ̪ t ɨ ɟ əː ɗ e ŋ k uə̪ɪ̪ n a m m aː ɣ ɨɪ̪ l əɪ̪ tɕ u k tʂ iə̪ʊ̪ tɕ ɨ x o ŋ l aː ɓ ɔ m ɛ əɪ̪ tɕ i ɲ i 
[575.045]
<no-speech> 
[575.995]
m ɛ <no-speech> m ɛ tɕ o ŋ k ɔ ŋ tɕ əː k h əː k ɹ oɪ̪ <no-speech> <laugh> ɗ əɪ̪ th i k o ɣ a ŋ k o ɣ a ŋ ɣ ɨɪ̪ m əɪ̪ tʂ iə̪ʊ̪ x o ŋ ɓ ɔ m ɛ əɪ̪ tɕ i ɲ i 
[586.975]
<no-speech> 
[588.015]
th e ɛ m ɓ aːʊ̪ h o m n aːʊ̪ m aː k ɟ əːɪ̪ th i ɛ m <hes> ɛ m ɗ i <hes> ɛ m ɗ i th ɨ m aʊ̪ ɲ ɨ tɕ i əɪ̪ <no-speech> th ɨ s ɛ m l aː k i k i m aʊ̪ m əː k uə̪ ɛ m əɪ̪ 
[596.515]
<no-speech> 
[597.685]
<no-speech> ŋ eʊ̪ m aː th ɨ ɗ əː k n aɪ̪ aː tɕ a k n ɔ f aːɪ̪ k ɔ ŋ 
[599.545]
<no-speech> 
[600.1]
