[0.0]
<no-speech> 
[3.845]
<no-speech> ɗ ɨə̪ k ɹ oɪ̪ <sta> <no-speech> 
[6.605]
<no-speech> 
[7.805]
<no-speech> <int> <hes> s iʊ̪ n ɨə̪ n ɔɪ̪ tɕ ɔ ŋ ɛ <no-speech> ɟ əː k e tɕ uɪə̪ ŋ ɟ i ŋ ɛ <int> ɗ i <no-speech> k e tɕ uɪə̪ ŋ tʂ ɔ ŋ j ɔ ŋ m ɨə̪ɪ̪ f u k 
[15.865]
<no-speech> 
[17.135]
<no-speech> 
[17.645]
<no-speech> 
[18.695]
<no-speech> ɨ 
[19.275]
<no-speech> 
[20.375]
<no-speech> 
[22.545]
<no-speech> 
[27.025]
<no-speech> tɕ uɪə̪ ŋ tʂ aːɪ̪ ɗ i t aːʊ̪ x o ŋ k ɔ h ɨ ŋ th ɨ j əːɪ̪ k ɔ ŋ ɣ aːɪ̪ <laugh> 
[29.645]
<no-speech> 
[32.315]
<no-speech> 
[33.435]
<no-speech> 
[36.935]
<laugh> ɗ ɨə̪ k ɗ ɔ <sta> <no-speech> l u k n aɪ̪ ɓ ɔ ɓ ɔ ɓ ɔ tʂ aːɪ̪ ɹ oɪ̪ h aː <laugh> <breath> ŋ i tɕ əːɪ̪ j əːɪ̪ tʂ aːɪ̪ ɹ oɪ̪ h aː 
[42.725]
<no-speech> 
[49.985]
<no-speech> ɹ oɪ̪ n ɔɪ̪ <sta> ɗ i <no-speech> 
[51.405]
<no-speech> 
[54.365]
tɕ uɪə̪ ŋ ɓ e ŋ ɲ aː k ɔ ŋ ɟ iə̪ m n ɛ m əːɪ̪ k ɔ tɕ uɪə̪ ŋ tɕ ɔ t aːʊ̪ j əːɪ̪ m aɪ̪ l aː m ɗ ɔ 
[58.315]
<no-speech> 
[65.184875]
k i ɟ i 
[65.685]
<no-speech> 
[67.325]
<no-speech> th a ŋ ɓ o əː ŋ oaɪ̪ n ɔ x o ŋ <hes> ɗ i tɕ əːɪ̪ j əːɪ̪ m aɪ̪ h aː 
[69.685]
<no-speech> 
[71.325]
<no-speech> th a ŋ ɓ o əː ŋ oaɪ̪ <hes> j u ŋ t aʊ̪ x o ŋ ɗ i tɕ əːɪ̪ j əːɪ̪ m aɪ̪ h aː 
[73.825]
<no-speech> 
[79.225]
<no-speech> ɗ aː m ɟ o s ɔ ŋ tɕ ɨə̪ 
[80.355]
<no-speech> 
[81.855]
<no-speech> ɗ aː m ɟ o s ɔ ŋ ɹ oɪ̪ f aːɪ̪ x o ŋ 
[83.165]
<no-speech> 
[90.2]
<no-speech> 
[97.235]
<no-speech> <int> <no-speech> ɨ l aː m l ɛ l ɛ ɗ i j e tɕ əːɪ̪ j əːɪ̪ t aːʊ̪ tʂ e ŋ n aɪ̪ m ə n t aːʊ̪ ɓ uə̪ ŋ tɕ əː k ɗ i ɗ ɨə̪ k 
[103.755]
<no-speech> 
[108.715]
<no-speech> ɨ <no-speech> <hes> m aɪ̪ <hes> h o ŋ k ɔ 
[111.435]
<no-speech> 
[113.225]
<no-speech> ɨ <no-speech> <hes> k ɔ ŋ ɗ iə̪ p n ɔ <hes> ɗ i h oaɪ̪ n ɔ x o ŋ k ɔ ɲ aː tɕ əːɪ̪ j əːɪ̪ t aːʊ̪ 
[119.675]
<no-speech> 
[122.115]
<breath> <hes> t aːɪ̪ ŋ aɪ̪ h o m w aː m əː m a k ɹ aː t aːʊ̪ ɗ əʊ̪ k ɔ th əɪ̪ n ɔ n ɨə̪ ɗ əʊ̪ 
[125.915]
<no-speech> 
[131.325]
<no-speech> ɨ n ɔ k u ŋ n ɔɪ̪ j əːɪ̪ t aːʊ̪ n ɔ k ɔ s ɛ m əːɪ̪ 
[133.605]
<no-speech> 
[134.455]
<no-speech> ɗ e m h o m k u ŋ ɗ i a ŋ o k 
[135.845]
<no-speech> 
[141.675]
h aɪ̪ w aː t aːɪ̪ h aɪ̪ w aː k eʊ̪ n ɔ tɕ iə̪ t aːʊ̪ ɓ əː k ɗ i 
[144.615]
<no-speech> 
[148.145]
<no-speech> <int> k i ɟ i 
[149.045]
<no-speech> 
[151.025]
<no-speech> 
[151.405]
<no-speech> 
[152.805]
<no-speech> ɓ uə̪ ŋ k i ɟ i 
[153.695]
<no-speech> 
[157.015]
<no-speech> ɨ n ɔɪ̪ j iə̪ k l aː m tɕ iə̪ʊ̪ n aɪ̪ t aːʊ̪ ɗ i l aː m n ɛ 
[159.595]
<no-speech> 
[161.805]
k i tɕ o ɓ ɨə̪ h o m t aːʊ̪ j əːɪ̪ m aɪ̪ ɗ i ɗ ɔ <no-speech> əː <hes> ɲ aː h aː ŋ ɟ i ɗ ɔ 
[165.985]
<no-speech> 
[168.065]
ɗ i k iə̪ m ɲ aː h aː ŋ aː ɗ o ŋ ɟ i ɗ ɔ <no-speech> ɲ aː h aː ŋ ɗ ɔ əː tɕ əː l əː ŋ ɗ ɔ 
[170.895]
<no-speech> 
[174.885]
<no-speech> <breath> ɗ o ŋ aː aː ɗ o ŋ ɟ i ɗ ɔ 
[177.295]
<no-speech> 
[178.725]
<no-speech> t aːʊ̪ w e ŋ ɹ oɪ̪ <no-speech> m aː t aːʊ̪ ɓ iə̪ k tɕ o ɗ ɔ ɹ oɪ̪ <no-speech> tɕ iə̪ʊ̪ n aɪ̪ ɗ i 
[181.595]
<no-speech> 
[190.695]
h aɪ̪ ɗ ɨ ŋ l aː m ɓ ə n ɓ o ŋ ɟ i ɗ o ŋ 
[192.455]
<no-speech> 
[198.425]
<no-speech> <hes> l aː m ŋ oaɪ̪ m aː 
[201.415]
<no-speech> 
[204.945]
<no-speech> <breath> ʂ aː ŋ ɟ əː l e ŋ m aː ŋ k iə̪ m m aː x o ŋ k ɔ tɕ uɪə̪ ŋ ɟ i l aː m h əː k tʂ əː n ɗ ɔ 
[208.245]
<no-speech> 
[212.805]
<no-speech> ɨ k iə̪ m k ɔ th a ŋ n aːʊ̪ tɕ ɨə̪ 
[214.305]
<no-speech> 
[216.655]
<no-speech> k ɔ k ɔ k ɔ th a ŋ n aːʊ̪ ŋ oaɪ̪ j u ŋ t aʊ̪ ɗ ɔ <no-speech> k iə̪ m k i th a ŋ ŋ oaɪ̪ j u ŋ t aʊ̪ ɗ ɔ 
[220.535]
<no-speech> 
[228.165]
<no-speech> əː <no-speech> 
[229.535]
<no-speech> 
[232.545]
<no-speech> ʂ aː ŋ ɟ əː <hes> <sta> t aːʊ̪ k u ŋ tɕ ɨə̪ l e ŋ ɗ ɔ k ɔɪ̪ n ɨə̪ 
[235.205]
<no-speech> 
[236.085]
<no-speech> 
[236.585]
<no-speech> 
[240.105]
<no-speech> 
[240.455]
<no-speech> 
[241.365]
tʂ əːɪ̪ əːɪ̪ <hes> l aː m k i tɕ ɔ ŋ k i tɕ uɪə̪ ŋ m aː l aː m <hes> l e t ə ŋ tɕ ɔ ɗ aː m k ɨə̪ɪ̪ aː 
[247.405]
<no-speech> 
[252.285]
<no-speech> ɟ əː x o ŋ k ɔ ɟ i l aː m ɗ i l aː m <hes> l əɪ̪ t iə̪ ŋ ɗ o s a ŋ k u ŋ ɗ ɨə̪ k 
[256.455]
<no-speech> 
[261.564875]
<no-speech> tɕ a k ɗ u m aː 
[262.615]
<no-speech> 
[264.705]
<no-speech> tɕ ɨ əː ɲ aː h oaɪ̪ m u k s ɨə̪ ŋ ʂ o ŋ tɕ əː k 
[266.795]
<no-speech> 
[268.695]
<no-speech> ɓ əɪ̪ ɟ əː j i <no-speech> h aː <no-speech> 
[271.545]
<no-speech> 
[275.925]
<no-speech> 
[276.375]
<no-speech> 
[280.065]
<no-speech> l e ŋ l e ŋ l e ŋ l aː m ɓ i ɟ aː ɗ i <no-speech> t aːʊ̪ m aɪ̪ ɗ i 
[282.855]
<no-speech> 
[286.055]
<no-speech> h aː 
[286.645]
<no-speech> 
[289.235]
<no-speech> ɟ əː tɕ i k ɔ k i ɗ ɔ ɓ i ɟ aː j əːɪ̪ k aː f e l aː ɟ e s i ŋ ɲ ə k 
[292.355]
<no-speech> 
[301.765]
k iə̪ m tɕ o n aːʊ̪ əː ŋ oaɪ̪ m a k t iə̪ ŋ ɗ ɔ k ɔ x aː ŋ a ŋ tɕ u k s iʊ̪ <no-speech> m aː h ə n ɲ ɨ l aː m k i ɗ ɔ x o ŋ h əː p ɟ əː j əːɪ̪ t aːʊ̪ m aɪ̪ əːɪ̪ t aːʊ̪ l aː m tɕ uɪə̪ ŋ n aːʊ̪ t ɨ ʂ aʊ̪ ɟ əː tʂ əː j e ʂ aː ŋ ɗ ɔ 
[312.755]
<no-speech> 
[313.575]
<no-speech> tɕ ɨ t aːʊ̪ h ɔ k ɓ ɨə̪ ʂ aː ŋ ɓ ɨə̪ t oɪ̪ ɓ ɨə̪ ʂ aː ŋ ɓ ɨə̪ t oɪ̪ x o ŋ l ɛ m o k t uə̪ ŋ s i ŋ ŋ i m o k ŋ aɪ̪ 
[317.525]
<no-speech> 
[323.355]
<no-speech> tɕ uɪə̪ ŋ ɟ i <int> 
[324.105]
<no-speech> 
[325.975]
<no-speech> h aː 
[326.575]
<no-speech> 
[333.285]
<no-speech> ɓ iə̪ k <int> 
[334.195]
<no-speech> 
[337.345]
<no-speech> <laugh> <breath> ɹ oɪ̪ 
[339.675]
<no-speech> 
[341.005]
<no-speech> 
[342.385]
<no-speech> 
[343.505]
<no-speech> 
[344.765]
<no-speech> 
[345.585]
<no-speech> <int> j ɨə̪ 
[347.095]
<no-speech> 
[348.955]
<no-speech> <hes> t aːʊ̪ ɹ aː ŋ tɕ a k x ɔaː ŋ <hes> h aːɪ̪ th aː ŋ n ɨə̪ h aː l aː t aːʊ̪ h əː k <hes> t iə̪ k h ɔ k ɓ uə̪ɪ̪ tɕ iə̪ʊ̪ j əːɪ̪ ɓ uə̪ɪ̪ ʂ aː ŋ ɹ oɪ̪ <no-speech> th i m aːɪ̪ m o k k iə̪ m <hes> h ɔ k th i ɗ a ŋ k i h ɔ k l aːɪ̪ m o k 
[360.615]
<no-speech> ɓ uə̪ɪ̪ th oɪ̪ x o ŋ h ɔ k h aːɪ̪ ɓ uə̪ɪ̪ n ɨə̪ 
[362.355]
<no-speech> 
[366.095]
ɟ i 
[366.635]
<no-speech> 
[370.005]
<no-speech> ɨ 
[370.865]
<no-speech> 
[372.825]
<no-speech> k ɔ m o k tɕ o <int> 
[374.045]
<no-speech> 
[376.965]
<no-speech> ɓ iə̪ k tɕ o n aːʊ̪ x o ŋ 
[378.095]
<no-speech> 
[380.055]
<no-speech> k ɔ m o k tɕ o <no-speech> 
[381.555]
<no-speech> 
[382.535]
<no-speech> l aː m t ɨ ɓ aɪ̪ ɟ əː ɗ e ŋ m ɨə̪ɪ̪ m o k ɟ əː 
[384.415]
<no-speech> 
[385.785]
<no-speech> 
[386.135]
<no-speech> 
[386.935]
<no-speech> 
[387.345]
<no-speech> 
[391.265]
<no-speech> j iə̪ k t aːʊ̪ j əːɪ̪ m aɪ̪ ɗ i s i ŋ ɓ ɨə̪ h o m ɗ ɔ 
[393.455]
<no-speech> 
[395.165]
<no-speech> 
[397.525]
<no-speech> 
[402.435]
<no-speech> <laugh> <no-speech> k i ɗ ɔ l aː <hes> n ɔ k a m h ɔaː l uə̪ ŋ tɕ ɨ ɓ ə n h ɔaː ɟ i n ɨə̪ 
[408.995]
<no-speech> 
[413.435]
<no-speech> 
[415.975]
<no-speech> 
[417.815]
<no-speech> 
[418.205]
<no-speech> 
[419.265]
<no-speech> k ɔ tɕ o ŋ ɗ e tɕ ɔ m aɪ̪ l əɪ̪ h aː 
[421.065]
<no-speech> 
[425.595]
<no-speech> 
[426.005]
<no-speech> 
[428.125]
<no-speech> m aɪ̪ k ɔ t iə̪ ŋ m aɪ̪ ɗ i k ɨə̪ɪ̪ ŋ ɨə̪ɪ̪ t aː tɕ ɨ t aːʊ̪ tɕ ɨə̪ k ɔ t iə̪ ŋ ɗ e ɗ i k ɨə̪ɪ̪ ŋ ɨə̪ɪ̪ t aː 
[431.455]
<no-speech> 
[435.965]
<no-speech> 
[436.335]
<no-speech> 
[440.855]
<no-speech> 
[441.205]
<no-speech> 
[443.085]
<no-speech> 
[443.815]
<no-speech> 
[447.025]
<no-speech> j əɪ̪ t ə n ŋ aɪ̪ n aːʊ̪ j o <no-speech> 
[450.375]
<no-speech> 
[457.655]
<no-speech> 
[458.025]
<no-speech> 
[464.685]
ɨ <no-speech> k iə̪ m ɗ ɨə̪ k k i h o ʂ əː ɣ o k tɕ ɨə̪ 
[467.665]
<no-speech> 
[468.845]
<no-speech> 
[469.215]
<no-speech> 
[470.235]
<no-speech> k ɔ k iə̪ m ɗ ɨə̪ k h o ʂ əː ɣ o k k uə̪ ɓ a ŋ l aːɪ̪ tɕ ɨə̪ 
[472.215]
<no-speech> 
[474.415]
<no-speech> 
[474.785]
<no-speech> 
[482.445]
<no-speech> tʂ əːɪ̪ l aː m ɟ əɪ̪ t əː s ɛ l aːɪ̪ l aː l aː m ʂ aːʊ̪ 
[484.985]
<no-speech> 
[486.235]
<no-speech> ŋ i l aː m h aː <no-speech> <int> 
[487.705]
<no-speech> 
[489.805]
<no-speech> <breath> m aɪ̪ tɕ i l aː m ɟ əɪ̪ tɕ ɨ ŋ m ə n j əːɪ̪ ɓ a ŋ l aːɪ̪ s ɛ th oɪ̪ m aː f aːɪ̪ x o ŋ <int> 
[492.785]
<no-speech> 
[496.075]
<no-speech> ŋ iə̪ l aː m tɕ ɨə̪ 
[497.055]
<no-speech> 
[504.425]
<no-speech> w aː ŋ tʂ ɔ ŋ l aː ɟ əɪ̪ t əː s ɛ tɕ ɨ <sta> <no-speech> ɟ əɪ̪ tɕ ɨ ŋ m ə n j əːɪ̪ ɓ a ŋ l aːɪ̪ th i m ə n l aː m l aːɪ̪ l ɛ <no-speech> k ɔ ɟ əɪ̪ t əː s ɛ <no-speech> t aːʊ̪ x o ŋ ɓ iə̪ k l aː m ʂ aːʊ̪ l aː m l aːɪ̪ ɟ əɪ̪ t əː s ɛ n ɛ 
[514.005]
<no-speech> 
[522.665]
<int> <no-speech> uə̪ ŋ aɪ̪ h o m w aː m aɪ̪ ɟ əɪ̪ ʂ əː m l a m h aː 
[525.235]
<no-speech> 
[530.835]
<no-speech> ɗ i s ɛ t o k h a n j e 
[532.235]
<no-speech> 
[538.505]
<no-speech> ɨ <no-speech> th i h o m w aː n aɪ̪ t aːʊ̪ m əː m a k ɹ aː t aːʊ̪ ɗ i t əːɪ̪ ɟ əː t aːʊ̪ k ɔ ɓ iə̪ k ɟ i ɗ əʊ̪ 
[542.365]
<no-speech> 
[545.735]
<no-speech> ɨ 
[546.455]
<no-speech> 
[551.415]
ɨ <no-speech> tɕ ɔ ɓ aː j u j əːɪ̪ th a ŋ ɗ aːɪ̪ əː ɗ əɪ̪ ŋ u <int> 
[554.385]
<no-speech> 
[558.085]
ɨ m aː m aɪ̪ f aː h əː k l uə̪ ŋ 
[559.635]
<no-speech> 
[561.195]
m aː th a ŋ ɗ aːɪ̪ h ə n ɲ ɨ ɓ ɨə̪ n aɪ̪ tɕ uɪə̪ ŋ ʂ aː ŋ l aː m k aː ŋ aɪ̪ h aɪ̪ ʂ aːʊ̪ aː ŋ aɪ̪ m aːɪ̪ tɕ ɨ <no-speech> ɓ ɨə̪ n aɪ̪ tɕ a k n ɔ ŋ i əː ɲ aː n ɛ <no-speech> ŋ aɪ̪ m aːɪ̪ l aː n ɔ l aː m k aː ŋ aɪ̪ ɹ oɪ̪ <no-speech> 
[570.885]
<no-speech> 
[573.245]
<no-speech> ɨ 
[573.965]
<no-speech> 
[581.315]
<no-speech> 
[581.665]
<no-speech> 
[582.885]
k ɔ tɕ uɪə̪ ŋ ɟ i ɗ əʊ̪ m aː ɓ uə̪ ŋ <int> <no-speech> 
[585.275]
<no-speech> 
[587.395]
<no-speech> ɟ əː k iə̪ m j iə̪ k l aː m k iə̪ m h oaɪ̪ x o ŋ k ɔ n ɛ 
[589.675]
<no-speech> 
[599.775]
<no-speech> 
[599.985]
<no-speech> 
[600.0]
