[0.0]
<no-speech> 
[3.405]
<no-speech> aː l o 
[3.825]
<no-speech> 
[5.095]
<no-speech> th uːɪ̪ a n h aː 
[5.955]
<no-speech> 
[7.545]
ɟ aː <laugh> ɨ <laugh> x ɔɛ <no-speech> tɕ i ɗ aː ŋ əː ɗ əʊ̪ <no-speech> h aː <no-speech> h aː <no-speech> aː n ɔɪ̪ t iə̪ ŋ ɗ aː n a ŋ ɗ i 
[19.385]
k iə̪ <laugh> <no-speech> ɛ m <hes> ɗ aː ŋ j e ɲ aː <no-speech> aː <no-speech> tʂ ɨə̪ n aɪ̪ m ɛ x o ŋ əː j əːɪ̪ m ɛ əː j əːɪ̪ ŋ oaɪ̪ n əː ŋ tɕ ɨə̪ j e 
[31.255]
<no-speech> ɨ 
[32.635]
<no-speech> 
[33.845]
<no-speech> ɟ aː 
[34.475]
<no-speech> 
[36.525]
n ɔ ɓ i k i <hes> j iə̪ m f oɪ̪ k i th əː x o ŋ ɗ ɨə̪ k 
[40.185]
<no-speech> 
[41.665]
ɓ ɛ ʂ u ɗ əː ɗ aʊ̪ tɕ ɨə̪ <no-speech> əː 
[44.915]
<no-speech> 
[46.635]
<no-speech> t aː m m ɨə̪ɪ̪ 
[47.455]
<no-speech> 
[48.415]
<no-speech> aː <no-speech> 
[50.305]
<no-speech> 
[51.515]
əː <no-speech> əː <laugh> 
[59.205]
<no-speech> 
[60.885]
ɓ ɨə̪ n i j e k ɔ ŋ m əɪ̪ ɓ ɨə̪ əː l aːɪ̪ <laugh> ɨ <no-speech> t ɨ k k ɨə̪ɪ̪ w aː ɗ i <laugh> 
[72.575]
<no-speech> 
[73.875]
<no-speech> 
[75.095]
<no-speech> 
[75.675]
<no-speech> 
[78.085]
x ɔɛ ɓ ɨə̪ m o l e ŋ ɲ aː tɕ əːɪ̪ <no-speech> h i 
[83.015]
<no-speech> 
[86.035]
<no-speech> ɨ 
[86.635]
<no-speech> 
[88.035]
ɨ <no-speech> iə̪ʊ̪ s iʊ̪ 
[89.405]
<no-speech> 
[92.825]
<int> <laugh> k i tɕ i h ɛ ɨ m ɨə̪ɪ̪ th aː ŋ ɓ aː k ɔ ɗ i tɕ əːɪ̪ ɗ əʊ̪ x o ŋ 
[98.125]
<no-speech> 
[101.365]
<no-speech> h aː ɹ a ŋ x o ŋ ɗ i 
[102.405]
<no-speech> 
[104.635]
<no-speech> ɲ ə ŋ t ə n i w aː tʂ əːɪ̪ m aː 
[106.325]
<no-speech> 
[107.605]
<no-speech> 
[108.005]
<no-speech> 
[110.265]
<no-speech> ɨ 
[110.805]
<no-speech> 
[111.915]
tɕ i l e ŋ f ɔ ɓ ɔ ŋ <no-speech> f ɔ ɓ ɔ ŋ l aː th ɨ k f aːɪ̪ ɲ iə̪ʊ̪ th oɪ̪ tɕ ɨ 
[115.675]
<no-speech> 
[118.255]
<laugh> m əɪ̪ tʂ iə̪ʊ̪ 
[121.575]
<no-speech> 
[122.435]
<no-speech> ɗ u tʂ aː n əː 
[123.695]
<no-speech> 
[125.685]
<no-speech> h əː ŋ m o k t i ɗ u tʂ aː n əː 
[127.265]
<no-speech> 
[128.644875]
<no-speech> 
[129.055]
<no-speech> 
[129.984875]
<no-speech> ɨ <no-speech> 
[131.445]
<no-speech> 
[133.005]
<no-speech> ɨ 
[133.545]
<no-speech> 
[135.425]
<no-speech> ɨ 
[135.975]
<no-speech> 
[137.115]
i l aː ɓ ɔ ŋ tɕ i h aː <no-speech> ɨ 
[139.695]
<no-speech> 
[141.475]
<no-speech> ɨ 
[142.045]
<no-speech> 
[144.195]
ɨ <no-speech> h a ŋ ɣ ə ŋ ɲ aː n əː ŋ h a ŋ tɕ ɔ l uə̪ ŋ ɗ ɔ 
[147.095]
<no-speech> 
[148.295]
<no-speech> ɨ 
[148.825]
<no-speech> 
[152.305]
əː ɗ i ɓ ə n n oɪ̪ tɕ əːɪ̪ 
[153.645]
<no-speech> 
[157.265]
<no-speech> ɨ 
[157.815]
<no-speech> 
[159.455]
<no-speech> ɗ i ɹ ɛ ɲ n əː m əːɪ̪ j uɪ̪ 
[160.685]
<no-speech> 
[165.325]
ʂ əː ɓ o ŋ h aːɪ̪ t uə̪ɪ̪ k ɔ ŋ ɗ i tɕ əːɪ̪ ɓ əːɪ̪ x o ŋ əː ɲ aː tɕ o ŋ k ɔ ŋ h əː k ɓ iə̪ k ɹ a ŋ 
[170.005]
<no-speech> 
[171.955]
<no-speech> ɨ 
[172.545]
<no-speech> 
[173.475]
<laugh> n ɔɪ̪ tɕ uɪə̪ ŋ m o m aː h a ŋ t ə c t ə c l aː x o ŋ k ɔ ɗ ɨə̪ k th əɪ̪ tɕ ɨə̪ <no-speech> t aːɪ̪ h a ŋ k a k <laugh> 
[181.265]
<no-speech> 
[182.735]
tʂ əːɪ̪ əːɪ̪ ɹ a ŋ h a ŋ x o ŋ t a k ɗ i tʂ əːɪ̪ <laugh> 
[187.295]
<no-speech> 
[188.925]
k i tɕ i h oɪ̪ n aɪ̪ ɛ m n ɔɪ̪ tɕ uɪə̪ ŋ t əːɪ̪ m ɨə̪ɪ̪ m əɪ̪ f u k <hes> l uə̪ ŋ 
[192.985]
<no-speech> 
[195.405]
x o ŋ t uːɪ̪ th ɛʊ̪ k i m aː ɹ a ŋ <no-speech> t ɨ ɲ iə̪ ŋ h a ŋ <hes> ɛ m k i h a ŋ n ɔɪ̪ t əːɪ̪ m ɨə̪ɪ̪ m əɪ̪ f u k 
[200.565]
<no-speech> 
[201.985]
ʂ aːʊ̪ t ɨ ɲ iə̪ ŋ 
[203.875]
<no-speech> 
[205.775]
əː h a ŋ ɲ iə̪ʊ̪ <no-speech> h i 
[208.215]
<no-speech> 
[210.065]
a ŋ ɲ iə̪ʊ̪ ɲ iə̪ʊ̪ ɲ iə̪ʊ̪ ɲ iə̪ʊ̪ tɕ i k ɔɪ̪ ɛ m m əɪ̪ k i <no-speech> 
[213.895]
<no-speech> 
[214.765]
<laugh> n a m k i 
[217.835]
<no-speech> 
[220.665]
tɕ u k ɔ tɕ o ŋ ɹ oɪ̪ k ɔ ŋ ɓ o ɓ ə c <no-speech> 
[223.595]
<no-speech> 
[224.985]
<no-speech> ɨ 
[225.455]
<no-speech> 
[227.355]
əː m iə̪ ŋ ɹ a ŋ k uə̪ k ɗ əːɪ̪ j uɪ̪ t ɨə̪ɪ̪ h aː 
[230.115]
<no-speech> 
[231.175]
<no-speech> 
[233.305]
<no-speech> 
[238.515]
ɨ <no-speech> ɨ <int> <no-speech> tʂ əːɪ̪ 
[242.405]
<no-speech> 
[244.215]
tɕ i l e n ɔ k əː w aː ŋ h a ŋ n əʊ̪ ŋ ɔ ŋ ɟ e ʂ əː <no-speech> <int> ɨ <no-speech> ɨ 
[251.325]
<no-speech> 
[252.365]
ʂ uə̪ k <int> m ɨə̪ɪ̪ l a m ŋ i ŋ m aː ɛ m k ɔ th ə k ɗ o w aː tʂ əːɪ̪ w aː ɗ ə k 
[255.275]
<no-speech> 
[257.244875]
<no-speech> əː 
[257.854875]
<no-speech> 
[258.795]
<no-speech> ɨ 
[259.345]
<no-speech> 
[261.515]
x o ŋ ɓ iə̪ k n ɨə̪ <no-speech> t ə n k uə̪ɪ̪ n a m n i k ɨə̪ɪ̪ m aː x o ŋ th əɪ̪ ɹ a ŋ h əː k 
[265.245]
<no-speech> 
[266.435]
ɨ 
[266.855]
<no-speech> 
[268.695]
th iə̪ k aː <no-speech> ə k w aː <no-speech> <laugh> n ɔɪ̪ tɕ uɪə̪ ŋ l u ŋ t u ŋ <laugh> <breath> <no-speech> 
[277.455]
<no-speech> 
[280.965]
ɗ ɔ <no-speech> tɕ i tɕ i aː k j əɪ̪ h aː 
[283.655]
<no-speech> 
[285.475]
<no-speech> <laugh> ɨ 
[287.855]
<no-speech> 
[288.665]
ɨ 
[289.115]
<no-speech> 
[290.275]
ɨ <no-speech> ɗ aː ŋ h ɔ h ɔ ɗ aʊ̪ ɹ oɪ̪ h aː <sta> <no-speech> h i 
[297.605]
<no-speech> 
[299.125]
<no-speech> m əɪ̪ 
[300.705]
<no-speech> 
[303.795]
ɨ 
[304.235]
<no-speech> 
[307.905]
<no-speech> ɨ <no-speech> l aː m ɟ i ɗ ɔ <no-speech> 
[310.035]
<no-speech> 
[311.005]
l aːɪ̪ h a ŋ w aː 
[312.155]
<no-speech> 
[314.185]
əː <breath> <int> 
[317.595]
<no-speech> 
[319.215]
ɨ <int> ɨ <int> tɕ i v ə ŋ l aʊ̪ ɣ e n ɛ ɓ ɨə̪ n aɪ̪ tɕ i ɓ iə̪ʊ̪ ɛ m k uə̪ tɕ i l aʊ̪ ɣ e n ɛ 
[326.385]
<no-speech> 
[329.875]
<int> ɨ <int> ɨ ɓ ɨə̪ n aɪ̪ x o ŋ t iə̪ k t iə̪ ŋ ɲ ɨ h oɪ̪ s ɨə̪ n ɨə̪ <int> 
[334.955]
<no-speech> 
[335.955]
ɨ 
[336.535]
<no-speech> 
[338.125]
uɪ̪ n ɛ ɓ aː tɕ i x əʊ̪ x i v ə ŋ ɲ ɨ h oɪ̪ s ɨə̪ h aɪ̪ <int> 
[341.905]
<no-speech> 
[345.235]
ɨ <int> ɨ ʂ aːʊ̪ th e th i t o k <int> 
[349.045]
<no-speech> 
[353.575]
<no-speech> 
[354.115]
<no-speech> 
[354.915]
<laugh> ɟ ə n ɓ ə k k ə ŋ ɗ əːɪ̪ ɹ oɪ̪ <breath> 
[360.605]
<no-speech> 
[361.865]
ɨ <int> 
[363.685]
<no-speech> 
[365.465]
ɨ <no-speech> 
[366.545]
<no-speech> 
[368.585]
l a m ɹ ɨə̪ tɕ ɨ <hes> k ɔ ɗ e ɟ aː ɲ ɗ ɨə̪ k ə k m o x o ŋ 
[371.005]
<no-speech> 
[372.625]
ɨ 
[373.475]
<no-speech> 
[376.905]
ɨ <no-speech> <lipsmack> l əʊ̪ w aː ɹ oɪ̪ tɕ a ŋ ɣ a p k i th u ɗ ɔ 
[383.285]
<no-speech> 
[384.945]
ɨ 
[385.535]
<no-speech> 
[386.985]
<no-speech> 
[387.535]
<no-speech> 
[388.505]
<no-speech> 
[391.065]
<no-speech> 
[393.295]
m əɪ̪ 
[393.935]
<no-speech> 
[396.265]
<sta> ɟ i ɹ ɨə̪ 
[397.175]
<no-speech> 
[399.485]
ɨ <no-speech> <sta> 
[400.895]
<no-speech> 
[401.815]
<no-speech> <sta> tʂ əːɪ̪ əːɪ̪ th əɪ̪ h ɔ tɕ u p a n k ɨə̪ɪ̪ ɹ oɪ̪ m ə n <hes> m uə̪ ŋ k ɨə̪ɪ̪ ɣ e 
[407.055]
<no-speech> 
[409.015]
<no-speech> 
[410.925]
<no-speech> 
[411.965]
ŋ aɪ̪ m aː o ŋ l e ŋ m aː o ŋ j o <hes> tɕ u p a n k ɨə̪ɪ̪ h əː k <no-speech> ɨ <no-speech> <laugh> j əːɪ̪ l aːɪ̪ ɛ m f aːɪ̪ tɕ u p 
[421.805]
k iə̪ʊ̪ tʂ ɨə̪ k ɹ oɪ̪ ɲ aː <no-speech> l əː ŋ ɹ oɪ̪ <no-speech> h a m l a m t uə̪ɪ̪ ɹ oɪ̪ <sta> 
[426.035]
<no-speech> 
[427.805]
<laugh> h əɪ̪ <laugh> tʂ əːɪ̪ <laugh> tɕ uɪə̪ ŋ ɲ ɨ l əɪ̪ tɕ ɔ h a ŋ ɗ əː ɣ iə̪ ŋ tɕ ɨ l əɪ̪ l əː k ɨə̪ɪ̪ ɹ ə m ɹ o m aː ɹ ə m aː 
[439.655]
<no-speech> 
[440.015]
<no-speech> 
[441.025]
<no-speech> 
[442.255]
<no-speech> 
[443.235]
ɨ <no-speech> <sta> ɗ i <no-speech> x o ŋ ɓ iə̪ k n ɔɪ̪ tɕ uɪə̪ ŋ tɕ i n ɨə̪ 
[448.965]
<no-speech> 
[450.435]
<no-speech> 
[450.935]
<no-speech> 
[452.395]
<int> h əɪ̪ <sta> <laugh> l ɔ k ɨə̪ɪ̪ tɕ ɨ ɗ ə n ɟ i 
[457.205]
<no-speech> 
[458.745]
h aː 
[459.895]
<no-speech> 
[461.825]
th i ɗ əɪ̪ <no-speech> ɛ m h oɪ̪ ɓ ɨə̪ uə̪ ŋ th uə̪ k x əː m aː h a ŋ k u ŋ x o ŋ m ə p l e ŋ m əː k ɣ e aː h ɛ 
[465.395]
<no-speech> 
[466.695]
<no-speech> 
[467.105]
<no-speech> 
[468.895]
ɟ i l aː m ɟ i k eʊ̪ 
[470.365]
<no-speech> 
[472.045]
l aː m j iə̪ k <hes> x o ŋ <hes> m ə p tɕ i h əː k 
[474.295]
<no-speech> 
[475.205]

[475.775]
<no-speech> 
[477.615]
tɕ i ɟ ɨ h aːɪ̪ m əːɪ̪ m ə p aː h aː <int> 
[479.235]
<no-speech> 
[481.105]
<int> h ɨ 
[481.535]
<no-speech> 
[483.845]
<int> ɨ <no-speech> <int> k əː w aː ŋ ɛ m th a ŋ ɗ ɨə̪ k n ɔ l aː m ɗ aː m k ɨə̪ɪ̪ ɹ oɪ̪ 
[487.335]
<no-speech> 
[488.475]
th ɨ n a m ɗ i ɗ aː m k ɨə̪ɪ̪ ɓ aː ɓ o ŋ ɗ ɨə̪ l uə̪ ŋ 
[490.215]
<no-speech> 
[491.945]
ɓ e ŋ <hes> ɓ aː ŋ t uɪə̪ ŋ ɟ aːʊ̪ 
[493.345]
<no-speech> 
[494.505]
ɨ 
[494.945]
<no-speech> 
[495.855]
ɓ ɛ w iə̪ ŋ n ɔ l aː m v a ŋ f ɔ ŋ n ɔ k u ŋ k ɨə̪ɪ̪ 
[497.645]
<no-speech> 
[498.765]
ɨ 
[499.205]
<no-speech> 
[500.085]
m aː t ə n <hes> k ɔ m o k th a ŋ ɓ aː ŋ t o tɕ ɨ k n ɨə̪ 
[502.925]
<no-speech> 
[505.125]
<int> ɨ ɨ <int> h əː k k əː w aː ŋ ɛ m ɗ i m əɪ̪ a n ɓ aː ŋ t o tɕ ɨ k ɗ ɛ p tʂ aːɪ̪ ɟ ɨ l a m 
[511.965]
<no-speech> 
[513.185]
<no-speech> 
[513.564875]
<no-speech> 
[516.965]
aːɪ̪ <int> tɕ ɨ ɟ əː n ɔ j e k eʊ̪ ɲ ɨ k w aː a n h aːɪ̪ j e tɕ əːɪ̪ th uə̪ k j o t ɨ 
[521.035]
<no-speech> 
[522.134875]
<no-speech> 
[523.615]
<no-speech> 
[525.495]
h aɪ̪ 
[526.055]
<no-speech> 
[528.525]
<int> tɕ a p m aː n ɔɪ̪ tɕ uɪə̪ ŋ ʂ aː ŋ h a ŋ tɕ ɔ m ɔ s oɪ̪ i i m ɔ s oɪ̪ l aːɪ̪ tɕ ɔ ɛ m h aɪ̪ <int> aː 
[534.015]
<no-speech> 
[534.835]
ɨ <int> 
[535.455]
<no-speech> 
[537.355]
<int> ɗ ɨə̪ t iə̪ ŋ m aː t iə̪ ŋ ɹ a ŋ n ɔ n e tɕ ɔ <int> ɗ aː m k ɨə̪ɪ̪ k ɔ m əɪ̪ k i ɗ aː m k ɨə̪ɪ̪ l ə ŋ <int> 
[547.155]
<no-speech> 
[548.835]
h ɨ <int> 
[549.765]
<no-speech> 
[551.405]
tɕ ɨə̪ <int> 
[552.155]
<no-speech> 
[554.055]
t ɨ h a ŋ k a k m aː 
[555.145]
<no-speech> 
[556.335]
əː n ɔɪ̪ t ɨ h a ŋ k a k <int> h aɪ̪ <int> əː t ɨ h a ŋ k a k h a ŋ k a k ɓ e ŋ ɛ m ɓ e ŋ tɕ i h a ŋ ɗ ɨə̪ tɕ ɔ k ɔ m oɪ̪ ʂ o ɟ i ɗ ɔ 
[564.675]
<no-speech> 
[565.605]
<int> ɨ 
[566.385]
<no-speech> 
[569.785]
<int> əː 
[570.585]
<no-speech> 
[571.755]
k i tɕ uɪə̪ ŋ ɗ ɔ k u ŋ n ɔɪ̪ n ɨə̪ <int> 
[573.485]
<no-speech> 
[574.505]
<no-speech> 
[575.165]
<no-speech> 
[576.515]
ɨ <int> <breath> m əɪ̪ ɟ əː ŋ u th ɨə̪ ŋ th ɨə̪ ŋ m ɨə̪ɪ̪ m o k ɟ əː m əɪ̪ 
[583.665]
<no-speech> 
[586.185]
m ɨə̪ɪ̪ m o k ɟ əː k ɛ m m ɨə̪ɪ̪ l a m h aɪ̪ 
[588.125]
<no-speech> 
[589.785]
m o k ɹ ɨə̪ɪ̪ 
[590.595]
<no-speech> 
[592.605]
<no-speech> th e k əː w aː ŋ tɕ i l aːɪ̪ ɟ əːɪ̪ h aː 
[594.695]
<no-speech> 
[597.375]
<laugh> j əɪ̪ tɕ ɔ ɗ ɨə̪ k aː 
[599.235]
<no-speech> 
[600.2]
