[0.0]
<no-speech> 
[0.335]
<no-speech> 
[0.705]
<no-speech> 
[2.575]
<no-speech> 
[3.235]
<no-speech> 
[4.085]
<sta> aː l o 
[4.935]
<no-speech> 
[7.455]
əː ɟ i n ɛ <laugh> əː <no-speech> j o ɗ əɪ̪ x ɔɛ x o ŋ 
[13.075]
<no-speech> 
[13.915]
<laugh> j əɪ̪ aː <no-speech> h oɪ̪ n aɪ̪ <hes> tʂ e ŋ ɗ əɪ̪ l aː m ɟ i ɗ əɪ̪ 
[18.505]
<no-speech> 
[19.815]
h oɪ̪ n aɪ̪ <no-speech> əː ɲ ɨ ŋ m aː tʂ e ŋ ɗ əɪ̪ ŋ i <hes> əɪ̪ ɹ oɪ̪ aː <no-speech> tʂ e ŋ <hes> ŋ i <hes> m i f ə m ɹ oɪ̪ aː 
[28.235]
<no-speech> 
[29.515]
ɨ <no-speech> th e m aː ɓ əɪ̪ ɟ əː l aː m k i ɟ i 
[31.775]
<no-speech> 
[34.125]
ɹ oɪ̪ ɓ ɨə̪ n aɪ̪ ɲ iə̪ʊ̪ t iə̪ ŋ th e <laugh> h o m n aːʊ̪ tɕ ɔ j aɪ̪ <laugh> ɟ əː ɓ aː ŋ h aː ŋ ɟ i a n t ɨ ɓ aː ŋ h aː ŋ ɓ aː ŋ th e m aː <no-speech> t iə̪ ŋ ɓ aː ŋ th e l aː a n t u 
[45.515]
<sta> aː tɕ i tʂ aː ŋ ɓ aː ŋ h aː ŋ ɟ i 
[49.465]
<no-speech> 
[50.545]
aː <no-speech> ɓ aː ɓ aː t ɨ ɗ e k e tɕ uɪə̪ ŋ ɗ əɪ̪ ɟ i 
[53.895]
<no-speech> 
[55.195]
<laugh> th e th i <hes> ɓ aː ŋ ɗ ɨə̪ k x o ŋ <no-speech> ɨ ɓ aː ŋ əː tʂ e ŋ f o n aːʊ̪ 
[61.445]
<no-speech> 
[63.595]
ɨ th i m ɲ aː ŋ ɓ aː ɓ aː ŋ ɗ ɨə̪ k x o ŋ 
[65.154875]
<no-speech> 
[66.195]
<no-speech> 
[66.575]
<no-speech> 
[67.385]
th e aː ɨ m uə̪ n aɪ̪ th i <hes> ʂ aː ŋ ɗ i l aː m w ə n ɲ ə k th i v ə ŋ ɓ aː ŋ ɗ ɨə̪ k ɗ u ŋ x o ŋ <no-speech> 
[72.665]
<no-speech> 
[74.245]
ɨ ə k n ɨə̪ n ɔ ŋ n ɔ ŋ <no-speech> ɲ ɨ ŋ m aː n ɔ ŋ th i l əʊ̪ tɕ aːʊ̪ k uə̪ v ə ŋ ɓ aː ŋ ɗ ɨə̪ k ɗ u ŋ x o ŋ <no-speech> j əɪ̪ aː <no-speech> ɨ ɟ əː l aː m ɟ i əː tʂ e ŋ ɗ əɪ̪ tɕ i th u t iə̪ ŋ th oɪ̪ h aɪ̪ l aː l aː m w aː ŋ l i 
[84.585]
<no-speech> 
[86.315]
ɓ aːʊ̪ s ɛ m k ɔ ŋ k i tɕ ə ŋ n aːʊ̪ x o ŋ tɕ ɔ s i ŋ tɕ ɔ tɕ i j əːɪ̪ 
[90.225]
<no-speech> 
[91.425]
<laugh> əː th ə k <no-speech> tɕ uə̪ ŋ ɓ i th ə k ŋ iə̪ p ɗ e ŋ n əːɪ̪ ɹ oɪ̪ 
[95.315]
<no-speech> 
[96.135]
əː tɕ uə̪ ŋ ɓ i l aː m ɟ i k ɔ j iə̪ k l aː m <no-speech> ɗ aː ŋ h ɔɪ̪ s ɛ m k ɔ tɕ o n aːʊ̪ l aː m l aː m tɕ ɔ s i ŋ tɕ ɔ tɕ i j əːɪ̪ 
[103.955]
<no-speech> 
[105.785]
ɗ əʊ̪ th i v ə ŋ <hes> ɗ i f aː k ɓ i k s i ɗ əɪ̪ 
[108.835]
<no-speech> 
[109.775]
v ə ŋ ɗ i f aː k ɓ i k s i <no-speech> ɗ aː ŋ n aɪ̪ <no-speech> ɓ iə̪ k t i ŋ ɟ i tɕ ɨə̪ 
[113.545]
<no-speech> 
[114.865]
t i ŋ ɟ i w ə n ʂ a p l əɪ̪ j əː ɹ oɪ̪ <no-speech> ɨ <no-speech> ɗ a ŋ t ɨ n aɪ̪ k ɨ <no-speech> h aː <no-speech> ɗ aː ŋ tɕ uə̪ ŋ ɓ i <no-speech> əː tɕ a ŋ ɓ iə̪ k ɗ ɨə̪ k k ɔ ŋ ɨə̪ɪ̪ x o ŋ 
[125.355]
l əɪ̪ j əː əː əː ɗ aːɪ̪ ɓ aː əɪ̪ w e ɲ aː tɕ i <int> 
[130.795]
<no-speech> 
[131.645]
əː oɪ̪ tʂ əːɪ̪ əːɪ̪ x o ŋ ɓ iə̪ k th i th oɪ̪ ɲ ɛ <no-speech> k i h o m <hes> ɗ əʊ̪ n a m tɕ a ŋ ɓ iə̪ k k ɔ ɓ aː <laugh> th a ŋ t ə m j e ɗ aː m k ɨə̪ɪ̪ əɪ̪ th e l aː m əːɪ̪ m əːɪ̪ ɓ aːʊ̪ l aː k u ŋ k ɔ m o k ɗ ɨə̪ tɕ aʊ̪ əː 
[143.095]
w e ɗ əɪ̪ <no-speech> th e l aː s ɔ ŋ ɹ oɪ̪ <no-speech> k u ŋ ɗ ɨə̪ k h o m n ɔ l aː ɹ aː ɗ əɪ̪ ɹ oɪ̪ <no-speech> th i <hes> k u ŋ ɗ ɨə̪ k <no-speech> m ɛ tɕ i ɹ aː 
[151.835]
<no-speech> 
[153.965]
ɨ <no-speech> ɲ ɨ ŋ m aː x o ŋ h iə̪ʊ̪ l aː m ʂ aːʊ̪ j u n aɪ̪ l aːɪ̪ th a n <laugh> ɲ ɨ ŋ j u tʂ ɨə̪ k k u ŋ l aː m <laugh> ɨ ɨ l aː m <hes> m ɛ m ɛ tɕ i k eʊ̪ oɪ̪ tʂ əːɪ̪ əːɪ̪ 
[165.755]
ɓ aːʊ̪ tɕ ɨ k ɨə̪ɪ̪ t ɨ t ɨ tɕ ɨ l aː m ɟ i m aː l ɔ j əɪ̪ ɗ ɛ p tʂ aːɪ̪ ŋ əːɪ̪ ŋ əːɪ̪ k o ŋ a ŋ j iə̪ k l aː m o ŋ ɗ ə n l aːɪ̪ k ɔ ŋ k ɨ ʂ əː l ɔ l əɪ̪ j əː <no-speech> ɹ aː s ɔ ŋ l aːɪ̪ k ɔ ŋ k ɨ ɓ aːʊ̪ tɕ ɨ th oɪ̪ k ɨə̪ɪ̪ l uə̪ ŋ s ɔ ŋ th a ŋ h aːɪ̪ ɓ aːʊ̪ tɕ ɨ <no-speech> th a ŋ h aːɪ̪ j ɨə̪ m əːɪ̪ w ɛ ŋ s ɔ ŋ <laugh> 
[177.555]
ɨ th a ŋ h aːɪ̪ ɓ aːʊ̪ tɕ ɨ j ɨə̪ m əːɪ̪ ɹ aː m a k ɗ o x ɔaː ŋ t ɨ ɗ əʊ̪ th aː ŋ t əːɪ̪ k uə̪ɪ̪ th aː ŋ <laugh> k ɨə̪ɪ̪ aːɪ̪ ŋ ɨə̪ɪ̪ t aː tɕ ɔ k ɨə̪ɪ̪ 
[184.965]
<no-speech> 
[186.495]
k u ŋ h aːɪ̪ ʂ i ɲ n a m t aː m <no-speech> t aː m n a m h aɪ̪ t aː m ʂ aʊ̪ m aː k u ŋ ɨ ɨ k ɛ m m əɪ̪ t uə̪ɪ̪ <no-speech> ɲ ɨ ŋ m aː m aː k iə̪ʊ̪ k ɔ ŋ ɣ aːɪ̪ əː w e ɲ ɨ th e k iə̪ʊ̪ ɲ ɨ l aː əɪ̪ ɹ oɪ̪ 
[197.965]
k ɔ ŋ ɣ aːɪ̪ əː w e ɲ ɨ th e l aː ɨ ɲ ɨ ŋ m aː n ɔ k iə̪ʊ̪ k u ŋ l aː m ɗ əʊ̪ <no-speech> n ɔ k u ŋ <no-speech> <no-speech> ɨ th i ɓ aːʊ̪ th i th oɪ̪ k u ŋ ɗ ɨə̪ k th e l aː s ɔ ŋ ɓ uə̪ ŋ k ɨə̪ɪ̪ k i l aː m ɛ tɕ i 
[208.105]
<no-speech> 
[209.905]
x o ŋ th əɪ̪ <hes> th əɪ̪ ɗ əʊ̪ 
[212.305]
<no-speech> 
[213.145]
n ɔ <hes> m əː k ɨə̪ h aː ŋ əː w e ɹ oɪ̪ <no-speech> th e m ɛ tɕ i k eʊ̪ ɗ i h ɔ k <hes> 
[217.795]
<no-speech> 
[219.255]
ɨ k eʊ̪ l aː ɗ i h ɔ k m əɪ̪ tɕ u k tʂ iə̪ʊ̪ k i l aː j e m əː k ɨə̪ h aː ŋ əː w e tɕ a ŋ h aː ŋ k ɔ h aːɪ̪ tɕ i ɛ m ɣ aːɪ̪ ɗ o n ɔ l aː m ɗ ɔ m aː 
[225.465]
<no-speech> 
[227.605]
ɨ ɲ ɨ ŋ <no-speech> ɗ əɪ̪ ɲ ɨ ŋ m aː ʂ əː l aː əː ŋ oaɪ̪ ɗ a ŋ ɲ aː tɕ i əɪ̪ k ɔ m o k k i <hes> k i ɲ aː ɗ əɪ̪ n ɔ k u ŋ l aː m ɗ əʊ̪ m aː n ɔ l aː m l əʊ̪ ɹ oɪ̪ th i ʂ əː ɲ aː ɲ aː m ə n x o ŋ <hes> x o ŋ əɪ̪ ɗ ɨə̪ k ɓ aːʊ̪ 
[239.215]
th oɪ̪ 
[239.935]
<no-speech> 
[240.965]
ɨ ɗ əɪ̪ th i ɓ aːʊ̪ th oɪ̪ k e l o k a ŋ ɹ oɪ̪ ɗ əɪ̪ h ɨə̪ ŋ k ɨ m əː <hes> m əː ɹ aː th i <hes> aːɪ̪ əɪ̪ th i ɟ i ɗ u ŋ x o ŋ <no-speech> aːɪ̪ ɗ ɨə̪ k th i 
[250.195]
<no-speech> 
[252.635]
ɨ ɗ əɪ̪ <no-speech> ɗ əɪ̪ th e th a n ɹ aː ɓ aːʊ̪ th oɪ̪ k e ɹ aː ɗ əɪ̪ ɲ əː x i <hes> m o k l aː k a n tʂ a n ɟ aː k aː m aː h aːɪ̪ l aː k a n tʂ a n ɓ a ŋ k ɔɪ̪ ɲ ɨ l aː k iə̪ʊ̪ ɲ ɨ <no-speech> ɲ aː k iə̪ ɣ oɪ̪ ɗ əʊ̪ <no-speech> ɲ aː k iə̪ ɣ oɪ̪ ɗ əʊ̪ tɕ aː ŋ l a m 
[264.075]
ɗ ɔ k iə̪ʊ̪ ɲ ɨ <no-speech> ɨ <no-speech> k i ɗ əː k n aɪ̪ 
[268.185]
<no-speech> 
[269.225]
ɨ k i ɗ əː k j ɨə̪ ɹ oɪ̪ tɕ i k ɨ t ɨə̪ ŋ l aː l aː tɕ i ʂ aː ŋ ɣ oɪ̪ ɗ e th ɨ s ɛ m ɓ aːʊ̪ k ɔɪ̪ ɲ ɨ ɓ aːʊ̪ ɲ iə̪ʊ̪ n a m m ə n j e <no-speech> t ɨ ŋ aɪ̪ l əɪ̪ tɕ o ŋ ɹ oɪ̪ ɗ əɪ̪ ɗ e ŋ ɗ əː k j ɨə̪ ɹ oɪ̪ m ə n k a k t ɔ k j əːɪ̪ k aː th ɨ <no-speech> th e l aː k i l ə ŋ ɗ əʊ̪ t iə̪ ŋ m ə n k a k 
[280.855]
k ɔ ŋ ɗ ɛ p <no-speech> t əːɪ̪ l ə ŋ th ɨ h aːɪ̪ k a k <laugh> ɨ <no-speech> h o m ɗ e ŋ h o m ɣ ə ŋ t əː k k a k l aːɪ̪ aːʊ̪ ɨ h o m w aː t əː k tɕ i k a k l aːɪ̪ ɗ əː k n aɪ̪ tɕ aː ŋ əːɪ̪ tɕ aː ŋ <no-speech> th e l aː ɓ aːʊ̪ tɕ ɨ uɪ̪ 
[292.525]
tʂ əːɪ̪ əːɪ̪ m aː ɣ oɪ̪ ɗ əʊ̪ th i k ɔ ŋ k ɨ ɲ aːʊ̪ ɲ aʊ̪ ɗ ɔ tɕ ɨ <no-speech> n ɔ l aː k i <hes> k ɔ k i k ɔ ŋ k ɔ k ɔ ŋ tɕ aʊ̪ ɗ ɔ əɪ̪ tʂ əːɪ̪ əːɪ̪ ɣ oɪ̪ ɗ əʊ̪ tɕ aː ŋ l a m 
[299.295]
<no-speech> 
[301.725]
ɨ <no-speech> ɣ oɪ̪ m aː f aːɪ̪ th ə c <no-speech> ɣ oɪ̪ f aːɪ̪ th ə c tɕ ɨ m ə n ɓ aːʊ̪ x i m ə n ɣ oɪ̪ k ɔ ŋ th ə c h əː ŋ k aː n ɔ ɣ oɪ̪ <laugh> 
[309.705]
<no-speech> 
[310.785]
ɨ n ɔ <hes> n ɔ ɣ aːɪ̪ th i m ə n x o ŋ n ɔɪ̪ ɹ oɪ̪ ɲ ɨ ŋ m aː k iə̪ʊ̪ ɟ aː ŋ k i k a t ɣ oɪ̪ əɪ̪ m ə n k iə̪ʊ̪ k aː m th əɪ̪ n ɔ x o ŋ ʂ aː c ʂ ɛ <no-speech> m ə n ʂ aː ŋ <hes> 
[322.675]
<no-speech> 
[322.825]
<no-speech> 
[324.575]
ɨ <no-speech> m aː m ə n k iə̪ʊ̪ ɟ aː ŋ ɹ a ŋ n ɔ f aːɪ̪ ɗ ɨə̪ h əː k k i <hes> ɗ ɨə̪ ŋ <hes> ɗ ɨə̪ ŋ <hes> k aː k k i ɗ ɨə̪ ŋ əː ɟ ɨə̪ɪ̪ əɪ̪ <no-speech> m ə n k aː m th əɪ̪ ɗ əʊ̪ m ə n ʂ a p 
[336.155]
h ɔ ŋ <laugh> m ə n k aː m ɟ aː k ɲ ɨ k iə̪ʊ̪ l aː x o ŋ n ɔ l aː x o ŋ ɗ e ŋ h əː k k i tɕ o ɗ ɔaː ŋ əː ɟ ɨə̪ɪ̪ ɣ aɪ̪ k uə̪ m ə n əɪ̪ <no-speech> ɗ əɪ̪ <no-speech> ɗ əɪ̪ ɓ aːʊ̪ tɕ ɨ uɪ̪ tʂ əːɪ̪ əːɪ̪ ɲ aː m ə n aː j əː tɕ u w ə n m aː m əː ɹ aː 
[348.125]
k ɨ <hes> k ɔɪ̪ ɲ ɨ ʂ aː c ʂ ɛ th i k ɔɪ̪ ɲ ɨ l aː k u ŋ v ə ŋ ɗ ɔ ɲ aː ɗ əɪ̪ ɣ oɪ̪ tɕ aː ŋ l a m n ɔ k iə̪ʊ̪ ɲ ɨ <no-speech> n ɔ tɕ i ɹ ɛ th oɪ̪ ʂ ɔ j əːɪ̪ m əɪ̪ ɲ aː w a n w a n ɗ əɪ̪ <no-speech> th i ɲ aː ɗ əɪ̪ n ɔ ɹ ɛ <no-speech> n ɔ tɕ i ɹ ɛ h əː ŋ m o k 
[358.815]
t i th oɪ̪ ɲ ɨ ŋ m aː k iə̪ʊ̪ ŋ ɨə̪ɪ̪ t aː k iə̪ʊ̪ k ɨ th ə c əɪ̪ m aː n ɔ k iə̪ʊ̪ l aː m k iə̪ʊ̪ <no-speech> n ɔɪ̪ tɕ u ŋ l aː k u ŋ ɗ ɨə̪ k 
[363.475]
<no-speech> 
[364.815]
ɨ <no-speech> x o ŋ ɲ aː ɗ əɪ̪ th i n ɔ t ə n tɕ a ŋ m a k t iə̪ ŋ k ɨə̪ h aː ŋ h ɔ k u ŋ l əɪ̪ tɕ o ŋ k i ɲ aː ŋ aɪ̪ ʂ aː k ɲ aː tɕ i ɗ əɪ̪ m aː k u ŋ ɗ ɨə̪ k f əː k <no-speech> ɗ o ŋ <hes> l a m n ɔ l əɪ̪ k aː ŋ ŋ aɪ̪ n ɔ l aː m k aː ŋ ɗ o ŋ m aː 
[375.855]
ɨ <hes> th i t ə k ɲ iə̪ ŋ m ə n m əː th i k u ŋ k a n tʂ a n 
[379.585]
<no-speech> 
[381.335]
ɗ u ŋ ɹ oɪ̪ t aːɪ̪ j i l aː ɓ aːʊ̪ ɟ əː h aː ŋ m əːɪ̪ m əː ŋ ɨə̪ɪ̪ t aː k u ŋ tɕ a ŋ ŋ ɨə̪ɪ̪ t aː ɓ aːʊ̪ ɟ əː k u ŋ tɕ a ŋ f aːɪ̪ ɓ aː ŋ th ɨ ɗ u ŋ x o ŋ <no-speech> ɲ ɨ əː k i tɕ o ɲ aː tɕ i k ɔ m o k k i h aː ŋ ɲ ɛ ɗ əː k tʂ ɨə̪ k ɲ ɛ k i h aː ŋ ɲ aː ɗ əɪ̪ m əː th i j a ŋ l a m <no-speech> m aː ɗ e ŋ 
[392.505]
m aː ɓ aː ŋ ɟ aːʊ̪ l aːɪ̪ k iə̪ʊ̪ ɲ ɨ tɕ ɔ ŋ ɨə̪ɪ̪ x aː k <hes> th u̪e əɪ̪ <no-speech> k iə̪ʊ̪ k u ŋ <hes> k i tɕ i ɗ əɪ̪ k u ŋ l aː m ɗ əʊ̪ <no-speech> m aː ɲ ɛ k a k t ɔ k th i l əʊ̪ oɪ̪ th oɪ̪ ɗ ɨ ŋ h ɔɪ̪ tɕ i k a k ɗ ɨə̪ k k ɔ m oɪ̪ k i m aːɪ̪ ɓ a ŋ th oɪ̪ m aː 
[404.445]
n ɔ ŋ oɪ̪ m ə ŋ m e tɕ i n ɨə̪ t iə̪ ŋ ɗ o ŋ h o m əːɪ̪ s ɔ ŋ ɗ ɨə̪ k k i m aːɪ̪ <laugh> ɲ ɨ ŋ m aː n ɔ ɣ oɪ̪ ɗ əʊ̪ th i k ɨ k k i th ə c l uə̪ ŋ <no-speech> n ɔ ɣ oɪ̪ ɗ əʊ̪ ɨ <no-speech> n ɔ ɣ oɪ̪ ɗ əʊ̪ ʂ aː c m aː k i m aː th ə c k ɨ k 
[416.355]
k aː ɹ ɨə̪ m a k ɹ ɨə̪ m iə̪ k th i n ɔ l aː m ʂ aː c l a m <no-speech> m oɪ̪ t oɪ̪ k a k t ɔ k tɕ aː ŋ <laugh> m ə n ɓ aːʊ̪ ɹ aː h aː ŋ ɗ əɪ̪ ɣ oɪ̪ ɗ əʊ̪ th i ɗ ɨə̪ k m aː k a k t ɔ k th i x o ŋ x o ŋ l ə ŋ n aːʊ̪ tɕ i ʂ aː ŋ ɗ əɪ̪ n ɨə̪ <no-speech> ɗ u ŋ l aː l ə ŋ ɟ uːɪ̪ ɲ ə k <no-speech> ɗ əɪ̪ ʂ aː ŋ h o m h ə p 
[428.085]
ɗ əɪ̪ <no-speech> ɣ oɪ̪ ɗ əʊ̪ l aː ɣ oɪ̪ k i l a m ɗ e ŋ n oɪ̪ aː m ə n k ɔ ŋ k aː m th əɪ̪ ʂ o k ɹ uə̪ k ɗ əɪ̪ <no-speech> n ɔ ɣ oɪ̪ ɗ e ŋ n ɨə̪ t iə̪ ŋ ɗ o ŋ h o <laugh> 
[435.625]
<no-speech> 
[437.835]
ɨ <no-speech> k o ŋ ɲ ə ŋ l aː j e ʂ aʊ̪ 
[439.955]
<no-speech> 
[442.725]
ɨ 
[445.185]
<no-speech> 
[447.005]
ɨ <no-speech> th e k ɔ ŋ ɗ əʊ̪ k aː k h aː ŋ x aː k ɓ əɪ̪ ɟ əː <hes> th i <hes> h aːɪ̪ m ɨə̪ɪ̪ f u k k ɔ ŋ ɗ əʊ̪ l aː th a n k iə̪ʊ̪ ɲ ɨ uə̪ ŋ s ɔa ŋ uə̪ ŋ s iə̪ k əɪ̪ <no-speech> ɲ ɨ ŋ k i n aːʊ̪ m aː l aː m ɗ ɨə̪ k k iə̪ʊ̪ əɪ̪ l aː ɗ o ŋ x aː k ɗ u ŋ x o ŋ 
[458.455]
tɕ ɨ k ɔ ŋ <hes> ɗ əʊ̪ th i th i th aː ŋ th aː ŋ t ɨ l aː k ɨ ɓ uə̪ ŋ k ɨə̪ɪ̪ <no-speech> m ɛ tɕ i ɨ th aː ŋ t ɨ əː w e k ɔ ŋ k ɨ ɓ aːʊ̪ tɕ ɨ ʂ aːʊ̪ th aː ŋ 
[469.105]
t ɨ ɟ ɨ <no-speech> ɟ ɨ ɟ i n a ŋ tɕ əː k ɗ i ɗ ɨə̪ k əɪ̪ <no-speech> n a ŋ əːɪ̪ l aː n a ŋ <no-speech> əː ɟ ɨ ɟ ə k <no-speech> m aː ŋ ɨə̪ɪ̪ th i ɓ aːʊ̪ l aː ɟ ɨ ɟ ə k <no-speech> ɲ ɨ ŋ m aː ɓ aːʊ̪ k ɨ th aː ŋ 
[479.715]
t ɨ n a ŋ l a m l aː m th e th i <hes> l aː th i aː <hes> m ɔɪ̪ ŋ ɨə̪ɪ̪ m əː k <no-speech> ɨ 
[485.575]
<no-speech> 
[487.245]
m ə n <hes> m ə n l aː m v ə k j aː j e ʂ aʊ̪ k əː ɗ i <hes> m aː tɕ i ɗ i s ɛ m th i ɗ ɨə̪ k k ɔ th aː ŋ <no-speech> ɹ oɪ̪ th i tɕ i k ɔ m oɪ̪ th aː ŋ t ɨ th oɪ̪ t aːɪ̪ j i ŋ eʊ̪ m aː t ə n ɹ aː t uə̪ɪ̪ th i <hes> l aːɪ̪ l aː <hes> k iə̪ʊ̪ ɓ i 
[499.155]
t uə̪ɪ̪ <hes> 
[499.895]
<no-speech> 
[500.895]
ɨ x o ŋ ɲ ɨ ŋ m aː <no-speech> t aːɪ̪ j i l aː t uə̪ɪ̪ t uə̪ɪ̪ tɕ i ɟ i ɲ aː <no-speech> k iə̪ʊ̪ n a m k ə n l əʊ̪ <no-speech> n a m <hes> ɨ t ə n l aː n a m k ə n l əʊ̪ ɗ əɪ̪ 
[510.255]
ɨ ɲ ɨ ŋ m aː ɓ əɪ̪ ɟ əː ɓ aː ɗ aː ŋ m uə̪ ŋ k ɨə̪ɪ̪ ɲ a n <laugh> ɲ ɨ ŋ m aː v ə ŋ v ə ŋ s ɛ m ɨ <no-speech> k eʊ̪ v ə ŋ v ə ŋ s ɛ m ɗ ɨə̪ k ŋ aɪ̪ 
[518.755]
<no-speech> 
[519.595]
v ə ŋ s ɛ m ɗ ɨə̪ k tɕ i k ɔ m oɪ̪ k i th aː ŋ t ɨ ɗ əɪ̪ th oɪ̪ <no-speech> s ɔ ŋ l aːɪ̪ k ɔ ŋ a ŋ h ɔɪ̪ m aː ɓ uə̪ ŋ k ɨə̪ɪ̪ əː w e th i ŋ ɨə̪ɪ̪ t aː ɓ aːʊ̪ l aː 
[526.075]
<no-speech> 
[526.935]
ŋ ɨə̪ɪ̪ t aː x o ŋ a ŋ h ɔɪ̪ ɲ ɨ k iə̪ʊ̪ ŋ oaɪ̪ m ə n <no-speech> m aː ŋ ɨə̪ɪ̪ t aː tɕ i k ɔ h o m tʂ ɨə̪ k ŋ aɪ̪ k ɨə̪ɪ̪ əɪ̪ th i ŋ ɨə̪ɪ̪ t aː a ŋ h ɔɪ̪ <hes> ɨ ŋ ɨə̪ɪ̪ t aː <no-speech> ɗ əɪ̪ ŋ ɨə̪ɪ̪ t aː tɕ i k ə ŋ m o k ə k tʂ əʊ̪ k aʊ̪ n aɪ̪ 
[538.455]
k ɔ ŋ ɗ əʊ̪ l əː ŋ t iə̪ ŋ l əː ŋ th a t k ɨə̪ɪ̪ th i ɓ aːʊ̪ <no-speech> ɗ e ɗ e m ɹ oɪ̪ th i l aː m əːɪ̪ əɪ̪ <no-speech> tɕ ɨ k ɔ ŋ 
[545.855]
<no-speech> 
[547.815]
n a m n a m m ɨə̪ɪ̪ k ə ŋ l əː ŋ j əːɪ̪ k aː h aːɪ̪ m ɨə̪ɪ̪ l a m l ə k s i ɟ əʊ̪ <no-speech> j əːɪ̪ k aː 
[552.805]
<no-speech> 
[553.625]
th əɪ̪ m ɛ tɕ i k eʊ̪ m əɪ̪ tʂ iə̪ʊ̪ əɪ̪ l əː ŋ əː w e l əʊ̪ l əː ŋ h əː ŋ t ə n ɗ əʊ̪ ɓ aɪ̪ <no-speech> ɓ aɪ̪ m ɨə̪ɪ̪ ɨ ɓ aː <no-speech> ɓ aː tʂ iə̪ʊ̪ ɹ ɨə̪ɪ̪ k u ŋ <no-speech> th i <hes> ɗ o <no-speech> əː ɗ ɔ h əː k ɹ oɪ̪ ɗ ɔ 
[565.455]
t iə̪ ŋ l e ɗ ɛ ŋ k ɔ ŋ ɗ əʊ̪ ŋ ɨə̪ɪ̪ t aː tɕ i ɓ aːʊ̪ m o k ə k <hes> tʂ əʊ̪ k aʊ̪ n ɨə̪ l aː s ɔ ŋ th oɪ̪ <no-speech> ɲ ɨ ŋ m aː m ɛ tɕ i th i k ɨ l aːɪ̪ th ə c k iə̪ʊ̪ əɪ̪ m aː ŋ ɨə̪ɪ̪ t aː ɓ aːʊ̪ tɕ ɨ l aː ŋ eʊ̪ m aː m aː ŋ j aːʊ̪ ɲ iə̪ʊ̪ ɲ ɨ th e th i ŋ ɨə̪ɪ̪ t aː k u ŋ x o ŋ ɗ i tɕ iə̪ m aː ɗ e 
[576.195]
th ɨə̪ ŋ k aː k k u th i n ɔ f i ɹ aː əɪ̪ <no-speech> th i n ɔ ɲ iə̪ʊ̪ <hes> ɲ iə̪ʊ̪ ɲ ɨ <no-speech> ŋ ɨə̪ɪ̪ t aː ɓ aːʊ̪ l aː t aːɪ̪ j i l aː tɕ i k ɔ h o m tʂ ɨə̪ k a ŋ <no-speech> k e k aː m ə n k ɔ a ŋ h ɔɪ̪ tʂ ɨə̪ k ɲ ɨ əː ŋ oaɪ̪ n aɪ̪ n aɪ̪ <no-speech> th i ŋ ɨə̪ɪ̪ t aː k u ŋ x o ŋ ɗ i tɕ iə̪ 
[588.155]
əː w e l aː k iə̪ʊ̪ k ɨ h o m tʂ ɨə̪ k ŋ aɪ̪ k ɨə̪ɪ̪ th i l aː k ɔɪ̪ ɲ ɨ k aː k k u ɗ e ŋ a ŋ k o əɪ̪ th i k ɔɪ̪ ɲ ɨ tɕ iə̪ tɕ ɔ k aː k k u ɗ ɨə̪ k k i ɓ a n k uə̪ ŋ j aː w aː k aʊ̪ <no-speech> ɹ oɪ̪ a ŋ s ɔ ŋ th i l aː <hes> k aː k k u th e m k i ɓ a n k uə̪ ŋ j aː w aː k aʊ̪ th oɪ̪ 
[599.98]
