[0.0]
<no-speech> 
[6.735]
<no-speech> aː l o 
[7.475]
<no-speech> 
[8.525]
<no-speech> ɨ a n n aɪ̪ 
[10.405]
<no-speech> 
[13.135]
ɨ a n v ə ŋ x ɔɛ <no-speech> k ɔ ŋ ɛ m th e n aːʊ̪ 
[15.705]
<no-speech> 
[17.935]
<no-speech> 
[18.285]
<no-speech> 
[19.275]
<no-speech> ɨ tʂ ɔ ŋ k o ŋ j iə̪ k v ə ŋ o ŋ 
[22.335]
<no-speech> 
[23.885]
<no-speech> ɨ 
[24.365]
<no-speech> 
[25.825]
<no-speech> ɨ t o k ɹ oɪ̪ a n ɓ ɨə̪ h o m n ɔ s uə̪ ŋ th a m ɓ aː <hes> ɓ aː m əːɪ̪ j aːʊ̪ s uə̪ ŋ m o k ŋ aɪ̪ s ɔ ŋ k i ɓ ɨə̪ k a t h aːɪ̪ ŋ aɪ̪ ʂ aʊ̪ s uə̪ ŋ t iə̪ p m o k ŋ aɪ̪ n ɨə̪ 
[33.945]
<no-speech> 
[36.195]
<no-speech> ɨ 
[36.825]
<no-speech> 
[39.795]
ɨ m o k m ə n a n th oɪ̪ ɓ aː ŋ ɣ aːɪ̪ ɲ aː s aː l a m 
[42.345]
<no-speech> 
[43.725]
<no-speech> 
[44.715]
<no-speech> 
[45.935]
<no-speech> k ɔ t ɨ t ɨ ɗ e m aːɪ̪ m o k a n th a t ɛ m k ɨə̪ɪ̪ j əː ɟ ə n s uə̪ ŋ l uə̪ ŋ ɟ əːɪ̪ th iə̪ʊ̪ l uə̪ ŋ 
[51.345]
<no-speech> 
[52.895]
<no-speech> ɨ 
[53.755]
<no-speech> 
[56.645]
<no-speech> 
[57.485]
<no-speech> 
[58.995]
a n th a t l aː t əːɪ̪ h aːɪ̪ m ɨə̪ɪ̪ th aː ŋ n a m <no-speech> ə m l ə c 
[62.205]
<no-speech> 
[64.464875]
<no-speech> ɨ 
[65.005]
<no-speech> 
[66.605]
<no-speech> 
[67.415]
<no-speech> 
[69.425]
th i l u k ɗ ɔ l aː m əː j əːɪ̪ m əː j aːʊ̪ tɕ a k th a ŋ ŋ ɔ n ɨə̪ x o ŋ ɓ iə̪ k th a ŋ ŋ ɔ k ɔ j aːʊ̪ ɗ ɨə̪ k x o ŋ 
[74.815]
<no-speech> 
[77.845]
<no-speech> n ɔɪ̪ tɕ u ŋ n ɔ h ɔ k th i s ɔ ŋ ɹ oɪ̪ ɓ əɪ̪ ɟ əː n ɔ m əːɪ̪ tɕ uə̪ ŋ ɓ i m əː ɲ aː h aː ŋ h u ŋ v o ŋ m əː ɲ aː h aː ŋ j əːɪ̪ o ŋ tɕ u ŋ oaɪ̪ ɗ ɔ ɗ əɪ̪ 
[85.005]
<no-speech> 
[87.695]
<no-speech> ɨ 
[88.515]
<no-speech> 
[90.815]
ɨ l aː m t aːɪ̪ tɕ o ɹ aː tʂ ɨə̪ ŋ l aː m l uə̪ ŋ k i w aː ŋ n ɔ l aː m ɟ əː m əː j o tɕ u ŋ th e m v o ŋ əː k əʊ̪ ɟ əɪ̪ aː th e m m o k ɲ aː h aː ŋ n ɨə̪ <no-speech> ɗ e l aː m ɹ iə̪ ŋ 
[98.045]
<no-speech> 
[103.945]
th i ŋ ɨə̪ɪ̪ t aː tɕ i tɕ ɔ m ə n ɗ ɨə̪ k n a m f ə ŋ tʂ a m th oɪ̪ 
[106.045]
<no-speech> 
[108.235]
<no-speech> <sta> ɨ <laugh> n a m f ə ŋ tʂ a m th oɪ̪ k u ŋ j ɨə̪ l aː m m aː j ɨə̪ j ɨə̪ l aː m k o ŋ m aː j ɨə̪ l aː m əɪ̪ l uə̪ ŋ ɹ oɪ̪ tɕ u w aː ŋ l uə̪ ŋ tɕ ɨ ɗ əʊ̪ tɕ ɔ ɣ ɔ p ɲ iə̪ʊ̪ ɗ əʊ̪ 
[117.145]
<no-speech> 
[119.205]
<no-speech> ɨ 
[119.815]
<no-speech> 
[123.155]
<int> <no-speech> ɗ aː ŋ k ɔ ŋ h ɔ k ŋ oaɪ̪ ɗ ɔ m aː ɗ aː s ɔ ŋ ɗ əʊ̪ 
[127.655]
<no-speech> 
[130.535]
n ɔ x o ŋ n ɔ h ɔ k tɕ ɨə̪ s ɔ ŋ h əː k n a m n aɪ̪ th i f aːɪ̪ h əː k n a m n aɪ̪ n ɨə̪ m əːɪ̪ s ɔ ŋ tɕ ɨ j i n ɔ k u ŋ <hes> k ɔ ŋ h ɔ k l e ŋ l e ŋ th o ŋ l iə̪ ŋ th o ŋ l e ŋ th i tɕ ɨə̪ ɓ iə̪ k 
[138.305]
<no-speech> 
[140.145]
<int> <no-speech> ɨ 
[141.265]
<no-speech> 
[142.215]
<no-speech> 
[142.785]
<no-speech> 
[144.555]
<no-speech> 
[144.985]
<no-speech> 
[147.425]
ɗ aː ŋ h ɔ k m aː l ɔ ɟ i k ɨə̪ɪ̪ j əː k ɨ ɗ e t ɨ t ɨ tɕ ɨ 
[150.655]
<no-speech> 
[151.765]
<no-speech> 
[152.795]
<no-speech> 
[157.765]
<laugh> <no-speech> a n a n h ɔ k ɔ ŋ n ɔɪ̪ ɲ ɨ j əɪ̪ tɕ ɨ h uə̪ ŋ tɕ i l aː ɛ m k eʊ̪ h o m tʂ ɨə̪ k a n j e a n ɗ aː k eʊ̪ l aː a n m aː x o ŋ k ɨə̪ɪ̪ l aː ɛ m k ɨə̪ɪ̪ tʂ ɨə̪ k ɗ əɪ̪ <no-speech> 
[165.835]
<no-speech> 
[167.785]
<no-speech> <laugh> ɨ 
[168.995]
<no-speech> 
[175.595]
<laugh> <no-speech> ɨ n ɔ n ɔ ɟ əː t uɪ̪ n ɔ m aʊ̪ l a m ɹ oɪ̪ th a ŋ ɟ o n ɟ ə p l e ŋ ɹ oɪ̪ <no-speech> l əʊ̪ n aɪ̪ ɛ m k ɔ h aɪ̪ j e ɲ aː x o ŋ 
[184.795]
<no-speech> 
[190.705]
th e aː <no-speech> 
[191.595]
<no-speech> 
[195.085]
aː j əɪ̪ aː <no-speech> k ɔ ŋ k ɔ ŋ 
[197.665]
<no-speech> 
[200.295]
<no-speech> 
[200.965]
<no-speech> 
[201.925]
ɨ <no-speech> l aːɪ̪ ɓ i tɕ ə ŋ t aɪ̪ m iə̪ ŋ ɗ u ŋ <no-speech> ɗ u ŋ tɕ ə ŋ t aɪ̪ m iə̪ ŋ x o ŋ 
[205.445]
<no-speech> 
[209.605]
n ɔ ɣ əɪ̪ ʂ o k ɲ ɛ ɲ ɨ ŋ m aː n ɔ f aːɪ̪ k ɔ n oɪ̪ ɗ ɔ n o k ɗ ɔ n ɔ f ɔ ŋ n ɔ n ɔ tɕ o m iə̪ ŋ j əːɪ̪ l ɔ ŋ ɓ aː ŋ t aɪ̪ l ɔ ŋ ɓ aː ŋ tɕ ə ŋ əɪ̪ n ɔ ʂ o k ɲ ɛ ɲ ɛ ɲ ɛ l aː k ɔ l aː tɕ ə ŋ t aɪ̪ m iə̪ ŋ <no-speech> <hes> ɗ əʊ̪ k ɔ f aːɪ̪ l aː 
[221.575]
<no-speech> 
[221.845]
<no-speech> 
[226.135]
<no-speech> 
[226.515]
<no-speech> 
[229.995]
<no-speech> ɨ 
[230.695]
<no-speech> 
[232.995]
th e l aː ɗ aː ŋ ɗ aː ŋ tʂ iə̪ʊ̪ tɕ ɨ ŋ ɓ a k ɗ əʊ̪ ɹ oɪ̪ ɗ ɔ <laugh> <no-speech> <int> ɨ 
[237.215]
<no-speech> 
[242.405]
<no-speech> ɨ 
[243.035]
<no-speech> 
[249.605]
k ɔ k i ɟ i tɕ əːɪ̪ j aːʊ̪ ɗ ɔ th uə̪ k x aː ŋ ʂ i ɲ n aɪ̪ k iə̪ n ɔ ɗ əɪ̪ ɹ aː tɕ ɔ n ɨə̪ th i l aː m ʂ aːʊ̪ m aː x o ŋ x o ŋ x o ŋ əɪ̪ x o ŋ k ɔɪ̪ ɗ ɨə̪ k <no-speech> ɨ ɓ o m ɛ x ɔɛ k aː tɕ ɨ 
[260.325]
<no-speech> 
[261.775]
ɓ o m ɛ <no-speech> ɨ j əɪ̪ h aː 
[263.825]
<no-speech> 
[264.955]
<no-speech> ɨ 
[266.175]
<no-speech> 
[268.455]
k u ŋ ɓ ə n th ɨə̪ ŋ h aːɪ̪ j əː tɕ o ŋ k ɨ t aː ŋ t aː ŋ t aː ŋ t aː ŋ k u ŋ th e x o ŋ ɓ iə̪ k n a m n aɪ̪ ɗ əː k n aɪ̪ l e ŋ l ɨə̪ ŋ tɕ a k ɗ əː ɗ əː h əː ŋ ɗ ɨə̪ k t i 
[275.045]
<no-speech> 
[279.325]
th i th aː ŋ n a m n aɪ̪ n ɛ ɲ aː n ɨə̪ k k ɔ tɕ ɔ k əː tɕ e tɕ ɔ l e ŋ l ɨə̪ ŋ k o ŋ ɲ ə ŋ tɕ e ɲ aː n ɨə̪ k th i tɕ a k ɗ ɨə̪ k l e ŋ th e m <no-speech> m o k ə k n ɨə̪ 
[285.705]
<no-speech> 
[287.545]
<no-speech> ɨ 
[288.295]
<no-speech> 
[292.265]
<no-speech> h ɔ k ɗ ɨə̪ k ɣ ə ŋ ɗ ɨə̪ k m o k n a m ɹ oɪ̪ <no-speech> n a m ŋ oaɪ̪ ɗ aː ɗ i h ɔ k ɹ oɪ̪ 
[296.345]
<no-speech> 
[297.245]
h ɔ k l əː p m ə m əɪ̪ tɕ ɨ 
[298.485]
<no-speech> 
[300.325]
m əːɪ̪ h ɔ k l əː p m ə m əɪ̪ tɕ ɨ tɕ ɨə̪ ɗ ɨə̪ k l əː p tɕ oɪ̪ <no-speech> <laugh> ɨ <no-speech> tɕ ɔ ɗ i h ɔ k tɕ ɔ n ɔ n ɔ w ɛ ŋ ɗ i 
[306.755]
<no-speech> 
[307.765]
<no-speech> ɨ 
[309.085]
<no-speech> 
[314.735]
<laugh> <no-speech> ŋ aɪ̪ tʂ ɨə̪ k m ə n h ɔ k m əʊ̪ ɟ aːʊ̪ s ɔ ŋ k i l e ŋ l əː p m o k l uə̪ ŋ ɓ əɪ̪ ɟ əː n ɔ l əː p m ə m l əː p tɕ oɪ̪ l əː p l aː s ɔ ŋ m əːɪ̪ l əː p m o k tɕ ɨ <no-speech> 
[321.685]
<no-speech> 
[323.145]
<no-speech> ɨ 
[323.935]
<no-speech> 
[325.835]
<no-speech> 
[328.565]
<no-speech> 
[329.635]
j e tɕ a k ɗ əː k n aɪ̪ a n l aːɪ̪ l e ŋ ɲ aː ŋ ɨə̪ɪ̪ iə̪ʊ̪ tɕ əːɪ̪ k i 
[332.395]
<no-speech> 
[333.675]
<no-speech> 
[334.905]
<no-speech> 
[335.995]
ɗ ɔ th i f aːɪ̪ ɗ a n tʂ a n th u ŋ i l əɪ̪ ŋ aɪ̪ tɕ ɨ <no-speech> tɕ ɨ x o ŋ l ɛ <hes> 
[339.995]
<no-speech> 
[340.895]
ɗ aː m h ɔɪ̪ <no-speech> 
[342.445]
<no-speech> 
[349.165]
<no-speech> th i t ɨ t ɨ tɕ ɨ 
[350.815]
<no-speech> 
[352.905]
ɓ aː ɗ aː ŋ x ɔɛ <no-speech> n ɔɪ̪ tɕ u ŋ ɗ aː ŋ k ɔ ŋ ŋ oɪ̪ ɹ ɔ k ɹ ɨə̪ʊ̪ tɕ ɔ uə̪ ŋ v ə ŋ uə̪ ŋ f aː f aː tɕ ɨ ɗ əʊ̪ k ɔ v ə ŋ ɗ e ɟ i 
[358.345]
<no-speech> 
[359.565]
<no-speech> 
[361.005]
<no-speech> 
[361.955]
<no-speech> ɨ 
[364.875]
<no-speech> 
[366.585]
ɨ a ŋ k əː m k u ŋ a ŋ uə̪ ŋ n ɔɪ̪ tɕ u ŋ k u ŋ ɗ ɨə̪ k m aː <hes> tɕ a ŋ th əɪ̪ m əː k ɟ i k aː ɗ i s ɛ j aːʊ̪ ɗ əɪ̪ v ə ŋ th əɪ̪ ɓ ə n th ɨə̪ ŋ <no-speech> ɹ ɔ k ɹ ɨə̪ʊ̪ tɕ ɔ ɓ aː uə̪ ŋ m o k l i ɓ a ŋ k i t o p 
[377.895]
m o k h əːɪ̪ m o k l aː h əː k th oɪ̪ 
[379.385]
<no-speech> 
[380.265]
<no-speech> 
[381.945]
<no-speech> 
[382.845]
<no-speech> ɨ j aːʊ̪ ɗ əɪ̪ ɓ aː m ɨ ŋ ɹ oɪ̪ <no-speech> j əɪ̪ tɕ ɨ k ɔ ŋ ɟ i n ɨə̪ 
[386.845]
<no-speech> 
[388.625]
<no-speech> ɨ 
[388.985]
<no-speech> 
[392.705]
<int> <no-speech> ɨ 
[394.245]
<no-speech> 
[396.925]
<no-speech> 
[397.675]
<no-speech> 
[399.985]
<laugh> <no-speech> ɗ aː ŋ n o ŋ ɗ aː ŋ n o ŋ n ɨ k j aːʊ̪ l əʊ̪ ɹ oɪ̪ m aː 
[404.765]
<no-speech> 
[408.695]
<no-speech> ɟ əː ɓ aː ɗ i ŋ i ŋ əːɪ̪ ɹ oɪ̪ ɗ i tɕ əːɪ̪ ɲ aː ə k ɲ aː ə k ɹ oɪ̪ <hes> j e tɕ ɨ ɓ əɪ̪ ɟ əː ɓ aː t ə n l e ŋ tɕ o a n x ɔaː ŋ m o k t uə̪ ŋ <no-speech> tɕ əːɪ̪ m o k 
[420.155]
t uə̪ ŋ ɹ oɪ̪ <no-speech> l e ŋ tɕ o a n k i m n ɨə̪ l aːɪ̪ j e k aː k tɕ u k u ŋ ɲ aː əː m o k th aː ŋ ɟ i n ɨə̪ ɹ oɪ̪ j e 
[425.805]
<no-speech> 
[427.835]
ɨ <no-speech> n ɔɪ̪ tɕ u ŋ k u ŋ x o ŋ ɓ iə̪ k ɗ ɨə̪ k l u k n aːʊ̪ ɓ aː m aː tɕ aː ŋ tʂ ɔ ŋ ɗ əɪ̪ th i ɓ aː j e <no-speech> k ɨ ɗ i tɕ əːɪ̪ th oaɪ̪ m aːɪ̪ 
[434.845]
<no-speech> 
[435.955]
<no-speech> 
[436.325]
<no-speech> 
[441.255]
<no-speech> ɨ 
[441.865]
<no-speech> 
[446.635]
<no-speech> 
[446.985]
<no-speech> 
[448.745]
<no-speech> 
[449.555]
<no-speech> 
[451.575]
<no-speech> 
[452.245]
<no-speech> 
[453.405]
<no-speech> 
[455.315]
<no-speech> 
[456.725]
<no-speech> th ə c th i j e 
[457.765]
<no-speech> 
[460.135]
<no-speech> ɨ n ɔ v ə ŋ l aː m ɲ aː h aː ŋ 
[461.705]
<no-speech> 
[463.355]
n ɔɪ̪ tɕ u ŋ k u ŋ tɕ aː ŋ 
[464.775]
<no-speech> 
[466.505]
<no-speech> k u ŋ ɗ aː ŋ l aː m əː tʂ e ŋ <hes> l aː m k o ŋ t i m aː k a t n ɔ t əːɪ̪ m ɨə̪ɪ̪ m əɪ̪ k əɪ̪ k əː 
[471.335]
<no-speech> 
[473.155]
s aː tɕ aː ŋ ɨ s aː th i k o ŋ j iə̪ k m aː <no-speech> ɨ tɕ aː ɓ iə̪ k l aː m ʂ aːʊ̪ ɗ ɨə̪ k 
[479.035]
<no-speech> 
[480.345]
<int> <no-speech> m aː k u ŋ <hes> ɓ əɪ̪ ɟ əː m aːɪ̪ m o k n ɔ k ɨə̪ɪ̪ s ɔ ŋ ɹ oɪ̪ n ɔ t ə n ʂ aːʊ̪ n ɔ t ə n tɕ ɨ ɓ əɪ̪ ɟ əː m ə n t ə n tɕ ɔ n ɔ ɗ əʊ̪ k ɔ ɗ ɨə̪ k 
[489.455]
<no-speech> 
[491.555]
<no-speech> əː ɲ iə̪ʊ̪ 
[492.175]
<no-speech> 
[495.025]
<no-speech> th ə k tɕ ɨ 
[495.865]
<no-speech> 
[496.835]
o ŋ ɓ aː ɲ aː k iə̪ th i ɓ a k j e w e k ɨə̪ɪ̪ ɲ ɨ ŋ m aː <hes> th a t th i x o ŋ x o ŋ tɕ iʊ̪ <no-speech> a n ɲ aː a n x o ŋ tɕ iʊ̪ <no-speech> ŋ eʊ̪ j e th i əː ɲ aː l uə̪ ŋ tɕ ɨ j e ɹ oɪ̪ j aːʊ̪ n ɨə̪ <hes> f ɨ k t aː p l a m <int> 
[506.065]
<no-speech> 
[508.555]
<no-speech> 
[508.935]
<no-speech> 
[511.815]
<laugh> <no-speech> n ɔɪ̪ th i j əɪ̪ tɕ ɨ k ɨə̪ɪ̪ ŋ oaɪ̪ ɓ a k k u ŋ ɗ ɨə̪ k ɲ ɨ ŋ m aː k ɨə̪ɪ̪ s ɔ ŋ t uɪ̪ n ɔ l aːɪ̪ ɟ a k ɲ aʊ̪ j aːʊ̪ ɗ əɪ̪ n ɨə̪ th i <no-speech> th i j e l aː m ɟ i tɕ ɔ n ɔ m əː k 
[519.415]
<no-speech> 
[521.225]
ɨ <no-speech> 
[523.204875]
<no-speech> 
[525.785]
<no-speech> 
[527.625]
<no-speech> 
[530.615]
tɕ ɨ x o ŋ ɗ ɨə̪ k t uə̪ɪ̪ ʂ aːʊ̪ k ɨə̪ɪ̪ k ɔ ŋ tɕ ɨə̪ ɗ ɨə̪ k th aː ŋ tɕ ɨə̪ ɗ ɨə̪ k ŋ aɪ̪ ʂ aːʊ̪ k ɨə̪ɪ̪ <no-speech> <int> <laugh> 
[536.795]
<no-speech> 
[539.775]
n ɔ tɕ i ŋ m o k tɕ ɨ 
[541.425]
<no-speech> 
[542.385]
t aː m t aː m l aː t aː m t aː m l aː k ɨə̪ɪ̪ th aː ŋ t ɨ th aː ŋ m ɨə̪ɪ̪ ɗ aːɪ̪ l oaɪ̪ th aː ŋ n a m th aː ŋ m ɨə̪ɪ̪ m o k l aː t iə̪ʊ̪ l əːɪ̪ th aː ŋ t aː m tɕ ɨ k ɔ ŋ k ɔ ŋ <hes> n aɪ̪ l aː th aː ŋ n a m th aː ŋ m ɨə̪ɪ̪ <no-speech> ɨ tɕ i ŋ m o k j əɪ̪ j əɪ̪ t uə̪ɪ̪ k ɔ ŋ <no-speech> ɟ i 
[554.315]
<no-speech> 
[555.535]
<no-speech> 
[558.355]
a n ɗ aː ŋ t ə n h aːɪ̪ n a m n ɨə̪ <no-speech> <int> 
[561.745]
<no-speech> 
[565.145]
<no-speech> tɕ aː th i m ə n l aːɪ̪ <hes> t u ɓ o l aːɪ̪ tɕ ɨ k ɔ ɟ i ɗ əʊ̪ m aː l ɔ <laugh> <no-speech> 
[570.715]
<no-speech> 
[571.965]
<no-speech> 
[573.185]
<no-speech> 
[574.365]
<int> <no-speech> h aː 
[578.385]
<no-speech> 
[579.555]
<no-speech> 
[590.175]
<no-speech> m əːɪ̪ m ɛ l uə̪ ŋ 
[592.075]
<no-speech> 
[595.515]
<no-speech> h aː 
[596.065]
<no-speech> 
[599.345]
<no-speech> aːɪ̪ 
[599.795]
<no-speech> 
[600.16]
