[0.0]
<no-speech> 
[2.145]
<no-speech> 
[2.505]
<no-speech> 
[4.655]
<no-speech> 
[6.265]
<no-speech> 
[9.745]
aː l o 
[10.485]
<no-speech> 
[12.735]
ɟ aː l əʊ̪ ɓ aː <hes> ɓ aː 
[13.885]
<no-speech> 
[15.695]
aː j əɪ̪ h aː <no-speech> j əɪ̪ j əɪ̪ tɕ iə̪ʊ̪ n aɪ̪ h aː ɓ aː <no-speech> aː tɕ iə̪ʊ̪ n aɪ̪ ɓ aː <hes> <sta> ŋ u ɟ əɪ̪ <hes> l u k m əɪ̪ ɟ əː 
[20.885]
<no-speech> 
[28.345]
h o m n aɪ̪ ɓ aː k ɔ m əː k x o ŋ 
[29.925]
<no-speech> 
[32.445]
<sta> h aː <no-speech> h o m n aɪ̪ k ɔ m əː k x o ŋ 
[35.265]
<no-speech> 
[38.415]
x o ŋ m aː h o m n aɪ̪ ɓ aː k ɔ m əː k x o ŋ 
[40.085]
<no-speech> 
[41.125]
<no-speech> 
[41.505]
<no-speech> 
[44.035]
x ɔ <int> ŋ ɛ h aː 
[44.985]
<no-speech> 
[48.965]
x o ŋ ŋ ɛ ɹ ɔ aː <no-speech> o ŋ w aː h aː 
[50.525]
<no-speech> 
[54.685]
aː <hes> m əɪ̪ k i o t o <no-speech> aː <hes> ɓ əː n <hes> ɓ əː n h ɔaː ŋ ɓ aː ʂ aːʊ̪ ɹ oɪ̪ <no-speech> k ɔ m əː k x o ŋ 
[60.465]
<no-speech> 
[62.195]
ŋ ɛ x o ŋ <no-speech> <int> 
[63.315]
<no-speech> 
[65.605]
aː k u ŋ m əː k h aː 
[66.635]
<no-speech> 
[68.385]
ɗ ɔ ɗ ɔ ɗ ɔ <no-speech> <hes> ɗ ɔ <sta> <no-speech> t i m j əːɪ̪ h uɪə̪ k aː p <hes> ɹ oɪ̪ ʂ aːʊ̪ ɹ oɪ̪ <no-speech> ɗ əː x o ŋ <int> 
[73.925]
<no-speech> 
[75.295]
t i m j əːɪ̪ h uɪə̪ k aː p <no-speech> n ɔ k ɔ ɗ əː x o ŋ 
[77.095]
<no-speech> 
[83.585]
aː j əɪ̪ k i k ɔ ŋ <hes> k ɔ ŋ <hes> k ɔ ŋ k i m ɨə̪ɪ̪ m aː <no-speech> k ɔ ɗ ɔ h aː ŋ ŋ aɪ̪ tɕ ɔ ɓ aː x o ŋ 
[87.875]
<no-speech> 
[90.765]
aː <int> 
[91.545]
<no-speech> 
[92.655]
<sta> ɟ aː 
[94.045]
<no-speech> 
[96.565]
ɟ aː 
[97.305]
<no-speech> 
[99.295]
aː j ɨə̪ ɹ oɪ̪ <no-speech> <hes> j ɨə̪ ɹ oɪ̪ ɗ aː m ɟ o ɓ aː n oɪ̪ k ɔ l əː ŋ x o ŋ 
[101.925]
<no-speech> 
[107.385]
ɟ aː k ɔ ŋ ɓ iə̪ k m aː ɓ aː əːɪ̪ <sta> m aː k ɔ l əː ŋ x o ŋ <no-speech> l aː m k ɔ ɟ o o ŋ n oɪ̪ x o ŋ 
[115.015]
<no-speech> 
[116.445]
<no-speech> 
[116.995]
<no-speech> 
[119.215]
k ɔ ŋ <no-speech> k ɔ ŋ ɓ iə̪ k ɹ oɪ̪ ɲ ɨ ŋ x o ŋ <no-speech> ɗ aː m ɟ o ɓ aː n oɪ̪ k ɔ l əː ŋ x o ŋ <no-speech> l aː m l əː ŋ ɲ ɨ o ŋ n oɪ̪ j əɪ̪ ɗ ɔ 
[124.185]
<no-speech> 
[126.545]
aː <hes> ɟ o ŋ ɲ aʊ̪ h aː <no-speech> k u ŋ k u ŋ k əː m tɕ aɪ̪ l uə̪ ŋ h aː 
[129.675]
<no-speech> 
[130.995]
<no-speech> 
[131.355]
<no-speech> 
[134.905]
ɟ aː <no-speech> <int> ɟ aː 
[136.875]
<no-speech> 
[138.855]
ɟ aː 
[139.535]
<no-speech> 
[144.515]
ɟ aː <no-speech> <hes> k u ŋ <no-speech> k u ŋ n əʊ̪ tɕ aɪ̪ h aɪ̪ n əʊ̪ m a ŋ 
[149.055]
<no-speech> 
[150.325]
<no-speech> 
[151.405]
<no-speech> 
[155.565]
<sta> ɟ aː 
[156.365]
<no-speech> 
[157.845]
ɹ oɪ̪ aː <hes> k o ŋ ɲ aː aː <hes> <no-speech> m əɪ̪ ɓ ə n m o m aː m aː m aː tʂ e ŋ n uɪ̪ aː <no-speech> tʂ e ŋ tɕ a m aː 
[165.225]
<no-speech> 
[169.555]
m əɪ̪ h ə m m o aː <no-speech> tɕ u k iə̪ k ɟ i ɗ ɔ <hes> tʂ ɔ ŋ ɗ o ŋ x aː ŋ ɟ i ɗ ɔ m ə n ɹ əːɪ̪ j e h əː k tɕ ɨə̪ <no-speech> <int> 
[174.245]
<no-speech> 
[181.615]
ɟ aː <no-speech> ɟ aː ɟ aː 
[183.695]
<no-speech> 
[187.925]
<int> aː <no-speech> 
[189.125]
<no-speech> 
[191.925]
aː <no-speech> j əɪ̪ ɗ əː ɗ əː ɗ i tɕ ə k tɕ ɨ ŋ aɪ̪ s ɨə̪ ɗ i k ɨ k w aː 
[194.995]
<no-speech> 
[197.725]
<no-speech> 
[199.065]
<no-speech> 
[200.355]
aː <no-speech> k i m o o ŋ n oɪ̪ ɟ i ɗ ɔ <no-speech> k ɔ ŋ l e ŋ k ɔ ŋ th əɪ̪ n ɔ n ɔ ɓ i ʂ u p m əɪ̪ ɗ aː s uə̪ ŋ ɗ ɔ <int> 
[205.565]
<no-speech> 
[209.805]
j əɪ̪ h aː 
[210.475]
<no-speech> 
[214.655]
ɟ aː 
[215.435]
<no-speech> 
[216.555]
ɟ əː l aː m ɓ aː i ɗ ə n <hes> ɣ ɔ p l aːɪ̪ ɗ e <hes> s əɪ̪ k i m o k uə̪ n oɪ̪ l aː ʂ aʊ̪ l ɨ ŋ o ŋ n oɪ̪ <no-speech> m o o ŋ n oɪ̪ th i ɗ ɛ p ɹ oɪ̪ ɗ ɔ 
[222.825]
<no-speech> 
[233.475]
<no-speech> 
[234.025]
<no-speech> 
[239.735]
<sta> ɟ aː 
[240.425]
<no-speech> 
[242.845]
ɟ aː ɟ aː 
[243.655]
<no-speech> 
[245.165]
<sta> ɟ aː 
[245.815]
<no-speech> 
[246.945]
ɟ aː ɗ u ŋ ɹ oɪ̪ m o əɪ̪ l əː ŋ w aː <no-speech> l əː ŋ w aː <no-speech> m aː m aː k aːʊ̪ w aː <no-speech> ɗ i l e ŋ k aːʊ̪ t ɨ ɟ ɨə̪ɪ̪ ɗ ɨə̪ ŋ ɗ i l e ŋ w aː k aːʊ̪ w aː s aː <no-speech> m aː k aːʊ̪ n ɨə̪ 
[255.255]
<no-speech> 
[260.655]
aː 
[261.405]
<no-speech> 
[262.325]
s ɛ l e ŋ ɗ ɨə̪ k x o ŋ 
[263.345]
<no-speech> 
[264.145]
s ɛ ɓ o ŋ ɓ a n l e ŋ ɗ ɨə̪ k x o ŋ <no-speech> <int> 
[266.905]
<no-speech> 
[267.785]
<no-speech> 
[269.445]
<no-speech> 
[270.495]
<int> ɗ ɨə̪ l e ŋ k ɔ l e ŋ <hes> l e ŋ w aː x o <no-speech> j əːɪ̪ tʂ əːɪ̪ m ɨə̪ <no-speech> tʂ əːɪ̪ m ɨə̪ tɕ ɨ ŋ <no-speech> ɨ 
[276.455]
<no-speech> 
[278.115]
ɟ aː 
[278.795]
<no-speech> 
[284.225]
ɟ aː ɟ aː 
[285.085]
<no-speech> 
[287.465]
aː j əɪ̪ th i x ɔɛ w aː ɟ i n ɨə̪ <no-speech> v ə ŋ tɕ uɪə̪ ŋ k u ŋ l ɔ ɹ oɪ̪ <no-speech> ɓ əɪ̪ ɟ əː tɕ i k ɔ l ɔ t iə̪ ŋ th oɪ̪ 
[291.895]
<no-speech> 
[294.635]
k ɔ ŋ k ɔ ɓ aː ŋ j əːɪ̪ ɓ aː ɹ oɪ̪ <no-speech> k ɔ ŋ k ɔ n ɔɪ̪ j əːɪ̪ ɓ aː <hes> ŋ eʊ̪ m o m aː <hes> ɓ a m n a m tɕ iə̪ʊ̪ th i <hes> ɲ ɨ l aː tɕ u n aːɪ̪ m o k f ə ŋ m o k f ə ŋ m ə n j əːɪ̪ tɕ u m aːɪ̪ l aː h aːɪ̪ f ə ŋ <no-speech> <hes> th a n f ə ŋ tɕ iə̪ n a m f ə ŋ ɗ ɔ ɓ aː 
[306.485]
<no-speech> 
[307.475]
h aː t ɨ k l aː n ɔɪ̪ j əɪ̪ t aːʊ̪ <no-speech> aː t a ŋ ə k w aː th e ɓ əɪ̪ ɟ əː <hes> ɓ a m n a m th i tɕ iə̪ ɓ aɪ̪ <no-speech> aː tɕ iə̪ <hes> tɕ iə̪ n a m ɹ aː l aːɪ̪ ɓ aɪ̪ tʂ iə̪ʊ̪ <no-speech> th i ɓ e ŋ m ə n ɓ o ŋ <no-speech> k uə̪ ɓ aː l aː n ɨə̪ l aː ɓ aɪ̪ <no-speech> ɗ u ŋ x o ŋ ɓ aː 
[317.175]
<no-speech> 
[324.845]
<no-speech> 
[325.195]
<no-speech> 
[328.355]
ɟ aː ɟ aː 
[329.265]
<no-speech> 
[330.845]
ɟ aː <no-speech> <int> 
[331.485]
<no-speech> 
[336.235]
<no-speech> 
[336.845]
<no-speech> 
[344.105]
ɟ aː <no-speech> n a m 
[344.965]
<no-speech> 
[348.515]
aː <hes> j əɪ̪ <no-speech> t ə n t ɨ ŋ ŋ ɨə̪ɪ̪ ɗ əɪ̪ f aːɪ̪ x o ŋ <no-speech> t ə n ɗ əʊ̪ ŋ ɨə̪ɪ̪ ɹ oɪ̪ tɕ iə̪ ɗ eʊ̪ ɹ aː 
[352.885]
<no-speech> 
[356.735]
ɟ aː <no-speech> ɟ aː ɟ aː ɗ u ŋ ɹ oɪ̪ <no-speech> n a m <no-speech> <int> ɟ aː <int> 
[368.595]
ɲ ɨ ŋ m aː tɕ u k u ŋ m uə̪ ŋ l aː m k i m o n oɪ̪ <no-speech> j əɪ̪ ɗ ɔ k ɔ ŋ k u ŋ ŋ aːɪ̪ l e ŋ m o n oɪ̪ ɗ ɔ <no-speech> t aː th əɪ̪ m o n oɪ̪ t aː th əɪ̪ th əɪ̪ t oɪ̪ w aː <no-speech> aː j əɪ̪ t aː k u ŋ m uə̪ ŋ l aː m tɕ ɔ n ɔ ɗ aː ŋ h ɔaː ŋ 
[377.555]
<no-speech> 
[385.675]
ɟ aː <no-speech> k ɔ k ɔ k ɔ 
[388.025]
<no-speech> 
[397.035]
ɟ aː 
[397.585]
<no-speech> 
[406.295]
ɟ aː 
[406.925]
<no-speech> 
[417.485]
ɟ aː ɟ aː 
[418.315]
<no-speech> 
[426.525]
<no-speech> 
[427.555]
<no-speech> 
[429.285]
ɟ aː <int> 
[430.805]
<no-speech> 
[434.065]
ɟ aː k ɔ ŋ ɓ iə̪ k ɹ oɪ̪ <no-speech> <sta> m o o ŋ ɓ ɔ ŋ m o ɓ aː k ɓ ɔ ŋ <no-speech> k i m o ɗ ɔ l aː f aːɪ̪ s əɪ̪ m əːɪ̪ ɗ ɨə̪ k tɕ ɨ k ɔ ŋ x o ŋ s əɪ̪ ŋ ɨə̪ɪ̪ t aː l ə ŋ ɗ ə k l uə̪ ŋ ɹ oɪ̪ ɗ ɔ 
[440.155]
<no-speech> 
[441.605]
k i m o <no-speech> <hes> m o <no-speech> m o k <no-speech> k i m o ɓ aː k ɓ ɔ ŋ aː <hes> m o k i m o ɓ aː k ɓ ɔ ŋ aː <hes> l aː l aː l aː tɕ ɨə̪ k ɔ s əɪ̪ ɟ i <hes> k ɔ k i m o ɲ ɔ ɲ ɔ ɲ ɔ ɗ ɔ n ɔ n ɔ n ɔ n a m tʂ ɨə̪ k <hes> n a m tʂ ɨə̪ k m o <no-speech> ɓ aː k ɓ ɔ ŋ ɹ oɪ̪ ɗ ɔ 
[453.565]
<no-speech> 
[453.715]
<no-speech> 
[454.605]
<oov> ɓ aː ɓ aː th əɪ̪ x o ŋ 
[455.505]
<no-speech> 
[456.625]
ɓ ɨə̪ k ɔ ŋ <no-speech> aː <hes> ɓ ɨə̪ k ɔ ŋ l e ŋ th əɪ̪ ŋ eʊ̪ ŋ eʊ̪ m aː s əɪ̪ <hes> s əɪ̪ ɹ aː th i <hes> ɗ ɛ p l a m 
[461.225]
<no-speech> 
[468.195]
ɟ aː 
[468.795]
<no-speech> 
[470.205]
ɟ aː 
[470.885]
<no-speech> 
[476.765]
ɟ aː <no-speech> ɟ aː ɟ aː <no-speech> ɟ aː 
[480.115]
<no-speech> 
[483.015]
ɟ aː <no-speech> <int> 
[485.145]
<no-speech> 
[490.635]
ɟ aː 
[491.245]
<no-speech> 
[497.875]
aː 
[498.755]
<no-speech> 
[502.985]
ɟ aː <no-speech> ɗ u ŋ ɹ oɪ̪ s əɪ̪ m o n ɨə̪ 
[504.935]
<no-speech> 
[511.675]
th i ɓ əɪ̪ ɟ əː tɕ uɪə̪ ŋ ɗ ɔ k ɔ ɟ i ɗ əʊ̪ x ɔ <no-speech> m ə n l aː m x ɔ ŋ ɨə̪ɪ̪ t aː <hes> tɕ i <no-speech> th i k ɨ j əɪ̪ th oɪ̪ <int> 
[516.355]
<no-speech> 
[517.485]
ɟ aː <hes> a n ɛ m ɲ aʊ̪ <no-speech> x ɔ l aː m ɟ i 
[519.495]
<no-speech> 
[522.705]
ɟ aː 
[523.385]
<no-speech> 
[525.235]
ɗ u ŋ ɹ oɪ̪ ɗ əʊ̪ <hes> m əɪ̪ o ŋ f aːɪ̪ s i ŋ ɓ aː ɗ ɨə̪ k tɕ ɨ k ɔ ŋ x o ŋ s i ŋ l aː ɗ əʊ̪ ɗ ɨə̪ k 
[528.625]
<no-speech> 
[529.685]
<no-speech> 
[530.045]
<no-speech> 
[533.545]
ɟ aː 
[534.095]
<no-speech> 
[540.115]
ɟ aː 
[540.775]
<no-speech> 
[547.485]
<no-speech> 
[549.655]
<no-speech> 
[551.455]
ɟ aː 
[552.125]
<no-speech> 
[558.185]
ɟ aː <no-speech> ɟ aː 
[559.225]
<no-speech> 
[570.535]
ɹ oɪ̪ ɲ ɨ j əɪ̪ l aː v ə ŋ ɗ e f ə ŋ m o tɕ i k ɔ ŋ m o o ŋ n oɪ̪ th oɪ̪ <no-speech> k ɔ ŋ ɓ əɪ̪ ɟ əː l aː m ə n e m s uə̪ɪ̪ <no-speech> aː k ɔ ŋ m o o ŋ n oɪ̪ th oɪ̪ <no-speech> j əːɪ̪ aː k ɔ ŋ m o k <no-speech> k ɔ ŋ m o k <no-speech> k ɔ ŋ m o k k i tʂ ɔ ŋ l ə m x aː ŋ tɕ ɨə̪ tɕ ɨə̪ tɕ ɨə̪ k ɔ ɹ əːɪ̪ j e n ɨə̪ 
[582.325]
<no-speech> 
[583.395]
<no-speech> 
[586.665]
ɟ aː ɓ iə̪ k ɹ oɪ̪ <no-speech> tɕ ɨə̪ ɹ əːɪ̪ j e l aː k ɔ ŋ k i ɗ ɔ th oɪ̪ tɕ ɨ ɟ i 
[589.365]
<no-speech> 
[592.995]
<sta> l aː m ʂ aːʊ̪ j əɪ̪ ɓ aː 
[594.985]
<no-speech> 
[597.805]
aː 
[598.575]
<no-speech> 
[599.98]
