[0.0]
<no-speech> 
[5.065]
əː <no-speech> əː aː l o 
[7.145]
<no-speech> 
[8.655]
<no-speech> aː l o 
[9.345]
<no-speech> 
[10.325]
<no-speech> əː <no-speech> aː l o 
[12.465]
<no-speech> 
[13.865]
<no-speech> aː <no-speech> ŋ ɛ ŋ ɛ 
[15.495]
<no-speech> 
[17.485]
<no-speech> əː 
[18.165]
<no-speech> 
[20.515]
<no-speech> h aː 
[21.105]
<no-speech> 
[23.975]
<no-speech> x o ŋ 
[24.805]
<no-speech> 
[28.265]
<no-speech> ɨ 
[29.035]
<no-speech> 
[32.675]
əː a ŋ k əː m <int> 
[34.115]
<no-speech> 
[37.825]
<no-speech> 
[39.105]
<no-speech> 
[40.215]
ɟ i <laugh> k i ɟ i n ɨə̪ 
[42.165]
<no-speech> 
[45.375]
tɕ ɨə̪ 
[46.295]
<no-speech> 
[47.995]
ɓ aːɪ̪ j əː ɟ i <breath> 
[49.515]
<no-speech> 
[50.345]
ɟ əː ɗ aː ŋ <hes> <no-speech> k ɔɪ̪ f i m 
[53.255]
<no-speech> 
[55.375]
k ɔɪ̪ f i m 
[56.265]
<no-speech> 
[58.735]
ɟ aː ɗ a n l aː ʂ o m o k <int> 
[60.415]
<no-speech> 
[61.805]
<breath> <breath> <breath> ɹ oɪ̪ 
[65.475]
<no-speech> 
[68.395]
<no-speech> k i ɟ i 
[69.085]
<no-speech> 
[74.585]
əː ɟ aː ŋ k u ŋ k ə p j iə̪ k j uɪ̪ tɕ əːɪ̪ ɟ aːɪ̪ tʂ i tɕ ɔ k ɔ ŋ <laugh> 
[78.755]
<no-speech> 
[80.085]
f u k j u tɕ ɔ m u k ɗ ə c <hes> k aːʊ̪ k aː <laugh> 
[82.565]
<no-speech> 
[84.075]
<no-speech> <breath> ɣ e l a m <laugh> ŋ əː ŋ aː ŋ l uə̪ ŋ <laugh> 
[88.855]
<no-speech> 
[89.705]
<no-speech> 
[90.275]
<no-speech> 
[91.405]
əː <no-speech> ɹ oɪ̪ 
[93.275]
<no-speech> 
[94.165]
k i ɟ i n ɨə̪ x o ŋ 
[95.205]
<no-speech> 
[97.755]
<no-speech> ʂ aːʊ̪ 
[98.465]
<no-speech> 
[100.325]
n ɔɪ̪ tɕ ɔ h əː k l uə̪ ŋ 
[101.455]
<no-speech> 
[103.115]
əː j uɪ̪ w aː h aː 
[104.665]
<no-speech> 
[106.505]
<no-speech> əː 
[107.245]
<no-speech> 
[108.525]
<laugh> m aɪ̪ ɟ aː m aː ŋ ɹ əː w aː 
[113.065]
<no-speech> 
[114.145]
<laugh> k uə̪ɪ̪ k u ŋ x o ŋ ɓ iə̪ k n ɔɪ̪ ɟ i h əː k aː <laugh> 
[116.645]
<no-speech> 
[119.675]
<no-speech> <breath> ʂ aːʊ̪ j əɪ̪ 
[120.755]
<no-speech> 
[122.795]
əː əː əː əː əː əː əː əː <int> 
[125.055]
<no-speech> 
[126.165]
<breath> m aɪ̪ a ŋ k əː m tɕ ɨə̪ <laugh> 
[128.095]
<no-speech> 
[130.805]
a ŋ k əː m j əːɪ̪ ɟ i j əɪ̪ <laugh> 
[131.995]
<no-speech> 
[136.445]
<no-speech> 
[137.885]
<no-speech> 
[138.865]
ʂ ɨə̪ ŋ w aː <laugh> 
[139.815]
<no-speech> 
[141.225]
<breath> əː <no-speech> k ɔ k i <hes> a ŋ k əː m ʂ ɨə̪ ŋ w aː w aː t aː a ŋ k əː m j əːɪ̪ h o k ɣ aː j əːɪ̪ n ɨə̪ k t ɨə̪ ŋ <int> <laugh> 
[148.285]
<no-speech> 
[151.695]
t aː a ŋ k əː m j əːɪ̪ h o k ɣ aː j əːɪ̪ n ɨə̪ k t ɨə̪ ŋ n ɛ ʂ ɨə̪ ŋ x o ŋ <laugh> 
[154.415]
<no-speech> 
[156.625]
<no-speech> 
[157.175]
<no-speech> 
[159.025]
ɓ i k i ɟ i j əɪ̪ 
[159.965]
<no-speech> 
[168.755]
aː aː aː <int> 
[169.715]
<no-speech> 
[170.815]
ŋ aɪ̪ m aːɪ̪ aː h aː 
[171.765]
<no-speech> 
[175.205]
əː <hes> 
[176.445]
<no-speech> 
[177.345]
ɟ aː <no-speech> <laugh> 
[178.975]
<no-speech> 
[180.435]
<no-speech> 
[183.405]
<no-speech> 
[184.315]
əː <hes> k ɔ tɕ uɪə̪ ŋ ɟ i ɗ e n ɔɪ̪ j əːɪ̪ th ɨ n ɨə̪ x o ŋ 
[187.525]
<no-speech> 
[193.255]
əː <int> 
[193.915]
<no-speech> 
[194.945]
<no-speech> ɹ oɪ̪ <laugh> ɓ iə̪ k ɹ oɪ̪ <breath> m aɪ̪ n ɔɪ̪ ɗ i x o ŋ k ɔ tɕ uɪə̪ ŋ ɟ i ɗ e n ɔɪ̪ h əː k ɗ ɔ ɣ a p ɲ aʊ̪ h a ŋ ŋ aɪ̪ h aː 
[200.225]
<no-speech> 
[201.955]
ɲ əː <hes> ɲ əː 
[202.955]
<no-speech> 
[204.365]
<no-speech> <laugh> ɲ əː <no-speech> ɲ əː <laugh> t aːʊ̪ f aːɪ̪ x o ŋ 
[206.215]
<no-speech> 
[208.965]
<no-speech> <breath> <laugh> ɲ əː <no-speech> ɲ əː k əː <laugh> n aːʊ̪ <no-speech> <breath> ɲ əː k əː n aːʊ̪ <no-speech> <laugh> 
[214.545]
<no-speech> 
[216.525]
<laugh> ɲ iə̪ʊ̪ <no-speech> <breath> th əɪ̪ m aː m aː ŋ ɛ ŋ ɛ l aː th əɪ̪ k i m ɨ k ɗ o t i ŋ k əɪ̪ x o ŋ ɗ ɨə̪ k k aːʊ̪ <laugh> ɹ oɪ̪ <no-speech> <breath> m əːɪ̪ ɣ a p t aːʊ̪ h oɪ̪ n aɪ̪ <no-speech> m əːɪ̪ ɣ a p t aːʊ̪ n aɪ̪ m aɪ̪ n ɔɪ̪ ɲ əː t aːʊ̪ s aːʊ̪ 
[230.315]
<no-speech> 
[231.695]
əː 
[232.145]
<no-speech> 
[234.925]
tʂ əːɪ̪ əːɪ̪ <breath> ɗ aː ŋ əː ŋ oaɪ̪ ɗ ɨə̪ ŋ h aː 
[238.615]
<no-speech> 
[242.935]
<no-speech> əː tʂ əːɪ̪ əːɪ̪ ɹ ɛ ɲ w aː h aː <no-speech> t ɨə̪ ŋ m aɪ̪ ɹ aː h o k ɔ ŋ ɹ uə̪ n ɔɪ̪ tɕ uɪə̪ ŋ j əːɪ̪ t aːʊ̪ tɕ ɨ 
[248.405]
<no-speech> 
[249.425]
f ɨə̪ ŋ 
[250.025]
<no-speech> 
[250.925]
t ɨə̪ ŋ <laugh> ɹ aː h o k ɔ ŋ ɹ uə̪ <no-speech> n ɔɪ̪ tɕ uɪə̪ ŋ j əːɪ̪ th i tɕ ɨ <no-speech> l aː m ɹ əː k ɗ iə̪ ŋ th oaɪ̪ s uə̪ ŋ ɟ ɨə̪ɪ̪ ɹ oɪ̪ t aːʊ̪ x o ŋ ɓ iə̪ k ʂ aːʊ̪ n ɨə̪ 
[257.875]
<no-speech> 
[259.374875]
<sta> aːɪ̪ aːɪ̪ <no-speech> aːɪ̪ v əː k tɕ ɔ f ɨə̪ ŋ t aː <no-speech> <laugh> l oɪ̪ s uə̪ ŋ ɟ ɨə̪ɪ̪ v əː k <laugh> l uə̪ ŋ 
[266.255]
<no-speech> 
[267.425]
<breath> tɕ əː k ɗ uə̪ɪ̪ h o k ɔ ŋ <sta> <no-speech> <breath> ɟ i t aːʊ̪ n ɔɪ̪ m aɪ̪ ɗ ɨ ŋ k ɔ ɹ aː h o k ɔ ŋ ɹ uə̪ n ɔɪ̪ tɕ uɪə̪ ŋ j əːɪ̪ t aːʊ̪ l əː l əː ɹ əː k ɗ iə̪ ŋ th oaɪ̪ s uə̪ ŋ ɟ ɨə̪ɪ̪ x o ŋ k ɔ aːɪ̪ x o ŋ aːɪ̪ v əː k ɟ u m m aɪ̪ 
[275.645]
<no-speech> 
[279.795]
<laugh> <breath> <oov> k uə̪ l ɔ ŋ m aɪ̪ h aː <no-speech> <laugh> <breath> k ɔ ɟ i ɲ aɪ̪ s uə̪ ŋ ɟ ɨə̪ɪ̪ v əː k l uə̪ ŋ ʂ a n ɓ a k m əɪ̪ k ɔ ŋ k aː j aː ŋ j e tɕ iə̪ ŋ s u l uə̪ ŋ 
[288.555]
<no-speech> 
[294.325]
<no-speech> 
[301.335]
<no-speech> 
[304.175]
<no-speech> 
[313.805]
<no-speech> 
[315.985]
<no-speech> 
[317.065]
<no-speech> 
[318.225]
<no-speech> 
[319.065]
<no-speech> 
[321.275]
<no-speech> 
[322.555]
<no-speech> 
[323.945]
<no-speech> 
[325.465]
<no-speech> 
[326.685]
<no-speech> 
[328.855]
<no-speech> 
[332.185]
<no-speech> 
[334.865]
<no-speech> 
[335.675]
<no-speech> 
[336.225]
<no-speech> 
[338.335]
<no-speech> 
[340.445]
<no-speech> 
[343.735]
<no-speech> 
[345.765]
<no-speech> 
[348.575]
<breath> ɗ o s u k tɕ ɨə̪ ɓ aː 
[350.415]
<no-speech> 
[352.485]
<no-speech> 
[353.415]
<no-speech> 
[357.745]
<no-speech> 
[358.995]
<no-speech> 
[359.845]
<no-speech> 
[363.355]
<no-speech> 
[364.755]
<no-speech> 
[368.535]
<no-speech> 
[371.645]
<no-speech> 
[376.075]
<no-speech> 
[377.015]
<no-speech> 
[383.575]
<no-speech> 
[385.435]
<no-speech> 
[391.495]
<no-speech> 
[395.675]
<no-speech> 
[403.135]
<no-speech> 
[404.685]
<no-speech> 
[406.085]
<no-speech> 
[407.505]
<no-speech> aː 
[408.625]
<no-speech> 
[410.625]
<no-speech> 
[414.315]
<no-speech> 
[418.305]
<no-speech> 
[419.115]
<no-speech> 
[423.045]
<no-speech> 
[429.405]
<no-speech> 
[431.505]
<no-speech> 
[435.525]
<no-speech> 
[436.885]
<no-speech> 
[437.955]
<no-speech> 
[439.665]
<no-speech> 
[442.065]
<no-speech> 
[444.095]
əː j əɪ̪ l aː ɗ aː m m əɪ̪ ɗ ɔ n ɔ ɓ aɪ̪ w aː ɗ e ŋ ɓ e ŋ ɗ əɪ̪ ɹ oɪ̪ ɗ ɔ <breath> tʂ əːɪ̪ əːɪ̪ ɓ e ŋ ɗ əɪ̪ t aːʊ̪ <no-speech> ɓ e ŋ t aːʊ̪ ɟ əː m ɨə̪ l əː ŋ ɹ oɪ̪ n ɛ 
[450.775]
<no-speech> 
[451.595]
<no-speech> 
[460.925]
<no-speech> 
[464.025]
<no-speech> 
[469.275]
<no-speech> 
[471.485]
<no-speech> 
[476.165]
<no-speech> 
[478.375]
<no-speech> 
[490.225]
<no-speech> 
[495.025]
<no-speech> 
[495.615]
<no-speech> 
[497.765]
<no-speech> ɲ aː k h aː 
[498.645]
<no-speech> 
[503.575]
<no-speech> 
[508.675]
<no-speech> 
[509.855]
<no-speech> 
[510.685]
<no-speech> 
[514.305]
<no-speech> 
[518.595]
<no-speech> 
[519.805]
<no-speech> 
[525.015]
<no-speech> 
[525.875]
<no-speech> 
[529.375]
<no-speech> 
[530.405]
<no-speech> 
[533.715]
<no-speech> 
[535.985]
<no-speech> 
[541.545]
<no-speech> 
[543.285]
<no-speech> 
[546.055]
<no-speech> 
[548.835]
<no-speech> 
[558.105]
<no-speech> 
[560.895]
<no-speech> 
[561.965]
<no-speech> 
[564.565]
<no-speech> 
[565.035]
<no-speech> 
[566.165]
<no-speech> 
[569.585]
<no-speech> 
[570.515]
<no-speech> 
[573.955]
<no-speech> 
[574.795]
<no-speech> 
[575.265]
<no-speech> 
[576.625]
<no-speech> 
[577.875]
<no-speech> 
[579.425]
<no-speech> 
[580.595]
<no-speech> 
[581.755]
<no-speech> 
[586.635]
<no-speech> 
[592.045]
<no-speech> 
[599.835]
<no-speech> 
[600.28]
