[0.0]
x o ŋ 
[0.545]
<no-speech> 
[3.375]
<no-speech> 
[3.725]
<no-speech> 
[10.225]
<int> <no-speech> ɛ m ɲ a k 
[11.425]
<no-speech> 
[13.625]
<no-speech> ɗ ɨə̪ k ɹ oɪ̪ 
[14.595]
<no-speech> 
[16.455]
<no-speech> 
[16.835]
<no-speech> 
[19.685]
l aː m <no-speech> m əːɪ̪ ŋ u ɟ əɪ̪ 
[21.325]
<no-speech> 
[24.755]
th i ɟ o ŋ a n ɹ ɨə̪ ɗ ɔ 
[26.065]
<no-speech> 
[31.075]
<int> <no-speech> th i ɛ m ŋ u m uə̪ ŋ h əː ŋ tɕ i 
[33.405]
<no-speech> 
[36.055]
<no-speech> tɕ ɨ ɹ a ŋ 
[36.895]
<no-speech> 
[39.875]
a n ɗ aː ŋ l aː m tɕ i ɗ ɔ 
[40.915]
<no-speech> 
[45.995]
<no-speech> k i tɕ i 
[46.845]
<no-speech> 
[50.535]
ɛ m k ɔ ŋ ɛ ɲ ə m x o ŋ ɹ ɨə̪ 
[52.135]
<no-speech> 
[54.385]
<int> <no-speech> k i tɕ i t uə̪ ŋ ɗ i t uə̪ ŋ ɗ i h o tɕ iə̪ m 
[56.775]
<no-speech> 
[60.425]
<no-speech> 
[60.835]
<no-speech> 
[61.755]
<no-speech> oɪ̪ tʂ əːɪ̪ əːɪ̪ <no-speech> <int> 
[63.525]
<no-speech> 
[64.815]
ŋ oɪ̪ n ɔɪ̪ tɕ uɪə̪ ŋ j əːɪ̪ ɛ m 
[66.385]
<no-speech> 
[67.785]
<no-speech> 
[68.615]
<no-speech> 
[69.435]
<no-speech> 
[69.795]
<no-speech> 
[72.345]
<sta> <no-speech> aː <no-speech> l aː m k i tɕ i k u ŋ l aː m m aː k eʊ̪ k ɔ ŋ 
[75.545]
<no-speech> 
[77.505]
ɨ <no-speech> ŋ ɛ tɕ i m o h i <no-speech> <int> 
[80.185]
<no-speech> 
[81.255]
<no-speech> t i n ɨə̪ ɛ m w aː 
[82.395]
<no-speech> 
[85.355]
<no-speech> əː 
[86.155]
<no-speech> 
[88.075]
<no-speech> tɕ uə̪ ŋ ɓ i t ə n th ə ŋ m aː ɗ ɔ ŋ t iə̪ p ɛ m ɗ i ŋ ɛ tɕ ɨə̪ 
[90.825]
<no-speech> 
[93.465]
<no-speech> x o ŋ m o k ɔ 
[94.745]
<no-speech> 
[97.165]
<no-speech> t ɨ k ɲ aː 
[98.165]
<no-speech> 
[101.475]
<no-speech> o 
[102.015]
<no-speech> 
[103.105]
t ɨ k ɗ i n ɨə̪ 
[104.345]
<no-speech> 
[105.155]
n ɔɪ̪ m aː ɟ e th ɨə̪ ŋ tɕ ɨə̪ n əː 
[106.725]
<no-speech> 
[109.875]
oɪ̪ ɹ ɨə̪ aː ɹ ɨə̪ th oɪ̪ ɛ m x ɔɪ̪ t ɨ k <no-speech> tɕ i ɗ aː ŋ n ɔɪ̪ tɕ uɪə̪ ŋ ɗ iə̪ ŋ th oaɪ̪ aː <no-speech> <int> 
[114.035]
<no-speech> 
[115.835]
tɕ i ɗ aː ŋ n ɔɪ̪ <int> tɕ uɪə̪ ŋ ɗ iə̪ ŋ th oaɪ̪ aː 
[117.675]
<no-speech> 
[120.125]
<no-speech> 
[120.475]
<no-speech> 
[121.635]
m oɪ̪ tʂ ɨə̪ ŋ tɕ ɔ i m l a ŋ tɕ ɔ a n 
[123.755]
<no-speech> 
[130.335]
<sta> <no-speech> tɕ i j e ɹ oɪ̪ aː 
[132.025]
<no-speech> 
[133.365]
<no-speech> 
[133.835]
<no-speech> 
[135.245]
<no-speech> h aː 
[135.625]
<no-speech> 
[137.055]
tɕ i ɗ i n əː j e aː 
[138.265]
<no-speech> 
[140.675]
tɕ i ɗ i th i j e aː 
[141.635]
<no-speech> 
[147.395]
<sta> <no-speech> <cough> ɛ m ɓ i h ɔ 
[149.965]
<no-speech> 
[150.945]
<no-speech> 
[151.625]
<no-speech> 
[153.725]
<sta> <no-speech> tɕ ɨ ɹ a ŋ <no-speech> t aːɪ̪ a n ɗ ɔ <no-speech> 
[156.185]
<no-speech> 
[158.645]
th i t aːɪ̪ <no-speech> th i t aːɪ̪ a n tɕ ɨ ɹ a ŋ 
[161.185]
<no-speech> 
[163.595]
<no-speech> x o ŋ ɓ iə̪ k <no-speech> th i t aːɪ̪ a n m aː ɛ m h ɔ 
[166.575]
<no-speech> 
[171.015]
<int> <no-speech> ɹ a ŋ m aː k ɨə̪ɪ̪ t ɨ ɲ iə̪ ŋ l aːɪ̪ k ɨə̪ɪ̪ ɛ m 
[173.525]
<no-speech> 
[178.415]
<laugh> ɹ ɨə̪ n ɨə̪ <no-speech> h ɔ k ɔ <no-speech> ŋ ɛ m o <no-speech> tɕ a k ɛ m j əːɪ̪ a n ŋ ɛ tɕ ɨ m əɪ̪ 
[183.345]
<no-speech> 
[186.475]
<sta> <no-speech> <laugh> <no-speech> h ɨ <no-speech> 
[191.155]
<no-speech> 
[193.395]
ɹ a ŋ tɕ i l aːɪ̪ k ɨə̪ɪ̪ ɛ m <no-speech> t ɨ ɲ iə̪ ŋ 
[195.895]
<no-speech> 
[202.145]
<no-speech> a n 
[202.725]
<no-speech> 
[204.795]
h ɛ n i a n j e x o ŋ 
[206.095]
<no-speech> 
[213.875]
j i ɹ a ŋ 
[214.715]
<no-speech> 
[216.865]
əː l aːɪ̪ j əːɪ̪ ɛ m ɗ i 
[217.885]
<no-speech> 
[221.845]
th i əː l aːɪ̪ j əːɪ̪ ɛ m 
[222.985]
<no-speech> 
[224.095]
v ə ɲ ɟ ɨ ɹ ɨə̪ ɹ oɪ̪ k ɔ ŋ 
[225.675]
<no-speech> 
[228.305]
th i ɹ a ŋ <no-speech> <int> th i ɟ ə n ɗ ɔ 
[230.425]
<no-speech> 
[234.595]
<no-speech> x o ŋ tɕ i m aː x o ŋ 
[235.825]
<no-speech> 
[237.255]
x i tʂ ɨə̪ m ɛ ɣ ɨɪ̪ ɗ o tɕ i ɹ ɨə̪ 
[238.855]
<no-speech> 
[241.135]
x i tʂ ɨə̪ m ɛ ɣ ɨɪ̪ ɗ o tɕ i 
[242.905]
<no-speech> 
[246.545]
<no-speech> tɕ i n ɨə̪ 
[247.345]
<no-speech> 
[252.395]
aː tʂ əːɪ̪ aː <no-speech> m i t o m tɕ i ɹ ɨə̪ 
[254.855]
<no-speech> 
[259.085]
ɛ m m uə̪ ŋ a ŋ m i t o m <no-speech> l əʊ̪ ɹ oɪ̪ ɛ m tɕ ɨə̪ a ŋ m i t o m 
[262.795]
<no-speech> 
[265.315]
<no-speech> ɨ 
[265.965]
<no-speech> 
[275.595]
<no-speech> 
[276.865]
<no-speech> 
[283.705]
<no-speech> k i tɕ i 
[284.465]
<no-speech> 
[285.585]
ɗ ɨə̪ t iə̪ ŋ w aː tɕ ɔ a n h aː 
[287.255]
<no-speech> 
[290.225]
<no-speech> x o ŋ 
[290.825]
<no-speech> 
[293.485]
ɹ a ŋ tɕ i m aː ɹ a ŋ x o ŋ <no-speech> a n f aːɪ̪ ɗ ɨə̪ tɕ ɔ ɛ m ɗ ɨə̪ w aː tɕ ɔ ɛ m tɕ ɨ <no-speech> tɕ ɔ ɛ m a ŋ <no-speech> ɗ ɨə̪ w aː tɕ ɔ ɛ m l aː m o k <hes> a n l aː m j iə̪ k a n f aːɪ̪ l aː m tɕ ɨ t ɨ ɲ iə̪ ŋ ɓ a k ɛ m ɗ ɨə̪ t iə̪ ŋ w aː 
[304.025]
<no-speech> 
[305.445]
ɗ aː ŋ tɕ ɔ <no-speech> m ɛ ɟ ɨ 
[306.825]
<no-speech> 
[308.515]
<no-speech> ɟ i <no-speech> ɹ a ŋ x i m ɛ ɣ ɨɪ̪ m i t o m ɹ a ŋ a n f aːɪ̪ n ɔɪ̪ ɗ əʊ̪ t iə̪ ŋ f aːɪ̪ n ɔɪ̪ n ɔɪ̪ ɛ m k ɔ a ŋ m i t o m x o ŋ ɗ e ɗ ɔɪ̪ <no-speech> a n k ə m w aː tɕ ɔ ɗ ɔ <no-speech> th i ɛ m ɟ aː ɗ ɔ n ɔɪ̪ th oɪ̪ ɛ m x o ŋ a ŋ m o <no-speech> s ɔ ŋ a n n ɔɪ̪ th oɪ̪ ɗ i m aː k ɨ a ŋ ɗ i tɕ ɨ <no-speech> tɕ ɨ a n 
[320.485]
w aː tɕ ɔ ɛ m tɕ ɨ t ɨ ɲ iə̪ ŋ 
[322.005]
<no-speech> 
[329.745]
<laugh> x o ŋ t ɨ ɲ iə̪ ŋ m əɪ̪ ɣ ɔɪ̪ m i t o m m aː a n n əː a n m əɪ̪ ɓ ɨə̪ tɕ ɨ <no-speech> tɕ ɨ th i ɗ aː <no-speech> x o ŋ n ɛ <no-speech> ɗ ɛ ɟ ɨə̪ɪ̪ ɟ əː m o ɹ ɨə̪ 
[337.265]
<no-speech> 
[343.885]
<no-speech> əɪ̪ k o ŋ v ə ŋ tɕ uɪə̪ ŋ t ɨ w aː ŋ ɓ ə n j o n ɨə̪ <no-speech> ɗ ɨə̪ k h aːɪ̪ tɕ u k ŋ i ŋ ɛ m ɗ ɨə̪ tɕ ɔ a n h aːɪ̪ tɕ u k ŋ i ŋ a n ɗ ɨə̪ k i th u ŋ n əː w aː ɗ əɪ̪ tɕ ɔ ɛ m <no-speech> ɗ ɔ 
[351.755]
<no-speech> 
[357.205]
<no-speech> m uə̪ th i tɕ ɔ <no-speech> m aɪ̪ l a m m o k tʂ a m ŋ i ŋ ɓ aːʊ̪ ɛ m tɕ ɨ m o k tʂ a m ŋ i ŋ tɕ ɔ a n k ɔ ŋ <no-speech> ɗ ɨə̪ w aː ɗ əɪ̪ s ɔ ŋ ɓ e w aː tɕ ɔ ɛ m 
[363.795]
<no-speech> 
[364.875]
<no-speech> 
[365.235]
<no-speech> 
[366.535]
<int> <no-speech> ɨ <no-speech> k ɔ ŋ n əː ɛ m ɓ o ŋ tʂ a m ɹ ɨə̪ɪ̪ 
[371.215]
<no-speech> 
[372.995]
<no-speech> m o <no-speech> ɓ o ŋ tʂ a m h aːɪ̪ m ɨə̪ɪ̪ <no-speech> ɓ aː m ɨə̪ɪ̪ ŋ i ŋ 
[375.825]
<no-speech> 
[377.985]
<no-speech> tɕ ɨ 
[378.665]
<no-speech> 
[382.565]
tɕ i ɹ ɨə̪ 
[383.305]
<no-speech> 
[386.555]
<no-speech> ɓ i l oɪ̪ ɹ oɪ̪ 
[388.155]
<no-speech> 
[391.875]
<no-speech> l ɔ tɕ ɨ ɹ a ŋ l aː m ɹ a ŋ <no-speech> l aː m l aːɪ̪ t o ŋ n ɨə̪ 
[395.015]
<no-speech> 
[399.225]
<laugh> <no-speech> ɓ iə̪ k ɛ m n ɔɪ̪ k i tɕ i m o n əː 
[402.515]
<no-speech> 
[405.605]
<no-speech> tɕ ɨ ɹ a ŋ 
[406.375]
<no-speech> 
[407.515]
<no-speech> 
[407.865]
<no-speech> 
[408.825]
<no-speech> 
[409.865]
<no-speech> 
[410.955]
<int> <no-speech> x i m o a n ɗ i tʂ ɨ k l aːɪ̪ ɹ ɨə̪ 
[412.415]
<no-speech> 
[413.435]
<no-speech> x i m o a n ɗ i tʂ ɨ k <int> l aːɪ̪ 
[416.395]
<no-speech> 
[426.45]
<no-speech> 
[436.505]
n ɔɪ̪ tɕ u ŋ l aː t oɪ̪ th ɨ n a m a n tʂ ɨ k x o ŋ 
[438.635]
<no-speech> 
[442.835]
th ɨ n a m ɗ i 
[444.175]
<no-speech> 
[446.825]
ɛ m tʂ ɨ k t oɪ̪ th ɨ n a m m aː 
[448.555]
<no-speech> 
[453.275]
<no-speech> ɨ 
[454.115]
<no-speech> 
[456.325]
<no-speech> h aː 
[456.885]
<no-speech> 
[459.575]
ɲ ɨ ŋ a n f aːɪ̪ tʂ ɨ k t oɪ̪ th ɨ n a m j əːɪ̪ ɛ m tɕ ɨ 
[462.125]
<no-speech> 
[464.515]
j i ɹ a ŋ l aːɪ̪ x o ŋ 
[465.905]
<no-speech> 
[469.865]
əː <no-speech> k ɔ ŋ ŋ ɨə̪ɪ̪ n i 
[471.315]
<no-speech> 
[476.095]
k ɔ aːɪ̪ <int> m aː ɹ ɨə̪ x o ŋ n əː 
[477.645]
<no-speech> 
[481.175]
k ɨə̪ɪ̪ n ɨə̪ <no-speech> ɟ aː m aː ŋ ɣ e 
[482.955]
<no-speech> 
[487.145]
<no-speech> 
[488.125]
<no-speech> 
[489.545]
x o ŋ l aː m ŋ i ɗ ɔ 
[490.515]
<no-speech> 
[491.665]
ɛ m tɕ uə̪ ŋ ɓ i j e ɲ aː 
[493.045]
<no-speech> 
[495.965]
j e th a m ɓ aː th a m m ɛ <no-speech> k ɛʊ̪ l əʊ̪ ɹ oɪ̪ k u ŋ ɲ əː 
[499.105]
<no-speech> 
[501.045]
th a m h aːɪ̪ k ɔ ŋ tɕ ɔ ɲ aː ɛ m n ɨə̪ 
[502.755]
<no-speech> 
[506.785]
<no-speech> 
[507.185]
<no-speech> 
[508.985]
ɹ a ŋ x o ŋ <no-speech> h aːɪ̪ k ɔ ŋ 
[510.825]
<no-speech> 
[511.915]
th a ŋ k u n ɨə̪ l aː ɓ aː 
[513.225]
<no-speech> 
[516.774875]
<no-speech> 
[517.125]
<no-speech> 
[520.154875]
ɟ ɔ a n tɕ ɨə̪ j o ɲ aː ɛ m n əː ŋ a n x o ŋ th əɪ̪ tɕ ɨ <no-speech> a n j o ɲ aː ɛ m l aː a n th əɪ̪ aː 
[524.355]
<no-speech> 
[527.475]
ɛ h ɨ <no-speech> j o th i ʂ əː tɕ ɨ <no-speech> k ɔ ɟ aː m j o m o 
[531.365]
<no-speech> 
[534.695]
<int> <no-speech> a n tɕ ɨ aːɪ̪ 
[536.595]
<no-speech> 
[539.815]
tɕ i n ɨə̪ m əːɪ̪ <no-speech> tɕ ɨ th a t m a k l ɔ ŋ m aː 
[542.695]
<no-speech> 
[545.165]
<no-speech> əː 
[545.735]
<no-speech> 
[549.005]
əː tɕ ɔ ɗ ɨə̪ k 
[550.225]
<no-speech> 
[551.285]
<no-speech> 
[552.155]
<no-speech> 
[555.645]
<no-speech> h aː <no-speech> t ɨ ɲ iə̪ ŋ n ɔɪ̪ ɛ m ɹ ɨə̪ <no-speech> k ɔ aːɪ̪ tɕ o ŋ m aː n ɔɪ̪ j əː ɹ ɨə̪ x o ŋ n əː 
[559.405]
<no-speech> 
[562.595]
o k ɔ ŋ k ɨə̪ɪ̪ n ɨə̪ <no-speech> k ɨə̪ɪ̪ ɟ o ŋ ɟ e k eʊ̪ aː 
[565.165]
<no-speech> 
[568.395]
k ɨə̪ɪ̪ ɟ o ŋ ɲ ɨ ɟ e k eʊ̪ aː 
[569.845]
<no-speech> 
[576.905]
ŋ ɔ ŋ th i x ɔ j o ɗ i 
[578.175]
<no-speech> 
[579.715]
ŋ eʊ̪ m uə̪ ŋ ɓ i k ɨə̪ ɹ a ŋ 
[581.545]
<no-speech> 
[585.125]
oɪ̪ ɲ əː k i tɕ i h ɛ h ɛʊ̪ 
[586.485]
<no-speech> 
[590.535]
ɲ əː k i tɕ i h ɛ 
[592.145]
<no-speech> 
[596.625]
s ɨ a n s ɨ <no-speech> a n th i l aː m ɗ ɨə̪ k k i tɕ i m aː n ɔɪ̪ s ɨ j əːɪ̪ x o ŋ s ɨ 
[600.1]
