[0.0]
<no-speech> 
[6.805]
k ɔ a ŋ k i ɟ i x o ŋ 
[7.615]
<no-speech> 
[10.425]
aː l o <no-speech> ŋ ɛ th əɪ̪ ɟ i tɕ ɨə̪ 
[11.845]
<no-speech> 
[13.345]
əːɪ̪ 
[13.995]
<no-speech> 
[16.525]
k ɔ ŋ ɛ th əɪ̪ x o ŋ 
[17.435]
<no-speech> 
[19.415]
ɗ əɪ̪ ŋ ɛ th əɪ̪ ɹ oɪ̪ 
[20.505]
<no-speech> 
[22.485]
əː <no-speech> əː ŋ ɛ th əɪ̪ tɕ ɨə̪ 
[24.445]
<no-speech> 
[27.345]
<int> ɗ əɪ̪ ɗ əɪ̪ ŋ ɛ ɹ ɔ m aː 
[29.515]
<no-speech> 
[31.905]
k ɔ ŋ ɛ th əɪ̪ ɟ i tɕ ɨə̪ 
[32.965]
<no-speech> 
[35.375]
<no-speech> 
[35.955]
<no-speech> 
[37.135]
<no-speech> tɕ ɔ <no-speech> 
[37.795]
<no-speech> 
[39.815]
ʂ aːʊ̪ l aːɪ̪ x o ŋ ŋ ɛ th əɪ̪ ɟ i <no-speech> ɗ əɪ̪ ŋ ɛ th əɪ̪ ɹ ɔ 
[41.755]
<no-speech> 
[44.565]
<no-speech> 
[44.955]
<no-speech> 
[46.085]
əː h aɪ̪ ɲ i <no-speech> th e th i ɓ o t əɪ̪ aːɪ̪ ɓ iə̪ k ɗ ɨə̪ k 
[48.495]
<no-speech> 
[52.035]
aː th e h aː <no-speech> <sta> n ɔɪ̪ tɕ uɪə̪ ŋ th i <hes> f aːɪ̪ ɲ i ŋ m o m 
[59.445]
<no-speech> 
[61.595]
<no-speech> 
[63.895]
<no-speech> 
[66.535]
<laugh> uɪ̪ ɟ əːɪ̪ əːɪ̪ v ə ŋ ɲ ɨ th e aː <no-speech> th e l aː ɓ əɪ̪ ɟ əː t ə n h ə n ɲ ɨ th e n aːʊ̪ 
[72.765]
<no-speech> 
[75.965]
aː th e aː <no-speech> n ɔ ŋ l a m aː 
[77.515]
<no-speech> 
[79.035]
uɪ̪ ɟ əːɪ̪ oɪ̪ 
[79.715]
<no-speech> 
[82.165]
<no-speech> 
[82.585]
<no-speech> 
[83.425]
th e aː <no-speech> aː <hes> n aɪ̪ 
[86.475]
<no-speech> 
[87.775]
<no-speech> 
[88.445]
<no-speech> 
[89.285]
th e ʂ aː ŋ aː <hes> k ɔ <no-speech> t i <no-speech> ɓ aːʊ̪ k ɔ ŋ f ɨə̪ ŋ a n n ɔ ɹ aː n ɔ u ŋ tɕ ɔ <int> 
[97.175]
<no-speech> 
[99.375]
<laugh> ɗ aː <no-speech> ɗ aː l aː m th i k o 
[101.785]
<no-speech> 
[103.485]
<no-speech> 
[104.395]
<no-speech> 
[105.285]
<no-speech> 
[105.905]
<no-speech> 
[107.545]
<sta> ɓ ɔ t aɪ̪ j əːɪ̪ m aɪ̪ <laugh> 
[110.375]
<no-speech> 
[112.115]
<no-speech> 
[112.555]
<no-speech> 
[115.885]
ɨ ɗ əɪ̪ <no-speech> th e tɕ ɨ l i <no-speech> th e n aːʊ̪ tɕ uə̪ ŋ l aː <hes> ɓ i ŋ ɛ ɗ əʊ̪ k ɔ ɓ o ɓ ə c ɟ i ɗ əɪ̪ h aː 
[121.255]
<no-speech> 
[123.525]
<laugh> <breath> <sta> th e aː <laugh> <breath> h o m n aːʊ̪ f aːɪ̪ l aː m m oɪ̪ tɕ ɔ m o k k o f aːɪ̪ l aː m f ɔ ŋ ɲ i ɗ i th oɪ̪ 
[130.444875]
<no-speech> 
[133.355]
th e aː k u ŋ ɗ ɨə̪ k aː k ɔ k o ɹ ə k l aː tʂ ɛ 
[137.075]
<no-speech> 
[142.305]
əː <hes> th e tʂ ɛ ɗ ə n k i ŋ n a m j u ŋ tɕ ɨ ɟ i 
[145.345]
<no-speech> 
[148.475]
ɨ <no-speech> ɗ ɨə̪ k ɹ oɪ̪ th e th i k ɔ ʂ ɛ tɕ ə ŋ ɟ aːɪ̪ ɗ e ŋ n a t əɪ̪ <no-speech> th e ɟ əː ɗ i l aː m th e th i aː x o ŋ x o ŋ x o ŋ tɕ iʊ̪ x ɔ m aː t ə c k ɔ p j aːʊ̪ <no-speech> th e l aː ɗ ɨə̪ k 
[157.715]
k ɔɪ̪ ɲ ɨ l aː ɟ aːɪ̪ <hes> tɕ a ŋ əɪ̪ s ɔ ŋ ɓ a k ɗ əʊ̪ k iə̪ m l əɪ̪ m o k k i th u ŋ <no-speech> tɕ ɔ n ɔ əː 
[162.645]
<no-speech> 
[164.795]
<no-speech> <laugh> th i ɗ u ŋ l aː t ə c k ɔ p 
[168.105]
<no-speech> 
[170.225]
ɓ aːʊ̪ ɟ əː th i <hes> ɓ əɪ̪ ɟ əː th i <hes> h ɛ n aɪ̪ <hes> k ɔ ɗ i <no-speech> ŋ i m aː k əː ɗ əʊ̪ x o ŋ <no-speech> h ɛ n aɪ̪ k ɔ ɗ i ŋ i m aː k əː ɗ əʊ̪ x o ŋ 
[178.305]
<no-speech> 
[180.625]
h ɛ n aɪ̪ k ɔ ŋ i m aː k əː ɗ əʊ̪ x o ŋ 
[183.295]
<no-speech> 
[186.275]
<no-speech> 
[187.925]
<no-speech> 
[189.185]
ɗ i l e ŋ əː <hes> aː ɗ i ɟ i ɲ i ɗ i <hes> ɗ i ɗ i <hes> ɗ i w aː ŋ n ə n h aɪ̪ l aː ɗ i k ɨə̪ l ɔ k ɨə̪ l iə̪ k ɟ i ɗ əɪ̪ <no-speech> 
[199.755]
<no-speech> 
[200.715]
<no-speech> <laugh> l ɔ ɗ əɪ̪ th i aː <no-speech> ɓ aː ɓ əɪ̪ ɗ o th i aː <no-speech> k ɔ m aː n ɨə̪ ŋ 
[208.155]
<no-speech> 
[212.065]
ɨ <no-speech> k ɔ ɗ iə̪ʊ̪ k iə̪ ŋ tɕ ɨ k ɔ ŋ ɟ i n ɨə̪ <no-speech> th e th i ɗ aː ŋ ɓ aːʊ̪ l aː ɗ iə̪ʊ̪ k iə̪ ŋ th i <hes> t ə c k ɔ p ɗ ɨə̪ k th i l aː <hes> ɗ i <no-speech> tɕ ɔ ɗ i ɨ <hes> 
[220.595]
<no-speech> 
[223.185]
<sta> k ɔ 
[224.865]
<no-speech> 
[226.095]
ɨ <no-speech> x o ŋ ɓ iə̪ k <no-speech> th e l aː h aɪ̪ l aː ɟ ɔ k i l ɔaː ɗ əɪ̪ <no-speech> 
[230.735]
<no-speech> 
[233.055]
ɨ ɟ e th e <no-speech> t aːɪ̪ j i k i m aɪ̪ n aɪ̪ ŋ ɛ n ɔ 
[236.195]
<no-speech> 
[239.065]
<laugh> th e aː <no-speech> ɓ əɪ̪ ɟ əː th i th e n aːʊ̪ <no-speech> ɓ əɪ̪ ɟ əː t ə n h ə n th i th e n aːʊ̪ ɹ oɪ̪ <no-speech> ɓ aːʊ̪ ɟ əː th i th i <hes> ɗ i l aː m <no-speech> ɓ əɪ̪ ɟ əː s i ŋ j iə̪ k ɟ i l aː m ɹ oɪ̪ h aɪ̪ v ə ŋ əː ɲ aː əː ɲ aː l o ŋ ɓ o ŋ 
[250.945]
<no-speech> 
[251.235]
<no-speech> 
[252.965]
th e aː 
[253.595]
<no-speech> 
[255.055]
<no-speech> th e l aː k əʊ̪ ɗ ɨə̪ k m o k k ɔ ŋ k aː ʂ o p ɹ oɪ̪ <no-speech> 
[257.415]
<no-speech> 
[258.335]
<laugh> uɪ̪ ɟ əːɪ̪ oɪ̪ <no-speech> tɕ ɨə̪ ɣ a p ɗ ɨə̪ k k ɔ ŋ n aːʊ̪ <laugh> 
[262.725]
<no-speech> 
[265.075]
<int> k o ɣ a ŋ k əʊ̪ l əɪ̪ j aːɪ̪ k ɔ ŋ <no-speech> k o ɣ a ŋ ɗ i t i m s ɛ m tɕ o n aːʊ̪ <no-speech> k i o k uə̪ n ɔ əɪ̪ <no-speech> k əʊ̪ l əɪ̪ j aːɪ̪ k ɔ ŋ <no-speech> k əʊ̪ l əɪ̪ j aːɪ̪ k aː ʂ o p əɪ̪ 
[271.735]
<no-speech> 
[274.805]
x o ŋ j əː k ɔ ŋ k aː ʂ o p th i x o ŋ f aːɪ̪ l aː m k i ɟ i k aː <no-speech> tɕ i əː ɲ aː a ŋ j əːɪ̪ tɕ əːɪ̪ f ɛ f əː ŋ th oɪ̪ 
[279.675]
<no-speech> 
[280.855]
<no-speech> 
[281.245]
<no-speech> 
[283.195]
<no-speech> 
[284.615]
<no-speech> 
[285.685]
l a ŋ ɓ o k j aːʊ̪ m əːɪ̪ ŋ ɔ ŋ <laugh> <breath> h o m n aːʊ̪ 
[289.485]
<no-speech> 
[295.715]
k ɔ <no-speech> m uə̪ n aːʊ̪ tɕ aː f aːɪ̪ tʂ aː t iə̪ ŋ 
[298.925]
<no-speech> 
[301.375]
<no-speech> 
[302.195]
<no-speech> 
[306.805]
<laugh> ŋ eʊ̪ m aː th e th i əɪ̪ <hes> f aːɪ̪ t i m s ɛ m l aː k i tɕ o n aːʊ̪ m aː n ɔ n ɔ k ɔ <no-speech> k i ɓ aː ŋ k i m oɪ̪ ɟ aː ɹ ɛ əɪ̪ <no-speech> th i ɗ i m uə̪ <no-speech> t i m 
[317.015]
n aːʊ̪ ɗ əʊ̪ <no-speech> ɗ i ɗ əʊ̪ ɣ a p k i ɓ ɔ ŋ m aː n ɔ a ŋ m oɪ̪ ɟ aː ɹ ɛ th i n ɔ ɟ e 
[319.935]
<no-speech> 
[321.415]
<no-speech> 
[322.155]
<no-speech> 
[323.565]
əː <no-speech> th e l aː <no-speech> tʂ o ŋ <hes> ɲ i ŋ <no-speech> k u ŋ ɗ ɛ p tʂ aːɪ̪ ɹ oɪ̪ k ɔ ŋ ɟ i <no-speech> k aːʊ̪ ɹ aːʊ̪ ɹ oɪ̪ k ɔ ŋ ɟ i n ɨə̪ 
[329.075]
<no-speech> 
[332.985]
uɪ̪ ɟ əːɪ̪ əːɪ̪ <laugh> 
[335.595]
<no-speech> 
[337.525]
əː <no-speech> ɛ l əː l əː t ə m <hes> ɗ əɪ̪ th i ɟ aːɪ̪ <no-speech> ʂ aːɪ̪ ɹ oɪ̪ x o ŋ h ɔ p 
[343.235]
<no-speech> 
[345.825]
əː ɗ əɪ̪ <no-speech> th e l aː k ɔ ŋ iə̪ l aː f aːɪ̪ k ɔɪ̪ ɲ ɨ l aː l aː l aː l aː l aː t i m s ɛ m k ɔ k i m oɪ̪ n aːʊ̪ m aː n ɔ <hes> n ɔ n ɔ n ɔ <hes> <no-speech> ɓ i <hes> e w aː 
[355.825]
<no-speech> m aː l aːɪ̪ k ɔ ŋ x o ŋ f aːɪ̪ l aː n ɔ e m aː k iə̪ʊ̪ ɟ aː ŋ ɲ ɨ l aː n ɔ th ɛ m <no-speech> n ɔ th ɛ m w aː k əː 
[360.005]
<no-speech> 
[360.855]
<no-speech> ɨ 
[361.575]
<no-speech> 
[364.425]
t aːʊ̪ k u ŋ ɗ u ɟ u p 
[365.375]
<no-speech> 
[369.325]
<no-speech> 
[369.705]
<no-speech> 
[372.115]
n ɔ ɲ iə̪ʊ̪ t iə̪ ŋ m uə̪ s ɛ k ə ŋ ɟ i f aːɪ̪ x ɔaː 
[374.405]
<no-speech> 
[376.205]
ɨ l aː m m oɪ̪ tɕ ɔ n ɔ m o k ɗ ɨə̪ 
[379.395]
<no-speech> 
[381.005]
<no-speech> 
[381.405]
<no-speech> 
[383.105]
k o ɟ aːʊ̪ th aːʊ̪ th i l aːɪ̪ ɟ aː w aː 
[384.735]
<no-speech> 
[386.845]
n ɔ t aː m ɓ aː <no-speech> k o ɟ aːʊ̪ th aːʊ̪ t aː m 
[389.375]
<no-speech> 
[392.535]
<no-speech> ɲ ɨ ŋ m aː 
[393.315]
<no-speech> 
[395.075]
k o ɟ aːʊ̪ th aːʊ̪ th i tɕ ɨə̪ k ɔ ŋ ɨə̪ɪ̪ iə̪ʊ̪ ɲ ɨ ŋ m aː <hes> ŋ eʊ̪ ɲ ɨ th e th i n ɔ l aːɪ̪ x o ŋ k ə ŋ 
[400.705]
<no-speech> 
[403.845]
<no-speech> 
[405.135]
<no-speech> 
[405.965]
<no-speech> 
[406.335]
<no-speech> 
[408.395]
ɨ ɗ u ŋ ɹ oɪ̪ <no-speech> ɲ i ŋ x o ŋ <no-speech> ɲ i ŋ l e ŋ th i th i x o ŋ j əːɪ̪ t əːɪ̪ m aː ɲ i ŋ s uə̪ ŋ th i l aːɪ̪ l aːɪ̪ th ə p w aː th i l aːɪ̪ x o ŋ th ə c 
[414.895]
<no-speech> 
[418.225]
ɨ <hes> ɓ əɪ̪ ɟ əː th i f aːɪ̪ l aː m th e <no-speech> <oov> ŋ eʊ̪ m aː e w aː k u ŋ k o m aː 
[423.365]
<no-speech> 
[425.495]
əː <no-speech> e w aː th i k u ŋ k o f aːɪ̪ j əː l əɪ̪ m o k ɗ ɨə̪ ɗ e ɗ e m aː ɣ ɔɪ̪ l aː k ɔ ɗ oɪ̪ tɕ ɨ x o ŋ k ɔ th iə̪ ŋ h aː ŋ ɨə̪ɪ̪ t aː k ɔ m ə n x o ŋ k ɔ ŋ ɛ x ɔ tɕ iʊ̪ l a m 
[432.085]
<no-speech> 
[438.815]
əː th e th i ɓ əɪ̪ ɟ əː j i ɟ u ŋ ɨə̪ɪ̪ t aː <no-speech> ɗ iə̪ʊ̪ k iə̪ ŋ k ə n t e k ɔ ɹ oɪ̪ ŋ ɨə̪ɪ̪ t aː tɕ i k ə ŋ <no-speech> tɕ o ŋ h ɔa k ŋ ɨə̪ɪ̪ t aː tɕ i k ə ŋ j əː th oɪ̪ th i l aː m th e n aːʊ̪ 
[444.305]
<no-speech> 
[451.325]
x o ŋ <no-speech> əː k o ɟ aːʊ̪ th aːʊ̪ ɲ iə̪ʊ̪ t iə̪ ŋ l a m 
[453.415]
<no-speech> 
[461.595]
ɨ <hes> k ɨ ɲ iə̪ʊ̪ t iə̪ ŋ l aː l aː <hes> ɟ a k t aɪ̪ ɲ aʊ̪ t u ŋ t a ŋ ɗ i tɕ əː ɗ i ɓ əːɪ̪ th e l aː l aː m <no-speech> əː ɲ aː k ɨ j ɨə̪ l aː m j ɨə̪ ŋ i j ɨə̪ tɕ əːɪ̪ k u ŋ k ɔ t iə̪ ŋ 
[469.555]
<no-speech> 
[477.655]
k ɔ t iə̪ ŋ k u ŋ tɕ ɨɪ̪ ɲ aʊ̪ m aː x o ŋ k ɔ t iə̪ ŋ k aː ŋ tɕ ɨɪ̪ ɲ aʊ̪ t əː ŋ əɪ̪ tɕ ɨ 
[480.705]
<no-speech> 
[485.975]
ɨ th i k iə̪ʊ̪ ɟ i m aː tɕ aː tɕ ɨɪ̪ ɲ aʊ̪ 
[487.805]
<no-speech> 
[490.755]
ɨ th i ɗ ɨə̪ ŋ ɲ iə̪ ŋ ɹ oɪ̪ <no-speech> ŋ eʊ̪ m aː j i ɟ u k ɔ t iə̪ ŋ m aː tɕ ɨɪ̪ ɲ aʊ̪ th i l aːɪ̪ ɗ ɨə̪ k ɗ i ɗ əɪ̪ ɗ i ɗ ɔ 
[494.615]
<no-speech> 
[497.455]
<no-speech> 
[497.885]
<no-speech> 
[502.355]
əː <no-speech> th e m aː ɗ əɪ̪ ɗ ɨə̪ n ɔ x o ŋ k ɔ t iə̪ ŋ m aː n ɔ x o ŋ k ɔ t iə̪ ŋ m aː n ɔ k u ŋ t i m ɗ ɨə̪ k x oɪ̪ k ɔ ŋ ɟ aʊ̪ ɗ əɪ̪ th oɪ̪ 
[507.025]
<no-speech> 
[511.565]
t i m s ɛ m k i th a ŋ n aːʊ̪ n ɔ tʂ i ɲ k aːʊ̪ th i ɗ e ŋ ɗ əɪ̪ l aː m ɗ o ɗ e n ɔ 
[514.755]
<no-speech> 
[517.435]
ɲ ɨ ŋ m aː th oɪ̪ <no-speech> n ɔɪ̪ <no-speech> n ɔɪ̪ tɕ ɔ k u ŋ th i ɓ əɪ̪ ɟ əː aː <no-speech> ɗ i t i m aː k ɔ m aː m aː n ɔ n ɔ n ɔ ɟ aː ŋ n ɔ t o t o m o k t i <no-speech> ɲ ɨ ŋ n ɔ ɲ iə̪ʊ̪ t iə̪ ŋ <no-speech> n ɔ x o ŋ ɲ iə̪ʊ̪ ɲ ɨ ŋ ɓ o m ɛ n ɔ ɲ iə̪ʊ̪ 
[527.865]
<no-speech> 
[530.955]
h aː 
[531.465]
<no-speech> 
[533.215]
x o ŋ <no-speech> ɗ o ŋ k ə n th i k u ŋ x o ŋ f aːɪ̪ ɗ o ŋ k ə n ɲ ɨ ŋ <hes> j i ɟ u n ɔ h əːɪ̪ h əːɪ̪ 
[537.765]
<no-speech> 
[543.385]
<laugh> ɗ ɔɪ̪ h ɔɪ̪ l aːɪ̪ k ɔ ŋ ɗ ɨə̪ k k aː n ɨə̪ <no-speech> ɗ ɨə̪ k <no-speech> ɗ ɨə̪ k k aː n ɨə̪ k l ə ŋ k i th i n ɔɪ̪ tɕ uɪə̪ ŋ l aː m ɟ i 
[550.035]
<no-speech> 
[556.065]
ɨ th e n aːʊ̪ m aː f aːɪ̪ ɓ aː ŋ h aː ŋ ʂ o ŋ <no-speech> m aɪ̪ ɓ i ɟ əː h əːɪ̪ aː 
[559.775]
<no-speech> 
[564.725]
əː <no-speech> n ɔɪ̪ tɕ uɪə̪ ŋ ɲ ɨ ɗ uə̪ əɪ̪ 
[567.075]
<no-speech> 
[572.115]
<no-speech> 
[574.545]
<no-speech> 
[577.375]
əː <no-speech> ɛ p k u ŋ ɗ u ŋ th oɪ̪ <no-speech> ɓ əɪ̪ <no-speech> ɟ əː ŋ eʊ̪ m aː n ɔɪ̪ n ɔɪ̪ n ɔɪ̪ n ɔɪ̪ t ə k k aː k i ɟ i k u ŋ k ɔ ŋ k ɔ ɗ ɨə̪ k 
[584.985]
<no-speech> 
[588.835]
<no-speech> 
[590.245]
<no-speech> 
[591.655]
<no-speech> 
[592.035]
<no-speech> 
[592.895]
m uə̪ ŋ w aː ɗ i tɕ ɨ 
[594.125]
<no-speech> 
[597.305]
<no-speech> 
[597.715]
<no-speech> 
[600.1]
