[0.0]
<no-speech> 
[1.685]
<no-speech> 
[2.645]
<no-speech> 
[4.865]
<int> <no-speech> a n h aː 
[6.635]
<no-speech> 
[8.505]
ŋ ɛ ɹ oɪ̪ 
[9.305]
<no-speech> 
[11.055]
ɗ ɨə̪ k ɹ oɪ̪ ɗ ɔ 
[11.835]
<no-speech> 
[13.355]
ɗ ɨə̪ k ɹ oɪ̪ ɗ ɔ 
[14.165]
<no-speech> 
[18.805]
əː 
[19.435]
<no-speech> 
[27.07]
<no-speech> 
[34.705]
<no-speech> əː <no-speech> th i 
[36.565]
<no-speech> 
[40.735]
<no-speech> ɣ ɔɪ̪ tɕ əːɪ̪ s iʊ̪ h aː 
[42.765]
<no-speech> 
[46.645]
<no-speech> ɟ ɨ t iə̪ ŋ <no-speech> <sta> 
[49.835]
<no-speech> 
[51.085]
<no-speech> 
[51.475]
<no-speech> 
[56.315]
ɨ t ə ŋ ɓ o ŋ 
[57.285]
<no-speech> 
[60.525]
<no-speech> 
[60.875]
<no-speech> 
[61.855]
<no-speech> h aː 
[62.755]
<no-speech> 
[64.115]
<no-speech> j əɪ̪ aː <no-speech> əː 
[66.055]
<no-speech> 
[76.215]
l aː l əɪ̪ ʂ o ɓ aː ŋ ɗ iə̪ ŋ h aː 
[77.835]
<no-speech> 
[80.375]
<no-speech> əː 
[80.985]
<no-speech> 
[85.775]
ɨ <no-speech> l aː l əɪ̪ ʂ o th a ŋ th ɔ n i l uə̪ ŋ h aː 
[88.745]
<no-speech> 
[93.005]
th oɪ̪ th oɪ̪ ɗ e i ŋ ɹ aː ɗ aː ŋ i ŋ ɹ aː əɪ̪ m aː 
[95.405]
<no-speech> 
[101.265]
əː 
[101.915]
<no-speech> 
[109.525]
əː 
[110.165]
<no-speech> 
[115.105]
<lipsmack> əː 
[115.725]
<no-speech> 
[118.365]
<no-speech> 
[118.765]
<no-speech> 
[124.375]
<no-speech> əː 
[125.535]
<no-speech> 
[127.875]
<no-speech> 
[128.224875]
<no-speech> 
[130.174875]
<no-speech> əː <no-speech> ɹ ɨə̪ tɕ ə p a n ɗ iə̪ ŋ aː <hes> n ɔɪ̪ tɕ i l ə n h ɨə̪ ŋ ɟ ə n 
[134.175]
<no-speech> 
[138.735]
<no-speech> 
[139.515]
<no-speech> 
[146.495]
l aː ɹ a ŋ <no-speech> m aː ʂ o k aː ɲ ə ŋ aː 
[149.255]
<no-speech> 
[156.015]
ɓ aː ɓ o ŋ aː <hes> <no-speech> ɓ aː ɓ o ŋ h aːɪ̪ ɓ aː m o k <no-speech> h aː 
[159.615]
<no-speech> 
[161.635]
ɓ aː 
[162.505]
<no-speech> 
[163.515]
ɓ aː ɓ o ŋ ɓ o ŋ h aːɪ̪ ɓ aː m o k h aː 
[166.245]
<no-speech> 
[167.715]
h aː 
[168.145]
<no-speech> 
[169.455]
ɓ o ŋ ɓ o ŋ h aːɪ̪ ɓ aː m o k <no-speech> ɹ oɪ̪ m aː ʂ o k aː ɲ ə ŋ 
[173.375]
<no-speech> 
[181.285]
h aː 
[181.885]
<no-speech> 
[186.295]
tɕ a k ɣ ɔɪ̪ <hes> w aː ʂ o k uə̪ ɛ m <no-speech> ʂ o k uə̪ tɕ i h iə̪ ŋ 
[189.705]
<no-speech> 
[191.725]
<no-speech> 
[192.085]
<no-speech> 
[196.355]
<no-speech> 
[197.225]
<no-speech> 
[200.815]
ɓ o ŋ h aːɪ̪ l a m h aːɪ̪ l a m 
[202.575]
<no-speech> 
[205.345]
əː 
[205.965]
<no-speech> 
[211.135]
<no-speech> h i 
[212.775]
<no-speech> 
[224.115]
ɨ 
[224.705]
<no-speech> 
[229.475]
ɨ 
[229.945]
<no-speech> 
[230.975]
th e aː 
[231.415]
<no-speech> 
[237.935]
k i n ɔɪ̪ n aɪ̪ a n h ɨə̪ ŋ ɟ ə n k uə̪ tɕ i l ə n ʂ əː ʂ əː tɕ ɨə̪ <no-speech> <sta> 
[241.365]
<no-speech> 
[243.835]
<no-speech> 
[244.335]
<no-speech> 
[246.815]
<no-speech> 
[248.035]
<no-speech> 
[253.125]
əː i l aː m ə n m ə n <hes> m ə n f aːɪ̪ l əɪ̪ ʂ o ɗ iə̪ ŋ th oaɪ̪ ɓ aː ŋ m ə n ɗ iə̪ ŋ t əːɪ̪ t o ŋ ɗ aːɪ̪ <no-speech> k i t o ŋ ɗ aːɪ̪ n ɔ h ɨə̪ ŋ ɟ ə n m ə n l aː m k i tɕ i l aː m ə n n ɔɪ̪ n əɪ̪ <no-speech> k i ɓ iə̪ʊ̪ ɗ ɔ k m aː ʂ o tɕ i l ə n l aː tɕ i l ə n ɗ a k ɓ o ŋ ɓ o ŋ h aːɪ̪ ɓ aː m o k 
[264.175]
<no-speech> k ɔ ŋ h ɔɪ̪ ɣ ɔɪ̪ tɕ ɔ ʂ o th a ŋ <no-speech> h aː 
[267.205]
<no-speech> 
[272.845]
əː 
[273.365]
<no-speech> 
[274.305]
əː 
[275.465]
<no-speech> 
[279.145]
<no-speech> 
[280.545]
<no-speech> 
[282.585]
h aː 
[283.075]
<no-speech> 
[284.175]
əː t aː ɗ iə̪ ŋ tɕ ɔ k ɔ ŋ iə̪ ŋ t aː n ɔɪ̪ ɹ oɪ̪ 
[286.545]
<no-speech> 
[288.285]
<no-speech> ɨ 
[288.725]
<no-speech> 
[291.625]
l ə ŋ tʂ ɨə̪ k m ə n ɗ e ɹ əʊ̪ n ɨə̪ <no-speech> x o ŋ ɲ əː a n l əɪ̪ th uə̪ k 
[294.805]
<no-speech> 
[301.175]
<no-speech> th uə̪ k ɗ ɔ uə̪ ŋ m ə p k u ŋ ɗ ɨə̪ k <sta> <no-speech> 
[304.005]
<no-speech> 
[305.015]
<no-speech> th uə̪ k ɗ ɔ uə̪ ŋ m ə p k u ŋ ɗ ɨə̪ k 
[306.385]
<no-speech> 
[307.855]
ɨ 
[308.265]
<no-speech> 
[311.285]
th i n ɔ ɟ əː aː <hes> n ɔ uə̪ ŋ ɟ əː ɓ ɨə̪ tʂ ɨə̪ k ɹ oɪ̪ <sta> 
[314.375]
<no-speech> 
[315.835]

[316.955]
<no-speech> 
[319.535]
m aː ɹ aː ŋ l ɔ t iə̪ k k iə̪ m 
[320.865]
<no-speech> 
[328.625]
<no-speech> əː <no-speech> <sta> 
[330.315]
<no-speech> 
[332.535]
<laugh> <no-speech> ɨ k i n i l aː ɗ ɨə̪ k n ɔɪ̪ tɕ uɪə̪ ŋ 
[336.165]
<no-speech> 
[337.405]
n ɔɪ̪ ɗ i <no-speech> ɗ aː ŋ ɗ i s ɛ ɓ uːɪ̪ k h aː 
[339.125]
<no-speech> 
[341.815]
<no-speech> x o ŋ m əː k h aː x o ŋ ɓ uə̪ ŋ ŋ u h aː 
[343.385]
<no-speech> 
[344.275]
x o ŋ ɓ uə̪ ŋ ŋ u h aː <no-speech> x o ŋ ɓ uə̪ ŋ ŋ u h aː 
[347.065]
<no-speech> 
[348.995]
x o ŋ ɓ uə̪ ŋ ŋ u h aː 
[350.255]
<no-speech> 
[354.405]
<no-speech> l e ŋ s ɛ ɓ uːɪ̪ k k u ŋ k ɔ t o ŋ t iə̪ ŋ x o ŋ 
[357.045]
<no-speech> 
[360.415]
<no-speech> <no-speech> th i n ɔ 
[363.865]
<no-speech> 
[365.075]
x o ŋ tɕ ɔ ŋ s ɛ ɓ uːɪ̪ k aː <hes> t uɪə̪ ŋ m aː ɓ i k s i ɗ o aː 
[367.725]
<no-speech> 
[371.075]
ʂ aːʊ̪ x o ŋ tɕ ɔ ŋ əː <hes> t uɪə̪ ŋ s ɛ ɓ uːɪ̪ k ɓ i k s i ɟ i ɗ ɔ n ɔ x o ŋ t o ŋ t iə̪ ŋ 
[374.365]
<no-speech> 
[378.945]
<no-speech> ɨ <no-speech> ɗ i l e ŋ t əːɪ̪ ɗ əʊ̪ 
[380.605]
<no-speech> 
[382.055]
ɗ i l e ŋ t əːɪ̪ ɗ əʊ̪ 
[383.095]
<no-speech> 
[386.705]
<no-speech> ɗ i t əːɪ̪ tʂ e ŋ ɗ ɔ ɹ oɪ̪ h aː 
[388.345]
<no-speech> 
[389.845]
tɕ ə p tɕ aɪ̪ j e 
[391.245]
<no-speech> 
[393.275]
<no-speech> e ɓ ɨə̪ n aɪ̪ <no-speech> ʂ aːʊ̪ th ə c n ɔɪ̪ ɲ iə̪ʊ̪ j əɪ̪ 
[395.185]
<no-speech> 
[397.045]
<no-speech> s ɛ ɓ uːɪ̪ k <no-speech> n ɔ h iə̪ ŋ ɹ oɪ̪ 
[398.415]
<no-speech> 
[400.455]
ɓ ɨə̪ n aɪ̪ s ɛ ɓ uːɪ̪ k m əɪ̪ t iə̪ ŋ ɹ oɪ̪ 
[402.185]
<no-speech> 
[405.975]
<no-speech> m əɪ̪ ŋ i ŋ <no-speech> t o ŋ m əɪ̪ ŋ i ŋ 
[408.375]
<no-speech> 
[410.435]
<no-speech> ɨ <no-speech> n ɛ a n h oɪ̪ n aɪ̪ ɛ m h ɔɪ̪ ʂ o tɕ i l ə n ɓ o ɓ o ŋ h aːɪ̪ ɓ aː m o k l aː ɗ əɪ̪ 
[415.605]
<no-speech> 
[420.685]
k ɔ ŋ k uə̪ ɛ m l aː ɓ o ŋ h aːɪ̪ l a m ɓ aː l a m h aː <no-speech> ɓ ə m ɟ u m k i 
[423.415]
<no-speech> 
[425.805]
<no-speech> əː <no-speech> <sta> 
[427.815]
<no-speech> 
[428.645]
ɗ ɔɪ̪ ɓ u ŋ 
[429.325]
<no-speech> 
[430.435]
<no-speech> <int> <no-speech> ɗ ɔɪ̪ ɓ u ŋ 
[432.465]
<no-speech> 
[434.605]
ɗ ɔɪ̪ ɓ u ŋ 
[435.395]
<no-speech> 
[437.155]
əː 
[437.675]
<no-speech> 
[440.975]
ɣ ɛ k <hes> n ɔ ŋ i m ə n h əː ŋ ŋ ɨə̪ɪ̪ iə̪ʊ̪ n əː ŋ <hes> ɗ e l ɔ w ɛ k ɗ i m ɨə̪ɪ̪ f u k ɹ oɪ̪ <no-speech> th iə̪ k ɗ ɔ <laugh> <no-speech> ɣ ə ŋ m ɨə̪ɪ̪ f u k ɹ oɪ̪ 
[449.795]
<no-speech> 
[451.405]
əː <laugh> 
[452.305]
<no-speech> 
[455.175]
<int> th e m m o k k i ɗ ɔ 
[457.825]
<no-speech> 
[459.195]
l aːɪ̪ k i ɓ iə̪ʊ̪ ŋ eʊ̪ ɗ o ŋ i <int> th i ɓ ə m f i m m o k x o ŋ ɗ o ŋ i th i ɓ ə m f i m h aːɪ̪ 
[463.545]
<no-speech> 
[465.105]
əː <no-speech> <ring> m əɪ̪ ɓ ɨə̪ ɹ a ŋ ɓ ɨə̪ n əː ɓ ə m x o ŋ ɗ ɨə̪ k 
[468.385]
<no-speech> 
[470.765]
<no-speech> <int> <no-speech> ɨ 
[471.955]
<no-speech> 
[473.955]
<no-speech> <laugh> <sta> h i <no-speech> a n ɲ ɛ m aɪ̪ tɕ ɔ k ɔ ŋ k ɛ k ɗ i <no-speech> <laugh> ɲ ɛ m aɪ̪ tɕ ɔ k ɔ ŋ k ɛ k ɗ i <laugh> <no-speech> h i 
[485.755]
<no-speech> <sta> ʂ əː m ə n k ɛ k x o ŋ ɗ ɨə̪ k 
[488.605]
<no-speech> 
[495.545]
th oɪ̪ 
[496.085]
<no-speech> 
[498.045]
<no-speech> əː <no-speech> <sta> 
[500.545]
<no-speech> 
[501.515]
ɛ m v ə ŋ l aː m t əː k t əː k t əː k j e 
[503.565]
<no-speech> 
[506.675]
<no-speech> <lipsmack> <no-speech> m uɪ̪ f u k w aː h aː 
[509.065]
<no-speech> 
[510.615]
ɨ ŋ m uɪ̪ f u k ɹ oɪ̪ 
[512.285]
<no-speech> 
[521.755]
əː 
[522.245]
<no-speech> 
[523.534875]
<laugh> <no-speech> <laugh> a n n ɔɪ̪ ɹ ɨə̪ m aːɪ̪ m o k m əː l əː c aː <no-speech> <laugh> 
[535.215]
<no-speech> m əː ɗ ɔ ŋ l aːɪ̪ t u ɗ i <no-speech> h aː 
[537.745]
<no-speech> 
[538.765]
n ɔ m əː l ɛ m aː 
[540.055]
<no-speech> 
[542.655]
əː tʂ ɔ ŋ <hes> m əː l ɛ 
[544.365]
<no-speech> 
[545.665]
<no-speech> 
[546.045]
<no-speech> 
[548.045]
t ə c m o t ə c <no-speech> h aː 
[550.195]
<no-speech> 
[551.765]
th u k ɓ ɔ o ŋ h ɛʊ̪ 
[553.355]
<no-speech> 
[554.265]
th u k ɓ ɔ o ŋ h ɛʊ̪ 
[555.565]
<no-speech> 
[557.235]
<no-speech> ɨ 
[557.675]
<no-speech> 
[558.685]
tɕ ɨ tɕ əː ɹ a ŋ ɓ əɪ̪ 
[559.865]
<no-speech> 
[561.205]
<no-speech> 
[561.575]
<no-speech> 
[562.515]
<no-speech> <sta> w e ŋ <laugh> <no-speech> ɹ ɨə̪ l aː k i ɗ iə̪ ŋ th oaɪ̪ n ɔ k e k n oɪ̪ tɕ ɔ a n x o ŋ ɗ ɨə̪ k a n ɗ iə̪ ŋ ɗ ɔ <no-speech> 
[568.475]
<no-speech> 
[570.305]
ɨ 
[570.775]
<no-speech> 
[573.065]
<no-speech> ɨ <no-speech> th i 
[574.385]
<no-speech> 
[580.955]
<no-speech> h aː <no-speech> l əʊ̪ ɹ oɪ̪ ɗ i s aː 
[586.775]
<no-speech> 
[593.765]
<no-speech> əː <no-speech> 
[595.145]
<no-speech> 
[596.555]
<no-speech> 
[596.935]
<no-speech> 
[597.845]
tɕ əː ɹ a ŋ ɗ aː ŋ tɕ əː s iʊ̪ ɲ aː 
[599.945]
<no-speech> 
[600.24]
