[0.0]
<sta> aː l o ɟ i aː 
[5.255]
<no-speech> 
[7.645]
<no-speech> 
[8.005]
<no-speech> 
[9.105]
<laugh> ɨ l əʊ̪ ɹ oɪ̪ x o ŋ ɣ a p ɛ m ɲ i 
[12.465]
<no-speech> 
[14.025]
<laugh> əː <laugh> ɓ ɔ ŋ ɛ m <int> ɛ m l aː m a ŋ ɹ aː ʂ aːʊ̪ ɹ oɪ̪ <laugh> 
[21.305]
<no-speech> 
[24.855]
aː 
[25.305]
<no-speech> 
[26.105]
aː th e aː <no-speech> ɨ 
[27.235]
<no-speech> 
[28.745]
<sta> ɗ u ŋ ɹ oɪ̪ <laugh> 
[30.845]
<no-speech> 
[33.425]
<no-speech> 
[33.775]
<no-speech> 
[37.305]
oɪ̪ th e aː <no-speech> l əʊ̪ th e aː uɪ̪ oɪ̪ <no-speech> tɕ i k ɔ ŋ l əʊ̪ tɕ ɨ ɛ m <laugh> m ə n ŋ aɪ̪ ɣ a p ɗ ɨə̪ k ɲ aʊ̪ ɗ u ŋ x o ŋ 
[41.685]
<no-speech> 
[43.095]
<no-speech> 
[43.655]
<no-speech> 
[46.715]
aː <hes> ɨ <no-speech> ɗ aː ŋ <hes> ɗ i ɓ aː ŋ h aː ŋ <no-speech> əː f o h ɔaː <laugh> w a n əː ɗ əɪ̪ th oɪ̪ 
[54.605]
<no-speech> 
[56.135]
aː ɓ aː ŋ ʂ i m th ɛ m aː <no-speech> m o ɓ i i 
[59.095]
<no-speech> 
[62.005]
ɨ <no-speech> ɛ m k ɔ m uə̪ x o ŋ <laugh> 
[65.175]
<no-speech> 
[68.555]
aː <hes> ɨ ɨ th u h əː k k aː f o n aɪ̪ m aː 
[71.255]
<no-speech> 
[72.755]
<int> əː t ə k k aː ɗ əɪ̪ <no-speech> t ə k k aː l uə̪ ŋ h a ŋ w ə n l uə̪ ŋ 
[76.375]
<no-speech> 
[77.755]
əː <no-speech> ɹ o ŋ 
[79.175]
<no-speech> 
[80.575]
<sta> əː k u ŋ ɗ ɨə̪ k <laugh> ɨ <laugh> l aː m a ŋ k u ŋ ɗ ɨə̪ k m aː 
[85.635]
<no-speech> 
[86.915]
h aː 
[87.565]
<no-speech> 
[89.705]
k ɔ <no-speech> th ɨ ɓ aɪ̪ tɕ u ɲ ə k <no-speech> v ə ŋ ɗ i h ɔ k ɗ eʊ̪ <int> 
[93.015]
<no-speech> 
[96.735]
x o ŋ th i <hes> h ɔ k ɲ ɨ th e th i h ɔ k k ɔ h aːɪ̪ ŋ aɪ̪ <hes> th oɪ̪ h ɔ k h aːɪ̪ ŋ aɪ̪ v ə k j aː l a m <no-speech> tɕ aː ɗ ɨə̪ k ŋ i l u k n aːʊ̪ 
[103.485]
<no-speech> 
[104.635]
ɨ <laugh> 
[107.445]
<no-speech> 
[109.595]
əː ɗ i l aː m k aː ŋ aɪ̪ l uə̪ ŋ 
[111.245]
<no-speech> 
[112.045]
ɨ ɗ i l aː m k aː ŋ aɪ̪ t ɨ th ɨ h aːɪ̪ ɗ e ŋ <hes> th ɨ ʂ aʊ̪ 
[115.115]
<no-speech> 
[116.105]
s ɔ ŋ <hes> 
[117.025]
<no-speech> 
[119.205]
ɨ th e l aː <no-speech> k aː t uə̪ ŋ <hes> h ɔ k k ɛ tɕ aː ɗ ɨə̪ k ŋ i l u k n aːʊ̪ k aː <laugh> th e h aː <breath> 
[124.935]
<no-speech> 
[128.185]
əː ɨ <hes> əː tʂ ɔ əː <hes> tʂ ɔ ɓ e ŋ <hes> tʂ ɨə̪ ŋ ɗ əɪ̪ <no-speech> ɓ e ŋ tʂ ɨə̪ ŋ k u ŋ k aː th a ŋ ɓ aː ŋ ɗ əɪ̪ <no-speech> th e l aː h aːɪ̪ a n ɛ m <hes> əː j əːɪ̪ ɲ aʊ̪ 
[135.785]
<no-speech> 
[136.805]
<no-speech> 
[137.195]
<no-speech> 
[140.695]
x o ŋ <no-speech> aː 
[142.105]
<no-speech> 
[143.525]
ɨ h aː ŋ ŋ aɪ̪ k ɔ j e <no-speech> tɕ iə̪ʊ̪ <hes> l aːɪ̪ j e ʂ aː ŋ <laugh> l aːɪ̪ ɗ i s ɔ ŋ <no-speech> ɗ e ŋ th ɨ ɓ aɪ̪ tɕ u ɲ ə k l aːɪ̪ ʂ aː ŋ tʂ ɨə̪ ŋ <no-speech> th e 
[151.115]
<no-speech> 
[152.615]
h aː <no-speech> x o ŋ <laugh> tɕ i ʂ əː ɗ i s ɛ m aɪ̪ <laugh> th ə n th ɔaː ŋ ɗ i k ɔ t iə̪ ŋ <no-speech> əː th ə n <hes> th ə n th ɔaː ŋ t iə̪ ŋ ɟ i th i l aːɪ̪ l e ŋ ɣ ɨɪ̪ m ɛ <no-speech> s ɔ ŋ ɹ oɪ̪ l aːɪ̪ k ə m j e m aː 
[162.955]
s ɔ ŋ l aːɪ̪ ɗ e ŋ l əɪ̪ <no-speech> ɨ <laugh> 
[166.135]
<no-speech> 
[168.235]
<laugh> k ɔ <laugh> l u k n aːʊ̪ k u ŋ th e <laugh> 
[173.565]
<no-speech> 
[174.645]
<breath> ɟ aːʊ̪ n aɪ̪ <hes> ɟ əː ɹ aː m uə̪ tɕ ɔ m ɛ k i t uɪ̪ <laugh> 
[178.365]
<no-speech> 
[179.895]
ɨ t uɪ̪ x ɔaː k ɗ e m aː ŋ <hes> ɗ i i <no-speech> h aː 
[183.145]
<no-speech> 
[185.325]
<no-speech> 
[187.265]
<no-speech> 
[188.925]
əː <no-speech> th e ɓ aːʊ̪ ɗ e k ɔ ŋ m uə̪ tɕ ɔ m ɛ <laugh> 
[192.515]
<no-speech> 
[195.055]
h aː 
[195.645]
<no-speech> 
[198.395]
x o ŋ <no-speech> aː k ɔ ɓ o k ɔ f ə ŋ k uə̪ ɓ o <laugh> tɕ ɨ <breath> th ə k ɗ ɨə̪ k <no-speech> m uə̪ ɟ i aː <no-speech> m uə̪ aːʊ̪ <no-speech> m uə̪ <hes> w ə ŋ <no-speech> ɹ oɪ̪ oɪ̪ tɕ iʊ̪ ʂ a m l a m <laugh> 
[209.885]
<no-speech> 
[210.835]
<no-speech> 
[211.645]
<laugh> oɪ̪ th ə c tɕ uə̪ ŋ l uə̪ ŋ <no-speech> k ɔ ŋ ɗ i m uə̪ m aː l aːɪ̪ <laugh> k ɔ ŋ ɗ i m uə̪ t ɔaː ŋ h aː ŋ tɕ uə̪ ŋ ɹ oɪ̪ <no-speech> x o ŋ x o ŋ tɕ əː c ɗ i ɗ ɨə̪ k t i n aːʊ̪ ʂ ɨə̪ ŋ ɲ ɛ <no-speech> ɨ 
[222.275]
<no-speech> 
[225.985]
əː ɓ iə̪ k h əː k m aː <no-speech> n ɔɪ̪ tɕ u ŋ ɲ aː tɕ i k ɔ <hes> t ə k k aː ɟ aː ɗ a n k ɔ ɓ o ŋ ŋ ɨə̪ɪ̪ ɲ ɨ ŋ m aː <hes> ɗ ɨə̪ k k i w aː ŋ t ə m t ə k <no-speech> t ə m l i l a m <laugh> 
[235.345]
<no-speech> 
[239.275]
h aː 
[239.815]
<no-speech> 
[242.825]
əː <hes> tʂ o ŋ k u ŋ <hes> ɟ aːʊ̪ n aɪ̪ ɗ i l aː m w ɛ ŋ ɹ oɪ̪ tʂ o ŋ k u ŋ <hes> ɓ ɛʊ̪ <hes> ɓ ɛʊ̪ l e ŋ ɹ oɪ̪ x o ŋ <hes> x o ŋ ɓ i əɪ̪ n ɨə̪ <no-speech> x o ŋ ɣ əɪ̪ ɲ ɨ ŋ aɪ̪ tʂ ɨə̪ k n ɨə̪ <no-speech> ɨ <no-speech> ɨ 
[252.355]
<no-speech> 
[253.175]
h aː 
[253.605]
<no-speech> 
[256.254875]
aː tɕ o ŋ tɕ i aː <no-speech> tɕ o ŋ tɕ i v ə ŋ əː ɲ aː l aː m <hes> k aː k j iə̪ k ɲ ɨ m ɔɪ̪ x i ɗ əɪ̪ <no-speech> ɨ <no-speech> l aː m <hes> m aɪ̪ s ɛ 
[263.365]
<no-speech> 
[264.955]
ɨ 
[265.475]
<no-speech> 
[266.765]
ɨ l aː m ɣ o <no-speech> ɨ ɓ e ŋ ɲ aː tɕ i tɕ o ŋ tɕ i l aː m ɣ o j e ɣ o 
[269.915]
<no-speech> 
[271.305]
əː <no-speech> ɗ u ŋ ɗ əɪ̪ <no-speech> l aː m ɣ o x o ŋ x o ŋ <laugh> 
[276.745]
<no-speech> 
[279.135]
aː əː <hes> ɛ m ɗ aː ŋ h ɔ k l əː p h aːɪ̪ <hes> aː l əː p ʂ aʊ̪ ɹ oɪ̪ 
[283.795]
<no-speech> 
[285.825]
ɨ 
[286.425]
<no-speech> 
[287.605]
əː l e ŋ l əː p ʂ aʊ̪ ɹ oɪ̪ l e ŋ ɗ ɨə̪ k 
[289.015]
<no-speech> 
[289.955]
h aː 
[290.515]
<no-speech> 
[293.125]
əː <no-speech> l e ŋ ɹ oɪ̪ <no-speech> l e ŋ l əː p <hes> ʂ aʊ̪ ɹ oɪ̪ <no-speech> k ə p h aːɪ̪ ɹ oɪ̪ 
[296.935]
<no-speech> 
[297.875]
ɓ a k ɗ əʊ̪ k ə p h aːɪ̪ 
[298.885]
<no-speech> 
[299.955]
<sta> aː ɛ m h ɔ k əː tʂ ɨə̪ ŋ ɲ aː m aː 
[301.855]
<no-speech> 
[303.365]
ɨ 
[303.865]
<no-speech> 
[305.605]
əː ɣ ə ŋ ɲ aː <no-speech> ɲ aː tɕ i əː tʂ ɨə̪ ŋ ɣ ə ŋ <hes> k a t ɲ aʊ̪ ɗ o x ɔaː ŋ <hes> ə k th oɪ̪ m aː ɣ ə ŋ <no-speech> ɗ i ɓ o ɗ ɨə̪ k <laugh> 
[312.275]
<no-speech> 
[313.805]
ɨ 
[314.345]
<no-speech> 
[317.225]
ɗ əɪ̪ 
[317.735]
<no-speech> 
[321.445]
ɗ u ŋ ɹ oɪ̪ t uɪə̪ ŋ th əːɪ̪ th e ɗ əɪ̪ <no-speech> th aɪ̪ tɕ ə ŋ tɕ i ɹ oɪ̪ <laugh> 
[324.365]
<no-speech> 
[325.465]
<no-speech> 
[325.925]
<no-speech> 
[327.165]
ɓ iə̪ k l aː m h əː k ɹ oɪ̪ ɛ m aː <no-speech> tɕ i <hes> ɓ a k ɗ əʊ̪ ɲ aː ŋ ɹ oɪ̪ <no-speech> ʂ ɨə̪ ŋ ɹ oɪ̪ <laugh> 
[332.285]
<no-speech> 
[334.095]
əː 
[334.705]
<no-speech> 
[335.815]
əː ɓ əɪ̪ ɟ əː tɕ i ʂ ɨə̪ ŋ ɹ oɪ̪ <hes> ɲ aː ŋ ɹ oɪ̪ <no-speech> tɕ aː f aːɪ̪ l ɔ ɟ i n ɨə̪ <no-speech> tɕ i <hes> tɕ u ŋ n ɔ ŋ ɔaː ŋ th i ɗ i h ɔ k h a n s ɔ ŋ j e k əː m n ɨə̪ k tɕ ɔ tɕ i a ŋ th oɪ̪ <no-speech> tɕ i x o ŋ f aːɪ̪ v ə k j aː ɲ ɨ tʂ ɨə̪ k n ɨə̪ 
[346.065]
<no-speech> 
[347.095]
ɨ əː <laugh> ɛ m k o l e ŋ ɗ i ɲ ɛ <laugh> 
[350.435]
<no-speech> 
[355.405]
tɕ ɨə̪ n ɔ l aːɪ̪ x o ŋ <hes> ɟ ə n n ɨə̪ n a m n aɪ̪ tɕ aː th əɪ̪ ɟ a k k o n aːʊ̪ j e k aː <laugh> 
[360.905]
<no-speech> 
[361.995]
<no-speech> 
[362.455]
<no-speech> 
[363.755]
s aː l a m <hes> tɕ i x o ŋ th ə c 
[365.635]
<no-speech> 
[366.795]
t ə ŋ əː <hes> əː ɟ ɨə̪ɪ̪ 
[367.985]
<no-speech> 
[369.365]
əː <hes> t aːɪ̪ j i x o ŋ f aːɪ̪ ɟ aːʊ̪ n aɪ̪ <hes> v ə ŋ ɗ i ɗ ɨə̪ ŋ əɪ̪ ɲ ɨ ŋ m aː n ɔ x o ŋ h ɔ k əː tʂ e ŋ n aɪ̪ n ɨə̪ <no-speech> ɗ ə m ɹ aː tɕ a k x o ŋ k ɔ th əːɪ̪ ɟ aː n ʂ aː ŋ ɲ aː m ə n tɕ əːɪ̪ n ɨə̪ <laugh> tɕ i k eʊ̪ s aː 
[380.845]
ʂ əː l a m <no-speech> tɕ i ʂ əː s aː <laugh> 
[384.145]
<no-speech> 
[390.125]
oɪ̪ oɪ̪ <breath> ɲ ɨ ŋ m aː ŋ aːɪ̪ l aː x ɔaː ŋ m oɪ̪ x i ɟ aː ɗ a n ɲ aː ŋ ɨə̪ɪ̪ t aː k ɔ j iə̪ k ɟ i m ə n k u ŋ f aːɪ̪ j e <hes> s aː əːɪ̪ s aː tɕ əː k m ə k tɕ i <hes> x o ŋ <hes> x o ŋ ɗ i ɗ ɨə̪ k <no-speech> ɗ i l aː m ɲ ɨ n aɪ̪ ɓ ə ŋ <no-speech> ɗ əɪ̪ ɛ m th ɨ 
[401.825]
ɛ m l aː m s aː ɲ ɨ th e <no-speech> l aː m ʂ aːʊ̪ m aː <hes> l ɔ ɗ ɨə̪ k m ɔɪ̪ j iə̪ k əː <laugh> əː ɲ aː ɗ aː k ɔ ŋ ɨə̪ɪ̪ ɹ oɪ̪ ɲ ɨ ŋ m aː ɗ i l aːɪ̪ f aːɪ̪ k ɔ ŋ k o ŋ j iə̪ k əː <laugh> k o ŋ t i k o ŋ t iə̪ k n ɨə̪ m aː <no-speech> x o ŋ ɓ ɔ ɗ ɨə̪ k <no-speech> ɨ 
[413.295]
ɗ əɪ̪ ɗ ə m ɹ aː <no-speech> x uɪə̪ ŋ <hes> n ɔ l aː <hes> s aː x o ŋ n əː ŋ ɗ i <hes> l aːɪ̪ tɕ aː ɓ iə̪ k l aː ɲ ɨ n aːʊ̪ k ɔ ŋ ɛ m ə n h aɪ̪ l aː <hes> x o ŋ 
[419.415]
<no-speech> 
[421.025]
<no-speech> 
[421.385]
<no-speech> 
[425.845]
əː <hes> əː ɲ aː th i <hes> k ɔ ɲ ɨ ŋ m aː n ɔ l aːɪ̪ x o ŋ th ə c ɣ ə ŋ <no-speech> ɓ a ŋ t uə̪ɪ̪ <no-speech> tɕ i th i th ə c k o ɓ a ŋ t uə̪ɪ̪ ɗ əɪ̪ <no-speech> ɲ ɨ ŋ m aː <hes> 
[434.365]
<no-speech> 
[438.215]
ɨ 
[438.775]
<no-speech> 
[440.135]
ɗ u ŋ ɹ oɪ̪ n ɔ x o ŋ th ə c m aː <no-speech> ɗ ə m ɹ aː tɕ a ŋ ɓ iə̪ k <no-speech> k e <no-speech> th ə c ɲ ɨ th e n aːʊ̪ th i n ɔ əː j əːɪ̪ ɲ aʊ̪ ɲ iə̪ʊ̪ tɕ ɨ <hes> tɕ i th i əː ɗ ɨə̪ k m əɪ̪ <no-speech> ɛ m 
[448.155]
<no-speech> 
[451.125]
<no-speech> 
[451.525]
<no-speech> 
[456.195]
<breath> k ɔ <breath> k ɔ f aːɪ̪ ɗ aː ŋ 
[459.165]
<no-speech> 
[461.265]
<no-speech> 
[461.625]
<no-speech> 
[462.965]
ə k n ɨə̪ <hes> tɕ ɔ əː ɹ iə̪ ŋ x o ŋ tɕ ɔ əː tɕ u ŋ <no-speech> l aː m ɹ iə̪ ŋ tɕ ɔ ɲ aː w aː ɲ aː m əːɪ̪ <laugh> 
[468.755]
<no-speech> 
[471.795]
əː <hes> tɕ i k aː a n tʂ u ŋ tɕ a m ʂ ɔ k tɕ ɔ ɲ aʊ̪ <laugh> əː <laugh> 
[478.275]
<no-speech> 
[481.365]
<laugh> əː <laugh> k e tɕ ɨ <no-speech> f aːɪ̪ tɕ ɔ n ɔ <hes> th oaɪ̪ m aːɪ̪ ɛ m aː <no-speech> m ə n ɗ ɨə̪ k th oaɪ̪ m aːɪ̪ ɹ oɪ̪ ə k n ɨə̪ tɕ ɔ k ɔ ŋ k u ŋ th oaɪ̪ m aːɪ̪ <no-speech> ɗ ɨə̪ k tɕ ɨə̪ <laugh> 
[490.865]
<no-speech> 
[493.645]
ɨ <laugh> th oɪ̪ ɓ əɪ̪ ɟ əː th i m ə n k u ŋ <hes> ʂ ɨə̪ ŋ th i m ə n k u ŋ <hes> f aːɪ̪ ɗ e tɕ ɔ tɕ u ŋ n ɔ th oaɪ̪ m aːɪ̪ ɓ aːʊ̪ ɟ əː <hes> m ə n iə̪ʊ̪ th i h a ŋ h aɪ̪ <no-speech> ɓ əɪ̪ ɟ əː v ə ŋ ɗ aː ŋ x ɔɛ th e n aɪ̪ th i th oɪ̪ <laugh> tɕ ɔ 
[505.285]
h a ŋ ɗ i th oaɪ̪ m aːɪ̪ 
[506.135]
<no-speech> 
[507.795]
<laugh> ɨ 
[509.195]
<no-speech> 
[510.205]
<sta> əː 
[513.245]
<no-speech> 
[514.524875]
h aː 
[514.995]
<no-speech> 
[518.134875]
əː th i ɗ əː ŋ ɟ aː n m aː <no-speech> th i x o ŋ ɓ iə̪ k <no-speech> uɪ̪ ɹ oɪ̪ ɓ iə̪ k l aː m ʂ aːʊ̪ ɗ ɨə̪ k o ŋ <hes> tʂ əːɪ̪ m aː tɕ ɔ <laugh> ʂ o ŋ l əʊ̪ th i ɗ ɨə̪ k ʂ o ŋ l əʊ̪ ɗ u ŋ x o ŋ <laugh> <breath> m aː ɓ a k ɗ i th i ɗ i 
[527.205]
<no-speech> 
[528.595]
<laugh> <breath> m ə n tɕ i ʂ o ŋ l əʊ̪ aː <laugh> <breath> ɛ m s ɛ m ɓ ɔɪ̪ tɕ ɔ tɕ i ɲ ɛ <laugh> 
[532.995]
<no-speech> 
[536.675]
h aː <laugh> tʂ ɛ aː <laugh> <breath> 
[539.285]
<no-speech> 
[541.745]
<no-speech> 
[542.095]
<no-speech> 
[543.455]
<laugh> əː <laugh> v ə ŋ tʂ ɛ l a m <cough> 
[546.145]
<no-speech> 
[547.215]
<no-speech> 
[548.255]
<no-speech> 
[551.565]
əː <laugh> ɹ oɪ̪ 
[554.285]
<no-speech> 
[557.935]
tɕ i ɛ m m ə n k ɔ ɟ uɪə̪ n k ɨə̪ɪ̪ ɲ iə̪ʊ̪ əɪ̪ <laugh> 
[562.565]
<no-speech> 
[564.535]
<int> ɗ ɨə̪ k <hes> k ɨə̪ɪ̪ ɲ iə̪ʊ̪ n ɔɪ̪ tɕ u ŋ l aː tʂ ɔ ŋ ŋ ɨə̪ɪ̪ n ɔ x ɔɛ x ɔa ŋ ɗ ə m ɹ aː <hes> l u k n aːʊ̪ n ɔ k u ŋ t ɨə̪ɪ̪ ɛ m aː <no-speech> n ɔ m aː m əː k m ɔɪ̪ th i th oɪ̪ <hes> n ɔɪ̪ k u ŋ tɕ aː ɓ uə̪ ŋ n ɔɪ̪ n ɨə̪ 
[575.595]
k ɔ ŋ ɹ uə̪ɪ̪ ɗ əʊ̪ m ɛ p k u ŋ tɕ a ŋ <laugh> 
[577.425]
<no-speech> 
[578.395]
<no-speech> 
[578.775]
<no-speech> 
[580.285]
<int> əː <hes> th e <laugh> k ɨə̪ɪ̪ j aːʊ̪ ɗ əʊ̪ aː <laugh> <breath> ɗ ɨə̪ k k i tʂ əːɪ̪ tɕ ɔ tɕ i x ɔɛ m a n <no-speech> ɨ <no-speech> ɨ 
[588.075]
<no-speech> 
[592.175]
əː th i <hes> th i ɗ i t iə̪ m <hes> ɗ əː ɹ oɪ̪ <no-speech> əː ɗ əː ɹ oɪ̪ <no-speech> th i tɕ i tɕ i j aːɪ̪ h o m l aː n ɔ 
[599.935]
<no-speech> 
[599.98]
