[0.0]
<no-speech> 
[3.055]
<sta> t aːʊ̪ n ɛ <no-speech> 
[9.835]
<no-speech> 
[11.545]
<sta> k i ɟ i <no-speech> 
[15.685]
<no-speech> 
[19.385]
<sta> tʂ əːɪ̪ əːɪ̪ tɕ u h əʊ̪ w e ŋ ɗ ɨə̪ ɣ əːɪ̪ m əɪ̪ ɟ i h əː k tʂ əː n ʂ aː ŋ ɟ əː k aːɪ̪ l o ŋ tɕ ɨə̪ əɪ̪ m aː <no-speech> k ɔ ɗ əʊ̪ k aːɪ̪ l o ŋ j əːɪ̪ o ŋ ɓ aː ɟ aː ɗ əʊ̪ 
[31.285]
<no-speech> <sta> ɨ ɹ aː x o ŋ k əɪ̪ tɕ oɪ̪ ɗ o ɗ uə̪ɪ̪ ɗ i ɗ o t u m l u m <no-speech> 
[42.145]
<no-speech> th i a ŋ ɗ i <sta> tɕ əːɪ̪ h oaɪ̪ tɕ ɨɪ̪ ʂ aːʊ̪ <no-speech> th iə̪ k aː tɕ ɨ <no-speech> 
[50.485]
<no-speech> 
[52.245]
<no-speech> <sta> th i <hes> ɓ aː k eʊ̪ t aːʊ̪ a ŋ tɕ əːɪ̪ m aː <no-speech> a ŋ j e h oaɪ̪ ɹ oɪ̪ əɪ̪ <no-speech> ɨ 
[63.905]
<sta> k eʊ̪ j o <no-speech> j o x o ŋ ɗ ɨə̪ k <no-speech> h o m n aɪ̪ ɗ i t əːɪ̪ ɗ əʊ̪ ɹ oɪ̪ 
[74.935]
<no-speech> 
[76.745]
<sta> aːɪ̪ <no-speech> aːɪ̪ <no-speech> ɓ aː ɓ əɪ̪ ɟ əː k ɔ ŋ ʂ o ŋ m aː <no-speech> ɓ əɪ̪ ɟ əː ɣ ə ŋ ɓ aːʊ̪ ɲ iə̪ʊ̪ 
[88.565]
<no-speech> <sta> ɓ əɪ̪ ɟ əː ɣ ə ŋ ɓ aːʊ̪ ɲ iə̪ʊ̪ t uə̪ɪ̪ ɹ oɪ̪ <no-speech> ɓ əɪ̪ ɟ əː ɣ ə ŋ ɓ aːʊ̪ ɲ iə̪ʊ̪ 
[94.845]
<no-speech> 
[97.805]
əː <no-speech> <sta> j o <no-speech> j o <no-speech> m aɪ̪ k ɔ a ŋ k əː m x o ŋ <no-speech> j o t aːʊ̪ j ɨə̪ ɓ u k tʂ a m m əɪ̪ aː <no-speech> th oɪ̪ h aː 
[109.615]
<no-speech> 
[111.125]
<sta> t aːʊ̪ ɗ i ɓ aː tʂ a m ŋ ɛʊ̪ w aː h aː <no-speech> ɨ əː ɗ əɪ̪ x o ŋ k ɔ t iə̪ ŋ a ŋ n ɨə̪ m aː k ɨə̪ɪ̪ tɕ əː k l uə̪ ŋ 
[117.375]
<no-speech> 
[118.675]
<no-speech> 
[119.025]
<no-speech> 
[119.965]
<sta> tɕ a k j əɪ̪ <hes> tɕ a k j o əː ɲ aː k o m ɨə̪ɪ̪ ɗ ɔ 
[124.205]
<no-speech> 
[126.135]
tɕ ɨə̪ <no-speech> tɕ ɨə̪ ɗ ɔ ŋ ɟ i h əː k ɗ ɔ <no-speech> <sta> x o ŋ m aɪ̪ <no-speech> ɨ <hes> ɗ ɔ ŋ tɕ i m a k k o ŋ m aɪ̪ <no-speech> 
[137.035]
<no-speech> 
[138.555]
<sta> <hes> ɟ əː t aːʊ̪ w aː t aːʊ̪ t aːʊ̪ əː ɲ aː k o m ɨə̪ɪ̪ ɹ oɪ̪ <no-speech> <lipsmack> tɕ a k t aːʊ̪ <hes> <no-speech> t aːʊ̪ <oov> ɗ aː ŋ <no-speech> t aːʊ̪ n ɔɪ̪ ɟ ɨə̪ ŋ m ɨə̪ɪ̪ th oɪ̪ ɗ e <hes> th ɨ h aːɪ̪ t aːʊ̪ ɗ i h ɔ k 
[149.025]
k iə̪ th i t aːʊ̪ ɗ i <hes> <sta> s ɛ ɓ uːɪ̪ k k u ŋ ɗ ɨə̪ k <no-speech> tɕ iə̪ʊ̪ th ɨ h aːɪ̪ aː <no-speech> tʂ ɨə̪ th ɨ h aːɪ̪ x ɔaː ŋ <hes> t aːʊ̪ ɟ ɔ n h aː ŋ s ɔ ŋ k əː t aː m t aː m ɟ əː tɕ i ŋ ɟ əː ɟ i j əɪ̪ ɹ oɪ̪ <no-speech> t aːʊ̪ ɗ i s ɛ ɓ uːɪ̪ k t əːɪ̪ tɕ iə̪ʊ̪ t aːʊ̪ h ɔ k 
[160.755]
<sta> n a m ɹ ɨə̪ɪ̪ t aːʊ̪ ɗ ɔ ŋ s ɛ ɓ uːɪ̪ k t aːʊ̪ j e <no-speech> ɹ oɪ̪ ʂ aː ŋ th ɨ ɓ aː ŋ aɪ̪ th ɨ ɓ aː th i t aːʊ̪ <hes> tɕ a k t aːʊ̪ m ɨə̪ ŋ s ɛ o ŋ t aːʊ̪ ɗ i <no-speech> 
[172.335]
<no-speech> 
[174.205]
<sta> tɕ ɨə̪ <no-speech> th i t aːʊ̪ tɕ əː m aɪ̪ h ɔ k k u ŋ h ɔ k tɕ ɨ <no-speech> 
[179.055]
<no-speech> 
[180.955]
<no-speech> 
[181.315]
<no-speech> 
[182.135]
<sta> əː ɹ oɪ̪ <no-speech> əː th i ɗ i h ɔ k l uə̪ ŋ <no-speech> tɕ ɨ n aɪ̪ w aː ɲ aː k o m ɨə̪ɪ̪ ɹ oɪ̪ <no-speech> th i ɗ e m tɕ a k <hes> th i ɗ e m t aːʊ̪ l əɪ̪ s ɛ ɟ ɨə̪ ŋ m ɨə̪ɪ̪ t aːʊ̪ tɕ əː m aɪ̪ ɗ i k u ŋ ɗ ɨə̪ k <no-speech> 
[193.655]
<sta> h aː <no-speech> 
[197.305]
<no-speech> 
[199.645]
<sta> <no-speech> th i əː th i ɗ a ŋ k i ʂ aʊ̪ k u ŋ ɗ ɨə̪ k <no-speech> i l aː ŋ eʊ̪ k ɔ h ɔ k ɓ aː ŋ ɗ e m ɗ ɔ th i <hes> l əɪ̪ s ɛ ɟ ɨə̪ ŋ m ɨə̪ɪ̪ tɕ əː m aɪ̪ ɗ i l əʊ̪ l əʊ̪ m aɪ̪ l əɪ̪ s ɛ k əʊ̪ m aɪ̪ w aː ɹ oɪ̪ t aːʊ̪ j əːɪ̪ m aɪ̪ ɗ i <no-speech> ɗ oɪ̪ w aː ɗ oɪ̪ l aːɪ̪ h oaɪ̪ k u ŋ ɗ ɨə̪ k 
[209.705]
<no-speech> 
[211.855]
<sta> m ɛ 
[213.015]
<no-speech> 
[214.575]
<no-speech> 
[215.085]
<no-speech> 
[216.315]
<no-speech> 
[216.675]
<no-speech> 
[217.725]
<sta> <no-speech> m ɛ m ɛ tɕ u tɕ ɨə̪ ŋ <no-speech> m ɛ tɕ u tɕ ɨə̪ ŋ ɣ əːɪ̪ ɟ ɨə̪ h əʊ̪ j o <no-speech> k o m ɨə̪ɪ̪ ɟ ɨə̪ ŋ m ɨə̪ɪ̪ tɕ əː h aː m ɛ <no-speech> 
[224.285]
<no-speech> 
[225.845]
<no-speech> 
[226.755]
<no-speech> 
[228.085]
<sta> əː th i k o <hes> <no-speech> k o s ɛ <hes> <no-speech> s ɛ ɗ ɔ ŋ k o ʂ aʊ̪ <no-speech> ʂ aʊ̪ ɟ əː j o t əːɪ̪ n əːɪ̪ ɗ ɔ <no-speech> x o ŋ m aː 
[239.055]
<sta> s ɛ n aːʊ̪ k u ŋ k əː ɗ ɔ aː ɟ ɔ <no-speech> ɟ ɔ s ɛ m aɪ̪ əɪ̪ m aː <no-speech> ɟ ɔ s ɛ m aɪ̪ <hes> ɗ i ɟ ɨə̪ ŋ n a m n ɔ ɗ i <hes> tɕ ə m h əː ŋ <no-speech> s ɛ t aːʊ̪ n ɔ ɗ i ɲ a n <no-speech> 
[251.025]
<no-speech> 
[251.515]
<no-speech> 
[252.735]
<sta> əː th i tɕ əː t əːɪ̪ ɹ oɪ̪ t aːʊ̪ <hes> k eʊ̪ th a ŋ ɟ ɔ ŋ n ɔ tɕ əː ɗ o <hes> t aːʊ̪ j e t aːʊ̪ tɕ əː th a ŋ ɗ ɔ j e <hes> t aːʊ̪ w aɪ̪ l aːɪ̪ t aːʊ̪ tɕ əː m aɪ̪ <hes> j e ɗ ɔ l uə̪ ŋ <no-speech> tɕ ɨə̪ <no-speech> h aː 
[264.485]
<no-speech> 
[266.075]
<sta> əː th i <hes> k eʊ̪ ɟ ɨə̪ ŋ m ɨə̪ɪ̪ ɹ aː <no-speech> ɹ oɪ̪ i t aːʊ̪ <no-speech> i l aː j o ɹ oɪ̪ t aːʊ̪ f aːɪ̪ n ɔɪ̪ j əːɪ̪ k o m ɨə̪ɪ̪ ɟ ɨə̪ ŋ m ɨə̪ɪ̪ ʂ aːʊ̪ <no-speech> m ə k k o ŋ w aː ɗ i 
[277.405]
<sta> k eʊ̪ ɟ ɨə̪ ŋ m ɨə̪ɪ̪ s uə̪ ŋ tɕ əː tɕ ɨ <no-speech> 
[281.855]
<no-speech> 
[282.765]
<sta> <no-speech> t aːʊ̪ k ɔ ŋ m o k th u ŋ h aː ŋ k uə̪ th a ŋ a n t aːʊ̪ n ɨə̪ ɗ e t aːʊ̪ ɗ iə̪ ŋ ŋ eʊ̪ th a ŋ a n t aːʊ̪ n ɔ s uə̪ ŋ n ɔ l əɪ̪ th i t aːʊ̪ x ɔɪ̪ j e w ə n ɓ aɪ̪ <no-speech> k ɔ ŋ ŋ eʊ̪ m aː n ɔ x o ŋ s uə̪ ŋ l əɪ̪ th i <hes> t aːʊ̪ j e w ə n ɓ aɪ̪ 
[294.495]
<sta> m aː ɟ əː n ɔɪ̪ j əːɪ̪ k o m ɨə̪ɪ̪ ɟ ɨə̪ ŋ m ɨə̪ɪ̪ ʂ aːʊ̪ ɗ əɪ̪ <no-speech> 
[304.725]
<sta> ɟ əː tɕ ɨə̪ th əɪ̪ m aɪ̪ <no-speech> 
[308.765]
<no-speech> 
[310.065]
<sta> j i ɟ u ɲ ɨ a ŋ əː ɗ o <hes> t o ŋ k ɛ m ɗ ɔ tɕ ɨ 
[315.355]
<no-speech> 
[316.405]
<sta> <no-speech> i a ŋ <no-speech> a ŋ əː ɗ o t o ŋ k ɛ m x o ŋ tɕ ɨ m aɪ̪ <no-speech> 
[323.325]
<no-speech> 
[325.305]
<sta> tɕ a ŋ l ɛ ɟ əː o ŋ ɓ aː ɓ ɔ t aːʊ̪ m aɪ̪ x u ŋ h aː m aɪ̪ <no-speech> 
[333.155]
<no-speech> 
[334.245]
<no-speech> 
[338.645]
<no-speech> 
[341.575]
<no-speech> 
[341.935]
<no-speech> 
[344.045]
<sta> <no-speech> h aː 
[347.175]
<no-speech> 
[349.595]
<sta> əː th i t aːʊ̪ əː ɗ ɔ th i t aːʊ̪ l aː m ɟ u m ɓ aː ɹ oɪ̪ ɓ aː ʂ ɛ x ɔɛ ɹ oɪ̪ <no-speech> 
[355.525]
<no-speech> 
[357.305]
<sta> th i tɕ a k t aːʊ̪ tʂ ɨ 
[359.255]
<no-speech> 
[360.945]
<sta> <no-speech> tɕ ɨ ɟ əː h ɔ k k ɔ ɓ aː ŋ aɪ̪ j əɪ̪ m aː 
[364.255]
<no-speech> 
[365.185]
<sta> m aː ʂ əː m o k k i l aː ɗ u m ɛ <no-speech> t aːʊ̪ th ɨ ɓ aː t aːʊ̪ k ɔ s ɛ ɗ i m aɪ̪ h iə̪ʊ̪ x o ŋ <no-speech> k ɔ x i l aː <no-speech> əː <no-speech> th ɨ ɓ aː n aɪ̪ t aːʊ̪ f aːɪ̪ h aː t t aːʊ̪ 
[375.215]
<sta> t aːʊ̪ f aːɪ̪ ɗ i ɟ aɪ̪ tʂ e ŋ <hes> w ə n m o k ɗ əɪ̪ <breath> 
[378.535]
<no-speech> 
[380.105]
<sta> <no-speech> ɗ ɔ ŋ s ɛ ɓ uːɪ̪ k s uə̪ ŋ x o ŋ k i p <no-speech> 
[383.445]
<no-speech> 
[384.425]
<sta> x o ŋ th i ŋ eʊ̪ ɓ i aː th i k ɨ t oɪ̪ th ɨ h aːɪ̪ j əɪ̪ t aːʊ̪ t aːʊ̪ ɗ ɔ ŋ s ɛ ɓ uːɪ̪ k t aːʊ̪ j e ɲ aː ɗ əɪ̪ th i <hes> t aːʊ̪ n ɔɪ̪ <hes> ɟ ɨə̪ ŋ k ɨə̪ ŋ k eʊ̪ t aːʊ̪ w aː ɗ əɪ̪ tɕ əːɪ̪ ɹ oɪ̪ <hes> th ɨ ɓ aː tɕ ɔ t aːʊ̪ m ɨə̪ ŋ s ɛ <no-speech> 
[395.875]
<no-speech> <sta> x o ŋ ɓ iə̪ k ɗ e k ɔɪ̪ th ɨ ʂ aː ŋ th ɨ ɓ aː ŋ eʊ̪ m aː ŋ i ʂ aː ŋ th ɨ ɓ aː n ɔ x o ŋ h ɔ k th i th i <no-speech> ʂ aː ŋ t aːʊ̪ th i s ɔ ŋ ɹ oɪ̪ m ɨə̪ɪ̪ h aːɪ̪ ɟ əː tʂ ɨə̪ t aːʊ̪ j e m aɪ̪ tɕ ɔ n ɔ ɗ i h ɔ k <no-speech> ɹ oɪ̪ t aːʊ̪ ɗ ɔ ŋ s ɛ ɓ uːɪ̪ k t aːʊ̪ ɗ i t aːʊ̪ h ɔ k k u ŋ ɗ ɨə̪ k 
[407.795]
<sta> əː <no-speech> tɕ ɨ ɟ əː ʂ aːʊ̪ <no-speech> <no-speech> n oɪ̪ m aɪ̪ h aːɪ̪ t aːʊ̪ x o ŋ ɗ ɔ <no-speech> n oɪ̪ m aɪ̪ h aːɪ̪ t aːʊ̪ x o ŋ ɗ ɔ 
[419.075]
<sta> ɗ u 
[420.645]
<no-speech> 
[421.655]
<sta> ɟ o ŋ l aː m f iə̪ ŋ ɟ i <no-speech> ɟ əː l əɪ̪ ɹ aː k u ŋ ɗ ɨə̪ k tɕ ɨ <no-speech> ʂ aːʊ̪ ɗ əʊ̪ m aː <no-speech> ɲ aː k ɔ k ɔ ŋ ŋ aː j əːɪ̪ th a ŋ t u ŋ x o ŋ tɕ ɨ k ɔ aːɪ̪ ɗ əʊ̪ m aː <no-speech> tɕ ɨ th i ɲ aː ɗ ɔ k ɔ k ɔ ŋ ŋ aː j əːɪ̪ th a ŋ t u ŋ x o ŋ tɕ ɨ k ɔ aːɪ̪ ɗ əʊ̪ m aː 
[433.525]
<sta> ɗ ɔ l əɪ̪ t iə̪ ŋ ɹ aː x o ŋ ɗ ɨə̪ k <no-speech> 
[436.405]
<no-speech> 
[438.775]
<sta> ɲ aː ɗ ɔ ɗ əʊ̪ 
[443.685]
<no-speech> 
[446.125]
<no-speech> <sta> m əː k n ɔ w aː th oɪ̪ ɓ ɔ m ɛ ɗ i <no-speech> k eʊ̪ j əːɪ̪ o ŋ t aːʊ̪ <hes> t aːʊ̪ j o t aːʊ̪ <no-speech> ɨ 
[457.465]
<no-speech> 
[459.535]
<no-speech> <sta> ɓ aː x o ŋ k ɔ ʂ aːʊ̪ 
[460.965]
<no-speech> 
[461.845]
<no-speech> 
[462.505]
<no-speech> 
[463.455]
<no-speech> 
[464.425]
<no-speech> 
[466.405]
<sta> i <hes> m aɪ̪ m aɪ̪ m aɪ̪ x o ŋ m aː t aːʊ̪ th əɪ̪ t aːʊ̪ əː ɲ aː k o m ɨə̪ɪ̪ l aː t iə̪ ŋ <no-speech> 
[476.475]
<sta> əɪ̪ <hes> n aɪ̪ t aːʊ̪ əː ɲ aː k o m ɨə̪ɪ̪ l aː t iə̪ ŋ ɲ ə k ɗ ɔ <no-speech> 
[481.075]
<no-speech> 
[482.825]
<sta> i l aː ɗ u m ɛ ɗ əː t iə̪ ŋ k əː m ɹ oɪ̪ ɗ u m ɛ ɗ ɛʊ̪ ɗ ɛʊ̪ t o ŋ t iə̪ ŋ ɲ aː n ɨə̪ <no-speech> 
[488.185]
<no-speech> 
[489.055]
<no-speech> 
[496.165]
<no-speech> 
[497.415]
<no-speech> <sta> əɪ̪ l aː <hes> əɪ̪ t aːʊ̪ əː ɓ e ŋ ɗ əɪ̪ th i tʂ ɨə̪ w aː tɕ əːɪ̪ j əɪ̪ tɕ ɔ j uɪ̪ tɕ ɨ t aːʊ̪ əː m o k m ə n t aːʊ̪ k u ŋ ɓ uə̪ ŋ <no-speech> 
[505.045]
<no-speech> 
[506.175]
<no-speech> 
[508.325]
<no-speech> 
[509.155]
<no-speech> 
[509.585]
<no-speech> 
[510.395]
<no-speech> 
[510.975]
<no-speech> 
[511.865]
<no-speech> 
[513.495]
<no-speech> 
[514.514875]
<sta> i l aː n aɪ̪ ɗ əː k n aɪ̪ t aːʊ̪ th i n ɛ ɟ aː ŋ ɲ ɨ m aɪ̪ <hes> w aː ɹ oɪ̪ əɪ̪ ɹ oɪ̪ k ɔ ɟ i t aːʊ̪ t aːʊ̪ h ɔɪ̪ ɹ oɪ̪ tɕ i t aːʊ̪ tɕ ɨ <no-speech> 
[522.355]
<no-speech> 
[524.255]
<no-speech> 
[525.255]
<no-speech> 
[527.335]
<sta> tʂ əːɪ̪ əːɪ̪ <breath> t ɔaː ŋ ɹ oɪ̪ <hes> s e k i t ə n ʂ aːɪ̪ ʂ o ɗ o ɲ əː x o ŋ m aɪ̪ <no-speech> k i <hes> t ə n ʂ aːɪ̪ ʂ o ɗ o m aɪ̪ ɲ əː x o ŋ <no-speech> 
[539.115]
<sta> ɨ <no-speech> ɨ <no-speech> ɨ <no-speech> t oɪ̪ n aɪ̪ m a k k uə̪ ɓ aː ɗ əɪ̪ <no-speech> 
[546.345]
<no-speech> 
[548.515]
<no-speech> <sta> aːɪ̪ ɓ iə̪ k ɗ əʊ̪ ɲ əː t aːʊ̪ ɲ əː ɗ əʊ̪ m aː <hes> <no-speech> th i i l aː m aɪ̪ ɗ ɨə̪ k i j əː w iə̪ ŋ k u k uə̪ m aɪ̪ ɗ ɨə̪ k ɔɪ̪ k i ɟ aː ŋ ɓ aːɪ̪ t ə p m aː t aːʊ̪ ɗ ɛʊ̪ ɓ iə̪ k l aː m 
[560.065]
<no-speech> 
[561.045]
<sta> ɗ əʊ̪ <no-speech> k i m aː t ə n ʂ aːɪ̪ ʂ o ɗ o t ə n <hes> t ə c f ə ŋ k ə p ɓ aː k ə p ɓ o ŋ ɗ o j əɪ̪ 
[566.965]
<no-speech> 
[568.105]
<no-speech> 
[568.365]
<no-speech> 
[568.54]
