[0.0]
<no-speech> aː l o <no-speech> ɗ aː ŋ l aː m ɟ i ɗ əɪ̪ ɛ m 
[11.995]
<no-speech> əː ɲ aɪ̪ m əɪ̪ j ɔ ŋ 
[18.555]
<no-speech> 
[19.715]
h aː 
[20.505]
<no-speech> 
[22.655]
əː ɗ aː ŋ ɗ i ɗ e ŋ ɣ ə ŋ ɟ aː l ə m ɹ oɪ̪ <no-speech> ɗ aː ŋ ɗ i ɗ e ŋ ɣ ə ŋ ɟ aː l ə m 
[29.275]
<no-speech> 
[30.225]
ɣ ə ŋ ɟ aː l ə m 
[32.585]
<no-speech> 
[33.615]
ɟ aː l ə m <no-speech> ɨ 
[37.375]
<no-speech> 
[38.645]
ɨ ɗ i l e ŋ ɗ əɪ̪ t i tɕ ɔ n ɔ th ə c 
[42.045]
<no-speech> 
[43.765]
əː t i n ɨə̪ ɗ i j e <no-speech> th e h o m n aɪ̪ h o m n aɪ̪ aːɪ̪ tɕ aɪ̪ k u ŋ x o ŋ 
[55.275]
<no-speech> 
[56.755]
<no-speech> 
[58.025]
th e tɕ aɪ̪ ɗ ɨə̪ k m əɪ̪ j ɔ ŋ 
[61.845]
<no-speech> 
[63.095]
th e tɕ aɪ̪ ɗ ɨə̪ k m əɪ̪ j ɔ ŋ 
[65.325]
<no-speech> 
[66.215]
əː tɕ aɪ̪ ɗ ɨə̪ k m əɪ̪ j ɔ ŋ <no-speech> tɕ ɨə̪ tɕ aɪ̪ ɓ əɪ̪ ɓ əɪ̪ ɟ əː m əːɪ̪ ɗ aː ŋ ɗ i ɗ aː h aː 
[74.155]
<no-speech> 
[75.105]
<no-speech> aː aː ɓ iə̪ k ɗ aː ŋ ŋ oɪ̪ th e h o m n aɪ̪ k əɪ̪ k ɔ tɕ aɪ̪ x o ŋ 
[79.855]
<no-speech> 
[81.225]
<no-speech> 
[81.725]
<no-speech> 
[83.205]
<no-speech> 
[84.355]
<no-speech> 
[86.645]
əː th e l uə̪ k ɔ tɕ aɪ̪ x o ŋ <no-speech> k ɔ ɣ a p l uə̪ x o ŋ <no-speech> ɨ 
[98.475]
<no-speech> 
[99.785]
<no-speech> 
[101.025]
ɗ oɪ̪ ɗ oɪ̪ m aʊ̪ th aː m ɟ aː h oɪ̪ h ɛ aː <no-speech> ɗ oɪ̪ m aʊ̪ th aː m ɟ aː h oɪ̪ h ɛ aː 
[112.465]
əː əː əː əː əː <no-speech> əː əː th e ɲ aː tɕ u ɟ aːʊ̪ k ɔ ŋ th uə̪ ɟ i l əː ŋ m aː ŋ x o ŋ <no-speech> ɲ aː tɕ u ɟ aːʊ̪ n aɪ̪ k ɔ ŋ n uə̪ɪ̪ l əː ŋ m aː ŋ x o ŋ 
[124.245]
ɲ aː tɕ u ɟ aːʊ̪ n aɪ̪ k ɔ ŋ n uə̪ɪ̪ l əː ŋ m aː ŋ x o ŋ <no-speech> əː 
[129.974875]
<no-speech> 
[132.185]
<sta> <no-speech> tɕ əː k t ɨ h o m n aːʊ̪ <no-speech> 
[135.475]
<no-speech> 
[138.325]
n uə̪ɪ̪ x ɔaː ŋ t ə m ɓ aːʊ̪ ɲ iə̪ʊ̪ l əʊ̪ n ɨə̪ th i ɗ ɨə̪ k a ŋ 
[141.525]
<no-speech> 
[144.655]
<no-speech> 
[148.715]
<no-speech> 
[150.065]
tɕ u k k ə ŋ l aː th ə k ɗ ɨə̪ k ɹ oɪ̪ x iə̪ p l əː ŋ m aː ŋ tɕ u k k ə ŋ l aː t ɔ ɹ oɪ̪ 
[155.115]
<no-speech> 
[156.355]
ɨ l əː ŋ 
[158.745]
<no-speech> 
[159.695]
<no-speech> 
[160.125]
<no-speech> 
[162.075]
k u ŋ tɕ ɨə̪ k ɔ ŋ ɗ əɪ̪ ɓ aːʊ̪ ɟ əː a ŋ ŋ ɔ ŋ x o ŋ 
[167.135]
<no-speech> 
[169.165]
əː 
[171.825]
<no-speech> 
[172.695]
tɕ ɔ k i <no-speech> ɲ ɨ ŋ m aː 
[176.895]
<no-speech> 
[177.905]
ʂ aːʊ̪ x o ŋ th aː l e ŋ ɹ ɨ ŋ əɪ̪ 
[180.635]
<no-speech> 
[181.445]
ʂ aːʊ̪ x o ŋ th aː n ɔ l e ŋ ɹ ɨ ŋ əɪ̪ <no-speech> th aː l e ŋ ɗ əɪ̪ s ɔ ŋ ɹ oɪ̪ ɗ e ŋ l u k n aːʊ̪ t ɔ th i ɓ a k 
[189.475]
<no-speech> 
[190.595]
<no-speech> 
[192.315]
<no-speech> 
[194.745]
ŋ oɪ̪ l e ŋ ɗ əɪ̪ ɹ oɪ̪ l aː ŋ ɨə̪ɪ̪ t aː ɹ aː ŋ ɨə̪ɪ̪ t aː l aːɪ̪ th u t iə̪ ŋ <no-speech> ŋ ɨə̪ɪ̪ t aː ɹ aː ŋ ɨə̪ɪ̪ t aː l aːɪ̪ th u t iə̪ ŋ l aːɪ̪ x o <no-speech> əː əː k i tɕ o h o m o k ɟ i 
[206.695]
ŋ oɪ̪ tɕ o h o m o k ɗ u ŋ x o ŋ 
[212.935]
<no-speech> 
[214.595]
əː ɲ ɨ ŋ m aː x o ŋ x o ŋ k ɔ aːɪ̪ k i ɟ i <no-speech> əː 
[220.215]
<no-speech> 
[221.105]
th e h o m n aɪ̪ əː ɗ əɪ̪ k ɔ ɗ o ŋ ŋ ɨə̪ɪ̪ tɕ aɪ̪ x o ŋ <no-speech> h o m n aɪ̪ əː ɗ əɪ̪ k ɔ ɗ o ŋ ŋ ɨə̪ɪ̪ tɕ aɪ̪ x o ŋ <no-speech> ɨ <no-speech> ɣ a p ŋ ɨə̪ɪ̪ w ɛ ŋ 
[231.665]
ɗ e ŋ l uə̪ ɗ əʊ̪ ɗ iə̪ ŋ tɕ ɔ l uə̪ s ɛ m k ɔ ɹ aː x o ŋ 
[238.545]
<no-speech> 
[241.755]
th e ʂ aːʊ̪ t ɨ k i h o m ɗ i uə̪ ŋ n ɨə̪ k ɗ əɪ̪ j e s ɔ ŋ m aɪ̪ m aɪ̪ l aːɪ̪ th oɪ̪ <no-speech> l aː m ʂ aːʊ̪ <no-speech> h o m ɗ əɪ̪ t ɨ k aː 
[253.655]
<no-speech> 
[254.205]
<no-speech> 
[255.035]
<no-speech> th e th e ɟ əː k ɔ ɲ a ŋ t i ŋ n ɨə̪ x o ŋ 
[260.705]
<no-speech> 
[261.835]
k ɔ ɲ a ŋ <no-speech> k ɔ ɲ a ŋ t i ŋ ɣ ɔɪ̪ ɗ iə̪ ŋ ɟ i x o ŋ <no-speech> əː <no-speech> ɣ a p 
[273.075]
v ə ŋ ɓ ə n th ɨə̪ ŋ tɕ ɨ <no-speech> ɓ əɪ̪ ɟ əː ɣ a p ɓ aː ɗ əɪ̪ v ə ŋ ɓ ə n th ɨə̪ ŋ tɕ ɨ 
[279.465]
<no-speech> 
[280.615]
<no-speech> əː <no-speech> əː əː <no-speech> h aː 
[288.385]
<no-speech> 
[290.405]
ɓ iə̪ k aː x o ŋ ɓ iə̪ k 
[294.345]
<no-speech> 
[295.465]
əː x o ŋ ɓ iə̪ k ɗ əʊ̪ <no-speech> ʂ aːʊ̪ 
[302.035]
<no-speech> 
[302.895]
l aː m ʂ aːʊ̪ <no-speech> ɗ i ɗ e ŋ n ɔɪ̪ tɕ u ŋ l aː ɣ ə ŋ t ɨə̪ ŋ ɗ aːɪ̪ ɓ a k ʂ əː n ɹ oɪ̪ 
[314.245]
<no-speech> 
[315.485]
əː <no-speech> əː ɨ h o m n aːʊ̪ ɗ i tɕ əːɪ̪ <no-speech> x o ŋ x o ŋ ɲ əː ɗ əʊ̪ 
[325.735]
h o m n aːʊ̪ j e ɲ aː h o m n aːʊ̪ j e ɲ aː th a ŋ h ɔaː ŋ t a m ɓ iə̪ ŋ ɗ i <no-speech> k aː ɗ i k aː j e k u ŋ k ɔ m ə k ɓ aːʊ̪ ɲ iə̪ʊ̪ ɗ əʊ̪ 
[336.495]
<no-speech> 
[337.565]
ɗ u th oaɪ̪ m aːɪ̪ <no-speech> h aː <no-speech> l aː m ʂ aːʊ̪ ɨ v ə ŋ x ɔɛ 
[347.995]
<no-speech> 
[349.005]
aː tɕ ɨə̪ n a m n aɪ̪ tɕ ɨə̪ ɗ i h ɔ k <no-speech> əː 
[354.485]
<no-speech> 
[355.325]
ɨ ɗ aː ŋ k o ɗ əɪ̪ x o ŋ ɓ iə̪ k th e n aːʊ̪ ɓ aːʊ̪ k e h ɔaː c x o ŋ ɓ iə̪ k th e n aːʊ̪ <no-speech> ɓ iə̪ k th e n aːʊ̪ ɗ ɨə̪ k v ə ŋ <no-speech> v ə ŋ k ɔ ŋ x ɨə̪ k 
[367.255]
th e tɕ u ɟ aːʊ̪ n aɪ̪ th e n aːʊ̪ <no-speech> j əː k ɔ ŋ l aː m ʂ aːʊ̪ <no-speech> ɨ 
[372.035]
<no-speech> 
[374.755]
<no-speech> 
[375.105]
<no-speech> 
[376.125]
<no-speech> th e t ə n k u ŋ t ə n m o k th oɪ̪ aː t ɨə̪ ŋ k e h ɔaː c ɗ e ŋ ɓ aːʊ̪ ɟ əː <no-speech> t ə n m o k ɗ ɨə̪ th oɪ̪ aː 
[387.965]
<no-speech> k o ɣ a ŋ ɓ aː ɗ ɨə̪ t oɪ̪ t ɨə̪ ŋ t ɨə̪ ŋ t ɨə̪ ŋ k o ɣ a ŋ l əɪ̪ n a m 
[396.805]
<no-speech> 
[397.915]
<no-speech> aː th e ɟ i th e <no-speech> aː l əɪ̪ ɓ aː l əɪ̪ ɓ aː th i k u ŋ w aː ɹ oɪ̪ k ɔ ŋ ɟ i n ɨə̪ <no-speech> l əɪ̪ ɓ aː th i k u ŋ k ɔ ɗ ɨə̪ ŋ j aːʊ̪ ɗ aː ŋ n ɨə̪ ɗ əʊ̪ th oɪ̪ l əɪ̪ n a m k u ŋ ɗ ɨə̪ k 
[409.855]
<no-speech> th e j əː ɓ aːʊ̪ ɟ i x o ŋ j əː k ɔ ɗ o ŋ i x o ŋ <no-speech> th e j əː n ɔ k ɔ ɗ o ŋ i x o ŋ m aː ɗ ɔɪ̪ ɓ aː 
[421.705]
<no-speech> uɪ̪ j əː ɟ e t ə n th e <no-speech> th e ɟ aːʊ̪ n aɪ̪ v ə ŋ t o k tɕ ɨ h aː 
[433.565]
ɟ aːʊ̪ n aɪ̪ t ə n tʂ aː ŋ v ə ŋ t o k tɕ ɨ ŋ aɪ̪ ɓ aː ɓ ɨə̪ j əː tɕ ɔ a ŋ ɗ eʊ̪ tɕ ɨ <no-speech> j əː tɕ ɔ a ŋ ɗ eʊ̪ tɕ ɨ 
[445.405]
<no-speech> o th e aː <no-speech> th e l aː th e l aː n ɔ ɓ ɔ k l o k ʂ ɨ k l aːʊ̪ ɗ o ŋ aː <no-speech> n ɔ ɓ ɔ k l o k aː 
[455.845]
<no-speech> 
[459.195]
th e l aː n ɔ ɓ ɔ k l o k ɹ oɪ̪ tɕ ɨ ɟ i <no-speech> t oɪ̪ n aːʊ̪ k u ŋ ɓ i ɓ ɔ k l o k h aː <no-speech> t oɪ̪ t oɪ̪ n aːʊ̪ k u ŋ ɓ i n ɔ ɓ ɔ k l o k aː 
[470.975]
<no-speech> h o m h o m n aːʊ̪ ɟ ə n 
[475.155]
<no-speech> 
[476.265]
aː th e <no-speech> ɓ o k f ɛ k 
[480.885]
<no-speech> 
[482.355]
ɨ h o m n aːʊ̪ ɟ ə n k aː j əː l ə ŋ k ɔ ŋ ʂ aː ŋ ɲ aː t aːʊ̪ tɕ əːɪ̪ 
[487.405]
<no-speech> 
[488.515]
ɨ h o m n aːʊ̪ ɟ ə n k aː th a ŋ ɲ ɔ ɲ ɛ <no-speech> tɕ ɨə̪ <no-speech> tɕ ɨə̪ tɕ ɨə̪ ɗ u t iə̪ ŋ 
[499.655]
<no-speech> 
[500.705]
ɨ th i ɓ əɪ̪ ɟ əː l əɪ̪ ɗ əʊ̪ ɹ aː t iə̪ ŋ k ɔ t iə̪ ŋ tɕ ɔ t aːʊ̪ j aɪ̪ ɗ oɪ̪ 
[512.215]
ɨ v ə ŋ th e th oɪ̪ <no-speech> l aː m ʂ aːʊ̪ l aː m ʂ aːʊ̪ m aː ɗ ɨə̪ k ɲ ɨ tɕ u 
[518.834875]
<no-speech> 
[519.935]
h aː <no-speech> əː əː <no-speech> th e o ŋ o ŋ ɓ o m ɛ j əː k ɔ h aɪ̪ ʂ aː ŋ tɕ əːɪ̪ x o ŋ 
[531.405]
<sta> ɓ o m ɛ j əː k ɔ h aɪ̪ ʂ aː ŋ tɕ əːɪ̪ x o ŋ <no-speech> 
[536.275]
<no-speech> 
[537.815]
<no-speech> o ŋ ɓ aː ŋ oaɪ̪ tɕ a k th ə c ʂ aː ŋ tʂ o ŋ tɕ aʊ̪ l a m 
[549.505]
<no-speech> aː v ə ŋ ɗ aː ŋ k e h ɔaː c th i m o k ɗ ɨə̪ ɹ oɪ̪ ɓ əɪ̪ ɟ əː m o k <no-speech> h aː 
[561.365]
<no-speech> j əː k ɔ ŋ <no-speech> əː əː əː 
[572.265]
th e l aː th e l aː t o k ɹ oɪ̪ 
[577.155]
<no-speech> 
[578.605]
th oɪ̪ ɗ ɛ th ɨə̪ th ɨə̪ ɹ aː ɗ ɛ th ɨə̪ th ɨə̪ ɹ aː tɕ ɔ n ɔ ɟ e n uə̪ɪ̪ 
[585.155]
<no-speech> 
[586.745]
<no-speech> əː j əː t aːʊ̪ ɓ aːʊ̪ ɗ ɛ th ɨə̪ th ɨə̪ tɕ ɔ n ɔ ɟ e n uə̪ɪ̪ ɗ ɛ ɟ əː x ɔ n uə̪ɪ̪ n ɔ x ɔ v ə k j aː 
[598.725]
əː əː əː 
[600.115]
