[0.0]
<no-speech> 
[7.205]
<no-speech> aːɪ̪ j əɪ̪ 
[8.015]
<no-speech> 
[9.095]
<sta> <no-speech> aː l o aːɪ̪ j əɪ̪ 
[11.885]
<no-speech> 
[13.705]
j u ɟ i 
[14.575]
<no-speech> 
[22.995]
<no-speech> 
[23.465]
<no-speech> 
[25.665]
th i tɕ ɨə̪ tɕ ɨə̪ tɕ ɨə̪ ɗ iə̪ ŋ l əɪ̪ l əɪ̪ l əɪ̪ l əɪ̪ ɗ əʊ̪ ɹ aː ɣ əːɪ̪ 
[28.965]
<no-speech> 
[30.845]
tɕ ɨə̪ ɗ iə̪ ŋ l əɪ̪ ɗ əʊ̪ ɹ aː ɣ ɨɪ̪ 
[32.495]
<no-speech> 
[34.795]
ɗ aː ŋ əː ɗ əʊ̪ j əɪ̪ ɗ aː ŋ əː ɗ əʊ̪ j əɪ̪ 
[37.495]
<no-speech> 
[38.695]
ɗ i j əːɪ̪ aːɪ̪ j əɪ̪ 
[39.505]
<no-speech> 
[46.015]
ʂ aː ŋ <laugh> th ɨ ʂ aʊ̪ <breath> ʂ aː ŋ th ɨ ʂ aʊ̪ <laugh> 
[49.365]
<no-speech> 
[55.325]
l aː m tɕ i j əɪ̪ m əː k w aː aː t aːʊ̪ k ɔ ŋ ɗ aː ŋ l ɔ tɕ uɪə̪ ŋ ɟ əɪ̪ t əː k uə̪ ŋ ɨə̪ɪ̪ t aː t ɨ ɲ iə̪ ŋ n ɔɪ̪ tɕ uɪə̪ ŋ m ɨə̪ɪ̪ f u k ɓ iə̪ k n ɔɪ̪ ɟ i m ɨə̪ɪ̪ f u k 
[60.855]
<no-speech> 
[65.044875]
t aːʊ̪ l aːʊ̪ 
[66.275]
<no-speech> 
[68.265]
k i ɟ i 
[69.045]
<no-speech> 
[71.665]
ɨ n ɔɪ̪ ŋ ɛ n ɛ t uə̪ ŋ t uə̪ ŋ n aɪ̪ m aɪ̪ k ɔ j e x o ŋ j əɪ̪ 
[74.355]
<no-speech> 
[79.115]
ɨ x o ŋ ɓ iə̪ k x o ŋ ɓ iə̪ k l aː ʂ aːʊ̪ <int> 
[82.215]
<no-speech> 
[85.615]
ɨ 
[86.655]
<no-speech> 
[88.185]
<no-speech> 
[88.535]
<no-speech> 
[91.135]
x o ŋ th i t aː h ɔɪ̪ j əɪ̪ ɗ ɔ 
[92.395]
<no-speech> 
[94.105]
m aː m aɪ̪ k eʊ̪ t aːʊ̪ n ɔɪ̪ tɕ uɪə̪ ŋ m ɨə̪ɪ̪ f u k th i t aːʊ̪ n ɔɪ̪ tɕ ɔ m aɪ̪ ŋ ɛ th i t aːʊ̪ h ɔɪ̪ m aɪ̪ tʂ aː l əːɪ̪ m a k l aː m tɕ i m aɪ̪ h ɔɪ̪ l i ɟ ɔ 
[99.775]
<no-speech> 
[104.615]
h o ʂ əː ɟ əɪ̪ t əː m aɪ̪ əːɪ̪ 
[106.175]
<no-speech> 
[107.325]
k i ɟ i 
[107.935]
<no-speech> 
[110.085]
<sta> h ɔ k k i ɟ i 
[110.875]
<no-speech> 
[112.105]
<sta> h ɔ k 
[112.525]
<no-speech> 
[114.175]
<hes> th i ɗ aː ŋ l aː m n ɛ <no-speech> ɗ əːɪ̪ th a ŋ k iə̪ ɗ ɛ m h o ʂ əː s uə̪ ŋ ɟ u m <no-speech> ɨ n ɔɪ̪ ŋ ɛ n ɛ m aɪ̪ k iə̪ m ŋ ɨə̪ɪ̪ j o əː ɗ i k ɔ th e l aː tʂ ɔ ŋ <hes> 
[125.695]
ɗ əɪ̪ t əːɪ̪ th aː ŋ ɓ aɪ̪ th aː ŋ t aː m ɟ i k ɔ th e t aːʊ̪ ɟ ɔ n j e ɗ ɔ t aːʊ̪ x o ŋ əː n ɨə̪ ɗ ɔ 
[129.185]
<no-speech> 
[131.635]
m ɛ t aːʊ̪ k eʊ̪ j e ɓ aː x o ŋ tɕ ɔ t aːʊ̪ h ɔ k n ɨə̪ k iə̪ 
[134.685]
<no-speech> 
[136.705]
ɓ ɨə̪ t aːʊ̪ t ə n n ɔɪ̪ <sta> h o m ɓ ɨə̪ t aːʊ̪ t ə n n ɔɪ̪ j əːɪ̪ th əː m th əː m ɓ ɨə̪ <oov> ɗ ɨ ŋ n ɔɪ̪ tɕ uɪə̪ ŋ j əːɪ̪ m aɪ̪ m aː t aːʊ̪ w e ŋ n ɔɪ̪ j u ɗ ɔ t aːɪ̪ t aːʊ̪ t ə n l e ŋ n ɔɪ̪ j əːɪ̪ m aɪ̪ tɕ i ɗ ɨ k əː l aː k ɔ th e t aːɪ̪ ɟ əː tɕ i ɲ a m tɕ ɨ ŋ th oɪ̪ ɲ ɨ ŋ m aː 
[148.295]
k ɔ th e l aː tʂ ɔ ŋ n a m n aɪ̪ ʂ ɛ j e l uə̪ ŋ tɕ ɨ x o ŋ k ɔ əː <int> 
[151.555]
<no-speech> 
[153.825]
ɨ 
[154.715]
<no-speech> 
[156.965]
th i t iə̪ ŋ v iə̪ ŋ tʂ əː k uə̪ o ŋ ɗ ɔ <sta> <no-speech> v iə̪ ŋ h aɪ̪ x o ŋ v iə̪ ŋ k u ŋ f aːɪ̪ j e ɗ ɔ m aː əːɪ̪ <no-speech> ɗ aː ŋ ɹ əʊ̪ <no-speech> t aːʊ̪ k ɔ ɓ iə̪ k ɗ əʊ̪ ɓ aː k eʊ̪ j e 
[166.255]
<no-speech> 
[170.755]
ɲ ɨ ŋ m aː k ɔ ŋ h e ŋ s uɪ̪ l aː t aːʊ̪ k ɔ ɗ əʊ̪ x o ŋ t aːʊ̪ k ɔ ɗ əʊ̪ l iə̪ ŋ th o ŋ x o ŋ n ɨə̪ k iə̪ tɕ ɨ x o ŋ f aːɪ̪ l aː əɪ̪ ɗ əʊ̪ 
[177.435]
<no-speech> 
[183.725]
ɓ əɪ̪ ɟ əː ɗ ɔ i m ɛ t aːʊ̪ ɗ ɔ l aː ɓ əɪ̪ ɟ əː k eʊ̪ j e ɗ i ɹ oɪ̪ <hes> əː ɲ aː ɗ ɔ h aːɪ̪ n a m əː ɲ aː h aːɪ̪ n a m ɗ i h ɔ k ɹ oɪ̪ k ɨ ɗ i ɗ i m uə̪ ŋ ɗ i h ɔ k t iə̪ ŋ a n th i k ɨ ɗ i h ɔ k ɓ ə n th ɨə̪ ŋ 
[195.635]
əː ɲ aː h aːɪ̪ n a m <sta> ɹ oɪ̪ əː ɲ aː m əː t iə̪ m <oov> ɓ ɔ t iə̪ ŋ ɹ aː m əː t iə̪ m ɓ aː ŋ tɕ ɨ x o ŋ <oov> ɗ i h ɔ k n ɨə̪ 
[201.805]
<no-speech> 
[202.925]
<sta> <no-speech> th i m əː t iə̪ m th uə̪ k ɗ ɔ 
[209.235]
<no-speech> 
[210.585]
<sta> m ɨə̪ ŋ tɕ i l aː ɓ a ŋ k uə̪ t aːʊ̪ ɗ ɔ x o ŋ ɓ aː ŋ 
[214.255]
<no-speech> 
[216.105]
<sta> th i x o ŋ əɪ̪ th i ɗ əʊ̪ ɗ əʊ̪ ɗ əʊ̪ t aːʊ̪ ɗ əʊ̪ k ɔ n ɔɪ̪ ɓ aː ŋ əː ɗ əɪ̪ ɗ əʊ̪ 
[220.105]
<no-speech> 
[221.565]
<no-speech> 
[223.515]
<no-speech> 
[224.445]
<no-speech> 
[224.795]
<no-speech> 
[228.115]
th i əː ɲ aː h aːɪ̪ n a m ɟ o ŋ ɲ ɨ th ə m n iə̪ ŋ k uə̪ m aɪ̪ h aːɪ̪ n a m m aɪ̪ m əːɪ̪ j əːɪ̪ k i ɓ a ŋ ɗ ɔ h ɔ k ɹ aː ɹ oɪ̪ th ə m n iə̪ ŋ h aːɪ̪ n a m m əːɪ̪ ɗ ɨə̪ k ɗ i l aː m 
[234.965]
<no-speech> 
[238.555]
<no-speech> <sta> ɨ t aːɪ̪ 
[240.725]
<no-speech> 
[241.575]
ɓ əːɪ̪ j əɪ̪ t aːʊ̪ k ɔ th e l aː t aːʊ̪ j e ɓ əːɪ̪ j əɪ̪ t aːʊ̪ n ɔɪ̪ ɹ oɪ̪ m aɪ̪ j əːɪ̪ ɓ aː ɗ ɨ k k iə̪ m ŋ ɨə̪ɪ̪ j o əː k ɔ th e l aː t aːʊ̪ ɗ i j e l uə̪ ŋ n ɨə̪ ɗ ɔ f aːɪ̪ f aːɪ̪ tʂ ɨ h aːʊ̪ m aː m aɪ̪ <oov> n ɛ l u k n aɪ̪ l aː t aːʊ̪ ɗ aː əː ɗ əɪ̪ l uə̪ ŋ ɹ oɪ̪ n ɛ t aːʊ̪ h əː k h ɔ k k i ɟ i ɹ oɪ̪ ɛ m <sta> 
[253.275]
ɓ əɪ̪ ɟ əː t aːʊ̪ tɕ i k ɔ ŋ k ɔ m əɪ̪ m əɪ̪ t iə̪ k h ɔ k n ɨə̪ th oɪ̪ l aː ɛ m l aː t ɔ m l aːɪ̪ <sta> l aː m o k t uə̪ ŋ t aːʊ̪ tɕ i h ɔ k k ɔ m o k t iə̪ k m o k th oɪ̪ m aː tɕ uə̪ ŋ ɓ i t aːʊ̪ ɗ i th ɨ k t ə p ɹ oɪ̪ <no-speech> l aː t aːʊ̪ 
[265.155]
<no-speech> 
[266.305]
k i ɟ i <sta> <no-speech> 
[268.105]
<no-speech> 
[269.705]
<sta> t aːʊ̪ x o ŋ ɓ iə̪ k ɲ ɨ ŋ m aː <oov> th ɨ k th ɨ k t ə p tʂ ɔ ŋ ɓ aː th aː ŋ <no-speech> 
[274.375]
<no-speech> 
[282.405]
th i ɓ əːɪ̪ <sta> t aːʊ̪ k u ŋ ɗ aː ŋ x o ŋ ɓ iə̪ k l aː m ʂ aːʊ̪ n ɛ t ɨ h o m ɓ ɨə̪ j e n ɔɪ̪ tɕ uɪə̪ ŋ ɓ aː ŋ j u ɗ ɔ ɗ ɔ <no-speech> ŋ eʊ̪ m aː ŋ eʊ̪ ŋ eʊ̪ h e m aː t aːʊ̪ ɗ əʊ̪ l iə̪ ŋ th o ŋ ɗ ɔ th i t aːʊ̪ ɗ ɨə̪ k əː t aːʊ̪ ɗ ɨə̪ k h ɔ k 
[293.535]
t iə̪ p k ɔ ŋ h e t aːʊ̪ x o ŋ ɗ əʊ̪ th i t aːʊ̪ f aːɪ̪ ɗ i j e j əɪ̪ th oɪ̪ tɕ ɨ x o ŋ x o ŋ ɗ ɨə̪ k əː 
[297.565]
<no-speech> 
[303.215]
<sta> ɨ j e m aɪ̪ əːɪ̪ ɓ aː k eʊ̪ j e k iə̪ 
[306.865]
<no-speech> 
[307.935]
<no-speech> 
[308.365]
<no-speech> 
[310.695]
<no-speech> 
[311.105]
<no-speech> 
[313.655]
aːɪ̪ m aː ɓ iə̪ k t aːʊ̪ 
[314.995]
<no-speech> 
[316.075]
ɓ əːɪ̪ j əɪ̪ <sta> 
[317.355]
<no-speech> 
[320.105]
<oov> ɲ ɨ ŋ m aː ʂ əː m m uə̪ ŋ ɟ i k u ŋ f aːɪ̪ k iə̪ m th oɪ̪ tɕ ɨ x o ŋ l ɛ m aɪ̪ ŋ i ʂ aːʊ̪ f ɔ ŋ ɓ aː ɗ ɨə̪ tɕ iʊ̪ t iə̪ ŋ ɟ i n oɪ̪ m aɪ̪ k u ŋ f aːɪ̪ k iə̪ m j o m o k ɗ ɨə̪ n ɨə̪ 
[327.175]
<no-speech> 
[330.355]
th i t aːʊ̪ k u ŋ ɓ ɔ t aɪ̪ l uə̪ ŋ m aː ɣ a p t aːʊ̪ ɣ ə ŋ tɕ uə̪ ŋ ɓ i ɟ ɔ n j e n ɨə̪ l aː m o k th aː ŋ m aɪ̪ j əːɪ̪ ɓ aː ɗ ɨ k l aː tɕ iʊ̪ x o ŋ k ɔ n oɪ̪ ɗ əʊ̪ <sta> <no-speech> 
[339.325]
<no-speech> 
[341.205]
<sta> tɕ ɨ m aɪ̪ tɕ ɨ m aɪ̪ ɲ a m ɗ i t aːʊ̪ th əɪ̪ l aː t ə n h ə n l aː th əɪ̪ n a m m ɨə̪ɪ̪ n a m m ɨə̪ɪ̪ ɹ oɪ̪ t aːʊ̪ k ɔ ŋ tɕ ɨə̪ ɓ iə̪ k t əːɪ̪ k i ɗ e n ɔ ɹ aː l aː m ʂ aːʊ̪ n ɨə̪ tʂ əːɪ̪ əːɪ̪ x o ŋ ɓ iə̪ k 
[352.175]
th i ɗ əʊ̪ h aɪ̪ x o ŋ n ɨə̪ 
[353.735]
<no-speech> 
[354.775]
<no-speech> 
[355.995]
<no-speech> 
[363.745]
<no-speech> th i th i ɓ əːɪ̪ 
[365.255]
<no-speech> 
[366.435]
<no-speech> 
[366.785]
<no-speech> 
[370.905]
<no-speech> 
[371.255]
<no-speech> 
[372.175]
<no-speech> 
[374.495]
<no-speech> 
[377.365]
<sta> <no-speech> l aː m tʂ e ŋ tʂ e ŋ l aː m əː ɗ əʊ̪ 
[382.905]
<no-speech> 
[388.345]
ɓ əː n v iə̪ ŋ aːɪ̪ ɲ ə ŋ ɓ əː n v iə̪ ŋ l aː x o ŋ aːɪ̪ ɲ ə ŋ ɹ oɪ̪ <sta> <no-speech> m aː m aɪ̪ m uə̪ ŋ ɹ aː l aː m ɲ aː th uə̪ k ɗ ɔ th i ɲ aː th uə̪ k f aːɪ̪ <hes> k ɔ k ə n ŋ iə̪ m l əʊ̪ n a m m aː t aːʊ̪ m əːɪ̪ ɹ aː tʂ ɨə̪ ŋ aːɪ̪ ɲ ə ŋ t aːʊ̪ 
[400.295]
<no-speech> 
[401.295]
<no-speech> 
[402.125]
<no-speech> 
[402.485]
<no-speech> 
[404.795]
<no-speech> 
[409.235]
<no-speech> 
[412.095]
<no-speech> 
[412.455]
<no-speech> 
[415.175]
<sta> <no-speech> tɕ aː ŋ ɗ əːɪ̪ 
[417.755]
<no-speech> 
[419.895]
t aːʊ̪ ɟ əː x o ŋ ɓ iə̪ k l aː m ʂ aːʊ̪ m aɪ̪ əːɪ̪ 
[421.805]
<no-speech> 
[425.415]
<no-speech> 
[426.065]
<no-speech> 
[432.295]
k iə̪ m ŋ ɨə̪ɪ̪ j o əː ɗ i m aː əːɪ̪ 
[434.065]
<no-speech> 
[437.125]
<no-speech> 
[438.015]
<no-speech> 
[439.935]
ɓ aː ŋ 
[440.595]
<no-speech> 
[442.665]
<no-speech> 
[443.235]
<no-speech> 
[446.395]
ɓ aː ŋ m aɪ̪ ɗ əʊ̪ ɓ aː ŋ m aɪ̪ ɗ əʊ̪ k ə p k ɨʊ̪ ɓ aː ŋ m aɪ̪ ɗ i 
[449.245]
<no-speech> 
[459.775]
<no-speech> 
[460.305]
<no-speech> 
[463.455]
<no-speech> t aːɪ̪ k ɔ ŋ h ə ŋ h oɪ̪ n aɪ̪ m aɪ̪ ɗ i k ɔ ɓ aː ɗ ɨ k əː ɲ aː x o ŋ 
[465.895]
<no-speech> 
[470.455]
j əɪ̪ h aː 
[471.085]
<no-speech> 
[480.335]
<sta> ɗ e t oɪ̪ j əːɪ̪ th a ŋ ɗ ɔ <no-speech> 
[484.565]
<no-speech> 
[485.415]
k ɔ ɟ i ɗ əʊ̪ 
[486.235]
<no-speech> 
[488.645]
k ɔ ɟ i ɗ əʊ̪ 
[490.005]
<no-speech> 
[497.985]
<no-speech> 
[499.545]
<no-speech> 
[501.765]
<breath> <sta> k i ɟ i 
[503.365]
<no-speech> 
[512.065]
m əɪ̪ f u k ɹ oɪ̪ 
[513.215]
<no-speech> 
[514.955]
m əɪ̪ f u k ɹ oɪ̪ m əɪ̪ f u k <int> ɹ oɪ̪ 
[517.814875]
<no-speech> 
[521.534875]
x o ŋ k ɔ ɟ i ɗ e n ɔɪ̪ h əː k ɗ ɔ 
[522.824875]
<no-speech> 
[525.635]
<no-speech> 
[525.995]
<no-speech> 
[533.735]
<no-speech> 
[534.115]
<no-speech> 
[536.355]
m aɪ̪ f aːɪ̪ k eʊ̪ ŋ ɨə̪ɪ̪ j o əː ɗ i <no-speech> tɕ i ɗ ɨ k ɓ ɨə̪ h o m tɕ i ɗ ɨ k n ɔɪ̪ j əɪ̪ n ɛ ŋ eʊ̪ ɲ ɨ m aː t aːʊ̪ ɗ i th ɨ k t ə p aː <no-speech> l aː t aːʊ̪ ɗ i th ɨ k t ə p ɓ aː th aː ŋ ʂ uə̪ k l uə̪ ŋ l aː t aːʊ̪ f aːɪ̪ əː tɕ o k uə̪ t aːʊ̪ th ɨ k t ə p ɗ ɔ tɕ ɨ t aːʊ̪ x o ŋ f aːɪ̪ l aː ɗ i 
[547.795]
ɗ i j e j e m aɪ̪ h iə̪ʊ̪ <int> x o ŋ 
[549.345]
<no-speech> 
[550.425]
l aː t ɨ k ŋ iə̪ l aː ɲ aː tʂ ɔ ɗ aː ŋ əː l aː t aːʊ̪ tɕ i ɗ e ɗ o th oɪ̪ tɕ ɨ t aːʊ̪ x o ŋ k ɔ əː ɗ ɔ tɕ i ɗ ɨ k m əːɪ̪ n ɔɪ̪ l aː ɟ əː l aː t aːʊ̪ x o ŋ əː t aːʊ̪ tɕ i ɗ e ɗ o th i t ə n t iə̪ ŋ ɲ aː tʂ ɔ k uə̪ t aːʊ̪ tɕ i n ɨə̪ th aː ŋ th oɪ̪ x o ŋ k ɔ t ə n h əː k th aː ŋ 
[561.185]
<no-speech> 
[565.155]
ɗ ɔ l aː m aɪ̪ j əːɪ̪ ɓ aː ɗ ɨ k ɗ aː ɗ ɔ ŋ 
[566.945]
<no-speech> 
[568.765]
tɕ i k i k i ɗ ɔ l aː tɕ i ɗ ɨ k tɕ i n ɔɪ̪ j əɪ̪ ɗ ɔ l aː ɓ aː th aː ŋ l aː k ɔɪ̪ ɲ ɨ t aːʊ̪ tɕ i tɕ ɨə̪ tɕ iʊ̪ <laugh> k ɔ m o k n ɨə̪ th aː ŋ t iə̪ ŋ ɲ aː th oɪ̪ m aɪ̪ j əːɪ̪ ɓ aː ɗ ɨ k ɗ ɔ ŋ tɕ əː k l uə̪ ŋ ɗ ɔ m aː m aɪ̪ ɓ əɪ̪ ɟ əː m aːɪ̪ m o k t aːʊ̪ ɟ ɔ n ɗ i n ɨə̪ l aː m aɪ̪ j əːɪ̪ ɓ aː ɗ ɨ k tɕ iʊ̪ x o ŋ h əː k h aːɪ̪ t iə̪ ŋ ɲ aː l aː 
[580.445]
th i tɕ əː k th iə̪ k ɗ ɔ ŋ eʊ̪ m aː m aɪ̪ x o ŋ k iə̪ m ŋ ɨə̪ɪ̪ j o əː 
[583.565]
<no-speech> 
[587.035]
t aːʊ̪ k u ŋ x o ŋ k ɔ aːɪ̪ ɗ e k eʊ̪ j o n ɨə̪ h əː k 
[589.355]
<no-speech> 
[594.685]
ɓ əːɪ̪ t aːʊ̪ k u ŋ ɓ iə̪ k l aː m ʂ aːʊ̪ n ɨə̪ ɣ a p ɗ ɔ m əɪ̪ ɓ aː ŋ t aːʊ̪ ɗ ɔ n ɔ n a m n aɪ̪ l aː n ɔ j e h əː k 
[599.455]
tʂ əː n ɹ oɪ̪ 
[600.2]
