[0.0]
<no-speech> 
[0.065]
<no-speech> 
[1.605]
<no-speech> 
[7.545]
<no-speech> 
[11.035]
<no-speech> 
[11.845]
<no-speech> <sta> aː l o <no-speech> əː <hes> ɗ aː ŋ l aː m k i ɟ i aː <no-speech> 
[23.295]
<no-speech> <sta> a n ɗ aː ŋ l aː m k i ɟ i ɗ ɔ <no-speech> 
[27.305]
<no-speech> 
[29.615]
<no-speech> <sta> <hes> ɗ aː ŋ əː ɗ əʊ̪ j əɪ̪ <no-speech> ɗ aː ŋ əː ɗ əʊ̪ <no-speech> a n ɗ aː ŋ əː ɗ əʊ̪ <no-speech> 
[41.505]
<no-speech> 
[43.225]
<no-speech> 
[44.115]
<no-speech> <sta> h ɨ <no-speech> ɓ ə n th ɨə̪ ŋ m əːɪ̪ th i s ɔ ŋ <no-speech> 
[55.575]
<no-speech> 
[56.995]
<no-speech> 
[58.065]
<no-speech> <sta> <hes> <no-speech> tɕ ɨə̪ k ɔ ɗ iə̪ m <no-speech> ʂ aːʊ̪ h ɔɪ̪ x o ŋ ɗ əʊ̪ m o ŋ n aːʊ̪ x o ŋ h ɔɪ̪ h ɔɪ̪ ɹ əː k m o ŋ n aːʊ̪ h aɪ̪ w aː <no-speech> 
[67.565]
<no-speech> 
[69.315]
<no-speech> <sta> th oɪ̪ ɗ i <no-speech> ɟ ɛ p ŋ aɪ̪ k i l i l uə̪ ŋ ɗ ɔ ɗ i <no-speech> s i <no-speech> aːɪ̪ m aː ɟ o ŋ a n ɗ əʊ̪ m aː k eʊ̪ l aː ɹ əː k <no-speech> h aː <no-speech> 
[77.265]
<no-speech> 
[79.105]
<no-speech> <sta> <hes> th i ɓ o ŋ m o ŋ n ɨə̪ th i <hes> ŋ i h ɛ tɕ a k ŋ i h ɛ <no-speech> <breath> 
[87.415]
<no-speech> 
[88.505]
<no-speech> 
[88.855]
<no-speech> 
[90.405]
<no-speech> 
[90.925]
<no-speech> 
[92.015]
<no-speech> <sta> h aː <no-speech> 
[97.635]
<no-speech> 
[98.465]
<no-speech> <sta> ɨ <no-speech> a n <no-speech> tɕ ɨ ŋ n aːʊ̪ ɗ i h ɔ k n ɨə̪ <no-speech> 
[104.045]
<no-speech> 
[107.245]
<no-speech> <sta> v ə ŋ ŋ ɛ n ɔɪ̪ ɗ i h ɔ k n ɨə̪ m aː h ɔ k l e ŋ ɗ əɪ̪ <no-speech> tɕ ɨ ŋ n aːʊ̪ ɗ i <no-speech> 
[116.405]
<no-speech> 
[121.495]
<sta> <no-speech> k i ɟ i <no-speech> h ɔ k a n v a ŋ tɕ ɨə̪ <no-speech> h ɔ k l e ŋ f aːɪ̪ k ɔ ɓ a ŋ a n v a ŋ m aː <no-speech> 
[128.265]
<no-speech> 
[129.144875]
<no-speech> 
[129.515]
<no-speech> 
[131.025]
<no-speech> <sta> a n v a ŋ ɗ əʊ̪ j aːʊ̪ x o ŋ f aːɪ̪ a n v a ŋ ɗ əʊ̪ ɹ aː <no-speech> a n v a ŋ ɗ əʊ̪ j aːʊ̪ <no-speech> 
[138.115]
<no-speech> 
[140.895]
<no-speech> <sta> <breath> <laugh> <no-speech> th iə̪ k x o ŋ <no-speech> h ɔ k a n v a ŋ h aː <no-speech> tɕ ɨ ŋ n aːʊ̪ ɗ i <no-speech> h əː 
[152.835]
<no-speech> <sta> h aɪ̪ w aː j əɪ̪ <hes> th i th i t aː f aːɪ̪ h ɔ k a n v a ŋ k ɔ ɓ a ŋ s ɔ ŋ m əːɪ̪ ɗ i th i l e ŋ ɗ ɨə̪ k tɕ ɨ <no-speech> <breath> tɕ ɨ ŋ n aːʊ̪ ɗ i j e w e <no-speech> 
[162.045]
<no-speech> 
[163.525]
<no-speech> <sta> tɕ ɨ ŋ n aːʊ̪ ɗ i ɓ aː th u <no-speech> 
[167.765]
<no-speech> 
[170.285]
<no-speech> 
[172.955]
<no-speech> 
[174.475]
<no-speech> <sta> ɗ i ɓ aːʊ̪ l əʊ̪ <no-speech> 
[176.185]
<no-speech> 
[179.135]
<no-speech> 
[179.595]
<no-speech> 
[180.795]
<no-speech> 
[183.375]
<no-speech> 
[184.895]
<no-speech> <sta> h aː <no-speech> tɕ ɨə̪ <no-speech> h ɛ tɕ əːɪ̪ tɕ ɔ n ɔ ʂ ɨə̪ ŋ tɕ ɨ <laugh> <no-speech> 
[195.195]
<no-speech> 
[196.425]
<laugh> <sta> n ɔɪ̪ l əː ŋ l əː ŋ ɛ m x o ŋ k ɔ ŋ ɛ <no-speech> əː n ɔɪ̪ l əː ŋ l əː ŋ ɟ u m ɛ m ɗ i <no-speech> 
[206.275]
<no-speech> 
[208.235]
<sta> ŋ ɛ ɹ oɪ̪ ŋ ɛ ɹ oɪ̪ <laugh> <breath> <no-speech> əː h aː <no-speech> 
[217.285]
<no-speech> 
[218.585]
<no-speech> <sta> ɹ oɪ̪ ʂ aːʊ̪ <no-speech> əː əː <no-speech> 
[230.375]
<no-speech> <sta> ɗ i ɗ əʊ̪ j əɪ̪ <no-speech> aː k i k ɔ ŋ <hes> ɲ u ŋ ɓ e ŋ <hes> ɹ u <hes> t oɪ̪ n aɪ̪ ɗ i w aː a ŋ o k <no-speech> 
[241.395]
<sta> ɲ ɨ ŋ m aː <hes> t oɪ̪ n aɪ̪ ɗ i h ɔ k ɹ oɪ̪ <no-speech> 
[243.785]
<no-speech> 
[245.245]
<sta> <no-speech> o ŋ f aːɪ̪ ɗ i h ɔ k tɕ ɨ <hes> aː ʂ aː ŋ n aɪ̪ <hes> <breath> h oɪ̪ tʂ ɨə̪ tɕ ɨ h oɪ̪ tʂ ɨə̪ k ɔ ɓ aː ŋ <hes> ɗ iə̪ ŋ <hes> <breath> tɕ u k m ɨ ŋ ʂ i ɲ ɲ ə k <hes> t a ŋ w aː 
[256.985]
<no-speech> <sta> h aɪ̪ h ɛ t a ŋ w aː <no-speech> t ɨ ʂ aː ŋ ɟ əː k ɔ m o k m ɔ ŋ w aː m aː ɓ iə̪ʊ̪ <laugh> <no-speech> ɲ ɨ ŋ m aː j uɪ̪ <laugh> <no-speech> <oov> ɓ iə̪ k w aː ɟ i x o ŋ <no-speech> 
[268.525]
<no-speech> <sta> h ɨ <no-speech> tʂ aː l əːɪ̪ ɛ m ɓ iə̪ k w aː ɟ i x o ŋ <no-speech> aː h aː k 
[279.755]
<sta> tɕ ɔ ŋ ɛ m o k ɓ aːɪ̪ <laugh> <breath> <cough> 
[285.605]
<no-speech> 
[287.335]
<no-speech> <sta> k ɔ ɟ i ɗ əʊ̪ th i <hes> aːɪ̪ th ə c t a ŋ ɟ i m ə n ɲ ə ŋ n əɪ̪ h aː k tɕ ɔ m ə n ŋ ɛ m o k ɓ aːɪ̪ ɲ ə ŋ ŋ aɪ̪ ʂ i ɲ ɲ ə k l aː ɗ ɨə̪ k ɹ oɪ̪ <no-speech> 
[294.595]
<no-speech> 
[295.935]
<no-speech> 
[296.835]
<no-speech> 
[299.395]
<no-speech> <sta> w ə ŋ h aː k iə̪ ŋ ɟ aː ŋ aː h aː <no-speech> k ɔ x o ŋ <no-speech> 
[306.065]
<no-speech> 
[306.995]
<no-speech> <sta> a n w ə ŋ əː k iə̪ ŋ ɟ aː ŋ f aːɪ̪ x o ŋ <no-speech> th i ʂ aːʊ̪ <no-speech> 
[317.975]
<no-speech> <sta> th i ʂ aːʊ̪ <no-speech> aː <no-speech> k ɔ th i n ɔɪ̪ k ɔ ɓ iə̪ k m a k a n ɗ ɔ ɗ əʊ̪ 
[329.495]
<no-speech> <sta> ɣ a p a n ɗ ɔ l aː m ɟ i <no-speech> 
[333.095]
<no-speech> 
[333.895]
<no-speech> <sta> ɓ aː ŋ a n h ɔaː a n ɣ a p ɗ i <no-speech> 
[338.625]
<no-speech> 
[340.365]
<no-speech> 
[340.765]
<no-speech> 
[342.225]
<no-speech> <sta> ʂ aː ŋ ɛ m ɗ i h ɔ k ɹ oɪ̪ <no-speech> 
[345.825]
<no-speech> 
[347.255]
<sta> <no-speech> ɨ th i h ɔ k s ɔ ŋ ɹ aː j e ɹ oɪ̪ <hes> a ŋ k əː m k aː tʂ e ɹ oɪ̪ ɗ əʊ̪ k ɔ ɗ i ɗ əʊ̪ ɗ əʊ̪ j əːɪ̪ l aːɪ̪ h o m n aɪ̪ <hes> <breath> l e th i tɕ a k ɗ i 
[359.035]
<sta> tɕ uə̪ <no-speech> əː ɗ i tɕ uə̪ <no-speech> 
[361.525]
<no-speech> 
[363.585]
<no-speech> 
[364.145]
<no-speech> 
[365.285]
<no-speech> <sta> ɓ ɨə̪ n aɪ̪ l e f ə k ɗ aː ŋ m aː <no-speech> 
[367.465]
<no-speech> 
[370.535]
<no-speech> <sta> k i ɟ i <no-speech> 
[373.385]
<no-speech> 
[375.025]
<no-speech> <sta> th i a n ɗ i tɕ əːɪ̪ j əːɪ̪ a n w ə ŋ ɗ i <no-speech> a n ɗ i tɕ əːɪ̪ j əːɪ̪ a n w ə ŋ ɗ i <no-speech> 
[384.465]
<no-speech> 
[386.285]
<sta> əː th i h aːɪ̪ a n ɗ i <hes> tɕ əːɪ̪ ɗ i ɛ m ɗ i tɕ uə̪ k ɔ l iə̪ ŋ w aː ŋ ɟ i ɗ e ŋ ɲ aʊ̪ ɗ əʊ̪ <no-speech> 
[394.645]
<no-speech> 
[395.625]
<no-speech> <sta> <laugh> k ɔ ɟ i j uɪ̪ <no-speech> 
[401.395]
<no-speech> 
[402.255]
<sta> tʂ əːɪ̪ əːɪ̪ h aːɪ̪ th a ŋ k ɔ ŋ tʂ aːɪ̪ ɗ i uə̪ ŋ k aː f e ɗ i ɹ u th ɛʊ̪ l aː m ɟ i tʂ əːɪ̪ <no-speech> aː aː ɗ u ŋ ɹ oɪ̪ ɗ u ŋ ɹ oɪ̪ <hes> h o m ɹ aɪ̪ k ɔ ɗ i <hes> <no-speech> ɗ i 
[412.015]
<sta> h oɪ̪ h o m ɗ i ɗ i uə̪ ŋ uə̪ ŋ tʂ aː ʂ ɨə̪ j əːɪ̪ k o k o v ə ŋ x o ŋ k o m əɪ̪ x o ŋ <no-speech> 
[416.125]
<no-speech> 
[416.965]
<no-speech> 
[417.505]
<no-speech> 
[420.415]
<sta> ɨ <no-speech> v ə ŋ əɪ̪ m əɪ̪ aː m əɪ̪ aː <no-speech> th əɪ̪ <hes> th əɪ̪ th əɪ̪ th əɪ̪ th əɪ̪ th əɪ̪ tʂ e ŋ ɗ iə̪ ŋ th oaɪ̪ k ɔ m əɪ̪ k i 
[432.105]
<sta> t i ŋ ɲ a ŋ aː ɟ i aː <hes> aː a n aː aː ɟ i m aː m əɪ̪ k i t i ŋ ɲ a ŋ əː tʂ ɔ ŋ ɗ iə̪ ŋ th oaɪ̪ ɗ ɔ <no-speech> ɨ <laugh> aːɪ̪ ɓ iə̪ k <no-speech> 
[443.255]
<no-speech> 
[444.685]
<no-speech> 
[447.095]
<no-speech> <sta> ɗ i ɗ əʊ̪ <no-speech> 
[448.175]
<no-speech> 
[450.725]
<no-speech> <sta> ɗ i ɗ əʊ̪ k əː <no-speech> 
[456.845]
<no-speech> 
[457.835]
<no-speech> <sta> əː əː əː əː <no-speech> t ɨə̪ ŋ l aː ɗ i s ɛ m f i m tɕ ɨ <laugh> ɗ i <no-speech> ɗ i ɗ i ɗ i ɗ i ɗ i ɗ i 
[469.415]
<no-speech> 
[471.295]
<sta> <no-speech> ɗ i ɗ i x o ŋ ʂ aːʊ̪ ɗ əʊ̪ t aː ɹ u h oaɪ̪ x o ŋ ɗ i th i k i <no-speech> 
[476.685]
<no-speech> 
[480.175]
<sta> <no-speech> ŋ aɪ̪ n aːʊ̪ k u ŋ ɓ ə ŋ h əː k <no-speech> <hes> x o ŋ əɪ̪ t oɪ̪ n aɪ̪ 
[491.795]
<sta> k ɔ a n w ə ŋ n ɛ ɹ u a n w ə ŋ ɗ i l uə̪ ŋ <no-speech> 
[495.235]
<no-speech> 
[498.535]
<no-speech> <sta> aː tɕ u k h ɛ ŋ l aːɪ̪ ɗ i tɕ a k ŋ ɨə̪ɪ̪ t aː ɗ i tɕ ɨ ɟ i ɗ əʊ̪ m aː l ɔ <no-speech> 
[503.565]
<no-speech> 
[506.715]
<sta> <no-speech> o <no-speech> uə̪ a n w ə ŋ h ɔ k əː ɗ əʊ̪ j əɪ̪ <no-speech> l e ŋ ɗ əɪ̪ h ɔ k əː ɗ əʊ̪ <no-speech> 
[513.324875]
<no-speech> 
[515.235]
<no-speech> <sta> ɣ ɔ j ə p h aː ɣ ɔ j ə p tʂ ɨə̪ ŋ ɟ i əː tʂ e ŋ ɗ ɔ tʂ əːɪ̪ <no-speech> 
[521.735]
<no-speech> 
[523.795]
<no-speech> 
[525.085]
<no-speech> 
[526.105]
<no-speech> <sta> tɕ o n aːʊ̪ ɛ m k ɔ ɓ iə̪ k ɗ əʊ̪ h o m w aː h o m w aː m əːɪ̪ ɗ i ɣ ɔ j ə p <no-speech> h o m w aː h o m k iə̪ ɟ i ɛ m m əːɪ̪ ɗ i ɣ ɔ j ə p n ɛ <no-speech> 
[537.965]
<sta> <no-speech> ɗ ɨə̪ ŋ f o w aː ŋ aː <no-speech> tɕ i t əːɪ̪ ɗ ɨə̪ ŋ f o w aː ŋ aː 
[541.795]
<no-speech> 
[542.595]
<sta> <no-speech> əː əː <no-speech> ɗ i <no-speech> ɗ i m əːɪ̪ ɗ i t əːɪ̪ ɗ ɔ aː <no-speech> ɗ i l aːɪ̪ ɣ ə ŋ ɣ ə ŋ tɕ uə̪ f o w aː ŋ aː <no-speech> 
[551.775]
<no-speech> 
[552.605]
<no-speech> <sta> əː <no-speech> ɗ i a ŋ k əː m tɕ aɪ̪ <laugh> h o m n aɪ̪ <no-speech> əː h o m n aɪ̪ k u ŋ a ŋ k əː m tɕ aɪ̪ <laugh> <no-speech> 
[561.075]
<no-speech> 
[564.525]
<no-speech> <hes> ʂ aː ŋ <hes> ʂ aː ŋ ɗ i tɕ əː m uə̪ ɗ o n əʊ̪ a ŋ ɹ oɪ̪ <no-speech> <hes> k ɔ ŋ tɕ iə̪ʊ̪ n aɪ̪ tɕ iə̪ʊ̪ n aɪ̪ ɗ i h ɔ k s ɔ ŋ tɕ a k ɣ ɛ ɗ ɔ ɣ ɛ tɕ uə̪ th oɪ̪ tɕ ɨ ɗ əʊ̪ k ɔ 
[575.575]
<sta> ɲ iə̪ʊ̪ th əːɪ̪ ɟ aː n ɗ əʊ̪ m aː ɣ ɛ l əʊ̪ <no-speech> ɹ oɪ̪ ʂ aʊ̪ ɗ ɔ ɗ i h ɔ k m aː 
[579.305]
<no-speech> 
[581.165]
<no-speech> <sta> x o ŋ ɓ iə̪ k k ɔ v a ŋ ŋ e x o ŋ n a m ŋ oaɪ̪ h ə n ɲ ɨ k ɔ v a ŋ ŋ e m aː x o ŋ ɓ iə̪ k n a m n aɪ̪ tɕ uə̪ k ɔ v a ŋ ŋ e x o ŋ <no-speech> aː ŋ aɪ̪ m aːɪ̪ <no-speech> ŋ aɪ̪ m aːɪ̪ l aː ŋ aɪ̪ <hes> 
[592.925]
<sta> <no-speech> a n l aː m ɗ aː m n ɔɪ̪ tɕ ɔ a n ɟ u ŋ <no-speech> ŋ aɪ̪ m aːɪ̪ <no-speech> ŋ aɪ̪ m aːɪ̪ ɓ e ŋ ɲ aː th a ŋ ɗ aːɪ̪ s uə̪ ŋ ɲ aː a n ɟ u ŋ 
[600.105]
