[0.0]
<no-speech> 
[0.185]
<no-speech> 
[0.665]
<no-speech> 
[2.725]
<sta> <no-speech> aː l o 
[5.705]
<no-speech> 
[7.045]
<no-speech> aː l o 
[8.105]
<no-speech> 
[9.795]
<no-speech> tʂ i h aː 
[10.485]
<no-speech> 
[11.535]
əː <no-speech> th a ŋ ɗ ɔ ɗ ɔ ɗ ɔ 
[13.105]
<no-speech> 
[14.645]
th əɪ̪ t iə̪ ŋ j uɪ̪ x o ŋ <laugh> <no-speech> 
[18.065]
<no-speech> 
[19.245]
əː <hes> o ŋ ɗ aː ŋ əː m o aː 
[20.665]
<no-speech> 
[22.295]
əː ɲ aː h aː <no-speech> əː ɓ ɨə̪ h o m tʂ ɨə̪ k aː h oɪ̪ tɕ iə̪ʊ̪ h o m w aː k u k aː <hes> k ɔ <hes> ɗ o aː ŋ t o tɕ ɨ k th i k o ŋ n əː ɹ oɪ̪ <hes> j e o ŋ ɓ ɔ j o m aɪ̪ t ə n o ŋ k ɔɪ̪ tɕ ɨə̪ 
[31.255]
<no-speech> 
[33.565]
tɕ ɨə̪ h aː <no-speech> ɹ ɨə̪ ɓ ɔ j o m aɪ̪ t ə n k ɔɪ̪ ɟ u m t uɪ̪ k i 
[35.895]
<no-speech> 
[37.145]
əː k ɔ k ɔ ŋ k i <hes> m əɪ̪ k i h a m tɕ i ŋ k o ŋ j iə̪ k n əː o ŋ p aː s t ɛ x oɪ̪ l ɨə̪ ŋ ɟ u m t uɪ̪ j əːɪ̪ ŋ ɛ 
[42.505]
<no-speech> 
[44.075]
h i 
[44.645]
<no-speech> 
[45.775]
<no-speech> ɨ k ɔ k ɔ k ɔ ɗ o ɗ ə k h əː k aː 
[47.845]
<no-speech> 
[49.125]
<no-speech> əː 
[49.795]
<no-speech> 
[53.445]
<no-speech> k i tɕ i 
[54.075]
<no-speech> 
[55.875]
əː k i ɓ aː ŋ j ɛ ɹ a ŋ <no-speech> <int> 
[58.585]
<no-speech> 
[59.955]
<int> <no-speech> əː th i k i ɓ aː ŋ j ɛ <hes> əː tʂ ɔ ŋ n əː th i f o t o ɟ o ŋ i <hes> tʂ ɔ ŋ k i t əː t əː ɟ əɪ̪ n əː th oɪ̪ h a ŋ ɓ iə̪ʊ̪ t uɪ̪ l aː n eʊ̪ f ɨə̪ ŋ aː ŋ <hes> k ɔ 
[71.705]
<no-speech> tɕ i ɗ ɔ tɕ ɨ x o ŋ f aːɪ̪ l aː f ɨə̪ ŋ aː ŋ ɗ ə k 
[73.385]
<no-speech> 
[76.315]
<no-speech> ɨ <no-speech> th i o ŋ o ŋ ɓ aːʊ̪ x oɪ̪ l ɨə̪ ŋ ɟ u m k i h a m tɕ i ŋ k o ŋ j iə̪ k n əː tɕ ɔ t uɪ̪ th oɪ̪ <no-speech> th ɨ th ɨ n a m l aː l e ŋ th o ŋ h a m tɕ i ŋ k o ŋ j iə̪ k n əː th oɪ̪ tɕ ɨ 
[85.165]
<no-speech> 
[86.765]
<no-speech> əː 
[87.445]
<no-speech> 
[89.245]
ɹ a ŋ <hes> h a m tɕ i ŋ k o ŋ j iə̪ k n əː ɲ iə̪ʊ̪ x o ŋ 
[92.235]
<no-speech> 
[93.895]
<no-speech> 
[96.795]
<no-speech> 
[99.395]
<no-speech> 
[100.105]
<no-speech> 
[104.675]
əː <no-speech> əː <hes> th ɨ n a m l e ŋ th o ŋ x oɪ̪ l ɨə̪ ŋ th oɪ̪ th i 
[108.935]
<no-speech> 
[109.855]
x o ŋ 
[110.605]
<no-speech> 
[112.135]
əː <no-speech> h ɔɪ̪ h ɔɪ̪ m aː ɹ a ŋ 
[113.675]
<no-speech> 
[115.485]
əː 
[116.025]
<no-speech> 
[119.975]
<no-speech> əː 
[120.595]
<no-speech> 
[127.025]
<no-speech> 
[133.455]
<no-speech> əː 
[134.045]
<no-speech> 
[136.415]
aː <no-speech> k ɔ ŋ iə̪ l aː <no-speech> aː k ɔ ŋ iə̪ l aː h ɔɪ̪ o ŋ l aː <hes> k i ɓ aː ŋ j ɛ n əː l aː <hes> j ɛ <hes> 
[145.375]
<no-speech> 
[148.545]
ɓ aː ŋ ɓ aː ŋ j ɛ th iə̪ k k e v aː ŋ v aː ŋ x uə̪ ŋ n əː h ɔɪ̪ o ŋ th ɨ k ɔ k ə ŋ k i ɓ aː ŋ j ɛ n əː x o ŋ h aː 
[151.995]
<no-speech> 
[154.505]
aː aː <no-speech> k ɔ ŋ iə̪ l aː h ɔɪ̪ o ŋ l aː k ɔ k i ɓ aː ŋ j ɛ <hes> th iə̪ k k e v aː ŋ x uə̪ ŋ n əː x o ŋ tɕ i n ɨə̪ 
[159.155]
<no-speech> 
[160.345]
<no-speech> aː j əːɪ̪ l aːɪ̪ k i tɕ i n ɨə̪ 
[161.695]
<no-speech> 
[169.885]
aː <no-speech> k ɔ ŋ iə̪ l aː h ɔɪ̪ o ŋ l aː k i ɓ aː ŋ j ɛ n əː l aː ɓ aːʊ̪ ɣ o m ɲ ɨ ŋ k i tɕ i ɗ u ŋ x o ŋ <no-speech> aː 
[175.075]
<no-speech> 
[180.965]
<no-speech> əː 
[181.625]
<no-speech> 
[185.495]
<no-speech> aː 
[186.095]
<no-speech> 
[188.455]
əː <no-speech> h oɪ̪ ɗ ɔ l aː o ŋ k ɔ <hes> k ɔ t o ŋ m a k ɓ a ŋ j əːɪ̪ t o ŋ t iə̪ ŋ ɗ o th oɪ̪ tɕ i <no-speech> aː 
[193.005]
<no-speech> 
[194.045]
əː <no-speech> tɕ a k <no-speech> ɗ e ɓ ɨə̪ <hes> ʂ aʊ̪ t oɪ̪ l e ŋ t oɪ̪ h ɔɪ̪ <hes> m əɪ̪ ɗ ɨə̪ th ɨ ɓ aː ŋ j ɛ ɓ ɨə̪ ɓ a ŋ k i tɕ i <no-speech> əː 
[201.385]
<no-speech> 
[203.525]
ɓ ɨə̪ n i ɗ i h ɔ k tɕ i x o ŋ h oɪ̪ ʂ aː ŋ n i <hes> t uɪ̪ ɗ i h ɔ k ɗ əɪ̪ <no-speech> t uɪ̪ ɗ i h ɔ k k i t uɪ̪ w aː <hes> ɓ ɛ m i h a ŋ ɲ əː l aː h o m n i ɗ əɪ̪ 
[211.445]
<no-speech> 
[213.795]
<no-speech> əː <no-speech> 
[214.855]
<no-speech> 
[216.715]
<no-speech> h i 
[217.295]
<no-speech> 
[220.055]
ɹ a ŋ l e x o ŋ n ɔɪ̪ t aː 
[221.065]
<no-speech> 
[222.045]
<int> <no-speech> əː t i m l əː p x o ŋ ɹ aː o ŋ əːɪ̪ t i m l əː p x o ŋ ɹ aː j əːɪ̪ l aːɪ̪ <hes> tɕ ɨ h a ŋ h a ŋ <hes> h a ŋ tɕ ɨ ʂ əː s i ŋ j o l əː p h a ŋ tʂ e ɹ oɪ̪ əː k iə̪ j əːɪ̪ l aːɪ̪ m ə n j o l əː p m ə n <hes> 
[233.795]
<no-speech> 
[237.485]
<no-speech> tɕ i ŋ x o ŋ m ɨə̪ɪ̪ aː 
[238.845]
<no-speech> 
[240.565]
<int> <no-speech> k ɔ k ɔ th əːɪ̪ th əːɪ̪ x ɔaː ɓ iə̪ʊ̪ tɕ ɔ h a ŋ <hes> ɗ i ɗ i h ɔ k tɕ ɨ aː h aː h aɪ̪ l aː h oɪ̪ th aː ŋ h aːɪ̪ k iə̪ h a ŋ ɗ i h ɔ k h oɪ̪ th aː ŋ h aːɪ̪ k iə̪ aː 
[249.145]
<no-speech> 
[253.555]
əː h ə n h ə n ɲ ɨ k ɔ m o ŋ m əːɪ̪ ɹ oɪ̪ aː <no-speech> k i n əː th i l e ŋ m aː ŋ k ɔɪ̪ th ɨ tɕ ɨ 
[258.125]
<no-speech> 
[259.205]
<no-speech> 
[259.565]
<no-speech> 
[260.814875]
əː k ɔ m o ŋ m əːɪ̪ th i k ɔɪ̪ th ɨ 
[262.365]
<no-speech> 
[265.115]
<no-speech> əː 
[265.845]
<no-speech> 
[267.005]
<hes> m aː <hes> h aːɪ̪ tɕ u k m o ŋ m aː m əːɪ̪ k ɔ ɓ o ŋ m o ŋ o ŋ əːɪ̪ 
[270.485]
<no-speech> 
[272.245]
m əːɪ̪ k ɔ ɓ o ŋ m o ŋ tɕ ɨ m əɪ̪ <no-speech> th i t o tɕ ɨ k th i k o ŋ 
[274.845]
<no-speech> 
[277.515]
əː x o ŋ <no-speech> x o ŋ t aː m m aː ʂ aʊ̪ m o ŋ tɕ ɨ 
[279.715]
<no-speech> 
[280.775]
x o ŋ t aː m h ɔ k ʂ aʊ̪ m o ŋ m aː t uɪ̪ <hes> h ɔ k k ɔ ɓ o ŋ m o ŋ 
[284.385]
<no-speech> 
[286.465]
ɨ k ɔ m əɪ̪ k i m o ŋ m əɪ̪ k i m o ŋ ɗ i w aː ɹ oɪ̪ h oɪ̪ l aː m ə n th i 
[289.055]
<no-speech> 
[290.335]
<no-speech> əː 
[290.945]
<no-speech> 
[292.135]
<no-speech> ɨ 
[292.685]
<no-speech> 
[297.395]
əː th i th i ʂ əː tʂ aː n əː x o ŋ k i p ɹ oɪ̪ k i <hes> n a m ʂ aʊ̪ h a ŋ ɗ ɨə̪ s uə̪ ŋ x o ŋ tɕ i ŋ l aː k i th əɪ̪ m ɛ l uə̪ ŋ 
[303.725]
<no-speech> 
[305.365]
əː h ɛ h ɛ əː ɗ ɨə̪ ŋ ɲ iə̪ ŋ h ɛ ɹ aː tʂ aː n əː ɹ oɪ̪ m aː x o ŋ ɓ iə̪ k k ɔ m əɪ̪ k i m o ŋ m ə n n əː x o ŋ tɕ ɨ 
[310.525]
<no-speech> 
[316.915]
m əɪ̪ k i m o ŋ m əɪ̪ ɗ ɨə̪ x o ŋ t aː m m aː h ɔ k l aːɪ̪ ɲ ɨ k əː ɗ ə k n e ŋ m ɔ ŋ k əː k e k k əʊ̪ m əɪ̪ m o ŋ ɗ ɔ t uɪ̪ w aː h əː k tʂ əː n ɹ oɪ̪ m aː 
[322.775]
<no-speech> 
[324.265]
m ɛ <no-speech> m əɪ̪ k i m o ŋ t oɪ̪ ɟ i ɲ th i h a ŋ <hes> x o ŋ ɟ i ɲ <laugh> 
[328.015]
<no-speech> 
[330.595]
əː ʂ uə̪ k ɗ əːɪ̪ ɲ iə̪ʊ̪ l u k h ɔɪ̪ m aː t uɪ̪ ʂ əː x o ŋ ɗ u ʂ ɨ k ɗ e tʂ aː k i p x o ŋ k iə̪ 
[334.915]
<no-speech> 
[336.985]
k i n i tʂ aː ɗ ɨə̪ k <hes> t o tɕ ɨ k th i k o ŋ ɗ o aː ŋ l aː ʂ aʊ̪ tʂ i ɲ <no-speech> əː ɗ ə n m ɨ k j əːɪ̪ ɗ o aː ŋ l aː <hes> n a m tʂ i ɲ n ɨə̪ l aː m ɨə̪ɪ̪ m o k tʂ i ɲ w aː ŋ l i tɕ ə k l ɨə̪ ŋ s əɪ̪ ɟ ɨ ŋ k əː ɓ aː ŋ <hes> 
[348.015]
<hes> h aːɪ̪ tʂ i ɲ n ɨə̪ <no-speech> n əː m ɨə̪ɪ̪ t aː m m ɨə̪ɪ̪ tɕ i ŋ m o ŋ aː 
[353.835]
<no-speech> 
[358.085]
<no-speech> əː 
[358.595]
<no-speech> 
[362.485]
əː k ɔ ŋ k ɔ k i n i ɗ əɪ̪ m aː k i n i h a ŋ h ɔ k <hes> ɗ a ŋ k i j o <hes> ɗ əʊ̪ <hes> ɗ əʊ̪ th aː ŋ h aːɪ̪ l aː ɗ a ŋ k i j o th i tɕ ɨ h iə̪ʊ̪ h iə̪ʊ̪ ɗ ɨə̪ k ɓ o ŋ m o ŋ ɗ ɔ l aː h iə̪ʊ̪ h iə̪ʊ̪ ɗ ɨə̪ k ɹ oɪ̪ tɕ ɨ tɕ ɨ m aː ɗ a ŋ k i m əɪ̪ m o ŋ x aː k j o 
[374.475]
ʂ əː x o ŋ h iə̪ʊ̪ ʂ əː ɗ i th i l aː m ɓ aːɪ̪ x o ŋ ɗ ɨə̪ k ɗ ɔ tɕ ɨ 
[376.655]
<no-speech> 
[377.965]
<int> <no-speech> əː x o ŋ ɓ iə̪ k n ɨə̪ th əɪ̪ m o ŋ m o k u ŋ k ɔ ŋ ɗ aː ŋ h ɔ k m aː ɗ əʊ̪ k ɔ th əɪ̪ h ɔ k t iə̪ p ɗ əʊ̪ 
[383.995]
<no-speech> 
[385.325]
<no-speech> 
[385.685]
<no-speech> 
[386.535]
<no-speech> əː 
[387.185]
<no-speech> 
[388.555]
əː əː əː k i n i h ə n ɲ ɨ <no-speech> ɓ aɪ̪ ŋ aɪ̪ ɓ aɪ̪ m o ŋ ɗ ɔ th ɨ h aːɪ̪ ɗ e ŋ th ɨ ɓ aɪ̪ l aː ɓ aɪ̪ ŋ aɪ̪ ɓ aɪ̪ m o ŋ ɗ ɔ 
[394.025]
<no-speech> 
[399.025]
ɗ əʊ̪ <hes> ɗ əʊ̪ k ɔ m o ŋ m o h ɔ k h aːɪ̪ ɓ uə̪ɪ̪ ɗ əʊ̪ <no-speech> th ɨ h aːɪ̪ h a ŋ h ɔ k <hes> h i 
[404.635]
<no-speech> 
[406.395]
əː ə k ɲ ə k k i n i h a ŋ ɗ ɨə̪ k tɕ i ŋ m o ŋ tʂ o ŋ h i j ɔ ŋ l aː h a ŋ h ɔ k tɕ i ŋ m o ŋ <no-speech> m aː ʂ əː h a ŋ h ɔ k m əɪ̪ m o ŋ m əːɪ̪ th oɪ̪ ʂ əː h a ŋ h ɔ k m əɪ̪ m o ŋ m əːɪ̪ k iə̪ m əɪ̪ m o ŋ m əːɪ̪ m ə n x o ŋ n əː 
[416.175]
<no-speech> 
[418.015]
ʂ ɨə̪ ŋ x o ŋ 
[418.705]
<no-speech> 
[421.895]
əː w aː n a m ʂ aʊ̪ tɕ a k h a ŋ x o ŋ w aː n a m ʂ aʊ̪ tɕ a k h a ŋ h ɔ k ɟ o ŋ ɲ ɨ m ə n ɹ ɨə̪ ɗ ɔ ɟ o ŋ ɲ ɨ x o ŋ ɓ aɪ̪ ɹ ɨə̪ 
[426.655]
<no-speech> 
[427.505]
<int> <no-speech> h i 
[429.325]
<no-speech> 
[430.965]
<int> <no-speech> h a ŋ ɗ i th ɨ k t ə p j əːɪ̪ l aːɪ̪ l aː m ɗ o aː ŋ 
[434.885]
<no-speech> 
[438.075]
<int> <no-speech> tɕ o m o ɗ əʊ̪ k iə̪ m o ŋ <no-speech> tɕ ɨə̪ ɓ iə̪ k əː tɕ ɨə̪ <hes> t ə n tɕ i ɗ ɨə̪ k h əː k tʂ əː n m əː k ɣ e 
[445.835]
<no-speech> 
[449.265]
<no-speech> əː ɓ iə̪ k ɹ oɪ̪ 
[450.395]
<no-speech> 
[451.255]
<hes> k i m aː <no-speech> k i m aː o ŋ o ŋ l aː m ɗ o aː ŋ n i h ə n ɲ ɨ h a ŋ ɟ i ɲ ɓ e ŋ t o tɕ ɨ k th i k o ŋ ɲ iə̪ʊ̪ l a m m aː 
[456.735]
<no-speech> 
[459.555]
əː i i k i ɗ o aː ŋ t o tɕ ɨ k th i k o ŋ f aːɪ̪ x o ŋ 
[461.545]
<no-speech> 
[463.355]
<no-speech> əː ɗ e t uɪ̪ ɓ iə̪ k m aː t uɪ̪ h ɔ k 
[464.875]
<no-speech> 
[469.625]
t iə̪ p 
[470.065]
<no-speech> 
[471.275]
j ɨə̪ j ɨə̪ t o tɕ ɨ k j ɨə̪ k i th uə̪ k l uə̪ ŋ aː <no-speech> ɗ u m ɛ m o ŋ k i th uə̪ k <hes> m o ŋ k i th uə̪ k w aː m aː <hes> x o ŋ h iə̪ʊ̪ k i k o k x i tɕ i h əː k 
[479.735]
<no-speech> 
[480.825]
<lipsmack> x o ŋ ɓ iə̪ k ɹ a ŋ l uə̪ ŋ 
[482.355]
<no-speech> 
[483.685]
ɹ a ŋ ɹ a ŋ ɹ a ŋ k i th uə̪ k n əː l aː m ɹ a ŋ 
[485.395]
<no-speech> 
[490.215]
aː ɣ i aː k i th uə̪ k l aː th iə̪ k k e v aː ŋ x uə̪ ŋ əː <no-speech> əː 
[493.115]
<no-speech> 
[501.705]
<no-speech> ɨ 
[502.195]
<no-speech> 
[504.025]
<no-speech> ɨ 
[504.545]
<no-speech> 
[506.865]
<no-speech> əː 
[507.585]
<no-speech> 
[508.405]
k i m aː m o ŋ t o tɕ ɨ k th i k o ŋ n əː o ŋ o ŋ <hes> o ŋ p aː s t ɛ x oɪ̪ l ɨə̪ ŋ ɟ u m t uɪ̪ t ə ŋ h ɛ k ɔ ŋ k i ɓ aː ŋ j ɛ n əː t ɨ t ɨ ɗ e l e ŋ h ɔɪ̪ ʂ aʊ̪ t aːɪ̪ j i th ɨ n a m n i l aː o ŋ th əɪ̪ o ŋ th o ŋ k i p aː t x oɪ̪ l ɨə̪ ŋ əː k iə̪ <no-speech> tɕ ɨ tɕ ɨə̪ n ɔɪ̪ tɕ i ɓ aː ŋ j ɛ ɗ o h əː k ɲ aː 
[519.245]
<no-speech> 
[525.615]
əː <no-speech> x o ŋ ʂ əː <no-speech> 
[528.775]
<no-speech> 
[531.725]
əː 
[532.305]
<no-speech> 
[535.055]
<no-speech> əː 
[535.645]
<no-speech> 
[538.715]
<int> <no-speech> m aː ʂ əː k i ʂ o ʂ o l iə̪ʊ̪ t uɪ̪ h a ŋ x aː k l aː o ŋ th əɪ̪ o ŋ k iə̪ m tʂ aː k iə̪ 
[544.995]
<no-speech> 
[546.375]
<int> <no-speech> əː 
[548.995]
<no-speech> 
[550.025]
k ɔɪ̪ k ɔ k ɔ o ŋ l e ŋ o ŋ k ɔ x i m o o ŋ o ŋ h ɔɪ̪ l aː k i ʂ o l iə̪ʊ̪ n i t ɨ ɗ əʊ̪ k ɔ ɗ o x o ŋ <int> <no-speech> p aː s t ɛ w aː m aː o ŋ k eʊ̪ <laugh> o ŋ k eʊ̪ p aː s t ɛ 
[561.845]
k iə̪ʊ̪ tɕ i ɗ əɪ̪ <no-speech> ɛ m p aː s t ɛ k iə̪ʊ̪ tɕ i m aː 
[563.965]
<no-speech> 
[565.075]
əː <no-speech> əː k ɔ ŋ l e ŋ th o ŋ l aː əː j i ɟ u ɲ ɨ l aː m x o ŋ k i p l aː l e ŋ l e ŋ th o ŋ l aː h a ŋ h a ŋ ɗ ɨə̪ k i ɓ aː ŋ ɛ k s ɛʊ̪ n əː ɹ aː o ŋ th əɪ̪ k ɔɪ̪ k ɔɪ̪ ʂ əː ʂ əː w aː o ŋ k i ɹ oɪ̪ th oɪ̪ tɕ i 
[573.555]
<no-speech> 
[574.355]
<no-speech> əː 
[574.885]
<no-speech> 
[577.495]
<no-speech> əː 
[578.125]
<no-speech> 
[580.625]
əː <no-speech> əː k ɔ ŋ k i m aː k i o ŋ ɗ ɨə̪ ɹ ɨə̪ ɹ ɨə̪ o ŋ ɗ ɨə̪ k i f ɨə̪ ŋ aː ŋ <hes> m ɨə̪ɪ̪ m o k n əː ɹ aː l aː m tɕ i 
[587.215]
<no-speech> 
[588.125]
<no-speech> 
[589.165]
<no-speech> 
[590.825]
əː th iə̪ k k e t o ŋ m a k ɓ a ŋ h aː <no-speech> əː 
[592.995]
<no-speech> 
[594.905]
əː f ɨə̪ ŋ aː ŋ m ɨə̪ɪ̪ m o k l aː k i ʂ o l iə̪ʊ̪ j əːɪ̪ l aːɪ̪ m uə̪ x o 
[597.755]
<no-speech> 
[599.98]
