[0.0]
<no-speech> 
[0.795]
<no-speech> 
[1.725]
<no-speech> 
[4.155]
<no-speech> aː l o <sta> 
[5.185]
<no-speech> 
[5.985]
<no-speech> aː l o 
[7.065]
<no-speech> 
[7.895]
<no-speech> 
[8.895]
<no-speech> 
[16.075]
<no-speech> <sta> o ŋ w aː j əɪ̪ 
[16.995]
<no-speech> 
[19.715]
<sta> <no-speech> tɕ o n aːʊ̪ iə̪ ŋ iə̪ ŋ t ə n m o k tɕ u k ɗ ɨə̪ k x o ŋ <no-speech> 
[23.395]
<no-speech> 
[24.355]
<no-speech> <sta> ŋ ɛ a n n ɔɪ̪ x o ŋ 
[25.715]
<no-speech> 
[31.235]
<no-speech> <sta> tɕ o n aːʊ̪ iə̪ ŋ t ə n m o k s iʊ̪ ɗ ɨə̪ k x o ŋ 
[32.705]
<no-speech> 
[35.465]
<no-speech> <sta> tɕ o n aːʊ̪ iə̪ ŋ t ə n m o k s iʊ̪ ɗ ɨə̪ k x o ŋ 
[36.825]
<no-speech> 
[37.815]
<no-speech> 
[38.215]
<no-speech> 
[39.415]
ŋ ɛ <no-speech> ŋ ɛ a n n ɔɪ̪ x o ŋ <sta> <no-speech> k ɔ ŋ ɛ a n n ɔɪ̪ x o ŋ 
[44.475]
<no-speech> 
[48.705]
<no-speech> <sta> a n n ɔɪ̪ x o ŋ 
[49.495]
<no-speech> 
[53.585]
<no-speech> t a k ɗ aːɪ̪ <int> 
[54.325]
<no-speech> 
[55.575]
<no-speech> ŋ ɛ a n n ɔɪ̪ ɟ i x o ŋ 
[56.615]
<no-speech> 
[59.125]
<no-speech> <sta> o ŋ w aː aː ɹ aː tɕ o x aː k ɗ i 
[63.755]
<no-speech> 
[65.745]
<no-speech> 
[66.105]
<no-speech> 
[68.285]
<no-speech> ɗ i <no-speech> ɗ i tɕ o n aːʊ̪ m aː iə̪ ŋ t ə n <int> j o f ɔ ŋ j e ʂ i ɲ l uə̪ ŋ ɗ i 
[71.285]
<no-speech> 
[76.465]
<no-speech> 
[76.875]
<no-speech> 
[83.245]
<no-speech> 
[84.005]
<no-speech> 
[85.505]
<no-speech> 
[86.065]
<no-speech> 
[87.855]
<no-speech> o ŋ w aː aː <sta> x o ŋ ŋ ɛ ɟ i h əː k tʂ əː n <no-speech> x o ŋ x o ŋ ŋ ɛ ɟ i h əː k tʂ əː n aː <no-speech> 
[92.345]
<no-speech> 
[93.975]
<no-speech> <sta> aː <hes> <no-speech> ɛ m j o h ɔ k tɕ ɨə̪ 
[103.445]
<no-speech> 
[105.945]
<no-speech> <sta> m ɨə̪ɪ̪ h aːɪ̪ <no-speech> tɕ ɨ ɛ m h ɔ k ɟ i j əɪ̪ 
[109.925]
<no-speech> 
[110.995]
<no-speech> <sta> tɕ ɨ ɛ m h ɔ k ɟ i 
[112.685]
<no-speech> 
[113.605]
<no-speech> 
[114.935]
<no-speech> 
[115.835]
ɛ m h ɔ k m o ŋ ɟ i <int> <no-speech> 
[118.125]
<no-speech> 
[119.525]
<no-speech> 
[120.765]
<no-speech> 
[121.7]
