[0.0]
<no-speech> 
[2.705]
<no-speech> 
[3.235]
<no-speech> 
[5.425]
<no-speech> 
[6.635]
<no-speech> 
[10.345]
<no-speech> aː l o 
[11.055]
<no-speech> 
[12.765]
<sta> əː <no-speech> ɹ a ŋ ɹ ɨə̪ <cough> <no-speech> aː ɹ oɪ̪ <no-speech> ɹ a ŋ <int> <no-speech> ɲ aː <no-speech> tʂ e ŋ ŋ iə̪ ɗ aː ŋ 
[22.655]
<no-speech> 
[24.205]
<no-speech> <sta> ŋ oɪ̪ tɕ əːɪ̪ ɗ ɔ tɕ i <no-speech> ɨ <no-speech> x o ŋ ɗ i k ɔɪ̪ ɹ ɔ ŋ aː 
[28.775]
<no-speech> 
[29.775]
<no-speech> <sta> x o ŋ ɗ i k ɔɪ̪ ɹ ɔ ŋ aː 
[31.975]
<no-speech> 
[33.435]
<sta> ɓ aːʊ̪ h a ŋ ɟ aːʊ̪ h ɔaː ŋ ɹ oɪ̪ h ɔaː ŋ ɹ oɪ̪ 
[45.285]
<no-speech> <sta> ɓ i ɟ i c t aː 
[49.425]
<no-speech> 
[51.035]
<no-speech> m ə n <hes> j i m ə n <hes> ɗ i ɛ <laugh> n a m ɓ əː n v iə̪ ŋ tɕ əːɪ̪ tɕ i <no-speech> h a ŋ ʂ aːɪ̪ ɣ ɔ ŋ n a m ɓ əː n v iə̪ ŋ tɕ əːɪ̪ tɕ i <no-speech> <sta> <hes> w ə ŋ <hes> <hes> <int> 
[62.405]
<no-speech> ɛ m f aːɪ̪ ɓ iə̪ k n ɔ ɗ aː ŋ n a m ɓ əː n v iə̪ ŋ tɕ əːɪ̪ tɕ i <no-speech> ɹ aː k ɔɪ̪ <laugh> 
[65.865]
<no-speech> 
[68.945]
<no-speech> ɨ 
[69.665]
<no-speech> 
[71.575]
<no-speech> <hes> ɗ i ɛ <no-speech> a ŋ <hes> ŋ ɛ n ɔɪ̪ a ŋ ɹ aʊ̪ ʂ o ŋ ɹ oɪ̪ tɕ ə m m a m t o m l aː ɓ u ŋ ɹ oɪ̪ <hes> ɗ i ɛ tɕ ɔ tʂ oɪ̪ l uə̪ ŋ <laugh> 
[78.675]
<no-speech> 
[81.855]
<sta> əː <no-speech> h ə n ɲ ɨ ɹ ɨə̪ f aːɪ̪ x o ŋ n əː ɗ i ɛ n ɔɪ̪ ɓ i ɓ əː n ɗ i ɗ ɛ <no-speech> th əɪ̪ w aɪ̪ n a m əː ɓ əː n v iə̪ ŋ ɗ ɔ tɕ ɨ <no-speech> <int> 
[90.125]
<no-speech> 
[91.395]
<no-speech> 
[91.775]
<no-speech> 
[94.775]
<no-speech> <sta> a n tʂ o ŋ th ə k tʂ ə n x aː k f aːɪ̪ x o ŋ <no-speech> 
[96.835]
<no-speech> 
[97.705]
<no-speech> 
[98.125]
<no-speech> 
[98.935]
<no-speech> 
[99.345]
<no-speech> 
[101.705]
<no-speech> 
[102.215]
<no-speech> 
[103.575]
<no-speech> 
[104.465]
<no-speech> 
[105.585]
<no-speech> əː 
[107.135]
<no-speech> 
[108.035]
<no-speech> ɨ <int> <no-speech> 
[108.895]
<no-speech> 
[111.945]
<no-speech> 
[117.955]
<no-speech> 
[119.725]
<no-speech> 
[124.005]
<no-speech> 
[124.805]
<sta> th i ɹ ɨə̪ tɕ i <no-speech> th i x i ʂ aː ŋ <hes> x i ʂ aː ŋ j əːɪ̪ ɓ ɨə̪ w aː ɓ i f aːɪ̪ <no-speech> əː ɓ i tɕ iə̪ʊ̪ ɓ ɨə̪ w aː ɹ oɪ̪ ʂ aː ŋ ɹ oɪ̪ t oɪ̪ ɓ i <no-speech> <int> ɨ <int> 
[135.745]
<no-speech> 
[136.595]
<no-speech> 
[136.945]
<no-speech> 
[137.885]
<no-speech> <int> th əɪ̪ n ɔɪ̪ ɓ i ɲ iə̪ʊ̪ h a ŋ m əːɪ̪ h ɔaː ŋ tɕ ɨ ə k th i th oɪ̪ n ɔ m ə ŋ ɹ a ŋ 
[141.035]
<no-speech> ɟ aː <no-speech> 
[143.885]
<no-speech> th i ɓ ɨə̪ n i a ŋ l aːɪ̪ a ŋ k aː <no-speech> <laugh> ɗ aʊ̪ ɓ u ŋ m o a ŋ 
[148.715]
<no-speech> 
[149.785]
<no-speech> 
[150.415]
<no-speech> 
[151.525]
<no-speech> <int> əː <no-speech> th əɪ̪ n a m <hes> m əː th i th əɪ̪ h a ŋ w aɪ̪ ʂ aʊ̪ ɓ aɪ̪ ɟ ɨə̪ ŋ th əɪ̪ k ɔ ʂ aʊ̪ ɓ aɪ̪ th a ŋ n a m ɹ oɪ̪ k ɔ ŋ tɕ i n ɨə̪ <laugh> 
[163.095]
<no-speech> 
[163.855]
<no-speech> 
[165.125]
th i ŋ aɪ̪ tɕ o k uə̪ v e t e v e ɓ aː aː t e <no-speech> x i n aɪ̪ h a ŋ w aɪ̪ tɕ o v e t aː h a ŋ ɗ aː ŋ ɗ aː ŋ h a ŋ <hes> ɓ aː tʂ a m ʂ aʊ̪ m ɨə̪ɪ̪ ɗ o h a ŋ w aɪ̪ j e tɕ i <no-speech> h a ŋ f ɔ ŋ v ə ŋ ɗ əɪ̪ tɕ i h a ŋ ɗ a ŋ t aːɪ̪ ʂ aːʊ̪ h ɔaː ŋ tʂ ə n ɗ əʊ̪ ɗ ɔ tɕ i <no-speech> x o ŋ th i h a ŋ n ɔ k ɨ tʂ ə k n ɔɪ̪ l aː ɓ əː n <hes> 
[176.355]
<no-speech> n ɔɪ̪ l aː ɟ ɔ ɓ i ɓ əː n ɗ i ɛ <no-speech> n ɔ n ɔɪ̪ tɕ i <laugh> n ɔɪ̪ a ŋ ɹ aʊ̪ ʂ o ŋ tɕ ə m ɹ uə̪ k t o m f aːɪ̪ 
[183.055]
<no-speech> 
[183.975]
<no-speech> m a m t o m 
[184.745]
<no-speech> 
[186.935]
<no-speech> ɨ <sta> x o ŋ ɓ iə̪ k <no-speech> th i n ɔɪ̪ ɹ ɨə̪ tɕ ɨ k ɔ n ɔɪ̪ h a ŋ əː m o m o 
[194.145]
<no-speech> 
[195.065]
<no-speech> m əː m aː ŋ k ɔɪ̪ tɕ ə n ʂ aː c ɟ i ɗ əɪ̪ tɕ a k tɕ a ŋ k ɔ <laugh> 
[199.605]
<no-speech> 
[200.565]
<int> <no-speech> <int> ɨ 
[201.855]
<no-speech> 
[205.535]
<no-speech> ɨ <no-speech> <sta> 
[207.675]
<no-speech> 
[213.225]
<int> t o m tɕ uə̪ <no-speech> h o m <hes> ŋ ɛ n ɔɪ̪ t o m tɕ uə̪ 
[215.955]
<no-speech> 
[219.035]
<no-speech> əː <no-speech> ɨ 
[221.785]
<no-speech> 
[223.075]
<no-speech> 
[223.715]
<no-speech> 
[224.975]
<no-speech> <sta> k ɔ <breath> <no-speech> th e 
[230.085]
<no-speech> 
[231.355]
<no-speech> x o ŋ <no-speech> w ə ŋ n əː th i s ɔ ŋ ɹ oɪ̪ x o ŋ j e 
[233.235]
<no-speech> 
[241.475]
<no-speech> k ɔ <no-speech> x i n əː ɗ aː ŋ ɟ əː ɟ əː ɓ ɨə̪ ɹ oɪ̪ h ɨə̪ ŋ <hes> v ə ɲ ɲ əː l aː ɗ aː ŋ <hes> l ɨʊ̪ tʂ ɔ ŋ m aːɪ̪ aː 
[245.165]
<no-speech> 
[246.205]
<no-speech> ɹ ɨə̪ x o ŋ ɗ e tɕ i m aːɪ̪ ɹ aː 
[247.525]
<no-speech> 
[250.845]
<no-speech> əː ɹ ɨə̪ l aː <hes> l ɨʊ̪ l ɨʊ̪ <hes> l ɨʊ̪ tʂ ɔ ŋ m aːɪ̪ aː th oɪ̪ tɕ ɨ n ɔ ɣ ɨɪ̪ <no-speech> m aː l ɨʊ̪ <hes> l ɨʊ̪ l aːɪ̪ tʂ ɔ ŋ n əː t e 
[256.725]
<no-speech> 
[258.304875]
<no-speech> əː <no-speech> ʂ aʊ̪ ɲ əː m əː ɹ aː l əɪ̪ l aːɪ̪ ɓ uə̪ɪ̪ ʂ aː ŋ n əː l uə̪ ŋ 
[261.265]
<no-speech> 
[262.335]
<no-speech> m aː ɹ a ŋ <no-speech> aː m aː ɹ a ŋ ɓ aː k t aːɪ̪ ɓ aː k tɕ aɪ̪ ɓ ɔ ŋ oaɪ̪ s ɛ <laugh> ɗ aː ŋ k ɔ ŋ t iə̪ k əː th u ŋ ɓ iə̪ <no-speech> 
[268.295]
<no-speech> 
[273.805]
<no-speech> 
[274.235]
<no-speech> 
[277.075]
<no-speech> m o h ɔ k ʂ i ɲ ɓ ɔ j e <no-speech> h ɔ k ʂ i ɲ <no-speech> k ɔ aːɪ̪ ɟ aɪ̪ m o 
[279.555]
<no-speech> 
[282.125]
<no-speech> 
[282.755]
<no-speech> 
[290.805]
<no-speech> əː 
[291.325]
<no-speech> 
[294.385]
<no-speech> ɨ <no-speech> ɹ ɨə̪ tɕ a k h a ŋ x o ŋ j e ɟ aɪ̪ 
[296.105]
<no-speech> 
[297.145]
<no-speech> <oov> h a ŋ x o ŋ j e ɟ aɪ̪ <no-speech> <no-speech> n ɔɪ̪ ɹ a ŋ h ɔ k ʂ i ɲ j e h əː k ɹ oɪ̪ n aː <no-speech> <no-speech> 
[302.905]
<no-speech> 
[307.785]
<no-speech> 
[319.335]
<sta> 
[328.105]
<no-speech> 
[329.515]
<no-speech> k ɔ əː ɗ ɔ ɲ ɨ ŋ m aː t iə̪ k tɕ ɨə̪ h əː k t e n aː <no-speech> th əɪ̪ t iə̪ʊ̪ h əː k th əɪ̪ h ɔ k ʂ i ɲ j e <no-speech> ɗ əʊ̪ j o f aː k l aː h ɔ k ʂ i ɲ j e <int> <no-speech> aː x o ŋ 
[336.385]
<no-speech> 
[339.745]
<no-speech> əː <int> <no-speech> ɲ ɨ ŋ m aː h a ŋ w e ŋ <int> h aɪ̪ ɹ a ŋ h a ŋ x o ŋ ɟ aɪ̪ f aːɪ̪ <sta> h a ŋ ʂ aː ŋ t iə̪ k n a m th i h a ŋ l aːɪ̪ ɟ aɪ̪ <no-speech> h ə n ɲ ɨ t iə̪ k n a m l aːʊ̪ ɗ i ɟ aɪ̪ f aːɪ̪ <laugh> 
[347.235]
<no-speech> 
[349.995]
<no-speech> <laugh> h ə n ɲ ɨ ɹ ɨə̪ h aɪ̪ ɹ a ŋ x o ŋ ɓ iə̪ k <no-speech> k ɔ n ɔɪ̪ <hes> t iə̪ k k uə̪ ɓ aː k t e n aː <no-speech> t iə̪ k ɓ aː k t iə̪ k m o t e n aː m aː <hes> 
[356.705]
<no-speech> 
[357.905]
<no-speech> əː a n k i n ɔɪ̪ ɹ a ŋ th a ŋ ɗ ə n m aː ɣ ɔɪ̪ x o ŋ ɗ ɨə̪ k <no-speech> <laugh> th i ɹ ɨə̪ <no-speech> ɗ əː <hes> th i a n k i ɣ ɔɪ̪ ɹ ɨə̪ ɹ a ŋ ɗ ə n ɗ aː ŋ k ɔ ŋ t iə̪ k m aː ɹ a ŋ ɓ ɔ j e <no-speech> <no-speech> 
[366.105]
<no-speech> 
[371.725]
<sta> ŋ eʊ̪ ɓ aːʊ̪ <no-speech> h aɪ̪ <no-speech> ɨ <no-speech> h aɪ̪ l aːʊ̪ tɕ ɨə̪ w e ŋ n ɔɪ̪ tɕ ɨ ɹ a ŋ n ɨə̪ <no-speech> ŋ eʊ̪ m aː n ɔɪ̪ th i a n <hes> a n ɟ iə̪ n ɣ ɔɪ̪ h u ŋ tɕ ɨ <laugh> ɣ ɔɪ̪ ɓ aː k <laugh> 
[383.415]
<no-speech> <laugh> h aɪ̪ k ɔ l ɛ ɹ ɨə̪ 
[387.485]
<no-speech> 
[388.465]
<no-speech> 
[389.395]
<no-speech> 
[391.445]
<no-speech> ɨ th i ɹ ɨə̪ a n k i ɣ ɔɪ̪ ɓ aː k k i tɕ i <laugh> <no-speech> ɨ 
[394.525]
<no-speech> 
[396.635]
<no-speech> 
[397.105]
<no-speech> 
[398.655]
<no-speech> ɓ iə̪ k ɹ oɪ̪ <no-speech> ɹ ɨə̪ <no-speech> ɨ 
[400.485]
<no-speech> 
[401.545]
<no-speech> ɨ 
[401.945]
<no-speech> 
[406.325]
<no-speech> əː 
[406.975]
<no-speech> 
[414.035]
<no-speech> əː 
[414.485]
<no-speech> 
[415.415]
<no-speech> 
[415.995]
<no-speech> 
[417.305]
<no-speech> ʂ əː m aː k ɔ l ɛ l aːʊ̪ w e ŋ n ɔɪ̪ j əːɪ̪ a n th iə̪ ŋ ɹ a ŋ <laugh> ɹ oɪ̪ a n k i k ɨ n ɔɪ̪ ɹ a ŋ <hes> 
[423.745]
<no-speech> 
[425.925]
<no-speech> <hes> m aː tɕ a k k i <no-speech> <hes> n ɔ n ɔɪ̪ ɹ ɨə̪ m aː h u ŋ l aːɪ̪ k eʊ̪ x o ŋ ɲ əː h aɪ̪ ɹ a ŋ ɹ oɪ̪ h ɔ k ʂ i ɲ j e <no-speech> ɗ əʊ̪ ɟ əː h a ŋ j e k aː 
[432.515]
<no-speech> 
[433.565]
<no-speech> h a ŋ j e ɹ oɪ̪ <hes> <no-speech> j i x i n əː h ə n ɲ ɨ l aː m əːɪ̪ k ɔ m əɪ̪ ɟ əː <hes> 
[437.345]
<no-speech> 
[439.695]
<no-speech> n ɛ <no-speech> h aː <no-speech> 
[441.005]
<no-speech> 
[441.995]
<no-speech> 
[442.355]
<no-speech> 
[444.875]
<no-speech> əː th i ɹ ɨə̪ ɓ aː k j e ɹ oɪ̪ h o m w aː ɲ ɨ t iə̪ k ɓ o ŋ <no-speech> h a ŋ j e <no-speech> th i th əɪ̪ t iə̪ k n a m l e h u ŋ l e ŋ l aː th əɪ̪ ɓ aːɪ̪ n i l aː m i ɗ i ɟ aɪ̪ t iə̪ k n a m ɗ ɨə̪ k <laugh> 
[451.655]
<no-speech> 
[452.705]
<sta> <no-speech> ɨ <no-speech> 
[456.105]
<no-speech> 
[457.585]
<no-speech> 
[458.195]
<no-speech> 
[459.275]
<no-speech> əː h aɪ̪ ɹ ɨə̪ <no-speech> əː <no-speech> h aɪ̪ ɹ ɨə̪ x o ŋ ɓ iə̪ k ɹ a ŋ aː 
[462.035]
<no-speech> 
[464.295]
<no-speech> ɨ 
[464.875]
<no-speech> 
[466.595]
<no-speech> ɗ oɪ̪ l ə c 
[467.605]
<no-speech> 
[468.895]
<no-speech> əː <no-speech> ɨ <sta> əː <no-speech> k ɔ l ɛ ɹ ɨə̪ <no-speech> k ɔ l ɛ n ɔɪ̪ h aː <no-speech> <int> 
[479.725]
<no-speech> 
[482.195]
<no-speech> h ə n ɲ ɨ k ɔ ɗ oɪ̪ th i f aːɪ̪ <no-speech> h aɪ̪ ɹ a ŋ aː 
[483.875]
<no-speech> 
[487.775]
<no-speech> 
[488.155]
<no-speech> 
[490.165]
<sta> <no-speech> aː th əɪ̪ a n ʂ i ɓ ɨə̪ w aː <hes> h aɪ̪ ɓ ɨə̪ <hes> ɓ ɨə̪ w aː ɓ ɨə̪ t e tɕ i ɓ ɨə̪ w aː f aːɪ̪ <no-speech> ɟ aː n ɗ ə c m əːɪ̪ ɗ ɔ tɕ i 
[495.925]
<no-speech> 
[499.765]
<no-speech> 
[500.375]
<no-speech> 
[502.685]
<no-speech> <sta> əː th əɪ̪ h ə n ɲ ɨ ɹ ɨə̪ f aːɪ̪ th əɪ̪ ɓ ɨə̪ w aː a n <hes> ʂ i th aɪ̪ ɗ oɪ̪ <no-speech> 
[505.925]
<no-speech> 
[506.945]
<no-speech> th aɪ̪ ɗ oɪ̪ ɹ oɪ̪ <hes> l aː m ɗ i l aː m l aːɪ̪ m aːɪ̪ ɗ e ŋ m aːɪ̪ ɗ e ŋ <no-speech> tɕ iə̪ʊ̪ h aɪ̪ ɹ a ŋ m əːɪ̪ <hes> m əːɪ̪ s ɔ ŋ <no-speech> k ɨ th aɪ̪ ɗ oɪ̪ j əːɪ̪ t u ŋ <no-speech> ɗ e ŋ tʂ ɨə̪ <no-speech> tʂ ɨə̪ h aɪ̪ tɕ iə̪ʊ̪ tɕ i m əːɪ̪ s ɔ ŋ n ɨə̪ 
[515.345]
<no-speech> 
[517.034875]
<no-speech> m əːɪ̪ th əɪ̪ h a ŋ ɗ e ɟ aː n k ɔ ŋ th aːʊ̪ v iə̪ k n ɛ 
[518.684875]
<no-speech> 
[520.425]
<no-speech> aː 
[521.095]
<no-speech> 
[522.815]
<no-speech> 
[524.045]
<no-speech> 
[524.925]
<sta> əː <no-speech> ʂ o h aː n oɪ̪ <no-speech> əː <no-speech> ɗ əʊ̪ x o ŋ <hes> ʂ o h aː n oɪ̪ <no-speech> ʂ o x o ŋ ɓ o ŋ ɗ əɪ̪ ʂ o ɓ aː k ɗ əɪ̪ aː 
[534.305]
<no-speech> 
[536.205]
<no-speech> <sta> əː ɓ iə̪ k ɹ oɪ̪ <no-speech> ɹ ɨə̪ ɓ aː k ɣ ɔɪ̪ t i n aːɪ̪ ɹ a ŋ <no-speech> <laugh> ɣ ɔɪ̪ t uɪ̪ th əɪ̪ k i ʂ o m o h aɪ̪ ɹ ɨə̪ l aː k ɨ ɓ aːʊ̪ ɓ ə m ʂ o th i m o k t uɪ̪ k u ŋ ɓ ə m tɕ aː ɹ oɪ̪ ɓ ə m ŋ oɪ̪ tɕ əː ŋ ɛ t iə̪ ŋ ɓ aː k <laugh> 
[546.015]
<no-speech> 
[547.945]
<no-speech> 
[548.375]
<no-speech> 
[551.235]
<no-speech> əː 
[552.015]
<no-speech> 
[554.855]
<no-speech> əː əː 
[555.445]
<no-speech> 
[556.18]
