[0.0]
<no-speech> 
[4.315]
ɟ i 
[5.035]
<no-speech> 
[8.265]
k ɔ <hes> ŋ ɛ ɗ aː ŋ h ɔaː ŋ tɕ ɨ ʂ aːʊ̪ x o ŋ k ɔ 
[11.305]
<no-speech> 
[12.285]
<no-speech> ŋ ɛ k iə̪ k 
[12.965]
<no-speech> 
[19.925]
<no-speech> 
[20.505]
<no-speech> 
[22.105]
k i ɟ i 
[22.585]
<no-speech> 
[25.425]
ɓ aː ɗ i k a k ɹ aʊ̪ 
[26.945]
<no-speech> 
[30.955]
<no-speech> x o ŋ ɓ o ŋ ɟ əː m əːɪ̪ j e 
[33.565]
<no-speech> 
[35.645]
ɓ o ŋ ɟ əː 
[36.855]
<no-speech> 
[40.125]
<no-speech> 
[40.795]
<no-speech> 
[43.625]
k ə ŋ ɟ i tɕ ɔ n u k m aː <no-speech> k i l ɨə̪ɪ̪ ɓ ɨ tɕ aː ŋ <no-speech> n u k ɓ aː k i n u m j u ɹ iə̪ k l ɨə̪ɪ̪ ɓ ɨ tɕ aː ŋ n ɔɪ̪ x o ŋ ŋ ɛ ɟ i ɗ ɨə̪ k ɟ i h əː k <int> 
[52.975]
<no-speech> 
[56.765]
<no-speech> 
[57.445]
<no-speech> 
[58.725]
<no-speech> 
[60.745]
<no-speech> 
[61.615]
<no-speech> 
[62.165]
<no-speech> 
[64.464875]
k u ŋ j əɪ̪ aː m ə p j əɪ̪ <hes> 
[66.745]
<no-speech> 
[72.235]
h aːɪ̪ ɓ ɨə̪ ɹ oɪ̪ h o m w aː t əːɪ̪ n aɪ̪ ɗ i <hes> t ə n ɗ i ɗ aː m tɕ əː n ɔ ɹ ɨə̪ k ɹ oɪ̪ ɗ i 
[77.195]
<no-speech> 
[80.095]
ɗ aː m <hes> o ŋ ɟ aː k uə̪ o ŋ h aːɪ̪ th əːɪ̪ h i ʂ i ɲ <hes> 
[85.795]
<no-speech> 
[91.355]
ŋ uə̪ɪ̪ k ɔ ŋ x i k ɔ ŋ n a ŋ h əː ŋ n ɨə̪ m aːɪ̪ m o k x o ŋ tɕ ɨ ŋ ɟ aː m t aː t iə̪ m l uə̪ ŋ <int> 
[95.675]
<no-speech> 
[98.925]
j əɪ̪ tɕ ɨ <hes> x o ŋ k ɔ əː tʂ e ŋ n aɪ̪ <hes> ɗ o k uə̪ ŋ ɨə̪ɪ̪ t aː n ɔɪ̪ ɟ ə k ŋ ɨə̪ k <hes> ɟ ə k s uə̪ɪ̪ ŋ ɨə̪ɪ̪ t aː tɕ aː ŋ <hes> ŋ ɨə̪ɪ̪ t aː ɗ əʊ̪ k ɔ m ə ŋ n ɨə̪ <hes> x o ŋ l a n 
[107.795]
<no-speech> 
[110.765]
th i m u k <hes> n ɨə̪ h oɪ̪ n aɪ̪ w aː ŋ oɪ̪ ŋ ɛ ŋ ɨə̪ɪ̪ t aː h ɔɪ̪ m aː ŋ ɟ i <hes> n ɔɪ̪ ɟ i <hes> ɟ ə k ŋ ɨə̪ k ɟ ə k s uə̪ɪ̪ th əɪ̪ ɣ ɛ k 
[117.365]
<no-speech> 
[120.355]
k ɔ ŋ n a ŋ h əː ŋ <sta> n ɨə̪ <no-speech> m aːɪ̪ m o k x o ŋ ɓ i 
[123.845]
<no-speech> 
[126.305]
k i ɟ i 
[126.825]
<no-speech> 
[132.115]
x o ŋ x o ŋ v ə ŋ ɗ e ɟ ɛ p l uə̪ ŋ x o ŋ k ɔ ɹ e ŋ 
[135.395]
<no-speech> 
[136.685]
<no-speech> 
[137.295]
<no-speech> 
[138.395]
<no-speech> 
[139.385]
<no-speech> 
[142.545]
<no-speech> 
[142.945]
<no-speech> 
[144.425]
th i u k ɗ ɔ 
[145.575]
<no-speech> 
[148.895]
<no-speech> <sta> ɗ a n tɕ iʊ̪ tɕ ɨ ʂ aːʊ̪ ɟ əː 
[152.165]
<no-speech> 
[154.865]
m aː th i m n əʊ̪ m i k u ŋ k i l a m 
[157.135]
<no-speech> 
[158.985]
th i m n əʊ̪ m i <hes> k i 
[160.625]
<no-speech> 
[161.605]
th i <hes> k i <hes> k ɔ ŋ ɲ ɔ x o ŋ h iə̪ʊ̪ ɓ iə̪ k ɲ iə̪ʊ̪ <hes> n ɔɪ̪ tʂ e ŋ tʂ əːɪ̪ <hes> t aː ɗ əɪ̪ <hes> aːɪ̪ k u ŋ x o ŋ x oaɪ̪ h əː k tɕ aː k u ŋ x o ŋ th ə c l uə̪ ŋ 
[172.885]
<no-speech> 
[180.155]
ɨ <int> 
[182.155]
<no-speech> 
[183.005]
<hes> x o ŋ aːɪ̪ k u ŋ tɕ əːɪ̪ h əː k <hes> x o ŋ ŋ ə c aːɪ̪ h əː k <hes> m ə n l əː ŋ m aː 
[188.015]
<no-speech> 
[189.585]
<no-speech> 
[190.925]
<no-speech> 
[192.205]
m ə n ɓ ɨ m aː <no-speech> ʂ əː ɟ i 
[195.185]
<no-speech> 
[199.505]
x o ŋ n ɔ ɟ e th ɨə̪ ŋ l a m j əɪ̪ ŋ ɛ ɹ oɪ̪ 
[202.285]
<no-speech> 
[205.445]
ɟ aɪ̪ n ɔ ɓ iə̪ k ŋ ɛ <hes> x o ŋ k ɔ ɟ i 
[207.755]
<no-speech> 
[209.135]
ɟ e th ɨə̪ ŋ l a m 
[210.025]
<no-speech> 
[211.145]
<no-speech> ɨ ŋ u ʂ əː m 
[212.725]
<no-speech> 
[217.475]
j əɪ̪ tɕ ɨ ɹ aː ŋ tɕ iʊ̪ tɕ ɨ m aːɪ̪ m o k k u p ɗ iə̪ ŋ l uə̪ ŋ h aːɪ̪ ɓ aː ŋ aɪ̪ tɕ ɨ ʂ aːʊ̪ 
[221.875]
<no-speech> 
[226.685]
<hes> m uə̪ n a ŋ <hes> th i tɕ u ɲ ə k ɨə̪ k u p ɗ iə̪ ŋ l a m 
[229.345]
<no-speech> 
[230.155]
m uə̪ m ɨə̪ th i x o ŋ k ɔ k u p 
[231.635]
<no-speech> 
[235.905]
tʂ əːɪ̪ əːɪ̪ tɕ aː m əɪ̪ ɓ ɨə̪ <int> tɕ aːʊ̪ th ə k tɕ ɨ ɗ əʊ̪ k ɔ a ŋ k əː m ɗ ɨə̪ k k i m iə̪ ŋ n ɔ l əː f aː ŋ f aː ŋ ɹ oɪ̪ 
[242.245]
<no-speech> 
[244.485]
a ŋ əː k ɹ iə̪ k n ɔ ŋ l əː 
[246.515]
<no-speech> 
[252.225]
k i ɟ i 
[252.885]
<no-speech> 
[257.004875]
t aɪ̪ tɕ ə ŋ m iə̪ ŋ ɹ oɪ̪ t aɪ̪ x o ŋ k ɔ m iə̪ ŋ ɗ əʊ̪ m aː 
[260.085]
<no-speech> 
[265.015]
<no-speech> ʂ aːʊ̪ x o ŋ k ɔ th iə̪ʊ̪ ɟ i tɕ uɪə̪ ŋ n ɔɪ̪ 
[267.115]
<no-speech> 
[267.975]
tʂ aːɪ̪ m ə k <no-speech> tʂ aːɪ̪ m ə k n ɔ t ɛ k l ɛ k ɹ oɪ̪ m aː n ɔ tʂ a ŋ s aː k h aː ɓ aː s ɛ ɹ aː ɓ aː k ɔ ŋ m o k m iə̪ ŋ j e a ŋ j e a ŋ 
[275.555]
<no-speech> 
[277.435]
<no-speech> 
[277.885]
<no-speech> 
[279.405]
m uə̪ɪ̪ th i ɲ ɔ k ɲ ɨ ŋ m aː n ɔ x o ŋ k ɔ ɗ ɔ n ɔ x o ŋ k ɔ j aː ŋ 
[283.095]
<no-speech> 
[284.655]
<no-speech> tʂ a ŋ s aː k 
[285.355]
<no-speech> 
[287.615]
<no-speech> n ɔ n ɨ k t ɔɛ t ɔɛ k l uə̪ ŋ m aː tɕ ɨə̪ tɕ i ŋ ɟ i tɕ i ŋ n ɔ k u ŋ ŋ ɔ k l a m m aː n ɔ tʂ a ŋ s aː k h aː <no-speech> n ɔ x o ŋ <int> k ɔ j aː ŋ 
[293.555]
<no-speech> 
[298.505]
<no-speech> ɹ oɪ̪ <int> 
[299.695]
<no-speech> 
[302.505]
k ɔ ŋ k iə̪ʊ̪ ɟ aː ŋ ɲ ɔ k əː ɟ ɨə̪ɪ̪ <hes> <laugh> 
[304.315]
<no-speech> 
[309.865]
h əː k l uə̪ ŋ ɹ oɪ̪ <hes> h əː k l uə̪ ŋ ɹ oɪ̪ x o ŋ k ɔ ŋ tʂ aːɪ̪ m ə k n aːʊ̪ n ɨə̪ 
[313.795]
<no-speech> 
[314.615]
x o ŋ k ɔ l u tʂ aːɪ̪ n aːʊ̪ m aː ɲ ɔ ɲ ɔ n ɨə̪ <hes> 
[317.425]
<no-speech> 
[320.335]
ɹ oɪ̪ ɟ əː <hes> ɗ i m ə ŋ m ə ŋ əː ɗ əʊ̪ <hes> ŋ o <hes> 
[323.815]
<no-speech> 
[324.765]
<no-speech> k ɔ j iə̪ k l aː m ɹ oɪ̪ h aː 
[325.965]
<no-speech> 
[329.495]
<no-speech> 
[330.205]
<no-speech> 
[333.505]
ɨ k e k i j u t iə̪ ŋ aː ɗ ɨə̪ k ɹ oɪ̪ k ɔ ɲ iə̪ʊ̪ 
[336.615]
<no-speech> 
[340.885]
<no-speech> h aː 
[341.355]
<no-speech> 
[348.475]
<no-speech> th iə̪ʊ̪ 
[349.025]
<no-speech> 
[350.795]
<no-speech> th iə̪ʊ̪ ɟ i tɕ uɪə̪ ŋ n ɔɪ̪ 
[352.715]
<no-speech> 
[353.795]
n ɔɪ̪ n ɔɪ̪ k i j u u k <hes> 
[356.355]
<no-speech> 
[358.435]
ɟ ɨə̪ ŋ u k <hes> tɕ aː ɹ u ɗ i ɗ aː m <hes> ɓ aː k uə̪ <hes> ɟ ɨə̪ ŋ h aːɪ̪ h əːɪ̪ 
[364.225]
<no-speech> 
[365.265]
m ə n <hes> h iə̪ ŋ ɟ əː m ə n m uə̪ ŋ ɗ i th aː p t u ŋ s uɪ̪ k uə̪ <hes> ɓ aː ɓ aɪ̪ əː tʂ e ŋ <hes> l aː m aː k uə̪ k o m aːɪ̪ <hes> 
[371.555]
<no-speech> 
[372.845]
tɕ aː t ə n h aː k t uə̪ ŋ tɕ i <no-speech> ɹ oɪ̪ ɗ e ŋ <hes> tɕ u u k x o ŋ k ɔ ɲ aː n ɔɪ̪ th i m u k n ɔɪ̪ oɪ̪ ɗ i k i ɟ i m ə n ɗ i l ɔ m ə n h aː m aː h ɔɪ̪ tɕ ɨ ɟ əː <hes> m ə n tɕ aː th i 
[384.235]
k ɔɪ̪ ɲ ɨ j aːɪ̪ a n ɹ oɪ̪ <sta> m aː h aː ŋ eʊ̪ t ə k th i n ɔɪ̪ tɕ aː tɕ ɨ n ɔɪ̪ aːɪ̪ th oɪ̪ tɕ aː <hes> ɣ ɔɪ̪ k o h a ŋ n ɔɪ̪ tɕ iə̪ʊ̪ n aɪ̪ tɕ aː ɗ i 
[393.905]
<no-speech> 
[397.115]
tɕ u u k ɗ i tɕ əː tɕ ɨə̪ k ɔ j e tɕ u u k ɗ i tɕ əː 
[401.375]
<no-speech> 
[403.405]
ɹ oɪ̪ k i tɕ aː ɣ ɔɪ̪ k o ɓ aɪ̪ tɕ ɔ k o ɓ aɪ̪ h aɪ̪ tɕ iə̪ʊ̪ k o ɓ aɪ̪ k u ŋ ɗ i th aː p t u ŋ ɗ i j əːɪ̪ ɓ aː ɓ aɪ̪ l uə̪ ŋ j əːɪ̪ k o h o ŋ ɛ m k o m aːɪ̪ aː 
[412.345]
<no-speech> 
[413.405]
tɕ u u k ɗ i ɹ iə̪ ŋ tɕ ɔ tɕ u u k ɗ i j əːɪ̪ tɕ u t ɨ l ə n ɗ i ɹ iə̪ ŋ l uə̪ ŋ 
[417.035]
<no-speech> 
[419.745]
<no-speech> 
[420.565]
<no-speech> 
[423.235]
<no-speech> 
[424.025]
<no-speech> 
[432.345]
x o ŋ n ɔɪ̪ k u ŋ ɗ əʊ̪ k ɔ ɟ i th i n ɔɪ̪ k u ŋ j əɪ̪ k u ŋ h aːɪ̪ j əː tɕ o ŋ k u ŋ k ɔ m o k ɓ u ŋ m o k tɕ o ŋ h ə n ɲ ɨ ŋ ɛ <no-speech> ɓ u ŋ k uə̪ j əː n ɨə̪ m aː tɕ u u k ŋ ɛ ɓ aː ɓ aː th i m u k 
[444.075]
<no-speech> 
[446.405]
<no-speech> m ɨə̪ɪ̪ f ə ŋ th i ŋ ɛ h əː k t aː m ɹ oɪ̪ 
[448.565]
<no-speech> 
[452.455]
<no-speech> m ɨə̪ɪ̪ f ə ŋ ŋ ɛ h əː k t aː m 
[453.765]
<no-speech> 
[457.665]
<no-speech> 
[458.575]
<no-speech> 
[459.755]
<no-speech> m ɨə̪ɪ̪ f ə ŋ h əː k 
[460.705]
<no-speech> 
[461.855]
ŋ ɛ h əː k t aː m f ə ŋ ɹ oɪ̪ <no-speech> tɕ i k ɔ h aːɪ̪ f ə ŋ l aː h əːɪ̪ x aː k x aː k k ɔ ŋ k ɨ l aːɪ̪ th oɪ̪ tɕ ɨ <no-speech> ɓ aː ŋ k uə̪ o ŋ t ə m ɓ e ŋ f u t u k aː ŋ aɪ̪ <hes> tɕ o <hes> tɕ əː f u t u k ɓ e ŋ 
[472.655]
tɕ e <hes> o ŋ t ə m <hes> ʂ əː j əː 
[475.855]
<no-speech> 
[476.655]
k i o ŋ t ə m o ŋ n ɔɪ̪ l aːɪ̪ m o k k əʊ̪ j əɪ̪ n ɨə̪ t aː ŋ ɗ o ŋ ɗ əʊ̪ ɗ əʊ̪ k u ŋ k ɔ <laugh> tɕ ɨə̪ tɕ a k ɟ i aːɪ̪ h əː ŋ aːɪ̪ <hes> <laugh> tɕ e m aː n ɔɪ̪ 
[487.535]
k aː ɹ əː n k aː ɹ əː n əː <no-speech> k i o ŋ t ə m o ŋ n ɔɪ̪ t aː ŋ ɗ o ŋ ɗ əʊ̪ ɗ əʊ̪ k u ŋ k ɔ <int> <no-speech> k i j u ʂ əː j əː n aɪ̪ aːɪ̪ x o ŋ ʂ əː <laugh> 
[495.355]
<no-speech> 
[498.925]
ʂ aːʊ̪ x o ŋ ɓ iə̪ k <no-speech> m əːɪ̪ <hes> m əːɪ̪ ɲ a k l aːɪ̪ o ŋ <hes> o ŋ t ɨ l ə n ɗ o m əːɪ̪ ɲ a k ɲ a k l aːɪ̪ ɗ əɪ̪ <laugh> <no-speech> 
[505.615]
<no-speech> 
[506.535]
<no-speech> əː ɗ əʊ̪ ɓ iə̪ k 
[507.795]
<no-speech> 
[510.765]
<no-speech> ɹ oɪ̪ 
[511.445]
<no-speech> 
[515.085]
th i k i j u ɗ ɔ ɹ oɪ̪ tɕ iə̪ʊ̪ <hes> k o h o ŋ <hes> tɕ ɨ ŋ n aːʊ̪ k o h o ŋ ɗ iə̪ ŋ ɗ i th i ɗ i ɗ i th aː p t u ŋ ɗ i t e l uə̪ ŋ aː <no-speech> k u ŋ t e aː 
[523.225]
<no-speech> 
[524.385]
<no-speech> ɹ oɪ̪ ɗ i j əːɪ̪ k əʊ̪ ɓ aɪ̪ 
[526.025]
<no-speech> 
[527.355]
<hes> ʂ aːʊ̪ 
[528.105]
<no-speech> 
[530.555]
<no-speech> n ɔɪ̪ n ɔɪ̪ 
[531.965]
<no-speech> 
[537.875]
<hes> ʂ aːʊ̪ 
[538.535]
<no-speech> 
[543.625]
n ɔ <hes> ʂ aːʊ̪ 
[544.405]
<no-speech> 
[554.305]
a n ɓ aː l e ŋ tɕ iə̪ʊ̪ tɕ iə̪ʊ̪ 
[557.615]
<no-speech> 
[565.975]
<no-speech> 
[574.335]
<no-speech> 
[575.765]
<no-speech> 
[577.925]
<no-speech> l aː x o ŋ j e f aːɪ̪ x o ŋ 
[579.365]
<no-speech> 
[580.525]
ʂ aː ŋ <hes> 
[582.215]
<no-speech> 
[583.515]
ɹ oɪ̪ th i <hes> tɕ iə̪ʊ̪ n aɪ̪ ɹ ɨə̪ k k u t i m aː ɹ ɨə̪ k j e ɓ e ŋ m aː 
[588.875]
<no-speech> 
[591.755]
<no-speech> 
[592.645]
<no-speech> 
[593.545]
ɲ əː th i j e ɗ əɪ̪ n ɔ tɕ ɔ h o ŋ m iə̪ ŋ 
[596.175]
<no-speech> 
[600.06]
