[0.000]
<no-speech> 
[9.928]
<no-speech> 
[19.857]
<no-speech> 
[29.785]
a l ɔ 
[30.395]
<no-speech> 
[34.505]
a l ɔ 
[35.165]
<no-speech> 
[37.745]
a l ɔ ɘ j iɘ̯ ɘ j iɘ̯ 
[40.595]
<no-speech> 
[45.455]
a l ɔ 
[46.145]
<no-speech> 
[47.175]
a l ɔ 
[48.105]
<no-speech> 
[50.245]
g ʉ l b ɑ ɾ ɑ n 
[51.185]
<no-speech> 
[52.665]
ɑ w 
[53.335]
<no-speech> 
[55.955]
ʒ ɑ q s ə y̯ʉ z ɘ ŋ q ɑ l ɑ j s ə ŋ 
[57.445]
<no-speech> 
[59.785]
ʒ ɑ q s ə 
[60.555]
<no-speech> 
[65.155]
d ʊ ɾ ə s iɘ̯ s t ɘ l ɘ ŋ k ɘ ɾ iɘ̯ m iɘ̯ j t ʊ ɾ 
[66.935]
<no-speech> 
[69.215]
ɑ w 
[69.975]
<no-speech> 
[74.635]
<hes> n iɘ̯ k y̯ʉ ɾ ɘ p ʒ ɑ t s ə ŋ d iɘ̯ j s ɘ ŋ bj ɛ 
[76.425]
<no-speech> 
[78.475]
ɘ j iɘ̯ m ə n ɑ w m iɘ̯ j ɾ ɑ m b iɘ̯ k t ə w ɾ ɑ l ə m iɘ̯ j ɾ ɑ m b iɘ̯ k b iɘ̯ s b ɑ iɘ̯ f t ə w ɾ ɑ l ə ɑ s t ɑ n ɑ d ɑ ʁ ə n ə k y̯ʉ ɾ ɘ p u̯ʊ t ə ɾ m ə n 
[83.755]
<no-speech> 
[84.785]
χ ɑ b ɑ ɾ b ʊ ɾ ə ŋ ʁ ə s ə ʁ u̯ʊ j d iɘ̯ j m ɘ n q ɑ j t ɑ l ɑ p ʒ ɑ t ə ɾ iɘ̯ k iɘ̯ n 
[87.505]
<no-speech> 
[90.885]
ʒ ɑ q s ə 
[91.715]
<no-speech> 
[92.935]
ʒ ɑ q s ə b ɘ ɾ q ɑ l ə p t ə ʁ u̯ʊ j ʒ ɑ t ə ɾ 
[95.015]
<no-speech> 
[97.695]
a x a b ɘ ɾ q ɑ l ə p t ə s u̯ʊ l 
[100.695]
<no-speech> 
[104.545]
ɑ q ɑ ɾ ɑ ʁ ɑ n d ə d ɑ n b aː 
[106.195]
<no-speech> 
[108.375]
a x a 
[109.855]
<no-speech> 
[112.685]
<no-speech> 
[113.115]
<no-speech> 
[121.525]
a x a 
[122.345]
<no-speech> 
[132.095]
ɑ m ɑ ŋ g iɘ̯ l d ɘ ɑ n ɑ w k ɘ m g iɘ̯ <hes> k ɘ m g iɘ̯ ʒ ɘ b iɘ̯ k k iɘ̯ z v ɔ n d ɑ p t ʊ ɾ iɘ̯ k iɘ̯ n ɑ n d ɑ s ɑ n d ɑ χ ɑ b ɑ ɾ l ɑ s ə p q ɑ l ə n s ʊ ɾ ɑ p s u̯ʊ l a x a ɑ 
[143.725]
q ə z d ɑ ɾ q ɑ l ɑ j 
[145.495]
<no-speech> 
[146.765]
ɑ l m ɑ t ə d ɑ ʁ ə q ə z d ɑ ɾ q ɑ l ɑ j 
[148.345]
<no-speech> 
[150.055]
ɑ l t ə n ʃ ɑ ʃ ɑ z ɑ t 
[151.695]
<no-speech> 
[153.195]
a x a 
[153.805]
<no-speech> 
[156.525]
a x a 
[157.245]
<no-speech> 
[159.905]
a x a 
[160.315]
<no-speech> 
[162.385]
ɑ ɘ j iɘ̯ ɘ j iɘ̯ 
[163.795]
<no-speech> 
[165.365]
a x a 
[165.965]
<no-speech> 
[175.935]
ɑ 
[176.755]
<no-speech> 
[178.355]
<no-speech> 
[179.755]
<no-speech> 
[183.885]
ɑ k ɘ m d iɘ̯ ɾ ɑ z ɑ t ɑ z ɑ t ʃ iɘ̯ 
[190.155]
<no-speech> 
[192.965]
ɑ w 
[193.655]
<no-speech> 
[196.275]
ʒ u̯ʊ ʁ iɘ̯ j iɘ̯ s t ɘ g iɘ̯ n ɘ m ʒ u̯ʊ q 
[197.765]
<no-speech> 
[198.875]
b u̯ʊ s ɑ n d ə m ɑ 
[199.845]
<no-speech> 
[203.045]
ɑ ʒ ɑ q s ə b u̯ʊ l ʁ ɑ n iɘ̯ k iɘ̯ n <hes> 
[207.545]
<no-speech> 
[209.315]
q ə z ʊ l 
[210.265]
<no-speech> 
[212.615]
aː 
[213.145]
<no-speech> 
[215.565]
ɑ ʒ æ k iɘ̯ ŋ ʒ ɑ q s ə <laugh> ʒ ʊ m ʊ s q ɑ ʃ ə q t ə ɑ n ɑ w k ʉ n ɘ b a lj nj i ʦ a d ɑ ʒ ɑ t ə p ʃ ə ʁ ə p ʒ ʊ m ʊ s q ɑ ʃ ə q t ə d iɘ̯ g iɘ̯ n 
[222.695]
<no-speech> 
[225.225]
aː b iɘ̯ k s ʊ l t ɑ n q ɑ l ɑ j 
[227.365]
<no-speech> 
[231.765]
b iɘ̯ k s ʊ l t ɑ n q ɑ l ɑ j d iɘ̯ j m ɘ n 
[233.125]
<no-speech> 
[234.625]
b iɘ̯ k s ʊ l t ɑ n b iɘ̯ k s ʊ l t ɑ n 
[236.265]
<no-speech> 
[238.255]
ʒ ʊ m ə s ʒ ʊ m ʊ s t ɑ ʒ ʉ ɾ 
[239.875]
<no-speech> 
[240.765]
ɑ <hes> n iɘ̯ m iɘ̯ ɾ iɘ̯ ŋ ʃ iɘ̯ <oov> ɑ j ɑ l ɑ ʁ u̯ʊ j ɘ j iɘ̯ <oov> n iɘ̯ m iɘ̯ ɾ iɘ̯ ŋ n ɘ ŋ ɑ t ə ɑ j ɑ l ɑ ʁ u̯ʊ j 
[246.945]
<no-speech> 
[248.515]
a x a q ɑ l ɑ j y̯ʉ s ɘ p ʒ ɑ t ə ɾ m ɑ a x a 
[251.825]
<no-speech> 
[252.705]
ɑ ʒ ɑ q s ə b u̯ʊ p t ə 
[253.755]
<no-speech> 
[258.235]
ɑ æ l ɘ b iɘ̯ k ʒ ʊ m ə s ə n d ɑ ɑ b æ ɾ ɘ ʒ ɑ q s ə 
[264.585]
<no-speech> 
[265.605]
ɑ ʒ ɑ q s ə b u̯ʊ l ʁ ɑ n iɘ̯ k iɘ̯ n 
[267.195]
<no-speech> 
[275.605]
ɑ s iɘ̯ n k a n ʦ ɛ r t t iɘ̯ n q ɑ l m ɑ j s ə ŋ m a l a dj ɛ ʦ 
[278.225]
<no-speech> 
[279.555]
ɑ <laugh> 
[281.975]
<no-speech> 
[285.095]
a x a 
[285.785]
<no-speech> 
[287.785]
u̯ʊ l ɑ ɾ ʒ ɑ q s ə ʉ j ɘ n d iɘ̯ s u̯ʊ l n iɘ̯ m iɘ̯ ɾ iɘ̯ s ɘ n y̯ʉ s ɘ ɾ ɘ p ʒ ɑ t ə ɾ ɑ ɾ ɑ s ə n d ɑ b ɑ l ɑ l ɑ ɾ d ə d ɑ j ə n d ɑ p q u̯ʊ j ɑ d ə 
[294.795]
<no-speech> 
[296.455]
ɑ w 
[297.155]
<no-speech> 
[298.115]
pj ɛ nj sj ɪ j a d ɑ ʁ u̯ʊ j ɘ j iɘ̯ ɘ j iɘ̯ ɘ j iɘ̯ ɑ 
[304.065]
<no-speech> 
[307.665]
ɘ j iɘ̯ ɘ j iɘ̯ b ɑ l ɑ l ɑ ɾ d ə d ɑ j ə n d ɑ p u̯ʊ t ə ɾ ʁ u̯ʊ j n iɘ̯ d iɘ̯ n fj i zj ɪ k a d ɑ n 
[314.605]
<no-speech> 
[315.505]
ɑ w 
[316.675]
<no-speech> 
[319.255]
ɑ m ɑ n iɘ̯ s iɘ̯ n ʒ ɑ ŋ ɑ ʁ ɑ n ɑ ʒ ɑ ŋ ɑ ʁ ɑ n ɑ k iɘ̯ p k iɘ̯ t t ɘ ʁ u̯ʊ j s u̯ʊ l b ɑ z ɑ ɾ ʁ ɑ k iɘ̯ l g iɘ̯ n iɘ̯ k iɘ̯ n ʊ l b u̯ʊ s ə n k iɘ̯ p s u̯ʊ l b ɘ ɾ u̯ʊ t ə ɾ ə p q ɑ j t ɘ p k iɘ̯ t t ɘ ʒ ɑ ŋ ɑ b ɑ z ɑ ɾ ʁ ɑ ɑ n ɑ w m ə n ɑ w b ɘ ɾ 
[330.755]
<no-speech> 
[332.185]
ɑ w t u̯ʊ ʁ ʒ ɑ n m ə n ɑ w q ɑ ɾ ɑ j d ə b ɘ ɾ iɘ̯ s iɘ̯ ɑ n ɑ w y̯ʉ z d iɘ̯ ɾ ɘ n ɘ ŋ <hes> n iɘ̯ s ɘ b aː r ʁ u̯ʊ j d ʉ k iɘ̯ n ɘ b aː r ʁ u̯ʊ j s u̯ʊ n ə s ə n ʊ s t ɑ p u̯ʊ t ə ɾ 
[343.225]
ɘ j iɘ̯ ɘ j iɘ̯ s u̯ʊ n ə ʊ s t ɑ p b ɑ l ɑ s ə iɘ̯ k iɘ̯ w ɘ s u̯ʊ n ə ʊ s t ɑ p u̯ʊ t ə ɾ ʁ u̯ʊ j a x a b æ ɾ ɘ ʒ ɑ q s ə k ʉ n k ʉ ʃ t ɘ b u̯ʊ p t ʊ ɾ d ɑ l ɑ d ɑ a x a iɘ̯ n d ɘ <hes> 
[354.315]
q ʊ d ɑ j b ʊ j ə ɾ t s ɑ <hes> n iɘ̯ g iɘ̯ ɑ l m ɑ t ə ʁ ɑ b ɑ ɾ ə p q ɑ l ə w ə m ə z m ʉ m k ɘ n 
[359.215]
<no-speech> 
[361.865]
a l ɔ 
[362.455]
<no-speech> 
[363.785]
u̯ʊ n ɑ l t ə s ə n ɑ b ɘ ɾ t u̯ʊ j ʁ ɑ ʃ ɑ q ə ɾ ʁ ɑ n 
[365.845]
<no-speech> 
[366.695]
u̯ʊ n ɑ l t ə n ʃ ə n a j aː b rj 
[367.925]
<no-speech> 
[370.155]
aː ɑ n ɑ w ɘ j iɘ̯ ɘ j iɘ̯ 
[371.985]
<no-speech> 
[372.935]
<no-speech> 
[373.285]
<no-speech> 
[375.125]
ɘ j iɘ̯ m iɘ̯ n ɘ ŋ d iɘ̯ s u̯ʊ l b ɘ ɾ k l aː s t ɑ s ə m n ə ŋ b ɑ l ɑ s ə ʉ j l iɘ̯ n ɘ p ʒ ɑ t ə ɾ iɘ̯ k iɘ̯ n s u̯ʊ ʁ ɑ n ʃ ɑ q ə ɾ ə p t ə b iɘ̯ l b ʊ l ɑ q b iɘ̯ l b ʊ l ɑ q d iɘ̯ g iɘ̯ n ɑ w ə l b aː r iɘ̯ k iɘ̯ n ʁ u̯ʊ j t ɑ l ʁ ɑ ɾ ʒ ɑ q t ɑ ɘ j iɘ̯ 
[385.925]
s u̯ʊ l s u̯ʊ l ʒ iɘ̯ ɾ d iɘ̯ b u̯ʊ l ɑ d ə 
[387.975]
<no-speech> 
[388.975]
ə m ɘ j iɘ̯ 
[390.685]
<no-speech> 
[393.205]
ɘ j iɘ̯ m iɘ̯ n ɑ n ɑ w k l aː s t ɑ s t ɑ ɾ b aː r 
[396.045]
<no-speech> 
[397.095]
ɘ j iɘ̯ k l aː s t ɑ s t ɑ ɾ b ɑ ɾ s ɑ b ɑ ɾ ɑ m ə z ʁ u̯ʊ j ɔ s ɨ ʒ ɑ q t ɑ ʁ ə ɔ s ɨ ʒ ɑ q t ɑ ʁ ə l ɑ ɾ x m 
[404.105]
<no-speech> 
[407.165]
ɑ ɑ ʊ l 
[409.205]
<no-speech> 
[410.605]
ʒ u̯ʊ q ʊ l ə n ə ŋ ʉ j l iɘ̯ n ɘ w t u̯ʊ j ə ʊ l ə n ə ŋ ʉ j l iɘ̯ n ɘ w t u̯ʊ j ə ʁ u̯ʊ j x m 
[417.275]
<no-speech> 
[421.015]
ɑ y̯ʉ z d iɘ̯ ɾ ɘ ŋ q ɑ l ɑ j d iɘ̯ m ɑ l ə p k iɘ̯ l d ɘ ŋ d iɘ̯ ɾ æ l g ɘ d iɘ̯ 
[425.345]
<no-speech> 
[426.465]
aː s ɑ ɾ ə ɑ ʁ ɑ ʃ q ɑ b ɑ ɾ ɑ m ə n d iɘ̯ p iɘ̯ d ɘ ŋ d iɘ̯ ɾ ʁ u̯ʊ j 
[428.345]
<no-speech> 
[433.115]
a x a 
[433.865]
<no-speech> 
[436.315]
a x a 
[437.035]
<no-speech> 
[442.515]
ɑ 
[443.555]
<no-speech> 
[444.425]
ʉ j d iɘ̯ ɑ w <hes> 
[448.825]
<no-speech> 
[454.375]
<hes> n iɘ̯ g iɘ̯ ʃ ɑ q ə ɾ m ɑ j s ə ŋ d iɘ̯ s iɘ̯ m iɘ̯ w s iɘ̯ n <hes> 
[457.885]
<no-speech> 
[458.975]
ɑ m ɑ ŋ g iɘ̯ l d ɘ m iɘ̯ ɑ j t ə p u̯ʊ t ə ɾ m ə n ʁ u̯ʊ j z v ɔ n d ɑ m ɑ j t u̯ʊ l <hes> ʒ ɘ b iɘ̯ k k iɘ̯ ʁ ɑ n ɑ <hes> q ɑ l ə ŋ q ɑ l ɑ j d iɘ̯ p z v ɔ n d ɑ p t ʊ ɾ ɑ d ə iɘ̯ k iɘ̯ n ɘ j iɘ̯ m ɑ b ɘ z g iɘ̯ z v ɔ n d ɑ ʁ ɑ n ʒ u̯ʊ q s u̯ʊ s ə n b ɘ z b ɘ l m iɘ̯ j m ɘ z 
[469.655]
<no-speech> 
[471.615]
z v ɔ n d ɑ m ɑ j t <laugh> ɑ n ɑ d ɑ s u̯ʊ l n iɘ̯ d iɘ̯ n k iɘ̯ j ɘ n k y̯ʉ ɾ g iɘ̯ n ʒ u̯ʊ q p ə n æ l g ɘ b ɘ ɾ ɑ t ɑ ɑ t ɑ s ə q ɑ j t ə s b u̯ʊ p iɘ̯ d ɘ ʁ u̯ʊ j 
[479.085]
<no-speech> 
[480.575]
s u̯ʊ d ɑ n k iɘ̯ j ɘ n s u̯ʊ d ɑ n k iɘ̯ j ɘ n k y̯ʉ ɾ s u̯ʊ d ɑ n k iɘ̯ j ɘ n ɑ m ɑ ŋ g iɘ̯ l d ɘ n ɘ k y̯ʉ ɾ g iɘ̯ n d iɘ̯ iɘ̯ s t ɘ g iɘ̯ n d iɘ̯ ʒ u̯ʊ q p ə n 
[486.025]
<no-speech> 
[487.475]
ɑ n ɑ w b ɘ ɾ æ q ɑ n ɑ w k ʉ n ɘ <hes> q ɑ j k ʉ n ɘ ʒ iɘ̯ l 
[490.375]
<no-speech> 
[493.835]
s iɘ̯ n d iɘ̯ ɾ y̯ʉ z d iɘ̯ ɾ ɘ q ə z d ɑ ɾ d ə ŋ k iɘ̯ l g ɘ s ɘ k iɘ̯ l m iɘ̯ j t d iɘ̯ p ɑ j t t ə d iɘ̯ p ɑ j t t ə d aː 
[498.835]
<no-speech> 
[500.155]
k ɘ m g iɘ̯ ʒ ɘ b iɘ̯ k k iɘ̯ ɑ j t ə p t ə s u̯ʊ l 
[502.855]
<no-speech> 
[503.785]
ə m ʒ ɑ ŋ ɑ b ɑ q ə t t ɑ ɾ b ɘ ɾ iɘ̯ w l iɘ̯ ɾ k iɘ̯ l iɘ̯ ɑ l m ɑ j m ə z d iɘ̯ g iɘ̯ n b aː b ɘ l m iɘ̯ j m ɘ n iɘ̯ n d ɘ s u̯ʊ n d ɑ j ʁ u̯ʊ j y̯ʉ z d iɘ̯ ɾ ɘ n ɘ ŋ n iɘ̯ s ɘ ʒ u̯ʊ q d iɘ̯ g iɘ̯ n s ə j ɑ q t ə q ə l ə p s y̯ʉ j d iɘ̯ p t ɘ ʁ u̯ʊ j ʒ ɘ b iɘ̯ k k iɘ̯ s u̯ʊ l ɑ j d iɘ̯ p ɑ j t ə p t ə 
[514.075]
<no-speech> 
[515.385]
<hes> ɑ w 
[518.625]
<no-speech> 
[521.975]
ʒ ɘ b iɘ̯ k 
[522.745]
<no-speech> 
[524.855]
iɘ̯ n d ɘ k iɘ̯ z d iɘ̯ s k ɘ l iɘ̯ ɾ ɘ ŋ k iɘ̯ l s iɘ̯ k iɘ̯ l iɘ̯ b iɘ̯ ɾ m iɘ̯ j s ɘ ŋ d iɘ̯ ɾ m ɑ 
[529.805]
<no-speech> 
[532.285]
a l ɔ 
[532.945]
<no-speech> 
[536.045]
aː 
[536.715]
<no-speech> 
[542.445]
ʒ ɑ ŋ ɑ l ə q ʒ u̯ʊ q <laugh> n iɘ̯ ʒ ɑ ŋ ɑ l ə q b u̯ʊ l ɑ d ə q ɑ l ɑ d ɑ 
[546.205]
<no-speech> 
[547.355]
<oov> q ɑ ɾ 
[548.645]
<no-speech> 
[549.545]
ɑ w 
[550.325]
<no-speech> 
[551.505]
iɘ̯ s t ɘ l m iɘ̯ j t iɘ̯ w m ə n ɑ w 
[553.065]
<no-speech> 
[555.825]
iɘ̯ n d ɘ t ɑ l d ə q u̯ʊ ɾ ʁ ɑ n y̯ʉ s ɘ p ʒ ɑ q s ə b u̯ʊ p ʒ ɑ t ə ɾ iɘ̯ ʃ q ɑ n d ɑ j k iɘ̯ ɾ iɘ̯ m iɘ̯ t ʒ ɑ ŋ ɑ l ə q ʒ u̯ʊ q <laugh> m iɘ̯ n iɘ̯ n d ɘ ʉ j d iɘ̯ u̯ʊ t ə ɾ ʁ ɑ n ɑ d ɑ m m ə n ʁ u̯ʊ j ɑ w 
[566.395]
<no-speech> 
[570.845]
k ʉ n ʒ ə l ə ʒ ɑ q s ə t ɑ m ɑ ʃ ɑ b u̯ʊ p t ʊ ɾ k ʉ n k ʉ n t ə w ɾ ɑ <hes> iɘ̯ n d ɘ m ʊ n d ɑ j k ʉ n d iɘ̯ ɾ b u̯ʊ l m ɑ ʁ ɑ n ʃ ə ʁ ɑ ɾ ɑ 
[579.055]
<no-speech> 
[582.205]
<no-speech> 
[582.585]
<no-speech> 
[586.925]
ɘ j iɘ̯ b ɘ ɾ d iɘ̯ j ʁ u̯ʊ j s iɘ̯ n d iɘ̯ s iɘ̯ n d iɘ̯ ɾ d iɘ̯ q ɑ n d ɑ j b u̯ʊ l s ɑ b ɘ z d iɘ̯ d iɘ̯ s u̯ʊ n d ɑ j ʁ u̯ʊ j 
[591.085]
<no-speech> 
[591.955]
ɘ j iɘ̯ <hes> k iɘ̯ ɾ iɘ̯ m iɘ̯ t b ɘ ɾ iɘ̯ k ɑ q g r aː d u s q u̯ʊ j 
[596.225]
<no-speech> 
[597.765]
ɑ j ə ɾ m ɑ ʃ ə l ə ʁ ə s u̯ʊ l 
[599.015]
ʒ ɑ ŋ ɑ l ə q ʒ u̯ʊ q 
[600.100]
