[0.000]
<no-speech> 
[1.805]
a l ɔ 
[2.805]
<no-speech> 
[6.075]
ɑ s s ɑ l ɑ w m ɑ l iɘ̯ j k ɘ w m 
[7.095]
<no-speech> 
[12.195]
ʒ ɑ q s ə y̯ʉ z ɘ ŋ q ɑ l ɑ j s ə ŋ d u̯ʊ s ə m 
[14.375]
<no-speech> 
[18.015]
ɑ n iɘ̯ ɘ s t iɘ̯ p ʒ ɑ t ə ɾ s ə ŋ 
[19.085]
<no-speech> 
[22.475]
iɘ̯ w q ɑ l ʒ ɑ ʁ d ɑ j ə ŋ t b ɘ l ɘ p 
[24.065]
<no-speech> 
[24.965]
q ɑ l ʒ ɑ ʁ d ɑ j ə ŋ t b ɘ l iɘ̯ j ɘ n d iɘ̯ g iɘ̯ n m ɘ n 
[26.675]
<no-speech> 
[33.535]
q ɑ j d ɑ s ə ŋ 
[34.125]
<no-speech> 
[36.345]
ɑ l l ɑ ʁ ɑ ʃ ʉ k ɘ ɾ ʒ ɑ q s ə 
[37.775]
<no-speech> 
[40.295]
ə m k ɘ m m iɘ̯ n ʒ ʉ ɾ s ɘ ŋ 
[42.595]
<no-speech> 
[48.805]
b iɘ̯ j b ɑ ɾ ə s t ə ŋ q ɑ l ə q ɑ l ɑ j 
[50.095]
<no-speech> 
[57.695]
ɑ æ j b æ t b u̯ʊ l s ɑ ʒ ɑ q s ə 
[59.565]
<no-speech> 
[65.945]
ɑ b ɘ ɾ g iɘ̯ b u̯ʊ l s ə n b ɑ w ə ɾ ə m n iɘ̯ ɘ s t iɘ̯ j s ɘ ŋ ʒ ɑ ŋ ɑ ʒ ə l d ɑ 
[69.495]
<no-speech> 
[73.355]
n iɘ̯ ɘ s t iɘ̯ j s ɘ ŋ 
[73.975]
<no-speech> 
[85.495]
ɑ d ʊ ɾ ə s 
[86.365]
<no-speech> 
[88.055]
y̯ʉ z ɘ m d iɘ̯ t ə w ɾ ɑ s u̯ʊ n d ɑ j ʒ u̯ʊ s p ɑ ɾ ə m 
[90.345]
<no-speech> 
[93.285]
a x a 
[93.965]
<no-speech> 
[95.805]
ɘ j iɘ̯ ʒ ɑ q s ə 
[97.195]
<no-speech> 
[97.995]
ʒ ʉ ɾ 
[98.375]
<no-speech> 
[100.435]
a x a 
[101.075]
<no-speech> 
[102.495]
a x a 
[103.165]
<no-speech> 
[106.675]
t y̯ʉ ɾ t ʒ ə l b u̯ʊ l d ə t y̯ʉ ɾ t t y̯ʉ ɾ t ʒ ə l w ɑ q ə t b u̯ʊ l d ə 
[109.875]
<no-speech> 
[111.365]
ɑ 
[111.785]
<no-speech> 
[117.885]
t ɑ ŋ ʃ u̯ʊ l p ɑ n 
[118.755]
<no-speech> 
[124.895]
a x a 
[125.625]
<no-speech> 
[127.895]
ɑ t ɑ ɑ n ɑ ŋ q ɑ l ɑ j 
[128.875]
<no-speech> 
[132.185]
ɑ k ʉ ʃ t ɘ b u̯ʊ l d ə ʁ u̯ʊ j k ʉ ʃ t ɘ b u̯ʊ l d ə ʁ u̯ʊ j u̯ʊ n d ɑ 
[134.855]
<no-speech> 
[141.185]
ɑ j ʃ u̯ʊ l p ɑ n m iɘ̯ n t ɑ ŋ ʃ u̯ʊ l p ɑ n b aː s u̯ʊ n d ɑ 
[143.185]
<no-speech> 
[150.225]

[150.655]
<no-speech> 
[152.425]
ɑ t ɑ ɑ n ɑ ŋ q ɑ l ɑ j 
[153.425]
<no-speech> 
[155.175]
ɑ t ɑ ɑ n ɑ ŋ q ɑ l ɑ j 
[156.335]
<no-speech> 
[161.675]
ɘ j iɘ̯ ʒ ɑ q s ə æ k iɘ̯ ŋ n ɘ ŋ ʒ ʊ m ʊ s ə ʒ ʉ ɾ ɘ p ʒ ɑ t ə ɾ m ɑ 
[164.685]
<no-speech> 
[170.785]
ʒ æ j ʒ æ j ʃ ʉ k ɘ ɾ 
[171.845]
<no-speech> 
[173.165]
æ k iɘ̯ ŋ n iɘ̯ d iɘ̯ j d ʒ ɑ ŋ ɑ k y̯ʉ l ɘ k ɑ p b iɘ̯ ɾ iɘ̯ m ɘ n d iɘ̯ p ʒ ɑ t ə ɾ ʁ ɑ n ʒ u̯ʊ q p ɑ 
[176.725]
<no-speech> 
[180.035]
a x a s ɑ ʁ ɑ n 
[180.905]
<no-speech> 
[183.405]
d ʊ ɾ ə s b u̯ʊ p t ə 
[184.135]
<no-speech> 
[189.195]
m iɘ̯ n æ l ɘ æ z ɘ ɾ u̯ʊ j l ɑ ŋ ʁ ɑ n ʒ u̯ʊ q p ə n u̯ʊ l t ə w ɾ ɑ l ə 
[191.955]
<no-speech> 
[194.815]
a x a 
[195.525]
<no-speech> 
[201.530]
<no-speech> 
[207.535]
u̯ʊ l m a ʃ ɨ n a n ə b ɘ l m iɘ̯ j m ɘ n t ʉ s ɘ n b iɘ̯ j q ɑ l d ə m 
[209.905]
<no-speech> 
[212.195]
b u̯ʊ l m ɑ j q ɑ l d ə ʁ u̯ʊ j 
[213.285]
<no-speech> 
[216.695]
a x a 
[217.455]
<no-speech> 
[218.935]
ɪ g z aː mj ɪ n d ɘ q ɑ l ɑ j t ɑ p s ə ɾ d ə ŋ 
[220.575]
<no-speech> 
[222.365]
iɘ̯ m t ə j χ ɑ n t q ɑ l ɑ j t ɑ p s ə ɾ d ə ŋ 
[224.305]
<no-speech> 
[225.485]
iɘ̯ m t ə j χ ɑ n t q ɑ l ɑ j t ɑ p s ə ɾ d ə ŋ 
[226.775]
<no-speech> 
[231.675]
ɘ j iɘ̯ ʒ ɑ q s ə ʒ ɑ z d ə m b æ ɾ ɘ n 
[233.545]
<no-speech> 
[236.635]
ʒ ɑ q s ə t ɑ p s ə ɾ d ə m 
[238.115]
<no-speech> 
[239.805]
a x a 
[240.485]
<no-speech> 
[244.665]
a x a s iɘ̯ n q ɑ j q ɑ t ɑ ɾ d ɑ u̯ʊ t ə ɾ d ə ŋ iɘ̯ m t ə j χ ɑ n d ɑ 
[247.855]
<no-speech> 
[252.705]
a x a 
[253.345]
<no-speech> 
[262.445]
ɘ j iɘ̯ m iɘ̯ n d iɘ̯ s iɘ̯ n iɘ̯ n b ɘ ɾ 
[264.155]
<no-speech> 
[268.465]
ɑ w ɑ j t ɑ b iɘ̯ ɾ 
[269.905]
<no-speech> 
[272.985]
ɑ w 
[273.605]
<no-speech> 
[275.555]
a x a y̯ʉ z ɘ m ʒ ɑ z d ə m y̯ʉ z ɘ m ʒ ɑ z d ə m b æ ɾ ɘ n 
[279.125]
<no-speech> 
[285.425]
m iɘ̯ n s u̯ʊ l ɑ j u̯ʊ j l ɑ n ɑ m ə n ʁ u̯ʊ j u̯ʊ j l ɑ n ə p ʒ ɑ z ɑ m ə n 
[288.055]
<no-speech> 
[291.435]
a x a 
[292.265]
<no-speech> 
[301.455]
<no-speech> 
[310.645]
a x a q ʊ d ɑ j ʁ ɑ ʃ ʉ k ɘ ɾ d u̯ʊ s 
[312.385]
<no-speech> 
[317.975]
ʒ u̯ʊ q ɑ s ə q p ɑ j s y̯ʉ j l iɘ̯ s iɘ̯ b iɘ̯ ɾ iɘ̯ j ɘ k 
[319.745]
<no-speech> 
[322.625]
ʒ u̯ʊ q ʒ u̯ʊ q ʒ u̯ʊ q 
[324.595]
<no-speech> 
[331.875]
ʒ u̯ʊ q 
[332.535]
<no-speech> 
[335.035]
s iɘ̯ n n iɘ̯ d iɘ̯ m ɑ l ə s q ɑ b ɑ ɾ ə p k iɘ̯ l d ɘ ŋ bj ɛ 
[336.855]
<no-speech> 
[340.165]
a x a 
[340.775]
<no-speech> 
[343.335]
ʒ ɑ ŋ ɑ ʒ ə l d ɑ n k iɘ̯ j ɘ n d iɘ̯ m ɑ l ə s t ɑ n iɘ̯ ɘ s t iɘ̯ j s ɘ ŋ 
[345.795]
<no-speech> 
[349.835]
a x a 
[350.275]
<no-speech> 
[359.505]
s u̯ʊ l d ʊ ɾ ə s q u̯ʊ j iɘ̯ k ɘ n ʃ ɘ s ɘ 
[361.525]
<no-speech> 
[364.095]
s u̯ʊ l iɘ̯ k ɘ n ʃ ɘ s ɘ d ʊ ɾ ə s s ə j ɑ q t ə ʁ u̯ʊ j s u̯ʊ l iɘ̯ k ɘ n ʃ ɘ s ɘ d ʊ ɾ ə s s ə j ɑ q t ə ʁ u̯ʊ j 
[368.415]
<no-speech> 
[369.765]
a x a 
[370.465]
<no-speech> 
[378.025]
iɘ̯ w d ʊ ɾ ə s s iɘ̯ n q ɑ n d ɑ j s p ɔ r t p iɘ̯ n ʃ ʊ ʁ ə l d ɑ n ə p ʒ ʉ ɾ s ɘ ŋ 
[382.375]
<no-speech> 
[385.605]
a x a s iɘ̯ n q ɑ n d ɑ j s p ɔ r t p iɘ̯ n ʃ ʊ ʁ ə l d ɑ n ə p ʒ ʉ ɾ s ɘ ŋ 
[388.055]
<no-speech> 
[390.075]
ɑ 
[390.755]
<no-speech> 
[395.185]
b ɘ ɾ æ z b u̯ʊ p t ə ʁ u̯ʊ j 
[396.355]
<no-speech> 
[400.775]
ɑ 
[401.425]
<no-speech> 
[407.695]
a x a 
[408.385]
<no-speech> 
[409.845]
ɑ j t ɑ b iɘ̯ ɾ 
[410.595]
<no-speech> 
[417.795]
<no-speech> 
[424.995]
ʒ ɑ ɾ ə s p ɑ 
[425.875]
<no-speech> 
[434.075]
q ɑ t ə s s ɑ j ʃ ə 
[435.095]
<no-speech> 
[440.435]
q ɑ t ə s p ɑ j s ə ŋ b aː iɘ̯ n d ɘ s u̯ʊ l ʒ ɑ ɾ ə s q ɑ 
[442.395]
<no-speech> 
[444.665]
q ɑ t ə s p ɑ j s ə ŋ b aː s u̯ʊ l ʒ ɑ ɾ ə s q ɑ 
[446.615]
<no-speech> 
[447.485]
m ʉ m k ɘ n b ɑ ʁ ə ŋ ɑ ʃ ə l ə p q ɑ l ɑ t ə n ʃ ə ʁ ɑ ɾ 
[449.385]
<no-speech> 
[452.835]
b ɑ q ʃ ɑ b ɑ t m ɑ b ɑ p ʃ ɑ b ɑ t m ɑ 
[454.585]
<no-speech> 
[465.735]
ɘ j iɘ̯ q ʊ d ɑ j q ɑ l ɑ s ɑ 
[467.145]
<no-speech> 
[478.085]
b ʉ g ɘ n 
[479.935]
<no-speech> 
[481.345]
b ʉ g ɘ n q ə z ə n ɑ q ɑ ʃ ɑ n b ɑ ɾ ɑ s ə ŋ 
[483.565]
<no-speech> 
[490.435]
s ʊ ɾ ɑ ʁ ə ŋ t q ɑ j t ɑ l ɑ p ʒ ɘ b iɘ̯ ɾ s iɘ̯ ŋ 
[491.985]
<no-speech> 
[500.700]
<no-speech> 
[509.415]
u̯ʊ l y̯ʉ z ɘ m n ɘ ŋ b ɑ w ə ɾ ə m ɑ b iɘ̯ l g ɘ l ɘ b ɘ ɾ w ɑ q ə t b y̯ʉ l ɘ p s ɑ ʁ ɑ n q u̯ʊ ŋ ə ɾ ɑ w ʃ ɑ l ʁ ɑ m m ə n ʁ u̯ʊ j 
[515.025]
<no-speech> 
[519.415]
a x a 
[520.145]
<no-speech> 
[523.185]
b ɘ ɾ 
[523.665]
<no-speech> 
[526.725]
a x a m iɘ̯ n q ɑ z ɘ ɾ u̯ʊ l ɑ ɾ ʁ ɑ b ɑ ɾ ɑ m ə n 
[529.485]
<no-speech> 
[531.145]
k ʉ t ʉ p t ʊ ɾ ʁ ɑ n ə ŋ b ɘ l iɘ̯ m ɘ n u̯ʊ l ɑ ɾ d ə ŋ 
[532.785]
<no-speech> 
[535.175]
n ʊ ɾ d æ w l iɘ̯ t d iɘ̯ g iɘ̯ n d u̯ʊ s t ɑ ɾ ə m k ʉ t ʉ p t ʊ ɾ 
[537.965]
<no-speech> 
[540.485]
n ʊ ɾ d æ w l iɘ̯ t d iɘ̯ g iɘ̯ n d u̯ʊ s t ɑ ɾ ə m 
[542.215]
<no-speech> 
[543.025]
n ʊ ɾ d æ w l iɘ̯ t d iɘ̯ g iɘ̯ n d u̯ʊ s t ɑ ɾ ə m 
[544.575]
<no-speech> 
[547.545]
iɘ̯ n d ɘ iɘ̯ k iɘ̯ w m ɘ z d ɘ ŋ d iɘ̯ b ɘ ɾ g iɘ̯ u̯ʊ q ə j t ə n b aː l a ʁ u̯ʊ j u̯ʊ l 
[552.125]
<no-speech> 
[559.150]
<no-speech> 
[566.175]
ɑ iɘ̯ ɾ t iɘ̯ n iɘ̯ m t ə j χ ɑ n s ɑ ʁ ɑ t n iɘ̯ ʃ iɘ̯ d iɘ̯ b ɑ s t ɑ l ɑ d ə 
[569.745]
<no-speech> 
[577.990]
<no-speech> 
[586.235]
ɘ j iɘ̯ s ʊ ɾ ɑ p 
[587.455]
<no-speech> 
[588.315]
d ɑ j ə n d ɑ l ə p q ɑ l ɑ j 
[589.975]
<no-speech> 
[593.145]
d ɑ j ə n d ə ʁ ə ŋ q ɑ l ɑ j 
[594.325]
<no-speech> 
[599.655]
<oov> 
[599.985]
<no-speech> 
[600.040]
