[0.000]
<no-speech> 
[0.375]
<no-speech> 
[3.145]
<no-speech> 
[6.155]
a l ɔ 
[6.945]
<no-speech> 
[8.275]
d aː d aː m iɘ̯ n ʒ ʉ ɾ g iɘ̯ n m ɘ n 
[11.135]
<no-speech> 
[12.125]
ɑ w 
[12.695]
<no-speech> 
[14.385]
n iɘ̯ ʁ u̯ʊ j ɑ w 
[15.895]
<no-speech> 
[16.955]
ɑ w 
[17.575]
<no-speech> 
[18.465]
t ʉ s ɘ m b iɘ̯ d ɘ m 
[19.645]
<no-speech> 
[21.945]
d ɑ l ɑ d ɑ <no-speech> k y̯ʉ ʃ iɘ̯ d iɘ̯ ʒ ʉ ɾ g iɘ̯ n m ɘ n 
[26.395]
<no-speech> 
[27.525]
ɘ j iɘ̯ ɘ j iɘ̯ ɘ j iɘ̯ a bj ɪ z aː tj ɪ lj n a ʁ u̯ʊ j 
[30.985]
<no-speech> 
[32.655]
ʒ u̯ʊ ʁ iɘ̯ j n iɘ̯ b u̯ʊ p q ɑ l d ə 
[34.465]
<no-speech> 
[35.565]
ɘ j iɘ̯ ɘ j iɘ̯ 
[36.585]
<no-speech> 
[37.545]
s iɘ̯ n q ɑ ʃ ɑ n k iɘ̯ l iɘ̯ s ɘ ŋ 
[38.635]
<no-speech> 
[39.745]
s iɘ̯ n q ɑ ʃ ɑ n k iɘ̯ l iɘ̯ s ɘ ŋ 
[40.745]
<no-speech> 
[44.915]
ɑ ɑ w 
[47.185]
<no-speech> 
[48.265]
ɑ w ɑ w 
[49.865]
<no-speech> 
[52.145]
ɘ j iɘ̯ ɘ j iɘ̯ m iɘ̯ n m ə n ɑ w ʒ ɑ q t ɑ m ə n s u̯ʊ l t y̯ʉ l iɘ̯ b ɘ j t y̯ʉ l iɘ̯ b ɘ j b ɑ j t ʊ ɾ s ə n u̯ʊ v ɑ d ɑ m ə n 
[56.015]
<no-speech> 
[58.075]
<no-speech> 
[58.455]
<no-speech> 
[60.245]
ɘ j iɘ̯ ɘ j iɘ̯ 
[61.275]
<no-speech> 
[62.635]
s u̯ʊ l 
[64.695]
<no-speech> 
[65.875]
ɘ j iɘ̯ ʒ u̯ʊ q 
[66.775]
<no-speech> 
[69.775]
<no-speech> 
[70.175]
<no-speech> 
[73.815]
ʒ u̯ʊ q ʒ ɨ l aː nj ɪ j ə ʒ u̯ʊ q 
[75.025]
<no-speech> 
[76.115]
<no-speech> 
[76.505]
<no-speech> 
[78.675]
u̯ʊ u̯ʊ j u̯ʊ q ə ʁ ɑ ŋ ʁ ɑ <oov> u̯ʊ q ə ʁ ɑ ŋ ʁ ɑ ʒ ɨ l aː nj ɪ j ə ʒ u̯ʊ q d iɘ̯ j m ɘ n <sta> 
[83.275]
<no-speech> 
[86.705]
ɘ j iɘ̯ b iɘ̯ ɾ iɘ̯ s ɘ ŋ ʁ u̯ʊ j ʒ ɑ q s ə n iɘ̯ 
[89.375]
<no-speech> 
[92.325]
k iɘ̯ j ɘ n ʃ ə q q ɑ n s u̯ʊ ŋ t ʉ s ɘ n d ɘ ɾ iɘ̯ s ɘ ŋ ʁ u̯ʊ j y̯ʉ z ɘ n d iɘ̯ j m ɘ n 
[94.865]
<no-speech> 
[96.825]
u̯ʊ u̯ʊ j ʒ ɑ ŋ ɑ l ə q ʒ u̯ʊ q s u̯ʊ l b ɘ ɾ ʒ iɘ̯ ɾ g iɘ̯ b ɑ ɾ m ə n b aː ɑ b ɘ l m iɘ̯ d ɘ m b ɘ ɾ ʒ iɘ̯ ɾ g iɘ̯ b ɑ ɾ m ə n b aː d iɘ̯ p t ʊ ɾ m ə n b ɘ ɾ ʒ iɘ̯ ɾ g iɘ̯ b ɑ ɾ m ə n b aː d iɘ̯ p u̯ʊ j l ɑ p t ʊ ɾ m ə n d iɘ̯ j m ɘ n 
[108.035]
<no-speech> 
[111.345]
s u̯ʊ l ɑ l ə w k iɘ̯ ɾ iɘ̯ k 
[112.555]
<no-speech> 
[116.645]
ɑ w 
[117.225]
<no-speech> 
[120.405]
ʒ ə l ɑ s ɑ d aː ɑ l ə w k iɘ̯ ɾ iɘ̯ k q u̯ʊ j iɘ̯ n d ɘ 
[122.245]
<no-speech> 
[124.895]
ɘ j iɘ̯ 
[125.815]
<no-speech> 
[127.295]
ɑ q ɑ ɾ ə n ɑ ʃ ə p t ʊ ɾ tj ɛ m b ɔ lj ɪ j ə s iɘ̯ n d iɘ̯ t ɑ p s ɑ ŋ m ə ŋ t iɘ̯ ŋ g iɘ̯ n ɘ 
[130.805]
<no-speech> 
[137.505]
n iɘ̯ k iɘ̯ l g iɘ̯ n s u̯ʊ ŋ k y̯ʉ ɾ iɘ̯ m ɘ z ʁ u̯ʊ j iɘ̯ n d ɘ 
[140.735]
<no-speech> 
[143.125]
b ɘ l m iɘ̯ d ɘ m n iɘ̯ iɘ̯ k iɘ̯ n ɘ ŋ 
[144.295]
<no-speech> 
[146.435]
ɘ j iɘ̯ <sta> ɘ j iɘ̯ 
[149.065]
<no-speech> 
[151.865]
ɘ j iɘ̯ <sta> ɘ j iɘ̯ 
[155.145]
<no-speech> 
[156.235]
b ʉ g ɘ n bj ɛ d ʊ ɾ ə s b ɑ ʁ ɑ d ʊ ɾ ə s b ɑ ʁ ɑ ɑ l ʁ ɑ n ʒ u̯ʊ q p ə n <int> 
[160.305]
<no-speech> 
[162.395]
ɘ j iɘ̯ d ʊ ɾ ə s <sta> 
[163.675]
<no-speech> 
[164.995]
ɘ j iɘ̯ ʒ ɑ ŋ ɑ χ ɑ b ɑ ɾ l ɑ s t ə 
[166.435]
<no-speech> 
[167.285]
ɘ j iɘ̯ ʒ ɑ ŋ ɑ χ ɑ b ɑ ɾ l ɑ s t ə <int> 
[169.275]
<no-speech> 
[170.545]
ɑ w ɑ w 
[172.925]
<no-speech> 
[173.975]
ʒ ɑ ŋ ɑ χ ɑ b ɑ ɾ l ɑ s t ə d iɘ̯ j m ɘ n 
[176.125]
<no-speech> 
[178.525]
<sta> ɘ j iɘ̯ 
[180.495]
<no-speech> 
[182.405]
q ɑ ʃ ɑ n k iɘ̯ ʃ iɘ̯ m ɑ ʁ ɑ n z v ɔ n d ɑ ʁ ɑ n ʒ u̯ʊ q s ə ŋ ʁ u̯ʊ j s iɘ̯ n <sta> 
[187.615]
<no-speech> 
[189.345]
ɑ u̯ʊ l k iɘ̯ z d iɘ̯ w ɑ q ə t ə m b u̯ʊ l m ɑ d ə <int> 
[192.585]
<no-speech> 
[194.745]
q u̯ʊ l ə m t ɘ j m iɘ̯ d ɘ ʁ u̯ʊ j 
[195.845]
<no-speech> 
[197.445]
ɘ j iɘ̯ q u̯ʊ l ə m t ɘ j m iɘ̯ d ɘ d iɘ̯ j m ɘ n u̯ʊ l k iɘ̯ z d iɘ̯ 
[201.075]
<no-speech> 
[202.305]
ɑ w <sta> b ʉ g ɘ n bj ɛ b æ ɾ ɘ n b ɘ t ɘ ɾ d ɘ m m iɘ̯ n sj ɪ s t r aː m k iɘ̯ l iɘ̯ d ɘ s u̯ʊ ʁ ɑ n k iɘ̯ t t ɘ ŋ ʃ ə ʁ ɑ ɾ m ə n 
[210.135]
<no-speech> 
[213.175]
ʒ iɘ̯ t ɘ g iɘ̯ t ɑ m ɑ n <int> a x a 
[219.275]
<no-speech> 
[220.135]
ɑ n ɑ w ɑ b ɑ j ɑ s ɑ j n ɑ ʒ ɑ q t ɑ q u̯ʊ n ɑ q t ɑ 
[222.665]
<no-speech> 
[226.525]
ɑ w 
[227.165]
<no-speech> 
[228.855]
ɑ ɘ j iɘ̯ s ɑ j ɾ ɑ n n ɑ n k ʉ t ʉ p ɑ l ə w k iɘ̯ ɾ iɘ̯ k q u̯ʊ j 
[231.625]
<no-speech> 
[233.065]
b lj æ tj ʒ u̯ʊ q a f t ɔ b u s p iɘ̯ n ʁ u̯ʊ j 
[234.925]
<no-speech> 
[236.165]
ɑ v t u̯ʊ b ə w s 
[237.235]
<no-speech> 
[239.015]
a l ɔ 
[239.695]
<no-speech> 
[241.625]
ɘ j iɘ̯ ɘ j iɘ̯ a bj ɪ z aː tj ɪ lj n a ʁ u̯ʊ j 
[243.605]
<no-speech> 
[245.375]
<no-speech> 
[245.725]
<no-speech> 
[246.955]
<sta> ɘ j iɘ̯ z v ɔ n d ɑ d ə b ɘ ɾ æ q t aː d ɑ w s ə iɘ̯ s t ɘ l m iɘ̯ j t <sta> z v ɔ n d ɑ d ə b ɘ ɾ æ q t aː d ɑ w s ə iɘ̯ s t ɘ l m iɘ̯ j t ɑ w ɑ w 
[257.105]
<no-speech> 
[258.305]
ɑ w <sta> b ɘ l m iɘ̯ d ɘ m d ɑ w s ə iɘ̯ s t ɘ l m iɘ̯ j t æ j t iɘ̯ w ɘ ɾ <sta> d ɑ w s ə iɘ̯ s t ɘ l m iɘ̯ j t 
[263.095]
<no-speech> 
[264.145]
ɘ j iɘ̯ 
[265.055]
<no-speech> 
[267.045]
b ɘ ɾ iɘ̯ k ɘ iɘ̯ k ɘ mj ɪ n u t p ɑ 
[268.635]
<no-speech> 
[270.735]
t ɔ ʧj n a m ɑ 
[271.635]
<no-speech> 
[274.965]
q u̯ʊ j ʃ ə ɑ w ɑ w 
[276.455]
<no-speech> 
[278.985]
ɑ w 
[279.665]
<no-speech> 
[280.665]
n iɘ̯ b u̯ʊ l d ə 
[281.415]
<no-speech> 
[282.955]
ʒ u̯ʊ q 
[283.505]
<no-speech> 
[284.645]
ʒ u̯ʊ q 
[285.555]
<no-speech> 
[286.445]
ʒ ə n d ə m ɑ ʊ j ɑ t s ə z 
[287.555]
<no-speech> 
[288.775]
ʒ u̯ʊ q y̯ʉ z ɘ m b ɑ ɾ m ɑ j m ə n y̯ʉ z ɘ m b ɑ ɾ m ɑ j m ə n d iɘ̯ j m ɘ n d æ t ɘ m ʒ u̯ʊ q u̯ʊ n d ɑ j ʁ ɑ 
[292.565]
<no-speech> 
[296.735]
s u̯ʊ l 
[297.315]
<no-speech> 
[299.035]
ʒ u̯ʊ ʁ iɘ̯ j 
[299.805]
<no-speech> 
[302.265]
<int> iɘ̯ w ʒ u̯ʊ q b u̯ʊ l m ɑ j t u̯ʊ ʁ ɑ n 
[304.615]
<no-speech> 
[307.045]
s u̯ʊ l z a p rj ɛ t q u̯ʊ j 
[309.565]
<no-speech> 
[313.175]
d æ m ɘ n ɑ l ʁ ɑ n s u̯ʊ ŋ s u̯ʊ d ɑ n t u̯ʊ q t ɑ j ɑ l m ɑ j q u̯ʊ j s ɑ ŋ q ɑ j t iɘ̯ s ɘ ŋ 
[315.615]
<no-speech> 
[321.515]
ʒ u̯ʊ q k iɘ̯ ɾ iɘ̯ k iɘ̯ m iɘ̯ s u̯ʊ n d ɑ j 
[323.255]
<no-speech> 
[326.305]
ə m 
[326.895]
<no-speech> 
[331.195]
q ɑ j d ɑ n b ɘ l iɘ̯ s ɘ ŋ u̯ʊ n ə 
[332.695]
<no-speech> 
[334.805]
<lipsmack> n iɘ̯ ŋ b aː r s iɘ̯ n ɘ ŋ u̯ʊ n d ɑ ɑ 
[336.335]
<no-speech> 
[337.385]
u̯ʊ n d ɑ n iɘ̯ ŋ b aː r s iɘ̯ n ɘ ŋ 
[339.825]
<no-speech> 
[342.525]
ʒ ɑ j f ɔ t a ʁ ɑ t ʉ s ɘ w ʉ ʃ ɘ n ʁ u̯ʊ j f ɔ t a ʁ ɑ t ʉ s ɘ w ʉ ʃ ɘ n ʁ u̯ʊ j ʒ ɑ j f ɔ t a ʁ ɑ t ʉ s k iɘ̯ n ʁ u̯ʊ j d iɘ̯ j m ɘ n 
[349.815]
<no-speech> 
[352.805]
ɘ j iɘ̯ 
[353.705]
<no-speech> 
[355.535]
p a d vj i ʒ n ə j a ʁ u̯ʊ j q ɑ j t iɘ̯ s ɘ ŋ ɘ j iɘ̯ a p ʃjː aː g ɑ d ɑ n a p ʃjː aː g ɑ d ɑ n n ɑ ɾ g ə j z ɑ n ə ʃ ə ʁ ɑ ɾ ə p ɑ l ə w k iɘ̯ ɾ iɘ̯ k iɘ̯ d ɘ 
[361.515]
<no-speech> 
[363.475]
n ɑ ɾ g ə j z ɑ n ə 
[364.885]
<no-speech> 
[368.105]
ɑ w 
[368.985]
<no-speech> 
[370.065]
ɘ j iɘ̯ ɑ w ɘ j iɘ̯ ɘ j iɘ̯ u̯ʊ l l a m aː ʦ a iɘ̯ t ɘ p ʒ ʉ ɾ ʁ u̯ʊ j 
[373.745]
<no-speech> 
[378.065]
iɘ̯ w b æ ɾ ɘ b ɘ ɾ ʁ u̯ʊ j <sta> ɘ j iɘ̯ k a nj ɛ ʃ n a k a nj ɛ ʃ n a 
[383.305]
<no-speech> 
[384.495]
ʁ u̯ʊ j 
[385.445]
<no-speech> 
[386.705]

[387.475]
<no-speech> 
[388.625]
x m 
[389.855]
<no-speech> 
[393.195]
ɑ w <breath> 
[394.705]
<no-speech> 
[395.935]
n iɘ̯ d iɘ̯ j s ɘ ŋ 
[396.815]
<no-speech> 
[397.685]
<no-speech> m æ s ɑ ʁ ɑ n b aː r b u̯ʊ l s ɑ ɑ p b iɘ̯ ɾ iɘ̯ m ɘ n ʁ u̯ʊ j 
[400.685]
<no-speech> 
[403.315]
q ɑ ʃ ɑ n ʃ ə ʁ ɑ s ə ŋ s iɘ̯ n 
[404.525]
<no-speech> 
[406.665]
q ɑ ʃ ɑ n ʃ ə ʁ ɑ s ə ŋ 
[407.905]
<no-speech> 
[409.675]
ɑ <sta> 
[410.665]
<no-speech> 
[411.905]
iɘ̯ k ɘ mj ɪ n u t ɑ s u̯ʊ l m ɑ q u̯ʊ j ʃ ə 
[418.025]
<no-speech> 
[419.825]
s u̯ʊ l s u̯ʊ d ɑ n 
[421.165]
<no-speech> 
[423.545]
<sta> ə m 
[426.095]
<no-speech> 
[429.325]
a l ɔ <int> n iɘ̯ b u̯ʊ l d ə n ɑ w k ɑ ɘ j iɘ̯ 
[434.605]
<no-speech> 
[441.185]
a l ɔ 
[441.975]
<no-speech> 
[443.245]
n iɘ̯ ɘ s t iɘ̯ p k iɘ̯ t t ɘ ŋ 
[444.275]
<no-speech> 
[446.255]
n iɘ̯ b u̯ʊ p q ɑ l d ə 
[447.945]
<no-speech> 
[448.815]
b u̯ʊ l d ə ŋ b aː b u̯ʊ l d ə ŋ b aː 
[451.135]
<no-speech> 
[452.495]
ə m ʒ ɑ ɾ ɑ j t d a v aː j 
[453.985]
<no-speech> 
[455.965]
<sta> ɑ w 
[457.915]
<no-speech> 
[459.185]
n iɘ̯ b u̯ʊ l d ə n iɘ̯ b u̯ʊ l d ə <sta> n iɘ̯ b u̯ʊ p q ɑ l d ə 
[463.505]
<no-speech> 
[466.285]
ʒ ɑ j m ɑ 
[467.035]
<no-speech> 
[469.365]
ʒ ɑ j m ɑ 
[470.125]
<no-speech> 
[474.655]
iɘ̯ k ɘ n ʃ ɘ d iɘ̯ j d m iɘ̯ ɑ w 
[477.005]
<no-speech> 
[478.505]
ɑ w ɑ w 
[479.335]
<no-speech> 
[480.325]
n iɘ̯ b u̯ʊ l d ə 
[481.165]
<no-speech> 
[485.405]
q u̯ʊ j ʃ ə 
[486.165]
<no-speech> 
[488.675]
q u̯ʊ j ʃ ə ʒ ɨ l aː nj ɪ j ə ʒ u̯ʊ q 
[490.295]
<no-speech> 
[495.135]
iɘ̯ w q u̯ʊ j ʃ ə b ɑ s t ə ɑ w ə ɾ t p ɑ ʃ ə s iɘ̯ n y̯ʉ m ɘ ɾ ɘ s y̯ʉ j t ɘ p p ə p r a sj i tj iɘ̯ t iɘ̯ d ɘ iɘ̯ k iɘ̯ n s ɘ ŋ æ j t iɘ̯ w ɘ ɾ 
[498.895]
<no-speech> 
[504.505]
q u̯ʊ j ʃ ə ʒ ɨ l aː nj ɪ j ə ʒ u̯ʊ q 
[506.455]
<no-speech> 
[507.775]
ʒ ɨ l aː nj ɪ j ə ʒ u̯ʊ q d iɘ̯ j m ɘ n 
[508.945]
<no-speech> 
[510.645]
ʒ ɑ j m iɘ̯ n b ɘ ɾ ʒ iɘ̯ ɾ d iɘ̯ m ɘ n d iɘ̯ j m ɘ n 
[512.255]
<no-speech> 
[514.775]
ʒ u̯ʊ q m iɘ̯ n b ɑ s q ɑ b ɘ ɾ ʒ iɘ̯ ɾ d iɘ̯ m ɘ n q ɑ z ɘ ɾ 
[516.935]
<no-speech> 
[519.515]
<sta> b ɘ ɾ ʒ iɘ̯ ɾ d iɘ̯ m ɘ n d iɘ̯ j m ɘ n 
[521.755]
<no-speech> 
[524.225]
<sta> b ɘ ɾ ɔ fj ɪ s t iɘ̯ m ɘ n ʁ u̯ʊ j 
[526.445]
<no-speech> 
[531.415]
<hes> b ɘ ɾ ʒ iɘ̯ ɾ d iɘ̯ æ j t iɘ̯ w ɘ ɾ 
[533.035]
<no-speech> 
[534.365]
<no-speech> 
[534.715]
<no-speech> 
[538.795]
ʒ u̯ʊ ʁ iɘ̯ j <laugh> 
[540.715]
<no-speech> 
[542.345]
n iɘ̯ b u̯ʊ p q ɑ l d ə s u̯ʊ n d ɑ j u̯ʊ j ə n b aː r m ɑ iɘ̯ d ɘ n iɘ̯ s a m nj e nj ɪ j ə ʊ s t ɑ p ʒ ɑ t ə ɾ s ə ŋ b aː 
[546.025]
<no-speech> 
[547.245]
ɑ 
[547.865]
<no-speech> 
[549.315]
s iɘ̯ n s a m nj e nj ɪ j ə ʊ s t ɑ p ʒ ɑ t ə ɾ s ə ŋ b aː s a m nj e nj ɪ j ə ʊ s t ɑ p ʒ ɑ t ə ɾ s ə ŋ b aː 
[553.595]
<no-speech> 
[554.625]
ɑ 
[555.355]
<no-speech> 
[557.025]
ə m q ɑ ɾ n ə m ɑ ʃ ə p t ʊ ɾ n ɑ w k ɑ 
[559.235]
<no-speech> 
[563.815]
<lipsmack> u̯ʊ n ʉ ʃ p iɘ̯ t ɑ m ɑ q ɘ ʃ s iɘ̯ q ɑ j t s ɘ n 
[565.565]
<no-speech> 
[572.095]
m ɑ ʁ ɑ n m ə ŋ t iɘ̯ ŋ g iɘ̯ k iɘ̯ ɾ iɘ̯ k b u̯ʊ p ʒ ɑ t ə ɾ ʁ u̯ʊ j sj ɪ s t r aː m k iɘ̯ l iɘ̯ ʒ ɑ t ə ɾ ʁ u̯ʊ j 
[575.205]
<no-speech> 
[578.435]
<int> m æ s ɑ ʁ ɑ n m iɘ̯ n ɘ ŋ sj ɪ s t r aː m k iɘ̯ l iɘ̯ d ɘ ʁ u̯ʊ j q ɑ z ɘ ɾ u̯ʊ l ʒ ɑ q q ɑ ʒ ə l ʒ ə j ɑ l m ɑ j m ə n ʁ u̯ʊ j 
[581.995]
<no-speech> 
[586.525]
s u̯ʊ l nj ɪ k aː k b u̯ʊ p t ʊ ɾ ʁ u̯ʊ j nj ɪ k aː k b u̯ʊ p t ʊ ɾ ʁ u̯ʊ j s u̯ʊ l 
[589.575]
<no-speech> 
[593.405]
ɑ w a l ɔ 
[595.485]
<no-speech> 
[597.525]
ɘ j iɘ̯ 
[598.315]
<no-speech> 
[600.405]
ɘ j iɘ̯ ɘ j iɘ̯ ɑ j t s ɑ ŋ b u̯ʊ l d ə ʁ u̯ʊ j 
[601.755]
<sta> ɘ j iɘ̯ ɘ j iɘ̯ 
[602.880]
