[0.000]
<no-speech> 
[1.795]
<no-speech> 
[2.155]
<no-speech> 
[3.665]
a l ɔ <sta> 
[5.045]
<no-speech> 
[5.895]
ɑ l a l ɔ <no-speech> ɑ q ɑ l ə ŋ ə z q ɑ l ɑ j 
[10.505]
<no-speech> 
[14.115]

[14.625]
<no-speech> 
[15.425]
ɑ t ɑ ɑ t ɑ m iɘ̯ n ɑ p ɑ n ə ŋ q ɑ l ə q ɑ l ɑ j 
[17.715]
<no-speech> 
[22.055]
<sta> ɑ w <no-speech> ɑ j t ɑ b iɘ̯ ɾ ɘ ŋ ɘ z 
[28.165]
<no-speech> 
[31.445]
ʒ ɑ ɾ ɑ j t 
[32.005]
<no-speech> 
[33.375]
ʒ ɑ ɾ ɑ j t u̯ʊ n d ɑ m iɘ̯ n ʉ j g iɘ̯ b ɑ ɾ ə p s ɘ z g iɘ̯ ʁ u̯ʊ j m iɘ̯ n q ɑ z ɘ ɾ b ɑ ɾ ɑ ʒ ɑ t ə ɾ m ə n ʉ j g iɘ̯ 
[37.565]
<no-speech> 
[38.535]
ʃ ɑ m ɑ l ə ə w ɑ q ə t t ɑ ʒ iɘ̯ t ɘ p q ɑ l ɑ ɾ m ə n 
[41.045]
<no-speech> 
[43.625]
ʒ ɑ ɾ ɑ j t iɘ̯ ɾ t iɘ̯ ŋ g iɘ̯ p iɘ̯ ʃ ʒ ɑ ʁ ə p ʉ j d ɘ ŋ t ɑ m ɑ ʁ ə n <no-speech> ə m ʒ ɑ ɾ ɑ j t ʒ ɑ ɾ ɑ j t ʒ ɑ w ɑ p ʒ ɑ s ɑ j m ə n ʁ u̯ʊ j 
[52.295]
<no-speech> 
[54.065]
ə m <no-speech> n iɘ̯ <oov> ʒ ɑ ŋ ɑ l ə q ʒ u̯ʊ q p ɑ 
[57.305]
<no-speech> 
[58.345]
<no-speech> 
[59.865]
<no-speech> 
[62.555]
ɑ k iɘ̯ l iɘ̯ ʒ ɑ t q ɑ n <oov> m iɘ̯ j ɾ ɑ m ə ŋ ə z b iɘ̯ n q ɑ n d ɑ j s ə j l ə q ɑ l ɑ j ə n q ɑ n d ɑ j s ə j l ə q ɑ l ɑ j ə n s ə j l ə q <sta> 
[73.065]
<no-speech> 
[75.775]
g ʉ l ɑ l ɑ j ə n b aː i lj i s ɘ z d ɘ ŋ ɑ l ɑ m ə n d iɘ̯ g iɘ̯ n z ɑ t ə ŋ ə z ʁ ɑ ɑ q ʃ ɑ n ə q u̯ʊ s ɑ j ə n b aː 
[79.675]
<no-speech> 
[83.235]
<laugh> ʒ ɑ ɾ ɑ j t ʒ ɑ ɾ ɑ j t ɑ j t q ɑ n ə ŋ ə z b u̯ʊ l s ə n s iɘ̯ g ɘ z ɘ n ʃ ɘ m ɑ ɾ t k ʉ n ɘ k iɘ̯ ʃ k ɘ s ɘ n ʒ ə j n ɑ l ɑ m ə z b aː ʒ ɑ ɾ ɑ j t ʒ ɑ q s ə <no-speech> d iɘ̯ n s ɑ w l ə ʁ ə m ʒ ɑ q s ə s u̯ʊ l b ʉ g ɘ n 
[95.175]
k iɘ̯ ŋ iɘ̯ s ɑ ʁ ɑ j d ə ŋ s ɑ b ɑ ʁ ə n ɑ q ɑ t ə s t ə d aː 
[98.455]
<no-speech> 
[100.525]
ɑ w 
[101.065]
<no-speech> 
[103.785]

[104.305]
<no-speech> 
[105.955]
mj ɪ x aː nj ɪ k a ɑ k ə w ɾ s t ə q ʒ ʊ m ə s ə m ə z d ə k ə w ɾ s t ə q ʒ ʊ m ə s ə m ə z d ə k y̯ʉ ɾ s iɘ̯ t t ɘ k ɑ ʁ ɑ j ʁ ɑ 
[111.635]
<no-speech> 
[112.985]
ʒ ɑ q s ə ʒ ɑ q s ə t æ t iɘ̯ b æ ɾ ɘ m ɘ z d ɘ m ɑ q t ɑ p ʒ ʉ ɾ ɘ p q ɑ j t ɑ ɾ d ə 
[115.555]
<no-speech> 
[117.065]
k iɘ̯ j ɘ n b ɑ q ə l ɑ w t ɑ p s ə ɾ d ə q <int> ɑ l s u̯ʊ n ə m iɘ̯ n s iɘ̯ g ɘ z ɘ n ʃ ɘ m ɑ ɾ t k ʉ n ɘ ʒ ə j n ɑ l ɑ m ə z b aː ʉ j d iɘ̯ 
[123.995]
<no-speech> 
[125.405]
<no-speech> 
[125.755]
<no-speech> 
[128.615]
ə ə ə <hes> k iɘ̯ ʃ k ɘ s ɘ n s ɑ ʁ ɑ t q ɑ n ʃ ɑ d ɑ 
[130.295]
<no-speech> 
[134.135]
k iɘ̯ ʃ k ɘ s ɘ n s ɑ ʁ ɑ t q ɑ n ʃ ɑ d ɑ ʒ ə j n ɑ l ɑ m ə z 
[135.585]
<no-speech> 
[138.655]
ɑ l g ʉ l m ə j ɾ ɑ t æ t iɘ̯ n iɘ̯ b u̯ʊ l d ə 
[139.975]
<no-speech> 
[141.525]
g ʉ l m ə j ɾ ɑ t æ t iɘ̯ n iɘ̯ b u̯ʊ l d ə k iɘ̯ l iɘ̯ m ɘ n d iɘ̯ j d m iɘ̯ 
[143.145]
<no-speech> 
[143.975]
ɑ 
[145.055]
<no-speech> 
[146.145]
u̯ʊ l k iɘ̯ l iɘ̯ m ɘ n d iɘ̯ j d m iɘ̯ n iɘ̯ 
[148.705]
<no-speech> 
[150.985]
ɑ 
[153.185]
<no-speech> 
[154.025]
n iɘ̯ b u̯ʊ l d ə t ɑ n ə s t ə ɾ ɑ s ə z b aː iɘ̯ n d ɘ b ɘ z d ɘ 
[156.205]
<no-speech> 
[157.825]
t ɑ n ə s t ə ɾ ɑ s ə z b aː iɘ̯ n d ɘ <laugh> iɘ̯ n d ɘ m iɘ̯ n d iɘ̯ b ɘ ɾ 
[163.195]
<no-speech> 
[165.045]
iɘ̯ n d ɘ m iɘ̯ n d iɘ̯ b ɘ ɾ u̯ʊ u̯ʊ j b u̯ʊ l ʁ ɑ n ʒ iɘ̯ t ɘ n ʃ ɘ m ɑ ɑ l t ə n ʃ ə m ɑ m ɑ ɾ t k ʉ n ɘ p aː p a m n ə ŋ ʉ j ɘ n iɘ̯ b ɑ ɾ ə p k iɘ̯ l ɘ w g iɘ̯ 
[170.055]
<no-speech> 
[172.025]
ʃ ɑ q ə ɾ ə p iɘ̯ d ɘ d iɘ̯ 
[172.875]
<no-speech> 
[174.095]
s u̯ʊ l ʁ u̯ʊ j m iɘ̯ n s iɘ̯ g ɘ z ɘ n ʃ ɘ m a r t t ɑ ɛ t ɔ 
[175.855]
<no-speech> 
[177.215]
s u̯ʊ l b ɑ ɾ ɑ m ə n d iɘ̯ g iɘ̯ n u̯ʊ j d ɑ iɘ̯ d ɘ m s u̯ʊ l 
[178.745]
<no-speech> 
[180.195]
s ɘ z d iɘ̯ n s ʊ ɾ ɑ p t ʊ ɾ m ə n iɘ̯ n d ɘ s u̯ʊ n ə 
[181.505]
<no-speech> 
[183.595]
<no-speech> iɘ̯ n d ɘ ʊ ɾ ə s ə p ʊ ɾ ə s ə p ɑ p k iɘ̯ ʃ ɘ ɾ ɘ m s ʊ ɾ ɑ w k iɘ̯ ɾ iɘ̯ k q u̯ʊ j <no-speech> s ɘ z d iɘ̯ n b ʉ g ɘ n k iɘ̯ ʃ ɘ ɾ ɘ m k iɘ̯ ʃ ɘ ɾ ɘ m s ʊ ɾ ɑ j m ə n u̯ʊ d ɑ n k iɘ̯ l iɘ̯ s ɘ ɑ p t ɑ d ɑ 
[193.655]
<no-speech> 
[195.225]
b ɑ ɾ ɑ j ə n b aː b ɑ ɾ m ɑ j ɑ q q u̯ʊ j ɑ j ə n b aː <sta> 
[197.705]
<no-speech> 
[199.905]
y̯ʉ z ɘ ŋ b ɘ l d iɘ̯ g iɘ̯ n d iɘ̯ <hes> s iɘ̯ g ɘ z ɘ m iɘ̯ n t u̯ʊ ʁ ə z ə d iɘ̯ m ɑ l ɑ m ə z ʁ u̯ʊ j ʒ iɘ̯ t ɘ s ɘ ʒ iɘ̯ t ɘ s ɘ k ʉ n ɘ s ɑ b ɑ q b u̯ʊ p t ʊ ɾ b ɘ z d iɘ̯ 
[206.325]
<no-speech> 
[207.745]
iɘ̯ n d ɘ s u̯ʊ l m iɘ̯ n ʒ ɑ j u̯ʊ j l ɑ p t ʊ ɾ ʁ ɑ n ə m 
[210.125]
<no-speech> 
[211.435]
m iɘ̯ n b ʉ g ɘ n m iɘ̯ n b ʉ g ɘ n k iɘ̯ l iɘ̯ m ɘ n d iɘ̯ iɘ̯ ɾ t iɘ̯ n k iɘ̯ ʃ k ɘ s ɘ n k iɘ̯ t iɘ̯ m ɘ n 
[214.705]
<no-speech> 
[216.225]
s u̯ʊ d ɑ n k iɘ̯ j ɘ n ʒ iɘ̯ t ɘ s ɘ k ʉ n ɘ 
[217.735]
<no-speech> 
[219.135]
x m s u̯ʊ l b ɘ z d ɘ 
[221.415]
<no-speech> 
[222.605]
iɘ̯ n d ɘ m iɘ̯ n u̯ʊ j l ɑ p t ʊ ɾ m ə n p aː p a m ɑ b ɑ ɾ ə p s iɘ̯ g ɘ z ɘ k ʉ n ɘ t ɑ ŋ iɘ̯ ɾ t iɘ̯ ŋ ʃ ə ʁ ə p k iɘ̯ t iɘ̯ j ɘ n u̯ʊ l ʒ ɑ q t ɑ n s ɘ z d iɘ̯ ɾ g iɘ̯ s ɘ z d iɘ̯ ɾ g iɘ̯ b ɑ ɾ ɑ j ə n ʉ j g iɘ̯ <no-speech> s iɘ̯ g ɘ z ɘ n ʃ ɘ m ɑ ɾ t k ʉ n ɘ s ɘ z s ɘ z d iɘ̯ ɾ m iɘ̯ n b u̯ʊ l ɑ m ə n d aː 
[233.975]
s iɘ̯ g ɘ z ɘ m iɘ̯ n t u̯ʊ ʁ ə z ə k ʉ n ɘ 
[235.525]
<no-speech> 
[236.405]
ɑ s u̯ʊ l ʒ ɑ q t ɑ q u̯ʊ n ə p ʃ ə ʁ ɑ m ə n d iɘ̯ 
[238.815]
<no-speech> 
[240.035]
s p a r tj i f k a ɑ l ɑ j ə n d aː <sta> 
[244.055]
<no-speech> 
[245.655]
s u̯ʊ l m iɘ̯ n b ʉ g ɘ n <hes> ʃ iɘ̯ t iɘ̯ l d ɘ k t iɘ̯ ɾ d ɘ ŋ ʒ ɑ l ɑ q ə s ə n ɑ l d ə q iɘ̯ n d ɘ b ʉ g ɘ n d iɘ̯ g iɘ̯ n 
[251.965]
<no-speech> 
[252.875]
b ʉ g ɘ n æ j t iɘ̯ w ɘ ɾ ʃ iɘ̯ t iɘ̯ l d iɘ̯ n 
[254.965]
<no-speech> 
[256.275]
s u̯ʊ l ɘ j iɘ̯ t ʉ s t ɘ s u̯ʊ n ə ŋ ɑ q ʃ ɑ s ə n u̯ʊ j l ɑ p t ʊ ɾ m ə n s ɑ l ɑ j ə n b aː s ɘ z d iɘ̯ ɾ g iɘ̯ d iɘ̯ p 
[262.775]
<no-speech> 
[264.315]
<no-speech> 
[265.795]
<no-speech> 
[267.085]
q u̯ʊ s q ɑ n ʒ u̯ʊ q q u̯ʊ s q ɑ n ʒ u̯ʊ q v a a p ʃjː e m ʉ l d iɘ̯ m q u̯ʊ s p ɑ ʁ ɑ n aː r ʒ ɑ ʁ ə s u̯ʊ l b ʊ ɾ ə ŋ ʁ ə u̯ʊ n b iɘ̯ s m ə ŋ d iɘ̯ j d d iɘ̯ ɑ ʒ u̯ʊ l ʁ ɑ ɛ t ə t ʒ u̯ʊ l ʁ ɑ t ʉ s iɘ̯ t ɘ n ɑ q ʃ ɑ b aː r ʁ u̯ʊ j ʒ iɘ̯ t ɘ ʒ ɑ ɾ ə m m ə ŋ 
[278.955]
s u̯ʊ l b ʊ ɾ ə ŋ ʁ ə ʒ iɘ̯ t ɘ ʒ ɑ ɾ ə m m ə ŋ t ʉ s k iɘ̯ n d iɘ̯ ɑ l d ə ŋ ʁ ə ɑ p t ɑ d ɑ s u̯ʊ l ʒ iɘ̯ t ɘ ʒ ɑ ɾ ə m n ɑ n k ɘ t ɑ b ɘ m d ɘ t y̯ʉ l iɘ̯ j ɘ n d iɘ̯ p iɘ̯ d ɘ m <no-speech> k ɘ t ɑ p t y̯ʉ l iɘ̯ w g iɘ̯ b u̯ʊ l m ɑ j t k a mj i sj ɪ j a ʒ ʉ ɾ ɘ p ʒ ɑ t ə ɾ d iɘ̯ p q ɑ j t ɑ ɾ ə p ʒ ɘ b iɘ̯ ɾ d ɘ b ʉ g ɘ n k iɘ̯ ʃ iɘ̯ t y̯ʉ l iɘ̯ j ɘ n d iɘ̯ g iɘ̯ n d iɘ̯ k aː s s a ʒ ɑ b ə l ə p 
[290.755]

[291.215]
<no-speech> 
[292.165]
s u̯ʊ d ɑ n k iɘ̯ j ɘ n q ɑ z ɑ n n ə ŋ ɑ q ʃ ɑ s ə n b iɘ̯ ɾ d ɘ m p a t ɔ m k ɔ m n ə t a ʁ ɑ t ɑ m ɑ q ɑ l ʁ ɑ m b ə z k iɘ̯ ʃ iɘ̯ t ɑ m ɑ q ɑ l ə p t ə ʉ j d iɘ̯ g ɘ l iɘ̯ ɾ n ʊ ɾ l ɑ n iɘ̯ k iɘ̯ w ɘ m ɘ z ɑ s χ ɑ n ɑ d ɑ n t ɑ m ɑ q ɘ ʃ ɘ p ɑ l ʁ ɑ m b ə z 
[301.635]
<no-speech> 
[303.095]
s u̯ʊ l t ɑ m ɑ ʁ ə m ə z t ɘ ʃ ɘ p k iɘ̯ ʃ k ɘ s ɘ n k iɘ̯ p s ə w s ə n ə m ə z d ə ɘ ʃ ɘ p 
[306.005]
<no-speech> 
[307.525]
k ɑ m p j ɘ w t iɘ̯ ɾ u̯ʊ j n ɑ p s ɑ b ɑ q q ɑ ɾ ɑ p d iɘ̯ g iɘ̯ n s ə j ɑ q t ə d iɘ̯ m ɑ l ə p æ b d iɘ̯ n 
[311.115]
<no-speech> 
[311.925]
s iɘ̯ n b ʉ g ɘ n ʒ ɑ q s ə k y̯ʉ ɾ iɘ̯ t ɘ n ɑ ʁ ɑ j ə m ə z ʁ ɑ b ɑ ɾ d ə q b ɑ ɾ m ɑ j m ə z b ɑ ɾ m ɑ j m ə z d iɘ̯ p u̯ʊ t ə ɾ ə p 
[317.415]
<no-speech> 
[318.635]
s u̯ʊ d ɑ n k iɘ̯ j ɘ n u̯ʊ n ə ŋ ɑ ɾ t ə n ɑ n tj ɛ nj ɪ s t ə w ɾ ʁ ɑ b ɑ ɾ ə p k iɘ̯ l d ɘ m b ə d mj ɪ n t ɔ n ʁ ɑ 
[322.175]
<no-speech> 
[323.805]
s u̯ʊ l 
[324.285]
<no-speech> 
[325.535]
s u̯ʊ l q ɑ z ɘ ɾ æ b d iɘ̯ n u̯ʊ j n ɑ p u̯ʊ j ə n n ə ŋ t u̯ʊ j ə p s u̯ʊ ʁ ɑ n u̯ʊ j ə n ʁ ɑ æ j t iɘ̯ w ɘ ɾ k iɘ̯ l d ɘ m q ɑ z ɘ ɾ k iɘ̯ l iɘ̯ ʒ ɑ t ə ɾ m ə n a f t ɔ b u s p iɘ̯ n 
[334.935]
<no-speech> 
[335.815]
b ɘ ɾ iɘ̯ k ɘ s ɑ ʁ ɑ t t ɑ ʒ iɘ̯ t ɘ p q ɑ l ɑ ɾ s u̯ʊ l ʉ j g iɘ̯ z v ɔ n d ɑ m ɑ j ɑ q q u̯ʊ j ə ŋ ə z m iɘ̯ n y̯ʉ z ɘ m k iɘ̯ ʃ k ɘ s ɘ n z v ɔ n d ɑ j m ə n 
[340.425]
<no-speech> 
[341.925]
q ɑ ʁ ɑ z ə n ɑ l d ə m ɑ 
[343.365]
<no-speech> 
[345.175]
q ɑ ʁ ɑ z ə n ɑ l d ə m ɑ 
[346.375]
<no-speech> 
[347.895]
v e s m ɨ s lj ə b iɘ̯ ɾ iɘ̯ s ɑ l d ə ŋ b aː <no-speech> m iɘ̯ n ɛ t ə t m iɘ̯ n m ɑ m ɑ m d ɘ k ɘ d iɘ̯ p ɑ j t t ə m iɘ̯ n d ɘ n iɘ̯ d iɘ̯ j m ɘ n 
[352.355]
<no-speech> 
[353.755]
<no-speech> 
[354.105]
<no-speech> 
[356.415]
ɑ ɘ j iɘ̯ ɘ j iɘ̯ ɛ t ə t t ʉ s t ɘ t ʉ s t ɘ ɑ q ʃ ɑ m iɘ̯ n u̯ʊ j l ɑ p q u̯ʊ j ɑ m ə n k ɘ m t ʉ s ɘ ɾ d ɘ d iɘ̯ p t æ t iɘ̯ m ʒ ɘ b iɘ̯ ɾ d ɘ m iɘ̯ iɘ̯ k iɘ̯ n d iɘ̯ p q u̯ʊ j ɑ m ə n m iɘ̯ n <laugh> 
[362.135]
<no-speech> 
[363.235]
m iɘ̯ n t æ t iɘ̯ ʒ ɘ b iɘ̯ ɾ d ɘ m iɘ̯ iɘ̯ k iɘ̯ n d iɘ̯ p q ə w ɑ n ə p q ɑ l s ɑ m ʃ iɘ̯ ʒ ɑ ɾ ɑ j t t ʉ s y̯ʉ n ɘ k t ɘ k iɘ̯ l iɘ̯ s ɘ d iɘ̯ m iɘ̯ n s ɘ z s ɘ z g iɘ̯ ʒ ɘ b iɘ̯ ɾ iɘ̯ m ɘ n iɘ̯ n d ɘ 
[369.675]
<no-speech> 
[374.225]
ʒ u̯ʊ q m ə n ɑ w t iɘ̯ l iɘ̯ d v aː n ɔ mj ɪ r ʒ ɑ q s ə iɘ̯ k iɘ̯ n p r ɔ s t a 
[376.235]
<no-speech> 
[377.445]
ə m 
[378.475]
<no-speech> 
[380.215]
ʒ ə j ə ɾ m ɑ ʉ ʃ ɘ n ʃ ɘ fj ɪ v r aː lj n iɘ̯ ɘ s t iɘ̯ d ɘ 
[381.555]
<no-speech> 
[383.425]
n iɘ̯ ɘ s t iɘ̯ d ɘ ŋ 
[384.125]
<no-speech> 
[387.085]
a l ɔ 
[387.615]
<no-speech> 
[389.125]
ʒ ə j ə ɾ m ɑ <oov> ʒ ə j ə ɾ m ɑ ʉ ʃ ɘ n ʃ ɘ ɑ q p ɑ n d ɑ n iɘ̯ ɘ s t iɘ̯ d ɘ ŋ ɘ z 
[391.525]
<no-speech> 
[393.575]
iɘ̯ ʃ q ɑ n d ɑ j ʒ ɑ ŋ ɑ l ə q ʒ u̯ʊ q s u̯ʊ l b ʉ g ɘ n k u r s a v ɔ j d ə ɘ s t iɘ̯ t t ɘ k ʒ ə j ə ɾ m ɑ ʉ ʃ ɘ n ʃ ɘ ɑ q p ɑ n d ɑ n iɘ̯ ɘ s t iɘ̯ d ɘ ŋ ɘ z 
[398.555]
<no-speech> 
[402.415]
a l ɔ 
[402.945]
<no-speech> 
[406.145]
ʊ j ə q t ɑ d ə ŋ ə z b aː i lj i ʒ ʊ m ʊ s t ɑ b u̯ʊ l d ə ŋ ə z b aː 
[408.745]
<no-speech> 
[411.945]
s u̯ʊ l ʒ ʊ m ʊ s t ɑ ʃ ə ʁ ɑ ɾ 
[412.855]
<no-speech> 
[414.855]
s iɘ̯ n d iɘ̯ ɾ ɛ t ə t k iɘ̯ t ɘ p q ɑ l ɑ l ɑ ɾ d ə ŋ ɑ l d ə n d ɑ ʁ ə ʃ iɘ̯ m iɘ̯ n ʒ ə j ə ɾ m ɑ iɘ̯ k ɘ s ɘ n d iɘ̯ k iɘ̯ t ɘ p q ɑ l d ə m ʁ u̯ʊ j 
[417.925]
<no-speech> 
[421.735]
ɑ s u̯ʊ n d ɑ s ɘ z 
[422.705]
<no-speech> 
[424.385]
s u̯ʊ n d ɑ s ɘ z ɑ ɑ t ɑ m n ə ŋ ʉ j ɘ n iɘ̯ b ɑ ɾ d ə ŋ ə z b aː ə m 
[428.495]
<no-speech> 
[429.815]
n iɘ̯ b u̯ʊ l d ə s u̯ʊ l ʒ ɑ q t ɑ n z v ɔ n d ɑ p iɘ̯ d ɘ ŋ ɘ z ʁ u̯ʊ j ɑ j t p ɑ q ʃ ə 
[432.355]
<no-speech> 
[434.905]
ɑ s ə l ɑ ʁ ɑ b a lj nj i ʦ a ʁ ɑ ʒ ɑ t ə w ʁ ɑ m ɑ 
[436.955]
<no-speech> 
[439.485]
b a lj nj i ʦ a ʁ ɑ ʒ ɑ t ɑ j ə n d iɘ̯ p p iɘ̯ 
[440.615]
<no-speech> 
[441.775]
ʒ ɑ ɾ ɑ j t k iɘ̯ l k iɘ̯ l g iɘ̯ n d iɘ̯ z v ɔ n d ɑ j m ə n s u̯ʊ l s æ l iɘ̯ m ɘ n ɑ j t 
[443.965]
<no-speech> 
[447.075]
b ɘ ɾ ʒ ʊ m ə s t ɑ b ə l ə p q ɑ l d ə m ɑ ɑ j b u̯ʊ l ʁ ɑ <laugh> iɘ̯ k ɘ ɑ p t ɑ d ɑ 
[450.615]
<no-speech> 
[451.725]
iɘ̯ k ɘ ɑ p t ɑ d ɑ b ɘ ɾ ʒ ʊ m ə s t ɑ b ə l ə p q ɑ l d ə m ɑ d iɘ̯ j m ɘ n d iɘ̯ 
[453.695]
<no-speech> 
[458.475]
u̯ʊ q ə j ə n ʒ ɑ ʁ d ɑ j u̯ʊ n ə k ɘ iɘ̯ n d ɘ <laugh> 
[463.475]
<no-speech> 
[464.875]
<laugh> n iɘ̯ b u̯ʊ l d ə u̯ʊ ʁ ɑ n ʒ iɘ̯ t iɘ̯ ɑ l m ɑ j m ɑ ʁ ɑ n 
[466.785]
<no-speech> 
[467.845]
b ɘ ɾ g iɘ̯ ʒ ʉ ɾ s iɘ̯ ʁ u̯ʊ j 
[469.245]
<no-speech> 
[471.295]
z v ɔ n d ɑ m ɑ j m ə n m iɘ̯ n u̯ʊ ʁ ɑ n y̯ʉ z ɘ n ɘ ŋ mj ɪ n u t ɨ b aː r z v ɔ n d ɑ m ɑ j m ɑ m ɑ ʁ ɑ n 
[473.975]
<no-speech> 
[475.245]
u̯ʊ n ə ŋ mj ɪ n u t ɨ b aː r ʁ u̯ʊ j mj ɪ n u t t ʉ s iɘ̯ d ɘ ʁ u̯ʊ j u̯ʊ ʁ ɑ n k ʉ n <no-speech> s ɑ j ə n ʒ ə j ə ɾ m ɑ mj ɪ n u t t ɑ n ʒ ə j ə ɾ m ɑ mj ɪ n u t s y̯ʉ j l iɘ̯ s s iɘ̯ b u̯ʊ l ɑ d ə m iɘ̯ n ɘ ŋ ʒ ə j ə ɾ m ɑ mj ɪ n u t ə m b aː r <no-speech> u̯ʊ l b ɘ ɾ ɘ n ʃ ɘ z v ɔ n d ɑ s ə n s u̯ʊ d ɑ n k iɘ̯ j ɘ n m iɘ̯ n u̯ʊ ʁ ɑ n z v ɔ n d ɑ j m ə n 
[484.675]
<no-speech> 
[486.695]
s u̯ʊ n d ɑ ɑ s ə l ɑ ʁ ɑ n iɘ̯ ʉ ʃ ɘ n k iɘ̯ p t ʊ ɾ <no-speech> k v ɔ t a ʁ ɑ m ɑ 
[489.025]
<no-speech> 
[494.775]
ə m a n aː lj ɪ z ɘ n t ɑ p s ə ɾ ə p 
[497.415]
<no-speech> 
[498.955]
ɑ 
[499.655]
<no-speech> 
[501.145]
ɑ s ə l ɑ ʁ ɑ n ə ŋ ʒ ɑ ʁ d ɑ j ə n iɘ̯ b u̯ʊ l d ə 
[502.495]
<no-speech> 
[504.215]
ɑ w ə ɾ ə p ʒ ʉ ɾ m ɑ æ l ɘ 
[505.385]
<no-speech> 
[507.545]
ɑ 
[508.115]
<no-speech> 
[512.575]
<no-speech> 
[512.925]
<no-speech> 
[514.225]
ə m ɑ l s ɘ z d iɘ̯ ɾ g iɘ̯ s iɘ̯ g ɘ z ɘ n ʃ ɘ m a r t t ɑ k ə r p ə r a tj i f iɘ̯ ʃ t iɘ̯ ŋ iɘ̯ b u̯ʊ l m ɑ j t m ɑ n iɘ̯ <no-speech> 
[520.515]
<no-speech> 
[523.805]
n iɘ̯ b u̯ʊ l d ə s u̯ʊ l ʉ ʃ ɘ n b aː ɑ q ʃ ɑ ʁ ɑ k iɘ̯ p t ʊ ɾ ʁ ɑ n ə ŋ 
[526.095]
<no-speech> 
[527.415]
n iɘ̯ g iɘ̯ b ɑ ɾ m ɑ j s ə z b aː 
[528.565]
<no-speech> 
[533.875]
b ɑ ɾ ə p k iɘ̯ l ɘ ŋ ɘ z n iɘ̯ b u̯ʊ l d ə ɑ l d ə n d ɑ b ɑ ɾ ʁ ɑ n ʒ u̯ʊ q s ə z ʁ u̯ʊ j 
[536.015]
<no-speech> 
[537.045]
ʒ ɑ ŋ ɑ ʒ ə l ʁ ɑ b ɑ ɾ ʁ ɑ n ʒ u̯ʊ q s ə z ʁ u̯ʊ j b ɑ ɾ ə p k iɘ̯ l s iɘ̯ j 
[538.785]
<no-speech> 
[540.965]
iɘ̯ n d ɘ 
[541.655]
<no-speech> 
[545.785]
iɘ̯ n d ɘ b ɘ ɾ ʃ ɑ m ɑ l ə w ɑ q ə t t ɑ n k iɘ̯ j ɘ n b ɘ ɾ b iɘ̯ s m ə ŋ t ɑ w ə p ɛ t ə t b iɘ̯ s m ə ŋ ʒ ɘ b iɘ̯ ɾ iɘ̯ t ɘ n ʃ ə ʁ ɑ ɾ s ɘ z g iɘ̯ b iɘ̯ s m ə ŋ q u̯ʊ l ə ŋ ə z ʁ ɑ q ɑ l ʁ ɑ n ə n iɘ̯ n d ɘ b ɘ l iɘ̯ s ɘ z ʁ u̯ʊ j n iɘ̯ g iɘ̯ ʒ ɘ b iɘ̯ ɾ iɘ̯ t ɘ n ɘ n 
[553.185]
<no-speech> 
[558.015]
ɾ iɘ̯ n ʒ ɘ m iɘ̯ j s ɘ z bj ɛ b iɘ̯ s m ə ŋ ʁ ɑ 
[559.185]
<no-speech> 
[564.755]
q ɑ l ɑ m ə n i lj i ɑ ʁ ɑ j <laugh> s t iɘ̯ p iɘ̯ n d ɘ j ɑ ʃ iɘ̯ k s ɘ z iɘ̯ m iɘ̯ s q u̯ʊ j <laugh> 
[573.925]
<no-speech> 
[574.905]
<no-speech> 
[575.405]
<no-speech> 
[578.975]
u̯ʊ u̯ʊ j q ə z ə q iɘ̯ m iɘ̯ s q u̯ʊ j ɑ q ʃ ɑ ɑ l m ɑ s ɑ <no-speech> <laugh> 
[586.055]
<no-speech> 
[587.035]
n ʊ ɾ l ɑ n ɛ t ə t n ʊ ɾ l ɑ ŋ ʁ ɑ t ʉ s k iɘ̯ n ɑ q ʃ ɑ s ə n b æ ɾ ɘ n q ʊ ɾ t ə p t ɑ s t ɑ d ə u ʒ ɛ ɑ l 
[591.295]
<no-speech> 
[592.325]
s ɑ ʁ ɑ n n iɘ̯ q u̯ʊ j d ə 
[594.565]
<no-speech> 
[595.395]
ə m q ɑ j t ə p f u t b ɔ l ʁ ɑ q u̯ʊ j ʁ ɑ n ʁ u̯ʊ j u̯ʊ n m ə ŋ q u̯ʊ j ə p ʒ ɘ b iɘ̯ ɾ g iɘ̯ n u̯ʊ n ə ŋ b æ ɾ ɘ n ʊ t ə l ə p q ɑ l ʁ ɑ n 
[599.505]
<no-speech> 
[600.100]
