[0.000]
<no-speech> 
[2.295]
a l ɔ 
[2.965]
<no-speech> 
[4.015]
<int> a l ɔ ʃ ə n ɑ ɾ q ɑ l ɑ j s ə ŋ 
[6.335]
<no-speech> 
[9.315]
ʒ ɑ q s ə 
[10.295]
<no-speech> 
[12.025]
n iɘ̯ ɘ s t iɘ̯ p ʒ ɑ t ə ɾ s ə ŋ <breath> 
[14.645]
<no-speech> 
[17.545]
ɑ <breath> m iɘ̯ n ʉ j d iɘ̯ m ɘ n <int> 
[20.835]
<no-speech> 
[23.225]
<int> <breath> ɑ b ʉ g ɘ n ɑ w ə ɾ ə p t ʊ ɾ m ə n 
[26.625]
<no-speech> 
[30.865]
<no-speech> 
[31.495]
<no-speech> 
[33.355]
<breath> ʒ u̯ʊ q k iɘ̯ l iɘ̯ s ɘ ʒ u̯ʊ l ə b ɑ ɾ ɑ m ə n 
[35.505]
<no-speech> 
[36.335]
ɾ iɘ̯ n ʒ ɘ m iɘ̯ 
[37.285]
<no-speech> 
[41.835]
<breath> <no-speech> ɘ j iɘ̯ <int> 
[47.795]
<no-speech> 
[50.795]
<no-speech> ʒ u̯ʊ q 
[52.525]
<no-speech> 
[56.975]
q ɑ j ʒ iɘ̯ ɾ g iɘ̯ ʒ iɘ̯ t ɘ p q ɑ l d ə ŋ d ɑ ɾ 
[58.805]
<no-speech> 
[60.645]
q ɑ j ʒ iɘ̯ ɾ g iɘ̯ ʒ iɘ̯ t ɘ p q ɑ l d ə ŋ d ɑ ɾ 
[62.135]
<no-speech> 
[66.335]
<hes> ɑ t ʉ s y̯ʉ n ɘ k t ɘ 
[68.005]
<no-speech> 
[70.915]
<no-speech> 
[71.365]
<no-speech> 
[73.465]
<breath> m iɘ̯ n ʉ j d iɘ̯ u̯ʊ t ə ɾ m ə n s ɑ b ɑ ʁ ə m d ə u̯ʊ q ə p q u̯ʊ j d ə m iɘ̯ ɾ t iɘ̯ n s ɑ b ɑ q q ɑ b ɑ ɾ ə w k iɘ̯ ɾ iɘ̯ k 
[78.495]
<no-speech> 
[82.365]
ʒ u̯ʊ q 
[83.245]
<no-speech> 
[84.375]
<no-speech> 
[84.935]
<no-speech> 
[86.075]
ʒ u̯ʊ q ʊ ɾ ə s q ɑ n ʒ u̯ʊ q b ɘ ɾ æ q iɘ̯ ɾ t iɘ̯ n k iɘ̯ l iɘ̯ s ɘ ŋ bj ɛ 
[88.475]
<no-speech> 
[90.645]
iɘ̯ ɾ t iɘ̯ n k iɘ̯ l iɘ̯ s ɘ ŋ bj ɛ 
[91.715]
<no-speech> 
[95.155]
<laugh> b ʉ g ɘ n ʒ iɘ̯ k s iɘ̯ n b ɘ ʁ u̯ʊ j n iɘ̯ q ə w ə p t ʊ ɾ s ə ŋ 
[99.695]
<no-speech> 
[102.095]
<no-speech> 
[104.265]
<no-speech> 
[105.095]
<no-speech> ə m iɘ̯ ɾ t iɘ̯ n q ɑ n ʃ ɑ s ɑ b ɑ q b u̯ʊ l ɑ d ə 
[107.965]
<no-speech> 
[111.595]
<no-speech> 
[111.975]
<no-speech> 
[112.785]
b iɘ̯ s s ɑ b ɑ q ɑ t ʉ s y̯ʉ n ɘ k t ɘ y̯ʉ z ɘ ŋ d iɘ̯ n iɘ̯ ʒ ɑ ŋ ɑ l ə q 
[118.395]
<no-speech> 
[119.705]
<no-speech> 
[120.085]
<no-speech> 
[124.105]
ə m t ʉ s y̯ʉ n ɘ k t ɘ 
[126.725]
<no-speech> 
[130.085]
<breath> m iɘ̯ n 
[131.605]
<no-speech> 
[132.505]
ɘ j iɘ̯ ʉ j d iɘ̯ <no-speech> iɘ̯ s iɘ̯ p ʃ ə ʁ ɑ ɾ ə p ʒ ɑ t ə ɾ ʁ ɑ m m ə n 
[138.085]
<no-speech> 
[142.255]
ɘ j iɘ̯ 
[143.035]
<no-speech> 
[144.435]
iɘ̯ ɾ t iɘ̯ n s ɑ ʁ ɑ t q ɑ n ʃ ɑ d ɑ k iɘ̯ l iɘ̯ s ɘ ŋ 
[146.015]
<no-speech> 
[147.585]
<sta> s ɑ ʁ ɑ t q ɑ n ʃ ɑ d ɑ k iɘ̯ l iɘ̯ s ɘ ŋ 
[149.295]
<no-speech> 
[152.785]
<no-speech> s iɘ̯ g ɘ z ʒ ɑ ɾ ə m d ɑ b ɑ s t ɑ l ɑ d ə ɘ j iɘ̯ t ʉ s y̯ʉ n ɘ k t ɘ iɘ̯ ɾ t iɘ̯ n m ɑ ʁ ɑ n k iɘ̯ l b ɘ ɾ g iɘ̯ ʃ ə ʁ ɑ j ə q 
[160.495]
<no-speech> 
[166.765]
t ʉ s y̯ʉ n ɘ k t ɘ k iɘ̯ l iɘ̯ t ɘ n b u̯ʊ l s ɑ ŋ z v ɔ n d ɑ p ɑ j t k iɘ̯ l iɘ̯ t ɘ n b u̯ʊ l s ɑ ŋ 
[172.275]
<no-speech> 
[173.125]
<no-speech> 
[173.515]
<no-speech> 
[175.395]
χ ɑ b ɑ ɾ l ɑ s 
[176.305]
<no-speech> 
[177.295]
<no-speech> 
[177.915]
<no-speech> 
[181.345]
ə m n iɘ̯ d iɘ̯ j d 
[182.775]
<no-speech> 
[186.745]
<no-speech> 
[187.185]
<no-speech> 
[188.485]
ə m t ʉ s y̯ʉ n ɘ k t ɘ 
[189.985]
<no-speech> 
[192.335]
<no-speech> 
[193.585]
<no-speech> 
[194.795]
ɑ w ə ɾ ə p q ɑ l ʁ ɑ n ʒ u̯ʊ q s ə ŋ b aː <int> 
[197.575]
<no-speech> 
[200.205]
<no-speech> 
[200.575]
<no-speech> 
[201.385]
<cough> <no-speech> ʒ u̯ʊ q d ɑ w ə s ə ŋ b ɘ ɾ t ʉ ɾ l ɘ iɘ̯ s t ɘ l ɘ p ʒ ɑ t ə ɾ s u̯ʊ ʁ ɑ n s ʊ ɾ ɑ ʁ ɑ n ə m ʁ u̯ʊ j 
[211.045]
<no-speech> 
[213.695]
<no-speech> 
[214.245]
<no-speech> 
[215.195]
ɘ j iɘ̯ d ɑ l ɑ d ɑ s ə w ə q b u̯ʊ p k iɘ̯ t t ɘ <no-speech> 
[218.765]
<no-speech> 
[220.185]
<no-speech> 
[220.595]
<no-speech> 
[222.515]
ʉ j g iɘ̯ k ɘ ɾ m iɘ̯ j s ɘ ŋ bj ɛ 
[223.695]
<no-speech> 
[225.795]
ʉ j g iɘ̯ k ɘ ɾ m iɘ̯ j s ɘ ŋ bj ɛ 
[226.975]
<no-speech> 
[231.755]
<no-speech> y̯ʉ s iɘ̯ k s u̯ʊ ʁ ə p d iɘ̯ <laugh> q ɑ ŋ ʁ ə ɾ ə p d iɘ̯ <laugh> 
[237.725]
<no-speech> 
[239.535]
s u̯ʊ l s iɘ̯ n d iɘ̯ ɾ q ɑ ŋ ʁ ə ɾ m ɑ s ɑ ŋ d ɑ ɾ b u̯ʊ l m ɑ j t ʁ u̯ʊ j <laugh> 
[243.415]
<no-speech> 
[245.635]
<no-speech> ɘ j iɘ̯ d iɘ̯ p q u̯ʊ j ɑ d ə 
[247.285]
<no-speech> 
[248.225]
<no-speech> 
[248.575]
<no-speech> 
[250.025]
<no-speech> 
[251.375]
<no-speech> 
[258.225]
n iɘ̯ ɘ s t iɘ̯ p ʒ ɑ t ə ɾ s ə ŋ 
[259.165]
<no-speech> 
[260.375]
ɑ j t ɑ b iɘ̯ ɾ 
[261.165]
<no-speech> 
[264.245]
ɑ t ʉ s y̯ʉ n ɘ k t ɘ 
[265.815]
<no-speech> 
[267.925]
s æ l iɘ̯ m ɑ j t 
[269.385]
<no-speech> 
[270.345]
<int> u̯ʊ t ə ɾ m ə n 
[273.695]
<no-speech> 
[274.515]
<laugh> q ɑ ɾ u̯ʊ j n ɑ p ʒ ʉ ɾ m ɘ n m iɘ̯ n 
[277.595]
<no-speech> 
[279.875]

[280.525]
<no-speech> 
[282.105]
<no-speech> n iɘ̯ d iɘ̯ j s ɘ ŋ 
[284.425]
<no-speech> 
[287.735]
n iɘ̯ d iɘ̯ p ʒ ɑ t ə ɾ s ə ŋ 
[288.725]
<no-speech> 
[293.045]
<breath> ɘ j iɘ̯ iɘ̯ ɾ t iɘ̯ n b æ ɾ ɘ b ɘ ɾ ʃ ə ʁ ɑ m ə n ʁ u̯ʊ j m iɘ̯ k t iɘ̯ p k iɘ̯ b ɑ ɾ ə w k iɘ̯ ɾ iɘ̯ k 
[296.825]
<no-speech> 
[301.025]
ə m ə m <int> 
[304.345]
<no-speech> 
[306.675]
<no-speech> 
[307.265]
<no-speech> 
[309.845]
<laugh> k iɘ̯ l iɘ̯ s ɘ ŋ bj ɛ 
[311.825]
<no-speech> 
[315.675]
t ɑ m ɑ q d ɑ j ə n d ɑ p q u̯ʊ j ɑ m ə n ʁ u̯ʊ j t ɑ m ɑ ʁ ə m d ə ʒ iɘ̯ p q ɑ j t s ɑ j ʃ ə <laugh> ɑ t ɑ m ɑ ʁ ə m d ə d ɑ j ə n d ɑ p q u̯ʊ j ɑ j ə n b aː d iɘ̯ p p ɑ <laugh> 
[325.435]
<no-speech> 
[326.815]
b iɘ̯ ɾ m iɘ̯ j m ɘ n m ɑ n t ə <laugh> y̯ʉ z ɘ m ʒ iɘ̯ j m ɘ n 
[331.285]
<no-speech> 
[333.805]
k ɘ ɾ s iɘ̯ j iɘ̯ n d ɘ ʉ j g iɘ̯ 
[335.115]
<no-speech> 
[336.365]
q ɑ ŋ ʁ ə ɾ ɑ b iɘ̯ ɾ m iɘ̯ j 
[337.365]
<no-speech> 
[338.655]
m ɘ n d iɘ̯ t t ɘ t ʉ ɾ d iɘ̯ b aː r 
[339.985]
<no-speech> 
[341.855]
<no-speech> 
[342.645]
<no-speech> 
[344.065]
<no-speech> 
[344.625]
<no-speech> 
[348.425]
y̯ʉ z ɘ ŋ n iɘ̯ ɘ s t iɘ̯ p ʒ ʉ ɾ s ɘ ŋ 
[349.635]
<no-speech> 
[351.725]
y̯ʉ z ɘ ŋ n iɘ̯ ɘ s t iɘ̯ p ʒ ʉ ɾ s ɘ ŋ 
[352.965]
<no-speech> 
[355.975]
ɘ j iɘ̯ 
[356.525]
<no-speech> 
[360.385]
ɘ j iɘ̯ 
[361.175]
<no-speech> 
[362.755]
ɑ ɾ ʁ ə ʒ ɑ q t ɑ ʃ ə w l ɑ p ʒ ɑ t ə ɾ ʁ u̯ʊ j b ɑ ɾ l ə ʁ ə 
[364.695]
<no-speech> 
[365.825]
<no-speech> 
[366.215]
<no-speech> 
[367.525]
ɘ j iɘ̯ 
[367.955]
<no-speech> 
[368.785]
ɑ t ʉ s y̯ʉ n ɘ k t ɘ 
[370.355]
<no-speech> 
[372.735]
<laugh> n y̯ʉ m ɘ ɾ ɘ ŋ d ɘ b iɘ̯ ɾ ɘ p k iɘ̯ t p iɘ̯ j s ɘ ŋ bj ɛ 
[376.935]
<no-speech> 
[378.525]
n y̯ʉ m ɘ ɾ ɘ ŋ d ɘ b iɘ̯ ɾ ɘ p k iɘ̯ t p iɘ̯ j s ɘ ŋ bj ɛ 
[380.145]
<no-speech> 
[383.485]
<laugh> ə m æ ŋ g ɘ m iɘ̯ ɑ j t 
[387.975]
<no-speech> 
[393.665]
<no-speech> 
[395.005]
<no-speech> 
[396.175]
s ɑ b ɑ ʁ ə ŋ d ə ɘ s t iɘ̯ p q u̯ʊ j d ə ŋ b aː 
[397.865]
<no-speech> 
[399.215]
ə m <breath> s ɑ b ɑ ʁ ə ŋ d ə ɘ s t iɘ̯ d ɘ ŋ bj ɛ 
[401.805]
<no-speech> 
[407.045]
ɑ 
[407.775]
<no-speech> 
[409.075]
ə m t ʉ s y̯ʉ n ɘ k t ɘ 
[410.335]
<no-speech> 
[412.385]
<no-speech> 
[413.485]
<no-speech> 
[418.235]
<no-speech> 
[418.595]
<no-speech> 
[420.225]
s u̯ʊ s ə n 
[420.935]
<no-speech> 
[422.835]
ɑ 
[423.715]
<no-speech> 
[426.685]
<no-speech> 
[427.285]
<no-speech> 
[433.615]
<breath> u̯ʊ l ʉ j d iɘ̯ ʒ ʉ ɾ m ɘ z 
[436.025]
<no-speech> 
[443.305]
<no-speech> 
[443.985]
<no-speech> 
[446.665]
s u̯ʊ l ʉ ʃ ɘ n b u̯ʊ j ɑ j s ə ŋ b aː 
[447.865]
<no-speech> 
[448.725]
s u̯ʊ l ʉ ʃ ɘ n bj ɛ s u̯ʊ l ʉ ʃ ɘ n b u̯ʊ j ɑ j s ə ŋ b aː ʃ ɑ ʃ ə ŋ d ə 
[451.965]
<no-speech> 
[456.325]
k r aː s k a m iɘ̯ n bj ɛ 
[457.615]
<no-speech> 
[463.895]
<no-speech> 
[466.635]
<no-speech> 
[468.445]
<int> b u̯ʊ j ɑ w 
[469.705]
<no-speech> 
[472.215]
ɘ j iɘ̯ 
[472.845]
<no-speech> 
[473.725]
<no-speech> 
[474.105]
<no-speech> 
[477.865]
ə m 
[478.595]
<no-speech> 
[481.915]
ɘ j iɘ̯ 
[482.695]
<no-speech> 
[483.815]
x m 
[484.585]
<no-speech> 
[485.785]
<no-speech> 
[487.665]
<no-speech> 
[488.815]
<laugh> <int> y̯ʉ z ɘ ŋ q ɑ l ɑ j s ə ŋ 
[492.955]
<no-speech> 
[495.995]
ʒ ʉ ɾ m ɘ n ʉ j ʒ ɑ q t ɑ s u̯ʊ l 
[497.275]
<no-speech> 
[505.215]
n iɘ̯ d iɘ̯ j d 
[506.125]
<no-speech> 
[509.975]
ʉ j g iɘ̯ m iɘ̯ 
[510.935]
<no-speech> 
[512.855]
m iɘ̯ k t iɘ̯ p k iɘ̯ m iɘ̯ ʉ j g iɘ̯ m iɘ̯ 
[514.155]
<no-speech> 
[517.335]
<no-speech> ɑ 
[518.685]
<no-speech> 
[522.265]
ə m 
[523.165]
<no-speech> 
[525.065]
b ɑ ɾ ɑ s ə ŋ b aː 
[525.935]
<no-speech> 
[527.465]
<no-speech> 
[527.945]
<no-speech> 
[530.555]
ə m 
[531.305]
<no-speech> 
[534.225]
<no-speech> ʒ u̯ʊ q ɑ j t ə p q u̯ʊ j ɑ m ə n 
[537.135]
<no-speech> 
[540.285]
<no-speech> 
[541.235]
<no-speech> 
[542.745]
<no-speech> 
[546.605]
<no-speech> 
[547.935]
<int> a l ɔ a l ɔ 
[553.185]
<no-speech> 
[554.115]
a l ɔ 
[554.735]
<no-speech> 
[555.825]
ɑ j t ɑ b iɘ̯ ɾ 
[556.625]
<no-speech> 
[561.085]
<no-speech> m iɘ̯ n u̯ʊ t ə ɾ m ə n <laugh> s iɘ̯ n 
[563.825]
<no-speech> 
[570.535]
ʒ ɑ w ɾ ɑ ʁ ɑ n ʒ u̯ʊ q s ə ŋ b aː 
[571.705]
<no-speech> 
[573.775]
ʒ ɑ w ɾ ɑ ʁ ɑ n ʒ u̯ʊ q s ə ŋ b aː 
[574.925]
<no-speech> 
[578.435]
ɑ 
[579.185]
<no-speech> 
[583.375]
iɘ̯ n d ɘ ʉ j ɘ n iɘ̯ k ɘ ɾ s iɘ̯ j 
[584.625]
<no-speech> 
[594.575]
<no-speech> 
[594.945]
<no-speech> 
[597.845]
ʒ ɑ q s ə 
[598.435]
<no-speech> 
[600.040]
