[0.000]
<no-speech> 
[6.582]
<no-speech> 
[13.165]
ɑ m ɑ n 
[13.745]
<no-speech> 
[19.105]
ɑ m ɑ n 
[19.685]
<no-speech> 
[22.515]
s æ l iɘ̯ m 
[23.235]
<no-speech> 
[25.335]
q ɑ l ɑ j s ə ŋ 
[26.175]
<no-speech> 
[31.215]
ʒ ɑ q s ə n iɘ̯ ɘ s t iɘ̯ p ʒ ɑ t ə ɾ s ə ŋ 
[32.885]
<no-speech> 
[39.695]
ɑ q ɑ j d ɑ s ə ŋ m iɘ̯ n d ɑ l ɑ d ɑ u̯ʊ q ə w u̯ʊ ɾ n ə n d ɑ 
[46.055]
<no-speech> 
[52.795]
ʒ ɑ t ɑ q χ ɑ n ɑ d ɑ s ə ŋ b aː 
[54.225]
<no-speech> 
[59.585]
ə m æ ŋ g ɘ m iɘ̯ ɑ j t 
[61.855]
<no-speech> 
[70.035]
ɑ w t ʉ s ɘ m b iɘ̯ d ɘ m 
[72.015]
<no-speech> 
[82.145]
ɑ w 
[82.735]
<no-speech> 
[86.035]
ɑ w 
[86.635]
<no-speech> 
[87.645]
<breath> m iɘ̯ n <hes> u̯ʊ q ə w u̯ʊ ɾ n ə n ə ŋ ɑ l d ə n d ɑ 
[91.295]
<no-speech> 
[95.725]
q ɑ t t ə ɾ ɑ q s y̯ʉ j l iɘ̯ ʃ ɘ iɘ̯ s t ɘ l m iɘ̯ j t m ɑ ʁ ɑ n 
[98.075]
<no-speech> 
[103.775]
m iɘ̯ n d iɘ̯ ʒ ɑ ŋ ɑ l ə q ʒ u̯ʊ q q ɑ z ɘ ɾ q ə s q ə s ə n ɑ q q ɑ d ɑ j ə n d ɑ l ə w d ɑ m ə n 
[109.075]
<no-speech> 
[116.545]
s iɘ̯ n ʃ iɘ̯ 
[117.255]
<no-speech> 
[124.585]
ɑ t ʉ s y̯ʉ n ɘ k t ɘ 
[126.125]
<no-speech> 
[129.705]
b ʉ g ɘ ŋ g ɘ s ɑ b ɑ q q ə z ə q y̯ʉ t t ɘ 
[131.745]
<no-speech> 
[133.665]
s ɑ b ɑ q q ə z ə q y̯ʉ t t ɘ 
[134.975]
<no-speech> 
[139.065]
<no-speech> 
[139.435]
<no-speech> 
[140.345]
b ɘ z iɘ̯ s iɘ̯ p t iɘ̯ ɾ ʃ ə ʁ ɑ ɾ ə p u̯ʊ t ə ɾ d ə q k iɘ̯ j ɘ n ʉ ʃ ɘ n ʃ ɘ p aː r a d ɑ n b ɘ z d ɘ ʒ ɘ b iɘ̯ ɾ iɘ̯ s ɑ l d ə 
[146.945]
<no-speech> 
[153.845]
ʒ ɑ t ɑ q χ ɑ n ɑ d ɑ n iɘ̯ q ə z ə q b u̯ʊ p ʒ ɑ t ə ɾ 
[155.835]
<no-speech> 
[163.705]
ɑ w 
[164.335]
<no-speech> 
[172.455]
ə m 
[174.355]
<no-speech> 
[175.235]
<no-speech> 
[175.835]
<no-speech> 
[176.875]
ɑ l d ə m ə z d ɑ k iɘ̯ l iɘ̯ ʒ ɑ t q ɑ n d iɘ̯ m ɑ l ə s k ʉ n d y̯ʉ ɾ ɘ n iɘ̯ ɘ s t iɘ̯ j s ɘ z 
[181.245]
<no-speech> 
[191.115]
ɑ w 
[191.695]
<no-speech> 
[195.015]
n iɘ̯ d iɘ̯ j s ɘ ŋ 
[195.745]
<no-speech> 
[197.065]
a x a 
[197.775]
<no-speech> 
[201.235]
ɘ j iɘ̯ ɘ j iɘ̯ 
[202.015]
<no-speech> 
[204.455]
<no-speech> 
[204.815]
<no-speech> 
[209.965]
<breath> d ʊ ɾ ə s ʒ ɑ ŋ ɑ ʒ ə l d ɑ n iɘ̯ ɘ s t iɘ̯ j s ɘ ŋ 
[213.505]
<no-speech> 
[222.355]
ɑ l m ɑ t ə q ɑ l ɑ s ə n d ɑ b u̯ʊ l ɑ t ə n ʃ ə ʁ ɑ ɾ s ə ŋ ɘ j iɘ̯ 
[224.395]
<no-speech> 
[229.565]
ə m 
[230.495]
<no-speech> 
[236.135]
ʒ iɘ̯ k iɘ̯ y̯ʉ m ɘ ɾ ɘ ŋ d iɘ̯ q ɑ n d ɑ j ʒ ɑ ŋ ɑ l ə q b u̯ʊ p ʒ ɑ t ə ɾ 
[238.795]
<no-speech> 
[243.015]
ʒ iɘ̯ k iɘ̯ y̯ʉ m ɘ ɾ ɘ n d iɘ̯ q ɑ n d ɑ j ʒ ɑ ŋ ɑ l ə q b u̯ʊ p ʒ ɑ t ə ɾ 
[245.745]
<no-speech> 
[256.535]
ʒ iɘ̯ k iɘ̯ y̯ʉ m ɘ ɾ ɘ n d iɘ̯ q ɑ n d ɑ j ʒ ɑ ŋ ɑ l ə q t ɑ ɾ b u̯ʊ p ʒ ɑ t ə ɾ 
[259.225]
<no-speech> 
[268.655]
ɑ k iɘ̯ ʃ iɘ̯ g ɘ g iɘ̯ ɾ iɘ̯ n ʒ ɘ m iɘ̯ ʒ ɑ ɾ ɑ j t m ɑ b ɘ l g iɘ̯ n ɘ m d iɘ̯ s iɘ̯ n ɘ m iɘ̯ n b ɘ ɾ g iɘ̯ b ɑ ɾ ɑ ɾ iɘ̯ d ɘ m 
[274.445]
<no-speech> 
[276.295]
k iɘ̯ ʃ iɘ̯ g ɘ g iɘ̯ s iɘ̯ n ɾ iɘ̯ n ʒ ɘ m iɘ̯ b ɘ l g iɘ̯ n ɘ m d iɘ̯ s iɘ̯ n ɘ m iɘ̯ n b ɘ ɾ g iɘ̯ b ɑ ɾ ɑ ɾ iɘ̯ d ɘ m b u̯ʊ s q ɑ 
[280.765]
<no-speech> 
[287.835]
<no-speech> 
[294.905]
ʒ ɑ n ə m d ɑ b u̯ʊ t ɑ m iɘ̯ n ʁ ɑ n ɑ s u̯ʊ l b ɑ s q ɑ 
[298.455]
<no-speech> 
[302.745]
ʒ ɑ n ə m d ɑ t iɘ̯ k b u̯ʊ t ɑ m iɘ̯ n ʁ ɑ n ɑ 
[304.815]
<no-speech> 
[311.375]
s iɘ̯ n ʃ iɘ̯ s iɘ̯ n d iɘ̯ q ɑ s ə ŋ d ɑ k ɘ m b aː r k ɔ m n ə t a d ɑ 
[314.335]
<no-speech> 
[323.025]
y̯ʉ z ɘ ŋ ʒ ɑ l ʁ ə z s ə ŋ b aː 
[324.455]
<no-speech> 
[328.895]
ɑ <breath> 
[330.365]
<no-speech> 
[337.500]
<no-speech> 
[344.635]
q ɑ z ɘ ɾ m ɑ 
[345.685]
<no-speech> 
[348.665]
t ʉ s ɘ m b iɘ̯ d ɘ m 
[349.585]
<no-speech> 
[351.025]
<cough> s ɑ b ɑ q u ʒ ɛ b ɘ t ɘ p k iɘ̯ t k iɘ̯ n 
[353.675]
<no-speech> 
[355.505]
a x a b ɑ ɾ d ə 
[356.895]
<no-speech> 
[362.435]
ɑ w 
[363.095]
<no-speech> 
[370.255]
q ɑ t t ə ɾ ɑ q s y̯ʉ j l iɘ̯ ʃ ɘ iɘ̯ s t ɘ l m iɘ̯ j ʒ ɑ t ə ɾ 
[372.535]
<no-speech> 
[379.745]
ɑ <laugh> 
[381.615]
<no-speech> 
[390.535]
t ʉ s k ɘ ɑ s ə ŋ d ə ɘ ʃ t ɘ ŋ bj ɛ 
[392.095]
<no-speech> 
[396.455]
t ʉ s k ɘ ɑ s ə ŋ d ə ɘ ʃ t ɘ ŋ bj ɛ 
[398.115]
<no-speech> 
[403.525]
t ɑ m ɑ q ʒ ɑ s ɑ m ɑ d ə ŋ b aː s iɘ̯ n d iɘ̯ 
[407.045]
<no-speech> 
[414.245]
q ɑ n d ɑ j t ɑ ʁ ɑ m d ɑ ɾ d ə ʊ n ɑ t ɑ s ə ŋ 
[416.535]
<no-speech> 
[424.345]
<laugh> q ɑ n d ɑ j t ʉ s ʊ n ɑ j d ə s ɑ ʁ ɑ n 
[427.605]
<no-speech> 
[432.075]
q ɑ n d ɑ j t ʉ s ʊ n ɑ j d ə 
[433.785]
<no-speech> 
[439.945]
a x a 
[440.565]
<no-speech> 
[449.425]
ə m æ d iɘ̯ m ɘ t ʉ s t iɘ̯ ɾ 
[452.525]
<no-speech> 
[459.125]
m ɑ ʁ ɑ n ɑ q q u̯ʊ ŋ ə ɾ k y̯ʉ k 
[463.695]
<no-speech> 
[470.135]
<no-speech> 
[476.575]
t iɘ̯ l iɘ̯ d ɘ j d ɑ ɾ k y̯ʉ p k y̯ʉ ɾ iɘ̯ s ɘ ŋ bj ɛ 
[478.445]
<no-speech> 
[482.365]
t iɘ̯ l iɘ̯ d ɘ j d ɑ ɾ k y̯ʉ p k y̯ʉ ɾ iɘ̯ s ɘ ŋ bj ɛ 
[484.965]
<no-speech> 
[492.975]
b u̯ʊ s w ɑ q ə t ə ŋ d ɑ n iɘ̯ ɘ s t iɘ̯ j s ɘ ŋ 
[494.875]
<no-speech> 
[497.085]
<no-speech> 
[497.485]
<no-speech> 
[507.595]
<breath> d ʊ ɾ ə s 
[509.515]
<no-speech> 
[520.885]
k y̯ʉ l ɘ k ɑ j d ɑ ʁ ɑ n d ə b ɘ l iɘ̯ s ɘ ŋ bj ɛ 
[522.785]
<no-speech> 
[526.875]
k y̯ʉ l ɘ k ɑ j d ɑ w d ə <laugh> b ɘ l iɘ̯ s ɘ ŋ bj ɛ 
[529.165]
<no-speech> 
[535.655]
k y̯ʉ l ɘ k ɑ j d ɑ w d ə b ɘ l iɘ̯ s ɘ ŋ bj ɛ 
[537.825]
<no-speech> 
[543.925]
<no-speech> 
[550.025]
k y̯ʉ l ɘ k ɑ j d ɑ ʁ ɑ n d ə b ɘ l iɘ̯ s ɘ ŋ bj ɛ ɑ m ɑ n 
[552.545]
<no-speech> 
[553.755]
<no-speech> 
[554.155]
<no-speech> 
[561.075]
<breath> æ ŋ g ɘ m iɘ̯ ɑ j t s ɑ j t ɑ ʁ ə 
[564.255]
<no-speech> 
[569.075]
<breath> æ ŋ g ɘ m iɘ̯ ɑ j t s ɑ j 
[570.805]
<no-speech> 
[577.815]
<laugh> <hes> q ɑ n d ɑ j n iɘ̯ g iɘ̯ ɑ j t s ɑ m b u̯ʊ l ɑ d ə q ɑ n d ɑ j t ɑ q ə ɾ ə p q ɑ ɑ j t ɑ m ə n 
[585.735]
<no-speech> 
[587.205]
q ɑ n d ɑ j t ɑ q ə ɾ ə p q ɑ ɑ j t ɑ j ə q 
[588.445]
<no-speech> 
[600.040]
