[0.000]
<no-speech> 
[11.755]
a l ɔ 
[12.285]

[13.105]

[13.495]

[19.335]

[23.185]
<no-speech> 
[24.245]
a l ɔ 
[24.855]
<no-speech> 
[25.775]
a l ɔ iɘ̯ s t ɘ l ɘ p t ʊ ɾ m ɑ 
[27.655]
<no-speech> 
[28.985]
ɑ 
[29.705]
<no-speech> 
[30.555]
ɘ j iɘ̯ 
[31.055]
<no-speech> 
[32.105]
<hes> q ɑ l ɑ j s ə ŋ d ɑ ɾ 
[33.075]
<no-speech> 
[34.015]
b ɑ l ɑ ʃ ɑ ʁ ɑ q ɑ l ɑ j 
[34.955]
<no-speech> 
[37.695]
ɑ l n iɘ̯ ɘ s t iɘ̯ p ʒ ɑ t s ə ŋ d ɑ ɾ 
[38.705]
<no-speech> 
[39.555]
y̯ʉ z ɘ ŋ ʒ ʊ m ə s t ɑ s ə n b aː 
[40.815]
<no-speech> 
[41.985]

[42.395]
<no-speech> 
[47.345]
q ɑ j ʒ ɑ q q ɑ k iɘ̯ t ɘ p b ɑ ɾ ɑ ʒ ɑ t ə ɾ m ə n 
[48.275]
<no-speech> 
[53.155]
y̯ʉ j ɑ j t k ʉ l 
[54.105]
<no-speech> 
[55.075]
<hes> ɑ iɘ̯ s t ɘ l m iɘ̯ j t ʊ ɾ m ɑ n iɘ̯ iɘ̯ s t ɘ l m iɘ̯ j ʒ ɑ t ə ɾ m ɑ 
[58.675]
<no-speech> 
[61.365]

[61.875]
<no-speech> 
[63.585]
ɑ u̯ʊ n 
[65.815]
<no-speech> 
[67.105]
u̯ʊ n mj ɪ n u t t aː j æ ŋ g ɘ m iɘ̯ æ ŋ g ɘ m iɘ̯ l iɘ̯ ɾ d ɘ ɑ j t ə w ə ŋ ə z k iɘ̯ ɾ iɘ̯ k æ ŋ g ɘ m iɘ̯ ɑ j t ə w ə ŋ ə z k iɘ̯ ɾ iɘ̯ k u̯ʊ n mj ɪ n u t u̯ʊ n mj ɪ n u t s y̯ʉ j l iɘ̯ s ɘ w k iɘ̯ ɾ iɘ̯ k 
[72.345]
<no-speech> 
[73.975]
<lipsmack> t aː k ʃ t ɔ q ɑ n d ɑ j ʒ ə j n ɑ l ʁ ɑ n 
[75.525]
<no-speech> 
[76.545]
ʒ ɑ ŋ ɑ l ə q t ɑ ɾ ʒ ɑ ŋ ɑ l ə q t ɑ ɾ d ə ʒ æ j l ɑ p b ɘ ɾ t ɘ n d iɘ̯ p b ɑ s ə n ɑ n b ɑ s t ɑ p n iɘ̯ q ə z ə q iɘ̯ s t ɘ g iɘ̯ n y̯ʉ s iɘ̯ k t iɘ̯ ɾ ɘ ŋ n ɘ ŋ b æ ɾ ɘ n 
[83.855]
<no-speech> 
[84.805]
k ɘ m d iɘ̯ ɾ d ɘ k y̯ʉ ɾ ɘ p t ʊ ɾ ɑ s ə ŋ s iɘ̯ n 
[85.975]
<no-speech> 
[87.965]
ɑ w 
[88.495]
<no-speech> 
[94.655]

[95.655]
<no-speech> 
[102.125]
ɑ 
[104.255]
<no-speech> 
[108.225]
ɑ j ə n ɑ b ɘ ɾ ɾ iɘ̯ t b u̯ʊ l s ɑ d aː 
[110.495]
<no-speech> 
[114.775]
u̯ʊ n ə d aː ʒ ə j n ɑ p t ʊ ɾ ɑ d ə iɘ̯ k iɘ̯ n s ɘ ŋ d iɘ̯ ɾ ɑ w d iɘ̯ j m ɘ n ɑ j ə n ɑ b ɘ ɾ ɾ iɘ̯ t b u̯ʊ l s ɑ d aː 
[118.315]
<no-speech> 
[125.585]
q ə w ɑ n <oov> q ɑ j d ɑ n k y̯ʉ ɾ d ɘ ŋ u̯ʊ n ə 
[127.115]
<no-speech> 
[130.655]
q ɑ j ʒ ɑ q t ɑ n k iɘ̯ z d iɘ̯ s t ɘ ŋ u̯ʊ n ə m iɘ̯ n 
[131.975]
<no-speech> 
[134.335]
q ə w ɑ n d ə q ɑ j d ɑ n k y̯ʉ ɾ d ɘ ŋ d iɘ̯ j m ɘ n 
[136.005]
<no-speech> 
[137.685]
iɘ̯ iɘ̯ d ʊ ɾ ə s iɘ̯ s t ɘ l m iɘ̯ j ʒ ɑ t ə ɾ 
[139.005]
<no-speech> 
[141.755]

[142.395]
<no-speech> 
[146.715]
k y̯ʉ ɾ d ɘ ŋ bj ɛ 
[147.535]
<no-speech> 
[154.095]
k ɘ m u̯ʊ l k ɘ m d iɘ̯ j s ɘ ŋ 
[155.705]
<no-speech> 
[160.895]
u̯ʊ l q ə w ɑ n d iɘ̯ g iɘ̯ n d ɘ t ʉ s ɘ n d ɘ m 
[162.585]
<no-speech> 
[164.735]
k ɘ m ɑ p k iɘ̯ l d ɘ 
[165.705]
<no-speech> 
[169.275]

[169.745]
<no-speech> 
[174.485]
ʒ ɑ j m ɑ 
[175.195]
<no-speech> 
[178.205]
ɑ 
[179.065]
<no-speech> 
[179.925]
ɘ j iɘ̯ ɘ j iɘ̯ ɑ j t ɑ b iɘ̯ ɾ 
[181.015]
<no-speech> 
[183.455]
t ɑ ʁ ə k ɘ m 
[184.215]
<no-speech> 
[185.105]
iɘ̯ s t ɘ d ɘ m iɘ̯ s t ɘ d ɘ m 
[186.825]
<no-speech> 
[195.775]

[196.535]
<no-speech> 
[198.025]
t ʉ s ɘ m b iɘ̯ d ɘ m 
[198.525]
<no-speech> 
[204.535]
z v ɔ n d ɑ d ə d iɘ̯ j s ɘ ŋ bj ɛ 
[206.555]
<no-speech> 
[208.985]
a l ɔ 
[209.685]
<no-speech> 
[211.765]
tj ɪ lj ɪ f ɔ n ə b aː r m ɑ 
[212.825]
<no-speech> 
[214.455]
tj ɪ lj ɪ f ɔ n ə ŋ ʒ ɘ b iɘ̯ ɾ s iɘ̯ j m ɑ ʁ ɑ n n iɘ̯ m iɘ̯ n ɘ s ɘ m ɘ s p iɘ̯ n u̯ʊ ŋ t ɑ l ɑ p t ə ŋ u̯ʊ ŋ t ɑ l ɑ p t ɘ k ɘ n 
[218.295]
<no-speech> 
[221.005]
a l ɔ ɘ j iɘ̯ 
[223.925]
<no-speech> 
[225.505]
ɑ 
[226.015]
<no-speech> 
[229.425]
s ə a p ʃjː e nj ɪ j ə m iɘ̯ n ʒ ɘ b iɘ̯ ɾ m ɑ q ʊ l m ɑ 
[230.715]
<no-speech> 
[236.975]
ɑ 
[237.495]
<no-speech> 
[242.545]
ɘ j iɘ̯ ʒ ʊ m ə s t ɑ m ə n ʒ ʊ m ʊ s t ɑ 
[244.115]
<no-speech> 
[245.575]
iɘ̯ k ɘ n ʃ ɘ q ə z d ə ʊ z ɑ t t ə q <hes> ʒ ɑ q ə n d ɑ iɘ̯ k ɘ n ʃ ɘ q ə z d ə <oov> ʊ z ɑ t t ə q t ɑ ʁ ə 
[249.865]
<no-speech> 
[251.915]
<int> a l ɔ 
[252.845]
<no-speech> 
[253.965]
iɘ̯ k ɘ n ʃ ɘ q ə z b aː r iɘ̯ d ɘ ʁ u̯ʊ j ʒ ɑ n ɑ ɾ d iɘ̯ j t ɘ n 
[255.715]
<no-speech> 
[257.335]
ʧj ɔ t ɔ m ɑ ʁ ɑ n d aː iɘ̯ s t ɘ l m iɘ̯ j ʒ ɑ t ə ɾ m ɑ ʁ ɑ n iɘ̯ s t ɘ l m iɘ̯ j ʒ ɑ t ə ɾ 
[260.935]
<no-speech> 
[262.245]
b ɘ ɾ æ q iɘ̯ n d ɘ s y̯ʉ j l iɘ̯ s iɘ̯ b iɘ̯ ɾ iɘ̯ j ɘ k 
[264.245]
<no-speech> 
[266.445]
p ə p a d aː j ɪ t 
[267.815]
<no-speech> 
[269.155]
ɑ 
[271.025]
<no-speech> 
[272.085]
s iɘ̯ n ɘ ŋ s y̯ʉ z d iɘ̯ ɾ ɘ ŋ d iɘ̯ k iɘ̯ j d iɘ̯ <hes> 
[274.715]
<no-speech> 
[276.065]
ʒ u̯ʊ q u̯ʊ s ə m iɘ̯ n s y̯ʉ j l iɘ̯ s iɘ̯ b iɘ̯ ɾ ɔ s ɨ n y̯ʉ m ɘ ɾ m iɘ̯ n s y̯ʉ j l iɘ̯ s 
[278.875]
<no-speech> 
[279.825]
ɔ s ɨ n y̯ʉ m ɘ ɾ m iɘ̯ n 
[281.825]
<no-speech> 
[283.855]
ɘ j iɘ̯ k iɘ̯ j ɘ n ɑ ɾ t ə n ɑ n ɑ ɾ t ə n ɑ n t ʉ s ɘ n d ɘ ɾ ɘ p ɑ j t ɑ ɾ m ə n 
[286.255]
<no-speech> 
[289.615]
aː r t ɑ ɾ t ə n ɑ n ɑ j t ɑ m ə n ʒ u̯ʊ q s y̯ʉ j l iɘ̯ j b iɘ̯ ɾ t ʉ s ɘ n d ɘ ŋ bj ɛ u̯ʊ n mj ɪ n u t s y̯ʉ j l iɘ̯ s ɘ w k iɘ̯ ɾ iɘ̯ k 
[294.755]
<no-speech> 
[295.995]
<hes> y̯ʉ z ɘ y̯ʉ ʃ iɘ̯ d ɘ y̯ʉ ʃ k iɘ̯ n ʃ iɘ̯ s y̯ʉ j l iɘ̯ s ɘ w k iɘ̯ ɾ iɘ̯ k 
[300.395]
<no-speech> 
[301.505]
ɑ 
[302.085]
<no-speech> 
[308.145]
<hes> 
[308.525]
<no-speech> 
[309.665]

[314.275]
<no-speech> 
[315.295]
t ɑ ʁ ə k ɘ m d iɘ̯ ɾ b aː r k y̯ʉ ɾ iɘ̯ s ɘ ŋ bj ɛ 
[318.185]
<no-speech> 
[321.315]
<hes> iɘ̯ ɾ t iɘ̯ n z v ɔ n d ɑ j m ə n u̯ʊ l b ɑ s q ɑ z v a n ɔ k b u̯ʊ l ɑ d ə y̯ʉ z ɘ m z v ɔ n d ɑ j m ə n 
[324.725]
<no-speech> 
[326.195]
k y̯ʉ ɾ ɘ p t ʊ ɾ ɑ s ə ŋ b aː u̯ʊ l ɑ ɾ d ə 
[327.895]
<no-speech> 
[330.335]
ɑ 
[330.845]
<no-speech> 
[333.055]
ɑ 
[333.675]
<no-speech> 
[335.465]
ɘ j iɘ̯ b ɘ l iɘ̯ m ɘ n b ɘ l iɘ̯ m ɘ n b ɘ l iɘ̯ m ɘ n a x a 
[338.345]
<no-speech> 
[341.705]
ɑ u̯ʊ l ɘ j iɘ̯ <hes> 
[343.735]
<no-speech> 
[345.825]
u̯ʊ l ʒ ʊ m ə s ə n d ɑ ʒ ʊ m ə s 
[347.145]
<no-speech> 
[350.325]
m ɑ ʁ ɑ n d iɘ̯ j m iɘ̯ 
[351.245]
<no-speech> 
[353.335]
ɑ n ɔ v ɨ j g ɔ t t ɑ k iɘ̯ l iɘ̯ m ɘ n d iɘ̯ j m iɘ̯ n iɘ̯ 
[355.285]
<no-speech> 
[357.555]
ɑ ɘ j iɘ̯ b iɘ̯ s k ʉ n d iɘ̯ m ɑ l ə s q u̯ʊ j 
[360.235]
<no-speech> 
[361.925]
s u̯ʊ l k iɘ̯ z d iɘ̯ k iɘ̯ p k iɘ̯ t iɘ̯ t ɘ n ʃ ə ʁ ɑ ɾ 
[363.255]
<no-speech> 
[365.885]
ɘ j iɘ̯ ɘ j iɘ̯ 
[366.545]
<no-speech> 
[368.185]
ɑ d ʊ ɾ ə s d ʊ ɾ ə s b u̯ʊ p t ə 
[369.725]
<no-speech> 
[372.395]
x m 
[373.025]
<no-speech> 
[376.275]
a x a d ʊ ɾ ə s b u̯ʊ p t ə u̯ʊ l 
[377.995]
<no-speech> 
[379.355]
<hes> 
[379.735]
<no-speech> 
[384.315]

[385.235]
<no-speech> 
[389.095]
ɑ q ɑ n ʃ ɑ ʒ ə l b u̯ʊ l d ə 
[390.745]
<no-speech> 
[396.325]
ɑ d ʊ ɾ ə s b u̯ʊ p t ə u̯ʊ l ɑ w ə l 
[397.885]
<no-speech> 
[399.725]
ɑ w ə l d ɑ b u̯ʊ l ɑ ɾ u̯ʊ ŋ t ɑ l ɑ p 
[400.985]
<no-speech> 
[403.785]
a l ɔ ɑ j t k ʉ l 
[404.575]
<no-speech> 
[405.905]
iɘ̯ iɘ̯ s u̯ʊ l ʒ ɑ ŋ ɑ ʁ ə n y̯ʉ m ɘ ɾ ɘ n m ɑ ʁ ɑ n ʒ ɑ z 
[408.485]
<no-speech> 
[409.855]
n y̯ʉ m ɘ ɾ ɘ n ʒ ɑ z ə p ʒ ɘ b iɘ̯ ɾ ɘ w t ʊ m ə t p ɑ d iɘ̯ j m ɘ n 
[411.585]
<no-speech> 
[414.055]
a x a 
[414.695]
<no-speech> 
[416.365]
<hes> ɘ j iɘ̯ ɘ j iɘ̯ s u̯ʊ l n y̯ʉ m ɘ ɾ g iɘ̯ ʒ ɘ b iɘ̯ ɾ 
[418.385]
<no-speech> 
[423.395]
ʒ ɑ ɾ ɑ j t ʒ ɑ ɾ ɑ j t <breath> t ɑ ʁ ə n iɘ̯ b ɑ s q ɑ æ ŋ g ɘ m iɘ̯ l iɘ̯ ɾ ɘ ŋ b aː r y̯ʉ j u̯ʊ ɾ ə m b ɑ s ɑ ɾ m iɘ̯ n 
[429.165]
<no-speech> 
[431.265]
ɑ 
[431.745]
<no-speech> 
[441.165]

[441.795]
<no-speech> 
[443.605]
m iɘ̯ n d iɘ̯ s y̯ʉ j l iɘ̯ s ɘ p t ʊ ɾ ɑ t ə n iɘ̯ d ɘ m <hes> b ɘ ɾ t y̯ʉ ɾ t b iɘ̯ s aː j b u̯ʊ p k iɘ̯ t t ɘ ʁ u̯ʊ j χ ɑ b ɑ ɾ l ɑ s p ɑ j k iɘ̯ t t ɘ k q u̯ʊ j 
[448.425]
<no-speech> 
[449.995]
k ɘ m d iɘ̯ ɾ d ɘ <hes> 
[451.675]
<no-speech> 
[453.155]
ɑ 
[453.695]
<no-speech> 
[458.965]
<hes> 
[459.355]
<no-speech> 
[462.785]
ɑ u̯ʊ l q ɑ n ʃ ɑ q ɑ n ʃ ɑ 
[464.905]
<no-speech> 
[466.585]

[467.105]
<no-speech> 
[468.195]
b ɘ ɾ ʒ ə l d ɑ n ɑ s ə p k iɘ̯ t t ɘ ʁ u̯ʊ j 
[469.575]
<no-speech> 
[475.735]
ɑ 
[476.255]
<no-speech> 
[484.445]
x m 
[485.085]
<no-speech> 
[490.185]

[491.215]
<no-speech> 
[495.755]
a x a 
[496.395]
<no-speech> 
[507.985]
ɑ z æ w ɾ iɘ̯ ʃ q ɑ l ɑ j iɘ̯ k iɘ̯ n ɑ n ɑ w 
[510.365]
<no-speech> 
[512.925]
z æ w ɾ iɘ̯ ʃ q ɑ l ɑ j iɘ̯ k iɘ̯ n 
[514.055]
<no-speech> 
[516.085]
ɑ 
[516.985]
<no-speech> 
[519.495]

[520.275]
<no-speech> 
[531.525]
iɘ̯ iɘ̯ u̯ʊ ɾ ə m b ɑ s ɑ ɾ d ə ŋ tj ɪ lj ɪ f ɔ n ə b aː r ʁ u̯ʊ j s iɘ̯ n d iɘ̯ ɘ j iɘ̯ ɑ j t k ʉ l 
[534.125]
<no-speech> 
[535.555]
a l ɔ 
[536.115]
<no-speech> 
[544.015]
ɑ m iɘ̯ n d iɘ̯ d iɘ̯ b ɑ s q ɑ b ɑ s q ɑ ʧj ɪ p t iɘ̯ q ɑ l ə p q u̯ʊ j ə p t ə k y̯ʉ p tj ɪ lj ɪ f ɔ n d ɑ ɾ s iɘ̯ n ɘ k ɘ 
[551.255]
<no-speech> 
[553.115]
ɑ s u̯ʊ l ʒ ɑ ŋ ɑ u̯ʊ ɾ ə m b ɑ s ɑ ɾ m iɘ̯ n χ ɑ b ɑ ɾ l ɑ s ɑ j ə n d iɘ̯ p s y̯ʉ j l iɘ̯ s iɘ̯ j ɘ n d iɘ̯ s iɘ̯ m <hes> b ɑ s q ɑ b ɑ s q ɑ ʧj i p 
[557.545]
<no-speech> 
[559.335]
s iɘ̯ n u̯ʊ n mj ɪ n u t k ɘ m m iɘ̯ n s y̯ʉ j l iɘ̯ s iɘ̯ m ɘ n u̯ʊ n mj ɪ n u t 
[562.605]
<no-speech> 
[564.135]
ɑ 
[564.655]
<no-speech> 
[566.355]
q ə w ɑ n n iɘ̯ d iɘ̯ j d q ə w ɑ n 
[567.455]
<no-speech> 
[573.255]
ɑ ɘ j iɘ̯ ɘ j iɘ̯ 
[574.085]
<no-speech> 
[577.635]
ɑ 
[578.175]
<no-speech> 
[580.385]
ɘ j iɘ̯ 
[581.475]
<no-speech> 
[582.385]
m iɘ̯ n d iɘ̯ d iɘ̯ 
[584.605]
<no-speech> 
[585.735]
ɘ j iɘ̯ q ə q ə w ɑ n q ɑ n ʃ ɑ ʒ iɘ̯ t ɘ b aː l a m ɑ s iɘ̯ g ɘ z q ɑ n ʃ ɑ b ɑ l ɑ s ə b aː r 
[590.075]
<no-speech> 
[592.905]
q ə w ɑ n d ɑ ʒ iɘ̯ t iɘ̯ w m iɘ̯ s iɘ̯ g ɘ z bj ɛ 
[595.515]
<no-speech> 
[598.365]
a l ɔ 
[598.825]
<no-speech> 
[599.120]
